{"adult": false, "backdrop_path": "/lQ20CHSkAVdwmxtvm8Sz8Otnmg3.jpg", "belongs_to_collection": null, "budget": 0, "genres": [{"id": 35, "name": "Comedy"}], "homepage": null, "id": 100053, "imdb_id": "tt0057580", "original_language": "en", "original_title": "The Three Stooges Go Around the World in a Daze", "overview": "Phileas Fogg III, great grandson of the original Phileas Fogg, accepts a bet to duplicate his great grandfather's famous trip around the world in response to a challenge made by Randolph Stuart III, the descendant of the original Fogg's nemesis. Unbeknownst to anyone, However, \"Stuart\" is the infamous con man Vicker Cavendish who made the bet in order to cover up his robbing the bank of England by framing Fogg for the crime. This makes for a dangerous journey for Fogg and his servants (the stooges) and Amelia Carter, whom they rescue from thugs during a train ride. Can they make it back to England in time ?", "popularity": 1.888, "poster_path": "/iwgHVA13Q3lAFT3dhDdV45SHVVK.jpg", "production_companies": [], "production_countries": [], "release_date": "1963-08-21", "revenue": 0, "runtime": 94, "spoken_languages": [{"iso_639_1": "en", "name": "English"}], "status": "Released", "tagline": "", "title": "The Three Stooges Go Around the World in a Daze", "video": false, "vote_average": 5.8, "vote_count": 4, "keywords": {"keywords": [{"id": 10990, "name": "three stooges"}]}, "similar": {"page": 1, "results": [{"adult": false, "backdrop_path": "/a7ZvReVDo6wLweaUuuS417bV733.jpg", "genre_ids": [35], "id": 115805, "original_language": "en", "original_title": "Movie Maniacs", "overview": "The stooges arrive in Hollywood hoping to make it in the movie business (\"There must be a couple a hundred guys in Hollywood who don't know anything about making movies, three more ain't gonna make any difference\".) They sneak into a movie studio where they are mistaken for three new executives who were due to arrive. After taking over production of a movie, causing the director and cast to walk off, Moe takes over as director, with Larry and Curly as the leading man and lady. When the real executives send a telegram explaining why they haven't arrived, the stooges must leave on the run.", "poster_path": "/mMTeem3raQLnIeja5oTacN04GuG.jpg", "release_date": "1936-02-20", "title": "Movie Maniacs", "video": false, "vote_average": 5.7, "vote_count": 9, "popularity": 2.842}, {"adult": false, "backdrop_path": "/3MzBojkWRQAAGHnEFhQyTssu7hQ.jpg", "genre_ids": [35], "id": 47650, "original_language": "en", "original_title": "Easy Street", "overview": "A derelict, huddled under the steps of a missionary church, feels enlightened by the sermon of a passionate preacher and infatuated by the beauty of the congregation's pianist, in such a way that he tries to improve his life of poverty by becoming a policeman. His first assignment will be to patrol along Easy Street, the turf of a vicious bully and his criminal gang.", "poster_path": "/iwC1esWImnV0CvAB7j3KQ9nXxG4.jpg", "release_date": "1917-01-22", "title": "Easy Street", "video": false, "vote_average": 7.1, "vote_count": 80, "popularity": 5.808}, {"adult": false, "backdrop_path": "/3SMn1J16SNOoG0GQnQPRqJpBTw6.jpg", "genre_ids": [35, 12], "id": 31819, "original_language": "en", "original_title": "The Adventurer", "overview": "The daring convict no. 23, known as The Eel, escapes from prison and, after mocking his inept persecutors, saves the lives of three people in peril: a beautiful girl, her mother and an annoying suitor, only to get exhausted and almost drowned. Once he regains his strength at Judge Brown's home, he participates on an upper-class social party where he competes with the suitor for the favors of the charming Miss Brown. But prison guards are still after him\u2026", "poster_path": "/khSBh0dDnPsWel6P2zyZCQ2UnMp.jpg", "release_date": "1917-10-22", "title": "The Adventurer", "video": false, "vote_average": 6.9, "vote_count": 56, "popularity": 5.623}, {"id": 22950, "video": false, "vote_count": 19, "vote_average": 6.3, "title": "Disorder in the Court", "release_date": "1936-05-30", "original_language": "en", "original_title": "Disorder in the Court", "genre_ids": [35], "backdrop_path": "/rUHcPqvZSzNmAGrwO6q7mJ0wclm.jpg", "adult": false, "overview": "The Stooges are key witnesses at a murder trial. Their friend, Gail Tempest (a name whose parts are synonyms of each other), who dances at the Black Bottom cafe where the Stooges are musicians, is accused of killing Kirk Robin (a play on \"Who Killed Cock Robin?\"). Although the boys disrupt the proceedings, they manage to clear Gail's name and extract the real murderer's identity from a parrot.", "poster_path": "/l801pSeHhCPsimBxzvKaVIWvdsi.jpg", "popularity": 2.241}, {"id": 2079, "video": false, "vote_count": 33, "vote_average": 6.3, "title": "The Count", "release_date": "1916-09-04", "original_language": "en", "original_title": "The Count", "genre_ids": [35], "backdrop_path": "/CKU6r2HivN6FBNCaZNYIsVxpWw.jpg", "adult": false, "overview": "A tailor's apprentice burns Count Broko's clothes while ironing them and the tailor fires him. Later, the tailor discovers a note explaining that the count cannot attend a dance party, so he dresses as such to take his place; but the apprentice has also gone to the mansion where the party is celebrated and bumps into the tailor in disguise\u2026", "poster_path": "/trxdGbbNJrdByynYPdNrpILkCK3.jpg", "popularity": 5.011}, {"adult": false, "backdrop_path": "/rLaSi3lRSSKpelGMAEhCJNlIOOK.jpg", "genre_ids": [35], "id": 42299, "original_language": "en", "original_title": "Busy Bodies", "overview": "In this short film, Laurel and Hardy wage battle with inanimate objects, their co-workers, and the laws of physics during a routine work day at a sawmill.", "poster_path": "/mbMflFt5S2ZJFJXgJCmXYXAziIz.jpg", "release_date": "1933-10-07", "title": "Busy Bodies", "video": false, "vote_average": 7.8, "vote_count": 39, "popularity": 6.945}, {"id": 463272, "video": false, "vote_count": 1298, "vote_average": 6.2, "title": "Johnny English Strikes Again", "release_date": "2018-09-13", "original_language": "en", "original_title": "Johnny English Strikes Again", "genre_ids": [35], "backdrop_path": "/b7Q0uX4Tcd6lXWItJEMxYk9XBbc.jpg", "adult": false, "overview": "Disaster strikes when a criminal mastermind reveals the identities of all active undercover agents in Britain. The secret service can now rely on only one man - Johnny English. Currently teaching at a minor prep school, Johnny springs back into action to find the mysterious hacker. For this mission to succeed, he\u2019ll need all of his skills - what few he has - as the man with yesterday\u2019s analogue methods faces off against tomorrow\u2019s digital technology.", "poster_path": "/ryACHOzmRJiJEKjatbokudfkO74.jpg", "popularity": 15.83}, {"id": 13161, "video": false, "vote_count": 335, "vote_average": 5.8, "title": "Big Stan", "release_date": "2007-06-06", "original_language": "en", "original_title": "Big Stan", "genre_ids": [35], "backdrop_path": "/6O7TMiTUF4fdh5Jn3Xe3GtPwk2X.jpg", "adult": false, "overview": "Rob Schneider writes and stars in this comedy about a nerdy con man whose swindling ways land him a stiff prison sentence. Terrified at the prospect of being raped in prison he enlists the aid of a mysterious kung-fu expert to teach him how to fight.", "poster_path": "/9aVhW8KoKSn6l35n1WXAHZkqdwj.jpg", "popularity": 17.897}, {"adult": false, "backdrop_path": "/ukmh5KOYapcSaHIA63mp1NRzaoA.jpg", "genre_ids": [35], "id": 53416, "original_language": "en", "original_title": "The Floorwalker", "overview": "An impecunious customer creates chaos in a department store while the manager and his assistant plot to steal the money kept in the establishment's safe.", "poster_path": "/3nanSivrWLF9kiMppUAnEhOZPbJ.jpg", "release_date": "1916-05-15", "title": "The Floorwalker", "video": false, "vote_average": 6.5, "vote_count": 44, "popularity": 6.425}, {"id": 9486, "video": false, "vote_count": 2000, "vote_average": 6.2, "title": "Johnny English", "release_date": "2003-03-14", "original_language": "en", "original_title": "Johnny English", "genre_ids": [28, 12, 35], "backdrop_path": "/wNEsGAHws1UATmZfnjNBRi2Ln5.jpg", "adult": false, "overview": "A lowly pencil pusher working for MI7, Johnny English is suddenly promoted to super spy after Agent One is assassinated and every other agent is blown up at his funeral. When a billionaire entrepreneur sponsors the exhibition of the Crown Jewels\u2014and the valuable gems disappear on the opening night and on English's watch\u2014the newly-designated agent must jump into action to find the thief and recover the missing gems.", "poster_path": "/fvFOJFDwgtINOxxtrFFiCMUrGdR.jpg", "popularity": 25.499}, {"id": 9530, "video": false, "vote_count": 1009, "vote_average": 5.8, "title": "RV", "release_date": "2006-04-28", "original_language": "en", "original_title": "RV", "genre_ids": [35], "backdrop_path": "/hY3MIfukrNWveQlAiP0bQJzCqL3.jpg", "adult": false, "overview": "Climbing aboard their mammoth recreational vehicle for a cross-country road trip to the Colorado Rockies, the McNeive family \u2013 led by dysfunctional patriarch, Bob \u2013 prepares for the adventure of a lifetime. But spending two weeks together in one seriously small space has a way of cramping their style.", "poster_path": "/eqV0JjfwcEJuK3JPZ2rsNvS1p30.jpg", "popularity": 10.568}, {"id": 87818, "video": false, "vote_count": 1465, "vote_average": 4.5, "title": "Movie 43", "release_date": "2013-01-01", "original_language": "en", "original_title": "Movie 43", "genre_ids": [35], "backdrop_path": "/eGWVsZhgEyNpQ327udKz5iCLHcF.jpg", "adult": false, "overview": "A series of interconnected short films follows a washed-up producer as he pitches insane story lines featuring some of the biggest stars in Hollywood.", "poster_path": "/dv2rQ4mbFYkPTopmiOdv60DtHht.jpg", "popularity": 16.788}, {"adult": false, "backdrop_path": "/wEo4UtBAWdB4aOmQ9wRjI1aS7Dt.jpg", "genre_ids": [35, 18], "id": 10098, "original_language": "en", "original_title": "The Kid", "overview": "A tramp cares for a boy after he's abandoned as a newborn by his mother. Later the mother has a change of heart and aches to be reunited with her son.", "poster_path": "/drgMcyTsySQBnUPGaBThCHGdlWT.jpg", "release_date": "1921-02-06", "title": "The Kid", "video": false, "vote_average": 8.3, "vote_count": 976, "popularity": 16.845}, {"adult": false, "backdrop_path": null, "genre_ids": [35], "id": 139589, "original_language": "en", "original_title": "An Interesting Story", "overview": "The adventures of an inattentive man who can't look away from his book.", "poster_path": "/mbaadArQr1H1RX0MmlgibRhF6mS.jpg", "release_date": "1904-10-01", "title": "An Interesting Story", "video": false, "vote_average": 5.4, "vote_count": 8, "popularity": 1.4}, {"id": 14813, "video": false, "vote_count": 456, "vote_average": 7.6, "title": "Mickey's Christmas Carol", "release_date": "1983-10-19", "original_language": "en", "original_title": "Mickey's Christmas Carol", "genre_ids": [16, 10751], "backdrop_path": "/fDK3xeAcQfQ40ZUULgZshElkspa.jpg", "adult": false, "overview": "It is an adaptation of the Charles Dickens classic A Christmas Carol, featuring Scrooge McDuck as his namesake and inspiration Ebenezer Scrooge and Mickey Mouse as Bob Cratchit. This film was based on a 1972 audio musical entitled Disney's A Christmas Carol. It is a twenty-four minute animated short film produced by Walt Disney Productions as an accompaniment to a re-release of The Rescuers.", "poster_path": "/29iF1IiC3ZyJQ1kmTf4LD8p8oro.jpg", "popularity": 14.7}, {"id": 3082, "video": false, "vote_count": 1966, "vote_average": 8.3, "title": "Modern Times", "release_date": "1936-02-05", "original_language": "en", "original_title": "Modern Times", "genre_ids": [35, 18], "backdrop_path": "/s58uDwuyVMqgsbmnfyrbpfF147.jpg", "adult": false, "overview": "The Tramp struggles to live in modern industrial society with the help of a young homeless woman.", "poster_path": "/7uoiKOEjxBBW0AgDGQWrlfGQ90w.jpg", "popularity": 15.676}, {"adult": false, "backdrop_path": "/qIpQpUvw2XmHPurM830a4fL18wc.jpg", "genre_ids": [35], "id": 53417, "original_language": "en", "original_title": "The Fireman", "overview": "Charlie is a fireman who always does everything wrong. A man talks the Fire Chief into ignoring his burning home (he wants the insurance money) unaware that his daughter (the love of the Chief) is upstairs in the house. When the house next door catches fire its owner rouses Charlie who rouses the force.", "poster_path": "/qv0Ztunygb0ubC8f0TlRLyL0W2R.jpg", "release_date": "1916-06-12", "title": "The Fireman", "video": false, "vote_average": 6.4, "vote_count": 43, "popularity": 6.163}, {"id": 11575, "video": false, "vote_count": 128, "vote_average": 7.4, "title": "The Great Race", "release_date": "1965-07-01", "original_language": "en", "original_title": "The Great Race", "genre_ids": [12, 35], "backdrop_path": "/7iCZddqVchGyxkmnjiSUpiR7XCM.jpg", "adult": false, "overview": "Professional daredevil and white-suited hero, The Great Leslie, convinces turn-of-the-century auto makers that a race from New York to Paris (westward across America, the Bering Straight and Russia) will help to promote automobile sales. Leslie's arch-rival, the mustached and black-attired Professor Fate vows to beat Leslie to the finish line in a car of Fate's own invention.", "poster_path": "/sEoqdHT3WO6dWxUqtB8pjXd1kWW.jpg", "popularity": 8.754}, {"adult": false, "backdrop_path": "/twGxeStlGooWV3gP6ZIcSNuQ6jf.jpg", "genre_ids": [12, 16, 10751, 14], "id": 81684, "original_language": "en", "original_title": "The Gruffalo's Child", "overview": "A follow up to the 2009 animated feature and adapted from the childrens' book by Julia Donaldson and Alex Scheffler.  The Gruffalo's child explores the deep dark wood in search of the big bad mouse and meets the Snake, Owl and Fox in the process.  She eventually finds the mouse, who manages to outwit her like the Gruffalo before!", "poster_path": "/qaGH2AoaLvoGXURQtNzj1nw6oZd.jpg", "release_date": "2011-12-25", "title": "The Gruffalo's Child", "video": false, "vote_average": 6.9, "vote_count": 73, "popularity": 13.766}, {"adult": false, "backdrop_path": "/qYnbmU5NwGQj5cgCIZpISddsdN4.jpg", "genre_ids": [35], "id": 53370, "original_language": "en", "original_title": "Tango Tangles", "overview": "In a dance hall, two members of the orchestra and a tipsy dancer fight over the hat check girl.", "poster_path": "/vx5EXwCwH8FBoXFraIY9zaulwy6.jpg", "release_date": "1914-03-09", "title": "Tango Tangles", "video": false, "vote_average": 4.5, "vote_count": 20, "popularity": 3.671}], "total_pages": 243, "total_results": 4856}, "recommendations": {"page": 1, "results": [], "total_pages": 1, "total_results": 0}, "credits": {"cast": [{"cast_id": 11, "character": "Moe (as The Three Stooges)", "credit_id": "52fe49c9c3a36847f81a6221", "gender": 2, "id": 6777, "name": "Moe Howard", "order": 0, "profile_path": "/cbPeJ2fIRHEghTWbzeBVGsyyaY.jpg"}, {"cast_id": 12, "character": "Larry (as The Three Stooges)", "credit_id": "52fe49c9c3a36847f81a6225", "gender": 2, "id": 89613, "name": "Larry Fine", "order": 1, "profile_path": "/6XnCgoRkWEVaFulFUZykMpCyDr9.jpg"}, {"cast_id": 13, "character": "Curly-Joe (as The Three Stooges)", "credit_id": "52fe49c9c3a36847f81a6229", "gender": 2, "id": 105723, "name": "Joe DeRita", "order": 2, "profile_path": "/sI4FYe3MiKMMgwrVgF8poLXYIed.jpg"}, {"cast_id": 14, "character": "Phileas Fogg III", "credit_id": "52fe49c9c3a36847f81a622d", "gender": 2, "id": 165487, "name": "Jay Sheffield", "order": 3, "profile_path": null}, {"cast_id": 15, "character": "Amelia Carter", "credit_id": "52fe49c9c3a36847f81a6231", "gender": 1, "id": 21458, "name": "Joan Freeman", "order": 4, "profile_path": "/eoiFe5Tlsj6vnSLRIRXVdBck7Y6.jpg"}, {"cast_id": 16, "character": "Lory Filch", "credit_id": "52fe49c9c3a36847f81a6235", "gender": 2, "id": 120447, "name": "Walter Burke", "order": 5, "profile_path": "/rwy0eBUiWEsaLb8A4oZoCsmtwdm.jpg"}, {"cast_id": 17, "character": "Vickers Cavendish", "credit_id": "52fe49c9c3a36847f81a6239", "gender": 2, "id": 160595, "name": "Peter Forster", "order": 6, "profile_path": "/lXSppMqtkh70SLQGoVx3edfV85q.jpg"}, {"cast_id": 18, "character": "Scotland Yard Inspector J. B. Crotchet", "credit_id": "52fe49c9c3a36847f81a623d", "gender": 2, "id": 128607, "name": "Maurice Dallimore", "order": 7, "profile_path": "/k1ub2zW0c6sgqj9QkTQv909XZRQ.jpg"}, {"cast_id": 19, "character": "Maharajah", "credit_id": "52fe49c9c3a36847f81a6241", "gender": 2, "id": 102787, "name": "Richard Devon", "order": 8, "profile_path": "/7frn0z10Qwxf0Lmcofl8a8QpzNa.jpg"}, {"cast_id": 20, "character": "Kandu (as Antony Eustrel)", "credit_id": "52fe49c9c3a36847f81a6245", "gender": 0, "id": 143579, "name": "Anthony Eustrel", "order": 9, "profile_path": null}, {"cast_id": 24, "character": "Gus", "credit_id": "5849495dc3a368140e013448", "gender": 2, "id": 14454, "name": "Murray Alper", "order": 10, "profile_path": "/gt2IIpoK6M8YVgmTrqV6A3dDz7j.jpg"}, {"cast_id": 25, "character": "Butler at Men's Club (uncredited)", "credit_id": "58494977c3a368140800fa44", "gender": 0, "id": 107023, "name": "Emil Sitka", "order": 11, "profile_path": "/qRwYBtte3HjvjFVO9OutRuT9n9w.jpg"}], "crew": [{"credit_id": "52fe49c9c3a36847f81a61e7", "department": "Directing", "gender": 2, "id": 51721, "job": "Director", "name": "Norman Maurer", "profile_path": null}, {"credit_id": "52fe49c9c3a36847f81a61ed", "department": "Writing", "gender": 2, "id": 51721, "job": "Story", "name": "Norman Maurer", "profile_path": null}, {"credit_id": "52fe49c9c3a36847f81a61f3", "department": "Writing", "gender": 0, "id": 105735, "job": "Screenplay", "name": "Elwood Ullman", "profile_path": null}, {"credit_id": "52fe49c9c3a36847f81a61f9", "department": "Writing", "gender": 2, "id": 2088, "job": "Novel", "name": "Jules Verne", "profile_path": "/cFBorm2GCm2UKHQjg0IlRPnI8wh.jpg"}, {"credit_id": "52fe49c9c3a36847f81a61ff", "department": "Production", "gender": 2, "id": 51721, "job": "Producer", "name": "Norman Maurer", "profile_path": null}, {"credit_id": "52fe49c9c3a36847f81a6205", "department": "Sound", "gender": 2, "id": 19965, "job": "Original Music Composer", "name": "Paul Dunlap", "profile_path": null}, {"credit_id": "52fe49c9c3a36847f81a6217", "department": "Art", "gender": 0, "id": 41145, "job": "Art Direction", "name": "Don Ament", "profile_path": null}, {"credit_id": "554b7f2192514104590015a2", "department": "Editing", "gender": 2, "id": 18578, "job": "Editor", "name": "Edwin H. Bryant", "profile_path": null}, {"credit_id": "571e5f16c3a368338f000450", "department": "Art", "gender": 0, "id": 31205, "job": "Set Decoration", "name": "James Crowe", "profile_path": null}, {"credit_id": "571e5f1d9251416f20000407", "department": "Camera", "gender": 0, "id": 40600, "job": "Director of Photography", "name": "Irving Lippman", "profile_path": null}]}}