{"adult": false, "backdrop_path": null, "belongs_to_collection": null, "budget": 0, "genres": [{"id": 53, "name": "Thriller"}], "homepage": "http://www.crownintlpictures.com/hktitles.html", "id": 100067, "imdb_id": "tt0061782", "original_language": "en", "original_title": "The Hostage", "overview": "The Hostage is a 1967 Crown International low-budget motion picture starring Don O'Kelly, James Almanzar and Joanne Brown, with Leland Brown, John Carradine, and Harry Dean Stanton. The plot centers on a young boy who becomes a hostage after he is accidentally closed inside a moving van.", "popularity": 0.878, "poster_path": "/aIgn9dPb7ikeMN72DjtVHAga4yF.jpg", "production_companies": [{"id": 1009, "logo_path": null, "name": "Crown International Pictures", "origin_country": ""}], "production_countries": [{"iso_3166_1": "US", "name": "United States of America"}], "release_date": "1967-10-23", "revenue": 0, "runtime": 84, "spoken_languages": [{"iso_639_1": "en", "name": "English"}], "status": "Released", "tagline": "An Outrageous Kidnapping ... and a town is gripped with FEAR!", "title": "The Hostage", "video": false, "vote_average": 8.0, "vote_count": 1, "keywords": {"keywords": [{"id": 1562, "name": "hostage"}, {"id": 11034, "name": "b movie"}]}, "similar": {"page": 1, "results": [{"adult": false, "backdrop_path": "/a24i4Qw6qFTtkFLQsncv8WPwevj.jpg", "genre_ids": [53, 28, 80], "id": 345887, "original_language": "en", "original_title": "The Equalizer 2", "overview": "Robert McCall, who serves an unflinching justice for the exploited and oppressed, embarks on a relentless, globe-trotting quest for vengeance when a long-time girl friend is murdered.", "poster_path": "/cQvc9N6JiMVKqol3wcYrGshsIdZ.jpg", "release_date": "2018-07-19", "title": "The Equalizer 2", "video": false, "vote_average": 6.5, "vote_count": 2483, "popularity": 21.271}, {"adult": false, "backdrop_path": "/cLGKawjQ5tUJCuDyR0OnGYT4fyf.jpg", "genre_ids": [18, 53, 80], "id": 146233, "original_language": "en", "original_title": "Prisoners", "overview": "When Keller Dover's daughter and her friend go missing, he takes matters into his own hands as the police pursue multiple leads and the pressure mounts. But just how far will this desperate father go to protect his family?", "poster_path": "/yAhqW57pwMAsCgmZpM5zSIVQVTh.jpg", "release_date": "2013-09-18", "title": "Prisoners", "video": false, "vote_average": 8.0, "vote_count": 6410, "popularity": 24.427}, {"adult": false, "backdrop_path": "/eg049B1TJdWuKuyKowNmhZxNToc.jpg", "genre_ids": [28, 53], "id": 562, "original_language": "en", "original_title": "Die Hard", "overview": "NYPD cop John McClane's plan to reconcile with his estranged wife is thrown for a serious loop when, minutes after he arrives at her office, the entire building is overtaken by a group of terrorists. With little help from the LAPD, wisecracking McClane sets out to single-handedly rescue the hostages and bring the bad guys down.", "poster_path": "/fiXHtnQpQiGVkMtyYnEfQ6Gtfx8.jpg", "release_date": "1988-07-15", "title": "Die Hard", "video": false, "vote_average": 7.7, "vote_count": 6810, "popularity": 32.473}, {"adult": false, "backdrop_path": "/yo3LesueMprtgjRiIRmjiIrFIKj.jpg", "genre_ids": [28, 53], "id": 1571, "original_language": "en", "original_title": "Live Free or Die Hard", "overview": "John McClane is back and badder than ever, and this time he's working for Homeland Security. He calls on the services of a young hacker in his bid to stop a ring of Internet terrorists intent on taking control of America's computer infrastructure.", "poster_path": "/pHWgbaXiQD2nmex7u8Xv6XmhaZS.jpg", "release_date": "2007-06-20", "title": "Live Free or Die Hard", "video": false, "vote_average": 6.5, "vote_count": 3588, "popularity": 24.743}, {"adult": false, "backdrop_path": "/rnU6qDK1vvcdHjgCDIOqScspoL4.jpg", "genre_ids": [53], "id": 29487, "original_language": "en", "original_title": "The Mark of the Whistler", "overview": "A drifter claims the money in an old bank account. Soon he finds himself the target of two men who turn out to be the sons of the man's old partner, who is now in prison because of a conflict with him over the money in that account.", "poster_path": "/8uHA35w7CcUipSEhHFB2LWVDIPJ.jpg", "release_date": "1944-10-09", "title": "The Mark of the Whistler", "video": false, "vote_average": 5.3, "vote_count": 5, "popularity": 2.762}, {"id": 11859, "video": false, "vote_count": 111, "vote_average": 4.2, "title": "Fair Game", "release_date": "1995-11-03", "original_language": "en", "original_title": "Fair Game", "genre_ids": [28, 53, 10749], "backdrop_path": "/x7olteFm31lU0Bfh24gnYfMnxsU.jpg", "adult": false, "overview": "Max Kirkpatrick is a cop who protects Kate McQuean, a civil law attorney, from a renegade KGB team out to terminate her", "poster_path": "/ew0LrIN5fpxdimrErEy9Yry3Nn2.jpg", "popularity": 14.941}, {"adult": false, "backdrop_path": "/t3OZS8yMs0NL4YgWWc04eXHTn1X.jpg", "genre_ids": [28, 80, 53], "id": 984, "original_language": "en", "original_title": "Dirty Harry", "overview": "When a madman dubbed 'Scorpio' terrorizes San Francisco, hard-nosed cop, Harry Callahan \u2013 famous for his take-no-prisoners approach to law enforcement \u2013 is tasked with hunting down the psychopath. Harry eventually collars Scorpio in the process of rescuing a kidnap victim, only to see him walk on technicalities. Now, the maverick detective is determined to nail the maniac himself.", "poster_path": "/2TADKc4GMMPdMrLXj0xJVgTvZJM.jpg", "release_date": "1971-12-21", "title": "Dirty Harry", "video": false, "vote_average": 7.5, "vote_count": 1173, "popularity": 18.839}, {"adult": false, "backdrop_path": "/ieJ5ImFoJILNULvnIpbulAln7Lr.jpg", "genre_ids": [12, 28, 53, 878], "id": 14869, "original_language": "en", "original_title": "G.I. Joe: The Rise of Cobra", "overview": "From the Egyptian desert to deep below the polar ice caps, the elite G.I. JOE team uses the latest in next-generation spy and military equipment to fight the corrupt arms dealer Destro and the growing threat of the mysterious Cobra organization to prevent them from plunging the world into chaos.", "poster_path": "/29eW5c5DaCFQejdt9V14RrA51yD.jpg", "release_date": "2009-08-04", "title": "G.I. Joe: The Rise of Cobra", "video": false, "vote_average": 5.7, "vote_count": 3082, "popularity": 22.639}, {"id": 1092, "video": false, "vote_count": 891, "vote_average": 8.0, "title": "The Third Man", "release_date": "1949-08-31", "original_language": "en", "original_title": "The Third Man", "genre_ids": [9648, 53], "backdrop_path": "/lrIuSWdC1LfKJZUnBX6axJxzZGe.jpg", "adult": false, "overview": "In postwar Vienna, Austria, Holly Martins, a writer of pulp Westerns, arrives penniless as a guest of his childhood chum Harry Lime, only to learn he has died. Martins develops a conspiracy theory after learning of a \"third man\" present at the time of Harry's death, running into interference from British officer Major Calloway, and falling head-over-heels for Harry's grief-stricken lover, Anna.", "poster_path": "/rO2Fq0AZZx9obs52KJdx4mRE8p5.jpg", "popularity": 14.387}, {"id": 9725, "video": false, "vote_count": 771, "vote_average": 6.0, "title": "Friday the 13th Part 2", "release_date": "1981-05-01", "original_language": "en", "original_title": "Friday the 13th Part 2", "genre_ids": [27, 53], "backdrop_path": "/wDmw9Nacka0oWj7hEIIEInP94Lx.jpg", "adult": false, "overview": "Five years after the horrible bloodbath at Camp Crystal Lake, it seems Jason Voorhees and his demented mother are in the past. Paul opens up a new camp close to the infamous site, ignoring warnings to stay away, and a sexually-charged group of counselors follow -- including child psychologist major Ginny. But Jason has been hiding out all this time, and now he's ready for revenge.", "poster_path": "/3c6uMXqFXO9G5RVdiPB76IK3FYM.jpg", "popularity": 14.489}, {"id": 9335, "video": false, "vote_count": 2014, "vote_average": 6.3, "title": "Transporter 2", "release_date": "2005-08-02", "original_language": "en", "original_title": "Transporter 2", "genre_ids": [28, 80, 53], "backdrop_path": "/71NvWirONP0ZEBfVIdOb3D9GfQ3.jpg", "adult": false, "overview": "Professional driver Frank Martin is living in Miami, where he is temporarily filling in for a friend as the chauffeur for a government narcotics control policymaker and his family. The young boy in the family is targeted for kidnapping, and Frank immediately becomes involved in protecting the child and exposing the kidnappers.", "poster_path": "/bZKkwfQf4mHYlNbmViNjmAN60zY.jpg", "popularity": 24.24}, {"id": 8681, "video": false, "vote_count": 7350, "vote_average": 7.3, "title": "Taken", "release_date": "2008-02-18", "original_language": "en", "original_title": "Taken", "genre_ids": [28, 53], "backdrop_path": "/lcqVBBirzzX520AyOK3k7kXBDJ6.jpg", "adult": false, "overview": "While vacationing with a friend in Paris, an American girl is kidnapped by a gang of human traffickers intent on selling her into forced prostitution. Working against the clock, her ex-spy father must pull out all the stops to save her. But with his best years possibly behind him, the job may be more than he can handle.", "poster_path": "/3zlffXmo7QpVBc17QIJWrRfasVr.jpg", "popularity": 24.243}, {"id": 13474, "video": false, "vote_count": 367, "vote_average": 5.9, "title": "P2", "release_date": "2007-11-09", "original_language": "en", "original_title": "P2", "genre_ids": [27, 53], "backdrop_path": "/8rJXPYiQfRZ4sH1Wb8fWkDzQHFx.jpg", "adult": false, "overview": "Angela, a corporate climber, gets stuck working late on Christmas Eve and finds herself the target of an unhinged security guard. With no help in sight, the woman must overcome physical and psychological challenges to survive.", "poster_path": "/4gcbXi1ibT9J0ahwdgyz6m0c6w4.jpg", "popularity": 13.047}, {"id": 381288, "video": false, "vote_count": 11449, "vote_average": 7.3, "title": "Split", "release_date": "2017-01-19", "original_language": "en", "original_title": "Split", "genre_ids": [27, 53], "backdrop_path": "/9pkZesKMnblFfKxEhQx45YQ2kIe.jpg", "adult": false, "overview": "Though Kevin has evidenced 23 personalities to his trusted psychiatrist, Dr. Fletcher, there remains one still submerged who is set to materialize and dominate all the others. Compelled to abduct three teenage girls led by the willful, observant Casey, Kevin reaches a war for survival among all of those contained within him \u2014 as well as everyone around him \u2014 as the walls between his compartments shatter apart.", "poster_path": "/rXMWOZiCt6eMX22jWuTOSdQ98bY.jpg", "popularity": 39.624}, {"adult": false, "backdrop_path": "/siRoJI12l4SbWye3wpIotM8OslV.jpg", "genre_ids": [18, 53], "id": 293768, "original_language": "en", "original_title": "Kidnap", "overview": "A mother (in her Minivan) stops at nothing to recover her kidnapped son.", "poster_path": "/fwdOX3PEZlOLXr9SMpgRnSmTVFp.jpg", "release_date": "2017-06-16", "title": "Kidnap", "video": false, "vote_average": 6.1, "vote_count": 846, "popularity": 21.554}, {"id": 244761, "video": false, "vote_count": 651, "vote_average": 5.9, "title": "The Captive", "release_date": "2014-06-10", "original_language": "en", "original_title": "The Captive", "genre_ids": [80, 18, 53], "backdrop_path": "/fD4Q03vX0xqumc6iuDt6SujrlxI.jpg", "adult": false, "overview": "Eight years after the disappearance of Cassandra, some disturbing incidents seem to indicate that she's still alive. Police, parents and Cassandra herself, will try to unravel the mystery of her disappearance.", "poster_path": "/sw3dqauWXgHSbDFUIbDXRikfeYL.jpg", "popularity": 21.374}, {"id": 264644, "video": false, "vote_count": 6080, "vote_average": 8.1, "title": "Room", "release_date": "2015-10-16", "original_language": "en", "original_title": "Room", "genre_ids": [18, 53], "backdrop_path": "/6Fi9Ta7m0wdmve2B2XpDdysxAGd.jpg", "adult": false, "overview": "Jack is a young boy of 5 years old who has lived all his life in one room. He believes everything within it are the only real things in the world. But what will happen when his Ma suddenly tells him that there are other things outside of Room?", "poster_path": "/eqFckcHuFCT1FrzLOAvXBb4jHwq.jpg", "popularity": 18.696}, {"id": 300669, "video": false, "vote_count": 4121, "vote_average": 6.9, "title": "Don't Breathe", "release_date": "2016-06-08", "original_language": "en", "original_title": "Don't Breathe", "genre_ids": [80, 27, 53], "backdrop_path": "/bCThHXQ3aLLDU3KFST0rC8mTan5.jpg", "adult": false, "overview": "A group of teens break into a blind man's home thinking they'll get away with the perfect crime. They're wrong.", "poster_path": "/lw0IqOSMsQcy1QnVIEIDppLmNwk.jpg", "popularity": 15.933}, {"adult": false, "backdrop_path": "/uQqQvmptJLPTcWDrZXn22p7j7s3.jpg", "genre_ids": [28, 80, 18, 53], "id": 395990, "original_language": "en", "original_title": "Death Wish", "overview": "A mild-mannered father is transformed into a killing machine after his family is torn apart by a violent act.", "poster_path": "/g0eEEZAqMf98ULQnoiORuazjOpn.jpg", "release_date": "2018-03-02", "title": "Death Wish", "video": false, "vote_average": 5.9, "vote_count": 1402, "popularity": 18.853}, {"id": 156022, "video": false, "vote_count": 5468, "vote_average": 7.2, "title": "The Equalizer", "release_date": "2014-09-24", "original_language": "en", "original_title": "The Equalizer", "genre_ids": [28, 80, 53], "backdrop_path": "/vbl4ZVqelrrzJ16fdDOq9siWbpi.jpg", "adult": false, "overview": "McCall believes he has put his mysterious past behind him and dedicated himself to beginning a new, quiet life. But when he meets Teri, a young girl under the control of ultra-violent Russian gangsters, he can\u2019t stand idly by \u2013 he has to help her. Armed with hidden skills that allow him to serve vengeance against anyone who would brutalize the helpless, McCall comes out of his self-imposed retirement and finds his desire for justice reawakened. If someone has a problem, if the odds are stacked against them, if they have nowhere else to turn, McCall will help. He is The Equalizer.", "poster_path": "/2eQfjqlvPAxd9aLDs8DvsKLnfed.jpg", "popularity": 39.578}], "total_pages": 112, "total_results": 2222}, "recommendations": {"page": 1, "results": [], "total_pages": 1, "total_results": 0}, "credits": {"cast": [{"cast_id": 1003, "character": "Bull (as Don O'Kelly)", "credit_id": "52fe49c9c3a36847f81a63df", "gender": 0, "id": 201050, "name": "Don Kelly", "order": 0, "profile_path": null}, {"cast_id": 1004, "character": "Eddie (as Dean Stanton)", "credit_id": "52fe49c9c3a36847f81a63e3", "gender": 2, "id": 5048, "name": "Harry Dean Stanton", "order": 1, "profile_path": "/vlfKwhCimC1N42VPNM9iRYBpW0b.jpg"}, {"cast_id": 1005, "character": "Otis Lovelace", "credit_id": "52fe49c9c3a36847f81a63e7", "gender": 2, "id": 8516, "name": "John Carradine", "order": 2, "profile_path": "/cUlQO0vGGFoF3VZjzok8U276exY.jpg"}, {"cast_id": 1006, "character": "Davey Cleaves", "credit_id": "52fe49c9c3a36847f81a63eb", "gender": 0, "id": 1023355, "name": "Danny Martins", "order": 3, "profile_path": null}, {"cast_id": 1007, "character": "Steve Cleaves", "credit_id": "52fe49c9c3a36847f81a63ef", "gender": 0, "id": 111593, "name": "Ron Hagerthy", "order": 4, "profile_path": "/7q9NZO6EBOmQo1SbiN8sKtDteQ4.jpg"}, {"cast_id": 1008, "character": "Carol Cleaves (as Jenifer Lea)", "credit_id": "52fe49c9c3a36847f81a63f3", "gender": 1, "id": 248368, "name": "Jennifer Lea", "order": 5, "profile_path": null}, {"cast_id": 1009, "character": "Miss Mabry", "credit_id": "52fe49c9c3a36847f81a63f7", "gender": 1, "id": 2772, "name": "Ann Doran", "order": 6, "profile_path": "/liEnlp1myN4WL6MmJKsOfsGjd73.jpg"}, {"cast_id": 1017, "character": "Sam Morton", "credit_id": "55d5eb8ac3a3685070004b4c", "gender": 2, "id": 1221577, "name": "Raymond Guth", "order": 7, "profile_path": null}, {"cast_id": 1012, "character": "Mrs. Primus", "credit_id": "52fe49c9c3a36847f81a6403", "gender": 1, "id": 12429, "name": "Shirley O'Hara", "order": 9, "profile_path": "/61ollXvXTSAaiEWF2FGjEF9cHY1.jpg"}, {"cast_id": 1013, "character": "Bartender", "credit_id": "52fe49c9c3a36847f81a6407", "gender": 0, "id": 1023356, "name": "Mike McCloskey", "order": 10, "profile_path": null}, {"cast_id": 1014, "character": "Mr. Thomas", "credit_id": "52fe49c9c3a36847f81a640b", "gender": 0, "id": 1023357, "name": "Dick Spry", "order": 11, "profile_path": null}, {"cast_id": 1015, "character": "Glenn", "credit_id": "52fe49c9c3a36847f81a640f", "gender": 0, "id": 1023358, "name": "Leland Brown", "order": 12, "profile_path": null}, {"cast_id": 1016, "character": "Olive", "credit_id": "52fe49c9c3a36847f81a6413", "gender": 0, "id": 1023359, "name": "Pearl Faessler", "order": 13, "profile_path": null}, {"cast_id": 1018, "character": "Selma Morton", "credit_id": "587545c9c3a3684c1e000c42", "gender": 0, "id": 1214642, "name": "Nora Marlowe", "order": 14, "profile_path": "/hg5ZsWKujEJoS9igbuDKvztWALL.jpg"}], "crew": [{"credit_id": "52fe49c9c3a36847f81a63d5", "department": "Writing", "gender": 2, "id": 64802, "job": "Novel", "name": "Henry Farrell", "profile_path": null}, {"credit_id": "5da4d2a5e860170014b322ca", "department": "Camera", "gender": 2, "id": 99116, "job": "Director of Photography", "name": "Ted V. Mikels", "profile_path": "/lv6IqKZhWzIwwgsBAGI4DiIuIym.jpg"}, {"credit_id": "5e0e7dba663b8700177d299f", "department": "Sound", "gender": 2, "id": 129809, "job": "Original Music Composer", "name": "Jaime Mendoza-Nava", "profile_path": null}, {"credit_id": "5e0e7e139f37b0000f5537f3", "department": "Costume & Make-Up", "gender": 0, "id": 558561, "job": "Makeup Artist", "name": "William Condos", "profile_path": null}, {"credit_id": "52fe49c9c3a36847f81a63cf", "department": "Directing", "gender": 2, "id": 1023352, "job": "Director", "name": "Russ Doughten", "profile_path": "/xiIOWufDqHa4p1C7iBvPw0VDD1L.jpg"}, {"credit_id": "5e0e7daf9f37b0000f553707", "department": "Production", "gender": 2, "id": 1023352, "job": "Producer", "name": "Russ Doughten", "profile_path": "/xiIOWufDqHa4p1C7iBvPw0VDD1L.jpg"}, {"credit_id": "52fe49c9c3a36847f81a63db", "department": "Writing", "gender": 0, "id": 1023354, "job": "Screenplay", "name": "Robert Laning", "profile_path": null}, {"credit_id": "5e0e7df758361b0015bde19a", "department": "Art", "gender": 0, "id": 1206143, "job": "Production Design", "name": "Ray Storey", "profile_path": null}, {"credit_id": "5e0e7dee663b8700137d2980", "department": "Production", "gender": 0, "id": 1341992, "job": "Casting", "name": "Virginia Martindale", "profile_path": null}, {"credit_id": "5e0e7dd792e55b0017034bfe", "department": "Editing", "gender": 0, "id": 2140901, "job": "Editor", "name": "Gary Kurtz", "profile_path": null}]}}