{"adult": false, "backdrop_path": "/AiTCG3ew4nUPGpmPsjUwLNaWRPJ.jpg", "belongs_to_collection": null, "budget": 0, "genres": [{"id": 28, "name": "Action"}, {"id": 80, "name": "Crime"}, {"id": 18, "name": "Drama"}], "homepage": null, "id": 10006, "imdb_id": "tt0464320", "original_language": "en", "original_title": "Wild Seven", "overview": "In this darkly karmic vision of Arizona, a man who breathes nothing but ill will begins a noxious domino effect as quickly as an uncontrollable virus kills. As he exits Arizona State Penn after twenty-one long years, Wilson has only one thing on the brain, leveling the score with career criminal, Mackey Willis.", "popularity": 3.027, "poster_path": "/lbbqMbZJycV28x3MeRmFlg62BGG.jpg", "production_companies": [{"id": 3563, "logo_path": null, "name": "Beat Pirate Films", "origin_country": "US"}], "production_countries": [{"iso_3166_1": "US", "name": "United States of America"}], "release_date": "2006-01-01", "revenue": 0, "runtime": 98, "spoken_languages": [{"iso_639_1": "en", "name": "English"}], "status": "Released", "tagline": "No Plan is perfect", "title": "Wild Seven", "video": false, "vote_average": 3.7, "vote_count": 11, "keywords": {"keywords": [{"id": 378, "name": "prison"}, {"id": 1591, "name": "ex-detainee"}, {"id": 160488, "name": "hoodlum"}]}, "similar": {"page": 1, "results": [{"id": 107846, "video": false, "vote_count": 3130, "vote_average": 6.7, "title": "Escape Plan", "release_date": "2013-10-09", "original_language": "en", "original_title": "Escape Plan", "genre_ids": [28, 53], "backdrop_path": "/lDmAQexExnvfKAG8fvx04ro6Ly4.jpg", "adult": false, "overview": "Ray Breslin is the world's foremost authority on structural security. After analyzing every high security prison and learning a vast array of survival skills so he can design escape-proof prisons, his skills are put to the test. He's framed and incarcerated in a master prison he designed himself. He needs to escape and find the person who put him behind bars.", "poster_path": "/j3XZwBeWgoAbVmkW3JyOme79I2e.jpg", "popularity": 18.182}, {"id": 10734, "video": false, "vote_count": 1343, "vote_average": 7.5, "title": "Escape from Alcatraz", "release_date": "1979-06-22", "original_language": "en", "original_title": "Escape from Alcatraz", "genre_ids": [80, 18], "backdrop_path": "/doJGjcWPpuGuDPJwCpCNnYUG9x4.jpg", "adult": false, "overview": "Escape from Alcatraz tells the story of the only three men ever to escape from the infamous maximum security prison at Alcatraz. In 29 years, the seemingly impenetrable federal penitentiary, which housed Al Capone and \"Birdman\" Robert Stroud, was only broken once - by three men never heard of again.", "poster_path": "/lBAxIEywz3KfzXimn9qHBArLHU8.jpg", "popularity": 43.833}, {"id": 278, "video": false, "vote_count": 14743, "vote_average": 8.7, "title": "The Shawshank Redemption", "release_date": "1994-09-23", "original_language": "en", "original_title": "The Shawshank Redemption", "genre_ids": [80, 18], "backdrop_path": "/j9XKiZrVeViAixVRzCta7h1VU9W.jpg", "adult": false, "overview": "Framed in the 1940s for the double murder of his wife and her lover, upstanding banker Andy Dufresne begins a new life at the Shawshank prison, where he puts his accounting skills to work for an amoral warden. During his long stretch in prison, Dufresne comes to be admired by the other inmates -- including an older prisoner named Red -- for his integrity and unquenchable sense of hope.", "poster_path": "/9O7gLzmreU0nGkIB6K3BsJbzvNv.jpg", "popularity": 43.371}, {"id": 10447, "video": false, "vote_count": 195, "vote_average": 6.1, "title": "No Escape", "release_date": "1994-04-29", "original_language": "en", "original_title": "No Escape", "genre_ids": [28, 18, 878, 53], "backdrop_path": "/nUjmO5MP8ATkLF8Pmhlg6l7a8im.jpg", "adult": false, "overview": "In the year 2022, a ruthless prison warden has created the ultimate solution for his most troublesome and violent inmates: Absolom, a secret jungle island where prisoners are abandoned and left to die. But Marine Captain John Robbins, convicted of murdering a commanding officer, is determined to escape the island in order to reveal the truth behind his murderous actions and clear his name.", "poster_path": "/d2Q8jXe4dW4YKlemRb7oVlY6Msj.jpg", "popularity": 11.558}, {"id": 1701, "video": false, "vote_count": 2366, "vote_average": 6.7, "title": "Con Air", "release_date": "1997-06-01", "original_language": "en", "original_title": "Con Air", "genre_ids": [28, 80, 53], "backdrop_path": "/aX2mwtawBe2TD1csPBYvm03sx3a.jpg", "adult": false, "overview": "When the government puts all its rotten criminal eggs in one airborne basket, it's asking for trouble. Before you can say, \"Pass the barf bag,\" the crooks control the plane, led by creepy Cyrus \"The Virus\" Grissom. Watching his every move is the just-released Cameron Poe, who'd rather reunite with his family.", "poster_path": "/yhaOQ7xXw0PLHLvg1w0M9zlPdg6.jpg", "popularity": 27.732}, {"adult": false, "backdrop_path": "/nb70B4EXuoegiQ0C5N1fNVHIaYc.jpg", "genre_ids": [12, 18, 36, 53, 10752], "id": 5925, "original_language": "en", "original_title": "The Great Escape", "overview": "The Nazis, exasperated at the number of escapes from their prison camps by a relatively small number of Allied prisoners, relocates them to a high-security 'escape-proof' camp to sit out the remainder of the war. Undaunted, the prisoners plan one of the most ambitious escape attempts of World War II. Based on a true story.", "poster_path": "/qhy4HgUqhEbwQ1ekKTv7yEB3b0e.jpg", "release_date": "1963-06-20", "title": "The Great Escape", "video": false, "vote_average": 8.0, "vote_count": 1358, "popularity": 17.61}, {"id": 708, "video": false, "vote_count": 845, "vote_average": 6.4, "title": "The Living Daylights", "release_date": "1987-06-29", "original_language": "en", "original_title": "The Living Daylights", "genre_ids": [28, 12, 53], "backdrop_path": "/gt0TafbcheJeT9SFewDLqYWk3Sd.jpg", "adult": false, "overview": "James Bond helps a Russian General escape into the west. He soon finds out that the KGB wants to kill him for helping the General. A little while later the General is kidnapped from the Secret Service leading 007 to be suspicious.", "poster_path": "/yEryMe58dx7zm1QBhQFeuYcv2aH.jpg", "popularity": 28.787}, {"id": 5924, "video": false, "vote_count": 947, "vote_average": 8.0, "title": "Papillon", "release_date": "1973-12-13", "original_language": "en", "original_title": "Papillon", "genre_ids": [80, 18], "backdrop_path": "/w6XYdZIXZlMNL2efDXdXI6q4lhm.jpg", "adult": false, "overview": "A man befriends a fellow criminal as the two of them begin serving their sentence on a dreadful prison island, which inspires the man to plot his escape.", "poster_path": "/cPKfxaWXNkVkHLSV2nb06RfvrSM.jpg", "popularity": 15.437}, {"id": 12088, "video": false, "vote_count": 316, "vote_average": 5.9, "title": "Fortress", "release_date": "1992-09-30", "original_language": "en", "original_title": "Fortress", "genre_ids": [28, 878, 53], "backdrop_path": "/csGyWqK4dTAtSPpreU26TzoY9ua.jpg", "adult": false, "overview": "A futuristic prison movie. Protagonist and wife are nabbed at a future US emigration point with an illegal baby during population control. The resulting prison experience is the subject of the movie. The prison is a futuristic one run by a private corporation bent on mind control in various ways", "poster_path": "/evjpqWPUY4VpOdyLpeRfkGU8DiR.jpg", "popularity": 20.621}, {"adult": false, "backdrop_path": "/xiBsA8Qj5KhO4cUKz6RHDtKpBGs.jpg", "genre_ids": [28, 12, 53, 10752], "id": 1368, "original_language": "en", "original_title": "First Blood", "overview": "When former Green Beret John Rambo is harassed by local law enforcement and arrested for vagrancy, the Vietnam vet snaps, runs for the hills and rat-a-tat-tats his way into the action-movie hall of fame. Hounded by a relentless sheriff, Rambo employs heavy-handed guerilla tactics to shake the cops off his tail.", "poster_path": "/wOsPbJixVc80iilfcByLKPAKz6G.jpg", "release_date": "1982-10-22", "title": "First Blood", "video": false, "vote_average": 7.4, "vote_count": 3235, "popularity": 30.68}, {"adult": false, "backdrop_path": "/5UhVmv70qTfy7YSf8r87kNXWxjK.jpg", "genre_ids": [18, 53, 9648], "id": 638, "original_language": "en", "original_title": "Lost Highway", "overview": "A tormented jazz musician finds himself lost in an enigmatic story involving murder, surveillance, gangsters, doppelgangers, and an impossible transformation inside a prison cell.", "poster_path": "/z6yhgEzGUJaBBgAxoyggRzwLnVM.jpg", "release_date": "1997-01-15", "title": "Lost Highway", "video": false, "vote_average": 7.6, "vote_count": 1277, "popularity": 16.545}, {"id": 38234, "video": false, "vote_count": 341, "vote_average": 7.4, "title": "Undisputed III: Redemption", "release_date": "2010-05-22", "original_language": "en", "original_title": "Undisputed III: Redemption", "genre_ids": [28, 53], "backdrop_path": "/c9GlsmZsZ9DR0G3LhRNip2wF06Y.jpg", "adult": false, "overview": "Russian inmate Boyka, now severely hobbled by the knee injury suffered at the end of Undisputed 2. No longer the feared prison fighter he was, he has declined so far that he is now good only for cleaning toilets. But when a new prison fight tournament begins - an international affair, matching the best fighters from prisons around the globe, enticing them with the promise of freedom for the winner - Boyka must reclaim his dignity and fight for his position in the tournament.", "poster_path": "/vLSnWLCnqk5j3oLnMnBHJGL3bO0.jpg", "popularity": 19.393}, {"id": 80389, "video": false, "vote_count": 914, "vote_average": 6.5, "title": "Get the Gringo", "release_date": "2012-03-15", "original_language": "en", "original_title": "Get the Gringo", "genre_ids": [28, 80, 18, 53], "backdrop_path": "/ef76SZtJSZEplZ95uq5cWtaDnp1.jpg", "adult": false, "overview": "A career criminal (Gibson) nabbed by Mexican authorities is placed in a tough prison where he learns to survive with the help of a 9-year-old boy.", "poster_path": "/tHhJ5evvhy9G2g0NbkZHNeDz4UO.jpg", "popularity": 13.57}, {"adult": false, "backdrop_path": "/9lrM0o89ASyHmDgMLfCbU5qdsAm.jpg", "genre_ids": [35, 18], "id": 9291, "original_language": "en", "original_title": "The Longest Yard", "overview": "Pro quarter-back, Paul Crewe and former college champion and coach, Nate Scarboro are doing time in the same prison. Asked to put together a team of inmates to take on the guards, Crewe enlists the help of Scarboro to coach the inmates to victory in a football game 'fixed' to turn out quite another way.", "poster_path": "/ag6q9euZABqbHtbDhoRT9xEYltP.jpg", "release_date": "2005-05-27", "title": "The Longest Yard", "video": false, "vote_average": 6.4, "vote_count": 1764, "popularity": 17.65}, {"adult": false, "backdrop_path": "/kR48L1E3OLOkQcnlmpi5wDj7ZZt.jpg", "genre_ids": [80, 18], "id": 180863, "original_language": "en", "original_title": "T2 Trainspotting", "overview": "After 20 years abroad, Mark Renton returns to Scotland and reunites with his old friends Sick Boy, Spud and Begbie.", "poster_path": "/fbHXfr2N4pI2j7i9RLYiddjotBl.jpg", "release_date": "2017-01-27", "title": "T2 Trainspotting", "video": false, "vote_average": 7.0, "vote_count": 1916, "popularity": 12.925}, {"id": 76640, "video": false, "vote_count": 1825, "vote_average": 5.9, "title": "The Last Stand", "release_date": "2013-01-12", "original_language": "en", "original_title": "The Last Stand", "genre_ids": [28, 80, 53], "backdrop_path": "/p4Xazn7f63Sqwslw8va7IqDQBki.jpg", "adult": false, "overview": "Ray Owens is sheriff of the quiet US border town of Sommerton Junction after leaving the LAPD following a bungled operation. Following his escape from the FBI, a notorious drug baron, his gang, and a hostage are heading toward Sommerton Junction where the police are preparing to make a last stand to intercept them before they cross the border. Owens is reluctant to become involved but ultimately joins in with the law enforcement efforts", "poster_path": "/eOfpuaNcCcitHi3HOik7XFavRP4.jpg", "popularity": 17.825}, {"id": 9972, "video": false, "vote_count": 471, "vote_average": 6.5, "title": "Lock Up", "release_date": "1989-08-04", "original_language": "en", "original_title": "Lock Up", "genre_ids": [28, 80], "backdrop_path": "/dbRU41CkCOFji8g4Mp9pMNu7jrC.jpg", "adult": false, "overview": "Frank Leone is nearing the end of his prison term for a relatively minor crime. Just before he is paroled, however, Warden Drumgoole takes charge. Drumgoole was assigned to a hell-hole prison after his administration was publicly humiliated by Leone, and has now arrived on the scene to ensure that Leone never sees the light of day.", "poster_path": "/eV3urTdhe12QpG2gZGbo9lKwcVJ.jpg", "popularity": 14.004}, {"adult": false, "backdrop_path": "/8nvayG5l0urcjvvpszoECDqLWzD.jpg", "genre_ids": [18, 53, 80, 9648], "id": 186, "original_language": "en", "original_title": "Lucky Number Slevin", "overview": "Slevin is mistakenly put in the middle of a personal war between the city\u2019s biggest criminal bosses. Under constant watch, Slevin must try not to get killed by an infamous assassin and come up with an idea of how to get out of his current dilemma. A film with many twists and turns.", "poster_path": "/jtKq0EtothAzWlnRBBWGCA8uFuu.jpg", "release_date": "2006-02-24", "title": "Lucky Number Slevin", "video": false, "vote_average": 7.5, "vote_count": 2480, "popularity": 17.523}, {"adult": false, "backdrop_path": "/q3eNcig4YFEsUTnmIYDA90FdndO.jpg", "genre_ids": [10402, 35, 28, 80], "id": 525, "original_language": "en", "original_title": "The Blues Brothers", "overview": "Jake Blues is just out of jail, and teams up with his brother, Elwood on a 'mission from God' to raise funds for the orphanage in which they grew up. The only thing they can do is do what they do best: play music. So they get their old band together, and set out on their way\u2014while getting in a bit of trouble here and there.", "poster_path": "/6hesUNBkpVRqBTBw2HlTg0h8b56.jpg", "release_date": "1980-06-17", "title": "The Blues Brothers", "video": false, "vote_average": 7.7, "vote_count": 2298, "popularity": 17.917}, {"adult": false, "backdrop_path": "/r3xsFBD1VTUusk393bBc7SsDUJe.jpg", "genre_ids": [80, 18, 53], "id": 553, "original_language": "en", "original_title": "Dogville", "overview": "A barren soundstage is stylishly utilized to create a minimalist small-town setting in which a mysterious woman named Grace hides from the criminals who pursue her. The town is two-faced and offers to harbor Grace as long as she can make it worth their effort, so Grace works hard under the employ of various townspeople to win their favor. Tensions flare, however, and Grace's status as a helpless outsider provokes vicious contempt and abuse from the citizens of Dogville.", "poster_path": "/g1xLrof2RVgtHBB4fLvR5Xr8l5x.jpg", "release_date": "2003-05-19", "title": "Dogville", "video": false, "vote_average": 7.8, "vote_count": 1359, "popularity": 17.353}], "total_pages": 78, "total_results": 1547}, "recommendations": {"page": 1, "results": [{"adult": false, "backdrop_path": "/5T2cfBEZ1rNPJVOcLddVM6gxMnQ.jpg", "genre_ids": [18], "id": 41189, "original_language": "en", "original_title": "The Dying Gaul", "overview": "A powerful and seductive Hollywood mogul convinces an impoverished West Hollywood writer, whose lover has recently died of AIDS, to sell his autobiographical screenplay for big bucks. The writer, Robert, knows he'll have to make major changes in the script (like changing the sex of the dying lover). During the rewrite, the producer, Jeffrey, takes Robert under his wing, introducing him to his wife Elaine, herself a closet screenwriter. Jeffrey approaches Robert for sex and Elaine approaches Robert out of curiosity about his sex life in grief. The entangled triangle of relationships threatens more than the completion of a film script. Written by", "poster_path": "/jJscMaD5bwMj3f2r8qCy5NTqGs2.jpg", "release_date": "2005-01-01", "title": "The Dying Gaul", "video": false, "vote_average": 6.3, "vote_count": 17, "popularity": 4.966}, {"adult": false, "backdrop_path": "/bCElbNL8NKLW2yMWJqVJQXE1jHD.jpg", "genre_ids": [18], "id": 39041, "original_language": "en", "original_title": "The Conrad Boys", "overview": "After his mother dies, 19-year-old Charlie Conrad skips college to raise his 9-year-old brother, Ben, in this moving drama. But the heavy responsibility soon causes Charlie to yearn for a normal life. Things start to look up when he embarks on a passionate romance with a free-spirited drifter named Jordan -- until the return of Charlie's estranged father changes everything.", "poster_path": "/iUdlNe26b5pA5aZiYoa8yK8Si42.jpg", "release_date": "2006-01-01", "title": "The Conrad Boys", "video": false, "vote_average": 5.9, "vote_count": 15, "popularity": 3.55}, {"adult": false, "backdrop_path": "/aIxp9e9nW8nQdbkVIMfZ7msrBf0.jpg", "genre_ids": [35, 18, 10749], "id": 17651, "original_language": "en", "original_title": "Poster Boy", "overview": "With the help of a hot, slightly older new acquaintance (Noseworthy), the closeted son (Newton) of a conservative U.S. Senator (Lerner) puts a shocking spin on his dad's re-election campaign.", "poster_path": "/CzQoqsZHIXtW9e0mJoBQr2Zws3.jpg", "release_date": "2004-05-08", "title": "Poster Boy", "video": false, "vote_average": 6.3, "vote_count": 15, "popularity": 3.815}, {"adult": false, "backdrop_path": "/2EaCIzn64degq7CsMytmDQAvDYd.jpg", "genre_ids": [80, 18, 53], "id": 18652, "original_language": "en", "original_title": "Street Thief", "overview": "Kaspar Carr is a professional burglar who lives and works in Chicago. Carr loves his job and is good at it, and two documentary filmmakers are granted access to his private world when he agrees to let them make a film about him.", "poster_path": "/eyihC7rkyaTthT2wA2vfh8hDUVh.jpg", "release_date": "2006-08-07", "title": "Street Thief", "video": false, "vote_average": 6.1, "vote_count": 13, "popularity": 2.948}, {"adult": false, "backdrop_path": "/7CoOEcztoytr5vLQCoy8dzw4pJG.jpg", "genre_ids": [35, 10749], "id": 14848, "original_language": "en", "original_title": "The Dog Problem", "overview": "In the film, Solo is a down-on-his-luck writer who is encouraged by his psychiatrist to get a dog. Solo meets his love interest, who he assumes to be a dog owner when meeting her at a dog play park, but dog problems stand in their way.", "poster_path": "/jrNXfCU7uEG5Gm3GB3gU4ED3hYz.jpg", "release_date": "2006-09-11", "title": "The Dog Problem", "video": false, "vote_average": 6.0, "vote_count": 26, "popularity": 3.852}, {"id": 24775, "video": false, "vote_count": 16, "vote_average": 5.1, "title": "Blast", "release_date": "2004-01-01", "original_language": "en", "original_title": "Blast", "genre_ids": [28], "backdrop_path": "/9icnC5LhckumDiq4UZZA4l6ysJn.jpg", "adult": false, "overview": "A terrorist posing as environmentalist hijacks an oil rig off the coast of California with the intent of detonating an electromagnetic bomb over the US.", "poster_path": "/36u8nWddg7sCUQeWQTbV07AXUwI.jpg", "popularity": 5.464}], "total_pages": 1, "total_results": 6}, "credits": {"cast": [{"cast_id": 13, "character": "Wilson", "credit_id": "52fe43059251416c7500049d", "gender": 2, "id": 5694, "name": "Robert Forster", "order": 0, "profile_path": "/3ulaOBmEqmGQ8ywo8wHAqGJ2odX.jpg"}, {"cast_id": 15, "character": "Mackey", "credit_id": "52fe43059251416c750004a7", "gender": 2, "id": 1162, "name": "Robert Loggia", "order": 1, "profile_path": "/i2h163BYdLkmXTlW5QgkxMmbIFo.jpg"}, {"cast_id": 16, "character": "Lee Marvin", "credit_id": "52fe43059251416c750004ab", "gender": 2, "id": 6487, "name": "Richard Roundtree", "order": 2, "profile_path": "/cF7WMpXLQb6pKHconoUXQ46irQE.jpg"}, {"cast_id": 17, "character": "Buckley", "credit_id": "52fe43059251416c750004af", "gender": 0, "id": 61877, "name": "James M. Hausler", "order": 3, "profile_path": null}, {"cast_id": 18, "character": "Diner Patron", "credit_id": "52fe43059251416c750004b3", "gender": 0, "id": 61878, "name": "Meghan Ashley", "order": 4, "profile_path": null}, {"cast_id": 19, "character": "Man Shot By Young Mackey", "credit_id": "52fe43059251416c750004b7", "gender": 0, "id": 61879, "name": "Timothy Avent", "order": 5, "profile_path": null}, {"cast_id": 20, "character": "Sylvia", "credit_id": "52fe43059251416c750004bb", "gender": 1, "id": 61880, "name": "Lucie Arnaz", "order": 6, "profile_path": "/xIU6Jm8M4kwMzvfJWPPaiiBCDhg.jpg"}, {"cast_id": 21, "character": "Bank Manager", "credit_id": "52fe43059251416c750004bf", "gender": 0, "id": 61882, "name": "Steve Gresser", "order": 7, "profile_path": null}, {"cast_id": 22, "character": "Stanley the Bank Teller", "credit_id": "52fe43059251416c750004c3", "gender": 0, "id": 61884, "name": "Sean Galdo", "order": 8, "profile_path": null}, {"cast_id": 23, "character": "Conner", "credit_id": "52fe43059251416c750004c7", "gender": 0, "id": 61881, "name": "Christopher M. Clark", "order": 9, "profile_path": "/9LyLcD4xTX7JM2dB97MAzqO1GeY.jpg"}, {"cast_id": 26, "character": "Cyrus Woods", "credit_id": "52fe43059251416c750004d3", "gender": 2, "id": 61883, "name": "Tank Jones", "order": 10, "profile_path": "/cUMseyEe7JxY0uAZm76PyCX4hm8.jpg"}, {"cast_id": 25, "character": "Waitress", "credit_id": "52fe43059251416c750004cf", "gender": 0, "id": 61886, "name": "Heather Kole", "order": 11, "profile_path": null}, {"cast_id": 24, "character": "Casino Extra", "credit_id": "52fe43059251416c750004cb", "gender": 0, "id": 61885, "name": "Deuandra T. Brown", "order": 12, "profile_path": null}, {"cast_id": 27, "character": "Casino Waitress", "credit_id": "52fe43059251416c750004d7", "gender": 0, "id": 61888, "name": "Christina Jo'Leigh", "order": 13, "profile_path": null}, {"cast_id": 28, "character": "Serdy", "credit_id": "52fe43059251416c750004db", "gender": 0, "id": 61890, "name": "Aldred Montoya", "order": 14, "profile_path": null}, {"cast_id": 29, "character": "Phillip", "credit_id": "52fe43059251416c750004df", "gender": 2, "id": 61887, "name": "Michael Mandell", "order": 15, "profile_path": null}, {"cast_id": 32, "character": "Cashier", "credit_id": "52fe43059251416c750004eb", "gender": 0, "id": 61891, "name": "Robert James Raymond", "order": 16, "profile_path": null}, {"cast_id": 31, "character": "Petey", "credit_id": "52fe43059251416c750004e7", "gender": 0, "id": 61889, "name": "Tyler Parkinson", "order": 17, "profile_path": null}, {"cast_id": 30, "character": "Alyssa", "credit_id": "52fe43059251416c750004e3", "gender": 1, "id": 61892, "name": "Cathy Rankin", "order": 18, "profile_path": "/vfvQIlQcIs73bcupxXUL5MoFDNG.jpg"}, {"cast_id": 33, "character": "Roulette Dealer", "credit_id": "52fe43059251416c750004ef", "gender": 0, "id": 61893, "name": "David Sotelo", "order": 19, "profile_path": null}], "crew": [{"credit_id": "52fe43049251416c75000481", "department": "Art", "gender": 2, "id": 45090, "job": "Production Design", "name": "George Costello", "profile_path": null}, {"credit_id": "52fe43049251416c7500047b", "department": "Art", "gender": 1, "id": 60629, "job": "Set Decoration", "name": "Sarah Sprawls", "profile_path": null}, {"credit_id": "52fe43049251416c75000463", "department": "Production", "gender": 0, "id": 61869, "job": "Producer", "name": "Timothy P. Haskins", "profile_path": null}, {"credit_id": "52fe43049251416c75000469", "department": "Production", "gender": 0, "id": 61868, "job": "Line Producer", "name": "Todd Turner", "profile_path": null}, {"credit_id": "52fe43049251416c7500046f", "department": "Production", "gender": 0, "id": 61870, "job": "Executive Producer", "name": "Juliana Penaranda", "profile_path": null}, {"credit_id": "52fe43049251416c75000475", "department": "Editing", "gender": 0, "id": 61871, "job": "Editor", "name": "Ken Morrisey", "profile_path": null}, {"credit_id": "52fe43049251416c75000487", "department": "Production", "gender": 0, "id": 61873, "job": "Producer", "name": "Michelle Vogler", "profile_path": null}, {"credit_id": "52fe43049251416c7500048d", "department": "Production", "gender": 0, "id": 61875, "job": "Casting", "name": "Faith Hibbs-Clark", "profile_path": null}, {"credit_id": "52fe43049251416c75000493", "department": "Costume & Make-Up", "gender": 1, "id": 61874, "job": "Costume Design", "name": "Paula Rodgers-Shaw", "profile_path": null}, {"credit_id": "52fe43059251416c75000499", "department": "Camera", "gender": 0, "id": 61872, "job": "Director of Photography", "name": "Jim Hunter", "profile_path": null}, {"credit_id": "52fe43059251416c750004a3", "department": "Sound", "gender": 0, "id": 61876, "job": "Original Music Composer", "name": "Christopher Mangum", "profile_path": null}, {"credit_id": "52fe43059251416c750004f5", "department": "Directing", "gender": 0, "id": 61877, "job": "Director", "name": "James M. Hausler", "profile_path": null}, {"credit_id": "52fe43059251416c750004fb", "department": "Writing", "gender": 0, "id": 61877, "job": "Author", "name": "James M. Hausler", "profile_path": null}]}}