{"adult": false, "backdrop_path": "/aDB2gG2DUvYK4doSZObla0KkgL3.jpg", "belongs_to_collection": null, "budget": 0, "genres": [{"id": 18, "name": "Drama"}, {"id": 35, "name": "Comedy"}, {"id": 80, "name": "Crime"}], "homepage": null, "id": 10097, "imdb_id": "tt0490499", "original_language": "en", "original_title": "The Tiger's Tail", "overview": "After a chance encounter, a Dubliner (Gleeson) is stalked by a murderous facsimile of himself.", "popularity": 3.179, "poster_path": "/A04IQVN3TGkpzax5yxLX2IMmExN.jpg", "production_companies": [{"id": 3565, "logo_path": null, "name": "Fern Gully Tales", "origin_country": ""}], "production_countries": [{"iso_3166_1": "IE", "name": "Ireland"}], "release_date": "2006-09-26", "revenue": 0, "runtime": 107, "spoken_languages": [{"iso_639_1": "en", "name": "English"}], "status": "Released", "tagline": "", "title": "The Tiger's Tail", "video": false, "vote_average": 5.7, "vote_count": 9, "keywords": {"keywords": [{"id": 4729, "name": "dublin"}, {"id": 15127, "name": "killer"}, {"id": 161891, "name": "doppelg\u00e4nger"}]}, "similar": {"page": 1, "results": [{"adult": false, "backdrop_path": "/7QjoyyGdBV32x1sEh64dAnNjwg2.jpg", "genre_ids": [53, 35, 27], "id": 12521, "original_language": "en", "original_title": "Shocker", "overview": "After being sent to the electric chair, a serial killer uses electricity to come back from the dead and carry out his vengeance on the football player who turned him in to the police.", "poster_path": "/xEDmOhNGCKlWlS3mCiqLCVzBXVA.jpg", "release_date": "1989-10-27", "title": "Shocker", "video": false, "vote_average": 5.5, "vote_count": 176, "popularity": 9.966}, {"adult": false, "backdrop_path": "/8DkJrxEyRN8gTseEhajybpC5smK.jpg", "genre_ids": [27], "id": 10585, "original_language": "en", "original_title": "Child's Play", "overview": "A single mother gives her son a beloved doll for his birthday, only to discover that it is possessed by the soul of a serial killer.", "poster_path": "/dSX9i2buibfyKFRpK2kOe6rtl5R.jpg", "release_date": "1988-11-08", "title": "Child's Play", "video": false, "vote_average": 6.5, "vote_count": 1415, "popularity": 17.31}, {"adult": false, "backdrop_path": "/rH6NsvJg5hYyRigUZhOWDiahUPV.jpg", "genre_ids": [27, 53], "id": 9877, "original_language": "en", "original_title": "Urban Legend", "overview": "There's a campus killer on the loose who's making urban legends, like the one about eating pop rocks and soda at the same time will make your stomach explode and the one about a psycho with an axe stepping into the backseat of your car at the gas station when not looking, into reality.", "poster_path": "/2oIf0ibr0zlhuhgbOwFSHimh7P6.jpg", "release_date": "1998-09-25", "title": "Urban Legend", "video": false, "vote_average": 5.7, "vote_count": 633, "popularity": 8.825}, {"id": 278924, "video": false, "vote_count": 2026, "vote_average": 5.7, "title": "Mechanic: Resurrection", "release_date": "2016-08-25", "original_language": "en", "original_title": "Mechanic: Resurrection", "genre_ids": [28, 80, 53], "backdrop_path": "/6kMu4vECAyTpj2Z7n8viJ4RAaYh.jpg", "adult": false, "overview": "Arthur Bishop thought he had put his murderous past behind him when his most formidable foe kidnaps the love of his life. Now he is forced to travel the globe to complete three impossible assassinations, and do what he does best, make them look like accidents.", "poster_path": "/nhPKl3mDUPXpCrX5onoGmt6kC4U.jpg", "popularity": 23.298}, {"adult": false, "backdrop_path": "/uUYCUbgI5VxsUflTMI4Y9L2Y6vb.jpg", "genre_ids": [80, 18, 53], "id": 11423, "original_language": "ko", "original_title": "\uc0b4\uc778\uc758 \ucd94\uc5b5", "overview": "1986 Gyunggi Province. The body of a young woman is found brutally raped and murdered. Two months later, a series of rapes and murders commences under similar circumstances. And in a country that had never known such crimes, the dark whispers about a serial murderer grow louder. A special task force is set up in the area, with two local detectives Park Doo-Man and Jo Young-Goo joined by a detective from Seoul who requested to be assigned to the case.", "poster_path": "/gawnVe9cFowdoDLo9Pok12NTw39.jpg", "release_date": "2003-05-02", "title": "Memories of Murder", "video": false, "vote_average": 8.1, "vote_count": 1093, "popularity": 16.342}, {"adult": false, "backdrop_path": "/3s1jogOznYmG0xPqHE45D5ir3bx.jpg", "genre_ids": [27, 53, 9648], "id": 3597, "original_language": "en", "original_title": "I Know What You Did Last Summer", "overview": "As they celebrate their high school graduation, four friends are involved in a hit-and-run accident when their car hits and apparently kills a pedestrian on an isolated roadway. They dispose of the body and vow to keep the incident a secret, a year later somebody starts sending them letters bearing the warning \"I Know What You Did Last Summer\".", "poster_path": "/cruOfvjIqMTbOQxld8SpM8OzVnf.jpg", "release_date": "1997-10-17", "title": "I Know What You Did Last Summer", "video": false, "vote_average": 5.8, "vote_count": 1504, "popularity": 13.387}, {"id": 3600, "video": false, "vote_count": 824, "vote_average": 5.2, "title": "I Still Know What You Did Last Summer", "release_date": "1998-11-13", "original_language": "en", "original_title": "I Still Know What You Did Last Summer", "genre_ids": [27, 9648, 53], "backdrop_path": "/iaFSFtxX02lXsT2zQHiykNSj7YP.jpg", "adult": false, "overview": "Unfinished business with coed Julie James brings the murderer to the Bahamas to terrorize her and her friends, Karla, Tyrell and Will, during a vacation. Can Ray Bronson who survived a bloody attack alongside Julie two summers ago, get to the island in time to save everyone?", "poster_path": "/j4s1TK90tZWZj7lQ84UDJXHI9Kh.jpg", "popularity": 14.259}, {"adult": false, "backdrop_path": "/oB8oMhq8GIQdkrmUtuHnOgJwQyP.jpg", "genre_ids": [35, 80, 53], "id": 483, "original_language": "en", "original_title": "Wild at Heart", "overview": "Young lovers Sailor and Lula run from the variety of weirdos that Lula's mom has hired to kill Sailor.", "poster_path": "/d4fbQjSSBd4FPyAROln1skafChr.jpg", "release_date": "1990-08-17", "title": "Wild at Heart", "video": false, "vote_average": 7.1, "vote_count": 746, "popularity": 19.824}, {"id": 13184, "video": false, "vote_count": 598, "vote_average": 5.1, "title": "Bangkok Dangerous", "release_date": "2008-08-21", "original_language": "en", "original_title": "Bangkok Dangerous", "genre_ids": [28, 80, 53], "backdrop_path": "/lBVtKWWXH46r7oMLdfT3quioaVb.jpg", "adult": false, "overview": "When carrying out a hit, assassin Joe (Cage) always makes use of the knowledge of the local population. On arriving in Bangkok, Joe meets street kid Kong and he becomes his primary aide. But when Kong is nearly killed, he asks Joe to train him up in the deadly arts and unwittingly becomes a target of a band of killers.", "poster_path": "/eyHn8A0lze1pbCNxv0UsATBOmyv.jpg", "popularity": 10.559}, {"adult": false, "backdrop_path": "/zfs9QuKkZL6ZCluGvjo5Pk49aMv.jpg", "genre_ids": [27, 9648, 53], "id": 16938, "original_language": "en", "original_title": "Black Christmas", "overview": "A sorority house is terrorized by a stranger who makes frightening phone calls and then murders the sorority sisters during Christmas break.", "poster_path": "/qqO98sdPgptFgCua3Z4uZDuPcmP.jpg", "release_date": "1974-10-11", "title": "Black Christmas", "video": false, "vote_average": 6.9, "vote_count": 307, "popularity": 12.31}, {"adult": false, "backdrop_path": "/4L1MSZo8dQ20x4AhBDKfDs1cOjs.jpg", "genre_ids": [27, 53], "id": 9728, "original_language": "en", "original_title": "Friday the 13th Part III", "overview": "An idyllic summer turns into a nightmare of unspeakable terror for yet another group of naive counselors. Ignoring Camp Crystal Lake's bloody legacy, one by one they fall victim to the maniacal Jason who stalks them at every turn.", "poster_path": "/5wg2NZyIhcMbIBAahBODXHyJ54S.jpg", "release_date": "1982-08-13", "title": "Friday the 13th Part III", "video": false, "vote_average": 5.8, "vote_count": 632, "popularity": 11.072}, {"id": 245891, "video": false, "vote_count": 11528, "vote_average": 7.2, "title": "John Wick", "release_date": "2014-10-22", "original_language": "en", "original_title": "John Wick", "genre_ids": [28, 53], "backdrop_path": "/iJlGxN0p1suzloBGvvBu3QSSlhT.jpg", "adult": false, "overview": "Ex-hitman John Wick comes out of retirement to track down the gangsters that took everything from him.", "poster_path": "/5vHssUeVe25bMrof1HyaPyWgaP.jpg", "popularity": 71.02}, {"adult": false, "backdrop_path": "/qr7R4pagFUcmz9ny6Gai9gjlSnn.jpg", "genre_ids": [27], "id": 4488, "original_language": "en", "original_title": "Friday the 13th", "overview": "Camp counselors are stalked and murdered by an unknown assailant while trying to reopen a summer camp that was the site of a child's drowning.", "poster_path": "/mGJlh8oMyTDhfudvs20kFpYz0Yc.jpg", "release_date": "1980-05-09", "title": "Friday the 13th", "video": false, "vote_average": 6.4, "vote_count": 1439, "popularity": 16.948}, {"id": 9373, "video": false, "vote_count": 1413, "vote_average": 6.1, "title": "The Texas Chainsaw Massacre", "release_date": "2003-05-21", "original_language": "en", "original_title": "The Texas Chainsaw Massacre", "genre_ids": [27], "backdrop_path": "/3rTsJ7tIC3LUSRr80PfeLbbCfBA.jpg", "adult": false, "overview": "After picking up a traumatized young hitchhiker, five friends find themselves stalked and hunted by a deformed chainsaw-wielding killer and his family of equally psychopathic killers.", "poster_path": "/gx7FCIOFGxqNyplF3t7qtmUv55g.jpg", "popularity": 17.769}, {"id": 9792, "video": false, "vote_count": 1554, "vote_average": 6.3, "title": "The Hills Have Eyes", "release_date": "2006-03-10", "original_language": "en", "original_title": "The Hills Have Eyes", "genre_ids": [27, 53], "backdrop_path": "/7JmFtKtvgVD0zQ2xPQdUKtTXdeA.jpg", "adult": false, "overview": "Based on Wes Craven's 1977 suspenseful cult classic, The Hills Have Eyes is the story of a family road trip that goes terrifyingly awry when the travelers become stranded in a government atomic zone. Miles from nowhere, the Carter family soon realizes the seemingly uninhabited wasteland is actually the breeding ground of a blood-thirsty mutant family...and they are the prey.", "poster_path": "/hNuqY8h1oBGTnEQK75AH4IwuiPG.jpg", "popularity": 14.316}, {"adult": false, "backdrop_path": "/o4psXh7IVD6GFKvBSHjHLzjL2lV.jpg", "genre_ids": [27, 53], "id": 10781, "original_language": "en", "original_title": "The Texas Chainsaw Massacre: The Beginning", "overview": "Chrissie and her friends set out on a road trip for a final fling before one is shipped off to Vietnam. Along the way, bikers harass the foursome and cause an accident that throws Chrissie from the vehicle. The lawman who arrives on the scene kills one of the bikers and brings Chrissie's friends to the Hewitt homestead, where young Leatherface is learning the tools of terror.", "poster_path": "/9elCJIG1TOJ0wew3JVx5ZMkHq5w.jpg", "release_date": "2006-10-06", "title": "The Texas Chainsaw Massacre: The Beginning", "video": false, "vote_average": 6.0, "vote_count": 935, "popularity": 18.392}, {"id": 458723, "video": false, "vote_count": 3218, "vote_average": 7.0, "title": "Us", "release_date": "2019-03-14", "original_language": "en", "original_title": "Us", "genre_ids": [27, 9648, 53], "backdrop_path": "/18qxSxzAUs7UjZ3dKCkxAOv0yb1.jpg", "adult": false, "overview": "Husband and wife Gabe and Adelaide Wilson take their kids to their beach house expecting to unplug and unwind with friends. But as night descends, their serenity turns to tension and chaos when some shocking visitors arrive uninvited.", "poster_path": "/ux2dU1jQ2ACIMShzB3yP93Udpzc.jpg", "popularity": 34.608}, {"adult": false, "backdrop_path": "/bvbyidkMaBls1LTaIWYY6UmYTaL.jpg", "genre_ids": [28, 878], "id": 336843, "original_language": "en", "original_title": "Maze Runner: The Death Cure", "overview": "Thomas leads his group of escaped Gladers on their final and most dangerous mission yet. To save their friends, they must break into the legendary Last City, a WCKD-controlled labyrinth that may turn out to be the deadliest maze of all. Anyone who makes it out alive will get answers to the questions the Gladers have been asking since they first arrived in the maze.", "poster_path": "/2zYfzA3TBwrMC8tfFbpiTLODde0.jpg", "release_date": "2018-01-10", "title": "Maze Runner: The Death Cure", "video": false, "vote_average": 7.0, "vote_count": 4393, "popularity": 24.242}, {"id": 346364, "video": false, "vote_count": 12540, "vote_average": 7.2, "title": "It", "release_date": "2017-09-06", "original_language": "en", "original_title": "It", "genre_ids": [27], "backdrop_path": "/tcheoA2nPATCm2vvXw2hVQoaEFD.jpg", "adult": false, "overview": "In a small town in Maine, seven children known as The Losers Club come face to face with life problems, bullies and a monster that takes the shape of a clown called Pennywise.", "poster_path": "/9E2y5Q7WlCVNEhP5GiVTjhEhx1o.jpg", "popularity": 28.41}, {"id": 10824, "video": false, "vote_count": 142, "vote_average": 5.2, "title": "Candyman: Farewell to the Flesh", "release_date": "1995-03-17", "original_language": "en", "original_title": "Candyman: Farewell to the Flesh", "genre_ids": [27], "backdrop_path": "/5UzXIBh94vmTFHzIBiQZT6WhpOk.jpg", "adult": false, "overview": "The Candyman moves on to New Orleans and starts his horrific murders once more. This time, his intended victim is a school teacher. Her father was killed by the Candyman, and brother wrongly accused of the murders.", "poster_path": "/yYIMENwSbHM6mt3pSkoAV5RqSHR.jpg", "popularity": 8.186}], "total_pages": 213, "total_results": 4246}, "recommendations": {"page": 1, "results": [{"id": 15203, "video": false, "vote_count": 11, "vote_average": 7.7, "title": "Strangler vs Strangler", "release_date": "1984-06-18", "original_language": "sr", "original_title": "Davitelj protiv davitelja", "genre_ids": [35, 27, 53], "backdrop_path": null, "adult": false, "overview": "When it comes to crime, Belgrade is same as any other modern metropolis, except for having its own serial killers. That blank is filled when a flower salesman begins strangling women. A popular, but very disturbed rock star soon becomes telepathically connected with the killer.", "poster_path": "/rSjrlvd2I3xKP08TxWNNkFDTkbq.jpg", "popularity": 1.796}, {"adult": false, "backdrop_path": "/vhTy2UYJrwYyj5QOBA9EHIy5eqy.jpg", "genre_ids": [53, 18], "id": 23385, "original_language": "en", "original_title": "New Town Killers", "overview": "Two private bankers, Alistair and Jamie, who have the world at their feet get their kicks from playing a 12 hour game of hunt, hide and seek with people from the margins of society. Their next target is Sean Macdonald a parentless teenager who lives with his sister on a housing estate on the outskirts of Edinburgh. She's in debt, he's going nowhere fast. Sean agrees to play for cash.", "poster_path": "/vnAEgYFMsDywFy7udUvL0KosZ9R.jpg", "release_date": "2008-10-28", "title": "New Town Killers", "video": false, "vote_average": 5.7, "vote_count": 20, "popularity": 3.305}], "total_pages": 1, "total_results": 2}, "credits": {"cast": [{"cast_id": 11, "character": "Liam O'Leary", "credit_id": "52fe43259251416c75005577", "gender": 2, "id": 2039, "name": "Brendan Gleeson", "order": 0, "profile_path": "/pUTBk2sqFgg4aFBXHckD0qKLUYP.jpg"}, {"cast_id": 12, "character": "Jane O'Leary", "credit_id": "52fe43259251416c7500557b", "gender": 1, "id": 2109, "name": "Kim Cattrall", "order": 1, "profile_path": "/4mxAkrwJNXWgVqGAtUmM8j6TMXp.jpg"}, {"cast_id": 13, "character": "Father Andy", "credit_id": "52fe43269251416c7500557f", "gender": 2, "id": 8785, "name": "Ciar\u00e1n Hinds", "order": 2, "profile_path": "/h5n8B12WoY1UAZjzSVEup4vsoBw.jpg"}, {"cast_id": 14, "character": "Oona O'Leary", "credit_id": "52fe43269251416c75005583", "gender": 1, "id": 11281, "name": "Sin\u00e9ad Cusack", "order": 3, "profile_path": "/r9eWOKN1WtE7RMDAwIhOpMRh3wL.jpg"}, {"cast_id": 15, "character": "Declan Murray", "credit_id": "52fe43269251416c75005587", "gender": 2, "id": 2468, "name": "Sean McGinley", "order": 4, "profile_path": "/yYLnTgn7RDR50crBOV7juzJlq6f.jpg"}, {"cast_id": 16, "character": "Ursula", "credit_id": "52fe43269251416c7500558b", "gender": 1, "id": 63358, "name": "Angeline Ball", "order": 5, "profile_path": "/kmyjfoY9pZCwMyGLcP1P7lQfV9e.jpg"}, {"cast_id": 19, "character": "Sally", "credit_id": "52fe43269251416c75005597", "gender": 1, "id": 63359, "name": "Cathy Belton", "order": 6, "profile_path": "/qgPJ7zGv6rOwE4Bf1um0RyAs72P.jpg"}, {"cast_id": 17, "character": "Bertie Brennan", "credit_id": "52fe43269251416c7500558f", "gender": 2, "id": 63360, "name": "Denis Conway", "order": 7, "profile_path": "/lnnOJpfdTLtVNIrPngfrNC4IgTm.jpg"}, {"cast_id": 18, "character": "Felim", "credit_id": "52fe43269251416c75005593", "gender": 2, "id": 63362, "name": "Ned Dennehy", "order": 8, "profile_path": "/nrHkAv1Z70Jei2O0AZavwmP5eUf.jpg"}, {"cast_id": 20, "character": "Maeve - Liam's Mother", "credit_id": "52fe43269251416c7500559b", "gender": 0, "id": 63361, "name": "Moira Deady", "order": 9, "profile_path": null}, {"cast_id": 23, "character": "Male nurse", "credit_id": "52fe43269251416c750055a7", "gender": 2, "id": 63363, "name": "Michael FitzGerald", "order": 10, "profile_path": "/tMi4bLp78rdCSopcYt1Le5WKLWI.jpg"}, {"cast_id": 22, "character": "Connor O'Leary", "credit_id": "52fe43269251416c750055a3", "gender": 2, "id": 63364, "name": "Brian Gleeson", "order": 11, "profile_path": "/o0Zic3R5sz2Mmrnz2CfvRuZYulY.jpg"}, {"cast_id": 21, "character": "Paul", "credit_id": "52fe43269251416c7500559f", "gender": 2, "id": 63365, "name": "David Herlihy", "order": 12, "profile_path": "/cUfxHKP2vCiOLB4UY0aYxPLcGyz.jpg"}, {"cast_id": 24, "character": "Harry", "credit_id": "52fe43269251416c750055ab", "gender": 2, "id": 20282, "name": "John Kavanagh", "order": 13, "profile_path": "/3ElWQEcnhi3lgYtbWPVV9EfExdw.jpg"}, {"cast_id": 25, "character": "District Judge", "credit_id": "52fe43269251416c750055af", "gender": 2, "id": 42600, "name": "Mark Lambert", "order": 14, "profile_path": "/v9ZfVLCbcUqshXkou11fYFQqifL.jpg"}, {"cast_id": 26, "character": "Larry's Secretary", "credit_id": "52fe43269251416c750055b3", "gender": 0, "id": 63366, "name": "Ruth Lawlor", "order": 15, "profile_path": null}, {"cast_id": 28, "character": "The Beggar", "credit_id": "52fe43269251416c750055bd", "gender": 0, "id": 63367, "name": "Eanna MacLiam", "order": 16, "profile_path": null}, {"cast_id": 29, "character": "Garda #2", "credit_id": "52fe43269251416c750055c1", "gender": 0, "id": 63370, "name": "Aonghus Og McAnally", "order": 17, "profile_path": null}, {"cast_id": 30, "character": "Drinker", "credit_id": "52fe43269251416c750055c5", "gender": 0, "id": 63368, "name": "Sean Markey", "order": 18, "profile_path": null}, {"cast_id": 31, "character": "Samantha's Boyfriend", "credit_id": "52fe43269251416c750055c9", "gender": 0, "id": 63369, "name": "Nigel Linden", "order": 19, "profile_path": null}, {"cast_id": 32, "character": "Larry Cooney", "credit_id": "5cc51c7a0e0a2633d0ebe832", "gender": 2, "id": 29240, "name": "Tom Vaughan-Lawlor", "order": 20, "profile_path": "/taoZXCxhWdzHI0iNb3IVdeMYcXZ.jpg"}], "crew": [{"credit_id": "52fe43259251416c7500553d", "department": "Directing", "gender": 2, "id": 19665, "job": "Director", "name": "John Boorman", "profile_path": "/zPZkbiZms6DUZz74xLLFFGUJY0n.jpg"}, {"credit_id": "52fe43259251416c75005543", "department": "Writing", "gender": 2, "id": 19665, "job": "Author", "name": "John Boorman", "profile_path": "/zPZkbiZms6DUZz74xLLFFGUJY0n.jpg"}, {"credit_id": "52fe43259251416c75005549", "department": "Production", "gender": 2, "id": 19665, "job": "Producer", "name": "John Boorman", "profile_path": "/zPZkbiZms6DUZz74xLLFFGUJY0n.jpg"}, {"credit_id": "52fe43259251416c7500554f", "department": "Editing", "gender": 2, "id": 19678, "job": "Editor", "name": "Ron Davis", "profile_path": null}, {"credit_id": "52fe43259251416c75005555", "department": "Production", "gender": 2, "id": 57815, "job": "Producer", "name": "John Buchanan", "profile_path": null}, {"credit_id": "52fe43259251416c7500555b", "department": "Production", "gender": 0, "id": 63354, "job": "Producer", "name": "Kieran Corrigan", "profile_path": null}, {"credit_id": "52fe43259251416c75005561", "department": "Production", "gender": 0, "id": 63356, "job": "Line Producer", "name": "Kevan Barker", "profile_path": null}, {"credit_id": "52fe43259251416c75005567", "department": "Sound", "gender": 2, "id": 63357, "job": "Original Music Composer", "name": "Stephen McKeon", "profile_path": null}, {"credit_id": "52fe43259251416c7500556d", "department": "Camera", "gender": 0, "id": 63355, "job": "Director of Photography", "name": "Seamus Deasy", "profile_path": null}, {"credit_id": "52fe43259251416c75005573", "department": "Costume & Make-Up", "gender": 1, "id": 26146, "job": "Costume Design", "name": "Maeve Paterson", "profile_path": null}, {"credit_id": "52fe43269251416c750055b9", "department": "Production", "gender": 2, "id": 63371, "job": "Producer", "name": "John McDonnell", "profile_path": null}]}}