{"adult": false, "backdrop_path": "/dAA42SiGKs01f6QD6rk2DkhiU6m.jpg", "belongs_to_collection": null, "budget": 0, "genres": [{"id": 35, "name": "Comedy"}], "homepage": null, "id": 101529, "imdb_id": "tt0068589", "original_language": "it", "original_title": "Finalmente le mille e una notte", "overview": "Italian sex comedy version of Arabian Nights", "popularity": 1.561, "poster_path": "/tup2EszvdynbkTRXuct7dAfnM6I.jpg", "production_companies": [{"id": 98925, "logo_path": null, "name": "Pink International Films", "origin_country": ""}, {"id": 15868, "logo_path": null, "name": "Medusa Distribuzione", "origin_country": ""}], "production_countries": [{"iso_3166_1": "IT", "name": "Italy"}], "release_date": "1972-02-08", "revenue": 0, "runtime": 90, "spoken_languages": [{"iso_639_1": "it", "name": "Italiano"}], "status": "Released", "tagline": "", "title": "House of 1000 Pleasures", "video": false, "vote_average": 0.0, "vote_count": 0, "keywords": {"keywords": [{"id": 1664, "name": "eroticism"}]}, "similar": {"page": 1, "results": [{"id": 345, "video": false, "vote_count": 3077, "vote_average": 7.4, "title": "Eyes Wide Shut", "release_date": "1999-07-16", "original_language": "en", "original_title": "Eyes Wide Shut", "genre_ids": [18, 9648, 53], "backdrop_path": "/nxJ05LTOxmbTKdOA7kXcnijC2K9.jpg", "adult": false, "overview": "After Dr. Bill Harford's wife, Alice, admits to having sexual fantasies about a man she met, Bill becomes obsessed with having a sexual encounter. He discovers an underground sexual group and attends one of their meetings -- and quickly discovers that he is in over his head.", "poster_path": "/3mcSzcjUZSDFIUtuJZ7hNNGJGW1.jpg", "popularity": 20.781}, {"id": 1378, "video": false, "vote_count": 256, "vote_average": 6.3, "title": "Shortbus", "release_date": "2006-05-20", "original_language": "en", "original_title": "Shortbus", "genre_ids": [35, 18, 10749], "backdrop_path": "/q0fWiFPHQy42g41mxNxci2QxTIW.jpg", "adult": false, "overview": "A group of New Yorkers caught up in their milieu converge at an underground salon infamous for its blend of art, music, politics, and carnality. The characters converge in a weekly Brooklyn social/artistic/sexual salon \"Shortbus\", loosely inspired by various underground NYC gatherings that took place in the early 2000's. Here, gay couple Jamie (P J DeBoy) and James (Paul Dawson) meet a young ex-model and aspiring singer Ceth (Jay Brannan).", "poster_path": "/iaS9XXoHW6ZVveu6wpLaTv1Bv29.jpg", "popularity": 13.824}, {"adult": false, "backdrop_path": "/tvTyRu9eKfymkje8d9VoWJEoyUv.jpg", "genre_ids": [18], "id": 53932, "original_language": "es", "original_title": "Las edades de Lul\u00fa", "overview": "Fifteen-year-old Lulu has never known any affection from her family. But when she goes to a rock concert with Pablo, a friend of the family, he introduces Lulu to her first sexual experience. Years later, Pablo and Lulu have married; Pablo has created a sheltered, private world for Lulu, into which nothing intrudes. However, Lulu tires of her cloistered existence, and begins hanging out in shady bars, looking for vicarious thrills and danger.", "poster_path": "/5PK5MAN84o0ESgzeW9euozOLIEe.jpg", "release_date": "1990-12-13", "title": "The Ages of Lulu", "video": false, "vote_average": 5.7, "vote_count": 64, "popularity": 24.141}, {"adult": false, "backdrop_path": "/3mEfawlJnuu4OmUlAOesrAMsWv6.jpg", "genre_ids": [53, 27], "id": 9540, "original_language": "en", "original_title": "Dead Ringers", "overview": "Elliot, a successful gynecologist, works at the same practice as his identical twin, Beverly. Elliot is attracted to many of his patients and has affairs with them. When he inevitably loses interest, he will give the woman over to Beverly, the meeker of the two, without the woman knowing the difference. Beverly falls hard for one of the patients, Claire, but when she inadvertently deceives him, he slips into a state of madness.", "poster_path": "/9ZGBwiWIvN9KmHaLeSS5it44G21.jpg", "release_date": "1988-09-23", "title": "Dead Ringers", "video": false, "vote_average": 7.2, "vote_count": 388, "popularity": 10.111}, {"id": 10497, "video": false, "vote_count": 282, "vote_average": 7.0, "title": "Bitter Moon", "release_date": "1992-09-02", "original_language": "en", "original_title": "Bitter Moon", "genre_ids": [18, 53, 10749], "backdrop_path": "/aQEByvmVJHPcGXzdYYFJhSitaGW.jpg", "adult": false, "overview": "An embittered husband, paralyzed and in a wheelchair, buttonholes a complete stranger and begins to tell him the story of his marriage. The stranger would like to escape, but cannot. For one thing he grows fascinated by the story. For another he is mesmerized by the man's wife, who has perfected that trick of looking a man boldly in the eye until, by looking away, he concedes sexual supremacy.", "poster_path": "/hGvO7nzNc9S2qKaY2blBb3qHHkQ.jpg", "popularity": 15.264}, {"id": 1412, "video": false, "vote_count": 394, "vote_average": 6.9, "title": "sex, lies, and videotape", "release_date": "1989-08-18", "original_language": "en", "original_title": "sex, lies, and videotape", "genre_ids": [18], "backdrop_path": "/esCRA7XoKR95PmbzmcbrfhcXQNN.jpg", "adult": false, "overview": "A sexually repressed woman's husband is having an affair with her sister. The arrival of a visitor with a rather unusual fetish changes everything.", "poster_path": "/kOXATYKziiKmoMxgKA10JOO13JZ.jpg", "popularity": 14.045}, {"adult": false, "backdrop_path": "/bYbnlh6VXFRtcSX82UMDsBDLB5j.jpg", "genre_ids": [18, 10749], "id": 28468, "original_language": "it", "original_title": "La chiave", "overview": "After twenty years of marriage, art professor Nino Rolfe attempts to break down his wife Teresa's conventional modesty. Noticing her affection for their daughter's fianc\u00e9, Nino instigates her sexual interest in him as well. This sets off a chain of unexpected events and emotional complications, as Nino and his unpredictable fascist daughter find that they both enjoy being jealous.", "poster_path": "/e6g2geNLgFzMbriH6EvSJZD78nx.jpg", "release_date": "1983-10-18", "title": "The Key", "video": false, "vote_average": 5.0, "vote_count": 128, "popularity": 15.363}, {"id": 2057, "video": false, "vote_count": 429, "vote_average": 5.9, "title": "Original Sin", "release_date": "2001-05-08", "original_language": "en", "original_title": "Original Sin", "genre_ids": [53], "backdrop_path": "/is3I5v8FwLiEWxaksfN8D4MLNGH.jpg", "adult": false, "overview": "A young man is plunged into a life of subterfuge, deceit and mistaken identity in pursuit of a femme fatale whose heart is never quite within his grasp", "poster_path": "/yGis1Mai4ivspEXdWtXLg0bZPkX.jpg", "popularity": 18.232}, {"adult": false, "backdrop_path": "/xC9cG6Wy6QbH2hoAx11xPPD995R.jpg", "genre_ids": [18, 10749], "id": 86331, "original_language": "fr", "original_title": "Q", "overview": "In a social context deteriorated by a countrywide economic crisis, the life of several people will be turned upside down after they meet Cecile, a character who symbolizes desire.", "poster_path": "/9Jg9s4yTEndNmy1SSXRF9jdxY9D.jpg", "release_date": "2011-09-14", "title": "Desire", "video": false, "vote_average": 4.6, "vote_count": 204, "popularity": 25.756}, {"adult": false, "backdrop_path": "/eHhtUoazdml8CMvzWtpunIyqrZS.jpg", "genre_ids": [18, 53, 10749], "id": 884, "original_language": "en", "original_title": "Crash", "overview": "After getting into a serious car accident, a TV director discovers an underground sub-culture of scarred, omnisexual car-crash victims who use car accidents and the raw sexual energy they produce to try to rejuvenate his sex life with his wife.", "poster_path": "/4PDLGJsS5uVBQlYjLMZ7t85dU0P.jpg", "release_date": "1996-07-17", "title": "Crash", "video": false, "vote_average": 6.5, "vote_count": 438, "popularity": 14.59}, {"adult": false, "backdrop_path": "/fwreQBx5CD55c1DpH117cS8915P.jpg", "genre_ids": [18, 53], "id": 867, "original_language": "en", "original_title": "Sliver", "overview": "A woman moves into an apartment in Manhattan and learns that the previous tenant's life ended mysteriously after they fell from the balcony.", "poster_path": "/av21Dfu31DQPtp5jkorMMS58rQC.jpg", "release_date": "1993-05-21", "title": "Sliver", "video": false, "vote_average": 5.3, "vote_count": 288, "popularity": 19.094}, {"id": 402, "video": false, "vote_count": 1776, "vote_average": 6.7, "title": "Basic Instinct", "release_date": "1992-03-20", "original_language": "en", "original_title": "Basic Instinct", "genre_ids": [9648, 53], "backdrop_path": "/bKdxJMqvr4wltzAQaieA6CTkaa9.jpg", "adult": false, "overview": "A police detective is in charge of the investigation of a brutal murder, in which a beautiful and seductive woman could be involved.", "poster_path": "/p1DHOfLFZmM567ePKfFNMV4mY92.jpg", "popularity": 23.513}, {"adult": false, "backdrop_path": "/qPCI9SZmHXmeG6OK367r9GvkuGl.jpg", "genre_ids": [35, 10749], "id": 41280, "original_language": "en", "original_title": "Private Lessons", "overview": "Phillip Filmore is a naive, 15-year-old, preoccupied with sex, who develops a crush on Nicole Mallow, the new 30-something, French housekeeper and sitter to look after him when Phillip's father is out of town for the summer on a \"business\" trip. But Mr. Filmore's unscrupulous chauffeur, Lester Lewis, takes advantage of Phillip's crush on Nicole to hire her to seduce the youth, then draws her into a plot to fake her own death in a blackmail scheme aimed to drain Phillip's trust fund.", "poster_path": "/azdrerXeyr2Aofr7p9osEWnz05g.jpg", "release_date": "1981-08-21", "title": "Private Lessons", "video": false, "vote_average": 5.8, "vote_count": 37, "popularity": 24.872}, {"adult": false, "backdrop_path": "/98ahnrena4PwLth7HFYGLf9yssH.jpg", "genre_ids": [35, 18, 10749], "id": 22705, "original_language": "it", "original_title": "Tra(sgre)dire", "overview": "While scouting out apartments in London for her Venetian boyfriend, Carla rents an apartment that overlooks the Thames. There she meet the lesbian hyper-horny real estate agent Moira.", "poster_path": "/kZITrLEiTfzzJhtwtXhQUl3ImCQ.jpg", "release_date": "2000-01-28", "title": "Cheeky", "video": false, "vote_average": 5.7, "vote_count": 92, "popularity": 30.42}, {"adult": false, "backdrop_path": "/4QBI1pdjr2hH1fgC8NqwZZnWNso.jpg", "genre_ids": [10749, 35, 18], "id": 138697, "original_language": "en", "original_title": "Don Jon", "overview": "A New Jersey guy dedicated to his family, friends, and church, develops unrealistic expectations from watching porn and works to find happiness and intimacy with his potential true love.", "poster_path": "/xD93OhEhMPN0v5VXt21D6rx7HGg.jpg", "release_date": "2013-07-26", "title": "Don Jon", "video": false, "vote_average": 5.9, "vote_count": 2910, "popularity": 20.524}, {"adult": false, "backdrop_path": "/avhG8fITuG78IkKPk28CcBBHPOp.jpg", "genre_ids": [35, 18], "id": 112160, "original_language": "fr", "original_title": "Chroniques sexuelles d'une famille d'aujourd'hui", "overview": "Three generations of a French family open up about their sexual experiences and desires after young Romain is caught masturbating in his biology class.", "poster_path": "/pU2nD3Llaz3Taq5FAaQUg00uJYD.jpg", "release_date": "2012-05-09", "title": "Sexual Chronicles of a French Family", "video": false, "vote_average": 4.4, "vote_count": 169, "popularity": 26.875}, {"adult": false, "backdrop_path": "/txR74Uy6sYbUv4HQURQXNF8LXTf.jpg", "genre_ids": [35], "id": 8277, "original_language": "en", "original_title": "American Pie Presents: Beta House", "overview": "Erik, Ryan, and Cooze start college and pledge the Beta House fraternity, presided over by none other than legendary Dwight Stifler. But chaos ensues when a fraternity of geeks threatens to stop the debauchery and the Betas have to make a stand for their right to party.", "poster_path": "/xJeYprcFqBfov6dUpjJIxDeaZJr.jpg", "release_date": "2007-12-10", "title": "American Pie Presents: Beta House", "video": false, "vote_average": 5.5, "vote_count": 1087, "popularity": 16.688}, {"id": 2770, "video": false, "vote_count": 2941, "vote_average": 6.1, "title": "American Pie 2", "release_date": "2001-08-10", "original_language": "en", "original_title": "American Pie 2", "genre_ids": [35, 10749], "backdrop_path": "/1C1d3Tpesm8Vn3BRqsQZt0LfZcG.jpg", "adult": false, "overview": "The whole gang are back and as close as ever. They decide to get even closer by spending the summer together at a beach house. They decide to hold the biggest party ever to be seen, even if the preparation doesn't always go to plan. Especially when Stifler, Finch and Jim become more close to each other than they ever want to be and when Jim mistakes super glue for lubricant...", "poster_path": "/q4LNgUnRfltxzp3gf1MAGiK5LhV.jpg", "popularity": 20.359}, {"adult": false, "backdrop_path": "/5x0VEeFCnWzRBwU23KycKQRqEhN.jpg", "genre_ids": [10402, 35], "id": 15157, "original_language": "en", "original_title": "Another Cinderella Story", "overview": "A guy who danced with what could be the girl of his dreams at a costume ball only has one hint at her identity: the Zune she left behind as she rushed home in order to make her curfew. And with a once-in-a-lifetime opportunity in front of him, he sets out to find his masked beauty.", "poster_path": "/fLdCKCfHT8A6bnWybBsQFjC4fCo.jpg", "release_date": "2008-09-16", "title": "Another Cinderella Story", "video": false, "vote_average": 6.6, "vote_count": 1120, "popularity": 16.339}, {"adult": false, "backdrop_path": "/npClMhFGn4XUkwu6coq5oKAEu6L.jpg", "genre_ids": [35, 10749, 18], "id": 634, "original_language": "en", "original_title": "Bridget Jones's Diary", "overview": "A chaotic Bridget Jones meets a snobbish lawyer, and he soon enters her world of imperfections.", "poster_path": "/ym6kjFFZg6boC0QHBVw6hqJLbxv.jpg", "release_date": "2001-04-13", "title": "Bridget Jones's Diary", "video": false, "vote_average": 6.7, "vote_count": 3080, "popularity": 19.453}], "total_pages": 118, "total_results": 2351}, "recommendations": {"page": 1, "results": [], "total_pages": 1, "total_results": 0}, "credits": {"cast": [{"cast_id": 2, "character": "Mariam", "credit_id": "52fe49f2c3a36847f81af279", "gender": 1, "id": 16021, "name": "Barbara Bouchet", "order": 0, "profile_path": "/hVDD1MJE7vzwREF59ySzRCheFbR.jpg"}, {"cast_id": 3, "character": "Zumurud", "credit_id": "54f5dfdac3a3686db1000006", "gender": 1, "id": 24493, "name": "Femi Benussi", "order": 1, "profile_path": "/i8r9ePuoQX1KM3hs1WRHWhNwEZx.jpg"}, {"cast_id": 4, "character": "Aziza", "credit_id": "54f5dfffc3a3686d9e000008", "gender": 0, "id": 1434646, "name": "Barbara Marzano", "order": 2, "profile_path": "/ye0T9wIoiFKjuwUyQOxxywquW1t.jpg"}, {"cast_id": 5, "character": "(as Annie Karol Edel)", "credit_id": "5720b99992514121fa0023c6", "gender": 1, "id": 572282, "name": "Annie Carol Edel", "order": 3, "profile_path": "/8jaxQjMTxYUok1mKbiXMxVdJKgl.jpg"}, {"cast_id": 6, "character": "moglie di Marian", "credit_id": "59c4d8f49251415b54024cca", "gender": 2, "id": 144994, "name": "Ignazio Leone", "order": 4, "profile_path": null}, {"cast_id": 7, "character": "Samandar", "credit_id": "59c4d906c3a36813ed026776", "gender": 2, "id": 1042797, "name": "Pupo De Luca", "order": 5, "profile_path": "/9LGB7rWyP0VnGIUZpiDFFskfZ8Q.jpg"}, {"cast_id": 8, "character": "Genio della lampada", "credit_id": "59c4d9199251415b28026957", "gender": 0, "id": 32315, "name": "Gigi Ballista", "order": 6, "profile_path": "/rSaHvMr8PwU5X9IKq2UlbKAfAp.jpg"}, {"cast_id": 9, "character": "Baba", "credit_id": "59c4d9269251415b77027642", "gender": 0, "id": 32675, "name": "Luigi Bonos", "order": 7, "profile_path": "/4Ioip6KzNpSSgjppkJhlNLppNL8.jpg"}, {"cast_id": 10, "character": "Aladino", "credit_id": "59c4d93b9251415b54024d02", "gender": 0, "id": 1040091, "name": "Gino Milli", "order": 8, "profile_path": null}, {"cast_id": 11, "character": "", "credit_id": "59c4d944c3a368141e023180", "gender": 2, "id": 1033015, "name": "Gastone Pescucci", "order": 9, "profile_path": "/eUGtAszwYJbVt6hmMGlEB3MPDde.jpg"}, {"cast_id": 12, "character": "", "credit_id": "59c4d9559251415b77027669", "gender": 1, "id": 27390, "name": "Carla Mancini", "order": 10, "profile_path": "/ovUX2Ke2z45i5L3d4ja5n8TEqgV.jpg"}, {"cast_id": 19, "character": "", "credit_id": "5c3b8aae9251415524aac97d", "gender": 1, "id": 224433, "name": "Esmeralda Barros", "order": 11, "profile_path": "/1p3QoiCx0Do909uf2HIVnfJSFsV.jpg"}, {"cast_id": 20, "character": "", "credit_id": "5c3b8abd0e0a2654c18c1f2c", "gender": 0, "id": 1139934, "name": "Alberto Atenari", "order": 12, "profile_path": "/pHAQQxCDr6dxKtEoAJRktLtK5zy.jpg"}, {"cast_id": 21, "character": "", "credit_id": "5c3b8aca0e0a2655c48c1e9a", "gender": 1, "id": 1354793, "name": "Barbara Betti", "order": 13, "profile_path": null}, {"cast_id": 22, "character": "", "credit_id": "5c3b8adb0e0a2655c48c1ede", "gender": 0, "id": 33811, "name": "Remo Capitani", "order": 14, "profile_path": "/vRQ3u6WToFd1F1LHZRvJNRSVZdk.jpg"}, {"cast_id": 23, "character": "", "credit_id": "5c3b8ae8925141344caad51f", "gender": 2, "id": 139130, "name": "Vassili Karis", "order": 15, "profile_path": "/bdMpe1MdsVT0NmRWNPFseO7Pq7e.jpg"}, {"cast_id": 24, "character": "", "credit_id": "5c3b8af99251416b02aad38f", "gender": 1, "id": 51051, "name": "Elisabeth Felchner", "order": 16, "profile_path": "/mmkhAo8AYOyjz3qh2azv7o0Riii.jpg"}, {"cast_id": 25, "character": "", "credit_id": "5c3b8b0a0e0a2643d38c1fc5", "gender": 0, "id": 1691645, "name": "Amparo Pilar", "order": 17, "profile_path": null}, {"cast_id": 26, "character": "", "credit_id": "5c3b8b190e0a2676538c1e90", "gender": 0, "id": 118503, "name": "Dino Cassio", "order": 18, "profile_path": "/gB6d6qlo1ZXySZ02fttLNkkDbSK.jpg"}, {"cast_id": 27, "character": "", "credit_id": "5c3b8b239251416e2daaed19", "gender": 0, "id": 556745, "name": "Salvatore Puntillo", "order": 19, "profile_path": "/gWVDzI9CWknjK6JJubEaUdErsI9.jpg"}, {"cast_id": 28, "character": "", "credit_id": "5c3b8b2b9251416e2daaed1d", "gender": 0, "id": 934901, "name": "Franca Grey", "order": 20, "profile_path": null}, {"cast_id": 29, "character": "", "credit_id": "5c3b8b36c3a36869403bc059", "gender": 0, "id": 1523556, "name": "Amedeo Timpani", "order": 21, "profile_path": null}, {"cast_id": 30, "character": "", "credit_id": "5c3b8b400e0a263c4f8c07f2", "gender": 0, "id": 1709065, "name": "Ileana Fraia", "order": 22, "profile_path": null}, {"cast_id": 31, "character": "", "credit_id": "5c3b8b4bc3a368638a3bac2b", "gender": 2, "id": 239666, "name": "Luigi Antonio Guerra", "order": 23, "profile_path": "/2MH1gI5p2Zy0YUfjzeyYlexLj6U.jpg"}, {"cast_id": 32, "character": "", "credit_id": "5c3b8b539251416e2daaed46", "gender": 0, "id": 1997389, "name": "Paola Lelio", "order": 24, "profile_path": null}], "crew": [{"credit_id": "59c4d99c9251415b87024c5c", "department": "Writing", "gender": 0, "id": 5561, "job": "Screenplay", "name": "Antonio Margheriti", "profile_path": "/mQE61ZpPTZqQFJ4wHy1WA0Iz8Te.jpg"}, {"credit_id": "52fe49f2c3a36847f81af275", "department": "Directing", "gender": 0, "id": 5561, "job": "Director", "name": "Antonio Margheriti", "profile_path": "/mQE61ZpPTZqQFJ4wHy1WA0Iz8Te.jpg"}, {"credit_id": "5a419e78c3a368586c02cd18", "department": "Sound", "gender": 2, "id": 29389, "job": "Music", "name": "Carlo Savina", "profile_path": null}, {"credit_id": "5a419e890e0a264f2902cdde", "department": "Camera", "gender": 2, "id": 101574, "job": "Director of Photography", "name": "Sergio D'Offizi", "profile_path": null}, {"credit_id": "59c4d9a5c3a368144302711b", "department": "Writing", "gender": 0, "id": 1135283, "job": "Screenplay", "name": "Dino Verde", "profile_path": null}, {"credit_id": "5beec1a1c3a36818aa015f29", "department": "Production", "gender": 0, "id": 2176686, "job": "Production Secretary", "name": "Donato Bitetto", "profile_path": null}, {"credit_id": "5beec84f0e0a26266f0174b5", "department": "Editing", "gender": 2, "id": 2176691, "job": "Assistant Editor", "name": "Bruno Micheli", "profile_path": null}]}}