{"adult": false, "backdrop_path": "/AeaFxJnMOoBgCQ4rp9R7ZuvqQcB.jpg", "belongs_to_collection": null, "budget": 0, "genres": [{"id": 10749, "name": "Romance"}, {"id": 35, "name": "Comedy"}], "homepage": null, "id": 101892, "imdb_id": "tt0024855", "original_language": "en", "original_title": "Bachelor Bait", "overview": "After being fired from his job at the Marriage License Bureau, a clerk turns to matchmaking.", "popularity": 1.655, "poster_path": "/99WLTzoLEHME5nfpGQTVbciZLRv.jpg", "production_companies": [{"id": 6, "logo_path": "/n53F7K9scQWFXYbrCablqLKqJdp.png", "name": "RKO Radio Pictures", "origin_country": "US"}], "production_countries": [{"iso_3166_1": "US", "name": "United States of America"}], "release_date": "1934-07-27", "revenue": 0, "runtime": 74, "spoken_languages": [{"iso_639_1": "en", "name": "English"}], "status": "Released", "tagline": "", "title": "Bachelor Bait", "video": false, "vote_average": 5.7, "vote_count": 3, "keywords": {"keywords": [{"id": 5332, "name": "greed"}, {"id": 6038, "name": "marriage"}, {"id": 156764, "name": "pre-code"}]}, "similar": {"page": 1, "results": [{"adult": false, "backdrop_path": "/wfFTStTBWo3zIciBW4Eob3sarSz.jpg", "genre_ids": [35, 10749], "id": 3078, "original_language": "en", "original_title": "It Happened One Night", "overview": "A renegade reporter and a crazy young heiress meet on a bus heading for New York, and end up stuck with each other when the bus leaves them behind at one of the stops.", "poster_path": "/k63JqnFvkIGWGhjsqRiksZw2OSs.jpg", "release_date": "1934-02-22", "title": "It Happened One Night", "video": false, "vote_average": 7.9, "vote_count": 563, "popularity": 13.497}, {"id": 12531, "video": false, "vote_count": 91, "vote_average": 6.9, "title": "The Apartment", "release_date": "1996-07-27", "original_language": "fr", "original_title": "L'Appartement", "genre_ids": [18, 9648, 10749], "backdrop_path": "/64qyT8m4JQ6YODvXxtbHgKmXBX7.jpg", "adult": false, "overview": "A stylish suspense thriller that confounds the audience while presenting them with an extraordinary and elusive mystery. Max is a former playboy who has decided to settle down by marrying his current love, Muriel. However, during a business trip, Max catches a glimpse of the great lost love of his life, reviving his wanderlust and sending him off on a chase of the elusive Lisa, whom he had overheard suggesting to a friend that her lover, Daniel, had killed someone for her. Soon, Max is trying to unravel the mystery behind the suspicious death of Daniel's wife, which he hopes will lead him closer to Lisa.", "poster_path": "/1sqrQdQTn8jKLhUcPKfRVj639zA.jpg", "popularity": 21.259}, {"adult": false, "backdrop_path": "/bQW1TnxHlmkWof0vsALj4HBkoxj.jpg", "genre_ids": [18, 10749], "id": 51828, "original_language": "en", "original_title": "One Day", "overview": "A romantic comedy centered on Dexter and Emma, who first meet during their graduation in 1988 and proceed to keep in touch regularly. The film follows what they do on July 15 annually, usually doing something together.", "poster_path": "/xzOz17yC3K6SZWtWylXimcHUqpD.jpg", "release_date": "2011-03-02", "title": "One Day", "video": false, "vote_average": 7.2, "vote_count": 2342, "popularity": 15.269}, {"adult": false, "backdrop_path": "/4brEMzPazQE3hv3mogj6k1a29RP.jpg", "genre_ids": [10749, 14, 16], "id": 3933, "original_language": "en", "original_title": "Corpse Bride", "overview": "Set in a 19th-century european village, this stop-motion animation feature follows the story of Victor, a young man whisked away to the underworld and wed to a mysterious corpse bride, while his real bride Victoria waits bereft in the land of the living.", "poster_path": "/o9GbcdP7rOg2m1NyUnUR3ZwNcTE.jpg", "release_date": "2005-09-12", "title": "Corpse Bride", "video": false, "vote_average": 7.4, "vote_count": 4926, "popularity": 16.93}, {"id": 567609, "video": false, "vote_count": 855, "vote_average": 6.8, "title": "Ready or Not", "release_date": "2019-08-21", "original_language": "en", "original_title": "Ready or Not", "genre_ids": [35, 27, 9648, 53], "backdrop_path": "/ubqaGfwYxZMaTEVfhPghF87tzYm.jpg", "adult": false, "overview": "A bride's wedding night takes a sinister turn when her eccentric new in-laws force her to take part in a terrifying game.", "poster_path": "/vOl6shtL0wknjaIs6JdKCpcHvg8.jpg", "popularity": 58.557}, {"id": 50546, "video": false, "vote_count": 3333, "vote_average": 6.5, "title": "Just Go with It", "release_date": "2011-02-10", "original_language": "en", "original_title": "Just Go with It", "genre_ids": [35, 10749], "backdrop_path": "/7pa08RTp610h72pZnqqgkmsB76l.jpg", "adult": false, "overview": "A plastic surgeon, romancing a much younger schoolteacher, enlists his loyal assistant to pretend to be his soon to be ex-wife, in order to cover up a careless lie. When more lies backfire, the assistant's kids become involved, and everyone heads off for a weekend in Hawaii that will change all their lives.", "poster_path": "/4sJDqzBaqBprkEy0aLjIGl7TrHx.jpg", "popularity": 20.158}, {"id": 32255, "video": false, "vote_count": 79, "vote_average": 7.5, "title": "The Palm Beach Story", "release_date": "1942-08-28", "original_language": "en", "original_title": "The Palm Beach Story", "genre_ids": [35, 10749], "backdrop_path": "/bvtXkrI1sstmoBP1QqXJLmcGOdk.jpg", "adult": false, "overview": "Gerry and Tom Jeffers are finding married life hard. Tom is an inventor/ architect and there is little money for them to live on. They are about to be thrown out of their apartment when Gerry meets rich businessman being shown around as a prospective tenant. He gives Gerry $700 to start life afresh but Tom refuses to believe her story and they quarrel. Gerry decides the marriage is over and heads to Palm Beach for a quick divorce but Tom has plans to stop her.", "poster_path": "/zif5rzeW1odL8KQKmVG8xMdo2co.jpg", "popularity": 8.334}, {"adult": false, "backdrop_path": "/wyvHy4ElaiNamrpS6fjquYQqxhQ.jpg", "genre_ids": [35, 18, 10749], "id": 712, "original_language": "en", "original_title": "Four Weddings and a Funeral", "overview": "Over the course of five social occasions, a committed bachelor must consider the notion that he may have discovered love.", "poster_path": "/md9kMKnLG8LG4pMDM98gy5x4K5L.jpg", "release_date": "1994-03-09", "title": "Four Weddings and a Funeral", "video": false, "vote_average": 6.7, "vote_count": 1456, "popularity": 16.541}, {"id": 116, "video": false, "vote_count": 2412, "vote_average": 7.3, "title": "Match Point", "release_date": "2005-10-26", "original_language": "en", "original_title": "Match Point", "genre_ids": [80, 18, 53, 10749], "backdrop_path": "/40gCaXoyT75wuLbz1t5BwpLm0w4.jpg", "adult": false, "overview": "Match Point is Woody Allen\u2019s satire of the British High Society and the ambition of a young tennis instructor to enter into it. Yet when he must decide between two women - one assuring him his place in high society, and the other that would take him far from it - palms start to sweat and a dark psychological match in his head begins.", "poster_path": "/zuSFZEbSs7hj9lfeu2k7a4bPxdE.jpg", "popularity": 13.645}, {"id": 8998, "video": false, "vote_count": 314, "vote_average": 5.1, "title": "Friends with Money", "release_date": "2006-09-07", "original_language": "en", "original_title": "Friends with Money", "genre_ids": [35, 18, 10749], "backdrop_path": "/en0lEQ8neLgQ85sEZAC0hmsvyiW.jpg", "adult": false, "overview": "After she quits her lucrative job, Olivia finds herself unsure about her future and her relationships with her successful and wealthy friends.", "poster_path": "/138DFtHjGQcDK4vQavLJ51xEBjZ.jpg", "popularity": 8.068}, {"id": 521, "video": false, "vote_count": 1257, "vote_average": 8.0, "title": "Dial M for Murder", "release_date": "1954-05-29", "original_language": "en", "original_title": "Dial M for Murder", "genre_ids": [80, 18, 9648, 53], "backdrop_path": "/jVMlfESb0TJ29w8CUDDofEprMmn.jpg", "adult": false, "overview": "An ex-tennis pro carries out a plot to have his wife murdered after discovering she is having an affair, and assumes she will soon leave him for the other man anyway. When things go wrong, he improvises a new plan\u2014to frame her for murder instead.", "poster_path": "/xrpK1PyckNWmRxU4kZURfaCyboS.jpg", "popularity": 34.566}, {"adult": false, "backdrop_path": "/kQX0k2mVsiexLftIpiTVb5N6rZs.jpg", "genre_ids": [35, 18, 10749], "id": 339397, "original_language": "en", "original_title": "Caf\u00e9 Society", "overview": "The story of a young man who arrives in Hollywood during the 1930s hoping to work in the film industry, falls in love, and finds himself swept up in the vibrant caf\u00e9 society that defined the spirit of the age.", "poster_path": "/hRrF8R32WIldNEMLOhtNrz9OfAZ.jpg", "release_date": "2016-05-11", "title": "Caf\u00e9 Society", "video": false, "vote_average": 6.4, "vote_count": 1698, "popularity": 14.165}, {"adult": false, "backdrop_path": "/rGWzox5V7dv6KE1gYlZAZ2sUvKJ.jpg", "genre_ids": [18, 10749], "id": 16642, "original_language": "en", "original_title": "Days of Heaven", "overview": "In 1910, a Chicago steel worker accidentally kills his supervisor and flees to the Texas panhandle with his girlfriend and little sister to work harvesting wheat in the fields of a stoic farmer. A love triangle, a swarm of locusts, a hellish fire\u2014Malick captures it all with dreamlike authenticity, creating at once a timeless American idyll and a gritty evocation of turn-of-the-century labor.", "poster_path": "/rjw7tQbiBnbIeufyEt02oVickDM.jpg", "release_date": "1978-09-13", "title": "Days of Heaven", "video": false, "vote_average": 7.6, "vote_count": 459, "popularity": 10.835}, {"adult": false, "backdrop_path": "/djifnv4QTD7JsFp4WFK6yLPPvXy.jpg", "genre_ids": [35, 10749], "id": 16553, "original_language": "en", "original_title": "Little Manhattan", "overview": "Ten-year-old Gabe was just a normal kid growing up in Manhattan until Rosemary Telesco walked into his life, actually into his karate class. But before Gabe can tell Rosemary how he feels, she tells him she will not be going to public school any more. Gabe has a lot more to learn about life, love, and girls.", "poster_path": "/1ptpZ9vA73urZykDxnYOnJjMAcS.jpg", "release_date": "2005-09-30", "title": "Little Manhattan", "video": false, "vote_average": 6.9, "vote_count": 416, "popularity": 9.006}, {"adult": false, "backdrop_path": "/yIj4Y2BXbjr8Qem6Ly8QJWt4PgL.jpg", "genre_ids": [35, 10749], "id": 31773, "original_language": "en", "original_title": "Libeled Lady", "overview": "When a major newspaper accuses wealthy socialite Connie Allenbury of being a home-wrecker, and she files a multi-million-dollar libel lawsuit, the publication's frazzled head editor, Warren Haggerty, must find a way to turn the tables on her. Soon Haggerty's harried fianc\u00e9e, Gladys Benton, and his dashing friend Bill Chandler are in on a scheme that aims to discredit Connie, with amusing and unexpected results.", "poster_path": "/kqFyuN4riFJz2JblUZZKYNiTt5p.jpg", "release_date": "1936-10-09", "title": "Libeled Lady", "video": false, "vote_average": 7.4, "vote_count": 45, "popularity": 6.659}, {"id": 9051, "video": false, "vote_count": 115, "vote_average": 5.6, "title": "10", "release_date": "1979-10-04", "original_language": "en", "original_title": "10", "genre_ids": [35, 10749], "backdrop_path": "/f0KcQlWKQfgJxIV365TFaFyXUVT.jpg", "adult": false, "overview": "A Hollywood songwriter goes through a mid-life crisis and becomes infatuated with a sexy blonde newlywed.", "poster_path": "/7GGpt49Q2c98zVz514mHlRjCpGy.jpg", "popularity": 10.949}, {"id": 46705, "video": false, "vote_count": 1862, "vote_average": 6.9, "title": "Blue Valentine", "release_date": "2010-12-16", "original_language": "en", "original_title": "Blue Valentine", "genre_ids": [18, 10749], "backdrop_path": "/4FLZTeVWrp14vm5wMlSJzEghDrd.jpg", "adult": false, "overview": "Dean and Cindy live a quiet life in a modest neighborhood. They appear to have the world at their feet at the outset of the relationship. However, his lack of ambition and her retreat into self-absorption cause potentially irreversible cracks in their marriage.", "poster_path": "/r8l15gDSQMupjKXEyXkOMkRpcsn.jpg", "popularity": 10.985}, {"id": 252838, "video": false, "vote_count": 1050, "vote_average": 6.5, "title": "The Wedding Ringer", "release_date": "2015-01-16", "original_language": "en", "original_title": "The Wedding Ringer", "genre_ids": [35], "backdrop_path": "/xCnxYy1WyPBp6ImcjEe8KezPryq.jpg", "adult": false, "overview": "Doug Harris is a loveable but socially awkward groom-to-be with a problem: he has no best man.  With less than two weeks to go until he marries the girl of his dreams, Doug is referred to Jimmy Callahan, owner and CEO of Best Man, Inc., a company that provides flattering best men for socially challenged guys in need.  What ensues is a hilarious wedding charade as they try to pull off the big con, and an unexpected budding bromance between Doug and his fake\r best man Jimmy.", "poster_path": "/u3gLkiOpkNb01r7yvrbbOfBJv3R.jpg", "popularity": 22.525}, {"id": 38, "video": false, "vote_count": 8439, "vote_average": 8.1, "title": "Eternal Sunshine of the Spotless Mind", "release_date": "2004-03-19", "original_language": "en", "original_title": "Eternal Sunshine of the Spotless Mind", "genre_ids": [18, 878, 10749], "backdrop_path": "/1dXTsaFxHoF9cas08UjAqE8NqOW.jpg", "adult": false, "overview": "Joel Barish, heartbroken that his girlfriend underwent a procedure to erase him from her memory, decides to do the same. However, as he watches his memories of her fade away, he realises that he still loves her, and may be too late to correct his mistake.", "poster_path": "/7y3eYvTsGjxPYDtSnumCLIMDkrV.jpg", "popularity": 22.167}, {"id": 27022, "video": false, "vote_count": 3218, "vote_average": 6.0, "title": "The Sorcerer's Apprentice", "release_date": "2010-07-13", "original_language": "en", "original_title": "The Sorcerer's Apprentice", "genre_ids": [28, 12, 35, 18, 14], "backdrop_path": "/v0o9M1us65w1kDQp8Q6KnB5a11s.jpg", "adult": false, "overview": "Balthazar Blake is a master sorcerer in modern-day Manhattan trying to defend the city from his arch-nemesis, Maxim Horvath. Balthazar can't do it alone, so he recruits Dave Stutler, a seemingly average guy who demonstrates hidden potential, as his reluctant prot\u00e9g\u00e9. The sorcerer gives his unwilling accomplice a crash course in the art and science of magic, and together, these unlikely partners work to stop the forces of darkness.", "poster_path": "/ZNSrRpdJ6FjMy4Iu6JpRTJ5Q87.jpg", "popularity": 20.949}], "total_pages": 197, "total_results": 3923}, "recommendations": {"page": 1, "results": [], "total_pages": 1, "total_results": 0}, "credits": {"cast": [{"cast_id": 2, "character": "William Watts", "credit_id": "52fe49fcc3a36847f81b1703", "gender": 2, "id": 34293, "name": "Stuart Erwin", "order": 0, "profile_path": "/lJ05qDJypQEJe6bvW6V2g8lM6Kq.jpg"}, {"cast_id": 3, "character": "Cynthia Douglas", "credit_id": "52fe49fcc3a36847f81b1707", "gender": 1, "id": 2777, "name": "Rochelle Hudson", "order": 1, "profile_path": "/ecCkMB0gOfP1O2VdFOBaFmDsxQj.jpg"}, {"cast_id": 5, "character": "Allie Summers", "credit_id": "52fe49fcc3a36847f81b1711", "gender": 1, "id": 179384, "name": "Pert Kelton", "order": 2, "profile_path": "/lWZauy1CUbBZYlVHhTCe3wF95Uj.jpg"}, {"cast_id": 6, "character": "Bramwell Van Dusen", "credit_id": "52fe49fcc3a36847f81b1715", "gender": 2, "id": 145839, "name": "Richard \"Skeets\" Gallagher", "order": 3, "profile_path": "/1lZ1zGyGeDrBWecVERLrvQjLplU.jpg"}, {"cast_id": 7, "character": "\"Big\" Barney Nolan", "credit_id": "5793c369c3a3683ffb001445", "gender": 2, "id": 14969, "name": "Berton Churchill", "order": 4, "profile_path": "/rZJl9ZZPc9V7jSp2QTck8wKIaua.jpg"}, {"cast_id": 8, "character": "Don Belden / Diker", "credit_id": "5793c378c3a36862cd00a8cf", "gender": 2, "id": 13968, "name": "Grady Sutton", "order": 5, "profile_path": "/qV83gmmU7eBe7FfMbzf05eZ6j2v.jpg"}, {"cast_id": 9, "character": "Clement Graftsman", "credit_id": "5793c385c3a36828a600c930", "gender": 2, "id": 89102, "name": "Clarence Wilson", "order": 6, "profile_path": "/8FmVuzXQGZ94XmwFUaxf3oDYkY0.jpg"}, {"cast_id": 25, "character": "Man Wanting a Match (uncredited)", "credit_id": "5dd48fd628723c00144ecc15", "gender": 0, "id": 1420490, "name": "William Augustin", "order": 7, "profile_path": null}, {"cast_id": 26, "character": "Van's Secretary (uncredited)", "credit_id": "5dd48fe18c40f70017bc3c2a", "gender": 0, "id": 1468728, "name": "Amelia Batchelor", "order": 8, "profile_path": null}, {"cast_id": 27, "character": "Photographer (uncredited)", "credit_id": "5dd48fece267de00169c0dd8", "gender": 2, "id": 121240, "name": "Lynton Brent", "order": 9, "profile_path": "/oZqxbNIA0vS5in5ELx4h3ma188e.jpg"}, {"cast_id": 28, "character": "Mrs. Trutmanner (uncredited)", "credit_id": "5dd48ff53faba00015f39fe3", "gender": 1, "id": 981098, "name": "Nora Cecil", "order": 10, "profile_path": "/paPIPfBQwgspxEOMBHM8dPm1jE0.jpg"}, {"cast_id": 29, "character": "Wilson (uncredited)", "credit_id": "5dd490013faba00013f39588", "gender": 2, "id": 121409, "name": "Phil Dunham", "order": 11, "profile_path": null}, {"cast_id": 30, "character": "Margery (uncredited)", "credit_id": "5dd4900d356a710012ee09c5", "gender": 1, "id": 1770297, "name": "Hazel Forbes", "order": 12, "profile_path": "/fZri2ZaRgG8k8Odm2kV5ZQ2Jmit.jpg"}, {"cast_id": 31, "character": "Postal Clerk (uncredited)", "credit_id": "5dd49019356a710012ee09d4", "gender": 0, "id": 103947, "name": "Otto Hoffman", "order": 13, "profile_path": "/1C6VGYklEbMvKffXSNnGOhnv1VI.jpg"}, {"cast_id": 32, "character": "Reporter (uncredited)", "credit_id": "5dd4915ab39e3574dd8b8dc6", "gender": 2, "id": 119486, "name": "Paul Kruger", "order": 14, "profile_path": "/kWlFmR3LemW3NWe2Lt06EDZSFwy.jpg"}, {"cast_id": 33, "character": "Policeman (uncredited)", "credit_id": "5dd491673faba00015f3a0de", "gender": 0, "id": 1041747, "name": "Ethan Laidlaw", "order": 15, "profile_path": "/uMHfrpwbk6XBEeqsxY6jWnZjKKC.jpg"}, {"cast_id": 34, "character": "Detective (uncredited)", "credit_id": "5dd4917128723c00124e6f7e", "gender": 2, "id": 932309, "name": "Tom London", "order": 16, "profile_path": "/nfLW8J3AMasTu1Ahm0HftRgx9qy.jpg"}, {"cast_id": 35, "character": "Policeman (uncredited)", "credit_id": "5dd491822634620012b66f31", "gender": 2, "id": 1092484, "name": "Bruce Mitchell", "order": 17, "profile_path": null}, {"cast_id": 36, "character": "Waiter #2 (uncredited)", "credit_id": "5dd49190b39e3500138d6eeb", "gender": 2, "id": 1176510, "name": "William H. O'Brien", "order": 18, "profile_path": "/d8BySpwzgqv8rVezb0QbtXvmxbb.jpg"}, {"cast_id": 37, "character": "William's Boss (uncredited)", "credit_id": "5dd491b2e267de00139c310d", "gender": 2, "id": 121127, "name": "Frank O'Connor", "order": 19, "profile_path": "/11dv3ebdyQWg77VFiPOFfXbuxWH.jpg"}, {"cast_id": 38, "character": "Waiter #1 (uncredited)", "credit_id": "5dd491be3faba00013f397fd", "gender": 2, "id": 19552, "name": "Rolfe Sedan", "order": 20, "profile_path": "/6ZOlWQ4QziNnYwtzqj2komEvlG5.jpg"}, {"cast_id": 22, "character": "Miriam Johnson (uncredited)", "credit_id": "5b96001f0e0a26197502fea3", "gender": 1, "id": 19327, "name": "Anne Shirley", "order": 21, "profile_path": "/vqwHzjBgV8wlWUi1cATSXCHV0bA.jpg"}, {"cast_id": 39, "character": "Drunk (uncredited)", "credit_id": "5dd491d88c40f70014bc425a", "gender": 2, "id": 148868, "name": "Will Stanton", "order": 22, "profile_path": "/1BbhkRE5sGBnKF8KB1d4UWYNkaf.jpg"}, {"cast_id": 40, "character": "Mr. Wells (uncredited)", "credit_id": "5dd491e2b39e3500138d6f3d", "gender": 2, "id": 120476, "name": "Landers Stevens", "order": 23, "profile_path": "/19qzQcXjaO06LDXOwqmeY2JqOvB.jpg"}, {"cast_id": 41, "character": "Miss Winters (uncredited)", "credit_id": "5dd491eeb39e3500138d6f4a", "gender": 0, "id": 1270995, "name": "Carol Tevis", "order": 24, "profile_path": null}, {"cast_id": 24, "character": "Miss Turner (uncredited)", "credit_id": "5d9575e129c6260014867cb0", "gender": 1, "id": 8522, "name": "Zeffie Tilbury", "order": 25, "profile_path": "/hTFxYbEmhgn1W2RUD5uxTdXCnOz.jpg"}, {"cast_id": 23, "character": "Lionel Wells (uncredited)", "credit_id": "5d9575a9ea4263002294366e", "gender": 2, "id": 165524, "name": "Dick Winslow", "order": 26, "profile_path": "/9Py3kHyImtkWn25CnJrTbbagqZQ.jpg"}, {"cast_id": 42, "character": "Mr. Wolfe (uncredited)", "credit_id": "5dd4921a356a715875eb3942", "gender": 0, "id": 102069, "name": "Bill Wolfe", "order": 27, "profile_path": null}], "crew": [{"credit_id": "584f8fd7c3a3682fb8005588", "department": "Art", "gender": 2, "id": 11036, "job": "Art Direction", "name": "Van Nest Polglase", "profile_path": "/11wRR3ofmyXu33rjhlrwg74zpnJ.jpg"}, {"credit_id": "584f8fd1c3a3682f58004579", "department": "Art", "gender": 2, "id": 3255, "job": "Art Direction", "name": "Carroll Clark", "profile_path": null}, {"credit_id": "584f8fdec3a36827a5004885", "department": "Costume & Make-Up", "gender": 2, "id": 11491, "job": "Costume Design", "name": "Walter Plunkett", "profile_path": "/yKfswJpfffXoggkwC3eSDfaMD49.jpg"}, {"credit_id": "52fe49fcc3a36847f81b16ff", "department": "Directing", "gender": 2, "id": 18738, "job": "Director", "name": "George Stevens", "profile_path": "/vKuUtXcGyuiwpznUMc1hwLMsKoq.jpg"}, {"credit_id": "584f8fac9251416f100048b7", "department": "Production", "gender": 2, "id": 30174, "job": "Executive Producer", "name": "Pandro S. Berman", "profile_path": "/pOB0fbkzzKPUs5w9wd7aeFjjpuI.jpg"}, {"credit_id": "58290c91c3a3683614030605", "department": "Camera", "gender": 2, "id": 30177, "job": "Director of Photography", "name": "David Abel", "profile_path": null}, {"credit_id": "52fe49fcc3a36847f81b170d", "department": "Writing", "gender": 2, "id": 80647, "job": "Screenplay", "name": "Glenn Tryon", "profile_path": "/66NeH4UFjvRe4vTMhAnIuZv8Rk7.jpg"}, {"credit_id": "584f8ff29251416fa100479b", "department": "Directing", "gender": 2, "id": 89745, "job": "Assistant Director", "name": "Jean Yarbrough", "profile_path": "/mggQ51vYqvl78YRdb7DZYRvRpec.jpg"}, {"credit_id": "584f8f999251416f63004aa3", "department": "Writing", "gender": 0, "id": 90064, "job": "Story", "name": "Victor Halperin", "profile_path": "/mP57xqcUgd1sa1Q4BQS8XN3CnKo.jpg"}, {"credit_id": "584f8fa09251416e48004b66", "department": "Writing", "gender": 0, "id": 90065, "job": "Story", "name": "Edward Halperin", "profile_path": null}, {"credit_id": "584f8fbec3a36831ce0049d4", "department": "Production", "gender": 2, "id": 1194446, "job": "Associate Producer", "name": "Lou Brock", "profile_path": null}, {"credit_id": "584f8fea9251416f63004ad3", "department": "Directing", "gender": 2, "id": 1337941, "job": "Assistant Director", "name": "Doran Cox", "profile_path": null}, {"credit_id": "584f8fcac3a3682f58004576", "department": "Editing", "gender": 2, "id": 1345303, "job": "Editor", "name": "James B. Morley", "profile_path": null}]}}