{"adult": false, "backdrop_path": "/en2ufDmDaydra2Zf35xCw1EAa9J.jpg", "belongs_to_collection": null, "budget": 0, "genres": [{"id": 9648, "name": "Mystery"}, {"id": 18, "name": "Drama"}, {"id": 14, "name": "Fantasy"}, {"id": 27, "name": "Horror"}, {"id": 53, "name": "Thriller"}], "homepage": null, "id": 102256, "imdb_id": "tt1756615", "original_language": "en", "original_title": "Marianne", "overview": "The life of Krister has become an unending nightmare, ever since his wife's death. There seems to be no respite for this man, tormented by the errors of his past and held prisoner by a grim daily existence.", "popularity": 2.429, "poster_path": "/kIMMJYA7jK2ZN2pqfMYYMFD28GS.jpg", "production_companies": [{"id": 14802, "logo_path": null, "name": "Njutafilms", "origin_country": ""}, {"id": 27826, "logo_path": null, "name": "J\u00e4mtfilm", "origin_country": ""}], "production_countries": [{"iso_3166_1": "SE", "name": "Sweden"}], "release_date": "2011-11-04", "revenue": 0, "runtime": 103, "spoken_languages": [{"iso_639_1": "en", "name": "English"}, {"iso_639_1": "sv", "name": "svenska"}], "status": "Released", "tagline": "", "title": "Marianne", "video": false, "vote_average": 4.1, "vote_count": 4, "keywords": {"keywords": []}, "similar": {"page": 1, "results": [{"adult": false, "backdrop_path": "/7RRuRcGuWkZGuRyYugfXn0Fgrrr.jpg", "genre_ids": [28, 80, 18, 53], "id": 949, "original_language": "en", "original_title": "Heat", "overview": "Obsessive master thief, Neil McCauley leads a top-notch crew on various daring heists throughout Los Angeles while determined detective, Vincent Hanna pursues him without rest. Each man recognizes and respects the ability and the dedication of the other even though they are aware their cat-and-mouse game may end in violence.", "poster_path": "/6pmLVffM9jEYK7VqDJqPblMxfEY.jpg", "release_date": "1995-12-15", "title": "Heat", "video": false, "vote_average": 7.8, "vote_count": 3615, "popularity": 21.973}, {"adult": false, "backdrop_path": "/4UIjazRJV5Q2D7gYg9NS1BGiFdU.jpg", "genre_ids": [80, 18, 53, 9648], "id": 1073, "original_language": "en", "original_title": "Arlington Road", "overview": "Threats from sinister foreign nationals aren't the only thing to fear. Bedraggled college professor Michael Faraday has been vexed (and increasingly paranoid) since his wife's accidental death in a botched FBI operation. But all that takes a backseat when a seemingly all-American couple set up house next door.", "poster_path": "/jMwDRI4qu5FrSAzf7BfNveuRVf9.jpg", "release_date": "1999-03-19", "title": "Arlington Road", "video": false, "vote_average": 7.1, "vote_count": 521, "popularity": 13.099}, {"adult": false, "backdrop_path": "/3TCPWrxQkfon82xPNtmpweOSVJc.jpg", "genre_ids": [18, 80, 9648, 10749, 53], "id": 12150, "original_language": "en", "original_title": "Sea of Love", "overview": "Seen-it-all New York detective Frank Keller is unsettled - he has done twenty years on the force and could retire, and he hasn't come to terms with his wife leaving him for a colleague. Joining up with an officer from another part of town to investigate a series of murders linked by the lonely hearts columns he finds he is getting seriously and possibly dangerously involved with Helen, one of the main suspects.", "poster_path": "/7DkkTHIX3hUqvsRv5sDmJAkCfKK.jpg", "release_date": "1989-09-15", "title": "Sea of Love", "video": false, "vote_average": 6.7, "vote_count": 290, "popularity": 10.636}, {"id": 1847, "video": false, "vote_count": 259, "vote_average": 7.4, "title": "The Long Goodbye", "release_date": "1973-03-07", "original_language": "en", "original_title": "The Long Goodbye", "genre_ids": [80, 18, 9648, 53], "backdrop_path": "/brm75bRffmi2SlsUmsHUxUVI1Hg.jpg", "adult": false, "overview": "Detective Philip Marlowe tries to help a friend who is accused of murdering his wife.", "poster_path": "/oBhUK54yBJ0aH6u9zCzSV5iV7OP.jpg", "popularity": 9.602}, {"adult": false, "backdrop_path": "/khzRw7ZDE3NIrYpe0RYyB864FPT.jpg", "genre_ids": [80, 28, 53], "id": 189, "original_language": "en", "original_title": "Sin City: A Dame to Kill For", "overview": "Some of Sin City's most hard-boiled citizens cross paths with a few of its more reviled inhabitants.", "poster_path": "/k80qKrJ0qQ6ocVo5N932stNSg6j.jpg", "release_date": "2014-08-20", "title": "Sin City: A Dame to Kill For", "video": false, "vote_average": 6.3, "vote_count": 2422, "popularity": 25.256}, {"adult": false, "backdrop_path": "/feZlULeOhSRLz23ZXUeDX3Dl2dS.jpg", "genre_ids": [80, 53, 9648], "id": 17494, "original_language": "en", "original_title": "Unlawful Entry", "overview": "After a break-in at their house, a couple gets help from one of the cops that answered their call. He helps them install the security system, and begins dropping by on short notice and unofficial patrol, and spends a lot of time discussing the couple's problems with the wife. The husband begins wondering if they're getting too much help.", "poster_path": "/sKUk1ca6gHaIopi8VqE8GoxJq6J.jpg", "release_date": "1992-06-26", "title": "Unlawful Entry", "video": false, "vote_average": 6.1, "vote_count": 121, "popularity": 10.241}, {"adult": false, "backdrop_path": "/20IgqkdFw5kuItqDCJtidSESP0t.jpg", "genre_ids": [27, 18], "id": 10066, "original_language": "en", "original_title": "House of Wax", "overview": "A group of unwitting teens are stranded near a strange wax museum and soon must fight to survive and keep from becoming the next exhibit.", "poster_path": "/uM1RebQywM5PPYsauayefpXGxVk.jpg", "release_date": "2005-04-30", "title": "House of Wax", "video": false, "vote_average": 5.7, "vote_count": 1532, "popularity": 16.398}, {"adult": false, "backdrop_path": "/o4psXh7IVD6GFKvBSHjHLzjL2lV.jpg", "genre_ids": [27, 53], "id": 10781, "original_language": "en", "original_title": "The Texas Chainsaw Massacre: The Beginning", "overview": "Chrissie and her friends set out on a road trip for a final fling before one is shipped off to Vietnam. Along the way, bikers harass the foursome and cause an accident that throws Chrissie from the vehicle. The lawman who arrives on the scene kills one of the bikers and brings Chrissie's friends to the Hewitt homestead, where young Leatherface is learning the tools of terror.", "poster_path": "/9elCJIG1TOJ0wew3JVx5ZMkHq5w.jpg", "release_date": "2006-10-06", "title": "The Texas Chainsaw Massacre: The Beginning", "video": false, "vote_average": 6.0, "vote_count": 936, "popularity": 19.211}, {"id": 180, "video": false, "vote_count": 5106, "vote_average": 7.3, "title": "Minority Report", "release_date": "2002-06-20", "original_language": "en", "original_title": "Minority Report", "genre_ids": [28, 9648, 878, 53], "backdrop_path": "/6HbOqP1GUElNLdX8Bx2uP542CIP.jpg", "adult": false, "overview": "John Anderton is a top 'Precrime' cop in the late-21st century, when technology can predict crimes before they're committed. But Anderton becomes the quarry when another investigator targets him for a murder charge.", "poster_path": "/dS5AHLt4DhZpisxryIxKJU6Urxb.jpg", "popularity": 21.222}, {"id": 521, "video": false, "vote_count": 1257, "vote_average": 8.0, "title": "Dial M for Murder", "release_date": "1954-05-29", "original_language": "en", "original_title": "Dial M for Murder", "genre_ids": [80, 18, 9648, 53], "backdrop_path": "/jVMlfESb0TJ29w8CUDDofEprMmn.jpg", "adult": false, "overview": "An ex-tennis pro carries out a plot to have his wife murdered after discovering she is having an affair, and assumes she will soon leave him for the other man anyway. When things go wrong, he improvises a new plan\u2014to frame her for murder instead.", "poster_path": "/xrpK1PyckNWmRxU4kZURfaCyboS.jpg", "popularity": 28.336}, {"id": 458723, "video": false, "vote_count": 3218, "vote_average": 7.0, "title": "Us", "release_date": "2019-03-14", "original_language": "en", "original_title": "Us", "genre_ids": [27, 9648, 53], "backdrop_path": "/18qxSxzAUs7UjZ3dKCkxAOv0yb1.jpg", "adult": false, "overview": "Husband and wife Gabe and Adelaide Wilson take their kids to their beach house expecting to unplug and unwind with friends. But as night descends, their serenity turns to tension and chaos when some shocking visitors arrive uninvited.", "poster_path": "/ux2dU1jQ2ACIMShzB3yP93Udpzc.jpg", "popularity": 34.608}, {"id": 1018, "video": false, "vote_count": 3312, "vote_average": 7.8, "title": "Mulholland Drive", "release_date": "2001-09-08", "original_language": "en", "original_title": "Mulholland Drive", "genre_ids": [18, 9648, 53], "backdrop_path": "/91KNvuQXrWq5vehtQpciCOiOyJe.jpg", "adult": false, "overview": "Blonde Betty Elms has only just arrived in Hollywood to become a movie star when she meets an enigmatic brunette with amnesia. Meanwhile, as the two set off to solve the second woman's identity, filmmaker Adam Kesher runs into ominous trouble while casting his latest project.", "poster_path": "/tVxGt7uffLVhIIcwuldXOMpFBPX.jpg", "popularity": 22.494}, {"adult": false, "backdrop_path": "/lx9eC0e98ZrdU0y55LrydS8CMMp.jpg", "genre_ids": [28, 12, 80, 18, 9648, 53], "id": 9631, "original_language": "en", "original_title": "The Negotiator", "overview": "The police try to arrest expert hostage negotiator Danny Roman, who insists he's being framed for his partner's murder in what he believes is an elaborate conspiracy. Thinking there's evidence in the Internal Affairs offices that might clear him, he takes everyone in the office hostage and demands that another well-known negotiator be brought in to handle the situation and secretly investigate the conspiracy.", "poster_path": "/u4LQDr6QB5i7dz3sMuP8u3EOd3D.jpg", "release_date": "1998-07-29", "title": "The Negotiator", "video": false, "vote_average": 7.0, "vote_count": 1082, "popularity": 18.49}, {"id": 1645, "video": false, "vote_count": 1050, "vote_average": 7.2, "title": "A Time to Kill", "release_date": "1996-07-24", "original_language": "en", "original_title": "A Time to Kill", "genre_ids": [80, 18, 53], "backdrop_path": "/b1cfBhhorGYNPbMVT6C9cHwxRr8.jpg", "adult": false, "overview": "A young lawyer defends a black man accused of murdering two men who raped his 10-year-old daughter, sparking a rebirth of the KKK.", "poster_path": "/1q2kU8NMGO446b0QAvVdY2v778x.jpg", "popularity": 16.279}, {"id": 1939, "video": false, "vote_count": 363, "vote_average": 7.7, "title": "Laura", "release_date": "1944-10-11", "original_language": "en", "original_title": "Laura", "genre_ids": [18, 9648], "backdrop_path": "/rZJ20gFLsztneVJPRn2ockZO3uP.jpg", "adult": false, "overview": "A police detective falls in love with the woman whose murder he's investigating.", "poster_path": "/utpUn9TdBIx6x2QX91YhYzFZxg1.jpg", "popularity": 12.914}, {"adult": false, "backdrop_path": "/2zh06EWekQWzlxa4jpFKRuXEtgf.jpg", "genre_ids": [80, 18, 28, 53], "id": 9411, "original_language": "en", "original_title": "Fallen", "overview": "Homicide detective John Hobbes witnesses the execution of serial killer Edgar Reese. Soon after the execution the killings start again, and they are very similar to Reese's style.", "poster_path": "/v66GrbKcl1babq8BebUff0MI3m4.jpg", "release_date": "1998-01-16", "title": "Fallen", "video": false, "vote_average": 6.8, "vote_count": 674, "popularity": 15.448}, {"adult": false, "backdrop_path": "/sDSwD63e0qfNE1YvH8aczFoSGTt.jpg", "genre_ids": [80, 18, 53], "id": 11826, "original_language": "en", "original_title": "Sexy Beast", "overview": "The idyllic life of retired safecracker Gal is put at risk when a psychotic gangster from his past arrives at his villa in southern Spain, intent on bringing him out of retirement for one last job.", "poster_path": "/rpo9njGpJVLPqRrdM6R7wIqiQ7K.jpg", "release_date": "2001-01-12", "title": "Sexy Beast", "video": false, "vote_average": 7.0, "vote_count": 391, "popularity": 9.281}, {"adult": false, "backdrop_path": "/tR1RXbnkSvZq0sgx0Gyh3GmgYoB.jpg", "genre_ids": [80, 18, 53], "id": 21734, "original_language": "en", "original_title": "Shadow of a Doubt", "overview": "A bored teen living in Santa Rosa, California, Charlotte \"Charlie\" Newton, is frustrated because nothing seems to be happening in her life and that of her family. Then, she receives wonderful news: her uncle (for whom she was named), Charlie Oakley, is arriving for a visit. But Uncle Charlie may not be the man he seems to be.", "poster_path": "/ptyWagbWE8jSGyV2tGEzAdVbRCj.jpg", "release_date": "1943-01-15", "title": "Shadow of a Doubt", "video": false, "vote_average": 7.7, "vote_count": 448, "popularity": 12.942}, {"adult": false, "backdrop_path": "/jRNqzZZwYIpiukkblMQ4G2Vc5p7.jpg", "genre_ids": [9648, 80, 53], "id": 963, "original_language": "en", "original_title": "The Maltese Falcon", "overview": "A private detective takes on a case that involves him with three eccentric criminals, a beautiful liar, and their quest for a priceless statuette.", "poster_path": "/jQilmbgbKtpbHM9hw9hgmqomJ9.jpg", "release_date": "1941-10-18", "title": "The Maltese Falcon", "video": false, "vote_average": 7.8, "vote_count": 840, "popularity": 16.587}, {"id": 793, "video": false, "vote_count": 1663, "vote_average": 7.7, "title": "Blue Velvet", "release_date": "1986-08-01", "original_language": "en", "original_title": "Blue Velvet", "genre_ids": [80, 27, 9648, 53], "backdrop_path": "/5ESiCDqO1aMlELkk0vzqXIwOvGz.jpg", "adult": false, "overview": "The discovery of a severed human ear found in a field leads a young man on an investigation related to a beautiful, mysterious nightclub singer and a group of criminals who have kidnapped her child.", "poster_path": "/xWy2JaA0bUqld48K0Kum9WF3tKy.jpg", "popularity": 15.631}], "total_pages": 291, "total_results": 5805}, "recommendations": {"page": 1, "results": [], "total_pages": 1, "total_results": 0}, "credits": {"cast": [{"cast_id": 0, "character": "Krister", "credit_id": "53c984370e0a261f0700007a", "gender": 2, "id": 111363, "name": "Thomas Hedengran", "order": 1, "profile_path": "/fyrXdQEG97X9x5g1uZq8mcGjVMt.jpg"}, {"cast_id": 1, "character": "Sven", "credit_id": "53c984580e0a261efe000089", "gender": 2, "id": 53, "name": "Peter Stormare", "order": 2, "profile_path": "/q28auzak1QtzmZytMigaGC5XsTV.jpg"}, {"cast_id": 2, "character": "Eva", "credit_id": "53c984780e0a261ef200009f", "gender": 1, "id": 558207, "name": "Tintin Anderzon", "order": 3, "profile_path": "/pNegmOJr76Ml0SYkRlzc5JiIgEV.jpg"}, {"cast_id": 3, "character": "Sandra", "credit_id": "53c984c20e0a261efe000091", "gender": 0, "id": 1343375, "name": "Sandra Larsson", "order": 4, "profile_path": null}, {"cast_id": 4, "character": "Stiff", "credit_id": "53c985240e0a261f040000c4", "gender": 0, "id": 1343376, "name": "Dylan M. Johansson", "order": 5, "profile_path": null}, {"cast_id": 5, "character": "Marianne", "credit_id": "53c9856d0e0a261efe0000ab", "gender": 0, "id": 1343378, "name": "Viktoria S\u00e4tter", "order": 6, "profile_path": null}, {"cast_id": 6, "character": "Maran", "credit_id": "53c985bd0e0a261f040000da", "gender": 0, "id": 1343379, "name": "Helena L\u00f6wenmark", "order": 7, "profile_path": null}], "crew": [{"credit_id": "53c9860b0e0a261efe0000c2", "department": "Directing", "gender": 0, "id": 1343380, "job": "Director", "name": "Filip Tegstedt", "profile_path": null}, {"credit_id": "53c9862b0e0a261f010000c3", "department": "Writing", "gender": 0, "id": 1343381, "job": "Writer", "name": "Filip Tegstedt", "profile_path": null}]}}