{"adult": false, "backdrop_path": "/c1dupnW2npJbnDBKhXFD31esen4.jpg", "belongs_to_collection": null, "budget": 0, "genres": [{"id": 878, "name": "Science Fiction"}, {"id": 37, "name": "Western"}, {"id": 53, "name": "Thriller"}, {"id": 9648, "name": "Mystery"}], "homepage": null, "id": 102444, "imdb_id": "tt0076909", "original_language": "en", "original_title": "Welcome to Blood City", "overview": "Five strangers awake, finding themselves with no memory in a world resembling the wild west. Their task is to become exempt from being killed - what the townspeople refer to as being \"immortal\" - by killing twenty of the other inhabitants of the town under the scrutiny of the sheriff (Jack Palance), otherwise they will spend their lives in slavery.", "popularity": 2.406, "poster_path": "/52fAHd7M06p99qVasPMchn54LRP.jpg", "production_companies": [{"id": 125623, "logo_path": null, "name": "Blood City", "origin_country": ""}, {"id": 24336, "logo_path": null, "name": "Stanley Chase Productions", "origin_country": ""}, {"id": 538, "logo_path": null, "name": "EMI Films", "origin_country": "GB"}], "production_countries": [{"iso_3166_1": "CA", "name": "Canada"}, {"iso_3166_1": "GB", "name": "United Kingdom"}], "release_date": "1977-08-23", "revenue": 0, "runtime": 96, "spoken_languages": [{"iso_639_1": "en", "name": "English"}], "status": "Released", "tagline": "", "title": "Welcome to Blood City", "video": false, "vote_average": 6.5, "vote_count": 2, "keywords": {"keywords": [{"id": 1453, "name": "amnesia"}, {"id": 1582, "name": "saloon"}, {"id": 9826, "name": "murder"}, {"id": 10726, "name": "gang"}, {"id": 18420, "name": "surveillance"}, {"id": 162988, "name": "dystopian future"}, {"id": 206850, "name": "canuxploitation"}, {"id": 257115, "name": "social experiment"}]}, "similar": {"page": 1, "results": [{"adult": false, "backdrop_path": "/a24i4Qw6qFTtkFLQsncv8WPwevj.jpg", "genre_ids": [53, 28, 80], "id": 345887, "original_language": "en", "original_title": "The Equalizer 2", "overview": "Robert McCall, who serves an unflinching justice for the exploited and oppressed, embarks on a relentless, globe-trotting quest for vengeance when a long-time girl friend is murdered.", "poster_path": "/cQvc9N6JiMVKqol3wcYrGshsIdZ.jpg", "release_date": "2018-07-19", "title": "The Equalizer 2", "video": false, "vote_average": 6.5, "vote_count": 2483, "popularity": 21.271}, {"id": 8090, "video": false, "vote_count": 448, "vote_average": 6.1, "title": "Untraceable", "release_date": "2008-01-22", "original_language": "en", "original_title": "Untraceable", "genre_ids": [9648, 53], "backdrop_path": "/eXuIPt9I1xuaVddlgzEQRC2EMnJ.jpg", "adult": false, "overview": "Special Agent Jennifer Marsh (Diane Lane) works in an elite division of the FBI dedicated to fighting cybercrime. She thinks she has seen it all, until a particularly sadistic criminal arises on the Internet. This tech-savvy killer posts live feeds of his crimes on his website; the more hits the site gets, the faster the victim dies. Marsh and her team must find the elusive killer before time runs out.", "poster_path": "/ySUwDRDEn01lKIMPQorpFCMLWqE.jpg", "popularity": 14.431}, {"adult": false, "backdrop_path": "/kiWvoV78Cc3fUwkOHKzyBgVdrDD.jpg", "genre_ids": [37, 18, 12], "id": 281957, "original_language": "en", "original_title": "The Revenant", "overview": "In the 1820s, a frontiersman, Hugh Glass, sets out on a path of vengeance against those who left him for dead after a bear mauling.", "poster_path": "/oXUWEc5i3wYyFnL1Ycu8ppxxPvs.jpg", "release_date": "2015-12-25", "title": "The Revenant", "video": false, "vote_average": 7.5, "vote_count": 12127, "popularity": 24.135}, {"id": 339692, "video": false, "vote_count": 1166, "vote_average": 6.9, "title": "Shot Caller", "release_date": "2017-07-13", "original_language": "en", "original_title": "Shot Caller", "genre_ids": [80, 18, 53], "backdrop_path": "/hehboYLXB3m90x9ybiBsupwuifL.jpg", "adult": false, "overview": "A newly-released prison gangster is forced by the leaders of his gang to orchestrate a major crime with a brutal rival gang on the streets of Southern California.", "poster_path": "/qLmLz2wtyYvmW8Ult3l2ngOnW8v.jpg", "popularity": 22.37}, {"adult": false, "backdrop_path": "/o4psXh7IVD6GFKvBSHjHLzjL2lV.jpg", "genre_ids": [27, 53], "id": 10781, "original_language": "en", "original_title": "The Texas Chainsaw Massacre: The Beginning", "overview": "Chrissie and her friends set out on a road trip for a final fling before one is shipped off to Vietnam. Along the way, bikers harass the foursome and cause an accident that throws Chrissie from the vehicle. The lawman who arrives on the scene kills one of the bikers and brings Chrissie's friends to the Hewitt homestead, where young Leatherface is learning the tools of terror.", "poster_path": "/9elCJIG1TOJ0wew3JVx5ZMkHq5w.jpg", "release_date": "2006-10-06", "title": "The Texas Chainsaw Massacre: The Beginning", "video": false, "vote_average": 6.0, "vote_count": 936, "popularity": 19.211}, {"id": 156022, "video": false, "vote_count": 5468, "vote_average": 7.2, "title": "The Equalizer", "release_date": "2014-09-24", "original_language": "en", "original_title": "The Equalizer", "genre_ids": [28, 80, 53], "backdrop_path": "/vbl4ZVqelrrzJ16fdDOq9siWbpi.jpg", "adult": false, "overview": "McCall believes he has put his mysterious past behind him and dedicated himself to beginning a new, quiet life. But when he meets Teri, a young girl under the control of ultra-violent Russian gangsters, he can\u2019t stand idly by \u2013 he has to help her. Armed with hidden skills that allow him to serve vengeance against anyone who would brutalize the helpless, McCall comes out of his self-imposed retirement and finds his desire for justice reawakened. If someone has a problem, if the odds are stacked against them, if they have nowhere else to turn, McCall will help. He is The Equalizer.", "poster_path": "/2eQfjqlvPAxd9aLDs8DvsKLnfed.jpg", "popularity": 39.578}, {"adult": false, "backdrop_path": "/zWGAnbxjjwY3xFGuOeR26LGbBlG.jpg", "genre_ids": [27, 53], "id": 238636, "original_language": "en", "original_title": "The Purge: Anarchy", "overview": "One night per year, the government sanctions a 12-hour period in which citizens can commit any crime they wish -- including murder -- without fear of punishment or imprisonment. Leo, a sergeant who lost his son, plans a vigilante mission of revenge during the mayhem. However, instead of a death-dealing avenger, he becomes the unexpected protector of four innocent strangers who desperately need his help if they are to survive the night.", "poster_path": "/l1DRl40x2OWUoPP42v8fjKdS1Z3.jpg", "release_date": "2014-07-17", "title": "The Purge: Anarchy", "video": false, "vote_average": 6.6, "vote_count": 4145, "popularity": 36.766}, {"id": 77, "video": false, "vote_count": 8688, "vote_average": 8.2, "title": "Memento", "release_date": "2000-10-11", "original_language": "en", "original_title": "Memento", "genre_ids": [9648, 53], "backdrop_path": "/q2CtXYjp9IlnfBcPktNkBPsuAEO.jpg", "adult": false, "overview": "Leonard Shelby is tracking down the man who raped and murdered his wife. The difficulty of locating his wife's killer, however, is compounded by the fact that he suffers from a rare, untreatable form of short-term memory loss. Although he can recall details of life before his accident, Leonard cannot remember what happened fifteen minutes ago, where he's going, or why.", "poster_path": "/fQMSaP88cf1nz4qwuNEEFtazuDM.jpg", "popularity": 29.724}, {"adult": false, "backdrop_path": "/arcpWGGnUkGkakOwZo7xfPsaz7h.jpg", "genre_ids": [9648, 53], "id": 2832, "original_language": "en", "original_title": "Identity", "overview": "Complete strangers stranded at a remote desert motel during a raging storm soon find themselves the target of a deranged murderer. As their numbers thin out, the travelers begin to turn on each other, as each tries to figure out who the killer is.", "poster_path": "/xSNSp2wmCUwFavxdkMF417hBc39.jpg", "release_date": "2003-04-25", "title": "Identity", "video": false, "vote_average": 7.2, "vote_count": 2091, "popularity": 19.629}, {"id": 500664, "video": false, "vote_count": 1709, "vote_average": 7.3, "title": "Upgrade", "release_date": "2018-06-01", "original_language": "en", "original_title": "Upgrade", "genre_ids": [28, 27, 878, 53], "backdrop_path": "/qUAGip3XiaVN668WXF2iyukWgUu.jpg", "adult": false, "overview": "A brutal mugging leaves Grey Trace paralyzed in the hospital and his beloved wife dead. A billionaire inventor soon offers Trace a cure \u2014 an artificial intelligence implant called STEM that will enhance his body. Now able to walk, Grey finds that he also has superhuman strength and agility \u2014 skills he uses to seek revenge against the thugs who destroyed his life.", "poster_path": "/8fDtXi6gVw8WUMWGT9XFz7YwkuE.jpg", "popularity": 32.518}, {"id": 442249, "video": false, "vote_count": 2159, "vote_average": 5.8, "title": "The First Purge", "release_date": "2018-07-04", "original_language": "en", "original_title": "The First Purge", "genre_ids": [28, 27, 878, 53], "backdrop_path": "/r4clWIxKeWoqrHspQP0XunuUmB7.jpg", "adult": false, "overview": "To push the crime rate below one percent for the rest of the year, the New Founding Fathers of America test a sociological theory that vents aggression for one night in one isolated community. But when the violence of oppressors meets the rage of the others, the contagion will explode from the trial-city borders and spread across the nation.", "poster_path": "/litjsBoiydO6JlO70uOX4N3WnNL.jpg", "popularity": 27.656}, {"adult": false, "backdrop_path": "/ieJ5ImFoJILNULvnIpbulAln7Lr.jpg", "genre_ids": [12, 28, 53, 878], "id": 14869, "original_language": "en", "original_title": "G.I. Joe: The Rise of Cobra", "overview": "From the Egyptian desert to deep below the polar ice caps, the elite G.I. JOE team uses the latest in next-generation spy and military equipment to fight the corrupt arms dealer Destro and the growing threat of the mysterious Cobra organization to prevent them from plunging the world into chaos.", "poster_path": "/29eW5c5DaCFQejdt9V14RrA51yD.jpg", "release_date": "2009-08-04", "title": "G.I. Joe: The Rise of Cobra", "video": false, "vote_average": 5.7, "vote_count": 3082, "popularity": 22.639}, {"id": 1949, "video": false, "vote_count": 5165, "vote_average": 7.5, "title": "Zodiac", "release_date": "2007-03-02", "original_language": "en", "original_title": "Zodiac", "genre_ids": [80, 18, 9648, 53], "backdrop_path": "/jP2htGBHE7vKq4MLeC75UeC0sZH.jpg", "adult": false, "overview": "The true story of the investigation of the \"Zodiac Killer\", a serial killer who terrified the San Francisco Bay Area, taunting police with his ciphers and letters. The case becomes an obsession for three men as their lives and careers are built and destroyed by the endless trail of clues.", "poster_path": "/bgLyOROfFQI3FqYL7jQbiaV8lkN.jpg", "popularity": 24.455}, {"id": 298312, "video": false, "vote_count": 2924, "vote_average": 6.2, "title": "The Visit", "release_date": "2015-09-10", "original_language": "en", "original_title": "The Visit", "genre_ids": [27, 9648, 53], "backdrop_path": "/gbJlEeALVGo7kx8bC2q4EFWX1Xy.jpg", "adult": false, "overview": "The terrifying story of a brother and sister who are sent to their grandparents' remote Pennsylvania farm for a weeklong trip. Once the children discover that the elderly couple is involved in something deeply disturbing, they see their chances of getting back home are growing smaller every day.", "poster_path": "/32tNtTEQ1vIOLm1hEOSFkVwJT5D.jpg", "popularity": 24.632}, {"id": 207932, "video": false, "vote_count": 4175, "vote_average": 5.9, "title": "Inferno", "release_date": "2016-10-13", "original_language": "en", "original_title": "Inferno", "genre_ids": [18, 9648, 53], "backdrop_path": "/ulzy4NDp7SzVkpUSDR67vawFCCT.jpg", "adult": false, "overview": "After waking up in a hospital with amnesia, professor Robert Langdon and a doctor must race against time to foil a deadly global plot.", "poster_path": "/oFOG2yIRcluKfTtYbzz71Vj9bgz.jpg", "popularity": 19.051}, {"id": 395834, "video": false, "vote_count": 2755, "vote_average": 7.4, "title": "Wind River", "release_date": "2017-08-03", "original_language": "en", "original_title": "Wind River", "genre_ids": [80, 18, 9648, 53], "backdrop_path": "/6B8e784decj9vtKuNjbl9Fes2aZ.jpg", "adult": false, "overview": "An FBI agent teams with the town's veteran game tracker to investigate a murder that occurred on a Native American reservation.", "poster_path": "/pySivdR845Hom4u4T2WNkJxe6Ad.jpg", "popularity": 16.931}, {"id": 59967, "video": false, "vote_count": 7205, "vote_average": 6.8, "title": "Looper", "release_date": "2012-09-26", "original_language": "en", "original_title": "Looper", "genre_ids": [28, 878, 53], "backdrop_path": "/vuHG8VlYnvw4gUKtS7GY5kZol69.jpg", "adult": false, "overview": "In the futuristic action thriller Looper, time travel will be invented but it will be illegal and only available on the black market. When the mob wants to get rid of someone, they will send their target 30 years into the past where a looper, a hired gun, like Joe is waiting to mop up. Joe is getting rich and life is good until the day the mob decides to close the loop, sending back Joe's future self for assassination.", "poster_path": "/sNjL6SqErDBE8OUZlrDLkexfsCj.jpg", "popularity": 24.08}, {"id": 11033, "video": false, "vote_count": 359, "vote_average": 6.8, "title": "Dressed to Kill", "release_date": "1980-07-25", "original_language": "en", "original_title": "Dressed to Kill", "genre_ids": [27, 9648, 53], "backdrop_path": "/mtGByKUtyLVWXl8OjWFOicLHsFo.jpg", "adult": false, "overview": "A mysterious, tall, blonde woman wearing sunglasses murders one of a psychiatrist's patients, and now she's after the prostitute who witnessed it.", "poster_path": "/b9RHUexTE6MT5x6iZ2Wmq56H1cJ.jpg", "popularity": 15.886}, {"adult": false, "backdrop_path": "/ipEenLpAyNJZUrzQHBw3fdurcm0.jpg", "genre_ids": [28, 878], "id": 10017, "original_language": "en", "original_title": "The Wraith", "overview": "Packard Walsh and his motorized gang control and terrorize an Arizona desert town where they force drivers to drag-race so they can 'win' their vehicles. After Walsh beats the decent teenager Jamie Hankins to death after finding him with his girlfriend, a mysterious power creates Jake Kesey, an extremely cool motor-biker who has a car which is invincible. Jake befriends Jamie's girlfriend Keri Johnson, takes Jamie's sweet brother Bill under his wing and manages what Sheriff Loomis couldn't; eliminate Packard's criminal gang the hard way...", "poster_path": "/agKajLCLtUNR5KH6lvmeg9LT1gD.jpg", "release_date": "1986-11-21", "title": "The Wraith", "video": false, "vote_average": 6.0, "vote_count": 178, "popularity": 12.984}, {"id": 12201, "video": false, "vote_count": 882, "vote_average": 6.3, "title": "Edge of Darkness", "release_date": "2010-01-28", "original_language": "en", "original_title": "Edge of Darkness", "genre_ids": [80, 18, 9648, 53], "backdrop_path": "/ksxr95M6fh2f2zgIlgGDDyfgOhC.jpg", "adult": false, "overview": "As a seasoned homicide detective, Thomas Craven has seen the bleakest side of humanity. But nothing prepares him for the toughest investigation of his life: the search for his only daughter Emma's killer. Now, he is on a personal mission to uncover the disturbing secrets surrounding her murder, including corporate corruption, government collusion and Emma's own mysterious life.", "poster_path": "/pvHjp1vEFmp5FquSCPQ2O95tIZJ.jpg", "popularity": 11.857}], "total_pages": 50, "total_results": 988}, "recommendations": {"page": 1, "results": [], "total_pages": 1, "total_results": 0}, "credits": {"cast": [{"cast_id": 9, "character": "Frendlander", "credit_id": "52fe4a08c3a36847f81b4bb9", "gender": 2, "id": 3785, "name": "Jack Palance", "order": 0, "profile_path": "/9TovoWi3lbI7HIVjppgSH2fYPf5.jpg"}, {"cast_id": 10, "character": "Lewis", "credit_id": "52fe4a08c3a36847f81b4bbd", "gender": 2, "id": 245, "name": "Keir Dullea", "order": 1, "profile_path": "/dL9i0nCk2fCgInZNaYVjGck2IBp.jpg"}, {"cast_id": 11, "character": "Katherine", "credit_id": "52fe4a08c3a36847f81b4bc1", "gender": 1, "id": 46780, "name": "Samantha Eggar", "order": 2, "profile_path": "/cd8H4zvFKDsGOHgYAOGzpYzkFaj.jpg"}, {"cast_id": 12, "character": "Supervisor", "credit_id": "52fe4a08c3a36847f81b4bc5", "gender": 2, "id": 101851, "name": "Barry Morse", "order": 3, "profile_path": "/3eRpPG5uIIOE80N2OHjZf0VUpO4.jpg"}, {"cast_id": 13, "character": "Martine", "credit_id": "52fe4a08c3a36847f81b4bc9", "gender": 0, "id": 113288, "name": "Hollis McLaren", "order": 4, "profile_path": "/kn1xdkODLtBl0J6e6igvuiXrFYf.jpg"}, {"cast_id": 14, "character": "Gellor", "credit_id": "52fe4a08c3a36847f81b4bcd", "gender": 2, "id": 44163, "name": "Chris Wiggins", "order": 5, "profile_path": "/nhqrkpOyAQF7z5KdWy3riVWZwkm.jpg"}, {"cast_id": 15, "character": "Chumley", "credit_id": "52fe4a08c3a36847f81b4bd1", "gender": 0, "id": 1015794, "name": "Henry Ramer", "order": 6, "profile_path": null}, {"cast_id": 17, "character": "Lyle", "credit_id": "52fe4a08c3a36847f81b4bd9", "gender": 2, "id": 40122, "name": "John Evans", "order": 8, "profile_path": null}, {"cast_id": 24, "character": "Flint", "credit_id": "545707c0c3a3686902002097", "gender": 0, "id": 1226313, "name": "Ken James", "order": 9, "profile_path": "/neSztvMYp0yFKwbZ7j7FxATkskC.jpg"}, {"cast_id": 19, "character": "Bates", "credit_id": "52fe4a08c3a36847f81b4be1", "gender": 2, "id": 938430, "name": "Larry Reynolds", "order": 10, "profile_path": null}, {"cast_id": 20, "character": "Webb", "credit_id": "52fe4a08c3a36847f81b4be5", "gender": 2, "id": 12485, "name": "Jack Creley", "order": 11, "profile_path": "/269fKAcaZaTJtOXOrKv84LDBVAI.jpg"}, {"cast_id": 21, "character": "Sarge", "credit_id": "52fe4a08c3a36847f81b4be9", "gender": 0, "id": 1056617, "name": "Alan Crofoot", "order": 12, "profile_path": null}, {"cast_id": 22, "character": "Harry", "credit_id": "52fe4a08c3a36847f81b4bed", "gender": 2, "id": 76417, "name": "Gary Reineke", "order": 13, "profile_path": "/14hZfRMk4yEgEHNkcBqXkU1C3Jn.jpg"}, {"cast_id": 23, "character": "Ricardo", "credit_id": "52fe4a08c3a36847f81b4bf1", "gender": 2, "id": 14905, "name": "Chuck Shamata", "order": 14, "profile_path": "/Am0oJeJNzgEMvalgFkXe9m36rzx.jpg"}, {"cast_id": 25, "character": "Peter", "credit_id": "5990ea44c3a3687473036eb5", "gender": 2, "id": 138876, "name": "Allan Royal", "order": 15, "profile_path": "/q8HUa0XFWMM4nT8U2xvjqYGzHqB.jpg"}], "crew": [{"credit_id": "52fe4a08c3a36847f81b4baf", "department": "Camera", "gender": 2, "id": 12702, "job": "Director of Photography", "name": "Reginald H. Morris", "profile_path": null}, {"credit_id": "5d34195ccaab6d0b29a99dc2", "department": "Production", "gender": 0, "id": 30169, "job": "Producer", "name": "Max Rosenberg", "profile_path": null}, {"credit_id": "52fe4a08c3a36847f81b4ba9", "department": "Sound", "gender": 0, "id": 51883, "job": "Original Music Composer", "name": "Roy Budd", "profile_path": null}, {"credit_id": "52fe4a08c3a36847f81b4ba3", "department": "Production", "gender": 0, "id": 91855, "job": "Producer", "name": "Marilyn Stonehouse", "profile_path": null}, {"credit_id": "52fe4a08c3a36847f81b4bb5", "department": "Editing", "gender": 0, "id": 98753, "job": "Editor", "name": "Keith Palmer", "profile_path": null}, {"credit_id": "52fe4a08c3a36847f81b4b8b", "department": "Directing", "gender": 2, "id": 100296, "job": "Director", "name": "Peter Sasdy", "profile_path": "/hw58OwAaehAWCuEYTzTo44pSI8K.jpg"}, {"credit_id": "52fe4a08c3a36847f81b4b97", "department": "Writing", "gender": 2, "id": 184912, "job": "Screenplay", "name": "Michael Winder", "profile_path": null}, {"credit_id": "52fe4a08c3a36847f81b4b91", "department": "Writing", "gender": 0, "id": 196895, "job": "Screenplay", "name": "Stephen Schneck", "profile_path": null}, {"credit_id": "52fe4a08c3a36847f81b4b9d", "department": "Production", "gender": 0, "id": 1056616, "job": "Producer", "name": "Len Herberman", "profile_path": null}]}}