{"adult": false, "backdrop_path": "/zUq1rb3HQY1OrstSqSY7R1DwNaJ.jpg", "belongs_to_collection": null, "budget": 0, "genres": [{"id": 10749, "name": "Romance"}, {"id": 99, "name": "Documentary"}, {"id": 35, "name": "Comedy"}], "homepage": null, "id": 102867, "imdb_id": "tt2085888", "original_language": "en", "original_title": "Only the Young", "overview": "Kevin and Garrison are boyhood friends in a sleepy California suburb. They share a love of skateboarding, an evangelical Christian faith and a sense of confusion about romantic relationships.", "popularity": 1.722, "poster_path": "/pGjuR16YEELsUcyuvGDqV7gsKNx.jpg", "production_companies": [], "production_countries": [{"iso_3166_1": "US", "name": "United States of America"}], "release_date": "2012-05-01", "revenue": 0, "runtime": 72, "spoken_languages": [], "status": "Released", "tagline": "", "title": "Only the Young", "video": false, "vote_average": 7.0, "vote_count": 6, "keywords": {"keywords": [{"id": 1415, "name": "small town"}, {"id": 10103, "name": "children"}, {"id": 187056, "name": "woman director"}]}, "similar": {"page": 1, "results": [{"adult": false, "backdrop_path": "/rf6G51j0SZL0tP57I8gnqHTRFEr.jpg", "genre_ids": [35, 18, 10749], "id": 273153, "original_language": "fr", "original_title": "La belle saison", "overview": "In 1971, Carole and Delphine meet and fall in love in Paris. When Carole follows Delphine back to her family farm in Limousin, the two find lesbianism and feminism are not as easy in the countryside.", "poster_path": "/evvAkNMO5VJiy5qIo1Hu7fUfvVI.jpg", "release_date": "2015-08-19", "title": "Summertime", "video": false, "vote_average": 6.6, "vote_count": 162, "popularity": 15.434}, {"adult": false, "backdrop_path": "/gZeJziVigmRqbkEZwKAtSqlLQ6s.jpg", "genre_ids": [18, 10749], "id": 370663, "original_language": "en", "original_title": "Below Her Mouth", "overview": "An unexpected affair quickly escalates into a heart-stopping reality for two women whose passionate connection changes their lives forever.", "poster_path": "/nTGbq37hYLuNy7YgMg0gVLma0NS.jpg", "release_date": "2016-09-10", "title": "Below Her Mouth", "video": false, "vote_average": 6.2, "vote_count": 456, "popularity": 22.676}, {"adult": false, "backdrop_path": "/tzqeuHWMFihFbiLGHdalPgAcSf6.jpg", "genre_ids": [18, 10749], "id": 18620, "original_language": "en", "original_title": "Go Fish", "overview": "Max is a trendy, pretty, young lesbian, who is having trouble finding love. A friend sets her up with Ely, whom Max likes, but Ely is frumpy, homely, and older. Nor do they have much in common. Can Max learn to look past the packaging?", "poster_path": "/qrEFYrwykaGsY8NULYuYLLI7zrM.jpg", "release_date": "1994-06-10", "title": "Go Fish", "video": false, "vote_average": 5.0, "vote_count": 11, "popularity": 2.626}, {"adult": false, "backdrop_path": "/6tern9vOEwwmkDYC1vRCuO64z0C.jpg", "genre_ids": [10749, 18], "id": 475888, "original_language": "en", "original_title": "Tell It to the Bees", "overview": "Dr. Jean Markham returns to the town she left as a teenager to take over her late father's medical practice. When a school-yard scuffle lands Charlie in her surgery, she invites him to visit the hives in her garden and tell his secrets to the bees, as she once did. The new friendship between the boy and the bee keeper brings his mother Lydia into Jean's world.", "poster_path": "/Rj6zpHhMU1zFW3v28U4PSRSRgP.jpg", "release_date": "2019-05-03", "title": "Tell It to the Bees", "video": false, "vote_average": 6.4, "vote_count": 53, "popularity": 15.113}, {"adult": false, "backdrop_path": "/knczzNAjBXzSYkeWxoT1u9VNmjR.jpg", "genre_ids": [10749, 18], "id": 258480, "original_language": "en", "original_title": "Carol", "overview": "In 1950s New York, a department-store clerk who dreams of a better life falls for an older, married woman.", "poster_path": "/AbKa7ANxmui0Jmhh7gV7OSELKIL.jpg", "release_date": "2015-11-20", "title": "Carol", "video": false, "vote_average": 7.4, "vote_count": 2182, "popularity": 14.185}, {"adult": false, "backdrop_path": "/dvQDRfv3qvfHNnVAR57ouVsuErf.jpg", "genre_ids": [10749, 18], "id": 28031, "original_language": "en", "original_title": "If These Walls Could Talk 2", "overview": "The stories of three lesbian couples -- who live in the same house at different periods of time -- who are at a crossroads in their lives. In 1961, Edith loses her lover, Abby, to a stroke. Linda and Amy struggle with feminist issues in 1972. And, in 2000, Kal and Fran try to have a baby with the help of sperm donor.", "poster_path": "/xs7ODbmYQXCDhvXNvz5tF17T59H.jpg", "release_date": "2000-03-05", "title": "If These Walls Could Talk 2", "video": false, "vote_average": 7.1, "vote_count": 55, "popularity": 8.062}, {"id": 520172, "video": false, "vote_count": 0, "vote_average": 0.0, "title": "Happiest Season", "release_date": "2020-11-20", "original_language": "en", "original_title": "Happiest Season", "genre_ids": [35, 10749], "backdrop_path": null, "adult": false, "overview": "A young woman's plans to propose to her girlfriend while at her family's annual holiday party are upended when she discovers her partner hasn't yet come out to her conservative parents.", "poster_path": null, "popularity": 6.436}, {"adult": false, "backdrop_path": "/cADbqsIoiDW7X3Myg9nz8eAuno5.jpg", "genre_ids": [18, 10749], "id": 10818, "original_language": "fr", "original_title": "Naissance des pieuvres", "overview": "Set during a sultry summer in a French suburb, Marie is desperate to join the local pool's synchronized swimming team, but is her interest solely for the sake of sport or for a chance to get close to Floriane, the bad girl of the team? Sciamma, and the two leads, capture the uncertainty of teenage sexuality with a sympathetic eye in this delicate drama of the angst of coming-of-age.", "poster_path": "/4jajELYrR4Xmv3CVoKnukRnALa2.jpg", "release_date": "2007-05-17", "title": "Water Lilies", "video": false, "vote_average": 6.1, "vote_count": 119, "popularity": 10.744}, {"adult": false, "backdrop_path": "/fZ8oFcREAr6wgWcXISGql0xyxjB.jpg", "genre_ids": [35, 18], "id": 39781, "original_language": "en", "original_title": "The Kids Are All Right", "overview": "Two women, Nic and Jules, brought a son and daughter into the world through artificial insemination. When one of their children reaches age, both kids go behind their mothers' backs to meet with the donor. Life becomes so much more interesting when the father, two mothers and children start to become attached to each other.", "poster_path": "/fPDeK4MmoGfi2X0oWZev7LrbMqM.jpg", "release_date": "2010-07-09", "title": "The Kids Are All Right", "video": false, "vote_average": 6.6, "vote_count": 923, "popularity": 12.703}, {"id": 9813, "video": false, "vote_count": 128, "vote_average": 6.1, "title": "The Quiet", "release_date": "2005-09-12", "original_language": "en", "original_title": "The Quiet", "genre_ids": [18, 53], "backdrop_path": "/6eyWAZA4CEidZW1xXnQ4vlYBXTP.jpg", "adult": false, "overview": "After her widowed father dies, deaf teenager Dot moves in with her godparents, Olivia and Paul Deer. The Deers' daughter, Nina, is openly hostile to Dot, but that does not prevent her from telling her secrets to her silent stepsister, including the fact that she wants to kill her lecherous father.", "poster_path": "/GEqIE9YlmygHVUfS64LW2cwAAM.jpg", "popularity": 13.948}, {"adult": false, "backdrop_path": "/caLMOD3ZJ3V7qjlxDXrzlJfBLgD.jpg", "genre_ids": [18, 10749], "id": 20, "original_language": "en", "original_title": "My Life Without Me", "overview": "A Pedro Almodovar production in which a fatally ill mother with only two months to live creates a list of things she wants to do before she dies with out telling her family of her illness.", "poster_path": "/vVj92VBFUBzjqzLvBiPVVlJDp78.jpg", "release_date": "2003-03-07", "title": "My Life Without Me", "video": false, "vote_average": 6.1, "vote_count": 220, "popularity": 9.208}, {"id": 434714, "video": false, "vote_count": 32, "vote_average": 7.5, "title": "My Days of Mercy", "release_date": "2019-07-11", "original_language": "en", "original_title": "My Days of Mercy", "genre_ids": [18, 10749], "backdrop_path": "/7Lbzq33nMMIQtAfZAmSqG6ibLSg.jpg", "adult": false, "overview": "The daughter of a man on death row falls in love with a woman on the opposing side of her family's political cause.", "poster_path": "/adIPKAoKnKL9vCTkvfF4J9ZA7Ln.jpg", "popularity": 6.928}, {"adult": false, "backdrop_path": "/k8H7ye6Sab7OrDJoo8Qp5WFGHGk.jpg", "genre_ids": [35, 10749, 18], "id": 244264, "original_language": "en", "original_title": "Laggies", "overview": "Overeducated and underemployed, 28 year old Megan is in the throes of a quarterlife crisis. Squarely into adulthood with no career prospects, no particular motivation to think about her future and no one to relate to, Megan is comfortable lagging a few steps behind - while her friends check off milestones and celebrate their new grown-up status. When her high-school sweetheart proposes, Megan panics and- given an unexpected opportunity to escape for a week - hides out in the home of her new friend, 16-year old Annika and Annika's world-weary single dad Craig.", "poster_path": "/dNcoXoRC7JHiqbe7k5Ufo6syiPP.jpg", "release_date": "2014-09-25", "title": "Laggies", "video": false, "vote_average": 6.1, "vote_count": 787, "popularity": 9.883}, {"adult": false, "backdrop_path": "/txtRue33MaXv5HQpTiHPOmOcDxE.jpg", "genre_ids": [35, 10749], "id": 11631, "original_language": "en", "original_title": "Mamma Mia!", "overview": "An independent, single mother who owns a small hotel on a Greek island is about to marry off the spirited young daughter she's raised alone. But, the daughter has secretly invited three of her mother's ex-lovers in the hopes of finding her biological father.", "poster_path": "/gOm2iMMbC6EonrFzmSQ8xvCa4Ei.jpg", "release_date": "2008-07-02", "title": "Mamma Mia!", "video": false, "vote_average": 6.9, "vote_count": 4120, "popularity": 16.652}, {"adult": false, "backdrop_path": "/g3LYarEY9LjB28Ct2trwFN72gqZ.jpg", "genre_ids": [35], "id": 437557, "original_language": "en", "original_title": "Blockers", "overview": "When three parents discover their daughters\u2019 pact to lose their virginity at prom, they launch a covert one-night operation to stop the teens from sealing the deal.", "poster_path": "/uvlUQXg0AlpGzKukO11K7QtW3Yu.jpg", "release_date": "2018-03-14", "title": "Blockers", "video": false, "vote_average": 6.2, "vote_count": 1153, "popularity": 18.075}, {"adult": false, "backdrop_path": "/npClMhFGn4XUkwu6coq5oKAEu6L.jpg", "genre_ids": [35, 10749, 18], "id": 634, "original_language": "en", "original_title": "Bridget Jones's Diary", "overview": "A chaotic Bridget Jones meets a snobbish lawyer, and he soon enters her world of imperfections.", "poster_path": "/ym6kjFFZg6boC0QHBVw6hqJLbxv.jpg", "release_date": "2001-04-13", "title": "Bridget Jones's Diary", "video": false, "vote_average": 6.7, "vote_count": 3079, "popularity": 16.678}, {"adult": false, "backdrop_path": "/ojn7IYKmMt8HXRd6oLwY5pLGLVc.jpg", "genre_ids": [18, 10749], "id": 9587, "original_language": "en", "original_title": "Little Women", "overview": "With their father away as a chaplain in the Civil War, Jo, Meg, Beth and Amy grow up with their mother in somewhat reduced circumstances. They are a close family who inevitably have their squabbles and tragedies. But the bond holds even when, later, male friends start to become a part of the household.", "poster_path": "/tD9YDE8pjtSvvKUpkmooE6YDSm8.jpg", "release_date": "1994-12-21", "title": "Little Women", "video": false, "vote_average": 7.2, "vote_count": 574, "popularity": 24.712}, {"adult": false, "backdrop_path": "/by0WtpJ5UNxOy6ytIfPPTasbRoB.jpg", "genre_ids": [28, 12, 35, 18, 10751, 10402, 10749], "id": 17130, "original_language": "en", "original_title": "Crossroads", "overview": "Three friends get together and bury a box making a pact to open it at midnight at their high school graduation. In the little town in Georgia that they live in, things soon change. One is little miss perfect, one is an engaged prom queen, and the other is a pregnant outcast. The night of graduation, they open the box and they strike up a conversation. All of a sudden, one brings up the topic of her going to Los Angeles for a record contract audition. They all decide to go together and they leave. With a little money, they set out on the road with a guy named Ben. When one of them tells the other a rumor that he might be a homicidal maniac they are all scared of him. When they reach LA, Lucy falls in love with Ben and against her father's wishes, she stays and she goes to the audition.", "poster_path": "/egIs4cWxn0iBErFKrQ7STckjj49.jpg", "release_date": "2002-02-15", "title": "Crossroads", "video": false, "vote_average": 5.0, "vote_count": 334, "popularity": 12.973}, {"adult": false, "backdrop_path": "/uJTwAnWnbHZSUTCuouAbNaCHXEU.jpg", "genre_ids": [35, 10749], "id": 19316, "original_language": "en", "original_title": "Saving Face", "overview": "A Chinese-American lesbian and her traditionalist mother are reluctant to go public with secret loves that clash against cultural expectations.", "poster_path": "/7upctoAqpN7OkTUsIqD3EApv8fx.jpg", "release_date": "2004-09-12", "title": "Saving Face", "video": false, "vote_average": 7.2, "vote_count": 72, "popularity": 9.958}, {"adult": false, "backdrop_path": "/xOGEw8iywxcFMolV6SF6YdTdJTb.jpg", "genre_ids": [10402, 10749], "id": 52371, "original_language": "nl", "original_title": "LelleBelle", "overview": "19-year old Belle practices playing the violin diligently, but is unable to impart her music with a sensitive undertone. Her life changes when she discovers that sexual desire stimulates passion in her music.", "poster_path": "/nJVPgIq3icZMQ26p5uWIFdUZJfL.jpg", "release_date": "2010-10-08", "title": "LelleBelle", "video": false, "vote_average": 4.7, "vote_count": 41, "popularity": 13.931}], "total_pages": 1466, "total_results": 29311}, "recommendations": {"page": 1, "results": [{"id": 127614, "video": false, "vote_count": 8, "vote_average": 7.0, "title": "Almost 18", "release_date": "2012-03-09", "original_language": "fi", "original_title": "Kohta 18", "genre_ids": [35, 18], "backdrop_path": "/2gjXo2JmP3EjopZkvlTWe9AtX0h.jpg", "adult": false, "overview": "Almost 18 is a charming and unaffected film about five 17-year-old guys from Helsinki in 2010. Karri, Peter, Andr\u00e9, Akseli and Joni dream, party, love and boast like only teenage males can.", "poster_path": "/dWEBjMLmfGBUSByC3ev5jp194z7.jpg", "popularity": 3.92}, {"adult": false, "backdrop_path": "/cC92XUnMyAQLXl9PFcS3ll3KY6r.jpg", "genre_ids": [], "id": 340797, "original_language": "en", "original_title": "bobbycrush", "overview": "Bobby Stone is 13 and in love. Problem is that he's in love with his best friend Dylan and Dylan doesn't feel the same way.", "poster_path": "/vZQcoVkDx7CYveSyNQdE8YErW23.jpg", "release_date": "2003-11-09", "title": "bobbycrush", "video": false, "vote_average": 7.2, "vote_count": 5, "popularity": 1.067}, {"adult": false, "backdrop_path": null, "genre_ids": [99], "id": 112477, "original_language": "en", "original_title": "Strange Culture", "overview": "Strange Culture is a 2007 documentary film directed by Lynn Hershman Leeson. It stars Tilda Swinton and Thomas Jay Ryan.  It premiered January 19, 2007 at the 2007 Sundance Film Festival.  The film examines the case of artist and professor Steve Kurtz, a member of the Critical Art Ensemble (CAE). The work of Kurtz and other CAE members dealt with genetically modified food and other issues of science and public policy. After his wife, Hope, died of heart failure, paramedics arrived and became suspicious when they noticed petri dishes and other scientific equipment related to Kurtz's art in his home. They summoned the FBI, who detained Kurtz within hours on suspicion of bioterrorism.", "poster_path": "/Alvkt2QmaTPDMiahkn37yupH4Nm.jpg", "release_date": "2007-01-19", "title": "Strange Culture", "video": false, "vote_average": 4.3, "vote_count": 3, "popularity": 1.658}, {"adult": false, "backdrop_path": "/viMV7hwEs7SnKQS7llJzWaB1jz3.jpg", "genre_ids": [18, 27], "id": 24996, "original_language": "en", "original_title": "Summer Scars", "overview": "A group of teens are faced with a life-changing experience when they meet a deranged drifter", "poster_path": "/Aa2L2lxRo4a49zEYpoaHN86ZZA5.jpg", "release_date": "2007-09-14", "title": "Summer Scars", "video": false, "vote_average": 6.1, "vote_count": 8, "popularity": 2.335}, {"adult": false, "backdrop_path": "/ivzICKgfbsQTWrLs6eNYgGSBBWk.jpg", "genre_ids": [35], "id": 113395, "original_language": "en", "original_title": "Dish", "overview": "Emo kids Israel and Louie walk around their east Los Angeles neighborhood dishing about their high school classmates. After listening to Louie boast about his sexual escapades, Israel decides he has some catching up to do.", "poster_path": "/45xyC8TXC2SN7KslQeltblrNFji.jpg", "release_date": "2009-01-01", "title": "Dish", "video": false, "vote_average": 4.8, "vote_count": 5, "popularity": 0.967}, {"adult": false, "backdrop_path": "/e1sFrT1P5pAjrQm0GV4PI2eQObn.jpg", "genre_ids": [18], "id": 12805, "original_language": "de", "original_title": "Keller - Teenage Wasteland", "overview": "Sebastian and Paul are two bored boys about 16 years of age. They drink alcohol, steal - and attend a private school. They can't find a sense of meaning in their present adolescent existence. They abduct Sonja and lock her in an old, abandoned factory building. But what shall they do with her? Disorientation, fear, desire and also love are changing to cruel aggressivity.", "poster_path": "/gH0ix4b3JVG8YPMEn5P7fIhFQdv.jpg", "release_date": "2005-08-06", "title": "Keller - Teenage Wasteland", "video": false, "vote_average": 3.9, "vote_count": 7, "popularity": 3.052}, {"adult": false, "backdrop_path": "/etBSSF9C6ivNwgqn7Nln5Xw7DjH.jpg", "genre_ids": [18], "id": 29258, "original_language": "en", "original_title": "A Very Serious Person", "overview": "Jan, an itinerant male nurse from Denmark, takes a new job with Mrs. A, a terminally ill Manhattan woman raising her parentless thirteen-year-old grandson, Gil. Spending the summer by the shore, the emotionally reserved Jan finds himself oddly cast as a mentor to Gil in having to prepare the sensitive boy for life with his cousins in Florida after his grandmother's death.", "poster_path": "/j2Qyjrfk6dXJati4M5f8w3BOw0.jpg", "release_date": "2006-01-01", "title": "A Very Serious Person", "video": false, "vote_average": 6.1, "vote_count": 8, "popularity": 3.083}, {"adult": false, "backdrop_path": "/zcYGrgPUq5fFc2nAq2xpcNe9QH5.jpg", "genre_ids": [18], "id": 47032, "original_language": "hu", "original_title": "Torz\u00f3k", "overview": "\u00c1ron is a happy child in his family. But at some point things take a different turn, and his mother starts to lose her health rapidly. As this happens, the man in charge decides what's best for \u00c1ron without consulting the young boy's opinion, and the boy finds himself thrown out of his warm home into an orphanage in the woods. He's utterly displeased by what's happening, without knowing he has yet to face much worse. After a hard time getting over the harrassment of his classmates and being accepted as one of them, another obstacle on the way to his peace of mind faces him: His obnoxious teachers. He has no intention of being bad, but it's beyond his ability to blend into the revolting place he's in. The nasty treatment of the teaching crew gets the better of him, and he's not all that calm and passive anymore. But that leads into unpleasant events which \u00c1ron himself wouldn't want.", "poster_path": "/6s6QKhJheOpONxcK0rYGp8RtFq6.jpg", "release_date": "2001-10-25", "title": "Abandoned", "video": false, "vote_average": 7.2, "vote_count": 5, "popularity": 1.853}, {"adult": false, "backdrop_path": "/ha0tTXTpfM7SC6YZGXcUaklWch4.jpg", "genre_ids": [99], "id": 30312, "original_language": "en", "original_title": "Outrage", "overview": "An indictment of closeted politicians who lobby for anti-gay legislation in the U.S.", "poster_path": "/rHcjtC8ObuJ092ZY1mntDeIV9AH.jpg", "release_date": "2009-01-01", "title": "Outrage", "video": false, "vote_average": 7.5, "vote_count": 16, "popularity": 2.718}, {"adult": false, "backdrop_path": "/tft0BNXmk3C4YQDdLX4ur7i3WW4.jpg", "genre_ids": [18], "id": 83963, "original_language": "en", "original_title": "La ville dont le prince est un enfant", "overview": "Two boys in their early teens in a strictly-run pre-WWII Catholic School form a firm friendship which is troubled by an abbot who is obsessed with the younger of the students.", "poster_path": "/40W3qTuFNP3r9CnLGdGRt0ckWvH.jpg", "release_date": "1997-03-07", "title": "The Fire That Burns", "video": false, "vote_average": 6.3, "vote_count": 8, "popularity": 1.596}], "total_pages": 1, "total_results": 10}, "credits": {"cast": [], "crew": [{"credit_id": "52fe4a12c3a36847f81b7523", "department": "Directing", "gender": 1, "id": 1085792, "job": "Director", "name": "Elizabeth Mims", "profile_path": null}, {"credit_id": "52fe4a12c3a36847f81b7529", "department": "Directing", "gender": 2, "id": 1085796, "job": "Director", "name": "Jason Tippet", "profile_path": null}]}}