{"adult": false, "backdrop_path": null, "belongs_to_collection": null, "budget": 0, "genres": [{"id": 99, "name": "Documentary"}], "homepage": null, "id": 103215, "imdb_id": "tt2101314", "original_language": "en", "original_title": "Anton Corbijn Inside Out", "overview": "An intimate portrait of Anton Corbijn as he travels the world as a photographer, film maker and video artist\u2026", "popularity": 2.498, "poster_path": "/mRvouNUXQ2kCZZyCb1o2FESBVvf.jpg", "production_companies": [], "production_countries": [{"iso_3166_1": "BE", "name": "Belgium"}, {"iso_3166_1": "IE", "name": "Ireland"}, {"iso_3166_1": "NL", "name": "Netherlands"}], "release_date": "2012-03-22", "revenue": 0, "runtime": 85, "spoken_languages": [{"iso_639_1": "nl", "name": "Nederlands"}, {"iso_639_1": "en", "name": "English"}], "status": "Released", "tagline": "", "title": "Anton Corbijn Inside Out", "video": false, "vote_average": 5.2, "vote_count": 5, "keywords": {"keywords": [{"id": 1003, "name": "photographer"}, {"id": 5565, "name": "biography"}, {"id": 6025, "name": "photography"}]}, "similar": {"page": 1, "results": [{"adult": false, "backdrop_path": "/urnGzQvP8fwWWGkn1k809KqIjbm.jpg", "genre_ids": [18], "id": 87093, "original_language": "en", "original_title": "Big Eyes", "overview": "The story of the awakening of painter, Margaret Keane, her phenomenal success in the 1950s, and the subsequent legal difficulties she had with her husband, who claimed credit for her works in the 1960s.", "poster_path": "/z2tqzprHojhgEGYKQepjU28oQg6.jpg", "release_date": "2014-12-24", "title": "Big Eyes", "video": false, "vote_average": 7.0, "vote_count": 2349, "popularity": 14.024}, {"id": 487558, "video": false, "vote_count": 4020, "vote_average": 7.6, "title": "BlacKkKlansman", "release_date": "2018-07-30", "original_language": "en", "original_title": "BlacKkKlansman", "genre_ids": [80], "backdrop_path": "/wKRrldOtg6HVeGqGLls6iT9XO7I.jpg", "adult": false, "overview": "Colorado Springs, late 1970s. Ron Stallworth, an African American police officer, and Flip Zimmerman, his Jewish colleague, run an undercover operation to infiltrate the Ku Klux Klan.", "poster_path": "/8jxqAvSDoneSKRczaK8v9X5gqBp.jpg", "popularity": 25.597}, {"id": 266856, "video": false, "vote_count": 6976, "vote_average": 7.9, "title": "The Theory of Everything", "release_date": "2014-11-26", "original_language": "en", "original_title": "The Theory of Everything", "genre_ids": [18, 10749], "backdrop_path": "/geAe08WmchATnZF461WffQBqJk1.jpg", "adult": false, "overview": "The Theory of Everything is the extraordinary story of one of the world\u2019s greatest living minds, the renowned astrophysicist Stephen Hawking, who falls deeply in love with fellow Cambridge student Jane Wilde.", "poster_path": "/4jspr8hLLuju59bCnMiefzRW4p0.jpg", "popularity": 22.686}, {"adult": false, "backdrop_path": "/nU6DDTabbMkd3649WYtSiOdHCMC.jpg", "genre_ids": [18, 10749], "id": 332283, "original_language": "en", "original_title": "Mary Shelley", "overview": "The love affair between poet Percy Shelley and Mary Wollstonecraft Godwin resulted in the creation of an immortal novel, \u201cFrankenstein; or, The Modern Prometheus.\u201d", "poster_path": "/gKHJTsrfxJtfFNPQJn2hDNEMtFf.jpg", "release_date": "2018-04-22", "title": "Mary Shelley", "video": false, "vote_average": 7.1, "vote_count": 516, "popularity": 12.227}, {"id": 451915, "video": false, "vote_count": 818, "vote_average": 7.6, "title": "Beautiful Boy", "release_date": "2018-10-12", "original_language": "en", "original_title": "Beautiful Boy", "genre_ids": [18], "backdrop_path": "/sOhtC4cmaYPOlcjXCWxxrx2NKKn.jpg", "adult": false, "overview": "After he and his first wife separate, journalist David Sheff struggles to help their teenage son, who goes from experimenting with drugs to becoming devastatingly addicted to methamphetamine.", "poster_path": "/i7gsLrNxpSf8NF5IZIrcOEfMyA3.jpg", "popularity": 17.739}, {"id": 228970, "video": false, "vote_count": 1566, "vote_average": 7.0, "title": "Wild", "release_date": "2014-12-05", "original_language": "en", "original_title": "Wild", "genre_ids": [18], "backdrop_path": "/pl6mEeLTI4IRnjbBGTMrJSBoYsU.jpg", "adult": false, "overview": "A woman with a tragic past decides to start her new life by hiking for one thousand miles on the Pacific Crest Trail.", "poster_path": "/zpdwj7Q8ZdTX2bWbltCFjVwugJu.jpg", "popularity": 12.623}, {"id": 1955, "video": false, "vote_count": 1711, "vote_average": 8.1, "title": "The Elephant Man", "release_date": "1980-10-02", "original_language": "en", "original_title": "The Elephant Man", "genre_ids": [18, 36], "backdrop_path": "/rR479zn26lJp4vNxXKjfBVCHLAW.jpg", "adult": false, "overview": "A Victorian surgeon rescues a heavily disfigured man being mistreated by his \"owner\" as a side-show freak. Behind his monstrous fa\u00e7ade, there is revealed a person of great intelligence and sensitivity. Based on the true story of Joseph Merrick (called John Merrick in the film), a severely deformed man in 19th century London.", "poster_path": "/lDXJUmLQsViSKLbil2luD91l2kE.jpg", "popularity": 12.883}, {"adult": false, "backdrop_path": "/mYKP6qcDUimVMAHQWLOuDHjO19S.jpg", "genre_ids": [35], "id": 445629, "original_language": "en", "original_title": "Fighting with My Family", "overview": "Born into a tight-knit wrestling family, Paige and her brother Zak are ecstatic when they get the once-in-a-lifetime opportunity to try out for the WWE. But when only Paige earns a spot in the competitive training program, she must leave her loved ones behind and face this new cutthroat world alone. Paige's journey pushes her to dig deep and ultimately prove to the world that what makes her different is the very thing that can make her a star.", "poster_path": "/cVhe15rJLRjolunSWLBN6xQLyGU.jpg", "release_date": "2019-02-14", "title": "Fighting with My Family", "video": false, "vote_average": 6.7, "vote_count": 643, "popularity": 18.498}, {"id": 5915, "video": false, "vote_count": 6283, "vote_average": 7.8, "title": "Into the Wild", "release_date": "2007-09-11", "original_language": "en", "original_title": "Into the Wild", "genre_ids": [12, 18], "backdrop_path": "/9yJehIjvR7ULOLxeDJoth4kDDNe.jpg", "adult": false, "overview": "After graduating from Emory University in 1992, top student and athlete Christopher McCandless abandons his possessions, gives his entire $24,000 savings account to charity, and hitchhikes to Alaska to live in the wilderness.", "poster_path": "/lHyYgaocXR6KcJLxVmxZDj115hH.jpg", "popularity": 13.103}, {"adult": false, "backdrop_path": "/kiWvoV78Cc3fUwkOHKzyBgVdrDD.jpg", "genre_ids": [37, 18, 12], "id": 281957, "original_language": "en", "original_title": "The Revenant", "overview": "In the 1820s, a frontiersman, Hugh Glass, sets out on a path of vengeance against those who left him for dead after a bear mauling.", "poster_path": "/oXUWEc5i3wYyFnL1Ycu8ppxxPvs.jpg", "release_date": "2015-12-25", "title": "The Revenant", "video": false, "vote_average": 7.5, "vote_count": 12127, "popularity": 24.135}, {"id": 457799, "video": false, "vote_count": 1572, "vote_average": 7.0, "title": "Extremely Wicked, Shockingly Evil and Vile", "release_date": "2019-05-02", "original_language": "en", "original_title": "Extremely Wicked, Shockingly Evil and Vile", "genre_ids": [80, 18, 53], "backdrop_path": "/uRoA67sM5vvCI4cplxhl67BTPly.jpg", "adult": false, "overview": "A chronicle of the crimes of Ted Bundy, from the perspective of his longtime girlfriend, Elizabeth Kloepfer, who refused to believe the truth about him for years.", "poster_path": "/zSuJ3r5zr5T26tTxyygHhgkUAIM.jpg", "popularity": 22.062}, {"id": 411728, "video": false, "vote_count": 342, "vote_average": 7.2, "title": "The Professor and the Madman", "release_date": "2019-03-07", "original_language": "en", "original_title": "The Professor and the Madman", "genre_ids": [18, 36, 9648, 53], "backdrop_path": "/zhNfM1CSQqJtIqelwlK9iKtSd9P.jpg", "adult": false, "overview": "Professor James Murray begins work compiling words for the first edition of the Oxford English Dictionary in the mid 19th century, and receives over 10,000 entries from a patient at Broadmoor Criminal Lunatic Asylum, Dr. William Minor.", "poster_path": "/gtGCDLhfjW96qVarwctnuTpGOtD.jpg", "popularity": 13.302}, {"id": 316029, "video": false, "vote_count": 5853, "vote_average": 8.0, "title": "The Greatest Showman", "release_date": "2017-12-20", "original_language": "en", "original_title": "The Greatest Showman", "genre_ids": [18], "backdrop_path": "/zpq404Sk7qQ7N4x3xOeNgp74GtU.jpg", "adult": false, "overview": "The story of American showman P.T. Barnum, founder of the circus that became the famous traveling Ringling Bros. and Barnum & Bailey Circus.", "poster_path": "/b9CeobiihCx1uG1tpw8hXmpi7nm.jpg", "popularity": 29.077}, {"id": 401847, "video": false, "vote_count": 664, "vote_average": 6.8, "title": "Can You Ever Forgive Me?", "release_date": "2018-10-19", "original_language": "en", "original_title": "Can You Ever Forgive Me?", "genre_ids": [35, 80, 18], "backdrop_path": "/shIOFWkjTn2NRvq5r4Mn2xLdZeJ.jpg", "adult": false, "overview": "When a bestselling celebrity biographer is no longer able to get published because she has fallen out of step with current tastes, she turns her art form to deception.", "poster_path": "/hPuZR2bFoV0kuBrA98exWyvTf40.jpg", "popularity": 16.339}, {"id": 205775, "video": false, "vote_count": 2362, "vote_average": 6.6, "title": "In the Heart of the Sea", "release_date": "2015-11-20", "original_language": "en", "original_title": "In the Heart of the Sea", "genre_ids": [28, 12, 18, 36, 53], "backdrop_path": "/aZoZ0NglXgiBMToem9HhTAYYamw.jpg", "adult": false, "overview": "In the winter of 1820, the New England whaling ship Essex is assaulted by something no one could believe\u2014a whale of mammoth size and will, and an almost human sense of vengeance.", "poster_path": "/zVmWh0Zfg4UhbvdGI8LQrn1lQZJ.jpg", "popularity": 18.435}, {"id": 300671, "video": false, "vote_count": 1700, "vote_average": 7.1, "title": "13 Hours: The Secret Soldiers of Benghazi", "release_date": "2016-01-13", "original_language": "en", "original_title": "13 Hours: The Secret Soldiers of Benghazi", "genre_ids": [28, 18, 36, 53, 10752], "backdrop_path": "/hY8myWhjSOUeeiPskhOfwwgaCwc.jpg", "adult": false, "overview": "An American Ambassador is killed during an attack at a U.S. compound in Libya as a security team struggles to make sense out of the chaos.", "poster_path": "/4gpW4MkRI0BB17GHOJzXq0WamDP.jpg", "popularity": 20.173}, {"id": 396371, "video": false, "vote_count": 1970, "vote_average": 7.1, "title": "Molly's Game", "release_date": "2017-12-25", "original_language": "en", "original_title": "Molly's Game", "genre_ids": [80, 18], "backdrop_path": "/rHcBZ6ZKCe4FalWHyvBGsyMsh0k.jpg", "adult": false, "overview": "Molly Bloom, a young skier and former Olympic hopeful becomes a successful entrepreneur (and a target of an FBI investigation) when she establishes a high-stakes, international poker game.", "poster_path": "/in43bQ7k0ttr666IPP94IlbQbTR.jpg", "popularity": 18.141}, {"adult": false, "backdrop_path": "/jK3EAFk3GdOaQfUDCOiTujzMpwH.jpg", "genre_ids": [18], "id": 389015, "original_language": "en", "original_title": "I, Tonya", "overview": "Competitive ice skater Tonya Harding rises amongst the ranks at the U. S. Figure Skating Championships, but her future in the sport is thrown into doubt when her ex-husband intervenes.", "poster_path": "/6gNXwSHxaksR1PjVZRqNapmkgj3.jpg", "release_date": "2017-12-08", "title": "I, Tonya", "video": false, "vote_average": 7.5, "vote_count": 3332, "popularity": 20.099}, {"id": 369972, "video": false, "vote_count": 3001, "vote_average": 7.1, "title": "First Man", "release_date": "2018-10-11", "original_language": "en", "original_title": "First Man", "genre_ids": [18, 36], "backdrop_path": "/jrudoaXcoLyHRPdolyOGemXgPEs.jpg", "adult": false, "overview": "A look at the life of the astronaut, Neil Armstrong, and the legendary space mission that led him to become the first man to walk on the Moon on July 20, 1969.", "poster_path": "/i91mfvFcPPlaegcbOyjGgiWfZzh.jpg", "popularity": 27.464}, {"id": 318846, "video": false, "vote_count": 5227, "vote_average": 7.3, "title": "The Big Short", "release_date": "2015-12-11", "original_language": "en", "original_title": "The Big Short", "genre_ids": [35, 18], "backdrop_path": "/6UyMLbe0lAPqfZLtVllAwBNFIis.jpg", "adult": false, "overview": "The men who made millions from a global economic meltdown.", "poster_path": "/p11Ftd4VposrAzthkhF53ifYZRl.jpg", "popularity": 25.578}], "total_pages": 237, "total_results": 4722}, "recommendations": {"page": 1, "results": [{"adult": false, "backdrop_path": "/tqYG2oKJFov2QmJBcxlreHNkV3y.jpg", "genre_ids": [99], "id": 130580, "original_language": "en", "original_title": "The Rules of Film Noir", "overview": "Matthew Sweet explores his rules of 1940s and 50s American film noir thrillers: *Choose a dame with no past and a hero with no future *Use no fiction but pulp fiction *See America through a stranger's eyes *Make it any colour as long as it's black *It ain't what you say, it's the way that you say it.", "poster_path": "/9bh7I8WenrqMXOHOMvozArCVqKz.jpg", "release_date": "2009-08-22", "title": "The Rules of Film Noir", "video": false, "vote_average": 5.6, "vote_count": 7, "popularity": 1.435}], "total_pages": 1, "total_results": 1}, "credits": {"cast": [{"cast_id": 1010, "character": "Himself", "credit_id": "52fe4a1ac3a36847f81b99c5", "gender": 2, "id": 45052, "name": "Anton Corbijn", "order": 0, "profile_path": "/tBr98AlA0vYHX1s2faMeatfab5O.jpg"}, {"cast_id": 1011, "character": "Himself", "credit_id": "52fe4a1ac3a36847f81b99c9", "gender": 2, "id": 33684, "name": "Bono", "order": 1, "profile_path": "/pj3JYEJlVkNV91fxDHkgWKhDdot.jpg"}, {"cast_id": 1012, "character": "Himself", "credit_id": "52fe4a1ac3a36847f81b99cd", "gender": 2, "id": 5228, "name": "Herbert Gr\u00f6nemeyer", "order": 2, "profile_path": "/xqGBw3LY7q8zvOVdMq4n0n2aIyO.jpg"}, {"cast_id": 1013, "character": "Himself", "credit_id": "58397bfe925141707a003325", "gender": 2, "id": 57637, "name": "James Hetfield", "order": 3, "profile_path": "/cbunoBvhbtQkOe4ux8QCKQ2aY3E.jpg"}, {"cast_id": 1014, "character": "Himself", "credit_id": "58397c0dc3a36847c7002f9f", "gender": 0, "id": 88587, "name": "Martin Gore", "order": 4, "profile_path": "/cHaaTBCQUhBdZYqeyZf8xDNcFJr.jpg"}, {"cast_id": 1019, "character": "Himself", "credit_id": "58c34ec0c3a368668d001f09", "gender": 2, "id": 46392, "name": "Lou Reed", "order": 8, "profile_path": "/lWFiXdQtYHqr2EXnk5nhDFm36XF.jpg"}, {"cast_id": 1020, "character": "Himself", "credit_id": "58c34ec6c3a3686698001acd", "gender": 2, "id": 1461, "name": "George Clooney", "order": 9, "profile_path": "/kHiVY6r1k6juXrNetAYk2jILqn9.jpg"}], "crew": [{"credit_id": "52fe4a1ac3a36847f81b99b5", "department": "Sound", "gender": 0, "id": 45126, "job": "Sound mixer", "name": "Robert Flanagan", "profile_path": null}, {"credit_id": "52fe4a1ac3a36847f81b998b", "department": "Directing", "gender": 0, "id": 1033136, "job": "Director", "name": "Klaartje Quirijns", "profile_path": null}, {"credit_id": "58397c2ec3a36843ef003faf", "department": "Writing", "gender": 0, "id": 1033136, "job": "Writer", "name": "Klaartje Quirijns", "profile_path": null}, {"credit_id": "52fe4a1ac3a36847f81b9997", "department": "Writing", "gender": 0, "id": 1033138, "job": "Co-Writer", "name": "Thomas den Drijver", "profile_path": null}, {"credit_id": "52fe4a1ac3a36847f81b999d", "department": "Production", "gender": 0, "id": 1033139, "job": "Producer", "name": "Morgan Bushe", "profile_path": null}, {"credit_id": "52fe4a1ac3a36847f81b99a3", "department": "Production", "gender": 2, "id": 1033140, "job": "Producer", "name": "Bart Van Langendonck", "profile_path": null}, {"credit_id": "5ab8b3160e0a263014009e7a", "department": "Camera", "gender": 0, "id": 1033141, "job": "Director of Photography", "name": "Diderik Evers", "profile_path": null}, {"credit_id": "5ab8b321c3a36817a00093fa", "department": "Camera", "gender": 0, "id": 1033142, "job": "Director of Photography", "name": "Martijn van Broekhuizen", "profile_path": null}, {"credit_id": "52fe4a1ac3a36847f81b99bb", "department": "Sound", "gender": 0, "id": 1033143, "job": "Sound Re-Recording Mixer", "name": "Mark Henry", "profile_path": null}, {"credit_id": "5ab8b3370e0a26302d008ff1", "department": "Sound", "gender": 0, "id": 1033144, "job": "Sound Recordist", "name": "Jos ten Klooster", "profile_path": null}]}}