{"adult": false, "backdrop_path": "/rThCTMZJ0ytaZL1lqhxDCMyVMNq.jpg", "belongs_to_collection": null, "budget": 0, "genres": [{"id": 28, "name": "Action"}, {"id": 53, "name": "Thriller"}, {"id": 80, "name": "Crime"}], "homepage": "", "id": 103210, "imdb_id": "tt0083936", "original_language": "en", "original_title": "Fighting Back", "overview": "Guido Pomodoro is sick and tired of the human flotsam moolying up his Philly neighborhood. When his elderly mama gets her finger hacked off by some thugs during a robbery, Guido decides it's time to take matters into his own hands. This is war.", "popularity": 2.665, "poster_path": "/xnP5anbo2t8Llkm4D13s1JuWoF9.jpg", "production_companies": [{"id": 10308, "logo_path": null, "name": "Dino De Laurentiis Company", "origin_country": "US"}, {"id": 455, "logo_path": null, "name": "Permut Presentations", "origin_country": ""}, {"id": 4, "logo_path": "/fycMZt242LVjagMByZOLUGbCvv3.png", "name": "Paramount", "origin_country": "US"}], "production_countries": [{"iso_3166_1": "US", "name": "United States of America"}], "release_date": "1982-05-21", "revenue": 0, "runtime": 98, "spoken_languages": [{"iso_639_1": "en", "name": "English"}], "status": "Released", "tagline": "Thieves, Pimps, Hoes and Pushers... enough is enough!", "title": "Fighting Back", "video": false, "vote_average": 4.0, "vote_count": 3, "keywords": {"keywords": [{"id": 276, "name": "philadelphia"}]}, "similar": {"page": 1, "results": [{"adult": false, "backdrop_path": "/39iGTAyo60mk3KcMay2yYcLsUyP.jpg", "genre_ids": [53], "id": 11644, "original_language": "en", "original_title": "Blow Out", "overview": "Jack Terry is a master sound recordist who works on grade-B horror movies. Late one evening, he is recording sounds for use in his movies when he hears something unexpected through his sound equipment and records it. Curiosity gets the better of him when the media become involved, and he begins to unravel the pieces of a nefarious conspiracy. As he struggles to survive against his shadowy enemies and expose the truth, he does not know whom he can trust.", "poster_path": "/vt5d1gGPgkAKoKp127WPHjSJF3P.jpg", "release_date": "1981-07-24", "title": "Blow Out", "video": false, "vote_average": 7.4, "vote_count": 579, "popularity": 12.416}, {"id": 72190, "video": false, "vote_count": 9917, "vote_average": 6.7, "title": "World War Z", "release_date": "2013-06-20", "original_language": "en", "original_title": "World War Z", "genre_ids": [28, 18, 27, 878, 53], "backdrop_path": "/xMOQVYLeIKBXenJ9KMeasj7S64y.jpg", "adult": false, "overview": "Life for former United Nations investigator Gerry Lane and his family seems content. Suddenly, the world is plagued by a mysterious infection turning whole human populations into rampaging mindless zombies. After barely escaping the chaos, Lane is persuaded to go on a mission to investigate this disease. What follows is a perilous trek around the world where Lane must brave horrific dangers and long odds to find answers before human civilization falls.", "poster_path": "/Ha5t0J21eyiq6Az1EXzx0iwsGH.jpg", "popularity": 27.681}, {"id": 745, "video": false, "vote_count": 6957, "vote_average": 7.9, "title": "The Sixth Sense", "release_date": "1999-08-06", "original_language": "en", "original_title": "The Sixth Sense", "genre_ids": [18, 9648, 53], "backdrop_path": "/1X6F9OvfaWl6AGcCdqYl8icxG9z.jpg", "adult": false, "overview": "A psychological thriller about an eight year old boy named Cole Sear who believes he can see into the world of the dead. A child psychologist named Malcolm Crowe comes to Cole to help him deal with his problem, learning that he really can see ghosts of dead people.", "poster_path": "/imps263dHNe3SuoaAJORZyNTdDT.jpg", "popularity": 24.961}, {"id": 287947, "video": false, "vote_count": 4115, "vote_average": 7.0, "title": "Shazam!", "release_date": "2019-03-29", "original_language": "en", "original_title": "Shazam!", "genre_ids": [28, 35, 14], "backdrop_path": "/OIGX2lm5tmlCKvZUghtwHzoxxO.jpg", "adult": false, "overview": "A boy is given the ability to become an adult superhero in times of need with a single magic word.", "poster_path": "/xnopI5Xtky18MPhK40cZAGAOVeV.jpg", "popularity": 47.365}, {"id": 63, "video": false, "vote_count": 4797, "vote_average": 7.6, "title": "Twelve Monkeys", "release_date": "1995-12-29", "original_language": "en", "original_title": "Twelve Monkeys", "genre_ids": [9648, 878, 53], "backdrop_path": "/6KXbhaxkgExC5EdDqAzRinhmoZ8.jpg", "adult": false, "overview": "In the year 2035, convict James Cole reluctantly volunteers to be sent back in time to discover the origin of a deadly virus that wiped out nearly all of the earth's population and forced the survivors into underground communities. But when Cole is mistakenly sent to 1990 instead of 1996, he's arrested and locked up in a mental hospital. There he meets psychiatrist Dr. Kathryn Railly, and patient Jeffrey Goines, the son of a famous virus expert, who may hold the key to the mysterious rogue group, the Army of the 12 Monkeys, thought to be responsible for unleashing the killer disease.", "poster_path": "/6Sj9wDu3YugthXsU0Vry5XFAZGg.jpg", "popularity": 25.437}, {"adult": false, "backdrop_path": "/eZKJ6Ez3DhVamz1CG1zwUpdwaAS.jpg", "genre_ids": [9648, 878, 53], "id": 530382, "original_language": "en", "original_title": "In the Shadow of the Moon", "overview": "In 1988, Philadelphia police officer Thomas \"Locke\" Lockhart, hungry to become a detective, begins tracking a serial killer whose crimes defy scientific explanation. When the killer mysteriously resurfaces nine years later, Locke's obsession with finding the truth threatens to destroy his career, his family, and possibly his sanity.", "poster_path": "/5DSVYlKwEzGBxTkS95L73c3oxLs.jpg", "release_date": "2019-09-27", "title": "In the Shadow of the Moon", "video": false, "vote_average": 6.2, "vote_count": 449, "popularity": 11.834}, {"adult": false, "backdrop_path": "/QHlIf8JgLDOMpEOeuraSKTTjkJ.jpg", "genre_ids": [80, 18, 10749, 53], "id": 9281, "original_language": "en", "original_title": "Witness", "overview": "A sheltered Amish child is the sole witness of a brutal murder in a restroom at a Philadelphia train station, and he must be protected.  The assignment falls to a taciturn detective who goes undercover in a Pennsylvania Dutch community. On the farm, he slowly assimilates despite his urban grit and forges a romantic bond with the child's beautiful mother.", "poster_path": "/pQZa314NJP3ieMAj6CgPI1v7nUY.jpg", "release_date": "1985-02-08", "title": "Witness", "video": false, "vote_average": 7.1, "vote_count": 788, "popularity": 12.798}, {"id": 11074, "video": false, "vote_count": 418, "vote_average": 5.8, "title": "Striking Distance", "release_date": "1993-09-17", "original_language": "en", "original_title": "Striking Distance", "genre_ids": [28, 80, 9648, 53], "backdrop_path": "/nNn1pStpiA0VEhT09GbwIdSG0ik.jpg", "adult": false, "overview": "Coming from a police family, Tom Hardy ends up fighting his uncle after the murder of his father. Tom believes the killer is another cop, and goes on the record with his allegations. Demoted to water-way duty Tom, along with new partner Jo Christman, navigate the three rivers looking for clues and discovering bodies. This time the victims are women Tom knows, he must find the killer to prove his innocence.", "poster_path": "/cCsS0Ctpj8PbHLKKVj6C6FYmSpi.jpg", "popularity": 10.832}, {"id": 506, "video": false, "vote_count": 499, "vote_average": 7.3, "title": "Marnie", "release_date": "1964-07-09", "original_language": "en", "original_title": "Marnie", "genre_ids": [9648, 53], "backdrop_path": "/bskL6AmfHEOUP1WXWpJR3HUP7aW.jpg", "adult": false, "overview": "Marnie is a thief, a liar, and a cheat. When her new boss, Mark Rutland, catches on to her routine kleptomania, she finds herself being blackmailed.", "poster_path": "/mwEuBWMJyebtJ1OP4W2jeRcVf3k.jpg", "popularity": 14.112}, {"id": 1366, "video": false, "vote_count": 4244, "vote_average": 7.7, "title": "Rocky", "release_date": "1976-11-21", "original_language": "en", "original_title": "Rocky", "genre_ids": [18], "backdrop_path": "/2kkyt0FLROrXt41IgSdE7goCFNQ.jpg", "adult": false, "overview": "When world heavyweight boxing champion, Apollo Creed wants to give an unknown fighter a shot at the title as a publicity stunt, his handlers choose palooka Rocky Balboa, an uneducated collector for a Philadelphia loan shark. Rocky teams up with trainer  Mickey Goldmill to make the most of this once in a lifetime break.", "poster_path": "/9TUR3s1PMJHwDRbpm7PWQ0S7IRy.jpg", "popularity": 31.646}, {"id": 1375, "video": false, "vote_count": 1670, "vote_average": 5.6, "title": "Rocky V", "release_date": "1990-10-18", "original_language": "en", "original_title": "Rocky V", "genre_ids": [18], "backdrop_path": "/dr5pdEDOdCvelCQqP32UZubiSgE.jpg", "adult": false, "overview": "A lifetime of taking shots has ended Rocky\u2019s career, and a crooked accountant has left him broke. Inspired by the memory of his trainer, however, Rocky finds glory in training and takes on an up-and-coming boxer.", "poster_path": "/5P2RiuLt31mWyb6duww8qlAhs6G.jpg", "popularity": 22.518}, {"id": 9800, "video": false, "vote_count": 2301, "vote_average": 7.7, "title": "Philadelphia", "release_date": "1993-12-22", "original_language": "en", "original_title": "Philadelphia", "genre_ids": [18], "backdrop_path": "/eRlkgrUeaX8LsVMjqN9f6YYw9Dw.jpg", "adult": false, "overview": "Two competing lawyers join forces to sue a prestigious law firm for AIDS discrimination. As their unlikely friendship develops their courage overcomes the prejudice and corruption of their powerful adversaries.", "poster_path": "/nE9DLSKHDmfG7FvYvDW437n8txq.jpg", "popularity": 12.47}, {"adult": false, "backdrop_path": "/6SzDcMSnED0PXvg6dfzkNvkeCwr.jpg", "genre_ids": [18, 35, 10749], "id": 82693, "original_language": "en", "original_title": "Silver Linings Playbook", "overview": "After spending eight months in a mental institution, a former teacher moves back in with his parents and tries to reconcile with his ex-wife.", "poster_path": "/ilrZAV2klTB0FLxLb01bOp5pzD9.jpg", "release_date": "2012-09-08", "title": "Silver Linings Playbook", "video": false, "vote_average": 7.1, "vote_count": 8270, "popularity": 22.316}, {"id": 1621, "video": false, "vote_count": 1741, "vote_average": 7.1, "title": "Trading Places", "release_date": "1983-06-07", "original_language": "en", "original_title": "Trading Places", "genre_ids": [35], "backdrop_path": "/yV7ty8IThfkQ5hzNwZH1krj86PR.jpg", "adult": false, "overview": "A snobbish investor and a wily street con-artist find their positions reversed as part of a bet by two callous millionaires.", "poster_path": "/8mBuLCOcpWnmYtZc4aqtvDXslv6.jpg", "popularity": 17.737}, {"id": 1246, "video": false, "vote_count": 1925, "vote_average": 6.7, "title": "Rocky Balboa", "release_date": "2006-12-20", "original_language": "en", "original_title": "Rocky Balboa", "genre_ids": [18], "backdrop_path": "/gcFhaI5IrKxvMs4TtvlHbYE4b0.jpg", "adult": false, "overview": "When he loses a highly publicized virtual boxing match to ex-champ Rocky Balboa, reigning heavyweight titleholder, Mason Dixon retaliates by challenging Rocky to a nationally televised, 10-round exhibition bout. To the surprise of his son and friends, Rocky agrees to come out of retirement and face an opponent who's faster, stronger and thirty years his junior.", "poster_path": "/n82AAPWnAafDAZjxkYK2rAPwk4A.jpg", "popularity": 19.171}, {"adult": false, "backdrop_path": "/zcbnS1dMfehU0lxkdUODqHoChh4.jpg", "genre_ids": [35, 10749], "id": 981, "original_language": "en", "original_title": "The Philadelphia Story", "overview": "When a rich woman's ex-husband and a tabloid-type reporter turn up just before her planned remarriage, she begins to learn the truth about herself.", "poster_path": "/o4cYWubhrBFF56IyEyce89lMb5y.jpg", "release_date": "1940-12-05", "title": "The Philadelphia Story", "video": false, "vote_average": 7.8, "vote_count": 416, "popularity": 10.455}, {"id": 13785, "video": false, "vote_count": 295, "vote_average": 7.1, "title": "Best in Show", "release_date": "2000-09-19", "original_language": "en", "original_title": "Best in Show", "genre_ids": [35], "backdrop_path": "/ed8CWIUFrjFYEcJP1C8uc3wEcNM.jpg", "adult": false, "overview": "The tension is palpable, the excitement is mounting and the heady scent of competition is in the air as hundreds of eager contestants from across America prepare to take part in what is undoubtedly one of the greatest events of their lives -- the Mayflower Dog Show. The canine contestants and their owners are as wondrously diverse as the great country that has bred them.", "poster_path": "/rDoVUVT5CGkraBjEukfBTHsxBN9.jpg", "popularity": 6.978}, {"id": 16972, "video": false, "vote_count": 74, "vote_average": 6.1, "title": "The Frisco Kid", "release_date": "1979-07-06", "original_language": "en", "original_title": "The Frisco Kid", "genre_ids": [35, 37], "backdrop_path": "/fYcePL2YrlFhHp2SSvB29gCJlZT.jpg", "adult": false, "overview": "Rabbi Avram arrives in Philadelphia from Poland en route to San Francisco where he will be a congregation's new rabbi. An innocent and inexperienced traveller, he is tricked by con men to pay for the trip to go west, then they leave him and his belongings scattered along a deserted road. He is befriended by a stranger, Tommy, who is a bank robber and have many adventures during their journey.", "poster_path": "/jfHAQC9ASLtLQUXKX8kluzyZCC1.jpg", "popularity": 7.572}, {"id": 537751, "video": false, "vote_count": 15, "vote_average": 5.4, "title": "Gosnell: The Trial of America's Biggest Serial Killer", "release_date": "2018-10-12", "original_language": "en", "original_title": "Gosnell: The Trial of America's Biggest Serial Killer", "genre_ids": [80, 18], "backdrop_path": "/jlTKKE7kwZqDKkNzGfIf7r2enje.jpg", "adult": false, "overview": "The story of the investigation and trial of abortion provider Dr Kermit Gosnell.", "poster_path": "/oqlqucQm9ycktct45zlkqPQmO1I.jpg", "popularity": 4.019}, {"adult": false, "backdrop_path": "/t7rLMyIV4TweznQ6R1YM8bCmkSC.jpg", "genre_ids": [10402, 35, 10749], "id": 3062, "original_language": "en", "original_title": "42nd Street", "overview": "A producer puts on what may be his last Broadway show, and at the last moment a chorus girl has to replace the star.", "poster_path": "/q4UEd8BL74zVsOOaJkKVMLMmdTg.jpg", "release_date": "1933-03-11", "title": "42nd Street", "video": false, "vote_average": 7.0, "vote_count": 77, "popularity": 7.771}], "total_pages": 2, "total_results": 40}, "recommendations": {"page": 1, "results": [], "total_pages": 1, "total_results": 0}, "credits": {"cast": [{"cast_id": 1, "character": "John D'Angelo", "credit_id": "52fe4a1ac3a36847f81b988f", "gender": 2, "id": 4139, "name": "Tom Skerritt", "order": 0, "profile_path": "/m4KNYlzzV5PCpOqBU5x9ydab0aR.jpg"}, {"cast_id": 2, "character": "Lisa D'Angelo", "credit_id": "52fe4a1ac3a36847f81b9893", "gender": 1, "id": 5699, "name": "Patti LuPone", "order": 1, "profile_path": "/3Y3P7uqw9prGPQLbWHGGjfMY9cP.jpg"}, {"cast_id": 3, "character": "Vince Morelli", "credit_id": "52fe4a1ac3a36847f81b9897", "gender": 2, "id": 30428, "name": "Michael Sarrazin", "order": 2, "profile_path": "/yPTnNIssj1NnlByuxTV8BP2YXfc.jpg"}, {"cast_id": 4, "character": "Ivanhoe Washington", "credit_id": "52fe4a1ac3a36847f81b989b", "gender": 2, "id": 5050, "name": "Yaphet Kotto", "order": 3, "profile_path": "/vjQOWuoig5b2b7JZ8caN4vuFxsg.jpg"}, {"cast_id": 5, "character": "Michael Taylor", "credit_id": "52fe4a1ac3a36847f81b989f", "gender": 2, "id": 33533, "name": "David Rasche", "order": 4, "profile_path": "/9qDHYBJViTtFeGbErb2bQwj6u4F.jpg"}, {"cast_id": 9, "character": "Tom Cassidy", "credit_id": "52fe4a1ac3a36847f81b98b3", "gender": 2, "id": 1162407, "name": "Jim Lovelett", "order": 6, "profile_path": "/A78NMCPn5Py9WQl6mZVjJ4pZ7Zx.jpg"}, {"cast_id": 10, "character": "Mike Pelyk", "credit_id": "52fe4a1ac3a36847f81b98b7", "gender": 2, "id": 5063, "name": "Joseph Ragno", "order": 7, "profile_path": "/46Mpe1MjqlyOjcYUTHQOLUxpo5j.jpg"}, {"cast_id": 11, "character": "Frank Russo", "credit_id": "52fe4a1ac3a36847f81b98bb", "gender": 2, "id": 11480, "name": "Frank Sivero", "order": 8, "profile_path": "/eqvhj0iNtcsN6EJhd21Goqi1DSq.jpg"}, {"cast_id": 12, "character": "Harry Janelli", "credit_id": "5a650c9fc3a3687f7d02d996", "gender": 2, "id": 194525, "name": "Pat Cooper", "order": 9, "profile_path": null}], "crew": [{"credit_id": "5c787a69c3a36844d817cba0", "department": "Art", "gender": 1, "id": 4148, "job": "Set Decoration", "name": "Gretchen Rau", "profile_path": null}, {"credit_id": "5c787a2fc3a368310f173d6b", "department": "Production", "gender": 1, "id": 4673, "job": "Casting", "name": "Joy Todd", "profile_path": null}, {"credit_id": "5c7879f49251412a5a471859", "department": "Production", "gender": 2, "id": 5398, "job": "Executive Producer", "name": "Dino De Laurentiis", "profile_path": "/l5skcaSr7QLDMOpAahznDjUW9Ec.jpg"}, {"credit_id": "5c787a1a0e0a2611de0e29c5", "department": "Editing", "gender": 2, "id": 6852, "job": "Editor", "name": "Jack Fitzstephens", "profile_path": null}, {"credit_id": "52fe4a1ac3a36847f81b98ab", "department": "Writing", "gender": 2, "id": 31113, "job": "Screenplay", "name": "Thomas Hedley Jr.", "profile_path": null}, {"credit_id": "5c787a53c3a36844dd17d46b", "department": "Production", "gender": 2, "id": 11405, "job": "Producer", "name": "David Permut", "profile_path": "/7pAjvPIcB8a6aGefNJqMMvqKOKU.jpg"}, {"credit_id": "5c787a430e0a2611e70e42b1", "department": "Production", "gender": 0, "id": 11643, "job": "Co-Producer", "name": "Alex De Benedetti", "profile_path": null}, {"credit_id": "5c787a050e0a2611e10e3bb2", "department": "Writing", "gender": 0, "id": 14941, "job": "Screenplay", "name": "David Zelag Goodman", "profile_path": null}, {"credit_id": "52fe4a1ac3a36847f81b98a5", "department": "Directing", "gender": 2, "id": 21819, "job": "Director", "name": "Lewis Teague", "profile_path": "/8S7HOgNIpqqa7CpkV5uMR4hMSvx.jpg"}, {"credit_id": "5c787a220e0a2611e70e4231", "department": "Editing", "gender": 2, "id": 28161, "job": "Editor", "name": "Nicholas C. Smith", "profile_path": null}, {"credit_id": "5c5ba2700e0a264d6f645343", "department": "Sound", "gender": 0, "id": 25321, "job": "Original Music Composer", "name": "Piero Piccioni", "profile_path": "/ArFViJn3OmeE7CLXpyeg6yoku0B.jpg"}, {"credit_id": "5c787a3ac3a368310f173d75", "department": "Production", "gender": 0, "id": 57549, "job": "Producer", "name": "D. Constantine Conte", "profile_path": null}, {"credit_id": "5c787a119251412a69470022", "department": "Camera", "gender": 0, "id": 66641, "job": "Director of Photography", "name": "Franco Di Giacomo", "profile_path": null}, {"credit_id": "5c787a770e0a2611da0e3204", "department": "Costume & Make-Up", "gender": 2, "id": 541714, "job": "Costume Design", "name": "John Boxer", "profile_path": null}, {"credit_id": "5c787a5d9251412a5447027f", "department": "Art", "gender": 0, "id": 1178592, "job": "Art Direction", "name": "Robert Gundlach", "profile_path": null}, {"credit_id": "5c787a4bc3a36844d117df28", "department": "Production", "gender": 0, "id": 2044127, "job": "Co-Producer", "name": "David Lowe Jr.", "profile_path": null}]}}