{"adult": false, "backdrop_path": "/fCzGvnb0bHkzQwJR2HLWEDMZNqY.jpg", "belongs_to_collection": null, "budget": 0, "genres": [{"id": 35, "name": "Comedy"}, {"id": 18, "name": "Drama"}], "homepage": null, "id": 103613, "imdb_id": "tt0062137", "original_language": "fr", "original_title": "Le plus vieux m\u00e9tier du monde", "overview": "A collection of sketches on prostitution through the ages. 1) \"The Prehistoric Era\": A caveman discovers that a cavewoman is more attractive when cave paint is applied to her face. And she can earn more seashells that way. 2) \"Roman Nights\": The Emperor goes out seeking a little nocturnal amusement, only to find that the high-priced, Oriental courtesan he hires is his wife, the Empress. 3) \"Mademoiselle Mimi\": In revolutionary France, Mimi finds that her client, the nephew of a marquis, is more interested in watching the guillotinings out her window than he is in going to bed. 4) \"The Gay Nineties\": When Nini discovers by accident that her antiquated customer is a banker, she pretends to be an honest woman who has fallen in love with him. She even pays him, just like a gigolo! 5) \"Paris Today\": Two girls pick up clients by driving around in a car...", "popularity": 3.936, "poster_path": "/243doLHEx79kpwSk8SgLa0NaGrh.jpg", "production_companies": [{"id": 1477, "logo_path": null, "name": "Franco London Films", "origin_country": ""}, {"id": 1638, "logo_path": null, "name": "Francoriz Production", "origin_country": ""}, {"id": 54659, "logo_path": null, "name": "Athos Films", "origin_country": ""}, {"id": 22358, "logo_path": null, "name": "Les Films Gib\u00e9", "origin_country": ""}, {"id": 29165, "logo_path": null, "name": "Rialto Film", "origin_country": ""}, {"id": 12778, "logo_path": null, "name": "Rizzoli Film", "origin_country": ""}], "production_countries": [{"iso_3166_1": "FR", "name": "France"}, {"iso_3166_1": "DE", "name": "Germany"}, {"iso_3166_1": "IT", "name": "Italy"}], "release_date": "1967-04-05", "revenue": 119, "runtime": 119, "spoken_languages": [{"iso_639_1": "fr", "name": "Fran\u00e7ais"}, {"iso_639_1": "de", "name": "Deutsch"}, {"iso_639_1": "it", "name": "Italiano"}], "status": "Released", "tagline": "", "title": "The Oldest Profession", "video": false, "vote_average": 5.7, "vote_count": 10, "keywords": {"keywords": [{"id": 572, "name": "sex"}, {"id": 1664, "name": "eroticism"}, {"id": 13059, "name": "prostitution"}]}, "similar": {"page": 1, "results": [{"adult": false, "backdrop_path": "/tk6QB32plylH41eo2Pbv4sIVljO.jpg", "genre_ids": [18], "id": 50270, "original_language": "it", "original_title": "Paprika", "overview": "A young country girl comes to town and works in a brothel in order to help her fiance get the money to start his own business. \"Paprika\" is the name given to her by the madam.", "poster_path": "/6QthFTJvUheocw3fcKklnsMcGib.jpg", "release_date": "1991-02-13", "title": "Paprika", "video": false, "vote_average": 5.9, "vote_count": 81, "popularity": 19.933}, {"adult": false, "backdrop_path": "/tvTyRu9eKfymkje8d9VoWJEoyUv.jpg", "genre_ids": [18], "id": 53932, "original_language": "es", "original_title": "Las edades de Lul\u00fa", "overview": "Fifteen-year-old Lulu has never known any affection from her family. But when she goes to a rock concert with Pablo, a friend of the family, he introduces Lulu to her first sexual experience. Years later, Pablo and Lulu have married; Pablo has created a sheltered, private world for Lulu, into which nothing intrudes. However, Lulu tires of her cloistered existence, and begins hanging out in shady bars, looking for vicarious thrills and danger.", "poster_path": "/5PK5MAN84o0ESgzeW9euozOLIEe.jpg", "release_date": "1990-12-13", "title": "The Ages of Lulu", "video": false, "vote_average": 5.7, "vote_count": 64, "popularity": 24.141}, {"adult": false, "backdrop_path": "/98ahnrena4PwLth7HFYGLf9yssH.jpg", "genre_ids": [35, 18, 10749], "id": 22705, "original_language": "it", "original_title": "Tra(sgre)dire", "overview": "While scouting out apartments in London for her Venetian boyfriend, Carla rents an apartment that overlooks the Thames. There she meet the lesbian hyper-horny real estate agent Moira.", "poster_path": "/kZITrLEiTfzzJhtwtXhQUl3ImCQ.jpg", "release_date": "2000-01-28", "title": "Cheeky", "video": false, "vote_average": 5.7, "vote_count": 92, "popularity": 30.42}, {"adult": false, "backdrop_path": "/a0UYovVNPVfWILYT7TzD10xBX3q.jpg", "genre_ids": [18, 53, 80, 9648], "id": 979, "original_language": "fr", "original_title": "Irr\u00e9versible", "overview": "Events over the course of one traumatic night in Paris unfold in reverse-chronological order as the beautiful Alex is brutally raped and beaten by a stranger in the underpass. Her boyfriend and ex-lover take matters into their own hands by hiring two criminals to help them find the rapist so that they can exact revenge. A simultaneously beautiful and terrible examination of the destructive nature of cause and effect, and how time destroys everything.", "poster_path": "/rxeDxo8FvZpLu6iplNpxdtAVnfu.jpg", "release_date": "2002-05-22", "title": "Irreversible", "video": false, "vote_average": 7.1, "vote_count": 1216, "popularity": 20.416}, {"adult": false, "backdrop_path": "/3mEfawlJnuu4OmUlAOesrAMsWv6.jpg", "genre_ids": [53, 27], "id": 9540, "original_language": "en", "original_title": "Dead Ringers", "overview": "Elliot, a successful gynecologist, works at the same practice as his identical twin, Beverly. Elliot is attracted to many of his patients and has affairs with them. When he inevitably loses interest, he will give the woman over to Beverly, the meeker of the two, without the woman knowing the difference. Beverly falls hard for one of the patients, Claire, but when she inadvertently deceives him, he slips into a state of madness.", "poster_path": "/9ZGBwiWIvN9KmHaLeSS5it44G21.jpg", "release_date": "1988-09-23", "title": "Dead Ringers", "video": false, "vote_average": 7.2, "vote_count": 388, "popularity": 10.111}, {"id": 64586, "video": false, "vote_count": 347, "vote_average": 5.3, "title": "Sleeping Beauty", "release_date": "2011-06-10", "original_language": "en", "original_title": "Sleeping Beauty", "genre_ids": [18, 10749], "backdrop_path": "/6V1a4GHhyjr5niyYCGkyVB9rT6F.jpg", "adult": false, "overview": "A haunting erotic fairytale about Lucy, a young University student drawn into a mysterious hidden world of beauty and desire.", "poster_path": "/9fc7K82At056IlrK9dOzPSQYhSY.jpg", "popularity": 11.37}, {"id": 12531, "video": false, "vote_count": 91, "vote_average": 6.9, "title": "The Apartment", "release_date": "1996-07-27", "original_language": "fr", "original_title": "L'Appartement", "genre_ids": [18, 9648, 10749], "backdrop_path": "/64qyT8m4JQ6YODvXxtbHgKmXBX7.jpg", "adult": false, "overview": "A stylish suspense thriller that confounds the audience while presenting them with an extraordinary and elusive mystery. Max is a former playboy who has decided to settle down by marrying his current love, Muriel. However, during a business trip, Max catches a glimpse of the great lost love of his life, reviving his wanderlust and sending him off on a chase of the elusive Lisa, whom he had overheard suggesting to a friend that her lover, Daniel, had killed someone for her. Soon, Max is trying to unravel the mystery behind the suspicious death of Daniel's wife, which he hopes will lead him closer to Lisa.", "poster_path": "/1sqrQdQTn8jKLhUcPKfRVj639zA.jpg", "popularity": 19.17}, {"adult": false, "backdrop_path": "/xC9cG6Wy6QbH2hoAx11xPPD995R.jpg", "genre_ids": [18, 10749], "id": 86331, "original_language": "fr", "original_title": "Q", "overview": "In a social context deteriorated by a countrywide economic crisis, the life of several people will be turned upside down after they meet Cecile, a character who symbolizes desire.", "poster_path": "/9Jg9s4yTEndNmy1SSXRF9jdxY9D.jpg", "release_date": "2011-09-14", "title": "Desire", "video": false, "vote_average": 4.6, "vote_count": 204, "popularity": 25.756}, {"id": 2770, "video": false, "vote_count": 2941, "vote_average": 6.1, "title": "American Pie 2", "release_date": "2001-08-10", "original_language": "en", "original_title": "American Pie 2", "genre_ids": [35, 10749], "backdrop_path": "/1C1d3Tpesm8Vn3BRqsQZt0LfZcG.jpg", "adult": false, "overview": "The whole gang are back and as close as ever. They decide to get even closer by spending the summer together at a beach house. They decide to hold the biggest party ever to be seen, even if the preparation doesn't always go to plan. Especially when Stifler, Finch and Jim become more close to each other than they ever want to be and when Jim mistakes super glue for lubricant...", "poster_path": "/q4LNgUnRfltxzp3gf1MAGiK5LhV.jpg", "popularity": 20.359}, {"adult": false, "backdrop_path": "/uC54rlRdLMZ46fnrz5SoVYleNyv.jpg", "genre_ids": [18], "id": 4995, "original_language": "en", "original_title": "Boogie Nights", "overview": "Set in 1977, back when sex was safe, pleasure was a business and business was booming, idealistic porn producer Jack Horner aspires to elevate his craft to an art form. Horner discovers Eddie Adams, a hot young talent working as a busboy in a nightclub, and welcomes him into the extended family of movie-makers, misfits and hangers-on that are always around. Adams' rise from nobody to a celebrity adult entertainer is meteoric, and soon the whole world seems to know his porn alter ego, \"Dirk Diggler\". Now, when disco and drugs are in vogue, fashion is in flux and the party never seems to stop, Adams' dreams of turning sex into stardom are about to collide with cold, hard reality.", "poster_path": "/gTq6MPt7SeMiJ2miHeMoNEZTz4p.jpg", "release_date": "1997-10-07", "title": "Boogie Nights", "video": false, "vote_average": 7.6, "vote_count": 1660, "popularity": 21.563}, {"adult": false, "backdrop_path": "/fwreQBx5CD55c1DpH117cS8915P.jpg", "genre_ids": [18, 53], "id": 867, "original_language": "en", "original_title": "Sliver", "overview": "A woman moves into an apartment in Manhattan and learns that the previous tenant's life ended mysteriously after they fell from the balcony.", "poster_path": "/av21Dfu31DQPtp5jkorMMS58rQC.jpg", "release_date": "1993-05-21", "title": "Sliver", "video": false, "vote_average": 5.3, "vote_count": 288, "popularity": 19.094}, {"adult": false, "backdrop_path": "/yIszPJawrrp6zcb62d7XJnaxAmw.jpg", "genre_ids": [18], "id": 13078, "original_language": "en", "original_title": "The Babysitters", "overview": "Seventeen-year-old Shirley is a good student who works as a babysitter in order to make money for college. One night Michael, a father Shirley works for, confesses he's unhappy with married life. Shirley has a crush on Michael, and seizes this moment to kiss him. Michael is so happy he presents Shirley with a big tip, which gives her an idea. Shirley plans to make extra money by setting up her teenage friends with other unhappy fathers.", "poster_path": "/nsrNUqGXI95unRKZEu8BJ584xWn.jpg", "release_date": "2007-09-11", "title": "The Babysitters", "video": false, "vote_average": 5.3, "vote_count": 153, "popularity": 15.673}, {"adult": false, "backdrop_path": "/s7dcAllZEVSrVIVMUVAUmwAxFmn.jpg", "genre_ids": [35], "id": 4247, "original_language": "en", "original_title": "Scary Movie", "overview": "Following on the heels of popular teen-scream horror movies, with uproarious comedy and biting satire. Marlon and Shawn Wayans, Shannon Elizabeth and Carmen Electra pitch in to skewer some of Hollywood's biggest blockbusters, including Scream, I Know What You Did Last Summer, The Matrix, American Pie and The Blair Witch Project.", "poster_path": "/bvVmVFBVQLytK1H4TJTFdnhvf4T.jpg", "release_date": "2000-07-07", "title": "Scary Movie", "video": false, "vote_average": 6.2, "vote_count": 3801, "popularity": 22.055}, {"adult": false, "backdrop_path": "/m83O9TqAiZo3F2YgxMpuA5kxGZP.jpg", "genre_ids": [35, 10749], "id": 50124, "original_language": "it", "original_title": "Monella", "overview": "The story takes place in northern Italy in the 1950's. Lola and Masetto are about to get married. Masetto wants to keep Lola as a virgin until they are married. But Lola is impatient to remain in chastity until the wedding night. She wants to be sure that Masetto is a good lover, before she commits herself into marriage. She does everything to trick Masetto into breaking the moral tradition.", "poster_path": "/2mlv1R8MlhlGw4dZ0tXy0K6u7ew.jpg", "release_date": "1998-01-21", "title": "Frivolous Lola", "video": false, "vote_average": 4.3, "vote_count": 85, "popularity": 10.199}, {"adult": false, "backdrop_path": "/vXT5Gw09k99o9XXqqxBPz9NKgsa.jpg", "genre_ids": [35, 12], "id": 9285, "original_language": "en", "original_title": "Road Trip", "overview": "Four friends take off on an 1800 mile road trip to retrieve an illicit tape mistakenly mailed to a girl friend.", "poster_path": "/DCoZVnHVvtKTYwfM00dfVRbfUQ.jpg", "release_date": "2000-05-19", "title": "Road Trip", "video": false, "vote_average": 6.0, "vote_count": 1018, "popularity": 20.323}, {"adult": false, "backdrop_path": "/kWHIl3xsgzQuo6R6YJCaqhmd7xX.jpg", "genre_ids": [35], "id": 27088, "original_language": "en", "original_title": "The Last American Virgin", "overview": "The friendship of a group of young friends struggling with teen sex, drugs, and work is jeopardized by a romantic interest which may turn pals into bitter rivals.", "poster_path": "/3nGKDx5I7egbyZcDpV83tgHoANQ.jpg", "release_date": "1982-06-26", "title": "The Last American Virgin", "video": false, "vote_average": 6.2, "vote_count": 88, "popularity": 13.591}, {"id": 10537, "video": false, "vote_count": 603, "vote_average": 6.9, "title": "The Doors", "release_date": "1991-03-01", "original_language": "en", "original_title": "The Doors", "genre_ids": [18, 10402], "backdrop_path": "/1rv5sW6Qs2YK2iOzIgwH3SJPIl1.jpg", "adult": false, "overview": "The story of the famous and influential 1960s rock band and its lead singer and composer, Jim Morrison.", "poster_path": "/9CkFrWAkg23YynYd2uJLyWznMZZ.jpg", "popularity": 14.573}, {"id": 2057, "video": false, "vote_count": 429, "vote_average": 5.9, "title": "Original Sin", "release_date": "2001-05-08", "original_language": "en", "original_title": "Original Sin", "genre_ids": [53], "backdrop_path": "/is3I5v8FwLiEWxaksfN8D4MLNGH.jpg", "adult": false, "overview": "A young man is plunged into a life of subterfuge, deceit and mistaken identity in pursuit of a femme fatale whose heart is never quite within his grasp", "poster_path": "/yGis1Mai4ivspEXdWtXLg0bZPkX.jpg", "popularity": 18.232}, {"id": 12481, "video": false, "vote_count": 320, "vote_average": 7.3, "title": "The Big Boss", "release_date": "1971-10-02", "original_language": "zh", "original_title": "\u5510\u5c71\u5927\u5144", "genre_ids": [28], "backdrop_path": "/tzmHdegHSKVUwnJYvdMiolAWnWO.jpg", "adult": false, "overview": "Chen is a city boy who moves with his cousins to work at an ice factory. He does this with a family promise never to get involved in any fight. However, when members of his family begin disappearing after meeting the management of the factory, the resulting mystery and pressures force him to break that vow and take on the villainy of the Big Boss.", "poster_path": "/txmbBHN45wqWn4qrT9MPlDhuJCA.jpg", "popularity": 20.48}, {"id": 467956, "video": false, "vote_count": 340, "vote_average": 6.9, "title": "The Professor", "release_date": "2019-02-14", "original_language": "en", "original_title": "The Professor", "genre_ids": [35, 18], "backdrop_path": "/dnFwUWT36xseF7LwT2PLkX7mbi0.jpg", "adult": false, "overview": "A world-weary college professor is given a life-changing diagnosis and decides to throw all pretense and conventions to the wind and live his life as boldly and freely as possible with a biting sense of humor, a reckless streak and a touch of madness.", "poster_path": "/cypBSinhGuQaZ7VuOmGtcKMp91G.jpg", "popularity": 15.86}], "total_pages": 214, "total_results": 4269}, "recommendations": {"page": 1, "results": [{"adult": false, "backdrop_path": null, "genre_ids": [], "id": 44570, "original_language": "en", "original_title": "Autohystoria", "overview": "Mix-mastering history, the paranoid thriller, the documentary and the landscape film, pic tells of very different fates for two sets of brothers in oppressive Philippine settings.", "poster_path": "/9g2AOQ9gW0mUFRK4qJbtq8zdTm.jpg", "release_date": "2007-01-27", "title": "Autohystoria", "video": false, "vote_average": 7.0, "vote_count": 3, "popularity": 1.002}, {"adult": false, "backdrop_path": "/2FoRf7h0aQ1E7a5LjaAcE7WqC5Z.jpg", "genre_ids": [9648, 18], "id": 104239, "original_language": "fr", "original_title": "L'\u00c9den et apr\u00e8s", "overview": "A group of French students are drawn into the psychological and sexual games of a mysterious Dutchman. Once they sample his \"fear powder\" the students experience a series of hallucinations.", "poster_path": "/l5Imf2SFV2Owol576mEbR3FQuJM.jpg", "release_date": "1970-04-20", "title": "Eden and After", "video": false, "vote_average": 6.7, "vote_count": 20, "popularity": 3.573}], "total_pages": 1, "total_results": 2}, "credits": {"cast": [{"cast_id": 3, "character": "Brit", "credit_id": "52fe4a21c3a36847f81bba19", "gender": 1, "id": 19270, "name": "Mich\u00e8le Mercier", "order": 0, "profile_path": "/6fRJSsHqaw1FKugKmTjcI2WqneD.jpg"}, {"cast_id": 4, "character": "Mimi", "credit_id": "52fe4a21c3a36847f81bba1d", "gender": 1, "id": 14812, "name": "Jeanne Moreau", "order": 1, "profile_path": "/uHJnVwCzehEoz0mIlwN7xkymql8.jpg"}, {"cast_id": 5, "character": "Nini", "credit_id": "52fe4a21c3a36847f81bba21", "gender": 1, "id": 21462, "name": "Raquel Welch", "order": 2, "profile_path": "/kKLxyRf2xdFgzqTXGwMMoITKrhK.jpg"}, {"cast_id": 6, "character": "Domitilla", "credit_id": "52fe4a21c3a36847f81bba25", "gender": 1, "id": 29428, "name": "Elsa Martinelli", "order": 3, "profile_path": "/rZSe9OS5SHEfzId59yOnHFLc0a0.jpg"}, {"cast_id": 7, "character": "Philibert", "credit_id": "52fe4a21c3a36847f81bba29", "gender": 2, "id": 24299, "name": "Jean-Claude Brialy", "order": 4, "profile_path": "/d8fGz1JBFPlHSDts5c4TKvT5F5L.jpg"}, {"cast_id": 18, "character": "Natasha / Eleanor Romeovich, Hostess 703", "credit_id": "53f9ba470e0a267a69004890", "gender": 1, "id": 18197, "name": "Anna Karina", "order": 5, "profile_path": "/wcMGNRYp9BeGYG7tcAFQqSc5WPa.jpg"}, {"cast_id": 19, "character": "Rak, der Maler", "credit_id": "57be00ccc3a36818ef002453", "gender": 2, "id": 32377, "name": "Enrico Maria Salerno", "order": 6, "profile_path": "/tODadFPOVHkAbu8wqyHcZOpG4Ek.jpg"}, {"cast_id": 20, "character": "der H\u00e4ndler", "credit_id": "57be00dbc3a3687cf8002f25", "gender": 2, "id": 31991, "name": "Gabriele Tinti", "order": 7, "profile_path": "/pl1PwEw7M55MaXnCpADCecJlmp9.jpg"}, {"cast_id": 21, "character": "Eduard", "credit_id": "57be01cdc3a3687c97002b6e", "gender": 2, "id": 66067, "name": "Martin Held", "order": 8, "profile_path": "/7XeM0lrEsONxDSV2wqXOlKsdjq4.jpg"}, {"cast_id": 22, "character": "", "credit_id": "57be01d79251413b07003c5d", "gender": 1, "id": 19524, "name": "Tilly Lauenstein", "order": 9, "profile_path": null}, {"cast_id": 23, "character": "", "credit_id": "57be01e6c3a3681954002256", "gender": 2, "id": 18536, "name": "Siegfried Sch\u00fcrenberg", "order": 10, "profile_path": "/rY6k0hsHxd6spzWOCcTUihLNuYj.jpg"}, {"cast_id": 24, "character": "Nadia", "credit_id": "57be01f69251415ea8002b6d", "gender": 1, "id": 6103, "name": "Nadia Gray", "order": 11, "profile_path": "/6MVxhI6r3rK30UH3ASq2uhIvuev.jpg"}, {"cast_id": 25, "character": "Vladimir Leskov", "credit_id": "57be020bc3a3687c97002b8a", "gender": 2, "id": 4121, "name": "Marcel Dalio", "order": 12, "profile_path": "/94KNwaGiHHWNRZB5qVlYPp46jno.jpg"}, {"cast_id": 26, "character": "Etagenkellner", "credit_id": "57be0227c3a3682eac0164ae", "gender": 2, "id": 1653, "name": "Jean-Pierre L\u00e9aud", "order": 13, "profile_path": "/dzkPODapVe4CSubEqI9ytTCqnZ7.jpg"}, {"cast_id": 27, "character": "Nick / John Demetrius", "credit_id": "57be023a92514172bc0020c1", "gender": 2, "id": 229382, "name": "Jacques Charrier", "order": 14, "profile_path": "/jGIhZ6nrYtaOySAqFf3ARwB9017.jpg"}], "crew": [{"credit_id": "52fe4a21c3a36847f81bba15", "department": "Directing", "gender": 2, "id": 3776, "job": "Director", "name": "Jean-Luc Godard", "profile_path": "/40irqwjSgDaxts68tdV63m4Ls4n.jpg"}, {"credit_id": "53b49932c3a3685ea800012e", "department": "Writing", "gender": 2, "id": 3776, "job": "Writer", "name": "Jean-Luc Godard", "profile_path": "/40irqwjSgDaxts68tdV63m4Ls4n.jpg"}, {"credit_id": "52fe4a21c3a36847f81bba0f", "department": "Directing", "gender": 2, "id": 34613, "job": "Director", "name": "Philippe de Broca", "profile_path": "/yrvmXE2SJBX659r2Y7eWwlmwfYd.jpg"}, {"credit_id": "53b49923c3a3685ec1000151", "department": "Writing", "gender": 2, "id": 34613, "job": "Writer", "name": "Philippe de Broca", "profile_path": "/yrvmXE2SJBX659r2Y7eWwlmwfYd.jpg"}, {"credit_id": "537dd73f0e0a2624cb001af4", "department": "Directing", "gender": 2, "id": 37770, "job": "Director", "name": "Claude Autant-Lara", "profile_path": "/kCxuGQh2skRB09YH723lMRR7xT7.jpg"}, {"credit_id": "53b4990ac3a3685eb700016d", "department": "Writing", "gender": 2, "id": 37770, "job": "Writer", "name": "Claude Autant-Lara", "profile_path": "/kCxuGQh2skRB09YH723lMRR7xT7.jpg"}, {"credit_id": "537dd75d0e0a2624bd001ba1", "department": "Directing", "gender": 2, "id": 227520, "job": "Director", "name": "Mauro Bolognini", "profile_path": "/A7UguXqU4FW5GPA0V3QTkQkSGJ3.jpg"}, {"credit_id": "53b49917c3a3685ea8000127", "department": "Writing", "gender": 2, "id": 227520, "job": "Writer", "name": "Mauro Bolognini", "profile_path": "/A7UguXqU4FW5GPA0V3QTkQkSGJ3.jpg"}, {"credit_id": "537dd7870e0a2624ba001a91", "department": "Directing", "gender": 0, "id": 932651, "job": "Director", "name": "Franco Indovina", "profile_path": null}, {"credit_id": "53b49947c3a3685eb4000150", "department": "Writing", "gender": 0, "id": 932651, "job": "Writer", "name": "Franco Indovina", "profile_path": null}, {"credit_id": "537dd7b20e0a2624c3001bcc", "department": "Directing", "gender": 2, "id": 1180262, "job": "Director", "name": "Michael Pfleghar", "profile_path": null}, {"credit_id": "53b49953c3a3685ea8000130", "department": "Writing", "gender": 2, "id": 1180262, "job": "Writer", "name": "Michael Pfleghar", "profile_path": null}]}}