{"adult": false, "backdrop_path": "/ojkydPivxlB70jlYCbBaE8YH6Cv.jpg", "belongs_to_collection": null, "budget": 0, "genres": [{"id": 37, "name": "Western"}, {"id": 10752, "name": "War"}, {"id": 18, "name": "Drama"}, {"id": 10402, "name": "Music"}], "homepage": null, "id": 103625, "imdb_id": "tt0038046", "original_language": "en", "original_title": "Salome, Where She Danced", "overview": "During the Austrian-Prussian war, Anna Marie is a dancer who is forced to flee her country after she is accused of being a spy. She ends up in a lawless western town in Arizona, where she uses her charms and dancing skills to transform herself into \"Salome\" during her dance routines.", "popularity": 2.278, "poster_path": "/vXdDsc5yToTSj2EtWUOEWtIrMex.jpg", "production_companies": [{"id": 33, "logo_path": "/8lvHyhjr8oUKOOy2dKXoALWKdp0.png", "name": "Universal Pictures", "origin_country": "US"}], "production_countries": [{"iso_3166_1": "US", "name": "United States of America"}], "release_date": "1945-04-17", "revenue": 0, "runtime": 90, "spoken_languages": [{"iso_639_1": "en", "name": "English"}], "status": "Released", "tagline": "She made guns grow cold...and hearts Burn Hot - as she set the West afire!", "title": "Salome, Where She Danced", "video": false, "vote_average": 0.0, "vote_count": 0, "keywords": {"keywords": [{"id": 733, "name": "dancer"}, {"id": 3637, "name": "double agent"}, {"id": 18117, "name": "female spy"}]}, "similar": {"page": 1, "results": [{"adult": false, "backdrop_path": "/4rHlXwRldJZDfdQhaOfNbWwwG11.jpg", "genre_ids": [18, 10402], "id": 10560, "original_language": "en", "original_title": "Center Stage", "overview": "A group of 12 teenagers from various backgrounds enroll at the American Ballet Academy in New York to make it as ballet dancers and each one deals with the problems and stress of training and getting ahead in the world of dance.", "poster_path": "/hCR9r2hE0woymx62pymQ0Bs4mk7.jpg", "release_date": "2000-05-12", "title": "Center Stage", "video": false, "vote_average": 6.9, "vote_count": 195, "popularity": 11.477}, {"id": 68817, "video": false, "vote_count": 1031, "vote_average": 6.6, "title": "Footloose", "release_date": "2011-10-06", "original_language": "en", "original_title": "Footloose", "genre_ids": [18, 10402, 10749], "backdrop_path": "/8CwwZnXIJ8UOB2EqTIRtWBGAiiX.jpg", "adult": false, "overview": "Ren MacCormack is transplanted from Boston to the small southern town of Bomont where loud music and dancing are prohibited. Not one to bow to the status quo, Ren challenges the ban, revitalizing the town and falling in love with the minister\u2019s troubled daughter Ariel in the process.", "poster_path": "/kDpo6G7rYRHQ1bFhyLiJEW9ESPO.jpg", "popularity": 15.567}, {"adult": false, "backdrop_path": "/5x0VEeFCnWzRBwU23KycKQRqEhN.jpg", "genre_ids": [10402, 35], "id": 15157, "original_language": "en", "original_title": "Another Cinderella Story", "overview": "A guy who danced with what could be the girl of his dreams at a costume ball only has one hint at her identity: the Zune she left behind as she rushed home in order to make her curfew. And with a once-in-a-lifetime opportunity in front of him, he sets out to find his masked beauty.", "poster_path": "/fLdCKCfHT8A6bnWybBsQFjC4fCo.jpg", "release_date": "2008-09-16", "title": "Another Cinderella Story", "video": false, "vote_average": 6.6, "vote_count": 1120, "popularity": 16.339}, {"id": 407655, "video": false, "vote_count": 421, "vote_average": 6.8, "title": "A Cinderella Story: If the Shoe Fits", "release_date": "2016-08-02", "original_language": "en", "original_title": "A Cinderella Story: If the Shoe Fits", "genre_ids": [35, 14, 10402, 10751], "backdrop_path": "/svYzELCLW0NGVEuvNraA4W7Hmm9.jpg", "adult": false, "overview": "A contemporary musical version of the classic Cinderella story in which the servant step daughter hope to compete in a musical competition for a famous pop star.", "poster_path": "/prZSNnK5dkYcflsbdOsVVvqasZ5.jpg", "popularity": 19.825}, {"id": 313369, "video": false, "vote_count": 11063, "vote_average": 7.9, "title": "La La Land", "release_date": "2016-11-29", "original_language": "en", "original_title": "La La Land", "genre_ids": [35, 18, 10402, 10749], "backdrop_path": "/fp6X6yhgcxzxCpmM0EVC6V9B8XB.jpg", "adult": false, "overview": "Mia, an aspiring actress, serves lattes to movie stars in between auditions and Sebastian, a jazz musician, scrapes by playing cocktail party gigs in dingy bars, but as success mounts they are faced with decisions that begin to fray the fragile fabric of their love affair, and the dreams they worked so hard to maintain in each other threaten to rip them apart.", "poster_path": "/ylXCdC106IKiarftHkcacasaAcb.jpg", "popularity": 39.654}, {"id": 9762, "video": false, "vote_count": 2460, "vote_average": 6.8, "title": "Step Up", "release_date": "2006-08-11", "original_language": "en", "original_title": "Step Up", "genre_ids": [80, 18, 10402, 10749], "backdrop_path": "/sKD3PfyP1u4tcoVQkpiAZqnx4H8.jpg", "adult": false, "overview": "Everyone deserves a chance to follow their dreams, but some people only get one shot. Tyler Gage is a rebel from the wrong side of Baltimore's tracks and the only thing that stands between him and an unfulfilled life are his dreams of one day making it out of there. Nora is a privileged ballet dancer attending Baltimore's ultra-elite Maryland School of the Arts", "poster_path": "/gyLww7ZlcwuzqvIwM1osR9Ioqtm.jpg", "popularity": 22.316}, {"id": 507076, "video": false, "vote_count": 632, "vote_average": 7.1, "title": "Climax", "release_date": "2018-09-19", "original_language": "fr", "original_title": "Climax", "genre_ids": [18, 27, 10402], "backdrop_path": "/v0sblc9A8eaE8EqDQ5Y6fELj4oB.jpg", "adult": false, "overview": "Young dancers gather in a remote and empty school building to rehearse on a cold and wintry night. The all-night celebration soon turns into a hallucinatory nightmare when they learn that their sangria is laced with LSD.", "poster_path": "/zQDqgzSdTGSDu4rDcQTq7TAttmy.jpg", "popularity": 17.873}, {"id": 41592, "video": false, "vote_count": 239, "vote_average": 6.3, "title": "StreetDance 3D", "release_date": "2010-05-19", "original_language": "en", "original_title": "StreetDance 3D", "genre_ids": [18, 10402, 10749], "backdrop_path": "/tNkThd2mzBkg7plEe76vUxiBWbL.jpg", "adult": false, "overview": "In order to win the Street Dance Championships, a dance crew is forced to work with ballet dancers from the Royal Dance School in exchange for rehearsal space.", "poster_path": "/oqWSenAtDQsWjMLVTMEDvcCtafU.jpg", "popularity": 18.562}, {"id": 1788, "video": false, "vote_count": 1107, "vote_average": 6.6, "title": "Footloose", "release_date": "1984-02-17", "original_language": "en", "original_title": "Footloose", "genre_ids": [18, 10749], "backdrop_path": "/ptEAh4Ok6PnXDkcX2kAue5A2sIG.jpg", "adult": false, "overview": "When teenager Ren and his family move from big-city Chicago to a small town in the West, he's in for a real case of culture shock.", "poster_path": "/79iEen28ai1rsXvOVWRJuHrsexO.jpg", "popularity": 12.865}, {"adult": false, "backdrop_path": "/iV3FuoJa6d6LtYVteQxLgoW19X.jpg", "genre_ids": [18, 10749, 10402], "id": 85373, "original_language": "en", "original_title": "StreetDance 2", "overview": "After suffering humiliation by the crew Invincible, street dancer Ash looks to gather the best dancers from around the world for a rematch.", "poster_path": "/5EVriguQ8N0s4DGCPPhYingOeLd.jpg", "release_date": "2012-03-30", "title": "StreetDance 2", "video": false, "vote_average": 5.9, "vote_count": 233, "popularity": 12.611}, {"id": 10545, "video": false, "vote_count": 3018, "vote_average": 7.0, "title": "The Hunchback of Notre Dame", "release_date": "1996-06-21", "original_language": "en", "original_title": "The Hunchback of Notre Dame", "genre_ids": [16, 18, 10751], "backdrop_path": "/oslaee3VX9kJAjVezbjZKlEJDzn.jpg", "adult": false, "overview": "When Quasimodo defies the evil Frollo and ventures out to the Festival of Fools, the cruel crowd jeers him. Rescued by fellow outcast the gypsy Esmeralda, Quasi soon finds himself battling to save the people and the city he loves.", "poster_path": "/r7V92gY3AMO6li17MmGTixAnFcv.jpg", "popularity": 28.041}, {"id": 341013, "video": false, "vote_count": 4063, "vote_average": 6.3, "title": "Atomic Blonde", "release_date": "2017-07-26", "original_language": "en", "original_title": "Atomic Blonde", "genre_ids": [28, 9648, 53], "backdrop_path": "/g3hni0i9iAQ13jDGOFWavJFlojc.jpg", "adult": false, "overview": "An undercover MI6 agent is sent to Berlin during the Cold War to investigate the murder of a fellow agent and recover a missing list of double agents.", "poster_path": "/kV9R5h0Yct1kR8Hf8sJ1nX0Vz4x.jpg", "popularity": 28.364}, {"id": 2976, "video": false, "vote_count": 1691, "vote_average": 6.6, "title": "Hairspray", "release_date": "2007-07-13", "original_language": "en", "original_title": "Hairspray", "genre_ids": [35, 18, 10749], "backdrop_path": "/yafOInYuEuK6FOw1oK40Lggp0TV.jpg", "adult": false, "overview": "Pleasantly plump teenager Tracy Turnblad auditions to be on Baltimore's most popular dance show - The Corny Collins Show - and lands a prime spot. Through her newfound fame, she becomes determined to help her friends and end the racial segregation that has been a staple of the show.", "poster_path": "/ndOpIx4BXpFCRRIxgMoGHxZxlE9.jpg", "popularity": 30.447}, {"id": 44214, "video": false, "vote_count": 9192, "vote_average": 7.6, "title": "Black Swan", "release_date": "2010-12-03", "original_language": "en", "original_title": "Black Swan", "genre_ids": [18, 27, 53], "backdrop_path": "/t8jFs6cOl1YVSfXXZivWtEb14tF.jpg", "adult": false, "overview": "A journey through the psyche of a young ballerina whose starring role as the duplicitous swan queen turns out to be a part for which she becomes frighteningly perfect.", "poster_path": "/dQ7uxvsVTspVIsqjfgQj8usJpwX.jpg", "popularity": 24.558}, {"id": 238713, "video": false, "vote_count": 4197, "vote_average": 6.8, "title": "Spy", "release_date": "2015-05-06", "original_language": "en", "original_title": "Spy", "genre_ids": [28, 35, 80], "backdrop_path": "/x5F6AIyqCjRMwqmF8NR98kU4VzH.jpg", "adult": false, "overview": "A desk-bound CIA analyst volunteers to go undercover to infiltrate the world of a deadly arms dealer, and prevent diabolical global disaster.", "poster_path": "/gCBw0AQDhlo0bNetkjsSRWzrxpW.jpg", "popularity": 21.09}, {"id": 10527, "video": false, "vote_count": 4220, "vote_average": 6.4, "title": "Madagascar: Escape 2 Africa", "release_date": "2008-10-30", "original_language": "en", "original_title": "Madagascar: Escape 2 Africa", "genre_ids": [16, 35, 10751], "backdrop_path": "/anxiz37Z9FPKeuCsJcxViSWmPxg.jpg", "adult": false, "overview": "Alex, Marty, and other zoo animals find a way to escape from Madagascar when the penguins reassemble a wrecked airplane. The precariously repaired craft stays airborne just long enough to make it to the African continent. There the New Yorkers encounter members of their own species for the first time. Africa proves to be a wild place, but Alex and company wonder if it is better than their Central Park home.", "poster_path": "/9mohxwknsHcwFBSAAhoQXwFV5zn.jpg", "popularity": 23.58}, {"id": 39514, "video": false, "vote_count": 4481, "vote_average": 6.6, "title": "RED", "release_date": "2010-10-13", "original_language": "en", "original_title": "RED", "genre_ids": [28, 12, 35, 80, 53], "backdrop_path": "/1TFEtFxD1M9OvMGlGcSAR5Pg53I.jpg", "adult": false, "overview": "When his peaceful life is threatened by a high-tech assassin, former black-ops agent, Frank Moses reassembles his old team in a last ditch effort to survive and uncover his assailants.", "poster_path": "/q2mwTRKrq1etP9S4SZVDIJq0wI2.jpg", "popularity": 25.801}, {"adult": false, "backdrop_path": "/nlwzLx5WVZPZDwXvexGGfaktts7.jpg", "genre_ids": [878, 53, 10749], "id": 38050, "original_language": "en", "original_title": "The Adjustment Bureau", "overview": "A man glimpses the future Fate has planned for him \u2013 and chooses to fight for his own destiny. Battling the powerful Adjustment Bureau across, under and through the streets of New York, he risks his destined greatness to be with the only woman he's ever loved.", "poster_path": "/g87PqGH9Oo3d3Tbczcfk7ZMAIEk.jpg", "release_date": "2011-03-03", "title": "The Adjustment Bureau", "video": false, "vote_average": 6.7, "vote_count": 2861, "popularity": 15.293}, {"id": 497698, "video": false, "vote_count": 0, "vote_average": 0.0, "title": "Black Widow", "release_date": "2020-04-24", "original_language": "en", "original_title": "Black Widow", "genre_ids": [28, 12, 53], "backdrop_path": "/dGMpzHn9uNqBysBQ6Sp5xdOgM66.jpg", "adult": false, "overview": "Natasha Romanoff, on the run from the government following her disobedience to the Sokovia Accords and for aiding Steve Rogers, finds herself on her own and is forced to deal with some of the red in her ledger.", "poster_path": "/sRhaJ6D3x6gQB0swrV0UDqMwHJu.jpg", "popularity": 23.191}, {"id": 342473, "video": false, "vote_count": 1169, "vote_average": 7.1, "title": "Ballerina", "release_date": "2016-12-14", "original_language": "en", "original_title": "Ballerina", "genre_ids": [12, 16, 35, 10751], "backdrop_path": "/wlLdcK3Sm7zp0w1ZuVvnFlmcchM.jpg", "adult": false, "overview": "Set in 1879 Paris. An orphan girl dreams of becoming a ballerina and flees her rural Brittany for Paris, where she passes for someone else and accedes to the position of pupil at the Grand Opera house.", "poster_path": "/qBxMhcmNnFniuDAZTKEHcSgKtsn.jpg", "popularity": 24.47}], "total_pages": 37, "total_results": 740}, "recommendations": {"page": 1, "results": [], "total_pages": 1, "total_results": 0}, "credits": {"cast": [{"cast_id": 2, "character": "Anna Marie", "credit_id": "52fe4a21c3a36847f81bbb25", "gender": 1, "id": 41240, "name": "Yvonne De Carlo", "order": 0, "profile_path": "/v2aCRQusYYePhBF2fS1xsVIPr5Z.jpg"}, {"cast_id": 3, "character": "Jim Steed", "credit_id": "52fe4a21c3a36847f81bbb29", "gender": 2, "id": 58217, "name": "Rod Cameron", "order": 1, "profile_path": "/aGflgVgFrZMGjbuM04bTFpCfmej.jpg"}, {"cast_id": 5, "character": "Cleve Blunt", "credit_id": "52fe4a21c3a36847f81bbb2d", "gender": 2, "id": 95623, "name": "David Bruce", "order": 2, "profile_path": "/xLBWVI64sB6QsKq1skmCmbbz4sj.jpg"}, {"cast_id": 6, "character": "Dimitrioff", "credit_id": "57a3806ec3a36838f200017a", "gender": 2, "id": 37884, "name": "Walter Slezak", "order": 3, "profile_path": "/sAdZJIr4OLhRqY2vjEvOg9zGVy4.jpg"}, {"cast_id": 7, "character": "Von Bohlen", "credit_id": "57a3807b9251414ae4000184", "gender": 2, "id": 2755, "name": "Albert Dekker", "order": 4, "profile_path": "/l6uhlP7tbyb3OVGUi3M6NceagBt.jpg"}, {"cast_id": 8, "character": "Madam Europe", "credit_id": "57a38089c3a36838da000154", "gender": 1, "id": 83235, "name": "Marjorie Rambeau", "order": 5, "profile_path": "/la0Kxcw4iFMHQXFr8Iop77fbild.jpg"}, {"cast_id": 9, "character": "Professor Max", "credit_id": "57a38097c3a3686c4a006a08", "gender": 2, "id": 89999, "name": "J. Edward Bromberg", "order": 6, "profile_path": "/l9OUS1NA2Wt2O6oP9Dk5gga7SiW.jpg"}, {"cast_id": 10, "character": "Dr. Ling", "credit_id": "57a380a5c3a368389c000125", "gender": 2, "id": 30239, "name": "Abner Biberman", "order": 7, "profile_path": "/qTpbKH33TobqfSooJ2UKJ0xP9E1.jpg"}, {"cast_id": 11, "character": "General Lee", "credit_id": "57a380b7c3a36838f2000195", "gender": 2, "id": 16766, "name": "John Litel", "order": 8, "profile_path": "/kpNAy4IYFE3OXaOG60RPhkyp70d.jpg"}, {"cast_id": 12, "character": "Count Von Bismarck", "credit_id": "57a380c69251414ae4000195", "gender": 2, "id": 113511, "name": "Kurt Katch", "order": 9, "profile_path": "/4CByIYRnNkSoVXTuxAaw3vOy1Ml.jpg"}, {"cast_id": 13, "character": "Bartender", "credit_id": "57a380d2c3a3686c4a006a20", "gender": 2, "id": 25176, "name": "Arthur Hohl", "order": 10, "profile_path": "/juyEMVHpdtvPMlMB9Ovim27Wlm7.jpg"}, {"cast_id": 14, "character": "Panatela", "credit_id": "57a380e49251417c57003708", "gender": 2, "id": 56924, "name": "Nestor Paiva", "order": 11, "profile_path": "/9QB3l3jN6npImyMvCHKWTMd7H8Y.jpg"}, {"cast_id": 15, "character": "Salome Girl", "credit_id": "57a381089251417c57003711", "gender": 0, "id": 233325, "name": "Jane Adams", "order": 12, "profile_path": "/oH4omuXEL8bUpbMDvLMsOqyuFNK.jpg"}, {"cast_id": 16, "character": "Salome Girl", "credit_id": "57a381229251410c7d003139", "gender": 1, "id": 10611, "name": "Barbara Bates", "order": 13, "profile_path": "/ca2fjt394lIZccuYpmPF7rTCj6w.jpg"}, {"cast_id": 17, "character": "Salome Girl", "credit_id": "57a381319251410cd20031ba", "gender": 1, "id": 1209259, "name": "Daun Kennedy", "order": 14, "profile_path": "/igcS1C34wPv3CMKBiN2inzOuydu.jpg"}, {"cast_id": 18, "character": "Salome Girl", "credit_id": "57a3813ec3a36832b80078c8", "gender": 1, "id": 117426, "name": "Kathleen O'Malley", "order": 15, "profile_path": "/jhQC601j0KJYxGWayw6KVTusjqP.jpg"}, {"cast_id": 19, "character": "Salome Girl", "credit_id": "57a3814ac3a36838f20001d0", "gender": 0, "id": 1366646, "name": "Karen Randle", "order": 16, "profile_path": null}, {"cast_id": 20, "character": "Salome Girl", "credit_id": "57a38158c3a3686c4a006a4c", "gender": 0, "id": 1482990, "name": "Jean Trent", "order": 17, "profile_path": null}, {"cast_id": 21, "character": "Salome Girl", "credit_id": "57a381639251414ae40001c2", "gender": 0, "id": 1661463, "name": "Kerry Vaughn", "order": 18, "profile_path": null}], "crew": [{"credit_id": "57a381b4c3a3683835000204", "department": "Production", "gender": 2, "id": 7646, "job": "Producer", "name": "Walter Wanger", "profile_path": "/3FDfLCfCygfTw33lUGTj1KeiGMz.jpg"}, {"credit_id": "57a381d79251414ae40001fb", "department": "Art", "gender": 2, "id": 12346, "job": "Art Direction", "name": "Alexander Golitzen", "profile_path": null}, {"credit_id": "57a381cbc3a3683f97002ddb", "department": "Camera", "gender": 2, "id": 14284, "job": "Director of Photography", "name": "Hal Mohr", "profile_path": null}, {"credit_id": "57a381e1c3a36832b80078fd", "department": "Art", "gender": 2, "id": 16753, "job": "Art Direction", "name": "John B. Goodman", "profile_path": null}, {"credit_id": "52fe4a21c3a36847f81bbb21", "department": "Directing", "gender": 2, "id": 29627, "job": "Director", "name": "Charles Lamont", "profile_path": null}, {"credit_id": "57a38190c3a368389c000156", "department": "Writing", "gender": 0, "id": 29966, "job": "Screenplay", "name": "Laurence Stallings", "profile_path": null}, {"credit_id": "57a381bfc3a3683fa7003731", "department": "Camera", "gender": 2, "id": 85855, "job": "Director of Photography", "name": "W. Howard Greene", "profile_path": null}, {"credit_id": "58ef8b3b925141424100d8c1", "department": "Writing", "gender": 0, "id": 1795279, "job": "Story", "name": "Michael J. Phillips", "profile_path": null}]}}