{"adult": false, "backdrop_path": "/h9UVJ9U8NUnP4NRW5HaRmjnKidK.jpg", "belongs_to_collection": null, "budget": 0, "genres": [{"id": 10749, "name": "Romance"}, {"id": 35, "name": "Comedy"}, {"id": 10402, "name": "Music"}], "homepage": null, "id": 103927, "imdb_id": "tt0042417", "original_language": "en", "original_title": "Duchess of Idaho", "overview": "Ellen Hallit is in love with her playboy boss, Douglas Morrison, but is too timid to do anything about it. To help her, her roommate Chris decides to step in, and devises a plan. Chris follows Morrison on his trip to Sun Valley, Idaho and plays the overattentive female, hoping that he will send for Ellen (who often played his \"fianc\u00e9e\" when he had a female he couldn't discourage otherwise.) Complications arise when Chris catches the eye of band leader Dick Layne, and finds herself caught in a triangle between the two men.", "popularity": 3.064, "poster_path": "/m2A0HEJfuj0b0zRMBJNgP6qH1ZZ.jpg", "production_companies": [{"id": 21, "logo_path": "/mjofSXiHpG5t6KYmU4l4FrUhT7m.png", "name": "Metro-Goldwyn-Mayer", "origin_country": "US"}], "production_countries": [{"iso_3166_1": "US", "name": "United States of America"}], "release_date": "1950-07-14", "revenue": 0, "runtime": 98, "spoken_languages": [{"iso_639_1": "en", "name": "English"}], "status": "Released", "tagline": "M-G-M's TECHNICOLOR Musical of Sun Valley Splendor!", "title": "Duchess of Idaho", "video": false, "vote_average": 5.0, "vote_count": 1, "keywords": {"keywords": [{"id": 4344, "name": "musical"}, {"id": 9094, "name": "womanizer"}, {"id": 11827, "name": "swimmer"}]}, "similar": {"page": 1, "results": [{"id": 224141, "video": false, "vote_count": 3144, "vote_average": 5.7, "title": "Into the Woods", "release_date": "2014-12-24", "original_language": "en", "original_title": "Into the Woods", "genre_ids": [35, 14], "backdrop_path": "/lzJzB0QfkjpGCm9qUC4XpEIB6pm.jpg", "adult": false, "overview": "In a woods filled with magic and fairy tale characters, a baker and his wife set out to end the curse put on them by their neighbor, a spiteful witch.", "poster_path": "/5h91odPFNlBuJbRBj5N4MEBfXDE.jpg", "popularity": 29.368}, {"id": 872, "video": false, "vote_count": 1617, "vote_average": 8.2, "title": "Singin' in the Rain", "release_date": "1952-04-10", "original_language": "en", "original_title": "Singin' in the Rain", "genre_ids": [35, 10402, 10749], "backdrop_path": "/amW1YWQvcP8slDyDp1R652aVQZ7.jpg", "adult": false, "overview": "In 1927 Hollywood, a silent film production company and cast make a difficult transition to sound.", "poster_path": "/s39odBPtyutGBnEfBIpdm0fpRwv.jpg", "popularity": 17.295}, {"id": 504608, "video": false, "vote_count": 1666, "vote_average": 7.4, "title": "Rocketman", "release_date": "2019-05-22", "original_language": "en", "original_title": "Rocketman", "genre_ids": [18, 10402], "backdrop_path": "/sZZJ42GrWKxSOfcrpI2TSFQa0AQ.jpg", "adult": false, "overview": "The story of Elton John's life, from his years as a prodigy at the Royal Academy of Music through his influential and enduring musical partnership with Bernie Taupin.", "poster_path": "/f4FF18ia7yTvHf2izNrHqBmgH8U.jpg", "popularity": 27.709}, {"id": 18126, "video": false, "vote_count": 1217, "vote_average": 6.4, "title": "Hannah Montana: The Movie", "release_date": "2009-04-10", "original_language": "en", "original_title": "Hannah Montana: The Movie", "genre_ids": [35, 18, 10402, 10749, 10751], "backdrop_path": "/ezx3NkXNqf2KnJCP6Nfj1bfCFut.jpg", "adult": false, "overview": "As Hannah Montana's popularity begins to take over her life, Miley Stewart, on the urging from her father takes a trip to her hometown of Crowley Corners, Tennessee to get some perspective on what matters in life the most.", "poster_path": "/8pwbnmvshHj2yYPYlyJ8K8Yzecy.jpg", "popularity": 12.479}, {"id": 2005, "video": false, "vote_count": 1806, "vote_average": 6.7, "title": "Sister Act", "release_date": "1992-05-28", "original_language": "en", "original_title": "Sister Act", "genre_ids": [35, 10402], "backdrop_path": "/oaLqlJxt8TJSjsdfMpSkLexZ4l5.jpg", "adult": false, "overview": "A Reno singer witnesses a mob murder and the cops stash her in a nunnery to protect her from the mob's hitmen. The mother superior does not trust her, and takes steps to limit her influence on the other nuns. Eventually the singer rescues the failing choir and begins helping with community projects, which gets her an interview on TV\u2014and identification by the mob.", "poster_path": "/7wQxLtybiUbtC6tsJh9htFEmqq3.jpg", "popularity": 16.674}, {"id": 10537, "video": false, "vote_count": 603, "vote_average": 6.9, "title": "The Doors", "release_date": "1991-03-01", "original_language": "en", "original_title": "The Doors", "genre_ids": [18, 10402], "backdrop_path": "/1rv5sW6Qs2YK2iOzIgwH3SJPIl1.jpg", "adult": false, "overview": "The story of the famous and influential 1960s rock band and its lead singer and composer, Jim Morrison.", "poster_path": "/9CkFrWAkg23YynYd2uJLyWznMZZ.jpg", "popularity": 14.573}, {"id": 194662, "video": false, "vote_count": 8621, "vote_average": 7.5, "title": "Birdman", "release_date": "2014-08-27", "original_language": "en", "original_title": "Birdman", "genre_ids": [35, 18], "backdrop_path": "/AsJVim0Hk3KbQPbfjyijfjqmaoZ.jpg", "adult": false, "overview": "A fading actor best known for his portrayal of a popular superhero attempts to mount a comeback by appearing in a Broadway play. As opening night approaches, his attempts to become more altruistic, rebuild his career, and reconnect with friends and family prove more difficult than expected.", "poster_path": "/rSZs93P0LLxqlVEbI001UKoeCQC.jpg", "popularity": 40.415}, {"adult": false, "backdrop_path": "/ppDnBvf0f7vCZHRLtDjazpYHdTF.jpg", "genre_ids": [35, 10402, 10749], "id": 13368, "original_language": "en", "original_title": "White Christmas", "overview": "Two talented song-and-dance men team up after the war to become one of the hottest acts in show business. In time they befriend and become romantically involved with the beautiful Haynes sisters who comprise a sister act.", "poster_path": "/A5kBQsHKbIptxJyELEpHQJROCRj.jpg", "release_date": "1954-10-14", "title": "White Christmas", "video": false, "vote_average": 7.4, "vote_count": 250, "popularity": 10.494}, {"id": 332562, "video": false, "vote_count": 7182, "vote_average": 7.5, "title": "A Star Is Born", "release_date": "2018-10-03", "original_language": "en", "original_title": "A Star Is Born", "genre_ids": [18, 10402, 10749], "backdrop_path": "/mnDvPokXpvsdPcWSjNRPhiiLOKu.jpg", "adult": false, "overview": "Seasoned musician Jackson Maine discovers \u2014 and falls in love with \u2014 struggling artist Ally. She has just about given up on her dream to make it big as a singer \u2014 until Jack coaxes her into the spotlight. But even as Ally's career takes off, the personal side of their relationship is breaking down, as Jack fights an ongoing battle with his own internal demons.", "poster_path": "/wrFpXMNBRj2PBiN4Z5kix51XaIZ.jpg", "popularity": 37.528}, {"id": 252, "video": false, "vote_count": 1838, "vote_average": 7.5, "title": "Willy Wonka & the Chocolate Factory", "release_date": "1971-06-29", "original_language": "en", "original_title": "Willy Wonka & the Chocolate Factory", "genre_ids": [35, 14, 10751], "backdrop_path": "/nyqiCFF3pjcdwG2KmOwvM6CCLKA.jpg", "adult": false, "overview": "Eccentric candy man Willy Wonka prompts a worldwide frenzy when he announces that golden tickets hidden inside five of his delicious candy bars will admit their lucky holders into his top-secret confectionary. But does Wonka have an agenda hidden amid a world of Oompa Loompas and chocolate rivers?", "poster_path": "/b94qXd1FcIwgzv0NYMUe2bjrzJR.jpg", "popularity": 19.101}, {"adult": false, "backdrop_path": "/9T8sj5io4SGCBTHsk5H8LGcfKVe.jpg", "genre_ids": [10749, 18], "id": 419478, "original_language": "en", "original_title": "Midnight Sun", "overview": "Katie, a 17-year-old, has been sheltered since childhood and confined to her house during the day by a rare disease that makes even the smallest amount of sunlight deadly. Fate intervenes when she meets Charlie and they embark on a summer romance.", "poster_path": "/vPG2zEKPXhovPW9S91SRnwr5JM1.jpg", "release_date": "2018-03-22", "title": "Midnight Sun", "video": false, "vote_average": 7.7, "vote_count": 1921, "popularity": 20.012}, {"id": 313369, "video": false, "vote_count": 11063, "vote_average": 7.9, "title": "La La Land", "release_date": "2016-11-29", "original_language": "en", "original_title": "La La Land", "genre_ids": [35, 18, 10402, 10749], "backdrop_path": "/fp6X6yhgcxzxCpmM0EVC6V9B8XB.jpg", "adult": false, "overview": "Mia, an aspiring actress, serves lattes to movie stars in between auditions and Sebastian, a jazz musician, scrapes by playing cocktail party gigs in dingy bars, but as success mounts they are faced with decisions that begin to fray the fragile fabric of their love affair, and the dreams they worked so hard to maintain in each other threaten to rip them apart.", "poster_path": "/ylXCdC106IKiarftHkcacasaAcb.jpg", "popularity": 39.654}, {"id": 606117, "video": false, "vote_count": 257, "vote_average": 6.8, "title": "A Cinderella Story: Christmas Wish", "release_date": "2019-10-15", "original_language": "en", "original_title": "A Cinderella Story: Christmas Wish", "genre_ids": [35, 14, 10402, 10749], "backdrop_path": "/h3kzgUaUOamInX7nsALsFmlw4qX.jpg", "adult": false, "overview": "Kat is an aspiring singer-songwriter who dreams of making it big. However, her dreams are stalled by her reality: a conniving and cruel stepfamily  and a demoralizing job working as a singing elf at billionaire Terrence Wintergarden\u2019s Santa Land.", "poster_path": "/ozBX0u5caaJFli9AssqJmARb5R.jpg", "popularity": 22.941}, {"id": 15969, "video": false, "vote_count": 1085, "vote_average": 5.8, "title": "The Return of Jafar", "release_date": "1994-12-15", "original_language": "en", "original_title": "The Return of Jafar", "genre_ids": [12, 16, 10749, 10751], "backdrop_path": "/sLF3zgqfFC6Vev84h9aK4U88M2C.jpg", "adult": false, "overview": "The evil Jafar escapes from the magic lamp as an all-powerful genie, ready to plot his revenge against Aladdin. From battling elusive villains atop winged horses, to dodging flames inside an exploding lava pit, it's up to Aladdin - with Princess Jasmine and the outrageously funny Genie by his side - to save the kingdom once and for all.", "poster_path": "/sC4wDVBMPMxmn5JJqPalMOhQ35U.jpg", "popularity": 22.698}, {"id": 10882, "video": false, "vote_count": 3219, "vote_average": 6.9, "title": "Sleeping Beauty", "release_date": "1959-01-28", "original_language": "en", "original_title": "Sleeping Beauty", "genre_ids": [16, 14, 10749, 10751], "backdrop_path": "/oHZIobyIG0YzWntyPCTSJDOk9qB.jpg", "adult": false, "overview": "A beautiful princess born in a faraway kingdom is destined by a terrible curse to prick her finger on the spindle of a spinning wheel and fall into a deep sleep that can only be awakened by true love's first kiss. Determined to protect her, her parents ask three fairies to raise her in hiding. But the evil Maleficent is just as determined to seal the princess's fate.", "poster_path": "/j4YBuAe8D1jDSiitpq69og9x3Yl.jpg", "popularity": 29.356}, {"id": 50646, "video": false, "vote_count": 5060, "vote_average": 7.2, "title": "Crazy, Stupid, Love.", "release_date": "2011-07-29", "original_language": "en", "original_title": "Crazy, Stupid, Love.", "genre_ids": [35, 18, 10749], "backdrop_path": "/6ECnUXleS9G2O02f1b5tvZiVn3D.jpg", "adult": false, "overview": "Cal Weaver is living the American dream. He has a good job, a beautiful house, great children and a beautiful wife, named Emily. Cal's seemingly perfect life unravels, however, when he learns that Emily has been unfaithful and wants a divorce. Over 40 and suddenly single, Cal is adrift in the fickle world of dating. Enter, Jacob Palmer, a self-styled player who takes Cal under his wing and teaches him how to be a hit with the ladies.", "poster_path": "/n97V1WcpoJ8gBA0pM48Om05o2fN.jpg", "popularity": 22.649}, {"adult": false, "backdrop_path": "/6bnI08rrGXRkngRqJWCMXDZuJ1j.jpg", "genre_ids": [35, 10402], "id": 254470, "original_language": "en", "original_title": "Pitch Perfect 2", "overview": "The Bellas are back, and they are better than ever. After being humiliated in front of none other than the President of the United States of America, the Bellas are taken out of the Aca-Circuit. In order to clear their name, and regain their status, the Bellas take on a seemingly impossible task: winning an international competition no American team has ever won. In order to accomplish this monumental task, they need to strengthen the bonds of friendship and sisterhood and blow away the competition with their amazing aca-magic! With all new friends and old rivals tagging along for the trip, the Bellas can hopefully accomplish their dreams.", "poster_path": "/qSjruLiFB4uqRtz2xheQPxG8uaB.jpg", "release_date": "2015-05-07", "title": "Pitch Perfect 2", "video": false, "vote_average": 6.8, "vote_count": 3901, "popularity": 29.697}, {"adult": false, "backdrop_path": "/5x0VEeFCnWzRBwU23KycKQRqEhN.jpg", "genre_ids": [10402, 35], "id": 15157, "original_language": "en", "original_title": "Another Cinderella Story", "overview": "A guy who danced with what could be the girl of his dreams at a costume ball only has one hint at her identity: the Zune she left behind as she rushed home in order to make her curfew. And with a once-in-a-lifetime opportunity in front of him, he sets out to find his masked beauty.", "poster_path": "/fLdCKCfHT8A6bnWybBsQFjC4fCo.jpg", "release_date": "2008-09-16", "title": "Another Cinderella Story", "video": false, "vote_average": 6.6, "vote_count": 1120, "popularity": 16.339}, {"adult": false, "backdrop_path": "/3eAudH9hkkr451VoAZPLEQVy5wX.jpg", "genre_ids": [35, 18, 10402, 10749], "id": 6282, "original_language": "en", "original_title": "Coyote Ugly", "overview": "Graced with a velvet voice, 21-year-old Violet Sanford heads to New York to pursue her dream of becoming a songwriter only to find her aspirations sidelined by the accolades and notoriety she receives at her \"day\" job as a barmaid at Coyote Ugly. The \"Coyotes\" as they are affectionately called tantalize customers and the media alike with their outrageous antics, making Coyote Ugly the watering hole for guys on the prowl.", "poster_path": "/p3nIrS9rkdVmMmgKAWtGsmAnhGV.jpg", "release_date": "2000-07-30", "title": "Coyote Ugly", "video": false, "vote_average": 6.1, "vote_count": 1167, "popularity": 19.287}, {"adult": false, "backdrop_path": "/3mhNnNmfCGrjyVEZhjWRVcjMOSi.jpg", "genre_ids": [14, 16, 10749, 10751], "id": 54113, "original_language": "en", "original_title": "The Swan Princess: Escape from Castle Mountain", "overview": "The first wedding anniversary of Princess Odette and Prince Derek is distracted by field fires set by Knuckles. His master Clavius, wants to conquer the world, and he needs to capture a giant orb to do that. Clavius kidnaps Queen Uberta and Odette with Derek have to save her.", "poster_path": "/oTEgvTpAIugS7OH6oIoVZkmV3C3.jpg", "release_date": "1997-01-01", "title": "The Swan Princess: Escape from Castle Mountain", "video": false, "vote_average": 6.0, "vote_count": 198, "popularity": 11.608}], "total_pages": 158, "total_results": 3156}, "recommendations": {"page": 1, "results": [], "total_pages": 1, "total_results": 0}, "credits": {"cast": [{"cast_id": 3, "character": "Christine Riverton Duncan", "credit_id": "52fe4a29c3a36847f81bdb2b", "gender": 1, "id": 129520, "name": "Esther Williams", "order": 0, "profile_path": "/nkQlUjqUymEkYNkF5PK6xN2IcWg.jpg"}, {"cast_id": 4, "character": "Dick Layne", "credit_id": "52fe4a29c3a36847f81bdb2f", "gender": 2, "id": 37446, "name": "Van Johnson", "order": 1, "profile_path": "/fVhWeeytSzeasZzOWG0KXOhMsiF.jpg"}, {"cast_id": 5, "character": "Douglas J. Morrison Jr.", "credit_id": "52fe4a29c3a36847f81bdb33", "gender": 2, "id": 95313, "name": "John Lund", "order": 2, "profile_path": "/hCnrqgBFMfgL2WJWOqCl8zbPZUD.jpg"}, {"cast_id": 6, "character": "Ellen Hallit", "credit_id": "52fe4a29c3a36847f81bdb37", "gender": 1, "id": 93944, "name": "Paula Raymond", "order": 3, "profile_path": "/lfJ4wEmG4DxIsHfmRdW01ZKfMRy.jpg"}, {"cast_id": 7, "character": "Matson", "credit_id": "52fe4a29c3a36847f81bdb3b", "gender": 2, "id": 94112, "name": "Clinton Sundberg", "order": 4, "profile_path": "/ird4IaorvWN07a4CBQmy6Xl7oL.jpg"}, {"cast_id": 8, "character": "Herself - Cameo appearance", "credit_id": "52fe4a29c3a36847f81bdb3f", "gender": 1, "id": 92900, "name": "Lena Horne", "order": 5, "profile_path": "/zqxMb5rxMfTS7p4GjVfiHhb5Zpj.jpg"}, {"cast_id": 9, "character": "Herself - Cameo appearance", "credit_id": "52fe4a29c3a36847f81bdb43", "gender": 1, "id": 237562, "name": "Eleanor Powell", "order": 6, "profile_path": "/yXNHco1FrBghoJJeG6lHfzXitPs.jpg"}, {"cast_id": 12, "character": "Peggy Elliot", "credit_id": "57bf830cc3a3684d30001969", "gender": 0, "id": 1221911, "name": "Connie Haines", "order": 7, "profile_path": "/pXlida8ysrAwrEslw7e28QuR0Zs.jpg"}, {"cast_id": 13, "character": "Cyril", "credit_id": "57bf831ac3a3684d3400187d", "gender": 2, "id": 97772, "name": "Mel Torm\u00e9", "order": 8, "profile_path": "/sg79tHO7bzPkcrGCSRjRI1Ym0tL.jpg"}, {"cast_id": 14, "character": "Linda Kinston", "credit_id": "57bf832892514106d20019ca", "gender": 1, "id": 30529, "name": "Amanda Blake", "order": 9, "profile_path": "/azdM8X4CSB3EINLs4wD3uFT3u9Y.jpg"}, {"cast_id": 15, "character": "Chuck", "credit_id": "57bf8333c3a3684d30001989", "gender": 0, "id": 120037, "name": "Tommy Farrell", "order": 10, "profile_path": "/n4RdMnXwWFyqXD4nmPLBk4cfFNZ.jpg"}, {"cast_id": 16, "character": "Monsieur Le Blanche", "credit_id": "57bf833fc3a3684d25001b9f", "gender": 2, "id": 48064, "name": "Sig Arno", "order": 11, "profile_path": "/mG2lMhpjvVkQBdZekHwP6Dr0MQA.jpg"}, {"cast_id": 17, "character": "Alec I. Collins", "credit_id": "57bf834bc3a3684d25001ba3", "gender": 2, "id": 19410, "name": "Dick Simmons", "order": 12, "profile_path": "/hbDhrKuEQuzwOcQYps1G97MKQKm.jpg"}, {"cast_id": 18, "character": "Betty - Flower Shop Saleslady (uncredited)", "credit_id": "57bf8360c3a3684d22001c52", "gender": 1, "id": 29814, "name": "Mae Clarke", "order": 13, "profile_path": "/9u2HttpMOejKjrF61eOdjE9uw8c.jpg"}], "crew": [{"credit_id": "5cbdd6e292514108d1ff0b37", "department": "Sound", "gender": 2, "id": 24800, "job": "Sound", "name": "Charles E. Wallace", "profile_path": null}, {"credit_id": "57bf82af92514106cd001a6f", "department": "Writing", "gender": 2, "id": 60679, "job": "Screenplay", "name": "Jerry Davis", "profile_path": null}, {"credit_id": "52fe4a29c3a36847f81bdb21", "department": "Directing", "gender": 2, "id": 93906, "job": "Director", "name": "Robert Z. Leonard", "profile_path": "/w6wkz4NRYhhOTWqVjXvoHAWj6yQ.jpg"}, {"credit_id": "52fe4a29c3a36847f81bdb27", "department": "Production", "gender": 2, "id": 94115, "job": "Producer", "name": "Joe Pasternak", "profile_path": "/gAAbsb5OoV0NVlQ13ScOwq7sXz0.jpg"}, {"credit_id": "57bf828a92514106de0018ed", "department": "Writing", "gender": 1, "id": 159506, "job": "Screenplay", "name": "Dorothy Cooper", "profile_path": null}]}}