{"adult": false, "backdrop_path": "/wApH0pzzDIiw5mKv8vnfVOlt0iR.jpg", "belongs_to_collection": null, "budget": 0, "genres": [{"id": 18, "name": "Drama"}], "homepage": "", "id": 104086, "imdb_id": "tt0192718", "original_language": "fr", "original_title": "Un homme qui dort", "overview": "In this French tour-de-force a young student decides to have no more interaction with the world than is needed to minimally sustain life. His increasingly automaton-like behavior is coupled with a strange clarity of insight about the world around him. His inner musings as he wanders the luminous streets of Paris are narrated in the form of an unwritten diary by Ludmila Mikael.", "popularity": 5.651, "poster_path": "/2blWcgYI9qInHB9UYqaO8IC0Tsg.jpg", "production_companies": [{"id": 31117, "logo_path": null, "name": "Dovidis", "origin_country": ""}, {"id": 49800, "logo_path": null, "name": "SATPEC", "origin_country": ""}], "production_countries": [{"iso_3166_1": "FR", "name": "France"}, {"iso_3166_1": "TN", "name": "Tunisia"}], "release_date": "1974-04-24", "revenue": 0, "runtime": 77, "spoken_languages": [{"iso_639_1": "fr", "name": "Fran\u00e7ais"}], "status": "Released", "tagline": "", "title": "The Man Who Sleeps", "video": false, "vote_average": 8.0, "vote_count": 56, "keywords": {"keywords": [{"id": 894, "name": "depression"}, {"id": 1541, "name": "nihilism"}, {"id": 9887, "name": "surrealism"}, {"id": 156596, "name": "no dialogue"}, {"id": 159431, "name": "voice over"}, {"id": 181324, "name": "existentialism"}, {"id": 230841, "name": "anomie"}]}, "similar": {"page": 1, "results": [{"adult": false, "backdrop_path": "/qK77FcPjWwJDmJTwlZc8L31o8En.jpg", "genre_ids": [18, 878], "id": 62215, "original_language": "da", "original_title": "Melancholia", "overview": "Two sisters find their already strained relationship challenged as a mysterious new planet threatens to collide with Earth.", "poster_path": "/eCjATHunhgLl9ARKUFtmKguaWDJ.jpg", "release_date": "2011-05-26", "title": "Melancholia", "video": false, "vote_average": 7.2, "vote_count": 1840, "popularity": 13.674}, {"id": 146015, "video": false, "vote_count": 598, "vote_average": 6.6, "title": "The Double", "release_date": "2014-04-04", "original_language": "en", "original_title": "The Double", "genre_ids": [18, 53], "backdrop_path": "/gSNqUnQSgYWxsFQ59xH077dW1Zx.jpg", "adult": false, "overview": "An awkward office drone becomes increasingly unhinged after a charismatic and confident look-alike takes a job at his workplace and seduces the woman he desires.", "poster_path": "/hN6bP9XWKHI8JhlZpk8ieF1lcyG.jpg", "popularity": 10.094}, {"id": 284276, "video": false, "vote_count": 614, "vote_average": 6.3, "title": "Cake", "release_date": "2014-09-07", "original_language": "en", "original_title": "Cake", "genre_ids": [18], "backdrop_path": "/iGRutrtJcsdk5y3xvVU8WewSowZ.jpg", "adult": false, "overview": "After having visions of a member of her support group who killed herself, a woman who also suffers with chronic pain seeks out the widower of the suicide.", "poster_path": "/wnX7WTcrwi30DyBusT1qJpQ8LzG.jpg", "popularity": 11.801}, {"id": 291270, "video": false, "vote_count": 1031, "vote_average": 7.1, "title": "Anomalisa", "release_date": "2015-12-30", "original_language": "en", "original_title": "Anomalisa", "genre_ids": [16, 35, 18, 10749], "backdrop_path": "/7gXheUIaNCGsp6kwhKqpLCBeqBm.jpg", "adult": false, "overview": "An inspirational speaker becomes reinvigorated after meeting a lively woman who shakes up his mundane existence.", "poster_path": "/5DpDEEb6UJUiSaXyNegYlCqsZdd.jpg", "popularity": 13.197}, {"id": 626, "video": false, "vote_count": 636, "vote_average": 7.5, "title": "Un Chien Andalou", "release_date": "1929-06-05", "original_language": "fr", "original_title": "Un chien andalou", "genre_ids": [18, 14, 27], "backdrop_path": "/5XUmngHuhc41kMwv7ZeRWaplcBl.jpg", "adult": false, "overview": "Un Chien Andalou is a classic European avant-garde surrealist film from the cooperation of director Luis Bu\u00f1uel and Salvador Dali. The film changed the way people made movies. Most famous is the scene of a woman\u2019s eye being cut with a knife.", "poster_path": "/r4OfwC3AcDJqqBg3ayD0w5KWKdV.jpg", "popularity": 11.634}, {"id": 10843, "video": false, "vote_count": 589, "vote_average": 7.5, "title": "After Hours", "release_date": "1985-09-13", "original_language": "en", "original_title": "After Hours", "genre_ids": [35, 18, 53], "backdrop_path": "/kygOSBC0V0uRE6zmIaOO50rG9eg.jpg", "adult": false, "overview": "An ordinary word processor has the worst night of his life after he agrees to visit a girl in Soho whom he met that evening at a coffee shop.", "poster_path": "/s5XkBqUMwE0wQv9NY0XERs64cgs.jpg", "popularity": 9.642}, {"id": 426249, "video": false, "vote_count": 119, "vote_average": 6.4, "title": "Lords of Chaos", "release_date": "2019-02-08", "original_language": "en", "original_title": "Lords of Chaos", "genre_ids": [35, 18, 27, 53], "backdrop_path": "/oaDTXNmyqeNEEBat3h4ijiu27jv.jpg", "adult": false, "overview": "A teenager's quest to launch Norwegian Black Metal in Oslo in the 1990s results in a very violent outcome.", "poster_path": "/y2eOIfQw2lLZov6aJZ3xpPjnRHH.jpg", "popularity": 8.868}, {"adult": false, "backdrop_path": "/u3kOcfdPhZXdYM1axAkU5sPYZS9.jpg", "genre_ids": [35, 18], "id": 43923, "original_language": "en", "original_title": "It's Kind of a Funny Story", "overview": "A clinically depressed teenager gets a new start after he checks himself into an adult psychiatric ward.", "poster_path": "/wADblWdHMk2SIaZRBazTGOTBf4w.jpg", "release_date": "2010-10-08", "title": "It's Kind of a Funny Story", "video": false, "vote_average": 7.0, "vote_count": 1492, "popularity": 14.302}, {"adult": false, "backdrop_path": "/6pj7xxdDbB2KA4rU6fEsM8z7s0e.jpg", "genre_ids": [18], "id": 339405, "original_language": "en", "original_title": "Christine", "overview": "The story of Christine Chubbuck, a 1970s TV reporter struggling with depression and professional frustrations as she tries to advance her career.", "poster_path": "/xji5lxzK4qJYHriyUutSISJVSAC.jpg", "release_date": "2016-10-14", "title": "Christine", "video": false, "vote_average": 6.7, "vote_count": 195, "popularity": 10.09}, {"id": 53487, "video": false, "vote_count": 682, "vote_average": 7.0, "title": "This Must Be the Place", "release_date": "2011-10-01", "original_language": "en", "original_title": "This Must Be the Place", "genre_ids": [18], "backdrop_path": "/aYKNl2YYxgqZY49oEaEt0qNjWHy.jpg", "adult": false, "overview": "A bored, retired rock star sets out to find his father's executioner, an ex-Nazi war criminal who is a refugee in the U.S.", "poster_path": "/rNTZMp96BcKIxgF3OIUbtByJtsQ.jpg", "popularity": 9.886}, {"id": 19236, "video": false, "vote_count": 171, "vote_average": 7.2, "title": "Santa Sangre", "release_date": "1989-05-01", "original_language": "en", "original_title": "Santa sangre", "genre_ids": [14, 27, 9648], "backdrop_path": "/ajJMm8z1iJj8PinEjcvINuN1ye7.jpg", "adult": false, "overview": "A young man is confined in a mental hospital. Through a flashback we see that he was traumatized as a child, when he and his family were circus performers: he saw his father cut off the arms of his mother, a religious fanatic and leader of the heretical church of Santa Sangre (\"Holy Blood\"), and then commit suicide. Back in the present, he escapes and rejoins his surviving and armless mother.", "poster_path": "/4g8AMbqh4evHQwI1td63TH5cZTb.jpg", "popularity": 8.15}, {"id": 14054, "video": false, "vote_count": 79, "vote_average": 6.5, "title": "Snow Angels", "release_date": "2008-03-07", "original_language": "en", "original_title": "Snow Angels", "genre_ids": [18, 10749], "backdrop_path": "/1NZW8l6OJslXIJkx9PpGCUNJdZn.jpg", "adult": false, "overview": "Waitress Annie has separated from her suicidal alcoholic husband, Glenn. Glenn has become an evangelical Christian, but his erratic attempts at getting back into Annie's life have alarmed her. High school student Arthur works at Annie's restaurant, growing closer to a new kid in town, Lila, after class. When Glenn and Annie's daughter go missing, the whole town searches for her, as he increasingly spirals out of control.", "poster_path": "/vpQQH3HlzEmhTcwijFG3Py6HN1j.jpg", "popularity": 12.138}, {"id": 590, "video": false, "vote_count": 965, "vote_average": 7.4, "title": "The Hours", "release_date": "2002-12-27", "original_language": "en", "original_title": "The Hours", "genre_ids": [18], "backdrop_path": "/ApsB4lgVmAWF3R9dqSReRCcODHl.jpg", "adult": false, "overview": "\"The Hours\" is the story of three women searching for more potent, meaningful lives. Each is alive at a different time and place, all are linked by their yearnings and their fears. Their stories intertwine, and finally come together in a surprising, transcendent moment of shared recognition.", "poster_path": "/vRTqBRCLGiZNITXfdhGZd3tZ7Qh.jpg", "popularity": 15.108}, {"adult": false, "backdrop_path": "/ynyQXqO9FuHchC0yDtjShlo6Ldx.jpg", "genre_ids": [18, 36, 53], "id": 842, "original_language": "en", "original_title": "The Assassination of Richard Nixon", "overview": "It\u2019s 1974 and Sam Bicke has lost everything. His wife leaves him with his three kids, his boss fires him, his brother turns away from him, and the bank won\u2019t give him any money to start anew. He tries to find someone to blame for his misfortunes and comes up with the President of the United States who he plans to murder.", "poster_path": "/5jOOvAVvP0XtwC5yYQpQCy4cjq1.jpg", "release_date": "2004-05-17", "title": "The Assassination of Richard Nixon", "video": false, "vote_average": 6.6, "vote_count": 156, "popularity": 9.21}, {"adult": false, "backdrop_path": "/wm7TBeMeuomoXW4kkDnsY2Na8pW.jpg", "genre_ids": [18, 10749], "id": 261, "original_language": "en", "original_title": "Cat on a Hot Tin Roof", "overview": "An alcoholic ex-football player drinks his days away hving failed to come to terms with his sexuality and his real feelings for his football buddy who died after an ambiguous accident. His wife is crucified by her desperation to make him desire her: but he resists the affections of his wife. His reunion with his father\u2014who is dying of cancer\u2014jogs a host of memories and revelations for both father and son.", "poster_path": "/vWf1AR8rC6WjGKELlmLv2VAUZJB.jpg", "release_date": "1958-02-17", "title": "Cat on a Hot Tin Roof", "video": false, "vote_average": 7.8, "vote_count": 367, "popularity": 13.516}, {"id": 152780, "video": false, "vote_count": 284, "vote_average": 7.3, "title": "The Past", "release_date": "2013-05-17", "original_language": "fr", "original_title": "Le pass\u00e9", "genre_ids": [18, 9648], "backdrop_path": "/ewD6siG8B0zKkhC1jdnLxtMoCC9.jpg", "adult": false, "overview": "After four years apart, Ahmad returns to his wife Marie in Paris in order to progress their divorce. During his brief stay, he cannot help noticing the strained relationship between Marie and her daughter Lucie. As he attempts to improve matters between mother and daughter Ahmad unwittingly lifts the lid on a long buried secret...", "poster_path": "/kjerwTkZJev6Ve5DS0hRbaOuVJb.jpg", "popularity": 13.752}, {"id": 343, "video": false, "vote_count": 529, "vote_average": 7.7, "title": "Harold and Maude", "release_date": "1971-12-20", "original_language": "en", "original_title": "Harold and Maude", "genre_ids": [35, 18, 10749], "backdrop_path": "/fJid19GoQFdbE4bRs0vk5RWYrfx.jpg", "adult": false, "overview": "The young Harold lives in his own world of suicide-attempts and funeral visits to avoid the misery of his current family and home environment. Harold meets an 80-year-old woman named Maude who also lives in her own world yet one in which she is having the time of her life. When the two opposites meet they realize that their differences don\u2019t matter and they become best friends and love each other.", "poster_path": "/xqay68babjK46U9WBFD2TmtnGcx.jpg", "popularity": 12.716}, {"adult": false, "backdrop_path": "/fk9rDUXhLKzhGgjO6oCOr4zYPcn.jpg", "genre_ids": [18], "id": 309, "original_language": "da", "original_title": "Festen", "overview": "A grandiose party to celebrate a sixtieth birthday unleashes a family drama with all the lies that conceal horrendous secrets. The eldest son, Christian, stages a showdown with the popular pater familias; his provocative, moving after-dinner speech dislodges all the masks, which finally fall completely as the father-son conflict intensifies and the bewildered guests look on.", "poster_path": "/b0YDV5j53Y5xRscI14UieetvNLB.jpg", "release_date": "1998-06-19", "title": "The Celebration", "video": false, "vote_average": 7.8, "vote_count": 442, "popularity": 10.666}, {"adult": false, "backdrop_path": "/5SfndOeIvT5MARImFmFycXrCWrq.jpg", "genre_ids": [14, 27], "id": 1483, "original_language": "en", "original_title": "Begotten", "overview": "Begotten is the creation myth brought to life, the story of no less than the violent death of God and the (re)birth of nature on a barren earth.", "poster_path": "/zMblKkXheWIzwrnKlUIWEX1eq4E.jpg", "release_date": "1991-06-05", "title": "Begotten", "video": false, "vote_average": 5.6, "vote_count": 128, "popularity": 8.434}, {"id": 4723, "video": false, "vote_count": 283, "vote_average": 5.1, "title": "Southland Tales", "release_date": "2006-05-15", "original_language": "en", "original_title": "Southland Tales", "genre_ids": [35, 878, 53], "backdrop_path": "/lkcBZcPjxukB64uZB4ToXHTFZuT.jpg", "adult": false, "overview": "Set in the futuristic landscape of Los Angeles on July 4, 2008, as it stands on the brink of social, economic and environmental disaster. Boxer Santaros is an action star who's stricken with amnesia. His life intertwines with Krysta Now, an adult film star developing her own reality television project, and Ronald Taverner, a Hermosa Beach police officer who holds the key to a vast conspiracy.", "poster_path": "/oYcJjhtLWJbgdlQMZFrH3LFYyhH.jpg", "popularity": 12.361}], "total_pages": 6, "total_results": 103}, "recommendations": {"page": 1, "results": [{"adult": false, "backdrop_path": "/77eZz3vkVAOSxhSIs2CIvKMVADQ.jpg", "genre_ids": [18, 10752], "id": 85715, "original_language": "ru", "original_title": "\u0410\u0440\u0441\u0435\u043d\u0430\u043b", "overview": "Set in the bleak aftermath and devastation of the World War I, a recently demobbed soldier, Timosh, returns to his hometown Kiev, after having survived a train wreck. His arrival coincides with a national celebration of Ukrainian freedom, but the festivities are not to last as a disenchanted.", "poster_path": "/cMe6zBJ12s3EAMi9agzTPUrTGye.jpg", "release_date": "1929-02-25", "title": "Arsenal", "video": false, "vote_average": 6.8, "vote_count": 19, "popularity": 3.789}, {"id": 104548, "video": false, "vote_count": 26, "vote_average": 8.2, "title": "Demons", "release_date": "1971-02-13", "original_language": "ja", "original_title": "\u4fee\u7f85", "genre_ids": [18, 27], "backdrop_path": "/q4oKrDG827eko32rGBd89t47YFz.jpg", "adult": false, "overview": "Gengobe Satsuma, an exiled samurai cast out as an Asano clan retainer is given a second chance to join his brothers in arms to become the 48th Ronin against the Shogunate. His faithful servant gathers the 100 ryo required for his acceptance. Gengobe is also in love with a greedy geisha named Koman. About to be sold to another man, Gengobe learns that for him to keep her, her debt is exactly 100 ryo.", "poster_path": "/3L1OY4xxu4x87MySnJeeT6uGeYH.jpg", "popularity": 5.126}, {"id": 100589, "video": false, "vote_count": 28, "vote_average": 7.5, "title": "Diamonds of the Night", "release_date": "1964-09-25", "original_language": "cs", "original_title": "D\u00e9manty noci", "genre_ids": [18, 53, 10752], "backdrop_path": "/hHV3hrWLCSaFhFLlZPk3rHIlNQV.jpg", "adult": false, "overview": "Diamonds in the night is the tense, brutal story of two Jewish boys who escape from a train transporting them from one concentration camp to another. Ultimately, they are hunted down by a group of old, armed home-guardists. The film goes beyond the themes of war and anti-Nazism and concerns itself with man's struggle to preserve human dignity.", "poster_path": "/djBsRTj1BlXCHDAQRAa2lkvxTMY.jpg", "popularity": 5.394}, {"adult": false, "backdrop_path": null, "genre_ids": [18], "id": 66178, "original_language": "en", "original_title": "Plastic Bag", "overview": "A plastic bag, thrown out in the trash, attempts to find his way back to his owner and along the way discovers the world.", "poster_path": "/kJwDoVY96Xbk1aVldBTedKsAT6X.jpg", "release_date": "2009-09-07", "title": "Plastic Bag", "video": false, "vote_average": 7.4, "vote_count": 17, "popularity": 2.108}, {"adult": false, "backdrop_path": null, "genre_ids": [10752, 36], "id": 269214, "original_language": "en", "original_title": "Chickamauga", "overview": "Chickamauga (1962) is another of Robert Enrico\u2019s three short films based on the Civil War stories of Ambrose Bierce. The withdrawal of hope at the end of An Occurrence at Owl Creek Bridge may seem bleak but that story is positively cheerful beside the horrors of Chickamauga in which a small deaf boy wanders from home to find a new playground in the aftermath of one of the bloodiest battles of the Civil War.", "poster_path": "/tGVQ3iW0eCkX3HrpqUAjlBo4ifV.jpg", "release_date": "1962-01-01", "title": "Chickamauga", "video": false, "vote_average": 7.4, "vote_count": 5, "popularity": 1.487}, {"adult": false, "backdrop_path": "/6tTASCDn8ioMCnbRPOxgdqv1Psf.jpg", "genre_ids": [18, 27], "id": 113458, "original_language": "pl", "original_title": "Matka Joanna od aniol\u00f3w", "overview": "A priest is sent to a small parish in the Polish countryside which is believed to be under demonic possession and there he finds his own temptations awaiting.", "poster_path": "/beSIaICNNqSgugIKWJyYWlLK8E1.jpg", "release_date": "1961-02-09", "title": "Mother Joan of the Angels", "video": false, "vote_average": 7.6, "vote_count": 38, "popularity": 2.791}, {"adult": false, "backdrop_path": "/gevbjFnbFtxv0T6ubF1RLt6rj0L.jpg", "genre_ids": [80, 18, 53], "id": 72083, "original_language": "es", "original_title": "Muerte de un ciclista", "overview": "A couple having an affair strike a bicyclist with their car and do not offer aid out of fear of their relationship being exposed.", "poster_path": "/3hwjBqHR63FoQgU7XaFz2rDYwUC.jpg", "release_date": "1955-05-08", "title": "Death of a Cyclist", "video": false, "vote_average": 7.3, "vote_count": 41, "popularity": 3.874}, {"adult": false, "backdrop_path": null, "genre_ids": [18], "id": 162453, "original_language": "kk", "original_title": "\u041a\u0430\u0439\u0440\u0430\u0442", "overview": "Living in Almaty, Kazakhstan, a young man is preparing to become a bus conductor. One day, in between wandering the city streets, and going to the movies, he makes the acquaintance of a female student.", "poster_path": "/qaJ1uXSFUiqVCOakXt4r2Inbu59.jpg", "release_date": "1992-08-01", "title": "Ka\u00efrat", "video": false, "vote_average": 5.9, "vote_count": 9, "popularity": 2.341}, {"adult": false, "backdrop_path": null, "genre_ids": [18], "id": 132141, "original_language": "pl", "original_title": "P\u0119tla", "overview": "After 10 years as a maker of short fiction, documentary &amp; science films, Has emerged to immediate success with his 1st feature, which covers a day in the life of an alcoholic. Adapted from a story by Marek Hlasko, the film initiates Has\u2019 recurrent obsession with the detailed odyssey of a character over a distinct passage of time. Nick Roddick called the potent climactic scene \u201cone of the most convincing portrayals of alco- holic abandon ever filmed\u201d, &amp; argued that this film, alongside The Saragossa Manuscript &amp; The Hourglass Sanatorium, \u201cconfirms Has\u2019s status as a neglected master\u201d.", "poster_path": "/g9gEYDy2HEj8i2rCLktaIBcL4dY.jpg", "release_date": "1958-01-19", "title": "The Noose", "video": false, "vote_average": 7.4, "vote_count": 11, "popularity": 1.841}, {"id": 118497, "video": false, "vote_count": 10, "vote_average": 7.4, "title": "Carriage to Vienna", "release_date": "1966-11-11", "original_language": "cs", "original_title": "Ko\u010d\u00e1r do V\u00eddn\u011b", "genre_ids": [18, 10752], "backdrop_path": "/oQpN9xKLSHF4KKWIafJ4OFhWkjE.jpg", "adult": false, "overview": "A WW2 story of a young Austrian soldier running from the Russian army and a woman whom he forces to come along in order to save his wounded mate.", "poster_path": "/1jmcbS1FplzBUVv8UX8kB1bsVw.jpg", "popularity": 2.92}, {"adult": false, "backdrop_path": null, "genre_ids": [18], "id": 92990, "original_language": "zh", "original_title": "\u9ec4\u571f\u5730", "overview": "Yellow earth focuses on the story of a Communist soldier who is sent to the countryside to collect folk songs for the Communist Revolution. There he stays with a peasant family and learns that the happy songs he was sent to collect do not exist; the songs he finds are about hardship and suffering. He returns to the Army, but promises to come back for the young girl, Cuiqiao, who has been spellbound by his talk of the freedom women have under Communist rule and who wants to join the Communist Army.", "poster_path": "/5Mvgvozei2xBC5LzXOYkdLC3ZPU.jpg", "release_date": "1984-08-19", "title": "Yellow Earth", "video": false, "vote_average": 7.4, "vote_count": 20, "popularity": 2.801}, {"adult": false, "backdrop_path": "/yyPjRZDX4pYKc4OWTWEK2zEhEQH.jpg", "genre_ids": [18], "id": 1561, "original_language": "fr", "original_title": "Mouchette", "overview": "A young girl living in the French countryside suffers constant indignities at the hand of alcoholism and her fellow man.", "poster_path": "/8HAn6m2cKZRkCh4VU0AoJ2X6WSZ.jpg", "release_date": "1967-03-28", "title": "Mouchette", "video": false, "vote_average": 7.6, "vote_count": 89, "popularity": 8.903}, {"adult": false, "backdrop_path": null, "genre_ids": [], "id": 93500, "original_language": "en", "original_title": "Arabesque", "overview": "John Whitney's pioneering work of computer animation, Arabesque, from 1975. This flowing, abstract short film is a wonder to behold, a work of art. Like many other computer graphics pioneers, this film suggests roots in psychedelics and spiritual quests as much as engineering and mathematics.", "poster_path": "/tInieA8jdx9iVMZQEWyw7txt6SH.jpg", "release_date": "1975-01-01", "title": "Arabesque", "video": false, "vote_average": 8.3, "vote_count": 4, "popularity": 0.6}, {"adult": false, "backdrop_path": null, "genre_ids": [], "id": 147681, "original_language": "en", "original_title": "Centuries of June", "overview": "Centuries of June, perhaps more than any Cornell film, is a naked attempt to capture the soul of a place and the mood of a disappearing moment.", "poster_path": "/ld8vtSGpKKHEU6nK6IvtVnuvLEv.jpg", "release_date": "1956-12-07", "title": "Centuries of June", "video": false, "vote_average": 4.0, "vote_count": 9, "popularity": 1.214}, {"id": 109380, "video": false, "vote_count": 5, "vote_average": 8.0, "title": "\u2026And the Fifth Horseman Is Fear", "release_date": "1965-02-12", "original_language": "cs", "original_title": "A p\u00e1t\u00fd jezdec je Strach", "genre_ids": [18, 10752], "backdrop_path": null, "adult": false, "overview": "A Jewish doctor helps a political fugitive during the Nazi occupation of Czechoslovakia.", "poster_path": "/noh5Xu16JpLTmccJIfZOm4m4lKH.jpg", "popularity": 1.214}, {"adult": false, "backdrop_path": "/5Lp6wLGXIcDIu63T79k5rkKZm0x.jpg", "genre_ids": [18], "id": 43001, "original_language": "fr", "original_title": "Cyb\u00e8le ou les dimanches de ville d'Avray", "overview": "The tragic story of a young orphan girl who is befriended by an innocent but emotionally disabled veteran of the French Indochina War.", "poster_path": "/S20qFHJVJiWtvB1dMvL23HVxzR.jpg", "release_date": "1962-11-12", "title": "Sundays and Cybele", "video": false, "vote_average": 7.7, "vote_count": 24, "popularity": 3.235}, {"id": 45698, "video": false, "vote_count": 38, "vote_average": 7.8, "title": "The Hourglass Sanatorium", "release_date": "1973-12-11", "original_language": "pl", "original_title": "Sanatorium pod klepsydr\u0105", "genre_ids": [18, 14, 27], "backdrop_path": "/a2ehRLFWVlcebprhQxys86uk7D6.jpg", "adult": false, "overview": "A young man named Josef visits a dilapidated Sanatorium to see his father Jakob.  On his arrival, a sinister doctor informs him that his father had stopped breathing but hasn't died yet, perhaps due to Josef's arrival which may have halted time in the sanatorium.  Josef undertakes a strange journey through the many rooms of the sanatorium, each which conjures worlds composed of his memories, dreams and nightmares", "poster_path": "/v5cTqMEzJD6ber1X18AAI5eM2Ql.jpg", "popularity": 5.321}, {"id": 18614, "video": false, "vote_count": 27, "vote_average": 7.3, "title": "Interrogation", "release_date": "1989-12-13", "original_language": "pl", "original_title": "Przes\u0142uchanie", "genre_ids": [18, 53], "backdrop_path": "/b65FSsgb6GQUOXOR0C0IHh4AoI2.jpg", "adult": false, "overview": "In Stalinist Poland, cabaret singer Tonia decides to spend the evening drinking with a group of friends. The next morning, she awakes to find that, for reasons unknown to her, she has been jailed as a political prisoner. As prison officials interrogate, torture and humiliate her, she fights for survival and to maintain her innocence by refusing to sign a false confession. As her years of imprisonment pass, her relationship with her captors grows more complicated.", "poster_path": "/5NoUH7ZuVrO0ed4mfFOlo2ZQrJ4.jpg", "popularity": 3.465}, {"id": 18352, "video": false, "vote_count": 83, "vote_average": 7.8, "title": "The Cremator", "release_date": "1969-03-14", "original_language": "cs", "original_title": "Spalova\u010d mrtvol", "genre_ids": [18, 27, 53], "backdrop_path": "/fMjdPM3pdc7T0NVoVqXtXEuJvG2.jpg", "adult": false, "overview": "Kopfrkingl enjoys his job at a crematorium in Czechoslovakia in the late 1930s. He likes reading the Tibetan book of the dead, and espouses the view that cremation relieves earthly suffering.", "poster_path": "/9or2Jzw9HOE4gp9niwXBkZdpTVx.jpg", "popularity": 7.87}, {"adult": false, "backdrop_path": "/jL1GdKKsZ5lyMtlLVKKqzs23yow.jpg", "genre_ids": [18, 35, 16], "id": 86517, "original_language": "en", "original_title": "It's Such a Beautiful Day", "overview": "The concluding chapter of Don Hertzfeldt's animated trilogy of shorts about a man named Bill and his wavering mental state.", "poster_path": "/3fMBsqK2D5sDXfTEtetgIIl6tXA.jpg", "release_date": "2011-11-17", "title": "It's Such a Beautiful Day", "video": false, "vote_average": 8.2, "vote_count": 45, "popularity": 4.205}], "total_pages": 2, "total_results": 40}, "credits": {"cast": [{"cast_id": 2, "character": "Man", "credit_id": "55512b44c3a3684191001287", "gender": 2, "id": 37764, "name": "Jacques Spiesser", "order": 1, "profile_path": "/dsuU4KIb8Av5rGk5T605S7utlpg.jpg"}, {"cast_id": 3, "character": "Narrator", "credit_id": "55512b58c3a36834e1002b27", "gender": 1, "id": 117884, "name": "Ludmila Mika\u00ebl", "order": 2, "profile_path": "/vUmMYZJCwIrRSuOmPrpWM7nKITH.jpg"}], "crew": [{"credit_id": "52fe4a2cc3a36847f81be99d", "department": "Directing", "gender": 0, "id": 1075844, "job": "Director", "name": "Bernard Queysanne", "profile_path": null}, {"credit_id": "591ebb409251414add02f5f8", "department": "Writing", "gender": 2, "id": 545583, "job": "Screenplay", "name": "Georges Perec", "profile_path": null}, {"credit_id": "5ccdee829251417cce28116c", "department": "Crew", "gender": 2, "id": 19168, "job": "Cinematography", "name": "Bernard Zitzermann", "profile_path": null}, {"credit_id": "5ccdeed192514104812a1334", "department": "Sound", "gender": 0, "id": 2304740, "job": "Music", "name": "Philippe Drogoz", "profile_path": null}, {"credit_id": "5ccdef01c3a36836c1de6e5d", "department": "Sound", "gender": 0, "id": 2304746, "job": "Music", "name": "Eug\u00e9nie Kuffler", "profile_path": null}, {"credit_id": "5ccdef38c3a36836b0debc7b", "department": "Production", "gender": 0, "id": 1305718, "job": "Producer", "name": "Pierre Neurrisse", "profile_path": null}, {"credit_id": "5d7f114b6905fb5708b7e857", "department": "Editing", "gender": 0, "id": 1158026, "job": "Editor", "name": "Andr\u00e9e Davanture", "profile_path": "/uhLcjEf2mNzlORwvfyqGnZS4g7Z.jpg"}, {"credit_id": "5d7f1156c5430400119655d2", "department": "Editing", "gender": 0, "id": 2412071, "job": "Editor", "name": "Agn\u00e8s Molinard", "profile_path": null}]}}