{"adult": false, "backdrop_path": null, "belongs_to_collection": null, "budget": 0, "genres": [{"id": 35, "name": "Comedy"}, {"id": 27, "name": "Horror"}], "homepage": "", "id": 104462, "imdb_id": "tt0000131", "original_language": "fr", "original_title": "Une nuit terrible", "overview": "A man tries to get a good night's sleep, but is disturbed by a giant spider that leaps onto his bed, and a battle ensues in hilarious comic fashion.", "popularity": 1.34, "poster_path": "/vt9SZQuFLI7ujIQtuD3X55HBl8I.jpg", "production_companies": [{"id": 45867, "logo_path": null, "name": "Star Film Company", "origin_country": ""}], "production_countries": [{"iso_3166_1": "FR", "name": "France"}], "release_date": "1896-01-01", "revenue": 0, "runtime": 1, "spoken_languages": [{"iso_639_1": "xx", "name": "No Language"}], "status": "Released", "tagline": "", "title": "A Terrible Night", "video": false, "vote_average": 5.5, "vote_count": 31, "keywords": {"keywords": [{"id": 332, "name": "insect"}, {"id": 1890, "name": "camping"}, {"id": 3303, "name": "bedroom"}, {"id": 3501, "name": "bed"}, {"id": 3872, "name": "broom"}, {"id": 3888, "name": "giant spider"}, {"id": 7035, "name": "giant insect"}, {"id": 154802, "name": "silent film"}, {"id": 157337, "name": "inn"}, {"id": 207928, "name": "19th century"}, {"id": 211608, "name": "chamber pot"}]}, "similar": {"page": 1, "results": [{"id": 6114, "video": false, "vote_count": 2611, "vote_average": 7.4, "title": "Dracula", "release_date": "1992-11-13", "original_language": "en", "original_title": "Dracula", "genre_ids": [27, 10749], "backdrop_path": "/hm2stwkNFAaXMEeetJS2RZ77zC1.jpg", "adult": false, "overview": "When Dracula leaves the captive Jonathan Harker and Transylvania for London in search of Mina Harker\u2014the reincarnation of Dracula's long-dead wife, Elisabeta\u2014obsessed vampire hunter Dr. Van Helsing sets out to end the madness.", "poster_path": "/ioHxm3D3JdSXR61LRhcVb8KdZOz.jpg", "popularity": 21.922}, {"adult": false, "backdrop_path": "/gNdbzXwf3StDHDmo7q54ICQJ9tU.jpg", "genre_ids": [14, 27, 53, 878], "id": 4961, "original_language": "en", "original_title": "Mimic", "overview": "A disease carried by common cockroaches is killing Manhattan children. In an effort to stop the epidemic an entomologist, Susan Tyler, creates a mutant breed of insect that secretes a fluid to kill the roaches. This mutant breed was engineered to die after one generation, but three years later Susan finds out that the species has survived and evolved into a large, gruesome monster that can mimic human form.", "poster_path": "/tkmSgkekKleTx46a1ERny967Ws5.jpg", "release_date": "1997-08-22", "title": "Mimic", "video": false, "vote_average": 5.9, "vote_count": 486, "popularity": 13.374}, {"adult": false, "backdrop_path": "/twGxeStlGooWV3gP6ZIcSNuQ6jf.jpg", "genre_ids": [12, 16, 10751, 14], "id": 81684, "original_language": "en", "original_title": "The Gruffalo's Child", "overview": "A follow up to the 2009 animated feature and adapted from the childrens' book by Julia Donaldson and Alex Scheffler.  The Gruffalo's child explores the deep dark wood in search of the big bad mouse and meets the Snake, Owl and Fox in the process.  She eventually finds the mouse, who manages to outwit her like the Gruffalo before!", "poster_path": "/qaGH2AoaLvoGXURQtNzj1nw6oZd.jpg", "release_date": "2011-12-25", "title": "The Gruffalo's Child", "video": false, "vote_average": 6.9, "vote_count": 73, "popularity": 9.51}, {"adult": false, "backdrop_path": "/43TK5GtHUiPelQpnSX0bl9ONLh0.jpg", "genre_ids": [16, 35, 10751], "id": 54553, "original_language": "en", "original_title": "Home Makeover", "overview": "The Minions have to make Gru's home safe for the children, before Child Services arrive!", "poster_path": "/uRlT6hzUE6pMCtSsUhKd7OtjD1l.jpg", "release_date": "2010-12-13", "title": "Home Makeover", "video": false, "vote_average": 6.9, "vote_count": 97, "popularity": 11.492}, {"id": 54559, "video": false, "vote_count": 123, "vote_average": 6.9, "title": "Minions: Orientation Day", "release_date": "2010-12-13", "original_language": "en", "original_title": "Minions: Orientation Day", "genre_ids": [16, 35, 10751], "backdrop_path": "/8BueE3xOMMd2Z2ix6ayqj2uPIGL.jpg", "adult": false, "overview": "With so many jobs to choose from, the Minions have to make serious decisions after watching an 'Initiation Video'. What could go wrong?!", "poster_path": "/u1gyqMqRvdwj49vsBLRBGBs4Yoi.jpg", "popularity": 9.749}, {"adult": false, "backdrop_path": "/hPByrqJXCXIViFheXQh48wtI7T6.jpg", "genre_ids": [16, 12, 14, 10751], "id": 31135, "original_language": "en", "original_title": "Mickey Mouse: Mickey and the Beanstalk", "overview": "Based on the timeless adventures of \"Jack and the Beanstalk,\" Mickey, Donald and Goofy climb a fantastic beanstalk up into the sky to a place where everything is huge -- the food, the castle and the fearsome giant named Willy who guards a beautiful golden harp! Will Mickey and his friends outwit the giant and make it safely back home?", "poster_path": "/kk1Xg1f1lv6loekjlKinpKJlGOu.jpg", "release_date": "1947-09-27", "title": "Mickey Mouse: Mickey and the Beanstalk", "video": false, "vote_average": 6.7, "vote_count": 166, "popularity": 13.649}, {"adult": false, "backdrop_path": "/2CR4OT6Ou4axUfThbJ6sbnMGWWm.jpg", "genre_ids": [12, 14, 878], "id": 775, "original_language": "fr", "original_title": "Le Voyage dans la Lune", "overview": "Professor Barbenfouillis and five of his colleagues from the Academy of Astronomy travel to the Moon aboard a rocket propelled by a giant cannon. Once on the lunar surface, the bold explorers face the many perils hidden in the caves of the mysterious satellite.", "poster_path": "/zztHYAfSecYuaDyIjQudjKaOLLY.jpg", "release_date": "1902-09-01", "title": "A Trip to the Moon", "video": false, "vote_average": 8.0, "vote_count": 822, "popularity": 12.649}, {"adult": false, "backdrop_path": "/wdMq7F5Cr1DGg8ioNPZvWxqQer4.jpg", "genre_ids": [878, 14], "id": 76535, "original_language": "en", "original_title": "Marvel One-Shot: A Funny Thing Happened on the Way to Thor's Hammer", "overview": "Agent Coulson stops at a convenience store and deals with a coincidental robbery during his visit.", "poster_path": "/5uGaqAnt0RQ87uKy8UlRDNrL2jY.jpg", "release_date": "2011-10-25", "title": "Marvel One-Shot: A Funny Thing Happened on the Way to Thor's Hammer", "video": false, "vote_average": 7.1, "vote_count": 181, "popularity": 11.889}, {"id": 5698, "video": false, "vote_count": 268, "vote_average": 7.1, "title": "The Great Train Robbery", "release_date": "1903-12-01", "original_language": "en", "original_title": "The Great Train Robbery", "genre_ids": [28, 12, 80, 37], "backdrop_path": "/9GO8h44nckngDtdJ6R1QfIsl43j.jpg", "adult": false, "overview": "The clerk at the train station is assaulted and left tied by four men, then they rob the train threatening the operator. (They) take all the money and shoot a passenger when trying to run away. A little girl discovers the clerk tied and gives notice to the sheriff, who at once goes along with his men hunting the bandits.", "poster_path": "/uf7Hr1wuUh4T83Ifg5pVpwTqRdI.jpg", "popularity": 11.231}, {"id": 54551, "video": false, "vote_count": 191, "vote_average": 7.1, "title": "Banana", "release_date": "2010-12-13", "original_language": "en", "original_title": "Banana", "genre_ids": [16, 35, 10751], "backdrop_path": "/byw8CLHK87KRrLrCcFGf55dRjB6.jpg", "adult": false, "overview": "The Minions fight over a delicious banana.. but is that all they want?!", "poster_path": "/afIcxtzw37hunY6VkQw0DqKslO7.jpg", "popularity": 9.764}, {"id": 17963, "video": false, "vote_count": 93, "vote_average": 6.7, "title": "Gone Nutty", "release_date": "2002-10-21", "original_language": "en", "original_title": "Gone Nutty", "genre_ids": [16, 35], "backdrop_path": "/83uvnsfFIHvKQQwcfqtxWZv8RFR.jpg", "adult": false, "overview": "Scrat tries to finish his rather large collection of acorns when things start going nutty.", "poster_path": "/uK111YcLeGmfJOWEetRmyiRvfya.jpg", "popularity": 12.017}, {"id": 234567, "video": false, "vote_count": 130, "vote_average": 7.6, "title": "Get a Horse!", "release_date": "2013-11-27", "original_language": "en", "original_title": "Get a Horse!", "genre_ids": [16, 10751], "backdrop_path": "/pHKhvWkI65I579uXvIU2TcIxIRe.jpg", "adult": false, "overview": "Mickey, Minnie, Horace Horsecollar, and Clarabelle Cow go on a musical wagon ride until Peg-Leg Pete tries to run them off the road.", "poster_path": "/gJD2wDa5gGUTQITW9ZfjckxSBEs.jpg", "popularity": 8.087}, {"id": 34276, "video": false, "vote_count": 60, "vote_average": 6.2, "title": "First Men in the Moon", "release_date": "1964-07-01", "original_language": "en", "original_title": "First Men in the Moon", "genre_ids": [12, 878], "backdrop_path": "/sQ3JgHdQqnHOsRbJPriqUPWMwv1.jpg", "adult": false, "overview": "Based on the HG Wells story. The world is delighted when a space craft containing a crew made up of the world's astronauts lands on the moon, they think for the first time. But the delight turns to shock when the astronauts discover an old British flag and a document declaring that the moon is taken for Queen Victoria proving that the astronauts were not the first men on the moon.", "poster_path": "/fdW4qa6R3waKFoXchFP2lIEl3DA.jpg", "popularity": 9.874}, {"adult": false, "backdrop_path": "/wwwkeSqtU4Agi7HFp1NvtZCD5IJ.jpg", "genre_ids": [99], "id": 17700, "original_language": "en", "original_title": "Deep Sea 3D", "overview": "Sea life in a whole new way. Deep Sea 3D, an underwater adventure from the filmmakers behind the successful IMAX\u00ae 3D film Into the Deep, transports audiences deep below the ocean surface. Through the magic of IMAX\u00ae; and IMAX 3D, moviegoers will swim with some of the planets most unique, dangerous and colorful creatures, and understand this inspiring underworld.", "poster_path": "/2UglT7JjN6o7dYni4G16NYOFRJO.jpg", "release_date": "2006-03-03", "title": "Deep Sea 3D", "video": false, "vote_average": 6.5, "vote_count": 40, "popularity": 6.367}, {"id": 630322, "video": false, "vote_count": 35, "vote_average": 7.2, "title": "Battle at Big Rock", "release_date": "2019-09-15", "original_language": "en", "original_title": "Battle at Big Rock", "genre_ids": [28, 12, 878, 10770], "backdrop_path": "/iiu2uXbqAf2LXmEWqAqcnzaWjcu.jpg", "adult": false, "overview": "A family's camping trip at Big Rock National Park is disrupted by dinosaurs.", "poster_path": "/llnKykkow6C5viJsTeHfUTMQptI.jpg", "popularity": 5.372}, {"id": 36208, "video": false, "vote_count": 144, "vote_average": 7.5, "title": "A Dog's Life", "release_date": "1918-04-14", "original_language": "en", "original_title": "A Dog's Life", "genre_ids": [35, 18], "backdrop_path": "/nhdKUNC6diqOAMtZdudttvguBb1.jpg", "adult": false, "overview": "The Tramp and his dog companion struggle to survive in the inner city.", "poster_path": "/fCjliYnnHFGqw9roMINAfADf0cv.jpg", "popularity": 7.997}, {"adult": false, "backdrop_path": "/kz2VjnTOcbqBLc6Q5o7xlH9w0PM.jpg", "genre_ids": [35], "id": 47653, "original_language": "en", "original_title": "The Immigrant", "overview": "An European immigrant endures a challenging voyage only to get into trouble as soon as he arrives in New York.", "poster_path": "/eQokuAbdbmx1KICBtvQdm4V7SeC.jpg", "release_date": "1917-06-17", "title": "The Immigrant", "video": false, "vote_average": 7.4, "vote_count": 134, "popularity": 7.822}, {"adult": false, "backdrop_path": "/dBW6aXW5wVGwhvOJrIAdJjEgNOE.jpg", "genre_ids": [10749, 18], "id": 86467, "original_language": "en", "original_title": "Bel Ami", "overview": "Georges Duroy travels through 1890s Paris, from cockroach ridden garrets to opulent salons, using his wits and powers of seduction to rise from poverty to wealth, from a prostitute\u2019s embrace to passionate trysts with wealthy beauties, in a world where politics and media jostle for influence, where sex is power and celebrity an obsession.", "poster_path": "/59bgVtpX6MPy2d5zberJiRNkDDx.jpg", "release_date": "2012-03-09", "title": "Bel Ami", "video": false, "vote_average": 5.2, "vote_count": 335, "popularity": 9.102}, {"adult": false, "backdrop_path": "/fgKoKVw0f2X2ajilfoyra3LFrwo.jpg", "genre_ids": [35], "id": 23282, "original_language": "en", "original_title": "One Week", "overview": "The story involves two newlyweds, Keaton and Seely, who receive a build-it-yourself house as a wedding gift. The house can be built, supposedly, in \"one week.\" A rejected suitor secretly re-numbers packing crates. The movie recounts Keaton's struggle to assemble the house according to this new \"arrangement.\"", "poster_path": "/fNNznok8XCKveeXHDYpIWLc9BWo.jpg", "release_date": "1920-09-01", "title": "One Week", "video": false, "vote_average": 8.0, "vote_count": 109, "popularity": 6.824}, {"adult": false, "backdrop_path": "/jFLbFOQ0ao4TB8s5ZX0u9ks52dS.jpg", "genre_ids": [35], "id": 2078, "original_language": "en", "original_title": "The Pawnshop", "overview": "A pawnbroker's assistant deals with his grumpy boss, his annoying co-worker and some eccentric customers as he flirts with the pawnbroker's daughter, until a perfidious crook with bad intentions arrives at the pawnshop.", "poster_path": "/gBKc0hxfrlLr2YQLnq16fzadusM.jpg", "release_date": "1916-10-02", "title": "The Pawnshop", "video": false, "vote_average": 6.9, "vote_count": 47, "popularity": 4.702}], "total_pages": 102, "total_results": 2026}, "recommendations": {"page": 1, "results": [{"id": 104469, "video": false, "vote_count": 32, "vote_average": 5.9, "title": "A Nightmare", "release_date": "1896-01-01", "original_language": "xx", "original_title": "Le Cauchemar", "genre_ids": [27], "backdrop_path": "/z4MKfw91YvTM1nnZ57wZJ4VKPeh.jpg", "adult": false, "overview": "A man has a fantastical nightmare involving, among other things, a grinning malevolent moon.", "poster_path": "/9JwGrmvLUP0jDVL8s7Le4pLDBi1.jpg", "popularity": 1.822}, {"adult": false, "backdrop_path": null, "genre_ids": [14], "id": 104476, "original_language": "fr", "original_title": "L'Auberge ensorcel\u00e9e", "overview": "A weary traveler stops at an inn along the way to get a good night's sleep, but his rest is interrupted by odd happenings when he gets to his room--beds vanishing and re-appearing, candles exploding, pants flying through the air and his shoes walking away by themselves.", "poster_path": "/utYyznVhCNt8doNuMg56JL455Pd.jpg", "release_date": "1897-01-01", "title": "The Bewitched Inn", "video": false, "vote_average": 6.4, "vote_count": 23, "popularity": 1.692}, {"id": 104471, "video": false, "vote_count": 26, "vote_average": 5.6, "title": "The Haunted Castle", "release_date": "1897-01-01", "original_language": "fr", "original_title": "Le ch\u00e2teau hant\u00e9", "genre_ids": [27], "backdrop_path": null, "adult": false, "overview": "A man has an encounter with several spooky apparitions in a castle that is evidently owned by the Devil.", "poster_path": "/6nHr8cXcmaGMEfxzg6rcDsKTobU.jpg", "popularity": 2.357}, {"id": 104473, "video": false, "vote_count": 15, "vote_average": 5.0, "title": "The Surrender of Tournavos", "release_date": "1897-01-01", "original_language": "en", "original_title": "La prise de Tournavos", "genre_ids": [28, 18, 36, 10752], "backdrop_path": null, "adult": false, "overview": "Three military men, seen inside a fortification, are firing on an unseen enemy force. The call for reinforcements but ladders appear signalling the enemy is about to overrun this position.", "poster_path": "/c5R7BJukX0pj1xJekSquoaMA6on.jpg", "popularity": 1.456}, {"id": 104474, "video": false, "vote_count": 18, "vote_average": 5.4, "title": "Between Calais and Dover", "release_date": "1897-01-01", "original_language": "fr", "original_title": "Entre Calais et Douvres", "genre_ids": [], "backdrop_path": null, "adult": false, "overview": "A rocky sea voyage as reenacted by Georges M\u00e9li\u00e8s.", "poster_path": "/8FdUjWwVsWmtneRYmmhQigTs6AM.jpg", "popularity": 1.554}, {"id": 104704, "video": false, "vote_count": 26, "vote_average": 6.2, "title": "The Devil in a Convent", "release_date": "1899-01-01", "original_language": "fr", "original_title": "Le Diable au couvent", "genre_ids": [35, 14, 27], "backdrop_path": null, "adult": false, "overview": "A priest is officiating at a convent, when suddenly he is transformed into the devil, who frightens away the nuns and turns the place into a outlet of Pandemonium.", "poster_path": "/ntX9KQwyExY0bNz1OBY9aYQ6Kla.jpg", "popularity": 2.025}, {"adult": false, "backdrop_path": null, "genre_ids": [35, 14], "id": 104697, "original_language": "fr", "original_title": "Guillaume Tell et le Clown", "overview": "The scene opens in an artist's studio where the unfinished statue of William Tell stands upon a pedestal. A clown appears and sticks a clay arm and clay head on the statue, thus completing it. He places a large brick on top of the head to make it stick. When he turns his back the statue turns into a living representation of William Tell. (Edison Catalog)", "poster_path": "/pRecX1Ekr1CSyly2VToB4X5BoxG.jpg", "release_date": "1898-01-01", "title": "Adventures of William Tell", "video": false, "vote_average": 5.4, "vote_count": 16, "popularity": 1.23}, {"adult": false, "backdrop_path": null, "genre_ids": [14], "id": 104706, "original_language": "fr", "original_title": "La colonne de feu", "overview": "A devil wearing bat-like wings and brandishing a trident dances around a giant pot, conjuring forth flame from his trident to lit a fire beneath the pot. After the devil works the fire with bellows, an angelic woman emerges from the pot. The devil and the pot vanish as the woman performs a dance, waving about her diaphanous sleeves until she conjures forth another fire, then she rises amongst the smoke into the air.", "poster_path": "/79Mewu1YmnUdB0SPswikYyyPuHZ.jpg", "release_date": "1899-01-01", "title": "The Pillar of Fire", "video": false, "vote_average": 5.4, "vote_count": 17, "popularity": 1.085}, {"adult": false, "backdrop_path": null, "genre_ids": [14], "id": 104922, "original_language": "fr", "original_title": "Le portrait myst\u00e9rieux", "overview": "A magician produces a living portrait of himself.", "poster_path": "/pVoFCxqZognBAi5QSsbukvsO1Yu.jpg", "release_date": "1899-01-01", "title": "The Mysterious Portrait", "video": false, "vote_average": 5.9, "vote_count": 15, "popularity": 1.148}, {"adult": false, "backdrop_path": null, "genre_ids": [14, 18], "id": 96186, "original_language": "fr", "original_title": "Le Magicien", "overview": "In this scene is shown a magician behind an ordinary table, upon which he suddenly and mysteriously causes to appear a large box, into which he leaps. The sides of the box fall to the ground, but instead of containing the magician a lively clown steps forth who further mystifies the audience by causing the box to disappear, and in its place is seen a fully laid table with a smoking dinner, to which the clown applies himself. The table, however, suddenly disappears much to the astonishment of the clown, who is confronted by the magician in the garb of Mephistopheles. This he suddenly changes to that of a sculptor, and in the background is seen a pedestal with the bust of a young lady, which comes to life as the sculptor applies the mallet and chisel.", "poster_path": "/9E5I28UpWAVJ5YTGp5wSC9hhV6h.jpg", "release_date": "1898-01-01", "title": "The Magician", "video": false, "vote_average": 6.1, "vote_count": 17, "popularity": 1.305}, {"id": 107439, "video": false, "vote_count": 15, "vote_average": 5.3, "title": "The Devil and the Statue", "release_date": "1901-01-01", "original_language": "fr", "original_title": "Le diable g\u00e9ant ou Le miracle de la madonne", "genre_ids": [18, 14, 27, 10749], "backdrop_path": null, "adult": false, "overview": "At the beginning of the scene Romeo in his gondola sings to Juliet a sentimental song, then goes away. Hardly has he departed when the colonnade falls to pieces, disclosing the devil. Juliet, frightened, runs to the window and calls Romeo. The latter attempts to enter and protect his fianc\u00e9e, but at a gesture from the devil the window is instantly covered with a grating and Romeo makes frantic efforts to break it. The devil begins to dance a wild dance before Juliet, who is beside herself from terror. The devil gradually becomes the size of a giant (a novel effect). Juliet implores the statue of Madonna, which becomes animated, descends from its pedestal, and stretching out its arms orders the devil to disappear. (M\u00e9li\u00e8s Catalog)", "poster_path": "/nQFQhzspDaJuWCH9NjUygfItVWb.jpg", "popularity": 1.447}, {"adult": false, "backdrop_path": null, "genre_ids": [9648], "id": 104466, "original_language": "fr", "original_title": "Escamotage d'une dame chez Robert-Houdin", "overview": "Georges M\u00e9li\u00e8s makes a woman disappear, then reappear.", "poster_path": "/4cBGa84HpYFpOCdjFMKPuIdSvcF.jpg", "release_date": "1896-01-01", "title": "The Vanishing Lady", "video": false, "vote_average": 6.1, "vote_count": 49, "popularity": 2.619}, {"id": 104477, "video": false, "vote_count": 34, "vote_average": 5.1, "title": "After the Ball", "release_date": "1897-01-01", "original_language": "fr", "original_title": "Apr\u00e8s le Bal", "genre_ids": [], "backdrop_path": null, "adult": false, "overview": "A woman arrives home after the ball. Her servant helps her undress and bathe.", "poster_path": "/dnbzkJLsUjRuPThXesWiVpE9Nw7.jpg", "popularity": 2.7}, {"adult": false, "backdrop_path": null, "genre_ids": [80, 35], "id": 194601, "original_language": "fr", "original_title": "Sur les toits", "overview": "Two crooks throw a lady off a roof, and a hapless policeman tries to capture them.", "poster_path": "/jElOYmaqSJblubEqOxr6xb4KeAo.jpg", "release_date": "1897-05-18", "title": "On the Roofs", "video": false, "vote_average": 5.1, "vote_count": 15, "popularity": 0.911}, {"adult": false, "backdrop_path": null, "genre_ids": [35], "id": 114117, "original_language": "fr", "original_title": "D\u00e9fense d'afficher", "overview": "", "poster_path": "/58XeNtHvb7g6bKDnPruBpCJW5Jj.jpg", "release_date": "1896-01-01", "title": "Post No Bills", "video": false, "vote_average": 5.5, "vote_count": 21, "popularity": 2.531}, {"adult": false, "backdrop_path": null, "genre_ids": [14], "id": 106806, "original_language": "fr", "original_title": "Le r\u00eave de No\u00ebl", "overview": "The entire story of Christmastide is here depicted. The scene opens in a large boudoir of an apparently wealthy man's home. His children, assisted by their governess, are about to retire. Before lying down they hang up their stockings on the edge of the bed. The picture changes and night appears. We see the housetops of the town and angels are flying about depositing packages in each of the chimneys. (Edison Catalog)", "poster_path": "/dvjlUW8vbFIXYeHAFZrtmUO8yIy.jpg", "release_date": "1900-08-08", "title": "The Christmas Dream", "video": false, "vote_average": 5.3, "vote_count": 14, "popularity": 1.522}, {"id": 104460, "video": false, "vote_count": 26, "vote_average": 4.7, "title": "Playing Cards", "release_date": "1896-01-01", "original_language": "fr", "original_title": "Une partie de cartes", "genre_ids": [99], "backdrop_path": "/6IiM0sQ6kaAcszHAAEHR5rmeZG7.jpg", "adult": false, "overview": "Three friends are playing cards in a beer garden. One of them orders drinks. The waitress comes back with a bottle of wine and three glasses on a tray. The man serves his friends. They clink glasses and drink. Then the man asks for a newspaper. He reads a funny story in it and the three friends burst out laughing while the waitress merely smiles.", "poster_path": "/nKoDwAu1aSzYE1I4NZVVembZDjP.jpg", "popularity": 1.548}, {"id": 96701, "video": false, "vote_count": 20, "vote_average": 5.9, "title": "The Infernal Cakewalk", "release_date": "1903-06-12", "original_language": "fr", "original_title": "Le cake-walk infernal", "genre_ids": [35, 14], "backdrop_path": null, "adult": false, "overview": "Pluto, having seen the earth, comes back home amazed at the success of that well-known dance, the \"cake-walk.\" He has brought back with him two noted well-known dancers, who start their favorite dance amidst the flames.", "poster_path": "/8tyeCWZhCWrub5nOuTMG90xJ44c.jpg", "popularity": 1.126}, {"id": 104480, "video": false, "vote_count": 13, "vote_average": 5.7, "title": "Divers at Work on the Wreck of the \"Maine\"", "release_date": "1898-01-01", "original_language": "fr", "original_title": "Visite sous-marine du Maine", "genre_ids": [], "backdrop_path": null, "adult": false, "overview": "Divers go to work on a wrecked ship (the battleship Maine that was blown up in Havana harbour during the Spanish-American War), surrounded by curiously disproportionate fish.", "poster_path": "/duiuY8xi0fPCBegpWyToUQiZYSX.jpg", "popularity": 0.755}, {"adult": false, "backdrop_path": null, "genre_ids": [35, 14], "id": 107258, "original_language": "fr", "original_title": "Dislocation myst\u00e9rieuse", "overview": "A clown performs various feats of magic based on his ability to detach and reattach different parts of his body.", "poster_path": "/qFQnvjce84Or9GshmWW7TPFW8wY.jpg", "release_date": "1901-01-01", "title": "An Extraordinary Dislocation", "video": false, "vote_average": 5.8, "vote_count": 12, "popularity": 1.075}], "total_pages": 2, "total_results": 40}, "credits": {"cast": [{"cast_id": 2, "character": "L'homme qui essaie de dormir", "credit_id": "52fe4a35c3a36847f81c0f2f", "gender": 2, "id": 11523, "name": "Georges M\u00e9li\u00e8s", "order": 0, "profile_path": "/cjQ3IvPbkNArGjhj4dkGqEwOgdW.jpg"}], "crew": [{"credit_id": "52fe4a35c3a36847f81c0f2b", "department": "Directing", "gender": 2, "id": 11523, "job": "Director", "name": "Georges M\u00e9li\u00e8s", "profile_path": "/cjQ3IvPbkNArGjhj4dkGqEwOgdW.jpg"}, {"credit_id": "52fe4a35c3a36847f81c0f41", "department": "Art", "gender": 2, "id": 11523, "job": "Production Design", "name": "Georges M\u00e9li\u00e8s", "profile_path": "/cjQ3IvPbkNArGjhj4dkGqEwOgdW.jpg"}, {"credit_id": "52fe4a35c3a36847f81c0f3b", "department": "Production", "gender": 2, "id": 11523, "job": "Producer", "name": "Georges M\u00e9li\u00e8s", "profile_path": "/cjQ3IvPbkNArGjhj4dkGqEwOgdW.jpg"}, {"credit_id": "52fe4a35c3a36847f81c0f35", "department": "Writing", "gender": 2, "id": 11523, "job": "Writer", "name": "Georges M\u00e9li\u00e8s", "profile_path": "/cjQ3IvPbkNArGjhj4dkGqEwOgdW.jpg"}, {"credit_id": "55d75e9ec3a3684386002559", "department": "Sound", "gender": 0, "id": 1498981, "job": "Music", "name": "Frederick Hodges", "profile_path": null}]}}