{"adult": false, "backdrop_path": "/le0hnFq01MjWsEQUCHzKWOI8WAu.jpg", "belongs_to_collection": null, "budget": 0, "genres": [{"id": 18, "name": "Drama"}, {"id": 10749, "name": "Romance"}], "homepage": null, "id": 104659, "imdb_id": "tt0081528", "original_language": "en", "original_title": "A Small Circle of Friends", "overview": "In the late 1960s, three Harvard students Jessica (Karen Allen), Leo (Brad Davis) and Nick (Jameson Parker) grow close as they undergo personal changes, but their friendship is jeopardized by romantic feelings both men develop for Jessica.", "popularity": 2.85, "poster_path": "/fNc69brzIGgKEhTLs4aCDnEjH1e.jpg", "production_companies": [], "production_countries": [], "release_date": "1980-03-12", "revenue": 0, "runtime": 113, "spoken_languages": [{"iso_639_1": "en", "name": "English"}], "status": "Released", "tagline": "The story of three people and the era that shaped them.", "title": "A Small Circle of Friends", "video": false, "vote_average": 6.0, "vote_count": 1, "keywords": {"keywords": [{"id": 155870, "name": "polyamory"}]}, "similar": {"page": 1, "results": [{"adult": false, "backdrop_path": "/a8xpxCnvqKyshdrDNFGs6oy4r8N.jpg", "genre_ids": [18, 10749], "id": 1278, "original_language": "en", "original_title": "The Dreamers", "overview": "A young American studying in Paris in 1968 strikes up a friendship with a French brother and sister. Set against the background of the '68 Paris student riots.", "poster_path": "/7ABcfmXQZeCXl5sNrDuLS1URMPN.jpg", "release_date": "2003-09-01", "title": "The Dreamers", "video": false, "vote_average": 7.2, "vote_count": 1670, "popularity": 19.315}, {"id": 420622, "video": false, "vote_count": 432, "vote_average": 7.2, "title": "Professor Marston and the Wonder Women", "release_date": "2017-10-13", "original_language": "en", "original_title": "Professor Marston and the Wonder Women", "genre_ids": [18, 10749], "backdrop_path": "/f9sTcBX9M0BvwBHVvlOIUfNx98r.jpg", "adult": false, "overview": "The unconventional life of Dr. William Marston, the Harvard psychologist and inventor who helped invent the modern lie detector test and created Wonder Woman in 1941.", "poster_path": "/tbrzHlnE8dNpllLWEe9bwDGNzLe.jpg", "popularity": 16.739}, {"id": 1378, "video": false, "vote_count": 256, "vote_average": 6.3, "title": "Shortbus", "release_date": "2006-05-20", "original_language": "en", "original_title": "Shortbus", "genre_ids": [35, 18, 10749], "backdrop_path": "/q0fWiFPHQy42g41mxNxci2QxTIW.jpg", "adult": false, "overview": "A group of New Yorkers caught up in their milieu converge at an underground salon infamous for its blend of art, music, politics, and carnality. The characters converge in a weekly Brooklyn social/artistic/sexual salon \"Shortbus\", loosely inspired by various underground NYC gatherings that took place in the early 2000's. Here, gay couple Jamie (P J DeBoy) and James (Paul Dawson) meet a young ex-model and aspiring singer Ceth (Jay Brannan).", "poster_path": "/iaS9XXoHW6ZVveu6wpLaTv1Bv29.jpg", "popularity": 17.148}, {"id": 10635, "video": false, "vote_count": 112, "vote_average": 6.4, "title": "Threesome", "release_date": "1994-04-08", "original_language": "en", "original_title": "Threesome", "genre_ids": [35, 18, 10749], "backdrop_path": "/l5nWWamL5P6rYywpIGdWb3qp2NW.jpg", "adult": false, "overview": "Eddy and Stuart share two-thirds of a dormitory suite. Due to bureaucratic error, a woman named Alex is added to their room. At first, relations among the three are tense. Soon, however, Alex falls for Eddy, and Stuart lusts after Alex.", "poster_path": "/w5FpBO6WjUkndniuQEWtLsj5oJY.jpg", "popularity": 12.646}, {"id": 5038, "video": false, "vote_count": 2231, "vote_average": 6.8, "title": "Vicky Cristina Barcelona", "release_date": "2008-08-15", "original_language": "en", "original_title": "Vicky Cristina Barcelona", "genre_ids": [18, 10749], "backdrop_path": "/3MdrGy2tzI0gum9alDb8nK7VLQZ.jpg", "adult": false, "overview": "Two girlfriends on a summer holiday in Spain become enamored with the same painter, unaware that his ex-wife, with whom he has a tempestuous relationship, is about to re-enter the picture.", "poster_path": "/stMXMgte7EcaOUBQOZfA86GcjYZ.jpg", "popularity": 14.181}, {"adult": false, "backdrop_path": "/mrB9FWjNgIm21zXckWleZxG7fys.jpg", "genre_ids": [18, 10749], "id": 145, "original_language": "da", "original_title": "Breaking the Waves", "overview": "In a small and conservative Scottish village, a woman's paralytic husband convinces her to have extramarital intercourse so she can tell him about it and give him a reason for living.", "poster_path": "/cmDrzXJa9TIs57pD8QfuvIQvak5.jpg", "release_date": "1996-05-13", "title": "Breaking the Waves", "video": false, "vote_average": 7.4, "vote_count": 498, "popularity": 12.248}, {"adult": false, "backdrop_path": "/chJKYldpfDY9F9sJPwGfeeuHdYc.jpg", "genre_ids": [18, 10749], "id": 1628, "original_language": "fr", "original_title": "Jules et Jim", "overview": "In the carefree days before World War I, introverted Austrian author Jules strikes up a friendship with the exuberant Frenchman Jim. Both men fall for the impulsive and beautiful Catherine, but it's Jules who wins her hand. After the war, Jim visits Jules, Catherine and their daughter in their Austrian home and discovers not only that his feelings for Catherine are unchanged, but also that they're reciprocated.", "poster_path": "/x4DeQiDAfPG3IMe1jKUcn8l9rUV.jpg", "release_date": "1962-01-23", "title": "Jules and Jim", "video": false, "vote_average": 7.8, "vote_count": 413, "popularity": 18.789}, {"id": 68924, "video": false, "vote_count": 331, "vote_average": 7.0, "title": "The Ice Storm", "release_date": "1997-09-27", "original_language": "en", "original_title": "The Ice Storm", "genre_ids": [18], "backdrop_path": "/6XTPKmZSStGvdLgUONAAyA6SKVb.jpg", "adult": false, "overview": "In the weekend after thanksgiving 1973 the Hood family is skidding out of control. Then an ice storm hits, the worst in a century.", "poster_path": "/yZawkowAqQYWN7S0c8BH554ZcqR.jpg", "popularity": 9.617}, {"id": 27995, "video": false, "vote_count": 117, "vote_average": 6.8, "title": "She's Gotta Have It", "release_date": "1986-08-08", "original_language": "en", "original_title": "She's Gotta Have It", "genre_ids": [35, 10749], "backdrop_path": "/zz9gcgVfVmRORKGM7J7MswzD1H0.jpg", "adult": false, "overview": "The story of Nola Darling's simultaneous sexual relationships with three different men is told by her and by her partners and other friends. All three men wanted her to commit solely to them; Nola resists being \"owned\" by a single partner.", "poster_path": "/qiJuXvPONqTSSnzhbCBqE7EotV.jpg", "popularity": 9.352}, {"id": 12519, "video": false, "vote_count": 57, "vote_average": 5.8, "title": "Sirens", "release_date": "1993-10-01", "original_language": "en", "original_title": "Sirens", "genre_ids": [35, 18], "backdrop_path": "/b2YPH3b4wGTKq9mGo4DqbdtKpvh.jpg", "adult": false, "overview": "In 1930s Australia, Anglican clergyman Anthony Campion and his prim wife, Estella, are asked to visit noted painter Norman Lindsay, whose planned contribution to an international art exhibit is considered blasphemous. While Campion and Lindsay debate, Estella finds herself drawn to the three beautiful models sitting for the painter's current work, freethinking Sheela, sensual Pru and virginal Giddy.", "poster_path": "/ch1xbOAsBCYWbBio6OaBzcCkmld.jpg", "popularity": 9.09}, {"id": 2470, "video": false, "vote_count": 78, "vote_average": 7.0, "title": "Belle \u00c9poque", "release_date": "1992-12-04", "original_language": "es", "original_title": "Belle \u00c9poque", "genre_ids": [35, 18, 10749], "backdrop_path": "/1HOO7m6NeK3wFw22xGBLdwvim51.jpg", "adult": false, "overview": "In 1931, a young soldier deserts from the army and falls into a country farm, where he is welcomed by the owner due to his political ideas. Manolo has four daughters, Fernando likes all of them and they like him, so he has to decide which one to love.", "poster_path": "/3QPlMEaGa3IaJtZmwCk3k30w0zY.jpg", "popularity": 8.205}, {"adult": false, "backdrop_path": "/8M1725YmmdYRnzj1E81rk0o68Pe.jpg", "genre_ids": [35, 10749], "id": 4482, "original_language": "fr", "original_title": "Gazon maudit", "overview": "After learning of her husband's infidelities, a housewife invites an itinerant lesbian to move in with them. None of their lives will ever be the same again.", "poster_path": "/dDB8mMKRL28gHsRcGPoMQYrzaXg.jpg", "release_date": "1995-02-08", "title": "French Twist", "video": false, "vote_average": 6.2, "vote_count": 150, "popularity": 7.442}, {"id": 17993, "video": false, "vote_count": 92, "vote_average": 6.4, "title": "Henry & June", "release_date": "1990-09-28", "original_language": "en", "original_title": "Henry & June", "genre_ids": [10749], "backdrop_path": "/hNIIY0i0hN5lyd0AAPlaDJlIETi.jpg", "adult": false, "overview": "While traveling in Paris, author Henry Miller and his wife, June, meet Anais Nin, and sexual sparks fly as Nin starts an affair with the openly bisexual June. When June is forced to return to the U.S., she gives Nin her blessing to sleep with her husband. Then, when June returns to France, an unexpected, and sometimes contentious, threesome forms.", "poster_path": "/vh5vFqyj45wtyDPfq9INu1l3vF9.jpg", "popularity": 11.516}, {"id": 20391, "video": false, "vote_count": 115, "vote_average": 6.4, "title": "Paint Your Wagon", "release_date": "1969-10-15", "original_language": "en", "original_title": "Paint Your Wagon", "genre_ids": [28, 35, 18, 10402, 37], "backdrop_path": "/vl54nByNhUuntO1DbILfBkrBvnE.jpg", "adult": false, "overview": "A Michigan farmer and a prospector form a partnership in the California gold country. Their adventures include buying and sharing a wife, hijacking a stage, kidnapping six prostitutes, and turning their mining camp into a boom town. Along the way there is plenty of drinking, gambling, and singing. They even find time to do some creative gold mining.", "poster_path": "/1wDiGBBhXStKy2674zDSEwxlBcw.jpg", "popularity": 10.776}, {"id": 26520, "video": false, "vote_count": 48, "vote_average": 6.7, "title": "Bob & Carol & Ted & Alice", "release_date": "1969-09-17", "original_language": "en", "original_title": "Bob & Carol & Ted & Alice", "genre_ids": [35, 18], "backdrop_path": "/abWke008aC7M7nAUrij9JTWPEXk.jpg", "adult": false, "overview": "Bob and Carol Sanders are best friends with Ted and Alice Henderson. After attending a weekend self-help/ self-discovery getaway, Bob and Carol feel newly enlightened, and want their friends to feel the same way.", "poster_path": "/aXiCdgphrL95YyJqAtQOwaUPiuw.jpg", "popularity": 7.775}, {"adult": false, "backdrop_path": "/33qfoqP8tgB0AcgDGyloXQUfWIf.jpg", "genre_ids": [28, 35, 80, 18], "id": 13552, "original_language": "en", "original_title": "The Doom Generation", "overview": "Jordan White and Amy Blue, two troubled teens, pick up an adolescent drifter, Xavier Red. Together, the threesome embark on a sex and violence-filled journey through an America of psychos and quickiemarts.", "poster_path": "/6ZwsSedjyzR0poDrKlJaYWoseaH.jpg", "release_date": "1995-10-27", "title": "The Doom Generation", "video": false, "vote_average": 6.2, "vote_count": 111, "popularity": 8.273}, {"id": 447034, "video": false, "vote_count": 38, "vote_average": 6.9, "title": "Vita & Virginia", "release_date": "2019-05-02", "original_language": "en", "original_title": "Vita & Virginia", "genre_ids": [18, 10749], "backdrop_path": "/fSOx3U1EUhJ3I4QnbldBwyqxEkw.jpg", "adult": false, "overview": "Socialite Vita Sackville-West and literary icon Virginia Woolf run in different circles in 1920s London. Despite the odds, the magnetic Vita and the beguiling Virginia forge an unconventional affair, set against the backdrop of their own strikingly contemporary marriages; which inspired one of Woolf's most iconic novels, 'Orlando'.", "poster_path": "/kNsMRldqZgsinyFjwNn1UzC0iln.jpg", "popularity": 4.502}, {"id": 77210, "video": false, "vote_count": 77, "vote_average": 7.5, "title": "Design for Living", "release_date": "1933-12-29", "original_language": "en", "original_title": "Design for Living", "genre_ids": [35, 10749], "backdrop_path": "/fidV6tMm9LbuaU68Sul9cVEKfEj.jpg", "adult": false, "overview": "An independent woman can't chose between the two men she loves.", "poster_path": "/ob90tqX8MO0KQ955zaRymTzCCK7.jpg", "popularity": 5.192}, {"id": 60816, "video": false, "vote_count": 13, "vote_average": 5.8, "title": "A Change of Seasons", "release_date": "1980-12-01", "original_language": "en", "original_title": "A Change of Seasons", "genre_ids": [35, 18, 10749], "backdrop_path": "/7kANseofOHUGbZvNEJPdx6srn2f.jpg", "adult": false, "overview": "Marriage takes a sour turn when a middle-aged husband falls for a young and sexy woman. Things get even more complicated when his wife starts a hot affair with a younger lover of her own.", "poster_path": "/djJzzsBW7RQmJ8Et9LVWOwpFHIU.jpg", "popularity": 6.062}, {"id": 42094, "video": false, "vote_count": 21, "vote_average": 6.0, "title": "Micki & Maude", "release_date": "1984-12-21", "original_language": "en", "original_title": "Micki & Maude", "genre_ids": [35, 10749], "backdrop_path": "/5uGIQ0BnQ9y0p9sBpGhFHCAOFsh.jpg", "adult": false, "overview": "TV reporter Rob Salinger is married to Micki, but because she's always busy working, they hardly ever spend time together. One night at which he got stood up by Micki again, Rob meets cellist Maude and they soon get romanticly involved. When it turns out Maude is pregnant with his baby, Rob decides to marry Maude. When he's on the verge of telling Micki, she tells him she's pregnant, so he doesn't have the heart to leave her, but he marries Maude anyway. Now married to two pregnant women who don't know about each other, Rob has a busy time taking care of both and keep them from finding out.", "poster_path": "/nMezOmpy8pIqYxX3fMPfmUXo1Al.jpg", "popularity": 4.164}], "total_pages": 3, "total_results": 47}, "recommendations": {"page": 1, "results": [], "total_pages": 1, "total_results": 0}, "credits": {"cast": [{"cast_id": 9, "character": "Leonardo DaVinci Rizzo", "credit_id": "52fe4a39c3a36847f81c2141", "gender": 2, "id": 69010, "name": "Brad Davis", "order": 0, "profile_path": "/qI5L5vzoZszHfs4GGiXzx2J0vzX.jpg"}, {"cast_id": 10, "character": "Jessica Bloom", "credit_id": "52fe4a39c3a36847f81c2145", "gender": 1, "id": 650, "name": "Karen Allen", "order": 1, "profile_path": "/6TzVbX52cAOqe9LH6GZ5xutbW5G.jpg"}, {"cast_id": 11, "character": "Nick Baxter", "credit_id": "52fe4a39c3a36847f81c2149", "gender": 2, "id": 47441, "name": "Jameson Parker", "order": 2, "profile_path": "/oD7eyAR9CsgmbffxkZbISwDvw9Q.jpg"}, {"cast_id": 12, "character": "Alice", "credit_id": "52fe4a39c3a36847f81c214d", "gender": 1, "id": 56881, "name": "Shelley Long", "order": 3, "profile_path": "/eW9OmlCvXEYipgxLW58CIHNOZWo.jpg"}, {"cast_id": 13, "character": "Alex Haddox", "credit_id": "52fe4a39c3a36847f81c2151", "gender": 2, "id": 3004, "name": "John Friedrich", "order": 4, "profile_path": null}, {"cast_id": 14, "character": "Greenblatt", "credit_id": "52fe4a39c3a36847f81c2155", "gender": 2, "id": 14552, "name": "Gary Springer", "order": 5, "profile_path": "/ovYL4jKuiyRvCbMVrgO3iy5BB10.jpg"}, {"cast_id": 15, "character": "Harry Norris", "credit_id": "52fe4a39c3a36847f81c2159", "gender": 2, "id": 244877, "name": "Richard Nelson", "order": 6, "profile_path": null}, {"cast_id": 17, "character": "Mrs. Baxter", "credit_id": "52fe4a39c3a36847f81c215d", "gender": 1, "id": 87039, "name": "Nan Martin", "order": 7, "profile_path": "/ntm8FCWyePvj0iAf1r1KBM7VjH4.jpg"}, {"cast_id": 18, "character": "Crazy Kid: Draft Inductee (as Dan Stern)", "credit_id": "52fe4a39c3a36847f81c2161", "gender": 2, "id": 11511, "name": "Daniel Stern", "order": 8, "profile_path": "/4dQb2rg4gajVuMOUTkmQx31GOyH.jpg"}, {"cast_id": 19, "character": "Jimmy", "credit_id": "52fe4a39c3a36847f81c2165", "gender": 2, "id": 18894, "name": "Harry Caesar", "order": 9, "profile_path": "/bvG5atyW7fSFCr2HGmOyQE461JA.jpg"}], "crew": [{"credit_id": "52fe4a39c3a36847f81c213d", "department": "Art", "gender": 2, "id": 906, "job": "Set Decoration", "name": "Rick Simpson", "profile_path": null}, {"credit_id": "52fe4a39c3a36847f81c212b", "department": "Crew", "gender": 2, "id": 16189, "job": "Cinematography", "name": "Michael C. Butler", "profile_path": null}, {"credit_id": "52fe4a39c3a36847f81c2137", "department": "Art", "gender": 2, "id": 12018, "job": "Production Design", "name": "Joel Schiller", "profile_path": "/4YMKCCRRiDJXXoqHXTooTKNExdV.jpg"}, {"credit_id": "55951ff2c3a36870e10027c7", "department": "Production", "gender": 2, "id": 12993, "job": "Producer", "name": "Tim Zinnemann", "profile_path": null}, {"credit_id": "52fe4a39c3a36847f81c2113", "department": "Directing", "gender": 2, "id": 18878, "job": "Director", "name": "Rob Cohen", "profile_path": "/qMtAaURL6aE3GgALVQlxKGGL5AC.jpg"}, {"credit_id": "52fe4a39c3a36847f81c2131", "department": "Editing", "gender": 2, "id": 162916, "job": "Editor", "name": "Randy Roberts", "profile_path": null}, {"credit_id": "52fe4a39c3a36847f81c2125", "department": "Sound", "gender": 0, "id": 552297, "job": "Original Music Composer", "name": "Jim Steinman", "profile_path": "/3qaSHZRXPGHMKstSatYCvDaPEJe.jpg"}, {"credit_id": "52fe4a39c3a36847f81c2119", "department": "Writing", "gender": 0, "id": 1036785, "job": "Writer", "name": "Ezra Sachs", "profile_path": null}]}}