{"adult": false, "backdrop_path": null, "belongs_to_collection": null, "budget": 0, "genres": [{"id": 99, "name": "Documentary"}], "homepage": null, "id": 104739, "imdb_id": "tt0106642", "original_language": "fr", "original_title": "D'Est", "overview": "Chantal Akerman retraces a journey from the end of summer to deepest winter, from East Germany, across Poland and the Baltics, to Moscow.", "popularity": 1.376, "poster_path": "/kbqith0CwuQS8Iyu7qwN97UxdVK.jpg", "production_companies": [{"id": 8492, "logo_path": null, "name": "Radiotelevis\u00e3o Portuguesa (RTP)", "origin_country": "PT"}, {"id": 55217, "logo_path": null, "name": "Lieurac Productions", "origin_country": ""}, {"id": 10645, "logo_path": null, "name": "Paradise Films", "origin_country": ""}], "production_countries": [{"iso_3166_1": "BE", "name": "Belgium"}, {"iso_3166_1": "FR", "name": "France"}, {"iso_3166_1": "PT", "name": "Portugal"}], "release_date": "1993-09-16", "revenue": 0, "runtime": 107, "spoken_languages": [{"iso_639_1": "fr", "name": "Fran\u00e7ais"}], "status": "Released", "tagline": "", "title": "From the East", "video": false, "vote_average": 7.1, "vote_count": 11, "keywords": {"keywords": [{"id": 187056, "name": "woman director"}]}, "similar": {"page": 1, "results": [{"adult": false, "backdrop_path": "/cADbqsIoiDW7X3Myg9nz8eAuno5.jpg", "genre_ids": [18, 10749], "id": 10818, "original_language": "fr", "original_title": "Naissance des pieuvres", "overview": "Set during a sultry summer in a French suburb, Marie is desperate to join the local pool's synchronized swimming team, but is her interest solely for the sake of sport or for a chance to get close to Floriane, the bad girl of the team? Sciamma, and the two leads, capture the uncertainty of teenage sexuality with a sympathetic eye in this delicate drama of the angst of coming-of-age.", "poster_path": "/4jajELYrR4Xmv3CVoKnukRnALa2.jpg", "release_date": "2007-05-17", "title": "Water Lilies", "video": false, "vote_average": 6.1, "vote_count": 119, "popularity": 10.744}, {"adult": false, "backdrop_path": "/gZeJziVigmRqbkEZwKAtSqlLQ6s.jpg", "genre_ids": [18, 10749], "id": 370663, "original_language": "en", "original_title": "Below Her Mouth", "overview": "An unexpected affair quickly escalates into a heart-stopping reality for two women whose passionate connection changes their lives forever.", "poster_path": "/nTGbq37hYLuNy7YgMg0gVLma0NS.jpg", "release_date": "2016-09-10", "title": "Below Her Mouth", "video": false, "vote_average": 6.2, "vote_count": 456, "popularity": 22.676}, {"adult": false, "backdrop_path": "/knczzNAjBXzSYkeWxoT1u9VNmjR.jpg", "genre_ids": [10749, 18], "id": 258480, "original_language": "en", "original_title": "Carol", "overview": "In 1950s New York, a department-store clerk who dreams of a better life falls for an older, married woman.", "poster_path": "/AbKa7ANxmui0Jmhh7gV7OSELKIL.jpg", "release_date": "2015-11-20", "title": "Carol", "video": false, "vote_average": 7.4, "vote_count": 2182, "popularity": 14.185}, {"id": 9813, "video": false, "vote_count": 128, "vote_average": 6.1, "title": "The Quiet", "release_date": "2005-09-12", "original_language": "en", "original_title": "The Quiet", "genre_ids": [18, 53], "backdrop_path": "/6eyWAZA4CEidZW1xXnQ4vlYBXTP.jpg", "adult": false, "overview": "After her widowed father dies, deaf teenager Dot moves in with her godparents, Olivia and Paul Deer. The Deers' daughter, Nina, is openly hostile to Dot, but that does not prevent her from telling her secrets to her silent stepsister, including the fact that she wants to kill her lecherous father.", "poster_path": "/GEqIE9YlmygHVUfS64LW2cwAAM.jpg", "popularity": 13.948}, {"adult": false, "backdrop_path": "/g3LYarEY9LjB28Ct2trwFN72gqZ.jpg", "genre_ids": [35], "id": 437557, "original_language": "en", "original_title": "Blockers", "overview": "When three parents discover their daughters\u2019 pact to lose their virginity at prom, they launch a covert one-night operation to stop the teens from sealing the deal.", "poster_path": "/uvlUQXg0AlpGzKukO11K7QtW3Yu.jpg", "release_date": "2018-03-14", "title": "Blockers", "video": false, "vote_average": 6.2, "vote_count": 1153, "popularity": 18.075}, {"adult": false, "backdrop_path": "/fZ8oFcREAr6wgWcXISGql0xyxjB.jpg", "genre_ids": [35, 18], "id": 39781, "original_language": "en", "original_title": "The Kids Are All Right", "overview": "Two women, Nic and Jules, brought a son and daughter into the world through artificial insemination. When one of their children reaches age, both kids go behind their mothers' backs to meet with the donor. Life becomes so much more interesting when the father, two mothers and children start to become attached to each other.", "poster_path": "/fPDeK4MmoGfi2X0oWZev7LrbMqM.jpg", "release_date": "2010-07-09", "title": "The Kids Are All Right", "video": false, "vote_average": 6.6, "vote_count": 923, "popularity": 12.703}, {"adult": false, "backdrop_path": "/6tern9vOEwwmkDYC1vRCuO64z0C.jpg", "genre_ids": [10749, 18], "id": 475888, "original_language": "en", "original_title": "Tell It to the Bees", "overview": "Dr. Jean Markham returns to the town she left as a teenager to take over her late father's medical practice. When a school-yard scuffle lands Charlie in her surgery, she invites him to visit the hives in her garden and tell his secrets to the bees, as she once did. The new friendship between the boy and the bee keeper brings his mother Lydia into Jean's world.", "poster_path": "/Rj6zpHhMU1zFW3v28U4PSRSRgP.jpg", "release_date": "2019-05-03", "title": "Tell It to the Bees", "video": false, "vote_average": 6.4, "vote_count": 53, "popularity": 15.113}, {"adult": false, "backdrop_path": "/xOGEw8iywxcFMolV6SF6YdTdJTb.jpg", "genre_ids": [10402, 10749], "id": 52371, "original_language": "nl", "original_title": "LelleBelle", "overview": "19-year old Belle practices playing the violin diligently, but is unable to impart her music with a sensitive undertone. Her life changes when she discovers that sexual desire stimulates passion in her music.", "poster_path": "/nJVPgIq3icZMQ26p5uWIFdUZJfL.jpg", "release_date": "2010-10-08", "title": "LelleBelle", "video": false, "vote_average": 4.7, "vote_count": 41, "popularity": 13.931}, {"adult": false, "backdrop_path": "/dvQDRfv3qvfHNnVAR57ouVsuErf.jpg", "genre_ids": [10749, 18], "id": 28031, "original_language": "en", "original_title": "If These Walls Could Talk 2", "overview": "The stories of three lesbian couples -- who live in the same house at different periods of time -- who are at a crossroads in their lives. In 1961, Edith loses her lover, Abby, to a stroke. Linda and Amy struggle with feminist issues in 1972. And, in 2000, Kal and Fran try to have a baby with the help of sperm donor.", "poster_path": "/xs7ODbmYQXCDhvXNvz5tF17T59H.jpg", "release_date": "2000-03-05", "title": "If These Walls Could Talk 2", "video": false, "vote_average": 7.1, "vote_count": 55, "popularity": 8.062}, {"adult": false, "backdrop_path": "/rf6G51j0SZL0tP57I8gnqHTRFEr.jpg", "genre_ids": [35, 18, 10749], "id": 273153, "original_language": "fr", "original_title": "La belle saison", "overview": "In 1971, Carole and Delphine meet and fall in love in Paris. When Carole follows Delphine back to her family farm in Limousin, the two find lesbianism and feminism are not as easy in the countryside.", "poster_path": "/evvAkNMO5VJiy5qIo1Hu7fUfvVI.jpg", "release_date": "2015-08-19", "title": "Summertime", "video": false, "vote_average": 6.6, "vote_count": 162, "popularity": 15.434}, {"id": 616584, "video": false, "vote_count": 92, "vote_average": 7.5, "title": "K-12", "release_date": "2019-09-05", "original_language": "en", "original_title": "K-12", "genre_ids": [14, 27, 10402], "backdrop_path": "/fSlfaF0Ydfr2SK6hOYHvDsb7a9Z.jpg", "adult": false, "overview": "Cry Baby, a strong and sensitive girl, is sent off to a disturbing sleepaway school that\u2019s hidden underneath a grandiose fa\u00e7ade. Luckily, she has a sweet and unapologetic best friend who sticks up for her when she gets bullied by the other students whose brains are under control by the Principal and his wicked staff. With the help of the magical friends they meet along the way, as well as an Angelic Spirit Guide, they are able to gain the strength they need to fight off the school\u2019s belligerent patriarchal conditioning.", "poster_path": "/nVi0yBBPj5Z96JgGWVIg94kv7bR.jpg", "popularity": 18.105}, {"adult": false, "backdrop_path": "/caLMOD3ZJ3V7qjlxDXrzlJfBLgD.jpg", "genre_ids": [18, 10749], "id": 20, "original_language": "en", "original_title": "My Life Without Me", "overview": "A Pedro Almodovar production in which a fatally ill mother with only two months to live creates a list of things she wants to do before she dies with out telling her family of her illness.", "poster_path": "/vVj92VBFUBzjqzLvBiPVVlJDp78.jpg", "release_date": "2003-03-07", "title": "My Life Without Me", "video": false, "vote_average": 6.1, "vote_count": 220, "popularity": 9.208}, {"adult": false, "backdrop_path": "/useuHJQ5HOoEWkAvEjL1FW1sUfe.jpg", "genre_ids": [18], "id": 376867, "original_language": "en", "original_title": "Moonlight", "overview": "The tender, heartbreaking story of a young man\u2019s struggle to find himself, told across three defining chapters in his life as he experiences the ecstasy, pain, and beauty of falling in love, while grappling with his own sexuality.", "poster_path": "/qAwFbszz0kRyTuXmMeKQZCX3Q2O.jpg", "release_date": "2016-10-21", "title": "Moonlight", "video": false, "vote_average": 7.4, "vote_count": 4406, "popularity": 27.348}, {"id": 434714, "video": false, "vote_count": 32, "vote_average": 7.5, "title": "My Days of Mercy", "release_date": "2019-07-11", "original_language": "en", "original_title": "My Days of Mercy", "genre_ids": [18, 10749], "backdrop_path": "/7Lbzq33nMMIQtAfZAmSqG6ibLSg.jpg", "adult": false, "overview": "The daughter of a man on death row falls in love with a woman on the opposing side of her family's political cause.", "poster_path": "/adIPKAoKnKL9vCTkvfF4J9ZA7Ln.jpg", "popularity": 6.928}, {"adult": false, "backdrop_path": "/ph5fElfh4U7O3jwhFljxz2LDp1l.jpg", "genre_ids": [18, 36], "id": 375262, "original_language": "en", "original_title": "The Favourite", "overview": "England, early 18th century. The close relationship between Queen Anne and Sarah Churchill is threatened by the arrival of Sarah's cousin, Abigail Hill, resulting in a bitter rivalry between the two cousins to be the Queen's favourite.", "poster_path": "/cwBq0onfmeilU5xgqNNjJAMPfpw.jpg", "release_date": "2018-11-23", "title": "The Favourite", "video": false, "vote_average": 7.6, "vote_count": 2823, "popularity": 26.511}, {"id": 297762, "video": false, "vote_count": 13717, "vote_average": 7.3, "title": "Wonder Woman", "release_date": "2017-05-30", "original_language": "en", "original_title": "Wonder Woman", "genre_ids": [28, 12, 14], "backdrop_path": "/6iUNJZymJBMXXriQyFZfLAKnjO6.jpg", "adult": false, "overview": "An Amazon princess comes to the world of Man in the grips of the First World War to confront the forces of evil and bring an end to human conflict.", "poster_path": "/gfJGlDaHuWimErCr5Ql0I8x9QSy.jpg", "popularity": 41.8}, {"id": 326359, "video": false, "vote_count": 1179, "vote_average": 6.8, "title": "Frozen Fever", "release_date": "2015-03-09", "original_language": "en", "original_title": "Frozen Fever", "genre_ids": [12, 16, 10751], "backdrop_path": "/ubioPGniCfDiASmYYpeJs5RRNaC.jpg", "adult": false, "overview": "On Anna's birthday, Elsa and Kristoff are determined to give her the best celebration ever, but Elsa's icy powers may put more than just the party at risk.", "poster_path": "/lKJiVPzsAO9IJ4LKWXZ8vkR2bg4.jpg", "popularity": 17.061}, {"adult": false, "backdrop_path": "/k8H7ye6Sab7OrDJoo8Qp5WFGHGk.jpg", "genre_ids": [35, 10749, 18], "id": 244264, "original_language": "en", "original_title": "Laggies", "overview": "Overeducated and underemployed, 28 year old Megan is in the throes of a quarterlife crisis. Squarely into adulthood with no career prospects, no particular motivation to think about her future and no one to relate to, Megan is comfortable lagging a few steps behind - while her friends check off milestones and celebrate their new grown-up status. When her high-school sweetheart proposes, Megan panics and- given an unexpected opportunity to escape for a week - hides out in the home of her new friend, 16-year old Annika and Annika's world-weary single dad Craig.", "poster_path": "/dNcoXoRC7JHiqbe7k5Ufo6syiPP.jpg", "release_date": "2014-09-25", "title": "Laggies", "video": false, "vote_average": 6.1, "vote_count": 787, "popularity": 9.883}, {"adult": false, "backdrop_path": "/txtRue33MaXv5HQpTiHPOmOcDxE.jpg", "genre_ids": [35, 10749], "id": 11631, "original_language": "en", "original_title": "Mamma Mia!", "overview": "An independent, single mother who owns a small hotel on a Greek island is about to marry off the spirited young daughter she's raised alone. But, the daughter has secretly invited three of her mother's ex-lovers in the hopes of finding her biological father.", "poster_path": "/gOm2iMMbC6EonrFzmSQ8xvCa4Ei.jpg", "release_date": "2008-07-02", "title": "Mamma Mia!", "video": false, "vote_average": 6.9, "vote_count": 4120, "popularity": 16.652}, {"adult": false, "backdrop_path": "/npClMhFGn4XUkwu6coq5oKAEu6L.jpg", "genre_ids": [35, 10749, 18], "id": 634, "original_language": "en", "original_title": "Bridget Jones's Diary", "overview": "A chaotic Bridget Jones meets a snobbish lawyer, and he soon enters her world of imperfections.", "poster_path": "/ym6kjFFZg6boC0QHBVw6hqJLbxv.jpg", "release_date": "2001-04-13", "title": "Bridget Jones's Diary", "video": false, "vote_average": 6.7, "vote_count": 3079, "popularity": 16.678}], "total_pages": 1446, "total_results": 28907}, "recommendations": {"page": 1, "results": [{"adult": false, "backdrop_path": "/rGba1es9OgyqX3LJ3MwTkTTMEeO.jpg", "genre_ids": [99], "id": 117565, "original_language": "en", "original_title": "Water and Power", "overview": "Pat O'Neill, one of the most interesting filmmakers in America today, offers a dazzling reflection on the conflict between nature and man in Los Angeles, or the desertification of the city's surroundings due to its enormous water consumption. More interestingly, it is also a film in the age-old tradition of city symphonies: a film about LA's foundation myths and the dreams it embodies, about its history and (grim) future, its topography and ethnography. O'Neill uses footage from several classic films to recreate the several layers of meaning emanating from the city, juxtaposing images and fantasies and hardly ever allowing one picture to go untouched. George Lockwood's swarming soundtrack is likewise composed of conflicting languages, an elaborate work of plunderphonics in which snippets of sound stolen from movies collide with electronic soundscapes, contemporary chamber music, improv, and what not.", "poster_path": "/btgZdrxvApQzD0kpLQB9kph9y0b.jpg", "release_date": "1989-10-01", "title": "Water and Power", "video": false, "vote_average": 7.0, "vote_count": 10, "popularity": 2.58}, {"adult": false, "backdrop_path": "/c1PlWkHAAJvMSyHERHcO66sL8iX.jpg", "genre_ids": [99], "id": 36120, "original_language": "en", "original_title": "Ruhr", "overview": "James Benning's worrying and also reassuring vision of the Ruhr Valley, shot in six fascinating takes of a tunnel, a forest, a factory, a mosque, graffiti and a chimney.", "poster_path": "/cTvFKVYXhj6cKaAr9Uo31WaEEM.jpg", "release_date": "2009-11-02", "title": "Ruhr", "video": false, "vote_average": 6.9, "vote_count": 7, "popularity": 2.711}, {"adult": false, "backdrop_path": null, "genre_ids": [99], "id": 128100, "original_language": "fr", "original_title": "Une visite au Louvre", "overview": "A visit to the Louvre in Paris commentated by an actor reading C\u00e9zanne.", "poster_path": "/oEZCbwGNtET7L4bFLP3EpbgVlA0.jpg", "release_date": "2004-04-17", "title": "A Visit to the Louvre", "video": false, "vote_average": 6.4, "vote_count": 5, "popularity": 1.812}, {"adult": false, "backdrop_path": "/w6qhinFtvJmT9ySe5XmW6YLwKGN.jpg", "genre_ids": [9648], "id": 113520, "original_language": "en", "original_title": "The Hart of London", "overview": "A surreal sequence of images of nature and London, Ontario, life and death.", "poster_path": "/Al9E6DckPp7Ijjj9heogMJdWZvG.jpg", "release_date": "1970-11-30", "title": "The Hart of London", "video": false, "vote_average": 7.1, "vote_count": 10, "popularity": 3.549}, {"adult": false, "backdrop_path": "/psS2AwPl8Aat9Qn293319e4X9gF.jpg", "genre_ids": [18], "id": 87415, "original_language": "it", "original_title": "Dalla nube alla resistenza", "overview": "'Dalla nube alla resistenza (From the Cloud to the Resistance ) (1978), based on two works by Cesare Pavese, falls into the category of History Lessons and Too Early, Too Late as well. It, too, has two parts\u2014a twentieth-century text and a text regarding the myths of antiquity, each set in the appropriate landscape. Pavese's The Moon and the Bonfires looks back on the violent deaths of Italian anti-Fascist resistance fighters; Dialogues with Leuc\u00f2 is a series of dialogues between heroes and gods, connecting myth and history and returning to an ambiguous stage in the creation of distinctions, such as that between animal and human, which are fundamental to grammar and language itself. Such a juxtaposition of political engagement with profoundly contemplative issues such as myth, nature, and meaning points to the characters of Empedocles and Antigone in the H\u00f6lderlin films.'  (From \"Landscapes of resistance. The German Films of Dani\u00e8le Huillet and Jean-Marie Straub\" by Barton Byg)", "poster_path": "/sUSpabH18guLysFGzFEYNPxy4nw.jpg", "release_date": "1979-11-07", "title": "From the Clouds to the Resistance", "video": false, "vote_average": 4.9, "vote_count": 7, "popularity": 1.17}, {"adult": false, "backdrop_path": null, "genre_ids": [99], "id": 139185, "original_language": "en", "original_title": "American Dreams (Lost And Found)", "overview": "Scrolling excerpts from the diary of George Wallace's would-be assassin Arthur Bremer at screen bottom, Hank Aaron cards and ephemera from his entire career up top, and alternating audio clips of popular songs and highlights from the news throughout Aaron's career.", "poster_path": "/ciNAYNjGO6TR6scIc5u3cVHtugf.jpg", "release_date": "1984-01-01", "title": "American Dreams (Lost And Found)", "video": false, "vote_average": 7.6, "vote_count": 7, "popularity": 2.555}, {"adult": false, "backdrop_path": "/uyE6LREE6OFAz1V95iaYPtCvcdp.jpg", "genre_ids": [99], "id": 243278, "original_language": "en", "original_title": "Snow", "overview": "Comprising train and track footage quickly shot just before a heavy winter's snowfall was melting, the multi-award-winning classic that emerged from the cutting-room compresses British Rail's dedication to blizzard-battling into a thrilling eight-minute montage cut to music. Tough-as-boots workers struggling to keep the line clear are counterpointed with passengers' buffet-car comforts. (BFI)", "poster_path": "/edqa7AXpAR7LDvJZlyiK1jQzZ0E.jpg", "release_date": "1963-01-01", "title": "Snow", "video": false, "vote_average": 5.9, "vote_count": 10, "popularity": 1.025}, {"adult": false, "backdrop_path": null, "genre_ids": [16], "id": 148661, "original_language": "pl", "original_title": "Labirynt", "overview": "A self-consciously Kafkaesque tale of a winged lonely man literally devoured by totalitarian rule.", "poster_path": "/iVXiHnHb64Y1jtljDlMeLw28Umf.jpg", "release_date": "1963-12-31", "title": "Labyrinth", "video": false, "vote_average": 6.5, "vote_count": 11, "popularity": 2.054}, {"id": 306216, "video": false, "vote_count": 7, "vote_average": 6.0, "title": "The Ground", "release_date": "2001-01-30", "original_language": "en", "original_title": "The Ground", "genre_ids": [99], "backdrop_path": "/9WJbHKVeFIhG9WkhZz6HrM3selH.jpg", "adult": false, "overview": "What lives in the space between the stones, in the space cupped between my hand and my chest? Filmmaker/stonemason. A tower or ruin of remembrance. With each swing of the hammer I cut into the image and the sound rises from the chisel. A rhythm, marked by repetition, and animated by variation; strokes of hammer and fist, resounding in dialogue. In this space which the film creates, emptiness gains a contour strong enough for the spectator to see more than the image \u2013 a space permitting vision in addition to sight.", "poster_path": "/kxhsIbHgEZHfDUkZ2CD5txa64U9.jpg", "popularity": 1.518}, {"adult": false, "backdrop_path": null, "genre_ids": [18], "id": 167494, "original_language": "bn", "original_title": "\u09af\u09c1\u0995\u09cd\u09a4\u09bf-\u09a4\u0995\u09cd\u0995\u09cb \u0986\u09b0 \u0997\u09aa\u09cd\u09aa\u09cb", "overview": "Four men, each peculiar in his own way, embark on a quest to reason with the estranged wife of the protagonist.", "poster_path": "/2jV9sVBtvbk9v8o50wVzgE5jEA0.jpg", "release_date": "1974-01-01", "title": "Reason, Debate and a Story", "video": false, "vote_average": 5.6, "vote_count": 5, "popularity": 1.94}, {"adult": false, "backdrop_path": "/yM4zdMdYAzreh8Vrsy3BrQnNRmy.jpg", "genre_ids": [], "id": 164602, "original_language": "en", "original_title": "Unconscious London Strata", "overview": "This film, photographed in London, is an exploration into the depths of unconscious reactions.", "poster_path": null, "release_date": "1981-01-01", "title": "Unconscious London Strata", "video": false, "vote_average": 5.0, "vote_count": 9, "popularity": 3.109}, {"adult": false, "backdrop_path": "/5tfv0pRaGv7UV81gPsnoIbCQTyP.jpg", "genre_ids": [99], "id": 86282, "original_language": "zh", "original_title": "\u94c1\u897f\u533a", "overview": "A detailed look at the gradual decline of Shenyang\u2019s industrial Tiexi district, an area that was once a vibrant example of China\u2019s socialist economy. But industry is changing, and the factories of Tiexi are closing. Director Wang Bing introduces us to some of the workers affected by the closures, and to their families.", "poster_path": "/hRH0ToR9tgCtNpyzOpqzYv1G47W.jpg", "release_date": "2002-04-26", "title": "Tie Xi Qu: West of the Tracks", "video": false, "vote_average": 7.9, "vote_count": 11, "popularity": 2.787}, {"adult": false, "backdrop_path": null, "genre_ids": [99], "id": 258870, "original_language": "en", "original_title": "Time and Tide", "overview": "Peter Hutton\u2019s meditation on the Hudson River.", "poster_path": "/5stEXBR1ZiYNpi96uxOEBBVJOJh.jpg", "release_date": "2000-11-01", "title": "Time and Tide", "video": false, "vote_average": 7.2, "vote_count": 6, "popularity": 0.854}, {"adult": false, "backdrop_path": null, "genre_ids": [], "id": 148936, "original_language": "en", "original_title": "Study of a River", "overview": "", "poster_path": "/bTxm3CT1GOic1FjHclobNbRAp1C.jpg", "release_date": "1997-12-31", "title": "Study of a River", "video": false, "vote_average": 6.7, "vote_count": 9, "popularity": 1.495}, {"adult": false, "backdrop_path": null, "genre_ids": [18, 10751], "id": 119981, "original_language": "sv", "original_title": "Gunnar Hedes saga", "overview": "Gunnar Hede is raised by a strict mother, who wants him to become respectable to match his family\u2019s wealth. He is more interested in his grandfather, who started as an itinerant violin player, but got rich by leading a herd of wild reindeer south to market. He falls for a violinist working with a married couple of traveling performers and renounces his fortune to go with them. He then tries to earn a fortune by driving reindeer to market, but it doesn\u2019t work out and he goes insane. He is finally restored to sanity by the violinist when she returns with the performers. - imdb", "poster_path": "/qoIhlyZskSYtYxjJa6RoA5Kh0PS.jpg", "release_date": "1923-01-01", "title": "Gunnar Hede's Saga", "video": false, "vote_average": 7.2, "vote_count": 5, "popularity": 1.511}, {"id": 255706, "video": false, "vote_count": 4, "vote_average": 6.8, "title": "Artemis' Knee", "release_date": "2008-06-07", "original_language": "fr", "original_title": "Le genou d'Art\u00e9mide", "genre_ids": [18], "backdrop_path": null, "adult": false, "overview": "Jean-Marie Straub's first film after the death of Dani\u00e8lle Huillet is a love poem to her. Le Genou d'Art\u00e9mide is based on Cesare Pavese's \"Dialogues of Leuco\", which had already been adapted by Straub et Huillet as Ces Rencontres Avec Eux (2006).", "poster_path": "/smBkUf74t4q03yv6NfTw9WRv1nE.jpg", "popularity": 1.417}, {"adult": false, "backdrop_path": "/kEMuh94EsCkSzy6xlHQsh6HV7LZ.jpg", "genre_ids": [], "id": 207087, "original_language": "de", "original_title": "Energie!", "overview": "The tv/video screen comes alive by a controlled beam of electrons in the cathode ray tube. For 'energie!' an uncontrolled high voltage discharge of approx. 30.000 volts exposes photographic paper which is then arranged in time to create new visual systems of electron organization.", "poster_path": "/8ReaBxrDfy18DnV5CEEE1zEInHJ.jpg", "release_date": "2007-06-17", "title": "Energie!", "video": false, "vote_average": 7.0, "vote_count": 6, "popularity": 1.4}, {"adult": false, "backdrop_path": "/cZHTYQx0EUkQ0BsmN78FoljeCfm.jpg", "genre_ids": [99, 36], "id": 238619, "original_language": "en", "original_title": "Cassis", "overview": "One day of the Cassis port filmed in one shot.", "poster_path": "/3azk3oz0eit86fJ6W1yG9upoOV8.jpg", "release_date": "1966-01-01", "title": "Cassis", "video": false, "vote_average": 6.5, "vote_count": 4, "popularity": 1.354}, {"adult": false, "backdrop_path": "/sm67gH8nmEBO2aCuPkF1ROBu3X3.jpg", "genre_ids": [99], "id": 97032, "original_language": "fr", "original_title": "Trop t\u00f4t/Trop tard", "overview": "Inspired by a letter by Friedrich Engels and a 1974 account of two militant Marxist writers who had been imprisoned by the Nasser regime, Straub-Huillet filmed Too Early, Too Late in France and Egypt during 1980. They reflect on Egypt\u2019s history of peasant struggle and liberation from Western colonization, and link it to class tensions in France shortly before the Revolution of 1789, quoting texts by Engels as well as the pioneering nonfiction film Workers Leaving the Lumi\u00e8re Factory (1895).", "poster_path": "/cfZC0lgsziLqSa5XK04QyHiZo5g.jpg", "release_date": "1981-11-08", "title": "Too Early/Too Late", "video": false, "vote_average": 6.8, "vote_count": 10, "popularity": 2.449}, {"id": 42537, "video": false, "vote_count": 19, "vote_average": 6.7, "title": "The Wedding March", "release_date": "1928-10-06", "original_language": "en", "original_title": "The Wedding March", "genre_ids": [18], "backdrop_path": "/9ser9RnKEFh8XL1Q6S7b2nJH31B.jpg", "adult": false, "overview": "A young impoverished aristocrat falls in love with an inn-keepers daughter, but has to marry money.", "poster_path": "/taZKnN0MQntLz6yIGS1fFYNum3z.jpg", "popularity": 3.232}], "total_pages": 2, "total_results": 40}, "credits": {"cast": [{"cast_id": 3, "character": "Herself", "credit_id": "598b87bb9251413f25002166", "gender": 0, "id": 1866928, "name": "Natalia Chakhovskaia", "order": 1, "profile_path": null}], "crew": [{"credit_id": "52fe4a3bc3a36847f81c282d", "department": "Directing", "gender": 1, "id": 130030, "job": "Director", "name": "Chantal Akerman", "profile_path": "/AnQ5qy7X33w0QgKpTq5yVOfnBIs.jpg"}, {"credit_id": "52fe4a3bc3a36847f81c2833", "department": "Writing", "gender": 1, "id": 130030, "job": "Writer", "name": "Chantal Akerman", "profile_path": "/AnQ5qy7X33w0QgKpTq5yVOfnBIs.jpg"}, {"credit_id": "5a27c6430e0a264cd00fdf61", "department": "Editing", "gender": 0, "id": 1270678, "job": "Editor", "name": "Claire Atherton", "profile_path": null}, {"credit_id": "5a27c66a0e0a264cd00fdf7d", "department": "Editing", "gender": 1, "id": 1360592, "job": "Editor", "name": "Agn\u00e8s Bruckert", "profile_path": null}, {"credit_id": "5ac67f6a92514162ae0155c8", "department": "Production", "gender": 0, "id": 2016590, "job": "Producer", "name": "Fran\u00e7ois Le Bayon", "profile_path": null}, {"credit_id": "5ac67f730e0a26496b017771", "department": "Production", "gender": 0, "id": 1520925, "job": "Executive Producer", "name": "Marilyn Watelet", "profile_path": null}, {"credit_id": "5ac67f7a0e0a26496b017788", "department": "Camera", "gender": 2, "id": 1936092, "job": "Director of Photography", "name": "Bernard Delville", "profile_path": null}, {"credit_id": "5ac67f8c92514162b1014762", "department": "Camera", "gender": 0, "id": 1554983, "job": "Director of Photography", "name": "R\u00e9mon Fromont", "profile_path": null}, {"credit_id": "5ac68039c3a36834db014ec5", "department": "Directing", "gender": 0, "id": 1495229, "job": "Assistant Director", "name": "Szymon Zaleski", "profile_path": null}, {"credit_id": "5ac6804492514162b1014842", "department": "Production", "gender": 0, "id": 2016595, "job": "Production Manager", "name": "Helena Van Dantzig", "profile_path": null}, {"credit_id": "5ac6804c92514162a401461c", "department": "Production", "gender": 0, "id": 1520925, "job": "Production Manager", "name": "Marilyn Watelet", "profile_path": null}, {"credit_id": "5ac68055c3a36834d7017750", "department": "Production", "gender": 0, "id": 1495229, "job": "Production Manager", "name": "Szymon Zaleski", "profile_path": null}]}}