{"adult": false, "backdrop_path": "/oLOET9e5APLLjqKeMJVC3a0gWnE.jpg", "belongs_to_collection": null, "budget": 0, "genres": [{"id": 18, "name": "Drama"}, {"id": 10749, "name": "Romance"}], "homepage": null, "id": 104759, "imdb_id": "tt0059630", "original_language": "en", "original_title": "A Rage to Live", "overview": "Grace Caldwell, a young Pennsylvania newspaper heiress living with her widowed mother, has trouble restraining herself when it comes to the amorous attentions of young men. As word starts to spread about her behavior, Grace becomes a major source of heartache for her mother and a big source of concern to her brother.", "popularity": 3.662, "poster_path": "/m9yNCU1BGdgbgoUsddCa67LfOI7.jpg", "production_companies": [{"id": 13219, "logo_path": null, "name": "Mirisch Corporation, The", "origin_country": ""}], "production_countries": [{"iso_3166_1": "US", "name": "United States of America"}], "release_date": "1965-10-20", "revenue": 0, "runtime": 101, "spoken_languages": [{"iso_639_1": "en", "name": "English"}], "status": "Released", "tagline": "The story of Grace Caldwell Tate really began in the back seat of a car... ...and went from man...to man...to man...", "title": "A Rage to Live", "video": false, "vote_average": 4.8, "vote_count": 3, "keywords": {"keywords": [{"id": 818, "name": "based on novel or book"}, {"id": 6038, "name": "marriage"}, {"id": 9673, "name": "love"}, {"id": 9840, "name": "romance"}, {"id": 41185, "name": "heiress"}]}, "similar": {"page": 1, "results": [{"id": 11121, "video": false, "vote_count": 146, "vote_average": 6.8, "title": "Tess", "release_date": "1979-10-06", "original_language": "en", "original_title": "Tess", "genre_ids": [18, 10749], "backdrop_path": "/rSaHcXMo4Mz6pXzE3y1PwwMDaqT.jpg", "adult": false, "overview": "A strong-willed peasant girl is sent by her father to the estate of some local aristocrats to capitalize on a rumor that their families are from the same line. This fateful visit commences an epic narrative of sex, class, betrayal, and revenge.", "poster_path": "/m2qx66UNTMg17CoFSGZWC7csG7M.jpg", "popularity": 12.517}, {"adult": false, "backdrop_path": "/ruAIKg3WC66GPEFjqa4zk3yTYV8.jpg", "genre_ids": [18, 10749], "id": 70881, "original_language": "en", "original_title": "Anna Karenina", "overview": "In 19th century Russia a woman in a respectable marriage to a doctor must grapple with her love for a dashing soldier.", "poster_path": "/39bSsAvMGOgN8I5lt2rOQgAXsj7.jpg", "release_date": "1935-08-30", "title": "Anna Karenina", "video": false, "vote_average": 7.2, "vote_count": 39, "popularity": 7.111}, {"adult": false, "backdrop_path": "/kiWvoV78Cc3fUwkOHKzyBgVdrDD.jpg", "genre_ids": [37, 18, 12], "id": 281957, "original_language": "en", "original_title": "The Revenant", "overview": "In the 1820s, a frontiersman, Hugh Glass, sets out on a path of vengeance against those who left him for dead after a bear mauling.", "poster_path": "/oXUWEc5i3wYyFnL1Ycu8ppxxPvs.jpg", "release_date": "2015-12-25", "title": "The Revenant", "video": false, "vote_average": 7.5, "vote_count": 12127, "popularity": 24.135}, {"id": 521, "video": false, "vote_count": 1257, "vote_average": 8.0, "title": "Dial M for Murder", "release_date": "1954-05-29", "original_language": "en", "original_title": "Dial M for Murder", "genre_ids": [80, 18, 9648, 53], "backdrop_path": "/jVMlfESb0TJ29w8CUDDofEprMmn.jpg", "adult": false, "overview": "An ex-tennis pro carries out a plot to have his wife murdered after discovering she is having an affair, and assumes she will soon leave him for the other man anyway. When things go wrong, he improvises a new plan\u2014to frame her for murder instead.", "poster_path": "/xrpK1PyckNWmRxU4kZURfaCyboS.jpg", "popularity": 28.336}, {"id": 449176, "video": false, "vote_count": 3690, "vote_average": 8.1, "title": "Love, Simon", "release_date": "2018-02-16", "original_language": "en", "original_title": "Love, Simon", "genre_ids": [35, 18, 10749], "backdrop_path": "/rqMEeajyzSF4PpJtdCB816Iz8Vr.jpg", "adult": false, "overview": "Everyone deserves a great love story. But for seventeen-year old Simon Spier it's a little more complicated: he's yet to tell his family or friends he's gay and he doesn't know the identity of the anonymous classmate he's fallen for online.", "poster_path": "/5YUYg5q7QfC4IoNwNUtiwdiYKPr.jpg", "popularity": 24.849}, {"id": 417678, "video": false, "vote_count": 2720, "vote_average": 7.2, "title": "Everything, Everything", "release_date": "2017-05-18", "original_language": "en", "original_title": "Everything, Everything", "genre_ids": [18, 10749], "backdrop_path": "/sSJiJKqNcejUAQDplhWyjykLbqB.jpg", "adult": false, "overview": "A teenager who's lived a sheltered life because she's allergic to everything, falls for the boy who moves in next door.", "poster_path": "/c8W3Go48Mw0GoNXsGK4W9hNO4Vf.jpg", "popularity": 15.072}, {"adult": false, "backdrop_path": "/7B3I7S9a4bLonbYw6XVcoDzW8RT.jpg", "genre_ids": [18, 10749], "id": 109689, "original_language": "es", "original_title": "Tengo ganas de ti", "overview": "Sequel to \"Three Steps Above Heaven\". The sexy Gin is the new love of Hache, but this can not forget his former girlfriend, so the love triangle is inevitable.", "poster_path": "/z13I3sWzOoKBDAEpJ7iK9bSznQn.jpg", "release_date": "2012-06-22", "title": "I Want You", "video": false, "vote_average": 6.7, "vote_count": 694, "popularity": 17.432}, {"id": 109491, "video": false, "vote_count": 1990, "vote_average": 5.8, "title": "Beautiful Creatures", "release_date": "2013-02-13", "original_language": "en", "original_title": "Beautiful Creatures", "genre_ids": [18, 14, 10749], "backdrop_path": "/43tyIdF12g6aFBcWcVTdYlLq0Jc.jpg", "adult": false, "overview": "Ethan Wate just wants to get to know Lena Duchannes better, but unbeknownst to him, Lena has strange powers.  As Lena's 16th birthday approaches she might decide her fate, to be good or evil.  A choice which will impact her relationship forever.", "poster_path": "/s3hqcqoMr9yVBOvRLufSZSGvNve.jpg", "popularity": 13.937}, {"id": 9051, "video": false, "vote_count": 115, "vote_average": 5.6, "title": "10", "release_date": "1979-10-04", "original_language": "en", "original_title": "10", "genre_ids": [35, 10749], "backdrop_path": "/f0KcQlWKQfgJxIV365TFaFyXUVT.jpg", "adult": false, "overview": "A Hollywood songwriter goes through a mid-life crisis and becomes infatuated with a sexy blonde newlywed.", "poster_path": "/7GGpt49Q2c98zVz514mHlRjCpGy.jpg", "popularity": 14.392}, {"id": 11560, "video": false, "vote_count": 384, "vote_average": 6.2, "title": "High Crimes", "release_date": "2002-04-05", "original_language": "en", "original_title": "High Crimes", "genre_ids": [80, 18, 9648, 53], "backdrop_path": "/e2Vu095kdsSxTxjJaz5sYH3eSYF.jpg", "adult": false, "overview": "A female attorney learns that her husband is really a marine officer awol for fifteen years and accused of murdering fifteen civilians in El Salvador. Believing her husband when he tells her that he's being framed as part of a U.S. Military cover-up, the attorney defends him in a military court.", "poster_path": "/adujr0eiutryiWmK8i0DPGTrOpU.jpg", "popularity": 13.271}, {"adult": false, "backdrop_path": "/nriBinb7Y3Bm6LdbmOC0mFxSm8d.jpg", "genre_ids": [80, 18], "id": 226, "original_language": "en", "original_title": "Boys Don't Cry", "overview": "Female born, Teena Brandon adopts his male identity of Brandon Teena and attempts to find himself and love in Nebraska.", "poster_path": "/6bqIZTEuJnUrgnxcymciszvOz8J.jpg", "release_date": "1999-09-02", "title": "Boys Don't Cry", "video": false, "vote_average": 7.5, "vote_count": 718, "popularity": 10.072}, {"id": 333339, "video": false, "vote_count": 8278, "vote_average": 7.6, "title": "Ready Player One", "release_date": "2018-03-28", "original_language": "en", "original_title": "Ready Player One", "genre_ids": [12, 878], "backdrop_path": "/q7fXcrDPJcf6t3rzutaNwTzuKP1.jpg", "adult": false, "overview": "When the creator of a popular video game system dies, a virtual contest is created to compete for his fortune.", "poster_path": "/pU1ULUq8D3iRxl1fdX2lZIzdHuI.jpg", "popularity": 33.77}, {"adult": false, "backdrop_path": "/sRJjliXA7ZqHCr7HCK0ZB83xxjr.jpg", "genre_ids": [12, 28, 878], "id": 101299, "original_language": "en", "original_title": "The Hunger Games: Catching Fire", "overview": "Katniss Everdeen has returned home safe after winning the 74th Annual Hunger Games along with fellow tribute Peeta Mellark. Winning means that they must turn around and leave their family and close friends, embarking on a \"Victor's Tour\" of the districts. Along the way Katniss senses that a rebellion is simmering, but the Capitol is still very much in control as President Snow prepares the 75th Annual Hunger Games (The Quarter Quell) - a competition that could change Panem forever.", "poster_path": "/Hn0KgefVEp0GkdTexS6gfKTMfi.jpg", "release_date": "2013-11-15", "title": "The Hunger Games: Catching Fire", "video": false, "vote_average": 7.4, "vote_count": 12031, "popularity": 22.164}, {"adult": false, "backdrop_path": "/bvbyidkMaBls1LTaIWYY6UmYTaL.jpg", "genre_ids": [28, 878], "id": 336843, "original_language": "en", "original_title": "Maze Runner: The Death Cure", "overview": "Thomas leads his group of escaped Gladers on their final and most dangerous mission yet. To save their friends, they must break into the legendary Last City, a WCKD-controlled labyrinth that may turn out to be the deadliest maze of all. Anyone who makes it out alive will get answers to the questions the Gladers have been asking since they first arrived in the maze.", "poster_path": "/2zYfzA3TBwrMC8tfFbpiTLODde0.jpg", "release_date": "2018-01-10", "title": "Maze Runner: The Death Cure", "video": false, "vote_average": 7.0, "vote_count": 4396, "popularity": 25.259}, {"id": 12531, "video": false, "vote_count": 91, "vote_average": 6.9, "title": "The Apartment", "release_date": "1996-07-27", "original_language": "fr", "original_title": "L'Appartement", "genre_ids": [18, 9648, 10749], "backdrop_path": "/64qyT8m4JQ6YODvXxtbHgKmXBX7.jpg", "adult": false, "overview": "A stylish suspense thriller that confounds the audience while presenting them with an extraordinary and elusive mystery. Max is a former playboy who has decided to settle down by marrying his current love, Muriel. However, during a business trip, Max catches a glimpse of the great lost love of his life, reviving his wanderlust and sending him off on a chase of the elusive Lisa, whom he had overheard suggesting to a friend that her lover, Daniel, had killed someone for her. Soon, Max is trying to unravel the mystery behind the suspicious death of Daniel's wife, which he hopes will lead him closer to Lisa.", "poster_path": "/1sqrQdQTn8jKLhUcPKfRVj639zA.jpg", "popularity": 19.17}, {"adult": false, "backdrop_path": "/dLAPTvBwEdP4h7a14isNc0HwmOj.jpg", "genre_ids": [18, 10749], "id": 250734, "original_language": "en", "original_title": "Far from the Madding Crowd", "overview": "Based on the literary classic by Thomas Hardy. Bathsheba Everdene, attracts three very different suitors: Gabriel Oak, a sheep farmer, captivated by her fetching willfulness; Frank Troy, a handsome and reckless Sergeant; and William Boldwood, a prosperous and mature bachelor. This timeless story of Bathsheba's choices and passions explores the nature of relationships and love \u2013 as well as the human ability to overcome hardships through resilience and perseverance.", "poster_path": "/6v1DEaO2TZzrqcaGohUf1K7BXkU.jpg", "release_date": "2015-04-23", "title": "Far from the Madding Crowd", "video": false, "vote_average": 7.0, "vote_count": 643, "popularity": 13.429}, {"id": 50619, "video": false, "vote_count": 5595, "vote_average": 6.0, "title": "The Twilight Saga: Breaking Dawn - Part 1", "release_date": "2011-03-15", "original_language": "en", "original_title": "The Twilight Saga: Breaking Dawn - Part 1", "genre_ids": [12, 14, 10749], "backdrop_path": "/fwhRNjMmwqeGH35eQonSPmQs2ah.jpg", "adult": false, "overview": "The new found married bliss of Bella Swan and vampire Edward Cullen is cut short when a series of betrayals and misfortunes threatens to destroy their world.", "poster_path": "/dSSzv6JrlwS48pBeTNSswLJXOYF.jpg", "popularity": 22.3}, {"id": 50620, "video": false, "vote_count": 5631, "vote_average": 6.3, "title": "The Twilight Saga: Breaking Dawn - Part 2", "release_date": "2012-11-13", "original_language": "en", "original_title": "The Twilight Saga: Breaking Dawn - Part 2", "genre_ids": [12, 18, 14, 10749], "backdrop_path": "/xDWphxQqBfZJVlTrg6C0GQBSeUc.jpg", "adult": false, "overview": "After the birth of Renesmee, the Cullens gather other vampire clans in order to protect the child from a false allegation that puts the family in front of the Volturi.", "poster_path": "/kJQPygYB8aNEevZZHRifyYrAdU9.jpg", "popularity": 21.925}, {"adult": false, "backdrop_path": "/mAXgaPxxUQg6U446yz8KPRYSUT.jpg", "genre_ids": [12, 18, 10751], "id": 44826, "original_language": "en", "original_title": "Hugo", "overview": "Orphaned and alone except for an uncle, Hugo Cabret lives in the walls of a train station in 1930s Paris. Hugo's job is to oil and maintain the station's clocks, but to him, his more important task is to protect a broken automaton and notebook left to him by his late father. Accompanied by the goddaughter of an embittered toy merchant, Hugo embarks on a quest to solve the mystery of the automaton and find a place he can call home.", "poster_path": "/rSmmVKeW3nsP86V2S6R7ePs4CFw.jpg", "release_date": "2011-11-22", "title": "Hugo", "video": false, "vote_average": 7.1, "vote_count": 4578, "popularity": 20.1}, {"id": 537915, "video": false, "vote_count": 2376, "vote_average": 6.0, "title": "After", "release_date": "2019-04-11", "original_language": "en", "original_title": "After", "genre_ids": [18, 10749], "backdrop_path": "/997ToEZvF2Obp9zNZbY5ELVnmrW.jpg", "adult": false, "overview": "Tessa Young is a dedicated student, dutiful daughter and loyal girlfriend to her high school sweetheart. Entering her first semester of college, Tessa's guarded world opens up when she meets Hardin Scott, a mysterious and brooding rebel who makes her question all she thought she knew about herself -- and what she wants out of life.", "poster_path": "/u3B2YKUjWABcxXZ6Nm9h10hLUbh.jpg", "popularity": 28.116}], "total_pages": 545, "total_results": 10896}, "recommendations": {"page": 1, "results": [], "total_pages": 1, "total_results": 0}, "credits": {"cast": [{"cast_id": 4, "character": "Grace Caldwell Tate", "credit_id": "52fe4a3cc3a36847f81c2adb", "gender": 1, "id": 8231, "name": "Suzanne Pleshette", "order": 0, "profile_path": "/7R77pmMiGLHtDrnhCjGzmDohS8O.jpg"}, {"cast_id": 5, "character": "Sidney Tate", "credit_id": "52fe4a3cc3a36847f81c2adf", "gender": 2, "id": 18647, "name": "Bradford Dillman", "order": 1, "profile_path": "/zmoOkQTh6c7VwQlEl86r73pYFFw.jpg"}, {"cast_id": 17, "character": "Roger Bannon", "credit_id": "52fe4a3cc3a36847f81c2b03", "gender": 2, "id": 856, "name": "Ben Gazzara", "order": 2, "profile_path": "/ywxPLxBIZU7nUx0HcNHD1xSXy0w.jpg"}, {"cast_id": 14, "character": "Connie", "credit_id": "52fe4a3cc3a36847f81c2af7", "gender": 1, "id": 124010, "name": "Sarah Marshall", "order": 3, "profile_path": "/vxALhXM0I727J4GX1Pd0DWQb6qN.jpg"}, {"cast_id": 15, "character": "Paul Rutherford", "credit_id": "52fe4a3cc3a36847f81c2afb", "gender": 2, "id": 9597, "name": "George Furth", "order": 4, "profile_path": "/hVSE8zXoN7BmNbimcnZZpHYOMYj.jpg"}, {"cast_id": 8, "character": "Amy Hollister", "credit_id": "52fe4a3cc3a36847f81c2ae3", "gender": 1, "id": 153694, "name": "Bethel Leslie", "order": 6, "profile_path": "/lCZeRSYhvvLDhKDmXSrcaGp5jjF.jpg"}, {"cast_id": 9, "character": "Emily Caldwell", "credit_id": "52fe4a3cc3a36847f81c2ae7", "gender": 0, "id": 132357, "name": "Carmen Mathews", "order": 7, "profile_path": "/hTY3jj8iFRbV8LbSyT3I8igYj7o.jpg"}, {"cast_id": 16, "character": "Emma", "credit_id": "52fe4a3cc3a36847f81c2aff", "gender": 1, "id": 101481, "name": "Virginia Christine", "order": 8, "profile_path": "/qVpNBAgaT0fc7WN7UrHp3pd4BJa.jpg"}, {"cast_id": 10, "character": "Brock Caldwell", "credit_id": "52fe4a3cc3a36847f81c2aeb", "gender": 2, "id": 127610, "name": "Linden Chiles", "order": 9, "profile_path": "/vFCKWtJP3sL5QWYNAoWbdrPcpjT.jpg"}, {"cast_id": 12, "character": "Mrs. Bannon", "credit_id": "52fe4a3cc3a36847f81c2aef", "gender": 1, "id": 8493, "name": "Ruth White", "order": 10, "profile_path": "/fpz3aVtyHw3luNQxoRkYBlOOqIa.jpg"}, {"cast_id": 13, "character": "Charlie Jay", "credit_id": "52fe4a3cc3a36847f81c2af3", "gender": 2, "id": 161433, "name": "Mark Goddard", "order": 11, "profile_path": "/mJ8Ctib5EiS6p9aX7TDEJYLB7U0.jpg"}, {"cast_id": 18, "character": "Jack Hollister", "credit_id": "52fe4a3cc3a36847f81c2b07", "gender": 2, "id": 9111, "name": "Peter Graves", "order": 12, "profile_path": "/95Zd5Vow7dSaJm7Oa7rM0ZthrwO.jpg"}, {"cast_id": 19, "character": "Dr. O'Brien", "credit_id": "52fe4a3cc3a36847f81c2b0b", "gender": 2, "id": 14732, "name": "James Gregory", "order": 13, "profile_path": "/xOpEhGx9Qupfdfo3KUaA0DHxbko.jpg"}, {"cast_id": 27, "character": "Jessie Jay", "credit_id": "5a1af2d20e0a264cc103f16c", "gender": 0, "id": 1211891, "name": "Brett Somers", "order": 14, "profile_path": null}, {"cast_id": 28, "character": "Restaurant Patron (uncredited)", "credit_id": "5a9b85ad0e0a2605d502c55a", "gender": 2, "id": 1990130, "name": "Ed Haskett", "order": 15, "profile_path": null}, {"cast_id": 29, "character": "Mary", "credit_id": "5b725d220e0a267ef61a4861", "gender": 1, "id": 56138, "name": "Aneta Corsaut", "order": 16, "profile_path": "/zK6UvO7TCTNAdSiYCJwgmcvR1OY.jpg"}], "crew": [{"credit_id": "55c77040c3a368248c0023ca", "department": "Production", "gender": 2, "id": 1263, "job": "Casting", "name": "Lynn Stalmaster", "profile_path": "/rhyzo2qgsGAXIpGTN5OabbZU95U.jpg"}, {"credit_id": "55c7700492514105d200247e", "department": "Sound", "gender": 2, "id": 4360, "job": "Music", "name": "Nelson Riddle", "profile_path": null}, {"credit_id": "55c7705592514105c80024e2", "department": "Costume & Make-Up", "gender": 2, "id": 13866, "job": "Costume Design", "name": "Howard Shoup", "profile_path": null}, {"credit_id": "55c77018c3a3687f8e000923", "department": "Camera", "gender": 2, "id": 18576, "job": "Director of Photography", "name": "Charles Lawton Jr.", "profile_path": null}, {"credit_id": "55c76feb92514105c6002515", "department": "Production", "gender": 2, "id": 35497, "job": "Producer", "name": "Lewis J. Rachmil", "profile_path": null}, {"credit_id": "55c7702a92514105c3002563", "department": "Editing", "gender": 2, "id": 30259, "job": "Editor", "name": "Stuart Gilmore", "profile_path": null}, {"credit_id": "52fe4a3cc3a36847f81c2acb", "department": "Directing", "gender": 2, "id": 101899, "job": "Director", "name": "Walter Grauman", "profile_path": "/fs5zC0ny9QIggpbIaI00J6DfLyx.jpg"}, {"credit_id": "52fe4a3cc3a36847f81c2ad7", "department": "Writing", "gender": 2, "id": 127518, "job": "Novel", "name": "John O'Hara", "profile_path": null}, {"credit_id": "52fe4a3cc3a36847f81c2ad1", "department": "Writing", "gender": 2, "id": 179488, "job": "Screenplay", "name": "John T. Kelley", "profile_path": null}, {"credit_id": "55c7706e92514105c600251b", "department": "Directing", "gender": 0, "id": 1213763, "job": "Script Supervisor", "name": "Doris Grau", "profile_path": "/eIp8g6MPATsH0A0ZUiKOaBvNScg.jpg"}]}}