{"adult": false, "backdrop_path": null, "belongs_to_collection": null, "budget": 0, "genres": [{"id": 99, "name": "Documentary"}], "homepage": null, "id": 104852, "imdb_id": "tt0241763", "original_language": "xx", "original_title": "Newark Athlete", "overview": "Experimental film fragment made with the Edison-Dickson-Heise experimental horizontal-feed kinetograph camera and viewer, using 3/4-inch wide film.", "popularity": 2.029, "poster_path": "/itnuTVUMuvlal8CxQhT1PNoH2HF.jpg", "production_companies": [{"id": 18758, "logo_path": "/fe3cMUJLhbkTM9PDxdDA8hQpAxp.png", "name": "Edison Manufacturing Company", "origin_country": "US"}], "production_countries": [{"iso_3166_1": "US", "name": "United States of America"}], "release_date": "1891-05-01", "revenue": 0, "runtime": 1, "spoken_languages": [{"iso_639_1": "xx", "name": "No Language"}], "status": "Released", "tagline": "", "title": "Newark Athlete", "video": false, "vote_average": 4.4, "vote_count": 31, "keywords": {"keywords": [{"id": 14629, "name": "experimental"}, {"id": 154802, "name": "silent film"}]}, "similar": {"page": 1, "results": [{"id": 621733, "video": false, "vote_count": 0, "vote_average": 0.0, "title": "A Trip to the Seaside", "release_date": "2019-08-30", "original_language": "en", "original_title": "A Trip to the Seaside", "genre_ids": [99], "backdrop_path": null, "adult": false, "overview": "Experimental short film on the excitement and rush of a day trip", "poster_path": "/AuZVhpoJ4jm2LWDhoJKfxQfhDAi.jpg", "popularity": 1.324}, {"id": 650755, "video": false, "vote_count": 0, "vote_average": 0.0, "title": "Atordoado, Eu Permane\u00e7o Atento", "release_date": "2020-01-15", "original_language": "pt", "original_title": "Atordoado, Eu Permane\u00e7o Atento", "genre_ids": [99], "backdrop_path": null, "adult": false, "overview": "", "poster_path": "/exbM8qk6f6T44olJXcM8ix1sunL.jpg", "popularity": 5.092}, {"adult": false, "backdrop_path": "/twGxeStlGooWV3gP6ZIcSNuQ6jf.jpg", "genre_ids": [12, 16, 10751, 14], "id": 81684, "original_language": "en", "original_title": "The Gruffalo's Child", "overview": "A follow up to the 2009 animated feature and adapted from the childrens' book by Julia Donaldson and Alex Scheffler.  The Gruffalo's child explores the deep dark wood in search of the big bad mouse and meets the Snake, Owl and Fox in the process.  She eventually finds the mouse, who manages to outwit her like the Gruffalo before!", "poster_path": "/qaGH2AoaLvoGXURQtNzj1nw6oZd.jpg", "release_date": "2011-12-25", "title": "The Gruffalo's Child", "video": false, "vote_average": 6.9, "vote_count": 73, "popularity": 9.51}, {"adult": false, "backdrop_path": null, "genre_ids": [], "id": 616262, "original_language": "ar", "original_title": "All Come From Dust", "overview": "A loop of edgeless bend. You were its doom, he was its bloom. You were its tomb, he was its womb. You were its gloom, he was its loom. For Heaven and Hell, were words made of fume.", "poster_path": null, "release_date": "2019-08-13", "title": "All Come From Dust", "video": false, "vote_average": 5.0, "vote_count": 1, "popularity": 0.6}, {"id": 10258, "video": false, "vote_count": 148, "vote_average": 6.6, "title": "The Madagascar Penguins in a Christmas Caper", "release_date": "2005-09-23", "original_language": "en", "original_title": "The Madagascar Penguins in a Christmas Caper", "genre_ids": [16, 35, 10751], "backdrop_path": "/gdJ6j1hmt6dQgObWxDJAHUb58o6.jpg", "adult": false, "overview": "During the holiday season, when the animals of the Central Park Zoo are preparing for Christmas, Private, the youngest of the penguins notices that the Polar Bear is all alone. Assured that nobody should have to spend Christmas alone, Private goes into the city for some last-minute Christmas shopping. Along the way, he gets stuffed into a stocking", "poster_path": "/r8QtfGSjDaY6vICRVyYvZvTkjxc.jpg", "popularity": 13.032}, {"id": 19, "video": false, "vote_count": 1340, "vote_average": 8.2, "title": "Metropolis", "release_date": "1927-01-10", "original_language": "de", "original_title": "Metropolis", "genre_ids": [18, 878], "backdrop_path": "/gmH0N0bdlYGN1EUr8U2cMQYyg78.jpg", "adult": false, "overview": "In a futuristic city sharply divided between the working class and the city planners, the son of the city's mastermind falls in love with a working class prophet who predicts the coming of a savior to mediate their differences.", "poster_path": "/qriaeUUwdmlgethK3aSAx68mG05.jpg", "popularity": 20.587}, {"id": 901, "video": false, "vote_count": 1026, "vote_average": 8.4, "title": "City Lights", "release_date": "1931-02-01", "original_language": "xx", "original_title": "City Lights", "genre_ids": [35, 18, 10749], "backdrop_path": "/vT6ux2rdyg2kexuLisO5Ygz7pHg.jpg", "adult": false, "overview": "City Lights is the first silent film that Charlie Chaplin directed after he established himself with sound accompanied films. The film is about a penniless man who falls in love with a flower girl.", "poster_path": "/bXNvzjULc9jrOVhGfjcc64uKZmZ.jpg", "popularity": 14.645}, {"id": 14813, "video": false, "vote_count": 456, "vote_average": 7.6, "title": "Mickey's Christmas Carol", "release_date": "1983-10-19", "original_language": "en", "original_title": "Mickey's Christmas Carol", "genre_ids": [16, 10751], "backdrop_path": "/fDK3xeAcQfQ40ZUULgZshElkspa.jpg", "adult": false, "overview": "It is an adaptation of the Charles Dickens classic A Christmas Carol, featuring Scrooge McDuck as his namesake and inspiration Ebenezer Scrooge and Mickey Mouse as Bob Cratchit. This film was based on a 1972 audio musical entitled Disney's A Christmas Carol. It is a twenty-four minute animated short film produced by Walt Disney Productions as an accompaniment to a re-release of The Rescuers.", "poster_path": "/29iF1IiC3ZyJQ1kmTf4LD8p8oro.jpg", "popularity": 14.7}, {"adult": false, "backdrop_path": "/tr6OExnBfjLADi9OyZoW308mPAp.jpg", "genre_ids": [18, 35, 10749], "id": 74643, "original_language": "en", "original_title": "The Artist", "overview": "Hollywood, 1927: As silent movie star George Valentin wonders if the arrival of talking pictures will cause him to fade into oblivion, he sparks with Peppy Miller, a young dancer set for a big break.", "poster_path": "/i0mpvMIIjyubXsVKug9vX0lYpnd.jpg", "release_date": "2011-06-26", "title": "The Artist", "video": false, "vote_average": 7.4, "vote_count": 1977, "popularity": 10.661}, {"id": 326359, "video": false, "vote_count": 1180, "vote_average": 6.8, "title": "Frozen Fever", "release_date": "2015-03-09", "original_language": "en", "original_title": "Frozen Fever", "genre_ids": [12, 16, 10751], "backdrop_path": "/ubioPGniCfDiASmYYpeJs5RRNaC.jpg", "adult": false, "overview": "On Anna's birthday, Elsa and Kristoff are determined to give her the best celebration ever, but Elsa's icy powers may put more than just the party at risk.", "poster_path": "/lKJiVPzsAO9IJ4LKWXZ8vkR2bg4.jpg", "popularity": 17.218}, {"adult": false, "backdrop_path": "/wcT7srQ4GeeMqlszMFEtPZ7v8T7.jpg", "genre_ids": [35, 10749], "id": 28978, "original_language": "en", "original_title": "The Circus", "overview": "Charlie, a wandering tramp, becomes a circus handyman and falls in love with the circus owner's daughter. Unaware of Charlie's affection, the girl falls in love with a handsome young performer. Charlie's versatility makes him star of the show when he substitutes for an ailing tightwire walker. He is discharged from the company when he protects the girl from her father's abuse, but he returns and appeals to the handsome performer to marry the girl. After the wedding the father prevails upon them to rejoin the circus. Charlie is hired again, but he stays behind when the caravan moves on.", "poster_path": "/awTf4Y6TGvgi3VYtGNINyyJJy9Q.jpg", "release_date": "1928-01-06", "title": "The Circus", "video": false, "vote_average": 8.2, "vote_count": 330, "popularity": 12.839}, {"id": 460793, "video": false, "vote_count": 933, "vote_average": 6.2, "title": "Olaf's Frozen Adventure", "release_date": "2017-10-27", "original_language": "en", "original_title": "Olaf's Frozen Adventure", "genre_ids": [12, 16, 35, 14, 10402, 10751], "backdrop_path": "/9K4QqQZg4TVXcxBGDiVY4Aey3Rn.jpg", "adult": false, "overview": "Olaf is on a mission to harness the best holiday traditions for Anna, Elsa, and Kristoff.", "poster_path": "/As8WTtxXs9e3cBit3ztTf7zoRmm.jpg", "popularity": 21.98}, {"id": 14787, "video": false, "vote_count": 124, "vote_average": 6.4, "title": "Tom and Jerry: The Magic Ring", "release_date": "2002-03-12", "original_language": "en", "original_title": "Tom and Jerry: The Magic Ring", "genre_ids": [28, 16, 35, 14, 10751], "backdrop_path": "/wPvYwB9NYUJRXIzjKeupigE1JXc.jpg", "adult": false, "overview": "The world's favourite cat and mouse team bounds back into action in an all-new full-length animated adventure certain to cast its spell over the entire family Left in charge of a priceless magical ring by his young wizard master, Tom is horrified when the ring gets stuck on Jerry's head, who then runs off into the city! Before you can say \"abracadabra\", the entire town is hot on our heroes' tails.", "poster_path": "/fF6I48WGKktHfGYYSVKPTVildWE.jpg", "popularity": 15.019}, {"id": 654980, "video": false, "vote_count": 0, "vote_average": 0.0, "title": "Former Cult Member Hears Music For The First Time", "release_date": "2020-01-23", "original_language": "en", "original_title": "Former Cult Member Hears Music For The First Time", "genre_ids": [], "backdrop_path": null, "adult": false, "overview": "After a woman escapes the captivity of her abusive family, a magazine invites her to a journalistic experiment: to hear music for the first time.", "poster_path": "/85K8ODZp51Cl5OAivRyjN1MKTdy.jpg", "popularity": 18.403}, {"adult": false, "backdrop_path": null, "genre_ids": [], "id": 623058, "original_language": "en", "original_title": "We Still Have to Close Our Eyes", "overview": "John Torres repurposes documentary footage captured from the sets of various Filipino productions (including the likes of Lav Diaz and Erik Matti) into an eerie, elliptical sci-fi narrative about human avatars controlled by apps.", "poster_path": "/jY7znoWWH3BJCK25w6QBOSfIFPs.jpg", "release_date": "2019-09-06", "title": "We Still Have to Close Our Eyes", "video": false, "vote_average": 0.0, "vote_count": 0, "popularity": 1.278}, {"id": 621485, "video": false, "vote_count": 2, "vote_average": 5.5, "title": "Guest of Honor", "release_date": "2019-08-14", "original_language": "en", "original_title": "Guest of Honor", "genre_ids": [18], "backdrop_path": "/qo3f05mAqiGG5yDyVhURwwhR1oh.jpg", "adult": false, "overview": "A devout Nazi oversees a group of taste testers for Hitler.", "poster_path": "/g02YorY0sAVDJuXdL42Vpmqtv0g.jpg", "popularity": 3.407}, {"id": 596890, "video": false, "vote_count": 0, "vote_average": 0.0, "title": "Tenzo", "release_date": "2019-11-27", "original_language": "ja", "original_title": "\u5178\u5ea7 -TENZO-", "genre_ids": [99], "backdrop_path": "/hI3TYhcjM1CXOkLxY0q5qjiFu9u.jpg", "adult": false, "overview": "To address the social crisis, Chiken - a buddhist monk - throws himself into various tasks such as a suicide helpline, in his temple in Yamanashi. In Fukushima, his old mate Ry\u00fbgy\u00f4 - whose temple was wrecked by the tsunami - lives in a portacabin and works on construction sites.", "poster_path": "/dMWUVF3v5Yfg68LBA0RNxKJyuVI.jpg", "popularity": 0.942}, {"adult": false, "backdrop_path": "/5qy4PGnEzZajJNzPZ2jxiqUIBON.jpg", "genre_ids": [35], "id": 6166, "original_language": "en", "original_title": "Dinner for One", "overview": "A very old woman wants to have dinner with her friends. As they are all dead, the butler has to play the role of every guest.", "poster_path": "/2uzk4IIwOrRQHn816IsEngYn8mp.jpg", "release_date": "1963-06-08", "title": "Dinner for One", "video": false, "vote_average": 7.4, "vote_count": 73, "popularity": 6.375}, {"id": 76122, "video": false, "vote_count": 232, "vote_average": 6.5, "title": "Marvel One-Shot: The Consultant", "release_date": "2011-09-12", "original_language": "en", "original_title": "Marvel One-Shot: The Consultant", "genre_ids": [28, 12, 14, 878], "backdrop_path": "/tHthULHaBaWLS1z2UfYhvHphJSb.jpg", "adult": false, "overview": "Agent Coulson informs Agent Sitwell that the World Security Council wishes Emil Blonsky to be released from prison to join the Avengers Initiative. As Nick Fury doesn't want to release Blonsky, the two agents decide to send a patsy to sabotage the meeting...", "poster_path": "/75AsB4NRKaYanuCeKYgIh2hfsR1.jpg", "popularity": 14.466}, {"id": 26317, "video": false, "vote_count": 283, "vote_average": 8.0, "title": "Man with a Movie Camera", "release_date": "1929-01-08", "original_language": "ru", "original_title": "\u0427\u0435\u043b\u043e\u0432\u0435\u043a \u0441 \u043a\u0438\u043d\u043e\u0430\u043f\u043f\u0430\u0440\u0430\u0442\u043e\u043c", "genre_ids": [99], "backdrop_path": "/8mg8GZePag5LZVhveBTL92Ufh5W.jpg", "adult": false, "overview": "A cameraman wanders around Moscow, Kharkov, Kiev and Odessa with a camera slung over his shoulder, documenting urban life with dazzling invention.", "poster_path": "/Ded5Kl7MDZQTbFpoNI62tLVWUN.jpg", "popularity": 9.16}], "total_pages": 876, "total_results": 17515}, "recommendations": {"page": 1, "results": [{"adult": false, "backdrop_path": null, "genre_ids": [35], "id": 32571, "original_language": "xx", "original_title": "Monkeyshines, No. 1", "overview": "Experimental film made to test the original cylinder format of the Kinetoscope and believed to be the first film shot in the United States. It shows a blurry figure in white standing in one place making large gestures and is only a few seconds long.", "poster_path": "/pXnvY4HMY7cgbFJNTCOFH3Jh4ho.jpg", "release_date": "1890-11-21", "title": "Monkeyshines, No. 1", "video": false, "vote_average": 4.1, "vote_count": 30, "popularity": 1.805}, {"adult": false, "backdrop_path": null, "genre_ids": [99], "id": 96882, "original_language": "xx", "original_title": "Accordion Player", "overview": "The last remaining film of Le Prince's LPCCP Type-1 MkII single-lens camera is a sequence of frames of his son, Adolphe Le Prince, playing a diatonic button accordion. It was recorded on the steps of the house of Joseph Whitley, Adolphe's grandfather.", "poster_path": "/jAJT9hDfEDz3f4Uo4yqqVRBR5Yj.jpg", "release_date": "1888-01-01", "title": "Accordion Player", "video": false, "vote_average": 4.8, "vote_count": 30, "popularity": 1.704}, {"adult": false, "backdrop_path": null, "genre_ids": [18], "id": 16624, "original_language": "xx", "original_title": "Blacksmith Scene", "overview": "Three men hammer on an anvil and pass a bottle of beer around. Notable for being the first film in which a scene is being acted out.", "poster_path": "/sQHhjP7khHjrifGqVivO35R5k7K.jpg", "release_date": "1893-05-08", "title": "Blacksmith Scene", "video": false, "vote_average": 5.5, "vote_count": 40, "popularity": 2.162}, {"adult": false, "backdrop_path": null, "genre_ids": [99], "id": 33229, "original_language": "xx", "original_title": "Dickson Greeting", "overview": "William K.L. Dickson brings his hat from his one hand to the other and moves his head slightly, as a small nod toward the audience. This was the first film produced by the Edison Manufacturing Company to be shown to public audiences and the press.", "poster_path": "/nzxhqmDVlVAGMkjJJhRdUv0esiv.jpg", "release_date": "1891-01-01", "title": "Dickson Greeting", "video": false, "vote_average": 4.7, "vote_count": 29, "popularity": 2.44}, {"adult": false, "backdrop_path": null, "genre_ids": [28, 99], "id": 33318, "original_language": "xx", "original_title": "Men Boxing", "overview": "Experimental film fragment made with the Edison-Dickson-Heise experimental horizontal-feed kinetograph camera and viewer, using 3/4-inch wide film.", "poster_path": "/7csTEvz5gWAUwB5FpybN4GI25jq.jpg", "release_date": "1891-04-30", "title": "Men Boxing", "video": false, "vote_average": 3.9, "vote_count": 18, "popularity": 1.251}, {"adult": false, "backdrop_path": null, "genre_ids": [99], "id": 155107, "original_language": "en", "original_title": "Buffalo Dance", "overview": "Long before Hollywood started painting white men red and dressing them as 'Injuns' Edison's company was using the genuine article! Featuring for what is believed to be the Native Americans first appearance before a motion picture camera 'Buffalo Dance' features genuine members of the Sioux Tribe dressed in full war paint and costume! The dancers are believed to be veteran members of Buffalo Bill's Wild West Show. Filmed again at the Black Maria studios by both Dickson and Heise the 'Buffalo Dance' warriors were named as Hair Coat, Parts His Hair and Last Horse. Its quite strange seeing these movies at first they all stand around waiting to begin and as they start some of the dancers look at the camera in an almost sad way at having lost their way of life.", "poster_path": "/4YD0GzfmGq33KJhkRuDUefTrlVn.jpg", "release_date": "1894-09-23", "title": "Buffalo Dance", "video": false, "vote_average": 4.4, "vote_count": 16, "popularity": 1.191}, {"adult": false, "backdrop_path": null, "genre_ids": [], "id": 105157, "original_language": "en", "original_title": "A Hand Shake", "overview": "William K.L. Dickson and William Heise shake hands in this early experimental film.", "poster_path": "/6l4A8iKwMovccSqx4ITUGMebzpZ.jpg", "release_date": "1892-01-01", "title": "A Hand Shake", "video": false, "vote_average": 3.2, "vote_count": 14, "popularity": 2.169}, {"adult": false, "backdrop_path": null, "genre_ids": [], "id": 146522, "original_language": "en", "original_title": "Rip Leaving Sleepy Hollow", "overview": "", "poster_path": "/nu4gXbaLSOXXcZ5hhG3uHSFOnhX.jpg", "release_date": "1896-09-30", "title": "Rip Leaving Sleepy Hollow", "video": false, "vote_average": 4.4, "vote_count": 16, "popularity": 2.501}, {"adult": false, "backdrop_path": null, "genre_ids": [], "id": 191594, "original_language": "xx", "original_title": "Assiettes tournantes", "overview": "F\u00e9licien Trewey, performing his spinning plates routine.", "poster_path": "/pwC6m2lVXHg5KxcATlNb72tvvXj.jpg", "release_date": "1896-02-20", "title": "Assiettes tournantes", "video": false, "vote_average": 6.5, "vote_count": 11, "popularity": 1.4}, {"adult": false, "backdrop_path": null, "genre_ids": [99], "id": 147397, "original_language": "en", "original_title": "Mr. Edison at Work in His Chemical Laboratory", "overview": "\u201cThis film is remarkable in several respects. In the first place, it is full life-size. Secondly, it is the only accurate recent portrait of the great inventor. The scene is an actual one, showing Mr. Edison in working dress engaged in an interesting chemical experiment in his great Laboratory. There is sufficient movement to lead the spectator through the several processes of mixing, pouring, testing, etc. as if he were side by side with the principal. The lights and shadows are vivid, and the apparatus and other accessories complete a startling picture that will appeal to every beholder.\u201d (Edison Catalog)", "poster_path": "/movfhAfTwEFnCoLacLsaAPUzk1g.jpg", "release_date": "1897-05-31", "title": "Mr. Edison at Work in His Chemical Laboratory", "video": false, "vote_average": 5.1, "vote_count": 18, "popularity": 1.73}, {"adult": false, "backdrop_path": null, "genre_ids": [99], "id": 129863, "original_language": "en", "original_title": "Demolishing and Building Up the Star Theatre", "overview": "Time-lapse photography showing the one month-long demolition of the Star Theatre in New York.", "poster_path": "/Ak50Z0xgsaD1iTI6amwDiJD38E9.jpg", "release_date": "1901-04-29", "title": "Demolishing and Building Up the Star Theatre", "video": false, "vote_average": 6.8, "vote_count": 18, "popularity": 1.227}, {"adult": false, "backdrop_path": null, "genre_ids": [], "id": 146576, "original_language": "en", "original_title": "Rip's Toast", "overview": "", "poster_path": "/nu4gXbaLSOXXcZ5hhG3uHSFOnhX.jpg", "release_date": "1896-09-30", "title": "Rip's Toast", "video": false, "vote_average": 4.4, "vote_count": 15, "popularity": 1.138}, {"adult": false, "backdrop_path": null, "genre_ids": [99], "id": 16612, "original_language": "en", "original_title": "Carmencita", "overview": "The first woman to appear in front of an Edison motion picture camera and possibly the first woman to appear in a motion picture within the United States. In the film, Carmencita is recorded going through a routine she had been performing at Koster & Bial's in New York since February 1890.", "poster_path": "/6QJowxF4f2hrUtmrDXOqbRDMdDH.jpg", "release_date": "1894-03-14", "title": "Carmencita", "video": false, "vote_average": 5.1, "vote_count": 30, "popularity": 2.294}, {"adult": false, "backdrop_path": null, "genre_ids": [], "id": 146565, "original_language": "en", "original_title": "Rip Passing Over the Mountain", "overview": "", "poster_path": "/nu4gXbaLSOXXcZ5hhG3uHSFOnhX.jpg", "release_date": "1896-09-30", "title": "Rip Passing Over the Mountain", "video": false, "vote_average": 4.5, "vote_count": 14, "popularity": 2.501}, {"adult": false, "backdrop_path": null, "genre_ids": [99], "id": 105158, "original_language": "en", "original_title": "Edison Kinetoscopic Record of a Sneeze", "overview": "A man (Thomas Edison's assistant) takes a pinch of snuff and sneezes. This is one of the earliest Thomas Edison films and was the first motion picture to be copyrighted in the United States.", "poster_path": "/utsYe7NaVdiUhXpBwgln3LTucYs.jpg", "release_date": "1894-01-09", "title": "Edison Kinetoscopic Record of a Sneeze", "video": false, "vote_average": 4.9, "vote_count": 32, "popularity": 1.779}, {"adult": false, "backdrop_path": null, "genre_ids": [99], "id": 190575, "original_language": "en", "original_title": "Bassin des Tuileries", "overview": "Short of the Tuileries.", "poster_path": "/blyP3JZdezhbb4gyUSXfUqrhjgF.jpg", "release_date": "1896-04-05", "title": "Bassin des Tuileries", "video": false, "vote_average": 5.1, "vote_count": 14, "popularity": 1.918}, {"adult": false, "backdrop_path": null, "genre_ids": [], "id": 146574, "original_language": "en", "original_title": "Rip Meeting the Dwarf", "overview": "", "poster_path": "/nu4gXbaLSOXXcZ5hhG3uHSFOnhX.jpg", "release_date": "1896-09-30", "title": "Rip Meeting the Dwarf", "video": false, "vote_average": 4.5, "vote_count": 15, "popularity": 1.453}, {"adult": false, "backdrop_path": null, "genre_ids": [], "id": 147723, "original_language": "en", "original_title": "A Romance of the Rail", "overview": "", "poster_path": "/n4Rk8gxnLpfZadxybHIdMyzI8dY.jpg", "release_date": "1903-10-31", "title": "A Romance of the Rail", "video": false, "vote_average": 4.5, "vote_count": 12, "popularity": 1.335}, {"adult": false, "backdrop_path": null, "genre_ids": [], "id": 146580, "original_language": "en", "original_title": "Awakening of Rip", "overview": "", "poster_path": "/nu4gXbaLSOXXcZ5hhG3uHSFOnhX.jpg", "release_date": "1896-09-30", "title": "Awakening of Rip", "video": false, "vote_average": 4.1, "vote_count": 16, "popularity": 1.247}, {"adult": false, "backdrop_path": null, "genre_ids": [99], "id": 127792, "original_language": "xx", "original_title": "Place des Cordeliers \u00e0 Lyon", "overview": "Pedestrian and horse-drawn vehicles traffic, across the Place des Cordeliers, in Lyon.", "poster_path": "/o27jvhxQaQRFDE0x3lTrQZYnYPH.jpg", "release_date": "1895-06-10", "title": "Cordeliers' Square in Lyon", "video": false, "vote_average": 5.3, "vote_count": 29, "popularity": 1.439}], "total_pages": 2, "total_results": 40}, "credits": {"cast": [], "crew": [{"credit_id": "52fe4a3ec3a36847f81c32af", "department": "Directing", "gender": 0, "id": 110347, "job": "Director", "name": "William K.L. Dickson ", "profile_path": "/gqyFBW6i07NodR9wTrGG13hjoZm.jpg"}]}}