{"adult": false, "backdrop_path": "/67R1anJoRDIzeZQCXHilXNBKMkM.jpg", "belongs_to_collection": null, "budget": 0, "genres": [{"id": 99, "name": "Documentary"}], "homepage": "http://theexorcist.warnerbros.com/", "id": 104846, "imdb_id": "tt0237235", "original_language": "en", "original_title": "The Fear of God: 25 Years of The Exorcist", "overview": "A behind-the-scenes retrospective made for the twenty-fifth anniversary of the classic horror film, The Exorcist. Includes interviews with Linda Blair and the other stars of the film, along with commentary from the director and writer on some of the deeper meanings behind the elements they used to terrify their audiences, and previously unreleased footage including make-up tests and deleted scenes.", "popularity": 3.843, "poster_path": "/niIPsBAsNCtT82yvrsUb2J4iK37.jpg", "production_companies": [{"id": 3324, "logo_path": "/16fY7pucCzn7WSOYxOGRHlAayL3.png", "name": "BBC", "origin_country": "GB"}], "production_countries": [{"iso_3166_1": "GB", "name": "United Kingdom"}], "release_date": "1998-01-01", "revenue": 0, "runtime": 74, "spoken_languages": [{"iso_639_1": "en", "name": "English"}], "status": "Released", "tagline": "Twenty-five years ago, an extraordinary movie changed the face of modern cinema.", "title": "The Fear of God: 25 Years of The Exorcist", "video": false, "vote_average": 6.4, "vote_count": 8, "keywords": {"keywords": [{"id": 2626, "name": "exorcism"}, {"id": 8087, "name": "horror"}, {"id": 9817, "name": "behind the scenes"}, {"id": 33490, "name": "filmmaking"}, {"id": 50244, "name": "making of"}, {"id": 159940, "name": "exorcist"}]}, "similar": {"page": 1, "results": [{"id": 157544, "video": false, "vote_count": 401, "vote_average": 4.7, "title": "The Vatican Tapes", "release_date": "2015-07-24", "original_language": "en", "original_title": "The Vatican Tapes", "genre_ids": [27, 53], "backdrop_path": "/vxcUvt5V3qsDddh0ivgdeSLUMyG.jpg", "adult": false, "overview": "In a highly secured vault deep within the walls of Vatican City, the Catholic Church holds thousands of old films and video footage documenting exorcisms/supposed exorcisms and other unexplained religious phenomena they feel the world is not ready to see. This is the first tape - Case 83-G - stolen from these archives and exposed to the public by an anonymous source.", "poster_path": "/uiKoHzltaCzHOzvef9tU4HKhqsc.jpg", "popularity": 18.573}, {"adult": false, "backdrop_path": "/xbUtrOQ6YLa5PFTN27LE9NNy8Gz.jpg", "genre_ids": [99], "id": 458080, "original_language": "en", "original_title": "Filmworker", "overview": "The story of Leon Vitali, who surrendered his promising acting career to become Stanley Kubrick's devoted right-hand man.", "poster_path": "/qmZDdrb0nwrV6UMNQQWQh60t7pq.jpg", "release_date": "2018-05-11", "title": "Filmworker", "video": false, "vote_average": 7.3, "vote_count": 29, "popularity": 5.326}, {"adult": false, "backdrop_path": "/ukdawD1jq3IRzpoYE2x6GXOuX3c.jpg", "genre_ids": [27], "id": 211067, "original_language": "en", "original_title": "The Sacrament", "overview": "A fashion photographer is traveling to meet his sister at Eden Parish. Once there, his friends begin to film interviews with the Eden Parish inhabitants, all of whom speak of the commune in glowing terms. However, they soon discover that there is a sinister edge to the commune that belies the seemingly peaceful setting.", "poster_path": "/thdioQOYqqusDUfT6trgwMIoNaQ.jpg", "release_date": "2013-09-02", "title": "The Sacrament", "video": false, "vote_average": 5.7, "vote_count": 226, "popularity": 8.477}, {"adult": false, "backdrop_path": "/yaF4JUgdNy3NKXVtptTkKawZtlB.jpg", "genre_ids": [18, 53, 27], "id": 48171, "original_language": "en", "original_title": "The Rite", "overview": "Seminary student Michael Kovak reluctantly attends exorcism school at the Vatican. While he\u2019s in Rome, Michael meets an unorthodox priest who introduces him to the darker side of his faith, uncovering the devil\u2019s reach even to one of the holiest places on Earth.", "poster_path": "/94jKSKAOfM3EU4bPsOPkVB9AOHT.jpg", "release_date": "2011-01-28", "title": "The Rite", "video": false, "vote_average": 6.0, "vote_count": 1112, "popularity": 11.214}, {"adult": false, "backdrop_path": "/5cnbmWWnzC2L0CbOYZDeCWbHHJP.jpg", "genre_ids": [99], "id": 324558, "original_language": "en", "original_title": "X-Rated: The Greatest Adult Movies of All Time", "overview": "The evolution of adult cinema through the most influential films in history, a journey that begins in the 1970s and ends nowadays. An in-depth analysis of the success of the most prestigious erotic films, their impact on industry and society, and their influence on cinema and contemporary culture.", "poster_path": "/uYzHkzZPp84B7nHOKaJZWjyGFUL.jpg", "release_date": "2015-02-06", "title": "X-Rated: The Greatest Adult Movies of All Time", "video": false, "vote_average": 5.7, "vote_count": 78, "popularity": 11.207}, {"id": 619265, "video": false, "vote_count": 0, "vote_average": 0.0, "title": "The Cabin House", "release_date": "2019-10-31", "original_language": "en", "original_title": "The Cabin House", "genre_ids": [27, 53], "backdrop_path": null, "adult": false, "overview": "A group of college friends rent a cabin in a remote part of town for a weekend getaway. A weekend getaway that quickly turns from a weekend of fun to a weekend of pure terror.", "poster_path": "/yJBg7i9qciw9gKknt97vrxZyYUS.jpg", "popularity": 1.994}, {"id": 394830, "video": false, "vote_count": 239, "vote_average": 5.4, "title": "The Crucifixion", "release_date": "2017-04-27", "original_language": "en", "original_title": "The Crucifixion", "genre_ids": [27, 9648, 53], "backdrop_path": "/rrtjyzKnngEp2akiCM0RtUExPV4.jpg", "adult": false, "overview": "When a priest is jailed for the murder of a nun on whom he was performing an exorcism, an investigative journalist strives to determine whether he in fact murdered a mentally ill person, or if he lost the battle with a demonic presence.", "poster_path": "/yxTFHGcS0AJab3olU9BjABf5Ogx.jpg", "popularity": 12.077}, {"id": 4539, "video": false, "vote_count": 149, "vote_average": 8.0, "title": "Hearts of Darkness: A Filmmaker's Apocalypse", "release_date": "1991-09-06", "original_language": "en", "original_title": "Hearts of Darkness: A Filmmaker's Apocalypse", "genre_ids": [99], "backdrop_path": "/mQ6GJtc5xZpNQpVhAfoeZZbrzJO.jpg", "adult": false, "overview": "A chronicle of the production problems \u2014 including bad weather, actors' health, war near the filming locations, and more \u2014 which plagued the filming of Apocalypse Now, increasing costs and nearly destroying the life and career of Francis Ford Coppola.", "poster_path": "/iQLXcATpUxrRdEzxoDqzCgYllnT.jpg", "popularity": 8.496}, {"id": 241258, "video": false, "vote_count": 352, "vote_average": 5.3, "title": "Incarnate", "release_date": "2016-12-01", "original_language": "en", "original_title": "Incarnate", "genre_ids": [27, 53], "backdrop_path": "/21dr2suNsOCCfeodUYNggoZiRI7.jpg", "adult": false, "overview": "An exorcist comes up against an evil from his past when he uses his skills to enter the mind of a nine year old boy.", "poster_path": "/pSsa9MeiRbfcKx05oDc5yOEYEtb.jpg", "popularity": 12.424}, {"adult": false, "backdrop_path": "/80saIMvZjLDP9YVXIzjIohqm5cm.jpg", "genre_ids": [27, 53, 9648], "id": 572468, "original_language": "id", "original_title": "Perempuan Tanah Jahanam", "overview": "Enticed by a promise of inheritance, a young woman returns to the village of her birth. Unbeknownst to her, the villagers hide a sinister plan -- one that may require her very own death.", "poster_path": "/vDs7Yg708VOXkXJPHnPr4xNAz75.jpg", "release_date": "2019-10-17", "title": "Impetigore", "video": false, "vote_average": 7.4, "vote_count": 8, "popularity": 9.285}, {"adult": false, "backdrop_path": "/1mX176nVF8dRu8x4uExiC8Mq6a1.jpg", "genre_ids": [99], "id": 510714, "original_language": "en", "original_title": "The Director and the Jedi", "overview": "An intimate documentary delving into Rian Johnson's process as he comes in as a director new to the Star Wars universe.", "poster_path": "/gH4lXy8FZC3uYTR4veqc9md8bGm.jpg", "release_date": "2018-03-12", "title": "The Director and the Jedi", "video": false, "vote_average": 7.4, "vote_count": 18, "popularity": 4.831}, {"adult": false, "backdrop_path": "/8pjSUKUdFmdwKQkFJXR3KxqSuuI.jpg", "genre_ids": [99], "id": 330127, "original_language": "en", "original_title": "Back in Time", "overview": "Cast, crew, and fans explore the \u201cBack to the Future\u201d time-travel trilogy's resonance throughout our culture 30 years after Marty McFly went back in time.", "poster_path": "/sI9CLYcD28w1LR1axUneIog8U0S.jpg", "release_date": "2015-10-20", "title": "Back in Time", "video": false, "vote_average": 6.5, "vote_count": 200, "popularity": 10.237}, {"id": 369196, "video": false, "vote_count": 22, "vote_average": 2.7, "title": "I Spit on Your Grave: Deja Vu", "release_date": "2019-04-23", "original_language": "en", "original_title": "I Spit on Your Grave: Deja Vu", "genre_ids": [27, 53], "backdrop_path": "/qPwGvbhKPel3OHPcby5O7Nwqbhv.jpg", "adult": false, "overview": "Following her rape, Jennifer Hills wrote a bestselling account of her ordeal and of the controversial trial in which she was accused of taking the law into her own hands and brutally killing her assailants. In the small town where the rape and revenge took place, the relatives of the four rapists she killed are furious that the court declared her not guilty and resolve to take justice into their own hands.", "poster_path": "/hrD8fU6tA1Pzh4ybxG4iN5TbVdU.jpg", "popularity": 10.355}, {"id": 50787, "video": false, "vote_count": 41, "vote_average": 7.3, "title": "Going to Pieces: The Rise and Fall of the Slasher Film", "release_date": "2006-10-13", "original_language": "en", "original_title": "Going to Pieces: The Rise and Fall of the Slasher Film", "genre_ids": [99, 27], "backdrop_path": "/cnqZRbHNrHWOVLCizyd6QgWtEV0.jpg", "adult": false, "overview": "This historical and critical look at slasher films, which includes dozens of clips, begins with Halloween, Friday the 13th, and Prom Night. The films' directors, writers, producers, and special effects creators comment on the films' making and success. During the Reagan years, the films get gorier, budgets get smaller, and their appeal wanes. Then, Nightmare on Elm Street revives the genre. Jump to the late 90s, when Scream brings humor and TV stars into the mix.", "poster_path": "/2GgTkZg2UVwCp1fapPWiNhiH07g.jpg", "popularity": 4.848}, {"adult": false, "backdrop_path": "/up3qRTA6flt06YddRJ3YlRVQO2k.jpg", "genre_ids": [53, 27], "id": 289416, "original_language": "en", "original_title": "Grace", "overview": "A unique horror film told from the first-person perspective of Grace - a naive, virginal college freshman trying to deal with campus culture and her outgoing roommate as an evil entity takes over her body and unleashes chaos.", "poster_path": "/tM6UP4eFe5irkMD1e0aMAEAquGP.jpg", "release_date": "2014-10-28", "title": "Grace", "video": false, "vote_average": 4.7, "vote_count": 83, "popularity": 7.435}, {"adult": false, "backdrop_path": "/tZcOail3NuHDWUxh77FihNpsnH.jpg", "genre_ids": [27], "id": 38084, "original_language": "en", "original_title": "House III: The Horror Show", "overview": "Detective Lucas McCarthy finally apprehends \"Meat Cleaver Max\" and watches the electric chair execution from the audience. But killing Max Jenke only elevated him to another level of reality. Now Lucas' family is under attack, his sanity in question, and his house haunted. Aided by a disreputable college professor, can Lucas reclaim his mind, house, and family? Features Lance Henriksen as the Lucas McCarthy and Brion James as Max Jenke. One of the few movies featuring these actors as main characters.", "poster_path": "/oePSP43XCR143Ry6UR5xJaCLIOa.jpg", "release_date": "1989-04-28", "title": "House III: The Horror Show", "video": false, "vote_average": 4.8, "vote_count": 63, "popularity": 8.951}, {"adult": false, "backdrop_path": "/qME59Bu2P6o9orEP8L9W2bfB2YU.jpg", "genre_ids": [27], "id": 276922, "original_language": "en", "original_title": "Come Back to Me", "overview": "Sarah &amp; Josh are married suburbanites. After a car accident, Sarah suffers blackouts &amp; ends up pregnant though Josh is sterile. As her life spirals she hides a camera in her home &amp; unlocks a horrific secret with far-reaching consequences.", "poster_path": "/ooNAyaX49EmIsOwK0V66tjkeEAE.jpg", "release_date": "2014-07-25", "title": "Come Back to Me", "video": false, "vote_average": 5.6, "vote_count": 73, "popularity": 6.475}, {"adult": false, "backdrop_path": "/pUZhQ39nN4j2HRGHt2It67rXOCW.jpg", "genre_ids": [99], "id": 36606, "original_language": "en", "original_title": "Full Tilt Boogie", "overview": "A documentary about the production of From Dusk Till Dawn (1996) and the people who made it.", "poster_path": "/b9FJ7sYpyU8RWrZesfmAJZRoKIm.jpg", "release_date": "1997-09-09", "title": "Full Tilt Boogie", "video": false, "vote_average": 6.8, "vote_count": 31, "popularity": 6.84}, {"id": 641709, "video": false, "vote_count": 1, "vote_average": 7.0, "title": "Beyond Horror: The History of Red Films", "release_date": "2019-10-26", "original_language": "en", "original_title": "Beyond Horror: The History of Red Films", "genre_ids": [99], "backdrop_path": null, "adult": false, "overview": "A documentary exploring the history and sub-culture of red films.", "poster_path": "/b8yzPLSkxDL9n5F4HPUYJFTNCFx.jpg", "popularity": 0.829}, {"id": 321066, "video": false, "vote_count": 2, "vote_average": 8.0, "title": "Scream, Queen! My Nightmare on Elm Street", "release_date": "2019-04-05", "original_language": "en", "original_title": "Scream, Queen! My Nightmare on Elm Street", "genre_ids": [99], "backdrop_path": "/trYTl7GCNwabtzGqL4zK32JKcuA.jpg", "adult": false, "overview": "Scream, Queen! examines the infamous homoerotic subtext and the special place the film holds in the Nightmare franchise as well as the gay film canon. Partly in thanks to evolving social mores, Nightmare on Elm Street 2 \u2013 which was considered controversial at the time of its release \u2013 is now being looked back upon with a new appreciation and fondness by horror aficionados and fans of the series.", "poster_path": "/jeB2uXe7E1DlBZvVp2tessmQzoe.jpg", "popularity": 6.486}], "total_pages": 13, "total_results": 256}, "recommendations": {"page": 1, "results": [{"adult": false, "backdrop_path": "/36Kqo97JUqkwAiaIyBFwGRGmuN1.jpg", "genre_ids": [99], "id": 37338, "original_language": "en", "original_title": "Super Bowl XLII Champions - New York Giants", "overview": "The NFC champion New York Giants and the AFC champion New England Patriots meet for the championship of the National Football League.", "poster_path": "/qMiBSxaXAF0rX5nwx63qBfPpquB.jpg", "release_date": "2008-02-26", "title": "Super Bowl XLII Champions - New York Giants", "video": false, "vote_average": 6.3, "vote_count": 4, "popularity": 1.4}, {"adult": false, "backdrop_path": "/uLKo6TwddujUr8S7rsMlHQTF88n.jpg", "genre_ids": [], "id": 103952, "original_language": "en", "original_title": "Racketeer Rabbit", "overview": "Hugo and Rocky (caricatures of Edward G. Robinson and Peter Lorre) make it home to their hideout only to find Bugs already settled down there for the night.", "poster_path": "/28W7PEtssNrPTS4LpFzgfidtNMc.jpg", "release_date": "1946-09-14", "title": "Racketeer Rabbit", "video": false, "vote_average": 6.7, "vote_count": 11, "popularity": 3.874}], "total_pages": 1, "total_results": 2}, "credits": {"cast": [{"cast_id": 4, "character": "Himself - Presenter", "credit_id": "52fe4a3ec3a36847f81c316d", "gender": 2, "id": 204962, "name": "Mark Kermode", "order": 0, "profile_path": "/ynkrNxzs50tXNGDPpkgO4PUWejS.jpg"}, {"cast_id": 5, "character": "Herself - 'Chris MacNeil'", "credit_id": "52fe4a3ec3a36847f81c3171", "gender": 1, "id": 9560, "name": "Ellen Burstyn", "order": 1, "profile_path": "/kxWFljG3JjJMbOMCLm0SkrPQjhf.jpg"}, {"cast_id": 6, "character": "Himself - 'Fr. Dyer'", "credit_id": "52fe4a3ec3a36847f81c3175", "gender": 0, "id": 65433, "name": "William O'Malley", "order": 2, "profile_path": "/cRC9ruQucgs74LiclSE5OcI1eKB.jpg"}, {"cast_id": 7, "character": "Himself", "credit_id": "52fe4a3ec3a36847f81c3179", "gender": 2, "id": 15175, "name": "William Friedkin", "order": 3, "profile_path": "/1iBd92izRHpkSH4hOhcUBmF2cv7.jpg"}, {"cast_id": 8, "character": "Himself - 'Fr. Merrin'", "credit_id": "52fe4a3ec3a36847f81c317d", "gender": 2, "id": 2201, "name": "Max von Sydow", "order": 4, "profile_path": "/nWtTRLZunptwUDyiLo8yZDQ2HqK.jpg"}, {"cast_id": 9, "character": "Herself - 'Regan MacNeil'", "credit_id": "52fe4a3ec3a36847f81c3181", "gender": 1, "id": 37366, "name": "Linda Blair", "order": 5, "profile_path": "/tIoU3CSpjnLi79UfBgNjXNQM1GN.jpg"}, {"cast_id": 10, "character": "Himself", "credit_id": "52fe4a3ec3a36847f81c3185", "gender": 2, "id": 57922, "name": "William Peter Blatty", "order": 6, "profile_path": "/nLjSCliAWTFlmtpBudPG6V6fsIL.jpg"}, {"cast_id": 11, "character": "Himself", "credit_id": "52fe4a3ec3a36847f81c3189", "gender": 0, "id": 1052762, "name": "Thomas Bermingham", "order": 7, "profile_path": null}, {"cast_id": 12, "character": "Himself - 'Damien Karras'", "credit_id": "52fe4a3ec3a36847f81c318d", "gender": 2, "id": 21736, "name": "Jason Miller", "order": 8, "profile_path": "/4dwatFQJnBvS51SjsqnG4ZC4ItZ.jpg"}, {"cast_id": 13, "character": "Himself", "credit_id": "52fe4a3ec3a36847f81c3191", "gender": 0, "id": 71724, "name": "Terence A. Donnelly", "order": 9, "profile_path": null}, {"cast_id": 14, "character": "Himself", "credit_id": "52fe4a3ec3a36847f81c3195", "gender": 0, "id": 1052763, "name": "Bill Malley", "order": 10, "profile_path": null}, {"cast_id": 15, "character": "Himself", "credit_id": "52fe4a3ec3a36847f81c3199", "gender": 0, "id": 1052764, "name": "Joe Hyams", "order": 11, "profile_path": null}, {"cast_id": 16, "character": "Himself", "credit_id": "52fe4a3ec3a36847f81c319d", "gender": 0, "id": 1052765, "name": "Marcel Vercoutere", "order": 12, "profile_path": null}, {"cast_id": 17, "character": "Himself", "credit_id": "52fe4a3ec3a36847f81c31a1", "gender": 2, "id": 16331, "name": "Owen Roizman", "order": 13, "profile_path": "/3dl1QnuVmqz0US2t5tMVmNqPK7u.jpg"}, {"cast_id": 18, "character": "Himself", "credit_id": "52fe4a3ec3a36847f81c31a5", "gender": 2, "id": 29654, "name": "Dick Smith", "order": 14, "profile_path": "/kKCenlQ8iQCTLGfX8ZPpJFpxvwS.jpg"}, {"cast_id": 28, "character": "Himself", "credit_id": "569d52d09251415e700040ca", "gender": 2, "id": 3104, "name": "Chris Newman", "order": 15, "profile_path": null}, {"cast_id": 20, "character": "Himself", "credit_id": "52fe4a3ec3a36847f81c31ad", "gender": 2, "id": 23914, "name": "Bud S. Smith", "order": 16, "profile_path": null}, {"cast_id": 21, "character": "Himself", "credit_id": "52fe4a3ec3a36847f81c31b1", "gender": 2, "id": 1052766, "name": "Robert Knudson", "order": 17, "profile_path": null}, {"cast_id": 22, "character": "Himself", "credit_id": "52fe4a3ec3a36847f81c31b5", "gender": 0, "id": 1052767, "name": "Ron Nagle", "order": 18, "profile_path": null}], "crew": [{"credit_id": "52fe4a3ec3a36847f81c31c7", "department": "Crew", "gender": 2, "id": 15175, "job": "Thanks", "name": "William Friedkin", "profile_path": "/1iBd92izRHpkSH4hOhcUBmF2cv7.jpg"}, {"credit_id": "52fe4a3ec3a36847f81c31c1", "department": "Crew", "gender": 2, "id": 57922, "job": "Thanks", "name": "William Peter Blatty", "profile_path": "/nLjSCliAWTFlmtpBudPG6V6fsIL.jpg"}, {"credit_id": "52fe4a3ec3a36847f81c315d", "department": "Writing", "gender": 2, "id": 204962, "job": "Writer", "name": "Mark Kermode", "profile_path": "/ynkrNxzs50tXNGDPpkgO4PUWejS.jpg"}, {"credit_id": "52fe4a3ec3a36847f81c31bb", "department": "Art", "gender": 2, "id": 256067, "job": "Production Design", "name": "Bob Cummings", "profile_path": null}, {"credit_id": "5dc7ee6c6c0e4f00153a1bff", "department": "Directing", "gender": 0, "id": 1052760, "job": "Director", "name": "Nick Freand Jones", "profile_path": null}, {"credit_id": "52fe4a3ec3a36847f81c3163", "department": "Production", "gender": 0, "id": 1052760, "job": "Producer", "name": "Nick Freand Jones", "profile_path": null}, {"credit_id": "52fe4a3ec3a36847f81c3169", "department": "Editing", "gender": 0, "id": 1052761, "job": "Editor", "name": "Jan Deas", "profile_path": null}, {"credit_id": "52fe4a3ec3a36847f81c31cd", "department": "Crew", "gender": 0, "id": 1053450, "job": "Thanks", "name": "Linda Gordon", "profile_path": null}, {"credit_id": "52fe4a3ec3a36847f81c31d3", "department": "Crew", "gender": 0, "id": 1053451, "job": "Thanks", "name": "Nicki Martin", "profile_path": null}]}}