{"adult": false, "backdrop_path": null, "belongs_to_collection": null, "budget": 0, "genres": [], "homepage": null, "id": 105153, "imdb_id": "tt0241446", "original_language": "en", "original_title": "Fencing", "overview": "Early Edison short showing two men fencing.", "popularity": 0.84, "poster_path": "/4lIYR9ZLTgObRWaMvMgOnZ9yDcM.jpg", "production_companies": [{"id": 18758, "logo_path": "/fe3cMUJLhbkTM9PDxdDA8hQpAxp.png", "name": "Edison Manufacturing Company", "origin_country": "US"}], "production_countries": [{"iso_3166_1": "US", "name": "United States of America"}], "release_date": "1892-01-01", "revenue": 0, "runtime": 1, "spoken_languages": [{"iso_639_1": "xx", "name": "No Language"}], "status": "Released", "tagline": "", "title": "Fencing", "video": false, "vote_average": 2.9, "vote_count": 10, "keywords": {"keywords": [{"id": 6075, "name": "sport"}, {"id": 14629, "name": "experimental"}, {"id": 154802, "name": "silent film"}]}, "similar": {"page": 1, "results": [{"id": 621733, "video": false, "vote_count": 0, "vote_average": 0.0, "title": "A Trip to the Seaside", "release_date": "2019-08-30", "original_language": "en", "original_title": "A Trip to the Seaside", "genre_ids": [99], "backdrop_path": null, "adult": false, "overview": "Experimental short film on the excitement and rush of a day trip", "poster_path": "/AuZVhpoJ4jm2LWDhoJKfxQfhDAi.jpg", "popularity": 1.324}, {"adult": false, "backdrop_path": "/jK3EAFk3GdOaQfUDCOiTujzMpwH.jpg", "genre_ids": [18], "id": 389015, "original_language": "en", "original_title": "I, Tonya", "overview": "Competitive ice skater Tonya Harding rises amongst the ranks at the U. S. Figure Skating Championships, but her future in the sport is thrown into doubt when her ex-husband intervenes.", "poster_path": "/6gNXwSHxaksR1PjVZRqNapmkgj3.jpg", "release_date": "2017-12-08", "title": "I, Tonya", "video": false, "vote_average": 7.5, "vote_count": 3332, "popularity": 20.099}, {"id": 8923, "video": false, "vote_count": 1359, "vote_average": 7.2, "title": "Green Street Hooligans", "release_date": "2005-09-09", "original_language": "en", "original_title": "Green Street Hooligans", "genre_ids": [80, 18], "backdrop_path": "/oasVTD3UpTEjhTAVx9ZCy1k19Qv.jpg", "adult": false, "overview": "After being wrongfully expelled from Harvard University, American Matt Buckner flees to his sister's home in England. Once there, he is befriended by her charming and dangerous brother-in-law, Pete Dunham, and introduced to the underworld of British football hooliganism. Matt learns to stand his ground through a friendship that develops against the backdrop of this secret and often violent world. 'Green Street Hooligans' is a story of loyalty, trust and the sometimes brutal consequences of living close to the edge.", "poster_path": "/z3LC4kI8azbeuHRGgDdWo6VBCdX.jpg", "popularity": 20.194}, {"id": 650755, "video": false, "vote_count": 0, "vote_average": 0.0, "title": "Atordoado, Eu Permane\u00e7o Atento", "release_date": "2020-01-15", "original_language": "pt", "original_title": "Atordoado, Eu Permane\u00e7o Atento", "genre_ids": [99], "backdrop_path": null, "adult": false, "overview": "", "poster_path": "/exbM8qk6f6T44olJXcM8ix1sunL.jpg", "popularity": 5.092}, {"adult": false, "backdrop_path": "/twGxeStlGooWV3gP6ZIcSNuQ6jf.jpg", "genre_ids": [12, 16, 10751, 14], "id": 81684, "original_language": "en", "original_title": "The Gruffalo's Child", "overview": "A follow up to the 2009 animated feature and adapted from the childrens' book by Julia Donaldson and Alex Scheffler.  The Gruffalo's child explores the deep dark wood in search of the big bad mouse and meets the Snake, Owl and Fox in the process.  She eventually finds the mouse, who manages to outwit her like the Gruffalo before!", "poster_path": "/qaGH2AoaLvoGXURQtNzj1nw6oZd.jpg", "release_date": "2011-12-25", "title": "The Gruffalo's Child", "video": false, "vote_average": 6.9, "vote_count": 73, "popularity": 9.51}, {"adult": false, "backdrop_path": null, "genre_ids": [], "id": 616262, "original_language": "ar", "original_title": "All Come From Dust", "overview": "A loop of edgeless bend. You were its doom, he was its bloom. You were its tomb, he was its womb. You were its gloom, he was its loom. For Heaven and Hell, were words made of fume.", "poster_path": null, "release_date": "2019-08-13", "title": "All Come From Dust", "video": false, "vote_average": 5.0, "vote_count": 1, "popularity": 0.6}, {"adult": false, "backdrop_path": "/eD8PxfDsmWyUcj2LzQ9Ha2O7UvB.jpg", "genre_ids": [99], "id": 614423, "original_language": "en", "original_title": "Collingwood: From The Inside Out", "overview": "An  intimate look at Collingwood Football Club as it rebuilds itself and aims for glory over the course of the 2018 season.", "poster_path": "/dsJMvBJ7M2HvGkJdhW4nKNHEgDs.jpg", "release_date": "2019-08-15", "title": "Collingwood: From The Inside Out", "video": false, "vote_average": 1.0, "vote_count": 1, "popularity": 1.883}, {"adult": false, "backdrop_path": "/mYKP6qcDUimVMAHQWLOuDHjO19S.jpg", "genre_ids": [35], "id": 445629, "original_language": "en", "original_title": "Fighting with My Family", "overview": "Born into a tight-knit wrestling family, Paige and her brother Zak are ecstatic when they get the once-in-a-lifetime opportunity to try out for the WWE. But when only Paige earns a spot in the competitive training program, she must leave her loved ones behind and face this new cutthroat world alone. Paige's journey pushes her to dig deep and ultimately prove to the world that what makes her different is the very thing that can make her a star.", "poster_path": "/cVhe15rJLRjolunSWLBN6xQLyGU.jpg", "release_date": "2019-02-14", "title": "Fighting with My Family", "video": false, "vote_average": 6.7, "vote_count": 643, "popularity": 18.498}, {"adult": false, "backdrop_path": "/qVjKZMB0IdOc2JlwiiGsuKTvTJs.jpg", "genre_ids": [18], "id": 22881, "original_language": "en", "original_title": "The Blind Side", "overview": "The story of Michael Oher, a homeless and traumatized boy who became an All American football player and first round NFL draft pick with the help of a caring woman and her family", "poster_path": "/wEGFSgPebLk6g1ngKsJ6a46PYLV.jpg", "release_date": "2009-11-20", "title": "The Blind Side", "video": false, "vote_average": 7.5, "vote_count": 3212, "popularity": 42.202}, {"id": 630633, "video": false, "vote_count": 0, "vote_average": 0.0, "title": "Varane : Destin de Champion", "release_date": "2019-09-23", "original_language": "fr", "original_title": "Varane : Destin de Champion", "genre_ids": [99], "backdrop_path": null, "adult": false, "overview": "", "poster_path": "/ecUI8DO8lfk5FUca0IF2SNgsgtn.jpg", "popularity": 1.548}, {"id": 107, "video": false, "vote_count": 5247, "vote_average": 7.8, "title": "Snatch", "release_date": "2000-09-01", "original_language": "en", "original_title": "Snatch", "genre_ids": [80, 53], "backdrop_path": "/cNLZ7YGRikb4IsLblrzu86ndZPw.jpg", "adult": false, "overview": "The second film from British director Guy Ritchie. Snatch tells an obscure story similar to his first fast-paced crazy character-colliding filled film \u201cLock, Stock and Two Smoking Barrels.\u201d There are two overlapping stories here \u2013 one is the search for a stolen diamond, and the other about a boxing promoter who\u2019s having trouble with a psychotic gangster.", "poster_path": "/on9JlbGEccLsYkjeEph2Whm1DIp.jpg", "popularity": 25.36}, {"id": 307081, "video": false, "vote_count": 3703, "vote_average": 7.4, "title": "Southpaw", "release_date": "2015-03-24", "original_language": "en", "original_title": "Southpaw", "genre_ids": [28, 18], "backdrop_path": "/tTt1cdEEkKMJ1R4VBTe5vbE3bWO.jpg", "adult": false, "overview": "Billy \"The Great\" Hope, the reigning junior middleweight boxing champion, has an impressive career, a loving wife and daughter, and a lavish lifestyle. However, when tragedy strikes, Billy hits rock bottom, losing his family, his house and his manager. He soon finds an unlikely savior in Tick Willis, a former fighter who trains the city's toughest amateur boxers. With his future on the line, Hope fights to reclaim the trust of those he loves the most.", "poster_path": "/50d0XQQETSyg3bwBXhC7K33pKgc.jpg", "popularity": 28.235}, {"id": 44833, "video": false, "vote_count": 3512, "vote_average": 5.6, "title": "Battleship", "release_date": "2012-04-11", "original_language": "en", "original_title": "Battleship", "genre_ids": [28, 12, 878, 53], "backdrop_path": "/rLhO767vwqRfUBmJOqvEmt5myIF.jpg", "adult": false, "overview": "When mankind beams a radio signal into space, a reply comes from \u2018Planet G\u2019, in the form of several alien crafts that splash down in the waters off Hawaii. Lieutenant Alex Hopper is a weapons officer assigned to the USS John Paul Jones, part of an international naval coalition which becomes the world's last hope for survival as they engage the hostile alien force of unimaginable strength. While taking on the invaders, Hopper must also try to live up to the potential that his brother, and his fianc\u00e9e's father, Admiral Shane, expect of him.", "poster_path": "/7hN6WtMepoMZyeHZU2DM21cEj3z.jpg", "popularity": 24.873}, {"id": 273481, "video": false, "vote_count": 4912, "vote_average": 7.3, "title": "Sicario", "release_date": "2015-09-17", "original_language": "en", "original_title": "Sicario", "genre_ids": [28, 80, 53], "backdrop_path": "/zAHozevwbbsB2epEVpCkzqVccWW.jpg", "adult": false, "overview": "An idealistic FBI agent is enlisted by a government task force to aid in the escalating war against drugs at the border area between the U.S. and Mexico.", "poster_path": "/p2SdfGmQRaw8xhFbexlHL7srMM8.jpg", "popularity": 30.863}, {"id": 348893, "video": false, "vote_count": 521, "vote_average": 6.2, "title": "Boyka: Undisputed IV", "release_date": "2016-08-01", "original_language": "en", "original_title": "Boyka: Undisputed IV", "genre_ids": [28, 80, 53], "backdrop_path": "/5dLLiR8IUT7T0r5HVcvRlItNWTn.jpg", "adult": false, "overview": "In the fourth installment of the fighting franchise, Boyka is shooting for the big leagues when an accidental death in the ring makes him question everything he stands for. When he finds out the wife of the man he accidentally killed is in trouble, Boyka offers to fight in a series of impossible battles to free her from a life of servitude", "poster_path": "/mWiqc87iTs1qujxm2Q0NRzGvWSN.jpg", "popularity": 28.623}, {"id": 326359, "video": false, "vote_count": 1180, "vote_average": 6.8, "title": "Frozen Fever", "release_date": "2015-03-09", "original_language": "en", "original_title": "Frozen Fever", "genre_ids": [12, 16, 10751], "backdrop_path": "/ubioPGniCfDiASmYYpeJs5RRNaC.jpg", "adult": false, "overview": "On Anna's birthday, Elsa and Kristoff are determined to give her the best celebration ever, but Elsa's icy powers may put more than just the party at risk.", "poster_path": "/lKJiVPzsAO9IJ4LKWXZ8vkR2bg4.jpg", "popularity": 17.218}, {"id": 70006, "video": false, "vote_count": 288, "vote_average": 6.1, "title": "Never Back Down 2: The Beatdown", "release_date": "2011-09-13", "original_language": "en", "original_title": "Never Back Down 2: The Beatdown", "genre_ids": [28, 18], "backdrop_path": "/lSFqtjxMfAHa58TBDDBELKeq2DH.jpg", "adult": false, "overview": "Four fighters different backgrounds come together to train under an ex MMA rising star and then ultimately have to fight each other and the traitor in heir midst.", "poster_path": "/qeISu4rUk9l9sQTMs86fAoxSx8p.jpg", "popularity": 15.641}, {"id": 391757, "video": false, "vote_count": 185, "vote_average": 6.5, "title": "Never Back Down: No Surrender", "release_date": "2016-06-07", "original_language": "en", "original_title": "Never Back Down: No Surrender", "genre_ids": [28, 18], "backdrop_path": "/pzjnObK3uiHcKwiir9OPPWzbW8f.jpg", "adult": false, "overview": "Picking up after the events of Never Back Down 2, former MMA champion Case Walker is on the comeback trail to become champion once again.", "poster_path": "/dYNS4o4Q4DDLiKRAAvZ9KcrhHuy.jpg", "popularity": 15.446}, {"adult": false, "backdrop_path": "/w41zFKYTsq4wf5QnQJWMXuzWl2F.jpg", "genre_ids": [18, 28], "id": 96721, "original_language": "en", "original_title": "Rush", "overview": "A biographical drama centered on the rivalry between Formula 1 drivers James Hunt and Niki Lauda during the 1976 Formula One motor-racing season.", "poster_path": "/cjEepHZOZAwmK6nAj5jis6HV75E.jpg", "release_date": "2013-09-02", "title": "Rush", "video": false, "vote_average": 7.7, "vote_count": 4276, "popularity": 17.673}, {"id": 1375, "video": false, "vote_count": 1670, "vote_average": 5.6, "title": "Rocky V", "release_date": "1990-10-18", "original_language": "en", "original_title": "Rocky V", "genre_ids": [18], "backdrop_path": "/dr5pdEDOdCvelCQqP32UZubiSgE.jpg", "adult": false, "overview": "A lifetime of taking shots has ended Rocky\u2019s career, and a crooked accountant has left him broke. Inspired by the memory of his trainer, however, Rocky finds glory in training and takes on an up-and-coming boxer.", "poster_path": "/5P2RiuLt31mWyb6duww8qlAhs6G.jpg", "popularity": 22.518}], "total_pages": 1020, "total_results": 20399}, "recommendations": {"page": 1, "results": [{"adult": false, "backdrop_path": null, "genre_ids": [80, 35], "id": 159903, "original_language": "en", "original_title": "Chinese Laundry Scene", "overview": "The pursuit of Hop Lee by an irate policeman.", "poster_path": "/hsvjAYvITOp88ZlrXePKGR0BgZu.jpg", "release_date": "1894-04-30", "title": "Chinese Laundry Scene", "video": false, "vote_average": 4.7, "vote_count": 7, "popularity": 1.417}, {"adult": false, "backdrop_path": null, "genre_ids": [99], "id": 336380, "original_language": "fr", "original_title": "Je Vous Aime", "overview": "This early cinematic instance of a close-up\u2014or, more accurately, a medium close-up shot of the chest and face of the maker of this film and others like it, Georges Demen\u00ff saying \u201cJe vous aime\u201d\u2014was made at the request of Hector Marichelle, professor and director of the National Deaf-Mute Institute in France, who planned to use filmed speech to teach deaf students to speak and lip read. This required close views of the performer's lip movements. The project was given to Demen\u00ff by \u00c9tienne-Jules Marey, who headed the Station Physiologique in Paris and whose chronophotographic scientific research of motion is among the most important contributions to the invention of movies. Despite these educational and scientific beginnings, however, this project led Demen\u00ff to pursue and influence the commercialism of cinema.", "poster_path": "/1JRfyJuFjVhHJdD5b0OtEgmgelX.jpg", "release_date": "1891-01-01", "title": "Je Vous Aime", "video": false, "vote_average": 4.7, "vote_count": 7, "popularity": 1.45}, {"id": 355763, "video": false, "vote_count": 4, "vote_average": 4.6, "title": "Boxing", "release_date": "1892-01-01", "original_language": "en", "original_title": "Boxing", "genre_ids": [], "backdrop_path": null, "adult": false, "overview": "Lost film about boxing.", "poster_path": "/kNw564k1pJzoPMFh1aAUWbQEFbw.jpg", "popularity": 2.083}, {"adult": false, "backdrop_path": null, "genre_ids": [], "id": 159910, "original_language": "en", "original_title": "Hadj Cheriff", "overview": "Hadji Cheriff, a performer known for a variety of unusual abilities, demonstrates part of his act in the Thomas Edison studio. He has a large knife in his hand at the opening of the act. He then hurls the knife away and begins a rapid series of dance-like motions, executing numerous cartwheels and whirling movements.", "poster_path": "/rb5HHy0J4yZYlBA1tqL1akWo6WQ.jpg", "release_date": "1894-10-05", "title": "Hadj Cheriff", "video": false, "vote_average": 4.7, "vote_count": 8, "popularity": 1.492}, {"adult": false, "backdrop_path": null, "genre_ids": [35], "id": 159908, "original_language": "en", "original_title": "Band Drill", "overview": "A scene from Charles Hoyt's 'A Milk White Flag': A brass band marches out, led by bandmaster Steele Ayers. When Ayers reaches his position, he turns around and directs the musicians as they take up their own positions.", "poster_path": "/8c4BzvFHE9QnItfrEYqOro59J4Y.jpg", "release_date": "1894-11-28", "title": "Band Drill", "video": false, "vote_average": 3.8, "vote_count": 9, "popularity": 0.84}, {"adult": false, "backdrop_path": null, "genre_ids": [99], "id": 194085, "original_language": "en", "original_title": "Akrobatisches Potpourri", "overview": "Eight circus performers known as the Grunato family perform their famous balancing act.", "poster_path": "/fojcvoRPjXa9P2PXSSYkuvyN6ge.jpg", "release_date": "1895-11-01", "title": "Akrobatisches Potpourri", "video": false, "vote_average": 4.5, "vote_count": 8, "popularity": 1.307}, {"adult": false, "backdrop_path": null, "genre_ids": [], "id": 332353, "original_language": "en", "original_title": "Annabelle Sun Dance", "overview": "Annabelle Dances in William K.L. Dickson's 1894 short film", "poster_path": "/6bVcQ7Hqv4yckuqQZtvNm576uHW.jpg", "release_date": "1894-01-01", "title": "Annabelle Sun Dance", "video": false, "vote_average": 4.6, "vote_count": 6, "popularity": 1.105}, {"adult": false, "backdrop_path": null, "genre_ids": [99], "id": 312452, "original_language": "xx", "original_title": "La Vague", "overview": "Experimental film of a wave, recorded on the bay of Naples.", "poster_path": "/gARmLKrxyjmAnO8HlH2vk59Y7y5.jpg", "release_date": "1891-11-15", "title": "The Wave", "video": false, "vote_average": 4.8, "vote_count": 12, "popularity": 1.321}, {"adult": false, "backdrop_path": null, "genre_ids": [], "id": 386743, "original_language": "en", "original_title": "Mosquinha", "overview": "Shot of the flight of a fly.", "poster_path": "/gcEp2B7leQy60grWD9Nee57HCxi.jpg", "release_date": "1890-03-09", "title": "Mosquinha", "video": false, "vote_average": 5.8, "vote_count": 8, "popularity": 1.171}, {"adult": false, "backdrop_path": null, "genre_ids": [], "id": 212359, "original_language": "en", "original_title": "Panorama des rives du Nil", "overview": "Panoramic view of the banks of the River Nile.", "poster_path": "/u1kWtwdYxXNcbgApWSvvZCEmhwl.jpg", "release_date": "1897-08-05", "title": "Panorama des rives du Nil", "video": false, "vote_average": 6.5, "vote_count": 4, "popularity": 0.6}, {"adult": false, "backdrop_path": null, "genre_ids": [], "id": 105157, "original_language": "en", "original_title": "A Hand Shake", "overview": "William K.L. Dickson and William Heise shake hands in this early experimental film.", "poster_path": "/6l4A8iKwMovccSqx4ITUGMebzpZ.jpg", "release_date": "1892-01-01", "title": "A Hand Shake", "video": false, "vote_average": 3.2, "vote_count": 14, "popularity": 2.169}, {"adult": false, "backdrop_path": null, "genre_ids": [], "id": 416258, "original_language": "en", "original_title": "Two Fencers", "overview": "Short film of two men fencers", "poster_path": "/d3jCnIeLHOcvaG1G25XbU5tH7IZ.jpg", "release_date": "1891-01-02", "title": "Two Fencers", "video": false, "vote_average": 5.1, "vote_count": 4, "popularity": 0.733}, {"adult": false, "backdrop_path": null, "genre_ids": [35], "id": 178680, "original_language": "fr", "original_title": "Photographe", "overview": "A photographer has his camera all set up to take a gentleman's picture. The subject checks his face in a hand mirror, and the photographer poses him. Just as the photographer is about to take the picture, the subject gets up to look at the camera more closely. The frustrated photographer soon becomes quite impatient.", "poster_path": "/jGDngBVZRtC7A9rl0Vsox9tABsq.jpg", "release_date": "1895-01-01", "title": "Photographe", "video": false, "vote_average": 5.9, "vote_count": 11, "popularity": 1.171}, {"adult": false, "backdrop_path": null, "genre_ids": [], "id": 183270, "original_language": "en", "original_title": "The Twins' Tea Party", "overview": "No Overview", "poster_path": "/4gKinMioI42IFoq382JaTAHAWJ3.jpg", "release_date": "1896-08-01", "title": "The Twins' Tea Party", "video": false, "vote_average": 6.3, "vote_count": 4, "popularity": 0.6}, {"adult": false, "backdrop_path": null, "genre_ids": [99], "id": 194084, "original_language": "en", "original_title": "Der Jongleur", "overview": "A man performs tricks on a theatre stage with a bowler hat and a billiards ball in equilibrium on his arms and body.", "poster_path": "/ywLVAvEtSaUISgfkZq4BjhwAV8A.jpg", "release_date": "1895-11-01", "title": "Der Jongleur", "video": false, "vote_average": 4.8, "vote_count": 8, "popularity": 1.705}, {"adult": false, "backdrop_path": null, "genre_ids": [99], "id": 189056, "original_language": "en", "original_title": "Billy Edwards and the Unknown", "overview": "Former lightweight boxer Billy Edwards, now a trainer and writer of the sport, takes on a challenger named Warwick in an exhibition match. The match is scheduled for five rounds of 20 seconds each. A large crowd has gathered behind the ring to watch the fight.", "poster_path": "/9MiEpckPBE4SoLu2dNcExLdubE4.jpg", "release_date": "1895-01-30", "title": "Billy Edwards and the Unknown", "video": false, "vote_average": 4.0, "vote_count": 5, "popularity": 1.861}, {"adult": false, "backdrop_path": null, "genre_ids": [99], "id": 194087, "original_language": "en", "original_title": "Apotheose", "overview": "The two inventors of the Bioskop, a sort of magic lantern that projected images so fast as to give the illusion of movement, bow to the camera at both sides of an empty screen. The scene was shown in continuity, at the end of the session, as if the producers and directors of the session were beading the public a farewell.", "poster_path": "/mGPP3YTR4bB0Biiak82GeeXgjHk.jpg", "release_date": "1895-11-01", "title": "Apotheose", "video": false, "vote_average": 3.9, "vote_count": 8, "popularity": 1.505}, {"adult": false, "backdrop_path": null, "genre_ids": [99], "id": 194086, "original_language": "en", "original_title": "Kamarinskaja", "overview": "Three dancers do a Russian folkloric step dance, facing the camera, in traditional clothes, fur hats and leather boots.", "poster_path": "/9IO3SDYXIO64qiPzJ5TSKaVaSD5.jpg", "release_date": "1895-11-01", "title": "Kamarinskaja", "video": false, "vote_average": 4.6, "vote_count": 8, "popularity": 1.672}, {"adult": false, "backdrop_path": null, "genre_ids": [10749, 35], "id": 189270, "original_language": "en", "original_title": "Interrupted Lovers", "overview": "\u201cThe watchful father disturbs a dream of bliss, and the bucolic lover is taught a lesson. He made a great hit.\u201d (Edison film catalog)", "poster_path": "/nvpihRy92nYc71EEzwHGcSIbzV2.jpg", "release_date": "1896-01-01", "title": "Interrupted Lovers", "video": false, "vote_average": 3.4, "vote_count": 5, "popularity": 1.045}, {"adult": false, "backdrop_path": null, "genre_ids": [35, 99, 28, 18], "id": 308692, "original_language": "en", "original_title": "Leila Attacks", "overview": "Chris Marker's cat and rat.", "poster_path": "/fx4RXRpFIEK4hGsEB9KzvLGTELk.jpg", "release_date": "2007-02-09", "title": "Leila Attacks", "video": false, "vote_average": 4.7, "vote_count": 3, "popularity": 0.984}], "total_pages": 2, "total_results": 40}, "credits": {"cast": [], "crew": [{"credit_id": "52fe4a48c3a36847f81c52b1", "department": "Directing", "gender": 0, "id": 110347, "job": "Director", "name": "William K.L. Dickson ", "profile_path": "/gqyFBW6i07NodR9wTrGG13hjoZm.jpg"}, {"credit_id": "55bb7199c3a3684af500754c", "department": "Crew", "gender": 0, "id": 110348, "job": "Cinematography", "name": "William Heise", "profile_path": "/e2J3I16996PA0QMSZJmFAD29Tmb.jpg"}, {"credit_id": "55bb71b1c3a3684aed00833f", "department": "Production", "gender": 0, "id": 110347, "job": "Producer", "name": "William K.L. Dickson ", "profile_path": "/gqyFBW6i07NodR9wTrGG13hjoZm.jpg"}]}}