{"adult": false, "backdrop_path": null, "belongs_to_collection": null, "budget": 0, "genres": [{"id": 80, "name": "Crime"}, {"id": 53, "name": "Thriller"}], "homepage": null, "id": 105381, "imdb_id": "tt0069143", "original_language": "it", "original_title": "Los mil ojos del asesino", "overview": "A special detective is sent to Lisbon in order to investigate a series of murders. After looking into the murders, our hero realises that they are somehow linked to an illegal drug smuggling operation and so sets about looking into that in order to solve the murders and stop the smuggling from taking place.", "popularity": 1.653, "poster_path": "/mGj5s27fVKg6W6YRXyc2dBMNntl.jpg", "production_companies": [{"id": 82121, "logo_path": null, "name": "Tritone Filmindustria", "origin_country": ""}, {"id": 4530, "logo_path": null, "name": "Estela Films", "origin_country": ""}], "production_countries": [{"iso_3166_1": "IT", "name": "Italy"}, {"iso_3166_1": "ES", "name": "Spain"}], "release_date": "1974-03-25", "revenue": 0, "runtime": 83, "spoken_languages": [{"iso_639_1": "it", "name": "Italiano"}, {"iso_639_1": "es", "name": "Espa\u00f1ol"}], "status": "Released", "tagline": "", "title": "The Killer with a Thousand Eyes", "video": false, "vote_average": 8.0, "vote_count": 1, "keywords": {"keywords": [{"id": 3391, "name": "drug smuggle"}, {"id": 9730, "name": "crime boss"}, {"id": 9826, "name": "murder"}, {"id": 12570, "name": "whodunit"}]}, "similar": {"page": 1, "results": [{"adult": false, "backdrop_path": "/pA64Ov7lDpwXBu33yq0KpmAOYJL.jpg", "genre_ids": [27, 53], "id": 357096, "original_language": "en", "original_title": "I Spit on Your Grave III: Vengeance is Mine", "overview": "Jennifer Hills is still tormented by the brutal sexual assault she endured years ago. She\u2019s changed identities and cities, reluctantly joining a support group where she begins to piece together a new life. But when her new friend\u2019s murderer goes free and the tales of serial rapists haunt her, Jennifer will hunt down the men responsible and do what the system won\u2019t \u2013 make them pay for their crimes in the most horrific ways imaginable. Only this time, no jury may be able to save her.", "poster_path": "/6SnOlgrUoC5jqmgcYIM5lde5zYq.jpg", "release_date": "2015-10-01", "title": "I Spit on Your Grave III: Vengeance is Mine", "video": false, "vote_average": 5.3, "vote_count": 437, "popularity": 20.366}, {"adult": false, "backdrop_path": "/t3OZS8yMs0NL4YgWWc04eXHTn1X.jpg", "genre_ids": [28, 80, 53], "id": 984, "original_language": "en", "original_title": "Dirty Harry", "overview": "When a madman dubbed 'Scorpio' terrorizes San Francisco, hard-nosed cop, Harry Callahan \u2013 famous for his take-no-prisoners approach to law enforcement \u2013 is tasked with hunting down the psychopath. Harry eventually collars Scorpio in the process of rescuing a kidnap victim, only to see him walk on technicalities. Now, the maverick detective is determined to nail the maniac himself.", "poster_path": "/2TADKc4GMMPdMrLXj0xJVgTvZJM.jpg", "release_date": "1971-12-21", "title": "Dirty Harry", "video": false, "vote_average": 7.5, "vote_count": 1173, "popularity": 18.839}, {"id": 8090, "video": false, "vote_count": 448, "vote_average": 6.1, "title": "Untraceable", "release_date": "2008-01-22", "original_language": "en", "original_title": "Untraceable", "genre_ids": [9648, 53], "backdrop_path": "/eXuIPt9I1xuaVddlgzEQRC2EMnJ.jpg", "adult": false, "overview": "Special Agent Jennifer Marsh (Diane Lane) works in an elite division of the FBI dedicated to fighting cybercrime. She thinks she has seen it all, until a particularly sadistic criminal arises on the Internet. This tech-savvy killer posts live feeds of his crimes on his website; the more hits the site gets, the faster the victim dies. Marsh and her team must find the elusive killer before time runs out.", "poster_path": "/ySUwDRDEn01lKIMPQorpFCMLWqE.jpg", "popularity": 14.431}, {"adult": false, "backdrop_path": "/2J283YNxKhxAqHeVegUJ5mzLfGb.jpg", "genre_ids": [80, 18, 9648], "id": 392044, "original_language": "en", "original_title": "Murder on the Orient Express", "overview": "Genius Belgian detective Hercule Poirot investigates the murder of an American tycoon aboard the Orient Express train.", "poster_path": "/iBlfxlw8qwtUS0R8YjIU7JtM6LM.jpg", "release_date": "2017-11-03", "title": "Murder on the Orient Express", "video": false, "vote_average": 6.7, "vote_count": 6044, "popularity": 24.868}, {"id": 75780, "video": false, "vote_count": 4450, "vote_average": 6.4, "title": "Jack Reacher", "release_date": "2012-12-20", "original_language": "en", "original_title": "Jack Reacher", "genre_ids": [28, 80, 18, 53], "backdrop_path": "/ezXodpP429qK0Av89pVNlaXWJkQ.jpg", "adult": false, "overview": "When a gunman takes five lives with six shots, all evidence points to the suspect in custody. On interrogation, the suspect offers up a single note: \"Get Jack Reacher!\" So begins an extraordinary chase for the truth, pitting Jack Reacher against an unexpected enemy, with a skill for violence and a secret to keep.", "poster_path": "/mt0ELw83HIRgaKaDzhsDcIi0RnW.jpg", "popularity": 19.929}, {"id": 807, "video": false, "vote_count": 11937, "vote_average": 8.3, "title": "Se7en", "release_date": "1995-09-22", "original_language": "en", "original_title": "Se7en", "genre_ids": [80, 9648, 53], "backdrop_path": "/A0WKbRIojF9DUWG4XLCmg5JK6I5.jpg", "adult": false, "overview": "Two homicide detectives are on a desperate hunt for a serial killer whose crimes are based on the \"seven deadly sins\" in this dark and haunting film that takes viewers from the tortured remains of one victim to the next. The seasoned Det. Sommerset researches each sin in an effort to get inside the killer's mind, while his novice partner, Mills, scoffs at his efforts to unravel the case.", "poster_path": "/8zw8IL4zEPjkh8Aysdcd0FwGMb0.jpg", "popularity": 34.018}, {"adult": false, "backdrop_path": "/8UkJSL5hlwGh3uSC5tyoaqhHQh7.jpg", "genre_ids": [80, 18, 53], "id": 18587, "original_language": "en", "original_title": "10 to Midnight", "overview": "Based on the real-life Richard Speck murders. After his bizarre behavior results in rejection from countless women, Warren Stacy begins murdering women, always while he is naked, which minimizes any physical evidence left behind. Detective Leo Kessler is convinced of Stacy\u2019s guilt and, over the objections of his partner, plants evidence to get him behind bars. When Stacy is released on a technicality, he threatens to go after Kessler and his family, leaving Kessler to defend himself with little help from the police.", "poster_path": "/bJiLyz6g8vsFgJ5oAdMWlQAWY4T.jpg", "release_date": "1983-03-11", "title": "10 to Midnight", "video": false, "vote_average": 6.0, "vote_count": 73, "popularity": 9.514}, {"id": 4771, "video": false, "vote_count": 2134, "vote_average": 7.3, "title": "Gone Baby Gone", "release_date": "2007-09-18", "original_language": "en", "original_title": "Gone Baby Gone", "genre_ids": [80, 18, 9648], "backdrop_path": "/sogh5NXPbKFajjYKBlfIBfCWgbq.jpg", "adult": false, "overview": "When 4 year old Amanda McCready disappears from her home and the police make little headway in solving the case, the girl's aunt, Beatrice McCready hires two private detectives, Patrick Kenzie and Angie Gennaro. The detectives freely admit that they have little experience with this type of case, but the family wants them for two reasons - they're not cops and they know the tough neighborhood in which they all live. As the case progresses, Kenzie and Gennaro face drug dealers, gangs and pedophiles. When they are about to solve the case, they are faced with a moral dilemma that tears them apart.", "poster_path": "/dXXMPxGiRegd7NNCtE5uchAKRAG.jpg", "popularity": 16.498}, {"adult": false, "backdrop_path": "/uUYCUbgI5VxsUflTMI4Y9L2Y6vb.jpg", "genre_ids": [80, 18, 53], "id": 11423, "original_language": "ko", "original_title": "\uc0b4\uc778\uc758 \ucd94\uc5b5", "overview": "1986 Gyunggi Province. The body of a young woman is found brutally raped and murdered. Two months later, a series of rapes and murders commences under similar circumstances. And in a country that had never known such crimes, the dark whispers about a serial murderer grow louder. A special task force is set up in the area, with two local detectives Park Doo-Man and Jo Young-Goo joined by a detective from Seoul who requested to be assigned to the case.", "poster_path": "/gawnVe9cFowdoDLo9Pok12NTw39.jpg", "release_date": "2003-05-02", "title": "Memories of Murder", "video": false, "vote_average": 8.1, "vote_count": 1093, "popularity": 13.452}, {"adult": false, "backdrop_path": "/v761yOHKO3p6Yr7LDCjud6tUL5G.jpg", "genre_ids": [28, 80, 53], "id": 10651, "original_language": "en", "original_title": "The Dead Pool", "overview": "Dirty Harry Callahan returns for his final film adventure. Together with his partner Al Quan, he must investigate the systematic murder of actors and musicians. By the time Harry learns that the murders are a part of a sick game to predict the deaths of celebrities before they happen, it may be too late...", "poster_path": "/9ZUSqox9lIxN4xaYBac2QXMFcZj.jpg", "release_date": "1988-07-12", "title": "The Dead Pool", "video": false, "vote_average": 6.4, "vote_count": 389, "popularity": 10.626}, {"id": 37645, "video": false, "vote_count": 575, "vote_average": 6.5, "title": "22 Bullets", "release_date": "2010-03-23", "original_language": "fr", "original_title": "L'Immortel", "genre_ids": [28, 80, 53], "backdrop_path": "/mU8zfCOTbahNGH0ZBTCuNdX16gj.jpg", "adult": false, "overview": "Charly Mattei\u0308 has turned his back on his life as an outlaw. For the last three years, he's led a peaceful life devoting himself to his wife and two children. Then, one winter morning, he's left for dead in the parking garage in Marseille's Old Port, with 22 bullets in his body. Against all the odds, he doesn't die...", "poster_path": "/wTYZjPq4YA2wC99MdHZTFQuxFpd.jpg", "popularity": 12.785}, {"adult": false, "backdrop_path": "/xBhRhY8KimSrPx6AMJXigpzlGQ2.jpg", "genre_ids": [28, 35, 80], "id": 96, "original_language": "en", "original_title": "Beverly Hills Cop II", "overview": "Axel heads for the land of sunshine and palm trees to find out who shot police Captain Andrew Bogomil. Thanks to a couple of old friends, Axel's investigation uncovers a series of robberies masterminded by a heartless weapons kingpin\u2014and the chase is on.", "poster_path": "/2y1z1baxKT0coTTRlnkI6McnR9f.jpg", "release_date": "1987-05-18", "title": "Beverly Hills Cop II", "video": false, "vote_average": 6.4, "vote_count": 1235, "popularity": 13.336}, {"adult": false, "backdrop_path": "/3TCPWrxQkfon82xPNtmpweOSVJc.jpg", "genre_ids": [18, 80, 9648, 10749, 53], "id": 12150, "original_language": "en", "original_title": "Sea of Love", "overview": "Seen-it-all New York detective Frank Keller is unsettled - he has done twenty years on the force and could retire, and he hasn't come to terms with his wife leaving him for a colleague. Joining up with an officer from another part of town to investigate a series of murders linked by the lonely hearts columns he finds he is getting seriously and possibly dangerously involved with Helen, one of the main suspects.", "poster_path": "/7DkkTHIX3hUqvsRv5sDmJAkCfKK.jpg", "release_date": "1989-09-15", "title": "Sea of Love", "video": false, "vote_average": 6.7, "vote_count": 290, "popularity": 10.636}, {"id": 15069, "video": false, "vote_count": 75, "vote_average": 5.4, "title": "W\u0394Z", "release_date": "2007-05-19", "original_language": "en", "original_title": "W\u0394Z", "genre_ids": [80, 18, 27, 53], "backdrop_path": "/nVwdXjnbfulc6cymFgOQJctpspr.jpg", "adult": false, "overview": "There is something horribly wrong with the bodies found in the dark city streets. Some are mutilated while others have the Price equation (w\u0394z = Cov (w,z) = \u03b2wzVz) carved into their flesh. Detective Eddie Argo and his new partner Helen Westcott unearth the meaning of the odd equation and realise each victim is being offered a gruesome choice: kill your loved ones, or be killed. Before long it becomes clear that the perpetrator has suffered a similar fate and is now coping by seeking a way to solve this philosophical dilemma.", "poster_path": "/8lPZ59iQRqUELprKuB0myy7u6Zm.jpg", "popularity": 7.935}, {"adult": false, "backdrop_path": "/xdha8DvElblfBbNnkpGsF42lAyv.jpg", "genre_ids": [28, 80, 53], "id": 2749, "original_language": "en", "original_title": "15 Minutes", "overview": "When Eastern European criminals Oleg and Emil come to New York City to pick up their share of a heist score, Oleg steals a video camera and starts filming their activities, both legal and illegal. When they learn how the American media circus can make a remorseless killer look like the victim and make them rich, they target media-savvy NYPD Homicide Detective Eddie Flemming and media-naive FDNY Fire Marshal Jordy Warsaw, the cops investigating their murder and torching of their former criminal partner, filming everything to sell to the local tabloid TV show \"Top Story.\"", "poster_path": "/qqqleHV8y7NLKt7isSZAvOwVPH6.jpg", "release_date": "2001-03-01", "title": "15 Minutes", "video": false, "vote_average": 5.8, "vote_count": 372, "popularity": 14.636}, {"id": 60670, "video": false, "vote_count": 765, "vote_average": 6.9, "title": "The Crimson Rivers", "release_date": "2000-09-26", "original_language": "fr", "original_title": "Les Rivi\u00e8res pourpres", "genre_ids": [80, 9648, 53], "backdrop_path": "/pXmMiqordTEbRTDNlKPnyielNVA.jpg", "adult": false, "overview": "Two French policemen, one investigating a grisly murder at a remote mountain college, the other working on the desecration of a young girl's grave by skinheads, are brought together by the clues from their respective cases. Soon after they start working together, more murders are committed, and the pair begin to discover just what dark secrets are behind the killings.", "poster_path": "/kkRgQST0bEdEgqpPZMGaUB1twsQ.jpg", "popularity": 11.569}, {"adult": false, "backdrop_path": "/iNuvbrHGNtrUwlm48u4KnQhhMKp.jpg", "genre_ids": [80, 18, 53], "id": 26390, "original_language": "en", "original_title": "Brooklyn's Finest", "overview": "Enforcing the law within the notoriously rough Brownsville section of the city and especially within the Van Dyke housing projects is the NYPD's sixty-fifth precinct. Three police officers struggle with the sometimes fine line between right and wrong.", "poster_path": "/jKSBk0LtZgXxG56uvwiAtYf6ttF.jpg", "release_date": "2009-01-16", "title": "Brooklyn's Finest", "video": false, "vote_average": 6.4, "vote_count": 500, "popularity": 11.822}, {"adult": false, "backdrop_path": "/3naOwcmYNZfd80kC1OXmembjc8j.jpg", "genre_ids": [53, 28, 18], "id": 445954, "original_language": "en", "original_title": "Acts of Vengeance", "overview": "A fast-talking lawyer transforms his body and takes a vow of silence, not to be broken until he finds out who killed his wife and daughter and has his revenge.", "poster_path": "/r5o6vWPYOQs6bv91gQ8kQs2zQYl.jpg", "release_date": "2017-10-27", "title": "Acts of Vengeance", "video": false, "vote_average": 5.7, "vote_count": 234, "popularity": 17.934}, {"id": 276488, "video": false, "vote_count": 162, "vote_average": 5.7, "title": "Let Us Prey", "release_date": "2014-04-17", "original_language": "en", "original_title": "Let Us Prey", "genre_ids": [27, 53], "backdrop_path": "/6y5s5XboARsaZARPBO9L3oYM9Bl.jpg", "adult": false, "overview": "Rachel, a rookie cop, is about to begin her first night shift in a neglected police station in a Scottish, backwater town. The kind of place where the tide has gone out and stranded a motley bunch of the aimless, the forgotten, the bitter-and-twisted who all think that, really, they deserve to be somewhere else. They all think they're there by accident and that, with a little luck, life is going to get better. Wrong, on both counts. Six is about to arrive - and All Hell Will Break Loose!", "poster_path": "/yQgKyDXbV8XQKKarJ8ph5Y9dpQe.jpg", "popularity": 8.012}, {"id": 1949, "video": false, "vote_count": 5165, "vote_average": 7.5, "title": "Zodiac", "release_date": "2007-03-02", "original_language": "en", "original_title": "Zodiac", "genre_ids": [80, 18, 9648, 53], "backdrop_path": "/jP2htGBHE7vKq4MLeC75UeC0sZH.jpg", "adult": false, "overview": "The true story of the investigation of the \"Zodiac Killer\", a serial killer who terrified the San Francisco Bay Area, taunting police with his ciphers and letters. The case becomes an obsession for three men as their lives and careers are built and destroyed by the endless trail of clues.", "poster_path": "/bgLyOROfFQI3FqYL7jQbiaV8lkN.jpg", "popularity": 24.455}], "total_pages": 391, "total_results": 7813}, "recommendations": {"page": 1, "results": [], "total_pages": 1, "total_results": 0}, "credits": {"cast": [{"cast_id": 0, "character": "Inspector Michael Lawrence", "credit_id": "53d4a85ac3a3686b8e002d1b", "gender": 0, "id": 29396, "name": "Anthony Steffen", "order": 1, "profile_path": "/wxS3Dud5CBqXGfCnsmDEdFsRcuG.jpg"}, {"cast_id": 1, "character": "Chief Inspector Albert", "credit_id": "53d4a862c3a3686b8e002d1d", "gender": 2, "id": 100719, "name": "Antonio Pica", "order": 2, "profile_path": "/rYusMSzk2oFDQYLRIkeOmphLe3b.jpg"}, {"cast_id": 2, "character": "Sarah", "credit_id": "53d4a86ac3a3686b88002fe5", "gender": 1, "id": 97630, "name": "Mar\u00eda Kosty", "order": 3, "profile_path": "/wfxhzKCcNmWWE0FPgY0TeTOOyeP.jpg"}, {"cast_id": 3, "character": "DuVallier", "credit_id": "53d4a873c3a3686b97003054", "gender": 2, "id": 50782, "name": "Raf Baldassarre", "order": 4, "profile_path": "/cP8yGLlpJaNRKdj9JkhrbzeE3DJ.jpg"}, {"cast_id": 4, "character": "", "credit_id": "53d4a87cc3a3686b850030c5", "gender": 0, "id": 93080, "name": "Romy", "order": 5, "profile_path": null}, {"cast_id": 10, "character": "DuValliere", "credit_id": "57f37edb9251410c2e008c68", "gender": 2, "id": 89774, "name": "Juli\u00e1n Ugarte", "order": 6, "profile_path": null}, {"cast_id": 11, "character": "Crime Boss Costa", "credit_id": "57f37ee19251410c31008d0f", "gender": 2, "id": 100409, "name": "Eduardo Fajardo", "order": 7, "profile_path": "/tREl0gqM9L2X334p2EDx6ETpBtM.jpg"}, {"cast_id": 12, "character": "Susan Meredith", "credit_id": "57f37eebc3a368334e007c9a", "gender": 1, "id": 30961, "name": "Britt Nichols", "order": 8, "profile_path": "/qmFAQUarvFgdTYy2O3ccLNSVfvH.jpg"}, {"cast_id": 13, "character": "", "credit_id": "57f37f3fc3a368333a007daa", "gender": 0, "id": 100691, "name": "Luis Gaspar", "order": 9, "profile_path": null}, {"cast_id": 14, "character": "", "credit_id": "57f37f499251410c340086a3", "gender": 2, "id": 1056173, "name": "Julio P\u00e9rez Tabernero", "order": 10, "profile_path": "/gfko7GncMmxM9vDbXzsVou0ClOI.jpg"}, {"cast_id": 17, "character": "", "credit_id": "57f651139251413605006353", "gender": 2, "id": 1062002, "name": "Joan Borr\u00e0s", "order": 11, "profile_path": "/4aFJKgX5v6RUA8d4Yt6DXxze8KP.jpg"}, {"cast_id": 18, "character": "", "credit_id": "57f65129925141360d006336", "gender": 0, "id": 228495, "name": "Alfonso de la Vega", "order": 12, "profile_path": null}, {"cast_id": 19, "character": "", "credit_id": "57f65140c3a36816040060ef", "gender": 2, "id": 1170946, "name": "Francisco Jarque", "order": 13, "profile_path": null}, {"cast_id": 20, "character": "", "credit_id": "57f651559251413603006346", "gender": 2, "id": 1098432, "name": "Richard Kolin", "order": 14, "profile_path": "/m6zWd7HQZIIgXJI05gr0oZBVN34.jpg"}, {"cast_id": 21, "character": "", "credit_id": "57f6515fc3a368161c0061f6", "gender": 0, "id": 1062242, "name": "Carmen Lia\u00f1o", "order": 15, "profile_path": null}, {"cast_id": 22, "character": "", "credit_id": "57f65169925141361600624b", "gender": 0, "id": 237354, "name": "\u00c1ngel Lombarte", "order": 16, "profile_path": null}, {"cast_id": 23, "character": "", "credit_id": "57f65173925141360d006352", "gender": 0, "id": 1170943, "name": "Ricardo Moy\u00e1n", "order": 17, "profile_path": null}, {"cast_id": 24, "character": "", "credit_id": "57f651b7c3a3681607005e91", "gender": 0, "id": 1159214, "name": "Jacinto Ramos", "order": 18, "profile_path": "/8Gw53NJteHtlb5siFsG4RQO9WaQ.jpg"}, {"cast_id": 25, "character": "", "credit_id": "57f651c49251413610006430", "gender": 0, "id": 1690099, "name": "Jaime Ros", "order": 19, "profile_path": null}, {"cast_id": 26, "character": "", "credit_id": "57f651cf92514172c5001e9b", "gender": 0, "id": 1690100, "name": "Susana Taber", "order": 20, "profile_path": null}, {"cast_id": 27, "character": "", "credit_id": "57f651d992514136010064bb", "gender": 0, "id": 1635888, "name": "V\u00edctor Vilanova", "order": 21, "profile_path": null}], "crew": [{"credit_id": "53d4a8a8c3a3686b9700305d", "department": "Writing", "gender": 2, "id": 43723, "job": "Writer", "name": "Alberto De Stefanis", "profile_path": null}, {"credit_id": "544b5cb00e0a2630f90006e4", "department": "Directing", "gender": 2, "id": 54022, "job": "Director", "name": "Juan Bosch", "profile_path": "/suMbhLduRQC3gB2hg7wTTMAggbX.jpg"}, {"credit_id": "544b5cc40e0a26747c0061ff", "department": "Writing", "gender": 2, "id": 54022, "job": "Writer", "name": "Juan Bosch", "profile_path": "/suMbhLduRQC3gB2hg7wTTMAggbX.jpg"}, {"credit_id": "57f650dec3a3681600005a99", "department": "Sound", "gender": 0, "id": 1086910, "job": "Music", "name": "Marcello Giombini", "profile_path": null}, {"credit_id": "57f650ea925141360300631f", "department": "Camera", "gender": 0, "id": 1082659, "job": "Director of Photography", "name": "Gino Santini", "profile_path": null}, {"credit_id": "58f915549251410701000721", "department": "Writing", "gender": 0, "id": 70019, "job": "Writer", "name": "\u00c1ngel G. Gauna", "profile_path": null}, {"credit_id": "58f9155fc3a368163a0007be", "department": "Writing", "gender": 0, "id": 29396, "job": "Writer", "name": "Anthony Steffen", "profile_path": "/wxS3Dud5CBqXGfCnsmDEdFsRcuG.jpg"}, {"credit_id": "58f91575c3a368161a00068b", "department": "Production", "gender": 0, "id": 95661, "job": "Executive Producer", "name": "Jos\u00e9 Mar\u00eda Cunill\u00e9s", "profile_path": null}, {"credit_id": "58f9158192514106e60007bd", "department": "Editing", "gender": 2, "id": 5821, "job": "Editor", "name": "Eugenio Alabiso", "profile_path": null}, {"credit_id": "58f9158bc3a368167900070e", "department": "Editing", "gender": 0, "id": 1308109, "job": "Editor", "name": "Emilio Ortiz", "profile_path": null}, {"credit_id": "58f9159b92514106eb0007b4", "department": "Art", "gender": 0, "id": 1726166, "job": "Art Direction", "name": "Jos\u00e9 Massagu\u00e9", "profile_path": null}, {"credit_id": "58f915a692514106f70007e8", "department": "Art", "gender": 0, "id": 1082654, "job": "Set Decoration", "name": "Saverio D'Eugenio", "profile_path": null}, {"credit_id": "58f915b5c3a36815ed0007c9", "department": "Directing", "gender": 0, "id": 1800238, "job": "Script Supervisor", "name": "Anna Pia Sterlicchio", "profile_path": null}]}}