{"adult": false, "backdrop_path": null, "belongs_to_collection": null, "budget": 0, "genres": [{"id": 9648, "name": "Mystery"}, {"id": 53, "name": "Thriller"}], "homepage": null, "id": 105429, "imdb_id": "tt0073554", "original_language": "it", "original_title": "La polizia brancola nel buio", "overview": "A woman is stabbed by an unidentified person wielding a pair of scissors when her car breaks down on a deserted road. The rest of the \"action\" of the film takes place in a house where the same killer starts knockin' off most of the chicks that are staying there. There seems to be some sort of side plot about a paralyzed guy who fidgets with some sort of mechanical gadget in a secret room that may or may not control a mask with a flashing eye in the dining area that may or may not exhibit some sort of mind-control over guests at the house...", "popularity": 0.677, "poster_path": "/3afzadwqVGGhdBLHX6NQrbYRT20.jpg", "production_companies": [], "production_countries": [{"iso_3166_1": "TR", "name": "Turkey"}, {"iso_3166_1": "IT", "name": "Italy"}], "release_date": "1975-01-01", "revenue": 0, "runtime": 75, "spoken_languages": [{"iso_639_1": "it", "name": "Italiano"}], "status": "Released", "tagline": "", "title": "The Police Are Blundering in the Dark", "video": false, "vote_average": 4.2, "vote_count": 5, "keywords": {"keywords": [{"id": 12570, "name": "whodunit"}]}, "similar": {"page": 1, "results": [{"adult": false, "backdrop_path": null, "genre_ids": [9648, 53, 27], "id": 29354, "original_language": "it", "original_title": "Il vizio ha le calze nere", "overview": "A woman dressed in black is murdering young women. The police question lawyer Anselmi for whom one of the girls worked as a secretary, and it turns out that all the victims were friends of lawyer's wife Leonora.", "poster_path": "/s2rGfrZomvJNAbIWQ3hPLWjwOTw.jpg", "release_date": "1975-10-03", "title": "Reflections in Black", "video": false, "vote_average": 6.1, "vote_count": 5, "popularity": 1.141}, {"id": 39436, "video": false, "vote_count": 106, "vote_average": 6.3, "title": "Sleepless", "release_date": "2001-01-05", "original_language": "it", "original_title": "Non ho sonno", "genre_ids": [80, 27, 9648, 53], "backdrop_path": "/vyXM2gMBPpTUsRF3XFp8LobErnF.jpg", "adult": false, "overview": "An elderly and retired police detective and a young amateur sleuth team up to find a serial killer whom has resumed a killing spree in Turin, Italy after a 17-year hiatus.", "poster_path": "/dw5g6gQgo0YPv94uo9MQxG73sZh.jpg", "popularity": 6.504}, {"id": 31624, "video": false, "vote_count": 68, "vote_average": 6.8, "title": "Torso", "release_date": "1973-01-04", "original_language": "it", "original_title": "I corpi presentano tracce di violenza carnale", "genre_ids": [27, 9648, 53], "backdrop_path": "/7NmmFxqxYoVqpX7zkUQt56bexqN.jpg", "adult": false, "overview": "A series of sex murders shock a college campus, and four beautiful young girlfriends head for the safety of an isolated country villa. But as they succumb to their own erotic desires, their weekend of pleasure becomes a vacation to dismember at the hands - and blade - of the lecherous maniac.", "poster_path": "/xDQUXVzCbOEJm485GTc5HbUvRz3.jpg", "popularity": 6.515}, {"id": 91256, "video": false, "vote_count": 11, "vote_average": 5.5, "title": "The Sister of Ursula", "release_date": "1978-10-18", "original_language": "it", "original_title": "La sorella di Ursula", "genre_ids": [18, 27, 53], "backdrop_path": "/c9oQNEZ2hKtI3ndx3GVZw9CMa6q.jpg", "adult": false, "overview": "While searching for their estranged mother, two beautiful sisters, Dagmar and Ursula, arrive at a luxurious seaside hotel. At the same time, a mysterious killer starts murdering promiscuous women in the area.", "poster_path": "/iIvZxR9okIOmXiDoeFZgeihaz9g.jpg", "popularity": 3.322}, {"adult": false, "backdrop_path": "/4GxUChvf9XxKIniwWOD6kw9ZF5.jpg", "genre_ids": [27, 9648, 53], "id": 40130, "original_language": "it", "original_title": "La dama rossa uccide sette volte", "overview": "In the film, an age-old family curse hits sisters Kitty and Franziska following the death of their grandfather Tobias.  Every hundred years, the legend goes, the bloodthirsty Red Queen returns and claims seven fresh victims.  Was Tobias just the first... and are Kitty and Franziska next?", "poster_path": "/q2ar65sjFsC8jhHCWeiY1YbSb3m.jpg", "release_date": "1972-08-18", "title": "The Red Queen Kills Seven Times", "video": false, "vote_average": 7.0, "vote_count": 33, "popularity": 3.704}, {"id": 285840, "video": false, "vote_count": 59, "vote_average": 5.7, "title": "The Editor", "release_date": "2014-09-11", "original_language": "en", "original_title": "The Editor", "genre_ids": [35, 27, 9648], "backdrop_path": "/9hxz7Rr9HIRyzVujbu399t6gP47.jpg", "adult": false, "overview": "A one-time (and now one-handed) master film editor toiling in the cinematic sweatshops of 1970s Italy becomes the prime suspect in a series of brutal murders.", "poster_path": "/rMD3yAKoUiPXQruRrlnlF6hsosa.jpg", "popularity": 4.852}, {"adult": false, "backdrop_path": "/4L1MSZo8dQ20x4AhBDKfDs1cOjs.jpg", "genre_ids": [27, 53], "id": 9728, "original_language": "en", "original_title": "Friday the 13th Part III", "overview": "An idyllic summer turns into a nightmare of unspeakable terror for yet another group of naive counselors. Ignoring Camp Crystal Lake's bloody legacy, one by one they fall victim to the maniacal Jason who stalks them at every turn.", "poster_path": "/5wg2NZyIhcMbIBAahBODXHyJ54S.jpg", "release_date": "1982-08-13", "title": "Friday the 13th Part III", "video": false, "vote_average": 5.8, "vote_count": 634, "popularity": 15.501}, {"adult": false, "backdrop_path": "/arcpWGGnUkGkakOwZo7xfPsaz7h.jpg", "genre_ids": [9648, 53], "id": 2832, "original_language": "en", "original_title": "Identity", "overview": "Complete strangers stranded at a remote desert motel during a raging storm soon find themselves the target of a deranged murderer. As their numbers thin out, the travelers begin to turn on each other, as each tries to figure out who the killer is.", "poster_path": "/xSNSp2wmCUwFavxdkMF417hBc39.jpg", "release_date": "2003-04-25", "title": "Identity", "video": false, "vote_average": 7.2, "vote_count": 2091, "popularity": 19.629}, {"id": 1949, "video": false, "vote_count": 5165, "vote_average": 7.5, "title": "Zodiac", "release_date": "2007-03-02", "original_language": "en", "original_title": "Zodiac", "genre_ids": [80, 18, 9648, 53], "backdrop_path": "/jP2htGBHE7vKq4MLeC75UeC0sZH.jpg", "adult": false, "overview": "The true story of the investigation of the \"Zodiac Killer\", a serial killer who terrified the San Francisco Bay Area, taunting police with his ciphers and letters. The case becomes an obsession for three men as their lives and careers are built and destroyed by the endless trail of clues.", "poster_path": "/bgLyOROfFQI3FqYL7jQbiaV8lkN.jpg", "popularity": 24.455}, {"adult": false, "backdrop_path": "/2J283YNxKhxAqHeVegUJ5mzLfGb.jpg", "genre_ids": [80, 18, 9648], "id": 392044, "original_language": "en", "original_title": "Murder on the Orient Express", "overview": "Genius Belgian detective Hercule Poirot investigates the murder of an American tycoon aboard the Orient Express train.", "poster_path": "/iBlfxlw8qwtUS0R8YjIU7JtM6LM.jpg", "release_date": "2017-11-03", "title": "Murder on the Orient Express", "video": false, "vote_average": 6.7, "vote_count": 6050, "popularity": 27.701}, {"adult": false, "backdrop_path": "/o4psXh7IVD6GFKvBSHjHLzjL2lV.jpg", "genre_ids": [27, 53], "id": 10781, "original_language": "en", "original_title": "The Texas Chainsaw Massacre: The Beginning", "overview": "Chrissie and her friends set out on a road trip for a final fling before one is shipped off to Vietnam. Along the way, bikers harass the foursome and cause an accident that throws Chrissie from the vehicle. The lawman who arrives on the scene kills one of the bikers and brings Chrissie's friends to the Hewitt homestead, where young Leatherface is learning the tools of terror.", "poster_path": "/9elCJIG1TOJ0wew3JVx5ZMkHq5w.jpg", "release_date": "2006-10-06", "title": "The Texas Chainsaw Massacre: The Beginning", "video": false, "vote_average": 6.0, "vote_count": 936, "popularity": 19.211}, {"id": 181283, "video": false, "vote_count": 988, "vote_average": 6.2, "title": "Child 44", "release_date": "2015-03-15", "original_language": "en", "original_title": "Child 44", "genre_ids": [80, 53], "backdrop_path": "/A2WK7mdiKHaxgE4hRyKuDIM4KGg.jpg", "adult": false, "overview": "Set in Stalin-era Soviet Union, a disgraced MGB agent is dispatched to investigate a series of child murders -- a case that begins to connect with the very top of party leadership.", "poster_path": "/nzXwfnBcsmREzHlem6fkStN1RUH.jpg", "popularity": 17.414}, {"adult": false, "backdrop_path": "/qqdVRlVCvVWdmSBYrEHwQuC3GBd.jpg", "genre_ids": [27, 53], "id": 371608, "original_language": "en", "original_title": "The Strangers: Prey at Night", "overview": "A family\u2019s road trip takes a dangerous turn when they arrive at a secluded mobile home park to stay with some relatives and find it mysteriously deserted. Under the cover of darkness, three masked psychopaths pay them a visit to test the family\u2019s every limit as they struggle to survive.", "poster_path": "/vdxLpPsZkPZdFrREp7eSeSzcimj.jpg", "release_date": "2018-03-07", "title": "The Strangers: Prey at Night", "video": false, "vote_average": 5.4, "vote_count": 758, "popularity": 16.815}, {"id": 14447, "video": false, "vote_count": 246, "vote_average": 7.2, "title": "A Matter of Loaf and Death", "release_date": "2008-12-03", "original_language": "en", "original_title": "A Matter of Loaf and Death", "genre_ids": [16, 35, 80, 9648, 10751], "backdrop_path": "/dZCFDIsUrgqIjFucPHNnKFMgcPn.jpg", "adult": false, "overview": "Wallace and Gromit have a brand new business - a bakery. Although business is booming, Gromit is concerned by the news that 12 local bakers have 'disappeared' this year - but Wallace isn't worried. He's too distracted and in love with local beauty and bread enthusiast, Piella Bakewell, to be of much help. Gromit must be the sleuth and solve the escalating murder mystery.", "poster_path": "/e4L9XUCmNhiwbLICMiISh73PySF.jpg", "popularity": 14.497}, {"adult": false, "backdrop_path": "/oni8CXvEg56JhrfVdVUrQYOuhP0.jpg", "genre_ids": [80, 28, 53], "id": 55846, "original_language": "en", "original_title": "Blitz", "overview": "A tough, renegade cop with a gay sidekick is dispatched to take down a serial killer who has been targeting police officers.", "poster_path": "/woY0qY4DR6bPOQ7cBwyblePsYky.jpg", "release_date": "2011-05-20", "title": "Blitz", "video": false, "vote_average": 6.0, "vote_count": 862, "popularity": 18.232}, {"id": 10909, "video": false, "vote_count": 406, "vote_average": 6.7, "title": "Kalifornia", "release_date": "1993-09-01", "original_language": "en", "original_title": "Kalifornia", "genre_ids": [80, 53], "backdrop_path": "/ucfWS1l0mVHKOtgL8ew5Y10IZMM.jpg", "adult": false, "overview": "A journalist duo go on a tour of serial killer murder sites with two companions, unaware that one of them is a serial killer himself.", "poster_path": "/5MM64T2y1qrBchByhB4I8Vr7HY.jpg", "popularity": 11.623}, {"id": 8461, "video": false, "vote_count": 1137, "vote_average": 6.5, "title": "Funny Games", "release_date": "2007-10-20", "original_language": "en", "original_title": "Funny Games", "genre_ids": [80, 18, 27, 53], "backdrop_path": "/x0IvYeF88qYoKkigRjJ9CiyfY6b.jpg", "adult": false, "overview": "When Ann, husband George, and son Georgie arrive at their holiday home they are visited by a pair of polite and seemingly pleasant young men. Armed with deceptively sweet smiles and some golf clubs, they proceed to terrorize and torture the tight-knit clan, giving them until the next day to survive.", "poster_path": "/eyYqrggNEJpoqulbyaDBW2ABjwO.jpg", "popularity": 11.214}, {"id": 8090, "video": false, "vote_count": 448, "vote_average": 6.1, "title": "Untraceable", "release_date": "2008-01-22", "original_language": "en", "original_title": "Untraceable", "genre_ids": [9648, 53], "backdrop_path": "/eXuIPt9I1xuaVddlgzEQRC2EMnJ.jpg", "adult": false, "overview": "Special Agent Jennifer Marsh (Diane Lane) works in an elite division of the FBI dedicated to fighting cybercrime. She thinks she has seen it all, until a particularly sadistic criminal arises on the Internet. This tech-savvy killer posts live feeds of his crimes on his website; the more hits the site gets, the faster the victim dies. Marsh and her team must find the elusive killer before time runs out.", "poster_path": "/ySUwDRDEn01lKIMPQorpFCMLWqE.jpg", "popularity": 14.431}, {"adult": false, "backdrop_path": "/dQq32z4XmYIiK406tZhMhfxmnr.jpg", "genre_ids": [80, 53], "id": 158011, "original_language": "en", "original_title": "The Call", "overview": "Jordan Turner is an experienced 911 operator but when she makes an error in judgment and a call ends badly, Jordan is rattled and unsure if she can continue. But when teenager Casey Welson is abducted in the back of a man's car and calls 911, Jordan is the one called upon to use all of her experience, insights and quick thinking to help Casey escape, and not just to save her, but to make sure the man is brought to justice.", "poster_path": "/ekKVxnKeHEQiBznaEnj0VmK28bc.jpg", "release_date": "2013-03-14", "title": "The Call", "video": false, "vote_average": 6.7, "vote_count": 1918, "popularity": 12.863}, {"adult": false, "backdrop_path": "/xkmUSrBFYxzomsz5FLAPvxwMJr0.jpg", "genre_ids": [9648, 53, 80, 27], "id": 77029, "original_language": "it", "original_title": "La morte cammina con i tacchi alti", "overview": "Exotic dancer Nicole finds herself terrorized by a black-clad assailant determined on procuring her murdered father's stolen gems. Fleeing Paris in hopes of evading her knife-wielding pursuer, Nicole arrives in England only to discover that death stalks her at every corner.", "poster_path": "/107LxWmMYCh01Y7dYsWop7vBnx4.jpg", "release_date": "1971-11-19", "title": "Death Walks on High Heels", "video": false, "vote_average": 6.2, "vote_count": 20, "popularity": 2.372}], "total_pages": 216, "total_results": 4303}, "recommendations": {"page": 1, "results": [{"adult": false, "backdrop_path": "/gwqXk4hucUnUaaqiJ5vuUy11Z35.jpg", "genre_ids": [28, 35], "id": 89651, "original_language": "it", "original_title": "Colpo in canna", "overview": "An air hostess gets involved in Naples, against her will, in the in-fighting amongst rival gangs.", "poster_path": "/m48DCEVNDooPkkJjtilp6loSem9.jpg", "release_date": "1975-01-18", "title": "Loaded Guns", "video": false, "vote_average": 5.6, "vote_count": 5, "popularity": 2.724}, {"adult": false, "backdrop_path": "/yWBq6w3wZ12fBiMwscFmtFpi0m8.jpg", "genre_ids": [18, 53, 80], "id": 108074, "original_language": "it", "original_title": "Myst\u00e8re", "overview": "Assassins are after a prostitute who has come into possession of a cigarette lighter that, unbeknownst to her, contains the negatives that show a politician's assassination. A delightfully playful giallo starring the beautiful Carole Bouquet as Myst\u00e8re, a high class call girl who becomes the target for a couple of assassins.", "poster_path": "/s1en6np1pNla0npiCT6hHopnaJb.jpg", "release_date": "1983-11-28", "title": "Myst\u00e8re", "video": false, "vote_average": 5.5, "vote_count": 4, "popularity": 2.242}], "total_pages": 1, "total_results": 2}, "credits": {"cast": [{"cast_id": 2, "character": "Giorgio D'Amato", "credit_id": "587d4f8cc3a368426e012203", "gender": 0, "id": 1740178, "name": "Joseph Arkim", "order": 1, "profile_path": null}, {"cast_id": 3, "character": "", "credit_id": "587d4f9e9251414101012720", "gender": 0, "id": 1740179, "name": "Francisco Cort\u00e9z", "order": 2, "profile_path": null}, {"cast_id": 4, "character": "", "credit_id": "587d4fc5925141410101273c", "gender": 0, "id": 1740180, "name": "Richard Fielding", "order": 3, "profile_path": null}, {"cast_id": 5, "character": "Lucia", "credit_id": "587d4fdec3a36847e801f45c", "gender": 1, "id": 33817, "name": "Gabriella Giorgelli", "order": 4, "profile_path": "/eboNfmzb7D1S9Lv8srbPhkC7AUO.jpg"}, {"cast_id": 6, "character": "Sara", "credit_id": "587d4ff09251413e9201d884", "gender": 0, "id": 939103, "name": "Elena Veronese", "order": 5, "profile_path": null}, {"cast_id": 7, "character": "Enrichetta Blond", "credit_id": "587d500dc3a3684a4a020119", "gender": 1, "id": 37783, "name": "Margaret Rose Keil", "order": 6, "profile_path": "/miLiW3V6Aq8GC1kMEtEQdSChJdC.jpg"}, {"cast_id": 8, "character": "", "credit_id": "587d5023c3a368494c01af9c", "gender": 0, "id": 1740181, "name": "Erika Fisher", "order": 7, "profile_path": null}, {"cast_id": 16, "character": "", "credit_id": "595dc1429251410b8608076f", "gender": 0, "id": 1845690, "name": "Danny P. Gerzog", "order": 8, "profile_path": null}, {"cast_id": 17, "character": "", "credit_id": "595dc15dc3a36825e8076593", "gender": 0, "id": 1845691, "name": "Robert Trewords", "order": 9, "profile_path": null}, {"cast_id": 18, "character": "", "credit_id": "595dc1819251412251061a6b", "gender": 0, "id": 101121, "name": "Halina Zalewska", "order": 10, "profile_path": "/sD8JlFTHC0uxESQTvF4jzKA2Jzl.jpg"}], "crew": [{"credit_id": "52fe4a4cc3a36847f81c6219", "department": "Directing", "gender": 0, "id": 1143630, "job": "Director", "name": "Helia Colombo", "profile_path": null}, {"credit_id": "595dae8b9251410b8607f4fb", "department": "Production", "gender": 0, "id": 1845652, "job": "Producer", "name": "Dario Amendola", "profile_path": null}, {"credit_id": "595dae97925141222b061a58", "department": "Sound", "gender": 0, "id": 1845653, "job": "Original Music Composer", "name": "Aldo Saitto", "profile_path": null}, {"credit_id": "595daeaac3a3680dec05176c", "department": "Camera", "gender": 0, "id": 1845654, "job": "Director of Photography", "name": "Giancarlo Pancaldi", "profile_path": null}, {"credit_id": "595daeb592514121f0061e31", "department": "Editing", "gender": 0, "id": 32665, "job": "Editor", "name": "Francesco Bertuccioli", "profile_path": null}, {"credit_id": "595daec09251410c56078be5", "department": "Art", "gender": 0, "id": 1845655, "job": "Production Design", "name": "Alfredo Saitto", "profile_path": null}, {"credit_id": "595daed0925141222b061a8a", "department": "Directing", "gender": 0, "id": 1845656, "job": "Script Supervisor", "name": "Paola Percuolo", "profile_path": null}, {"credit_id": "595daf6bc3a368253c0711c8", "department": "Writing", "gender": 0, "id": 1143630, "job": "Screenplay", "name": "Helia Colombo", "profile_path": null}]}}