{"adult": false, "backdrop_path": "/mmCeoXCUHo7TBOw0EScRxQHxMLN.jpg", "belongs_to_collection": null, "budget": 0, "genres": [{"id": 18, "name": "Drama"}], "homepage": null, "id": 105540, "imdb_id": "tt0233385", "original_language": "fr", "original_title": "Brumes d'automne", "overview": "An early impressionist short featuring a woman who dreams of, and escapes into, an autumn forest.", "popularity": 1.266, "poster_path": "/tBNAGXrw2frEj87f8QqhywA9yDK.jpg", "production_companies": [{"id": 70138, "logo_path": null, "name": "Mentor-Film", "origin_country": ""}], "production_countries": [{"iso_3166_1": "FR", "name": "France"}], "release_date": "1929-01-01", "revenue": 0, "runtime": 12, "spoken_languages": [{"iso_639_1": "xx", "name": "No Language"}], "status": "Released", "tagline": "", "title": "Autumn Mists", "video": false, "vote_average": 6.4, "vote_count": 17, "keywords": {"keywords": [{"id": 15216, "name": "avant-garde"}, {"id": 214549, "name": "short"}]}, "similar": {"page": 1, "results": [{"id": 150540, "video": false, "vote_count": 13957, "vote_average": 7.9, "title": "Inside Out", "release_date": "2015-06-09", "original_language": "en", "original_title": "Inside Out", "genre_ids": [16, 35, 18, 10751], "backdrop_path": "/szytSpLAyBh3ULei3x663mAv5ZT.jpg", "adult": false, "overview": "Growing up can be a bumpy road, and it's no exception for Riley, who is uprooted from her Midwest life when her father starts a new job in San Francisco. Riley's guiding emotions\u2014 Joy, Fear, Anger, Disgust and Sadness\u2014live in Headquarters, the control centre inside Riley's mind, where they help advise her through everyday life and tries to keep things positive, but the emotions conflict on how best to navigate a new city, house and school.", "poster_path": "/aAmfIX3TT40zUHGcCKrlOZRKC7u.jpg", "popularity": 57.362}, {"id": 621733, "video": false, "vote_count": 0, "vote_average": 0.0, "title": "A Trip to the Seaside", "release_date": "2019-08-30", "original_language": "en", "original_title": "A Trip to the Seaside", "genre_ids": [99], "backdrop_path": null, "adult": false, "overview": "Experimental short film on the excitement and rush of a day trip", "poster_path": "/AuZVhpoJ4jm2LWDhoJKfxQfhDAi.jpg", "popularity": 1.324}, {"id": 326359, "video": false, "vote_count": 1180, "vote_average": 6.8, "title": "Frozen Fever", "release_date": "2015-03-09", "original_language": "en", "original_title": "Frozen Fever", "genre_ids": [12, 16, 10751], "backdrop_path": "/ubioPGniCfDiASmYYpeJs5RRNaC.jpg", "adult": false, "overview": "On Anna's birthday, Elsa and Kristoff are determined to give her the best celebration ever, but Elsa's icy powers may put more than just the party at risk.", "poster_path": "/lKJiVPzsAO9IJ4LKWXZ8vkR2bg4.jpg", "popularity": 17.218}, {"adult": false, "backdrop_path": "/4brEMzPazQE3hv3mogj6k1a29RP.jpg", "genre_ids": [10749, 14, 16], "id": 3933, "original_language": "en", "original_title": "Corpse Bride", "overview": "Set in a 19th-century european village, this stop-motion animation feature follows the story of Victor, a young man whisked away to the underworld and wed to a mysterious corpse bride, while his real bride Victoria waits bereft in the land of the living.", "poster_path": "/o9GbcdP7rOg2m1NyUnUR3ZwNcTE.jpg", "release_date": "2005-09-12", "title": "Corpse Bride", "video": false, "vote_average": 7.4, "vote_count": 4928, "popularity": 23.702}, {"adult": false, "backdrop_path": "/5OeY4U2rzePxWq2rkqMajUx2gz7.jpg", "genre_ids": [16, 10751, 12, 14, 10749], "id": 812, "original_language": "en", "original_title": "Aladdin", "overview": "Princess Jasmine grows tired of being forced to remain in the palace, so she sneaks out into the marketplace, in disguise, where she meets street-urchin Aladdin.  The couple falls in love, although Jasmine may only marry a prince.  After being thrown in jail, Aladdin becomes embroiled in a plot to find a mysterious lamp, with which the evil Jafar hopes to rule the land.", "poster_path": "/mjKozYRuHc9j7SmiXmbVmCiAM0A.jpg", "release_date": "1992-11-25", "title": "Aladdin", "video": false, "vote_average": 7.6, "vote_count": 7289, "popularity": 35.494}, {"id": 14813, "video": false, "vote_count": 456, "vote_average": 7.6, "title": "Mickey's Christmas Carol", "release_date": "1983-10-19", "original_language": "en", "original_title": "Mickey's Christmas Carol", "genre_ids": [16, 10751], "backdrop_path": "/fDK3xeAcQfQ40ZUULgZshElkspa.jpg", "adult": false, "overview": "It is an adaptation of the Charles Dickens classic A Christmas Carol, featuring Scrooge McDuck as his namesake and inspiration Ebenezer Scrooge and Mickey Mouse as Bob Cratchit. This film was based on a 1972 audio musical entitled Disney's A Christmas Carol. It is a twenty-four minute animated short film produced by Walt Disney Productions as an accompaniment to a re-release of The Rescuers.", "poster_path": "/29iF1IiC3ZyJQ1kmTf4LD8p8oro.jpg", "popularity": 14.7}, {"id": 9479, "video": false, "vote_count": 5316, "vote_average": 7.8, "title": "The Nightmare Before Christmas", "release_date": "1993-10-09", "original_language": "en", "original_title": "The Nightmare Before Christmas", "genre_ids": [16, 14, 10751], "backdrop_path": "/16lk65YfrDFIr6evkWRjSeOOSws.jpg", "adult": false, "overview": "Tired of scaring humans every October 31 with the same old bag of tricks, Jack Skellington, the spindly king of Halloween Town, kidnaps Santa Claus and plans to deliver shrunken heads and other ghoulish gifts to children on Christmas morning. But as Christmas approaches, Jack's rag-doll girlfriend, Sally, tries to foil his misguided plans.", "poster_path": "/6oxkO1VgKCq74fNILKAg6t2dVEt.jpg", "popularity": 18.951}, {"id": 650755, "video": false, "vote_count": 0, "vote_average": 0.0, "title": "Atordoado, Eu Permane\u00e7o Atento", "release_date": "2020-01-15", "original_language": "pt", "original_title": "Atordoado, Eu Permane\u00e7o Atento", "genre_ids": [99], "backdrop_path": null, "adult": false, "overview": "", "poster_path": "/exbM8qk6f6T44olJXcM8ix1sunL.jpg", "popularity": 5.092}, {"id": 19, "video": false, "vote_count": 1340, "vote_average": 8.2, "title": "Metropolis", "release_date": "1927-01-10", "original_language": "de", "original_title": "Metropolis", "genre_ids": [18, 878], "backdrop_path": "/gmH0N0bdlYGN1EUr8U2cMQYyg78.jpg", "adult": false, "overview": "In a futuristic city sharply divided between the working class and the city planners, the son of the city's mastermind falls in love with a working class prophet who predicts the coming of a savior to mediate their differences.", "poster_path": "/qriaeUUwdmlgethK3aSAx68mG05.jpg", "popularity": 20.587}, {"id": 4977, "video": false, "vote_count": 999, "vote_average": 7.8, "title": "Paprika", "release_date": "2006-10-01", "original_language": "ja", "original_title": "\u30d1\u30d7\u30ea\u30ab", "genre_ids": [16, 18, 9648, 878, 53], "backdrop_path": "/jViKJYWcILHeN0KH1Wub0Go59TZ.jpg", "adult": false, "overview": "When a machine that allows therapists to enter their patient's dreams is stolen, all hell breaks loose. Only a young female therapist can stop it: Paprika.", "poster_path": "/bLUUr474Go1DfeN1HLjE3rnZXBq.jpg", "popularity": 14.934}, {"adult": false, "backdrop_path": "/tr6OExnBfjLADi9OyZoW308mPAp.jpg", "genre_ids": [18, 35, 10749], "id": 74643, "original_language": "en", "original_title": "The Artist", "overview": "Hollywood, 1927: As silent movie star George Valentin wonders if the arrival of talking pictures will cause him to fade into oblivion, he sparks with Peppy Miller, a young dancer set for a big break.", "poster_path": "/i0mpvMIIjyubXsVKug9vX0lYpnd.jpg", "release_date": "2011-06-26", "title": "The Artist", "video": false, "vote_average": 7.4, "vote_count": 1977, "popularity": 10.661}, {"id": 901, "video": false, "vote_count": 1026, "vote_average": 8.4, "title": "City Lights", "release_date": "1931-02-01", "original_language": "xx", "original_title": "City Lights", "genre_ids": [35, 18, 10749], "backdrop_path": "/vT6ux2rdyg2kexuLisO5Ygz7pHg.jpg", "adult": false, "overview": "City Lights is the first silent film that Charlie Chaplin directed after he established himself with sound accompanied films. The film is about a penniless man who falls in love with a flower girl.", "poster_path": "/bXNvzjULc9jrOVhGfjcc64uKZmZ.jpg", "popularity": 14.645}, {"adult": false, "backdrop_path": "/fJQ5kjLx4UdK05MC323Vlzwr6S8.jpg", "genre_ids": [35, 18, 36], "id": 140823, "original_language": "en", "original_title": "Saving Mr. Banks", "overview": "Author P.L. Travers travels from London to Hollywood as Walt Disney Pictures adapts her novel Mary Poppins for the big screen.", "poster_path": "/mvs3reS18RP6IhjLwwLeVtkoeg0.jpg", "release_date": "2013-11-16", "title": "Saving Mr. Banks", "video": false, "vote_average": 7.4, "vote_count": 2230, "popularity": 11.476}, {"id": 37135, "video": false, "vote_count": 4092, "vote_average": 7.4, "title": "Tarzan", "release_date": "1999-06-18", "original_language": "en", "original_title": "Tarzan", "genre_ids": [12, 16, 18, 10751], "backdrop_path": "/hCpRqibOM0ouOiqL0HMqZOF8bYe.jpg", "adult": false, "overview": "Tarzan was a small orphan who was raised by an ape named Kala since he was a child. He believed that this was his family, but on an expedition Jane Porter is rescued by Tarzan. He then finds out that he's human. Now Tarzan must make the decision as to which family he should belong to...", "poster_path": "/y6k0qn4tcDfbnrjJ2BUnoZYmMBk.jpg", "popularity": 22.572}, {"adult": false, "backdrop_path": "/twGxeStlGooWV3gP6ZIcSNuQ6jf.jpg", "genre_ids": [12, 16, 10751, 14], "id": 81684, "original_language": "en", "original_title": "The Gruffalo's Child", "overview": "A follow up to the 2009 animated feature and adapted from the childrens' book by Julia Donaldson and Alex Scheffler.  The Gruffalo's child explores the deep dark wood in search of the big bad mouse and meets the Snake, Owl and Fox in the process.  She eventually finds the mouse, who manages to outwit her like the Gruffalo before!", "poster_path": "/qaGH2AoaLvoGXURQtNzj1nw6oZd.jpg", "release_date": "2011-12-25", "title": "The Gruffalo's Child", "video": false, "vote_average": 6.9, "vote_count": 73, "popularity": 9.51}, {"id": 621485, "video": false, "vote_count": 2, "vote_average": 5.5, "title": "Guest of Honor", "release_date": "2019-08-14", "original_language": "en", "original_title": "Guest of Honor", "genre_ids": [18], "backdrop_path": "/qo3f05mAqiGG5yDyVhURwwhR1oh.jpg", "adult": false, "overview": "A devout Nazi oversees a group of taste testers for Hitler.", "poster_path": "/g02YorY0sAVDJuXdL42Vpmqtv0g.jpg", "popularity": 3.407}, {"adult": false, "backdrop_path": null, "genre_ids": [], "id": 616262, "original_language": "ar", "original_title": "All Come From Dust", "overview": "A loop of edgeless bend. You were its doom, he was its bloom. You were its tomb, he was its womb. You were its gloom, he was its loom. For Heaven and Hell, were words made of fume.", "poster_path": null, "release_date": "2019-08-13", "title": "All Come From Dust", "video": false, "vote_average": 5.0, "vote_count": 1, "popularity": 0.6}, {"adult": false, "backdrop_path": "/qFLDF62VbWyyxkwco9lwZqkGoMB.jpg", "genre_ids": [16, 10751], "id": 10895, "original_language": "en", "original_title": "Pinocchio", "overview": "Lonely toymaker Geppetto has his wishes answered when the Blue Fairy arrives to bring his wooden puppet Pinocchio to life. Before becoming a real boy, however, Pinocchio must prove he's worthy as he sets off on an adventure with his whistling sidekick and conscience, Jiminy Cricket.", "poster_path": "/gN1dQBHi4557cFduIu9njOr6knW.jpg", "release_date": "1940-02-23", "title": "Pinocchio", "video": false, "vote_average": 7.0, "vote_count": 3431, "popularity": 25.831}, {"id": 313297, "video": false, "vote_count": 2277, "vote_average": 7.7, "title": "Kubo and the Two Strings", "release_date": "2016-08-18", "original_language": "en", "original_title": "Kubo and the Two Strings", "genre_ids": [12, 16, 10751], "backdrop_path": "/aF4TrSc1IbNNtsWdwixMQNku3Dv.jpg", "adult": false, "overview": "Kubo mesmerizes the people in his village with his magical gift for spinning wild tales with origami. When he accidentally summons an evil spirit seeking vengeance, Kubo is forced to go on a quest to solve the mystery of his fallen samurai father and his mystical weaponry, as well as discover his own magical powers.", "poster_path": "/3Kr9CIIMcXTPlm6cdZ9y3QTe4Y7.jpg", "popularity": 33.362}, {"id": 14836, "video": false, "vote_count": 3514, "vote_average": 7.6, "title": "Coraline", "release_date": "2009-02-05", "original_language": "en", "original_title": "Coraline", "genre_ids": [16, 10751], "backdrop_path": "/obBsMjC9dkDeoYsLxHURikW87UZ.jpg", "adult": false, "overview": "When Coraline moves to an old house, she feels bored and neglected by her parents. She finds a hidden door with a bricked up passage. During the night, she crosses the passage and finds a parallel world where everybody has buttons instead of eyes, with caring parents and all her dreams coming true. When the Other Mother invites Coraline to stay in her world forever, the girl refuses and finds that the alternate reality where she is trapped is only a trick to lure her.", "poster_path": "/ybOmHUVVXcwBQErjw7tmeE97fpO.jpg", "popularity": 25.26}], "total_pages": 922, "total_results": 18439}, "recommendations": {"page": 1, "results": [{"adult": false, "backdrop_path": null, "genre_ids": [99], "id": 139772, "original_language": "it", "original_title": "I dimenticati", "overview": "A  short  documentary set in  Alessandria del Carretto, a small town in the province of Cosenza.", "poster_path": "/j633BTwMZ0E1TJ1o0SpKreJHBcr.jpg", "release_date": "1959-06-01", "title": "I dimenticati", "video": false, "vote_average": 6.5, "vote_count": 8, "popularity": 1.501}, {"adult": false, "backdrop_path": null, "genre_ids": [], "id": 151312, "original_language": "en", "original_title": "Vivian", "overview": "\"A film portrait cut to the tune of Conway Twitty's version of 'Mona Lisa.' Filmed in part at a 1964 show of Conner's artwork in San Francisco, the film is also a witty statement about forces that take the life out of art. Vivian Kurz, the subject of the film, is entombed in a glass display case.\" - Judd Chesler  Award: Gold Medal Award, Sesta Biennale D'Arte Republica Di San Marino.  Da Vinci thought he caught her smiling.", "poster_path": "/wB8oWOgjb9yhsD5DMRuROa1sGsB.jpg", "release_date": "1965-03-19", "title": "Vivian", "video": false, "vote_average": 7.0, "vote_count": 7, "popularity": 1.383}, {"adult": false, "backdrop_path": null, "genre_ids": [99], "id": 130842, "original_language": "en", "original_title": "Take the 5:10 to Dreamland", "overview": "Its slow somnambulic rhythm, its animalistic jungle sounds as well as the eerily mixed images create a dream mood that comes closest to my actual dreaming-feeling. The long black phases between the sequences are as important as the images themselves because they leave empty space where the \"echo\" of the last image can seep through without interfering with the following image. But our logical mind still somehow feels compelled to construe some kind of sense, parallel, or some erratic story out of it.", "poster_path": "/AnuPqaksNX6oaaRkqTW3Yf2DVwY.jpg", "release_date": "1976-03-30", "title": "Take the 5:10 to Dreamland", "video": false, "vote_average": 6.0, "vote_count": 9, "popularity": 1.434}, {"adult": false, "backdrop_path": null, "genre_ids": [16], "id": 144674, "original_language": "en", "original_title": "Motion Painting No. 1", "overview": "Motion Painting No. 1 is a 1947  experimental short animated film in which film artist Oskar Fischinger put images in motion to the music of Johann Sebastian Bach\u2019s Brandenburg Concerto no. 3, BWV 1048. It is a film of a painting (oil on acrylic glass); Fischinger filmed each brushstroke over the course of 9 months. In 1997, this film was selected for inclusion in the United States National Film Registry by the Library of Congress as being \u201cculturally, historically, or aesthetically significant\u201d.", "poster_path": "/ti85DzdTaEYf81Z2ofR1hQFqGOp.jpg", "release_date": "1947-12-31", "title": "Motion Painting No. 1", "video": false, "vote_average": 7.0, "vote_count": 13, "popularity": 2.005}, {"adult": false, "backdrop_path": null, "genre_ids": [], "id": 147606, "original_language": "sv", "original_title": "Studie II: Hallucinationer", "overview": "\"Studie II (Hallucinationer)\" (Study II (Hallucinations)) (1952), comprises twelve staged scenes that were modelled after a set of drawings. Accompanied by metallic sounds, various body parts, limbs and objects form surrealistic collages against the background of a black space. Peter Weiss intended to create associative images that can not be deciphered completely. Beyond any logical interpretation, he wanted to show pure inner feelings. In a conversation with Harun Farocki from 1980, Peter Weiss admitted in retrospect that the images had very well developed a strong psychological effect. Referring to the situation of his exile, he stated that \"this had to do with the traumatic as well as dreamlike experience of rupture and alienation.\"  (UbuWeb)", "poster_path": "/n4u6XSoK6VyrHOGIMvQu6oLtn4K.jpg", "release_date": "1952-12-31", "title": "Studie II: Hallucinationer", "video": false, "vote_average": 4.6, "vote_count": 11, "popularity": 1.041}, {"adult": false, "backdrop_path": null, "genre_ids": [], "id": 146211, "original_language": "en", "original_title": "Trade Tattoo", "overview": "Trade Tattoo went even further than Rainbow Dance in its manipulation of the Gasparcolor process. The original black and white footage consisted of outtakes from GPO Film Unit documentaries such as Night Mail. Lye transformed this footage in what has been described as the most intricate job of film printing and color grading ever attempted. Animated words and patterns combine with the live-action footage to create images as complex and multi-layered as a Cubist painting. Music was provided by the Cuban Lecuona Band. With its dynamic rhythms, the film seeks (in Lye\u2019s words) to convey \u201ca romanticism about the work of the everyday in all walks of life.\"", "poster_path": "/paT9OUHe4D0hyR4aggFqHa277Yl.jpg", "release_date": "1937-12-31", "title": "Trade Tattoo", "video": false, "vote_average": 6.2, "vote_count": 14, "popularity": 1.665}, {"adult": false, "backdrop_path": null, "genre_ids": [], "id": 154412, "original_language": "en", "original_title": "Bang!", "overview": "", "poster_path": "/43973qwvlTXQxM1rVHtVxuwXwWT.jpg", "release_date": "1986-12-31", "title": "Bang!", "video": false, "vote_average": 5.8, "vote_count": 10, "popularity": 1.153}, {"adult": false, "backdrop_path": null, "genre_ids": [27, 35, 16, 9648], "id": 150531, "original_language": "en", "original_title": "There It Is", "overview": "When a mysterious figure appears to cause a series of disruptions at the Frisbie Home in New York, word goes out to Scotland Yard that the Fuzz-Faced Phantom is at work. Soon, Charley MacNeesha and his assistant MacGregor are sent across the ocean to investigate. But even as they arrive at the home, a new series of weird events begins.", "poster_path": "/jDydMOYTPHsPQRND7VzgLLCic6I.jpg", "release_date": "1928-01-01", "title": "There It Is", "video": false, "vote_average": 5.9, "vote_count": 8, "popularity": 2.595}, {"adult": false, "backdrop_path": null, "genre_ids": [], "id": 184882, "original_language": "de", "original_title": "Filmstudie", "overview": "Entertaining Dadaist experimental short, similar to Man Ray's work, full of shifting geometric shapes, stock footage of seagulls, flying eyeballs, and glaring floating heads.", "poster_path": "/A1dBKcm1uBDqh2ovz2VRLe9Pktm.jpg", "release_date": "1926-05-21", "title": "Film Study", "video": false, "vote_average": 5.7, "vote_count": 13, "popularity": 0.905}, {"adult": false, "backdrop_path": null, "genre_ids": [], "id": 186164, "original_language": "de", "original_title": "Ein Lichtspiel schwarz weiss grau", "overview": "This short film made by L\u00e1szl\u00f3 Moholy-Nagy is based on the shadow patterns created by his Light-Space Modulator, an early kinetic sculpture consisting of a variety of curved objects in a carefully choreographed cycle of movements. Created in 1930, the film was originally planned as the sixth and final part of a much longer work depicting the new space-time.", "poster_path": "/lDG451QZtl1ZEEm2smrcQiOovGm.jpg", "release_date": "1930-05-10", "title": "Light Spill: Black-White-Gray", "video": false, "vote_average": 5.7, "vote_count": 7, "popularity": 1.513}, {"adult": false, "backdrop_path": null, "genre_ids": [], "id": 190278, "original_language": "de", "original_title": "Alles dreht sich, alles bewegt sich", "overview": "A day at the carnival \u2014 sensational tent shows where miracles can be seen for the price of admission, boisterous noise of crowds and barkers, shrill and gaudy circus music, the violence of the street ten-fold. This is the substance of Everything Turns, Richter\u2019s first sound film. At its premier at Baden-Baden Richter got into a fight with two Nazi officials who disliked the films \u2018modernism.\u2019 Yet in 1936 it was awarded first prize for artistic merit by the Nazi\u2019s, with Richter\u2019s name suppressed from the credits. He had long since left Germany.", "poster_path": null, "release_date": "1929-07-25", "title": "Everything Turns, Everything Revolves", "video": false, "vote_average": 6.1, "vote_count": 10, "popularity": 1.176}, {"adult": false, "backdrop_path": "/4izPHldRKUwUewsvATp1AEPSynf.jpg", "genre_ids": [], "id": 189651, "original_language": "fr", "original_title": "La marche des machines", "overview": "La marche des machines (Deslaw,1927) is a sort of symphony of machines.", "poster_path": "/5ExziDB98g0i4ylV4zG9PewkUcE.jpg", "release_date": "1927-04-28", "title": "The March of the Machines", "video": false, "vote_average": 5.0, "vote_count": 10, "popularity": 1.27}, {"adult": false, "backdrop_path": null, "genre_ids": [], "id": 138750, "original_language": "fr", "original_title": "Les Myst\u00e8res du ch\u00e2teau du d\u00e9", "overview": "Mannequin hands hold a pair of dice. A castle is perched on a hilltop. Below it, a posh, modern villa. Meanwhile, far from Paris, two men with masked faces play dice in a bar. They decide to drive to Paris. Country roads, hills, fences. The posh \"chateau\" appears again: meticulous garden, fancy interior, odd sculptures. And at home? \"No one, NO ONE.\" For the next two days, masked figures play dice, frolic by the pool, perform exercises with a ball. Two new figures arrive. Masked. They search and find the dice. They dance. Mannequin hands hold a pair of dice.", "poster_path": "/xVAl1N0ognZ4JVG7BkDRrmOOrAP.jpg", "release_date": "1929-06-06", "title": "The Mysteries of the Chateau of Dice", "video": false, "vote_average": 7.3, "vote_count": 12, "popularity": 2.229}, {"adult": false, "backdrop_path": null, "genre_ids": [], "id": 190085, "original_language": "de", "original_title": "Zweigroschenzauber", "overview": "Two Penny Magic (Zweigroschenzauber) starting off with a little magic trick. It then presents an array of images from swimmers, bicyclers, murderers, airplanes in flight, boxers, lovers, runners, becoming in the end a collection of images in a magazine.", "poster_path": "/rL5kwQRIeAi4s3jnQNxXslhzRxl.jpg", "release_date": "1929-10-11", "title": "Two Pence Magic", "video": false, "vote_average": 5.8, "vote_count": 13, "popularity": 1.381}, {"adult": false, "backdrop_path": null, "genre_ids": [14, 16], "id": 174298, "original_language": "fr", "original_title": "La joie de vivre", "overview": "A blond and a raven-haired beauty move with verve and style through a changing landscape. The fabric of their dresses flows and floats, adding to their allure. One loses a shoe. A young man picks it up and pursues them on his bicycle.", "poster_path": "/xYQtbDNFdYNbNj6osS3zsVgYXUp.jpg", "release_date": "1934-03-05", "title": "The Joy of Life", "video": false, "vote_average": 5.7, "vote_count": 12, "popularity": 1.074}, {"adult": false, "backdrop_path": null, "genre_ids": [99], "id": 129863, "original_language": "en", "original_title": "Demolishing and Building Up the Star Theatre", "overview": "Time-lapse photography showing the one month-long demolition of the Star Theatre in New York.", "poster_path": "/Ak50Z0xgsaD1iTI6amwDiJD38E9.jpg", "release_date": "1901-04-29", "title": "Demolishing and Building Up the Star Theatre", "video": false, "vote_average": 6.8, "vote_count": 18, "popularity": 1.227}, {"adult": false, "backdrop_path": "/7iKhelLvsyDPmEBBkSnOHIJAnli.jpg", "genre_ids": [], "id": 91210, "original_language": "en", "original_title": "H\u2082O", "overview": "H\u2082O (1929) is a short silent film by photographer Ralph Steiner. It is a cinematic tone poem showing water in its many forms - concentrating on patterns of movement, shading and texture.", "poster_path": "/wphRCFV4ltAGz06qH3QZAHhZmW4.jpg", "release_date": "1929-12-31", "title": "H\u2082O", "video": false, "vote_average": 7.1, "vote_count": 16, "popularity": 2.757}, {"adult": false, "backdrop_path": null, "genre_ids": [], "id": 163102, "original_language": "en", "original_title": "The Potted Psalm", "overview": "A soundless mix of story fragments and images. Initially, images of death, a man with a guitar, a soir\u00e9e. Some images are surreal: an older woman eats a leaf; a headless man pours a cocktail into his body.", "poster_path": "/bbUaHCD2JeD7DSreSe6nEZ9q6Ie.jpg", "release_date": "1946-11-01", "title": "The Potted Psalm", "video": false, "vote_average": 5.3, "vote_count": 8, "popularity": 1.548}, {"adult": false, "backdrop_path": null, "genre_ids": [35], "id": 148626, "original_language": "fr", "original_title": "Barres", "overview": "The 1984 short Barres celebrates the ingenious ways one can get onto the Paris Metro without paying.", "poster_path": "/6nvHpShsZc8nWtKTBPRIvoXqhbh.jpg", "release_date": "1984-12-31", "title": "Barres", "video": false, "vote_average": 6.1, "vote_count": 8, "popularity": 2.006}, {"adult": false, "backdrop_path": null, "genre_ids": [16], "id": 147795, "original_language": "en", "original_title": "A La Mode", "overview": "A short surreal animation created with fashion magazine clippings and sound collages.", "poster_path": "/qnA5O2hL2wzXNrWjBXPHEAgct5j.jpg", "release_date": "1959-01-01", "title": "A La Mode", "video": false, "vote_average": 5.3, "vote_count": 9, "popularity": 1.464}], "total_pages": 2, "total_results": 40}, "credits": {"cast": [{"cast_id": 2, "character": "", "credit_id": "53364e279251417db40006da", "gender": 0, "id": 139769, "name": "Nadia Sibirska\u00efa", "order": 1, "profile_path": "/3IGPc25K0c1icx2O48HpOlLqFqJ.jpg"}], "crew": [{"credit_id": "52fe4a4fc3a36847f81c6cf3", "department": "Directing", "gender": 2, "id": 139772, "job": "Director", "name": "Dimitri Kirsanoff", "profile_path": "/dsFL42uncGv5XktZ5c4iXxEf6PS.jpg"}, {"credit_id": "56e438aa9251416d40003714", "department": "Crew", "gender": 0, "id": 1589656, "job": "Cinematography", "name": "Jean de Mi\u00e9ville", "profile_path": null}]}}