{"adult": false, "backdrop_path": "/AckEMB7NwArD1XqDNdMz03kOuQU.jpg", "belongs_to_collection": {"id": 167552, "name": "Lemon Popsicle Collection", "poster_path": "/kip5iBH8jb4nXb8ec8M7YyxoLxt.jpg", "backdrop_path": "/trmtEmNjlh2OxRjkJFG02TaFFYO.jpg"}, "budget": 0, "genres": [{"id": 35, "name": "Comedy"}, {"id": 18, "name": "Drama"}, {"id": 10749, "name": "Romance"}], "homepage": "", "id": 10582, "imdb_id": "tt0082528", "original_language": "he", "original_title": "Shifshuf Naim", "overview": "Momo and Yudale take turns mounting Bentzi's foreign buxom cousin, but Yudale and her get stuck together. Momo raises the bar even further by proving the rumors of an accepting older buxom piano tutor, Fritzi. Bentzi looks for love.", "popularity": 15.324, "poster_path": "/fVtA8FrcHeiY6leezkwjOgJ6iwQ.jpg", "production_companies": [{"id": 7011, "logo_path": null, "name": "Planet Film", "origin_country": ""}, {"id": 20023, "logo_path": null, "name": "Noah Films", "origin_country": ""}], "production_countries": [{"iso_3166_1": "DE", "name": "Germany"}, {"iso_3166_1": "IL", "name": "Israel"}], "release_date": "1981-04-07", "revenue": 0, "runtime": 90, "spoken_languages": [{"iso_639_1": "he", "name": "\u05e2\u05b4\u05d1\u05b0\u05e8\u05b4\u05d9\u05ea"}], "status": "Released", "tagline": "The Lemon Popsicle boys are at it again!", "title": "Hot Bubblegum", "video": false, "vote_average": 6.5, "vote_count": 29, "keywords": {"keywords": [{"id": 536, "name": "israel"}, {"id": 572, "name": "sex"}, {"id": 966, "name": "beach"}, {"id": 8508, "name": "party"}, {"id": 13130, "name": "teenager"}, {"id": 157799, "name": "older woman younger man relationship"}]}, "similar": {"page": 1, "results": [{"id": 19053, "video": false, "vote_count": 92, "vote_average": 6.2, "title": "Valley Girl", "release_date": "1983-04-08", "original_language": "en", "original_title": "Valley Girl", "genre_ids": [35, 10749], "backdrop_path": "/stTmJizMu8LklEIIkSu7NqHchdH.jpg", "adult": false, "overview": "Julie, a girl from the valley, meets Randy, a punk from the city. They are from different worlds and find love. Somehow they need to stay together in spite of her trendy, shallow friends.", "poster_path": "/mQSrU9jerYSIOWeLBqFA1gcUU59.jpg", "popularity": 9.48}, {"adult": false, "backdrop_path": "/yIszPJawrrp6zcb62d7XJnaxAmw.jpg", "genre_ids": [18], "id": 13078, "original_language": "en", "original_title": "The Babysitters", "overview": "Seventeen-year-old Shirley is a good student who works as a babysitter in order to make money for college. One night Michael, a father Shirley works for, confesses he's unhappy with married life. Shirley has a crush on Michael, and seizes this moment to kiss him. Michael is so happy he presents Shirley with a big tip, which gives her an idea. Shirley plans to make extra money by setting up her teenage friends with other unhappy fathers.", "poster_path": "/nsrNUqGXI95unRKZEu8BJ584xWn.jpg", "release_date": "2007-09-11", "title": "The Babysitters", "video": false, "vote_average": 5.3, "vote_count": 153, "popularity": 16.136}, {"adult": false, "backdrop_path": "/tkHlTVLylEIBpUypq0z3ZbtxUKc.jpg", "genre_ids": [35, 18, 10749], "id": 11931, "original_language": "en", "original_title": "In Her Shoes", "overview": "Irresponsible party girl, Maggie is kicked out of her father's and stepmother's home\u2014where she lives for free\u2014and is taken in by her hard-working sister, Philadelphia lawyer, Rose. After Maggie's disruptive ways ruin her sister's love life, Rose turns her out as well. But when their grandmother, who they never knew existed, comes into their lives, the sisters face some complicated truths about themselves and their family.", "poster_path": "/4jqnazZX2bh8UMUS8rl4nHWWtyb.jpg", "release_date": "2005-10-07", "title": "In Her Shoes", "video": false, "vote_average": 6.0, "vote_count": 785, "popularity": 12.653}, {"adult": false, "backdrop_path": "/275ywEHPVfW47kJXiRDQgYM5ax9.jpg", "genre_ids": [18, 9648], "id": 9777, "original_language": "en", "original_title": "Proof", "overview": "Catherine is a woman in her late twenties who is strongly devoted to her father, Robert, a brilliant and well-known mathematician whose grip on reality is beginning to slip away. As Robert descends into madness, Catherine begins to wonder if she may have inherited her father\u2019s mental illness along with his mathematical genius. When Robert\u2019s work reveals a mathematical proof of potentially historic proportions, it sets off shock waves in more ways than one.", "poster_path": "/eGVCVdbUR4gaAKPk1P4mar91qSX.jpg", "release_date": "2005-09-05", "title": "Proof", "video": false, "vote_average": 6.4, "vote_count": 379, "popularity": 9.326}, {"adult": false, "backdrop_path": "/xxm6PQRbfcSFO4mds8una1bkYPh.jpg", "genre_ids": [35], "id": 8363, "original_language": "en", "original_title": "Superbad", "overview": "Two co-dependent high school seniors are forced to deal with separation anxiety after their plan to stage a booze-soaked party goes awry.", "poster_path": "/7RZWtDkf0mgrxvJNFj43YW2Ugi8.jpg", "release_date": "2007-08-17", "title": "Superbad", "video": false, "vote_average": 7.1, "vote_count": 3966, "popularity": 27.476}, {"adult": false, "backdrop_path": "/zffzhr30v7nCHRcyfnVr8PmNLbM.jpg", "genre_ids": [10749, 35, 18], "id": 11355, "original_language": "en", "original_title": "Never Been Kissed", "overview": "Josie Geller, a baby-faced junior copywriter at the Chicago Sun-Times, must pose as a student at her former high school to research contemporary teenage culture. With the help of her brother, Rob, Josie infiltrates the inner circle of the most popular clique on campus. But she hits a major snag in her investigation -- not to mention her own failed love life -- when she falls for her dreamy English teacher, Sam Coulson.", "poster_path": "/1F9EAhEQxa0I5Pa5Z10hWIBFS3r.jpg", "release_date": "1999-04-09", "title": "Never Been Kissed", "video": false, "vote_average": 6.0, "vote_count": 855, "popularity": 17.41}, {"adult": false, "backdrop_path": "/iFLAEKnLQZNeYztE7Vy5NbL4Tw1.jpg", "genre_ids": [35], "id": 57214, "original_language": "en", "original_title": "Project X", "overview": "Three high school seniors throw a party to make a name for themselves. As the night progresses, things spiral out of control as word of the party spreads.", "poster_path": "/cWXkRLmzKfYutvWeJXaednoGKdF.jpg", "release_date": "2012-03-01", "title": "Project X", "video": false, "vote_average": 6.4, "vote_count": 3260, "popularity": 14.346}, {"adult": false, "backdrop_path": "/3nErSCj393Yh5h5MdvYgw9PvTQH.jpg", "genre_ids": [18], "id": 13416, "original_language": "en", "original_title": "Friday Night Lights", "overview": "A small, turbulent town in Texas obsesses over their high school football team to an unhealthy degree. When the star tailback, Boobie Miles, is seriously injured during the first game of the season, all hope is lost, and the town's dormant social problems begin to flare up. It is left to the inspiring abilities of new coach Gary Gaines to instill in the other team members -- and, by proxy, the town itself -- a sense of self-respect and honor.", "poster_path": "/8HIqpOgqShRc3TAleabnYispDl1.jpg", "release_date": "2004-10-08", "title": "Friday Night Lights", "video": false, "vote_average": 7.0, "vote_count": 287, "popularity": 9.072}, {"id": 317091, "video": false, "vote_count": 365, "vote_average": 5.2, "title": "November Criminals", "release_date": "2017-12-08", "original_language": "en", "original_title": "November Criminals", "genre_ids": [80, 18, 9648, 53], "backdrop_path": "/jUI42ShKFPy0oLZFXbXzXMEq9Zg.jpg", "adult": false, "overview": "When Addison investigates the murder of his friend Kevin with the help of Phoebe, they discover that the truth is darker than they had ever imagined.", "poster_path": "/m2JxGgarPvtemudLZ1CB6gLJeUb.jpg", "popularity": 12.871}, {"adult": false, "backdrop_path": "/hm4vpIhBW75bTIDTurq2d4rLZy1.jpg", "genre_ids": [53, 18, 27], "id": 3511, "original_language": "en", "original_title": "The Broken", "overview": "The life of a successful radiologist spirals out of control when she sees the spitting image of herself driving down a London street. While attempting to uncover who the imposter could be, she stumbles into a terrifying mystery that her family and closest friends are somehow involved in, leaving her with no one to trust.", "poster_path": "/nGTUsccLUZhF9Bb5fjvL7KrogvC.jpg", "release_date": "2008-01-18", "title": "The Broken", "video": false, "vote_average": 5.5, "vote_count": 113, "popularity": 9.129}, {"id": 449176, "video": false, "vote_count": 3690, "vote_average": 8.1, "title": "Love, Simon", "release_date": "2018-02-16", "original_language": "en", "original_title": "Love, Simon", "genre_ids": [35, 18, 10749], "backdrop_path": "/rqMEeajyzSF4PpJtdCB816Iz8Vr.jpg", "adult": false, "overview": "Everyone deserves a great love story. But for seventeen-year old Simon Spier it's a little more complicated: he's yet to tell his family or friends he's gay and he doesn't know the identity of the anonymous classmate he's fallen for online.", "poster_path": "/5YUYg5q7QfC4IoNwNUtiwdiYKPr.jpg", "popularity": 24.849}, {"id": 1391, "video": false, "vote_count": 688, "vote_average": 7.4, "title": "Y Tu Mam\u00e1 Tambi\u00e9n", "release_date": "2001-06-08", "original_language": "es", "original_title": "Y tu mam\u00e1 tambi\u00e9n", "genre_ids": [18, 10749], "backdrop_path": "/5jXzf6VCxmRAbQYYOuoPgGZRbRp.jpg", "adult": false, "overview": "In Mexico, two teenage boys and an attractive older woman embark on a road trip and learn a thing or two about life, friendship, sex, and each other.", "poster_path": "/4n6lnr7q3Ysz4rKz3raxkltbHgr.jpg", "popularity": 14.148}, {"adult": false, "backdrop_path": "/by0WtpJ5UNxOy6ytIfPPTasbRoB.jpg", "genre_ids": [28, 12, 35, 18, 10751, 10402, 10749], "id": 17130, "original_language": "en", "original_title": "Crossroads", "overview": "Three friends get together and bury a box making a pact to open it at midnight at their high school graduation. In the little town in Georgia that they live in, things soon change. One is little miss perfect, one is an engaged prom queen, and the other is a pregnant outcast. The night of graduation, they open the box and they strike up a conversation. All of a sudden, one brings up the topic of her going to Los Angeles for a record contract audition. They all decide to go together and they leave. With a little money, they set out on the road with a guy named Ben. When one of them tells the other a rumor that he might be a homicidal maniac they are all scared of him. When they reach LA, Lucy falls in love with Ben and against her father's wishes, she stays and she goes to the audition.", "poster_path": "/egIs4cWxn0iBErFKrQ7STckjj49.jpg", "release_date": "2002-02-15", "title": "Crossroads", "video": false, "vote_average": 5.0, "vote_count": 334, "popularity": 12.973}, {"adult": false, "backdrop_path": "/xOGEw8iywxcFMolV6SF6YdTdJTb.jpg", "genre_ids": [10402, 10749], "id": 52371, "original_language": "nl", "original_title": "LelleBelle", "overview": "19-year old Belle practices playing the violin diligently, but is unable to impart her music with a sensitive undertone. Her life changes when she discovers that sexual desire stimulates passion in her music.", "poster_path": "/nJVPgIq3icZMQ26p5uWIFdUZJfL.jpg", "release_date": "2010-10-08", "title": "LelleBelle", "video": false, "vote_average": 4.7, "vote_count": 41, "popularity": 13.931}, {"adult": false, "backdrop_path": "/yQAsMzPv4WihBeD3CXEu3ogDkqj.jpg", "genre_ids": [35, 18], "id": 17899, "original_language": "es", "original_title": "Mentiras y gordas", "overview": "A youth group is preparing for what will be the summer of their life, including secrets, lies, sex, confusion, evenings and holidays.", "poster_path": "/bw9PUOLftsUHi04tCRblc1xgcYG.jpg", "release_date": "2009-03-27", "title": "Sex, Party and Lies", "video": false, "vote_average": 4.1, "vote_count": 77, "popularity": 18.113}, {"adult": false, "backdrop_path": "/6QNqvsrOIFuz67Nq97ItD2byVa5.jpg", "genre_ids": [18], "id": 12271, "original_language": "en", "original_title": "Factory Girl", "overview": "In the mid-1960s, wealthy debutant Edie Sedgwick meets artist Andy Warhol. She joins Warhol's famous Factory and becomes his muse. Although she seems to have it all, Edie cannot have the love she craves from Andy, and she has an affair with a charismatic musician, who pushes her to seek independence from the artist and the milieu.", "poster_path": "/inaRwOEDPzYRDnqLi0lQZLQPLCL.jpg", "release_date": "2006-12-29", "title": "Factory Girl", "video": false, "vote_average": 6.1, "vote_count": 144, "popularity": 10.316}, {"adult": false, "backdrop_path": "/oshgG1bopViPfoRjj96oiGLzjTL.jpg", "genre_ids": [10749, 35, 18], "id": 14578, "original_language": "en", "original_title": "Outside Providence", "overview": "In this coming-of-age comedy, Tim Dunphy is leading a go-nowhere existence, spending his days smoking pot and hanging out with his best friend, Drugs Delaney. But Tim's lazy days of getting high are jettisoned after a brush with the law convinces his blue-collar dad to send him to a Connecticut prep school. The one saving grace of the new school is Jane, a fellow student Tim falls for immediately.", "poster_path": "/9zQMVhYgJkklEyDCMee6QbizxFG.jpg", "release_date": "1999-09-01", "title": "Outside Providence", "video": false, "vote_average": 5.9, "vote_count": 51, "popularity": 7.35}, {"id": 179144, "video": false, "vote_count": 1725, "vote_average": 7.5, "title": "The Great Beauty", "release_date": "2013-05-21", "original_language": "it", "original_title": "La grande bellezza", "genre_ids": [18], "backdrop_path": "/BvJAJuAnIooQQGzRdFTY9Oy6Wj.jpg", "adult": false, "overview": "Jep Gambardella has seduced his way through the lavish nightlife of Rome for decades, but after his 65th birthday and a shock from the past, Jep looks past the nightclubs and parties to find a timeless landscape of absurd, exquisite beauty.", "poster_path": "/nDBRRkZgaGhJw91wdcUFYwWIbFF.jpg", "popularity": 15.865}, {"id": 86838, "video": false, "vote_count": 2334, "vote_average": 6.8, "title": "Seven Psychopaths", "release_date": "2012-09-07", "original_language": "en", "original_title": "Seven Psychopaths", "genre_ids": [35, 80], "backdrop_path": "/4H6vE7fvB0gvaaSRJyguUu67FvF.jpg", "adult": false, "overview": "A struggling screenwriter inadvertently becomes entangled in the Los Angeles criminal underworld after his oddball friends kidnap a gangster's beloved Shih Tzu.", "poster_path": "/3Zs6Ne6QAEOzQRz85VToH8ml6ab.jpg", "popularity": 13.468}, {"adult": false, "backdrop_path": "/a0UYovVNPVfWILYT7TzD10xBX3q.jpg", "genre_ids": [18, 53, 80, 9648], "id": 979, "original_language": "fr", "original_title": "Irr\u00e9versible", "overview": "Events over the course of one traumatic night in Paris unfold in reverse-chronological order as the beautiful Alex is brutally raped and beaten by a stranger in the underpass. Her boyfriend and ex-lover take matters into their own hands by hiring two criminals to help them find the rapist so that they can exact revenge. A simultaneously beautiful and terrible examination of the destructive nature of cause and effect, and how time destroys everything.", "poster_path": "/rxeDxo8FvZpLu6iplNpxdtAVnfu.jpg", "release_date": "2002-05-22", "title": "Irreversible", "video": false, "vote_average": 7.1, "vote_count": 1215, "popularity": 18.102}], "total_pages": 52, "total_results": 1035}, "recommendations": {"page": 1, "results": [{"id": 10583, "video": false, "vote_count": 14, "vote_average": 6.3, "title": "Private Popsicle", "release_date": "1983-03-11", "original_language": "he", "original_title": "Sapiches", "genre_ids": [35, 10749], "backdrop_path": "/fHqm4qBLb06ofsw662CzCZKcmGS.jpg", "adult": false, "overview": "Three young Israeli men join the army, and it soon turns out that they're more interested in chasing skirts than following orders.", "poster_path": "/rjaSuTpQ3JULInHH6kpjcnsvnQo.jpg", "popularity": 7.111}, {"id": 10581, "video": false, "vote_count": 17, "vote_average": 6.3, "title": "Going Steady", "release_date": "1979-05-31", "original_language": "he", "original_title": "Yotzim Kavua", "genre_ids": [35, 10749], "backdrop_path": "/uVeyjU0GlbMqjTWdlP0mtffn0ST.jpg", "adult": false, "overview": "Going Steady aka Lemon Popsicle 2 is the sequel to the 1978 Israeli film Lemon Popsicle. The movie basically follows the daily lives of several teenagers as they are \"coming of age\" in what appears to be the late 50's (maybe early 60's).", "poster_path": "/2Xy58h3I2pzn2g8IF9D05oYfvWK.jpg", "popularity": 5.249}, {"id": 38173, "video": false, "vote_count": 14, "vote_average": 6.0, "title": "Up Your Anchor", "release_date": "1985-05-10", "original_language": "he", "original_title": "Harimu Ogen", "genre_ids": [35], "backdrop_path": "/mYoMy3B7S5ZMkWW0Q1a7YI9yMrY.jpg", "adult": false, "overview": "Those Lemon Popsicle boys are at it again!..Naughtier than ever in...", "poster_path": "/4RCSCb2ty1iO8ZX6wEMC9gnGYah.jpg", "popularity": 7.371}, {"id": 38172, "video": false, "vote_count": 13, "vote_average": 6.0, "title": "Baby Love", "release_date": "1984-03-09", "original_language": "he", "original_title": "Roman Za'ir", "genre_ids": [35, 18, 10749], "backdrop_path": "/m70mdRbabo9D6tVqNAXwyrp8RlG.jpg", "adult": false, "overview": "Those Lemon Popsicle boys are at it again!..Naughtier than ever in...", "poster_path": "/pnYfItBx0Nk4fKxEVeNa6quyjt.jpg", "popularity": 6.226}, {"id": 10584, "video": false, "vote_count": 10, "vote_average": 6.0, "title": "Young Love", "release_date": "1987-05-21", "original_language": "de", "original_title": "Ahava Tzeira", "genre_ids": [35, 18], "backdrop_path": "/r6xsFrXhsJmm0Z0kbyIiPOGICkj.jpg", "adult": false, "overview": "Those Lemon Popsicle boys are at it again!..Naughtier than ever in...", "poster_path": "/eFF7xIuUhPH0rwyFsozI5LUjbU4.jpg", "popularity": 5.62}, {"id": 12585, "video": false, "vote_count": 11, "vote_average": 5.5, "title": "Summertime Blues", "release_date": "1988-08-18", "original_language": "de", "original_title": "Summertime Blues: Lemon Popsicle VIII", "genre_ids": [35], "backdrop_path": "/86QPY7i6cfXpUT3zcixCSLJxEzl.jpg", "adult": false, "overview": "Those Lemon Popsicle boys are at it again!..Naughtier than ever in...", "poster_path": "/eKFB8qAzLkIFVPRYgCCrBaQRFcF.jpg", "popularity": 6.181}, {"id": 10580, "video": false, "vote_count": 28, "vote_average": 6.5, "title": "Lemon Popsicle", "release_date": "1978-04-21", "original_language": "he", "original_title": "Eskimo Limon", "genre_ids": [35, 18, 10749], "backdrop_path": "/reCBoQPwpcoLu2OjQSqeIdKPtoY.jpg", "adult": false, "overview": "Bentzi, Momo, and Yuda'leh are three teenage boys growing up in 1950's Israel, which is not much different from 1950's America if you believe what you see in the film. Of course they are obsessed with one thing - sex. Bentzi is interested in the beautiful Nili, but she prefers his friend Momo.", "poster_path": "/eJGHjCw1ktgH0eTrCb71c8qVs9Y.jpg", "popularity": 8.657}, {"id": 31914, "video": false, "vote_count": 6, "vote_average": 4.7, "title": "Private Manoeuvres", "release_date": "1983-04-01", "original_language": "he", "original_title": "Sababa", "genre_ids": [35], "backdrop_path": "/3bWkAXLz8Z23NesbbueNVKzRvHR.jpg", "adult": false, "overview": "A spin-off film that centers around Yudale/Huey's mandatory Israeli army service, post boot camp. This time he helps his sergeant Shemesh beat a rival base, while also beating him to score with the visiting Swiss Ambassador's wife.", "poster_path": "/2KH1tDyt1mK6xlKIoFBoCH1WHlG.jpg", "popularity": 6.692}], "total_pages": 1, "total_results": 8}, "credits": {"cast": [{"cast_id": 1, "character": "Benji", "credit_id": "52fe438c9251416c75014aa9", "gender": 2, "id": 65651, "name": "Yftach Katzur", "order": 0, "profile_path": null}, {"cast_id": 2, "character": "Bobby / Momo", "credit_id": "52fe438c9251416c75014aad", "gender": 2, "id": 6693, "name": "Jonathan Sagall", "order": 1, "profile_path": "/5OzTeSMXIxYmlelx0Pon2bEKVzM.jpg"}, {"cast_id": 3, "character": "Huey / Yudale", "credit_id": "52fe438c9251416c75014ab1", "gender": 2, "id": 39641, "name": "Zachi Noy", "order": 2, "profile_path": "/mcopCO2T8kZLZxD7FMjmse1yF1M.jpg"}, {"cast_id": 4, "character": "Doris / Sally", "credit_id": "52fe438c9251416c75014ab5", "gender": 1, "id": 65662, "name": "Ariella Rabinovich", "order": 3, "profile_path": null}, {"cast_id": 5, "character": "Nikki", "credit_id": "52fe438c9251416c75014ab9", "gender": 0, "id": 65663, "name": "Orna Dagan", "order": 4, "profile_path": null}, {"cast_id": 6, "character": "Martha / Bracha", "credit_id": "52fe438c9251416c75014abd", "gender": 1, "id": 65657, "name": "Rachel Steiner", "order": 5, "profile_path": null}, {"cast_id": 23, "character": "Benji's father", "credit_id": "56964a82c3a36823aa00330a", "gender": 0, "id": 1348837, "name": "Menashe Warshavsky", "order": 6, "profile_path": null}, {"cast_id": 24, "character": "Benji's mother", "credit_id": "56964a8f9251413f7e002ee8", "gender": 1, "id": 585259, "name": "Dvora Kedar", "order": 7, "profile_path": null}, {"cast_id": 25, "character": "Victor / Froggy", "credit_id": "56964aa1c3a36823cb0032be", "gender": 2, "id": 1390993, "name": "Avi Hadash", "order": 8, "profile_path": null}, {"cast_id": 26, "character": "Frieda / Trixie", "credit_id": "56964ab3c3a36823c1003228", "gender": 1, "id": 73209, "name": "Sibylle Rauch", "order": 9, "profile_path": "/8oZpm5C7Z9hn1vFv5vlgdCaZAFH.jpg"}, {"cast_id": 27, "character": "Aunt Vera / Fanny", "credit_id": "56964ac39251413f7600325b", "gender": 0, "id": 1562798, "name": "Olga Spondorf", "order": 10, "profile_path": null}, {"cast_id": 28, "character": "Fritzi", "credit_id": "58cb9f31c3a36828aa00dbf5", "gender": 1, "id": 45285, "name": "Christiane Schmidtmer", "order": 11, "profile_path": "/yRK7gigYxHJ3fZvXE1MzaCkYlUT.jpg"}], "crew": [{"credit_id": "52fe438c9251416c75014adb", "department": "Production", "gender": 0, "id": 65660, "job": "Executive Producer", "name": "Sam Waynberg", "profile_path": null}, {"credit_id": "52fe438c9251416c75014ae1", "department": "Production", "gender": 2, "id": 33008, "job": "Producer", "name": "Menahem Golan", "profile_path": "/qGtHMLd4E7tRyw75H4lWTRelW7B.jpg"}, {"credit_id": "52fe438c9251416c75014ae7", "department": "Production", "gender": 2, "id": 33009, "job": "Producer", "name": "Yoram Globus", "profile_path": "/bKbeXNvErtCQiK3pEEnFgmR9cvo.jpg"}, {"credit_id": "52fe438c9251416c75014aed", "department": "Camera", "gender": 0, "id": 65664, "job": "Director of Photography", "name": "Amnon Salomon", "profile_path": "/hzOjqBmM9PdqkBDTAUCzO9hTx36.jpg"}, {"credit_id": "52fe438c9251416c75014af3", "department": "Editing", "gender": 2, "id": 65665, "job": "Editor", "name": "Jon Koslowsky", "profile_path": null}, {"credit_id": "5666c14f92514129bb000c26", "department": "Writing", "gender": 2, "id": 16830, "job": "Writer", "name": "Boaz Davidson", "profile_path": "/otx19f3Nuzkfy2PWovnEgaM3qv7.jpg"}, {"credit_id": "5666c169c3a36808f0000bbf", "department": "Writing", "gender": 2, "id": 65653, "job": "Writer", "name": "Eli Tavor", "profile_path": null}, {"credit_id": "5666c17492514129ad000b88", "department": "Writing", "gender": 0, "id": 65660, "job": "Writer", "name": "Sam Waynberg", "profile_path": null}, {"credit_id": "5666c182c3a36808f0000bc8", "department": "Writing", "gender": 0, "id": 1347152, "job": "Dialogue", "name": "Ingo Hermes", "profile_path": null}, {"credit_id": "5666c19d92514129b8000bf5", "department": "Art", "gender": 0, "id": 65661, "job": "Art Direction", "name": "Ariel Roshko", "profile_path": null}, {"credit_id": "5666c15d92514129af000c1d", "department": "Production", "gender": 2, "id": 45830, "job": "Associate Producer", "name": "Danny Dimbort", "profile_path": null}, {"credit_id": "5666c2bdc3a36808e9000beb", "department": "Directing", "gender": 2, "id": 16830, "job": "Director", "name": "Boaz Davidson", "profile_path": "/otx19f3Nuzkfy2PWovnEgaM3qv7.jpg"}]}}