{"adult": false, "backdrop_path": "/wgKlGJUKOfC2mwO8g91e0QxAC8P.jpg", "belongs_to_collection": null, "budget": 0, "genres": [{"id": 28, "name": "Action"}, {"id": 878, "name": "Science Fiction"}], "homepage": null, "id": 106358, "imdb_id": "tt0042211", "original_language": "en", "original_title": "Atom Man vs Superman", "overview": "Serial - sequel to Superman (1948); Superman faces off against Lex Luthor.", "popularity": 4.309, "poster_path": "/xs7ZE5SxvA80LGhuOp3vM3bT6qQ.jpg", "production_companies": [{"id": 5, "logo_path": "/71BqEFAF4V3qjjMPCpLuyJFB9A.png", "name": "Columbia Pictures", "origin_country": "US"}], "production_countries": [{"iso_3166_1": "US", "name": "United States of America"}], "release_date": "1950-07-20", "revenue": 0, "runtime": 252, "spoken_languages": [{"iso_639_1": "en", "name": "English"}], "status": "Released", "tagline": "", "title": "Atom Man vs Superman", "video": false, "vote_average": 4.1, "vote_count": 6, "keywords": {"keywords": [{"id": 849, "name": "dc comics"}, {"id": 1308, "name": "secret identity"}, {"id": 9715, "name": "superhero"}, {"id": 9717, "name": "based on comic"}, {"id": 33637, "name": "super power"}, {"id": 179991, "name": "movie serial"}, {"id": 202526, "name": "lex luthor"}]}, "similar": {"page": 1, "results": [{"id": 9738, "video": false, "vote_count": 6168, "vote_average": 5.7, "title": "Fantastic Four", "release_date": "2005-06-29", "original_language": "en", "original_title": "Fantastic Four", "genre_ids": [28, 12, 14, 878], "backdrop_path": "/6RaH2Znu7dUQq7c8surf7hRp44f.jpg", "adult": false, "overview": "During a space voyage, four scientists are altered by cosmic rays: Reed Richards gains the ability to stretch his body; Sue Storm can become invisible; Johnny Storm controls fire; and Ben Grimm is turned into a super-strong \u2026 thing. Together, these \"Fantastic Four\" must now thwart the evil plans of Dr. Doom and save the world from certain destruction.", "poster_path": "/sYNOCHiWA9UDUHlPvRWztSo5hZV.jpg", "popularity": 23.086}, {"adult": false, "backdrop_path": "/nq60mZOlrD4mZJg1T4hHUtWTIkN.jpg", "genre_ids": [12, 14, 28, 53], "id": 1979, "original_language": "en", "original_title": "Fantastic Four: Rise of the Silver Surfer", "overview": "The Fantastic Four return to the big screen as a new and all powerful enemy threatens the Earth. The seemingly unstoppable 'Silver Surfer', but all is not what it seems and there are old and new enemies that pose a greater threat than the intrepid superheroes realize.", "poster_path": "/fXpziQgnBnB4bLgjKhjTbLQumE5.jpg", "release_date": "2007-06-13", "title": "Fantastic Four: Rise of the Silver Surfer", "video": false, "vote_average": 5.5, "vote_count": 5280, "popularity": 38.268}, {"id": 1452, "video": false, "vote_count": 2594, "vote_average": 5.6, "title": "Superman Returns", "release_date": "2006-06-28", "original_language": "en", "original_title": "Superman Returns", "genre_ids": [28, 12, 878], "backdrop_path": "/uAVdwu4vEx0TwuC4ewp9RqplKEV.jpg", "adult": false, "overview": "Superman returns to discover his 5-year absence has allowed Lex Luthor to walk free, and that those he was closest to felt abandoned and have moved on. Luthor plots his ultimate revenge that could see millions killed and change the face of the planet forever, as well as ridding himself of the Man of Steel.", "poster_path": "/e3aLTaD5ppxo3en0GAGceekEPAe.jpg", "popularity": 20.912}, {"id": 1924, "video": false, "vote_count": 2085, "vote_average": 7.0, "title": "Superman", "release_date": "1978-12-13", "original_language": "en", "original_title": "Superman", "genre_ids": [28, 12, 878], "backdrop_path": "/nS0rEXPbkHI449SF6R4WUQvTVxE.jpg", "adult": false, "overview": "Mild-mannered Clark Kent works as a reporter at the Daily Planet alongside his crush, Lois Lane. Clark must summon his superhero alter-ego when the nefarious Lex Luthor launches a plan to take over the world.", "poster_path": "/rLTdj7oB9oxsYwuweeglWRzRng7.jpg", "popularity": 26.497}, {"id": 246655, "video": false, "vote_count": 8994, "vote_average": 6.5, "title": "X-Men: Apocalypse", "release_date": "2016-05-18", "original_language": "en", "original_title": "X-Men: Apocalypse", "genre_ids": [28, 12, 14, 878], "backdrop_path": "/oQWWth5AOtbWG9o8SCAviGcADed.jpg", "adult": false, "overview": "After the re-emergence of the world's first mutant, world-destroyer Apocalypse, the X-Men must unite to defeat his extinction level plan.", "poster_path": "/zSouWWrySXshPCT4t3UKCQGayyo.jpg", "popularity": 28.213}, {"id": 10138, "video": false, "vote_count": 13577, "vote_average": 6.8, "title": "Iron Man 2", "release_date": "2010-04-28", "original_language": "en", "original_title": "Iron Man 2", "genre_ids": [28, 12, 878], "backdrop_path": "/jxdSxqAFrdioKgXwgTs5Qfbazjq.jpg", "adult": false, "overview": "With the world now aware of his dual life as the armored superhero Iron Man, billionaire inventor Tony Stark faces pressure from the government, the press and the public to share his technology with the military. Unwilling to let go of his invention, Stark, with Pepper Potts and James 'Rhodey' Rhodes at his side, must forge new alliances \u2013 and confront powerful enemies.", "poster_path": "/1LoT5WsN4Lc1aR7A18ciSA1LoMy.jpg", "popularity": 27.508}, {"id": 1771, "video": false, "vote_count": 14038, "vote_average": 6.9, "title": "Captain America: The First Avenger", "release_date": "2011-07-22", "original_language": "en", "original_title": "Captain America: The First Avenger", "genre_ids": [28, 12, 878], "backdrop_path": "/pmZtj1FKvQqISS6iQbkiLg5TAsr.jpg", "adult": false, "overview": "During World War II, Steve Rogers is a sickly man from Brooklyn who's transformed into super-soldier Captain America to aid in the war effort. Rogers must stop the Red Skull \u2013 Adolf Hitler's ruthless head of weaponry, and the leader of an organization that intends to use a mysterious device of untold powers for world domination.", "poster_path": "/vSNxAJTlD0r02V9sPYpOjqDZXUK.jpg", "popularity": 20.824}, {"id": 68721, "video": false, "vote_count": 15348, "vote_average": 6.9, "title": "Iron Man 3", "release_date": "2013-04-18", "original_language": "en", "original_title": "Iron Man 3", "genre_ids": [28, 12, 878], "backdrop_path": "/n9X2DKItL3V0yq1q1jrk8z5UAki.jpg", "adult": false, "overview": "When Tony Stark's world is torn apart by a formidable terrorist called the Mandarin, he starts an odyssey of rebuilding and retribution.", "poster_path": "/7XiGqZE8meUv7L4720L0tIDd7gO.jpg", "popularity": 25.727}, {"id": 10195, "video": false, "vote_count": 13991, "vote_average": 6.7, "title": "Thor", "release_date": "2011-04-21", "original_language": "en", "original_title": "Thor", "genre_ids": [28, 12, 14], "backdrop_path": "/LvmmDZxkTDqp0DX7mUo621ahdX.jpg", "adult": false, "overview": "Against his father Odin's will, The Mighty Thor - a powerful but arrogant warrior god - recklessly reignites an ancient war. Thor is cast down to Earth and forced to live among humans as punishment. Once here, Thor learns what it takes to be a true hero when the most dangerous villain of his world sends the darkest forces of Asgard to invade Earth.", "poster_path": "/9zDwvsISU8bR15R2yN3kh1lfqve.jpg", "popularity": 33.381}, {"id": 155, "video": false, "vote_count": 20760, "vote_average": 8.4, "title": "The Dark Knight", "release_date": "2008-07-16", "original_language": "en", "original_title": "The Dark Knight", "genre_ids": [28, 80, 18, 53], "backdrop_path": "/hqkIcbrOHL86UncnHIsHVcVmzue.jpg", "adult": false, "overview": "Batman raises the stakes in his war on crime. With the help of Lt. Jim Gordon and District Attorney Harvey Dent, Batman sets out to dismantle the remaining criminal organizations that plague the streets. The partnership proves to be effective, but they soon find themselves prey to a reign of chaos unleashed by a rising criminal mastermind known to the terrified citizens of Gotham as the Joker.", "poster_path": "/pKKvCaL1TPTVtbI6EeliyND3api.jpg", "popularity": 43.746}, {"id": 1927, "video": false, "vote_count": 3507, "vote_average": 5.4, "title": "Hulk", "release_date": "2003-06-19", "original_language": "en", "original_title": "Hulk", "genre_ids": [28, 878], "backdrop_path": "/kVxquPLBzAIq2NmlbWjTsfZBFh5.jpg", "adult": false, "overview": "Bruce Banner, a genetics researcher with a tragic past, suffers massive radiation exposure in his laboratory that causes him to transform into a raging green monster when he gets angry.", "poster_path": "/ogCQV6mnLtCJuiiHtMB83jvSRfY.jpg", "popularity": 22.826}, {"id": 271110, "video": false, "vote_count": 15271, "vote_average": 7.4, "title": "Captain America: Civil War", "release_date": "2016-04-27", "original_language": "en", "original_title": "Captain America: Civil War", "genre_ids": [28, 12, 878], "backdrop_path": "/m5O3SZvQ6EgD5XXXLPIP1wLppeW.jpg", "adult": false, "overview": "Following the events of Age of Ultron, the collective governments of the world pass an act designed to regulate all superhuman activity. This polarizes opinion amongst the Avengers, causing two factions to side with Iron Man or Captain America, which causes an epic battle between former allies.", "poster_path": "/kSBXou5Ac7vEqKd97wotJumyJvU.jpg", "popularity": 41.347}, {"adult": false, "backdrop_path": "/ZQixhAZx6fH1VNafFXsqa1B8QI.jpg", "genre_ids": [28, 878, 12], "id": 1726, "original_language": "en", "original_title": "Iron Man", "overview": "After being held captive in an Afghan cave, billionaire engineer Tony Stark creates a unique weaponized suit of armor to fight evil.", "poster_path": "/78lPtwv72eTNqFW9COBYI0dWDJa.jpg", "release_date": "2008-04-30", "title": "Iron Man", "video": false, "vote_average": 7.6, "vote_count": 17248, "popularity": 39.852}, {"id": 272, "video": false, "vote_count": 13437, "vote_average": 7.6, "title": "Batman Begins", "release_date": "2005-06-10", "original_language": "en", "original_title": "Batman Begins", "genre_ids": [28, 80, 18], "backdrop_path": "/9myrRcegWGGp24mpVfkD4zhUfhi.jpg", "adult": false, "overview": "Driven by tragedy, billionaire Bruce Wayne dedicates his life to uncovering and defeating the corruption that plagues his home, Gotham City.  Unable to work within the system, he instead creates a new identity, a symbol of fear for the criminal underworld - The Batman.", "poster_path": "/dr6x4GyyegBWtinPBzipY02J2lV.jpg", "popularity": 54.458}, {"id": 299537, "video": false, "vote_count": 8124, "vote_average": 7.0, "title": "Captain Marvel", "release_date": "2019-03-06", "original_language": "en", "original_title": "Captain Marvel", "genre_ids": [28, 12, 878], "backdrop_path": "/w2PMyoyLU22YvrGK3smVM9fW1jj.jpg", "adult": false, "overview": "The story follows Carol Danvers as she becomes one of the universe\u2019s most powerful heroes when Earth is caught in the middle of a galactic war between two alien races. Set in the 1990s, Captain Marvel is an all-new adventure from a previously unseen period in the history of the Marvel Cinematic Universe.", "poster_path": "/AtsgWhDnHTq68L0lLsUrCnM7TjG.jpg", "popularity": 45.261}, {"id": 36647, "video": false, "vote_count": 3460, "vote_average": 6.6, "title": "Blade", "release_date": "1998-08-21", "original_language": "en", "original_title": "Blade", "genre_ids": [28, 27], "backdrop_path": "/dGnDGHD5vmaRow4BzAiuJaGwIz3.jpg", "adult": false, "overview": "When Blade's mother was bitten by a vampire during pregnancy, she did not know that she gave her son a special gift while dying\u2014all the good vampire attributes in combination with the best human skills. Blade and his mentor battle an evil vampire rebel who plans to take over the outdated vampire council, capture Blade and resurrect a voracious blood god.", "poster_path": "/hEXJCBVZYWT8qBMwGJoSsvtnVhr.jpg", "popularity": 30.575}, {"id": 100402, "video": false, "vote_count": 12142, "vote_average": 7.7, "title": "Captain America: The Winter Soldier", "release_date": "2014-03-20", "original_language": "en", "original_title": "Captain America: The Winter Soldier", "genre_ids": [28, 12, 878], "backdrop_path": "/4qfXT9BtxeFuamR4F49m2mpKQI1.jpg", "adult": false, "overview": "After the cataclysmic events in New York with The Avengers, Steve Rogers, aka Captain America is living quietly in Washington, D.C. and trying to adjust to the modern world. But when a S.H.I.E.L.D. colleague comes under attack, Steve becomes embroiled in a web of intrigue that threatens to put the world at risk. Joining forces with the Black Widow, Captain America struggles to expose the ever-widening conspiracy while fighting off professional assassins sent to silence him at every turn. When the full scope of the villainous plot is revealed, Captain America and the Black Widow enlist the help of a new ally, the Falcon. However, they soon find themselves up against an unexpected and formidable enemy\u2014the Winter Soldier.", "poster_path": "/5TQ6YDmymBpnF005OyoB7ohZps9.jpg", "popularity": 20.643}, {"id": 287947, "video": false, "vote_count": 4115, "vote_average": 7.0, "title": "Shazam!", "release_date": "2019-03-29", "original_language": "en", "original_title": "Shazam!", "genre_ids": [28, 35, 14], "backdrop_path": "/OIGX2lm5tmlCKvZUghtwHzoxxO.jpg", "adult": false, "overview": "A boy is given the ability to become an adult superhero in times of need with a single magic word.", "poster_path": "/xnopI5Xtky18MPhK40cZAGAOVeV.jpg", "popularity": 47.365}, {"adult": false, "backdrop_path": "/pkqkxX7tkN0QLBtOYzugtBqyu0C.jpg", "genre_ids": [35, 878, 28, 12], "id": 9531, "original_language": "en", "original_title": "Superman III", "overview": "Aiming to defeat the Man of Steel, wealthy executive Ross Webster hires bumbling but brilliant Gus Gorman to develop synthetic kryptonite, which yields some unexpected psychological effects in the third installment of the 1980s Superman franchise. Between rekindling romance with his high school sweetheart and saving himself, Superman must contend with a powerful supercomputer.", "poster_path": "/pDjfBk3YkdvRK2VERvoHaXJdNxF.jpg", "release_date": "1983-06-17", "title": "Superman III", "video": false, "vote_average": 5.4, "vote_count": 938, "popularity": 14.943}, {"id": 8536, "video": false, "vote_count": 1270, "vote_average": 6.6, "title": "Superman II", "release_date": "1980-12-04", "original_language": "en", "original_title": "Superman II", "genre_ids": [28, 12, 878], "backdrop_path": "/1d0bPDy0Ud7g7vZ5qnKI6HsduLE.jpg", "adult": false, "overview": "Three escaped criminals from the planet Krypton test the Man of Steel's mettle. Led by General Zod, the Kryptonians take control of the White House and partner with Lex Luthor to destroy Superman and rule the world. But Superman, who attempts to make himself human in order to get closer to Lois, realizes he has a responsibility to save the planet.", "poster_path": "/uvxjXSfph2FD07A2jBG9NHJnl27.jpg", "popularity": 17.065}], "total_pages": 19, "total_results": 375}, "recommendations": {"page": 1, "results": [{"adult": false, "backdrop_path": "/9hPPQz7z1HaVXqsHMq9HyMIDjjP.jpg", "genre_ids": [28, 80, 878], "id": 126712, "original_language": "en", "original_title": "Superman", "overview": "Superman comes to Earth as a child and grows up to be his home's first superhero with his first major challenge being to oppose The Spider Lady.", "poster_path": "/pDi8uqSg4dfcedkU6CTHvBWdv2H.jpg", "release_date": "1948-07-15", "title": "Superman", "video": false, "vote_average": 5.1, "vote_count": 9, "popularity": 2.297}], "total_pages": 1, "total_results": 1}, "credits": {"cast": [{"cast_id": 1, "character": "Superman, alias Clark Kent", "credit_id": "52fe4a67c3a36847f81cbda3", "gender": 2, "id": 45229, "name": "Kirk Alyn", "order": 0, "profile_path": "/l7d3Zk9B1F3EsGgF9us587zb8kB.jpg"}, {"cast_id": 3, "character": "Luthor, alias The Atom Man", "credit_id": "52fe4a67c3a36847f81cbdab", "gender": 2, "id": 34119, "name": "Lyle Talbot", "order": 1, "profile_path": "/gHbCftyesSSHRCEClOQUOVjISV8.jpg"}, {"cast_id": 2, "character": "Lois Lane", "credit_id": "52fe4a67c3a36847f81cbda7", "gender": 1, "id": 243805, "name": "Noel Neill", "order": 2, "profile_path": "/x7utCeuCrKLjU6OndLln3225r4e.jpg"}, {"cast_id": 4, "character": "Jimmy Olsen", "credit_id": "52fe4a67c3a36847f81cbdaf", "gender": 2, "id": 930166, "name": "Tommy Bond", "order": 3, "profile_path": "/nDhOwfGCofTrVmQq3sLrALKPSjV.jpg"}, {"cast_id": 5, "character": "Perry White", "credit_id": "52fe4a67c3a36847f81cbdb3", "gender": 2, "id": 30216, "name": "Pierre Watkin", "order": 4, "profile_path": "/s9Z72wx6hJ2BwG6feVC6s4TcWrb.jpg"}], "crew": [{"credit_id": "5519ba399251411e9600008f", "department": "Camera", "gender": 2, "id": 30192, "job": "Director of Photography", "name": "Ira H. Morgan", "profile_path": null}, {"credit_id": "530a8a159251411102003eb0", "department": "Writing", "gender": 2, "id": 33374, "job": "Screenplay", "name": "George H. Plympton", "profile_path": null}, {"credit_id": "52fe4a67c3a36847f81cbdb9", "department": "Directing", "gender": 2, "id": 33954, "job": "Director", "name": "Spencer Gordon Bennet", "profile_path": null}, {"credit_id": "530a8a23925141785e001fb5", "department": "Writing", "gender": 0, "id": 33959, "job": "Screenplay", "name": "Joseph F. Poland", "profile_path": null}, {"credit_id": "530a8a66925141111a003d8f", "department": "Editing", "gender": 2, "id": 34079, "job": "Editor", "name": "Earl Turner", "profile_path": null}, {"credit_id": "530a8a9192514168dc000012", "department": "Crew", "gender": 2, "id": 34103, "job": "Stunts", "name": "Eddie Parker", "profile_path": "/ncw2uHEi2GdVsojhCpRTMt86GtP.jpg"}, {"credit_id": "530a8aa092514111050042de", "department": "Crew", "gender": 0, "id": 50310, "job": "Stunts", "name": "Chuck Roberson", "profile_path": "/7wtZ8ClSKB9twvM1J4E2jtbgY1s.jpg"}, {"credit_id": "530a8ab09251411108003f34", "department": "Crew", "gender": 0, "id": 34131, "job": "Stunts", "name": "George Robotham", "profile_path": "/vKoealoZYmBjQEj42SnE7FJpl0U.jpg"}, {"credit_id": "530a8a4a9251415e710012dc", "department": "Production", "gender": 2, "id": 34112, "job": "Producer", "name": "Sam Katzman", "profile_path": null}, {"credit_id": "574769179251410f6c00005b", "department": "Crew", "gender": 2, "id": 117589, "job": "Stunts", "name": "Wally West", "profile_path": "/k5zXFTvPxOtbyet66sPEEHbZPk9.jpg"}, {"credit_id": "530a8abd925141785e001fc3", "department": "Crew", "gender": 2, "id": 161961, "job": "Stunts", "name": "Paul Stader", "profile_path": null}, {"credit_id": "530a8acd9251411117003fce", "department": "Crew", "gender": 0, "id": 170566, "job": "Stunts", "name": "Guy Teague", "profile_path": "/owft8Fe4qGN1MY9hNqUCz817dAI.jpg"}, {"credit_id": "530a8a3292514111110040dd", "department": "Writing", "gender": 0, "id": 1139051, "job": "Screenplay", "name": "David Mathews", "profile_path": null}, {"credit_id": "530a8a829251411102003ec3", "department": "Visual Effects", "gender": 0, "id": 1179322, "job": "Animation", "name": "Howard Swift", "profile_path": null}]}}