{"adult": false, "backdrop_path": "/6zkw6WWzj3V0z4uT37Pz2OhFUf2.jpg", "belongs_to_collection": null, "budget": 444399, "genres": [{"id": 12, "name": "Adventure"}, {"id": 18, "name": "Drama"}, {"id": 10749, "name": "Romance"}], "homepage": null, "id": 106867, "imdb_id": "tt0023778", "original_language": "en", "original_title": "The Barbarian", "overview": "An Arab prince masquerades as a tour guide for rich women in order to enrich himself.", "popularity": 2.917, "poster_path": "/czrtYYCDPl6DGDdBVkBpFgYoWih.jpg", "production_companies": [{"id": 21, "logo_path": "/mjofSXiHpG5t6KYmU4l4FrUhT7m.png", "name": "Metro-Goldwyn-Mayer", "origin_country": "US"}], "production_countries": [{"iso_3166_1": "US", "name": "United States of America"}], "release_date": "1933-05-12", "revenue": 0, "runtime": 83, "spoken_languages": [{"iso_639_1": "en", "name": "English"}], "status": "Released", "tagline": "Hear Novarro sing love songs of the Nile!", "title": "The Barbarian", "video": false, "vote_average": 5.4, "vote_count": 5, "keywords": {"keywords": [{"id": 1930, "name": "kidnapping"}, {"id": 1949, "name": "pyramid"}, {"id": 6167, "name": "engagement"}, {"id": 9727, "name": "thief"}, {"id": 33788, "name": "guide"}, {"id": 156764, "name": "pre-code"}, {"id": 173259, "name": "arab"}]}, "similar": {"page": 1, "results": [{"adult": false, "backdrop_path": "/pdIoY6ZOqwbwPlTuDh83TbJ64xw.jpg", "genre_ids": [35, 18, 9648], "id": 270487, "original_language": "en", "original_title": "Hail, Caesar!", "overview": "When a Hollywood star mysteriously disappears in the middle of filming, the studio sends their \"fixer\" to get him back. Set in the 1950s, the story was inspired by the career of Eddie Mannix (1891\u20131963).", "poster_path": "/rzMYZYphL9qrbBClQq1Jc0zPMmY.jpg", "release_date": "2016-02-05", "title": "Hail, Caesar!", "video": false, "vote_average": 5.9, "vote_count": 2550, "popularity": 11.273}, {"adult": false, "backdrop_path": "/747dgDfL5d8esobk7h4odaOFhUq.jpg", "genre_ids": [80, 18, 53], "id": 275, "original_language": "en", "original_title": "Fargo", "overview": "Jerry, a small-town Minnesota car salesman is bursting at the seams with debt... but he's got a plan. He's going to hire two thugs to kidnap his wife in a scheme to collect a hefty ransom from his wealthy father-in-law. It's going to be a snap and nobody's going to get hurt... until people start dying. Enter Police Chief Marge, a coffee-drinking, parka-wearing - and extremely pregnant - investigator who'll stop at nothing to get her man. And if you think her small-time investigative skills will give the crooks a run for their ransom... you betcha!", "poster_path": "/pyEkyYgtyjOX1R9EYyUcgbK1sTn.jpg", "release_date": "1996-03-08", "title": "Fargo", "video": false, "vote_average": 7.9, "vote_count": 4323, "popularity": 21.91}, {"adult": false, "backdrop_path": "/t3OZS8yMs0NL4YgWWc04eXHTn1X.jpg", "genre_ids": [28, 80, 53], "id": 984, "original_language": "en", "original_title": "Dirty Harry", "overview": "When a madman dubbed 'Scorpio' terrorizes San Francisco, hard-nosed cop, Harry Callahan \u2013 famous for his take-no-prisoners approach to law enforcement \u2013 is tasked with hunting down the psychopath. Harry eventually collars Scorpio in the process of rescuing a kidnap victim, only to see him walk on technicalities. Now, the maverick detective is determined to nail the maniac himself.", "poster_path": "/2TADKc4GMMPdMrLXj0xJVgTvZJM.jpg", "release_date": "1971-12-21", "title": "Dirty Harry", "video": false, "vote_average": 7.5, "vote_count": 1172, "popularity": 15.928}, {"id": 300669, "video": false, "vote_count": 4119, "vote_average": 6.9, "title": "Don't Breathe", "release_date": "2016-06-08", "original_language": "en", "original_title": "Don't Breathe", "genre_ids": [80, 27, 53], "backdrop_path": "/bCThHXQ3aLLDU3KFST0rC8mTan5.jpg", "adult": false, "overview": "A group of teens break into a blind man's home thinking they'll get away with the perfect crime. They're wrong.", "poster_path": "/lw0IqOSMsQcy1QnVIEIDppLmNwk.jpg", "popularity": 20.471}, {"id": 373569, "video": false, "vote_count": 538, "vote_average": 5.3, "title": "Snatched", "release_date": "2017-05-03", "original_language": "en", "original_title": "Snatched", "genre_ids": [28, 35], "backdrop_path": "/rjMvrWdC1Dc3jW2Q8ymZTSPCV60.jpg", "adult": false, "overview": "When her boyfriend dumps Emily, a spontaneous woman in her 30s, she persuades her ultra-cautious mom to accompany her on a vacation to Ecuador. When these two very different women are trapped on this wild journey, their bond as mother and daughter is tested and strengthened while they attempt to navigate the jungle and escape.", "poster_path": "/gsleO1KultziWltEAngAEZkxQhf.jpg", "popularity": 11.644}, {"id": 12151, "video": false, "vote_count": 189, "vote_average": 6.7, "title": "Ruthless People", "release_date": "1986-06-26", "original_language": "en", "original_title": "Ruthless People", "genre_ids": [35], "backdrop_path": "/iKCnedgHb6nCSUVBF39JdSFKQhe.jpg", "adult": false, "overview": "A couple, cheated by a vile businessman, kidnap his wife in retaliation, without knowing that their enemy is delighted they did.", "poster_path": "/nH0nq1Nk7jTlZv1aj7SnspMJyQy.jpg", "popularity": 13.509}, {"adult": false, "backdrop_path": "/e86x1nXqfXRlqATuy60MmzFUFQr.jpg", "genre_ids": [18, 28, 53], "id": 2163, "original_language": "en", "original_title": "Breakdown", "overview": "When his SUV breaks down on a remote Southwestern road, Jeff Taylor lets his wife, Amy, hitch a ride with a trucker to get help. When she doesn't return, Jeff fixes his SUV and tracks down the trucker -- who tells the police he's never seen Amy. Johnathan Mostow's tense thriller then follows Jeff's desperate search for his wife, which eventually uncovers a small town's murderous secret.", "poster_path": "/uj5VmM4jrn3HHeuFfEH8XQizA2g.jpg", "release_date": "1997-05-02", "title": "Breakdown", "video": false, "vote_average": 6.7, "vote_count": 396, "popularity": 10.773}, {"adult": false, "backdrop_path": "/u5OL2pXswNjZq21jXylOsuefULH.jpg", "genre_ids": [80, 18, 9648, 53], "id": 12493, "original_language": "ja", "original_title": "\u5929\u56fd\u3068\u5730\u7344", "overview": "An executive of a shoe company becomes a victim of extortion when his chauffeur's son is kidnapped and held for ransom.", "poster_path": "/tgNjemQPG96uIezpiUiXFcer5ga.jpg", "release_date": "1963-03-01", "title": "High and Low", "video": false, "vote_average": 8.3, "vote_count": 261, "popularity": 14.994}, {"id": 127493, "video": false, "vote_count": 616, "vote_average": 5.3, "title": "Stolen", "release_date": "2012-09-06", "original_language": "en", "original_title": "Stolen", "genre_ids": [28, 80, 53], "backdrop_path": "/bLOFgTOrqBZI7p7SeS5JwA3T1Pu.jpg", "adult": false, "overview": "Master thief Will Montgomery is just released from the State penitentiary after serving a 10 year sentence, is contacted by Vincent, his ex comrade in crime, who is holding Will\u2019s teenage daughter ransom in a hijacked taxi cab. Vincent will only surrender her when Will reveals the whereabouts of the 20 million dollars he contrived to conceal from their last robbery.", "poster_path": "/pkJyIiDg8s9zEbmOvm628rRGzC6.jpg", "popularity": 15.69}, {"id": 9039, "video": false, "vote_count": 272, "vote_average": 6.1, "title": "Trapped", "release_date": "2002-09-20", "original_language": "en", "original_title": "Trapped", "genre_ids": [28, 80, 18, 53], "backdrop_path": "/uaX2ToWXk6K00rPSAaAajkKdQBU.jpg", "adult": false, "overview": "When their daughter is kidnapped by experienced nappers (Bacon and Love), the Jennings (Theron and Townsend) turn the tables on this seemingly foolproof plan.", "poster_path": "/rsQdv6J3SLqlaJofB4yyX1PqP9n.jpg", "popularity": 10.457}, {"adult": false, "backdrop_path": "/7fqA1tBc1TGsyDxun6D0uIONHAj.jpg", "genre_ids": [80, 18, 53], "id": 38542, "original_language": "en", "original_title": "The Disappearance of Alice Creed", "overview": "A rich man's daughter is held captive in an abandoned apartment by two former convicts who abducted her and hold her ransom in exchange for her father's money.", "poster_path": "/iJT7eXt09OffD4WBOvV7eGgL3Lt.jpg", "release_date": "2009-09-12", "title": "The Disappearance of Alice Creed", "video": false, "vote_average": 6.6, "vote_count": 312, "popularity": 18.229}, {"id": 9828, "video": false, "vote_count": 211, "vote_average": 6.3, "title": "Unknown", "release_date": "2006-11-03", "original_language": "en", "original_title": "Unknown", "genre_ids": [53], "backdrop_path": "/sX00ThshaIswZwfqzCdxDIER4QY.jpg", "adult": false, "overview": "Five men wake up in a locked-down warehouse with no memory of who they are. They are forced to figure out who is good and who is bad to stay alive.", "poster_path": "/qNeGtQaatgMGrS60xZ0yMOVblVJ.jpg", "popularity": 8.826}, {"id": 425591, "video": false, "vote_count": 683, "vote_average": 6.5, "title": "I Don't Feel at Home in This World Anymore", "release_date": "2017-01-19", "original_language": "en", "original_title": "I Don't Feel at Home in This World Anymore", "genre_ids": [35, 80, 18, 53], "backdrop_path": "/8pXUXMe1LFXvpPFb5CaObacDN9J.jpg", "adult": false, "overview": "When a depressed woman is burglarized, she finds a new sense of purpose by tracking down the thieves alongside her obnoxious neighbor. But they soon find themselves dangerously out of their depth against a pack of degenerate criminals.", "poster_path": "/1stdUlXBc3nxqhdWvZ6wWWEbCQW.jpg", "popularity": 10.681}, {"id": 475430, "video": false, "vote_count": 0, "vote_average": 0.0, "title": "Artemis Fowl", "release_date": "2020-05-27", "original_language": "en", "original_title": "Artemis Fowl", "genre_ids": [12, 14, 878, 10751], "backdrop_path": "/p23XeybpSi8MbuC0wmxG4H8aT1c.jpg", "adult": false, "overview": "In order to rescue his criminal father and restore the family fortune, Artemis Fowl II and his trusted servant and bodyguard Domovoi Butler seek the existence of fairies (believing that it makes a connection to his father) in hopes of robbing them.", "poster_path": "/jMnMnDYNmdoRPk1yParcTTdTBIx.jpg", "popularity": 7.68}, {"id": 10742, "video": false, "vote_count": 121, "vote_average": 5.8, "title": "The Clearing", "release_date": "2004-07-02", "original_language": "en", "original_title": "The Clearing", "genre_ids": [18, 9648, 53], "backdrop_path": "/mWnyIvkvNTBRcNamrwdJY8UjAuV.jpg", "adult": false, "overview": "When affluent executive Wayne Hayes is kidnapped by a disgruntled employee and held for ransom in a forest, Wayne\u2019s wife is forced to reckon with the FBI agents as they negotiate with the kidnapper.", "poster_path": "/pGh01z6ZgoKuLTdIjcbsqKZDbuQ.jpg", "popularity": 9.129}, {"adult": false, "backdrop_path": "/n09d8Evbb2NhMV7G9SRSzeMe8yA.jpg", "genre_ids": [35], "id": 11077, "original_language": "en", "original_title": "Problem Child", "overview": "Ben Healy (John Ritter) and his social climbing wife Flo adopt Junior a fun-loving seven year old. But they soon discover he's a little monster as he turns a camping trip, a birthday party and even a baseball game into comic nightmares. But is he really just a little angel trying to get out? Find out in this hilarious satire on modern-day family life.", "poster_path": "/mQQIv4xsAwT9JNB6VYIaJLbkBRZ.jpg", "release_date": "1990-07-27", "title": "Problem Child", "video": false, "vote_average": 5.6, "vote_count": 359, "popularity": 14.116}, {"adult": false, "backdrop_path": "/3lFX0OVEllA09J8HRZ4w1C0Wsoe.jpg", "genre_ids": [28, 35, 80, 18, 53], "id": 10668, "original_language": "en", "original_title": "Suicide Kings", "overview": "Charlie, a former mobster, is abducted by five privileged young men desperate to raise a $2 million ransom to save the sister of a friend. As Charlie plays mind games, however, his captors splinter -- each wondering whether one of their own had a hand in the crime.", "poster_path": "/rQ2Sidqubi7XiHDScFe1faIz3Uv.jpg", "release_date": "1998-04-17", "title": "Suicide Kings", "video": false, "vote_average": 6.6, "vote_count": 140, "popularity": 9.613}, {"id": 8067, "video": false, "vote_count": 238, "vote_average": 6.2, "title": "A Life Less Ordinary", "release_date": "1997-10-24", "original_language": "en", "original_title": "A Life Less Ordinary", "genre_ids": [35, 14, 10749], "backdrop_path": "/lmUzoIeQH5T8gP3gFVta3CuOmC.jpg", "adult": false, "overview": "A couple of angels, O'Reilly and Jackson, are sent to Earth to make sure that their next supervised love-connection succeeds. They follow Celine, a spoiled rich girl who has just accidentally shot a suitor and, due to a misunderstanding, is kidnapped by janitor Robert. Although Celine quickly frees herself, she stays with Robert for thrills. O'Reilly and Jackson pursue, hoping to unite the prospective lovers.", "poster_path": "/tk7WNEwLZepFU2yPIIkRuQOO0Q9.jpg", "popularity": 10.214}, {"id": 1619, "video": false, "vote_count": 209, "vote_average": 6.4, "title": "The Way of the Gun", "release_date": "2000-09-08", "original_language": "en", "original_title": "The Way of the Gun", "genre_ids": [28, 80, 18, 53], "backdrop_path": "/g9firif6CMl08WHfhBh4JwpEVnB.jpg", "adult": false, "overview": "Two criminal drifters without sympathy get more than they bargained for after kidnapping and holding for ransom the surrogate mother of a powerful and shady man.", "poster_path": "/zLMZxrVeepvtAbL3iUGexAtznmT.jpg", "popularity": 8.526}, {"adult": false, "backdrop_path": "/ykA6EZ1sONECr1z7a5j7BEzdwYy.jpg", "genre_ids": [18, 10749], "id": 27449, "original_language": "en", "original_title": "Baby Face", "overview": "A young woman uses her body and her sexuality to help her climb the social ladder, but soon begins to wonder if her new status will ever bring her happiness.", "poster_path": "/dVsv4r90o1gJkNxkpaQ8qxa6G4x.jpg", "release_date": "1933-07-13", "title": "Baby Face", "video": false, "vote_average": 7.3, "vote_count": 43, "popularity": 4.772}], "total_pages": 5, "total_results": 90}, "recommendations": {"page": 1, "results": [{"adult": false, "backdrop_path": "/kQSyHdO0XxO7wqRAwnDv0qyqYaC.jpg", "genre_ids": [18, 36, 10749], "id": 148675, "original_language": "en", "original_title": "Suez", "overview": "Ferdinand de Lesseps, disappointed in love, is sent as a junior diplomat to the Isthmus of Suez, and realizes it's just the place for a canal.", "poster_path": "/cBMgf5cIBIYuHvCuOVQN7TXDECS.jpg", "release_date": "1938-10-28", "title": "Suez", "video": false, "vote_average": 4.2, "vote_count": 5, "popularity": 4.723}, {"adult": false, "backdrop_path": "/it2NxUY6kh2pubfgeI5dN5u43gW.jpg", "genre_ids": [18], "id": 143838, "original_language": "en", "original_title": "The Mouthpiece", "overview": "When a hot young prosecutor learns that a man he got convicted and executed was in fact innocent, he quits his DA job and becomes a defense attorney. He grows rich and powerful defending guilty racketeers, but eventually sees the errors of his ways.", "poster_path": "/lmVjrQjMxJE2SQpxJozrYOXUOFC.jpg", "release_date": "1932-05-07", "title": "The Mouthpiece", "video": false, "vote_average": 5.8, "vote_count": 4, "popularity": 3.631}, {"adult": false, "backdrop_path": "/793yeVHLIY3LRTuleSjQWPMZR8.jpg", "genre_ids": [18, 10749], "id": 109549, "original_language": "en", "original_title": "I Loved a Woman", "overview": "The son of a ruthless meatpacking king goes through a number of changes in ideals and motivations as he reluctantly inherits the mantle and falls in love.", "poster_path": "/zTTSe4j7Zpe2TXCsFH421jxUjbm.jpg", "release_date": "1933-09-23", "title": "I Loved a Woman", "video": false, "vote_average": 6.0, "vote_count": 4, "popularity": 3.094}, {"adult": false, "backdrop_path": "/hvkZDEV0BriI9ftwZoeC9mPQd6B.jpg", "genre_ids": [18], "id": 156320, "original_language": "en", "original_title": "Our Blushing Brides", "overview": "Three department store girls--Connie, Franky, and Jerry--share an apartment on West 91st Street in New York City. Each earns little more than 20 dollars per week. Jerry is the sensible one, but the others throw themselves at amoral rich men in an attempt to hook one and better themselves. They end up being hurt and disappointed despite Jerry's attempts to warn them.", "poster_path": "/b8TVe7RkB2ZHgJdGINTG3hp9KAH.jpg", "release_date": "1930-07-19", "title": "Our Blushing Brides", "video": false, "vote_average": 6.0, "vote_count": 4, "popularity": 2.508}, {"adult": false, "backdrop_path": "/8lmRgADYhFd0FxF2yMKNusUEi7E.jpg", "genre_ids": [10749, 18], "id": 44668, "original_language": "en", "original_title": "She Had to Say Yes", "overview": "Florence Denny (Loretta Young) is Daniel Drew's (Lyle Talbot) girlfriend and secretary at a clothing manufacturer during the Great Depression. In order boost sales they have been using professional female entertainers to keep their clients very happy, but the clients are getting bored of them. Daniel convinces management to replace the professionals with \"volunteers\" from the pool of stenographers. Inevitably some clients expectations are greater than their \"dates\", boyfriends become unhappy and the \"voluntary\" duty becomes less so over time.  At first, Daniel prevents Florence from being a volunteer but eventually the prospect of a bonus becomes too great and he encourages her to volunteer. Afterwards, Daniel considers Florence as a loose woman.", "poster_path": "/tGRK9wdVkaW2j5vlE5B5MxsjGA6.jpg", "release_date": "1933-07-15", "title": "She Had to Say Yes", "video": false, "vote_average": 7.0, "vote_count": 3, "popularity": 3.229}, {"adult": false, "backdrop_path": "/c4zdCoVAHxI8U5rEnPvgEQwlTmv.jpg", "genre_ids": [80], "id": 46490, "original_language": "en", "original_title": "For You I Die", "overview": "A convict is forced to participate in a prison break even though he only has a year left on his sentence.", "poster_path": "/kYBAfozroCambQhuDdiEVUASWPW.jpg", "release_date": "1947-12-17", "title": "For You I Die", "video": false, "vote_average": 6.0, "vote_count": 3, "popularity": 2.369}, {"adult": false, "backdrop_path": "/rrTFgf6xA9vfVElHMFMHd2NIuJ2.jpg", "genre_ids": [35, 12, 10749, 18], "id": 33028, "original_language": "en", "original_title": "Too Hot to Handle", "overview": "Chris Hunter is a sly newsreel reporter. While in Shanghai doing reports on the Chinese-Japanese war, he meets pilot Alma Harding. At first she doesn't trust him, but by a trick he manages to get her hired as his assistant. During an adventurous expedition through the jungles of South America he manages to change her view of him.", "poster_path": "/5LOGzzfTrI16g9TKTT03Uw91jQ3.jpg", "release_date": "1938-09-16", "title": "Too Hot to Handle", "video": false, "vote_average": 5.3, "vote_count": 6, "popularity": 3.324}], "total_pages": 1, "total_results": 7}, "credits": {"cast": [{"cast_id": 2, "character": "Jamil El Shehab", "credit_id": "53344328925141444e001ebe", "gender": 2, "id": 85425, "name": "Ramon Novarro", "order": 1, "profile_path": "/s0tGyixROd7thj2O6gnOSQFzVA4.jpg"}, {"cast_id": 3, "character": "Diana 'Di' Standing", "credit_id": "533443339251414457001ee7", "gender": 1, "id": 13577, "name": "Myrna Loy", "order": 2, "profile_path": "/qxroKPNGAeh3WCCVTad2yTAQV3S.jpg"}, {"cast_id": 4, "character": "Gerald Hume", "credit_id": "53344340925141445d001f5e", "gender": 2, "id": 3364, "name": "Reginald Denny", "order": 3, "profile_path": "/s8YBz4bSkFkLDvVLJeZcbrLCff8.jpg"}, {"cast_id": 5, "character": "Powers", "credit_id": "5334434b9251414463001e72", "gender": 1, "id": 13344, "name": "Louise Closser Hale", "order": 4, "profile_path": "/bVpUj1sQe754pJCmGAAD6iyOjHX.jpg"}, {"cast_id": 6, "character": "Cecil Harwood", "credit_id": "533443579251414451001f83", "gender": 2, "id": 2438, "name": "C. Aubrey Smith", "order": 5, "profile_path": "/u00cKiTSCbCeFLaTPL6ykgqB5AB.jpg"}, {"cast_id": 7, "character": "Achmed Pasha", "credit_id": "53344364925141445d001f63", "gender": 2, "id": 30211, "name": "Edward Arnold", "order": 6, "profile_path": "/oYJfe7rvtubC8CNNa8gqY36iNP8.jpg"}, {"cast_id": 8, "character": "Mrs. Hume", "credit_id": "533443709251414460001ee1", "gender": 1, "id": 30159, "name": "Blanche Friderici", "order": 7, "profile_path": "/90ib22RRJwUCJROHwGY8W8N5g9R.jpg"}, {"cast_id": 9, "character": "Diana's Maid Marthe", "credit_id": "5334437c925141445d001f69", "gender": 1, "id": 106092, "name": "Marcelle Corday", "order": 8, "profile_path": "/hStYcWHduKuc9bJbAcDsjMk5jBo.jpg"}, {"cast_id": 10, "character": "Mrs. Loway", "credit_id": "53344388925141445d001f6d", "gender": 1, "id": 8637, "name": "Hedda Hopper", "order": 9, "profile_path": "/nrKG5ht56KANlLXy6sroxn8D7A.jpg"}, {"cast_id": 11, "character": "German Tourist Ilsa", "credit_id": "533443aa9251414457001eed", "gender": 1, "id": 975849, "name": "Leni Stengel", "order": 10, "profile_path": "/cNPG1KgZiwjgS8sbjyp6ai5L0cc.jpg"}], "crew": [{"credit_id": "52fe4a73c3a36847f81ce989", "department": "Directing", "gender": 2, "id": 10790, "job": "Director", "name": "Sam Wood", "profile_path": "/xtotCnG8pv42k0EudM1WZ7PQMsH.jpg"}, {"credit_id": "5334448e925141444e001ed5", "department": "Writing", "gender": 2, "id": 234677, "job": "Writer", "name": "Elmer Harris", "profile_path": null}, {"credit_id": "533444a19251414463001e84", "department": "Writing", "gender": 1, "id": 11436, "job": "Writer", "name": "Anita Loos", "profile_path": "/lmG2K9YK8zmvwsOMmJgStgx4DLM.jpg"}, {"credit_id": "533444f39251414451001f9e", "department": "Production", "gender": 2, "id": 10790, "job": "Producer", "name": "Sam Wood", "profile_path": "/xtotCnG8pv42k0EudM1WZ7PQMsH.jpg"}, {"credit_id": "533445319251414463001e8f", "department": "Sound", "gender": 2, "id": 10790, "job": "Music", "name": "Sam Wood", "profile_path": "/xtotCnG8pv42k0EudM1WZ7PQMsH.jpg"}, {"credit_id": "53344549925141444e001ee4", "department": "Editing", "gender": 2, "id": 1067439, "job": "Editor", "name": "Tom Held", "profile_path": null}, {"credit_id": "5334455b9251414451001fa3", "department": "Art", "gender": 2, "id": 9062, "job": "Art Direction", "name": "Cedric Gibbons", "profile_path": "/w8tc9iVH87Iu1KKFDZ9B99NhnBc.jpg"}, {"credit_id": "540ad4b70e0a262b3a0020ef", "department": "Costume & Make-Up", "gender": 2, "id": 9064, "job": "Costume Design", "name": "Adrian", "profile_path": "/fnsEX7RnTRGuh32x8WmHrtz25D5.jpg"}, {"credit_id": "540ad4cf0e0a262b4900208d", "department": "Sound", "gender": 2, "id": 27969, "job": "Sound Director", "name": "Douglas Shearer", "profile_path": "/3kH8o524WTYSGBLcCx9v9ERP9sj.jpg"}, {"credit_id": "5512c233925141045c00143b", "department": "Camera", "gender": 2, "id": 9057, "job": "Director of Photography", "name": "Harold Rosson", "profile_path": "/iaCiQJnVexTWFyfcvnamRICx8XQ.jpg"}]}}