{"adult": false, "backdrop_path": null, "belongs_to_collection": null, "budget": 0, "genres": [{"id": 18, "name": "Drama"}, {"id": 10749, "name": "Romance"}], "homepage": null, "id": 106887, "imdb_id": "tt0065798", "original_language": "es", "original_title": "La muralla verde", "overview": "A young couple forsakes their urban existence for life in the exciting but dangerous Peruvian jungle.", "popularity": 1.125, "poster_path": "/8JCNKsyCPa1DfYeRreNC7dnMJBf.jpg", "production_companies": [{"id": 75567, "logo_path": null, "name": "Amaru Films", "origin_country": ""}], "production_countries": [{"iso_3166_1": "PE", "name": "Peru"}], "release_date": "1970-04-04", "revenue": 0, "runtime": 110, "spoken_languages": [{"iso_639_1": "es", "name": "Espa\u00f1ol"}], "status": "Released", "tagline": "", "title": "The Green Wall", "video": false, "vote_average": 6.5, "vote_count": 6, "keywords": {"keywords": [{"id": 5967, "name": "peru"}, {"id": 10787, "name": "jungle"}]}, "similar": {"page": 1, "results": [{"id": 37135, "video": false, "vote_count": 4092, "vote_average": 7.4, "title": "Tarzan", "release_date": "1999-06-18", "original_language": "en", "original_title": "Tarzan", "genre_ids": [12, 16, 18, 10751], "backdrop_path": "/hCpRqibOM0ouOiqL0HMqZOF8bYe.jpg", "adult": false, "overview": "Tarzan was a small orphan who was raised by an ape named Kala since he was a child. He believed that this was his family, but on an expedition Jane Porter is rescued by Tarzan. He then finds out that he's human. Now Tarzan must make the decision as to which family he should belong to...", "poster_path": "/y6k0qn4tcDfbnrjJ2BUnoZYmMBk.jpg", "popularity": 22.572}, {"id": 390062, "video": false, "vote_count": 930, "vote_average": 6.3, "title": "Jungle", "release_date": "2017-06-27", "original_language": "en", "original_title": "Jungle", "genre_ids": [12, 18, 53], "backdrop_path": "/tav8VVa6H6KooK5rFhAG2jT5ZNx.jpg", "adult": false, "overview": "In 1981, an enthusiastic young adventurer follows his dreams into the Bolivian Amazon jungle with two friends and a guide with a mysterious past. Their journey quickly turns into a terrifying ordeal as the darkest elements of human nature and the deadliest threats of the wilderness lead to an all-out fight for survival.", "poster_path": "/tDgxknTVwrScxpCYyGUjXSn5NRk.jpg", "popularity": 20.718}, {"adult": false, "backdrop_path": "/z7w3uHWAH3XbUbyJDKUsEb1j61C.jpg", "genre_ids": [28, 12, 18], "id": 9343, "original_language": "de", "original_title": "Fitzcarraldo", "overview": "Fitzcarraldo is a dreamer who plans to build an opera house in Iquitos, in the Peruvian Amazon, so, in order to finance his project, he embarks on an epic adventure to collect rubber, a very profitable product, in a remote and unexplored region of the rainforest.", "poster_path": "/uovgR063sBxGHQWD8YzQm4WJX4.jpg", "release_date": "1982-03-04", "title": "Fitzcarraldo", "video": false, "vote_average": 7.7, "vote_count": 322, "popularity": 9.039}, {"adult": false, "backdrop_path": "/kmcnv73Wn0nkPQ5zQH7amJh4rEJ.jpg", "genre_ids": [12, 18], "id": 9096, "original_language": "en", "original_title": "Medicine Man", "overview": "An eccentric scientist working for a large drug company is working on a research project in the Amazon jungle. He sends for a research assistant and a gas chromatograph because he's close to a cure for cancer. When the assistant turns out to be a \"mere woman,\" he rejects her help. Meanwhile the bulldozers get closer to the area in which they are conducting research, and they eventually learn to work together, and begin falling in love.", "poster_path": "/lQAvyFcppZhqbz5coICwfbgcylY.jpg", "release_date": "1992-02-07", "title": "Medicine Man", "video": false, "vote_average": 6.0, "vote_count": 198, "popularity": 9.206}, {"id": 2000, "video": false, "vote_count": 492, "vote_average": 7.6, "title": "Aguirre, the Wrath of God", "release_date": "1972-12-29", "original_language": "de", "original_title": "Aguirre, der Zorn Gottes", "genre_ids": [12, 18, 36], "backdrop_path": "/q9hBNsodUfQHhlJLImE9hqZJJxZ.jpg", "adult": false, "overview": "A few decades after the destruction of the Inca empire, a Spanish expedition leaves the mountains of Peru and goes down the Amazon river in search of gold and wealth. Soon, they come across great difficulties and Don Aguirre, a ruthless man who cares only about riches, becomes their leader. But will his quest lead them to \"the golden city\", or to certain destruction?", "poster_path": "/uHP3AtAnudp5w8d3jx2el1AtV6a.jpg", "popularity": 14.037}, {"id": 399361, "video": false, "vote_count": 1545, "vote_average": 6.2, "title": "Triple Frontier", "release_date": "2019-03-06", "original_language": "en", "original_title": "Triple Frontier", "genre_ids": [28, 12, 80, 53], "backdrop_path": "/s9I2LmQMYCanl6DvC3X1AOHs2r8.jpg", "adult": false, "overview": "Struggling to make ends meet, former special ops soldiers reunite for a high-stakes heist: stealing $75 million from a South American drug lord.", "poster_path": "/aBw8zYuAljVM1FeK5bZKITPH8ZD.jpg", "popularity": 18.444}, {"id": 9360, "video": false, "vote_count": 1328, "vote_average": 4.9, "title": "Anaconda", "release_date": "1997-04-11", "original_language": "en", "original_title": "Anaconda", "genre_ids": [12, 27, 53], "backdrop_path": "/uAnJipu2hzZ04fY68d2UoB9eAa6.jpg", "adult": false, "overview": "A \"National Geographic\" film crew is taken hostage by an insane hunter, who takes them along on his quest to capture the world's largest - and deadliest - snake.", "poster_path": "/yGku6UoX3MKbjnVbcUtrJcyghyi.jpg", "popularity": 18.682}, {"id": 172385, "video": false, "vote_count": 1999, "vote_average": 6.4, "title": "Rio 2", "release_date": "2014-03-19", "original_language": "en", "original_title": "Rio 2", "genre_ids": [12, 16, 35, 10751], "backdrop_path": "/bRQPOVpvBmvep9WYnGcKguxjlg2.jpg", "adult": false, "overview": "It's a jungle out there for Blu, Jewel and their three kids after they're hurtled from Rio de Janeiro to the wilds of the Amazon. As Blu tries to fit in, he goes beak-to-beak with the vengeful Nigel, and meets the most fearsome adversary of all: his father-in-law.", "poster_path": "/jZcF7xZVvrX2A4qNOqeHpmtbdBT.jpg", "popularity": 19.292}, {"id": 258489, "video": false, "vote_count": 4393, "vote_average": 5.8, "title": "The Legend of Tarzan", "release_date": "2016-06-29", "original_language": "en", "original_title": "The Legend of Tarzan", "genre_ids": [28, 12], "backdrop_path": "/d9H2nXfKslf6B1cm7UtPBKhtUgA.jpg", "adult": false, "overview": "Tarzan, having acclimated to life in London, is called back to his former home in the jungle to investigate the activities at a mining encampment.", "poster_path": "/6FxOPJ9Ysilpq0IgkrMJ7PubFhq.jpg", "popularity": 21.616}, {"adult": false, "backdrop_path": "/nfm6JCKUaM6dT0mATmShLY6cpmc.jpg", "genre_ids": [18, 10752], "id": 600, "original_language": "en", "original_title": "Full Metal Jacket", "overview": "A pragmatic U.S. Marine observes the dehumanizing effects the U.S.-Vietnam War has on his fellow recruits from their brutal boot camp training to the bloody street fighting in Hue.", "poster_path": "/29veIwD38rVL2qY74emXQw4y25H.jpg", "release_date": "1987-06-26", "title": "Full Metal Jacket", "video": false, "vote_average": 8.1, "vote_count": 5897, "popularity": 25.207}, {"adult": false, "backdrop_path": "/ufqPsRItWyFzdFz3MevDkxRF8pT.jpg", "genre_ids": [18, 10752, 28], "id": 792, "original_language": "en", "original_title": "Platoon", "overview": "As a young and naive recruit in Vietnam, Chris Taylor faces a moral crisis when confronted with the horrors of war and the duality of man.", "poster_path": "/8hDlxJZYCJJLRHbSk7hsRQ9SNp7.jpg", "release_date": "1986-12-19", "title": "Platoon", "video": false, "vote_average": 7.7, "vote_count": 2387, "popularity": 19.539}, {"id": 11416, "video": false, "vote_count": 688, "vote_average": 7.4, "title": "The Mission", "release_date": "1986-09-29", "original_language": "en", "original_title": "The Mission", "genre_ids": [28, 12, 18, 36], "backdrop_path": "/22GLW4Qgs7NycHLjsp8whRCuky4.jpg", "adult": false, "overview": "When a Spanish Jesuit goes into the South American wilderness to build a mission in the hope of converting the Indians of the region, a slave hunter is converted and joins his mission. When Spain sells the colony to Portugal, they are forced to defend all they have built against the Portugese aggressors.", "poster_path": "/oTU13XXz4WHisDWKX3X6dFWEjC0.jpg", "popularity": 11.33}, {"id": 278927, "video": false, "vote_count": 5705, "vote_average": 6.8, "title": "The Jungle Book", "release_date": "2016-04-07", "original_language": "en", "original_title": "The Jungle Book", "genre_ids": [12, 18, 14, 10751], "backdrop_path": "/eIOTsGg9FCVrBc4r2nXaV61JF4F.jpg", "adult": false, "overview": "A man-cub named Mowgli fostered by wolves. After a threat from the tiger Shere Khan, Mowgli is forced to flee the jungle, by which he embarks on a journey of self discovery with the help of the panther, Bagheera and the free-spirited bear, Baloo.", "poster_path": "/vOipe2myi26UDwP978hsYOrnUWC.jpg", "popularity": 36.281}, {"adult": false, "backdrop_path": "/oh9MdyIu333sC1biBeEgPqgSpVW.jpg", "genre_ids": [18, 10752], "id": 28, "original_language": "en", "original_title": "Apocalypse Now", "overview": "At the height of the Vietnam war, Captain Benjamin Willard is sent on a dangerous mission that, officially, \"does not exist, nor will it ever exist.\" His goal is to locate - and eliminate - a mysterious Green Beret Colonel named Walter Kurtz, who has been leading his personal army on illegal guerrilla missions into enemy territory.", "poster_path": "/jcvJ2xcVWU9Wh0hZAxcs103s8nN.jpg", "release_date": "1979-08-15", "title": "Apocalypse Now", "video": false, "vote_average": 8.3, "vote_count": 4471, "popularity": 30.344}, {"id": 5924, "video": false, "vote_count": 947, "vote_average": 8.0, "title": "Papillon", "release_date": "1973-12-13", "original_language": "en", "original_title": "Papillon", "genre_ids": [80, 18], "backdrop_path": "/w6XYdZIXZlMNL2efDXdXI6q4lhm.jpg", "adult": false, "overview": "A man befriends a fellow criminal as the two of them begin serving their sentence on a dreadful prison island, which inspires the man to plot his escape.", "poster_path": "/cPKfxaWXNkVkHLSV2nb06RfvrSM.jpg", "popularity": 12.566}, {"adult": false, "backdrop_path": "/4T2EpBzG4VyqDijObJFjWse8RaH.jpg", "genre_ids": [12, 35, 10751, 10749], "id": 10603, "original_language": "en", "original_title": "George of the Jungle", "overview": "After Baby George survives a plane crash in the jungle, he is rescued and then adopted by a wise ape. Years later, grown-up George saves a US noble woman, Ursula Stanhope while she is on a safari\u2014and takes her to the jungle to live with him. While Ursula's lover continues his search for Ursula and the one who took her, George slowly learns the rules of human relationships.", "poster_path": "/wTvuMi6YlO6bVe2Ax5mEL1dbVYv.jpg", "release_date": "1997-07-15", "title": "George of the Jungle", "video": false, "vote_average": 5.4, "vote_count": 1151, "popularity": 14.358}, {"id": 11532, "video": false, "vote_count": 116, "vote_average": 6.9, "title": "The Emerald Forest", "release_date": "1985-06-26", "original_language": "en", "original_title": "The Emerald Forest", "genre_ids": [28, 12, 18], "backdrop_path": "/7TXuc6kYEVN3h8tWXBdhFc7dqKy.jpg", "adult": false, "overview": "For ten years, engineer Bill Markham has searched tirelessly for his son Tommy who disappeared from the edge of the Brazilian rainforest. Miraculously, he finds the boy living among the reclusive Amazon tribe who adopted him. And that's when Bill's adventure truly begins. For his son is now a grown tribesman who moves skillfully through this beautiful-but-dangerous terrain, fearful only of those who would exploit it. And as Bill attempts to \"rescue\" him from the savagery of the untamed jungle, Tommy challenges Bill's idea of true civilization and his notions about who needs rescuing.", "poster_path": "/aiO9s3kuhrViz9s78wS1bsesdmW.jpg", "popularity": 11.863}, {"adult": false, "backdrop_path": "/m9vS8UfYd9XZedhO7ifpAznxSOj.jpg", "genre_ids": [12, 28], "id": 217, "original_language": "en", "original_title": "Indiana Jones and the Kingdom of the Crystal Skull", "overview": "Set during the Cold War, the Soviets \u2013 led by sword-wielding Irina Spalko \u2013 are in search of a crystal skull which has supernatural powers related to a mystical Lost City of Gold. After being captured and then escaping from them, Indy is coerced to head to Peru at the behest of a young man whose friend \u2013 and Indy's colleague \u2013 Professor Oxley has been captured for his knowledge of the skull's whereabouts.", "poster_path": "/qY1x6v5daMDTr904G3y84WVgpfC.jpg", "release_date": "2008-05-21", "title": "Indiana Jones and the Kingdom of the Crystal Skull", "video": false, "vote_average": 5.9, "vote_count": 4972, "popularity": 27.862}, {"id": 7446, "video": false, "vote_count": 3479, "vote_average": 6.5, "title": "Tropic Thunder", "release_date": "2008-08-09", "original_language": "en", "original_title": "Tropic Thunder", "genre_ids": [28, 12, 35, 10752], "backdrop_path": "/pr8sj9FozsiT45TMtkwFRWONNII.jpg", "adult": false, "overview": "Vietnam veteran 'Four Leaf' Tayback's memoir, Tropic Thunder, is being made into a film, but Director Damien Cockburn can\u2019t control the cast of prima donnas. Behind schedule and over budget, Cockburn is ordered by a studio executive to get filming back on track, or risk its cancellation. On Tayback's advice, Cockburn drops the actors into the middle of the jungle to film the remaining scenes but, unbeknownst to the actors and production, the group have been dropped in the middle of the Golden Triangle, the home of heroin-producing gangs.", "poster_path": "/ue9QdvhpcNPvKQyLY5a5Pd0tagS.jpg", "popularity": 28.425}, {"id": 353486, "video": false, "vote_count": 8369, "vote_average": 6.7, "title": "Jumanji: Welcome to the Jungle", "release_date": "2017-12-09", "original_language": "en", "original_title": "Jumanji: Welcome to the Jungle", "genre_ids": [28, 12, 35, 14], "backdrop_path": "/rz3TAyd5kmiJmozp3GUbYeB5Kep.jpg", "adult": false, "overview": "The tables are turned as four teenagers are sucked into Jumanji's world - pitted against rhinos, black mambas and an endless variety of jungle traps and puzzles. To survive, they'll play as characters from the game.", "poster_path": "/22hqf97LadMvkd4zDi3Bq25xSqD.jpg", "popularity": 32.707}], "total_pages": 27, "total_results": 538}, "recommendations": {"page": 1, "results": [{"adult": false, "backdrop_path": null, "genre_ids": [], "id": 144994, "original_language": "en", "original_title": "Sirius Remembered", "overview": "A tribute to Stan Brakhage's pet dog Sirius, whose decompostion was recorded over 6 months after he had died.", "poster_path": "/3TGz5cXA7NqC7mUJASrMAue6Mud.jpg", "release_date": "1959-12-31", "title": "Sirius Remembered", "video": false, "vote_average": 4.0, "vote_count": 10, "popularity": 1.859}, {"adult": false, "backdrop_path": null, "genre_ids": [18, 14], "id": 255633, "original_language": "en", "original_title": "Lot254", "overview": "A Collector repairs a vintage cine camera unlocking the hidden terror of LOT254.", "poster_path": "/2JKHd6TGaecBUtS6ILXfnmnVR9c.jpg", "release_date": "2012-08-26", "title": "Lot254", "video": false, "vote_average": 5.3, "vote_count": 3, "popularity": 1.147}, {"adult": false, "backdrop_path": null, "genre_ids": [], "id": 190081, "original_language": "en", "original_title": "Tusalava", "overview": "With the screen split asymmetrically, one part in positive, the other negative, the film documents the evolution of simple celled organic forms into chains of cells then more complex images from tribal cultures and contemporary modernist concepts. The images react, interpenetrate, perhaps attack, absorb and separate, until a final symbiosis (or redemption?) is achieved.", "poster_path": "/8sU8P4tOezcq5XuDSrZWGxiipvQ.jpg", "release_date": "1929-12-01", "title": "Tusalava", "video": false, "vote_average": 6.1, "vote_count": 11, "popularity": 0.84}, {"adult": false, "backdrop_path": null, "genre_ids": [18, 10749], "id": 127759, "original_language": "en", "original_title": "The Lad from Old Ireland", "overview": "A young man leaves Ireland for America, but doesn't forget home.", "poster_path": "/ahV4umIz7mt2PSKiqnS9C0xx5M5.jpg", "release_date": "1910-01-01", "title": "The Lad from Old Ireland", "video": false, "vote_average": 5.0, "vote_count": 10, "popularity": 1.288}, {"adult": false, "backdrop_path": null, "genre_ids": [], "id": 164596, "original_language": "en", "original_title": "Visions in Meditation #1", "overview": "This is a film inspired by Gertrude Stein's \"Stanzas In Meditation\", in which the filmmaker has edited a meditative series of images of landscapes and human symbolism \"indicative of that field-of-consciousness within which humanity survives thoughtfully.\" It is a film \"as in a dream,\" this first film in a proposed series of such being composed of images shot in the New England states and Eastern Canada. It begins with an antique photograph of a baby and ends with a child loose on the landscape, interweaving images of Niagara Falls with a variety of New England and Eastern Canadian scenes, antique photographs, windows, old farms and cityscapes, as it moves from deep winter, through glare ice, to thaw.", "poster_path": "/lHe2K23qBs7wQA7LncNkLa1GRlZ.jpg", "release_date": "1989-01-01", "title": "Visions in Meditation #1", "video": false, "vote_average": 5.2, "vote_count": 9, "popularity": 2.545}, {"adult": false, "backdrop_path": null, "genre_ids": [], "id": 184894, "original_language": "en", "original_title": "Spirals", "overview": "Abstract film.", "poster_path": "/gUe9TMJEtCvN2Z9IEY5HBRDQaXl.jpg", "release_date": "1926-05-23", "title": "Spirals", "video": false, "vote_average": 6.8, "vote_count": 10, "popularity": 0.6}, {"adult": false, "backdrop_path": null, "genre_ids": [16], "id": 144674, "original_language": "en", "original_title": "Motion Painting No. 1", "overview": "Motion Painting No. 1 is a 1947  experimental short animated film in which film artist Oskar Fischinger put images in motion to the music of Johann Sebastian Bach\u2019s Brandenburg Concerto no. 3, BWV 1048. It is a film of a painting (oil on acrylic glass); Fischinger filmed each brushstroke over the course of 9 months. In 1997, this film was selected for inclusion in the United States National Film Registry by the Library of Congress as being \u201cculturally, historically, or aesthetically significant\u201d.", "poster_path": "/ti85DzdTaEYf81Z2ofR1hQFqGOp.jpg", "release_date": "1947-12-31", "title": "Motion Painting No. 1", "video": false, "vote_average": 7.0, "vote_count": 13, "popularity": 2.005}, {"adult": false, "backdrop_path": null, "genre_ids": [16, 35, 10751], "id": 171269, "original_language": "en", "original_title": "The Aristo-Cat", "overview": "Meadows the butler quits after being tormented by the spoiled family cat, who finds he is unable to survive on his own, especially after meeting the mice Hubie and Bertie.", "poster_path": "/r1so9jC5Ku88mcH7bpD0y51CPYj.jpg", "release_date": "1943-06-18", "title": "The Aristo-Cat", "video": false, "vote_average": 6.3, "vote_count": 9, "popularity": 4.254}, {"adult": false, "backdrop_path": null, "genre_ids": [16, 35], "id": 163082, "original_language": "en", "original_title": "Much Ado About Nutting", "overview": "A squirrel in a downtown park lugs a giant coconut back home, but nothing he does can seem to crack it open.", "poster_path": "/fucV61mjEmwQmfrxJ9PaIoBCK1M.jpg", "release_date": "1953-05-23", "title": "Much Ado About Nutting", "video": false, "vote_average": 6.7, "vote_count": 9, "popularity": 1.85}, {"id": 192104, "video": false, "vote_count": 8, "vote_average": 5.9, "title": "The Cage", "release_date": "1962-01-01", "original_language": "ja", "original_title": "\u6abb\u56da", "genre_ids": [14], "backdrop_path": null, "adult": false, "overview": "Finished shooting in 1962, the movie\u2019s cast was almost the same as its crew. With a bunch of experimental symbols such as skinny human body, clock and goat flow from one scene to another, the film explores the question of whether a man is a prisoner of time.", "poster_path": "/lQLBi355qo7TqpOD7ryAYqWIOpf.jpg", "popularity": 0.866}, {"adult": false, "backdrop_path": "/i6uFyFB34qILujc2tIybUJb8zGO.jpg", "genre_ids": [16], "id": 115036, "original_language": "en", "original_title": "The Bead Game", "overview": "To a percussive soundtrack, a succession of more complex animals forms and is consumed by their successors (all formed from beads). Finally, We reach man, who develops ever more sophisticated forms of war.", "poster_path": "/vsKzTzqXvgRspuJmUiS0NciU8NI.jpg", "release_date": "1977-12-31", "title": "The Bead Game", "video": false, "vote_average": 7.2, "vote_count": 15, "popularity": 2.584}], "total_pages": 1, "total_results": 11}, "credits": {"cast": [{"cast_id": 3, "character": "Mario", "credit_id": "5328666f9251411a220023aa", "gender": 2, "id": 102275, "name": "Julio Alem\u00e1n", "order": 1, "profile_path": "/7M81IKvSz5411GlBWQq7mhmOj3u.jpg"}, {"cast_id": 4, "character": "Delba", "credit_id": "532866899251411a1e00231f", "gender": 0, "id": 1302051, "name": "Sandra Riva", "order": 2, "profile_path": null}, {"cast_id": 5, "character": "R\u00f3mulo", "credit_id": "5328669c9251411a1b00237c", "gender": 0, "id": 1302052, "name": "Ra\u00fal Martin", "order": 3, "profile_path": null}, {"cast_id": 6, "character": "Madre de Delba", "credit_id": "532866a89251411a220023b2", "gender": 0, "id": 1302053, "name": "Lorena Duval", "order": 4, "profile_path": null}, {"cast_id": 7, "character": "Padre de Delba", "credit_id": "532866b49251411a220023b6", "gender": 2, "id": 983836, "name": "Enrique Victoria", "order": 5, "profile_path": null}, {"cast_id": 8, "character": "Jefe de tierras de monta\u00f1a", "credit_id": "532866c49251411a0d0024c9", "gender": 0, "id": 1302054, "name": "Jorge Montoro", "order": 6, "profile_path": null}, {"cast_id": 9, "character": "Director de colonizaci\u00f3n", "credit_id": "532866d39251411a0d0024ce", "gender": 0, "id": 1302055, "name": "Juan Bautista Font", "order": 7, "profile_path": null}, {"cast_id": 10, "character": "Escol\u00e1stico", "credit_id": "532866df9251411a1e00232c", "gender": 0, "id": 1302056, "name": "Escol\u00e1stico D\u00e1vila", "order": 8, "profile_path": null}, {"cast_id": 11, "character": "Jugador en el bar", "credit_id": "532866ed9251411a0d0024d4", "gender": 0, "id": 1302057, "name": "Hern\u00e1n Romero", "order": 9, "profile_path": null}, {"cast_id": 12, "character": "Fidel", "credit_id": "532866fb9251411a140022c6", "gender": 0, "id": 1302058, "name": "Esteban Rengifo", "order": 10, "profile_path": null}], "crew": [{"credit_id": "532866309251411a110023db", "department": "Directing", "gender": 0, "id": 1302048, "job": "Director", "name": "Armando Robles Godoy", "profile_path": null}, {"credit_id": "5328664e9251411a140022b9", "department": "Writing", "gender": 0, "id": 1302050, "job": "Writer", "name": "Juan Cuadros", "profile_path": null}, {"credit_id": "5710fa44c3a3684122003e1e", "department": "Writing", "gender": 0, "id": 1302049, "job": "Novel", "name": "Omar Aramayo", "profile_path": null}, {"credit_id": "5710fa5cc3a36860a8004db4", "department": "Production", "gender": 0, "id": 1606211, "job": "Producer", "name": "Manuel Yori", "profile_path": null}, {"credit_id": "5710fa6ec3a3684122003e26", "department": "Sound", "gender": 0, "id": 1567235, "job": "Music", "name": "Enrique Pinilla", "profile_path": null}, {"credit_id": "5710fae5c3a36853730066c4", "department": "Camera", "gender": 0, "id": 1464628, "job": "Director of Photography", "name": "Mario Robles", "profile_path": null}, {"credit_id": "5710fb45c3a36853730066d3", "department": "Editing", "gender": 0, "id": 1435515, "job": "Editor", "name": "Atilio Rinaldi", "profile_path": null}, {"credit_id": "5710fb5b92514108c50018a1", "department": "Sound", "gender": 0, "id": 1606214, "job": "Sound", "name": "Jorge Castronuovo", "profile_path": null}, {"credit_id": "5710fb76c3a3684122003e42", "department": "Camera", "gender": 0, "id": 1606215, "job": "First Assistant Camera", "name": "Fausto Espinoza", "profile_path": null}]}}