{"adult": false, "backdrop_path": "/fB5NQZJ2RzuF1XiOBYzgJategC7.jpg", "belongs_to_collection": null, "budget": 0, "genres": [{"id": 878, "name": "Science Fiction"}, {"id": 12, "name": "Adventure"}], "homepage": null, "id": 106923, "imdb_id": "tt0062179", "original_language": "it", "original_title": "L'invincibile Superman", "overview": "A masked wrestler/superhero goes up against a madman and his army of robots.", "popularity": 1.137, "poster_path": "/ckR5Ayo22jnp4dcaXQYYSKwcUFf.jpg", "production_companies": [{"id": 1377, "logo_path": null, "name": "\u00cdzaro Films", "origin_country": ""}, {"id": 64042, "logo_path": null, "name": "G.V. Cinematografica", "origin_country": ""}, {"id": 72586, "logo_path": null, "name": "Societ\u00e0 Europea Cinematografica (SEC)", "origin_country": ""}], "production_countries": [{"iso_3166_1": "ES", "name": "Spain"}, {"iso_3166_1": "IT", "name": "Italy"}], "release_date": "1968-01-26", "revenue": 0, "runtime": 80, "spoken_languages": [{"iso_639_1": "it", "name": "Italiano"}], "status": "Released", "tagline": "", "title": "Superargo and the Faceless Giants", "video": false, "vote_average": 4.5, "vote_count": 5, "keywords": {"keywords": [{"id": 9715, "name": "superhero"}, {"id": 11431, "name": "wrestler"}, {"id": 180734, "name": "masked superhero"}]}, "similar": {"page": 1, "results": [{"id": 9738, "video": false, "vote_count": 6168, "vote_average": 5.7, "title": "Fantastic Four", "release_date": "2005-06-29", "original_language": "en", "original_title": "Fantastic Four", "genre_ids": [28, 12, 14, 878], "backdrop_path": "/6RaH2Znu7dUQq7c8surf7hRp44f.jpg", "adult": false, "overview": "During a space voyage, four scientists are altered by cosmic rays: Reed Richards gains the ability to stretch his body; Sue Storm can become invisible; Johnny Storm controls fire; and Ben Grimm is turned into a super-strong \u2026 thing. Together, these \"Fantastic Four\" must now thwart the evil plans of Dr. Doom and save the world from certain destruction.", "poster_path": "/sYNOCHiWA9UDUHlPvRWztSo5hZV.jpg", "popularity": 23.086}, {"adult": false, "backdrop_path": "/nq60mZOlrD4mZJg1T4hHUtWTIkN.jpg", "genre_ids": [12, 14, 28, 53], "id": 1979, "original_language": "en", "original_title": "Fantastic Four: Rise of the Silver Surfer", "overview": "The Fantastic Four return to the big screen as a new and all powerful enemy threatens the Earth. The seemingly unstoppable 'Silver Surfer', but all is not what it seems and there are old and new enemies that pose a greater threat than the intrepid superheroes realize.", "poster_path": "/fXpziQgnBnB4bLgjKhjTbLQumE5.jpg", "release_date": "2007-06-13", "title": "Fantastic Four: Rise of the Silver Surfer", "video": false, "vote_average": 5.5, "vote_count": 5280, "popularity": 38.268}, {"id": 1452, "video": false, "vote_count": 2594, "vote_average": 5.6, "title": "Superman Returns", "release_date": "2006-06-28", "original_language": "en", "original_title": "Superman Returns", "genre_ids": [28, 12, 878], "backdrop_path": "/uAVdwu4vEx0TwuC4ewp9RqplKEV.jpg", "adult": false, "overview": "Superman returns to discover his 5-year absence has allowed Lex Luthor to walk free, and that those he was closest to felt abandoned and have moved on. Luthor plots his ultimate revenge that could see millions killed and change the face of the planet forever, as well as ridding himself of the Man of Steel.", "poster_path": "/e3aLTaD5ppxo3en0GAGceekEPAe.jpg", "popularity": 20.912}, {"id": 1924, "video": false, "vote_count": 2085, "vote_average": 7.0, "title": "Superman", "release_date": "1978-12-13", "original_language": "en", "original_title": "Superman", "genre_ids": [28, 12, 878], "backdrop_path": "/nS0rEXPbkHI449SF6R4WUQvTVxE.jpg", "adult": false, "overview": "Mild-mannered Clark Kent works as a reporter at the Daily Planet alongside his crush, Lois Lane. Clark must summon his superhero alter-ego when the nefarious Lex Luthor launches a plan to take over the world.", "poster_path": "/rLTdj7oB9oxsYwuweeglWRzRng7.jpg", "popularity": 26.497}, {"id": 271110, "video": false, "vote_count": 15271, "vote_average": 7.4, "title": "Captain America: Civil War", "release_date": "2016-04-27", "original_language": "en", "original_title": "Captain America: Civil War", "genre_ids": [28, 12, 878], "backdrop_path": "/m5O3SZvQ6EgD5XXXLPIP1wLppeW.jpg", "adult": false, "overview": "Following the events of Age of Ultron, the collective governments of the world pass an act designed to regulate all superhuman activity. This polarizes opinion amongst the Avengers, causing two factions to side with Iron Man or Captain America, which causes an epic battle between former allies.", "poster_path": "/kSBXou5Ac7vEqKd97wotJumyJvU.jpg", "popularity": 41.347}, {"id": 10138, "video": false, "vote_count": 13577, "vote_average": 6.8, "title": "Iron Man 2", "release_date": "2010-04-28", "original_language": "en", "original_title": "Iron Man 2", "genre_ids": [28, 12, 878], "backdrop_path": "/jxdSxqAFrdioKgXwgTs5Qfbazjq.jpg", "adult": false, "overview": "With the world now aware of his dual life as the armored superhero Iron Man, billionaire inventor Tony Stark faces pressure from the government, the press and the public to share his technology with the military. Unwilling to let go of his invention, Stark, with Pepper Potts and James 'Rhodey' Rhodes at his side, must forge new alliances \u2013 and confront powerful enemies.", "poster_path": "/1LoT5WsN4Lc1aR7A18ciSA1LoMy.jpg", "popularity": 27.508}, {"id": 1771, "video": false, "vote_count": 14038, "vote_average": 6.9, "title": "Captain America: The First Avenger", "release_date": "2011-07-22", "original_language": "en", "original_title": "Captain America: The First Avenger", "genre_ids": [28, 12, 878], "backdrop_path": "/pmZtj1FKvQqISS6iQbkiLg5TAsr.jpg", "adult": false, "overview": "During World War II, Steve Rogers is a sickly man from Brooklyn who's transformed into super-soldier Captain America to aid in the war effort. Rogers must stop the Red Skull \u2013 Adolf Hitler's ruthless head of weaponry, and the leader of an organization that intends to use a mysterious device of untold powers for world domination.", "poster_path": "/vSNxAJTlD0r02V9sPYpOjqDZXUK.jpg", "popularity": 20.824}, {"id": 68721, "video": false, "vote_count": 15348, "vote_average": 6.9, "title": "Iron Man 3", "release_date": "2013-04-18", "original_language": "en", "original_title": "Iron Man 3", "genre_ids": [28, 12, 878], "backdrop_path": "/n9X2DKItL3V0yq1q1jrk8z5UAki.jpg", "adult": false, "overview": "When Tony Stark's world is torn apart by a formidable terrorist called the Mandarin, he starts an odyssey of rebuilding and retribution.", "poster_path": "/7XiGqZE8meUv7L4720L0tIDd7gO.jpg", "popularity": 25.727}, {"id": 10195, "video": false, "vote_count": 13991, "vote_average": 6.7, "title": "Thor", "release_date": "2011-04-21", "original_language": "en", "original_title": "Thor", "genre_ids": [28, 12, 14], "backdrop_path": "/LvmmDZxkTDqp0DX7mUo621ahdX.jpg", "adult": false, "overview": "Against his father Odin's will, The Mighty Thor - a powerful but arrogant warrior god - recklessly reignites an ancient war. Thor is cast down to Earth and forced to live among humans as punishment. Once here, Thor learns what it takes to be a true hero when the most dangerous villain of his world sends the darkest forces of Asgard to invade Earth.", "poster_path": "/9zDwvsISU8bR15R2yN3kh1lfqve.jpg", "popularity": 33.381}, {"id": 1927, "video": false, "vote_count": 3507, "vote_average": 5.4, "title": "Hulk", "release_date": "2003-06-19", "original_language": "en", "original_title": "Hulk", "genre_ids": [28, 878], "backdrop_path": "/kVxquPLBzAIq2NmlbWjTsfZBFh5.jpg", "adult": false, "overview": "Bruce Banner, a genetics researcher with a tragic past, suffers massive radiation exposure in his laboratory that causes him to transform into a raging green monster when he gets angry.", "poster_path": "/ogCQV6mnLtCJuiiHtMB83jvSRfY.jpg", "popularity": 22.826}, {"id": 246655, "video": false, "vote_count": 8994, "vote_average": 6.5, "title": "X-Men: Apocalypse", "release_date": "2016-05-18", "original_language": "en", "original_title": "X-Men: Apocalypse", "genre_ids": [28, 12, 14, 878], "backdrop_path": "/oQWWth5AOtbWG9o8SCAviGcADed.jpg", "adult": false, "overview": "After the re-emergence of the world's first mutant, world-destroyer Apocalypse, the X-Men must unite to defeat his extinction level plan.", "poster_path": "/zSouWWrySXshPCT4t3UKCQGayyo.jpg", "popularity": 28.213}, {"adult": false, "backdrop_path": "/ZQixhAZx6fH1VNafFXsqa1B8QI.jpg", "genre_ids": [28, 878, 12], "id": 1726, "original_language": "en", "original_title": "Iron Man", "overview": "After being held captive in an Afghan cave, billionaire engineer Tony Stark creates a unique weaponized suit of armor to fight evil.", "poster_path": "/78lPtwv72eTNqFW9COBYI0dWDJa.jpg", "release_date": "2008-04-30", "title": "Iron Man", "video": false, "vote_average": 7.6, "vote_count": 17248, "popularity": 39.852}, {"id": 100402, "video": false, "vote_count": 12142, "vote_average": 7.7, "title": "Captain America: The Winter Soldier", "release_date": "2014-03-20", "original_language": "en", "original_title": "Captain America: The Winter Soldier", "genre_ids": [28, 12, 878], "backdrop_path": "/4qfXT9BtxeFuamR4F49m2mpKQI1.jpg", "adult": false, "overview": "After the cataclysmic events in New York with The Avengers, Steve Rogers, aka Captain America is living quietly in Washington, D.C. and trying to adjust to the modern world. But when a S.H.I.E.L.D. colleague comes under attack, Steve becomes embroiled in a web of intrigue that threatens to put the world at risk. Joining forces with the Black Widow, Captain America struggles to expose the ever-widening conspiracy while fighting off professional assassins sent to silence him at every turn. When the full scope of the villainous plot is revealed, Captain America and the Black Widow enlist the help of a new ally, the Falcon. However, they soon find themselves up against an unexpected and formidable enemy\u2014the Winter Soldier.", "poster_path": "/5TQ6YDmymBpnF005OyoB7ohZps9.jpg", "popularity": 20.643}, {"id": 299537, "video": false, "vote_count": 8124, "vote_average": 7.0, "title": "Captain Marvel", "release_date": "2019-03-06", "original_language": "en", "original_title": "Captain Marvel", "genre_ids": [28, 12, 878], "backdrop_path": "/w2PMyoyLU22YvrGK3smVM9fW1jj.jpg", "adult": false, "overview": "The story follows Carol Danvers as she becomes one of the universe\u2019s most powerful heroes when Earth is caught in the middle of a galactic war between two alien races. Set in the 1990s, Captain Marvel is an all-new adventure from a previously unseen period in the history of the Marvel Cinematic Universe.", "poster_path": "/AtsgWhDnHTq68L0lLsUrCnM7TjG.jpg", "popularity": 45.261}, {"adult": false, "backdrop_path": "/pkqkxX7tkN0QLBtOYzugtBqyu0C.jpg", "genre_ids": [35, 878, 28, 12], "id": 9531, "original_language": "en", "original_title": "Superman III", "overview": "Aiming to defeat the Man of Steel, wealthy executive Ross Webster hires bumbling but brilliant Gus Gorman to develop synthetic kryptonite, which yields some unexpected psychological effects in the third installment of the 1980s Superman franchise. Between rekindling romance with his high school sweetheart and saving himself, Superman must contend with a powerful supercomputer.", "poster_path": "/pDjfBk3YkdvRK2VERvoHaXJdNxF.jpg", "release_date": "1983-06-17", "title": "Superman III", "video": false, "vote_average": 5.4, "vote_count": 938, "popularity": 14.943}, {"id": 8536, "video": false, "vote_count": 1270, "vote_average": 6.6, "title": "Superman II", "release_date": "1980-12-04", "original_language": "en", "original_title": "Superman II", "genre_ids": [28, 12, 878], "backdrop_path": "/1d0bPDy0Ud7g7vZ5qnKI6HsduLE.jpg", "adult": false, "overview": "Three escaped criminals from the planet Krypton test the Man of Steel's mettle. Led by General Zod, the Kryptonians take control of the White House and partner with Lex Luthor to destroy Superman and rule the world. But Superman, who attempts to make himself human in order to get closer to Lois, realizes he has a responsibility to save the planet.", "poster_path": "/uvxjXSfph2FD07A2jBG9NHJnl27.jpg", "popularity": 17.065}, {"id": 44912, "video": false, "vote_count": 4726, "vote_average": 5.1, "title": "Green Lantern", "release_date": "2011-06-16", "original_language": "en", "original_title": "Green Lantern", "genre_ids": [28, 12, 878, 53], "backdrop_path": "/gulyiqtyuzFRJCnvNwD6Z786kQi.jpg", "adult": false, "overview": "For centuries, a small but powerful force of warriors called the Green Lantern Corps has sworn to keep intergalactic order. Each Green Lantern wears a ring that grants him superpowers. But when a new enemy called Parallax threatens to destroy the balance of power in the Universe, their fate and the fate of Earth lie in the hands of the first human ever recruited.", "poster_path": "/zUSEYp9G7Hk9GZIfbPoOiSHvwHV.jpg", "popularity": 15.073}, {"id": 166424, "video": false, "vote_count": 4097, "vote_average": 4.4, "title": "Fantastic Four", "release_date": "2015-08-05", "original_language": "en", "original_title": "Fantastic Four", "genre_ids": [28, 12, 878], "backdrop_path": "/3Kgu3ys6W6UZWWFty7rlTWgST63.jpg", "adult": false, "overview": "Four young outsiders teleport to a dangerous universe, which alters their physical form in shocking ways. Their lives irrevocably upended, the team must learn to harness their daunting new abilities and work together to save Earth from a former friend turned enemy.", "poster_path": "/g23cs30dCMiG4ldaoVNP1ucjs6.jpg", "popularity": 23.552}, {"adult": false, "backdrop_path": "/ysLIi9nzMbUqi4dQh3tqblUb27o.jpg", "genre_ids": [878, 28, 27, 53, 12, 14], "id": 36648, "original_language": "en", "original_title": "Blade: Trinity", "overview": "For years, Blade has fought against the vampires in the cover of the night. But now, after falling into the crosshairs of the FBI, he is forced out into the daylight, where he is driven to join forces with a clan of human vampire hunters he never knew existed\u2014The Nightstalkers. Together with Abigail and Hannibal, two deftly trained Nightstalkers, Blade follows a trail of blood to the ancient creature that is also hunting him\u2014the original vampire, Dracula.", "poster_path": "/4WinsdHQBdh5aTt7Bd7T7dbUXbb.jpg", "release_date": "2004-12-08", "title": "Blade: Trinity", "video": false, "vote_average": 5.8, "vote_count": 2278, "popularity": 19.358}, {"id": 263115, "video": false, "vote_count": 13404, "vote_average": 7.8, "title": "Logan", "release_date": "2017-02-28", "original_language": "en", "original_title": "Logan", "genre_ids": [28, 18, 878], "backdrop_path": "/yEv8c6i79vk06sZDC3Z9D8HQLVV.jpg", "adult": false, "overview": "In the near future, a weary Logan cares for an ailing Professor X in a hideout on the Mexican border. But Logan's attempts to hide from the world and his legacy are upended when a young mutant arrives, pursued by dark forces.", "poster_path": "/fnbjcRDYn6YviCcePDnGdyAkYsB.jpg", "popularity": 39.141}], "total_pages": 58, "total_results": 1152}, "recommendations": {"page": 1, "results": [], "total_pages": 1, "total_results": 0}, "credits": {"cast": [{"cast_id": 2, "character": "Superargo", "credit_id": "55efca47c3a368090c00c6f1", "gender": 0, "id": 50745, "name": "Giovanni Cianfriglia", "order": 1, "profile_path": "/ffd3qTg2LLOjGkzDAK3EBzLVVzj.jpg"}, {"cast_id": 3, "character": "Prof. Wendland Wond", "credit_id": "55efca47c3a3682c6401a473", "gender": 2, "id": 40201, "name": "Guy Madison", "order": 2, "profile_path": "/y1eCTH8DQaNyjYzWq46yby2KqjK.jpg"}, {"cast_id": 4, "character": "Claire Brand", "credit_id": "56aaa40d9251417e29000546", "gender": 1, "id": 544152, "name": "Luisa Baratto", "order": 3, "profile_path": "/6zb5owxpt7WnggRTrQW9jbcZzw9.jpg"}, {"cast_id": 5, "character": "Gloria Devon", "credit_id": "56aaa41e9251417e260005b7", "gender": 1, "id": 97635, "name": "Diana Lorys", "order": 4, "profile_path": "/tb7kRZNt0zCPLfDDfmCwEXd5HTk.jpg"}, {"cast_id": 6, "character": "Kamir / Pao-Ki", "credit_id": "56aaa42f9251417e1400056b", "gender": 2, "id": 49895, "name": "Aldo Sambrell", "order": 5, "profile_path": "/doSGQEp3BDSCDmbX8hlaTOoqXST.jpg"}, {"cast_id": 7, "character": "Davies", "credit_id": "56aaa4429251417e260005bc", "gender": 2, "id": 544572, "name": "Tom\u00e1s Blanco", "order": 6, "profile_path": "/oXITtURcZk9PpmwPOGA42Cx28zD.jpg"}, {"cast_id": 8, "character": "Jo Brand", "credit_id": "56aaa4cd9251410e8f0003e8", "gender": 2, "id": 556761, "name": "Sergio Testori", "order": 7, "profile_path": "/qEpm0mRHvAVVYHcPzK3pUwQEqre.jpg"}, {"cast_id": 9, "character": "Professor Presenski", "credit_id": "56aaa4db9251417e1400058d", "gender": 0, "id": 1569567, "name": "Valerio Tordi", "order": 8, "profile_path": null}, {"cast_id": 10, "character": "J.G. Stafford", "credit_id": "56aaa4ea9251410e8f0003ec", "gender": 0, "id": 45984, "name": "Aldo Bufi Landi", "order": 9, "profile_path": null}, {"cast_id": 11, "character": "Bank Guard", "credit_id": "56aaa4fbc3a3681c3f0005ed", "gender": 2, "id": 587456, "name": "Valentino Macchi", "order": 10, "profile_path": "/biRVb5tk02H05Selwee4A6ne2dL.jpg"}, {"cast_id": 28, "character": "Medical Examiner (voice)", "credit_id": "5cf2fedc0e0a2643c6c9acb9", "gender": 0, "id": 1696031, "name": "Frank von Kuegelgen", "order": 11, "profile_path": null}, {"cast_id": 29, "character": "Henchman in Cave", "credit_id": "5cf2fef4925141247cbc1252", "gender": 0, "id": 1020326, "name": "Mauro Mannatrizio", "order": 12, "profile_path": null}, {"cast_id": 30, "character": "Wrestler vs Jo Brand", "credit_id": "5cf2ff090e0a2679d3cdbc36", "gender": 2, "id": 1127104, "name": "Emilio Messina", "order": 13, "profile_path": "/kQAEIFNCYVw78q10FxFvgmsFELn.jpg"}, {"cast_id": 31, "character": "Wrestler vs Superargo", "credit_id": "5cf2ff1f0e0a261e1bcd00c4", "gender": 2, "id": 544725, "name": "Roberto Messina", "order": 14, "profile_path": "/rJEV6WKAZ12a0mEJhpJQgJ50TSz.jpg"}], "crew": [{"credit_id": "5cf2fdf60e0a261973cbd590", "department": "Art", "gender": 0, "id": 16595, "job": "Set Decoration", "name": "Pier Luigi Basile", "profile_path": null}, {"credit_id": "56aaa7129251410e8f00041e", "department": "Crew", "gender": 0, "id": 31343, "job": "Cinematography", "name": "Godofredo Pacheco", "profile_path": null}, {"credit_id": "56aaa57fc3a3681c31000588", "department": "Writing", "gender": 2, "id": 31698, "job": "Screenplay", "name": "Julio Buchs", "profile_path": "/xmkiDxOd8fQxfRRLFdeKJUZ4UVe.jpg"}, {"credit_id": "5cf2fda4c3a368697a21c9e8", "department": "Sound", "gender": 0, "id": 44505, "job": "Music", "name": "Berto Pisano", "profile_path": null}, {"credit_id": "5cf2fddb925141247cbc107a", "department": "Art", "gender": 0, "id": 80946, "job": "Production Design", "name": "Jaime P\u00e9rez Cubero", "profile_path": null}, {"credit_id": "5cf2fe570e0a261e1bccff2b", "department": "Directing", "gender": 2, "id": 137066, "job": "Assistant Director", "name": "Tonino Ricci", "profile_path": null}, {"credit_id": "52fe4a74c3a36847f81cee11", "department": "Directing", "gender": 2, "id": 257299, "job": "Director", "name": "Paolo Bianchini", "profile_path": "/yV94XLDM21XqqAyD2Hb3hBnHXr0.jpg"}, {"credit_id": "5cf2fe0e9251413921bb73cf", "department": "Costume & Make-Up", "gender": 0, "id": 1082655, "job": "Makeup Artist", "name": "Anacleto Giustini", "profile_path": null}, {"credit_id": "56aaa733c3a3681c3f000623", "department": "Editing", "gender": 0, "id": 1090561, "job": "Editor", "name": "Juan Pis\u00f3n", "profile_path": null}, {"credit_id": "5cf2fd8d0e0a2670bdcda3eb", "department": "Production", "gender": 2, "id": 1120165, "job": "Producer", "name": "Elsio Mancuso", "profile_path": null}, {"credit_id": "5cf2fe1e9251411cdbbbd602", "department": "Production", "gender": 0, "id": 1187899, "job": "Production Manager", "name": "Nino Battiferri", "profile_path": null}, {"credit_id": "56aaa700c3a3681c34000516", "department": "Crew", "gender": 0, "id": 1210700, "job": "Cinematography", "name": "Aldo Greci", "profile_path": null}, {"credit_id": "56aaa5f79251417e200004ee", "department": "Production", "gender": 0, "id": 1569569, "job": "Producer", "name": "Luigi Annibaldi", "profile_path": null}, {"credit_id": "5cf2fe6d9251411cdbbbd629", "department": "Sound", "gender": 0, "id": 1758922, "job": "Sound Recordist", "name": "Fiorenzo Magli", "profile_path": null}, {"credit_id": "5cf2fe8e0e0a261e1bccffc7", "department": "Camera", "gender": 0, "id": 1860712, "job": "Assistant Camera", "name": "Giulio Battiferri", "profile_path": null}, {"credit_id": "5cf2feb29251410ecfb84ed2", "department": "Directing", "gender": 0, "id": 2004231, "job": "Continuity", "name": "Maria Luisa Rosen", "profile_path": null}, {"credit_id": "5cf2fea00e0a261973cbd705", "department": "Production", "gender": 0, "id": 2320189, "job": "Production Coordinator", "name": "Gino Fanano", "profile_path": null}]}}