{"adult": false, "backdrop_path": null, "belongs_to_collection": null, "budget": 0, "genres": [{"id": 18, "name": "Drama"}, {"id": 28, "name": "Action"}, {"id": 80, "name": "Crime"}], "homepage": null, "id": 107007, "imdb_id": "tt0085245", "original_language": "en", "original_title": "The Big Score", "overview": "A narcotics detective, played by Fred Williamson, lets nothing stand in the way of his bringing down a major drug dealer. After a bust gone awry, he's accused of stealing a lost briefcase filled with money and both the mob and the police are looking for him. A ruthless hit man, played by Bruce Glover, will stop at nothing to get what his boss wants; the money!", "popularity": 1.234, "poster_path": "/au7g7xFJqMtUgiW8CUj1jbjtufC.jpg", "production_companies": [{"id": 11787, "logo_path": null, "name": "Po' Boy Productions", "origin_country": ""}, {"id": 120432, "logo_path": null, "name": "Big Score", "origin_country": ""}], "production_countries": [{"iso_3166_1": "US", "name": "United States of America"}], "release_date": "1983-03-17", "revenue": 0, "runtime": 85, "spoken_languages": [{"iso_639_1": "en", "name": "English"}], "status": "Released", "tagline": "Detective Hooks is out to shake up the Mob and the whole damn Police Force.", "title": "The Big Score", "video": false, "vote_average": 8.0, "vote_count": 1, "keywords": {"keywords": [{"id": 14967, "name": "foot chase"}, {"id": 178849, "name": "narcotics detective"}]}, "similar": {"page": 1, "results": [{"id": 107846, "video": false, "vote_count": 3131, "vote_average": 6.7, "title": "Escape Plan", "release_date": "2013-10-09", "original_language": "en", "original_title": "Escape Plan", "genre_ids": [28, 53], "backdrop_path": "/lDmAQexExnvfKAG8fvx04ro6Ly4.jpg", "adult": false, "overview": "Ray Breslin is the world's foremost authority on structural security. After analyzing every high security prison and learning a vast array of survival skills so he can design escape-proof prisons, his skills are put to the test. He's framed and incarcerated in a master prison he designed himself. He needs to escape and find the person who put him behind bars.", "poster_path": "/j3XZwBeWgoAbVmkW3JyOme79I2e.jpg", "popularity": 19.433}, {"id": 9798, "video": false, "vote_count": 2138, "vote_average": 6.9, "title": "Enemy of the State", "release_date": "1998-11-20", "original_language": "en", "original_title": "Enemy of the State", "genre_ids": [28, 18, 53], "backdrop_path": "/5zIxXANoUCVMFu9YFhHejmnSmhY.jpg", "adult": false, "overview": "A hotshot Washington criminal lawyer becomes the target of a rogue security executive videotaped in the act of murdering a congressman when the incriminating tape is surreptitiously slipped into his shopping bag by the videographer, who is fleeing the executive's assassins.", "poster_path": "/2B0vLBo6gJbnzke4Enc77GCxKrz.jpg", "popularity": 17.543}, {"adult": false, "backdrop_path": "/yl0siKWmGjnBcuCEacKyW0vHsWq.jpg", "genre_ids": [10749, 18], "id": 409387, "original_language": "ko", "original_title": "\uc815\uc0ac : \uacb0\ud63c \ub9d0\uace0 \uc5f0\uc560", "overview": "\"Getting married is crazy! I only want to be in relationships!\" The life story of a woman who doesn't want to settle for one man. Her mom nags at her to get married, her superior grills her to bring results and her boyfriend turns out to be married. Soo-kyeong comforts herself with some spicy food. One lonely birthday, she ends up having sex with the chef of the spicy food restaurant. They fit well mentally and physically so they get closer but Soo-kyeong rejects the chef's marriage proposal. The chef gets married with someone else and asks her, \"I got married with someone else like you said. Now will you have a relationship with me?\"", "poster_path": "/4hiv07Quj8A7J8onCIAjNCy62Er.jpg", "release_date": "2016-04-19", "title": "Sex: A Relationship and Not Marriage", "video": false, "vote_average": 7.7, "vote_count": 3, "popularity": 11.678}, {"adult": false, "backdrop_path": null, "genre_ids": [28, 12], "id": 520799, "original_language": "en", "original_title": "The Riddle Of The Spider's Web", "overview": "The Scotts are confronted with their past and Harrison with his future when they visit a Caribbean island that is being ripped apart by mysterious earthquakes.", "poster_path": "/xHjpsmmNR2cc52t6QwIFEabKFyy.jpg", "release_date": "2019-09-28", "title": "The Riddle Of The Spider's Web", "video": true, "vote_average": 0.0, "vote_count": 0, "popularity": 0.936}, {"id": 521, "video": false, "vote_count": 1257, "vote_average": 8.0, "title": "Dial M for Murder", "release_date": "1954-05-29", "original_language": "en", "original_title": "Dial M for Murder", "genre_ids": [80, 18, 9648, 53], "backdrop_path": "/jVMlfESb0TJ29w8CUDDofEprMmn.jpg", "adult": false, "overview": "An ex-tennis pro carries out a plot to have his wife murdered after discovering she is having an affair, and assumes she will soon leave him for the other man anyway. When things go wrong, he improvises a new plan\u2014to frame her for murder instead.", "poster_path": "/xrpK1PyckNWmRxU4kZURfaCyboS.jpg", "popularity": 28.336}, {"id": 75780, "video": false, "vote_count": 4451, "vote_average": 6.4, "title": "Jack Reacher", "release_date": "2012-12-20", "original_language": "en", "original_title": "Jack Reacher", "genre_ids": [28, 80, 18, 53], "backdrop_path": "/ezXodpP429qK0Av89pVNlaXWJkQ.jpg", "adult": false, "overview": "When a gunman takes five lives with six shots, all evidence points to the suspect in custody. On interrogation, the suspect offers up a single note: \"Get Jack Reacher!\" So begins an extraordinary chase for the truth, pitting Jack Reacher against an unexpected enemy, with a skill for violence and a secret to keep.", "poster_path": "/mt0ELw83HIRgaKaDzhsDcIi0RnW.jpg", "popularity": 15.945}, {"id": 13809, "video": false, "vote_count": 1565, "vote_average": 6.9, "title": "RockNRolla", "release_date": "2008-09-04", "original_language": "en", "original_title": "RockNRolla", "genre_ids": [28, 80, 53], "backdrop_path": "/g6FLR1fSleLUmYxufJNMTYiVpA4.jpg", "adult": false, "overview": "When a Russian mobster sets up a real estate scam that generates millions of pounds, various members of London's criminal underworld pursue their share of the fortune. Various shady characters, including Mr One-Two, Stella the accountant, and Johnny Quid, a druggie rock-star, try to claim their slice.", "poster_path": "/9tnHUDuUDrNJxJ3raxpKIrnYXlH.jpg", "popularity": 18.124}, {"id": 15196, "video": false, "vote_count": 739, "vote_average": 7.3, "title": "Clue", "release_date": "1985-12-13", "original_language": "en", "original_title": "Clue", "genre_ids": [35, 80, 9648, 53], "backdrop_path": "/q1zYM7YsEIUeA6Yjxcb1zC3fM2.jpg", "adult": false, "overview": "Clue finds six colorful dinner guests gathered at the mansion of their host, Mr. Boddy -- who turns up dead after his secret is exposed: He was blackmailing all of them. With the killer among them, the guests and Boddy's chatty butler must suss out the culprit before the body count rises.", "poster_path": "/suzDcrxpuNPDnBwOOy8vBLsygwp.jpg", "popularity": 15.687}, {"id": 64688, "video": false, "vote_count": 7063, "vote_average": 6.8, "title": "21 Jump Street", "release_date": "2012-03-14", "original_language": "en", "original_title": "21 Jump Street", "genre_ids": [28, 35, 80], "backdrop_path": "/uOpFdld7CIifSEoGuRVgWqaeyFs.jpg", "adult": false, "overview": "In high school, Schmidt was a dork and Jenko was the popular jock. After graduation, both of them joined the police force and ended up as partners riding bicycles in the city park. Since they are young and look like high school students, they are assigned to an undercover unit to infiltrate a drug ring that is supplying high school students synthetic drugs.", "poster_path": "/mH6xazzfGdszadd1Xy9JgdZYvn1.jpg", "popularity": 19.177}, {"adult": false, "backdrop_path": "/2p5rA1NRoyyAFfzdHl1Ab1RN3qr.jpg", "genre_ids": [80, 28, 878], "id": 9739, "original_language": "en", "original_title": "Demolition Man", "overview": "Simon Phoenix, a violent criminal cryogenically frozen in 1996, escapes during a parole hearing in 2032 in the utopia of San Angeles. Police are incapable of dealing with his violent ways and turn to his captor, who had also been cryogenically frozen after being wrongfully accused of killing 30 innocent people while apprehending Phoenix.", "poster_path": "/k0PN3Ho12cGGIVJW7SCS7apLYaP.jpg", "release_date": "1993-10-08", "title": "Demolition Man", "video": false, "vote_average": 6.5, "vote_count": 1913, "popularity": 16.803}, {"adult": false, "backdrop_path": "/6xKCYgH16UuwEGAyroLU6p8HLIn.jpg", "genre_ids": [18, 80], "id": 238, "original_language": "en", "original_title": "The Godfather", "overview": "Spanning the years 1945 to 1955, a chronicle of the fictional Italian-American Corleone crime family. When organized crime family patriarch, Vito Corleone barely survives an attempt on his life, his youngest son, Michael steps in to take care of the would-be killers, launching a campaign of bloody revenge.", "poster_path": "/rPdtLWNsZmAtoZl9PK7S2wE3qiS.jpg", "release_date": "1972-03-14", "title": "The Godfather", "video": false, "vote_average": 8.6, "vote_count": 11276, "popularity": 47.035}, {"id": 240, "video": false, "vote_count": 6634, "vote_average": 8.5, "title": "The Godfather: Part II", "release_date": "1974-12-20", "original_language": "en", "original_title": "The Godfather: Part II", "genre_ids": [80, 18], "backdrop_path": "/gLbBRyS7MBrmVUNce91Hmx9vzqI.jpg", "adult": false, "overview": "In the continuing saga of the Corleone crime family, a young Vito Corleone grows up in Sicily and in 1910s New York. In the 1950s, Michael Corleone attempts to expand the family business into Las Vegas, Hollywood and Cuba.", "poster_path": "/bVq65huQ8vHDd1a4Z37QtuyEvpA.jpg", "popularity": 30.089}, {"adult": false, "backdrop_path": "/bRGtZsVj2Qq8r5CCsNYmQUPF4z4.jpg", "genre_ids": [80, 18, 878, 53], "id": 10559, "original_language": "en", "original_title": "Frequency", "overview": "When a rare phenomenon gives police officer John Sullivan the chance to speak to his father, 30 years in the past, he takes the opportunity to prevent his dad's tragic death.  After his actions inadvertently give rise to a series of brutal murders he and his father must find a way to fix the consequences of altering time.", "poster_path": "/n0QAAZmIaPPIShVkk8eiKwfGV9.jpg", "release_date": "2000-04-28", "title": "Frequency", "video": false, "vote_average": 7.1, "vote_count": 897, "popularity": 14.026}, {"adult": false, "backdrop_path": "/e1QVZfHmKlqxlaTNLTP9ATshLqU.jpg", "genre_ids": [53, 28, 80, 9648], "id": 287948, "original_language": "en", "original_title": "The Transporter Refueled", "overview": "The fast-paced action movie is again set in the criminal underworld in France, where Frank Martin is known as The Transporter, because he is the best driver and mercenary money can buy. In this installment, he meets Anna and they attempt to take down a group of ruthless Russian human traffickers who also have kidnapped Frank\u2019s father.", "poster_path": "/zW7oC3tucYLzu77xNbPbYjXUN4o.jpg", "release_date": "2015-09-03", "title": "The Transporter Refueled", "video": false, "vote_average": 5.5, "vote_count": 903, "popularity": 15.506}, {"id": 2118, "video": false, "vote_count": 2561, "vote_average": 7.8, "title": "L.A. Confidential", "release_date": "1997-09-19", "original_language": "en", "original_title": "L.A. Confidential", "genre_ids": [80, 9648], "backdrop_path": "/hNIzJtfkidpgER4jDQbmuK8Ebgn.jpg", "adult": false, "overview": "Three detectives in the corrupt and brutal L.A. police force of the 1950s use differing methods to uncover a conspiracy behind the shotgun slayings of the patrons at an all-night diner.", "poster_path": "/rIXzJCAvyd3Ci8ipylDQ5wUKqwh.jpg", "popularity": 16.89}, {"id": 87, "video": false, "vote_count": 5411, "vote_average": 7.2, "title": "Indiana Jones and the Temple of Doom", "release_date": "1984-05-23", "original_language": "en", "original_title": "Indiana Jones and the Temple of Doom", "genre_ids": [28, 12], "backdrop_path": "/mWuFDpOxXJpPxLM3p8f3w02pBb2.jpg", "adult": false, "overview": "After arriving in India, Indiana Jones is asked by a desperate village to find a mystical stone. He agrees \u2013 and stumbles upon a secret cult plotting a terrible plan in the catacombs of an ancient palace.", "poster_path": "/f2nTRKk2zGdUTE7tLJ5EGGSuKA6.jpg", "popularity": 25.521}, {"id": 500, "video": false, "vote_count": 8373, "vote_average": 8.2, "title": "Reservoir Dogs", "release_date": "1992-09-02", "original_language": "en", "original_title": "Reservoir Dogs", "genre_ids": [80, 53], "backdrop_path": "/fupyzBwFAn1PoeCXhp54bYVM2ER.jpg", "adult": false, "overview": "A botched robbery indicates a police informant, and the pressure mounts in the aftermath at a warehouse. Crime begets violence as the survivors -- veteran Mr. White, newcomer Mr. Orange, psychopathic parolee Mr. Blonde, bickering weasel Mr. Pink and Nice Guy Eddie -- unravel.", "poster_path": "/g7spS2Y4SZoQoC6Hn7zoqEqdYqR.jpg", "popularity": 33.825}, {"id": 8961, "video": false, "vote_count": 2968, "vote_average": 6.5, "title": "Bad Boys II", "release_date": "2003-07-18", "original_language": "en", "original_title": "Bad Boys II", "genre_ids": [28, 12, 35, 80, 53], "backdrop_path": "/5xQVApmdUbBlCi1QzS8NwbCF0Ne.jpg", "adult": false, "overview": "Out-of-control, trash-talking buddy cops Marcus Burnett and Mike Lowrey of the Miami Narcotics Task Force reunite, and bullets fly, cars crash and laughs explode as they pursue a whacked-out drug lord from the streets of Miami to the barrios of Cuba. But the real fireworks result when Marcus discovers that playboy Mike is secretly romancing Marcus\u2019 sexy sister.", "poster_path": "/680X9apSqmAcebLg8evnnUeQNeI.jpg", "popularity": 37.123}, {"adult": false, "backdrop_path": "/2jNSXfITbGYxxWLJOLTh9eAx3y8.jpg", "genre_ids": [28, 35, 80, 53], "id": 9737, "original_language": "en", "original_title": "Bad Boys", "overview": "Marcus Burnett is a hen-pecked family man. Mike Lowry is a foot-loose and fancy free ladies' man. Both are Miami policemen, and both have 72 hours to reclaim a consignment of drugs stolen from under their station's nose. To complicate matters, in order to get the assistance of the sole witness to a murder, they have to pretend to be each other.", "poster_path": "/x1ygBecKHfXX4M2kRhmFKWfWbJc.jpg", "release_date": "1995-04-07", "title": "Bad Boys", "video": false, "vote_average": 6.6, "vote_count": 3338, "popularity": 46.139}, {"id": 2503, "video": false, "vote_count": 4835, "vote_average": 7.4, "title": "The Bourne Ultimatum", "release_date": "2007-08-03", "original_language": "en", "original_title": "The Bourne Ultimatum", "genre_ids": [28, 18, 9648, 53], "backdrop_path": "/6WpDOqkZFmhNJ0rwuLJiZVKlZi1.jpg", "adult": false, "overview": "Bourne is brought out of hiding once again by reporter Simon Ross who is trying to unveil Operation Blackbriar, an upgrade to Project Treadstone, in a series of newspaper columns. Information from the reporter stirs a new set of memories, and Bourne must finally uncover his dark past while dodging The Company's best efforts to eradicate him.", "poster_path": "/fHho6JYYY0nRcETWSoeI19iZsNF.jpg", "popularity": 16.034}], "total_pages": 104, "total_results": 2069}, "recommendations": {"page": 1, "results": [], "total_pages": 1, "total_results": 0}, "credits": {"cast": [{"cast_id": 1, "character": "Detective Frank Hooks", "credit_id": "52fe4a76c3a36847f81cf4c5", "gender": 2, "id": 9811, "name": "Fred Williamson", "order": 0, "profile_path": "/tc4K1y80KA8RrVR8tvmSNCuvWa8.jpg"}, {"cast_id": 2, "character": "Davis", "credit_id": "52fe4a76c3a36847f81cf4c9", "gender": 2, "id": 11163, "name": "John Saxon", "order": 1, "profile_path": "/jggn6H9ezT1iizRHI0hJUDJ2jOo.jpg"}, {"cast_id": 3, "character": "Gordon", "credit_id": "52fe4a76c3a36847f81cf4cd", "gender": 2, "id": 6487, "name": "Richard Roundtree", "order": 2, "profile_path": "/cF7WMpXLQb6pKHconoUXQ46irQE.jpg"}, {"cast_id": 4, "character": "Goldy", "credit_id": "52fe4a76c3a36847f81cf4d1", "gender": 2, "id": 15975, "name": "Michael Dante", "order": 3, "profile_path": "/11Jb7NXav416WBnuUvK9YtsPNBq.jpg"}, {"cast_id": 5, "character": "Koslo", "credit_id": "52fe4a76c3a36847f81cf4d5", "gender": 2, "id": 10194, "name": "Bruce Glover", "order": 4, "profile_path": "/xVS6edZlUempGkjWqSnPnkGcRTw.jpg"}, {"cast_id": 7, "character": "Mayfield", "credit_id": "52fe4a76c3a36847f81cf4d9", "gender": 2, "id": 16525, "name": "Joe Spinell", "order": 5, "profile_path": "/wzZZO8xXn9OgljCmrGGR4L6wBdg.jpg"}, {"cast_id": 9, "character": "Parks", "credit_id": "52fe4a76c3a36847f81cf4e3", "gender": 2, "id": 21523, "name": "Ed Lauter", "order": 6, "profile_path": "/3mlQucZnEpYA1R8LxxKepsd7JpO.jpg"}, {"cast_id": 10, "character": "Easy", "credit_id": "52fe4a76c3a36847f81cf4e7", "gender": 2, "id": 109086, "name": "D'Urville Martin", "order": 7, "profile_path": "/jDXQu5coDXYgyh1UeA1hDhnXD5x.jpg"}, {"cast_id": 11, "character": "Jumbo", "credit_id": "52fe4a76c3a36847f81cf4eb", "gender": 2, "id": 55672, "name": "Tony King", "order": 8, "profile_path": "/ybHQDeD1fB9QYXc9ldee9jPud8n.jpg"}, {"cast_id": 12, "character": "Angie Hooks", "credit_id": "54de309d92514103bb00155e", "gender": 1, "id": 1221379, "name": "Nancy Wilson", "order": 9, "profile_path": "/vfEKhe3ag0zSyZJpM1OFGAoLnmi.jpg"}, {"cast_id": 13, "character": "", "credit_id": "54de30e4c3a3684555001a94", "gender": 2, "id": 101615, "name": "Frank Pesce", "order": 10, "profile_path": "/qkMpNT7rJj8offjNuv5OZ0VeUVQ.jpg"}, {"cast_id": 14, "character": "", "credit_id": "54de30f0c3a368454b001847", "gender": 2, "id": 126352, "name": "James Spinks", "order": 11, "profile_path": "/6kpobWJqvy5ZeNknoUDmhzu3hNf.jpg"}, {"cast_id": 15, "character": "", "credit_id": "54de3117c3a3684558001bf2", "gender": 0, "id": 110569, "name": "Ramsey Lewis", "order": 12, "profile_path": null}, {"cast_id": 16, "character": "", "credit_id": "5556bfcf9251411ff000123d", "gender": 2, "id": 84328, "name": "Stack Pierce", "order": 13, "profile_path": "/vCZ2iTJpXXhG2oAV95GZCz2k9X2.jpg"}], "crew": [{"credit_id": "52fe4a76c3a36847f81cf4df", "department": "Directing", "gender": 2, "id": 9811, "job": "Director", "name": "Fred Williamson", "profile_path": "/tc4K1y80KA8RrVR8tvmSNCuvWa8.jpg"}, {"credit_id": "5b793d99925141295702288d", "department": "Editing", "gender": 2, "id": 58706, "job": "Editor", "name": "Daniel Loewenthal", "profile_path": null}, {"credit_id": "5b793d85925141295b0251b7", "department": "Sound", "gender": 0, "id": 73345, "job": "Original Music Composer", "name": "Jay Chattaway", "profile_path": null}]}}