{"adult": false, "backdrop_path": null, "belongs_to_collection": null, "budget": 0, "genres": [{"id": 18, "name": "Drama"}, {"id": 10749, "name": "Romance"}, {"id": 10402, "name": "Music"}], "homepage": null, "id": 108222, "imdb_id": "tt0033167", "original_language": "en", "original_title": "Tin Pan Alley", "overview": "Songwriters Calhoun and Harrigan get Katie and Lily Blane to introduce a new one. Lily goes to England, and Katy joins her after the boys give a new song to Nora Bayes. All are reunited when the boys, now in the army, show up in England.", "popularity": 2.177, "poster_path": "/y4L8IeTrQ9rt6ZpuN0614eFjP9h.jpg", "production_companies": [{"id": 25, "logo_path": "/qZCc1lty5FzX30aOCVRBLzaVmcp.png", "name": "20th Century Fox", "origin_country": "US"}], "production_countries": [{"iso_3166_1": "US", "name": "United States of America"}], "release_date": "1940-11-29", "revenue": 0, "runtime": 94, "spoken_languages": [{"iso_639_1": "en", "name": "English"}], "status": "Released", "tagline": "", "title": "Tin Pan Alley", "video": false, "vote_average": 5.0, "vote_count": 1, "keywords": {"keywords": [{"id": 4344, "name": "musical"}]}, "similar": {"page": 1, "results": [{"id": 872, "video": false, "vote_count": 1616, "vote_average": 8.2, "title": "Singin' in the Rain", "release_date": "1952-04-10", "original_language": "en", "original_title": "Singin' in the Rain", "genre_ids": [35, 10402, 10749], "backdrop_path": "/amW1YWQvcP8slDyDp1R652aVQZ7.jpg", "adult": false, "overview": "In 1927 Hollywood, a silent film production company and cast make a difficult transition to sound.", "poster_path": "/s39odBPtyutGBnEfBIpdm0fpRwv.jpg", "popularity": 20.625}, {"id": 504608, "video": false, "vote_count": 1661, "vote_average": 7.4, "title": "Rocketman", "release_date": "2019-05-22", "original_language": "en", "original_title": "Rocketman", "genre_ids": [18, 10402], "backdrop_path": "/sZZJ42GrWKxSOfcrpI2TSFQa0AQ.jpg", "adult": false, "overview": "The story of Elton John's life, from his years as a prodigy at the Royal Academy of Music through his influential and enduring musical partnership with Bernie Taupin.", "poster_path": "/f4FF18ia7yTvHf2izNrHqBmgH8U.jpg", "popularity": 26.576}, {"id": 18126, "video": false, "vote_count": 1217, "vote_average": 6.4, "title": "Hannah Montana: The Movie", "release_date": "2009-04-10", "original_language": "en", "original_title": "Hannah Montana: The Movie", "genre_ids": [35, 18, 10402, 10749, 10751], "backdrop_path": "/ezx3NkXNqf2KnJCP6Nfj1bfCFut.jpg", "adult": false, "overview": "As Hannah Montana's popularity begins to take over her life, Miley Stewart, on the urging from her father takes a trip to her hometown of Crowley Corners, Tennessee to get some perspective on what matters in life the most.", "poster_path": "/8pwbnmvshHj2yYPYlyJ8K8Yzecy.jpg", "popularity": 14.838}, {"id": 2005, "video": false, "vote_count": 1805, "vote_average": 6.7, "title": "Sister Act", "release_date": "1992-05-28", "original_language": "en", "original_title": "Sister Act", "genre_ids": [35, 10402], "backdrop_path": "/oaLqlJxt8TJSjsdfMpSkLexZ4l5.jpg", "adult": false, "overview": "A Reno singer witnesses a mob murder and the cops stash her in a nunnery to protect her from the mob's hitmen. The mother superior does not trust her, and takes steps to limit her influence on the other nuns. Eventually the singer rescues the failing choir and begins helping with community projects, which gets her an interview on TV\u2014and identification by the mob.", "poster_path": "/7wQxLtybiUbtC6tsJh9htFEmqq3.jpg", "popularity": 13.161}, {"adult": false, "backdrop_path": "/69NfvNrpPI6bjj3Txp2cDsRZ5se.jpg", "genre_ids": [18, 10402, 10749], "id": 65203, "original_language": "en", "original_title": "The Broadway Melody", "overview": "Harriet and Queenie Mahoney, a vaudeville act, come to Broadway, where their friend Eddie Kerns needs them for his number in one of Francis Zanfield's shows. Eddie was in love with Harriet, but when he meets Queenie, he falls in love to her, but she is courted by Jock Warriner, a member of the New Yorker high society. It takes a while till Queenie recognizes, that she is for Jock nothing more than a toy, and it also takes a while till Harriet recognizes, that Eddie is in love with Queenie", "poster_path": "/dJxFUKiO7JTDBSUr4Nzct4iJikX.jpg", "release_date": "1929-02-08", "title": "The Broadway Melody", "video": false, "vote_average": 5.5, "vote_count": 51, "popularity": 4.832}, {"id": 10537, "video": false, "vote_count": 603, "vote_average": 6.9, "title": "The Doors", "release_date": "1991-03-01", "original_language": "en", "original_title": "The Doors", "genre_ids": [18, 10402], "backdrop_path": "/1rv5sW6Qs2YK2iOzIgwH3SJPIl1.jpg", "adult": false, "overview": "The story of the famous and influential 1960s rock band and its lead singer and composer, Jim Morrison.", "poster_path": "/9CkFrWAkg23YynYd2uJLyWznMZZ.jpg", "popularity": 15.486}, {"id": 224141, "video": false, "vote_count": 3143, "vote_average": 5.7, "title": "Into the Woods", "release_date": "2014-12-24", "original_language": "en", "original_title": "Into the Woods", "genre_ids": [35, 14], "backdrop_path": "/lzJzB0QfkjpGCm9qUC4XpEIB6pm.jpg", "adult": false, "overview": "In a woods filled with magic and fairy tale characters, a baker and his wife set out to end the curse put on them by their neighbor, a spiteful witch.", "poster_path": "/5h91odPFNlBuJbRBj5N4MEBfXDE.jpg", "popularity": 28.397}, {"adult": false, "backdrop_path": "/58BOLbf2ShjhVVtT7twnUEeangh.jpg", "genre_ids": [18, 10402], "id": 3087, "original_language": "en", "original_title": "Yankee Doodle Dandy", "overview": "A film of the life of the renowned musical composer, playwright, actor, dancer and singer George M. Cohan.", "poster_path": "/cqLLIyJFjLr6jGOxWVEHG11WGzB.jpg", "release_date": "1942-05-29", "title": "Yankee Doodle Dandy", "video": false, "vote_average": 7.1, "vote_count": 99, "popularity": 9.299}, {"id": 194662, "video": false, "vote_count": 8616, "vote_average": 7.5, "title": "Birdman", "release_date": "2014-08-27", "original_language": "en", "original_title": "Birdman", "genre_ids": [35, 18], "backdrop_path": "/AsJVim0Hk3KbQPbfjyijfjqmaoZ.jpg", "adult": false, "overview": "A fading actor best known for his portrayal of a popular superhero attempts to mount a comeback by appearing in a Broadway play. As opening night approaches, his attempts to become more altruistic, rebuild his career, and reconnect with friends and family prove more difficult than expected.", "poster_path": "/rSZs93P0LLxqlVEbI001UKoeCQC.jpg", "popularity": 37.733}, {"id": 10545, "video": false, "vote_count": 3017, "vote_average": 7.0, "title": "The Hunchback of Notre Dame", "release_date": "1996-06-21", "original_language": "en", "original_title": "The Hunchback of Notre Dame", "genre_ids": [16, 18, 10751], "backdrop_path": "/oslaee3VX9kJAjVezbjZKlEJDzn.jpg", "adult": false, "overview": "When Quasimodo defies the evil Frollo and ventures out to the Festival of Fools, the cruel crowd jeers him. Rescued by fellow outcast the gypsy Esmeralda, Quasi soon finds himself battling to save the people and the city he loves.", "poster_path": "/r7V92gY3AMO6li17MmGTixAnFcv.jpg", "popularity": 34.935}, {"id": 332562, "video": false, "vote_count": 7176, "vote_average": 7.5, "title": "A Star Is Born", "release_date": "2018-10-03", "original_language": "en", "original_title": "A Star Is Born", "genre_ids": [18, 10402, 10749], "backdrop_path": "/mnDvPokXpvsdPcWSjNRPhiiLOKu.jpg", "adult": false, "overview": "Seasoned musician Jackson Maine discovers \u2014 and falls in love with \u2014 struggling artist Ally. She has just about given up on her dream to make it big as a singer \u2014 until Jack coaxes her into the spotlight. But even as Ally's career takes off, the personal side of their relationship is breaking down, as Jack fights an ongoing battle with his own internal demons.", "poster_path": "/wrFpXMNBRj2PBiN4Z5kix51XaIZ.jpg", "popularity": 32.943}, {"adult": false, "backdrop_path": "/ppDnBvf0f7vCZHRLtDjazpYHdTF.jpg", "genre_ids": [35, 10402, 10749], "id": 13368, "original_language": "en", "original_title": "White Christmas", "overview": "Two talented song-and-dance men team up after the war to become one of the hottest acts in show business. In time they befriend and become romantically involved with the beautiful Haynes sisters who comprise a sister act.", "poster_path": "/A5kBQsHKbIptxJyELEpHQJROCRj.jpg", "release_date": "1954-10-14", "title": "White Christmas", "video": false, "vote_average": 7.4, "vote_count": 250, "popularity": 16.622}, {"adult": false, "backdrop_path": "/3eAudH9hkkr451VoAZPLEQVy5wX.jpg", "genre_ids": [35, 18, 10402, 10749], "id": 6282, "original_language": "en", "original_title": "Coyote Ugly", "overview": "Graced with a velvet voice, 21-year-old Violet Sanford heads to New York to pursue her dream of becoming a songwriter only to find her aspirations sidelined by the accolades and notoriety she receives at her \"day\" job as a barmaid at Coyote Ugly. The \"Coyotes\" as they are affectionately called tantalize customers and the media alike with their outrageous antics, making Coyote Ugly the watering hole for guys on the prowl.", "poster_path": "/p3nIrS9rkdVmMmgKAWtGsmAnhGV.jpg", "release_date": "2000-07-30", "title": "Coyote Ugly", "video": false, "vote_average": 6.1, "vote_count": 1166, "popularity": 20.571}, {"id": 407655, "video": false, "vote_count": 421, "vote_average": 6.8, "title": "A Cinderella Story: If the Shoe Fits", "release_date": "2016-08-02", "original_language": "en", "original_title": "A Cinderella Story: If the Shoe Fits", "genre_ids": [35, 14, 10402, 10751], "backdrop_path": "/svYzELCLW0NGVEuvNraA4W7Hmm9.jpg", "adult": false, "overview": "A contemporary musical version of the classic Cinderella story in which the servant step daughter hope to compete in a musical competition for a famous pop star.", "poster_path": "/prZSNnK5dkYcflsbdOsVVvqasZ5.jpg", "popularity": 23.748}, {"id": 11887, "video": false, "vote_count": 2347, "vote_average": 6.5, "title": "High School Musical 3: Senior Year", "release_date": "2008-10-11", "original_language": "en", "original_title": "High School Musical 3: Senior Year", "genre_ids": [35, 18, 10402, 10749, 10751], "backdrop_path": "/daSGxGZL2nNjGZKkAF5ain3lmOx.jpg", "adult": false, "overview": "It's almost graduation day for high school seniors Troy, Gabriella, Sharpay, Chad, Ryan and Taylor \u2015 and the thought of heading off in separate directions after leaving East High has these Wildcats thinking they need to do something they'll remember forever. Together with the rest of the Wildcats, they stage a spring musical reflecting their hopes and fears about the future and their unforgettable experiences growing up together. But with graduation approaching and college plans in question, what will become of the dreams, romances, and friendships of East High's senior Wildcats?", "poster_path": "/ewZpH2QIfPQ0VIn9lPf7MHbLbl4.jpg", "popularity": 19.967}, {"adult": false, "backdrop_path": "/3mhNnNmfCGrjyVEZhjWRVcjMOSi.jpg", "genre_ids": [14, 16, 10749, 10751], "id": 54113, "original_language": "en", "original_title": "The Swan Princess: Escape from Castle Mountain", "overview": "The first wedding anniversary of Princess Odette and Prince Derek is distracted by field fires set by Knuckles. His master Clavius, wants to conquer the world, and he needs to capture a giant orb to do that. Clavius kidnaps Queen Uberta and Odette with Derek have to save her.", "poster_path": "/oTEgvTpAIugS7OH6oIoVZkmV3C3.jpg", "release_date": "1997-01-01", "title": "The Swan Princess: Escape from Castle Mountain", "video": false, "vote_average": 6.0, "vote_count": 198, "popularity": 15.715}, {"adult": false, "backdrop_path": "/90kmxuSwU28dVy1ghVSHI4x1wb8.jpg", "genre_ids": [35, 18, 37], "id": 537996, "original_language": "en", "original_title": "The Ballad of Buster Scruggs", "overview": "Vignettes weaving together the stories of six individuals in the old West at the end of the Civil War. Following the tales of a sharp-shooting songster, a wannabe bank robber, two weary traveling performers, a lone gold prospector, a woman traveling the West to an uncertain future, and a motley crew of strangers undertaking a carriage ride.", "poster_path": "/voxl654m7p36y8FLu8oQD7dfwwK.jpg", "release_date": "2018-11-09", "title": "The Ballad of Buster Scruggs", "video": false, "vote_average": 7.2, "vote_count": 2072, "popularity": 15.524}, {"id": 506574, "video": false, "vote_count": 484, "vote_average": 7.7, "title": "Descendants 3", "release_date": "2019-08-09", "original_language": "en", "original_title": "Descendants 3", "genre_ids": [12, 10402, 10751, 10770], "backdrop_path": "/iBJCHz6wWgyxbDmUD2Wk5huxbwS.jpg", "adult": false, "overview": "The teenagers of Disney's most infamous villains return to the Isle of the Lost to recruit a new batch of villainous offspring to join them at Auradon Prep.", "poster_path": "/7IRy0iHdaS0JI3ng4ZYlk5gLSFn.jpg", "popularity": 43.276}, {"adult": false, "backdrop_path": "/5OeY4U2rzePxWq2rkqMajUx2gz7.jpg", "genre_ids": [16, 10751, 12, 14, 10749], "id": 812, "original_language": "en", "original_title": "Aladdin", "overview": "Princess Jasmine grows tired of being forced to remain in the palace, so she sneaks out into the marketplace, in disguise, where she meets street-urchin Aladdin.  The couple falls in love, although Jasmine may only marry a prince.  After being thrown in jail, Aladdin becomes embroiled in a plot to find a mysterious lamp, with which the evil Jafar hopes to rule the land.", "poster_path": "/mjKozYRuHc9j7SmiXmbVmCiAM0A.jpg", "release_date": "1992-11-25", "title": "Aladdin", "video": false, "vote_average": 7.6, "vote_count": 7288, "popularity": 46.629}, {"adult": false, "backdrop_path": "/6bnI08rrGXRkngRqJWCMXDZuJ1j.jpg", "genre_ids": [35, 10402], "id": 254470, "original_language": "en", "original_title": "Pitch Perfect 2", "overview": "The Bellas are back, and they are better than ever. After being humiliated in front of none other than the President of the United States of America, the Bellas are taken out of the Aca-Circuit. In order to clear their name, and regain their status, the Bellas take on a seemingly impossible task: winning an international competition no American team has ever won. In order to accomplish this monumental task, they need to strengthen the bonds of friendship and sisterhood and blow away the competition with their amazing aca-magic! With all new friends and old rivals tagging along for the trip, the Bellas can hopefully accomplish their dreams.", "poster_path": "/qSjruLiFB4uqRtz2xheQPxG8uaB.jpg", "release_date": "2015-05-07", "title": "Pitch Perfect 2", "video": false, "vote_average": 6.8, "vote_count": 3898, "popularity": 27.354}], "total_pages": 159, "total_results": 3180}, "recommendations": {"page": 1, "results": [], "total_pages": 1, "total_results": 0}, "credits": {"cast": [{"cast_id": 3, "character": "Katie Blane", "credit_id": "56e44216c3a3685aa00039b1", "gender": 1, "id": 94928, "name": "Alice Faye", "order": 2, "profile_path": "/x4ld83LmBnJMpSyQO6ef2u5PGKP.jpg"}, {"cast_id": 4, "character": "Lily Blane", "credit_id": "56e4423292514109d8002230", "gender": 1, "id": 64838, "name": "Betty Grable", "order": 3, "profile_path": "/gVQkYy22SpHsZbPb4xyNNORrW6Z.jpg"}, {"cast_id": 5, "character": "Skeets Harrigan", "credit_id": "56e4427492514103c50003f2", "gender": 2, "id": 70820, "name": "John Payne", "order": 4, "profile_path": "/2PRAP6XPLMQFK5eeJ63A7g0jvw.jpg"}, {"cast_id": 6, "character": "Harry Calhoun", "credit_id": "56e4428cc3a3685a90003c8f", "gender": 2, "id": 14028, "name": "Jack Oakie", "order": 5, "profile_path": "/rSo16WdKISZTAZwffjdQTBO26DU.jpg"}, {"cast_id": 7, "character": "Nora Bayes", "credit_id": "56e442afc3a3685aa400381b", "gender": 1, "id": 590740, "name": "Esther Ralston", "order": 6, "profile_path": "/9Lya0bdMDHtWBxGlF5jsdmOgPec.jpg"}, {"cast_id": 8, "character": "Casey", "credit_id": "56e442c7c3a3685aa8003667", "gender": 2, "id": 30005, "name": "Allen Jenkins", "order": 7, "profile_path": "/t2ZumhV1ztWifv0uJHLfSztdUsM.jpg"}, {"cast_id": 9, "character": "Reggie Carstairs", "credit_id": "56e4430992514103c500040a", "gender": 2, "id": 29127, "name": "John Loder", "order": 8, "profile_path": "/iAzLp7ELhCFdjriFNMsxVh1iitb.jpg"}, {"cast_id": 10, "character": "Joe Codd", "credit_id": "56e44321c3a3685aa8003679", "gender": 2, "id": 3339, "name": "Elisha Cook Jr.", "order": 9, "profile_path": "/lM7n3Feg9t2mkcMUmdJ5fCi54wJ.jpg"}, {"cast_id": 26, "character": "Boy", "credit_id": "57c20f5cc3a36806bf004085", "gender": 2, "id": 120781, "name": "Ben Carter", "order": 11, "profile_path": "/iPv7r65PlXh9bB6FhCJvz9stbuh.jpg"}, {"cast_id": 27, "character": "Harvey Raymond", "credit_id": "57c20f72c3a3685334008862", "gender": 2, "id": 119755, "name": "Fred Keating", "order": 12, "profile_path": "/uAmkcNOfDoI6o8t067HF8V53qzq.jpg"}, {"cast_id": 28, "character": "Sheik", "credit_id": "57c20f82c3a3685331008892", "gender": 2, "id": 5464, "name": "Billy Gilbert", "order": 13, "profile_path": "/7Kbya2ek3mGShtJBWKouRLi8F2G.jpg"}, {"cast_id": 29, "character": "Telephone Operator", "credit_id": "57c20f93c3a36806bf0040ad", "gender": 0, "id": 1246620, "name": "Lillian Porter", "order": 14, "profile_path": null}, {"cast_id": 30, "character": "Specialty", "credit_id": "57c20fa3c3a36865ac0087cc", "gender": 0, "id": 1671172, "name": "Princess Vanessa Ammon", "order": 15, "profile_path": null}, {"cast_id": 31, "character": "Specialty", "credit_id": "57c20fb79251414412003e71", "gender": 0, "id": 1298835, "name": "The Brian Sisters", "order": 16, "profile_path": null}, {"cast_id": 32, "character": "Specialty", "credit_id": "57c20fcec3a3680633003e91", "gender": 0, "id": 1671174, "name": "Roberts Brothers", "order": 17, "profile_path": null}, {"cast_id": 33, "character": "Bert Melville", "credit_id": "57c20fde9251414471003ec3", "gender": 2, "id": 80649, "name": "Tyler Brooke", "order": 18, "profile_path": "/wro7pwBOg7g3Jv7IaW8TlivrOZn.jpg"}, {"cast_id": 34, "character": "Hotel Clerk", "credit_id": "57c20ff09251414a07007fa9", "gender": 2, "id": 34186, "name": "Hal K. Dawson", "order": 19, "profile_path": "/uR2fZtTE7SCi4MNTcta86Poqhk1.jpg"}, {"cast_id": 35, "character": "Hotel Manager", "credit_id": "57c20fffc3a368067d003e12", "gender": 2, "id": 95729, "name": "William B. Davidson", "order": 20, "profile_path": "/6MmhkoDiuyoW7HxlJ6F42kPkm6J.jpg"}, {"cast_id": 36, "character": "Lord Stanley", "credit_id": "57c21012c3a36853340088ba", "gender": 2, "id": 14691, "name": "Lionel Pape", "order": 21, "profile_path": "/z03xm98ewU9Qu0FO0R1fGjudYnc.jpg"}, {"cast_id": 37, "character": "Stage Doorman", "credit_id": "57c21020c3a36806bf0040eb", "gender": 2, "id": 100763, "name": "Billy Bevan", "order": 22, "profile_path": "/b71bTzqUZ60ij9aErlaat6BWkTK.jpg"}, {"cast_id": 38, "character": "Dumb Guy", "credit_id": "57c210309251413ac60083c9", "gender": 2, "id": 120046, "name": "Dewey Robinson", "order": 23, "profile_path": "/7jbd6WBzj7mgNqTVqSraifT09UE.jpg"}, {"cast_id": 39, "character": "Manager", "credit_id": "57c21040c3a36806bf004103", "gender": 2, "id": 103501, "name": "Robert Emmett Keane", "order": 24, "profile_path": "/801kNUBxwr1BDuTS0rM6wr1469s.jpg"}, {"cast_id": 40, "character": "Announcer", "credit_id": "57c2104ec3a3685331008917", "gender": 2, "id": 139179, "name": "John Sheehan", "order": 25, "profile_path": "/A5RV9Wx4YdNXsSLbVZaOINYlSAy.jpg"}, {"cast_id": 41, "character": "Mike Buckner", "credit_id": "57c2105cc3a36806fa003e1c", "gender": 0, "id": 128641, "name": "George Watts", "order": 26, "profile_path": null}, {"cast_id": 42, "character": "Recruit Poster Peddler in Montage", "credit_id": "57c21082c3a3680690003b67", "gender": 2, "id": 2936, "name": "Ted Billings", "order": 27, "profile_path": "/aYZrAL3asHczZlVE2ZXba9LkUcV.jpg"}, {"cast_id": 43, "character": "One of The Brian Sisters", "credit_id": "57c2109dc3a3685331008949", "gender": 1, "id": 1277033, "name": "Betty Brian", "order": 28, "profile_path": null}, {"cast_id": 44, "character": "One of The Brian Sisters", "credit_id": "57c210aa9251414412003ee9", "gender": 0, "id": 1277034, "name": "Doris Brian", "order": 29, "profile_path": null}, {"cast_id": 45, "character": "One of The Brian Sisters", "credit_id": "57c210bac3a368067d003e96", "gender": 0, "id": 1277032, "name": "Gwen Brian", "order": 30, "profile_path": null}, {"cast_id": 46, "character": "Newsboy", "credit_id": "57c210d69251414471003f5f", "gender": 2, "id": 1472510, "name": "Bobby Callahan", "order": 31, "profile_path": null}, {"cast_id": 47, "character": "", "credit_id": "57c210e8c3a36806fa003e7b", "gender": 0, "id": 1142371, "name": "Maurice Costello", "order": 32, "profile_path": "/yMalNKqJyPiXtCY4hEkYYG5Y2AP.jpg"}, {"cast_id": 48, "character": "Man in Audience", "credit_id": "57c210f5c3a36806fa003e7f", "gender": 2, "id": 975597, "name": "Franklyn Farnum", "order": 33, "profile_path": "/273KbcYjCmFpDMUcFtNKf7hNTRV.jpg"}, {"cast_id": 49, "character": "Army Sergeant", "credit_id": "57c211059251412c73008778", "gender": 2, "id": 3262, "name": "James Flavin", "order": 34, "profile_path": "/quxPBveIsUgat0N8VePdsHpsQnq.jpg"}, {"cast_id": 50, "character": "Nightclub Extra", "credit_id": "57c211179251414a0700805e", "gender": 1, "id": 121323, "name": "Bess Flowers", "order": 35, "profile_path": "/akbW8jJl8GSXFpixFaobMOqvNv4.jpg"}, {"cast_id": 51, "character": "Ringsider", "credit_id": "57c21127c3a36853310089a9", "gender": 2, "id": 1181275, "name": "Kit Guard", "order": 36, "profile_path": "/qTRvlchIyQcywHHkjHHdQUFhFsS.jpg"}, {"cast_id": 52, "character": "Man Reading War Declaration Headline", "credit_id": "57c21139c3a368533400896d", "gender": 2, "id": 120199, "name": "Eddie Hall", "order": 37, "profile_path": "/3MzgRiUyIHUvpPPFDSTGPC9ozPV.jpg"}, {"cast_id": 53, "character": "Kid Skeets' Cornerman", "credit_id": "57c2114a9251414471003f90", "gender": 0, "id": 115331, "name": "John Indrisano", "order": 38, "profile_path": "/p6WGIhWTeGQn7HXpQOvususcOiX.jpg"}, {"cast_id": 54, "character": "Referee", "credit_id": "57c21163c3a36806bf0041de", "gender": 2, "id": 1173157, "name": "Larry McGrath", "order": 39, "profile_path": null}, {"cast_id": 55, "character": "Two Punch Hogan", "credit_id": "57c21172c3a36806fa003ec2", "gender": 2, "id": 1422458, "name": "Pat McKee", "order": 40, "profile_path": null}, {"cast_id": 56, "character": "Dancer", "credit_id": "57c21186c3a36806fa003ecf", "gender": 0, "id": 1671175, "name": "Bud Mercer", "order": 41, "profile_path": null}, {"cast_id": 57, "character": "Dancer", "credit_id": "57c211989251413a3b008628", "gender": 0, "id": 1018954, "name": "Jim Mercer", "order": 42, "profile_path": null}, {"cast_id": 58, "character": "Bit Role", "credit_id": "57c211a99251412c730087b8", "gender": 2, "id": 120700, "name": "Louis Mercier", "order": 43, "profile_path": "/vFZTRZe6BPHlnCEH9zxBu88V7jr.jpg"}, {"cast_id": 59, "character": "Porter at Railroad Station", "credit_id": "57c211bec3a3680690003c05", "gender": 0, "id": 1067843, "name": "Charles R. Moore", "order": 44, "profile_path": "/s2S1OOVnlBCKOo3Z3Z6nvlKPMqc.jpg"}, {"cast_id": 60, "character": "One of The Nicholas Brothers", "credit_id": "57c211cf9251412c730087cc", "gender": 2, "id": 1005050, "name": "Fayard Nicholas", "order": 45, "profile_path": null}, {"cast_id": 61, "character": "One of The Nicholas Brothers", "credit_id": "57c211dfc3a36806bf00422f", "gender": 2, "id": 103934, "name": "Harold Nicholas", "order": 46, "profile_path": "/xXQbLSHSV1Zn8S5y0BMHArCHYKC.jpg"}, {"cast_id": 62, "character": "Fighter Nick Palerno", "credit_id": "57c211efc3a3685331008a1d", "gender": 0, "id": 128643, "name": "Jack Roper", "order": 47, "profile_path": null}, {"cast_id": 63, "character": "Dancer", "credit_id": "57c211ff9251414a070080e3", "gender": 0, "id": 557480, "name": "Mary Stewart", "order": 48, "profile_path": null}, {"cast_id": 64, "character": "Marching Doughboy", "credit_id": "57c2120f9251414471004008", "gender": 2, "id": 131003, "name": "Harry Strang", "order": 49, "profile_path": "/d8s5zedUa9b2gio2nOdj76qxbE0.jpg"}, {"cast_id": 65, "character": "Bit Part", "credit_id": "57c2121dc3a3680633003fe9", "gender": 0, "id": 1671176, "name": "Dorothy Tuttle", "order": 50, "profile_path": null}, {"cast_id": 66, "character": "Police Desk Sergeant", "credit_id": "57c21232c3a3680633003ff8", "gender": 2, "id": 30160, "name": "Charles C. Wilson", "order": 51, "profile_path": "/awAONzbcbB4Pw8JSIRYdVfKYG12.jpg"}], "crew": [{"credit_id": "5769f751c3a36833700017f5", "department": "Art", "gender": 0, "id": 7337, "job": "Art Direction", "name": "Joseph C. Wright", "profile_path": null}, {"credit_id": "5769f760c3a36829a9000d02", "department": "Costume & Make-Up", "gender": 2, "id": 7652, "job": "Costume Design", "name": "Travis Banton", "profile_path": "/hf1TZE9c0qvgaXmYK6kBWfZHYzz.jpg"}, {"credit_id": "5769f724c3a368286b000bbd", "department": "Sound", "gender": 2, "id": 8503, "job": "Original Music Composer", "name": "Alfred Newman", "profile_path": "/498k6KmplSJPvWzAecS7eUnaBNg.jpg"}, {"credit_id": "5769f74bc3a36829a9000cf6", "department": "Art", "gender": 2, "id": 8506, "job": "Art Direction", "name": "Richard Day", "profile_path": "/vzJieFC4Dk7VnKUMIXguf0jNbbf.jpg"}, {"credit_id": "5769f7589251416de5000cf9", "department": "Art", "gender": 2, "id": 8508, "job": "Set Decoration", "name": "Thomas Little", "profile_path": null}, {"credit_id": "5769f781925141174d0014db", "department": "Sound", "gender": 0, "id": 8511, "job": "Sound", "name": "Roger Heman Sr.", "profile_path": null}, {"credit_id": "5769f72cc3a368286b000bc2", "department": "Camera", "gender": 2, "id": 13270, "job": "Director of Photography", "name": "Leon Shamroy", "profile_path": "/gyUisg4ciVyXPy0tCMyt5XOqewF.jpg"}, {"credit_id": "5769f71ac3a368295e000d33", "department": "Sound", "gender": 2, "id": 14647, "job": "Original Music Composer", "name": "Cyril J. Mockridge", "profile_path": null}, {"credit_id": "5769f6fe9251416db8000d23", "department": "Writing", "gender": 2, "id": 29347, "job": "Screenplay", "name": "Robert Ellis", "profile_path": "/g2yuBzKRWpoiEKShpSZQh1UdXe4.jpg"}, {"credit_id": "5769f7449251416e6b000c6a", "department": "Editing", "gender": 2, "id": 19334, "job": "Editor", "name": "Walter Thompson", "profile_path": null}, {"credit_id": "52fe4a92c3a36847f81d5d73", "department": "Directing", "gender": 2, "id": 80570, "job": "Director", "name": "Walter Lang", "profile_path": "/yn0CkRMug4xZOnPK7CIEfX3WDg3.jpg"}, {"credit_id": "5769f712925141174d0014ad", "department": "Production", "gender": 0, "id": 88972, "job": "Associate Producer", "name": "Kenneth Macgowan", "profile_path": null}, {"credit_id": "5769f707c3a36835cf001365", "department": "Writing", "gender": 0, "id": 120464, "job": "Screenplay", "name": "Helen Logan", "profile_path": null}, {"credit_id": "5769f77792514153b2003aa0", "department": "Sound", "gender": 2, "id": 958515, "job": "Sound", "name": "Eugene Grossman", "profile_path": null}, {"credit_id": "5769f7699251416e6b000c77", "department": "Directing", "gender": 0, "id": 1373780, "job": "Assistant Director", "name": "Gene Bryant", "profile_path": null}]}}