{"adult": false, "backdrop_path": "/vb3jLPfPc7ZDdyYEQKekykdO767.jpg", "belongs_to_collection": null, "budget": 0, "genres": [{"id": 35, "name": "Comedy"}], "homepage": null, "id": 108352, "imdb_id": "tt0033725", "original_language": "en", "original_title": "Honeymoon for Three", "overview": "Noted writer Kenneth Bixby, in love with his witty secretary Anne Rogers, is on a book tour when he meets up with a former college fling with a loopy Danish girl which he barely remembers. She remembers him, very well.", "popularity": 1.459, "poster_path": "/sNy5kxpDs2E4AmDMQHdWryayIlD.jpg", "production_companies": [{"id": 174, "logo_path": "/IuAlhI9eVC9Z8UQWOIDdWRKSEJ.png", "name": "Warner Bros. Pictures", "origin_country": "US"}], "production_countries": [{"iso_3166_1": "US", "name": "United States of America"}], "release_date": "1941-01-18", "revenue": 0, "runtime": 75, "spoken_languages": [{"iso_639_1": "en", "name": "English"}], "status": "Released", "tagline": "It's a honey of a picture, so sit back and enjoy it.", "title": "Honeymoon for Three", "video": false, "vote_average": 4.0, "vote_count": 1, "keywords": {"keywords": [{"id": 7335, "name": "lawsuit"}, {"id": 11677, "name": "secretary"}, {"id": 15160, "name": "divorce"}, {"id": 33386, "name": "old flame"}, {"id": 155251, "name": "novelist"}]}, "similar": {"page": 1, "results": [{"adult": false, "backdrop_path": "/hm8Gux0946IfeJ1PZwztOo6lVHH.jpg", "genre_ids": [18, 36, 35], "id": 450322, "original_language": "en", "original_title": "The Man Who Invented Christmas", "overview": "In 1843, despite the fact that Dickens is a successful writer, the failure of his latest book puts his career at a crossroads, until the moment when, struggling with inspiration and confronting reality with his childhood memories, a new character is born in the depths of his troubled mind; an old, lonely, embittered man, so vivid, so human, that a whole world grows around him, a story so inspiring that changed the meaning of Christmas forever.", "poster_path": "/xYCuRgEKynGurSEooxDa9pQPF7n.jpg", "release_date": "2017-10-12", "title": "The Man Who Invented Christmas", "video": false, "vote_average": 6.7, "vote_count": 395, "popularity": 13.295}, {"adult": false, "backdrop_path": "/h0jlcOISKcrVG4IE4p5IyZGrMhn.jpg", "genre_ids": [35, 80], "id": 212, "original_language": "en", "original_title": "Arsenic and Old Lace", "overview": "Mortimer Brewster, a newspaper drama critic, playwright and author known for his diatribes against marriage, suddenly falls in love and gets married;  but when he makes a quick trip home to tell his two maiden aunts, he finds out his aunts' hobby - killing lonely old men and burying them in the cellar!", "poster_path": "/sqfuyh9N0K8xHQFh5Lfj6W0rODs.jpg", "release_date": "1944-09-01", "title": "Arsenic and Old Lace", "video": false, "vote_average": 7.6, "vote_count": 442, "popularity": 15.626}, {"id": 12102, "video": false, "vote_count": 1128, "vote_average": 7.5, "title": "Kramer vs. Kramer", "release_date": "1979-12-18", "original_language": "en", "original_title": "Kramer vs. Kramer", "genre_ids": [18], "backdrop_path": "/aE33zDunu8FTj76IXqJmHVbcRWg.jpg", "adult": false, "overview": "Ted Kramer is a career man for whom his work comes before his family. His wife Joanna cannot take this anymore, so she decides to leave him. Ted is now faced with the tasks of housekeeping and taking care of himself and their young son Billy.", "poster_path": "/oyYtH37h8rLUxlERoD49losVvlg.jpg", "popularity": 10.452}, {"id": 8998, "video": false, "vote_count": 315, "vote_average": 5.1, "title": "Friends with Money", "release_date": "2006-09-07", "original_language": "en", "original_title": "Friends with Money", "genre_ids": [35, 18, 10749], "backdrop_path": "/en0lEQ8neLgQ85sEZAC0hmsvyiW.jpg", "adult": false, "overview": "After she quits her lucrative job, Olivia finds herself unsure about her future and her relationships with her successful and wealthy friends.", "poster_path": "/138DFtHjGQcDK4vQavLJ51xEBjZ.jpg", "popularity": 11.295}, {"adult": false, "backdrop_path": "/bQW1TnxHlmkWof0vsALj4HBkoxj.jpg", "genre_ids": [18, 10749], "id": 51828, "original_language": "en", "original_title": "One Day", "overview": "A romantic comedy centered on Dexter and Emma, who first meet during their graduation in 1988 and proceed to keep in touch regularly. The film follows what they do on July 15 annually, usually doing something together.", "poster_path": "/xzOz17yC3K6SZWtWylXimcHUqpD.jpg", "release_date": "2011-03-02", "title": "One Day", "video": false, "vote_average": 7.2, "vote_count": 2343, "popularity": 16.744}, {"adult": false, "backdrop_path": "/ojsY0XyCSsJvm0n7YTwumQcvBqT.jpg", "genre_ids": [9648, 53], "id": 1586, "original_language": "en", "original_title": "Secret Window", "overview": "Mort Rainey, a writer just emerging from a painful divorce with his ex-wife, is stalked at his remote lake house by a psychotic stranger and would-be scribe who claims Rainey swiped his best story idea. But as Rainey endeavors to prove his innocence, he begins to question his own sanity.", "poster_path": "/f5t7Df50xjniLlE80ty2dYsZBqI.jpg", "release_date": "2004-03-12", "title": "Secret Window", "video": false, "vote_average": 6.5, "vote_count": 2126, "popularity": 19.288}, {"adult": false, "backdrop_path": "/3JwMtXzTndAQDkRtg43bG6EEkf4.jpg", "genre_ids": [18, 10749], "id": 23830, "original_language": "en", "original_title": "Last Night", "overview": "The story follows a married couple, apart for a night while the husband takes a business trip with a colleague to whom he's attracted. While he's resisting temptation, his wife encounters her past love.", "poster_path": "/dspTY7C3IHXsMm5dZVQqqgfPHbN.jpg", "release_date": "2010-05-11", "title": "Last Night", "video": false, "vote_average": 6.2, "vote_count": 498, "popularity": 14.629}, {"adult": false, "backdrop_path": "/sqq5nDBcgTDrIJ3Hcqq8q4a1iut.jpg", "genre_ids": [35, 18, 14, 10749], "id": 1262, "original_language": "en", "original_title": "Stranger Than Fiction", "overview": "Harold Crick is a lonely IRS agent whose mundane existence is transformed when he hears a mysterious voice narrating his life.", "poster_path": "/AtjCCvfMq9kmjwjbVwTJ0mWG7zp.jpg", "release_date": "2006-09-09", "title": "Stranger Than Fiction", "video": false, "vote_average": 7.2, "vote_count": 1339, "popularity": 12.098}, {"adult": false, "backdrop_path": "/ry3ov4M7rs3jKObMjELOqd5S0K3.jpg", "genre_ids": [35, 10749], "id": 271718, "original_language": "en", "original_title": "Trainwreck", "overview": "Having thought that monogamy was never possible, a commitment-phobic career woman may have to face her fears when she meets a good guy.", "poster_path": "/2USk7mhiCXRkU9NzttXCzOjg2iV.jpg", "release_date": "2015-07-17", "title": "Trainwreck", "video": false, "vote_average": 5.8, "vote_count": 1863, "popularity": 23.629}, {"id": 72113, "video": false, "vote_count": 1665, "vote_average": 7.2, "title": "Carnage", "release_date": "2011-09-16", "original_language": "en", "original_title": "Carnage", "genre_ids": [35, 18], "backdrop_path": "/9KGWIK8dylbvQTa4LeB2ESKH8FC.jpg", "adult": false, "overview": "After 11-year-old Zachary Cowan strikes his classmate across the face with a stick after an argument, the victim's parents invite Zachary's parents to their Brooklyn apartment to deal with the incident in a civilized manner.", "poster_path": "/1nhY2l0SffJ5nK8FaeiRaMblN3d.jpg", "popularity": 17.094}, {"id": 24122, "video": false, "vote_count": 452, "vote_average": 6.1, "title": "The Rebound", "release_date": "2009-09-16", "original_language": "en", "original_title": "The Rebound", "genre_ids": [35, 10749], "backdrop_path": "/tHskgc02jDVnhsPSmPpfEZeLL5v.jpg", "adult": false, "overview": "Upon discovering her husband's infidelity, Sandy leaves the suburbs and moves into the city. There, she befriends Aram, a guy whose wife only married him so she could get a green card. Sandy hires Aram to be her nanny, and  it isn't long until Aram and Sandy find out they get along wonderfully and start to date. But is their relationship real or is it, in fact, just a rebound for both of them?", "poster_path": "/nkkFebe8ZgE843rnTrlaRWJy0g9.jpg", "popularity": 18.716}, {"id": 2978, "video": false, "vote_count": 2376, "vote_average": 6.4, "title": "Ghostbusters II", "release_date": "1989-06-16", "original_language": "en", "original_title": "Ghostbusters II", "genre_ids": [35, 14], "backdrop_path": "/tDlsTDtC15kJd4vrkQkxqoW4Pse.jpg", "adult": false, "overview": "Five years after they defeated Gozer, the Ghostbusters are out of business. When Dana begins to have ghost problems again, the boys come out of retirement to aid her and hopefully save New York City from a new paranormal threat.", "poster_path": "/4nN0EYNbOWHJ9UO39maO5Kvcdfa.jpg", "popularity": 24.755}, {"id": 376659, "video": false, "vote_count": 2895, "vote_average": 6.5, "title": "Bad Moms", "release_date": "2016-07-28", "original_language": "en", "original_title": "Bad Moms", "genre_ids": [35], "backdrop_path": "/elPpPBuYB2Zn5wFwz2FSlJlKUjp.jpg", "adult": false, "overview": "When three overworked and under-appreciated moms are pushed beyond their limits, they ditch their conventional responsibilities for a jolt of long overdue freedom, fun, and comedic self-indulgence.", "poster_path": "/9PaIkUnfOcU1wi5cFbamnmAkjEs.jpg", "popularity": 16.706}, {"id": 400928, "video": false, "vote_count": 2317, "vote_average": 7.9, "title": "Gifted", "release_date": "2017-04-12", "original_language": "en", "original_title": "Gifted", "genre_ids": [35, 18, 10751], "backdrop_path": "/gYtXT7fJNBRZBbBulO11DoRveLT.jpg", "adult": false, "overview": "Frank, a single man raising his child prodigy niece Mary, is drawn into a custody battle with his mother.", "poster_path": "/9Ts7Vc4wLlpI9oox9mkVUE1tBHy.jpg", "popularity": 21.194}, {"id": 11130, "video": false, "vote_count": 1981, "vote_average": 6.5, "title": "The Princess Diaries 2: Royal Engagement", "release_date": "2004-08-06", "original_language": "en", "original_title": "The Princess Diaries 2: Royal Engagement", "genre_ids": [35, 18, 10749, 10751], "backdrop_path": "/pmOXaAK8hteMlCiMZyyDJENHCZI.jpg", "adult": false, "overview": "Mia Thermopolis is now a college graduate and on her way to Genovia to take up her duties as princess. Her best friend Lilly also joins her for the summer. Mia continues her 'princess lessons'- riding horses side-saddle, archery, and other royal. But her complicated life is turned upside down once again when she not only learns that she is to take the crown as queen earlier than expected...", "poster_path": "/n98DlNl0DIDAn6tYYqt51bSy5KV.jpg", "popularity": 30.694}, {"id": 225886, "video": false, "vote_count": 2904, "vote_average": 5.3, "title": "Sex Tape", "release_date": "2014-07-17", "original_language": "en", "original_title": "Sex Tape", "genre_ids": [35], "backdrop_path": "/82j1VNKMnDx7ZA7Pm06vm0XMKas.jpg", "adult": false, "overview": "When Jay and Annie first got together, their romantic connection was intense \u2013 but ten years and two kids later, the flame of their love needs a spark.  To kick things up a notch, they decide \u2013 why not? \u2013 to make a video of themselves trying out every position in The Joy of Sex in one marathon three-hour session.  It seems like a great idea \u2013 until they discover that their most private video is no longer private.  With their reputations on the line, they know they\u2019re just one click away from being laid bare to the world... but as their race to reclaim their video leads to a night they'll never forget, they'll find that their video will expose even more than they bargained for.", "poster_path": "/2BMmIPGu5ZbTrwXwomdSUuTB2Ul.jpg", "popularity": 30.861}, {"adult": false, "backdrop_path": "/fJQ5kjLx4UdK05MC323Vlzwr6S8.jpg", "genre_ids": [35, 18, 36], "id": 140823, "original_language": "en", "original_title": "Saving Mr. Banks", "overview": "Author P.L. Travers travels from London to Hollywood as Walt Disney Pictures adapts her novel Mary Poppins for the big screen.", "poster_path": "/mvs3reS18RP6IhjLwwLeVtkoeg0.jpg", "release_date": "2013-11-16", "title": "Saving Mr. Banks", "video": false, "vote_average": 7.4, "vote_count": 2230, "popularity": 11.476}, {"id": 262391, "video": false, "vote_count": 2386, "vote_average": 6.8, "title": "Serial (Bad) Weddings", "release_date": "2014-04-16", "original_language": "fr", "original_title": "Qu'est-ce qu'on a fait au Bon Dieu", "genre_ids": [35], "backdrop_path": "/umRJ4di4xbpv6jAddHczdt1723S.jpg", "adult": false, "overview": "A catholic French couple sees their life upside down when their four daughters get married to men of different religion and origins.", "poster_path": "/5Hw0GuPahcTCMsJNaLn37OVeXB3.jpg", "popularity": 16.618}, {"id": 239563, "video": false, "vote_count": 1160, "vote_average": 7.1, "title": "St. Vincent", "release_date": "2014-10-09", "original_language": "en", "original_title": "St. Vincent", "genre_ids": [35], "backdrop_path": "/h6ypHCyuc8ew3AgjXJljy3AsHUE.jpg", "adult": false, "overview": "A young boy whose parents just divorced finds an unlikely friend and mentor in the misanthropic, bawdy, hedonistic, war veteran who lives next door.", "poster_path": "/w0hzr4eQBk1X4m63fb7sOSt9Bnn.jpg", "popularity": 12.012}, {"id": 567609, "video": false, "vote_count": 855, "vote_average": 6.8, "title": "Ready or Not", "release_date": "2019-08-21", "original_language": "en", "original_title": "Ready or Not", "genre_ids": [35, 27, 9648, 53], "backdrop_path": "/ubqaGfwYxZMaTEVfhPghF87tzYm.jpg", "adult": false, "overview": "A bride's wedding night takes a sinister turn when her eccentric new in-laws force her to take part in a terrifying game.", "poster_path": "/vOl6shtL0wknjaIs6JdKCpcHvg8.jpg", "popularity": 58.557}], "total_pages": 78, "total_results": 1559}, "recommendations": {"page": 1, "results": [], "total_pages": 1, "total_results": 0}, "credits": {"cast": [{"cast_id": 1, "character": "Anne Rogers", "credit_id": "52fe4a98c3a36847f81d7399", "gender": 1, "id": 80994, "name": "Ann Sheridan", "order": 0, "profile_path": "/gc8fsMsN71EF3NtH5l93iDUHHeE.jpg"}, {"cast_id": 2, "character": "Kenneth Bixby", "credit_id": "52fe4a98c3a36847f81d739d", "gender": 2, "id": 20364, "name": "George Brent", "order": 1, "profile_path": "/6l5oztFIchgDrmwo5kfWJh0rWwQ.jpg"}, {"cast_id": 3, "character": "Harvey Wilson", "credit_id": "52fe4a98c3a36847f81d73a1", "gender": 2, "id": 2436, "name": "Charles Ruggles", "order": 2, "profile_path": "/mYzf9Vq3rFizQwk5cXJBFSYAcJI.jpg"}, {"cast_id": 4, "character": "Elizabeth Clochessy", "credit_id": "52fe4a98c3a36847f81d73a5", "gender": 1, "id": 20391, "name": "Jane Wyman", "order": 3, "profile_path": "/e7mRq5fOsVZ2dnTFfuQScDDs2ON.jpg"}, {"cast_id": 5, "character": "Julie Wilson", "credit_id": "52fe4a98c3a36847f81d73a9", "gender": 1, "id": 89684, "name": "Osa Massen", "order": 4, "profile_path": "/f0wSQH6nF7E5aVQcy5Rw37Goa7Z.jpg"}, {"cast_id": 10, "character": "Arthur Westlake", "credit_id": "5542328a9251414af6003cd6", "gender": 2, "id": 14872, "name": "William T. Orr", "order": 5, "profile_path": "/jKlNUwisOKI25tXzzHe18B6liqF.jpg"}, {"cast_id": 11, "character": "Mrs. Pettijohn", "credit_id": "55423296c3a3682a740037d5", "gender": 1, "id": 5740, "name": "Lee Patrick", "order": 6, "profile_path": "/iBLZ08AwlFw2IPMvzfYIhmIwgIn.jpg"}, {"cast_id": 24, "character": "Waiter", "credit_id": "5af0df609251411ecf00021b", "gender": 2, "id": 13819, "name": "Walter Catlett", "order": 7, "profile_path": "/Y5kIRVTNaKuMy8DyrFDP1kwOub.jpg"}, {"cast_id": 25, "character": "Floyd T. Ingram", "credit_id": "5af0df789251411eca0001cf", "gender": 2, "id": 43823, "name": "Herbert Anderson", "order": 8, "profile_path": "/hyE7XgQvBSuc8SmWf39qdAYnSbR.jpg"}, {"cast_id": 26, "character": "Chester T Farrington III", "credit_id": "5af0df959251411ec2000247", "gender": 2, "id": 131442, "name": "Johnny Downs", "order": 9, "profile_path": "/shVecyKb99iqayV3dhrQ5FYJnPM.jpg"}], "crew": [{"credit_id": "5542326cc3a3681da0003d81", "department": "Crew", "gender": 2, "id": 2665, "job": "Additional Dialogue", "name": "Julius J. Epstein", "profile_path": null}, {"credit_id": "55423277c3a36877ee003918", "department": "Crew", "gender": 2, "id": 2666, "job": "Additional Dialogue", "name": "Philip G. Epstein", "profile_path": "/eaU1JzxTarHivVBWYEPjo2IHGyl.jpg"}, {"credit_id": "5af0ddd40e0a26446300013f", "department": "Camera", "gender": 2, "id": 2774, "job": "Director of Photography", "name": "Ernest Haller", "profile_path": null}, {"credit_id": "5af0dd0f0e0a264463000100", "department": "Production", "gender": 2, "id": 4123, "job": "Executive Producer", "name": "Hal B. Wallis", "profile_path": "/lia6xtKaPDmQ68BArDkqxAFj9go.jpg"}, {"credit_id": "5af0de80c3a36837ab00009e", "department": "Costume & Make-Up", "gender": 2, "id": 4127, "job": "Costume Design", "name": "Orry-Kelly", "profile_path": "/zDyC5sYHLtS5Kb3A1QDyoVKXLiL.jpg"}, {"credit_id": "5af0de9b9251411eca000167", "department": "Costume & Make-Up", "gender": 2, "id": 4128, "job": "Makeup Artist", "name": "Perc Westmore", "profile_path": null}, {"credit_id": "5af0de1d9251411ebc00012e", "department": "Editing", "gender": 2, "id": 7126, "job": "Editor", "name": "Rudi Fehr", "profile_path": "/5Px6kpMUB4eMpaOD9YGv9JM0M5w.jpg"}, {"credit_id": "5af0de670e0a26444100015d", "department": "Sound", "gender": 2, "id": 7128, "job": "Sound Recordist", "name": "Oliver S. Garretson", "profile_path": null}, {"credit_id": "5af0de33c3a36837a5000136", "department": "Art", "gender": 2, "id": 7650, "job": "Art Direction", "name": "Max Parker", "profile_path": null}, {"credit_id": "5af0dd37c3a36837bd00014f", "department": "Production", "gender": 2, "id": 14446, "job": "Associate Producer", "name": "Henry Blanke", "profile_path": null}, {"credit_id": "5af0def79251411e9e00019b", "department": "Sound", "gender": 2, "id": 17915, "job": "Music Director", "name": "Leo F. Forbstein", "profile_path": "/m9spsGYn67INEUTmApbRZWtmxUd.jpg"}, {"credit_id": "554232519251414ae6004064", "department": "Directing", "gender": 2, "id": 21305, "job": "Director", "name": "Lloyd Bacon", "profile_path": "/es0nlneJpiNpxZuAQSHfKEvOnXT.jpg"}, {"credit_id": "5af0dee50e0a2644660001cb", "department": "Sound", "gender": 2, "id": 30267, "job": "Orchestrator", "name": "Ray Heindorf", "profile_path": null}, {"credit_id": "5af0deb69251411e7b0001e9", "department": "Sound", "gender": 2, "id": 30268, "job": "Music", "name": "Heinz Roemheld", "profile_path": null}, {"credit_id": "57238a0bc3a368646c001e34", "department": "Writing", "gender": 0, "id": 32994, "job": "Screenplay", "name": "Earl Baldwin", "profile_path": null}]}}