{"adult": false, "backdrop_path": "/3qjS9HhyWKAmTv9c3TV38OztZGN.jpg", "belongs_to_collection": null, "budget": 0, "genres": [{"id": 28, "name": "Action"}], "homepage": null, "id": 108665, "imdb_id": "tt0201470", "original_language": "cn", "original_title": "Bui bun si mun", "overview": "Gao Jian is a lazy and arrogant student of the martial arts school ran by vain Si Fu Shi Chen-chung. One night after his punishment in his school a wounded man reaches his house. He is Jin Tien-yun, a legendary warrior fleeing from a fight in which he was stabbed in a sneak attack and now has to hide from his pursuers, the Three Devils. Gao helps him and in return, Jin decides to teach him some serious kicks. Gao has to live alone for a year after Shi believes that he is traitor of his school. Then he tries to kill him but Jin interferes in order to save Gao and as his wounds are not fixed yet, he gets into a final battle with the three Devils. So it is Gao's turn to seek for revenge.", "popularity": 2.257, "poster_path": "/2yA1XWQl99xjo8sy0pPgAqCPkjd.jpg", "production_companies": [{"id": 5798, "logo_path": "/tmuI9BGXgpWLmokhlxpnG3IGNQB.png", "name": "Shaw Brothers", "origin_country": "HK"}], "production_countries": [{"iso_3166_1": "HK", "name": "Hong Kong"}], "release_date": "1980-05-23", "revenue": 0, "runtime": 92, "spoken_languages": [{"iso_639_1": "zh", "name": "\u666e\u901a\u8bdd"}, {"iso_639_1": "cn", "name": "\u5e7f\u5dde\u8bdd / \u5ee3\u5dde\u8a71"}], "status": "Released", "tagline": "", "title": "The Master", "video": false, "vote_average": 6.3, "vote_count": 6, "keywords": {"keywords": [{"id": 779, "name": "martial arts"}, {"id": 780, "name": "kung fu"}, {"id": 13014, "name": "orphan"}, {"id": 156162, "name": "martial arts training"}]}, "similar": {"page": 1, "results": [{"id": 140300, "video": false, "vote_count": 3210, "vote_average": 6.7, "title": "Kung Fu Panda 3", "release_date": "2016-01-23", "original_language": "en", "original_title": "Kung Fu Panda 3", "genre_ids": [28, 12, 16, 35, 10751], "backdrop_path": "/eHWmEUP4fa7h1Fe7TXfTL7ncDl8.jpg", "adult": false, "overview": "Continuing his \"legendary adventures of awesomeness\", Po must face two hugely epic, but different threats: one supernatural and the other a little closer to his home.", "poster_path": "/MZFPacfKzgisnPoJIPEFZUXBBT.jpg", "popularity": 30.681}, {"id": 146, "video": false, "vote_count": 1771, "vote_average": 7.3, "title": "Crouching Tiger, Hidden Dragon", "release_date": "2000-07-06", "original_language": "zh", "original_title": "\u5367\u864e\u85cf\u9f99", "genre_ids": [28, 12, 18, 10749], "backdrop_path": "/dKenGLffFC9HwuxG4Sq7fJRkiFb.jpg", "adult": false, "overview": "Two warriors in pursuit of a stolen sword and a notorious fugitive are led to an impetuous, physically-skilled, teenage nobleman's daughter, who is at a crossroads in her life.", "poster_path": "/3yYPhffQRuy45HlNabFxNLyP9mg.jpg", "popularity": 20.102}, {"adult": false, "backdrop_path": "/wNm3hNJuOk117wEwuESKO8eCEAk.jpg", "genre_ids": [28], "id": 9461, "original_language": "en", "original_title": "Enter the Dragon", "overview": "A martial artist agrees to spy on a reclusive crime lord using his invitation to a tournament there as cover.", "poster_path": "/6C006cxfwjWYkBW4fM3xCMyr7Yg.jpg", "release_date": "1973-08-17", "title": "Enter the Dragon", "video": false, "vote_average": 7.4, "vote_count": 911, "popularity": 21.422}, {"adult": false, "backdrop_path": "/tBWZkKMcrWdrpkOAA84FBlzE2XK.jpg", "genre_ids": [12, 28, 53], "id": 9053, "original_language": "en", "original_title": "DOA: Dead or Alive", "overview": "Four beautiful rivals at an invitation-only martial-arts tournament join forces against a sinister threat. Princess Kasumi is an aristocratic warrior trained by martial-arts masters. Tina Armstrong is a wrestling superstar. Helena Douglas is an athlete with a tragic past. Christie Allen earns her keep as a thief and an assassin-for-hire.", "poster_path": "/lZ6vZka2M0jtH1khYWa8j73E275.jpg", "release_date": "2006-09-07", "title": "DOA: Dead or Alive", "video": false, "vote_average": 4.9, "vote_count": 415, "popularity": 15.433}, {"id": 11841, "video": false, "vote_count": 157, "vote_average": 7.6, "title": "The 36th Chamber of Shaolin", "release_date": "1978-02-02", "original_language": "cn", "original_title": "\u5c11\u6797\u4e09\u5341\u516d\u623f", "genre_ids": [28, 12], "backdrop_path": "/5YXoGdYF1pGv7NHypZWIVMvYl0O.jpg", "adult": false, "overview": "The anti-Ching patriots, under the guidance of Ho Kuang-han, have secretly set up their base in Canton, disguised as school masters. During a brutal Manchu attack, Lui manages to escape, and devotes himself to learning the martial arts in order to seek revenge.", "poster_path": "/hv29eb8g7iCDr0WgAcDdwZinuoY.jpg", "popularity": 13.558}, {"adult": false, "backdrop_path": "/qQToUhCbcDl0DgSIDmxMaLBHjdz.jpg", "genre_ids": [28], "id": 20811, "original_language": "cn", "original_title": "\u9ec3\u98db\u9d3b'92\u4e4b\u9f8d\u884c\u5929\u4e0b", "overview": "Uncle Tak is famous for using Chinese herbal medicines to cure diseases. A martial arts expert, he also teaches the young how to defend themselves. One of his students, Johnny, dreams of monopolizing the teaching of kung fu throughout the United States. To accomplish this, he tries to kill Uncle Tak. Chuck, Uncle Tak's best student from Hong Kong, comes to Los Angeles to find his master. Chuck is willing to let Johnny have his way, and tries to take Uncle Tak back to Hong Kong. But Johnny and his men will not leave Chuck alone. Chuck, on his way back to Hong Kong, returns for the showdown.", "poster_path": "/ctz65ZpisdfRTMWCdQYSEQexzn7.jpg", "release_date": "1992-05-29", "title": "The Master", "video": false, "vote_average": 6.0, "vote_count": 40, "popularity": 10.291}, {"id": 10618, "video": false, "vote_count": 113, "vote_average": 7.3, "title": "Once Upon a Time in China II", "release_date": "1992-08-15", "original_language": "cn", "original_title": "\u9ec3\u98db\u9d3b\u4e4b\u4e8c \u7537\u5152\u7576\u81ea\u5f37", "genre_ids": [28, 35], "backdrop_path": "/7B72qecQtVAG1b2kvLhVqNGHqzy.jpg", "adult": false, "overview": "In the sequel to the Tsui Hark classic, Wong Fei-Hung faces The White Lotus society, a fanatical cult seeking to drive the Europeans out of China through violence, even attacking Chinese who follow Western ways. Wong must also defend Dr. Sun Yat Sen, a revolutionary, from the military.", "poster_path": "/4V3hasCQLYtzVRJDGKDoYLUTYQd.jpg", "popularity": 14.992}, {"adult": false, "backdrop_path": "/fy1C5tM9L39i7JF0iw6DIycOO1j.jpg", "genre_ids": [18, 28, 53], "id": 11713, "original_language": "zh", "original_title": "\u7cbe\u6b66\u9580", "overview": "Chen Zhen returns to the international compound of China only to learn of his beloved teacher's death. This is compounded by the continual racist harassment by the Japanese population in the area. Unlike his friends, he confronts it head on with his mastery of martial arts while investigating his teacher's murder.", "poster_path": "/ld1kAfLJTgpZVm3jwT58bTxmXl7.jpg", "release_date": "1972-03-22", "title": "Fist of Fury", "video": false, "vote_average": 7.4, "vote_count": 406, "popularity": 16.304}, {"id": 9470, "video": false, "vote_count": 1392, "vote_average": 7.3, "title": "Kung Fu Hustle", "release_date": "2004-02-10", "original_language": "cn", "original_title": "\u529f\u592b", "genre_ids": [28, 35, 80, 14], "backdrop_path": "/qpJWj6MI6VLRt9bGbJVZtmFvqWw.jpg", "adult": false, "overview": "Set in Canton, China in the 1940s, the story revolves in a town ruled by the Axe Gang, Sing who desperately wants to become a member. He stumbles into a slum ruled by eccentric landlords who turns out to be the greatest kung-fu masters in disguise. Sing's actions eventually cause the Axe Gang and the slumlords to engage in an explosive kung-fu battle. Only one side will win and only one hero will emerge as the greatest kung-fu master of all.", "poster_path": "/dZsfDrNLGWgsIUQL1vGhl8tbnqY.jpg", "popularity": 17.654}, {"adult": false, "backdrop_path": "/9DlrsXH9LOgPeuF6Hljmx8GQNlM.jpg", "genre_ids": [18, 28], "id": 7549, "original_language": "zh", "original_title": "\u970d\u5143\u7532", "overview": "Huo Yuan Jia became the most famous martial arts fighter in all of China at the turn of the 20th Century. Huo faced personal tragedy but ultimately fought his way out of darkness, defining the true spirit of martial arts and also inspiring his nation. The son of a great fighter who didn't wish for his child to follow in his footsteps, Huo resolves to teach himself how to fight - and win.", "poster_path": "/nPku02hVAFPsAd1pJr81OkdBidw.jpg", "release_date": "2006-01-26", "title": "Fearless", "video": false, "vote_average": 7.4, "vote_count": 648, "popularity": 12.897}, {"id": 24, "video": false, "vote_count": 10676, "vote_average": 7.9, "title": "Kill Bill: Vol. 1", "release_date": "2003-10-10", "original_language": "en", "original_title": "Kill Bill: Vol. 1", "genre_ids": [28, 80], "backdrop_path": "/kkS8PKa8c134vXsj2fQkNqOaCXU.jpg", "adult": false, "overview": "An assassin is shot by her ruthless employer, Bill, and other members of their assassination circle \u2013 but she lives to plot her vengeance.", "poster_path": "/v7TaX8kXMXs5yFFGR41guUDNcnB.jpg", "popularity": 35.853}, {"adult": false, "backdrop_path": "/913sS08HhcTQTwz7X567iR6DLHn.jpg", "genre_ids": [12, 28, 53], "id": 682, "original_language": "en", "original_title": "The Man with the Golden Gun", "overview": "A golden bullet has 007 engraved on it as it smashes into the secret service headquarters. The bullet came from the professional killer Scaramanga who has yet to miss a target and James Bond begins a mission to try and stop him.", "poster_path": "/7VSVgxAvA7IdTf8T6Oon1eaReeJ.jpg", "release_date": "1974-12-01", "title": "The Man with the Golden Gun", "video": false, "vote_average": 6.5, "vote_count": 996, "popularity": 17.905}, {"adult": false, "backdrop_path": "/xC9DRxpKgqJKDYLa9mkNa74eX4q.jpg", "genre_ids": [18, 12, 28, 36], "id": 79, "original_language": "zh", "original_title": "\u82f1\u96c4", "overview": "One man defeated three assassins who sought to murder the most powerful warlord in pre-unified China.", "poster_path": "/xkJnow23eDxwQXB0iIWAWkBF47y.jpg", "release_date": "2002-07-22", "title": "Hero", "video": false, "vote_average": 7.5, "vote_count": 1210, "popularity": 23.249}, {"id": 604, "video": false, "vote_count": 6344, "vote_average": 6.9, "title": "The Matrix Reloaded", "release_date": "2003-05-15", "original_language": "en", "original_title": "The Matrix Reloaded", "genre_ids": [28, 12, 878, 53], "backdrop_path": "/Fp3piEuHXxKnPBO5R0Wj4wjZHg.jpg", "adult": false, "overview": "Six months after the events depicted in The Matrix, Neo has proved to be a good omen for the free humans, as more and more humans are being freed from the matrix and brought to Zion, the one and only stronghold of the Resistance.  Neo himself has discovered his superpowers including super speed, ability to see the codes of the things inside the matrix and a certain degree of pre-cognition. But a nasty piece of news hits the human resistance: 250,000 machine sentinels are digging to Zion and would reach them in 72 hours. As Zion prepares for the ultimate war, Neo, Morpheus and Trinity are advised by the Oracle to find the Keymaker who would help them reach the Source.  Meanwhile Neo's recurrent dreams depicting Trinity's death have got him worried and as if it was not enough, Agent Smith has somehow escaped deletion, has become more powerful than before and has fixed Neo as his next target.", "poster_path": "/ezIurBz2fdUc68d98Fp9dRf5ihv.jpg", "popularity": 26.284}, {"id": 605, "video": false, "vote_count": 5698, "vote_average": 6.6, "title": "The Matrix Revolutions", "release_date": "2003-11-03", "original_language": "en", "original_title": "The Matrix Revolutions", "genre_ids": [28, 12, 878, 53], "backdrop_path": "/pdVHUsb2eEz9ALNTr6wfRJe5xVa.jpg", "adult": false, "overview": "The human city of Zion defends itself against the massive invasion of the machines as Neo fights to end the war at another front while also opposing the rogue Agent Smith.", "poster_path": "/sKogjhfs5q3azmpW7DFKKAeLEG8.jpg", "popularity": 22.724}, {"adult": false, "backdrop_path": "/3hYidDKVg4rsrkHQsbOKeqt6qkj.jpg", "genre_ids": [35, 28], "id": 19274, "original_language": "cn", "original_title": "\u7b11\u62f3\u602a\u62db", "overview": "Jackie Chan is a youngster, living in a remote vllage with his grandfather who teaches him Kong-Fu (naturally). He keeps getting into fights, even though his grandfather warns him not to show their Kong-Fu to others. Jackie, though, is tempted by some thugs he beat up to act as the master of a Kong-Fu school. This school's name apparently spreads far, as an old enemy of Jackie's grandfather (who t", "poster_path": "/ic5iTcB0HOfNCjQRV10SJ5oA4El.jpg", "release_date": "1979-02-17", "title": "Fearless Hyena", "video": false, "vote_average": 6.6, "vote_count": 59, "popularity": 12.832}, {"id": 10620, "video": false, "vote_count": 38, "vote_average": 5.9, "title": "Once Upon a Time in China and America", "release_date": "1997-02-01", "original_language": "cn", "original_title": "\u9ec3\u98db\u9d3b\u4e4b\u897f\u57df\u96c4\u7345", "genre_ids": [28, 37], "backdrop_path": "/hbM6yHd51ZqJP9pRV96W7Sus4xE.jpg", "adult": false, "overview": "So goes to the U.S. to open a martial arts school. Around this time, many Chinese people were sold off to U.S. railroad companies, and were brutally treated by the Americans under the harsh working conditions. Thus, the American workers' hatred towards the Chinese immigrants is high. As a result, So gets into trouble with the Americans and the mob, and calls Master Wong for help.", "poster_path": "/fNOpZTtYbk0Kx26m141PeJu53wM.jpg", "popularity": 7.813}, {"id": 44865, "video": false, "vote_count": 426, "vote_average": 6.5, "title": "The Grandmaster", "release_date": "2013-01-10", "original_language": "zh", "original_title": "\u4e00\u4ee3\u5b97\u5e2b", "genre_ids": [28, 18, 36], "backdrop_path": "/k3ATJ7zmlCw45x6OH4WutlXqTvy.jpg", "adult": false, "overview": "Ip Man's peaceful life in Foshan changes after Gong Yutian seeks an heir for his family in Southern China. Ip Man then meets Gong Er who challenges him for the sake of regaining her family's honor. After the Second Sino-Japanese War, Ip Man moves to Hong Kong and struggles to provide for his family. In the mean time, Gong Er chooses the path of vengeance after her father was killed by Ma San.", "poster_path": "/8OIEVvoTmbGotdygjXzSNX8ribV.jpg", "popularity": 10.32}, {"id": 9502, "video": false, "vote_count": 6771, "vote_average": 7.1, "title": "Kung Fu Panda", "release_date": "2008-06-04", "original_language": "en", "original_title": "Kung Fu Panda", "genre_ids": [12, 16, 35, 10751], "backdrop_path": "/pmLEmMLYCreFAxfdCt5uO1wDgSi.jpg", "adult": false, "overview": "When the Valley of Peace is threatened, lazy Po the panda discovers his destiny as the \"chosen one\" and trains to become a kung fu hero, but transforming the unsleek slacker into a brave warrior won't be easy. It's up to Master Shifu and the Furious Five -- Tigress, Crane, Mantis, Viper and Monkey -- to give it a try.", "poster_path": "/mk3UyyaLyXhgIhmLji25OUPXvGR.jpg", "popularity": 23.634}, {"adult": false, "backdrop_path": "/ic450gLSYFUGb5Gxv39YXOqOGOP.jpg", "genre_ids": [28, 80, 53], "id": 11134, "original_language": "cn", "original_title": "\u8b66\u5bdf\u6545\u4e8b III\uff1a\u8d85\u7d1a\u8b66\u5bdf", "overview": "A Hong Kong detective teams up with his female Red Chinese counterpart to stop a Chinese drug czar.", "poster_path": "/sw94gRwWJf1O4uMFHmDyZNXJeIj.jpg", "release_date": "1992-07-04", "title": "Police Story 3: Super Cop", "video": false, "vote_average": 6.7, "vote_count": 210, "popularity": 11.796}], "total_pages": 97, "total_results": 1927}, "recommendations": {"page": 1, "results": [{"adult": false, "backdrop_path": "/ruWl04NWwokiVoIFmB5uTJgwd0P.jpg", "genre_ids": [28, 14], "id": 152251, "original_language": "en", "original_title": "Liu zhi qin mo", "overview": "From first-time director Lung Yi Sheng comes Demon Of The Lute, a 1983 fantasy swordplay epic featuring a ragtag group of heroes as they face off against a demonic force for evil! Chock full of fantastical characters blessed with otherworldly powers, enchanted weapons, and the remarkable ability to defy gravity at will, Demon Of The Lute is a comic book influenced wuxia sure to tickle the fancy of martial arts fans both young and old", "poster_path": "/r0FZnDmjudY1o15xUmZMrhYddg2.jpg", "release_date": "1983-08-04", "title": "Demon of the Lute", "video": false, "vote_average": 7.0, "vote_count": 3, "popularity": 1.15}, {"adult": false, "backdrop_path": "/r1MWgiOK1sv3BLgu3jiFcyhoL4M.jpg", "genre_ids": [28], "id": 107714, "original_language": "en", "original_title": "Bu yi shen xiang", "overview": "Just when audiences thought the director couldn't get more spectacular and outrageous, he unleashed this eye-filling, mind-bending \"Martial Arts World\" sequel of clan rivalries, ninja atrocities, wizard sorceries, and the mythical Silkworm style that changes our hero into a veritable Spider-swordsman. The screen practically explodes with colorful characters and kung-fu -- all directed, co-written, and co-choreographed by Lu Chun-ku, and showcasing some of the best Shaw Brothers action stars. The original Bastard Swordsman was just the beginning, this superlative cult classic that out-phantasmagoricals the original.", "poster_path": "/9ygquhVImOG8gED7STeTc6tDQGe.jpg", "release_date": "1984-05-08", "title": "Return of the Bastard Swordsman", "video": false, "vote_average": 6.4, "vote_count": 7, "popularity": 2.756}, {"adult": false, "backdrop_path": "/5zxogjexBzyRfepsUa033CMFf8l.jpg", "genre_ids": [28], "id": 64314, "original_language": "cn", "original_title": "\u751f\u6b7b\u9b25", "overview": "Legendary director Chang Cheh teamed his latest big star, Alexander Fu Sheng, with future \u201cVenoms\u201d Lo Meng and Kuo Chue to create another winner in his vaunted filmography. Joining them were the top supporting actors (Ku Feng and Wang Lung-wei) and the prettiest starlets (Lin Chen-chi, Shirley Yu, and Hui Ying-hung), for an entertaining, exciting tale of a kung-fu blacksmith taking on four famous robbers while a villainous gambling boss plots to destroy them.", "poster_path": "/gN5J1ushyPns4810z1IQp3nsV5b.jpg", "release_date": "1979-02-22", "title": "Life Gamble", "video": false, "vote_average": 6.6, "vote_count": 4, "popularity": 1.77}], "total_pages": 1, "total_results": 3}, "credits": {"cast": [{"cast_id": 1, "character": "Chin Tien Yun", "credit_id": "52fe4aa0c3a36847f81d9163", "gender": 2, "id": 88351, "name": "Chen Kuan-Tai", "order": 0, "profile_path": "/qTSBwN9aOSiYlntGEn3vjLCBO2u.jpg"}, {"cast_id": 4, "character": "Yen Ching Wan", "credit_id": "52fe4aa0c3a36847f81d916d", "gender": 2, "id": 240174, "name": "Johnny Wang Lung-Wei", "order": 1, "profile_path": null}, {"cast_id": 6, "character": "Kao Chien", "credit_id": "52fe4aa0c3a36847f81d9175", "gender": 2, "id": 131728, "name": "Yuen Tak", "order": 2, "profile_path": null}, {"cast_id": 5, "character": "Master Shi's daughter", "credit_id": "52fe4aa0c3a36847f81d9171", "gender": 1, "id": 240164, "name": "Candy Wen Xue-Er", "order": 3, "profile_path": null}, {"cast_id": 11, "character": "Wei Kun", "credit_id": "56c6c9e692514126960053e1", "gender": 2, "id": 1136492, "name": "Chan Lau", "order": 4, "profile_path": null}, {"cast_id": 12, "character": "Ying Chang", "credit_id": "56c6c9f19251412449005aab", "gender": 2, "id": 930251, "name": "Lam Fai-Wong", "order": 5, "profile_path": "/2NAjWZMiyGl5ysjTl5tmiG5Y1cG.jpg"}, {"cast_id": 13, "character": "Huang Lao Liu", "credit_id": "56c6c9fac3a3680d3e005db0", "gender": 2, "id": 544921, "name": "Cheng Miu", "order": 6, "profile_path": "/pJkI8tmkKoYVascjRHEw9Xi5RAz.jpg"}, {"cast_id": 14, "character": "Restaurant Boss", "credit_id": "56c6ca06c3a3680d540058c9", "gender": 2, "id": 1134505, "name": "Wong Ching-Ho", "order": 7, "profile_path": "/7FIekiYCrh63Gts2EyVNj4MdLrC.jpg"}, {"cast_id": 15, "character": "Master Shi Chen Chung", "credit_id": "56c6ca11925141245b005828", "gender": 2, "id": 1166561, "name": "Lau Hok-Nin", "order": 8, "profile_path": null}, {"cast_id": 16, "character": "Fan San", "credit_id": "56c6ca1c9251415475003414", "gender": 0, "id": 1576138, "name": "Yuen Fai", "order": 9, "profile_path": null}, {"cast_id": 17, "character": "Dai Xiong", "credit_id": "56c6ca26925141245b00582d", "gender": 2, "id": 1140994, "name": "Ng Hong-Sang", "order": 10, "profile_path": null}, {"cast_id": 18, "character": "Zhou San Chao", "credit_id": "56c6ca349251412449005abc", "gender": 0, "id": 1158036, "name": "Chui Fat", "order": 11, "profile_path": null}], "crew": [{"credit_id": "55d5e05ac3a3685070004a1a", "department": "Editing", "gender": 2, "id": 43913, "job": "Editor", "name": "Chiang Hsing-Lung", "profile_path": null}, {"credit_id": "52fe4aa0c3a36847f81d917b", "department": "Writing", "gender": 2, "id": 70675, "job": "Writer", "name": "Ni Kuang", "profile_path": null}, {"credit_id": "55d320aac3a36846300010fa", "department": "Production", "gender": 1, "id": 70676, "job": "Producer", "name": "Mona Fong", "profile_path": null}, {"credit_id": "56c6c9b6c3a3680d3e005d9b", "department": "Directing", "gender": 2, "id": 125391, "job": "Director", "name": "Tony Liu Chun-Ku", "profile_path": "/mrlLVLvipJPfEMW05daBTc95vYU.jpg"}]}}