{"adult": false, "backdrop_path": "/6sp247OKHG1T3HB0jXzwQgsG0mn.jpg", "belongs_to_collection": {"id": 395433, "name": "Lone Wolf film series", "poster_path": null, "backdrop_path": null}, "budget": 0, "genres": [{"id": 35, "name": "Comedy"}, {"id": 80, "name": "Crime"}, {"id": 53, "name": "Thriller"}], "homepage": null, "id": 109212, "imdb_id": "tt0036253", "original_language": "en", "original_title": "Passport to Suez", "overview": "The Lone Wolf goes undercover in Egypt to foil a Nazi plot to bomb and disable the Suez canal, which is vital to England's war effort.", "popularity": 1.099, "poster_path": "/gjALRI3yMyJdIex6NdCKgrUEdmF.jpg", "production_companies": [{"id": 5, "logo_path": "/71BqEFAF4V3qjjMPCpLuyJFB9A.png", "name": "Columbia Pictures", "origin_country": "US"}], "production_countries": [{"iso_3166_1": "US", "name": "United States of America"}], "release_date": "1943-08-19", "revenue": 0, "runtime": 72, "spoken_languages": [{"iso_639_1": "en", "name": "English"}], "status": "Released", "tagline": "FICTION'S FAMOUS RASCAL takes on a formidable hotbed of spies!", "title": "Passport to Suez", "video": false, "vote_average": 6.3, "vote_count": 3, "keywords": {"keywords": [{"id": 3568, "name": "lone wolf"}]}, "similar": {"page": 1, "results": [{"adult": false, "backdrop_path": "/7m6D3kQBrbMcqxwrSNEsvs1XuMS.jpg", "genre_ids": [35, 80], "id": 11895, "original_language": "en", "original_title": "Police Academy 6: City Under Siege", "overview": "Our favourite police men are called together to deal with a gang who rob banks and jewelers. Using their various talents as well as their extraordinary luck, the crooks stand no chance against our men and women wearing blue..", "poster_path": "/9mW8fM0PkXvSSmLODTb2OAYEQTY.jpg", "release_date": "1989-03-09", "title": "Police Academy 6: City Under Siege", "video": false, "vote_average": 4.9, "vote_count": 421, "popularity": 13.794}, {"id": 1427, "video": false, "vote_count": 2511, "vote_average": 7.2, "title": "Perfume: The Story of a Murderer", "release_date": "2006-09-13", "original_language": "en", "original_title": "Perfume: The Story of a Murderer", "genre_ids": [80, 18, 14], "backdrop_path": "/3i8bJa5yvLZW2k4sg2Cd1Yy0a1x.jpg", "adult": false, "overview": "Jean-Baptiste Grenouille, born in the stench of 18th century Paris, develops a superior olfactory sense, which he uses to create the world's finest perfumes. However, his work takes a dark turn as he tries to preserve scents in the search for the ultimate perfume.", "poster_path": "/zC9JHS6NlkJKPYFxOOqBl7fQCjT.jpg", "popularity": 20.263}, {"id": 10999, "video": false, "vote_count": 1439, "vote_average": 6.5, "title": "Commando", "release_date": "1985-10-03", "original_language": "en", "original_title": "Commando", "genre_ids": [28, 12, 53], "backdrop_path": "/p8MHS8hyMmrZafKDMzIdESJb1rI.jpg", "adult": false, "overview": "John Matrix, the former leader of a special commando strike force that always got the toughest jobs done, is forced back into action when his young daughter is kidnapped. To find her, Matrix has to fight his way through an array of punks, killers, one of his former commandos, and a fully equipped private army. With the help of a feisty stewardess and an old friend, Matrix has only a few hours to overcome his greatest challenge: finding his daughter before she's killed.", "poster_path": "/ypfLBI0xT9yyn38BFaRtp0Ny3uw.jpg", "popularity": 20.759}, {"id": 10986, "video": false, "vote_count": 240, "vote_average": 7.2, "title": "The Taming of the Scoundrel", "release_date": "1980-12-20", "original_language": "it", "original_title": "Il bisbetico domato", "genre_ids": [35], "backdrop_path": "/hpLoEmwL9hmnE0vPKf9hL6wuym0.jpg", "adult": false, "overview": "A rich farmer is well known for being very unkind. He's misanthropic, misogynous and cantankerous. Until he meets by chance a gorgeous girl...", "poster_path": "/khV9UalT4lm8tPRA0qQix344go7.jpg", "popularity": 15.875}, {"adult": false, "backdrop_path": "/wyvHy4ElaiNamrpS6fjquYQqxhQ.jpg", "genre_ids": [35, 18, 10749], "id": 712, "original_language": "en", "original_title": "Four Weddings and a Funeral", "overview": "Over the course of five social occasions, a committed bachelor must consider the notion that he may have discovered love.", "poster_path": "/md9kMKnLG8LG4pMDM98gy5x4K5L.jpg", "release_date": "1994-03-09", "title": "Four Weddings and a Funeral", "video": false, "vote_average": 6.7, "vote_count": 1456, "popularity": 16.731}, {"adult": false, "backdrop_path": "/kEebOhvrUkFICZV3LaGbPSXh4Rv.jpg", "genre_ids": [35, 18], "id": 11545, "original_language": "en", "original_title": "Rushmore", "overview": "When a beautiful first-grade teacher arrives at a prep school, she soon attracts the attention of an ambitious teenager named Max, who quickly falls in love with her. Max turns to the father of two of his schoolmates for advice on how to woo the teacher. However, the situation soon gets complicated when Max's new friend becomes involved with her, setting the two pals against one another in a war for her attention.", "poster_path": "/q3ov1BFTCRWoR9Q6udaRbmgfWwg.jpg", "release_date": "1998-12-11", "title": "Rushmore", "video": false, "vote_average": 7.4, "vote_count": 1370, "popularity": 13.412}, {"adult": false, "backdrop_path": "/lscw7D3OJn1myIlY2Z3mUqwo0UL.jpg", "genre_ids": [35, 10749], "id": 2898, "original_language": "en", "original_title": "As Good as It Gets", "overview": "New York City. Melvin Udall, a cranky, bigoted, obsessive-compulsive writer, finds his life turned upside down when neighboring gay artist Simon is hospitalized and his dog is entrusted to Melvin. In addition, Carol, the only waitress who will tolerate him, must leave work to care for her sick son, making it impossible for Melvin to eat breakfast.", "poster_path": "/iQ8xiJmLsS0EoH3DhX0YdrbmRu3.jpg", "release_date": "1997-12-19", "title": "As Good as It Gets", "video": false, "vote_average": 7.4, "vote_count": 2017, "popularity": 18.992}, {"adult": false, "backdrop_path": "/aoHrTDANGQ05ygmLX49OXhTn9jA.jpg", "genre_ids": [12, 14, 28], "id": 9610, "original_language": "en", "original_title": "Conan the Destroyer", "overview": "Conan is commissioned by the evil queen Taramis to safely escort a teen princess and her powerful bodyguard to a far away castle to retrieve the magic Horn of Dagon. Unknown to Conan, the queen plans to sacrifice the princess when she returns and inherit her kingdom after the bodyguard kills Conan. The queen's plans fail to take into consideration Conan's strength and cunning and the abilities of his sidekicks: the eccentric wizard Akiro, the wild woman Zula, and the inept Malak. Together the hero and his allies must defeat both mortal and supernatural foes in this voyage to sword-and-sorcery land.", "poster_path": "/wLIpIZ0KBopuAsvPBQRSGNjjFVT.jpg", "release_date": "1984-06-29", "title": "Conan the Destroyer", "video": false, "vote_average": 6.0, "vote_count": 765, "popularity": 16.835}, {"id": 8860, "video": false, "vote_count": 267, "vote_average": 5.6, "title": "Metro", "release_date": "1997-01-16", "original_language": "en", "original_title": "Metro", "genre_ids": [28, 12, 35, 80, 53], "backdrop_path": "/l9eGd6Ide9JoLK9hDZdlT6R0eAV.jpg", "adult": false, "overview": "Roper, a hostage negotiator catches a murderous bank robber after a blown heist. The bank robber escapes and immediately goes after the man who put him behind bars.", "poster_path": "/5fLP5go9bMQImOZUo72YLcHspau.jpg", "popularity": 10.42}, {"id": 659, "video": false, "vote_count": 193, "vote_average": 7.1, "title": "The Tin Drum", "release_date": "1979-05-02", "original_language": "de", "original_title": "Die Blechtrommel", "genre_ids": [18, 36, 10752], "backdrop_path": "/uZJjc4hMgckb3H3tVkTmbmcBhIT.jpg", "adult": false, "overview": "Oskar is born in Germany in 1924 with an advanced intellect. Repulsed by the hypocrisy of adults and the irresponsibility of society, he refuses to grow older after his third birthday.", "poster_path": "/bHKwTyB7iAsXt0EpZN1iNA34bPs.jpg", "popularity": 10.367}, {"id": 6615, "video": false, "vote_count": 1011, "vote_average": 7.1, "title": "Lars and the Real Girl", "release_date": "2007-10-12", "original_language": "en", "original_title": "Lars and the Real Girl", "genre_ids": [35, 18, 10749], "backdrop_path": "/rvxV5bXhtRpxx51mDiy29b56cb2.jpg", "adult": false, "overview": "Extremely shy Lars finds it impossible to make friends or socialize. His brother and sister-in-law worry about him, so when he announces that he has a girlfriend he met on the Internet, they are overjoyed. But Lars' new lady is a life-size plastic woman. On the advice of a doctor, his family and the rest of the community go along with his delusion.", "poster_path": "/t8CjVSDVT5fy2AMZRwL0l9OCVhG.jpg", "popularity": 12.421}, {"id": 778, "video": false, "vote_count": 179, "vote_average": 7.1, "title": "Monsieur Hulot's Holiday", "release_date": "1953-02-26", "original_language": "fr", "original_title": "Les vacances de Monsieur Hulot", "genre_ids": [35], "backdrop_path": "/zF95knRgouUrBNbUh5oqRI5NIcE.jpg", "adult": false, "overview": "Monsieur Hulot, Jacques Tati\u2019s endearing clown, takes a holiday at a seaside resort, where his presence provokes one catastrophe after another. Tati\u2019s masterpiece of gentle slapstick is a series of effortlessly well-choreographed sight gags involving dogs, boats, and firecrackers; it was the first entry in the Hulot series and the film that launched its maker to international stardom.", "poster_path": "/r4F4tsU0Ajeh9ZYUkWOJSYmioj7.jpg", "popularity": 8.525}, {"adult": false, "backdrop_path": "/7jsIuVpDmZRH0DO6oaGsPCtCgQl.jpg", "genre_ids": [80, 28, 35], "id": 46059, "original_language": "en", "original_title": "The Hot Rock", "overview": "Dortmunder and his pals plan to steal a huge diamond from a museum. But this turns out to be only the first time they have to steal it...", "poster_path": "/93XaLOlsXyIfsmkY2RKT05B3WIH.jpg", "release_date": "1972-01-26", "title": "The Hot Rock", "video": false, "vote_average": 6.6, "vote_count": 43, "popularity": 5.656}, {"id": 10772, "video": false, "vote_count": 397, "vote_average": 7.3, "title": "Django", "release_date": "1966-04-05", "original_language": "it", "original_title": "Django", "genre_ids": [28, 37], "backdrop_path": "/mIgmo89c4gBc2KEpoTyimSywuM0.jpg", "adult": false, "overview": "A coffin-dragging gunslinger and a half-breed prostitute become embroiled in a bitter feud between a merciless masked clan and a band of Mexican revolutionaries.", "poster_path": "/vs4vieNstSEfbgLFEelXXOPvr6h.jpg", "popularity": 13.633}, {"adult": false, "backdrop_path": "/xeHen0QoEJ3pM5N0mvF7tn6ocub.jpg", "genre_ids": [28, 12, 35, 53], "id": 283589, "original_language": "hi", "original_title": "\u092c\u0948\u0902\u0917 \u092c\u0948\u0902\u0917", "overview": "A girl gets mixed up with a spy trying to clear his name. A chance encounter of the unassuming bank receptionist Harleen Sahni with the charming yet mysterious Rajveer Nanda, results in an on-rush of ditched planes, car chases, shoot-outs, bombing raids and general global mayhem. But as the transcontinental chase ensues with Rajveer convincing Harleen that he's the good guy, can she really trust him, and will trust matter when the bullets start flying?", "poster_path": "/e5qSzHPLEMFETrjTX0gyEACtFqA.jpg", "release_date": "2014-10-02", "title": "Bang Bang!", "video": false, "vote_average": 6.1, "vote_count": 117, "popularity": 7.117}, {"adult": false, "backdrop_path": "/7smKjeEbOWUjFANV1AbFvgJbgqs.jpg", "genre_ids": [18, 9648], "id": 9270, "original_language": "en", "original_title": "Brick", "overview": "A teenage loner pushes his way into the underworld of a high school crime ring to investigate the disappearance of his ex-girlfriend.", "poster_path": "/hyALqQpaTv0GGV4axqePihEmCY8.jpg", "release_date": "2006-03-31", "title": "Brick", "video": false, "vote_average": 6.8, "vote_count": 658, "popularity": 14.469}, {"id": 36576, "video": false, "vote_count": 74, "vote_average": 4.3, "title": "Curse of the Pink Panther", "release_date": "1983-08-12", "original_language": "en", "original_title": "Curse of the Pink Panther", "genre_ids": [35, 80], "backdrop_path": "/qK6gKbiKY1k2uq9zcSHifOwGmrn.jpg", "adult": false, "overview": "Inspector Clouseau disappears, and the Surete wants the world's second best detective to look for him. However, Clouseau's enemy, Dreyfus, rigs the Surete's computer to select, instead, the world's WORST detective, NYPD Sgt. Clifton Sleigh. Sleigh obtusely bungles his way past assassins and corrupt officials as though he were Clouseau's American cousin.", "poster_path": "/mDBa72BXFZvb9aDyfHis3GuEfg0.jpg", "popularity": 7.624}, {"adult": false, "backdrop_path": "/e4fqNyclBWY2wTE8ShBi8NtiuDD.jpg", "genre_ids": [35, 16, 10751], "id": 72215, "original_language": "ru", "original_title": "\u0416\u0438\u043b-\u0431\u044b\u043b \u043f\u0451\u0441", "overview": "The day comes when an old watchdog becomes useless but the masters being kind don't decide to drive him away. However they turn exasperated when the Dog stays indifferent during a home theft. The Dog leaves for the forest, where he meets the Wolf, his old enemy.", "poster_path": "/ItaNRDk7WAGD6nfsq1JSoAkKvQ.jpg", "release_date": "1982-11-10", "title": "There Once Was a Dog", "video": false, "vote_average": 7.8, "vote_count": 63, "popularity": 3.316}, {"id": 33680, "video": false, "vote_count": 145, "vote_average": 7.0, "title": "Grand Hotel", "release_date": "1932-05-25", "original_language": "en", "original_title": "Grand Hotel", "genre_ids": [18, 10749], "backdrop_path": "/uiIwVCclBveUt2PVO8F7xkPe5Cj.jpg", "adult": false, "overview": "Guests at a posh Berlin hotel struggle through worry, scandal, and heartache.", "poster_path": "/2j7dxqIlGHdTaaUW9s4Z5zfp9qS.jpg", "popularity": 8.941}, {"id": 27917, "video": false, "vote_count": 10, "vote_average": 6.6, "title": "Pool of London", "release_date": "1951-02-20", "original_language": "en", "original_title": "Pool of London", "genre_ids": [80, 18], "backdrop_path": "/w9ali1hQaTpIJyvmzaDsT5njZzp.jpg", "adult": false, "overview": "Jewel thieves, murder and a manhunt swirl around a sailor (Bonar Colleano) off a cargo ship in London.", "poster_path": "/9x3V8vs2MovN2TpLPbIyZq7I1aq.jpg", "popularity": 3.784}], "total_pages": 5, "total_results": 90}, "recommendations": {"page": 1, "results": [{"adult": false, "backdrop_path": "/7Mz17O9cngTYV0UrrTgmZwwNDHN.jpg", "genre_ids": [18, 10749], "id": 43879, "original_language": "en", "original_title": "Romeo and Juliet", "overview": "Scenes of combat that will stir your pulse...tender haunting romance that will stay ever fresh in your memory...spectacular beauty that will set a feast for your eyes...in the greatest melodramatic romance of all time...presented as it has never been before...the final glorious flower of motion picture achievement.", "poster_path": "/t4dazXpJ3LroeQrzjRIb8STo7xx.jpg", "release_date": "1936-09-03", "title": "Romeo and Juliet", "video": false, "vote_average": 6.0, "vote_count": 13, "popularity": 3.857}], "total_pages": 1, "total_results": 1}, "credits": {"cast": [{"cast_id": 4, "character": "Michael Lanyard / The Lone Wolf", "credit_id": "52fe4aaec3a36847f81dbdfd", "gender": 2, "id": 76974, "name": "Warren William", "order": 0, "profile_path": "/7SYBx7c5q9ftNtOSjEGBaIrjNJS.jpg"}, {"cast_id": 5, "character": "Valerie King", "credit_id": "52fe4aaec3a36847f81dbe01", "gender": 1, "id": 34330, "name": "Ann Savage", "order": 1, "profile_path": "/mjo101qJoUKvbiBMgp5Z0N5Iam5.jpg"}, {"cast_id": 6, "character": "Llewellyn Jameson", "credit_id": "52fe4aaec3a36847f81dbe05", "gender": 0, "id": 30184, "name": "Eric Blore", "order": 2, "profile_path": "/t4W3lDUxEkrfFG9AEFHhmAhjPFy.jpg"}, {"cast_id": 7, "character": "Donald Jameson", "credit_id": "52fe4aaec3a36847f81dbe09", "gender": 0, "id": 1045556, "name": "Robert Stanford", "order": 3, "profile_path": null}, {"cast_id": 8, "character": "Johnny Booth", "credit_id": "52fe4aaec3a36847f81dbe0d", "gender": 2, "id": 41750, "name": "Sheldon Leonard", "order": 4, "profile_path": "/tkz20WzQYKQDDOYkbFTsFVKmLWD.jpg"}, {"cast_id": 9, "character": "Fritz", "credit_id": "52fe4aaec3a36847f81dbe11", "gender": 2, "id": 2177, "name": "Lloyd Bridges", "order": 5, "profile_path": "/qez0xZiQGt3f530vAGcoYAWd7FM.jpg"}, {"cast_id": 10, "character": "Karl", "credit_id": "52fe4aaec3a36847f81dbe15", "gender": 2, "id": 42574, "name": "Gavin Muir", "order": 6, "profile_path": "/i45ZsznjsFHTncfhfSsS7zMNBCC.jpg"}, {"cast_id": 12, "character": "Chinese Lady at Nightclub", "credit_id": "5a31708e92514154750045ec", "gender": 1, "id": 1940781, "name": "Grace Lem", "order": 7, "profile_path": null}, {"cast_id": 19, "character": "Mr. Whistler", "credit_id": "5c76d72992514118c6122d08", "gender": 2, "id": 48064, "name": "Sig Arno", "order": 8, "profile_path": "/mG2lMhpjvVkQBdZekHwP6Dr0MQA.jpg"}, {"cast_id": 20, "character": "French Waiter", "credit_id": "5c76d74392514118de1234af", "gender": 0, "id": 1331753, "name": "Frank Arnold", "order": 9, "profile_path": null}, {"cast_id": 21, "character": "Chinese Lady at Nightclub", "credit_id": "5c76d76692514118d81230f2", "gender": 0, "id": 120743, "name": "Frances Chan", "order": 10, "profile_path": null}, {"cast_id": 22, "character": "Bellboy", "credit_id": "5c76d7720e0a26585c9a4e28", "gender": 0, "id": 97045, "name": "Darby Jones", "order": 11, "profile_path": "/4LkhuKsk0lzOfiZuh93n3fNE02E.jpg"}, {"cast_id": 23, "character": "Laundry Proprietor", "credit_id": "5c76d77fc3a3683e48cca371", "gender": 0, "id": 111991, "name": "Frank Lackteen", "order": 12, "profile_path": "/b06QcR4mZrsrMxyhOz4vhbfMy2P.jpg"}, {"cast_id": 24, "character": "Chauffeur", "credit_id": "5c76d78d0e0a2658589a489e", "gender": 0, "id": 2231752, "name": "Mal Merrihugh", "order": 13, "profile_path": null}, {"cast_id": 25, "character": "Mr. Rembrandt", "credit_id": "5c76d79f0e0a2658659a4f41", "gender": 0, "id": 1276754, "name": "Louis Merrill", "order": 14, "profile_path": null}, {"cast_id": 26, "character": "Mr. Cezanne", "credit_id": "5c76d7b092514118c212310d", "gender": 2, "id": 29285, "name": "Jay Novello", "order": 15, "profile_path": "/ljPdtpSxj46ln5LJzBFQMDW2iGb.jpg"}, {"cast_id": 27, "character": "Wembley Agent", "credit_id": "5c76d7bf92514118db123272", "gender": 2, "id": 121127, "name": "Frank O'Connor", "order": 16, "profile_path": "/11dv3ebdyQWg77VFiPOFfXbuxWH.jpg"}, {"cast_id": 28, "character": "Hotel Night Clerk", "credit_id": "5c76d7cf0e0a26584b9a4c16", "gender": 2, "id": 34367, "name": "Jack Rice", "order": 17, "profile_path": null}, {"cast_id": 29, "character": "Bellboy", "credit_id": "5c76d7dbc3a3683e48cca44c", "gender": 2, "id": 1076927, "name": "Floyd Shackelford", "order": 18, "profile_path": null}, {"cast_id": 30, "character": "Bartender", "credit_id": "5c76d7e80e0a26584d9a5244", "gender": 0, "id": 1167825, "name": "Gene Stone", "order": 19, "profile_path": null}, {"cast_id": 31, "character": "Henchman in Laundry", "credit_id": "5c76d7fa92514118db12328e", "gender": 0, "id": 178757, "name": "Nick Thompson", "order": 20, "profile_path": "/aF6tDNxHN52qylU9SXsxGlFuz9l.jpg"}, {"cast_id": 32, "character": "Wembley Agent", "credit_id": "5c76d808c3a3683e48cca472", "gender": 2, "id": 96724, "name": "John Tyrrell", "order": 21, "profile_path": "/Aflx6fxdSuLPu8H6hM171lvJ1Qo.jpg"}, {"cast_id": 33, "character": "Sir Robert Wembley", "credit_id": "5c76d818c3a3683e48cca476", "gender": 2, "id": 14509, "name": "Frederick Worlock", "order": 22, "profile_path": "/oCQAanAc665NeE5allgEMit3wiY.jpg"}], "crew": [{"credit_id": "52fe4aaec3a36847f81dbded", "department": "Directing", "gender": 0, "id": 81799, "job": "Director", "name": "Andr\u00e9 De Toth", "profile_path": "/jnEkn2AUZknoXDeUiJdsQDvClaJ.jpg"}, {"credit_id": "52fe4aaec3a36847f81dbdf3", "department": "Writing", "gender": 0, "id": 1045554, "job": "Writer", "name": "Alden Nash", "profile_path": null}, {"credit_id": "56fbea7e9251412888002b20", "department": "Writing", "gender": 2, "id": 109608, "job": "Writer", "name": "John Stone", "profile_path": null}, {"credit_id": "5c76d68b0e0a26584d9a4d4b", "department": "Production", "gender": 2, "id": 96725, "job": "Producer", "name": "Wallace MacDonald", "profile_path": "/arKR5gyowGRHzyP8cV7sZTqXWp1.jpg"}, {"credit_id": "5c76d69bc3a3683e48cca12d", "department": "Production", "gender": 0, "id": 1195652, "job": "Executive Producer", "name": "Irving Briskin", "profile_path": null}, {"credit_id": "5c76d6a892514118d8123033", "department": "Crew", "gender": 0, "id": 34342, "job": "Cinematography", "name": "L. William O'Connell", "profile_path": null}, {"credit_id": "5c76d6b4c3a3683e46cca401", "department": "Editing", "gender": 0, "id": 1128294, "job": "Editor", "name": "Mel Thorsen", "profile_path": null}, {"credit_id": "5c76d6c00e0a2658589a47ae", "department": "Art", "gender": 2, "id": 31969, "job": "Art Direction", "name": "Lionel Banks", "profile_path": null}, {"credit_id": "5c76d6fdc3a3683e48cca269", "department": "Art", "gender": 0, "id": 2252194, "job": "Art Direction", "name": "Paul Murphy", "profile_path": null}]}}