{"adult": false, "backdrop_path": "/oy1SES5cTOwvKhC5PFhXPMHNZKe.jpg", "belongs_to_collection": null, "budget": 0, "genres": [{"id": 9648, "name": "Mystery"}], "homepage": null, "id": 109797, "imdb_id": "tt0329414", "original_language": "en", "original_title": "Nancy Drew", "overview": "In this movie, Maggie Lawson plays Nancy Drew. A young woman who has just entered college. While rushing with her friends Bess and George, the star football player, Jesse, goes into a coma. Nancy can sense there is something more to the story, so she starts investigating. In only a short period of time she gets arrested, asked out by a cop, almost expelled and gets one of her friends expelled. But that doesn't stop her from finding out what happened to Jesse. Written by Kate Price!!!", "popularity": 3.38, "poster_path": "/rez2BJFDZGAfZ0sLNpT1FZr1Ona.jpg", "production_companies": [{"id": 1558, "logo_path": "/wwaKUcOENHix2jxLfFBfNkCtOEQ.png", "name": "Touchstone Television", "origin_country": "US"}, {"id": 56392, "logo_path": null, "name": "Bender Brown Productions", "origin_country": ""}], "production_countries": [], "release_date": "2002-12-15", "revenue": 0, "runtime": 87, "spoken_languages": [{"iso_639_1": "en", "name": "English"}], "status": "Released", "tagline": "", "title": "Nancy Drew", "video": false, "vote_average": 4.5, "vote_count": 2, "keywords": {"keywords": [{"id": 818, "name": "based on novel or book"}]}, "similar": {"page": 1, "results": [{"adult": false, "backdrop_path": "/kiWvoV78Cc3fUwkOHKzyBgVdrDD.jpg", "genre_ids": [37, 18, 12], "id": 281957, "original_language": "en", "original_title": "The Revenant", "overview": "In the 1820s, a frontiersman, Hugh Glass, sets out on a path of vengeance against those who left him for dead after a bear mauling.", "poster_path": "/oXUWEc5i3wYyFnL1Ycu8ppxxPvs.jpg", "release_date": "2015-12-25", "title": "The Revenant", "video": false, "vote_average": 7.5, "vote_count": 12127, "popularity": 24.135}, {"adult": false, "backdrop_path": "/2J283YNxKhxAqHeVegUJ5mzLfGb.jpg", "genre_ids": [80, 18, 9648], "id": 392044, "original_language": "en", "original_title": "Murder on the Orient Express", "overview": "Genius Belgian detective Hercule Poirot investigates the murder of an American tycoon aboard the Orient Express train.", "poster_path": "/iBlfxlw8qwtUS0R8YjIU7JtM6LM.jpg", "release_date": "2017-11-03", "title": "Murder on the Orient Express", "video": false, "vote_average": 6.7, "vote_count": 6050, "popularity": 27.701}, {"adult": false, "backdrop_path": "/sRJjliXA7ZqHCr7HCK0ZB83xxjr.jpg", "genre_ids": [12, 28, 878], "id": 101299, "original_language": "en", "original_title": "The Hunger Games: Catching Fire", "overview": "Katniss Everdeen has returned home safe after winning the 74th Annual Hunger Games along with fellow tribute Peeta Mellark. Winning means that they must turn around and leave their family and close friends, embarking on a \"Victor's Tour\" of the districts. Along the way Katniss senses that a rebellion is simmering, but the Capitol is still very much in control as President Snow prepares the 75th Annual Hunger Games (The Quarter Quell) - a competition that could change Panem forever.", "poster_path": "/Hn0KgefVEp0GkdTexS6gfKTMfi.jpg", "release_date": "2013-11-15", "title": "The Hunger Games: Catching Fire", "video": false, "vote_average": 7.4, "vote_count": 12031, "popularity": 22.164}, {"adult": false, "backdrop_path": "/GRyynLqafMrLFMHqvfGdUweavA.jpg", "genre_ids": [27, 18, 14], "id": 628, "original_language": "en", "original_title": "Interview with the Vampire", "overview": "A vampire relates his epic life story of love, betrayal, loneliness, and dark hunger to an over-curious reporter.", "poster_path": "/hldXwwViSfHJS0kIJr07KBGmHJI.jpg", "release_date": "1994-11-11", "title": "Interview with the Vampire", "video": false, "vote_average": 7.3, "vote_count": 3231, "popularity": 21.064}, {"adult": false, "backdrop_path": "/bvbyidkMaBls1LTaIWYY6UmYTaL.jpg", "genre_ids": [28, 878], "id": 336843, "original_language": "en", "original_title": "Maze Runner: The Death Cure", "overview": "Thomas leads his group of escaped Gladers on their final and most dangerous mission yet. To save their friends, they must break into the legendary Last City, a WCKD-controlled labyrinth that may turn out to be the deadliest maze of all. Anyone who makes it out alive will get answers to the questions the Gladers have been asking since they first arrived in the maze.", "poster_path": "/2zYfzA3TBwrMC8tfFbpiTLODde0.jpg", "release_date": "2018-01-10", "title": "Maze Runner: The Death Cure", "video": false, "vote_average": 7.0, "vote_count": 4396, "popularity": 25.259}, {"adult": false, "backdrop_path": "/hm8Gux0946IfeJ1PZwztOo6lVHH.jpg", "genre_ids": [18, 36, 35], "id": 450322, "original_language": "en", "original_title": "The Man Who Invented Christmas", "overview": "In 1843, despite the fact that Dickens is a successful writer, the failure of his latest book puts his career at a crossroads, until the moment when, struggling with inspiration and confronting reality with his childhood memories, a new character is born in the depths of his troubled mind; an old, lonely, embittered man, so vivid, so human, that a whole world grows around him, a story so inspiring that changed the meaning of Christmas forever.", "poster_path": "/xYCuRgEKynGurSEooxDa9pQPF7n.jpg", "release_date": "2017-10-12", "title": "The Man Who Invented Christmas", "video": false, "vote_average": 6.7, "vote_count": 395, "popularity": 12.264}, {"id": 656968, "video": false, "vote_count": 23, "vote_average": 7.0, "title": "A Christmas Carol", "release_date": "2019-12-19", "original_language": "en", "original_title": "A Christmas Carol", "genre_ids": [18, 14], "backdrop_path": "/ubLsCmv36zUUt2zxhFSowYFe5uF.jpg", "adult": false, "overview": "London, 1843. Ebenezer Scrooge, a bitter old man, despises the Christmas holiday. Over the course of Christmas Eve night he is visited by three ghosts to show him his past, present and future.", "poster_path": "/tKW48tnZKaHLBIxxgoAf9BIpyRv.jpg", "popularity": 7.061}, {"adult": false, "backdrop_path": "/sw7mordbZxgITU877yTpZCud90M.jpg", "genre_ids": [18, 80], "id": 769, "original_language": "en", "original_title": "GoodFellas", "overview": "The true story of Henry Hill, a half-Irish, half-Sicilian Brooklyn kid who is adopted by neighbourhood gangsters at an early age and climbs the ranks of a Mafia family under the guidance of Jimmy Conway.", "poster_path": "/pwpGfTImTGifEGgLb3s6LRPd4I6.jpg", "release_date": "1990-09-12", "title": "GoodFellas", "video": false, "vote_average": 8.4, "vote_count": 6559, "popularity": 36.135}, {"id": 6114, "video": false, "vote_count": 2611, "vote_average": 7.4, "title": "Dracula", "release_date": "1992-11-13", "original_language": "en", "original_title": "Dracula", "genre_ids": [27, 10749], "backdrop_path": "/hm2stwkNFAaXMEeetJS2RZ77zC1.jpg", "adult": false, "overview": "When Dracula leaves the captive Jonathan Harker and Transylvania for London in search of Mina Harker\u2014the reincarnation of Dracula's long-dead wife, Elisabeta\u2014obsessed vampire hunter Dr. Van Helsing sets out to end the madness.", "poster_path": "/ioHxm3D3JdSXR61LRhcVb8KdZOz.jpg", "popularity": 21.922}, {"id": 521, "video": false, "vote_count": 1257, "vote_average": 8.0, "title": "Dial M for Murder", "release_date": "1954-05-29", "original_language": "en", "original_title": "Dial M for Murder", "genre_ids": [80, 18, 9648, 53], "backdrop_path": "/jVMlfESb0TJ29w8CUDDofEprMmn.jpg", "adult": false, "overview": "An ex-tennis pro carries out a plot to have his wife murdered after discovering she is having an affair, and assumes she will soon leave him for the other man anyway. When things go wrong, he improvises a new plan\u2014to frame her for murder instead.", "poster_path": "/xrpK1PyckNWmRxU4kZURfaCyboS.jpg", "popularity": 28.336}, {"id": 123553, "video": false, "vote_count": 3198, "vote_average": 6.3, "title": "The Mortal Instruments: City of Bones", "release_date": "2013-08-21", "original_language": "en", "original_title": "The Mortal Instruments: City of Bones", "genre_ids": [28, 12, 18, 14, 9648, 10749], "backdrop_path": "/xIisiN3GxiOMpYQOYarzWlgpDNT.jpg", "adult": false, "overview": "In New York City, Clary Fray, a seemingly ordinary teenager, learns that she is descended from a line of Shadowhunters \u2014 half-angel warriors who protect humanity from evil forces. After her mother disappears, Clary joins forces with a group of Shadowhunters and enters Downworld, an alternate realm filled with demons, vampires, and a host of other creatures. Clary and her companions must find and protect an ancient cup that holds the key to her mother's future.", "poster_path": "/xOBuyMuqc5lDNfxz6ipFjrxd38X.jpg", "popularity": 20.181}, {"id": 198663, "video": false, "vote_count": 11454, "vote_average": 7.1, "title": "The Maze Runner", "release_date": "2014-09-10", "original_language": "en", "original_title": "The Maze Runner", "genre_ids": [28, 9648, 878, 53], "backdrop_path": "/lkOZcsXcOLZYeJ2YxJd3vSldvU4.jpg", "adult": false, "overview": "Set in a post-apocalyptic world, young Thomas is deposited in a community of boys after his memory is erased, soon learning they're all trapped in a maze that will require him to join forces with fellow \u201crunners\u201d for a shot at escape.", "poster_path": "/coss7RgL0NH6g4fC2s5atvf3dFO.jpg", "popularity": 53.063}, {"adult": false, "backdrop_path": "/3uwyXMZN93PRkShUxvLrufwVAc2.jpg", "genre_ids": [80, 18, 27, 9648, 53], "id": 452507, "original_language": "en", "original_title": "1922", "overview": "A simple yet proud rancher conspires to murder his wife for financial gain, convincing his teenage son to participate.", "poster_path": "/q4FQOiSRhTLWulHl5Vpg37FMArH.jpg", "release_date": "2017-10-20", "title": "1922", "video": false, "vote_average": 5.9, "vote_count": 1491, "popularity": 14.757}, {"id": 65754, "video": false, "vote_count": 4330, "vote_average": 7.3, "title": "The Girl with the Dragon Tattoo", "release_date": "2011-12-14", "original_language": "en", "original_title": "The Girl with the Dragon Tattoo", "genre_ids": [80, 18, 9648, 53], "backdrop_path": "/1fk2xS5hRkblBuag5JXZkmE8pg6.jpg", "adult": false, "overview": "This English-language adaptation of the Swedish novel by Stieg Larsson follows a disgraced journalist, Mikael Blomkvist, as he investigates the disappearance of a weary patriarch's niece from 40 years ago. He is aided by the pierced, tattooed, punk computer hacker named Lisbeth Salander. As they work together in the investigation, Blomkvist and Salander uncover immense corruption beyond anything they have ever imagined.", "poster_path": "/voxRWFTtagLiqnJQs9tWQLB0MN.jpg", "popularity": 27.09}, {"id": 262504, "video": false, "vote_count": 4485, "vote_average": 6.0, "title": "Allegiant", "release_date": "2016-03-09", "original_language": "en", "original_title": "Allegiant", "genre_ids": [28, 12, 9648, 878], "backdrop_path": "/p1dkPKpHJ32FvhKZSAUdA1JSYFi.jpg", "adult": false, "overview": "Beatrice Prior and Tobias Eaton venture into the world outside of the fence and are taken into protective custody by a mysterious agency known as the Bureau of Genetic Welfare.", "poster_path": "/tSFBh9Ayn5uiwbUK9HvD2lrRgaQ.jpg", "popularity": 34.04}, {"id": 207932, "video": false, "vote_count": 4175, "vote_average": 5.9, "title": "Inferno", "release_date": "2016-10-13", "original_language": "en", "original_title": "Inferno", "genre_ids": [18, 9648, 53], "backdrop_path": "/ulzy4NDp7SzVkpUSDR67vawFCCT.jpg", "adult": false, "overview": "After waking up in a hospital with amnesia, professor Robert Langdon and a doctor must race against time to foil a deadly global plot.", "poster_path": "/oFOG2yIRcluKfTtYbzz71Vj9bgz.jpg", "popularity": 19.051}, {"id": 574, "video": false, "vote_count": 649, "vote_average": 7.6, "title": "The Man Who Knew Too Much", "release_date": "1956-06-01", "original_language": "en", "original_title": "The Man Who Knew Too Much", "genre_ids": [80, 9648, 53], "backdrop_path": "/wyUp5sv5FzjUwwvHd0nI7SeaovB.jpg", "adult": false, "overview": "A widescreen, Technicolor remake by Hitchcock of his 1934 film of the same title. A couple vacationing in Morocco with their young son accidentally stumble upon an assassination plot. When the child is kidnapped to ensure their silence, they have to take matters into their own hands to save him.", "poster_path": "/vhUOukoJTWPfVpZOiKwrjdEV4OX.jpg", "popularity": 25.153}, {"id": 169917, "video": false, "vote_count": 1812, "vote_average": 6.3, "title": "A Walk Among the Tombstones", "release_date": "2014-09-18", "original_language": "en", "original_title": "A Walk Among the Tombstones", "genre_ids": [80, 18, 9648, 53], "backdrop_path": "/e56QsaJy1weAUukiK2ZmIGVUALF.jpg", "adult": false, "overview": "Private investigator Matthew Scudder is hired by a drug kingpin to find out who kidnapped and murdered his wife.", "poster_path": "/xxe77USOk2tPnq7G4cL42gf1OxQ.jpg", "popularity": 19.65}, {"id": 411728, "video": false, "vote_count": 342, "vote_average": 7.2, "title": "The Professor and the Madman", "release_date": "2019-03-07", "original_language": "en", "original_title": "The Professor and the Madman", "genre_ids": [18, 36, 9648, 53], "backdrop_path": "/zhNfM1CSQqJtIqelwlK9iKtSd9P.jpg", "adult": false, "overview": "Professor James Murray begins work compiling words for the first edition of the Oxford English Dictionary in the mid 19th century, and receives over 10,000 entries from a patient at Broadmoor Criminal Lunatic Asylum, Dr. William Minor.", "poster_path": "/gtGCDLhfjW96qVarwctnuTpGOtD.jpg", "popularity": 13.302}, {"adult": false, "backdrop_path": "/A0enTetqBfL3UqLPyg0MONLQDXN.jpg", "genre_ids": [16, 10751, 12, 9648], "id": 9994, "original_language": "en", "original_title": "The Great Mouse Detective", "overview": "When the diabolical Professor Ratigan kidnaps London's master toymaker, the brilliant master of disguise Basil of Baker Street and his trusted sidekick Dawson try to elude the ultimate trap and foil the perfect crime.", "poster_path": "/9uDr7vfjCFr39KGCcqrk44Cg7fQ.jpg", "release_date": "1986-07-02", "title": "The Great Mouse Detective", "video": false, "vote_average": 7.1, "vote_count": 894, "popularity": 19.212}], "total_pages": 458, "total_results": 9148}, "recommendations": {"page": 1, "results": [], "total_pages": 1, "total_results": 0}, "credits": {"cast": [{"cast_id": 2, "character": "Nancy Drew", "credit_id": "52fe4ac4c3a36847f81e0783", "gender": 1, "id": 51873, "name": "Maggie Lawson", "order": 0, "profile_path": "/JvCbYbOjLtt1VmsJwrxVeE1QGw.jpg"}, {"cast_id": 3, "character": "Bess", "credit_id": "52fe4ac4c3a36847f81e0787", "gender": 1, "id": 22124, "name": "Jill Ritchie", "order": 1, "profile_path": "/8WqoS3WJCg9Yif0Flzlaj1Ux3S2.jpg"}, {"cast_id": 4, "character": "George", "credit_id": "52fe4ac4c3a36847f81e078b", "gender": 1, "id": 51537, "name": "Lauren Birkell", "order": 2, "profile_path": "/svDMFvi9EdxYAZiFCDVxjoMdY5Z.jpg"}, {"cast_id": 5, "character": "Teeny", "credit_id": "52fe4ac4c3a36847f81e078f", "gender": 1, "id": 63465, "name": "Marieh Delfino", "order": 3, "profile_path": "/twvVWnrqUcbwCUHNpj09PEbPznw.jpg"}, {"cast_id": 9, "character": "Hank", "credit_id": "5a2c0850c3a3680b9613a8dd", "gender": 2, "id": 111122, "name": "Charlie Finn", "order": 4, "profile_path": "/4oaJsmvpQKo42UugAXarmizsGPu.jpg"}, {"cast_id": 10, "character": "Det. Patrick Daly", "credit_id": "5a2c085b0e0a264ccd13fba8", "gender": 2, "id": 157038, "name": "Heath Freeman", "order": 5, "profile_path": "/nHq1rFAxtM9tIOoEgnkZZb4OMD7.jpg"}, {"cast_id": 11, "character": "Franklin 'Sweet Money' Roosevelt Sanderson", "credit_id": "5a2c086b0e0a264cc11372e8", "gender": 2, "id": 31137, "name": "Brian J. White", "order": 6, "profile_path": "/A5xkyJ0hI6F81hHRm0xBOQEYonz.jpg"}, {"cast_id": 12, "character": "Prof. Shifflin", "credit_id": "5a2c0874c3a3680b8813fe9a", "gender": 2, "id": 51547, "name": "James Avery", "order": 7, "profile_path": "/iPeiAsXEKaIkWshAkAFYTqaqOS4.jpg"}, {"cast_id": 13, "character": "Carson Drew", "credit_id": "5a2c0883c3a3680b9313d8f3", "gender": 2, "id": 16841, "name": "Brett Cullen", "order": 8, "profile_path": "/o94R8Z59lrwbZ0LcUkDSPu1GS7q.jpg"}, {"cast_id": 14, "character": "Coach Jeffries", "credit_id": "5a2c088d925141033613d117", "gender": 2, "id": 17770, "name": "Kevin Tighe", "order": 9, "profile_path": "/5Q1Z89xsrnLdQWdHLuiaraS89vV.jpg"}, {"cast_id": 15, "character": "Allison Price", "credit_id": "5a2c08989251410329141603", "gender": 1, "id": 131199, "name": "Sabine Singh", "order": 10, "profile_path": null}, {"cast_id": 16, "character": "Jimbo Mitchell", "credit_id": "5a2c08a30e0a264cd013c1f7", "gender": 2, "id": 56265, "name": "Dale Midkiff", "order": 11, "profile_path": "/pouqDASy9JUPlL46aKFUZBPs7ZL.jpg"}, {"cast_id": 17, "character": "Hannah Green", "credit_id": "5a2c08adc3a3680b8d13a919", "gender": 1, "id": 4734, "name": "Jenny O'Hara", "order": 12, "profile_path": "/jfEnP388TYX8kGyrD4MOadyOJRb.jpg"}, {"cast_id": 18, "character": "Ned Nickerson", "credit_id": "5a2c08b8c3a3680b8813fecb", "gender": 2, "id": 70958, "name": "Nick Stabile", "order": 13, "profile_path": "/ihq0SPXmzMQlk1az9G60x4ukD05.jpg"}, {"cast_id": 19, "character": "Bitsy", "credit_id": "5a2c08c2c3a3680b8a136beb", "gender": 0, "id": 1234903, "name": "Hoku", "order": 14, "profile_path": null}, {"cast_id": 20, "character": "Sue", "credit_id": "5a2c08da925141032c13e101", "gender": 1, "id": 73403, "name": "Joanna Canton", "order": 15, "profile_path": "/gInYKC1HfTat2r2fXYlf2S12U1X.jpg"}, {"cast_id": 21, "character": "Jaclyn Kennedy Calberson", "credit_id": "5a2c0906c3a3680b9a14c49c", "gender": 1, "id": 1701610, "name": "Michelle Morgan", "order": 16, "profile_path": "/qPnjLAffLSgE2NFGlEep9ds5D6W.jpg"}, {"cast_id": 22, "character": "Waitress", "credit_id": "5a2c0910c3a3680b8813ff27", "gender": 1, "id": 45387, "name": "Claudette Sutherland", "order": 17, "profile_path": null}, {"cast_id": 23, "character": "Librarian", "credit_id": "5a2c091ac3a3680b8813ff34", "gender": 1, "id": 4975, "name": "Ellen Geer", "order": 18, "profile_path": "/abGO91Hj5EGEkVdMFKAVRAkuWug.jpg"}, {"cast_id": 24, "character": "Desk Cop #1", "credit_id": "5a2c0925925141032413881b", "gender": 2, "id": 87108, "name": "Dayton Callie", "order": 19, "profile_path": "/miB43H7L4OYY5aRSxhoScjcOxu3.jpg"}, {"cast_id": 25, "character": "Desk Cop #2", "credit_id": "5a2c0931925141033613d1b1", "gender": 2, "id": 104191, "name": "Wiley M. Pickett", "order": 20, "profile_path": "/hedDJBu2ZpTw8EgEDWMW87kV138.jpg"}, {"cast_id": 26, "character": "Head Nurse", "credit_id": "5a2c093c0e0a264cbe1382e0", "gender": 1, "id": 1313637, "name": "Sloan Robinson", "order": 21, "profile_path": "/lSWF8bOpFVLKb2kiiGuzhCXA4Fh.jpg"}, {"cast_id": 27, "character": "Security Guard", "credit_id": "5a2c0946925141033913a899", "gender": 0, "id": 1363961, "name": "Todd Sandler", "order": 22, "profile_path": null}, {"cast_id": 28, "character": "Police Officer", "credit_id": "5a2c095192514103291416a7", "gender": 0, "id": 1220925, "name": "Giselle Loren", "order": 23, "profile_path": null}, {"cast_id": 29, "character": "Heavy Metal Kid", "credit_id": "5a2c0962c3a3680b8a136c82", "gender": 2, "id": 165958, "name": "Jeff D'Agostino", "order": 24, "profile_path": "/avdON3DXR2vPlErxARJPlF3G6ng.jpg"}, {"cast_id": 30, "character": "Newspaper Kid", "credit_id": "5a2c096e0e0a264ccd13fca3", "gender": 2, "id": 173964, "name": "Andrew Leeds", "order": 25, "profile_path": "/w9aIFV2E4qIA19wEaarPR3Dxtbu.jpg"}], "crew": [{"credit_id": "52fe4ac4c3a36847f81e0795", "department": "Directing", "gender": 2, "id": 68457, "job": "Director", "name": "James Frawley", "profile_path": "/2mIAtwNYmCOb599FVkAXDX8uDWg.jpg"}, {"credit_id": "55cb741cc3a3685708000014", "department": "Writing", "gender": 1, "id": 155357, "job": "Writer", "name": "Ami Canaan Mann", "profile_path": "/pcpOz6TCV4FQ0MAK68Cz3BoC8KJ.jpg"}, {"credit_id": "55cb7408c3a36856f9000020", "department": "Writing", "gender": 1, "id": 1287378, "job": "Writer", "name": "Mildred Wirt Benson", "profile_path": "/8W2X6uD9khfILykUqVhzHF7RiSF.jpg"}]}}