{"adult": false, "backdrop_path": "/3L8r7JYW1r5NqjwtrpsiyCD4Ysd.jpg", "belongs_to_collection": null, "budget": 0, "genres": [{"id": 28, "name": "Action"}, {"id": 35, "name": "Comedy"}], "homepage": "http://nitrocircus.com/go/the-nitro-circus-3d-movie/", "id": 110112, "imdb_id": "tt1815852", "original_language": "en", "original_title": "Nitro Circus: The Movie", "overview": "You will see Travis Pastrana and the whole Nitro Circus crew perform some of the most ridiculous, awe-inspiring, and simply insane stunts ever caught on camera. Coming to you in three dimensional glory, it will feel like you are there sitting shotgun with the crew.", "popularity": 7.898, "poster_path": "/158atB3JPFOJ75hUPsP0Nb7oYRN.jpg", "production_companies": [{"id": 23703, "logo_path": null, "name": "Arc Entertainment", "origin_country": ""}], "production_countries": [{"iso_3166_1": "US", "name": "United States of America"}], "release_date": "2012-08-08", "revenue": 3903479, "runtime": 92, "spoken_languages": [{"iso_639_1": "en", "name": "English"}], "status": "Released", "tagline": "", "title": "Nitro Circus: The Movie", "video": false, "vote_average": 6.6, "vote_count": 69, "keywords": {"keywords": [{"id": 5452, "name": "stunt"}, {"id": 10110, "name": "motocross"}, {"id": 178665, "name": "mayhem"}]}, "similar": {"page": 1, "results": [{"adult": false, "backdrop_path": "/lnxiNlbStoBT4CDMqPAdprS5pwN.jpg", "genre_ids": [28, 53], "id": 1991, "original_language": "en", "original_title": "Death Proof", "overview": "Austin's hottest DJ, Jungle Julia, sets out into the night to unwind with her two friends Shanna and Arlene. Covertly tracking their moves is Stuntman Mike, a scarred rebel leering from behind the wheel of his muscle car, revving just feet away.", "poster_path": "/nyQBcpxqS4im2akQlWG9Y1oeM2V.jpg", "release_date": "2007-05-21", "title": "Death Proof", "video": false, "vote_average": 6.8, "vote_count": 2819, "popularity": 20.441}, {"id": 16290, "video": false, "vote_count": 735, "vote_average": 6.3, "title": "Jackass 3D", "release_date": "2010-10-15", "original_language": "en", "original_title": "Jackass 3D", "genre_ids": [28, 35, 99], "backdrop_path": "/9g907Zc9ezEF28TGyDcnMEpyzxz.jpg", "adult": false, "overview": "Jackass 3D is a 3-D film and the third movie of the Jackass series. It follows the same premise as the first two movies, as well as the TV series. It is a compilation of various pranks, stunts and skits. Before the movie begins, a brief introduction is made by Beavis and Butt-head explaining the 3D technology behind the movie. The intro features the cast lining up and then being attacked by various objects in slow-motion. The movie marks the 10th anniversary of the franchise, started in 2000.", "poster_path": "/5j9VFEVjYn0FtqZGqDcmMPYSVoY.jpg", "popularity": 15.967}, {"id": 65851, "video": false, "vote_count": 296, "vote_average": 6.0, "title": "Jackass 3.5", "release_date": "2011-08-03", "original_language": "en", "original_title": "Jackass 3.5", "genre_ids": [28, 35, 99], "backdrop_path": "/uqq2Pdb9eWXQz0Fe8IMpDvbOutD.jpg", "adult": false, "overview": "Jackass 3.5 is a 2011 sequel to Jackass 3D, composed of unused footage shot during the filming of Jackass 3D and interviews from cast and crew", "poster_path": "/ppjN0BZaOJ6aHMXsECHJ0dpFb8Z.jpg", "popularity": 12.02}, {"id": 9012, "video": false, "vote_count": 741, "vote_average": 6.1, "title": "Jackass: The Movie", "release_date": "2002-10-21", "original_language": "en", "original_title": "Jackass: The Movie", "genre_ids": [35, 99], "backdrop_path": "/GcWXLUFFvxnvOcQaBjb5f9Mid5.jpg", "adult": false, "overview": "Johnny Knoxville and his crazy friends appear on the big screen for the very first time in Jackass: The Movie. They wander around Japan in panda outfits, wreak havoc on a once civilized golf course, they even do stunts involving LIVE alligators, and so on. While Johnny Knoxvile and his pals put their life at risk, they are entertaining people at the same time. Get ready for Jackass: The Movie!!", "poster_path": "/iCB8mLrRoMp6sFta1qgZyZgmu9W.jpg", "popularity": 16.667}, {"id": 681, "video": false, "vote_count": 1040, "vote_average": 6.4, "title": "Diamonds Are Forever", "release_date": "1971-12-13", "original_language": "en", "original_title": "Diamonds Are Forever", "genre_ids": [28, 12, 53], "backdrop_path": "/gIGLXXvsljHK1jdDNaIXsjhZnnH.jpg", "adult": false, "overview": "Diamonds are stolen only to be sold again in the international market. James Bond infiltrates a smuggling mission to find out who\u2019s guilty. The mission takes him to Las Vegas where Bond meets his archenemy Blofeld.", "poster_path": "/viPjZ3JCOahcfNCcVhiPExusJoZ.jpg", "popularity": 20.883}, {"id": 1250, "video": false, "vote_count": 3585, "vote_average": 5.4, "title": "Ghost Rider", "release_date": "2007-02-16", "original_language": "en", "original_title": "Ghost Rider", "genre_ids": [28, 14, 27, 53], "backdrop_path": "/9cs9RuOS3A5YEh6r4opVrIGbiJy.jpg", "adult": false, "overview": "In order to save his dying father, young stunt cyclist Johnny Blaze sells his soul to Mephistopheles and sadly parts from the pure-hearted Roxanne Simpson, the love of his life. Years later, Johnny's path crosses again with Roxanne, now a go-getting reporter, and also with Mephistopheles, who offers to release Johnny's soul if Johnny becomes the fabled, fiery 'Ghost Rider'.", "poster_path": "/jnllnSq8u4d1oQPU7PsoAHD6bLU.jpg", "popularity": 32.498}, {"adult": false, "backdrop_path": "/7B3I7S9a4bLonbYw6XVcoDzW8RT.jpg", "genre_ids": [18, 10749], "id": 109689, "original_language": "es", "original_title": "Tengo ganas de ti", "overview": "Sequel to \"Three Steps Above Heaven\". The sexy Gin is the new love of Hache, but this can not forget his former girlfriend, so the love triangle is inevitable.", "poster_path": "/z13I3sWzOoKBDAEpJ7iK9bSznQn.jpg", "release_date": "2012-06-22", "title": "I Want You", "video": false, "vote_average": 6.7, "vote_count": 692, "popularity": 15.177}, {"adult": false, "backdrop_path": "/1Y5YToEJkWhCHJsnMP0FyKxICMJ.jpg", "genre_ids": [28, 35, 99], "id": 12094, "original_language": "en", "original_title": "Jackass Number Two", "overview": "Jackass Number Two is a compilation of various stunts, pranks and skits, and essentially has no plot. Chris Pontius, Johnny Knoxville, Steve-O, Bam Margera, and the whole crew return to the screen to raise the stakes higher than ever before.", "poster_path": "/tu4BZcdkAuah70ilVT30Wfo2HjF.jpg", "release_date": "2006-09-22", "title": "Jackass Number Two", "video": false, "vote_average": 6.3, "vote_count": 564, "popularity": 11.565}, {"id": 64690, "video": false, "vote_count": 7486, "vote_average": 7.5, "title": "Drive", "release_date": "2011-08-06", "original_language": "en", "original_title": "Drive", "genre_ids": [28, 80, 18, 53], "backdrop_path": "/2qR5pJEMumBCKPxFrfx7RU25oVk.jpg", "adult": false, "overview": "A Hollywood stunt performer who moonlights as a wheelman for criminals discovers that a contract has been put on him after a heist gone wrong.", "poster_path": "/nu7XIa67cXc2t7frXCE5voXUJcN.jpg", "popularity": 25.02}, {"adult": false, "backdrop_path": "/q9y3nnAAaQMjNHUYSlIypWeEo4F.jpg", "genre_ids": [18], "id": 9912, "original_language": "en", "original_title": "The World's Fastest Indian", "overview": "The life story of New Zealander Burt Munro, who spent years building a 1920 Indian motorcycle -- a bike which helped him set the land-speed world record at Utah's Bonneville Salt Flats in 1967.", "poster_path": "/h3xDXEEjppiyuRtMv6Cy5bcMTrG.jpg", "release_date": "2005-10-12", "title": "The World's Fastest Indian", "video": false, "vote_average": 7.5, "vote_count": 321, "popularity": 13.008}, {"id": 97367, "video": false, "vote_count": 3024, "vote_average": 6.9, "title": "The Place Beyond the Pines", "release_date": "2013-03-14", "original_language": "en", "original_title": "The Place Beyond the Pines", "genre_ids": [80, 18], "backdrop_path": "/kamIvkwKZUdUgxtudMThuY8EiJ4.jpg", "adult": false, "overview": "A motorcycle stunt rider considers committing a crime in order to provide for his wife and child, an act that puts him on a collision course with a cop-turned-politician.", "poster_path": "/cdsRBoAditFXVhSr8SgnJ2WTBkX.jpg", "popularity": 13.775}, {"id": 16269, "video": false, "vote_count": 54, "vote_average": 6.9, "title": "God of Gamblers", "release_date": "1989-12-14", "original_language": "cn", "original_title": "\u8ced\u795e", "genre_ids": [28, 35, 18], "backdrop_path": "/f8QXZ7H51ur0zwHbsQS2p79e6Gp.jpg", "adult": false, "overview": "Chow Yun-Fat plays Ko Chun, an extremely talented and well known gambler. On the eve of a big confrontation with a famous Singaporean gambler, Ko walks into a trap set by Knife, an avid but a so-so gambler (Andy Lau), meant for an Indian servant. Struck on the head, Ko suffers from amnesia and regresses to a child-like state. Knife takes care of Ko and begins to exploit Ko's gambling talents.", "poster_path": "/lmAVK6B4uR8xgYTytjvAfoLuEBG.jpg", "popularity": 12.144}, {"id": 14158, "video": false, "vote_count": 254, "vote_average": 5.9, "title": "Jackass 2.5", "release_date": "2007-12-18", "original_language": "en", "original_title": "Jackass 2.5", "genre_ids": [35, 99], "backdrop_path": "/vcB1yzRxVQxsZrWS4uVxBz1Ia8Q.jpg", "adult": false, "overview": "The crew have now set off to finish what as left over from Jackass 2.0, and in this version they have Wee Man use a 'pee' gun on themselves, having a mini motor bike fracas in the grocery mall, a sperm test, a portly crew member disguised as King Kong, as well as include three episodes of their hilarious adventures in India.", "poster_path": "/jNSufmwIL6tsIOhTZ1FN47Mdf4T.jpg", "popularity": 14.051}, {"id": 9873, "video": false, "vote_count": 166, "vote_average": 6.4, "title": "F/X", "release_date": "1986-02-07", "original_language": "en", "original_title": "F/X", "genre_ids": [28, 80, 53], "backdrop_path": "/t0u76RL3YlcfnWdRWgRudROqEkg.jpg", "adult": false, "overview": "A movies special effects man is hired by a government agency to help stage the assassination of a well known gangster. When the agency double cross him, he uses his special effects to trap the gangster and the corrupt agents.", "poster_path": "/6VAiIPBnIRPWXi70sxsHDn9rXA8.jpg", "popularity": 11.755}, {"id": 61979, "video": false, "vote_count": 1061, "vote_average": 7.4, "title": "Three Steps Above Heaven", "release_date": "2010-12-03", "original_language": "es", "original_title": "Tres metros sobre el cielo", "genre_ids": [18, 10749], "backdrop_path": "/tBIUBCP6x5rOSyvytX2oVSp1gQ9.jpg", "adult": false, "overview": "Story of two young people who belong to different worlds. It is the chronicle of a love improbable, almost impossible but inevitable dragging in a frantic journey they discover the first great love. Babi (Maria Valverde) is a girl from upper-middle class that is educated in goodness and innocence . Hache (Mario Casas) is a rebellious boy, impulsive, unconscious, has a appetite for risk and danger embodied in endless fights and illegal motorbike races, the limit of common sense", "poster_path": "/57D3h8wb3LMURTyG0dv2VtHfvCM.jpg", "popularity": 22.361}, {"adult": false, "backdrop_path": "/a6qgVLVE6SZfaAF1O5DgppfqDAC.jpg", "genre_ids": [35, 27, 18], "id": 380124, "original_language": "en", "original_title": "Boo! A Madea Halloween", "overview": "Madea winds up in the middle of mayhem when she spends a hilarious, haunted Halloween fending off killers, paranormal poltergeists, ghosts, ghouls, and zombies while keeping a watchful eye on a group of misbehaving teens.", "poster_path": "/dpSWKKBtXOu8hDNJRCIAYfcRtdD.jpg", "release_date": "2016-10-21", "title": "Boo! A Madea Halloween", "video": false, "vote_average": 5.4, "vote_count": 297, "popularity": 11.849}, {"id": 10074, "video": false, "vote_count": 522, "vote_average": 6.4, "title": "Hot Rod", "release_date": "2007-08-03", "original_language": "en", "original_title": "Hot Rod", "genre_ids": [28, 35], "backdrop_path": "/hFYWZ7JdU0fTPh2vnqUPd9avRh8.jpg", "adult": false, "overview": "For Rod Kimball, performing stunts is a way of life, even though he is rather accident-prone. Poor Rod cannot even get any respect from his stepfather, Frank, who beats him up in weekly sparring matches. When Frank falls ill, Rod devises his most outrageous stunt yet to raise money for Frank's operation -- and then Rod will kick Frank's butt.", "poster_path": "/6LDKcAFFNJ3ra1a5LgPSiAbyJHC.jpg", "popularity": 13.1}, {"id": 382591, "video": false, "vote_count": 2113, "vote_average": 7.8, "title": "Two Is a Family", "release_date": "2016-12-07", "original_language": "fr", "original_title": "Demain tout commence", "genre_ids": [35, 18], "backdrop_path": "/kiIIOJbV8BCyatCmXqOdJEUXW3u.jpg", "adult": false, "overview": "A man without attachments or responsibilities suddenly finds himself with an abandoned baby and leaves for London to try and find the mother. Eight years later after he and his daughter become inseparable Gloria's mother reappears.", "poster_path": "/krOqZbxLbjrCkwDtssUBPBF4pqS.jpg", "popularity": 19.344}, {"adult": false, "backdrop_path": "/mA80Za8OS62eavKMMSLNYFIPtqH.jpg", "genre_ids": [35], "id": 10970, "original_language": "en", "original_title": "Silent Movie", "overview": "Aspiring filmmakers Mel Funn, Marty Eggs and Dom Bell go to a financially troubled studio with an idea for a silent movie. In an effort to make the movie more marketable, they attempt to recruit a number of big name stars to appear, while the studio's creditors attempt to thwart them. The film contains only one word of dialogue, spoken by an unlikely source.", "poster_path": "/wajNlrVDkryVGTzDz9vZE6XKZnC.jpg", "release_date": "1976-06-17", "title": "Silent Movie", "video": false, "vote_average": 6.6, "vote_count": 139, "popularity": 10.117}, {"adult": false, "backdrop_path": "/ujCvokRcEkE54t9UF4viGniENMU.jpg", "genre_ids": [18, 10749], "id": 56903, "original_language": "it", "original_title": "Tre metri sopra il cielo", "overview": "A bad boy and a socialite girl hook-up.", "poster_path": "/v1uyiF4pWzBhBlM5732XM0OnCCA.jpg", "release_date": "2004-03-12", "title": "Three Steps Over Heaven", "video": false, "vote_average": 5.7, "vote_count": 447, "popularity": 14.612}], "total_pages": 15, "total_results": 287}, "recommendations": {"page": 1, "results": [{"adult": false, "backdrop_path": "/123AdeUz3ifMcV8uh9o1Fd06zeu.jpg", "genre_ids": [35, 27], "id": 67655, "original_language": "en", "original_title": "Bloodlust Zombies", "overview": "A military weapons manufacturer creates a chemical weapon that causes victims to become blood-lusting killers. A lab accident causes the building to go into lock-down and the employees are trapped inside with the crazed killers.", "poster_path": "/2h0y7ifXEixCtzUNDB280M6HXgx.jpg", "release_date": "2011-07-05", "title": "Bloodlust Zombies", "video": false, "vote_average": 2.8, "vote_count": 9, "popularity": 3.976}, {"adult": false, "backdrop_path": "/fYnVrbe7QEpl5keABXqQLxWTK17.jpg", "genre_ids": [35, 80, 18, 53], "id": 402270, "original_language": "en", "original_title": "Stressed to Kill", "overview": "After suffering a heart attack, Bill (Bill Oberst) takes his doctor's advice literally to eliminate the stresses from his life. The plan is working until his killings attract the attention of a psychotic cop (Armand Assante) who isn't sure whether he wants to arrest or join him.  Complications deepen when it becomes apparent to Bill that the biggest cause of stress in his life might be his wife.", "poster_path": "/h9ixCSbVdj75UEsp09rcMBKgfrW.jpg", "release_date": "2016-05-27", "title": "Stressed to Kill", "video": false, "vote_average": 7.3, "vote_count": 4, "popularity": 3.173}, {"adult": false, "backdrop_path": "/sOfGPpV1DIeNKs0r58BS3XgzE83.jpg", "genre_ids": [35], "id": 35581, "original_language": "en", "original_title": "Joe Rogan: Talking Monkeys in Space", "overview": "'Talking Monkeys in Space' captures Rogan breaking down cultural taboos; exploring his subjects with a raw honesty that is as engrossing as it is hilarious. Exuding a mad joy for life in all its insanity Rogan dispels the negative effects of marijuana use and marvels at his baby daughter; challenges the politically correct teachings of Dr. Phil and ends the anti-Evolution debate \u2013 all with the incisive edge that has defined Rogan's comedy for over twenty years.", "poster_path": "/laoXPSxpnUMRUHEkorGslc7PQ85.jpg", "release_date": "2009-06-20", "title": "Joe Rogan: Talking Monkeys in Space", "video": false, "vote_average": 6.4, "vote_count": 8, "popularity": 3.014}, {"adult": false, "backdrop_path": "/f0eOHASG7OSm5IaGfhQDV96Uc6y.jpg", "genre_ids": [35], "id": 14891, "original_language": "en", "original_title": "Dirty Sanchez: The Movie", "overview": "The Welsh nutters, Dirty Sanchez are making a movie: The concept of the film is that the Devil has heard about the dare devil nature of the Sanchez boys so he's set them the ultimate challenge, to complete stunts based on the 7 Deadly Sins or be damned to the gutter forever.", "poster_path": "/dH1Ofu72em5RFQC6vUndzZ93oct.jpg", "release_date": "2006-09-22", "title": "Dirty Sanchez: The Movie", "video": false, "vote_average": 5.9, "vote_count": 28, "popularity": 4.154}, {"adult": false, "backdrop_path": null, "genre_ids": [16, 14, 10402], "id": 266513, "original_language": "en", "original_title": "Rock Odyssey", "overview": "The story of a mysterious woman named Laura, who embarks on a journey to find her true love. The movie's soundtrack is set to four decades of classic rock. Scatman Crothers provides the voice of a living jukebox who narrates the story.", "poster_path": "/7AlW9gkrGeA4EgCieh8PMOzApYL.jpg", "release_date": "1987-07-13", "title": "Rock Odyssey", "video": false, "vote_average": 6.0, "vote_count": 4, "popularity": 1.862}, {"adult": false, "backdrop_path": null, "genre_ids": [99, 35], "id": 244860, "original_language": "de", "original_title": "Jackass: Gumball 3000 Rally Special", "overview": "The Gumball 3000 is an annual British 3,000-mile (4,800 km) international motor rally which takes place on public roads, with a different route around the world each year. The third rally, held in April 2001, featured 106 cars, including Johnny Knoxville, Steve-O and Chris Pontius, the hosts of Jackass, driving a 1989 Jaguar XJ6. Select portions were broadcast as an hour-long Jackass Gumball 3000 Special on MTV and received the highest viewer ratings of the year.", "poster_path": "/vMOd4RJcOgbj9gt28acnoI25wzo.jpg", "release_date": "2005-12-05", "title": "Jackass: Gumball 3000 Rally Special", "video": false, "vote_average": 5.6, "vote_count": 11, "popularity": 2.552}, {"adult": false, "backdrop_path": null, "genre_ids": [35], "id": 97638, "original_language": "en", "original_title": "Doggiewoggiez! Poochiewoochiez!", "overview": "Those krazed VHS-hunting pupz from Everything Is Terrible! (everyone\u2019s favorite found footage chop shoppe) are back with their third inner-eye-opening feature, containing a feat never before attempted in either human or canine history. EIT! asks but two simple questions, \u201cWhat if we make a movie composed ENTIRELY out of dog-related found footage?\u201d and \u2018'What if this magickal movie, made up of thousands of other dog movies, is also a remake of Alejandro Jodorowsky\u2019s 1973 masterpiece The Holy Mountain?\u201d Well, let\u2019s stop asking dumb rhetorical questions because this never-ending spiral of World-Pup winning, sunglasses-wearing, murder-solving, skateboarding pooches is real! No Bonez about it, this is it! Are you dog enough to go fetch it? ARFFFFFF!", "poster_path": "/waDrAhFwv3boKUuzck2ICtnRBrc.jpg", "release_date": "2012-01-27", "title": "Doggiewoggiez! Poochiewoochiez!", "video": false, "vote_average": 6.8, "vote_count": 6, "popularity": 3.013}, {"adult": false, "backdrop_path": "/y4awfjWpvFc6YRhM73PvNrhcDZa.jpg", "genre_ids": [35], "id": 21941, "original_language": "en", "original_title": "Lee Evans: XL Tour Live 2005", "overview": "Comedy antics of Lee Evans on his live stand-up tour in Cardiff, Wales.", "poster_path": "/x0566DrQ1msFWMnjZnQOoQ5SMdR.jpg", "release_date": "2005-11-28", "title": "Lee Evans: XL Tour Live 2005", "video": false, "vote_average": 7.7, "vote_count": 9, "popularity": 2.543}, {"adult": false, "backdrop_path": "/tZjLFIfQAnnGZbQOTFyy9KCcVsj.jpg", "genre_ids": [35, 10751, 53], "id": 34107, "original_language": "en", "original_title": "The Original Latin Kings of Comedy", "overview": "This stand up special features material from five of the most famous Hispanic standup comics of their era. Paul_Rodriguez (A.K.A. Pablo), George_Lopez (The_George_Lopez_Show), Cheech_Marin (of Cheech and Chong fame), Alex_Reymundo, and Joey_Medina deliver material on a variety of topics that will seem familiar to audiences of every race.", "poster_path": "/plFSm1d8uiCxLVue87j2kFFcdYg.jpg", "release_date": "2002-03-01", "title": "The Original Latin Kings of Comedy", "video": false, "vote_average": 5.7, "vote_count": 4, "popularity": 3.024}, {"adult": false, "backdrop_path": "/hVvYGSowX8D9gyXkaNpYkcHFZU5.jpg", "genre_ids": [14], "id": 413393, "original_language": "en", "original_title": "Pure Imagination: The Story of 'Willy Wonka and the Chocolate Factory'", "overview": "Retrospective documentary on the making of the cult classic \"Willy Wonka and the Chocolate Factory.\"", "poster_path": "/eVuQkqWFEcigRYvMrfBFKbDD3Ba.jpg", "release_date": "2001-11-13", "title": "Pure Imagination: The Story of 'Willy Wonka and the Chocolate Factory'", "video": false, "vote_average": 6.9, "vote_count": 9, "popularity": 3.455}, {"adult": false, "backdrop_path": "/rjelvOyNyu0DyDceL6C2NEccg2g.jpg", "genre_ids": [35], "id": 38170, "original_language": "en", "original_title": "Pablo Francisco: Ouch!", "overview": "Stand-up comic Pablo Francisco may be the most outrageous comedian in the country with sold-out concerts and a cult fan base that's exploding worldwide. No topic is off limits in this no-holds-barred look at movies, music, video games and celebrity. See what fans who know him from MAD TV, The Family Guy and HBO are talking about in this original live concert that's amust-have for any comedy fan.", "poster_path": "/xb4AMtP483FPAqmZFmNKnEHcOfn.jpg", "release_date": "2006-11-14", "title": "Pablo Francisco: Ouch!", "video": false, "vote_average": 7.6, "vote_count": 9, "popularity": 2.108}, {"adult": false, "backdrop_path": "/etAvt6mFWdThHKZRbAYriZYgbsW.jpg", "genre_ids": [35], "id": 97136, "original_language": "en", "original_title": "Demetri Martin: If I", "overview": "If I is a Perrier Comedy Award-winning comedy one-man show written and performed by Demetri Martin at the 2003 Edinburgh Festival Fringe.[12] It was also aired on British television as a special. The show is an autobiographical examination of Martin's life, as seen through various definitions of the word \"if.\" The title of the special comes from a lengthy palindromic poem that Martin wrote; the words \"if I\" are at the center of the poem.", "poster_path": "/cyIEZTYGuwSOcRLzmMZRLL05naS.jpg", "release_date": "2004-01-14", "title": "Demetri Martin: If I", "video": false, "vote_average": 7.4, "vote_count": 5, "popularity": 1.245}, {"adult": false, "backdrop_path": "/5opMLlynILcghRnUi72hdOeueQM.jpg", "genre_ids": [18], "id": 43097, "original_language": "en", "original_title": "Girls Town", "overview": "Chip is killed accidentally while trying to rape a blonde girl, who runs. Silver becomes the number one suspect even though she has an alibi, but due to previous brushes with the law she's sent to Girls Town, a home for young women in trouble with the law which is run by nuns. Silver is rebellious and causes trouble at the school, and her friend Sarafina totters near the brink of self-destruction because of an infatuation with a young singer. Meanwhile Chip's father hires a detective to find out the truth, and Chip's friend Fred gets Silver's sister in trouble at a drag race. Silver has a lot of problems all right.", "poster_path": "/rvifIBUYzhoIw4Q3bwk8JuuojLU.jpg", "release_date": "1959-10-05", "title": "Girls Town", "video": false, "vote_average": 3.8, "vote_count": 9, "popularity": 3.494}, {"adult": false, "backdrop_path": "/ffA564Z0qeuDWknB02xFyEJOkZI.jpg", "genre_ids": [28, 35], "id": 24148, "original_language": "en", "original_title": "CKY 4 The Latest & Greatest", "overview": "Bam Margera, creator of the CKY series and star of MTV's popular TV show Jackass, has added even more antics and ridiculous stunts on CKY4: The Latest &amp; Greatest. Featuring a host of outrageous stunts and skits from previous CKY video releases as well never-before-seen clips deemed too over-the-top for MTV, this video is a must-have for any fan of the Margera family and the Jackass crew.", "poster_path": "/bXlVt0oF5pUIMmrfxxQhZOPNpOw.jpg", "release_date": "2003-11-10", "title": "CKY 4 The Latest & Greatest", "video": false, "vote_average": 7.0, "vote_count": 14, "popularity": 4.457}, {"adult": false, "backdrop_path": "/cfw6nMVJoMm9bHz5rU9T81UEST5.jpg", "genre_ids": [99], "id": 20328, "original_language": "en", "original_title": "Michael Moore Hates America", "overview": "Michael Wilson, like the subject of his film, is trying to get an interview with a multi-millionaire; however, in this case, that millionaire is Michael Moore himself.", "poster_path": "/fGblhUuwIqoJE07fhHMlp04Wf5X.jpg", "release_date": "2004-09-12", "title": "Michael Moore Hates America", "video": false, "vote_average": 5.4, "vote_count": 11, "popularity": 4.139}], "total_pages": 1, "total_results": 15}, "credits": {"cast": [{"cast_id": 12, "character": "Herself", "credit_id": "52fe4acac3a36847f81e1e95", "gender": 1, "id": 1069639, "name": "Jolene Van Vugt", "order": 1, "profile_path": "/pPzRAlJo2DWOTpEbdMcMMiA1mhl.jpg"}, {"cast_id": 13, "character": "Himself", "credit_id": "52fe4acac3a36847f81e1e99", "gender": 2, "id": 580220, "name": "Tommy Passemante", "order": 2, "profile_path": "/p4tUV63yhJKQD83BuFE9hPnd5OC.jpg"}, {"cast_id": 14, "character": "Himself", "credit_id": "52fe4acac3a36847f81e1e9d", "gender": 0, "id": 96087, "name": "Jeremy Rawle", "order": 3, "profile_path": null}, {"cast_id": 15, "character": "Himself", "credit_id": "52fe4acac3a36847f81e1ea1", "gender": 0, "id": 79964, "name": "Gregg Godfrey", "order": 4, "profile_path": null}, {"cast_id": 16, "character": "Himself", "credit_id": "52fe4acac3a36847f81e1ea5", "gender": 0, "id": 199046, "name": "Greg Powell", "order": 5, "profile_path": null}, {"cast_id": 18, "character": "Himself", "credit_id": "52fe4acac3a36847f81e1ead", "gender": 2, "id": 571929, "name": "Erik Roner", "order": 7, "profile_path": "/eXXwZqojVg3n6J2xDSpEamlMrAr.jpg"}, {"cast_id": 19, "character": "Himself", "credit_id": "5458a228c3a368398f001679", "gender": 0, "id": 224037, "name": "Jim DeChamp", "order": 8, "profile_path": null}, {"cast_id": 21, "character": "Himself", "credit_id": "566e5fedc3a3680e73009f34", "gender": 2, "id": 79961, "name": "Travis Pastrana", "order": 9, "profile_path": "/tQr4g0qp4fkRjczMBpxfXeSxJlf.jpg"}], "crew": [{"credit_id": "52fe4acac3a36847f81e1e7b", "department": "Production", "gender": 2, "id": 41551, "job": "Executive Producer", "name": "Bill Gerber", "profile_path": null}, {"credit_id": "566e5f76925141664f00e2c6", "department": "Writing", "gender": 2, "id": 79961, "job": "Writer", "name": "Travis Pastrana", "profile_path": "/tQr4g0qp4fkRjczMBpxfXeSxJlf.jpg"}, {"credit_id": "52fe4acac3a36847f81e1e57", "department": "Directing", "gender": 0, "id": 79964, "job": "Director", "name": "Gregg Godfrey", "profile_path": null}, {"credit_id": "52fe4acac3a36847f81e1e81", "department": "Production", "gender": 0, "id": 79964, "job": "Producer", "name": "Gregg Godfrey", "profile_path": null}, {"credit_id": "52fe4acac3a36847f81e1e63", "department": "Writing", "gender": 0, "id": 79964, "job": "Writer", "name": "Gregg Godfrey", "profile_path": null}, {"credit_id": "52fe4acac3a36847f81e1e5d", "department": "Directing", "gender": 0, "id": 96087, "job": "Director", "name": "Jeremy Rawle", "profile_path": null}, {"credit_id": "52fe4acac3a36847f81e1e6f", "department": "Writing", "gender": 0, "id": 96087, "job": "Writer", "name": "Jeremy Rawle", "profile_path": null}, {"credit_id": "52fe4acac3a36847f81e1e87", "department": "Crew", "gender": 2, "id": 224083, "job": "Cinematography", "name": "Donny Anderson", "profile_path": null}, {"credit_id": "52fe4acac3a36847f81e1e75", "department": "Production", "gender": 0, "id": 1069636, "job": "Executive Producer", "name": "David F. Brooks", "profile_path": null}, {"credit_id": "52fe4acac3a36847f81e1e8d", "department": "Editing", "gender": 0, "id": 1069638, "job": "Editor", "name": "Seth Torok", "profile_path": null}]}}