{"adult": false, "backdrop_path": "/ykGkfs3uOwNiz0aDRyMVELBzBfC.jpg", "belongs_to_collection": {"id": 167716, "name": "The Bill Douglas Trilogy", "poster_path": "/xrgEFhTTrSRYcfJBQpALOffdecW.jpg", "backdrop_path": null}, "budget": 0, "genres": [{"id": 18, "name": "Drama"}], "homepage": null, "id": 110115, "imdb_id": "tt0070424", "original_language": "en", "original_title": "My Ain Folk", "overview": "When Jamie's maternal grandmother dies, he and his brother Tommy are separated - Tommy is taken off to a welfare home and Jamie goes to live with his other grandmother and uncle. His life is far from happy, filled with silence, rejection and bouts of violence.", "popularity": 4.316, "poster_path": "/j1c46qhoMV8tD9F3F7AgAoBAUxm.jpg", "production_companies": [{"id": 7281, "logo_path": "/lkqIuaKTm2sg3umwTBScmqyzLX5.png", "name": "British Film Institute", "origin_country": "GB"}], "production_countries": [{"iso_3166_1": "GB", "name": "United Kingdom"}], "release_date": "1973-12-01", "revenue": 0, "runtime": 55, "spoken_languages": [{"iso_639_1": "en", "name": "English"}], "status": "Released", "tagline": "", "title": "My Ain Folk", "video": false, "vote_average": 6.3, "vote_count": 17, "keywords": {"keywords": [{"id": 2233, "name": "neglect"}, {"id": 185018, "name": "autobiographical"}, {"id": 185019, "name": "child neglect"}]}, "similar": {"page": 1, "results": [{"adult": false, "backdrop_path": "/nImHXYrYC7matxSdfKNQSGLqfbN.jpg", "genre_ids": [18], "id": 110090, "original_language": "en", "original_title": "My Way Home", "overview": "Jamie leaves the children's home to live with his paternal grandmother. After working in a mine and in a tailor's shop, he is conscripted into the RAF, and goes to Egypt, where he is befriended by Robert, whose undemanding companionship releases Jamie from self-pity.", "poster_path": "/3ySi5RPsemAgTjGjDFo3XABYgo8.jpg", "release_date": "1978-11-01", "title": "My Way Home", "video": false, "vote_average": 6.6, "vote_count": 17, "popularity": 3.968}, {"id": 426426, "video": false, "vote_count": 2325, "vote_average": 7.8, "title": "Roma", "release_date": "2018-08-25", "original_language": "es", "original_title": "Roma", "genre_ids": [18], "backdrop_path": "/zl9uqCl5iUSb50sTk2BPzw6bJnU.jpg", "adult": false, "overview": "In 1970s Mexico City, two domestic workers help a mother of four while her husband is away for an extended period of time.", "poster_path": "/dtIIyQyALk57ko5bjac7hi01YQ.jpg", "popularity": 17.769}, {"adult": false, "backdrop_path": "/8e0ETQmrgcP6R8TaVjd7o9NCGj9.jpg", "genre_ids": [18], "id": 517814, "original_language": "ar", "original_title": "\u06a9\u0641\u0631\u0646\u0627\u062d\u0648\u0645", "overview": "Zain, a 12-year-old boy scrambling to survive on the streets of Beirut, sues his parents for having brought him into such an unjust world, where being a refugee with no documents means that your rights can easily be denied.", "poster_path": "/mFnfTVADj8yOxwzprYOmTPselk8.jpg", "release_date": "2018-10-06", "title": "Capernaum", "video": false, "vote_average": 8.3, "vote_count": 560, "popularity": 18.339}, {"id": 114444, "video": false, "vote_count": 20, "vote_average": 6.8, "title": "My Childhood", "release_date": "1972-06-05", "original_language": "en", "original_title": "My Childhood", "genre_ids": [18], "backdrop_path": "/2ltSI9WrUQEnS7JRBYduVDSj18d.jpg", "adult": false, "overview": "The first part of Bill Douglas' influential trilogy harks back to his impoverished upbringing in early-'40s Scotland. Cinema was his only escape - he paid for it with the money he made from returning empty jam jars - and this escape is reflected most closely at this time of his life as an eight-year-old living on the breadline with his half-brother and sick grandmother in a poor mining village.", "poster_path": "/aWQr9D0PFY5ivDm1tqGryeqxAtB.jpg", "popularity": 5.733}, {"adult": false, "backdrop_path": "/4RxnVVMDWrX3ZtRFt9MxULnnwOW.jpg", "genre_ids": [27, 53, 18], "id": 157115, "original_language": "en", "original_title": "Jug Face", "overview": "The pit has spoken. Dawai, the potter of a backwoods community, has crafted a face on a ceramic jug of the person that the pit wants sacrificed. Ada, pregnant with her brother\u2019s child, has seen her face on the jug and hides it in the woods, determined to save the life of her unborn. If she does not sacrifice herself however, the creature from the pit will kill everyone in the village until she does.", "poster_path": "/tt8B0YEpsMW06Jvom2GuRoA340Y.jpg", "release_date": "2013-08-09", "title": "Jug Face", "video": false, "vote_average": 5.3, "vote_count": 103, "popularity": 8.103}, {"adult": false, "backdrop_path": "/1Mftm91eaNqn8segqlcrSuJSBPu.jpg", "genre_ids": [35, 18], "id": 25403, "original_language": "it", "original_title": "Caro diario", "overview": "Writer/director/actor Nanni Moretti offers a three-part film diary which takes a sharply satiric look at Italian life.", "poster_path": "/fpuOq1YN7LHjctGFniOK8OPnwgs.jpg", "release_date": "1993-10-12", "title": "Dear Diary", "video": false, "vote_average": 7.4, "vote_count": 168, "popularity": 6.547}, {"id": 325385, "video": false, "vote_count": 95, "vote_average": 7.8, "title": "Endless Poetry", "release_date": "2016-03-23", "original_language": "es", "original_title": "Poes\u00eda sin fin", "genre_ids": [18, 14], "backdrop_path": "/zcV01KGtTrCKX38kmQocaBmx3oN.jpg", "adult": false, "overview": "A portrait of Alejandro Jodorowsky\u2019s young adulthood, set in the 1940s and 50s, in the electric capital city of Santiago. There, he decides to become a poet and is introduced, by destiny, into the foremost bohemian and artistic circle of the time.", "poster_path": "/tit9FoWKBjnUlFTPwzrIGAnidFe.jpg", "popularity": 7.529}, {"adult": false, "backdrop_path": "/yXYfI435HVWYu7TwrZ4rRVoYqwI.jpg", "genre_ids": [18], "id": 158908, "original_language": "en", "original_title": "The Inevitable Defeat of Mister & Pete", "overview": "Coming of age story about two inner city youths, who are left to fend for themselves over the summer after their mothers are taken away by the authorities.", "poster_path": "/6zPGqjUBuYnQNiSDjG2qpu4pc29.jpg", "release_date": "2013-10-11", "title": "The Inevitable Defeat of Mister & Pete", "video": false, "vote_average": 7.6, "vote_count": 48, "popularity": 7.102}, {"adult": false, "backdrop_path": "/ib87lE0gaYvJIEq9TqjuPgJcs2L.jpg", "genre_ids": [35, 18, 10749], "id": 4927, "original_language": "en", "original_title": "Edge of Seventeen", "overview": "From Toni Basil to the Eurythmics, from friendship bracelets to whip-it's, the summer of 1984 was about as 80's as the 80's ever got. Stuck right in the middle of it is Eric Hunter, heading towards his senior year in Sandusky, Ohio, and passing the summer working at a local amusement park in the fast food restaurant. He is joined by his long time girl/friend Maggie, as they don their ugly brown polyester uniforms and face the world...", "poster_path": "/vIVVXUG2l8rb8xvhXJazPV6yyrw.jpg", "release_date": "1998-05-14", "title": "Edge of Seventeen", "video": false, "vote_average": 6.4, "vote_count": 53, "popularity": 6.993}, {"adult": false, "backdrop_path": "/hWJozkhGRNOdSeMZHF5e6giT1Wk.jpg", "genre_ids": [35], "id": 627016, "original_language": "en", "original_title": "Gary Gulman: The Great Depresh", "overview": "In his first HBO comedy special, Gary Gulman offers candid reflections on his struggles with depression through stand-up and short documentary interludes. While speaking to issues of mental health, Gulman also offers his observations on a number of topics, including his admiration for Millennial attitudes toward bullying, the intersection of masculinity and sports, and how his mother's voice is always in his head.", "poster_path": "/6mTFlRNsvZIKrPdmjUOfXXcRvBo.jpg", "release_date": "2019-10-05", "title": "Gary Gulman: The Great Depresh", "video": false, "vote_average": 6.0, "vote_count": 1, "popularity": 1.833}, {"adult": false, "backdrop_path": "/i192762WhCkgTyrFxn21I7ZrBVj.jpg", "genre_ids": [18, 53], "id": 434, "original_language": "de", "original_title": "Knallhart", "overview": "From the youth directed novel of the same name by Greogor Tressnow comes a film by Detlev Buck that is a realistic portrait of life in the section of Berlin called Neuk\u00f6lln. It\u2019s about power and weakness, delinquents and victims, and the difficulties a 15-year-old faces in a poor and criminal environment.", "poster_path": "/24GUshsd6GtcSY4Jo0Nh4ilkaXV.jpg", "release_date": "2006-03-09", "title": "Tough Enough", "video": false, "vote_average": 7.3, "vote_count": 25, "popularity": 3.241}, {"id": 42914, "video": false, "vote_count": 31, "vote_average": 6.3, "title": "Three on a Match", "release_date": "1932-10-29", "original_language": "en", "original_title": "Three on a Match", "genre_ids": [80, 18], "backdrop_path": "/h41jVez7ooyGfergW2CfhYUHiJW.jpg", "adult": false, "overview": "Mary, Vivian and Ruth are old friends who do some catching up after a chance meeting. Of the three women, Vivian, who married successful lawyer Robert, seems to have the most glamorous life. Vivian really isn't satisfied, though, and she soon deserts Robert and her son for Mike, a mobster. Before long, Vivian is hooked on drugs, and Mike needs cash -- so the gangster decides to kidnap Vivian's own son for ransom.", "poster_path": "/fWigzhUxHc0xcITTazdQQ5y3SIo.jpg", "popularity": 6.037}, {"adult": false, "backdrop_path": "/xSOUK0NhW7cU1t7IGgyFuj1f26P.jpg", "genre_ids": [18], "id": 43976, "original_language": "fa", "original_title": "\u0646\u0648\u0646 \u0648 \u06af\u0644\u062f\u0648\u0646", "overview": "A semi-autobiographical account of Makmahlbaf's experience as a teenager when, as a 17-year-old, he stabbed a policeman at a protest rally. Two decades later, he tracks down the policeman he injured in an attempt to make amends.", "poster_path": "/jBgImBSOFUJg8voD7xbLqS1s1tf.jpg", "release_date": "1996-08-13", "title": "A Moment of Innocence", "video": false, "vote_average": 7.7, "vote_count": 44, "popularity": 4.9}, {"id": 23981, "video": false, "vote_count": 5, "vote_average": 6.2, "title": "Iron And Silk", "release_date": "1991-02-15", "original_language": "en", "original_title": "Iron And Silk", "genre_ids": [35, 18], "backdrop_path": "/4vZG1ChXVpPWBwSH9RSrNGZnDTT.jpg", "adult": false, "overview": "Iron and Silk is a 1990 movie based on the eponymous book by American writer Mark Salzman. It details his journey to China after college to study Chinese wu shu, better known in the west as kung fu, and to teach English. Though not trained as an actor, Salzman starred as himself, as did Pan Qingfu, who claimed no one else could portray him on film. Salzman's experiences occurred in Changsha, Hunan, though the film was shot in Hangzhou, Zhejiang. (Wikipedia)", "poster_path": "/szVO00eKXhg7NtXolCWrHdYqYyS.jpg", "popularity": 2.805}, {"id": 94794, "video": false, "vote_count": 32, "vote_average": 7.3, "title": "Blue", "release_date": "1993-08-19", "original_language": "en", "original_title": "Blue", "genre_ids": [99, 18, 10402], "backdrop_path": "/7O0zM9hLvZvjKMkjbllDbEXWAOg.jpg", "adult": false, "overview": "Against a plain, unchanging blue screen, a densely interwoven soundtrack of voices, sound effects and music attempt to convey a portrait of Derek Jarman's experiences with AIDS, both literally and allegorically, together with an exploration of the meanings associated with the colour blue.", "poster_path": "/4kVM89UqxiOopaDCAwPp9lyG37d.jpg", "popularity": 5.388}, {"adult": false, "backdrop_path": "/wgQxOG1VbbKhf694R8ruzRck8UO.jpg", "genre_ids": [10751, 35], "id": 17132, "original_language": "en", "original_title": "Savannah Smiles", "overview": "The young daughter of a politician runs away due to lack of attention. She hides in the car of two not too bright crooks who are slowly converted into parent figures as the police web closes down on the supposed kidnappers.", "poster_path": "/y69S116RRTkBNJIRUZkc5ldnYS4.jpg", "release_date": "1982-04-09", "title": "Savannah Smiles", "video": false, "vote_average": 6.3, "vote_count": 13, "popularity": 6.625}, {"adult": false, "backdrop_path": "/yOz5EI6r6BkjqymMhTXuczjFrge.jpg", "genre_ids": [35], "id": 5899, "original_language": "nl", "original_title": "De noorderlingen", "overview": "A black comedy set in the 1960s in a small Netherlands community, populated by a cast of eccentrics, all of whom hold a range of sexual obsessions and frustrated desires.", "poster_path": "/qo4wJok9ZqPBppYZSZyc5vFAcDp.jpg", "release_date": "1992-04-17", "title": "The Northerners", "video": false, "vote_average": 7.2, "vote_count": 22, "popularity": 2.002}, {"adult": false, "backdrop_path": "/9aUcoMDARruvlgC0MQXLCsznqbp.jpg", "genre_ids": [18, 99], "id": 537971, "original_language": "es", "original_title": "Mia", "overview": "Mia recounts her most intimate confessions, uncensored, in her first approach to a totally new world of domination and submission.", "poster_path": "/nEmw1fZOQp2qFGdrak3ipCbe31G.jpg", "release_date": "2017-12-17", "title": "Mia", "video": false, "vote_average": 8.0, "vote_count": 1, "popularity": 6.414}, {"adult": false, "backdrop_path": "/29ZMrdudNUteejSm1UoJbO5CkSj.jpg", "genre_ids": [35, 12], "id": 49410, "original_language": "en", "original_title": "Motorama", "overview": "A ten year old boy gets tired of life with abusive parents and cashes in his piggy bank and steals a Mustang. He rides off into a surreal America playing \"Motorama,\" a game sponsored by Chimera Gas Company. He has various encounters with different people, and eventually reaches the Chimera Gas Company where he finds they are not playing by the rules of the game.", "poster_path": "/5KjpA5G2TlbNXYmVk4dwLVGDv2N.jpg", "release_date": "1991-09-10", "title": "Motorama", "video": false, "vote_average": 6.2, "vote_count": 20, "popularity": 6.27}, {"adult": false, "backdrop_path": "/xpTse6rv3zE88ea3xASeJcmVrPL.jpg", "genre_ids": [27, 53], "id": 58623, "original_language": "en", "original_title": "Pickman's Muse", "overview": "An artist, Robert Pickman, becomes obsessed by visions of unworldly horror, revealed to him through an ancient artifact discovered in an abandoned church.", "poster_path": "/jQIAgM5HdTLHJUJ9DAK5PyNriTP.jpg", "release_date": "2010-08-01", "title": "Pickman's Muse", "video": false, "vote_average": 5.9, "vote_count": 7, "popularity": 3.187}], "total_pages": 3, "total_results": 52}, "recommendations": {"page": 1, "results": [{"adult": false, "backdrop_path": "/nImHXYrYC7matxSdfKNQSGLqfbN.jpg", "genre_ids": [18], "id": 110090, "original_language": "en", "original_title": "My Way Home", "overview": "Jamie leaves the children's home to live with his paternal grandmother. After working in a mine and in a tailor's shop, he is conscripted into the RAF, and goes to Egypt, where he is befriended by Robert, whose undemanding companionship releases Jamie from self-pity.", "poster_path": "/3ySi5RPsemAgTjGjDFo3XABYgo8.jpg", "release_date": "1978-11-01", "title": "My Way Home", "video": false, "vote_average": 6.6, "vote_count": 17, "popularity": 3.968}, {"id": 114444, "video": false, "vote_count": 20, "vote_average": 6.8, "title": "My Childhood", "release_date": "1972-06-05", "original_language": "en", "original_title": "My Childhood", "genre_ids": [18], "backdrop_path": "/2ltSI9WrUQEnS7JRBYduVDSj18d.jpg", "adult": false, "overview": "The first part of Bill Douglas' influential trilogy harks back to his impoverished upbringing in early-'40s Scotland. Cinema was his only escape - he paid for it with the money he made from returning empty jam jars - and this escape is reflected most closely at this time of his life as an eight-year-old living on the breadline with his half-brother and sick grandmother in a poor mining village.", "poster_path": "/aWQr9D0PFY5ivDm1tqGryeqxAtB.jpg", "popularity": 5.733}, {"adult": false, "backdrop_path": null, "genre_ids": [99], "id": 148908, "original_language": "en", "original_title": "In the Street", "overview": "Images of street life in New York's Spanish Harlem during the 1940s.", "poster_path": "/qegJ2ax7YkEkpxaAgy7p8lJpN7D.jpg", "release_date": "1948-12-31", "title": "In the Street", "video": false, "vote_average": 6.3, "vote_count": 8, "popularity": 1.775}, {"adult": false, "backdrop_path": null, "genre_ids": [], "id": 48712, "original_language": "en", "original_title": "78 Tours", "overview": "A waltz played with an accordion starts a short story about the running time.", "poster_path": "/jY4uW1mF9BlwEnfgeCfT8Z9fDkc.jpg", "release_date": "1985-01-01", "title": "78 Tours", "video": false, "vote_average": 6.5, "vote_count": 14, "popularity": 1.96}, {"adult": false, "backdrop_path": "/5ZGrPugkSR8Ka0TWb2yLW2GrkMl.jpg", "genre_ids": [10402], "id": 147282, "original_language": "en", "original_title": "Jammin' the Blues", "overview": "In this short film, prominent jazz musicians of the 1940s gather for a rare filming of a jam session. This highly stylized chronicle features tenor sax legend Lester Young.", "poster_path": "/dhyFQsh75DYZUoXJWSddPtNUdSX.jpg", "release_date": "1944-05-05", "title": "Jammin' the Blues", "video": false, "vote_average": 6.7, "vote_count": 13, "popularity": 2.59}, {"id": 127817, "video": false, "vote_count": 21, "vote_average": 6.5, "title": "Blinkity Blank", "release_date": "1955-01-01", "original_language": "en", "original_title": "Blinkity Blank", "genre_ids": [], "backdrop_path": "/tGd2k68yU7aaT4nsDWZwFIyFYoe.jpg", "adult": false, "overview": "An animated short film with an improvised jazz soundtrack.", "poster_path": "/mtoUa9I894PKMcv0aDPbHIltzhG.jpg", "popularity": 2.588}, {"adult": false, "backdrop_path": "/2xJ19ASoAuOZNxfDiIZyP390Pjj.jpg", "genre_ids": [10402], "id": 129303, "original_language": "xx", "original_title": "Pas de Deux", "overview": "Two ballet dancers perform a dance enhanced with surreal multi and after-image effect visuals.", "poster_path": "/nZE1SgBhREE8jvVDtznnrUfciZ9.jpg", "release_date": "1968-01-01", "title": "Pas de Deux", "video": false, "vote_average": 6.6, "vote_count": 21, "popularity": 1.543}, {"adult": false, "backdrop_path": null, "genre_ids": [], "id": 147681, "original_language": "en", "original_title": "Centuries of June", "overview": "Centuries of June, perhaps more than any Cornell film, is a naked attempt to capture the soul of a place and the mood of a disappearing moment.", "poster_path": "/ld8vtSGpKKHEU6nK6IvtVnuvLEv.jpg", "release_date": "1956-12-07", "title": "Centuries of June", "video": false, "vote_average": 4.0, "vote_count": 9, "popularity": 1.214}, {"id": 126278, "video": false, "vote_count": 13, "vote_average": 5.7, "title": "Cuadecuc, Vampir", "release_date": "1972-05-05", "original_language": "ca", "original_title": "Cuadecuc, vampir", "genre_ids": [99, 27], "backdrop_path": "/9IyYrh7tcGlVscz5nTknYe8pbWX.jpg", "adult": false, "overview": "Initially a documentary about the making of Jess Franco\u2019s \u201cCount Dracula\u201d (a 1970 vampire movie starring Christopher Lee), \"Cuadecuc, Vampir\" presents \"an intervention\": an atmospheric, silent, black and white film-essay, serving as an alternative version of the original movie, showing grainy footage of the performers\u2013both in and out of their characters\u2013wandering through the Gothic sets and the natural locations; a ghostly narration between fiction and reality.", "poster_path": "/3uBR2pYLMjzKCNhzASreXyXvTWy.jpg", "popularity": 2.848}, {"adult": false, "backdrop_path": null, "genre_ids": [16], "id": 256651, "original_language": "en", "original_title": "Fugue", "overview": "A work of visual art that borrows from music the principles of the fugue, with the sudden flight of a man to his hotel room as its main theme. Where he dreams.", "poster_path": "/xUmnxj6AGUvl4jT1z3iJmPHHmEW.jpg", "release_date": "1998-01-01", "title": "Fugue", "video": false, "vote_average": 6.0, "vote_count": 13, "popularity": 1.546}, {"adult": false, "backdrop_path": "/a56zJc97bCugfxMSm8bvEit1Htx.jpg", "genre_ids": [99], "id": 94513, "original_language": "fa", "original_title": "\u062f\u0648 \u0631\u0627\u0647 \u062d\u0644 \u0628\u0631\u0627\u06cc \u064a\u06a9 \u0645\u0633\u0626\u0644\u0647", "overview": "During breaktime, Dara and Nader have a fierce argument about a torn exercise book that the former has given back to the latter. There are two possible outcomes, which the film shows one after the other. One is that Dara wants to get his own back, and the two boys start a violent fight; the other is that they work together to mend the exercise book with a little glue.", "poster_path": "/ezDMHCznR9YpHVBMWSeav4FYxhi.jpg", "release_date": "1975-01-01", "title": "Two Solutions for One Problem", "video": false, "vote_average": 5.4, "vote_count": 14, "popularity": 0.838}, {"adult": false, "backdrop_path": "/v5oCRwHzudCJgCpAbyzrUFfsm5Q.jpg", "genre_ids": [], "id": 189644, "original_language": "en", "original_title": "Nymphlight", "overview": "A short, avant-garde movie, starring twelve-year-old ballet student Gwen Thomas, is a lovely blend of fact and fiction, using Bryant Park at the New York Public Library as a stage set for the fantasy inclusion of a certain nymph. A meditation on an ephemeral day in the the life of a park shared by birds, the young and the old.", "poster_path": "/pa32euc6Rk4whHY2lurh349vgFu.jpg", "release_date": "1957-01-01", "title": "Nymphlight", "video": false, "vote_average": 5.3, "vote_count": 12, "popularity": 1.4}, {"adult": false, "backdrop_path": null, "genre_ids": [10402, 16], "id": 145337, "original_language": "fr", "original_title": "C'est l'aviron", "overview": "An illustration of a traditional French Canadian song in the form of progressing cutouts and still pictures.", "poster_path": "/66lbswzGSpBKdLNhu2TiM5PYpk3.jpg", "release_date": "1944-12-31", "title": "Rock the Boat", "video": false, "vote_average": 5.7, "vote_count": 12, "popularity": 1.471}, {"adult": false, "backdrop_path": null, "genre_ids": [], "id": 184882, "original_language": "de", "original_title": "Filmstudie", "overview": "Entertaining Dadaist experimental short, similar to Man Ray's work, full of shifting geometric shapes, stock footage of seagulls, flying eyeballs, and glaring floating heads.", "poster_path": "/A1dBKcm1uBDqh2ovz2VRLe9Pktm.jpg", "release_date": "1926-05-21", "title": "Film Study", "video": false, "vote_average": 5.7, "vote_count": 13, "popularity": 1.508}, {"adult": false, "backdrop_path": null, "genre_ids": [], "id": 146362, "original_language": "fr", "original_title": "La poulette grise", "overview": "An experimental short film of images and music made by Norman McLaren.", "poster_path": "/cpqPu6bbsTxpPEg9lRqWoiwiyK1.jpg", "release_date": "1947-12-31", "title": "La poulette grise", "video": false, "vote_average": 5.5, "vote_count": 12, "popularity": 1.526}, {"adult": false, "backdrop_path": "/4grhkguadi9KtPQ6wkJAaKVO4Mn.jpg", "genre_ids": [35, 16], "id": 134757, "original_language": "en", "original_title": "KoKo's Earth Control", "overview": "Ko-Ko the Clown and his dog Fitz walk into a building where levers that control various aspects of the Earth are located. After Fitz presses a particular lever, the world goes topsy-turvy and out-of-control.  Note that this cartoon contains strobe flashing.", "poster_path": "/j16ObUAZuF8nmXCJpfCpBvh2HJ8.jpg", "release_date": "1928-03-31", "title": "KoKo's Earth Control", "video": false, "vote_average": 6.1, "vote_count": 11, "popularity": 1.985}, {"adult": false, "backdrop_path": null, "genre_ids": [16], "id": 174689, "original_language": "en", "original_title": "N\u00e4r Kapten Grogg skulle portr\u00e4tteras", "overview": "An artist receives the visit of Grogg, an animated captain, to draw his portrait", "poster_path": "/A9QlnkpJ8QwerFhAzijiivLfqQR.jpg", "release_date": "1917-08-12", "title": "The Portrait of Captain Grogg", "video": false, "vote_average": 6.4, "vote_count": 8, "popularity": 2.394}, {"adult": false, "backdrop_path": null, "genre_ids": [], "id": 190278, "original_language": "de", "original_title": "Alles dreht sich, alles bewegt sich", "overview": "A day at the carnival \u2014 sensational tent shows where miracles can be seen for the price of admission, boisterous noise of crowds and barkers, shrill and gaudy circus music, the violence of the street ten-fold. This is the substance of Everything Turns, Richter\u2019s first sound film. At its premier at Baden-Baden Richter got into a fight with two Nazi officials who disliked the films \u2018modernism.\u2019 Yet in 1936 it was awarded first prize for artistic merit by the Nazi\u2019s, with Richter\u2019s name suppressed from the credits. He had long since left Germany.", "poster_path": null, "release_date": "1929-07-25", "title": "Everything Turns, Everything Revolves", "video": false, "vote_average": 6.1, "vote_count": 10, "popularity": 1.96}, {"adult": false, "backdrop_path": "/4izPHldRKUwUewsvATp1AEPSynf.jpg", "genre_ids": [], "id": 189651, "original_language": "fr", "original_title": "La marche des machines", "overview": "La marche des machines (Deslaw,1927) is a sort of symphony of machines.", "poster_path": "/5ExziDB98g0i4ylV4zG9PewkUcE.jpg", "release_date": "1927-04-28", "title": "The March of the Machines", "video": false, "vote_average": 5.0, "vote_count": 10, "popularity": 1.458}, {"adult": false, "backdrop_path": "/bC0Vcse8AXhwjiHVmcUmoVIwt9s.jpg", "genre_ids": [16], "id": 90909, "original_language": "xx", "original_title": "Sisyphus", "overview": "The film is an artistically spare depiction of the Greek myth of Sysiphus, sentenced to eternally roll a stone up a mountain. The story is presented in a single, unbroken shot, consisting of a dynamic line drawing of Sysiphus, the stone, and the mountainside.", "poster_path": "/1JpXYLgqHFCglYxtW6QNd9LgCKn.jpg", "release_date": "1974-10-01", "title": "Sisyphus", "video": false, "vote_average": 5.8, "vote_count": 10, "popularity": 1.732}], "total_pages": 2, "total_results": 40}, "credits": {"cast": [{"cast_id": 3, "character": "Jamie", "credit_id": "52fe4acbc3a36847f81e1ee3", "gender": 0, "id": 1068698, "name": "Stephen Archibald", "order": 0, "profile_path": null}, {"cast_id": 4, "character": "Tommy", "credit_id": "52fe4acbc3a36847f81e1ee7", "gender": 0, "id": 1068699, "name": "Hughie Restorick", "order": 1, "profile_path": null}, {"cast_id": 5, "character": "Grandmother", "credit_id": "52fe4acbc3a36847f81e1eeb", "gender": 0, "id": 229364, "name": "Jean Taylor Smith", "order": 2, "profile_path": null}, {"cast_id": 6, "character": "Tommy's Father", "credit_id": "52fe4acbc3a36847f81e1eef", "gender": 0, "id": 70010, "name": "Bernard McKenna", "order": 3, "profile_path": null}, {"cast_id": 12, "character": "Jamie's Grandad", "credit_id": "52fe4acbc3a36847f81e1f11", "gender": 0, "id": 1115634, "name": "Mr. Munro", "order": 4, "profile_path": null}, {"cast_id": 13, "character": "Jamie's Father", "credit_id": "52fe4acbc3a36847f81e1f15", "gender": 0, "id": 1115624, "name": "Paul Kermack", "order": 5, "profile_path": null}, {"cast_id": 14, "character": "Father's Mother", "credit_id": "52fe4acbc3a36847f81e1f19", "gender": 0, "id": 215281, "name": "Helena Gloag", "order": 6, "profile_path": null}, {"cast_id": 15, "character": "Father's Wife", "credit_id": "52fe4acbc3a36847f81e1f1d", "gender": 0, "id": 1115635, "name": "Jessie Combe", "order": 7, "profile_path": null}, {"cast_id": 16, "character": "Father's Son", "credit_id": "52fe4acbc3a36847f81e1f21", "gender": 0, "id": 1115636, "name": "William Carroll", "order": 8, "profile_path": null}, {"cast_id": 17, "character": "Father's Girlfriend", "credit_id": "52fe4acbc3a36847f81e1f25", "gender": 0, "id": 1115637, "name": "Anne McLeod", "order": 9, "profile_path": null}], "crew": [{"credit_id": "52fe4acbc3a36847f81e1ed9", "department": "Directing", "gender": 0, "id": 1048402, "job": "Director", "name": "Bill Douglas", "profile_path": "/4k8wIsMBDRWDIEKqVwmPm0fEICA.jpg"}, {"credit_id": "52fe4acbc3a36847f81e1edf", "department": "Writing", "gender": 0, "id": 1048402, "job": "Writer", "name": "Bill Douglas", "profile_path": "/4k8wIsMBDRWDIEKqVwmPm0fEICA.jpg"}, {"credit_id": "52fe4acbc3a36847f81e1ef5", "department": "Production", "gender": 0, "id": 1115630, "job": "Producer", "name": "Nick Nascht", "profile_path": null}, {"credit_id": "52fe4acbc3a36847f81e1efb", "department": "Production", "gender": 0, "id": 1115631, "job": "Producer", "name": "Tony Bic\u00e2t", "profile_path": null}, {"credit_id": "52fe4acbc3a36847f81e1f01", "department": "Production", "gender": 0, "id": 1115632, "job": "Producer", "name": "Charles Rees", "profile_path": null}, {"credit_id": "52fe4acbc3a36847f81e1f0d", "department": "Editing", "gender": 0, "id": 1115633, "job": "Editor", "name": "Peter West", "profile_path": null}, {"credit_id": "5cfcdfb4c3a3683662212350", "department": "Camera", "gender": 2, "id": 42119, "job": "Director of Photography", "name": "Gale Tattersall", "profile_path": null}]}}