{"adult": false, "backdrop_path": "/uc0UUkz5D8a6OZQ0VUaUwOPRlAb.jpg", "belongs_to_collection": null, "budget": 6500000, "genres": [{"id": 18, "name": "Drama"}, {"id": 10749, "name": "Romance"}], "homepage": null, "id": 11034, "imdb_id": "tt0071577", "original_language": "en", "original_title": "The Great Gatsby", "overview": "Nick Carraway, a young Midwesterner now living on Long Island, finds himself fascinated by the mysterious past and lavish lifestyle of his neighbor, the nouveau riche Jay Gatsby. He is drawn into Gatsby's circle, becoming a witness to obsession and tragedy.", "popularity": 9.23, "poster_path": "/qmy6Iz0q5xTCYNFrPvqxx1gw5d7.jpg", "production_companies": [{"id": 4, "logo_path": "/fycMZt242LVjagMByZOLUGbCvv3.png", "name": "Paramount", "origin_country": "US"}], "production_countries": [{"iso_3166_1": "US", "name": "United States of America"}], "release_date": "1974-03-27", "revenue": 26533200, "runtime": 144, "spoken_languages": [{"iso_639_1": "en", "name": "English"}], "status": "Released", "tagline": "Gone is the romance that was so divine.", "title": "The Great Gatsby", "video": false, "vote_average": 6.4, "vote_count": 266, "keywords": {"keywords": [{"id": 9398, "name": "long island"}, {"id": 9986, "name": "crush"}, {"id": 10329, "name": "wealth"}, {"id": 33626, "name": "millionaire"}]}, "similar": {"page": 1, "results": [{"id": 15144, "video": false, "vote_count": 1219, "vote_average": 6.8, "title": "Sixteen Candles", "release_date": "1984-05-04", "original_language": "en", "original_title": "Sixteen Candles", "genre_ids": [35, 10749], "backdrop_path": "/xCIgY4mUmO4tbDVlntym9PdZ9H8.jpg", "adult": false, "overview": "A teenage girl deals with her parents forgetting her birthday and a crush on her high school's heartthrob.", "poster_path": "/rzTrRQg5ek47Yl0Vfenc69r9gOd.jpg", "popularity": 27.185}, {"id": 297, "video": false, "vote_count": 2534, "vote_average": 7.1, "title": "Meet Joe Black", "release_date": "1998-11-12", "original_language": "en", "original_title": "Meet Joe Black", "genre_ids": [18, 14, 10749], "backdrop_path": "/xYI72IVRK7MTQpENTdt4L20Aa2I.jpg", "adult": false, "overview": "When the grim reaper comes to collect the soul of megamogul Bill Parrish, he arrives with a proposition: Host him for a \"vacation\" among the living in trade for a few more days of existence. Parrish agrees, and using the pseudonym Joe Black, Death begins taking part in Parrish's daily agenda and falls in love with the man's daughter. Yet when Black's holiday is over, so is Parrish's life.", "poster_path": "/s5maEXmEsVZYUx6dWc11GhL0zww.jpg", "popularity": 20.753}, {"id": 11860, "video": false, "vote_count": 314, "vote_average": 6.1, "title": "Sabrina", "release_date": "1995-12-15", "original_language": "en", "original_title": "Sabrina", "genre_ids": [35, 10749], "backdrop_path": "/hSy5yZG18ogNQn1tHSlxSqV24cf.jpg", "adult": false, "overview": "An ugly duckling having undergone a remarkable change, still harbors feelings for her crush: a carefree playboy, but not before his business-focused brother has something to say about it.", "poster_path": "/jQh15y5YB7bWz1NtffNZmRw0s9D.jpg", "popularity": 12.18}, {"id": 9079, "video": false, "vote_count": 210, "vote_average": 6.3, "title": "Dying Young", "release_date": "1991-06-20", "original_language": "en", "original_title": "Dying Young", "genre_ids": [18, 10749], "backdrop_path": "/1NchLtuAyv03F4scyPkZJmuMbXR.jpg", "adult": false, "overview": "After she discovers that her boyfriend has betrayed her, Hilary O'Neil is looking for a new start and a new job. She begins to work as a private nurse for a young man suffering from blood cancer. Slowly, they fall in love, but they always know their love cannot last because he is destined to die.", "poster_path": "/ns1N0PjnCP7BZjtFFMNTQyjFo6f.jpg", "popularity": 11.375}, {"id": 6620, "video": false, "vote_count": 646, "vote_average": 7.6, "title": "Sabrina", "release_date": "1954-09-28", "original_language": "en", "original_title": "Sabrina", "genre_ids": [35, 18, 10749], "backdrop_path": "/nd7qPxPBVgqlixRXgjIHiOafNBf.jpg", "adult": false, "overview": "Linus and David Larrabee are the two sons of a very wealthy family. Linus is all work -- busily running the family corporate empire, he has no time for a wife and family. David is all play -- technically he is employed by the family business, but never shows up for work, spends all his time entertaining, and has been married and divorced three times. Meanwhile, Sabrina Fairchild is the young, shy, and awkward daughter of the household chauffeur, who has been infatuated with David all her life, but David hardly notices her -- \"doesn't even know I exist\" -- until she goes away to Paris for two years, and returns an elegant, sophisticated, beautiful woman. Suddenly, she finds that she has captured David's attention, but just as she does so, she finds herself falling in love with Linus, and she finds that Linus is also falling in love with her.", "poster_path": "/8vvgKw3DbEPNlJAdHe7xXzhb2gN.jpg", "popularity": 12.396}, {"id": 11397, "video": false, "vote_count": 1033, "vote_average": 5.5, "title": "Not Another Teen Movie", "release_date": "2001-12-07", "original_language": "en", "original_title": "Not Another Teen Movie", "genre_ids": [35], "backdrop_path": "/4HjjbLhpcnPSYSlkYHM5SjbBVai.jpg", "adult": false, "overview": "On a bet, a gridiron hero at John Hughes High School sets out to turn a bespectacled plain Jane into a beautiful and popular prom queen in this outrageous send-up of the teen movie genre.", "poster_path": "/lUUyU80dWllaya1WhskDZKW6uHq.jpg", "popularity": 17.134}, {"adult": false, "backdrop_path": "/tvTyRu9eKfymkje8d9VoWJEoyUv.jpg", "genre_ids": [18], "id": 53932, "original_language": "es", "original_title": "Las edades de Lul\u00fa", "overview": "Fifteen-year-old Lulu has never known any affection from her family. But when she goes to a rock concert with Pablo, a friend of the family, he introduces Lulu to her first sexual experience. Years later, Pablo and Lulu have married; Pablo has created a sheltered, private world for Lulu, into which nothing intrudes. However, Lulu tires of her cloistered existence, and begins hanging out in shady bars, looking for vicarious thrills and danger.", "poster_path": "/5PK5MAN84o0ESgzeW9euozOLIEe.jpg", "release_date": "1990-12-13", "title": "The Ages of Lulu", "video": false, "vote_average": 5.7, "vote_count": 64, "popularity": 23.137}, {"adult": false, "backdrop_path": "/a8xpxCnvqKyshdrDNFGs6oy4r8N.jpg", "genre_ids": [18, 10749], "id": 1278, "original_language": "en", "original_title": "The Dreamers", "overview": "A young American studying in Paris in 1968 strikes up a friendship with a French brother and sister. Set against the background of the '68 Paris student riots.", "poster_path": "/7ABcfmXQZeCXl5sNrDuLS1URMPN.jpg", "release_date": "2003-09-01", "title": "The Dreamers", "video": false, "vote_average": 7.2, "vote_count": 1670, "popularity": 19.315}, {"id": 537915, "video": false, "vote_count": 2376, "vote_average": 6.0, "title": "After", "release_date": "2019-04-11", "original_language": "en", "original_title": "After", "genre_ids": [18, 10749], "backdrop_path": "/997ToEZvF2Obp9zNZbY5ELVnmrW.jpg", "adult": false, "overview": "Tessa Young is a dedicated student, dutiful daughter and loyal girlfriend to her high school sweetheart. Entering her first semester of college, Tessa's guarded world opens up when she meets Hardin Scott, a mysterious and brooding rebel who makes her question all she thought she knew about herself -- and what she wants out of life.", "poster_path": "/u3B2YKUjWABcxXZ6Nm9h10hLUbh.jpg", "popularity": 28.116}, {"adult": false, "backdrop_path": "/qK77FcPjWwJDmJTwlZc8L31o8En.jpg", "genre_ids": [18, 878], "id": 62215, "original_language": "da", "original_title": "Melancholia", "overview": "Two sisters find their already strained relationship challenged as a mysterious new planet threatens to collide with Earth.", "poster_path": "/eCjATHunhgLl9ARKUFtmKguaWDJ.jpg", "release_date": "2011-05-26", "title": "Melancholia", "video": false, "vote_average": 7.2, "vote_count": 1840, "popularity": 13.674}, {"id": 454983, "video": false, "vote_count": 3905, "vote_average": 7.2, "title": "The Kissing Booth", "release_date": "2018-05-11", "original_language": "en", "original_title": "The Kissing Booth", "genre_ids": [35, 10749], "backdrop_path": "/xEKx7zPEjN6meomZ7OhV82Mm2jm.jpg", "adult": false, "overview": "When teenager Elle's first kiss leads to a forbidden romance with the hottest boy in high school, she risks her relationship with her best friend.", "poster_path": "/7Dktk2ST6aL8h9Oe5rpk903VLhx.jpg", "popularity": 31.203}, {"id": 88, "video": false, "vote_count": 3462, "vote_average": 7.3, "title": "Dirty Dancing", "release_date": "1987-08-21", "original_language": "en", "original_title": "Dirty Dancing", "genre_ids": [18, 10402, 10749], "backdrop_path": "/ngDmpFRzNGr9XMtKchhBZjt4DLH.jpg", "adult": false, "overview": "Expecting the usual tedium that accompanies a summer in the Catskills with her family, 17-year-old Frances 'Baby' Houseman is surprised to find herself stepping into the shoes of a professional hoofer\u2014and unexpectedly falling in love.", "poster_path": "/jFoktPxTtabZfh9JeDy3F78g9w7.jpg", "popularity": 20.202}, {"id": 64682, "video": false, "vote_count": 7858, "vote_average": 7.4, "title": "The Great Gatsby", "release_date": "2013-05-10", "original_language": "en", "original_title": "The Great Gatsby", "genre_ids": [18, 10749], "backdrop_path": "/2mdDPszIVJEGZweDzwGyL36ZDC2.jpg", "adult": false, "overview": "An adaptation of F. Scott Fitzgerald's Long Island-set novel, where Midwesterner Nick Carraway is lured into the lavish world of his neighbor, Jay Gatsby. Soon enough, however, Carraway will see through the cracks of Gatsby's nouveau riche existence, where obsession, madness, and tragedy await.", "poster_path": "/oJpOYPpVWyPeunGbbDGH1KFvea0.jpg", "popularity": 22.054}, {"id": 901, "video": false, "vote_count": 1026, "vote_average": 8.4, "title": "City Lights", "release_date": "1931-02-01", "original_language": "xx", "original_title": "City Lights", "genre_ids": [35, 18, 10749], "backdrop_path": "/vT6ux2rdyg2kexuLisO5Ygz7pHg.jpg", "adult": false, "overview": "City Lights is the first silent film that Charlie Chaplin directed after he established himself with sound accompanied films. The film is about a penniless man who falls in love with a flower girl.", "poster_path": "/bXNvzjULc9jrOVhGfjcc64uKZmZ.jpg", "popularity": 14.294}, {"adult": false, "backdrop_path": "/6qYptQG2ynJANbyjjYOt4fpHfxF.jpg", "genre_ids": [18], "id": 1371, "original_language": "en", "original_title": "Rocky III", "overview": "Now the world champion, Rocky Balboa is living in luxury and only fighting opponents who pose no threat to him in the ring, until Clubber Lang challenges him to a bout. After taking a pounding from Lang, the humbled champ turns to former bitter rival Apollo Creed for a rematch with Lang.", "poster_path": "/ns55NGqTDEEjcI9z2a9htA2cFtG.jpg", "release_date": "1982-05-28", "title": "Rocky III", "video": false, "vote_average": 6.8, "vote_count": 2155, "popularity": 19.06}, {"adult": false, "backdrop_path": "/avhG8fITuG78IkKPk28CcBBHPOp.jpg", "genre_ids": [35, 18], "id": 112160, "original_language": "fr", "original_title": "Chroniques sexuelles d'une famille d'aujourd'hui", "overview": "Three generations of a French family open up about their sexual experiences and desires after young Romain is caught masturbating in his biology class.", "poster_path": "/pU2nD3Llaz3Taq5FAaQUg00uJYD.jpg", "release_date": "2012-05-09", "title": "Sexual Chronicles of a French Family", "video": false, "vote_average": 4.4, "vote_count": 169, "popularity": 29.133}, {"id": 9753, "video": false, "vote_count": 86, "vote_average": 4.4, "title": "Survival Island", "release_date": "2006-05-05", "original_language": "en", "original_title": "Three", "genre_ids": [12, 18, 27, 9648, 53], "backdrop_path": "/56Yi1X3Kn8Oo1l9avoVYycGgaKi.jpg", "adult": false, "overview": "After a yachting accident, a millionaire and his wife are shipwrecked on a desert island along with their former deckhand, Manuel.", "poster_path": "/dg5gHoU11VYT0vAv5Uon6SHeoDr.jpg", "popularity": 22.204}, {"id": 2649, "video": false, "vote_count": 3244, "vote_average": 7.6, "title": "The Game", "release_date": "1997-09-12", "original_language": "en", "original_title": "The Game", "genre_ids": [18, 9648, 53], "backdrop_path": "/3Eux3wcYYb79D2sr8aA6BEH9kVl.jpg", "adult": false, "overview": "In honor of his birthday, San Francisco banker Nicholas Van Orton, a financial genius and a cold-hearted loner, receives an unusual present from his younger brother, Conrad: a gift certificate to play a unique kind of game. In nearly a nanosecond, Nicholas finds himself consumed by a dangerous set of ever-changing rules, unable to distinguish where the charade ends and reality begins.", "poster_path": "/4b7QXyDJsDFXrwVHUNlrmezCZJC.jpg", "popularity": 13.216}, {"id": 10691, "video": false, "vote_count": 187, "vote_average": 6.5, "title": "Crazy/Beautiful", "release_date": "2001-06-29", "original_language": "en", "original_title": "Crazy/Beautiful", "genre_ids": [18, 10749], "backdrop_path": "/lBs6KuHGy2e7AjAqc7J6TmosgLZ.jpg", "adult": false, "overview": "At Pacific Palisades High, a poor Latino falls hard for a troubled girl from the affluent neighborhood.", "poster_path": "/xnXe2JIMxF1kU3BeT3JBiuVSTbO.jpg", "popularity": 12.417}, {"id": 164, "video": false, "vote_count": 2457, "vote_average": 7.8, "title": "Breakfast at Tiffany's", "release_date": "1961-10-05", "original_language": "en", "original_title": "Breakfast at Tiffany's", "genre_ids": [35, 18, 10749], "backdrop_path": "/vABwESShzjlSynkyGjLihTUieMJ.jpg", "adult": false, "overview": "Fortune hunter Holly Golightly finds herself captivated by aspiring writer Paul Varjak, who's moved into her building on a wealthy woman's dime. As romance blooms between Paul and Holly, Doc Golightly shows up on the scene, revealing Holly's past.", "poster_path": "/c95lbDwL5WT8PV9DZsdSvRtXKNA.jpg", "popularity": 24.003}], "total_pages": 20, "total_results": 396}, "recommendations": {"page": 1, "results": [{"adult": false, "backdrop_path": null, "genre_ids": [35, 18], "id": 259146, "original_language": "es", "original_title": "Zorrita Mart\u00ednez", "overview": "", "poster_path": "/cuReDdsU0IG0oiCwXFDkQBsHCLj.jpg", "release_date": "1975-01-01", "title": "Zorrita Mart\u00ednez", "video": false, "vote_average": 4.7, "vote_count": 6, "popularity": 2.481}, {"id": 10236, "video": false, "vote_count": 217, "vote_average": 7.0, "title": "The Way We Were", "release_date": "1973-10-17", "original_language": "en", "original_title": "The Way We Were", "genre_ids": [18, 10749], "backdrop_path": "/tNRSwxhL8hHhtk06YZgAs4lVvkQ.jpg", "adult": false, "overview": "Two desperate people have a wonderful romance, but their political views and convictions drive them apart.", "poster_path": "/p2R8CjUEsjJ3hYi5omQXK24Nyj2.jpg", "popularity": 9.705}, {"adult": false, "backdrop_path": null, "genre_ids": [35], "id": 67815, "original_language": "es", "original_title": "La vendedora de ropa interior", "overview": "A story of a family whose father tries by all means to maintain the strictest ethics and morality ... or at least appear so. His beautiful young daughter tries to emancipate hereself and looks for a job, but the chance is that the first thing that comes out is underwear seller.  She starts to work and problems start  for all.", "poster_path": "/swss5eFWeFTvfs7VSVvU0o8x6hp.jpg", "release_date": "1982-04-01", "title": "La vendedora de ropa interior", "video": false, "vote_average": 5.0, "vote_count": 7, "popularity": 2.393}, {"adult": false, "backdrop_path": null, "genre_ids": [35], "id": 102492, "original_language": "es", "original_title": "S\u00e9 infiel y no mires con qui\u00e9n", "overview": "Pablo and Fernando, owners of a children's book publishing company about to go bankrupt, have managed through unorthodox means to contract the country's best-selling author, Adela Mora. The evening of the official signing, Paco asks his friend to let him use his house for a love tryst while Fernando wines and dines Adela. At the same time, Paco's wife, Carmen, will be taking her lover to Rosa's house. From here on the rout begins, as Paco tries to get rid of Silvia, his secretary, and Carmen, her husband. Fernando thinks Rosa is cheating on him with Oscar, who thinks Fernando is gay and having an affair with his partner, while the soldier thinks his girlfriend is a professional...", "poster_path": "/1HztKDECIHaa6xSKyXJfD9WenE4.jpg", "release_date": "1985-12-05", "title": "Be Wanton and Tread No Shame", "video": false, "vote_average": 6.1, "vote_count": 12, "popularity": 1.983}, {"adult": false, "backdrop_path": null, "genre_ids": [18, 10749], "id": 449065, "original_language": "es", "original_title": "Ojos sin luz", "overview": "", "poster_path": "/vdbxBYUfBrD3FcaZfHvk0dWef80.jpg", "release_date": "1988-01-01", "title": "Ojos sin luz", "video": false, "vote_average": 3.3, "vote_count": 6, "popularity": 1.376}, {"adult": false, "backdrop_path": null, "genre_ids": [35, 10402], "id": 381701, "original_language": "es", "original_title": "Me has hecho perder el juicio", "overview": "", "poster_path": "/pZOLIwOvK5lv93C4G53NiE2n8mv.jpg", "release_date": "1973-10-18", "title": "Me has hecho perder el juicio", "video": false, "vote_average": 5.0, "vote_count": 8, "popularity": 2.041}, {"adult": false, "backdrop_path": null, "genre_ids": [], "id": 404210, "original_language": "es", "original_title": "Pr\u00e9stamela esta noche", "overview": "Manolo is the trusted servant of a famous tenor, Riccardi, an international opera singer. Although his life is overshadowed by the fame of his master, one day his luck changes. In a short time, two unusual events occur: he falls in love and an eccentric inventor offers him the deal of a lifetime...", "poster_path": "/rnKkRZOk717BYpkfwhOVG2E2h4d.jpg", "release_date": "1978-03-20", "title": "Pr\u00e9stamela esta noche", "video": false, "vote_average": 5.0, "vote_count": 8, "popularity": 2.033}, {"adult": false, "backdrop_path": "/kadQ6uJQhrpiUh6kw0PFEkPn8oA.jpg", "genre_ids": [], "id": 217192, "original_language": "es", "original_title": "T\u00edo, \u00bfde verdad vienen de Par\u00eds?", "overview": "Alberto comes to the capital to take care of her nine nephews. Intrigued by the question of sex, children will ask questions to Uncle Albert ... it uses the help of a neighbor.", "poster_path": "/kPsk4u9JUMktkwrcKB7G68l1t2p.jpg", "release_date": "1975-03-17", "title": "Uncle, Are You Really Coming From Paris?", "video": false, "vote_average": 5.1, "vote_count": 8, "popularity": 2.201}, {"adult": false, "backdrop_path": "/4H9a2oLOio3SZ0iyZPMEHBBOXn2.jpg", "genre_ids": [12, 18, 10751, 14], "id": 37025, "original_language": "en", "original_title": "The Prince and the Pauper", "overview": "Two boys - the prince Edward and the pauper Tom - are born on the same day. Years later, when young teenage Tom sneaks into the palace garden, he meets the prince. They change clothes with one another before the guards discover them and throw out the prince thinking he's the urchin. No one believes them when they try to tell the truth about which is which. Soon after, the old king dies and the prince will inherit the throne.", "poster_path": "/fKhFMwksSD8HjJXxdS01nasLXWT.jpg", "release_date": "1937-05-08", "title": "The Prince and the Pauper", "video": false, "vote_average": 6.5, "vote_count": 16, "popularity": 4.376}, {"adult": false, "backdrop_path": "/ufIsWN9gNFkjLkfI3ZohtdVGE6f.jpg", "genre_ids": [35, 18, 10749], "id": 1879, "original_language": "en", "original_title": "Guess Who's Coming to Dinner", "overview": "Matt and Christina Drayton are a couple whose attitudes are challenged when their daughter brings home a fianc\u00e9 who is black.", "poster_path": "/dm0fyFdKTEKpqoK8OCG5EM3i565.jpg", "release_date": "1967-12-11", "title": "Guess Who's Coming to Dinner", "video": false, "vote_average": 7.7, "vote_count": 372, "popularity": 12.641}, {"adult": false, "backdrop_path": "/fr2QyJvkelu68SwF8NX6Xxios21.jpg", "genre_ids": [18], "id": 264735, "original_language": "es", "original_title": "El Cristo del oc\u00e9ano", "overview": "", "poster_path": "/qirpcLs5xRlGldctOJuB6f7VWvD.jpg", "release_date": "1971-02-20", "title": "El Cristo del oc\u00e9ano", "video": false, "vote_average": 4.0, "vote_count": 5, "popularity": 1.369}, {"adult": false, "backdrop_path": "/sqZGYcHJWWNHsECBl57FOCfjpFX.jpg", "genre_ids": [18], "id": 11393, "original_language": "en", "original_title": "The Natural", "overview": "An unknown middle-aged batter named Roy Hobbs with a mysterious past appears out of nowhere to take a losing 1930s baseball team to the top of the league.", "poster_path": "/f1iPiQoYbQ40XsJHPyMIiBmSrDB.jpg", "release_date": "1984-05-11", "title": "The Natural", "video": false, "vote_average": 7.1, "vote_count": 294, "popularity": 9.475}, {"adult": false, "backdrop_path": null, "genre_ids": [18, 35], "id": 420689, "original_language": "es", "original_title": "El libro de buen amor", "overview": "", "poster_path": "/qPvJ5mBamwpLxa8cGqESvH3WXoQ.jpg", "release_date": "1975-08-03", "title": "The Book of Good Love", "video": false, "vote_average": 6.4, "vote_count": 5, "popularity": 1.595}, {"adult": false, "backdrop_path": "/2bssKV5VD4pw6Cfr7huAe2lgB4Y.jpg", "genre_ids": [], "id": 80133, "original_language": "en", "original_title": "La Lola se va a los puertos", "overview": "1860, in the Bay of San Fernando, Cadiz. Lola is an Andalusian singer who all men that meet her love. Along with guitarist Heredia, a man who is resigned to love her in silence, she travels to the farmhouse of the wealthy Don Diego, which is also in love with her, to sing in the compromise party of his son Jose Luis and Rosario, his fianc\u00e9e of childhood. Lola, a woman who never loses her head, is disturbed by the presence of the handsome young gentleman Jos\u00e9 Luis. Both are attracted and inadvertently awaken the jealousy of Rosario and the envy of Don Diego ... Remake of an eponymous film directed in 1947 by Juan de Ordu\u00f1a", "poster_path": "/fJsQAvvmxEzsqO8jmXoNAJJxrgK.jpg", "release_date": "1993-09-10", "title": "La Lola se va a los puertos", "video": false, "vote_average": 5.5, "vote_count": 4, "popularity": 1.961}, {"adult": false, "backdrop_path": null, "genre_ids": [18, 10402], "id": 118898, "original_language": "es", "original_title": "Escucha mi canci\u00f3n", "overview": "A poor child, who does not know his parents, joins a caravan of puppeteers to escape from the house where it is received and try to find his mother. Although living in extreme poverty, the child has, however, something that helps you get ahead: his great voice. One day, when a producer heard her singing in the street, receives an invitation to go to television.", "poster_path": "/bfrLGo7oc7JmliSLpUncTgBVjk7.jpg", "release_date": "1959-11-02", "title": "Listen to My Song", "video": false, "vote_average": 5.1, "vote_count": 7, "popularity": 3.108}, {"adult": false, "backdrop_path": "/7GJAaxLOmGT5mPQvRPeRHA6eIxL.jpg", "genre_ids": [35], "id": 100764, "original_language": "es", "original_title": "Los chulos", "overview": "", "poster_path": "/jS1UOzJiTbGYQoWWEfYEqoCv5qS.jpg", "release_date": "1981-04-20", "title": "Los chulos", "video": false, "vote_average": 5.2, "vote_count": 9, "popularity": 3.074}, {"adult": false, "backdrop_path": null, "genre_ids": [12], "id": 431061, "original_language": "es", "original_title": "Dick Turpin", "overview": "", "poster_path": "/mqDrDIGbBdXuvYUqmEBf0fnEsSo.jpg", "release_date": "1974-12-30", "title": "Dick Turpin", "video": false, "vote_average": 5.0, "vote_count": 4, "popularity": 1.96}, {"adult": false, "backdrop_path": null, "genre_ids": [], "id": 423179, "original_language": "es", "original_title": "Rosa Rosae", "overview": "", "poster_path": "/iCRASwyTi4L99AM5DbUBobfbKH0.jpg", "release_date": "1992-10-28", "title": "Rosa Rosae", "video": false, "vote_average": 6.0, "vote_count": 7, "popularity": 1.997}, {"adult": false, "backdrop_path": null, "genre_ids": [35], "id": 429866, "original_language": "en", "original_title": "Tocata y fuga de Lolita", "overview": "Carlos, a widower in his forties, lives with his daughter Lolita and his sister Merche. He is a candidate to Spanish Court's Proctor, so frequently travels outside Madrid. During one of those trips, he is forced to return at home precipitously, because his sister informed him that Lolita has left the house to live with some friends.", "poster_path": "/rTqMtq9AzhuWl7zUP9gifvrAATD.jpg", "release_date": "1974-09-26", "title": "Tocata y fuga de Lolita", "video": false, "vote_average": 4.9, "vote_count": 7, "popularity": 3.619}, {"adult": false, "backdrop_path": "/gq7z8j1dybdz8aqbZtbeXdcThOM.jpg", "genre_ids": [35], "id": 117198, "original_language": "es", "original_title": "Hermana, \u00bfpero qu\u00e9 has hecho?", "overview": "Sister Angela and Sister Mary park his van in front of a bank branch. They enter the bank and with the weapons hidden under their habits, commit the robbery of the century, to the astonishment of all employees and customers. After thorough police investigation the two nuns are arrested, but then appears Trini, twin sister of one of them and now all is not so clear. Were the nuns who committed the robbery?", "poster_path": "/g2NbYjwvoqKX9g7dpiL9JC7xywf.jpg", "release_date": "1995-08-07", "title": "Hermana, \u00bfpero qu\u00e9 has hecho?", "video": false, "vote_average": 6.2, "vote_count": 6, "popularity": 2.344}], "total_pages": 2, "total_results": 40}, "credits": {"cast": [{"cast_id": 10, "character": "Jay Gatsby", "credit_id": "52fe43e89251416c75022a29", "gender": 2, "id": 4135, "name": "Robert Redford", "order": 0, "profile_path": "/b4mJIBWvEyzB8yyZWbmvfzwrdtp.jpg"}, {"cast_id": 1, "character": "Daisy Buchanan", "credit_id": "52fe43e89251416c750229f9", "gender": 1, "id": 12021, "name": "Mia Farrow", "order": 1, "profile_path": "/rUVPgrDCyiW718F7SwlkpZYbSxL.jpg"}, {"cast_id": 2, "character": "Tom Buchanan", "credit_id": "52fe43e89251416c750229fd", "gender": 2, "id": 6905, "name": "Bruce Dern", "order": 2, "profile_path": "/lumA2Tb4YAfClkCRDCR0YrDimmF.jpg"}, {"cast_id": 3, "character": "Myrtle Wilson", "credit_id": "52fe43e89251416c75022a01", "gender": 1, "id": 8963, "name": "Karen Black", "order": 3, "profile_path": "/xKtsATh6T64NJfE1io1AnofnFRi.jpg"}, {"cast_id": 11, "character": "Nick Carraway", "credit_id": "52fe43e89251416c75022a2d", "gender": 2, "id": 8975, "name": "Sam Waterston", "order": 4, "profile_path": "/fKmtS6OdDWPiAdxZflbJGz1eWml.jpg"}, {"cast_id": 13, "character": "Jordan Baker", "credit_id": "52fe43e89251416c75022a31", "gender": 1, "id": 10475, "name": "Lois Chiles", "order": 5, "profile_path": "/wJ6qXkZjqJybgVz83RluAx6Fzn7.jpg"}, {"cast_id": 14, "character": "George Wilson", "credit_id": "52fe43e89251416c75022a35", "gender": 2, "id": 6914, "name": "Scott Wilson", "order": 6, "profile_path": "/uAPQD3zXThKHXaYELx3ePSzeWwM.jpg"}, {"cast_id": 15, "character": "Meyer Wolfsheim", "credit_id": "54b965a6c3a3686c680052b4", "gender": 2, "id": 79247, "name": "Howard Da Silva", "order": 7, "profile_path": "/8KPykJ2sTNNNPXskNhpaJXHaWQ5.jpg"}, {"cast_id": 16, "character": "Mr. Gatz", "credit_id": "54b965b7c3a3681411001c02", "gender": 2, "id": 66288, "name": "Roberts Blossom", "order": 8, "profile_path": "/iNW74OJWcF9LRbeRlsOPZBddVeE.jpg"}, {"cast_id": 17, "character": "Klipspringer", "credit_id": "54b965c8c3a3686c6f00477a", "gender": 2, "id": 52995, "name": "Edward Herrmann", "order": 9, "profile_path": "/3AGRAverIuT6kgSfGQPiY55QZzG.jpg"}, {"cast_id": 18, "character": "Wilson's Friend", "credit_id": "54b965df92514148bd001e68", "gender": 0, "id": 115329, "name": "Elliott Sullivan", "order": 10, "profile_path": null}, {"cast_id": 19, "character": "Dog Vendor", "credit_id": "54b96600c3a3686c680052c2", "gender": 0, "id": 1414386, "name": "Arthur Hughes", "order": 11, "profile_path": null}, {"cast_id": 20, "character": "Photographer (uncredited)", "credit_id": "56c66954925141245b00449d", "gender": 2, "id": 928638, "name": "John Franchi", "order": 12, "profile_path": null}, {"cast_id": 21, "character": "Detective at Pool", "credit_id": "5de081b9c51acd0013f4854a", "gender": 2, "id": 116123, "name": "Norman Chancer", "order": 13, "profile_path": "/qLKyW9MHMT4TU00CyQt14pSsJzM.jpg"}], "crew": [{"credit_id": "52fe43e89251416c75022a0d", "department": "Writing", "gender": 2, "id": 1776, "job": "Screenplay", "name": "Francis Ford Coppola", "profile_path": "/mDNBl1DUkC1BkkMsbtaNEFQQaHu.jpg"}, {"credit_id": "52fe43e89251416c75022a1f", "department": "Camera", "gender": 2, "id": 666, "job": "Director of Photography", "name": "Douglas Slocombe", "profile_path": "/sluvyktacpqv02GzGYRW3ZB6Qst.jpg"}, {"credit_id": "52fe43e89251416c75022a07", "department": "Directing", "gender": 2, "id": 25630, "job": "Director", "name": "Jack Clayton", "profile_path": "/6GDPYIXVLTLTyc5mFmfvyh19DI7.jpg"}, {"credit_id": "52fe43e89251416c75022a25", "department": "Editing", "gender": 2, "id": 25633, "job": "Editor", "name": "Tom Priestley", "profile_path": null}, {"credit_id": "52fe43e89251416c75022a13", "department": "Writing", "gender": 2, "id": 40035, "job": "Novel", "name": "F. Scott Fitzgerald", "profile_path": null}, {"credit_id": "52fe43e89251416c75022a19", "department": "Production", "gender": 2, "id": 41150, "job": "Producer", "name": "David Merrick", "profile_path": null}]}}