{"adult": false, "backdrop_path": null, "belongs_to_collection": null, "budget": 0, "genres": [{"id": 99, "name": "Documentary"}], "homepage": null, "id": 110777, "imdb_id": "tt0086371", "original_language": "en", "original_title": "The Store", "overview": "THE STORE is a film about the main Neiman-Marcus store and corporate headquarters in Dallas. The sequences in the film include the selection, presentation, marketing, pricing, advertising and selling of a vast array of consumer products including designer clothes and furs, jewelry, perfumes, shoes, electronic products, sportswear, china and porcelain and many other goods. The internal management and organizational aspects of a large corporation are shown, i.e., sales meetings, development of marketing and advertising strategies, training, personnel practices and sales techniques.", "popularity": 1.64, "poster_path": "/uoJu0Ip7dgRPIZtjp8CW4E5mqQp.jpg", "production_companies": [{"id": 62355, "logo_path": null, "name": "Zipporah Films, Inc.", "origin_country": ""}], "production_countries": [{"iso_3166_1": "US", "name": "United States of America"}], "release_date": "1983-12-14", "revenue": 0, "runtime": 118, "spoken_languages": [{"iso_639_1": "en", "name": "English"}], "status": "Released", "tagline": "The Inner-Workings of a Department Store", "title": "The Store", "video": false, "vote_average": 6.3, "vote_count": 6, "keywords": {"keywords": [{"id": 2081, "name": "department store"}, {"id": 157598, "name": "store"}]}, "similar": {"page": 1, "results": [{"adult": false, "backdrop_path": "/qxxZBo0HwXAIrRm45UnA3eAI2Uw.jpg", "genre_ids": [14, 35, 10749], "id": 10019, "original_language": "en", "original_title": "Mannequin", "overview": "Jonathan Switcher, an unemployed artist, finds a job as an assistant window dresser for a department store. When Jonathan happens upon a beautiful mannequin he previously designed, she springs to life and introduces herself as Emmy, an Egyptian under an ancient spell. Despite interference from the store's devious manager, Jonathan and his mannequin fall in love while creating eye-catching window displays to keep the struggling store in business.", "poster_path": "/oHMA8euTiZdDFXDi5zaIQQXwl0K.jpg", "release_date": "1987-02-13", "title": "Mannequin", "video": false, "vote_average": 5.7, "vote_count": 239, "popularity": 12.071}, {"id": 483411, "video": false, "vote_count": 48, "vote_average": 6.4, "title": "Ladies in Black", "release_date": "2018-10-18", "original_language": "en", "original_title": "Ladies in Black", "genre_ids": [35, 18], "backdrop_path": "/gIkqcEqz0rj6rK1knYAOoXpwA3y.jpg", "adult": false, "overview": "Adapted from the bestselling novel by Madeleine St John, Ladies in Black is an alluring and tender-hearted comedy drama about the lives of a group of department store employees in 1959 Sydney.", "poster_path": "/sIC0Y0dGLnxbdCksftZ38FZ2c61.jpg", "popularity": 7.782}, {"id": 927, "video": false, "vote_count": 3740, "vote_average": 7.1, "title": "Gremlins", "release_date": "1984-06-07", "original_language": "en", "original_title": "Gremlins", "genre_ids": [35, 14, 27], "backdrop_path": "/xZ5SUO6YtIcSwRuKZhNLBfCJzpv.jpg", "adult": false, "overview": "When Billy Peltzer is given a strange but adorable pet named Gizmo for Christmas, he inadvertently breaks the three important rules of caring for a Mogwai, and unleashes a horde of mischievous gremlins on a small town.", "poster_path": "/atBZUwRpx60ZpzcM9yOB4E8nuY.jpg", "popularity": 29.69}, {"id": 11881, "video": false, "vote_count": 342, "vote_average": 7.4, "title": "Miracle on 34th Street", "release_date": "1947-06-11", "original_language": "en", "original_title": "Miracle on 34th Street", "genre_ids": [35, 18, 10751], "backdrop_path": "/i90947b0zLbH1P4qjAxqiQdRfiZ.jpg", "adult": false, "overview": "Kris Kringle, seemingly the embodiment of Santa Claus, is asked to portray the jolly old fellow at Macy's following his performance in the Thanksgiving Day parade. His portrayal is so complete that many begin to question if he truly is Santa Claus, while others question his sanity.", "poster_path": "/h8kkqroLwxvAHxWGIStEZaNd4wr.jpg", "popularity": 18.855}, {"id": 10510, "video": false, "vote_count": 539, "vote_average": 6.6, "title": "Miracle on 34th Street", "release_date": "1994-11-18", "original_language": "en", "original_title": "Miracle on 34th Street", "genre_ids": [18, 14, 10751], "backdrop_path": "/m7M8nvdSt13ZmvVUuYc3lN7nLVI.jpg", "adult": false, "overview": "Six-year-old Susan Walker has doubts about childhood's most enduring miracle\u2014Santa Claus. Her mother told her the secret about Santa a long time ago, but, after meeting a special department store Santa who's convinced he's the real thing, Susan is given the most precious gift of all\u2014something to believe in.", "poster_path": "/iuI31j8DM4TOxJTZeumG0S4npPU.jpg", "popularity": 13.801}, {"id": 20048, "video": false, "vote_count": 1816, "vote_average": 6.4, "title": "Confessions of a Shopaholic", "release_date": "2009-02-05", "original_language": "en", "original_title": "Confessions of a Shopaholic", "genre_ids": [35, 10749], "backdrop_path": "/npNh1FMJgWrmq01bfYysGzuD4pX.jpg", "adult": false, "overview": "In the glamorous world of New York City, Rebecca Bloomwood is a fun-loving girl who is really good at shopping-a little too good, perhaps. She dreams of working for her favorite fashion magazine, but can't quite get her foot in the door-until ironically, she snags a job as an advice columnist for a financial magazine published by the same company.", "poster_path": "/8gCZJ8gOxd22Spz1MKiu4b54T2r.jpg", "popularity": 16.267}, {"adult": false, "backdrop_path": "/xZKE444VlbDzyJhLOybfunAmvFz.jpg", "genre_ids": [18, 35, 80], "id": 10147, "original_language": "en", "original_title": "Bad Santa", "overview": "A miserable conman and his partner pose as Santa and his Little Helper to rob department stores on Christmas Eve. But they run into problems when the conman befriends a troubled kid, and the security boss discovers the plot.", "poster_path": "/103KNOz11U4iojwW6F1rOKKZIDp.jpg", "release_date": "2003-11-26", "title": "Bad Santa", "video": false, "vote_average": 6.5, "vote_count": 1260, "popularity": 14.937}, {"adult": false, "backdrop_path": "/knczzNAjBXzSYkeWxoT1u9VNmjR.jpg", "genre_ids": [10749, 18], "id": 258480, "original_language": "en", "original_title": "Carol", "overview": "In 1950s New York, a department-store clerk who dreams of a better life falls for an older, married woman.", "poster_path": "/AbKa7ANxmui0Jmhh7gV7OSELKIL.jpg", "release_date": "2015-11-20", "title": "Carol", "video": false, "vote_average": 7.4, "vote_count": 2184, "popularity": 13.539}, {"id": 924, "video": false, "vote_count": 2058, "vote_average": 6.9, "title": "Dawn of the Dead", "release_date": "2004-03-19", "original_language": "en", "original_title": "Dawn of the Dead", "genre_ids": [28, 18, 14, 27], "backdrop_path": "/cYd3PL27r0KJa9Pa4A5lfUr58Yg.jpg", "adult": false, "overview": "A group of survivors take refuge in a shopping mall after the world is taken over by aggressive, flesh-eating zombies.", "poster_path": "/yfqsgzW6AQYmBjIEIq0y9EB1Rgl.jpg", "popularity": 22.513}, {"id": 923, "video": false, "vote_count": 1067, "vote_average": 7.5, "title": "Dawn of the Dead", "release_date": "1978-09-02", "original_language": "en", "original_title": "Dawn of the Dead", "genre_ids": [27], "backdrop_path": "/vCD9mRgSY4HuoSowm8JO4tm2mhj.jpg", "adult": false, "overview": "During an ever-growing epidemic of zombies that have risen from the dead, two Philadelphia SWAT team members, a traffic reporter, and his television-executive girlfriend seek refuge in a secluded shopping mall.", "poster_path": "/yK8BmYEvd0IPpDXL6zzlTA2geDf.jpg", "popularity": 11.925}, {"id": 9962, "video": false, "vote_count": 314, "vote_average": 6.0, "title": "The Good Girl", "release_date": "2002-01-12", "original_language": "en", "original_title": "The Good Girl", "genre_ids": [35, 18, 10749], "backdrop_path": "/gY2qB8EFgiCZTQSgcWoZov3w7eH.jpg", "adult": false, "overview": "A discount store clerk strikes up an affair with a stock boy who considers himself the incarnation of Holden Caulfield.", "poster_path": "/21AacCArwM5hQ8fYPRA0WKZviiN.jpg", "popularity": 10.13}, {"id": 16270, "video": false, "vote_count": 110, "vote_average": 5.9, "title": "Career Opportunities", "release_date": "1991-03-29", "original_language": "en", "original_title": "Career Opportunities", "genre_ids": [35, 18, 10749], "backdrop_path": "/rQbW82UGtgtho75aGZDsZqP0gCJ.jpg", "adult": false, "overview": "Josie, the daughter of the town's wealthiest businessman, faces problems at home and wishes to leave town but is disoriented. Her decision is finalized after she falls asleep in a Target dressing room. She awakens to find herself locked in the store overnight with the janitor, Jim, the town \"no hoper\" and liar.", "poster_path": "/u8PdCkEs8M4kem2CH1RAwE4eCKO.jpg", "popularity": 14.202}, {"id": 34376, "video": false, "vote_count": 60, "vote_average": 5.1, "title": "Mannequin Two: On the Move", "release_date": "1991-05-17", "original_language": "en", "original_title": "Mannequin Two: On the Move", "genre_ids": [35, 14, 878, 10749], "backdrop_path": "/4OiSN1FjXA2FhpXmegM6lV24Anu.jpg", "adult": false, "overview": "Although Jason works as a department store clerk, he is also a reincarnated prince. Long ago, his beloved Jessie was snatched away from him by an evil wizard who used his powers to transform her into wooden statue. Now Jessie is in Jason's department store as a mannequin. When he encounters her, she awakens from her thousand-year sleep. They quickly revive their romance, but the evil wizard has been reincarnated as well, and he's up to no good.", "poster_path": "/9F0BsoDwxKUM2Mv8B115CR90Siv.jpg", "popularity": 8.325}, {"id": 23805, "video": false, "vote_count": 101, "vote_average": 5.8, "title": "The Toy", "release_date": "1982-12-10", "original_language": "en", "original_title": "The Toy", "genre_ids": [35, 10751], "backdrop_path": "/r9vKbcr1ijVEO187V6hi3vNH7Zy.jpg", "adult": false, "overview": "On one of his bratty son Eric's annual visits, the plutocrat U.S. Bates takes him to his department store and offers him anything in it as a gift. Eric chooses a black janitor who has made him laugh with his antics. At first the man suffers many indignities as Eric's \"toy\", but gradually teaches the lonely boy what it is like to have and to be a friend.", "poster_path": "/qLQeHeB5kszXxKNqtrOvmfNVD69.jpg", "popularity": 8.22}, {"adult": false, "backdrop_path": "/bOTwaLSO2wHjf3fDwb5XIeqa2cZ.jpg", "genre_ids": [35], "id": 16172, "original_language": "en", "original_title": "Simply Irresistible", "overview": "After her mother's death, mediocre chef Amanda Shelton is having trouble attracting customers to her family's restaurant. While shopping for ingredients, she is given a magical crab by mysterious Gene O'Reilly. Afterward, Amanda's dishes suddenly become excellent, inducing strong emotional reactions in everyone who eats them. Tom Bartlett, who is preparing to open his own eatery, tries her cooking and falls in love.", "poster_path": "/mBPCJOotTzUBVdQzC4yFpchCzwS.jpg", "release_date": "1999-02-05", "title": "Simply Irresistible", "video": false, "vote_average": 5.3, "vote_count": 118, "popularity": 10.892}, {"id": 9534, "video": false, "vote_count": 154, "vote_average": 6.5, "title": "The Ferpect Crime", "release_date": "2004-09-10", "original_language": "es", "original_title": "Crimen Ferpecto", "genre_ids": [35, 80, 53], "backdrop_path": "/cHXa58okQxXooNS0zjkumDEnXYg.jpg", "adult": false, "overview": "A playboy has the tables turned on him when he finds himself being used as a plaything by an undesirable woman in this black comedy from Spain.", "poster_path": "/fduo65oYroaDwa69Z6lZGAQ6nhD.jpg", "popularity": 6.75}, {"id": 415962, "video": false, "vote_count": 42, "vote_average": 5.8, "title": "My Christmas Dream", "release_date": "2016-11-19", "original_language": "en", "original_title": "My Christmas Dream", "genre_ids": [10749, 10770], "backdrop_path": "/wvrZMu1AUf2BDHfBFI6NGYuXMbb.jpg", "adult": false, "overview": "Christina Masters, the manager of McDougal\u2019s flagship department store, is determined to land the manager position for their new Paris location. She sets out to impress Victoria, the store\u2019s owner, by creating the best holiday display in McDougal\u2019s history. Fresh out of inspiration despite assuring Victoria otherwise, Christina turns to a recently-fired store employee who also happens to be a talented artist and single dad to his young son. As they work side-by-side, the business relationship becomes personal and she finds herself falling in love. Will the allure of her dream be too strong or will she choose to follow her heart?", "poster_path": "/syGpFZ9Ch7HTs03GpHrBZ1HhZPe.jpg", "popularity": 5.342}, {"id": 78059, "video": false, "vote_count": 31, "vote_average": 5.8, "title": "Call Me Mrs. Miracle", "release_date": "2010-11-27", "original_language": "en", "original_title": "Call Me Mrs. Miracle", "genre_ids": [18, 14, 10751, 10770], "backdrop_path": "/7YrFahshvnqYbWLhIxkWsBMg3e9.jpg", "adult": false, "overview": "Mrs Merkle (or Mrs. Miracle as she is know by some) finds herself in a toy department of a department store that is having all kinds of financial problems, but leave it to this kind lady as she will get the Christmas spirit flowing very freely at this store.", "poster_path": "/ustimMHSAEF8sD569RNkmjIn2bi.jpg", "popularity": 5.395}, {"adult": false, "backdrop_path": "/3wFeNr1TBXeGNnjKWDZVxXNVY4J.jpg", "genre_ids": [99], "id": 29595, "original_language": "en", "original_title": "Wal-Mart: The High Cost of Low Price", "overview": "This documentary takes the viewer on a deeply personal journey into the everyday lives of families struggling to fight Goliath. From a family business owner in the Midwest to a preacher in California, from workers in Florida to a poet in Mexico, dozens of film crews on three continents bring the intensely personal stories of an assault on families and American values.", "poster_path": "/6jh2yA236Dh6TX7hya0qbrnAQtK.jpg", "release_date": "2005-11-04", "title": "Wal-Mart: The High Cost of Low Price", "video": false, "vote_average": 6.5, "vote_count": 45, "popularity": 5.571}, {"id": 299588, "video": false, "vote_count": 29, "vote_average": 5.8, "title": "Christmas at Cartwright's", "release_date": "2014-12-07", "original_language": "en", "original_title": "Christmas at Cartwright's", "genre_ids": [10749, 10751], "backdrop_path": "/6fzcRisMnyHVyGToyy3sq4X9Dwg.jpg", "adult": false, "overview": "With Christmas approaching, a struggling single mom finds herself working as a department store Santa Claus, as a real-life angel delivers good fortune and the possibility of holiday romance.", "poster_path": "/cUpDq5LXjv7aOacQlqowevbJuqS.jpg", "popularity": 3.772}], "total_pages": 5, "total_results": 84}, "recommendations": {"page": 1, "results": [], "total_pages": 1, "total_results": 0}, "credits": {"cast": [], "crew": [{"credit_id": "52fe4ae5c3a36847f81e73d9", "department": "Directing", "gender": 2, "id": 138006, "job": "Director", "name": "Frederick Wiseman", "profile_path": "/uYlxuYtXn27b4CYLII2K8KyqwUc.jpg"}, {"credit_id": "55e6ee159251410f10002d8f", "department": "Production", "gender": 2, "id": 138006, "job": "Producer", "name": "Frederick Wiseman", "profile_path": "/uYlxuYtXn27b4CYLII2K8KyqwUc.jpg"}, {"credit_id": "55e6ee1b9251410f10002d91", "department": "Editing", "gender": 2, "id": 138006, "job": "Editor", "name": "Frederick Wiseman", "profile_path": "/uYlxuYtXn27b4CYLII2K8KyqwUc.jpg"}, {"credit_id": "55e6ee589251410f02002c9f", "department": "Camera", "gender": 0, "id": 1206943, "job": "Director of Photography", "name": "John Davey", "profile_path": null}]}}