{"adult": false, "backdrop_path": "/gKq7g7bHTtmrzinWUIYj20boilw.jpg", "belongs_to_collection": null, "budget": 0, "genres": [{"id": 10402, "name": "Music"}, {"id": 10749, "name": "Romance"}], "homepage": null, "id": 111625, "imdb_id": "tt0046330", "original_language": "en", "original_title": "Small Town Girl", "overview": "Rick Belrow Livingston, in love with Broadway star Lisa, is sentenced to 30 days in jail for speeding through a small town. He persuades the judge's daughter Cindy to let him leave for one night, so that he can visit Lisa on her birthday. After that he goes on the town with Cindy and she falls in love with him. But Dr. Schemmer wants his son to become her husband.", "popularity": 2.741, "poster_path": "/moH8TxAU8P46QhG1QFJ1BOzwEzQ.jpg", "production_companies": [{"id": 21, "logo_path": "/mjofSXiHpG5t6KYmU4l4FrUhT7m.png", "name": "Metro-Goldwyn-Mayer", "origin_country": "US"}], "production_countries": [{"iso_3166_1": "US", "name": "United States of America"}], "release_date": "1953-04-10", "revenue": 0, "runtime": 93, "spoken_languages": [{"iso_639_1": "en", "name": "English"}], "status": "Released", "tagline": "THE NEW HIPPITY-HOP MUSICAL!", "title": "Small Town Girl", "video": false, "vote_average": 5.9, "vote_count": 4, "keywords": {"keywords": [{"id": 4344, "name": "musical"}, {"id": 14512, "name": "new york city, usa"}, {"id": 156028, "name": "broadway"}]}, "similar": {"page": 1, "results": [{"adult": false, "backdrop_path": "/69NfvNrpPI6bjj3Txp2cDsRZ5se.jpg", "genre_ids": [18, 10402, 10749], "id": 65203, "original_language": "en", "original_title": "The Broadway Melody", "overview": "Harriet and Queenie Mahoney, a vaudeville act, come to Broadway, where their friend Eddie Kerns needs them for his number in one of Francis Zanfield's shows. Eddie was in love with Harriet, but when he meets Queenie, he falls in love to her, but she is courted by Jock Warriner, a member of the New Yorker high society. It takes a while till Queenie recognizes, that she is for Jock nothing more than a toy, and it also takes a while till Harriet recognizes, that Eddie is in love with Queenie", "poster_path": "/dJxFUKiO7JTDBSUr4Nzct4iJikX.jpg", "release_date": "1929-02-08", "title": "The Broadway Melody", "video": false, "vote_average": 5.5, "vote_count": 51, "popularity": 4.832}, {"id": 703, "video": false, "vote_count": 2268, "vote_average": 7.8, "title": "Annie Hall", "release_date": "1977-04-19", "original_language": "en", "original_title": "Annie Hall", "genre_ids": [35, 18, 10749], "backdrop_path": "/8iNt5LGxpX9XeNWJgjx17xfTT7u.jpg", "adult": false, "overview": "New York comedian Alvy Singer falls in love with the ditsy Annie Hall.", "poster_path": "/bK9bLXwxWuXX5mbq75PZqjvAtfG.jpg", "popularity": 15.038}, {"id": 872, "video": false, "vote_count": 1616, "vote_average": 8.2, "title": "Singin' in the Rain", "release_date": "1952-04-10", "original_language": "en", "original_title": "Singin' in the Rain", "genre_ids": [35, 10402, 10749], "backdrop_path": "/amW1YWQvcP8slDyDp1R652aVQZ7.jpg", "adult": false, "overview": "In 1927 Hollywood, a silent film production company and cast make a difficult transition to sound.", "poster_path": "/s39odBPtyutGBnEfBIpdm0fpRwv.jpg", "popularity": 20.625}, {"id": 504608, "video": false, "vote_count": 1661, "vote_average": 7.4, "title": "Rocketman", "release_date": "2019-05-22", "original_language": "en", "original_title": "Rocketman", "genre_ids": [18, 10402], "backdrop_path": "/sZZJ42GrWKxSOfcrpI2TSFQa0AQ.jpg", "adult": false, "overview": "The story of Elton John's life, from his years as a prodigy at the Royal Academy of Music through his influential and enduring musical partnership with Bernie Taupin.", "poster_path": "/f4FF18ia7yTvHf2izNrHqBmgH8U.jpg", "popularity": 26.576}, {"id": 18126, "video": false, "vote_count": 1217, "vote_average": 6.4, "title": "Hannah Montana: The Movie", "release_date": "2009-04-10", "original_language": "en", "original_title": "Hannah Montana: The Movie", "genre_ids": [35, 18, 10402, 10749, 10751], "backdrop_path": "/ezx3NkXNqf2KnJCP6Nfj1bfCFut.jpg", "adult": false, "overview": "As Hannah Montana's popularity begins to take over her life, Miley Stewart, on the urging from her father takes a trip to her hometown of Crowley Corners, Tennessee to get some perspective on what matters in life the most.", "poster_path": "/8pwbnmvshHj2yYPYlyJ8K8Yzecy.jpg", "popularity": 14.838}, {"id": 2005, "video": false, "vote_count": 1805, "vote_average": 6.7, "title": "Sister Act", "release_date": "1992-05-28", "original_language": "en", "original_title": "Sister Act", "genre_ids": [35, 10402], "backdrop_path": "/oaLqlJxt8TJSjsdfMpSkLexZ4l5.jpg", "adult": false, "overview": "A Reno singer witnesses a mob murder and the cops stash her in a nunnery to protect her from the mob's hitmen. The mother superior does not trust her, and takes steps to limit her influence on the other nuns. Eventually the singer rescues the failing choir and begins helping with community projects, which gets her an interview on TV\u2014and identification by the mob.", "poster_path": "/7wQxLtybiUbtC6tsJh9htFEmqq3.jpg", "popularity": 13.161}, {"id": 10537, "video": false, "vote_count": 603, "vote_average": 6.9, "title": "The Doors", "release_date": "1991-03-01", "original_language": "en", "original_title": "The Doors", "genre_ids": [18, 10402], "backdrop_path": "/1rv5sW6Qs2YK2iOzIgwH3SJPIl1.jpg", "adult": false, "overview": "The story of the famous and influential 1960s rock band and its lead singer and composer, Jim Morrison.", "poster_path": "/9CkFrWAkg23YynYd2uJLyWznMZZ.jpg", "popularity": 15.486}, {"id": 194662, "video": false, "vote_count": 8616, "vote_average": 7.5, "title": "Birdman", "release_date": "2014-08-27", "original_language": "en", "original_title": "Birdman", "genre_ids": [35, 18], "backdrop_path": "/AsJVim0Hk3KbQPbfjyijfjqmaoZ.jpg", "adult": false, "overview": "A fading actor best known for his portrayal of a popular superhero attempts to mount a comeback by appearing in a Broadway play. As opening night approaches, his attempts to become more altruistic, rebuild his career, and reconnect with friends and family prove more difficult than expected.", "poster_path": "/rSZs93P0LLxqlVEbI001UKoeCQC.jpg", "popularity": 37.733}, {"id": 224141, "video": false, "vote_count": 3143, "vote_average": 5.7, "title": "Into the Woods", "release_date": "2014-12-24", "original_language": "en", "original_title": "Into the Woods", "genre_ids": [35, 14], "backdrop_path": "/lzJzB0QfkjpGCm9qUC4XpEIB6pm.jpg", "adult": false, "overview": "In a woods filled with magic and fairy tale characters, a baker and his wife set out to end the curse put on them by their neighbor, a spiteful witch.", "poster_path": "/5h91odPFNlBuJbRBj5N4MEBfXDE.jpg", "popularity": 28.397}, {"adult": false, "backdrop_path": "/58BOLbf2ShjhVVtT7twnUEeangh.jpg", "genre_ids": [18, 10402], "id": 3087, "original_language": "en", "original_title": "Yankee Doodle Dandy", "overview": "A film of the life of the renowned musical composer, playwright, actor, dancer and singer George M. Cohan.", "poster_path": "/cqLLIyJFjLr6jGOxWVEHG11WGzB.jpg", "release_date": "1942-05-29", "title": "Yankee Doodle Dandy", "video": false, "vote_average": 7.1, "vote_count": 99, "popularity": 9.299}, {"id": 384677, "video": false, "vote_count": 1691, "vote_average": 7.0, "title": "Set It Up", "release_date": "2018-06-12", "original_language": "en", "original_title": "Set It Up", "genre_ids": [35, 10749], "backdrop_path": "/wYHaQzfzv5vOGaV6uPhatFWG338.jpg", "adult": false, "overview": "Two overworked and underpaid assistants come up with a plan to get their bosses off their backs by setting them up with each other.", "poster_path": "/XF5jV0UxKnYNPAimem0hbwPfCR.jpg", "popularity": 13.812}, {"id": 24122, "video": false, "vote_count": 452, "vote_average": 6.1, "title": "The Rebound", "release_date": "2009-09-16", "original_language": "en", "original_title": "The Rebound", "genre_ids": [35, 10749], "backdrop_path": "/tHskgc02jDVnhsPSmPpfEZeLL5v.jpg", "adult": false, "overview": "Upon discovering her husband's infidelity, Sandy leaves the suburbs and moves into the city. There, she befriends Aram, a guy whose wife only married him so she could get a green card. Sandy hires Aram to be her nanny, and  it isn't long until Aram and Sandy find out they get along wonderfully and start to date. But is their relationship real or is it, in fact, just a rebound for both of them?", "poster_path": "/nkkFebe8ZgE843rnTrlaRWJy0g9.jpg", "popularity": 16.417}, {"adult": false, "backdrop_path": "/74Jh5SIWnKDwtusPfDP51EeCFHt.jpg", "genre_ids": [35, 10749], "id": 9576, "original_language": "en", "original_title": "Tootsie", "overview": "When struggling, out of work actor Michael Dorsey secretly adopts a female alter ego - Dorothy Michaels - in order to land a part in a daytime drama, he unwittingly becomes a feminist icon and ends up in a romantic pickle.", "poster_path": "/ngyCzZwb9y5sMUCig5JQT4Y33Q.jpg", "release_date": "1982-12-16", "title": "Tootsie", "video": false, "vote_average": 7.2, "vote_count": 915, "popularity": 10.882}, {"id": 332562, "video": false, "vote_count": 7176, "vote_average": 7.5, "title": "A Star Is Born", "release_date": "2018-10-03", "original_language": "en", "original_title": "A Star Is Born", "genre_ids": [18, 10402, 10749], "backdrop_path": "/mnDvPokXpvsdPcWSjNRPhiiLOKu.jpg", "adult": false, "overview": "Seasoned musician Jackson Maine discovers \u2014 and falls in love with \u2014 struggling artist Ally. She has just about given up on her dream to make it big as a singer \u2014 until Jack coaxes her into the spotlight. But even as Ally's career takes off, the personal side of their relationship is breaking down, as Jack fights an ongoing battle with his own internal demons.", "poster_path": "/wrFpXMNBRj2PBiN4Z5kix51XaIZ.jpg", "popularity": 32.943}, {"adult": false, "backdrop_path": "/ppDnBvf0f7vCZHRLtDjazpYHdTF.jpg", "genre_ids": [35, 10402, 10749], "id": 13368, "original_language": "en", "original_title": "White Christmas", "overview": "Two talented song-and-dance men team up after the war to become one of the hottest acts in show business. In time they befriend and become romantically involved with the beautiful Haynes sisters who comprise a sister act.", "poster_path": "/A5kBQsHKbIptxJyELEpHQJROCRj.jpg", "release_date": "1954-10-14", "title": "White Christmas", "video": false, "vote_average": 7.4, "vote_count": 250, "popularity": 16.622}, {"adult": false, "backdrop_path": "/3eAudH9hkkr451VoAZPLEQVy5wX.jpg", "genre_ids": [35, 18, 10402, 10749], "id": 6282, "original_language": "en", "original_title": "Coyote Ugly", "overview": "Graced with a velvet voice, 21-year-old Violet Sanford heads to New York to pursue her dream of becoming a songwriter only to find her aspirations sidelined by the accolades and notoriety she receives at her \"day\" job as a barmaid at Coyote Ugly. The \"Coyotes\" as they are affectionately called tantalize customers and the media alike with their outrageous antics, making Coyote Ugly the watering hole for guys on the prowl.", "poster_path": "/p3nIrS9rkdVmMmgKAWtGsmAnhGV.jpg", "release_date": "2000-07-30", "title": "Coyote Ugly", "video": false, "vote_average": 6.1, "vote_count": 1166, "popularity": 20.571}, {"id": 407655, "video": false, "vote_count": 421, "vote_average": 6.8, "title": "A Cinderella Story: If the Shoe Fits", "release_date": "2016-08-02", "original_language": "en", "original_title": "A Cinderella Story: If the Shoe Fits", "genre_ids": [35, 14, 10402, 10751], "backdrop_path": "/svYzELCLW0NGVEuvNraA4W7Hmm9.jpg", "adult": false, "overview": "A contemporary musical version of the classic Cinderella story in which the servant step daughter hope to compete in a musical competition for a famous pop star.", "poster_path": "/prZSNnK5dkYcflsbdOsVVvqasZ5.jpg", "popularity": 23.748}, {"id": 11887, "video": false, "vote_count": 2347, "vote_average": 6.5, "title": "High School Musical 3: Senior Year", "release_date": "2008-10-11", "original_language": "en", "original_title": "High School Musical 3: Senior Year", "genre_ids": [35, 18, 10402, 10749, 10751], "backdrop_path": "/daSGxGZL2nNjGZKkAF5ain3lmOx.jpg", "adult": false, "overview": "It's almost graduation day for high school seniors Troy, Gabriella, Sharpay, Chad, Ryan and Taylor \u2015 and the thought of heading off in separate directions after leaving East High has these Wildcats thinking they need to do something they'll remember forever. Together with the rest of the Wildcats, they stage a spring musical reflecting their hopes and fears about the future and their unforgettable experiences growing up together. But with graduation approaching and college plans in question, what will become of the dreams, romances, and friendships of East High's senior Wildcats?", "poster_path": "/ewZpH2QIfPQ0VIn9lPf7MHbLbl4.jpg", "popularity": 19.967}, {"adult": false, "backdrop_path": "/3mhNnNmfCGrjyVEZhjWRVcjMOSi.jpg", "genre_ids": [14, 16, 10749, 10751], "id": 54113, "original_language": "en", "original_title": "The Swan Princess: Escape from Castle Mountain", "overview": "The first wedding anniversary of Princess Odette and Prince Derek is distracted by field fires set by Knuckles. His master Clavius, wants to conquer the world, and he needs to capture a giant orb to do that. Clavius kidnaps Queen Uberta and Odette with Derek have to save her.", "poster_path": "/oTEgvTpAIugS7OH6oIoVZkmV3C3.jpg", "release_date": "1997-01-01", "title": "The Swan Princess: Escape from Castle Mountain", "video": false, "vote_average": 6.0, "vote_count": 198, "popularity": 15.715}, {"id": 506574, "video": false, "vote_count": 484, "vote_average": 7.7, "title": "Descendants 3", "release_date": "2019-08-09", "original_language": "en", "original_title": "Descendants 3", "genre_ids": [12, 10402, 10751, 10770], "backdrop_path": "/iBJCHz6wWgyxbDmUD2Wk5huxbwS.jpg", "adult": false, "overview": "The teenagers of Disney's most infamous villains return to the Isle of the Lost to recruit a new batch of villainous offspring to join them at Auradon Prep.", "poster_path": "/7IRy0iHdaS0JI3ng4ZYlk5gLSFn.jpg", "popularity": 43.276}], "total_pages": 183, "total_results": 3651}, "recommendations": {"page": 1, "results": [], "total_pages": 1, "total_results": 0}, "credits": {"cast": [{"cast_id": 6, "character": "Cindy Kimbell", "credit_id": "52fe4afdc3a36847f81ec529", "gender": 1, "id": 82405, "name": "Jane Powell", "order": 0, "profile_path": "/zU4GkEqdn8Qlv14V7rrx3clNjnF.jpg"}, {"cast_id": 7, "character": "Rick Livingston", "credit_id": "52fe4afdc3a36847f81ec52d", "gender": 2, "id": 12497, "name": "Farley Granger", "order": 1, "profile_path": "/uMawvHjbqcg2s1UnedJwD9Njzy5.jpg"}, {"cast_id": 8, "character": "Lisa Bellmount", "credit_id": "52fe4afdc3a36847f81ec531", "gender": 1, "id": 15008, "name": "Ann Miller", "order": 2, "profile_path": "/b2NSm6PsPXP9KyKts5ElUVOUoVe.jpg"}, {"cast_id": 9, "character": "Papa Schlemmer", "credit_id": "52fe4afdc3a36847f81ec535", "gender": 2, "id": 94110, "name": "S.Z. Sakall", "order": 3, "profile_path": "/jBp6orDZiX5ay9tyaHQOpcFJAqd.jpg"}, {"cast_id": 10, "character": "Judge Gordon Kimbell", "credit_id": "52fe4afdc3a36847f81ec539", "gender": 2, "id": 46711, "name": "Robert Keith", "order": 4, "profile_path": "/2E4Ujpec5xMHetkfjErfuBvzJfO.jpg"}, {"cast_id": 11, "character": "Ludwig Schlemmer", "credit_id": "52fe4afdc3a36847f81ec53d", "gender": 2, "id": 42180, "name": "Bobby Van", "order": 5, "profile_path": "/cx8Uk2Jfs9RucM9KBqGIlmTDT2Z.jpg"}, {"cast_id": 12, "character": "Mrs. Livingston", "credit_id": "52fe4afdc3a36847f81ec541", "gender": 1, "id": 9071, "name": "Billie Burke", "order": 6, "profile_path": "/vhcDgp1TkIaleLfnE8lH72qvGBE.jpg"}, {"cast_id": 13, "character": "Mrs. Gordon Kimbell", "credit_id": "52fe4afdc3a36847f81ec545", "gender": 1, "id": 3242, "name": "Fay Wray", "order": 7, "profile_path": "/iQpiFC0ZwBZPIB0lFddcrmZjIzU.jpg"}, {"cast_id": 15, "character": "Nat King Cole", "credit_id": "584649989251410f5800935d", "gender": 2, "id": 70261, "name": "Nat King Cole", "order": 8, "profile_path": "/4S9QCY5sbr2sCinticzPZq28Al4.jpg"}, {"cast_id": 16, "character": "Mac", "credit_id": "584649a79251416a7401d68c", "gender": 0, "id": 196732, "name": "Dean Miller", "order": 9, "profile_path": "/ujGzsiMEMSuJL5uYJwnKntBWFAP.jpg"}, {"cast_id": 17, "character": "Ted, News Photographer", "credit_id": "584649b6c3a368472201d44a", "gender": 2, "id": 15699, "name": "William Campbell", "order": 10, "profile_path": "/9msspDde4Vu8Q8KwreQkGT7Iu44.jpg"}], "crew": [{"credit_id": "554b5c32c3a3685e63001be2", "department": "Camera", "gender": 2, "id": 14678, "job": "Director of Photography", "name": "Joseph Ruttenberg", "profile_path": null}, {"credit_id": "52fe4afdc3a36847f81ec51f", "department": "Writing", "gender": 1, "id": 31069, "job": "Writer", "name": "Dorothy Kingsley", "profile_path": null}, {"credit_id": "52fe4afdc3a36847f81ec513", "department": "Production", "gender": 2, "id": 94115, "job": "Producer", "name": "Joe Pasternak", "profile_path": "/gAAbsb5OoV0NVlQ13ScOwq7sXz0.jpg"}, {"credit_id": "52fe4afdc3a36847f81ec50d", "department": "Directing", "gender": 0, "id": 103343, "job": "Director", "name": "L\u00e1szl\u00f3 Kardos", "profile_path": null}, {"credit_id": "52fe4afdc3a36847f81ec519", "department": "Writing", "gender": 1, "id": 159506, "job": "Writer", "name": "Dorothy Cooper", "profile_path": null}]}}