{"adult": false, "backdrop_path": "/aRWUlqpWuTnUTy5Jeo8yfw0Ezgj.jpg", "belongs_to_collection": null, "budget": 0, "genres": [{"id": 28, "name": "Action"}, {"id": 35, "name": "Comedy"}], "homepage": null, "id": 11196, "imdb_id": "tt0345853", "original_language": "da", "original_title": "Rembrandt", "overview": "Two bumbling scrap metal thieves - father and son - steal the wrong painting during a museum heist. The painting turns out to be the only original Rembrandt painting in Denmark, and all hell breaks loose. What do you do when you've got Interpol, the Danish police and the entire Danish underworld on your heels? And who was this Rembrandt guy anyway?", "popularity": 3.905, "poster_path": "/rflUoJthTJ4EBwMvLPoEPMvd1xB.jpg", "production_companies": [{"id": 1436, "logo_path": "/3VRz5vPmsObDLAYFMmRaSA6swkj.png", "name": "Ugly Duckling Films", "origin_country": "GB"}, {"id": 2761, "logo_path": null, "name": "Fine & Mellow Productions", "origin_country": "DK"}], "production_countries": [{"iso_3166_1": "DK", "name": "Denmark"}, {"iso_3166_1": "GB", "name": "United Kingdom"}], "release_date": "2003-05-17", "revenue": 0, "runtime": 109, "spoken_languages": [{"iso_639_1": "de", "name": "Deutsch"}, {"iso_639_1": "da", "name": "Dansk"}, {"iso_639_1": "en", "name": "English"}], "status": "Released", "tagline": "They did the robbery of the century - They just didn't know it", "title": "Stealing Rembrandt", "video": false, "vote_average": 5.9, "vote_count": 19, "keywords": {"keywords": [{"id": 642, "name": "robbery"}, {"id": 970, "name": "parent child relationship"}, {"id": 2598, "name": "museum"}, {"id": 3246, "name": "prosecution"}, {"id": 5918, "name": "painting"}]}, "similar": {"page": 1, "results": [{"adult": false, "backdrop_path": "/7RRuRcGuWkZGuRyYugfXn0Fgrrr.jpg", "genre_ids": [28, 80, 18, 53], "id": 949, "original_language": "en", "original_title": "Heat", "overview": "Obsessive master thief, Neil McCauley leads a top-notch crew on various daring heists throughout Los Angeles while determined detective, Vincent Hanna pursues him without rest. Each man recognizes and respects the ability and the dedication of the other even though they are aware their cat-and-mouse game may end in violence.", "poster_path": "/6pmLVffM9jEYK7VqDJqPblMxfEY.jpg", "release_date": "1995-12-15", "title": "Heat", "video": false, "vote_average": 7.8, "vote_count": 3610, "popularity": 21.48}, {"adult": false, "backdrop_path": "/crRdazoirgBIB50ScJns8KMsZNM.jpg", "genre_ids": [80, 28, 53], "id": 438674, "original_language": "en", "original_title": "Dragged Across Concrete", "overview": "Two policemen, one an old-timer, the other his volatile younger partner, find themselves suspended when a video of their strong-arm tactics becomes the media's cause du jour. Low on cash and with no other options, these two embittered soldiers descend into the criminal underworld to gain their just due, but instead find far more than they wanted awaiting them in the shadows.", "poster_path": "/fVG4a27ImyPS4vvNMjCtan3QhDl.jpg", "release_date": "2019-02-21", "title": "Dragged Across Concrete", "video": false, "vote_average": 6.6, "vote_count": 252, "popularity": 13.918}, {"id": 9654, "video": false, "vote_count": 3399, "vote_average": 6.7, "title": "The Italian Job", "release_date": "2003-05-30", "original_language": "en", "original_title": "The Italian Job", "genre_ids": [28, 80], "backdrop_path": "/JyoJwSfcLvfLxCGHUQYlCxvU77.jpg", "adult": false, "overview": "Charlie Croker pulled off the crime of a lifetime. The one thing that he didn't plan on was being double-crossed. Along with a drop-dead gorgeous safecracker, Croker and his team take off to re-steal the loot and end up in a pulse-pounding, pedal-to-the-metal chase that careens up, down, above and below the streets of Los Angeles.", "poster_path": "/jNRCNX1uDiUf6mteFxOBn30wL8Q.jpg", "popularity": 22.049}, {"id": 9679, "video": false, "vote_count": 2588, "vote_average": 6.3, "title": "Gone in Sixty Seconds", "release_date": "2000-06-09", "original_language": "en", "original_title": "Gone in Sixty Seconds", "genre_ids": [28, 80, 53], "backdrop_path": "/uqd4cqpp6gbs6zG6izBUaCorgjv.jpg", "adult": false, "overview": "Upon learning that he has to come out of retirement to steal 50 cars in one night to save his brother Kip's life, former car thief Randall \"Memphis\" Raines enlists help from a few \"boost happy\" pals to accomplish a seemingly impossible feat. From countless car chases to relentless cops, the high-octane excitement builds as Randall swerves around more than a few roadblocks to keep Kip alive.", "poster_path": "/77TxKvRiX0c5JR6l4fxcN19prOy.jpg", "popularity": 18.286}, {"id": 339403, "video": false, "vote_count": 9210, "vote_average": 7.4, "title": "Baby Driver", "release_date": "2017-06-28", "original_language": "en", "original_title": "Baby Driver", "genre_ids": [28, 80], "backdrop_path": "/goCvLSUFz0p7k8R10Hv4CVh3EQv.jpg", "adult": false, "overview": "After being coerced into working for a crime boss, a young getaway driver finds himself taking part in a heist doomed to fail.", "poster_path": "/dN9LbVNNZFITwfaRjl4tmwGWkRg.jpg", "popularity": 27.195}, {"id": 433, "video": false, "vote_count": 2992, "vote_average": 7.6, "title": "Mary Poppins", "release_date": "1964-08-27", "original_language": "en", "original_title": "Mary Poppins", "genre_ids": [35, 14, 10751], "backdrop_path": "/7DbgR36Sct5gcyEAzoM8bqiTYUV.jpg", "adult": false, "overview": "A magical nanny employs music and adventure to help two neglected children become closer to their father.", "poster_path": "/ei8hhYCMfURfPOXKBnyl61be2iV.jpg", "popularity": 19.493}, {"id": 193893, "video": false, "vote_count": 1813, "vote_average": 6.3, "title": "Let's Be Cops", "release_date": "2014-08-13", "original_language": "en", "original_title": "Let's Be Cops", "genre_ids": [35], "backdrop_path": "/43GrPpAeBUOvOCZ8L1A3MLuDnkc.jpg", "adult": false, "overview": "It's the ultimate buddy cop movie except for one thing: they're not cops.  When two struggling pals dress as police officers for a costume party, they become neighborhood sensations.  But when these newly-minted \u201cheroes\u201d get tangled in a real life web of mobsters and dirty detectives, they must put their fake badges on the line.", "poster_path": "/ayYibwWAA9NxJPaD9GSybPShtvL.jpg", "popularity": 20.729}, {"adult": false, "backdrop_path": "/eg049B1TJdWuKuyKowNmhZxNToc.jpg", "genre_ids": [28, 53], "id": 562, "original_language": "en", "original_title": "Die Hard", "overview": "NYPD cop John McClane's plan to reconcile with his estranged wife is thrown for a serious loop when, minutes after he arrives at her office, the entire building is overtaken by a group of terrorists. With little help from the LAPD, wisecracking McClane sets out to single-handedly rescue the hostages and bring the bad guys down.", "poster_path": "/fiXHtnQpQiGVkMtyYnEfQ6Gtfx8.jpg", "release_date": "1988-07-15", "title": "Die Hard", "video": false, "vote_average": 7.7, "vote_count": 6807, "popularity": 26.484}, {"id": 863, "video": false, "vote_count": 8643, "vote_average": 7.5, "title": "Toy Story 2", "release_date": "1999-10-30", "original_language": "en", "original_title": "Toy Story 2", "genre_ids": [16, 35, 10751], "backdrop_path": "/9Kjxr4VCU0Y4DAuXkzR2moAy7DK.jpg", "adult": false, "overview": "Andy heads off to Cowboy Camp, leaving his toys to their own devices. Things shift into high gear when an obsessive toy collector named Al McWhiggen, owner of Al's Toy Barn kidnaps Woody. Andy's toys mount a daring rescue mission, Buzz Lightyear meets his match and Woody has to decide where he and his heart truly belong.", "poster_path": "/3CmK3XurcLeUyMifCR28ibzupbB.jpg", "popularity": 21.865}, {"id": 399170, "video": false, "vote_count": 1913, "vote_average": 6.7, "title": "Logan Lucky", "release_date": "2017-08-17", "original_language": "en", "original_title": "Logan Lucky", "genre_ids": [28, 35, 80, 18], "backdrop_path": "/m1g7FDwVp1C9o0JZ4THDmLRCjDl.jpg", "adult": false, "overview": "Trying to reverse a family curse, brothers Jimmy and Clyde Logan set out to execute an elaborate robbery during the legendary Coca-Cola 600 race at the Charlotte Motor Speedway.", "poster_path": "/mQrhrBaaHvRfBQq0Px3HtVbH9iE.jpg", "popularity": 34.07}, {"adult": false, "backdrop_path": "/gALgnCvJvtJ2t2mpQj0MzWfKHeN.jpg", "genre_ids": [35], "id": 1281, "original_language": "en", "original_title": "Bean", "overview": "Bean works as a caretaker at Britain's formidable Royal National Gallery, and his bosses want to fire him because he sleeps at work all the time, but can't because the chairman of the gallery's board defends him. They send him to USA, to the small Los Angeles art gallery instead, where he'll have to officiate at the opening of the greatest US picture ever (called \"Whistler's Mother\").", "poster_path": "/pKGGzotqkNDEL2ix4VU1bWmteK5.jpg", "release_date": "1997-07-03", "title": "Bean", "video": false, "vote_average": 6.4, "vote_count": 1397, "popularity": 17.952}, {"id": 39254, "video": false, "vote_count": 4971, "vote_average": 6.8, "title": "Real Steel", "release_date": "2011-09-28", "original_language": "en", "original_title": "Real Steel", "genre_ids": [28, 18, 878], "backdrop_path": "/bwaMcX2zjfc3C7YLBWRnBnHEDHW.jpg", "adult": false, "overview": "Charlie Kenton is a washed-up fighter who retired from the ring when robots took over the sport. After his robot is trashed, he reluctantly teams up with his estranged son to rebuild and train an unlikely contender.", "poster_path": "/drtXi58nN6P3zcoLh6wUlsZAYqh.jpg", "popularity": 23.011}, {"id": 12225, "video": false, "vote_count": 569, "vote_average": 6.9, "title": "Cashback", "release_date": "2006-09-10", "original_language": "en", "original_title": "Cashback", "genre_ids": [35, 18, 10749], "backdrop_path": "/4gT26M9G85HI76D9ZGDHyRx4OfE.jpg", "adult": false, "overview": "After a painful breakup, Ben develops insomnia. To kill time, he starts working the late night shift at the local supermarket, where his artistic imagination runs wild.", "poster_path": "/rXzlyFeZkpwFMd8lCrOHpjfM4VL.jpg", "popularity": 12.831}, {"adult": false, "backdrop_path": "/7UWPr9LUq3GizuZDG3e6PvSlvck.jpg", "genre_ids": [28, 80, 18, 53], "id": 294652, "original_language": "en", "original_title": "Son of a Gun", "overview": "Locked up for a minor crime, 19 year old JR quickly learns the harsh realities of prison life. Protection, if you can get it, is paramount. JR soon finds himself under the watchful eye of Australia's most notorious criminal, Brendan Lynch, but protection comes at a price.", "poster_path": "/pJoofuXXnEsDu5U4L1L48qkgUPf.jpg", "release_date": "2014-10-16", "title": "Son of a Gun", "video": false, "vote_average": 6.2, "vote_count": 440, "popularity": 13.535}, {"id": 4787, "video": false, "vote_count": 435, "vote_average": 6.2, "title": "Cassandra's Dream", "release_date": "2007-06-18", "original_language": "en", "original_title": "Cassandra's Dream", "genre_ids": [35, 80, 18, 9648, 53], "backdrop_path": "/avvSX8GIm9lFGfKi31Vu1lKuvrs.jpg", "adult": false, "overview": "The tale of two brothers with serious financial woes. When a third party proposes they turn to crime, things go bad and the two become enemies.", "poster_path": "/lRzD1AKV8PPJO7ljut59fPThVdH.jpg", "popularity": 12.035}, {"adult": false, "backdrop_path": "/kiWvoV78Cc3fUwkOHKzyBgVdrDD.jpg", "genre_ids": [37, 18, 12], "id": 281957, "original_language": "en", "original_title": "The Revenant", "overview": "In the 1820s, a frontiersman, Hugh Glass, sets out on a path of vengeance against those who left him for dead after a bear mauling.", "poster_path": "/oXUWEc5i3wYyFnL1Ycu8ppxxPvs.jpg", "release_date": "2015-12-25", "title": "The Revenant", "video": false, "vote_average": 7.5, "vote_count": 12122, "popularity": 30.491}, {"adult": false, "backdrop_path": "/3uwyXMZN93PRkShUxvLrufwVAc2.jpg", "genre_ids": [80, 18, 27, 9648, 53], "id": 452507, "original_language": "en", "original_title": "1922", "overview": "A simple yet proud rancher conspires to murder his wife for financial gain, convincing his teenage son to participate.", "poster_path": "/q4FQOiSRhTLWulHl5Vpg37FMArH.jpg", "release_date": "2017-10-20", "title": "1922", "video": false, "vote_average": 5.9, "vote_count": 1489, "popularity": 10.541}, {"id": 8204, "video": false, "vote_count": 1536, "vote_average": 6.5, "title": "The Spiderwick Chronicles", "release_date": "2008-02-14", "original_language": "en", "original_title": "The Spiderwick Chronicles", "genre_ids": [12, 18, 14, 10751], "backdrop_path": "/2Uwv3eUDRJ9UcjN8AlSg4GDm6TN.jpg", "adult": false, "overview": "Upon moving into the run-down Spiderwick Estate with their mother, twin brothers Jared and Simon Grace, along with their sister Mallory, find themselves pulled into an alternate world full of faeries and other creatures.", "poster_path": "/nSLjsBDzwsIpQL534CNfAKidyAm.jpg", "popularity": 19.108}, {"id": 88, "video": false, "vote_count": 3462, "vote_average": 7.3, "title": "Dirty Dancing", "release_date": "1987-08-21", "original_language": "en", "original_title": "Dirty Dancing", "genre_ids": [18, 10402, 10749], "backdrop_path": "/ngDmpFRzNGr9XMtKchhBZjt4DLH.jpg", "adult": false, "overview": "Expecting the usual tedium that accompanies a summer in the Catskills with her family, 17-year-old Frances 'Baby' Houseman is surprised to find herself stepping into the shoes of a professional hoofer\u2014and unexpectedly falling in love.", "poster_path": "/jFoktPxTtabZfh9JeDy3F78g9w7.jpg", "popularity": 20.202}, {"adult": false, "backdrop_path": "/lCtlmlT2n6uvdzSOqXGQ3NaYaRG.jpg", "genre_ids": [27, 9648], "id": 397243, "original_language": "en", "original_title": "The Autopsy of Jane Doe", "overview": "Father and son coroners receive a mysterious unidentified corpse with no apparent cause of death. As they attempt to examine the beautiful young \"Jane Doe,\" they discover increasingly bizarre clues that hold the key to her terrifying secrets.", "poster_path": "/hvQgtEMXzQZDCZkkLFPK6cO1FIy.jpg", "release_date": "2016-12-21", "title": "The Autopsy of Jane Doe", "video": false, "vote_average": 6.5, "vote_count": 2130, "popularity": 17.034}], "total_pages": 325, "total_results": 6500}, "recommendations": {"page": 1, "results": [{"adult": false, "backdrop_path": "/76ExDUShMlDR7UF9ht1lpDBeQOs.jpg", "genre_ids": [18], "id": 42613, "original_language": "da", "original_title": "Det fors\u00f8mte for\u00e5r", "overview": "At their 25th high-school anniversary some bourgeois citizens remember their time in school as a happy one. In reality it was quite the contrary. The school was a madhouse in which the teachers, especially Blomme, tormented the students. As a result one of them became a murderer.", "poster_path": "/nQYNJ5gzJcWSrtkK5bgaAwxlr1K.jpg", "release_date": "1993-01-29", "title": "Stolen Spring", "video": false, "vote_average": 6.7, "vote_count": 11, "popularity": 3.318}, {"adult": false, "backdrop_path": "/pE1pbczImdc4ZQBUBkr1HJdMoez.jpg", "genre_ids": [10751, 35], "id": 41989, "original_language": "da", "original_title": "St\u00f8v p\u00e5 hjernen", "overview": "The story centers around the busybody housewives of a modern Danish working class neighborhood of the 1960's. A remake of the Norwegian comedy film from 1959.", "poster_path": "/f8ptRGuLoGCeI5SXPtYiNxSOiXw.jpg", "release_date": "1961-10-11", "title": "Dust on the Brain", "video": false, "vote_average": 7.0, "vote_count": 11, "popularity": 3.097}, {"adult": false, "backdrop_path": "/tpTgAvYzAQM2mA3BrAAFb1iFeDw.jpg", "genre_ids": [18], "id": 73448, "original_language": "da", "original_title": "Dirch", "overview": "Opening in the seductive style of the sixties, \u00bbA Funny Man\u00ab uncovers the perennial loneliness that comedian Dirch Passer (Nikolaj Lie Kaas) has found himself in after a fast-tracked rise to fame. He struggles between his own desire to gain critical respect and servicing the audience\u00bfs needs. Costing his kindred friendship to on-stage partner Kjeld Petersen (Lars Ranthe) Dirch takes on Steinbeck's classic \u00bbOf Mice and Men\u00ab, only for the audience to break out in laughter at his first line. Dirch's Lennie becomes a running joke, and so has, Dirch believes, his own life.", "poster_path": "/rontqfgZyFAUOFNXRJqJXB6y2hZ.jpg", "release_date": "2011-08-25", "title": "A Funny Man", "video": false, "vote_average": 7.1, "vote_count": 20, "popularity": 3.648}, {"adult": false, "backdrop_path": "/thfPNITCkrUzVSVWEvKK15wGW6w.jpg", "genre_ids": [35, 80], "id": 30564, "original_language": "da", "original_title": "Alt p\u00e5 et br\u00e6t", "overview": "Three out of work actors breaks into a bank through the toilet of a railroad station.", "poster_path": "/4Vy7hORoa82aXsrnDqfCUgRI96G.jpg", "release_date": "1977-02-18", "title": "Going for Broke", "video": false, "vote_average": 6.6, "vote_count": 7, "popularity": 2.128}, {"adult": false, "backdrop_path": "/44HJthZXMe8MJI6YdR1dCIpeDC3.jpg", "genre_ids": [35], "id": 41987, "original_language": "da", "original_title": "Passer passer piger", "overview": "Caretaker Alf Thomsen's very effective \"alarm clock\" comes once again in operation, and has again succeeded in getting him up to speed, despite their incessant discussions back and forth. Everything is peaceful and idyllic. Sleeping city housing block, with the famous staircase is to embark on a new day", "poster_path": "/2ftyDt3zCsW8txyTl72UOiVkF5N.jpg", "release_date": "1965-07-23", "title": "Passer passer piger", "video": false, "vote_average": 6.3, "vote_count": 8, "popularity": 2.744}], "total_pages": 1, "total_results": 5}, "credits": {"cast": [{"cast_id": 1, "character": "Mick", "credit_id": "52fe440d9251416c750274f5", "gender": 2, "id": 4467, "name": "Lars Brygmann", "order": 0, "profile_path": "/6M8ZHAmLSkUCgkW3j5Dtr6IjfzJ.jpg"}, {"cast_id": 2, "character": "Tom", "credit_id": "52fe440d9251416c750274f9", "gender": 2, "id": 41903, "name": "Jakob Cedergren", "order": 1, "profile_path": "/vLpbFAPhNfbQPpgkMVAJDd3uXCB.jpg"}, {"cast_id": 3, "character": "Kenneth", "credit_id": "52fe440d9251416c750274fd", "gender": 2, "id": 12795, "name": "Nikolaj Coster-Waldau", "order": 2, "profile_path": "/qDCSP0CiCQIQwEzZJoH6NX5FdsT.jpg"}, {"cast_id": 4, "character": "Jimmy", "credit_id": "52fe440d9251416c75027501", "gender": 2, "id": 15086, "name": "Nicolas Bro", "order": 3, "profile_path": "/bPfMDMjbFZzelnZQfLzVTk6qlwi.jpg"}, {"cast_id": 5, "character": "Trine", "credit_id": "52fe440d9251416c75027505", "gender": 1, "id": 1017, "name": "Sonja Richter", "order": 4, "profile_path": "/dfO62j66IC6Qrauc17esOkSqYMp.jpg"}, {"cast_id": 13, "character": "Charlotte", "credit_id": "52fe440d9251416c75027533", "gender": 1, "id": 4458, "name": "Paprika Steen", "order": 5, "profile_path": "/iolKUDKp6sxWoclOOosRgyEbp4z.jpg"}, {"cast_id": 14, "character": "Christian", "credit_id": "52fe440d9251416c75027537", "gender": 0, "id": 112317, "name": "Gordon Kennedy", "order": 6, "profile_path": "/l9ChoY2Qctx3ot9i66ohe8Afpvw.jpg"}, {"cast_id": 15, "character": "Kiosk Karsten", "credit_id": "52fe440d9251416c7502753b", "gender": 2, "id": 1018, "name": "Nikolaj Lie Kaas", "order": 7, "profile_path": "/zT1RZNV3JG2Fy0MeIy3fgRMYxUP.jpg"}, {"cast_id": 16, "character": "", "credit_id": "5510585d925141073d005632", "gender": 2, "id": 64122, "name": "S\u00f8ren Pilmark", "order": 8, "profile_path": "/7yDdMrIwuCbyGVG7iCIFQPXmbif.jpg"}, {"cast_id": 17, "character": "", "credit_id": "55105867c3a368487400de47", "gender": 2, "id": 73925, "name": "Ole Ernst", "order": 9, "profile_path": "/gGTlEW2JGb3SYbbgdOYUmw03Hca.jpg"}, {"cast_id": 18, "character": "", "credit_id": "551058719251416bd10030db", "gender": 2, "id": 1024, "name": "Ulf Pilgaard", "order": 10, "profile_path": "/k36zUCMvoohhyegGsDAu6uoFKP6.jpg"}, {"cast_id": 19, "character": "", "credit_id": "5510587fc3a3681db200c06b", "gender": 0, "id": 1444537, "name": "Thomas Gabrielson", "order": 11, "profile_path": null}, {"cast_id": 20, "character": "", "credit_id": "5510589592514164ac003411", "gender": 0, "id": 1167833, "name": "Mogens Holm", "order": 12, "profile_path": null}, {"cast_id": 21, "character": "", "credit_id": "551058a29251414d31000dd6", "gender": 0, "id": 1439294, "name": "Niels Andersen", "order": 13, "profile_path": null}, {"cast_id": 22, "character": "", "credit_id": "551058b292514164ac003415", "gender": 2, "id": 82854, "name": "Patrick O'Kane", "order": 14, "profile_path": null}, {"cast_id": 23, "character": "", "credit_id": "551058bf9251414d31000ddc", "gender": 2, "id": 1444538, "name": "Martin Wenner", "order": 15, "profile_path": "/2vxtcdd77dRPZZ9TxucbCf4DaU0.jpg"}, {"cast_id": 24, "character": "", "credit_id": "551058ca9251416bd10030e4", "gender": 0, "id": 1443149, "name": "S\u00f8ren Poppel", "order": 16, "profile_path": "/vwL4TilfTA0gdDQnjZNZ2r4fxzb.jpg"}, {"cast_id": 25, "character": "", "credit_id": "551058de925141065c0057fc", "gender": 2, "id": 1444539, "name": "Michael Fabricius Sand", "order": 17, "profile_path": null}, {"cast_id": 26, "character": "", "credit_id": "551058ebc3a368487400de5b", "gender": 2, "id": 6135, "name": "John Martinus", "order": 18, "profile_path": "/lyqHr7QIrIepzRxdvzQoVU7ZfO7.jpg"}, {"cast_id": 27, "character": "", "credit_id": "551058fcc3a3683dd6004ed2", "gender": 0, "id": 15082, "name": "Jeppe Kaas", "order": 19, "profile_path": null}, {"cast_id": 28, "character": "", "credit_id": "5510590bc3a3683dd6004ed4", "gender": 1, "id": 1150553, "name": "Anne Sofie Espersen", "order": 20, "profile_path": "/txJiyMEa5oolw7seB5Oy3Vxw9xi.jpg"}, {"cast_id": 29, "character": "", "credit_id": "55105915c3a368488600d0f8", "gender": 0, "id": 1429906, "name": "S\u00f8ren Thomsen", "order": 21, "profile_path": null}, {"cast_id": 30, "character": "", "credit_id": "5510595b92514166db0033d0", "gender": 0, "id": 1444541, "name": "Merete N\u00f8rgaard", "order": 22, "profile_path": null}, {"cast_id": 31, "character": "", "credit_id": "5510596e92514164ac003445", "gender": 0, "id": 1444542, "name": "Lars Phister", "order": 23, "profile_path": null}, {"cast_id": 32, "character": "", "credit_id": "5510597bc3a3683f39005777", "gender": 0, "id": 5985, "name": "Thomas Gammeltoft", "order": 24, "profile_path": null}, {"cast_id": 33, "character": "", "credit_id": "55105985c3a3683dd6004ee9", "gender": 0, "id": 3921, "name": "David Bateson", "order": 25, "profile_path": "/qlAbrkkQJIFMw8VHgi1PpAEs4oL.jpg"}, {"cast_id": 34, "character": "", "credit_id": "5510598f92514166db0033d7", "gender": 0, "id": 1152683, "name": "Kenth Rosenberg", "order": 26, "profile_path": null}, {"cast_id": 35, "character": "", "credit_id": "55105999925141073d005656", "gender": 0, "id": 1444544, "name": "Toshihito Inoue", "order": 27, "profile_path": null}, {"cast_id": 36, "character": "", "credit_id": "551059a1c3a368208a002136", "gender": 0, "id": 1444545, "name": "Morten Lundholm", "order": 28, "profile_path": null}, {"cast_id": 37, "character": "", "credit_id": "551059abc3a368487400de71", "gender": 0, "id": 1444546, "name": "Yuesong Fan", "order": 29, "profile_path": null}, {"cast_id": 38, "character": "", "credit_id": "551059b5c3a3683e7f005634", "gender": 0, "id": 1441488, "name": "Asger Gottlieb", "order": 30, "profile_path": null}, {"cast_id": 39, "character": "", "credit_id": "551059bf925141065c005811", "gender": 0, "id": 1444547, "name": "Lotte Mejlhede", "order": 31, "profile_path": null}, {"cast_id": 40, "character": "", "credit_id": "551059c992514146a000cafb", "gender": 2, "id": 206475, "name": "Lasse Rimmer", "order": 32, "profile_path": "/oiXuzI5z2b181e0JDGs3Z7RzpvM.jpg"}, {"cast_id": 41, "character": "", "credit_id": "551059d1925141073d00565e", "gender": 0, "id": 1444548, "name": "Pascal Lubrano", "order": 33, "profile_path": null}, {"cast_id": 42, "character": "", "credit_id": "551059dcc3a368487400de77", "gender": 0, "id": 1444549, "name": "Paw Eriksen", "order": 34, "profile_path": null}], "crew": [{"credit_id": "52fe440d9251416c75027511", "department": "Writing", "gender": 2, "id": 1012, "job": "Screenplay", "name": "Anders Thomas Jensen", "profile_path": "/dcV0ZkjU4fIpAr0ehG3LY7dESFi.jpg"}, {"credit_id": "52fe440d9251416c75027529", "department": "Camera", "gender": 2, "id": 3925, "job": "Director of Photography", "name": "Eric Kress", "profile_path": null}, {"credit_id": "52fe440d9251416c7502751d", "department": "Production", "gender": 0, "id": 5985, "job": "Producer", "name": "Thomas Gammeltoft", "profile_path": null}, {"credit_id": "52fe440d9251416c75027517", "department": "Writing", "gender": 2, "id": 68554, "job": "Screenplay", "name": "Jannik Johansen", "profile_path": "/u4XFLX5IEbdsuXz0fxPMLec7hNu.jpg"}, {"credit_id": "52fe440d9251416c7502750b", "department": "Directing", "gender": 2, "id": 68554, "job": "Director", "name": "Jannik Johansen", "profile_path": "/u4XFLX5IEbdsuXz0fxPMLec7hNu.jpg"}, {"credit_id": "52fe440d9251416c75027523", "department": "Sound", "gender": 0, "id": 68555, "job": "Original Music Composer", "name": "Antony Genn", "profile_path": null}, {"credit_id": "52fe440d9251416c7502752f", "department": "Editing", "gender": 0, "id": 68556, "job": "Editor", "name": "Per K. Kirkegaard", "profile_path": null}]}}