{"adult": false, "backdrop_path": null, "belongs_to_collection": null, "budget": 0, "genres": [{"id": 35, "name": "Comedy"}, {"id": 18, "name": "Drama"}, {"id": 10402, "name": "Music"}], "homepage": null, "id": 112499, "imdb_id": "tt0021681", "original_language": "de", "original_title": "Bomben auf Monte Carlo", "overview": "The captain of a battleship of a small Balkan country is fed up with following strange orders from the country's queen.", "popularity": 2.205, "poster_path": "/aLMJbe3ef7wg4MaGE1e2tffBZLT.jpg", "production_companies": [{"id": 12372, "logo_path": null, "name": "Universum Film (UFA)", "origin_country": ""}], "production_countries": [{"iso_3166_1": "DE", "name": "Germany"}], "release_date": "1931-08-31", "revenue": 0, "runtime": 111, "spoken_languages": [{"iso_639_1": "de", "name": "Deutsch"}], "status": "Released", "tagline": "", "title": "Bombs Over Monte Carlo", "video": false, "vote_average": 7.3, "vote_count": 3, "keywords": {"keywords": [{"id": 395, "name": "gambling"}, {"id": 585, "name": "casino"}, {"id": 3588, "name": "navy"}]}, "similar": {"page": 1, "results": [{"adult": false, "backdrop_path": "/9ma1mCoFaG9iNSdHgkAZiB4rXPD.jpg", "genre_ids": [18, 53], "id": 8052, "original_language": "en", "original_title": "Hard Eight", "overview": "A stranger mentors a young Reno gambler who weds a hooker and befriends a vulgar casino regular.", "poster_path": "/pmmT4gyIaz2BPoF0knX2obk79t8.jpg", "release_date": "1996-02-28", "title": "Hard Eight", "video": false, "vote_average": 6.9, "vote_count": 368, "popularity": 14.293}, {"id": 8065, "video": false, "vote_count": 2681, "vote_average": 6.6, "title": "21", "release_date": "2008-03-27", "original_language": "en", "original_title": "21", "genre_ids": [80, 18], "backdrop_path": "/3quapHSlorOsbkh0b6IgyCGIBni.jpg", "adult": false, "overview": "Ben Campbell is a young, highly intelligent, student at M.I.T. in Boston who strives to succeed. Wanting a scholarship to transfer to Harvard School of Medicine with the desire to become a doctor, Ben learns that he cannot afford the $300,000 for the four to five years of schooling as he comes from a poor, working-class background. But one evening, Ben is introduced by his unorthodox math professor Micky Rosa into a small but secretive club of five. Students Jill, Choi, Kianna, and Fisher, who are being trained by Professor Rosa of the skill of card counting at blackjack.", "poster_path": "/4zKAgycQDJD2zIkmPYV3aMR8tEy.jpg", "popularity": 18.56}, {"id": 309242, "video": false, "vote_count": 257, "vote_average": 6.0, "title": "Mississippi Grind", "release_date": "2015-07-04", "original_language": "en", "original_title": "Mississippi Grind", "genre_ids": [18, 53], "backdrop_path": "/bEzJXwd6PDOtbw88pG4ZppXEN2D.jpg", "adult": false, "overview": "Gerry is a talented but down-on-his-luck gambler whose fortunes begin to change when he meets Curtis, a younger, highly charismatic poker player.  The two strike up an immediate friendship and Gerry quickly persuades his new friend to accompany him on a road trip to a legendary high stakes poker game in New Orleans. As they make their way down the Mississippi River, Gerry and Curtis manage to find themselves in just about every bar, racetrack, casino, and pool hall they can find, experiencing both incredible highs and dispiriting lows, but ultimately forging a deep and genuine bond that will stay with them long after their adventure is over.", "poster_path": "/6b95JivLvHSWt5DAnEEoPR7MWjJ.jpg", "popularity": 8.607}, {"id": 524, "video": false, "vote_count": 2854, "vote_average": 8.0, "title": "Casino", "release_date": "1995-11-22", "original_language": "en", "original_title": "Casino", "genre_ids": [80], "backdrop_path": "/eP41pD4YfyVOjdpEaTmoNrL9DGx.jpg", "adult": false, "overview": "In early-1970s Las Vegas, low-level mobster Sam \"Ace\" Rothstein gets tapped by his bosses to head the Tangiers Casino. At first, he's a great success in the job, but over the years, problems with his loose-cannon enforcer Nicky Santoro, his ex-hustler wife Ginger, her con-artist ex Lester Diamond and a handful of corrupt politicians put Sam in ever-increasing danger.", "poster_path": "/jC0dqpkRMwh3A1X2PHahTxOaLbp.jpg", "popularity": 21.281}, {"id": 1878, "video": false, "vote_count": 2623, "vote_average": 7.2, "title": "Fear and Loathing in Las Vegas", "release_date": "1998-05-22", "original_language": "en", "original_title": "Fear and Loathing in Las Vegas", "genre_ids": [12, 35, 18], "backdrop_path": "/vtEKE4OFsnuIh37oo1arOMM2ELv.jpg", "adult": false, "overview": "Raoul Duke and his attorney Dr. Gonzo drive a red convertible across the Mojave desert to Las Vegas with a suitcase full of drugs to cover a motorcycle race. As their consumption of drugs increases at an alarming rate, the stoned duo trash their hotel room and fear legal repercussions. Duke begins to drive back to L.A., but after an odd run-in with a cop, he returns to Sin City and continues his wild drug binge.", "poster_path": "/u9ffgobMADj6GCafeImbov566j9.jpg", "popularity": 24.539}, {"id": 396371, "video": false, "vote_count": 1968, "vote_average": 7.1, "title": "Molly's Game", "release_date": "2017-12-25", "original_language": "en", "original_title": "Molly's Game", "genre_ids": [80, 18], "backdrop_path": "/rHcBZ6ZKCe4FalWHyvBGsyMsh0k.jpg", "adult": false, "overview": "Molly Bloom, a young skier and former Olympic hopeful becomes a successful entrepreneur (and a target of an FBI investigation) when she establishes a high-stakes, international poker game.", "poster_path": "/in43bQ7k0ttr666IPP94IlbQbTR.jpg", "popularity": 18.118}, {"id": 11419, "video": false, "vote_count": 306, "vote_average": 6.0, "title": "Vegas Vacation", "release_date": "1997-02-13", "original_language": "en", "original_title": "Vegas Vacation", "genre_ids": [35], "backdrop_path": "/74B0al9BnzcTwmPmsid8mzKsoDi.jpg", "adult": false, "overview": "The Griswold family hits the road again for a typically ill-fated vacation, this time to the glitzy mecca of slots and showgirls\u2014Las Vegas.", "poster_path": "/jUOreo2AWDnPuRJsUp6T1i66tUe.jpg", "popularity": 16.126}, {"id": 10141, "video": false, "vote_count": 414, "vote_average": 7.1, "title": "Dirty Rotten Scoundrels", "release_date": "1988-12-14", "original_language": "en", "original_title": "Dirty Rotten Scoundrels", "genre_ids": [35, 80], "backdrop_path": "/coemYANmOCtpXE98qdXzQ0uqqG5.jpg", "adult": false, "overview": "Two con men try to settle their rivalry by betting on who can be the first to swindle a young American heiress out of $50,000.", "poster_path": "/fdwW9gwi50lmgPyv2teT2NCjElO.jpg", "popularity": 15.8}, {"id": 146238, "video": false, "vote_count": 819, "vote_average": 5.6, "title": "Runner Runner", "release_date": "2013-09-24", "original_language": "en", "original_title": "Runner Runner", "genre_ids": [80, 18, 53], "backdrop_path": "/wULBSnY3AaR9PfN6kYT8vLA8HfW.jpg", "adult": false, "overview": "When a poor college student who cracks an online poker game goes bust, he arranges a face-to-face with the man he thinks cheated him, a sly offshore entrepreneur.", "poster_path": "/vh3pmcySB3sWkNwLRIyrbTugSrD.jpg", "popularity": 12.057}, {"id": 4478, "video": false, "vote_count": 678, "vote_average": 6.1, "title": "Indecent Proposal", "release_date": "1993-04-07", "original_language": "en", "original_title": "Indecent Proposal", "genre_ids": [18, 10749], "backdrop_path": "/q793LSnNfTDTvolHyWjieEceDYk.jpg", "adult": false, "overview": "John Gage offers a down-on-his-luck yuppie husband $1 million for the opportunity to spend the night with the man's wife.", "poster_path": "/tBsmJ9owjjnT4rO4kE1mOzxQAJc.jpg", "popularity": 15.663}, {"id": 324668, "video": false, "vote_count": 3841, "vote_average": 6.2, "title": "Jason Bourne", "release_date": "2016-07-27", "original_language": "en", "original_title": "Jason Bourne", "genre_ids": [28, 53], "backdrop_path": "/dtFiuavnsnl0krJAeSmGAOFAhw2.jpg", "adult": false, "overview": "The most dangerous former operative of the CIA is drawn out of hiding to uncover hidden truths about his past.", "poster_path": "/lFSSLTlFozwpaGlO31OoUeirBgQ.jpg", "popularity": 21.184}, {"id": 298, "video": false, "vote_count": 3874, "vote_average": 6.7, "title": "Ocean's Thirteen", "release_date": "2007-06-06", "original_language": "en", "original_title": "Ocean's Thirteen", "genre_ids": [80, 53], "backdrop_path": "/7ytb78OyijteFpFKKoZsYSvPw2u.jpg", "adult": false, "overview": "Danny Ocean's team of criminals are back and composing a plan more personal than ever. When ruthless casino owner Willy Bank doublecrosses Reuben Tishkoff, causing a heart attack, Danny Ocean vows that he and his team will do anything to bring down Willy Bank along with everything he's got. Even if it means asking for help from an enemy.", "poster_path": "/uDUebdX0SFqpjBrdC4ANxub3zjy.jpg", "popularity": 17.82}, {"id": 36557, "video": false, "vote_count": 6599, "vote_average": 7.4, "title": "Casino Royale", "release_date": "2006-11-14", "original_language": "en", "original_title": "Casino Royale", "genre_ids": [28, 12, 53], "backdrop_path": "/xq6hXdBpDPIXWjtmvbFmtLvBFJt.jpg", "adult": false, "overview": "Le Chiffre, a banker to the world's terrorists, is scheduled to participate in a high-stakes poker game in Montenegro, where he intends to use his winnings to establish his financial grip on the terrorist market. M sends Bond\u2014on his maiden mission as a 00 Agent\u2014to attend this game and prevent Le Chiffre from winning. With the help of Vesper Lynd and Felix Leiter, Bond enters the most important poker game in his already dangerous career.", "poster_path": "/zlWBxz2pTA9p45kUTrI8AQiKrHm.jpg", "popularity": 34.313}, {"id": 265208, "video": false, "vote_count": 1036, "vote_average": 5.5, "title": "Wild Card", "release_date": "2015-01-14", "original_language": "en", "original_title": "Wild Card", "genre_ids": [28, 80, 53], "backdrop_path": "/nJPu83tE69SQnpfmgQ8BH2xXV0Z.jpg", "adult": false, "overview": "When a Las Vegas bodyguard with lethal skills and a gambling problem gets in trouble with the mob, he has one last play\u2026 and it's all or nothing.", "poster_path": "/s5qUhHvFAZZ7Q4r5Dn3GdsfaPKI.jpg", "popularity": 30.217}, {"id": 9029, "video": false, "vote_count": 1893, "vote_average": 6.0, "title": "What Happens in Vegas", "release_date": "2008-05-07", "original_language": "en", "original_title": "What Happens in Vegas", "genre_ids": [35, 10749], "backdrop_path": "/925k5OHcumv1xYNwYnDdXiVPMTf.jpg", "adult": false, "overview": "During a wild vacation in Las Vegas, career woman Joy McNally and playboy Jack Fuller come to the sober realization that they have married each other after a night of drunken abandon. They are then compelled, for legal reasons, to live life as a couple for a limited period of time. At stake is a large amount of money.", "poster_path": "/NWQmNdQwm7blsBNSdpWIfqkGte.jpg", "popularity": 14.609}, {"adult": false, "backdrop_path": "/2gJDuPxrZBns5ab47HQbyU2l6Im.jpg", "genre_ids": [18, 10749], "id": 451, "original_language": "en", "original_title": "Leaving Las Vegas", "overview": "Ben Sanderson, an alcoholic Hollywood screenwriter who lost everything because of his drinking, arrives in Las Vegas to drink himself to death. There, he meets and forms an uneasy friendship and non-interference pact with prostitute Sera.", "poster_path": "/37qHRJxnSh5YkuaN9FgfNnMl3Tj.jpg", "release_date": "1995-10-27", "title": "Leaving Las Vegas", "video": false, "vote_average": 7.2, "vote_count": 676, "popularity": 13.746}, {"id": 284536, "video": false, "vote_count": 835, "vote_average": 5.8, "title": "The Gambler", "release_date": "2014-12-25", "original_language": "en", "original_title": "The Gambler", "genre_ids": [80, 18, 53], "backdrop_path": "/1RJPQF39moa25GeB02Q5P9TxRQf.jpg", "adult": false, "overview": "Literature professor Jim Bennett leads a secret life as a high-stakes gambler. Always a risk-taker, Bennett bets it all when he borrows from a gangster and offers his own life as collateral. Staying one step ahead, he pits his creditor against the operator of an illicit gambling ring while garnering the attention of Frank, a paternalistic loan shark. As his relationship with a student deepens, Bennett must risk everything for a second chance.", "poster_path": "/sB03tHmWpIU9oKo4axwOJUf57qV.jpg", "popularity": 13.1}, {"id": 256961, "video": false, "vote_count": 982, "vote_average": 5.0, "title": "Paul Blart: Mall Cop 2", "release_date": "2015-04-16", "original_language": "en", "original_title": "Paul Blart: Mall Cop 2", "genre_ids": [28, 35, 10751], "backdrop_path": "/5W6XO9KjLRY6W9wGojpzK8EqEgQ.jpg", "adult": false, "overview": "Security guard Paul Blart is headed to Las Vegas to attend a Security Guard Expo with his teenage daughter Maya before she departs for college. While at the convention, he inadvertently discovers a heist - and it's up to Blart to apprehend the criminals.", "poster_path": "/oENngJWMtyH19LERE9DfLHkFBu6.jpg", "popularity": 30.624}, {"adult": false, "backdrop_path": "/8nvayG5l0urcjvvpszoECDqLWzD.jpg", "genre_ids": [18, 53, 80, 9648], "id": 186, "original_language": "en", "original_title": "Lucky Number Slevin", "overview": "Slevin is mistakenly put in the middle of a personal war between the city\u2019s biggest criminal bosses. Under constant watch, Slevin must try not to get killed by an infamous assassin and come up with an idea of how to get out of his current dilemma. A film with many twists and turns.", "poster_path": "/jtKq0EtothAzWlnRBBWGCA8uFuu.jpg", "release_date": "2006-02-24", "title": "Lucky Number Slevin", "video": false, "vote_average": 7.5, "vote_count": 2480, "popularity": 17.523}, {"id": 4922, "video": false, "vote_count": 7498, "vote_average": 7.5, "title": "The Curious Case of Benjamin Button", "release_date": "2008-12-25", "original_language": "en", "original_title": "The Curious Case of Benjamin Button", "genre_ids": [18, 14, 9648, 53, 10749], "backdrop_path": "/u4izHlsHk8jwalt5m7E2uzP8q9E.jpg", "adult": false, "overview": "Born under unusual circumstances, Benjamin Button springs into being as an elderly man in a New Orleans nursing home and ages in reverse. Twelve years after his birth, he meets Daisy, a child who flits in and out of his life as she grows up to be a dancer. Though he has all sorts of unusual adventures over the course of his life, it is his relationship with Daisy, and the hope that they will come together at the right time, that drives Benjamin forward.", "poster_path": "/gjMR102u5hPdIAWX7O2rim8ZWgA.jpg", "popularity": 28.44}], "total_pages": 34, "total_results": 669}, "recommendations": {"page": 1, "results": [], "total_pages": 1, "total_results": 0}, "credits": {"cast": [{"cast_id": 1, "character": "Kapit\u00e4n Craddock", "credit_id": "52fe4b1ac3a36847f81f26df", "gender": 2, "id": 2899, "name": "Hans Albers", "order": 0, "profile_path": "/pblBTtgHt9jf0DzsxTKwKn1LTnI.jpg"}, {"cast_id": 2, "character": "K\u00f6nigin von Pontenero Yola I", "credit_id": "52fe4b1ac3a36847f81f26e3", "gender": 1, "id": 108719, "name": "Anna Sten", "order": 1, "profile_path": "/bjnUxzEsWdLPSiB7jQJVtkyobpD.jpg"}, {"cast_id": 3, "character": "Erster Offizier Peter", "credit_id": "52fe4b1ac3a36847f81f26e7", "gender": 2, "id": 12745, "name": "Heinz R\u00fchmann", "order": 2, "profile_path": "/z40v3xiLAwIKMBUYYh41aXuWmAR.jpg"}, {"cast_id": 4, "character": "Diana", "credit_id": "52fe4b1ac3a36847f81f26eb", "gender": 1, "id": 1043399, "name": "Rachel Devirys", "order": 3, "profile_path": null}, {"cast_id": 5, "character": "Pawlitschek", "credit_id": "52fe4b1ac3a36847f81f26ef", "gender": 2, "id": 2094, "name": "Peter Lorre", "order": 4, "profile_path": "/3SkaTzf4UmySW8ZIDdFL9F4y5C8.jpg"}, {"cast_id": 6, "character": "Konsul von Pontenero", "credit_id": "52fe4b1ac3a36847f81f26f3", "gender": 2, "id": 46736, "name": "Karl Etlinger", "order": 5, "profile_path": "/toGnxHkzJDZL52iAayDNwW86JND.jpg"}, {"cast_id": 7, "character": "Spielbankdirektor", "credit_id": "52fe4b1ac3a36847f81f26f7", "gender": 2, "id": 2897, "name": "Kurt Gerron", "order": 6, "profile_path": "/1dannHvwMGKxqITWP6VNoR3nwIC.jpg"}, {"cast_id": 8, "character": "Isabell, Hofdame", "credit_id": "52fe4b1ac3a36847f81f26fb", "gender": 1, "id": 28127, "name": "Ida W\u00fcst", "order": 7, "profile_path": "/3ZH7wzJa6bkXQxCFzd6XPNhjWLc.jpg"}, {"cast_id": 9, "character": "Ministerpr\u00e4sident", "credit_id": "52fe4b1ac3a36847f81f26ff", "gender": 2, "id": 51591, "name": "Otto Wallburg", "order": 8, "profile_path": "/dF5QP43OzGiprDJ9s4F2xEw4XTf.jpg"}, {"cast_id": 10, "character": "Juwelier", "credit_id": "52fe4b1ac3a36847f81f2703", "gender": 0, "id": 591497, "name": "Bruno Ziener", "order": 9, "profile_path": "/7evGR1KV9CosoMG7KTxkfvStgsr.jpg"}, {"cast_id": 37, "character": "", "credit_id": "5ade60789251416bd6000293", "gender": 1, "id": 48063, "name": "Lydia Potechina", "order": 10, "profile_path": "/q1WhkABeaT4tQBjNhyfFJt03Mpg.jpg"}], "crew": [{"credit_id": "52fe4b1ac3a36847f81f271b", "department": "Production", "gender": 2, "id": 67, "job": "Producer", "name": "Erich Pommer", "profile_path": "/oClAs4W1TRc2jtYCU4CdtXlEhPZ.jpg"}, {"credit_id": "56b9943392514106aa0019e8", "department": "Camera", "gender": 2, "id": 71, "job": "Director of Photography", "name": "G\u00fcnther Rittau", "profile_path": null}, {"credit_id": "56b9945cc3a3681e77001958", "department": "Art", "gender": 2, "id": 12369, "job": "Art Direction", "name": "Erich Kettelhut", "profile_path": null}, {"credit_id": "56b99422c3a3681e640018df", "department": "Sound", "gender": 2, "id": 2500, "job": "Original Music Composer", "name": "Werner R. Heymann", "profile_path": null}, {"credit_id": "56b9942b92514106b40019eb", "department": "Camera", "gender": 2, "id": 12365, "job": "Director of Photography", "name": "Konstantin Irmen-Tschet", "profile_path": null}, {"credit_id": "596c937c9251416b8c0038dc", "department": "Editing", "gender": 0, "id": 12368, "job": "Editor", "name": "Willy Zeyn jun.", "profile_path": null}, {"credit_id": "596c936f9251416b8c0038c3", "department": "Directing", "gender": 0, "id": 12368, "job": "Assistant Director", "name": "Willy Zeyn jun.", "profile_path": null}, {"credit_id": "52fe4b1ac3a36847f81f2715", "department": "Writing", "gender": 0, "id": 13885, "job": "Screenplay", "name": "Franz Schulz", "profile_path": null}, {"credit_id": "56b994cec3a3681e600018f4", "department": "Sound", "gender": 0, "id": 13889, "job": "Sound", "name": "Hermann Fritzsching", "profile_path": null}, {"credit_id": "56b9946692514106ac001983", "department": "Costume & Make-Up", "gender": 2, "id": 33176, "job": "Costume Design", "name": "Ren\u00e9 Hubert", "profile_path": "/1VhaL3RxVFGe4potN4dWKa8X4Vy.jpg"}, {"credit_id": "56b994d8c3a3681e7d001a0e", "department": "Sound", "gender": 0, "id": 51263, "job": "Sound", "name": "Walter Tjaden", "profile_path": null}, {"credit_id": "56b9949bc3a3681e6d0019ad", "department": "Directing", "gender": 0, "id": 161260, "job": "Assistant Director", "name": "Paul Martin", "profile_path": null}, {"credit_id": "56b994809251416872000940", "department": "Production", "gender": 0, "id": 225293, "job": "Production Manager", "name": "Max Pfeiffer", "profile_path": null}, {"credit_id": "52fe4b1ac3a36847f81f2709", "department": "Directing", "gender": 2, "id": 590666, "job": "Director", "name": "Hanns Schwarz", "profile_path": null}, {"credit_id": "5728bd739251414d73002898", "department": "Writing", "gender": 2, "id": 1352622, "job": "Screenplay", "name": "Hans M\u00fcller", "profile_path": null}, {"credit_id": "56b993fd92514106af001894", "department": "Writing", "gender": 0, "id": 1437087, "job": "Novel", "name": "Fritz Reck-Malleczewen", "profile_path": null}, {"credit_id": "56b9946fc3a3681e68002699", "department": "Costume & Make-Up", "gender": 0, "id": 1523498, "job": "Makeup Artist", "name": "Waldemar Jabs", "profile_path": null}, {"credit_id": "56b994b692514106ac00198b", "department": "Directing", "gender": 0, "id": 1538467, "job": "Assistant Director", "name": "Nino Ottavi", "profile_path": null}, {"credit_id": "56b9941192514106a40018de", "department": "Writing", "gender": 0, "id": 1574765, "job": "Story", "name": "Jen\u00f6 Heltai", "profile_path": null}, {"credit_id": "56b9948d9251416872000945", "department": "Production", "gender": 0, "id": 1574767, "job": "Unit Manager", "name": "Walter Tost", "profile_path": null}]}}