{"adult": false, "backdrop_path": "/6DKpUVMn5jwdlb7hsEQcUlclwoX.jpg", "belongs_to_collection": null, "budget": 0, "genres": [{"id": 35, "name": "Comedy"}, {"id": 18, "name": "Drama"}, {"id": 10749, "name": "Romance"}], "homepage": "", "id": 112885, "imdb_id": "tt0028661", "original_language": "en", "original_title": "The Bride Wore Red", "overview": "A poor singer in a bar masquerades a rich society woman thanks to a rich benefactor.", "popularity": 3.237, "poster_path": "/7md7mwMMXEFZal5P2kysi4PkEAS.jpg", "production_companies": [{"id": 21, "logo_path": "/mjofSXiHpG5t6KYmU4l4FrUhT7m.png", "name": "Metro-Goldwyn-Mayer", "origin_country": "US"}], "production_countries": [{"iso_3166_1": "US", "name": "United States of America"}], "release_date": "1937-10-15", "revenue": 0, "runtime": 103, "spoken_languages": [{"iso_639_1": "en", "name": "English"}], "status": "Released", "tagline": "", "title": "The Bride Wore Red", "video": false, "vote_average": 5.5, "vote_count": 5, "keywords": {"keywords": [{"id": 4461, "name": "postman"}, {"id": 9758, "name": "deception"}, {"id": 10229, "name": "singer"}, {"id": 157196, "name": "clothes"}, {"id": 186919, "name": "class distinction"}, {"id": 187056, "name": "woman director"}]}, "similar": {"page": 1, "results": [{"adult": false, "backdrop_path": "/rf6G51j0SZL0tP57I8gnqHTRFEr.jpg", "genre_ids": [35, 18, 10749], "id": 273153, "original_language": "fr", "original_title": "La belle saison", "overview": "In 1971, Carole and Delphine meet and fall in love in Paris. When Carole follows Delphine back to her family farm in Limousin, the two find lesbianism and feminism are not as easy in the countryside.", "poster_path": "/evvAkNMO5VJiy5qIo1Hu7fUfvVI.jpg", "release_date": "2015-08-19", "title": "Summertime", "video": false, "vote_average": 6.6, "vote_count": 162, "popularity": 15.434}, {"id": 9813, "video": false, "vote_count": 128, "vote_average": 6.1, "title": "The Quiet", "release_date": "2005-09-12", "original_language": "en", "original_title": "The Quiet", "genre_ids": [18, 53], "backdrop_path": "/6eyWAZA4CEidZW1xXnQ4vlYBXTP.jpg", "adult": false, "overview": "After her widowed father dies, deaf teenager Dot moves in with her godparents, Olivia and Paul Deer. The Deers' daughter, Nina, is openly hostile to Dot, but that does not prevent her from telling her secrets to her silent stepsister, including the fact that she wants to kill her lecherous father.", "poster_path": "/GEqIE9YlmygHVUfS64LW2cwAAM.jpg", "popularity": 14.844}, {"adult": false, "backdrop_path": "/gZeJziVigmRqbkEZwKAtSqlLQ6s.jpg", "genre_ids": [18, 10749], "id": 370663, "original_language": "en", "original_title": "Below Her Mouth", "overview": "An unexpected affair quickly escalates into a heart-stopping reality for two women whose passionate connection changes their lives forever.", "poster_path": "/nTGbq37hYLuNy7YgMg0gVLma0NS.jpg", "release_date": "2016-09-10", "title": "Below Her Mouth", "video": false, "vote_average": 6.2, "vote_count": 456, "popularity": 22.676}, {"adult": false, "backdrop_path": "/6tern9vOEwwmkDYC1vRCuO64z0C.jpg", "genre_ids": [10749, 18], "id": 475888, "original_language": "en", "original_title": "Tell It to the Bees", "overview": "Dr. Jean Markham returns to the town she left as a teenager to take over her late father's medical practice. When a school-yard scuffle lands Charlie in her surgery, she invites him to visit the hives in her garden and tell his secrets to the bees, as she once did. The new friendship between the boy and the bee keeper brings his mother Lydia into Jean's world.", "poster_path": "/Rj6zpHhMU1zFW3v28U4PSRSRgP.jpg", "release_date": "2019-05-03", "title": "Tell It to the Bees", "video": false, "vote_average": 6.4, "vote_count": 53, "popularity": 15.113}, {"adult": false, "backdrop_path": "/knczzNAjBXzSYkeWxoT1u9VNmjR.jpg", "genre_ids": [10749, 18], "id": 258480, "original_language": "en", "original_title": "Carol", "overview": "In 1950s New York, a department-store clerk who dreams of a better life falls for an older, married woman.", "poster_path": "/AbKa7ANxmui0Jmhh7gV7OSELKIL.jpg", "release_date": "2015-11-20", "title": "Carol", "video": false, "vote_average": 7.4, "vote_count": 2182, "popularity": 14.185}, {"adult": false, "backdrop_path": "/dvQDRfv3qvfHNnVAR57ouVsuErf.jpg", "genre_ids": [10749, 18], "id": 28031, "original_language": "en", "original_title": "If These Walls Could Talk 2", "overview": "The stories of three lesbian couples -- who live in the same house at different periods of time -- who are at a crossroads in their lives. In 1961, Edith loses her lover, Abby, to a stroke. Linda and Amy struggle with feminist issues in 1972. And, in 2000, Kal and Fran try to have a baby with the help of sperm donor.", "poster_path": "/xs7ODbmYQXCDhvXNvz5tF17T59H.jpg", "release_date": "2000-03-05", "title": "If These Walls Could Talk 2", "video": false, "vote_average": 7.1, "vote_count": 55, "popularity": 8.86}, {"id": 520172, "video": false, "vote_count": 0, "vote_average": 0.0, "title": "Happiest Season", "release_date": "2020-11-20", "original_language": "en", "original_title": "Happiest Season", "genre_ids": [35, 10749], "backdrop_path": null, "adult": false, "overview": "A young woman's plans to propose to her girlfriend while at her family's annual holiday party are upended when she discovers her partner hasn't yet come out to her conservative parents.", "poster_path": null, "popularity": 6.436}, {"adult": false, "backdrop_path": "/cADbqsIoiDW7X3Myg9nz8eAuno5.jpg", "genre_ids": [18, 10749], "id": 10818, "original_language": "fr", "original_title": "Naissance des pieuvres", "overview": "Set during a sultry summer in a French suburb, Marie is desperate to join the local pool's synchronized swimming team, but is her interest solely for the sake of sport or for a chance to get close to Floriane, the bad girl of the team? Sciamma, and the two leads, capture the uncertainty of teenage sexuality with a sympathetic eye in this delicate drama of the angst of coming-of-age.", "poster_path": "/4jajELYrR4Xmv3CVoKnukRnALa2.jpg", "release_date": "2007-05-17", "title": "Water Lilies", "video": false, "vote_average": 6.1, "vote_count": 119, "popularity": 9.614}, {"adult": false, "backdrop_path": "/fZ8oFcREAr6wgWcXISGql0xyxjB.jpg", "genre_ids": [35, 18], "id": 39781, "original_language": "en", "original_title": "The Kids Are All Right", "overview": "Two women, Nic and Jules, brought a son and daughter into the world through artificial insemination. When one of their children reaches age, both kids go behind their mothers' backs to meet with the donor. Life becomes so much more interesting when the father, two mothers and children start to become attached to each other.", "poster_path": "/fPDeK4MmoGfi2X0oWZev7LrbMqM.jpg", "release_date": "2010-07-09", "title": "The Kids Are All Right", "video": false, "vote_average": 6.6, "vote_count": 923, "popularity": 12.159}, {"adult": false, "backdrop_path": "/caLMOD3ZJ3V7qjlxDXrzlJfBLgD.jpg", "genre_ids": [18, 10749], "id": 20, "original_language": "en", "original_title": "My Life Without Me", "overview": "A Pedro Almodovar production in which a fatally ill mother with only two months to live creates a list of things she wants to do before she dies with out telling her family of her illness.", "poster_path": "/vVj92VBFUBzjqzLvBiPVVlJDp78.jpg", "release_date": "2003-03-07", "title": "My Life Without Me", "video": false, "vote_average": 6.1, "vote_count": 220, "popularity": 10.382}, {"adult": false, "backdrop_path": "/useuHJQ5HOoEWkAvEjL1FW1sUfe.jpg", "genre_ids": [18], "id": 376867, "original_language": "en", "original_title": "Moonlight", "overview": "The tender, heartbreaking story of a young man\u2019s struggle to find himself, told across three defining chapters in his life as he experiences the ecstasy, pain, and beauty of falling in love, while grappling with his own sexuality.", "poster_path": "/qAwFbszz0kRyTuXmMeKQZCX3Q2O.jpg", "release_date": "2016-10-21", "title": "Moonlight", "video": false, "vote_average": 7.4, "vote_count": 4406, "popularity": 27.348}, {"adult": false, "backdrop_path": "/6bnI08rrGXRkngRqJWCMXDZuJ1j.jpg", "genre_ids": [35, 10402], "id": 254470, "original_language": "en", "original_title": "Pitch Perfect 2", "overview": "The Bellas are back, and they are better than ever. After being humiliated in front of none other than the President of the United States of America, the Bellas are taken out of the Aca-Circuit. In order to clear their name, and regain their status, the Bellas take on a seemingly impossible task: winning an international competition no American team has ever won. In order to accomplish this monumental task, they need to strengthen the bonds of friendship and sisterhood and blow away the competition with their amazing aca-magic! With all new friends and old rivals tagging along for the trip, the Bellas can hopefully accomplish their dreams.", "poster_path": "/qSjruLiFB4uqRtz2xheQPxG8uaB.jpg", "release_date": "2015-05-07", "title": "Pitch Perfect 2", "video": false, "vote_average": 6.8, "vote_count": 3898, "popularity": 27.354}, {"id": 434714, "video": false, "vote_count": 32, "vote_average": 7.5, "title": "My Days of Mercy", "release_date": "2019-07-11", "original_language": "en", "original_title": "My Days of Mercy", "genre_ids": [18, 10749], "backdrop_path": "/7Lbzq33nMMIQtAfZAmSqG6ibLSg.jpg", "adult": false, "overview": "The daughter of a man on death row falls in love with a woman on the opposing side of her family's political cause.", "poster_path": "/adIPKAoKnKL9vCTkvfF4J9ZA7Ln.jpg", "popularity": 6.928}, {"id": 424694, "video": false, "vote_count": 9721, "vote_average": 8.0, "title": "Bohemian Rhapsody", "release_date": "2018-10-24", "original_language": "en", "original_title": "Bohemian Rhapsody", "genre_ids": [18, 10402], "backdrop_path": "/93xA62uLd5CwMOAs37eQ7vPc1iV.jpg", "adult": false, "overview": "Singer Freddie Mercury, guitarist Brian May, drummer Roger Taylor and bass guitarist John Deacon take the music world by storm when they form the rock 'n' roll band Queen in 1970. Hit songs become instant classics. When Mercury's increasingly wild lifestyle starts to spiral out of control, Queen soon faces its greatest challenge yet \u2013 finding a way to keep the band together amid the success and excess.", "poster_path": "/lHu1wtNaczFPGFDTrjCSzeLPTKN.jpg", "popularity": 40.186}, {"adult": false, "backdrop_path": "/k8H7ye6Sab7OrDJoo8Qp5WFGHGk.jpg", "genre_ids": [35, 10749, 18], "id": 244264, "original_language": "en", "original_title": "Laggies", "overview": "Overeducated and underemployed, 28 year old Megan is in the throes of a quarterlife crisis. Squarely into adulthood with no career prospects, no particular motivation to think about her future and no one to relate to, Megan is comfortable lagging a few steps behind - while her friends check off milestones and celebrate their new grown-up status. When her high-school sweetheart proposes, Megan panics and- given an unexpected opportunity to escape for a week - hides out in the home of her new friend, 16-year old Annika and Annika's world-weary single dad Craig.", "poster_path": "/dNcoXoRC7JHiqbe7k5Ufo6syiPP.jpg", "release_date": "2014-09-25", "title": "Laggies", "video": false, "vote_average": 6.1, "vote_count": 787, "popularity": 9.883}, {"adult": false, "backdrop_path": "/txtRue33MaXv5HQpTiHPOmOcDxE.jpg", "genre_ids": [35, 10749], "id": 11631, "original_language": "en", "original_title": "Mamma Mia!", "overview": "An independent, single mother who owns a small hotel on a Greek island is about to marry off the spirited young daughter she's raised alone. But, the daughter has secretly invited three of her mother's ex-lovers in the hopes of finding her biological father.", "poster_path": "/gOm2iMMbC6EonrFzmSQ8xvCa4Ei.jpg", "release_date": "2008-07-02", "title": "Mamma Mia!", "video": false, "vote_average": 6.9, "vote_count": 4124, "popularity": 16.301}, {"adult": false, "backdrop_path": "/g3LYarEY9LjB28Ct2trwFN72gqZ.jpg", "genre_ids": [35], "id": 437557, "original_language": "en", "original_title": "Blockers", "overview": "When three parents discover their daughters\u2019 pact to lose their virginity at prom, they launch a covert one-night operation to stop the teens from sealing the deal.", "poster_path": "/uvlUQXg0AlpGzKukO11K7QtW3Yu.jpg", "release_date": "2018-03-14", "title": "Blockers", "video": false, "vote_average": 6.2, "vote_count": 1153, "popularity": 18.075}, {"adult": false, "backdrop_path": "/npClMhFGn4XUkwu6coq5oKAEu6L.jpg", "genre_ids": [35, 10749, 18], "id": 634, "original_language": "en", "original_title": "Bridget Jones's Diary", "overview": "A chaotic Bridget Jones meets a snobbish lawyer, and he soon enters her world of imperfections.", "poster_path": "/ym6kjFFZg6boC0QHBVw6hqJLbxv.jpg", "release_date": "2001-04-13", "title": "Bridget Jones's Diary", "video": false, "vote_average": 6.7, "vote_count": 3080, "popularity": 19.453}, {"adult": false, "backdrop_path": "/ojn7IYKmMt8HXRd6oLwY5pLGLVc.jpg", "genre_ids": [18, 10749], "id": 9587, "original_language": "en", "original_title": "Little Women", "overview": "With their father away as a chaplain in the Civil War, Jo, Meg, Beth and Amy grow up with their mother in somewhat reduced circumstances. They are a close family who inevitably have their squabbles and tragedies. But the bond holds even when, later, male friends start to become a part of the household.", "poster_path": "/tD9YDE8pjtSvvKUpkmooE6YDSm8.jpg", "release_date": "1994-12-21", "title": "Little Women", "video": false, "vote_average": 7.2, "vote_count": 574, "popularity": 18.707}, {"id": 504608, "video": false, "vote_count": 1661, "vote_average": 7.4, "title": "Rocketman", "release_date": "2019-05-22", "original_language": "en", "original_title": "Rocketman", "genre_ids": [18, 10402], "backdrop_path": "/sZZJ42GrWKxSOfcrpI2TSFQa0AQ.jpg", "adult": false, "overview": "The story of Elton John's life, from his years as a prodigy at the Royal Academy of Music through his influential and enduring musical partnership with Bernie Taupin.", "poster_path": "/f4FF18ia7yTvHf2izNrHqBmgH8U.jpg", "popularity": 26.576}], "total_pages": 63, "total_results": 1256}, "recommendations": {"page": 1, "results": [], "total_pages": 1, "total_results": 0}, "credits": {"cast": [{"cast_id": 1, "character": "Anni Pavlovitch", "credit_id": "52fe4b22c3a36847f81f43d7", "gender": 1, "id": 31550, "name": "Joan Crawford", "order": 0, "profile_path": "/49huAjeGwSURLbUfhmkxjUBziL7.jpg"}, {"cast_id": 2, "character": "Giulio", "credit_id": "52fe4b22c3a36847f81f43db", "gender": 2, "id": 72059, "name": "Franchot Tone", "order": 1, "profile_path": "/140grYtawkKzF3ruaFjHVnlaUes.jpg"}, {"cast_id": 3, "character": "Rudi Pal", "credit_id": "52fe4b22c3a36847f81f43df", "gender": 2, "id": 14868, "name": "Robert Young", "order": 2, "profile_path": "/zsUCL3cmKSyOE2xSjXDT8v7SOYi.jpg"}, {"cast_id": 4, "character": "Contessa di Meina", "credit_id": "52fe4b22c3a36847f81f43e3", "gender": 1, "id": 9071, "name": "Billie Burke", "order": 3, "profile_path": "/vhcDgp1TkIaleLfnE8lH72qvGBE.jpg"}, {"cast_id": 5, "character": "Admiral Monti", "credit_id": "52fe4b22c3a36847f81f43e7", "gender": 2, "id": 5832, "name": "Reginald Owen", "order": 4, "profile_path": "/bgtpAl7ICrDyJQzjglLiVY6tlMw.jpg"}, {"cast_id": 20, "character": "Cordellera Bar Waiter (uncredited)", "credit_id": "59807449c3a368103901071f", "gender": 2, "id": 1016595, "name": "Agostino Borgato", "order": 5, "profile_path": null}, {"cast_id": 21, "character": "Maddelena", "credit_id": "5a8a4a189251410b01068dcc", "gender": 1, "id": 129328, "name": "Lynne Carver", "order": 6, "profile_path": "/yHtdFDltpcrgW5nqsR1DstF1fWM.jpg"}, {"cast_id": 22, "character": "Count Armalia", "credit_id": "5a8a4a32c3a3682dbf077f54", "gender": 2, "id": 30417, "name": "George Zucco", "order": 7, "profile_path": "/hduZG2CH9UeGuBamxnohkd3DEVg.jpg"}, {"cast_id": 23, "character": "Maria", "credit_id": "5a8a4a480e0a2653db0783c5", "gender": 1, "id": 48960, "name": "Mary Philips", "order": 8, "profile_path": "/A0s0J8W0rAXBrJYKXNiHEuldlTK.jpg"}, {"cast_id": 24, "character": "Signor Nobili", "credit_id": "5a8a4a610e0a26535a06f58f", "gender": 2, "id": 115770, "name": "Paul Porcasi", "order": 9, "profile_path": "/xZeqEYSxsEhL1AowRkV5BggdraJ.jpg"}, {"cast_id": 25, "character": "Pietro", "credit_id": "5a8a4a730e0a2652ab0702c2", "gender": 2, "id": 10165, "name": "Dickie Moore", "order": 10, "profile_path": "/6FM8aoifzR8ByjqTH8mxy6wtkzE.jpg"}, {"cast_id": 26, "character": "Alberto", "credit_id": "5a8a4a8a925141759906d113", "gender": 2, "id": 89691, "name": "Frank Puglia", "order": 11, "profile_path": "/cC89EI595bAz4SPIE1JKIOkdVU.jpg"}, {"cast_id": 27, "character": "First Peasant Girl", "credit_id": "5a8a4aad9251410b01068e4d", "gender": 1, "id": 5460, "name": "Adriana Caselotti", "order": 12, "profile_path": "/spSFVZoDpFhkSeyEMTTJj8ZSNKs.jpg"}, {"cast_id": 28, "character": "Third Peasant Girl", "credit_id": "5a8a4acd0e0a2653db078436", "gender": 1, "id": 11495, "name": "Ann Rutherford", "order": 13, "profile_path": "/rdGvxSgB7T6M2rYa7PYCDH0HFY7.jpg"}], "crew": [{"credit_id": "56cdd90d9251415cdc0032fc", "department": "Sound", "gender": 2, "id": 8619, "job": "Original Music Composer", "name": "Franz Waxman", "profile_path": "/n48TLDTHMqC84UpyIM6xO6ZqyLE.jpg"}, {"credit_id": "52fe4b22c3a36847f81f43f3", "department": "Writing", "gender": 2, "id": 5787, "job": "Writer", "name": "Ferenc Moln\u00e1r", "profile_path": "/cwPuSPcy82PnVfvKzkbMF0aWg1O.jpg"}, {"credit_id": "52fe4b22c3a36847f81f4423", "department": "Art", "gender": 2, "id": 9062, "job": "Art Direction", "name": "Cedric Gibbons", "profile_path": "/w8tc9iVH87Iu1KKFDZ9B99NhnBc.jpg"}, {"credit_id": "52fe4b22c3a36847f81f4429", "department": "Costume & Make-Up", "gender": 2, "id": 9064, "job": "Costume Design", "name": "Adrian", "profile_path": "/fnsEX7RnTRGuh32x8WmHrtz25D5.jpg"}, {"credit_id": "56cdd924c3a368276e002d67", "department": "Directing", "gender": 2, "id": 10015, "job": "Assistant Director", "name": "Edward Woehler", "profile_path": null}, {"credit_id": "52fe4b22c3a36847f81f4411", "department": "Production", "gender": 2, "id": 10601, "job": "Producer", "name": "Joseph L. Mankiewicz", "profile_path": "/1zqHOZQlevCE2ld15qUt24Nxr7u.jpg"}, {"credit_id": "56cdd8fb9251415cd7003186", "department": "Camera", "gender": 2, "id": 12307, "job": "Director of Photography", "name": "George J. Folsey", "profile_path": null}, {"credit_id": "52fe4b22c3a36847f81f441d", "department": "Editing", "gender": 1, "id": 13289, "job": "Editor", "name": "Adrienne Fazan", "profile_path": "/gF3e5NZXXWZtHYrKwVQv7nGQ53L.jpg"}, {"credit_id": "52fe4b22c3a36847f81f43f9", "department": "Writing", "gender": 2, "id": 14677, "job": "Writer", "name": "Waldo Salt", "profile_path": null}, {"credit_id": "52fe4b22c3a36847f81f43ff", "department": "Writing", "gender": 1, "id": 95963, "job": "Writer", "name": "Catherine Turney", "profile_path": null}, {"credit_id": "52fe4b22c3a36847f81f440b", "department": "Writing", "gender": 0, "id": 103688, "job": "Writer", "name": "Bradbury Foote", "profile_path": null}, {"credit_id": "52fe4b22c3a36847f81f43ed", "department": "Directing", "gender": 1, "id": 108983, "job": "Director", "name": "Dorothy Arzner", "profile_path": "/y4qvzfKNlYv1rWFBqfjwyfff4Yu.jpg"}, {"credit_id": "52fe4b22c3a36847f81f4405", "department": "Writing", "gender": 0, "id": 592459, "job": "Writer", "name": "Tess Slesinger", "profile_path": null}]}}