{"adult": false, "backdrop_path": "/lixAk6QqmGb0CYGUROt8vLx4DS0.jpg", "belongs_to_collection": {"id": 175763, "name": "TekWar Collection", "poster_path": "/tJLdyZ8PXQASGeAzjTEcnQ545sg.jpg", "backdrop_path": "/lixAk6QqmGb0CYGUROt8vLx4DS0.jpg"}, "budget": 0, "genres": [{"id": 878, "name": "Science Fiction"}], "homepage": null, "id": 113219, "imdb_id": "tt0111385", "original_language": "en", "original_title": "TekWar", "overview": "After four years, Jake Cardigan is prematurely awoken from his fifteen year cryogenic punishment to a world very different than the one he knew. Much more than before 'Tek', the highly-addictive electronic designer narcotic of the 21st century, seems to be prevalent. His wife has divorced him and disappeared together with their son. He wants them back and he wants justice for those undercover policemen who were murdered by unknown conspirators which led to his imprisonment for a crime he did not commit.", "popularity": 2.439, "poster_path": "/zNVSeFg1P1stsPbWXKMpMouzX9C.jpg", "production_companies": [{"id": 4350, "logo_path": null, "name": "Atlantis Films", "origin_country": ""}, {"id": 26727, "logo_path": "/jeTxdjXhzgKZyLr3l9MllkTn3fy.png", "name": "Universal Television", "origin_country": "US"}], "production_countries": [{"iso_3166_1": "CA", "name": "Canada"}, {"iso_3166_1": "US", "name": "United States of America"}], "release_date": "1994-01-23", "revenue": 0, "runtime": 97, "spoken_languages": [{"iso_639_1": "en", "name": "English"}], "status": "Released", "tagline": "Virtual Reality Can Be Murder", "title": "TekWar", "video": false, "vote_average": 6.0, "vote_count": 9, "keywords": {"keywords": [{"id": 2964, "name": "future"}, {"id": 9685, "name": "futuristic"}, {"id": 12190, "name": "cyberpunk"}]}, "similar": {"page": 1, "results": [{"adult": false, "backdrop_path": null, "genre_ids": [28, 878], "id": 624860, "original_language": "en", "original_title": "The Matrix 4", "overview": "The fourth installment in The Matrix franchise. Plot unknown.", "poster_path": "/uoQfAYR1NTax9akJ1ceeQTKNXeo.jpg", "release_date": "2021-05-20", "title": "The Matrix 4", "video": false, "vote_average": 0.0, "vote_count": 0, "popularity": 6.499}, {"id": 500664, "video": false, "vote_count": 1707, "vote_average": 7.3, "title": "Upgrade", "release_date": "2018-06-01", "original_language": "en", "original_title": "Upgrade", "genre_ids": [28, 27, 878, 53], "backdrop_path": "/qUAGip3XiaVN668WXF2iyukWgUu.jpg", "adult": false, "overview": "A brutal mugging leaves Grey Trace paralyzed in the hospital and his beloved wife dead. A billionaire inventor soon offers Trace a cure \u2014 an artificial intelligence implant called STEM that will enhance his body. Now able to walk, Grey finds that he also has superhuman strength and agility \u2014 skills he uses to seek revenge against the thugs who destroyed his life.", "poster_path": "/8fDtXi6gVw8WUMWGT9XFz7YwkuE.jpg", "popularity": 23.257}, {"id": 87101, "video": false, "vote_count": 5753, "vote_average": 5.9, "title": "Terminator Genisys", "release_date": "2015-06-23", "original_language": "en", "original_title": "Terminator Genisys", "genre_ids": [28, 12, 878, 53], "backdrop_path": "/3DmxSJ08m9wwbxwbwHzA4dunGNO.jpg", "adult": false, "overview": "The year is 2029. John Connor, leader of the resistance continues the war against the machines. At the Los Angeles offensive, John's fears of the unknown future begin to emerge when TECOM spies reveal a new plot by SkyNet that will attack him from both fronts; past and future, and will ultimately change warfare forever.", "poster_path": "/5JU9ytZJyR3zmClGmVm9q4Geqbd.jpg", "popularity": 67.413}, {"adult": false, "backdrop_path": "/3N0XNfknTOpGwYadltyDSszCZmZ.jpg", "genre_ids": [28, 878], "id": 2048, "original_language": "en", "original_title": "I, Robot", "overview": "In 2035, where robots are common-place and abide by the three laws of robotics, a techno-phobic cop investigates an apparent suicide. Suspecting that a robot may be responsible for the death, his investigation leads him to believe that humanity may be in danger.", "poster_path": "/2mkFzf168xJrV6Leqq0bjqOlJCK.jpg", "release_date": "2004-07-15", "title": "I, Robot", "video": false, "vote_average": 6.9, "vote_count": 7608, "popularity": 41.593}, {"id": 9323, "video": false, "vote_count": 1641, "vote_average": 7.9, "title": "Ghost in the Shell", "release_date": "1995-11-18", "original_language": "ja", "original_title": "GHOST IN THE SHELL", "genre_ids": [28, 16, 878], "backdrop_path": "/m1LUdsYnFThcrbvRzlpbsFioEQT.jpg", "adult": false, "overview": "In the year 2029, the barriers of our world have been broken down by the net and by cybernetics, but this brings new vulnerability to humans in the form of brain-hacking. When a highly-wanted hacker known as 'The Puppetmaster' begins involving them in politics, Section 9, a group of cybernetically enhanced cops, are called in to investigate and stop the Puppetmaster.", "poster_path": "/9gC88zYUBARRSThcG93MvW14sqx.jpg", "popularity": 21.491}, {"id": 604, "video": false, "vote_count": 6344, "vote_average": 6.9, "title": "The Matrix Reloaded", "release_date": "2003-05-15", "original_language": "en", "original_title": "The Matrix Reloaded", "genre_ids": [28, 12, 878, 53], "backdrop_path": "/Fp3piEuHXxKnPBO5R0Wj4wjZHg.jpg", "adult": false, "overview": "Six months after the events depicted in The Matrix, Neo has proved to be a good omen for the free humans, as more and more humans are being freed from the matrix and brought to Zion, the one and only stronghold of the Resistance.  Neo himself has discovered his superpowers including super speed, ability to see the codes of the things inside the matrix and a certain degree of pre-cognition. But a nasty piece of news hits the human resistance: 250,000 machine sentinels are digging to Zion and would reach them in 72 hours. As Zion prepares for the ultimate war, Neo, Morpheus and Trinity are advised by the Oracle to find the Keymaker who would help them reach the Source.  Meanwhile Neo's recurrent dreams depicting Trinity's death have got him worried and as if it was not enough, Agent Smith has somehow escaped deletion, has become more powerful than before and has fixed Neo as his next target.", "poster_path": "/ezIurBz2fdUc68d98Fp9dRf5ihv.jpg", "popularity": 26.284}, {"id": 605, "video": false, "vote_count": 5698, "vote_average": 6.6, "title": "The Matrix Revolutions", "release_date": "2003-11-03", "original_language": "en", "original_title": "The Matrix Revolutions", "genre_ids": [28, 12, 878, 53], "backdrop_path": "/pdVHUsb2eEz9ALNTr6wfRJe5xVa.jpg", "adult": false, "overview": "The human city of Zion defends itself against the massive invasion of the machines as Neo fights to end the war at another front while also opposing the rogue Agent Smith.", "poster_path": "/sKogjhfs5q3azmpW7DFKKAeLEG8.jpg", "popularity": 22.724}, {"id": 534, "video": false, "vote_count": 4114, "vote_average": 6.0, "title": "Terminator Salvation", "release_date": "2009-05-20", "original_language": "en", "original_title": "Terminator Salvation", "genre_ids": [28, 878, 53], "backdrop_path": "/mglXOOyXISvuIdLgvhU9oXn1Mi7.jpg", "adult": false, "overview": "All grown up in post-apocalyptic 2018, John Connor must lead the resistance of humans against the increasingly dominating militaristic robots. But when Marcus Wright appears, his existence confuses the mission as Connor tries to determine whether Wright has come from the future or the past -- and whether he's friend or foe.", "poster_path": "/gw6JhlekZgtKUFlDTezq3j5JEPK.jpg", "popularity": 34.306}, {"id": 157336, "video": false, "vote_count": 20600, "vote_average": 8.3, "title": "Interstellar", "release_date": "2014-11-05", "original_language": "en", "original_title": "Interstellar", "genre_ids": [12, 18, 878], "backdrop_path": "/xu9zaAevzQ5nnrsXN6JcahLnG4i.jpg", "adult": false, "overview": "Interstellar chronicles the adventures of a group of explorers who make use of a newly discovered wormhole to surpass the limitations on human space travel and conquer the vast distances involved in an interstellar voyage.", "poster_path": "/nBNZadXqJSdt05SHLqgT0HuC5Gm.jpg", "popularity": 66.028}, {"adult": false, "backdrop_path": "/g6WT9zxATzTy9NVu2xwbxDAxvjd.jpg", "genre_ids": [28, 12, 878], "id": 157350, "original_language": "en", "original_title": "Divergent", "overview": "In a world divided into factions based on personality types, Tris learns that she's been classified as Divergent and won't fit in. When she discovers a plot to destroy Divergents, Tris and the mysterious Four must find out what makes Divergents dangerous before it's too late.", "poster_path": "/yTtx2ciqk4XdN1oKhMMDy3f5ue3.jpg", "release_date": "2014-03-14", "title": "Divergent", "video": false, "vote_average": 6.9, "vote_count": 8979, "popularity": 25.41}, {"id": 78, "video": false, "vote_count": 8365, "vote_average": 7.9, "title": "Blade Runner", "release_date": "1982-06-25", "original_language": "en", "original_title": "Blade Runner", "genre_ids": [18, 878, 53], "backdrop_path": "/eIi3klFf7mp3oL5EEF4mLIDs26r.jpg", "adult": false, "overview": "In the smog-choked dystopian Los Angeles of 2019, blade runner Rick Deckard is called out of retirement to terminate a quartet of replicants who have escaped to Earth seeking their creator for a way to extend their short life spans.", "poster_path": "/vfzE3pjE5G7G7kcZWrA3fnbZo7V.jpg", "popularity": 33.322}, {"id": 19, "video": false, "vote_count": 1340, "vote_average": 8.2, "title": "Metropolis", "release_date": "1927-01-10", "original_language": "de", "original_title": "Metropolis", "genre_ids": [18, 878], "backdrop_path": "/gmH0N0bdlYGN1EUr8U2cMQYyg78.jpg", "adult": false, "overview": "In a futuristic city sharply divided between the working class and the city planners, the son of the city's mastermind falls in love with a working class prophet who predicts the coming of a savior to mediate their differences.", "poster_path": "/qriaeUUwdmlgethK3aSAx68mG05.jpg", "popularity": 20.587}, {"id": 296, "video": false, "vote_count": 3977, "vote_average": 6.0, "title": "Terminator 3: Rise of the Machines", "release_date": "2003-07-02", "original_language": "en", "original_title": "Terminator 3: Rise of the Machines", "genre_ids": [28, 878, 53], "backdrop_path": "/8ZuMyOjFpwq1tNU9MAFN836Wb1b.jpg", "adult": false, "overview": "It's been 10 years since John Connor saved Earth from Judgment Day, and he's now living under the radar, steering clear of using anything Skynet can trace. That is, until he encounters T-X, a robotic assassin ordered to finish what T-1000 started. Good thing Connor's former nemesis, the Terminator, is back to aid the now-adult Connor \u2026 just like he promised.", "poster_path": "/lz4xYdF1n09lyiCfZWtWT44SZiG.jpg", "popularity": 36.283}, {"adult": false, "backdrop_path": "/8QXGNP0Vb4nsYKub59XpAhiUSQN.jpg", "genre_ids": [878, 18], "id": 335984, "original_language": "en", "original_title": "Blade Runner 2049", "overview": "Thirty years after the events of the first film, a new blade runner, LAPD Officer K, unearths a long-buried secret that has the potential to plunge what's left of society into chaos. K's discovery leads him on a quest to find Rick Deckard, a former LAPD blade runner who has been missing for 30 years.", "poster_path": "/gajva2L0rPYkEWjzgFlBXCAVBE5.jpg", "release_date": "2017-10-04", "title": "Blade Runner 2049", "video": false, "vote_average": 7.4, "vote_count": 7576, "popularity": 49.76}, {"id": 198184, "video": false, "vote_count": 5350, "vote_average": 6.7, "title": "Chappie", "release_date": "2015-03-04", "original_language": "en", "original_title": "Chappie", "genre_ids": [28, 80, 878], "backdrop_path": "/y5lG7TBpeOMG0jxAaTK0ghZSzBJ.jpg", "adult": false, "overview": "Every child comes into the world full of promise, and none more so than Chappie: he is gifted, special, a prodigy. Like any child, Chappie will come under the influence of his surroundings\u2014some good, some bad\u2014and he will rely on his heart and soul to find his way in the world and become his own man. But there's one thing that makes Chappie different from any one else: he is a robot.", "poster_path": "/saF3HtAduvrP9ytXDxSnQJP3oqx.jpg", "popularity": 28.111}, {"id": 603, "video": false, "vote_count": 15892, "vote_average": 8.1, "title": "The Matrix", "release_date": "1999-03-30", "original_language": "en", "original_title": "The Matrix", "genre_ids": [28, 878], "backdrop_path": "/icmmSD4vTTDKOq2vvdulafOGw93.jpg", "adult": false, "overview": "Set in the 22nd century, The Matrix tells the story of a computer hacker who joins a group of underground insurgents fighting the vast and powerful computers who now rule the earth.", "poster_path": "/gynBNzwyaHKtXqlEKKLioNkjKgN.jpg", "popularity": 37.396}, {"id": 262543, "video": false, "vote_count": 1019, "vote_average": 5.7, "title": "Automata", "release_date": "2014-10-09", "original_language": "en", "original_title": "Aut\u00f3mata", "genre_ids": [878, 53], "backdrop_path": "/281QVUuSYKBgtdxmr5iAM7YDUZw.jpg", "adult": false, "overview": "Jacq Vaucan, an insurance agent of ROC robotics corporation, routinely investigates the case of manipulating a robot. What he discovers will have profound consequences for the future of humanity.", "poster_path": "/wwo81W8PxHREEprnrJRww471hWm.jpg", "popularity": 19.512}, {"adult": false, "backdrop_path": "/aSNagpdVCD9UFI1PWrH8jOLnRN1.jpg", "genre_ids": [878, 53], "id": 23535, "original_language": "en", "original_title": "Class of 1999", "overview": "The time is in the future and the youth gang violence is so high that the areas around some schools have become \"free-fire zones\", into which not even the police will venture. When Miles Langford, the head of Kennedy High School, decides to take his school back from the gangs, robotics specialist Dr. Robert Forrest provides \"tactical education units\". These are amazingly human-like androids that have been programmed to teach and are supplied with devastatingly effective solutions to discipline problems. So when he violent, out-of-control students of Kennedy High report for class tomorrow, they're going to get a real education... in staying alive!", "poster_path": "/5HkKJhPODjCjVOoGcvHvo7tRgNU.jpg", "release_date": "1990-04-01", "title": "Class of 1999", "video": false, "vote_average": 6.2, "vote_count": 104, "popularity": 8.771}, {"adult": false, "backdrop_path": "/2ynxC25bh0lTazbCcUv6n1MTOjj.jpg", "genre_ids": [16, 28, 878], "id": 11633, "original_language": "ja", "original_title": "\u30a2\u30c3\u30d7\u30eb\u30b7\u30fc\u30c9", "overview": "In a utopian society created at the end of the third world war, a female warrior who has been plucked from the badlands begins to see cracks in this new facade. And what does this community have planned for the rest of humankind?", "poster_path": "/dyROof1YUhe0eul1P1js6ghYtkQ.jpg", "release_date": "2004-04-17", "title": "Appleseed", "video": false, "vote_average": 6.9, "vote_count": 182, "popularity": 9.176}, {"id": 12140, "video": false, "vote_count": 424, "vote_average": 7.4, "title": "Ghost in the Shell 2: Innocence", "release_date": "2004-03-06", "original_language": "ja", "original_title": "\u30a4\u30ce\u30bb\u30f3\u30b9", "genre_ids": [16, 18, 878], "backdrop_path": "/gG3NVaD57CEjWwEMD4r3taG8Fsl.jpg", "adult": false, "overview": "Groundbreaking director Mamoru Oshii continues to push the boundaries of art and anime with this universally acclaimed cyber thriller following cyborg detective Batou as he tries to unravel the reasons for a murderous robot revolt in the year 2032. A quest for a killer that becomes a mind bending search for the meaning of life.", "poster_path": "/itb2zo45wxsP7OrG1sCyZF4xk6K.jpg", "popularity": 19.293}], "total_pages": 74, "total_results": 1463}, "recommendations": {"page": 1, "results": [{"id": 10638, "video": false, "vote_count": 26, "vote_average": 6.1, "title": "In the Valley of Death", "release_date": "1968-12-12", "original_language": "de", "original_title": "Winnetou und Shatterhand im Tal der Toten", "genre_ids": [37], "backdrop_path": "/xv9eWhlX6QVR6HbuInToXYdf8qO.jpg", "adult": false, "overview": "Mabel Kingsley arrives at a western town to clear her missing father of the charge that he stole a shipment of government gold. A frontiersman known as \"Shatterhand\" agrees to guide her in a search for the gold and for major Kingsley. They are joined by an army lieutenant, an amateur botanist, and an Apache chief named Winnetou. Despite troubles caused by pursuing bandits and by Winnetou's enemy, a Sioux chief, Mabel's party eventually reaches the \"Valley of Death\" which holds the answers to the mystery of the missing gold.", "poster_path": "/rc7bkKYfCRPLdMNUMHqZpdMndMH.jpg", "popularity": 7.055}], "total_pages": 1, "total_results": 1}, "credits": {"cast": [{"cast_id": 8, "character": "Jake Cardigan", "credit_id": "52fe4b30c3a36847f81f6f95", "gender": 2, "id": 70004, "name": "Greg Evigan", "order": 0, "profile_path": "/je3dMib07JxaTC8ze5r5W5xlJ3m.jpg"}, {"cast_id": 14, "character": "Sid Gomez", "credit_id": "52fe4b30c3a36847f81f6fa9", "gender": 2, "id": 61660, "name": "Eugene Clark", "order": 1, "profile_path": "/v1iJYDA4vUWZhef9GE38US43zEB.jpg"}, {"cast_id": 10, "character": "Beth Kittridge", "credit_id": "52fe4b30c3a36847f81f6f99", "gender": 1, "id": 5480, "name": "Torri Higginson", "order": 2, "profile_path": "/kDGgULo1Y9qGgxdZxduoePRNXoq.jpg"}, {"cast_id": 11, "character": "Bennett Sands", "credit_id": "52fe4b30c3a36847f81f6f9d", "gender": 2, "id": 199030, "name": "Ray Jewers", "order": 3, "profile_path": null}, {"cast_id": 12, "character": "Sonny Hokori", "credit_id": "52fe4b30c3a36847f81f6fa1", "gender": 2, "id": 64888, "name": "Von Flores", "order": 4, "profile_path": "/iuAwdsaVmltuZKOrsDR9n9najuc.jpg"}, {"cast_id": 13, "character": "Insp. Winterguild", "credit_id": "52fe4b30c3a36847f81f6fa5", "gender": 2, "id": 58805, "name": "David Hemblen", "order": 5, "profile_path": null}, {"cast_id": 15, "character": "Walter H. Bascom", "credit_id": "5b503a93c3a3682848008446", "gender": 2, "id": 1748, "name": "William Shatner", "order": 6, "profile_path": "/4byp8PsbRkC3UQVuvMAh4bcj7E2.jpg"}, {"cast_id": 16, "character": "Sands' Receptionist", "credit_id": "5b8848cd0e0a266f34014b21", "gender": 1, "id": 1018235, "name": "Marie V. Cruz", "order": 7, "profile_path": "/xpRC1aZcvYkpvoDat8cdlcDYE6L.jpg"}], "crew": [{"credit_id": "52fe4b30c3a36847f81f6f6d", "department": "Directing", "gender": 2, "id": 1748, "job": "Director", "name": "William Shatner", "profile_path": "/4byp8PsbRkC3UQVuvMAh4bcj7E2.jpg"}, {"credit_id": "52fe4b30c3a36847f81f6f7f", "department": "Writing", "gender": 2, "id": 1748, "job": "Novel", "name": "William Shatner", "profile_path": "/4byp8PsbRkC3UQVuvMAh4bcj7E2.jpg"}, {"credit_id": "52fe4b30c3a36847f81f6f85", "department": "Production", "gender": 2, "id": 151329, "job": "Producer", "name": "Hans Beimler", "profile_path": null}, {"credit_id": "52fe4b30c3a36847f81f6f79", "department": "Writing", "gender": 0, "id": 177603, "job": "Teleplay", "name": "Westbrook Claridge", "profile_path": null}, {"credit_id": "52fe4b30c3a36847f81f6f73", "department": "Writing", "gender": 2, "id": 190954, "job": "Teleplay", "name": "Alfonse Ruggiero", "profile_path": null}, {"credit_id": "52fe4b30c3a36847f81f6f91", "department": "Production", "gender": 2, "id": 267877, "job": "Producer", "name": "Stephen Roloff", "profile_path": null}, {"credit_id": "52fe4b30c3a36847f81f6f8b", "department": "Production", "gender": 2, "id": 380317, "job": "Producer", "name": "Jamie Paul Rock", "profile_path": null}]}}