{"adult": false, "backdrop_path": "/u7VJ03VDyH94s4Ba151v1TInh6G.jpg", "belongs_to_collection": {"id": 435805, "name": "The Man from U.N.C.L.E. Collection", "poster_path": null, "backdrop_path": null}, "budget": 0, "genres": [{"id": 28, "name": "Action"}, {"id": 12, "name": "Adventure"}, {"id": 35, "name": "Comedy"}, {"id": 80, "name": "Crime"}, {"id": 53, "name": "Thriller"}], "homepage": null, "id": 113582, "imdb_id": "tt0061020", "original_language": "en", "original_title": "The Spy in the Green Hat", "overview": "\"Spy in the Green Hat, The (1966)\" on the other hand, is both exciting AND funny. Especially the scene where Napoleon Solo (Robert Vaughn) hides from THRUSH agents under a young woman's (the incredibly cute Let\u00edcia Rom\u00e1n) bed and is caught by the woman's grandmother (Penny Santon), who is forcing Solo to marry the young woman. He successfully escapes, but is hunted by a legion of stereotyped Italian gangsters. Now that's comedy.", "popularity": 3.592, "poster_path": "/kjQ5fpCL2TIapNHqLVWozsH5y0S.jpg", "production_companies": [{"id": 7894, "logo_path": null, "name": "Arena Productions", "origin_country": ""}], "production_countries": [{"iso_3166_1": "US", "name": "United States of America"}], "release_date": "1967-02-03", "revenue": 0, "runtime": 92, "spoken_languages": [], "status": "Released", "tagline": "", "title": "The Spy in the Green Hat", "video": false, "vote_average": 6.8, "vote_count": 6, "keywords": {"keywords": [{"id": 470, "name": "spy"}]}, "similar": {"page": 1, "results": [{"id": 206647, "video": false, "vote_count": 7173, "vote_average": 6.4, "title": "Spectre", "release_date": "2015-10-26", "original_language": "en", "original_title": "Spectre", "genre_ids": [28, 12, 80], "backdrop_path": "/wVTYlkKPKrljJfugXN7UlLNjtuJ.jpg", "adult": false, "overview": "A cryptic message from Bond\u2019s past sends him on a trail to uncover a sinister organization. While M battles political forces to keep the secret service alive, Bond peels back the layers of deceit to reveal the terrible truth behind SPECTRE.", "poster_path": "/hE24GYddaxB9MVZl1CaiI86M3kp.jpg", "popularity": 36.838}, {"id": 660, "video": false, "vote_count": 1117, "vote_average": 6.7, "title": "Thunderball", "release_date": "1965-12-15", "original_language": "en", "original_title": "Thunderball", "genre_ids": [28, 12, 53], "backdrop_path": "/qd0jrqxFLCKkNruPuJ7zXuQRpKG.jpg", "adult": false, "overview": "A criminal organization has obtained two nuclear bombs and are asking for a 100 million pound ransom in the form of diamonds in seven days or they will use the weapons. The secret service sends James Bond to the Bahamas to once again save the world.", "poster_path": "/sASN1VnJxWosdzp4mH40P47Xhhz.jpg", "popularity": 30.876}, {"id": 36669, "video": false, "vote_count": 2043, "vote_average": 5.9, "title": "Die Another Day", "release_date": "2002-11-17", "original_language": "en", "original_title": "Die Another Day", "genre_ids": [28, 12, 53], "backdrop_path": "/3YQfmtpbiFCMHcXY3lJ7fGEcOL6.jpg", "adult": false, "overview": "Bond takes on a North Korean leader who undergoes DNA replacement procedures that allow him to assume different identities. American agent, Jinx Johnson assists Bond in his attempt to thwart the villain's plans to exploit a satellite that is powered by solar energy.", "poster_path": "/1iUZqUXS7x5FcGM5J0u01xuObWC.jpg", "popularity": 26.996}, {"id": 37724, "video": false, "vote_count": 11105, "vote_average": 7.1, "title": "Skyfall", "release_date": "2012-10-25", "original_language": "en", "original_title": "Skyfall", "genre_ids": [28, 12, 53], "backdrop_path": "/6bjRujKSnCVSrzC1qjmqfAyaiET.jpg", "adult": false, "overview": "When Bond's latest assignment goes gravely wrong and agents around the world are exposed, MI6 is attacked forcing M to relocate the agency. These events cause her authority and position to be challenged by Gareth Mallory, the new Chairman of the Intelligence and Security Committee. With MI6 now compromised from both inside and out, M is left with one ally she can trust: Bond. 007 takes to the shadows - aided only by field agent, Eve - following a trail to the mysterious Silva, whose lethal and hidden motives have yet to reveal themselves.", "poster_path": "/lQCkPLDxFONmgzrWLvq085v1g2d.jpg", "popularity": 31.384}, {"adult": false, "backdrop_path": "/tjQHn6xW5BiB1RJ3OZIPDzIOSkF.jpg", "genre_ids": [12, 28, 53], "id": 954, "original_language": "en", "original_title": "Mission: Impossible", "overview": "When Ethan Hunt, the leader of a crack espionage team whose perilous operation has gone awry with no explanation, discovers that a mole has penetrated the CIA, he's surprised to learn that he's the No. 1 suspect. To clear his name, Hunt now must ferret out the real double agent and, in the process, even the score.", "poster_path": "/1PVKS17pIBFsIhgFws2uagPDNLW.jpg", "release_date": "1996-05-22", "title": "Mission: Impossible", "video": false, "vote_average": 6.9, "vote_count": 5214, "popularity": 29.575}, {"id": 691, "video": false, "vote_count": 939, "vote_average": 6.7, "title": "The Spy Who Loved Me", "release_date": "1977-07-07", "original_language": "en", "original_title": "The Spy Who Loved Me", "genre_ids": [28, 12, 53], "backdrop_path": "/2tCAEhE2rPONBmUOs4W73AlBWYg.jpg", "adult": false, "overview": "Russian and British submarines with nuclear missiles on board both vanish from sight without a trace. England and Russia both blame each other as James Bond tries to solve the riddle of the disappearing ships. But the KGB also has an agent on the case.", "poster_path": "/vYMgDqQDpqHDhz3enGkwBmTs7p7.jpg", "popularity": 23.896}, {"adult": false, "backdrop_path": "/vHLsgsvLtFWDlhBigKDRsYIC1p6.jpg", "genre_ids": [28, 9648, 53], "id": 27576, "original_language": "en", "original_title": "Salt", "overview": "As a CIA officer, Evelyn Salt swore an oath to duty, honor and country. Her loyalty will be tested when a defector accuses her of being a Russian spy. Salt goes on the run, using all her skills and years of experience as a covert operative to elude capture. Salt's efforts to prove her innocence only serve to cast doubt on her motives, as the hunt to uncover the truth behind her identity continues and the question remains: \"Who is Salt?\"", "poster_path": "/956xMjH4sPoqimqoLOP6AI19mjm.jpg", "release_date": "2010-07-21", "title": "Salt", "video": false, "vote_average": 6.3, "vote_count": 3528, "popularity": 22.892}, {"adult": false, "backdrop_path": "/bqpGceqQuHbtnjEqUG9acSYIVIh.jpg", "genre_ids": [18, 53, 9648], "id": 49517, "original_language": "en", "original_title": "Tinker Tailor Soldier Spy", "overview": "In the bleak days of the Cold War, espionage veteran George Smiley is forced from semi-retirement to uncover a Soviet mole within his former colleagues at the heart of MI6.", "poster_path": "/2N3P730TYXEcNL0BO8WBuMc6yJz.jpg", "release_date": "2011-09-16", "title": "Tinker Tailor Soldier Spy", "video": false, "vote_average": 6.7, "vote_count": 1545, "popularity": 17.584}, {"id": 341013, "video": false, "vote_count": 4061, "vote_average": 6.3, "title": "Atomic Blonde", "release_date": "2017-07-26", "original_language": "en", "original_title": "Atomic Blonde", "genre_ids": [28, 9648, 53], "backdrop_path": "/g3hni0i9iAQ13jDGOFWavJFlojc.jpg", "adult": false, "overview": "An undercover MI6 agent is sent to Berlin during the Cold War to investigate the murder of a fellow agent and recover a missing list of double agents.", "poster_path": "/kV9R5h0Yct1kR8Hf8sJ1nX0Vz4x.jpg", "popularity": 31.297}, {"id": 47971, "video": false, "vote_count": 2659, "vote_average": 5.6, "title": "xXx: Return of Xander Cage", "release_date": "2017-01-13", "original_language": "en", "original_title": "xXx: Return of Xander Cage", "genre_ids": [28, 12, 80], "backdrop_path": "/zv4acOMTPoplVLKo4FaoqAseSDx.jpg", "adult": false, "overview": "Extreme athlete turned government operative Xander Cage comes out of self-imposed exile, thought to be long dead, and is set on a collision course with deadly alpha warrior Xiang and his team in a race to recover a sinister and seemingly unstoppable weapon known as Pandora's Box. Recruiting an all-new group of thrill-seeking cohorts, Xander finds himself enmeshed in a deadly conspiracy that points to collusion at the highest levels of world governments.", "poster_path": "/yNsdyNbQqaKN0TQxkHMws2KLTJ6.jpg", "popularity": 32.989}, {"id": 238713, "video": false, "vote_count": 4195, "vote_average": 6.8, "title": "Spy", "release_date": "2015-05-06", "original_language": "en", "original_title": "Spy", "genre_ids": [28, 35, 80], "backdrop_path": "/x5F6AIyqCjRMwqmF8NR98kU4VzH.jpg", "adult": false, "overview": "A desk-bound CIA analyst volunteers to go undercover to infiltrate the world of a deadly arms dealer, and prevent diabolical global disaster.", "poster_path": "/gCBw0AQDhlo0bNetkjsSRWzrxpW.jpg", "popularity": 17.209}, {"adult": false, "backdrop_path": "/oS1Ck6sbBnIReyactTdFlFF2Wkh.jpg", "genre_ids": [35, 28, 12], "id": 203801, "original_language": "en", "original_title": "The Man from U.N.C.L.E.", "overview": "At the height of the Cold War, a mysterious criminal organization plans to use nuclear weapons and technology to upset the fragile balance of power between the United States and Soviet Union. CIA agent Napoleon Solo and KGB agent Illya Kuryakin are forced to put aside their hostilities and work together to stop the evildoers in their tracks. The duo's only lead is the daughter of a missing German scientist, whom they must find soon to prevent a global catastrophe.", "poster_path": "/i9P3FU8z2Sd7jYRx6l1Iby0zP0o.jpg", "release_date": "2015-08-13", "title": "The Man from U.N.C.L.E.", "video": false, "vote_average": 7.1, "vote_count": 3842, "popularity": 21.895}, {"id": 681, "video": false, "vote_count": 1040, "vote_average": 6.4, "title": "Diamonds Are Forever", "release_date": "1971-12-13", "original_language": "en", "original_title": "Diamonds Are Forever", "genre_ids": [28, 12, 53], "backdrop_path": "/gIGLXXvsljHK1jdDNaIXsjhZnnH.jpg", "adult": false, "overview": "Diamonds are stolen only to be sold again in the international market. James Bond infiltrates a smuggling mission to find out who\u2019s guilty. The mission takes him to Las Vegas where Bond meets his archenemy Blofeld.", "poster_path": "/viPjZ3JCOahcfNCcVhiPExusJoZ.jpg", "popularity": 20.883}, {"id": 10764, "video": false, "vote_count": 4873, "vote_average": 6.2, "title": "Quantum of Solace", "release_date": "2008-10-30", "original_language": "en", "original_title": "Quantum of Solace", "genre_ids": [28, 12, 80, 53], "backdrop_path": "/hfZVY8lMiE7HH1cDc2qzSFF6Kbt.jpg", "adult": false, "overview": "Quantum of Solace continues the adventures of James Bond after Casino Royale. Betrayed by Vesper, the woman he loved, 007 fights the urge to make his latest mission personal. Pursuing his determination to uncover the truth, Bond and M interrogate Mr. White, who reveals that the organization that blackmailed Vesper is far more complex and dangerous than anyone had imagined.", "poster_path": "/6mlNx0Jiqhg3D7NlANT9pidsgPJ.jpg", "popularity": 29.622}, {"id": 36670, "video": false, "vote_count": 695, "vote_average": 6.1, "title": "Never Say Never Again", "release_date": "1983-10-07", "original_language": "en", "original_title": "Never Say Never Again", "genre_ids": [28, 12, 53], "backdrop_path": "/jYO08KXUKvJvzx3KcE7MoaDYvoM.jpg", "adult": false, "overview": "James Bond returns as the secret agent 007 one more time to battle the evil organization SPECTRE. Bond must defeat Largo, who has stolen two atomic warheads for nuclear blackmail. But Bond has an ally in Largo's girlfriend, the willowy Domino, who falls for Bond and seeks revenge. This is the last time for Sean Connery as Her Majesty's Secret Agent 007. Made outside of the traditional Broccoli production environment due to separate rights having been obtained for this specific Ian Fleming story.", "poster_path": "/s9tBlhTEW0OtYJdemVMPbRcD7wk.jpg", "popularity": 26.217}, {"adult": false, "backdrop_path": "/9QcYwm5af4JaUSOyuysVEYOyEXn.jpg", "genre_ids": [12, 28, 53], "id": 646, "original_language": "en", "original_title": "Dr. No", "overview": "In the film that launched the James Bond saga, Agent 007 battles mysterious Dr. No, a scientific genius bent on destroying the U.S. space program. As the countdown to disaster begins, Bond must go to Jamaica, where he encounters beautiful Honey Ryder, to confront a megalomaniacal villain in his massive island headquarters.", "poster_path": "/gRdfLVVf6FheOw6mw6wOsKhZG1l.jpg", "release_date": "1962-10-04", "title": "Dr. No", "video": false, "vote_average": 7.0, "vote_count": 1837, "popularity": 45.268}, {"id": 818, "video": false, "vote_count": 1918, "vote_average": 5.9, "title": "Austin Powers in Goldmember", "release_date": "2002-07-26", "original_language": "en", "original_title": "Austin Powers in Goldmember", "genre_ids": [35, 80, 878], "backdrop_path": "/mzZraP6PV34eVjB8giKbKIMXVeW.jpg", "adult": false, "overview": "The world's most shagadelic spy continues his fight against Dr. Evil. This time, the diabolical doctor and his clone, Mini-Me, team up with a new foe -- '70s kingpin Goldmember. While pursuing the team of villains to stop them from world domination, Austin gets help from his dad and an old girlfriend.", "poster_path": "/tFR7dTbX5BsmoUwKHfa2cWoZbwK.jpg", "popularity": 21.771}, {"id": 497698, "video": false, "vote_count": 0, "vote_average": 0.0, "title": "Black Widow", "release_date": "2020-04-24", "original_language": "en", "original_title": "Black Widow", "genre_ids": [28, 12, 53], "backdrop_path": "/dGMpzHn9uNqBysBQ6Sp5xdOgM66.jpg", "adult": false, "overview": "Natasha Romanoff, on the run from the government following her disobedience to the Sokovia Accords and for aiding Steve Rogers, finds herself on her own and is forced to deal with some of the red in her ledger.", "poster_path": "/sRhaJ6D3x6gQB0swrV0UDqMwHJu.jpg", "popularity": 23.3}, {"id": 37834, "video": false, "vote_count": 2736, "vote_average": 6.1, "title": "Knight and Day", "release_date": "2010-06-15", "original_language": "en", "original_title": "Knight and Day", "genre_ids": [28, 35], "backdrop_path": "/clq0YPDQYCql9ekC17YFklk8FwX.jpg", "adult": false, "overview": "A fugitive couple goes on a glamorous and sometimes deadly adventure where nothing and no one \u2013 even themselves \u2013 are what they seem. Amid shifting alliances and unexpected betrayals, they race across the globe, with their survival ultimately hinging on the battle of truth vs. trust.", "poster_path": "/aHEpzwXvMtIEMBE13tWXS5oHZ7d.jpg", "popularity": 21.436}, {"id": 207703, "video": false, "vote_count": 11138, "vote_average": 7.6, "title": "Kingsman: The Secret Service", "release_date": "2014-12-13", "original_language": "en", "original_title": "Kingsman: The Secret Service", "genre_ids": [28, 12, 35, 80], "backdrop_path": "/7McaexSsSTLD8V17UgaZAfI0Cu9.jpg", "adult": false, "overview": "The story of a super-secret spy organization that recruits an unrefined but promising street kid into the agency's ultra-competitive training program just as a global threat emerges from a twisted tech genius.", "poster_path": "/8x7ej0LnHdKUqilNNJXYOeyB6L9.jpg", "popularity": 24.161}], "total_pages": 49, "total_results": 977}, "recommendations": {"page": 1, "results": [{"adult": false, "backdrop_path": "/g45cVsF3qS6VjUQhf0nPm4rIKxL.jpg", "genre_ids": [12], "id": 133978, "original_language": "en", "original_title": "One of Our Spies Is Missing", "overview": "Someone is using cats in experiments to develop a machine that can reverse the aging process, meanwhile a famous scientist (Dr Lancer) has gone missing, only for him to reappear looking 30 years younger. UNCLE agents Napoleon Solo and Illya Kuryakin are sent to investigate the plot in Europe - Illya is sent to London to discover who is abducting cats while Solo travels to Paris where Dr Lancer's daughter is working as a fashion model. They uncover a plot by female members of the fashion business to develop the anti-aging machine for their own use, however the suave THRUSH agent Jordin has other plans. Thus a race begins between UNCLE and THRUSH to take control of the machine.", "poster_path": "/96fuNbGCCL8aT6CNk0wqkXjOVwA.jpg", "release_date": "1966-12-01", "title": "One of Our Spies Is Missing", "video": false, "vote_average": 5.6, "vote_count": 6, "popularity": 2.79}, {"adult": false, "backdrop_path": "/pMDUqFgnSqqOS4yijf0g83x4meo.jpg", "genre_ids": [28, 12, 35, 80, 53], "id": 6319, "original_language": "en", "original_title": "The Karate Killers", "overview": "International spies Napoleon Solo (Robert Vaughn) and Illya Kuryakin (David McCallum) travel around the globe in an effort to track down a secret formula that was divided into four parts and left by a dying scientist with his four of five daughters, all of whom live in different countries. His widow, Amanda, is murdered at the beginning by the counter-spies of the organization THRUSH. Evil THRUSH agent Randolph also wants the formula, and is aided by his karate-chopping henchmen.", "poster_path": "/goSn20LD2LfKnmGQHO8cjbQsRUp.jpg", "release_date": "1967-04-07", "title": "The Karate Killers", "video": false, "vote_average": 5.4, "vote_count": 4, "popularity": 5.112}], "total_pages": 1, "total_results": 2}, "credits": {"cast": [{"cast_id": 2, "character": "Napoleon Solo", "credit_id": "52fe4b39c3a36847f81f8ba7", "gender": 2, "id": 14060, "name": "Robert Vaughn", "order": 0, "profile_path": "/tqnTA5PsxCvqZRFEyEyXAcEPQx4.jpg"}, {"cast_id": 3, "character": "Illya Kuryakin", "credit_id": "52fe4b39c3a36847f81f8bab", "gender": 2, "id": 24813, "name": "David McCallum", "order": 1, "profile_path": "/po7qYZYW0RMTl4BavHIZCxqopCD.jpg"}, {"cast_id": 4, "character": "Louis Strago", "credit_id": "52fe4b39c3a36847f81f8baf", "gender": 2, "id": 3785, "name": "Jack Palance", "order": 2, "profile_path": "/9TovoWi3lbI7HIVjppgSH2fYPf5.jpg"}, {"cast_id": 13, "character": "Miss Diketon", "credit_id": "5377d927c3a368552c0022a7", "gender": 1, "id": 7302, "name": "Janet Leigh", "order": 3, "profile_path": "/3FWYSCJUOuYVDPG9UoMjtqNMdyb.jpg"}, {"cast_id": 14, "character": "Arturo 'Fingers' Stilletto", "credit_id": "5377d943c3a368554200222c", "gender": 2, "id": 16761, "name": "Eduardo Ciannelli", "order": 4, "profile_path": "/fkfG6BRh3VqU4AmrTI2GPfxpEQM.jpg"}, {"cast_id": 15, "character": "Enzo 'Pretty' Stilletto", "credit_id": "5377d957c3a368554a0023c0", "gender": 2, "id": 30005, "name": "Allen Jenkins", "order": 5, "profile_path": "/t2ZumhV1ztWifv0uJHLfSztdUsM.jpg"}, {"cast_id": 16, "character": "Federico 'Feet' Stilletto", "credit_id": "5377d989c3a3685542002233", "gender": 2, "id": 99347, "name": "Jack La Rue", "order": 6, "profile_path": "/hWOwpkNevqBwp2mrjMCrLrxvPsi.jpg"}, {"cast_id": 17, "character": "Alexander Waverly", "credit_id": "5377d9a1c3a368552500232a", "gender": 2, "id": 2642, "name": "Leo G. Carroll", "order": 7, "profile_path": "/xTxzUMrwj00ZXa3iWOqP5w1xgO5.jpg"}, {"cast_id": 18, "character": "Mrs. 'Fingers' Stilletto", "credit_id": "5377d9b3c3a368554a0023c7", "gender": 1, "id": 13568, "name": "Joan Blondell", "order": 8, "profile_path": "/s2jdLZ53csCtTtDebKYno7xECPG.jpg"}, {"cast_id": 19, "character": "Dr. Heinrich von Kronen", "credit_id": "5377d9c5c3a3685525002332", "gender": 2, "id": 34405, "name": "Ludwig Donath", "order": 9, "profile_path": "/eJ91hF6spm3hYihu9TOTiwpHB9W.jpg"}, {"cast_id": 20, "character": "Mr. Thaler, Thrush Boss", "credit_id": "5377d9dbc3a368553a002354", "gender": 0, "id": 95223, "name": "Will Kuluva", "order": 10, "profile_path": "/of0qLbC1VSG3TiE2RtaCGGQQoxD.jpg"}, {"cast_id": 21, "character": "Pia Monteri", "credit_id": "5377d9ecc3a3685525002335", "gender": 1, "id": 45283, "name": "Let\u00edcia Rom\u00e1n", "order": 11, "profile_path": "/hXHleNAGCN2ADcTQHIxlCfDPTEl.jpg"}, {"cast_id": 22, "character": "Grandma Monteri", "credit_id": "5377d9fcc3a36855540024bc", "gender": 1, "id": 80599, "name": "Penny Santon", "order": 12, "profile_path": "/y834Gd6NCXQjiFEEfagxij6fQBC.jpg"}, {"cast_id": 23, "character": "Padre", "credit_id": "5377da0ec3a3685542002242", "gender": 2, "id": 89691, "name": "Frank Puglia", "order": 13, "profile_path": "/cC89EI595bAz4SPIE1JKIOkdVU.jpg"}, {"cast_id": 24, "character": "Benjamin Luger", "credit_id": "5377da24c3a3685531002451", "gender": 2, "id": 109214, "name": "Vincent Beck", "order": 14, "profile_path": null}], "crew": [{"credit_id": "571fb674c3a368339f00440d", "department": "Sound", "gender": 2, "id": 4360, "job": "Original Music Composer", "name": "Nelson Riddle", "profile_path": null}, {"credit_id": "52fe4b39c3a36847f81f8ba3", "department": "Directing", "gender": 2, "id": 15663, "job": "Director", "name": "Joseph Sargent", "profile_path": "/caO0AI5r8xT2C3yCo8czB8DA1nr.jpg"}, {"credit_id": "571fb65fc3a3682f5c000179", "department": "Camera", "gender": 2, "id": 19102, "job": "Director of Photography", "name": "Fred J. Koenekamp", "profile_path": "/yxTbBWproHj24o8yrTLEjtzlF9u.jpg"}, {"credit_id": "5377d8bcc3a3685554002492", "department": "Production", "gender": 2, "id": 49064, "job": "Producer", "name": "Boris Ingster", "profile_path": null}, {"credit_id": "5377d901c3a368551e002395", "department": "Editing", "gender": 0, "id": 49065, "job": "Editor", "name": "Ray Williford", "profile_path": null}, {"credit_id": "5377d88dc3a368551e00237d", "department": "Writing", "gender": 2, "id": 86134, "job": "Characters", "name": "Sam Rolfe", "profile_path": null}, {"credit_id": "5377d8edc3a368551e002390", "department": "Editing", "gender": 0, "id": 568782, "job": "Editor", "name": "Joseph Dervin", "profile_path": null}, {"credit_id": "5377d87ec3a368554a0023a1", "department": "Writing", "gender": 2, "id": 1214559, "job": "Screenplay", "name": "Peter Allan Fields", "profile_path": null}, {"credit_id": "5377d8a3c3a368554a0023a5", "department": "Writing", "gender": 0, "id": 1233635, "job": "Story", "name": "David Victor", "profile_path": null}]}}