{"adult": false, "backdrop_path": null, "belongs_to_collection": null, "budget": 0, "genres": [{"id": 53, "name": "Thriller"}, {"id": 18, "name": "Drama"}, {"id": 10749, "name": "Romance"}], "homepage": null, "id": 113788, "imdb_id": "tt0018972", "original_language": "en", "original_title": "Hangman's House", "overview": "Forced by her mean-spirited father, Lord Chief Justice James O'Brien (Hobart Bosworth), to marry a man she doesn't love, Connaught O'Brien (June Collyer) gives up hope of ever with her true love, Dermot McDermot (Larry Kent). After her father dies and a hunted rebel leader (Victor McLaglen) returns to town, however, Connaught finds a renewed hope that the tides of oppression will shift and she might again find happiness.  This silent romantic drama, set in Ireland, is the first film in which a then-unknown John Wayne is clearly visible.", "popularity": 1.41, "poster_path": "/yacqLcogzJPnCx1mEidgo4tkDw8.jpg", "production_companies": [{"id": 5488, "logo_path": null, "name": "Fox Film Corporation", "origin_country": "US"}], "production_countries": [{"iso_3166_1": "US", "name": "United States of America"}], "release_date": "1928-05-13", "revenue": 0, "runtime": 80, "spoken_languages": [{"iso_639_1": "xx", "name": "No Language"}], "status": "Released", "tagline": "", "title": "Hangman's House", "video": false, "vote_average": 6.4, "vote_count": 7, "keywords": {"keywords": [{"id": 934, "name": "judge"}, {"id": 14856, "name": "informer"}, {"id": 14985, "name": "ireland"}, {"id": 156123, "name": "algiers"}, {"id": 220836, "name": "hanging judge"}]}, "similar": {"page": 1, "results": [{"id": 369557, "video": false, "vote_count": 1342, "vote_average": 8.0, "title": "Sing Street", "release_date": "2016-03-11", "original_language": "en", "original_title": "Sing Street", "genre_ids": [35, 18, 10402, 10749], "backdrop_path": "/9j4UaRypr19wz0BOofwvkPRm1Se.jpg", "adult": false, "overview": "A boy growing up in Dublin during the 1980s escapes his strained family life by starting a band to impress the mysterious girl he likes.", "poster_path": "/s0C78plmx3dFcO3WMnoXCz56FiN.jpg", "popularity": 16.429}, {"id": 10545, "video": false, "vote_count": 3017, "vote_average": 7.0, "title": "The Hunchback of Notre Dame", "release_date": "1996-06-21", "original_language": "en", "original_title": "The Hunchback of Notre Dame", "genre_ids": [16, 18, 10751], "backdrop_path": "/oslaee3VX9kJAjVezbjZKlEJDzn.jpg", "adult": false, "overview": "When Quasimodo defies the evil Frollo and ventures out to the Festival of Fools, the cruel crowd jeers him. Rescued by fellow outcast the gypsy Esmeralda, Quasi soon finds himself battling to save the people and the city he loves.", "poster_path": "/r7V92gY3AMO6li17MmGTixAnFcv.jpg", "popularity": 34.935}, {"id": 389, "video": false, "vote_count": 4265, "vote_average": 8.4, "title": "12 Angry Men", "release_date": "1957-03-25", "original_language": "en", "original_title": "12 Angry Men", "genre_ids": [18], "backdrop_path": "/lH2Ga8OzjU1XlxJ73shOlPx6cRw.jpg", "adult": false, "overview": "The defense and the prosecution have rested and the jury is filing into the jury room to decide if a young Spanish-American is guilty or innocent of murdering his father. What begins as an open and shut case soon becomes a mini-drama of each of the jurors' prejudices and preconceptions about the trial, the accused, and each other.", "poster_path": "/3W0v956XxSG5xgm7LB6qu8ExYJ2.jpg", "popularity": 22.984}, {"id": 167073, "video": false, "vote_count": 2097, "vote_average": 7.3, "title": "Brooklyn", "release_date": "2015-10-20", "original_language": "en", "original_title": "Brooklyn", "genre_ids": [18, 10749], "backdrop_path": "/7fXKVIM8UQBvQ9aQOzFqThlq7eN.jpg", "adult": false, "overview": "In 1950s Ireland and New York, young Eilis Lacey has to choose between two men and two countries.", "poster_path": "/dRpkyrSDrEMFRZDeFJG4EupqUfR.jpg", "popularity": 13.039}, {"adult": false, "backdrop_path": "/sDiGcjWhSu42dCw0jQmBInAkDZ9.jpg", "genre_ids": [28, 53], "id": 379149, "original_language": "en", "original_title": "The Foreigner", "overview": "Quan is a humble London businessman whose long-buried past erupts in a revenge-fueled vendetta when the only person left for him to love \u2013 his teenage daughter \u2013 dies in a senseless act of politically-motivated terrorism. His relentless search to find the terrorists leads to a cat-and-mouse conflict with a British government official whose own past may hold the clues to the identities of the elusive killers.", "poster_path": "/rwM4hzrmc5HiWfQD9ls9DL4QgGl.jpg", "release_date": "2017-09-28", "title": "The Foreigner", "video": false, "vote_average": 6.7, "vote_count": 1247, "popularity": 20.765}, {"id": 11881, "video": false, "vote_count": 341, "vote_average": 7.4, "title": "Miracle on 34th Street", "release_date": "1947-06-11", "original_language": "en", "original_title": "Miracle on 34th Street", "genre_ids": [35, 18, 10751], "backdrop_path": "/i90947b0zLbH1P4qjAxqiQdRfiZ.jpg", "adult": false, "overview": "Kris Kringle, seemingly the embodiment of Santa Claus, is asked to portray the jolly old fellow at Macy's following his performance in the Thanksgiving Day parade. His portrayal is so complete that many begin to question if he truly is Santa Claus, while others question his sanity.", "poster_path": "/h8kkqroLwxvAHxWGIStEZaNd4wr.jpg", "popularity": 16.027}, {"id": 223485, "video": false, "vote_count": 586, "vote_average": 6.6, "title": "Slow West", "release_date": "2015-04-16", "original_language": "en", "original_title": "Slow West", "genre_ids": [28, 18, 53, 37, 10749], "backdrop_path": "/9qF6lhj6X0ImH4iWGZs1uspXJI0.jpg", "adult": false, "overview": "In the Old West, a 17-year-old Scottish boy teams up with a mysterious gunman to find the woman with whom he is infatuated.", "poster_path": "/uZ9dBBn0GaEw0YIBvQd01Io3pho.jpg", "popularity": 8.055}, {"adult": false, "backdrop_path": "/eB43LYncKDJS3p5xYSUN9dUrL2A.jpg", "genre_ids": [18], "id": 205587, "original_language": "en", "original_title": "The Judge", "overview": "A successful lawyer returns to his hometown for his mother's funeral only to discover that his estranged father, the town's judge, is suspected of murder.", "poster_path": "/v6s65U6qisvxWgO3cNnreaaaite.jpg", "release_date": "2014-10-08", "title": "The Judge", "video": false, "vote_average": 7.3, "vote_count": 2562, "popularity": 16.888}, {"adult": false, "backdrop_path": "/t3Oea7KbSpOvuqddMnlFtZ4WHn.jpg", "genre_ids": [18, 53, 36], "id": 314365, "original_language": "en", "original_title": "Spotlight", "overview": "In 2001, editor Marty Baron of The Boston Globe assigns a team of journalists to investigate allegations against John Geoghan, an unfrocked priest accused of molesting more than 80 boys. Led by editor Walter \"Robby\" Robinson, reporters Michael Rezendes, Matt Carroll and Sacha Pfeiffer interview victims and try to unseal sensitive documents. The reporters make it their mission to provide proof of a cover-up of sexual abuse within the Roman Catholic Church.", "poster_path": "/ngKxbvsn9Si5TYVJfi1EGAGwThU.jpg", "release_date": "2015-11-06", "title": "Spotlight", "video": false, "vote_average": 7.8, "vote_count": 5408, "popularity": 22.049}, {"adult": false, "backdrop_path": "/zNqsGEWHlXwFw8wod0HDkgrvsl8.jpg", "genre_ids": [18, 36], "id": 522212, "original_language": "en", "original_title": "Just Mercy", "overview": "The powerful true story of Harvard-educated lawyer Bryan Stevenson, who goes to Alabama to defend the disenfranchised and wrongly condemned \u2014 including Walter McMillian, a man sentenced to death despite evidence proving his innocence. Bryan fights tirelessly for Walter with the system stacked against them.", "poster_path": "/4YJNp1cquIkX8JxFwkKNEFQ9tgr.jpg", "release_date": "2019-12-25", "title": "Just Mercy", "video": false, "vote_average": 7.9, "vote_count": 33, "popularity": 19.552}, {"id": 411088, "video": false, "vote_count": 2013, "vote_average": 8.2, "title": "The Invisible Guest", "release_date": "2016-09-22", "original_language": "es", "original_title": "Contratiempo", "genre_ids": [80, 9648, 53], "backdrop_path": "/6xCeSDyXr9tC1jdBsdx3QJEQuSc.jpg", "adult": false, "overview": "A young businessman wakes up in a hotel room, locked from the inside, along with his lover, who was murdered while he was unconscious. He hires a prestigious lawyer, and over the course of one evening, they must work together to build a defense case for him before he is taken to jail.", "poster_path": "/fptnZJbLzKUHeNlYrAynbyoL5YJ.jpg", "popularity": 28.729}, {"id": 49049, "video": false, "vote_count": 3046, "vote_average": 6.7, "title": "Dredd", "release_date": "2012-09-07", "original_language": "en", "original_title": "Dredd", "genre_ids": [28, 878], "backdrop_path": "/kqKcID44nGtIxhhzmziAX65abRx.jpg", "adult": false, "overview": "In the future, America is a dystopian wasteland. The latest scourge is Ma-Ma, a prostitute-turned-drug pusher with a dangerous new drug and aims to take over the city. The only possibility of stopping her is an elite group of urban police called Judges, who combine the duties of judge, jury and executioner to deliver a brutal brand of swift justice. But even the top-ranking Judge, Dredd, discovers that taking down Ma-Ma isn\u2019t as easy as it seems in this explosive adaptation of the hugely popular comic series.", "poster_path": "/71fkYuMVMtdbREh9Mp3gTFmI8Bv.jpg", "popularity": 22.587}, {"adult": false, "backdrop_path": "/mSZADd1N0wWkkNJmwcpYAq93bke.jpg", "genre_ids": [878], "id": 9482, "original_language": "en", "original_title": "Judge Dredd", "overview": "In a dystopian future, Dredd, the most famous judge (a cop with instant field judiciary powers) is convicted for a crime he did not commit while his murderous counterpart escapes.", "poster_path": "/r17S4XlQ3Jq5U1KRovFUwU8P4aG.jpg", "release_date": "1995-06-30", "title": "Judge Dredd", "video": false, "vote_average": 5.6, "vote_count": 1316, "popularity": 25.238}, {"id": 625719, "video": false, "vote_count": 1, "vote_average": 3.0, "title": "Martin's Close", "release_date": "2019-12-24", "original_language": "en", "original_title": "Martin's Close", "genre_ids": [27, 10770], "backdrop_path": "/gcccicGB2eKpE8K50wGXa9GJY3M.jpg", "adult": false, "overview": "Part of the long running tradition of 'A Ghost Story For Christmas' on BBC Four in the UK, and the third instalment presented by Mark Gatiss. A young squire accused of murdering a young girl that did not return his feelings of love reveals a supernatural secret at his trial.", "poster_path": "/ArhYVKnfILuWERuUyuvWJd1jqRm.jpg", "popularity": 5.17}, {"id": 489, "video": false, "vote_count": 6672, "vote_average": 8.1, "title": "Good Will Hunting", "release_date": "1997-12-05", "original_language": "en", "original_title": "Good Will Hunting", "genre_ids": [18], "backdrop_path": "/8vA6dxBzRqSajvqdmTLtoguAa3T.jpg", "adult": false, "overview": "Will Hunting has a genius-level IQ but chooses to work as a janitor at MIT. When he solves a difficult graduate-level math problem, his talents are discovered by Professor Gerald Lambeau, who decides to help the misguided youth reach his potential. When Will is arrested for attacking a police officer, Professor Lambeau makes a deal to get leniency for him if he will get treatment from therapist Sean Maguire.", "poster_path": "/jq8LjngZ7XZEQge5JFTdOGMrHyZ.jpg", "popularity": 17.234}, {"id": 426563, "video": false, "vote_count": 345, "vote_average": 4.4, "title": "Holmes & Watson", "release_date": "2018-12-25", "original_language": "en", "original_title": "Holmes & Watson", "genre_ids": [12, 35, 80, 9648], "backdrop_path": "/5Zvu4SrY3p9qgnITkCn4jAQwKvB.jpg", "adult": false, "overview": "Detective Sherlock Holmes and Dr. John Watson join forces to investigate a murder at Buckingham Palace. They soon learn that they have only four days to solve the case, or the queen will become the next victim.", "poster_path": "/orEUlKndjV1rEcWqXbbjegjfv97.jpg", "popularity": 13.05}, {"id": 50348, "video": false, "vote_count": 1686, "vote_average": 7.1, "title": "The Lincoln Lawyer", "release_date": "2011-03-17", "original_language": "en", "original_title": "The Lincoln Lawyer", "genre_ids": [80, 18, 53], "backdrop_path": "/zxN5XhQKDT5GwlpZo7yKxDAJMyQ.jpg", "adult": false, "overview": "A lawyer conducts business from the back of his Lincoln town car while representing a high-profile client in Beverly Hills.", "poster_path": "/gOn8Ve9Yi8fxjRkmLr5BZoOc7KV.jpg", "popularity": 19.334}, {"id": 7984, "video": false, "vote_count": 850, "vote_average": 7.9, "title": "In the Name of the Father", "release_date": "1993-12-12", "original_language": "en", "original_title": "In the Name of the Father", "genre_ids": [18], "backdrop_path": "/pBvKhZ0ZrVeu9Nwyr0BHd8emvN4.jpg", "adult": false, "overview": "A small time thief from Belfast, Gerry Conlon, is falsely implicated in the IRA bombing of a pub that kills several people while he is in London. He and his four friends are coerced by British police into confessing their guilt. Gerry's father and other relatives in London are also implicated in the crime. He spends fifteen years in prison with his father trying to prove his innocence.", "poster_path": "/22UfH59UppgMtDIMjD6DxhO8J2C.jpg", "popularity": 12.665}, {"id": 2977, "video": false, "vote_count": 692, "vote_average": 7.2, "title": "Becoming Jane", "release_date": "2007-03-02", "original_language": "en", "original_title": "Becoming Jane", "genre_ids": [18, 10749], "backdrop_path": "/wf8GI3QtL4IM2645Fm7OqRqXCkH.jpg", "adult": false, "overview": "A biographical portrait of a pre-fame Jane Austen and her romance with a young Irishman.", "poster_path": "/iLNBdoaKzXNhZV4qbhJPkIEfLEg.jpg", "popularity": 16.069}, {"id": 5723, "video": false, "vote_count": 767, "vote_average": 7.5, "title": "Once", "release_date": "2007-03-23", "original_language": "en", "original_title": "Once", "genre_ids": [18, 10402, 10749], "backdrop_path": "/5e9rYIQzaSy3v6ntyFuA3N4QN6b.jpg", "adult": false, "overview": "A vacuum repairman moonlights as a street musician and hopes for his big break. One day a Czech immigrant, who earns a living selling flowers, approaches him with the news that she is also an aspiring singer-songwriter. The pair decide to collaborate, and the songs that they compose reflect the story of their blossoming love.", "poster_path": "/fEjwJfeDxgsRBlYgEWMgvrKQ6VB.jpg", "popularity": 9.787}], "total_pages": 20, "total_results": 389}, "recommendations": {"page": 1, "results": [{"adult": false, "backdrop_path": null, "genre_ids": [18], "id": 189962, "original_language": "en", "original_title": "Mother Machree", "overview": "Ellen McHugh, a poor Irish immigrant to America, finds work in a carnival and is thus able to send her son Brian to a fine school. But when her position is found out, the school expels Brian. Mrs. McHugh feels compelled to allow the school principal and his wife to adopt Brian. The widow McHugh becomes a housekeeper and raises her employer's daughter Edith, who grows up to fall in love with Brian McHugh.", "poster_path": "/AiEbZfFxn892mIGBjR4kgT76P4x.jpg", "release_date": "1928-01-22", "title": "Mother Machree", "video": false, "vote_average": 5.5, "vote_count": 4, "popularity": 2.493}, {"adult": false, "backdrop_path": "/zHnJtTO0y78J0WzBURg7UjqJRv7.jpg", "genre_ids": [10752, 18], "id": 95169, "original_language": "en", "original_title": "Four Sons", "overview": "A family saga in which three of a Bavarian widow's sons go to war for Germany and the fourth goes to America, Germany's eventual opponent.", "poster_path": "/hUl7sqeviPzTjSpLLpXzFxCERGo.jpg", "release_date": "1928-02-13", "title": "Four Sons", "video": false, "vote_average": 6.8, "vote_count": 6, "popularity": 3.021}], "total_pages": 1, "total_results": 2}, "credits": {"cast": [{"cast_id": 2, "character": "Denis Hogan", "credit_id": "52fe4b3ec3a36847f81f9c29", "gender": 2, "id": 30495, "name": "Victor McLaglen", "order": 0, "profile_path": "/cjW8XGG2KjZ1nFvNJKwG80dJvpy.jpg"}, {"cast_id": 3, "character": "Connaught O'Brien", "credit_id": "52fe4b3ec3a36847f81f9c2d", "gender": 1, "id": 100802, "name": "June Collyer", "order": 1, "profile_path": "/wfYNNRLyQlQQBGsx9LANhg2h5DS.jpg"}, {"cast_id": 4, "character": "John D'Arcy", "credit_id": "52fe4b3ec3a36847f81f9c31", "gender": 2, "id": 34755, "name": "Earle Foxe", "order": 2, "profile_path": "/sYFdemqUtKF0cTA0MWFs69HEvBR.jpg"}, {"cast_id": 6, "character": "Lord Chief Justice James O'Brien", "credit_id": "52fe4b3ec3a36847f81f9c39", "gender": 2, "id": 29536, "name": "Hobart Bosworth", "order": 4, "profile_path": "/a5MoycL5zzAPIoTAfJt3BNK3nX9.jpg"}, {"cast_id": 8, "character": "Dermot McDermot", "credit_id": "533a7945925141130200486b", "gender": 2, "id": 1032133, "name": "Larry Kent", "order": 5, "profile_path": "/keJJWkfIYpcgIkfnhY9Fj8cpa8B.jpg"}, {"cast_id": 18, "character": "Neddy Joe - Dermot's Servant", "credit_id": "5643ddf69251410a4100385a", "gender": 2, "id": 1349533, "name": "Joseph Burke", "order": 6, "profile_path": null}, {"cast_id": 19, "character": "The Woman at Hogan's Hideout", "credit_id": "5643de00c3a36870ef003a41", "gender": 1, "id": 2934, "name": "Mary Gordon", "order": 7, "profile_path": "/u4QD0zsgBgXTi3At0e0ow8VdiEi.jpg"}, {"cast_id": 20, "character": "Horse Race Spectator", "credit_id": "5643de099251410a53003864", "gender": 2, "id": 261224, "name": "Brian Desmond Hurst", "order": 8, "profile_path": null}, {"cast_id": 21, "character": "Colonel of Legionnaires", "credit_id": "5643de15c3a36870dd003bcb", "gender": 2, "id": 148419, "name": "Eric Mayne", "order": 9, "profile_path": "/3JpQliE6d59qxh3QGZmgdJ4E9Ue.jpg"}, {"cast_id": 22, "character": "Man Bringing Dermot to Hogan", "credit_id": "5643de1f9251410a490037c4", "gender": 2, "id": 975692, "name": "Jack Pennick", "order": 10, "profile_path": "/dXf396URxLZF5i3R2ewz59yU0gW.jpg"}, {"cast_id": 23, "character": "Anne McDermott", "credit_id": "5643de2a9251410a3f003819", "gender": 0, "id": 1534702, "name": "Belle Stoddard", "order": 11, "profile_path": null}, {"cast_id": 24, "character": "Horse Race Spectator / Condemned Man in Flashback", "credit_id": "5643de3492514133ab003008", "gender": 2, "id": 4165, "name": "John Wayne", "order": 12, "profile_path": "/iw9gHSQj1l3TQeiJb5tNK2N8k2w.jpg"}], "crew": [{"credit_id": "52fe4b3ec3a36847f81f9c25", "department": "Directing", "gender": 2, "id": 8500, "job": "Director", "name": "John Ford", "profile_path": "/dEOu7wZjE9BH4kdADWh9eTM10U.jpg"}, {"credit_id": "52fe4b3ec3a36847f81f9c3f", "department": "Production", "gender": 2, "id": 8500, "job": "Producer", "name": "John Ford", "profile_path": "/dEOu7wZjE9BH4kdADWh9eTM10U.jpg"}, {"credit_id": "5643dd7bc3a36870dd003b93", "department": "Camera", "gender": 2, "id": 109609, "job": "Director of Photography", "name": "George Schneiderman", "profile_path": null}, {"credit_id": "5643dd97c3a36870ef003a23", "department": "Directing", "gender": 0, "id": 120259, "job": "Assistant Director", "name": "Philip Ford", "profile_path": "/9yjljmmiaFfiFQdK449ZNUPQdrQ.jpg"}, {"credit_id": "5643dcd792514133ab002f9c", "department": "Writing", "gender": 0, "id": 222572, "job": "Scenario Writer", "name": "Marion Orth", "profile_path": null}, {"credit_id": "5643dceac3a36870e8003718", "department": "Writing", "gender": 0, "id": 1004953, "job": "Writer", "name": "Willard Mack", "profile_path": "/2rXgCvjclDH6sanp7Or2JDI98Iz.jpg"}, {"credit_id": "5643dccfc3a36870e0003773", "department": "Writing", "gender": 0, "id": 1170213, "job": "Adaptation", "name": "Philip Klein", "profile_path": null}, {"credit_id": "5643dd8a9251410a440039f1", "department": "Editing", "gender": 0, "id": 1355356, "job": "Editor", "name": "Margaret Clancey", "profile_path": null}, {"credit_id": "5643dce2c3a36870e800370c", "department": "Writing", "gender": 0, "id": 1370570, "job": "Author", "name": "Brian Oswald Donn-Byrne", "profile_path": null}, {"credit_id": "5643dda29251410a4c003794", "department": "Crew", "gender": 0, "id": 1529476, "job": "Stunts", "name": "Audrey Scott", "profile_path": null}, {"credit_id": "5643dd169251410a440039ce", "department": "Sound", "gender": 0, "id": 1534697, "job": "Music", "name": "Tim Curran", "profile_path": null}]}}