{"adult": false, "backdrop_path": "/gDVyO5DaiqgmweEq1XZrc4clsTf.jpg", "belongs_to_collection": null, "budget": 0, "genres": [{"id": 35, "name": "Comedy"}], "homepage": null, "id": 11394, "imdb_id": "tt0388458", "original_language": "de", "original_title": "Jazzclub - Der fr\u00fche Vogel f\u00e4ngt den Wurm", "overview": "A musician tries to get by working several jobs.", "popularity": 2.556, "poster_path": "/ekEZGIkVHPrAuU5S5ngeeMYws5T.jpg", "production_companies": [], "production_countries": [{"iso_3166_1": "DE", "name": "Germany"}], "release_date": "2004-04-01", "revenue": 0, "runtime": 84, "spoken_languages": [{"iso_639_1": "de", "name": "Deutsch"}], "status": "Released", "tagline": "", "title": "Jazzclub - Der fr\u00fche Vogel f\u00e4ngt den Wurm", "video": false, "vote_average": 5.9, "vote_count": 12, "keywords": {"keywords": [{"id": 1157, "name": "husband wife relationship"}, {"id": 1416, "name": "jazz"}, {"id": 3017, "name": "jazz musician"}, {"id": 4344, "name": "musical"}, {"id": 5823, "name": "jazz club"}, {"id": 6038, "name": "marriage"}, {"id": 7074, "name": "paperboy"}]}, "similar": {"page": 1, "results": [{"id": 313369, "video": false, "vote_count": 11063, "vote_average": 7.9, "title": "La La Land", "release_date": "2016-11-29", "original_language": "en", "original_title": "La La Land", "genre_ids": [35, 18, 10402, 10749], "backdrop_path": "/fp6X6yhgcxzxCpmM0EVC6V9B8XB.jpg", "adult": false, "overview": "Mia, an aspiring actress, serves lattes to movie stars in between auditions and Sebastian, a jazz musician, scrapes by playing cocktail party gigs in dingy bars, but as success mounts they are faced with decisions that begin to fray the fragile fabric of their love affair, and the dreams they worked so hard to maintain in each other threaten to rip them apart.", "poster_path": "/ylXCdC106IKiarftHkcacasaAcb.jpg", "popularity": 39.654}, {"adult": false, "backdrop_path": "/70j4EAHwlbCPZgcKpW04RLtzyHD.jpg", "genre_ids": [35, 18, 10749], "id": 16085, "original_language": "en", "original_title": "Funny Girl", "overview": "The story of the life of comedienne Fanny Brice, from her early days in the Jewish slums of the Lower East Side, to the height of her career with the Ziegfeld Follies, including her marriage to and eventual divorce from her first husband, Nick Arnstein.", "poster_path": "/yaAx93dNbDCYkH9RfH2Rfn8KRWL.jpg", "release_date": "1968-09-19", "title": "Funny Girl", "video": false, "vote_average": 7.3, "vote_count": 185, "popularity": 9.355}, {"id": 872, "video": false, "vote_count": 1617, "vote_average": 8.2, "title": "Singin' in the Rain", "release_date": "1952-04-10", "original_language": "en", "original_title": "Singin' in the Rain", "genre_ids": [35, 10402, 10749], "backdrop_path": "/amW1YWQvcP8slDyDp1R652aVQZ7.jpg", "adult": false, "overview": "In 1927 Hollywood, a silent film production company and cast make a difficult transition to sound.", "poster_path": "/s39odBPtyutGBnEfBIpdm0fpRwv.jpg", "popularity": 17.295}, {"id": 18126, "video": false, "vote_count": 1217, "vote_average": 6.4, "title": "Hannah Montana: The Movie", "release_date": "2009-04-10", "original_language": "en", "original_title": "Hannah Montana: The Movie", "genre_ids": [35, 18, 10402, 10749, 10751], "backdrop_path": "/ezx3NkXNqf2KnJCP6Nfj1bfCFut.jpg", "adult": false, "overview": "As Hannah Montana's popularity begins to take over her life, Miley Stewart, on the urging from her father takes a trip to her hometown of Crowley Corners, Tennessee to get some perspective on what matters in life the most.", "poster_path": "/8pwbnmvshHj2yYPYlyJ8K8Yzecy.jpg", "popularity": 12.479}, {"id": 2005, "video": false, "vote_count": 1806, "vote_average": 6.7, "title": "Sister Act", "release_date": "1992-05-28", "original_language": "en", "original_title": "Sister Act", "genre_ids": [35, 10402], "backdrop_path": "/oaLqlJxt8TJSjsdfMpSkLexZ4l5.jpg", "adult": false, "overview": "A Reno singer witnesses a mob murder and the cops stash her in a nunnery to protect her from the mob's hitmen. The mother superior does not trust her, and takes steps to limit her influence on the other nuns. Eventually the singer rescues the failing choir and begins helping with community projects, which gets her an interview on TV\u2014and identification by the mob.", "poster_path": "/7wQxLtybiUbtC6tsJh9htFEmqq3.jpg", "popularity": 16.674}, {"id": 12102, "video": false, "vote_count": 1128, "vote_average": 7.5, "title": "Kramer vs. Kramer", "release_date": "1979-12-18", "original_language": "en", "original_title": "Kramer vs. Kramer", "genre_ids": [18], "backdrop_path": "/aE33zDunu8FTj76IXqJmHVbcRWg.jpg", "adult": false, "overview": "Ted Kramer is a career man for whom his work comes before his family. His wife Joanna cannot take this anymore, so she decides to leave him. Ted is now faced with the tasks of housekeeping and taking care of himself and their young son Billy.", "poster_path": "/oyYtH37h8rLUxlERoD49losVvlg.jpg", "popularity": 10.452}, {"id": 8998, "video": false, "vote_count": 315, "vote_average": 5.1, "title": "Friends with Money", "release_date": "2006-09-07", "original_language": "en", "original_title": "Friends with Money", "genre_ids": [35, 18, 10749], "backdrop_path": "/en0lEQ8neLgQ85sEZAC0hmsvyiW.jpg", "adult": false, "overview": "After she quits her lucrative job, Olivia finds herself unsure about her future and her relationships with her successful and wealthy friends.", "poster_path": "/138DFtHjGQcDK4vQavLJ51xEBjZ.jpg", "popularity": 11.295}, {"adult": false, "backdrop_path": "/4brEMzPazQE3hv3mogj6k1a29RP.jpg", "genre_ids": [10749, 14, 16], "id": 3933, "original_language": "en", "original_title": "Corpse Bride", "overview": "Set in a 19th-century european village, this stop-motion animation feature follows the story of Victor, a young man whisked away to the underworld and wed to a mysterious corpse bride, while his real bride Victoria waits bereft in the land of the living.", "poster_path": "/o9GbcdP7rOg2m1NyUnUR3ZwNcTE.jpg", "release_date": "2005-09-12", "title": "Corpse Bride", "video": false, "vote_average": 7.4, "vote_count": 4928, "popularity": 23.702}, {"adult": false, "backdrop_path": "/9zAAR78OTNBZxQYVojDj4pLHOWz.jpg", "genre_ids": [28, 12, 18], "id": 664, "original_language": "en", "original_title": "Twister", "overview": "TV weatherman Bill Harding is trying to get his tornado-hunter wife, Jo, to sign divorce papers so he can marry his girlfriend Melissa. But Mother Nature, in the form of a series of intense storms sweeping across Oklahoma, has other plans. Soon the three have joined the team of stormchasers as they attempt to insert a revolutionary measuring device into the very heart of several extremely violent tornados.", "poster_path": "/tKdDCkmb6obEhWEMLgGUUz5nDNs.jpg", "release_date": "1996-05-10", "title": "Twister", "video": false, "vote_average": 6.3, "vote_count": 1761, "popularity": 20.529}, {"id": 504608, "video": false, "vote_count": 1666, "vote_average": 7.4, "title": "Rocketman", "release_date": "2019-05-22", "original_language": "en", "original_title": "Rocketman", "genre_ids": [18, 10402], "backdrop_path": "/sZZJ42GrWKxSOfcrpI2TSFQa0AQ.jpg", "adult": false, "overview": "The story of Elton John's life, from his years as a prodigy at the Royal Academy of Music through his influential and enduring musical partnership with Bernie Taupin.", "poster_path": "/f4FF18ia7yTvHf2izNrHqBmgH8U.jpg", "popularity": 27.709}, {"adult": false, "backdrop_path": "/wfFTStTBWo3zIciBW4Eob3sarSz.jpg", "genre_ids": [35, 10749], "id": 3078, "original_language": "en", "original_title": "It Happened One Night", "overview": "A renegade reporter and a crazy young heiress meet on a bus heading for New York, and end up stuck with each other when the bus leaves them behind at one of the stops.", "poster_path": "/k63JqnFvkIGWGhjsqRiksZw2OSs.jpg", "release_date": "1934-02-22", "title": "It Happened One Night", "video": false, "vote_average": 7.9, "vote_count": 564, "popularity": 11.226}, {"id": 206296, "video": false, "vote_count": 244, "vote_average": 5.9, "title": "The Last Five Years", "release_date": "2014-11-03", "original_language": "en", "original_title": "The Last Five Years", "genre_ids": [35, 18, 10402, 10749], "backdrop_path": "/yTBd7vk8eHBvBSdxH6sTsnx1RpH.jpg", "adult": false, "overview": "In New York, a struggling actress and a successful writer sing about their failed marriage from two perspectives.", "poster_path": "/q9eIWmcL7GGjZQwjfINQuqLBJRM.jpg", "popularity": 10.589}, {"id": 10537, "video": false, "vote_count": 603, "vote_average": 6.9, "title": "The Doors", "release_date": "1991-03-01", "original_language": "en", "original_title": "The Doors", "genre_ids": [18, 10402], "backdrop_path": "/1rv5sW6Qs2YK2iOzIgwH3SJPIl1.jpg", "adult": false, "overview": "The story of the famous and influential 1960s rock band and its lead singer and composer, Jim Morrison.", "poster_path": "/9CkFrWAkg23YynYd2uJLyWznMZZ.jpg", "popularity": 14.573}, {"id": 30197, "video": false, "vote_count": 351, "vote_average": 7.4, "title": "The Producers", "release_date": "1967-11-22", "original_language": "en", "original_title": "The Producers", "genre_ids": [35], "backdrop_path": "/1pf5eObre2IdJw2qn2gDqaScRh.jpg", "adult": false, "overview": "Broadway producer, Max Bialystock and his accountant, Leo Bloom plan to make money by charming little old ladies to invest in a production many times over what it will actually cost, and then put on a sure-fire flop, so nobody will ask for their money back \u2013 and what can be a more certain flop than a tasteless musical celebrating Hitler.", "poster_path": "/xgKikS0QQcWS1CvhjbemeoBFd32.jpg", "popularity": 10.673}, {"adult": false, "backdrop_path": "/rGWzox5V7dv6KE1gYlZAZ2sUvKJ.jpg", "genre_ids": [18, 10749], "id": 16642, "original_language": "en", "original_title": "Days of Heaven", "overview": "In 1910, a Chicago steel worker accidentally kills his supervisor and flees to the Texas panhandle with his girlfriend and little sister to work harvesting wheat in the fields of a stoic farmer. A love triangle, a swarm of locusts, a hellish fire\u2014Malick captures it all with dreamlike authenticity, creating at once a timeless American idyll and a gritty evocation of turn-of-the-century labor.", "poster_path": "/rjw7tQbiBnbIeufyEt02oVickDM.jpg", "release_date": "1978-09-13", "title": "Days of Heaven", "video": false, "vote_average": 7.6, "vote_count": 459, "popularity": 9.625}, {"adult": false, "backdrop_path": "/amIl0MsLT0GP5ERwbodOPswYabr.jpg", "genre_ids": [35, 80, 9648], "id": 3529, "original_language": "en", "original_title": "The Thin Man", "overview": "A husband-and-wife detective team takes on the search for a missing inventor and almost get killed for their efforts.", "poster_path": "/rEXmQIgG8aHiZZbYAPdJjZNUxa.jpg", "release_date": "1934-05-25", "title": "The Thin Man", "video": false, "vote_average": 7.6, "vote_count": 199, "popularity": 9.383}, {"id": 2148, "video": false, "vote_count": 180, "vote_average": 6.6, "title": "The Cotton Club", "release_date": "1984-12-14", "original_language": "en", "original_title": "The Cotton Club", "genre_ids": [80, 18, 10402, 10749], "backdrop_path": "/79pVz4DfwCQcypxYDe3mJn3AHL1.jpg", "adult": false, "overview": "The story of the people that frequented Harlem's famous nightclubs, 'The Cotton Club', and those that ran it.", "poster_path": "/qigf5fWSH1tw7z424UVKg71UIOS.jpg", "popularity": 14.534}, {"id": 48988, "video": false, "vote_count": 1123, "vote_average": 5.5, "title": "Hall Pass", "release_date": "2011-02-25", "original_language": "en", "original_title": "Hall Pass", "genre_ids": [35, 10749], "backdrop_path": "/yIEq17CHNDhKC5xHdLlGTlrwgav.jpg", "adult": false, "overview": "When best buds Rick and Fred begin to show signs of restlessness at home, their wives take a bold approach to revitalize their marriages, they grant the guys a 'hall pass'\u2014one week of freedom to do whatever they want. At first, it seems like a dream come true, but they quickly discover that their expectations of the single life\u2014and themselves\u2014are completely and hilariously out of sync with reality.", "poster_path": "/tolXF24cKRVfqM9SPxVsi2UiKrP.jpg", "popularity": 18.158}, {"id": 32255, "video": false, "vote_count": 80, "vote_average": 7.5, "title": "The Palm Beach Story", "release_date": "1942-08-28", "original_language": "en", "original_title": "The Palm Beach Story", "genre_ids": [35, 10749], "backdrop_path": "/bvtXkrI1sstmoBP1QqXJLmcGOdk.jpg", "adult": false, "overview": "Gerry and Tom Jeffers are finding married life hard. Tom is an inventor/ architect and there is little money for them to live on. They are about to be thrown out of their apartment when Gerry meets rich businessman being shown around as a prospective tenant. He gives Gerry $700 to start life afresh but Tom refuses to believe her story and they quarrel. Gerry decides the marriage is over and heads to Palm Beach for a quick divorce but Tom has plans to stop her.", "poster_path": "/zif5rzeW1odL8KQKmVG8xMdo2co.jpg", "popularity": 9.601}, {"adult": false, "backdrop_path": "/3pZj7AHo8YvWb1TRhD8tdTwc7Dh.jpg", "genre_ids": [18], "id": 31900, "original_language": "fr", "original_title": "Gainsbourg (vie h\u00e9ro\u00efque)", "overview": "A glimpse at the life of French singer Serge Gainsbourg, from growing up in 1940s Nazi-occupied Paris through his successful song-writing years in the 1960s to his death in 1991 at the age of 62.", "poster_path": "/psrukBNrMfE00ibI2G1D4eV0oYS.jpg", "release_date": "2010-01-20", "title": "Gainsbourg: A Heroic Life", "video": false, "vote_average": 7.0, "vote_count": 162, "popularity": 8.575}], "total_pages": 16, "total_results": 311}, "recommendations": {"page": 1, "results": [{"adult": false, "backdrop_path": "/84ohXg4VtTumqPV0WOklirNjP6m.jpg", "genre_ids": [35], "id": 1655, "original_language": "de", "original_title": "Praxis Dr. Hasenbein", "overview": "No overview found.", "poster_path": "/iFvQz3WXtoN7VnRYEf4S4Tarm6H.jpg", "release_date": "1997-01-30", "title": "Praxis Dr. Hasenbein", "video": false, "vote_average": 6.6, "vote_count": 16, "popularity": 1.568}, {"adult": false, "backdrop_path": "/nB2LWcQzZFwKX3ZTST0HG9NQMNT.jpg", "genre_ids": [99], "id": 97163, "original_language": "de", "original_title": "Eisenzeit", "overview": "documentary", "poster_path": "/wXuWAHyYk27KqNb6XiMIg1uso6r.jpg", "release_date": "1992-02-21", "title": "Eisenzeit", "video": false, "vote_average": 5.3, "vote_count": 5, "popularity": 0.6}, {"adult": false, "backdrop_path": "/fPy8zbYcqcKupx2ziixSuH4NKAu.jpg", "genre_ids": [28, 18, 53], "id": 5465, "original_language": "de", "original_title": "Das Millionenspiel", "overview": "A candidate in a game show is hunted by three men. He will get a Million DMark, if he survives for a week; the hunters will get the money, if they can kill the candidate. The audience of the show is watching the transmissions of twenty camera teams filming the hunt. The showmaster appeals to the TV-viewers to help either the candidate or the hunters, whomever they want.", "poster_path": "/qpjnNhavwuthxprOjMe84oeUosQ.jpg", "release_date": "1970-10-18", "title": "The Million Game", "video": false, "vote_average": 6.8, "vote_count": 16, "popularity": 2.642}, {"adult": false, "backdrop_path": "/1ACYBwluDmZta476idVBwaB7o1W.jpg", "genre_ids": [35, 80], "id": 1652, "original_language": "de", "original_title": "00 Schneider - Jagd auf Nihil Baxter", "overview": "The funny clown Bratislav Metulskie is found dead in circus \"Apollo\". The retired commissioner 00 Schneider is asked to assume control of the case. Schneider and his aged sidekick K\u00f6rschgen investigate to find the murderer.", "poster_path": "/2FBgfxKMWmHF4HsUmzdv00sKQdk.jpg", "release_date": "1994-12-21", "title": "00 Schneider - Jagd auf Nihil Baxter", "video": false, "vote_average": 6.6, "vote_count": 28, "popularity": 3.478}, {"adult": false, "backdrop_path": "/eIuRKZrDZtzyhHc4DBIp6IZ8OS1.jpg", "genre_ids": [35], "id": 11339, "original_language": "de", "original_title": "Johnny Flash", "overview": "No overview found.", "poster_path": "/atE04XG9feaGcEiNmwB7dImWBHd.jpg", "release_date": "1986-10-23", "title": "Johnny Flash", "video": false, "vote_average": 7.4, "vote_count": 5, "popularity": 1.393}, {"adult": false, "backdrop_path": "/af20SvgL0NQTB1ofX6DyJJOIwUp.jpg", "genre_ids": [80, 18], "id": 6585, "original_language": "de", "original_title": "Edgar Wallace: Das Gasthaus an der Themse", "overview": "A serial killer named The Shark is terrorizing London by killing his victims with a speargun and then, dressed in a scruba-diver's wetsuit, using the city's sewer tunnels to make his getaway.", "poster_path": "/dFAeGeuqHrDACsaUVpSJGaN06G3.jpg", "release_date": "1962-09-28", "title": "The Inn on the River", "video": false, "vote_average": 5.1, "vote_count": 7, "popularity": 2.215}, {"adult": false, "backdrop_path": "/fO9GHYNy0I376bjmzuPeWvD1sJj.jpg", "genre_ids": [18], "id": 65242, "original_language": "de", "original_title": "Das wahre Leben", "overview": "Inner chaos breaks free in two families.", "poster_path": "/a4nQvFpKqdyBFejiiobEuMwHRIC.jpg", "release_date": "2007-03-08", "title": "Life Actually", "video": false, "vote_average": 6.4, "vote_count": 8, "popularity": 1.75}, {"adult": false, "backdrop_path": "/igSRBqnCSi1mq6VdSqSrZgz4xrC.jpg", "genre_ids": [18, 36, 53], "id": 45694, "original_language": "de", "original_title": "Der junge T\u00f6rless", "overview": "At an Austrian boys' boarding school in the early 1900s, shy, intelligent T\u00f6rless observes the sadistic behavior of his fellow students, doing nothing to help a victimized classmate\u2014until the torture goes too far. Adapted from Robert Musil's acclaimed novel, Young T\u00f6rless launched the New German Cinema movement and garnered the 1966 Cannes Film Festival International Critics' Prize for first-time director Volker Schl\u00f6ndorff.", "poster_path": "/rJWcKXABcww5u2kgPEQTYQ85G7d.jpg", "release_date": "1966-05-20", "title": "Young T\u00f6rless", "video": false, "vote_average": 6.4, "vote_count": 18, "popularity": 5.575}, {"adult": false, "backdrop_path": "/1DVQLYqr67x5dK2M61p6biFbdpA.jpg", "genre_ids": [18], "id": 42203, "original_language": "de", "original_title": "Despair", "overview": "Germany in the early 1930s. Against the backdrop of the Nazis' rise, Hermann Hermann, a Russian \u00e9migr\u00e9 and chocolate magnate, goes slowly mad. It begins with his seating himself in a chair to observe himself making love to his wife, Lydia, a zaftig empty-headed siren who is also sleeping with her cousin. Hermann is soon given to intemperate outbursts at his workers, other businessmen, and strangers. Then, he meets Felix, an itinerant laborer, whom he delusionally believes looks exactly like himself. Armed with a new life insurance policy, he hatches an elaborate plot in the belief it will free him of all his worries.", "poster_path": "/xmFU8sn37XYx9yxNaUZUp48M5GM.jpg", "release_date": "1978-05-19", "title": "Despair", "video": false, "vote_average": 7.2, "vote_count": 15, "popularity": 4.552}, {"id": 59566, "video": false, "vote_count": 13, "vote_average": 6.5, "title": "Think Fast, Mr. Moto", "release_date": "1937-07-23", "original_language": "en", "original_title": "Think Fast, Mr. Moto", "genre_ids": [80, 18, 9648, 53], "backdrop_path": "/nzGkW9hwH0i2m9zibaXuUzV0J1t.jpg", "adult": false, "overview": "When his import/export business infiltrated by international diamond smugglers, Mr. Moto must follow a trail of clues littered with beautiful women, glittering gems and deadly assassins. Making his way from the mysterious streets of San Francisco's Chinatown to the dark and dangerous alleys of Shanghai, Mr. Moto will stop at nothing to bring the culprits to justice...even if it means making the ultimate sacrifice!", "poster_path": "/9u8Iktaz63DMDljzaPUNB8mkkWX.jpg", "popularity": 4.567}, {"adult": false, "backdrop_path": "/cWdvw3KcJHRTTojBrBOj96S6dy5.jpg", "genre_ids": [10402], "id": 98065, "original_language": "en", "original_title": "Girl Walk // All Day", "overview": "A feature-length dance music video and tale of urban exploration that follows three dancers across New York City. They turn the city's sidewalks, parks, and stadiums into an evolving stage as a story of rebellion, love, and discovery unfolds. Shot entirely in public spaces, and funded entirely by crowd-sourcing, the film is a statement about the power of community and public space. Set to the album \"All Day\" by mashup musician Girl Talk, it's also an insanely fun love letter to New York.", "poster_path": "/aex8nH9kbOzYYUEv4iJMiys6bxn.jpg", "release_date": "2011-12-08", "title": "Girl Walk // All Day", "video": false, "vote_average": 7.6, "vote_count": 9, "popularity": 3.97}, {"adult": false, "backdrop_path": "/u2Ry2w6gMyap200878CYywmTi4X.jpg", "genre_ids": [35, 18, 10402], "id": 9690, "original_language": "de", "original_title": "Verschwende deine Jugend", "overview": "No overview found.", "poster_path": "/46U0iMYGVLyNLhf3GvRO2ddeRO0.jpg", "release_date": "2003-07-03", "title": "Verschwende deine Jugend", "video": false, "vote_average": 6.7, "vote_count": 9, "popularity": 3.24}, {"adult": false, "backdrop_path": "/ehf5jCbrl2RaSnsnDhyWZqnx5qk.jpg", "genre_ids": [35], "id": 16014, "original_language": "da", "original_title": "Spr\u00e6ngfarlig bombe", "overview": "Tony has recently been released from a sentence for violent behaviour. He promises to improve his ways and is finally granted a few hours alone with his two children. They celebrate the reunion by going to the movies to see a new film by the famous, critically acclaimed Danish director Claus Volter. But the film is not the masterpiece it is said to be on the poster; the children are crying and Tony cannot get the money back he spent on tickets and candy. Tony does not give up; he seeks out Claus Volter in order to get an explanation and a refund. It is however easier said than done to get money out of a world-renowned filmmaker.", "poster_path": "/z4TYjt1MBd7Rz1gavRnvsA7OqEB.jpg", "release_date": "2006-08-25", "title": "Clash of Egos", "video": false, "vote_average": 5.9, "vote_count": 16, "popularity": 4.929}, {"adult": false, "backdrop_path": "/4xN2APO6Oz2x9BwgZXQpTrfgEo8.jpg", "genre_ids": [99, 18], "id": 24654, "original_language": "en", "original_title": "What the Bleep! Down the Rabbit Hole", "overview": "Interviews with scientists and authors, animated bits, and a storyline involving a deaf photographer are used in this docudrama to illustrate the link between quantum mechanics, neurobiology, human consciousness and day-to-day reality.", "poster_path": "/zdt5DMe7qquNiqEjQ7mrl4De16P.jpg", "release_date": "2006-02-03", "title": "What the Bleep! Down the Rabbit Hole", "video": false, "vote_average": 4.8, "vote_count": 10, "popularity": 3.849}, {"adult": false, "backdrop_path": "/rqzvk1CDQNWGh5icwQEAuBCZX6Q.jpg", "genre_ids": [35], "id": 6162, "original_language": "de", "original_title": "Morgen, ihr Luschen! Der Ausbilder-Schmidt-Film", "overview": "", "poster_path": "/cytNEB0Xkiz905lDB6W6t3L8j1G.jpg", "release_date": "2009-04-23", "title": "Morgen, ihr Luschen! Der Ausbilder-Schmidt-Film", "video": false, "vote_average": 5.2, "vote_count": 13, "popularity": 2.532}, {"id": 10932, "video": false, "vote_count": 11, "vote_average": 6.1, "title": "Der letzte Lude", "release_date": "2003-07-10", "original_language": "de", "original_title": "Der letzte Lude", "genre_ids": [35], "backdrop_path": "/iB0Ur1L8HkZBXiQn4yiv4hhEVoD.jpg", "adult": false, "overview": "The batty sandwich seller and wannabe pimp Andy Ommsen finally gets his chance in the red light district. A reckless underworld-boss hires him to guard the beautiful go-go-dance Anica. Unfortunately, this collides with  Andy's second job, which is to show the c-grade actor Timo how to behave as a real pimp.", "poster_path": "/ssiqMTIvg5ZHS3KIie4Ohg69Kqh.jpg", "popularity": 4.364}, {"adult": false, "backdrop_path": "/jNT1hPH6GuJaZ0KFobAOXOv2X7E.jpg", "genre_ids": [35, 37], "id": 1659, "original_language": "de", "original_title": "Texas - Doc Snyder h\u00e4lt die Welt in Atem", "overview": "No overview found.", "poster_path": "/7RHuxP60mMnjGlx16A2AZY68zUn.jpg", "release_date": "1993-01-01", "title": "Texas - Doc Snyder h\u00e4lt die Welt in Atem", "video": false, "vote_average": 6.5, "vote_count": 19, "popularity": 2.672}, {"id": 94592, "video": false, "vote_count": 9, "vote_average": 5.8, "title": "Vinylmania: When Life Runs at 33 Revolutions Per Minute", "release_date": "2012-01-01", "original_language": "en", "original_title": "Vinylmania: When Life Runs at 33 Revolutions Per Minute", "genre_ids": [99], "backdrop_path": "/lbo3IHFjCuscarf3ijSoIrSAOvG.jpg", "adult": false, "overview": "My mother used to wake me up with a vinyl record. It's the first thing I remember about life. Many years have passed but vinyl records have never abandoned me. And you? Have you ever listened to a vinyl record? With its unique sound and crackling that gives you butterflies. Have you ever plunged into the colours of the sleeves artwork? Have you smelled it? Music captures a unique taste, seductive. In \"Vinylmania\" the director guides us through the grooves of an object that has never lost its soul. He investigates what makes it so legendary in a world dominated by liquid music: Simple nostalgia? Possession? The search for an idenitity? A cry against the fast food music? The digital river that has no heart or soul, just ones and zeros...", "poster_path": "/xCyC8wL9YFWn8XklohrQnquEfGN.jpg", "popularity": 2.011}, {"adult": false, "backdrop_path": "/n4ckT8Y37VXtc136WfttUj5mZnS.jpg", "genre_ids": [10402, 18, 10749], "id": 62489, "original_language": "de", "original_title": "Bedways", "overview": "A huge, run-down apartment in Berlin Mitte. Two women and a man, rehearsals for a movie about love and sex, that will never be shot. Acting and reality mingle into a dangerous melange. Berlin is the shelter, love is impossible, flesh is the law.", "poster_path": "/kcHqVzIcneQI6r70GP5n4ulsvXM.jpg", "release_date": "2010-10-07", "title": "Bedways", "video": false, "vote_average": 4.4, "vote_count": 15, "popularity": 7.512}, {"adult": false, "backdrop_path": "/lqYG4hFMi3Xi0uXAYHzvAnijdXT.jpg", "genre_ids": [35], "id": 138820, "original_language": "de", "original_title": "00 Schneider - Im Wendekreis der Eidechse", "overview": "A dangerous gangster called the Lizard escaped from prison. He steals chickens and spits on old ladies. There's only one man who can catch him: the commissioner Roy Schneider!", "poster_path": "/y8jwCEQ4Fw6FZDGpN9e25s8K2ef.jpg", "release_date": "2013-06-30", "title": "00 Schneider - Im Wendekreis der Eidechse", "video": false, "vote_average": 5.0, "vote_count": 24, "popularity": 3.413}], "total_pages": 1, "total_results": 20}, "credits": {"cast": [{"cast_id": 8, "character": "Teddy Schu, Rodriguez Faszanatas, Professor Henry, K\u00e4pt\u2019n Silver", "credit_id": "52fe44379251416c7502ce37", "gender": 2, "id": 18400, "name": "Helge Schneider", "order": 0, "profile_path": "/jM4q7QLfAOF8jpnKcQbVa9VV9mG.jpg"}, {"cast_id": 13, "character": "Zanderdame", "credit_id": "5353b4fe0e0a26560e004a1f", "gender": 1, "id": 38969, "name": "Tana Schanzara", "order": 1, "profile_path": "/dE1EGNmmnjK6dmkA6NlHb2fgYqC.jpg"}, {"cast_id": 14, "character": "Willis Bruder Theodor", "credit_id": "5353b51b0e0a265603004a22", "gender": 0, "id": 18420, "name": "Andreas Kunze", "order": 2, "profile_path": null}], "crew": [{"credit_id": "52fe44379251416c7502ce15", "department": "Directing", "gender": 2, "id": 18400, "job": "Director", "name": "Helge Schneider", "profile_path": "/jM4q7QLfAOF8jpnKcQbVa9VV9mG.jpg"}, {"credit_id": "52fe44379251416c7502ce1b", "department": "Writing", "gender": 2, "id": 18400, "job": "Screenplay", "name": "Helge Schneider", "profile_path": "/jM4q7QLfAOF8jpnKcQbVa9VV9mG.jpg"}, {"credit_id": "52fe44379251416c7502ce21", "department": "Sound", "gender": 2, "id": 18400, "job": "Original Music Composer", "name": "Helge Schneider", "profile_path": "/jM4q7QLfAOF8jpnKcQbVa9VV9mG.jpg"}, {"credit_id": "52fe44379251416c7502ce27", "department": "Writing", "gender": 0, "id": 18397, "job": "Screenplay", "name": "Andrea Schumacher", "profile_path": null}, {"credit_id": "52fe44379251416c7502ce2d", "department": "Editing", "gender": 0, "id": 18397, "job": "Editor", "name": "Andrea Schumacher", "profile_path": null}, {"credit_id": "52fe44379251416c7502ce33", "department": "Camera", "gender": 0, "id": 69205, "job": "Director of Photography", "name": "Voxi B\u00e4renklau", "profile_path": null}, {"credit_id": "52fe44379251416c7502ce49", "department": "Production", "gender": 2, "id": 17732, "job": "Producer", "name": "Hanno Huth", "profile_path": null}]}}