{"adult": false, "backdrop_path": "/giqofKrz6xAfQqSHmW1vHQDNIzT.jpg", "belongs_to_collection": null, "budget": 1850000, "genres": [{"id": 18, "name": "Drama"}, {"id": 27, "name": "Horror"}], "homepage": null, "id": 114162, "imdb_id": "tt0237680", "original_language": "en", "original_title": "Sacred Flesh", "overview": "Taunted by visions of Mary Magdalene, who reveals the confessions of the younger nuns at the convent, the Mother Superior's mind is filled with the violent, sexual acts of her fellow sisters.", "popularity": 3.851, "poster_path": "/y7GuYV0o8AZTznk4lV4dEuXDb3W.jpg", "production_companies": [{"id": 18852, "logo_path": "/zAUMqxK7SnIh00g788FAgx7F8Fg.png", "name": "Heretic Films", "origin_country": "US"}], "production_countries": [{"iso_3166_1": "GB", "name": "United Kingdom"}], "release_date": "2000-01-01", "revenue": 0, "runtime": 75, "spoken_languages": [{"iso_639_1": "en", "name": "English"}], "status": "Released", "tagline": "In the midst of life we are in death.", "title": "Sacred Flesh", "video": false, "vote_average": 3.3, "vote_count": 9, "keywords": {"keywords": [{"id": 745, "name": "nun"}, {"id": 9712, "name": "possession"}, {"id": 10093, "name": "priest"}, {"id": 10629, "name": "vision"}, {"id": 161261, "name": "demonic possession"}, {"id": 195222, "name": "nunsploitation"}]}, "similar": {"page": 1, "results": [{"adult": false, "backdrop_path": "/xcjJ5khg2yzOa282mza39Lbrm7j.jpg", "genre_ids": [27], "id": 9552, "original_language": "en", "original_title": "The Exorcist", "overview": "12-year-old Regan MacNeil begins to adapt an explicit new personality as strange events befall the local area of Georgetown. Her mother becomes torn between science and superstition in a desperate bid to save her daughter, and ultimately turns to her last hope: Father Damien Karras, a troubled priest who is struggling with his own faith.", "poster_path": "/4ucLGcXVVSVnsfkGtbLY4XAius8.jpg", "release_date": "1973-12-26", "title": "The Exorcist", "video": false, "vote_average": 7.6, "vote_count": 4359, "popularity": 21.597}, {"id": 16235, "video": false, "vote_count": 144, "vote_average": 5.8, "title": "Amityville II: The Possession", "release_date": "1982-09-24", "original_language": "en", "original_title": "Amityville II: The Possession", "genre_ids": [27], "backdrop_path": "/rZHdqFaKU6FuSCfchnyjm8nMjrd.jpg", "adult": false, "overview": "The Lutz family have managed to flee their home with their lives intact, but before them, another family lived in this house and were caught up in the original evil who weren't so lucky...", "poster_path": "/qzvf4p6bKyadZQo2aZFsR4uuT2W.jpg", "popularity": 12.682}, {"id": 293670, "video": false, "vote_count": 669, "vote_average": 7.2, "title": "The Wailing", "release_date": "2016-05-12", "original_language": "ko", "original_title": "\uace1\uc131", "genre_ids": [27, 9648, 53], "backdrop_path": "/pthuMQIXSRDdGGS8p6n6IG21ZRJ.jpg", "adult": false, "overview": "A stranger arrives in a little village and soon after a mysterious sickness starts spreading. A policeman is drawn into the incident and is forced to solve the mystery in order to save his daughter.", "poster_path": "/aijmq2I4O8zZrJtqAZm6o4tOM6g.jpg", "popularity": 13.585}, {"id": 524789, "video": false, "vote_count": 61, "vote_average": 5.1, "title": "The Devil's Doorway", "release_date": "2018-07-13", "original_language": "en", "original_title": "The Devil's Doorway", "genre_ids": [27], "backdrop_path": "/6VelCzCcDV5aIjl4HsfvicK93Ik.jpg", "adult": false, "overview": "In the autumn of 1960, Father Thomas Riley and Father John Thornton were sent by the Vatican to investigate a miraculous event in an Irish home for 'fallen women', only to uncover something much more horrific.", "poster_path": "/mOFn9lYmI8SAi15nhht37rhwxzT.jpg", "popularity": 7.761}, {"id": 394830, "video": false, "vote_count": 239, "vote_average": 5.4, "title": "The Crucifixion", "release_date": "2017-04-27", "original_language": "en", "original_title": "The Crucifixion", "genre_ids": [27, 9648, 53], "backdrop_path": "/rrtjyzKnngEp2akiCM0RtUExPV4.jpg", "adult": false, "overview": "When a priest is jailed for the murder of a nun on whom he was performing an exorcism, an investigative journalist strives to determine whether he in fact murdered a mentally ill person, or if he lost the battle with a demonic presence.", "poster_path": "/yxTFHGcS0AJab3olU9BjABf5Ogx.jpg", "popularity": 12.077}, {"adult": false, "backdrop_path": "/sABEfSEb3ZTu8eO0q20sixezbVY.jpg", "genre_ids": [27, 53, 14, 18], "id": 11586, "original_language": "en", "original_title": "Exorcist II: The Heretic", "overview": "Bizarre nightmares plague Regan MacNeil four years after her possession and exorcism. Has the demon returned? And if so, can the combined faith and knowledge of a Vatican investigator and a hypnotic research specialist free her from its grasp?", "poster_path": "/jIVYbxsp6y80wyfLlnKkRc9rI6Q.jpg", "release_date": "1977-06-17", "title": "Exorcist II: The Heretic", "video": false, "vote_average": 4.5, "vote_count": 296, "popularity": 10.908}, {"id": 184346, "video": false, "vote_count": 1219, "vote_average": 6.1, "title": "Deliver Us from Evil", "release_date": "2014-07-01", "original_language": "en", "original_title": "Deliver Us from Evil", "genre_ids": [80, 27, 53], "backdrop_path": "/h0jrxKeDXS6VKnUnJayXLTo6PDx.jpg", "adult": false, "overview": "When a frightening wave of violence sweeps through New York City, troubled cop Sarchie fails to find a rational explanation for the bizarre crimes. However, his eyes are opened to a frightening alternate reality when renegade Jesuit priest Mendoza convinces him that demonic possession may be to blame for the gruesome murders. Together, they wage a valiant supernatural struggle to rid the city of an otherworldly evil.", "poster_path": "/jgtStjg33PH3TwBrMKKhvNL5J1c.jpg", "popularity": 13.592}, {"id": 27770, "video": false, "vote_count": 54, "vote_average": 4.8, "title": "Sometimes They Come Back... Again", "release_date": "1996-09-03", "original_language": "en", "original_title": "Sometimes They Come Back... Again", "genre_ids": [27], "backdrop_path": "/lbmw6KlWMK4SmqjBrjA8Bjas0ui.jpg", "adult": false, "overview": "Jon Porter returns to his hometown after the sudden and bizarre death of his mother. He hopes to leave as soon as the funeral is over but it's too late. The sinister forces that caused his sister's brutal murder 30 years ago are back. Jon knows the nightmare can't continue. He must stand up to his fear and exorcise the demons who have risen again to take posession of his beautiful teenage daughter - body and soul.", "poster_path": "/1AP3E6kGBt4MLMwPZCh3FpmSane.jpg", "popularity": 7.507}, {"id": 11026, "video": false, "vote_count": 383, "vote_average": 5.1, "title": "Exorcist: The Beginning", "release_date": "2004-08-20", "original_language": "en", "original_title": "Exorcist: The Beginning", "genre_ids": [27, 9648, 53], "backdrop_path": "/nJeQbUwTPnFdy9OKgOgERttp16v.jpg", "adult": false, "overview": "Having lived through traumatizing events during WWII, Father Lankester Merrin takes a sabbatical from the Church to conduct archaeological excavations in British-administered East Africa. Merrin unearths an ancient Byzantine church believed have been built and then immediately buried to keep down evil from the crypt below. The natives are convinced that uncovering the church has unleashed a demon, and begin to violently clash with the British military troops. As the village rapidly disintegrates into chaos and war, Merrin must face-off with the demon which has taken possession of somebody close to him.", "poster_path": "/6ZX7GVR6uTTNzYPMNeECXjytAPa.jpg", "popularity": 11.489}, {"id": 493922, "video": false, "vote_count": 3300, "vote_average": 7.1, "title": "Hereditary", "release_date": "2018-06-07", "original_language": "en", "original_title": "Hereditary", "genre_ids": [27, 9648, 53], "backdrop_path": "/4DUoPZOHdPuROP4nyEIsPaMIiQl.jpg", "adult": false, "overview": "When Ellen, the matriarch of the Graham family, passes away, her daughter\u2019s family begins to unravel cryptic and increasingly terrifying secrets about their ancestry.", "poster_path": "/lHV8HHlhwNup2VbpiACtlKzaGIQ.jpg", "popularity": 26.313}, {"id": 635, "video": false, "vote_count": 727, "vote_average": 7.2, "title": "Angel Heart", "release_date": "1987-03-06", "original_language": "en", "original_title": "Angel Heart", "genre_ids": [27, 9648], "backdrop_path": "/lMsT7WcLHVucDsOG2aUlm8AbkvZ.jpg", "adult": false, "overview": "Down-and-out private detective Harry Angel is ordered by the mysterious Louis Cyphre to go on a mission to find a missing person. His routine failure soon leads to a bloody spar with himself, as he goes on a supernatural journey into his own soul.", "poster_path": "/xFtrVJWygDiK2iZluUxNwuQZ6Sm.jpg", "popularity": 14.863}, {"id": 439079, "video": false, "vote_count": 3337, "vote_average": 5.6, "title": "The Nun", "release_date": "2018-09-05", "original_language": "en", "original_title": "The Nun", "genre_ids": [27, 9648, 53], "backdrop_path": "/fgsHxz21B27hOOqQBiw9L6yWcM7.jpg", "adult": false, "overview": "When a young nun at a cloistered abbey in Romania takes her own life, a priest with a haunted past and a novitiate on the threshold of her final vows are sent by the Vatican to investigate. Together they uncover the order\u2019s unholy secret. Risking not only their lives but their faith and their very souls, they confront a malevolent force in the form of the same demonic nun that first terrorized audiences in \u201cThe Conjuring 2\u201d as the abbey becomes a horrific battleground between the living and the damned.", "poster_path": "/sFC1ElvoKGdHJIWRpNB3xWJ9lJA.jpg", "popularity": 29.576}, {"adult": false, "backdrop_path": "/o8u0NyEigCEaZHBdCYTRfXR8U4i.jpg", "genre_ids": [27, 9648, 53], "id": 396422, "original_language": "en", "original_title": "Annabelle: Creation", "overview": "Several years after the tragic death of their little girl, a doll maker and his wife welcome a nun and several girls from a shuttered orphanage into their home, soon becoming the target of the doll maker's possessed creation\u2014Annabelle.", "poster_path": "/f7pn0VD3QpEXH8sETFNUow4o7hz.jpg", "release_date": "2017-08-03", "title": "Annabelle: Creation", "video": false, "vote_average": 6.5, "vote_count": 3553, "popularity": 20.881}, {"adult": false, "backdrop_path": "/slpgZisYNapLoN9FWXqDOC1ExbU.jpg", "genre_ids": [27, 9648, 53], "id": 259693, "original_language": "en", "original_title": "The Conjuring 2", "overview": "Lorraine and Ed Warren travel to north London to help a single mother raising four children alone in a house plagued by malicious spirits.", "poster_path": "/7GUzvvrb6hbOWl8l8YkaS4fgTDT.jpg", "release_date": "2016-05-13", "title": "The Conjuring 2", "video": false, "vote_average": 7.2, "vote_count": 4651, "popularity": 26.258}, {"adult": false, "backdrop_path": "/y6UDPkSAcO08O9dmijgZ7tYw4HK.jpg", "genre_ids": [18, 14, 27], "id": 561, "original_language": "en", "original_title": "Constantine", "overview": "John Constantine has literally been to Hell and back. When he teams up with a policewoman to solve the mysterious suicide of her twin sister, their investigation takes them through the world of demons and angels that exists beneath the landscape of contemporary Los Angeles.", "poster_path": "/qYTerimWp1t1zSEKknn9mByhwbX.jpg", "release_date": "2005-02-08", "title": "Constantine", "video": false, "vote_average": 6.8, "vote_count": 3675, "popularity": 18.113}, {"adult": false, "backdrop_path": "/2gKX53lskaCYk9ycXmaDJKqWiy.jpg", "genre_ids": [27], "id": 250546, "original_language": "en", "original_title": "Annabelle", "overview": "John Form has found the perfect gift for his expectant wife, Mia - a beautiful, rare vintage doll in a pure white wedding dress. But Mia's delight with Annabelle doesn't last long. On one horrific night, their home is invaded by members of a satanic cult, who violently attack the couple. Spilled blood and terror are not all they leave behind. The cultists have conjured an entity so malevolent that nothing they did will compare to the sinister conduit to the damned that is now... Annabelle.", "poster_path": "/yAgxM61Sn0dYML4C9v3MJFp5zPI.jpg", "release_date": "2014-10-02", "title": "Annabelle", "video": false, "vote_average": 5.6, "vote_count": 3883, "popularity": 16.599}, {"adult": false, "backdrop_path": "/up3qRTA6flt06YddRJ3YlRVQO2k.jpg", "genre_ids": [53, 27], "id": 289416, "original_language": "en", "original_title": "Grace", "overview": "A unique horror film told from the first-person perspective of Grace - a naive, virginal college freshman trying to deal with campus culture and her outgoing roommate as an evil entity takes over her body and unleashes chaos.", "poster_path": "/tM6UP4eFe5irkMD1e0aMAEAquGP.jpg", "release_date": "2014-10-28", "title": "Grace", "video": false, "vote_average": 4.7, "vote_count": 83, "popularity": 7.435}, {"id": 13515, "video": false, "vote_count": 1001, "vote_average": 6.1, "title": "Mirrors", "release_date": "2008-08-15", "original_language": "en", "original_title": "Mirrors", "genre_ids": [18, 27, 9648, 53], "backdrop_path": "/v2t6Zbg6X0LeklL3A5iQsz4p4sh.jpg", "adult": false, "overview": "An ex-cop and his family are the target of an evil force that is using mirrors as a gateway into their home.", "poster_path": "/h0Lf0PoLqvcDDpWhvCpiLGSREmp.jpg", "popularity": 21.873}, {"adult": false, "backdrop_path": "/59baGxEztxeXW1oFjs8EBgXxTXk.jpg", "genre_ids": [27, 53], "id": 91586, "original_language": "en", "original_title": "Insidious: Chapter 2", "overview": "The haunted Lambert family seeks to uncover the mysterious childhood secret that has left them dangerously connected to the spirit world.", "poster_path": "/vmWgw1Lsc6bHThA6S2k8fPsROaI.jpg", "release_date": "2013-09-12", "title": "Insidious: Chapter 2", "video": false, "vote_average": 6.6, "vote_count": 2515, "popularity": 21.591}, {"id": 588, "video": false, "vote_count": 2408, "vote_average": 6.4, "title": "Silent Hill", "release_date": "2006-04-21", "original_language": "en", "original_title": "Silent Hill", "genre_ids": [27, 9648], "backdrop_path": "/6tfW4BjdgwuYSD7gaEMEEPoDcpH.jpg", "adult": false, "overview": "The eerie and deserted ghost town of Silent Hill draws a young mother desperate to find a cure for her only child's illness. Unable to accept the doctor's diagnosis that her daughter should be permanently institutionalized for psychiatric care, Rose flees with her child, heading for the abandoned town in search of answers \u2013 and ignoring the protests of her husband. It's soon clear this place is unlike anywhere she's ever been. It's smothered by fog, inhabited by a variety of strange beings and periodically overcome by a living 'darkness' that literally transforms everything it touches. As Rose searches for her little girl, she begins to learn the history of the strange town and realizes that her daughter is just a pawn in a larger game.", "poster_path": "/4Zz9cF8S4E7DITosNYh3spybYJb.jpg", "popularity": 20.72}], "total_pages": 10, "total_results": 184}, "recommendations": {"page": 1, "results": [{"adult": false, "backdrop_path": "/btXogeob35yJP4BahFq5hudxguk.jpg", "genre_ids": [35, 27], "id": 79075, "original_language": "fr", "original_title": "BAGMAN Profession: Meurtrier", "overview": "Bagman, a killer with a paper bag on the head, kills anybody who pronounces his name three times. When a gang of gangsters meets a girl who escaped the killer, they call Bagman and a violent battle ensues.", "poster_path": "/sslOXZKUaDWUpPB3sDTlJvpeZG2.jpg", "release_date": "2004-10-30", "title": "BAGMAN Profession: Meurtrier", "video": false, "vote_average": 5.5, "vote_count": 10, "popularity": 1.461}, {"adult": false, "backdrop_path": "/84S1qqIEEJl2SX62JHEqoJQ3MsB.jpg", "genre_ids": [28, 80], "id": 44267, "original_language": "cn", "original_title": "Yeshou xingjing", "overview": "Ruthlessly realistic, and vivid and unremitting in its uncompromising brutality and honesty, Beast Cops is a visceral and hard-hitting exploration of the dichotomous existence of two cops charged with upholding the law, while balancing on a moral knife-edge. Compelling and controversial, with a breakout performance of startling intensity from leading man Anthony Wong, this raw and enticing action-thriller has mesmerized audiences worldwide with its disturbing examination of the subjective and marginal morality, which inhabits the uncertain and ambiguous world of law enforcement.", "poster_path": "/r1kz0gAYZCeB8mLDzxG7hmenrdV.jpg", "release_date": "1998-04-09", "title": "Beast Cops", "video": false, "vote_average": 6.6, "vote_count": 13, "popularity": 2.157}, {"adult": false, "backdrop_path": "/yFcwpIE0SsltUZukrHX9LAZkx1L.jpg", "genre_ids": [53], "id": 126243, "original_language": "it", "original_title": "La morte ha fatto l'uovo", "overview": "In the fragmented opening we see snapshots of modern urban life including the savage knife murder of a prostitute, committed (or so it would seem) by executive Marco. Outside the city, Marco runs a sprawling, cutting-edge chicken farm with his wife, Anna, while pretty young Gabrielle tends to their secretarial needs. Their moneyed existence produces all forms of monstrosities including a plan to bump off Anna between the adulterous Marco and Gabrielle, professional paranoia thanks to the suspicious activity of the plant\u2019s advertising head, debauched dinner parties, and an automated factory nightmare that results in pulsating, David Lynchian chickens without heads or wings. Soon all the deceptions and murderous plotting come to a head, though not quite in the way you'd expect.", "poster_path": "/mTNQrflCUiyQSCFQegeVGeRPVi2.jpg", "release_date": "1968-01-01", "title": "Death Laid an Egg", "video": false, "vote_average": 6.1, "vote_count": 13, "popularity": 2.727}, {"adult": false, "backdrop_path": null, "genre_ids": [27], "id": 40058, "original_language": "de", "original_title": "The Burning Moon", "overview": "The Burning Moon centers on two bedtime stories that a delinquent brother reads his kid sister. These disturbingly morbid stories focus on a serial killing blind date and a murderous, psychotic priest.", "poster_path": "/kbLuLbzy8jnp4dQIdJXvAJwF7yh.jpg", "release_date": "1992-01-01", "title": "The Burning Moon", "video": false, "vote_average": 4.4, "vote_count": 14, "popularity": 2.578}, {"id": 51182, "video": false, "vote_count": 13, "vote_average": 6.0, "title": "Sex: The Annabel Chong Story", "release_date": "1999-02-11", "original_language": "en", "original_title": "Sex: The Annabel Chong Story", "genre_ids": [99], "backdrop_path": "/gTf3S95mEUbOEZvDwf2cn26Gqu6.jpg", "adult": false, "overview": "The documentary follows Annabel Cong, former record holder for the world's largest gang bang, which she set in 1995 by having sex with 70 men. It focuses on her reasons for working in porn, and her relationship with friends and family. The documentary reveals to the viewers that she was gang raped as a student living in London and describes her many complex emotional issues, including signs of depression, self harm, and substance abuse. The film also includes footage of a painful conversation in Singapore between Annabel and her mother, who until then didn't know about her daughter's porn career.", "poster_path": "/tXbPFSmfdNBdzLUWwpZjuHzCc1N.jpg", "popularity": 5.072}, {"id": 54133, "video": false, "vote_count": 22, "vote_average": 5.8, "title": "Madhouse", "release_date": "1981-03-04", "original_language": "en", "original_title": "There Was a Little Girl", "genre_ids": [27], "backdrop_path": "/84l4spEt9y6z3yz33Xb3JAstdRG.jpg", "adult": false, "overview": "Julia (Trish Everly, in her only film role), a young teacher for deaf children living in Savannah, Georgia. Julia has horrid memories of her childhood, which was scarred by her sadistic twin sister Mary (Allison Biggers). At the urging of her uncle, Father James, Julia visits Mary, suffering from a severe skin disease, in a mental institution. The meet does not go well, and Mary vows to make Julia \"suffer as she had suffered\". As their mutual birthday approaches, several of Julia's friends and neighbors begin to die gruesome deaths, some of which committed by a mysterious Rottweiler dog that has some sort of connection to Mary. But is Mary really the killer?", "poster_path": "/f66qzgaZ9VICC4s5QvTzS3sc2NQ.jpg", "popularity": 4.081}, {"adult": false, "backdrop_path": null, "genre_ids": [18, 10749, 53], "id": 64525, "original_language": "it", "original_title": "Orgasmo", "overview": "Kathryn West, a glamorous American widow, arrives in Italy several weeks after the death of her older, extremely wealthy husband. With the help of Brian, her lawyer, Kathryn moves into a luxurious villa and proceeds to lead a lonely, uneventful existence until one day, a handsome young man named Peter Donovan shows up at the front gate, looking for tools so he can fix his sports car. Kathryn lets him stay the night, and the next thing she knows, she's madly making love to him in the shower. Peter eventually moves in, and is soon joined by a free spirit he introduces as Eva, his sister. Kathryn enjoys their company and partying with them - until she begins to suspect that Peter and Eva aren't what they seem to be.", "poster_path": "/1Alfq7TaGYZnMxibCYR18LhCmOX.jpg", "release_date": "1969-02-07", "title": "Orgasmo", "video": false, "vote_average": 6.0, "vote_count": 15, "popularity": 2.626}, {"adult": false, "backdrop_path": "/adBDCkCq67hmJjXGCj8GIMok2q2.jpg", "genre_ids": [28, 12, 14, 27], "id": 27232, "original_language": "it", "original_title": "La conquista de la tierra perdida", "overview": "A young man, armed with a magical bow and arrows, embarks on a mystical journey through a mystical land to rid it of all evil and joins forces with an outlaw to take down an evil witch bent on claiming the magic bow for evil.", "poster_path": "/yO6sOneyWHR4CUHZhzTeedgfhRI.jpg", "release_date": "1983-06-02", "title": "Conquest", "video": false, "vote_average": 5.3, "vote_count": 19, "popularity": 4.043}, {"adult": false, "backdrop_path": null, "genre_ids": [27], "id": 94016, "original_language": "it", "original_title": "Quella villa in fondo al parco", "overview": "A maniac butchers a fashion model on a Caribbean island and leaves the body to be eaten by rats. The model's sister suspects something isn't quite right with the police investagation and decides to go snooping on her own. With her friend, Fred, their investagations lead them to an unknown part of the island where they discover a monstrosity of a rat like man. The creature is killed by Fred, but the true horror of it's nature is just beginning...", "poster_path": "/yPgXIdIokSjSsgRltrdg3pxKI2Z.jpg", "release_date": "1988-01-01", "title": "Rat Man", "video": false, "vote_average": 4.1, "vote_count": 17, "popularity": 2.568}, {"adult": false, "backdrop_path": "/p0iovfUL2EdhwfWCVXipdqQ9Lks.jpg", "genre_ids": [27, 53], "id": 63026, "original_language": "en", "original_title": "L'assassino \u00e8 costretto ad uccidere ancora", "overview": "The Killer Must Kill Again (Italian: L'assassino \u00e8 costretto ad uccidere ancora) is a 1975 giallo film directed by Luigi Cozzi. Allmovie called the film \"too erratic for the general horror audience\" but \"offers just enough suspense and style to please patient giallo fans.\" Giorgio is a greedy adulterer who makes a deal with a serial killer to dispose of his wealthy wife, Nora. Unfortunately, a thrill-seeking young couple steal the killer's car with Nora's corpse in the trunk, ending up at a run-down seaside villa.", "poster_path": "/sCzsIrWLks0YTAoA3PUHLdyhGA.jpg", "release_date": "1975-03-07", "title": "The Killer Must Kill Again", "video": false, "vote_average": 6.3, "vote_count": 16, "popularity": 4.967}, {"id": 2805, "video": false, "vote_count": 19, "vote_average": 6.3, "title": "Tears of the Black Tiger", "release_date": "2000-10-05", "original_language": "th", "original_title": "\u0e1f\u0e49\u0e32\u0e17\u0e30\u0e25\u0e32\u0e22\u0e42\u0e08\u0e23", "genre_ids": [28, 35, 37, 10749], "backdrop_path": "/92fNAceKTCUKDX316enDhZ6Otov.jpg", "adult": false, "overview": "A homage and parody of 1950s and 1960s Thai romantic melodramas and action films.  Dum, the son of a peasant falls in love with Rumpoey, the daughter of a wealthy and respected family. The star-crossed lovers are torn apart for years, but their forbidden love survives.  When tragedy strikes, Dum unleashes his rage and becomes the gun-slinging outlaw the \"Black Tiger\" who will stop at nothing to seek his revenge.", "poster_path": "/a2l5xl2GgLjuhQnXvjPYH16HcTb.jpg", "popularity": 1.822}, {"adult": false, "backdrop_path": "/wgsRYKv0ylZWfmdNlTgAwvYZy5F.jpg", "genre_ids": [27], "id": 36232, "original_language": "ja", "original_title": "\u30b6\u30fb\u30ae\u30cb\u30fc\u30d4\u30c3\u30b02 \u30ce\u30fc\u30c8\u30eb\u30c0\u30e0\u306e\u30a2\u30f3\u30c9\u30ed\u30a4\u30c9", "overview": "A dwarf scientist has his dreams frustrated when his sister becomes seriously ill. Determined to find a way to preserve the essence of his sister after the death, the scientist begins to use humans as guinea pigs in a bizarre experiment.", "poster_path": "/vfWrLKF47LezoIu6FHIi6UxwV4R.jpg", "release_date": "1988-03-20", "title": "Guinea Pig 5: Android of Notre Dame", "video": false, "vote_average": 4.2, "vote_count": 20, "popularity": 4.994}], "total_pages": 1, "total_results": 13}, "credits": {"cast": [{"cast_id": 3, "character": "Mother Superior", "credit_id": "52fe4b46c3a36847f81fb983", "gender": 0, "id": 1279939, "name": "Sally Tremaine", "order": 0, "profile_path": null}, {"cast_id": 4, "character": "Abbess", "credit_id": "52fe4b46c3a36847f81fb987", "gender": 0, "id": 1279940, "name": "Moyna Cope", "order": 1, "profile_path": null}, {"cast_id": 5, "character": "Abbot - Father Henry", "credit_id": "52fe4b46c3a36847f81fb98b", "gender": 0, "id": 1279941, "name": "Simon Hill", "order": 2, "profile_path": null}, {"cast_id": 6, "character": "Mary Magdalene", "credit_id": "52fe4b46c3a36847f81fb98f", "gender": 1, "id": 1279942, "name": "Kristina Bill", "order": 3, "profile_path": "/kECQIktUhmdCKP6Gm0i7BfXv4za.jpg"}, {"cast_id": 7, "character": "Repression", "credit_id": "52fe4b46c3a36847f81fb993", "gender": 1, "id": 86333, "name": "Eileen Daly", "order": 4, "profile_path": "/jhuGHVf1qA2je6SLTBpjaHmiz5F.jpg"}, {"cast_id": 8, "character": "Williams Girl", "credit_id": "52fe4b46c3a36847f81fb997", "gender": 1, "id": 64103, "name": "Emily Booth", "order": 5, "profile_path": "/8sRmOvRqiZgdwDN6aa6SSiuzkHB.jpg"}, {"cast_id": 9, "character": "Sister Ann", "credit_id": "5c28606b0e0a26791836650d", "gender": 1, "id": 112433, "name": "Anneka Svenska", "order": 6, "profile_path": "/cdwnUsacYx9hMfG87XZkSPCLd9G.jpg"}, {"cast_id": 10, "character": "Father Peter", "credit_id": "5c28608692514138e5c0003a", "gender": 2, "id": 64102, "name": "Christopher Adamson", "order": 7, "profile_path": "/8yLz3515hR5RgjeH0kbGcjSYylO.jpg"}, {"cast_id": 11, "character": "Inquisitor", "credit_id": "5c28609d0e0a26791836666f", "gender": 0, "id": 1287183, "name": "Marc Morris", "order": 8, "profile_path": null}, {"cast_id": 12, "character": "", "credit_id": "5c28617192514138e1c00c1d", "gender": 1, "id": 64103, "name": "Emily Booth", "order": 9, "profile_path": "/8sRmOvRqiZgdwDN6aa6SSiuzkHB.jpg"}], "crew": [{"credit_id": "52fe4b46c3a36847f81fb979", "department": "Directing", "gender": 2, "id": 1058169, "job": "Director", "name": "Nigel Wingrove", "profile_path": null}, {"credit_id": "52fe4b46c3a36847f81fb97f", "department": "Writing", "gender": 0, "id": 1058170, "job": "Writer", "name": "Nigel Wingrove", "profile_path": null}]}}