{"adult": false, "backdrop_path": "/mfBIXYFypyAHHSSLK010FBISfIY.jpg", "belongs_to_collection": null, "budget": 0, "genres": [{"id": 12, "name": "Adventure"}], "homepage": null, "id": 114359, "imdb_id": "tt0046938", "original_language": "en", "original_title": "Drums of Tahiti", "overview": "A smuggler (Dennis O'Keefe) buys a bride (Patricia Medina) in San Francisco to help him run guns in 1877 Tahiti.", "popularity": 2.251, "poster_path": "/nFcVa2RoZFMGYHOFDITjhZ2gw0N.jpg", "production_companies": [{"id": 5, "logo_path": "/71BqEFAF4V3qjjMPCpLuyJFB9A.png", "name": "Columbia Pictures", "origin_country": "US"}], "production_countries": [{"iso_3166_1": "US", "name": "United States of America"}], "release_date": "1954-04-23", "revenue": 0, "runtime": 73, "spoken_languages": [{"iso_639_1": "en", "name": "English"}], "status": "Released", "tagline": "THE STORY OF TWO OUTCASTS!", "title": "Drums of Tahiti", "video": false, "vote_average": 0.0, "vote_count": 0, "keywords": {"keywords": [{"id": 6611, "name": "tahiti"}]}, "similar": {"page": 1, "results": [{"id": 19899, "video": false, "vote_count": 1182, "vote_average": 5.4, "title": "Couples Retreat", "release_date": "2009-09-19", "original_language": "en", "original_title": "Couples Retreat", "genre_ids": [35, 10749], "backdrop_path": "/8NDf9WGgv2glSslJdzK63Sbdwzy.jpg", "adult": false, "overview": "Four couples, all friends, descend on a tropical island resort. Though one husband and wife are there to work on their marriage, the others just want to enjoy some fun in the sun. They soon find, however, that paradise comes at a price: Participation in couples therapy sessions is mandatory. What started out as a cut-rate vacation turns into an examination of the common problems many face.", "poster_path": "/6mdsH9XA2u4jnVKwWlKE1Mg2OQM.jpg", "popularity": 21.979}, {"id": 429300, "video": false, "vote_count": 1487, "vote_average": 6.8, "title": "Adrift", "release_date": "2018-05-31", "original_language": "en", "original_title": "Adrift", "genre_ids": [12, 53, 10749], "backdrop_path": "/64jAqTJvrzEwncD3ARZdqYLcqbc.jpg", "adult": false, "overview": "A true story of survival, as a young couple's chance encounter leads them first to love, and then on the adventure of a lifetime as they face one of the most catastrophic hurricanes in recorded history.", "poster_path": "/5gLDeADaETvwQlQow5szlyuhLbj.jpg", "popularity": 19.59}, {"adult": false, "backdrop_path": "/4L1MSZo8dQ20x4AhBDKfDs1cOjs.jpg", "genre_ids": [27, 53], "id": 9728, "original_language": "en", "original_title": "Friday the 13th Part III", "overview": "An idyllic summer turns into a nightmare of unspeakable terror for yet another group of naive counselors. Ignoring Camp Crystal Lake's bloody legacy, one by one they fall victim to the maniacal Jason who stalks them at every turn.", "poster_path": "/5wg2NZyIhcMbIBAahBODXHyJ54S.jpg", "release_date": "1982-08-13", "title": "Friday the 13th Part III", "video": false, "vote_average": 5.8, "vote_count": 634, "popularity": 15.501}, {"adult": false, "backdrop_path": "/1J4s3Vs09345wzJtns1zm2xr0Y3.jpg", "genre_ids": [18, 10749], "id": 446132, "original_language": "fr", "original_title": "Gauguin: Voyage de Tahiti", "overview": "In 1891, the French painter Paul Gauguin leaves Paris and travels to Tahiti to renew his art as a free man, far from the European artistic conventionalism. On his journey of discovery, he faces solitude and disease, but he also knows the beauty of wild nature and the love of Tehura, a young native girl who becomes his wife and model.", "poster_path": "/3Kqrt14GxiudaphD0wLdiAVfmsm.jpg", "release_date": "2017-09-20", "title": "Gauguin: Voyage to Tahiti", "video": false, "vote_average": 5.6, "vote_count": 56, "popularity": 5.725}, {"adult": false, "backdrop_path": "/fewP7EsMEnfqqcx4qYHKSKebwkF.jpg", "genre_ids": [28, 18, 36], "id": 2669, "original_language": "en", "original_title": "The Bounty", "overview": "The familiar story of Lieutenant Bligh, whose cruelty leads to a mutiny on his ship. This version follows both the efforts of Fletcher Christian to get his men beyond the reach of British retribution, and the epic voyage of Lieutenant Bligh to get his loyalists safely to East Timor in a tiny lifeboat.", "poster_path": "/hXFXIc6F4NXI5emWCKcUwqEPjIZ.jpg", "release_date": "1984-05-04", "title": "The Bounty", "video": false, "vote_average": 6.7, "vote_count": 246, "popularity": 10.539}, {"id": 11085, "video": false, "vote_count": 136, "vote_average": 6.9, "title": "Mutiny on the Bounty", "release_date": "1962-11-08", "original_language": "en", "original_title": "Mutiny on the Bounty", "genre_ids": [12, 18, 36], "backdrop_path": "/u3eM8Z7HhecS2NJrtIIZUK8i51T.jpg", "adult": false, "overview": "The Bounty leaves Portsmouth in 1787. Its destination: to sail to Tahiti and load bread-fruit. Captain Bligh will do anything to get there as fast as possible, using any means to keep up a strict discipline. When they arrive at Tahiti, it is like a paradise for the crew, something completely different than the living hell aboard the ship. On the way back to England, officer Fletcher Christian becomes the leader of a mutiny.", "poster_path": "/6dEnZkgxpsLQFyxEMdTdV2Fjul9.jpg", "popularity": 11.143}, {"id": 12311, "video": false, "vote_count": 141, "vote_average": 7.4, "title": "Mutiny on the Bounty", "release_date": "1935-11-22", "original_language": "en", "original_title": "Mutiny on the Bounty", "genre_ids": [12, 18, 36], "backdrop_path": "/yJdiJtbv62zuBd42eA66yBX8hfM.jpg", "adult": false, "overview": "Fletcher Christian successfully leads a revolt against the ruthless Captain Bligh on the HMS Bounty. However, Bligh returns one year later, hell bent on avenging his captors.", "poster_path": "/jcwq5KnBr3GBZ3Iwu7yU1TjSYbq.jpg", "popularity": 6.829}, {"id": 56288, "video": false, "vote_count": 570, "vote_average": 4.7, "title": "Spy Kids: All the Time in the World", "release_date": "2011-08-18", "original_language": "en", "original_title": "Spy Kids: All the Time in the World", "genre_ids": [28, 35, 10751], "backdrop_path": "/aezGIrtl4Q8KaLltPum0hR4VRuB.jpg", "adult": false, "overview": "Eight years after the third film, the OSS has become the world's top spy agency, while the Spy Kids department has since become defunct. A retired spy Marissa (Jessica Alba) is thrown back into the action along with her stepchildren when a maniacal Timekeeper (Jeremy Piven) attempts to take over the world. In order to save the world, Rebecca (Rowan Blanchard) and Cecil (Mason Cook) must team up with their hated stepmother. Carmen and Juni have since also grown up and will provide gadgets to them.", "poster_path": "/9pUVarhiXfCu8amjmyadzJJJITi.jpg", "popularity": 14.623}, {"id": 67675, "video": false, "vote_count": 159, "vote_average": 7.3, "title": "Glee: The Concert Movie", "release_date": "2011-08-11", "original_language": "en", "original_title": "Glee: The Concert Movie", "genre_ids": [99, 10402, 10751], "backdrop_path": "/zGo85CDWxmT9Trm9ehwDHIIAtzX.jpg", "adult": false, "overview": "A concert documentary shot during the Glee Live! In Concert! summer 2011 tour, featuring song performances and Glee fans' life stories and how the show influenced them.", "poster_path": "/qSFHyo1fS99ytuWGQ1Qj7D9CCaF.jpg", "popularity": 13.113}, {"id": 977, "video": false, "vote_count": 70, "vote_average": 7.4, "title": "Tabu", "release_date": "1931-08-01", "original_language": "en", "original_title": "Tabu", "genre_ids": [12, 18, 10749], "backdrop_path": "/9vz3VJJFejQRde353VABorhR5up.jpg", "adult": false, "overview": "The youngsters Matahi and Reri are in love with each other. The old warrior Hitu announces that Reri is to be the new chosen virgin for the gods. This means she must stay untouched, otherwise she and her lover will be killed. But Matahi abducts and escapes with her to an island ruled by the white man, where their gods would be harmless and powerless. Tabu is the last film from director F.W. Murnau; he died before the film\u2019s premiere in a car accident.", "poster_path": "/6LxXTwKLm5Du7ZYAOjVP3VUekhz.jpg", "popularity": 6.902}, {"id": 40978, "video": false, "vote_count": 23, "vote_average": 5.2, "title": "Emmanuelle 4", "release_date": "1984-02-15", "original_language": "fr", "original_title": "Emmanuelle 4", "genre_ids": [18, 10749], "backdrop_path": "/i7KghDO1sk5y1XYHu5ZYnENBRFd.jpg", "adult": false, "overview": "In order to escape from her former lover Marc, Sylvia goes to Brazil where Dr. Santamo transforms her into the beautiful Emmanuelle...", "poster_path": "/bUUJWW0coGFReebnEC6CW7yCXUn.jpg", "popularity": 8.548}, {"id": 77250, "video": false, "vote_count": 12, "vote_average": 7.1, "title": "The Hurricane", "release_date": "1937-11-05", "original_language": "en", "original_title": "The Hurricane", "genre_ids": [28, 12], "backdrop_path": "/fDabtwgtFCOIfWcKf4XP9ZEyN5O.jpg", "adult": false, "overview": "In the colonial era, island native Terangi (Jon Hall) spends a blissful honeymoon with his bride, Marama (Dorothy Lamour). Soon after, however, their relationship is torn asunder when Terangi is sent to prison for punching a prejudiced white man. Prominent members of the community -- including the governor's wife, Mme. De Laage (Mary Astor), petition the governor for clemency, but he refuses to budge. However, all pretense of law and order are soon shattered by an incoming tropical storm.", "poster_path": "/uhvnQQdfSxumYqSiuhHEuoSIAvb.jpg", "popularity": 3.004}, {"adult": false, "backdrop_path": "/6muNYHCvORDlDT3GKqQC3qyCRJc.jpg", "genre_ids": [16, 12, 10751, 35], "id": 81670, "original_language": "en", "original_title": "Jock of the Bushveld", "overview": "Animated-family adventure based on a true story that tells the heart-warming, coming-of-age story of a man and his best-friend, a lovable and fearless dog named, Jock. Set in the Bushveld near what is today the world famous Kruger National Park, this animated family tale is about Jock's adventures with Fritz, his master. Jock escapes death, builds crazy friendships and displays his unrivalled loyalty to Fritz. The story is set in the late 1880s when Africa's mineral richness, teeming animal life and incomparable natural beauty drew and captivated explorers and adventurers from all over the world. A place where big game roamed in their thousands and the wildest tales were true! Jock Of The Bushveld is a great story and the only animal classic to come out of Africa.", "poster_path": "/pWs486QjGRp6Nnjk039XhU12yrw.jpg", "release_date": "2011-07-29", "title": "Jock of the Bushveld", "video": false, "vote_average": 4.2, "vote_count": 7, "popularity": 5.086}, {"id": 32147, "video": false, "vote_count": 26, "vote_average": 6.3, "title": "Starchaser: The Legend of Orin", "release_date": "1985-01-01", "original_language": "en", "original_title": "Starchaser: The Legend of Orin", "genre_ids": [12, 16, 878, 10751], "backdrop_path": "/xHevyXac9J6J8Nf2suqAF9hZaq.jpg", "adult": false, "overview": "Set on the subterranean Mine-World, a band of human worker are treated like slaves under the power of the evil overlord Zygon until one, Orin, unearths the hilt of a mythical sword that only he can master. Escaping the planet, he runs into the rogue smuggler Dagg and a pair of helpful droids and the princess, who all team up to return to the Mine-World with a plan to defeat Zygon and free Orin's enslaved people.", "poster_path": "/wqRaHNviAwJ3jnfXP24P4e3sRnk.jpg", "popularity": 4.354}, {"id": 22559, "video": false, "vote_count": 26, "vote_average": 6.6, "title": "Aliens of the Deep", "release_date": "2005-01-28", "original_language": "en", "original_title": "Aliens of the Deep", "genre_ids": [99], "backdrop_path": "/l4LNrumbRW9Z34kIvijAEllKVG8.jpg", "adult": false, "overview": "James Cameron teams up with NASA scientists to explore the Mid-Ocean Ridge, a submerged chain of mountains that band the Earth and are home to some of the planet's most unique life forms.", "poster_path": "/pB1HMawACKSpuxcYiufw2pzX63c.jpg", "popularity": 6.7}, {"adult": false, "backdrop_path": "/z3WR37AXDtgfJrqV8Dj6ROSu94S.jpg", "genre_ids": [99], "id": 33627, "original_language": "en", "original_title": "OceanWorld 3D", "overview": "A 3-D documentary chronicling a sea turtle's journey across the oceans.", "poster_path": "/adNlVv9p9Z232UATcTwkF6SFU7W.jpg", "release_date": "2009-01-01", "title": "OceanWorld 3D", "video": false, "vote_average": 5.8, "vote_count": 16, "popularity": 4.095}, {"adult": false, "backdrop_path": "/jlqYRqeSQv1614TV4NKikysZMb5.jpg", "genre_ids": [878], "id": 19492, "original_language": "en", "original_title": "Captain EO", "overview": "Captain EO is a 3-D science fiction film starring Michael Jackson and directed by Francis Ford Coppola (who came up with the name \"Captain EO\" from the Greek, cf. \"Eos\", the Greek goddess of dawn) that was shown at Disney theme parks from 1986 through the 1990s.", "poster_path": "/p5txVytUOKpEQ869oKfT6wimTYg.jpg", "release_date": "1986-01-01", "title": "Captain EO", "video": false, "vote_average": 6.1, "vote_count": 53, "popularity": 4.912}, {"adult": false, "backdrop_path": "/j31MamGCPME1gEdJ5jrpqQXLa6N.jpg", "genre_ids": [99, 10402], "id": 40534, "original_language": "en", "original_title": "Jonas Brothers: The Concert Experience", "overview": "Secure your VIP pass to a once-in-a-lifetime experience with the Jonas Brothers. Get ready to hang out with this multitalented trio, and take an intimate look at what their lives are like offstage and behind the scenes.", "poster_path": "/vLdQNW1CkxTuXAWxShlFiC5fDZM.jpg", "release_date": "2009-02-27", "title": "Jonas Brothers: The Concert Experience", "video": false, "vote_average": 6.3, "vote_count": 53, "popularity": 6.936}, {"adult": false, "backdrop_path": "/1sooQmWWxONsbsmiJ3f6z9DRgPS.jpg", "genre_ids": [28, 12, 53], "id": 77485, "original_language": "en", "original_title": "3 Musketeers", "overview": "Alexandra D'Artagnan, junior member of NSA uncovers a conspiracy that the goal is to assassinate the American president. Alexandra has secured the support of three famous and notorious international spies in order to stop the assassination.", "poster_path": "/5I95zOsQNfJD0nPxTJhfYU7Cgmp.jpg", "release_date": "2011-10-25", "title": "3 Musketeers", "video": false, "vote_average": 3.6, "vote_count": 10, "popularity": 3.71}, {"id": 73303, "video": false, "vote_count": 6, "vote_average": 4.7, "title": "The Creeps", "release_date": "1997-12-16", "original_language": "en", "original_title": "The Creeps", "genre_ids": [35, 27, 878], "backdrop_path": "/531UL6W2RQiYZKQYFd7dePzeyVF.jpg", "adult": false, "overview": "Mad scientist brings Dracula, the Wolfman, the Mummy, and Frankenstein's Monster to life... but there's a problem and they end up three feet tall.", "poster_path": "/namzEWDmsJCF8NlQo3PPIFWr4e4.jpg", "popularity": 3.433}], "total_pages": 4, "total_results": 61}, "recommendations": {"page": 1, "results": [], "total_pages": 1, "total_results": 0}, "credits": {"cast": [{"cast_id": 2, "character": "Mike Macklin", "credit_id": "52fe4b4ac3a36847f81fc74d", "gender": 2, "id": 88462, "name": "Dennis O'Keefe", "order": 0, "profile_path": "/uTu2E94CyTJuXnr8UWcVRzNkMqo.jpg"}, {"cast_id": 3, "character": "Wanda Spence", "credit_id": "52fe4b4ac3a36847f81fc751", "gender": 1, "id": 105733, "name": "Patricia Medina", "order": 1, "profile_path": "/44uKpcaxE4bSv25dPBcEYlS0Tkn.jpg"}, {"cast_id": 4, "character": "Commissioner Pierre Duvois", "credit_id": "52fe4b4ac3a36847f81fc755", "gender": 2, "id": 93900, "name": "Francis L. Sullivan", "order": 2, "profile_path": "/wCennvHk017VnuDgHSmB0NgRy6z.jpg"}, {"cast_id": 5, "character": "Angelo", "credit_id": "52fe4b4ac3a36847f81fc759", "gender": 2, "id": 133832, "name": "George Keymas", "order": 3, "profile_path": "/aSyVjLmyaedfg8TQyyNtcpevnrq.jpg"}, {"cast_id": 9, "character": "Mawai", "credit_id": "532b82acc3a3684b9d000303", "gender": 0, "id": 1213241, "name": "Sylvia Lewis", "order": 5, "profile_path": "/aRcFUaJJvGYWAT1nctCRVlZPYsD.jpg"}, {"cast_id": 7, "character": "Gay Knight", "credit_id": "52fe4b4ac3a36847f81fc761", "gender": 0, "id": 142833, "name": "Cicely Browne", "order": 6, "profile_path": null}, {"cast_id": 8, "character": "Shoreham", "credit_id": "52fe4b4ac3a36847f81fc765", "gender": 2, "id": 1070378, "name": "Raymond Lawrence", "order": 7, "profile_path": null}], "crew": [{"credit_id": "52fe4b4ac3a36847f81fc749", "department": "Directing", "gender": 2, "id": 12011, "job": "Director", "name": "William Castle", "profile_path": "/6vUhJ5Nb5YlX4WsztDkSCePM61I.jpg"}, {"credit_id": "582942bd9251417b230327b7", "department": "Camera", "gender": 2, "id": 109000, "job": "Director of Photography", "name": "Lester White", "profile_path": null}]}}