{"adult": false, "backdrop_path": null, "belongs_to_collection": null, "budget": 0, "genres": [{"id": 18, "name": "Drama"}, {"id": 36, "name": "History"}], "homepage": null, "id": 114645, "imdb_id": "tt0068939", "original_language": "el", "original_title": "\u039c\u03ad\u03c1\u03b5\u03c2 \u03c4\u03bf\u03c5 '36", "overview": "The assassin of a prominent trade unionist takes a conservative MP hostage and the government prevaricates over tactics so as not to alienate potential political allies.", "popularity": 1.202, "poster_path": "/ucQbqzCwEVoEb6HxwMIYO09Y8Gh.jpg", "production_companies": [{"id": 76515, "logo_path": null, "name": "Papalios Productions", "origin_country": ""}], "production_countries": [{"iso_3166_1": "GR", "name": "Greece"}], "release_date": "1972-09-30", "revenue": 0, "runtime": 105, "spoken_languages": [{"iso_639_1": "el", "name": "\u03b5\u03bb\u03bb\u03b7\u03bd\u03b9\u03ba\u03ac"}], "status": "Released", "tagline": "", "title": "Days of '36", "video": false, "vote_average": 6.1, "vote_count": 7, "keywords": {"keywords": [{"id": 1200, "name": "greece"}, {"id": 14856, "name": "informer"}, {"id": 156887, "name": "military dictatorship"}]}, "similar": {"page": 1, "results": [{"id": 8346, "video": false, "vote_count": 1269, "vote_average": 6.4, "title": "My Big Fat Greek Wedding", "release_date": "2002-02-22", "original_language": "en", "original_title": "My Big Fat Greek Wedding", "genre_ids": [35, 18, 10749], "backdrop_path": "/miFwBsaWZER118kg0AAuHcy1YOa.jpg", "adult": false, "overview": "A young Greek woman falls in love with a non-Greek and struggles to get her family to accept him while she comes to terms with her heritage and cultural identity.", "poster_path": "/vqGs8K6MdMHVPMTgMhzKHBVgu0t.jpg", "popularity": 17.695}, {"adult": false, "backdrop_path": "/cLOekK7EmHB1beYUYEXIlcr6mpS.jpg", "genre_ids": [10752, 36, 28, 12, 18, 10749], "id": 1966, "original_language": "en", "original_title": "Alexander", "overview": "Alexander, the King of Macedonia, leads his legions against the giant Persian Empire. After defeating the Persians, he leads his army across the then known world, venturing farther than any westerner had ever gone, all the way to India.", "poster_path": "/cJrnmbsFm5cEt0pHZZ2a1ueH5aT.jpg", "release_date": "2004-11-21", "title": "Alexander", "video": false, "vote_average": 5.8, "vote_count": 1989, "popularity": 29.042}, {"id": 324668, "video": false, "vote_count": 3843, "vote_average": 6.2, "title": "Jason Bourne", "release_date": "2016-07-27", "original_language": "en", "original_title": "Jason Bourne", "genre_ids": [28, 53], "backdrop_path": "/dtFiuavnsnl0krJAeSmGAOFAhw2.jpg", "adult": false, "overview": "The most dangerous former operative of the CIA is drawn out of hiding to uncover hidden truths about his past.", "poster_path": "/lFSSLTlFozwpaGlO31OoUeirBgQ.jpg", "popularity": 20.841}, {"adult": false, "backdrop_path": "/txtRue33MaXv5HQpTiHPOmOcDxE.jpg", "genre_ids": [35, 10749], "id": 11631, "original_language": "en", "original_title": "Mamma Mia!", "overview": "An independent, single mother who owns a small hotel on a Greek island is about to marry off the spirited young daughter she's raised alone. But, the daughter has secretly invited three of her mother's ex-lovers in the hopes of finding her biological father.", "poster_path": "/gOm2iMMbC6EonrFzmSQ8xvCa4Ei.jpg", "release_date": "2008-07-02", "title": "Mamma Mia!", "video": false, "vote_average": 6.9, "vote_count": 4124, "popularity": 16.301}, {"adult": false, "backdrop_path": "/tS3ms6HM52hLLU3eRdjVPSgSS4w.jpg", "genre_ids": [18, 36, 10749], "id": 8095, "original_language": "en", "original_title": "Cleopatra", "overview": "Determined to hold on to the throne, Cleopatra seduces the Roman emperor Julius Caesar. When Caesar is murdered, she redirects her attentions to his general, Marc Antony, who vows to take power\u2014but Caesar\u2019s successor has other plans.", "poster_path": "/bj7rUGUewofA9cpHt1h36gvDFfy.jpg", "release_date": "1963-06-12", "title": "Cleopatra", "video": false, "vote_average": 7.0, "vote_count": 312, "popularity": 17.932}, {"id": 650755, "video": false, "vote_count": 0, "vote_average": 0.0, "title": "Atordoado, Eu Permane\u00e7o Atento", "release_date": "2020-01-15", "original_language": "pt", "original_title": "Atordoado, Eu Permane\u00e7o Atento", "genre_ids": [99], "backdrop_path": null, "adult": false, "overview": "", "poster_path": "/exbM8qk6f6T44olJXcM8ix1sunL.jpg", "popularity": 5.092}, {"adult": false, "backdrop_path": "/nEq5HZzkXR4a70uVYAdptJKl3t5.jpg", "genre_ids": [28, 80, 53], "id": 2099, "original_language": "en", "original_title": "Raw Deal", "overview": "Mark Kaminsky is kicked out of the FBI for his rough treatment of a suspect. He winds up as the sheriff of a small town in North Carolina. FBI Chief Harry Shannon, whose son has been killed by a mobster named Patrovina, enlists Kaminsky in a personal vendetta with a promise of reinstatement into the FBI if Patrovina is taken down. To accomplish this, he must go undercover and join Patrovina's gang.", "poster_path": "/39WxQ19kjZqIpdoDV7e5aRuQryj.jpg", "release_date": "1986-06-06", "title": "Raw Deal", "video": false, "vote_average": 5.6, "vote_count": 347, "popularity": 13.755}, {"id": 458423, "video": false, "vote_count": 1989, "vote_average": 7.2, "title": "Mamma Mia! Here We Go Again", "release_date": "2018-07-09", "original_language": "en", "original_title": "Mamma Mia! Here We Go Again", "genre_ids": [35, 10749], "backdrop_path": "/8HKwxHZ23sW8wz4yb28IWnAM1M6.jpg", "adult": false, "overview": "Five years after meeting her three fathers, Sophie Sheridan prepares to open her mother\u2019s hotel. In 1979, young Donna Sheridan meets the men who each could be Sophie\u2019s biological father.", "poster_path": "/vzI4gNJDUwWgmNDSBWxYoeGkIEY.jpg", "popularity": 17.899}, {"id": 19972, "video": false, "vote_count": 65, "vote_average": 6.4, "title": "The 300 Spartans", "release_date": "1962-08-01", "original_language": "en", "original_title": "The 300 Spartans", "genre_ids": [28, 18, 36], "backdrop_path": "/xJoWdqTnmu1G5mQu70N90asUc3F.jpg", "adult": false, "overview": "Essentially true story of how Spartan king Leonidas led an extremely small army of Greek Soldiers (300 of his personal body guards from Sparta) to hold off an invading Persian army now thought to have numbered 250,000.", "poster_path": "/4efZl9XgGOLLDbwe1nFe2qLd71g.jpg", "popularity": 12.869}, {"id": 318781, "video": false, "vote_count": 1199, "vote_average": 7.4, "title": "Colonia", "release_date": "2016-02-12", "original_language": "en", "original_title": "Colonia", "genre_ids": [18], "backdrop_path": "/3Sfjr8UCYrbtDubyDA0MCFjDccI.jpg", "adult": false, "overview": "A young woman's desperate search for her abducted boyfriend that draws her into the infamous Colonia Dignidad, a sect nobody ever escaped from.", "poster_path": "/buEhROtfCEFNhjPWdJVgeVnrThj.jpg", "popularity": 15.421}, {"id": 2395, "video": false, "vote_count": 1151, "vote_average": 5.2, "title": "Asterix at the Olympic Games", "release_date": "2008-01-13", "original_language": "fr", "original_title": "Ast\u00e9rix aux Jeux Olympiques", "genre_ids": [12, 35, 14, 10751], "backdrop_path": "/ryjrqoX1ST2tNS18M3KlVdBJnro.jpg", "adult": false, "overview": "Ast\u00e9rix and Ob\u00e9lix have to win the Olympic Games in order to help their friend Alafolix marry Princess Irina (portrayed by supermodel Vanessa Hessler). Brutus (Beno\u00eet Poelvoorde) uses every trick in the book to have his own team win the game, and get rid of his father Julius Caesar (Alain Delon) in the process.", "poster_path": "/fBKBTJUKHSagOlbwhQsiBbgZvgj.jpg", "popularity": 15.018}, {"id": 4193, "video": false, "vote_count": 172, "vote_average": 6.8, "title": "Evil Under the Sun", "release_date": "1982-03-05", "original_language": "en", "original_title": "Evil Under the Sun", "genre_ids": [80, 18, 9648, 53], "backdrop_path": "/4OQpu41qYHyFHHeuZ4WID5KxipL.jpg", "adult": false, "overview": "Trying to find how a millionaire wound up with a phony diamond brings Hercule Poirot to an exclusive island resort frequented by the rich and famous. When a murder is committed, everyone has an alibi.", "poster_path": "/fUZCiY6YYO8w4tv8nrh30isOf4J.jpg", "popularity": 8.8}, {"id": 10604, "video": false, "vote_count": 142, "vote_average": 7.4, "title": "Zorba the Greek", "release_date": "1964-12-14", "original_language": "el", "original_title": "\u0391\u03bb\u03ad\u03be\u03b7\u03c2 \u0396\u03bf\u03c1\u03bc\u03c0\u03ac\u03c2", "genre_ids": [12, 18], "backdrop_path": "/vNzUbvQtGxRUY1tUaJjdu0Cpy3E.jpg", "adult": false, "overview": "An uptight English writer traveling to Crete on a matter of business finds his life changed forever when he meets the gregarious Alexis Zorba.", "poster_path": "/jAYOY38TRDprIgu7vgES0FFJJSl.jpg", "popularity": 10.402}, {"id": 23049, "video": false, "vote_count": 229, "vote_average": 5.8, "title": "My Life in Ruins", "release_date": "2009-06-05", "original_language": "en", "original_title": "My Life in Ruins", "genre_ids": [35, 10749], "backdrop_path": "/ldfolG6JE7HsibBI6SyqrAf1Qoe.jpg", "adult": false, "overview": "A Greek tour guide named Georgia attempts to recapture her kefi (Greek for mojo) by guiding a ragtag group of tourists around Greece and showing them the beauty of her native land. Along the way, she manages to open their eyes to the wonders of an exotic foreign land while beginning to see the world through a new set of eyes in the process.", "poster_path": "/eW4KnUXUyKnNw1150AICDkOfSTD.jpg", "popularity": 7.733}, {"id": 132344, "video": false, "vote_count": 1205, "vote_average": 7.5, "title": "Before Midnight", "release_date": "2013-04-05", "original_language": "en", "original_title": "Before Midnight", "genre_ids": [18, 10749], "backdrop_path": "/6dRor6UgPVDUKTaxh0fsYCTP5VQ.jpg", "adult": false, "overview": "We meet Jesse and Celine nine years on in Greece. Almost two decades have passed since their first meeting on that train bound for Vienna.", "poster_path": "/uDdobcCBfPObD2pqDSTjXxELt3c.jpg", "popularity": 14.193}, {"id": 602518, "video": false, "vote_count": 100, "vote_average": 6.2, "title": "Il signor Diavolo", "release_date": "2019-08-22", "original_language": "it", "original_title": "Il signor Diavolo", "genre_ids": [27, 9648, 53], "backdrop_path": "/4G77fFsEcl7RSlJSBREEzVDpszj.jpg", "adult": false, "overview": "", "poster_path": "/nRmPaVH1wuKWk2A66xYORVr3Y7.jpg", "popularity": 4.711}, {"adult": false, "backdrop_path": "/evFkerKuiR43Jd1bXa9DYF3BLC6.jpg", "genre_ids": [18, 36, 80, 53], "id": 352161, "original_language": "es", "original_title": "El clan", "overview": "In Argentina, between 1982 and 1985, the Puccios, a well-established family of San Isidro, an upper-class suburb of Buenos Aires, kidnap several people and hold them as hostages for a ransom.", "poster_path": "/AqNPsFnhANzv8cxFClh9SMURtsZ.jpg", "release_date": "2015-08-13", "title": "The Clan", "video": false, "vote_average": 6.6, "vote_count": 227, "popularity": 8.015}, {"id": 28981, "video": false, "vote_count": 43, "vote_average": 5.7, "title": "Escape to Athena", "release_date": "1979-06-06", "original_language": "en", "original_title": "Escape to Athena", "genre_ids": [12, 35, 10752], "backdrop_path": "/iapr1jA3x7UwnEUYAwFzEeT8hqf.jpg", "adult": false, "overview": "During the World War II, the prisoners of a German camp in a greek island are trying to escape. They don't want only their freedom, but they also seek for an ineffable treasure hidden in a monastery at the top of the island's mountain.", "poster_path": "/e3ThvXgcnJ5FiJ8oALyrhTn0eVZ.jpg", "popularity": 9.796}, {"id": 2721, "video": false, "vote_count": 189, "vote_average": 8.0, "title": "Z", "release_date": "1969-02-26", "original_language": "fr", "original_title": "Z", "genre_ids": [18, 36, 53], "backdrop_path": "/jF25G2yEkdfHWwnx5Bpkt4cgXcJ.jpg", "adult": false, "overview": "Repression is the rule of the day in this film that skewers Greek governance of the 1960s. Z, a leftist rabble rouser, is killed in what appears to be a traffic accident. But given the political climate, the death of such a prominent activist raises troubling questions. Though it's too late to save Z's life, a postmortem examination suggests that the ruling party was behind his death. As the facts leak out, those who tell the truth pay the price for their honesty.", "poster_path": "/AshFxEhbFe9Mi3YjAv5btbxgX9s.jpg", "popularity": 9.062}, {"adult": false, "backdrop_path": "/nRGW8UCpG8NF5S5ebXUoW01WEck.jpg", "genre_ids": [18], "id": 77878, "original_language": "en", "original_title": "The Lady", "overview": "The story of Aung San Suu Kyi as she becomes the core of Burma's democracy movement, and her relationship with her husband, writer Michael Aris.", "poster_path": "/s1hHovkNPjPQtCTaG2YhJb8HX5Q.jpg", "release_date": "2011-11-30", "title": "The Lady", "video": false, "vote_average": 6.9, "vote_count": 143, "popularity": 9.166}], "total_pages": 18, "total_results": 350}, "recommendations": {"page": 1, "results": [{"adult": false, "backdrop_path": "/wTr4nJkfbIzq3ZTwxaupwb3Q830.jpg", "genre_ids": [18], "id": 145147, "original_language": "ru", "original_title": "\u041a\u0440\u0443\u0433 \u0432\u0442\u043e\u0440\u043e\u0439", "overview": "A man tries to come to terms with his father's death and to deal with the mundane details of his burial in a society cut off from spirituality.", "poster_path": "/A5TOMVsom8zExaCV6dDr7XMlIZq.jpg", "release_date": "1990-09-11", "title": "The Second Circle", "video": false, "vote_average": 7.4, "vote_count": 11, "popularity": 1.398}, {"id": 85769, "video": false, "vote_count": 9, "vote_average": 6.9, "title": "Reconstruction", "release_date": "1970-09-24", "original_language": "el", "original_title": "\u0391\u03bd\u03b1\u03c0\u03b1\u03c1\u03ac\u03c3\u03c4\u03b1\u03c3\u03b7", "genre_ids": [80, 18], "backdrop_path": null, "adult": false, "overview": "A magistrate reconstructs the murder of Costas Ghoussis, a labourer who was killed by his wife and her lover.", "poster_path": "/o8Cy2Q7oUmKSye3PTuYobFAvaLv.jpg", "popularity": 1.526}, {"adult": false, "backdrop_path": "/q6pL6RcedkFmMoHQ4CzRUQDxhCU.jpg", "genre_ids": [80, 18], "id": 91873, "original_language": "sv", "original_title": "Giliap", "overview": "In a minor town the morose manager is primarily responsible for the bad atmosphere of a restaurant. But central for the plot are three persons: a male waiter who is never named (here called W), the female waiter Anna, and \"the count\", a self-invented nickname by a man cleaning plates. The count is skilled in making others do what he wants. Half a dozen of the personnel assist in a poorly planned and failed attempt to liberate a man whom the police move from one arrest to another. The event involves stealing a motorcycle and threatening policemen with a gun. Anna strongly tries to make contact with W. Finally it turns out that she need his help to break her sexual relation to the count, a relation that from her part is not motivated by positive feelings. W rejects her attempts. And then Anna has suddenly gone. She has got a pleasant job in another town. And then W's feelings awaken.", "poster_path": "/3OQwCJmg2MR662dlld2VyGxKgMv.jpg", "release_date": "1975-11-16", "title": "Giliap", "video": false, "vote_average": 5.9, "vote_count": 10, "popularity": 2.192}, {"adult": false, "backdrop_path": "/k8qIC6LnzhIa1EXunVHUV9wGMq8.jpg", "genre_ids": [18], "id": 48210, "original_language": "el", "original_title": "\u039f \u039c\u03b5\u03bb\u03b9\u03c3\u03c3\u03bf\u03ba\u03cc\u03bc\u03bf\u03c2", "overview": "A bee keeper, Spiros, travels from the north to the south of Greece with his bees to meet the spring.", "poster_path": "/nfZur4Fv5EV57krLv84LvyEUIZG.jpg", "release_date": "1987-04-29", "title": "The Beekeeper", "video": false, "vote_average": 7.7, "vote_count": 17, "popularity": 4.294}, {"adult": false, "backdrop_path": "/tHgqUzdh8gwbA2UqYNlV36lufCp.jpg", "genre_ids": [10749, 18, 36], "id": 37952, "original_language": "el", "original_title": "\u03a4\u03bf \u039b\u03b9\u03b2\u03ac\u03b4\u03b9 \u03c0\u03bf\u03c5 \u03b4\u03b1\u03ba\u03c1\u03cd\u03b6\u03b5\u03b9", "overview": "This is the first film of Theo Angelopoulos' trilogy. The story starts in 1919 with some greek refugees from Odessa arriving somewhere near Thessaloniki. Among these people are two small kids, Alexis and Eleni. Eleni is an orphan and she is also taken care by Alexis' family. The refugees build a small village somewhere near a river and we watch as the kids grow up and fall in love. But difficult times of dictatorship and war are coming...", "poster_path": "/bYTNeiGyrIiYlNuZo5rTArTGDin.jpg", "release_date": "2004-02-20", "title": "The Weeping Meadow", "video": false, "vote_average": 7.6, "vote_count": 25, "popularity": 2.305}, {"adult": false, "backdrop_path": "/4qVxStjaY4UrXXlEDqlfzcfKV1P.jpg", "genre_ids": [18], "id": 47432, "original_language": "el", "original_title": "\u03a4\u03bf \u03bc\u03b5\u03c4\u03ad\u03c9\u03c1\u03bf \u03b2\u03ae\u03bc\u03b1 \u03c4\u03bf\u03c5 \u03c0\u03b5\u03bb\u03b1\u03c1\u03b3\u03bf\u03cd", "overview": "Alexandre, a TV reporter, is working for a few days in a border town, where a lot of refugees from Albania, Turkey and Kurdistan are packed in. Among them, he notices an old man and thinks he is an important Greek politician who disappeared mysteriously a few years ago. Back in Athens, he asks this politician's former wife to come and identify him. A slow and dry meditation about inhumanity of borders.", "poster_path": "/mNKh03CxGgUC0MNVVHkGmLxHcm3.jpg", "release_date": "1991-12-04", "title": "The Suspended Step of the Stork", "video": false, "vote_average": 7.4, "vote_count": 12, "popularity": 2.868}, {"adult": false, "backdrop_path": "/vO7oKNulvlrOruoB3YuUz93cszb.jpg", "genre_ids": [18], "id": 51735, "original_language": "el", "original_title": "\u0397 \u03a3\u03ba\u03cc\u03bd\u03b7 \u03c4\u03bf\u03c5 \u03a7\u03c1\u03cc\u03bd\u03bf\u03c5", "overview": "A, an American film director of Greek ancestry, is making a film that tells his story and the story of his parents. It is a tale that unfolds in Italy, Germany, Russia, Kazakhstan, Canada and the USA. The main character is Eleni, who is claimed and claims the absoluteness of love. At the same time the film is a long journey into the vast history and the events of the last fifty years that left their mark on the 20th century. The characters in the film move as though in a dream. The dust of time confuses memories. A searches for them and experiences them in the present.", "poster_path": "/o4hPLoXuABQf6uGEt7QPQirjcX8.jpg", "release_date": "2008-11-22", "title": "The Dust of Time", "video": false, "vote_average": 6.5, "vote_count": 10, "popularity": 2.956}, {"id": 129820, "video": false, "vote_count": 10, "vote_average": 7.8, "title": "Silence and Cry", "release_date": "1968-06-12", "original_language": "hu", "original_title": "Csend \u00e9s ki\u00e1lt\u00e1s", "genre_ids": [18], "backdrop_path": "/d1ctwOK7AWf8cgEnnSPjw5KOwdL.jpg", "adult": false, "overview": "Mikl\u00f3s Jancs\u00f3's Silence and Cry is set during a turbulent era of disquiet, fear, persecution and terror, which permeates every corner of post-WWI Hungarian society. In 1919, after just a few months of communist rule the Hungarian Republic of Councils falls victim to a nationalist counter-revolution. Admiral Horthy, leader of the nationalist far right movement, becomes the self-proclaimed regent of Hungary, and assumes power as the legal Head of State. Soldiers of the short-lived Hungarian Red Army are now on the run from relentless secret policemen and patrol units of the nationalist Royal Gendarme. If caught, ex-Red Army soldiers are executed without mercy or proper trial. Istv\u00e1n Cserzi, a former soldier of the Red Army has fled to the Great Hungarian Plains and has taken refuge on a farm, which is run by two sympathetic women. Due to the generosity of these women and a former childhood pal...", "poster_path": "/5Aynvd6B3812fVInLNMXTsYEGvC.jpg", "popularity": 3.906}, {"adult": false, "backdrop_path": "/viV9Nlhkw4PdrMilAy6N2NYHSew.jpg", "genre_ids": [18], "id": 229173, "original_language": "ja", "original_title": "\u7956\u8c37\u7269\u8a9e -\u304a\u304f\u306e\u3072\u3068-", "overview": "It was summer when a stranger from Tokyo arrived at \u201cIya\u201d, where the riches of nature still abound. This young man, named Kudo, was willing to live his new, self-sufficient life. He was exhausted by city life, and believed this beautiful land would give him some rest. On the contrary, the reality was not as easy as he thought. There was a confliction between a local construction company and a group of nature conservationists. Farmers are trying to save their harvests from harmful animals such as deer and monkeys. People are fighting for their own purposes: to get their job, to save the environment, or to survive.", "poster_path": "/6SK7iNDKDnf18CZqCs4fo5bBDon.jpg", "release_date": "2013-10-22", "title": "The Tale of Iya", "video": false, "vote_average": 6.9, "vote_count": 11, "popularity": 2.037}, {"adult": false, "backdrop_path": "/eRf6BJ0zdGkgu7HNGMJKdKZjuB.jpg", "genre_ids": [35, 18, 27], "id": 62982, "original_language": "sv", "original_title": "Pr\u00e4st\u00e4nkan", "overview": "A young man is elected by a small village to be its parson. As part of his duties, he is required to marry the widow of the parson before him. This poses two problems--first, the widow is old enough to be his grandmother, and second, he is already engaged to another woman.", "poster_path": "/u698h1wqz0UvqhiKEhCsIEiESqS.jpg", "release_date": "1920-10-04", "title": "The Parson's Widow", "video": false, "vote_average": 7.8, "vote_count": 12, "popularity": 1.433}, {"adult": false, "backdrop_path": "/suGBLn2TEPC1XdY4G64gd5S6QQ9.jpg", "genre_ids": [36, 10402, 99], "id": 34835, "original_language": "en", "original_title": "It Felt Like a Kiss", "overview": "The story of America's rise to power starting in 1959, it uses nothing but archive footage and America pop music. Showing the consequences on the rest of the world and in peoples mind.", "poster_path": "/no8afT9HDkqOCulkyTtTPZzx5uS.jpg", "release_date": "2009-01-01", "title": "It Felt Like a Kiss", "video": false, "vote_average": 7.1, "vote_count": 17, "popularity": 4.363}], "total_pages": 1, "total_results": 11}, "credits": {"cast": [{"cast_id": 2, "character": "", "credit_id": "5332d8069251410b5d003348", "gender": 2, "id": 10333, "name": "Vangelis Kazan", "order": 0, "profile_path": "/zjftqUNwcJ2t4kvNNHcK7L2gAA4.jpg"}, {"cast_id": 11, "character": "Sofianos", "credit_id": "58ac43c292514158c00146cf", "gender": 0, "id": 1762732, "name": "Kostas Pavlou", "order": 1, "profile_path": null}, {"cast_id": 3, "character": "Brother of Convict", "credit_id": "5332d82b9251410b5d003395", "gender": 2, "id": 273871, "name": "Thanos Grammenos", "order": 2, "profile_path": "/o2YG3iIUdaSZc3GqWpclDbXn7rw.jpg"}, {"cast_id": 4, "character": "Kontaxis", "credit_id": "5332d83d9251410b4b0035d4", "gender": 0, "id": 1243364, "name": "Giorgos Kyritsis", "order": 3, "profile_path": null}, {"cast_id": 5, "character": "", "credit_id": "5332d8489251410b51003718", "gender": 2, "id": 10335, "name": "Petros Zarkadis", "order": 4, "profile_path": "/2tl8RN473czHqu8T9rIamI3qvxM.jpg"}, {"cast_id": 6, "character": "", "credit_id": "5332d8559251410b600036ab", "gender": 2, "id": 1134114, "name": "Christoforos Nezer", "order": 5, "profile_path": null}, {"cast_id": 12, "character": "", "credit_id": "58ac43ddc3a36849ea012a79", "gender": 0, "id": 1357212, "name": "Toula Stathopoulou", "order": 6, "profile_path": null}, {"cast_id": 13, "character": "", "credit_id": "58ac43e792514158bc014b33", "gender": 2, "id": 1144911, "name": "Christos Kalavrouzos", "order": 7, "profile_path": "/ciVYP5NyXrFjwc75l56XVo50BD1.jpg"}, {"cast_id": 14, "character": "", "credit_id": "58ac43efc3a3684a0a013d17", "gender": 2, "id": 1382831, "name": "Vasilis Tsaglos", "order": 8, "profile_path": "/8g5f5Zppnfdant677RskZFEKaN1.jpg"}, {"cast_id": 15, "character": "Hostage", "credit_id": "58ac43fcc3a36849cc012fd9", "gender": 0, "id": 1762734, "name": "Giannis Kandilas", "order": 9, "profile_path": null}, {"cast_id": 16, "character": "", "credit_id": "58ac4409925141590e013002", "gender": 0, "id": 1762735, "name": "Petros Hoedas", "order": 10, "profile_path": null}, {"cast_id": 17, "character": "Chief police", "credit_id": "58ac441992514158c0014701", "gender": 0, "id": 1762736, "name": "Takis Doukatos", "order": 11, "profile_path": null}, {"cast_id": 18, "character": "", "credit_id": "58ac4423c3a36849e0012af5", "gender": 0, "id": 1762737, "name": "Alekos Boubis", "order": 12, "profile_path": null}, {"cast_id": 19, "character": "", "credit_id": "58ac442dc3a36849e0012afc", "gender": 2, "id": 1392833, "name": "Giorgos Tzifos", "order": 13, "profile_path": "/ayQXxW6WJILTHYzjY9sBBFEzbPe.jpg"}, {"cast_id": 8, "character": "", "credit_id": "5332d8c79251410b4b003659", "gender": 1, "id": 1072008, "name": "Kaiti Ibrohori", "order": 14, "profile_path": "/4wRqjuvJqKHBIiKWtIcgeX7desX.jpg"}], "crew": [{"credit_id": "52fe4b53c3a36847f81fe2b3", "department": "Directing", "gender": 2, "id": 10316, "job": "Director", "name": "Theo Angelopoulos", "profile_path": "/yKDJNi4vmEjRGGRVdGFnnkAuO9f.jpg"}, {"credit_id": "584b15c992514133ab0021c8", "department": "Writing", "gender": 0, "id": 150569, "job": "Writer", "name": "Thanassis Valtinos", "profile_path": null}, {"credit_id": "584b15d592514133bd002165", "department": "Writing", "gender": 2, "id": 10316, "job": "Writer", "name": "Theo Angelopoulos", "profile_path": "/yKDJNi4vmEjRGGRVdGFnnkAuO9f.jpg"}, {"credit_id": "598c51bec3a36873bd00e726", "department": "Writing", "gender": 0, "id": 1867021, "job": "Writer", "name": "Stratis Karras", "profile_path": null}, {"credit_id": "598c51ca9251410815010376", "department": "Writing", "gender": 0, "id": 144459, "job": "Writer", "name": "Petros Markaris", "profile_path": null}, {"credit_id": "598c51e3c3a368739900ffc2", "department": "Production", "gender": 0, "id": 1867267, "job": "Producer", "name": "Giorgos Papalios", "profile_path": null}, {"credit_id": "598c51ecc3a368739900ffd0", "department": "Camera", "gender": 2, "id": 20572, "job": "Director of Photography", "name": "Giorgos Arvanitis", "profile_path": "/8h9SwFNVktZlnWah5jaVky2CwBV.jpg"}, {"credit_id": "598c51fc92514107d6010a23", "department": "Camera", "gender": 0, "id": 1707403, "job": "Director of Photography", "name": "Vasilis Hristomoglou", "profile_path": null}, {"credit_id": "598c520a9251415add002c2d", "department": "Editing", "gender": 0, "id": 1439006, "job": "Editor", "name": "Vasilis Syropoulos", "profile_path": null}, {"credit_id": "598c521a92514107d6010a3b", "department": "Sound", "gender": 0, "id": 10328, "job": "Sound Designer", "name": "Thanassis Arvanitis", "profile_path": null}]}}