{"adult": false, "backdrop_path": "/zyLIKRtBm8pjNRF1jfa6OJNtRQ.jpg", "belongs_to_collection": null, "budget": 0, "genres": [{"id": 18, "name": "Drama"}, {"id": 14, "name": "Fantasy"}], "homepage": null, "id": 115108, "imdb_id": "tt0064593", "original_language": "fr", "original_title": "Le lit de la vierge", "overview": "30 year old child enters the new city, riding on a donkey. He says he is the Savior. He has spent no time among men. He is trembling with cold. His clothes are soaked. His mother was overprotective ; his father conspicuously absent. He knows that he must face the mockery, refusal, ignorance and blindness of the men around him. They travel in gangs, in large numbers : soldiers, mercenaries or the like, on majestic, imposing horses. Everything is out of proportion to his thin, bewildered, innocent body ; he is the madman of the new city...", "popularity": 1.873, "poster_path": "/7d8FPbnUcTLJeZODFAikERqQ8TF.jpg", "production_companies": [{"id": 99654, "logo_path": null, "name": "Zanzibar Productions", "origin_country": ""}], "production_countries": [{"iso_3166_1": "FR", "name": "France"}], "release_date": "1969-05-14", "revenue": 0, "runtime": 114, "spoken_languages": [{"iso_639_1": "fr", "name": "Fran\u00e7ais"}], "status": "Released", "tagline": "", "title": "The Virgin's Bed", "video": false, "vote_average": 6.4, "vote_count": 8, "keywords": {"keywords": [{"id": 3070, "name": "mercenary"}, {"id": 14629, "name": "experimental"}, {"id": 15216, "name": "avant-garde"}]}, "similar": {"page": 1, "results": [{"id": 621733, "video": false, "vote_count": 0, "vote_average": 0.0, "title": "A Trip to the Seaside", "release_date": "2019-08-30", "original_language": "en", "original_title": "A Trip to the Seaside", "genre_ids": [99], "backdrop_path": null, "adult": false, "overview": "Experimental short film on the excitement and rush of a day trip", "poster_path": "/AuZVhpoJ4jm2LWDhoJKfxQfhDAi.jpg", "popularity": 1.324}, {"id": 650755, "video": false, "vote_count": 0, "vote_average": 0.0, "title": "Atordoado, Eu Permane\u00e7o Atento", "release_date": "2020-01-15", "original_language": "pt", "original_title": "Atordoado, Eu Permane\u00e7o Atento", "genre_ids": [99], "backdrop_path": null, "adult": false, "overview": "", "poster_path": "/exbM8qk6f6T44olJXcM8ix1sunL.jpg", "popularity": 5.092}, {"id": 2284, "video": false, "vote_count": 767, "vote_average": 6.2, "title": "Mr. Magorium's Wonder Emporium", "release_date": "2007-11-14", "original_language": "en", "original_title": "Mr. Magorium's Wonder Emporium", "genre_ids": [35, 14, 10751], "backdrop_path": "/icq8EO55IEvDo7OGCQfFXZ8l3Sv.jpg", "adult": false, "overview": "Molly Mahoney is the awkward and insecure manager of Mr. Magorium's Wonder Emporium\u2014the strangest, most fantastic and most wonderful toy store in the world. After Mr. Magorium bequeaths the store to her, a dark and ominous change begins to take over the once-remarkable Emporium.", "poster_path": "/75m4IBZE6gUrltcDgTSBTFg68QT.jpg", "popularity": 11.549}, {"id": 116711, "video": false, "vote_count": 1799, "vote_average": 6.4, "title": "Epic", "release_date": "2013-05-15", "original_language": "en", "original_title": "Epic", "genre_ids": [12, 16, 14, 10751], "backdrop_path": "/v6w2o3ji8aVLph6zNgR5yDGQfmS.jpg", "adult": false, "overview": "A teenager finds herself transported to a deep forest setting where a battle between the forces of good and the forces of evil is taking place. She bands together with a rag-tag group characters in order to save their world\u2014and ours.", "poster_path": "/dUeXOJCpfWmZd9KaPkq2122J1ji.jpg", "popularity": 23.365}, {"id": 879, "video": false, "vote_count": 3284, "vote_average": 6.9, "title": "Hook", "release_date": "1991-12-11", "original_language": "en", "original_title": "Hook", "genre_ids": [12, 35, 14, 10751], "backdrop_path": "/rAb7vx2UauhHUmrYhZVoQxXuz37.jpg", "adult": false, "overview": "The boy who wasn't supposed grow up\u2014Peter Pan\u2014does just that, becoming a soulless corporate lawyer whose workaholism could cost him his wife and kids. During his trip to see Granny Wendy in London, the vengeful Capt. Hook kidnaps Peter's kids and forces Peter to return to Neverland.", "poster_path": "/6plGuz8L3fvkuENB0G2ZpBz6kej.jpg", "popularity": 18.327}, {"id": 300671, "video": false, "vote_count": 1700, "vote_average": 7.1, "title": "13 Hours: The Secret Soldiers of Benghazi", "release_date": "2016-01-13", "original_language": "en", "original_title": "13 Hours: The Secret Soldiers of Benghazi", "genre_ids": [28, 18, 36, 53, 10752], "backdrop_path": "/hY8myWhjSOUeeiPskhOfwwgaCwc.jpg", "adult": false, "overview": "An American Ambassador is killed during an attack at a U.S. compound in Libya as a security team struggles to make sense out of the chaos.", "poster_path": "/4gpW4MkRI0BB17GHOJzXq0WamDP.jpg", "popularity": 20.173}, {"adult": false, "backdrop_path": "/4QBI1pdjr2hH1fgC8NqwZZnWNso.jpg", "genre_ids": [10749, 35, 18], "id": 138697, "original_language": "en", "original_title": "Don Jon", "overview": "A New Jersey guy dedicated to his family, friends, and church, develops unrealistic expectations from watching porn and works to find happiness and intimacy with his potential true love.", "poster_path": "/xD93OhEhMPN0v5VXt21D6rx7HGg.jpg", "release_date": "2013-07-26", "title": "Don Jon", "video": false, "vote_average": 5.9, "vote_count": 2910, "popularity": 20.524}, {"id": 615, "video": false, "vote_count": 1934, "vote_average": 7.1, "title": "The Passion of the Christ", "release_date": "2004-02-25", "original_language": "en", "original_title": "The Passion of the Christ", "genre_ids": [18], "backdrop_path": "/clVnEHURb8Ot3twaLmf7N1lNym1.jpg", "adult": false, "overview": "A graphic portrayal of the last twelve hours of Jesus of Nazareth's life.", "poster_path": "/oFuLM1EaKhi1WNWiTjQ1HKIZ1Eg.jpg", "popularity": 21.645}, {"id": 637, "video": false, "vote_count": 8083, "vote_average": 8.5, "title": "Life Is Beautiful", "release_date": "1997-12-20", "original_language": "it", "original_title": "La vita \u00e8 bella", "genre_ids": [35, 18], "backdrop_path": "/bORe0eI72D874TMawOOFvqWS6Xe.jpg", "adult": false, "overview": "A touching story of an Italian book seller of Jewish ancestry who lives in his own little fairy tale. His creative and happy life would come to an abrupt halt when his entire family is deported to a concentration camp during World War II. While locked up he tries to convince his son that the whole thing is just a game.", "poster_path": "/f7DImXDebOs148U4uPjI61iDvaK.jpg", "popularity": 23.166}, {"id": 13486, "video": false, "vote_count": 327, "vote_average": 4.3, "title": "The Scorpion King 2: Rise of a Warrior", "release_date": "2008-07-19", "original_language": "en", "original_title": "The Scorpion King 2: Rise of a Warrior", "genre_ids": [28, 12, 14, 878], "backdrop_path": "/3K2e6Rn4B00T6VV3tl8BaQYJ3q0.jpg", "adult": false, "overview": "The heroic tale of young Mathayus and his relentless quest for justice against an evil and powerful villain, King Sargon. Mathayus faces heart-stopping tribulations during his adventurous, odds-defying trajectory toward his ultimate destiny: becoming the formidable warrior king of an ancient desert empire.", "poster_path": "/quqsgaoLSct4DzsKb6I7S5wmapw.jpg", "popularity": 14.356}, {"id": 12155, "video": false, "vote_count": 9562, "vote_average": 6.6, "title": "Alice in Wonderland", "release_date": "2010-03-03", "original_language": "en", "original_title": "Alice in Wonderland", "genre_ids": [12, 14, 10751], "backdrop_path": "/aBCjJWQkEsn3Y3nbx1IOKRLalqa.jpg", "adult": false, "overview": "Alice, an unpretentious and individual 19-year-old, is betrothed to a dunce of an English nobleman. At her engagement party, she escapes the crowd to consider whether to go through with the marriage and falls down a hole in the garden after spotting an unusual rabbit. Arriving in a strange and surreal place called 'Underland,' she finds herself in a world that resembles the nightmares she had as a child, filled with talking animals, villainous queens and knights, and frumious bandersnatches. Alice realizes that she is there for a reason \u2013 to conquer the horrific Jabberwocky and restore the rightful queen to her throne.", "poster_path": "/o0kre9wRCZz3jjSjaru7QU0UtFz.jpg", "popularity": 30.055}, {"id": 428045, "video": false, "vote_count": 32, "vote_average": 4.7, "title": "The Mystery of the Dragon\u2019s Seal", "release_date": "2019-08-16", "original_language": "ru", "original_title": "\u0422\u0430\u0439\u043d\u0430 \u041f\u0435\u0447\u0430\u0442\u0438 \u0414\u0440\u0430\u043a\u043e\u043d\u0430", "genre_ids": [12, 14], "backdrop_path": "/5yiCqzmxYv36GGdc05egCMHedbX.jpg", "adult": false, "overview": "The Russian Czar Peter the Great commissions Jonathan Green, an English traveller, to map the Far East territories of the Russian Empire. Green sets off on yet another long journey, full of unbelievable adventures, which eventually leads him to China. On his way, the famous cartographer makes breath-taking discoveries, meets mysterious creatures, Chinese princesses, deadly masters of oriental martial arts, and even Lun Van, the King of Dragons, himself. What could be more perilous than looking into the eyes of Viy? Only meeting him again\u2026 What will prevail this time \u2014 the unflinching scepticism of the scientist or ancient black magic, which has already gained influence over the Far East Lands?", "poster_path": "/vS6TCG4HiUSCyX30f5wDGQDt1k3.jpg", "popularity": 53.869}, {"id": 460793, "video": false, "vote_count": 933, "vote_average": 6.2, "title": "Olaf's Frozen Adventure", "release_date": "2017-10-27", "original_language": "en", "original_title": "Olaf's Frozen Adventure", "genre_ids": [12, 16, 35, 14, 10402, 10751], "backdrop_path": "/9K4QqQZg4TVXcxBGDiVY4Aey3Rn.jpg", "adult": false, "overview": "Olaf is on a mission to harness the best holiday traditions for Anna, Elsa, and Kristoff.", "poster_path": "/As8WTtxXs9e3cBit3ztTf7zoRmm.jpg", "popularity": 21.98}, {"id": 621485, "video": false, "vote_count": 2, "vote_average": 5.5, "title": "Guest of Honor", "release_date": "2019-08-14", "original_language": "en", "original_title": "Guest of Honor", "genre_ids": [18], "backdrop_path": "/qo3f05mAqiGG5yDyVhURwwhR1oh.jpg", "adult": false, "overview": "A devout Nazi oversees a group of taste testers for Hitler.", "poster_path": "/g02YorY0sAVDJuXdL42Vpmqtv0g.jpg", "popularity": 3.407}, {"adult": false, "backdrop_path": null, "genre_ids": [], "id": 616262, "original_language": "ar", "original_title": "All Come From Dust", "overview": "A loop of edgeless bend. You were its doom, he was its bloom. You were its tomb, he was its womb. You were its gloom, he was its loom. For Heaven and Hell, were words made of fume.", "poster_path": null, "release_date": "2019-08-13", "title": "All Come From Dust", "video": false, "vote_average": 5.0, "vote_count": 1, "popularity": 0.6}, {"adult": false, "backdrop_path": "/cTPS3ib89O4HSOtZDa3YXvaas5F.jpg", "genre_ids": [53, 878, 28, 12], "id": 307663, "original_language": "en", "original_title": "Vice", "overview": "Julian Michaels has designed the ultimate resort: VICE, where anything goes and the customers can play out their wildest fantasies with artificial inhabitants who look, think and feel like humans. When an artificial becomes self-aware and escapes, she finds herself caught in the crossfire between Julian's mercenaries and a cop who is hell-bent on shutting down Vice, and stopping the violence once and for all.", "poster_path": "/gwiY5RJFYSjsoSwoeeo6AbGYjpb.jpg", "release_date": "2015-01-16", "title": "Vice", "video": false, "vote_average": 4.3, "vote_count": 344, "popularity": 16.357}, {"adult": false, "backdrop_path": "/2f8fkWSWOVcTlWforoVpsuaCiwI.jpg", "genre_ids": [53, 28], "id": 449985, "original_language": "en", "original_title": "Triple Threat", "overview": "A crime syndicate places a hit on a billionaire's daughter, making her the target of an elite assassin squad. A small band of down-and-out mercenaries protects her, fighting tooth and nail to stop the assassins from reaching their target.", "poster_path": "/cSpM3QxmoSLp4O1WAMQpUDcaB7R.jpg", "release_date": "2019-03-19", "title": "Triple Threat", "video": false, "vote_average": 5.5, "vote_count": 146, "popularity": 14.986}, {"id": 184315, "video": false, "vote_count": 2804, "vote_average": 5.7, "title": "Hercules", "release_date": "2014-07-23", "original_language": "en", "original_title": "Hercules", "genre_ids": [28, 12], "backdrop_path": "/pNPdcgHT1FpCmauzFWepyfDvDo9.jpg", "adult": false, "overview": "Fourteen hundred years ago, a tormented soul walked the earth that was neither man nor god. Hercules was the powerful son of the god king Zeus, for this he received nothing but suffering his entire life. After twelve arduous labors and the loss of his family, this dark, world-weary soul turned his back on the gods finding his only solace in bloody battle. Over the years he warmed to the company of six similar souls, their only bond being their love of fighting and presence of death. These men and woman never question where they go to fight or why or whom, just how much they will be paid. Now the King of Thrace has hired these mercenaries to train his men to become the greatest army of all time. It is time for this bunch of lost souls to finally have their eyes opened to how far they have fallen when they must train an army to become as ruthless and blood thirsty as their reputation has become.", "poster_path": "/wGAWxOnVjwXqvoiKX7Pf6XOWnPJ.jpg", "popularity": 31.25}, {"id": 383498, "video": false, "vote_count": 10248, "vote_average": 7.5, "title": "Deadpool 2", "release_date": "2018-05-10", "original_language": "en", "original_title": "Deadpool 2", "genre_ids": [28, 12, 35], "backdrop_path": "/3P52oz9HPQWxcwHOwxtyrVV1LKi.jpg", "adult": false, "overview": "Wisecracking mercenary Deadpool battles the evil and powerful Cable and other bad guys to save a boy's life.", "poster_path": "/to0spRl1CMDvyUbOnbb4fTk3VAd.jpg", "popularity": 37.076}, {"id": 326359, "video": false, "vote_count": 1180, "vote_average": 6.8, "title": "Frozen Fever", "release_date": "2015-03-09", "original_language": "en", "original_title": "Frozen Fever", "genre_ids": [12, 16, 10751], "backdrop_path": "/ubioPGniCfDiASmYYpeJs5RRNaC.jpg", "adult": false, "overview": "On Anna's birthday, Elsa and Kristoff are determined to give her the best celebration ever, but Elsa's icy powers may put more than just the party at risk.", "poster_path": "/lKJiVPzsAO9IJ4LKWXZ8vkR2bg4.jpg", "popularity": 17.218}], "total_pages": 635, "total_results": 12692}, "recommendations": {"page": 1, "results": [{"adult": false, "backdrop_path": "/tNxjoABrOZIi3xCuMep0cJmZaUt.jpg", "genre_ids": [18], "id": 64404, "original_language": "fr", "original_title": "Le R\u00e9v\u00e9lateur", "overview": "A 4-year-old child is the element from and around which the action develops, and brings sentiments and emotions to light", "poster_path": "/lFufQDy4CbjDtaQIwwmigZshThH.jpg", "release_date": "1968-09-17", "title": "Le R\u00e9v\u00e9lateur", "video": false, "vote_average": 6.8, "vote_count": 12, "popularity": 3.639}, {"adult": false, "backdrop_path": "/iemoQYKdZXJezf0S60Ul5tn0gur.jpg", "genre_ids": [18, 10402], "id": 129129, "original_language": "en", "original_title": "Light Is Calling", "overview": "A scene from The Bells (1926) is optically reprinted and edited to Michael Gordon's 7 minute composition. A meditation on the fleeting nature of life and love, as seen through the roiling emulsion of a film.", "poster_path": "/5rriEvamlD7iThikQgzchfQyxxh.jpg", "release_date": "2004-01-16", "title": "Light Is Calling", "video": false, "vote_average": 7.0, "vote_count": 13, "popularity": 2.19}, {"adult": false, "backdrop_path": null, "genre_ids": [16], "id": 175911, "original_language": "pl", "original_title": "Podr\u00f3\u017c", "overview": "Seemingly, nothing happens in the film. The viewer watches a train journey. A rhythm of the film is determined by monotonous sounds, pylons or landscapes that the train is passing.", "poster_path": "/4f4yDCvevpO80bvPqfik6NVwlD1.jpg", "release_date": "1970-06-01", "title": "Podr\u00f3\u017c", "video": false, "vote_average": 6.7, "vote_count": 3, "popularity": 1.32}, {"adult": false, "backdrop_path": null, "genre_ids": [99], "id": 258945, "original_language": "pl", "original_title": "Wszystko moze sie przytrafic", "overview": "A story of life and death, featuring Lozinski's six-year-old son Tomaszek and elderly people spending time on the benches of a Warsaw park. Riding his scooter, Tomaszek asks the elderly very adult, though basic, questions, which they are happy to answer. The boy's ideas of future and life are confronted with those of men at the end of their lives.", "poster_path": "/fdfzqEBKtMpqjKXg5bAfD1s7BE3.jpg", "release_date": "1995-12-10", "title": "Anything Can Happen", "video": false, "vote_average": 6.3, "vote_count": 6, "popularity": 0.6}, {"adult": false, "backdrop_path": "/tEDjdpPC9nC8SrJdvgq0ft33z1D.jpg", "genre_ids": [35, 18], "id": 63320, "original_language": "en", "original_title": "Lions Love", "overview": "Three actors in Hollywood live and love together. A director comes from New York to make a movie about actors and Hollywood.", "poster_path": "/s8r1oFBHcRymIDhwWKa4ysbiET7.jpg", "release_date": "1969-09-20", "title": "Lions Love", "video": false, "vote_average": 6.6, "vote_count": 7, "popularity": 2.696}, {"adult": false, "backdrop_path": "/2v9dxL19ndUxPbx3DLlxgnrLYWX.jpg", "genre_ids": [99], "id": 23207, "original_language": "en", "original_title": "Crossing the Line", "overview": "In 1962, a U.S. soldier sent to guard the peace in South Korea deserted his unit, walked across the most heavily fortified area on earth and defected to the Cold War enemy, the communist state of North Korea. He became a star of the North Korean propaganda machine, but then disappeared from the face of the earth. Now, after 45 years, the story of James Dresnok, the last American defector in North Korea, is being told for the first time. Crossing the Line follows Dresnok as he recalls his childhood, desertion, and life in the DPRK.", "poster_path": "/eVxeU9KZg6e4ZX9qhBaWMY3MRI1.jpg", "release_date": "2006-10-16", "title": "Crossing the Line", "video": false, "vote_average": 7.0, "vote_count": 8, "popularity": 4.089}], "total_pages": 1, "total_results": 6}, "credits": {"cast": [{"cast_id": 3, "character": "Marie / Marie Magdal\u00e8ne", "credit_id": "52fe4b61c3a36847f8200ded", "gender": 1, "id": 34266, "name": "Zouzou", "order": 0, "profile_path": "/eLYwP6gCxDaM8gQmOsBpAyOOMtk.jpg"}, {"cast_id": 4, "character": "Jesus", "credit_id": "52fe4b61c3a36847f8200df1", "gender": 2, "id": 17577, "name": "Pierre Cl\u00e9menti", "order": 1, "profile_path": "/knoMVwKuw2dGAgs1s3l460J9iXc.jpg"}, {"cast_id": 5, "character": "Prisoner", "credit_id": "563876849251413b13000ad5", "gender": 1, "id": 109142, "name": "Tina Aumont", "order": 2, "profile_path": "/dg8VhEYHh5QD1tDeILKivbng0LO.jpg"}, {"cast_id": 8, "character": "Apostle", "credit_id": "563876ab925141285701ed27", "gender": 2, "id": 56207, "name": "Philippe Garrel", "order": 3, "profile_path": "/sPNYmUHACjxWS8sRwkVDrPglKrz.jpg"}, {"cast_id": 7, "character": "Horseman", "credit_id": "5638769dc3a3681b4b01d02b", "gender": 2, "id": 16350, "name": "Jean-Pierre Kalfon", "order": 4, "profile_path": "/70bQNgL8PAhTybJp6QfjsmGwvVR.jpg"}, {"cast_id": 9, "character": "", "credit_id": "5a5b1b430e0a267fe601bbc5", "gender": 1, "id": 39199, "name": "Val\u00e9rie Lagrange", "order": 5, "profile_path": "/egWOTfWX1ZWZahrE2iwIP176xE4.jpg"}, {"cast_id": 10, "character": "", "credit_id": "5a5b1b4a0e0a267fe001c170", "gender": 2, "id": 1385637, "name": "Pierre-Richard Br\u00e9", "order": 6, "profile_path": "/etS5ZsS1KrAgMtpTW6aoXRaSHgs.jpg"}, {"cast_id": 11, "character": "", "credit_id": "5a5b1b5ac3a36867e401c17b", "gender": 1, "id": 545043, "name": "Babette Lamy", "order": 7, "profile_path": "/wR1P7n6teZeZZeQiPjTJEdvEDMv.jpg"}, {"cast_id": 12, "character": "", "credit_id": "5a5b1b639251413f6801a2e8", "gender": 0, "id": 1606881, "name": "Didier L\u00e9on", "order": 8, "profile_path": null}, {"cast_id": 13, "character": "Prisoner", "credit_id": "5a5b1b71c3a368680d01a6ab", "gender": 0, "id": 1959683, "name": "Jaime Semprun", "order": 9, "profile_path": null}, {"cast_id": 6, "character": "Tortured woman", "credit_id": "5638768ec3a3681b4d0219e5", "gender": 1, "id": 95225, "name": "Margareth Cl\u00e9menti", "order": 10, "profile_path": "/wfjLES1Ss5IyxdQpuLgOjpP6rFr.jpg"}, {"cast_id": 14, "character": "", "credit_id": "5a5b1b839251413f6501a087", "gender": 0, "id": 1889400, "name": "Nicole Laguigner", "order": 11, "profile_path": null}], "crew": [{"credit_id": "52fe4b61c3a36847f8200de3", "department": "Directing", "gender": 2, "id": 56207, "job": "Director", "name": "Philippe Garrel", "profile_path": "/sPNYmUHACjxWS8sRwkVDrPglKrz.jpg"}, {"credit_id": "5a5b1bc50e0a267fd301c1d7", "department": "Editing", "gender": 2, "id": 56207, "job": "Editor", "name": "Philippe Garrel", "profile_path": "/sPNYmUHACjxWS8sRwkVDrPglKrz.jpg"}, {"credit_id": "5a5b1bb0c3a36867d601ac87", "department": "Production", "gender": 2, "id": 56207, "job": "Producer", "name": "Philippe Garrel", "profile_path": "/sPNYmUHACjxWS8sRwkVDrPglKrz.jpg"}, {"credit_id": "52fe4b61c3a36847f8200de9", "department": "Writing", "gender": 2, "id": 56207, "job": "Writer", "name": "Philippe Garrel", "profile_path": "/sPNYmUHACjxWS8sRwkVDrPglKrz.jpg"}, {"credit_id": "5a5b1bdc9251413f7701b3ac", "department": "Sound", "gender": 2, "id": 56207, "job": "Sound", "name": "Philippe Garrel", "profile_path": "/sPNYmUHACjxWS8sRwkVDrPglKrz.jpg"}, {"credit_id": "5a5b1ba5c3a368680d01a6ea", "department": "Production", "gender": 1, "id": 1294989, "job": "Producer", "name": "Sylvina Boissonnas", "profile_path": null}, {"credit_id": "5d4628f60f2fbd0fafee60ab", "department": "Camera", "gender": 2, "id": 1519824, "job": "Director of Photography", "name": "Michel Fournier", "profile_path": "/f7JrHxVHDoKGhlIMF2CfBuBhcyC.jpg"}, {"credit_id": "5a5b1be49251413f6b01a4e5", "department": "Sound", "gender": 0, "id": 1959688, "job": "Sound", "name": "Claude Jauvert", "profile_path": null}]}}