{"adult": false, "backdrop_path": "/gbYk2P6fjngbMOK9E8EA2EtLDNB.jpg", "belongs_to_collection": null, "budget": 0, "genres": [{"id": 37, "name": "Western"}], "homepage": "http://www.imdb.com/title/tt0067643/", "id": 115353, "imdb_id": "tt0067643", "original_language": "it", "original_title": "Quel maledetto giorno d'inverno... Django e Sartana all'ultimo sangue", "overview": "The small desert town of Black City is held in a reign of terror by a nasty gang of criminals lead by the ruthless Bud Willer. Earnest, but inexperienced Sheriff Jack Ronson arrives in town to establish law and order. Mysterious bounty hunter Django helps Ronson out.", "popularity": 2.157, "poster_path": "/vgu2pr2kCkkxoP3hISs275ptlQw.jpg", "production_companies": [{"id": 12085, "logo_path": null, "name": "Tarquinia Cinematografica", "origin_country": ""}, {"id": 12086, "logo_path": null, "name": "Tarquinia Film", "origin_country": ""}], "production_countries": [{"iso_3166_1": "IT", "name": "Italy"}], "release_date": "1970-06-13", "revenue": 0, "runtime": 97, "spoken_languages": [{"iso_639_1": "it", "name": "Italiano"}], "status": "Released", "tagline": "", "title": "One Damned Day at Dawn... Django Meets Sartana!", "video": false, "vote_average": 5.9, "vote_count": 9, "keywords": {"keywords": [{"id": 156212, "name": "spaghetti western"}, {"id": 160324, "name": "django"}, {"id": 185463, "name": "sartana"}]}, "similar": {"page": 1, "results": [{"id": 16662, "video": false, "vote_count": 70, "vote_average": 7.7, "title": "The Big Gundown", "release_date": "1966-11-29", "original_language": "it", "original_title": "La resa dei conti", "genre_ids": [37], "backdrop_path": "/dfGmMFRzZfURBHIeCkYTP8Ug7IF.jpg", "adult": false, "overview": "Unofficial lawman John Corbett hunts down Cuchillo Sanchez, a Mexican peasant accused of raping and killing a 12-year-old girl.", "poster_path": "/A38dV8xxuXetWzcSazrdk3wE8Pv.jpg", "popularity": 8.169}, {"id": 10772, "video": false, "vote_count": 397, "vote_average": 7.3, "title": "Django", "release_date": "1966-04-05", "original_language": "it", "original_title": "Django", "genre_ids": [28, 37], "backdrop_path": "/mIgmo89c4gBc2KEpoTyimSywuM0.jpg", "adult": false, "overview": "A coffin-dragging gunslinger and a half-breed prostitute become embroiled in a bitter feud between a merciless masked clan and a band of Mexican revolutionaries.", "poster_path": "/vs4vieNstSEfbgLFEelXXOPvr6h.jpg", "popularity": 13.633}, {"id": 68718, "video": false, "vote_count": 17255, "vote_average": 8.1, "title": "Django Unchained", "release_date": "2012-12-25", "original_language": "en", "original_title": "Django Unchained", "genre_ids": [18, 37], "backdrop_path": "/qUcmEqnzIwlwZxSyTf3WliSfAjJ.jpg", "adult": false, "overview": "With the help of a German bounty hunter, a freed slave sets out to rescue his wife from a brutal Mississippi plantation owner.", "poster_path": "/eCt596Z4zkqxW5AHz1HEhGm1eif.jpg", "popularity": 39.475}, {"id": 391, "video": false, "vote_count": 2101, "vote_average": 7.9, "title": "A Fistful of Dollars", "release_date": "1964-09-12", "original_language": "it", "original_title": "Per un pugno di dollari", "genre_ids": [37], "backdrop_path": "/mndYimxcima4Z5YxH8XngTEGi5L.jpg", "adult": false, "overview": "The Man With No Name enters the Mexican village of San Miguel in the midst of a power struggle among the three Rojo brothers and sheriff John Baxter. When a regiment of Mexican soldiers bearing gold intended to pay for new weapons is waylaid by the Rojo brothers, the stranger inserts himself into the middle of the long-simmering battle, selling false information to both sides for his own benefit.", "poster_path": "/sFLgxvtK9vxbNq502peVJ847Owp.jpg", "popularity": 28.062}, {"id": 335, "video": false, "vote_count": 2317, "vote_average": 8.3, "title": "Once Upon a Time in the West", "release_date": "1968-12-21", "original_language": "it", "original_title": "C'era una volta il West", "genre_ids": [37], "backdrop_path": "/sNaQWTsQFfdhjKweXbgjSHKZ8YS.jpg", "adult": false, "overview": "A widow whose land and life are in danger as the railroad is getting closer and closer to taking them over. A mysterious harmonica player joins forces with a desperado to protect the woman and her land.", "poster_path": "/3RymloPYcEPx30T1vTrz2cXaVnh.jpg", "popularity": 22.881}, {"adult": false, "backdrop_path": "/xGC2fY5KFmtuXnsuQwYQKFOLZFy.jpg", "genre_ids": [37], "id": 429, "original_language": "it", "original_title": "Il buono, il brutto, il cattivo", "overview": "While the Civil War rages between the Union and the Confederacy, three men \u2013 a quiet loner, a ruthless hit man and a Mexican bandit \u2013 comb the American Southwest in search of a strongbox containing $200,000 in stolen gold.", "poster_path": "/wfPHdfofBD5PN96dV96a51B3Ja2.jpg", "release_date": "1966-12-23", "title": "The Good, the Bad and the Ugly", "video": false, "vote_average": 8.4, "vote_count": 4582, "popularity": 33.627}, {"id": 938, "video": false, "vote_count": 2018, "vote_average": 8.0, "title": "For a Few Dollars More", "release_date": "1965-12-18", "original_language": "it", "original_title": "Per qualche dollaro in pi\u00f9", "genre_ids": [37], "backdrop_path": "/hs6OPto38fF589ScpGhl7uSU4MI.jpg", "adult": false, "overview": "Two bounty hunters are in pursuit of \"El Indio,\" one of the most wanted fugitives in the western territories, and his gang.", "poster_path": "/3jblmNz3pCdNBpdCQvD08lx7d4v.jpg", "popularity": 22.175}, {"id": 966, "video": false, "vote_count": 921, "vote_average": 7.6, "title": "The Magnificent Seven", "release_date": "1960-10-22", "original_language": "en", "original_title": "The Magnificent Seven", "genre_ids": [37], "backdrop_path": "/oRSocDAAADYnCkI4jiUeRnlCnwG.jpg", "adult": false, "overview": "An oppressed Mexican peasant village hires seven gunfighters to help defend their homes.", "poster_path": "/7w3JmmyL8GpBvW6BusQfQCSm2h0.jpg", "popularity": 16.213}, {"adult": false, "backdrop_path": "/csjX21x5Re3vQninMLJ1zJemXZ8.jpg", "genre_ids": [37], "id": 336, "original_language": "it", "original_title": "Gi\u00f9 la testa", "overview": "At the beginning of the 1913 Mexican Revolution, greedy bandit Juan Miranda and idealist John H. Mallory, an Irish Republican Army explosives expert on the lam from the British, fall in with a band of revolutionaries plotting to strike a national bank. When it turns out that the government has been using the bank as a hiding place for illegally detained political prisoners -- who are freed by the blast -- Miranda becomes a revolutionary hero against his will.", "poster_path": "/nQkr1yi87pX1d3lQVTrBEWlCpT1.jpg", "release_date": "1971-10-20", "title": "Duck, You Sucker", "video": false, "vote_average": 7.8, "vote_count": 481, "popularity": 10.37}, {"id": 10733, "video": false, "vote_count": 178, "vote_average": 5.9, "title": "The Alamo", "release_date": "2004-04-07", "original_language": "en", "original_title": "The Alamo", "genre_ids": [36, 37, 10752], "backdrop_path": "/liNSvb0RHVnLiV4XOJdWYuY8VgO.jpg", "adult": false, "overview": "Based on the 1836 standoff between a group of Texan and Tejano men, led by Davy Crockett and Jim Bowie, and Mexican dictator Santa Anna's forces at the Alamo in San Antonio, Texas.", "poster_path": "/6BjQL97zeRnpJShJV5DQT9e9SE4.jpg", "popularity": 10.0}, {"id": 2539, "video": false, "vote_count": 741, "vote_average": 5.9, "title": "Spanglish", "release_date": "2004-12-17", "original_language": "en", "original_title": "Spanglish", "genre_ids": [35], "backdrop_path": "/awcak1m6yW8393FkyeRdiiwRC7W.jpg", "adult": false, "overview": "Mexican immigrant and single mother Flor Moreno finds housekeeping work with Deborah and John Clasky, a well-off couple with two children of their own. When Flor admits she can't handle the schedule because of her daughter, Cristina, Deborah decides they should move into the Clasky home. Cultures clash and tensions run high as Flor and the Claskys struggle to share space while raising their children on their own, and very different, terms.", "poster_path": "/eXsj4d6kP5z1n9Pkk7rosX2TF9w.jpg", "popularity": 11.403}, {"id": 9474, "video": false, "vote_count": 476, "vote_average": 7.2, "title": "My Name Is Nobody", "release_date": "1973-12-13", "original_language": "it", "original_title": "Il mio nome \u00e8 Nessuno", "genre_ids": [35, 37], "backdrop_path": "/rFM1Ff7Sgga3b8zDII8j2zpo23x.jpg", "adult": false, "overview": "Jack Beauregard, one of the greatest gunman of the Old West, only wants to retire in peace and move to Europe. But a young gunfighter, known as \"Nobody\", who idolizes Beauregard, wants him to go out in glory. So he arranges for Jack to face the 150-man gang known as The Wild Bunch and earn his place in history.", "poster_path": "/6SEuNH4I6xPn3kLaEhbnB0fGLXY.jpg", "popularity": 13.742}, {"id": 7873, "video": false, "vote_count": 347, "vote_average": 6.4, "title": "Harsh Times", "release_date": "2005-09-11", "original_language": "en", "original_title": "Harsh Times", "genre_ids": [28, 80, 18, 53], "backdrop_path": "/ooWqV1Tm9LbAbEAzTqhonI7StGO.jpg", "adult": false, "overview": "Jim Davis is an ex-Army Ranger who finds himself slipping back into his old life of petty crime after a job offer from the LAPD evaporates. His best friend is pressured by his girlfriend Sylvia to find a job, but Jim is more interested in hanging out and making cash from small heists, while trying to get a law enforcement job so he can marry his Mexican girlfriend.", "poster_path": "/bULoDSFMxJ0OnyrORPwT9844B9v.jpg", "popularity": 11.636}, {"adult": false, "backdrop_path": "/7cT0Hf1F9RqDd78yyQKt1HKc2gf.jpg", "genre_ids": [28, 37, 27], "id": 61943, "original_language": "it", "original_title": "Se sei vivo spara", "overview": "A Mexican outlaw known as \"The Stranger\" is part of a band of thieves that steal a cargo of gold from a stagecoach. However, the Americans in the band betray him, and shoot all the Mexicans. The Stranger is not completely dead though, and crawls his way out of his shallow grave, continuing his pursuit of the gold, and exacting a bloody vengeance.", "poster_path": "/sWH7Mh3pZq7as2X1nTLJ5nVvQUp.jpg", "release_date": "1967-05-03", "title": "Django Kill... If You Live, Shoot!", "video": false, "vote_average": 5.8, "vote_count": 33, "popularity": 3.394}, {"id": 9394, "video": false, "vote_count": 657, "vote_average": 7.6, "title": "They Call Me Trinity", "release_date": "1970-12-22", "original_language": "it", "original_title": "Lo chiamavano Trinit\u00e0...", "genre_ids": [28, 35, 37], "backdrop_path": "/iE2Y2s15xQcNTG3x7gU2gZVvZ9x.jpg", "adult": false, "overview": "The simple story has the pair coming to the rescue of peace-loving Mormons when land-hungry Major Harriman sends his bullies to harass them into giving up their fertile valley. Trinity and Bambino manage to save the Mormons and send the bad guys packing with slapstick humor instead of excessive violence, saving the day.", "poster_path": "/5b38dfzKqUmTY2HRYrdKJ8vFWAR.jpg", "popularity": 14.663}, {"id": 11842, "video": false, "vote_count": 99, "vote_average": 6.9, "title": "Red Sun", "release_date": "1971-09-15", "original_language": "fr", "original_title": "Soleil Rouge", "genre_ids": [37], "backdrop_path": "/r8z0giMMCRXNWNgdRBmIVKmTxaz.jpg", "adult": false, "overview": "In 1870, Japanese ambassador Sakaguchi and his entourage travel by train to Washington to deliver a valuable sword to the President of the United States, a gift from the Emperor of Japan. On board the same train are two robbers, Link and Gauche, ready to make their move\u2026", "poster_path": "/j3B4MLkAwYADY1eUfw9a0ZWmyJ8.jpg", "popularity": 11.843}, {"id": 18688, "video": false, "vote_count": 16, "vote_average": 5.7, "title": "Charro!", "release_date": "1969-03-13", "original_language": "en", "original_title": "Charro!", "genre_ids": [28, 18, 37], "backdrop_path": "/fdDninhNXJQ0yImjadS9wEwglop.jpg", "adult": false, "overview": "Jess Wade is innocently accused of having stolen a cannon from the Mexican revolutionary forces. He tries to find the real culprits, a gang of criminals.", "poster_path": "/9kmv7S7GUDWkFEeIUhdkNPlFyYS.jpg", "popularity": 6.817}, {"id": 14881, "video": false, "vote_count": 152, "vote_average": 6.4, "title": "Joe Kidd", "release_date": "1972-07-14", "original_language": "en", "original_title": "Joe Kidd", "genre_ids": [37], "backdrop_path": "/rKSnMSc7312zD9pqCi1Nla8gBfl.jpg", "adult": false, "overview": "A band of Mexicans find their U. S. land claims denied and all the records destroyed in a courthouse fire. Their leader, Louis Chama, encourages them to use force to regain their land. A wealthy landowner wanting the same decides to hire a gang of killers with Joe Kidd to track Chama.", "poster_path": "/rLsoXLC2YpZ5B0OR1wTLv1i4jC3.jpg", "popularity": 11.454}, {"id": 1480, "video": false, "vote_count": 723, "vote_average": 7.8, "title": "Touch of Evil", "release_date": "1958-04-23", "original_language": "en", "original_title": "Touch of Evil", "genre_ids": [80, 53], "backdrop_path": "/pIWTZLpLfryQj4NrCY4ElI8Sk24.jpg", "adult": false, "overview": "When a car bomb explodes on the American side of the U.S./Mexico border, Mexican drug enforcement agent Miguel Vargas begins his investigation, along with American police captain Hank Quinlan. When Vargas begins to suspect that Quinlan and his shady partner, Menzies, are planting evidence to frame an innocent man, his investigations into their possible corruption quickly put himself and his new bride, Susie, in jeopardy.", "poster_path": "/1pvRgmfBaoMczIJBOi9gCOZ4FMC.jpg", "popularity": 11.022}, {"id": 11829, "video": false, "vote_count": 450, "vote_average": 7.5, "title": "Trinity Is Still My Name", "release_date": "1971-10-21", "original_language": "it", "original_title": "...continuavano a chiamarlo Trinit\u00e0", "genre_ids": [35, 37], "backdrop_path": "/asItfAmTgfrBlQXlSvNYEY38C0t.jpg", "adult": false, "overview": "A couple of two-bit thieving brothers try and keep a promise to their dying father: stick together and become successful outlaws. Bambino reluctantly agrees to show younger Trinity the ropes, but their gentle demeanors tend to diminish their haul by repeatedly helping the selfsame family they initially held up. Fun ensues in town and at the local Spanish mission where they are taken for federal agents, mistakenly so identified by Trinity's young love interest, daughter of the aforementioned family.", "poster_path": "/ddwtThqNDdAI7r56mncamY8kSZQ.jpg", "popularity": 15.823}], "total_pages": 18, "total_results": 356}, "recommendations": {"page": 1, "results": [{"id": 149736, "video": false, "vote_count": 8, "vote_average": 5.1, "title": "Lone and Angry Man", "release_date": "1965-12-23", "original_language": "it", "original_title": "Una bara per lo sceriffo", "genre_ids": [37], "backdrop_path": "/k3zSt2hZPn0T3VgWVKxPUiYD2Kk.jpg", "adult": false, "overview": "Shenandoah (Steffen) works his way into a band of highwaymen led by Rojo (Armando Calvo). His initiation consists of hunting down and killing a member of the gang who has 12 bullets while he is only given 2 bullets. When the bandits attempt to rob a wealthy rancher, whom Shenandoah knows, he warns him. The outlaws begin to suspect they were betrayed and commence to rough Shenandoah up. Shenandoah then reveals his true reason for joining the gang; one of them killed his wife and he is there for retribution.", "poster_path": "/qVtUJjs75I2xazB0hJMNY5zpVij.jpg", "popularity": 1.814}, {"id": 90015, "video": false, "vote_count": 11, "vote_average": 6.6, "title": "Bandidos", "release_date": "1967-10-15", "original_language": "it", "original_title": "Bandidos", "genre_ids": [28, 18, 37], "backdrop_path": "/A3VVZs1aTuQkm8xrHlE8lGHwrjn.jpg", "adult": false, "overview": "Renowned gunman Richard Martin is traveling on a train, held up by Billy Kane, a former student of Martin's. Kane spares Martin, but only after shooting his hands. Years later, Martin meets an escaped convict, wrongly convicted for the train robbery. Martin trains his new student and both men seek out Billy Kane.", "poster_path": "/fi2k8ZWwUpoWrIObLYBd4wOz9un.jpg", "popularity": 1.228}, {"adult": false, "backdrop_path": null, "genre_ids": [37], "id": 144343, "original_language": "it", "original_title": "Il tempo degli avvoltoi", "overview": "Kitosh, a young cowboy working for Don Jaime Morelos, is beaten almost to death under his employers orders for flirting with Don Jaime's frivolous wife. Full of hatred towards Don Jaime, Kitosh leaves the ranch and begins life as an outlaw joining up with renowned bandit Tracy the Black. Tension sets in between the two men because Kitosh kills only when he has to, whereas Tracy kills just for the fun of it, deriving a sadistic pleasure from other people's suffering.  Source: SWDB www.spaghetti-western.net", "poster_path": "/lmP3UTDCu9y3HRWT5xtLeUYvTSC.jpg", "release_date": "1967-08-02", "title": "Last of the Badmen", "video": false, "vote_average": 5.4, "vote_count": 8, "popularity": 1.289}, {"id": 73740, "video": false, "vote_count": 8, "vote_average": 7.0, "title": "Johnny Hamlet", "release_date": "1968-03-22", "original_language": "it", "original_title": "Quella sporca storia nel west", "genre_ids": [37], "backdrop_path": null, "adult": false, "overview": "On his way back from the Civil War, Johnny Hamilton is visited in his sleep by the ghost of his father who lets him know that he has been murdered and who asks him to avenge him. Back in the family ranch, Johnny finds that not only has his father been killed but that Gertrude, his mother, has married her late husband's brother Claude. The latter is now the owner of the ranch and of all the properties of the deceased. Polonius, a ruthless bandit, is supposed to have killed Johnny's father. But couldn't it be Claude...?", "poster_path": "/hxQ2f63q0Rhf70MhxBSUM7ZAyK0.jpg", "popularity": 1.459}, {"adult": false, "backdrop_path": "/2e3mrXVBiUz58Lh9IH1gQy2D32s.jpg", "genre_ids": [10749, 37], "id": 112503, "original_language": "it", "original_title": "Django spara per primo", "overview": "Django's father is framed by his business partner Clusker and shot by a bounty Killer. Django inherits his fathers part of the business and a score to settle with Clusker.", "poster_path": "/fvG0KsBac6xOoPqXmDKapMhQdbo.jpg", "release_date": "1966-10-28", "title": "Django Shoots First", "video": false, "vote_average": 5.6, "vote_count": 10, "popularity": 1.508}, {"adult": false, "backdrop_path": "/2ftX7tESu9cO8ek0pcBGsZrBczs.jpg", "genre_ids": [37], "id": 64368, "original_language": "en", "original_title": "Ten Wanted Men", "overview": "When his ward seeks protection with rival cattleman John Stewart, embittered, jealous rancher Wick Campbell hires ten outlaws to help him seize power in the territory.", "poster_path": "/xksdYy04BGhAk61VLnooPHVbomU.jpg", "release_date": "1955-02-01", "title": "Ten Wanted Men", "video": false, "vote_average": 5.4, "vote_count": 5, "popularity": 2.749}, {"adult": false, "backdrop_path": "/sJasK2gCEMChmH7In9jLfPYQsvs.jpg", "genre_ids": [28, 37], "id": 56514, "original_language": "it", "original_title": "W Django!", "overview": "Django is on the trail of some renegade outlaws who raped and killed his wife. En route, he rescues a horse thief from an impromptu hanging. He discovers the man knows who committed the murder. The men team up and head west for revenge.", "poster_path": "/sKy1ZljV4QkujEnTf2kUjXRPmgG.jpg", "release_date": "1971-09-29", "title": "A Man Called Django!", "video": false, "vote_average": 6.1, "vote_count": 8, "popularity": 1.982}, {"id": 76837, "video": false, "vote_count": 6, "vote_average": 6.0, "title": "Yuma", "release_date": "1970-01-01", "original_language": "en", "original_title": "Yuma", "genre_ids": [28, 80, 18, 37], "backdrop_path": "/tOOoSQGlG9C0AK5G6hnPZYR9Ctz.jpg", "adult": false, "overview": "A down-and-dirty town is forced to shape up when a new sheriff (Clint Walker) comes to town. However, when a scheme is launched to destroy the lawman's authority, he must discover the perpetrators and preserve his reputation.", "poster_path": "/eTLVgblqSdjFgNsTrZBsnsAhCbV.jpg", "popularity": 1.211}, {"adult": false, "backdrop_path": "/Ad51vNDwxfPUIWlLa9pvFxsonuz.jpg", "genre_ids": [37], "id": 64963, "original_language": "en", "original_title": "Rough Night in Jericho", "overview": "The only business in the Wild West town of Jericho that corrupt sheriff Alex Flood doesn't control behind the scenes is the stagecoach owned by tough-willed widow Molly Lang and her right-hand man, Hickman. Former marshal Dolan, recently hired by Lang and Hickman as a driver, wants to stay out of the mess, but when he sees Flood's henchman Yarbrough assault Lang, he steps up to fight the corruption.", "poster_path": "/fXesd6LXcjHYRDgCyh7eKtisSew.jpg", "release_date": "1967-01-01", "title": "Rough Night in Jericho", "video": false, "vote_average": 6.9, "vote_count": 11, "popularity": 5.156}, {"adult": false, "backdrop_path": "/yfRj5U9m1HKfUzS9FBDc2D8hO3y.jpg", "genre_ids": [28, 37], "id": 99224, "original_language": "en", "original_title": "The Lawless Breed", "overview": "After being released from prison, ex-gunfighter John Wesley Hardin hopes to have his autobiography published in order to rehabilitate his tarnished reputation.", "poster_path": "/hr52rRKGvJnxfktLs4Y0BpPKre5.jpg", "release_date": "1953-01-03", "title": "The Lawless Breed", "video": false, "vote_average": 6.5, "vote_count": 8, "popularity": 3.665}, {"id": 38800, "video": false, "vote_count": 29, "vote_average": 6.1, "title": "The Rare Breed", "release_date": "1966-02-02", "original_language": "en", "original_title": "The Rare Breed", "genre_ids": [37], "backdrop_path": "/eiLeKVGqF0lZC9qb3wHlMAIEJMn.jpg", "adult": false, "overview": "When her husband dies en route to America, Martha Price and her daughter Hilary are left to carry out his dream: the introduction of Hereford cattle into the American West. They enlist Sam \"Bulldog\" Burnett in their efforts to transport their lone bull, a Hereford named Vindicator, to a breeder in Texas, but the trail is fraught with danger and even Burnett doubts the survival potential of this \"rare breed\" of cattle.", "poster_path": "/aygElr36xfMz6kpabsDEGueUPWz.jpg", "popularity": 4.921}], "total_pages": 1, "total_results": 11}, "credits": {"cast": [{"cast_id": 11, "character": "Django", "credit_id": "52fe4b69c3a36847f8202657", "gender": 2, "id": 20581, "name": "Jack Betts", "order": 0, "profile_path": "/f03shMGYcbPG2EyjkIVAR0YA1RA.jpg"}, {"cast_id": 12, "character": "Sheriff Jack Ronson / Sartana", "credit_id": "52fe4b69c3a36847f820265b", "gender": 2, "id": 21181, "name": "Fabio Testi", "order": 1, "profile_path": "/qqE1Vh8guRCoIGkfNRuE0mXx0vL.jpg"}, {"cast_id": 13, "character": "Bud Willer / Wheeler", "credit_id": "52fe4b69c3a36847f820265f", "gender": 0, "id": 43884, "name": "Dino Strano", "order": 2, "profile_path": null}, {"cast_id": 14, "character": "Deputy Sheriff Mason", "credit_id": "52fe4b69c3a36847f8202663", "gender": 0, "id": 1126337, "name": "Calgero Caruana", "order": 3, "profile_path": null}, {"cast_id": 15, "character": "Paco Sanchez", "credit_id": "52fe4b69c3a36847f8202667", "gender": 2, "id": 27412, "name": "Benito Pacifico", "order": 4, "profile_path": "/2FuGAZM22iS58nWpxqGYQTT8ncp.jpg"}, {"cast_id": 16, "character": "Widow Sturges", "credit_id": "52fe4b69c3a36847f820266b", "gender": 1, "id": 30902, "name": "Simonetta Vitelli", "order": 5, "profile_path": "/jMnRUMgLV3l6lyB26bd8t9b11m5.jpg"}, {"cast_id": 17, "character": "Joe 'The Worm' Smith", "credit_id": "52fe4b69c3a36847f820266f", "gender": 2, "id": 72475, "name": "Luciano Conti", "order": 6, "profile_path": null}, {"cast_id": 18, "character": "Mordera", "credit_id": "52fe4b69c3a36847f8202673", "gender": 0, "id": 1120103, "name": "Roberto Danesi", "order": 7, "profile_path": null}, {"cast_id": 19, "character": "Bill / Willy McLaren", "credit_id": "52fe4b69c3a36847f8202677", "gender": 2, "id": 43241, "name": "Attilio Dottesio", "order": 8, "profile_path": "/Qe1u3NCklcxRKaua9JRVVRDEjy.jpg"}, {"cast_id": 20, "character": "Frank Cutler", "credit_id": "52fe4b69c3a36847f820267b", "gender": 0, "id": 1126166, "name": "Celso Faria", "order": 9, "profile_path": "/q1wBCpbsGBehRt7PHOZ7hxsKTw3.jpg"}, {"cast_id": 21, "character": "Peter", "credit_id": "52fe4b69c3a36847f820267f", "gender": 0, "id": 1024363, "name": "Franco Pasquetto", "order": 10, "profile_path": null}, {"cast_id": 22, "character": "Dolores", "credit_id": "52fe4b69c3a36847f8202683", "gender": 0, "id": 1121928, "name": "Mariella Palmich", "order": 11, "profile_path": null}], "crew": [{"credit_id": "52fe4b69c3a36847f8202623", "department": "Directing", "gender": 2, "id": 1046507, "job": "Director", "name": "Demofilo Fidani", "profile_path": null}, {"credit_id": "52fe4b69c3a36847f8202629", "department": "Writing", "gender": 2, "id": 1046507, "job": "Story", "name": "Demofilo Fidani", "profile_path": null}, {"credit_id": "52fe4b69c3a36847f820262f", "department": "Writing", "gender": 2, "id": 1046507, "job": "Screenplay", "name": "Demofilo Fidani", "profile_path": null}, {"credit_id": "52fe4b69c3a36847f8202635", "department": "Writing", "gender": 1, "id": 1046521, "job": "Screenplay", "name": "Mila Vitelli Valenza", "profile_path": null}, {"credit_id": "52fe4b69c3a36847f820263b", "department": "Production", "gender": 0, "id": 1086945, "job": "Producer", "name": "Otello Cocchi", "profile_path": null}, {"credit_id": "52fe4b69c3a36847f8202641", "department": "Production", "gender": 2, "id": 1046507, "job": "Producer", "name": "Demofilo Fidani", "profile_path": null}, {"credit_id": "52fe4b69c3a36847f8202647", "department": "Sound", "gender": 0, "id": 44975, "job": "Original Music Composer", "name": "Coriolano Gori", "profile_path": null}, {"credit_id": "52fe4b69c3a36847f820264d", "department": "Editing", "gender": 0, "id": 1046519, "job": "Editor", "name": "Piera Bruni", "profile_path": null}, {"credit_id": "52fe4b69c3a36847f8202653", "department": "Camera", "gender": 0, "id": 1125523, "job": "Camera Operator", "name": "Claudio Morabito", "profile_path": null}, {"credit_id": "52fe4b69c3a36847f8202689", "department": "Camera", "gender": 0, "id": 41065, "job": "Director of Photography", "name": "Franco Villa", "profile_path": null}]}}