{"adult": false, "backdrop_path": "/6HY4Ez7EyoisF6WMj58uI6Fiycq.jpg", "belongs_to_collection": null, "budget": 0, "genres": [{"id": 35, "name": "Comedy"}], "homepage": "http://www.threestooges.com/filmography/woman-haters/", "id": 115771, "imdb_id": "tt0026000", "original_language": "en", "original_title": "Woman Haters", "overview": "The stooges join the \"Women Haters\" club and vow to have nothing to do with the fair sex. Larry marries a girl anyway and attempts to hide the fact from Moe and Curly as they take a train trip.", "popularity": 2.344, "poster_path": "/rJG0f6xut0YaOv13e06OsRfQhBc.jpg", "production_companies": [{"id": 5, "logo_path": "/71BqEFAF4V3qjjMPCpLuyJFB9A.png", "name": "Columbia Pictures", "origin_country": "US"}], "production_countries": [], "release_date": "1934-05-05", "revenue": 0, "runtime": 19, "spoken_languages": [{"iso_639_1": "en", "name": "English"}], "status": "Released", "tagline": "", "title": "Woman Haters", "video": false, "vote_average": 6.6, "vote_count": 7, "keywords": {"keywords": [{"id": 2676, "name": "honeymoon"}, {"id": 4344, "name": "musical"}, {"id": 9253, "name": "slapstick"}, {"id": 12990, "name": "singing"}, {"id": 13027, "name": "wedding"}, {"id": 214549, "name": "short"}, {"id": 228195, "name": "the three stooges"}]}, "similar": {"page": 1, "results": [{"adult": false, "backdrop_path": "/4brEMzPazQE3hv3mogj6k1a29RP.jpg", "genre_ids": [10749, 14, 16], "id": 3933, "original_language": "en", "original_title": "Corpse Bride", "overview": "Set in a 19th-century european village, this stop-motion animation feature follows the story of Victor, a young man whisked away to the underworld and wed to a mysterious corpse bride, while his real bride Victoria waits bereft in the land of the living.", "poster_path": "/o9GbcdP7rOg2m1NyUnUR3ZwNcTE.jpg", "release_date": "2005-09-12", "title": "Corpse Bride", "video": false, "vote_average": 7.4, "vote_count": 4928, "popularity": 23.702}, {"adult": false, "backdrop_path": "/5OeY4U2rzePxWq2rkqMajUx2gz7.jpg", "genre_ids": [16, 10751, 12, 14, 10749], "id": 812, "original_language": "en", "original_title": "Aladdin", "overview": "Princess Jasmine grows tired of being forced to remain in the palace, so she sneaks out into the marketplace, in disguise, where she meets street-urchin Aladdin.  The couple falls in love, although Jasmine may only marry a prince.  After being thrown in jail, Aladdin becomes embroiled in a plot to find a mysterious lamp, with which the evil Jafar hopes to rule the land.", "poster_path": "/mjKozYRuHc9j7SmiXmbVmCiAM0A.jpg", "release_date": "1992-11-25", "title": "Aladdin", "video": false, "vote_average": 7.6, "vote_count": 7289, "popularity": 35.494}, {"adult": false, "backdrop_path": "/9l5Nzo1qbEslfCu2NYWimpZ1Vkc.jpg", "genre_ids": [35, 10751, 14, 10749], "id": 4523, "original_language": "en", "original_title": "Enchanted", "overview": "The beautiful princess Giselle is banished by an evil queen from her magical, musical animated land and finds herself in the gritty reality of the streets of modern-day Manhattan. Shocked by this strange new environment that doesn't operate on a \"happily ever after\" basis, Giselle is now adrift in a chaotic world badly in need of enchantment. But when Giselle begins to fall in love with a charmingly flawed divorce lawyer who has come to her aid - even though she is already promised to a perfect fairy tale prince back home - she has to wonder: Can a storybook view of romance survive in the real world?", "poster_path": "/65EfHNQ6NCeAoRPNLRhTyLqNZmU.jpg", "release_date": "2007-11-20", "title": "Enchanted", "video": false, "vote_average": 6.7, "vote_count": 3505, "popularity": 22.541}, {"adult": false, "backdrop_path": "/3nG6BBIxgqbIM5p1iO61RyKzUkZ.jpg", "genre_ids": [16, 10751, 14, 12, 35, 10749], "id": 11970, "original_language": "en", "original_title": "Hercules", "overview": "Bestowed with superhuman strength, a young mortal named Hercules sets out to prove himself a hero in the eyes of his father, the great god Zeus. Along with his friends Pegasus, a flying horse, and Phil, a personal trainer, Hercules is tricked by the hilarious, hotheaded villain Hades, who's plotting to take over Mount Olympus!", "poster_path": "/eFlBFMAifj436QctX3akDkUnhlk.jpg", "release_date": "1997-06-20", "title": "Hercules", "video": false, "vote_average": 7.5, "vote_count": 4318, "popularity": 23.839}, {"id": 150540, "video": false, "vote_count": 13957, "vote_average": 7.9, "title": "Inside Out", "release_date": "2015-06-09", "original_language": "en", "original_title": "Inside Out", "genre_ids": [16, 35, 18, 10751], "backdrop_path": "/szytSpLAyBh3ULei3x663mAv5ZT.jpg", "adult": false, "overview": "Growing up can be a bumpy road, and it's no exception for Riley, who is uprooted from her Midwest life when her father starts a new job in San Francisco. Riley's guiding emotions\u2014 Joy, Fear, Anger, Disgust and Sadness\u2014live in Headquarters, the control centre inside Riley's mind, where they help advise her through everyday life and tries to keep things positive, but the emotions conflict on how best to navigate a new city, house and school.", "poster_path": "/aAmfIX3TT40zUHGcCKrlOZRKC7u.jpg", "popularity": 57.362}, {"id": 400650, "video": false, "vote_count": 1961, "vote_average": 6.6, "title": "Mary Poppins Returns", "release_date": "2018-12-13", "original_language": "en", "original_title": "Mary Poppins Returns", "genre_ids": [35, 14, 10751], "backdrop_path": "/cwiJQXezWz876K3jS57Sq56RYCZ.jpg", "adult": false, "overview": "In Depression-era London, a now-grown Jane and Michael Banks, along with Michael's three children, are visited by the enigmatic Mary Poppins following a personal loss. Through her unique magical skills, and with the aid of her friend Jack, she helps the family rediscover the joy and wonder missing in their lives.", "poster_path": "/uTVGku4LibMGyKgQvjBtv3OYfAX.jpg", "popularity": 21.381}, {"id": 621733, "video": false, "vote_count": 0, "vote_average": 0.0, "title": "A Trip to the Seaside", "release_date": "2019-08-30", "original_language": "en", "original_title": "A Trip to the Seaside", "genre_ids": [99], "backdrop_path": null, "adult": false, "overview": "Experimental short film on the excitement and rush of a day trip", "poster_path": "/AuZVhpoJ4jm2LWDhoJKfxQfhDAi.jpg", "popularity": 1.324}, {"id": 10882, "video": false, "vote_count": 3219, "vote_average": 6.9, "title": "Sleeping Beauty", "release_date": "1959-01-28", "original_language": "en", "original_title": "Sleeping Beauty", "genre_ids": [16, 14, 10749, 10751], "backdrop_path": "/oHZIobyIG0YzWntyPCTSJDOk9qB.jpg", "adult": false, "overview": "A beautiful princess born in a faraway kingdom is destined by a terrible curse to prick her finger on the spindle of a spinning wheel and fall into a deep sleep that can only be awakened by true love's first kiss. Determined to protect her, her parents ask three fairies to raise her in hiding. But the evil Maleficent is just as determined to seal the princess's fate.", "poster_path": "/j4YBuAe8D1jDSiitpq69og9x3Yl.jpg", "popularity": 29.356}, {"id": 10693, "video": false, "vote_count": 3346, "vote_average": 7.2, "title": "Peter Pan", "release_date": "1953-02-05", "original_language": "en", "original_title": "Peter Pan", "genre_ids": [12, 16, 14, 10751], "backdrop_path": "/9bNHgmqQ4u4ujYpGwCiMB2BsCLC.jpg", "adult": false, "overview": "Leaving the safety of their nursery behind, Wendy, Michael and John follow Peter Pan to a magical world where childhood lasts forever. But while in Neverland, the kids must face Captain Hook and foil his attempts to get rid of Peter for good.", "poster_path": "/6UTZmeQcxbtW32MyR5nKIx7ID4f.jpg", "popularity": 30.689}, {"id": 321612, "video": false, "vote_count": 11799, "vote_average": 6.9, "title": "Beauty and the Beast", "release_date": "2017-03-16", "original_language": "en", "original_title": "Beauty and the Beast", "genre_ids": [14, 10749, 10751], "backdrop_path": "/6aUWe0GSl69wMTSWWexsorMIvwU.jpg", "adult": false, "overview": "A live-action adaptation of Disney's version of the classic tale of a cursed prince and a beautiful young woman who helps him break the spell.", "poster_path": "/tWqifoYuwLETmmasnGHO7xBjEtt.jpg", "popularity": 47.679}, {"id": 326359, "video": false, "vote_count": 1180, "vote_average": 6.8, "title": "Frozen Fever", "release_date": "2015-03-09", "original_language": "en", "original_title": "Frozen Fever", "genre_ids": [12, 16, 10751], "backdrop_path": "/ubioPGniCfDiASmYYpeJs5RRNaC.jpg", "adult": false, "overview": "On Anna's birthday, Elsa and Kristoff are determined to give her the best celebration ever, but Elsa's icy powers may put more than just the party at risk.", "poster_path": "/lKJiVPzsAO9IJ4LKWXZ8vkR2bg4.jpg", "popularity": 17.218}, {"id": 316029, "video": false, "vote_count": 5853, "vote_average": 8.0, "title": "The Greatest Showman", "release_date": "2017-12-20", "original_language": "en", "original_title": "The Greatest Showman", "genre_ids": [18], "backdrop_path": "/zpq404Sk7qQ7N4x3xOeNgp74GtU.jpg", "adult": false, "overview": "The story of American showman P.T. Barnum, founder of the circus that became the famous traveling Ringling Bros. and Barnum & Bailey Circus.", "poster_path": "/b9CeobiihCx1uG1tpw8hXmpi7nm.jpg", "popularity": 29.077}, {"id": 109445, "video": false, "vote_count": 10976, "vote_average": 7.3, "title": "Frozen", "release_date": "2013-11-27", "original_language": "en", "original_title": "Frozen", "genre_ids": [12, 16, 10751], "backdrop_path": "/cN9Nbwh66TRcj2gBE8cSEZulsx3.jpg", "adult": false, "overview": "Young princess Anna of Arendelle dreams about finding true love at her sister Elsa\u2019s coronation. Fate takes her on a dangerous journey in an attempt to end the eternal winter that has fallen over the kingdom. She's accompanied by ice delivery man Kristoff, his reindeer Sven, and snowman Olaf. On an adventure where she will find out what friendship, courage, family, and true love really means.", "poster_path": "/eFnGmj63QPUpK7QUWSOUhypIQOT.jpg", "popularity": 59.088}, {"id": 10020, "video": false, "vote_count": 6340, "vote_average": 7.7, "title": "Beauty and the Beast", "release_date": "1991-11-13", "original_language": "en", "original_title": "Beauty and the Beast", "genre_ids": [16, 14, 10749, 10751], "backdrop_path": "/4BE0Fb95KY6yoy5a7QWmvNtYes4.jpg", "adult": false, "overview": "Follow the adventures of Belle, a bright young woman who finds herself in the castle of a prince who's been turned into a mysterious beast. With the help of the castle's enchanted staff, Belle soon learns the most important lesson of all -- that true beauty comes from within.", "poster_path": "/b9QJr2oblOu1grgOMUZF1xkUJdh.jpg", "popularity": 39.745}, {"id": 11360, "video": false, "vote_count": 3005, "vote_average": 6.9, "title": "Dumbo", "release_date": "1941-10-22", "original_language": "en", "original_title": "Dumbo", "genre_ids": [16, 10751], "backdrop_path": "/sa5vHfu5n4NFqZbVf2hzqGr6bim.jpg", "adult": false, "overview": "Dumbo is a baby elephant born with over-sized ears and a supreme lack of confidence. But thanks to his even more diminutive buddy Timothy the Mouse,  the pint-sized pachyderm learns to surmount all obstacles.", "poster_path": "/hKDdllslMtsU9JixAv5HR9biXlp.jpg", "popularity": 24.294}, {"id": 38757, "video": false, "vote_count": 7117, "vote_average": 7.5, "title": "Tangled", "release_date": "2010-11-24", "original_language": "en", "original_title": "Tangled", "genre_ids": [16, 10751], "backdrop_path": "/uFg02Gt69UM6Ouam4slMdD0s029.jpg", "adult": false, "overview": "When the kingdom's most wanted-and most charming-bandit Flynn Rider hides out in a mysterious tower, he's taken hostage by Rapunzel, a beautiful and feisty tower-bound teen with 70 feet of magical, golden hair. Flynn's curious captor, who's looking for her ticket out of the tower where she's been locked away for years, strikes a deal with the handsome thief and the unlikely duo sets off on an action-packed escapade, complete with a super-cop horse, an over-protective chameleon and a gruff gang of pub thugs.", "poster_path": "/re6AOJbhBk9FIK3knwU6rYlbPDx.jpg", "popularity": 30.508}, {"id": 9479, "video": false, "vote_count": 5316, "vote_average": 7.8, "title": "The Nightmare Before Christmas", "release_date": "1993-10-09", "original_language": "en", "original_title": "The Nightmare Before Christmas", "genre_ids": [16, 14, 10751], "backdrop_path": "/16lk65YfrDFIr6evkWRjSeOOSws.jpg", "adult": false, "overview": "Tired of scaring humans every October 31 with the same old bag of tricks, Jack Skellington, the spindly king of Halloween Town, kidnaps Santa Claus and plans to deliver shrunken heads and other ghoulish gifts to children on Christmas morning. But as Christmas approaches, Jack's rag-doll girlfriend, Sally, tries to foil his misguided plans.", "poster_path": "/6oxkO1VgKCq74fNILKAg6t2dVEt.jpg", "popularity": 18.951}, {"adult": false, "backdrop_path": "/7GR03LqwB7ePPPhaK5BAYNzt3Vm.jpg", "genre_ids": [27, 35, 14, 10402], "id": 461928, "original_language": "en", "original_title": "Anna and the Apocalypse", "overview": "A zombie apocalypse threatens the sleepy town of Little Haven \u2013 at Christmas \u2013 forcing Anna and her friends to fight, slash and sing their way to survival, facing the undead in a desperate race to reach their loved ones. But they soon discover that no one is safe in this new world, and with civilization falling apart around them, the only people they can truly rely on are each other.", "poster_path": "/36HmDXMzeLpTPEhjEbpzI3Kv4Vk.jpg", "release_date": "2018-11-30", "title": "Anna and the Apocalypse", "video": false, "vote_average": 6.2, "vote_count": 104, "popularity": 8.874}, {"id": 650755, "video": false, "vote_count": 0, "vote_average": 0.0, "title": "Atordoado, Eu Permane\u00e7o Atento", "release_date": "2020-01-15", "original_language": "pt", "original_title": "Atordoado, Eu Permane\u00e7o Atento", "genre_ids": [99], "backdrop_path": null, "adult": false, "overview": "", "poster_path": "/exbM8qk6f6T44olJXcM8ix1sunL.jpg", "popularity": 5.092}, {"adult": false, "backdrop_path": "/wEo4UtBAWdB4aOmQ9wRjI1aS7Dt.jpg", "genre_ids": [35, 18], "id": 10098, "original_language": "en", "original_title": "The Kid", "overview": "A tramp cares for a boy after he's abandoned as a newborn by his mother. Later the mother has a change of heart and aches to be reunited with her son.", "poster_path": "/drgMcyTsySQBnUPGaBThCHGdlWT.jpg", "release_date": "1921-02-06", "title": "The Kid", "video": false, "vote_average": 8.3, "vote_count": 976, "popularity": 16.845}], "total_pages": 87, "total_results": 1728}, "recommendations": {"page": 1, "results": [{"adult": false, "backdrop_path": "/fFut8u46jemrFjIQNfi1JmsyBGL.jpg", "genre_ids": [27, 878], "id": 3165, "original_language": "en", "original_title": "Frankenstein Island", "overview": "A hot air balloon crew and a dog find themselves on an island with scantily-clad part-alien women, zombies, and other monsters.", "poster_path": "/oPwCZ8MJigAT1hwyI3ljsnZa4Bc.jpg", "release_date": "1981-11-27", "title": "Frankenstein Island", "video": false, "vote_average": 2.5, "vote_count": 11, "popularity": 3.6}, {"adult": false, "backdrop_path": null, "genre_ids": [35], "id": 115039, "original_language": "en", "original_title": "Punch Drunks", "overview": "Moe discovers Curley's unknown boxing talent when he knocks out the Champ at a restaurant when Larry plays \"Pop Goes the Weasal\" on the violin. Moe becomes Curly's manager, and they win every fight, with the help of Larry. At the championship game, though, Larry's violin breaks. Curly is getting beat down bad when Larry makes his unexpected entrance and helps Curly prevail.", "poster_path": null, "release_date": "1934-07-13", "title": "Punch Drunks", "video": false, "vote_average": 6.6, "vote_count": 14, "popularity": 1.756}], "total_pages": 1, "total_results": 2}, "credits": {"cast": [{"cast_id": 9, "character": "Tom", "credit_id": "52fe4b7ac3a36847f8205889", "gender": 2, "id": 6777, "name": "Moe Howard", "order": 0, "profile_path": "/cbPeJ2fIRHEghTWbzeBVGsyyaY.jpg"}, {"cast_id": 10, "character": "Jim", "credit_id": "52fe4b7ac3a36847f820588d", "gender": 2, "id": 89613, "name": "Larry Fine", "order": 1, "profile_path": "/6XnCgoRkWEVaFulFUZykMpCyDr9.jpg"}, {"cast_id": 6, "character": "Jack", "credit_id": "52fe4b7ac3a36847f8205881", "gender": 2, "id": 89614, "name": "Curly Howard", "order": 2, "profile_path": "/yVhNdlDT8ERAYKUJ9Yh7wWXa7Z2.jpg"}, {"cast_id": 3, "character": "Mary", "credit_id": "52fe4b7ac3a36847f820587d", "gender": 1, "id": 1019756, "name": "Marjorie White", "order": 3, "profile_path": "/rcBJu9mNUgSeu92plHMzEqEn3W5.jpg"}, {"cast_id": 7, "character": "Train Conductor", "credit_id": "52fe4b7ac3a36847f8205885", "gender": 2, "id": 4302, "name": "Walter Brennan", "order": 4, "profile_path": "/wPp0mmWWVMzOD3ipne6MrgDr0Tm.jpg"}, {"cast_id": 11, "character": "Baggage Handler", "credit_id": "52fe4b7ac3a36847f8205891", "gender": 2, "id": 955809, "name": "Fred 'Snowflake' Toones", "order": 5, "profile_path": "/w2jl2Iuxg8tVctqx8I4hDM0W9wR.jpg"}, {"cast_id": 13, "character": "Mary's Mother", "credit_id": "579fa29bc3a3683c65002f73", "gender": 1, "id": 927616, "name": "Dorothy Vernon", "order": 6, "profile_path": "/lP9Gah7CZMafhOu8ywkHfhh3Lbi.jpg"}, {"cast_id": 14, "character": "Mary's Father", "credit_id": "579fa2b6c3a3683c1c0034a4", "gender": 2, "id": 1431742, "name": "A.R. Haysel", "order": 7, "profile_path": null}, {"cast_id": 15, "character": "Mary's Sister", "credit_id": "579fa2c89251416ed5006b0f", "gender": 1, "id": 1069732, "name": "June Gittelson", "order": 8, "profile_path": null}, {"cast_id": 16, "character": "Mr. Zero", "credit_id": "579fa2d892514178bf003b4c", "gender": 2, "id": 10529, "name": "Monte Collins", "order": 9, "profile_path": "/2AKJtDpAtxcK953H7VsxKZHMb7b.jpg"}], "crew": [{"credit_id": "52fe4b7ac3a36847f8205879", "department": "Writing", "gender": 0, "id": 196263, "job": "Writer", "name": "Jerome S. Gottler", "profile_path": null}, {"credit_id": "547076c99251414f54001380", "department": "Directing", "gender": 0, "id": 1250220, "job": "Director", "name": "Archie Gottler", "profile_path": null}, {"credit_id": "579fa2f0c3a3683c65002f9e", "department": "Camera", "gender": 2, "id": 103020, "job": "Director of Photography", "name": "Joseph H. August", "profile_path": null}, {"credit_id": "579fa312c3a3683c9a0037f4", "department": "Editing", "gender": 2, "id": 172518, "job": "Editor", "name": "James Sweeney", "profile_path": null}]}}