{"adult": false, "backdrop_path": "/yTmdNdybp09TW0iA45eVmd5g6ih.jpg", "belongs_to_collection": null, "budget": 4400000, "genres": [{"id": 18, "name": "Drama"}], "homepage": null, "id": 116842, "imdb_id": "tt2321309", "original_language": "ko", "original_title": "\uac00\ube44", "overview": "Set towards the end of the 19th century, when coffee was first introduced to Korea, Russian sharpshooter Illichi  and Joseon's first barista Danya are manipulated by Japanese officer Sadako into an elaborate plan to assassinate King Gojong.", "popularity": 3.11, "poster_path": "/6U5KvvMSV30i2JquEtV4xnS08gi.jpg", "production_companies": [{"id": 868, "logo_path": null, "name": "Cinema Service", "origin_country": "KR"}, {"id": 21970, "logo_path": null, "name": "Trophy Entertainment", "origin_country": ""}], "production_countries": [{"iso_3166_1": "KR", "name": "South Korea"}], "release_date": "2012-03-15", "revenue": 0, "runtime": 115, "spoken_languages": [{"iso_639_1": "ja", "name": "\u65e5\u672c\u8a9e"}, {"iso_639_1": "ko", "name": "\ud55c\uad6d\uc5b4/\uc870\uc120\ub9d0"}, {"iso_639_1": "ru", "name": "P\u0443\u0441\u0441\u043a\u0438\u0439"}], "status": "Released", "tagline": "", "title": "Gabi", "video": false, "vote_average": 6.4, "vote_count": 7, "keywords": {"keywords": [{"id": 351, "name": "poison"}, {"id": 2439, "name": "coffee"}, {"id": 191600, "name": "assassination attempt"}, {"id": 198255, "name": "gabi"}, {"id": 207928, "name": "19th century"}, {"id": 212573, "name": "japanese invasion of korea"}, {"id": 250211, "name": "korean empire"}]}, "similar": {"page": 1, "results": [{"adult": false, "backdrop_path": "/dLAPTvBwEdP4h7a14isNc0HwmOj.jpg", "genre_ids": [18, 10749], "id": 250734, "original_language": "en", "original_title": "Far from the Madding Crowd", "overview": "Based on the literary classic by Thomas Hardy. Bathsheba Everdene, attracts three very different suitors: Gabriel Oak, a sheep farmer, captivated by her fetching willfulness; Frank Troy, a handsome and reckless Sergeant; and William Boldwood, a prosperous and mature bachelor. This timeless story of Bathsheba's choices and passions explores the nature of relationships and love \u2013 as well as the human ability to overcome hardships through resilience and perseverance.", "poster_path": "/6v1DEaO2TZzrqcaGohUf1K7BXkU.jpg", "release_date": "2015-04-23", "title": "Far from the Madding Crowd", "video": false, "vote_average": 7.0, "vote_count": 643, "popularity": 13.429}, {"adult": false, "backdrop_path": "/hm8Gux0946IfeJ1PZwztOo6lVHH.jpg", "genre_ids": [18, 36, 35], "id": 450322, "original_language": "en", "original_title": "The Man Who Invented Christmas", "overview": "In 1843, despite the fact that Dickens is a successful writer, the failure of his latest book puts his career at a crossroads, until the moment when, struggling with inspiration and confronting reality with his childhood memories, a new character is born in the depths of his troubled mind; an old, lonely, embittered man, so vivid, so human, that a whole world grows around him, a story so inspiring that changed the meaning of Christmas forever.", "poster_path": "/xYCuRgEKynGurSEooxDa9pQPF7n.jpg", "release_date": "2017-10-12", "title": "The Man Who Invented Christmas", "video": false, "vote_average": 6.7, "vote_count": 395, "popularity": 12.264}, {"id": 8619, "video": false, "vote_count": 1675, "vote_average": 7.1, "title": "Master and Commander: The Far Side of the World", "release_date": "2003-11-14", "original_language": "en", "original_title": "Master and Commander: The Far Side of the World", "genre_ids": [12, 18, 10752], "backdrop_path": "/uuPbSNgk2dfhMH8l4cKSQUBBk6k.jpg", "adult": false, "overview": "After an abrupt and violent encounter with a French warship inflicts severe damage upon his ship, a captain of the British Royal Navy begins a chase over two oceans to capture or destroy the enemy, though he must weigh his commitment to duty and ferocious pursuit of glory against the safety of his devoted crew, including the ship's thoughtful surgeon, his best friend.", "poster_path": "/s1cVTQEZYn4nSjZLnFbzLP0j8y2.jpg", "popularity": 32.183}, {"id": 410117, "video": false, "vote_count": 321, "vote_average": 6.6, "title": "Lady Macbeth", "release_date": "2016-12-12", "original_language": "en", "original_title": "Lady Macbeth", "genre_ids": [18], "backdrop_path": "/wztoDoglCOuiEfzl1FS6mglBioF.jpg", "adult": false, "overview": "Rural England, 1865. Katherine, suffocated by her loveless marriage to a bitter man and restrained by his father's tyranny, unleashes an irresistible force within her, so powerful that she will stop at nothing to get what she wants.", "poster_path": "/xWTJbhTwSTJmhLlX5xAOxPhdnXc.jpg", "popularity": 11.134}, {"adult": false, "backdrop_path": "/kiWvoV78Cc3fUwkOHKzyBgVdrDD.jpg", "genre_ids": [37, 18, 12], "id": 281957, "original_language": "en", "original_title": "The Revenant", "overview": "In the 1820s, a frontiersman, Hugh Glass, sets out on a path of vengeance against those who left him for dead after a bear mauling.", "poster_path": "/oXUWEc5i3wYyFnL1Ycu8ppxxPvs.jpg", "release_date": "2015-12-25", "title": "The Revenant", "video": false, "vote_average": 7.5, "vote_count": 12127, "popularity": 24.135}, {"id": 411728, "video": false, "vote_count": 342, "vote_average": 7.2, "title": "The Professor and the Madman", "release_date": "2019-03-07", "original_language": "en", "original_title": "The Professor and the Madman", "genre_ids": [18, 36, 9648, 53], "backdrop_path": "/zhNfM1CSQqJtIqelwlK9iKtSd9P.jpg", "adult": false, "overview": "Professor James Murray begins work compiling words for the first edition of the Oxford English Dictionary in the mid 19th century, and receives over 10,000 entries from a patient at Broadmoor Criminal Lunatic Asylum, Dr. William Minor.", "poster_path": "/gtGCDLhfjW96qVarwctnuTpGOtD.jpg", "popularity": 13.302}, {"adult": false, "backdrop_path": "/GRyynLqafMrLFMHqvfGdUweavA.jpg", "genre_ids": [27, 18, 14], "id": 628, "original_language": "en", "original_title": "Interview with the Vampire", "overview": "A vampire relates his epic life story of love, betrayal, loneliness, and dark hunger to an over-curious reporter.", "poster_path": "/hldXwwViSfHJS0kIJr07KBGmHJI.jpg", "release_date": "1994-11-11", "title": "Interview with the Vampire", "video": false, "vote_average": 7.3, "vote_count": 3231, "popularity": 21.064}, {"id": 656968, "video": false, "vote_count": 23, "vote_average": 7.0, "title": "A Christmas Carol", "release_date": "2019-12-19", "original_language": "en", "original_title": "A Christmas Carol", "genre_ids": [18, 14], "backdrop_path": "/ubLsCmv36zUUt2zxhFSowYFe5uF.jpg", "adult": false, "overview": "London, 1843. Ebenezer Scrooge, a bitter old man, despises the Christmas holiday. Over the course of Christmas Eve night he is visited by three ghosts to show him his past, present and future.", "poster_path": "/tKW48tnZKaHLBIxxgoAf9BIpyRv.jpg", "popularity": 7.061}, {"id": 20237, "video": false, "vote_count": 6, "vote_average": 6.8, "title": "The Adventures of Bullwhip Griffin", "release_date": "1967-03-08", "original_language": "en", "original_title": "The Adventures of Bullwhip Griffin", "genre_ids": [28, 35, 18, 37, 10751], "backdrop_path": "/bk0FRvHr36nmp0E8IO1h9MLkNIb.jpg", "adult": false, "overview": "Boston proper meets the Wild West as Roddy McDowall, Suzanne Pleshette, and Karl Malden star in a fish-out-of-water comedy for everyone! To restore his family's lost wealth, a young Boston lad stows away on a ship bound for the California Gold Rush. When their very proper butler gives chase, all roads lead to nonstop adventure, wild and woolly characters, and a lucky punch that leads to a bonanza of belly laughs!", "poster_path": "/cmCHhK8g7sOOTkqOVTbMqRdtrbI.jpg", "popularity": 18.424}, {"id": 11362, "video": false, "vote_count": 888, "vote_average": 7.5, "title": "The Count of Monte Cristo", "release_date": "2002-01-23", "original_language": "en", "original_title": "The Count of Monte Cristo", "genre_ids": [28, 12, 18, 53], "backdrop_path": "/pgreancDSQbXbOIeMWuJclnm03C.jpg", "adult": false, "overview": "Edmond Dant\u00e9s's life and plans to marry the beautiful Mercedes are shattered when his best friend, Fernand, deceives him. After spending 13 miserable years in prison, Dant\u00e9s escapes with the help of a fellow inmate and plots his revenge, cleverly insinuating himself into the French nobility.", "poster_path": "/1JbBZex0EUcTj9FCD8oYEFbVH3j.jpg", "popularity": 14.403}, {"id": 331482, "video": false, "vote_count": 552, "vote_average": 8.1, "title": "Little Women", "release_date": "2019-12-25", "original_language": "en", "original_title": "Little Women", "genre_ids": [18, 10749], "backdrop_path": "/3uTxPIdVEXxHpsHOHdJC24QebBV.jpg", "adult": false, "overview": "Four sisters come of age in America in the aftermath of the Civil War.", "poster_path": "/mSmiB8XjUnR1GSIljuCPGsk0cwX.jpg", "popularity": 93.51}, {"adult": false, "backdrop_path": "/2F8cwDiU43qYYmRVCyv2Lx5E36C.jpg", "genre_ids": [14, 18], "id": 13188, "original_language": "en", "original_title": "Scrooge", "overview": "Ebenezer Scrooge (Alastair Sim) malcontentedly shuffles through life as a cruel miserly businessman until one fateful Christmas Eve when he is visited by three spirits, sent show him how his unhappy childhood and maladaptive adult behavior over has let him a selfish, lonely, bitter old man.  Released in the USA as \"A Christmas Carol\".", "poster_path": "/vIgQuTnJljMIwzdM94D3rnIgzlx.jpg", "release_date": "1951-11-28", "title": "Scrooge", "video": false, "vote_average": 7.5, "vote_count": 139, "popularity": 10.803}, {"id": 4584, "video": false, "vote_count": 799, "vote_average": 7.4, "title": "Sense and Sensibility", "release_date": "1995-12-13", "original_language": "en", "original_title": "Sense and Sensibility", "genre_ids": [18, 10749], "backdrop_path": "/ocn3pLKJjYmXIP2331pUNC33f5M.jpg", "adult": false, "overview": "Rich Mr. Dashwood dies, leaving his second wife and her daughters poor by the rules of inheritance. Two daughters are the titular opposites.", "poster_path": "/1ryNXjmwdCTqLXxXCG9BGvZyMOH.jpg", "popularity": 15.496}, {"adult": false, "backdrop_path": "/qyl6dV5dCfoBifzSShAz8YZtrf9.jpg", "genre_ids": [18, 14, 36, 10749], "id": 3084, "original_language": "en", "original_title": "Wuthering Heights", "overview": "The Earnshaws are Yorkshire farmers during the early 19th Century. One day, Mr. Earnshaw returns from a trip to the city, bringing with him a ragged little boy called Heathcliff. Earnshaw's son, Hindley, resents the child, but Heathcliff becomes companion and soulmate to Hindley's sister, Catherine. After her parents die, Cathy and Heathcliff grow up wild and free on the Moors and despite the continued enmity between Hindley and Heathcliff they're happy -- until Cathy meets Edgar Linton, the son of a wealthy neighbor.", "poster_path": "/tA3ZaItWqhoruqhvbnJM4WWrHfF.jpg", "release_date": "1939-04-13", "title": "Wuthering Heights", "video": false, "vote_average": 7.3, "vote_count": 117, "popularity": 12.239}, {"id": 49529, "video": false, "vote_count": 3606, "vote_average": 6.1, "title": "John Carter", "release_date": "2012-03-07", "original_language": "en", "original_title": "John Carter", "genre_ids": [28, 12, 878], "backdrop_path": "/2eDepJWMMBHmZ7pt9MSqzGQeoDc.jpg", "adult": false, "overview": "John Carter is a war-weary, former military captain who's inexplicably transported to the mysterious and exotic planet of Barsoom (Mars) and reluctantly becomes embroiled in an epic conflict. It's a world on the brink of collapse, and Carter rediscovers his humanity when he realizes the survival of Barsoom and its people rests in his hands.", "poster_path": "/4QDBNt9PmxqUH4Ab2R5xKWqzXiQ.jpg", "popularity": 20.92}, {"id": 76285, "video": false, "vote_count": 3422, "vote_average": 5.9, "title": "Percy Jackson: Sea of Monsters", "release_date": "2013-08-07", "original_language": "en", "original_title": "Percy Jackson: Sea of Monsters", "genre_ids": [12, 14, 10751], "backdrop_path": "/3NK02PLJSs01SY1hsXUAcqbG3WP.jpg", "adult": false, "overview": "In their quest to confront the ultimate evil, Percy and his friends battle swarms of mythical creatures to find the mythical Golden Fleece and to stop an ancient evil from rising.", "poster_path": "/k1bhUW7XM5X0yD3iewAEvloFBEo.jpg", "popularity": 17.468}, {"id": 17979, "video": false, "vote_count": 2815, "vote_average": 6.8, "title": "A Christmas Carol", "release_date": "2009-11-04", "original_language": "en", "original_title": "A Christmas Carol", "genre_ids": [16, 10751], "backdrop_path": "/GtwSStViUdhKGf0d7tCkR7alKV.jpg", "adult": false, "overview": "Miser Ebenezer Scrooge is awakened on Christmas Eve by spirits who reveal to him his own miserable existence, what opportunities he wasted in his youth, his current cruelties, and the dire fate that awaits him if he does not change his ways. Scrooge is faced with his own story of growing bitterness and meanness, and must decide what his own future will hold: death or redemption.", "poster_path": "/jeOCcjUAcSYleVwhsaKEPT4CYwF.jpg", "popularity": 19.945}, {"adult": false, "backdrop_path": "/iGAQZPnHLeXTaxZdKVUjLegWDom.jpg", "genre_ids": [35, 37], "id": 440161, "original_language": "en", "original_title": "The Sisters Brothers", "overview": "Oregon, 1851. Hermann Kermit Warm, a chemist and aspiring gold prospector, keeps a profitable secret that the Commodore wants to know, so he sends the Sisters brothers, two notorious assassins, to capture him on his way to California.", "poster_path": "/7Tl2nZ6uvmxwK14Skbf9VFHEHpX.jpg", "release_date": "2018-09-19", "title": "The Sisters Brothers", "video": false, "vote_average": 6.9, "vote_count": 895, "popularity": 13.758}, {"adult": false, "backdrop_path": "/A0enTetqBfL3UqLPyg0MONLQDXN.jpg", "genre_ids": [16, 10751, 12, 9648], "id": 9994, "original_language": "en", "original_title": "The Great Mouse Detective", "overview": "When the diabolical Professor Ratigan kidnaps London's master toymaker, the brilliant master of disguise Basil of Baker Street and his trusted sidekick Dawson try to elude the ultimate trap and foil the perfect crime.", "poster_path": "/9uDr7vfjCFr39KGCcqrk44Cg7fQ.jpg", "release_date": "1986-07-02", "title": "The Great Mouse Detective", "video": false, "vote_average": 7.1, "vote_count": 894, "popularity": 19.212}, {"id": 448119, "video": false, "vote_count": 53, "vote_average": 7.1, "title": "Dolittle", "release_date": "2020-01-01", "original_language": "en", "original_title": "Dolittle", "genre_ids": [12, 35, 14, 10751], "backdrop_path": "/lG802rseTZcN9mtLsQPVfApEVzM.jpg", "adult": false, "overview": "After losing his wife seven years earlier, the eccentric Dr. John Dolittle, famed doctor and veterinarian of Queen Victoria\u2019s England, hermits himself away behind the high walls of Dolittle Manor with only his menagerie of exotic animals for company. But when the young queen falls gravely ill, a reluctant Dolittle is forced to set sail on an epic adventure to a mythical island in search of a cure, regaining his wit and courage as he crosses old adversaries and discovers wondrous creatures.", "poster_path": "/3Nt3v1uzUgfSuVARD1AnI9g9Zl9.jpg", "popularity": 118.679}], "total_pages": 10, "total_results": 182}, "recommendations": {"page": 1, "results": [{"adult": false, "backdrop_path": "/5DAHjYJwbL5WB3CjWYdN4EaGQpT.jpg", "genre_ids": [18], "id": 113388, "original_language": "ko", "original_title": "\ucf54\ub9ac\uc544", "overview": "A unified team representing the two Koreas competed at the 1991 Chiba International Table Tennis Championships. It was the first such sport team since the division of the Korean peninsula. The unified team won the group competition event, beating the front runner, China. HA Ji-won plays the South Korean table tennis player, HYEON Jeong-hwa and her North Korean counterpart, LEE Bun-hee, is played by BAE Doona.", "poster_path": "/eIfoS8cTLFXU2ocrH8hwZatCMkV.jpg", "release_date": "2012-05-03", "title": "As One", "video": false, "vote_average": 7.5, "vote_count": 27, "popularity": 3.255}], "total_pages": 1, "total_results": 1}, "credits": {"cast": [{"cast_id": 24, "character": "Tanya", "credit_id": "5328ff4bc3a3683d63000abe", "gender": 1, "id": 148673, "name": "Kim So-yeon", "order": 0, "profile_path": "/facOiwmULkY0S0X4hj2i3BoCKTU.jpg"}, {"cast_id": 23, "character": "Ilyich", "credit_id": "5328fea59251413d70000cb1", "gender": 2, "id": 17122, "name": "Joo Jin-mo", "order": 1, "profile_path": "/2L32ulVRMqVxulnfaXPhPBb4bmm.jpg"}, {"cast_id": 22, "character": "Emperor Gojong", "credit_id": "5328fde49251413d7600092a", "gender": 2, "id": 93999, "name": "Park Hee-soon", "order": 3, "profile_path": "/7VoaJrwpaTrqP9KiBsIpSGX3M9g.jpg"}, {"cast_id": 31, "character": "Sadako", "credit_id": "5647221a9251413ae1002d6d", "gender": 1, "id": 87897, "name": "Yoo Sun", "order": 4, "profile_path": "/7yFlXr21FEQ2NbF6XNKE38bN26t.jpg"}, {"cast_id": 25, "character": "Seok-Joo", "credit_id": "53527fb5c3a3681da5002830", "gender": 2, "id": 230362, "name": "Jo Deok-hyeon", "order": 5, "profile_path": "/pyEDGu4LjjXAMdh4OCsmBX4LzFE.jpg"}, {"cast_id": 26, "character": "Underling", "credit_id": "53527fbec3a3681d81002890", "gender": 0, "id": 1311203, "name": "Jo Kyoung-Hoon", "order": 6, "profile_path": null}, {"cast_id": 27, "character": "Court lady", "credit_id": "53527fc8c3a3681d8d002892", "gender": 0, "id": 1311204, "name": "Kim Hyeon-A", "order": 7, "profile_path": null}, {"cast_id": 28, "character": "Geum-Hee", "credit_id": "53527fd0c3a3681d7b00296c", "gender": 0, "id": 1311205, "name": "Kim Ga-eun", "order": 8, "profile_path": "/9VMClbhlU3mXWONbIa12uit2G9G.jpg"}, {"cast_id": 29, "character": "Miura", "credit_id": "53527fd9c3a3681da5002832", "gender": 2, "id": 147852, "name": "Kim Eung-soo", "order": 9, "profile_path": "/wf5qNlX2jWDv2phUKxI3oOVdTnr.jpg"}, {"cast_id": 30, "character": "Min Young-Hwan", "credit_id": "53527fe3c3a3681da0002828", "gender": 2, "id": 73252, "name": "Jo Seung-yeon", "order": 10, "profile_path": null}], "crew": [{"credit_id": "57a7a41492514130c0003aaf", "department": "Writing", "gender": 1, "id": 21033, "job": "Screenplay", "name": "Kim Eun-jeong", "profile_path": null}, {"credit_id": "5314eeb5c3a3687e38000a5b", "department": "Directing", "gender": 2, "id": 80450, "job": "Director", "name": "Chang Youn-hyun", "profile_path": null}, {"credit_id": "5304e560c3a3683a7a1f7364", "department": "Writing", "gender": 2, "id": 1294611, "job": "Novel", "name": "Kim Tak-hwan", "profile_path": null}, {"credit_id": "5304e56ec3a3683a9920a99a", "department": "Production", "gender": 0, "id": 1294612, "job": "Producer", "name": "\uc815\ud0dc\uc6b4", "profile_path": null}, {"credit_id": "5304e579c3a3683a9920aa49", "department": "Crew", "gender": 0, "id": 1294613, "job": "Cinematography", "name": "\uc624\ud604\uc7ac", "profile_path": null}, {"credit_id": "5304e585c3a3683a91212bb1", "department": "Crew", "gender": 0, "id": 1294614, "job": "Lighting Camera", "name": "\uc784\uc7ac\uc601", "profile_path": null}, {"credit_id": "5304e593c3a3683ab21e041b", "department": "Sound", "gender": 0, "id": 1294615, "job": "Original Music Composer", "name": "\uc6d0\uc77c", "profile_path": null}, {"credit_id": "5304e59fc3a3683a6d1eccc9", "department": "Costume & Make-Up", "gender": 0, "id": 1294616, "job": "Costume Design", "name": "\uc815\uc815\uc740", "profile_path": null}, {"credit_id": "5c622c3ec3a368745ed6b817", "department": "Writing", "gender": 2, "id": 1910480, "job": "Story", "name": "Lee Won-tae", "profile_path": "/isY2YQ8SpdafEdUcY2urYEsxqH0.jpg"}, {"credit_id": "5da722c6944a570013231ace", "department": "Art", "gender": 2, "id": 2433922, "job": "Production Design", "name": "Kim Jin-chul", "profile_path": null}]}}