{"adult": false, "backdrop_path": "/mwLaJBuyHzes95Zw6pEaCIJ7MyH.jpg", "belongs_to_collection": null, "budget": 0, "genres": [{"id": 10752, "name": "War"}, {"id": 18, "name": "Drama"}, {"id": 10749, "name": "Romance"}], "homepage": "https://kingdomcounty.org/shop/the-year-that-trembled-dvd", "id": 117168, "imdb_id": "tt0288324", "original_language": "en", "original_title": "The Year That Trembled", "overview": "The Year That Trembled is a coming-of-age story set in 1970 in the shadow of Kent State that focuses on a group of young people facing the Vietnam Draft Lottery.", "popularity": 1.828, "poster_path": "/TemyY0y76bagG0LZw3nN658QiO.jpg", "production_companies": [{"id": 59180, "logo_path": null, "name": "Novel City Pictures", "origin_country": ""}, {"id": 59181, "logo_path": null, "name": "Evans Printing Co.", "origin_country": ""}, {"id": 59182, "logo_path": null, "name": "Gamekeepers Taverns, Lodges and Inns", "origin_country": ""}], "production_countries": [{"iso_3166_1": "US", "name": "United States of America"}], "release_date": "2002-03-22", "revenue": 0, "runtime": 104, "spoken_languages": [{"iso_639_1": "en", "name": "English"}], "status": "Released", "tagline": "When passions divided a nation .\u00a0.\u00a0. When choices were a matter of life and death.", "title": "The Year That Trembled", "video": false, "vote_average": 0.0, "vote_count": 0, "keywords": {"keywords": [{"id": 1228, "name": "1970s"}, {"id": 2956, "name": "vietnam"}, {"id": 4258, "name": "lottery"}]}, "similar": {"page": 1, "results": [{"id": 2604, "video": false, "vote_count": 844, "vote_average": 7.0, "title": "Born on the Fourth of July", "release_date": "1989-12-20", "original_language": "en", "original_title": "Born on the Fourth of July", "genre_ids": [18, 10752], "backdrop_path": "/t9MrNY0xM9U5JSe5vHN9z08UYty.jpg", "adult": false, "overview": "The biography of Ron Kovic. Paralyzed in the Vietnam war, he becomes an anti-war and pro-human rights political activist after feeling betrayed by the country he fought for.", "poster_path": "/iAUSzQNpxf9fX1EvhNbeguo6aVA.jpg", "popularity": 12.659}, {"id": 1369, "video": false, "vote_count": 1901, "vote_average": 6.5, "title": "Rambo: First Blood Part II", "release_date": "1985-05-21", "original_language": "en", "original_title": "Rambo: First Blood Part II", "genre_ids": [28, 12, 53, 10752], "backdrop_path": "/tqrN6ZVA2lXeyqSi58kWvNdnzzA.jpg", "adult": false, "overview": "John Rambo is released from prison by the government for a top-secret covert mission to the last place on Earth he'd want to return - the jungles of Vietnam.", "poster_path": "/l6zUaYqaQ5TFokesv3BPzBvSN0.jpg", "popularity": 24.903}, {"adult": false, "backdrop_path": "/xiBsA8Qj5KhO4cUKz6RHDtKpBGs.jpg", "genre_ids": [28, 12, 53, 10752], "id": 1368, "original_language": "en", "original_title": "First Blood", "overview": "When former Green Beret John Rambo is harassed by local law enforcement and arrested for vagrancy, the Vietnam vet snaps, runs for the hills and rat-a-tat-tats his way into the action-movie hall of fame. Hounded by a relentless sheriff, Rambo employs heavy-handed guerilla tactics to shake the cops off his tail.", "poster_path": "/wOsPbJixVc80iilfcByLKPAKz6G.jpg", "release_date": "1982-10-22", "title": "First Blood", "video": false, "vote_average": 7.4, "vote_count": 3235, "popularity": 29.852}, {"id": 446354, "video": false, "vote_count": 2839, "vote_average": 7.0, "title": "The Post", "release_date": "2017-12-22", "original_language": "en", "original_title": "The Post", "genre_ids": [18, 36], "backdrop_path": "/8sb4aBST28vN3rBz704XJczS0Ld.jpg", "adult": false, "overview": "A cover-up that spanned four U.S. Presidents pushed the country's first female newspaper publisher and a hard-driving editor to join an unprecedented battle between journalist and government. Inspired by true events.", "poster_path": "/h4XG3g6uMMPIBPjAoQhC2QIMdkl.jpg", "popularity": 19.347}, {"id": 10590, "video": false, "vote_count": 983, "vote_average": 6.9, "title": "We Were Soldiers", "release_date": "2002-03-01", "original_language": "en", "original_title": "We Were Soldiers", "genre_ids": [28, 36, 10752], "backdrop_path": "/8ikyF16LecHlHkkMmuZJDV9GWa7.jpg", "adult": false, "overview": "The story of the first major battle of the American phase of the Vietnam War and the soldiers on both sides that fought it.", "poster_path": "/kjG02l5Nqcgd3ZOb7aMBb9CIIIi.jpg", "popularity": 14.796}, {"id": 11778, "video": false, "vote_count": 1976, "vote_average": 8.0, "title": "The Deer Hunter", "release_date": "1978-12-08", "original_language": "en", "original_title": "The Deer Hunter", "genre_ids": [18, 10752], "backdrop_path": "/b6XsiYIRBT2FisQ5FdgHo8L1meg.jpg", "adult": false, "overview": "A group of working-class friends decides to enlist in the Army during the Vietnam War and finds it to be hellish chaos -- not the noble venture they imagined. Before they left, Steven married his pregnant girlfriend -- and Michael and Nick were in love with the same woman. But all three are different men upon their return.", "poster_path": "/slNJESItHPqp1CENEJQUPw8d7WE.jpg", "popularity": 27.532}, {"id": 326285, "video": false, "vote_count": 379, "vote_average": 6.1, "title": "American Pastoral", "release_date": "2016-10-20", "original_language": "en", "original_title": "American Pastoral", "genre_ids": [80, 18], "backdrop_path": "/jUA6DRV3aGqwPFyiDqPD3idAFw1.jpg", "adult": false, "overview": "Set in postwar America, a man watches his seemingly perfect life fall apart as his daughter's new political affiliation threatens to destroy their family.", "poster_path": "/5RSZR8clQh6170hRODWH5yS9nHS.jpg", "popularity": 9.635}, {"adult": false, "backdrop_path": "/uyM09BML2F05VpJoXtf0tza44A4.jpg", "genre_ids": [53], "id": 446021, "original_language": "en", "original_title": "Bad Times at the El Royale", "overview": "Lake Tahoe, 1969. Seven strangers, each one with a secret to bury, meet at El Royale, a decadent motel with a dark past. In the course of a fateful night, everyone will have one last shot at redemption.", "poster_path": "/eBXFMpewhnmWLLQqg1EJWJwSw7a.jpg", "release_date": "2018-10-04", "title": "Bad Times at the El Royale", "video": false, "vote_average": 6.8, "vote_count": 1919, "popularity": 17.105}, {"id": 1949, "video": false, "vote_count": 5165, "vote_average": 7.5, "title": "Zodiac", "release_date": "2007-03-02", "original_language": "en", "original_title": "Zodiac", "genre_ids": [80, 18, 9648, 53], "backdrop_path": "/jP2htGBHE7vKq4MLeC75UeC0sZH.jpg", "adult": false, "overview": "The true story of the investigation of the \"Zodiac Killer\", a serial killer who terrified the San Francisco Bay Area, taunting police with his ciphers and letters. The case becomes an obsession for three men as their lives and careers are built and destroyed by the endless trail of clues.", "poster_path": "/bgLyOROfFQI3FqYL7jQbiaV8lkN.jpg", "popularity": 24.455}, {"adult": false, "backdrop_path": "/uCjCNaxLyLkcwBq4aOHOeiKKwPE.jpg", "genre_ids": [35, 10749, 80, 18, 9648], "id": 171274, "original_language": "en", "original_title": "Inherent Vice", "overview": "In Los Angeles at the turn of the 1970s, drug-fueled detective Larry \"Doc\" Sportello investigates the disappearance of an ex-girlfriend.", "poster_path": "/2fCg6FORkgRLpFIKlUg4gULIn1u.jpg", "release_date": "2014-12-25", "title": "Inherent Vice", "video": false, "vote_average": 6.6, "vote_count": 1536, "popularity": 20.663}, {"id": 508664, "video": false, "vote_count": 31, "vote_average": 6.7, "title": "Danger Close", "release_date": "2019-08-08", "original_language": "en", "original_title": "Danger Close: The Battle of Long Tan", "genre_ids": [28, 18, 36, 10752], "backdrop_path": "/7uacpbrJd9g9xSTLgfyg1NwkAiu.jpg", "adult": false, "overview": "Vietnam War, 1966. Australia and New Zealand send troops to support the United States and South Vietnamese in their fight against the communist North. Soldiers are very young men, recruits and volunteers who have never been involved in a combat. On August 18th, members of Delta Company will face the true horror of a ruthless battle among the trees of a rubber plantation called Long T\u00e2n. They are barely a hundred. The enemy is a human wave ready to destroy them.", "poster_path": "/aB1rCWGMsM2mm1kBDleaPkqUCFo.jpg", "popularity": 17.019}, {"id": 13, "video": false, "vote_count": 16610, "vote_average": 8.4, "title": "Forrest Gump", "release_date": "1994-07-06", "original_language": "en", "original_title": "Forrest Gump", "genre_ids": [35, 18, 10749], "backdrop_path": "/wMgbnUVS9wbRGAdki8fqxKU1O0N.jpg", "adult": false, "overview": "A man with a low IQ has accomplished great things in his life and been present during significant historic events\u2014in each case, far exceeding what anyone imagined he could do. But despite all he has achieved, his one true love eludes him.", "poster_path": "/yE5d3BUhE8hCnkMUJOo1QDoOGNz.jpg", "popularity": 41.886}, {"id": 398978, "video": false, "vote_count": 2192, "vote_average": 7.8, "title": "The Irishman", "release_date": "2019-11-01", "original_language": "en", "original_title": "The Irishman", "genre_ids": [80, 18, 36], "backdrop_path": "/iLLDiO4dbUfFEnRug8DuvFEl1NB.jpg", "adult": false, "overview": "Pennsylvania, 1956. Frank Sheeran, a war veteran of Irish origin who works as a truck driver, accidentally meets mobster Russell Bufalino. Once Frank becomes his trusted man, Bufalino sends him to Chicago with the task of helping Jimmy Hoffa, a powerful union leader related to organized crime, with whom Frank will maintain a close friendship for nearly twenty years.", "poster_path": "/mbm8k3GFhXS0ROd9AD1gqYbIFbM.jpg", "popularity": 71.608}, {"id": 504608, "video": false, "vote_count": 1666, "vote_average": 7.4, "title": "Rocketman", "release_date": "2019-05-22", "original_language": "en", "original_title": "Rocketman", "genre_ids": [18, 10402], "backdrop_path": "/sZZJ42GrWKxSOfcrpI2TSFQa0AQ.jpg", "adult": false, "overview": "The story of Elton John's life, from his years as a prodigy at the Royal Academy of Music through his influential and enduring musical partnership with Bernie Taupin.", "poster_path": "/f4FF18ia7yTvHf2izNrHqBmgH8U.jpg", "popularity": 27.709}, {"adult": false, "backdrop_path": "/j1pLMvLiXRyeeHyTZO79a4t3Qao.jpg", "genre_ids": [36, 18], "id": 10858, "original_language": "en", "original_title": "Nixon", "overview": "An all-star cast powers this epic look at American President Richard M. Nixon, a man carrying the fate of the world on his shoulders while battling the self-destructive demands from within. Spanning his troubled boyhood in California to the shocking Watergate scandal that would end his presidency.", "poster_path": "/cICkmCEiXRhvZmbuAlsA5D9B2rK.jpg", "release_date": "1995-12-22", "title": "Nixon", "video": false, "vote_average": 7.0, "vote_count": 157, "popularity": 10.693}, {"adult": false, "backdrop_path": "/wK9KMT9ERHqvgBnLDU2hpxfnGD1.jpg", "genre_ids": [36, 10752, 28, 18], "id": 31642, "original_language": "en", "original_title": "Heaven & Earth", "overview": "Le Ly lives in a small Vietnamese village whose serenity is shattered when war breaks out. Caught between the Viet Cong and the South Vietnamese army, the village is all but destroyed. After being both brutalized and raped, Le Ly resolves to flee. She leaves for the city, surviving desperate situations, but surviving nonetheless. Eventually she meets a U.S. Marine named Steve Butler who treats her kindly and tells her he would like to be married -- maybe to her.", "poster_path": "/hXSUatA39pbfwaqOGFHFdwswAXc.jpg", "release_date": "1993-12-24", "title": "Heaven & Earth", "video": false, "vote_average": 6.6, "vote_count": 95, "popularity": 10.29}, {"id": 293167, "video": false, "vote_count": 6635, "vote_average": 6.4, "title": "Kong: Skull Island", "release_date": "2017-03-08", "original_language": "en", "original_title": "Kong: Skull Island", "genre_ids": [28, 12, 14], "backdrop_path": "/sRg0J1uvz3Yfp6WnHcL33dY4g5w.jpg", "adult": false, "overview": "Explore the mysterious and dangerous home of the king of the apes as a team of explorers ventures deep inside the treacherous, primordial island.", "poster_path": "/r2517Vz9EhDhj88qwbDVj8DCRZN.jpg", "popularity": 35.861}, {"adult": false, "backdrop_path": "/4bHX7nAmjMiZO9eotJITyro0raw.jpg", "genre_ids": [18], "id": 376866, "original_language": "en", "original_title": "Jackie", "overview": "An account of the days of First Lady, Jacqueline Kennedy, in the immediate aftermath of John F. Kennedy's assassination in 1963.", "poster_path": "/iMkl2Akc1f4CSJCieVwczM4KjZR.jpg", "release_date": "2016-12-02", "title": "Jackie", "video": false, "vote_average": 6.5, "vote_count": 1554, "popularity": 17.637}, {"adult": false, "backdrop_path": "/urnGzQvP8fwWWGkn1k809KqIjbm.jpg", "genre_ids": [18], "id": 87093, "original_language": "en", "original_title": "Big Eyes", "overview": "The story of the awakening of painter, Margaret Keane, her phenomenal success in the 1950s, and the subsequent legal difficulties she had with her husband, who claimed credit for her works in the 1960s.", "poster_path": "/z2tqzprHojhgEGYKQepjU28oQg6.jpg", "release_date": "2014-12-24", "title": "Big Eyes", "video": false, "vote_average": 7.0, "vote_count": 2349, "popularity": 14.024}, {"id": 120467, "video": false, "vote_count": 8930, "vote_average": 8.0, "title": "The Grand Budapest Hotel", "release_date": "2014-02-26", "original_language": "en", "original_title": "The Grand Budapest Hotel", "genre_ids": [35, 18], "backdrop_path": "/5FPUoQtnNC0C0YZ7sUeTLq6eZqa.jpg", "adult": false, "overview": "The Grand Budapest Hotel tells of a legendary concierge at a famous European hotel between the wars and his friendship with a young employee who becomes his trusted prot\u00e9g\u00e9. The story involves the theft and recovery of a priceless Renaissance painting, the battle for an enormous family fortune and the slow and then sudden upheavals that transformed Europe during the first half of the 20th century.", "poster_path": "/nX5XotM9yprCKarRH4fzOq1VM1J.jpg", "popularity": 24.31}], "total_pages": 55, "total_results": 1095}, "recommendations": {"page": 1, "results": [], "total_pages": 1, "total_results": 0}, "credits": {"cast": [{"cast_id": 0, "character": "Casey Pedersen", "credit_id": "55b31c6b925141788b003bb8", "gender": 2, "id": 27773, "name": "Jonathan Brandis", "order": 1, "profile_path": "/dWKS1zkrHt1mtaTuAjQNr6nNnlb.jpg"}, {"cast_id": 1, "character": "Jim 'Hairball' Morton", "credit_id": "55b31c8792514173640037b1", "gender": 2, "id": 111122, "name": "Charlie Finn", "order": 2, "profile_path": "/4oaJsmvpQKo42UugAXarmizsGPu.jpg"}, {"cast_id": 3, "character": "Isaac Hoskins", "credit_id": "55b31ca6c3a3682ff4014053", "gender": 2, "id": 80289, "name": "Jay R. Ferguson", "order": 4, "profile_path": "/vC2bLfSmfEvTKT0yNwPfZ8N7Aat.jpg"}, {"cast_id": 4, "character": "Judy Woods", "credit_id": "55b31cbfc3a368726500b89c", "gender": 1, "id": 87934, "name": "Meredith Monroe", "order": 5, "profile_path": "/78MnZi3W8MkiAkcMSHElZMzQm2d.jpg"}, {"cast_id": 5, "character": "Helen Kerrigan", "credit_id": "55b31cdcc3a368246c00b54f", "gender": 1, "id": 65760, "name": "Marin Hinkle", "order": 6, "profile_path": "/cdSW58BExmrfRCfcOfKPZblDSxI.jpg"}, {"cast_id": 6, "character": "Frank Woods", "credit_id": "55b31cf99251411e0f011865", "gender": 2, "id": 20753, "name": "Fred Willard", "order": 7, "profile_path": "/j1jWdqmklfIH4hpAbw1DK0gPMX0.jpg"}, {"cast_id": 7, "character": "Ralph Tyler", "credit_id": "55b31d13c3a368246c00b555", "gender": 2, "id": 19439, "name": "Henry Gibson", "order": 8, "profile_path": "/5dmU4muna3kpU2aFM4eU2Ij12Xn.jpg"}, {"cast_id": 8, "character": "Wayne Simonelli", "credit_id": "55b31d31925141045700192a", "gender": 2, "id": 80742, "name": "Martin Mull", "order": 9, "profile_path": "/k38QXv1z5VHZiRu1ddmU0wzGkN.jpg"}, {"cast_id": 9, "character": "Pam Hatch", "credit_id": "55b31d4e9251411e0f01186d", "gender": 1, "id": 65220, "name": "Danica McKellar", "order": 10, "profile_path": "/kznd1dtsDGuPddD9N03JvbFN4L9.jpg"}, {"cast_id": 13, "character": "Ernie Whirly", "credit_id": "5a0305ef92514111d201805f", "gender": 2, "id": 7576, "name": "Bill Raymond", "order": 11, "profile_path": "/9qUefRsvEzitR2j8CwtXYbddayE.jpg"}], "crew": [{"credit_id": "55b31d7392514125da011903", "department": "Directing", "gender": 2, "id": 135796, "job": "Director", "name": "Jay Craven", "profile_path": "/zHEyfU9HSyLNTr22wE43I1WB3y9.jpg"}, {"credit_id": "55b31d83c3a368246c00b569", "department": "Writing", "gender": 2, "id": 135796, "job": "Writer", "name": "Jay Craven", "profile_path": "/zHEyfU9HSyLNTr22wE43I1WB3y9.jpg"}, {"credit_id": "55b31d94c3a368648e0102a7", "department": "Writing", "gender": 0, "id": 1490188, "job": "Novel", "name": "Scott Lax", "profile_path": null}, {"credit_id": "5b95ddbf925141431c02a37b", "department": "Camera", "gender": 0, "id": 1208681, "job": "Director of Photography", "name": "Jeff Barklage", "profile_path": null}, {"credit_id": "5b95ddcfc3a368567f02f96a", "department": "Camera", "gender": 2, "id": 1609422, "job": "Director of Photography", "name": "John Foster", "profile_path": null}]}}