{"adult": false, "backdrop_path": null, "belongs_to_collection": null, "budget": 0, "genres": [{"id": 35, "name": "Comedy"}, {"id": 10749, "name": "Romance"}], "homepage": null, "id": 117179, "imdb_id": "tt0175777", "original_language": "en", "original_title": "Just a Little Harmless Sex", "overview": "Just a Little Harmless Sex examines a young married couple that faces a serious break-up when the husband is caught committing adultery with a prostitute.", "popularity": 2.131, "poster_path": "/3QD1hYWgTFE9aHr3wCJ0iN9c4wI.jpg", "production_companies": [{"id": 40765, "logo_path": null, "name": "Miss Q", "origin_country": ""}, {"id": 40766, "logo_path": null, "name": "Isn't It Romantic", "origin_country": ""}], "production_countries": [{"iso_3166_1": "US", "name": "United States of America"}], "release_date": "1999-06-11", "revenue": 0, "runtime": 98, "spoken_languages": [{"iso_639_1": "en", "name": "English"}], "status": "Released", "tagline": "", "title": "Just a Little Harmless Sex", "video": false, "vote_average": 6.3, "vote_count": 4, "keywords": {"keywords": [{"id": 10280, "name": "farce"}, {"id": 13130, "name": "teenager"}, {"id": 170827, "name": "sex comedy"}, {"id": 171518, "name": "thong"}]}, "similar": {"page": 1, "results": [{"id": 272693, "video": false, "vote_count": 3247, "vote_average": 6.8, "title": "The DUFF", "release_date": "2015-02-20", "original_language": "en", "original_title": "The DUFF", "genre_ids": [35, 10749], "backdrop_path": "/awGZf5T1hflis9Z2KvRMhp798xU.jpg", "adult": false, "overview": "Bianca's universe turns upside down when she learns that her high school refers to her as a \u2018DUFF' (Designated Ugly Fat Friend). Hoping to erase that label, she enlists the help of a charming jock and her favorite teacher. Together they'll face the school's mean girl and remind everyone that we are all someone's DUFF\u2026 and that's totally fine.", "poster_path": "/dBBgPTCN5Zze4POXWVVpwf3wkra.jpg", "popularity": 14.151}, {"id": 13342, "video": false, "vote_count": 638, "vote_average": 6.9, "title": "Fast Times at Ridgemont High", "release_date": "1982-08-13", "original_language": "en", "original_title": "Fast Times at Ridgemont High", "genre_ids": [35, 18], "backdrop_path": "/l23IoHAfjTdNMZLeDetr75H6sb7.jpg", "adult": false, "overview": "Follows a group of high school students growing up in southern California, based on the real-life adventures chronicled by Cameron Crowe. Stacy Hamilton and Mark Ratner are looking for a love interest, and are helped along by their older classmates, Linda Barrett and Mike Damone, respectively. The center of the film is held by Jeff Spicoli, a perpetually stoned surfer dude who faces off with the resolute Mr. Hand, who is convinced that everyone is on dope.", "poster_path": "/lvEenO2CikD4Zo3rFK1flAU99Pr.jpg", "popularity": 14.454}, {"adult": false, "backdrop_path": "/nt2e2QL5Nktok8udDar6627f1Ws.jpg", "genre_ids": [35], "id": 10625, "original_language": "en", "original_title": "Mean Girls", "overview": "Cady Heron is a hit with The Plastics, the A-list girl clique at her new school, until she makes the mistake of falling for Aaron Samuels, the ex-boyfriend of alpha Plastic Regina George.", "poster_path": "/lDlGPZS0UJYKxVlpyff3BMyPc2H.jpg", "release_date": "2004-04-30", "title": "Mean Girls", "video": false, "vote_average": 7.1, "vote_count": 5324, "popularity": 19.072}, {"adult": false, "backdrop_path": "/iFLAEKnLQZNeYztE7Vy5NbL4Tw1.jpg", "genre_ids": [35], "id": 57214, "original_language": "en", "original_title": "Project X", "overview": "Three high school seniors throw a party to make a name for themselves. As the night progresses, things spiral out of control as word of the party spreads.", "poster_path": "/cWXkRLmzKfYutvWeJXaednoGKdF.jpg", "release_date": "2012-03-01", "title": "Project X", "video": false, "vote_average": 6.4, "vote_count": 3260, "popularity": 14.346}, {"id": 15144, "video": false, "vote_count": 1219, "vote_average": 6.8, "title": "Sixteen Candles", "release_date": "1984-05-04", "original_language": "en", "original_title": "Sixteen Candles", "genre_ids": [35, 10749], "backdrop_path": "/xCIgY4mUmO4tbDVlntym9PdZ9H8.jpg", "adult": false, "overview": "A teenage girl deals with her parents forgetting her birthday and a crush on her high school's heartthrob.", "poster_path": "/rzTrRQg5ek47Yl0Vfenc69r9gOd.jpg", "popularity": 27.185}, {"adult": false, "backdrop_path": "/ncERp0UvXuImUeJcf27kEANcf1r.jpg", "genre_ids": [35, 10751, 10749], "id": 9880, "original_language": "en", "original_title": "The Princess Diaries", "overview": "A socially awkward but very bright 15-year-old girl being raised by a single mom discovers that she is the princess of a small European country because of the recent death of her long-absent father, who, unknown to her, was the crown prince of Genovia. She must make a choice between continuing the life of a San Francisco teen or stepping up to the throne.", "poster_path": "/sxpvHk286sXLJWcFrBMNIsXbYsd.jpg", "release_date": "2001-08-03", "title": "The Princess Diaries", "video": false, "vote_average": 6.8, "vote_count": 2861, "popularity": 32.167}, {"id": 449176, "video": false, "vote_count": 3690, "vote_average": 8.1, "title": "Love, Simon", "release_date": "2018-02-16", "original_language": "en", "original_title": "Love, Simon", "genre_ids": [35, 18, 10749], "backdrop_path": "/rqMEeajyzSF4PpJtdCB816Iz8Vr.jpg", "adult": false, "overview": "Everyone deserves a great love story. But for seventeen-year old Simon Spier it's a little more complicated: he's yet to tell his family or friends he's gay and he doesn't know the identity of the anonymous classmate he's fallen for online.", "poster_path": "/5YUYg5q7QfC4IoNwNUtiwdiYKPr.jpg", "popularity": 24.849}, {"id": 325189, "video": false, "vote_count": 338, "vote_average": 6.5, "title": "Teen Beach 2", "release_date": "2015-06-26", "original_language": "en", "original_title": "Teen Beach 2", "genre_ids": [35, 14, 10751, 10770], "backdrop_path": "/x3cQd5rruj6jySg7dIHuNXT8REX.jpg", "adult": false, "overview": "When characters from the movie musical \u201cWet Side Story\u201d get stuck in the real world, teens Brady and Mack must find a way to return them home.", "poster_path": "/4A5Ecrvs6P8Yipjn4Xl2WYgu7Gm.jpg", "popularity": 24.726}, {"adult": false, "backdrop_path": "/by0WtpJ5UNxOy6ytIfPPTasbRoB.jpg", "genre_ids": [28, 12, 35, 18, 10751, 10402, 10749], "id": 17130, "original_language": "en", "original_title": "Crossroads", "overview": "Three friends get together and bury a box making a pact to open it at midnight at their high school graduation. In the little town in Georgia that they live in, things soon change. One is little miss perfect, one is an engaged prom queen, and the other is a pregnant outcast. The night of graduation, they open the box and they strike up a conversation. All of a sudden, one brings up the topic of her going to Los Angeles for a record contract audition. They all decide to go together and they leave. With a little money, they set out on the road with a guy named Ben. When one of them tells the other a rumor that he might be a homicidal maniac they are all scared of him. When they reach LA, Lucy falls in love with Ben and against her father's wishes, she stays and she goes to the audition.", "poster_path": "/egIs4cWxn0iBErFKrQ7STckjj49.jpg", "release_date": "2002-02-15", "title": "Crossroads", "video": false, "vote_average": 5.0, "vote_count": 334, "popularity": 12.973}, {"id": 37725, "video": false, "vote_count": 648, "vote_average": 6.5, "title": "It's a Boy Girl Thing", "release_date": "2006-12-26", "original_language": "en", "original_title": "It's a Boy Girl Thing", "genre_ids": [35, 14, 10749], "backdrop_path": "/vcUu3EOu5oz5hCGmJ94DFlIqhPY.jpg", "adult": false, "overview": "A visit to a natural history museum proves catastrophic for two high school rivals, an overachiever and a jock, when an ancient Aztec statue casts a spell that causes them to switch bodies and see exactly what it's like to walk in the other's shoes.", "poster_path": "/lFZQlr68VRzrroXtTnNy9qbUNK6.jpg", "popularity": 16.023}, {"adult": false, "backdrop_path": "/kfVcPYwMxnnAqY4daaBGuICXklL.jpg", "genre_ids": [35], "id": 25164, "original_language": "en", "original_title": "Screwballs", "overview": "Welcome to T & A High, where the entire student body including campus virgin Purity Busch, chronic masturbator Melvin Jerkovski, repressed Principal Stuckoff and blonde bombshell Bootsie Goodhead all must rise to the challenges of freshman breast exams, bikini cheerleader attacks, inappropriate uses of bowling ball holes and much more.", "poster_path": "/zwOWBIC4GFwf9rC6SUY9gGXPU7W.jpg", "release_date": "1983-04-01", "title": "Screwballs", "video": false, "vote_average": 4.6, "vote_count": 36, "popularity": 7.861}, {"adult": false, "backdrop_path": "/wu4tawMznxUvqP21lUH6RKrv3LQ.jpg", "genre_ids": [35], "id": 37735, "original_language": "en", "original_title": "Easy A", "overview": "Olive, an average high school student, sees her below-the-radar existence turn around overnight once she decides to use the school's gossip grapevine to advance her social standing. Now her classmates are turning against her and the school board is becoming concerned, including her favorite teacher and the distracted guidance counselor. With the support of her hilariously idiosyncratic parents and a little help from a long-time crush, Olive attempts to take on her notorious new identity and crush the rumor mill once and for all.", "poster_path": "/1pgPO3OfSm2inpODMqg2RNmLW90.jpg", "release_date": "2010-09-16", "title": "Easy A", "video": false, "vote_average": 6.8, "vote_count": 4633, "popularity": 13.401}, {"adult": false, "backdrop_path": "/3GuYLuqn34guNrgUlZnXyLogD6u.jpg", "genre_ids": [35, 12, 10749], "id": 13523, "original_language": "en", "original_title": "Sex Drive", "overview": "A high school senior drives cross-country with his best friends to hook up with a babe he met online.", "poster_path": "/bwXrZy2xqsyDnno4z8AENEgVfsO.jpg", "release_date": "2008-10-16", "title": "Sex Drive", "video": false, "vote_average": 6.1, "vote_count": 646, "popularity": 16.891}, {"adult": false, "backdrop_path": "/yIszPJawrrp6zcb62d7XJnaxAmw.jpg", "genre_ids": [18], "id": 13078, "original_language": "en", "original_title": "The Babysitters", "overview": "Seventeen-year-old Shirley is a good student who works as a babysitter in order to make money for college. One night Michael, a father Shirley works for, confesses he's unhappy with married life. Shirley has a crush on Michael, and seizes this moment to kiss him. Michael is so happy he presents Shirley with a big tip, which gives her an idea. Shirley plans to make extra money by setting up her teenage friends with other unhappy fathers.", "poster_path": "/nsrNUqGXI95unRKZEu8BJ584xWn.jpg", "release_date": "2007-09-11", "title": "The Babysitters", "video": false, "vote_average": 5.3, "vote_count": 153, "popularity": 16.136}, {"id": 248574, "video": false, "vote_count": 645, "vote_average": 5.7, "title": "Barely Lethal", "release_date": "2015-04-30", "original_language": "en", "original_title": "Barely Lethal", "genre_ids": [28, 12, 35], "backdrop_path": "/scoMZVgdqBM7vqZaEbhQXJd7jOL.jpg", "adult": false, "overview": "A 16-year-old international assassin yearning for a \"normal\" adolescence fakes her own death and enrolls as a senior in a suburban high school. She quickly learns that being popular can be more painful than getting water-boarded.", "poster_path": "/nJm0vGJVyELlQEzHRq22vi2JHbW.jpg", "popularity": 13.213}, {"id": 2105, "video": false, "vote_count": 4789, "vote_average": 6.5, "title": "American Pie", "release_date": "1999-07-09", "original_language": "en", "original_title": "American Pie", "genre_ids": [35, 10749], "backdrop_path": "/udTWgfwAzUxdztoyKSReoSrjBU7.jpg", "adult": false, "overview": "At a high-school party, four friends find that losing their collective virginity isn't as easy as they had thought. But they still believe that they need to do so before college. To motivate themselves, they enter a pact to all \"score.\" by their senior prom.", "poster_path": "/k40WFAXMRekWEqsjURO3jiWob67.jpg", "popularity": 27.064}, {"id": 11887, "video": false, "vote_count": 2347, "vote_average": 6.5, "title": "High School Musical 3: Senior Year", "release_date": "2008-10-11", "original_language": "en", "original_title": "High School Musical 3: Senior Year", "genre_ids": [35, 18, 10402, 10749, 10751], "backdrop_path": "/daSGxGZL2nNjGZKkAF5ain3lmOx.jpg", "adult": false, "overview": "It's almost graduation day for high school seniors Troy, Gabriella, Sharpay, Chad, Ryan and Taylor \u2015 and the thought of heading off in separate directions after leaving East High has these Wildcats thinking they need to do something they'll remember forever. Together with the rest of the Wildcats, they stage a spring musical reflecting their hopes and fears about the future and their unforgettable experiences growing up together. But with graduation approaching and college plans in question, what will become of the dreams, romances, and friendships of East High's senior Wildcats?", "poster_path": "/ewZpH2QIfPQ0VIn9lPf7MHbLbl4.jpg", "popularity": 19.967}, {"adult": false, "backdrop_path": "/5x0VEeFCnWzRBwU23KycKQRqEhN.jpg", "genre_ids": [10402, 35], "id": 15157, "original_language": "en", "original_title": "Another Cinderella Story", "overview": "A guy who danced with what could be the girl of his dreams at a costume ball only has one hint at her identity: the Zune she left behind as she rushed home in order to make her curfew. And with a once-in-a-lifetime opportunity in front of him, he sets out to find his masked beauty.", "poster_path": "/fLdCKCfHT8A6bnWybBsQFjC4fCo.jpg", "release_date": "2008-09-16", "title": "Another Cinderella Story", "video": false, "vote_average": 6.6, "vote_count": 1120, "popularity": 22.24}, {"id": 2770, "video": false, "vote_count": 2941, "vote_average": 6.1, "title": "American Pie 2", "release_date": "2001-08-10", "original_language": "en", "original_title": "American Pie 2", "genre_ids": [35, 10749], "backdrop_path": "/1C1d3Tpesm8Vn3BRqsQZt0LfZcG.jpg", "adult": false, "overview": "The whole gang are back and as close as ever. They decide to get even closer by spending the summer together at a beach house. They decide to hold the biggest party ever to be seen, even if the preparation doesn't always go to plan. Especially when Stifler, Finch and Jim become more close to each other than they ever want to be and when Jim mistakes super glue for lubricant...", "poster_path": "/q4LNgUnRfltxzp3gf1MAGiK5LhV.jpg", "popularity": 22.387}, {"adult": false, "backdrop_path": "/bxPw6s61bG5Of19lp1E00n0dDWW.jpg", "genre_ids": [35, 18, 10751, 10402, 10770], "id": 10947, "original_language": "en", "original_title": "High School Musical", "overview": "Troy, the popular captain of the basketball team, and Gabriella, the brainy and beautiful member of the academic club, break all the rules of East High society when they secretly audition for the leads in the school's musical. As they reach for the stars and follow their dreams, everyone learns about acceptance, teamwork, and being yourself.", "poster_path": "/xMRBlTMMKDRJuK4IhwG5idrGHaS.jpg", "release_date": "2006-01-20", "title": "High School Musical", "video": false, "vote_average": 6.5, "vote_count": 2982, "popularity": 16.417}], "total_pages": 175, "total_results": 3486}, "recommendations": {"page": 1, "results": [], "total_pages": 1, "total_results": 0}, "credits": {"cast": [{"cast_id": 2, "character": "Laura", "credit_id": "52fe4babc3a36847f820ebe7", "gender": 1, "id": 389, "name": "Alison Eastwood", "order": 0, "profile_path": "/mRXDleUiPyNFSv3mOF4PNR7nhkY.jpg"}, {"cast_id": 6, "character": "Alan", "credit_id": "52fe4babc3a36847f820ebf9", "gender": 2, "id": 161897, "name": "Robert Mailhouse", "order": 1, "profile_path": "/jvu6hThrolmeRmLlYvuFO3Z1U8i.jpg"}, {"cast_id": 8, "character": "Danny", "credit_id": "52fe4babc3a36847f820ec01", "gender": 2, "id": 55265, "name": "Jonathan Silverman", "order": 2, "profile_path": "/khx8B9Ln5isYyag7gG48DogOHHx.jpg"}, {"cast_id": 9, "character": "Allison (as Kimberly Williams)", "credit_id": "52fe4babc3a36847f820ec05", "gender": 1, "id": 70696, "name": "Kimberly Williams-Paisley", "order": 3, "profile_path": "/nVp4F4VFqVvjh6huOULUQoiAguY.jpg"}, {"cast_id": 10, "character": "Brent", "credit_id": "52fe4babc3a36847f820ec09", "gender": 2, "id": 31467, "name": "William Ragsdale", "order": 4, "profile_path": "/njtQMv0vm9uNzSdVTqjYTu1TzNd.jpg"}, {"cast_id": 7, "character": "Terrianne", "credit_id": "52fe4babc3a36847f820ebfd", "gender": 1, "id": 83196, "name": "Jessica Lundy", "order": 5, "profile_path": "/fB5T3SG9Hmh2hh9uUHBjCJ2WNwx.jpg"}, {"cast_id": 4, "character": "Elaine", "credit_id": "52fe4babc3a36847f820ebef", "gender": 1, "id": 27964, "name": "Lauren Hutton", "order": 6, "profile_path": "/kYJFTG1On90T9eLJZ0pE56LC781.jpg"}, {"cast_id": 11, "character": "Chuey", "credit_id": "52fe4babc3a36847f820ec0d", "gender": 2, "id": 53763, "name": "Tito Larriva", "order": 7, "profile_path": "/kfOZ6Z7JtslNMBtiLU3bSxhdfXe.jpg"}, {"cast_id": 3, "character": "Marilyn", "credit_id": "52fe4babc3a36847f820ebeb", "gender": 1, "id": 110015, "name": "Rachel Hunter", "order": 8, "profile_path": "/7Qz0hMPpqiTtDsNIcjYSA4l1Wjt.jpg"}, {"cast_id": 12, "character": "Jeff", "credit_id": "52fe4babc3a36847f820ec11", "gender": 2, "id": 6678, "name": "Michael Ontkean", "order": 9, "profile_path": "/jUpqInKD86zbW90AL0noHBqQTm6.jpg"}, {"cast_id": 13, "character": "Cyndi the Drive-By Hooker", "credit_id": "52fe4babc3a36847f820ec15", "gender": 0, "id": 550489, "name": "Robin Blazak", "order": 10, "profile_path": null}, {"cast_id": 14, "character": "Vince the Pizza Guy", "credit_id": "52fe4babc3a36847f820ec19", "gender": 2, "id": 1070563, "name": "Nuno Bettencourt", "order": 11, "profile_path": "/ytQSSoAwgiKv7GLogBXFFxAc3qe.jpg"}], "crew": [{"credit_id": "570e390cc3a3684562000183", "department": "Camera", "gender": 2, "id": 792, "job": "Director of Photography", "name": "Bruce Surtees", "profile_path": "/dJsO0sdSi2tM4ZTKVdZrvufiAuO.jpg"}, {"credit_id": "570e395a925141161c0001bf", "department": "Editing", "gender": 2, "id": 7886, "job": "Editor", "name": "Jim Stewart", "profile_path": null}, {"credit_id": "52fe4babc3a36847f820ebf5", "department": "Directing", "gender": 0, "id": 33341, "job": "Director", "name": "Rick Rosenthal", "profile_path": "/wObA3tDXNPNnz7UQrIuFTkIZmvI.jpg"}, {"credit_id": "570e39879251411601000180", "department": "Production", "gender": 0, "id": 33341, "job": "Producer", "name": "Rick Rosenthal", "profile_path": "/wObA3tDXNPNnz7UQrIuFTkIZmvI.jpg"}, {"credit_id": "52fe4babc3a36847f820ec1f", "department": "Writing", "gender": 1, "id": 149495, "job": "Writer", "name": "Marti Noxon", "profile_path": "/8Wv7blpdGnbS9ZTzyD47nS4PJoM.jpg"}, {"credit_id": "52fe4babc3a36847f820ec25", "department": "Writing", "gender": 0, "id": 1169673, "job": "Writer", "name": "Roger Mills", "profile_path": null}, {"credit_id": "570e3a98c3a36845370001a5", "department": "Directing", "gender": 0, "id": 1360762, "job": "Script Supervisor", "name": "Richard Bernagozzi", "profile_path": null}, {"credit_id": "570e3a5ac3a368455f0001f6", "department": "Costume & Make-Up", "gender": 0, "id": 1442553, "job": "Costume Design", "name": "Kelly Zitrick", "profile_path": null}, {"credit_id": "570e391fc3a36845000001d8", "department": "Art", "gender": 0, "id": 1457702, "job": "Production Design", "name": "Amy Danger", "profile_path": null}, {"credit_id": "570e3a8a92514116010001b2", "department": "Production", "gender": 1, "id": 1515865, "job": "Unit Production Manager", "name": "Jamie Beardsley", "profile_path": null}, {"credit_id": "570e3a67c3a368455f0001f9", "department": "Production", "gender": 1, "id": 1515865, "job": "Co-Producer", "name": "Jamie Beardsley", "profile_path": null}, {"credit_id": "570e3971c3a3680a2c00216b", "department": "Production", "gender": 0, "id": 1605147, "job": "Producer", "name": "Deborah Capogrosso", "profile_path": null}, {"credit_id": "570e3a4b92514124e60020b9", "department": "Art", "gender": 0, "id": 1605148, "job": "Set Decoration", "name": "Dianne Kalemkaris", "profile_path": null}, {"credit_id": "570e3ab292514116180001c5", "department": "Camera", "gender": 0, "id": 1605149, "job": "Still Photographer", "name": "Janice Belson", "profile_path": null}]}}