{"adult": false, "backdrop_path": "/xOZtXdZ0Xs812vZTDSP4XsRlj3W.jpg", "belongs_to_collection": null, "budget": 0, "genres": [{"id": 18, "name": "Drama"}, {"id": 10749, "name": "Romance"}], "homepage": null, "id": 117202, "imdb_id": "tt0105306", "original_language": "en", "original_title": "Salt on Our Skin", "overview": "A Scottish woman who attends school in Paris comes home for the summer and helps take in the straw, where she meets an attractive and simple man. They begin a torrid affair despite the differences in their lifestyles. He asks her to marry him but she refuses, and they continue their separate lives but also continue their affair through the years, loving each other despite their differences.", "popularity": 3.836, "poster_path": "/84j1jVf7IbN4p0F5pRET9etFALW.jpg", "production_companies": [{"id": 47, "logo_path": "/i7Z9ot2o3N5Sa3HrF09kniFs2y8.png", "name": "Constantin Film", "origin_country": "DE"}], "production_countries": [{"iso_3166_1": "CA", "name": "Canada"}, {"iso_3166_1": "FR", "name": "France"}, {"iso_3166_1": "DE", "name": "Germany"}], "release_date": "1992-09-17", "revenue": 0, "runtime": 111, "spoken_languages": [{"iso_639_1": "en", "name": "English"}, {"iso_639_1": "fr", "name": "Fran\u00e7ais"}], "status": "Released", "tagline": "", "title": "Salt on Our Skin", "video": false, "vote_average": 5.2, "vote_count": 7, "keywords": {"keywords": [{"id": 13088, "name": "summer"}, {"id": 15319, "name": "attraction"}, {"id": 229299, "name": "affair"}]}, "similar": {"page": 1, "results": [{"id": 129139, "video": false, "vote_count": 623, "vote_average": 5.6, "title": "The To Do List", "release_date": "2013-07-24", "original_language": "en", "original_title": "The To Do List", "genre_ids": [35, 10749], "backdrop_path": "/mrxhYT4o5i0aSNIRPUEl19GqLjW.jpg", "adult": false, "overview": "Feeling pressured to become more sexually experienced before she goes to college, Brandy Klark makes a list of things to accomplish before hitting campus in the fall.", "poster_path": "/kcFuRIq7vVNkjcPcvNcdsT2Bgf9.jpg", "popularity": 10.443}, {"adult": false, "backdrop_path": "/iGDiVgC05xjlOXuTkEOEJqG6gAx.jpg", "genre_ids": [35, 18], "id": 147773, "original_language": "en", "original_title": "The Way Way Back", "overview": "Over the course of his summer break, a teenager comes into his own thanks in part to the friendship he strikes up with one of the park's managers.", "poster_path": "/cCA0ZPetEWYn7dbe6MHDwjue4UZ.jpg", "release_date": "2013-06-06", "title": "The Way Way Back", "video": false, "vote_average": 7.1, "vote_count": 1114, "popularity": 13.28}, {"id": 14, "video": false, "vote_count": 7295, "vote_average": 8.0, "title": "American Beauty", "release_date": "1999-09-15", "original_language": "en", "original_title": "American Beauty", "genre_ids": [18], "backdrop_path": "/z5J18ByLeOZ68iORfMXmxeFuwyL.jpg", "adult": false, "overview": "Lester Burnham, a depressed suburban father in a mid-life crisis, decides to turn his hectic life around after developing an infatuation with his daughter's attractive friend.", "poster_path": "/or1MP8BZIAjqWYxPdPX724ydKar.jpg", "popularity": 28.789}, {"id": 2770, "video": false, "vote_count": 2941, "vote_average": 6.1, "title": "American Pie 2", "release_date": "2001-08-10", "original_language": "en", "original_title": "American Pie 2", "genre_ids": [35, 10749], "backdrop_path": "/1C1d3Tpesm8Vn3BRqsQZt0LfZcG.jpg", "adult": false, "overview": "The whole gang are back and as close as ever. They decide to get even closer by spending the summer together at a beach house. They decide to hold the biggest party ever to be seen, even if the preparation doesn't always go to plan. Especially when Stifler, Finch and Jim become more close to each other than they ever want to be and when Jim mistakes super glue for lubricant...", "poster_path": "/q4LNgUnRfltxzp3gf1MAGiK5LhV.jpg", "popularity": 20.359}, {"id": 19913, "video": false, "vote_count": 6208, "vote_average": 7.2, "title": "(500) Days of Summer", "release_date": "2009-07-17", "original_language": "en", "original_title": "(500) Days of Summer", "genre_ids": [35, 18, 10749], "backdrop_path": "/yYw9cVdRJ4zzwxM2cTDXfT6JI6E.jpg", "adult": false, "overview": "Tom, greeting-card writer and hopeless romantic, is caught completely off-guard when his girlfriend, Summer, suddenly dumps him. He reflects on their 500 days together to try to figure out where their love affair went sour, and in doing so, Tom rediscovers his true passions in life.", "poster_path": "/5SjtNPD1bb182vzQccvEUpXHFjN.jpg", "popularity": 20.487}, {"id": 374720, "video": false, "vote_count": 10120, "vote_average": 7.4, "title": "Dunkirk", "release_date": "2017-07-19", "original_language": "en", "original_title": "Dunkirk", "genre_ids": [28, 18, 10752], "backdrop_path": "/fudEG1VUWuOqleXv6NwCExK0VLy.jpg", "adult": false, "overview": "The story of the miraculous evacuation of Allied soldiers from Belgium, Britain, Canada and France, who were cut off and surrounded by the German army from the beaches and harbour of Dunkirk between May 26th and June 4th 1940 during World War II.", "poster_path": "/bOXBV303Fgkzn2K4FeKDc0O31q4.jpg", "popularity": 28.538}, {"adult": false, "backdrop_path": "/8ndqvvwDVe9oDUQF1Jt6NCjAn7z.jpg", "genre_ids": [10749, 18], "id": 398818, "original_language": "en", "original_title": "Call Me by Your Name", "overview": "In 1980s Italy, a relationship begins between seventeen-year-old teenage Elio and the older adult man hired as his father's research assistant.", "poster_path": "/tcNniniS4rfqrLH0oORikJfnIwY.jpg", "release_date": "2017-09-01", "title": "Call Me by Your Name", "video": false, "vote_average": 8.3, "vote_count": 5876, "popularity": 26.075}, {"adult": false, "backdrop_path": "/3JwMtXzTndAQDkRtg43bG6EEkf4.jpg", "genre_ids": [18, 10749], "id": 23830, "original_language": "en", "original_title": "Last Night", "overview": "The story follows a married couple, apart for a night while the husband takes a business trip with a colleague to whom he's attracted. While he's resisting temptation, his wife encounters her past love.", "poster_path": "/dspTY7C3IHXsMm5dZVQqqgfPHbN.jpg", "release_date": "2010-05-11", "title": "Last Night", "video": false, "vote_average": 6.2, "vote_count": 498, "popularity": 14.629}, {"id": 1391, "video": false, "vote_count": 688, "vote_average": 7.4, "title": "Y Tu Mam\u00e1 Tambi\u00e9n", "release_date": "2001-06-08", "original_language": "es", "original_title": "Y tu mam\u00e1 tambi\u00e9n", "genre_ids": [18, 10749], "backdrop_path": "/5jXzf6VCxmRAbQYYOuoPgGZRbRp.jpg", "adult": false, "overview": "In Mexico, two teenage boys and an attractive older woman embark on a road trip and learn a thing or two about life, friendship, sex, and each other.", "poster_path": "/4n6lnr7q3Ysz4rKz3raxkltbHgr.jpg", "popularity": 16.073}, {"id": 1907, "video": false, "vote_count": 2626, "vote_average": 6.4, "title": "The Beach", "release_date": "2000-02-03", "original_language": "en", "original_title": "The Beach", "genre_ids": [12, 18, 53, 10749], "backdrop_path": "/uqseIBb0MH9dXic9RGmGaLvf56q.jpg", "adult": false, "overview": "Twenty-something Richard travels to Thailand and finds himself in possession of a strange map. Rumours state that it leads to a solitary beach paradise, a tropical bliss - excited and intrigued, he sets out to find it.", "poster_path": "/4VgPflOJMxlqOYpAqXCm5J6BkYm.jpg", "popularity": 17.559}, {"id": 122906, "video": false, "vote_count": 4560, "vote_average": 7.9, "title": "About Time", "release_date": "2013-08-16", "original_language": "en", "original_title": "About Time", "genre_ids": [35, 18, 14, 10749], "backdrop_path": "/oNBv90rLY76ifEExrFHdJgLzBQG.jpg", "adult": false, "overview": "The night after another unsatisfactory New Year party, Tim's father tells his son that the men in his family have always had the ability to travel through time. Tim can't change history, but he can change what happens and has happened in his own life \u2013 so he decides to make his world a better place... by getting a girlfriend. Sadly, that turns out not to be as easy as he thinks.", "poster_path": "/zSuh8dGwqpsWR7ccvYbfxbSZ37o.jpg", "popularity": 20.125}, {"id": 50546, "video": false, "vote_count": 3335, "vote_average": 6.5, "title": "Just Go with It", "release_date": "2011-02-10", "original_language": "en", "original_title": "Just Go with It", "genre_ids": [35, 10749], "backdrop_path": "/7pa08RTp610h72pZnqqgkmsB76l.jpg", "adult": false, "overview": "A plastic surgeon, romancing a much younger schoolteacher, enlists his loyal assistant to pretend to be his soon to be ex-wife, in order to cover up a careless lie. When more lies backfire, the assistant's kids become involved, and everyone heads off for a weekend in Hawaii that will change all their lives.", "poster_path": "/4sJDqzBaqBprkEy0aLjIGl7TrHx.jpg", "popularity": 19.428}, {"id": 13649, "video": false, "vote_count": 2496, "vote_average": 6.5, "title": "High School Musical 2", "release_date": "2007-08-17", "original_language": "en", "original_title": "High School Musical 2", "genre_ids": [35, 18, 10402, 10751], "backdrop_path": "/lVHeZR8xRNgxr4WVaBFpxLULbvp.jpg", "adult": false, "overview": "The East High Wildcats are ready to have the time of their lives. Troy is thrilled when he's offered a job in a country club, but it's all part of Sharpay's plot to lure him away from Gabriella. How will it all turn out? All questions are answered on the night of the club's Talent Show.", "poster_path": "/oZ0u3CLAdSzJWAVXsHhGqzmCiNG.jpg", "popularity": 11.731}, {"id": 4347, "video": false, "vote_count": 2233, "vote_average": 7.6, "title": "Atonement", "release_date": "2007-08-29", "original_language": "en", "original_title": "Atonement", "genre_ids": [18, 10749], "backdrop_path": "/6WZFwJOKyitCqWkIj52HB34wddU.jpg", "adult": false, "overview": "As a 13-year-old, fledgling writer Briony Tallis irrevocably changes the course of several lives when she accuses her older sister's lover of a crime he did not commit.", "poster_path": "/quaWuwYZd8IbZMCOhW3CZEvyCWJ.jpg", "popularity": 16.832}, {"id": 311667, "video": false, "vote_count": 222, "vote_average": 6.1, "title": "Manhattan Night", "release_date": "2016-05-20", "original_language": "en", "original_title": "Manhattan Night", "genre_ids": [18, 9648, 53], "backdrop_path": "/7lsJgVw4mGHU69ZEQlAFiL1Qee0.jpg", "adult": false, "overview": "Porter Wren is a Manhattan tabloid writer with an appetite for scandal. On the beat he sells murder, tragedy, and anything that passes for the truth. At home, he is a dedicated husband and father. But when Caroline, a seductive stranger asks him to dig into the unsolved murder of her filmmaker husband Simon, he is drawn into a very nasty case of sexual obsession and blackmail--one that threatens his job, his marriage, and his life.", "poster_path": "/s8VsHs12GKX8uKdjtuoUakYAEbQ.jpg", "popularity": 10.604}, {"adult": false, "backdrop_path": "/4L1MSZo8dQ20x4AhBDKfDs1cOjs.jpg", "genre_ids": [27, 53], "id": 9728, "original_language": "en", "original_title": "Friday the 13th Part III", "overview": "An idyllic summer turns into a nightmare of unspeakable terror for yet another group of naive counselors. Ignoring Camp Crystal Lake's bloody legacy, one by one they fall victim to the maniacal Jason who stalks them at every turn.", "poster_path": "/5wg2NZyIhcMbIBAahBODXHyJ54S.jpg", "release_date": "1982-08-13", "title": "Friday the 13th Part III", "video": false, "vote_average": 5.8, "vote_count": 634, "popularity": 15.501}, {"id": 345940, "video": false, "vote_count": 3496, "vote_average": 5.9, "title": "The Meg", "release_date": "2018-08-09", "original_language": "en", "original_title": "The Meg", "genre_ids": [28, 27, 878], "backdrop_path": "/rH79sB6Nkx4cMW3JzsUy7wK0rhX.jpg", "adult": false, "overview": "A deep sea submersible pilot revisits his past fears in the Mariana Trench, and accidentally unleashes the seventy foot ancestor of the Great White Shark believed to be extinct.", "poster_path": "/xqECHNvzbDL5I3iiOVUkVPJMSbc.jpg", "popularity": 35.678}, {"adult": false, "backdrop_path": "/qr7R4pagFUcmz9ny6Gai9gjlSnn.jpg", "genre_ids": [27], "id": 4488, "original_language": "en", "original_title": "Friday the 13th", "overview": "Camp counselors are stalked and murdered by an unknown assailant while trying to reopen a summer camp that was the site of a child's drowning.", "poster_path": "/mGJlh8oMyTDhfudvs20kFpYz0Yc.jpg", "release_date": "1980-05-09", "title": "Friday the 13th", "video": false, "vote_average": 6.3, "vote_count": 1441, "popularity": 17.092}, {"id": 346364, "video": false, "vote_count": 12548, "vote_average": 7.2, "title": "It", "release_date": "2017-09-06", "original_language": "en", "original_title": "It", "genre_ids": [27], "backdrop_path": "/tcheoA2nPATCm2vvXw2hVQoaEFD.jpg", "adult": false, "overview": "In a small town in Maine, seven children known as The Losers Club come face to face with life problems, bullies and a monster that takes the shape of a clown called Pennywise.", "poster_path": "/9E2y5Q7WlCVNEhP5GiVTjhEhx1o.jpg", "popularity": 27.289}, {"id": 339846, "video": false, "vote_count": 5306, "vote_average": 6.1, "title": "Baywatch", "release_date": "2017-05-12", "original_language": "en", "original_title": "Baywatch", "genre_ids": [28, 35], "backdrop_path": "/6QmX2BDVr1hIOIPHqnxvp1C1ZZp.jpg", "adult": false, "overview": "Devoted lifeguard Mitch Buchannon butts heads with a brash new recruit. Together, they uncover a local criminal plot that threatens the future of the Bay.", "poster_path": "/6HE4xd8zloDqmjMZuhUCCw2UcY1.jpg", "popularity": 39.869}], "total_pages": 35, "total_results": 695}, "recommendations": {"page": 1, "results": [], "total_pages": 1, "total_results": 0}, "credits": {"cast": [{"cast_id": 2, "character": "George", "credit_id": "52fe4bacc3a36847f820edbb", "gender": 1, "id": 21245, "name": "Greta Scacchi", "order": 0, "profile_path": "/uHPHNwBnhBIs1z2sJcKQODtaY2n.jpg"}, {"cast_id": 1, "character": "Gavin", "credit_id": "52fe4bacc3a36847f820edb7", "gender": 2, "id": 7132, "name": "Vincent D'Onofrio", "order": 1, "profile_path": "/7pWCMLyOmmYNsifQ7IDOfTA6V6Y.jpg"}, {"cast_id": 8, "character": "Fr\u00e9d\u00e9rique", "credit_id": "52fe4bacc3a36847f820edd5", "gender": 0, "id": 92022, "name": "Ana\u00efs Jeanneret", "order": 2, "profile_path": "/d6p3noQKCQrCJWOFBQbe2hR56Jj.jpg"}, {"cast_id": 7, "character": "Sidney", "credit_id": "52fe4bacc3a36847f820edd1", "gender": 2, "id": 169, "name": "Hanns Zischler", "order": 3, "profile_path": "/zlVtIH2P4cZLyftZZcfFo037N3t.jpg"}, {"cast_id": 12, "character": "Ellen", "credit_id": "591692e4c3a36842d602af40", "gender": 1, "id": 198705, "name": "Barbara Jones", "order": 4, "profile_path": null}, {"cast_id": 10, "character": "Georges Vater", "credit_id": "53fa4be5c3a368735e00369d", "gender": 2, "id": 1258565, "name": "Rolf Illig", "order": 5, "profile_path": null}, {"cast_id": 11, "character": "Jodie", "credit_id": "53fa4bf3c3a36873550035ce", "gender": 1, "id": 49270, "name": "Petra Berndt", "order": 6, "profile_path": "/wzHb7CiZ4NfqhGIZEF8pqItqdqv.jpg"}, {"cast_id": 13, "character": "Angus", "credit_id": "591692f4925141061e0225d4", "gender": 0, "id": 13366, "name": "L\u00e1szl\u00f3 I. Kish", "order": 7, "profile_path": "/y6sLAsqRTwLkVgaAfdwLfxqFfcx.jpg"}, {"cast_id": 14, "character": "Mary", "credit_id": "591692fec3a368423c02a598", "gender": 1, "id": 1834, "name": "Shirley Henderson", "order": 8, "profile_path": "/dxVvLjGNKVMl5lDXXInJ7xWpCvl.jpg"}], "crew": [{"credit_id": "52fe4bacc3a36847f820edc1", "department": "Directing", "gender": 2, "id": 2355, "job": "Director", "name": "Andrew Birkin", "profile_path": null}, {"credit_id": "52fe4bacc3a36847f820edc7", "department": "Writing", "gender": 2, "id": 2355, "job": "Writer", "name": "Andrew Birkin", "profile_path": null}, {"credit_id": "52fe4bacc3a36847f820edcd", "department": "Writing", "gender": 0, "id": 1082913, "job": "Writer", "name": "Bee Gilbert", "profile_path": null}, {"credit_id": "52fe4bacc3a36847f820eddb", "department": "Writing", "gender": 0, "id": 1082914, "job": "Novel", "name": "Beno\u00eete Groult", "profile_path": null}]}}