{"adult": false, "backdrop_path": null, "belongs_to_collection": null, "budget": 0, "genres": [{"id": 18, "name": "Drama"}, {"id": 10752, "name": "War"}], "homepage": null, "id": 117899, "imdb_id": "tt0054120", "original_language": "en", "original_title": "A Terrible Beauty", "overview": "In 1941, the IRA plans a campaign to coincide with the planned German invasion of England. Dermott O'Neil (Robert Mitchum) finds it easy to get into the IRA, but can he get out?", "popularity": 1.767, "poster_path": "/6eI1XSZ668UuWzoXETd6vAWlHli.jpg", "production_companies": [{"id": 13665, "logo_path": null, "name": "Raymond Stross Productions", "origin_country": ""}, {"id": 2117, "logo_path": null, "name": "D.R.M. Productions", "origin_country": ""}], "production_countries": [{"iso_3166_1": "GB", "name": "United Kingdom"}, {"iso_3166_1": "US", "name": "United States of America"}], "release_date": "1960-06-17", "revenue": 0, "runtime": 90, "spoken_languages": [{"iso_639_1": "en", "name": "English"}], "status": "Released", "tagline": "", "title": "A Terrible Beauty", "video": false, "vote_average": 5.0, "vote_count": 1, "keywords": {"keywords": [{"id": 11031, "name": "guerrilla warfare"}, {"id": 11134, "name": "espionage"}, {"id": 154787, "name": "irish rebellion"}]}, "similar": {"page": 1, "results": [{"id": 49040, "video": false, "vote_count": 3879, "vote_average": 6.1, "title": "The Bourne Legacy", "release_date": "2012-08-08", "original_language": "en", "original_title": "The Bourne Legacy", "genre_ids": [28, 53], "backdrop_path": "/gCdJYpX1TXGEZrEJl0mMTTpinMh.jpg", "adult": false, "overview": "New CIA operative Aaron Cross experiences life-or-death stakes that have been triggered by the previous actions of Jason Bourne.", "poster_path": "/qIJonjlSzU6LCJklS6CH3p5vLcQ.jpg", "popularity": 25.918}, {"adult": false, "backdrop_path": "/k7AHR0cIC2tfcdyhFWe1RbYPxbm.jpg", "genre_ids": [80, 18], "id": 607231, "original_language": "en", "original_title": "ECCO", "overview": "A former covert assassin seeks redemption by hunting the people responsible for his sinful past.", "poster_path": "/AeF8VKXc0DXXHNxno2s4qJSGIP0.jpg", "release_date": "2019-08-09", "title": "ECCO", "video": false, "vote_average": 0.0, "vote_count": 0, "popularity": 6.078}, {"adult": false, "backdrop_path": "/bqpGceqQuHbtnjEqUG9acSYIVIh.jpg", "genre_ids": [18, 53, 9648], "id": 49517, "original_language": "en", "original_title": "Tinker Tailor Soldier Spy", "overview": "In the bleak days of the Cold War, espionage veteran George Smiley is forced from semi-retirement to uncover a Soviet mole within his former colleagues at the heart of MI6.", "poster_path": "/2N3P730TYXEcNL0BO8WBuMc6yJz.jpg", "release_date": "2011-09-16", "title": "Tinker Tailor Soldier Spy", "video": false, "vote_average": 6.7, "vote_count": 1545, "popularity": 17.584}, {"id": 2503, "video": false, "vote_count": 4834, "vote_average": 7.4, "title": "The Bourne Ultimatum", "release_date": "2007-08-03", "original_language": "en", "original_title": "The Bourne Ultimatum", "genre_ids": [28, 18, 9648, 53], "backdrop_path": "/6WpDOqkZFmhNJ0rwuLJiZVKlZi1.jpg", "adult": false, "overview": "Bourne is brought out of hiding once again by reporter Simon Ross who is trying to unveil Operation Blackbriar, an upgrade to Project Treadstone, in a series of newspaper columns. Information from the reporter stirs a new set of memories, and Bourne must finally uncover his dark past while dodging The Company's best efforts to eradicate him.", "poster_path": "/fHho6JYYY0nRcETWSoeI19iZsNF.jpg", "popularity": 17.539}, {"adult": false, "backdrop_path": "/e1svWjxTXMOmdgkVLSPHSfWv90R.jpg", "genre_ids": [28, 18, 53], "id": 2502, "original_language": "en", "original_title": "The Bourne Supremacy", "overview": "When a CIA operation to purchase classified Russian documents is blown by a rival agent, who then shows up in the sleepy seaside village where Bourne and Marie have been living. The pair run for their lives and Bourne, who promised retaliation should anyone from his former life attempt contact, is forced to once again take up his life as a trained assassin to survive.", "poster_path": "/jXwZgmqOtsqsXuB9oGhocOAegCM.jpg", "release_date": "2004-07-23", "title": "The Bourne Supremacy", "video": false, "vote_average": 7.3, "vote_count": 4749, "popularity": 18.41}, {"id": 213, "video": false, "vote_count": 2125, "vote_average": 8.0, "title": "North by Northwest", "release_date": "1959-07-07", "original_language": "en", "original_title": "North by Northwest", "genre_ids": [9648, 53], "backdrop_path": "/AplR1QRswlXiM65GoifX8sDadME.jpg", "adult": false, "overview": "Advertising man Roger Thornhill is mistaken for a spy, triggering a deadly cross-country chase.", "poster_path": "/aNV789h3oHm2pTHK5Bdq5RuiumZ.jpg", "popularity": 17.976}, {"id": 36669, "video": false, "vote_count": 2043, "vote_average": 5.9, "title": "Die Another Day", "release_date": "2002-11-17", "original_language": "en", "original_title": "Die Another Day", "genre_ids": [28, 12, 53], "backdrop_path": "/3YQfmtpbiFCMHcXY3lJ7fGEcOL6.jpg", "adult": false, "overview": "Bond takes on a North Korean leader who undergoes DNA replacement procedures that allow him to assume different identities. American agent, Jinx Johnson assists Bond in his attempt to thwart the villain's plans to exploit a satellite that is powered by solar energy.", "poster_path": "/1iUZqUXS7x5FcGM5J0u01xuObWC.jpg", "popularity": 26.996}, {"adult": false, "backdrop_path": "/tjQHn6xW5BiB1RJ3OZIPDzIOSkF.jpg", "genre_ids": [12, 28, 53], "id": 954, "original_language": "en", "original_title": "Mission: Impossible", "overview": "When Ethan Hunt, the leader of a crack espionage team whose perilous operation has gone awry with no explanation, discovers that a mole has penetrated the CIA, he's surprised to learn that he's the No. 1 suspect. To clear his name, Hunt now must ferret out the real double agent and, in the process, even the score.", "poster_path": "/1PVKS17pIBFsIhgFws2uagPDNLW.jpg", "release_date": "1996-05-22", "title": "Mission: Impossible", "video": false, "vote_average": 6.9, "vote_count": 5214, "popularity": 29.575}, {"adult": false, "backdrop_path": "/zaGmoSackrRF7w6NieQ0FWY0M7k.jpg", "genre_ids": [28, 35, 9648], "id": 302699, "original_language": "en", "original_title": "Central Intelligence", "overview": "After he reunites with an old pal through Facebook, a mild-mannered accountant is lured into the world of international espionage.", "poster_path": "/9M5ibpQUjoVFjjnP2AdLcof4hAk.jpg", "release_date": "2016-06-15", "title": "Central Intelligence", "video": false, "vote_average": 6.3, "vote_count": 3486, "popularity": 14.895}, {"adult": false, "backdrop_path": "/vHLsgsvLtFWDlhBigKDRsYIC1p6.jpg", "genre_ids": [28, 9648, 53], "id": 27576, "original_language": "en", "original_title": "Salt", "overview": "As a CIA officer, Evelyn Salt swore an oath to duty, honor and country. Her loyalty will be tested when a defector accuses her of being a Russian spy. Salt goes on the run, using all her skills and years of experience as a covert operative to elude capture. Salt's efforts to prove her innocence only serve to cast doubt on her motives, as the hunt to uncover the truth behind her identity continues and the question remains: \"Who is Salt?\"", "poster_path": "/956xMjH4sPoqimqoLOP6AI19mjm.jpg", "release_date": "2010-07-21", "title": "Salt", "video": false, "vote_average": 6.3, "vote_count": 3528, "popularity": 22.892}, {"id": 369885, "video": false, "vote_count": 3048, "vote_average": 6.7, "title": "Allied", "release_date": "2016-11-17", "original_language": "en", "original_title": "Allied", "genre_ids": [28, 18, 53, 10749, 10752], "backdrop_path": "/tC0tVH5KQhCwMlddnyA3iWOSuBA.jpg", "adult": false, "overview": "In 1942, an intelligence officer in North Africa encounters a female French Resistance fighter on a deadly mission behind enemy lines. When they reunite in London, their relationship is tested by the pressures of war.", "poster_path": "/nzXzLFTnd0Zb3ExfhOxlQgizgSu.jpg", "popularity": 32.359}, {"adult": false, "backdrop_path": "/3amJMLyjx0rDbwhnKNG8d6gzDSV.jpg", "genre_ids": [53, 18], "id": 296098, "original_language": "en", "original_title": "Bridge of Spies", "overview": "During the Cold War, the Soviet Union captures U.S. pilot Francis Gary Powers after shooting down his U-2 spy plane. Sentenced to 10 years in prison, Powers' only hope is New York lawyer James Donovan, recruited by a CIA operative to negotiate his release. Donovan boards a plane to Berlin, hoping to win the young man's freedom through a prisoner exchange. If all goes well, the Russians would get Rudolf Abel, the convicted spy who Donovan defended in court.", "poster_path": "/xPCNA8zJxyyFKTj47QpvkXHukzB.jpg", "release_date": "2015-10-15", "title": "Bridge of Spies", "video": false, "vote_average": 7.2, "vote_count": 4664, "popularity": 19.268}, {"id": 2501, "video": false, "vote_count": 5865, "vote_average": 7.4, "title": "The Bourne Identity", "release_date": "2002-06-14", "original_language": "en", "original_title": "The Bourne Identity", "genre_ids": [28, 18, 9648, 53], "backdrop_path": "/2Fr1vqBiDn8xRJM9elcplzHctTN.jpg", "adult": false, "overview": "Wounded to the brink of death and suffering from amnesia, Jason Bourne is rescued at sea by a fisherman. With nothing to go on but a Swiss bank account number, he starts to reconstruct his life, but finds that many people he encounters want him dead. However, Bourne realizes that he has the combat and mental skills of a world-class spy\u2014but who does he work for?", "poster_path": "/bXQIL36VQdzJ69lcjQR1WQzJqQR.jpg", "popularity": 25.563}, {"id": 12113, "video": false, "vote_count": 1672, "vote_average": 6.6, "title": "Body of Lies", "release_date": "2008-10-10", "original_language": "en", "original_title": "Body of Lies", "genre_ids": [28, 18, 53], "backdrop_path": "/8NKlqvUJ5IHk58KhM3Vwqp588jU.jpg", "adult": false, "overview": "The CIA\u2019s hunt is on for the mastermind of a wave of terrorist attacks. Roger Ferris is the agency\u2019s man on the ground, moving from place to place, scrambling to stay ahead of ever-shifting events. An eye in the sky \u2013 a satellite link \u2013 watches Ferris.  At the other end of that real-time link is the CIA\u2019s Ed Hoffman, strategizing events from thousands of miles away. And as Ferris nears the target, he discovers trust can be just as dangerous as it is necessary for survival.", "poster_path": "/ngQAEKZVpT0SD9i98ApEgsQKC52.jpg", "popularity": 18.711}, {"id": 289, "video": false, "vote_count": 2863, "vote_average": 8.1, "title": "Casablanca", "release_date": "1942-01-23", "original_language": "en", "original_title": "Casablanca", "genre_ids": [18, 10749], "backdrop_path": "/5tE7iKSpBrc4z6LqF5kHutMm6KQ.jpg", "adult": false, "overview": "In Casablanca, Morocco in December 1941, a cynical American expatriate meets a former lover, with unforeseen complications.", "poster_path": "/wOBKAoUJZb5qTsWv5XXvVV2vUzz.jpg", "popularity": 20.435}, {"id": 60747, "video": false, "vote_count": 919, "vote_average": 5.4, "title": "Red Dawn", "release_date": "2012-11-21", "original_language": "en", "original_title": "Red Dawn", "genre_ids": [28, 878, 53, 10752], "backdrop_path": "/1XGdQbJbv6EDLa3MP4qGhcg9S8a.jpg", "adult": false, "overview": "A city in Washington state awakens to the surreal sight of foreign paratroopers dropping from the sky\u2014shockingly, the U.S. has been invaded and their hometown is the initial target. Quickly and without warning, the citizens find themselves prisoners and their town under enemy occupation. Determined to fight back, a group of young patriots seek refuge in the surrounding woods, training and reorganizing themselves into a guerrilla group of fighters.", "poster_path": "/tNkIfqiuWFYCUIiyVblar8rB1GV.jpg", "popularity": 16.973}, {"id": 9008, "video": false, "vote_count": 950, "vote_average": 7.4, "title": "The Insider", "release_date": "1999-10-28", "original_language": "en", "original_title": "The Insider", "genre_ids": [18, 53], "backdrop_path": "/7oq51chQ7MW7RVKqhL4ivxhrwGf.jpg", "adult": false, "overview": "Tells the true story of a 60 Minutes television series expos\u00e9 of the tobacco industry, as seen through the eyes of a real tobacco executive, Jeffrey Wigand.", "poster_path": "/sYQsmMl4oG56NtFaNkDxuJhhODa.jpg", "popularity": 12.176}, {"id": 2320, "video": false, "vote_count": 457, "vote_average": 6.2, "title": "Executive Decision", "release_date": "1996-03-15", "original_language": "en", "original_title": "Executive Decision", "genre_ids": [28, 12, 18, 53], "backdrop_path": "/bjVntRO9QkAwm1HzTfH1nn1nOpn.jpg", "adult": false, "overview": "Terrorists hijack a 747 inbound to Washington D.C., demanding the the release of their imprisoned leader. Intelligence expert David Grant (Kurt Russell) suspects another reason and he is soon the reluctant member of a special assault team that is assigned to intercept the plane and hijackers.", "poster_path": "/wmgkFuEr8bHRAgs1HS5U46Rzo0I.jpg", "popularity": 14.601}, {"id": 324668, "video": false, "vote_count": 3841, "vote_average": 6.2, "title": "Jason Bourne", "release_date": "2016-07-27", "original_language": "en", "original_title": "Jason Bourne", "genre_ids": [28, 53], "backdrop_path": "/dtFiuavnsnl0krJAeSmGAOFAhw2.jpg", "adult": false, "overview": "The most dangerous former operative of the CIA is drawn out of hiding to uncover hidden truths about his past.", "poster_path": "/lFSSLTlFozwpaGlO31OoUeirBgQ.jpg", "popularity": 21.184}, {"id": 106, "video": false, "vote_count": 4127, "vote_average": 7.4, "title": "Predator", "release_date": "1987-06-12", "original_language": "en", "original_title": "Predator", "genre_ids": [28, 12, 878, 53], "backdrop_path": "/vvsQe0ksUH001rxFGrnZkL9eBzr.jpg", "adult": false, "overview": "Dutch and his group of commandos are hired by the CIA to rescue downed airmen from guerillas in a Central American jungle. The mission goes well but as they return they find that something is hunting them. Nearly invisible, it blends in with the forest, taking trophies from the bodies of its victims as it goes along. Occasionally seeing through its eyes, the audience sees it is an intelligent alien hunter, hunting them for sport, killing them off one at a time.", "poster_path": "/gUpto7r2XwoM5eW7MUvd8hl1etB.jpg", "popularity": 28.429}], "total_pages": 34, "total_results": 664}, "recommendations": {"page": 1, "results": [], "total_pages": 1, "total_results": 0}, "credits": {"cast": [{"cast_id": 2, "character": "Dermot O'Neill", "credit_id": "52fe4bc3c3a36847f8212ce5", "gender": 2, "id": 10158, "name": "Robert Mitchum", "order": 0, "profile_path": "/q8imDThRFNQnfyRxadlBrKzGp4u.jpg"}, {"cast_id": 3, "character": "Sean Reilly", "credit_id": "52fe4bc3c3a36847f8212ce9", "gender": 2, "id": 194, "name": "Richard Harris", "order": 1, "profile_path": "/51wDHVFNqrYgvUBMOcACAt4sJU9.jpg"}, {"cast_id": 4, "character": "Neeve Donnelly", "credit_id": "52fe4bc3c3a36847f8212ced", "gender": 1, "id": 32913, "name": "Anne Heywood", "order": 2, "profile_path": "/GJhk8UeX477BDhscOh70A7PDdY.jpg"}, {"cast_id": 5, "character": "Don McGinnis", "credit_id": "52fe4bc3c3a36847f8212cf1", "gender": 2, "id": 6836, "name": "Dan O'Herlihy", "order": 3, "profile_path": "/e84845dAoAbBYEggRd08vMrFipO.jpg"}, {"cast_id": 6, "character": "Ned O'Neill", "credit_id": "58cc637c925141744f002368", "gender": 2, "id": 93163, "name": "Niall MacGinnis", "order": 4, "profile_path": "/zjkPWbcoJibyn5Rwknm0XRuJYeY.jpg"}, {"cast_id": 7, "character": "Bella O'Neill", "credit_id": "58cc63b3c3a36852120025f5", "gender": 1, "id": 985248, "name": "Marianne Benet", "order": 5, "profile_path": null}, {"cast_id": 8, "character": "Tim Malone", "credit_id": "58cc63ebc3a36851900024e1", "gender": 2, "id": 81010, "name": "Christopher Rhodes", "order": 6, "profile_path": "/iCpAEyRxoiJ0iuiTC7nXCcfuqgS.jpg"}], "crew": [{"credit_id": "52fe4bc3c3a36847f8212ce1", "department": "Directing", "gender": 2, "id": 74878, "job": "Director", "name": "Tay Garnett", "profile_path": "/rJ8BLFlddNDRIgIPcvxTaTuOitu.jpg"}, {"credit_id": "58cc649cc3a36851e80024be", "department": "Writing", "gender": 0, "id": 111486, "job": "Writer", "name": "R. Wright Campbell ", "profile_path": null}, {"credit_id": "58cc64c692514174470027b5", "department": "Production", "gender": 2, "id": 757632, "job": "Producer", "name": "Raymond Stross", "profile_path": null}]}}