{"adult": false, "backdrop_path": "/ewofzFIurSZQWwXYvWXAggRJhvG.jpg", "belongs_to_collection": null, "budget": 0, "genres": [{"id": 18, "name": "Drama"}], "homepage": null, "id": 118121, "imdb_id": "tt0071260", "original_language": "en", "original_title": "Butley", "overview": "Butley is set in Queen Mary\u2019s College, London and focuses on two English instructors, Ben Butley, a middle-aged former T. S. Eliot expert whose life is now in a shambles, and his prot\u00e9g\u00e9, Joey, a homosexual. With both Joey and his wife leaving, Butley faces a life alone, fighting back with wit, obscenity and booze.", "popularity": 2.851, "poster_path": "/3jNbCTEnzs39tXP8dy55qOlOAAP.jpg", "production_companies": [], "production_countries": [{"iso_3166_1": "CA", "name": "Canada"}, {"iso_3166_1": "US", "name": "United States of America"}, {"iso_3166_1": "GB", "name": "United Kingdom"}], "release_date": "1974-01-21", "revenue": 0, "runtime": 127, "spoken_languages": [{"iso_639_1": "en", "name": "English"}], "status": "Released", "tagline": "His wife just left him for another man. And so did his boyfriend.", "title": "Butley", "video": false, "vote_average": 7.3, "vote_count": 3, "keywords": {"keywords": [{"id": 237, "name": "gay"}, {"id": 10181, "name": "based on play or musical"}, {"id": 158718, "name": "lgbt"}, {"id": 163110, "name": "theater"}]}, "similar": {"page": 1, "results": [{"id": 449176, "video": false, "vote_count": 3690, "vote_average": 8.1, "title": "Love, Simon", "release_date": "2018-02-16", "original_language": "en", "original_title": "Love, Simon", "genre_ids": [35, 18, 10749], "backdrop_path": "/rqMEeajyzSF4PpJtdCB816Iz8Vr.jpg", "adult": false, "overview": "Everyone deserves a great love story. But for seventeen-year old Simon Spier it's a little more complicated: he's yet to tell his family or friends he's gay and he doesn't know the identity of the anonymous classmate he's fallen for online.", "poster_path": "/5YUYg5q7QfC4IoNwNUtiwdiYKPr.jpg", "popularity": 24.849}, {"adult": false, "backdrop_path": "/6VhtzImP1UvYkIAHS4L8yfmceOM.jpg", "genre_ids": [18], "id": 26280, "original_language": "fr", "original_title": "J'ai tu\u00e9 ma m\u00e8re", "overview": "Hubert, a brash 17-year-old, is confused and torn by a love-hate relationship with his mother that consumes him more and more each day. After distressing ordeals and tragic episodes, Hubert will find his mother on the banks of Saint Lawrence river, where he grew up, and where a murder will be committed: the murder of childhood.", "poster_path": "/cxb02CLALt9He1Dt0BIDKj9fdvM.jpg", "release_date": "2009-06-05", "title": "I Killed My Mother", "video": false, "vote_average": 7.7, "vote_count": 655, "popularity": 9.653}, {"id": 21634, "video": false, "vote_count": 250, "vote_average": 7.9, "title": "Prayers for Bobby", "release_date": "2009-02-27", "original_language": "en", "original_title": "Prayers for Bobby", "genre_ids": [18, 36, 10770], "backdrop_path": "/pSjGsbqyKUzF8rHzL0vtVWV1pS6.jpg", "adult": false, "overview": "Bobby Griffith was his mother's favorite son, the perfect all-American boy growing up under deeply religious influences in Walnut Creek, California. Bobby was also gay. Struggling with a conflict no one knew of much less understood Bobby finally came out to his family.", "poster_path": "/d9TGJxEMkLTEF5lWAx1PLNDNpA0.jpg", "popularity": 11.874}, {"adult": false, "backdrop_path": "/qs4P8THxjbMZYc9QuZvzN95KzBM.jpg", "genre_ids": [18, 53, 9648], "id": 184352, "original_language": "fr", "original_title": "Tom \u00e0 la ferme", "overview": "A young man travels to an isolated farm for his lover's funeral where he's quickly drawn into a twisted, sexually charged game by his lover's aggressive brother.", "poster_path": "/wS4oYOHEKva9sMLOHSr7tW19SaQ.jpg", "release_date": "2013-09-02", "title": "Tom at the Farm", "video": false, "vote_average": 6.9, "vote_count": 408, "popularity": 7.517}, {"adult": false, "backdrop_path": "/qWZSYN2tBoZdUY9NDdvSKQ6OH4u.jpg", "genre_ids": [18], "id": 377154, "original_language": "fr", "original_title": "Quand on a 17 Ans", "overview": "Set in the beautiful high Pyrenees in south-west France, Damien lives with his mother Marianne, a doctor, while his father, a pilot, is on a tour of duty abroad with the French military. At school, Damien is bullied by Thomas,  who lives in the farming community up in the mountains, nut learns to fight back. The boys find themselves living together when Marianne invites Thomas to come and stay with them while his mother is ill in hospital. Damien must learn to live with the boy who terrorised him.", "poster_path": "/ogfzBX1iNzgaCBTmRRf6c69L19k.jpg", "release_date": "2016-02-27", "title": "Being 17", "video": false, "vote_average": 6.9, "vote_count": 210, "popularity": 8.661}, {"adult": false, "backdrop_path": "/qbrmEfBEcdrzHSAHgazJWmz3TSU.jpg", "genre_ids": [18], "id": 616229, "original_language": "en", "original_title": "The Male Gaze: The Heat of the Night", "overview": "When darkness falls, temperatures rise in these six stories about late night confessions, intimacy for sale, high speed hookups and full moon frissons. But when the sun comes up and reality reveals itself, will it have all been worth it?", "poster_path": "/e1gNLO829rkE73sBJ3aClZJHNXd.jpg", "release_date": "2019-07-15", "title": "The Male Gaze: The Heat of the Night", "video": false, "vote_average": 3.3, "vote_count": 3, "popularity": 13.056}, {"adult": false, "backdrop_path": "/ztD8x6kFrhyPIrdbEqWkxwKEgzv.jpg", "genre_ids": [80, 18], "id": 383526, "original_language": "es", "original_title": "Nunca vas a estar solo", "overview": "Introverted Juan, manager of a mannequin factory, lives alone with his eighteen-year-old gay son, Pablo. Whilst Pablo blithely studies dance, Juan is hoping that, after twenty-five years at the firm, his boss will consider him for a partnership. When Pablo is badly wounded in a brutal homophobic attack which sees him hospitalised, his father realises just how far they have become estranged. A lack of witnesses and expensive medical bills force Juan to leave the quiet stability of his life for good and reposition himself in a world where there is discrimination. Time and again his efforts come to nought, until one night on the streets of Santiago he makes up his own rules in order to save his son.", "poster_path": "/lGReDf0NnrAbdXaU1SbFyKnJJH4.jpg", "release_date": "2016-02-13", "title": "You'll Never Be Alone", "video": false, "vote_average": 7.1, "vote_count": 17, "popularity": 2.606}, {"adult": false, "backdrop_path": "/4NJplkljN06NQLMLSUNmrIsBjBZ.jpg", "genre_ids": [35, 18], "id": 400547, "original_language": "en", "original_title": "Hurricane Bianca", "overview": "Hurricane Bianca is a revenge comedy about a New York teacher who moves to a small town in Texas, gets fired for being gay, and returns disguised in drag to get revenge on the people who were nasty to him.", "poster_path": "/w1QM09R1TqwHTb5UA8X8jR2yh4x.jpg", "release_date": "2016-06-03", "title": "Hurricane Bianca", "video": false, "vote_average": 6.2, "vote_count": 212, "popularity": 10.051}, {"adult": false, "backdrop_path": "/1Z53X8Rj7ebuIUHU0XqizkFMPOK.jpg", "genre_ids": [18, 10749], "id": 17483, "original_language": "en", "original_title": "Shelter", "overview": "Forced to give up his dreams of art school, Zach works dead-end jobs to support his sister and her son. Questioning his life, he paints, surfs and hangs out with his best friend, Gabe. When Gabe's older brother returns home for the summer, Zach suddenly finds himself drawn into a relationship he didn't expect.", "poster_path": "/auMRglisVmM01BRGAWCjv7AuUeE.jpg", "release_date": "2007-06-16", "title": "Shelter", "video": false, "vote_average": 7.7, "vote_count": 248, "popularity": 10.493}, {"adult": false, "backdrop_path": "/3Z0GbJ3NKBEbotdHxsllRBKRMmj.jpg", "genre_ids": [18], "id": 472451, "original_language": "en", "original_title": "Boy Erased", "overview": "Jared, the son of a Baptist pastor in a small American town, is outed to his parents at age 19. Jared is faced with an ultimatum: attend a gay conversion therapy program \u2013 or be permanently exiled and shunned by his family, friends, and faith.", "poster_path": "/oZbhTdi0ZQY7iiSQ0L7h3ya6NDF.jpg", "release_date": "2018-09-24", "title": "Boy Erased", "video": false, "vote_average": 7.2, "vote_count": 653, "popularity": 13.81}, {"adult": false, "backdrop_path": "/da8Kj1bgPvL8Tf1PgkA70UwmYzh.jpg", "genre_ids": [35, 18, 10749], "id": 10938, "original_language": "en", "original_title": "Beautiful Thing", "overview": "Set during a long, hot summer on the Thamesmead Estate in Southeast London, three teenagers edge towards adulthood.", "poster_path": "/8z1ZkZoznIGLyx4xHEaQNZqG63D.jpg", "release_date": "1996-06-21", "title": "Beautiful Thing", "video": false, "vote_average": 7.5, "vote_count": 154, "popularity": 10.559}, {"adult": false, "backdrop_path": "/8uwHvRutx9y79ZBIowg7VDVx9Dy.jpg", "genre_ids": [18, 10749], "id": 222918, "original_language": "en", "original_title": "The Wilding", "overview": "When juvenile inmate Malcolm is offered a chance at parole, he is torn between his chance for freedom and protecting the one he loves.", "poster_path": "/5vbTbtgm0dH5MHwVQBaWo47gG6Q.jpg", "release_date": "2012-02-13", "title": "The Wilding", "video": false, "vote_average": 6.8, "vote_count": 4, "popularity": 4.721}, {"adult": false, "backdrop_path": "/zCC5Han27o5AxhdNJ86b5YhLhIS.jpg", "genre_ids": [18, 10749], "id": 26933, "original_language": "fr", "original_title": "Les roseaux sauvages", "overview": "As the Algerian War draws to a close, a teenager with a girlfriend starts feeling homosexual urges for two of his classmates: a country boy, and a French-Algerian intellectual.", "poster_path": "/vPPsAieu9KEVZcI06xKHl9zztUO.jpg", "release_date": "1994-06-01", "title": "Wild Reeds", "video": false, "vote_average": 7.5, "vote_count": 46, "popularity": 6.188}, {"adult": false, "backdrop_path": "/sZo96MCFy4yFaJFKIfj4hbyvTci.jpg", "genre_ids": [18, 10749], "id": 26371, "original_language": "en", "original_title": "Maurice", "overview": "After his lover rejects him, a young man trapped by the oppressiveness of Edwardian society tries to come to terms with and accept his sexuality.", "poster_path": "/4MI2y8XViPrDiKs1p0QC4bTeZzf.jpg", "release_date": "1987-08-21", "title": "Maurice", "video": false, "vote_average": 7.6, "vote_count": 161, "popularity": 10.214}, {"adult": false, "backdrop_path": "/r3DKR4VybkjYP2w4wYFIf2cEPc.jpg", "genre_ids": [10749, 18], "id": 322127, "original_language": "de", "original_title": "You & I", "overview": "Summer in Berlin. Jonas is planning a trip through the little known area of the Uckermark in preparation for a photography project. He invites his best friend, Phillip, to come along. When they pick up a hitchhiker named Boris, the friendship of the two starts to fray. Maybe three\u2019s a crowd after all? By the end of the summer, things between Jonas and Phillip won\u2019t ever be the same again.", "poster_path": "/59OmxhLZVh3ZXLAu6iaywYYx01S.jpg", "release_date": "2015-09-16", "title": "You & I", "video": false, "vote_average": 7.4, "vote_count": 22, "popularity": 3.807}, {"id": 10139, "video": false, "vote_count": 1269, "vote_average": 7.3, "title": "Milk", "release_date": "2008-11-05", "original_language": "en", "original_title": "Milk", "genre_ids": [18, 36], "backdrop_path": "/i8NcYenVqMzB95pVz8YOPIqmGj8.jpg", "adult": false, "overview": "The true story of Harvey Milk, the first openly gay man ever elected to public office. In San Francisco in the late 1970s, Harvey Milk becomes an activist for gay rights and inspires others to join him in his fight for equal rights that should be available to all Americans.", "poster_path": "/aTbhbnq9YnKJM6wGIiedfJaoV6m.jpg", "popularity": 12.072}, {"id": 84892, "video": false, "vote_count": 6548, "vote_average": 7.7, "title": "The Perks of Being a Wallflower", "release_date": "2012-09-20", "original_language": "en", "original_title": "The Perks of Being a Wallflower", "genre_ids": [18], "backdrop_path": "/uhLcaTPeBpUNgYhZXhDWkj7gMkp.jpg", "adult": false, "overview": "15-year-old freshman Charlie is a wallflower, always watching life from the sidelines, until two charismatic senior students become his mentors. Free-spirited Sam and her stepbrother Patrick help Charlie discover the joys of friendship, first love, music and more, while a teacher sparks Charlie's dreams of becoming a writer.", "poster_path": "/cyNQLnHnXZcTUDXVVSEYmquOTOI.jpg", "popularity": 19.873}, {"adult": false, "backdrop_path": "/useuHJQ5HOoEWkAvEjL1FW1sUfe.jpg", "genre_ids": [18], "id": 376867, "original_language": "en", "original_title": "Moonlight", "overview": "The tender, heartbreaking story of a young man\u2019s struggle to find himself, told across three defining chapters in his life as he experiences the ecstasy, pain, and beauty of falling in love, while grappling with his own sexuality.", "poster_path": "/qAwFbszz0kRyTuXmMeKQZCX3Q2O.jpg", "release_date": "2016-10-21", "title": "Moonlight", "video": false, "vote_average": 7.4, "vote_count": 4406, "popularity": 27.348}, {"id": 424694, "video": false, "vote_count": 9721, "vote_average": 8.0, "title": "Bohemian Rhapsody", "release_date": "2018-10-24", "original_language": "en", "original_title": "Bohemian Rhapsody", "genre_ids": [18, 10402], "backdrop_path": "/93xA62uLd5CwMOAs37eQ7vPc1iV.jpg", "adult": false, "overview": "Singer Freddie Mercury, guitarist Brian May, drummer Roger Taylor and bass guitarist John Deacon take the music world by storm when they form the rock 'n' roll band Queen in 1970. Hit songs become instant classics. When Mercury's increasingly wild lifestyle starts to spiral out of control, Queen soon faces its greatest challenge yet \u2013 finding a way to keep the band together amid the success and excess.", "poster_path": "/lHu1wtNaczFPGFDTrjCSzeLPTKN.jpg", "popularity": 40.186}, {"adult": false, "backdrop_path": "/cLOekK7EmHB1beYUYEXIlcr6mpS.jpg", "genre_ids": [10752, 36, 28, 12, 18, 10749], "id": 1966, "original_language": "en", "original_title": "Alexander", "overview": "Alexander, the King of Macedonia, leads his legions against the giant Persian Empire. After defeating the Persians, he leads his army across the then known world, venturing farther than any westerner had ever gone, all the way to India.", "poster_path": "/cJrnmbsFm5cEt0pHZZ2a1ueH5aT.jpg", "release_date": "2004-11-21", "title": "Alexander", "video": false, "vote_average": 5.8, "vote_count": 1987, "popularity": 24.267}], "total_pages": 211, "total_results": 4216}, "recommendations": {"page": 1, "results": [{"adult": false, "backdrop_path": "/hxsf5D3ateVzCvWWbW9tncJw4MC.jpg", "genre_ids": [35, 10749], "id": 42714, "original_language": "en", "original_title": "Any Wednesday", "overview": "Ellen Gordon, a New York executive's mistress falls for the executive's young business associate when the young man is accidentally sent to use the apartment where the executive and his mistress get together every Wednesday. More complications arise when the executive's wife shows up with plans to redecorate the apartment.", "poster_path": "/hhnpJY9ldontHXHbxBAiRJw0eIw.jpg", "release_date": "1966-10-13", "title": "Any Wednesday", "video": false, "vote_average": 6.1, "vote_count": 7, "popularity": 3.646}, {"adult": false, "backdrop_path": "/zRM61xCjoIj5kUNRgCMN9RRt1rH.jpg", "genre_ids": [18, 10751], "id": 150604, "original_language": "en", "original_title": "Star in the Night", "overview": "Nick, a motel owner who has lost faith in more than just the humanity of mankind, is visited by a kindly stranger on Christmas Eve. The motel's guests are only concerned for themselves until a poor man and his wife drive up to the motel, unable to go any further. Out of rooms, Nick's wife prepares a place for them in a shed under a neon star Nick had just finished hanging. Their plight brings out the generosity in everyone, including Nick, who remembers another family almost two thousand years earlier that also found a makeshift room at an inn under another kind of star.", "poster_path": "/jqoSb6y0FSXFfFEHMlDBWA8HvBC.jpg", "release_date": "1945-10-13", "title": "Star in the Night", "video": false, "vote_average": 7.6, "vote_count": 9, "popularity": 2.697}, {"id": 56131, "video": false, "vote_count": 5, "vote_average": 5.4, "title": "The Beautiful Blonde from Bashful Bend", "release_date": "1949-05-27", "original_language": "en", "original_title": "The Beautiful Blonde from Bashful Bend", "genre_ids": [28, 35, 37, 10749], "backdrop_path": "/i2PjqqNaXmvaITFAnzG7EKEYz13.jpg", "adult": false, "overview": "Saloon-bar singer Freddie gets very angry whenever boyfriend Blackie seems to be playing around. She always packs a six-shooter, so this is bad news for anything that happens to be in the way. As this is usually the local judge's rear-end, Freddie and friend Conchita are soon hiding out teaching school in the middle of nowhere.", "poster_path": "/wKDiwCPv0497QqZUmJlxUHpkPPm.jpg", "popularity": 2.603}], "total_pages": 1, "total_results": 3}, "credits": {"cast": [{"cast_id": 2, "character": "Ben Butley", "credit_id": "52fe4bccc3a36847f82145bf", "gender": 2, "id": 27554, "name": "Alan Bates", "order": 0, "profile_path": "/tXBtdL0JrFFMBP55fn3sh1z0WOG.jpg"}, {"cast_id": 3, "character": "Edna Shaft", "credit_id": "52fe4bcdc3a36847f82145c3", "gender": 1, "id": 5698, "name": "Jessica Tandy", "order": 1, "profile_path": "/9eaHz5lei5nAyiuH7fszw5zweSl.jpg"}, {"cast_id": 8, "character": "Reg Nuttall", "credit_id": "52fe4bcdc3a36847f82145d9", "gender": 2, "id": 742, "name": "Michael Byrne", "order": 2, "profile_path": "/rmgL88xFEk0iBOcCr7d9V6WfaOi.jpg"}, {"cast_id": 9, "character": "Carol Heasman", "credit_id": "52fe4bcdc3a36847f82145dd", "gender": 0, "id": 92434, "name": "Georgina Hale", "order": 3, "profile_path": "/nVq4XP4HsPN9U3L2OTEqwAjv3Vo.jpg"}, {"cast_id": 11, "character": "Gardner", "credit_id": "52fe4bcdc3a36847f82145e5", "gender": 2, "id": 186061, "name": "Simon Rouse", "order": 5, "profile_path": "/pZTwJlqpwD4eM6KJzn0tCU14zqr.jpg"}, {"cast_id": 13, "character": "Anne Butley", "credit_id": "54aa9acac3a368241e0013fc", "gender": 0, "id": 1220081, "name": "Susan Engel", "order": 6, "profile_path": null}, {"cast_id": 15, "character": "", "credit_id": "5d0571b2c3a368445b2b8c82", "gender": 2, "id": 113697, "name": "Richard O'Callaghan", "order": 7, "profile_path": "/fDkTty9NSEEh7JPkoTRdTX8IFtx.jpg"}, {"cast_id": 16, "character": "", "credit_id": "5d0571bf0e0a266424c9a559", "gender": 0, "id": 1221792, "name": "Oliver Maguire", "order": 8, "profile_path": null}, {"cast_id": 17, "character": "", "credit_id": "5d0571cac3a3684adb29bb43", "gender": 2, "id": 1226754, "name": "Darien Angadi", "order": 9, "profile_path": null}, {"cast_id": 18, "character": "", "credit_id": "5d0571db92514163d1be1ce9", "gender": 0, "id": 26691, "name": "Colin Haigh", "order": 10, "profile_path": null}, {"cast_id": 19, "character": "", "credit_id": "5d0571e5c3a36832f21fea2c", "gender": 0, "id": 2165649, "name": "Lindsay Ingram", "order": 11, "profile_path": null}, {"cast_id": 20, "character": "", "credit_id": "5d0571ee0e0a260eddcbbc3b", "gender": 0, "id": 201648, "name": "Patti Love", "order": 12, "profile_path": "/nsXZ5Hix3ZF42Q6ysj4m2y46HlE.jpg"}, {"cast_id": 21, "character": "", "credit_id": "5d0571f79251413f2dbc31de", "gender": 0, "id": 1090245, "name": "Belinda Low", "order": 13, "profile_path": null}, {"cast_id": 22, "character": "", "credit_id": "5d0572029251411a82ca5a25", "gender": 2, "id": 14325, "name": "Derrick O'Connor", "order": 14, "profile_path": "/5V0v5o7vIORgUXxbMCqy5aXLf5f.jpg"}, {"cast_id": 23, "character": "", "credit_id": "5d05720d0e0a260eddcbbc68", "gender": 2, "id": 184881, "name": "John Savident", "order": 15, "profile_path": "/sbcvdi0JqC9KRUbyOJwZqVf0LeP.jpg"}, {"cast_id": 24, "character": "", "credit_id": "5d05721892514163d1be1d2e", "gender": 1, "id": 1198828, "name": "Susan Wooldridge", "order": 16, "profile_path": "/ibLmil9ERnJ9c8J5rbpv9y4fHgK.jpg"}], "crew": [{"credit_id": "5d05726cc3a36877db1fdeaf", "department": "Costume & Make-Up", "gender": 0, "id": 11126, "job": "Makeup Artist", "name": "Eddie Knight", "profile_path": null}, {"credit_id": "52fe4bcdc3a36847f82145d5", "department": "Art", "gender": 1, "id": 11836, "job": "Art Direction", "name": "Carmen Dillon", "profile_path": null}, {"credit_id": "52fe4bccc3a36847f82145bb", "department": "Directing", "gender": 2, "id": 26157, "job": "Director", "name": "Harold Pinter", "profile_path": "/zmnvgAEdRzgH1aQ3TwrfqHzy8Hb.jpg"}, {"credit_id": "52fe4bcdc3a36847f82145cf", "department": "Editing", "gender": 0, "id": 31931, "job": "Editor", "name": "Malcolm Cooke", "profile_path": null}, {"credit_id": "52fe4bcdc3a36847f82145eb", "department": "Camera", "gender": 0, "id": 40052, "job": "Director of Photography", "name": "Gerry Fisher", "profile_path": null}, {"credit_id": "5d0572450e0a267fa9cbaa78", "department": "Production", "gender": 0, "id": 114270, "job": "Executive Producer", "name": "Henry T. Weinstein", "profile_path": null}, {"credit_id": "52fe4bcdc3a36847f82145c9", "department": "Writing", "gender": 2, "id": 217617, "job": "Writer", "name": "Simon Gray", "profile_path": null}, {"credit_id": "5d057251925141488ab83a3c", "department": "Production", "gender": 0, "id": 1193402, "job": "Supervising Producer", "name": "Robert A. Goldston", "profile_path": null}, {"credit_id": "5d05723a92514117b4be2fee", "department": "Production", "gender": 0, "id": 1395726, "job": "Executive Producer", "name": "Otto Plaschkes", "profile_path": null}, {"credit_id": "5d05722e0e0a267080c9a9fd", "department": "Production", "gender": 0, "id": 1665776, "job": "Producer", "name": "Ely A. Landau", "profile_path": null}, {"credit_id": "5c7a8dba0e0a2611da121060", "department": "Directing", "gender": 2, "id": 2228925, "job": "First Assistant Director", "name": "Ted Sturgis", "profile_path": null}]}}