{"adult": false, "backdrop_path": "/4R0slt3Wqzz6sUXEPvmNnmXPHyB.jpg", "belongs_to_collection": null, "budget": 0, "genres": [{"id": 35, "name": "Comedy"}, {"id": 18, "name": "Drama"}], "homepage": null, "id": 11810, "imdb_id": "tt0184071", "original_language": "ru", "original_title": "\u0417\u0430\u043a\u043e\u043d\u043d\u044b\u0439 \u0431\u0440\u0430\u043a", "overview": "Soviet drama film about a fictive marraige.", "popularity": 1.174, "poster_path": "/kKwMSD78LwdDxjUUR15iOnEZD2s.jpg", "production_companies": [{"id": 344, "logo_path": "/xenuUvcunUNpbaDOYGhWZERaym7.png", "name": "Mosfilm", "origin_country": "RU"}], "production_countries": [{"iso_3166_1": "RU", "name": "Russia"}, {"iso_3166_1": "SU", "name": "Soviet Union"}], "release_date": "1985-04-29", "revenue": 0, "runtime": 93, "spoken_languages": [{"iso_639_1": "ru", "name": "P\u0443\u0441\u0441\u043a\u0438\u0439"}], "status": "Released", "tagline": "", "title": "Legal Marriage", "video": false, "vote_average": 6.3, "vote_count": 2, "keywords": {"keywords": [{"id": 3590, "name": "piano lessons"}, {"id": 6091, "name": "war"}, {"id": 184989, "name": "spectacle"}]}, "similar": {"page": 1, "results": [{"adult": false, "backdrop_path": "/pKawqrtCBMmxarft7o1LbEynys7.jpg", "genre_ids": [10752, 18, 28], "id": 228150, "original_language": "en", "original_title": "Fury", "overview": "In the last months of World War II, as the Allies make their final push in the European theatre, a battle-hardened U.S. Army sergeant named 'Wardaddy' commands a Sherman tank called 'Fury' and its five-man crew on a deadly mission behind enemy lines. Outnumbered and outgunned, Wardaddy and his men face overwhelming odds in their heroic attempts to strike at the heart of Nazi Germany.", "poster_path": "/fa4PxEPRKWRyjzYje1jM4m30qzd.jpg", "release_date": "2014-10-15", "title": "Fury", "video": false, "vote_average": 7.4, "vote_count": 7302, "popularity": 53.985}, {"id": 369885, "video": false, "vote_count": 3048, "vote_average": 6.7, "title": "Allied", "release_date": "2016-11-17", "original_language": "en", "original_title": "Allied", "genre_ids": [28, 18, 53, 10749, 10752], "backdrop_path": "/tC0tVH5KQhCwMlddnyA3iWOSuBA.jpg", "adult": false, "overview": "In 1942, an intelligence officer in North Africa encounters a female French Resistance fighter on a deadly mission behind enemy lines. When they reunite in London, their relationship is tested by the pressures of war.", "poster_path": "/nzXzLFTnd0Zb3ExfhOxlQgizgSu.jpg", "popularity": 29.818}, {"id": 227306, "video": false, "vote_count": 2439, "vote_average": 7.4, "title": "Unbroken", "release_date": "2014-12-25", "original_language": "en", "original_title": "Unbroken", "genre_ids": [18, 10752], "backdrop_path": "/eSbKT3v3RKFRGeOmxJbZhIvrevR.jpg", "adult": false, "overview": "A chronicle of the life of Louis Zamperini, an Olympic runner who was taken prisoner by Japanese forces during World War II.", "poster_path": "/1un8i8UtCjSCnY3OfdxtB5kDRvF.jpg", "popularity": 18.995}, {"id": 676, "video": false, "vote_count": 3795, "vote_average": 6.8, "title": "Pearl Harbor", "release_date": "2001-05-21", "original_language": "en", "original_title": "Pearl Harbor", "genre_ids": [18, 36, 10749, 10752], "backdrop_path": "/cDctk61tUeQz4LX7tTFPknI28ea.jpg", "adult": false, "overview": "The lifelong friendship between Rafe McCawley and Danny Walker is put to the ultimate test when the two ace fighter pilots become entangled in a love triangle with beautiful Naval nurse Evelyn Johnson. But the rivalry between the friends-turned-foes is immediately put on hold when they find themselves at the center of Japan's devastating attack on Pearl Harbor on Dec. 7, 1941.", "poster_path": "/gzjMpcyV1RksWonaA87DZ8wQTH0.jpg", "popularity": 26.975}, {"id": 324786, "video": false, "vote_count": 7336, "vote_average": 8.1, "title": "Hacksaw Ridge", "release_date": "2016-10-07", "original_language": "en", "original_title": "Hacksaw Ridge", "genre_ids": [18, 36, 10752], "backdrop_path": "/zBK4QZONMQXhcgaJv1YYTdCW7q9.jpg", "adult": false, "overview": "WWII American Army Medic Desmond T. Doss, who served during the Battle of Okinawa, refuses to kill people and becomes the first Conscientious Objector in American history to receive the Congressional Medal of Honor.", "poster_path": "/bndiUFfJxNd2fYx8XO610L9a07m.jpg", "popularity": 23.616}, {"id": 522162, "video": false, "vote_count": 208, "vote_average": 6.7, "title": "Midway", "release_date": "2019-11-06", "original_language": "en", "original_title": "Midway", "genre_ids": [28, 18, 36, 10752], "backdrop_path": "/xjP88DFPCQ81mbZHXFscyYtGskT.jpg", "adult": false, "overview": "MIDWAY centers on the Battle of Midway, a clash between the American fleet and the Imperial Japanese Navy which marked a pivotal turning point in the Pacific Theater during WWII. The film, based on the real-life events of this heroic feat, tells the story of the leaders and soldiers who used their instincts, fortitude and bravery to overcome the odds.", "poster_path": "/hj8pyoNnynGeJTAbl7jcLZO8Uhx.jpg", "popularity": 61.116}, {"adult": false, "backdrop_path": "/9alS7FBSf8rvDLskpCRuKqAI2h5.jpg", "genre_ids": [18, 36], "id": 746, "original_language": "en", "original_title": "The Last Emperor", "overview": "A dramatic history of Pu Yi, the last of the Emperors of China, from his lofty birth and brief reign in the Forbidden City, the object of worship by half a billion people; through his abdication, his decline and dissolute lifestyle; his exploitation by the invading Japanese, and finally to his obscure existence as just another peasant worker in the People's Republic.", "poster_path": "/KTirnfG6FZLKWbm8Am3EEKmZDx.jpg", "release_date": "1987-10-21", "title": "The Last Emperor", "video": false, "vote_average": 7.6, "vote_count": 774, "popularity": 13.039}, {"id": 2576, "video": false, "vote_count": 158, "vote_average": 7.2, "title": "The Diary of Anne Frank", "release_date": "1959-03-18", "original_language": "en", "original_title": "The Diary of Anne Frank", "genre_ids": [18, 36], "backdrop_path": "/x7yCQSWXSczdHUMKEMk5qyoUazO.jpg", "adult": false, "overview": "The true, harrowing story of a young Jewish girl who, with her family and their friends, is forced into hiding in an attic in Nazi-occupied Amsterdam.", "poster_path": "/i7kUdUAF9eTxQG7GdR6lKUK96En.jpg", "popularity": 13.374}, {"id": 8916, "video": false, "vote_count": 2873, "vote_average": 6.1, "title": "Antz", "release_date": "1998-10-02", "original_language": "en", "original_title": "Antz", "genre_ids": [12, 16, 35, 10751], "backdrop_path": "/kMfLkbVTsALj5eIu72jtwzDhVsV.jpg", "adult": false, "overview": "In this animated hit, a neurotic worker ant in love with a rebellious princess rises to unlikely stardom when he switches places with a soldier. Signing up to march in a parade, he ends up under the command of a bloodthirsty general. But he's actually been enlisted to fight against a termite army.", "poster_path": "/3biVcPu5hrfKUMC73sTFq17dmmS.jpg", "popularity": 19.964}, {"adult": false, "backdrop_path": "/xStFRUQtjdQWiZEGN80rgkhN0Kh.jpg", "genre_ids": [18, 878], "id": 11864, "original_language": "en", "original_title": "Enemy Mine", "overview": "A soldier from Earth crashlands on an alien world after sustaining battle damage. Eventually he encounters another survivor, but from the enemy species he was fighting; they band together to survive on this hostile world. In the end the human finds himself caring for his enemy in a completely unexpected way.", "poster_path": "/rOGOW5BnkT0Ccg7XEDmdBUBuw0K.jpg", "release_date": "1985-12-12", "title": "Enemy Mine", "video": false, "vote_average": 6.8, "vote_count": 456, "popularity": 12.134}, {"id": 11589, "video": false, "vote_count": 338, "vote_average": 7.4, "title": "Kelly's Heroes", "release_date": "1970-06-22", "original_language": "en", "original_title": "Kelly's Heroes", "genre_ids": [12, 35, 10752], "backdrop_path": "/js7WdYkmPDx8zHX0pgzhNuOTk77.jpg", "adult": false, "overview": "A misfit group of World War II American soldiers goes AWOL to rob a bank behind German lines.", "poster_path": "/lLFncrtTIz1hcteLbM9eKRflrMd.jpg", "popularity": 13.185}, {"id": 853, "video": false, "vote_count": 1914, "vote_average": 7.3, "title": "Enemy at the Gates", "release_date": "2001-03-14", "original_language": "en", "original_title": "Enemy at the Gates", "genre_ids": [28, 18, 36, 10749, 10752], "backdrop_path": "/70G2k5LYyvatd87Rai7DJM0DcYj.jpg", "adult": false, "overview": "A Russian and a German sniper play a game of cat-and-mouse during the Battle of Stalingrad in WWII.", "poster_path": "/9cSoNnB31hGY2mL78VT8mAbz6nR.jpg", "popularity": 25.616}, {"id": 475132, "video": false, "vote_count": 207, "vote_average": 6.9, "title": "A Private War", "release_date": "2018-11-16", "original_language": "en", "original_title": "A Private War", "genre_ids": [18, 10752], "backdrop_path": "/a34Q2xknjRKhcG9ZMDa7FjkP05H.jpg", "adult": false, "overview": "One of the most celebrated war correspondents of our time, Marie Colvin is an utterly fearless and rebellious spirit, driven to the frontlines of conflicts across the globe to give voice to the voiceless.", "poster_path": "/pAh6uDR9bBznybiJCVYZNJmjg63.jpg", "popularity": 13.889}, {"id": 205596, "video": false, "vote_count": 11347, "vote_average": 8.1, "title": "The Imitation Game", "release_date": "2014-11-14", "original_language": "en", "original_title": "The Imitation Game", "genre_ids": [18, 36, 53, 10752], "backdrop_path": "/qcb6z1HpokTOKdjqDTsnjJk0Xvg.jpg", "adult": false, "overview": "Based on the real life story of legendary cryptanalyst Alan Turing, the film portrays the nail-biting race against time by Turing and his brilliant team of code-breakers at Britain's top-secret Government Code and Cypher School at Bletchley Park, during the darkest days of World War II.", "poster_path": "/noUp0XOqIcmgefRnRZa1nhtRvWO.jpg", "popularity": 40.487}, {"adult": false, "backdrop_path": "/1RKpaOeY60gCNbkW2xGBrXYkZUg.jpg", "genre_ids": [18, 36, 10752], "id": 25237, "original_language": "ru", "original_title": "\u0418\u0434\u0438 \u0438 \u0441\u043c\u043e\u0442\u0440\u0438", "overview": "The invasion of a village in Byelorussia by German forces sends young Florya into the forest to join the weary Resistance fighters, against his family's wishes. There he meets a girl, Glasha, who accompanies him back to his village. On returning home, Florya finds his family and fellow peasants massacred. His continued survival amidst the brutal debris of war becomes increasingly nightmarish, a battle between despair and hope.", "poster_path": "/8MYIwgpXnc5x98dmidmJFD68MY6.jpg", "release_date": "1985-07-01", "title": "Come and See", "video": false, "vote_average": 8.3, "vote_count": 396, "popularity": 17.996}, {"adult": false, "backdrop_path": "/nfm6JCKUaM6dT0mATmShLY6cpmc.jpg", "genre_ids": [18, 10752], "id": 600, "original_language": "en", "original_title": "Full Metal Jacket", "overview": "A pragmatic U.S. Marine observes the dehumanizing effects the U.S.-Vietnam War has on his fellow recruits from their brutal boot camp training to the bloody street fighting in Hue.", "poster_path": "/29veIwD38rVL2qY74emXQw4y25H.jpg", "release_date": "1987-06-26", "title": "Full Metal Jacket", "video": false, "vote_average": 8.1, "vote_count": 5897, "popularity": 25.207}, {"id": 346672, "video": false, "vote_count": 2460, "vote_average": 5.5, "title": "Underworld: Blood Wars", "release_date": "2016-11-24", "original_language": "en", "original_title": "Underworld: Blood Wars", "genre_ids": [28, 18, 14, 27], "backdrop_path": "/fXqGBlz4xtLZzo878sHUxtsVzpU.jpg", "adult": false, "overview": "Vampire death dealer Selene fends off brutal attacks from both the Lycan clan and the Vampire faction that betrayed her. With her only allies, David and his father Thomas, she must stop the eternal war between Lycans and Vampires, even if it means she has to make the ultimate sacrifice.", "poster_path": "/nHXiMnWUAUba2LZ0dFkNDVdvJ1o.jpg", "popularity": 23.524}, {"id": 11046, "video": false, "vote_count": 434, "vote_average": 7.6, "title": "Where Eagles Dare", "release_date": "1968-12-04", "original_language": "en", "original_title": "Where Eagles Dare", "genre_ids": [28, 12, 18, 36, 10752], "backdrop_path": "/aAFq5jVHV6RZpLcRXATskNBuEbM.jpg", "adult": false, "overview": "World War II is raging, and an American general has been captured and is being held hostage in the Schloss Adler, a Bavarian castle that's nearly impossible to breach. It's up to a group of skilled Allied soldiers to liberate the general before it's too late.", "poster_path": "/991u0tSWGTVXCYkgC6ftaGE4bkQ.jpg", "popularity": 15.171}, {"id": 577332, "video": false, "vote_count": 7, "vote_average": 8.3, "title": "Panipat", "release_date": "2019-12-05", "original_language": "hi", "original_title": "P\u092a\u093e\u0928\u0940\u092a\u091f", "genre_ids": [28, 18, 36, 10752], "backdrop_path": "/jAubfxS4QpGI9nfNHckxa4Faitu.jpg", "adult": false, "overview": "During 18th century India, the Marathas emerged as the most powerful empire in the nation until the Afghan King Ahmad Shah Abdali plans to take over India. Sadashiv Rao Bhau is brought in to save the empire from the king which then leads to the third battle of Panipat.", "poster_path": "/z59Vr7l2ZFQPh76ooSQdXjW3YRo.jpg", "popularity": 6.956}, {"id": 369972, "video": false, "vote_count": 3001, "vote_average": 7.1, "title": "First Man", "release_date": "2018-10-11", "original_language": "en", "original_title": "First Man", "genre_ids": [18, 36], "backdrop_path": "/jrudoaXcoLyHRPdolyOGemXgPEs.jpg", "adult": false, "overview": "A look at the life of the astronaut, Neil Armstrong, and the legendary space mission that led him to become the first man to walk on the Moon on July 20, 1969.", "poster_path": "/i91mfvFcPPlaegcbOyjGgiWfZzh.jpg", "popularity": 27.464}], "total_pages": 171, "total_results": 3417}, "recommendations": {"page": 1, "results": [], "total_pages": 1, "total_results": 0}, "credits": {"cast": [{"cast_id": 1, "character": "Olga", "credit_id": "52fe44899251416c750384cf", "gender": 1, "id": 24370, "name": "Natalya Belokhvostikova", "order": 0, "profile_path": "/7Ha4gcJzZphYWhfqbt4N4Xdtf7e.jpg"}, {"cast_id": 2, "character": "Igor", "credit_id": "52fe448a9251416c750384d3", "gender": 2, "id": 24371, "name": "Igor Kostolevskiy", "order": 1, "profile_path": "/anDEzRRVi5deif5qGXa7Slq3J92.jpg"}, {"cast_id": 3, "character": "Filatowa", "credit_id": "52fe448a9251416c750384d7", "gender": 0, "id": 70550, "name": "Albina Matveyeva", "order": 2, "profile_path": null}, {"cast_id": 4, "character": "Theaterdirektor", "credit_id": "52fe448a9251416c750384db", "gender": 2, "id": 70551, "name": "Ernst Romanov", "order": 3, "profile_path": "/8VQjvI6zw8PMhHLbqzpnl7bMIyt.jpg"}, {"cast_id": 6, "character": "", "credit_id": "5b55d5f90e0a2673df01b085", "gender": 0, "id": 1119013, "name": "Bulat Okudzhava", "order": 4, "profile_path": "/AnLqomlPw2KuTP4wlO8JMifQfBH.jpg"}, {"cast_id": 7, "character": "", "credit_id": "5b55d6060e0a2673dc01b328", "gender": 0, "id": 47424, "name": "Yelena Sanayeva", "order": 5, "profile_path": "/5E1ZnHXnmTO6iMQ67yFEL6D6Kgr.jpg"}, {"cast_id": 8, "character": "", "credit_id": "5b55d6130e0a2673d201bae8", "gender": 0, "id": 1008337, "name": "Aleksandr Shvorin", "order": 6, "profile_path": "/mwI01qlhtiflcQ6Ie12b7h8QRLe.jpg"}, {"cast_id": 9, "character": "", "credit_id": "5b55d61f9251416dc60194c1", "gender": 0, "id": 47420, "name": "Vladimir Sedov", "order": 7, "profile_path": "/kZJhGvUMM2ct8fX3b8kL9uKCjoA.jpg"}, {"cast_id": 10, "character": "", "credit_id": "5b55d6300e0a2673df01b0ee", "gender": 0, "id": 586216, "name": "Nikolai Prokopovich", "order": 8, "profile_path": "/ned2ccmEIS7bGCesgK6I9RMIEBJ.jpg"}, {"cast_id": 11, "character": "", "credit_id": "5b55d6559251416dd6019050", "gender": 0, "id": 86669, "name": "Radner Muratov", "order": 9, "profile_path": "/hrzBV9gi9bN2yvEqd4T24W7B82K.jpg"}, {"cast_id": 12, "character": "", "credit_id": "5b55d661c3a3685c9301b7a2", "gender": 0, "id": 1119001, "name": "Larisa Belogurova", "order": 10, "profile_path": "/75EqqfoEg2YRfrs2nF64nzJBZT7.jpg"}, {"cast_id": 13, "character": "", "credit_id": "5b55d66bc3a3685c8e01bd4f", "gender": 2, "id": 1118336, "name": "Igor Kashintsev", "order": 11, "profile_path": "/m3rsAlnOLHn6u2Z4b7c8sMNfkzp.jpg"}, {"cast_id": 14, "character": "", "credit_id": "5b55d679c3a3685c85019c8d", "gender": 1, "id": 1118286, "name": "Valentina Ananina", "order": 12, "profile_path": "/vJlau0QqFvwEMA4qorvG2QWShqu.jpg"}, {"cast_id": 15, "character": "", "credit_id": "5b55d683c3a3685c85019caa", "gender": 1, "id": 22832, "name": "Tamara Sovchi", "order": 13, "profile_path": "/jkuQHJ772qjMFJaj1WXhEzt2loI.jpg"}], "crew": [{"credit_id": "52fe448a9251416c750384e1", "department": "Directing", "gender": 2, "id": 70552, "job": "Director", "name": "Albert S. Mkrtchyan", "profile_path": "/AmLqhf3MgZOVo2wmFgsBnNRunUm.jpg"}, {"credit_id": "5d7f1c17f0647c5e0b9c95ea", "department": "Writing", "gender": 0, "id": 1742641, "job": "Writer", "name": "Afanasi Belov", "profile_path": "/o31PB2AvAfpQtRVtkXbByI6YQQ5.jpg"}, {"credit_id": "5d7f1c233c43440997a1b77a", "department": "Camera", "gender": 0, "id": 2405060, "job": "Director of Photography", "name": "Mikhail Koroptsov", "profile_path": null}, {"credit_id": "5d7f1c2f3c434406b0a0d9c3", "department": "Editing", "gender": 1, "id": 8463, "job": "Editor", "name": "Lyudmila Fejginova", "profile_path": "/RKVyuvv5ZqGf9rjIkRWepJywcy.jpg"}]}}