{"adult": false, "backdrop_path": "/j4Goq4U9FKBWdR94WZVfn1emwBV.jpg", "belongs_to_collection": null, "budget": 0, "genres": [{"id": 18, "name": "Drama"}, {"id": 10402, "name": "Music"}, {"id": 53, "name": "Thriller"}], "homepage": null, "id": 118328, "imdb_id": "tt0031996", "original_language": "en", "original_title": "Swanee River", "overview": "Swanee River is a 1940 American biopic about Stephen Foster, a songwriter from Pittsburgh who falls in love with the South, marries a Southern girl, then is accused of sympathizing when the Civil War breaks out. Typical of 20th Century Fox biopics of the time, the film is more fictional than factual biography.", "popularity": 2.189, "poster_path": "/tZXBgjYfMTZC8sIVVqgrN9on4kK.jpg", "production_companies": [{"id": 25, "logo_path": "/qZCc1lty5FzX30aOCVRBLzaVmcp.png", "name": "20th Century Fox", "origin_country": "US"}], "production_countries": [], "release_date": "1939-12-29", "revenue": 0, "runtime": 84, "spoken_languages": [{"iso_639_1": "en", "name": "English"}], "status": "Released", "tagline": "The Story of Stephen C. Foster - The Great American Troubadour", "title": "Swanee River", "video": false, "vote_average": 0.0, "vote_count": 0, "keywords": {"keywords": [{"id": 5565, "name": "biography"}, {"id": 33475, "name": "songwriter"}]}, "similar": {"page": 1, "results": [{"adult": false, "backdrop_path": "/nU6DDTabbMkd3649WYtSiOdHCMC.jpg", "genre_ids": [18, 10749], "id": 332283, "original_language": "en", "original_title": "Mary Shelley", "overview": "The love affair between poet Percy Shelley and Mary Wollstonecraft Godwin resulted in the creation of an immortal novel, \u201cFrankenstein; or, The Modern Prometheus.\u201d", "poster_path": "/gKHJTsrfxJtfFNPQJn2hDNEMtFf.jpg", "release_date": "2018-04-22", "title": "Mary Shelley", "video": false, "vote_average": 7.1, "vote_count": 516, "popularity": 12.227}, {"adult": false, "backdrop_path": "/jK3EAFk3GdOaQfUDCOiTujzMpwH.jpg", "genre_ids": [18], "id": 389015, "original_language": "en", "original_title": "I, Tonya", "overview": "Competitive ice skater Tonya Harding rises amongst the ranks at the U. S. Figure Skating Championships, but her future in the sport is thrown into doubt when her ex-husband intervenes.", "poster_path": "/6gNXwSHxaksR1PjVZRqNapmkgj3.jpg", "release_date": "2017-12-08", "title": "I, Tonya", "video": false, "vote_average": 7.5, "vote_count": 3332, "popularity": 20.099}, {"id": 266856, "video": false, "vote_count": 6976, "vote_average": 7.9, "title": "The Theory of Everything", "release_date": "2014-11-26", "original_language": "en", "original_title": "The Theory of Everything", "genre_ids": [18, 10749], "backdrop_path": "/geAe08WmchATnZF461WffQBqJk1.jpg", "adult": false, "overview": "The Theory of Everything is the extraordinary story of one of the world\u2019s greatest living minds, the renowned astrophysicist Stephen Hawking, who falls deeply in love with fellow Cambridge student Jane Wilde.", "poster_path": "/4jspr8hLLuju59bCnMiefzRW4p0.jpg", "popularity": 22.686}, {"id": 451915, "video": false, "vote_count": 818, "vote_average": 7.6, "title": "Beautiful Boy", "release_date": "2018-10-12", "original_language": "en", "original_title": "Beautiful Boy", "genre_ids": [18], "backdrop_path": "/sOhtC4cmaYPOlcjXCWxxrx2NKKn.jpg", "adult": false, "overview": "After he and his first wife separate, journalist David Sheff struggles to help their teenage son, who goes from experimenting with drugs to becoming devastatingly addicted to methamphetamine.", "poster_path": "/i7gsLrNxpSf8NF5IZIrcOEfMyA3.jpg", "popularity": 17.739}, {"id": 228970, "video": false, "vote_count": 1566, "vote_average": 7.0, "title": "Wild", "release_date": "2014-12-05", "original_language": "en", "original_title": "Wild", "genre_ids": [18], "backdrop_path": "/pl6mEeLTI4IRnjbBGTMrJSBoYsU.jpg", "adult": false, "overview": "A woman with a tragic past decides to start her new life by hiking for one thousand miles on the Pacific Crest Trail.", "poster_path": "/zpdwj7Q8ZdTX2bWbltCFjVwugJu.jpg", "popularity": 12.623}, {"id": 1955, "video": false, "vote_count": 1711, "vote_average": 8.1, "title": "The Elephant Man", "release_date": "1980-10-02", "original_language": "en", "original_title": "The Elephant Man", "genre_ids": [18, 36], "backdrop_path": "/rR479zn26lJp4vNxXKjfBVCHLAW.jpg", "adult": false, "overview": "A Victorian surgeon rescues a heavily disfigured man being mistreated by his \"owner\" as a side-show freak. Behind his monstrous fa\u00e7ade, there is revealed a person of great intelligence and sensitivity. Based on the true story of Joseph Merrick (called John Merrick in the film), a severely deformed man in 19th century London.", "poster_path": "/lDXJUmLQsViSKLbil2luD91l2kE.jpg", "popularity": 12.883}, {"id": 363676, "video": false, "vote_count": 4336, "vote_average": 7.1, "title": "Sully", "release_date": "2016-09-07", "original_language": "en", "original_title": "Sully", "genre_ids": [18, 36], "backdrop_path": "/vC9H1ZVdXi1KjH4aPfGB54mvDNh.jpg", "adult": false, "overview": "On 15 January 2009, the world witnessed the 'Miracle on the Hudson' when Captain 'Sully' Sullenberger glided his disabled plane onto the frigid waters of the Hudson River, saving the lives of all 155 aboard. However, even as Sully was being heralded by the public and the media for his unprecedented feat of aviation skill, an investigation was unfolding that threatened to destroy his reputation and career.", "poster_path": "/h6O5OE3ueRVdCc7V7cwTiQocI7D.jpg", "popularity": 20.325}, {"adult": false, "backdrop_path": "/3fcBsj9JMQQ27Wuk3LVrEwVZ2VT.jpg", "genre_ids": [28, 18], "id": 323677, "original_language": "en", "original_title": "Race", "overview": "Based on the story of Jesse Owens, the athlete whose quest to become the greatest track and field athlete in history thrusts him onto the world stage of the 1936 Olympics, where he faces off against Adolf Hitler's vision of Aryan supremacy.", "poster_path": "/szLfTQ2vLFQkNbP3dc0pnco1rje.jpg", "release_date": "2016-02-19", "title": "Race", "video": false, "vote_average": 7.3, "vote_count": 990, "popularity": 15.646}, {"id": 369192, "video": false, "vote_count": 1153, "vote_average": 6.9, "title": "Battle of the Sexes", "release_date": "2017-09-05", "original_language": "en", "original_title": "Battle of the Sexes", "genre_ids": [35, 18, 36], "backdrop_path": "/wCHJuJwEfOrrykgDas8T4m79Bzs.jpg", "adult": false, "overview": "The true story of the 1973 tennis match between World number one Billie Jean King and ex-champ and serial hustler Bobby Riggs.", "poster_path": "/fWy0A3VojTCb0S2MKtEJjpquubF.jpg", "popularity": 7.932}, {"adult": false, "backdrop_path": "/nNcZFJYLEzRa4rlYUCeWS849k6l.jpg", "genre_ids": [18], "id": 3558, "original_language": "en", "original_title": "Girl, Interrupted", "overview": "Set in the changing world of the late 1960s, Susanna Kaysen's prescribed \"short rest\" from a psychiatrist she had met only once becomes a strange, unknown journey into Alice's Wonderland, where she struggles with the thin line between normal and crazy. Susanna soon realizes how hard it is to get out once she has been committed, and she ultimately has to choose between the world of people who belong inside or the difficult world of reality outside.", "poster_path": "/vp46lgVDiFdT4Hw5WIISOPwnMaH.jpg", "release_date": "1999-12-21", "title": "Girl, Interrupted", "video": false, "vote_average": 7.6, "vote_count": 1912, "popularity": 15.937}, {"adult": false, "backdrop_path": "/mYKP6qcDUimVMAHQWLOuDHjO19S.jpg", "genre_ids": [35], "id": 445629, "original_language": "en", "original_title": "Fighting with My Family", "overview": "Born into a tight-knit wrestling family, Paige and her brother Zak are ecstatic when they get the once-in-a-lifetime opportunity to try out for the WWE. But when only Paige earns a spot in the competitive training program, she must leave her loved ones behind and face this new cutthroat world alone. Paige's journey pushes her to dig deep and ultimately prove to the world that what makes her different is the very thing that can make her a star.", "poster_path": "/cVhe15rJLRjolunSWLBN6xQLyGU.jpg", "release_date": "2019-02-14", "title": "Fighting with My Family", "video": false, "vote_average": 6.7, "vote_count": 643, "popularity": 18.498}, {"id": 487558, "video": false, "vote_count": 4020, "vote_average": 7.6, "title": "BlacKkKlansman", "release_date": "2018-07-30", "original_language": "en", "original_title": "BlacKkKlansman", "genre_ids": [80], "backdrop_path": "/wKRrldOtg6HVeGqGLls6iT9XO7I.jpg", "adult": false, "overview": "Colorado Springs, late 1970s. Ron Stallworth, an African American police officer, and Flip Zimmerman, his Jewish colleague, run an undercover operation to infiltrate the Ku Klux Klan.", "poster_path": "/8jxqAvSDoneSKRczaK8v9X5gqBp.jpg", "popularity": 25.597}, {"id": 317557, "video": false, "vote_count": 250, "vote_average": 7.1, "title": "Queen of Katwe", "release_date": "2016-09-23", "original_language": "en", "original_title": "Queen of Katwe", "genre_ids": [18], "backdrop_path": "/awZwLXuPAGZEARF3y18S3qWt5LH.jpg", "adult": false, "overview": "A young girl overcomes her disadvantaged upbringing in the slums of Uganda to become a Chess master.", "poster_path": "/8nIIoHuV1c8orDNCyTcHuDhoc4q.jpg", "popularity": 9.376}, {"adult": false, "backdrop_path": "/urnGzQvP8fwWWGkn1k809KqIjbm.jpg", "genre_ids": [18], "id": 87093, "original_language": "en", "original_title": "Big Eyes", "overview": "The story of the awakening of painter, Margaret Keane, her phenomenal success in the 1950s, and the subsequent legal difficulties she had with her husband, who claimed credit for her works in the 1960s.", "poster_path": "/z2tqzprHojhgEGYKQepjU28oQg6.jpg", "release_date": "2014-12-24", "title": "Big Eyes", "video": false, "vote_average": 7.0, "vote_count": 2349, "popularity": 14.024}, {"id": 5915, "video": false, "vote_count": 6283, "vote_average": 7.8, "title": "Into the Wild", "release_date": "2007-09-11", "original_language": "en", "original_title": "Into the Wild", "genre_ids": [12, 18], "backdrop_path": "/9yJehIjvR7ULOLxeDJoth4kDDNe.jpg", "adult": false, "overview": "After graduating from Emory University in 1992, top student and athlete Christopher McCandless abandons his possessions, gives his entire $24,000 savings account to charity, and hitchhikes to Alaska to live in the wilderness.", "poster_path": "/lHyYgaocXR6KcJLxVmxZDj115hH.jpg", "popularity": 13.103}, {"adult": false, "backdrop_path": "/kiWvoV78Cc3fUwkOHKzyBgVdrDD.jpg", "genre_ids": [37, 18, 12], "id": 281957, "original_language": "en", "original_title": "The Revenant", "overview": "In the 1820s, a frontiersman, Hugh Glass, sets out on a path of vengeance against those who left him for dead after a bear mauling.", "poster_path": "/oXUWEc5i3wYyFnL1Ycu8ppxxPvs.jpg", "release_date": "2015-12-25", "title": "The Revenant", "video": false, "vote_average": 7.5, "vote_count": 12127, "popularity": 24.135}, {"id": 457799, "video": false, "vote_count": 1572, "vote_average": 7.0, "title": "Extremely Wicked, Shockingly Evil and Vile", "release_date": "2019-05-02", "original_language": "en", "original_title": "Extremely Wicked, Shockingly Evil and Vile", "genre_ids": [80, 18, 53], "backdrop_path": "/uRoA67sM5vvCI4cplxhl67BTPly.jpg", "adult": false, "overview": "A chronicle of the crimes of Ted Bundy, from the perspective of his longtime girlfriend, Elizabeth Kloepfer, who refused to believe the truth about him for years.", "poster_path": "/zSuJ3r5zr5T26tTxyygHhgkUAIM.jpg", "popularity": 22.062}, {"id": 411728, "video": false, "vote_count": 342, "vote_average": 7.2, "title": "The Professor and the Madman", "release_date": "2019-03-07", "original_language": "en", "original_title": "The Professor and the Madman", "genre_ids": [18, 36, 9648, 53], "backdrop_path": "/zhNfM1CSQqJtIqelwlK9iKtSd9P.jpg", "adult": false, "overview": "Professor James Murray begins work compiling words for the first edition of the Oxford English Dictionary in the mid 19th century, and receives over 10,000 entries from a patient at Broadmoor Criminal Lunatic Asylum, Dr. William Minor.", "poster_path": "/gtGCDLhfjW96qVarwctnuTpGOtD.jpg", "popularity": 13.302}, {"id": 316029, "video": false, "vote_count": 5853, "vote_average": 8.0, "title": "The Greatest Showman", "release_date": "2017-12-20", "original_language": "en", "original_title": "The Greatest Showman", "genre_ids": [18], "backdrop_path": "/zpq404Sk7qQ7N4x3xOeNgp74GtU.jpg", "adult": false, "overview": "The story of American showman P.T. Barnum, founder of the circus that became the famous traveling Ringling Bros. and Barnum & Bailey Circus.", "poster_path": "/b9CeobiihCx1uG1tpw8hXmpi7nm.jpg", "popularity": 29.077}, {"id": 401847, "video": false, "vote_count": 664, "vote_average": 6.8, "title": "Can You Ever Forgive Me?", "release_date": "2018-10-19", "original_language": "en", "original_title": "Can You Ever Forgive Me?", "genre_ids": [35, 80, 18], "backdrop_path": "/shIOFWkjTn2NRvq5r4Mn2xLdZeJ.jpg", "adult": false, "overview": "When a bestselling celebrity biographer is no longer able to get published because she has fallen out of step with current tastes, she turns her art form to deception.", "poster_path": "/hPuZR2bFoV0kuBrA98exWyvTf40.jpg", "popularity": 16.339}], "total_pages": 333, "total_results": 6651}, "recommendations": {"page": 1, "results": [], "total_pages": 1, "total_results": 0}, "credits": {"cast": [{"cast_id": 2, "character": "Stephen Foster", "credit_id": "52fe4bd4c3a36847f8215ac1", "gender": 2, "id": 18156, "name": "Don Ameche", "order": 0, "profile_path": "/q4t9dds6jQuuqpMLvALbOqVJRFV.jpg"}, {"cast_id": 3, "character": "Jane McDowell Foster", "credit_id": "52fe4bd4c3a36847f8215ac5", "gender": 1, "id": 1031219, "name": "Andrea Leeds", "order": 1, "profile_path": "/YvoJ3xxVwFvQFJ3605o1xTou4b.jpg"}, {"cast_id": 4, "character": "Edwin P. Christy", "credit_id": "52fe4bd4c3a36847f8215ac9", "gender": 0, "id": 14286, "name": "Al Jolson", "order": 2, "profile_path": "/hhQBsy9c2gp1yW370cgqLTv2haZ.jpg"}, {"cast_id": 5, "character": "Henry Kleber", "credit_id": "52fe4bd4c3a36847f8215acd", "gender": 2, "id": 2494, "name": "Felix Bressart", "order": 3, "profile_path": "/x3NDEBpQavuhcV2yFNgm3JK0d5J.jpg"}, {"cast_id": 14, "character": "Bones", "credit_id": "5442e38ac3a3683df7002c74", "gender": 2, "id": 34286, "name": "Chick Chandler", "order": 4, "profile_path": "/c4ARz3iDt7kFJ1Oev1iHjGSGnt9.jpg"}, {"cast_id": 15, "character": "Andrew McDowell", "credit_id": "5442e3d80e0a266333003097", "gender": 2, "id": 13969, "name": "Russell Hicks", "order": 5, "profile_path": "/hRRM5ni87mxjlDV2G9jr4GCxFew.jpg"}, {"cast_id": 16, "character": "Marion Foster", "credit_id": "5442e3ff0e0a26633300309d", "gender": 0, "id": 148548, "name": "Diane Fisher", "order": 6, "profile_path": null}, {"cast_id": 17, "character": "Ambrose", "credit_id": "5442e41dc3a3683e0b002ca8", "gender": 0, "id": 121175, "name": "George P. Breakston", "order": 7, "profile_path": "/au6dLDAN9IIt6lRItOQ3jj2R4ib.jpg"}, {"cast_id": 18, "character": "Mrs. McDowell", "credit_id": "5442e440c3a3683e0b002cad", "gender": 1, "id": 50836, "name": "Nella Walker", "order": 8, "profile_path": "/kl8WuqmPAuwqaOne9fod7kkwcTQ.jpg"}, {"cast_id": 19, "character": "Mrs. Jonathan Fry (uncredited)", "credit_id": "5442e46fc3a3683df2002d8a", "gender": 1, "id": 8829, "name": "Mae Marsh", "order": 9, "profile_path": "/wEHHFF2Tq2Z1BlRRr27SOcUW3pu.jpg"}, {"cast_id": 21, "character": "Old Joe, McDowell's Coachman", "credit_id": "556b3723c3a368273b001a98", "gender": 2, "id": 126671, "name": "George Reed", "order": 10, "profile_path": "/hyLcCp1pr6VSneWM8MTWQruEGTy.jpg"}, {"cast_id": 22, "character": "Tom Harper", "credit_id": "556b37329251411a42001a61", "gender": 2, "id": 120777, "name": "Richard Clarke", "order": 11, "profile_path": null}, {"cast_id": 23, "character": "Tambo", "credit_id": "556b374f92514154080029ea", "gender": 2, "id": 940721, "name": "Al Herman", "order": 12, "profile_path": null}, {"cast_id": 24, "character": "Mr. Foster", "credit_id": "556b37579251411a42001a64", "gender": 2, "id": 96721, "name": "Charles Trowbridge", "order": 13, "profile_path": "/70CRYTOSQWiIgGQsOqN8JKItssK.jpg"}, {"cast_id": 25, "character": "Henry Foster", "credit_id": "556b375ec3a36824e70019d8", "gender": 2, "id": 99330, "name": "George Meeker", "order": 14, "profile_path": "/66Z6noR6WSvytzwaxt65X5XW2E1.jpg"}, {"cast_id": 26, "character": "Mrs. Foster", "credit_id": "556b376ec3a36825d500196d", "gender": 1, "id": 13822, "name": "Leona Roberts", "order": 15, "profile_path": "/z8oL1VwiSGnwTK4c1PV9A2som7x.jpg"}, {"cast_id": 27, "character": "Morrison Foster", "credit_id": "556b3779c3a36825d500197a", "gender": 0, "id": 115772, "name": "Charles Tannen", "order": 16, "profile_path": "/9KyhidWj4XjpYGqrvTQeSHjfpsN.jpg"}, {"cast_id": 28, "character": "Mrs. Griffin", "credit_id": "556b378392514174a8003d8c", "gender": 1, "id": 9073, "name": "Clara Blandick", "order": 17, "profile_path": "/zckHdTOY6ROKXUfOGGzNxNCU2TU.jpg"}, {"cast_id": 29, "character": "Erwin", "credit_id": "556b378bc3a36824e70019e0", "gender": 2, "id": 103068, "name": "Harry Hayden", "order": 18, "profile_path": "/x0dehwsSXkTXFqDhMGIf7FH6Tv7.jpg"}, {"cast_id": 30, "character": "Temperance Woman", "credit_id": "556b3794c3a36825d5001981", "gender": 1, "id": 34268, "name": "Esther Dale", "order": 19, "profile_path": "/dnnaoECyLuK5havb4YHKunJu7ZT.jpg"}, {"cast_id": 32, "character": "Detective", "credit_id": "556b37acc3a36825d5001984", "gender": 0, "id": 1383133, "name": "Herbert Ashley", "order": 21, "profile_path": null}, {"cast_id": 33, "character": "Negro Boy", "credit_id": "556b37b49251411a42001a71", "gender": 2, "id": 589812, "name": "Matthew 'Stymie' Beard", "order": 22, "profile_path": "/c71QqhK5THQpuXJItNqWStRjlUJ.jpg"}, {"cast_id": 34, "character": "Office Boy", "credit_id": "556b37bdc3a36824bc001905", "gender": 2, "id": 1241532, "name": "Georgie Billings", "order": 23, "profile_path": null}, {"cast_id": 35, "character": "Bartender", "credit_id": "556b37c6c3a3685489003de2", "gender": 0, "id": 1291802, "name": "James Blaine", "order": 24, "profile_path": "/nApdZvobdxZl1XWHOvELMunYVXY.jpg"}, {"cast_id": 36, "character": "Ann Rowan", "credit_id": "556b37ce92514173e0003a1e", "gender": 1, "id": 1176930, "name": "Georgia Caine", "order": 25, "profile_path": "/3DucLH6Iw0RuhIJIaMDlwbz9zca.jpg"}, {"cast_id": 37, "character": "Specialty", "credit_id": "556b37d5c3a368254b001d94", "gender": 2, "id": 115754, "name": "Les Clark", "order": 26, "profile_path": null}, {"cast_id": 38, "character": "Nurse", "credit_id": "556b37de9251411a42001a76", "gender": 1, "id": 30263, "name": "Dora Clement", "order": 27, "profile_path": "/dg22Ek9WyuSpSTHKzBkDI5qrbaV.jpg"}, {"cast_id": 39, "character": "Bit Role", "credit_id": "556b37e7c3a3685489003de7", "gender": 1, "id": 217748, "name": "Ruth Clifford", "order": 28, "profile_path": "/x9ZQatovJK7KEh3Gzk5GjgcfDbw.jpg"}, {"cast_id": 40, "character": "Drunken Man on Riverboat", "credit_id": "556b37f29251412a0c0001da", "gender": 2, "id": 34186, "name": "Hal K. Dawson", "order": 29, "profile_path": "/uR2fZtTE7SCi4MNTcta86Poqhk1.jpg"}, {"cast_id": 41, "character": "Bit Role", "credit_id": "556b38b8c3a36825d500199e", "gender": 0, "id": 123122, "name": "Dorothy Dearing", "order": 30, "profile_path": null}, {"cast_id": 42, "character": "Guest", "credit_id": "556b38e7c3a36824e7001a04", "gender": 0, "id": 1422434, "name": "Harry Denny", "order": 31, "profile_path": null}, {"cast_id": 81, "character": "Dresser", "credit_id": "56c8ccb1c3a368408e003a82", "gender": 2, "id": 119543, "name": "Harry Depp", "order": 32, "profile_path": null}, {"cast_id": 44, "character": "Woman in Cafe", "credit_id": "556b39219251415408002a1a", "gender": 1, "id": 68653, "name": "Claire Du Brey", "order": 33, "profile_path": "/AmPRRNPgaBqJkvEcpFFLG2DmrbD.jpg"}, {"cast_id": 45, "character": "Master of Ceremonies", "credit_id": "556b392b925141672d001517", "gender": 2, "id": 34508, "name": "Edward Earle", "order": 34, "profile_path": "/gbliCBMFl5Jge8CMzTsUhrr0Hdf.jpg"}, {"cast_id": 46, "character": "Butler", "credit_id": "556b393492514164cd00157a", "gender": 2, "id": 1422389, "name": "Jesse Graves", "order": 35, "profile_path": null}, {"cast_id": 47, "character": "Bit Role", "credit_id": "556b393ec3a36825d50019ac", "gender": 0, "id": 1276172, "name": "Kay Griffith", "order": 36, "profile_path": null}, {"cast_id": 48, "character": "Pond", "credit_id": "556b394cc3a36826f8001ca6", "gender": 2, "id": 2502, "name": "Charles Halton", "order": 37, "profile_path": "/fQqMqIJRMSqQCM6HET2O34hD2Ar.jpg"}, {"cast_id": 49, "character": "Doctor", "credit_id": "556b3958c3a36824bc001923", "gender": 2, "id": 14455, "name": "John Hamilton", "order": 38, "profile_path": "/aXQjVQj8QF07kvu0M71zNLEPiaI.jpg"}, {"cast_id": 50, "character": "Bit Role", "credit_id": "556b396792514174a8003dbe", "gender": 1, "id": 1038671, "name": "Eleanor Hansen", "order": 39, "profile_path": "/sG9Ac5FLCRr2qhVLPqF323gBVip.jpg"}, {"cast_id": 51, "character": "Agitator", "credit_id": "556b397092514173e0003a43", "gender": 2, "id": 1204352, "name": "Oscar \"Dutch\" Hendrian", "order": 40, "profile_path": null}, {"cast_id": 52, "character": "Fat Boy", "credit_id": "556b39799251412a0c00020e", "gender": 0, "id": 1022963, "name": "Tommy Hicks", "order": 41, "profile_path": null}, {"cast_id": 53, "character": "Sheriff", "credit_id": "556b3983925141672d001521", "gender": 2, "id": 95311, "name": "Robert Homans", "order": 42, "profile_path": "/qgFVZf4Tl9GLNhTLgrEdSWeBbgY.jpg"}, {"cast_id": 54, "character": "Guest", "credit_id": "556b398bc3a368273b001acd", "gender": 0, "id": 1472539, "name": "Jean Houghton", "order": 43, "profile_path": null}, {"cast_id": 55, "character": "Army Medical Examiner", "credit_id": "556b3994c3a36825d50019b4", "gender": 2, "id": 105810, "name": "Selmer Jackson", "order": 44, "profile_path": "/tXnCgrzw6da4jKKzsHMGrHZwC3M.jpg"}, {"cast_id": 56, "character": "Hotel Clerk", "credit_id": "556b399d925141672d001525", "gender": 2, "id": 985839, "name": "Gladden James", "order": 45, "profile_path": "/hS7BNehrn5Hg4G6nGi8Birbv4Pr.jpg"}, {"cast_id": 57, "character": "Dan", "credit_id": "556b39a6c3a36827250017ec", "gender": 0, "id": 1423308, "name": "Thaddeus Jones", "order": 46, "profile_path": null}, {"cast_id": 58, "character": "Drunken Agitator", "credit_id": "556b39aec3a36826f8001cb3", "gender": 2, "id": 103501, "name": "Robert Emmett Keane", "order": 47, "profile_path": "/801kNUBxwr1BDuTS0rM6wr1469s.jpg"}, {"cast_id": 59, "character": "Doctor", "credit_id": "556b39b892514164cd001589", "gender": 0, "id": 1382691, "name": "Wright Kramer", "order": 48, "profile_path": null}, {"cast_id": 60, "character": "Jonathan Fry, Justice of the Peace", "credit_id": "556b39c1c3a36826f8001cb6", "gender": 2, "id": 30202, "name": "Edward LeSaint", "order": 49, "profile_path": "/vaD3RR3C5stmGbBSstay4sCktit.jpg"}, {"cast_id": 61, "character": "Agitator", "credit_id": "556b39c992514173e0003a55", "gender": 2, "id": 616605, "name": "George Magrill", "order": 50, "profile_path": "/mbWBt2l5tCho7yD4uwrPCGEcerq.jpg"}, {"cast_id": 62, "character": "Jailer", "credit_id": "556b39d39251415408002a2e", "gender": 2, "id": 1092484, "name": "Bruce Mitchell", "order": 51, "profile_path": null}, {"cast_id": 63, "character": "Attendant", "credit_id": "556b39e3c3a368254b001dce", "gender": 2, "id": 122984, "name": "Bert Moorhouse", "order": 52, "profile_path": "/p0v0vNPZOnocEbD9tqQky6Gy0Cz.jpg"}, {"cast_id": 64, "character": "Bartender", "credit_id": "556b39ed92514173e0003a5f", "gender": 2, "id": 121250, "name": "James C. Morton", "order": 53, "profile_path": null}, {"cast_id": 65, "character": "Maid", "credit_id": "556b39f5c3a36825d50019bf", "gender": 0, "id": 1268102, "name": "Daisy Lee Mothershed", "order": 54, "profile_path": null}, {"cast_id": 66, "character": "Critic", "credit_id": "556b3a03c3a36826f8001cc0", "gender": 2, "id": 141067, "name": "Forbes Murray", "order": 55, "profile_path": "/A86SiYTEFqIrAmM8nM7cNy05lel.jpg"}, {"cast_id": 67, "character": "Guest", "credit_id": "556b3a0cc3a36824e7001a2a", "gender": 2, "id": 942165, "name": "David Newell", "order": 56, "profile_path": "/tO7w2vzG1eiiVD2NwIF7WfjAjuf.jpg"}, {"cast_id": 68, "character": "Bill, Stagehand", "credit_id": "556b3a1c92514164cd001591", "gender": 2, "id": 103753, "name": "William Newell", "order": 57, "profile_path": "/wWgERjrPxREPba73HlGCR7anzwj.jpg"}, {"cast_id": 69, "character": "Ticket Taker", "credit_id": "556b3a26925141672d001535", "gender": 2, "id": 16531, "name": "George O'Hanlon", "order": 58, "profile_path": "/rSBxlbohQIb7KkxjDwsmzdP1MUO.jpg"}, {"cast_id": 70, "character": "Clerk", "credit_id": "556b3a2fc3a36824e7001a34", "gender": 2, "id": 130496, "name": "Arthur Rankin", "order": 59, "profile_path": "/7adpNmR3b84QGP89vqUcHOZ0Rab.jpg"}, {"cast_id": 71, "character": "Army Officer", "credit_id": "556b3a379251412a0c000220", "gender": 2, "id": 52176, "name": "Herbert Rawlinson", "order": 60, "profile_path": "/anrUAfotPayegt9E2abjR6r315y.jpg"}, {"cast_id": 72, "character": "Bellboy", "credit_id": "556b3a429251416b0a00417b", "gender": 2, "id": 144372, "name": "Tom Seidel", "order": 61, "profile_path": "/e94BN7qvZeTY03gyRYMcxsOIWmz.jpg"}, {"cast_id": 73, "character": "Man on Riverboat", "credit_id": "556b3a4b9251415408002a37", "gender": 2, "id": 135827, "name": "Larry Steers", "order": 62, "profile_path": "/66jDJ3hnx0g4p4I6rRBP0heef7N.jpg"}, {"cast_id": 74, "character": "Boat Captain", "credit_id": "556b3a5592514174a8003dd6", "gender": 2, "id": 131003, "name": "Harry Strang", "order": 63, "profile_path": "/d8s5zedUa9b2gio2nOdj76qxbE0.jpg"}, {"cast_id": 75, "character": "Jim, Saloon Waiter", "credit_id": "556b3a5ec3a36824bc001934", "gender": 2, "id": 955691, "name": "Harry Tenbrook", "order": 64, "profile_path": "/huE2pp39vwaVTykcU3DoCw4kifL.jpg"}, {"cast_id": 76, "character": "Pianist", "credit_id": "556b3a69c3a3682725001802", "gender": 2, "id": 105454, "name": "Harry Tyler", "order": 65, "profile_path": "/hShTqyhk5V9LHStQwI4BupCybxf.jpg"}, {"cast_id": 77, "character": "Orchestra Leader", "credit_id": "556b3a7292514174a8003dda", "gender": 2, "id": 1010140, "name": "Bruce Warren", "order": 66, "profile_path": null}, {"cast_id": 78, "character": "Agitator", "credit_id": "556b3a7bc3a36825d50019d1", "gender": 2, "id": 119255, "name": "Billy Wayne", "order": 67, "profile_path": null}, {"cast_id": 79, "character": "Landlady", "credit_id": "556b3a84c3a3682725001805", "gender": 1, "id": 108433, "name": "Cecil Weston", "order": 68, "profile_path": null}, {"cast_id": 80, "character": "Critic", "credit_id": "556b3a8d9251415408002a3d", "gender": 2, "id": 89016, "name": "Lloyd Whitlock", "order": 69, "profile_path": "/6qlCUM8sjSk224BhsWmIyZiltdf.jpg"}], "crew": [{"credit_id": "5442e2e7c3a3683df2002d62", "department": "Editing", "gender": 2, "id": 871, "job": "Editor", "name": "Louis R. Loeffler", "profile_path": null}, {"credit_id": "5442e22b0e0a26633d002d14", "department": "Writing", "gender": 2, "id": 5031, "job": "Screenplay", "name": "John Taintor Foote", "profile_path": null}, {"credit_id": "5442e310c3a3683e05002d42", "department": "Art", "gender": 0, "id": 7337, "job": "Art Direction", "name": "Joseph C. Wright", "profile_path": null}, {"credit_id": "5442e2730e0a266340002edf", "department": "Production", "gender": 2, "id": 8502, "job": "Producer", "name": "Darryl F. Zanuck", "profile_path": "/zItDFAPN2NgwXAPCjtGNQwVJoej.jpg"}, {"credit_id": "5442e2fb0e0a26634d002c34", "department": "Art", "gender": 2, "id": 8506, "job": "Art Direction", "name": "Richard Day", "profile_path": "/vzJieFC4Dk7VnKUMIXguf0jNbbf.jpg"}, {"credit_id": "554d3da992514140e9002886", "department": "Camera", "gender": 2, "id": 14960, "job": "Director of Photography", "name": "Bert Glennon", "profile_path": "/xLzo0JqItVHAm8OqlhyRQxEw5k9.jpg"}, {"credit_id": "52fe4bd4c3a36847f8215abd", "department": "Directing", "gender": 2, "id": 97017, "job": "Director", "name": "Sidney Lanfield", "profile_path": null}, {"credit_id": "5442e24ec3a3683df7002c5f", "department": "Writing", "gender": 2, "id": 116326, "job": "Screenplay", "name": "Philip Dunne", "profile_path": null}, {"credit_id": "5442e325c3a3683e01002cdd", "department": "Costume & Make-Up", "gender": 0, "id": 1355547, "job": "Costume Design", "name": "Royer", "profile_path": null}]}}