{"adult": false, "backdrop_path": null, "belongs_to_collection": null, "budget": 300000, "genres": [{"id": 18, "name": "Drama"}], "homepage": null, "id": 118452, "imdb_id": "tt0128214", "original_language": "en", "original_title": "First Love, Last Rites", "overview": "Joey and Sissel are two misfits spending most of their time together talking or having sex. Gradually and slowly their relationships are becoming boring for them.", "popularity": 2.894, "poster_path": "/wJYpcNbeRqEqPM52nIzBiPgCsgc.jpg", "production_companies": [{"id": 40126, "logo_path": null, "name": "Toast Films", "origin_country": ""}, {"id": 2813, "logo_path": null, "name": "Forensic Films", "origin_country": ""}], "production_countries": [{"iso_3166_1": "US", "name": "United States of America"}], "release_date": "1998-08-07", "revenue": 40542, "runtime": 94, "spoken_languages": [{"iso_639_1": "en", "name": "English"}], "status": "Released", "tagline": "", "title": "First Love, Last Rites", "video": false, "vote_average": 3.0, "vote_count": 2, "keywords": {"keywords": [{"id": 572, "name": "sex"}, {"id": 9789, "name": "misfit"}, {"id": 209005, "name": "boring"}]}, "similar": {"page": 1, "results": [{"adult": false, "backdrop_path": "/tvTyRu9eKfymkje8d9VoWJEoyUv.jpg", "genre_ids": [18], "id": 53932, "original_language": "es", "original_title": "Las edades de Lul\u00fa", "overview": "Fifteen-year-old Lulu has never known any affection from her family. But when she goes to a rock concert with Pablo, a friend of the family, he introduces Lulu to her first sexual experience. Years later, Pablo and Lulu have married; Pablo has created a sheltered, private world for Lulu, into which nothing intrudes. However, Lulu tires of her cloistered existence, and begins hanging out in shady bars, looking for vicarious thrills and danger.", "poster_path": "/5PK5MAN84o0ESgzeW9euozOLIEe.jpg", "release_date": "1990-12-13", "title": "The Ages of Lulu", "video": false, "vote_average": 5.7, "vote_count": 64, "popularity": 23.137}, {"id": 12531, "video": false, "vote_count": 91, "vote_average": 6.9, "title": "The Apartment", "release_date": "1996-07-27", "original_language": "fr", "original_title": "L'Appartement", "genre_ids": [18, 9648, 10749], "backdrop_path": "/64qyT8m4JQ6YODvXxtbHgKmXBX7.jpg", "adult": false, "overview": "A stylish suspense thriller that confounds the audience while presenting them with an extraordinary and elusive mystery. Max is a former playboy who has decided to settle down by marrying his current love, Muriel. However, during a business trip, Max catches a glimpse of the great lost love of his life, reviving his wanderlust and sending him off on a chase of the elusive Lisa, whom he had overheard suggesting to a friend that her lover, Daniel, had killed someone for her. Soon, Max is trying to unravel the mystery behind the suspicious death of Daniel's wife, which he hopes will lead him closer to Lisa.", "poster_path": "/1sqrQdQTn8jKLhUcPKfRVj639zA.jpg", "popularity": 21.259}, {"adult": false, "backdrop_path": "/xC9cG6Wy6QbH2hoAx11xPPD995R.jpg", "genre_ids": [18, 10749], "id": 86331, "original_language": "fr", "original_title": "Q", "overview": "In a social context deteriorated by a countrywide economic crisis, the life of several people will be turned upside down after they meet Cecile, a character who symbolizes desire.", "poster_path": "/9Jg9s4yTEndNmy1SSXRF9jdxY9D.jpg", "release_date": "2011-09-14", "title": "Desire", "video": false, "vote_average": 4.7, "vote_count": 204, "popularity": 30.344}, {"adult": false, "backdrop_path": "/98ahnrena4PwLth7HFYGLf9yssH.jpg", "genre_ids": [35, 18, 10749], "id": 22705, "original_language": "it", "original_title": "Tra(sgre)dire", "overview": "While scouting out apartments in London for her Venetian boyfriend, Carla rents an apartment that overlooks the Thames. There she meet the lesbian hyper-horny real estate agent Moira.", "poster_path": "/kZITrLEiTfzzJhtwtXhQUl3ImCQ.jpg", "release_date": "2000-01-28", "title": "Cheeky", "video": false, "vote_average": 5.7, "vote_count": 92, "popularity": 32.727}, {"id": 10995, "video": false, "vote_count": 255, "vote_average": 6.6, "title": "The Lover", "release_date": "1992-02-22", "original_language": "fr", "original_title": "L'Amant", "genre_ids": [18, 10749], "backdrop_path": "/zRAgf1F0rRp0Tys8AnMWGBFJRZv.jpg", "adult": false, "overview": "A poor French teenage girl engages in an illicit affair with a wealthy Chinese heir in 1920s Saigon. For the first time in her young life she has control, and she wields it deftly over her besotted lover throughout a series of clandestine meetings and torrid encounters.", "poster_path": "/iey1UA4hav2cn60qGi1zgKxpPBl.jpg", "popularity": 12.739}, {"adult": false, "backdrop_path": "/xOGEw8iywxcFMolV6SF6YdTdJTb.jpg", "genre_ids": [10402, 10749], "id": 52371, "original_language": "nl", "original_title": "LelleBelle", "overview": "19-year old Belle practices playing the violin diligently, but is unable to impart her music with a sensitive undertone. Her life changes when she discovers that sexual desire stimulates passion in her music.", "poster_path": "/nJVPgIq3icZMQ26p5uWIFdUZJfL.jpg", "release_date": "2010-10-08", "title": "LelleBelle", "video": false, "vote_average": 4.7, "vote_count": 41, "popularity": 13.931}, {"id": 1791, "video": false, "vote_count": 468, "vote_average": 7.4, "title": "The Piano Teacher", "release_date": "2001-07-21", "original_language": "fr", "original_title": "La Pianiste", "genre_ids": [18, 10749], "backdrop_path": "/mNXNFlZXeJYSqTGIiweEaMxGYfO.jpg", "adult": false, "overview": "Erika Kohut, a sexually repressed piano teacher living with her domineering mother, meets a young man who starts romantically pursuing her.", "poster_path": "/ln8Ip9Etw4jxzxSuXSTwFqsfsSY.jpg", "popularity": 18.684}, {"adult": false, "backdrop_path": "/a0UYovVNPVfWILYT7TzD10xBX3q.jpg", "genre_ids": [18, 53, 80, 9648], "id": 979, "original_language": "fr", "original_title": "Irr\u00e9versible", "overview": "Events over the course of one traumatic night in Paris unfold in reverse-chronological order as the beautiful Alex is brutally raped and beaten by a stranger in the underpass. Her boyfriend and ex-lover take matters into their own hands by hiring two criminals to help them find the rapist so that they can exact revenge. A simultaneously beautiful and terrible examination of the destructive nature of cause and effect, and how time destroys everything.", "poster_path": "/rxeDxo8FvZpLu6iplNpxdtAVnfu.jpg", "release_date": "2002-05-22", "title": "Irreversible", "video": false, "vote_average": 7.1, "vote_count": 1215, "popularity": 18.102}, {"adult": false, "backdrop_path": "/275ywEHPVfW47kJXiRDQgYM5ax9.jpg", "genre_ids": [18, 9648], "id": 9777, "original_language": "en", "original_title": "Proof", "overview": "Catherine is a woman in her late twenties who is strongly devoted to her father, Robert, a brilliant and well-known mathematician whose grip on reality is beginning to slip away. As Robert descends into madness, Catherine begins to wonder if she may have inherited her father\u2019s mental illness along with his mathematical genius. When Robert\u2019s work reveals a mathematical proof of potentially historic proportions, it sets off shock waves in more ways than one.", "poster_path": "/eGVCVdbUR4gaAKPk1P4mar91qSX.jpg", "release_date": "2005-09-05", "title": "Proof", "video": false, "vote_average": 6.4, "vote_count": 379, "popularity": 9.326}, {"id": 14174, "video": false, "vote_count": 124, "vote_average": 5.4, "title": "Lie with Me", "release_date": "2005-09-10", "original_language": "en", "original_title": "Lie with Me", "genre_ids": [18], "backdrop_path": "/zqHLgJUIoTMQF279PASkHrNi4za.jpg", "adult": false, "overview": "Happily unattached, the sexually voracious Leila satisfies her desires with a host of rapidly changing bed partners, unconcerned about the emotional consequences. But that all changes when she meets an artist looking for a deeper commitment.", "poster_path": "/uBHoL4nUPYLxx3NaGf70NqP4JkN.jpg", "popularity": 17.205}, {"adult": false, "backdrop_path": "/bYbnlh6VXFRtcSX82UMDsBDLB5j.jpg", "genre_ids": [18, 10749], "id": 28468, "original_language": "it", "original_title": "La chiave", "overview": "After twenty years of marriage, art professor Nino Rolfe attempts to break down his wife Teresa's conventional modesty. Noticing her affection for their daughter's fianc\u00e9, Nino instigates her sexual interest in him as well. This sets off a chain of unexpected events and emotional complications, as Nino and his unpredictable fascist daughter find that they both enjoy being jealous.", "poster_path": "/e6g2geNLgFzMbriH6EvSJZD78nx.jpg", "release_date": "1983-10-18", "title": "The Key", "video": false, "vote_average": 5.0, "vote_count": 128, "popularity": 19.088}, {"adult": false, "backdrop_path": "/a8xpxCnvqKyshdrDNFGs6oy4r8N.jpg", "genre_ids": [18, 10749], "id": 1278, "original_language": "en", "original_title": "The Dreamers", "overview": "A young American studying in Paris in 1968 strikes up a friendship with a French brother and sister. Set against the background of the '68 Paris student riots.", "poster_path": "/7ABcfmXQZeCXl5sNrDuLS1URMPN.jpg", "release_date": "2003-09-01", "title": "The Dreamers", "video": false, "vote_average": 7.2, "vote_count": 1670, "popularity": 19.315}, {"adult": false, "backdrop_path": "/gZeJziVigmRqbkEZwKAtSqlLQ6s.jpg", "genre_ids": [18, 10749], "id": 370663, "original_language": "en", "original_title": "Below Her Mouth", "overview": "An unexpected affair quickly escalates into a heart-stopping reality for two women whose passionate connection changes their lives forever.", "poster_path": "/nTGbq37hYLuNy7YgMg0gVLma0NS.jpg", "release_date": "2016-09-10", "title": "Below Her Mouth", "video": false, "vote_average": 6.2, "vote_count": 456, "popularity": 22.676}, {"id": 449176, "video": false, "vote_count": 3690, "vote_average": 8.1, "title": "Love, Simon", "release_date": "2018-02-16", "original_language": "en", "original_title": "Love, Simon", "genre_ids": [35, 18, 10749], "backdrop_path": "/rqMEeajyzSF4PpJtdCB816Iz8Vr.jpg", "adult": false, "overview": "Everyone deserves a great love story. But for seventeen-year old Simon Spier it's a little more complicated: he's yet to tell his family or friends he's gay and he doesn't know the identity of the anonymous classmate he's fallen for online.", "poster_path": "/5YUYg5q7QfC4IoNwNUtiwdiYKPr.jpg", "popularity": 24.849}, {"adult": false, "backdrop_path": "/uC54rlRdLMZ46fnrz5SoVYleNyv.jpg", "genre_ids": [18], "id": 4995, "original_language": "en", "original_title": "Boogie Nights", "overview": "Set in 1977, back when sex was safe, pleasure was a business and business was booming, idealistic porn producer Jack Horner aspires to elevate his craft to an art form. Horner discovers Eddie Adams, a hot young talent working as a busboy in a nightclub, and welcomes him into the extended family of movie-makers, misfits and hangers-on that are always around. Adams' rise from nobody to a celebrity adult entertainer is meteoric, and soon the whole world seems to know his porn alter ego, \"Dirk Diggler\". Now, when disco and drugs are in vogue, fashion is in flux and the party never seems to stop, Adams' dreams of turning sex into stardom are about to collide with cold, hard reality.", "poster_path": "/gTq6MPt7SeMiJ2miHeMoNEZTz4p.jpg", "release_date": "1997-10-07", "title": "Boogie Nights", "video": false, "vote_average": 7.6, "vote_count": 1659, "popularity": 21.748}, {"id": 290098, "video": false, "vote_count": 1505, "vote_average": 8.3, "title": "The Handmaiden", "release_date": "2016-06-01", "original_language": "ko", "original_title": "\uc544\uac00\uc528", "genre_ids": [18, 53, 10749], "backdrop_path": "/keQhqxE9i7wNQIM3W5B0iLnjaHW.jpg", "adult": false, "overview": "1930s Korea, in the period of Japanese occupation, a young woman is hired as a handmaiden to a Japanese heiress who lives a secluded life on a large countryside estate with her domineering uncle. But, the maid has a secret: she is a pickpocket recruited by a swindler posing as a Japanese count to help him seduce the heiress to elope with him, rob her of her fortune, and lock her up in a madhouse. The plan seems to proceed according to plan until the women discover some unexpected emotions.", "poster_path": "/cw1BvSDk4wyHHpVStj4t82pAvq7.jpg", "popularity": 27.614}, {"adult": false, "backdrop_path": "/avhG8fITuG78IkKPk28CcBBHPOp.jpg", "genre_ids": [35, 18], "id": 112160, "original_language": "fr", "original_title": "Chroniques sexuelles d'une famille d'aujourd'hui", "overview": "Three generations of a French family open up about their sexual experiences and desires after young Romain is caught masturbating in his biology class.", "poster_path": "/pU2nD3Llaz3Taq5FAaQUg00uJYD.jpg", "release_date": "2012-05-09", "title": "Sexual Chronicles of a French Family", "video": false, "vote_average": 4.4, "vote_count": 169, "popularity": 29.133}, {"adult": false, "backdrop_path": "/yIszPJawrrp6zcb62d7XJnaxAmw.jpg", "genre_ids": [18], "id": 13078, "original_language": "en", "original_title": "The Babysitters", "overview": "Seventeen-year-old Shirley is a good student who works as a babysitter in order to make money for college. One night Michael, a father Shirley works for, confesses he's unhappy with married life. Shirley has a crush on Michael, and seizes this moment to kiss him. Michael is so happy he presents Shirley with a big tip, which gives her an idea. Shirley plans to make extra money by setting up her teenage friends with other unhappy fathers.", "poster_path": "/nsrNUqGXI95unRKZEu8BJ584xWn.jpg", "release_date": "2007-09-11", "title": "The Babysitters", "video": false, "vote_average": 5.3, "vote_count": 153, "popularity": 16.136}, {"adult": false, "backdrop_path": "/iN6pzLHcFBWbI2Vh96nd7B2xNNr.jpg", "genre_ids": [35, 18, 10749], "id": 16980, "original_language": "en", "original_title": "The Last Days of Disco", "overview": "Two young women and their friends spend spare time at an exclusive nightclub in 1980s New York.", "poster_path": "/h4xnwIVcbhSAuD6rr1E1JwS4NMx.jpg", "release_date": "1998-05-29", "title": "The Last Days of Disco", "video": false, "vote_average": 6.6, "vote_count": 88, "popularity": 9.779}, {"id": 179144, "video": false, "vote_count": 1725, "vote_average": 7.5, "title": "The Great Beauty", "release_date": "2013-05-21", "original_language": "it", "original_title": "La grande bellezza", "genre_ids": [18], "backdrop_path": "/BvJAJuAnIooQQGzRdFTY9Oy6Wj.jpg", "adult": false, "overview": "Jep Gambardella has seduced his way through the lavish nightlife of Rome for decades, but after his 65th birthday and a shock from the past, Jep looks past the nightclubs and parties to find a timeless landscape of absurd, exquisite beauty.", "poster_path": "/nDBRRkZgaGhJw91wdcUFYwWIbFF.jpg", "popularity": 15.865}], "total_pages": 236, "total_results": 4719}, "recommendations": {"page": 1, "results": [], "total_pages": 1, "total_results": 0}, "credits": {"cast": [{"cast_id": 1, "character": "Joey", "credit_id": "52fe4bd9c3a36847f821673b", "gender": 2, "id": 1771, "name": "Giovanni Ribisi", "order": 0, "profile_path": "/mLQrEU7X7GD5V7i1clGRqpg8PVk.jpg"}, {"cast_id": 2, "character": "Sissel", "credit_id": "52fe4bd9c3a36847f821673f", "gender": 1, "id": 3270, "name": "Natasha Gregson Wagner", "order": 1, "profile_path": "/g4k8hwH33fbFbCJGzaV57YujCvV.jpg"}, {"cast_id": 4, "character": "Red", "credit_id": "52fe4bd9c3a36847f8216749", "gender": 2, "id": 10825, "name": "Donal Logue", "order": 2, "profile_path": "/h0JZ8Hyc9p6sY2jQeJkDcax6UY3.jpg"}, {"cast_id": 5, "character": "Henry", "credit_id": "52fe4bd9c3a36847f821674d", "gender": 2, "id": 31512, "name": "Robert John Burke", "order": 3, "profile_path": "/ctVRWqY0KfSBIpaGulJMbhyE3jy.jpg"}, {"cast_id": 8, "character": "Sissel's Mom", "credit_id": "53d3c8660e0a26283b001de5", "gender": 1, "id": 2842, "name": "Jeannetta Arnette", "order": 4, "profile_path": "/uVaqZLhpTh5OmJDFSv7wim63sV1.jpg"}, {"cast_id": 7, "character": "Adrian", "credit_id": "52fe4bd9c3a36847f8216755", "gender": 2, "id": 116027, "name": "Eli Marienthal", "order": 5, "profile_path": "/eK4kfRpE12lCoCamBJWyHfWDDbq.jpg"}], "crew": [{"credit_id": "52fe4bd9c3a36847f8216745", "department": "Directing", "gender": 2, "id": 130816, "job": "Director", "name": "Jesse Peretz", "profile_path": "/1oLwXu3xXFzcaMv1hMRb8rrngbn.jpg"}, {"credit_id": "547defcb9251412d78005b29", "department": "Writing", "gender": 2, "id": 36589, "job": "Story", "name": "Ian McEwan", "profile_path": null}, {"credit_id": "547defd99251412d7f005d8f", "department": "Writing", "gender": 0, "id": 78550, "job": "Screenplay", "name": "David Ryan", "profile_path": null}, {"credit_id": "5d2a5ecfa294f00c172cd86d", "department": "Editing", "gender": 2, "id": 17234, "job": "Editor", "name": "James Lyons", "profile_path": "/eYepgw281zZrf4OTOXdnMS8cabh.jpg"}]}}