{"adult": false, "backdrop_path": "/qzhpPUG2gQDTkdTfXSED7ZaZX5F.jpg", "belongs_to_collection": null, "budget": 0, "genres": [{"id": 10749, "name": "Romance"}], "homepage": null, "id": 118731, "imdb_id": "tt0022614", "original_language": "en", "original_title": "The Age of Consent", "overview": "College co-eds struggle with the moral, societal and human aspects of romance.", "popularity": 1.733, "poster_path": "/6yw81zCGrIlqLtQ9xk2oBToQbMp.jpg", "production_companies": [{"id": 6, "logo_path": "/n53F7K9scQWFXYbrCablqLKqJdp.png", "name": "RKO Radio Pictures", "origin_country": "US"}], "production_countries": [{"iso_3166_1": "US", "name": "United States of America"}], "release_date": "1932-08-19", "revenue": 0, "runtime": 63, "spoken_languages": [{"iso_639_1": "en", "name": "English"}], "status": "Released", "tagline": "A nice car is like a hotel, but better\u2013 \u201cYou don\u2019t have to register!\u201d", "title": "The Age of Consent", "video": false, "vote_average": 5.7, "vote_count": 3, "keywords": {"keywords": [{"id": 3616, "name": "college"}, {"id": 156764, "name": "pre-code"}, {"id": 243665, "name": "premarital sex"}]}, "similar": {"page": 1, "results": [{"id": 325133, "video": false, "vote_count": 3095, "vote_average": 5.7, "title": "Neighbors 2: Sorority Rising", "release_date": "2016-05-04", "original_language": "en", "original_title": "Neighbors 2: Sorority Rising", "genre_ids": [35], "backdrop_path": "/8HuO1RMDI3prfWDkF7t1y8EhLVO.jpg", "adult": false, "overview": "A sorority moves in next door to the home of Mac and Kelly Radner who have a young child. The Radner's enlist their former nemeses from the fraternity to help battle the raucous sisters.", "poster_path": "/bWUeJHbKIyT306WtJFRHoSzX9nk.jpg", "popularity": 21.985}, {"adult": false, "backdrop_path": "/d2pbvJkNAunv2NI7RYU1ejqZN7Z.jpg", "genre_ids": [10749, 35], "id": 12620, "original_language": "en", "original_title": "The House Bunny", "overview": "Shelley is living a carefree life until a rival gets her tossed out of the Playboy Mansion. With nowhere to go, fate delivers her to the sorority girls from Zeta Alpha Zeta. Unless they can sign a new pledge class, the seven socially clueless women will lose their house to the scheming girls of Phi Iota Mu. In order to accomplish their goal, they need Shelley to teach them the ways of makeup and men; at the same time, Shelley needs some of what the Zetas have - a sense of individuality. The combination leads all the girls to learn how to stop pretending and start being themselves.", "poster_path": "/r4QlWdvduWGJdiGlYiwIsDC1kPu.jpg", "release_date": "2008-08-22", "title": "The House Bunny", "video": false, "vote_average": 5.6, "vote_count": 1226, "popularity": 16.043}, {"adult": false, "backdrop_path": "/txR74Uy6sYbUv4HQURQXNF8LXTf.jpg", "genre_ids": [35], "id": 8277, "original_language": "en", "original_title": "American Pie Presents: Beta House", "overview": "Erik, Ryan, and Cooze start college and pledge the Beta House fraternity, presided over by none other than legendary Dwight Stifler. But chaos ensues when a fraternity of geeks threatens to stop the debauchery and the Betas have to make a stand for their right to party.", "poster_path": "/xJeYprcFqBfov6dUpjJIxDeaZJr.jpg", "release_date": "2007-12-10", "title": "American Pie Presents: Beta House", "video": false, "vote_average": 5.5, "vote_count": 1087, "popularity": 17.901}, {"adult": false, "backdrop_path": "/ePqwTIoJeKJwShMABMst5duBcw9.jpg", "genre_ids": [35, 10402, 10749], "id": 114150, "original_language": "en", "original_title": "Pitch Perfect", "overview": "College student Beca knows she does not want to be part of a clique, but that's exactly where she finds herself after arriving at her new school. Thrust in among mean gals, nice gals and just plain weird gals, Beca finds that the only thing they have in common is how well they sing together. She takes the women of the group out of their comfort zone of traditional arrangements and into a world of amazing harmonic combinations in a fight to the top of college music competitions.", "poster_path": "/cLUMPdwCV0Dxd3P1ZkCXe7bVImI.jpg", "release_date": "2012-09-28", "title": "Pitch Perfect", "video": false, "vote_average": 7.3, "vote_count": 4621, "popularity": 21.153}, {"id": 58431, "video": false, "vote_count": 1300, "vote_average": 5.8, "title": "Pride and Prejudice and Zombies", "release_date": "2016-02-04", "original_language": "en", "original_title": "Pride and Prejudice and Zombies", "genre_ids": [35, 27, 53, 10749], "backdrop_path": "/z6gSLTHsAgqlOwID8jMHfFgeufS.jpg", "adult": false, "overview": "A zombie outbreak has fallen upon the land in this reimagining of Jane Austen\u2019s classic tale of the tangled relationships between lovers from different social classes in 19th century England. Feisty heroine Elizabeth Bennet (Lily James) is a master of martial arts and weaponry and the handsome Mr. Darcy (Sam Riley) is a fierce zombie killer, yet the epitome of upper class prejudice. As the zombie outbreak intensifies, they must swallow their pride and join forces on the blood-soaked battlefield in order to conquer the undead once and for all.", "poster_path": "/jsJlOhVHiz1xXr36616EI8tJ4b2.jpg", "popularity": 15.305}, {"id": 3035, "video": false, "vote_count": 715, "vote_average": 7.5, "title": "Frankenstein", "release_date": "1931-11-21", "original_language": "en", "original_title": "Frankenstein", "genre_ids": [18, 27, 878], "backdrop_path": "/nwmG8pQQ1xFAPZruYNnrnld2KMC.jpg", "adult": false, "overview": "Dr Henry Frankenstein is obsessed with assembling a living being from parts of several exhumed corpses.", "poster_path": "/wB58wlBAr6484Wm6VyFDqSD8VOJ.jpg", "popularity": 24.454}, {"id": 8275, "video": false, "vote_count": 1172, "vote_average": 5.4, "title": "American Pie Presents: The Naked Mile", "release_date": "2006-12-07", "original_language": "en", "original_title": "American Pie Presents: The Naked Mile", "genre_ids": [35], "backdrop_path": "/pOGdj63Szvtyf1nYa5h8hZ1vDFm.jpg", "adult": false, "overview": "The movie will shift its focus on Erik Stifler, the cousin of Matt and Steve, a youngster who is nothing like his wild relations. Peer pressure starts to turn him to live up to the legacy of the other Stiflers when he attends the Naked Mile, a naked run across the college campus. Things get worse when he finds that his cousin Dwight is the life of the party down at the campus", "poster_path": "/uIqZ7Pt0xMAcQAXUc2nziZc4T47.jpg", "popularity": 23.649}, {"id": 5559, "video": false, "vote_count": 2864, "vote_average": 5.9, "title": "Bee Movie", "release_date": "2007-10-28", "original_language": "en", "original_title": "Bee Movie", "genre_ids": [12, 16, 35, 10751], "backdrop_path": "/2lBpQZevIJdL4vPrZ7Nnm7mrVlm.jpg", "adult": false, "overview": "Barry B. Benson, a bee who has just graduated from college, is disillusioned at his lone career choice: making honey. On a special trip outside the hive, Barry's life is saved by Vanessa, a florist in New York City. As their relationship blossoms, he discovers humans actually eat honey, and subsequently decides to sue us.", "poster_path": "/QhbOzpYfBOwrRiuTu9otPk919R.jpg", "popularity": 19.912}, {"id": 37247, "video": false, "vote_count": 1748, "vote_average": 7.7, "title": "The Graduate", "release_date": "1967-12-21", "original_language": "en", "original_title": "The Graduate", "genre_ids": [35, 18], "backdrop_path": "/sEWKMIlgUCCb2n5mT0Mf71DRKLR.jpg", "adult": false, "overview": "Benjamin, a recent college graduate very worried about his future, finds himself in a love triangle with an older woman and her daughter.", "poster_path": "/qtVvdSsm2hvau6ItLe4gWdFKe2M.jpg", "popularity": 15.974}, {"adult": false, "backdrop_path": "/anApKvoqZgMIdsVtadQvylcGrkf.jpg", "genre_ids": [35], "id": 195589, "original_language": "en", "original_title": "Neighbors", "overview": "A couple with a newborn baby face unexpected difficulties after they are forced to live next to a fraternity house.", "poster_path": "/bpj8myebvnTw5HDmzTSI8N6WFYr.jpg", "release_date": "2014-05-08", "title": "Neighbors", "video": false, "vote_average": 6.2, "vote_count": 4900, "popularity": 15.138}, {"id": 10193, "video": false, "vote_count": 9503, "vote_average": 7.8, "title": "Toy Story 3", "release_date": "2010-06-16", "original_language": "en", "original_title": "Toy Story 3", "genre_ids": [16, 35, 10751], "backdrop_path": "/y2qAjM37QgatWeG84DDtwsZuMW.jpg", "adult": false, "overview": "Woody, Buzz, and the rest of Andy's toys haven't been played with in years. With Andy about to go to college, the gang find themselves accidentally left at a nefarious day care center. The toys must band together to escape and return home to Andy.", "poster_path": "/mMltbSxwEdNE4Cv8QYLpzkHWTDo.jpg", "popularity": 24.861}, {"id": 512196, "video": false, "vote_count": 1562, "vote_average": 6.2, "title": "Happy Death Day 2U", "release_date": "2019-02-13", "original_language": "en", "original_title": "Happy Death Day 2U", "genre_ids": [35, 27, 878], "backdrop_path": "/3KdQh3EsjXBSojVydtBQEh5TdAG.jpg", "adult": false, "overview": "Collegian Tree Gelbman wakes up in horror to learn that she's stuck in a parallel universe. Her boyfriend Carter is now with someone else, and her friends and fellow students seem to be completely different versions of themselves. When Tree discovers that Carter's roommate has been altering time, she finds herself once again the target of a masked killer. When the psychopath starts to go after her inner circle, Tree soon realizes that she must die over and over again to save everyone.", "poster_path": "/4tdnePOkOOzwuGPEOAHp8UA4vqx.jpg", "popularity": 24.702}, {"id": 440021, "video": false, "vote_count": 3796, "vote_average": 6.6, "title": "Happy Death Day", "release_date": "2017-10-12", "original_language": "en", "original_title": "Happy Death Day", "genre_ids": [27, 9648, 53], "backdrop_path": "/9bjHAkyi3aRRnfrIGhHPu7RATPR.jpg", "adult": false, "overview": "Caught in a bizarre and terrifying time warp, college student Tree finds herself repeatedly reliving the day of her murder, ultimately realizing that she must identify the killer and the reason for her death before her chances of survival run out.", "poster_path": "/cTaEIUYTt52ooq9quVbAQ7NpGwo.jpg", "popularity": 18.479}, {"id": 8065, "video": false, "vote_count": 2681, "vote_average": 6.6, "title": "21", "release_date": "2008-03-27", "original_language": "en", "original_title": "21", "genre_ids": [80, 18], "backdrop_path": "/3quapHSlorOsbkh0b6IgyCGIBni.jpg", "adult": false, "overview": "Ben Campbell is a young, highly intelligent, student at M.I.T. in Boston who strives to succeed. Wanting a scholarship to transfer to Harvard School of Medicine with the desire to become a doctor, Ben learns that he cannot afford the $300,000 for the four to five years of schooling as he comes from a poor, working-class background. But one evening, Ben is introduced by his unorthodox math professor Micky Rosa into a small but secretive club of five. Students Jill, Choi, Kianna, and Fisher, who are being trained by Professor Rosa of the skill of card counting at blackjack.", "poster_path": "/4zKAgycQDJD2zIkmPYV3aMR8tEy.jpg", "popularity": 18.56}, {"adult": false, "backdrop_path": "/5mDCKKS7M8aUZKdShnCa7lLbzmH.jpg", "genre_ids": [16, 10751], "id": 62211, "original_language": "en", "original_title": "Monsters University", "overview": "A look at the relationship between Mike and Sulley during their days at Monsters University \u2014 when they weren't necessarily the best of friends.", "poster_path": "/a05xQU9huY3P5uurLcGGHmsf2Vh.jpg", "release_date": "2013-06-20", "title": "Monsters University", "video": false, "vote_average": 7.0, "vote_count": 6942, "popularity": 21.2}, {"adult": false, "backdrop_path": "/yEqrCU3hAvoiwC0y4CuJq3v4KoG.jpg", "genre_ids": [27, 53], "id": 368031, "original_language": "en", "original_title": "Unfriend", "overview": "Enjoying college life as a popular student, Laura shares everything with her more  than 800 friends on Facebook. But one day, after accepting a friend request from a  social outcast named Marina, Laura\u2019s life is cursed...", "poster_path": "/8sc2FXCczMd4lb8j5YiT0S6aQiO.jpg", "release_date": "2016-01-07", "title": "Friend Request", "video": false, "vote_average": 5.5, "vote_count": 860, "popularity": 15.056}, {"adult": false, "backdrop_path": "/vXT5Gw09k99o9XXqqxBPz9NKgsa.jpg", "genre_ids": [35, 12], "id": 9285, "original_language": "en", "original_title": "Road Trip", "overview": "Four friends take off on an 1800 mile road trip to retrieve an illicit tape mistakenly mailed to a girl friend.", "poster_path": "/DCoZVnHVvtKTYwfM00dfVRbfUQ.jpg", "release_date": "2000-05-19", "title": "Road Trip", "video": false, "vote_average": 6.0, "vote_count": 1017, "popularity": 15.814}, {"adult": false, "backdrop_path": "/rH6NsvJg5hYyRigUZhOWDiahUPV.jpg", "genre_ids": [27, 53], "id": 9877, "original_language": "en", "original_title": "Urban Legend", "overview": "There's a campus killer on the loose who's making urban legends, like the one about eating pop rocks and soda at the same time will make your stomach explode and the one about a psycho with an axe stepping into the backseat of your car at the gas station when not looking, into reality.", "poster_path": "/2oIf0ibr0zlhuhgbOwFSHimh7P6.jpg", "release_date": "1998-09-25", "title": "Urban Legend", "video": false, "vote_average": 5.7, "vote_count": 633, "popularity": 8.825}, {"adult": false, "backdrop_path": "/4UIjazRJV5Q2D7gYg9NS1BGiFdU.jpg", "genre_ids": [80, 18, 53, 9648], "id": 1073, "original_language": "en", "original_title": "Arlington Road", "overview": "Threats from sinister foreign nationals aren't the only thing to fear. Bedraggled college professor Michael Faraday has been vexed (and increasingly paranoid) since his wife's accidental death in a botched FBI operation. But all that takes a backseat when a seemingly all-American couple set up house next door.", "poster_path": "/jMwDRI4qu5FrSAzf7BfNveuRVf9.jpg", "release_date": "1999-03-19", "title": "Arlington Road", "video": false, "vote_average": 7.1, "vote_count": 521, "popularity": 9.656}, {"adult": false, "backdrop_path": "/j7hS3yybvvAd9V217IkZSOjkOvY.jpg", "genre_ids": [18, 28, 53, 80], "id": 832, "original_language": "de", "original_title": "M - Eine Stadt sucht einen M\u00f6rder", "overview": "In this classic German thriller, Hans Beckert, a serial killer who preys on children, becomes the focus of a massive Berlin police manhunt. Beckert's heinous crimes are so repellant and disruptive to city life that he is even targeted by others in the seedy underworld network. With both cops and criminals in pursuit, the murderer soon realizes that people are on his trail, sending him into a tense, panicked attempt to escape justice.", "poster_path": "/AqE126KXLcT3wwmeM3HtlKqyGze.jpg", "release_date": "1931-05-11", "title": "M", "video": false, "vote_average": 8.1, "vote_count": 999, "popularity": 14.976}], "total_pages": 72, "total_results": 1439}, "recommendations": {"page": 1, "results": [], "total_pages": 1, "total_results": 0}, "credits": {"cast": [{"cast_id": 1, "character": "Betty Cameron", "credit_id": "52fe4be2c3a36847f8217fad", "gender": 1, "id": 145826, "name": "Dorothy Wilson", "order": 0, "profile_path": "/n9ZXfQgCHwFjxwS9JALWHRnyFEt.jpg"}, {"cast_id": 2, "character": "Michael 'Mike' Harvey", "credit_id": "52fe4be3c3a36847f8217fb1", "gender": 2, "id": 20367, "name": "Richard Cromwell", "order": 1, "profile_path": "/20ntcKkXUn0MXhGdyX7DyWCm7kD.jpg"}, {"cast_id": 4, "character": "Dora Swale", "credit_id": "52fe4be3c3a36847f8217fbb", "gender": 1, "id": 90384, "name": "Arline Judge", "order": 2, "profile_path": "/uqKERhIVzA9LraqQ9gi3q8Kmuls.jpg"}, {"cast_id": 5, "character": "Duke Galloway", "credit_id": "52fe4be3c3a36847f8217fbf", "gender": 2, "id": 124853, "name": "Eric Linden", "order": 3, "profile_path": "/wSgntN58MRBPOOT80kcCHZCo3EY.jpg"}, {"cast_id": 6, "character": "Prof. David Mathews", "credit_id": "52fe4be3c3a36847f8217fc3", "gender": 2, "id": 14688, "name": "John Halliday", "order": 4, "profile_path": "/soyfwUQtgcxahcylFig4lG9RvRs.jpg"}, {"cast_id": 7, "character": "Barbara", "credit_id": "52fe4be3c3a36847f8217fc7", "gender": 1, "id": 1041608, "name": "Aileen Pringle", "order": 5, "profile_path": "/rYAwAA7OPxGa6h8zqpCTyLdpcII.jpg"}, {"cast_id": 8, "character": "Mr. Swale", "credit_id": "52fe4be3c3a36847f8217fcb", "gender": 2, "id": 2933, "name": "Reginald Barlow", "order": 6, "profile_path": "/jkVV9ByJd1mftp0k8PU9QR6gIYr.jpg"}, {"cast_id": 13, "character": "Student at Dormitory (uncredited)", "credit_id": "5b14947b0e0a262df4004467", "gender": 1, "id": 64838, "name": "Betty Grable", "order": 7, "profile_path": "/gVQkYy22SpHsZbPb4xyNNORrW6Z.jpg"}], "crew": [{"credit_id": "52fe4be3c3a36847f8217fb7", "department": "Directing", "gender": 2, "id": 74659, "job": "Director", "name": "Gregory La Cava", "profile_path": "/awya0rQhCZ5rLb9LIi4HPHAVEeN.jpg"}, {"credit_id": "57f8547592514125250000e6", "department": "Camera", "gender": 2, "id": 97048, "job": "Director of Photography", "name": "J. Roy Hunt", "profile_path": null}, {"credit_id": "5411c0fb0e0a266637001d4e", "department": "Writing", "gender": 2, "id": 116841, "job": "Theatre Play", "name": "Martin Flavin", "profile_path": null}, {"credit_id": "5411c1120e0a266637001d53", "department": "Writing", "gender": 2, "id": 117047, "job": "Screenplay", "name": "Francis M. Cockrell", "profile_path": null}, {"credit_id": "5411c1070e0a266637001d50", "department": "Writing", "gender": 1, "id": 1012037, "job": "Screenplay", "name": "Sarah Y. Mason", "profile_path": "/j2K8Gq3QUbuTlQzobO9aJKFr3m2.jpg"}, {"credit_id": "5c678db80e0a267de69fb604", "department": "Camera", "gender": 2, "id": 2232960, "job": "Assistant Camera", "name": "Charles Burke", "profile_path": null}, {"credit_id": "5c70e9640e0a262c0f7a154e", "department": "Camera", "gender": 2, "id": 2242305, "job": "Camera Operator", "name": "Eddie Pyle", "profile_path": null}]}}