{"adult": false, "backdrop_path": "/o56mNIVJfWdnXtRTdda2DeJiWNv.jpg", "belongs_to_collection": null, "budget": 0, "genres": [{"id": 10749, "name": "Romance"}, {"id": 18, "name": "Drama"}], "homepage": null, "id": 119687, "imdb_id": "tt0051204", "original_language": "en", "original_title": "Woman in a Dressing Gown", "overview": "A married, middle-aged woman is shocked to discover that her husband, who she thought was content in their marriage, has become infatuated with a beautiful younger woman and is planning to leave his family for her.", "popularity": 1.939, "poster_path": "/gBOR3FwMheSBLyB6WpyJdDS2f9D.jpg", "production_companies": [{"id": 52691, "logo_path": null, "name": "Godwin-Willis", "origin_country": ""}, {"id": 1441, "logo_path": "/28DJnfE2ZaR5oNJVlZ38uvnLaCH.png", "name": "Associated British Picture Corporation", "origin_country": "GB"}], "production_countries": [{"iso_3166_1": "GB", "name": "United Kingdom"}], "release_date": "1957-09-12", "revenue": 0, "runtime": 93, "spoken_languages": [{"iso_639_1": "en", "name": "English"}], "status": "Released", "tagline": "", "title": "Woman in a Dressing Gown", "video": false, "vote_average": 8.1, "vote_count": 5, "keywords": {"keywords": [{"id": 15160, "name": "divorce"}, {"id": 34094, "name": "extramarital affair"}, {"id": 206384, "name": "desertion"}]}, "similar": {"page": 1, "results": [{"adult": false, "backdrop_path": "/ecREZ3vYCqethftSDWK4we0X498.jpg", "genre_ids": [35, 18, 10749], "id": 4507, "original_language": "es", "original_title": "Jam\u00f3n, jam\u00f3n", "overview": "Jose Luis is an executive at his parents underwear factory where his girlfriend Sylvia works on the shop floor. When Sylvia becomes pregnant, Jose Luis promises her that he will marry her, most likely against the wishes of his parents. Jose Luis' mother is determined to break her son's engagement to a girl from a lower-class family, and hires Raul, a potential underwear model and would-be bullfighter to seduce Sylvia.", "poster_path": "/v5Fq01ZtYnA2Grxdd3g8CuGZARg.jpg", "release_date": "1992-09-03", "title": "Jamon Jamon", "video": false, "vote_average": 6.1, "vote_count": 143, "popularity": 13.381}, {"adult": false, "backdrop_path": "/Ao2bnJMmcFepMVw1BUay25tt7TM.jpg", "genre_ids": [18, 10749], "id": 1259, "original_language": "en", "original_title": "Notes on a Scandal", "overview": "A veteran high school teacher befriends a younger art teacher, who is having an affair with one of her 15-year-old students. However, her intentions with this new \"friend\" also go well beyond platonic friendship.", "poster_path": "/lXZa1mHZ8eD0VOpNaLfvM9tSpAj.jpg", "release_date": "2006-12-25", "title": "Notes on a Scandal", "video": false, "vote_average": 7.1, "vote_count": 463, "popularity": 12.753}, {"adult": false, "backdrop_path": "/bYbnlh6VXFRtcSX82UMDsBDLB5j.jpg", "genre_ids": [18, 10749], "id": 28468, "original_language": "it", "original_title": "La chiave", "overview": "After twenty years of marriage, art professor Nino Rolfe attempts to break down his wife Teresa's conventional modesty. Noticing her affection for their daughter's fianc\u00e9, Nino instigates her sexual interest in him as well. This sets off a chain of unexpected events and emotional complications, as Nino and his unpredictable fascist daughter find that they both enjoy being jealous.", "poster_path": "/e6g2geNLgFzMbriH6EvSJZD78nx.jpg", "release_date": "1983-10-18", "title": "The Key", "video": false, "vote_average": 5.0, "vote_count": 128, "popularity": 15.363}, {"adult": false, "backdrop_path": "/fAA0S3rM3o5Sp8TIdS0MvWOGsCQ.jpg", "genre_ids": [18, 10749], "id": 843, "original_language": "cn", "original_title": "\u82b1\u6a23\u5e74\u83ef", "overview": "Taking place in Hong Kong of 1962, a melancholy story about the love between a woman and a man who live in the same building and one day find out that their husband and wife had an affair with each other.", "poster_path": "/unOW3SxFxBdd7LMWjmRONdHWKPb.jpg", "release_date": "2000-05-22", "title": "In the Mood for Love", "video": false, "vote_average": 8.1, "vote_count": 963, "popularity": 21.272}, {"adult": false, "backdrop_path": "/zPUzsnEFPkEhhcQJpwLK29pgTgW.jpg", "genre_ids": [10402, 35, 10749], "id": 9716, "original_language": "en", "original_title": "Everyone Says I Love You", "overview": "A New York girl sets her father up with a beautiful woman in a shaky marriage while her half sister gets engaged.", "poster_path": "/eCw5qDE5Jw1B9Cuzs8DJD4uwaZV.jpg", "release_date": "1996-12-06", "title": "Everyone Says I Love You", "video": false, "vote_average": 6.5, "vote_count": 323, "popularity": 11.859}, {"id": 1440, "video": false, "vote_count": 459, "vote_average": 7.3, "title": "Little Children", "release_date": "2006-10-06", "original_language": "en", "original_title": "Little Children", "genre_ids": [35, 18, 10749], "backdrop_path": "/5RYylTj1WAO0kVoaY0o3wDfZSpg.jpg", "adult": false, "overview": "The lives of two lovelorn spouses from separate marriages, a registered sex offender, and a disgraced ex-police officer intersect as they struggle to resist their vulnerabilities and temptations.", "poster_path": "/225OXhGllrBJ6FWaYyiosxDU1us.jpg", "popularity": 12.499}, {"id": 12102, "video": false, "vote_count": 1128, "vote_average": 7.5, "title": "Kramer vs. Kramer", "release_date": "1979-12-18", "original_language": "en", "original_title": "Kramer vs. Kramer", "genre_ids": [18], "backdrop_path": "/aE33zDunu8FTj76IXqJmHVbcRWg.jpg", "adult": false, "overview": "Ted Kramer is a career man for whom his work comes before his family. His wife Joanna cannot take this anymore, so she decides to leave him. Ted is now faced with the tasks of housekeeping and taking care of himself and their young son Billy.", "poster_path": "/oyYtH37h8rLUxlERoD49losVvlg.jpg", "popularity": 10.452}, {"adult": false, "backdrop_path": "/zA1Tv2C2wXeDSWfn3S8XdElqDFG.jpg", "genre_ids": [35, 18], "id": 37265, "original_language": "it", "original_title": "Cos\u00ec fan tutte", "overview": "Diana is a Roman wife happily married to sympathetic Paolo but she is keen on playing benign games of seduction with other men while resisting the advances of chic lingerie shop owner Silvio. She narrates her adventures to Paolo in order to stimulate their otherwise monotonous sexual life. However, under the influence of her lesbian friend Antonietta and raunchy sister Nadia, Diana starts to move the ongoings further while Paolo is still prone to believing that events narrated by her are merely fantasies.", "poster_path": "/h5xsSUCkXCd0696K5A9hkmgaERE.jpg", "release_date": "1992-02-21", "title": "All Ladies Do It", "video": false, "vote_average": 4.2, "vote_count": 207, "popularity": 9.964}, {"adult": false, "backdrop_path": "/nSiVPE0VAzwCLkb94a0voX2GseN.jpg", "genre_ids": [35, 18, 10749], "id": 258, "original_language": "fr", "original_title": "Domicile conjugal", "overview": "Parisian everyman Antoine Doinel has married his sweetheart Christine Darbon, and the newlyweds have set up a cozy domestic life of selling flowers and giving violin lessons while Antoine fitfully works on his long-gestating novel. As Christine becomes pregnant with the couple's first child, Antoine finds himself enraptured with a young Japanese beauty. The complications change the course of their relationship forever.", "poster_path": "/zyEyzWZlTYQSizZ9UKYa61CHudu.jpg", "release_date": "1970-08-31", "title": "Bed and Board", "video": false, "vote_average": 7.4, "vote_count": 74, "popularity": 8.91}, {"id": 11368, "video": false, "vote_count": 624, "vote_average": 7.4, "title": "Blood Simple", "release_date": "1984-09-07", "original_language": "en", "original_title": "Blood Simple", "genre_ids": [80, 18, 53], "backdrop_path": "/o83uHWyhXgYm6YrMHUE1pqvZJDR.jpg", "adult": false, "overview": "The owner of a seedy small-town Texas bar discovers that one of his employees is having an affair with his wife. A chaotic chain of misunderstandings, lies and mischief ensues after he devises a plot to have them murdered.", "poster_path": "/xz1p33UMrcPPOGP1vzlRwLVR6k0.jpg", "popularity": 10.64}, {"adult": false, "backdrop_path": "/vVK04ayDtN2186jgkCtFjvw8IlN.jpg", "genre_ids": [18, 10749], "id": 4148, "original_language": "en", "original_title": "Revolutionary Road", "overview": "A young couple living in a Connecticut suburb during the mid-1950s struggle to come to terms with their personal problems while trying to raise their two children. Based on a novel by Richard Yates.", "poster_path": "/bnOK1lmdlqdy2HX6IgKx9TQD7Ax.jpg", "release_date": "2008-12-19", "title": "Revolutionary Road", "video": false, "vote_average": 6.9, "vote_count": 2092, "popularity": 19.466}, {"id": 340613, "video": false, "vote_count": 605, "vote_average": 7.2, "title": "The Wife", "release_date": "2018-08-02", "original_language": "en", "original_title": "The Wife", "genre_ids": [18], "backdrop_path": "/jvLrBlzdlJuDZtLunkCCd0eOXSm.jpg", "adult": false, "overview": "A wife questions her life choices as she travels to Stockholm with her husband, where he is slated to receive the Nobel Prize for Literature.", "poster_path": "/d4Qyuy0Ul549f6SOdUqGvIdYKD2.jpg", "popularity": 15.049}, {"id": 12531, "video": false, "vote_count": 91, "vote_average": 6.9, "title": "The Apartment", "release_date": "1996-07-27", "original_language": "fr", "original_title": "L'Appartement", "genre_ids": [18, 9648, 10749], "backdrop_path": "/64qyT8m4JQ6YODvXxtbHgKmXBX7.jpg", "adult": false, "overview": "A stylish suspense thriller that confounds the audience while presenting them with an extraordinary and elusive mystery. Max is a former playboy who has decided to settle down by marrying his current love, Muriel. However, during a business trip, Max catches a glimpse of the great lost love of his life, reviving his wanderlust and sending him off on a chase of the elusive Lisa, whom he had overheard suggesting to a friend that her lover, Daniel, had killed someone for her. Soon, Max is trying to unravel the mystery behind the suspicious death of Daniel's wife, which he hopes will lead him closer to Lisa.", "poster_path": "/1sqrQdQTn8jKLhUcPKfRVj639zA.jpg", "popularity": 19.17}, {"id": 521, "video": false, "vote_count": 1257, "vote_average": 8.0, "title": "Dial M for Murder", "release_date": "1954-05-29", "original_language": "en", "original_title": "Dial M for Murder", "genre_ids": [80, 18, 9648, 53], "backdrop_path": "/jVMlfESb0TJ29w8CUDDofEprMmn.jpg", "adult": false, "overview": "An ex-tennis pro carries out a plot to have his wife murdered after discovering she is having an affair, and assumes she will soon leave him for the other man anyway. When things go wrong, he improvises a new plan\u2014to frame her for murder instead.", "poster_path": "/xrpK1PyckNWmRxU4kZURfaCyboS.jpg", "popularity": 28.336}, {"id": 263472, "video": false, "vote_count": 1669, "vote_average": 5.0, "title": "Knock Knock", "release_date": "2015-06-26", "original_language": "en", "original_title": "Knock Knock", "genre_ids": [18, 53], "backdrop_path": "/gJduaRau3X2oE3xkmjs1FufT2GE.jpg", "adult": false, "overview": "When a devoted husband and father is left home alone for the weekend, two stranded young women unexpectedly knock on his door for help. What starts out as a kind gesture results in a dangerous seduction and a deadly game of cat and mouse.", "poster_path": "/eynMtjBB1fXsB5vsQylVmsDLmvw.jpg", "popularity": 19.205}, {"adult": false, "backdrop_path": "/oT79THuFrcBzrhlf4fiCddwZBCQ.jpg", "genre_ids": [18, 10402, 10749], "id": 69, "original_language": "en", "original_title": "Walk the Line", "overview": "A chronicle of country music legend Johnny Cash's life, from his early days on an Arkansas cotton farm to his rise to fame with Sun Records in Memphis, where he recorded alongside Elvis Presley, Jerry Lee Lewis and Carl Perkins.", "poster_path": "/wdxL3Zyh3O5MIbmsSiZEevJAjtQ.jpg", "release_date": "2005-09-13", "title": "Walk the Line", "video": false, "vote_average": 7.5, "vote_count": 1545, "popularity": 15.437}, {"adult": false, "backdrop_path": "/eHhtUoazdml8CMvzWtpunIyqrZS.jpg", "genre_ids": [18, 53, 10749], "id": 884, "original_language": "en", "original_title": "Crash", "overview": "After getting into a serious car accident, a TV director discovers an underground sub-culture of scarred, omnisexual car-crash victims who use car accidents and the raw sexual energy they produce to try to rejuvenate his sex life with his wife.", "poster_path": "/4PDLGJsS5uVBQlYjLMZ7t85dU0P.jpg", "release_date": "1996-07-17", "title": "Crash", "video": false, "vote_average": 6.5, "vote_count": 438, "popularity": 14.59}, {"id": 14, "video": false, "vote_count": 7295, "vote_average": 8.0, "title": "American Beauty", "release_date": "1999-09-15", "original_language": "en", "original_title": "American Beauty", "genre_ids": [18], "backdrop_path": "/z5J18ByLeOZ68iORfMXmxeFuwyL.jpg", "adult": false, "overview": "Lester Burnham, a depressed suburban father in a mid-life crisis, decides to turn his hectic life around after developing an infatuation with his daughter's attractive friend.", "poster_path": "/or1MP8BZIAjqWYxPdPX724ydKar.jpg", "popularity": 28.789}, {"id": 9753, "video": false, "vote_count": 86, "vote_average": 4.4, "title": "Survival Island", "release_date": "2006-05-05", "original_language": "en", "original_title": "Three", "genre_ids": [12, 18, 27, 9648, 53], "backdrop_path": "/56Yi1X3Kn8Oo1l9avoVYycGgaKi.jpg", "adult": false, "overview": "After a yachting accident, a millionaire and his wife are shipwrecked on a desert island along with their former deckhand, Manuel.", "poster_path": "/dg5gHoU11VYT0vAv5Uon6SHeoDr.jpg", "popularity": 22.163}, {"adult": false, "backdrop_path": "/9zAAR78OTNBZxQYVojDj4pLHOWz.jpg", "genre_ids": [28, 12, 18], "id": 664, "original_language": "en", "original_title": "Twister", "overview": "TV weatherman Bill Harding is trying to get his tornado-hunter wife, Jo, to sign divorce papers so he can marry his girlfriend Melissa. But Mother Nature, in the form of a series of intense storms sweeping across Oklahoma, has other plans. Soon the three have joined the team of stormchasers as they attempt to insert a revolutionary measuring device into the very heart of several extremely violent tornados.", "poster_path": "/tKdDCkmb6obEhWEMLgGUUz5nDNs.jpg", "release_date": "1996-05-10", "title": "Twister", "video": false, "vote_average": 6.3, "vote_count": 1761, "popularity": 20.529}], "total_pages": 132, "total_results": 2632}, "recommendations": {"page": 1, "results": [{"adult": false, "backdrop_path": "/32pHNDlOv4fT33U30KsBJYyiPhq.jpg", "genre_ids": [53, 18, 9648], "id": 116529, "original_language": "en", "original_title": "Snowbound", "overview": "Good and bad characters are stuck in a ski chalet near buried Nazi gold in the Alps.", "poster_path": "/qKH0l85PJnDD0RruMOmbzyOsLsX.jpg", "release_date": "1948-03-23", "title": "Snowbound", "video": false, "vote_average": 6.0, "vote_count": 5, "popularity": 1.961}, {"adult": false, "backdrop_path": null, "genre_ids": [18, 80], "id": 261419, "original_language": "en", "original_title": "No Trees in the Street", "overview": "Based on the play by Ted Willis, the film is set in the years just before World War II, when England hadn't completely dug itself out of the worldwide depression. Melvyn Hayes is featured as an aimless teenager, who tries to escape his squalid surroundings by entering a life of crime.  He falls in with local hoodlum Herbert Lom, who holds the rest of the slum citizens in the grip of fear including Hayes' own family. No Trees in the Street chronicles Hayes' sordid progress from nickel-and-dime thefts to murder.", "poster_path": "/fwzNV3Wlmw7ZHtOp0OQxQAgruzE.jpg", "release_date": "1959-01-01", "title": "No Trees in the Street", "video": false, "vote_average": 6.4, "vote_count": 5, "popularity": 2.482}, {"id": 139118, "video": false, "vote_count": 4, "vote_average": 7.6, "title": "Rotten to the Core", "release_date": "1965-07-14", "original_language": "en", "original_title": "Rotten to the Core", "genre_ids": [35, 80], "backdrop_path": null, "adult": false, "overview": "Rogues Jelly Knight, Scapa Flood, and Lennie the Dip leave prison expecting boss The Duke to have their stash ready to share out. Instead, Duke's girl Sara gives them the news Duke is dead and the money gone on nursing care. They soon discover that Duke is actually running Hope Springs Nature Clinic with the help of most of the local villains. Very strange - and the nearby army camp and Sara's encouragement of Lieutenant Vine would seem to be no coincidence either. Written by Jeremy Perkins", "poster_path": "/dchuHeOqLZdz2RpsACtrvGEo3Qr.jpg", "popularity": 1.769}, {"adult": false, "backdrop_path": null, "genre_ids": [80, 18], "id": 259199, "original_language": "en", "original_title": "The Delavine Affair", "overview": "Peter Reynolds stars as Rex Banner, a newspaperman who makes it his life's mission to track down a vicious gang of thieves. When his informant winds up dead, Rex finds himself framed for murder.", "poster_path": "/6w4BKNsJk4CiRD24SDbSCgB7lAq.jpg", "release_date": "1955-01-03", "title": "The Delavine Affair", "video": false, "vote_average": 5.0, "vote_count": 4, "popularity": 1.698}, {"adult": false, "backdrop_path": null, "genre_ids": [18, 80], "id": 126081, "original_language": "en", "original_title": "House of Secrets", "overview": "Police in Paris recruit an English ship's officer (Michael Craig) to help trap counterfeiters by joining them.", "poster_path": "/5aFx39ElHykCkGCg7cRPYrwqDsR.jpg", "release_date": "1956-10-23", "title": "House of Secrets", "video": false, "vote_average": 6.1, "vote_count": 4, "popularity": 3.124}, {"adult": false, "backdrop_path": "/rbB3GAog3Mb3e7RBEX0ZmqSFCNN.jpg", "genre_ids": [80], "id": 51476, "original_language": "en", "original_title": "Shoot to Kill", "overview": "A gritty crime story involving a newspaper man and crooked politicians.", "poster_path": "/arXUNFgZIBrwxZSxC7OzKDj4yJH.jpg", "release_date": "1947-03-15", "title": "Shoot to Kill", "video": false, "vote_average": 4.3, "vote_count": 9, "popularity": 2.51}, {"adult": false, "backdrop_path": "/7q9v5A2mLUCSPS1bD4y3Z1JRxPt.jpg", "genre_ids": [35], "id": 171296, "original_language": "en", "original_title": "Another Shore", "overview": "A young Irishman comes up with an unusual plan to get the money to emigrate to Tahiti.  One of the Ealing comedies.", "poster_path": "/tq3TQ4shKBuEA2ezVLo86hqgss9.jpg", "release_date": "1948-11-24", "title": "Another Shore", "video": false, "vote_average": 6.3, "vote_count": 3, "popularity": 2.796}, {"id": 65777, "video": false, "vote_count": 11, "vote_average": 6.4, "title": "The October Man", "release_date": "1947-08-28", "original_language": "en", "original_title": "The October Man", "genre_ids": [18, 9648, 53], "backdrop_path": "/jNSd62YYdvUMajHYnty1FVL1Bxu.jpg", "adult": false, "overview": "Jim Ackland, who suffers from a head injury sustained in a bus crash , is the chief suspect in a murder hunt, when a girl that he has just met is found dead on the local common, and he has no alibi for the time she was killed.", "poster_path": "/eTFuxERGL4HFArTtzdss62FboqW.jpg", "popularity": 2.012}, {"id": 249846, "video": false, "vote_count": 5, "vote_average": 5.3, "title": "Lure of the Wilderness", "release_date": "1952-07-16", "original_language": "en", "original_title": "Lure of the Wilderness", "genre_ids": [12, 18, 10749], "backdrop_path": "/2iRec0ZmDVCKSGUkw1o7P1T0Es7.jpg", "adult": false, "overview": "A young girl and her father, who is unjustly accused of murder, seek refuge in a Georgia swamp until they are befriended by a trapper who penetrates the swamp in search of his dog.", "poster_path": "/3OlYzgeQjLfoORi8eDBmEFVPTSC.jpg", "popularity": 3.31}, {"adult": false, "backdrop_path": "/jQc3Wc10fiWfeQ4yAE3jnHjeFLr.jpg", "genre_ids": [35, 18, 10749], "id": 65487, "original_language": "en", "original_title": "Touch and Go", "overview": "Touch and Go (U.S. The Light Touch) is a Technicolor British film comedy, directed by Michael Truman and released by Ealing Studios in 1955", "poster_path": "/edlFxDwpycQtnQULzy3Dl645ydo.jpg", "release_date": "1955-10-02", "title": "Touch and Go", "video": false, "vote_average": 6.5, "vote_count": 5, "popularity": 2.348}, {"adult": false, "backdrop_path": null, "genre_ids": [18, 53, 80], "id": 75060, "original_language": "en", "original_title": "My Brother's Keeper", "overview": "War hero turned villain George Martin escapes from prison, but he is handcuffed to a naive young crook Willie Stannard. After using a clever plan to obtain railway tickets, and with the police, and the press in hot pursuit, George has to find a way of breaking loose from Willie, and to make his escape.", "poster_path": "/zTiSQyTCJrOMxdaJEEhpNSJ02qu.jpg", "release_date": "1948-08-19", "title": "My Brother's Keeper", "video": false, "vote_average": 6.0, "vote_count": 5, "popularity": 1.45}, {"adult": false, "backdrop_path": "/cdxgstMJ82Isjx4Lq1xc3i3onNB.jpg", "genre_ids": [10751, 35], "id": 235239, "original_language": "en", "original_title": "John and Julie", "overview": "The adventures of two children who runaway to London to see the coronation of Queen Elizabeth.", "poster_path": "/525oiAGAnP6ilxCTASDG8mDNET1.jpg", "release_date": "1955-07-26", "title": "John and Julie", "video": false, "vote_average": 5.1, "vote_count": 5, "popularity": 2.394}, {"adult": false, "backdrop_path": "/wgSLPNiz1KvuUD2oKrGNnUlWxOM.jpg", "genre_ids": [27, 80], "id": 34089, "original_language": "en", "original_title": "The Hand", "overview": "During World War II, a group of British soldiers are captured by the Japanese, tortured and their hands are cut off. Years later, a mad killer terrorizes London by cutting off the hands of his victims.", "poster_path": "/6T4qkZlAmFRHkWgzSz8W2Bybzfg.jpg", "release_date": "1960-10-01", "title": "The Hand", "video": false, "vote_average": 4.3, "vote_count": 6, "popularity": 2.012}, {"adult": false, "backdrop_path": null, "genre_ids": [80], "id": 187592, "original_language": "en", "original_title": "Piccadilly Third Stop", "overview": "A playboy tries to recruit a gang, who include an American who needs cash to satisfy his wife's expensive tastes, and an old time expert cracksman, to rob a foreign embassy's safe, but trouble starts when the plan begins to go wrong.", "poster_path": "/tEL4aVEJ5EfxAJGlyipUviFdpLQ.jpg", "release_date": "1960-09-05", "title": "Piccadilly Third Stop", "video": false, "vote_average": 7.6, "vote_count": 4, "popularity": 1.407}, {"adult": false, "backdrop_path": "/3r34lTe81ArIUGNooMpnRwoLiPy.jpg", "genre_ids": [12], "id": 227296, "original_language": "en", "original_title": "Mutiny", "overview": "Early in the War of 1812, Captain James Marshall is commissioned to run the British blockade and fetch an unofficial war loan from France. As first mate, Marshall recruits Ben Waldridge, a cashiered former British Navy captain. Waldridge brings his former gun crew...who begin plotting mutiny as soon as they learn there'll be gold aboard. The gold duly arrives, and with it Waldridge's former sweetheart Leslie, who's fond of a bit of gold herself. Which side is Waldridge really on?", "poster_path": "/lG3REffgYFRLnFbO8YgHdYojjjo.jpg", "release_date": "1952-03-05", "title": "Mutiny", "video": false, "vote_average": 4.3, "vote_count": 5, "popularity": 2.213}, {"adult": false, "backdrop_path": "/mtTBPvS5RiY9k0B0E892w698bsu.jpg", "genre_ids": [18, 36], "id": 68113, "original_language": "en", "original_title": "Eureka Stockade", "overview": "Spectacular account of the infamous Eureka Stockade, and the events leading up to it.", "poster_path": "/lp3YQs0YTwmKhabRdPHSipAm8KW.jpg", "release_date": "1949-01-01", "title": "Eureka Stockade", "video": false, "vote_average": 5.9, "vote_count": 5, "popularity": 3.142}, {"adult": false, "backdrop_path": null, "genre_ids": [18], "id": 175073, "original_language": "en", "original_title": "House of Blackmail", "overview": "A blackmailer is murdered, and the police find that there is a long list of suspects who wanted to see him dead.", "poster_path": "/dSTmJQocjayb3XmnZJME15wNdCL.jpg", "release_date": "1953-07-13", "title": "House of Blackmail", "video": false, "vote_average": 6.0, "vote_count": 4, "popularity": 2.072}, {"adult": false, "backdrop_path": null, "genre_ids": [12], "id": 284765, "original_language": "en", "original_title": "Sea Fury", "overview": "The captain of a tugboat harboured off a Spanish village is lured into a romantic involvement with a young girl at the behest of her father, in the hope of getting his hands on the vessel. Meanwhile, a handsome English sailor, signs on to the boat and before long he and the girl fall for one another. Meanwhile a sinking freighter carrying explosive cargo has to be salvaged....", "poster_path": "/lqL5xk5WRcuY4A6i8sgnNFmg7Ky.jpg", "release_date": "1958-08-26", "title": "Sea Fury", "video": false, "vote_average": 6.3, "vote_count": 4, "popularity": 1.644}, {"adult": false, "backdrop_path": null, "genre_ids": [35], "id": 175126, "original_language": "en", "original_title": "Folly to be Wise", "overview": "A newly-arrived army padre is put in charge of camp entertainment and has the idea of putting on a Brains Trust with local notables. Unfortunately for him, it emerges from a question on the rights and wrongs of marriage that there is more going on between three of the panelists than he wants to know about - though the audience obviously thinks differently.", "poster_path": "/tMG4f7NeLSBKltAqARZAgVTJyGy.jpg", "release_date": "1953-01-09", "title": "Folly to be Wise", "video": false, "vote_average": 7.6, "vote_count": 4, "popularity": 1.803}, {"adult": false, "backdrop_path": "/3AkBjy3sqsvh4MeOKPDfrJj1sXS.jpg", "genre_ids": [80, 18], "id": 93175, "original_language": "en", "original_title": "The Man Who Wouldn't Talk", "overview": "American scientist Dr. Frank Smith is brought to Britain to help the C.I.A. There is a defecting East block scientist they want him to debrief. The commies are less than amused and set Dr. Smith up for a murder.  Zsa Zsa Gabor plays one of the CIA agents.", "poster_path": "/ldmWGZoSzqHds5kA9UnuOASvjId.jpg", "release_date": "1958-01-21", "title": "The Man Who Wouldn't Talk", "video": false, "vote_average": 6.2, "vote_count": 5, "popularity": 2.524}], "total_pages": 2, "total_results": 40}, "credits": {"cast": [{"cast_id": 2, "character": "Georgie Harlow", "credit_id": "550252f592514174f6000427", "gender": 1, "id": 15736, "name": "Sylvia Syms", "order": 1, "profile_path": "/zgwrYcEL7JtnxyL0xRpl06UcufT.jpg"}, {"cast_id": 3, "character": "Jim Preston", "credit_id": "550253019251414ea6001bfc", "gender": 2, "id": 14371, "name": "Anthony Quayle", "order": 2, "profile_path": "/au2nJAa5detncsuS7il5z7StaUh.jpg"}, {"cast_id": 4, "character": "Amy Preston", "credit_id": "5502530ec3a3685ba6003eb3", "gender": 1, "id": 39740, "name": "Yvonne Mitchell", "order": 3, "profile_path": "/6eaSJkwM1QADx6ZabjzSqbkPvs2.jpg"}, {"cast_id": 5, "character": "Brian Preston", "credit_id": "5502531c925141282f00313c", "gender": 2, "id": 126365, "name": "Andrew Ray", "order": 4, "profile_path": "/lSG5E3hZoOgFX9EcUg70npqgSbt.jpg"}, {"cast_id": 6, "character": "Hilda Harper", "credit_id": "550253259251413d9f003d41", "gender": 1, "id": 1172827, "name": "Carole Lesley", "order": 5, "profile_path": "/tMhT0rU1WBKg0Mk3uMIpg3Gb1Un.jpg"}, {"cast_id": 7, "character": "Pawnbroker", "credit_id": "5547c031c3a3680ce600bd9b", "gender": 2, "id": 24340, "name": "Michael Ripper", "order": 6, "profile_path": "/oEFxIrp1uYlkYsbwtnKZu9SJK22.jpg"}, {"cast_id": 8, "character": "Mrs. Williams", "credit_id": "5547c070c3a36816bf004d28", "gender": 1, "id": 1242634, "name": "Nora Gordon", "order": 7, "profile_path": "/eKt5fZXy8XdIpxKXZWtJ0f0ygPO.jpg"}, {"cast_id": 9, "character": "Hair Dresser", "credit_id": "5547c085c3a3680cd700bfd6", "gender": 1, "id": 106628, "name": "Marianne Stone", "order": 8, "profile_path": "/gEBNDVpg7fG8M7w65u16gxYvR7P.jpg"}, {"cast_id": 15, "character": "Wine Merchant", "credit_id": "59dd4f73925141250507c3f4", "gender": 2, "id": 101963, "name": "Harry Locke", "order": 9, "profile_path": "/hA4wSvsN41lS31bQJtTaTgZpn51.jpg"}, {"cast_id": 16, "character": "Manageress", "credit_id": "59dd4f8a92514124eb07d8aa", "gender": 0, "id": 114836, "name": "Olga Lindo", "order": 10, "profile_path": "/e139fCENeRbBEVdsA2cSsyTNx7b.jpg"}, {"cast_id": 17, "character": "Newsboy", "credit_id": "59dd4f9ec3a368624d07b439", "gender": 2, "id": 30188, "name": "Melvyn Hayes", "order": 11, "profile_path": "/4qEhKuR1lrkRfIJbeZRx1lWZcbL.jpg"}], "crew": [{"credit_id": "5547c0c992514108af000024", "department": "Crew", "gender": 2, "id": 7753, "job": "Cinematography", "name": "Gilbert Taylor", "profile_path": "/in9qOKV8kLCTAO1Zlm0S9dzGEke.jpg"}, {"credit_id": "52fe4c09c3a36847f821e7ad", "department": "Directing", "gender": 2, "id": 18669, "job": "Director", "name": "J. Lee Thompson", "profile_path": "/cVHgJwHOh4j7q1tn3vQEcopblrJ.jpg"}, {"credit_id": "5547c0b992514119e0009332", "department": "Production", "gender": 2, "id": 18669, "job": "Producer", "name": "J. Lee Thompson", "profile_path": "/cVHgJwHOh4j7q1tn3vQEcopblrJ.jpg"}, {"credit_id": "5547c09e92514175460003b7", "department": "Writing", "gender": 0, "id": 1236666, "job": "Screenplay", "name": "Ted Willis", "profile_path": null}, {"credit_id": "55d718769251416706002205", "department": "Production", "gender": 0, "id": 1309789, "job": "Producer", "name": "Frank Godwin", "profile_path": null}]}}