{"adult": false, "backdrop_path": "/r7BxYVLGWHzD6YmNbWbDp3XLuoE.jpg", "belongs_to_collection": null, "budget": 587211, "genres": [{"id": 35, "name": "Comedy"}], "homepage": null, "id": 119738, "imdb_id": "tt2041488", "original_language": "en", "original_title": "Thunderstruck", "overview": "Brian is a 16 year-old who can't play basketball, but he still wants to play like his hero, Kevin Durant. At an Oklahoma City Thunder game, Brian gets chosen to shoot a half court shot which he misses and hits the mascot in the process. Later on, he gets a chance to meet Durant and expresses his desire to play just like him. When Kevin gives Brian the ball, the two  unknowingly switch talents.", "popularity": 10.45, "poster_path": "/f1eJs4xLPzk64VzU31Esc6YQ0Uu.jpg", "production_companies": [{"id": 79559, "logo_path": null, "name": "Stunts Unlimited", "origin_country": ""}, {"id": 4811, "logo_path": "/7xym5CnL4LcMPaWpp51cN1v73AR.png", "name": "Warner Premiere", "origin_country": "US"}], "production_countries": [{"iso_3166_1": "US", "name": "United States of America"}], "release_date": "2012-08-24", "revenue": 587211, "runtime": 94, "spoken_languages": [{"iso_639_1": "en", "name": "English"}], "status": "Released", "tagline": "", "title": "Thunderstruck", "video": false, "vote_average": 5.4, "vote_count": 85, "keywords": {"keywords": [{"id": 6496, "name": "basketball"}]}, "similar": {"page": 1, "results": [{"adult": false, "backdrop_path": "/kBTdPNTAzagAY6UiwY957KCDGuu.jpg", "genre_ids": [16, 35, 10751], "id": 2300, "original_language": "en", "original_title": "Space Jam", "overview": "Swackhammer, an evil alien theme park owner, needs a new attraction at Moron Mountain. When his gang, the Nerdlucks, heads to Earth to kidnap Bugs Bunny and the Looney Tunes, Bugs challenges them to a basketball game to determine their fate. The aliens agree, but they steal the powers of NBA basketball players, including Larry Bird and Charles Barkley -- so Bugs gets some help from superstar Michael Jordan.", "poster_path": "/xI9AwhOWtsbFlS8tYD2PXa80p7u.jpg", "release_date": "1996-11-15", "title": "Space Jam", "video": false, "vote_average": 6.7, "vote_count": 3179, "popularity": 15.582}, {"adult": false, "backdrop_path": "/9o1Ni0t6kdDWS8SV3G8y0AJTSrZ.jpg", "genre_ids": [35], "id": 13260, "original_language": "en", "original_title": "Semi-Pro", "overview": "Jackie Moon is the owner, promoter, coach, and star player of the Flint Michigan Tropics of the American Basketball Association (ABA). In 1976 before the ABA collapses, the National Basketball Association (NBA) plans to merge with the best teams of the ABA at the end of the season. Only the top four teams will make the move and the worst teams will fold. The Tropics are the worst team in the league and if they want to make it to the NBA, Jackie Moon must rally his team and start winning. The only problem is the fact that Jackie Moon is not really the coach and star basketball player he thinks he is. To keep his team from oblivion and leave his mark in the city, Jackie Moon must inspire his team to win fourth place in the playoffs.", "poster_path": "/idFmbYkCmBqZ1YbzLEqeplmbBrc.jpg", "release_date": "2008-02-28", "title": "Semi-Pro", "video": false, "vote_average": 5.6, "vote_count": 465, "popularity": 13.337}, {"adult": false, "backdrop_path": "/mYKP6qcDUimVMAHQWLOuDHjO19S.jpg", "genre_ids": [35], "id": 445629, "original_language": "en", "original_title": "Fighting with My Family", "overview": "Born into a tight-knit wrestling family, Paige and her brother Zak are ecstatic when they get the once-in-a-lifetime opportunity to try out for the WWE. But when only Paige earns a spot in the competitive training program, she must leave her loved ones behind and face this new cutthroat world alone. Paige's journey pushes her to dig deep and ultimately prove to the world that what makes her different is the very thing that can make her a star.", "poster_path": "/cVhe15rJLRjolunSWLBN6xQLyGU.jpg", "release_date": "2019-02-14", "title": "Fighting with My Family", "video": false, "vote_average": 6.7, "vote_count": 642, "popularity": 23.641}, {"id": 522924, "video": false, "vote_count": 150, "vote_average": 8.1, "title": "The Art of Racing in the Rain", "release_date": "2019-08-08", "original_language": "en", "original_title": "The Art of Racing in the Rain", "genre_ids": [35, 18, 10749], "backdrop_path": "/6esNUoXh4xQvucB7o7e3TCfjI65.jpg", "adult": false, "overview": "A family dog\u2014with a near-human soul and a philosopher's mind\u2014evaluates his life through the lessons learned by his human owner, a race-car driver.", "poster_path": "/mi5VN4ww0JZgRFJIaPxxTGKjUg7.jpg", "popularity": 17.008}, {"id": 703, "video": false, "vote_count": 2268, "vote_average": 7.8, "title": "Annie Hall", "release_date": "1977-04-19", "original_language": "en", "original_title": "Annie Hall", "genre_ids": [35, 18, 10749], "backdrop_path": "/8iNt5LGxpX9XeNWJgjx17xfTT7u.jpg", "adult": false, "overview": "New York comedian Alvy Singer falls in love with the ditsy Annie Hall.", "poster_path": "/bK9bLXwxWuXX5mbq75PZqjvAtfG.jpg", "popularity": 15.038}, {"adult": false, "backdrop_path": "/n1Gh3MJAVvXmkgSDf3SOLlPCjag.jpg", "genre_ids": [35, 18, 10749], "id": 9390, "original_language": "en", "original_title": "Jerry Maguire", "overview": "Jerry Maguire used to be a typical sports agent: willing to do just about anything he could to get the biggest possible contracts for his clients, plus a nice commission for himself. Then, one day, he suddenly has second thoughts about what he's really doing. When he voices these doubts, he ends up losing his job and all of his clients, save Rod Tidwell, an egomaniacal football player.", "poster_path": "/99YTEdKOKDRClsscOpJfdkbaTrQ.jpg", "release_date": "1996-12-13", "title": "Jerry Maguire", "video": false, "vote_average": 6.9, "vote_count": 1794, "popularity": 16.867}, {"id": 474335, "video": false, "vote_count": 254, "vote_average": 6.5, "title": "Uncle Drew", "release_date": "2018-06-27", "original_language": "en", "original_title": "Uncle Drew", "genre_ids": [35], "backdrop_path": "/xv2UTn6bU0wwmMW8D8ZnAx7SWNX.jpg", "adult": false, "overview": "Uncle Drew recruits a squad of older basketball players to return to the court to compete in a tournament.", "poster_path": "/cDjAlFbpvjuxH4gFD02fqlyk6qL.jpg", "popularity": 11.533}, {"id": 387592, "video": false, "vote_count": 393, "vote_average": 6.0, "title": "Early Man", "release_date": "2018-01-26", "original_language": "en", "original_title": "Early Man", "genre_ids": [12, 16, 35, 10751], "backdrop_path": "/9m71RMP45mg599xtKPyjicyHn1a.jpg", "adult": false, "overview": "Dug, along with his sidekick Hognob, unite a cavemen tribe to save their hidden valley from being spoiled and, all together as a team, to face the menace of a mysterious and mighty enemy, on the turf of an ancient and sacred sport.", "poster_path": "/5iW2rntwLZoGlFCYYy8TjHyblbw.jpg", "popularity": 15.752}, {"adult": false, "backdrop_path": "/eD8PxfDsmWyUcj2LzQ9Ha2O7UvB.jpg", "genre_ids": [99], "id": 614423, "original_language": "en", "original_title": "Collingwood: From The Inside Out", "overview": "An  intimate look at Collingwood Football Club as it rebuilds itself and aims for glory over the course of the 2018 season.", "poster_path": "/dsJMvBJ7M2HvGkJdhW4nKNHEgDs.jpg", "release_date": "2019-08-15", "title": "Collingwood: From The Inside Out", "video": false, "vote_average": 1.0, "vote_count": 1, "popularity": 1.602}, {"adult": false, "backdrop_path": "/qVjKZMB0IdOc2JlwiiGsuKTvTJs.jpg", "genre_ids": [18], "id": 22881, "original_language": "en", "original_title": "The Blind Side", "overview": "The story of Michael Oher, a homeless and traumatized boy who became an All American football player and first round NFL draft pick with the help of a caring woman and her family", "poster_path": "/wEGFSgPebLk6g1ngKsJ6a46PYLV.jpg", "release_date": "2009-11-20", "title": "The Blind Side", "video": false, "vote_average": 7.5, "vote_count": 3212, "popularity": 30.144}, {"id": 107, "video": false, "vote_count": 5245, "vote_average": 7.8, "title": "Snatch", "release_date": "2000-09-01", "original_language": "en", "original_title": "Snatch", "genre_ids": [80, 53], "backdrop_path": "/cNLZ7YGRikb4IsLblrzu86ndZPw.jpg", "adult": false, "overview": "The second film from British director Guy Ritchie. Snatch tells an obscure story similar to his first fast-paced crazy character-colliding filled film \u201cLock, Stock and Two Smoking Barrels.\u201d There are two overlapping stories here \u2013 one is the search for a stolen diamond, and the other about a boxing promoter who\u2019s having trouble with a psychotic gangster.", "poster_path": "/on9JlbGEccLsYkjeEph2Whm1DIp.jpg", "popularity": 25.391}, {"id": 307081, "video": false, "vote_count": 3699, "vote_average": 7.4, "title": "Southpaw", "release_date": "2015-03-24", "original_language": "en", "original_title": "Southpaw", "genre_ids": [28, 18], "backdrop_path": "/tTt1cdEEkKMJ1R4VBTe5vbE3bWO.jpg", "adult": false, "overview": "Billy \"The Great\" Hope, the reigning junior middleweight boxing champion, has an impressive career, a loving wife and daughter, and a lavish lifestyle. However, when tragedy strikes, Billy hits rock bottom, losing his family, his house and his manager. He soon finds an unlikely savior in Tick Willis, a former fighter who trains the city's toughest amateur boxers. With his future on the line, Hope fights to reclaim the trust of those he loves the most.", "poster_path": "/50d0XQQETSyg3bwBXhC7K33pKgc.jpg", "popularity": 24.057}, {"id": 348893, "video": false, "vote_count": 521, "vote_average": 6.2, "title": "Boyka: Undisputed IV", "release_date": "2016-08-01", "original_language": "en", "original_title": "Boyka: Undisputed IV", "genre_ids": [28, 80, 53], "backdrop_path": "/5dLLiR8IUT7T0r5HVcvRlItNWTn.jpg", "adult": false, "overview": "In the fourth installment of the fighting franchise, Boyka is shooting for the big leagues when an accidental death in the ring makes him question everything he stands for. When he finds out the wife of the man he accidentally killed is in trouble, Boyka offers to fight in a series of impossible battles to free her from a life of servitude", "poster_path": "/mWiqc87iTs1qujxm2Q0NRzGvWSN.jpg", "popularity": 32.403}, {"id": 70006, "video": false, "vote_count": 288, "vote_average": 6.1, "title": "Never Back Down 2: The Beatdown", "release_date": "2011-09-13", "original_language": "en", "original_title": "Never Back Down 2: The Beatdown", "genre_ids": [28, 18], "backdrop_path": "/lSFqtjxMfAHa58TBDDBELKeq2DH.jpg", "adult": false, "overview": "Four fighters different backgrounds come together to train under an ex MMA rising star and then ultimately have to fight each other and the traitor in heir midst.", "poster_path": "/qeISu4rUk9l9sQTMs86fAoxSx8p.jpg", "popularity": 20.91}, {"id": 391757, "video": false, "vote_count": 185, "vote_average": 6.5, "title": "Never Back Down: No Surrender", "release_date": "2016-06-07", "original_language": "en", "original_title": "Never Back Down: No Surrender", "genre_ids": [28, 18], "backdrop_path": "/pzjnObK3uiHcKwiir9OPPWzbW8f.jpg", "adult": false, "overview": "Picking up after the events of Never Back Down 2, former MMA champion Case Walker is on the comeback trail to become champion once again.", "poster_path": "/dYNS4o4Q4DDLiKRAAvZ9KcrhHuy.jpg", "popularity": 16.224}, {"adult": false, "backdrop_path": "/w41zFKYTsq4wf5QnQJWMXuzWl2F.jpg", "genre_ids": [18, 28], "id": 96721, "original_language": "en", "original_title": "Rush", "overview": "A biographical drama centered on the rivalry between Formula 1 drivers James Hunt and Niki Lauda during the 1976 Formula One motor-racing season.", "poster_path": "/cjEepHZOZAwmK6nAj5jis6HV75E.jpg", "release_date": "2013-09-02", "title": "Rush", "video": false, "vote_average": 7.7, "vote_count": 4275, "popularity": 16.446}, {"id": 1375, "video": false, "vote_count": 1669, "vote_average": 5.6, "title": "Rocky V", "release_date": "1990-10-18", "original_language": "en", "original_title": "Rocky V", "genre_ids": [18], "backdrop_path": "/dr5pdEDOdCvelCQqP32UZubiSgE.jpg", "adult": false, "overview": "A lifetime of taking shots has ended Rocky\u2019s career, and a crooked accountant has left him broke. Inspired by the memory of his trainer, however, Rocky finds glory in training and takes on an up-and-coming boxer.", "poster_path": "/5P2RiuLt31mWyb6duww8qlAhs6G.jpg", "popularity": 16.084}, {"id": 312221, "video": false, "vote_count": 4400, "vote_average": 7.4, "title": "Creed", "release_date": "2015-11-25", "original_language": "en", "original_title": "Creed", "genre_ids": [18], "backdrop_path": "/fs2yhdSCzMVlNECrN84WuCkgXov.jpg", "adult": false, "overview": "The former World Heavyweight Champion Rocky Balboa serves as a trainer and mentor to Adonis Johnson, the son of his late friend and former rival Apollo Creed.", "poster_path": "/hKzhV274pkZBSpXfCjUyzbyYKLl.jpg", "popularity": 17.551}, {"id": 480530, "video": false, "vote_count": 2746, "vote_average": 6.8, "title": "Creed II", "release_date": "2018-11-21", "original_language": "en", "original_title": "Creed II", "genre_ids": [18], "backdrop_path": "/hZqx2JcZVjHSY2lMEMDC0XlObiw.jpg", "adult": false, "overview": "Between personal obligations and training for his next big fight against an opponent with ties to his family's past, Adonis Creed is up against the challenge of his life.", "poster_path": "/v3QyboWRoA4O9RbcsqH8tJMe8EB.jpg", "popularity": 22.97}, {"adult": false, "backdrop_path": "/jK3EAFk3GdOaQfUDCOiTujzMpwH.jpg", "genre_ids": [18], "id": 389015, "original_language": "en", "original_title": "I, Tonya", "overview": "Competitive ice skater Tonya Harding rises amongst the ranks at the U. S. Figure Skating Championships, but her future in the sport is thrown into doubt when her ex-husband intervenes.", "poster_path": "/6gNXwSHxaksR1PjVZRqNapmkgj3.jpg", "release_date": "2017-12-08", "title": "I, Tonya", "video": false, "vote_average": 7.5, "vote_count": 3327, "popularity": 19.513}], "total_pages": 136, "total_results": 2706}, "recommendations": {"page": 1, "results": [{"id": 348896, "video": false, "vote_count": 12, "vote_average": 6.3, "title": "Dare to Be Wild", "release_date": "2015-08-13", "original_language": "en", "original_title": "Dare to Be Wild", "genre_ids": [18], "backdrop_path": "/hiKB6X29zaLmsh3CC6LEq4c5fm4.jpg", "adult": false, "overview": "Irishwoman Mary Reynold's journey from rank outsider to winner of a Gold Medal at the Chelsea Flower Show.", "poster_path": "/b2gFRKs4ZDIhT2xDFURm6DgSp1R.jpg", "popularity": 1.778}, {"adult": false, "backdrop_path": "/gJoEqyDt0Km6UIl7Xj7MeTCranT.jpg", "genre_ids": [99], "id": 62668, "original_language": "en", "original_title": "The Fab Five", "overview": "Depicts the story of Jalen Rose and his other Fab Five teammates, Chris Webber, Juwan Howard, Jimmy King and Ray Jackson. Called by some \u201cthe greatest class ever recruited,\u201d the five freshmen not only electrified the game, but also brought new style with their baggy shorts, black socks and brash talk. \u201cThe Fab Five\u201d relives the recruitment process that got all five of them to Ann Arbor, the cultural impact they made, the two runs to NCAA title game, the Webber \u201ctimeout\u201d in the 1993 championship and the scandal that eventually tarnished their accomplishments.", "poster_path": "/dIbHseZ7zXCSF9UJ91XIQvNz4aU.jpg", "release_date": "2011-03-13", "title": "The Fab Five", "video": false, "vote_average": 8.3, "vote_count": 7, "popularity": 2.779}, {"adult": false, "backdrop_path": "/tfxzrp1myGDKl30FTozuJW7cR7X.jpg", "genre_ids": [28, 878], "id": 107100, "original_language": "en", "original_title": "Seattle Superstorm", "overview": "An object is shot down over Seattle and the debris begins to effect the local weather ultimately threatening the whole world.", "poster_path": "/3s9FzbLxDG6EOW1C82cf8LXNSrI.jpg", "release_date": "2012-03-31", "title": "Seattle Superstorm", "video": false, "vote_average": 4.3, "vote_count": 20, "popularity": 7.017}, {"adult": false, "backdrop_path": "/rOslUzv0gFfOHsSacR7uqlcb2Ch.jpg", "genre_ids": [35, 18, 10749], "id": 38415, "original_language": "en", "original_title": "Bran Nue Dae", "overview": "In the Summer of 1965 a young man is filled with the life of the idyllic old pearling port Broome - fishing, hanging out with his mates and his girl. However his mother returns him to the religious mission for further schooling. After being punished for an act of youthful rebellion, he runs away from the mission on a journey that ultimately leads him back home.", "poster_path": "/2TZzOpwnLscwY0jHkQNiC1eN3zb.jpg", "release_date": "2009-08-09", "title": "Bran Nue Dae", "video": false, "vote_average": 5.4, "vote_count": 14, "popularity": 2.93}, {"adult": false, "backdrop_path": "/sH1Pzqh6LvPPiyw8o1tYAjrcnbs.jpg", "genre_ids": [99], "id": 265330, "original_language": "en", "original_title": "Bad Boys", "overview": "Documentary about the Detroit Pistons.", "poster_path": "/3LdEtd3IMJtw4zitgWZpIc60UFX.jpg", "release_date": "2014-04-17", "title": "Bad Boys", "video": false, "vote_average": 8.2, "vote_count": 11, "popularity": 2.449}, {"adult": false, "backdrop_path": "/9w27zLg50aZl15nBVOp7ND8DHwB.jpg", "genre_ids": [99], "id": 430834, "original_language": "en", "original_title": "Water & Power: A California Heist", "overview": "Uncovering the profiteering of the state's water barons and how they affect farmers, average citizens, and unincorporated towns throughout California.", "poster_path": "/4gfJUbwkByWNPlqDxuV1SvsdHKA.jpg", "release_date": "2017-01-23", "title": "Water & Power: A California Heist", "video": false, "vote_average": 7.2, "vote_count": 6, "popularity": 1.798}, {"adult": false, "backdrop_path": "/uAxhJ0gSCYlBJv4tyO4iB6TXQMp.jpg", "genre_ids": [28, 35, 10749, 10770], "id": 102947, "original_language": "en", "original_title": "First Daughter", "overview": "A female Secret Service agent goes against protocol to save the U.S. president from an assassination attempt. She is reassigned to protect the president's daughter, which she considers a demotion. When the first daughter is kidnapped during a hiking trip, the agent and a river guide go to rescue her.", "poster_path": "/zeC1xrsfVUkIm8tmHS8K31OzgyI.jpg", "release_date": "1999-08-15", "title": "First Daughter", "video": false, "vote_average": 4.6, "vote_count": 11, "popularity": 2.455}, {"adult": false, "backdrop_path": "/9vnkGSESY3UPd5pCTIY7kCH0nkr.jpg", "genre_ids": [10749, 35], "id": 14619, "original_language": "en", "original_title": "Bottoms Up", "overview": "Captivated by the posh Hollywood scene, bartender Owen Peadman (Jason Mewes) travels from the Midwest to take part in a drink-serving contest. But he fails to win the jackpot and winds up working for a gossip show instead. Now, to uncover the latest juicy secret on super celebrity Hayden Field, Owen buddies up to Field's friend Lisa (Paris Hilton) and gets not only the inside scoop, but also fame,", "poster_path": "/drA4kFa6MDlvTVQL5VJ1Wy9Ltg8.jpg", "release_date": "2006-01-01", "title": "Bottoms Up", "video": false, "vote_average": 3.6, "vote_count": 26, "popularity": 4.784}], "total_pages": 1, "total_results": 8}, "credits": {"cast": [{"cast_id": 7, "character": "Se stesso", "credit_id": "52fe4c0ac3a36847f821ebfb", "gender": 2, "id": 1009931, "name": "Kevin Durant", "order": 0, "profile_path": "/iNhfRvJa6b4pwYiLFYYBDh2SGEa.jpg"}, {"cast_id": 8, "character": "Brian", "credit_id": "52fe4c0ac3a36847f821ebff", "gender": 2, "id": 437100, "name": "Taylor Gray", "order": 1, "profile_path": "/yc8jNc6beD46EKUo8b8SPqsxX7C.jpg"}, {"cast_id": 9, "character": "Coach Amross", "credit_id": "52fe4c0ac3a36847f821ec03", "gender": 2, "id": 26485, "name": "James Belushi", "order": 2, "profile_path": "/AplV1ikSo3Zn93hhy5ht7Y7sQio.jpg"}, {"cast_id": 3, "character": "Alan", "credit_id": "52fe4c0ac3a36847f821ebeb", "gender": 2, "id": 53336, "name": "Brandon T. Jackson", "order": 3, "profile_path": "/dbToaM0GR8zxFFj2CmwDGCbfMXx.jpg"}, {"cast_id": 5, "character": "Mitch", "credit_id": "52fe4c0ac3a36847f821ebf3", "gender": 2, "id": 576041, "name": "Doc Shaw", "order": 4, "profile_path": "/d0ccSQsbOfhgVXfW46RFPEq0tvY.jpg"}, {"cast_id": 10, "character": "Isabel", "credit_id": "52fe4c0ac3a36847f821ec07", "gender": 1, "id": 945846, "name": "Tristin Mays", "order": 5, "profile_path": "/grVMEoLvmzgZvnOdxpAaEAtROhS.jpg"}, {"cast_id": 12, "character": "Assistant Coach Dan", "credit_id": "52fe4c0ac3a36847f821ec0f", "gender": 2, "id": 96018, "name": "Robert Belushi", "order": 6, "profile_path": "/7RMYK7NXm2D32CGP3HD4UJ5kl4y.jpg"}, {"cast_id": 4, "character": "Joe Newall", "credit_id": "52fe4c0ac3a36847f821ebef", "gender": 2, "id": 31467, "name": "William Ragsdale", "order": 7, "profile_path": "/njtQMv0vm9uNzSdVTqjYTu1TzNd.jpg"}, {"cast_id": 11, "character": "Ashley Newell", "credit_id": "52fe4c0ac3a36847f821ec0b", "gender": 1, "id": 992374, "name": "Hana Hayes", "order": 8, "profile_path": "/wkuJxeNtT585gbWBJb06axmV6w3.jpg"}, {"cast_id": 6, "character": "Math Teacher", "credit_id": "52fe4c0ac3a36847f821ebf7", "gender": 1, "id": 946356, "name": "Andrea Frankle", "order": 9, "profile_path": "/nyT3rKJzK7egF7lyhRXa1Xb8N6V.jpg"}], "crew": [{"credit_id": "52fe4c0ac3a36847f821ebe1", "department": "Writing", "gender": 2, "id": 52080, "job": "Writer", "name": "Eric Champnella", "profile_path": null}, {"credit_id": "52fe4c0ac3a36847f821ebe7", "department": "Writing", "gender": 2, "id": 148168, "job": "Writer", "name": "Jeff Farley", "profile_path": null}, {"credit_id": "52fe4c0ac3a36847f821ec15", "department": "Directing", "gender": 2, "id": 61175, "job": "Director", "name": "John Whitesell", "profile_path": "/9wNZkrN7DnPjGIgaVNTnlCC1fpt.jpg"}, {"credit_id": "5d6bf5b6efcea900139a617a", "department": "Visual Effects", "gender": 0, "id": 1393390, "job": "Visual Effects Supervisor", "name": "Ray McIntyre Jr.", "profile_path": null}]}}