{"adult": false, "backdrop_path": "/paLhLZYLVG6IG0miwWxIoOi9duY.jpg", "belongs_to_collection": null, "budget": 0, "genres": [{"id": 12, "name": "Adventure"}], "homepage": null, "id": 120021, "imdb_id": "tt0044332", "original_language": "en", "original_title": "African Treasure", "overview": "Against stock footage of lions, elephants and wildebeasts, Bomba the Jungle Boy captures a pair of nefarious diamond smugglers.", "popularity": 2.969, "poster_path": "/d5Pmv2oOgldyZyW9dx23mIh9S4X.jpg", "production_companies": [{"id": 4395, "logo_path": null, "name": "Monogram Pictures", "origin_country": ""}], "production_countries": [{"iso_3166_1": "US", "name": "United States of America"}], "release_date": "1952-05-06", "revenue": 0, "runtime": 70, "spoken_languages": [{"iso_639_1": "en", "name": "English"}], "status": "Released", "tagline": "Jungle drums echo the dangers of ruthless fortune seekers!", "title": "African Treasure", "video": false, "vote_average": 8.3, "vote_count": 3, "keywords": {"keywords": [{"id": 1454, "name": "treasure"}, {"id": 10787, "name": "jungle"}, {"id": 232370, "name": "smugglers"}, {"id": 240640, "name": "jungle boy"}]}, "similar": {"page": 1, "results": [{"id": 9326, "video": false, "vote_count": 938, "vote_average": 6.7, "title": "Romancing the Stone", "release_date": "1984-03-30", "original_language": "en", "original_title": "Romancing the Stone", "genre_ids": [28, 12, 35, 10749], "backdrop_path": "/5MNAokmkK4NPtYJCPmQ2fgErW9n.jpg", "adult": false, "overview": "Though she can spin wild tales of passionate romance, novelist Joan Wilder has no life of her own. Then one day adventure comes her way in the form of a mysterious package. It turns out that the parcel is the ransom she'll need to free her abducted sister, so Joan flies to South America to hand it over. But she gets on the wrong bus and winds up hopelessly stranded in the jungle.", "poster_path": "/3TqpkTYiltYsxYatdug6WDgdRKL.jpg", "popularity": 16.925}, {"adult": false, "backdrop_path": "/m9vS8UfYd9XZedhO7ifpAznxSOj.jpg", "genre_ids": [12, 28], "id": 217, "original_language": "en", "original_title": "Indiana Jones and the Kingdom of the Crystal Skull", "overview": "Set during the Cold War, the Soviets \u2013 led by sword-wielding Irina Spalko \u2013 are in search of a crystal skull which has supernatural powers related to a mystical Lost City of Gold. After being captured and then escaping from them, Indy is coerced to head to Peru at the behest of a young man whose friend \u2013 and Indy's colleague \u2013 Professor Oxley has been captured for his knowledge of the skull's whereabouts.", "poster_path": "/qY1x6v5daMDTr904G3y84WVgpfC.jpg", "release_date": "2008-05-21", "title": "Indiana Jones and the Kingdom of the Crystal Skull", "video": false, "vote_average": 5.9, "vote_count": 4972, "popularity": 27.862}, {"id": 1996, "video": false, "vote_count": 2794, "vote_average": 5.7, "title": "Lara Croft: Tomb Raider - The Cradle of Life", "release_date": "2003-07-21", "original_language": "en", "original_title": "Lara Croft: Tomb Raider - The Cradle of Life", "genre_ids": [28, 12, 14, 53], "backdrop_path": "/htpsiWvI6AO1XsAiOa2lbLaiHlT.jpg", "adult": false, "overview": "Lara Croft ventures to an underwater temple in search of the mythological Pandora's Box but, after securing it, it is promptly stolen by the villainous leader of a Chinese crime syndicate. Lara must recover the box before the syndicate's evil mastermind uses it to construct a weapon of catastrophic capabilities.", "poster_path": "/pkSnQzjjQ3Z9B2CJVSZCfL0Ea3s.jpg", "popularity": 22.11}, {"id": 1995, "video": false, "vote_count": 4069, "vote_average": 5.8, "title": "Lara Croft: Tomb Raider", "release_date": "2001-06-11", "original_language": "en", "original_title": "Lara Croft: Tomb Raider", "genre_ids": [28, 12, 14, 53], "backdrop_path": "/806IiIwpOKek2XIFnnvbAYRfqpb.jpg", "adult": false, "overview": "English aristocrat Lara Croft is skilled in hand-to-hand combat and in the middle of a battle with a secret society. The shapely archaeologist moonlights as a tomb raider to recover lost antiquities and meets her match in the evil Powell, who's in search of a powerful relic.", "poster_path": "/m6aodY7SrvlTRiUFkxClaNAIQT.jpg", "popularity": 23.661}, {"adult": false, "backdrop_path": "/vfvVuu1JdnEGcyZUj7VHrhhbeMj.jpg", "genre_ids": [12, 28], "id": 89, "original_language": "en", "original_title": "Indiana Jones and the Last Crusade", "overview": "When Dr. Henry Jones Sr. suddenly goes missing while pursuing the Holy Grail, eminent archaeologist Indiana must team up with Marcus Brody, Sallah and Elsa Schneider to follow in his father's footsteps and stop the Nazis from recovering the power of eternal life.", "poster_path": "/4p1N2Qrt8j0H8xMHMHvtRxv9weZ.jpg", "release_date": "1989-05-24", "title": "Indiana Jones and the Last Crusade", "video": false, "vote_average": 7.8, "vote_count": 5985, "popularity": 27.988}, {"id": 87, "video": false, "vote_count": 5411, "vote_average": 7.2, "title": "Indiana Jones and the Temple of Doom", "release_date": "1984-05-23", "original_language": "en", "original_title": "Indiana Jones and the Temple of Doom", "genre_ids": [28, 12], "backdrop_path": "/mWuFDpOxXJpPxLM3p8f3w02pBb2.jpg", "adult": false, "overview": "After arriving in India, Indiana Jones is asked by a desperate village to find a mystical stone. He agrees \u2013 and stumbles upon a secret cult plotting a terrible plan in the catacombs of an ancient palace.", "poster_path": "/f2nTRKk2zGdUTE7tLJ5EGGSuKA6.jpg", "popularity": 25.521}, {"id": 85, "video": false, "vote_count": 7353, "vote_average": 7.9, "title": "Raiders of the Lost Ark", "release_date": "1981-06-12", "original_language": "en", "original_title": "Raiders of the Lost Ark", "genre_ids": [28, 12], "backdrop_path": "/dU1CArBM4YsKLfG8YvhtuTJJaGR.jpg", "adult": false, "overview": "When Dr. Indiana Jones \u2013 the tweed-suited professor who just happens to be a celebrated archaeologist \u2013 is hired by the government to locate the legendary Ark of the Covenant, he finds himself up against the entire Nazi regime.", "poster_path": "/44sKJOGP3fTm4QXBcIuqu0RkdP7.jpg", "popularity": 29.667}, {"id": 6637, "video": false, "vote_count": 3261, "vote_average": 6.2, "title": "National Treasure: Book of Secrets", "release_date": "2007-12-13", "original_language": "en", "original_title": "National Treasure: Book of Secrets", "genre_ids": [28, 12, 9648, 53], "backdrop_path": "/ivrtuhSZnkEqzkdCyFXcH8UbPVp.jpg", "adult": false, "overview": "Benjamin Franklin Gates and Dr. Abigail Chase re-team with Riley Poole and, now armed with a stack of long-lost pages from John Wilkes Booth\u2019s diary, Ben must follow a clue left there to prove his ancestor\u2019s innocence in the assassination of Abraham Lincoln.", "poster_path": "/sHr05tz70r7y8A6XrdCBsHPK7tF.jpg", "popularity": 25.219}, {"id": 2059, "video": false, "vote_count": 3921, "vote_average": 6.5, "title": "National Treasure", "release_date": "2004-11-19", "original_language": "en", "original_title": "National Treasure", "genre_ids": [28, 12, 9648, 53], "backdrop_path": "/2kOgnTByORg6gvEWWy8ynyJpCXa.jpg", "adult": false, "overview": "Modern treasure hunters, led by archaeologist Ben Gates, search for a chest of riches rumored to have been stashed away by George Washington, Thomas Jefferson and Benjamin Franklin during the Revolutionary War. The chest's whereabouts may lie in secret clues embedded in the Constitution and the Declaration of Independence, and Gates is in a race to find the gold before his enemies do.", "poster_path": "/luMoc56LLMWUt60vUNNpwxrbTNt.jpg", "popularity": 21.718}, {"id": 9838, "video": false, "vote_count": 189, "vote_average": 5.3, "title": "King Solomon's Mines", "release_date": "1985-03-20", "original_language": "en", "original_title": "King Solomon's Mines", "genre_ids": [28, 12, 35], "backdrop_path": "/nkXqmkJKHY0R2VDrePbJCDkm91J.jpg", "adult": false, "overview": "Ever in search of adventure, explorer Allan Quatermain agrees to join the beautiful Jesse Huston on a mission to locate her archaeologist father, who has been abducted for his knowledge of the legendary mines of King Solomon. As the kidnappers, led by sinister German military officer Bockner, journey into the wilds of Africa, Allan and Jesse track the party and must contend with fierce natives and dangerous creatures, among other perils.", "poster_path": "/wNjXdgbYNvfdlcGQyDP1I7P3KSw.jpg", "popularity": 17.814}, {"adult": false, "backdrop_path": "/gz4ytKq2oHi040GEakUszYXmOrJ.jpg", "genre_ids": [28, 12, 35, 10749], "id": 10303, "original_language": "en", "original_title": "The Jewel of the Nile", "overview": "Joan Wilder is thrust back into a world of murder, chases, foreign intrigue... and love. This time out she's duped by a duplicitous Arab dignitary who brings her to the Middle East, ostensibly to write a book about his life. Of course he's up to no good, and Joan is just another pawn in his wicked game. But Jack Colton and his sidekick Ralph show up to help our intrepid heroine save the day.", "poster_path": "/iQXxVWuXmaEPhieETkThDgGGKCb.jpg", "release_date": "1985-12-04", "title": "The Jewel of the Nile", "video": false, "vote_average": 6.1, "vote_count": 575, "popularity": 13.816}, {"id": 10159, "video": false, "vote_count": 1033, "vote_average": 6.3, "title": "The Rundown", "release_date": "2003-09-26", "original_language": "en", "original_title": "The Rundown", "genre_ids": [28, 12, 35, 53], "backdrop_path": "/r8YcQqO88VDzdLeN4W7x4qq9xxk.jpg", "adult": false, "overview": "When Travis, the mouthy son of a criminal, disappears in the Amazon in search of a treasured artifact, his father sends in Beck, who becomes Travis's rival for the affections of Mariana, a mysterious Brazilian woman. With his steely disposition, Beck is a man of few words -- but it takes him all the discipline he can muster to work with Travis to nab a tyrant who's after the same treasure.", "poster_path": "/jPkfNgTuVdj8hp2znt5MxIAz5W7.jpg", "popularity": 16.812}, {"id": 17578, "video": false, "vote_count": 3534, "vote_average": 6.8, "title": "The Adventures of Tintin", "release_date": "2011-10-25", "original_language": "en", "original_title": "The Adventures of Tintin", "genre_ids": [12, 16, 9648], "backdrop_path": "/m3xgF9JiTlfN1rO9hcvTd4PTIQy.jpg", "adult": false, "overview": "Intrepid young reporter, Tintin, and his loyal dog, Snowy, are thrust into a world of high adventure when they discover a ship carrying an explosive secret. As Tintin is drawn into a centuries-old mystery, Ivan Ivanovitch Sakharine suspects him of stealing a priceless treasure. Tintin and Snowy, with the help of salty, cantankerous Captain Haddock and bumbling detectives, Thompson and Thomson, travel half the world, one step ahead of their enemies, as Tintin endeavors to find the Unicorn, a sunken ship that may hold a vast fortune, but also an ancient curse.", "poster_path": "/3XOaHJARdZIXcd7sgJV24Txp3gf.jpg", "popularity": 20.831}, {"id": 9360, "video": false, "vote_count": 1328, "vote_average": 4.9, "title": "Anaconda", "release_date": "1997-04-11", "original_language": "en", "original_title": "Anaconda", "genre_ids": [12, 27, 53], "backdrop_path": "/uAnJipu2hzZ04fY68d2UoB9eAa6.jpg", "adult": false, "overview": "A \"National Geographic\" film crew is taken hostage by an insane hunter, who takes them along on his quest to capture the world's largest - and deadliest - snake.", "poster_path": "/yGku6UoX3MKbjnVbcUtrJcyghyi.jpg", "popularity": 18.682}, {"id": 37135, "video": false, "vote_count": 4092, "vote_average": 7.4, "title": "Tarzan", "release_date": "1999-06-18", "original_language": "en", "original_title": "Tarzan", "genre_ids": [12, 16, 18, 10751], "backdrop_path": "/hCpRqibOM0ouOiqL0HMqZOF8bYe.jpg", "adult": false, "overview": "Tarzan was a small orphan who was raised by an ape named Kala since he was a child. He believed that this was his family, but on an expedition Jane Porter is rescued by Tarzan. He then finds out that he's human. Now Tarzan must make the decision as to which family he should belong to...", "poster_path": "/y6k0qn4tcDfbnrjJ2BUnoZYmMBk.jpg", "popularity": 22.572}, {"id": 258489, "video": false, "vote_count": 4393, "vote_average": 5.8, "title": "The Legend of Tarzan", "release_date": "2016-06-29", "original_language": "en", "original_title": "The Legend of Tarzan", "genre_ids": [28, 12], "backdrop_path": "/d9H2nXfKslf6B1cm7UtPBKhtUgA.jpg", "adult": false, "overview": "Tarzan, having acclimated to life in London, is called back to his former home in the jungle to investigate the activities at a mining encampment.", "poster_path": "/6FxOPJ9Ysilpq0IgkrMJ7PubFhq.jpg", "popularity": 21.616}, {"id": 9710, "video": false, "vote_count": 127, "vote_average": 4.7, "title": "Allan Quatermain and the Lost City of Gold", "release_date": "1986-12-17", "original_language": "en", "original_title": "Allan Quatermain and the Lost City of Gold", "genre_ids": [28, 12, 35], "backdrop_path": "/hfHLO4CwTFh5aQFbUoKHQ9pL8rw.jpg", "adult": false, "overview": "After his brother Robeson disappears without a trace while exploring Africa in search of a legendary 'white tribe', Allan Quatermain decides to follow in his footsteps to learn what became of him. Soon after arriving, he discovers the Lost City of Gold, controlled by the evil lord Agon, and mined by his legions of white slaves.", "poster_path": "/wrNGk211swbgwipze5t0vZljKyq.jpg", "popularity": 11.044}, {"id": 7446, "video": false, "vote_count": 3479, "vote_average": 6.5, "title": "Tropic Thunder", "release_date": "2008-08-09", "original_language": "en", "original_title": "Tropic Thunder", "genre_ids": [28, 12, 35, 10752], "backdrop_path": "/pr8sj9FozsiT45TMtkwFRWONNII.jpg", "adult": false, "overview": "Vietnam veteran 'Four Leaf' Tayback's memoir, Tropic Thunder, is being made into a film, but Director Damien Cockburn can\u2019t control the cast of prima donnas. Behind schedule and over budget, Cockburn is ordered by a studio executive to get filming back on track, or risk its cancellation. On Tayback's advice, Cockburn drops the actors into the middle of the jungle to film the remaining scenes but, unbeknownst to the actors and production, the group have been dropped in the middle of the Golden Triangle, the home of heroin-producing gangs.", "poster_path": "/ue9QdvhpcNPvKQyLY5a5Pd0tagS.jpg", "popularity": 28.425}, {"adult": false, "backdrop_path": "/2ZkYXWejAwpkFkNnOY6nQYcJSPn.jpg", "genre_ids": [16, 35, 10751, 12], "id": 8355, "original_language": "en", "original_title": "Ice Age: Dawn of the Dinosaurs", "overview": "Times are changing for Manny the moody mammoth, Sid the motor mouthed sloth and Diego the crafty saber-toothed tiger. Life heats up for our heroes when they meet some new and none-too-friendly neighbors \u2013 the mighty dinosaurs.", "poster_path": "/crAf8b9gFpcdvY7majL8xWzTbem.jpg", "release_date": "2009-06-29", "title": "Ice Age: Dawn of the Dinosaurs", "video": false, "vote_average": 6.6, "vote_count": 5061, "popularity": 21.293}, {"id": 9016, "video": false, "vote_count": 2231, "vote_average": 7.4, "title": "Treasure Planet", "release_date": "2002-11-26", "original_language": "en", "original_title": "Treasure Planet", "genre_ids": [12, 16, 14, 878, 10751], "backdrop_path": "/3HVvtFm9NvOfn1u3yfeEugh2ZWj.jpg", "adult": false, "overview": "When space galleon cabin boy Jim Hawkins discovers a map to an intergalactic \"loot of a thousand worlds,\" a cyborg cook named John Silver teaches him to battle supernovas and space storms. But, soon, Jim realizes Silver is a pirate intent on mutiny!", "poster_path": "/gFfZVblQoExIVK4PVCJ9xZZJJKy.jpg", "popularity": 23.423}], "total_pages": 36, "total_results": 718}, "recommendations": {"page": 1, "results": [], "total_pages": 1, "total_results": 0}, "credits": {"cast": [{"cast_id": 7, "character": "Bomba", "credit_id": "52fe4a3cc3a368484e14817b", "gender": 2, "id": 101740, "name": "Johnny Sheffield", "order": 0, "profile_path": "/zyvkA03pHdxgsn06LsK93c4m5ra.jpg"}, {"cast_id": 8, "character": "Lita Sebastian", "credit_id": "52fe4a3cc3a368484e14817f", "gender": 1, "id": 83990, "name": "Laurette Luez", "order": 1, "profile_path": "/zWgKYji6JBpMj5mUGDWJYdsgGuG.jpg"}, {"cast_id": 9, "character": "Andy Barnes", "credit_id": "52fe4a3cc3a368484e148183", "gender": 2, "id": 101742, "name": "Leonard Mudie", "order": 2, "profile_path": "/4CxqJ3QP34J48L71lGXmR0H7ccW.jpg"}, {"cast_id": 10, "character": "Greg", "credit_id": "52fe4a3cc3a368484e148187", "gender": 2, "id": 34365, "name": "Arthur Space", "order": 3, "profile_path": "/wZjrUXjfvoKL369xn5oMDGIg2wK.jpg"}, {"cast_id": 11, "character": "Hardy", "credit_id": "52fe4a3cc3a368484e14818b", "gender": 0, "id": 160930, "name": "Lane Bradford", "order": 4, "profile_path": "/2FeXcbcxx14PRol8XcuFcZzBiAU.jpg"}, {"cast_id": 12, "character": "Pedro Sebastian", "credit_id": "52fe4a3cc3a368484e14818f", "gender": 2, "id": 94401, "name": "Mart\u00edn Garralaga", "order": 5, "profile_path": "/odBFSDP5TSr5PlfXPjT8lgbysP5.jpg"}, {"cast_id": 13, "character": "Roy DeHaven, alias Pat Gilroy", "credit_id": "52fe4a3cc3a368484e148193", "gender": 2, "id": 34119, "name": "Lyle Talbot", "order": 6, "profile_path": "/gHbCftyesSSHRCEClOQUOVjISV8.jpg"}, {"cast_id": 14, "character": "Eli", "credit_id": "52fe4a3cc3a368484e148197", "gender": 2, "id": 126835, "name": "Smoki Whitfield", "order": 7, "profile_path": null}], "crew": [{"credit_id": "52fe4a3cc3a368484e148159", "department": "Directing", "gender": 2, "id": 11431, "job": "Director", "name": "Ford Beebe", "profile_path": "/hYyHEnluu3sg9mCm5ZSl3oR8Jor.jpg"}, {"credit_id": "52fe4a3cc3a368484e14815f", "department": "Writing", "gender": 2, "id": 11431, "job": "Screenstory", "name": "Ford Beebe", "profile_path": "/hYyHEnluu3sg9mCm5ZSl3oR8Jor.jpg"}, {"credit_id": "52fe4a3cc3a368484e148165", "department": "Writing", "gender": 2, "id": 11431, "job": "Screenplay", "name": "Ford Beebe", "profile_path": "/hYyHEnluu3sg9mCm5ZSl3oR8Jor.jpg"}, {"credit_id": "52fe4a3cc3a368484e14816b", "department": "Production", "gender": 2, "id": 14523, "job": "Producer", "name": "Walter Mirisch", "profile_path": "/vo1wXRoFhrD9qtarvvchZkcOKyX.jpg"}, {"credit_id": "52fe4a3cc3a368484e148171", "department": "Sound", "gender": 2, "id": 30836, "job": "Original Music Composer", "name": "Raoul Kraushaar", "profile_path": "/uiweWC64wQfdKQ0JucpulYkFK2z.jpg"}, {"credit_id": "52fe4a3cc3a368484e148177", "department": "Camera", "gender": 2, "id": 98161, "job": "Director of Photography", "name": "Harry Neumann", "profile_path": null}]}}