{"adult": false, "backdrop_path": "/vCfhMbW76D7HwTwk8vV6SOMKOPQ.jpg", "belongs_to_collection": null, "budget": 0, "genres": [{"id": 14, "name": "Fantasy"}, {"id": 18, "name": "Drama"}, {"id": 878, "name": "Science Fiction"}], "homepage": null, "id": 120133, "imdb_id": "tt0097986", "original_language": "es", "original_title": "El ni\u00f1o de la luna", "overview": "Adopted by a treacherous semi-scientific cult where extraordinary mental powers are common, extraordinary 12-year-old David begins an archetypal journey across two continents to find his destiny as Child of the Moon.", "popularity": 2.745, "poster_path": "/gJX7UtBG7cvm2ZPX3pcTDjYN8dA.jpg", "production_companies": [{"id": 108094, "logo_path": null, "name": "Ganesh Producciones Cinematogr\u00e1ficas", "origin_country": ""}], "production_countries": [{"iso_3166_1": "ES", "name": "Spain"}], "release_date": "1989-01-01", "revenue": 0, "runtime": 118, "spoken_languages": [{"iso_639_1": "es", "name": "Espa\u00f1ol"}], "status": "Released", "tagline": "", "title": "Moon Child", "video": false, "vote_average": 5.7, "vote_count": 8, "keywords": {"keywords": [{"id": 5086, "name": "telekinesis"}, {"id": 6158, "name": "cult"}]}, "similar": {"page": 1, "results": [{"id": 616584, "video": false, "vote_count": 92, "vote_average": 7.5, "title": "K-12", "release_date": "2019-09-05", "original_language": "en", "original_title": "K-12", "genre_ids": [14, 27, 10402], "backdrop_path": "/fSlfaF0Ydfr2SK6hOYHvDsb7a9Z.jpg", "adult": false, "overview": "Cry Baby, a strong and sensitive girl, is sent off to a disturbing sleepaway school that\u2019s hidden underneath a grandiose fa\u00e7ade. Luckily, she has a sweet and unapologetic best friend who sticks up for her when she gets bullied by the other students whose brains are under control by the Principal and his wicked staff. With the help of the magical friends they meet along the way, as well as an Angelic Spirit Guide, they are able to gain the strength they need to fight off the school\u2019s belligerent patriarchal conditioning.", "poster_path": "/nVi0yBBPj5Z96JgGWVIg94kv7bR.jpg", "popularity": 15.107}, {"id": 361292, "video": false, "vote_count": 1096, "vote_average": 6.9, "title": "Suspiria", "release_date": "2018-10-11", "original_language": "en", "original_title": "Suspiria", "genre_ids": [14, 27], "backdrop_path": "/AmO8I38bkHwKhgxPNrd6djBQyPU.jpg", "adult": false, "overview": "A darkness swirls at the center of a world-renowned dance company, one that will engulf the troupe's artistic director, an ambitious young dancer and a grieving psychotherapist. Some will succumb to the nightmare, others will finally wake up.", "poster_path": "/qntguRoupnAASFdld8kTDe68fEn.jpg", "popularity": 16.617}, {"id": 240832, "video": false, "vote_count": 10811, "vote_average": 6.3, "title": "Lucy", "release_date": "2014-07-25", "original_language": "en", "original_title": "Lucy", "genre_ids": [28, 878], "backdrop_path": "/eCgIoGvfNXrbSiQGqQHccuHjQHm.jpg", "adult": false, "overview": "A woman, accidentally caught in a dark deal, turns the tables on her captors and transforms into a merciless warrior evolved beyond human logic.", "poster_path": "/rwn876MeqienhOVSSjtUPnwxn0Z.jpg", "popularity": 26.958}, {"adult": false, "backdrop_path": "/eHhtUoazdml8CMvzWtpunIyqrZS.jpg", "genre_ids": [18, 53, 10749], "id": 884, "original_language": "en", "original_title": "Crash", "overview": "After getting into a serious car accident, a TV director discovers an underground sub-culture of scarred, omnisexual car-crash victims who use car accidents and the raw sexual energy they produce to try to rejuvenate his sex life with his wife.", "poster_path": "/4PDLGJsS5uVBQlYjLMZ7t85dU0P.jpg", "release_date": "1996-07-17", "title": "Crash", "video": false, "vote_average": 6.5, "vote_count": 438, "popularity": 14.59}, {"id": 166424, "video": false, "vote_count": 4097, "vote_average": 4.4, "title": "Fantastic Four", "release_date": "2015-08-05", "original_language": "en", "original_title": "Fantastic Four", "genre_ids": [28, 12, 878], "backdrop_path": "/3Kgu3ys6W6UZWWFty7rlTWgST63.jpg", "adult": false, "overview": "Four young outsiders teleport to a dangerous universe, which alters their physical form in shocking ways. Their lives irrevocably upended, the team must learn to harness their daunting new abilities and work together to save Earth from a former friend turned enemy.", "poster_path": "/g23cs30dCMiG4ldaoVNP1ucjs6.jpg", "popularity": 23.552}, {"id": 76726, "video": false, "vote_count": 3331, "vote_average": 6.7, "title": "Chronicle", "release_date": "2012-02-01", "original_language": "en", "original_title": "Chronicle", "genre_ids": [18, 878, 53], "backdrop_path": "/f54d3tpzdRW02IDIIVRuwiY2N3K.jpg", "adult": false, "overview": "Three high school students make an incredible discovery, leading to their developing uncanny powers beyond their understanding. As they learn to control their abilities and use them to their advantage, their lives start to spin out of control, and their darker sides begin to take over.", "poster_path": "/kdyrdFIt29FUmLIKvedAc2j4rpo.jpg", "popularity": 16.937}, {"adult": false, "backdrop_path": "/cjRUhKyt2Jo3V1KNzc5tpPNfccG.jpg", "genre_ids": [878, 28, 12], "id": 320288, "original_language": "en", "original_title": "Dark Phoenix", "overview": "The X-Men face their most formidable and powerful foe when one of their own, Jean Grey, starts to spiral out of control. During a rescue mission in outer space, Jean is nearly killed when she's hit by a mysterious cosmic force. Once she returns home, this force not only makes her infinitely more powerful, but far more unstable. The X-Men must now band together to save her soul and battle aliens that want to use Grey's new abilities to rule the galaxy.", "poster_path": "/cCTJPelKGLhALq3r51A9uMonxKj.jpg", "release_date": "2019-06-05", "title": "Dark Phoenix", "video": false, "vote_average": 6.0, "vote_count": 2757, "popularity": 46.331}, {"id": 9294, "video": false, "vote_count": 619, "vote_average": 6.3, "title": "Phenomenon", "release_date": "1996-07-05", "original_language": "en", "original_title": "Phenomenon", "genre_ids": [18, 14, 878, 10749], "backdrop_path": "/nipD6OWKuSgOBzElr6Hzb31AWfU.jpg", "adult": false, "overview": "An ordinary man sees a bright light descend from the sky, and discovers he now has super-intelligence and telekinesis.", "poster_path": "/bnjSUzRUNaKQLN678wpK8zsD8jF.jpg", "popularity": 14.47}, {"adult": false, "backdrop_path": "/qr7R4pagFUcmz9ny6Gai9gjlSnn.jpg", "genre_ids": [27], "id": 4488, "original_language": "en", "original_title": "Friday the 13th", "overview": "Camp counselors are stalked and murdered by an unknown assailant while trying to reopen a summer camp that was the site of a child's drowning.", "poster_path": "/mGJlh8oMyTDhfudvs20kFpYz0Yc.jpg", "release_date": "1980-05-09", "title": "Friday the 13th", "video": false, "vote_average": 6.3, "vote_count": 1441, "popularity": 17.092}, {"adult": false, "backdrop_path": "/lugW6YkOPxkTFb12mWmW53etfUR.jpg", "genre_ids": [27, 53], "id": 10281, "original_language": "en", "original_title": "Friday the 13th Part VII: The New Blood", "overview": "A young girl who possesses the power of telekinesis accidentally causes her father's death after a family dispute at Crystal Lake. Years later, when a doctor tries to exploit her abilities, her power becomes a hellish curse, and she unwittingly unchains the merciless, bloodthirsty Jason Voorhees from his watery grave.", "poster_path": "/2Tyr422N8ivi9TfA9BAP896Z6Q.jpg", "release_date": "1988-05-13", "title": "Friday the 13th Part VII: The New Blood", "video": false, "vote_average": 5.3, "vote_count": 454, "popularity": 14.046}, {"adult": false, "backdrop_path": "/rMsr8JcgVRlP4orRCa8DDkxaoSS.jpg", "genre_ids": [12, 10751, 14, 878, 53, 28], "id": 13836, "original_language": "en", "original_title": "Race to Witch Mountain", "overview": "A taxi driver gets more than he bargained for when he picks up two teen runaways. Not only does the pair possess supernatural powers, but they're also trying desperately to escape people who have made them their targets.", "poster_path": "/jKGmK0nWoPNnHypfWgL7ZI7fN5Q.jpg", "release_date": "2009-03-12", "title": "Race to Witch Mountain", "video": false, "vote_average": 5.6, "vote_count": 980, "popularity": 14.802}, {"adult": false, "backdrop_path": "/ukdawD1jq3IRzpoYE2x6GXOuX3c.jpg", "genre_ids": [27], "id": 211067, "original_language": "en", "original_title": "The Sacrament", "overview": "A fashion photographer is traveling to meet his sister at Eden Parish. Once there, his friends begin to film interviews with the Eden Parish inhabitants, all of whom speak of the commune in glowing terms. However, they soon discover that there is a sinister edge to the commune that belies the seemingly peaceful setting.", "poster_path": "/thdioQOYqqusDUfT6trgwMIoNaQ.jpg", "release_date": "2013-09-02", "title": "The Sacrament", "video": false, "vote_average": 5.7, "vote_count": 226, "popularity": 8.477}, {"adult": false, "backdrop_path": "/zwJFfKQdfiptK2GY6N8GkZFrAxJ.jpg", "genre_ids": [27, 53], "id": 7340, "original_language": "en", "original_title": "Carrie", "overview": "Carrie White, a shy and troubled teenage girl who is tormented by her high school peers and her fanatically religious mother, begins to use her powers of telekinesis to exact revenge upon them.", "poster_path": "/n9JxLthRHwTWwu5OjFHVplkVSUg.jpg", "release_date": "1976-11-03", "title": "Carrie", "video": false, "vote_average": 7.2, "vote_count": 2026, "popularity": 14.332}, {"adult": false, "backdrop_path": "/wTUO3HhVaxLtzEuTnAwlGdwSwAp.jpg", "genre_ids": [35, 10751, 14], "id": 10830, "original_language": "en", "original_title": "Matilda", "overview": "An extraordinarily intelligent young girl from a cruel and uncaring family discovers she possesses telekinetic powers and is sent off to a school headed by a tyrannical principal.", "poster_path": "/vddUwPL3L8MBH4FrEDCAZM9T6sj.jpg", "release_date": "1996-08-02", "title": "Matilda", "video": false, "vote_average": 7.1, "vote_count": 2385, "popularity": 14.943}, {"id": 9538, "video": false, "vote_count": 522, "vote_average": 6.8, "title": "Scanners", "release_date": "1981-01-14", "original_language": "en", "original_title": "Scanners", "genre_ids": [27, 878], "backdrop_path": "/7kAXrqKDAt8vnVTJs3JIwfWYeGy.jpg", "adult": false, "overview": "After a man with extraordinary\u2014and frighteningly destructive\u2014telepathic abilities is nabbed by agents from a mysterious rogue corporation, he discovers he is far from the only possessor of such strange powers, and that some of the other \u201cscanners\u201d have their minds set on world domination, while others are trying to stop them.", "poster_path": "/zTfR7eZR7johzHzRpkr7cWCkLrm.jpg", "popularity": 14.134}, {"adult": false, "backdrop_path": "/st1Nst7Lqt5FnpVcJ9je9MjTM9n.jpg", "genre_ids": [53, 27], "id": 25749, "original_language": "en", "original_title": "Children of the Corn III: Urban Harvest", "overview": "Two young Gatlin residents are orphaned after the younger brother kills their father. The terror of Gatlin goes urban when the two boys are placed in the custody of two foster parents in the city. The younger brother takes some corn seeds along for the road and plants them in the courtyard of an abandoned warehouse, bringing \"He Who Walks Behind the Rows\" to the city.", "poster_path": "/ioOJZ2EshEuYwThxAo8nuNAfT2t.jpg", "release_date": "1995-09-12", "title": "Children of the Corn III: Urban Harvest", "video": false, "vote_average": 4.8, "vote_count": 86, "popularity": 10.256}, {"id": 318781, "video": false, "vote_count": 1199, "vote_average": 7.4, "title": "Colonia", "release_date": "2016-02-12", "original_language": "en", "original_title": "Colonia", "genre_ids": [18], "backdrop_path": "/3Sfjr8UCYrbtDubyDA0MCFjDccI.jpg", "adult": false, "overview": "A young woman's desperate search for her abducted boyfriend that draws her into the infamous Colonia Dignidad, a sect nobody ever escaped from.", "poster_path": "/buEhROtfCEFNhjPWdJVgeVnrThj.jpg", "popularity": 15.421}, {"id": 424121, "video": false, "vote_count": 682, "vote_average": 6.1, "title": "Apostle", "release_date": "2018-09-21", "original_language": "en", "original_title": "Apostle", "genre_ids": [14, 27, 9648, 53], "backdrop_path": "/73iZGJA287epF2nf2UvSbjelvlK.jpg", "adult": false, "overview": "In 1905, a man travels to a remote island in search of his missing sister who has been kidnapped by a mysterious religious cult.", "poster_path": "/rd269f2Yftxxam3EOJPYVwrvjIJ.jpg", "popularity": 10.962}, {"adult": false, "backdrop_path": "/8cVSUI36ORfCJ6d4TP71wIrdD7h.jpg", "genre_ids": [18, 27], "id": 133805, "original_language": "en", "original_title": "Carrie", "overview": "A reimagining of the classic horror tale about Carrie White, a shy girl outcast by her peers and sheltered by her deeply religious mother, who unleashes telekinetic terror on her small town after being pushed too far at her senior prom.", "poster_path": "/j0999NYddCGcishJlxluDRQIn6k.jpg", "release_date": "2013-10-16", "title": "Carrie", "video": false, "vote_average": 5.9, "vote_count": 2914, "popularity": 15.756}, {"id": 430231, "video": false, "vote_count": 411, "vote_average": 6.3, "title": "The Endless", "release_date": "2018-04-06", "original_language": "en", "original_title": "The Endless", "genre_ids": [27, 878, 53], "backdrop_path": "/zX0pEwk0zDnS85Nxl1hI6h6dfFu.jpg", "adult": false, "overview": "Two brothers return to the cult they fled from years ago to discover that the group's beliefs may be more sane than they once thought.", "poster_path": "/49sb3kEZplzudQBhJDSt0mNJm4V.jpg", "popularity": 10.38}], "total_pages": 15, "total_results": 297}, "recommendations": {"page": 1, "results": [{"adult": false, "backdrop_path": "/sCrwEaM0m8RYDWhwnUggc7s73VR.jpg", "genre_ids": [35, 878], "id": 64342, "original_language": "en", "original_title": "Lobster Man from Mars", "overview": "Young film student tries to sell his weird movie to a desperate film producer who is in need of a tax write-off. The producer screens the film \"Lobster Man From Mars\". What follows is one of the most bizarre and funny film within-a-film send-ups: Mars suffers from an air leakage, and send the dreaded Lobster Man to Earth to steal its air. The plot is foiled by a mad scientist, a girl, and an army colonel. The producer buys the movie, but it makes a huge profit and the producer is sent to jail, with the film student taking his place as the studio hot shot.", "poster_path": "/spvcL8xXZ0BWIqumbmOlHpOcAmE.jpg", "release_date": "1989-01-01", "title": "Lobster Man from Mars", "video": false, "vote_average": 5.7, "vote_count": 9, "popularity": 4.159}, {"adult": false, "backdrop_path": null, "genre_ids": [99], "id": 347353, "original_language": "es", "original_title": "Cazadores", "overview": "A group of children tells to the camera how they torture various animals, such as lizards, cats or mice. One of them tells how last summer, after attacking a cat with his friends, he saw something that made him reflect on what they did.", "poster_path": null, "release_date": "1997-07-03", "title": "Hunters", "video": false, "vote_average": 6.0, "vote_count": 4, "popularity": 0.6}, {"adult": false, "backdrop_path": "/tBWAZZzxGecBQQuaIGALTJX0oZ7.jpg", "genre_ids": [878], "id": 76825, "original_language": "el", "original_title": "\u03a0\u03c1\u03c9\u03ca\u03bd\u03ae \u03a0\u03b5\u03c1\u03af\u03c0\u03bf\u03bb\u03bf\u03c2", "overview": "A woman is walking alone through an abandoned city. She approaches the forbidden zone and tries to pass through. Everywhere the Morning Patrol and deceptive traps are watching. The city itself is alive but uncontrolled. Computer voices warn non-existing inhabitants to leave the city. The communication system works... cinemas show films... classic faces of a past era flash across TV screens. She is confronted by one of the few survivors guarding the city. They will come close to each other ; they will try to recall the past. Together they unravel their tangled memory - threads of this catastrophe and decide to penetrate the zone together ; They are linked by the bonds of violence and death since no other behaviour is possible in this kind of world. Is there an end? Is there hope and any future since no person that was allowed through ever returned to tell us whether the freedom of the sea exists.", "poster_path": "/2OYLkV14gMTCp0Yw6byNxgityh2.jpg", "release_date": "1987-10-08", "title": "Morning Patrol", "video": false, "vote_average": 6.5, "vote_count": 12, "popularity": 1.924}, {"adult": false, "backdrop_path": "/y0TwQV8NoP2IAH5xYqslIVervhj.jpg", "genre_ids": [18], "id": 87693, "original_language": "fr", "original_title": "Toutes les nuits", "overview": "La Premi\u00e8re \u00e9ducation sentimentale (the first version of L'\u00c9ducation sentimentale), re-adapting the themes of first love, the intoxication of desire, and failed ideological revolution (that culminated in the Revolution of 1848) to the May 68 generation through a chronicle of the parallel lives of a pair of childhood friends, the pragmatic Henri and idealistic Jules as they leave their bucolic, rural hometown to separately pursue their baccalaureate - and real world - educations.", "poster_path": "/l4gbciTOwpfG3MviHJC6FMZz8fY.jpg", "release_date": "2001-03-28", "title": "Toutes les nuits", "video": false, "vote_average": 7.0, "vote_count": 3, "popularity": 0.729}, {"adult": false, "backdrop_path": "/uItAvpAzk2FheVOiveQMcEJ36Jx.jpg", "genre_ids": [10749, 18], "id": 140423, "original_language": "he", "original_title": "Ani Ohev Otach Rosa", "overview": "This story centers on the Jewish practice that requires an unmarried brother to marry the childless widow of his dead brother. In this story the younger brother is only 12 years old when his brother dies. The requirement is avoided by a legal fiction, but as time passes in the story, the situation changes.", "poster_path": "/qgwXADGHNOVCKEx8xS9SXjaZuSz.jpg", "release_date": "1972-02-12", "title": "I Love You Rosa", "video": false, "vote_average": 6.8, "vote_count": 3, "popularity": 1.568}], "total_pages": 1, "total_results": 5}, "credits": {"cast": [{"cast_id": 12, "character": "Victoria", "credit_id": "546f12f59251415db80010cc", "gender": 1, "id": 146796, "name": "Maribel Mart\u00edn", "order": 0, "profile_path": "/tQkQOfTP6sGrXvhHln0D1olo9M7.jpg"}, {"cast_id": 3, "character": "Georgina", "credit_id": "52fe4a3fc3a368484e148bd5", "gender": 1, "id": 948, "name": "Lisa Gerrard", "order": 1, "profile_path": "/867E13AmZqTeVGLWx9sbfmPCY9H.jpg"}, {"cast_id": 5, "character": "Directora", "credit_id": "52fe4a3fc3a368484e148bdd", "gender": 1, "id": 39274, "name": "Lucia Bos\u00e9", "order": 2, "profile_path": "/aJ5UeUEyXJ4nU9DXjWvpUNVuAuJ.jpg"}, {"cast_id": 11, "character": "Anciana carbonera", "credit_id": "52fe4a3fc3a368484e148bf1", "gender": 1, "id": 54136, "name": "Mary Carrillo", "order": 3, "profile_path": "/7hKexCYebX1Een8KK34QKCjAJHF.jpg"}, {"cast_id": 8, "character": "Abuelo militar", "credit_id": "52fe4a3fc3a368484e148be5", "gender": 2, "id": 3617, "name": "G\u00fcnter Meisner", "order": 4, "profile_path": "/ratLVv6yrmsyViUECpBGWKaY78r.jpg"}, {"cast_id": 4, "character": "David", "credit_id": "52fe4a3fc3a368484e148bd9", "gender": 0, "id": 1071532, "name": "Enrique Saldana", "order": 5, "profile_path": null}, {"cast_id": 6, "character": "Edgar", "credit_id": "52fe4a3fc3a368484e148be1", "gender": 0, "id": 151163, "name": "David Sust", "order": 6, "profile_path": null}, {"cast_id": 9, "character": "Mid-e-mid", "credit_id": "52fe4a3fc3a368484e148be9", "gender": 0, "id": 1071533, "name": "Heidi Ben Amar", "order": 7, "profile_path": null}, {"cast_id": 10, "character": "Abuela mora", "credit_id": "52fe4a3fc3a368484e148bed", "gender": 0, "id": 1071534, "name": "Lydia Azzopardi", "order": 8, "profile_path": null}, {"cast_id": 13, "character": "Invalid", "credit_id": "597214639251414fde018eb4", "gender": 2, "id": 1118426, "name": "Jack Birkett", "order": 9, "profile_path": "/9LOx06MWYXrrV6SiHf6OQ4xNV6x.jpg"}, {"cast_id": 26, "character": "Hombre 1.\u00ba caba\u00f1a", "credit_id": "5d897b93223e20002976164c", "gender": 2, "id": 1604, "name": "Llu\u00eds Homar", "order": 10, "profile_path": "/aDUujbZn8zVdM6Cie27JfPcdM7S.jpg"}, {"cast_id": 27, "character": "Hombre 2.\u00ba caba\u00f1a", "credit_id": "5d897ba279b3d4001f8373b5", "gender": 0, "id": 1592163, "name": "Albert Dueso", "order": 11, "profile_path": null}, {"cast_id": 28, "character": "Director Orfanato", "credit_id": "5d897bb56c1e04000faac15f", "gender": 2, "id": 1386962, "name": "Joaquim Cardona", "order": 12, "profile_path": "/vuF5OmTgM3TB8JLRqzWGP02Dgpg.jpg"}, {"cast_id": 29, "character": "Cuidadora Centro", "credit_id": "5d897bc66c1e040021aabc1c", "gender": 0, "id": 585942, "name": "Lydia Zimmermann", "order": 13, "profile_path": null}, {"cast_id": 30, "character": "Hombre Telekinesis", "credit_id": "5d897bd5d9f4a600204dce1c", "gender": 0, "id": 2371614, "name": "Ramon Colomina", "order": 14, "profile_path": null}, {"cast_id": 31, "character": "M\u00e9dico 2.\u00ba", "credit_id": "5d897c19d9f4a6000e4e0529", "gender": 0, "id": 1515500, "name": "Xesc Barcel\u00f3", "order": 15, "profile_path": null}, {"cast_id": 32, "character": "M\u00e9dico 3.\u00ba", "credit_id": "5d897c2e223e200029761706", "gender": 2, "id": 17004, "name": "Javier Navarrete", "order": 16, "profile_path": null}, {"cast_id": 33, "character": "Hombre 1.\u00ba Muelle", "credit_id": "5d897c46d9f4a600284df6e2", "gender": 2, "id": 43329, "name": "Jordi Bosch", "order": 17, "profile_path": "/b0t6hoD5v8jV9lUtDVUxlrOEsKh.jpg"}, {"cast_id": 34, "character": "Hombre 2.\u00ba Muelle", "credit_id": "5d897c56223e200019762d2e", "gender": 2, "id": 67613, "name": "Luciano Federico", "order": 18, "profile_path": "/tkZN8uWDtnoMkjaJ1GCQoBKc7eo.jpg"}, {"cast_id": 35, "character": "Hombre refrescos", "credit_id": "5d897c85d9f4a6000e4e0624", "gender": 2, "id": 1592182, "name": "Ll\u00e0tzer Escarceller", "order": 19, "profile_path": "/tFUSIrlasQFj6HGgK5hCBdIGamd.jpg"}, {"cast_id": 36, "character": "Esclava negra", "credit_id": "5d897c92172d7f000d4c72f8", "gender": 0, "id": 1678555, "name": "Lucia De Sousa", "order": 20, "profile_path": null}, {"cast_id": 37, "character": "Piloto 1.\u00ba", "credit_id": "5d897cae172d7f00274c2a48", "gender": 0, "id": 2039424, "name": "Paco Villar", "order": 21, "profile_path": null}], "crew": [{"credit_id": "5d897ae1223e200019762a2a", "department": "Production", "gender": 2, "id": 29904, "job": "Producer", "name": "Juli\u00e1n Mateos", "profile_path": "/urMvw4P8eAt7HV1IGGcxRmgI87n.jpg"}, {"credit_id": "52fe4a3fc3a368484e148bcd", "department": "Directing", "gender": 0, "id": 151162, "job": "Director", "name": "Agust\u00ed Villaronga", "profile_path": "/vAaj5vkgEPXOZLDowGJiX3b4So7.jpg"}, {"credit_id": "5b7f699bc3a3687e16003e15", "department": "Writing", "gender": 0, "id": 151162, "job": "Writer", "name": "Agust\u00ed Villaronga", "profile_path": "/vAaj5vkgEPXOZLDowGJiX3b4So7.jpg"}, {"credit_id": "5d897b216c1e040019aaa693", "department": "Camera", "gender": 0, "id": 1168109, "job": "Director of Photography", "name": "Jaume Peracaula", "profile_path": null}, {"credit_id": "5d897b4179b3d40017830bef", "department": "Art", "gender": 0, "id": 1298965, "job": "Set Decoration", "name": "Francesc Candini", "profile_path": null}, {"credit_id": "5d897a7d79b3d40027831716", "department": "Production", "gender": 1, "id": 1326606, "job": "Producer", "name": "Selma Baccar", "profile_path": null}, {"credit_id": "5d897b1179b3d40017830baf", "department": "Sound", "gender": 0, "id": 1383641, "job": "Music", "name": "Dead Can Dance", "profile_path": null}, {"credit_id": "5d897b2e172d7f001f4c9762", "department": "Editing", "gender": 0, "id": 1498627, "job": "Editor", "name": "Ra\u00fal Rom\u00e1n", "profile_path": null}, {"credit_id": "5d897a97d9f4a600204dcb23", "department": "Production", "gender": 0, "id": 1591153, "job": "Producer", "name": "Adolfo Cora", "profile_path": null}, {"credit_id": "5d897b66c58acd00192d535a", "department": "Costume & Make-Up", "gender": 0, "id": 1693864, "job": "Costume Design", "name": "Isidre Prun\u00e9s", "profile_path": null}, {"credit_id": "5d897aac79b3d40017830a9d", "department": "Production", "gender": 0, "id": 1697469, "job": "Producer", "name": "Jaime Fern\u00e1ndez-Cid", "profile_path": null}, {"credit_id": "5d897b58223e20002176626b", "department": "Costume & Make-Up", "gender": 0, "id": 1788548, "job": "Costume Design", "name": "Montse Amen\u00f3s", "profile_path": null}, {"credit_id": "5d897af1172d7f00174c8080", "department": "Production", "gender": 0, "id": 2039424, "job": "Producer", "name": "Paco Villar", "profile_path": null}]}}