{"adult": false, "backdrop_path": "/5N6oVXFRbs205hGlVTCBB2CJsMm.jpg", "belongs_to_collection": null, "budget": 0, "genres": [{"id": 18, "name": "Drama"}, {"id": 10749, "name": "Romance"}], "homepage": null, "id": 120259, "imdb_id": "tt0046676", "original_language": "en", "original_title": "About Mrs. Leslie", "overview": "A lonely, unhappy owner of a Beverly Hills boarding house reflects on her lonely, unhappy life and the lonely, unhappy man she once loved.", "popularity": 1.964, "poster_path": "/nZtne5NQkHgrHC57FpFSAOX5jF8.jpg", "production_companies": [{"id": 4, "logo_path": "/fycMZt242LVjagMByZOLUGbCvv3.png", "name": "Paramount", "origin_country": "US"}], "production_countries": [{"iso_3166_1": "US", "name": "United States of America"}], "release_date": "1954-08-03", "revenue": 0, "runtime": 104, "spoken_languages": [{"iso_639_1": "en", "name": "English"}], "status": "Released", "tagline": "...and the man she never quite married", "title": "About Mrs. Leslie", "video": false, "vote_average": 7.3, "vote_count": 4, "keywords": {"keywords": [{"id": 158390, "name": "landlady"}, {"id": 225530, "name": "rooming house"}]}, "similar": {"page": 1, "results": [{"id": 833, "video": false, "vote_count": 263, "vote_average": 8.1, "title": "Umberto D.", "release_date": "1952-01-20", "original_language": "it", "original_title": "Umberto D.", "genre_ids": [18], "backdrop_path": "/2xzwyXRkAxmrE66gq1AhhKh4whB.jpg", "adult": false, "overview": "When elderly pensioner Umberto Domenico Ferrari returns to his boarding house from a protest calling for a hike in old-age pensions, his landlady demands her 15,000-lire rent by the end of the month or he and his small dog will be turned out onto the street. Unable to get the money in time, Umberto fakes illness to get sent to a hospital, giving his beloved dog to the landlady's pregnant and abandoned maid for temporary safekeeping.", "poster_path": "/zwslsX98Hp4GyJGoVI4mZMU9mDO.jpg", "popularity": 10.817}, {"adult": false, "backdrop_path": "/mfveSD2WIT3fhqufs7VVePzgiA8.jpg", "genre_ids": [18, 10751, 35, 80, 9648], "id": 20723, "original_language": "en", "original_title": "That Darn Cat!", "overview": "A young woman suspects foul play when her cat comes home wearing a wrist watch. Convincing the FBI, though, and catching the bad guys is tougher than she imagined.", "poster_path": "/lBKxgJYZy3zNXcxkIFsnz1BE8uL.jpg", "release_date": "1965-12-02", "title": "That Darn Cat!", "video": false, "vote_average": 6.6, "vote_count": 70, "popularity": 9.172}, {"adult": false, "backdrop_path": "/kH4MEGd9pECI27pKq5NkohGu2xD.jpg", "genre_ids": [18], "id": 76000, "original_language": "en", "original_title": "The L-Shaped Room", "overview": "Leslie Caron plays a young, pregnant, unmarried Frenchwoman who takes a room in a seedy boarding house in London. She soon makes friends with Toby, a struggling writer who lives downstairs, and eventually gets to accept her room and the strange characters in the house. But what to do about her baby? And what to do about Toby?", "poster_path": "/sSBS7H9tzXkYQVN3F9fzsuiwcZZ.jpg", "release_date": "1962-11-20", "title": "The L-Shaped Room", "video": false, "vote_average": 7.2, "vote_count": 18, "popularity": 3.678}, {"id": 29094, "video": false, "vote_count": 39, "vote_average": 6.5, "title": "The Lodger", "release_date": "1944-01-19", "original_language": "en", "original_title": "The Lodger", "genre_ids": [18, 27, 9648, 53], "backdrop_path": "/r7Ivy7rKImX87m5TtHb0KLQdXbN.jpg", "adult": false, "overview": "In Victorian era London, the inhabitants of a family home with rented rooms upstairs fear the new lodger is Jack the Ripper.", "poster_path": "/v4kQaZS6kXnEu2Btv5JJ4SfxKTf.jpg", "popularity": 4.857}, {"id": 49844, "video": false, "vote_count": 14, "vote_average": 7.0, "title": "The Notorious Landlady", "release_date": "1962-04-01", "original_language": "en", "original_title": "The Notorious Landlady", "genre_ids": [35, 9648, 53, 10749], "backdrop_path": "/5Jh8AYCaWCXoRMHnNc6thvtNMGl.jpg", "adult": false, "overview": "An American junior diplomat in London rents a house from, and falls in love with, a woman suspected of murder.", "poster_path": "/pcqAkMO5oo4UetpLjM3bXijYyL1.jpg", "popularity": 4.228}, {"id": 44463, "video": false, "vote_count": 17, "vote_average": 7.3, "title": "The Miracle Woman", "release_date": "1931-07-20", "original_language": "en", "original_title": "The Miracle Woman", "genre_ids": [18], "backdrop_path": "/t61TU4iEysU5xKRXVnGKBjEomxI.jpg", "adult": false, "overview": "A phony faith healer falls for a blind man and seeks to go straight.", "poster_path": "/bUDpNNIcOjk9bUHkz3oXkBqHB04.jpg", "popularity": 3.331}, {"id": 95797, "video": false, "vote_count": 19, "vote_average": 7.7, "title": "Waterloo Bridge", "release_date": "1931-09-04", "original_language": "en", "original_title": "Waterloo Bridge", "genre_ids": [18, 10749], "backdrop_path": "/gOAEwKsvZYXBDQWQKeYoZHXzXSt.jpg", "adult": false, "overview": "In World War I London, Myra is an American out-of-work chorus girl making ends meet by picking up men on Waterloo Bridge. During a Zeppelin air raid she meets Roy, a naive young American who enlisted in the Canadian army. After they fall for each other, Roy tricks Myra into visiting his family, who live in a country estate outside London, his mother having remarried to a retired British Major. Myra is reluctant to continue the relationship with Roy, he not aware of her past.", "poster_path": "/pHzA3gHKl63gkwOqghlcZQMwrhL.jpg", "popularity": 3.331}, {"adult": false, "backdrop_path": "/utKttiha5WHHHBx6DAlBuz9F6Pd.jpg", "genre_ids": [18], "id": 196693, "original_language": "en", "original_title": "The Girl from 10th Avenue", "overview": "When his fianc\u00e9e Valentine dumps him, prominent lawyer Geoffrey Sherwood goes on a bender and winds up married to a stranger, Miriam Brady. They decide to give their marriage a chance. Their landlady, a one-time Floradora girl, offers to help Miriam become refined. Successful again, Geoffrey is approached (\"if only we were free\") by Valentine. Miriam tells Valentine off in no uncertain terms. Geoffrey moves into his club where Valentine's husband tells him he is a fool to leave Miriam", "poster_path": "/a9mSudUzZJ7EHLcJjz0diMby63p.jpg", "release_date": "1935-06-01", "title": "The Girl from 10th Avenue", "video": false, "vote_average": 6.9, "vote_count": 5, "popularity": 3.104}, {"adult": false, "backdrop_path": "/mYVIRICmXJEG6agIm6THn3bf7mH.jpg", "genre_ids": [80, 18], "id": 19170, "original_language": "en", "original_title": "Mystery Street", "overview": "When a young woman's skeletal remains turn up on a Massachusetts beach, Barnstable cop Peter Moralas teams with Boston police and uses forensics, with the help of a Harvard professor, to determine the woman's identity, how she died, and who killed her.", "poster_path": "/k1xC0mfgdOUMy0FqHZWJpnbG1ht.jpg", "release_date": "1950-07-27", "title": "Mystery Street", "video": false, "vote_average": 6.5, "vote_count": 25, "popularity": 5.053}, {"id": 5506, "video": false, "vote_count": 207, "vote_average": 7.4, "title": "The Ladykillers", "release_date": "1955-12-08", "original_language": "en", "original_title": "The Ladykillers", "genre_ids": [35, 80], "backdrop_path": "/lnwsCjM0G11FpPYQKpKG4328IyM.jpg", "adult": false, "overview": "A gang of five diverse oddball criminal types rent a two-room apartment in an old house on a London cul-de-sac from an octogenarian widow with three pet parrots. The group's mastermind, Professor Marcus, tells her a cover story that they are members of an amateur string quintet and would like to use the rooms to hone their musical skills. In reality, they're plotting to rob an armored bank van and plan to use Mrs. Wilberforce's naivet\u00e9 and her Victorian sensibilities to their advantage.", "poster_path": "/vsVvW2Ya1Gv4tNX21r6hahjG2Yv.jpg", "popularity": 9.312}, {"adult": false, "backdrop_path": "/AbfXLaKxVZhmcY0pKXAeHdaL8fF.jpg", "genre_ids": [18, 10749], "id": 193321, "original_language": "en", "original_title": "The Deep Blue Sea", "overview": "A woman is unhappy in her marriage to a boring, stiff judge, so she takes up with a wild-living RAF pilot, who ends up being more than she can handle. (TCM.com)", "poster_path": "/98TFnJ8GZlbBnbCZ6v8IIcdCPsP.jpg", "release_date": "1955-11-01", "title": "The Deep Blue Sea", "video": false, "vote_average": 5.6, "vote_count": 5, "popularity": 1.187}, {"adult": false, "backdrop_path": "/9hREuOWYAsJWbGsnk1dz5vh1UE4.jpg", "genre_ids": [18], "id": 156441, "original_language": "en", "original_title": "My Sin", "overview": "A prostitute living in Panama shoots her pimp and is charged with murder. The lawyer who gets her off fronts her money to start a new life in NY where she becomes a successful business woman and meets wealthy businessman, Harry Davenport. He knows nothing of her past. Then someone from the past shows up. Will she be exposed? Will she follow through on her plan to marry?", "poster_path": "/8ijhg3C0VYGxamd9M1HySrQy75G.jpg", "release_date": "1931-10-02", "title": "My Sin", "video": false, "vote_average": 6.2, "vote_count": 5, "popularity": 1.943}, {"adult": false, "backdrop_path": "/5bfj2Zf7DHByUFwlx5BXTVZZG7X.jpg", "genre_ids": [80, 18], "id": 610296, "original_language": "ta", "original_title": "\u0b9c\u0bc0\u0bb5\u0bbf", "overview": "Frustrated at his failed romance, an intelligent man decides to steal from his landlady\u2019s house. Even as he comes up with clever ways to outsmart the cops, he realises that his actions are echoes from the past.", "poster_path": "/vuLtA7onL3YE870mXf8yhLlYfQM.jpg", "release_date": "2019-06-28", "title": "Jiivi", "video": false, "vote_average": 7.8, "vote_count": 6, "popularity": 0.977}, {"adult": false, "backdrop_path": "/zcjobKZvvEzYzFsoDGFyye5GgsE.jpg", "genre_ids": [18, 35], "id": 309777, "original_language": "cs", "original_title": "D\u00edra u Hanu\u0161ovic", "overview": "When not serving regulars at a pub in the middle of a sleepy northern Moravian village, thirtysomething Maruna spends time with hesitant Jura and na\u00efve outsider Olin \u2013 or fighting with her imperious mother. Lightened with a touch of black humor, this laconic village drama is the directorial debut of the artistic director of Prague\u2019s Dejvice Theater who gave the members of his ensemble a one-of-a-kind acting opportunity in film.", "poster_path": "/xj3onaMYpq9OPVDfkFCifIsRihy.jpg", "release_date": "2014-07-24", "title": "Nowhere in Moravia", "video": false, "vote_average": 5.3, "vote_count": 3, "popularity": 0.84}, {"adult": false, "backdrop_path": "/AcTYzVt9vv32SSSVya8O0k7h1UR.jpg", "genre_ids": [18, 10749], "id": 147864, "original_language": "en", "original_title": "Hello, Sister!", "overview": "Peggy and her friend Millie are strolling down Broadway while Jimmy and Mac are trolling Broadway, and the four get together...", "poster_path": "/AjV6CNXqw7ozbdx2Uw6LFetX6YW.jpg", "release_date": "1933-04-14", "title": "Hello, Sister!", "video": false, "vote_average": 6.0, "vote_count": 1, "popularity": 2.018}, {"adult": false, "backdrop_path": null, "genre_ids": [18], "id": 367056, "original_language": "lv", "original_title": "P\u016bt, v\u0113ji\u0146i", "overview": "Based on a stage play of the same name by the one of the biggest names in the history of Latvian literature Rainis, \"Put, vejini\" tells a story of an unconventional love that blossoms between the handsome, wealthy and impetuous merchant Uldis and the timid, humble and clear-hearted orphan Baiba.", "poster_path": "/tiYksTXBOZatWdx0UUdDeMCL4b5.jpg", "release_date": "1973-09-01", "title": "Blow, Wind", "video": false, "vote_average": 8.0, "vote_count": 1, "popularity": 0.941}, {"adult": false, "backdrop_path": "/lgKg9e7Zjt0rY6g7oaDsIXQSOuN.jpg", "genre_ids": [18], "id": 215106, "original_language": "en", "original_title": "Probation", "overview": "Janet Holman is suspicious of her fianc\u00e9, Allen Wells, after he kisses her best friend Gwen when the lights are turned out during a party. Allen leaves early, purportedly for business reasons, but in reality, he is going to visit his secret girl friend, seventeen-year-old Ruth Jarrett. When Ruth's neighbor and landlady, Mrs. Humphries, overhears her talking to Allen on the phone, she becomes morally outraged and calls the police. Ruth is taken away to juvenile hall, and when Ruth's older brother Nick comes home to celebrate Ruth's birthday, Mrs. Humphries explains that Ruth has been seeing an older, wealthy man who has been leading her astray, and that she sent her away for her own good. Nick is saddened that he has failed to keep Ruth on the right track, and when he returns to his apartment, he becomes enraged to see Allen there. When Allen claims ignorance of Ruth's age, Nick hits him, and they engage in a brawl.", "poster_path": "/ahlHaQST0VQCDdEfLphwtmINvT9.jpg", "release_date": "1932-04-01", "title": "Probation", "video": false, "vote_average": 0.0, "vote_count": 0, "popularity": 0.961}, {"adult": false, "backdrop_path": "/yqOpuDDTxDj9EFALcDElFKOT1qg.jpg", "genre_ids": [53, 18, 80], "id": 449074, "original_language": "en", "original_title": "Like Mother Like Son: The Strange Story of Sante and Kenny Kimes", "overview": "The real-life case based on the horrific crimes of Sante and Kenny Kimes, the mother and son duo who specialized in theft, fraud and murder.", "poster_path": "/b34lvEG34jlPG3zmbaM4pPxDLuw.jpg", "release_date": "2001-05-20", "title": "Like Mother Like Son: The Strange Story of Sante and Kenny Kimes", "video": false, "vote_average": 0.0, "vote_count": 0, "popularity": 1.105}, {"adult": false, "backdrop_path": null, "genre_ids": [35, 18], "id": 407039, "original_language": "cn", "original_title": "\u8001\u592b\u5b50\u4e09\u6551\u50bb\u4ed4\u660e", "overview": "The third live action Old Master Q movie depicts drama and hilarity between a young couple during their hardships.", "poster_path": "/smER57rebGaQ5iWErowuRzaVGgv.jpg", "release_date": "1966-07-13", "title": "How Master Cute Thrice Saved The Idiot Ming", "video": false, "vote_average": 0.0, "vote_count": 0, "popularity": 0.6}, {"adult": false, "backdrop_path": "/71BzkJ1YIsjdULxkZajfbBlThUg.jpg", "genre_ids": [27, 53, 9648], "id": 28363, "original_language": "en", "original_title": "The Mad Magician", "overview": "Don Gallico is an inventor of stage magic effects who aspires to become a star in his own right. Just before his first performance his act is shut down by capricious manager Ross Ormond who wants Gallico's brilliant buzz saw effect for the act of The Great Rinaldi, an established star. With this defeat, and the humiliation of having already lost his wife Claire to Ormond, Gallico decides it is time to take matters into his own hands.", "poster_path": "/2RQrQkbtn1TszJLWQTNW0HlQzHt.jpg", "release_date": "1954-05-19", "title": "The Mad Magician", "video": false, "vote_average": 7.0, "vote_count": 19, "popularity": 4.606}], "total_pages": 2, "total_results": 27}, "recommendations": {"page": 1, "results": [], "total_pages": 1, "total_results": 0}, "credits": {"cast": [{"cast_id": 2, "character": "Mrs. Vivien Leslie", "credit_id": "52fe4a43c3a368484e14979b", "gender": 1, "id": 113284, "name": "Shirley Booth", "order": 0, "profile_path": "/mM4K7Klt6kmPJqxYQGrP2NZdoPB.jpg"}, {"cast_id": 3, "character": "George Leslie", "credit_id": "52fe4a43c3a368484e14979f", "gender": 2, "id": 8253, "name": "Robert Ryan", "order": 1, "profile_path": "/xBAWG79UGCkchPPTbONycJiKW2g.jpg"}, {"cast_id": 4, "character": "Nadine Roland", "credit_id": "52fe4a43c3a368484e1497a3", "gender": 0, "id": 1072147, "name": "Marjie Millar", "order": 2, "profile_path": "/yqQaFwYdITJfTzMR3V6BmjdWJGP.jpg"}, {"cast_id": 5, "character": "Lan McKay", "credit_id": "52fe4a43c3a368484e1497a7", "gender": 2, "id": 109846, "name": "Alex Nicol", "order": 3, "profile_path": "/26O7vrO7qwz2eDuEXAvXU5lDsrW.jpg"}, {"cast_id": 6, "character": "Harry Willey", "credit_id": "52fe4a43c3a368484e1497ab", "gender": 0, "id": 110940, "name": "Sammy White", "order": 4, "profile_path": "/79S37l5OONgeZfdBmr8XBGYTjsq.jpg"}, {"cast_id": 7, "character": "Mr. Herbert Poole", "credit_id": "52fe4a43c3a368484e1497af", "gender": 0, "id": 84935, "name": "James Bell", "order": 5, "profile_path": "/wRkt24kVhuy2iMYdzgYJ2qbava9.jpg"}, {"cast_id": 8, "character": "Pixie Croffman", "credit_id": "52fe4a43c3a368484e1497b3", "gender": 1, "id": 199128, "name": "Eilene Janssen", "order": 6, "profile_path": "/p4YmD1F2fZ8v6wuKZOiKqLpuoeA.jpg"}, {"cast_id": 9, "character": "Mort Finley", "credit_id": "52fe4a43c3a368484e1497b7", "gender": 2, "id": 2644, "name": "Philip Ober", "order": 7, "profile_path": "/ney8KQ445hFtsb0fu3apsleKWmh.jpg"}, {"cast_id": 10, "character": "Fred Blue", "credit_id": "52fe4a43c3a368484e1497bb", "gender": 2, "id": 4073, "name": "Harry Morgan", "order": 8, "profile_path": "/xQlBwecEQEz84k7jDLPGi6FqxRJ.jpg"}, {"cast_id": 11, "character": "Mrs. Croffman", "credit_id": "52fe4a43c3a368484e1497bf", "gender": 1, "id": 5738, "name": "Ellen Corby", "order": 9, "profile_path": "/sgVSpnL4dJ8d0Y273lonNM4GuHK.jpg"}, {"cast_id": 12, "character": "Camilla", "credit_id": "52fe4a43c3a368484e1497c3", "gender": 1, "id": 103087, "name": "Maidie Norman", "order": 10, "profile_path": null}, {"cast_id": 13, "character": "Felice", "credit_id": "52fe4a43c3a368484e1497c7", "gender": 1, "id": 12505, "name": "Kasey Rogers", "order": 11, "profile_path": "/flhSK1oO7IFm5WGnZahbhEtQSxs.jpg"}, {"cast_id": 14, "character": "Mrs. McKay", "credit_id": "52fe4a43c3a368484e1497cb", "gender": 1, "id": 88461, "name": "Nana Bryant", "order": 12, "profile_path": "/4TsrQXRRpO36BseB7BUTG0Op7hM.jpg"}, {"cast_id": 15, "character": "Barney", "credit_id": "52fe4a43c3a368484e1497cf", "gender": 2, "id": 93624, "name": "Ray Teal", "order": 13, "profile_path": "/vddCtm4m8enym2C6QZ69eT3MUJo.jpg"}, {"cast_id": 16, "character": "Mr. Pope", "credit_id": "52fe4a43c3a368484e1497d3", "gender": 2, "id": 2782, "name": "Ian Wolfe", "order": 14, "profile_path": "/ylp7puM2Hcd0VkQvXfmD7zkP4m7.jpg"}, {"cast_id": 17, "character": "Lewis", "credit_id": "52fe4a43c3a368484e1497d7", "gender": 2, "id": 30216, "name": "Pierre Watkin", "order": 15, "profile_path": "/s9Z72wx6hJ2BwG6feVC6s4TcWrb.jpg"}, {"cast_id": 18, "character": "Mrs. Poole", "credit_id": "52fe4a43c3a368484e1497db", "gender": 1, "id": 2780, "name": "Virginia Brissac", "order": 16, "profile_path": "/At0bnWMBlJNqWKCg7uBe66nRdXL.jpg"}, {"cast_id": 19, "character": "Gilly", "credit_id": "52fe4a43c3a368484e1497df", "gender": 1, "id": 30529, "name": "Amanda Blake", "order": 17, "profile_path": "/azdM8X4CSB3EINLs4wD3uFT3u9Y.jpg"}, {"cast_id": 20, "character": "Hackley", "credit_id": "52fe4a43c3a368484e1497e3", "gender": 2, "id": 2101, "name": "Percy Helton", "order": 18, "profile_path": "/xqr6Yn0swcDkCD42lECMdNW6q98.jpg"}, {"cast_id": 21, "character": "Mrs. Sims", "credit_id": "52fe4a43c3a368484e1497e7", "gender": 1, "id": 19098, "name": "Mabel Albertson", "order": 19, "profile_path": "/yiLpCHge3tzcwDpvhTz8zwdgS2f.jpg"}, {"cast_id": 22, "character": "Mrs. Fine", "credit_id": "52fe4a43c3a368484e1497eb", "gender": 1, "id": 17662, "name": "Edith Evanson", "order": 20, "profile_path": "/nocf7KthPB0tKaip5KGJ5SilfAr.jpg"}, {"cast_id": 23, "character": "Jim", "credit_id": "52fe4a43c3a368484e1497ef", "gender": 0, "id": 1194434, "name": "Ike Jones", "order": 21, "profile_path": null}], "crew": [{"credit_id": "57327e01925141656d0007b8", "department": "Writing", "gender": 0, "id": 3376, "job": "Writer", "name": "Hal Kanter", "profile_path": null}, {"credit_id": "58bc6f43925141609b0408ea", "department": "Production", "gender": 2, "id": 4123, "job": "Producer", "name": "Hal B. Wallis", "profile_path": "/lia6xtKaPDmQ68BArDkqxAFj9go.jpg"}, {"credit_id": "58bc8372c3a368666b03c0f1", "department": "Costume & Make-Up", "gender": 1, "id": 4350, "job": "Costume Design", "name": "Edith Head", "profile_path": "/63ZeXQOh26sGa8nTbYWntieyWrz.jpg"}, {"credit_id": "58bc835e925141609b041a39", "department": "Art", "gender": 2, "id": 5188, "job": "Art Direction", "name": "Hal Pereira", "profile_path": null}, {"credit_id": "58bc8365925141607b041e53", "department": "Art", "gender": 2, "id": 7687, "job": "Set Decoration", "name": "Sam Comer", "profile_path": null}, {"credit_id": "58bc836b92514160730425d2", "department": "Art", "gender": 2, "id": 8243, "job": "Set Decoration", "name": "Arthur Krams", "profile_path": "/9VwkbO1zLnZz2ROELO4gCrGr3dY.jpg"}, {"credit_id": "58bc6f52c3a36851cd02453a", "department": "Camera", "gender": 2, "id": 9103, "job": "Director of Photography", "name": "Ernest Laszlo", "profile_path": null}, {"credit_id": "58bc6f5ac3a368515d0247df", "department": "Editing", "gender": 2, "id": 18595, "job": "Editor", "name": "Warren Low", "profile_path": null}, {"credit_id": "58bc6f4bc3a36851cd024534", "department": "Sound", "gender": 2, "id": 26026, "job": "Original Music Composer", "name": "Victor Young", "profile_path": null}, {"credit_id": "52fe4a43c3a368484e149797", "department": "Directing", "gender": 2, "id": 90522, "job": "Director", "name": "Daniel Mann", "profile_path": "/7v2p42NlK1erhSfoK9KoabeHqI0.jpg"}, {"credit_id": "57327df8c3a3686a36000715", "department": "Writing", "gender": 1, "id": 105022, "job": "Writer", "name": "Ketti Frings", "profile_path": "/gnlVOSYkZaKcueFrgZUd0AU94hc.jpg"}, {"credit_id": "58bc8358925141607b041e45", "department": "Art", "gender": 2, "id": 120450, "job": "Art Direction", "name": "A. Earl Hedrick", "profile_path": null}, {"credit_id": "57327df0c3a3686957000807", "department": "Writing", "gender": 1, "id": 125363, "job": "Novel", "name": "Vi\u00f1a Delmar", "profile_path": null}, {"credit_id": "5c98cf520e0a264cc3c30808", "department": "Sound", "gender": 2, "id": 2053983, "job": "Sound", "name": "Jim Miller", "profile_path": null}, {"credit_id": "5c5a4605925141337cb76dad", "department": "Directing", "gender": 2, "id": 2218103, "job": "Assistant Director", "name": "Ralph Axness", "profile_path": null}]}}