{"adult": false, "backdrop_path": "/gKgDAN2cmA1KqS0rdeDra7tJnkR.jpg", "belongs_to_collection": null, "budget": 0, "genres": [{"id": 18, "name": "Drama"}, {"id": 35, "name": "Comedy"}], "homepage": null, "id": 121238, "imdb_id": "tt0023049", "original_language": "en", "original_title": "If I Had a Million", "overview": "An elderly business tycoon, believed to be dying, decides to give a million dollars each to 8 strangers chosen at random from the phone directory.", "popularity": 4.696, "poster_path": "/gzhwWy9NYpBP1cD19efiB8Bj8t5.jpg", "production_companies": [{"id": 4, "logo_path": "/fycMZt242LVjagMByZOLUGbCvv3.png", "name": "Paramount", "origin_country": "US"}], "production_countries": [{"iso_3166_1": "US", "name": "United States of America"}], "release_date": "1932-12-02", "revenue": 0, "runtime": 88, "spoken_languages": [{"iso_639_1": "en", "name": "English"}], "status": "Released", "tagline": "", "title": "If I Had a Million", "video": false, "vote_average": 6.9, "vote_count": 11, "keywords": {"keywords": [{"id": 5728, "name": "tycoon"}, {"id": 156764, "name": "pre-code"}, {"id": 224328, "name": "road hog"}, {"id": 224329, "name": "condemned man"}]}, "similar": {"page": 1, "results": [{"id": 3035, "video": false, "vote_count": 715, "vote_average": 7.5, "title": "Frankenstein", "release_date": "1931-11-21", "original_language": "en", "original_title": "Frankenstein", "genre_ids": [18, 27, 878], "backdrop_path": "/nwmG8pQQ1xFAPZruYNnrnld2KMC.jpg", "adult": false, "overview": "Dr Henry Frankenstein is obsessed with assembling a living being from parts of several exhumed corpses.", "poster_path": "/wB58wlBAr6484Wm6VyFDqSD8VOJ.jpg", "popularity": 24.454}, {"id": 58431, "video": false, "vote_count": 1300, "vote_average": 5.8, "title": "Pride and Prejudice and Zombies", "release_date": "2016-02-04", "original_language": "en", "original_title": "Pride and Prejudice and Zombies", "genre_ids": [35, 27, 53, 10749], "backdrop_path": "/z6gSLTHsAgqlOwID8jMHfFgeufS.jpg", "adult": false, "overview": "A zombie outbreak has fallen upon the land in this reimagining of Jane Austen\u2019s classic tale of the tangled relationships between lovers from different social classes in 19th century England. Feisty heroine Elizabeth Bennet (Lily James) is a master of martial arts and weaponry and the handsome Mr. Darcy (Sam Riley) is a fierce zombie killer, yet the epitome of upper class prejudice. As the zombie outbreak intensifies, they must swallow their pride and join forces on the blood-soaked battlefield in order to conquer the undead once and for all.", "poster_path": "/jsJlOhVHiz1xXr36616EI8tJ4b2.jpg", "popularity": 15.305}, {"adult": false, "backdrop_path": "/j7hS3yybvvAd9V217IkZSOjkOvY.jpg", "genre_ids": [18, 28, 53, 80], "id": 832, "original_language": "de", "original_title": "M - Eine Stadt sucht einen M\u00f6rder", "overview": "In this classic German thriller, Hans Beckert, a serial killer who preys on children, becomes the focus of a massive Berlin police manhunt. Beckert's heinous crimes are so repellant and disruptive to city life that he is even targeted by others in the seedy underworld network. With both cops and criminals in pursuit, the murderer soon realizes that people are on his trail, sending him into a tense, panicked attempt to escape justice.", "poster_path": "/AqE126KXLcT3wwmeM3HtlKqyGze.jpg", "release_date": "1931-05-11", "title": "M", "video": false, "vote_average": 8.1, "vote_count": 999, "popularity": 14.976}, {"id": 116, "video": false, "vote_count": 2412, "vote_average": 7.3, "title": "Match Point", "release_date": "2005-10-26", "original_language": "en", "original_title": "Match Point", "genre_ids": [80, 18, 53, 10749], "backdrop_path": "/40gCaXoyT75wuLbz1t5BwpLm0w4.jpg", "adult": false, "overview": "Match Point is Woody Allen\u2019s satire of the British High Society and the ambition of a young tennis instructor to enter into it. Yet when he must decide between two women - one assuring him his place in high society, and the other that would take him far from it - palms start to sweat and a dark psychological match in his head begins.", "poster_path": "/zuSFZEbSs7hj9lfeu2k7a4bPxdE.jpg", "popularity": 13.645}, {"adult": false, "backdrop_path": "/46y6EvnDveRFwtztyHVS0y2DipU.jpg", "genre_ids": [18, 53, 28], "id": 1372, "original_language": "en", "original_title": "Blood Diamond", "overview": "An ex-mercenary turned smuggler. A Mende fisherman. Amid the explosive civil war overtaking 1999 Sierra Leone, these men join for two desperate missions: recovering a rare pink diamond of immense value and rescuing the fisherman's son conscripted as a child soldier into the brutal rebel forces ripping a swath of torture and bloodshed countrywide.", "poster_path": "/wRamTzV6udKaMXrspxqOuo02zk0.jpg", "release_date": "2006-12-07", "title": "Blood Diamond", "video": false, "vote_average": 7.5, "vote_count": 4323, "popularity": 18.56}, {"adult": false, "backdrop_path": "/wfFTStTBWo3zIciBW4Eob3sarSz.jpg", "genre_ids": [35, 10749], "id": 3078, "original_language": "en", "original_title": "It Happened One Night", "overview": "A renegade reporter and a crazy young heiress meet on a bus heading for New York, and end up stuck with each other when the bus leaves them behind at one of the stops.", "poster_path": "/k63JqnFvkIGWGhjsqRiksZw2OSs.jpg", "release_date": "1934-02-22", "title": "It Happened One Night", "video": false, "vote_average": 7.9, "vote_count": 563, "popularity": 13.497}, {"adult": false, "backdrop_path": "/wEo4UtBAWdB4aOmQ9wRjI1aS7Dt.jpg", "genre_ids": [35, 18], "id": 10098, "original_language": "en", "original_title": "The Kid", "overview": "A tramp cares for a boy after he's abandoned as a newborn by his mother. Later the mother has a change of heart and aches to be reunited with her son.", "poster_path": "/drgMcyTsySQBnUPGaBThCHGdlWT.jpg", "release_date": "1921-02-06", "title": "The Kid", "video": false, "vote_average": 8.3, "vote_count": 976, "popularity": 12.296}, {"id": 33680, "video": false, "vote_count": 145, "vote_average": 7.0, "title": "Grand Hotel", "release_date": "1932-05-25", "original_language": "en", "original_title": "Grand Hotel", "genre_ids": [18, 10749], "backdrop_path": "/uiIwVCclBveUt2PVO8F7xkPe5Cj.jpg", "adult": false, "overview": "Guests at a posh Berlin hotel struggle through worry, scandal, and heartache.", "poster_path": "/2j7dxqIlGHdTaaUW9s4Z5zfp9qS.jpg", "popularity": 7.93}, {"id": 877, "video": false, "vote_count": 222, "vote_average": 7.6, "title": "Scarface", "release_date": "1932-04-09", "original_language": "en", "original_title": "Scarface", "genre_ids": [28, 80, 18, 53], "backdrop_path": "/fX1DFPMZYsRG17BmMPJAKUaBZEz.jpg", "adult": false, "overview": "A murderous thug shoots his way to the top of the mobs while trying to protect his sister from the criminal life.", "poster_path": "/ai9WOjgNRXo42D0GJIIdi7toZ5x.jpg", "popularity": 14.434}, {"id": 138, "video": false, "vote_count": 542, "vote_average": 7.2, "title": "Dracula", "release_date": "1931-02-12", "original_language": "en", "original_title": "Dracula", "genre_ids": [14, 27], "backdrop_path": "/ouPAQD01ZOsdsZTNgxJ0J3mo6qK.jpg", "adult": false, "overview": "The legend of vampire Count Dracula begins here with this original 1931 Dracula film starring Bela Lugosi.", "poster_path": "/hA9kQrIwDHJKl1pt8GpJdDnBzim.jpg", "popularity": 11.146}, {"id": 17473, "video": false, "vote_count": 825, "vote_average": 4.1, "title": "The Room", "release_date": "2003-06-27", "original_language": "en", "original_title": "The Room", "genre_ids": [18, 10749], "backdrop_path": "/mz4lKE1bPRGOeoC14bf09SJw1tu.jpg", "adult": false, "overview": "Johnny is a successful banker with great respect for and dedication to the people in his life, especially his future wife Lisa. The happy-go-lucky guy sees his world fall apart when his friends begin to betray him one-by-one.", "poster_path": "/aUC39cFC2KO8CJ0EV0ijIJRr3PT.jpg", "popularity": 11.094}, {"adult": false, "backdrop_path": "/q9q0lUP40vMSKzRV8FKIhob0DS6.jpg", "genre_ids": [35, 10749], "id": 34106, "original_language": "en", "original_title": "You Can't Take It with You", "overview": "Alice, the only relatively normal member of the eccentric Sycamore family, falls in love with Tony Kirby. His wealthy banker father, Anthony P. Kirby, and his snobbish mother, strongly disapprove of the match. When the Kirbys are invited to dinner to become better acquainted with their future in-laws, things do not turn out the way Alice had hoped.", "poster_path": "/ysTiFXwTowOdDOUu9ikE21LPmdy.jpg", "release_date": "1938-08-23", "title": "You Can't Take It with You", "video": false, "vote_average": 7.6, "vote_count": 162, "popularity": 9.321}, {"adult": false, "backdrop_path": "/amIl0MsLT0GP5ERwbodOPswYabr.jpg", "genre_ids": [35, 80, 9648], "id": 3529, "original_language": "en", "original_title": "The Thin Man", "overview": "A husband-and-wife detective team takes on the search for a missing inventor and almost get killed for their efforts.", "poster_path": "/rEXmQIgG8aHiZZbYAPdJjZNUxa.jpg", "release_date": "1934-05-25", "title": "The Thin Man", "video": false, "vote_average": 7.6, "vote_count": 199, "popularity": 9.216}, {"adult": false, "backdrop_path": "/ke4r46wgmL1WUac1cOgjSsHLqwE.jpg", "genre_ids": [12, 18, 27], "id": 244, "original_language": "en", "original_title": "King Kong", "overview": "A film crew discovers the \"eighth wonder of the world,\" a giant prehistoric ape, and brings him back to New York, where he wreaks havoc.", "poster_path": "/vXInYahVp31uL8wZORckaoHq565.jpg", "release_date": "1933-03-15", "title": "King Kong", "video": false, "vote_average": 7.6, "vote_count": 721, "popularity": 16.591}, {"id": 143, "video": false, "vote_count": 337, "vote_average": 7.8, "title": "All Quiet on the Western Front", "release_date": "1930-04-29", "original_language": "en", "original_title": "All Quiet on the Western Front", "genre_ids": [18, 10752], "backdrop_path": "/cmAHUFBqg8VO0InX9QdDTZQSg9H.jpg", "adult": false, "overview": "A young soldier faces profound disillusionment in the soul-destroying horror of World War I. Together with several other young German soldiers, he experiences the horrors of war, such evil of which he had not conceived of when signing up to fight. They eventually become sad, tormented, and confused of their purpose.", "poster_path": "/yAU6jklJLUjZot3WyvyJrxVdLKb.jpg", "popularity": 14.739}, {"id": 16161, "video": false, "vote_count": 127, "vote_average": 7.0, "title": "Baby Boy", "release_date": "2001-06-27", "original_language": "en", "original_title": "Baby Boy", "genre_ids": [80, 18, 53, 10749], "backdrop_path": "/u33Zr0q2Cf3zz7U8cUmi3F8Oud1.jpg", "adult": false, "overview": "The story of Jody, a misguided, 20-year-old African-American who is really just a baby boy finally forced-kicking and screaming to face the commitments of real life. Streetwise and jobless, he has not only fathered two children by two different women-Yvette and Peanut but still lives with his own mother. He can't seem to strike a balance or find direction in his chaotic life.", "poster_path": "/m7p3qFZsULnvOM5GkFCGCAueeSX.jpg", "popularity": 12.97}, {"id": 15849, "video": false, "vote_count": 253, "vote_average": 7.0, "title": "The Mummy", "release_date": "1932-12-22", "original_language": "en", "original_title": "The Mummy", "genre_ids": [27], "backdrop_path": "/4rWJqhiCCZCUsVzh1iCnoe0wcAL.jpg", "adult": false, "overview": "An ancient Egyptian priest named Imhotep is revived when an archaeological expedition finds his mummy and one of the archaeologists accidentally reads an ancient life-giving spell. Imhotep escapes from the field site and searches for the reincarnation of the soul of his lover.", "poster_path": "/vSKpbZVvzqQcw6htiyEinbCY9vq.jpg", "popularity": 10.525}, {"id": 3063, "video": false, "vote_count": 379, "vote_average": 7.5, "title": "Duck Soup", "release_date": "1933-11-12", "original_language": "en", "original_title": "Duck Soup", "genre_ids": [35, 10402, 10752], "backdrop_path": "/ylnEuuKZR6IcvHpl0SdjpXNytpp.jpg", "adult": false, "overview": "Rufus T. Firefly is named president/dictator of bankrupt Freedonia and declares war on neighboring Sylvania over the love of wealthy Mrs. Teasdale.", "poster_path": "/jy4DJN8pKmEz4UNjCGiFaJuMfDJ.jpg", "popularity": 12.469}, {"id": 17687, "video": false, "vote_count": 140, "vote_average": 7.3, "title": "The Public Enemy", "release_date": "1931-04-23", "original_language": "en", "original_title": "The Public Enemy", "genre_ids": [80, 18], "backdrop_path": "/oXLaGV0VOqQhXdUmQpm6KGsSpu1.jpg", "adult": false, "overview": "Two young Chicago hoodlums, Tom Powers and Matt Doyle, rise up from their poverty-stricken slum life to become petty thieves, bootleggers and cold-blooded killers. But with street notoriety and newfound wealth, the duo feels the heat from the cops and rival gangsters both. Despite his ruthless criminal reputation, Tom tries to remain connected to his family, however, gang warfare and the need for revenge eventually pull him away.", "poster_path": "/kFLy1G6XgTo0VSUUXRopYjSpNFT.jpg", "popularity": 8.369}, {"id": 195, "video": false, "vote_count": 112, "vote_average": 7.7, "title": "Trouble in Paradise", "release_date": "1932-10-30", "original_language": "en", "original_title": "Trouble in Paradise", "genre_ids": [35, 80, 10749], "backdrop_path": "/lMZyfDVoxhmfBUNmnNQWvSEL9E3.jpg", "adult": false, "overview": "Thief Gaston Monescu and pickpocket Lily are partners in crime and love. Working for perfume company executive Mariette Colet, the two crooks decide to combine their criminal talents to rob their employer. Under the alias of Monsieur Laval, Gaston uses his position as Mariette's personal secretary to become closer to her. However, he takes things too far when he actually falls in love with Mariette, and has to choose between her and Lily.", "poster_path": "/FBxuoLRD3Biyul14unT5m3PYNS.jpg", "popularity": 8.036}], "total_pages": 51, "total_results": 1007}, "recommendations": {"page": 1, "results": [{"adult": false, "backdrop_path": null, "genre_ids": [18], "id": 104216, "original_language": "en", "original_title": "Sarah and Son", "overview": "A ne'er-do-well husband, after years of abusing his wife, disappears with their son, and winds up selling him to a wealthy family. Years later, the wife--now a world-famous opera singer--finally has enough time and money to begin a search for him.", "poster_path": "/yrBdEMQe49Z6vaCmufWWpLl4bzR.jpg", "release_date": "1930-03-14", "title": "Sarah and Son", "video": false, "vote_average": 5.0, "vote_count": 2, "popularity": 2.558}, {"id": 42813, "video": false, "vote_count": 3, "vote_average": 5.3, "title": "The Painted Desert", "release_date": "1931-01-01", "original_language": "en", "original_title": "The Painted Desert", "genre_ids": [37], "backdrop_path": "/xYD3oESFwQmZB4HwgRcGyhUllkc.jpg", "adult": false, "overview": "Western pardners Jeff and Cash find a baby boy in an otherwise deserted emigrants' camp, and clash over which is to be \"father.\" They are still bitterly feuding years later when they own adjacent ranches. Bill, the foundling whom Cash has raised to young manhood, wants to end the feud and extends an olive branch toward Jeff, who now has a lovely daughter. But during a mining venture, the bitterness escalates. Is Bill to be set against his own adoptive father?", "poster_path": "/1urUkzdhHFIGMEhMtj8YgfqMQWo.jpg", "popularity": 2.436}, {"adult": false, "backdrop_path": "/t4P6d3rWJFSPDafwjodzWhL0Qp6.jpg", "genre_ids": [10402, 35], "id": 43126, "original_language": "en", "original_title": "Roman Scandals", "overview": "A kind-hearted young man is thrown out of his corrupt home town of West Rome, Oklahoma. He falls asleep and dreams that he is back in the days of olden Rome, where he gets mixed up with court intrigue and a murder plot against the Emperor.", "poster_path": "/tTFmdFJIqILBYBf1RvEqPkpdMEY.jpg", "release_date": "1933-01-01", "title": "Roman Scandals", "video": false, "vote_average": 7.0, "vote_count": 8, "popularity": 2.939}, {"adult": false, "backdrop_path": "/ewi9J9obg6dLfRdIgP3tvdVRaTE.jpg", "genre_ids": [18, 12], "id": 170558, "original_language": "en", "original_title": "The Last Days of Pompeii", "overview": "In this action-filled spectacle set in ancient Pompeii, a blacksmith becomes a Roman gladiator, though his rise to wealth and power is jeopardized by his son's Christianity and the eruption of Vesuvius.", "poster_path": "/rLgW731EzMIYVyhc1k9O2K5XnNb.jpg", "release_date": "1935-10-18", "title": "The Last Days of Pompeii", "video": false, "vote_average": 5.7, "vote_count": 10, "popularity": 3.298}, {"adult": false, "backdrop_path": "/gzl9g0zwaOuUarY9kzPKMG0puFd.jpg", "genre_ids": [18], "id": 72338, "original_language": "en", "original_title": "Frisco Jenny", "overview": "Frisco Jenny was orphaned by the 1906 earthquake and fire and has become the madame of prosperous bawdy house. She puts her son up for adoption and he rises to prominence as district attorney dedicated to closing down such houses. When her underling Dutton proposes killing the DA, she kills the underling and must face execution.", "poster_path": "/1RI7hKDXt6vmXWRinObEhk9Jx9h.jpg", "release_date": "1932-12-30", "title": "Frisco Jenny", "video": false, "vote_average": 7.2, "vote_count": 6, "popularity": 2.821}], "total_pages": 1, "total_results": 5}, "credits": {"cast": [{"cast_id": 8, "character": "Steve Gallagher", "credit_id": "52fe4a5dc3a368484e14f461", "gender": 2, "id": 4068, "name": "Gary Cooper", "order": 0, "profile_path": "/zVUK71x5IoBaJ5H9dTgE2CRmLKy.jpg"}, {"cast_id": 9, "character": "Phineas V. Lambert", "credit_id": "52fe4a5dc3a368484e14f465", "gender": 2, "id": 10921, "name": "Charles Laughton", "order": 1, "profile_path": "/vEfcV6RA6tJr035OAG9U9o4uRyL.jpg"}, {"cast_id": 10, "character": "Eddie Jackson", "credit_id": "52fe4a5dc3a368484e14f469", "gender": 2, "id": 3152, "name": "George Raft", "order": 2, "profile_path": "/orQya82STEGviY0ARuyo3AIt1Ud.jpg"}, {"cast_id": 11, "character": "Private Mulligan", "credit_id": "52fe4a5dc3a368484e14f46d", "gender": 2, "id": 14028, "name": "Jack Oakie", "order": 3, "profile_path": "/rSo16WdKISZTAZwffjdQTBO26DU.jpg"}, {"cast_id": 12, "character": "John Glidden", "credit_id": "52fe4a5dc3a368484e14f471", "gender": 2, "id": 14519, "name": "Richard Bennett", "order": 4, "profile_path": "/wzonLAOvuEDkArifzieJiZb3D1S.jpg"}, {"cast_id": 13, "character": "Henry Peabody (as Charlie Ruggles)", "credit_id": "52fe4a5dc3a368484e14f475", "gender": 2, "id": 2436, "name": "Charles Ruggles", "order": 5, "profile_path": "/mYzf9Vq3rFizQwk5cXJBFSYAcJI.jpg"}, {"cast_id": 14, "character": "Emily La Rue", "credit_id": "52fe4a5dc3a368484e14f479", "gender": 1, "id": 131234, "name": "Alison Skipworth", "order": 6, "profile_path": "/31okBT6NukBP0Pon266W06yJQSv.jpg"}, {"cast_id": 15, "character": "Rollo La Rue", "credit_id": "52fe4a5dc3a368484e14f47d", "gender": 2, "id": 13954, "name": "W.C. Fields", "order": 7, "profile_path": "/hPUjAJE8HAzMJhH1oc2p3mdDAVj.jpg"}, {"cast_id": 16, "character": "Mrs. Peabody", "credit_id": "52fe4a5dc3a368484e14f481", "gender": 1, "id": 88870, "name": "Mary Boland", "order": 8, "profile_path": "/41fxfIYTR3hEVv0rm2rvYhS3nup.jpg"}, {"cast_id": 17, "character": "Private O'Brien", "credit_id": "52fe4a5dc3a368484e14f485", "gender": 2, "id": 30157, "name": "Roscoe Karns", "order": 9, "profile_path": "/8K65O6N0qtgus9cdvBIdfmAEKJ2.jpg"}, {"cast_id": 18, "character": "Mrs. Mary Walker", "credit_id": "52fe4a5dc3a368484e14f489", "gender": 1, "id": 13816, "name": "May Robson", "order": 10, "profile_path": "/gdefOJA7rBFFuJg5PPaTGS6izH8.jpg"}, {"cast_id": 34, "character": "China Shop Salesman (uncredited)", "credit_id": "5bec06000e0a266aa500895a", "gender": 2, "id": 30530, "name": "Irving Bacon", "order": 11, "profile_path": "/oI6h1L5HvvXLacBIlKoHcXrHbhI.jpg"}, {"cast_id": 35, "character": "Warden (uncredited)", "credit_id": "5bec0624925141024d007d2c", "gender": 2, "id": 14969, "name": "Berton Churchill", "order": 12, "profile_path": "/rZJl9ZZPc9V7jSp2QTck8wKIaua.jpg"}, {"cast_id": 23, "character": "Marie the Waitress (uncredited)", "credit_id": "52fe4a5dc3a368484e14f49d", "gender": 1, "id": 89725, "name": "Joyce Compton", "order": 13, "profile_path": "/e7WvcNQOgK1QCg1B9adsCTmtVbG.jpg"}, {"cast_id": 36, "character": "Emily's Friend Agnes (uncredited)", "credit_id": "5bec064dc3a3685c050085bd", "gender": 1, "id": 77160, "name": "Cecil Cunningham", "order": 14, "profile_path": "/sNksWLUlYa6hVXDscUXBhX3tkEx.jpg"}, {"cast_id": 21, "character": "Mary Wallace (uncredited)", "credit_id": "52fe4a5dc3a368484e14f495", "gender": 1, "id": 95117, "name": "Frances Dee", "order": 15, "profile_path": "/xJyKgeBsvo8jYBbiMuqaJ43HPne.jpg"}, {"cast_id": 29, "character": "China Store Customer (uncredited)", "credit_id": "594651d9c3a3682619003cee", "gender": 1, "id": 121323, "name": "Bess Flowers", "order": 16, "profile_path": "/akbW8jJl8GSXFpixFaobMOqvNv4.jpg"}, {"cast_id": 37, "character": "Mrs. Garvey (uncredited)", "credit_id": "5bec066b925141025900793b", "gender": 1, "id": 30159, "name": "Blanche Friderici", "order": 17, "profile_path": "/90ib22RRJwUCJROHwGY8W8N5g9R.jpg"}, {"cast_id": 19, "character": "Violet Smith (uncredited)", "credit_id": "52fe4a5dc3a368484e14f48d", "gender": 1, "id": 94306, "name": "Wynne Gibson", "order": 18, "profile_path": "/9ARTvQAXmYDDuuNcGFESs8qZKMf.jpg"}, {"cast_id": 38, "character": "Idylwood Receptionist (uncredited)", "credit_id": "5bec0682c3a3685bf90083ff", "gender": 1, "id": 89100, "name": "Lillian Harmer", "order": 19, "profile_path": "/pFqT2n2DOMqbtM4zW7k1texKrBY.jpg"}, {"cast_id": 39, "character": "Lawyer (uncredited)", "credit_id": "5bec069cc3a3685bf9008419", "gender": 2, "id": 17756, "name": "Samuel S. Hinds", "order": 20, "profile_path": "/3VrGfCOsIdEvsbJPodAEqHRsmp1.jpg"}, {"cast_id": 40, "character": "Joe the Carnival Bouncer (uncredited)", "credit_id": "5bec06b80e0a266aa90085d2", "gender": 2, "id": 34324, "name": "Tom Kennedy", "order": 21, "profile_path": "/v8VboGHq2aUqYG3l3WBPsyxSyad.jpg"}, {"cast_id": 22, "character": "Hamburger Stand Owner Zeb (uncredited)", "credit_id": "52fe4a5dc3a368484e14f499", "gender": 2, "id": 34574, "name": "Lucien Littlefield", "order": 22, "profile_path": "/65jnSJmU2BC4Jrpg2Nfg6glU6wN.jpg"}, {"cast_id": 41, "character": "Prison Priest (uncredited)", "credit_id": "5bec06d4c3a3685bf6008586", "gender": 2, "id": 30215, "name": "Grant Mitchell", "order": 23, "profile_path": "/cDZpWgH0qOF4L5nmZJzGIHE5xo3.jpg"}, {"cast_id": 42, "character": "New Secretary at Idylwood (uncredited)", "credit_id": "5bec07060e0a266aa5008a4c", "gender": 1, "id": 98574, "name": "Gail Patrick", "order": 24, "profile_path": "/vCdZttcsdbWhkLUygrV2bUpf1Lw.jpg"}, {"cast_id": 43, "character": "Idylwood Resident (uncredited)", "credit_id": "5bec07220e0a266a9b0086d8", "gender": 1, "id": 29603, "name": "Tempe Pigott", "order": 25, "profile_path": "/bRPwCTNKlWZfNZc3kMjxp8oQAOw.jpg"}, {"cast_id": 20, "character": "John Wallace (uncredited)", "credit_id": "52fe4a5dc3a368484e14f491", "gender": 2, "id": 117419, "name": "Gene Raymond", "order": 26, "profile_path": "/7SPUqMrrbCbp71ICO2z71tCArYc.jpg"}, {"cast_id": 44, "character": "Mrs. Walker's Dancing Partner at Idylwood (uncredited)", "credit_id": "5bec07440e0a266a9b008708", "gender": 2, "id": 119402, "name": "Tom Ricketts", "order": 27, "profile_path": "/eQSUtckCym9ssmSGjH0sVMGQnzM.jpg"}, {"cast_id": 45, "character": "Glidden Associate Fred (uncredited)", "credit_id": "5bec0764925141024b007a2a", "gender": 2, "id": 103620, "name": "Willard Robertson", "order": 28, "profile_path": "/obv0gmpXV3hGpnUKQVInkBPKBcA.jpg"}], "crew": [{"credit_id": "52fe4a5dc3a368484e14f44b", "department": "Directing", "gender": 2, "id": 2428, "job": "Director", "name": "Ernst Lubitsch", "profile_path": "/fJeGenaTarQTLl21eDlnx4MIM9K.jpg"}, {"credit_id": "57055cf8c3a3680b60000a1d", "department": "Writing", "gender": 2, "id": 2430, "job": "Writer", "name": "Grover Jones", "profile_path": null}, {"credit_id": "57055d0fc3a3680f3d00095c", "department": "Writing", "gender": 2, "id": 10149, "job": "Story", "name": "Robert Sparks", "profile_path": null}, {"credit_id": "57055cea92514176090009f6", "department": "Writing", "gender": 2, "id": 10601, "job": "Writer", "name": "Joseph L. Mankiewicz", "profile_path": "/1zqHOZQlevCE2ld15qUt24Nxr7u.jpg"}, {"credit_id": "52fe4a5dc3a368484e14f45d", "department": "Directing", "gender": 2, "id": 82800, "job": "Director", "name": "Norman Taurog", "profile_path": "/nDz17mvGRWV4BeJwgr9FVq1xIGH.jpg"}, {"credit_id": "52fe4a5dc3a368484e14f451", "department": "Directing", "gender": 2, "id": 82389, "job": "Director", "name": "Norman Z. McLeod", "profile_path": "/oaf6aGWSkNPNAXPQNPz9MlktnrR.jpg"}, {"credit_id": "52fe4a5dc3a368484e14f445", "department": "Directing", "gender": 2, "id": 87700, "job": "Director", "name": "H. Bruce Humberstone", "profile_path": "/mHdkYOkKMhIQgrcHmIglB8bwvzz.jpg"}, {"credit_id": "52fe4a5dc3a368484e14f43f", "department": "Directing", "gender": 2, "id": 94305, "job": "Director", "name": "James Cruze", "profile_path": null}, {"credit_id": "52fe4a5dc3a368484e14f4a3", "department": "Directing", "gender": 2, "id": 99346, "job": "Director", "name": "Stephen Roberts", "profile_path": null}, {"credit_id": "52fe4a5dc3a368484e14f457", "department": "Directing", "gender": 2, "id": 108987, "job": "Director", "name": "William A. Seiter", "profile_path": "/7D6HgXoJdOrlIVyW8cf2EIkVpJZ.jpg"}, {"credit_id": "5b196c5b0e0a261f90008c93", "department": "Camera", "gender": 2, "id": 117734, "job": "Director of Photography", "name": "Gilbert Warrenton", "profile_path": null}, {"credit_id": "57055d02c3a3680f3d000959", "department": "Writing", "gender": 0, "id": 223115, "job": "Writer", "name": "William Slavens McNutt", "profile_path": null}, {"credit_id": "5b196c64c3a368490700a419", "department": "Camera", "gender": 0, "id": 558286, "job": "Director of Photography", "name": "Alvin Wyckoff", "profile_path": null}, {"credit_id": "5b196c7cc3a36848ed007da2", "department": "Camera", "gender": 2, "id": 1265586, "job": "Director of Photography", "name": "Harry Fischbeck", "profile_path": null}, {"credit_id": "5b196c72c3a3684911008572", "department": "Camera", "gender": 2, "id": 1312705, "job": "Director of Photography", "name": "Charles Edgar Schoenbaum", "profile_path": "/pk714Y2FoxskI2FX1twvGceXYlO.jpg"}]}}