{"adult": false, "backdrop_path": "/cK7i3fHUD1UkiNOE4zZ8RA8Kmf7.jpg", "belongs_to_collection": null, "budget": 0, "genres": [{"id": 18, "name": "Drama"}], "homepage": "http://antoki.jp/index.html", "id": 121725, "imdb_id": "tt1848784", "original_language": "ja", "original_title": "\u30a2\u30f3\u30c8\u30ad\u30ce\u30a4\u30ce\u30c1", "overview": "Kyohei Nagashima (Masaki Okada) has shut away the world. During his high school days he was the target of bullying and experienced horrifying moments. Now as a young adult Kyohei takes a new job. He works for a company that specializes in cleaning out the homes of recently deceased individuals. With his new job Kyohei meets co-worker Yuki (Nana Eikura). Yuki has also experienced a traumatizing event as a teen and has also shut herself away from the world. These two young people form a bond as they go through the homes of the recently departed people. They gradually open up to each other and in the process to the world. Yet, their fragile psyches may or may not be ready for such changes ...", "popularity": 1.751, "poster_path": "/zH8kbyBkyfwQVg3aJCmfWhygatm.jpg", "production_companies": [{"id": 5904, "logo_path": null, "name": "Sochiku", "origin_country": ""}], "production_countries": [{"iso_3166_1": "JP", "name": "Japan"}], "release_date": "2011-11-19", "revenue": 0, "runtime": 131, "spoken_languages": [{"iso_639_1": "ja", "name": "\u65e5\u672c\u8a9e"}], "status": "Released", "tagline": "", "title": "Life Back Then", "video": false, "vote_average": 6.0, "vote_count": 2, "keywords": {"keywords": [{"id": 6733, "name": "bullying"}, {"id": 9872, "name": "grief"}]}, "similar": {"page": 1, "results": [{"id": 258230, "video": false, "vote_count": 2100, "vote_average": 7.2, "title": "A Monster Calls", "release_date": "2016-10-07", "original_language": "en", "original_title": "A Monster Calls", "genre_ids": [18, 14], "backdrop_path": "/xVW8REyVqKwxAtUYY07UGlZH43L.jpg", "adult": false, "overview": "A boy imagines a monster that helps him deal with his difficult life and see the world in a different way.", "poster_path": "/oqZ0MBWxNrArZpyVqk3QGAA37QL.jpg", "popularity": 18.929}, {"id": 13310, "video": false, "vote_count": 1711, "vote_average": 7.5, "title": "Let the Right One In", "release_date": "2008-01-26", "original_language": "sv", "original_title": "L\u00e5t den r\u00e4tte komma in", "genre_ids": [18, 27], "backdrop_path": "/wMRVKIIIn5035KIY0J793aHWVOj.jpg", "adult": false, "overview": "Set in 1982 in the suburb of Blackeberg, Stockholm, twelve-year-old Oskar is a lonely outsider, bullied at school by his classmates; at home, Oskar dreams of revenge against a trio of bullies. He befriends his twelve-year-old, next-door neighbor Eli, who only appears at night in the snow-covered playground outside their building.", "poster_path": "/9FGpMfbpKjN7i2jF2gQpvQvK9VB.jpg", "popularity": 17.762}, {"adult": false, "backdrop_path": "/oKfBGEOxgobdaq0AhX7Qd7JRS7v.jpg", "genre_ids": [80, 18], "id": 9517, "original_language": "en", "original_title": "Bully", "overview": "After finding himself at the constant abuse of his best friend Bobby, Marty has become fed up with his friend's twisted ways. His girlfriend, a victim of Bobby's often cruel ways, couldn't agree more and they strategize murdering Bobby.", "poster_path": "/3l2mMLVj2CFjaRe6EqbGPPYjuaT.jpg", "release_date": "2001-09-28", "title": "Bully", "video": false, "vote_average": 6.6, "vote_count": 227, "popularity": 11.867}, {"id": 44716, "video": false, "vote_count": 211, "vote_average": 7.3, "title": "In a Better World", "release_date": "2010-08-26", "original_language": "da", "original_title": "H\u00e6vnen", "genre_ids": [18], "backdrop_path": "/jVssYAd1K0gSdXwNYcxoKtEtjpI.jpg", "adult": false, "overview": "The lives of two Danish families cross each other, and an extraordinary but risky friendship comes into bud. But loneliness, frailty and sorrow lie in wait.", "poster_path": "/qxCTUrnC5ZdsKQepBMPt09ihse.jpg", "popularity": 13.318}, {"adult": false, "backdrop_path": "/79lmfotVqntIVamh4Yor2DRoL34.jpg", "genre_ids": [12, 18, 10751], "id": 15907, "original_language": "en", "original_title": "Duma", "overview": "An orphaned cheetah becomes the best friend and pet of a young boy living in South Africa.", "poster_path": "/51DifIBx53qRHNFgYuQJg03EFeL.jpg", "release_date": "2005-04-22", "title": "Duma", "video": false, "vote_average": 7.1, "vote_count": 85, "popularity": 9.106}, {"id": 70821, "video": false, "vote_count": 366, "vote_average": 6.3, "title": "Cyberbully", "release_date": "2011-07-16", "original_language": "en", "original_title": "Cyberbully", "genre_ids": [18], "backdrop_path": "/rJMWFyvcK6lnRjvcseXKBcxbase.jpg", "adult": false, "overview": "A woman tries to help her teenage daughter when she becomes the victim of online bullying.", "poster_path": "/6hmvar1jLFRDkc3TA6AkYofRBX6.jpg", "popularity": 9.026}, {"id": 1265, "video": false, "vote_count": 2704, "vote_average": 7.2, "title": "Bridge to Terabithia", "release_date": "2007-02-16", "original_language": "en", "original_title": "Bridge to Terabithia", "genre_ids": [12, 18, 10751], "backdrop_path": "/t45osFg8w2Kh7BzgYl1iYgi8IxF.jpg", "adult": false, "overview": "Jesse Aarons trained all summer to become the fastest runner in school, so he's very upset when newcomer Leslie Burke outruns him and everyone else. Despite this and other differences, including that she's rich, he's poor, and she's a city girl, he's a country boy, the two become fast friends. Together, they create Terabithia, a land of monsters, trolls, ogres, and giants and rule as king and queen.", "poster_path": "/gihMBO2SmUprI1ecYe7Eo7Eg1yq.jpg", "popularity": 19.916}, {"id": 406997, "video": false, "vote_count": 4520, "vote_average": 8.2, "title": "Wonder", "release_date": "2017-11-13", "original_language": "en", "original_title": "Wonder", "genre_ids": [18, 10751], "backdrop_path": "/4rsrxYDfIzvtAsIE9wevxPRXAk4.jpg", "adult": false, "overview": "The story of August Pullman \u2013 a boy with facial differences \u2013 who enters fifth grade, attending a mainstream elementary school for the first time.", "poster_path": "/ouYgAatYH4JzIThj6FI3UYf31RI.jpg", "popularity": 29.845}, {"adult": false, "backdrop_path": "/8ybSuxeEkFoMKMY9lkzzC4tBaI6.jpg", "genre_ids": [18], "id": 334541, "original_language": "en", "original_title": "Manchester by the Sea", "overview": "After his older brother passes away, Lee Chandler is forced to return home to care for his 16-year-old nephew. There he is compelled to deal with a tragic past that separated him from his family and the community where he was born and raised.", "poster_path": "/e8daDzP0vFOnGyKmve95Yv0D0io.jpg", "release_date": "2016-11-18", "title": "Manchester by the Sea", "video": false, "vote_average": 7.5, "vote_count": 3528, "popularity": 15.119}, {"id": 449176, "video": false, "vote_count": 3690, "vote_average": 8.1, "title": "Love, Simon", "release_date": "2018-02-16", "original_language": "en", "original_title": "Love, Simon", "genre_ids": [35, 18, 10749], "backdrop_path": "/rqMEeajyzSF4PpJtdCB816Iz8Vr.jpg", "adult": false, "overview": "Everyone deserves a great love story. But for seventeen-year old Simon Spier it's a little more complicated: he's yet to tell his family or friends he's gay and he doesn't know the identity of the anonymous classmate he's fallen for online.", "poster_path": "/5YUYg5q7QfC4IoNwNUtiwdiYKPr.jpg", "popularity": 24.849}, {"adult": false, "backdrop_path": "/sG3Du3Ha6rGeSzFfXme1nh8S2Jl.jpg", "genre_ids": [18, 10751, 14, 12], "id": 34584, "original_language": "en", "original_title": "Die unendliche Geschichte", "overview": "While hiding from bullies in his school's attic, a young boy discovers the extraordinary land of Fantasia, through a magical book called The Neverending Story. The book tells the tale of Atreyu, a young warrior who, with the help of a luck dragon named Falkor, must save Fantasia from the destruction of The Nothing.", "poster_path": "/ddYCa91iDXfJCxaqSYzwi2fjfnl.jpg", "release_date": "1984-04-05", "title": "The NeverEnding Story", "video": false, "vote_average": 7.1, "vote_count": 2201, "popularity": 16.928}, {"id": 339877, "video": false, "vote_count": 1418, "vote_average": 8.2, "title": "Loving Vincent", "release_date": "2017-06-22", "original_language": "en", "original_title": "Loving Vincent", "genre_ids": [16, 18, 9648], "backdrop_path": "/adFgBkl35kdI0bSrWZO2xury1JB.jpg", "adult": false, "overview": "The film brings the paintings of Vincent van Gogh to life to tell his remarkable story. Every one of the 65,000 frames of the film is an oil-painting hand-painted by 125 professional oil-painters who travelled from all across the world to the Loving Vincent studios in Poland and Greece to be a part of the production. As remarkable as Vincent\u2019s brilliant paintings are his passionate and ill-fated life and mysterious death.", "poster_path": "/56sq57kDm7XgyXBYrgJLumo0Jac.jpg", "popularity": 16.365}, {"id": 400710, "video": false, "vote_count": 1436, "vote_average": 5.7, "title": "Flatliners", "release_date": "2017-09-28", "original_language": "en", "original_title": "Flatliners", "genre_ids": [18, 878], "backdrop_path": "/uyIYcarxZuUD1m77SRcrUcp47vN.jpg", "adult": false, "overview": "Five medical students, hoping to gain insight into the mystery of what lies beyond the confines of life, embark on a daring and dangerous experiment. By stopping their hearts for short periods of time, each triggers a near-death experience. As the investigation becomes more and more perilous, they are forced to confront the sins of their pasts, as well as contend with the paranormal consequences of trespassing to the other side.", "poster_path": "/e9NHATN0TJW6ZZPLLWFsKdilVl1.jpg", "popularity": 17.961}, {"id": 8913, "video": false, "vote_count": 1053, "vote_average": 6.5, "title": "Pet Sematary", "release_date": "1989-04-21", "original_language": "en", "original_title": "Pet Sematary", "genre_ids": [18, 27], "backdrop_path": "/sbm4pRbGNaqaHjx6fPXh1aQGTJO.jpg", "adult": false, "overview": "Dr. Louis Creed's family moves into the country house of their dreams and discover a pet cemetery at the back of their property. The cursed burial ground deep in the woods brings the dead back to life -- with \"minor\" problems. At first, only the family's cat makes the return trip, but an accident forces a heartbroken father to contemplate the unthinkable.", "poster_path": "/9zUax4pjRgoPIJla9CQejqNJofB.jpg", "popularity": 18.214}, {"adult": false, "backdrop_path": "/pOjPWFIBlHtyNsivnzg2X6bC8JB.jpg", "genre_ids": [53, 9648, 18], "id": 328425, "original_language": "en", "original_title": "The Gift", "overview": "A husband and wife try to reinvigorate their relationship but their lives are threatened by a \"friend\" from the husband's past who holds a horrifying secret about him, sending their world into a tailspin.", "poster_path": "/chrYVlwpBjlYM80w4bQDZzfNQZf.jpg", "release_date": "2015-07-30", "title": "The Gift", "video": false, "vote_average": 6.7, "vote_count": 1972, "popularity": 11.767}, {"id": 390051, "video": false, "vote_count": 419, "vote_average": 5.5, "title": "Aftermath", "release_date": "2017-02-28", "original_language": "en", "original_title": "Aftermath", "genre_ids": [18, 53], "backdrop_path": "/9HcXzYUnnwyFu9WSEM2IOxd2VhC.jpg", "adult": false, "overview": "A fatal plane crash changes the lives of Roman and Jake forever. Roman loses his wife and daughter in the accident, while Jake loses his mind\u2014as he happens to be the air traffic controller who failed to avert the nightmare. Rage and revenge engulfs Roman and Jake finds himself swamped with guilt and regret.", "poster_path": "/25oWTCGqIik4gUTMidx3L8DI4Bt.jpg", "popularity": 16.545}, {"id": 241848, "video": false, "vote_count": 1047, "vote_average": 6.5, "title": "The Guest", "release_date": "2014-09-17", "original_language": "en", "original_title": "The Guest", "genre_ids": [28, 9648, 53], "backdrop_path": "/dQ1eV5vn9794wsdpqe7QGK4Yo99.jpg", "adult": false, "overview": "A soldier introduces himself to the Peterson family, claiming to be a friend of their son who died in action. After the young man is welcomed into their home, a series of accidental deaths seem to be connected to his presence.", "poster_path": "/xxSuU7Q9ZmPjw9TNQ1WzmHVAxBI.jpg", "popularity": 10.531}, {"id": 9906, "video": false, "vote_count": 795, "vote_average": 5.6, "title": "The Ant Bully", "release_date": "2006-07-28", "original_language": "en", "original_title": "The Ant Bully", "genre_ids": [12, 16, 35, 14, 10751], "backdrop_path": "/gQ1MQIbEjBKTH5TBsnfv2vkMrJb.jpg", "adult": false, "overview": "Fed up with being targeted by the neighborhood bully, 10-year-old Lucas Nickle vents his frustrations on the anthill in his front yard ... until the insects shrink him to the size of a bug with a magic elixir. Convicted of \"crimes against the colony,\" Lucas can only regain his freedom by living with the ants and learning their ways.", "poster_path": "/tBUlwDCdvYC5aP7DzgcmDgrbfec.jpg", "popularity": 14.58}, {"id": 82690, "video": false, "vote_count": 8485, "vote_average": 7.3, "title": "Wreck-It Ralph", "release_date": "2012-11-01", "original_language": "en", "original_title": "Wreck-It Ralph", "genre_ids": [12, 16, 35, 10751], "backdrop_path": "/1LbX3KV6qv6NoH4zKLGM7Sgtwmg.jpg", "adult": false, "overview": "Wreck-It Ralph is the 9-foot-tall, 643-pound villain of an arcade video game named Fix-It Felix Jr., in which the game's titular hero fixes buildings that Ralph destroys. Wanting to prove he can be a good guy and not just a villain, Ralph escapes his game and lands in Hero's Duty, a first-person shooter where he helps the game's hero battle against alien invaders. He later enters Sugar Rush, a kart racing game set on tracks made of candies, cookies and other sweets. There, Ralph meets Vanellope von Schweetz who has learned that her game is faced with a dire threat that could affect the entire arcade, and one that Ralph may have inadvertently started.", "poster_path": "/j8M1kHBAXa6KFNzGnWtdsVsLUro.jpg", "popularity": 36.414}, {"id": 269149, "video": false, "vote_count": 10906, "vote_average": 7.7, "title": "Zootopia", "release_date": "2016-02-11", "original_language": "en", "original_title": "Zootopia", "genre_ids": [12, 16, 35, 10751], "backdrop_path": "/mhdeE1yShHTaDbJVdWyTlzFvNkr.jpg", "adult": false, "overview": "Determined to prove herself, Officer Judy Hopps, the first bunny on Zootopia's police force, jumps at the chance to crack her first case - even if it means partnering with scam-artist fox Nick Wilde to solve the mystery.", "poster_path": "/sM33SANp9z6rXW8Itn7NnG1GOEs.jpg", "popularity": 63.21}], "total_pages": 20, "total_results": 387}, "recommendations": {"page": 1, "results": [], "total_pages": 1, "total_results": 0}, "credits": {"cast": [{"cast_id": 1, "character": "Nagashima Kyohei", "credit_id": "52fe4a6bc3a368484e15231f", "gender": 2, "id": 124402, "name": "Masaki Okada", "order": 0, "profile_path": "/ye41mgdvRweMocrOE2ugnOdQXDx.jpg"}, {"cast_id": 2, "character": "Kubota Yuki", "credit_id": "52fe4a6bc3a368484e152323", "gender": 1, "id": 589923, "name": "Nana Eikura", "order": 1, "profile_path": "/kWS2Ku1j3sqRxj78nwqmDMI5Zoc.jpg"}, {"cast_id": 6, "character": "Shintaro Matsui", "credit_id": "54062f3dc3a368436300891b", "gender": 2, "id": 1105808, "name": "Tori Matsuzaka", "order": 2, "profile_path": "/mdzuQoQzais2VRVMntg7S5m8TLv.jpg"}, {"cast_id": 7, "character": "Huruta", "credit_id": "54062f64c3a368119c00423a", "gender": 2, "id": 58665, "name": "Shingo Tsurumi", "order": 3, "profile_path": "/564J9omYeVURMOWnxR6iv3WQ5dR.jpg"}, {"cast_id": 8, "character": "Sasho", "credit_id": "54062f71c3a36816af003e57", "gender": 2, "id": 1115688, "name": "Taizo Harada", "order": 4, "profile_path": null}, {"cast_id": 9, "character": "Akane Okajima", "credit_id": "54062f7bc3a3684363008929", "gender": 1, "id": 127220, "name": "Rei Dan", "order": 5, "profile_path": "/1SA6B79lQeKNsEbpT94tXCEbXAz.jpg"}, {"cast_id": 10, "character": "Masashi Inoue", "credit_id": "54062f85c3a368119c00423c", "gender": 2, "id": 13283, "name": "Akira Emoto", "order": 6, "profile_path": "/xzkNCTcLGNkcyd6BctEhtRVP4L3.jpg"}, {"cast_id": 11, "character": "Minoru Oosawa", "credit_id": "54062f91c3a36816af003e5b", "gender": 2, "id": 233523, "name": "Keisuke Horibe", "order": 7, "profile_path": "/kq0Be6AdFocasnkqGfBIVtDNqnj.jpg"}, {"cast_id": 12, "character": "Michiko", "credit_id": "54062f9dc3a3684366008c5a", "gender": 1, "id": 237362, "name": "Yoshiko Miyazaki", "order": 8, "profile_path": "/wN6GK0aOcvW5KbDVOkHpRaNANCZ.jpg"}, {"cast_id": 13, "character": "Nobusuke Nagashima", "credit_id": "54062fb0c3a36816af003e61", "gender": 2, "id": 120918, "name": "Mitsuru Fukikoshi", "order": 9, "profile_path": "/scczoDfqdxJtsOUATumaMsMlARp.jpg"}, {"cast_id": 14, "character": "Nobuo Yamaki", "credit_id": "54062fbbc3a36843720088fd", "gender": 2, "id": 1018944, "name": "Shota Sometani", "order": 10, "profile_path": "/fOij6t03KcQt3CbLb4y1MQmJyJO.jpg"}, {"cast_id": 17, "character": "Teacher Hagiwara", "credit_id": "54c6d932c3a36874ac000516", "gender": 2, "id": 13256, "name": "Kanji Tsuda", "order": 11, "profile_path": "/eG4eAvW6rN7aoF098WDnEWVl0DY.jpg"}, {"cast_id": 18, "character": "", "credit_id": "54c6d948925141679c000556", "gender": 2, "id": 1248524, "name": "Yoriko D\u00f4guchi", "order": 12, "profile_path": "/5fTuDLpegSuo1Z09JZKh1pm0tzs.jpg"}, {"cast_id": 19, "character": "", "credit_id": "54c6d951c3a36874a90005d4", "gender": 1, "id": 20707, "name": "Makiko Watanabe", "order": 13, "profile_path": "/cdmA10CE0pQYFZaZFpuWVaFxeM6.jpg"}], "crew": [{"credit_id": "5a0764809251414c19002ad9", "department": "Art", "gender": 2, "id": 20703, "job": "Production Design", "name": "Toshihiro Isomi", "profile_path": null}, {"credit_id": "54062ed3c3a368119c004226", "department": "Writing", "gender": 1, "id": 85003, "job": "Writer", "name": "Sachiko Tanaka", "profile_path": null}, {"credit_id": "54062eb8c3a3684363008915", "department": "Directing", "gender": 2, "id": 106549, "job": "Director", "name": "Takahisa Zeze", "profile_path": "/qLlEPEPJLOjLLjWaPvBmxbZ6Qne.jpg"}, {"credit_id": "54062edac3a3684366008c50", "department": "Writing", "gender": 2, "id": 106549, "job": "Writer", "name": "Takahisa Zeze", "profile_path": "/qLlEPEPJLOjLLjWaPvBmxbZ6Qne.jpg"}, {"credit_id": "5406b7a1c3a3686905000361", "department": "Production", "gender": 0, "id": 124124, "job": "Producer", "name": "Atsuyuki Shimoda", "profile_path": null}, {"credit_id": "5406b780c3a368690500035c", "department": "Production", "gender": 2, "id": 127218, "job": "Producer", "name": "Takashi Hirano", "profile_path": null}, {"credit_id": "5a076479c3a36833ac0032bb", "department": "Editing", "gender": 2, "id": 132936, "job": "Editor", "name": "Jun'ichi Kikuchi", "profile_path": null}, {"credit_id": "5a076464c3a368337f002dc5", "department": "Sound", "gender": 0, "id": 552333, "job": "Original Music Composer", "name": "Takatsugu Muramatsu", "profile_path": null}, {"credit_id": "5a07646bc3a368341c002fd4", "department": "Camera", "gender": 0, "id": 1029248, "job": "Director of Photography", "name": "Atsuhiro Nabeshima", "profile_path": null}, {"credit_id": "5a076454c3a368337f002daa", "department": "Writing", "gender": 2, "id": 1369122, "job": "Novel", "name": "Masashi Sada", "profile_path": null}, {"credit_id": "5a076489c3a36833ee002de7", "department": "Directing", "gender": 2, "id": 1737429, "job": "Assistant Director", "name": "Tatsuya Yoshimura", "profile_path": null}, {"credit_id": "5a076493c3a3683406002eea", "department": "Production", "gender": 0, "id": 1831780, "job": "Production Manager", "name": "Hideharu Yamashita", "profile_path": null}]}}