{"adult": false, "backdrop_path": null, "belongs_to_collection": null, "budget": 0, "genres": [{"id": 27, "name": "Horror"}], "homepage": null, "id": 121888, "imdb_id": "tt0157412", "original_language": "it", "original_title": "Bloody Psycho", "overview": "This is one of the five films legendary director Lucio Fulci supervised in 1989 to re-use some of the gory bits for his 1990 gorefest \"A Cat in the Brain\". \"Bloody Psycho\" features a haunted castle plus wimpy doctor Vogler,who is performing some sort of a psychic therapy on lesbian owner of the place.", "popularity": 0.84, "poster_path": "/5EoTGjVioNyxRw2RCZal3QctSbJ.jpg", "production_companies": [{"id": 79168, "logo_path": null, "name": "Cine Duck", "origin_country": "IT"}], "production_countries": [{"iso_3166_1": "IT", "name": "Italy"}], "release_date": "1989-01-01", "revenue": 0, "runtime": 90, "spoken_languages": [{"iso_639_1": "it", "name": "Italiano"}], "status": "Released", "tagline": "", "title": "Bloody Psycho", "video": false, "vote_average": 5.3, "vote_count": 3, "keywords": {"keywords": [{"id": 9826, "name": "murder"}, {"id": 12339, "name": "slasher"}, {"id": 162846, "name": "ghost"}, {"id": 163558, "name": "extrasensory perception"}]}, "similar": {"page": 1, "results": [{"id": 15069, "video": false, "vote_count": 75, "vote_average": 5.4, "title": "W\u0394Z", "release_date": "2007-05-19", "original_language": "en", "original_title": "W\u0394Z", "genre_ids": [80, 18, 27, 53], "backdrop_path": "/nVwdXjnbfulc6cymFgOQJctpspr.jpg", "adult": false, "overview": "There is something horribly wrong with the bodies found in the dark city streets. Some are mutilated while others have the Price equation (w\u0394z = Cov (w,z) = \u03b2wzVz) carved into their flesh. Detective Eddie Argo and his new partner Helen Westcott unearth the meaning of the odd equation and realise each victim is being offered a gruesome choice: kill your loved ones, or be killed. Before long it becomes clear that the perpetrator has suffered a similar fate and is now coping by seeking a way to solve this philosophical dilemma.", "poster_path": "/8lPZ59iQRqUELprKuB0myy7u6Zm.jpg", "popularity": 7.935}, {"adult": false, "backdrop_path": "/pA64Ov7lDpwXBu33yq0KpmAOYJL.jpg", "genre_ids": [27, 53], "id": 357096, "original_language": "en", "original_title": "I Spit on Your Grave III: Vengeance is Mine", "overview": "Jennifer Hills is still tormented by the brutal sexual assault she endured years ago. She\u2019s changed identities and cities, reluctantly joining a support group where she begins to piece together a new life. But when her new friend\u2019s murderer goes free and the tales of serial rapists haunt her, Jennifer will hunt down the men responsible and do what the system won\u2019t \u2013 make them pay for their crimes in the most horrific ways imaginable. Only this time, no jury may be able to save her.", "poster_path": "/6SnOlgrUoC5jqmgcYIM5lde5zYq.jpg", "release_date": "2015-10-01", "title": "I Spit on Your Grave III: Vengeance is Mine", "video": false, "vote_average": 5.3, "vote_count": 437, "popularity": 20.815}, {"adult": false, "backdrop_path": "/o4psXh7IVD6GFKvBSHjHLzjL2lV.jpg", "genre_ids": [27, 53], "id": 10781, "original_language": "en", "original_title": "The Texas Chainsaw Massacre: The Beginning", "overview": "Chrissie and her friends set out on a road trip for a final fling before one is shipped off to Vietnam. Along the way, bikers harass the foursome and cause an accident that throws Chrissie from the vehicle. The lawman who arrives on the scene kills one of the bikers and brings Chrissie's friends to the Hewitt homestead, where young Leatherface is learning the tools of terror.", "poster_path": "/9elCJIG1TOJ0wew3JVx5ZMkHq5w.jpg", "release_date": "2006-10-06", "title": "The Texas Chainsaw Massacre: The Beginning", "video": false, "vote_average": 6.0, "vote_count": 936, "popularity": 19.211}, {"adult": false, "backdrop_path": "/qqdVRlVCvVWdmSBYrEHwQuC3GBd.jpg", "genre_ids": [27, 53], "id": 371608, "original_language": "en", "original_title": "The Strangers: Prey at Night", "overview": "A family\u2019s road trip takes a dangerous turn when they arrive at a secluded mobile home park to stay with some relatives and find it mysteriously deserted. Under the cover of darkness, three masked psychopaths pay them a visit to test the family\u2019s every limit as they struggle to survive.", "poster_path": "/vdxLpPsZkPZdFrREp7eSeSzcimj.jpg", "release_date": "2018-03-07", "title": "The Strangers: Prey at Night", "video": false, "vote_average": 5.4, "vote_count": 758, "popularity": 16.815}, {"adult": false, "backdrop_path": "/7QjoyyGdBV32x1sEh64dAnNjwg2.jpg", "genre_ids": [53, 35, 27], "id": 12521, "original_language": "en", "original_title": "Shocker", "overview": "After being sent to the electric chair, a serial killer uses electricity to come back from the dead and carry out his vengeance on the football player who turned him in to the police.", "poster_path": "/xEDmOhNGCKlWlS3mCiqLCVzBXVA.jpg", "release_date": "1989-10-27", "title": "Shocker", "video": false, "vote_average": 5.5, "vote_count": 176, "popularity": 10.495}, {"id": 369300, "video": false, "vote_count": 317, "vote_average": 6.0, "title": "The Limehouse Golem", "release_date": "2016-10-18", "original_language": "en", "original_title": "The Limehouse Golem", "genre_ids": [27, 9648, 53], "backdrop_path": "/jOsELWItMJOwqEXpUewV8zFH3eX.jpg", "adult": false, "overview": "A series of murders has shaken the community to the point where people believe that only a legendary creature from dark times \u2013 the mythical Golem \u2013 must be responsible.", "poster_path": "/u9NnEq4Be7hhwSvkNf6dOAD8ppi.jpg", "popularity": 13.502}, {"adult": false, "backdrop_path": "/iLvqbCanH1liQ5VERCyCR31GkkL.jpg", "genre_ids": [35, 27, 878], "id": 15762, "original_language": "en", "original_title": "Night of the Creeps", "overview": "In 1959, an alien experiment crashes to earth and infects a fraternity member. They freeze the body, but in the modern day, two geeks pledging a fraternity accidentally thaw the corpse, which proceeds to infect the campus with parasites that transform their hosts into killer zombies.", "poster_path": "/A3s2tQGNb6mhlr1hPZeE5F8IUwp.jpg", "release_date": "1986-08-21", "title": "Night of the Creeps", "video": false, "vote_average": 6.6, "vote_count": 219, "popularity": 10.383}, {"adult": false, "backdrop_path": "/t3OZS8yMs0NL4YgWWc04eXHTn1X.jpg", "genre_ids": [28, 80, 53], "id": 984, "original_language": "en", "original_title": "Dirty Harry", "overview": "When a madman dubbed 'Scorpio' terrorizes San Francisco, hard-nosed cop, Harry Callahan \u2013 famous for his take-no-prisoners approach to law enforcement \u2013 is tasked with hunting down the psychopath. Harry eventually collars Scorpio in the process of rescuing a kidnap victim, only to see him walk on technicalities. Now, the maverick detective is determined to nail the maniac himself.", "poster_path": "/2TADKc4GMMPdMrLXj0xJVgTvZJM.jpg", "release_date": "1971-12-21", "title": "Dirty Harry", "video": false, "vote_average": 7.5, "vote_count": 1173, "popularity": 18.839}, {"adult": false, "backdrop_path": "/3s1jogOznYmG0xPqHE45D5ir3bx.jpg", "genre_ids": [27, 53, 9648], "id": 3597, "original_language": "en", "original_title": "I Know What You Did Last Summer", "overview": "As they celebrate their high school graduation, four friends are involved in a hit-and-run accident when their car hits and apparently kills a pedestrian on an isolated roadway. They dispose of the body and vow to keep the incident a secret, a year later somebody starts sending them letters bearing the warning \"I Know What You Did Last Summer\".", "poster_path": "/cruOfvjIqMTbOQxld8SpM8OzVnf.jpg", "release_date": "1997-10-17", "title": "I Know What You Did Last Summer", "video": false, "vote_average": 5.8, "vote_count": 1506, "popularity": 15.809}, {"id": 3600, "video": false, "vote_count": 824, "vote_average": 5.2, "title": "I Still Know What You Did Last Summer", "release_date": "1998-11-13", "original_language": "en", "original_title": "I Still Know What You Did Last Summer", "genre_ids": [27, 9648, 53], "backdrop_path": "/iaFSFtxX02lXsT2zQHiykNSj7YP.jpg", "adult": false, "overview": "Unfinished business with coed Julie James brings the murderer to the Bahamas to terrorize her and her friends, Karla, Tyrell and Will, during a vacation. Can Ray Bronson who survived a bloody attack alongside Julie two summers ago, get to the island in time to save everyone?", "poster_path": "/j4s1TK90tZWZj7lQ84UDJXHI9Kh.jpg", "popularity": 11.64}, {"adult": false, "backdrop_path": "/mVqJofGWozzmOf9gg0zQj4f1DmT.jpg", "genre_ids": [27], "id": 24124, "original_language": "en", "original_title": "The Burning", "overview": "A caretaker at a summer camp is burned when a prank goes tragically wrong. After several years of intensive treatment at hospital, he is released back into society, albeit missing some social skills. What follows is a bloody killing spree with the caretaker making his way back to his old stomping ground to confront one of the youths that accidently burned him.", "poster_path": "/d8as1GtCAhlc5rirarnUUd85gJA.jpg", "release_date": "1981-05-08", "title": "The Burning", "video": false, "vote_average": 6.3, "vote_count": 177, "popularity": 10.929}, {"adult": false, "backdrop_path": "/oMqUz9knesAaAfjXPrF8yuNTycW.jpg", "genre_ids": [27], "id": 21484, "original_language": "fr", "original_title": "Possession", "overview": "A young woman left her family for an unspecified reason. The husband determines to find out the truth and starts following his wife. At first, he suspects that a man is involved. But gradually, he finds out more and more strange behaviors and bizarre incidents that indicate something more than a possessed love affair.", "poster_path": "/36dqEcj90gwnYIif9BqfuHXafyZ.jpg", "release_date": "1981-05-27", "title": "Possession", "video": false, "vote_average": 7.4, "vote_count": 360, "popularity": 14.655}, {"id": 293670, "video": false, "vote_count": 669, "vote_average": 7.2, "title": "The Wailing", "release_date": "2016-05-12", "original_language": "ko", "original_title": "\uace1\uc131", "genre_ids": [27, 9648, 53], "backdrop_path": "/pthuMQIXSRDdGGS8p6n6IG21ZRJ.jpg", "adult": false, "overview": "A stranger arrives in a little village and soon after a mysterious sickness starts spreading. A policeman is drawn into the incident and is forced to solve the mystery in order to save his daughter.", "poster_path": "/aijmq2I4O8zZrJtqAZm6o4tOM6g.jpg", "popularity": 13.585}, {"id": 8090, "video": false, "vote_count": 448, "vote_average": 6.1, "title": "Untraceable", "release_date": "2008-01-22", "original_language": "en", "original_title": "Untraceable", "genre_ids": [9648, 53], "backdrop_path": "/eXuIPt9I1xuaVddlgzEQRC2EMnJ.jpg", "adult": false, "overview": "Special Agent Jennifer Marsh (Diane Lane) works in an elite division of the FBI dedicated to fighting cybercrime. She thinks she has seen it all, until a particularly sadistic criminal arises on the Internet. This tech-savvy killer posts live feeds of his crimes on his website; the more hits the site gets, the faster the victim dies. Marsh and her team must find the elusive killer before time runs out.", "poster_path": "/ySUwDRDEn01lKIMPQorpFCMLWqE.jpg", "popularity": 14.431}, {"id": 276488, "video": false, "vote_count": 162, "vote_average": 5.7, "title": "Let Us Prey", "release_date": "2014-04-17", "original_language": "en", "original_title": "Let Us Prey", "genre_ids": [27, 53], "backdrop_path": "/6y5s5XboARsaZARPBO9L3oYM9Bl.jpg", "adult": false, "overview": "Rachel, a rookie cop, is about to begin her first night shift in a neglected police station in a Scottish, backwater town. The kind of place where the tide has gone out and stranded a motley bunch of the aimless, the forgotten, the bitter-and-twisted who all think that, really, they deserve to be somewhere else. They all think they're there by accident and that, with a little luck, life is going to get better. Wrong, on both counts. Six is about to arrive - and All Hell Will Break Loose!", "poster_path": "/yQgKyDXbV8XQKKarJ8ph5Y9dpQe.jpg", "popularity": 9.209}, {"adult": false, "backdrop_path": "/8DkJrxEyRN8gTseEhajybpC5smK.jpg", "genre_ids": [27], "id": 10585, "original_language": "en", "original_title": "Child's Play", "overview": "A single mother gives her son a beloved doll for his birthday, only to discover that it is possessed by the soul of a serial killer.", "poster_path": "/dSX9i2buibfyKFRpK2kOe6rtl5R.jpg", "release_date": "1988-11-08", "title": "Child's Play", "video": false, "vote_average": 6.5, "vote_count": 1416, "popularity": 20.547}, {"adult": false, "backdrop_path": "/4L1MSZo8dQ20x4AhBDKfDs1cOjs.jpg", "genre_ids": [27, 53], "id": 9728, "original_language": "en", "original_title": "Friday the 13th Part III", "overview": "An idyllic summer turns into a nightmare of unspeakable terror for yet another group of naive counselors. Ignoring Camp Crystal Lake's bloody legacy, one by one they fall victim to the maniacal Jason who stalks them at every turn.", "poster_path": "/5wg2NZyIhcMbIBAahBODXHyJ54S.jpg", "release_date": "1982-08-13", "title": "Friday the 13th Part III", "video": false, "vote_average": 5.8, "vote_count": 634, "popularity": 15.501}, {"id": 500664, "video": false, "vote_count": 1709, "vote_average": 7.3, "title": "Upgrade", "release_date": "2018-06-01", "original_language": "en", "original_title": "Upgrade", "genre_ids": [28, 27, 878, 53], "backdrop_path": "/qUAGip3XiaVN668WXF2iyukWgUu.jpg", "adult": false, "overview": "A brutal mugging leaves Grey Trace paralyzed in the hospital and his beloved wife dead. A billionaire inventor soon offers Trace a cure \u2014 an artificial intelligence implant called STEM that will enhance his body. Now able to walk, Grey finds that he also has superhuman strength and agility \u2014 skills he uses to seek revenge against the thugs who destroyed his life.", "poster_path": "/8fDtXi6gVw8WUMWGT9XFz7YwkuE.jpg", "popularity": 32.518}, {"adult": false, "backdrop_path": "/qr7R4pagFUcmz9ny6Gai9gjlSnn.jpg", "genre_ids": [27], "id": 4488, "original_language": "en", "original_title": "Friday the 13th", "overview": "Camp counselors are stalked and murdered by an unknown assailant while trying to reopen a summer camp that was the site of a child's drowning.", "poster_path": "/mGJlh8oMyTDhfudvs20kFpYz0Yc.jpg", "release_date": "1980-05-09", "title": "Friday the 13th", "video": false, "vote_average": 6.3, "vote_count": 1441, "popularity": 17.092}, {"id": 9373, "video": false, "vote_count": 1414, "vote_average": 6.1, "title": "The Texas Chainsaw Massacre", "release_date": "2003-05-21", "original_language": "en", "original_title": "The Texas Chainsaw Massacre", "genre_ids": [27], "backdrop_path": "/3rTsJ7tIC3LUSRr80PfeLbbCfBA.jpg", "adult": false, "overview": "After picking up a traumatized young hitchhiker, five friends find themselves stalked and hunted by a deformed chainsaw-wielding killer and his family of equally psychopathic killers.", "poster_path": "/gx7FCIOFGxqNyplF3t7qtmUv55g.jpg", "popularity": 19.117}], "total_pages": 446, "total_results": 8901}, "recommendations": {"page": 1, "results": [], "total_pages": 1, "total_results": 0}, "credits": {"cast": [{"cast_id": 4, "character": "Dr. Werner Vogler", "credit_id": "541ed67dc3a3687996000213", "gender": 0, "id": 1050993, "name": "Peter Hintz", "order": 1, "profile_path": null}, {"cast_id": 5, "character": "Micaela (Loes Kamma)", "credit_id": "541ed6a0c3a3687985000226", "gender": 1, "id": 1172554, "name": "Louise Kamsteeg", "order": 2, "profile_path": "/4zjpRn1MawLRu87ro410tdGUof.jpg"}, {"cast_id": 6, "character": "Mrs. Rezzori", "credit_id": "541ed6b30e0a2617a800021b", "gender": 0, "id": 1073181, "name": "Brigitte Christensen", "order": 3, "profile_path": null}, {"cast_id": 7, "character": "Sasha", "credit_id": "541ed6c50e0a2617a500021c", "gender": 1, "id": 102173, "name": "Sacha Darwin", "order": 4, "profile_path": "/iKVvAtFT9OOw02wBjD7ISBpmhiT.jpg"}, {"cast_id": 8, "character": "Simona", "credit_id": "541ed6ddc3a36879a0000203", "gender": 0, "id": 1366237, "name": "Nubia Martini", "order": 5, "profile_path": null}, {"cast_id": 9, "character": "Mary Cohen", "credit_id": "541ed6ee0e0a26179e000237", "gender": 0, "id": 228151, "name": "Any Cerreto", "order": 6, "profile_path": null}, {"cast_id": 10, "character": "Prete", "credit_id": "541ed702c3a368798d000253", "gender": 2, "id": 102175, "name": "Marco Di Stefano", "order": 7, "profile_path": "/oEqmolsAmT5UfgyJstHbVCuVCym.jpg"}, {"cast_id": 11, "character": "Micaela da bambina", "credit_id": "541ed727c3a3687996000229", "gender": 0, "id": 1366238, "name": "Alessandra Massari", "order": 8, "profile_path": null}, {"cast_id": 12, "character": "Werner da bambino", "credit_id": "541ed73e0e0a2617a5000225", "gender": 0, "id": 1366239, "name": "Marco Massari", "order": 9, "profile_path": null}, {"cast_id": 13, "character": "Tramp / Dr. Williamson", "credit_id": "541ed754c3a368798d000259", "gender": 2, "id": 139130, "name": "Vassili Karis", "order": 10, "profile_path": "/bdMpe1MdsVT0NmRWNPFseO7Pq7e.jpg"}, {"cast_id": 14, "character": "Lawyer Cohen", "credit_id": "541ed772c3a3687985000240", "gender": 2, "id": 101549, "name": "Paul M\u00fcller", "order": 11, "profile_path": "/v3tZduw1pzCx6eeoYO6eWkwB0cu.jpg"}], "crew": [{"credit_id": "52fe4a70c3a368484e153501", "department": "Directing", "gender": 2, "id": 1050991, "job": "Director", "name": "Leandro Lucchetti", "profile_path": null}, {"credit_id": "52fe4a70c3a368484e153507", "department": "Writing", "gender": 2, "id": 1050991, "job": "Writer", "name": "Leandro Lucchetti", "profile_path": null}, {"credit_id": "52fe4a70c3a368484e15350d", "department": "Writing", "gender": 0, "id": 32209, "job": "Writer", "name": "Giovanni Simonelli", "profile_path": null}]}}