{"adult": false, "backdrop_path": "/qsrm4ffo8NxyoPamzQhcuqHT7C2.jpg", "belongs_to_collection": null, "budget": 0, "genres": [{"id": 18, "name": "Drama"}], "homepage": null, "id": 122289, "imdb_id": "tt0113658", "original_language": "en", "original_title": "Lilian's Story", "overview": "For forty years Lilian Singer has been locked up in a 'loony bin' by her father. Her release is eventually secured by her eccentric Aunt Kitty and her brother, John. Lilian starts to carve out a place for herself. As she explores Sydney and the people who live and work around her she sees others looking for love. Lilian shows us it is never too late to change your life and that even unusual choices can bring contentment.", "popularity": 1.88, "poster_path": "/7sl2VNfEPR2JnGhF0yZ1P4uT9de.jpg", "production_companies": [{"id": 21144, "logo_path": null, "name": "Movieco Australia", "origin_country": ""}], "production_countries": [{"iso_3166_1": "AU", "name": "Australia"}], "release_date": "1996-05-09", "revenue": 0, "runtime": 94, "spoken_languages": [{"iso_639_1": "en", "name": "English"}], "status": "Released", "tagline": "Everything matters.", "title": "Lilian's Story", "video": false, "vote_average": 6.0, "vote_count": 2, "keywords": {"keywords": [{"id": 2884, "name": "asylum"}, {"id": 5600, "name": "daughter"}, {"id": 5905, "name": "father"}, {"id": 10483, "name": "eccentric"}, {"id": 10614, "name": "tragedy"}, {"id": 11296, "name": "choice"}, {"id": 199551, "name": "insane"}]}, "similar": {"page": 1, "results": [{"id": 8545, "video": false, "vote_count": 110, "vote_average": 6.6, "title": "Little Voice", "release_date": "1998-11-05", "original_language": "en", "original_title": "Little Voice", "genre_ids": [35, 18], "backdrop_path": "/2linGvYj4sBP5ys4Vzj9NlyaOAC.jpg", "adult": false, "overview": "After the death of her father, Little Voice or LV becomes a virtual recluse, never going out and hardly ever saying a word. She just sits in her bedroom listening to her father's collection of old records of Shirley Bassey, Marilyn Monroe and various other famous female singers. But at night time, LV sings, imitating these great singers with surprising accuracy. One night she is overheard by one of her mother's boyfriends, who happens to be a talent agent. He manages to convince her that her talent is special and arranges for her to perform at the local night club, but several problems arise.", "poster_path": "/cqdQtg7SAmAfJwoy79GCfc3SuKU.jpg", "popularity": 7.551}, {"adult": false, "backdrop_path": "/hD8DQM72Xacg1d3mFqS0eN8vKYw.jpg", "genre_ids": [18], "id": 8272, "original_language": "en", "original_title": "The Savages", "overview": "A sister and brother face the realities of familial responsibility as they begin to care for their ailing father.", "poster_path": "/nY54gSmTOmSXlQpWDB7DWp4u8a7.jpg", "release_date": "2007-01-19", "title": "The Savages", "video": false, "vote_average": 6.9, "vote_count": 192, "popularity": 13.094}, {"id": 49519, "video": false, "vote_count": 4247, "vote_average": 6.8, "title": "The Croods", "release_date": "2013-03-20", "original_language": "en", "original_title": "The Croods", "genre_ids": [28, 12, 16, 35, 14, 10751], "backdrop_path": "/vg2hf8eAZhULxtQRS87CbrH2WMQ.jpg", "adult": false, "overview": "The Croods is a prehistoric comedy adventure that follows the world's first family as they embark on a journey of a lifetime when the cave that has always shielded them from danger is destroyed. Traveling across a spectacular landscape, the Croods discover an incredible new world filled with fantastic creatures -- and their outlook is changed forever.", "poster_path": "/eHi3Nbgh6Cs2KiIyEMF4Ig4CdjX.jpg", "popularity": 28.711}, {"id": 11816, "video": false, "vote_count": 215, "vote_average": 7.4, "title": "On Golden Pond", "release_date": "1981-12-01", "original_language": "en", "original_title": "On Golden Pond", "genre_ids": [18], "backdrop_path": "/j5cE2YUjyzEeRgWHuO2ccDL5Wps.jpg", "adult": false, "overview": "For Norman and Ethel Thayer, this summer on golden pond is filled with conflict and resolution. When their daughter Chelsea arrives, the family is forced to renew the bonds of love and overcome the generational friction that has existed for years. Norman must find his way through his anger and fear of growing old, while Chelsea struggles to rebuild their relationship. Ethel's consistent support of her \"Knight in shining armor\" is inspirational in its simplicity. This is a movie to ponder and always keep in your heart.", "poster_path": "/h88NQA1slcXmdmUKBjyymAEV8sS.jpg", "popularity": 11.183}, {"adult": false, "backdrop_path": "/caLMOD3ZJ3V7qjlxDXrzlJfBLgD.jpg", "genre_ids": [18, 10749], "id": 20, "original_language": "en", "original_title": "My Life Without Me", "overview": "A Pedro Almodovar production in which a fatally ill mother with only two months to live creates a list of things she wants to do before she dies with out telling her family of her illness.", "poster_path": "/vVj92VBFUBzjqzLvBiPVVlJDp78.jpg", "release_date": "2003-03-07", "title": "My Life Without Me", "video": false, "vote_average": 6.1, "vote_count": 220, "popularity": 9.208}, {"id": 9813, "video": false, "vote_count": 128, "vote_average": 6.1, "title": "The Quiet", "release_date": "2005-09-12", "original_language": "en", "original_title": "The Quiet", "genre_ids": [18, 53], "backdrop_path": "/6eyWAZA4CEidZW1xXnQ4vlYBXTP.jpg", "adult": false, "overview": "After her widowed father dies, deaf teenager Dot moves in with her godparents, Olivia and Paul Deer. The Deers' daughter, Nina, is openly hostile to Dot, but that does not prevent her from telling her secrets to her silent stepsister, including the fact that she wants to kill her lecherous father.", "poster_path": "/GEqIE9YlmygHVUfS64LW2cwAAM.jpg", "popularity": 13.948}, {"adult": false, "backdrop_path": "/bRGtZsVj2Qq8r5CCsNYmQUPF4z4.jpg", "genre_ids": [80, 18, 878, 53], "id": 10559, "original_language": "en", "original_title": "Frequency", "overview": "When a rare phenomenon gives police officer John Sullivan the chance to speak to his father, 30 years in the past, he takes the opportunity to prevent his dad's tragic death.  After his actions inadvertently give rise to a series of brutal murders he and his father must find a way to fix the consequences of altering time.", "poster_path": "/n0QAAZmIaPPIShVkk8eiKwfGV9.jpg", "release_date": "2000-04-28", "title": "Frequency", "video": false, "vote_average": 7.1, "vote_count": 894, "popularity": 14.503}, {"id": 375183, "video": false, "vote_count": 292, "vote_average": 6.7, "title": "A Family Man", "release_date": "2017-05-18", "original_language": "en", "original_title": "A Family Man", "genre_ids": [18], "backdrop_path": "/fQaJ5YxldrvJ7xq8EWKKT58B652.jpg", "adult": false, "overview": "Dane Jensen is a driven, Chicago-based headhunter, working at a cut-throat job placement firm. When Dane's boss announces his retirement, he pits Dane against Lynn Vogel, Dane's equally driven but polar-opposite rival at the firm, in a battle for control over the company.", "poster_path": "/hCUrI8v523NQDJNKoDxGq2nvbvw.jpg", "popularity": 17.335}, {"adult": false, "backdrop_path": "/npClMhFGn4XUkwu6coq5oKAEu6L.jpg", "genre_ids": [35, 10749, 18], "id": 634, "original_language": "en", "original_title": "Bridget Jones's Diary", "overview": "A chaotic Bridget Jones meets a snobbish lawyer, and he soon enters her world of imperfections.", "poster_path": "/ym6kjFFZg6boC0QHBVw6hqJLbxv.jpg", "release_date": "2001-04-13", "title": "Bridget Jones's Diary", "video": false, "vote_average": 6.7, "vote_count": 3079, "popularity": 16.678}, {"id": 334, "video": false, "vote_count": 1847, "vote_average": 7.7, "title": "Magnolia", "release_date": "1999-12-10", "original_language": "en", "original_title": "Magnolia", "genre_ids": [18], "backdrop_path": "/9In3XGQSdr2yfgUoEdCpqxEGAOO.jpg", "adult": false, "overview": "An epic mosaic of many interrelated characters in search of happiness, forgiveness, and meaning in the San Fernando Valley.", "poster_path": "/jxkHxPiMfGiFvxSOduNV4oIKJI5.jpg", "popularity": 17.348}, {"adult": false, "backdrop_path": "/mAaSPfGA4ixiKSXYydNpbwZswi6.jpg", "genre_ids": [35], "id": 9427, "original_language": "en", "original_title": "The Full Monty", "overview": "Sheffield, England. Gaz, a jobless steelworker in need of quick cash persuades his mates to bare it all in a one-night-only strip show.", "poster_path": "/xkMiZv2FPrhIAtxvEcN1jAbkHRY.jpg", "release_date": "1997-08-13", "title": "The Full Monty", "video": false, "vote_average": 7.0, "vote_count": 891, "popularity": 10.08}, {"id": 116711, "video": false, "vote_count": 1799, "vote_average": 6.4, "title": "Epic", "release_date": "2013-05-15", "original_language": "en", "original_title": "Epic", "genre_ids": [12, 16, 14, 10751], "backdrop_path": "/v6w2o3ji8aVLph6zNgR5yDGQfmS.jpg", "adult": false, "overview": "A teenager finds herself transported to a deep forest setting where a battle between the forces of good and the forces of evil is taking place. She bands together with a rag-tag group characters in order to save their world\u2014and ours.", "poster_path": "/dUeXOJCpfWmZd9KaPkq2122J1ji.jpg", "popularity": 19.06}, {"adult": false, "backdrop_path": "/vfvVuu1JdnEGcyZUj7VHrhhbeMj.jpg", "genre_ids": [12, 28], "id": 89, "original_language": "en", "original_title": "Indiana Jones and the Last Crusade", "overview": "When Dr. Henry Jones Sr. suddenly goes missing while pursuing the Holy Grail, eminent archaeologist Indiana must team up with Marcus Brody, Sallah and Elsa Schneider to follow in his father's footsteps and stop the Nazis from recovering the power of eternal life.", "poster_path": "/4p1N2Qrt8j0H8xMHMHvtRxv9weZ.jpg", "release_date": "1989-05-24", "title": "Indiana Jones and the Last Crusade", "video": false, "vote_average": 7.8, "vote_count": 5981, "popularity": 40.251}, {"id": 12429, "video": false, "vote_count": 1955, "vote_average": 7.7, "title": "Ponyo", "release_date": "2008-07-19", "original_language": "ja", "original_title": "\u5d16\u306e\u4e0a\u306e\u30dd\u30cb\u30e7", "genre_ids": [16, 10751], "backdrop_path": "/4gxJjq0Vg1mqkboYB9f92CTIsRu.jpg", "adult": false, "overview": "The son of a sailor, 5-year old Sosuke lives a quiet life on an oceanside cliff with his mother Lisa. One fateful day, he finds a beautiful goldfish trapped in a bottle on the beach and upon rescuing her, names her Ponyo. But she is no ordinary goldfish. The daughter of a masterful wizard and a sea goddess, Ponyo uses her father's magic to transform herself into a young girl and quickly falls in love with Sosuke, but the use of such powerful sorcery causes a dangerous imbalance in the world. As the moon steadily draws nearer to the earth and Ponyo's father sends the ocean's mighty waves to find his daughter, the two children embark on an adventure of a lifetime to save the world and fulfill Ponyo's dreams of becoming human.", "poster_path": "/3s0mpSpLkI7cIhqWGrGbsiyvlsH.jpg", "popularity": 42.924}, {"adult": false, "backdrop_path": "/wKQlgHjJwh5mGBZ37vDsXBx9zbh.jpg", "genre_ids": [35], "id": 11862, "original_language": "en", "original_title": "Father of the Bride Part II", "overview": "Just when George Banks has recovered from his daughter's wedding, he receives the news that she's pregnant ... and that George's wife, Nina, is expecting too. He was planning on selling their home, but that's a plan that -- like George -- will have to change with the arrival of both a grandchild and a kid of his own.", "poster_path": "/e64sOI48hQXyru7naBFyssKFxVd.jpg", "release_date": "1995-12-08", "title": "Father of the Bride Part II", "video": false, "vote_average": 6.2, "vote_count": 368, "popularity": 11.365}, {"id": 10999, "video": false, "vote_count": 1437, "vote_average": 6.5, "title": "Commando", "release_date": "1985-10-03", "original_language": "en", "original_title": "Commando", "genre_ids": [28, 12, 53], "backdrop_path": "/p8MHS8hyMmrZafKDMzIdESJb1rI.jpg", "adult": false, "overview": "John Matrix, the former leader of a special commando strike force that always got the toughest jobs done, is forced back into action when his young daughter is kidnapped. To find her, Matrix has to fight his way through an array of punks, killers, one of his former commandos, and a fully equipped private army. With the help of a feisty stewardess and an old friend, Matrix has only a few hours to overcome his greatest challenge: finding his daughter before she's killed.", "poster_path": "/ypfLBI0xT9yyn38BFaRtp0Ny3uw.jpg", "popularity": 19.726}, {"adult": false, "backdrop_path": "/1RTiQXeHoEMXkZNWaB8W5uaEZ2.jpg", "genre_ids": [18], "id": 205220, "original_language": "en", "original_title": "Philomena", "overview": "A woman searches for her adult son, who was taken away from her decades ago when she was forced to live in a convent.", "poster_path": "/6BTXHupSPkrwsoz4Br6qwwSVmhj.jpg", "release_date": "2013-11-01", "title": "Philomena", "video": false, "vote_average": 7.4, "vote_count": 1043, "popularity": 10.974}, {"id": 293452, "video": false, "vote_count": 288, "vote_average": 4.5, "title": "The Disappointments Room", "release_date": "2016-09-09", "original_language": "en", "original_title": "The Disappointments Room", "genre_ids": [18, 27, 53], "backdrop_path": "/2ZBMxswLt150pkE4exLteIApjg6.jpg", "adult": false, "overview": "A mother and her young son release unimaginable horrors from the attic of their rural dream home.", "poster_path": "/htnXSuO0gMawdCfOZwFEs8kMCl8.jpg", "popularity": 10.136}, {"id": 103663, "video": false, "vote_count": 1814, "vote_average": 8.1, "title": "The Hunt", "release_date": "2012-09-24", "original_language": "da", "original_title": "Jagten", "genre_ids": [18], "backdrop_path": "/guJLZQ0glrGpyOydxrpvnlNByae.jpg", "adult": false, "overview": "A teacher lives a lonely life, all the while struggling over his son\u2019s custody. His life slowly gets better as he finds love and receives good news from his son, but his new luck is about to be brutally shattered by an innocent little lie.", "poster_path": "/hD42EDHLap5UVmv9CZrUiTxH3rY.jpg", "popularity": 11.41}, {"adult": false, "backdrop_path": "/5dF4FNwM2qZIuF0WCUs5zvDGU2H.jpg", "genre_ids": [18], "id": 7508, "original_language": "hi", "original_title": "Taare Zameen Par", "overview": "Ishaan Awasthi is an eight-year-old whose world is filled with wonders that no one else seems to appreciate. Colours, fish, dogs, and kites don't seem important to the adults, who are much more interested in things like homework, marks, and neatness. Ishaan cannot seem to get anything right in class; he is then sent to boarding school, where his life changes forever.", "poster_path": "/t8x4j5KtI6hZRUVtPPztNBo1q5W.jpg", "release_date": "2007-12-21", "title": "Like Stars on Earth", "video": false, "vote_average": 8.0, "vote_count": 458, "popularity": 12.036}], "total_pages": 9, "total_results": 175}, "recommendations": {"page": 1, "results": [], "total_pages": 1, "total_results": 0}, "credits": {"cast": [{"cast_id": 2, "character": "Lilian Singer", "credit_id": "52fe4a7bc3a368484e155aff", "gender": 1, "id": 221730, "name": "Ruth Cracknell", "order": 0, "profile_path": "/xUnznqXpNr6Sb7iSmEQLzrpdww5.jpg"}, {"cast_id": 3, "character": "John Singer", "credit_id": "52fe4a7bc3a368484e155b03", "gender": 2, "id": 150536, "name": "Barry Otto", "order": 1, "profile_path": "/v1bnBHE9RYdTNtFw3N2fHfh9du3.jpg"}, {"cast_id": 4, "character": "Young Lilian Singer", "credit_id": "52fe4a7bc3a368484e155b07", "gender": 1, "id": 3051, "name": "Toni Collette", "order": 2, "profile_path": "/oMps1ZPH3dHmqZmrpZcRiyUBgA.jpg"}, {"cast_id": 5, "character": "Frank", "credit_id": "52fe4a7bc3a368484e155b0b", "gender": 2, "id": 77562, "name": "John Flaus", "order": 3, "profile_path": "/sK3PPWNkDr0QN5rFDielflUNkhX.jpg"}, {"cast_id": 6, "character": "Head Orderly", "credit_id": "53309b17c3a3686a9d00000d", "gender": 0, "id": 164588, "name": "Jeff Truman", "order": 4, "profile_path": null}, {"cast_id": 7, "character": "Esther", "credit_id": "53309b2bc3a3686a9500000f", "gender": 0, "id": 1304376, "name": "Lyle O'Hara", "order": 5, "profile_path": null}, {"cast_id": 8, "character": "May", "credit_id": "53309b3ac3a3686aaf000021", "gender": 0, "id": 1304377, "name": "Kate Agnew", "order": 6, "profile_path": null}, {"cast_id": 9, "character": "Ruby", "credit_id": "53309b4ac3a3686aaf000026", "gender": 1, "id": 1003410, "name": "Fiona Press", "order": 7, "profile_path": null}, {"cast_id": 20, "character": "Mother", "credit_id": "5738c83b92514166d2000b51", "gender": 1, "id": 67027, "name": "Anne-Louise Lambert", "order": 8, "profile_path": "/u2Tqc3CGkmSWjMuF6vQX2pLQzm.jpg"}], "crew": [{"credit_id": "582670cdc3a368360b012694", "department": "Camera", "gender": 2, "id": 1129, "job": "Director of Photography", "name": "Slawomir Idziak", "profile_path": "/vA9WrEK35MyUx6Sb4NtZiouotsg.jpg"}, {"credit_id": "5b533ed4c3a3680b5f00edd8", "department": "Editing", "gender": 2, "id": 3904, "job": "Editor", "name": "Lee Smith", "profile_path": "/5XNVKGYwQraa4LYk0pjRhvdC3c1.jpg"}, {"credit_id": "53309ba1c3a3686a86000021", "department": "Art", "gender": 2, "id": 5547, "job": "Production Design", "name": "Roger Ford", "profile_path": null}, {"credit_id": "53309b93c3a3686aaf00002b", "department": "Production", "gender": 1, "id": 12203, "job": "Casting", "name": "Christine King", "profile_path": null}, {"credit_id": "582670d79251417b1d0115f0", "department": "Sound", "gender": 2, "id": 75940, "job": "Original Music Composer", "name": "Cezary Skubiszewski", "profile_path": null}, {"credit_id": "53309bc4c3a3686aa500001b", "department": "Costume & Make-Up", "gender": 0, "id": 958160, "job": "Costume Design", "name": "Edie Kurzer", "profile_path": null}, {"credit_id": "52fe4a7bc3a368484e155afb", "department": "Directing", "gender": 2, "id": 1075843, "job": "Director", "name": "Jerzy Domaradzki", "profile_path": "/ou81PCusm42lTXrSc3UNrYTKVRl.jpg"}, {"credit_id": "53309bdbc3a3686a9d00001c", "department": "Writing", "gender": 0, "id": 1144400, "job": "Writer", "name": "Steve Wright", "profile_path": null}, {"credit_id": "53309bb0c3a3686a9500001e", "department": "Art", "gender": 0, "id": 1304381, "job": "Art Direction", "name": "Diann Wajon", "profile_path": null}, {"credit_id": "53309becc3a3686a9d00001f", "department": "Writing", "gender": 0, "id": 1304382, "job": "Novel", "name": "Kate Grenville", "profile_path": null}]}}