{"adult": false, "backdrop_path": "/5h0w2VNDtBmOHdQRTqCPPgXKZ5Z.jpg", "belongs_to_collection": null, "budget": 0, "genres": [{"id": 99, "name": "Documentary"}], "homepage": null, "id": 122959, "imdb_id": "tt2083141", "original_language": "en", "original_title": "Ballroom Dancer", "overview": "Slavik (34), former world champion in Latin American dancing is making a last and final comeback with Anna, his ten years younger new dance partner and girlfriend. Slavik is addicted to the limelight and the dance and he misses the rush. These days, however, his aging body is causing him severe pains, and his flaring temper puts his relationship with Anna at risk. The road to reclaiming the championships is a long, tough struggle. Slavik literally puts everything on the line in his ultimate push for the throne. Failure is not an option, yet failure is so difficult to avoid.", "popularity": 0.701, "poster_path": "/dziEnYYoPMyc3LPvuaa5FoAPwCk.jpg", "production_companies": [], "production_countries": [], "release_date": "2011-11-20", "revenue": 0, "runtime": 78, "spoken_languages": [], "status": "Released", "tagline": "", "title": "Ballroom Dancer", "video": false, "vote_average": 7.0, "vote_count": 2, "keywords": {"keywords": [{"id": 10106, "name": "ballroom dancing"}]}, "similar": {"page": 1, "results": [{"adult": false, "backdrop_path": "/u23AswVE0zeHADnJZyLQaMquSfM.jpg", "genre_ids": [99, 10751], "id": 14358, "original_language": "en", "original_title": "Mad Hot Ballroom", "overview": "Eleven-year-old New York City public school kids journey into the world of ballroom dancing and reveal pieces of themselves and their world along the way. Told from their candid, sometimes hilarious perspectives, these kids are transformed, from reluctant participants to determined competitors, from typical urban kids to \"ladies and gentlemen,\" on their way to try to compete in the final citywide.", "poster_path": "/cVnBICXmyqlusz1iYvjvIOHxo5U.jpg", "release_date": "2005-05-13", "title": "Mad Hot Ballroom", "video": false, "vote_average": 7.0, "vote_count": 14, "popularity": 19.075}, {"adult": false, "backdrop_path": "/6Ns8a4V5e69f3srxlre33yWNyQO.jpg", "genre_ids": [35, 18, 10749], "id": 10409, "original_language": "en", "original_title": "Strictly Ballroom", "overview": "Brave new steps put Scott's career in jeopardy. With a new partner and determination, can he still succeed?", "poster_path": "/ulA2RUGNvrwxbLDVUwxyB2eBl6P.jpg", "release_date": "1992-08-20", "title": "Strictly Ballroom", "video": false, "vote_average": 6.4, "vote_count": 164, "popularity": 11.315}, {"id": 680, "video": false, "vote_count": 17227, "vote_average": 8.5, "title": "Pulp Fiction", "release_date": "1994-09-10", "original_language": "en", "original_title": "Pulp Fiction", "genre_ids": [80, 53], "backdrop_path": "/suaEOtk1N1sgg2MTM7oZd2cfVp3.jpg", "adult": false, "overview": "A burger-loving hit man, his philosophical partner, a drug-addled gangster's moll and a washed-up boxer converge in this sprawling, comedic crime caper. Their adventures unfurl in three stories that ingeniously trip back and forth in time.", "poster_path": "/d5iIlFn5s0ImszYzBPb8JPIfbXD.jpg", "popularity": 43.597}, {"id": 621, "video": false, "vote_count": 4342, "vote_average": 7.4, "title": "Grease", "release_date": "1978-07-07", "original_language": "en", "original_title": "Grease", "genre_ids": [10749], "backdrop_path": "/93wqWj6izOulKuONZ7rG7WxEjEe.jpg", "adult": false, "overview": "Australian good girl Sandy and greaser Danny fell in love over the summer. But when they unexpectedly discover they're now in the same high school, will they be able to rekindle their romance despite their eccentric friends?", "poster_path": "/iMHdFTrCYhue74sBnXkdO39AJ3R.jpg", "popularity": 32.862}, {"id": 243683, "video": false, "vote_count": 1328, "vote_average": 6.8, "title": "Step Up All In", "release_date": "2014-07-16", "original_language": "en", "original_title": "Step Up All In", "genre_ids": [18, 10402, 10749], "backdrop_path": "/24uuwm3w99OYkV6qlfVfbG1IzKR.jpg", "adult": false, "overview": "All-stars from the previous Step Up installments come together in glittering Las Vegas, battling for a victory that could define their dreams and their careers.", "poster_path": "/jFkvtmhE4NqENI4e0sZxmI8vrSS.jpg", "popularity": 14.292}, {"id": 16263, "video": false, "vote_count": 81, "vote_average": 6.2, "title": "Girls Just Want to Have Fun", "release_date": "1985-04-12", "original_language": "en", "original_title": "Girls Just Want to Have Fun", "genre_ids": [35, 10402, 10749, 10751], "backdrop_path": "/yzUBJYI5WNlOG6zDRCb78YhIMh2.jpg", "adult": false, "overview": "Janey is new in town, and soon meets Lynne, who shares her passion for dancing in general, and \"Dance TV\" in particular. When a competition is announced to find a new Dance TV regular couple, Janey and Lynne are determined to audition. The only problem is that Janey's father doesn't approve of that kind of thing.", "poster_path": "/9yYqTLmfLZB8rQWUKEbpMJTV0h9.jpg", "popularity": 23.666}, {"adult": false, "backdrop_path": "/uDzrtotTMIo6X6DJ9s4iaYaswG7.jpg", "genre_ids": [18, 10402, 10749], "id": 17915, "original_language": "en", "original_title": "Dance with Me", "overview": "Young Cuban Rafael just buried his mother, and comes to Houston to meet his father John for the first time. The difficult part is that John doesn't know he is Rafael's father. John runs a dance studio, and everyone prepares for the World Open Dance championship in Las Vegas. It soon becomes clear Rafael is a very good dancer, and Ruby is the biggest hope for the studio at the championship.", "poster_path": "/5BVHdE90wQullQl63oTjHbcSJLS.jpg", "release_date": "1998-08-21", "title": "Dance with Me", "video": false, "vote_average": 6.1, "vote_count": 66, "popularity": 7.265}, {"adult": false, "backdrop_path": "/9moic8XgWFmVunGEk76VBfFSbxS.jpg", "genre_ids": [35, 10402, 10749, 18], "id": 20325, "original_language": "en", "original_title": "Swing Time", "overview": "Lucky is tricked into missing his wedding to Margaret by the other members of Pop's magic and dance act, and has to make $25,000 to be allowed to marry her. He and Pop go to New York where they run into Penny, a dancing instructor. She and Lucky form a successful dance partnership, but romance is blighted by his old attachment to Margaret and hers for Ricardo\u2014the band leader who won't play for them to dance together.", "poster_path": "/kvCtsd0YcaLzHGS1Tc6RQ6roQm1.jpg", "release_date": "1936-08-27", "title": "Swing Time", "video": false, "vote_average": 6.9, "vote_count": 106, "popularity": 9.327}, {"adult": false, "backdrop_path": "/hlIY2FFJyTTvNxrzjZ5Rae7WKtg.jpg", "genre_ids": [35, 10751, 10770, 10749], "id": 79113, "original_language": "en", "original_title": "A Princess for Christmas", "overview": "After her sister and brother-in-law's tragic death, an American woman who is the guardian for her young niece and nephew is invited to a royal European castle for Christmas by her late brother-in-law's father, the Duke of Castlebury. Feeling out of place as a commoner, she is determined to give her family a merry Christmas and surprises herself when she falls for a handsome prince.", "poster_path": "/8B0GaAebFRWek6tGSqWAeyJOIp6.jpg", "release_date": "2011-12-03", "title": "A Princess for Christmas", "video": false, "vote_average": 6.9, "vote_count": 234, "popularity": 11.088}, {"id": 10677, "video": false, "vote_count": 364, "vote_average": 6.2, "title": "Dirty Dancing: Havana Nights", "release_date": "2004-02-27", "original_language": "en", "original_title": "Dirty Dancing: Havana Nights", "genre_ids": [18, 10749], "backdrop_path": "/rbELiIEbwhIelgTV1BemiTe5KNk.jpg", "adult": false, "overview": "In pre-revolution Cuba, Katey Miller is about to defy everyone's expectations. Instead of a parent-approved suitor, Katey is drawn to the sexy waiter, Javier, who spends his nights dancing in Havana's nightclubs. As she secretly learns to dance with Javier, she learns the meanings of love, sensuality and independence.", "poster_path": "/nuUKcfRYjifwjIJPN1J6kIGcSvD.jpg", "popularity": 9.99}, {"id": 42212, "video": false, "vote_count": 18, "vote_average": 4.9, "title": "Thank God It's Friday", "release_date": "1978-05-19", "original_language": "en", "original_title": "Thank God It's Friday", "genre_ids": [35, 10402, 10749], "backdrop_path": "/z4vKWM0O2I5Eukk1O4pJ0F8k1Nf.jpg", "adult": false, "overview": "It's Friday and everyone is going to the hot new disco. The Commodore's are scheduled to play if Floyd shows up with the instruments and Nicole dreams of becoming a disco star. Other characters are there to win the dance contest, or to put a little excitement into a fifth anniversary.", "poster_path": "/mwacLhP2HouBqnbWHucpLi5jgDn.jpg", "popularity": 4.762}, {"adult": false, "backdrop_path": "/bHETgolkxCrnb0woF9gRQdZLCwN.jpg", "genre_ids": [99, 10402], "id": 23997, "original_language": "en", "original_title": "Every Little Step", "overview": "Every Little Step follows the plight of real-life dancers as they struggle through auditions for the Broadway revival of \"A Chorus Line\" and also investigates the history of the show and the creative minds behind the original and current incarnations.", "poster_path": "/gwIewDhmPqhmf3FHYAH3owyYG1q.jpg", "release_date": "2008-09-06", "title": "Every Little Step", "video": false, "vote_average": 5.9, "vote_count": 9, "popularity": 3.686}, {"adult": false, "backdrop_path": "/rw5bUm0JP2tLiKwNkhsvwojM6fk.jpg", "genre_ids": [10402, 10749], "id": 457308, "original_language": "en", "original_title": "Heartbeats", "overview": "When a bubbly American hip hop dancer goes to India with her family for a wedding, she is impressed by a new dance style and falls in love with the man who introduced her to it.", "poster_path": "/3DvBfOx4roI3jg6d1jnLApzEFZM.jpg", "release_date": "2017-06-30", "title": "Heartbeats", "video": false, "vote_average": 7.0, "vote_count": 82, "popularity": 6.655}, {"id": 102631, "video": false, "vote_count": 16, "vote_average": 3.9, "title": "Battlefield America", "release_date": "2012-06-01", "original_language": "en", "original_title": "Battlefield America", "genre_ids": [18, 10402], "backdrop_path": "/hKhHXhNn5FdOUzxoLbmLF1D3gLp.jpg", "adult": false, "overview": "A young businessman hires an instructor to turn a group of misfit kids into a team on the underground dance competition circuit.", "poster_path": "/aR5ExRuyRxoPJIREzcppP5YzBSB.jpg", "popularity": 4.089}, {"adult": false, "backdrop_path": "/3GZwKefZ1BfrAVfywauFuFlzxCC.jpg", "genre_ids": [10402], "id": 660056, "original_language": "hi", "original_title": "\u092d\u0902\u0917\u095c\u093e \u092a\u093e \u0932\u0947", "overview": "Jaggi comes from a Punjabi background and he aspires to take the popular Punjabi dance form of 'Bhangra' to an international platform and passionately works towards his dream. He meets his college rival in Simi and they both compete with each other to win the international dance competition.", "poster_path": "/geCwc35Nq1zxetb3FXHCG3A5D4P.jpg", "release_date": "2020-01-03", "title": "Bhangra Paa Le", "video": false, "vote_average": 0.0, "vote_count": 0, "popularity": 1.909}, {"adult": false, "backdrop_path": "/zUKVh5XoZJ2MEXA0pD2sVSu0B4r.jpg", "genre_ids": [18, 10749], "id": 31421, "original_language": "en", "original_title": "The Gymnast", "overview": "The stunning Dreya Weber stars as a former top gymnast who discovers love and a new life path when she teams up with a dancer (played by former L.A. Lakers cheerleader Addie Yungmee) for an ambitious Las Vegas aerial act show.", "poster_path": "/op1PzHVWc5JjWvngE0vWzj89Amw.jpg", "release_date": "2006-04-11", "title": "The Gymnast", "video": false, "vote_average": 6.9, "vote_count": 18, "popularity": 6.255}, {"adult": false, "backdrop_path": "/sRE5wSUm9jNzb39LDG6fPQ4ULe6.jpg", "genre_ids": [80, 18], "id": 82260, "original_language": "en", "original_title": "Taxi!", "overview": "Amidst a backdrop of growing violence and intimidation, independent cab drivers struggling against a consolidated juggernaut rally around hot-tempered Matt Nolan. Nolan is determined to keep competition alive on the streets, even if it means losing the woman he loves.", "poster_path": "/mbts3So8vVENdxCjRJrqhoMFHCo.jpg", "release_date": "1932-01-23", "title": "Taxi!", "video": false, "vote_average": 6.8, "vote_count": 8, "popularity": 2.925}, {"adult": false, "backdrop_path": "/dnhYklx3H4DS7LcY6QMuLzoB6II.jpg", "genre_ids": [28, 10402], "id": 460508, "original_language": "hi", "original_title": "\u092e\u0941\u0928\u094d\u0928\u093e \u092e\u093e\u0907\u0915\u0932", "overview": "An expert dancer Munna who idolizes the king of pop, reluctantly tutors a gangster until their developing bond gets disrupted by their common romantic interest towards the same woman.", "poster_path": "/p1tdHXmGGLc8o8kTImZi5iPXcu3.jpg", "release_date": "2017-07-20", "title": "Munna Michael", "video": false, "vote_average": 6.7, "vote_count": 30, "popularity": 2.517}, {"adult": false, "backdrop_path": "/jsPNKZuxPSf5KylH8c4L3EGUNbo.jpg", "genre_ids": [10770], "id": 245739, "original_language": "en", "original_title": "Gangsta Granny", "overview": "A young boy is bored spending time with his dull grandma until he discovers she's an international Jewel thief.", "poster_path": "/krZSQawOL8Jk3luDgx1OdGhyj4i.jpg", "release_date": "2013-12-26", "title": "Gangsta Granny", "video": false, "vote_average": 5.1, "vote_count": 15, "popularity": 4.01}, {"adult": false, "backdrop_path": null, "genre_ids": [99], "id": 526181, "original_language": "en", "original_title": "When the Beat Drops", "overview": "A documentary exploring the origins and evolution of bucking, as well as the life stories and struggles of various Atlanta performers.", "poster_path": "/pY98vi5NG4aEZdqUDFk2m7dgT5C.jpg", "release_date": "2018-03-11", "title": "When the Beat Drops", "video": false, "vote_average": 7.0, "vote_count": 1, "popularity": 0.84}], "total_pages": 2, "total_results": 32}, "recommendations": {"page": 1, "results": [], "total_pages": 1, "total_results": 0}, "credits": {"cast": [{"cast_id": 3, "character": "Himself", "credit_id": "52fe4a89c3a368484e158ffd", "gender": 0, "id": 1078126, "name": "Vyacheslav 'Slavik' Kryklyvyy", "order": 0, "profile_path": null}], "crew": [{"credit_id": "52fe4a89c3a368484e158ff3", "department": "Directing", "gender": 2, "id": 1076826, "job": "Director", "name": "Christian Bonke", "profile_path": null}, {"credit_id": "52fe4a89c3a368484e158ff9", "department": "Directing", "gender": 0, "id": 1076827, "job": "Director", "name": "Andreas Koefoed", "profile_path": null}]}}