{"adult": false, "backdrop_path": "/ub1aRXATZcJKpToEaehf9DyJ84C.jpg", "belongs_to_collection": null, "budget": 0, "genres": [{"id": 12, "name": "Adventure"}, {"id": 36, "name": "History"}], "homepage": null, "id": 123186, "imdb_id": "tt0047229", "original_language": "en", "original_title": "The Men of Sherwood Forest", "overview": "Robin Hood is persuaded by two nobles whom he believes to be loyal to King Richard to recover secret plans attaining to the rescue of the king from captivity in Germany. Though disguised as a troubadour, Robin is betrayed and captured. Lady Alys and the merry men help him escape in time to foil an intended ambush on King Richard as he returns from the Crusades.", "popularity": 2.799, "poster_path": "/ncOEnVZqDGApTAe3POhmuPFgEUs.jpg", "production_companies": [{"id": 1314, "logo_path": "/gQBluDqe6dc2ZdzfJbabEHoSGoG.png", "name": "Hammer Film Productions", "origin_country": "GB"}], "production_countries": [{"iso_3166_1": "GB", "name": "United Kingdom"}], "release_date": "1954-11-01", "revenue": 0, "runtime": 77, "spoken_languages": [{"iso_639_1": "en", "name": "English"}], "status": "Released", "tagline": "", "title": "The Men of Sherwood Forest", "video": false, "vote_average": 7.0, "vote_count": 4, "keywords": {"keywords": [{"id": 4147, "name": "robin hood"}, {"id": 11525, "name": "sherwood forest"}]}, "similar": {"page": 1, "results": [{"id": 8367, "video": false, "vote_count": 1845, "vote_average": 6.8, "title": "Robin Hood: Prince of Thieves", "release_date": "1991-06-14", "original_language": "en", "original_title": "Robin Hood: Prince of Thieves", "genre_ids": [28, 12, 18, 10749], "backdrop_path": "/jQ6whDbJWVKh82WYTeqxjm9Q5O6.jpg", "adult": false, "overview": "When the dastardly Sheriff of Nottingham murders Robin's father, the legendary archer vows vengeance. To accomplish his mission, Robin joins forces with a band of exiled villagers (and comely Maid Marian), and together they battle to end the evil sheriff's reign of terror.", "poster_path": "/bDqqiu3yi7V5idgdei61XBairBZ.jpg", "popularity": 19.739}, {"id": 10907, "video": false, "vote_count": 334, "vote_average": 7.6, "title": "The Adventures of Robin Hood", "release_date": "1938-05-13", "original_language": "en", "original_title": "The Adventures of Robin Hood", "genre_ids": [28, 12, 10749], "backdrop_path": "/yjnfM8QmrXQkWl8dUimsDGl73el.jpg", "adult": false, "overview": "Robin Hood fights nobly for justice against the evil Sir Guy of Gisbourne while striving to win the hand of the beautiful Maid Marian.", "poster_path": "/lEx5IKjqwYS7PcGnIXivYaDMzQr.jpg", "popularity": 11.061}, {"id": 375588, "video": false, "vote_count": 1642, "vote_average": 5.8, "title": "Robin Hood", "release_date": "2018-11-21", "original_language": "en", "original_title": "Robin Hood", "genre_ids": [28, 12, 53], "backdrop_path": "/axjFiijtxdfK3CD9dMwrdgLwblD.jpg", "adult": false, "overview": "A war-hardened Crusader and his Moorish commander mount an audacious revolt against the corrupt English crown.", "poster_path": "/AiRfixFcfTkNbn2A73qVJPlpkUo.jpg", "popularity": 30.809}, {"id": 20662, "video": false, "vote_count": 2836, "vote_average": 6.3, "title": "Robin Hood", "release_date": "2010-05-12", "original_language": "en", "original_title": "Robin Hood", "genre_ids": [28, 12, 18], "backdrop_path": "/avhEibZxIr8NzHQFBjw3FjLjN7u.jpg", "adult": false, "overview": "When soldier Robin happens upon the dying Robert of Loxley, he promises to return the man's sword to his family in Nottingham. There, he assumes Robert's identity; romances his widow, Marion; and draws the ire of the town's sheriff and King John's henchman, Godfrey.", "poster_path": "/4gH0vhyOcl7QV3t81653CpWjEB6.jpg", "popularity": 20.802}, {"adult": false, "backdrop_path": "/dzMGckpN2xAQDLr2Ddr8CZ3WbYF.jpg", "genre_ids": [18, 28, 12, 36, 10752], "id": 1495, "original_language": "en", "original_title": "Kingdom of Heaven", "overview": "After his wife dies, a blacksmith named Balian is thrust into royalty, political intrigue and bloody holy wars during the Crusades.", "poster_path": "/aB4urkgTxBURJMUkd0kceDD7FUM.jpg", "release_date": "2005-05-03", "title": "Kingdom of Heaven", "video": false, "vote_average": 6.7, "vote_count": 2319, "popularity": 21.939}, {"id": 26175, "video": false, "vote_count": 84, "vote_average": 6.9, "title": "Ivanhoe", "release_date": "1952-01-01", "original_language": "en", "original_title": "Ivanhoe", "genre_ids": [28, 12, 18, 10749], "backdrop_path": "/tPiMmUId2kXPFLK1mY5qQvI07SC.jpg", "adult": false, "overview": "Sir Walter Scott's classic story of the chivalrous Ivanhoe who joins with Robin of Locksley in the fight against Prince John and for the return of King Richard the Lionheart.", "poster_path": "/ojCR2DZsSvRtyvWSvA55Nki5DUs.jpg", "popularity": 9.488}, {"adult": false, "backdrop_path": "/sF8mXIinJGlEsdwGpiCyqMxfw8y.jpg", "genre_ids": [28, 12, 18, 10749], "id": 10786, "original_language": "en", "original_title": "Robin and Marian", "overview": "Robin Hood is an old man when he returns with his best friend Little John to England after the Crusades. Maid Marian has entered a nunnery, King Richard is a raving lunatic, his Brother John a moron, and the age of great adventure has seemed to have passed Robin by. But when The Sheriff of Nottingham once again threatens Sherwood, Robin gathers his faithful men, and band of peasants to fight oppression in this high-spirited adventure in which Robin Hood and Maid Marian rediscover their love\u2026", "poster_path": "/EEZzvjpUUU9JU8hGgMOuVLgYjW.jpg", "release_date": "1976-03-11", "title": "Robin and Marian", "video": false, "vote_average": 6.6, "vote_count": 96, "popularity": 7.433}, {"id": 11886, "video": false, "vote_count": 2672, "vote_average": 7.2, "title": "Robin Hood", "release_date": "1973-11-08", "original_language": "en", "original_title": "Robin Hood", "genre_ids": [16, 10751], "backdrop_path": "/gidtawc8Mne3Dc5UrkvXhoIZqCZ.jpg", "adult": false, "overview": "With King Richard off to the Crusades, Prince John and his slithering minion, Sir Hiss, set about taxing Nottingham's citizens with support from the corrupt sheriff - and staunch opposition by the wily Robin Hood and his band of merry men.", "poster_path": "/84Sa0NvaMLIWpK4zscMhzOiTG78.jpg", "popularity": 25.96}, {"id": 62177, "video": false, "vote_count": 8933, "vote_average": 6.9, "title": "Brave", "release_date": "2012-06-21", "original_language": "en", "original_title": "Brave", "genre_ids": [28, 12, 16, 35, 14, 10751], "backdrop_path": "/sfRCA9g3CunpnZO3QurHSIRcsUq.jpg", "adult": false, "overview": "Brave is set in the mystical Scottish Highlands, where M\u00e9rida is the princess of a kingdom ruled by King Fergus and Queen Elinor. An unruly daughter and an accomplished archer, M\u00e9rida one day defies a sacred custom of the land and inadvertently brings turmoil to the kingdom. In an attempt to set things right, M\u00e9rida seeks out an eccentric old Wise Woman and is granted an ill-fated wish. Also figuring into M\u00e9rida\u2019s quest \u2014 and serving as comic relief \u2014 are the kingdom\u2019s three lords: the enormous Lord MacGuffin, the surly Lord Macintosh, and the disagreeable Lord Dingwall.", "poster_path": "/qhABv2d4NZLhsOOA4iBFM4rfuJC.jpg", "popularity": 40.077}, {"id": 808, "video": false, "vote_count": 9704, "vote_average": 7.6, "title": "Shrek", "release_date": "2001-05-16", "original_language": "en", "original_title": "Shrek", "genre_ids": [12, 16, 35, 14, 10751], "backdrop_path": "/2l5UHZBcp9cx1PwKLdisJ0gV9jB.jpg", "adult": false, "overview": "It ain't easy bein' green -- especially if you're a likable (albeit smelly) ogre named Shrek. On a mission to retrieve a gorgeous princess from the clutches of a fire-breathing dragon, Shrek teams up with an unlikely compatriot -- a wisecracking donkey.", "poster_path": "/140ewbWv8qHStD3mlBDvvGd0Zvu.jpg", "popularity": 29.933}, {"id": 311324, "video": false, "vote_count": 3068, "vote_average": 5.8, "title": "The Great Wall", "release_date": "2016-12-16", "original_language": "en", "original_title": "The Great Wall", "genre_ids": [28, 12, 14], "backdrop_path": "/xeHe0f7RdsZzjW76si6fGUmu2Qq.jpg", "adult": false, "overview": "European mercenaries searching for black powder become embroiled in the defense of the Great Wall of China against a horde of monstrous creatures.", "poster_path": "/p70dq1YxabemdZDm5K6Q8G10wSn.jpg", "popularity": 20.369}, {"id": 31967, "video": false, "vote_count": 125, "vote_average": 6.1, "title": "Dante's Inferno: An Animated Epic", "release_date": "2010-02-09", "original_language": "en", "original_title": "Dante's Inferno: An Animated Epic", "genre_ids": [28, 12, 16, 27], "backdrop_path": "/u7ZiRakTdU2NeYIf0CdF1mr0P6D.jpg", "adult": false, "overview": "Dante journeys through the nine circles of Hell -- limbo, lust, gluttony, greed, anger, heresy, violence, fraud and treachery -- in search of his true love, Beatrice. An animated version of the video game of the same name.", "poster_path": "/ghTK4418ZOPa0RzrGJYty1b1c95.jpg", "popularity": 14.688}, {"id": 490, "video": false, "vote_count": 1355, "vote_average": 8.2, "title": "The Seventh Seal", "release_date": "1957-02-16", "original_language": "sv", "original_title": "Det sjunde inseglet", "genre_ids": [18, 14], "backdrop_path": "/d9VUlRTovsGbwkUjNR2OGOGrQuO.jpg", "adult": false, "overview": "When disillusioned Swedish knight Antonius Block returns home from the Crusades to find his country in the grips of the Black Death, he challenges Death to a chess match for his life. Tormented by the belief that God does not exist, Block sets off on a journey, meeting up with traveling players Jof and his wife, Mia, and becoming determined to evade Death long enough to commit one redemptive act while he still lives.", "poster_path": "/iJXSumDrz64AvmFZaHHNBGDO1ex.jpg", "popularity": 14.376}, {"id": 289720, "video": false, "vote_count": 247, "vote_average": 4.7, "title": "Outcast", "release_date": "2014-09-26", "original_language": "en", "original_title": "Outcast", "genre_ids": [28], "backdrop_path": "/jmZ8cnELpLGhEEgoRp5QR5VoGyp.jpg", "adult": false, "overview": "A mysterious warrior teams up with the daughter and son of a deposed Chinese Emperor to defeat their cruel Uncle, who seeks their deaths.", "poster_path": "/dUIubxF5osHOJxS3mJNWCqTqWn5.jpg", "popularity": 25.946}, {"id": 8005, "video": false, "vote_count": 1143, "vote_average": 6.6, "title": "Robin Hood: Men in Tights", "release_date": "1993-07-28", "original_language": "en", "original_title": "Robin Hood: Men in Tights", "genre_ids": [35], "backdrop_path": "/u9qAKiXdBeK7oWzaG3XRK53Ozbt.jpg", "adult": false, "overview": "Robin Hood comes home after fighting in the Crusades to learn that the noble King Richard is in exile and that the despotic King John now rules England, with the help of the Sheriff of Rottingham. Robin Hood assembles a band of fellow patriots to do battle with King John and the Sheriff.", "poster_path": "/3pd3sdot0HfQTFzqgTUzaF4kcxP.jpg", "popularity": 15.113}, {"id": 6038, "video": false, "vote_count": 1388, "vote_average": 6.1, "title": "Shanghai Knights", "release_date": "2003-02-06", "original_language": "en", "original_title": "Shanghai Knights", "genre_ids": [28, 12, 35, 37], "backdrop_path": "/qznEajxCwTDpYgqnRFpncwFhvF0.jpg", "adult": false, "overview": "The dynamic duo of Chon Wang and Roy O'Bannon return for another crazy adventure. This time, they're in London to avenge the murder of Chon's father, but end up on an even bigger case. Chon's sister is there to do the same, but instead unearths a plot to kill the royal family. No one believes her, though, and it's up to Chon and Roy (who has romance on his mind) to prove her right.", "poster_path": "/g5BFUJPgv9CoGDyAX4XZFcEY36a.jpg", "popularity": 13.564}, {"id": 1255, "video": false, "vote_count": 1118, "vote_average": 6.8, "title": "The Host", "release_date": "2006-07-27", "original_language": "ko", "original_title": "\uad34\ubb3c", "genre_ids": [18, 27, 878], "backdrop_path": "/9diyJ180qJP4PHlHYPvwEMrrqI8.jpg", "adult": false, "overview": "Gang-du is a dim-witted man working at his father's tiny snack bar near the Han River. Following the dumping of gallons of toxic waste in the river, a giant mutated squid-like appears and begins attacking the populace.  Gang-du's daughter Hyun-seo is snatched up by the creature and he and his family are taken into custody by the military, who fear a virus spread by the creature..  In detention, Gang-du receives a phone call from Hyun-seo, who is not dead, merely trapped in a sewer.  With his family to assist him, he sets off to find Hyun-seo.", "poster_path": "/wLe2XnBHv5jJWIv5URin7vyCHbd.jpg", "popularity": 15.728}, {"adult": false, "backdrop_path": "/q4s8RTQFyLrEn2S8akWGMmc8mYX.jpg", "genre_ids": [35], "id": 38365, "original_language": "en", "original_title": "Grown Ups", "overview": "After their high school basketball coach passes away, five good friends and former teammates reunite for a Fourth of July holiday weekend.", "poster_path": "/t6Yj2UlqsrHHK6kJO1FWepR6mEd.jpg", "release_date": "2010-06-24", "title": "Grown Ups", "video": false, "vote_average": 6.2, "vote_count": 3502, "popularity": 18.675}, {"id": 5764, "video": false, "vote_count": 82, "vote_average": 6.1, "title": "Princess of Thieves", "release_date": "2001-03-11", "original_language": "en", "original_title": "Princess of Thieves", "genre_ids": [12, 10770], "backdrop_path": "/m9tPOLO5FdD30Q7mXWrtX1gjMsH.jpg", "adult": false, "overview": "Sherwood forest has a courageous new hero - Gwyn, the daughter of Robin Hood. Possessing the cunning skills of her legendary father and the beauty and intelligence of her mother Maid Marian, Gwyn is anxious to follow in her father's footsteps. King Richard nears death and Robin Hood and his Merry Men are summoned to help bring Richard's son Philip to his rightful place on the throne before the evil Prince John can assume power. Robin Hood's life and that of the future King of England soon lies in Gwyn's hands when Robin is captured and sentenced to death.", "poster_path": "/q38XUIeZOqq1UTgfYBxio8Cs5NH.jpg", "popularity": 11.035}, {"id": 134623, "video": false, "vote_count": 23, "vote_average": 6.8, "title": "Tom and Jerry: Robin Hood and His Merry Mouse", "release_date": "2012-10-02", "original_language": "en", "original_title": "Tom and Jerry: Robin Hood and His Merry Mouse", "genre_ids": [16, 35, 10751], "backdrop_path": "/4odngWjfAfpVokMZp4jUbfL08ea.jpg", "adult": false, "overview": "Robin Hood steals from the rich and give to the poor, and needs the help of Tom and Jerry! Your favorite daring duo aims to beloved medieval tale in a new film is all for one and one for all!", "poster_path": "/lzMSThxUI0zJZ2vKoArHo2hqJvZ.jpg", "popularity": 5.125}], "total_pages": 6, "total_results": 110}, "recommendations": {"page": 1, "results": [], "total_pages": 1, "total_results": 0}, "credits": {"cast": [{"cast_id": 3, "character": "Robin Hood", "credit_id": "52fe4a8ec3a368484e15a359", "gender": 2, "id": 9108, "name": "Don Taylor", "order": 0, "profile_path": "/tFQYFlFtOwK5ueiXiuQyWVXG9SJ.jpg"}, {"cast_id": 4, "character": "Friar Tuck", "credit_id": "52fe4a8ec3a368484e15a35d", "gender": 2, "id": 93164, "name": "Reginald Beckwith", "order": 1, "profile_path": "/16w2j2DPVmWRxhXlap0hoh29pqH.jpg"}, {"cast_id": 5, "character": "Lady Alys", "credit_id": "52fe4a8ec3a368484e15a361", "gender": 1, "id": 130057, "name": "Eileen Moore", "order": 2, "profile_path": "/nsiPRmrd57jwtky5e5DwI22BIkO.jpg"}, {"cast_id": 6, "character": "Sir Guy Belton", "credit_id": "52fe4a8ec3a368484e15a365", "gender": 0, "id": 100344, "name": "David King-Wood", "order": 3, "profile_path": "/9CJVpz1IqdvOb7hnxBFRHqpLN6G.jpg"}, {"cast_id": 7, "character": "Sir Nigel Saltire", "credit_id": "52fe4a8ec3a368484e15a369", "gender": 2, "id": 89065, "name": "Douglas Wilmer", "order": 4, "profile_path": "/3aUnwOD2fBGMBcaE9Hj4EqtxKWO.jpg"}, {"cast_id": 8, "character": "Hubert", "credit_id": "52fe4a8ec3a368484e15a36d", "gender": 2, "id": 92010, "name": "Harold Lang", "order": 5, "profile_path": null}, {"cast_id": 9, "character": "Walter", "credit_id": "52fe4a8ec3a368484e15a371", "gender": 2, "id": 129033, "name": "Ballard Berkeley", "order": 6, "profile_path": "/pgZImT3EPy6hb8tuO4xGBoyHysa.jpg"}, {"cast_id": 10, "character": "King Richard", "credit_id": "52fe4a8ec3a368484e15a375", "gender": 0, "id": 106630, "name": "Patrick Holt", "order": 7, "profile_path": "/e6EztfVXAaE6JTPQUtPHv27uRrl.jpg"}, {"cast_id": 11, "character": "Hugo", "credit_id": "52fe4a8ec3a368484e15a379", "gender": 2, "id": 115607, "name": "Wensley Pithey", "order": 8, "profile_path": null}, {"cast_id": 12, "character": "Little John", "credit_id": "52fe4a8ec3a368484e15a37d", "gender": 0, "id": 543810, "name": "Leslie Linder", "order": 9, "profile_path": "/oWLGN2cTCkwe1zUOpwpenXH4YFS.jpg"}, {"cast_id": 13, "character": "Will Scarlett", "credit_id": "52fe4a8ec3a368484e15a381", "gender": 2, "id": 106989, "name": "John Van Eyssen", "order": 10, "profile_path": "/14DEEXSyd22NxKSNv2lFyS0zXMj.jpg"}, {"cast_id": 14, "character": "", "credit_id": "52fe4a8ec3a368484e15a385", "gender": 2, "id": 148631, "name": "Toke Townley", "order": 11, "profile_path": "/jTyBm8N8tFrInlFBtgBb5ZlLsdV.jpg"}, {"cast_id": 15, "character": "Elvira", "credit_id": "52fe4a8ec3a368484e15a389", "gender": 1, "id": 613276, "name": "Vera Pearce", "order": 12, "profile_path": null}, {"cast_id": 16, "character": "Moraine", "credit_id": "52fe4a8ec3a368484e15a38d", "gender": 2, "id": 30709, "name": "John Stuart", "order": 13, "profile_path": "/zZzUldf0EqwbrNVHx9anw7YInHp.jpg"}, {"cast_id": 17, "character": "Garth", "credit_id": "5d2793cf9c24fc0011a366a5", "gender": 2, "id": 12815, "name": "Bernard Bresslaw", "order": 14, "profile_path": "/h8ZglTWetH0DDBmzG6VaRVJwx1S.jpg"}], "crew": [{"credit_id": "5d356177befb090013b8e362", "department": "Editing", "gender": 2, "id": 30172, "job": "Editor", "name": "James Needs", "profile_path": null}, {"credit_id": "52fe4a8ec3a368484e15a34f", "department": "Directing", "gender": 2, "id": 39853, "job": "Director", "name": "Val Guest", "profile_path": "/99rZHWC9WKCyVgFLpBy1fKDkyLB.jpg"}, {"credit_id": "52fe4a8ec3a368484e15a355", "department": "Writing", "gender": 0, "id": 223834, "job": "Writer", "name": "Allan MacKinnon", "profile_path": null}]}}