{"adult": false, "backdrop_path": "/6nPCu5JR1YHRly9cdjLHixiC15k.jpg", "belongs_to_collection": null, "budget": 0, "genres": [{"id": 80, "name": "Crime"}, {"id": 18, "name": "Drama"}], "homepage": "", "id": 123292, "imdb_id": "tt0022876", "original_language": "en", "original_title": "The Famous Ferguson Case", "overview": "A foreword warns against the peril of yellow journalism, and the story illustrates it by following events in the upstate New York town of Cornwall after prominant financier George Ferguson is killed. Two types of New York City journalists descend on Cornwall, one interested in facts, the other in getting sensational \"news\". Mrs. Ferguson is known to have been friendly with a local banker. The Fergusons quarrel the evening he is killed (by \"burglers\", his wife tells the police later), and she is arrested, spurred on by the \"bad\" journalists, who also manage to badger the banker's wife into the hospital. Meanwhile, young Bruce Foster runs the Cornwall Courier, and shows the big city reporters how to dig out real news while they attempt to subvert justice for their own ends.", "popularity": 1.924, "poster_path": "/fJ6NMWanzJsNd14zZo3RzNHJ3xz.jpg", "production_companies": [{"id": 3245, "logo_path": "/9dBTQp9XitrHkx20i1r9HhZ3Q6B.png", "name": "First National Pictures", "origin_country": "US"}], "production_countries": [{"iso_3166_1": "US", "name": "United States of America"}], "release_date": "1932-04-19", "revenue": 0, "runtime": 74, "spoken_languages": [{"iso_639_1": "en", "name": "English"}], "status": "Released", "tagline": "", "title": "The Famous Ferguson Case", "video": false, "vote_average": 6.5, "vote_count": 2, "keywords": {"keywords": [{"id": 918, "name": "newspaper"}]}, "similar": {"page": 1, "results": [{"adult": false, "backdrop_path": "/zffzhr30v7nCHRcyfnVr8PmNLbM.jpg", "genre_ids": [10749, 35, 18], "id": 11355, "original_language": "en", "original_title": "Never Been Kissed", "overview": "Josie Geller, a baby-faced junior copywriter at the Chicago Sun-Times, must pose as a student at her former high school to research contemporary teenage culture. With the help of her brother, Rob, Josie infiltrates the inner circle of the most popular clique on campus. But she hits a major snag in her investigation -- not to mention her own failed love life -- when she falls for her dreamy English teacher, Sam Coulson.", "poster_path": "/1F9EAhEQxa0I5Pa5Z10hWIBFS3r.jpg", "release_date": "1999-04-09", "title": "Never Been Kissed", "video": false, "vote_average": 6.0, "vote_count": 855, "popularity": 15.613}, {"id": 1949, "video": false, "vote_count": 5165, "vote_average": 7.5, "title": "Zodiac", "release_date": "2007-03-02", "original_language": "en", "original_title": "Zodiac", "genre_ids": [80, 18, 9648, 53], "backdrop_path": "/jP2htGBHE7vKq4MLeC75UeC0sZH.jpg", "adult": false, "overview": "The true story of the investigation of the \"Zodiac Killer\", a serial killer who terrified the San Francisco Bay Area, taunting police with his ciphers and letters. The case becomes an obsession for three men as their lives and careers are built and destroyed by the endless trail of clues.", "poster_path": "/bgLyOROfFQI3FqYL7jQbiaV8lkN.jpg", "popularity": 24.455}, {"id": 9008, "video": false, "vote_count": 953, "vote_average": 7.4, "title": "The Insider", "release_date": "1999-10-28", "original_language": "en", "original_title": "The Insider", "genre_ids": [18, 53], "backdrop_path": "/7oq51chQ7MW7RVKqhL4ivxhrwGf.jpg", "adult": false, "overview": "Tells the true story of a 60 Minutes television series expos\u00e9 of the tobacco industry, as seen through the eyes of a real tobacco executive, Jeffrey Wigand.", "poster_path": "/sYQsmMl4oG56NtFaNkDxuJhhODa.jpg", "popularity": 16.427}, {"adult": false, "backdrop_path": "/gGApniZQyEnUTSPzCqqheYhB18f.jpg", "genre_ids": [53, 18], "id": 16995, "original_language": "en", "original_title": "State of Play", "overview": "Handsome, unflappable U.S. Congressman Stephen Collins is the future of his political party: an honorable appointee who serves as the chairman of a committee overseeing defense spending. All eyes are upon the rising star to be his party's contender for the upcoming presidential race. Until his research assistant/mistress is brutally murdered and buried secrets come tumbling out.", "poster_path": "/lH5rHsUM7Umo9xyyjPguK5kTXKd.jpg", "release_date": "2009-04-17", "title": "State of Play", "video": false, "vote_average": 6.8, "vote_count": 956, "popularity": 17.093}, {"adult": false, "backdrop_path": "/79p6lNdZX7XAKGZ8rxlDC8TU0C7.jpg", "genre_ids": [18, 80], "id": 269, "original_language": "fr", "original_title": "\u00c0 bout de souffle", "overview": "A young car thief kills a policeman and tries to persuade a girl to hide in Italy with him.", "poster_path": "/mBZ6BE7V9MCC7FzhAQPJl6K0634.jpg", "release_date": "1960-03-16", "title": "Breathless", "video": false, "vote_average": 7.8, "vote_count": 791, "popularity": 18.242}, {"adult": false, "backdrop_path": "/99EC2akzRSUNQoCTxgZLNolQR8I.jpg", "genre_ids": [35, 18, 10749], "id": 3085, "original_language": "en", "original_title": "His Girl Friday", "overview": "Hildy, the journalist former wife of newspaper editor Walter Burns, visits his office to inform him that she's engaged and will be getting remarried the next day. Walter can't let that happen and frames the fianc\u00e9, Bruce Baldwin, for one thing after another, to keep him temporarily held in prison, while trying to steer Hildy into returning to her old job as his employee.", "poster_path": "/fmQLvnDEL9wlE6FzB1S84yskdkT.jpg", "release_date": "1940-01-18", "title": "His Girl Friday", "video": false, "vote_average": 7.5, "vote_count": 370, "popularity": 15.24}, {"adult": false, "backdrop_path": "/adGGzfXNmu0iLgiPAW9Ghd138f7.jpg", "genre_ids": [35, 18, 10749], "id": 350, "original_language": "en", "original_title": "The Devil Wears Prada", "overview": "Andy moves to New York to work in the fashion industry. Her boss is extremely demanding, cruel and won't let her succeed if she doesn't fit into the high class elegant look of their magazine.", "poster_path": "/8unCRm0LeiO0fM6skWAZy3ZfXR1.jpg", "release_date": "2006-06-30", "title": "The Devil Wears Prada", "video": false, "vote_average": 7.3, "vote_count": 7278, "popularity": 38.017}, {"adult": false, "backdrop_path": "/t3Oea7KbSpOvuqddMnlFtZ4WHn.jpg", "genre_ids": [18, 53, 36], "id": 314365, "original_language": "en", "original_title": "Spotlight", "overview": "In 2001, editor Marty Baron of The Boston Globe assigns a team of journalists to investigate allegations against John Geoghan, an unfrocked priest accused of molesting more than 80 boys. Led by editor Walter \"Robby\" Robinson, reporters Michael Rezendes, Matt Carroll and Sacha Pfeiffer interview victims and try to unseal sensitive documents. The reporters make it their mission to provide proof of a cover-up of sexual abuse within the Roman Catholic Church.", "poster_path": "/ngKxbvsn9Si5TYVJfi1EGAGwThU.jpg", "release_date": "2015-11-06", "title": "Spotlight", "video": false, "vote_average": 7.8, "vote_count": 5410, "popularity": 19.217}, {"id": 65754, "video": false, "vote_count": 4330, "vote_average": 7.3, "title": "The Girl with the Dragon Tattoo", "release_date": "2011-12-14", "original_language": "en", "original_title": "The Girl with the Dragon Tattoo", "genre_ids": [80, 18, 9648, 53], "backdrop_path": "/1fk2xS5hRkblBuag5JXZkmE8pg6.jpg", "adult": false, "overview": "This English-language adaptation of the Swedish novel by Stieg Larsson follows a disgraced journalist, Mikael Blomkvist, as he investigates the disappearance of a weary patriarch's niece from 40 years ago. He is aided by the pierced, tattooed, punk computer hacker named Lisbeth Salander. As they work together in the investigation, Blomkvist and Salander uncover immense corruption beyond anything they have ever imagined.", "poster_path": "/voxRWFTtagLiqnJQs9tWQLB0MN.jpg", "popularity": 27.09}, {"adult": false, "backdrop_path": "/zGutQCLUIQ5LakubDZtfM8s22eA.jpg", "genre_ids": [9648, 18], "id": 15, "original_language": "en", "original_title": "Citizen Kane", "overview": "Newspaper magnate, Charles Foster Kane is taken from his mother as a boy and made the ward of a rich industrialist. As a result, every well-meaning, tyrannical or self-destructive move he makes for the rest of his life appears in some way to be a reaction to that deeply wounding event.", "poster_path": "/sav0jxhqiH0bPr2vZFU0Kjt2nZL.jpg", "release_date": "1941-04-30", "title": "Citizen Kane", "video": false, "vote_average": 8.1, "vote_count": 2765, "popularity": 22.836}, {"id": 891, "video": false, "vote_count": 889, "vote_average": 7.8, "title": "All the President's Men", "release_date": "1976-04-04", "original_language": "en", "original_title": "All the President's Men", "genre_ids": [18, 36, 9648, 53], "backdrop_path": "/rqM0Uq57NNOpEx7BBk7FqBfGqzc.jpg", "adult": false, "overview": "In the run-up to the 1972 elections, Washington Post reporter Bob Woodward covers what seems to be a minor break-in at the Democratic Party National Headquarters. He is surprised to find top lawyers already on the defense case, and the discovery of names and addresses of Republican fund organizers on the accused further arouses his suspicions. After the editor of the Post runs with the story and assigns Woodward and Carl Bernstein to it, they find the trail leading higher and higher in the Republican Party\u2014and eventually into the White House itself.", "poster_path": "/jvXiGgWyBYDfQb44spH9JPTOmAZ.jpg", "popularity": 28.872}, {"id": 446354, "video": false, "vote_count": 2839, "vote_average": 7.0, "title": "The Post", "release_date": "2017-12-22", "original_language": "en", "original_title": "The Post", "genre_ids": [18, 36], "backdrop_path": "/8sb4aBST28vN3rBz704XJczS0Ld.jpg", "adult": false, "overview": "A cover-up that spanned four U.S. Presidents pushed the country's first female newspaper publisher and a hard-driving editor to join an unprecedented battle between journalist and government. Inspired by true events.", "poster_path": "/h4XG3g6uMMPIBPjAoQhC2QIMdkl.jpg", "popularity": 19.347}, {"adult": false, "backdrop_path": "/46y6EvnDveRFwtztyHVS0y2DipU.jpg", "genre_ids": [18, 53, 28], "id": 1372, "original_language": "en", "original_title": "Blood Diamond", "overview": "An ex-mercenary turned smuggler. A Mende fisherman. Amid the explosive civil war overtaking 1999 Sierra Leone, these men join for two desperate missions: recovering a rare pink diamond of immense value and rescuing the fisherman's son conscripted as a child soldier into the brutal rebel forces ripping a swath of torture and bloodshed countrywide.", "poster_path": "/wRamTzV6udKaMXrspxqOuo02zk0.jpg", "release_date": "2006-12-07", "title": "Blood Diamond", "video": false, "vote_average": 7.5, "vote_count": 4327, "popularity": 16.586}, {"id": 10909, "video": false, "vote_count": 406, "vote_average": 6.7, "title": "Kalifornia", "release_date": "1993-09-01", "original_language": "en", "original_title": "Kalifornia", "genre_ids": [80, 53], "backdrop_path": "/ucfWS1l0mVHKOtgL8ew5Y10IZMM.jpg", "adult": false, "overview": "A journalist duo go on a tour of serial killer murder sites with two companions, unaware that one of them is a serial killer himself.", "poster_path": "/5MM64T2y1qrBchByhB4I8Vr7HY.jpg", "popularity": 11.623}, {"adult": false, "backdrop_path": "/k9dJ6wKKg1Ye8XCGuNOtPoTpRn9.jpg", "genre_ids": [35, 18, 10749], "id": 24807, "original_language": "en", "original_title": "Mr. Deeds Goes to Town", "overview": "Longfellow Deeds lives in a small town, leading a small town kind of life. When a relative dies and leaves Deeds a fortune, Longfellow moves to the big city where he becomes an instant target for everyone. Deeds outwits them all until Babe Bennett comes along. When small-town boy meets big-city girl anything can, and does, happen.", "poster_path": "/nWPUslg7us6CUjm5XtsnsuuGmNr.jpg", "release_date": "1936-04-09", "title": "Mr. Deeds Goes to Town", "video": false, "vote_average": 7.6, "vote_count": 147, "popularity": 10.393}, {"id": 512, "video": false, "vote_count": 895, "vote_average": 6.6, "title": "Scoop", "release_date": "2006-07-27", "original_language": "en", "original_title": "Scoop", "genre_ids": [35, 9648], "backdrop_path": "/uAq7xPyAFQVjYsZ3Q0CvPc7qzYy.jpg", "adult": false, "overview": "An American journalism student in London scoops a big story, and begins an affair with an aristocrat as the incident unfurls.", "poster_path": "/mRRSxsCnJriz3geocV4i6Lm0nox.jpg", "popularity": 15.139}, {"id": 475132, "video": false, "vote_count": 207, "vote_average": 6.9, "title": "A Private War", "release_date": "2018-11-16", "original_language": "en", "original_title": "A Private War", "genre_ids": [18, 10752], "backdrop_path": "/a34Q2xknjRKhcG9ZMDa7FjkP05H.jpg", "adult": false, "overview": "One of the most celebrated war correspondents of our time, Marie Colvin is an utterly fearless and rebellious spirit, driven to the frontlines of conflicts across the globe to give voice to the voiceless.", "poster_path": "/pAh6uDR9bBznybiJCVYZNJmjg63.jpg", "popularity": 13.889}, {"adult": false, "backdrop_path": "/nfm6JCKUaM6dT0mATmShLY6cpmc.jpg", "genre_ids": [18, 10752], "id": 600, "original_language": "en", "original_title": "Full Metal Jacket", "overview": "A pragmatic U.S. Marine observes the dehumanizing effects the U.S.-Vietnam War has on his fellow recruits from their brutal boot camp training to the bloody street fighting in Hue.", "poster_path": "/29veIwD38rVL2qY74emXQw4y25H.jpg", "release_date": "1987-06-26", "title": "Full Metal Jacket", "video": false, "vote_average": 8.1, "vote_count": 5897, "popularity": 25.207}, {"adult": false, "backdrop_path": "/fAA0S3rM3o5Sp8TIdS0MvWOGsCQ.jpg", "genre_ids": [18, 10749], "id": 843, "original_language": "cn", "original_title": "\u82b1\u6a23\u5e74\u83ef", "overview": "Taking place in Hong Kong of 1962, a melancholy story about the love between a woman and a man who live in the same building and one day find out that their husband and wife had an affair with each other.", "poster_path": "/unOW3SxFxBdd7LMWjmRONdHWKPb.jpg", "release_date": "2000-05-22", "title": "In the Mood for Love", "video": false, "vote_average": 8.1, "vote_count": 963, "popularity": 21.272}, {"adult": false, "backdrop_path": "/oh9MdyIu333sC1biBeEgPqgSpVW.jpg", "genre_ids": [18, 10752], "id": 28, "original_language": "en", "original_title": "Apocalypse Now", "overview": "At the height of the Vietnam war, Captain Benjamin Willard is sent on a dangerous mission that, officially, \"does not exist, nor will it ever exist.\" His goal is to locate - and eliminate - a mysterious Green Beret Colonel named Walter Kurtz, who has been leading his personal army on illegal guerrilla missions into enemy territory.", "poster_path": "/jcvJ2xcVWU9Wh0hZAxcs103s8nN.jpg", "release_date": "1979-08-15", "title": "Apocalypse Now", "video": false, "vote_average": 8.3, "vote_count": 4471, "popularity": 30.344}], "total_pages": 39, "total_results": 765}, "recommendations": {"page": 1, "results": [], "total_pages": 1, "total_results": 0}, "credits": {"cast": [{"cast_id": 2, "character": "Maizie Dickson", "credit_id": "52fe4a91c3a368484e15adad", "gender": 1, "id": 13568, "name": "Joan Blondell", "order": 0, "profile_path": "/s2jdLZ53csCtTtDebKYno7xECPG.jpg"}, {"cast_id": 3, "character": "Martin Collins", "credit_id": "52fe4a91c3a368484e15adb1", "gender": 2, "id": 30215, "name": "Grant Mitchell", "order": 1, "profile_path": "/cDZpWgH0qOF4L5nmZJzGIHE5xo3.jpg"}, {"cast_id": 4, "character": "Mrs. Marcia Ferguson", "credit_id": "52fe4a91c3a368484e15adb5", "gender": 1, "id": 95020, "name": "Vivienne Osborne", "order": 2, "profile_path": "/8loqw1O1BQRg8RDjHUGkk5GZ0qE.jpg"}, {"cast_id": 5, "character": "Antoinette 'Toni' Martin", "credit_id": "52fe4a91c3a368484e15adb9", "gender": 1, "id": 588934, "name": "Adrienne Dore", "order": 3, "profile_path": "/obDmceSD4noiVRmaSzzzYkpbafK.jpg"}, {"cast_id": 6, "character": "Bruce Foster", "credit_id": "52fe4a91c3a368484e15adbd", "gender": 2, "id": 89687, "name": "Tom Brown", "order": 4, "profile_path": "/gHteMYdsKoKLKGgY9cA65WjPEjg.jpg"}, {"cast_id": 7, "character": "Bob Parks", "credit_id": "52fe4a91c3a368484e15adc1", "gender": 2, "id": 96056, "name": "Kenneth Thomson", "order": 5, "profile_path": "/p457u5djPGAGBbP9i0aSt568rEm.jpg"}, {"cast_id": 8, "character": "Perrin", "credit_id": "55212af0c3a3684dd4003b5c", "gender": 2, "id": 95771, "name": "Leslie Fenton", "order": 6, "profile_path": "/4clFyyXcpcroHAGDVIFrNdGZXoM.jpg"}, {"cast_id": 9, "character": "Mr. Brooks", "credit_id": "55212afbc3a36812ee002bc2", "gender": 2, "id": 128401, "name": "Oscar Apfel", "order": 7, "profile_path": "/ztHtc1bfV7whJ21lsvzPV9lT1zI.jpg"}, {"cast_id": 10, "character": "Cedric Works", "credit_id": "55212b04c3a368333a0012bb", "gender": 2, "id": 99464, "name": "Walter Miller", "order": 8, "profile_path": "/feACd92TYNuv37DgCATd107ICrq.jpg"}, {"cast_id": 11, "character": "George M. Ferguson", "credit_id": "55212b0d92514170960011ba", "gender": 2, "id": 13358, "name": "Purnell Pratt", "order": 9, "profile_path": "/alHik9wlgSTUcugUmit6mMxj7Vm.jpg"}, {"cast_id": 12, "character": "Sheriff", "credit_id": "55212b169251415c84003556", "gender": 2, "id": 103620, "name": "Willard Robertson", "order": 10, "profile_path": "/obv0gmpXV3hGpnUKQVInkBPKBcA.jpg"}, {"cast_id": 13, "character": "Jigger Bolton", "credit_id": "55212b1e92514170960011bc", "gender": 2, "id": 99330, "name": "George Meeker", "order": 11, "profile_path": "/66Z6noR6WSvytzwaxt65X5XW2E1.jpg"}, {"cast_id": 14, "character": "Rusty Callahan", "credit_id": "55212b2792514171cb001078", "gender": 2, "id": 99350, "name": "Russell Hopton", "order": 12, "profile_path": "/nbKgd9UMzAJBmyiH9eiJoY3A4QC.jpg"}, {"cast_id": 44, "character": "Newsboy", "credit_id": "561c9dbdc3a3682264003111", "gender": 2, "id": 31774, "name": "George McFarland", "order": 14, "profile_path": "/iJlQFdruBaApy9ktjfIMux8Zaft.jpg"}, {"cast_id": 16, "character": "Judd Brooks", "credit_id": "55212b3ac3a3684dc1003496", "gender": 2, "id": 13994, "name": "Leon Ames", "order": 15, "profile_path": "/gzYY95O5AVKXxXlfV3XfHtBzQxA.jpg"}, {"cast_id": 17, "character": "Claude Wright", "credit_id": "55212b47c3a36812ee002bc6", "gender": 2, "id": 30686, "name": "J. Carrol Naish", "order": 16, "profile_path": "/iHUIlLxzgkZSMvapdxLhBZe82B.jpg"}, {"cast_id": 18, "character": "Dad Sipes", "credit_id": "55212b50c3a3684dda003905", "gender": 2, "id": 128354, "name": "William Burress", "order": 17, "profile_path": null}, {"cast_id": 19, "character": "County Attorney", "credit_id": "55212b599251415c87003637", "gender": 2, "id": 89102, "name": "Clarence Wilson", "order": 18, "profile_path": "/8FmVuzXQGZ94XmwFUaxf3oDYkY0.jpg"}, {"cast_id": 20, "character": "Banker Craig", "credit_id": "55212b699251415c82003647", "gender": 2, "id": 8519, "name": "Russell Simpson", "order": 19, "profile_path": "/jClf18O9yjuPGdTo7eMYukiwMB7.jpg"}, {"cast_id": 21, "character": "Mrs. Martin - Toni's Mother", "credit_id": "55212b769251415c82003649", "gender": 1, "id": 1080623, "name": "Kathrin Clare Ward", "order": 20, "profile_path": "/xVC22HHbMynojd42BjK2WnbfObl.jpg"}, {"cast_id": 24, "character": "Depot Loafer  (uncredited)", "credit_id": "55212b95c3a36828d1001762", "gender": 2, "id": 33178, "name": "George Chandler", "order": 21, "profile_path": "/fXj6FdgWPp8om9O2HD2Uv4yhcBi.jpg"}, {"cast_id": 25, "character": "Fire Chief  (uncredited)", "credit_id": "55212ba09251415c7f0035f4", "gender": 2, "id": 34280, "name": "Spencer Charters", "order": 22, "profile_path": "/67wOC0rjJG6tpXVQLZsOj6s7clP.jpg"}, {"cast_id": 27, "character": "O'Toole  (uncredited)", "credit_id": "55212bbac3a3684dc9002f0a", "gender": 2, "id": 153638, "name": "Dick Curtis", "order": 23, "profile_path": "/7zQalXsJ7qHd3C4DdNQajQhQ4qi.jpg"}, {"cast_id": 28, "character": "Photographer  (uncredited)", "credit_id": "55212bc5c3a3684dd4003b70", "gender": 2, "id": 14425, "name": "Mike Donlin", "order": 24, "profile_path": "/1pTOSv269jklmgvP7wXHSwVmsk5.jpg"}, {"cast_id": 29, "character": "Reporter Lane  (uncredited)", "credit_id": "55212bd29251415c7f0035fa", "gender": 2, "id": 97037, "name": "James Ellison", "order": 25, "profile_path": "/lLfksTEngV8ZzOWRpjBNC41qyZZ.jpg"}, {"cast_id": 33, "character": "Reporter  (uncredited)", "credit_id": "55212c009251415c7f003600", "gender": 2, "id": 13823, "name": "George Irving", "order": 26, "profile_path": "/js2u7KGDeYSKf4eOrVQJxDPfaUP.jpg"}, {"cast_id": 34, "character": "Gas Station Man (uncredited)", "credit_id": "55212c0bc3a3684dd4003b76", "gender": 2, "id": 89736, "name": "Si Jenks", "order": 27, "profile_path": "/se1vmf9YDvkI2u6sQB2TLH07RtA.jpg"}, {"cast_id": 35, "character": "Reporter  (uncredited)", "credit_id": "55212c169251415c7c00374c", "gender": 2, "id": 120807, "name": "Allan Lane", "order": 28, "profile_path": "/vdQaLR580mMfzUy6lGLQO4obVPL.jpg"}, {"cast_id": 37, "character": "Brooks' Landlady  (uncredited)", "credit_id": "55212c319251415c8700364b", "gender": 1, "id": 29974, "name": "Claire McDowell", "order": 29, "profile_path": "/rCujOYWgzRTZls7bRvrEFdxccrW.jpg"}, {"cast_id": 39, "character": "Mrs. Judd Brooks  (uncredited)", "credit_id": "55212c44c3a368333a0012d1", "gender": 1, "id": 959369, "name": "Miriam Seegar", "order": 30, "profile_path": "/8GYgcFWLFUfCGvLEF2R3FhvXlAg.jpg"}], "crew": [{"credit_id": "52fe4a91c3a368484e15ada9", "department": "Directing", "gender": 2, "id": 21305, "job": "Director", "name": "Lloyd Bacon", "profile_path": "/es0nlneJpiNpxZuAQSHfKEvOnXT.jpg"}, {"credit_id": "55dd5fe6c3a36817610010b8", "department": "Writing", "gender": 2, "id": 128781, "job": "Story", "name": "Courtney Terrett", "profile_path": null}]}}