{"adult": false, "backdrop_path": "/ye1h40CZ85iF3ugFExjeCzYz32B.jpg", "belongs_to_collection": null, "budget": 0, "genres": [{"id": 18, "name": "Drama"}], "homepage": null, "id": 123354, "imdb_id": "tt0049787", "original_language": "en", "original_title": "The Spanish Gardener", "overview": "British diplomat Harrington Brande takes up his new lowly post in Spain accompanied by his son Nicholas.  That his wife had left him seems to have affected his career. Nicholas sees it all as something of an adventure and soon becomes friends with the new gardener, Jose.  As Nicholas begins to spend more time with Jose, his father takes offense and is concerned at the boy's loss of affection for him.  It leads him to bar Nicholas from even speaking to the gardener.  And soon tensions mount.", "popularity": 3.557, "poster_path": "/cvjPhEQEi5VqQ4wN6zPV7myQI5N.jpg", "production_companies": [{"id": 364, "logo_path": null, "name": "The Rank Organisation", "origin_country": ""}], "production_countries": [{"iso_3166_1": "GB", "name": "United Kingdom"}], "release_date": "1956-12-25", "revenue": 0, "runtime": 97, "spoken_languages": [{"iso_639_1": "en", "name": "English"}], "status": "Released", "tagline": "", "title": "The Spanish Gardener", "video": false, "vote_average": 6.4, "vote_count": 7, "keywords": {"keywords": [{"id": 4529, "name": "diplomat"}]}, "similar": {"page": 1, "results": [{"id": 1985, "video": false, "vote_count": 788, "vote_average": 7.1, "title": "The Constant Gardener", "release_date": "2005-08-31", "original_language": "en", "original_title": "The Constant Gardener", "genre_ids": [18, 9648, 53], "backdrop_path": "/cQRFjaXsEfCTtd2h18xZv49REqP.jpg", "adult": false, "overview": "Justin Quayle is a low-level British diplomat who has always gone about his work very quietly, not causing any problems. But after his radical wife Tessa is killed he becomes determined to find out why, thrusting himself into the middle of a very dangerous conspiracy.", "poster_path": "/r7QOXMcuIqZUeIVXVc4BCZrd9ni.jpg", "popularity": 13.382}, {"id": 259954, "video": false, "vote_count": 205, "vote_average": 7.2, "title": "5 to 7", "release_date": "2014-04-19", "original_language": "en", "original_title": "5 to 7", "genre_ids": [35, 10749], "backdrop_path": "/omHzmZb6wfORZBzBhwU225tExQh.jpg", "adult": false, "overview": "A young writer begins an affair with an older woman from France whose open marriage to a diplomat dictates that they can meet only between the hours of 5 p.m. to 7 p.m.", "poster_path": "/vnR9n305GAqlA9VhE4VYIDCHVcZ.jpg", "popularity": 12.137}, {"adult": false, "backdrop_path": "/yMx4fWETurrtf7g3iDm9Cn8FoIW.jpg", "genre_ids": [9648, 53, 10752], "id": 25670, "original_language": "en", "original_title": "Foreign Correspondent", "overview": "The European war was only beginning to erupt across national borders. Johnny Jones, an American crime reporter dispatched by his New York publisher to put a fresh spin on the drowsy dispatches emanating from overseas, has a nose for a good story\u2014which promptly leads him to the crime of fascism and Nazi Germany's designs on European conquest. In attempting to learn more about a seemingly noble peace effort, Jones walks into the middle of an assassination, uncovers a spy ring and\u2014not entirely coincidentally\u2014falls in love.", "poster_path": "/voiObyqh8LDAOdnBCKD1ZuoPVbL.jpg", "release_date": "1940-08-16", "title": "Foreign Correspondent", "video": false, "vote_average": 7.2, "vote_count": 150, "popularity": 13.578}, {"adult": false, "backdrop_path": "/wiOdyUHFYAkOK4YlpFPjYWNs2gl.jpg", "genre_ids": [28, 18, 10749], "id": 69007, "original_language": "en", "original_title": "The Honorary Consul", "overview": "Set in a small politically unstable Latin American country, the story follows the half English and half Latino Dr. Eduardo Plarr, who left his home to find a better life. Along the way he meets an array of people, including British Consul Charley Fortnum, a representative in Latin America who is trying to keep Revolution from occurring. He is also a remorseful alcoholic. Another person the doctor meets is Clara, whom he immediately falls in love with, but there is a problem: Clara is Charley's wife.", "poster_path": "/5TP5aGbf96LHV0CqG0IuStfj3Fu.jpg", "release_date": "1983-09-30", "title": "The Honorary Consul", "video": false, "vote_average": 5.7, "vote_count": 23, "popularity": 7.043}, {"id": 7010, "video": false, "vote_count": 120, "vote_average": 7.0, "title": "The Wild Geese", "release_date": "1978-07-05", "original_language": "en", "original_title": "The Wild Geese", "genre_ids": [28, 10752], "backdrop_path": "/oCl88NikwHil0k9e2wG1X8KRZvx.jpg", "adult": false, "overview": "A British multinational company seeks to overthrow a vicious dictator in central Africa. It hires a band of (largely aged) mercenaries in London and sends them in to save the virtuous but imprisoned opposition leader who is also critically ill and due for execution. Just when the team has performed a perfect rescue, the multinational does a deal with the vicious dictator leaving the mercenary band to escape under their own steam and exact revenge.", "poster_path": "/jzZIlnhjNq2ycPXMSgi6GEzXju6.jpg", "popularity": 10.845}, {"adult": false, "backdrop_path": "/2E6npV0LK4qznz8ylI1Nlc5AdBv.jpg", "genre_ids": [28, 80, 18, 9648, 53], "id": 44135, "original_language": "en", "original_title": "The Diplomat", "overview": "A British diplomat is arrested on charges of working with Russian mafia. After death threats to his wife, they are taken into protective custody. Then the MI6 shows up with a new piece of the puzzle.", "poster_path": "/q3bkhe5Y2Saf9vwjUY7tJKf7qyE.jpg", "release_date": "2009-01-11", "title": "The Diplomat", "video": false, "vote_average": 4.9, "vote_count": 6, "popularity": 4.441}, {"adult": false, "backdrop_path": "/5GxeioqYZd6y3Mex0cQzw8tiQk0.jpg", "genre_ids": [18, 36], "id": 432560, "original_language": "cs", "original_title": "Masaryk", "overview": "It is 1939. Flamboyant Czech diplomat Jan Masaryk has fled to America to escape his recent past. Germany has invaded Czechoslovakia and Masaryk is now a man with no nation. In America he tries to forget the personal and political betrayal he and his country have suffered but these events shadow his every step. As the Czechoslovak ambassador in London, Masaryk failed to win the support of the British and could not avert the ruination of his country. With the help of Dr. Stein, an emigre German psychiatrist, and the beautiful writer Marcia Davenport, Masaryk tries to overcome his demons and re-live the dramatic events leading to the outbreak of the second world war.", "poster_path": "/aR6RbvJYmP3Go8gZDEh9vHT9muO.jpg", "release_date": "2017-03-09", "title": "Masaryk", "video": false, "vote_average": 5.7, "vote_count": 10, "popularity": 2.052}, {"adult": false, "backdrop_path": "/2rsgmKOjRfSseCU1dMKc4lsKBKB.jpg", "genre_ids": [80, 18, 9648], "id": 42825, "original_language": "en", "original_title": "Crossroads", "overview": "A French diplomat who's recovered from amnesia is blackmailed over crimes he can't remember.", "poster_path": "/fQHFiNu9v9AvG5aglJZ5ihrLUiF.jpg", "release_date": "1942-07-23", "title": "Crossroads", "video": false, "vote_average": 6.1, "vote_count": 11, "popularity": 3.314}, {"adult": false, "backdrop_path": "/ksvR4SHPXxv9yjtT62WeCmC78A6.jpg", "genre_ids": [18], "id": 148178, "original_language": "pt", "original_title": "A Novela das 8", "overview": "In Brazil, in 1978, under the dictatorship, the country lives the euphoria of disco fever and the fantasy life of Dancin' Days, a prime time soap. After a fatal incident, Amanda, a high-class prostitute addicted to TV, and her maid Dora, are forced to flee S\u00e3o Paulo to Rio. While Amanda dreams of visiting the Dancin' Days disco, Dora prepares to confront her secret past. Their destinies will eventually intersect with those of Jo\u00e3o Paulo, a diplomat who feels like a foreigner in his own country, the revolutionary Vicente and his brother Pedro, and the teenager Caio, raised by his grandparents and relying on the support of his friend M\u00f4nica as he struggles to be accepted as a gay man. Both youngsters are crazy about disco fever and fascinated by the soap Dancin' Days.", "poster_path": "/lknx48iyl36HoVshBJREFkQWxUV.jpg", "release_date": "2012-03-30", "title": "Prime Time Soap", "video": false, "vote_average": 6.0, "vote_count": 1, "popularity": 1.4}, {"adult": false, "backdrop_path": "/jHNl3l1EUhnC8d09BcEQy5LE9vZ.jpg", "genre_ids": [28, 18, 10749, 80], "id": 113076, "original_language": "en", "original_title": "Gypsy Eyes", "overview": "A security officer tracks down the Gypsy girl who can identify an American diplomat's killer.", "poster_path": "/5yZiTXsKkeUtzdcZkiuPsOPA91S.jpg", "release_date": "1992-01-01", "title": "Gypsy Eyes", "video": false, "vote_average": 4.3, "vote_count": 2, "popularity": 4.758}, {"adult": false, "backdrop_path": "/stGT1grXgGaWhQ6nIyW4hezwt7v.jpg", "genre_ids": [18], "id": 183931, "original_language": "ja", "original_title": "\u30df\u30e9\u30af\u30eb\u30d0\u30ca\u30ca", "overview": "Sachiko Mishima a young Japanese woman get sent to Haiti as a dispatch member for the Ministry for Foreign Affairs. She thinks she is going to the holiday resort of Tahiti by mistaking Tahiti for Haiti). While in Haiti with the help of a Japanese craftsman she learns paper can be made from bananas. She embarks on a mission to create paper for the Haiti residents to help them.", "poster_path": "/qgthWqOlfqleX5M5uNcIaT2EXf0.jpg", "release_date": "2005-10-01", "title": "Miracle Banana", "video": false, "vote_average": 0.0, "vote_count": 0, "popularity": 0.6}, {"adult": false, "backdrop_path": "/bGcTesKJeTMw0hfzeTopGP7qLNv.jpg", "genre_ids": [18], "id": 178463, "original_language": "it", "original_title": "La principessa nuda", "overview": "Ajita Wilson plays an African diplomat who comes to Milan to head a trade delegation. At the delegation she feels haunted by her past in which she appeared in a pornographic magazine. In a series of psychedelic scenes, we learn the sordid secrets of her racy past.", "poster_path": "/eJ0z1BmSU4T9leopr4TWtCdSZWy.jpg", "release_date": "1976-02-05", "title": "The Nude Princess", "video": false, "vote_average": 0.0, "vote_count": 0, "popularity": 1.96}, {"adult": false, "backdrop_path": "/6GrfASAIjObXnZ5YJVQxdhyIx1o.jpg", "genre_ids": [18, 10752], "id": 242907, "original_language": "en", "original_title": "The Searching Wind", "overview": "With a screenplay adapted by Lillian Hellman from her own play, director William Dieterle's 1946 drama stars Robert Young as a U.S. ambassador in Europe in the years before WW2.", "poster_path": "/v2g1NmnQrnirqmD4YPFNGGu9bsJ.jpg", "release_date": "1946-08-09", "title": "The Searching Wind", "video": false, "vote_average": 0.0, "vote_count": 0, "popularity": 1.383}, {"adult": false, "backdrop_path": "/vzgMWKn1n5ON8ZYRrQ2vG30KB6Y.jpg", "genre_ids": [18, 10749], "id": 64100, "original_language": "fr", "original_title": "H\u00e9cate", "overview": "Set amid the European community in an unspecified North African country, a colony on the verge of nationalism just before the war. And colonized is what happens to a French diplomat, Julien Rochelle, when he meets the mysterious beauty Clothilde de Watteville. Schmid 's favorite axiom, that love is projection, never had such a thorough airing. Is Clothilde really the wife of a French official now holed up in Siberia? Or is she Hecate, goddess of black magic and devourer of the Arab boys she meets far from the European quarter? Only our projections know for sure; for the rest, she is a \"woman looking out into the night.\" Drawn from a novel by Paul Morand, who based the main character on his wife Helene, Schmid's film achieves an atmosphere of magic in which psychological credibility is not so much absent as irrelevant-a film that distances itself from the drama it invokes, perhaps as the elusive Clothilde turns her back on the madness she provokes.", "poster_path": "/v3Z7wandn4SOaXXgjomMPxGK5YO.jpg", "release_date": "1982-11-21", "title": "Hecate", "video": false, "vote_average": 6.0, "vote_count": 2, "popularity": 2.411}, {"adult": false, "backdrop_path": null, "genre_ids": [18], "id": 4888, "original_language": "de", "original_title": "Der Mann von der Botschaft", "overview": "", "poster_path": "/gNhDuewOcCQgIx8ggs4tmUI8GfK.jpg", "release_date": "2007-11-29", "title": "Der Mann von der Botschaft", "video": false, "vote_average": 5.0, "vote_count": 1, "popularity": 0.969}, {"id": 49844, "video": false, "vote_count": 14, "vote_average": 7.0, "title": "The Notorious Landlady", "release_date": "1962-04-01", "original_language": "en", "original_title": "The Notorious Landlady", "genre_ids": [35, 9648, 53, 10749], "backdrop_path": "/5Jh8AYCaWCXoRMHnNc6thvtNMGl.jpg", "adult": false, "overview": "An American junior diplomat in London rents a house from, and falls in love with, a woman suspected of murder.", "poster_path": "/pcqAkMO5oo4UetpLjM3bXijYyL1.jpg", "popularity": 5.383}, {"adult": false, "backdrop_path": "/fKyZvg6xR4aOH7BiAN8RTRTqREw.jpg", "genre_ids": [28, 53], "id": 46270, "original_language": "en", "original_title": "Blue Ice", "overview": "An ex-British spy (Michael Caine) helps a U.S. diplomat's wife (Sean Young) and blows the lid off a deadly government cover-up.", "poster_path": "/4RquEo7A1bxptqf4URuvTyOZfZs.jpg", "release_date": "1992-10-09", "title": "Blue Ice", "video": false, "vote_average": 5.5, "vote_count": 16, "popularity": 5.511}, {"adult": false, "backdrop_path": "/r4Dla87k7q2lPgJrd25y3qbrj2h.jpg", "genre_ids": [28, 12, 80], "id": 48361, "original_language": "ja", "original_title": "\u30b4\u30eb\u30b413\uff1a\u4e5d\u7adc\u306e\u9996", "overview": "Duke Togo (codename: Golgo 13) is a ruthless assassin who's accepted a tricky assignment from an American drug syndicate. His mission is to \"rub out\" Hong Kong's underworld kingpin. His main obstacle is the relentless Detective 'Smitty' Smith, determined to stop Togo no matter the cost. The result is an explosive adventure through the seamy, violent streets of Hong Kong.", "poster_path": "/tBFR0T4uTfZTNV5kzCYggPxkubf.jpg", "release_date": "1977-09-15", "title": "Golgo 13: Assignment Kowloon", "video": false, "vote_average": 5.2, "vote_count": 12, "popularity": 3.91}, {"adult": false, "backdrop_path": null, "genre_ids": [18], "id": 649893, "original_language": "sv", "original_title": "G\u00e5 p\u00e5 vattnet om du kan", "overview": "Literature graduate Orlando begins a love affair with the Foreign Ministry official Anders. She follows him to Argentina. There she learns that he is already married.", "poster_path": "/koVfYHGQMjC7T9nF35hDivYHOdp.jpg", "release_date": "1979-09-17", "title": "Walk On Water If You Can", "video": false, "vote_average": 0.0, "vote_count": 0, "popularity": 0.6}, {"adult": false, "backdrop_path": null, "genre_ids": [99], "id": 522853, "original_language": "fi", "original_title": "G. J. Ramstedtin maailma", "overview": "At the turn of the 19th and 20th century Finnish philologist G. J. Ramstedt travelled around Mongolia and Central-Asia. In this documentary Ramstedt\u2019s memoirs are heard in the modern day setting, where tradition is replaced with hunger for money, and deserts give way to cities.", "poster_path": "/tMQWbejzUUgHIIivzLQY5zeOrGM.jpg", "release_date": "2018-01-30", "title": "Eastern Memories", "video": false, "vote_average": 10.0, "vote_count": 1, "popularity": 1.201}], "total_pages": 2, "total_results": 22}, "recommendations": {"page": 1, "results": [{"adult": false, "backdrop_path": "/v9vwKcDF2xvNvrgsKhTOrSi64eB.jpg", "genre_ids": [18, 10752], "id": 73898, "original_language": "en", "original_title": "Conspiracy of Hearts", "overview": "In wartime Italy nuns in a convent regularly smuggle Jewish children out of a nearby internment camp. The Italian army officer in charge suspects what may be going on but deliberately turns a blind eye. When the Germans take over the camp security the nuns' activities become far more dangerous.", "poster_path": "/7oaHK6Hcqp66fJkJqOSpGSZ0qmD.jpg", "release_date": "1960-04-07", "title": "Conspiracy of Hearts", "video": false, "vote_average": 7.0, "vote_count": 8, "popularity": 3.136}, {"id": 42175, "video": false, "vote_count": 7, "vote_average": 5.6, "title": "The Europeans", "release_date": "1979-05-01", "original_language": "en", "original_title": "The Europeans", "genre_ids": [18, 10749], "backdrop_path": null, "adult": false, "overview": "Based on Henry James' novel with the same title. It's the fall of 1850, a few miles outside Boston. The household of the dour Mr. Wentworth receives two unannounced visitors from Europe, Eugenia and Felix, the daughter and son of his half sister. Gertrude, one of Wentworth's two daughters, is instantly infatuated with her cousins, thinking them sophisticated and worldly. She turns her back on the local Unitarian minister, Mr. Brand, who has been calling on her, to delight in the pleasure and amusement Felix offers. Another wealthy neighbor, Mr. Acton, is attracted to Eugenia, who is going through a divorce with a European aristocrat. Are the Americans being used by the penniless Europeans? Or is there real affection?", "poster_path": "/mzs0V826MsrFBbzPpj6NQn8GsBZ.jpg", "popularity": 2.696}, {"adult": false, "backdrop_path": "/aqeoSmu1LqPUMjxXDXZMJ9ayGI4.jpg", "genre_ids": [99], "id": 37142, "original_language": "en", "original_title": "Garbage Dreams", "overview": "GARBAGE DREAMS follows three teenage boys born into the trash trade and growing up in the world's largest garbage village. It is the home to 60,000 Zaballeen, Egypt's 'garbage people.' When their community is suddenly faced with the globalization of their trade, each boy is forced to make choices that will impact his life and the future of his community.", "poster_path": "/mnyYZjAnRxNkVlmXCdXiMIZHqHq.jpg", "release_date": "2009-07-31", "title": "Garbage Dreams", "video": false, "vote_average": 6.7, "vote_count": 3, "popularity": 1.637}, {"adult": false, "backdrop_path": "/etMWwKoDLXTqtbYeXZs1q9e31Jd.jpg", "genre_ids": [18, 53], "id": 132239, "original_language": "en", "original_title": "The Confession", "overview": "The Confession is a 2010 British melodramatic short film directed by Tanel Toom.  Sam can't think of any sins to tell the priest at his first confession. He worries that he won't be a real Catholic if the priest doesn't absolve him of some misdeed. Jacob, Sam's friend, devises a solution in the form of a prank, but the result is tragic.", "poster_path": "/3hRqtvDIuNM81TAT7dZ18F6NUGn.jpg", "release_date": "2010-06-12", "title": "The Confession", "video": false, "vote_average": 7.2, "vote_count": 11, "popularity": 1.85}, {"adult": false, "backdrop_path": "/tft0BNXmk3C4YQDdLX4ur7i3WW4.jpg", "genre_ids": [18], "id": 83963, "original_language": "en", "original_title": "La ville dont le prince est un enfant", "overview": "Two boys in their early teens in a strictly-run pre-WWII Catholic School form a firm friendship which is troubled by an abbot who is obsessed with the younger of the students.", "poster_path": "/40W3qTuFNP3r9CnLGdGRt0ckWvH.jpg", "release_date": "1997-03-07", "title": "The Fire That Burns", "video": false, "vote_average": 6.3, "vote_count": 8, "popularity": 1.596}], "total_pages": 1, "total_results": 5}, "credits": {"cast": [{"cast_id": 2, "character": "Jose", "credit_id": "52fe4a93c3a368484e15b4c1", "gender": 2, "id": 21605, "name": "Dirk Bogarde", "order": 0, "profile_path": "/rIoedSTXnSooIh4zZV3K4M48gBh.jpg"}, {"cast_id": 3, "character": "Nicholas", "credit_id": "52fe4a93c3a368484e15b4c5", "gender": 2, "id": 103240, "name": "Jon Whiteley", "order": 1, "profile_path": "/uDd48zSUxrEgg4HB5oBMhE5TDnr.jpg"}, {"cast_id": 4, "character": "Harrington Brande", "credit_id": "52fe4a93c3a368484e15b4c9", "gender": 2, "id": 39741, "name": "Michael Hordern", "order": 2, "profile_path": "/bdnxQrWH4hM7jo8fzGpcqSQeCSq.jpg"}, {"cast_id": 5, "character": "Garcia", "credit_id": "52fe4a93c3a368484e15b4cd", "gender": 2, "id": 4973, "name": "Cyril Cusack", "order": 3, "profile_path": "/5d6OeKNqpRSMhwXd1FHV9KeX4WS.jpg"}, {"cast_id": 6, "character": "Dr Harvey", "credit_id": "52fe4a93c3a368484e15b4d1", "gender": 2, "id": 10462, "name": "Geoffrey Keen", "order": 4, "profile_path": "/cfl3AjlaS4beYAbxbmXUWgH337Y.jpg"}, {"cast_id": 7, "character": "Maria", "credit_id": "52fe4a93c3a368484e15b4d5", "gender": 1, "id": 85346, "name": "Maureen Swanson", "order": 5, "profile_path": "/tmPu6gbEtGudZE0hPWZh38ZuIAX.jpg"}, {"cast_id": 8, "character": "Robert Burton", "credit_id": "52fe4a93c3a368484e15b4d9", "gender": 2, "id": 88663, "name": "Lyndon Brook", "order": 6, "profile_path": "/gSXN0fYj0lhIBHaGVsUJwTTB6vx.jpg"}, {"cast_id": 9, "character": "Carol Burton", "credit_id": "52fe4a93c3a368484e15b4dd", "gender": 0, "id": 129818, "name": "Josephine Griffin", "order": 7, "profile_path": null}, {"cast_id": 10, "character": "Leighton Bailey", "credit_id": "52fe4a93c3a368484e15b4e1", "gender": 2, "id": 9874, "name": "Bernard Lee", "order": 8, "profile_path": "/ieRxVkg4CbpRk2FpCitjQGRmdiu.jpg"}], "crew": [{"credit_id": "5b37919dc3a368530e03db73", "department": "Editing", "gender": 2, "id": 24667, "job": "Editor", "name": "Reginald Mills", "profile_path": null}, {"credit_id": "5b3791929251413c9b036a11", "department": "Camera", "gender": 2, "id": 30923, "job": "Director of Photography", "name": "Christopher Challis", "profile_path": null}, {"credit_id": "52fe4a93c3a368484e15b4bd", "department": "Directing", "gender": 2, "id": 40184, "job": "Director", "name": "Philip Leacock", "profile_path": null}, {"credit_id": "53ce87ff0e0a265dfa006570", "department": "Writing", "gender": 0, "id": 87748, "job": "Screenplay", "name": "Lesley Storm", "profile_path": null}, {"credit_id": "5b3791ca0e0a263ff8036785", "department": "Art", "gender": 2, "id": 95332, "job": "Production Design", "name": "Maurice Carter", "profile_path": null}, {"credit_id": "53ce876b0e0a265de7006737", "department": "Writing", "gender": 0, "id": 424215, "job": "Novel", "name": "A.J. Cronin", "profile_path": "/1g442FsvkKUA8Tx7hKkzf52guG8.jpg"}, {"credit_id": "5b3791810e0a26401403ca20", "department": "Production", "gender": 2, "id": 1120518, "job": "Producer", "name": "John Bryan", "profile_path": "/mZaC1kLoE1BCEN5DoUKX61tT13R.jpg"}, {"credit_id": "53ce87460e0a265dea006628", "department": "Writing", "gender": 2, "id": 1120518, "job": "Writer", "name": "John Bryan", "profile_path": "/mZaC1kLoE1BCEN5DoUKX61tT13R.jpg"}, {"credit_id": "5ca1e4fcc3a3687359857032", "department": "Camera", "gender": 2, "id": 1274060, "job": "Clapper Loader", "name": "Mike Fox", "profile_path": null}, {"credit_id": "5b3791adc3a368532203d220", "department": "Sound", "gender": 0, "id": 1296241, "job": "Original Music Composer", "name": "John Veale", "profile_path": null}, {"credit_id": "5be003710e0a26058d03a246", "department": "Directing", "gender": 0, "id": 2168628, "job": "Second Assistant Director", "name": "Charles Hammond", "profile_path": null}, {"credit_id": "5c5a52630e0a261dee63191c", "department": "Crew", "gender": 1, "id": 2228922, "job": "Unit Publicist", "name": "Jean Osborne", "profile_path": null}]}}