{"adult": false, "backdrop_path": "/b0hLOYKg5kwazkBczHnX0k6hjUH.jpg", "belongs_to_collection": null, "budget": 0, "genres": [{"id": 28, "name": "Action"}, {"id": 35, "name": "Comedy"}], "homepage": null, "id": 123806, "imdb_id": "tt0096302", "original_language": "en", "original_title": "Traxx", "overview": "Traxx has battled his way through El Salvador, the Middle East and Nicaragua, spitting lead with two-handed good grace. He decides to retire to a life of baking designer cookies. Running out of dough to buy more dough, he hires himself as a \"Town Tamer\" and begins cleaning up Hadleyville, Texas, telling the lowlife street scum, \"You got three choices. Be good, be gone, or be dead.\" Like all bacteria, the scum are resistant: crime boss Aldo Palucci (Robert Davi) brings in the dreaded Guzik brothers to rid the town of the town tamer, setting the stage for a showdown in the streets.", "popularity": 2.169, "poster_path": "/9oA1pLQM40c1h2eJ6jUUrfwSHNu.jpg", "production_companies": [], "production_countries": [], "release_date": "1988-09-17", "revenue": 0, "runtime": 84, "spoken_languages": [{"iso_639_1": "en", "name": "English"}], "status": "Released", "tagline": "This man has just blown away six terrorists, dynamited a drug smuggling compound, and baked a dozen cookies.", "title": "Traxx", "video": false, "vote_average": 6.2, "vote_count": 5, "keywords": {"keywords": [{"id": 3070, "name": "mercenary"}, {"id": 7002, "name": "vigilante"}, {"id": 33510, "name": "cookies"}, {"id": 218163, "name": "hollywood squares"}]}, "similar": {"page": 1, "results": [{"adult": false, "backdrop_path": "/cTPS3ib89O4HSOtZDa3YXvaas5F.jpg", "genre_ids": [53, 878, 28, 12], "id": 307663, "original_language": "en", "original_title": "Vice", "overview": "Julian Michaels has designed the ultimate resort: VICE, where anything goes and the customers can play out their wildest fantasies with artificial inhabitants who look, think and feel like humans. When an artificial becomes self-aware and escapes, she finds herself caught in the crossfire between Julian's mercenaries and a cop who is hell-bent on shutting down Vice, and stopping the violence once and for all.", "poster_path": "/gwiY5RJFYSjsoSwoeeo6AbGYjpb.jpg", "release_date": "2015-01-16", "title": "Vice", "video": false, "vote_average": 4.3, "vote_count": 344, "popularity": 16.357}, {"id": 1930, "video": false, "vote_count": 11260, "vote_average": 6.5, "title": "The Amazing Spider-Man", "release_date": "2012-06-27", "original_language": "en", "original_title": "The Amazing Spider-Man", "genre_ids": [28, 12, 14], "backdrop_path": "/ujAY1ad7yS2TfV0GDNGUZ7DK0mo.jpg", "adult": false, "overview": "Peter Parker is an outcast high schooler abandoned by his parents as a boy, leaving him to be raised by his Uncle Ben and Aunt May. Like most teenagers, Peter is trying to figure out who he is and how he got to be the person he is today. As Peter discovers a mysterious briefcase that belonged to his father, he begins a quest to understand his parents' disappearance \u2013 leading him directly to Oscorp and the lab of Dr. Curt Connors, his father's former partner. As Spider-Man is set on a collision course with Connors' alter ego, The Lizard, Peter will make life-altering choices to use his powers and shape his destiny to become a hero.", "poster_path": "/eA2D86Y6VPWuUzZyatiLBwpTilQ.jpg", "popularity": 36.173}, {"id": 10648, "video": false, "vote_count": 487, "vote_average": 7.2, "title": "Magnum Force", "release_date": "1973-12-23", "original_language": "en", "original_title": "Magnum Force", "genre_ids": [28, 80, 18, 9648, 53], "backdrop_path": "/bdQf4GBBb9NKHGGBibuW6oUifOi.jpg", "adult": false, "overview": "\"Dirty\" Harry Callahan is a San Francisco Police Inspector on the trail of a group of rogue cops who have taken justice into their own hands. When shady characters are murdered one after another in grisly fashion, only Dirty Harry can stop them.", "poster_path": "/3gqV4jpKNFqxUWug3BRD6yUzSL1.jpg", "popularity": 15.06}, {"id": 293660, "video": false, "vote_count": 21628, "vote_average": 7.6, "title": "Deadpool", "release_date": "2016-02-09", "original_language": "en", "original_title": "Deadpool", "genre_ids": [28, 12, 35], "backdrop_path": "/n1y094tVDFATSzkTnFxoGZ1qNsG.jpg", "adult": false, "overview": "Deadpool tells the origin story of former Special Forces operative turned mercenary Wade Wilson, who after being subjected to a rogue experiment that leaves him with accelerated healing powers, adopts the alter ego Deadpool. Armed with his new abilities and a dark, twisted sense of humor, Deadpool hunts down the man who nearly destroyed his life.", "poster_path": "/inVq3FRqcYIRl2la8iZikYYxFNR.jpg", "popularity": 45.688}, {"id": 8078, "video": false, "vote_count": 2644, "vote_average": 6.0, "title": "Alien Resurrection", "release_date": "1997-11-12", "original_language": "en", "original_title": "Alien Resurrection", "genre_ids": [28, 27, 878], "backdrop_path": "/1F8KilfgVwWTB1tIzfwoKUvPqpl.jpg", "adult": false, "overview": "Two hundred years after Lt. Ripley died, a group of scientists clone her, hoping to breed the ultimate weapon. But the new Ripley is full of surprises \u2026 as are the new aliens. Ripley must team with a band of smugglers to keep the creatures from reaching Earth.", "poster_path": "/2mavulZivbQa8XZlRA6h3hmesl7.jpg", "popularity": 22.33}, {"adult": false, "backdrop_path": "/uQqQvmptJLPTcWDrZXn22p7j7s3.jpg", "genre_ids": [28, 80, 18, 53], "id": 395990, "original_language": "en", "original_title": "Death Wish", "overview": "A mild-mannered father is transformed into a killing machine after his family is torn apart by a violent act.", "poster_path": "/g0eEEZAqMf98ULQnoiORuazjOpn.jpg", "release_date": "2018-03-02", "title": "Death Wish", "video": false, "vote_average": 5.9, "vote_count": 1402, "popularity": 18.853}, {"id": 156022, "video": false, "vote_count": 5468, "vote_average": 7.2, "title": "The Equalizer", "release_date": "2014-09-24", "original_language": "en", "original_title": "The Equalizer", "genre_ids": [28, 80, 53], "backdrop_path": "/vbl4ZVqelrrzJ16fdDOq9siWbpi.jpg", "adult": false, "overview": "McCall believes he has put his mysterious past behind him and dedicated himself to beginning a new, quiet life. But when he meets Teri, a young girl under the control of ultra-violent Russian gangsters, he can\u2019t stand idly by \u2013 he has to help her. Armed with hidden skills that allow him to serve vengeance against anyone who would brutalize the helpless, McCall comes out of his self-imposed retirement and finds his desire for justice reawakened. If someone has a problem, if the odds are stacked against them, if they have nowhere else to turn, McCall will help. He is The Equalizer.", "poster_path": "/2eQfjqlvPAxd9aLDs8DvsKLnfed.jpg", "popularity": 39.578}, {"id": 184315, "video": false, "vote_count": 2804, "vote_average": 5.7, "title": "Hercules", "release_date": "2014-07-23", "original_language": "en", "original_title": "Hercules", "genre_ids": [28, 12], "backdrop_path": "/pNPdcgHT1FpCmauzFWepyfDvDo9.jpg", "adult": false, "overview": "Fourteen hundred years ago, a tormented soul walked the earth that was neither man nor god. Hercules was the powerful son of the god king Zeus, for this he received nothing but suffering his entire life. After twelve arduous labors and the loss of his family, this dark, world-weary soul turned his back on the gods finding his only solace in bloody battle. Over the years he warmed to the company of six similar souls, their only bond being their love of fighting and presence of death. These men and woman never question where they go to fight or why or whom, just how much they will be paid. Now the King of Thrace has hired these mercenaries to train his men to become the greatest army of all time. It is time for this bunch of lost souls to finally have their eyes opened to how far they have fallen when they must train an army to become as ruthless and blood thirsty as their reputation has become.", "poster_path": "/wGAWxOnVjwXqvoiKX7Pf6XOWnPJ.jpg", "popularity": 31.25}, {"adult": false, "backdrop_path": "/2f8fkWSWOVcTlWforoVpsuaCiwI.jpg", "genre_ids": [53, 28], "id": 449985, "original_language": "en", "original_title": "Triple Threat", "overview": "A crime syndicate places a hit on a billionaire's daughter, making her the target of an elite assassin squad. A small band of down-and-out mercenaries protects her, fighting tooth and nail to stop the assassins from reaching their target.", "poster_path": "/cSpM3QxmoSLp4O1WAMQpUDcaB7R.jpg", "release_date": "2019-03-19", "title": "Triple Threat", "video": false, "vote_average": 5.5, "vote_count": 146, "popularity": 14.986}, {"id": 300671, "video": false, "vote_count": 1700, "vote_average": 7.1, "title": "13 Hours: The Secret Soldiers of Benghazi", "release_date": "2016-01-13", "original_language": "en", "original_title": "13 Hours: The Secret Soldiers of Benghazi", "genre_ids": [28, 18, 36, 53, 10752], "backdrop_path": "/hY8myWhjSOUeeiPskhOfwwgaCwc.jpg", "adult": false, "overview": "An American Ambassador is killed during an attack at a U.S. compound in Libya as a security team struggles to make sense out of the chaos.", "poster_path": "/4gpW4MkRI0BB17GHOJzXq0WamDP.jpg", "popularity": 20.173}, {"id": 98566, "video": false, "vote_count": 4596, "vote_average": 5.8, "title": "Teenage Mutant Ninja Turtles", "release_date": "2014-08-07", "original_language": "en", "original_title": "Teenage Mutant Ninja Turtles", "genre_ids": [28, 12, 35, 14, 878], "backdrop_path": "/OqCXGt5nl1cHPeotxCDvXLLe6p.jpg", "adult": false, "overview": "The city needs heroes. Darkness has settled over New York City as Shredder and his evil Foot Clan have an iron grip on everything from the police to the politicians. The future is grim until four unlikely outcast brothers rise from the sewers and discover their destiny as Teenage Mutant Ninja Turtles. The Turtles must work with fearless reporter April and her wise-cracking cameraman Vern Fenwick to save the city and unravel Shredder's diabolical plan.", "poster_path": "/oDL2ryJ0sV2bmjgshVgJb3qzvwp.jpg", "popularity": 33.698}, {"id": 458594, "video": false, "vote_count": 983, "vote_average": 6.5, "title": "Peppermint", "release_date": "2018-09-06", "original_language": "en", "original_title": "Peppermint", "genre_ids": [28, 53], "backdrop_path": "/9krZX6T4EEs5eFpXgSi8jZkN48O.jpg", "adult": false, "overview": "A grieving mother transforms herself into a vigilante following the murders of her husband and daughter, eluding the authorities to deliver her own personal brand of justice.", "poster_path": "/jrzxS0vcbzIIay1sdYm0rgI2QfJ.jpg", "popularity": 18.265}, {"adult": false, "backdrop_path": "/reQewz6KndV7Js2mfLfaaX8Rj0T.jpg", "genre_ids": [28, 14], "id": 364, "original_language": "en", "original_title": "Batman Returns", "overview": "Having defeated the Joker, Batman now faces the Penguin\u2014a warped and deformed individual who is intent on being accepted into Gotham society, with the help of Max Schreck, a crooked businessman, whom he coerces into helping him run for the position of Mayor of Gotham, while they both attempt to frame Batman in a different light. Batman must attempt to clear his name, all while also deciding just what must be done with the mysterious Catwoman slinking about.", "poster_path": "/jKBjeXM7iBBV9UkUcOXx3m7FSHY.jpg", "release_date": "1992-06-19", "title": "Batman Returns", "video": false, "vote_average": 6.8, "vote_count": 3615, "popularity": 26.315}, {"id": 155, "video": false, "vote_count": 20760, "vote_average": 8.4, "title": "The Dark Knight", "release_date": "2008-07-16", "original_language": "en", "original_title": "The Dark Knight", "genre_ids": [28, 80, 18, 53], "backdrop_path": "/hqkIcbrOHL86UncnHIsHVcVmzue.jpg", "adult": false, "overview": "Batman raises the stakes in his war on crime. With the help of Lt. Jim Gordon and District Attorney Harvey Dent, Batman sets out to dismantle the remaining criminal organizations that plague the streets. The partnership proves to be effective, but they soon find themselves prey to a reign of chaos unleashed by a rising criminal mastermind known to the terrified citizens of Gotham as the Joker.", "poster_path": "/pKKvCaL1TPTVtbI6EeliyND3api.jpg", "popularity": 43.746}, {"id": 13486, "video": false, "vote_count": 327, "vote_average": 4.3, "title": "The Scorpion King 2: Rise of a Warrior", "release_date": "2008-07-19", "original_language": "en", "original_title": "The Scorpion King 2: Rise of a Warrior", "genre_ids": [28, 12, 14, 878], "backdrop_path": "/3K2e6Rn4B00T6VV3tl8BaQYJ3q0.jpg", "adult": false, "overview": "The heroic tale of young Mathayus and his relentless quest for justice against an evil and powerful villain, King Sargon. Mathayus faces heart-stopping tribulations during his adventurous, odds-defying trajectory toward his ultimate destiny: becoming the formidable warrior king of an ancient desert empire.", "poster_path": "/quqsgaoLSct4DzsKb6I7S5wmapw.jpg", "popularity": 14.356}, {"id": 383498, "video": false, "vote_count": 10248, "vote_average": 7.5, "title": "Deadpool 2", "release_date": "2018-05-10", "original_language": "en", "original_title": "Deadpool 2", "genre_ids": [28, 12, 35], "backdrop_path": "/3P52oz9HPQWxcwHOwxtyrVV1LKi.jpg", "adult": false, "overview": "Wisecracking mercenary Deadpool battles the evil and powerful Cable and other bad guys to save a boy's life.", "poster_path": "/to0spRl1CMDvyUbOnbb4fTk3VAd.jpg", "popularity": 37.076}, {"id": 291805, "video": false, "vote_count": 7380, "vote_average": 6.8, "title": "Now You See Me 2", "release_date": "2016-06-02", "original_language": "en", "original_title": "Now You See Me 2", "genre_ids": [28, 35, 53], "backdrop_path": "/zrAO2OOa6s6dQMQ7zsUbDyIBrAP.jpg", "adult": false, "overview": "One year after outwitting the FBI and winning the public\u2019s adulation with their mind-bending spectacles, the Four Horsemen resurface only to find themselves face to face with a new enemy who enlists them to pull off their most dangerous heist yet.", "poster_path": "/hU0E130tsGdsYa4K9lc3Xrn5Wyt.jpg", "popularity": 18.558}, {"id": 209112, "video": false, "vote_count": 12706, "vote_average": 5.8, "title": "Batman v Superman: Dawn of Justice", "release_date": "2016-03-23", "original_language": "en", "original_title": "Batman v Superman: Dawn of Justice", "genre_ids": [28, 12, 14], "backdrop_path": "/vsjBeMPZtyB7yNsYY56XYxifaQZ.jpg", "adult": false, "overview": "Fearing the actions of a god-like Super Hero left unchecked, Gotham City\u2019s own formidable, forceful vigilante takes on Metropolis\u2019s most revered, modern-day savior, while the world wrestles with what sort of hero it really needs. And with Batman and Superman at war with one another, a new threat quickly arises, putting mankind in greater danger than it\u2019s ever known before.", "poster_path": "/cGOPbv9wA5gEejkUN892JrveARt.jpg", "popularity": 40.938}, {"adult": false, "backdrop_path": "/73QE77hOalLxUiheYJrk9XwHL4h.jpg", "genre_ids": [28, 53], "id": 7555, "original_language": "en", "original_title": "Rambo", "overview": "When governments fail to act on behalf of captive missionaries, ex-Green Beret John James Rambo sets aside his peaceful existence along the Salween River in a war-torn region of Thailand to take action.  Although he's still haunted by violent memories of his time as a U.S. soldier during the Vietnam War, Rambo can hardly turn his back on the aid workers who so desperately need his help.", "poster_path": "/ec1m7YgBYb4os06OSNW3QBaNYqZ.jpg", "release_date": "2008-01-24", "title": "Rambo", "video": false, "vote_average": 6.5, "vote_count": 2005, "popularity": 28.245}, {"id": 272, "video": false, "vote_count": 13437, "vote_average": 7.6, "title": "Batman Begins", "release_date": "2005-06-10", "original_language": "en", "original_title": "Batman Begins", "genre_ids": [28, 80, 18], "backdrop_path": "/9myrRcegWGGp24mpVfkD4zhUfhi.jpg", "adult": false, "overview": "Driven by tragedy, billionaire Bruce Wayne dedicates his life to uncovering and defeating the corruption that plagues his home, Gotham City.  Unable to work within the system, he instead creates a new identity, a symbol of fear for the criminal underworld - The Batman.", "poster_path": "/dr6x4GyyegBWtinPBzipY02J2lV.jpg", "popularity": 54.458}], "total_pages": 14, "total_results": 264}, "recommendations": {"page": 1, "results": [], "total_pages": 1, "total_results": 0}, "credits": {"cast": [{"cast_id": 3, "character": "Traxx", "credit_id": "52fe4a9dc3a368484e15db1f", "gender": 2, "id": 153943, "name": "Shadoe Stevens", "order": 0, "profile_path": "/kPjONP0NY5A6ko8mfB1kbt5fjMV.jpg"}, {"cast_id": 4, "character": "Mayor Alexandria Cray", "credit_id": "52fe4a9dc3a368484e15db23", "gender": 1, "id": 23648, "name": "Priscilla Barnes", "order": 1, "profile_path": "/llDEiCLnmEm68b658dv29Bh2wtR.jpg"}, {"cast_id": 7, "character": "Aldo Palucci", "credit_id": "53bf09c70e0a26158f004b3b", "gender": 2, "id": 2055, "name": "Robert Davi", "order": 3, "profile_path": "/eJoUfpgI5TDUqc4vgq3dPaqlMku.jpg"}, {"cast_id": 6, "character": "Deeter", "credit_id": "52fe4a9dc3a368484e15db2b", "gender": 2, "id": 13310, "name": "Willard E. Pugh", "order": 4, "profile_path": "/iihJATSCFfsXnjcKR6OMDm1bDSS.jpg"}], "crew": [{"credit_id": "52fe4a9dc3a368484e15db15", "department": "Directing", "gender": 2, "id": 1045579, "job": "Director", "name": "Jerome Gary", "profile_path": null}, {"credit_id": "52fe4a9dc3a368484e15db1b", "department": "Writing", "gender": 2, "id": 111900, "job": "Writer", "name": "Gary DeVore", "profile_path": null}]}}