{"adult": false, "backdrop_path": "/cupLqvYAUxxFMzr5JSFPBBSFQH7.jpg", "belongs_to_collection": null, "budget": 0, "genres": [{"id": 12, "name": "Adventure"}, {"id": 10752, "name": "War"}], "homepage": null, "id": 123868, "imdb_id": "tt0045682", "original_language": "en", "original_title": "Destination Gobi", "overview": "A group of US Navy weathermen taking measurements in the Gobi desert in World War II are forced to seek the help of Mongol nomads to regain their ship while under attack from the Japanese.", "popularity": 3.074, "poster_path": "/9z5WlthALoENjK1JzyqWPFtZE6E.jpg", "production_companies": [{"id": 25, "logo_path": "/qZCc1lty5FzX30aOCVRBLzaVmcp.png", "name": "20th Century Fox", "origin_country": "US"}], "production_countries": [{"iso_3166_1": "US", "name": "United States of America"}], "release_date": "1953-03-20", "revenue": 0, "runtime": 90, "spoken_languages": [{"iso_639_1": "en", "name": "English"}], "status": "Released", "tagline": "ADVENTURE AS FIERY AND FURIOUS AS THE FLAMING SANDS OF CHINA'S GOBI DESERT!", "title": "Destination Gobi", "video": false, "vote_average": 6.0, "vote_count": 9, "keywords": {"keywords": [{"id": 1956, "name": "world war ii"}, {"id": 4718, "name": "gobi desert"}, {"id": 181242, "name": "mongol"}]}, "similar": {"page": 1, "results": [{"adult": false, "backdrop_path": "/qtD2lFLG5T7L8flbKSEIoSqcslI.jpg", "genre_ids": [18, 10752], "id": 7862, "original_language": "de", "original_title": "Die F\u00e4lscher", "overview": "The story Jewish counterfeiter, Salomon Sorowitsch, coerced into assisting the Nazi operation of the Sachsenhausen concentration camp during World War II.", "poster_path": "/bRQddrgVemZtFdnrPy9AxTpkhpj.jpg", "release_date": "2007-02-09", "title": "The Counterfeiters", "video": false, "vote_average": 7.4, "vote_count": 261, "popularity": 8.902}, {"adult": false, "backdrop_path": "/pKawqrtCBMmxarft7o1LbEynys7.jpg", "genre_ids": [10752, 18, 28], "id": 228150, "original_language": "en", "original_title": "Fury", "overview": "In the last months of World War II, as the Allies make their final push in the European theatre, a battle-hardened U.S. Army sergeant named 'Wardaddy' commands a Sherman tank called 'Fury' and its five-man crew on a deadly mission behind enemy lines. Outnumbered and outgunned, Wardaddy and his men face overwhelming odds in their heroic attempts to strike at the heart of Nazi Germany.", "poster_path": "/fa4PxEPRKWRyjzYje1jM4m30qzd.jpg", "release_date": "2014-10-15", "title": "Fury", "video": false, "vote_average": 7.4, "vote_count": 7301, "popularity": 56.882}, {"id": 424, "video": false, "vote_count": 8985, "vote_average": 8.6, "title": "Schindler's List", "release_date": "1993-11-30", "original_language": "en", "original_title": "Schindler's List", "genre_ids": [18, 36, 10752], "backdrop_path": "/cTNYRUTXkBgPH3wP3kmPUB5U6dA.jpg", "adult": false, "overview": "The true story of how businessman Oskar Schindler saved over a thousand Jewish lives from the Nazis while they worked as slaves in his factory during World War II.", "poster_path": "/yPisjyLweCl1tbgwgtzBCNCBle.jpg", "popularity": 31.046}, {"id": 293982, "video": false, "vote_count": 119, "vote_average": 6.9, "title": "Warsaw 44", "release_date": "2014-07-30", "original_language": "pl", "original_title": "Miasto 44", "genre_ids": [18, 36, 10749, 10752], "backdrop_path": "/wv4kNz9aJPO200vndn5Paczh12K.jpg", "adult": false, "overview": "City of Warsaw, Poland, August 1, 1944. Citizens have experienced inhuman acts of terror and violence during five long years of Nazi occupation. As the Soviet Army relentlessly approaches, the youngest and bravest among them rise up as one and face tyranny fighting street by street, but the price to pay will be high and hard the way to freedom.", "poster_path": "/k9WOOkVur2Gwo93wuiKzJDm2mUK.jpg", "popularity": 7.952}, {"id": 11046, "video": false, "vote_count": 433, "vote_average": 7.6, "title": "Where Eagles Dare", "release_date": "1968-12-04", "original_language": "en", "original_title": "Where Eagles Dare", "genre_ids": [28, 12, 18, 36, 10752], "backdrop_path": "/aAFq5jVHV6RZpLcRXATskNBuEbM.jpg", "adult": false, "overview": "World War II is raging, and an American general has been captured and is being held hostage in the Schloss Adler, a Bavarian castle that's nearly impossible to breach. It's up to a group of skilled Allied soldiers to liberate the general before it's too late.", "poster_path": "/991u0tSWGTVXCYkgC6ftaGE4bkQ.jpg", "popularity": 16.468}, {"id": 369885, "video": false, "vote_count": 3048, "vote_average": 6.7, "title": "Allied", "release_date": "2016-11-17", "original_language": "en", "original_title": "Allied", "genre_ids": [28, 18, 53, 10749, 10752], "backdrop_path": "/tC0tVH5KQhCwMlddnyA3iWOSuBA.jpg", "adult": false, "overview": "In 1942, an intelligence officer in North Africa encounters a female French Resistance fighter on a deadly mission behind enemy lines. When they reunite in London, their relationship is tested by the pressures of war.", "poster_path": "/nzXzLFTnd0Zb3ExfhOxlQgizgSu.jpg", "popularity": 32.359}, {"id": 11422, "video": false, "vote_count": 132, "vote_average": 6.5, "title": "Midway", "release_date": "1976-06-18", "original_language": "en", "original_title": "Midway", "genre_ids": [28, 18, 36, 10752], "backdrop_path": "/6jeTEV03QLsjkEomKM6XhjoVJch.jpg", "adult": false, "overview": "This war drama depicts the U.S. and Japanese forces in the naval Battle of Midway, which became a turning point for Americans during World War II.", "poster_path": "/dCUVG2po7DsBvnxfe7WGcJsUn9T.jpg", "popularity": 19.326}, {"id": 438799, "video": false, "vote_count": 1393, "vote_average": 6.6, "title": "Overlord", "release_date": "2018-11-01", "original_language": "en", "original_title": "Overlord", "genre_ids": [27, 878, 10752], "backdrop_path": "/sHNC8hjAu4ZKXYhG3cp8ghRZ02B.jpg", "adult": false, "overview": "France, June 1944. On the eve of D-Day, some American paratroopers fall behind enemy lines after their aircraft crashes while on a mission to destroy a radio tower in a small village near the beaches of Normandy. After reaching their target, the surviving paratroopers realise that, in addition to fighting the Nazi troops that patrol the village, they also must fight against something else.", "poster_path": "/l76Rgp32z2UxjULApxGXAPpYdAP.jpg", "popularity": 21.089}, {"id": 1771, "video": false, "vote_count": 14031, "vote_average": 6.9, "title": "Captain America: The First Avenger", "release_date": "2011-07-22", "original_language": "en", "original_title": "Captain America: The First Avenger", "genre_ids": [28, 12, 878], "backdrop_path": "/pmZtj1FKvQqISS6iQbkiLg5TAsr.jpg", "adult": false, "overview": "During World War II, Steve Rogers is a sickly man from Brooklyn who's transformed into super-soldier Captain America to aid in the war effort. Rogers must stop the Red Skull \u2013 Adolf Hitler's ruthless head of weaponry, and the leader of an organization that intends to use a mysterious device of untold powers for world domination.", "poster_path": "/vSNxAJTlD0r02V9sPYpOjqDZXUK.jpg", "popularity": 22.016}, {"id": 522162, "video": false, "vote_count": 206, "vote_average": 6.7, "title": "Midway", "release_date": "2019-11-06", "original_language": "en", "original_title": "Midway", "genre_ids": [28, 18, 36, 10752], "backdrop_path": "/xjP88DFPCQ81mbZHXFscyYtGskT.jpg", "adult": false, "overview": "MIDWAY centers on the Battle of Midway, a clash between the American fleet and the Imperial Japanese Navy which marked a pivotal turning point in the Pacific Theater during WWII. The film, based on the real-life events of this heroic feat, tells the story of the leaders and soldiers who used their instincts, fortitude and bravery to overcome the odds.", "poster_path": "/hj8pyoNnynGeJTAbl7jcLZO8Uhx.jpg", "popularity": 61.847}, {"id": 423, "video": false, "vote_count": 4648, "vote_average": 8.3, "title": "The Pianist", "release_date": "2002-09-17", "original_language": "en", "original_title": "The Pianist", "genre_ids": [18, 10752], "backdrop_path": "/xUR95VFV1UTyzS1C8Lj06hi2n2M.jpg", "adult": false, "overview": "The true story of pianist W\u0142adys\u0142aw Szpilman's experiences in Warsaw during the Nazi occupation. When the Jews of the city find themselves forced into a ghetto, Szpilman finds work playing in a caf\u00e9; and when his family is deported in 1942, he stays behind, works for a while as a laborer, and eventually goes into hiding in the ruins of the war-torn city.", "poster_path": "/hfMeo073RxKKjZZV4gSGema1yog.jpg", "popularity": 26.63}, {"adult": false, "backdrop_path": "/sn0HQZthLpYamYb8VSPbEAWT4kF.jpg", "genre_ids": [18, 36, 10752], "id": 8741, "original_language": "en", "original_title": "The Thin Red Line", "overview": "Based on the graphic novel by James Jones, The Thin Red Line tells the story of a group of men, an Army Rifle company called C-for-Charlie, who change, suffer, and ultimately make essential discoveries about themselves during the fierce World War II battle of Guadalcanal. It follows their journey, from the surprise of an unopposed landing, through the bloody and exhausting battles that follow, to the ultimate departure of those who survived. A powerful frontline cast - including Sean Penn, Nick Nolte, Woody Harrelson and George Clooney - explodes into action in this hauntingly realistic view of military and moral chaos in the Pacific during World War II.", "poster_path": "/g4ApW90svay7veAPgxU8OsNMEOB.jpg", "release_date": "1998-12-25", "title": "The Thin Red Line", "video": false, "vote_average": 7.4, "vote_count": 1576, "popularity": 17.624}, {"id": 14574, "video": false, "vote_count": 3970, "vote_average": 7.8, "title": "The Boy in the Striped Pyjamas", "release_date": "2008-05-07", "original_language": "en", "original_title": "The Boy in the Striped Pyjamas", "genre_ids": [18, 10752], "backdrop_path": "/tFyhGkJgV6M5zZAjS8SBVqOjzH4.jpg", "adult": false, "overview": "When his family moves from their home in Berlin to a strange new house in Poland, young Bruno befriends Shmuel, a boy who lives on the other side of the fence where everyone seems to be wearing striped pajamas. Unaware of Shmuel's fate as a Jewish prisoner or the role his own Nazi father plays in his imprisonment, Bruno embarks on a dangerous journey inside the camp's walls.", "poster_path": "/f40R9to84FGF7T5bp3KGB84Lklb.jpg", "popularity": 23.522}, {"adult": false, "backdrop_path": "/hNn5koyqFmAXqOE8SzJBuhUmEZo.jpg", "genre_ids": [35, 10752], "id": 8290, "original_language": "fr", "original_title": "La Grande Vadrouille", "overview": "During World War II, two French civilians and a downed British Bomber Crew set out from Paris to cross the demarcation line between Nazi-occupied Northern France and the South. From there they will be able to escape to England. First, they must avoid German troops - and the consequences of their own blunders.", "poster_path": "/nMh6M8kraLZ7Uu4e8u7Vyb2qwg0.jpg", "release_date": "1966-12-07", "title": "Don't Look Now: We're Being Shot At", "video": false, "vote_average": 7.9, "vote_count": 691, "popularity": 19.026}, {"adult": false, "backdrop_path": "/iMiKWZFILSbzwFWdp30mS1HciT7.jpg", "genre_ids": [28, 18, 10752], "id": 1251, "original_language": "en", "original_title": "Letters from Iwo Jima", "overview": "The story of the battle of Iwo Jima between the United States and Imperial Japan during World War II, as told from the perspective of the Japanese who fought it.", "poster_path": "/nWJJqOryTQOmVXvKUkLcEETUHgT.jpg", "release_date": "2006-12-19", "title": "Letters from Iwo Jima", "video": false, "vote_average": 7.5, "vote_count": 1075, "popularity": 14.06}, {"adult": false, "backdrop_path": "/7QDnuj2T6CCY5wOSnKfYH7cIb6M.jpg", "genre_ids": [18, 35, 10752], "id": 8056, "original_language": "fr", "original_title": "Train de vie", "overview": "In 1941, the inhabitants of a small Jewish village in Central Europe organize a fake deportation train so that they can escape the Nazis and flee to Palestine.", "poster_path": "/anUwgyVrC7kUwN5OliazbC5qBfr.jpg", "release_date": "1998-09-16", "title": "Train of Life", "video": false, "vote_average": 7.5, "vote_count": 150, "popularity": 7.757}, {"adult": false, "backdrop_path": "/4uZZC82s0MDg6Om9AkQGDt4z0Xd.jpg", "genre_ids": [12, 18, 28, 53, 10752], "id": 11372, "original_language": "en", "original_title": "The Eagle Has Landed", "overview": "When the Nazi high command learns in late 1943 that Winston Churchill will be spending time at a country estate in Norfolk, it hatches an audacious scheme to kidnap the prime minister and spirit him to Germany for enforced negotiations with Hitler.", "poster_path": "/o22XW3pFNhUy9jPzBTLipKhUg5t.jpg", "release_date": "1976-12-24", "title": "The Eagle Has Landed", "video": false, "vote_average": 6.5, "vote_count": 149, "popularity": 17.548}, {"adult": false, "backdrop_path": "/plINQ1WJvnhjlxS5GUGCGKqZrMz.jpg", "genre_ids": [36, 99, 10752], "id": 803, "original_language": "fr", "original_title": "Nuit et brouillard", "overview": "Filmmaker Alain Resnais documents the atrocities behind the walls of Hitler's concentration camps.", "poster_path": "/xJc21xCemQirc1rHOJ8QLpUj1jA.jpg", "release_date": "1960-10-20", "title": "Night and Fog", "video": false, "vote_average": 8.3, "vote_count": 209, "popularity": 11.736}, {"id": 637, "video": false, "vote_count": 8080, "vote_average": 8.5, "title": "Life Is Beautiful", "release_date": "1997-12-20", "original_language": "it", "original_title": "La vita \u00e8 bella", "genre_ids": [35, 18], "backdrop_path": "/bORe0eI72D874TMawOOFvqWS6Xe.jpg", "adult": false, "overview": "A touching story of an Italian book seller of Jewish ancestry who lives in his own little fairy tale. His creative and happy life would come to an abrupt halt when his entire family is deported to a concentration camp during World War II. While locked up he tries to convince his son that the whole thing is just a game.", "poster_path": "/f7DImXDebOs148U4uPjI61iDvaK.jpg", "popularity": 33.768}, {"id": 489176, "video": false, "vote_count": 7, "vote_average": 4.9, "title": "The Birdcatcher", "release_date": "2017-03-29", "original_language": "en", "original_title": "The Birdcatcher", "genre_ids": [18, 36, 53, 10752], "backdrop_path": "/Wb6y1b2uOTUDhaBmrP7eqtuSjK.jpg", "adult": false, "overview": "Norway, 1942, during World War II. After being separated from her family, Esther, a young Jewish girl from Trondheim, arrives at an isolated farm where she must assume a new identity in order to survive the Nazi persecution\u2026", "poster_path": "/l9dmHphfmhmIZ4h8zRvhnSvuq0A.jpg", "popularity": 11.333}], "total_pages": 109, "total_results": 2179}, "recommendations": {"page": 1, "results": [{"adult": false, "backdrop_path": null, "genre_ids": [], "id": 366954, "original_language": "fr", "original_title": "New York, Broadway", "overview": "A short black and white film in which a fixed camera records a busy New York street, Broadway.", "poster_path": "/cupgZsX9EdUR2ZP1USJKSSwHRij.jpg", "release_date": "1896-12-16", "title": "New York, Broadway", "video": false, "vote_average": 5.4, "vote_count": 5, "popularity": 0.741}, {"adult": false, "backdrop_path": "/zkX0NaobwV12UaiaHK0qg4VOucW.jpg", "genre_ids": [80, 12, 53, 27, 28], "id": 47410, "original_language": "en", "original_title": "Trapped", "overview": "A group of college students accidentally see a local redneck kill his wife. A deadly game of cat-and-mouse ensues, with the students trying to escape the area while the killer sets out to eliminate the witnesses who can tie him to the murder.", "poster_path": "/8wyokj9en0u1HZVY7f2Ubp4xgl9.jpg", "release_date": "1982-05-28", "title": "Trapped", "video": false, "vote_average": 4.8, "vote_count": 9, "popularity": 2.751}, {"adult": false, "backdrop_path": "/44KwGEiXdknLV1Ai1a6wvEHhkMp.jpg", "genre_ids": [27], "id": 84924, "original_language": "en", "original_title": "Deadtime Stories 2", "overview": "An anthology of three horror stories presented by George A. Romero. In \"Gorge\" hikers are trapped in a cave-in must make a gruesome choice. In \"On Sabbath Hill,\" a woman is driven to suicide but remains to torment her lover. In \"Dust,\" a security guard is driven to murderous measures to use a strange dust that cures his wife's cancer.", "poster_path": "/n1vFwYcZ3K0KX3eRwMDrcYcPSrH.jpg", "release_date": "2011-09-20", "title": "Deadtime Stories 2", "video": false, "vote_average": 3.5, "vote_count": 11, "popularity": 2.751}, {"adult": false, "backdrop_path": "/ul71f159pUtzNxpGBTcbwYkSKV1.jpg", "genre_ids": [53, 27, 878], "id": 58807, "original_language": "en", "original_title": "Deadly Swarm", "overview": "Seeking out a cure for his wife's serious illness, scientist Dr. Schroeder (McCormack) heads deep into a forbidden jungle in Guatemala, trapping thousands of killer wasps. Working with secret military backing, it is Schroeder's contention that the venom from the wasp's stingers can be of great medicinal benefit. But when they try to illegally smuggle the wasps into the US, the truck they are on crashes and the wasps are set free to wreak havoc, making a direct path to a small unsuspecting town. It is up to an American entomologist Daniel Lang and a nosey writer Sandra Kern to stop these deadly wasps - as they lay eggs in their victims to hatch thousands more wasps - before it's too late.", "poster_path": "/kIPGT8iPB58FYZq46jYSI6EYEqw.jpg", "release_date": "2003-09-20", "title": "Deadly Swarm", "video": false, "vote_average": 2.8, "vote_count": 4, "popularity": 1.668}, {"adult": false, "backdrop_path": "/w2FzRWiLvh20bFIft4RgTMmHlI7.jpg", "genre_ids": [37], "id": 110773, "original_language": "en", "original_title": "The Naked Dawn", "overview": "Santiago, a jolly modern bandito, has just lost his partner when he happens on the isolated farm of young Manuel and Maria Lopez...", "poster_path": "/e2DcsBRUmdD8ma3cfCqXfgWq6Xz.jpg", "release_date": "1955-11-02", "title": "The Naked Dawn", "video": false, "vote_average": 6.5, "vote_count": 6, "popularity": 4.449}, {"adult": false, "backdrop_path": "/gGzvSSvR3PX1FF3JMQVIrV6dPDN.jpg", "genre_ids": [18, 28, 53], "id": 28661, "original_language": "en", "original_title": "World for Ransom", "overview": "Made by the same production set-up on the same lot that was producing the 1953-54 \"China Smith/Captain China\" TV series that starred Dan Duryea as soldier-of-fortune China Smith, using many of the same players that were regulars on the TV series. Director Aldrich went uncredited possibly because the film was a quickly-made but poor product.", "poster_path": "/uYhsV1D5qEzj4S29ZM3j9WvN4el.jpg", "release_date": "1954-01-31", "title": "World for Ransom", "video": false, "vote_average": 4.8, "vote_count": 8, "popularity": 3.392}, {"adult": false, "backdrop_path": "/tgDGPDF1VcJhG6s2TBPvmliGVbj.jpg", "genre_ids": [37, 18], "id": 120615, "original_language": "en", "original_title": "Arena", "overview": "Left by his wife (Polly Bergen), a vain rodeo star (Gig Young) picks up a floozy (Jean Hagen) and rides a bad Brahman bull.", "poster_path": "/43qv1HR4NI9MJlaAzI7uHC69mTU.jpg", "release_date": "1953-06-24", "title": "Arena", "video": false, "vote_average": 4.0, "vote_count": 5, "popularity": 3.261}, {"adult": false, "backdrop_path": "/bnI0Vq1cmAn7CKLixNYgfYr0DKM.jpg", "genre_ids": [80, 28], "id": 225405, "original_language": "en", "original_title": "Harrigan", "overview": "Amongst the desperation and fear growing in a crime ridden estate in northern England, one man becomes embroiled into saving what community life exists.", "poster_path": "/50AtQ9G1MSKsEr9jMfJwQ8fvVH9.jpg", "release_date": "2013-09-20", "title": "Harrigan", "video": false, "vote_average": 4.7, "vote_count": 5, "popularity": 4.137}, {"id": 241939, "video": false, "vote_count": 8, "vote_average": 6.4, "title": "Threshold", "release_date": "1981-09-19", "original_language": "en", "original_title": "Threshold", "genre_ids": [18, 878], "backdrop_path": "/sTpbdu2AfiKBQZ2PozKzqylz1Wm.jpg", "adult": false, "overview": "Celebrated heart surgeon Thomas Vrain supports the research of an offbeat scientist who has invented an artificial heart. Against the advice of the Ethics Committee,  Dr. Vrain decides to perform the first artificial heart transplant.", "poster_path": "/rPsU7FtLgKnfNS7IdKmS5upa8AF.jpg", "popularity": 3.965}], "total_pages": 1, "total_results": 9}, "credits": {"cast": [{"cast_id": 2, "character": "Sam McHale", "credit_id": "52fe4a9fc3a368484e15e185", "gender": 2, "id": 12149, "name": "Richard Widmark", "order": 0, "profile_path": "/tKtQMe37U9GTFOzSh0Qx5QSDK0E.jpg"}, {"cast_id": 3, "character": "Jenkins", "credit_id": "52fe4a9fc3a368484e15e189", "gender": 2, "id": 9108, "name": "Don Taylor", "order": 1, "profile_path": "/tFQYFlFtOwK5ueiXiuQyWVXG9SJ.jpg"}, {"cast_id": 12, "character": "Walter Landers", "credit_id": "52fe4a9fc3a368484e15e1a9", "gender": 2, "id": 85409, "name": "Max Showalter", "order": 2, "profile_path": "/kWgtaI5mcCML9PeZ6Ak9qTHkBw3.jpg"}, {"cast_id": 5, "character": "Kengtu", "credit_id": "52fe4a9fc3a368484e15e18d", "gender": 2, "id": 20100, "name": "Murvyn Vye", "order": 3, "profile_path": "/PAJTJO03eQMl674Bvn3KYX6tVY.jpg"}, {"cast_id": 6, "character": "Wilbur \"Coney\" Cohen", "credit_id": "52fe4a9fc3a368484e15e191", "gender": 0, "id": 81481, "name": "Darryl Hickman", "order": 4, "profile_path": "/bRMxUW00nvYWJZf2X0k09i2tjyz.jpg"}, {"cast_id": 7, "character": "Elwood Halsey", "credit_id": "52fe4a9fc3a368484e15e195", "gender": 2, "id": 14573, "name": "Martin Milner", "order": 5, "profile_path": "/gm66n7mAhkIUZ9cOLDLuOPI6vnv.jpg"}, {"cast_id": 8, "character": "Paul Sabatello", "credit_id": "52fe4a9fc3a368484e15e199", "gender": 2, "id": 49906, "name": "Ross Bagdasarian", "order": 6, "profile_path": "/qAkfHf4i1eyk6GZ4YQxbCPW6NPE.jpg"}, {"cast_id": 9, "character": "Nura-Salu", "credit_id": "52fe4a9fc3a368484e15e19d", "gender": 1, "id": 151712, "name": "Judy Dan", "order": 7, "profile_path": null}, {"cast_id": 10, "character": "Tomec", "credit_id": "52fe4a9fc3a368484e15e1a1", "gender": 2, "id": 24827, "name": "Rodolfo Acosta", "order": 8, "profile_path": "/m7lQ5rATvSUtamHOj6qtfZJGDHr.jpg"}, {"cast_id": 11, "character": "Hobart Wyatt", "credit_id": "52fe4a9fc3a368484e15e1a5", "gender": 2, "id": 40203, "name": "Russell Collins", "order": 9, "profile_path": "/obnugvq4LGBHpqFMUFGhFWUQHF7.jpg"}, {"cast_id": 19, "character": "Wali-Akhun", "credit_id": "595cf0a7925141222b055649", "gender": 2, "id": 30514, "name": "Leonard Strong", "order": 10, "profile_path": "/c4w7CzUtElSEt4hdQ94vod52MoH.jpg"}, {"cast_id": 20, "character": "Frank Swenson (uncredited)", "credit_id": "595cf0b5c3a3680d5904470b", "gender": 2, "id": 12313, "name": "Earl Holliman", "order": 11, "profile_path": "/k1f9fUfeGt0cCbDWt8j2eK7JjPY.jpg"}, {"cast_id": 21, "character": "Commanding Officer, Japanese POW Camp (uncredited)", "credit_id": "595cf0c192514121f0055991", "gender": 2, "id": 10344, "name": "Richard Loo", "order": 12, "profile_path": "/uCsrR36tMcqNy8cFaH2iKnSvIyR.jpg"}], "crew": [{"credit_id": "52fe4a9fc3a368484e15e181", "department": "Directing", "gender": 2, "id": 1744, "job": "Director", "name": "Robert Wise", "profile_path": "/6EPkRgYsDMQOYmE9s1vZt2O470R.jpg"}, {"credit_id": "58f90ad1c3a368761b00cae2", "department": "Production", "gender": 2, "id": 20098, "job": "Producer", "name": "Stanley Rubin", "profile_path": null}, {"credit_id": "583f714ac3a36862e1000e21", "department": "Sound", "gender": 2, "id": 30922, "job": "Original Music Composer", "name": "Sol Kaplan", "profile_path": null}, {"credit_id": "583f7151c3a36862d5000dd6", "department": "Camera", "gender": 2, "id": 70821, "job": "Director of Photography", "name": "Charles G. Clarke", "profile_path": null}, {"credit_id": "595cf06dc3a368293b0767f5", "department": "Writing", "gender": 2, "id": 101887, "job": "Screenplay", "name": "Everett Freeman", "profile_path": null}, {"credit_id": "58f90adbc3a368760800d049", "department": "Editing", "gender": 0, "id": 423011, "job": "Editor", "name": "Robert Fritch", "profile_path": null}, {"credit_id": "595cf0789251410bfa0744c0", "department": "Writing", "gender": 0, "id": 1845170, "job": "Story", "name": "Edmund G. Love", "profile_path": null}]}}