{"adult": false, "backdrop_path": "/phhNTEmJA5PrnjHCggGcohk4YYr.jpg", "belongs_to_collection": null, "budget": 2000000, "genres": [{"id": 35, "name": "Comedy"}, {"id": 9648, "name": "Mystery"}, {"id": 878, "name": "Science Fiction"}, {"id": 37, "name": "Western"}], "homepage": "http://www.laleggendadikasparhauser.com/", "id": 124091, "imdb_id": "tt1887785", "original_language": "it", "original_title": "La leggenda di Kaspar Hauser", "overview": "Arriving on a deserted beach in the Mediterranean sea, in a time and a place unspecified, Kaspar Hauser is forced to confront the evil of a Grand Duchess who feels threatened by the power she exercises over the community.", "popularity": 2.211, "poster_path": "/186Rl8qNhOHXWN6cMYs1sHFDUwi.jpg", "production_companies": [{"id": 1791, "logo_path": null, "name": "Blue Films", "origin_country": ""}, {"id": 106027, "logo_path": null, "name": "Shooting Hope Productions", "origin_country": ""}], "production_countries": [{"iso_3166_1": "IT", "name": "Italy"}], "release_date": "2013-06-13", "revenue": 0, "runtime": 95, "spoken_languages": [{"iso_639_1": "en", "name": "English"}, {"iso_639_1": "it", "name": "Italiano"}, {"iso_639_1": "fr", "name": "Fran\u00e7ais"}], "status": "Released", "tagline": "", "title": "The Legend of Kaspar Hauser", "video": false, "vote_average": 6.5, "vote_count": 17, "keywords": {"keywords": [{"id": 12999, "name": "black and white"}, {"id": 205778, "name": "ovni"}]}, "similar": {"page": 1, "results": [{"id": 901, "video": false, "vote_count": 1026, "vote_average": 8.4, "title": "City Lights", "release_date": "1931-02-01", "original_language": "xx", "original_title": "City Lights", "genre_ids": [35, 18, 10749], "backdrop_path": "/vT6ux2rdyg2kexuLisO5Ygz7pHg.jpg", "adult": false, "overview": "City Lights is the first silent film that Charlie Chaplin directed after he established himself with sound accompanied films. The film is about a penniless man who falls in love with a flower girl.", "poster_path": "/bXNvzjULc9jrOVhGfjcc64uKZmZ.jpg", "popularity": 14.294}, {"adult": false, "backdrop_path": "/wcT7srQ4GeeMqlszMFEtPZ7v8T7.jpg", "genre_ids": [35, 10749], "id": 28978, "original_language": "en", "original_title": "The Circus", "overview": "Charlie, a wandering tramp, becomes a circus handyman and falls in love with the circus owner's daughter. Unaware of Charlie's affection, the girl falls in love with a handsome young performer. Charlie's versatility makes him star of the show when he substitutes for an ailing tightwire walker. He is discharged from the company when he protects the girl from her father's abuse, but he returns and appeals to the handsome performer to marry the girl. After the wedding the father prevails upon them to rejoin the circus. Charlie is hired again, but he stays behind when the caravan moves on.", "poster_path": "/awTf4Y6TGvgi3VYtGNINyyJJy9Q.jpg", "release_date": "1928-01-06", "title": "The Circus", "video": false, "vote_average": 8.2, "vote_count": 330, "popularity": 12.253}, {"adult": false, "backdrop_path": null, "genre_ids": [], "id": 616262, "original_language": "ar", "original_title": "All Come From Dust", "overview": "A loop of edgeless bend. You were its doom, he was its bloom. You were its tomb, he was its womb. You were its gloom, he was its loom. For Heaven and Hell, were words made of fume.", "poster_path": null, "release_date": "2019-08-13", "title": "All Come From Dust", "video": false, "vote_average": 5.0, "vote_count": 1, "popularity": 0.6}, {"id": 621733, "video": false, "vote_count": 0, "vote_average": 0.0, "title": "A Trip to the Seaside", "release_date": "2019-08-30", "original_language": "en", "original_title": "A Trip to the Seaside", "genre_ids": [99], "backdrop_path": null, "adult": false, "overview": "Experimental short film on the excitement and rush of a day trip", "poster_path": "/AuZVhpoJ4jm2LWDhoJKfxQfhDAi.jpg", "popularity": 1.324}, {"id": 828, "video": false, "vote_count": 556, "vote_average": 7.5, "title": "The Day the Earth Stood Still", "release_date": "1951-09-17", "original_language": "en", "original_title": "The Day the Earth Stood Still", "genre_ids": [878], "backdrop_path": "/uExEupzfV7Ffau0H98aefUU0zcG.jpg", "adult": false, "overview": "An alien and a robot land on earth after World War II and tell mankind to be peaceful or face destruction. A classic science fiction film from Robert Wise with an exceptional message.", "poster_path": "/x2DquTpLTq54aPFDnqlwY7apCC3.jpg", "popularity": 28.171}, {"id": 10258, "video": false, "vote_count": 148, "vote_average": 6.6, "title": "The Madagascar Penguins in a Christmas Caper", "release_date": "2005-09-23", "original_language": "en", "original_title": "The Madagascar Penguins in a Christmas Caper", "genre_ids": [16, 35, 10751], "backdrop_path": "/gdJ6j1hmt6dQgObWxDJAHUb58o6.jpg", "adult": false, "overview": "During the holiday season, when the animals of the Central Park Zoo are preparing for Christmas, Private, the youngest of the penguins notices that the Polar Bear is all alone. Assured that nobody should have to spend Christmas alone, Private goes into the city for some last-minute Christmas shopping. Along the way, he gets stuffed into a stocking", "poster_path": "/r8QtfGSjDaY6vICRVyYvZvTkjxc.jpg", "popularity": 15.199}, {"id": 19, "video": false, "vote_count": 1340, "vote_average": 8.2, "title": "Metropolis", "release_date": "1927-01-10", "original_language": "de", "original_title": "Metropolis", "genre_ids": [18, 878], "backdrop_path": "/gmH0N0bdlYGN1EUr8U2cMQYyg78.jpg", "adult": false, "overview": "In a futuristic city sharply divided between the working class and the city planners, the son of the city's mastermind falls in love with a working class prophet who predicts the coming of a savior to mediate their differences.", "poster_path": "/qriaeUUwdmlgethK3aSAx68mG05.jpg", "popularity": 20.574}, {"id": 1585, "video": false, "vote_count": 2258, "vote_average": 8.2, "title": "It's a Wonderful Life", "release_date": "1946-12-20", "original_language": "en", "original_title": "It's a Wonderful Life", "genre_ids": [18, 14, 10751], "backdrop_path": "/nMomMy1sD3SN2QsKop3zBXCJfDJ.jpg", "adult": false, "overview": "A holiday favourite for generations...  George Bailey has spent his entire life giving to the people of Bedford Falls.  All that prevents rich skinflint Mr. Potter from taking over the entire town is George's modest building and loan company.  But on Christmas Eve the business's $8,000 is lost and George's troubles begin.", "poster_path": "/bSqt9rhDZx1Q7UZ86dBPKdNomp2.jpg", "popularity": 28.472}, {"adult": false, "backdrop_path": "/tr6OExnBfjLADi9OyZoW308mPAp.jpg", "genre_ids": [18, 35, 10749], "id": 74643, "original_language": "en", "original_title": "The Artist", "overview": "Hollywood, 1927: As silent movie star George Valentin wonders if the arrival of talking pictures will cause him to fade into oblivion, he sparks with Peppy Miller, a young dancer set for a big break.", "poster_path": "/i0mpvMIIjyubXsVKug9vX0lYpnd.jpg", "release_date": "2011-06-26", "title": "The Artist", "video": false, "vote_average": 7.4, "vote_count": 1977, "popularity": 12.71}, {"id": 326359, "video": false, "vote_count": 1179, "vote_average": 6.8, "title": "Frozen Fever", "release_date": "2015-03-09", "original_language": "en", "original_title": "Frozen Fever", "genre_ids": [12, 16, 10751], "backdrop_path": "/ubioPGniCfDiASmYYpeJs5RRNaC.jpg", "adult": false, "overview": "On Anna's birthday, Elsa and Kristoff are determined to give her the best celebration ever, but Elsa's icy powers may put more than just the party at risk.", "poster_path": "/lKJiVPzsAO9IJ4LKWXZ8vkR2bg4.jpg", "popularity": 17.061}, {"id": 460793, "video": false, "vote_count": 933, "vote_average": 6.2, "title": "Olaf's Frozen Adventure", "release_date": "2017-10-27", "original_language": "en", "original_title": "Olaf's Frozen Adventure", "genre_ids": [12, 16, 35, 14, 10402, 10751], "backdrop_path": "/9K4QqQZg4TVXcxBGDiVY4Aey3Rn.jpg", "adult": false, "overview": "Olaf is on a mission to harness the best holiday traditions for Anna, Elsa, and Kristoff.", "poster_path": "/As8WTtxXs9e3cBit3ztTf7zoRmm.jpg", "popularity": 26.393}, {"id": 346364, "video": false, "vote_count": 12540, "vote_average": 7.2, "title": "It", "release_date": "2017-09-06", "original_language": "en", "original_title": "It", "genre_ids": [27], "backdrop_path": "/tcheoA2nPATCm2vvXw2hVQoaEFD.jpg", "adult": false, "overview": "In a small town in Maine, seven children known as The Losers Club come face to face with life problems, bullies and a monster that takes the shape of a clown called Pennywise.", "poster_path": "/9E2y5Q7WlCVNEhP5GiVTjhEhx1o.jpg", "popularity": 28.41}, {"adult": false, "backdrop_path": "/gt7HbwIA5xS1s8jrjy18t3Pfnvz.jpg", "genre_ids": [18], "id": 705, "original_language": "en", "original_title": "All About Eve", "overview": "From the moment she glimpses her idol at the stage door, Eve Harrington is determined to take the reins of power away from the great actress Margo Channing. Eve maneuvers her way into Margo's Broadway role, becomes a sensation and even causes turmoil in the lives of Margo's director boyfriend, her playwright and his wife. Only the cynical drama critic sees through Eve, admiring her audacity and perfect pattern of deceit.", "poster_path": "/6numIZH6uR3NlJgY9m7nGH0jhs.jpg", "release_date": "1950-10-06", "title": "All About Eve", "video": false, "vote_average": 8.2, "vote_count": 783, "popularity": 14.777}, {"id": 654980, "video": false, "vote_count": 0, "vote_average": 0.0, "title": "Former Cult Member Hears Music For The First Time", "release_date": "2020-01-23", "original_language": "en", "original_title": "Former Cult Member Hears Music For The First Time", "genre_ids": [], "backdrop_path": null, "adult": false, "overview": "After a woman escapes the captivity of her abusive family, a magazine invites her to a journalistic experiment: to hear music for the first time.", "poster_path": "/85K8ODZp51Cl5OAivRyjN1MKTdy.jpg", "popularity": 16.804}, {"adult": false, "backdrop_path": null, "genre_ids": [], "id": 623058, "original_language": "en", "original_title": "We Still Have to Close Our Eyes", "overview": "John Torres repurposes documentary footage captured from the sets of various Filipino productions (including the likes of Lav Diaz and Erik Matti) into an eerie, elliptical sci-fi narrative about human avatars controlled by apps.", "poster_path": "/jY7znoWWH3BJCK25w6QBOSfIFPs.jpg", "release_date": "2019-09-06", "title": "We Still Have to Close Our Eyes", "video": false, "vote_average": 0.0, "vote_count": 0, "popularity": 0.973}, {"id": 621485, "video": false, "vote_count": 2, "vote_average": 5.5, "title": "Guest of Honor", "release_date": "2019-08-14", "original_language": "en", "original_title": "Guest of Honor", "genre_ids": [18], "backdrop_path": "/qo3f05mAqiGG5yDyVhURwwhR1oh.jpg", "adult": false, "overview": "A devout Nazi oversees a group of taste testers for Hitler.", "poster_path": "/g02YorY0sAVDJuXdL42Vpmqtv0g.jpg", "popularity": 5.678}, {"id": 650755, "video": false, "vote_count": 0, "vote_average": 0.0, "title": "Atordoado, Eu Permane\u00e7o Atento", "release_date": "2020-01-15", "original_language": "pt", "original_title": "Atordoado, Eu Permane\u00e7o Atento", "genre_ids": [99], "backdrop_path": null, "adult": false, "overview": "", "poster_path": "/exbM8qk6f6T44olJXcM8ix1sunL.jpg", "popularity": 7.153}, {"adult": false, "backdrop_path": "/5qy4PGnEzZajJNzPZ2jxiqUIBON.jpg", "genre_ids": [35], "id": 6166, "original_language": "en", "original_title": "Dinner for One", "overview": "A very old woman wants to have dinner with her friends. As they are all dead, the butler has to play the role of every guest.", "poster_path": "/2uzk4IIwOrRQHn816IsEngYn8mp.jpg", "release_date": "1963-06-08", "title": "Dinner for One", "video": false, "vote_average": 7.4, "vote_count": 73, "popularity": 6.229}, {"id": 76122, "video": false, "vote_count": 231, "vote_average": 6.5, "title": "Marvel One-Shot: The Consultant", "release_date": "2011-09-12", "original_language": "en", "original_title": "Marvel One-Shot: The Consultant", "genre_ids": [28, 12, 14, 878], "backdrop_path": "/tHthULHaBaWLS1z2UfYhvHphJSb.jpg", "adult": false, "overview": "Agent Coulson informs Agent Sitwell that the World Security Council wishes Emil Blonsky to be released from prison to join the Avengers Initiative. As Nick Fury doesn't want to release Blonsky, the two agents decide to send a patsy to sabotage the meeting...", "poster_path": "/75AsB4NRKaYanuCeKYgIh2hfsR1.jpg", "popularity": 15.078}, {"adult": false, "backdrop_path": "/twGxeStlGooWV3gP6ZIcSNuQ6jf.jpg", "genre_ids": [12, 16, 10751, 14], "id": 81684, "original_language": "en", "original_title": "The Gruffalo's Child", "overview": "A follow up to the 2009 animated feature and adapted from the childrens' book by Julia Donaldson and Alex Scheffler.  The Gruffalo's child explores the deep dark wood in search of the big bad mouse and meets the Snake, Owl and Fox in the process.  She eventually finds the mouse, who manages to outwit her like the Gruffalo before!", "poster_path": "/qaGH2AoaLvoGXURQtNzj1nw6oZd.jpg", "release_date": "2011-12-25", "title": "The Gruffalo's Child", "video": false, "vote_average": 6.9, "vote_count": 73, "popularity": 13.766}], "total_pages": 677, "total_results": 13525}, "recommendations": {"page": 1, "results": [{"adult": false, "backdrop_path": null, "genre_ids": [99], "id": 258945, "original_language": "pl", "original_title": "Wszystko moze sie przytrafic", "overview": "A story of life and death, featuring Lozinski's six-year-old son Tomaszek and elderly people spending time on the benches of a Warsaw park. Riding his scooter, Tomaszek asks the elderly very adult, though basic, questions, which they are happy to answer. The boy's ideas of future and life are confronted with those of men at the end of their lives.", "poster_path": "/fdfzqEBKtMpqjKXg5bAfD1s7BE3.jpg", "release_date": "1995-12-10", "title": "Anything Can Happen", "video": false, "vote_average": 6.3, "vote_count": 6, "popularity": 0.6}, {"adult": false, "backdrop_path": "/fVHdGmENN2tAPXwUFGraeb0Oj6H.jpg", "genre_ids": [99], "id": 251612, "original_language": "en", "original_title": "Berlin Horse", "overview": "Two fragments of 8mm home-movie footage shot by the artist near Berlin weave together in repeating cycles of action, temporal manipulation, and colour distortion, heightening the viewer\u2019s awareness of film-time and the film-image, and perception of colour in motion. - OtherFilm", "poster_path": "/ibNtuR7vHeFCvHjhjUh4RH3yhA2.jpg", "release_date": "1970-01-01", "title": "Berlin Horse", "video": false, "vote_average": 7.4, "vote_count": 8, "popularity": 0.6}, {"adult": false, "backdrop_path": "/69osQWs25yvJwXczlTf8t9YEvCO.jpg", "genre_ids": [99], "id": 96300, "original_language": "it", "original_title": "Il pianeta azzurro", "overview": "A look at the passage of time through the changing seasons, human evolution and everyday life.", "poster_path": "/ibKUxfOk8mmccRjeFl35H35eZg2.jpg", "release_date": "1982-08-28", "title": "The Blue Planet", "video": false, "vote_average": 8.4, "vote_count": 9, "popularity": 1.705}], "total_pages": 1, "total_results": 3}, "credits": {"cast": [{"cast_id": 3, "character": "The Pusher / The Sheriff", "credit_id": "52fe4aa3c3a368484e15f1f3", "gender": 2, "id": 22461, "name": "Vincent Gallo", "order": 0, "profile_path": "/zXRMU0raA9t0vP8riazzsxLwj3K.jpg"}, {"cast_id": 4, "character": "The Duchess", "credit_id": "52fe4aa3c3a368484e15f1f7", "gender": 1, "id": 8776, "name": "Claudia Gerini", "order": 1, "profile_path": "/1krDlHrzy07HNyw0PXCThNITJGI.jpg"}, {"cast_id": 5, "character": "The Whore", "credit_id": "52fe4aa3c3a368484e15f1fb", "gender": 1, "id": 132068, "name": "Elisa Sednaoui", "order": 2, "profile_path": "/T9otCZxaPhbvQXzyH851inPnuo.jpg"}, {"cast_id": 7, "character": "Kaspar Hauser", "credit_id": "52fe4aa3c3a368484e15f203", "gender": 1, "id": 1079388, "name": "Silvia Calderoni", "order": 3, "profile_path": "/nRRXplUemLxsfCN4T2seZcYt198.jpg"}, {"cast_id": 6, "character": "The Priest", "credit_id": "52fe4aa3c3a368484e15f1ff", "gender": 0, "id": 35106, "name": "Fabrizio Gifuni", "order": 4, "profile_path": "/3Ns39WsR02vGg65prDvqcmyFNRE.jpg"}, {"cast_id": 8, "character": "The Servant", "credit_id": "52fe4aa3c3a368484e15f207", "gender": 0, "id": 1079390, "name": "Marco Lampis", "order": 5, "profile_path": null}, {"cast_id": 17, "character": "The Mule Man", "credit_id": "5b35bae0c3a368533702256c", "gender": 0, "id": 2074465, "name": "Tonino Fenu", "order": 6, "profile_path": null}], "crew": [{"credit_id": "5b31c3cc0e0a263ff000a05f", "department": "Camera", "gender": 2, "id": 34493, "job": "Director of Photography", "name": "Tarek Ben Abdallah", "profile_path": null}, {"credit_id": "52fe4aa4c3a368484e15f20d", "department": "Directing", "gender": 0, "id": 931930, "job": "Director", "name": "Davide Manuli", "profile_path": "/j1LTFecH0u1eYTbaBtWuOQSAufu.jpg"}, {"credit_id": "5b31c4270e0a26401c009edd", "department": "Production", "gender": 0, "id": 931930, "job": "Producer", "name": "Davide Manuli", "profile_path": "/j1LTFecH0u1eYTbaBtWuOQSAufu.jpg"}, {"credit_id": "52fe4aa4c3a368484e15f213", "department": "Writing", "gender": 0, "id": 931930, "job": "Writer", "name": "Davide Manuli", "profile_path": "/j1LTFecH0u1eYTbaBtWuOQSAufu.jpg"}, {"credit_id": "5b31c3f00e0a2640080094cd", "department": "Editing", "gender": 0, "id": 1176443, "job": "Editor", "name": "Rosella Mocci", "profile_path": null}, {"credit_id": "5b31c3dec3a368531d009c59", "department": "Crew", "gender": 0, "id": 2072577, "job": "Additional Writing", "name": "Giuseppe Genna", "profile_path": null}, {"credit_id": "5b31c41cc3a3685311008e18", "department": "Production", "gender": 0, "id": 2072578, "job": "Producer", "name": "Alessandro Bonifazi", "profile_path": null}, {"credit_id": "5b31c432c3a368532f00a22a", "department": "Production", "gender": 0, "id": 2072579, "job": "Producer", "name": "Bruno Tribbioli", "profile_path": null}]}}