{"adult": false, "backdrop_path": "/eMO6gBMDTFxxTzmHGeqXriZNmcO.jpg", "belongs_to_collection": null, "budget": 0, "genres": [{"id": 18, "name": "Drama"}], "homepage": null, "id": 12427, "imdb_id": "tt1284592", "original_language": "am", "original_title": "Teza", "overview": "The Ethiopian intellectual Anberber returns to his native country during the repressive totalitarian regime of Haile Mariam Mengistu and the recognition of his own displacement and powerlessness at the dissolution of his people's humanity and social values. After several years spent studying medicine in Germany, he finds the country of his youth replaced by turmoil. His dream of using his craft to improve the health of Ethiopians is squashed by a military junta that uses scientists for its own political ends. Seeking the comfort of his countryside home, Anberber finds no refuge from violence. The solace that the memories of his youth provide is quickly replaced by the competing forces of military and rebelling factions. Anberber needs to decide whether he wants to bear the strain or piece together a life from the fragments that lie around him.", "popularity": 1.4, "poster_path": "/haaF5elTHAe6A4vT86YuvjLFOPg.jpg", "production_companies": [{"id": 57614, "logo_path": null, "name": "Unlimited", "origin_country": ""}, {"id": 81321, "logo_path": null, "name": "Negod-Gwad Productions", "origin_country": ""}, {"id": 140, "logo_path": "/3ngKBDqmPOjNCccrtyjZWhPsLFa.png", "name": "Pandora Film", "origin_country": "DE"}], "production_countries": [{"iso_3166_1": "ET", "name": "Ethiopia"}, {"iso_3166_1": "FR", "name": "France"}, {"iso_3166_1": "DE", "name": "Germany"}], "release_date": "2008-09-02", "revenue": 0, "runtime": 140, "spoken_languages": [{"iso_639_1": "am", "name": ""}, {"iso_639_1": "en", "name": "English"}, {"iso_639_1": "de", "name": "Deutsch"}], "status": "Released", "tagline": "", "title": "Teza", "video": false, "vote_average": 7.1, "vote_count": 9, "keywords": {"keywords": [{"id": 1571, "name": "return"}, {"id": 5946, "name": "ethiopia"}]}, "similar": {"page": 1, "results": [{"id": 5544, "video": false, "vote_count": 327, "vote_average": 8.0, "title": "Hiroshima Mon Amour", "release_date": "1959-06-10", "original_language": "fr", "original_title": "Hiroshima mon amour", "genre_ids": [18, 36, 10749], "backdrop_path": "/yqUc023vMheWlc6U8mkzYws169I.jpg", "adult": false, "overview": "The deep conversation between a Japanese architect and a French actress forms the basis of this celebrated French film, considered one of the vanguard productions of the French New Wave. Set in Hiroshima after the end of World War II, the couple -- lovers turned friends -- recount, over many hours, previous romances and life experiences. The two intertwine their stories about the past with pondering the devastation wrought by the atomic bomb dropped on the city.", "poster_path": "/fViod4QCEDm0Yhlk15LACPdaqZk.jpg", "popularity": 13.604}, {"id": 1247, "video": false, "vote_count": 597, "vote_average": 6.4, "title": "The Good Shepherd", "release_date": "2006-12-11", "original_language": "en", "original_title": "The Good Shepherd", "genre_ids": [18, 36, 53], "backdrop_path": "/3qvtPTzdeV5cJFBpJO56KFAkF4d.jpg", "adult": false, "overview": "Edward Wilson, the only witness to his father's suicide and member of the Skull and Bones Society while a student at Yale, is a morally upright young man who values honor and discretion, qualities that help him to be recruited for a career in the newly founded OSS. His dedication to his work does not come without a price though, leading him to sacrifice his ideals and eventually his family.", "poster_path": "/s2RYkRXrjUIyOlmzym37kpLTKRz.jpg", "popularity": 15.358}, {"adult": false, "backdrop_path": "/sh2wZxjHMqRLvpDq9QV1vkHrjpZ.jpg", "genre_ids": [18, 9648, 53], "id": 11190, "original_language": "ru", "original_title": "\u0412\u043e\u0437\u0432\u0440\u0430\u0449\u0435\u043d\u0438\u0435", "overview": "A story of two Russian boys whose father suddenly returns home after a 12-year absence. He takes the boys on a holiday to a remote island on a lake that turns into a test of manhood of almost mythic proportions.", "poster_path": "/7V8iHBs34cPYw7ohpLqliF9x8Gv.jpg", "release_date": "2003-06-25", "title": "The Return", "video": false, "vote_average": 7.7, "vote_count": 219, "popularity": 10.44}, {"id": 219, "video": false, "vote_count": 876, "vote_average": 7.5, "title": "Volver", "release_date": "2006-03-16", "original_language": "es", "original_title": "Volver", "genre_ids": [35, 18, 10749], "backdrop_path": "/2ZqUuollwvBiNvGHdxBVngiP0YG.jpg", "adult": false, "overview": "Raimunda (Pen\u00e9lope Cruz) lives and works in Madrid with her husband Paco and their daughter, Paula. Raimunda's sister, Sole (Lola Due\u00f1as), lives nearby. The two sisters miss their mother, Irene (Carmen Maura), who died several years ago in a house fire along with their father. When a former neighbor from their hometown reports that she has seen the ghost of Irene, the daughters do not believe her. After a murder and a family tragedy, however, Irene's spirit materializes around her daughters to comfort them.", "poster_path": "/wjiEyTi7EnkdtC3MhH446esjCLF.jpg", "popularity": 12.885}, {"id": 465003, "video": false, "vote_count": 313, "vote_average": 6.8, "title": "The Red Sea Diving Resort", "release_date": "2019-07-28", "original_language": "en", "original_title": "The Red Sea Diving Resort", "genre_ids": [18, 36, 53], "backdrop_path": "/7XI3DfxdQwvgXTCx29fglvcirQP.jpg", "adult": false, "overview": "Sudan, East Africa, 1980. A team of Israeli Mossad agents plans to rescue and transfer thousands of Ethiopian Jews to Israel. To do so, and to avoid raising suspicions from the inquisitive and ruthless authorities, they establish as a cover a fake diving resort by the Red Sea.", "poster_path": "/bTgd1QQFTKdxESevtffAvIvCnz2.jpg", "popularity": 22.515}, {"id": 11619, "video": false, "vote_count": 2214, "vote_average": 6.1, "title": "Flushed Away", "release_date": "2006-10-22", "original_language": "en", "original_title": "Flushed Away", "genre_ids": [12, 16, 35, 10751], "backdrop_path": "/7gvhqD2l8T6qKlD0ec4nysh077y.jpg", "adult": false, "overview": "London high-society mouse, Roddy is flushed down the toilet by Sid, a common sewer rat. Hang on for a madcap adventure deep in the sewer bowels of Ratropolis, where Roddy meets the resourceful Rita, the rodent-hating Toad and his faithful thugs, Spike and Whitey.", "poster_path": "/oCdPDusnJvIZN6OpaF2Yj7211w.jpg", "popularity": 22.035}, {"id": 10112, "video": false, "vote_count": 3101, "vote_average": 7.3, "title": "The Aristocats", "release_date": "1970-12-23", "original_language": "en", "original_title": "The Aristocats", "genre_ids": [12, 16, 35, 10751], "backdrop_path": "/fojdVtSsZa7fXyJQ6w1Exw7GWum.jpg", "adult": false, "overview": "When Madame Adelaide Bonfamille leaves her fortune to Duchess and her children\u2014Bonfamille\u2019s beloved family of cats\u2014the butler plots to steal the money and kidnaps the legatees, leaving them out on a country road. All seems lost until the wily Thomas O\u2019Malley Cat and his jazz-playing alley cats come to the aristocats\u2019 rescue.", "poster_path": "/pXHpNfsZXX50vCb7Z39coEJCIka.jpg", "popularity": 21.99}, {"id": 11285, "video": false, "vote_count": 173, "vote_average": 5.5, "title": "Cocoon: The Return", "release_date": "1988-09-13", "original_language": "en", "original_title": "Cocoon: The Return", "genre_ids": [35, 878], "backdrop_path": "/kBa9ecvBRD5M3IERehLDXRyETdK.jpg", "adult": false, "overview": "The reinvigorated elderly group that left Earth comes back to visit their relatives. Will they all decide to go back to the planet where no one grows old, or will they be tempted to remain on Earth?", "poster_path": "/AkPcfRIZ1ZynIB2nnOOOWzHPOT9.jpg", "popularity": 12.245}, {"id": 236, "video": false, "vote_count": 198, "vote_average": 7.0, "title": "Muriel's Wedding", "release_date": "1994-08-22", "original_language": "en", "original_title": "Muriel's Wedding", "genre_ids": [35, 18, 10749], "backdrop_path": "/9P3g2ECZFuSICHdAtxk0hLb8cPI.jpg", "adult": false, "overview": "A young social outcast in Australia steals money from her parents to finance a vacation where she hopes to find happiness, and perhaps love.", "poster_path": "/zJyTr8Fo412a2OIfJGXTRAm4IwX.jpg", "popularity": 19.93}, {"id": 9839, "video": false, "vote_count": 240, "vote_average": 6.7, "title": "Beyond Borders", "release_date": "2003-10-23", "original_language": "en", "original_title": "Beyond Borders", "genre_ids": [12, 18, 10749, 10752], "backdrop_path": "/2IBDEDoKzvVeIMkmq7cHoQilmJf.jpg", "adult": false, "overview": "Beyond Borders is an epic tale of the turbulent romance between two star-crossed lovers set against the backdrop of the world's most dangerous hot spots. Academy Award winner Angelina Jolie stars as Sarah Jordan, an American living in London in 1984. She is married to Henry Bauford son of a wealthy British industrialist, when she encounters Nick Callahan a renegade doctor, whose impassioned plea for help to support his relief efforts in war-torn Africa moves her deeply. As a result, Sarah embarks upon a journey of discovery that leads to danger, heartbreak and romance in the far corners of the world.", "poster_path": "/97iqRvFDTKwe5kuapk1OPCBbskk.jpg", "popularity": 13.612}, {"adult": false, "backdrop_path": "/emirIsoWcEss66f4zWvYZje6LoP.jpg", "genre_ids": [18], "id": 337, "original_language": "fr", "original_title": "Monsieur Ibrahim et les fleurs du Coran", "overview": "Monsieur Ibrahim is a story about a young Jewish boy in Paris who meets an old Muslim Turkish grocery store owner. The film touches the themes of friendship and love as the old man is a father figure to the boy as he teaches him of the Koran. The film is based on a book of the popular book by the French author Eric-Emmanuel Schmitt.", "poster_path": "/Acn6XSWNou0gkkoj4QaOowFU37d.jpg", "release_date": "2003-09-17", "title": "Monsieur Ibrahim", "video": false, "vote_average": 7.1, "vote_count": 69, "popularity": 7.832}, {"adult": false, "backdrop_path": "/wZmjpQFxmQnpoxjYwHoPCGofO17.jpg", "genre_ids": [18, 53, 9648, 10749], "id": 1049, "original_language": "en", "original_title": "Sommersby", "overview": "Set in the south of the United States just after the Civil War, Laurel Sommersby is just managing to work the farm without her husband Jack, believed killed in the Civil War. By all accounts, Jack Sommersby was not a pleasant man, thus when he returns, Laurel has mixed emotions. It appears that Jack has changed a great deal, leading some people to believe that this is not actually Jack but an imposter. Laurel herself is unsure, but willing to take the man into her home, and perhaps later into her heart...", "poster_path": "/tTknufUur6nxMHEAR3iZ71kJXHt.jpg", "release_date": "1993-02-05", "title": "Sommersby", "video": false, "vote_average": 6.3, "vote_count": 183, "popularity": 9.768}, {"id": 30204, "video": false, "vote_count": 41, "vote_average": 6.8, "title": "Move Over, Darling", "release_date": "1963-12-19", "original_language": "en", "original_title": "Move Over, Darling", "genre_ids": [35, 10749], "backdrop_path": "/pypbpk9oxrEuymzX3a8Pfx7LEJl.jpg", "adult": false, "overview": "Three years into their loving marriage, with two infant daughters at home in Los Angeles, Nicholas Arden and Ellen Wagstaff Arden are on a plane that goes down in the South Pacific. Although most passengers manage to survive the incident, Ellen presumably perishes when swept off her lifeboat, her body never recovered. Fast forward five years. Nicky, wanting to move on with his life, has Ellen declared legally dead. Part of that moving on includes getting remarried, this time to a young woman named Bianca Steele, who, for their honeymoon, he plans to take to the same Monterrey resort where he and Ellen spent their honeymoon. On that very same day, Ellen is dropped off in Los Angeles by the Navy, who rescued her from the South Pacific island where she was stranded for the past five years. She asks the Navy not to publicize her rescue nor notify Nicky as she wants to do so herself.", "poster_path": "/biQMXkJWndCIgVstbh2HSfhMab6.jpg", "popularity": 5.165}, {"adult": false, "backdrop_path": "/tg2yYv6FpfUVkrbVz7iEDMACbxf.jpg", "genre_ids": [18], "id": 1986, "original_language": "fr", "original_title": "Va, vis et deviens", "overview": "In 1980 the black Falashas in Ethiopia are recognised as genuine Jews and are secretly carried to Israel. The day before the transport the son of a Jewish mother dies. In his place and with his name (Schlomo) she takes a Christian 9-year-old boy.", "poster_path": "/kc1GnNnFH99VWoSCQwPQ9ZslU4t.jpg", "release_date": "2005-03-30", "title": "Live and Become", "video": false, "vote_average": 7.4, "vote_count": 95, "popularity": 6.887}, {"id": 10927, "video": false, "vote_count": 52, "vote_average": 5.3, "title": "Back to Gaya", "release_date": "2004-03-18", "original_language": "en", "original_title": "Back to Gaya", "genre_ids": [16, 14], "backdrop_path": "/gwJPuLs3M9d7yufije30EGSBicR.jpg", "adult": false, "overview": "The beautiful world of Gaya is home to a community of creatures, known as the Snurks, who are much smaller than humans, but who have an uncanny resemblance to them. But the Snurks are facing imminent danger. Someone has stolen the magic stone called Dalamite without which this world is doomed. Two Snurks named Boo and Zino embark on a dangerous mission to track down and recover the stone. As they attempt to find the stone, their journey takes them into another world that is both strange and frightening!", "poster_path": "/t1gyuiIz9CsDhqktI71Pf865Vdl.jpg", "popularity": 6.161}, {"id": 245855, "video": false, "vote_count": 38, "vote_average": 6.1, "title": "Difret", "release_date": "2014-01-19", "original_language": "en", "original_title": "Difret", "genre_ids": [18], "backdrop_path": "/9ucz27FGvCiIEv7d5vSIa8UUBwv.jpg", "adult": false, "overview": "Three hours outside of Addis Ababa, a bright 14-year-old girl is on her way home from school when men on horses swoop in and kidnap her. The brave Hirut grabs a rifle and tries to escape, but ends up shooting her would-be husband. In her village the practice of abduction into marriage is common and one of Ethiopia\u2019s oldest traditions.  Meaza Ashenafi, an empowered and tenacious young lawyer, arrives from the city to represent Hirut and argue that she acted in self defense. Meaza boldly embarks on a collision course between enforcing civil authority and abiding by customary law, risking the ongoing work of her women\u2019s legal aid practice to save Hirut\u2019s life.", "poster_path": "/vcjdECnf9UFlSTynnll3Kyx5kKE.jpg", "popularity": 5.9}, {"id": 4546, "video": false, "vote_count": 54, "vote_average": 6.5, "title": "The Count of Monte-Cristo", "release_date": "1975-01-10", "original_language": "en", "original_title": "The Count of Monte-Cristo", "genre_ids": [28, 12, 18, 36, 10770], "backdrop_path": "/e5AZWSQhxmziTXzWTLmNPwc7JkH.jpg", "adult": false, "overview": "A TV adaptation of the classic Alexandre Dumas novel. Edmond Dantes is falsely accused by those jealous of his good fortune, and is sentenced to spend the rest of his life in the notorious island prison, Chateau d'If. While imprisoned, he meets the Abbe Faria, a fellow prisoner whom everyone believes to be mad. The Abbe tells Edmond of a fantastic treasure hidden away on a tiny island, that only he knows the location of. After many years in prison, the old Abbe dies, and Edmond escapes disguised as the dead body. Now free, Edmond must find the treasure the Abbe told him of, so he can use the new-found wealth to exact revenge on those who have wronged him.", "poster_path": "/lt2D4J4bdvTvIwQlBEczhkH8mee.jpg", "popularity": 8.053}, {"id": 1126, "video": false, "vote_count": 48, "vote_average": 7.7, "title": "In My Father's Den", "release_date": "2004-06-11", "original_language": "en", "original_title": "In My Father's Den", "genre_ids": [18, 53], "backdrop_path": "/enR3QQW5AtpNbRtSMsFPTX3eX4O.jpg", "adult": false, "overview": "Paul (Macfadyen), a prize-winning war journalist, returns to his remote New Zealand hometown due to the death of his father, battle-scarred and world-weary. For the discontented sixteen-year-old Celia (Barclay) he opens up a world she has only dreamed of. She actively pursues a friendship with him, fascinated by his cynicism and experience of the world beyond her small-town existence. But many, including the members of both their families (Otto, Moy), frown upon the friendship and when Celia goes missing, Paul becomes the increasingly loathed and persecuted prime suspect in her disappearance. As the violent and urgent truth gradually emerges, Paul is forced to confront the family tragedy and betrayal that he ran from as a youth, and to face the grievous consequences of silence and secrecy that has surrounded his entire adult life.", "poster_path": "/6ZQUlZc3nNNfiRcPYqx6FE2piBO.jpg", "popularity": 4.978}, {"adult": false, "backdrop_path": "/b10X9o2MhZXTmlvkbxAvPuUhL9n.jpg", "genre_ids": [28, 80, 53], "id": 9911, "original_language": "en", "original_title": "Outlaw", "overview": "A group of people who feel betrayed by their government and let down by their police force form a modern-day outlaw posse in order to right what they see as the wrongs of society.", "poster_path": "/Aqt352n9XUJP5pYt9eowBjyfMNu.jpg", "release_date": "2007-03-09", "title": "Outlaw", "video": false, "vote_average": 5.4, "vote_count": 77, "popularity": 7.808}, {"adult": false, "backdrop_path": "/hnnhmQxmQDZScI1SARveUg8Qfr6.jpg", "genre_ids": [12, 28, 53, 80, 9648], "id": 494, "original_language": "en", "original_title": "Shaft in Africa", "overview": "Detective John Shaft travels incognito to Ethiopia, then France, to bust a human trafficking ring.", "poster_path": "/fY5SLWGJTd50f2TsHokvXBOywQG.jpg", "release_date": "1973-06-14", "title": "Shaft in Africa", "video": false, "vote_average": 6.1, "vote_count": 15, "popularity": 4.992}], "total_pages": 3, "total_results": 53}, "recommendations": {"page": 1, "results": [{"adult": false, "backdrop_path": null, "genre_ids": [18], "id": 132141, "original_language": "pl", "original_title": "P\u0119tla", "overview": "After 10 years as a maker of short fiction, documentary &amp; science films, Has emerged to immediate success with his 1st feature, which covers a day in the life of an alcoholic. Adapted from a story by Marek Hlasko, the film initiates Has\u2019 recurrent obsession with the detailed odyssey of a character over a distinct passage of time. Nick Roddick called the potent climactic scene \u201cone of the most convincing portrayals of alco- holic abandon ever filmed\u201d, &amp; argued that this film, alongside The Saragossa Manuscript &amp; The Hourglass Sanatorium, \u201cconfirms Has\u2019s status as a neglected master\u201d.", "poster_path": "/g9gEYDy2HEj8i2rCLktaIBcL4dY.jpg", "release_date": "1958-01-19", "title": "The Noose", "video": false, "vote_average": 7.4, "vote_count": 11, "popularity": 1.841}], "total_pages": 1, "total_results": 1}, "credits": {"cast": [{"cast_id": 3, "character": "Anberber", "credit_id": "590db72ec3a36864ec00cf09", "gender": 0, "id": 1811518, "name": "Aaron Arefe", "order": 1, "profile_path": null}, {"cast_id": 4, "character": "Tesfaye", "credit_id": "590db73a9251414e9200dfd3", "gender": 0, "id": 1811519, "name": "Abiye Tedla", "order": 2, "profile_path": null}, {"cast_id": 5, "character": "Tadfe", "credit_id": "590db743c3a36864fc00da86", "gender": 0, "id": 1811520, "name": "Takelech Beyene", "order": 3, "profile_path": null}, {"cast_id": 6, "character": "Azanu", "credit_id": "590db74cc3a368646b00e985", "gender": 0, "id": 1811521, "name": "Teje Tesfahun", "order": 4, "profile_path": null}, {"cast_id": 7, "character": "Ayalew", "credit_id": "590db7559251414e8d00d9d3", "gender": 0, "id": 1811522, "name": "Nebiyu Baye", "order": 5, "profile_path": null}, {"cast_id": 8, "character": "Abdul", "credit_id": "590db76a9251414e8900e164", "gender": 0, "id": 1811523, "name": "Wuhib Bayu", "order": 6, "profile_path": null}, {"cast_id": 9, "character": "Cassandra", "credit_id": "590db7759251414e9200e00f", "gender": 0, "id": 1811524, "name": "Araba E. Johnston Arthur", "order": 7, "profile_path": null}, {"cast_id": 10, "character": "Gabi", "credit_id": "590db77fc3a368650a00d497", "gender": 0, "id": 1811525, "name": "Veronika Avraham", "order": 8, "profile_path": null}, {"cast_id": 11, "character": "Anberber as a child", "credit_id": "590db792c3a36864ec00cf40", "gender": 0, "id": 1811526, "name": "Mengistu Zelalem", "order": 9, "profile_path": null}], "crew": [{"credit_id": "52fe44df9251416c75043e0f", "department": "Directing", "gender": 2, "id": 72194, "job": "Director", "name": "Haile Gerima", "profile_path": "/v3bSuX0Qn3ighvB0xcxMUTy9sY8.jpg"}, {"credit_id": "57d77686925141536a000928", "department": "Writing", "gender": 2, "id": 72194, "job": "Screenplay", "name": "Haile Gerima", "profile_path": "/v3bSuX0Qn3ighvB0xcxMUTy9sY8.jpg"}, {"credit_id": "5b2b8d83925141650700601b", "department": "Crew", "gender": 0, "id": 240902, "job": "Cinematography", "name": "Mario Masini", "profile_path": null}, {"credit_id": "5b2b8d95925141650f005e78", "department": "Editing", "gender": 2, "id": 72194, "job": "Editor", "name": "Haile Gerima", "profile_path": "/v3bSuX0Qn3ighvB0xcxMUTy9sY8.jpg"}, {"credit_id": "5b2b8dbec3a3687d39004a2d", "department": "Editing", "gender": 0, "id": 2019092, "job": "Editor", "name": "Loren Lillian", "profile_path": null}, {"credit_id": "5b2b8dcfc3a3687d11006279", "department": "Sound", "gender": 0, "id": 1384601, "job": "Music", "name": "Vijay Iyer", "profile_path": null}, {"credit_id": "5b2b8df50e0a260860005c3d", "department": "Sound", "gender": 0, "id": 2069316, "job": "Music", "name": "Jorga Mesfin", "profile_path": null}, {"credit_id": "5b2b8e0c0e0a260860005c4a", "department": "Production", "gender": 2, "id": 72194, "job": "Producer", "name": "Haile Gerima", "profile_path": "/v3bSuX0Qn3ighvB0xcxMUTy9sY8.jpg"}, {"credit_id": "5b2b8e180e0a260854005a59", "department": "Production", "gender": 0, "id": 52730, "job": "Producer", "name": "Philippe Avril", "profile_path": "/7DZ6kVhbWa89d4xo0yeVFewbQLg.jpg"}, {"credit_id": "5b2b8e289251416507006064", "department": "Production", "gender": 2, "id": 1193, "job": "Producer", "name": "Karl Baumgartner", "profile_path": null}, {"credit_id": "5b2b8e5e92514164fc005c8d", "department": "Production", "gender": 0, "id": 2069317, "job": "Producer", "name": "Marie-Mich\u00e8legravele Cattelain", "profile_path": null}]}}