{"adult": false, "backdrop_path": null, "belongs_to_collection": null, "budget": 0, "genres": [{"id": 10749, "name": "Romance"}, {"id": 18, "name": "Drama"}], "homepage": null, "id": 124304, "imdb_id": "tt0106678", "original_language": "es", "original_title": "De eso no se habla", "overview": "Leonor, a widow in a small South American town, gives birth to Charlotte, a dwarf. The mother not only provides a rich childhood for her daughter, she erases any clues her daughter might see that would lead her to think she is different (mother burns books such as \"Snow White\" and destroys lawn statues of gnomes). In short, she doesn't want to talk about it. The mother succeeds in creating a modern-day Rapunzel: Charlotte becomes an accomplished young woman who captures the heart of Ludovico. But then, the circus comes to town.", "popularity": 1.428, "poster_path": "/ltxbdG9KuSZbAaunQeCGhPPCvRH.jpg", "production_companies": [{"id": 37352, "logo_path": null, "name": "Oscar Kramer S.A.", "origin_country": "AR"}, {"id": 37353, "logo_path": null, "name": "Aura Film", "origin_country": ""}, {"id": 37354, "logo_path": null, "name": "Mojame S.A.", "origin_country": ""}], "production_countries": [{"iso_3166_1": "AR", "name": "Argentina"}, {"iso_3166_1": "IT", "name": "Italy"}], "release_date": "1993-05-20", "revenue": 0, "runtime": 106, "spoken_languages": [{"iso_639_1": "es", "name": "Espa\u00f1ol"}], "status": "Released", "tagline": "", "title": "I Don't Want to Talk About It", "video": false, "vote_average": 6.0, "vote_count": 2, "keywords": {"keywords": [{"id": 604, "name": "dwarf"}, {"id": 1415, "name": "small town"}, {"id": 4129, "name": "widow"}, {"id": 10596, "name": "argentina"}, {"id": 187056, "name": "woman director"}]}, "similar": {"page": 1, "results": [{"id": 9813, "video": false, "vote_count": 128, "vote_average": 6.1, "title": "The Quiet", "release_date": "2005-09-12", "original_language": "en", "original_title": "The Quiet", "genre_ids": [18, 53], "backdrop_path": "/6eyWAZA4CEidZW1xXnQ4vlYBXTP.jpg", "adult": false, "overview": "After her widowed father dies, deaf teenager Dot moves in with her godparents, Olivia and Paul Deer. The Deers' daughter, Nina, is openly hostile to Dot, but that does not prevent her from telling her secrets to her silent stepsister, including the fact that she wants to kill her lecherous father.", "poster_path": "/GEqIE9YlmygHVUfS64LW2cwAAM.jpg", "popularity": 13.948}, {"adult": false, "backdrop_path": "/fZ8oFcREAr6wgWcXISGql0xyxjB.jpg", "genre_ids": [35, 18], "id": 39781, "original_language": "en", "original_title": "The Kids Are All Right", "overview": "Two women, Nic and Jules, brought a son and daughter into the world through artificial insemination. When one of their children reaches age, both kids go behind their mothers' backs to meet with the donor. Life becomes so much more interesting when the father, two mothers and children start to become attached to each other.", "poster_path": "/fPDeK4MmoGfi2X0oWZev7LrbMqM.jpg", "release_date": "2010-07-09", "title": "The Kids Are All Right", "video": false, "vote_average": 6.6, "vote_count": 923, "popularity": 12.703}, {"adult": false, "backdrop_path": "/nriBinb7Y3Bm6LdbmOC0mFxSm8d.jpg", "genre_ids": [80, 18], "id": 226, "original_language": "en", "original_title": "Boys Don't Cry", "overview": "Female born, Teena Brandon adopts his male identity of Brandon Teena and attempts to find himself and love in Nebraska.", "poster_path": "/6bqIZTEuJnUrgnxcymciszvOz8J.jpg", "release_date": "1999-09-02", "title": "Boys Don't Cry", "video": false, "vote_average": 7.5, "vote_count": 718, "popularity": 12.137}, {"id": 360814, "video": false, "vote_count": 407, "vote_average": 8.0, "title": "Dangal", "release_date": "2016-12-21", "original_language": "hi", "original_title": "\u0926\u0902\u0917\u0932", "genre_ids": [28, 18], "backdrop_path": "/mFCEeEjRfU2WU9vv5ApXJLzKxy7.jpg", "adult": false, "overview": "Dangal is an extraordinary true story based on the life of Mahavir Singh and his two daughters, Geeta and Babita Phogat. The film traces the inspirational journey of a father who trains his daughters to become world class wrestlers.", "poster_path": "/5PDT64gtbmH10gK5AYR7LZh5PQk.jpg", "popularity": 11.531}, {"adult": false, "backdrop_path": "/caLMOD3ZJ3V7qjlxDXrzlJfBLgD.jpg", "genre_ids": [18, 10749], "id": 20, "original_language": "en", "original_title": "My Life Without Me", "overview": "A Pedro Almodovar production in which a fatally ill mother with only two months to live creates a list of things she wants to do before she dies with out telling her family of her illness.", "poster_path": "/vVj92VBFUBzjqzLvBiPVVlJDp78.jpg", "release_date": "2003-03-07", "title": "My Life Without Me", "video": false, "vote_average": 6.1, "vote_count": 220, "popularity": 9.208}, {"id": 484247, "video": false, "vote_count": 2294, "vote_average": 6.6, "title": "A Simple Favor", "release_date": "2018-08-29", "original_language": "en", "original_title": "A Simple Favor", "genre_ids": [35, 80, 18, 9648, 53], "backdrop_path": "/nb1s8r6MhDcPyMjx3sjw9rFsEP5.jpg", "adult": false, "overview": "Stephanie, a dedicated mother and popular vlogger, befriends Emily, a mysterious upper-class woman whose son Nicky attends the same school as Miles, Stephanie's son. When Emily asks her to pick Nicky up from school and then disappears, Stephanie undertakes an investigation that will dive deep into Emily's cloudy past.", "poster_path": "/aIYsjQM0piKc0ibPBCTWv3sqshj.jpg", "popularity": 19.481}, {"adult": false, "backdrop_path": "/gZeJziVigmRqbkEZwKAtSqlLQ6s.jpg", "genre_ids": [18, 10749], "id": 370663, "original_language": "en", "original_title": "Below Her Mouth", "overview": "An unexpected affair quickly escalates into a heart-stopping reality for two women whose passionate connection changes their lives forever.", "poster_path": "/nTGbq37hYLuNy7YgMg0gVLma0NS.jpg", "release_date": "2016-09-10", "title": "Below Her Mouth", "video": false, "vote_average": 6.2, "vote_count": 456, "popularity": 22.676}, {"adult": false, "backdrop_path": "/eB43LYncKDJS3p5xYSUN9dUrL2A.jpg", "genre_ids": [18], "id": 205587, "original_language": "en", "original_title": "The Judge", "overview": "A successful lawyer returns to his hometown for his mother's funeral only to discover that his estranged father, the town's judge, is suspected of murder.", "poster_path": "/v6s65U6qisvxWgO3cNnreaaaite.jpg", "release_date": "2014-10-08", "title": "The Judge", "video": false, "vote_average": 7.3, "vote_count": 2562, "popularity": 16.888}, {"adult": false, "backdrop_path": "/k8H7ye6Sab7OrDJoo8Qp5WFGHGk.jpg", "genre_ids": [35, 10749, 18], "id": 244264, "original_language": "en", "original_title": "Laggies", "overview": "Overeducated and underemployed, 28 year old Megan is in the throes of a quarterlife crisis. Squarely into adulthood with no career prospects, no particular motivation to think about her future and no one to relate to, Megan is comfortable lagging a few steps behind - while her friends check off milestones and celebrate their new grown-up status. When her high-school sweetheart proposes, Megan panics and- given an unexpected opportunity to escape for a week - hides out in the home of her new friend, 16-year old Annika and Annika's world-weary single dad Craig.", "poster_path": "/dNcoXoRC7JHiqbe7k5Ufo6syiPP.jpg", "release_date": "2014-09-25", "title": "Laggies", "video": false, "vote_average": 6.1, "vote_count": 787, "popularity": 9.883}, {"adult": false, "backdrop_path": "/txtRue33MaXv5HQpTiHPOmOcDxE.jpg", "genre_ids": [35, 10749], "id": 11631, "original_language": "en", "original_title": "Mamma Mia!", "overview": "An independent, single mother who owns a small hotel on a Greek island is about to marry off the spirited young daughter she's raised alone. But, the daughter has secretly invited three of her mother's ex-lovers in the hopes of finding her biological father.", "poster_path": "/gOm2iMMbC6EonrFzmSQ8xvCa4Ei.jpg", "release_date": "2008-07-02", "title": "Mamma Mia!", "video": false, "vote_average": 6.9, "vote_count": 4120, "popularity": 16.652}, {"adult": false, "backdrop_path": "/npClMhFGn4XUkwu6coq5oKAEu6L.jpg", "genre_ids": [35, 10749, 18], "id": 634, "original_language": "en", "original_title": "Bridget Jones's Diary", "overview": "A chaotic Bridget Jones meets a snobbish lawyer, and he soon enters her world of imperfections.", "poster_path": "/ym6kjFFZg6boC0QHBVw6hqJLbxv.jpg", "release_date": "2001-04-13", "title": "Bridget Jones's Diary", "video": false, "vote_average": 6.7, "vote_count": 3079, "popularity": 16.678}, {"adult": false, "backdrop_path": "/ojn7IYKmMt8HXRd6oLwY5pLGLVc.jpg", "genre_ids": [18, 10749], "id": 9587, "original_language": "en", "original_title": "Little Women", "overview": "With their father away as a chaplain in the Civil War, Jo, Meg, Beth and Amy grow up with their mother in somewhat reduced circumstances. They are a close family who inevitably have their squabbles and tragedies. But the bond holds even when, later, male friends start to become a part of the household.", "poster_path": "/tD9YDE8pjtSvvKUpkmooE6YDSm8.jpg", "release_date": "1994-12-21", "title": "Little Women", "video": false, "vote_average": 7.2, "vote_count": 574, "popularity": 24.712}, {"id": 71688, "video": false, "vote_count": 1019, "vote_average": 6.4, "title": "The Iron Lady", "release_date": "2011-12-30", "original_language": "en", "original_title": "The Iron Lady", "genre_ids": [18, 36], "backdrop_path": "/dfM5XwQcw36HAnKhowEh5776MJl.jpg", "adult": false, "overview": "A look at the life of Margaret Thatcher, the former Prime Minister of the United Kingdom, with a focus on the price she paid for power.", "poster_path": "/e67tal4u66eFz8yGnJGTO5FYRxY.jpg", "popularity": 12.227}, {"adult": false, "backdrop_path": "/by0WtpJ5UNxOy6ytIfPPTasbRoB.jpg", "genre_ids": [28, 12, 35, 18, 10751, 10402, 10749], "id": 17130, "original_language": "en", "original_title": "Crossroads", "overview": "Three friends get together and bury a box making a pact to open it at midnight at their high school graduation. In the little town in Georgia that they live in, things soon change. One is little miss perfect, one is an engaged prom queen, and the other is a pregnant outcast. The night of graduation, they open the box and they strike up a conversation. All of a sudden, one brings up the topic of her going to Los Angeles for a record contract audition. They all decide to go together and they leave. With a little money, they set out on the road with a guy named Ben. When one of them tells the other a rumor that he might be a homicidal maniac they are all scared of him. When they reach LA, Lucy falls in love with Ben and against her father's wishes, she stays and she goes to the audition.", "poster_path": "/egIs4cWxn0iBErFKrQ7STckjj49.jpg", "release_date": "2002-02-15", "title": "Crossroads", "video": false, "vote_average": 5.0, "vote_count": 334, "popularity": 12.973}, {"id": 8913, "video": false, "vote_count": 1053, "vote_average": 6.5, "title": "Pet Sematary", "release_date": "1989-04-21", "original_language": "en", "original_title": "Pet Sematary", "genre_ids": [18, 27], "backdrop_path": "/sbm4pRbGNaqaHjx6fPXh1aQGTJO.jpg", "adult": false, "overview": "Dr. Louis Creed's family moves into the country house of their dreams and discover a pet cemetery at the back of their property. The cursed burial ground deep in the woods brings the dead back to life -- with \"minor\" problems. At first, only the family's cat makes the return trip, but an accident forces a heartbroken father to contemplate the unthinkable.", "poster_path": "/9zUax4pjRgoPIJla9CQejqNJofB.jpg", "popularity": 18.214}, {"adult": false, "backdrop_path": "/6tern9vOEwwmkDYC1vRCuO64z0C.jpg", "genre_ids": [10749, 18], "id": 475888, "original_language": "en", "original_title": "Tell It to the Bees", "overview": "Dr. Jean Markham returns to the town she left as a teenager to take over her late father's medical practice. When a school-yard scuffle lands Charlie in her surgery, she invites him to visit the hives in her garden and tell his secrets to the bees, as she once did. The new friendship between the boy and the bee keeper brings his mother Lydia into Jean's world.", "poster_path": "/Rj6zpHhMU1zFW3v28U4PSRSRgP.jpg", "release_date": "2019-05-03", "title": "Tell It to the Bees", "video": false, "vote_average": 6.4, "vote_count": 53, "popularity": 15.113}, {"adult": false, "backdrop_path": "/xOGEw8iywxcFMolV6SF6YdTdJTb.jpg", "genre_ids": [10402, 10749], "id": 52371, "original_language": "nl", "original_title": "LelleBelle", "overview": "19-year old Belle practices playing the violin diligently, but is unable to impart her music with a sensitive undertone. Her life changes when she discovers that sexual desire stimulates passion in her music.", "poster_path": "/nJVPgIq3icZMQ26p5uWIFdUZJfL.jpg", "release_date": "2010-10-08", "title": "LelleBelle", "video": false, "vote_average": 4.7, "vote_count": 41, "popularity": 13.931}, {"adult": false, "backdrop_path": "/rf6G51j0SZL0tP57I8gnqHTRFEr.jpg", "genre_ids": [35, 18, 10749], "id": 273153, "original_language": "fr", "original_title": "La belle saison", "overview": "In 1971, Carole and Delphine meet and fall in love in Paris. When Carole follows Delphine back to her family farm in Limousin, the two find lesbianism and feminism are not as easy in the countryside.", "poster_path": "/evvAkNMO5VJiy5qIo1Hu7fUfvVI.jpg", "release_date": "2015-08-19", "title": "Summertime", "video": false, "vote_average": 6.6, "vote_count": 162, "popularity": 15.434}, {"adult": false, "backdrop_path": "/knczzNAjBXzSYkeWxoT1u9VNmjR.jpg", "genre_ids": [10749, 18], "id": 258480, "original_language": "en", "original_title": "Carol", "overview": "In 1950s New York, a department-store clerk who dreams of a better life falls for an older, married woman.", "poster_path": "/AbKa7ANxmui0Jmhh7gV7OSELKIL.jpg", "release_date": "2015-11-20", "title": "Carol", "video": false, "vote_average": 7.4, "vote_count": 2182, "popularity": 14.185}, {"adult": false, "backdrop_path": "/eSs0CkWB5ASQgcx8Dr0uai3IRjT.jpg", "genre_ids": [18], "id": 339984, "original_language": "en", "original_title": "Miracles from Heaven", "overview": "When Christy discovers her 10-year-old daughter Anna has a rare, incurable disease, she becomes a ferocious advocate for her daughter\u2019s healing as she searches for a solution. After Anna has a freak accident and falls three stories, a miracle unfolds in the wake of her dramatic rescue that leaves medical specialists mystified, her family restored and their community inspired.", "poster_path": "/hz9VF1TfaM0D04pYneSXUkNeOZv.jpg", "release_date": "2016-03-17", "title": "Miracles from Heaven", "video": false, "vote_average": 7.2, "vote_count": 568, "popularity": 14.303}], "total_pages": 1293, "total_results": 25842}, "recommendations": {"page": 1, "results": [], "total_pages": 1, "total_results": 0}, "credits": {"cast": [{"cast_id": 3, "character": "Ludovico D'Andrea", "credit_id": "54590e5fc3a36839a4002056", "gender": 2, "id": 5676, "name": "Marcello Mastroianni", "order": 1, "profile_path": "/mZCdZhu5UfS8As8gSoyxYAsXVNl.jpg"}, {"cast_id": 4, "character": "Leonor", "credit_id": "54590e6c0e0a2611550021a3", "gender": 0, "id": 1077529, "name": "Luisina Brando", "order": 2, "profile_path": "/1uf8muvDYdn9T6RLbeeAK3Rebp9.jpg"}, {"cast_id": 5, "character": "Charlotte", "credit_id": "54590e780e0a26116a001f12", "gender": 0, "id": 1381778, "name": "Alejandra Podesta", "order": 3, "profile_path": null}, {"cast_id": 6, "character": "Madama", "credit_id": "54590e840e0a2611550021ab", "gender": 1, "id": 74900, "name": "Betiana Blum", "order": 4, "profile_path": "/o1AQf348JbAtX97NvATjOYyYBjZ.jpg"}, {"cast_id": 7, "character": "Padre Aurelio", "credit_id": "54590e91c3a368399d0020d1", "gender": 2, "id": 113365, "name": "Roberto Carnaghi", "order": 5, "profile_path": "/yA6whlfa1bkeWGKEGQkZz9DRAuv.jpg"}], "crew": [{"credit_id": "54590e2e0e0a261155002199", "department": "Writing", "gender": 1, "id": 1066960, "job": "Screenplay", "name": "Mar\u00eda Luisa Bemberg", "profile_path": "/i6SBI5OOBnpBAEG8yd7fRqYDlsX.jpg"}, {"credit_id": "52fe4aa8c3a368484e1602ed", "department": "Directing", "gender": 1, "id": 1066960, "job": "Director", "name": "Mar\u00eda Luisa Bemberg", "profile_path": "/i6SBI5OOBnpBAEG8yd7fRqYDlsX.jpg"}]}}