{"adult": false, "backdrop_path": "/fSEQZeeij386bpKVObEbwKsYAGl.jpg", "belongs_to_collection": null, "budget": 0, "genres": [{"id": 9648, "name": "Mystery"}, {"id": 37, "name": "Western"}], "homepage": null, "id": 124400, "imdb_id": "tt0051946", "original_language": "en", "original_title": "Money, Women and Guns", "overview": "Celebrated detective traces and finds beneficiaries to the will of a gold prospector murdered by bushwhackers.", "popularity": 2.02, "poster_path": "/w7SoUvz1hF9RKXauqC3JyXMA3a4.jpg", "production_companies": [{"id": 10330, "logo_path": "/nY62adzeba5GVK8LJYD6yd9R8H4.png", "name": "Universal International Pictures", "origin_country": ""}], "production_countries": [{"iso_3166_1": "US", "name": "United States of America"}], "release_date": "1958-10-01", "revenue": 0, "runtime": 80, "spoken_languages": [{"iso_639_1": "en", "name": "English"}], "status": "Released", "tagline": "All of them wanted to share his gold... one of them wanted to take his life!", "title": "Money, Women and Guns", "video": false, "vote_average": 4.0, "vote_count": 5, "keywords": {"keywords": [{"id": 1321, "name": "gold"}, {"id": 156035, "name": "gold prospector"}]}, "similar": {"page": 1, "results": [{"id": 3090, "video": false, "vote_count": 557, "vote_average": 8.1, "title": "The Treasure of the Sierra Madre", "release_date": "1948-01-24", "original_language": "en", "original_title": "The Treasure of the Sierra Madre", "genre_ids": [12, 18, 37], "backdrop_path": "/dDuNQNUdVMSKeEOwvuicc7m83IL.jpg", "adult": false, "overview": "Fred C. Dobbs and Bob Curtin, both down on their luck in Tampico, Mexico in 1925, meet up with a grizzled prospector named Howard and decide to join with him in search of gold in the wilds of central Mexico. Through enormous difficulties, they eventually succeed in finding gold, but bandits, the elements, and most especially greed threaten to turn their success into disaster.", "poster_path": "/e3lYTRwiDVPQv07xKldwlLAXikN.jpg", "popularity": 17.812}, {"adult": false, "backdrop_path": "/amzPM0vmM5iIRhHaxIo3fLBCMp3.jpg", "genre_ids": [18, 10749, 37], "id": 18721, "original_language": "en", "original_title": "The Far Country", "overview": "In 1896, Jeff Webster sees the start of the Klondike gold rush as a golden opportunity to make a fortune in beef...and woe betide anyone standing in his way! He drives a cattle herd from Wyoming to Seattle, by ship to Skagway, and (after a delay caused by larcenous town boss Gannon) through the mountains to Dawson. There, he and his partner Ben Tatum get into the gold business themselves. Two lovely women fall for misanthropic Jeff, but he believes in every-man-for-himself, turning his back on growing lawlessness...until it finally strikes home.", "poster_path": "/y6bwqu61d1HEhi6psgrd5qazc0e.jpg", "release_date": "1954-02-12", "title": "The Far Country", "video": false, "vote_average": 6.8, "vote_count": 57, "popularity": 7.007}, {"adult": false, "backdrop_path": "/iGAQZPnHLeXTaxZdKVUjLegWDom.jpg", "genre_ids": [35, 37], "id": 440161, "original_language": "en", "original_title": "The Sisters Brothers", "overview": "Oregon, 1851. Hermann Kermit Warm, a chemist and aspiring gold prospector, keeps a profitable secret that the Commodore wants to know, so he sends the Sisters brothers, two notorious assassins, to capture him on his way to California.", "poster_path": "/7Tl2nZ6uvmxwK14Skbf9VFHEHpX.jpg", "release_date": "2018-09-19", "title": "The Sisters Brothers", "video": false, "vote_average": 6.9, "vote_count": 895, "popularity": 13.758}, {"id": 20237, "video": false, "vote_count": 6, "vote_average": 6.8, "title": "The Adventures of Bullwhip Griffin", "release_date": "1967-03-08", "original_language": "en", "original_title": "The Adventures of Bullwhip Griffin", "genre_ids": [28, 35, 18, 37, 10751], "backdrop_path": "/bk0FRvHr36nmp0E8IO1h9MLkNIb.jpg", "adult": false, "overview": "Boston proper meets the Wild West as Roddy McDowall, Suzanne Pleshette, and Karl Malden star in a fish-out-of-water comedy for everyone! To restore his family's lost wealth, a young Boston lad stows away on a ship bound for the California Gold Rush. When their very proper butler gives chase, all roads lead to nonstop adventure, wild and woolly characters, and a lucky punch that leads to a bonanza of belly laughs!", "poster_path": "/cmCHhK8g7sOOTkqOVTbMqRdtrbI.jpg", "popularity": 18.424}, {"id": 962, "video": false, "vote_count": 721, "vote_average": 8.0, "title": "The Gold Rush", "release_date": "1925-06-25", "original_language": "en", "original_title": "The Gold Rush", "genre_ids": [12, 35, 18], "backdrop_path": "/m5eYy0SY33hLnxWAdrILJddTi49.jpg", "adult": false, "overview": "A lone prospector ventures into Alaska looking for gold. He gets mixed up with some burly characters and falls in love with the beautiful Georgia. He tries to win her heart with his singular charm.", "poster_path": "/eQRFo1qwRREYwj47Yoe1PisgOle.jpg", "popularity": 10.642}, {"adult": false, "backdrop_path": "/xGC2fY5KFmtuXnsuQwYQKFOLZFy.jpg", "genre_ids": [37], "id": 429, "original_language": "it", "original_title": "Il buono, il brutto, il cattivo", "overview": "While the Civil War rages between the Union and the Confederacy, three men \u2013 a quiet loner, a ruthless hit man and a Mexican bandit \u2013 comb the American Southwest in search of a strongbox containing $200,000 in stolen gold.", "poster_path": "/wfPHdfofBD5PN96dV96a51B3Ja2.jpg", "release_date": "1966-12-23", "title": "The Good, the Bad and the Ugly", "video": false, "vote_average": 8.4, "vote_count": 4582, "popularity": 33.627}, {"id": 6637, "video": false, "vote_count": 3261, "vote_average": 6.2, "title": "National Treasure: Book of Secrets", "release_date": "2007-12-13", "original_language": "en", "original_title": "National Treasure: Book of Secrets", "genre_ids": [28, 12, 9648, 53], "backdrop_path": "/ivrtuhSZnkEqzkdCyFXcH8UbPVp.jpg", "adult": false, "overview": "Benjamin Franklin Gates and Dr. Abigail Chase re-team with Riley Poole and, now armed with a stack of long-lost pages from John Wilkes Booth\u2019s diary, Ben must follow a clue left there to prove his ancestor\u2019s innocence in the assassination of Abraham Lincoln.", "poster_path": "/sHr05tz70r7y8A6XrdCBsHPK7tF.jpg", "popularity": 25.219}, {"id": 18118, "video": false, "vote_count": 76, "vote_average": 6.7, "title": "Mackenna's Gold", "release_date": "1969-03-18", "original_language": "en", "original_title": "Mackenna's Gold", "genre_ids": [28, 12, 37], "backdrop_path": "/eaI46zSrGHxPNGfBGmL1uVwlfaX.jpg", "adult": false, "overview": "The gangster Colorado kidnaps Marshal McKenna. He believes that McKenna has seen a map which leads to a rich vein of gold in the mountains and forces him to show him the way. But they're not the only ones who're after the gold; soon they meet a group of \"honorable\" citizens and the cavalry crosses their way too - and that is even before they enter Indian territory.", "poster_path": "/gujukqnKbYkh0DpNpb91PZmovym.jpg", "popularity": 11.665}, {"adult": false, "backdrop_path": "/wjYRvKoVtQjsD1PqVgF7gPtgrkY.jpg", "genre_ids": [37], "id": 6523, "original_language": "en", "original_title": "North to Alaska", "overview": "Sam and George strike gold in Alaska. George sends Sam to Seattle to bring George's fianc\u00e9 back to Alaska. Sam finds she is already married, and returns instead with Angel. Sam, after trying to get George and Angel together, finally romances Angel, who, in the meantime, is busy fighting off the advances of George's younger brother, Billy.", "poster_path": "/oWwmtHvNWEJYTGnUhoaw5TFJ28U.jpg", "release_date": "1960-11-07", "title": "North to Alaska", "video": false, "vote_average": 6.5, "vote_count": 49, "popularity": 7.559}, {"id": 12227, "video": false, "vote_count": 301, "vote_average": 6.6, "title": "White Fang", "release_date": "1991-01-18", "original_language": "en", "original_title": "White Fang", "genre_ids": [28, 12, 18, 10751], "backdrop_path": "/7dXf5hAExjnVbdmmWvrcDWX8EE8.jpg", "adult": false, "overview": "Jack London's classic adventure story about the friendship developed between a Yukon gold hunter and the mixed dog-wolf he rescues from the hands of a man who mistreats him.", "poster_path": "/27wg0rVZW8hX7nWeHCwTf9DygGc.jpg", "popularity": 11.997}, {"id": 11589, "video": false, "vote_count": 338, "vote_average": 7.4, "title": "Kelly's Heroes", "release_date": "1970-06-22", "original_language": "en", "original_title": "Kelly's Heroes", "genre_ids": [12, 35, 10752], "backdrop_path": "/js7WdYkmPDx8zHX0pgzhNuOTk77.jpg", "adult": false, "overview": "A misfit group of World War II American soldiers goes AWOL to rob a bank behind German lines.", "poster_path": "/lLFncrtTIz1hcteLbM9eKRflrMd.jpg", "popularity": 13.185}, {"adult": false, "backdrop_path": "/9YAVIwBcBrLXeukg2dgMGfYB1uu.jpg", "genre_ids": [12, 16, 10751, 10749], "id": 10530, "original_language": "en", "original_title": "Pocahontas", "overview": "Pocahontas, daughter of a Native American tribe chief, falls in love with an English soldier as colonists invade 17th century Virginia.", "poster_path": "/kZ1ft0QZ4e3zDUPMBftEkwI9ftd.jpg", "release_date": "1995-06-14", "title": "Pocahontas", "video": false, "vote_average": 6.9, "vote_count": 3587, "popularity": 26.574}, {"adult": false, "backdrop_path": "/aJCEQFFXNcfg5YneJzTG15qzxF7.jpg", "genre_ids": [28, 53], "id": 1572, "original_language": "en", "original_title": "Die Hard: With a Vengeance", "overview": "New York detective John McClane is back and kicking bad-guy butt in the third installment of this action-packed series, which finds him teaming with civilian Zeus Carver to prevent the loss of innocent lives. McClane thought he'd seen it all, until a genius named Simon engages McClane, his new \"partner\" -- and his beloved city -- in a deadly game that demands their concentration.", "poster_path": "/ivpXGcsPZglyYrN65THWSD7JM3q.jpg", "release_date": "1995-05-19", "title": "Die Hard: With a Vengeance", "video": false, "vote_average": 7.1, "vote_count": 3603, "popularity": 27.341}, {"adult": false, "backdrop_path": "/913sS08HhcTQTwz7X567iR6DLHn.jpg", "genre_ids": [12, 28, 53], "id": 682, "original_language": "en", "original_title": "The Man with the Golden Gun", "overview": "A golden bullet has 007 engraved on it as it smashes into the secret service headquarters. The bullet came from the professional killer Scaramanga who has yet to miss a target and James Bond begins a mission to try and stop him.", "poster_path": "/7VSVgxAvA7IdTf8T6Oon1eaReeJ.jpg", "release_date": "1974-12-01", "title": "The Man with the Golden Gun", "video": false, "vote_average": 6.5, "vote_count": 996, "popularity": 17.905}, {"id": 22, "video": false, "vote_count": 13524, "vote_average": 7.7, "title": "Pirates of the Caribbean: The Curse of the Black Pearl", "release_date": "2003-07-09", "original_language": "en", "original_title": "Pirates of the Caribbean: The Curse of the Black Pearl", "genre_ids": [28, 12, 14], "backdrop_path": "/8AUQ7YlJJA9C8kWk8P4YNHIcFDE.jpg", "adult": false, "overview": "Jack Sparrow, a freewheeling 18th-century pirate, quarrels with a rival pirate bent on pillaging Port Royal. When the governor's daughter is kidnapped, Sparrow decides to help the girl's love save her.", "poster_path": "/tkt9xR1kNX5R9rCebASKck44si2.jpg", "popularity": 49.826}, {"id": 818, "video": false, "vote_count": 1920, "vote_average": 5.9, "title": "Austin Powers in Goldmember", "release_date": "2002-07-26", "original_language": "en", "original_title": "Austin Powers in Goldmember", "genre_ids": [35, 80, 878], "backdrop_path": "/mzZraP6PV34eVjB8giKbKIMXVeW.jpg", "adult": false, "overview": "The world's most shagadelic spy continues his fight against Dr. Evil. This time, the diabolical doctor and his clone, Mini-Me, team up with a new foe -- '70s kingpin Goldmember. While pursuing the team of villains to stop them from world domination, Austin gets help from his dad and an old girlfriend.", "poster_path": "/tFR7dTbX5BsmoUwKHfa2cWoZbwK.jpg", "popularity": 23.167}, {"adult": false, "backdrop_path": "/n0z49k6qSB9QilogdbMHblUSZxp.jpg", "genre_ids": [28, 18], "id": 564147, "original_language": "kn", "original_title": "\u0c95\u0cc6\u0c9c\u0cbf\u0c8e\u0cab\u0ccd \u0c85\u0ca7\u0ccd\u0caf\u0cbe\u0caf \u0ce7", "overview": "A period drama set in the 1970s, KGF follows the story of a fierce rebel who rises against the brutal oppression in Kolar Gold Fields and becomes the symbol of hope to legions of downtrodden people.", "poster_path": "/ltHlJwvxKv7d0ooCiKSAvfwV9tX.jpg", "release_date": "2018-12-20", "title": "K.G.F: Chapter 1", "video": false, "vote_average": 7.5, "vote_count": 51, "popularity": 9.354}, {"adult": false, "backdrop_path": "/dtI76GsfzgNia0yIqnlv9QiFwwr.jpg", "genre_ids": [12, 18, 53], "id": 334524, "original_language": "en", "original_title": "Gold", "overview": "Kenny Wells, a modern-day prospector, hustler, and dreamer, is desperate for a lucky break. Left with few options, Wells teams up with an equally luckless geologist to execute a grandiose, last-ditch effort: to find gold deep in the uncharted jungle of Indonesia.", "poster_path": "/d6AipVF4SDYqxGeivfs3yzsNUs7.jpg", "release_date": "2016-12-22", "title": "Gold", "video": false, "vote_average": 6.6, "vote_count": 947, "popularity": 13.06}, {"id": 9654, "video": false, "vote_count": 3400, "vote_average": 6.7, "title": "The Italian Job", "release_date": "2003-05-30", "original_language": "en", "original_title": "The Italian Job", "genre_ids": [28, 80], "backdrop_path": "/JyoJwSfcLvfLxCGHUQYlCxvU77.jpg", "adult": false, "overview": "Charlie Croker pulled off the crime of a lifetime. The one thing that he didn't plan on was being double-crossed. Along with a drop-dead gorgeous safecracker, Croker and his team take off to re-steal the loot and end up in a pulse-pounding, pedal-to-the-metal chase that careens up, down, above and below the streets of Los Angeles.", "poster_path": "/jNRCNX1uDiUf6mteFxOBn30wL8Q.jpg", "popularity": 21.009}, {"adult": false, "backdrop_path": "/mJpepArAQPc14jprmaBEGbny2y8.jpg", "genre_ids": [28, 12, 35], "id": 6415, "original_language": "en", "original_title": "Three Kings", "overview": "A group of American soldiers stationed in Iraq at the end of the Gulf War find a map they believe will take them to a huge cache of stolen Kuwaiti gold hidden near their base, and they embark on a secret mission that's destined to change everything.", "poster_path": "/wvNga0QP6RWMRday7KgmTBbErwz.jpg", "release_date": "1999-09-27", "title": "Three Kings", "video": false, "vote_average": 6.6, "vote_count": 1174, "popularity": 17.542}], "total_pages": 15, "total_results": 285}, "recommendations": {"page": 1, "results": [{"adult": false, "backdrop_path": "/mUtpYWAfsNbJjcID1xsyNkXTyUJ.jpg", "genre_ids": [18, 28, 37], "id": 68082, "original_language": "en", "original_title": "Daniel Boone, Trail Blazer", "overview": "Daniel Boone leads settlers into Kentucky, but must battle Shawnee Indians who have been persuaded by a French renegade that Boone and the settlers are there to kill them and steal their land.", "poster_path": "/8duGXzNdMP3E7SLnsS2hi7Ak2hI.jpg", "release_date": "1956-10-05", "title": "Daniel Boone, Trail Blazer", "video": false, "vote_average": 3.7, "vote_count": 3, "popularity": 1.751}, {"id": 85849, "video": false, "vote_count": 6, "vote_average": 3.8, "title": "Five Guns West", "release_date": "1955-04-15", "original_language": "en", "original_title": "Five Guns West", "genre_ids": [28, 37], "backdrop_path": "/gowGTVPEbKTXyNNTt7gyS1PiEHl.jpg", "adult": false, "overview": "During the Civil War, five condemned Southern prisoners are plucked off Death Row and promised pardons on the condition that they undertake a mission to head west and bring back a double-crossing Confederate spy who has a stagecoach full of Confederate gold.", "poster_path": "/q5fvpn9jjJINZLtWBpoJ01RZkYT.jpg", "popularity": 2.941}, {"id": 40685, "video": false, "vote_count": 8, "vote_average": 4.6, "title": "In Old California", "release_date": "1942-05-31", "original_language": "en", "original_title": "In Old California", "genre_ids": [28, 37, 10749], "backdrop_path": "/2hZZdSKnCZPV7fHdf1LC21HS9CP.jpg", "adult": false, "overview": "Boston pharmacist Tom Craig comes to Sacramento, where he runs afoul of local political boss Britt Dawson, who exacts protection payment from the citizenry. Dawson frames Craig with poisoned medicine, but Craig redeems himself during a Gold Rush epidemic.", "poster_path": "/brYRaKurGMh49x3ZpySgeBioqas.jpg", "popularity": 6.243}], "total_pages": 1, "total_results": 3}, "credits": {"cast": [{"cast_id": 2, "character": "'Silver' Ward Hogan", "credit_id": "52fe4aabc3a368484e160cc9", "gender": 2, "id": 160432, "name": "Jock Mahoney", "order": 0, "profile_path": "/bUGUr4dL6c8TGcu4DlCBpVy8qbR.jpg"}, {"cast_id": 3, "character": "Mary Johnston Kingman", "credit_id": "52fe4aabc3a368484e160ccd", "gender": 1, "id": 10539, "name": "Kim Hunter", "order": 1, "profile_path": "/nB44EysedphcIWftSqyyG2qBYk8.jpg"}, {"cast_id": 4, "character": "Davy Kingman", "credit_id": "52fe4aabc3a368484e160cd1", "gender": 0, "id": 129999, "name": "Tim Hovey", "order": 2, "profile_path": "/oNVH6oJhqpgTvTNdtvBcSPqIsVc.jpg"}, {"cast_id": 5, "character": "Sheriff Abner Crowley", "credit_id": "52fe4aabc3a368484e160cd5", "gender": 2, "id": 89582, "name": "Gene Evans", "order": 3, "profile_path": "/eDYw74XKJXVV4R0psNtt6BaJuyk.jpg"}, {"cast_id": 6, "character": "Jess Ryerson", "credit_id": "52fe4aabc3a368484e160cd9", "gender": 2, "id": 13995, "name": "Tom Drake", "order": 4, "profile_path": "/26fzpI2BNUg2zxjmHuFmkyTdU31.jpg"}, {"cast_id": 7, "character": "Art Birdwell (as Lon Chaney)", "credit_id": "52fe4aabc3a368484e160cdd", "gender": 2, "id": 4072, "name": "Lon Chaney Jr.", "order": 5, "profile_path": "/cnuHF4xkziyAsS7IOCfpWbgdycu.jpg"}, {"cast_id": 8, "character": "Clinton 'Clint' Gunston", "credit_id": "52fe4aabc3a368484e160ce1", "gender": 2, "id": 15699, "name": "William Campbell", "order": 6, "profile_path": "/9msspDde4Vu8Q8KwreQkGT7Iu44.jpg"}, {"cast_id": 9, "character": "Johnny Bee", "credit_id": "52fe4aabc3a368484e160ce5", "gender": 0, "id": 150521, "name": "Jeffrey Stone", "order": 7, "profile_path": "/so5ok7UKtS7kFjFjQsytpHCnAFa.jpg"}, {"cast_id": 10, "character": "Henry Devers", "credit_id": "52fe4aabc3a368484e160ce9", "gender": 2, "id": 30537, "name": "James Gleason", "order": 8, "profile_path": "/ioE4cCouYzFRvqExhorQ5KmfCmq.jpg"}, {"cast_id": 11, "character": "Sally Gunston (as Judy Meredith)", "credit_id": "52fe4aabc3a368484e160ced", "gender": 1, "id": 34624, "name": "Judi Meredith", "order": 9, "profile_path": "/dm7VMBnZ9btfQxKFvfeiBydlf2B.jpg"}, {"cast_id": 12, "character": "Damian Bard", "credit_id": "52fe4aabc3a368484e160cf1", "gender": 2, "id": 101490, "name": "Phillip Terry", "order": 10, "profile_path": "/473QGrxknKxQUdR2ocrVVozbHb6.jpg"}, {"cast_id": 18, "character": "Setting Sun", "credit_id": "594eaf28c3a36832ca03af25", "gender": 2, "id": 102787, "name": "Richard Devon", "order": 11, "profile_path": "/7frn0z10Qwxf0Lmcofl8a8QpzNa.jpg"}, {"cast_id": 19, "character": "Nibbs", "credit_id": "594eaf37925141310803bd87", "gender": 2, "id": 4074, "name": "Ian MacDonald", "order": 12, "profile_path": "/k4iNtPUa3simoTQwgzyVigoyxwm.jpg"}, {"cast_id": 20, "character": "John Briggs", "credit_id": "594eaf44c3a36832bd03af46", "gender": 2, "id": 31208, "name": "Don Megowan", "order": 13, "profile_path": "/x1PLgA5v2e8zYBGwJ042zqJhAqJ.jpg"}], "crew": [{"credit_id": "5748a0a19251415452001d2f", "department": "Camera", "gender": 2, "id": 1939, "job": "Director of Photography", "name": "Philip H. Lathrop", "profile_path": null}, {"credit_id": "52fe4aabc3a368484e160cc5", "department": "Directing", "gender": 2, "id": 115994, "job": "Director", "name": "Richard Bartlett", "profile_path": null}, {"credit_id": "55686e7b925141469900173a", "department": "Production", "gender": 2, "id": 119492, "job": "Producer", "name": "Howie Horwitz", "profile_path": null}, {"credit_id": "55686eb4c3a3681c650025e0", "department": "Editing", "gender": 0, "id": 234679, "job": "Editor", "name": "Patrick McCormack", "profile_path": null}, {"credit_id": "55686e60c3a3681c7e002231", "department": "Writing", "gender": 2, "id": 1214584, "job": "Writer", "name": "Montgomery Pittman", "profile_path": null}]}}