{"adult": false, "backdrop_path": "/9dqepQBuizrCz7lchJfhvHPErVR.jpg", "belongs_to_collection": null, "budget": 0, "genres": [{"id": 18, "name": "Drama"}], "homepage": null, "id": 124571, "imdb_id": "tt0047385", "original_language": "en", "original_title": "Mask of Dust", "overview": "An idol of auto-racing fans attempts a comeback after serving in the Air Force. When his former rival lies dying in the hospital he must decide whether to continue in the Grand Prix, or make peace with his adversary. Featuring race car greats Stirling Moss, Reg Parnell, John Cooper, Alan Brown, Geoffrey Taylor and Leslie Marr.", "popularity": 0.905, "poster_path": "/zXioCuJol3xP37caXJWqVyptted.jpg", "production_companies": [{"id": 1314, "logo_path": "/gQBluDqe6dc2ZdzfJbabEHoSGoG.png", "name": "Hammer Film Productions", "origin_country": "GB"}], "production_countries": [{"iso_3166_1": "GB", "name": "United Kingdom"}], "release_date": "1954-12-10", "revenue": 0, "runtime": 79, "spoken_languages": [{"iso_639_1": "en", "name": "English"}], "status": "Released", "tagline": "Where every curve cries DANGER... One wrong move spells DEATH!", "title": "Mask of Dust", "video": false, "vote_average": 5.8, "vote_count": 2, "keywords": {"keywords": [{"id": 830, "name": "car race"}]}, "similar": {"page": 1, "results": [{"adult": false, "backdrop_path": "/w41zFKYTsq4wf5QnQJWMXuzWl2F.jpg", "genre_ids": [18, 28], "id": 96721, "original_language": "en", "original_title": "Rush", "overview": "A biographical drama centered on the rivalry between Formula 1 drivers James Hunt and Niki Lauda during the 1976 Formula One motor-racing season.", "poster_path": "/cjEepHZOZAwmK6nAj5jis6HV75E.jpg", "release_date": "2013-09-02", "title": "Rush", "video": false, "vote_average": 7.7, "vote_count": 4276, "popularity": 17.673}, {"id": 359724, "video": false, "vote_count": 972, "vote_average": 7.8, "title": "Ford v Ferrari", "release_date": "2019-11-13", "original_language": "en", "original_title": "Ford v Ferrari", "genre_ids": [28, 18, 36], "backdrop_path": "/mn9k8zapebAbCqsiKf24juhXjjx.jpg", "adult": false, "overview": "American car designer Carroll Shelby and the British-born driver Ken Miles work together to battle corporate interference, the laws of physics, and their own personal demons to build a revolutionary race car for Ford Motor Company and take on the dominating race cars of Enzo Ferrari at the 24 Hours of Le Mans in France in 1966.", "poster_path": "/6ApDtO7xaWAfPqfi2IARXIzj8QS.jpg", "popularity": 65.339}, {"id": 920, "video": false, "vote_count": 8603, "vote_average": 6.7, "title": "Cars", "release_date": "2006-06-08", "original_language": "en", "original_title": "Cars", "genre_ids": [12, 16, 35, 10751], "backdrop_path": "/a1MlbLBk5Sy6YvMbSuKfwGlDVlb.jpg", "adult": false, "overview": "Lightning McQueen, a hotshot rookie race car driven to succeed, discovers that life is about the journey, not the finish line, when he finds himself unexpectedly detoured in the sleepy Route 66 town of Radiator Springs. On route across the country to the big Piston Cup Championship in California to compete against two seasoned pros, McQueen gets to know the town's offbeat characters.", "poster_path": "/jpfkzbIXgKZqCZAkEkFH2VYF63s.jpg", "popularity": 58.103}, {"adult": false, "backdrop_path": "/ypyeMfKydpyuuTMdp36rMlkGDUL.jpg", "genre_ids": [28, 80, 53], "id": 168259, "original_language": "en", "original_title": "Furious 7", "overview": "Deckard Shaw seeks revenge against Dominic Toretto and his family for his comatose brother.", "poster_path": "/dCgm7efXDmiABSdWDHBDBx2jwmn.jpg", "release_date": "2015-04-01", "title": "Furious 7", "video": false, "vote_average": 7.3, "vote_count": 7044, "popularity": 28.011}, {"id": 10483, "video": false, "vote_count": 2255, "vote_average": 6.1, "title": "Death Race", "release_date": "2008-08-22", "original_language": "en", "original_title": "Death Race", "genre_ids": [28, 878, 53], "backdrop_path": "/m0JIsX9SLfHLxU1q6ud3ifJjXmC.jpg", "adult": false, "overview": "Terminal Island, New York: 2020. Overcrowding in the US penal system has reached a breaking point. Prisons have been turned over to a monolithic Weyland Corporation, which sees jails full of thugs as an opportunity for televised sport. Adrenalized inmates, a global audience hungry for violence and a spectacular, enclosed arena come together to form the 'Death Race', the biggest, most brutal event.", "poster_path": "/3dIZ049AxmvrvNiXKPc36YNum7g.jpg", "popularity": 19.876}, {"id": 522924, "video": false, "vote_count": 151, "vote_average": 8.1, "title": "The Art of Racing in the Rain", "release_date": "2019-08-08", "original_language": "en", "original_title": "The Art of Racing in the Rain", "genre_ids": [35, 18, 10749], "backdrop_path": "/6esNUoXh4xQvucB7o7e3TCfjI65.jpg", "adult": false, "overview": "A family dog\u2014with a near-human soul and a philosopher's mind\u2014evaluates his life through the lessons learned by his human owner, a race-car driver.", "poster_path": "/mi5VN4ww0JZgRFJIaPxxTGKjUg7.jpg", "popularity": 15.11}, {"id": 9679, "video": false, "vote_count": 2590, "vote_average": 6.3, "title": "Gone in Sixty Seconds", "release_date": "2000-06-09", "original_language": "en", "original_title": "Gone in Sixty Seconds", "genre_ids": [28, 80, 53], "backdrop_path": "/uqd4cqpp6gbs6zG6izBUaCorgjv.jpg", "adult": false, "overview": "Upon learning that he has to come out of retirement to steal 50 cars in one night to save his brother Kip's life, former car thief Randall \"Memphis\" Raines enlists help from a few \"boost happy\" pals to accomplish a seemingly impossible feat. From countless car chases to relentless cops, the high-octane excitement builds as Randall swerves around more than a few roadblocks to keep Kip alive.", "poster_path": "/77TxKvRiX0c5JR6l4fxcN19prOy.jpg", "popularity": 20.394}, {"id": 260514, "video": false, "vote_count": 2944, "vote_average": 6.7, "title": "Cars 3", "release_date": "2017-06-15", "original_language": "en", "original_title": "Cars 3", "genre_ids": [12, 16, 35, 10751], "backdrop_path": "/rND0GSv8X2Zzs7VhyFAs9BCEmYE.jpg", "adult": false, "overview": "Blindsided by a new generation of blazing-fast racers, the legendary Lightning McQueen is suddenly pushed out of the sport he loves. To get back in the game, he will need the help of an eager young race technician with her own plan to win, inspiration from the late Fabulous Hudson Hornet, and a few unexpected turns. Proving that #95 isn't through yet will test the heart of a champion on Piston Cup Racing\u2019s biggest stage!", "poster_path": "/fyy1nDC8wm553FCiBDojkJmKLCs.jpg", "popularity": 27.277}, {"id": 105, "video": false, "vote_count": 12168, "vote_average": 8.2, "title": "Back to the Future", "release_date": "1985-07-03", "original_language": "en", "original_title": "Back to the Future", "genre_ids": [12, 35, 878, 10751], "backdrop_path": "/x4N74cycZvKu5k3KDERJay4ajR3.jpg", "adult": false, "overview": "Eighties teenager Marty McFly is accidentally sent back in time to 1955, inadvertently disrupting his parents' first meeting and attracting his mother's romantic interest. Marty must repair the damage to history by rekindling his parents' romance and - with the help of his eccentric inventor friend Doc Brown - return to 1985.", "poster_path": "/pTpxQB1N0waaSc3OSn0e9oc8kx9.jpg", "popularity": 29.77}, {"id": 77950, "video": false, "vote_count": 1943, "vote_average": 6.1, "title": "Turbo", "release_date": "2013-07-11", "original_language": "en", "original_title": "Turbo", "genre_ids": [16, 10751], "backdrop_path": "/dvdKrICCKP8Uh1Xqkn60oQXnYer.jpg", "adult": false, "overview": "The tale of an ordinary garden snail who dreams of winning the Indy 500.", "poster_path": "/kajPlPUgobxci8ME5oqvzjN430q.jpg", "popularity": 17.728}, {"id": 82690, "video": false, "vote_count": 8488, "vote_average": 7.3, "title": "Wreck-It Ralph", "release_date": "2012-11-01", "original_language": "en", "original_title": "Wreck-It Ralph", "genre_ids": [12, 16, 35, 10751], "backdrop_path": "/1LbX3KV6qv6NoH4zKLGM7Sgtwmg.jpg", "adult": false, "overview": "Wreck-It Ralph is the 9-foot-tall, 643-pound villain of an arcade video game named Fix-It Felix Jr., in which the game's titular hero fixes buildings that Ralph destroys. Wanting to prove he can be a good guy and not just a villain, Ralph escapes his game and lands in Hero's Duty, a first-person shooter where he helps the game's hero battle against alien invaders. He later enters Sugar Rush, a kart racing game set on tracks made of candies, cookies and other sweets. There, Ralph meets Vanellope von Schweetz who has learned that her game is faced with a dire threat that could affect the entire arcade, and one that Ralph may have inadvertently started.", "poster_path": "/j8M1kHBAXa6KFNzGnWtdsVsLUro.jpg", "popularity": 30.267}, {"id": 49013, "video": false, "vote_count": 4530, "vote_average": 5.9, "title": "Cars 2", "release_date": "2011-06-11", "original_language": "en", "original_title": "Cars 2", "genre_ids": [12, 16, 35, 10751], "backdrop_path": "/jEcmZhtJkZQc6ta2vzBd9CU7GIx.jpg", "adult": false, "overview": "Star race car Lightning McQueen and his pal Mater head overseas to compete in the World Grand Prix race. But the road to the championship becomes rocky as Mater gets caught up in an intriguing adventure of his own: international espionage.", "poster_path": "/AblhtULOVtrkSnFxRPQ8gBemxw9.jpg", "popularity": 25.278}, {"id": 337339, "video": false, "vote_count": 6809, "vote_average": 6.9, "title": "The Fate of the Furious", "release_date": "2017-04-12", "original_language": "en", "original_title": "The Fate of the Furious", "genre_ids": [28, 80, 53], "backdrop_path": "/jzdnhRhG0dsuYorwvSqPqqnM1cV.jpg", "adult": false, "overview": "When a mysterious woman seduces Dom into the world of crime and a betrayal of those closest to him, the crew face trials that will test them as never before.", "poster_path": "/dImWM7GJqryWJO9LHa3XQ8DD5NH.jpg", "popularity": 24.034}, {"id": 19912, "video": false, "vote_count": 1802, "vote_average": 5.6, "title": "The Final Destination", "release_date": "2009-08-26", "original_language": "en", "original_title": "The Final Destination", "genre_ids": [27, 9648], "backdrop_path": "/166hLHfpVEvXpMQWqvFiqzUgZ6W.jpg", "adult": false, "overview": "After a young man's premonition of a deadly race-car crash helps saves the lives of his peers, Death sets out to collect those who evaded their end.", "poster_path": "/5vxXrr1MqGsT4NNeRITpfDnl4Rq.jpg", "popularity": 18.637}, {"id": 165, "video": false, "vote_count": 7689, "vote_average": 7.7, "title": "Back to the Future Part II", "release_date": "1989-11-22", "original_language": "en", "original_title": "Back to the Future Part II", "genre_ids": [12, 35, 878, 10751], "backdrop_path": "/snLFUFzWUZCdYkAbhZlaGJxiY3I.jpg", "adult": false, "overview": "Marty and Doc are at it again in this wacky sequel to the 1985 blockbuster as the time-traveling duo head to 2015 to nip some McFly family woes in the bud. But things go awry thanks to bully Biff Tannen and a pesky sports almanac. In a last-ditch attempt to set things straight, Marty finds himself bound for 1955 and face to face with his teenage parents -- again.", "poster_path": "/k5dzvCQkXU2CAhLtlj9BHE7xmyK.jpg", "popularity": 18.286}, {"id": 621, "video": false, "vote_count": 4342, "vote_average": 7.4, "title": "Grease", "release_date": "1978-07-07", "original_language": "en", "original_title": "Grease", "genre_ids": [10749], "backdrop_path": "/93wqWj6izOulKuONZ7rG7WxEjEe.jpg", "adult": false, "overview": "Australian good girl Sandy and greaser Danny fell in love over the summer. But when they unexpectedly discover they're now in the same high school, will they be able to rekindle their romance despite their eccentric friends?", "poster_path": "/iMHdFTrCYhue74sBnXkdO39AJ3R.jpg", "popularity": 32.862}, {"id": 401478, "video": false, "vote_count": 99, "vote_average": 5.6, "title": "Death Race: Beyond Anarchy", "release_date": "2018-10-02", "original_language": "en", "original_title": "Death Race: Beyond Anarchy", "genre_ids": [28, 878, 53], "backdrop_path": "/W8V8d9bjLZURgEGbIB5TC70yaj.jpg", "adult": false, "overview": "Black Ops specialist Connor Gibson infiltrates a maximum security prison to take down legendary driver Frankenstein in a violent and brutal car race.", "poster_path": "/1PrlKvPUbDQAqFQBCyyt68hLLl.jpg", "popularity": 26.141}, {"adult": false, "backdrop_path": "/7B3I7S9a4bLonbYw6XVcoDzW8RT.jpg", "genre_ids": [18, 10749], "id": 109689, "original_language": "es", "original_title": "Tengo ganas de ti", "overview": "Sequel to \"Three Steps Above Heaven\". The sexy Gin is the new love of Hache, but this can not forget his former girlfriend, so the love triangle is inevitable.", "poster_path": "/z13I3sWzOoKBDAEpJ7iK9bSznQn.jpg", "release_date": "2012-06-22", "title": "I Want You", "video": false, "vote_average": 6.7, "vote_count": 694, "popularity": 17.432}, {"id": 136797, "video": false, "vote_count": 2605, "vote_average": 6.1, "title": "Need for Speed", "release_date": "2014-03-13", "original_language": "en", "original_title": "Need for Speed", "genre_ids": [28, 80, 18, 53], "backdrop_path": "/kiLEAfRQhs93r3tSsQFpD2EpbyR.jpg", "adult": false, "overview": "The film revolves around a local street-racer who partners with a rich and arrogant business associate, only to find himself framed by his colleague and sent to prison. After he gets out, he joins a New York-to-Los Angeles race to get revenge. But when the ex-partner learns of the scheme, he puts a massive bounty on the racer's head, forcing him to run a cross-country gauntlet of illegal racers in all manner of supercharged vehicles.", "poster_path": "/lN0mP3BNaKirkKl6FJ0yL0wmjSJ.jpg", "popularity": 18.669}, {"adult": false, "backdrop_path": "/bseydp1fQprD46706fkYijd4Q3t.jpg", "genre_ids": [28, 53, 878], "id": 51620, "original_language": "en", "original_title": "Death Race 2", "overview": "In the world's most dangerous prison, a new game is born: Death Race. The rules of this adrenaline-fueled blood sport are simple, drive or die. When repentant convict Carl Lucas discovers there's a price on his head, his only hope is to survive a twisted race against an army of hardened criminals and tricked-out cars.", "poster_path": "/5ARRXaWPgtIT9qKl8Db3MNuGvo3.jpg", "release_date": "2010-11-12", "title": "Death Race 2", "video": false, "vote_average": 5.6, "vote_count": 633, "popularity": 12.491}], "total_pages": 15, "total_results": 293}, "recommendations": {"page": 1, "results": [], "total_pages": 1, "total_results": 0}, "credits": {"cast": [{"cast_id": 2, "character": "Peter Wells", "credit_id": "52fe4aafc3a368484e161745", "gender": 2, "id": 3090, "name": "Richard Conte", "order": 0, "profile_path": "/5682H8oxwIezxImi7HiFnBYLL4V.jpg"}, {"cast_id": 3, "character": "Patricia Wells", "credit_id": "52fe4aafc3a368484e161749", "gender": 1, "id": 161970, "name": "Mari Aldon", "order": 1, "profile_path": "/mX5kzwKOU7Frnf9D0e7lDkJu4LU.jpg"}, {"cast_id": 4, "character": "Tony Bellario", "credit_id": "52fe4aafc3a368484e16174d", "gender": 2, "id": 109849, "name": "Peter Illing", "order": 2, "profile_path": "/gLhC9AkaQK32YUYuI0CsvQxwyDG.jpg"}, {"cast_id": 5, "character": "Guido Rosetti", "credit_id": "52fe4aafc3a368484e161751", "gender": 2, "id": 94271, "name": "Alec Mango", "order": 3, "profile_path": "/zx45t5A5G6keaZGPUflV5Jeyhs3.jpg"}, {"cast_id": 6, "character": "Johnny Jackson, mechanic", "credit_id": "52fe4aafc3a368484e161755", "gender": 2, "id": 202305, "name": "James Copeland", "order": 4, "profile_path": "/sPaPzVs0sboChHJq9KeV9fZzLoS.jpg"}, {"cast_id": 7, "character": "'Pic' Dallapiccola", "credit_id": "52fe4aafc3a368484e161759", "gender": 2, "id": 11028, "name": "George Coulouris", "order": 5, "profile_path": "/aJWYZnxtEmr79o97Qv5rsfNMHoj.jpg"}, {"cast_id": 8, "character": "Laurence Gibson", "credit_id": "52fe4aafc3a368484e16175d", "gender": 2, "id": 136977, "name": "Meredith Edwards", "order": 6, "profile_path": "/ivJK36FyHwABaniNkjym2OisvuQ.jpg"}, {"cast_id": 15, "character": "Cynical Reporter in Lounge", "credit_id": "5764cbfa92514168f20002c7", "gender": 2, "id": 184981, "name": "Edwin Richfield", "order": 7, "profile_path": "/kVkYmsz46Cb7Wq43U3Ousb2zpmH.jpg"}, {"cast_id": 10, "character": "Hans Brecht, racer", "credit_id": "52fe4aafc3a368484e161765", "gender": 2, "id": 6612, "name": "Richard Marner", "order": 9, "profile_path": "/r9g2sRTyYztWcG3UmFTJEcuVbXI.jpg"}, {"cast_id": 16, "character": "Alvarez - racer", "credit_id": "5b4da7d5c3a36823e605864d", "gender": 2, "id": 1242611, "name": "Tim Turner", "order": 10, "profile_path": null}, {"cast_id": 17, "character": "Martin - racer", "credit_id": "5b4da7fd9251417d0f048cc2", "gender": 0, "id": 185968, "name": "Jeremy Hawk", "order": 11, "profile_path": null}], "crew": [{"credit_id": "52fe4aafc3a368484e161741", "department": "Directing", "gender": 2, "id": 29662, "job": "Director", "name": "Terence Fisher", "profile_path": "/53YMKaZBJSEWvPAOAGJpWkttXee.jpg"}, {"credit_id": "5627e8bf92514116a20003b3", "department": "Writing", "gender": 2, "id": 30040, "job": "Writer", "name": "Richard H. Landau", "profile_path": null}, {"credit_id": "5627e8d59251411699000329", "department": "Writing", "gender": 0, "id": 133083, "job": "Novel", "name": "Jon Manchip White", "profile_path": null}, {"credit_id": "5627e8c9c3a368728d000396", "department": "Writing", "gender": 0, "id": 567222, "job": "Screenplay", "name": "Paul Tabori", "profile_path": null}]}}