{"adult": false, "backdrop_path": null, "belongs_to_collection": null, "budget": 0, "genres": [{"id": 18, "name": "Drama"}], "homepage": null, "id": 124979, "imdb_id": "tt0137048", "original_language": "fi", "original_title": "Juha", "overview": "Eastern Finland in 18th century. Farmer Juha has raised an orphan girl Marja and married her. Karelian trader Shemeikka visits the farm and starts to make advances to young and beautiful Marja, tempting her to run away with him.", "popularity": 0.6, "poster_path": "/AqeKFteHFNYH6qt4AmNMs0nQ8TK.jpg", "production_companies": [{"id": 67128, "logo_path": null, "name": "Aho & Soldan", "origin_country": ""}], "production_countries": [{"iso_3166_1": "FI", "name": "Finland"}], "release_date": "1937-01-24", "revenue": 0, "runtime": 101, "spoken_languages": [{"iso_639_1": "fi", "name": "suomi"}], "status": "Released", "tagline": "", "title": "Juha", "video": false, "vote_average": 5.0, "vote_count": 1, "keywords": {"keywords": [{"id": 708, "name": "runaway"}, {"id": 9094, "name": "womanizer"}, {"id": 160279, "name": "18th century"}]}, "similar": {"page": 1, "results": [{"adult": false, "backdrop_path": "/uYusKBIK023fGZm5QycSpcfYbR4.jpg", "genre_ids": [18], "id": 2567, "original_language": "en", "original_title": "The Aviator", "overview": "A biopic depicting the life of filmmaker and aviation pioneer Howard Hughes from 1927 to 1947, during which time he became a successful film producer and an aviation magnate, while simultaneously growing more unstable due to severe obsessive-compulsive disorder.", "poster_path": "/3MKBQgIHI5DPVNvryiTesskS5mf.jpg", "release_date": "2004-12-17", "title": "The Aviator", "video": false, "vote_average": 7.2, "vote_count": 3055, "popularity": 21.267}, {"id": 197, "video": false, "vote_count": 6047, "vote_average": 7.9, "title": "Braveheart", "release_date": "1995-05-24", "original_language": "en", "original_title": "Braveheart", "genre_ids": [28, 18, 36, 10752], "backdrop_path": "/7A3uAcB6KAScHcFw0giptE1mhAZ.jpg", "adult": false, "overview": "Enraged at the slaughter of Murron, his new bride and childhood love, Scottish warrior William Wallace slays a platoon of the local English lord's soldiers. This leads the village to revolt and, eventually, the entire country to rise up against English rule.", "poster_path": "/or1gBugydmjToAEq7OZY0owwFk.jpg", "popularity": 23.118}, {"id": 11416, "video": false, "vote_count": 688, "vote_average": 7.4, "title": "The Mission", "release_date": "1986-09-29", "original_language": "en", "original_title": "The Mission", "genre_ids": [28, 12, 18, 36], "backdrop_path": "/22GLW4Qgs7NycHLjsp8whRCuky4.jpg", "adult": false, "overview": "When a Spanish Jesuit goes into the South American wilderness to build a mission in the hope of converting the Indians of the region, a slave hunter is converted and joins his mission. When Spain sells the colony to Portugal, they are forced to defend all they have built against the Portugese aggressors.", "poster_path": "/oTU13XXz4WHisDWKX3X6dFWEjC0.jpg", "popularity": 11.33}, {"adult": false, "backdrop_path": "/9IfO3W1MUzDdpBqY1Ru6dzdJJld.jpg", "genre_ids": [18, 36, 10752, 28], "id": 2024, "original_language": "en", "original_title": "The Patriot", "overview": "After proving himself on the field of battle in the French and Indian War, Benjamin Martin wants nothing more to do with such things, preferring the simple life of a farmer. But when his son Gabriel enlists in the army to defend their new nation, America, against the British, Benjamin reluctantly returns to his old life to protect his son.", "poster_path": "/tgXOraQmKatqrVs2KMgnNn6QpO.jpg", "release_date": "2000-06-28", "title": "The Patriot", "video": false, "vote_average": 7.1, "vote_count": 2186, "popularity": 22.486}, {"id": 50646, "video": false, "vote_count": 5060, "vote_average": 7.2, "title": "Crazy, Stupid, Love.", "release_date": "2011-07-29", "original_language": "en", "original_title": "Crazy, Stupid, Love.", "genre_ids": [35, 18, 10749], "backdrop_path": "/6ECnUXleS9G2O02f1b5tvZiVn3D.jpg", "adult": false, "overview": "Cal Weaver is living the American dream. He has a good job, a beautiful house, great children and a beautiful wife, named Emily. Cal's seemingly perfect life unravels, however, when he learns that Emily has been unfaithful and wants a divorce. Over 40 and suddenly single, Cal is adrift in the fickle world of dating. Enter, Jacob Palmer, a self-styled player who takes Cal under his wing and teaches him how to be a hit with the ladies.", "poster_path": "/n97V1WcpoJ8gBA0pM48Om05o2fN.jpg", "popularity": 22.649}, {"adult": false, "backdrop_path": "/ph5fElfh4U7O3jwhFljxz2LDp1l.jpg", "genre_ids": [18, 36], "id": 375262, "original_language": "en", "original_title": "The Favourite", "overview": "England, early 18th century. The close relationship between Queen Anne and Sarah Churchill is threatened by the arrival of Sarah's cousin, Abigail Hill, resulting in a bitter rivalry between the two cousins to be the Queen's favourite.", "poster_path": "/cwBq0onfmeilU5xgqNNjJAMPfpw.jpg", "release_date": "2018-11-23", "title": "The Favourite", "video": false, "vote_average": 7.6, "vote_count": 2823, "popularity": 28.019}, {"adult": false, "backdrop_path": "/wcyLZBgMlUXi4CQ8IVAO31rqNih.jpg", "genre_ids": [18, 36, 53], "id": 1852, "original_language": "en", "original_title": "World Trade Center", "overview": "On September, 11th 2001, after the terrorist attack to the World Trade Center, the building collapses over the rescue team from the Port Authority Police Department. Will Jimeno and his sergeant John McLoughlin are found alive trapped under the wreckage while the rescue teams fight to save them.", "poster_path": "/hYbKIxMGqm0YaxGBYW52NbkYNAx.jpg", "release_date": "2006-08-09", "title": "World Trade Center", "video": false, "vote_average": 6.1, "vote_count": 883, "popularity": 19.632}, {"id": 146, "video": false, "vote_count": 1771, "vote_average": 7.3, "title": "Crouching Tiger, Hidden Dragon", "release_date": "2000-07-06", "original_language": "zh", "original_title": "\u5367\u864e\u85cf\u9f99", "genre_ids": [28, 12, 18, 10749], "backdrop_path": "/dKenGLffFC9HwuxG4Sq7fJRkiFb.jpg", "adult": false, "overview": "Two warriors in pursuit of a stolen sword and a notorious fugitive are led to an impetuous, physically-skilled, teenage nobleman's daughter, who is at a crossroads in her life.", "poster_path": "/3yYPhffQRuy45HlNabFxNLyP9mg.jpg", "popularity": 20.102}, {"adult": false, "backdrop_path": "/GRyynLqafMrLFMHqvfGdUweavA.jpg", "genre_ids": [27, 18, 14], "id": 628, "original_language": "en", "original_title": "Interview with the Vampire", "overview": "A vampire relates his epic life story of love, betrayal, loneliness, and dark hunger to an over-curious reporter.", "poster_path": "/hldXwwViSfHJS0kIJr07KBGmHJI.jpg", "release_date": "1994-11-11", "title": "Interview with the Vampire", "video": false, "vote_average": 7.3, "vote_count": 3231, "popularity": 21.064}, {"id": 463257, "video": false, "vote_count": 195, "vote_average": 7.3, "title": "The Peanut Butter Falcon", "release_date": "2019-08-09", "original_language": "en", "original_title": "The Peanut Butter Falcon", "genre_ids": [12, 35, 18], "backdrop_path": "/4NJ9Wbib4YfvnZyyvV8WSLOAQUh.jpg", "adult": false, "overview": "A down-on-his-luck crab fisherman embarks on a journey to get a young man with Down syndrome to a professional wrestling school in rural North Carolina and away from the retirement home where he\u2019s lived for the past two and a half years.", "poster_path": "/qyQcRGvdW3VtxHR4fSDgPOePEip.jpg", "popularity": 21.937}, {"id": 531428, "video": false, "vote_count": 213, "vote_average": 8.4, "title": "Portrait of a Lady on Fire", "release_date": "2019-06-17", "original_language": "fr", "original_title": "Portrait de la jeune fille en feu", "genre_ids": [18, 10749], "backdrop_path": "/joXf2ToDZjVMBxWrzijQ3V9cC8p.jpg", "adult": false, "overview": "On an isolated island in Brittany at the end of the eighteenth century, a female painter is obliged to paint a wedding portrait of a young woman.", "poster_path": "/3NTEMlG5mQdIAlKDl3AJG0rX29Z.jpg", "popularity": 35.723}, {"id": 859, "video": false, "vote_count": 596, "vote_average": 7.3, "title": "Dangerous Liaisons", "release_date": "1988-12-16", "original_language": "en", "original_title": "Dangerous Liaisons", "genre_ids": [18, 10749], "backdrop_path": "/dhaX2NXwPyCVML8Iy7ul38wfmY3.jpg", "adult": false, "overview": "In 18th century France, Marquise de Merteuil asks her ex-lover Vicomte de Valmont to seduce the future wife of another ex-lover of hers in return for one last night with her. Yet things don\u2019t go as planned.", "poster_path": "/2rXbkUzM5ySwh3FmsFWSZdkMiaP.jpg", "popularity": 16.76}, {"id": 321612, "video": false, "vote_count": 11799, "vote_average": 6.9, "title": "Beauty and the Beast", "release_date": "2017-03-16", "original_language": "en", "original_title": "Beauty and the Beast", "genre_ids": [14, 10749, 10751], "backdrop_path": "/6aUWe0GSl69wMTSWWexsorMIvwU.jpg", "adult": false, "overview": "A live-action adaptation of Disney's version of the classic tale of a cursed prince and a beautiful young woman who helps him break the spell.", "poster_path": "/tWqifoYuwLETmmasnGHO7xBjEtt.jpg", "popularity": 47.679}, {"adult": false, "backdrop_path": "/aWLIsFyLSX81Z0ORQQpxMFm1zFw.jpg", "genre_ids": [35], "id": 188222, "original_language": "en", "original_title": "Entourage", "overview": "Movie star Vincent Chase, together with his boys, Eric, Turtle and Johnny, are back\u2026and back in business with super agent-turned-studio head Ari Gold. Some of their ambitions have changed, but the bond between them remains strong as they navigate the capricious and often cutthroat world of Hollywood.", "poster_path": "/eXFOwg43NeZAv4BgXTlmdp7pzRG.jpg", "release_date": "2015-06-03", "title": "Entourage", "video": false, "vote_average": 6.2, "vote_count": 669, "popularity": 18.152}, {"id": 59436, "video": false, "vote_count": 4450, "vote_average": 7.5, "title": "Midnight in Paris", "release_date": "2011-05-11", "original_language": "en", "original_title": "Midnight in Paris", "genre_ids": [35, 14, 10749], "backdrop_path": "/7sIDEHnw51k7Him2fEtA70I1OBw.jpg", "adult": false, "overview": "A romantic comedy about a family traveling to the French capital for business. The party includes a young engaged couple forced to confront the illusion that a life different from their own is better.", "poster_path": "/xxSopLYATHXSepXcEaBh9Gazv6p.jpg", "popularity": 18.329}, {"adult": false, "backdrop_path": "/np7OqT3CPlm5FF0wMKIKAFqIfFn.jpg", "genre_ids": [35, 18], "id": 338768, "original_language": "en", "original_title": "Please Stand By", "overview": "A young autistic woman runs away from her caregiver in order to boldly go and deliver her 500-page Star Trek script to a writing competition in Hollywood. On an adventure full of laughter and tears, Wendy follows the guiding spirit of Mr. Spock on her journey into the unknown.", "poster_path": "/yKhrjxmbdCjdxROc7lJhmfZ9trx.jpg", "release_date": "2018-01-26", "title": "Please Stand By", "video": false, "vote_average": 6.8, "vote_count": 222, "popularity": 8.739}, {"id": 279, "video": false, "vote_count": 2314, "vote_average": 8.0, "title": "Amadeus", "release_date": "1984-09-06", "original_language": "en", "original_title": "Amadeus", "genre_ids": [18, 36, 10402], "backdrop_path": "/6GMcKubg3KmrE8snLOCNAtsZWW2.jpg", "adult": false, "overview": "The incredible story of genius musician Wolfgang Amadeus Mozart, told in flashback by his peer and secret rival, Antonio Salieri\u2014now confined to an insane asylum.", "poster_path": "/flnoqdC38mbaulAeptjynOFO7yi.jpg", "popularity": 25.139}, {"id": 3981, "video": false, "vote_count": 2285, "vote_average": 6.3, "title": "What Women Want", "release_date": "2000-12-15", "original_language": "en", "original_title": "What Women Want", "genre_ids": [35, 10749], "backdrop_path": "/hUCf8nuuSjUwWlOmTVVPXJHl97v.jpg", "adult": false, "overview": "Advertising executive Nick Marshall is as cocky as they come, but what happens to a chauvinistic guy when he can suddenly hear what women are thinking? Nick gets passed over for a promotion, but after an accident enables him to hear women's thoughts, he puts his newfound talent to work against Darcy, his new boss, who seems to be infatuated with him.", "poster_path": "/xiL4PMdL2b5RRdsfEkGmaol2ScW.jpg", "popularity": 16.266}, {"id": 9361, "video": false, "vote_count": 1575, "vote_average": 7.3, "title": "The Last of the Mohicans", "release_date": "1992-09-25", "original_language": "en", "original_title": "The Last of the Mohicans", "genre_ids": [28, 12, 18, 36, 10749, 10752], "backdrop_path": "/fRkIu9XNb4Xi9k5ikAxGTiDrj1G.jpg", "adult": false, "overview": "As the British and French soldiers battle for control of the American colonies in the 18th century, the settlers and native Americans are forced to take sides. Cora and her sister Alice unwittingly walk into trouble but are reluctantly saved by Hawkeye, an orphaned settler adopted by the last of the Mohicans.", "poster_path": "/6FHoUoYrfmwXJsDIR0s8YvV1Ctj.jpg", "popularity": 17.282}, {"adult": false, "backdrop_path": "/fewP7EsMEnfqqcx4qYHKSKebwkF.jpg", "genre_ids": [28, 18, 36], "id": 2669, "original_language": "en", "original_title": "The Bounty", "overview": "The familiar story of Lieutenant Bligh, whose cruelty leads to a mutiny on his ship. This version follows both the efforts of Fletcher Christian to get his men beyond the reach of British retribution, and the epic voyage of Lieutenant Bligh to get his loyalists safely to East Timor in a tiny lifeboat.", "poster_path": "/hXFXIc6F4NXI5emWCKcUwqEPjIZ.jpg", "release_date": "1984-05-04", "title": "The Bounty", "video": false, "vote_average": 6.7, "vote_count": 246, "popularity": 10.539}], "total_pages": 18, "total_results": 354}, "recommendations": {"page": 1, "results": [], "total_pages": 1, "total_results": 0}, "credits": {"cast": [{"cast_id": 6, "character": "Juha", "credit_id": "563ae37fc3a3681b5c02545c", "gender": 0, "id": 1270127, "name": "Hannes N\u00e4rhi", "order": 1, "profile_path": null}, {"cast_id": 7, "character": "Marja", "credit_id": "563ae389c3a3681b5c02545e", "gender": 0, "id": 1364446, "name": "Irma Seikkula", "order": 2, "profile_path": null}, {"cast_id": 8, "character": "Shemeikka", "credit_id": "563ae394c3a3681b610246e6", "gender": 0, "id": 1531735, "name": "Walle Saikko", "order": 3, "profile_path": null}, {"cast_id": 9, "character": "Anja", "credit_id": "563ae39fc3a3681b5e02246c", "gender": 0, "id": 100987, "name": "Tuulikki Paananen", "order": 4, "profile_path": "/zXBw4EY6wdKkRV4CtaMdNmWftIa.jpg"}, {"cast_id": 10, "character": "Shemeikan \u00e4iti (Shemeikka's mother)", "credit_id": "563ae3aec3a3681b610246f4", "gender": 0, "id": 1531737, "name": "Aino Haverinen", "order": 5, "profile_path": null}, {"cast_id": 11, "character": "Anoppi (Juha's mother)", "credit_id": "563ae3bfc3a3681b5c025464", "gender": 0, "id": 1531738, "name": "Ida Kuusela", "order": 6, "profile_path": null}, {"cast_id": 12, "character": "Kaisa", "credit_id": "563ae3cd92514129fe015737", "gender": 0, "id": 1531739, "name": "Hilma Vainikainen", "order": 7, "profile_path": null}, {"cast_id": 13, "character": "Kes\u00e4tytt\u00f6 (Summer girl)", "credit_id": "563ae3dac3a3681b5c02546b", "gender": 0, "id": 1531740, "name": "Kyllikki V\u00e4re", "order": 8, "profile_path": null}, {"cast_id": 14, "character": "Summer girl #3 (uncredited)", "credit_id": "563ae3e8c3a3681b4d026780", "gender": 0, "id": 1531741, "name": "Martta Aho", "order": 9, "profile_path": null}], "crew": [{"credit_id": "52fe4ab9c3a368484e163763", "department": "Directing", "gender": 0, "id": 1040888, "job": "Director", "name": "Nyrki Tapiovaara", "profile_path": null}, {"credit_id": "563ae34592514129fe01572a", "department": "Writing", "gender": 0, "id": 1289366, "job": "Writer", "name": "Heikki Aho", "profile_path": null}, {"credit_id": "563ae352c3a3681b5202336a", "department": "Writing", "gender": 2, "id": 1386298, "job": "Novel", "name": "Juhani Aho", "profile_path": null}, {"credit_id": "563ae3629251416d52014f2c", "department": "Writing", "gender": 0, "id": 1289367, "job": "Writer", "name": "Bj\u00f6rn Soldan", "profile_path": null}, {"credit_id": "563ae36dc3a3681b4d026766", "department": "Writing", "gender": 0, "id": 1040888, "job": "Writer", "name": "Nyrki Tapiovaara", "profile_path": null}, {"credit_id": "563ae3fec3a3681b4d026789", "department": "Sound", "gender": 0, "id": 1531742, "job": "Music", "name": "Helvi Leivisk\u00e4", "profile_path": null}]}}