{"adult": false, "backdrop_path": "/tWMy9o5ZqZwc2ienyouP3diKo2.jpg", "belongs_to_collection": null, "budget": 0, "genres": [{"id": 10749, "name": "Romance"}, {"id": 18, "name": "Drama"}], "homepage": null, "id": 125874, "imdb_id": "tt1213921", "original_language": "en", "original_title": "Love & Savagery", "overview": "In 1969, a visiting geologist from Newfoundland, Canada causes scandal in a small Irish village when he romances a local girl who's destined for the convent.  Love and Savagery is a story of passion, fate, and the consequences of the two.  In 1969, Canadian geologist and poet, Michael McCarthy (Allan Hawco), travels to Ballyvaughan, Ireland to examine the \"Burren\" a geological wonder.  There he meets Cathleen (Sarah Greene), a beautiful woman who captures his heart, but because of the path she chose when she was young she cannot allow him to capture hers..", "popularity": 3.205, "poster_path": "/6Tc7s1JntPU7xEk9bnlpMP6fyh0.jpg", "production_companies": [{"id": 806, "logo_path": "/kcNh09qqR2Pkw1JAzRW4CommrW4.png", "name": "T\u00e9l\u00e9film Canada", "origin_country": "CA"}, {"id": 7169, "logo_path": null, "name": "Park Ex Pictures", "origin_country": ""}, {"id": 8582, "logo_path": null, "name": "Canadian Film or Video Production Tax Credit Fund (CPTC)", "origin_country": "CA"}, {"id": 11575, "logo_path": null, "name": "Movie Central", "origin_country": ""}, {"id": 33137, "logo_path": null, "name": "Morag Loves Company", "origin_country": ""}, {"id": 39004, "logo_path": null, "name": "Subotica Entertainment", "origin_country": "IE"}, {"id": 55424, "logo_path": null, "name": "Irish Film Industry", "origin_country": ""}, {"id": 64744, "logo_path": null, "name": "Mongrel Media", "origin_country": ""}, {"id": 64745, "logo_path": null, "name": "Cogeco Program Development Fund", "origin_country": ""}, {"id": 64751, "logo_path": null, "name": "Newfoundland and Labrador Film Development", "origin_country": ""}, {"id": 808, "logo_path": "/4L1apH72jCx6Z5qyH7UOJUDlRoF.png", "name": "The Movie Network", "origin_country": "CA"}, {"id": 11550, "logo_path": "/tMRrbKmvnhLJmhk9xjf9mGY559O.png", "name": "Corus Entertainment", "origin_country": "CA"}, {"id": 1898, "logo_path": "/8ix6SGlJiyuUDxLBtY8E0PY2G7w.png", "name": "Screen Ireland", "origin_country": "IE"}], "production_countries": [{"iso_3166_1": "CA", "name": "Canada"}, {"iso_3166_1": "IE", "name": "Ireland"}], "release_date": "2009-08-06", "revenue": 0, "runtime": 95, "spoken_languages": [{"iso_639_1": "en", "name": "English"}], "status": "Released", "tagline": "", "title": "Love & Savagery", "video": false, "vote_average": 5.0, "vote_count": 2, "keywords": {"keywords": [{"id": 745, "name": "nun"}, {"id": 1329, "name": "canada"}, {"id": 2041, "name": "island"}, {"id": 11001, "name": "religion"}, {"id": 14985, "name": "ireland"}, {"id": 161281, "name": "geologist"}, {"id": 165470, "name": "convent"}, {"id": 215121, "name": "county clare"}]}, "similar": {"page": 1, "results": [{"id": 2005, "video": false, "vote_count": 1805, "vote_average": 6.7, "title": "Sister Act", "release_date": "1992-05-28", "original_language": "en", "original_title": "Sister Act", "genre_ids": [35, 10402], "backdrop_path": "/oaLqlJxt8TJSjsdfMpSkLexZ4l5.jpg", "adult": false, "overview": "A Reno singer witnesses a mob murder and the cops stash her in a nunnery to protect her from the mob's hitmen. The mother superior does not trust her, and takes steps to limit her influence on the other nuns. Eventually the singer rescues the failing choir and begins helping with community projects, which gets her an interview on TV\u2014and identification by the mob.", "poster_path": "/7wQxLtybiUbtC6tsJh9htFEmqq3.jpg", "popularity": 13.161}, {"adult": false, "backdrop_path": "/1RTiQXeHoEMXkZNWaB8W5uaEZ2.jpg", "genre_ids": [18], "id": 205220, "original_language": "en", "original_title": "Philomena", "overview": "A woman searches for her adult son, who was taken away from her decades ago when she was forced to live in a convent.", "poster_path": "/6BTXHupSPkrwsoz4Br6qwwSVmhj.jpg", "release_date": "2013-11-01", "title": "Philomena", "video": false, "vote_average": 7.4, "vote_count": 1043, "popularity": 10.974}, {"id": 424998, "video": false, "vote_count": 130, "vote_average": 6.7, "title": "The Case for Christ", "release_date": "2017-04-07", "original_language": "en", "original_title": "The Case for Christ", "genre_ids": [18], "backdrop_path": "/4d9dnfVT8O0ko9ZTILymFRz4575.jpg", "adult": false, "overview": "Based on the true story of an award-winning investigative journalist -- and avowed atheist -- who applies his well-honed journalistic and legal skills to disprove the newfound Christian faith of his wife... with unexpected, life-altering results.", "poster_path": "/hTKwkxMv5MCkN8vMXiEmMmAHafh.jpg", "popularity": 10.373}, {"adult": false, "backdrop_path": "/3BxZPVMWDI9SK7rxuW27OghWXS3.jpg", "genre_ids": [18], "id": 8094, "original_language": "en", "original_title": "The Magdalene Sisters", "overview": "Four women are given into the custody of the Magdalene sisterhood asylum to correct their sinful behavior: Crispina and Rose have given birth to a premarital child, Margaret got raped by her cousin and the orphan Bernadette had been repeatedly caught flirting with the boys. All have to work in a laundry under the strict supervision of the nuns, who break their wills through sadistic punishment.", "poster_path": "/bMoI2hSAbbHEKLv9ZaAkOOsPZdt.jpg", "release_date": "2002-09-12", "title": "The Magdalene Sisters", "video": false, "vote_average": 7.5, "vote_count": 195, "popularity": 10.839}, {"id": 31767, "video": false, "vote_count": 160, "vote_average": 7.6, "title": "The Devils", "release_date": "1971-07-01", "original_language": "en", "original_title": "The Devils", "genre_ids": [18, 36], "backdrop_path": "/dmf3bLc9XI90yagC5800FvfXbj.jpg", "adult": false, "overview": "A dramatised historical account of the rise and fall of Urbain Grandier, a 17th-century Roman Catholic priest accused of  witchcraft following alleged demonic possessions of sexually repressed nuns.", "poster_path": "/7EWcEBzGYJusF01Jvw2C1EG6GG4.jpg", "popularity": 9.129}, {"id": 21634, "video": false, "vote_count": 250, "vote_average": 7.9, "title": "Prayers for Bobby", "release_date": "2009-02-27", "original_language": "en", "original_title": "Prayers for Bobby", "genre_ids": [18, 36, 10770], "backdrop_path": "/pSjGsbqyKUzF8rHzL0vtVWV1pS6.jpg", "adult": false, "overview": "Bobby Griffith was his mother's favorite son, the perfect all-American boy growing up under deeply religious influences in Walnut Creek, California. Bobby was also gay. Struggling with a conflict no one knew of much less understood Bobby finally came out to his family.", "poster_path": "/d9TGJxEMkLTEF5lWAx1PLNDNpA0.jpg", "popularity": 11.874}, {"id": 6279, "video": false, "vote_count": 970, "vote_average": 6.3, "title": "Sister Act 2: Back in the Habit", "release_date": "1993-12-09", "original_language": "en", "original_title": "Sister Act 2: Back in the Habit", "genre_ids": [35, 10402], "backdrop_path": "/tCAvkUjZqUVWBo2zHIuNKnSTsdU.jpg", "adult": false, "overview": "Deloris Van Cartier is again asked to don the nun's habit to help a run-down Catholic school, presided over by Mother Superior. And if trying to reach out to a class full of uninterested students wasn't bad enough, the sisters discover that the school is due to be closed by the unscrupulous chief of a local authority.", "poster_path": "/tLbvfUYw8Pr7DMI5TGL5DX1bx5S.jpg", "popularity": 21.648}, {"id": 524789, "video": false, "vote_count": 61, "vote_average": 5.1, "title": "The Devil's Doorway", "release_date": "2018-07-13", "original_language": "en", "original_title": "The Devil's Doorway", "genre_ids": [27], "backdrop_path": "/6VelCzCcDV5aIjl4HsfvicK93Ik.jpg", "adult": false, "overview": "In the autumn of 1960, Father Thomas Riley and Father John Thornton were sent by the Vatican to investigate a miraculous event in an Irish home for 'fallen women', only to uncover something much more horrific.", "poster_path": "/mOFn9lYmI8SAi15nhht37rhwxzT.jpg", "popularity": 7.761}, {"id": 4497, "video": false, "vote_count": 221, "vote_average": 7.7, "title": "Viridiana", "release_date": "1961-05-17", "original_language": "es", "original_title": "Viridiana", "genre_ids": [18], "backdrop_path": "/lMc6sTAapFQ04AzdeI1YBM3tOZz.jpg", "adult": false, "overview": "Viridinia is preparing to start her life as a nun when she is sent, somewhat unwillingly, to visit to her aging uncle, Don Jaime. He supports her; but the two have met only once. Jaime thinks Viridinia resembles his dead wife. Virdinia has secretly despised this man all her life and finds her worst fears proven when Jaime grows determined to seduce his pure niece. Viridinia becomes undone as her uncle upends the plans she had made to join the convent.", "poster_path": "/9dIyUHjL2qqbVaoeQdfjsbw8Jox.jpg", "popularity": 10.811}, {"adult": false, "backdrop_path": "/i8uSyT7tjdcDz7i3FKHHc04dL2S.jpg", "genre_ids": [18, 9648], "id": 24735, "original_language": "en", "original_title": "Agnes of God", "overview": "When a dead newborn is found, wrapped in bloody sheets, in the bedroom wastebasket of a young novice, psychiatrist Martha Livingston is called in to determine if the seemingly innocent novice, who knows nothing of sex or birth, is competent enough to stand trial for the murder of the baby.", "poster_path": "/gd6VRsmqWG730WxhvJ1Plgy7i9h.jpg", "release_date": "1985-08-21", "title": "Agnes of God", "video": false, "vote_average": 6.3, "vote_count": 65, "popularity": 9.199}, {"id": 411873, "video": false, "vote_count": 231, "vote_average": 5.6, "title": "The Little Hours", "release_date": "2017-06-30", "original_language": "en", "original_title": "The Little Hours", "genre_ids": [35], "backdrop_path": "/y46tBWteRfg5I3gkjNGqhy6qXmx.jpg", "adult": false, "overview": "A young servant fleeing from his master takes refuge at a convent full of emotionally unstable nuns in the middle ages.", "poster_path": "/wS69OOwBJzimoLIcmYMSVkmhCZM.jpg", "popularity": 12.9}, {"adult": false, "backdrop_path": "/2DskWkmWxSxM3KErhdnyViG4b6Z.jpg", "genre_ids": [18], "id": 27029, "original_language": "en", "original_title": "The Nun's Story", "overview": "Gabrielle Van Der Mal gave up everything to become a nun. But her faith and her vows are forever being tested: first in the missionary Congo hospital where she assists the brilliant and handsome Dr. Fortunati and then at the mother house in France when World War II has broken out and the nuns are forbidden by the order to take sides.", "poster_path": "/i0qzJwBnIl86yji9QmqQxFPkIBk.jpg", "release_date": "1959-06-18", "title": "The Nun's Story", "video": false, "vote_average": 7.3, "vote_count": 78, "popularity": 9.745}, {"id": 502406, "video": false, "vote_count": 78, "vote_average": 5.1, "title": "St. Agatha", "release_date": "2019-02-08", "original_language": "en", "original_title": "St. Agatha", "genre_ids": [27], "backdrop_path": "/qgy7GXZFHONsd2R9fazJha8n94z.jpg", "adult": false, "overview": "St. Agatha is set in the 1950s in small town Georgia. A pregnant con woman named Agatha is on the run and seeks refuge in a convent hidden in deafening isolation. What first starts out as the perfect place to have a child turns into a dark lair where silence is forced. Ghastly secrets are masked, and every bit of will power Agatha has is tested. She soon learns the sick and twisted truth of the convent and the odd people that lurk inside its halls. Agatha must now find a way to discover the unyielding strength needed to escape and save her baby before she\u2019s caged behind these walls forever.", "poster_path": "/zpR3FzaagWTbwgFPn1P6sEZ4str.jpg", "popularity": 8.906}, {"id": 426338, "video": false, "vote_count": 228, "vote_average": 7.0, "title": "Holy Camp!", "release_date": "2017-09-29", "original_language": "es", "original_title": "La llamada", "genre_ids": [35, 10402, 10749], "backdrop_path": "/yhOhHXZSR8jkED2PMwKOCTovnvK.jpg", "adult": false, "overview": "Mar\u00eda and Susana, two rebellious teenagers, spend the summer in a catholic camp. While they are grounded during a weekend, the most unexpected arrival in the most unexpected way will change their feelings about life, love and freedom.", "poster_path": "/1HvtsruMolE6w59HETXMfInc2DA.jpg", "popularity": 7.271}, {"id": 480881, "video": false, "vote_count": 29, "vote_average": 5.7, "title": "Let There Be Light", "release_date": "2017-10-27", "original_language": "en", "original_title": "Let There Be Light", "genre_ids": [18], "backdrop_path": "/heWkLToxXCsgOsMQvzFg2Rxa3FN.jpg", "adult": false, "overview": "An atheist goes through a near-death experience in an auto accident before converting to Christianity.", "poster_path": "/a1lCoSdAEYEs4ezvm5PcufEUVti.jpg", "popularity": 5.678}, {"id": 2331, "video": false, "vote_count": 16, "vote_average": 5.9, "title": "Jesus", "release_date": "1999-12-25", "original_language": "en", "original_title": "Jesus", "genre_ids": [18, 36], "backdrop_path": "/4wQLjg2gehczRA081fjrlKny4uV.jpg", "adult": false, "overview": "The film is notable for presenting a more human Jesus, compared to more solemn portrayals in earlier films; here Jesus laughs and cries like anyone else. Among other things, he weeps at Joseph\u2019s funeral, throws stones in Lake Galilee when meeting Simon Peter and James son of Zebedee for the first time, dances at the wedding at Cana, and starts a water-splashing fight with his disciples as well. Satan is portrayed as a man in modern dress (and as a woman in red). During his temptation of Jesus, he shows him the Earth from the vantage point of space. Satan also shows Jesus images of wars and destruction carried out in his name. The film adds an apocryphal Roman historian named \u201cLivio\u201d who watches and comments as events unfold; he is presumably named after Livy.", "poster_path": "/jkyll5jAzT6UT8gFp40e0iWzdYA.jpg", "popularity": 4.221}, {"id": 39340, "video": false, "vote_count": 21, "vote_average": 5.8, "title": "Behind Convent Walls", "release_date": "1978-01-25", "original_language": "it", "original_title": "Interno di un convento", "genre_ids": [18], "backdrop_path": "/gz14r5nSwxTiybCztZvGxsw8wIk.jpg", "adult": false, "overview": "A zealous, handsome priest, who is the confessor for a convent full of women, encourages the equally zealous abbess of the institution to enforce strict rules on these unfortunate women. At the same time, a particularly disturbed nun manages to poison herself and many of the other novitiates in yet another scandal which is covered up by church authorities.", "poster_path": "/X0MxKhE1aJfL4MKAGoc0YrTXDv.jpg", "popularity": 3.399}, {"id": 448432, "video": false, "vote_count": 23, "vote_average": 4.8, "title": "The Convent", "release_date": "2018-10-26", "original_language": "en", "original_title": "The Convent", "genre_ids": [36, 27], "backdrop_path": "/vwLgh6VUMSDQdDfL4LIGA6Xd6si.jpg", "adult": false, "overview": "During the 17th century, a young woman is saved from execution and led to a priory to repent her sins but discovers a greater evil lies within.", "poster_path": "/or9QoOcHfsaypC7UiCEIFtls48N.jpg", "popularity": 7.387}, {"adult": false, "backdrop_path": "/5LyX2iVFbRH8Q2HZSU6VIjgiJt7.jpg", "genre_ids": [18, 35], "id": 35031, "original_language": "fr", "original_title": "La Voie Lact\u00e9e", "overview": "Two drifters go on a pilgrimage from France to Santiago de Compostela in Spain. Along the way, they hitchhike, beg for food, and face the Christian dogmas and heresies from different Ages.", "poster_path": "/KEGDNb4IvnKYZc60oJGZs7QuuA.jpg", "release_date": "1969-03-15", "title": "The Milky Way", "video": false, "vote_average": 7.3, "vote_count": 56, "popularity": 8.568}, {"adult": false, "backdrop_path": "/pOFYyQAlV7jPFee0uDugIJs4uNz.jpg", "genre_ids": [18, 27], "id": 107068, "original_language": "it", "original_title": "Le scomunicate di San Valentino", "overview": "Lucita has been locked away in a convent by her family in order to keep her away from her lover, Esteban. The pair make plans to elope, but Esteban is accused of heresy before Lucita can escape. Hiding in the convent, Esteban discovers the horrifying depravity of the covent's abbess, Sister Incarnation. Can Esteban rescue his love from this madhouse before the inquisitor discovers what is going on and has everyone executed?", "poster_path": "/vFqzsxHxm6I2eSvqB0NdyCq4ckF.jpg", "release_date": "1974-03-26", "title": "The Sinful Nuns of Saint Valentine", "video": false, "vote_average": 5.2, "vote_count": 10, "popularity": 3.023}], "total_pages": 5, "total_results": 99}, "recommendations": {"page": 1, "results": [], "total_pages": 1, "total_results": 0}, "credits": {"cast": [{"cast_id": 3, "character": "Michael", "credit_id": "52fe4ad1c3a368484e168c2d", "gender": 2, "id": 76103, "name": "Allan Hawco", "order": 0, "profile_path": "/qvZoHjkmbjdA0W6C0evynt26DJ8.jpg"}, {"cast_id": 4, "character": "Cathleen", "credit_id": "548d90df925141031b000647", "gender": 0, "id": 1048644, "name": "Sarah Greene", "order": 1, "profile_path": "/8kzqNhc8kOUHZ61RJu0nIy7K4EZ.jpg"}, {"cast_id": 5, "character": "Mrs. Collins", "credit_id": "55808dd1c3a368165400008f", "gender": 1, "id": 1225942, "name": "Louise Nicol", "order": 2, "profile_path": "/o1EkncTSeNjkPGCCvaomCXOn4MA.jpg"}, {"cast_id": 6, "character": "Mother Superior", "credit_id": "55808de8925141449a000094", "gender": 1, "id": 65776, "name": "Martha Burns", "order": 3, "profile_path": "/fq3YccUWXiopnsaw2K1tjalYfNG.jpg"}, {"cast_id": 7, "character": "Senior Tinker", "credit_id": "55808e02925141449a000097", "gender": 2, "id": 14902, "name": "Nicholas Campbell", "order": 4, "profile_path": "/ouloEb5g56mz9SyIx8hD68gbwhR.jpg"}, {"cast_id": 8, "character": "Thomas Collins", "credit_id": "55808e1a925141449d0000a0", "gender": 0, "id": 1239704, "name": "Macdara \u00d3 F\u00e1tharta", "order": 5, "profile_path": "/rA7oJWKTMXT4Ej8yZV5Mczw1xE9.jpg"}, {"cast_id": 9, "character": "Wilfrid", "credit_id": "55808e3192514144ad000090", "gender": 2, "id": 1477955, "name": "Sean Panting", "order": 6, "profile_path": "/azfZuHlFgq3SpKNPvfSG17c0xyo.jpg"}, {"cast_id": 10, "character": "Mrs. Quigley", "credit_id": "55808e4792514144a10000a4", "gender": 0, "id": 1477956, "name": "Anne Butler", "order": 7, "profile_path": null}, {"cast_id": 11, "character": "Mary Callaghan", "credit_id": "55808e6392514144aa0000b5", "gender": 1, "id": 1002979, "name": "Amber Cull", "order": 8, "profile_path": null}, {"cast_id": 12, "character": "Father Joseph", "credit_id": "55808e7fc3a36816450000b1", "gender": 0, "id": 1477957, "name": "Frank Deacy\t... \tFather Joseph", "order": 9, "profile_path": null}], "crew": [{"credit_id": "56113583c3a3686819011656", "department": "Production", "gender": 2, "id": 1325, "job": "Casting", "name": "John Hubbard", "profile_path": null}, {"credit_id": "561135959251414ec6002b6a", "department": "Production", "gender": 1, "id": 7786, "job": "Casting", "name": "Ros Hubbard", "profile_path": null}, {"credit_id": "561135679251417899001e17", "department": "Camera", "gender": 0, "id": 59790, "job": "Director of Photography", "name": "Pierre Letarte", "profile_path": null}, {"credit_id": "52fe4ad1c3a368484e168c23", "department": "Directing", "gender": 2, "id": 60295, "job": "Director", "name": "John N. Smith", "profile_path": null}, {"credit_id": "561135289251410d8000455b", "department": "Production", "gender": 2, "id": 119396, "job": "Producer", "name": "Kevin Tierney", "profile_path": null}, {"credit_id": "561135a6c3a3686819011663", "department": "Production", "gender": 1, "id": 1035176, "job": "Casting", "name": "Sara Kay", "profile_path": null}, {"credit_id": "52fe4ad1c3a368484e168c29", "department": "Writing", "gender": 0, "id": 1082717, "job": "Writer", "name": "Des Walsh", "profile_path": null}, {"credit_id": "5611350b9251414ec6002b5b", "department": "Production", "gender": 2, "id": 1290783, "job": "Producer", "name": "Tristan Lynch", "profile_path": null}, {"credit_id": "561135d69251410d8000457c", "department": "Art", "gender": 0, "id": 1326398, "job": "Production Design", "name": "Raymond Dupuis", "profile_path": null}, {"credit_id": "561134dfc3a368681701218b", "department": "Production", "gender": 0, "id": 1364201, "job": "Producer", "name": "Barbara Doran", "profile_path": null}, {"credit_id": "56113551c3a368680b01227e", "department": "Sound", "gender": 0, "id": 1372743, "job": "Music", "name": "Bertrand Ch\u00e9nier", "profile_path": null}, {"credit_id": "56113617c3a368681f010ddb", "department": "Directing", "gender": 1, "id": 1384397, "job": "Script Supervisor", "name": "Milena Popovi\u0107", "profile_path": null}, {"credit_id": "561135ba9251410615005228", "department": "Production", "gender": 1, "id": 1516101, "job": "Casting", "name": "Jenny Lewis", "profile_path": null}, {"credit_id": "5611353d9251410d80004567", "department": "Production", "gender": 0, "id": 1518499, "job": "Producer", "name": "Lynne Wilson", "profile_path": null}, {"credit_id": "561135eec3a36868140133c8", "department": "Costume & Make-Up", "gender": 0, "id": 1518502, "job": "Costume Design", "name": "Marie J. Sharpe", "profile_path": null}]}}