{"adult": false, "backdrop_path": "/4H4UwgQKSMRY6yVpq7USyRMaHrb.jpg", "belongs_to_collection": null, "budget": 0, "genres": [{"id": 18, "name": "Drama"}], "homepage": null, "id": 12605, "imdb_id": "tt0443076", "original_language": "de", "original_title": "Katze im Sack", "overview": "No overview found.", "popularity": 1.775, "poster_path": "/q5jTDS4bYSYfPAA4Jm8Ag2uW4qJ.jpg", "production_companies": [], "production_countries": [{"iso_3166_1": "DE", "name": "Germany"}], "release_date": "2005-01-20", "revenue": 0, "runtime": 87, "spoken_languages": [{"iso_639_1": "de", "name": "Deutsch"}], "status": "Released", "tagline": "", "title": "Katze im Sack", "video": false, "vote_average": 6.0, "vote_count": 2, "keywords": {"keywords": [{"id": 1005, "name": "karaoke"}, {"id": 1667, "name": "pimp"}, {"id": 1759, "name": "night life"}, {"id": 5552, "name": "train ride"}]}, "similar": {"page": 1, "results": [{"adult": false, "backdrop_path": "/tk6QB32plylH41eo2Pbv4sIVljO.jpg", "genre_ids": [18], "id": 50270, "original_language": "it", "original_title": "Paprika", "overview": "A young country girl comes to town and works in a brothel in order to help her fiance get the money to start his own business. \"Paprika\" is the name given to her by the madam.", "poster_path": "/6QthFTJvUheocw3fcKklnsMcGib.jpg", "release_date": "1991-02-13", "title": "Paprika", "video": false, "vote_average": 5.9, "vote_count": 81, "popularity": 20.02}, {"id": 13855, "video": false, "vote_count": 511, "vote_average": 7.8, "title": "The Chaser", "release_date": "2008-02-14", "original_language": "ko", "original_title": "\ucd94\uaca9\uc790", "genre_ids": [80, 18, 53], "backdrop_path": "/k6OTC9mefzorJGr6M4HpRwcDyfU.jpg", "adult": false, "overview": "Joong-ho is a dirty detective turned pimp in financial trouble as several of his girls have recently disappeared without clearing their debts. While trying to track them down, he finds a clue that the vanished girls were all called up by the same client whom one of his girls is meeting with right now.", "poster_path": "/rP4TFKB5gKzbitpBFTF1Q71PFn6.jpg", "popularity": 13.21}, {"id": 1626, "video": false, "vote_count": 282, "vote_average": 8.0, "title": "Vivre Sa Vie", "release_date": "1962-08-28", "original_language": "fr", "original_title": "Vivre sa vie: film en douze tableaux", "genre_ids": [18], "backdrop_path": "/wXfI2cHga8Ek4gcixd1mZzOCk8A.jpg", "adult": false, "overview": "Twelve episodic tales in the life of a Parisian woman and her slow descent into prostitution.", "poster_path": "/5XTJ9q5ZGcWcK6fY1w2YEZMtPRr.jpg", "popularity": 12.371}, {"adult": false, "backdrop_path": "/o0y4Kd4g5Wj637mnfXROqi4pdYc.jpg", "genre_ids": [35, 18, 53], "id": 9894, "original_language": "en", "original_title": "The Cable Guy", "overview": "When recently single Steven moves into his new apartment, cable guy Chip comes to hook him up\u2014and doesn't let go. Initially, Chip is just overzealous in his desire to be Steven's pal, but when Steven tries to end the 'friendship', Chip shows his dark side. He begins stalking Steven, who's left to fend for himself because no one else can believe Chip's capable of such behaviour.", "poster_path": "/mqb62jLrlrT6XS1rR8cprtEW2Z6.jpg", "release_date": "1996-06-10", "title": "The Cable Guy", "video": false, "vote_average": 5.8, "vote_count": 1222, "popularity": 21.782}, {"adult": false, "backdrop_path": "/nfm6JCKUaM6dT0mATmShLY6cpmc.jpg", "genre_ids": [18, 10752], "id": 600, "original_language": "en", "original_title": "Full Metal Jacket", "overview": "A pragmatic U.S. Marine observes the dehumanizing effects the U.S.-Vietnam War has on his fellow recruits from their brutal boot camp training to the bloody street fighting in Hue.", "poster_path": "/29veIwD38rVL2qY74emXQw4y25H.jpg", "release_date": "1987-06-26", "title": "Full Metal Jacket", "video": false, "vote_average": 8.1, "vote_count": 5892, "popularity": 25.71}, {"adult": false, "backdrop_path": "/90kmxuSwU28dVy1ghVSHI4x1wb8.jpg", "genre_ids": [35, 18, 37], "id": 537996, "original_language": "en", "original_title": "The Ballad of Buster Scruggs", "overview": "Vignettes weaving together the stories of six individuals in the old West at the end of the Civil War. Following the tales of a sharp-shooting songster, a wannabe bank robber, two weary traveling performers, a lone gold prospector, a woman traveling the West to an uncertain future, and a motley crew of strangers undertaking a carriage ride.", "poster_path": "/voxl654m7p36y8FLu8oQD7dfwwK.jpg", "release_date": "2018-11-09", "title": "The Ballad of Buster Scruggs", "video": false, "vote_average": 7.2, "vote_count": 2072, "popularity": 15.524}, {"id": 644, "video": false, "vote_count": 3854, "vote_average": 7.0, "title": "A.I. Artificial Intelligence", "release_date": "2001-06-29", "original_language": "en", "original_title": "A.I. Artificial Intelligence", "genre_ids": [12, 18, 878], "backdrop_path": "/idVdfyi51JtG7N5DPW6qeSankyV.jpg", "adult": false, "overview": "David, a robotic boy\u2014the first of his kind programmed to love\u2014is adopted as a test case by a Cybertronics employee and his wife. Though he gradually becomes their child, a series of unexpected circumstances make this life impossible for David. Without final acceptance by humans or machines, David embarks on a journey to discover where he truly belongs, uncovering a world in which the line between robot and machine is both vast and profoundly thin.", "poster_path": "/wnUAcUrMRGPPZUDroLeZhSjLkuu.jpg", "popularity": 27.294}, {"id": 153, "video": false, "vote_count": 3919, "vote_average": 7.4, "title": "Lost in Translation", "release_date": "2003-08-31", "original_language": "en", "original_title": "Lost in Translation", "genre_ids": [35, 18, 10749], "backdrop_path": "/iJP2ogeM5YpZyUOkmCiZ5UXWyBf.jpg", "adult": false, "overview": "Two lost souls visiting Tokyo -- the young, neglected wife of a photographer and a washed-up movie star shooting a TV commercial -- find an odd solace and pensive freedom to be real in each other's company, away from their lives in America.", "poster_path": "/wkSzJs7oMf8MIr9CQVICsvRfwA7.jpg", "popularity": 19.913}, {"id": 1427, "video": false, "vote_count": 2510, "vote_average": 7.2, "title": "Perfume: The Story of a Murderer", "release_date": "2006-09-13", "original_language": "en", "original_title": "Perfume: The Story of a Murderer", "genre_ids": [80, 18, 14], "backdrop_path": "/3i8bJa5yvLZW2k4sg2Cd1Yy0a1x.jpg", "adult": false, "overview": "Jean-Baptiste Grenouille, born in the stench of 18th century Paris, develops a superior olfactory sense, which he uses to create the world's finest perfumes. However, his work takes a dark turn as he tries to preserve scents in the search for the ultimate perfume.", "poster_path": "/zC9JHS6NlkJKPYFxOOqBl7fQCjT.jpg", "popularity": 22.071}, {"adult": false, "backdrop_path": "/ecREZ3vYCqethftSDWK4we0X498.jpg", "genre_ids": [35, 18, 10749], "id": 4507, "original_language": "es", "original_title": "Jam\u00f3n, jam\u00f3n", "overview": "Jose Luis is an executive at his parents underwear factory where his girlfriend Sylvia works on the shop floor. When Sylvia becomes pregnant, Jose Luis promises her that he will marry her, most likely against the wishes of his parents. Jose Luis' mother is determined to break her son's engagement to a girl from a lower-class family, and hires Raul, a potential underwear model and would-be bullfighter to seduce Sylvia.", "poster_path": "/v5Fq01ZtYnA2Grxdd3g8CuGZARg.jpg", "release_date": "1992-09-03", "title": "Jamon Jamon", "video": false, "vote_average": 6.1, "vote_count": 143, "popularity": 14.21}, {"adult": false, "backdrop_path": "/by0WtpJ5UNxOy6ytIfPPTasbRoB.jpg", "genre_ids": [28, 12, 35, 18, 10751, 10402, 10749], "id": 17130, "original_language": "en", "original_title": "Crossroads", "overview": "Three friends get together and bury a box making a pact to open it at midnight at their high school graduation. In the little town in Georgia that they live in, things soon change. One is little miss perfect, one is an engaged prom queen, and the other is a pregnant outcast. The night of graduation, they open the box and they strike up a conversation. All of a sudden, one brings up the topic of her going to Los Angeles for a record contract audition. They all decide to go together and they leave. With a little money, they set out on the road with a guy named Ben. When one of them tells the other a rumor that he might be a homicidal maniac they are all scared of him. When they reach LA, Lucy falls in love with Ben and against her father's wishes, she stays and she goes to the audition.", "poster_path": "/egIs4cWxn0iBErFKrQ7STckjj49.jpg", "release_date": "2002-02-15", "title": "Crossroads", "video": false, "vote_average": 5.0, "vote_count": 334, "popularity": 12.973}, {"adult": false, "backdrop_path": "/fop31RWFi9sVL0xK5hAJGh7Fwkz.jpg", "genre_ids": [18, 80], "id": 261023, "original_language": "en", "original_title": "Black Mass", "overview": "The true story of Whitey Bulger, the brother of a state senator and the most infamous violent criminal in the history of South Boston, who became an FBI informant to take down a Mafia family invading his turf.", "poster_path": "/nSbpuyd2UySuW7kaoXzYUfes1Bl.jpg", "release_date": "2015-09-04", "title": "Black Mass", "video": false, "vote_average": 6.4, "vote_count": 2190, "popularity": 14.581}, {"adult": false, "backdrop_path": "/nnP2m2MuHZmC5aeqlL5fRD0G149.jpg", "genre_ids": [80, 18, 35], "id": 1554, "original_language": "en", "original_title": "Down by Law", "overview": "A disc jockey, a pimp and an Italian tourist escape from jail in New Orleans.", "poster_path": "/4IyxoUQ7BB5kcSd7gASe2dTyWu7.jpg", "release_date": "1986-09-20", "title": "Down by Law", "video": false, "vote_average": 7.5, "vote_count": 325, "popularity": 11.105}, {"id": 439, "video": false, "vote_count": 828, "vote_average": 8.1, "title": "La Dolce Vita", "release_date": "1960-02-05", "original_language": "it", "original_title": "La dolce vita", "genre_ids": [35, 18], "backdrop_path": "/b3ofp0vhkbKsrz2V44DimBRKkxf.jpg", "adult": false, "overview": "Episodic journey of an Italian journalist scouring Rome in search of love.", "poster_path": "/aU7WLwPVCOoonAPWOPBmZ8X0c3c.jpg", "popularity": 14.214}, {"adult": false, "backdrop_path": "/714WM8GntrZIiJsXUUfeYFCWWhe.jpg", "genre_ids": [28, 80, 18, 53], "id": 507, "original_language": "en", "original_title": "Killing Zoe", "overview": "Zed (Eric Stoltz) is an American vault-cracker who travels to Paris to meet up with his old friend Eric (Jean-Hugues Anglade). Eric and his gang have planned to raid the only bank in the city which is open on Bastille day. After offering his services, Zed soon finds himself trapped in a situation beyond his control when heroin abuse, poor planning and a call-girl named Zoe all conspire to turn the robbery into a very bloody siege.", "poster_path": "/xhGpPx5o4ngIbXKUs8ogn24hrBL.jpg", "release_date": "1993-10-01", "title": "Killing Zoe", "video": false, "vote_average": 6.2, "vote_count": 182, "popularity": 9.199}, {"id": 50348, "video": false, "vote_count": 1686, "vote_average": 7.1, "title": "The Lincoln Lawyer", "release_date": "2011-03-17", "original_language": "en", "original_title": "The Lincoln Lawyer", "genre_ids": [80, 18, 53], "backdrop_path": "/zxN5XhQKDT5GwlpZo7yKxDAJMyQ.jpg", "adult": false, "overview": "A lawyer conducts business from the back of his Lincoln town car while representing a high-profile client in Beverly Hills.", "poster_path": "/gOn8Ve9Yi8fxjRkmLr5BZoOc7KV.jpg", "popularity": 19.334}, {"adult": false, "backdrop_path": "/15TFBcfEPcFeUUMiMcFFejAzpRt.jpg", "genre_ids": [18], "id": 1279, "original_language": "ko", "original_title": "\uc0ac\ub9c8\ub9ac\uc544", "overview": "Yeo-jin and Jae-yeong are two teenage girls who are trying to earn money for a trip to Europe. To reach this end, Jae-yeong is prostituting herself while Yeo-jin acts as her pimp, setting her up with the clients and staying on guard for the police. Things take a turn for the worse when Yeo-jin gets distracted from her duty and the police raid the motel where Jae-yeong is meeting with a client. To avoid getting caught, Jae-yeong jumps out of a window, fatally injuring herself.", "poster_path": "/1fsOMSQb5w5I9qe4kmKueBAdMhp.jpg", "release_date": "2004-03-05", "title": "Samaritan Girl", "video": false, "vote_average": 7.1, "vote_count": 100, "popularity": 9.813}, {"id": 1051, "video": false, "vote_count": 854, "vote_average": 7.6, "title": "The French Connection", "release_date": "1971-10-09", "original_language": "en", "original_title": "The French Connection", "genre_ids": [28, 80, 53], "backdrop_path": "/hPlzjKzbO8KuCerm1lOxDtUjlHD.jpg", "adult": false, "overview": "Tough narcotics detective 'Popeye' Doyle is in hot pursuit of a suave French drug dealer who may be the key to a huge heroin-smuggling operation.", "poster_path": "/5XSGvIKl2yPvOkieFjc3rzLw7x0.jpg", "popularity": 14.703}, {"adult": false, "backdrop_path": "/fLMv873bBAvrCtzeAbRVjb4Mi9Y.jpg", "genre_ids": [28, 53, 80], "id": 27582, "original_language": "en", "original_title": "The Mechanic", "overview": "Arthur Bishop is a 'mechanic' - an elite assassin with a strict code and unique talent for cleanly eliminating targets. It's a job that requires professional perfection and total detachment, and Bishop is the best in the business. But when he is ordered to take out his mentor and close friend Harry, Bishop is anything but detached.", "poster_path": "/eScKoGnjaUvGD2OkK3DImyzfVkt.jpg", "release_date": "2011-01-13", "title": "The Mechanic", "video": false, "vote_average": 6.3, "vote_count": 1857, "popularity": 23.44}, {"adult": false, "backdrop_path": "/arcpWGGnUkGkakOwZo7xfPsaz7h.jpg", "genre_ids": [9648, 53], "id": 2832, "original_language": "en", "original_title": "Identity", "overview": "Complete strangers stranded at a remote desert motel during a raging storm soon find themselves the target of a deranged murderer. As their numbers thin out, the travelers begin to turn on each other, as each tries to figure out who the killer is.", "poster_path": "/xSNSp2wmCUwFavxdkMF417hBc39.jpg", "release_date": "2003-04-25", "title": "Identity", "video": false, "vote_average": 7.2, "vote_count": 2089, "popularity": 15.517}], "total_pages": 34, "total_results": 678}, "recommendations": {"page": 1, "results": [], "total_pages": 1, "total_results": 0}, "credits": {"cast": [{"cast_id": 1, "character": "Karl", "credit_id": "52fe45059251416c75048f93", "gender": 2, "id": 71514, "name": "Christoph Bach", "order": 0, "profile_path": "/zi4KqkKsjJvItRbnipcTmwHtdgF.jpg"}, {"cast_id": 2, "character": "Doris", "credit_id": "52fe45059251416c75048f97", "gender": 1, "id": 24439, "name": "Jule B\u00f6we", "order": 1, "profile_path": "/a3u5r6hnDiFESbxL7s3jWROuf9m.jpg"}, {"cast_id": 3, "character": "Ralf Brockmann", "credit_id": "52fe45059251416c75048f9b", "gender": 2, "id": 37107, "name": "Walter Kreye", "order": 2, "profile_path": "/p1J800nhpVysxETTLiUH5V5F4n8.jpg"}, {"cast_id": 4, "character": "Sandro", "credit_id": "52fe45059251416c75048f9f", "gender": 2, "id": 16809, "name": "David Scheller", "order": 3, "profile_path": "/pImI4DTQYi3lJa0OIb2Ptjc7tj1.jpg"}, {"cast_id": 11, "character": "Zuh\u00e4lter Osman", "credit_id": "542020f80e0a261797002414", "gender": 2, "id": 10246, "name": "Dirk Borchardt", "order": 4, "profile_path": "/g9gK4Ch1GxOStEN1UlwymS32pw3.jpg"}, {"cast_id": 12, "character": "Postbote", "credit_id": "5a6e6e750e0a265efe028224", "gender": 2, "id": 19231, "name": "Karl-Fred M\u00fcller", "order": 5, "profile_path": "/huZiCpWf8YEAeYPolpHQarBgAMh.jpg"}, {"cast_id": 13, "character": "Mandy", "credit_id": "5cba5109c3a368776c8285e2", "gender": 1, "id": 2292441, "name": "Daniela Schober", "order": 6, "profile_path": null}], "crew": [{"credit_id": "52fe45059251416c75048fa5", "department": "Directing", "gender": 2, "id": 73076, "job": "Director", "name": "Florian Schwarz", "profile_path": null}, {"credit_id": "52fe45059251416c75048fab", "department": "Writing", "gender": 2, "id": 55280, "job": "Screenplay", "name": "Michael Proehl", "profile_path": null}, {"credit_id": "52fe45059251416c75048fb1", "department": "Production", "gender": 0, "id": 73077, "job": "Producer", "name": "Alexander Bickenback", "profile_path": null}, {"credit_id": "52fe45059251416c75048fb7", "department": "Sound", "gender": 2, "id": 6676, "job": "Original Music Composer", "name": "Fabian R\u00f6mer", "profile_path": null}, {"credit_id": "52fe45059251416c75048fbd", "department": "Camera", "gender": 2, "id": 54875, "job": "Director of Photography", "name": "Philipp Sichler", "profile_path": "/eMxwL5UNHo9iu4C16vR7j64rniW.jpg"}, {"credit_id": "52fe45059251416c75048fc3", "department": "Editing", "gender": 2, "id": 68341, "job": "Editor", "name": "Florian Drechsler", "profile_path": null}]}}