{"adult": false, "backdrop_path": "/6jcxNQN3gW2FMGh32JtEsB0auqm.jpg", "belongs_to_collection": null, "budget": 0, "genres": [{"id": 99, "name": "Documentary"}], "homepage": null, "id": 126132, "imdb_id": "tt0140788", "original_language": "en", "original_title": "The Act of Seeing with One's Own Eyes", "overview": "At a morgue, forensic pathologists conduct autopsies of the corpses assigned.", "popularity": 4.919, "poster_path": "/qGLLXsbzR9IrZ1k62qwNv7rmDPb.jpg", "production_companies": [], "production_countries": [{"iso_3166_1": "US", "name": "United States of America"}], "release_date": "1972-02-19", "revenue": 0, "runtime": 32, "spoken_languages": [{"iso_639_1": "xx", "name": "No Language"}], "status": "Released", "tagline": "", "title": "The Act of Seeing with One's Own Eyes", "video": false, "vote_average": 6.2, "vote_count": 26, "keywords": {"keywords": [{"id": 4715, "name": "autopsy"}, {"id": 14629, "name": "experimental"}, {"id": 154802, "name": "silent film"}, {"id": 157256, "name": "forensic science"}, {"id": 162716, "name": "pathologist"}, {"id": 214549, "name": "short"}]}, "similar": {"page": 1, "results": [{"id": 621733, "video": false, "vote_count": 0, "vote_average": 0.0, "title": "A Trip to the Seaside", "release_date": "2019-08-30", "original_language": "en", "original_title": "A Trip to the Seaside", "genre_ids": [99], "backdrop_path": null, "adult": false, "overview": "Experimental short film on the excitement and rush of a day trip", "poster_path": "/AuZVhpoJ4jm2LWDhoJKfxQfhDAi.jpg", "popularity": 1.324}, {"id": 650755, "video": false, "vote_count": 0, "vote_average": 0.0, "title": "Atordoado, Eu Permane\u00e7o Atento", "release_date": "2020-01-15", "original_language": "pt", "original_title": "Atordoado, Eu Permane\u00e7o Atento", "genre_ids": [99], "backdrop_path": null, "adult": false, "overview": "", "poster_path": "/exbM8qk6f6T44olJXcM8ix1sunL.jpg", "popularity": 7.153}, {"adult": false, "backdrop_path": "/sZY4QiduYnB07OeVYdCo9H3oL8b.jpg", "genre_ids": [99], "id": 194079, "original_language": "en", "original_title": "Sallie Gardner at a Gallop", "overview": "Sallie Gardner at a Gallop was one of the earliest silent films \u2014 a production experiment by the photographer Eadward Muybridge on June 15, 1878 that led to the development of motion pictures. The motion picture consists of 24 photographs in a fast-motion series that were shown on a zoopraxiscope.", "poster_path": "/2E2x8HYXAJpgWbJk4LSpJ8BT8Xl.jpg", "release_date": "1878-06-14", "title": "Sallie Gardner at a Gallop", "video": false, "vote_average": 6.7, "vote_count": 59, "popularity": 3.769}, {"id": 901, "video": false, "vote_count": 1026, "vote_average": 8.4, "title": "City Lights", "release_date": "1931-02-01", "original_language": "xx", "original_title": "City Lights", "genre_ids": [35, 18, 10749], "backdrop_path": "/vT6ux2rdyg2kexuLisO5Ygz7pHg.jpg", "adult": false, "overview": "City Lights is the first silent film that Charlie Chaplin directed after he established himself with sound accompanied films. The film is about a penniless man who falls in love with a flower girl.", "poster_path": "/bXNvzjULc9jrOVhGfjcc64uKZmZ.jpg", "popularity": 14.294}, {"id": 14813, "video": false, "vote_count": 456, "vote_average": 7.6, "title": "Mickey's Christmas Carol", "release_date": "1983-10-19", "original_language": "en", "original_title": "Mickey's Christmas Carol", "genre_ids": [16, 10751], "backdrop_path": "/fDK3xeAcQfQ40ZUULgZshElkspa.jpg", "adult": false, "overview": "It is an adaptation of the Charles Dickens classic A Christmas Carol, featuring Scrooge McDuck as his namesake and inspiration Ebenezer Scrooge and Mickey Mouse as Bob Cratchit. This film was based on a 1972 audio musical entitled Disney's A Christmas Carol. It is a twenty-four minute animated short film produced by Walt Disney Productions as an accompaniment to a re-release of The Rescuers.", "poster_path": "/29iF1IiC3ZyJQ1kmTf4LD8p8oro.jpg", "popularity": 18.001}, {"adult": false, "backdrop_path": "/4brEMzPazQE3hv3mogj6k1a29RP.jpg", "genre_ids": [10749, 14, 16], "id": 3933, "original_language": "en", "original_title": "Corpse Bride", "overview": "Set in a 19th-century european village, this stop-motion animation feature follows the story of Victor, a young man whisked away to the underworld and wed to a mysterious corpse bride, while his real bride Victoria waits bereft in the land of the living.", "poster_path": "/o9GbcdP7rOg2m1NyUnUR3ZwNcTE.jpg", "release_date": "2005-09-12", "title": "Corpse Bride", "video": false, "vote_average": 7.4, "vote_count": 4926, "popularity": 16.93}, {"id": 326359, "video": false, "vote_count": 1179, "vote_average": 6.8, "title": "Frozen Fever", "release_date": "2015-03-09", "original_language": "en", "original_title": "Frozen Fever", "genre_ids": [12, 16, 10751], "backdrop_path": "/ubioPGniCfDiASmYYpeJs5RRNaC.jpg", "adult": false, "overview": "On Anna's birthday, Elsa and Kristoff are determined to give her the best celebration ever, but Elsa's icy powers may put more than just the party at risk.", "poster_path": "/lKJiVPzsAO9IJ4LKWXZ8vkR2bg4.jpg", "popularity": 17.061}, {"id": 150540, "video": false, "vote_count": 13953, "vote_average": 7.9, "title": "Inside Out", "release_date": "2015-06-09", "original_language": "en", "original_title": "Inside Out", "genre_ids": [16, 35, 18, 10751], "backdrop_path": "/szytSpLAyBh3ULei3x663mAv5ZT.jpg", "adult": false, "overview": "Growing up can be a bumpy road, and it's no exception for Riley, who is uprooted from her Midwest life when her father starts a new job in San Francisco. Riley's guiding emotions\u2014 Joy, Fear, Anger, Disgust and Sadness\u2014live in Headquarters, the control centre inside Riley's mind, where they help advise her through everyday life and tries to keep things positive, but the emotions conflict on how best to navigate a new city, house and school.", "poster_path": "/aAmfIX3TT40zUHGcCKrlOZRKC7u.jpg", "popularity": 47.351}, {"adult": false, "backdrop_path": "/5OeY4U2rzePxWq2rkqMajUx2gz7.jpg", "genre_ids": [16, 10751, 12, 14, 10749], "id": 812, "original_language": "en", "original_title": "Aladdin", "overview": "Princess Jasmine grows tired of being forced to remain in the palace, so she sneaks out into the marketplace, in disguise, where she meets street-urchin Aladdin.  The couple falls in love, although Jasmine may only marry a prince.  After being thrown in jail, Aladdin becomes embroiled in a plot to find a mysterious lamp, with which the evil Jafar hopes to rule the land.", "poster_path": "/mjKozYRuHc9j7SmiXmbVmCiAM0A.jpg", "release_date": "1992-11-25", "title": "Aladdin", "video": false, "vote_average": 7.6, "vote_count": 7288, "popularity": 46.629}, {"adult": false, "backdrop_path": "/wcT7srQ4GeeMqlszMFEtPZ7v8T7.jpg", "genre_ids": [35, 10749], "id": 28978, "original_language": "en", "original_title": "The Circus", "overview": "Charlie, a wandering tramp, becomes a circus handyman and falls in love with the circus owner's daughter. Unaware of Charlie's affection, the girl falls in love with a handsome young performer. Charlie's versatility makes him star of the show when he substitutes for an ailing tightwire walker. He is discharged from the company when he protects the girl from her father's abuse, but he returns and appeals to the handsome performer to marry the girl. After the wedding the father prevails upon them to rejoin the circus. Charlie is hired again, but he stays behind when the caravan moves on.", "poster_path": "/awTf4Y6TGvgi3VYtGNINyyJJy9Q.jpg", "release_date": "1928-01-06", "title": "The Circus", "video": false, "vote_average": 8.2, "vote_count": 330, "popularity": 12.253}, {"id": 9479, "video": false, "vote_count": 5315, "vote_average": 7.8, "title": "The Nightmare Before Christmas", "release_date": "1993-10-09", "original_language": "en", "original_title": "The Nightmare Before Christmas", "genre_ids": [16, 14, 10751], "backdrop_path": "/16lk65YfrDFIr6evkWRjSeOOSws.jpg", "adult": false, "overview": "Tired of scaring humans every October 31 with the same old bag of tricks, Jack Skellington, the spindly king of Halloween Town, kidnaps Santa Claus and plans to deliver shrunken heads and other ghoulish gifts to children on Christmas morning. But as Christmas approaches, Jack's rag-doll girlfriend, Sally, tries to foil his misguided plans.", "poster_path": "/6oxkO1VgKCq74fNILKAg6t2dVEt.jpg", "popularity": 20.34}, {"adult": false, "backdrop_path": "/twGxeStlGooWV3gP6ZIcSNuQ6jf.jpg", "genre_ids": [12, 16, 10751, 14], "id": 81684, "original_language": "en", "original_title": "The Gruffalo's Child", "overview": "A follow up to the 2009 animated feature and adapted from the childrens' book by Julia Donaldson and Alex Scheffler.  The Gruffalo's child explores the deep dark wood in search of the big bad mouse and meets the Snake, Owl and Fox in the process.  She eventually finds the mouse, who manages to outwit her like the Gruffalo before!", "poster_path": "/qaGH2AoaLvoGXURQtNzj1nw6oZd.jpg", "release_date": "2011-12-25", "title": "The Gruffalo's Child", "video": false, "vote_average": 6.9, "vote_count": 73, "popularity": 13.766}, {"id": 26317, "video": false, "vote_count": 283, "vote_average": 8.0, "title": "Man with a Movie Camera", "release_date": "1929-01-08", "original_language": "ru", "original_title": "\u0427\u0435\u043b\u043e\u0432\u0435\u043a \u0441 \u043a\u0438\u043d\u043e\u0430\u043f\u043f\u0430\u0440\u0430\u0442\u043e\u043c", "genre_ids": [99], "backdrop_path": "/8mg8GZePag5LZVhveBTL92Ufh5W.jpg", "adult": false, "overview": "A cameraman wanders around Moscow, Kharkov, Kiev and Odessa with a camera slung over his shoulder, documenting urban life with dazzling invention.", "poster_path": "/Ded5Kl7MDZQTbFpoNI62tLVWUN.jpg", "popularity": 11.059}, {"id": 62214, "video": false, "vote_count": 1879, "vote_average": 6.8, "title": "Frankenweenie", "release_date": "2012-10-04", "original_language": "en", "original_title": "Frankenweenie", "genre_ids": [16, 35, 10751], "backdrop_path": "/dpkyNq8jBU7tR6n5sEd4Ep61EOP.jpg", "adult": false, "overview": "When a car hits young Victor's pet dog Sparky, Victor decides to bring him back to life the only way he knows how. But when the bolt-necked \"monster\" wreaks havoc and terror in the hearts of Victor's neighbors, he has to convince them that Sparky's still the good, loyal friend he was.", "poster_path": "/ssMQ5Q9qyJM6sHnjoghoHlOVOO5.jpg", "popularity": 13.666}, {"id": 234, "video": false, "vote_count": 652, "vote_average": 7.9, "title": "The Cabinet of Dr. Caligari", "release_date": "1920-02-25", "original_language": "de", "original_title": "Das Cabinet des Dr. Caligari", "genre_ids": [80, 18, 27, 53], "backdrop_path": "/6Xt1Iq0sct6LQcGF4WA5I4VqQmP.jpg", "adult": false, "overview": "Francis, a young man, recalls in his memory the horrible experiences he and his fianc\u00e9e Jane recently went through. It is the annual fair in Holstenwall. Francis and his friend Alan visit The Cabinet of Dr. Caligari, an exhibit where the mysterious doctor shows the somnambulist Cesare, and awakens him for some moments from his death-like sleep. When Alan asks Cesare about his future, Cesare answers that he will die before dawn. The next morning Alan is found dead. Francis suspects Cesare of being the murderer, and starts spying on him and Dr. Caligari.", "poster_path": "/myK9DeIsXWGKgUTZyGXg2IfFk0W.jpg", "popularity": 15.573}, {"adult": false, "backdrop_path": "/hPByrqJXCXIViFheXQh48wtI7T6.jpg", "genre_ids": [16, 12, 14, 10751], "id": 31135, "original_language": "en", "original_title": "Mickey Mouse: Mickey and the Beanstalk", "overview": "Based on the timeless adventures of \"Jack and the Beanstalk,\" Mickey, Donald and Goofy climb a fantastic beanstalk up into the sky to a place where everything is huge -- the food, the castle and the fearsome giant named Willy who guards a beautiful golden harp! Will Mickey and his friends outwit the giant and make it safely back home?", "poster_path": "/kk1Xg1f1lv6loekjlKinpKJlGOu.jpg", "release_date": "1947-09-27", "title": "Mickey Mouse: Mickey and the Beanstalk", "video": false, "vote_average": 6.7, "vote_count": 166, "popularity": 12.653}, {"adult": false, "backdrop_path": "/2CR4OT6Ou4axUfThbJ6sbnMGWWm.jpg", "genre_ids": [12, 14, 878], "id": 775, "original_language": "fr", "original_title": "Le Voyage dans la Lune", "overview": "Professor Barbenfouillis and five of his colleagues from the Academy of Astronomy travel to the Moon aboard a rocket propelled by a giant cannon. Once on the lunar surface, the bold explorers face the many perils hidden in the caves of the mysterious satellite.", "poster_path": "/zztHYAfSecYuaDyIjQudjKaOLLY.jpg", "release_date": "1902-09-01", "title": "A Trip to the Moon", "video": false, "vote_average": 8.0, "vote_count": 820, "popularity": 14.653}, {"adult": false, "backdrop_path": "/wdMq7F5Cr1DGg8ioNPZvWxqQer4.jpg", "genre_ids": [878, 14], "id": 76535, "original_language": "en", "original_title": "Marvel One-Shot: A Funny Thing Happened on the Way to Thor's Hammer", "overview": "Agent Coulson stops at a convenience store and deals with a coincidental robbery during his visit.", "poster_path": "/5uGaqAnt0RQ87uKy8UlRDNrL2jY.jpg", "release_date": "2011-10-25", "title": "Marvel One-Shot: A Funny Thing Happened on the Way to Thor's Hammer", "video": false, "vote_average": 7.1, "vote_count": 180, "popularity": 12.89}, {"id": 5698, "video": false, "vote_count": 268, "vote_average": 7.1, "title": "The Great Train Robbery", "release_date": "1903-12-01", "original_language": "en", "original_title": "The Great Train Robbery", "genre_ids": [28, 12, 80, 37], "backdrop_path": "/9GO8h44nckngDtdJ6R1QfIsl43j.jpg", "adult": false, "overview": "The clerk at the train station is assaulted and left tied by four men, then they rob the train threatening the operator. (They) take all the money and shoot a passenger when trying to run away. A little girl discovers the clerk tied and gives notice to the sheriff, who at once goes along with his men hunting the bandits.", "poster_path": "/uf7Hr1wuUh4T83Ifg5pVpwTqRdI.jpg", "popularity": 9.865}, {"adult": false, "backdrop_path": "/43TK5GtHUiPelQpnSX0bl9ONLh0.jpg", "genre_ids": [16, 35, 10751], "id": 54553, "original_language": "en", "original_title": "Home Makeover", "overview": "The Minions have to make Gru's home safe for the children, before Child Services arrive!", "poster_path": "/uRlT6hzUE6pMCtSsUhKd7OtjD1l.jpg", "release_date": "2010-12-13", "title": "Home Makeover", "video": false, "vote_average": 6.9, "vote_count": 97, "popularity": 8.853}], "total_pages": 180, "total_results": 3584}, "recommendations": {"page": 1, "results": [{"adult": false, "backdrop_path": "/30aoSkRCIq0pHbxX0Ow2m7WfOGG.jpg", "genre_ids": [], "id": 126193, "original_language": "en", "original_title": "I... Dreaming", "overview": "Phrases of Stephen Foster, set to music by Joel Heartling, are set to film in this autobiographical piece: a solitary female voice, occasionally joined by a chorus, sings phrases of sorrow as we watch a solitary man in shadows in an unadorned house: he stretches out, he picks his feet, he walks across a room, he rocks in a chair. Occasionally he watches two young children at play; the film sometimes speeds up. Handwritten words, like \"dark void\" and \"waiting longing,\" cross the screen. Film and phrases often come in short bursts. Outdoor it looks gray and cold.", "poster_path": "/fwb5ryqcKxDW9kEkUvWS22jVFpP.jpg", "release_date": "1988-01-01", "title": "I... Dreaming", "video": false, "vote_average": 5.9, "vote_count": 17, "popularity": 2.878}, {"id": 126215, "video": false, "vote_count": 18, "vote_average": 5.7, "title": "The Dark Tower", "release_date": "1999-01-01", "original_language": "en", "original_title": "The Dark Tower", "genre_ids": [], "backdrop_path": null, "adult": false, "overview": "This hand-painted step-printed film begins with streaks of glare light and vibrantly colored forms apparently in the sky forinasmuch as there appears, frame center, the tapered shape of a tower, a silhouette as it were against the backdrop of the flaring sky. As this shape of tower disappears, the conflagration of scratches and paints seems grounded and takes on the semblance of a battle of knights, their lances, horses, et al, often against a scattering of star-like flecks until finally the silhouette of the tower reappears as if much closer, certainly thicker and straight-sided. The film finishes as textures which tend to suggest an entrance into the textured walls of the tower, textures and stars intermingled with what may well seem chain-mail as well.", "poster_path": "/x03f5ZRe563wy43rGGTFoJzEE7c.jpg", "popularity": 2.702}, {"adult": false, "backdrop_path": "/mR5FREtw4dNety1aLQvPxzgt1ru.jpg", "genre_ids": [], "id": 126202, "original_language": "en", "original_title": "Untitled (For Marilyn)", "overview": "The film is officially untitled, but is referred to by the dedication that appears in place of a title card. It is dedicated to Marilyn Brakhage, the filmmaker's wife. Out of all the 350+ films that Stan Brakhage made, this was his personal favorite.", "poster_path": "/s6TXI7E7BhT4CN9k869j8t87K9w.jpg", "release_date": "1992-01-01", "title": "Untitled (For Marilyn)", "video": false, "vote_average": 5.1, "vote_count": 11, "popularity": 3.785}, {"id": 94512, "video": false, "vote_count": 20, "vote_average": 5.1, "title": "All My Life", "release_date": "1966-01-01", "original_language": "en", "original_title": "All My Life", "genre_ids": [10402], "backdrop_path": "/zWI82Q0CbZpXeEW97jINAVKgRVi.jpg", "adult": false, "overview": "The film is made up of one single take. The camera pans to the left, focusing on a dilapidated fence in a rural field, as Ella Fitzgerald's \"All My Life\" plays on the soundtrack. At the end of the 3 minute film, the camera tilts up to the blue sky just as the song ends.", "poster_path": "/kSGcsZoGK48YqctuLIssLshbEWq.jpg", "popularity": 2.216}, {"adult": false, "backdrop_path": null, "genre_ids": [], "id": 144943, "original_language": "en", "original_title": "The Machine of Eden", "overview": "Short film from Stan Brakhage", "poster_path": "/hpQ8vy0trlbfeVeqXHblnwmf07u.jpg", "release_date": "1970-09-23", "title": "The Machine of Eden", "video": false, "vote_average": 5.2, "vote_count": 10, "popularity": 2.906}, {"adult": false, "backdrop_path": "/1huPbney2lArWThlLxSYyStEgET.jpg", "genre_ids": [], "id": 126200, "original_language": "en", "original_title": "Rage Net", "overview": "Part of Three Hand-Painted Films", "poster_path": "/6d7KVD5FdM0xNSqoZzDfpEKY3Np.jpg", "release_date": "1988-01-01", "title": "Rage Net", "video": false, "vote_average": 4.9, "vote_count": 21, "popularity": 3.359}, {"adult": false, "backdrop_path": "/OsSoNuCTXq0T5Y5hE6L1diCBAV.jpg", "genre_ids": [], "id": 126194, "original_language": "en", "original_title": "The Dante Quartet", "overview": "A visual representation, in four parts, of one man's internalization of \"The Divine Comedy.\" Hell is a series of multicolored brush strokes against a white background; the speed of the changing images varies. \"Hell Spit Flexion,\" or springing out of Hell, is on smaller film stock, taking the center of the frame. Montages of color move rapidly with a star and the edge of a lighted moon briefly visible. Purgation is back to full frame; blurs of color occasionally slow down then freeze. From time to time, an image, such as a window or a face, is distinguishable for a moment. In \"existence is song,\" colors swirl then flash in and out of view. Behind the vivid colors are momentary glimpses of volcanic activity.", "poster_path": "/4Bl7aXAbv1peLt8NkmUr5vfkVCs.jpg", "release_date": "1987-01-01", "title": "The Dante Quartet", "video": false, "vote_average": 5.7, "vote_count": 28, "popularity": 4.101}, {"adult": false, "backdrop_path": "/nWHDzHs5nEB2jobpCHCtzEwFVr7.jpg", "genre_ids": [], "id": 126197, "original_language": "en", "original_title": "Night Music", "overview": "Part of Three Hand-Painted Films, Night Music (originally painted on IMAX) attempts to capture the beauty of sadness, as the eyes have it when closed in meditation on sorrow.", "poster_path": "/i0KuzfqGbjKVF2NypFCddePqZMp.jpg", "release_date": "1986-01-01", "title": "Night Music", "video": false, "vote_average": 5.0, "vote_count": 23, "popularity": 2.583}, {"adult": false, "backdrop_path": "/cu5GQuDVHw2iQ6b4N52mE9Utb5O.jpg", "genre_ids": [], "id": 104407, "original_language": "en", "original_title": "Glaze of Cathexis", "overview": "This hand-painted work is easily the most minutely detailed ever given to me to do, for it traces (as best I'm able) the hypnagogic after-effect of psychological cathexis as designed by Freud in his first (and unfinished) book on the subject - \"Toward a Scientific Psychology.\" (SB)", "poster_path": "/mnrvgft9H4iBD1J1SFKd25S550P.jpg", "release_date": "1990-01-01", "title": "Glaze of Cathexis", "video": false, "vote_average": 5.0, "vote_count": 21, "popularity": 3.057}, {"adult": false, "backdrop_path": null, "genre_ids": [], "id": 146662, "original_language": "en", "original_title": "From: First Hymn to the Night \u2013 Novalis", "overview": "\u201cThis is a hand-painted film whose emotionally referential shapes and colors are interwoven with words (in English) from the first Hymn to the Night by the late 18th century mystic poet Friedrich Philipp von Hardenberg, whose pen name was Novalis. The pieces of text which I've used are as follows: \u2018the universally gladdening light \u2026 As inmost soul \u2026 it is breathed by stars \u2026 by stone \u2026 by suckling plant \u2026 multiform beast \u2026 and by (you). I turn aside to Holy Night \u2026 I seek to blend with ashes. Night opens in us \u2026 infinite eyes \u2026 blessed love.\u2019\u201d -SB", "poster_path": "/44ZEsFbhiSfTLKGMw8uzOXnMg2m.jpg", "release_date": "1994-12-31", "title": "From: First Hymn to the Night \u2013 Novalis", "video": false, "vote_average": 4.9, "vote_count": 13, "popularity": 2.56}, {"adult": false, "backdrop_path": null, "genre_ids": [], "id": 126216, "original_language": "en", "original_title": "Comingled Containers", "overview": "Comingled Containers is an experimental short film by Stan Brakhage. \"This 'return to photography' (after several years of only painting film) was made on the eve of cancer surgery - a kind of 'last testament,' if you will\u2026 an envisionment of the fleeting complexity of worldly phenomenon.\"", "poster_path": "/td4O9BT6S0IDFx0vdc8EE8Q1O4o.jpg", "release_date": "1997-01-01", "title": "Comingled Containers", "video": false, "vote_average": 6.0, "vote_count": 21, "popularity": 3.577}, {"id": 132161, "video": false, "vote_count": 14, "vote_average": 6.6, "title": "(nostalgia)", "release_date": "1971-11-20", "original_language": "en", "original_title": "(nostalgia)", "genre_ids": [], "backdrop_path": null, "adult": false, "overview": "In which the off-screen voice of confederate Michael Snow narrates a series of Frampton's photographs (speaking as Frampton, in the first person)\u2014as each picture catches fire on a hot plate.", "poster_path": "/NbIDDIrEcfa0r4REeaCjDEn5J2.jpg", "popularity": 2.611}, {"adult": false, "backdrop_path": "/6sqzYnUmsyODqKQmNRqsknLDiaV.jpg", "genre_ids": [99], "id": 128682, "original_language": "en", "original_title": "A Movie", "overview": "Bruce Conner's landmark experimental film consisting entirely of found footage edited to a new score.", "poster_path": "/8fLURx3aCs2RzBN7wr9rw1BfwT8.jpg", "release_date": "1958-06-29", "title": "A Movie", "video": false, "vote_average": 6.7, "vote_count": 23, "popularity": 3.714}, {"adult": false, "backdrop_path": "/3tESWBr9ABZgX19rp0cQuk20MmW.jpg", "genre_ids": [99], "id": 97513, "original_language": "en", "original_title": "Window Water Baby Moving", "overview": "On a winter's day, a woman stretches near a window then sits in a bathtub of water. She's happy. Her lover is nearby; there are close ups of her face, her pregnant belly, and his hands caressing her. She gives birth: we see the crowning of the baby's head, then the birth itself; we watch a pair of hands tie off and cut the umbilical cord. With the help of the attending hands, the mother expels the placenta. The infant, a baby girl, nurses. We return from time to time to the bath scene. By the end, dad's excited; mother and daughter rest.", "poster_path": "/vnJ6qK7Xo5dM4T7FDFVuYjeixYX.jpg", "release_date": "1959-04-27", "title": "Window Water Baby Moving", "video": false, "vote_average": 7.1, "vote_count": 36, "popularity": 5.128}, {"adult": false, "backdrop_path": "/uLgiTUwbj3lCpu7AR6iAkKKpFun.jpg", "genre_ids": [], "id": 126213, "original_language": "en", "original_title": "Crack Glass Eulogy", "overview": "A nostalgic envisionment of city living - the potential shards of memory seen as if always on the verge of cutting the mind to pieces.", "poster_path": "/fgOQCPeDPLy4xD8ZaWlLlO1Ynpz.jpg", "release_date": "1992-01-01", "title": "Crack Glass Eulogy", "video": false, "vote_average": 5.5, "vote_count": 13, "popularity": 2.992}, {"adult": false, "backdrop_path": null, "genre_ids": [], "id": 143554, "original_language": "de", "original_title": "31/75: Asyl", "overview": "A meadow, a lake, the silhouette of a hill, trees. 21 days of the same view in Saarland. 21 days with five different cut-outs in a mask before the camera, which finally reveals a complete panorama. The landscape changes with the advancing seasons and becomes slowly delirious in its technical alienation.", "poster_path": "/m8XvSjDfZSaysYwZPSBNSajnaEK.jpg", "release_date": "1975-01-01", "title": "31/75: Asylum", "video": false, "vote_average": 5.6, "vote_count": 11, "popularity": 1.4}, {"adult": false, "backdrop_path": "/ytLrBHmjxwqMuDZZMJNEO1qYbC4.jpg", "genre_ids": [], "id": 141419, "original_language": "de", "original_title": "Arnulf Rainer", "overview": "An experimental film, the last in Peter Kubelka's trilogy of \u201cmetric films\u201d. Each frame of Arnulf Rainer is composed of darkness or light and silence or sound.", "poster_path": "/kquqe45ayXH95O4J5IyLcgmLkc5.jpg", "release_date": "1960-12-31", "title": "Arnulf Rainer", "video": false, "vote_average": 4.9, "vote_count": 27, "popularity": 3.169}, {"adult": false, "backdrop_path": "/fA6Ro8zGtz3idohORCpGhKJkRv3.jpg", "genre_ids": [], "id": 126204, "original_language": "en", "original_title": "Black Ice", "overview": "Inspired by a bad fall on a patch of black ice (that ultimately resulted in Brakhage's need for eye surgery), the filmmaker gives us something of a dreamlike descent through the fear and refractions of closed-eye vision regarding such an event.", "poster_path": "/tVdD0f3oNZ2n5dS0GJ9psGQfJSv.jpg", "release_date": "1994-12-31", "title": "Black Ice", "video": false, "vote_average": 5.6, "vote_count": 23, "popularity": 2.678}, {"adult": false, "backdrop_path": "/sawwBIZmPTLHqasH7ShUDXU7iKH.jpg", "genre_ids": [], "id": 126218, "original_language": "en", "original_title": "Lovesong", "overview": "5 parts of the Lovesongs cycle", "poster_path": "/ejUTMQ41xKAymHMTDWXm2ysl54.jpg", "release_date": "2001-03-04", "title": "Lovesong", "video": false, "vote_average": 5.8, "vote_count": 13, "popularity": 3.35}, {"adult": false, "backdrop_path": null, "genre_ids": [35, 14], "id": 148511, "original_language": "en", "original_title": "The 'Teddy' Bears", "overview": "A combination of the story of Goldlocks and the Three Bears with the true story of how Teddy Roosevelt spared a bear cub after killing its mother while hunting, an event which led to the popularization of the teddy bear. Goldilocks goes to sleep in the bears' home after watching six teddy bears dance and do acrobatics, viewing them through a knothole in the wall. When she is awoken by the returning bear family, they give chase through the woods, but she runs to the aid of the Old Rough Rider, who saves her.", "poster_path": "/dCwOE3eJuw9axhsiGsqOV60B1J2.jpg", "release_date": "1907-03-02", "title": "The 'Teddy' Bears", "video": false, "vote_average": 5.4, "vote_count": 14, "popularity": 2.59}], "total_pages": 2, "total_results": 40}, "credits": {"cast": [], "crew": [{"credit_id": "52fe4ad8c3a368484e16a063", "department": "Directing", "gender": 2, "id": 563461, "job": "Director", "name": "Stan Brakhage", "profile_path": "/sAOHIoVBLzD0J3ljgAtLDw47Lo2.jpg"}, {"credit_id": "5d47c9e4a0be28081ea29d16", "department": "Camera", "gender": 2, "id": 563461, "job": "Director of Photography", "name": "Stan Brakhage", "profile_path": "/sAOHIoVBLzD0J3ljgAtLDw47Lo2.jpg"}, {"credit_id": "5d47c9edc1e56e63d16691d2", "department": "Editing", "gender": 2, "id": 563461, "job": "Editor", "name": "Stan Brakhage", "profile_path": "/sAOHIoVBLzD0J3ljgAtLDw47Lo2.jpg"}]}}