{"adult": false, "backdrop_path": "/iizkBTr5Y2dxEA1as8VkrXzZ2dA.jpg", "belongs_to_collection": null, "budget": 120, "genres": [{"id": 18, "name": "Drama"}], "homepage": null, "id": 126124, "imdb_id": "tt0046904", "original_language": "en", "original_title": "Desistfilm", "overview": "Four young men and a young woman sit in boredom. She smokes while one strums a lute, one looks at a magazine, and two fiddle with string. The door opens and in comes a young man, cigarette between his lips, a swagger on his face. The young woman laughs. As the four young men continue disconnected activities, the other two become a couple. When the four realize something has changed, first they stare at the couple who have kissed and now are dancing slowly. The four run from the house in a kind of frenzy and return to stare. The power of sex has unnerved them.", "popularity": 3.808, "poster_path": "/k5SAkAdvDIQzUlJUs1C2KokdhyY.jpg", "production_companies": [], "production_countries": [{"iso_3166_1": "US", "name": "United States of America"}], "release_date": "1954-01-01", "revenue": 0, "runtime": 7, "spoken_languages": [{"iso_639_1": "xx", "name": "No Language"}], "status": "Released", "tagline": "", "title": "Desistfilm", "video": false, "vote_average": 5.4, "vote_count": 19, "keywords": {"keywords": [{"id": 10183, "name": "independent film"}, {"id": 14629, "name": "experimental"}, {"id": 181324, "name": "existentialism"}, {"id": 214549, "name": "short"}]}, "similar": {"page": 1, "results": [{"id": 150540, "video": false, "vote_count": 13957, "vote_average": 7.9, "title": "Inside Out", "release_date": "2015-06-09", "original_language": "en", "original_title": "Inside Out", "genre_ids": [16, 35, 18, 10751], "backdrop_path": "/szytSpLAyBh3ULei3x663mAv5ZT.jpg", "adult": false, "overview": "Growing up can be a bumpy road, and it's no exception for Riley, who is uprooted from her Midwest life when her father starts a new job in San Francisco. Riley's guiding emotions\u2014 Joy, Fear, Anger, Disgust and Sadness\u2014live in Headquarters, the control centre inside Riley's mind, where they help advise her through everyday life and tries to keep things positive, but the emotions conflict on how best to navigate a new city, house and school.", "poster_path": "/aAmfIX3TT40zUHGcCKrlOZRKC7u.jpg", "popularity": 57.362}, {"id": 621733, "video": false, "vote_count": 0, "vote_average": 0.0, "title": "A Trip to the Seaside", "release_date": "2019-08-30", "original_language": "en", "original_title": "A Trip to the Seaside", "genre_ids": [99], "backdrop_path": null, "adult": false, "overview": "Experimental short film on the excitement and rush of a day trip", "poster_path": "/AuZVhpoJ4jm2LWDhoJKfxQfhDAi.jpg", "popularity": 1.324}, {"adult": false, "backdrop_path": "/5OeY4U2rzePxWq2rkqMajUx2gz7.jpg", "genre_ids": [16, 10751, 12, 14, 10749], "id": 812, "original_language": "en", "original_title": "Aladdin", "overview": "Princess Jasmine grows tired of being forced to remain in the palace, so she sneaks out into the marketplace, in disguise, where she meets street-urchin Aladdin.  The couple falls in love, although Jasmine may only marry a prince.  After being thrown in jail, Aladdin becomes embroiled in a plot to find a mysterious lamp, with which the evil Jafar hopes to rule the land.", "poster_path": "/mjKozYRuHc9j7SmiXmbVmCiAM0A.jpg", "release_date": "1992-11-25", "title": "Aladdin", "video": false, "vote_average": 7.6, "vote_count": 7289, "popularity": 35.494}, {"id": 326359, "video": false, "vote_count": 1180, "vote_average": 6.8, "title": "Frozen Fever", "release_date": "2015-03-09", "original_language": "en", "original_title": "Frozen Fever", "genre_ids": [12, 16, 10751], "backdrop_path": "/ubioPGniCfDiASmYYpeJs5RRNaC.jpg", "adult": false, "overview": "On Anna's birthday, Elsa and Kristoff are determined to give her the best celebration ever, but Elsa's icy powers may put more than just the party at risk.", "poster_path": "/lKJiVPzsAO9IJ4LKWXZ8vkR2bg4.jpg", "popularity": 17.218}, {"id": 14813, "video": false, "vote_count": 456, "vote_average": 7.6, "title": "Mickey's Christmas Carol", "release_date": "1983-10-19", "original_language": "en", "original_title": "Mickey's Christmas Carol", "genre_ids": [16, 10751], "backdrop_path": "/fDK3xeAcQfQ40ZUULgZshElkspa.jpg", "adult": false, "overview": "It is an adaptation of the Charles Dickens classic A Christmas Carol, featuring Scrooge McDuck as his namesake and inspiration Ebenezer Scrooge and Mickey Mouse as Bob Cratchit. This film was based on a 1972 audio musical entitled Disney's A Christmas Carol. It is a twenty-four minute animated short film produced by Walt Disney Productions as an accompaniment to a re-release of The Rescuers.", "poster_path": "/29iF1IiC3ZyJQ1kmTf4LD8p8oro.jpg", "popularity": 14.7}, {"id": 650755, "video": false, "vote_count": 0, "vote_average": 0.0, "title": "Atordoado, Eu Permane\u00e7o Atento", "release_date": "2020-01-15", "original_language": "pt", "original_title": "Atordoado, Eu Permane\u00e7o Atento", "genre_ids": [99], "backdrop_path": null, "adult": false, "overview": "", "poster_path": "/exbM8qk6f6T44olJXcM8ix1sunL.jpg", "popularity": 5.092}, {"adult": false, "backdrop_path": "/fJQ5kjLx4UdK05MC323Vlzwr6S8.jpg", "genre_ids": [35, 18, 36], "id": 140823, "original_language": "en", "original_title": "Saving Mr. Banks", "overview": "Author P.L. Travers travels from London to Hollywood as Walt Disney Pictures adapts her novel Mary Poppins for the big screen.", "poster_path": "/mvs3reS18RP6IhjLwwLeVtkoeg0.jpg", "release_date": "2013-11-16", "title": "Saving Mr. Banks", "video": false, "vote_average": 7.4, "vote_count": 2230, "popularity": 11.476}, {"id": 901, "video": false, "vote_count": 1026, "vote_average": 8.4, "title": "City Lights", "release_date": "1931-02-01", "original_language": "xx", "original_title": "City Lights", "genre_ids": [35, 18, 10749], "backdrop_path": "/vT6ux2rdyg2kexuLisO5Ygz7pHg.jpg", "adult": false, "overview": "City Lights is the first silent film that Charlie Chaplin directed after he established himself with sound accompanied films. The film is about a penniless man who falls in love with a flower girl.", "poster_path": "/bXNvzjULc9jrOVhGfjcc64uKZmZ.jpg", "popularity": 14.645}, {"id": 334533, "video": false, "vote_count": 3919, "vote_average": 8.0, "title": "Captain Fantastic", "release_date": "2016-07-02", "original_language": "en", "original_title": "Captain Fantastic", "genre_ids": [12, 35, 18], "backdrop_path": "/hzp6irYITiJc5JUA1GZhmbE10pD.jpg", "adult": false, "overview": "A father living in the forests of the Pacific Northwest with his six young kids tries to assimilate back into society.", "poster_path": "/fnaGmGCWgGOQjCpM0TqKPZJ5x85.jpg", "popularity": 18.228}, {"adult": false, "backdrop_path": "/tr6OExnBfjLADi9OyZoW308mPAp.jpg", "genre_ids": [18, 35, 10749], "id": 74643, "original_language": "en", "original_title": "The Artist", "overview": "Hollywood, 1927: As silent movie star George Valentin wonders if the arrival of talking pictures will cause him to fade into oblivion, he sparks with Peppy Miller, a young dancer set for a big break.", "poster_path": "/i0mpvMIIjyubXsVKug9vX0lYpnd.jpg", "release_date": "2011-06-26", "title": "The Artist", "video": false, "vote_average": 7.4, "vote_count": 1977, "popularity": 10.661}, {"id": 19, "video": false, "vote_count": 1340, "vote_average": 8.2, "title": "Metropolis", "release_date": "1927-01-10", "original_language": "de", "original_title": "Metropolis", "genre_ids": [18, 878], "backdrop_path": "/gmH0N0bdlYGN1EUr8U2cMQYyg78.jpg", "adult": false, "overview": "In a futuristic city sharply divided between the working class and the city planners, the son of the city's mastermind falls in love with a working class prophet who predicts the coming of a savior to mediate their differences.", "poster_path": "/qriaeUUwdmlgethK3aSAx68mG05.jpg", "popularity": 20.587}, {"id": 4977, "video": false, "vote_count": 999, "vote_average": 7.8, "title": "Paprika", "release_date": "2006-10-01", "original_language": "ja", "original_title": "\u30d1\u30d7\u30ea\u30ab", "genre_ids": [16, 18, 9648, 878, 53], "backdrop_path": "/jViKJYWcILHeN0KH1Wub0Go59TZ.jpg", "adult": false, "overview": "When a machine that allows therapists to enter their patient's dreams is stolen, all hell breaks loose. Only a young female therapist can stop it: Paprika.", "poster_path": "/bLUUr474Go1DfeN1HLjE3rnZXBq.jpg", "popularity": 14.934}, {"id": 37135, "video": false, "vote_count": 4092, "vote_average": 7.4, "title": "Tarzan", "release_date": "1999-06-18", "original_language": "en", "original_title": "Tarzan", "genre_ids": [12, 16, 18, 10751], "backdrop_path": "/hCpRqibOM0ouOiqL0HMqZOF8bYe.jpg", "adult": false, "overview": "Tarzan was a small orphan who was raised by an ape named Kala since he was a child. He believed that this was his family, but on an expedition Jane Porter is rescued by Tarzan. He then finds out that he's human. Now Tarzan must make the decision as to which family he should belong to...", "poster_path": "/y6k0qn4tcDfbnrjJ2BUnoZYmMBk.jpg", "popularity": 22.572}, {"adult": false, "backdrop_path": "/twGxeStlGooWV3gP6ZIcSNuQ6jf.jpg", "genre_ids": [12, 16, 10751, 14], "id": 81684, "original_language": "en", "original_title": "The Gruffalo's Child", "overview": "A follow up to the 2009 animated feature and adapted from the childrens' book by Julia Donaldson and Alex Scheffler.  The Gruffalo's child explores the deep dark wood in search of the big bad mouse and meets the Snake, Owl and Fox in the process.  She eventually finds the mouse, who manages to outwit her like the Gruffalo before!", "poster_path": "/qaGH2AoaLvoGXURQtNzj1nw6oZd.jpg", "release_date": "2011-12-25", "title": "The Gruffalo's Child", "video": false, "vote_average": 6.9, "vote_count": 73, "popularity": 9.51}, {"adult": false, "backdrop_path": "/4aWNF3HT0ryJNLWTxtxBuMFrd3O.jpg", "genre_ids": [28, 53, 18], "id": 309886, "original_language": "en", "original_title": "Blood Father", "overview": "An ex-con reunites with his estranged wayward 16-year old daughter to protect her from drug dealers who are trying to kill her.", "poster_path": "/cKDGrVItQTdDn6LqcICz91AOxs3.jpg", "release_date": "2016-08-11", "title": "Blood Father", "video": false, "vote_average": 6.1, "vote_count": 905, "popularity": 12.786}, {"id": 621485, "video": false, "vote_count": 2, "vote_average": 5.5, "title": "Guest of Honor", "release_date": "2019-08-14", "original_language": "en", "original_title": "Guest of Honor", "genre_ids": [18], "backdrop_path": "/qo3f05mAqiGG5yDyVhURwwhR1oh.jpg", "adult": false, "overview": "A devout Nazi oversees a group of taste testers for Hitler.", "poster_path": "/g02YorY0sAVDJuXdL42Vpmqtv0g.jpg", "popularity": 3.407}, {"adult": false, "backdrop_path": null, "genre_ids": [], "id": 616262, "original_language": "ar", "original_title": "All Come From Dust", "overview": "A loop of edgeless bend. You were its doom, he was its bloom. You were its tomb, he was its womb. You were its gloom, he was its loom. For Heaven and Hell, were words made of fume.", "poster_path": null, "release_date": "2019-08-13", "title": "All Come From Dust", "video": false, "vote_average": 5.0, "vote_count": 1, "popularity": 0.6}, {"adult": false, "backdrop_path": "/qFLDF62VbWyyxkwco9lwZqkGoMB.jpg", "genre_ids": [16, 10751], "id": 10895, "original_language": "en", "original_title": "Pinocchio", "overview": "Lonely toymaker Geppetto has his wishes answered when the Blue Fairy arrives to bring his wooden puppet Pinocchio to life. Before becoming a real boy, however, Pinocchio must prove he's worthy as he sets off on an adventure with his whistling sidekick and conscience, Jiminy Cricket.", "poster_path": "/gN1dQBHi4557cFduIu9njOr6knW.jpg", "release_date": "1940-02-23", "title": "Pinocchio", "video": false, "vote_average": 7.0, "vote_count": 3431, "popularity": 25.831}, {"id": 856, "video": false, "vote_count": 3249, "vote_average": 7.4, "title": "Who Framed Roger Rabbit", "release_date": "1988-06-21", "original_language": "en", "original_title": "Who Framed Roger Rabbit", "genre_ids": [16, 35, 80, 14, 10751], "backdrop_path": "/9podqGmd36AJHO13HQIQHQZRTJC.jpg", "adult": false, "overview": "'Toon star Roger is worried that his wife Jessica is playing pattycake with someone else, so the studio hires detective Eddie Valiant to snoop on her. But the stakes are quickly raised when Marvin Acme is found dead and Roger is the prime suspect.", "poster_path": "/lYfRc57Kx9VgLZ48iulu0HKnM15.jpg", "popularity": 20.755}, {"id": 12092, "video": false, "vote_count": 3673, "vote_average": 7.1, "title": "Alice in Wonderland", "release_date": "1951-07-03", "original_language": "en", "original_title": "Alice in Wonderland", "genre_ids": [12, 16, 14, 10751], "backdrop_path": "/p6frW7qR3wUbssM25BS8BlzyoKc.jpg", "adult": false, "overview": "On a golden afternoon, young Alice follows a White Rabbit, who disappears down a nearby rabbit hole. Quickly following him, she tumbles into the burrow - and enters the merry, topsy-turvy world of Wonderland! Memorable songs and whimsical escapades highlight Alice's journey, which culminates in a madcap encounter with the Queen of Hearts - and her army of playing cards!", "poster_path": "/AdwfqyNiH8UqeYKFYoiKhwTtjAb.jpg", "popularity": 31.985}], "total_pages": 1036, "total_results": 20719}, "recommendations": {"page": 1, "results": [{"adult": false, "backdrop_path": "/fA6Ro8zGtz3idohORCpGhKJkRv3.jpg", "genre_ids": [], "id": 126204, "original_language": "en", "original_title": "Black Ice", "overview": "Inspired by a bad fall on a patch of black ice (that ultimately resulted in Brakhage's need for eye surgery), the filmmaker gives us something of a dreamlike descent through the fear and refractions of closed-eye vision regarding such an event.", "poster_path": "/tVdD0f3oNZ2n5dS0GJ9psGQfJSv.jpg", "release_date": "1994-12-31", "title": "Black Ice", "video": false, "vote_average": 5.6, "vote_count": 23, "popularity": 3.092}, {"adult": false, "backdrop_path": "/ms7leGZXJOQJa0zoGxf3JgkuCWY.jpg", "genre_ids": [], "id": 175461, "original_language": "de", "original_title": "Lichtspiel: Opus I", "overview": "Against a dark background, several bright, curved or rounded shapes pulse towards the center of the screen, one at a time. They are followed by many other shapes, some irregular, some pointed, others rounded. The abstract shapes move into or across the screen in harmony with the musical score.", "poster_path": "/10Ijl1svZg0GNNzATfvCKBABX6Y.jpg", "release_date": "1921-04-26", "title": "Lichtspiel: Opus I", "video": false, "vote_average": 6.4, "vote_count": 23, "popularity": 1.984}, {"adult": false, "backdrop_path": null, "genre_ids": [10749], "id": 126128, "original_language": "en", "original_title": "Wedlock House: An Intercourse", "overview": "We see a film negative of a nude couple embracing in bed. Then, back in regular black and white images, we see them alone and together, clothed, at home. It's night, she sees his reflection in the window, she closes the drapes. After sex, again in a black and white negative, they sit, smoke, have coffee. They kiss, she smiles. They light candles. The images are often quick, the camera angles occasionally are off kilter; the room is sometimes dark and sometimes lit, as if lit by the rotating of a searchlight. The images again appear in negative when they return to bed.", "poster_path": "/4qN7pmgRJPIfXDlOvlAxC5zJ2w6.jpg", "release_date": "1959-01-01", "title": "Wedlock House: An Intercourse", "video": false, "vote_average": 5.4, "vote_count": 13, "popularity": 2.741}, {"adult": false, "backdrop_path": null, "genre_ids": [], "id": 153082, "original_language": "en", "original_title": "Fotel", "overview": "A story about the fight for power told with the help of simple graphics. The huge building, the huge column hall, one chair around the chairman's board table is empty. We observe the fight for that chair: little men run and fight, all tricks are allowed.", "poster_path": "/aZnrpP0oQDRNViZJWECcy1wQz1s.jpg", "release_date": "1963-12-29", "title": "Fotel", "video": false, "vote_average": 6.0, "vote_count": 10, "popularity": 1.4}, {"adult": false, "backdrop_path": null, "genre_ids": [16], "id": 209752, "original_language": "en", "original_title": "69", "overview": "Robert Breer animation from 1970.  16mm, color, silent, using spray paint & stencils.", "poster_path": "/lj33kNS5OS21hxAp6rmhI7huTOB.jpg", "release_date": "1969-04-10", "title": "69", "video": false, "vote_average": 5.5, "vote_count": 13, "popularity": 2.452}, {"adult": false, "backdrop_path": null, "genre_ids": [], "id": 189495, "original_language": "fr", "original_title": "Cinq minutes de cin\u00e9ma pur", "overview": "Avant-garde short focused on the pure elements of film like form, visual composition, and rhythm.", "poster_path": "/9j60uN74DMpwhaDeHNg5j49pWbA.jpg", "release_date": "1926-01-01", "title": "Five Minutes of Pure Cinema", "video": false, "vote_average": 6.6, "vote_count": 10, "popularity": 1.439}, {"adult": false, "backdrop_path": null, "genre_ids": [18], "id": 130838, "original_language": "en", "original_title": "Valse Triste", "overview": "With a similar dreamy mood like its predecessor \"Take the 5:10 to Dreamland\" (1976) this clip starts with a boy getting into his bed. The camera zooms in into the boy's mind and a slow, sad waltz (i.e.\"Valse Triste\") accompanies images of a locomotive, a miner, the globe, the sky, a sheep heard, etc. Disparate elements, but if one concentrates only at the movement of the figures, one can perceive a commotion, slowly livening up: The starting wheels of the heavy locomotive, the tired miner pushing the heavy cart of coal bricks, the globe smoothly turning around and around, the clouds imperceptibly floating in the sky, the sheep idly moving in the herd, etc.  We reach the first climax when a mannequin opens her coat like a flower. The second big crescendo spurts out from a \"water hose\", after watching schoolgirls doing gymnastics for quite a while. A sad, but nostalgic aftertaste lingers in the end when funeral cars drive away through a flooded area\u2026", "poster_path": "/fsLJMk1dPfzr5qXd3IRSmZRxpX6.jpg", "release_date": "1977-06-01", "title": "Valse Triste", "video": false, "vote_average": 6.1, "vote_count": 9, "popularity": 2.37}, {"adult": false, "backdrop_path": null, "genre_ids": [], "id": 147606, "original_language": "sv", "original_title": "Studie II: Hallucinationer", "overview": "\"Studie II (Hallucinationer)\" (Study II (Hallucinations)) (1952), comprises twelve staged scenes that were modelled after a set of drawings. Accompanied by metallic sounds, various body parts, limbs and objects form surrealistic collages against the background of a black space. Peter Weiss intended to create associative images that can not be deciphered completely. Beyond any logical interpretation, he wanted to show pure inner feelings. In a conversation with Harun Farocki from 1980, Peter Weiss admitted in retrospect that the images had very well developed a strong psychological effect. Referring to the situation of his exile, he stated that \"this had to do with the traumatic as well as dreamlike experience of rupture and alienation.\"  (UbuWeb)", "poster_path": "/n4u6XSoK6VyrHOGIMvQu6oLtn4K.jpg", "release_date": "1952-12-31", "title": "Studie II: Hallucinationer", "video": false, "vote_average": 4.6, "vote_count": 11, "popularity": 1.041}, {"adult": false, "backdrop_path": null, "genre_ids": [], "id": 126216, "original_language": "en", "original_title": "Comingled Containers", "overview": "Comingled Containers is an experimental short film by Stan Brakhage. \"This 'return to photography' (after several years of only painting film) was made on the eve of cancer surgery - a kind of 'last testament,' if you will\u2026 an envisionment of the fleeting complexity of worldly phenomenon.\"", "poster_path": "/td4O9BT6S0IDFx0vdc8EE8Q1O4o.jpg", "release_date": "1997-01-01", "title": "Comingled Containers", "video": false, "vote_average": 6.0, "vote_count": 21, "popularity": 4.168}, {"id": 97509, "video": false, "vote_count": 23, "vote_average": 5.7, "title": "Cat's Cradle", "release_date": "1959-01-01", "original_language": "en", "original_title": "Cat's Cradle", "genre_ids": [], "backdrop_path": "/iKBt1UeAKah43uAC4dsMjHVh6dP.jpg", "adult": false, "overview": "Images of two women, two men, and a gray cat form a montage of rapid bits of movement. A woman is in a bedroom, another wears an apron: they work with their hands, occasionally looking up. A man enters a room, a woman smiles. He sits, another man sits and smokes. The cat stretches. There are close-ups of each. The light is dim; a filter accentuates red. A bare foot stands on a satin sheet. A woman disrobes. She pets the cat.", "poster_path": "/gMLoPZAHhdnUIOAE7w3UuCjVVQA.jpg", "popularity": 2.928}, {"adult": false, "backdrop_path": null, "genre_ids": [16], "id": 147721, "original_language": "en", "original_title": "Olympiad", "overview": "Study in motion based on Muybridge\u2019s photographs of man running.", "poster_path": "/xAZqGKkKEGZLudirQueicKaU2MI.jpg", "release_date": "1971-12-31", "title": "Olympiad", "video": false, "vote_average": 5.3, "vote_count": 8, "popularity": 1.313}, {"adult": false, "backdrop_path": null, "genre_ids": [], "id": 147723, "original_language": "en", "original_title": "A Romance of the Rail", "overview": "", "poster_path": "/n4Rk8gxnLpfZadxybHIdMyzI8dY.jpg", "release_date": "1903-10-31", "title": "A Romance of the Rail", "video": false, "vote_average": 4.5, "vote_count": 12, "popularity": 1.335}, {"adult": false, "backdrop_path": "/2PQChVSdIQICZczqBDKYHO5ZnhO.jpg", "genre_ids": [], "id": 126189, "original_language": "en", "original_title": "The Garden of Earthly Delights", "overview": "A collage of two-dimensional images of vegetation, each appearing only for a moment, sometimes as a single image, more often with other bits of stem, leaf, bud, or petal. Often we see only the outline of objects against a black background. Black and green are occasionally joined by fragments of orange or of white and blue. The objects in the frame don't move but they are quickly replaced by another collage, giving the feel of rapid motion. Each collage is crisp, its lines etched against the background of black and later of white. Whitman anyone, or Hieronymus Bosch? Although there is no soundtrack, the rapidity of changing images and colors suggests a riot.", "poster_path": "/6vU4j5Wx14qrdPVPGbT4Noz2Wzi.jpg", "release_date": "1981-01-01", "title": "The Garden of Earthly Delights", "video": false, "vote_average": 5.7, "vote_count": 20, "popularity": 3.346}, {"adult": false, "backdrop_path": null, "genre_ids": [], "id": 144992, "original_language": "en", "original_title": "Burial Path", "overview": "The film begins with the image of a dead bird. The mind moves to forget, as well as to remember: this film graphs the process of forgetfulness against all oddities of remembered bird-shape.", "poster_path": "/92b28xVsLgxRqZ50IGsw4b2A7w6.jpg", "release_date": "1978-12-31", "title": "Burial Path", "video": false, "vote_average": 5.1, "vote_count": 9, "popularity": 1.925}, {"adult": false, "backdrop_path": null, "genre_ids": [], "id": 212101, "original_language": "en", "original_title": "The Midnight Party", "overview": "Part of The Children's Trilogy. Filmed in 1938, effects added by Larry Jordan ca. 1965-68.", "poster_path": "/sz2i6K6pNfVJy0D5Yz46PTWxaa.jpg", "release_date": "1938-12-31", "title": "The Midnight Party", "video": false, "vote_average": 5.3, "vote_count": 10, "popularity": 2.048}, {"adult": false, "backdrop_path": null, "genre_ids": [], "id": 147820, "original_language": "pl", "original_title": "Wszystko jest liczba", "overview": "Man's rebellion against the world of the digits.", "poster_path": "/xOleMeWOuXMuqAbbMimuw84Tger.jpg", "release_date": "1967-12-31", "title": "Everything Is a Number", "video": false, "vote_average": 5.2, "vote_count": 9, "popularity": 1.481}, {"adult": false, "backdrop_path": "/oLYltHTFgIxT8sgp9gFa9MBNVYY.jpg", "genre_ids": [35, 16], "id": 148176, "original_language": "en", "original_title": "A Chairy Tale", "overview": "An ordinary looking chair refuses to be sat upon.", "poster_path": "/uHP7rrb0tAvEX0qwyQBNG2c6NBE.jpg", "release_date": "1957-12-31", "title": "A Chairy Tale", "video": false, "vote_average": 6.9, "vote_count": 16, "popularity": 2.356}, {"adult": false, "backdrop_path": null, "genre_ids": [16], "id": 162512, "original_language": "en", "original_title": "Buried Treasure", "overview": "Eveready Horton and his behemoth penis venture through the country in search of the penetrable.", "poster_path": "/lMlnImqDRZKJHcT9MtEgkt5FLE0.jpg", "release_date": "1929-04-29", "title": "Eveready Harton in Buried Treasure", "video": false, "vote_average": 6.4, "vote_count": 13, "popularity": 4.11}, {"adult": false, "backdrop_path": "/wbuguF12mmFkDhpHLEblLjTLoOn.jpg", "genre_ids": [], "id": 209714, "original_language": "en", "original_title": "Arabesque for Kenneth Anger", "overview": "Filmed at the Alhambra in Spain in just one day, according to Marie Menken. Arabesque for Kenneth Anger concentrates on visual details found in Moorish architecture and in ancient Spanish tile. The date 1961 refers to the addition of Teiji Ito's soundtrack and its subsequent completion, but the film was likely shot in 1960 or earlier. - David Lewis", "poster_path": "/12vJWnrSd1JVNhHJY28Pk34tAsr.jpg", "release_date": "1961-12-29", "title": "Arabesque for Kenneth Anger", "video": false, "vote_average": 5.9, "vote_count": 12, "popularity": 2.653}, {"adult": false, "backdrop_path": null, "genre_ids": [35, 878], "id": 180139, "original_language": "en", "original_title": "That Fatal Sneeze", "overview": "As an older man and a youth are eating at the table, the older man decides to amuse himself by using pepper to make the boy sneeze. Later, the boy retaliates by sneaking into the older man's room and putting pepper in his handkerchief, hairbrush, and clothing. But things quickly get out of hand when the sneezing that results begins to disrupt the whole town.", "poster_path": "/x4mZO7zXIA2ADDacShDqybIuyNN.jpg", "release_date": "1907-06-01", "title": "That Fatal Sneeze", "video": false, "vote_average": 5.4, "vote_count": 12, "popularity": 1.323}], "total_pages": 2, "total_results": 40}, "credits": {"cast": [{"cast_id": 10, "character": "", "credit_id": "59de67a792514124eb08f1c3", "gender": 0, "id": 1904128, "name": "A. Austin", "order": 0, "profile_path": null}, {"cast_id": 5, "character": "", "credit_id": "59de6711925141251f092f1d", "gender": 2, "id": 185128, "name": "Robert Benson", "order": 1, "profile_path": null}, {"cast_id": 6, "character": "", "credit_id": "59de671a92514124c50916de", "gender": 0, "id": 1867674, "name": "Yvonne Fair", "order": 2, "profile_path": null}, {"cast_id": 7, "character": "", "credit_id": "59de672292514124c9091133", "gender": 2, "id": 267634, "name": "Lawrence Jordan", "order": 3, "profile_path": "/kPUKW15tPKo39qYOSt5oXSW91js.jpg"}, {"cast_id": 8, "character": "", "credit_id": "59de6733925141251f092f51", "gender": 0, "id": 1600360, "name": "Walter Newcomb", "order": 4, "profile_path": null}, {"cast_id": 9, "character": "", "credit_id": "59de673ac3a3686227089a9a", "gender": 2, "id": 1130574, "name": "James Tenney", "order": 5, "profile_path": "/zZX3wDDVMLqs2FtepvHJWrqp3Xe.jpg"}], "crew": [{"credit_id": "52fe4ad8c3a368484e169f95", "department": "Directing", "gender": 2, "id": 563461, "job": "Director", "name": "Stan Brakhage", "profile_path": "/sAOHIoVBLzD0J3ljgAtLDw47Lo2.jpg"}, {"credit_id": "59de66da92514125140935ac", "department": "Editing", "gender": 2, "id": 563461, "job": "Editor", "name": "Stan Brakhage", "profile_path": "/sAOHIoVBLzD0J3ljgAtLDw47Lo2.jpg"}, {"credit_id": "59de66e1c3a368623e08dcf9", "department": "Writing", "gender": 2, "id": 563461, "job": "Writer", "name": "Stan Brakhage", "profile_path": "/sAOHIoVBLzD0J3ljgAtLDw47Lo2.jpg"}, {"credit_id": "59de66d4c3a36861a308e7fc", "department": "Crew", "gender": 2, "id": 563461, "job": "Cinematography", "name": "Stan Brakhage", "profile_path": "/sAOHIoVBLzD0J3ljgAtLDw47Lo2.jpg"}]}}