{"adult": false, "backdrop_path": "/pXr8z7SxPqreyTyn8Sq4SYRa7Yt.jpg", "belongs_to_collection": null, "budget": 0, "genres": [{"id": 18, "name": "Drama"}], "homepage": null, "id": 126517, "imdb_id": "tt0025338", "original_language": "ja", "original_title": "Kagirinaki hod\u00f4", "overview": "Mikio Naruse\u2019s final silent film is a gloriously rich portrait of a waitress, Sugiko, whose life, despite a host of male admirers and even some intrigued movie talent scouts, ends up taking a suffocatingly domestic turn after a wealthy businessman accidentally hits her with his car", "popularity": 1.715, "poster_path": "/nX8f4gkpMuVM1cE4i1KCABbNNC4.jpg", "production_companies": [{"id": 192, "logo_path": "/93eAKlnQecDdMtucfOprzcjMw9V.png", "name": "Shochiku Co., Ltd.", "origin_country": "JP"}], "production_countries": [{"iso_3166_1": "JP", "name": "Japan"}], "release_date": "1934-04-26", "revenue": 0, "runtime": 87, "spoken_languages": [{"iso_639_1": "xx", "name": "No Language"}], "status": "Released", "tagline": "", "title": "Street Without End", "video": false, "vote_average": 7.2, "vote_count": 6, "keywords": {"keywords": [{"id": 828, "name": "waitress"}, {"id": 3925, "name": "boredom"}, {"id": 6038, "name": "marriage"}, {"id": 11612, "name": "hospital"}, {"id": 13063, "name": "car accident"}, {"id": 18035, "name": "family"}, {"id": 155808, "name": "hometown"}, {"id": 156478, "name": "boyfriend"}]}, "similar": {"page": 1, "results": [{"id": 1903, "video": false, "vote_count": 2234, "vote_average": 6.8, "title": "Vanilla Sky", "release_date": "2001-12-10", "original_language": "en", "original_title": "Vanilla Sky", "genre_ids": [18, 14, 878, 53, 10749], "backdrop_path": "/6XwX3HzKhlBUbTy2qZx0THQOu2T.jpg", "adult": false, "overview": "David Aames has it all: wealth, good looks and gorgeous women on his arm. But just as he begins falling for the warmhearted Sofia, his face is horribly disfigured in a car accident. That's just the beginning of his troubles as the lines between illusion and reality, between life and death, are blurred.", "poster_path": "/ujMy9P4VczTW9YSpAM31uqdOMpz.jpg", "popularity": 14.632}, {"id": 12531, "video": false, "vote_count": 91, "vote_average": 6.9, "title": "The Apartment", "release_date": "1996-07-27", "original_language": "fr", "original_title": "L'Appartement", "genre_ids": [18, 9648, 10749], "backdrop_path": "/64qyT8m4JQ6YODvXxtbHgKmXBX7.jpg", "adult": false, "overview": "A stylish suspense thriller that confounds the audience while presenting them with an extraordinary and elusive mystery. Max is a former playboy who has decided to settle down by marrying his current love, Muriel. However, during a business trip, Max catches a glimpse of the great lost love of his life, reviving his wanderlust and sending him off on a chase of the elusive Lisa, whom he had overheard suggesting to a friend that her lover, Daniel, had killed someone for her. Soon, Max is trying to unravel the mystery behind the suspicious death of Daniel's wife, which he hopes will lead him closer to Lisa.", "poster_path": "/1sqrQdQTn8jKLhUcPKfRVj639zA.jpg", "popularity": 21.259}, {"id": 521, "video": false, "vote_count": 1257, "vote_average": 8.0, "title": "Dial M for Murder", "release_date": "1954-05-29", "original_language": "en", "original_title": "Dial M for Murder", "genre_ids": [80, 18, 9648, 53], "backdrop_path": "/jVMlfESb0TJ29w8CUDDofEprMmn.jpg", "adult": false, "overview": "An ex-tennis pro carries out a plot to have his wife murdered after discovering she is having an affair, and assumes she will soon leave him for the other man anyway. When things go wrong, he improvises a new plan\u2014to frame her for murder instead.", "poster_path": "/xrpK1PyckNWmRxU4kZURfaCyboS.jpg", "popularity": 34.566}, {"id": 40807, "video": false, "vote_count": 2336, "vote_average": 7.1, "title": "50/50", "release_date": "2011-09-30", "original_language": "en", "original_title": "50/50", "genre_ids": [35, 18], "backdrop_path": "/kGac26bIqfwm8eqbP1RjKP70brE.jpg", "adult": false, "overview": "Inspired by a true story, a comedy centered on a 27-year-old guy who learns of his cancer diagnosis, and his subsequent struggle to beat the disease.", "poster_path": "/uDKmnFHqE3rQ9r6ErQsOZWuzXN8.jpg", "popularity": 19.878}, {"id": 427900, "video": false, "vote_count": 766, "vote_average": 6.0, "title": "Home Again", "release_date": "2017-09-07", "original_language": "en", "original_title": "Home Again", "genre_ids": [35, 18, 10749], "backdrop_path": "/xzXPybvwRXGIU5Bbw68YHVkTUW2.jpg", "adult": false, "overview": "Life for a single mom in Los Angeles takes an unexpected turn when she allows three young guys to move in with her.", "poster_path": "/pE4VHzhDZgvbx2QOllaXXPADiW1.jpg", "popularity": 14.391}, {"adult": false, "backdrop_path": "/3JwMtXzTndAQDkRtg43bG6EEkf4.jpg", "genre_ids": [18, 10749], "id": 23830, "original_language": "en", "original_title": "Last Night", "overview": "The story follows a married couple, apart for a night while the husband takes a business trip with a colleague to whom he's attracted. While he's resisting temptation, his wife encounters her past love.", "poster_path": "/dspTY7C3IHXsMm5dZVQqqgfPHbN.jpg", "release_date": "2010-05-11", "title": "Last Night", "video": false, "vote_average": 6.2, "vote_count": 498, "popularity": 10.449}, {"adult": false, "backdrop_path": "/fzoMp3OuwbvKTXosew49HwlQG65.jpg", "genre_ids": [18], "id": 254172, "original_language": "en", "original_title": "Fathers and Daughters", "overview": "A Pulitzer-winning writer grapples with being a widower and father after a mental breakdown, while, 27 years later, his grown daughter struggles to forge connections of her own.", "poster_path": "/fgzp7gGea27hN5d26mgKtZJQgX7.jpg", "release_date": "2015-10-01", "title": "Fathers and Daughters", "video": false, "vote_average": 7.2, "vote_count": 619, "popularity": 12.34}, {"id": 11821, "video": false, "vote_count": 285, "vote_average": 6.2, "title": "Doc Hollywood", "release_date": "1991-08-02", "original_language": "en", "original_title": "Doc Hollywood", "genre_ids": [35, 10749], "backdrop_path": "/kcqyI3pRvSDulyv2I9qfKmGuuuk.jpg", "adult": false, "overview": "After leaving Washington D.C. hospital, plastic surgeon Ben Stone heads for California, where a lucrative practice in Beverly Hills awaits. After a car accident, he's sentenced to perform as the community's general practitioner.", "poster_path": "/zha7PCdeJj309E3SLjcLEIW47gN.jpg", "popularity": 16.782}, {"id": 332872, "video": false, "vote_count": 511, "vote_average": 7.1, "title": "Julieta", "release_date": "2016-04-08", "original_language": "es", "original_title": "Julieta", "genre_ids": [18, 10749], "backdrop_path": "/hx9gGAoCysvmIMkJBxstNH2Fobx.jpg", "adult": false, "overview": "The film spans 30 years in Julieta\u2019s life from a nostalgic 1985 where everything seems hopeful, to 2015 where her life appears to be beyond repair and she is on the verge of madness.", "poster_path": "/vvGuzaTGOFhJYL4MqfrR8Ib1WhA.jpg", "popularity": 8.938}, {"id": 300681, "video": false, "vote_count": 586, "vote_average": 5.9, "title": "Replicas", "release_date": "2018-10-25", "original_language": "en", "original_title": "Replicas", "genre_ids": [878, 53], "backdrop_path": "/9gjvI20crsLvsmQ2DjvMIATnDHC.jpg", "adult": false, "overview": "A scientist becomes obsessed with returning his family to normalcy after a terrible accident.", "poster_path": "/hhPBTAn9b4TYOxc1JYNsX4BFAlW.jpg", "popularity": 17.808}, {"id": 568091, "video": false, "vote_count": 751, "vote_average": 6.6, "title": "Fractured", "release_date": "2019-09-22", "original_language": "en", "original_title": "Fractured", "genre_ids": [53], "backdrop_path": "/3UnUxeEAGoZhjIW8X1HpEuDPngV.jpg", "adult": false, "overview": "Driving cross-country, Ray and his wife and daughter stop at a highway rest area where his daughter falls and breaks her arm. After a frantic rush to the hospital and a clash with the check-in nurse, Ray is finally able to get her to a doctor. While the wife and daughter go downstairs for an MRI, Ray, exhausted, passes out in a chair in the lobby. Upon waking up, they have no record or knowledge of Ray's family ever being checked in.", "poster_path": "/paZNRffT3kUckuRFKbeDBuX1YcZ.jpg", "popularity": 19.226}, {"id": 225886, "video": false, "vote_count": 2903, "vote_average": 5.3, "title": "Sex Tape", "release_date": "2014-07-17", "original_language": "en", "original_title": "Sex Tape", "genre_ids": [35], "backdrop_path": "/82j1VNKMnDx7ZA7Pm06vm0XMKas.jpg", "adult": false, "overview": "When Jay and Annie first got together, their romantic connection was intense \u2013 but ten years and two kids later, the flame of their love needs a spark.  To kick things up a notch, they decide \u2013 why not? \u2013 to make a video of themselves trying out every position in The Joy of Sex in one marathon three-hour session.  It seems like a great idea \u2013 until they discover that their most private video is no longer private.  With their reputations on the line, they know they\u2019re just one click away from being laid bare to the world... but as their race to reclaim their video leads to a night they'll never forget, they'll find that their video will expose even more than they bargained for.", "poster_path": "/2BMmIPGu5ZbTrwXwomdSUuTB2Ul.jpg", "popularity": 25.57}, {"adult": false, "backdrop_path": "/wQraxOsaq0NwTO9rSwLo4Nc8hVG.jpg", "genre_ids": [10751, 14, 16, 10749], "id": 11224, "original_language": "en", "original_title": "Cinderella", "overview": "Cinderella has faith her dreams of a better life will come true. With help from her loyal mice friends and a wave of her Fairy Godmother's wand, Cinderella's rags are magically turned into a glorious gown and off she goes to the Royal Ball. But when the clock strikes midnight, the spell is broken, leaving a single glass slipper... the only key to the ultimate fairy-tale ending!", "poster_path": "/avz6S9HYWs4O8Oe4PenBFNX4uDi.jpg", "release_date": "1950-03-04", "title": "Cinderella", "video": false, "vote_average": 7.0, "vote_count": 4101, "popularity": 28.485}, {"id": 12102, "video": false, "vote_count": 1128, "vote_average": 7.5, "title": "Kramer vs. Kramer", "release_date": "1979-12-18", "original_language": "en", "original_title": "Kramer vs. Kramer", "genre_ids": [18], "backdrop_path": "/aE33zDunu8FTj76IXqJmHVbcRWg.jpg", "adult": false, "overview": "Ted Kramer is a career man for whom his work comes before his family. His wife Joanna cannot take this anymore, so she decides to leave him. Ted is now faced with the tasks of housekeeping and taking care of himself and their young son Billy.", "poster_path": "/oyYtH37h8rLUxlERoD49losVvlg.jpg", "popularity": 14.682}, {"adult": false, "backdrop_path": "/rGWzox5V7dv6KE1gYlZAZ2sUvKJ.jpg", "genre_ids": [18, 10749], "id": 16642, "original_language": "en", "original_title": "Days of Heaven", "overview": "In 1910, a Chicago steel worker accidentally kills his supervisor and flees to the Texas panhandle with his girlfriend and little sister to work harvesting wheat in the fields of a stoic farmer. A love triangle, a swarm of locusts, a hellish fire\u2014Malick captures it all with dreamlike authenticity, creating at once a timeless American idyll and a gritty evocation of turn-of-the-century labor.", "poster_path": "/rjw7tQbiBnbIeufyEt02oVickDM.jpg", "release_date": "1978-09-13", "title": "Days of Heaven", "video": false, "vote_average": 7.6, "vote_count": 459, "popularity": 10.835}, {"id": 11121, "video": false, "vote_count": 146, "vote_average": 6.8, "title": "Tess", "release_date": "1979-10-06", "original_language": "en", "original_title": "Tess", "genre_ids": [18, 10749], "backdrop_path": "/rSaHcXMo4Mz6pXzE3y1PwwMDaqT.jpg", "adult": false, "overview": "A strong-willed peasant girl is sent by her father to the estate of some local aristocrats to capitalize on a rumor that their families are from the same line. This fateful visit commences an epic narrative of sex, class, betrayal, and revenge.", "poster_path": "/m2qx66UNTMg17CoFSGZWC7csG7M.jpg", "popularity": 11.783}, {"id": 50546, "video": false, "vote_count": 3333, "vote_average": 6.5, "title": "Just Go with It", "release_date": "2011-02-10", "original_language": "en", "original_title": "Just Go with It", "genre_ids": [35, 10749], "backdrop_path": "/7pa08RTp610h72pZnqqgkmsB76l.jpg", "adult": false, "overview": "A plastic surgeon, romancing a much younger schoolteacher, enlists his loyal assistant to pretend to be his soon to be ex-wife, in order to cover up a careless lie. When more lies backfire, the assistant's kids become involved, and everyone heads off for a weekend in Hawaii that will change all their lives.", "poster_path": "/4sJDqzBaqBprkEy0aLjIGl7TrHx.jpg", "popularity": 20.158}, {"id": 46705, "video": false, "vote_count": 1862, "vote_average": 6.9, "title": "Blue Valentine", "release_date": "2010-12-16", "original_language": "en", "original_title": "Blue Valentine", "genre_ids": [18, 10749], "backdrop_path": "/4FLZTeVWrp14vm5wMlSJzEghDrd.jpg", "adult": false, "overview": "Dean and Cindy live a quiet life in a modest neighborhood. They appear to have the world at their feet at the outset of the relationship. However, his lack of ambition and her retreat into self-absorption cause potentially irreversible cracks in their marriage.", "poster_path": "/r8l15gDSQMupjKXEyXkOMkRpcsn.jpg", "popularity": 10.985}, {"id": 50544, "video": false, "vote_count": 5176, "vote_average": 6.6, "title": "Friends with Benefits", "release_date": "2011-07-21", "original_language": "en", "original_title": "Friends with Benefits", "genre_ids": [35, 10749], "backdrop_path": "/liq5ljqURqLiBUgMkNiR388ZuSH.jpg", "adult": false, "overview": "Dylan and Jamie think it's going to be easy to add the simple act of sex to their friendship, despite what Hollywood romantic comedies would have them believe. They soon discover however that getting physical really does always lead to complications.", "poster_path": "/nKhhDFCdzxeJ3GUunQ570LDpUkz.jpg", "popularity": 19.228}, {"adult": false, "backdrop_path": "/a0UYovVNPVfWILYT7TzD10xBX3q.jpg", "genre_ids": [18, 53, 80, 9648], "id": 979, "original_language": "fr", "original_title": "Irr\u00e9versible", "overview": "Events over the course of one traumatic night in Paris unfold in reverse-chronological order as the beautiful Alex is brutally raped and beaten by a stranger in the underpass. Her boyfriend and ex-lover take matters into their own hands by hiring two criminals to help them find the rapist so that they can exact revenge. A simultaneously beautiful and terrible examination of the destructive nature of cause and effect, and how time destroys everything.", "poster_path": "/rxeDxo8FvZpLu6iplNpxdtAVnfu.jpg", "release_date": "2002-05-22", "title": "Irreversible", "video": false, "vote_average": 7.1, "vote_count": 1215, "popularity": 18.102}], "total_pages": 16, "total_results": 306}, "recommendations": {"page": 1, "results": [{"id": 87673, "video": false, "vote_count": 7, "vote_average": 7.4, "title": "No Blood Relation", "release_date": "1932-12-16", "original_language": "ja", "original_title": "\u751f\u3055\u306c\u4ef2", "genre_ids": [], "backdrop_path": "/te0duKDhXPhaN3X3uBNqNJuSxRi.jpg", "adult": false, "overview": "In No Blood Relation, a gripping early example of Mikio Naruse\u2019s cinematic boldness, featuring a screenplay by Ozu\u2019s famed collaborator Kogo Noda, an actress returns to Tokyo after a successful stint in Hollywood to reclaim\u2014with the help of her gangster brother\u2014the daughter she abandoned years before.", "poster_path": "/6V46DUkYDfX4nDzcKnrdqbOkkz9.jpg", "popularity": 3.431}, {"adult": false, "backdrop_path": "/hOSUxP6Siq1hC2BWJoWgJsn7KBY.jpg", "genre_ids": [18], "id": 91150, "original_language": "ja", "original_title": "\u541b\u3068\u5225\u308c\u3066", "overview": "For Apart from You, Mikio Naruse turned his camera on the lives of working women, which he would continue to do throughout his long career. In this gently devastating drama, a critical breakthrough for the director, he contrasts the life of an aging geisha, whose angry teenage son is ashamed of her profession, with that of her youthful counterpart, a lovely young girl resentful of her family for forcing her into a life of ignominy.", "poster_path": "/jEd67dhJCmrqlIN8bA0n9OH0ehJ.jpg", "release_date": "1933-04-01", "title": "Apart from You", "video": false, "vote_average": 6.9, "vote_count": 7, "popularity": 2.95}, {"id": 200923, "video": false, "vote_count": 7, "vote_average": 6.7, "title": "Zaza", "release_date": "1923-10-21", "original_language": "en", "original_title": "Zaza", "genre_ids": [35, 18, 10749], "backdrop_path": "/sfXgXW94wNNt7iAGkg8H7kiC1jo.jpg", "adult": false, "overview": "Zaza is an actress and the favorite at an open-air theater in a small French town. When diplomat Bernard Dufresne comes to the village, he stays away for fear he will fall for her. But during one performance, while Zaza is singing on a swing, her rival cuts the rope and she falls. Zaza is badly injured and she makes Dufresne's acquaintance. A romance quickly springs up and he installs her in a villa. Their happiness is marred, however, when his wife appears.", "poster_path": "/jTAwURCzTx6xhMZfqL43XKXn37B.jpg", "popularity": 2.418}, {"adult": false, "backdrop_path": "/niK3spzsP4QliIJpN7VQaQ9feyt.jpg", "genre_ids": [18], "id": 126516, "original_language": "ja", "original_title": "\u591c\u3054\u3068\u306e\u5922", "overview": "In the formally ravishing Every-Night Dreams, set in the dockside neighborhoods of Tokyo, a single mother works tirelessly as a Ginza bar hostess to ensure a better life for her young son\u2014until her long-lost husband returns.", "poster_path": "/fxiNUmAaZC99qiqwWa3FBybxOjR.jpg", "release_date": "1933-06-08", "title": "Every-Night Dreams", "video": false, "vote_average": 7.4, "vote_count": 10, "popularity": 2.95}, {"adult": false, "backdrop_path": "/b35yVsTAnkhumUu8qGmgkg53mDZ.jpg", "genre_ids": [18], "id": 49308, "original_language": "ja", "original_title": "\u305d\u306e\u591c\u306e\u59bb", "overview": "The film revolves around a desperate man who commits a crime in order to support his family, and the moral dilemma the policeman who tracks him down finds himself in.", "poster_path": "/ljFcxsnCJHpkUU2FBxl1xz4iV0j.jpg", "release_date": "1930-07-06", "title": "That Night's Wife", "video": false, "vote_average": 6.6, "vote_count": 12, "popularity": 2.138}, {"adult": false, "backdrop_path": "/oh2GdgpNzhO0z0LOIW52NDmWUd4.jpg", "genre_ids": [35, 18], "id": 55536, "original_language": "de", "original_title": "Die Finanzen des Gro\u00dfherzogs", "overview": "The likeable and carefree Grand Duke of Abacco is in dire straits. There is no money left to service the State's debt; the main creditor is looking forward to expropriating the entire Duchy. The marriage with Olga, Grand Duchess of Russia, would solve everything, but a crucial letter of hers about the engagement has been stolen. Besides, a bunch of revolutionaries and a dubious businessman have other plans regarding the Grand Duke. With the intrusion of adventurer Philipp Collins into the Grand Duke's affairs, a series of frantic chases, plots and counter-plots begins.", "poster_path": "/2OnThSKUHWw2fRrYUgAM5nfWOzJ.jpg", "release_date": "1924-01-07", "title": "The Finances of the Grand Duke", "video": false, "vote_average": 7.8, "vote_count": 8, "popularity": 2.166}, {"adult": false, "backdrop_path": "/eCAs5M52lQkZ7ZAKHyG0SSUg0mu.jpg", "genre_ids": [35], "id": 43603, "original_language": "en", "original_title": "Zouzou", "overview": "Zou Zou tries to help her childhood friend prove his innocence after he's accused of murder.", "poster_path": "/irIhiCYowznhyHK0XgsP4MZBNT2.jpg", "release_date": "1934-12-21", "title": "Zouzou", "video": false, "vote_average": 6.0, "vote_count": 6, "popularity": 2.841}, {"adult": false, "backdrop_path": "/5ogZ2S1moeZccRUzNqfU1M1gA4W.jpg", "genre_ids": [10749, 18, 80], "id": 117472, "original_language": "ja", "original_title": "\u975e\u5e38\u7dda\u306e\u5973", "overview": "Tokiko leads a double-life as an office typist and the mistress of a retired champion boxer and small-time ringleader named Jyoji. Hiroshi, a new recruit to the gang, hero worships Jyoji and neglects his studies. Hiroshi's sister Kazuko begs Jyoji to spare her brother from their shady dealings, but inadvertently casts a spell on Jyoji. After several reversals, Jyoji returns to Tokiko's arms. They decide to come clean, but not before pulling one last job to help Hiroshi and Kazuko.", "poster_path": "/uHkdSXumZHqUILAy8zsiYLlfGmH.jpg", "release_date": "1933-04-27", "title": "Dragnet Girl", "video": false, "vote_average": 7.0, "vote_count": 6, "popularity": 2.052}, {"adult": false, "backdrop_path": null, "genre_ids": [35], "id": 126514, "original_language": "ja", "original_title": "\u8170\u5f01\u9811\u5f35\u308c", "overview": "A short concerning an impoverished insurance salesman and his scrappy son, whose fisticuffs with the other boys of their village put his father\u2019s livelihood in jeopardy.", "poster_path": "/uiqGpGJpzPHYPp8CzdMjYalur7q.jpg", "release_date": "1931-08-08", "title": "Flunky, Work Hard!", "video": false, "vote_average": 6.8, "vote_count": 10, "popularity": 2.336}, {"id": 162954, "video": false, "vote_count": 9, "vote_average": 6.4, "title": "Walk Cheerfully", "release_date": "1930-03-01", "original_language": "ja", "original_title": "\u6717\u304b\u306b\u6b69\u3081", "genre_ids": [80, 18, 10749], "backdrop_path": "/6jEyttAnMtaW3AQOVylogCaQZXU.jpg", "adult": false, "overview": "Kenji is a small thief who likes drinking and fighting. When he falls in love with sweet and simple Yazue, and she finds out what kind of guy he really is, she leaves him 'until he becomes an honest person'. But it is not easy to get rid of one's past...", "poster_path": "/jwae6cFB2ghgiMZEIwfzvsgfob1.jpg", "popularity": 3.246}], "total_pages": 1, "total_results": 10}, "credits": {"cast": [{"cast_id": 2, "character": "Sugiko Shima", "credit_id": "52fe4ae1c3a368484e16bdc7", "gender": 0, "id": 1082752, "name": "Setsuko Shinobu", "order": 0, "profile_path": "/nJGVRPdZRhPC7LSKbVYs8F8Nu7d.jpg"}, {"cast_id": 3, "character": "Koichi, her younger brother", "credit_id": "52fe4ae1c3a368484e16bdcb", "gender": 2, "id": 1082753, "name": "Akio Isono", "order": 1, "profile_path": "/7aGijg2duhxDM3dfi00bKZF8s1O.jpg"}, {"cast_id": 4, "character": "Hiroshi Yamanouchi", "credit_id": "52fe4ae1c3a368484e16bdcf", "gender": 0, "id": 1082754, "name": "Hikaru Yamanouchi", "order": 2, "profile_path": null}, {"cast_id": 13, "character": "Takako, his elder sister", "credit_id": "5349a1a80e0a2640bf0005d0", "gender": 0, "id": 1309415, "name": "Nobuko Wakaba", "order": 3, "profile_path": null}, {"cast_id": 6, "character": "mother", "credit_id": "52fe4ae1c3a368484e16bdd7", "gender": 0, "id": 1082756, "name": "Fumiko Katsuragi", "order": 4, "profile_path": null}, {"cast_id": 7, "character": "Kesako Nakane", "credit_id": "52fe4ae1c3a368484e16bddb", "gender": 0, "id": 1082757, "name": "Chiyoko Katori", "order": 5, "profile_path": null}, {"cast_id": 14, "character": "Machio Harada", "credit_id": "5349a1f2c3a3682ddf0004ab", "gender": 0, "id": 1309416, "name": "Ichiro Yuki", "order": 6, "profile_path": "/wGyT265ONcthGReS7pnSKY5ryGv.jpg"}, {"cast_id": 12, "character": "Bellboy", "credit_id": "52fe4ae1c3a368484e16bdf5", "gender": 0, "id": 142474, "name": "Tomio Aoki", "order": 7, "profile_path": "/wUHK0oC1rDuH5gPNNuXBVKpQjba.jpg"}, {"cast_id": 24, "character": "Shinkichi Yamamura", "credit_id": "56353722c3a3681b610191a4", "gender": 0, "id": 145251, "name": "Shin'ichi Himori", "order": 9, "profile_path": null}, {"cast_id": 25, "character": "Yoshiko Hisayama", "credit_id": "563537389251413b4600a855", "gender": 0, "id": 239648, "name": "Yukiko Inoue", "order": 10, "profile_path": "/uaVWE4eXxR3hPrMbCC5W8RdgWII.jpg"}, {"cast_id": 26, "character": "her friend", "credit_id": "563537459251414ab70167ae", "gender": 0, "id": 1529940, "name": "Fujiko Matsuzono", "order": 11, "profile_path": null}, {"cast_id": 27, "character": "Butler", "credit_id": "5635374f9251414ab70167b3", "gender": 0, "id": 213521, "name": "Reik\u00f4 Tani", "order": 12, "profile_path": "/jGuJHjVmlvvntqzct2tzDyHBYud.jpg"}, {"cast_id": 28, "character": "Guest (at caf\u00e9)", "credit_id": "5635375992514128570189da", "gender": 0, "id": 96804, "name": "K\u00f4ji Mitsui", "order": 13, "profile_path": "/nahTXDNpFHNfKMraAHNDYiLXBM.jpg"}, {"cast_id": 29, "character": "Bartender", "credit_id": "56353762c3a3681b59018010", "gender": 0, "id": 1093451, "name": "Shozaburo Abe", "order": 14, "profile_path": null}, {"cast_id": 30, "character": "Guest for portrait painter", "credit_id": "5635376d9251414ad8016f51", "gender": 2, "id": 213519, "name": "Takeshi Sakamoto", "order": 15, "profile_path": "/cbTZK4HnjqTzN7AvLtAhmTZHIxg.jpg"}, {"cast_id": 31, "character": "Waitress at caf\u00e9", "credit_id": "563537779251414ab70167b8", "gender": 0, "id": 1449327, "name": "Sadako Araki", "order": 16, "profile_path": null}, {"cast_id": 32, "character": "Akiko Katsumi\tAkiko Katsumi\t...", "credit_id": "5635377fc3a3681b4d01a9ba", "gender": 0, "id": 1529941, "name": "Akiko Katsumi", "order": 17, "profile_path": null}, {"cast_id": 33, "character": "Waitress at caf\u00e9", "credit_id": "563537869251414ab70167bc", "gender": 0, "id": 1529941, "name": "Akiko Katsumi", "order": 18, "profile_path": null}, {"cast_id": 34, "character": "Doctor", "credit_id": "5635378e9251414ad8016f55", "gender": 0, "id": 1092927, "name": "Einosuke Naka", "order": 19, "profile_path": null}, {"cast_id": 35, "character": "Waitress at caf\u00e9", "credit_id": "563537969251414ab70167c1", "gender": 0, "id": 1529942, "name": "Kiyoko Rokugo", "order": 20, "profile_path": null}], "crew": [{"credit_id": "52fe4ae1c3a368484e16bdc3", "department": "Directing", "gender": 2, "id": 125690, "job": "Director", "name": "Mikio Naruse", "profile_path": "/2fePemn6eI8Wfu1p8GbEPjuSuZa.jpg"}, {"credit_id": "563536d3c3a3681b59017ffc", "department": "Directing", "gender": 2, "id": 128029, "job": "Assistant Director", "name": "Satsuo Yamamoto", "profile_path": "/u7Zno2Wui29e4uH5ZIU0mYhLv4n.jpg"}, {"credit_id": "563536c092514128570189cd", "department": "Directing", "gender": 0, "id": 138042, "job": "Assistant Director", "name": "Minoru Matsui", "profile_path": null}, {"credit_id": "52fe4ae1c3a368484e16bde5", "department": "Writing", "gender": 0, "id": 1092894, "job": "Story", "name": "Komatsu Kitamura", "profile_path": null}, {"credit_id": "52fe4ae1c3a368484e16bdf1", "department": "Crew", "gender": 0, "id": 1092934, "job": "Cinematography", "name": "Suketar\u00f4 Inokai", "profile_path": null}, {"credit_id": "52fe4ae1c3a368484e16bdeb", "department": "Writing", "gender": 0, "id": 1093481, "job": "Screenplay", "name": "Jitsuzo Ikeda", "profile_path": null}, {"credit_id": "563536c9925141616700a5a2", "department": "Directing", "gender": 0, "id": 1334742, "job": "Assistant Director", "name": "Minoru Shibuya", "profile_path": null}, {"credit_id": "563536b6c3a3681b4d01a9a9", "department": "Art", "gender": 0, "id": 1529727, "job": "Set Decoration", "name": "Matasaburo Okuno", "profile_path": null}, {"credit_id": "563536aec3a3681b59017ff4", "department": "Art", "gender": 0, "id": 1529935, "job": "Set Decoration", "name": "Takeshi Hoshino", "profile_path": null}, {"credit_id": "563536dcc3a3681b5c01a466", "department": "Art", "gender": 0, "id": 1529936, "job": "Set Designer", "name": "Jokichi Shu", "profile_path": null}, {"credit_id": "563536e5c3a3681b54018cd5", "department": "Art", "gender": 0, "id": 1529937, "job": "Set Designer", "name": "Beijiro Tanaka", "profile_path": null}, {"credit_id": "563536f2c3a3681b5c01a46e", "department": "Costume & Make-Up", "gender": 0, "id": 1529938, "job": "Costume Design", "name": "Michihiro Mori", "profile_path": null}]}}