{"adult": false, "backdrop_path": "/9s2mdWVfJe6h7MmHA4HkbtFrIy6.jpg", "belongs_to_collection": null, "budget": 0, "genres": [{"id": 18, "name": "Drama"}, {"id": 10770, "name": "TV Movie"}], "homepage": null, "id": 126526, "imdb_id": "tt0068644", "original_language": "en", "original_title": "Go Ask Alice", "overview": "A 14-year-old girl in late 1960's America is inadvertently sucked into an odyssey of sex and drugs. She eventually seeks help.", "popularity": 3.39, "poster_path": "/3wr7s3pTJixvSqLz4PD9bDKu7zp.jpg", "production_companies": [{"id": 15068, "logo_path": null, "name": "Metromedia Producers Corporation (MPC)", "origin_country": ""}], "production_countries": [{"iso_3166_1": "US", "name": "United States of America"}], "release_date": "1973-01-24", "revenue": 0, "runtime": 74, "spoken_languages": [{"iso_639_1": "en", "name": "English"}], "status": "Released", "tagline": "A teenage girl's downward spiral into drug addiction.", "title": "Go Ask Alice", "video": false, "vote_average": 5.8, "vote_count": 9, "keywords": {"keywords": [{"id": 549, "name": "prostitute"}, {"id": 570, "name": "rape"}, {"id": 708, "name": "runaway"}, {"id": 818, "name": "based on novel or book"}, {"id": 1803, "name": "drug addiction"}, {"id": 2150, "name": "cocaine"}, {"id": 2671, "name": "heroin"}, {"id": 5498, "name": "lsd"}, {"id": 6270, "name": "high school"}, {"id": 10776, "name": "marijuana"}, {"id": 14964, "name": "drugs"}, {"id": 240315, "name": "mother daughter relationship"}]}, "similar": {"page": 1, "results": [{"id": 627, "video": false, "vote_count": 6006, "vote_average": 8.0, "title": "Trainspotting", "release_date": "1996-02-23", "original_language": "en", "original_title": "Trainspotting", "genre_ids": [80, 18], "backdrop_path": "/Aw0z8bUhGljT0ots6udf1MTLEMi.jpg", "adult": false, "overview": "Mark Renton, deeply immersed in the Edinburgh drug scene, tries to clean up and get out, despite the allure of the drugs and influence of friends.", "poster_path": "/p1O3eFsdb0GEIYu87xlwV7P4jM1.jpg", "popularity": 35.793}, {"adult": false, "backdrop_path": "/zRdK2OQ0BquK3mTrCu6AODiBtxi.jpg", "genre_ids": [18, 80, 10749], "id": 13703, "original_language": "en", "original_title": "Less than Zero", "overview": "A college freshman returns to Los Angeles for the holidays at his ex-girlfriend's request, but discovers that his former best friend has an out-of-control drug habit.", "poster_path": "/lhLLXxyjmRTQy2auxzCo6wqYNqM.jpg", "release_date": "1987-11-06", "title": "Less than Zero", "video": false, "vote_average": 6.4, "vote_count": 158, "popularity": 9.378}, {"adult": false, "backdrop_path": "/kR48L1E3OLOkQcnlmpi5wDj7ZZt.jpg", "genre_ids": [80, 18], "id": 180863, "original_language": "en", "original_title": "T2 Trainspotting", "overview": "After 20 years abroad, Mark Renton returns to Scotland and reunites with his old friends Sick Boy, Spud and Begbie.", "poster_path": "/fbHXfr2N4pI2j7i9RLYiddjotBl.jpg", "release_date": "2017-01-27", "title": "T2 Trainspotting", "video": false, "vote_average": 7.0, "vote_count": 1919, "popularity": 17.054}, {"id": 13342, "video": false, "vote_count": 639, "vote_average": 6.9, "title": "Fast Times at Ridgemont High", "release_date": "1982-08-13", "original_language": "en", "original_title": "Fast Times at Ridgemont High", "genre_ids": [35, 18], "backdrop_path": "/l23IoHAfjTdNMZLeDetr75H6sb7.jpg", "adult": false, "overview": "Follows a group of high school students growing up in southern California, based on the real-life adventures chronicled by Cameron Crowe. Stacy Hamilton and Mark Ratner are looking for a love interest, and are helped along by their older classmates, Linda Barrett and Mike Damone, respectively. The center of the film is held by Jeff Spicoli, a perpetually stoned surfer dude who faces off with the resolute Mr. Hand, who is convinced that everyone is on dope.", "poster_path": "/lvEenO2CikD4Zo3rFK1flAU99Pr.jpg", "popularity": 11.118}, {"adult": false, "backdrop_path": "/a0UYovVNPVfWILYT7TzD10xBX3q.jpg", "genre_ids": [18, 53, 80, 9648], "id": 979, "original_language": "fr", "original_title": "Irr\u00e9versible", "overview": "Events over the course of one traumatic night in Paris unfold in reverse-chronological order as the beautiful Alex is brutally raped and beaten by a stranger in the underpass. Her boyfriend and ex-lover take matters into their own hands by hiring two criminals to help them find the rapist so that they can exact revenge. A simultaneously beautiful and terrible examination of the destructive nature of cause and effect, and how time destroys everything.", "poster_path": "/rxeDxo8FvZpLu6iplNpxdtAVnfu.jpg", "release_date": "2002-05-22", "title": "Irreversible", "video": false, "vote_average": 7.1, "vote_count": 1216, "popularity": 20.416}, {"id": 11004, "video": false, "vote_count": 305, "vote_average": 7.0, "title": "Wonder Boys", "release_date": "2000-02-22", "original_language": "en", "original_title": "Wonder Boys", "genre_ids": [35, 18], "backdrop_path": "/v0JeytwjJlpbgXNzIZFtGzQ1los.jpg", "adult": false, "overview": "Grady is a 50-ish English professor who hasn't had a thing published in years -- not since he wrote his award winning \"Great American Novel\" 7 years ago. This weekend proves even worse than he could imagine as he finds himself reeling from one misadventure to another in the company of a new wonder boy author.", "poster_path": "/aajFu5pK4YqBLKEkZzSBpJjoG68.jpg", "popularity": 11.204}, {"adult": false, "backdrop_path": "/kiWvoV78Cc3fUwkOHKzyBgVdrDD.jpg", "genre_ids": [37, 18, 12], "id": 281957, "original_language": "en", "original_title": "The Revenant", "overview": "In the 1820s, a frontiersman, Hugh Glass, sets out on a path of vengeance against those who left him for dead after a bear mauling.", "poster_path": "/oXUWEc5i3wYyFnL1Ycu8ppxxPvs.jpg", "release_date": "2015-12-25", "title": "The Revenant", "video": false, "vote_average": 7.5, "vote_count": 12127, "popularity": 24.135}, {"adult": false, "backdrop_path": "/nfm6JCKUaM6dT0mATmShLY6cpmc.jpg", "genre_ids": [18, 10752], "id": 600, "original_language": "en", "original_title": "Full Metal Jacket", "overview": "A pragmatic U.S. Marine observes the dehumanizing effects the U.S.-Vietnam War has on his fellow recruits from their brutal boot camp training to the bloody street fighting in Hue.", "poster_path": "/29veIwD38rVL2qY74emXQw4y25H.jpg", "release_date": "1987-06-26", "title": "Full Metal Jacket", "video": false, "vote_average": 8.1, "vote_count": 5897, "popularity": 25.207}, {"id": 106646, "video": false, "vote_count": 13908, "vote_average": 8.0, "title": "The Wolf of Wall Street", "release_date": "2013-12-25", "original_language": "en", "original_title": "The Wolf of Wall Street", "genre_ids": [35, 80, 18], "backdrop_path": "/rP36Rx5RQh0rmH2ynEIaG8DxbV2.jpg", "adult": false, "overview": "A New York stockbroker refuses to cooperate in a large securities fraud case involving corruption on Wall Street, corporate banking world and mob infiltration. Based on Jordan Belfort's autobiography.", "poster_path": "/vK1o5rZGqxyovfIhZyMELhk03wO.jpg", "popularity": 35.327}, {"id": 1878, "video": false, "vote_count": 2625, "vote_average": 7.2, "title": "Fear and Loathing in Las Vegas", "release_date": "1998-05-22", "original_language": "en", "original_title": "Fear and Loathing in Las Vegas", "genre_ids": [12, 35, 18], "backdrop_path": "/vtEKE4OFsnuIh37oo1arOMM2ELv.jpg", "adult": false, "overview": "Raoul Duke and his attorney Dr. Gonzo drive a red convertible across the Mojave desert to Las Vegas with a suitcase full of drugs to cover a motorcycle race. As their consumption of drugs increases at an alarming rate, the stoned duo trash their hotel room and fear legal repercussions. Duke begins to drive back to L.A., but after an odd run-in with a cop, he returns to Sin City and continues his wild drug binge.", "poster_path": "/u9ffgobMADj6GCafeImbov566j9.jpg", "popularity": 22.582}, {"id": 169917, "video": false, "vote_count": 1812, "vote_average": 6.3, "title": "A Walk Among the Tombstones", "release_date": "2014-09-18", "original_language": "en", "original_title": "A Walk Among the Tombstones", "genre_ids": [80, 18, 9648, 53], "backdrop_path": "/e56QsaJy1weAUukiK2ZmIGVUALF.jpg", "adult": false, "overview": "Private investigator Matthew Scudder is hired by a drug kingpin to find out who kidnapped and murdered his wife.", "poster_path": "/xxe77USOk2tPnq7G4cL42gf1OxQ.jpg", "popularity": 19.65}, {"adult": false, "backdrop_path": "/useuHJQ5HOoEWkAvEjL1FW1sUfe.jpg", "genre_ids": [18], "id": 376867, "original_language": "en", "original_title": "Moonlight", "overview": "The tender, heartbreaking story of a young man\u2019s struggle to find himself, told across three defining chapters in his life as he experiences the ecstasy, pain, and beauty of falling in love, while grappling with his own sexuality.", "poster_path": "/qAwFbszz0kRyTuXmMeKQZCX3Q2O.jpg", "release_date": "2016-10-21", "title": "Moonlight", "video": false, "vote_average": 7.4, "vote_count": 4410, "popularity": 21.716}, {"id": 449176, "video": false, "vote_count": 3691, "vote_average": 8.1, "title": "Love, Simon", "release_date": "2018-02-16", "original_language": "en", "original_title": "Love, Simon", "genre_ids": [35, 18, 10749], "backdrop_path": "/rqMEeajyzSF4PpJtdCB816Iz8Vr.jpg", "adult": false, "overview": "Everyone deserves a great love story. But for seventeen-year old Simon Spier it's a little more complicated: he's yet to tell his family or friends he's gay and he doesn't know the identity of the anonymous classmate he's fallen for online.", "poster_path": "/5YUYg5q7QfC4IoNwNUtiwdiYKPr.jpg", "popularity": 17.201}, {"id": 65754, "video": false, "vote_count": 4330, "vote_average": 7.3, "title": "The Girl with the Dragon Tattoo", "release_date": "2011-12-14", "original_language": "en", "original_title": "The Girl with the Dragon Tattoo", "genre_ids": [80, 18, 9648, 53], "backdrop_path": "/1fk2xS5hRkblBuag5JXZkmE8pg6.jpg", "adult": false, "overview": "This English-language adaptation of the Swedish novel by Stieg Larsson follows a disgraced journalist, Mikael Blomkvist, as he investigates the disappearance of a weary patriarch's niece from 40 years ago. He is aided by the pierced, tattooed, punk computer hacker named Lisbeth Salander. As they work together in the investigation, Blomkvist and Salander uncover immense corruption beyond anything they have ever imagined.", "poster_path": "/voxRWFTtagLiqnJQs9tWQLB0MN.jpg", "popularity": 27.09}, {"adult": false, "backdrop_path": "/yIszPJawrrp6zcb62d7XJnaxAmw.jpg", "genre_ids": [18], "id": 13078, "original_language": "en", "original_title": "The Babysitters", "overview": "Seventeen-year-old Shirley is a good student who works as a babysitter in order to make money for college. One night Michael, a father Shirley works for, confesses he's unhappy with married life. Shirley has a crush on Michael, and seizes this moment to kiss him. Michael is so happy he presents Shirley with a big tip, which gives her an idea. Shirley plans to make extra money by setting up her teenage friends with other unhappy fathers.", "poster_path": "/nsrNUqGXI95unRKZEu8BJ584xWn.jpg", "release_date": "2007-09-11", "title": "The Babysitters", "video": false, "vote_average": 5.3, "vote_count": 153, "popularity": 15.673}, {"adult": false, "backdrop_path": "/uCjCNaxLyLkcwBq4aOHOeiKKwPE.jpg", "genre_ids": [35, 10749, 80, 18, 9648], "id": 171274, "original_language": "en", "original_title": "Inherent Vice", "overview": "In Los Angeles at the turn of the 1970s, drug-fueled detective Larry \"Doc\" Sportello investigates the disappearance of an ex-girlfriend.", "poster_path": "/2fCg6FORkgRLpFIKlUg4gULIn1u.jpg", "release_date": "2014-12-25", "title": "Inherent Vice", "video": false, "vote_average": 6.6, "vote_count": 1536, "popularity": 20.663}, {"adult": false, "backdrop_path": "/ecREZ3vYCqethftSDWK4we0X498.jpg", "genre_ids": [35, 18, 10749], "id": 4507, "original_language": "es", "original_title": "Jam\u00f3n, jam\u00f3n", "overview": "Jose Luis is an executive at his parents underwear factory where his girlfriend Sylvia works on the shop floor. When Sylvia becomes pregnant, Jose Luis promises her that he will marry her, most likely against the wishes of his parents. Jose Luis' mother is determined to break her son's engagement to a girl from a lower-class family, and hires Raul, a potential underwear model and would-be bullfighter to seduce Sylvia.", "poster_path": "/v5Fq01ZtYnA2Grxdd3g8CuGZARg.jpg", "release_date": "1992-09-03", "title": "Jamon Jamon", "video": false, "vote_average": 6.1, "vote_count": 143, "popularity": 13.381}, {"id": 1907, "video": false, "vote_count": 2626, "vote_average": 6.4, "title": "The Beach", "release_date": "2000-02-03", "original_language": "en", "original_title": "The Beach", "genre_ids": [12, 18, 53, 10749], "backdrop_path": "/uqseIBb0MH9dXic9RGmGaLvf56q.jpg", "adult": false, "overview": "Twenty-something Richard travels to Thailand and finds himself in possession of a strange map. Rumours state that it leads to a solitary beach paradise, a tropical bliss - excited and intrigued, he sets out to find it.", "poster_path": "/4VgPflOJMxlqOYpAqXCm5J6BkYm.jpg", "popularity": 17.559}, {"id": 317091, "video": false, "vote_count": 365, "vote_average": 5.2, "title": "November Criminals", "release_date": "2017-12-08", "original_language": "en", "original_title": "November Criminals", "genre_ids": [80, 18, 9648, 53], "backdrop_path": "/jUI42ShKFPy0oLZFXbXzXMEq9Zg.jpg", "adult": false, "overview": "When Addison investigates the murder of his friend Kevin with the help of Phoebe, they discover that the truth is darker than they had ever imagined.", "poster_path": "/m2JxGgarPvtemudLZ1CB6gLJeUb.jpg", "popularity": 8.703}, {"adult": false, "backdrop_path": "/9EbRukoEPkdRaXI73H3ufbga6tH.jpg", "genre_ids": [18], "id": 394117, "original_language": "en", "original_title": "The Florida Project", "overview": "The story of a precocious six year-old and her ragtag group of friends whose summer break is filled with childhood wonder, possibility and a sense of adventure while the adults around them struggle with hard times.", "poster_path": "/bnSTP1PY2fDyat0eUa4QouuGV7F.jpg", "release_date": "2017-10-06", "title": "The Florida Project", "video": false, "vote_average": 7.4, "vote_count": 1322, "popularity": 14.756}], "total_pages": 20, "total_results": 393}, "recommendations": {"page": 1, "results": [{"adult": false, "backdrop_path": null, "genre_ids": [18, 35], "id": 77517, "original_language": "en", "original_title": "Festival", "overview": "'Festival' is a black comedy set during the annual Edinburgh Fringe festival. The film is based around both the judging of a major comedy award and the performers at one of the smaller venues. Various plot strands interweave, including the bitter relationship between a famous self-obsessed British comic and his ever-suffering assistant, an actress debuting at the festival with a one-woman show about Dorothy Wordsworth and a depressed, rich housewife who spies on the stoned Canadian theatre troupe to whom she has rented out her house", "poster_path": "/kM8d8ML5iqp6RuiITWSPA75xDCk.jpg", "release_date": "2005-07-15", "title": "Festival", "video": false, "vote_average": 6.5, "vote_count": 7, "popularity": 1.785}, {"adult": false, "backdrop_path": "/5klTcCBZDCANrYTPf1WuAh8U22f.jpg", "genre_ids": [10751, 14, 878, 10770], "id": 35109, "original_language": "en", "original_title": "Alice in Wonderland", "overview": "Alice in Wonderland (1966) is a BBC television play based on Alice's Adventures in Wonderland by Lewis Carroll. It was directed by Jonathan Miller, then most widely known for his appearance in the long-running satirical revue Beyond the Fringe.", "poster_path": "/dWnbHEZ31kMOx8cnN7IvG3fBpwp.jpg", "release_date": "1966-12-26", "title": "Alice in Wonderland", "video": false, "vote_average": 7.6, "vote_count": 10, "popularity": 4.009}, {"adult": false, "backdrop_path": null, "genre_ids": [], "id": 110083, "original_language": "en", "original_title": "Strumpet", "overview": "Strayman, a spontaneous poet, is landlord to a pack of stray dogs. Unable to resist another of life's strays, he hooks up with Strumpet, a shy, homeless girl with an extraordinary gift for music. After Strayman's neighbour overhears them singing, the three set off for London - Strayman's dogs in tow - in search of fame, fortune, and Top Of The Pops.", "poster_path": "/5Bzov0DWTsqEUF0eiSxJVu0NOAh.jpg", "release_date": "2001-07-10", "title": "Strumpet", "video": false, "vote_average": 5.7, "vote_count": 6, "popularity": 2.804}, {"adult": false, "backdrop_path": "/zLQBDo3zKN0YVdmReiRX3ha4Z9E.jpg", "genre_ids": [99], "id": 289933, "original_language": "en", "original_title": "The Truth About Webcam Girls", "overview": "A documentary that follows three women who perform via webcam to paying customers.", "poster_path": "/mE58cp29AbrHHVOkrLqEYAtMS6d.jpg", "release_date": "2014-02-24", "title": "The Truth About Webcam Girls", "video": false, "vote_average": 7.1, "vote_count": 6, "popularity": 3.318}, {"adult": false, "backdrop_path": "/3o76OtPzXiRa6CUtgQZuf7QsRd2.jpg", "genre_ids": [18, 10749, 10770], "id": 52221, "original_language": "en", "original_title": "Loving Leah", "overview": "A handsome Washington, D.C. doctor and a young New York woman fall in love at an unusual time...after they get married. Leah Lever is married to an Orthodox rabbi, Benjamin Lever, whose brother, Jake is a successful cardiologist and a non-practicing Jew. Jake is stunned when Benjamin dies suddenly, but not as stunned as when he is told that, under an ancient Jewish Law, he is expected to marry the childless Leah to carry on Benjamin's name.", "poster_path": "/kwlu0uwLNgIgC8NiLTXEyIq9oy8.jpg", "release_date": "2009-01-25", "title": "Loving Leah", "video": false, "vote_average": 6.5, "vote_count": 15, "popularity": 3.795}, {"id": 207937, "video": false, "vote_count": 10, "vote_average": 6.9, "title": "Don Quixote", "release_date": "2000-04-08", "original_language": "en", "original_title": "Don Quixote", "genre_ids": [12, 35, 10770], "backdrop_path": "/ozhQNWIlgCbtJxETvhOXFsDoBvX.jpg", "adult": false, "overview": "The classic tale of a man's dream, his epic journey, and one true love.", "poster_path": "/i0f3MsnvfL6Ux7k7142gx4LAocY.jpg", "popularity": 4.224}, {"id": 38647, "video": false, "vote_count": 5, "vote_average": 5.6, "title": "This Year's Love", "release_date": "1999-02-19", "original_language": "en", "original_title": "This Year's Love", "genre_ids": [35, 18, 10749], "backdrop_path": "/5KvS9OMJAToLIiDaMn0UfTynPse.jpg", "adult": false, "overview": "The big-screen debut from Scottish stage director David Kane, This Year's Love is a comedy about the romantic misadventures of six young people in Camden, North London. The marriage of tattoo artist Danny (Douglas Hanshall) and dressmaker Hannah (Catherine McCormack) gets off to a less-than-inspiring start when Danny finds out Hannah has already been fooling around with a friend's husband, so Danny takes a walk and Hannah splits with a friend to get drunk. At the airport, where the newly-weds were supposed to leave for a honeymoon, Danny meets a cleaning woman named Mary (Kathy Burke) and is immediately infatuated, while Hannah is picked up by a scruffy artist named Cameron (Dougray Scott). Elsewhere, Liam (Ian Hart), a geeky comic-art enthusiast who shares an apartment with Cameron, finds romance with Sophie (Jennifer Ehle), a single mother and full-time neurotic.", "poster_path": "/atEvEcTytE2mnlhjPvxVHmIz77I.jpg", "popularity": 4.699}, {"adult": false, "backdrop_path": "/fMg6AIFoNscExxZB0muMZE31Pxq.jpg", "genre_ids": [35, 18, 10749], "id": 40694, "original_language": "en", "original_title": "Bedrooms and Hallways", "overview": "At the suggestion of a friend, gay Leo (Kevin McKidd) enters therapy after many failed relationships make him fear for his social life. In a group session (led by Simon Callow), Leo comes clean about his feelings for a straight member of the group (James Purefoy), which leads to an affair between the two. The situation becomes further complicated by the appearance of Leo's high school sweetheart (Jennifer Ehle), who still has feelings for him.", "poster_path": "/jRbhbHEJbyeJjcHv3u4T6bE7u9z.jpg", "release_date": "1998-08-01", "title": "Bedrooms and Hallways", "video": false, "vote_average": 6.6, "vote_count": 16, "popularity": 3.178}, {"adult": false, "backdrop_path": "/4fOloSP09zlcqHnEoVV50ZjJIiR.jpg", "genre_ids": [53, 18, 10749], "id": 41667, "original_language": "en", "original_title": "Wide Sargasso Sea", "overview": "In the wake of Jamaican emancipation, French colonist Annette Cosway falls into poverty and marries racist Englishman Paul Mason. But when Annette's young son dies in a fire started by former slaves, Mason flees to England, leaving his grief-stricken wife and her Creole daughter Antoinette behind. Soon Antoinette learns she must marry to claim her inheritance and sets her sights on Rochester, an Englishman eerily similar to Mason.", "poster_path": "/bXd4BilBzaFumBbsdc7FguIO6Or.jpg", "release_date": "1993-04-16", "title": "Wide Sargasso Sea", "video": false, "vote_average": 5.0, "vote_count": 17, "popularity": 4.588}, {"id": 27353, "video": false, "vote_count": 13, "vote_average": 5.3, "title": "Shredderman Rules", "release_date": "2007-06-09", "original_language": "en", "original_title": "Shredderman Rules", "genre_ids": [28, 12, 35, 10751], "backdrop_path": "/zfgyz5XcIwXVDq4s2uZApPe230q.jpg", "adult": false, "overview": "Nolan Byrd (Devon Werkheiser) is a scrawny and shy 9th grader who, like all the other kids, is bullied by Bubba Bixby (Andrew Caldwell). When their teacher, Mr. Green (Tim Meadows), allows the students to do a computer project, Nolan, who has a particular knack with technology, decides to catch Bubba in action.", "poster_path": "/3PVdU5XmcmsC2bx0WogMDsegyGe.jpg", "popularity": 6.094}, {"adult": false, "backdrop_path": "/mypaLIWyYQpPT9FsYBvhruIA3Ue.jpg", "genre_ids": [18], "id": 89199, "original_language": "en", "original_title": "Trash", "overview": "The movie follows Joe (Dallesandro), a heroin addict, throughout his quest to score more drugs. The episodic plot occurs over a single day and centers around Joe's problematic relationship with his on-off, sexually frustrated girlfriend (Woodlawn).  During the course of the day, Joe overdoses in front of an upper-class couple, attempts to fool Welfare into approving his methadone treatment by having Holly fake a pregnancy, and frustrates the women in his life with his drug-induced impotence.", "poster_path": "/dGbEfOTb2surTMtUKqtomb1rTs0.jpg", "release_date": "1970-10-05", "title": "Trash", "video": false, "vote_average": 5.5, "vote_count": 14, "popularity": 4.836}, {"adult": false, "backdrop_path": "/u49VPnglHNsrCqZS2u8TV5Bf4A.jpg", "genre_ids": [18, 10751], "id": 72240, "original_language": "en", "original_title": "Odd Girl Out", "overview": "A mother and her daughter confront the intimidation of teen peer pressure and the emotionally brutalizing social rituals of high school.", "poster_path": "/lJJ7wTsT0EbIyYYQNJ1aLllL0Dk.jpg", "release_date": "2005-04-04", "title": "Odd Girl Out", "video": false, "vote_average": 5.1, "vote_count": 38, "popularity": 4.378}], "total_pages": 1, "total_results": 12}, "credits": {"cast": [{"cast_id": 1, "character": "Sam", "credit_id": "52fe4ae1c3a368484e16be5f", "gender": 2, "id": 1748, "name": "William Shatner", "order": 0, "profile_path": "/4byp8PsbRkC3UQVuvMAh4bcj7E2.jpg"}, {"cast_id": 2, "character": "Psychiatrist", "credit_id": "52fe4ae1c3a368484e16be63", "gender": 1, "id": 12498, "name": "Ruth Roman", "order": 1, "profile_path": "/lwfbybPwYRR3wy0jdnhS5jH5c4V.jpg"}, {"cast_id": 3, "character": "Joel Clements", "credit_id": "52fe4ae1c3a368484e16be67", "gender": 2, "id": 150780, "name": "Wendell Burton", "order": 2, "profile_path": null}, {"cast_id": 4, "character": "Dorothy", "credit_id": "52fe4ae1c3a368484e16be6b", "gender": 1, "id": 31169, "name": "Julie Adams", "order": 3, "profile_path": "/p6abeZkETxG9h2JdaKwzyesWSFv.jpg"}, {"cast_id": 5, "character": "Priest", "credit_id": "52fe4ae1c3a368484e16be6f", "gender": 2, "id": 65562, "name": "Andy Griffith", "order": 4, "profile_path": "/2LE5YIxIIxT3SGOTmuYQGPE4PVa.jpg"}, {"cast_id": 6, "character": "Ran", "credit_id": "52fe4ae1c3a368484e16be73", "gender": 1, "id": 124243, "name": "Ayn Ruymen", "order": 5, "profile_path": null}, {"cast_id": 7, "character": "Beth Bonds", "credit_id": "52fe4ae1c3a368484e16be77", "gender": 0, "id": 215364, "name": "Mimi Saffian", "order": 6, "profile_path": null}, {"cast_id": 8, "character": "Chris", "credit_id": "5386b3c7c3a3681aea002166", "gender": 1, "id": 120412, "name": "Jennifer Edwards", "order": 7, "profile_path": "/lA3OGv3DNbe4cs6yOGULTh9NOlw.jpg"}, {"cast_id": 12, "character": "Alice", "credit_id": "5386b4990e0a26144d002b65", "gender": 1, "id": 132875, "name": "Jamie Smith-Jackson", "order": 8, "profile_path": "/7tElVSdRpjqZbYeW1ObgxWmWUIw.jpg"}, {"cast_id": 9, "character": "Bill", "credit_id": "5386b408c3a3681aea002175", "gender": 2, "id": 62036, "name": "Robert Carradine", "order": 9, "profile_path": "/bHC0DdCEJ3frEWADFnTnftSmdgF.jpg"}, {"cast_id": 10, "character": "Doris", "credit_id": "5386b425c3a3681af00022c6", "gender": 1, "id": 12408, "name": "Mackenzie Phillips", "order": 10, "profile_path": "/4FiO7ffdDFWOQuv4MC0NalGSBMD.jpg"}, {"cast_id": 11, "character": "Jim", "credit_id": "5386b44ac3a3681ada002319", "gender": 2, "id": 1270, "name": "Charles Martin Smith", "order": 11, "profile_path": "/uzm5v0Q7nCH223EvPiJyh9Y0qiN.jpg"}, {"cast_id": 20, "character": "Tom", "credit_id": "59a96b6ec3a3683d0702572d", "gender": 2, "id": 1880445, "name": "Gary Marsh", "order": 12, "profile_path": null}, {"cast_id": 30, "character": "Tim", "credit_id": "5cd7aacf92514111decfeb10", "gender": 2, "id": 106254, "name": "Michael Morgan", "order": 13, "profile_path": null}], "crew": [{"credit_id": "55604d399251417e510053d3", "department": "Directing", "gender": 2, "id": 19744, "job": "Director", "name": "John Korty", "profile_path": null}, {"credit_id": "588d02aac3a3681c15004f23", "department": "Directing", "gender": 1, "id": 1746737, "job": "Script Supervisor", "name": "Jane Ficker", "profile_path": null}, {"credit_id": "588d02be9251410a3d0056f2", "department": "Writing", "gender": 0, "id": 1247000, "job": "Writer", "name": "Ellen M. Violett", "profile_path": null}, {"credit_id": "588d02d49251410a390057af", "department": "Camera", "gender": 0, "id": 1086254, "job": "Director of Photography", "name": "Earl Rath", "profile_path": null}, {"credit_id": "588d02e5c3a3681c10004a8e", "department": "Art", "gender": 2, "id": 14097, "job": "Art Direction", "name": "Rodger Maus", "profile_path": null}, {"credit_id": "588d02f39251410a4a005804", "department": "Art", "gender": 2, "id": 14780, "job": "Set Decoration", "name": "Robert De Vestel", "profile_path": null}, {"credit_id": "5b2c593ac3a3681234001038", "department": "Writing", "gender": 0, "id": 1746738, "job": "Book", "name": "Beatrice Sparks", "profile_path": null}, {"credit_id": "5b2c59529251417d50000b98", "department": "Production", "gender": 0, "id": 1095228, "job": "Producer", "name": "Gerald I. Isenberg", "profile_path": null}, {"credit_id": "5b2c59610e0a2618bf001050", "department": "Production", "gender": 2, "id": 48806, "job": "Executive Producer", "name": "Charles W. Fries", "profile_path": null}, {"credit_id": "5b2c596f9251417cf1000fac", "department": "Production", "gender": 0, "id": 1338788, "job": "Production Executive", "name": "Arthur Stolnitz", "profile_path": null}, {"credit_id": "5b2c59920e0a2618c600101d", "department": "Editing", "gender": 2, "id": 1174596, "job": "Editor", "name": "Henry Berman", "profile_path": null}, {"credit_id": "5b2c59b69251417d00000f40", "department": "Costume & Make-Up", "gender": 0, "id": 2069860, "job": "Makeup Artist", "name": "John G. Holden", "profile_path": null}, {"credit_id": "5b2c59c7c3a3684097000839", "department": "Costume & Make-Up", "gender": 0, "id": 83067, "job": "Hairstylist", "name": "Dione Taylor", "profile_path": null}, {"credit_id": "5b37f6f7c3a368531a037982", "department": "Production", "gender": 2, "id": 1104967, "job": "Casting", "name": "Eddie Foy III", "profile_path": "/8E8yZUGpavXkuFfYV5eAColkddU.jpg"}]}}