{"adult": false, "backdrop_path": "/pcPlJf7hw2gaW7krTSlQnLh3wMu.jpg", "belongs_to_collection": null, "budget": 0, "genres": [{"id": 53, "name": "Thriller"}], "homepage": null, "id": 126816, "imdb_id": "tt0107178", "original_language": "en", "original_title": "I Can Make You Love Me", "overview": "A beautiful young computer technician starting off her career in Silicon Valley during the Eighties, is stalked and harassed by a nerdy, dangerous and mentally-unstable colleague with a twisted obsession.", "popularity": 3.752, "poster_path": "/7AP8Zthv8QyKnEQ1tMpJwaojkna.jpg", "production_companies": [{"id": 10368, "logo_path": null, "name": "Leonard Hill Films", "origin_country": ""}, {"id": 42133, "logo_path": null, "name": "Frank Abatemarco Productions", "origin_country": ""}], "production_countries": [{"iso_3166_1": "US", "name": "United States of America"}], "release_date": "1993-02-09", "revenue": 0, "runtime": 92, "spoken_languages": [{"iso_639_1": "en", "name": "English"}], "status": "Released", "tagline": "Even the most innocent relationship can become a fatal attraction.", "title": "I Can Make You Love Me", "video": false, "vote_average": 6.2, "vote_count": 13, "keywords": {"keywords": [{"id": 1523, "name": "obsession"}, {"id": 1562, "name": "hostage"}, {"id": 2539, "name": "harassment"}, {"id": 9672, "name": "based on a true story"}, {"id": 14819, "name": "violence"}]}, "similar": {"page": 1, "results": [{"adult": false, "backdrop_path": "/a24i4Qw6qFTtkFLQsncv8WPwevj.jpg", "genre_ids": [53, 28, 80], "id": 345887, "original_language": "en", "original_title": "The Equalizer 2", "overview": "Robert McCall, who serves an unflinching justice for the exploited and oppressed, embarks on a relentless, globe-trotting quest for vengeance when a long-time girl friend is murdered.", "poster_path": "/cQvc9N6JiMVKqol3wcYrGshsIdZ.jpg", "release_date": "2018-07-19", "title": "The Equalizer 2", "video": false, "vote_average": 6.5, "vote_count": 2483, "popularity": 21.271}, {"adult": false, "backdrop_path": "/rpCt9Rjn20Ik1iE991nXt5piepZ.jpg", "genre_ids": [53, 27], "id": 366617, "original_language": "en", "original_title": "Blood Hunt", "overview": "Everything seems uneventful for Dean and Claire, as they head out into beautiful rural Australia for a weekend away. Their biggest problem is what to do about Claire being accepted into an interstate University. The couple come across Knuck and things start to spiral out of control. Heath and Jarred only stoke the fire and both Claire and Dean's greatest fears are made reality.", "poster_path": "/iadl28Qj5BLtZ6WsHp9YvY73mMu.jpg", "release_date": "2016-09-06", "title": "Blood Hunt", "video": false, "vote_average": 5.1, "vote_count": 11, "popularity": 3.633}, {"adult": false, "backdrop_path": "/o4psXh7IVD6GFKvBSHjHLzjL2lV.jpg", "genre_ids": [27, 53], "id": 10781, "original_language": "en", "original_title": "The Texas Chainsaw Massacre: The Beginning", "overview": "Chrissie and her friends set out on a road trip for a final fling before one is shipped off to Vietnam. Along the way, bikers harass the foursome and cause an accident that throws Chrissie from the vehicle. The lawman who arrives on the scene kills one of the bikers and brings Chrissie's friends to the Hewitt homestead, where young Leatherface is learning the tools of terror.", "poster_path": "/9elCJIG1TOJ0wew3JVx5ZMkHq5w.jpg", "release_date": "2006-10-06", "title": "The Texas Chainsaw Massacre: The Beginning", "video": false, "vote_average": 6.0, "vote_count": 936, "popularity": 19.211}, {"id": 156022, "video": false, "vote_count": 5468, "vote_average": 7.2, "title": "The Equalizer", "release_date": "2014-09-24", "original_language": "en", "original_title": "The Equalizer", "genre_ids": [28, 80, 53], "backdrop_path": "/vbl4ZVqelrrzJ16fdDOq9siWbpi.jpg", "adult": false, "overview": "McCall believes he has put his mysterious past behind him and dedicated himself to beginning a new, quiet life. But when he meets Teri, a young girl under the control of ultra-violent Russian gangsters, he can\u2019t stand idly by \u2013 he has to help her. Armed with hidden skills that allow him to serve vengeance against anyone who would brutalize the helpless, McCall comes out of his self-imposed retirement and finds his desire for justice reawakened. If someone has a problem, if the odds are stacked against them, if they have nowhere else to turn, McCall will help. He is The Equalizer.", "poster_path": "/2eQfjqlvPAxd9aLDs8DvsKLnfed.jpg", "popularity": 39.578}, {"adult": false, "backdrop_path": "/qfZd3oZSTFa103e3cGd1rewHcNJ.jpg", "genre_ids": [53, 27], "id": 310137, "original_language": "en", "original_title": "Reversal", "overview": "A young woman, Eve, fights back and manages to escape a malicious abductor. However, after discovering she may not be the only victim, Eve unravels a darker truth and decides to turn the tables on her captor.", "poster_path": "/i10TBdHpX0e7CC2eDM5xUitmmGY.jpg", "release_date": "2015-06-26", "title": "Bound to Vengeance", "video": false, "vote_average": 5.8, "vote_count": 176, "popularity": 8.477}, {"adult": false, "backdrop_path": "/emadLNKo4XKq6qBRd8BTQ5QmgRE.jpg", "genre_ids": [53, 27], "id": 278632, "original_language": "en", "original_title": "Julia", "overview": "After suffering a brutal trauma, Julia uses an unorthodox form of therapy to restore herself.", "poster_path": "/n90Yh2GtoN8DS1xHjhkYRVcN5AN.jpg", "release_date": "2015-01-03", "title": "Julia", "video": false, "vote_average": 5.1, "vote_count": 47, "popularity": 6.684}, {"adult": false, "backdrop_path": "/ct2r3CqnA0KtMfib4AvfBU1W9M2.jpg", "genre_ids": [28, 80, 53], "id": 398175, "original_language": "en", "original_title": "Brawl in Cell Block 99", "overview": "After working as a drug courier and getting into a brutal shootout with police, a former boxer finds himself at the mercy of his enemies as they force him to instigate violent acts that turn the prison he resides in into a battleground.", "poster_path": "/lGgIQ10NJ3d0X0uFbbUN4pRrMFZ.jpg", "release_date": "2017-09-23", "title": "Brawl in Cell Block 99", "video": false, "vote_average": 6.8, "vote_count": 605, "popularity": 13.011}, {"adult": false, "backdrop_path": "/rPfyX0pkmn8Ea4gh3DfsmzFUf05.jpg", "genre_ids": [18, 27, 80], "id": 74997, "original_language": "en", "original_title": "The Human Centipede 2 (Full Sequence)", "overview": "Inspired by the fictional Dr. Heiter, disturbed loner Martin dreams of creating a 12-person centipede and sets out to realize his sick fantasy.", "poster_path": "/kFtAdkCO0vXN2RWu2oMcR9GZ9Hi.jpg", "release_date": "2011-10-06", "title": "The Human Centipede 2 (Full Sequence)", "video": false, "vote_average": 4.5, "vote_count": 674, "popularity": 14.216}, {"adult": false, "backdrop_path": "/a0UYovVNPVfWILYT7TzD10xBX3q.jpg", "genre_ids": [18, 53, 80, 9648], "id": 979, "original_language": "fr", "original_title": "Irr\u00e9versible", "overview": "Events over the course of one traumatic night in Paris unfold in reverse-chronological order as the beautiful Alex is brutally raped and beaten by a stranger in the underpass. Her boyfriend and ex-lover take matters into their own hands by hiring two criminals to help them find the rapist so that they can exact revenge. A simultaneously beautiful and terrible examination of the destructive nature of cause and effect, and how time destroys everything.", "poster_path": "/rxeDxo8FvZpLu6iplNpxdtAVnfu.jpg", "release_date": "2002-05-22", "title": "Irreversible", "video": false, "vote_average": 7.1, "vote_count": 1216, "popularity": 20.416}, {"adult": false, "backdrop_path": "/kiWvoV78Cc3fUwkOHKzyBgVdrDD.jpg", "genre_ids": [37, 18, 12], "id": 281957, "original_language": "en", "original_title": "The Revenant", "overview": "In the 1820s, a frontiersman, Hugh Glass, sets out on a path of vengeance against those who left him for dead after a bear mauling.", "poster_path": "/oXUWEc5i3wYyFnL1Ycu8ppxxPvs.jpg", "release_date": "2015-12-25", "title": "The Revenant", "video": false, "vote_average": 7.5, "vote_count": 12127, "popularity": 24.135}, {"adult": false, "backdrop_path": "/z3s3TdRvEWC1TFrwtk0qhB7OdHh.jpg", "genre_ids": [27, 53], "id": 12662, "original_language": "en", "original_title": "Psycho III", "overview": "Norman Bates is still running his little motel, and he has kept the dressed skeleton he calls 'mother'. One day a nosey journalist comes to see him to ask questions about his past.", "poster_path": "/etiLhEebRnFExeb70COwqqeO8Kd.jpg", "release_date": "1986-04-02", "title": "Psycho III", "video": false, "vote_average": 5.6, "vote_count": 173, "popularity": 9.895}, {"adult": false, "backdrop_path": "/pA64Ov7lDpwXBu33yq0KpmAOYJL.jpg", "genre_ids": [27, 53], "id": 357096, "original_language": "en", "original_title": "I Spit on Your Grave III: Vengeance is Mine", "overview": "Jennifer Hills is still tormented by the brutal sexual assault she endured years ago. She\u2019s changed identities and cities, reluctantly joining a support group where she begins to piece together a new life. But when her new friend\u2019s murderer goes free and the tales of serial rapists haunt her, Jennifer will hunt down the men responsible and do what the system won\u2019t \u2013 make them pay for their crimes in the most horrific ways imaginable. Only this time, no jury may be able to save her.", "poster_path": "/6SnOlgrUoC5jqmgcYIM5lde5zYq.jpg", "release_date": "2015-10-01", "title": "I Spit on Your Grave III: Vengeance is Mine", "video": false, "vote_average": 5.3, "vote_count": 437, "popularity": 20.815}, {"adult": false, "backdrop_path": "/aavkYzXS4PnBDRXVarQtbKZh5us.jpg", "genre_ids": [53], "id": 13538, "original_language": "en", "original_title": "Straightheads", "overview": "There is instant chemistry between Alice (Gillian Anderson), a businesswoman, and Adam (Danny Dyer), a younger working-class man who installs a security system in her London apartment. She takes him to a party in the country, and they end up making love. But the night turns horrific when they encounter three thugs who maim Adam and rape Alice. The incident turns them into fearful recluses until Alice spots the leader of their attackers (Anthony Calf) -- and the two victims plot a brutal revenge.", "poster_path": "/ywf1UPAhy4Hg2XzVUwDRa60NFKR.jpg", "release_date": "2007-04-27", "title": "Straightheads", "video": false, "vote_average": 5.0, "vote_count": 64, "popularity": 9.392}, {"adult": false, "backdrop_path": "/iZOgAvUt6q356da1sfYz1UalNO.jpg", "genre_ids": [80, 18, 10749, 53], "id": 3134, "original_language": "fr", "original_title": "Baise-moi", "overview": "Manu has lived a difficult life. Abused and violently raped, she sets off to find herself only to meet Nadine, a prostitute who has encountered one too many injustices in the world. Angry at the world, they embark on a twisted, rage-filled road trip. They choose to have sex when they please and kill when they need. Leaving a trail of mischief and dead bodies in their wake. Generating a media blitz and manhunt, soon everyone is out to capture the young fugitives.", "poster_path": "/sLvsIgWMH9bV1IZnZOzY5dXKUHe.jpg", "release_date": "2000-06-28", "title": "Baise-moi", "video": false, "vote_average": 4.3, "vote_count": 173, "popularity": 14.535}, {"adult": false, "backdrop_path": "/rxk3NRO06iN66SDLsC04aFaSyqr.jpg", "genre_ids": [16, 80, 28, 53], "id": 18881, "original_language": "ja", "original_title": "\u30ab\u30a4\u30c8", "overview": "Sawa may seem innocent and naive, but don\u2019t be fooled. She is a cold-blooded killer, and if you\u2019re on the wrong side of the law, you may be her next target. Not content to just watch as the imperfect justice system lets more and more criminals go loose every day, a detective decides to train the young Sawa to be his instrument of justice.", "poster_path": "/14ZAVenFZjCF3QFfNRYtMPKTZpP.jpg", "release_date": "1998-02-25", "title": "Kite", "video": false, "vote_average": 6.8, "vote_count": 43, "popularity": 10.317}, {"id": 353979, "video": false, "vote_count": 389, "vote_average": 5.8, "title": "Pet", "release_date": "2016-09-24", "original_language": "en", "original_title": "Pet", "genre_ids": [27, 53], "backdrop_path": "/zaISgYggnHufdPJp8h8af6CFAGR.jpg", "adult": false, "overview": "A man imprisons the woman he's still obsessed with after years apart, then finds the tables turned on him.", "poster_path": "/xP1pvDosae1wA0BO2WmiLqIQhNv.jpg", "popularity": 10.142}, {"adult": false, "backdrop_path": "/2BLk25CMNl22IHqVJSAu3nkWoUj.jpg", "genre_ids": [28, 80, 53], "id": 26789, "original_language": "en", "original_title": "No Mercy", "overview": "An unconventional undercover Chicago cop and his partner are recruited to commit the murder of a New Orleans criminal kingpin.", "poster_path": "/iQozlPXgadwTvymHWH1mPWzM80a.jpg", "release_date": "1986-12-19", "title": "No Mercy", "video": false, "vote_average": 5.8, "vote_count": 71, "popularity": 9.238}, {"adult": false, "backdrop_path": "/ieJ5ImFoJILNULvnIpbulAln7Lr.jpg", "genre_ids": [12, 28, 53, 878], "id": 14869, "original_language": "en", "original_title": "G.I. Joe: The Rise of Cobra", "overview": "From the Egyptian desert to deep below the polar ice caps, the elite G.I. JOE team uses the latest in next-generation spy and military equipment to fight the corrupt arms dealer Destro and the growing threat of the mysterious Cobra organization to prevent them from plunging the world into chaos.", "poster_path": "/29eW5c5DaCFQejdt9V14RrA51yD.jpg", "release_date": "2009-08-04", "title": "G.I. Joe: The Rise of Cobra", "video": false, "vote_average": 5.7, "vote_count": 3082, "popularity": 22.639}, {"adult": false, "backdrop_path": "/19qAk3bQZ6ulspbwhPw1A0bNpii.jpg", "genre_ids": [80, 27, 53], "id": 73861, "original_language": "sr", "original_title": "Srpski film", "overview": "Milos, a retired porn star, leads a normal family life trying to make ends meet. Presented with the opportunity of a lifetime to financially support his family for the rest of their lives, Milos must participate in one last mysterious film. From then on, Milos is drawn into a maelstrom of unbelievable cruelty and mayhem.", "poster_path": "/iB3ynCghwG63MrViBC6YyPzUIAn.jpg", "release_date": "2010-06-16", "title": "A Serbian Film", "video": false, "vote_average": 5.5, "vote_count": 898, "popularity": 16.013}, {"id": 381288, "video": false, "vote_count": 11449, "vote_average": 7.3, "title": "Split", "release_date": "2017-01-19", "original_language": "en", "original_title": "Split", "genre_ids": [27, 53], "backdrop_path": "/9pkZesKMnblFfKxEhQx45YQ2kIe.jpg", "adult": false, "overview": "Though Kevin has evidenced 23 personalities to his trusted psychiatrist, Dr. Fletcher, there remains one still submerged who is set to materialize and dominate all the others. Compelled to abduct three teenage girls led by the willful, observant Casey, Kevin reaches a war for survival among all of those contained within him \u2014 as well as everyone around him \u2014 as the walls between his compartments shatter apart.", "poster_path": "/rXMWOZiCt6eMX22jWuTOSdQ98bY.jpg", "popularity": 39.624}], "total_pages": 421, "total_results": 8414}, "recommendations": {"page": 1, "results": [{"id": 64183, "video": false, "vote_count": 6, "vote_average": 6.4, "title": "Parent Trap III", "release_date": "1989-04-09", "original_language": "en", "original_title": "Parent Trap III", "genre_ids": [28, 35, 18, 10751], "backdrop_path": null, "adult": false, "overview": "When Jeff plans to marry again, his triplet daughters Megan, Lisa and Jessie try to bring him together with Susan.", "poster_path": "/2KnNVpk37YgZ5gSypGKFQAI6Nxp.jpg", "popularity": 4.246}, {"adult": false, "backdrop_path": "/uWQ1qEB1VvsVKWZNPe22d1JqPYF.jpg", "genre_ids": [18, 10770], "id": 30671, "original_language": "en", "original_title": "Born Innocent", "overview": "A constant runaway is given over to the care of the state and finds herself in a remand centre for girls. She is soon caught between the uncaring bureaucracy, the sometimes brutal treatment from her peers and her own abusive family, and only one care worker sees her potential to rise above her tragic circumstances.", "poster_path": "/86AptccbHf24POgItgrz2wKnfld.jpg", "release_date": "1974-09-10", "title": "Born Innocent", "video": false, "vote_average": 6.2, "vote_count": 9, "popularity": 4.644}, {"adult": false, "backdrop_path": "/nXaPzdDNWFaWrGiITp7LhzZmxG0.jpg", "genre_ids": [18, 9648, 53], "id": 17168, "original_language": "en", "original_title": "The Temp", "overview": "A series of mysterious accidents at a food company lead a manager to suspect his impressive new temporary secretary.", "poster_path": "/mtyya9bCLnWaK8yeA9tNTscnKNk.jpg", "release_date": "1993-02-12", "title": "The Temp", "video": false, "vote_average": 5.2, "vote_count": 17, "popularity": 4.14}, {"adult": false, "backdrop_path": "/83hByEoe4uDhQpAU3jOcrcROTbV.jpg", "genre_ids": [53, 10749], "id": 59481, "original_language": "en", "original_title": "A House In The Hills", "overview": "An aspiring actress gets a housesitting job and finds herself in a cat-and-mouse game with a deadly ex-con.", "poster_path": "/6XgyINtuJ8MzUqFcx09p9dpnbN.jpg", "release_date": "1993-01-20", "title": "A House In The Hills", "video": false, "vote_average": 6.3, "vote_count": 6, "popularity": 3.971}, {"adult": false, "backdrop_path": "/yPV45QNEiwzzPlje2yKAgsZTzFR.jpg", "genre_ids": [35, 18, 10749], "id": 82432, "original_language": "en", "original_title": "Kiss The Bride", "overview": "Sibling drama overshadows the impending nuptials of Danni Sposato and her longtime boyfriend, Geoff Brancato. Television actress Niki brings her manager-boyfriend, Marty, to meet the family for the first time, while spiky youngest sister Toni shows off her bandmate and lover, Amy, and driven Wall Street banker Chrissy flashes the status symbols of her financial success.", "poster_path": "/2eVnqo34aA4Rk9wA3zM0Vg3aGc5.jpg", "release_date": "2002-10-16", "title": "Kiss The Bride", "video": false, "vote_average": 5.4, "vote_count": 8, "popularity": 3.82}, {"id": 97406, "video": false, "vote_count": 17, "vote_average": 6.6, "title": "Georgia", "release_date": "1995-05-19", "original_language": "en", "original_title": "Georgia", "genre_ids": [18], "backdrop_path": "/3GYEt6EICZDmCbBTHnZJa4TD0JJ.jpg", "adult": false, "overview": "Sadie looks up to her older sister Georgia, a successful folk singer who's happily married with children, but can't break out of the bar-band circuit and hit the big time she desperately covets. It's in part due to her attraction to drugs and booze, and also to her own unwise choice in men. Finally, though, Sadie's Achilles heel is a rough, unlovely voice very different than her sister's crowd-pleasing singing.", "poster_path": "/uXjfK404xo7SiVlFcAoRyaFqXR4.jpg", "popularity": 3.758}, {"adult": false, "backdrop_path": "/4btZxA8yKeUhtzumWE0p4gg7Ph4.jpg", "genre_ids": [18, 10402], "id": 28026, "original_language": "en", "original_title": "Prey for Rock & Roll", "overview": "Prey for Rock &amp; Roll is set in the Los Angeles club scene of the late 1980s and follows the story of Jacki (Gershon) and her all-girl punk rock band, Clam Dandy. On the verge of turning 40, Jacki decides that if the band's one last shot at the big time is unsuccessful, she will give up her dreams of stardom. Along the way, the women are rocked by personal tragedies that threaten to break up the band before they can get their last shot at success.", "poster_path": "/bPClcKTmxP70duBwMQ3o5EXwoeq.jpg", "release_date": "2003-01-20", "title": "Prey for Rock & Roll", "video": false, "vote_average": 5.2, "vote_count": 12, "popularity": 5.293}, {"adult": false, "backdrop_path": null, "genre_ids": [18, 53], "id": 31064, "original_language": "en", "original_title": "The Business of Strangers", "overview": "Julie Styron thinks she is going to be fired, but instead discovers that she is being promoted. Trapped in an airport hotel, she wants to celebrate but finds only the company of her young assistant, Paula Murphy. As the night progresses, the two women get to know each other. They flirt, they drink, they lie; personal flaws are revealed and exposed. But at the end of the night their relationship turns and becomes a complex battle of power, authority, and wit.", "poster_path": "/wLwSnbTxgs7UUvjUoCUZCFbVQ47.jpg", "release_date": "2001-09-13", "title": "The Business of Strangers", "video": false, "vote_average": 5.8, "vote_count": 22, "popularity": 5.656}], "total_pages": 1, "total_results": 8}, "credits": {"cast": [{"cast_id": 1, "character": "Richard Farley", "credit_id": "52fe4ae7c3a368484e16cf7d", "gender": 2, "id": 19576, "name": "Richard Thomas", "order": 0, "profile_path": "/6ifcrt9f8rkdp2VP6wmvHhJ9Z9V.jpg"}, {"cast_id": 2, "character": "Laura Black", "credit_id": "52fe4ae7c3a368484e16cf81", "gender": 1, "id": 15110, "name": "Brooke Shields", "order": 1, "profile_path": "/zOyzH2LjJ3CbzpiJcAmpsiC7d1O.jpg"}, {"cast_id": 3, "character": "Mary Ann", "credit_id": "52fe4ae7c3a368484e16cf85", "gender": 1, "id": 156774, "name": "Viveka Davis", "order": 2, "profile_path": "/ylxPwJue2HOy3NRQbQP4KKEXHj7.jpg"}, {"cast_id": 4, "character": "Chris", "credit_id": "52fe4ae7c3a368484e16cf89", "gender": 2, "id": 53087, "name": "William Allen Young", "order": 3, "profile_path": "/pH8tVh3hnpIUscfT920WLBiHeOU.jpg"}, {"cast_id": 5, "character": "Lt. Grijalva", "credit_id": "52fe4ae7c3a368484e16cf8d", "gender": 2, "id": 104483, "name": "Richard Yniguez", "order": 4, "profile_path": null}, {"cast_id": 15, "character": "Sam Waters", "credit_id": "52fe4ae7c3a368484e16cfb5", "gender": 2, "id": 1218088, "name": "Scott Bryce", "order": 5, "profile_path": "/5lWkYB3OYIKxZDRi7boYjUlL0O1.jpg"}, {"cast_id": 7, "character": "Penny", "credit_id": "52fe4ae7c3a368484e16cf91", "gender": 1, "id": 58643, "name": "Linda Emond", "order": 6, "profile_path": "/PjDT3zk5xAIFiJ1MaEJLtjdq5s.jpg"}, {"cast_id": 8, "character": "Captain Olson", "credit_id": "52fe4ae7c3a368484e16cf95", "gender": 2, "id": 14799, "name": "T. Max Graham", "order": 7, "profile_path": null}, {"cast_id": 9, "character": "Lt. Mark Shagan", "credit_id": "52fe4ae7c3a368484e16cf99", "gender": 2, "id": 157164, "name": "Kevin Brief", "order": 8, "profile_path": "/7INolnpy1D5RYuOg1EPvScQS8Hx.jpg"}, {"cast_id": 10, "character": "SWAT Lt. Bannister", "credit_id": "52fe4ae7c3a368484e16cf9d", "gender": 2, "id": 167764, "name": "Tim Snay", "order": 9, "profile_path": null}, {"cast_id": 11, "character": "Tom Black", "credit_id": "52fe4ae7c3a368484e16cfa1", "gender": 0, "id": 1083267, "name": "Dick Mueller", "order": 10, "profile_path": null}, {"cast_id": 12, "character": "Glenda Moritz", "credit_id": "52fe4ae7c3a368484e16cfa5", "gender": 0, "id": 1083268, "name": "Donna Thomason", "order": 11, "profile_path": null}], "crew": [{"credit_id": "52fe4ae7c3a368484e16cfab", "department": "Directing", "gender": 2, "id": 170115, "job": "Director", "name": "Michael Switzer", "profile_path": null}, {"credit_id": "52fe4ae7c3a368484e16cfb1", "department": "Writing", "gender": 2, "id": 181903, "job": "Writer", "name": "Frank Abatemarco", "profile_path": null}]}}