{"adult": false, "backdrop_path": null, "belongs_to_collection": null, "budget": 0, "genres": [], "homepage": null, "id": 126958, "imdb_id": "tt0019486", "original_language": "fr", "original_title": "Le tournoi dans la cit\u00e9", "overview": "Rival knights compete for the hand of a beautiful maiden in this period feature from Jean Renoir, unfortunately only available in truncated form.", "popularity": 0.709, "poster_path": "/5VptDSUV468quyMYkDSxSlHovTQ.jpg", "production_companies": [], "production_countries": [], "release_date": "1929-02-18", "revenue": 0, "runtime": 90, "spoken_languages": [], "status": "Released", "tagline": "", "title": "The Tournament", "video": false, "vote_average": 3.7, "vote_count": 3, "keywords": {"keywords": [{"id": 10466, "name": "knight"}, {"id": 12999, "name": "black and white"}, {"id": 15060, "name": "period drama"}, {"id": 34067, "name": "jousting"}, {"id": 154802, "name": "silent film"}, {"id": 161257, "name": "medieval"}]}, "similar": {"page": 1, "results": [{"id": 8840, "video": false, "vote_count": 1169, "vote_average": 6.5, "title": "DragonHeart", "release_date": "1996-05-31", "original_language": "en", "original_title": "DragonHeart", "genre_ids": [28, 12, 14], "backdrop_path": "/1VWsgfwm3cJ4vZnKEWxOj9cv7q.jpg", "adult": false, "overview": "In an ancient time when majestic fire-breathers soared through the skies, a knight named Bowen comes face to face and heart to heart with the last dragon on Earth, Draco. Taking up arms to suppress a tyrant king, Bowen soon realizes his task will be harder than he'd imagined: If he kills the king, Draco will die as well.", "poster_path": "/5bqI54aIyPDzPKkScwJprzbAsIi.jpg", "popularity": 17.182}, {"adult": false, "backdrop_path": "/wcT7srQ4GeeMqlszMFEtPZ7v8T7.jpg", "genre_ids": [35, 10749], "id": 28978, "original_language": "en", "original_title": "The Circus", "overview": "Charlie, a wandering tramp, becomes a circus handyman and falls in love with the circus owner's daughter. Unaware of Charlie's affection, the girl falls in love with a handsome young performer. Charlie's versatility makes him star of the show when he substitutes for an ailing tightwire walker. He is discharged from the company when he protects the girl from her father's abuse, but he returns and appeals to the handsome performer to marry the girl. After the wedding the father prevails upon them to rejoin the circus. Charlie is hired again, but he stays behind when the caravan moves on.", "poster_path": "/awTf4Y6TGvgi3VYtGNINyyJJy9Q.jpg", "release_date": "1928-01-06", "title": "The Circus", "video": false, "vote_average": 8.2, "vote_count": 330, "popularity": 12.839}, {"id": 901, "video": false, "vote_count": 1026, "vote_average": 8.4, "title": "City Lights", "release_date": "1931-02-01", "original_language": "xx", "original_title": "City Lights", "genre_ids": [35, 18, 10749], "backdrop_path": "/vT6ux2rdyg2kexuLisO5Ygz7pHg.jpg", "adult": false, "overview": "City Lights is the first silent film that Charlie Chaplin directed after he established himself with sound accompanied films. The film is about a penniless man who falls in love with a flower girl.", "poster_path": "/bXNvzjULc9jrOVhGfjcc64uKZmZ.jpg", "popularity": 14.645}, {"id": 454294, "video": false, "vote_count": 357, "vote_average": 6.0, "title": "The Kid Who Would Be King", "release_date": "2019-01-16", "original_language": "en", "original_title": "The Kid Who Would Be King", "genre_ids": [28, 12, 14, 10751], "backdrop_path": "/i5k0HVYW0EZ8EtOalVWUB4Hzy85.jpg", "adult": false, "overview": "Old-school magic meets the modern world when young Alex stumbles upon the mythical sword Excalibur. He soon unites his friends and enemies, and they become knights who join forces with the legendary wizard Merlin. Together, they must save mankind from the wicked enchantress Morgana and her army of supernatural warriors.", "poster_path": "/kBuvLX6zynQP0sjyqbXV4jNaZ4E.jpg", "popularity": 17.046}, {"id": 308504, "video": false, "vote_count": 591, "vote_average": 6.3, "title": "Last Knights", "release_date": "2015-04-03", "original_language": "en", "original_title": "Last Knights", "genre_ids": [28, 12], "backdrop_path": "/htDjxVDvVbia575PIIrCtjtRuni.jpg", "adult": false, "overview": "When an evil emperor executes their leader, his band of knights \u2013 bound by duty and honour \u2013 embarks on a journey of vengeance that will not come to an end until they've destroyed their mortal foe.", "poster_path": "/jKcbKy4C9bbwcBWGkMQR70vBNXJ.jpg", "popularity": 11.324}, {"id": 20662, "video": false, "vote_count": 2836, "vote_average": 6.3, "title": "Robin Hood", "release_date": "2010-05-12", "original_language": "en", "original_title": "Robin Hood", "genre_ids": [28, 12, 18], "backdrop_path": "/avhEibZxIr8NzHQFBjw3FjLjN7u.jpg", "adult": false, "overview": "When soldier Robin happens upon the dying Robert of Loxley, he promises to return the man's sword to his family in Nottingham. There, he assumes Robert's identity; romances his widow, Marion; and draws the ire of the town's sheriff and King John's henchman, Godfrey.", "poster_path": "/4gH0vhyOcl7QV3t81653CpWjEB6.jpg", "popularity": 20.802}, {"adult": false, "backdrop_path": "/twGxeStlGooWV3gP6ZIcSNuQ6jf.jpg", "genre_ids": [12, 16, 10751, 14], "id": 81684, "original_language": "en", "original_title": "The Gruffalo's Child", "overview": "A follow up to the 2009 animated feature and adapted from the childrens' book by Julia Donaldson and Alex Scheffler.  The Gruffalo's child explores the deep dark wood in search of the big bad mouse and meets the Snake, Owl and Fox in the process.  She eventually finds the mouse, who manages to outwit her like the Gruffalo before!", "poster_path": "/qaGH2AoaLvoGXURQtNzj1nw6oZd.jpg", "release_date": "2011-12-25", "title": "The Gruffalo's Child", "video": false, "vote_average": 6.9, "vote_count": 73, "popularity": 9.51}, {"adult": false, "backdrop_path": "/1S2y4Tj8UwH4g4kIj29liL2XwxM.jpg", "genre_ids": [28, 12, 14], "id": 300803, "original_language": "en", "original_title": "Dragonheart 3: The Sorcerer's Curse", "overview": "When aspiring knight Gareth goes in search of a fallen comet rumored to contain gold, he is shocked to instead find the dragon Drago. After Drago saves Gareth's life the two become intricately bonded, and must work together to defeat an evil sorcerer and stop his reign of terror. Along the way, Gareth learns the true meaning of being a knight in this fantasy action-adventure for the ages.", "poster_path": "/weZV8fBcCMDvU5PIQ19w4gPOChD.jpg", "release_date": "2015-02-24", "title": "Dragonheart 3: The Sorcerer's Curse", "video": false, "vote_average": 5.0, "vote_count": 133, "popularity": 13.897}, {"id": 11469, "video": false, "vote_count": 626, "vote_average": 5.3, "title": "Black Knight", "release_date": "2001-11-21", "original_language": "en", "original_title": "Black Knight", "genre_ids": [12, 35, 14], "backdrop_path": "/7cRdp2KZWz1RZLpP603k4y3vSQq.jpg", "adult": false, "overview": "Martin Lawrence plays Jamal, an employee in Medieval World amusement park. After sustaining a blow to the head, he awakens to find himself in 14th century England.", "poster_path": "/xJnGEOnYUelD6wLgpQfNg5tq8jV.jpg", "popularity": 11.946}, {"id": 234, "video": false, "vote_count": 652, "vote_average": 7.9, "title": "The Cabinet of Dr. Caligari", "release_date": "1920-02-25", "original_language": "de", "original_title": "Das Cabinet des Dr. Caligari", "genre_ids": [80, 18, 27, 53], "backdrop_path": "/6Xt1Iq0sct6LQcGF4WA5I4VqQmP.jpg", "adult": false, "overview": "Francis, a young man, recalls in his memory the horrible experiences he and his fianc\u00e9e Jane recently went through. It is the annual fair in Holstenwall. Francis and his friend Alan visit The Cabinet of Dr. Caligari, an exhibit where the mysterious doctor shows the somnambulist Cesare, and awakens him for some moments from his death-like sleep. When Alan asks Cesare about his future, Cesare answers that he will die before dawn. The next morning Alan is found dead. Francis suspects Cesare of being the murderer, and starts spying on him and Dr. Caligari.", "poster_path": "/myK9DeIsXWGKgUTZyGXg2IfFk0W.jpg", "popularity": 12.337}, {"id": 10473, "video": false, "vote_count": 161, "vote_average": 5.4, "title": "DragonHeart: A New Beginning", "release_date": "2000-08-08", "original_language": "en", "original_title": "DragonHeart: A New Beginning", "genre_ids": [28, 12, 35, 14], "backdrop_path": "/oASfjqueQdR0wpeI2Q4xW2mSaZ.jpg", "adult": false, "overview": "When Geoff, an orphaned stable boy (Chris Masterson), discovers Drake (voice of Robby Benson), the world's last living dragon, he realizes that his dream of becoming a knight in shining armor can now come true. Together, they soon face challenges that turn them into heroes. But caught up in the excitement of their new lives, Geoff and Drake fail to see the hidden dangers that surround them.", "poster_path": "/8mbg22L9MdSyELeNwEJkMDVsEVO.jpg", "popularity": 17.413}, {"adult": false, "backdrop_path": "/hPByrqJXCXIViFheXQh48wtI7T6.jpg", "genre_ids": [16, 12, 14, 10751], "id": 31135, "original_language": "en", "original_title": "Mickey Mouse: Mickey and the Beanstalk", "overview": "Based on the timeless adventures of \"Jack and the Beanstalk,\" Mickey, Donald and Goofy climb a fantastic beanstalk up into the sky to a place where everything is huge -- the food, the castle and the fearsome giant named Willy who guards a beautiful golden harp! Will Mickey and his friends outwit the giant and make it safely back home?", "poster_path": "/kk1Xg1f1lv6loekjlKinpKJlGOu.jpg", "release_date": "1947-09-27", "title": "Mickey Mouse: Mickey and the Beanstalk", "video": false, "vote_average": 6.7, "vote_count": 166, "popularity": 13.649}, {"adult": false, "backdrop_path": "/2CR4OT6Ou4axUfThbJ6sbnMGWWm.jpg", "genre_ids": [12, 14, 878], "id": 775, "original_language": "fr", "original_title": "Le Voyage dans la Lune", "overview": "Professor Barbenfouillis and five of his colleagues from the Academy of Astronomy travel to the Moon aboard a rocket propelled by a giant cannon. Once on the lunar surface, the bold explorers face the many perils hidden in the caves of the mysterious satellite.", "poster_path": "/zztHYAfSecYuaDyIjQudjKaOLLY.jpg", "release_date": "1902-09-01", "title": "A Trip to the Moon", "video": false, "vote_average": 8.0, "vote_count": 822, "popularity": 12.649}, {"adult": false, "backdrop_path": "/wdMq7F5Cr1DGg8ioNPZvWxqQer4.jpg", "genre_ids": [878, 14], "id": 76535, "original_language": "en", "original_title": "Marvel One-Shot: A Funny Thing Happened on the Way to Thor's Hammer", "overview": "Agent Coulson stops at a convenience store and deals with a coincidental robbery during his visit.", "poster_path": "/5uGaqAnt0RQ87uKy8UlRDNrL2jY.jpg", "release_date": "2011-10-25", "title": "Marvel One-Shot: A Funny Thing Happened on the Way to Thor's Hammer", "video": false, "vote_average": 7.1, "vote_count": 181, "popularity": 11.889}, {"id": 5698, "video": false, "vote_count": 268, "vote_average": 7.1, "title": "The Great Train Robbery", "release_date": "1903-12-01", "original_language": "en", "original_title": "The Great Train Robbery", "genre_ids": [28, 12, 80, 37], "backdrop_path": "/9GO8h44nckngDtdJ6R1QfIsl43j.jpg", "adult": false, "overview": "The clerk at the train station is assaulted and left tied by four men, then they rob the train threatening the operator. (They) take all the money and shoot a passenger when trying to run away. A little girl discovers the clerk tied and gives notice to the sheriff, who at once goes along with his men hunting the bandits.", "poster_path": "/uf7Hr1wuUh4T83Ifg5pVpwTqRdI.jpg", "popularity": 11.231}, {"id": 9562, "video": false, "vote_count": 592, "vote_average": 5.6, "title": "Timeline", "release_date": "2003-11-26", "original_language": "en", "original_title": "Timeline", "genre_ids": [28, 12, 878], "backdrop_path": "/6PIQKisHu0oIvNpOGNoUHgxEJ0.jpg", "adult": false, "overview": "A group of archaeological students become trapped in the past when they go there to retrieve their professor. The group must survive in 14th century France long enough to be rescued.", "poster_path": "/A6tzqXzlUjCOZT035zYOLqfYFSr.jpg", "popularity": 14.204}, {"adult": false, "backdrop_path": "/43TK5GtHUiPelQpnSX0bl9ONLh0.jpg", "genre_ids": [16, 35, 10751], "id": 54553, "original_language": "en", "original_title": "Home Makeover", "overview": "The Minions have to make Gru's home safe for the children, before Child Services arrive!", "poster_path": "/uRlT6hzUE6pMCtSsUhKd7OtjD1l.jpg", "release_date": "2010-12-13", "title": "Home Makeover", "video": false, "vote_average": 6.9, "vote_count": 97, "popularity": 11.492}, {"id": 41215, "video": false, "vote_count": 471, "vote_average": 5.9, "title": "Black Death", "release_date": "2010-06-07", "original_language": "en", "original_title": "Black Death", "genre_ids": [28, 18, 27, 9648, 53], "backdrop_path": "/qqmi8TAsSSOdi1pgHYtTA05W7OB.jpg", "adult": false, "overview": "As the plague decimates medieval Europe, rumours circulate of a village immune from the plague. There is talk of a necromancer who leads the village and is able to raise the dead. A fearsome knight joined by a cohort of soldiers and a young monk are charged by the church to investigate. Their journey is filled with danger, but it's upon entering the village that their true horror begins.", "poster_path": "/gXRERDpyT9s3m2yk6wNmrTWbZfG.jpg", "popularity": 10.891}, {"id": 54559, "video": false, "vote_count": 123, "vote_average": 6.9, "title": "Minions: Orientation Day", "release_date": "2010-12-13", "original_language": "en", "original_title": "Minions: Orientation Day", "genre_ids": [16, 35, 10751], "backdrop_path": "/8BueE3xOMMd2Z2ix6ayqj2uPIGL.jpg", "adult": false, "overview": "With so many jobs to choose from, the Minions have to make serious decisions after watching an 'Initiation Video'. What could go wrong?!", "poster_path": "/u1gyqMqRvdwj49vsBLRBGBs4Yoi.jpg", "popularity": 9.749}, {"id": 780, "video": false, "vote_count": 397, "vote_average": 8.2, "title": "The Passion of Joan of Arc", "release_date": "1928-04-21", "original_language": "fr", "original_title": "La passion de Jeanne d'Arc", "genre_ids": [18, 36], "backdrop_path": "/hZuYH68nGqqUKZlOnxb8zjeR92U.jpg", "adult": false, "overview": "A classic of the silent age, this film tells the story of the doomed but ultimately canonized 15th-century teenage warrior. On trial for claiming she'd spoken to God, Jeanne d'Arc is subjected to inhumane treatment and scare tactics at the hands of church court officials. Initially bullied into changing her story, Jeanne eventually opts for what she sees as the truth. Her punishment, a famously brutal execution, earns her perpetual martyrdom.", "poster_path": "/5HL0dEJfd7PF0eRiKz8BiNfe8Tf.jpg", "popularity": 18.485}], "total_pages": 110, "total_results": 2188}, "recommendations": {"page": 1, "results": [], "total_pages": 1, "total_results": 0}, "credits": {"cast": [{"cast_id": 11, "character": "Fran\u00e7ois de Baynes", "credit_id": "52fe4aebc3a368484e16df03", "gender": 0, "id": 99324, "name": "Aldo Nadi", "order": 0, "profile_path": null}, {"cast_id": 12, "character": "Isabelle Ginori", "credit_id": "52fe4aebc3a368484e16df07", "gender": 0, "id": 1083438, "name": "Jackie Monnier", "order": 1, "profile_path": null}, {"cast_id": 14, "character": "Catherine de M\u00e9dicis", "credit_id": "52fe4aebc3a368484e16df0f", "gender": 0, "id": 1083439, "name": "Blanche Bernis", "order": 2, "profile_path": null}, {"cast_id": 25, "character": "Henri de Rogier", "credit_id": "55a879b29251411e11002a87", "gender": 0, "id": 1487907, "name": "Enrique Rivero", "order": 3, "profile_path": null}, {"cast_id": 15, "character": "Comtesse de Baynes", "credit_id": "52fe4aebc3a368484e16df13", "gender": 0, "id": 1083440, "name": "Suzanne Despr\u00e8s", "order": 4, "profile_path": null}, {"cast_id": 16, "character": "Comte Ginori", "credit_id": "52fe4aebc3a368484e16df17", "gender": 2, "id": 1083441, "name": "Manuel Raaby", "order": 5, "profile_path": null}, {"cast_id": 17, "character": "Charles IX", "credit_id": "52fe4aebc3a368484e16df1b", "gender": 0, "id": 1083442, "name": "Gerard Mock", "order": 6, "profile_path": null}, {"cast_id": 18, "character": "Lucr\u00e8ce Pazzi, la Florentine", "credit_id": "52fe4aebc3a368484e16df1f", "gender": 0, "id": 1083443, "name": "Viviane Clarens", "order": 7, "profile_path": null}, {"cast_id": 19, "character": "L'officier des gardes", "credit_id": "52fe4aebc3a368484e16df23", "gender": 0, "id": 1083444, "name": "Henri Janvier", "order": 8, "profile_path": null}, {"cast_id": 20, "character": "Antonio le bouffon", "credit_id": "52fe4aebc3a368484e16df27", "gender": 0, "id": 8995, "name": "Marval", "order": 9, "profile_path": null}, {"cast_id": 21, "character": "Le grand \u00e9cuyer", "credit_id": "52fe4aebc3a368484e16df2b", "gender": 0, "id": 1083445, "name": "William Aguet", "order": 10, "profile_path": null}, {"cast_id": 22, "character": "Le capitaine du guet", "credit_id": "52fe4aebc3a368484e16df2f", "gender": 2, "id": 140352, "name": "Max Dalban", "order": 11, "profile_path": "/tdhFsrU1Nzhc5C3T7HGAEybXtTT.jpg"}, {"cast_id": 23, "character": "Capitaine du tournoi", "credit_id": "52fe4aebc3a368484e16df33", "gender": 0, "id": 1083446, "name": "Albert Rancy", "order": 12, "profile_path": null}, {"cast_id": 24, "character": "", "credit_id": "52fe4aebc3a368484e16df37", "gender": 0, "id": 1083447, "name": "Pierrette Debr\u00e8ges", "order": 13, "profile_path": null}], "crew": [{"credit_id": "52fe4aebc3a368484e16dec9", "department": "Directing", "gender": 2, "id": 11528, "job": "Director", "name": "Jean Renoir", "profile_path": "/oN93wdY94BIVDQVbFfHGOBCk3L.jpg"}, {"credit_id": "52fe4aebc3a368484e16decf", "department": "Writing", "gender": 2, "id": 11528, "job": "Adaptation", "name": "Jean Renoir", "profile_path": "/oN93wdY94BIVDQVbFfHGOBCk3L.jpg"}, {"credit_id": "52fe4aebc3a368484e16ded5", "department": "Writing", "gender": 0, "id": 1004735, "job": "Writer", "name": "Henry Dupuy-Mazuel", "profile_path": null}, {"credit_id": "52fe4aebc3a368484e16dedb", "department": "Writing", "gender": 0, "id": 1083432, "job": "Writer", "name": "Andr\u00e9 Jaeger-Schmidt", "profile_path": null}, {"credit_id": "52fe4aebc3a368484e16def9", "department": "Art", "gender": 0, "id": 1083435, "job": "Production Design", "name": "Robert Mallet-Stevens", "profile_path": null}, {"credit_id": "52fe4aebc3a368484e16deff", "department": "Production", "gender": 0, "id": 1083436, "job": "Unit Production Manager", "name": "Pierre Delmonde", "profile_path": null}, {"credit_id": "57d8f434c3a3685493004353", "department": "Editing", "gender": 2, "id": 1082578, "job": "Editor", "name": "Andr\u00e9 Cerf", "profile_path": null}, {"credit_id": "5a952b9d925141326c0057e5", "department": "Camera", "gender": 2, "id": 1083434, "job": "Director of Photography", "name": "Joseph-Louis Mundwiller", "profile_path": null}, {"credit_id": "5a954c079251413266007060", "department": "Camera", "gender": 2, "id": 51621, "job": "Director of Photography", "name": "Willy Faktorovitch", "profile_path": null}, {"credit_id": "5a954c1f0e0a2608720075a2", "department": "Camera", "gender": 2, "id": 1083433, "job": "Director of Photography", "name": "Marcel Lucien", "profile_path": null}]}}