{"adult": false, "backdrop_path": null, "belongs_to_collection": null, "budget": 0, "genres": [], "homepage": null, "id": 127320, "imdb_id": "tt0284061", "original_language": "en", "original_title": "Dog Star Man: Part III", "overview": "Sexual intimacy. Three kinds of images race past, superimposed on each other sometimes: two bodies, a man and a woman's, close up, nude - patches of skin, wisps of hair, glimpses of a face and genitalia; strips of celluloid with lines and squiggles scratched on them; and, close-up shots of what appear to be the insides of living bodies - a heart beating, muscle and sinew and tissue wet with fluids. The exterior and interior of desire.", "popularity": 3.09, "poster_path": "/7yxH1QWMcHCTzChePqkkl01R38i.jpg", "production_companies": [], "production_countries": [{"iso_3166_1": "US", "name": "United States of America"}], "release_date": "1964-11-17", "revenue": 0, "runtime": 11, "spoken_languages": [{"iso_639_1": "xx", "name": "No Language"}], "status": "Released", "tagline": "", "title": "Dog Star Man: Part III", "video": false, "vote_average": 6.6, "vote_count": 21, "keywords": {"keywords": [{"id": 14629, "name": "experimental"}, {"id": 214549, "name": "short"}]}, "similar": {"page": 1, "results": [{"id": 621733, "video": false, "vote_count": 0, "vote_average": 0.0, "title": "A Trip to the Seaside", "release_date": "2019-08-30", "original_language": "en", "original_title": "A Trip to the Seaside", "genre_ids": [99], "backdrop_path": null, "adult": false, "overview": "Experimental short film on the excitement and rush of a day trip", "poster_path": "/AuZVhpoJ4jm2LWDhoJKfxQfhDAi.jpg", "popularity": 1.324}, {"id": 901, "video": false, "vote_count": 1026, "vote_average": 8.4, "title": "City Lights", "release_date": "1931-02-01", "original_language": "xx", "original_title": "City Lights", "genre_ids": [35, 18, 10749], "backdrop_path": "/vT6ux2rdyg2kexuLisO5Ygz7pHg.jpg", "adult": false, "overview": "City Lights is the first silent film that Charlie Chaplin directed after he established himself with sound accompanied films. The film is about a penniless man who falls in love with a flower girl.", "poster_path": "/bXNvzjULc9jrOVhGfjcc64uKZmZ.jpg", "popularity": 14.645}, {"id": 14813, "video": false, "vote_count": 456, "vote_average": 7.6, "title": "Mickey's Christmas Carol", "release_date": "1983-10-19", "original_language": "en", "original_title": "Mickey's Christmas Carol", "genre_ids": [16, 10751], "backdrop_path": "/fDK3xeAcQfQ40ZUULgZshElkspa.jpg", "adult": false, "overview": "It is an adaptation of the Charles Dickens classic A Christmas Carol, featuring Scrooge McDuck as his namesake and inspiration Ebenezer Scrooge and Mickey Mouse as Bob Cratchit. This film was based on a 1972 audio musical entitled Disney's A Christmas Carol. It is a twenty-four minute animated short film produced by Walt Disney Productions as an accompaniment to a re-release of The Rescuers.", "poster_path": "/29iF1IiC3ZyJQ1kmTf4LD8p8oro.jpg", "popularity": 14.7}, {"id": 326359, "video": false, "vote_count": 1180, "vote_average": 6.8, "title": "Frozen Fever", "release_date": "2015-03-09", "original_language": "en", "original_title": "Frozen Fever", "genre_ids": [12, 16, 10751], "backdrop_path": "/ubioPGniCfDiASmYYpeJs5RRNaC.jpg", "adult": false, "overview": "On Anna's birthday, Elsa and Kristoff are determined to give her the best celebration ever, but Elsa's icy powers may put more than just the party at risk.", "poster_path": "/lKJiVPzsAO9IJ4LKWXZ8vkR2bg4.jpg", "popularity": 17.218}, {"id": 150540, "video": false, "vote_count": 13957, "vote_average": 7.9, "title": "Inside Out", "release_date": "2015-06-09", "original_language": "en", "original_title": "Inside Out", "genre_ids": [16, 35, 18, 10751], "backdrop_path": "/szytSpLAyBh3ULei3x663mAv5ZT.jpg", "adult": false, "overview": "Growing up can be a bumpy road, and it's no exception for Riley, who is uprooted from her Midwest life when her father starts a new job in San Francisco. Riley's guiding emotions\u2014 Joy, Fear, Anger, Disgust and Sadness\u2014live in Headquarters, the control centre inside Riley's mind, where they help advise her through everyday life and tries to keep things positive, but the emotions conflict on how best to navigate a new city, house and school.", "poster_path": "/aAmfIX3TT40zUHGcCKrlOZRKC7u.jpg", "popularity": 57.362}, {"adult": false, "backdrop_path": "/5OeY4U2rzePxWq2rkqMajUx2gz7.jpg", "genre_ids": [16, 10751, 12, 14, 10749], "id": 812, "original_language": "en", "original_title": "Aladdin", "overview": "Princess Jasmine grows tired of being forced to remain in the palace, so she sneaks out into the marketplace, in disguise, where she meets street-urchin Aladdin.  The couple falls in love, although Jasmine may only marry a prince.  After being thrown in jail, Aladdin becomes embroiled in a plot to find a mysterious lamp, with which the evil Jafar hopes to rule the land.", "poster_path": "/mjKozYRuHc9j7SmiXmbVmCiAM0A.jpg", "release_date": "1992-11-25", "title": "Aladdin", "video": false, "vote_average": 7.6, "vote_count": 7289, "popularity": 35.494}, {"adult": false, "backdrop_path": "/wcT7srQ4GeeMqlszMFEtPZ7v8T7.jpg", "genre_ids": [35, 10749], "id": 28978, "original_language": "en", "original_title": "The Circus", "overview": "Charlie, a wandering tramp, becomes a circus handyman and falls in love with the circus owner's daughter. Unaware of Charlie's affection, the girl falls in love with a handsome young performer. Charlie's versatility makes him star of the show when he substitutes for an ailing tightwire walker. He is discharged from the company when he protects the girl from her father's abuse, but he returns and appeals to the handsome performer to marry the girl. After the wedding the father prevails upon them to rejoin the circus. Charlie is hired again, but he stays behind when the caravan moves on.", "poster_path": "/awTf4Y6TGvgi3VYtGNINyyJJy9Q.jpg", "release_date": "1928-01-06", "title": "The Circus", "video": false, "vote_average": 8.2, "vote_count": 330, "popularity": 12.839}, {"id": 650755, "video": false, "vote_count": 0, "vote_average": 0.0, "title": "Atordoado, Eu Permane\u00e7o Atento", "release_date": "2020-01-15", "original_language": "pt", "original_title": "Atordoado, Eu Permane\u00e7o Atento", "genre_ids": [99], "backdrop_path": null, "adult": false, "overview": "", "poster_path": "/exbM8qk6f6T44olJXcM8ix1sunL.jpg", "popularity": 7.153}, {"adult": false, "backdrop_path": "/twGxeStlGooWV3gP6ZIcSNuQ6jf.jpg", "genre_ids": [12, 16, 10751, 14], "id": 81684, "original_language": "en", "original_title": "The Gruffalo's Child", "overview": "A follow up to the 2009 animated feature and adapted from the childrens' book by Julia Donaldson and Alex Scheffler.  The Gruffalo's child explores the deep dark wood in search of the big bad mouse and meets the Snake, Owl and Fox in the process.  She eventually finds the mouse, who manages to outwit her like the Gruffalo before!", "poster_path": "/qaGH2AoaLvoGXURQtNzj1nw6oZd.jpg", "release_date": "2011-12-25", "title": "The Gruffalo's Child", "video": false, "vote_average": 6.9, "vote_count": 73, "popularity": 9.51}, {"adult": false, "backdrop_path": null, "genre_ids": [], "id": 616262, "original_language": "ar", "original_title": "All Come From Dust", "overview": "A loop of edgeless bend. You were its doom, he was its bloom. You were its tomb, he was its womb. You were its gloom, he was its loom. For Heaven and Hell, were words made of fume.", "poster_path": null, "release_date": "2019-08-13", "title": "All Come From Dust", "video": false, "vote_average": 5.0, "vote_count": 1, "popularity": 0.6}, {"adult": false, "backdrop_path": "/qFLDF62VbWyyxkwco9lwZqkGoMB.jpg", "genre_ids": [16, 10751], "id": 10895, "original_language": "en", "original_title": "Pinocchio", "overview": "Lonely toymaker Geppetto has his wishes answered when the Blue Fairy arrives to bring his wooden puppet Pinocchio to life. Before becoming a real boy, however, Pinocchio must prove he's worthy as he sets off on an adventure with his whistling sidekick and conscience, Jiminy Cricket.", "poster_path": "/gN1dQBHi4557cFduIu9njOr6knW.jpg", "release_date": "1940-02-23", "title": "Pinocchio", "video": false, "vote_average": 7.0, "vote_count": 3431, "popularity": 25.831}, {"id": 828, "video": false, "vote_count": 557, "vote_average": 7.5, "title": "The Day the Earth Stood Still", "release_date": "1951-09-17", "original_language": "en", "original_title": "The Day the Earth Stood Still", "genre_ids": [878], "backdrop_path": "/uExEupzfV7Ffau0H98aefUU0zcG.jpg", "adult": false, "overview": "An alien and a robot land on earth after World War II and tell mankind to be peaceful or face destruction. A classic science fiction film from Robert Wise with an exceptional message.", "poster_path": "/x2DquTpLTq54aPFDnqlwY7apCC3.jpg", "popularity": 30.427}, {"id": 856, "video": false, "vote_count": 3249, "vote_average": 7.4, "title": "Who Framed Roger Rabbit", "release_date": "1988-06-21", "original_language": "en", "original_title": "Who Framed Roger Rabbit", "genre_ids": [16, 35, 80, 14, 10751], "backdrop_path": "/9podqGmd36AJHO13HQIQHQZRTJC.jpg", "adult": false, "overview": "'Toon star Roger is worried that his wife Jessica is playing pattycake with someone else, so the studio hires detective Eddie Valiant to snoop on her. But the stakes are quickly raised when Marvin Acme is found dead and Roger is the prime suspect.", "poster_path": "/lYfRc57Kx9VgLZ48iulu0HKnM15.jpg", "popularity": 20.755}, {"adult": false, "backdrop_path": "/yDmyqO3xHTVxtyM0CuqobSX3Hjr.jpg", "genre_ids": [16, 10751, 14], "id": 10144, "original_language": "en", "original_title": "The Little Mermaid", "overview": "This colorful adventure tells the story of an impetuous mermaid princess named Ariel who falls in love with the very human Prince Eric and puts everything on the line for the chance to be with him. Memorable songs and characters -- including the villainous sea witch Ursula.", "poster_path": "/6aXMusULuKFAK0ZRUlv7RJ9zHTc.jpg", "release_date": "1989-11-17", "title": "The Little Mermaid", "video": false, "vote_average": 7.3, "vote_count": 4669, "popularity": 25.992}, {"id": 10882, "video": false, "vote_count": 3219, "vote_average": 6.9, "title": "Sleeping Beauty", "release_date": "1959-01-28", "original_language": "en", "original_title": "Sleeping Beauty", "genre_ids": [16, 14, 10749, 10751], "backdrop_path": "/oHZIobyIG0YzWntyPCTSJDOk9qB.jpg", "adult": false, "overview": "A beautiful princess born in a faraway kingdom is destined by a terrible curse to prick her finger on the spindle of a spinning wheel and fall into a deep sleep that can only be awakened by true love's first kiss. Determined to protect her, her parents ask three fairies to raise her in hiding. But the evil Maleficent is just as determined to seal the princess's fate.", "poster_path": "/j4YBuAe8D1jDSiitpq69og9x3Yl.jpg", "popularity": 29.356}, {"id": 10693, "video": false, "vote_count": 3346, "vote_average": 7.2, "title": "Peter Pan", "release_date": "1953-02-05", "original_language": "en", "original_title": "Peter Pan", "genre_ids": [12, 16, 14, 10751], "backdrop_path": "/9bNHgmqQ4u4ujYpGwCiMB2BsCLC.jpg", "adult": false, "overview": "Leaving the safety of their nursery behind, Wendy, Michael and John follow Peter Pan to a magical world where childhood lasts forever. But while in Neverland, the kids must face Captain Hook and foil his attempts to get rid of Peter for good.", "poster_path": "/6UTZmeQcxbtW32MyR5nKIx7ID4f.jpg", "popularity": 30.689}, {"id": 77931, "video": false, "vote_count": 1336, "vote_average": 5.7, "title": "The Smurfs 2", "release_date": "2013-07-30", "original_language": "en", "original_title": "The Smurfs 2", "genre_ids": [16, 35, 14, 10751], "backdrop_path": "/xqfnJn8ApELIa1zGLOa3W9q2Ztn.jpg", "adult": false, "overview": "The evil wizard Gargamel creates a couple of mischievous Smurf-like creatures called the Naughties that he hopes will let him harness the all-powerful, magical Smurf-essence. But when he discovers that only a real Smurf can give him what he wants, and only a secret spell that Smurfette knows can turn the Naughties into real Smurfs, Gargamel kidnaps Smurfette and brings her to Paris, where he has been winning the adoration of millions as the world\u00b9s greatest sorcerer. It's up to Papa, Clumsy, Grouchy, and Vanity to return to our world, reunite with their human friends Patrick and Grace Winslow, and rescue her! Will Smurfette, who has always felt different from the other Smurfs, find a new connection with the Naughties Vexy and Hackus or will the Smurfs convince her that their love for her is True Blue?", "poster_path": "/mF2FXzZ3EktWoagU4fzoabNsK6J.jpg", "popularity": 16.262}, {"id": 321612, "video": false, "vote_count": 11799, "vote_average": 6.9, "title": "Beauty and the Beast", "release_date": "2017-03-16", "original_language": "en", "original_title": "Beauty and the Beast", "genre_ids": [14, 10749, 10751], "backdrop_path": "/6aUWe0GSl69wMTSWWexsorMIvwU.jpg", "adult": false, "overview": "A live-action adaptation of Disney's version of the classic tale of a cursed prince and a beautiful young woman who helps him break the spell.", "poster_path": "/tWqifoYuwLETmmasnGHO7xBjEtt.jpg", "popularity": 47.679}, {"adult": false, "backdrop_path": "/9l5Nzo1qbEslfCu2NYWimpZ1Vkc.jpg", "genre_ids": [35, 10751, 14, 10749], "id": 4523, "original_language": "en", "original_title": "Enchanted", "overview": "The beautiful princess Giselle is banished by an evil queen from her magical, musical animated land and finds herself in the gritty reality of the streets of modern-day Manhattan. Shocked by this strange new environment that doesn't operate on a \"happily ever after\" basis, Giselle is now adrift in a chaotic world badly in need of enchantment. But when Giselle begins to fall in love with a charmingly flawed divorce lawyer who has come to her aid - even though she is already promised to a perfect fairy tale prince back home - she has to wonder: Can a storybook view of romance survive in the real world?", "poster_path": "/65EfHNQ6NCeAoRPNLRhTyLqNZmU.jpg", "release_date": "2007-11-20", "title": "Enchanted", "video": false, "vote_average": 6.7, "vote_count": 3505, "popularity": 22.541}, {"id": 62177, "video": false, "vote_count": 8933, "vote_average": 6.9, "title": "Brave", "release_date": "2012-06-21", "original_language": "en", "original_title": "Brave", "genre_ids": [28, 12, 16, 35, 14, 10751], "backdrop_path": "/sfRCA9g3CunpnZO3QurHSIRcsUq.jpg", "adult": false, "overview": "Brave is set in the mystical Scottish Highlands, where M\u00e9rida is the princess of a kingdom ruled by King Fergus and Queen Elinor. An unruly daughter and an accomplished archer, M\u00e9rida one day defies a sacred custom of the land and inadvertently brings turmoil to the kingdom. In an attempt to set things right, M\u00e9rida seeks out an eccentric old Wise Woman and is granted an ill-fated wish. Also figuring into M\u00e9rida\u2019s quest \u2014 and serving as comic relief \u2014 are the kingdom\u2019s three lords: the enormous Lord MacGuffin, the surly Lord Macintosh, and the disagreeable Lord Dingwall.", "poster_path": "/qhABv2d4NZLhsOOA4iBFM4rfuJC.jpg", "popularity": 40.077}], "total_pages": 924, "total_results": 18461}, "recommendations": {"page": 1, "results": [{"adult": false, "backdrop_path": null, "genre_ids": [], "id": 127323, "original_language": "en", "original_title": "Dog Star Man: Part IV", "overview": "A man is supine on a mountain side. Images rush past of nature and a stained glass saint. An infant is born. We see a lactating nipple. Images include a mountain peak, farm buildings, a tree stump, a fire, a crawling baby, and the sun. The man falls and rolls. Then, later, he swings his ax.", "poster_path": "/i4utOPtqb6VpFR7zNzlXziUOaq0.jpg", "release_date": "1965-02-22", "title": "Dog Star Man: Part IV", "video": false, "vote_average": 6.5, "vote_count": 20, "popularity": 2.654}, {"adult": false, "backdrop_path": null, "genre_ids": [], "id": 127148, "original_language": "en", "original_title": "Dog Star Man: Part II", "overview": "A man, accompanied by a dog, struggles through snow on a mountain side. We see film stock blister; drawn square shapes appear. Then, we see an infant's face. The images of struggling climber, baby, blurred film stock, large snow flakes, and what may be microscopic details of matter are superimposed on each other, one dominating the frame briefly to be replaced by another. As the man falls in the snow and tries to regain his feet, the baby continues to appear, first with eyes closed. Alternately, images rush by - montages of paper cutouts and life under a microscope.", "poster_path": "/f42jSZw0ey8TpFGKqcnHE82GxHn.jpg", "release_date": "1964-11-17", "title": "Dog Star Man: Part II", "video": false, "vote_average": 6.9, "vote_count": 21, "popularity": 2.759}, {"id": 126692, "video": false, "vote_count": 26, "vote_average": 6.8, "title": "Prelude: Dog Star Man", "release_date": "1962-04-15", "original_language": "en", "original_title": "Prelude: Dog Star Man", "genre_ids": [], "backdrop_path": "/EKDYondecHSoqMgmaJ3hcqFPRg.jpg", "adult": false, "overview": "A creation myth realized in light, patterns, images superimposed, rapid cutting, and silence. A black screen, then streaks of light, then an explosion of color and squiggles and happenstance. Next, images of small circles emerge then of the Sun. Images of our Earth appear, woods, a part of a body, a nude woman perhaps giving birth. Imagery evokes movement across time.", "poster_path": "/xNDLS7aFCJp3Ir0W2O86AGFwMSQ.jpg", "popularity": 2.81}, {"adult": false, "backdrop_path": "/3Z8ytP2hoyCAhwYFTFm3nTQ6oFg.jpg", "genre_ids": [], "id": 85110, "original_language": "en", "original_title": "Dog Star Man: Part I", "overview": "From a murky landscape, a wooded mountain emerges. We watch the sun. We see a bearded man climbing up the mountain through the snow. He carries an ax, and he's accompanied by a dog. His labors continue. There is no soundtrack. Images rush past - water, trees, and surfaces too close up to distinguish. He struggles. A fire burns. Nature, in long shots and magnified, is formidable and silent. It's tough going; he carries on. In a capillary, blood flows.", "poster_path": "/xCEUsoTIGR5jP5vkgRIFLZA3ZbU.jpg", "release_date": "1963-03-18", "title": "Dog Star Man: Part I", "video": false, "vote_average": 6.4, "vote_count": 27, "popularity": 4.116}, {"adult": false, "backdrop_path": null, "genre_ids": [], "id": 144943, "original_language": "en", "original_title": "The Machine of Eden", "overview": "Short film from Stan Brakhage", "poster_path": "/hpQ8vy0trlbfeVeqXHblnwmf07u.jpg", "release_date": "1970-09-23", "title": "The Machine of Eden", "video": false, "vote_average": 5.2, "vote_count": 10, "popularity": 3.986}, {"adult": false, "backdrop_path": null, "genre_ids": [], "id": 143554, "original_language": "de", "original_title": "31/75: Asyl", "overview": "A meadow, a lake, the silhouette of a hill, trees. 21 days of the same view in Saarland. 21 days with five different cut-outs in a mask before the camera, which finally reveals a complete panorama. The landscape changes with the advancing seasons and becomes slowly delirious in its technical alienation.", "poster_path": "/m8XvSjDfZSaysYwZPSBNSajnaEK.jpg", "release_date": "1975-01-01", "title": "31/75: Asylum", "video": false, "vote_average": 5.6, "vote_count": 11, "popularity": 1.04}, {"adult": false, "backdrop_path": null, "genre_ids": [], "id": 212101, "original_language": "en", "original_title": "The Midnight Party", "overview": "Part of The Children's Trilogy. Filmed in 1938, effects added by Larry Jordan ca. 1965-68.", "poster_path": "/sz2i6K6pNfVJy0D5Yz46PTWxaa.jpg", "release_date": "1938-12-31", "title": "The Midnight Party", "video": false, "vote_average": 5.3, "vote_count": 10, "popularity": 2.048}, {"adult": false, "backdrop_path": null, "genre_ids": [], "id": 126216, "original_language": "en", "original_title": "Comingled Containers", "overview": "Comingled Containers is an experimental short film by Stan Brakhage. \"This 'return to photography' (after several years of only painting film) was made on the eve of cancer surgery - a kind of 'last testament,' if you will\u2026 an envisionment of the fleeting complexity of worldly phenomenon.\"", "poster_path": "/td4O9BT6S0IDFx0vdc8EE8Q1O4o.jpg", "release_date": "1997-01-01", "title": "Comingled Containers", "video": false, "vote_average": 6.0, "vote_count": 21, "popularity": 4.168}, {"adult": false, "backdrop_path": "/uLgiTUwbj3lCpu7AR6iAkKKpFun.jpg", "genre_ids": [], "id": 126213, "original_language": "en", "original_title": "Crack Glass Eulogy", "overview": "A nostalgic envisionment of city living - the potential shards of memory seen as if always on the verge of cutting the mind to pieces.", "poster_path": "/fgOQCPeDPLy4xD8ZaWlLlO1Ynpz.jpg", "release_date": "1992-01-01", "title": "Crack Glass Eulogy", "video": false, "vote_average": 5.5, "vote_count": 13, "popularity": 3.839}, {"adult": false, "backdrop_path": null, "genre_ids": [99], "id": 48869, "original_language": "it", "original_title": "Le mura di Sana'a", "overview": "The capital of Yemen, the city of Sana'a, holds an important part of history within its walls filled with medieval architecture and culture. But that same culture was about to disappear with the country's modernization which came after the civil war in the 1960's. To impeach such modern invasion, director Pasolini pledges to UNESCO for the recognition of Sana'a as a World Heritage Site.", "poster_path": "/ocNnhvSSxX0QIv4sTQnE4Xg60J.jpg", "release_date": "1971-02-15", "title": "The Walls of Sana'a", "video": false, "vote_average": 6.4, "vote_count": 7, "popularity": 1.423}, {"adult": false, "backdrop_path": "/30aoSkRCIq0pHbxX0Ow2m7WfOGG.jpg", "genre_ids": [], "id": 126193, "original_language": "en", "original_title": "I... Dreaming", "overview": "Phrases of Stephen Foster, set to music by Joel Heartling, are set to film in this autobiographical piece: a solitary female voice, occasionally joined by a chorus, sings phrases of sorrow as we watch a solitary man in shadows in an unadorned house: he stretches out, he picks his feet, he walks across a room, he rocks in a chair. Occasionally he watches two young children at play; the film sometimes speeds up. Handwritten words, like \"dark void\" and \"waiting longing,\" cross the screen. Film and phrases often come in short bursts. Outdoor it looks gray and cold.", "poster_path": "/fwb5ryqcKxDW9kEkUvWS22jVFpP.jpg", "release_date": "1988-01-01", "title": "I... Dreaming", "video": false, "vote_average": 5.9, "vote_count": 17, "popularity": 2.942}, {"adult": false, "backdrop_path": null, "genre_ids": [], "id": 146662, "original_language": "en", "original_title": "From: First Hymn to the Night \u2013 Novalis", "overview": "\u201cThis is a hand-painted film whose emotionally referential shapes and colors are interwoven with words (in English) from the first Hymn to the Night by the late 18th century mystic poet Friedrich Philipp von Hardenberg, whose pen name was Novalis. The pieces of text which I've used are as follows: \u2018the universally gladdening light \u2026 As inmost soul \u2026 it is breathed by stars \u2026 by stone \u2026 by suckling plant \u2026 multiform beast \u2026 and by (you). I turn aside to Holy Night \u2026 I seek to blend with ashes. Night opens in us \u2026 infinite eyes \u2026 blessed love.\u2019\u201d -SB", "poster_path": "/44ZEsFbhiSfTLKGMw8uzOXnMg2m.jpg", "release_date": "1994-12-31", "title": "From: First Hymn to the Night \u2013 Novalis", "video": false, "vote_average": 4.9, "vote_count": 13, "popularity": 2.524}, {"adult": false, "backdrop_path": "/sawwBIZmPTLHqasH7ShUDXU7iKH.jpg", "genre_ids": [], "id": 126218, "original_language": "en", "original_title": "Lovesong", "overview": "5 parts of the Lovesongs cycle", "poster_path": "/ejUTMQ41xKAymHMTDWXm2ysl54.jpg", "release_date": "2001-03-04", "title": "Lovesong", "video": false, "vote_average": 5.8, "vote_count": 13, "popularity": 2.644}, {"id": 146987, "video": false, "vote_count": 12, "vote_average": 6.3, "title": "By Night with Torch and Spear", "release_date": "1942-12-31", "original_language": "en", "original_title": "By Night with Torch and Spear", "genre_ids": [], "backdrop_path": null, "adult": false, "overview": "Smoke, sparks and steam dance together in Cornell's found-footage collage. Backwards title cards (or an alien language, if you like) punctuate this mishmash of the industrial and the ancient.", "poster_path": null, "popularity": 1.558}, {"adult": false, "backdrop_path": null, "genre_ids": [16], "id": 162512, "original_language": "en", "original_title": "Buried Treasure", "overview": "Eveready Horton and his behemoth penis venture through the country in search of the penetrable.", "poster_path": "/lMlnImqDRZKJHcT9MtEgkt5FLE0.jpg", "release_date": "1929-04-29", "title": "Eveready Harton in Buried Treasure", "video": false, "vote_average": 6.4, "vote_count": 13, "popularity": 4.11}, {"adult": false, "backdrop_path": null, "genre_ids": [], "id": 179837, "original_language": "de", "original_title": "Manufraktur", "overview": "A tangled network woven with tiny particles of movements broken out of found footage and compiled anew: the elements of the \"to the left, to the right, back and forth\" grammar of narrative space, discharged from all semantic burden. What remains is a self-sufficient swarm of splinters, fleeting vectors of lost direction, furrowed with the traces of the manual process of production.", "poster_path": "/h4FyeiVbZ487heEzdXAU3tzRgck.jpg", "release_date": "1985-01-01", "title": "Manufractur", "video": false, "vote_average": 6.3, "vote_count": 12, "popularity": 1.322}, {"adult": false, "backdrop_path": null, "genre_ids": [10402], "id": 237187, "original_language": "en", "original_title": "Pacific 231", "overview": "An engine moves from the roundhouse to a track where it couples with several passenger cars. At 2:10 in the afternoon, it starts a trip out of the station through the countryside to its destination. The film consists of a montage of shots, some close up, of the engine and its gears and wheels. With the accompanying ambient sounds and an orchestral score, the emphasis is on the engine's power and speed. Parallel lines of multiple tracks, telephone wires, and trees confirm a careful composition.", "poster_path": "/AbpBAwwOrt3UtgSAcKaGnvyikvD.jpg", "release_date": "1949-09-01", "title": "Pacific 231", "video": false, "vote_average": 6.9, "vote_count": 12, "popularity": 2.19}, {"adult": false, "backdrop_path": null, "genre_ids": [], "id": 145033, "original_language": "en", "original_title": "The Dead", "overview": "An experimental short film from Stan Brakhage.", "poster_path": "/3QDL79FTJjm6FZg1HCjRXkhOyZf.jpg", "release_date": "1960-12-31", "title": "The Dead", "video": false, "vote_average": 4.4, "vote_count": 10, "popularity": 2.586}, {"adult": false, "backdrop_path": null, "genre_ids": [99], "id": 113354, "original_language": "nl", "original_title": "Zoo", "overview": "A perfect, fast and hilarious montage. Using images from Artis (Amsterdam Zoo), Bert Haanstra shows that a couple of similarities can be discovered between human and animal. Particularly the manner in which human and ape are confronted with each other, is significant. The images speak for themselves, human voices or commentary is absent. The ironic music of Pim Jacobs does add an extra dimension to the whole. With regards to human and animal Haanstra limits himself for the time being to this short film, recorded with a hidden camera. Later on, in several big films, he would return to this subject.", "poster_path": "/1CV8IrMUUamzysKp1URTpxhEso0.jpg", "release_date": "1962-12-14", "title": "The Zoo", "video": false, "vote_average": 7.2, "vote_count": 12, "popularity": 1.201}, {"adult": false, "backdrop_path": null, "genre_ids": [10752, 14], "id": 376710, "original_language": "en", "original_title": "2nd War Hats", "overview": "", "poster_path": "/pcr2Vrxh15RFj3eHWfFX62jadZH.jpg", "release_date": "1986-01-01", "title": "2nd War Hats", "video": false, "vote_average": 6.3, "vote_count": 4, "popularity": 0.6}], "total_pages": 2, "total_results": 40}, "credits": {"cast": [{"cast_id": 2, "character": "", "credit_id": "5a2379460e0a264cc10be599", "gender": 2, "id": 563461, "name": "Stan Brakhage", "order": 1, "profile_path": "/sAOHIoVBLzD0J3ljgAtLDw47Lo2.jpg"}, {"cast_id": 3, "character": "", "credit_id": "5a23794bc3a3680b930c1b29", "gender": 1, "id": 1013947, "name": "Jane Brakhage", "order": 2, "profile_path": "/o5PGTgppf6qZUDjT9G2BmU7sgVT.jpg"}], "crew": [{"credit_id": "52fe4af6c3a368484e170163", "department": "Directing", "gender": 2, "id": 563461, "job": "Director", "name": "Stan Brakhage", "profile_path": "/sAOHIoVBLzD0J3ljgAtLDw47Lo2.jpg"}]}}