{"adult": false, "backdrop_path": null, "belongs_to_collection": null, "budget": 0, "genres": [{"id": 99, "name": "Documentary"}], "homepage": "http://headgamesthefilm.com/", "id": 127505, "imdb_id": "tt2239400", "original_language": "en", "original_title": "Head Games", "overview": "Former football player and wrestler Chris Nowinski's quest to publicize recent findings about the often dire consequences of head concussions sustained by athletes in contact sports \u2014 injuries that have previously been considered momentary setbacks and ignored in the name of toughness and dedication to the team.", "popularity": 3.272, "poster_path": "/1yUz9P8bQi3040ZyQZ3HtGFa6bW.jpg", "production_companies": [{"id": 13231, "logo_path": null, "name": "Head Games the Film", "origin_country": ""}], "production_countries": [{"iso_3166_1": "US", "name": "United States of America"}], "release_date": "2012-09-21", "revenue": 14056, "runtime": 96, "spoken_languages": [{"iso_639_1": "en", "name": "English"}], "status": "Released", "tagline": "How much are you willing to lose for a game?", "title": "Head Games", "video": false, "vote_average": 7.0, "vote_count": 5, "keywords": {"keywords": [{"id": 236, "name": "suicide"}, {"id": 970, "name": "parent child relationship"}, {"id": 2588, "name": "brain"}, {"id": 2689, "name": "dementia"}, {"id": 4613, "name": "training"}, {"id": 4715, "name": "autopsy"}, {"id": 6075, "name": "sport"}, {"id": 6350, "name": "head injury"}, {"id": 6483, "name": "ice hockey"}, {"id": 13042, "name": "football (soccer)"}, {"id": 190471, "name": "amateur sports"}, {"id": 190472, "name": "sports medicine"}, {"id": 190473, "name": "brain research"}, {"id": 190474, "name": "youth sports"}]}, "similar": {"page": 1, "results": [{"id": 1375, "video": false, "vote_count": 1669, "vote_average": 5.6, "title": "Rocky V", "release_date": "1990-10-18", "original_language": "en", "original_title": "Rocky V", "genre_ids": [18], "backdrop_path": "/dr5pdEDOdCvelCQqP32UZubiSgE.jpg", "adult": false, "overview": "A lifetime of taking shots has ended Rocky\u2019s career, and a crooked accountant has left him broke. Inspired by the memory of his trainer, however, Rocky finds glory in training and takes on an up-and-coming boxer.", "poster_path": "/5P2RiuLt31mWyb6duww8qlAhs6G.jpg", "popularity": 16.084}, {"adult": false, "backdrop_path": "/qVjKZMB0IdOc2JlwiiGsuKTvTJs.jpg", "genre_ids": [18], "id": 22881, "original_language": "en", "original_title": "The Blind Side", "overview": "The story of Michael Oher, a homeless and traumatized boy who became an All American football player and first round NFL draft pick with the help of a caring woman and her family", "poster_path": "/wEGFSgPebLk6g1ngKsJ6a46PYLV.jpg", "release_date": "2009-11-20", "title": "The Blind Side", "video": false, "vote_average": 7.5, "vote_count": 3212, "popularity": 30.144}, {"id": 391757, "video": false, "vote_count": 185, "vote_average": 6.5, "title": "Never Back Down: No Surrender", "release_date": "2016-06-07", "original_language": "en", "original_title": "Never Back Down: No Surrender", "genre_ids": [28, 18], "backdrop_path": "/pzjnObK3uiHcKwiir9OPPWzbW8f.jpg", "adult": false, "overview": "Picking up after the events of Never Back Down 2, former MMA champion Case Walker is on the comeback trail to become champion once again.", "poster_path": "/dYNS4o4Q4DDLiKRAAvZ9KcrhHuy.jpg", "popularity": 16.224}, {"adult": false, "backdrop_path": "/jK3EAFk3GdOaQfUDCOiTujzMpwH.jpg", "genre_ids": [18], "id": 389015, "original_language": "en", "original_title": "I, Tonya", "overview": "Competitive ice skater Tonya Harding rises amongst the ranks at the U. S. Figure Skating Championships, but her future in the sport is thrown into doubt when her ex-husband intervenes.", "poster_path": "/6gNXwSHxaksR1PjVZRqNapmkgj3.jpg", "release_date": "2017-12-08", "title": "I, Tonya", "video": false, "vote_average": 7.5, "vote_count": 3327, "popularity": 19.513}, {"adult": false, "backdrop_path": "/6qYptQG2ynJANbyjjYOt4fpHfxF.jpg", "genre_ids": [18], "id": 1371, "original_language": "en", "original_title": "Rocky III", "overview": "Now the world champion, Rocky Balboa is living in luxury and only fighting opponents who pose no threat to him in the ring, until Clubber Lang challenges him to a bout. After taking a pounding from Lang, the humbled champ turns to former bitter rival Apollo Creed for a rematch with Lang.", "poster_path": "/ns55NGqTDEEjcI9z2a9htA2cFtG.jpg", "release_date": "1982-05-28", "title": "Rocky III", "video": false, "vote_average": 6.8, "vote_count": 2155, "popularity": 19.06}, {"id": 1374, "video": false, "vote_count": 2311, "vote_average": 6.9, "title": "Rocky IV", "release_date": "1985-11-21", "original_language": "en", "original_title": "Rocky IV", "genre_ids": [18], "backdrop_path": "/uvbjTLZSxGehXWDo1ENyVuBrYie.jpg", "adult": false, "overview": "After iron man Drago, a highly intimidating 6-foot-5, 261-pound Soviet athlete, kills Apollo Creed in an exhibition match, Rocky comes to the heart of Russia for 15 pile-driving boxing rounds of revenge.", "poster_path": "/jmvpwgW5M2kduR9zB0q8qGFC4zM.jpg", "popularity": 21.193}, {"id": 8923, "video": false, "vote_count": 1358, "vote_average": 7.2, "title": "Green Street Hooligans", "release_date": "2005-09-09", "original_language": "en", "original_title": "Green Street Hooligans", "genre_ids": [80, 18], "backdrop_path": "/oasVTD3UpTEjhTAVx9ZCy1k19Qv.jpg", "adult": false, "overview": "After being wrongfully expelled from Harvard University, American Matt Buckner flees to his sister's home in England. Once there, he is befriended by her charming and dangerous brother-in-law, Pete Dunham, and introduced to the underworld of British football hooliganism. Matt learns to stand his ground through a friendship that develops against the backdrop of this secret and often violent world. 'Green Street Hooligans' is a story of loyalty, trust and the sometimes brutal consequences of living close to the edge.", "poster_path": "/z3LC4kI8azbeuHRGgDdWo6VBCdX.jpg", "popularity": 14.424}, {"adult": false, "backdrop_path": "/n1Gh3MJAVvXmkgSDf3SOLlPCjag.jpg", "genre_ids": [35, 18, 10749], "id": 9390, "original_language": "en", "original_title": "Jerry Maguire", "overview": "Jerry Maguire used to be a typical sports agent: willing to do just about anything he could to get the biggest possible contracts for his clients, plus a nice commission for himself. Then, one day, he suddenly has second thoughts about what he's really doing. When he voices these doubts, he ends up losing his job and all of his clients, save Rod Tidwell, an egomaniacal football player.", "poster_path": "/99YTEdKOKDRClsscOpJfdkbaTrQ.jpg", "release_date": "1996-12-13", "title": "Jerry Maguire", "video": false, "vote_average": 6.9, "vote_count": 1794, "popularity": 16.867}, {"adult": false, "backdrop_path": "/39jfRKSZZlHxfrdZOsR4R80gVoc.jpg", "genre_ids": [18, 28], "id": 8456, "original_language": "en", "original_title": "Never Back Down", "overview": "Rebellious Jake Tyler is lured into an ultimate underground fight Scene at his new high school, after receiving threats to the safety of his friends and family Jake decides to seek the mentoring of a veteran fighter who trains him for one final no-holds-barred elimination fight with his nemesis and local martial arts champion Ryan McCarthy.", "poster_path": "/6vT35MJ67U3llfi6W7MbM5r2dav.jpg", "release_date": "2008-03-04", "title": "Never Back Down", "video": false, "vote_average": 6.6, "vote_count": 1244, "popularity": 17.01}, {"id": 39254, "video": false, "vote_count": 4971, "vote_average": 6.8, "title": "Real Steel", "release_date": "2011-09-28", "original_language": "en", "original_title": "Real Steel", "genre_ids": [28, 18, 878], "backdrop_path": "/bwaMcX2zjfc3C7YLBWRnBnHEDHW.jpg", "adult": false, "overview": "Charlie Kenton is a washed-up fighter who retired from the ring when robots took over the sport. After his robot is trashed, he reluctantly teams up with his estranged son to rebuild and train an unlikely contender.", "poster_path": "/drtXi58nN6P3zcoLh6wUlsZAYqh.jpg", "popularity": 23.011}, {"adult": false, "backdrop_path": "/9lrM0o89ASyHmDgMLfCbU5qdsAm.jpg", "genre_ids": [35, 18], "id": 9291, "original_language": "en", "original_title": "The Longest Yard", "overview": "Pro quarter-back, Paul Crewe and former college champion and coach, Nate Scarboro are doing time in the same prison. Asked to put together a team of inmates to take on the guards, Crewe enlists the help of Scarboro to coach the inmates to victory in a football game 'fixed' to turn out quite another way.", "poster_path": "/ag6q9euZABqbHtbDhoRT9xEYltP.jpg", "release_date": "2005-05-27", "title": "The Longest Yard", "video": false, "vote_average": 6.4, "vote_count": 1764, "popularity": 17.65}, {"id": 921, "video": false, "vote_count": 1244, "vote_average": 7.5, "title": "Cinderella Man", "release_date": "2005-06-02", "original_language": "en", "original_title": "Cinderella Man", "genre_ids": [18, 36, 10749], "backdrop_path": "/ozvvHdadtBYpExCwAjsNPSjV6hT.jpg", "adult": false, "overview": "The true story of boxer, Jim Braddock who, in the 1920\u2019s after his retirement, has a surprise comeback in order to get him and his family out of a socially poor state.", "poster_path": "/xZhumK43Z6jmwCWglh7uHcpkqdb.jpg", "popularity": 14.337}, {"id": 360814, "video": false, "vote_count": 407, "vote_average": 8.0, "title": "Dangal", "release_date": "2016-12-21", "original_language": "hi", "original_title": "\u0926\u0902\u0917\u0932", "genre_ids": [28, 18], "backdrop_path": "/mFCEeEjRfU2WU9vv5ApXJLzKxy7.jpg", "adult": false, "overview": "Dangal is an extraordinary true story based on the life of Mahavir Singh and his two daughters, Geeta and Babita Phogat. The film traces the inspirational journey of a father who trains his daughters to become world class wrestlers.", "poster_path": "/5PDT64gtbmH10gK5AYR7LZh5PQk.jpg", "popularity": 11.531}, {"adult": false, "backdrop_path": "/bkPFcKiMj8lPoYsxGSFBRXQMkyu.jpg", "genre_ids": [18], "id": 990, "original_language": "en", "original_title": "The Hustler", "overview": "Fast Eddie Felson is a small-time pool hustler with a lot of talent but a self-destructive attitude. His bravado causes him to challenge the legendary Minnesota Fats to a high-stakes match.", "poster_path": "/c7lg1HUBw6rXkpCMQ3TUyZaIWO4.jpg", "release_date": "1961-09-25", "title": "The Hustler", "video": false, "vote_average": 7.8, "vote_count": 479, "popularity": 14.118}, {"adult": false, "backdrop_path": "/xx9DyVNmehDJPrYGsy9AJgYzAtd.jpg", "genre_ids": [18], "id": 1367, "original_language": "en", "original_title": "Rocky II", "overview": "After Rocky goes the distance with champ Apollo Creed, both try to put the fight behind them and move on. Rocky settles down with Adrian but can't put his life together outside the ring, while Creed seeks a rematch to restore his reputation. Soon enough, the \"Master of Disaster\" and the \"Italian Stallion\" are set on a collision course for a climactic battle that is brutal and unforgettable.", "poster_path": "/fqJH7mI4dFANRay8qdJoGa7fK1k.jpg", "release_date": "1979-06-15", "title": "Rocky II", "video": false, "vote_average": 7.1, "vote_count": 2341, "popularity": 19.433}, {"id": 175, "video": false, "vote_count": 781, "vote_average": 7.6, "title": "The Big Blue", "release_date": "1988-05-11", "original_language": "fr", "original_title": "Le Grand Bleu", "genre_ids": [12, 18, 10749], "backdrop_path": "/eSZUjmpNSnQZ2Wp1IRdlbUpSAuz.jpg", "adult": false, "overview": "Two men answer the call of the ocean in this romantic fantasy-adventure.  Jacques and Enzo are a pair of friends who have been close since childhood, and who share a passion for the dangerous sport of free diving. Professional diver Jacques opted to follow in the footsteps of his father, who died at sea when Jacques was a boy; to the bewilderment of scientists, Jacques harbors a remarkable ability to adjust his heart rate and breathing pattern in the water, so that his vital signs more closely resemble that of dolphins than men (he even considers a school of dolphins as his extended family).  As Enzo persuades a reluctant Jacques to compete against him in a free diving contest -- determining who can dive deeper and longer without scuba gear -- Jacques meets Johana, a beautiful insurance investigator from America, and he finds that he must choose between his love for her and his love of the sea.", "poster_path": "/RgvRBAD5LTGsePMzjaqaNPkSYf.jpg", "popularity": 16.608}, {"adult": false, "backdrop_path": "/zu3zLkJeRtGJq4I6D7ONMWmFOLh.jpg", "genre_ids": [28, 18], "id": 9766, "original_language": "en", "original_title": "Gridiron Gang", "overview": "Teenagers at a juvenile detention center, under the leadership of their counselor, gain self-esteem by playing football together.", "poster_path": "/8UlDsCPjAfg15L5Sgkcmy8rv1rg.jpg", "release_date": "2006-09-15", "title": "Gridiron Gang", "video": false, "vote_average": 6.7, "vote_count": 431, "popularity": 14.948}, {"id": 645557, "video": false, "vote_count": 2, "vote_average": 6.5, "title": "Lindsey Vonn: The Final Season", "release_date": "2019-11-26", "original_language": "en", "original_title": "Lindsey Vonn: The Final Season", "genre_ids": [99], "backdrop_path": "/3m2HBAhMS5mT765HaNcu3pAv6a9.jpg", "adult": false, "overview": "Universally recognized as the greatest female skier ever, Lindsey Vonn went on a remarkable journey that was defined by unexpected twists and turns and dramatic peaks and valleys in its final chapter. LINDSEY VONN: THE FINAL SEASON intimately recounts the iconic skier\u2019s last competitive campaign while looking back on her transcendent career, from child prodigy to decorated Olympian to global superstar.", "poster_path": "/usH6JAZY7dLH4kH7WiEqrinA95K.jpg", "popularity": 5.22}, {"adult": false, "backdrop_path": "/3fcBsj9JMQQ27Wuk3LVrEwVZ2VT.jpg", "genre_ids": [28, 18], "id": 323677, "original_language": "en", "original_title": "Race", "overview": "Based on the story of Jesse Owens, the athlete whose quest to become the greatest track and field athlete in history thrusts him onto the world stage of the 1936 Olympics, where he faces off against Adolf Hitler's vision of Aryan supremacy.", "poster_path": "/szLfTQ2vLFQkNbP3dc0pnco1rje.jpg", "release_date": "2016-02-19", "title": "Race", "video": false, "vote_average": 7.3, "vote_count": 989, "popularity": 11.176}, {"id": 382614, "video": false, "vote_count": 708, "vote_average": 7.5, "title": "The Book of Henry", "release_date": "2017-06-16", "original_language": "en", "original_title": "The Book of Henry", "genre_ids": [18], "backdrop_path": "/uG9lBtZmsyrZ0OPgrbvf9YOVLJr.jpg", "adult": false, "overview": "Naomi Watts stars as Susan, a single mother of two, working as a waitress in a small town. Her son, Henry, is an 11-year-old genius who not only manages the family finances but acts as emotional support for his mother and younger brother. When Henry discovers that the girl next door has a terrible secret, he implores Susan to take matters into her own hands in this imaginative and emotional drama.", "poster_path": "/suLFg4UjvM5BoDipg2Wu3gZ802T.jpg", "popularity": 12.777}], "total_pages": 26, "total_results": 514}, "recommendations": {"page": 1, "results": [], "total_pages": 1, "total_results": 0}, "credits": {"cast": [{"cast_id": 12, "character": "Himself", "credit_id": "52fe4afbc3a368484e17143d", "gender": 2, "id": 1084820, "name": "Chris Nowinski", "order": 0, "profile_path": null}, {"cast_id": 13, "character": "Himself", "credit_id": "52fe4afbc3a368484e171441", "gender": 0, "id": 1151761, "name": "Alan Schwarz", "order": 1, "profile_path": null}, {"cast_id": 14, "character": "Himself", "credit_id": "52fe4afbc3a368484e171445", "gender": 0, "id": 1151762, "name": "Keith Primeau", "order": 2, "profile_path": null}, {"cast_id": 15, "character": "Himself", "credit_id": "52fe4afbc3a368484e171449", "gender": 0, "id": 1151763, "name": "Robert Cantu, MD", "order": 3, "profile_path": null}, {"cast_id": 16, "character": "Herself", "credit_id": "52fe4afbc3a368484e17144d", "gender": 0, "id": 1151764, "name": "Ann McKee", "order": 4, "profile_path": null}, {"cast_id": 17, "character": "Himself", "credit_id": "52fe4afbc3a368484e171451", "gender": 0, "id": 1151765, "name": "Isaiah Kacyvenski", "order": 5, "profile_path": null}, {"cast_id": 18, "character": "Herself", "credit_id": "52fe4afbc3a368484e171455", "gender": 0, "id": 1151766, "name": "Cindy Parlow Cone", "order": 6, "profile_path": null}, {"cast_id": 19, "character": "Himself", "credit_id": "52fe4afbc3a368484e171459", "gender": 0, "id": 1150593, "name": "Brendan Shanahan", "order": 7, "profile_path": "/4r0ql7oTxme7SXBvTnRxg5F28OH.jpg"}], "crew": [{"credit_id": "52fe4afbc3a368484e171427", "department": "Sound", "gender": 2, "id": 64809, "job": "Original Music Composer", "name": "Billy Corgan", "profile_path": "/41m7FuGsTPFzySyJRsLJIZLBpr7.jpg"}, {"credit_id": "55da1926c3a3680dd500467c", "department": "Directing", "gender": 2, "id": 122449, "job": "Director", "name": "Steve James", "profile_path": "/xDbq83XNYa52oG8YxTPTAooxmUc.jpg"}, {"credit_id": "55da1934c3a36831f4005831", "department": "Production", "gender": 2, "id": 122449, "job": "Producer", "name": "Steve James", "profile_path": "/xDbq83XNYa52oG8YxTPTAooxmUc.jpg"}, {"credit_id": "52fe4afcc3a368484e17148f", "department": "Editing", "gender": 0, "id": 216926, "job": "Editor", "name": "David E. Simpson", "profile_path": null}, {"credit_id": "52fe4afbc3a368484e17142d", "department": "Crew", "gender": 0, "id": 958142, "job": "Cinematography", "name": "Dana Kupper", "profile_path": null}, {"credit_id": "52fe4afbc3a368484e171421", "department": "Production", "gender": 0, "id": 1084822, "job": "Executive Producer", "name": "Anthony Athanas", "profile_path": null}, {"credit_id": "52fe4afbc3a368484e171439", "department": "Sound", "gender": 0, "id": 1084827, "job": "Original Music Composer", "name": "Craig Snider", "profile_path": null}, {"credit_id": "52fe4afcc3a368484e17145f", "department": "Production", "gender": 0, "id": 1151767, "job": "Executive Producer", "name": "Casey Cowell", "profile_path": null}, {"credit_id": "52fe4afcc3a368484e171465", "department": "Production", "gender": 0, "id": 1151768, "job": "Executive Producer", "name": "John Cronin", "profile_path": null}, {"credit_id": "52fe4afcc3a368484e17146b", "department": "Production", "gender": 0, "id": 1151769, "job": "Executive Producer", "name": "Steve Devick", "profile_path": null}, {"credit_id": "52fe4afcc3a368484e171471", "department": "Production", "gender": 0, "id": 1151770, "job": "Executive Producer", "name": "Andrew Filipowski", "profile_path": null}, {"credit_id": "52fe4afcc3a368484e171477", "department": "Production", "gender": 0, "id": 1151771, "job": "Executive Producer", "name": "Frank Murane", "profile_path": null}, {"credit_id": "52fe4afcc3a368484e17147d", "department": "Production", "gender": 0, "id": 1151772, "job": "Executive Producer", "name": "Hank Neuberger", "profile_path": null}, {"credit_id": "52fe4afcc3a368484e171483", "department": "Production", "gender": 0, "id": 1151773, "job": "Executive Producer", "name": "Jim O'Donovan", "profile_path": null}, {"credit_id": "52fe4afcc3a368484e171489", "department": "Production", "gender": 0, "id": 1151774, "job": "Producer", "name": "Bruce Sheridan", "profile_path": null}, {"credit_id": "546b7c2c9251412f4d00001c", "department": "Crew", "gender": 0, "id": 1386714, "job": "Cinematography", "name": "Keith Walker", "profile_path": null}]}}