{"adult": false, "backdrop_path": "/hTn3NYbQLfqJyZoPknUWiDEFul2.jpg", "belongs_to_collection": null, "budget": 5000000, "genres": [{"id": 35, "name": "Comedy"}, {"id": 10749, "name": "Romance"}], "homepage": null, "id": 127894, "imdb_id": "tt2193782", "original_language": "fr", "original_title": "Do Not Disturb", "overview": "In this lively French remake of Humpday, best buds reunite and revive their friendship on a questionable dare. Can two straight guys really make a gay sex film, together?", "popularity": 4.074, "poster_path": "/2CcdB6L4kmbGR1BnOgECBaIbx2G.jpg", "production_companies": [{"id": 3578, "logo_path": null, "name": "UGC Distribution", "origin_country": ""}], "production_countries": [{"iso_3166_1": "FR", "name": "France"}], "release_date": "2012-10-03", "revenue": 0, "runtime": 120, "spoken_languages": [{"iso_639_1": "ru", "name": "P\u0443\u0441\u0441\u043a\u0438\u0439"}, {"iso_639_1": "fr", "name": "Fran\u00e7ais"}], "status": "Released", "tagline": "", "title": "Do Not Disturb", "video": false, "vote_average": 4.2, "vote_count": 18, "keywords": {"keywords": [{"id": 237, "name": "gay"}, {"id": 9714, "name": "remake"}, {"id": 206574, "name": "porno filmmaking"}]}, "similar": {"page": 1, "results": [{"id": 449176, "video": false, "vote_count": 3691, "vote_average": 8.1, "title": "Love, Simon", "release_date": "2018-02-16", "original_language": "en", "original_title": "Love, Simon", "genre_ids": [35, 18, 10749], "backdrop_path": "/rqMEeajyzSF4PpJtdCB816Iz8Vr.jpg", "adult": false, "overview": "Everyone deserves a great love story. But for seventeen-year old Simon Spier it's a little more complicated: he's yet to tell his family or friends he's gay and he doesn't know the identity of the anonymous classmate he's fallen for online.", "poster_path": "/5YUYg5q7QfC4IoNwNUtiwdiYKPr.jpg", "popularity": 17.201}, {"adult": false, "backdrop_path": "/zCC5Han27o5AxhdNJ86b5YhLhIS.jpg", "genre_ids": [18, 10749], "id": 26933, "original_language": "fr", "original_title": "Les roseaux sauvages", "overview": "As the Algerian War draws to a close, a teenager with a girlfriend starts feeling homosexual urges for two of his classmates: a country boy, and a French-Algerian intellectual.", "poster_path": "/vPPsAieu9KEVZcI06xKHl9zztUO.jpg", "release_date": "1994-06-01", "title": "Wild Reeds", "video": false, "vote_average": 7.5, "vote_count": 46, "popularity": 5.558}, {"adult": false, "backdrop_path": "/r3DKR4VybkjYP2w4wYFIf2cEPc.jpg", "genre_ids": [10749, 18], "id": 322127, "original_language": "de", "original_title": "You & I", "overview": "Summer in Berlin. Jonas is planning a trip through the little known area of the Uckermark in preparation for a photography project. He invites his best friend, Phillip, to come along. When they pick up a hitchhiker named Boris, the friendship of the two starts to fray. Maybe three\u2019s a crowd after all? By the end of the summer, things between Jonas and Phillip won\u2019t ever be the same again.", "poster_path": "/59OmxhLZVh3ZXLAu6iaywYYx01S.jpg", "release_date": "2015-09-16", "title": "You & I", "video": false, "vote_average": 7.4, "vote_count": 22, "popularity": 5.241}, {"adult": false, "backdrop_path": "/4NJplkljN06NQLMLSUNmrIsBjBZ.jpg", "genre_ids": [35, 18], "id": 400547, "original_language": "en", "original_title": "Hurricane Bianca", "overview": "Hurricane Bianca is a revenge comedy about a New York teacher who moves to a small town in Texas, gets fired for being gay, and returns disguised in drag to get revenge on the people who were nasty to him.", "poster_path": "/w1QM09R1TqwHTb5UA8X8jR2yh4x.jpg", "release_date": "2016-06-03", "title": "Hurricane Bianca", "video": false, "vote_average": 6.2, "vote_count": 212, "popularity": 9.77}, {"adult": false, "backdrop_path": "/1Z53X8Rj7ebuIUHU0XqizkFMPOK.jpg", "genre_ids": [18, 10749], "id": 17483, "original_language": "en", "original_title": "Shelter", "overview": "Forced to give up his dreams of art school, Zach works dead-end jobs to support his sister and her son. Questioning his life, he paints, surfs and hangs out with his best friend, Gabe. When Gabe's older brother returns home for the summer, Zach suddenly finds himself drawn into a relationship he didn't expect.", "poster_path": "/auMRglisVmM01BRGAWCjv7AuUeE.jpg", "release_date": "2007-06-16", "title": "Shelter", "video": false, "vote_average": 7.7, "vote_count": 249, "popularity": 11.276}, {"adult": false, "backdrop_path": "/ybbB49QJSFgv8IxzJhPLwJbSuEG.jpg", "genre_ids": [18, 14, 10749], "id": 47643, "original_language": "en", "original_title": "Lilies - Les feluettes", "overview": "1952: Bishop Bilodeau visits a qu\u00e9b\u00e9cois prison to hear the confession of a boyhood friend jailed for murder 40 years ago. The inmates force the prelate to watch a play depicting what really happened in 1912. We meet him as a young man, strait-laced, intent on convincing Simon (now the convict) to join the seminary with him.", "poster_path": "/zEaYOUDV7nKsd8SIfC6Dcs38pp2.jpg", "release_date": "1996-09-07", "title": "Lilies", "video": false, "vote_average": 7.8, "vote_count": 16, "popularity": 6.051}, {"adult": false, "backdrop_path": "/qs4P8THxjbMZYc9QuZvzN95KzBM.jpg", "genre_ids": [18, 53, 9648], "id": 184352, "original_language": "fr", "original_title": "Tom \u00e0 la ferme", "overview": "A young man travels to an isolated farm for his lover's funeral where he's quickly drawn into a twisted, sexually charged game by his lover's aggressive brother.", "poster_path": "/wS4oYOHEKva9sMLOHSr7tW19SaQ.jpg", "release_date": "2013-09-02", "title": "Tom at the Farm", "video": false, "vote_average": 6.9, "vote_count": 408, "popularity": 7.884}, {"adult": false, "backdrop_path": "/qWZSYN2tBoZdUY9NDdvSKQ6OH4u.jpg", "genre_ids": [18], "id": 377154, "original_language": "fr", "original_title": "Quand on a 17 Ans", "overview": "Set in the beautiful high Pyrenees in south-west France, Damien lives with his mother Marianne, a doctor, while his father, a pilot, is on a tour of duty abroad with the French military. At school, Damien is bullied by Thomas,  who lives in the farming community up in the mountains, nut learns to fight back. The boys find themselves living together when Marianne invites Thomas to come and stay with them while his mother is ill in hospital. Damien must learn to live with the boy who terrorised him.", "poster_path": "/ogfzBX1iNzgaCBTmRRf6c69L19k.jpg", "release_date": "2016-02-27", "title": "Being 17", "video": false, "vote_average": 6.9, "vote_count": 210, "popularity": 6.56}, {"adult": false, "backdrop_path": "/1l5NKzPZmvrI1BygrGz5png96Wl.jpg", "genre_ids": [18, 10749], "id": 382475, "original_language": "en", "original_title": "The Pass", "overview": "The night before their debut game, two professional soccer players share a kiss. In a sporting world where image is everything, this surprising \u2018pass\u2019 sets the men up for a contrasting decade of fame and failure, full of secrets and denial.", "poster_path": "/1HoULoDol45qOr4LiKBwJdfU1pr.jpg", "release_date": "2016-03-16", "title": "The Pass", "video": false, "vote_average": 6.9, "vote_count": 67, "popularity": 5.722}, {"adult": false, "backdrop_path": "/da8Kj1bgPvL8Tf1PgkA70UwmYzh.jpg", "genre_ids": [35, 18, 10749], "id": 10938, "original_language": "en", "original_title": "Beautiful Thing", "overview": "Set during a long, hot summer on the Thamesmead Estate in Southeast London, three teenagers edge towards adulthood.", "poster_path": "/8z1ZkZoznIGLyx4xHEaQNZqG63D.jpg", "release_date": "1996-06-21", "title": "Beautiful Thing", "video": false, "vote_average": 7.5, "vote_count": 154, "popularity": 9.835}, {"adult": false, "backdrop_path": "/8uwHvRutx9y79ZBIowg7VDVx9Dy.jpg", "genre_ids": [18, 10749], "id": 222918, "original_language": "en", "original_title": "The Wilding", "overview": "When juvenile inmate Malcolm is offered a chance at parole, he is torn between his chance for freedom and protecting the one he loves.", "poster_path": "/5vbTbtgm0dH5MHwVQBaWo47gG6Q.jpg", "release_date": "2012-02-13", "title": "The Wilding", "video": false, "vote_average": 6.8, "vote_count": 4, "popularity": 4.083}, {"adult": false, "backdrop_path": "/4CCNdDQVUT3c8gBs5r6nC0VOkP9.jpg", "genre_ids": [10749, 99], "id": 126331, "original_language": "fr", "original_title": "Les Invisibles", "overview": "Several elderly homosexual men and women speak frankly about their pioneering lives, their fearless decision to live openly in France at a time when society rejected them.", "poster_path": "/8xzojCU2WdrckkrCVjS6fo4KIFy.jpg", "release_date": "2012-11-28", "title": "Les Invisibles", "video": false, "vote_average": 7.0, "vote_count": 19, "popularity": 3.035}, {"adult": false, "backdrop_path": "/6VhtzImP1UvYkIAHS4L8yfmceOM.jpg", "genre_ids": [18], "id": 26280, "original_language": "fr", "original_title": "J'ai tu\u00e9 ma m\u00e8re", "overview": "Hubert, a brash 17-year-old, is confused and torn by a love-hate relationship with his mother that consumes him more and more each day. After distressing ordeals and tragic episodes, Hubert will find his mother on the banks of Saint Lawrence river, where he grew up, and where a murder will be committed: the murder of childhood.", "poster_path": "/cxb02CLALt9He1Dt0BIDKj9fdvM.jpg", "release_date": "2009-06-05", "title": "I Killed My Mother", "video": false, "vote_average": 7.7, "vote_count": 655, "popularity": 11.451}, {"adult": false, "backdrop_path": "/qbrmEfBEcdrzHSAHgazJWmz3TSU.jpg", "genre_ids": [18], "id": 616229, "original_language": "en", "original_title": "The Male Gaze: The Heat of the Night", "overview": "When darkness falls, temperatures rise in these six stories about late night confessions, intimacy for sale, high speed hookups and full moon frissons. But when the sun comes up and reality reveals itself, will it have all been worth it?", "poster_path": "/e1gNLO829rkE73sBJ3aClZJHNXd.jpg", "release_date": "2019-07-15", "title": "The Male Gaze: The Heat of the Night", "video": false, "vote_average": 3.3, "vote_count": 3, "popularity": 7.834}, {"adult": false, "backdrop_path": "/pUR2mm857qO4c0yu1W2rF9P2P5D.jpg", "genre_ids": [18, 35, 10749], "id": 319017, "original_language": "en", "original_title": "The Last Straight Man", "overview": "Lewis is a closeted gay man throwing a bachelor party for his straight best friend and secret crush, Cooper. After a night of drunken sex together, the two men decide to meet in the same hotel suite on the same night each year to hook up and catch up. Over the course of twelve years, we see four additional nights that depict how the two men grow and how their friendship changes.", "poster_path": "/mxIvaZz8X6tGf0IG2KdwBD8on33.jpg", "release_date": "2014-05-06", "title": "The Last Straight Man", "video": false, "vote_average": 5.4, "vote_count": 17, "popularity": 3.227}, {"id": 21634, "video": false, "vote_count": 250, "vote_average": 7.9, "title": "Prayers for Bobby", "release_date": "2009-02-27", "original_language": "en", "original_title": "Prayers for Bobby", "genre_ids": [18, 36, 10770], "backdrop_path": "/pSjGsbqyKUzF8rHzL0vtVWV1pS6.jpg", "adult": false, "overview": "Bobby Griffith was his mother's favorite son, the perfect all-American boy growing up under deeply religious influences in Walnut Creek, California. Bobby was also gay. Struggling with a conflict no one knew of much less understood Bobby finally came out to his family.", "poster_path": "/d9TGJxEMkLTEF5lWAx1PLNDNpA0.jpg", "popularity": 9.034}, {"adult": false, "backdrop_path": "/AdbQM7UrobM2RSjz2HAJq7qvCVw.jpg", "genre_ids": [35, 18], "id": 342672, "original_language": "en", "original_title": "4th Man Out", "overview": "After a night of drinking, Adam Hutcherson stumbles out of the closet to his three straight buddies.  A disruption to their dynamic which they now must try and overcome through alcohol, Tinder dates and forgiveness.", "poster_path": "/74CtR9ZNIyWM9zSHEib2OSnaETv.jpg", "release_date": "2015-05-26", "title": "4th Man Out", "video": false, "vote_average": 7.0, "vote_count": 225, "popularity": 8.273}, {"adult": false, "backdrop_path": "/sZo96MCFy4yFaJFKIfj4hbyvTci.jpg", "genre_ids": [18, 10749], "id": 26371, "original_language": "en", "original_title": "Maurice", "overview": "After his lover rejects him, a young man trapped by the oppressiveness of Edwardian society tries to come to terms with and accept his sexuality.", "poster_path": "/4MI2y8XViPrDiKs1p0QC4bTeZzf.jpg", "release_date": "1987-08-21", "title": "Maurice", "video": false, "vote_average": 7.6, "vote_count": 161, "popularity": 11.282}, {"adult": false, "backdrop_path": "/gZeJziVigmRqbkEZwKAtSqlLQ6s.jpg", "genre_ids": [18, 10749], "id": 370663, "original_language": "en", "original_title": "Below Her Mouth", "overview": "An unexpected affair quickly escalates into a heart-stopping reality for two women whose passionate connection changes their lives forever.", "poster_path": "/nTGbq37hYLuNy7YgMg0gVLma0NS.jpg", "release_date": "2016-09-10", "title": "Below Her Mouth", "video": false, "vote_average": 6.2, "vote_count": 456, "popularity": 18.664}, {"adult": false, "backdrop_path": "/cLOekK7EmHB1beYUYEXIlcr6mpS.jpg", "genre_ids": [10752, 36, 28, 12, 18, 10749], "id": 1966, "original_language": "en", "original_title": "Alexander", "overview": "Alexander, the King of Macedonia, leads his legions against the giant Persian Empire. After defeating the Persians, he leads his army across the then known world, venturing farther than any westerner had ever gone, all the way to India.", "poster_path": "/cJrnmbsFm5cEt0pHZZ2a1ueH5aT.jpg", "release_date": "2004-11-21", "title": "Alexander", "video": false, "vote_average": 5.8, "vote_count": 1989, "popularity": 29.042}], "total_pages": 170, "total_results": 3395}, "recommendations": {"page": 1, "results": [{"id": 4300, "video": false, "vote_count": 9, "vote_average": 7.8, "title": "The Witches of Salem", "release_date": "1957-04-26", "original_language": "fr", "original_title": "Les Sorci\u00e8res de Salem", "genre_ids": [18, 36], "backdrop_path": "/cdy8MxeZdy2NxCpiKHy4FvGpnqP.jpg", "adult": false, "overview": "Salem, 1692. Industrious farmer, John Proctor, has twice made love to 17-year-old Abigail, a youth he and his wife have taken in. (His wife Elisabeth has rebuffed him for seven months; she is puritanical and cold.) When she finds John and Abigail embracing, she sends the lass from her home and John, feeling damned, agrees. Abigail vows revenge. Her chance comes when she accuses Elisabeth of witchcraft and manipulates younger girls to support her claims of seeing spirits. The town's minister and politicians want a cause: ridding the town of witchcraft is the ideal repression.", "poster_path": "/aCYBWWitF0pb5pDPUN8ZhR4FC3G.jpg", "popularity": 3.291}, {"adult": false, "backdrop_path": "/nbJ5ZOWim02lEIHCP6WD3NFyrnV.jpg", "genre_ids": [80, 18, 27], "id": 65292, "original_language": "fr", "original_title": "Le Pharmacien de garde", "overview": "An ecological pharmacist uses ancient Celtic techniques to murder industrial magnates whose practices harm the planet.", "poster_path": "/u7nfAxXNqsTGTLTacy11iprLlN3.jpg", "release_date": "2003-01-15", "title": "The Pharmacist", "video": false, "vote_average": 4.3, "vote_count": 3, "popularity": 1.433}, {"id": 8049, "video": false, "vote_count": 20, "vote_average": 6.4, "title": "The Grocer's Son", "release_date": "2007-06-15", "original_language": "fr", "original_title": "Le Fils de l'\u00e9picier", "genre_ids": [35, 18], "backdrop_path": "/5GR5G2rw2sp26leAdhZ0F9NPctc.jpg", "adult": false, "overview": "Antoine Sforza, a thirty-year-old young man, left his village ten years before in order to start a new life in the big city, but now that his father, a traveling grocer, is in hospital after a stroke, he more or less reluctantly accepts to come back to replace him in his daily rounds.", "poster_path": "/zgLcO8JS4abC5LGz9qvQ5qdELn0.jpg", "popularity": 2.764}, {"adult": false, "backdrop_path": "/4AVzqHwF2CkcvfXXpQ5kXt9zMGp.jpg", "genre_ids": [35, 10749], "id": 49400, "original_language": "fr", "original_title": "Laisse tes mains sur mes Hanches", "overview": "Odile is 42 years old actress and single mother. One day her 18 year old daughter decided to leave her and start living with the boyfriend. All of a sudden alone in her empty house, the anguish takes over...", "poster_path": "/zNLKvDCNZHY5BTASlM5xD8ZkqiW.jpg", "release_date": "2003-08-03", "title": "Leave Your Hands on My Hips", "video": false, "vote_average": 5.2, "vote_count": 14, "popularity": 2.181}, {"adult": false, "backdrop_path": "/uNNwxqz8Fk4PoMswre22pth4q49.jpg", "genre_ids": [18, 10749], "id": 38282, "original_language": "fr", "original_title": "Les T\u00e9moins", "overview": "Manu arrives in Paris, in the early days of AIDS, at the beginning of the 1980s. He strikes up a friendship with Adrien, a wealthy doctor in his early fifties, who introduces him to Sarah and Mehdi, a young couple.", "poster_path": "/repnr0eG29GNZlaN1PsGbqN3dw7.jpg", "release_date": "2007-03-07", "title": "The Witnesses", "video": false, "vote_average": 6.7, "vote_count": 32, "popularity": 4.827}, {"adult": false, "backdrop_path": "/iTV6EBrNU3VnSNewk6ZfmsukKRT.jpg", "genre_ids": [35, 18, 10751], "id": 85449, "original_language": "fr", "original_title": "Le Skylab", "overview": "It is 1979 and Albertine, 10, and all her family members have gathered in Brittany to celebrate the birthday of her grandmother. Everyone thinks that the Skylab space station from NASA will fall on their heads this summer. The meeting turns into a crazy weekend full of revelations, love and song.", "poster_path": "/lsJOlJ1vljO8UyFbAXbLd6cXwb.jpg", "release_date": "2011-09-19", "title": "Skylab", "video": false, "vote_average": 6.2, "vote_count": 40, "popularity": 3.674}, {"adult": false, "backdrop_path": "/3YKntOYuxAPGdsISfOHKwIKFk7X.jpg", "genre_ids": [35, 18], "id": 6360, "original_language": "fr", "original_title": "Actrices", "overview": "Com\u00e9dienne hant\u00e9e par son r\u00f4le de Nathalia Petrovna, l'h\u00e9ro\u00efne de la pi\u00e8ce de Tourgu\u00e9niev Un Mois \u00e0 la campagne qu'elle r\u00e9p\u00e8te difficilement, Marcelline tente de noyer ses angoisses dans une piscine sur un air de Glenn Miller. Mais rien n'y fait. Rien n'emp\u00eache le temps de courir et de lui imposer ses quarante ans et toujours pas d'enfant.", "poster_path": "/aqUzqGTW4sTnUBBbDcCoo0Itayv.jpg", "release_date": "2007-12-26", "title": "Actresses", "video": false, "vote_average": 5.8, "vote_count": 11, "popularity": 2.053}, {"adult": false, "backdrop_path": "/1fWNY6i5z14XkeFbPJAqxrSPZac.jpg", "genre_ids": [35, 18], "id": 59957, "original_language": "fr", "original_title": "M\u00e8res et filles", "overview": "In the 1950s, Louise left her husband when their children were still little. She was never heard from again. Her daughter Martine stayed in the small seaside town, where she became a doctor. Martine's daughter, Audrey, a thirty-year-old independent woman, returns to visit her parents. By chance, she finds a notebook that belonged to her grandmother, a diary that may at last explain her departure. Will it reveal the things left unsaid, that have altered the relationships within the heart of the family ever since? In it, will Audrey find answers to the questions that she is asking herself about her own future?", "poster_path": "/5jnWDKRq63Fe7J2W6ym3pKeGbgN.jpg", "release_date": "2009-10-07", "title": "Hidden Diary", "video": false, "vote_average": 6.4, "vote_count": 15, "popularity": 3.679}, {"adult": false, "backdrop_path": "/nN1tavo6rumb6AQbFHDnwbGzTXS.jpg", "genre_ids": [18], "id": 17388, "original_language": "en", "original_title": "Italyanets", "overview": "Set in 2002, an abandoned 5-year-old boy living in a rundown orphanage in a small Russian village is adopted by an Italian family.", "poster_path": "/mAUmyc1UMigbIM6SOfazsv0cV2J.jpg", "release_date": "2005-09-21", "title": "The Italian", "video": false, "vote_average": 7.0, "vote_count": 21, "popularity": 4.663}, {"adult": false, "backdrop_path": "/gUDr4KElionBebyOEy6nPpUGv30.jpg", "genre_ids": [10749, 80, 18], "id": 49935, "original_language": "fr", "original_title": "Les voleurs", "overview": "In the middle of the night, someone brings Ivan's body home to his wife and his sad-faced, jug-eared son. Through flashbacks, the film discloses the relationships among Ivan and his brother Alex, a cop with a cleanliness fetish; siblings Juliette and Jimmy, Ivan's partners in a seedy nightclub; the love triangle of Alex, Juliette, and Marie, a professor of philosophy; and of Alex and his nephew, Ivan's dour, stoic son. Ivan's death changes every relationship.", "poster_path": "/xP3ZftHUF5k004hNvWKk9iMn65K.jpg", "release_date": "1996-08-21", "title": "Thieves", "video": false, "vote_average": 6.4, "vote_count": 14, "popularity": 1.823}, {"id": 109391, "video": false, "vote_count": 35, "vote_average": 5.7, "title": "The We and the I", "release_date": "2012-09-12", "original_language": "en", "original_title": "The We and the I", "genre_ids": [18], "backdrop_path": "/gICWkVmBKD6m30ZdwXr29GEKZFA.jpg", "adult": false, "overview": "The We and the I is the heartfelt and comical story of the final bus ride home for a group of young high school students and graduates.", "poster_path": "/djoIALNKsNFHfr9Ln0GGxI3if2M.jpg", "popularity": 5.949}], "total_pages": 1, "total_results": 11}, "credits": {"cast": [{"cast_id": 2, "character": "Monica", "credit_id": "52fe4b0cc3a368484e174f2b", "gender": 1, "id": 18514, "name": "Asia Argento", "order": 0, "profile_path": "/e0OqTH1wcJ5d0ibSDyrglDAnDe.jpg"}, {"cast_id": 3, "character": "Ben Azuelos", "credit_id": "52fe4b0cc3a368484e174f2f", "gender": 2, "id": 2245, "name": "Yvan Attal", "order": 1, "profile_path": "/kSP1gv3n06amj8zoajm8Gam5Mzl.jpg"}, {"cast_id": 4, "character": "Anna Azuelos", "credit_id": "52fe4b0cc3a368484e174f33", "gender": 1, "id": 119499, "name": "Laetitia Casta", "order": 2, "profile_path": "/v0H9UWF5UK0axZBU54SdKtsLl7p.jpg"}, {"cast_id": 5, "character": "Jeff", "credit_id": "52fe4b0cc3a368484e174f37", "gender": 2, "id": 33161, "name": "Fran\u00e7ois Cluzet", "order": 3, "profile_path": "/rE7utJuaZiR9NLjxmtQJZET0q4d.jpg"}, {"cast_id": 6, "character": "Lilly", "credit_id": "52fe4b0cc3a368484e174f3b", "gender": 1, "id": 4273, "name": "Charlotte Gainsbourg", "order": 4, "profile_path": "/hWUtcljrFsaSf9ZFTgjIoo4FxfQ.jpg"}, {"cast_id": 7, "character": "The Inmate in Drunk Tank", "credit_id": "52fe4b0cc3a368484e174f3f", "gender": 2, "id": 51508, "name": "Joey Starr", "order": 5, "profile_path": "/dI6M8ibHVq78gC753BTSmdwNPZo.jpg"}, {"cast_id": 10, "character": "Franck", "credit_id": "5a0e1b5692514138f90023d3", "gender": 0, "id": 1924861, "name": "Samuel Johde", "order": 6, "profile_path": "/sEQ2gkwAufPK2blFuAlwhLDGPRR.jpg"}], "crew": [{"credit_id": "52fe4b0cc3a368484e174f27", "department": "Directing", "gender": 2, "id": 2245, "job": "Director", "name": "Yvan Attal", "profile_path": "/kSP1gv3n06amj8zoajm8Gam5Mzl.jpg"}, {"credit_id": "52fe4b0cc3a368484e174f45", "department": "Writing", "gender": 2, "id": 2245, "job": "Writer", "name": "Yvan Attal", "profile_path": "/kSP1gv3n06amj8zoajm8Gam5Mzl.jpg"}, {"credit_id": "52fe4b0cc3a368484e174f4b", "department": "Writing", "gender": 0, "id": 1088671, "job": "Writer", "name": "Olivier L\u00e9cot", "profile_path": null}]}}