{"adult": false, "backdrop_path": "/2Mzqoa6ifSrUHn5r4P23WyTiFKk.jpg", "belongs_to_collection": null, "budget": 0, "genres": [{"id": 10749, "name": "Romance"}], "homepage": null, "id": 12807, "imdb_id": "tt0410410", "original_language": "en", "original_title": "Oublier Cheyenne", "overview": "Cheyenne, a journalist, decides to leave Paris after being laid off and to settle down in the middle of nowhere, far from the society she hates.The trouble is that she leaves Sonia, her true love, behind. The latter, a teacher who loves her job, refuses to give up everything -including her comfort- to follow her. Sonia makes all the efforts in the world to forget Cheyenne, whether in the arms of Pierre, a charming anarchist, or in those of B\u00e9atrice, a gay woman who soon proves perverse and dangerous, only to realize that her heart belongs to Cheyenne and nobody else. If Cheyenne does not come back, Sonia feels life is not worth living any longer... Written by Guy Bellingerew found.", "popularity": 1.034, "poster_path": "/6PecVPHImbL9ip8Gkl1CmTeRqBI.jpg", "production_companies": [{"id": 2711, "logo_path": null, "name": "Bandon\u00e9on", "origin_country": ""}], "production_countries": [{"iso_3166_1": "FR", "name": "France"}], "release_date": "2005-04-01", "revenue": 0, "runtime": 86, "spoken_languages": [{"iso_639_1": "fr", "name": "Fran\u00e7ais"}], "status": "Released", "tagline": "", "title": "Looking for Cheyenne", "video": false, "vote_average": 5.6, "vote_count": 4, "keywords": {"keywords": [{"id": 9833, "name": "lesbian relationship"}, {"id": 10180, "name": "homosexuality"}]}, "similar": {"page": 1, "results": [{"adult": false, "backdrop_path": "/4CCNdDQVUT3c8gBs5r6nC0VOkP9.jpg", "genre_ids": [10749, 99], "id": 126331, "original_language": "fr", "original_title": "Les Invisibles", "overview": "Several elderly homosexual men and women speak frankly about their pioneering lives, their fearless decision to live openly in France at a time when society rejected them.", "poster_path": "/8xzojCU2WdrckkrCVjS6fo4KIFy.jpg", "release_date": "2012-11-28", "title": "Les Invisibles", "video": false, "vote_average": 7.0, "vote_count": 19, "popularity": 3.057}, {"id": 449176, "video": false, "vote_count": 3690, "vote_average": 8.1, "title": "Love, Simon", "release_date": "2018-02-16", "original_language": "en", "original_title": "Love, Simon", "genre_ids": [35, 18, 10749], "backdrop_path": "/rqMEeajyzSF4PpJtdCB816Iz8Vr.jpg", "adult": false, "overview": "Everyone deserves a great love story. But for seventeen-year old Simon Spier it's a little more complicated: he's yet to tell his family or friends he's gay and he doesn't know the identity of the anonymous classmate he's fallen for online.", "poster_path": "/5YUYg5q7QfC4IoNwNUtiwdiYKPr.jpg", "popularity": 24.849}, {"adult": false, "backdrop_path": "/s12HEmmkJfI2mjltI61hGm5kubD.jpg", "genre_ids": [35, 18, 10749], "id": 20770, "original_language": "en", "original_title": "But I'm a Cheerleader", "overview": "Megan is an all-American girl. A cheerleader. She has a boyfriend. But Megan doesn't like kissing her boyfriend very much. And she's pretty touchy with her cheerleader friends. Her conservative parents worry that she must be a lesbian and send her off to \"sexual redirection\" school, where she must, with other lesbians and gays learn how to be straight.", "poster_path": "/eDGH7CHSdkrYcuUJV1e0WS9DlQL.jpg", "release_date": "1999-12-09", "title": "But I'm a Cheerleader", "video": false, "vote_average": 6.8, "vote_count": 246, "popularity": 10.067}, {"adult": false, "backdrop_path": "/gZeJziVigmRqbkEZwKAtSqlLQ6s.jpg", "genre_ids": [18, 10749], "id": 370663, "original_language": "en", "original_title": "Below Her Mouth", "overview": "An unexpected affair quickly escalates into a heart-stopping reality for two women whose passionate connection changes their lives forever.", "poster_path": "/nTGbq37hYLuNy7YgMg0gVLma0NS.jpg", "release_date": "2016-09-10", "title": "Below Her Mouth", "video": false, "vote_average": 6.2, "vote_count": 456, "popularity": 22.676}, {"adult": false, "backdrop_path": "/knczzNAjBXzSYkeWxoT1u9VNmjR.jpg", "genre_ids": [10749, 18], "id": 258480, "original_language": "en", "original_title": "Carol", "overview": "In 1950s New York, a department-store clerk who dreams of a better life falls for an older, married woman.", "poster_path": "/AbKa7ANxmui0Jmhh7gV7OSELKIL.jpg", "release_date": "2015-11-20", "title": "Carol", "video": false, "vote_average": 7.4, "vote_count": 2182, "popularity": 14.185}, {"adult": false, "backdrop_path": "/qRgpjyqiTVYJVXOwLGdsxYjAfrA.jpg", "genre_ids": [10749, 35], "id": 21060, "original_language": "en", "original_title": "It's in the Water", "overview": "When hordes of gays and lesbians come out \"of the closet\" in the fictional town of Azalea Springs, Texas, intolerant residents go into a panic about the water supply.", "poster_path": "/aGWhJDIz4wrlcc4dNBa753jr4DB.jpg", "release_date": "1997-01-30", "title": "It's in the Water", "video": false, "vote_average": 6.7, "vote_count": 13, "popularity": 2.477}, {"id": 21634, "video": false, "vote_count": 250, "vote_average": 7.9, "title": "Prayers for Bobby", "release_date": "2009-02-27", "original_language": "en", "original_title": "Prayers for Bobby", "genre_ids": [18, 36, 10770], "backdrop_path": "/pSjGsbqyKUzF8rHzL0vtVWV1pS6.jpg", "adult": false, "overview": "Bobby Griffith was his mother's favorite son, the perfect all-American boy growing up under deeply religious influences in Walnut Creek, California. Bobby was also gay. Struggling with a conflict no one knew of much less understood Bobby finally came out to his family.", "poster_path": "/d9TGJxEMkLTEF5lWAx1PLNDNpA0.jpg", "popularity": 11.874}, {"adult": false, "backdrop_path": "/zCC5Han27o5AxhdNJ86b5YhLhIS.jpg", "genre_ids": [18, 10749], "id": 26933, "original_language": "fr", "original_title": "Les roseaux sauvages", "overview": "As the Algerian War draws to a close, a teenager with a girlfriend starts feeling homosexual urges for two of his classmates: a country boy, and a French-Algerian intellectual.", "poster_path": "/vPPsAieu9KEVZcI06xKHl9zztUO.jpg", "release_date": "1994-06-01", "title": "Wild Reeds", "video": false, "vote_average": 7.5, "vote_count": 46, "popularity": 6.188}, {"adult": false, "backdrop_path": "/qs4P8THxjbMZYc9QuZvzN95KzBM.jpg", "genre_ids": [18, 53, 9648], "id": 184352, "original_language": "fr", "original_title": "Tom \u00e0 la ferme", "overview": "A young man travels to an isolated farm for his lover's funeral where he's quickly drawn into a twisted, sexually charged game by his lover's aggressive brother.", "poster_path": "/wS4oYOHEKva9sMLOHSr7tW19SaQ.jpg", "release_date": "2013-09-02", "title": "Tom at the Farm", "video": false, "vote_average": 6.9, "vote_count": 408, "popularity": 7.517}, {"adult": false, "backdrop_path": "/sZo96MCFy4yFaJFKIfj4hbyvTci.jpg", "genre_ids": [18, 10749], "id": 26371, "original_language": "en", "original_title": "Maurice", "overview": "After his lover rejects him, a young man trapped by the oppressiveness of Edwardian society tries to come to terms with and accept his sexuality.", "poster_path": "/4MI2y8XViPrDiKs1p0QC4bTeZzf.jpg", "release_date": "1987-08-21", "title": "Maurice", "video": false, "vote_average": 7.6, "vote_count": 161, "popularity": 10.214}, {"adult": false, "backdrop_path": "/r3DKR4VybkjYP2w4wYFIf2cEPc.jpg", "genre_ids": [10749, 18], "id": 322127, "original_language": "de", "original_title": "You & I", "overview": "Summer in Berlin. Jonas is planning a trip through the little known area of the Uckermark in preparation for a photography project. He invites his best friend, Phillip, to come along. When they pick up a hitchhiker named Boris, the friendship of the two starts to fray. Maybe three\u2019s a crowd after all? By the end of the summer, things between Jonas and Phillip won\u2019t ever be the same again.", "poster_path": "/59OmxhLZVh3ZXLAu6iaywYYx01S.jpg", "release_date": "2015-09-16", "title": "You & I", "video": false, "vote_average": 7.4, "vote_count": 22, "popularity": 3.807}, {"id": 434714, "video": false, "vote_count": 32, "vote_average": 7.5, "title": "My Days of Mercy", "release_date": "2019-07-11", "original_language": "en", "original_title": "My Days of Mercy", "genre_ids": [18, 10749], "backdrop_path": "/7Lbzq33nMMIQtAfZAmSqG6ibLSg.jpg", "adult": false, "overview": "The daughter of a man on death row falls in love with a woman on the opposing side of her family's political cause.", "poster_path": "/adIPKAoKnKL9vCTkvfF4J9ZA7Ln.jpg", "popularity": 6.928}, {"adult": false, "backdrop_path": "/cLOekK7EmHB1beYUYEXIlcr6mpS.jpg", "genre_ids": [10752, 36, 28, 12, 18, 10749], "id": 1966, "original_language": "en", "original_title": "Alexander", "overview": "Alexander, the King of Macedonia, leads his legions against the giant Persian Empire. After defeating the Persians, he leads his army across the then known world, venturing farther than any westerner had ever gone, all the way to India.", "poster_path": "/cJrnmbsFm5cEt0pHZZ2a1ueH5aT.jpg", "release_date": "2004-11-21", "title": "Alexander", "video": false, "vote_average": 5.8, "vote_count": 1987, "popularity": 24.267}, {"adult": false, "backdrop_path": "/1Z53X8Rj7ebuIUHU0XqizkFMPOK.jpg", "genre_ids": [18, 10749], "id": 17483, "original_language": "en", "original_title": "Shelter", "overview": "Forced to give up his dreams of art school, Zach works dead-end jobs to support his sister and her son. Questioning his life, he paints, surfs and hangs out with his best friend, Gabe. When Gabe's older brother returns home for the summer, Zach suddenly finds himself drawn into a relationship he didn't expect.", "poster_path": "/auMRglisVmM01BRGAWCjv7AuUeE.jpg", "release_date": "2007-06-16", "title": "Shelter", "video": false, "vote_average": 7.7, "vote_count": 248, "popularity": 10.493}, {"adult": false, "backdrop_path": "/qWZSYN2tBoZdUY9NDdvSKQ6OH4u.jpg", "genre_ids": [18], "id": 377154, "original_language": "fr", "original_title": "Quand on a 17 Ans", "overview": "Set in the beautiful high Pyrenees in south-west France, Damien lives with his mother Marianne, a doctor, while his father, a pilot, is on a tour of duty abroad with the French military. At school, Damien is bullied by Thomas,  who lives in the farming community up in the mountains, nut learns to fight back. The boys find themselves living together when Marianne invites Thomas to come and stay with them while his mother is ill in hospital. Damien must learn to live with the boy who terrorised him.", "poster_path": "/ogfzBX1iNzgaCBTmRRf6c69L19k.jpg", "release_date": "2016-02-27", "title": "Being 17", "video": false, "vote_average": 6.9, "vote_count": 210, "popularity": 8.661}, {"adult": false, "backdrop_path": "/nEug8rlR13l1vkSUpeCkE5J3QrZ.jpg", "genre_ids": [18, 10749], "id": 4369, "original_language": "en", "original_title": "Juste une question d'amour", "overview": "After his gay cousin dies from hepatitis, young Laurent, who lives with his best friend Carole, falls in love with Cedric, a plant scientist. He's afraid to inform his conservative parents that he is gay.", "poster_path": "/c4dP2ZMjAGTquCS0kNkfN9q1wMv.jpg", "release_date": "2000-01-01", "title": "Just a Question of Love", "video": false, "vote_average": 7.7, "vote_count": 59, "popularity": 8.514}, {"adult": false, "backdrop_path": "/qbrmEfBEcdrzHSAHgazJWmz3TSU.jpg", "genre_ids": [18], "id": 616229, "original_language": "en", "original_title": "The Male Gaze: The Heat of the Night", "overview": "When darkness falls, temperatures rise in these six stories about late night confessions, intimacy for sale, high speed hookups and full moon frissons. But when the sun comes up and reality reveals itself, will it have all been worth it?", "poster_path": "/e1gNLO829rkE73sBJ3aClZJHNXd.jpg", "release_date": "2019-07-15", "title": "The Male Gaze: The Heat of the Night", "video": false, "vote_average": 3.3, "vote_count": 3, "popularity": 13.056}, {"id": 513, "video": false, "vote_count": 31, "vote_average": 6.8, "title": "Fire", "release_date": "1997-08-22", "original_language": "en", "original_title": "Fire", "genre_ids": [18, 10749], "backdrop_path": "/2U3hyiVzzhYzS6j9fcdVW4mO4Uk.jpg", "adult": false, "overview": "In a barren, arranged marriage to an amateur swami who seeks enlightenment through celibacy, Radha's life takes an irresistible turn when her beautiful young sister-in-law seeks to free herself from the confines of her own loveless marriage.", "poster_path": "/nhKFB7bPOv9gH93cu8l4tTc2ZO.jpg", "popularity": 4.942}, {"adult": false, "backdrop_path": "/bUvPR1Nsm9419zO4aL90pUl4MNF.jpg", "genre_ids": [10749, 18], "id": 152584, "original_language": "fr", "original_title": "La Vie d'Ad\u00e8le - Chapitres 1 et 2", "overview": "Ad\u00e8le's life is changed when she meets Emma, a young woman with blue hair, who will allow her to discover desire, to assert herself as a woman and as an adult. In front of others, Adele grows, seeks herself, loses herself, finds herself.", "poster_path": "/3BpgeGHYxle9ob4cLiONgESvqVB.jpg", "release_date": "2013-10-09", "title": "Blue Is the Warmest Color", "video": false, "vote_average": 7.1, "vote_count": 2634, "popularity": 8.337}, {"adult": false, "backdrop_path": "/tDzUNni7PpwpcYttwfstmThODH6.jpg", "genre_ids": [18, 10749], "id": 52799, "original_language": "es", "original_title": "Contracorriente", "overview": "A married fisherman struggles to reconcile his devotion to his male lover within his town's rigid traditions.", "poster_path": "/oG7AZmkEyRY09h34NzxuevGs3To.jpg", "release_date": "2009-09-23", "title": "Undertow", "video": false, "vote_average": 7.5, "vote_count": 62, "popularity": 5.412}], "total_pages": 181, "total_results": 3617}, "recommendations": {"page": 1, "results": [], "total_pages": 1, "total_results": 0}, "credits": {"cast": [{"cast_id": 2, "character": "Cheyenne", "credit_id": "52fe45259251416c7504d3e7", "gender": 0, "id": 73741, "name": "Mila Dekker", "order": 0, "profile_path": null}, {"cast_id": 3, "character": "Sonia", "credit_id": "52fe45259251416c7504d3eb", "gender": 1, "id": 4287, "name": "Aur\u00e9lia Petit", "order": 1, "profile_path": "/4a5lhGwOEOjM1WyTjALPe7cNzxK.jpg"}, {"cast_id": 4, "character": "Pierre", "credit_id": "52fe45259251416c7504d3ef", "gender": 2, "id": 72428, "name": "Malik Zidi", "order": 2, "profile_path": "/c7kciKLf2g9gzzqd2UfnMdRYtyy.jpg"}, {"cast_id": 5, "character": "Voisin", "credit_id": "52fe45259251416c7504d3f3", "gender": 0, "id": 73742, "name": "Luc Leclerc du Sablon", "order": 3, "profile_path": null}, {"cast_id": 6, "character": "Voisine", "credit_id": "52fe45259251416c7504d3f7", "gender": 0, "id": 73743, "name": "Christine Dory", "order": 4, "profile_path": null}, {"cast_id": 7, "character": "B\u00e9atrice", "credit_id": "52fe45259251416c7504d3fb", "gender": 1, "id": 22307, "name": "Guilaine Londez", "order": 5, "profile_path": "/wNBBrWd0ewy03hKqMUhUHHJWQTP.jpg"}], "crew": [{"credit_id": "52fe45259251416c7504d3e3", "department": "Directing", "gender": 0, "id": 73740, "job": "Director", "name": "Val\u00e9rie Minetto", "profile_path": "/xHUnvH9FtvtFMIY69bTCnu5w5TH.jpg"}, {"credit_id": "52fe45259251416c7504d401", "department": "Production", "gender": 0, "id": 73744, "job": "Producer", "name": "Dominique Cr\u00e8vecoeur", "profile_path": null}, {"credit_id": "52fe45259251416c7504d407", "department": "Sound", "gender": 0, "id": 73745, "job": "Original Music Composer", "name": "Christophe Chevalier", "profile_path": null}, {"credit_id": "52fe45259251416c7504d40d", "department": "Camera", "gender": 0, "id": 73746, "job": "Director of Photography", "name": "Stephan Massis", "profile_path": null}, {"credit_id": "52fe45259251416c7504d413", "department": "Editing", "gender": 1, "id": 73747, "job": "Editor", "name": "Tina Baz", "profile_path": null}]}}