{"adult": false, "backdrop_path": null, "belongs_to_collection": null, "budget": 0, "genres": [{"id": 18, "name": "Drama"}, {"id": 10749, "name": "Romance"}], "homepage": null, "id": 128006, "imdb_id": "tt0020439", "original_language": "en", "original_title": "Speedway", "overview": "Bill Whipple is a happy-go-lucky mechanic for MacDonald who thinks that he is the worlds greatest driver and lover. Mac has treated Bill like a son since he took him in. One day at the track, Bill sees Pat Bannon, and tries his best to impress her, but to no avail. On his way to catch a flight, he tricks Pat into taking him to the airport and she gets even by taking him up in a plane. He hates to fly, but will not show her that he is afraid and when the plane breaks up, he is a hero for rescuing her. This gets him publicity and Renny offers him his car to drive in the Indianapolis 500. Bill breaks with Mac to drive the car and puts it on the pole for the race. Then Renny double crosses Bill and plans to drive the car himself since Bill has tuned it so well.", "popularity": 1.521, "poster_path": "/tKSF3iy5X9qXRwj6UY32cuGwnE9.jpg", "production_companies": [{"id": 21, "logo_path": "/mjofSXiHpG5t6KYmU4l4FrUhT7m.png", "name": "Metro-Goldwyn-Mayer", "origin_country": "US"}], "production_countries": [{"iso_3166_1": "US", "name": "United States of America"}], "release_date": "1929-10-07", "revenue": 0, "runtime": 76, "spoken_languages": [], "status": "Released", "tagline": "", "title": "Speedway", "video": false, "vote_average": 5.5, "vote_count": 2, "keywords": {"keywords": [{"id": 6363, "name": "racing car"}, {"id": 191540, "name": "indianapolis 500"}]}, "similar": {"page": 1, "results": [{"adult": false, "backdrop_path": "/w41zFKYTsq4wf5QnQJWMXuzWl2F.jpg", "genre_ids": [18, 28], "id": 96721, "original_language": "en", "original_title": "Rush", "overview": "A biographical drama centered on the rivalry between Formula 1 drivers James Hunt and Niki Lauda during the 1976 Formula One motor-racing season.", "poster_path": "/cjEepHZOZAwmK6nAj5jis6HV75E.jpg", "release_date": "2013-09-02", "title": "Rush", "video": false, "vote_average": 7.7, "vote_count": 4275, "popularity": 16.446}, {"id": 359724, "video": false, "vote_count": 966, "vote_average": 7.8, "title": "Ford v Ferrari", "release_date": "2019-11-13", "original_language": "en", "original_title": "Ford v Ferrari", "genre_ids": [28, 18, 36], "backdrop_path": "/mn9k8zapebAbCqsiKf24juhXjjx.jpg", "adult": false, "overview": "American car designer Carroll Shelby and the British-born driver Ken Miles work together to battle corporate interference, the laws of physics, and their own personal demons to build a revolutionary race car for Ford Motor Company and take on the dominating race cars of Enzo Ferrari at the 24 Hours of Le Mans in France in 1966.", "poster_path": "/6ApDtO7xaWAfPqfi2IARXIzj8QS.jpg", "popularity": 75.174}, {"id": 5920, "video": false, "vote_count": 98, "vote_average": 7.0, "title": "Le Mans", "release_date": "1971-06-23", "original_language": "en", "original_title": "Le Mans", "genre_ids": [28, 18], "backdrop_path": "/z6Rcwlue3S6vy3ikR7VAfalH6Xq.jpg", "adult": false, "overview": "Filmed during the annual 24-hour endurance race at Le Mans, Michael Delaney is a Porsche driver haunted by the memory of an accident at the previous year's race in which a competing driver was killed. Delaney also finds himself increasingly infatuated with the man's widow.", "poster_path": "/ekTMi9ZdgeyQBkOG1z5h3oBBiJa.jpg", "popularity": 7.815}, {"id": 125736, "video": false, "vote_count": 9, "vote_average": 5.9, "title": "The Crowd Roars", "release_date": "1932-04-13", "original_language": "en", "original_title": "The Crowd Roars", "genre_ids": [28, 18], "backdrop_path": "/8NqtycfELau8QtW3clyfKpek6x7.jpg", "adult": false, "overview": "Famous motor-racing champion Joe Greer returns to his hometown to compete in a local race. He discovers his younger brother has aspirations to become a racing champion, and during the race Joe loses his nerve when another driver is killed, leaving his brother to win. Joe's luck takes a plunge whilst his brother rises to height of fame.", "poster_path": "/3O8opbWxNDuXH8Z3upFqnx5M3gf.jpg", "popularity": 2.867}, {"id": 20379, "video": false, "vote_count": 74, "vote_average": 7.0, "title": "Grand Prix", "release_date": "1966-12-21", "original_language": "en", "original_title": "Grand Prix", "genre_ids": [28, 18], "backdrop_path": "/3CoGD3hyxUeTzmygFtAzSBWCjkn.jpg", "adult": false, "overview": "The story tells about the confrontation of four first-class racers of Formula 1.\r Each of the competitors had their own additional motivation to become a champion.\r Their world is a risk and extreme, fast driving on the highway. The taste of adrenaline is what race lovers live. Outside of competition, they all experience personal dramas and upheavals, and the more important the desired title becomes for them.", "poster_path": "/gfh6OOHPVXlwVQoNTNne9TZ1MD8.jpg", "popularity": 8.42}, {"id": 522924, "video": false, "vote_count": 150, "vote_average": 8.1, "title": "The Art of Racing in the Rain", "release_date": "2019-08-08", "original_language": "en", "original_title": "The Art of Racing in the Rain", "genre_ids": [35, 18, 10749], "backdrop_path": "/6esNUoXh4xQvucB7o7e3TCfjI65.jpg", "adult": false, "overview": "A family dog\u2014with a near-human soul and a philosopher's mind\u2014evaluates his life through the lessons learned by his human owner, a race-car driver.", "poster_path": "/mi5VN4ww0JZgRFJIaPxxTGKjUg7.jpg", "popularity": 17.008}, {"id": 621, "video": false, "vote_count": 4341, "vote_average": 7.4, "title": "Grease", "release_date": "1978-07-07", "original_language": "en", "original_title": "Grease", "genre_ids": [10749], "backdrop_path": "/93wqWj6izOulKuONZ7rG7WxEjEe.jpg", "adult": false, "overview": "Australian good girl Sandy and greaser Danny fell in love over the summer. But when they unexpectedly discover they're now in the same high school, will they be able to rekindle their romance despite their eccentric friends?", "poster_path": "/iMHdFTrCYhue74sBnXkdO39AJ3R.jpg", "popularity": 34.41}, {"id": 9679, "video": false, "vote_count": 2588, "vote_average": 6.3, "title": "Gone in Sixty Seconds", "release_date": "2000-06-09", "original_language": "en", "original_title": "Gone in Sixty Seconds", "genre_ids": [28, 80, 53], "backdrop_path": "/uqd4cqpp6gbs6zG6izBUaCorgjv.jpg", "adult": false, "overview": "Upon learning that he has to come out of retirement to steal 50 cars in one night to save his brother Kip's life, former car thief Randall \"Memphis\" Raines enlists help from a few \"boost happy\" pals to accomplish a seemingly impossible feat. From countless car chases to relentless cops, the high-octane excitement builds as Randall swerves around more than a few roadblocks to keep Kip alive.", "poster_path": "/77TxKvRiX0c5JR6l4fxcN19prOy.jpg", "popularity": 18.286}, {"id": 49013, "video": false, "vote_count": 4527, "vote_average": 5.9, "title": "Cars 2", "release_date": "2011-06-11", "original_language": "en", "original_title": "Cars 2", "genre_ids": [12, 16, 35, 10751], "backdrop_path": "/jEcmZhtJkZQc6ta2vzBd9CU7GIx.jpg", "adult": false, "overview": "Star race car Lightning McQueen and his pal Mater head overseas to compete in the World Grand Prix race. But the road to the championship becomes rocky as Mater gets caught up in an intriguing adventure of his own: international espionage.", "poster_path": "/AblhtULOVtrkSnFxRPQ8gBemxw9.jpg", "popularity": 27.827}, {"id": 260514, "video": false, "vote_count": 2941, "vote_average": 6.7, "title": "Cars 3", "release_date": "2017-06-15", "original_language": "en", "original_title": "Cars 3", "genre_ids": [12, 16, 35, 10751], "backdrop_path": "/rND0GSv8X2Zzs7VhyFAs9BCEmYE.jpg", "adult": false, "overview": "Blindsided by a new generation of blazing-fast racers, the legendary Lightning McQueen is suddenly pushed out of the sport he loves. To get back in the game, he will need the help of an eager young race technician with her own plan to win, inspiration from the late Fabulous Hudson Hornet, and a few unexpected turns. Proving that #95 isn't through yet will test the heart of a champion on Piston Cup Racing\u2019s biggest stage!", "poster_path": "/fyy1nDC8wm553FCiBDojkJmKLCs.jpg", "popularity": 21.062}, {"id": 920, "video": false, "vote_count": 8600, "vote_average": 6.7, "title": "Cars", "release_date": "2006-06-08", "original_language": "en", "original_title": "Cars", "genre_ids": [12, 16, 35, 10751], "backdrop_path": "/a1MlbLBk5Sy6YvMbSuKfwGlDVlb.jpg", "adult": false, "overview": "Lightning McQueen, a hotshot rookie race car driven to succeed, discovers that life is about the journey, not the finish line, when he finds himself unexpectedly detoured in the sleepy Route 66 town of Radiator Springs. On route across the country to the big Piston Cup Championship in California to compete against two seasoned pros, McQueen gets to know the town's offbeat characters.", "poster_path": "/jpfkzbIXgKZqCZAkEkFH2VYF63s.jpg", "popularity": 89.03}, {"id": 10483, "video": false, "vote_count": 2253, "vote_average": 6.1, "title": "Death Race", "release_date": "2008-08-22", "original_language": "en", "original_title": "Death Race", "genre_ids": [28, 878, 53], "backdrop_path": "/m0JIsX9SLfHLxU1q6ud3ifJjXmC.jpg", "adult": false, "overview": "Terminal Island, New York: 2020. Overcrowding in the US penal system has reached a breaking point. Prisons have been turned over to a monolithic Weyland Corporation, which sees jails full of thugs as an opportunity for televised sport. Adrenalized inmates, a global audience hungry for violence and a spectacular, enclosed arena come together to form the 'Death Race', the biggest, most brutal event.", "poster_path": "/3dIZ049AxmvrvNiXKPc36YNum7g.jpg", "popularity": 19.818}, {"id": 105, "video": false, "vote_count": 12161, "vote_average": 8.2, "title": "Back to the Future", "release_date": "1985-07-03", "original_language": "en", "original_title": "Back to the Future", "genre_ids": [12, 35, 878, 10751], "backdrop_path": "/x4N74cycZvKu5k3KDERJay4ajR3.jpg", "adult": false, "overview": "Eighties teenager Marty McFly is accidentally sent back in time to 1955, inadvertently disrupting his parents' first meeting and attracting his mother's romantic interest. Marty must repair the damage to history by rekindling his parents' romance and - with the help of his eccentric inventor friend Doc Brown - return to 1985.", "poster_path": "/pTpxQB1N0waaSc3OSn0e9oc8kx9.jpg", "popularity": 33.465}, {"id": 19912, "video": false, "vote_count": 1802, "vote_average": 5.6, "title": "The Final Destination", "release_date": "2009-08-26", "original_language": "en", "original_title": "The Final Destination", "genre_ids": [27, 9648], "backdrop_path": "/166hLHfpVEvXpMQWqvFiqzUgZ6W.jpg", "adult": false, "overview": "After a young man's premonition of a deadly race-car crash helps saves the lives of his peers, Death sets out to collect those who evaded their end.", "poster_path": "/5vxXrr1MqGsT4NNeRITpfDnl4Rq.jpg", "popularity": 21.559}, {"id": 77950, "video": false, "vote_count": 1940, "vote_average": 6.1, "title": "Turbo", "release_date": "2013-07-11", "original_language": "en", "original_title": "Turbo", "genre_ids": [16, 10751], "backdrop_path": "/dvdKrICCKP8Uh1Xqkn60oQXnYer.jpg", "adult": false, "overview": "The tale of an ordinary garden snail who dreams of winning the Indy 500.", "poster_path": "/kajPlPUgobxci8ME5oqvzjN430q.jpg", "popularity": 22.479}, {"adult": false, "backdrop_path": "/ypyeMfKydpyuuTMdp36rMlkGDUL.jpg", "genre_ids": [28, 80, 53], "id": 168259, "original_language": "en", "original_title": "Furious 7", "overview": "Deckard Shaw seeks revenge against Dominic Toretto and his family for his comatose brother.", "poster_path": "/dCgm7efXDmiABSdWDHBDBx2jwmn.jpg", "release_date": "2015-04-01", "title": "Furious 7", "video": false, "vote_average": 7.3, "vote_count": 7042, "popularity": 26.432}, {"id": 82690, "video": false, "vote_count": 8485, "vote_average": 7.3, "title": "Wreck-It Ralph", "release_date": "2012-11-01", "original_language": "en", "original_title": "Wreck-It Ralph", "genre_ids": [12, 16, 35, 10751], "backdrop_path": "/1LbX3KV6qv6NoH4zKLGM7Sgtwmg.jpg", "adult": false, "overview": "Wreck-It Ralph is the 9-foot-tall, 643-pound villain of an arcade video game named Fix-It Felix Jr., in which the game's titular hero fixes buildings that Ralph destroys. Wanting to prove he can be a good guy and not just a villain, Ralph escapes his game and lands in Hero's Duty, a first-person shooter where he helps the game's hero battle against alien invaders. He later enters Sugar Rush, a kart racing game set on tracks made of candies, cookies and other sweets. There, Ralph meets Vanellope von Schweetz who has learned that her game is faced with a dire threat that could affect the entire arcade, and one that Ralph may have inadvertently started.", "poster_path": "/j8M1kHBAXa6KFNzGnWtdsVsLUro.jpg", "popularity": 36.414}, {"id": 165, "video": false, "vote_count": 7682, "vote_average": 7.7, "title": "Back to the Future Part II", "release_date": "1989-11-22", "original_language": "en", "original_title": "Back to the Future Part II", "genre_ids": [12, 35, 878, 10751], "backdrop_path": "/snLFUFzWUZCdYkAbhZlaGJxiY3I.jpg", "adult": false, "overview": "Marty and Doc are at it again in this wacky sequel to the 1985 blockbuster as the time-traveling duo head to 2015 to nip some McFly family woes in the bud. But things go awry thanks to bully Biff Tannen and a pesky sports almanac. In a last-ditch attempt to set things straight, Marty finds himself bound for 1955 and face to face with his teenage parents -- again.", "poster_path": "/k5dzvCQkXU2CAhLtlj9BHE7xmyK.jpg", "popularity": 16.546}, {"id": 401478, "video": false, "vote_count": 98, "vote_average": 5.7, "title": "Death Race: Beyond Anarchy", "release_date": "2018-10-02", "original_language": "en", "original_title": "Death Race: Beyond Anarchy", "genre_ids": [28, 878, 53], "backdrop_path": "/W8V8d9bjLZURgEGbIB5TC70yaj.jpg", "adult": false, "overview": "Black Ops specialist Connor Gibson infiltrates a maximum security prison to take down legendary driver Frankenstein in a violent and brutal car race.", "poster_path": "/1PrlKvPUbDQAqFQBCyyt68hLLl.jpg", "popularity": 27.89}, {"adult": false, "backdrop_path": "/pBgGl3GfVxs84T7ZniUAz5FMMNx.jpg", "genre_ids": [35, 10751, 12, 14, 10749], "id": 11451, "original_language": "en", "original_title": "Herbie Fully Loaded", "overview": "Maggie Peyton, the new owner of Number 53 - the free-wheelin' Volkswagen bug with a mind of its own - puts the car through its paces on the road to becoming a NASCAR competitor.", "poster_path": "/7lTfTZ8CDfXw09eAv3OOvsbCVgs.jpg", "release_date": "2005-06-22", "title": "Herbie Fully Loaded", "video": false, "vote_average": 5.3, "vote_count": 1347, "popularity": 16.927}], "total_pages": 13, "total_results": 260}, "recommendations": {"page": 1, "results": [], "total_pages": 1, "total_results": 0}, "credits": {"cast": [{"cast_id": 2, "character": "Bill Whipple", "credit_id": "52fe4b0fc3a368484e175863", "gender": 2, "id": 150638, "name": "William Haines", "order": 0, "profile_path": "/lRgJ60XEhdpRAFgoAJHsZuV1y0i.jpg"}, {"cast_id": 3, "character": "Patricia 'Pat' Bonner", "credit_id": "52fe4b0fc3a368484e175867", "gender": 1, "id": 98012, "name": "Anita Page", "order": 1, "profile_path": "/mZUSOcjuP7YVtNQvUDrWljcd0aP.jpg"}, {"cast_id": 4, "character": "Jim MacDonald", "credit_id": "52fe4b0fc3a368484e17586b", "gender": 0, "id": 98034, "name": "Ernest Torrence", "order": 2, "profile_path": "/pozwuIuT9o628jl85iuudUHPRUw.jpg"}, {"cast_id": 5, "character": "Dugan", "credit_id": "52fe4b0fc3a368484e17586f", "gender": 2, "id": 29978, "name": "Karl Dane", "order": 3, "profile_path": "/cc3BzJF5qQf8hnVVwF38DxmEZJ2.jpg"}, {"cast_id": 6, "character": "Lee Renny", "credit_id": "547313e0c3a368370300070d", "gender": 2, "id": 90000, "name": "John Miljan", "order": 4, "profile_path": "/6C1k1y0gVOq3nSoBG29CJPJs1N1.jpg"}, {"cast_id": 7, "character": "Mrs. MacDonald", "credit_id": "547313f392514147d700095c", "gender": 1, "id": 14288, "name": "Eugenie Besserer", "order": 5, "profile_path": "/b98SpSMoGcL1FIDv2VPR2raj552.jpg"}, {"cast_id": 8, "character": "Waitress", "credit_id": "54731402c3a368058e00169e", "gender": 1, "id": 148513, "name": "Polly Moran", "order": 6, "profile_path": "/9sGgnwEDs7CEqW9RrsJ422lgz1i.jpg"}, {"cast_id": 9, "character": "Doctor", "credit_id": "547314199251413a5d00422c", "gender": 2, "id": 24687, "name": "Alfred Adam", "order": 7, "profile_path": "/lYsguYFlS522KLgBsuu3NcXayoO.jpg"}], "crew": [{"credit_id": "5801240c925141300a000149", "department": "Editing", "gender": 0, "id": 1182098, "job": "Editor", "name": "George C. Hively", "profile_path": null}, {"credit_id": "52fe4b0fc3a368484e17585f", "department": "Directing", "gender": 2, "id": 145605, "job": "Director", "name": "Harry Beaumont", "profile_path": "/mmnsbUDWefbtxStex4Lge86R7kq.jpg"}, {"credit_id": "580123bf925141300f00013d", "department": "Writing", "gender": 2, "id": 128398, "job": "Story", "name": "Byron Morgan", "profile_path": null}, {"credit_id": "580123ca925141301900010d", "department": "Writing", "gender": 0, "id": 1312769, "job": "Adaptation", "name": "Alfred Block", "profile_path": null}, {"credit_id": "580123dc9251413013000120", "department": "Writing", "gender": 0, "id": 1620021, "job": "Adaptation", "name": "Ann Price", "profile_path": null}, {"credit_id": "580123f2925141300c00013c", "department": "Sound", "gender": 2, "id": 29967, "job": "Original Music Composer", "name": "William Axt", "profile_path": "/uMpiKUoeCI9iwV0gVbPuXBIwirR.jpg"}, {"credit_id": "58012401c3a36848f800011e", "department": "Camera", "gender": 2, "id": 29983, "job": "Director of Photography", "name": "Henry Sharp", "profile_path": null}, {"credit_id": "58012416c3a36848f500011b", "department": "Art", "gender": 2, "id": 9062, "job": "Art Direction", "name": "Cedric Gibbons", "profile_path": "/w8tc9iVH87Iu1KKFDZ9B99NhnBc.jpg"}, {"credit_id": "5801242bc3a36848f5000121", "department": "Costume & Make-Up", "gender": 2, "id": 1296653, "job": "Costume Design", "name": "David Cox", "profile_path": null}]}}