{"adult": false, "backdrop_path": "/qoYnywn2K4RbWeBjzGazzAQFU8G.jpg", "belongs_to_collection": null, "budget": 0, "genres": [{"id": 18, "name": "Drama"}], "homepage": null, "id": 128237, "imdb_id": "tt2379418", "original_language": "es", "original_title": "Viola", "overview": "Several actresses get caught up in a web of romantic intrigue while performing in a production of Shakespeare's \"Twelfth Night.\"", "popularity": 1.066, "poster_path": "/6PuhaRInN1FVdUvguSreiJqbEN4.jpg", "production_companies": [{"id": 16813, "logo_path": null, "name": "Alta Definici\u00f3n Argentina", "origin_country": ""}, {"id": 52436, "logo_path": null, "name": "Rev\u00f3lver Films", "origin_country": ""}, {"id": 11999, "logo_path": null, "name": "Universidad del Cine", "origin_country": ""}], "production_countries": [{"iso_3166_1": "US", "name": "United States of America"}, {"iso_3166_1": "AR", "name": "Argentina"}], "release_date": "2012-09-09", "revenue": 0, "runtime": 65, "spoken_languages": [{"iso_639_1": "es", "name": "Espa\u00f1ol"}], "status": "Released", "tagline": "", "title": "Viola", "video": false, "vote_average": 7.4, "vote_count": 4, "keywords": {"keywords": [{"id": 9833, "name": "lesbian relationship"}]}, "similar": {"page": 1, "results": [{"adult": false, "backdrop_path": "/gZeJziVigmRqbkEZwKAtSqlLQ6s.jpg", "genre_ids": [18, 10749], "id": 370663, "original_language": "en", "original_title": "Below Her Mouth", "overview": "An unexpected affair quickly escalates into a heart-stopping reality for two women whose passionate connection changes their lives forever.", "poster_path": "/nTGbq37hYLuNy7YgMg0gVLma0NS.jpg", "release_date": "2016-09-10", "title": "Below Her Mouth", "video": false, "vote_average": 6.2, "vote_count": 456, "popularity": 22.676}, {"id": 434714, "video": false, "vote_count": 32, "vote_average": 7.5, "title": "My Days of Mercy", "release_date": "2019-07-11", "original_language": "en", "original_title": "My Days of Mercy", "genre_ids": [18, 10749], "backdrop_path": "/7Lbzq33nMMIQtAfZAmSqG6ibLSg.jpg", "adult": false, "overview": "The daughter of a man on death row falls in love with a woman on the opposing side of her family's political cause.", "poster_path": "/adIPKAoKnKL9vCTkvfF4J9ZA7Ln.jpg", "popularity": 6.928}, {"adult": false, "backdrop_path": "/knczzNAjBXzSYkeWxoT1u9VNmjR.jpg", "genre_ids": [10749, 18], "id": 258480, "original_language": "en", "original_title": "Carol", "overview": "In 1950s New York, a department-store clerk who dreams of a better life falls for an older, married woman.", "poster_path": "/AbKa7ANxmui0Jmhh7gV7OSELKIL.jpg", "release_date": "2015-11-20", "title": "Carol", "video": false, "vote_average": 7.4, "vote_count": 2182, "popularity": 14.185}, {"adult": false, "backdrop_path": "/lI5h8KaoeObu4NMTwzeRuUHzRwD.jpg", "genre_ids": [18, 9648, 53], "id": 401898, "original_language": "no", "original_title": "Thelma", "overview": "A college student starts to experience extreme seizures. She soon learns that the violent episodes are a symptom of inexplicable abilities.", "poster_path": "/yzSfG8TLAqw7nMQh2lxirQkQpgs.jpg", "release_date": "2017-09-15", "title": "Thelma", "video": false, "vote_average": 7.1, "vote_count": 418, "popularity": 12.235}, {"adult": false, "backdrop_path": "/uTT0yYYgD5S4cDpNOJxuvCITAeC.jpg", "genre_ids": [18, 10749], "id": 419743, "original_language": "en", "original_title": "Disobedience", "overview": "A woman learns about the death of her Orthodox Jewish father, a rabbi. She returns home and has romantic feelings rekindled for her best childhood friend, who is now married to her cousin.", "poster_path": "/skPT4ffWhlmmDOMNEdxOiP6Emfz.jpg", "release_date": "2017-09-10", "title": "Disobedience", "video": false, "vote_average": 6.9, "vote_count": 490, "popularity": 18.397}, {"id": 1544, "video": false, "vote_count": 437, "vote_average": 7.3, "title": "Imagine Me & You", "release_date": "2005-02-01", "original_language": "en", "original_title": "Imagine Me & You", "genre_ids": [35, 18, 10749], "backdrop_path": "/s1wez4YOL10BMVKwMANH7QMp19l.jpg", "adult": false, "overview": "During her wedding ceremony, Rachel notices Luce in the audience and feels instantly drawn to her. The two women become close friends, and when Rachel learns that Luce is a lesbian, she realizes that despite her happy marriage to Heck, she is falling for Luce. As she questions her sexual orientation, Rachel must decide between her stable relationship with Heck and her exhilarating new romance with Luce.", "poster_path": "/6IXVDZOpqThs3GTPix4ImwrTVb7.jpg", "popularity": 16.185}, {"adult": false, "backdrop_path": "/kyVtVCs493JAL3lxfSC8UrGbrwS.jpg", "genre_ids": [18], "id": 10310, "original_language": "de", "original_title": "Die bitteren Tr\u00e4nen der Petra von Kant", "overview": "Petra von Kant is a successful fashion designer -- arrogant, caustic, and self-satisfied. She mistreats Marlene (her secretary, maid, and co-designer). Enter Karin, a 23-year-old beauty who wants to be a model. Petra falls in love with Karin and invites her to move in.", "poster_path": "/e1RGbJFQeDLVeUsbtz1ZuzcA0x2.jpg", "release_date": "1972-10-05", "title": "The Bitter Tears of Petra von Kant", "video": false, "vote_average": 7.4, "vote_count": 75, "popularity": 9.086}, {"id": 107257, "video": false, "vote_count": 62, "vote_average": 6.2, "title": "A Perfect Ending", "release_date": "2012-06-01", "original_language": "en", "original_title": "A Perfect Ending", "genre_ids": [18, 10749], "backdrop_path": "/3d3XKhi3GBAJdvBPToYrRKQK8JO.jpg", "adult": false, "overview": "This intimate drama follows Rebecca, a woman who has kept her sexuality a secret from her friends but chooses to reveal it to a stranger. While Rebecca's revelations may not yield the results she expects, a perfect ending is still in reach.", "poster_path": "/aMqHT2mRqP23e3czeIpysXBGHX5.jpg", "popularity": 12.773}, {"id": 11634, "video": false, "vote_count": 236, "vote_average": 7.2, "title": "Show Me Love", "release_date": "1998-10-23", "original_language": "sv", "original_title": "Fucking \u00c5m\u00e5l", "genre_ids": [35, 18, 10749], "backdrop_path": "/iwEnridqOcgZlXHRmH1xiZKO538.jpg", "adult": false, "overview": "\u00c5m\u00e5l is a small insignificant town where nothing ever happens, where the latest trends are out of date when they get there. Young Elin has a bit of a bad reputation when it comes to guys, but the fact is that she has never done *it*. Another girl in her school, Agnes, is in love with her but is too shy to do anything about it. For different reasons, Elin ends up at Agnes' birthday party as the only guest. They have a girl's night out together but after that Elin desperately avoids Agnes, refusing to even consider her own homosexuality.", "poster_path": "/gkM27kmi9woapo1oQ2lho59u5Hn.jpg", "popularity": 9.754}, {"adult": false, "backdrop_path": "/s12HEmmkJfI2mjltI61hGm5kubD.jpg", "genre_ids": [35, 18, 10749], "id": 20770, "original_language": "en", "original_title": "But I'm a Cheerleader", "overview": "Megan is an all-American girl. A cheerleader. She has a boyfriend. But Megan doesn't like kissing her boyfriend very much. And she's pretty touchy with her cheerleader friends. Her conservative parents worry that she must be a lesbian and send her off to \"sexual redirection\" school, where she must, with other lesbians and gays learn how to be straight.", "poster_path": "/eDGH7CHSdkrYcuUJV1e0WS9DlQL.jpg", "release_date": "1999-12-09", "title": "But I'm a Cheerleader", "video": false, "vote_average": 6.8, "vote_count": 246, "popularity": 10.067}, {"adult": false, "backdrop_path": "/qbrmEfBEcdrzHSAHgazJWmz3TSU.jpg", "genre_ids": [18], "id": 616229, "original_language": "en", "original_title": "The Male Gaze: The Heat of the Night", "overview": "When darkness falls, temperatures rise in these six stories about late night confessions, intimacy for sale, high speed hookups and full moon frissons. But when the sun comes up and reality reveals itself, will it have all been worth it?", "poster_path": "/e1gNLO829rkE73sBJ3aClZJHNXd.jpg", "release_date": "2019-07-15", "title": "The Male Gaze: The Heat of the Night", "video": false, "vote_average": 3.3, "vote_count": 3, "popularity": 13.056}, {"adult": false, "backdrop_path": "/useuHJQ5HOoEWkAvEjL1FW1sUfe.jpg", "genre_ids": [18], "id": 376867, "original_language": "en", "original_title": "Moonlight", "overview": "The tender, heartbreaking story of a young man\u2019s struggle to find himself, told across three defining chapters in his life as he experiences the ecstasy, pain, and beauty of falling in love, while grappling with his own sexuality.", "poster_path": "/qAwFbszz0kRyTuXmMeKQZCX3Q2O.jpg", "release_date": "2016-10-21", "title": "Moonlight", "video": false, "vote_average": 7.4, "vote_count": 4406, "popularity": 27.348}, {"adult": false, "backdrop_path": "/ph5fElfh4U7O3jwhFljxz2LDp1l.jpg", "genre_ids": [18, 36], "id": 375262, "original_language": "en", "original_title": "The Favourite", "overview": "England, early 18th century. The close relationship between Queen Anne and Sarah Churchill is threatened by the arrival of Sarah's cousin, Abigail Hill, resulting in a bitter rivalry between the two cousins to be the Queen's favourite.", "poster_path": "/cwBq0onfmeilU5xgqNNjJAMPfpw.jpg", "release_date": "2018-11-23", "title": "The Favourite", "video": false, "vote_average": 7.6, "vote_count": 2823, "popularity": 26.511}, {"id": 449176, "video": false, "vote_count": 3690, "vote_average": 8.1, "title": "Love, Simon", "release_date": "2018-02-16", "original_language": "en", "original_title": "Love, Simon", "genre_ids": [35, 18, 10749], "backdrop_path": "/rqMEeajyzSF4PpJtdCB816Iz8Vr.jpg", "adult": false, "overview": "Everyone deserves a great love story. But for seventeen-year old Simon Spier it's a little more complicated: he's yet to tell his family or friends he's gay and he doesn't know the identity of the anonymous classmate he's fallen for online.", "poster_path": "/5YUYg5q7QfC4IoNwNUtiwdiYKPr.jpg", "popularity": 24.849}, {"id": 424694, "video": false, "vote_count": 9721, "vote_average": 8.0, "title": "Bohemian Rhapsody", "release_date": "2018-10-24", "original_language": "en", "original_title": "Bohemian Rhapsody", "genre_ids": [18, 10402], "backdrop_path": "/93xA62uLd5CwMOAs37eQ7vPc1iV.jpg", "adult": false, "overview": "Singer Freddie Mercury, guitarist Brian May, drummer Roger Taylor and bass guitarist John Deacon take the music world by storm when they form the rock 'n' roll band Queen in 1970. Hit songs become instant classics. When Mercury's increasingly wild lifestyle starts to spiral out of control, Queen soon faces its greatest challenge yet \u2013 finding a way to keep the band together amid the success and excess.", "poster_path": "/lHu1wtNaczFPGFDTrjCSzeLPTKN.jpg", "popularity": 40.186}, {"id": 507076, "video": false, "vote_count": 629, "vote_average": 7.1, "title": "Climax", "release_date": "2018-09-19", "original_language": "fr", "original_title": "Climax", "genre_ids": [18, 27, 10402], "backdrop_path": "/v0sblc9A8eaE8EqDQ5Y6fELj4oB.jpg", "adult": false, "overview": "Young dancers gather in a remote and empty school building to rehearse on a cold and wintry night. The all-night celebration soon turns into a hallucinatory nightmare when they learn that their sangria is laced with LSD.", "poster_path": "/zQDqgzSdTGSDu4rDcQTq7TAttmy.jpg", "popularity": 15.582}, {"id": 513, "video": false, "vote_count": 31, "vote_average": 6.8, "title": "Fire", "release_date": "1997-08-22", "original_language": "en", "original_title": "Fire", "genre_ids": [18, 10749], "backdrop_path": "/2U3hyiVzzhYzS6j9fcdVW4mO4Uk.jpg", "adult": false, "overview": "In a barren, arranged marriage to an amateur swami who seeks enlightenment through celibacy, Radha's life takes an irresistible turn when her beautiful young sister-in-law seeks to free herself from the confines of her own loveless marriage.", "poster_path": "/nhKFB7bPOv9gH93cu8l4tTc2ZO.jpg", "popularity": 4.942}, {"id": 9709, "video": false, "vote_count": 131, "vote_average": 6.2, "title": "My Summer of Love", "release_date": "2005-05-05", "original_language": "en", "original_title": "My Summer of Love", "genre_ids": [18, 10749], "backdrop_path": "/yRSNLsGROJIEZFeKRzGL340oSuJ.jpg", "adult": false, "overview": "In the Yorkshire countryside, working-class tomboy Mona meets the exotic, pampered Tasmin. Over the summer season, the two young women discover they have much to teach one another, and much to explore together.", "poster_path": "/uVYbbw5hyxaU1yxa4cOokTC1HQ8.jpg", "popularity": 9.365}, {"adult": false, "backdrop_path": "/6tern9vOEwwmkDYC1vRCuO64z0C.jpg", "genre_ids": [10749, 18], "id": 475888, "original_language": "en", "original_title": "Tell It to the Bees", "overview": "Dr. Jean Markham returns to the town she left as a teenager to take over her late father's medical practice. When a school-yard scuffle lands Charlie in her surgery, she invites him to visit the hives in her garden and tell his secrets to the bees, as she once did. The new friendship between the boy and the bee keeper brings his mother Lydia into Jean's world.", "poster_path": "/Rj6zpHhMU1zFW3v28U4PSRSRgP.jpg", "release_date": "2019-05-03", "title": "Tell It to the Bees", "video": false, "vote_average": 6.4, "vote_count": 53, "popularity": 15.113}, {"adult": false, "backdrop_path": "/baYbbMtKRDoDWYJeVWkbygAvAj8.jpg", "genre_ids": [18, 10749], "id": 31216, "original_language": "en", "original_title": "I Can't Think Straight", "overview": "I CAN'T THINK STRAIGHT is a 2007 romance movie about a London-based Jordanian of Palestinian descent, Tala, who is preparing for an elaborate wedding. A turn of events causes her to have an affair and subsequently fall in love with another woman, Leyla, a British Indian.", "poster_path": "/1kapga6rkM5wNuQBYw7sdE42CrA.jpg", "release_date": "2008-06-01", "title": "I Can't Think Straight", "video": false, "vote_average": 7.6, "vote_count": 109, "popularity": 8.749}], "total_pages": 114, "total_results": 2276}, "recommendations": {"page": 1, "results": [], "total_pages": 1, "total_results": 0}, "credits": {"cast": [{"cast_id": 3, "character": "", "credit_id": "52fe4b16c3a368484e176fb9", "gender": 2, "id": 559510, "name": "Alberto Ajaka", "order": 0, "profile_path": "/kmyFHIVDZ3L3036uk3mcCLs3Pg1.jpg"}, {"cast_id": 4, "character": "", "credit_id": "52fe4b16c3a368484e176fbd", "gender": 0, "id": 1086358, "name": "Esteban Bigliardi", "order": 1, "profile_path": null}, {"cast_id": 5, "character": "", "credit_id": "52fe4b16c3a368484e176fc1", "gender": 1, "id": 1107940, "name": "Elisa Carricajo", "order": 2, "profile_path": "/nrr2B7sRT6BNlbpP4VNmTWuT9yH.jpg"}, {"cast_id": 6, "character": "", "credit_id": "52fe4b16c3a368484e176fc5", "gender": 0, "id": 1107941, "name": "Agustina Mu\u00f1oz", "order": 3, "profile_path": null}, {"cast_id": 7, "character": "", "credit_id": "52fe4b16c3a368484e176fc9", "gender": 0, "id": 1107942, "name": "Laura Paredes", "order": 4, "profile_path": "/kQOwiMacbWILciE22N13ib3PpqZ.jpg"}, {"cast_id": 8, "character": "", "credit_id": "52fe4b16c3a368484e176fcd", "gender": 0, "id": 447207, "name": "Romina Paula", "order": 5, "profile_path": "/uz477QUUhIoHySuhsRd7wGM7WLL.jpg"}, {"cast_id": 9, "character": "", "credit_id": "52fe4b16c3a368484e176fd1", "gender": 0, "id": 1107943, "name": "Gabriela Saidon", "order": 6, "profile_path": null}, {"cast_id": 10, "character": "", "credit_id": "52fe4b16c3a368484e176fd5", "gender": 0, "id": 1107944, "name": "Pablo Sigal", "order": 7, "profile_path": null}, {"cast_id": 11, "character": "", "credit_id": "52fe4b16c3a368484e176fd9", "gender": 0, "id": 1086354, "name": "Mar\u00eda Villar", "order": 8, "profile_path": null}], "crew": [{"credit_id": "52fe4b16c3a368484e176fe5", "department": "Editing", "gender": 2, "id": 128046, "job": "Editor", "name": "Alejo Moguillansky", "profile_path": "/e3Rgu4bdkeK4KkbwmcMrRu8Jo3W.jpg"}, {"credit_id": "52fe4b16c3a368484e176fb5", "department": "Writing", "gender": 2, "id": 1086353, "job": "Screenplay", "name": "Mat\u00edas Pi\u00f1eiro", "profile_path": "/mLJEzbvtkMJmlXVJarohZe5K1qO.jpg"}, {"credit_id": "52fe4b16c3a368484e176faf", "department": "Directing", "gender": 2, "id": 1086353, "job": "Director", "name": "Mat\u00edas Pi\u00f1eiro", "profile_path": "/mLJEzbvtkMJmlXVJarohZe5K1qO.jpg"}, {"credit_id": "52fe4b16c3a368484e176fdf", "department": "Crew", "gender": 0, "id": 1107945, "job": "Cinematography", "name": "Fernando Lockett", "profile_path": null}]}}