{"adult": false, "backdrop_path": null, "belongs_to_collection": null, "budget": 0, "genres": [], "homepage": null, "id": 129332, "imdb_id": "tt0091727", "original_language": "en", "original_title": "Party Camp", "overview": "A teenage boy takes a job as a counselor at a summer camp. He finds that the camp is run like a military training camp, and he resolves to turn it into Party Central.", "popularity": 2.002, "poster_path": "/1CHdrnSdA7pRhpUnZdMl0aa7mKm.jpg", "production_companies": [{"id": 10494, "logo_path": null, "name": "Alimar Productions", "origin_country": ""}, {"id": 10495, "logo_path": null, "name": "Thunder Pictures", "origin_country": ""}], "production_countries": [{"iso_3166_1": "US", "name": "United States of America"}], "release_date": "1987-06-19", "revenue": 0, "runtime": 96, "spoken_languages": [{"iso_639_1": "en", "name": "English"}], "status": "Released", "tagline": "Party your brains out. Get crazy. Cause serious damage. Just another typical summer at... Party Camp", "title": "Party Camp", "video": false, "vote_average": 5.3, "vote_count": 4, "keywords": {"keywords": [{"id": 1890, "name": "camping"}, {"id": 170827, "name": "sex comedy"}]}, "similar": {"page": 1, "results": [{"id": 351211, "video": false, "vote_count": 1209, "vote_average": 5.0, "title": "Blair Witch", "release_date": "2016-09-15", "original_language": "en", "original_title": "Blair Witch", "genre_ids": [27, 53], "backdrop_path": "/vgnhCfwo4VmDcDocSJ1tBPO3tX9.jpg", "adult": false, "overview": "Students on a camping trip discover something sinister is lurking beyond the trees.", "poster_path": "/kqmGs9q5WZkxKub60K6pU37GdvU.jpg", "popularity": 17.97}, {"adult": false, "backdrop_path": "/98ahnrena4PwLth7HFYGLf9yssH.jpg", "genre_ids": [35, 18, 10749], "id": 22705, "original_language": "it", "original_title": "Tra(sgre)dire", "overview": "While scouting out apartments in London for her Venetian boyfriend, Carla rents an apartment that overlooks the Thames. There she meet the lesbian hyper-horny real estate agent Moira.", "poster_path": "/kZITrLEiTfzzJhtwtXhQUl3ImCQ.jpg", "release_date": "2000-01-28", "title": "Cheeky", "video": false, "vote_average": 5.7, "vote_count": 92, "popularity": 30.42}, {"id": 2770, "video": false, "vote_count": 2941, "vote_average": 6.1, "title": "American Pie 2", "release_date": "2001-08-10", "original_language": "en", "original_title": "American Pie 2", "genre_ids": [35, 10749], "backdrop_path": "/1C1d3Tpesm8Vn3BRqsQZt0LfZcG.jpg", "adult": false, "overview": "The whole gang are back and as close as ever. They decide to get even closer by spending the summer together at a beach house. They decide to hold the biggest party ever to be seen, even if the preparation doesn't always go to plan. Especially when Stifler, Finch and Jim become more close to each other than they ever want to be and when Jim mistakes super glue for lubricant...", "poster_path": "/q4LNgUnRfltxzp3gf1MAGiK5LhV.jpg", "popularity": 20.359}, {"adult": false, "backdrop_path": "/vXT5Gw09k99o9XXqqxBPz9NKgsa.jpg", "genre_ids": [35, 12], "id": 9285, "original_language": "en", "original_title": "Road Trip", "overview": "Four friends take off on an 1800 mile road trip to retrieve an illicit tape mistakenly mailed to a girl friend.", "poster_path": "/DCoZVnHVvtKTYwfM00dfVRbfUQ.jpg", "release_date": "2000-05-19", "title": "Road Trip", "video": false, "vote_average": 6.0, "vote_count": 1018, "popularity": 20.323}, {"id": 9027, "video": false, "vote_count": 133, "vote_average": 5.2, "title": "The Guru", "release_date": "2002-08-21", "original_language": "en", "original_title": "The Guru", "genre_ids": [35, 10749], "backdrop_path": "/yTMI4fDST4PGujX3WnFat5PWS6D.jpg", "adult": false, "overview": "Bored with Bollywood movies but fascinated with their Hollywood counterparts from his youth, Ram dreams to become a singer and actor in America, the country where dreams are made. He is encouraged when his American-based close friend, Vijay Rao, comes for visit, and brags about driving a Mercedes and living in a penthouse.", "poster_path": "/kbqBlFIjxXkJCLHQxzq9nhTKubQ.jpg", "popularity": 8.248}, {"adult": false, "backdrop_path": "/r2b4rCQlaQ9eyhZhVukW8EnRW0c.jpg", "genre_ids": [35], "id": 55580, "original_language": "it", "original_title": "Fermo posta Tinto Brass", "overview": "This film is a series of letters, photos and video cassettes which women often send in to certain newspapers. By visualizing their story-telling (the name given by the psychologists to their fantasies) the film portrays the confessions, the secret longings, the adventures, recollections, dreams, desires and fantasies of these women. It is an open secret that most women dream of forbidden affairs, secret lovers and hasty encounters but when it comes down to it they lack the courage to pursue their dreams.", "poster_path": "/zC4QqXYwdOPS3LT9J0YPN3bcDxz.jpg", "release_date": "1995-08-30", "title": "P.O. Box Tinto Brass", "video": false, "vote_average": 5.2, "vote_count": 34, "popularity": 11.931}, {"adult": false, "backdrop_path": "/eRBSdtc20x6EUXf4k6Fwb4F88Un.jpg", "genre_ids": [35, 18], "id": 113148, "original_language": "en", "original_title": "Prince Avalanche", "overview": "Two highway road workers spend the summer of 1988 away from their city lives. The isolated landscape becomes a place of misadventure as the men find themselves at odds with each other and the women they left behind.", "poster_path": "/3KHiQt54usbHyIjLIMzaDAoIJNK.jpg", "release_date": "2013-02-13", "title": "Prince Avalanche", "video": false, "vote_average": 6.2, "vote_count": 174, "popularity": 11.091}, {"adult": false, "backdrop_path": "/zA1Tv2C2wXeDSWfn3S8XdElqDFG.jpg", "genre_ids": [35, 18], "id": 37265, "original_language": "it", "original_title": "Cos\u00ec fan tutte", "overview": "Diana is a Roman wife happily married to sympathetic Paolo but she is keen on playing benign games of seduction with other men while resisting the advances of chic lingerie shop owner Silvio. She narrates her adventures to Paolo in order to stimulate their otherwise monotonous sexual life. However, under the influence of her lesbian friend Antonietta and raunchy sister Nadia, Diana starts to move the ongoings further while Paolo is still prone to believing that events narrated by her are merely fantasies.", "poster_path": "/h5xsSUCkXCd0696K5A9hkmgaERE.jpg", "release_date": "1992-02-21", "title": "All Ladies Do It", "video": false, "vote_average": 4.2, "vote_count": 207, "popularity": 9.964}, {"adult": false, "backdrop_path": "/nv6Ur5vvcPrlqUlWJt3qPclNWCH.jpg", "genre_ids": [35], "id": 10246, "original_language": "en", "original_title": "Porky's", "overview": "Set in 1954, a group of Florida high schoolers seek out to lose their virginity which leads them to seek revenge on a sleazy nightclub owner and his redneck sheriff brother for harassing them.", "poster_path": "/yfwbpCll3RBxJmixrZvpc2NaqQY.jpg", "release_date": "1981-11-13", "title": "Porky's", "video": false, "vote_average": 6.2, "vote_count": 344, "popularity": 9.495}, {"adult": false, "backdrop_path": "/4AgJ8gbjyQ0xg4Q5wjZHu00HOn4.jpg", "genre_ids": [35], "id": 127746, "original_language": "it", "original_title": "La dottoressa ci sta col Colonnello", "overview": "Colonel Anacleto Punch, military doctor, falls in love with the beautiful and sensual South African Dr. Eve Russell, specializing in transplants. Thinking that his manhood is not adequate for the beautiful colleague, decides to do a transplant with the unsuspecting nurse prawn, that with women has always been successful. But the end result will not be as anticipated.", "poster_path": "/4FsXIBLdXcmuWAl9uHAcvN87lHR.jpg", "release_date": "1980-11-11", "title": "La dottoressa ci sta col Colonnello", "video": false, "vote_average": 5.1, "vote_count": 21, "popularity": 5.008}, {"adult": false, "backdrop_path": "/mjCTpAo0GIfK8tzt1YPJuy1dA9S.jpg", "genre_ids": [35, 18], "id": 342, "original_language": "de", "original_title": "Sommersturm", "overview": "Tobi and Achim, the pride of the local crew club, have been the best of friends for years and are convinced that nothing will ever stand in the way of their friendship. They look forward to the upcoming summer camp and the crew competition. Then the gay team from Berlin arrives and Tobi is totally confused. The evening before the races begin, the storm that breaks out is more than meteorlogical...", "poster_path": "/vvoOOEgSv2kKVxIqTZvFwtPp9eI.jpg", "release_date": "2004-09-02", "title": "Summer Storm", "video": false, "vote_average": 6.9, "vote_count": 109, "popularity": 9.046}, {"adult": false, "backdrop_path": "/aOQ4xfyD950wcDORY0Fvgk4kwJC.jpg", "genre_ids": [18, 53, 10749], "id": 15705, "original_language": "en", "original_title": "Incendiary", "overview": "An adulterous woman's life is torn apart when her husband and infant son are killed in a suicide bombing at a soccer match.", "poster_path": "/ewU3becuuYxERRalqrQGwEDOkUK.jpg", "release_date": "2008-01-20", "title": "Incendiary", "video": false, "vote_average": 5.5, "vote_count": 100, "popularity": 8.495}, {"adult": false, "backdrop_path": "/kWHIl3xsgzQuo6R6YJCaqhmd7xX.jpg", "genre_ids": [35], "id": 27088, "original_language": "en", "original_title": "The Last American Virgin", "overview": "The friendship of a group of young friends struggling with teen sex, drugs, and work is jeopardized by a romantic interest which may turn pals into bitter rivals.", "poster_path": "/3nGKDx5I7egbyZcDpV83tgHoANQ.jpg", "release_date": "1982-06-26", "title": "The Last American Virgin", "video": false, "vote_average": 6.2, "vote_count": 88, "popularity": 13.591}, {"adult": false, "backdrop_path": "/libieDOffA59XdUdpZvgM9pdnoj.jpg", "genre_ids": [12, 27, 9648, 53], "id": 185460, "original_language": "en", "original_title": "Willow Creek", "overview": "A young couple ventures into the woods to capture footage of the elusive Bigfoot.", "poster_path": "/8pP4tEeM7R6G4MSyxhFblwCja1P.jpg", "release_date": "2013-05-02", "title": "Willow Creek", "video": false, "vote_average": 4.9, "vote_count": 171, "popularity": 7.387}, {"adult": false, "backdrop_path": "/nnRJ5fwbtLxHU4ii9X1REB7Utir.jpg", "genre_ids": [35], "id": 151027, "original_language": "it", "original_title": "La professoressa di scienze naturali", "overview": "When the local science teacher hurts herself during a failed experiment and ends up in hospital, she is replaced by young and sexy Stevania Marini. Barely out of school herself, Stefania finds herself the object of affection for several men, including a young baron and and even most of her male students. One of these, Andrea Balsamo is part of the family with whom Stefania is staying and as such has a stronger foothold than most of the other men in town", "poster_path": "/vxABWlbNeJP0L5jJhCJRstXbsD7.jpg", "release_date": "1976-08-10", "title": "School Days", "video": false, "vote_average": 3.8, "vote_count": 6, "popularity": 2.444}, {"id": 24934, "video": false, "vote_count": 4, "vote_average": 7.5, "title": "Jumpin' at the Bedside", "release_date": "1976-01-28", "original_language": "da", "original_title": "Hopla p\u00e5 sengekanten", "genre_ids": [35, 10749], "backdrop_path": "/A2NYwebRdNWk5dQYgMbhb0lArb9.jpg", "adult": false, "overview": "The head of a big engineering firm is a workaholic who neglects his pretty young wife - leading to her joining an \"escort\" service as a means of sexual relief. All is well, until the escort service is hired to entertain the engineering firm's clients at a swingers' party.", "poster_path": "/nHK8Oa9QFaduBgmWvogBsjzr7GW.jpg", "popularity": 3.392}, {"id": 38173, "video": false, "vote_count": 14, "vote_average": 6.0, "title": "Up Your Anchor", "release_date": "1985-05-10", "original_language": "he", "original_title": "Harimu Ogen", "genre_ids": [35], "backdrop_path": "/mYoMy3B7S5ZMkWW0Q1a7YI9yMrY.jpg", "adult": false, "overview": "Those Lemon Popsicle boys are at it again!..Naughtier than ever in...", "poster_path": "/4RCSCb2ty1iO8ZX6wEMC9gnGYah.jpg", "popularity": 7.371}, {"adult": false, "backdrop_path": "/kfVcPYwMxnnAqY4daaBGuICXklL.jpg", "genre_ids": [35], "id": 25164, "original_language": "en", "original_title": "Screwballs", "overview": "Welcome to T & A High, where the entire student body including campus virgin Purity Busch, chronic masturbator Melvin Jerkovski, repressed Principal Stuckoff and blonde bombshell Bootsie Goodhead all must rise to the challenges of freshman breast exams, bikini cheerleader attacks, inappropriate uses of bowling ball holes and much more.", "poster_path": "/zwOWBIC4GFwf9rC6SUY9gGXPU7W.jpg", "release_date": "1983-04-01", "title": "Screwballs", "video": false, "vote_average": 4.6, "vote_count": 36, "popularity": 7.259}, {"adult": false, "backdrop_path": "/nAR8LgJERdTAc2mqX1LPVCBGs8E.jpg", "genre_ids": [35], "id": 57600, "original_language": "it", "original_title": "Abbronzatissimi", "overview": "On the Adriatic Riviera the destinies of a variety of characters cross. A piano player is the lover of a rich woman who wants him to become a killer, a call girl is looking for her true love, two workers want to marry two old billionaires.", "poster_path": "/5XWcUrEoOJcdcFNuhgvqrszi6We.jpg", "release_date": "1991-12-19", "title": "Abbronzatissimi", "video": false, "vote_average": 4.7, "vote_count": 49, "popularity": 4.545}, {"id": 69872, "video": false, "vote_count": 36, "vote_average": 6.3, "title": "Your Vice Is a Locked Room and Only I Have the Key", "release_date": "1972-08-04", "original_language": "it", "original_title": "Il tuo vizio \u00e8 una stanza chiusa e solo io ne ho la chiave", "genre_ids": [27, 9648, 53], "backdrop_path": "/a8pPQCqbuLK0nTcQQA2VtnjViuP.jpg", "adult": false, "overview": "A burned out, abusive, alcoholic writer named Oliviero lives with his wife, Irina, at their estate in Venice, along with his late mother's mysterious black cat, Satan. To pass the time, Oliviero hosts parties for the local hippies, humiliating Irina in front of his guests. When his mistress is murdered, police suspect Oliviero, and things get complicated when his young, beautiful and self-confident niece, Floriana, pays an unexpected visit.", "poster_path": "/un2XaRhslxt4cdZYewCupYoRTUV.jpg", "popularity": 4.102}], "total_pages": 6, "total_results": 105}, "recommendations": {"page": 1, "results": [], "total_pages": 1, "total_results": 0}, "credits": {"cast": [{"cast_id": 3, "character": "Jerry Riviera", "credit_id": "52fe4b39c3a368484e17de0f", "gender": 2, "id": 1089082, "name": "Andrew Ross", "order": 0, "profile_path": null}, {"cast_id": 4, "character": "Heather Morris (as Kerry Brennan)", "credit_id": "52fe4b39c3a368484e17de13", "gender": 0, "id": 1089083, "name": "Kerry Wall", "order": 1, "profile_path": null}, {"cast_id": 5, "character": "Cody", "credit_id": "52fe4b39c3a368484e17de17", "gender": 0, "id": 192147, "name": "Dean R. Miller", "order": 2, "profile_path": null}, {"cast_id": 6, "character": "D.A. (as Billy Jacoby)", "credit_id": "52fe4b39c3a368484e17de1b", "gender": 2, "id": 84164, "name": "Billy Jayne", "order": 3, "profile_path": "/a36CEs8fyfW4wnaBsUb37Hznen7.jpg"}, {"cast_id": 11, "character": "Dyanne Stein", "credit_id": "52fe4b39c3a368484e17de2d", "gender": 1, "id": 106669, "name": "Jewel Shepard", "order": 4, "profile_path": "/1KinI5YRvHRt3kiF7vscTlbI5py.jpg"}, {"cast_id": 8, "character": "Tad Whitneyworth", "credit_id": "52fe4b39c3a368484e17de1f", "gender": 0, "id": 1089085, "name": "Kirk Cribb", "order": 5, "profile_path": null}, {"cast_id": 9, "character": "Sarge", "credit_id": "52fe4b39c3a368484e17de23", "gender": 2, "id": 6916, "name": "Peter Jason", "order": 6, "profile_path": "/2VqCiv4R0kZW1Nwi60fIzmHKxpc.jpg"}, {"cast_id": 12, "character": "Mrs. Beadle", "credit_id": "5a1b30310e0a264cd0045acc", "gender": 0, "id": 158777, "name": "Cherie Franklin", "order": 7, "profile_path": "/fJGJD3kswC51uBOrzkcauPaaNMu.jpg"}, {"cast_id": 13, "character": "Nurse Brenda", "credit_id": "5a1b303bc3a3680b9d042412", "gender": 1, "id": 104332, "name": "April Wayne", "order": 8, "profile_path": null}, {"cast_id": 14, "character": "Devi", "credit_id": "5a1b30440e0a264cc1044236", "gender": 1, "id": 87127, "name": "Paula Irvine", "order": 9, "profile_path": "/8HMkuLjpw4GFOyFiGDnI7PdDGdO.jpg"}], "crew": [{"credit_id": "52fe4b39c3a368484e17de29", "department": "Directing", "gender": 2, "id": 30683, "job": "Director", "name": "Gary Graver", "profile_path": "/hgxyf9QroD3VyKefTXt8ymxCP2t.jpg"}, {"credit_id": "52fe4b39c3a368484e17de0b", "department": "Writing", "gender": 2, "id": 160124, "job": "Writer", "name": "Paul Brown", "profile_path": null}]}}