{"adult": false, "backdrop_path": "/2ADOHl2SnRlfa7NTrCbEDFUrqbR.jpg", "belongs_to_collection": null, "budget": 0, "genres": [{"id": 10749, "name": "Romance"}, {"id": 35, "name": "Comedy"}], "homepage": null, "id": 129434, "imdb_id": "tt1064928", "original_language": "is", "original_title": "Skrapp \u00fat", "overview": "Anna Hallgrimsdottir, a poetess, dish washer and marijuana dealer in her late thirties, lives in Reykjavik with her two sons, Krummi and Ulfur. Anna is tired of her lifestyle and the coldness of Iceland and wishes to show her sons more of the world. Finally she decides to do something about it, move on, and somewhat change her lifestyle. The first step in her revival is to sell her business which consists of her mobile telephone which includes her big list of clients.  The sale is an unusual one and the potential buyer promises her the asking price within 48 hours. During those 48 hours Anna gets into all kinds of \u201cIcelandic familial adventures\u201d as her kitchen fills up with customers/friends, partying, while waiting for her to come Back Soon.", "popularity": 1.758, "poster_path": "/cDxwdHMcdXlO7tXb5PcvneXUv77.jpg", "production_companies": [{"id": 14938, "logo_path": null, "name": "Zik Zak Filmworks", "origin_country": "IS"}, {"id": 3307, "logo_path": "/pz53sy960v3Mf0F5kR35Jg7q0Ta.png", "name": "Ex Nihilo", "origin_country": "FR"}], "production_countries": [{"iso_3166_1": "IS", "name": "Iceland"}], "release_date": "2008-08-08", "revenue": 0, "runtime": 92, "spoken_languages": [{"iso_639_1": "en", "name": "English"}, {"iso_639_1": "is", "name": "\u00cdslenska"}], "status": "Released", "tagline": "", "title": "Back Soon", "video": false, "vote_average": 6.6, "vote_count": 8, "keywords": {"keywords": [{"id": 187056, "name": "woman director"}]}, "similar": {"page": 1, "results": [{"adult": false, "backdrop_path": "/cADbqsIoiDW7X3Myg9nz8eAuno5.jpg", "genre_ids": [18, 10749], "id": 10818, "original_language": "fr", "original_title": "Naissance des pieuvres", "overview": "Set during a sultry summer in a French suburb, Marie is desperate to join the local pool's synchronized swimming team, but is her interest solely for the sake of sport or for a chance to get close to Floriane, the bad girl of the team? Sciamma, and the two leads, capture the uncertainty of teenage sexuality with a sympathetic eye in this delicate drama of the angst of coming-of-age.", "poster_path": "/4jajELYrR4Xmv3CVoKnukRnALa2.jpg", "release_date": "2007-05-17", "title": "Water Lilies", "video": false, "vote_average": 6.1, "vote_count": 119, "popularity": 9.614}, {"adult": false, "backdrop_path": "/gZeJziVigmRqbkEZwKAtSqlLQ6s.jpg", "genre_ids": [18, 10749], "id": 370663, "original_language": "en", "original_title": "Below Her Mouth", "overview": "An unexpected affair quickly escalates into a heart-stopping reality for two women whose passionate connection changes their lives forever.", "poster_path": "/nTGbq37hYLuNy7YgMg0gVLma0NS.jpg", "release_date": "2016-09-10", "title": "Below Her Mouth", "video": false, "vote_average": 6.2, "vote_count": 456, "popularity": 18.664}, {"adult": false, "backdrop_path": "/dvQDRfv3qvfHNnVAR57ouVsuErf.jpg", "genre_ids": [10749, 18], "id": 28031, "original_language": "en", "original_title": "If These Walls Could Talk 2", "overview": "The stories of three lesbian couples -- who live in the same house at different periods of time -- who are at a crossroads in their lives. In 1961, Edith loses her lover, Abby, to a stroke. Linda and Amy struggle with feminist issues in 1972. And, in 2000, Kal and Fran try to have a baby with the help of sperm donor.", "poster_path": "/xs7ODbmYQXCDhvXNvz5tF17T59H.jpg", "release_date": "2000-03-05", "title": "If These Walls Could Talk 2", "video": false, "vote_average": 7.1, "vote_count": 55, "popularity": 8.86}, {"adult": false, "backdrop_path": "/knczzNAjBXzSYkeWxoT1u9VNmjR.jpg", "genre_ids": [10749, 18], "id": 258480, "original_language": "en", "original_title": "Carol", "overview": "In 1950s New York, a department-store clerk who dreams of a better life falls for an older, married woman.", "poster_path": "/AbKa7ANxmui0Jmhh7gV7OSELKIL.jpg", "release_date": "2015-11-20", "title": "Carol", "video": false, "vote_average": 7.4, "vote_count": 2184, "popularity": 13.539}, {"adult": false, "backdrop_path": "/fZ8oFcREAr6wgWcXISGql0xyxjB.jpg", "genre_ids": [35, 18], "id": 39781, "original_language": "en", "original_title": "The Kids Are All Right", "overview": "Two women, Nic and Jules, brought a son and daughter into the world through artificial insemination. When one of their children reaches age, both kids go behind their mothers' backs to meet with the donor. Life becomes so much more interesting when the father, two mothers and children start to become attached to each other.", "poster_path": "/fPDeK4MmoGfi2X0oWZev7LrbMqM.jpg", "release_date": "2010-07-09", "title": "The Kids Are All Right", "video": false, "vote_average": 6.6, "vote_count": 923, "popularity": 12.159}, {"adult": false, "backdrop_path": "/rf6G51j0SZL0tP57I8gnqHTRFEr.jpg", "genre_ids": [35, 18, 10749], "id": 273153, "original_language": "fr", "original_title": "La belle saison", "overview": "In 1971, Carole and Delphine meet and fall in love in Paris. When Carole follows Delphine back to her family farm in Limousin, the two find lesbianism and feminism are not as easy in the countryside.", "poster_path": "/evvAkNMO5VJiy5qIo1Hu7fUfvVI.jpg", "release_date": "2015-08-19", "title": "Summertime", "video": false, "vote_average": 6.6, "vote_count": 162, "popularity": 11.575}, {"adult": false, "backdrop_path": "/s12HEmmkJfI2mjltI61hGm5kubD.jpg", "genre_ids": [35, 18, 10749], "id": 20770, "original_language": "en", "original_title": "But I'm a Cheerleader", "overview": "Megan is an all-American girl. A cheerleader. She has a boyfriend. But Megan doesn't like kissing her boyfriend very much. And she's pretty touchy with her cheerleader friends. Her conservative parents worry that she must be a lesbian and send her off to \"sexual redirection\" school, where she must, with other lesbians and gays learn how to be straight.", "poster_path": "/eDGH7CHSdkrYcuUJV1e0WS9DlQL.jpg", "release_date": "1999-12-09", "title": "But I'm a Cheerleader", "video": false, "vote_average": 6.8, "vote_count": 246, "popularity": 9.011}, {"adult": false, "backdrop_path": "/g3LYarEY9LjB28Ct2trwFN72gqZ.jpg", "genre_ids": [35], "id": 437557, "original_language": "en", "original_title": "Blockers", "overview": "When three parents discover their daughters\u2019 pact to lose their virginity at prom, they launch a covert one-night operation to stop the teens from sealing the deal.", "poster_path": "/uvlUQXg0AlpGzKukO11K7QtW3Yu.jpg", "release_date": "2018-03-14", "title": "Blockers", "video": false, "vote_average": 6.2, "vote_count": 1155, "popularity": 17.886}, {"adult": false, "backdrop_path": "/tzqeuHWMFihFbiLGHdalPgAcSf6.jpg", "genre_ids": [18, 10749], "id": 18620, "original_language": "en", "original_title": "Go Fish", "overview": "Max is a trendy, pretty, young lesbian, who is having trouble finding love. A friend sets her up with Ely, whom Max likes, but Ely is frumpy, homely, and older. Nor do they have much in common. Can Max learn to look past the packaging?", "poster_path": "/qrEFYrwykaGsY8NULYuYLLI7zrM.jpg", "release_date": "1994-06-10", "title": "Go Fish", "video": false, "vote_average": 5.0, "vote_count": 11, "popularity": 3.676}, {"adult": false, "backdrop_path": "/6tern9vOEwwmkDYC1vRCuO64z0C.jpg", "genre_ids": [10749, 18], "id": 475888, "original_language": "en", "original_title": "Tell It to the Bees", "overview": "Dr. Jean Markham returns to the town she left as a teenager to take over her late father's medical practice. When a school-yard scuffle lands Charlie in her surgery, she invites him to visit the hives in her garden and tell his secrets to the bees, as she once did. The new friendship between the boy and the bee keeper brings his mother Lydia into Jean's world.", "poster_path": "/Rj6zpHhMU1zFW3v28U4PSRSRgP.jpg", "release_date": "2019-05-03", "title": "Tell It to the Bees", "video": false, "vote_average": 6.4, "vote_count": 53, "popularity": 13.175}, {"adult": false, "backdrop_path": "/xOGEw8iywxcFMolV6SF6YdTdJTb.jpg", "genre_ids": [10402, 10749], "id": 52371, "original_language": "nl", "original_title": "LelleBelle", "overview": "19-year old Belle practices playing the violin diligently, but is unable to impart her music with a sensitive undertone. Her life changes when she discovers that sexual desire stimulates passion in her music.", "poster_path": "/nJVPgIq3icZMQ26p5uWIFdUZJfL.jpg", "release_date": "2010-10-08", "title": "LelleBelle", "video": false, "vote_average": 4.7, "vote_count": 41, "popularity": 13.747}, {"adult": false, "backdrop_path": "/baYbbMtKRDoDWYJeVWkbygAvAj8.jpg", "genre_ids": [18, 10749], "id": 31216, "original_language": "en", "original_title": "I Can't Think Straight", "overview": "I CAN'T THINK STRAIGHT is a 2007 romance movie about a London-based Jordanian of Palestinian descent, Tala, who is preparing for an elaborate wedding. A turn of events causes her to have an affair and subsequently fall in love with another woman, Leyla, a British Indian.", "poster_path": "/1kapga6rkM5wNuQBYw7sdE42CrA.jpg", "release_date": "2008-06-01", "title": "I Can't Think Straight", "video": false, "vote_average": 7.6, "vote_count": 109, "popularity": 7.815}, {"adult": false, "backdrop_path": "/tIFRPjIXQ3sYrmxbIeOu9K1JkUz.jpg", "genre_ids": [18, 10749], "id": 294, "original_language": "en", "original_title": "Desert Hearts", "overview": "The story of straight-edge literature professor Vivian who travels to Reno to get away from a relationship breakup when she falls in love with an attractive and unconventional girl named Cay.", "poster_path": "/b8JSmQSpYYJhctMtxNgqh0elENg.jpg", "release_date": "1985-10-01", "title": "Desert Hearts", "video": false, "vote_average": 7.3, "vote_count": 58, "popularity": 6.976}, {"id": 520172, "video": false, "vote_count": 0, "vote_average": 0.0, "title": "Happiest Season", "release_date": "2020-11-20", "original_language": "en", "original_title": "Happiest Season", "genre_ids": [35, 10749], "backdrop_path": null, "adult": false, "overview": "A young woman's plans to propose to her girlfriend while at her family's annual holiday party are upended when she discovers her partner hasn't yet come out to her conservative parents.", "poster_path": null, "popularity": 6.027}, {"id": 2255, "video": false, "vote_count": 772, "vote_average": 6.8, "title": "Chasing Amy", "release_date": "1997-04-04", "original_language": "en", "original_title": "Chasing Amy", "genre_ids": [35, 18, 10749], "backdrop_path": "/doKYVK61Vb8J1KUjlb9dNWkQNp6.jpg", "adult": false, "overview": "Holden and Banky are comic book artists. Everything is going good for them until they meet Alyssa, also a comic book artist. Holden falls for her, but his hopes are crushed when he finds out she's a lesbian.", "poster_path": "/4vFJileWrCGaBeobCmF0tXpQCUb.jpg", "popularity": 13.95}, {"id": 9813, "video": false, "vote_count": 128, "vote_average": 6.1, "title": "The Quiet", "release_date": "2005-09-12", "original_language": "en", "original_title": "The Quiet", "genre_ids": [18, 53], "backdrop_path": "/6eyWAZA4CEidZW1xXnQ4vlYBXTP.jpg", "adult": false, "overview": "After her widowed father dies, deaf teenager Dot moves in with her godparents, Olivia and Paul Deer. The Deers' daughter, Nina, is openly hostile to Dot, but that does not prevent her from telling her secrets to her silent stepsister, including the fact that she wants to kill her lecherous father.", "poster_path": "/GEqIE9YlmygHVUfS64LW2cwAAM.jpg", "popularity": 14.844}, {"adult": false, "backdrop_path": "/3YGy88nTV2e0wxZcKI1goiEN9oy.jpg", "genre_ids": [18, 10749], "id": 37636, "original_language": "en", "original_title": "High Art", "overview": "A young female intern at a small magazine company becomes involved with a drug-addicted lesbian photographer, both of whom seek to exploit each other for their respective careers, while slowly falling in love with each other.", "poster_path": "/qTg05RNJIvb9w4Z7XIcAZxuZmTn.jpg", "release_date": "1998-06-12", "title": "High Art", "video": false, "vote_average": 6.6, "vote_count": 61, "popularity": 7.422}, {"adult": false, "backdrop_path": "/caLMOD3ZJ3V7qjlxDXrzlJfBLgD.jpg", "genre_ids": [18, 10749], "id": 20, "original_language": "en", "original_title": "My Life Without Me", "overview": "A Pedro Almodovar production in which a fatally ill mother with only two months to live creates a list of things she wants to do before she dies with out telling her family of her illness.", "poster_path": "/vVj92VBFUBzjqzLvBiPVVlJDp78.jpg", "release_date": "2003-03-07", "title": "My Life Without Me", "video": false, "vote_average": 6.1, "vote_count": 220, "popularity": 10.382}, {"adult": false, "backdrop_path": "/k8H7ye6Sab7OrDJoo8Qp5WFGHGk.jpg", "genre_ids": [35, 10749, 18], "id": 244264, "original_language": "en", "original_title": "Laggies", "overview": "Overeducated and underemployed, 28 year old Megan is in the throes of a quarterlife crisis. Squarely into adulthood with no career prospects, no particular motivation to think about her future and no one to relate to, Megan is comfortable lagging a few steps behind - while her friends check off milestones and celebrate their new grown-up status. When her high-school sweetheart proposes, Megan panics and- given an unexpected opportunity to escape for a week - hides out in the home of her new friend, 16-year old Annika and Annika's world-weary single dad Craig.", "poster_path": "/dNcoXoRC7JHiqbe7k5Ufo6syiPP.jpg", "release_date": "2014-09-25", "title": "Laggies", "video": false, "vote_average": 6.1, "vote_count": 788, "popularity": 13.836}, {"id": 434714, "video": false, "vote_count": 32, "vote_average": 7.5, "title": "My Days of Mercy", "release_date": "2019-07-11", "original_language": "en", "original_title": "My Days of Mercy", "genre_ids": [18, 10749], "backdrop_path": "/7Lbzq33nMMIQtAfZAmSqG6ibLSg.jpg", "adult": false, "overview": "The daughter of a man on death row falls in love with a woman on the opposing side of her family's political cause.", "poster_path": "/adIPKAoKnKL9vCTkvfF4J9ZA7Ln.jpg", "popularity": 9.342}], "total_pages": 1446, "total_results": 28909}, "recommendations": {"page": 1, "results": [{"adult": false, "backdrop_path": "/s2PcTvwYKETjWLyHo3jsva88bAI.jpg", "genre_ids": [35], "id": 129432, "original_language": "en", "original_title": "Queen of Montreuil", "overview": "It's early summer and Agathe is back in France, at home in Montreuil. She has to get over her husband's death and return to her work as a film director. The unexpected arrival at her house of a couple of Icelanders, a sea lion and a neighbour that she has always desired yet never vanquished will give Agathe the strength to get her life back on track...", "poster_path": "/9KNoHmbxYeMsE9NXMjnq27Hqs3l.jpg", "release_date": "2012-08-31", "title": "Queen of Montreuil", "video": false, "vote_average": 6.2, "vote_count": 5, "popularity": 2.485}], "total_pages": 1, "total_results": 1}, "credits": {"cast": [{"cast_id": 2, "character": "Anna Hallgr\u00edmsd\u00f3ttir", "credit_id": "52fe4b3dc3a368484e17eb5b", "gender": 0, "id": 1031205, "name": "Didda J\u00f3nsd\u00f3ttir", "order": 0, "profile_path": "/gbyeSLHInSeosFPfqVDw4XvTJlH.jpg"}, {"cast_id": 21, "character": "Raphael", "credit_id": "5cb2b93c0e0a2626cec7c22d", "gender": 0, "id": 210199, "name": "Julien Cottereau", "order": 1, "profile_path": "/dtiXEYaHdT4IqLwt4nFkShsvoqd.jpg"}, {"cast_id": 16, "character": "Siggi", "credit_id": "5cb219b3c3a3683c2baf0457", "gender": 2, "id": 55584, "name": "Ingvar Eggert Sigur\u00f0sson", "order": 2, "profile_path": "/rRzLj3miinQxIpPxJUzMdV9ZJb6.jpg"}, {"cast_id": 22, "character": "\u00dalfur", "credit_id": "5cb2d86ec3a36808a2ac67a0", "gender": 0, "id": 2288200, "name": "\u00dalfur Aegisson", "order": 3, "profile_path": "/dNX7uKTQXuvxqC6XUj5ZYsfagyE.jpg"}, {"cast_id": 18, "character": "Tomas", "credit_id": "5cb2b8e19251412fb326ffdd", "gender": 2, "id": 118345, "name": "J\u00f6rundur Ragnarsson", "order": 4, "profile_path": "/pzspmf1ss2WonWPbNKRQpqKZUhz.jpg"}, {"cast_id": 20, "character": "Marta", "credit_id": "5cb2b917c3a3683c24af9048", "gender": 0, "id": 79817, "name": "\u00d3laf\u00eda Hr\u00f6nn J\u00f3nsd\u00f3ttir", "order": 5, "profile_path": "/cSUqyVHboNxNm3ee0DuenR77SUT.jpg"}, {"cast_id": 17, "character": "Crane Man", "credit_id": "5cb2b8c99251412fad26b349", "gender": 0, "id": 1113783, "name": "Frosti Run\u00f3lfsson", "order": 6, "profile_path": "/me3CQAxubN6v2kr69G0rGdLWCfR.jpg"}, {"cast_id": 6, "character": "Rapper", "credit_id": "55fefdff9251412950000809", "gender": 0, "id": 936630, "name": "Erpur Eyvindarson", "order": 7, "profile_path": null}, {"cast_id": 19, "character": "Kjartan", "credit_id": "5cb2b900c3a3683c24af9039", "gender": 0, "id": 1081313, "name": "Benedikt \u00c1rnason", "order": 8, "profile_path": null}, {"cast_id": 5, "character": "Houseguest", "credit_id": "55fefdf292514118240008c3", "gender": 0, "id": 545128, "name": "Alexander Briem", "order": 9, "profile_path": null}], "crew": [{"credit_id": "52fe4b3dc3a368484e17eb57", "department": "Directing", "gender": 1, "id": 1031204, "job": "Director", "name": "S\u00f3lveig Anspach", "profile_path": "/bWIvk1jeKDniRCjViMD4SgR3kAJ.jpg"}, {"credit_id": "55fefdbd925141529f003a18", "department": "Writing", "gender": 1, "id": 1031204, "job": "Writer", "name": "S\u00f3lveig Anspach", "profile_path": "/bWIvk1jeKDniRCjViMD4SgR3kAJ.jpg"}, {"credit_id": "55fefdd5c3a368132c004052", "department": "Writing", "gender": 0, "id": 1045681, "job": "Writer", "name": "Jean-Luc Gaget", "profile_path": null}, {"credit_id": "55fefe10c3a3681a40000963", "department": "Production", "gender": 0, "id": 1454219, "job": "Producer", "name": "Hl\u00edn J\u00f3hannesd\u00f3ttir", "profile_path": null}, {"credit_id": "55fefe20c3a368133b00355b", "department": "Production", "gender": 2, "id": 18827, "job": "Producer", "name": "Skuli Fr. Malmquist", "profile_path": null}, {"credit_id": "55fefe2dc3a368132c00405c", "department": "Production", "gender": 0, "id": 18828, "job": "Producer", "name": "Thor Sigurjonsson", "profile_path": null}, {"credit_id": "55fefe3a925141529f003a22", "department": "Production", "gender": 2, "id": 991466, "job": "Producer", "name": "Patrick Sobelman", "profile_path": null}, {"credit_id": "55fefe6a925141529f003a2b", "department": "Editing", "gender": 0, "id": 1271778, "job": "Editor", "name": "Anne Riegel", "profile_path": null}, {"credit_id": "572b64399251416b24000826", "department": "Sound", "gender": 2, "id": 1161277, "job": "Original Music Composer", "name": "Martin Wheeler", "profile_path": null}, {"credit_id": "572bb957c3a3681efa0006af", "department": "Camera", "gender": 2, "id": 79815, "job": "Director of Photography", "name": "Bergsteinn Bj\u00f6rg\u00falfsson", "profile_path": "/uQQlT9nxSSKRHkvWjA3GXAfOwik.jpg"}]}}