{"adult": false, "backdrop_path": null, "belongs_to_collection": null, "budget": 0, "genres": [{"id": 80, "name": "Crime"}, {"id": 18, "name": "Drama"}], "homepage": null, "id": 130243, "imdb_id": "tt0030981", "original_language": "en", "original_title": "Wives Under Suspicion", "overview": "A merciless district attorney prosecutes a case that mirrors his own life.", "popularity": 1.823, "poster_path": "/q9m6Wj2kpsPyxgDjDe6Lq9hqhmo.jpg", "production_companies": [{"id": 33, "logo_path": "/8lvHyhjr8oUKOOy2dKXoALWKdp0.png", "name": "Universal Pictures", "origin_country": "US"}], "production_countries": [{"iso_3166_1": "US", "name": "United States of America"}], "release_date": "1938-06-03", "revenue": 0, "runtime": 69, "spoken_languages": [{"iso_639_1": "en", "name": "English"}], "status": "Released", "tagline": "The looks that pass between man and wife... Hiding words they dare not say!", "title": "Wives Under Suspicion", "video": false, "vote_average": 6.5, "vote_count": 4, "keywords": {"keywords": [{"id": 931, "name": "jealousy"}, {"id": 33518, "name": "district attorney"}, {"id": 184422, "name": "neglected wife"}]}, "similar": {"page": 1, "results": [{"adult": false, "backdrop_path": "/dVDdABRCmQglgXod01GMHgtkS8k.jpg", "genre_ids": [18, 10749], "id": 713, "original_language": "en", "original_title": "The Piano", "overview": "After a long voyage from Scotland, pianist Ada McGrath and her young daughter, Flora, are left with all their belongings, including a piano, on a New Zealand beach. Ada, who has been mute since childhood, has been sold into marriage to a local man named Alisdair Stewart. Making little attempt to warm up to Alisdair, Ada soon becomes intrigued by his Maori-friendly acquaintance, George Baines, leading to tense, life-altering conflicts.", "poster_path": "/rx8RKXn8OtuS6lqloYsjyrGOUp4.jpg", "release_date": "1993-05-19", "title": "The Piano", "video": false, "vote_average": 7.4, "vote_count": 652, "popularity": 15.318}, {"adult": false, "backdrop_path": "/84kMxZoaw958LrBNqSQqxFJEDXI.jpg", "genre_ids": [18, 10749], "id": 27066, "original_language": "it", "original_title": "L'uomo che guarda", "overview": "At a college in Rome, a professor, nicknamed \"Dodo\" is in a deep depression. His stunningly beautiful wife has just left him for another man. Dodo wants her back very badly and has erotic daydreams about her. A beautiful young student in his class asks him for a ride home and seduces the lucky man, but still he wonders about his wife and her lover.", "poster_path": "/ndMErDbUC7lSiKoWeUfzdMs3OpV.jpg", "release_date": "1994-01-27", "title": "The Voyeur", "video": false, "vote_average": 4.4, "vote_count": 82, "popularity": 11.247}, {"adult": false, "backdrop_path": "/bYbnlh6VXFRtcSX82UMDsBDLB5j.jpg", "genre_ids": [18, 10749], "id": 28468, "original_language": "it", "original_title": "La chiave", "overview": "After twenty years of marriage, art professor Nino Rolfe attempts to break down his wife Teresa's conventional modesty. Noticing her affection for their daughter's fianc\u00e9, Nino instigates her sexual interest in him as well. This sets off a chain of unexpected events and emotional complications, as Nino and his unpredictable fascist daughter find that they both enjoy being jealous.", "poster_path": "/e6g2geNLgFzMbriH6EvSJZD78nx.jpg", "release_date": "1983-10-18", "title": "The Key", "video": false, "vote_average": 5.0, "vote_count": 128, "popularity": 15.363}, {"id": 521, "video": false, "vote_count": 1257, "vote_average": 8.0, "title": "Dial M for Murder", "release_date": "1954-05-29", "original_language": "en", "original_title": "Dial M for Murder", "genre_ids": [80, 18, 9648, 53], "backdrop_path": "/jVMlfESb0TJ29w8CUDDofEprMmn.jpg", "adult": false, "overview": "An ex-tennis pro carries out a plot to have his wife murdered after discovering she is having an affair, and assumes she will soon leave him for the other man anyway. When things go wrong, he improvises a new plan\u2014to frame her for murder instead.", "poster_path": "/xrpK1PyckNWmRxU4kZURfaCyboS.jpg", "popularity": 28.336}, {"adult": false, "backdrop_path": "/ecREZ3vYCqethftSDWK4we0X498.jpg", "genre_ids": [35, 18, 10749], "id": 4507, "original_language": "es", "original_title": "Jam\u00f3n, jam\u00f3n", "overview": "Jose Luis is an executive at his parents underwear factory where his girlfriend Sylvia works on the shop floor. When Sylvia becomes pregnant, Jose Luis promises her that he will marry her, most likely against the wishes of his parents. Jose Luis' mother is determined to break her son's engagement to a girl from a lower-class family, and hires Raul, a potential underwear model and would-be bullfighter to seduce Sylvia.", "poster_path": "/v5Fq01ZtYnA2Grxdd3g8CuGZARg.jpg", "release_date": "1992-09-03", "title": "Jamon Jamon", "video": false, "vote_average": 6.1, "vote_count": 143, "popularity": 13.381}, {"id": 116, "video": false, "vote_count": 2413, "vote_average": 7.3, "title": "Match Point", "release_date": "2005-10-26", "original_language": "en", "original_title": "Match Point", "genre_ids": [80, 18, 53, 10749], "backdrop_path": "/40gCaXoyT75wuLbz1t5BwpLm0w4.jpg", "adult": false, "overview": "Match Point is Woody Allen\u2019s satire of the British High Society and the ambition of a young tennis instructor to enter into it. Yet when he must decide between two women - one assuring him his place in high society, and the other that would take him far from it - palms start to sweat and a dark psychological match in his head begins.", "poster_path": "/zuSFZEbSs7hj9lfeu2k7a4bPxdE.jpg", "popularity": 15.699}, {"adult": false, "backdrop_path": "/chJKYldpfDY9F9sJPwGfeeuHdYc.jpg", "genre_ids": [18, 10749], "id": 1628, "original_language": "fr", "original_title": "Jules et Jim", "overview": "In the carefree days before World War I, introverted Austrian author Jules strikes up a friendship with the exuberant Frenchman Jim. Both men fall for the impulsive and beautiful Catherine, but it's Jules who wins her hand. After the war, Jim visits Jules, Catherine and their daughter in their Austrian home and discovers not only that his feelings for Catherine are unchanged, but also that they're reciprocated.", "poster_path": "/x4DeQiDAfPG3IMe1jKUcn8l9rUV.jpg", "release_date": "1962-01-23", "title": "Jules and Jim", "video": false, "vote_average": 7.8, "vote_count": 413, "popularity": 11.273}, {"id": 1903, "video": false, "vote_count": 2237, "vote_average": 6.8, "title": "Vanilla Sky", "release_date": "2001-12-10", "original_language": "en", "original_title": "Vanilla Sky", "genre_ids": [18, 14, 878, 53, 10749], "backdrop_path": "/6XwX3HzKhlBUbTy2qZx0THQOu2T.jpg", "adult": false, "overview": "David Aames has it all: wealth, good looks and gorgeous women on his arm. But just as he begins falling for the warmhearted Sofia, his face is horribly disfigured in a car accident. That's just the beginning of his troubles as the lines between illusion and reality, between life and death, are blurred.", "poster_path": "/ujMy9P4VczTW9YSpAM31uqdOMpz.jpg", "popularity": 16.046}, {"id": 93, "video": false, "vote_count": 414, "vote_average": 7.9, "title": "Anatomy of a Murder", "release_date": "1959-07-01", "original_language": "en", "original_title": "Anatomy of a Murder", "genre_ids": [80, 18, 9648, 53], "backdrop_path": "/aFfbSVwzXH5tCi5MQN0idkoFbk0.jpg", "adult": false, "overview": "The film pits a humble small-town lawyer against a hard-headed big city prosecutor. Emotions flare as a jealous army lieutenant pleads innocent to murdering the rapist of his seductive, beautiful wife.", "poster_path": "/rZ9QOB1ZqTjg9j0ftfur4AndoDa.jpg", "popularity": 14.413}, {"adult": false, "backdrop_path": "/ojsY0XyCSsJvm0n7YTwumQcvBqT.jpg", "genre_ids": [9648, 53], "id": 1586, "original_language": "en", "original_title": "Secret Window", "overview": "Mort Rainey, a writer just emerging from a painful divorce with his ex-wife, is stalked at his remote lake house by a psychotic stranger and would-be scribe who claims Rainey swiped his best story idea. But as Rainey endeavors to prove his innocence, he begins to question his own sanity.", "poster_path": "/f5t7Df50xjniLlE80ty2dYsZBqI.jpg", "release_date": "2004-03-12", "title": "Secret Window", "video": false, "vote_average": 6.5, "vote_count": 2126, "popularity": 19.288}, {"id": 577, "video": false, "vote_count": 383, "vote_average": 6.6, "title": "To Die For", "release_date": "1995-09-22", "original_language": "en", "original_title": "To Die For", "genre_ids": [35, 80, 18], "backdrop_path": "/gx5X7KK3Uw2A81xuYxP4yXKHTkZ.jpg", "adult": false, "overview": "Suzanne Stone wants to be a world-famous news anchor and she is willing to do anything to get what she wants. What she lacks in intelligence, she makes up for in cold determination and diabolical wiles. As she pursues her goal with relentless focus, she is forced to destroy anything and anyone that may stand in her way, regardless of the ultimate cost or means necessary.", "poster_path": "/zCREx8trzejNieDLUsRuwLU0cS3.jpg", "popularity": 14.209}, {"id": 1213, "video": false, "vote_count": 1611, "vote_average": 7.2, "title": "The Talented Mr. Ripley", "release_date": "1999-12-25", "original_language": "en", "original_title": "The Talented Mr. Ripley", "genre_ids": [80, 18, 53], "backdrop_path": "/pOm4IfypKwWUKjM5G2SZ2HSrJyM.jpg", "adult": false, "overview": "Tom Ripley is a calculating young man who believes it's better to be a fake somebody than a real nobody. Opportunity knocks in the form of a wealthy U.S. shipbuilder who hires Tom to travel to Italy to bring back his playboy son, Dickie. Ripley worms his way into the idyllic lives of Dickie and his girlfriend, plunging into a daring scheme of duplicity, lies and murder.", "poster_path": "/lNVD3OADzRxaqbnN1ThdgB0Fuoe.jpg", "popularity": 17.387}, {"adult": false, "backdrop_path": "/fbgXqaziCWTzjSEpfXdMFi2xFiu.jpg", "genre_ids": [18], "id": 5721, "original_language": "en", "original_title": "Vixen!", "overview": "Vixen lives in a Canadian mountain resort with her naive pilot husband. While he's away flying in tourists, she gets it on with practically everybody including a husband and his wife, and even her biker brother. She is openly racist, and she makes it clear that she won't do the wild thing with her brother's biker friend, who is black.", "poster_path": "/iO2N7LnWjF0Pf4nDwaGrO9ghYU8.jpg", "release_date": "1968-10-15", "title": "Vixen!", "video": false, "vote_average": 5.5, "vote_count": 37, "popularity": 6.305}, {"adult": false, "backdrop_path": "/vVK04ayDtN2186jgkCtFjvw8IlN.jpg", "genre_ids": [18, 10749], "id": 4148, "original_language": "en", "original_title": "Revolutionary Road", "overview": "A young couple living in a Connecticut suburb during the mid-1950s struggle to come to terms with their personal problems while trying to raise their two children. Based on a novel by Richard Yates.", "poster_path": "/bnOK1lmdlqdy2HX6IgKx9TQD7Ax.jpg", "release_date": "2008-12-19", "title": "Revolutionary Road", "video": false, "vote_average": 6.9, "vote_count": 2092, "popularity": 19.466}, {"id": 12531, "video": false, "vote_count": 91, "vote_average": 6.9, "title": "The Apartment", "release_date": "1996-07-27", "original_language": "fr", "original_title": "L'Appartement", "genre_ids": [18, 9648, 10749], "backdrop_path": "/64qyT8m4JQ6YODvXxtbHgKmXBX7.jpg", "adult": false, "overview": "A stylish suspense thriller that confounds the audience while presenting them with an extraordinary and elusive mystery. Max is a former playboy who has decided to settle down by marrying his current love, Muriel. However, during a business trip, Max catches a glimpse of the great lost love of his life, reviving his wanderlust and sending him off on a chase of the elusive Lisa, whom he had overheard suggesting to a friend that her lover, Daniel, had killed someone for her. Soon, Max is trying to unravel the mystery behind the suspicious death of Daniel's wife, which he hopes will lead him closer to Lisa.", "poster_path": "/1sqrQdQTn8jKLhUcPKfRVj639zA.jpg", "popularity": 19.17}, {"adult": false, "backdrop_path": "/a8xpxCnvqKyshdrDNFGs6oy4r8N.jpg", "genre_ids": [18, 10749], "id": 1278, "original_language": "en", "original_title": "The Dreamers", "overview": "A young American studying in Paris in 1968 strikes up a friendship with a French brother and sister. Set against the background of the '68 Paris student riots.", "poster_path": "/7ABcfmXQZeCXl5sNrDuLS1URMPN.jpg", "release_date": "2003-09-01", "title": "The Dreamers", "video": false, "vote_average": 7.2, "vote_count": 1671, "popularity": 15.849}, {"id": 38, "video": false, "vote_count": 8445, "vote_average": 8.1, "title": "Eternal Sunshine of the Spotless Mind", "release_date": "2004-03-19", "original_language": "en", "original_title": "Eternal Sunshine of the Spotless Mind", "genre_ids": [18, 878, 10749], "backdrop_path": "/1dXTsaFxHoF9cas08UjAqE8NqOW.jpg", "adult": false, "overview": "Joel Barish, heartbroken that his girlfriend underwent a procedure to erase him from her memory, decides to do the same. However, as he watches his memories of her fade away, he realises that he still loves her, and may be too late to correct his mistake.", "poster_path": "/7y3eYvTsGjxPYDtSnumCLIMDkrV.jpg", "popularity": 22.427}, {"id": 10545, "video": false, "vote_count": 3018, "vote_average": 7.0, "title": "The Hunchback of Notre Dame", "release_date": "1996-06-21", "original_language": "en", "original_title": "The Hunchback of Notre Dame", "genre_ids": [16, 18, 10751], "backdrop_path": "/oslaee3VX9kJAjVezbjZKlEJDzn.jpg", "adult": false, "overview": "When Quasimodo defies the evil Frollo and ventures out to the Festival of Fools, the cruel crowd jeers him. Rescued by fellow outcast the gypsy Esmeralda, Quasi soon finds himself battling to save the people and the city he loves.", "poster_path": "/r7V92gY3AMO6li17MmGTixAnFcv.jpg", "popularity": 28.041}, {"id": 44214, "video": false, "vote_count": 9192, "vote_average": 7.6, "title": "Black Swan", "release_date": "2010-12-03", "original_language": "en", "original_title": "Black Swan", "genre_ids": [18, 27, 53], "backdrop_path": "/t8jFs6cOl1YVSfXXZivWtEb14tF.jpg", "adult": false, "overview": "A journey through the psyche of a young ballerina whose starring role as the duplicitous swan queen turns out to be a part for which she becomes frighteningly perfect.", "poster_path": "/dQ7uxvsVTspVIsqjfgQj8usJpwX.jpg", "popularity": 24.558}, {"adult": false, "backdrop_path": "/98ahnrena4PwLth7HFYGLf9yssH.jpg", "genre_ids": [35, 18, 10749], "id": 22705, "original_language": "it", "original_title": "Tra(sgre)dire", "overview": "While scouting out apartments in London for her Venetian boyfriend, Carla rents an apartment that overlooks the Thames. There she meet the lesbian hyper-horny real estate agent Moira.", "poster_path": "/kZITrLEiTfzzJhtwtXhQUl3ImCQ.jpg", "release_date": "2000-01-28", "title": "Cheeky", "video": false, "vote_average": 5.7, "vote_count": 92, "popularity": 30.42}], "total_pages": 73, "total_results": 1454}, "recommendations": {"page": 1, "results": [{"adult": false, "backdrop_path": "/2bztsYWIjruUTZrMYUKEOC1RQb6.jpg", "genre_ids": [18, 80], "id": 84651, "original_language": "en", "original_title": "Crime Doctor", "overview": "Robert is found beside the highway with a head injury and amnesia. His amnesia motivates him to  become a Physician and the country's leading criminal psychologist.", "poster_path": "/chocsRJ4GjnSBqeei63kSpqtpRD.jpg", "release_date": "1943-06-22", "title": "Crime Doctor", "video": false, "vote_average": 6.3, "vote_count": 4, "popularity": 2.879}, {"adult": false, "backdrop_path": "/dxU57Yo5mJPsX5jWGxNyreoaEFv.jpg", "genre_ids": [12, 80], "id": 28755, "original_language": "en", "original_title": "Framed", "overview": "Rose Manning swears revenge for the unjust slaying of her father by Inspector McArthur. Five years later, as a nightclub hostess, she is sought by Chuck Gaines, secretly a bootlegger, but she centers her attentions on young Jimmy Carter, who, she learns, is the son of McArthur.", "poster_path": "/hBmGZUcAMVP4P7nwilBQIJNgbUZ.jpg", "release_date": "1930-03-16", "title": "Framed", "video": false, "vote_average": 6.3, "vote_count": 3, "popularity": 2.001}, {"adult": false, "backdrop_path": "/8lmRgADYhFd0FxF2yMKNusUEi7E.jpg", "genre_ids": [10749, 18], "id": 44668, "original_language": "en", "original_title": "She Had to Say Yes", "overview": "Florence Denny (Loretta Young) is Daniel Drew's (Lyle Talbot) girlfriend and secretary at a clothing manufacturer during the Great Depression. In order boost sales they have been using professional female entertainers to keep their clients very happy, but the clients are getting bored of them. Daniel convinces management to replace the professionals with \"volunteers\" from the pool of stenographers. Inevitably some clients expectations are greater than their \"dates\", boyfriends become unhappy and the \"voluntary\" duty becomes less so over time.  At first, Daniel prevents Florence from being a volunteer but eventually the prospect of a bonus becomes too great and he encourages her to volunteer. Afterwards, Daniel considers Florence as a loose woman.", "poster_path": "/tGRK9wdVkaW2j5vlE5B5MxsjGA6.jpg", "release_date": "1933-07-15", "title": "She Had to Say Yes", "video": false, "vote_average": 7.0, "vote_count": 3, "popularity": 4.075}, {"adult": false, "backdrop_path": "/c4zdCoVAHxI8U5rEnPvgEQwlTmv.jpg", "genre_ids": [80], "id": 46490, "original_language": "en", "original_title": "For You I Die", "overview": "A convict is forced to participate in a prison break even though he only has a year left on his sentence.", "poster_path": "/kYBAfozroCambQhuDdiEVUASWPW.jpg", "release_date": "1947-12-17", "title": "For You I Die", "video": false, "vote_average": 6.0, "vote_count": 3, "popularity": 2.196}], "total_pages": 1, "total_results": 4}, "credits": {"cast": [{"cast_id": 2, "character": "District Attorney Jim Stowell", "credit_id": "52fe4b54c3a368484e183b1b", "gender": 2, "id": 76974, "name": "Warren William", "order": 0, "profile_path": "/7SYBx7c5q9ftNtOSjEGBaIrjNJS.jpg"}, {"cast_id": 3, "character": "Lucy Stowell", "credit_id": "52fe4b54c3a368484e183b1f", "gender": 1, "id": 98574, "name": "Gail Patrick", "order": 1, "profile_path": "/vCdZttcsdbWhkLUygrV2bUpf1Lw.jpg"}, {"cast_id": 4, "character": "Elizabeth", "credit_id": "52fe4b54c3a368484e183b23", "gender": 1, "id": 33774, "name": "Constance Moore", "order": 2, "profile_path": "/si5D4osaYyrVHVICogDmdBGf4gj.jpg"}, {"cast_id": 5, "character": "Phil", "credit_id": "52fe4b54c3a368484e183b27", "gender": 2, "id": 18805, "name": "William Lundigan", "order": 3, "profile_path": "/bY1TCCSltVJLPedbChOOQA16mYC.jpg"}, {"cast_id": 6, "character": "Shaw MacAllen", "credit_id": "52fe4b54c3a368484e183b2b", "gender": 2, "id": 103449, "name": "Ralph Morgan", "order": 4, "profile_path": "/5By4MqjMaQY7aOx1kninnw5331N.jpg"}, {"cast_id": 7, "character": "\"Sharpy\"", "credit_id": "52fe4b54c3a368484e183b2f", "gender": 1, "id": 77160, "name": "Cecil Cunningham", "order": 5, "profile_path": "/sNksWLUlYa6hVXDscUXBhX3tkEx.jpg"}, {"cast_id": 8, "character": "David Marrow", "credit_id": "52fe4b54c3a368484e183b33", "gender": 2, "id": 17756, "name": "Samuel S. Hinds", "order": 6, "profile_path": "/3VrGfCOsIdEvsbJPodAEqHRsmp1.jpg"}, {"cast_id": 9, "character": "Kirk", "credit_id": "536f6e4fc3a3683bf90057b3", "gender": 2, "id": 86356, "name": "Milburn Stone", "order": 7, "profile_path": "/iXXFPiVm23BySExJ00kFllDYQFB.jpg"}, {"cast_id": 10, "character": "Creola", "credit_id": "536f6e5cc3a368124a00e6c1", "gender": 1, "id": 399224, "name": "Lillian Yarbo", "order": 8, "profile_path": "/oKkFbrfvxOyoBL6BUePn18i6b2Y.jpg"}, {"cast_id": 11, "character": "Allison", "credit_id": "536f6e66c3a368121800e0f8", "gender": 2, "id": 12502, "name": "Jonathan Hale", "order": 9, "profile_path": "/ajOXZDy3XsZkZ3OqsMBejg8BFXG.jpg"}], "crew": [{"credit_id": "52fe4b54c3a368484e183b17", "department": "Directing", "gender": 2, "id": 2917, "job": "Director", "name": "James Whale", "profile_path": "/xyJ2YCs8eUZoPQ5SUHGadFosEWR.jpg"}, {"credit_id": "5859c0f692514122d200b6c6", "department": "Sound", "gender": 2, "id": 6457, "job": "Original Music Composer", "name": "Charles Henderson", "profile_path": null}, {"credit_id": "5b28ff32c3a36847ab00454e", "department": "Sound", "gender": 2, "id": 13957, "job": "Music Director", "name": "Charles Previn", "profile_path": null}, {"credit_id": "5859c0d39251416fad06eca0", "department": "Art", "gender": 2, "id": 13958, "job": "Art Direction", "name": "Jack Otterson", "profile_path": null}, {"credit_id": "5820ce6a925141206a0009f3", "department": "Camera", "gender": 2, "id": 29635, "job": "Director of Photography", "name": "George Robinson", "profile_path": null}, {"credit_id": "5859c0e2c3a3682fb80839df", "department": "Costume & Make-Up", "gender": 2, "id": 29813, "job": "Makeup Artist", "name": "Jack P. Pierce", "profile_path": "/c2aJVAbSInjwOlqvVd3UbLmg4I9.jpg"}, {"credit_id": "5859c113925141594101ea5e", "department": "Sound", "gender": 2, "id": 30104, "job": "Original Music Composer", "name": "Frank Skinner", "profile_path": "/iXSLNqs6Rf9ynJ9TzNSpabNO2iW.jpg"}, {"credit_id": "5b28ff860e0a2659d1005597", "department": "Sound", "gender": 2, "id": 34413, "job": "Sound", "name": "Edwin Wetzel", "profile_path": null}, {"credit_id": "5859c0bac3a368258c0698c0", "department": "Production", "gender": 2, "id": 41753, "job": "Associate Producer", "name": "Edmund Grainger", "profile_path": null}, {"credit_id": "5e1b69f1e7c097001353c835", "department": "Writing", "gender": 2, "id": 45621, "job": "Author", "name": "Ladislas Fodor", "profile_path": null}, {"credit_id": "5b28fed10e0a2659af005111", "department": "Writing", "gender": 2, "id": 45621, "job": "Theatre Play", "name": "Ladislas Fodor", "profile_path": null}, {"credit_id": "5859c09ac3a3682dfe0729aa", "department": "Writing", "gender": 2, "id": 70496, "job": "Screenplay", "name": "Myles Connolly", "profile_path": null}, {"credit_id": "5859c0c79251416fad06ec99", "department": "Editing", "gender": 2, "id": 1018363, "job": "Editor", "name": "Charles Maynard", "profile_path": null}, {"credit_id": "5b28ff72c3a36847c80061b7", "department": "Sound", "gender": 2, "id": 1567996, "job": "Sound", "name": "Robert Pritchard", "profile_path": null}]}}