{"adult": false, "backdrop_path": "/7RwQd1Mp7AIdqnO6Vc6lIbbiAZy.jpg", "belongs_to_collection": null, "budget": 0, "genres": [{"id": 18, "name": "Drama"}], "homepage": null, "id": 130933, "imdb_id": "tt0049317", "original_language": "en", "original_title": "Hilda Crane", "overview": "After two failed marriages, a disillusioned woman returns to her hometown to start life anew. Director Philip Dunne's 1956 drama stars Jean Simmons, Guy Madison, Jean Pierre Aumont, Judith Evelyn, Evelyn Varden, Peggy Knudsen and Gregg Palmer.", "popularity": 2.309, "poster_path": "/eubwnM8XOeGr2um0qQgzDvWKOc6.jpg", "production_companies": [{"id": 25, "logo_path": "/qZCc1lty5FzX30aOCVRBLzaVmcp.png", "name": "20th Century Fox", "origin_country": "US"}], "production_countries": [{"iso_3166_1": "US", "name": "United States of America"}], "release_date": "1956-05-08", "revenue": 0, "runtime": 87, "spoken_languages": [{"iso_639_1": "en", "name": "English"}], "status": "Released", "tagline": "I want to live like a man ... and still be a woman!", "title": "Hilda Crane", "video": false, "vote_average": 6.0, "vote_count": 1, "keywords": {"keywords": [{"id": 970, "name": "parent child relationship"}, {"id": 1415, "name": "small town"}, {"id": 18053, "name": "divorcee"}, {"id": 18453, "name": "gossip"}, {"id": 156064, "name": "homecoming"}]}, "similar": {"page": 1, "results": [{"adult": false, "backdrop_path": "/eB43LYncKDJS3p5xYSUN9dUrL2A.jpg", "genre_ids": [18], "id": 205587, "original_language": "en", "original_title": "The Judge", "overview": "A successful lawyer returns to his hometown for his mother's funeral only to discover that his estranged father, the town's judge, is suspected of murder.", "poster_path": "/v6s65U6qisvxWgO3cNnreaaaite.jpg", "release_date": "2014-10-08", "title": "The Judge", "video": false, "vote_average": 7.3, "vote_count": 2564, "popularity": 22.668}, {"id": 8204, "video": false, "vote_count": 1537, "vote_average": 6.5, "title": "The Spiderwick Chronicles", "release_date": "2008-02-14", "original_language": "en", "original_title": "The Spiderwick Chronicles", "genre_ids": [12, 18, 14, 10751], "backdrop_path": "/2Uwv3eUDRJ9UcjN8AlSg4GDm6TN.jpg", "adult": false, "overview": "Upon moving into the run-down Spiderwick Estate with their mother, twin brothers Jared and Simon Grace, along with their sister Mallory, find themselves pulled into an alternate world full of faeries and other creatures.", "poster_path": "/nSLjsBDzwsIpQL534CNfAKidyAm.jpg", "popularity": 13.069}, {"id": 334, "video": false, "vote_count": 1849, "vote_average": 7.7, "title": "Magnolia", "release_date": "1999-12-10", "original_language": "en", "original_title": "Magnolia", "genre_ids": [18], "backdrop_path": "/9In3XGQSdr2yfgUoEdCpqxEGAOO.jpg", "adult": false, "overview": "An epic mosaic of many interrelated characters in search of happiness, forgiveness, and meaning in the San Fernando Valley.", "poster_path": "/jxkHxPiMfGiFvxSOduNV4oIKJI5.jpg", "popularity": 17.203}, {"adult": false, "backdrop_path": "/hD8DQM72Xacg1d3mFqS0eN8vKYw.jpg", "genre_ids": [18], "id": 8272, "original_language": "en", "original_title": "The Savages", "overview": "A sister and brother face the realities of familial responsibility as they begin to care for their ailing father.", "poster_path": "/nY54gSmTOmSXlQpWDB7DWp4u8a7.jpg", "release_date": "2007-01-19", "title": "The Savages", "video": false, "vote_average": 6.9, "vote_count": 192, "popularity": 9.466}, {"id": 11816, "video": false, "vote_count": 215, "vote_average": 7.4, "title": "On Golden Pond", "release_date": "1981-12-01", "original_language": "en", "original_title": "On Golden Pond", "genre_ids": [18], "backdrop_path": "/j5cE2YUjyzEeRgWHuO2ccDL5Wps.jpg", "adult": false, "overview": "For Norman and Ethel Thayer, this summer on golden pond is filled with conflict and resolution. When their daughter Chelsea arrives, the family is forced to renew the bonds of love and overcome the generational friction that has existed for years. Norman must find his way through his anger and fear of growing old, while Chelsea struggles to rebuild their relationship. Ethel's consistent support of her \"Knight in shining armor\" is inspirational in its simplicity. This is a movie to ponder and always keep in your heart.", "poster_path": "/h88NQA1slcXmdmUKBjyymAEV8sS.jpg", "popularity": 9.427}, {"adult": false, "backdrop_path": "/caLMOD3ZJ3V7qjlxDXrzlJfBLgD.jpg", "genre_ids": [18, 10749], "id": 20, "original_language": "en", "original_title": "My Life Without Me", "overview": "A Pedro Almodovar production in which a fatally ill mother with only two months to live creates a list of things she wants to do before she dies with out telling her family of her illness.", "poster_path": "/vVj92VBFUBzjqzLvBiPVVlJDp78.jpg", "release_date": "2003-03-07", "title": "My Life Without Me", "video": false, "vote_average": 6.1, "vote_count": 220, "popularity": 10.382}, {"id": 9813, "video": false, "vote_count": 128, "vote_average": 6.1, "title": "The Quiet", "release_date": "2005-09-12", "original_language": "en", "original_title": "The Quiet", "genre_ids": [18, 53], "backdrop_path": "/6eyWAZA4CEidZW1xXnQ4vlYBXTP.jpg", "adult": false, "overview": "After her widowed father dies, deaf teenager Dot moves in with her godparents, Olivia and Paul Deer. The Deers' daughter, Nina, is openly hostile to Dot, but that does not prevent her from telling her secrets to her silent stepsister, including the fact that she wants to kill her lecherous father.", "poster_path": "/GEqIE9YlmygHVUfS64LW2cwAAM.jpg", "popularity": 14.844}, {"adult": false, "backdrop_path": "/9IfO3W1MUzDdpBqY1Ru6dzdJJld.jpg", "genre_ids": [18, 36, 10752, 28], "id": 2024, "original_language": "en", "original_title": "The Patriot", "overview": "After proving himself on the field of battle in the French and Indian War, Benjamin Martin wants nothing more to do with such things, preferring the simple life of a farmer. But when his son Gabriel enlists in the army to defend their new nation, America, against the British, Benjamin reluctantly returns to his old life to protect his son.", "poster_path": "/tgXOraQmKatqrVs2KMgnNn6QpO.jpg", "release_date": "2000-06-28", "title": "The Patriot", "video": false, "vote_average": 7.1, "vote_count": 2186, "popularity": 22.486}, {"adult": false, "backdrop_path": "/51fjuzYoJKvGW43j32nBpWW6Tm1.jpg", "genre_ids": [28, 80, 18, 53], "id": 111, "original_language": "en", "original_title": "Scarface", "overview": "After getting a green card in exchange for assassinating a Cuban government official, Tony Montana stakes a claim on the drug trade in Miami. Viciously murdering anyone who stands in his way, Tony eventually becomes the biggest drug lord in the state, controlling nearly all the cocaine that comes through Miami. But increased pressure from the police, wars with Colombian drug cartels and his own drug-fueled paranoia serve to fuel the flames of his eventual downfall.", "poster_path": "/zr2p353wrd6j3wjLgDT4TcaestB.jpg", "release_date": "1983-12-08", "title": "Scarface", "video": false, "vote_average": 8.1, "vote_count": 6147, "popularity": 29.172}, {"adult": false, "backdrop_path": "/avhG8fITuG78IkKPk28CcBBHPOp.jpg", "genre_ids": [35, 18], "id": 112160, "original_language": "fr", "original_title": "Chroniques sexuelles d'une famille d'aujourd'hui", "overview": "Three generations of a French family open up about their sexual experiences and desires after young Romain is caught masturbating in his biology class.", "poster_path": "/pU2nD3Llaz3Taq5FAaQUg00uJYD.jpg", "release_date": "2012-05-09", "title": "Sexual Chronicles of a French Family", "video": false, "vote_average": 4.4, "vote_count": 169, "popularity": 26.875}, {"id": 88, "video": false, "vote_count": 3464, "vote_average": 7.3, "title": "Dirty Dancing", "release_date": "1987-08-21", "original_language": "en", "original_title": "Dirty Dancing", "genre_ids": [18, 10402, 10749], "backdrop_path": "/ngDmpFRzNGr9XMtKchhBZjt4DLH.jpg", "adult": false, "overview": "Expecting the usual tedium that accompanies a summer in the Catskills with her family, 17-year-old Frances 'Baby' Houseman is surprised to find herself stepping into the shoes of a professional hoofer\u2014and unexpectedly falling in love.", "poster_path": "/jFoktPxTtabZfh9JeDy3F78g9w7.jpg", "popularity": 23.93}, {"adult": false, "backdrop_path": "/npClMhFGn4XUkwu6coq5oKAEu6L.jpg", "genre_ids": [35, 10749, 18], "id": 634, "original_language": "en", "original_title": "Bridget Jones's Diary", "overview": "A chaotic Bridget Jones meets a snobbish lawyer, and he soon enters her world of imperfections.", "poster_path": "/ym6kjFFZg6boC0QHBVw6hqJLbxv.jpg", "release_date": "2001-04-13", "title": "Bridget Jones's Diary", "video": false, "vote_average": 6.7, "vote_count": 3080, "popularity": 19.453}, {"id": 13, "video": false, "vote_count": 16610, "vote_average": 8.4, "title": "Forrest Gump", "release_date": "1994-07-06", "original_language": "en", "original_title": "Forrest Gump", "genre_ids": [35, 18, 10749], "backdrop_path": "/wMgbnUVS9wbRGAdki8fqxKU1O0N.jpg", "adult": false, "overview": "A man with a low IQ has accomplished great things in his life and been present during significant historic events\u2014in each case, far exceeding what anyone imagined he could do. But despite all he has achieved, his one true love eludes him.", "poster_path": "/yE5d3BUhE8hCnkMUJOo1QDoOGNz.jpg", "popularity": 41.886}, {"id": 1427, "video": false, "vote_count": 2511, "vote_average": 7.2, "title": "Perfume: The Story of a Murderer", "release_date": "2006-09-13", "original_language": "en", "original_title": "Perfume: The Story of a Murderer", "genre_ids": [80, 18, 14], "backdrop_path": "/3i8bJa5yvLZW2k4sg2Cd1Yy0a1x.jpg", "adult": false, "overview": "Jean-Baptiste Grenouille, born in the stench of 18th century Paris, develops a superior olfactory sense, which he uses to create the world's finest perfumes. However, his work takes a dark turn as he tries to preserve scents in the search for the ultimate perfume.", "poster_path": "/zC9JHS6NlkJKPYFxOOqBl7fQCjT.jpg", "popularity": 20.263}, {"adult": false, "backdrop_path": "/tUGSLoMcxNWZ0OIRSqDaB2jNbdE.jpg", "genre_ids": [12, 28, 18, 53], "id": 503, "original_language": "en", "original_title": "Poseidon", "overview": "A packed cruise ship traveling the Atlantic is hit and overturned by a massive wave, compelling the passengers to begin a dramatic fight for their lives.", "poster_path": "/yeiCuwMSHLmf7NoYzxiEAjkJHkg.jpg", "release_date": "2006-05-10", "title": "Poseidon", "video": false, "vote_average": 5.7, "vote_count": 1144, "popularity": 18.541}, {"adult": false, "backdrop_path": "/2lZYvShWuVThLM6Oo8zfakdBMqw.jpg", "genre_ids": [18, 10749], "id": 1365, "original_language": "en", "original_title": "Monster's Ball", "overview": "Set in the southern USA, a racist white man, Hank, falls in love with a black woman named Leticia. Ironically, Hank is a prison guard working on Death Row who executed Leticia's husband. Hank and Leticia's inter-racial affair leads to confusion and new ideas for the two unlikely lovers.", "poster_path": "/s7o0AyOFIYNjTe008pV6EZMI2IP.jpg", "release_date": "2001-11-11", "title": "Monster's Ball", "video": false, "vote_average": 6.7, "vote_count": 500, "popularity": 13.305}, {"id": 39254, "video": false, "vote_count": 4971, "vote_average": 6.8, "title": "Real Steel", "release_date": "2011-09-28", "original_language": "en", "original_title": "Real Steel", "genre_ids": [28, 18, 878], "backdrop_path": "/bwaMcX2zjfc3C7YLBWRnBnHEDHW.jpg", "adult": false, "overview": "Charlie Kenton is a washed-up fighter who retired from the ring when robots took over the sport. After his robot is trashed, he reluctantly teams up with his estranged son to rebuild and train an unlikely contender.", "poster_path": "/drtXi58nN6P3zcoLh6wUlsZAYqh.jpg", "popularity": 21.957}, {"id": 1164, "video": false, "vote_count": 2117, "vote_average": 7.1, "title": "Babel", "release_date": "2006-09-08", "original_language": "en", "original_title": "Babel", "genre_ids": [18], "backdrop_path": "/uHx9E9xqSgOBoRvL4shmMNu8Ojc.jpg", "adult": false, "overview": "Tragedy strikes a married couple on vacation in the Moroccan desert, touching off an interlocking story involving four different families.", "poster_path": "/fxneN0EQZwTfAfhTGUvUuIn6PLi.jpg", "popularity": 17.864}, {"id": 277216, "video": false, "vote_count": 2190, "vote_average": 7.7, "title": "Straight Outta Compton", "release_date": "2015-08-13", "original_language": "en", "original_title": "Straight Outta Compton", "genre_ids": [18, 10402], "backdrop_path": "/fdDTA06o5e7MRXnTGAf4EygL2MJ.jpg", "adult": false, "overview": "In 1987, five young men, using brutally honest rhymes and hardcore beats, put their frustration and anger about life in the most dangerous place in America into the most powerful weapon they had: their music.  Taking us back to where it all began, Straight Outta Compton tells the true story of how these cultural rebels\u2014armed only with their lyrics, swagger, bravado and raw talent\u2014stood up to the authorities that meant to keep them down and formed the world\u2019s most dangerous group, N.W.A.  And as they spoke the truth that no one had before and exposed life in the hood, their voice ignited a social revolution that is still reverberating today.", "poster_path": "/X7S1RtotXOZNV7OlgCfh5VKZSB.jpg", "popularity": 19.816}, {"id": 4347, "video": false, "vote_count": 2233, "vote_average": 7.6, "title": "Atonement", "release_date": "2007-08-29", "original_language": "en", "original_title": "Atonement", "genre_ids": [18, 10749], "backdrop_path": "/6WZFwJOKyitCqWkIj52HB34wddU.jpg", "adult": false, "overview": "As a 13-year-old, fledgling writer Briony Tallis irrevocably changes the course of several lives when she accuses her older sister's lover of a crime he did not commit.", "poster_path": "/quaWuwYZd8IbZMCOhW3CZEvyCWJ.jpg", "popularity": 16.832}], "total_pages": 170, "total_results": 3399}, "recommendations": {"page": 1, "results": [], "total_pages": 1, "total_results": 0}, "credits": {"cast": [{"cast_id": 3, "character": "Hilda Crane Burns", "credit_id": "52fe4b68c3a368484e187985", "gender": 1, "id": 14500, "name": "Jean Simmons", "order": 0, "profile_path": "/eAc5KHpLf9XJfMPLxHsF2jcVOxf.jpg"}, {"cast_id": 4, "character": "Russell Burns", "credit_id": "52fe4b68c3a368484e187989", "gender": 2, "id": 40201, "name": "Guy Madison", "order": 1, "profile_path": "/y1eCTH8DQaNyjYzWq46yby2KqjK.jpg"}, {"cast_id": 5, "character": "Prof. Jacques De Lisle", "credit_id": "52fe4b68c3a368484e18798d", "gender": 2, "id": 18766, "name": "Jean-Pierre Aumont", "order": 2, "profile_path": "/zmH3P6Wr5hkiRo8Rx060nhvAEdX.jpg"}, {"cast_id": 7, "character": "Mrs. Stella Crane", "credit_id": "582e0354925141094800c1a5", "gender": 1, "id": 7686, "name": "Judith Evelyn", "order": 3, "profile_path": "/vAVwSrgAhUKUNSjJiMOnA0RjMxu.jpg"}, {"cast_id": 8, "character": "Mrs. Burns", "credit_id": "582e0370c3a368773600a7c3", "gender": 1, "id": 30538, "name": "Evelyn Varden", "order": 4, "profile_path": "/nJp3VYN2zz9VOR5aF1dQGuw9gqC.jpg"}, {"cast_id": 9, "character": "Nell Bromley", "credit_id": "582e038fc3a368772600b0ee", "gender": 1, "id": 13978, "name": "Peggy Knudsen", "order": 5, "profile_path": "/tgo5Yo5otADYNWs00z4jUpmAAtv.jpg"}, {"cast_id": 10, "character": "Dink Bromley", "credit_id": "582e03a6c3a368772900b873", "gender": 2, "id": 16071, "name": "Gregg Palmer", "order": 6, "profile_path": "/q9spyHdzAWsaJSBGPRjTs4eu7L3.jpg"}, {"cast_id": 11, "character": "Clara", "credit_id": "582e03cec3a368772900b89b", "gender": 1, "id": 125848, "name": "Marie Blake", "order": 7, "profile_path": "/k92LxRg57dlCNvkIzjTYMXhr7ec.jpg"}, {"cast_id": 23, "character": "Dr. Joe Francis", "credit_id": "5b7ccd170e0a263bca00450d", "gender": 0, "id": 10542, "name": "Richard Garrick", "order": 8, "profile_path": "/8bFHKjb0VR6X3UhW2fyP27Khx9H.jpg"}, {"cast_id": 24, "character": "Mr. Small", "credit_id": "5b7ccd2e925141415c004106", "gender": 0, "id": 1216584, "name": "Jim Hayward", "order": 9, "profile_path": null}, {"cast_id": 25, "character": "Cab Driver", "credit_id": "5b7ccd3d92514141530038cc", "gender": 0, "id": 2112592, "name": "Sandee Marriott", "order": 10, "profile_path": null}, {"cast_id": 26, "character": "Mr. Jensen - Caterer", "credit_id": "5b7ccd4d9251414164004862", "gender": 2, "id": 562199, "name": "Don Shelton", "order": 11, "profile_path": null}, {"cast_id": 27, "character": "Maureen - Hilda's Maid", "credit_id": "5b7ccd5e0e0a263bcf004342", "gender": 0, "id": 2112593, "name": "Helen Mayon", "order": 12, "profile_path": null}, {"cast_id": 28, "character": "Minister", "credit_id": "5b7ccd710e0a263bcf004372", "gender": 2, "id": 165048, "name": "Jay Jostyn", "order": 13, "profile_path": "/mIXQpqD7Kts89XgbVtWXk2mVNFW.jpg"}], "crew": [{"credit_id": "5ab9ca459251414d3400d9de", "department": "Writing", "gender": 2, "id": 2432, "job": "Theatre Play", "name": "Samson Raphaelson", "profile_path": null}, {"credit_id": "5ab9ca5d0e0a26365700e1b6", "department": "Art", "gender": 2, "id": 3358, "job": "Art Direction", "name": "Lyle R. Wheeler", "profile_path": "/5VlwzRw76sAIVyehJxan8KC7CLo.jpg"}, {"credit_id": "5ab9ca6ac3a36871d200e5ad", "department": "Art", "gender": 2, "id": 9587, "job": "Set Decoration", "name": "Walter M. Scott", "profile_path": null}, {"credit_id": "58f90b5d9251415c0300d6ad", "department": "Sound", "gender": 2, "id": 18593, "job": "Original Music Composer", "name": "David Raksin", "profile_path": "/4XgFLYDkcoMYPcxYmD2Z9ksgOPO.jpg"}, {"credit_id": "58f90b6d9251415bfd00d51b", "department": "Editing", "gender": 2, "id": 3898, "job": "Editor", "name": "David Bretherton", "profile_path": null}, {"credit_id": "5ab9ca71c3a368720800dbd7", "department": "Costume & Make-Up", "gender": 2, "id": 26172, "job": "Costume Design", "name": "Charles Le Maire", "profile_path": null}, {"credit_id": "58f90b66c3a368759f00c990", "department": "Camera", "gender": 2, "id": 30288, "job": "Director of Photography", "name": "Joseph MacDonald", "profile_path": null}, {"credit_id": "5ab9ca64c3a36871ce00e86e", "department": "Art", "gender": 0, "id": 81384, "job": "Set Decoration", "name": "Eli Benneche", "profile_path": null}, {"credit_id": "52fe4b68c3a368484e187981", "department": "Writing", "gender": 2, "id": 116326, "job": "Screenplay", "name": "Philip Dunne", "profile_path": null}, {"credit_id": "52fe4b68c3a368484e18797b", "department": "Directing", "gender": 2, "id": 116326, "job": "Director", "name": "Philip Dunne", "profile_path": null}, {"credit_id": "5ab9ca4fc3a36871ce00e861", "department": "Art", "gender": 2, "id": 120467, "job": "Art Direction", "name": "Albert Hogsett", "profile_path": null}, {"credit_id": "5ab9ca810e0a26364e00d4d0", "department": "Directing", "gender": 0, "id": 583149, "job": "Assistant Director", "name": "William Lasky", "profile_path": null}, {"credit_id": "52fe4b68c3a368484e187993", "department": "Production", "gender": 2, "id": 955595, "job": "Producer", "name": "Herbert B. Swope Jr.", "profile_path": null}, {"credit_id": "5ab9ca7a9251414d3700d648", "department": "Directing", "gender": 2, "id": 1685871, "job": "Assistant Director", "name": "Ben Kadish", "profile_path": null}]}}