{"adult": false, "backdrop_path": "/ecUwBnHRuwn81ixInHGyKsqZbVM.jpg", "belongs_to_collection": null, "budget": 0, "genres": [{"id": 37, "name": "Western"}, {"id": 18, "name": "Drama"}], "homepage": null, "id": 131194, "imdb_id": "tt0079094", "original_language": "en", "original_title": "Eagle's Wing", "overview": "Two men, an aging Native American and a ne'er-do-well trapper from North America, race to claim the stallion Eagle's Wing in antebellum Mexico, meeting marauded stagecoach travelers and garrisoned Mexicans along the way.", "popularity": 6.168, "poster_path": "/yT1iv5G153NMO3zgOlgskLwpwGR.jpg", "production_companies": [{"id": 364, "logo_path": null, "name": "The Rank Organisation", "origin_country": ""}, {"id": 21347, "logo_path": null, "name": "Peter Shaw Productions", "origin_country": ""}], "production_countries": [{"iso_3166_1": "GB", "name": "United Kingdom"}], "release_date": "1979-11-23", "revenue": 0, "runtime": 111, "spoken_languages": [{"iso_639_1": "es", "name": "Espa\u00f1ol"}, {"iso_639_1": "en", "name": "English"}], "status": "Released", "tagline": "The west, the way it really was... before the myths were born.", "title": "Eagle's Wing", "video": false, "vote_average": 5.7, "vote_count": 7, "keywords": {"keywords": [{"id": 1806, "name": "deserter"}, {"id": 6536, "name": "trapper"}, {"id": 9193, "name": "whiskey"}, {"id": 14819, "name": "violence"}, {"id": 159245, "name": "scorpion"}, {"id": 162722, "name": "indian attack"}, {"id": 185403, "name": "eurowestern"}, {"id": 191210, "name": "horse thief"}]}, "similar": {"page": 1, "results": [{"adult": false, "backdrop_path": "/kiWvoV78Cc3fUwkOHKzyBgVdrDD.jpg", "genre_ids": [37, 18, 12], "id": 281957, "original_language": "en", "original_title": "The Revenant", "overview": "In the 1820s, a frontiersman, Hugh Glass, sets out on a path of vengeance against those who left him for dead after a bear mauling.", "poster_path": "/oXUWEc5i3wYyFnL1Ycu8ppxxPvs.jpg", "release_date": "2015-12-25", "title": "The Revenant", "video": false, "vote_average": 7.5, "vote_count": 12122, "popularity": 30.491}, {"adult": false, "backdrop_path": "/rPfyX0pkmn8Ea4gh3DfsmzFUf05.jpg", "genre_ids": [18, 27, 80], "id": 74997, "original_language": "en", "original_title": "The Human Centipede 2 (Full Sequence)", "overview": "Inspired by the fictional Dr. Heiter, disturbed loner Martin dreams of creating a 12-person centipede and sets out to realize his sick fantasy.", "poster_path": "/kFtAdkCO0vXN2RWu2oMcR9GZ9Hi.jpg", "release_date": "2011-10-06", "title": "The Human Centipede 2 (Full Sequence)", "video": false, "vote_average": 4.5, "vote_count": 674, "popularity": 18.07}, {"adult": false, "backdrop_path": "/sw7mordbZxgITU877yTpZCud90M.jpg", "genre_ids": [18, 80], "id": 769, "original_language": "en", "original_title": "GoodFellas", "overview": "The true story of Henry Hill, a half-Irish, half-Sicilian Brooklyn kid who is adopted by neighbourhood gangsters at an early age and climbs the ranks of a Mafia family under the guidance of Jimmy Conway.", "poster_path": "/pwpGfTImTGifEGgLb3s6LRPd4I6.jpg", "release_date": "1990-09-12", "title": "GoodFellas", "video": false, "vote_average": 8.4, "vote_count": 6553, "popularity": 33.23}, {"adult": false, "backdrop_path": "/39jfRKSZZlHxfrdZOsR4R80gVoc.jpg", "genre_ids": [18, 28], "id": 8456, "original_language": "en", "original_title": "Never Back Down", "overview": "Rebellious Jake Tyler is lured into an ultimate underground fight Scene at his new high school, after receiving threats to the safety of his friends and family Jake decides to seek the mentoring of a veteran fighter who trains him for one final no-holds-barred elimination fight with his nemesis and local martial arts champion Ryan McCarthy.", "poster_path": "/6vT35MJ67U3llfi6W7MbM5r2dav.jpg", "release_date": "2008-03-04", "title": "Never Back Down", "video": false, "vote_average": 6.6, "vote_count": 1244, "popularity": 17.01}, {"adult": false, "backdrop_path": "/o4psXh7IVD6GFKvBSHjHLzjL2lV.jpg", "genre_ids": [27, 53], "id": 10781, "original_language": "en", "original_title": "The Texas Chainsaw Massacre: The Beginning", "overview": "Chrissie and her friends set out on a road trip for a final fling before one is shipped off to Vietnam. Along the way, bikers harass the foursome and cause an accident that throws Chrissie from the vehicle. The lawman who arrives on the scene kills one of the bikers and brings Chrissie's friends to the Hewitt homestead, where young Leatherface is learning the tools of terror.", "poster_path": "/9elCJIG1TOJ0wew3JVx5ZMkHq5w.jpg", "release_date": "2006-10-06", "title": "The Texas Chainsaw Massacre: The Beginning", "video": false, "vote_average": 6.0, "vote_count": 935, "popularity": 18.392}, {"id": 9373, "video": false, "vote_count": 1413, "vote_average": 6.1, "title": "The Texas Chainsaw Massacre", "release_date": "2003-05-21", "original_language": "en", "original_title": "The Texas Chainsaw Massacre", "genre_ids": [27], "backdrop_path": "/3rTsJ7tIC3LUSRr80PfeLbbCfBA.jpg", "adult": false, "overview": "After picking up a traumatized young hitchhiker, five friends find themselves stalked and hunted by a deformed chainsaw-wielding killer and his family of equally psychopathic killers.", "poster_path": "/gx7FCIOFGxqNyplF3t7qtmUv55g.jpg", "popularity": 17.769}, {"adult": false, "backdrop_path": "/2AWa7xe0GIYNKY0t8oZUxKu68Rz.jpg", "genre_ids": [12, 18, 28], "id": 246, "original_language": "ja", "original_title": "\u5ea7\u982d\u5e02", "overview": "Zatoichi is a 19th century blind nomad who makes his living as a gambler and masseur. However, behind this humble facade, he is a master swordsman gifted with a lightning-fast draw and breathtaking precision. While wandering, Zatoichi discovers a remote mountain village at the mercy of Ginzo, a ruthless gang-leader. Ginzo disposes of anyone who gets in his way, especially after hiring the mighty samurai ronin, Hattori, as a bodyguard. After a raucous night of gambling in town, Zatoichi encounters a pair of geishas--as dangerous as they are beautiful--who've come to avenge their parents' murder. As the paths of these and other colorful characters intertwine, Ginzo's henchmen are soon after Zatoichi. With his legendary cane sword at his side, the stage is set for a riveting showdown.", "poster_path": "/xNFaRG30R3IiVFMgX8X8kAFGxCP.jpg", "release_date": "2003-09-06", "title": "Zatoichi", "video": false, "vote_average": 7.3, "vote_count": 417, "popularity": 9.706}, {"adult": false, "backdrop_path": "/ct2r3CqnA0KtMfib4AvfBU1W9M2.jpg", "genre_ids": [28, 80, 53], "id": 398175, "original_language": "en", "original_title": "Brawl in Cell Block 99", "overview": "After working as a drug courier and getting into a brutal shootout with police, a former boxer finds himself at the mercy of his enemies as they force him to instigate violent acts that turn the prison he resides in into a battleground.", "poster_path": "/lGgIQ10NJ3d0X0uFbbUN4pRrMFZ.jpg", "release_date": "2017-09-23", "title": "Brawl in Cell Block 99", "video": false, "vote_average": 6.8, "vote_count": 605, "popularity": 14.943}, {"id": 588, "video": false, "vote_count": 2406, "vote_average": 6.4, "title": "Silent Hill", "release_date": "2006-04-21", "original_language": "en", "original_title": "Silent Hill", "genre_ids": [27, 9648], "backdrop_path": "/6tfW4BjdgwuYSD7gaEMEEPoDcpH.jpg", "adult": false, "overview": "The eerie and deserted ghost town of Silent Hill draws a young mother desperate to find a cure for her only child's illness. Unable to accept the doctor's diagnosis that her daughter should be permanently institutionalized for psychiatric care, Rose flees with her child, heading for the abandoned town in search of answers \u2013 and ignoring the protests of her husband. It's soon clear this place is unlike anywhere she's ever been. It's smothered by fog, inhabited by a variety of strange beings and periodically overcome by a living 'darkness' that literally transforms everything it touches. As Rose searches for her little girl, she begins to learn the history of the strange town and realizes that her daughter is just a pawn in a larger game.", "poster_path": "/4Zz9cF8S4E7DITosNYh3spybYJb.jpg", "popularity": 17.785}, {"adult": false, "backdrop_path": "/uvY0uqCH2l74zvehPLdgFiIPRYa.jpg", "genre_ids": [28, 36, 18, 10749, 53, 10752], "id": 366964, "original_language": "en", "original_title": "Mohawk", "overview": "A young Mohawk woman and her two lovers battle a squad of American soldiers hell-bent on revenge.", "poster_path": "/hGZE7BeHzTOarIbjSzlGbIc8sPr.jpg", "release_date": "2018-03-02", "title": "Mohawk", "video": false, "vote_average": 5.2, "vote_count": 30, "popularity": 7.193}, {"adult": false, "backdrop_path": "/8cVSUI36ORfCJ6d4TP71wIrdD7h.jpg", "genre_ids": [18, 27], "id": 133805, "original_language": "en", "original_title": "Carrie", "overview": "A reimagining of the classic horror tale about Carrie White, a shy girl outcast by her peers and sheltered by her deeply religious mother, who unleashes telekinetic terror on her small town after being pushed too far at her senior prom.", "poster_path": "/j0999NYddCGcishJlxluDRQIn6k.jpg", "release_date": "2013-10-16", "title": "Carrie", "video": false, "vote_average": 5.9, "vote_count": 2912, "popularity": 14.003}, {"adult": false, "backdrop_path": "/zWGAnbxjjwY3xFGuOeR26LGbBlG.jpg", "genre_ids": [27, 53], "id": 238636, "original_language": "en", "original_title": "The Purge: Anarchy", "overview": "One night per year, the government sanctions a 12-hour period in which citizens can commit any crime they wish -- including murder -- without fear of punishment or imprisonment. Leo, a sergeant who lost his son, plans a vigilante mission of revenge during the mayhem. However, instead of a death-dealing avenger, he becomes the unexpected protector of four innocent strangers who desperately need his help if they are to survive the night.", "poster_path": "/l1DRl40x2OWUoPP42v8fjKdS1Z3.jpg", "release_date": "2014-07-17", "title": "The Purge: Anarchy", "video": false, "vote_average": 6.6, "vote_count": 4141, "popularity": 32.533}, {"id": 156022, "video": false, "vote_count": 5466, "vote_average": 7.2, "title": "The Equalizer", "release_date": "2014-09-24", "original_language": "en", "original_title": "The Equalizer", "genre_ids": [28, 80, 53], "backdrop_path": "/vbl4ZVqelrrzJ16fdDOq9siWbpi.jpg", "adult": false, "overview": "McCall believes he has put his mysterious past behind him and dedicated himself to beginning a new, quiet life. But when he meets Teri, a young girl under the control of ultra-violent Russian gangsters, he can\u2019t stand idly by \u2013 he has to help her. Armed with hidden skills that allow him to serve vengeance against anyone who would brutalize the helpless, McCall comes out of his self-imposed retirement and finds his desire for justice reawakened. If someone has a problem, if the odds are stacked against them, if they have nowhere else to turn, McCall will help. He is The Equalizer.", "poster_path": "/2eQfjqlvPAxd9aLDs8DvsKLnfed.jpg", "popularity": 38.079}, {"id": 381288, "video": false, "vote_count": 11437, "vote_average": 7.3, "title": "Split", "release_date": "2017-01-19", "original_language": "en", "original_title": "Split", "genre_ids": [27, 53], "backdrop_path": "/9pkZesKMnblFfKxEhQx45YQ2kIe.jpg", "adult": false, "overview": "Though Kevin has evidenced 23 personalities to his trusted psychiatrist, Dr. Fletcher, there remains one still submerged who is set to materialize and dominate all the others. Compelled to abduct three teenage girls led by the willful, observant Casey, Kevin reaches a war for survival among all of those contained within him \u2014 as well as everyone around him \u2014 as the walls between his compartments shatter apart.", "poster_path": "/rXMWOZiCt6eMX22jWuTOSdQ98bY.jpg", "popularity": 42.726}, {"id": 458594, "video": false, "vote_count": 983, "vote_average": 6.5, "title": "Peppermint", "release_date": "2018-09-06", "original_language": "en", "original_title": "Peppermint", "genre_ids": [28, 53], "backdrop_path": "/9krZX6T4EEs5eFpXgSi8jZkN48O.jpg", "adult": false, "overview": "A grieving mother transforms herself into a vigilante following the murders of her husband and daughter, eluding the authorities to deliver her own personal brand of justice.", "poster_path": "/jrzxS0vcbzIIay1sdYm0rgI2QfJ.jpg", "popularity": 25.2}, {"adult": false, "backdrop_path": "/a24i4Qw6qFTtkFLQsncv8WPwevj.jpg", "genre_ids": [53, 28, 80], "id": 345887, "original_language": "en", "original_title": "The Equalizer 2", "overview": "Robert McCall, who serves an unflinching justice for the exploited and oppressed, embarks on a relentless, globe-trotting quest for vengeance when a long-time girl friend is murdered.", "poster_path": "/cQvc9N6JiMVKqol3wcYrGshsIdZ.jpg", "release_date": "2018-07-19", "title": "The Equalizer 2", "video": false, "vote_average": 6.5, "vote_count": 2482, "popularity": 24.261}, {"id": 294963, "video": false, "vote_count": 1045, "vote_average": 6.8, "title": "Bone Tomahawk", "release_date": "2015-10-23", "original_language": "en", "original_title": "Bone Tomahawk", "genre_ids": [27, 37], "backdrop_path": "/eMWYoor3TroQyPw3lNsolnOGqnf.jpg", "adult": false, "overview": "During a shootout in a saloon, Sheriff Hunt injures a suspicious stranger. One of the villagers takes care of him in prison. One day they both disappear \u2013 only the spear of a cannibal tribe is found. Hunt and a few of his men go in search of the prisoner and his nurse.", "poster_path": "/8A51Ur47D0CNJhmvQlbif0vzyqZ.jpg", "popularity": 15.402}, {"id": 301846, "video": false, "vote_count": 238, "vote_average": 5.2, "title": "Howl", "release_date": "2015-10-01", "original_language": "en", "original_title": "Howl", "genre_ids": [27], "backdrop_path": "/f6zcd6ZVviZnCdjqdtZtWKTNDDM.jpg", "adult": false, "overview": "When passengers on a train are attacked by a creature, they must band together in order to survive until morning.", "poster_path": "/sGEOC8x0lXSlIV4hoIZjnOnze9e.jpg", "popularity": 10.756}, {"adult": false, "backdrop_path": "/iNuvbrHGNtrUwlm48u4KnQhhMKp.jpg", "genre_ids": [80, 18, 53], "id": 26390, "original_language": "en", "original_title": "Brooklyn's Finest", "overview": "Enforcing the law within the notoriously rough Brownsville section of the city and especially within the Van Dyke housing projects is the NYPD's sixty-fifth precinct. Three police officers struggle with the sometimes fine line between right and wrong.", "poster_path": "/jKSBk0LtZgXxG56uvwiAtYf6ttF.jpg", "release_date": "2009-01-16", "title": "Brooklyn's Finest", "video": false, "vote_average": 6.4, "vote_count": 500, "popularity": 12.127}, {"adult": false, "backdrop_path": "/rSf0RYkPiMo9TyjHs2vI8rHlmfF.jpg", "genre_ids": [28, 18, 53], "id": 241554, "original_language": "en", "original_title": "Run All Night", "overview": "Brooklyn mobster and prolific hit man Jimmy Conlon has seen better days. Longtime best friend of a mob boss, Jimmy is haunted by the sins of his past\u2014as well as a dogged police detective who\u2019s been one step behind Jimmy for 30 years. But when Jimmy\u2019s estranged son becomes a target, Jimmy must make a choice between the crime family he chose and the real family he abandoned long ago. Now, with nowhere safe to turn, Jimmy has just one night to figure out exactly where his loyalties lie and to see if he can finally make things right.", "poster_path": "/aqNJrAxudMRNo8jg3HOUQqdl2xr.jpg", "release_date": "2015-03-11", "title": "Run All Night", "video": false, "vote_average": 6.4, "vote_count": 1820, "popularity": 30.086}], "total_pages": 45, "total_results": 885}, "recommendations": {"page": 1, "results": [{"id": 56354, "video": false, "vote_count": 11, "vote_average": 4.9, "title": "Captain Nemo and the Underwater City", "release_date": "1969-12-19", "original_language": "en", "original_title": "Captain Nemo and the Underwater City", "genre_ids": [12, 10751], "backdrop_path": "/awYg8Zbaq7p53LcIEMzbKeosmjD.jpg", "adult": false, "overview": "Some survivors of a drowning ship are rescued by Captain Nemo and his submarine crew. They are taken to an underwater city, where they may be trapped for the rest of their lives.", "poster_path": "/91iv56eyzYSnKmLrMq3f5EXhnCf.jpg", "popularity": 5.86}, {"adult": false, "backdrop_path": "/fSEQZeeij386bpKVObEbwKsYAGl.jpg", "genre_ids": [9648, 37], "id": 124400, "original_language": "en", "original_title": "Money, Women and Guns", "overview": "Celebrated detective traces and finds beneficiaries to the will of a gold prospector murdered by bushwhackers.", "poster_path": "/w7SoUvz1hF9RKXauqC3JyXMA3a4.jpg", "release_date": "1958-10-01", "title": "Money, Women and Guns", "video": false, "vote_average": 4.0, "vote_count": 5, "popularity": 2.462}, {"id": 71244, "video": false, "vote_count": 21, "vote_average": 6.1, "title": "Monte Walsh", "release_date": "1970-10-02", "original_language": "en", "original_title": "Monte Walsh", "genre_ids": [37], "backdrop_path": "/s6Dw0ga7wIUPEShPQUkxnagtddM.jpg", "adult": false, "overview": "Monte Walsh is an aging cowboy facing the ending days of the Wild West era. As barbed wire and railways steadily eliminate the need for the cowboy, Monte and his friends are left with fewer and fewer options. New work opportunities are available to them, but the freedom of the open prarie is what they long for. Eventually, they all must say goodbye to the lives they knew, and try to make a new start.", "poster_path": "/mxeUFKPTaPtVl5gW8ku5hNnQwB9.jpg", "popularity": 4.721}, {"adult": false, "backdrop_path": "/5zd01OCzO8v562DIePGVHmc8t43.jpg", "genre_ids": [37], "id": 141669, "original_language": "en", "original_title": "Bullwhip", "overview": "In order to avoid the hangman's noose, a cowboy agrees to marry a beautiful but fiery redhead.", "poster_path": "/icFNJI7MOtegjPe0XeEysRvGc1H.jpg", "release_date": "1958-05-25", "title": "Bullwhip", "video": false, "vote_average": 3.8, "vote_count": 6, "popularity": 3.044}, {"id": 75130, "video": false, "vote_count": 8, "vote_average": 4.8, "title": "Catlow", "release_date": "1971-10-01", "original_language": "en", "original_title": "Catlow", "genre_ids": [35, 37], "backdrop_path": "/sCmrA0DyRNEql1bwH8IWrtyH2Pk.jpg", "adult": false, "overview": "Catlow is a 1971 western based on a story by Louis L'Amour. It stars Yul Brynner as a outlaw determined to pull off a gold robbery and co-stars Richard Crenna and Leonard Nimoy.", "poster_path": "/vSgftTrGA51O3aplsTtq9WBYYkM.jpg", "popularity": 4.812}], "total_pages": 1, "total_results": 5}, "credits": {"cast": [{"cast_id": 4, "character": "Pike", "credit_id": "52fe4b70c3a368484e189251", "gender": 2, "id": 8349, "name": "Martin Sheen", "order": 0, "profile_path": "/ve77Q75moQhoB6cxdMfigfrHeTA.jpg"}, {"cast_id": 5, "character": "White Bull", "credit_id": "52fe4b70c3a368484e189255", "gender": 2, "id": 8975, "name": "Sam Waterston", "order": 1, "profile_path": "/fKmtS6OdDWPiAdxZflbJGz1eWml.jpg"}, {"cast_id": 6, "character": "Henry", "credit_id": "52fe4b70c3a368484e189259", "gender": 2, "id": 1037, "name": "Harvey Keitel", "order": 2, "profile_path": "/f4fjeWB4TrT1gOOBGgFVe9otC0t.jpg"}, {"cast_id": 8, "character": "The Widow", "credit_id": "52fe4b70c3a368484e189263", "gender": 1, "id": 19092, "name": "St\u00e9phane Audran", "order": 3, "profile_path": "/nsDewAkYIclnQR06ZYuwb57Yiwm.jpg"}, {"cast_id": 9, "character": "The Priest", "credit_id": "52fe4b70c3a368484e189267", "gender": 2, "id": 15198, "name": "John Castle", "order": 4, "profile_path": "/yXMWGwbbMB67Gt0EAFMfN4kxA8W.jpg"}, {"cast_id": 11, "character": "Judith", "credit_id": "5338194fc3a3680e690036a3", "gender": 1, "id": 37437, "name": "Caroline Langrishe", "order": 5, "profile_path": "/sLM1k76AHbcCk21B3TR6tdlinUk.jpg"}, {"cast_id": 24, "character": "Gonzalo", "credit_id": "544cf5f00e0a2608bb0024d3", "gender": 2, "id": 31321, "name": "Jorge Russek", "order": 6, "profile_path": "/jz7ZDjvXjslmQLPlq5EleM1MNbV.jpg"}, {"cast_id": 25, "character": "Miguel", "credit_id": "544e11990e0a2608bb004467", "gender": 2, "id": 236686, "name": "Manuel Ojeda", "order": 7, "profile_path": "/61VZnT98JcBK6zIKmRt63R9P8UJ.jpg"}, {"cast_id": 26, "character": "", "credit_id": "55663cc7c3a368174900008e", "gender": 2, "id": 47886, "name": "Jorge Luke", "order": 10, "profile_path": "/ibx9xw9Aw1HphlMwAiPgbQHCToP.jpg"}, {"cast_id": 27, "character": "Jos\u00e9", "credit_id": "58954b7792514129c800121f", "gender": 2, "id": 129460, "name": "Pedro Dami\u00e1n", "order": 11, "profile_path": "/mPQARaSDXe4I5xj1fqsOJvjtoMz.jpg"}], "crew": [{"credit_id": "533819a0c3a3680e9f00346c", "department": "Editing", "gender": 1, "id": 11072, "job": "Editor", "name": "Lesley Walker", "profile_path": null}, {"credit_id": "5338198fc3a3680e8f00379a", "department": "Production", "gender": 0, "id": 2942, "job": "Executive Producer", "name": "Peter Shaw", "profile_path": null}, {"credit_id": "533819a9c3a3680e8f00379e", "department": "Art", "gender": 2, "id": 10643, "job": "Production Design", "name": "Herbert Westbrook", "profile_path": null}, {"credit_id": "53381985c3a3680e690036af", "department": "Production", "gender": 0, "id": 47390, "job": "Producer", "name": "Ben Arbeid", "profile_path": null}, {"credit_id": "52fe4b70c3a368484e18924d", "department": "Writing", "gender": 2, "id": 11845, "job": "Screenplay", "name": "John Briley", "profile_path": null}, {"credit_id": "537751080e0a261419001e04", "department": "Camera", "gender": 2, "id": 11848, "job": "Director of Photography", "name": "Billy Williams", "profile_path": null}, {"credit_id": "52fe4b70c3a368484e189241", "department": "Directing", "gender": 2, "id": 12009, "job": "Director", "name": "Anthony Harvey", "profile_path": "/xFb61Oxx98u6xrSpbN0KZFrysWO.jpg"}, {"credit_id": "533819c5c3a3680e690036b7", "department": "Costume & Make-Up", "gender": 2, "id": 12651, "job": "Costume Design", "name": "Tim Hutchinson", "profile_path": null}, {"credit_id": "533819bac3a3680e760036fe", "department": "Costume & Make-Up", "gender": 1, "id": 14007, "job": "Costume Design", "name": "Phyllis Dalton", "profile_path": null}, {"credit_id": "59e93ba89251410c670010bb", "department": "Sound", "gender": 2, "id": 32159, "job": "Original Music Composer", "name": "Marc Wilkinson", "profile_path": null}, {"credit_id": "52fe4b70c3a368484e189247", "department": "Writing", "gender": 0, "id": 1078797, "job": "Story", "name": "Michael Syson", "profile_path": null}, {"credit_id": "533819b1c3a3680e70003555", "department": "Art", "gender": 0, "id": 1305720, "job": "Art Direction", "name": "Agust\u00edn Ituarte", "profile_path": null}]}}