{"adult": false, "backdrop_path": null, "belongs_to_collection": null, "budget": 0, "genres": [{"id": 35, "name": "Comedy"}, {"id": 10402, "name": "Music"}], "homepage": null, "id": 131370, "imdb_id": "tt0131079", "original_language": "en", "original_title": "Two Idiots in Hollywood", "overview": "Idiots Taylor Dupp and Murphy Wegg flee their humdrum existence in Dayton, Ohio for the glamour of Hollywood. Murphy turns his complete lack of talent into a career as a television producer (\"The Pac-Man Show\"), while Taylor is unjustly accused of murder.", "popularity": 0.676, "poster_path": "/cxF6jPJCDRKijxzXALpYUW3EBYX.jpg", "production_companies": [], "production_countries": [], "release_date": "1988-10-01", "revenue": 0, "runtime": 85, "spoken_languages": [{"iso_639_1": "en", "name": "English"}], "status": "Released", "tagline": "Fast women. Fast cars. Fast food.", "title": "Two Idiots in Hollywood", "video": false, "vote_average": 0.0, "vote_count": 0, "keywords": {"keywords": [{"id": 378, "name": "prison"}, {"id": 10181, "name": "based on play or musical"}, {"id": 12396, "name": "hollywood, california"}]}, "similar": {"page": 1, "results": [{"id": 107846, "video": false, "vote_count": 3131, "vote_average": 6.7, "title": "Escape Plan", "release_date": "2013-10-09", "original_language": "en", "original_title": "Escape Plan", "genre_ids": [28, 53], "backdrop_path": "/lDmAQexExnvfKAG8fvx04ro6Ly4.jpg", "adult": false, "overview": "Ray Breslin is the world's foremost authority on structural security. After analyzing every high security prison and learning a vast array of survival skills so he can design escape-proof prisons, his skills are put to the test. He's framed and incarcerated in a master prison he designed himself. He needs to escape and find the person who put him behind bars.", "poster_path": "/j3XZwBeWgoAbVmkW3JyOme79I2e.jpg", "popularity": 19.433}, {"adult": false, "backdrop_path": "/nnP2m2MuHZmC5aeqlL5fRD0G149.jpg", "genre_ids": [80, 18, 35], "id": 1554, "original_language": "en", "original_title": "Down by Law", "overview": "A disc jockey, a pimp and an Italian tourist escape from jail in New Orleans.", "poster_path": "/4IyxoUQ7BB5kcSd7gASe2dTyWu7.jpg", "release_date": "1986-09-20", "title": "Down by Law", "video": false, "vote_average": 7.5, "vote_count": 325, "popularity": 7.916}, {"id": 1701, "video": false, "vote_count": 2370, "vote_average": 6.7, "title": "Con Air", "release_date": "1997-06-01", "original_language": "en", "original_title": "Con Air", "genre_ids": [28, 80, 53], "backdrop_path": "/aX2mwtawBe2TD1csPBYvm03sx3a.jpg", "adult": false, "overview": "When the government puts all its rotten criminal eggs in one airborne basket, it's asking for trouble. Before you can say, \"Pass the barf bag,\" the crooks control the plane, led by creepy Cyrus \"The Virus\" Grissom. Watching his every move is the just-released Cameron Poe, who'd rather reunite with his family.", "poster_path": "/yhaOQ7xXw0PLHLvg1w0M9zlPdg6.jpg", "popularity": 27.211}, {"id": 10734, "video": false, "vote_count": 1344, "vote_average": 7.5, "title": "Escape from Alcatraz", "release_date": "1979-06-22", "original_language": "en", "original_title": "Escape from Alcatraz", "genre_ids": [80, 18], "backdrop_path": "/doJGjcWPpuGuDPJwCpCNnYUG9x4.jpg", "adult": false, "overview": "Escape from Alcatraz tells the story of the only three men ever to escape from the infamous maximum security prison at Alcatraz. In 29 years, the seemingly impenetrable federal penitentiary, which housed Al Capone and \"Birdman\" Robert Stroud, was only broken once - by three men never heard of again.", "poster_path": "/lBAxIEywz3KfzXimn9qHBArLHU8.jpg", "popularity": 32.525}, {"id": 278, "video": false, "vote_count": 14752, "vote_average": 8.7, "title": "The Shawshank Redemption", "release_date": "1994-09-23", "original_language": "en", "original_title": "The Shawshank Redemption", "genre_ids": [80, 18], "backdrop_path": "/j9XKiZrVeViAixVRzCta7h1VU9W.jpg", "adult": false, "overview": "Framed in the 1940s for the double murder of his wife and her lover, upstanding banker Andy Dufresne begins a new life at the Shawshank prison, where he puts his accounting skills to work for an amoral warden. During his long stretch in prison, Dufresne comes to be admired by the other inmates -- including an older prisoner named Red -- for his integrity and unquenchable sense of hope.", "poster_path": "/9O7gLzmreU0nGkIB6K3BsJbzvNv.jpg", "popularity": 42.206}, {"adult": false, "backdrop_path": "/5CPIk2eE3Nk4UPwx5HCHKDdIiJs.jpg", "genre_ids": [35, 27, 878], "id": 11429, "original_language": "en", "original_title": "Beyond Re-Animator", "overview": "Once again tampering with mother nature to disastrous results, Dr. Herbert West continues his research while serving time in a maximum security prison for his previous exploits. West's limited prison-cell experiments are suddenly interrupted by the arrival of a new prison doctor and the brother of the girl who suffered from West's experiments 13 years earlier.", "poster_path": "/7K8odajc1QUaeOtD5XvlBiWzypQ.jpg", "release_date": "2003-04-04", "title": "Beyond Re-Animator", "video": false, "vote_average": 5.5, "vote_count": 124, "popularity": 10.121}, {"adult": false, "backdrop_path": "/tK2ElPDTp0pM8w5BZbuaEHbzaHs.jpg", "genre_ids": [53, 28, 35, 80, 18], "id": 150, "original_language": "en", "original_title": "48 Hrs.", "overview": "A hard-nosed cop reluctantly teams up with a wise-cracking criminal temporarily paroled to him, in order to track down a killer.", "poster_path": "/rq8NvwC5tC2E8SNU1CF8iJJErNQ.jpg", "release_date": "1982-12-07", "title": "48 Hrs.", "video": false, "vote_average": 6.6, "vote_count": 735, "popularity": 13.24}, {"adult": false, "backdrop_path": "/arcpWGGnUkGkakOwZo7xfPsaz7h.jpg", "genre_ids": [9648, 53], "id": 2832, "original_language": "en", "original_title": "Identity", "overview": "Complete strangers stranded at a remote desert motel during a raging storm soon find themselves the target of a deranged murderer. As their numbers thin out, the travelers begin to turn on each other, as each tries to figure out who the killer is.", "poster_path": "/xSNSp2wmCUwFavxdkMF417hBc39.jpg", "release_date": "2003-04-25", "title": "Identity", "video": false, "vote_average": 7.2, "vote_count": 2091, "popularity": 19.629}, {"adult": false, "backdrop_path": "/nb70B4EXuoegiQ0C5N1fNVHIaYc.jpg", "genre_ids": [12, 18, 36, 53, 10752], "id": 5925, "original_language": "en", "original_title": "The Great Escape", "overview": "The Nazis, exasperated at the number of escapes from their prison camps by a relatively small number of Allied prisoners, relocates them to a high-security 'escape-proof' camp to sit out the remainder of the war. Undaunted, the prisoners plan one of the most ambitious escape attempts of World War II. Based on a true story.", "poster_path": "/qhy4HgUqhEbwQ1ekKTv7yEB3b0e.jpg", "release_date": "1963-06-20", "title": "The Great Escape", "video": false, "vote_average": 8.0, "vote_count": 1359, "popularity": 19.093}, {"id": 12088, "video": false, "vote_count": 316, "vote_average": 5.9, "title": "Fortress", "release_date": "1992-09-30", "original_language": "en", "original_title": "Fortress", "genre_ids": [28, 878, 53], "backdrop_path": "/csGyWqK4dTAtSPpreU26TzoY9ua.jpg", "adult": false, "overview": "A futuristic prison movie. Protagonist and wife are nabbed at a future US emigration point with an illegal baby during population control. The resulting prison experience is the subject of the movie. The prison is a futuristic one run by a private corporation bent on mind control in various ways", "poster_path": "/evjpqWPUY4VpOdyLpeRfkGU8DiR.jpg", "popularity": 14.843}, {"id": 5924, "video": false, "vote_count": 947, "vote_average": 8.0, "title": "Papillon", "release_date": "1973-12-13", "original_language": "en", "original_title": "Papillon", "genre_ids": [80, 18], "backdrop_path": "/w6XYdZIXZlMNL2efDXdXI6q4lhm.jpg", "adult": false, "overview": "A man befriends a fellow criminal as the two of them begin serving their sentence on a dreadful prison island, which inspires the man to plot his escape.", "poster_path": "/cPKfxaWXNkVkHLSV2nb06RfvrSM.jpg", "popularity": 12.566}, {"id": 708, "video": false, "vote_count": 845, "vote_average": 6.4, "title": "The Living Daylights", "release_date": "1987-06-29", "original_language": "en", "original_title": "The Living Daylights", "genre_ids": [28, 12, 53], "backdrop_path": "/gt0TafbcheJeT9SFewDLqYWk3Sd.jpg", "adult": false, "overview": "James Bond helps a Russian General escape into the west. He soon finds out that the KGB wants to kill him for helping the General. A little while later the General is kidnapped from the Secret Service leading 007 to be suspicious.", "poster_path": "/yEryMe58dx7zm1QBhQFeuYcv2aH.jpg", "popularity": 17.272}, {"adult": false, "backdrop_path": "/xiBsA8Qj5KhO4cUKz6RHDtKpBGs.jpg", "genre_ids": [28, 12, 53, 10752], "id": 1368, "original_language": "en", "original_title": "First Blood", "overview": "When former Green Beret John Rambo is harassed by local law enforcement and arrested for vagrancy, the Vietnam vet snaps, runs for the hills and rat-a-tat-tats his way into the action-movie hall of fame. Hounded by a relentless sheriff, Rambo employs heavy-handed guerilla tactics to shake the cops off his tail.", "poster_path": "/wOsPbJixVc80iilfcByLKPAKz6G.jpg", "release_date": "1982-10-22", "title": "First Blood", "video": false, "vote_average": 7.4, "vote_count": 3235, "popularity": 29.852}, {"adult": false, "backdrop_path": "/9lrM0o89ASyHmDgMLfCbU5qdsAm.jpg", "genre_ids": [35, 18], "id": 9291, "original_language": "en", "original_title": "The Longest Yard", "overview": "Pro quarter-back, Paul Crewe and former college champion and coach, Nate Scarboro are doing time in the same prison. Asked to put together a team of inmates to take on the guards, Crewe enlists the help of Scarboro to coach the inmates to victory in a football game 'fixed' to turn out quite another way.", "poster_path": "/ag6q9euZABqbHtbDhoRT9xEYltP.jpg", "release_date": "2005-05-27", "title": "The Longest Yard", "video": false, "vote_average": 6.4, "vote_count": 1766, "popularity": 16.3}, {"adult": false, "backdrop_path": "/5UhVmv70qTfy7YSf8r87kNXWxjK.jpg", "genre_ids": [18, 53, 9648], "id": 638, "original_language": "en", "original_title": "Lost Highway", "overview": "A tormented jazz musician finds himself lost in an enigmatic story involving murder, surveillance, gangsters, doppelgangers, and an impossible transformation inside a prison cell.", "poster_path": "/z6yhgEzGUJaBBgAxoyggRzwLnVM.jpg", "release_date": "1997-01-15", "title": "Lost Highway", "video": false, "vote_average": 7.6, "vote_count": 1279, "popularity": 17.633}, {"id": 227159, "video": false, "vote_count": 2803, "vote_average": 6.1, "title": "Horrible Bosses 2", "release_date": "2014-11-26", "original_language": "en", "original_title": "Horrible Bosses 2", "genre_ids": [35], "backdrop_path": "/7OluTl9LoaMDZ2MVdrFVuU2os09.jpg", "adult": false, "overview": "Dale, Kurt and Nick decide to start their own business but things don't go as planned because of a slick investor, prompting the trio to pull off a harebrained and misguided kidnapping scheme.", "poster_path": "/boBOkwIqgrs8noxBUSDkkicKa4K.jpg", "popularity": 25.43}, {"adult": false, "backdrop_path": "/q3eNcig4YFEsUTnmIYDA90FdndO.jpg", "genre_ids": [10402, 35, 28, 80], "id": 525, "original_language": "en", "original_title": "The Blues Brothers", "overview": "Jake Blues is just out of jail, and teams up with his brother, Elwood on a 'mission from God' to raise funds for the orphanage in which they grew up. The only thing they can do is do what they do best: play music. So they get their old band together, and set out on their way\u2014while getting in a bit of trouble here and there.", "poster_path": "/6hesUNBkpVRqBTBw2HlTg0h8b56.jpg", "release_date": "1980-06-17", "title": "The Blues Brothers", "video": false, "vote_average": 7.7, "vote_count": 2299, "popularity": 21.638}, {"adult": false, "backdrop_path": "/oT79THuFrcBzrhlf4fiCddwZBCQ.jpg", "genre_ids": [18, 10402, 10749], "id": 69, "original_language": "en", "original_title": "Walk the Line", "overview": "A chronicle of country music legend Johnny Cash's life, from his early days on an Arkansas cotton farm to his rise to fame with Sun Records in Memphis, where he recorded alongside Elvis Presley, Jerry Lee Lewis and Carl Perkins.", "poster_path": "/wdxL3Zyh3O5MIbmsSiZEevJAjtQ.jpg", "release_date": "2005-09-13", "title": "Walk the Line", "video": false, "vote_average": 7.5, "vote_count": 1545, "popularity": 15.437}, {"id": 313369, "video": false, "vote_count": 11063, "vote_average": 7.9, "title": "La La Land", "release_date": "2016-11-29", "original_language": "en", "original_title": "La La Land", "genre_ids": [35, 18, 10402, 10749], "backdrop_path": "/fp6X6yhgcxzxCpmM0EVC6V9B8XB.jpg", "adult": false, "overview": "Mia, an aspiring actress, serves lattes to movie stars in between auditions and Sebastian, a jazz musician, scrapes by playing cocktail party gigs in dingy bars, but as success mounts they are faced with decisions that begin to fray the fragile fabric of their love affair, and the dreams they worked so hard to maintain in each other threaten to rip them apart.", "poster_path": "/ylXCdC106IKiarftHkcacasaAcb.jpg", "popularity": 39.654}, {"id": 7443, "video": false, "vote_count": 2876, "vote_average": 6.6, "title": "Chicken Run", "release_date": "2000-06-21", "original_language": "en", "original_title": "Chicken Run", "genre_ids": [16, 35, 10751], "backdrop_path": "/b0Zlbk19oTLjKPvb807suPFKBtN.jpg", "adult": false, "overview": "Having been hopelessly repressed and facing eventual certain death at the British chicken farm where they are held, Ginger the chicken along with the help of Rocky the American rooster decide to rebel and lead their fellow chickens in a great escape from the murderous farmers Mr. and Mrs. Tweedy and their farm of doom.", "poster_path": "/z0MafJgUnVyVbczicYMkPKKHkBi.jpg", "popularity": 23.082}], "total_pages": 89, "total_results": 1774}, "recommendations": {"page": 1, "results": [], "total_pages": 1, "total_results": 0}, "credits": {"cast": [{"cast_id": 3, "character": "", "credit_id": "53171db89251412cd7001025", "gender": 2, "id": 193009, "name": "Jim McGrath", "order": 1, "profile_path": null}, {"cast_id": 5, "character": "", "credit_id": "53171e5d9251412ccd000f51", "gender": 1, "id": 154714, "name": "Cheryl Anderson", "order": 3, "profile_path": "/xCtnLJpWUQhCpEAU4Fn9oA6Eqnp.jpg"}, {"cast_id": 6, "character": "", "credit_id": "53171e6e9251415877001999", "gender": 1, "id": 162098, "name": "Kat Sawyer-Young", "order": 4, "profile_path": "/y20zuHaRfkYWeCsljk7P6fSiFCE.jpg"}, {"cast_id": 7, "character": "", "credit_id": "53d629960e0a26284a007025", "gender": 2, "id": 35367, "name": "Jeff Doucette", "order": 5, "profile_path": "/bIqp3gIoSl2DP8TcbuxehsG91zL.jpg"}], "crew": [{"credit_id": "52fe4b77c3a368484e18a327", "department": "Directing", "gender": 2, "id": 537, "job": "Director", "name": "Stephen Tobolowsky", "profile_path": "/fUodC7wMUZLAXnm4ONCxF5haCtC.jpg"}, {"credit_id": "52fe4b77c3a368484e18a32d", "department": "Writing", "gender": 2, "id": 537, "job": "Writer", "name": "Stephen Tobolowsky", "profile_path": "/fUodC7wMUZLAXnm4ONCxF5haCtC.jpg"}]}}