{"adult": false, "backdrop_path": null, "belongs_to_collection": null, "budget": 0, "genres": [], "homepage": null, "id": 131963, "imdb_id": "tt0076060", "original_language": "en", "original_title": "Funeral for an Assassin", "overview": "Michael Cardiff is a professional revolutionary highly trained in a variety of techniques of assassination, infiltration and evading law enforcement. After escaping from prison he places identification items on a decomposed body to make him appear dead as he plans his revenge against the government. Cardiff uses his skills to murder a prominent judge making his death look like an accident in order to plant an improvised explosive device at his funeral attended by the movers and shakers of the regime. Only one non conformist police captain is on to his plans.", "popularity": 0.661, "poster_path": "/wrBzDFT8DMbswOeYkwiF64Iw3sp.jpg", "production_companies": [], "production_countries": [], "release_date": "1977-02-01", "revenue": 0, "runtime": 92, "spoken_languages": [], "status": "Released", "tagline": "", "title": "Funeral for an Assassin", "video": false, "vote_average": 4.0, "vote_count": 1, "keywords": {"keywords": [{"id": 782, "name": "assassin"}]}, "similar": {"page": 1, "results": [{"id": 324668, "video": false, "vote_count": 3843, "vote_average": 6.2, "title": "Jason Bourne", "release_date": "2016-07-27", "original_language": "en", "original_title": "Jason Bourne", "genre_ids": [28, 53], "backdrop_path": "/dtFiuavnsnl0krJAeSmGAOFAhw2.jpg", "adult": false, "overview": "The most dangerous former operative of the CIA is drawn out of hiding to uncover hidden truths about his past.", "poster_path": "/lFSSLTlFozwpaGlO31OoUeirBgQ.jpg", "popularity": 20.841}, {"id": 49040, "video": false, "vote_count": 3881, "vote_average": 6.1, "title": "The Bourne Legacy", "release_date": "2012-08-08", "original_language": "en", "original_title": "The Bourne Legacy", "genre_ids": [28, 53], "backdrop_path": "/gCdJYpX1TXGEZrEJl0mMTTpinMh.jpg", "adult": false, "overview": "New CIA operative Aaron Cross experiences life-or-death stakes that have been triggered by the previous actions of Jason Bourne.", "poster_path": "/qIJonjlSzU6LCJklS6CH3p5vLcQ.jpg", "popularity": 20.243}, {"id": 2503, "video": false, "vote_count": 4835, "vote_average": 7.4, "title": "The Bourne Ultimatum", "release_date": "2007-08-03", "original_language": "en", "original_title": "The Bourne Ultimatum", "genre_ids": [28, 18, 9648, 53], "backdrop_path": "/6WpDOqkZFmhNJ0rwuLJiZVKlZi1.jpg", "adult": false, "overview": "Bourne is brought out of hiding once again by reporter Simon Ross who is trying to unveil Operation Blackbriar, an upgrade to Project Treadstone, in a series of newspaper columns. Information from the reporter stirs a new set of memories, and Bourne must finally uncover his dark past while dodging The Company's best efforts to eradicate him.", "poster_path": "/fHho6JYYY0nRcETWSoeI19iZsNF.jpg", "popularity": 16.034}, {"id": 2501, "video": false, "vote_count": 5867, "vote_average": 7.4, "title": "The Bourne Identity", "release_date": "2002-06-14", "original_language": "en", "original_title": "The Bourne Identity", "genre_ids": [28, 18, 9648, 53], "backdrop_path": "/2Fr1vqBiDn8xRJM9elcplzHctTN.jpg", "adult": false, "overview": "Wounded to the brink of death and suffering from amnesia, Jason Bourne is rescued at sea by a fisherman. With nothing to go on but a Swiss bank account number, he starts to reconstruct his life, but finds that many people he encounters want him dead. However, Bourne realizes that he has the combat and mental skills of a world-class spy\u2014but who does he work for?", "poster_path": "/bXQIL36VQdzJ69lcjQR1WQzJqQR.jpg", "popularity": 20.935}, {"adult": false, "backdrop_path": "/e1svWjxTXMOmdgkVLSPHSfWv90R.jpg", "genre_ids": [28, 18, 53], "id": 2502, "original_language": "en", "original_title": "The Bourne Supremacy", "overview": "When a CIA operation to purchase classified Russian documents is blown by a rival agent, who then shows up in the sleepy seaside village where Bourne and Marie have been living. The pair run for their lives and Bourne, who promised retaliation should anyone from his former life attempt contact, is forced to once again take up his life as a trained assassin to survive.", "poster_path": "/jXwZgmqOtsqsXuB9oGhocOAegCM.jpg", "release_date": "2004-07-23", "title": "The Bourne Supremacy", "video": false, "vote_average": 7.3, "vote_count": 4750, "popularity": 17.814}, {"adult": false, "backdrop_path": "/kSTvteM3ekuoeO7u7GJtZQkZuom.jpg", "genre_ids": [28, 53, 80], "id": 1948, "original_language": "en", "original_title": "Crank", "overview": "Professional assassin Chev Chelios learns his rival has injected him with a poison that will kill him if his heart rate drops.", "poster_path": "/6RnD3Zfh0tO0cD2vroWyH0F98Ej.jpg", "release_date": "2006-08-31", "title": "Crank", "video": false, "vote_average": 6.6, "vote_count": 2121, "popularity": 21.613}, {"adult": false, "backdrop_path": "/fLMv873bBAvrCtzeAbRVjb4Mi9Y.jpg", "genre_ids": [28, 53, 80], "id": 27582, "original_language": "en", "original_title": "The Mechanic", "overview": "Arthur Bishop is a 'mechanic' - an elite assassin with a strict code and unique talent for cleanly eliminating targets. It's a job that requires professional perfection and total detachment, and Bishop is the best in the business. But when he is ordered to take out his mentor and close friend Harry, Bishop is anything but detached.", "poster_path": "/eScKoGnjaUvGD2OkK3DImyzfVkt.jpg", "release_date": "2011-01-13", "title": "The Mechanic", "video": false, "vote_average": 6.3, "vote_count": 1857, "popularity": 20.52}, {"adult": false, "backdrop_path": "/8nvayG5l0urcjvvpszoECDqLWzD.jpg", "genre_ids": [18, 53, 80, 9648], "id": 186, "original_language": "en", "original_title": "Lucky Number Slevin", "overview": "Slevin is mistakenly put in the middle of a personal war between the city\u2019s biggest criminal bosses. Under constant watch, Slevin must try not to get killed by an infamous assassin and come up with an idea of how to get out of his current dilemma. A film with many twists and turns.", "poster_path": "/jtKq0EtothAzWlnRBBWGCA8uFuu.jpg", "release_date": "2006-02-24", "title": "Lucky Number Slevin", "video": false, "vote_average": 7.5, "vote_count": 2480, "popularity": 14.28}, {"adult": false, "backdrop_path": "/2f8fkWSWOVcTlWforoVpsuaCiwI.jpg", "genre_ids": [53, 28], "id": 449985, "original_language": "en", "original_title": "Triple Threat", "overview": "A crime syndicate places a hit on a billionaire's daughter, making her the target of an elite assassin squad. A small band of down-and-out mercenaries protects her, fighting tooth and nail to stop the assassins from reaching their target.", "poster_path": "/cSpM3QxmoSLp4O1WAMQpUDcaB7R.jpg", "release_date": "2019-03-19", "title": "Triple Threat", "video": false, "vote_average": 5.5, "vote_count": 146, "popularity": 14.986}, {"id": 266396, "video": false, "vote_count": 629, "vote_average": 5.7, "title": "The Gunman", "release_date": "2015-02-16", "original_language": "en", "original_title": "The Gunman", "genre_ids": [28, 80, 18], "backdrop_path": "/jVU1bRNcXCfX9LC8pj9Hp9McN7x.jpg", "adult": false, "overview": "Eight years after fleeing the Congo following his assassination of that country's minister of mining, former assassin Jim Terrier is back, suffering from PTSD and digging wells to atone for his violent past. After an attempt is made on his life, Terrier flies to London to find out who wants him dead -- and why. Terrier's search leads him to a reunion with Annie, a woman he once loved, who is now married to an oily businessman with dealings in Africa.", "poster_path": "/lnUozDnDANTsDYEdsNsHC6b8IiS.jpg", "popularity": 9.884}, {"id": 657, "video": false, "vote_count": 1493, "vote_average": 7.1, "title": "From Russia with Love", "release_date": "1963-10-11", "original_language": "en", "original_title": "From Russia with Love", "genre_ids": [28, 12, 53], "backdrop_path": "/vemDErY5wkg2Yg5eTQ7ciPRuyqt.jpg", "adult": false, "overview": "Agent 007 is back in the second installment of the James Bond series, this time battling a secret crime organization known as SPECTRE. Russians Rosa Klebb and Kronsteen are out to snatch a decoding device known as the Lektor, using the ravishing Tatiana to lure Bond into helping them. Bond willingly travels to meet Tatiana in Istanbul, where he must rely on his wits to escape with his life in a series of deadly encounters with the enemy", "poster_path": "/fvIG285JwenrV1K6kVASi1TECJ0.jpg", "popularity": 20.662}, {"adult": false, "backdrop_path": "/913sS08HhcTQTwz7X567iR6DLHn.jpg", "genre_ids": [12, 28, 53], "id": 682, "original_language": "en", "original_title": "The Man with the Golden Gun", "overview": "A golden bullet has 007 engraved on it as it smashes into the secret service headquarters. The bullet came from the professional killer Scaramanga who has yet to miss a target and James Bond begins a mission to try and stop him.", "poster_path": "/7VSVgxAvA7IdTf8T6Oon1eaReeJ.jpg", "release_date": "1974-12-01", "title": "The Man with the Golden Gun", "video": false, "vote_average": 6.5, "vote_count": 996, "popularity": 17.905}, {"adult": false, "backdrop_path": "/6wBfey6EVR5qxYLB8pxoTVQYWkS.jpg", "genre_ids": [28, 80, 18, 53], "id": 1620, "original_language": "en", "original_title": "Hitman", "overview": "The best-selling videogame, Hitman, roars to life with both barrels blazing in this hardcore action-thriller starring Timothy Olyphant. A genetically engineered assassin with deadly aim, known only as \"Agent 47\" eliminates strategic targets for a top-secret organization. But when he's double-crossed, the hunter becomes the prey as 47 finds himself in a life-or-death game of international intrigue.", "poster_path": "/1U2FpMotSyaciATw5qfEsKdgpX4.jpg", "release_date": "2007-11-21", "title": "Hitman", "video": false, "vote_average": 5.9, "vote_count": 1868, "popularity": 16.204}, {"id": 390043, "video": false, "vote_count": 3455, "vote_average": 6.8, "title": "The Hitman's Bodyguard", "release_date": "2017-08-16", "original_language": "en", "original_title": "The Hitman's Bodyguard", "genre_ids": [28, 35], "backdrop_path": "/7KsqfXDECZMryX1Rv4RKsT7SIjQ.jpg", "adult": false, "overview": "The world top bodyguard gets a new client, a hit man who must testify at the International Court of Justice. They must put their differences aside and work together to make it to the trial on time.", "poster_path": "/5CGjlz2vyBhW5xHW4eNOZIdgzYq.jpg", "popularity": 34.388}, {"id": 156022, "video": false, "vote_count": 5468, "vote_average": 7.2, "title": "The Equalizer", "release_date": "2014-09-24", "original_language": "en", "original_title": "The Equalizer", "genre_ids": [28, 80, 53], "backdrop_path": "/vbl4ZVqelrrzJ16fdDOq9siWbpi.jpg", "adult": false, "overview": "McCall believes he has put his mysterious past behind him and dedicated himself to beginning a new, quiet life. But when he meets Teri, a young girl under the control of ultra-violent Russian gangsters, he can\u2019t stand idly by \u2013 he has to help her. Armed with hidden skills that allow him to serve vengeance against anyone who would brutalize the helpless, McCall comes out of his self-imposed retirement and finds his desire for justice reawakened. If someone has a problem, if the odds are stacked against them, if they have nowhere else to turn, McCall will help. He is The Equalizer.", "poster_path": "/2eQfjqlvPAxd9aLDs8DvsKLnfed.jpg", "popularity": 39.578}, {"id": 667, "video": false, "vote_count": 1033, "vote_average": 6.6, "title": "You Only Live Twice", "release_date": "1967-06-12", "original_language": "en", "original_title": "You Only Live Twice", "genre_ids": [28, 12, 53], "backdrop_path": "/jahBdYTAGMJaEove9l9hzYpDKJD.jpg", "adult": false, "overview": "A mysterious spacecraft captures Russian and American space capsules and brings the two superpowers to the brink of war. James Bond investigates the case in Japan and comes face to face with his archenemy Blofeld.", "poster_path": "/7dnsJZniZK1Hbc9mOFDYa5W0dHi.jpg", "popularity": 26.38}, {"id": 497698, "video": false, "vote_count": 0, "vote_average": 0.0, "title": "Black Widow", "release_date": "2020-04-24", "original_language": "en", "original_title": "Black Widow", "genre_ids": [28, 12, 53], "backdrop_path": "/dGMpzHn9uNqBysBQ6Sp5xdOgM66.jpg", "adult": false, "overview": "Natasha Romanoff, on the run from the government following her disobedience to the Sokovia Accords and for aiding Steve Rogers, finds herself on her own and is forced to deal with some of the red in her ledger.", "poster_path": "/sRhaJ6D3x6gQB0swrV0UDqMwHJu.jpg", "popularity": 23.191}, {"id": 787, "video": false, "vote_count": 6331, "vote_average": 6.6, "title": "Mr. & Mrs. Smith", "release_date": "2005-06-07", "original_language": "en", "original_title": "Mr. & Mrs. Smith", "genre_ids": [28, 35, 18, 53], "backdrop_path": "/fAwYX0Fha35CaYYUJ06VTN3bEeh.jpg", "adult": false, "overview": "After five (or six) years of vanilla-wedded bliss, ordinary suburbanites John and Jane Smith are stuck in a huge rut. Unbeknownst to each other, they are both coolly lethal, highly-paid assassins working for rival organisations. When they discover they're each other's next target, their secret lives collide in a spicy, explosive mix of wicked comedy, pent-up passion, nonstop action and high-tech weaponry.", "poster_path": "/dqs5BmwSULtB28Kls3IB6khTQwp.jpg", "popularity": 36.487}, {"id": 1538, "video": false, "vote_count": 2891, "vote_average": 7.2, "title": "Collateral", "release_date": "2004-08-04", "original_language": "en", "original_title": "Collateral", "genre_ids": [80, 18, 53], "backdrop_path": "/hFcXrnmciPfIg8ZcXb1V7BeguF.jpg", "adult": false, "overview": "Cab driver Max picks up a man who offers him $600 to drive him around. But the promise of easy money sours when Max realizes his fare is an assassin.", "poster_path": "/fmkv2eRuYCTq7A5jzMBNgoNe1vA.jpg", "popularity": 22.701}, {"id": 6637, "video": false, "vote_count": 3261, "vote_average": 6.2, "title": "National Treasure: Book of Secrets", "release_date": "2007-12-13", "original_language": "en", "original_title": "National Treasure: Book of Secrets", "genre_ids": [28, 12, 9648, 53], "backdrop_path": "/ivrtuhSZnkEqzkdCyFXcH8UbPVp.jpg", "adult": false, "overview": "Benjamin Franklin Gates and Dr. Abigail Chase re-team with Riley Poole and, now armed with a stack of long-lost pages from John Wilkes Booth\u2019s diary, Ben must follow a clue left there to prove his ancestor\u2019s innocence in the assassination of Abraham Lincoln.", "poster_path": "/sHr05tz70r7y8A6XrdCBsHPK7tF.jpg", "popularity": 25.219}], "total_pages": 33, "total_results": 649}, "recommendations": {"page": 1, "results": [], "total_pages": 1, "total_results": 0}, "credits": {"cast": [{"cast_id": 3, "character": "Michael Cardiff", "credit_id": "52fe4b83c3a368484e18caf5", "gender": 2, "id": 83810, "name": "Vic Morrow", "order": 0, "profile_path": "/55FEAs0cBUQiNY1c7KLutH94CSf.jpg"}, {"cast_id": 4, "character": "Capt. Evered Roos", "credit_id": "52fe4b83c3a368484e18caf9", "gender": 0, "id": 245778, "name": "Peter Van Dissel", "order": 1, "profile_path": null}, {"cast_id": 5, "character": "Julia Ivens", "credit_id": "52fe4b83c3a368484e18cafd", "gender": 0, "id": 1094007, "name": "Gaby Getz", "order": 2, "profile_path": null}, {"cast_id": 7, "character": "Commander Overbeek", "credit_id": "52fe4b83c3a368484e18cb05", "gender": 0, "id": 1024588, "name": "Stuart Parker", "order": 4, "profile_path": null}, {"cast_id": 8, "character": "Umzinga", "credit_id": "57f0fe2dc3a3683f20009db6", "gender": 2, "id": 1688027, "name": "Sam Williams", "order": 5, "profile_path": null}], "crew": [{"credit_id": "52fe4b83c3a368484e18caeb", "department": "Directing", "gender": 0, "id": 588157, "job": "Director", "name": "Ivan Hall", "profile_path": "/gVKIOWeA0aPUNNAt8C1zFrH4cOf.jpg"}, {"credit_id": "52fe4b83c3a368484e18caf1", "department": "Writing", "gender": 0, "id": 161639, "job": "Writer", "name": "Walter Brough", "profile_path": null}]}}