{"adult": false, "backdrop_path": "/7NoUjcNHgnehY4xtgiqWKiVUuAU.jpg", "belongs_to_collection": null, "budget": 0, "genres": [{"id": 18, "name": "Drama"}, {"id": 53, "name": "Thriller"}], "homepage": null, "id": 132551, "imdb_id": "tt2275813", "original_language": "hr", "original_title": "Ljudo\u017eder vegetarijanac", "overview": "Danko Babic is an ambitious and amoral gynaecologist at Croatia's leading fertility clinic. When his colleague Bantic is appointed as head of the clinic, Babic starts a secret war to overthrow his rival. Distracted by his ruthless campaign he makes series of fatal mistakes that result in the death of a patient. A crooked coroner and a corrupt police officer cover up his misdeeds, while Babic grows increasingly dependant on drugs and alcohol. He begins performing illegal abortions on prostitutes who work for Jedinko, a gangster who controls the local drug and sex trade.", "popularity": 2.321, "poster_path": "/o708AROTsV8oqoTYOQLo9lG0QEo.jpg", "production_companies": [{"id": 46112, "logo_path": null, "name": "Telefilm", "origin_country": "HR"}, {"id": 20915, "logo_path": "/g0ZgDi0m0RubOnoUFYaHsa8M5To.png", "name": "Hrvatska Radiotelevizija", "origin_country": "HR"}], "production_countries": [{"iso_3166_1": "HR", "name": "Croatia"}], "release_date": "2012-03-01", "revenue": 0, "runtime": 86, "spoken_languages": [{"iso_639_1": "hr", "name": "Hrvatski"}], "status": "Released", "tagline": "", "title": "Cannibal Vegetarian", "video": false, "vote_average": 6.2, "vote_count": 6, "keywords": {"keywords": [{"id": 428, "name": "nurse"}, {"id": 2334, "name": "nightclub"}, {"id": 2696, "name": "drums"}, {"id": 10399, "name": "dogfight"}, {"id": 11719, "name": "dirty cop"}, {"id": 11734, "name": "police corruption"}, {"id": 13005, "name": "doctor"}, {"id": 170521, "name": "gynecologist"}]}, "similar": {"page": 1, "results": [{"id": 458594, "video": false, "vote_count": 983, "vote_average": 6.5, "title": "Peppermint", "release_date": "2018-09-06", "original_language": "en", "original_title": "Peppermint", "genre_ids": [28, 53], "backdrop_path": "/9krZX6T4EEs5eFpXgSi8jZkN48O.jpg", "adult": false, "overview": "A grieving mother transforms herself into a vigilante following the murders of her husband and daughter, eluding the authorities to deliver her own personal brand of justice.", "poster_path": "/jrzxS0vcbzIIay1sdYm0rgI2QfJ.jpg", "popularity": 25.2}, {"id": 568091, "video": false, "vote_count": 751, "vote_average": 6.6, "title": "Fractured", "release_date": "2019-09-22", "original_language": "en", "original_title": "Fractured", "genre_ids": [53], "backdrop_path": "/3UnUxeEAGoZhjIW8X1HpEuDPngV.jpg", "adult": false, "overview": "Driving cross-country, Ray and his wife and daughter stop at a highway rest area where his daughter falls and breaks her arm. After a frantic rush to the hospital and a clash with the check-in nurse, Ray is finally able to get her to a doctor. While the wife and daughter go downstairs for an MRI, Ray, exhausted, passes out in a chair in the lobby. Upon waking up, they have no record or knowledge of Ray's family ever being checked in.", "poster_path": "/paZNRffT3kUckuRFKbeDBuX1YcZ.jpg", "popularity": 19.226}, {"id": 40807, "video": false, "vote_count": 2337, "vote_average": 7.1, "title": "50/50", "release_date": "2011-09-30", "original_language": "en", "original_title": "50/50", "genre_ids": [35, 18], "backdrop_path": "/kGac26bIqfwm8eqbP1RjKP70brE.jpg", "adult": false, "overview": "Inspired by a true story, a comedy centered on a 27-year-old guy who learns of his cancer diagnosis, and his subsequent struggle to beat the disease.", "poster_path": "/uDKmnFHqE3rQ9r6ErQsOZWuzXN8.jpg", "popularity": 13.937}, {"adult": false, "backdrop_path": "/nhLNyUCyyrTaTNOqwJ2Xlp9qYb4.jpg", "genre_ids": [12, 28, 53, 80, 9648], "id": 5503, "original_language": "en", "original_title": "The Fugitive", "overview": "Wrongfully convicted of murdering his wife and sentenced to death, Richard Kimble escapes from the law in an attempt to find her killer and clear his name. Pursuing him is a team of U.S. marshals led by Deputy Samuel Gerard, a determined detective who will not rest until Richard is captured. As Kimble leads the marshals through a series of intricate chases, he uncovers the secret behind his wife's death and struggles to expose the killer before he is recaptured, or killed.", "poster_path": "/3gzLGFBoJM1xlNk0Ulzp0cJ6uPp.jpg", "release_date": "1993-08-06", "title": "The Fugitive", "video": false, "vote_average": 7.4, "vote_count": 2315, "popularity": 19.326}, {"adult": false, "backdrop_path": "/3mEfawlJnuu4OmUlAOesrAMsWv6.jpg", "genre_ids": [53, 27], "id": 9540, "original_language": "en", "original_title": "Dead Ringers", "overview": "Elliot, a successful gynecologist, works at the same practice as his identical twin, Beverly. Elliot is attracted to many of his patients and has affairs with them. When he inevitably loses interest, he will give the woman over to Beverly, the meeker of the two, without the woman knowing the difference. Beverly falls hard for one of the patients, Claire, but when she inadvertently deceives him, he slips into a state of madness.", "poster_path": "/9ZGBwiWIvN9KmHaLeSS5it44G21.jpg", "release_date": "1988-09-23", "title": "Dead Ringers", "video": false, "vote_average": 7.2, "vote_count": 388, "popularity": 10.111}, {"adult": false, "backdrop_path": "/mtJrV7i76PtXJMmWz3tu6dWav6n.jpg", "genre_ids": [18], "id": 510, "original_language": "en", "original_title": "One Flew Over the Cuckoo's Nest", "overview": "While serving time for insanity at a state mental hospital, implacable rabble-rouser, Randle Patrick McMurphy, inspires his fellow patients to rebel against the authoritarian rule of head nurse, Mildred Ratched.", "poster_path": "/2Sns5oMb356JNdBHgBETjIpRYy9.jpg", "release_date": "1975-11-18", "title": "One Flew Over the Cuckoo's Nest", "video": false, "vote_average": 8.4, "vote_count": 6161, "popularity": 27.973}, {"id": 277216, "video": false, "vote_count": 2190, "vote_average": 7.7, "title": "Straight Outta Compton", "release_date": "2015-08-13", "original_language": "en", "original_title": "Straight Outta Compton", "genre_ids": [18, 10402], "backdrop_path": "/fdDTA06o5e7MRXnTGAf4EygL2MJ.jpg", "adult": false, "overview": "In 1987, five young men, using brutally honest rhymes and hardcore beats, put their frustration and anger about life in the most dangerous place in America into the most powerful weapon they had: their music.  Taking us back to where it all began, Straight Outta Compton tells the true story of how these cultural rebels\u2014armed only with their lyrics, swagger, bravado and raw talent\u2014stood up to the authorities that meant to keep them down and formed the world\u2019s most dangerous group, N.W.A.  And as they spoke the truth that no one had before and exposed life in the hood, their voice ignited a social revolution that is still reverberating today.", "poster_path": "/X7S1RtotXOZNV7OlgCfh5VKZSB.jpg", "popularity": 19.816}, {"id": 10312, "video": false, "vote_count": 1874, "vote_average": 7.2, "title": "Patch Adams", "release_date": "1998-12-25", "original_language": "en", "original_title": "Patch Adams", "genre_ids": [35, 18], "backdrop_path": "/9CtyPVGETuWUlqnNswo7R98xGgU.jpg", "adult": false, "overview": "Patch Adams is a doctor who doesn't look, act or think like any doctor you've met before. For Patch, humour is the best medicine and he's willing to do just anything to make his patients laugh\u2014even if it means risking his own career.", "poster_path": "/2T0Mj8gkTXgciedz8W5nsnjCHig.jpg", "popularity": 10.19}, {"id": 24150, "video": false, "vote_count": 673, "vote_average": 5.3, "title": "Halloween II", "release_date": "2009-08-28", "original_language": "en", "original_title": "Halloween II", "genre_ids": [27], "backdrop_path": "/1ucA7DaevpJWIsb291hYNXyy73M.jpg", "adult": false, "overview": "Laurie Strode struggles to come to terms with her brother Michael's deadly return to Haddonfield, Illinois. Meanwhile, Michael prepares for another reunion with his sister.", "poster_path": "/vSHPM4LQDpWdQrD5KZWK6wNqSOD.jpg", "popularity": 13.116}, {"id": 11821, "video": false, "vote_count": 285, "vote_average": 6.2, "title": "Doc Hollywood", "release_date": "1991-08-02", "original_language": "en", "original_title": "Doc Hollywood", "genre_ids": [35, 10749], "backdrop_path": "/kcqyI3pRvSDulyv2I9qfKmGuuuk.jpg", "adult": false, "overview": "After leaving Washington D.C. hospital, plastic surgeon Ben Stone heads for California, where a lucrative practice in Beverly Hills awaits. After a car accident, he's sentenced to perform as the community's general practitioner.", "poster_path": "/zha7PCdeJj309E3SLjcLEIW47gN.jpg", "popularity": 15.767}, {"adult": false, "backdrop_path": "/ltq1i8ienPm7OSdOXl3o8ROgmKc.jpg", "genre_ids": [28, 80, 18], "id": 2142, "original_language": "en", "original_title": "Cop Land", "overview": "Freddy Heflin is the sheriff of a place everyone calls \u201cCop Land\u201d \u2014 a small and seemingly peaceful town populated by the big city police officers he\u2019s long admired. Yet something ugly is taking place behind the town\u2019s peaceful facade. And when Freddy uncovers a massive, deadly conspiracy among these local residents, he is forced to take action and make a dangerous choice between protecting his idols and upholding the law.", "poster_path": "/th2UDVewgUAfIXFUaWGWWBxCM91.jpg", "release_date": "1997-08-15", "title": "Cop Land", "video": false, "vote_average": 6.7, "vote_count": 757, "popularity": 14.45}, {"adult": false, "backdrop_path": "/a09NeywCuAevxKDG8JmqBpittTT.jpg", "genre_ids": [18], "id": 340027, "original_language": "en", "original_title": "Brain on Fire", "overview": "Susannah Cahalan, an up-and-coming journalist at the New York Post becomes plagued by voices in her head and seizures, causing a rapid descent into insanity.", "poster_path": "/ulOCM9UYjiXxggjDBtNmGTmsJDA.jpg", "release_date": "2017-02-22", "title": "Brain on Fire", "video": false, "vote_average": 7.2, "vote_count": 800, "popularity": 13.13}, {"adult": false, "backdrop_path": "/oZwwwezJFlHmQGBRJDLmENXwOIt.jpg", "genre_ids": [9648, 27, 878], "id": 378018, "original_language": "en", "original_title": "The Void", "overview": "In the middle of a routine patrol, officer Daniel Carter happens upon a blood-soaked figure limping down a deserted stretch of road. He rushes the young man to a nearby rural hospital staffed by a skeleton crew, only to discover that patients and personnel are transforming into something inhuman. As the horror intensifies, Carter leads the other survivors on a hellish voyage into the subterranean depths of the hospital in a desperate bid to end the nightmare before it's too late.", "poster_path": "/c0WLRyT0AmUi41nVXBnqmJshIBn.jpg", "release_date": "2017-01-15", "title": "The Void", "video": false, "vote_average": 5.8, "vote_count": 573, "popularity": 11.169}, {"adult": false, "backdrop_path": "/iNuvbrHGNtrUwlm48u4KnQhhMKp.jpg", "genre_ids": [80, 18, 53], "id": 26390, "original_language": "en", "original_title": "Brooklyn's Finest", "overview": "Enforcing the law within the notoriously rough Brownsville section of the city and especially within the Van Dyke housing projects is the NYPD's sixty-fifth precinct. Three police officers struggle with the sometimes fine line between right and wrong.", "poster_path": "/jKSBk0LtZgXxG56uvwiAtYf6ttF.jpg", "release_date": "2009-01-16", "title": "Brooklyn's Finest", "video": false, "vote_average": 6.4, "vote_count": 500, "popularity": 11.822}, {"adult": false, "backdrop_path": "/86wll1GDVKYBFjJYeG8dJXU2aHO.jpg", "genre_ids": [18], "id": 10052, "original_language": "en", "original_title": "Dragonfly", "overview": "A grieving doctor is being contacted by his late wife through his patients near death experiences.", "poster_path": "/dazm7K8IHUtvwFvsGmztugonDi0.jpg", "release_date": "2002-02-22", "title": "Dragonfly", "video": false, "vote_average": 6.4, "vote_count": 440, "popularity": 10.42}, {"adult": false, "backdrop_path": "/4NpeO8Nq2whwZXs1tSb3m4LWSXf.jpg", "genre_ids": [18, 9648, 53], "id": 29589, "original_language": "en", "original_title": "Green for Danger", "overview": "In the midst of Nazi air raids, a postman dies on the operating table at a rural hospital. But was the death accidental?", "poster_path": "/3HYrCn43MSzY6kButjffW5D7BTH.jpg", "release_date": "1946-12-07", "title": "Green for Danger", "video": false, "vote_average": 7.1, "vote_count": 33, "popularity": 4.213}, {"adult": false, "backdrop_path": "/efECQRmOpX0ktZB1w1HyeYQQhwW.jpg", "genre_ids": [18, 53], "id": 11306, "original_language": "en", "original_title": "Extreme Measures", "overview": "Guy Luthan, a British doctor working at a hospital in New York, starts making unwelcome enquiries when the body of a man who died in his emergency room disappears. After the trail leads Luthan to the door of an eminent surgeon at the hospital, Luthan soon finds himself in extreme danger people who want the hospital's secret to remain undiscovered.", "poster_path": "/18WUNYhc58VQgBmJaFsaST9Uj69.jpg", "release_date": "1996-09-27", "title": "Extreme Measures", "video": false, "vote_average": 5.9, "vote_count": 157, "popularity": 9.86}, {"adult": false, "backdrop_path": "/2WmdaMjTufY8MIRe4SBmo22haaM.jpg", "genre_ids": [35, 10749], "id": 75802, "original_language": "en", "original_title": "Hysteria", "overview": "Two doctors in Victorian England use manual stimulation of female genitalia to cure their patients' ills, leading to the invention of the vibrator.", "poster_path": "/1vtHZYTBS5iRA5ADibY6cwU7Ffm.jpg", "release_date": "2011-06-06", "title": "Hysteria", "video": false, "vote_average": 6.6, "vote_count": 511, "popularity": 15.659}, {"id": 10676, "video": false, "vote_count": 588, "vote_average": 5.0, "title": "Halloween III: Season of the Witch", "release_date": "1982-10-22", "original_language": "en", "original_title": "Halloween III: Season of the Witch", "genre_ids": [27, 9648, 878], "backdrop_path": "/ryX5c0RSIur4si9McPwyPtpmTMF.jpg", "adult": false, "overview": "Dr. Daniel Challis and Ellie Grimbridge stumble onto a gruesome murder scheme when Ellie's novelty-salesman father, Harry, is killed while in possession of a halloween mask made by the Silver Shamrock mask company. The company's owner, Conal Cochran, wants to return Halloween to its darker roots using his masks -- and his unspeakable scheme would unleash death and destruction across the country.", "poster_path": "/svPexK18MEl0lyAqb8fFUGGsEQ8.jpg", "popularity": 11.688}, {"adult": false, "backdrop_path": "/5CPIk2eE3Nk4UPwx5HCHKDdIiJs.jpg", "genre_ids": [35, 27, 878], "id": 11429, "original_language": "en", "original_title": "Beyond Re-Animator", "overview": "Once again tampering with mother nature to disastrous results, Dr. Herbert West continues his research while serving time in a maximum security prison for his previous exploits. West's limited prison-cell experiments are suddenly interrupted by the arrival of a new prison doctor and the brother of the girl who suffered from West's experiments 13 years earlier.", "poster_path": "/7K8odajc1QUaeOtD5XvlBiWzypQ.jpg", "release_date": "2003-04-04", "title": "Beyond Re-Animator", "video": false, "vote_average": 5.5, "vote_count": 124, "popularity": 10.121}], "total_pages": 8, "total_results": 144}, "recommendations": {"page": 1, "results": [{"id": 187864, "video": false, "vote_count": 8, "vote_average": 8.0, "title": "Halima's Path", "release_date": "2012-07-25", "original_language": "hr", "original_title": "Halimin put", "genre_ids": [18], "backdrop_path": "/67iHVVvHAXbEfXEmIfdZJ5ILDt.jpg", "adult": false, "overview": "In order to recover the body of her son lost during the war in Bosnia, a grieving, but strong-willed Muslim woman, Halima, must track down her estranged niece, who we find carries a mysterious connection to him.", "poster_path": "/zawq2lr9jo6ZJWA86zhwpCU22c5.jpg", "popularity": 2.062}, {"adult": false, "backdrop_path": "/8uAVnt8nVhMc9Kyzj9XZhUKoxpn.jpg", "genre_ids": [18], "id": 44284, "original_language": "ar", "original_title": "\u0635\u0645\u062a \u0627\u0644\u0642\u0635\u0648\u0631", "overview": "The death of a prince brings a young woman back to the palace where she was born into servitude. The lingering legacy of the harem is brought into light from behind frosted windows and velvet curtains.", "poster_path": "/3M4bH7A2L6wrHeueTUwr5PKYkfS.jpg", "release_date": "1994-09-30", "title": "The Silences of the Palace", "video": false, "vote_average": 6.7, "vote_count": 9, "popularity": 2.473}], "total_pages": 1, "total_results": 2}, "credits": {"cast": [{"cast_id": 4, "character": "Danko Babi\u0107", "credit_id": "52fe4b98c3a368484e19080f", "gender": 2, "id": 54621, "name": "Rene Bitorajac", "order": 0, "profile_path": "/j7UaKi8LxLi7OojwxeTMp8GhmuM.jpg"}, {"cast_id": 5, "character": "Sestra Lana", "credit_id": "52fe4b98c3a368484e190813", "gender": 0, "id": 1045433, "name": "Nata\u0161a Janji\u0107", "order": 1, "profile_path": "/kA0D5KGwwpcD1fEgYo6ZQ9dcs5m.jpg"}, {"cast_id": 6, "character": "Ilija", "credit_id": "5472f91bc3a368058e0013a0", "gender": 2, "id": 4637, "name": "Leon Lu\u010dev", "order": 2, "profile_path": "/szgSFL5uJOZkyMLQhtaOLmnRjkQ.jpg"}, {"cast_id": 7, "character": "Jedinko", "credit_id": "5472f922c3a368682f00025d", "gender": 2, "id": 133023, "name": "Emir Had\u017eihafizbegovi\u0107", "order": 3, "profile_path": "/vyyIZ9ETu21Mh2wz5U7PQS3oKA1.jpg"}, {"cast_id": 8, "character": "Doktorica Lovri\u0107", "credit_id": "5472f92a9251413a5d003f46", "gender": 1, "id": 569927, "name": "Zrinka Cvite\u0161i\u0107", "order": 4, "profile_path": "/zRxNwS1dU3xhmU67d5TSbG9fFeF.jpg"}, {"cast_id": 9, "character": "Doktorica Miller", "credit_id": "581c27eec3a3681cec0011fc", "gender": 0, "id": 133018, "name": "Daria Lorenci Flatz", "order": 5, "profile_path": "/cPWaSW9WCiuMPuOaTisuzQAv9ip.jpg"}, {"cast_id": 10, "character": "Doktorica Domljan", "credit_id": "581c27f49251412f64004b9d", "gender": 1, "id": 1301997, "name": "Ksenija Paji\u0107", "order": 6, "profile_path": "/OF83fDzJ4dot1J5lKSeNGarXws.jpg"}, {"cast_id": 11, "character": "Patolog Marelja", "credit_id": "581c27ffc3a3682d6e0044e4", "gender": 0, "id": 87013, "name": "Mustafa Nadarevi\u0107", "order": 7, "profile_path": "/u5nM7GGB6dWJyWWW54Rh7paD5WO.jpg"}, {"cast_id": 12, "character": "Doktor Soldo", "credit_id": "581c28069251412e68004abe", "gender": 0, "id": 133014, "name": "Robert Ugrina", "order": 8, "profile_path": "/oMaRUyeqpNzhEwZFTKDzpQH2spg.jpg"}, {"cast_id": 13, "character": "Doktor Banti\u0107", "credit_id": "581c280e9251412e68004ac5", "gender": 0, "id": 63881, "name": "Kre\u0161imir Miki\u0107", "order": 9, "profile_path": "/gsw9sFV0Su0ObGJy5SMiLQOHHs6.jpg"}, {"cast_id": 14, "character": "Hassan Al Sadat", "credit_id": "581c28179251411199005d05", "gender": 0, "id": 133015, "name": "Rakan Rushaidat", "order": 10, "profile_path": "/4gqBZwY56bsJMS0LDkRZyk9Kroa.jpg"}, {"cast_id": 15, "character": "Profesor Mati\u0107", "credit_id": "581c281e925141311a00475f", "gender": 2, "id": 44739, "name": "Ljubomir Kereke\u0161", "order": 11, "profile_path": "/4xUYDgbLx5e74NYHjF8RYnJiw9z.jpg"}, {"cast_id": 16, "character": "Pukovnik", "credit_id": "581c28279251411199005d15", "gender": 0, "id": 1345473, "name": "Zdenko Jel\u010di\u0107", "order": 12, "profile_path": "/safIHuyZAYoyQVmXgpOEcCEwwnE.jpg"}, {"cast_id": 17, "character": "Smoljo", "credit_id": "581c2831c3a3682c86005096", "gender": 0, "id": 459004, "name": "Slaven Knezovi\u0107", "order": 13, "profile_path": "/v96jzpC3AUJlGcfHlFuFhASRo1k.jpg"}, {"cast_id": 18, "character": "Pacijentica \u0160varc", "credit_id": "581c2839c3a3681cec001239", "gender": 0, "id": 512966, "name": "Ksenija Marinkovi\u0107", "order": 14, "profile_path": "/yiDexg3nuxduaXhnWQd5Zuyp2uS.jpg"}], "crew": [{"credit_id": "52fe4b98c3a368484e1907ff", "department": "Directing", "gender": 0, "id": 133025, "job": "Director", "name": "Branko Schmidt", "profile_path": "/kP1AI3Pjr7exy7ChkBBlsNEijFH.jpg"}, {"credit_id": "52fe4b98c3a368484e190805", "department": "Writing", "gender": 0, "id": 133025, "job": "Writer", "name": "Branko Schmidt", "profile_path": "/kP1AI3Pjr7exy7ChkBBlsNEijFH.jpg"}, {"credit_id": "52fe4b98c3a368484e19080b", "department": "Writing", "gender": 0, "id": 133029, "job": "Novel", "name": "Ivo Balenovi\u0107", "profile_path": null}]}}