{"adult": false, "backdrop_path": "/stMp9PS9DwCBtbQ3jQeDbiYFdXG.jpg", "belongs_to_collection": null, "budget": 0, "genres": [{"id": 12, "name": "Adventure"}, {"id": 14, "name": "Fantasy"}, {"id": 27, "name": "Horror"}, {"id": 10770, "name": "TV Movie"}], "homepage": "http://www.syfy.com/movies/aladdin_and_the_death_lamp", "id": 132894, "imdb_id": "tt2415710", "original_language": "en", "original_title": "Aladdin and the Death Lamp", "overview": "Aladdin the adventurer and his friend Ali accidentally uncover a lamp that contains a genie. But unlike the story we know, this genie does not grant three wonderful wishes. This genie destroys everything in its way by turning the keeper\u2019s thoughts into living nightmares. After witnessing the death of his fellow adventurers when the genie is released, Aladdin and surviving friend Ali turn to the village elder to uncover the history of the lamp, only to find the evil Shahir has been following them, hoping to take hold of the lamp and fulfill his own diabolical plans to have unlimited power. destroy their friend along with the ring.", "popularity": 2.773, "poster_path": "/t3t34zS1xpMXVXxF5Z6JtcXrNI5.jpg", "production_companies": [], "production_countries": [], "release_date": "2012-09-15", "revenue": 0, "runtime": 86, "spoken_languages": [{"iso_639_1": "en", "name": "English"}], "status": "Released", "tagline": "", "title": "Aladdin and the Death Lamp", "video": false, "vote_average": 4.3, "vote_count": 7, "keywords": {"keywords": [{"id": 190536, "name": "genie"}, {"id": 239734, "name": "magic lamp"}]}, "similar": {"page": 1, "results": [{"adult": false, "backdrop_path": "/5OeY4U2rzePxWq2rkqMajUx2gz7.jpg", "genre_ids": [16, 10751, 12, 14, 10749], "id": 812, "original_language": "en", "original_title": "Aladdin", "overview": "Princess Jasmine grows tired of being forced to remain in the palace, so she sneaks out into the marketplace, in disguise, where she meets street-urchin Aladdin.  The couple falls in love, although Jasmine may only marry a prince.  After being thrown in jail, Aladdin becomes embroiled in a plot to find a mysterious lamp, with which the evil Jafar hopes to rule the land.", "poster_path": "/mjKozYRuHc9j7SmiXmbVmCiAM0A.jpg", "release_date": "1992-11-25", "title": "Aladdin", "video": false, "vote_average": 7.6, "vote_count": 7289, "popularity": 35.494}, {"id": 12232, "video": false, "vote_count": 104, "vote_average": 7.2, "title": "The Thief of Bagdad", "release_date": "1940-12-25", "original_language": "en", "original_title": "The Thief of Bagdad", "genre_ids": [28, 12, 14, 10751], "backdrop_path": "/wZnDBtjFct5tOF8ROyQOctJ0r1g.jpg", "adult": false, "overview": "When Prince Ahmad is blinded and cast out of Bagdad by the nefarious Jaffar, he joins forces with the scrappy thief Abu to win back his royal place, as well as the heart of a beautiful princess.", "poster_path": "/5YkPgVJIMxQ7DeXqkjokAQ203Bx.jpg", "popularity": 9.396}, {"id": 420817, "video": false, "vote_count": 4668, "vote_average": 7.0, "title": "Aladdin", "release_date": "2019-05-22", "original_language": "en", "original_title": "Aladdin", "genre_ids": [12, 35, 14, 10749, 10751], "backdrop_path": "/rVqY0Bo4Npf6EIONUROxjYAJfmD.jpg", "adult": false, "overview": "A kindhearted street urchin named Aladdin embarks on a magical adventure after finding a lamp that releases a wisecracking genie while a power-hungry Grand Vizier vies for the same lamp that has the power to make their deepest wishes come true.", "poster_path": "/3iYQTLGoy7QnjcUYRJy4YrAgGvp.jpg", "popularity": 58.512}, {"id": 15515, "video": false, "vote_count": 107, "vote_average": 6.9, "title": "The 7th Voyage of Sinbad", "release_date": "1958-12-05", "original_language": "en", "original_title": "The 7th Voyage of Sinbad", "genre_ids": [28, 12, 14, 10751], "backdrop_path": "/eiVnTqQ7qjssGwXEfXf7BKx4ugH.jpg", "adult": false, "overview": "When a princess is shrunken by an evil wizard, Sinbad must undertake a quest to an island of monsters to cure her and prevent a war.", "poster_path": "/mzEFF9YRN13HLz6Cq7jMYR8aHVb.jpg", "popularity": 10.614}, {"id": 11238, "video": false, "vote_count": 1169, "vote_average": 6.2, "title": "Aladdin and the King of Thieves", "release_date": "1996-05-20", "original_language": "en", "original_title": "Aladdin and the King of Thieves", "genre_ids": [12, 16, 10751], "backdrop_path": "/gDGV6FtkoFIM0hSsDxeUq6wD391.jpg", "adult": false, "overview": "Legendary secrets are revealed as Aladdin and his friends\u2014Jasmine, Abu, Carpet and, of course, the always entertaining Genie\u2014face all sorts of terrifying threats and make some exciting last-minute escapes pursuing the King Of Thieves and his villainous crew.", "poster_path": "/f6cwFA76j6aaRu1KOQ8bBYfSlLx.jpg", "popularity": 16.34}, {"id": 14411, "video": false, "vote_count": 1083, "vote_average": 6.8, "title": "Sinbad: Legend of the Seven Seas", "release_date": "2003-07-02", "original_language": "en", "original_title": "Sinbad: Legend of the Seven Seas", "genre_ids": [12, 16, 35, 10751], "backdrop_path": "/2lKUGOdK88w6G80giTqlnJKDetN.jpg", "adult": false, "overview": "The sailor of legend is framed by the goddess Eris for the theft of the Book of Peace, and must travel to her realm at the end of the world to retrieve it and save the life of his childhood friend Prince Proteus.", "poster_path": "/6LELf4ZzVBJwR9mNq86Mf5QVERS.jpg", "popularity": 14.683}, {"id": 11511, "video": false, "vote_count": 134, "vote_average": 3.7, "title": "Kazaam", "release_date": "1996-07-17", "original_language": "en", "original_title": "Kazaam", "genre_ids": [35, 14, 10751], "backdrop_path": "/t7bgKh5FlpD22Z3YWG8D1Cqdqqi.jpg", "adult": false, "overview": "When Max fools a gang of local toughs, he finds himself in big trouble. Fleeing from the thugs, Max runs into an old warehouse and bumps into a boom box. By doing that, he manages to release Kazaam, a genie who has been held captive for thousands of years.", "poster_path": "/feEgPqyjzzYI2NyuqM70JsXA6Qy.jpg", "popularity": 11.203}, {"id": 17897, "video": false, "vote_count": 100, "vote_average": 6.6, "title": "The Golden Voyage of Sinbad", "release_date": "1973-12-20", "original_language": "en", "original_title": "The Golden Voyage of Sinbad", "genre_ids": [28, 12, 18, 14], "backdrop_path": "/49RxhKZUgOUbUkiK5t6QfZni26x.jpg", "adult": false, "overview": "Sinbad and his crew intercept a homunculus carrying a golden tablet. Koura, the creator of the homunculus and practitioner of evil magic, wants the tablet back and pursues Sinbad. Meanwhile Sinbad meets the Vizier who has another part of the interlocking golden map, and they mount a quest across the seas to solve the riddle of the map.", "poster_path": "/z3ldjIJEknEotbm3O8oUkMVnagh.jpg", "popularity": 12.573}, {"adult": false, "backdrop_path": "/dTm269aZ8jUfAyM8gHWomPUFxoR.jpg", "genre_ids": [10749, 12, 14], "id": 28963, "original_language": "en", "original_title": "The Thief of Bagdad", "overview": "A recalcitrant thief vies with a duplicitous Mongol ruler for the hand of a beautiful princess.", "poster_path": "/a6IzXkwZRDimfn8HATzP6Pi6Ois.jpg", "release_date": "1924-03-18", "title": "The Thief of Bagdad", "video": false, "vote_average": 7.5, "vote_count": 65, "popularity": 7.01}, {"id": 9807, "video": false, "vote_count": 106, "vote_average": 5.4, "title": "Aladdin", "release_date": "1986-01-01", "original_language": "it", "original_title": "Superfantagenio", "genre_ids": [28, 12, 35, 14], "backdrop_path": "/faBerGN84DWpJFXlRp4FhxjEahb.jpg", "adult": false, "overview": "A teenager in modern-day Miami finds a magic lantern and out pops a genie, who's been asleep for 200 years and in his gratitude grants the boy several wishes.", "poster_path": "/gBEz9b06v7X3zZnVB6N35j3B5IG.jpg", "popularity": 7.559}, {"id": 20220, "video": false, "vote_count": 24, "vote_average": 4.9, "title": "1001 Nights", "release_date": "1990-04-11", "original_language": "fr", "original_title": "Les 1001 nuits", "genre_ids": [12, 35, 14], "backdrop_path": "/gBZOlI8WDeEQ4YH362ZNPdvRGtY.jpg", "adult": false, "overview": "Sheherazade has been married to a ruler who wants many wives, but only one at a time. Consequently, as soon as he has bedded them, he has them put to death. In most retellings, the girl staves off this unfortunate conclusion by putting off the connubial event for a thousand and one nights, telling irresistible stories instead. In this one, she gets hold of a magic lamp.", "poster_path": "/25LlHGwcEI9SpFosebAQml1knTy.jpg", "popularity": 3.386}, {"id": 602411, "video": false, "vote_count": 13, "vote_average": 4.0, "title": "Adventures of Aladdin", "release_date": "2019-05-14", "original_language": "es", "original_title": "Adventures of Aladdin", "genre_ids": [12], "backdrop_path": "/RA2FjGBj1zMEEblkcXkpTthXzK.jpg", "adult": false, "overview": "With the help of a magical lamp, an impoverished young man transforms himself into a prince in order to win the heart of a beautiful princess. A live-action retelling of the 1992 Disney film of the same name.", "poster_path": "/w900HA8MiAEDY3IQl6mz5JY916F.jpg", "popularity": 5.133}, {"adult": false, "backdrop_path": "/6V3nYgtcCzMX6HHWjIIkajVEc8F.jpg", "genre_ids": [12, 18, 28, 10752], "id": 89584, "original_language": "tr", "original_title": "Fetih 1453", "overview": "After the death of his father Murat II, Mehmet II ascends to the Ottoman throne. After braving internal and external enemies, he decides to complete what he was destined to do: Conquer Constantinople.", "poster_path": "/jbyf6DbBucwCgHXlAaA7mX4KdSs.jpg", "release_date": "2012-02-16", "title": "Conquest 1453", "video": false, "vote_average": 6.3, "vote_count": 94, "popularity": 5.476}, {"id": 90984, "video": false, "vote_count": 7, "vote_average": 5.1, "title": "A Thousand and One Nights", "release_date": "1945-07-20", "original_language": "en", "original_title": "A Thousand and One Nights", "genre_ids": [12, 35, 14], "backdrop_path": "/sMwdNcfiEOflpfvP6eDX5OLGGQA.jpg", "adult": false, "overview": "On the run after being found sweet-talking the Sultan's daughter, Aladdin comes upon a lamp which, when rubbed, summons up Babs the genie. He uses it to return as a visiting prince asking for the princess's hand. Unfortunately for him, the sultan's wicked twin brother has secretly usurped the throne, someone else is after the lamp for his own ends, and Babs has taken a shine to Aladdin herself and is bent on wrecking his endeavours.", "poster_path": "/1XfX58k7OlItR3wfSyPg0tS9JfK.jpg", "popularity": 4.522}, {"adult": false, "backdrop_path": "/7ELCfuomuupSl3JXocbAaPszLU8.jpg", "genre_ids": [12, 10749, 36], "id": 44446, "original_language": "fr", "original_title": "Ang\u00e9lique et le Sultan", "overview": "This film finds Ang\u00e9lique in a North African Muslim kingdom where she is now part of the Sultan's harem. The first part of the film consist of her angrily refusing to be bedded as well as their trying to literally beat some sense into her. It all seems to go on too long and I was surprised that the Sultan simply didn't have her killed. Late in the film, she finally decides to escape with the help of two Christian prisoners.", "poster_path": "/3bW4RQVAWDX6ucBX9zufO2FN7Vr.jpg", "release_date": "1968-01-01", "title": "Angelique and the Sultan", "video": false, "vote_average": 6.9, "vote_count": 57, "popularity": 6.307}, {"id": 83746, "video": false, "vote_count": 27, "vote_average": 7.1, "title": "Broom-Stick Bunny", "release_date": "1956-02-25", "original_language": "en", "original_title": "Broom-Stick Bunny", "genre_ids": [16, 35, 10751], "backdrop_path": "/fjQ2n6zKfNh3snjX3dVYYyhQ7B8.jpg", "adult": false, "overview": "On Halloween, Bugs Bunny, masquerading as an witch, trick or treats at Witch Hazel's door. He comes to the creepy old mansion of Witch Hazel, who's mixing up a potion. Bugs is mistaken for a real witch by Hazel, who prides herself on being the ugliest witch of all.", "poster_path": "/5DZEuFWHIdMCauSPw2htHqvtpN1.jpg", "popularity": 4.087}, {"adult": false, "backdrop_path": "/tnSwhI1le6hPXAxTJ2BTVC34qgP.jpg", "genre_ids": [27], "id": 26675, "original_language": "en", "original_title": "The Outing", "overview": "An ancient genie is released from a lamp when thieves ransack an old woman's house. They are killed and the lamp is moved to a museum to be studied. The curator's daughter is soon possessed by the genie and invites her friends to spend the night at the museum, along with some uninvited guests...", "poster_path": "/qmK7jJEoIyKDNbicEhAPkVgEEgA.jpg", "release_date": "1987-09-11", "title": "The Outing", "video": false, "vote_average": 5.4, "vote_count": 26, "popularity": 4.358}, {"id": 24046, "video": false, "vote_count": 13, "vote_average": 7.4, "title": "Bernard and the Genie", "release_date": "1991-11-23", "original_language": "en", "original_title": "Bernard and the Genie", "genre_ids": [35, 18, 14, 10770], "backdrop_path": "/9fKtbt3D4S3EYvc0HdaBuYllQCR.jpg", "adult": false, "overview": "Bernard Bottle, a mild mannered art buyer, is fired by his greedy boss, abandoned by his girlfriend and discovers a genie in an old bottle. The genie immediately embraces the modern world and helps Bernard on the side.", "poster_path": "/vUCv19I12fj8sQybVrRRH6WaWNf.jpg", "popularity": 3.85}, {"adult": false, "backdrop_path": null, "genre_ids": [14, 12], "id": 182344, "original_language": "fr", "original_title": "Le palais des mille et une nuits", "overview": "A poor but honest young man wins the hand of a beautiful Princess after facing a series of exciting adventures involving apparitions, cartwheeling skeletons, a dragon, and plump dancing girls from the Folies Bergere.", "poster_path": "/7b73Tp2mh8wsPj1j0L91JCT2GxS.jpg", "release_date": "1905-05-28", "title": "The Palace of the Arabian Nights", "video": false, "vote_average": 5.7, "vote_count": 10, "popularity": 2.095}, {"adult": false, "backdrop_path": "/bOIJ0uiUHAoBM30HMovUaPOOOEE.jpg", "genre_ids": [28, 12, 14, 10749], "id": 44475, "original_language": "en", "original_title": "Ali Baba and the Forty Thieves", "overview": "Orphaned as a young child and adopted by a band of notorious thieves, now-grown Ali Baba sets out to avenge his father\u2019s murder, reclaim the royal throne, and rescue his beloved Amara from the iron fist of his treacherous enemy.", "poster_path": "/n3bXF6WDy5YiD0TsdzncL2aU293.jpg", "release_date": "1944-01-14", "title": "Ali Baba and the Forty Thieves", "video": false, "vote_average": 6.3, "vote_count": 11, "popularity": 4.692}], "total_pages": 4, "total_results": 69}, "recommendations": {"page": 1, "results": [{"adult": false, "backdrop_path": "/gmCIyYZdwP9R3QuXH3bTfTjiSo6.jpg", "genre_ids": [10770, 28, 12, 18, 14], "id": 31533, "original_language": "en", "original_title": "Hammer of the Gods", "overview": "Thor along with his friends travels to mysterious island seeking glory and fame. Upon arriving they encounter strange creatures and they start searching the island for answers. Meanwhile Thor keeps seeing visions for a mighty warrior and a big hammer and Freyja tells him that his visions are clues so they start searching for the hammer.", "poster_path": "/jvBrRJwjQCEIH1lFEJLTBw01cOe.jpg", "release_date": "2009-02-01", "title": "Hammer of the Gods", "video": false, "vote_average": 3.1, "vote_count": 17, "popularity": 4.779}], "total_pages": 1, "total_results": 1}, "credits": {"cast": [{"cast_id": 7, "character": "Aladdin", "credit_id": "52fe4ba0c3a368484e191e55", "gender": 2, "id": 60652, "name": "Darren Shahlavi", "order": 0, "profile_path": "/qnije3wcudlIbSjRrNr9A57tjO3.jpg"}, {"cast_id": 8, "character": "Luca", "credit_id": "52fe4ba0c3a368484e191e59", "gender": 2, "id": 33668, "name": "Noam Jenkins", "order": 1, "profile_path": "/9ryko4U9zPFmNKcWgv3TxDZ3tcC.jpg"}, {"cast_id": 6, "character": "Shifa", "credit_id": "52fe4ba0c3a368484e191e51", "gender": 1, "id": 52507, "name": "Kandyse McClure", "order": 2, "profile_path": "/gGoTrc6u04pwnVkfplILD87JW9s.jpg"}, {"cast_id": 5, "character": "Khalil", "credit_id": "52fe4ba0c3a368484e191e4d", "gender": 2, "id": 61660, "name": "Eugene Clark", "order": 3, "profile_path": "/v1iJYDA4vUWZhef9GE38US43zEB.jpg"}, {"cast_id": 13, "character": "Shifa's Father", "credit_id": "5aa2cc689251417d450000f0", "gender": 2, "id": 1994213, "name": "Manuel Rodriguez-Saenz", "order": 4, "profile_path": "/rOnAxgtUgGZmYuAwSxBVyPVoX6F.jpg"}], "crew": [{"credit_id": "52fe4ba0c3a368484e191e5f", "department": "Directing", "gender": 2, "id": 44132, "job": "Director", "name": "Mario Philip Azzopardi", "profile_path": null}, {"credit_id": "52fe4ba0c3a368484e191e65", "department": "Writing", "gender": 0, "id": 1168991, "job": "Writer", "name": "Joe Morganella", "profile_path": null}, {"credit_id": "52fe4ba0c3a368484e191e6b", "department": "Writing", "gender": 1, "id": 81139, "job": "Writer", "name": "Angela Mancuso", "profile_path": "/wzaB4ImNNLzDNOEf4QYgwu3uJF9.jpg"}, {"credit_id": "52fe4ba0c3a368484e191e71", "department": "Writing", "gender": 1, "id": 224215, "job": "Writer", "name": "Kevin Commins", "profile_path": null}]}}