{"adult": false, "backdrop_path": "/bJa0GMk8yY9zrCnqHSURBuPluUW.jpg", "belongs_to_collection": null, "budget": 2000000, "genres": [{"id": 35, "name": "Comedy"}, {"id": 18, "name": "Drama"}, {"id": 10749, "name": "Romance"}], "homepage": null, "id": 13337, "imdb_id": "tt0772157", "original_language": "en", "original_title": "Broken English", "overview": "Nora Wilder (Parker Posey), a single, career woman works at a Manhattan boutique hotel where her excellent skills in guest relations lack in the romantic department. If it is not her loving and dominant mother (Gena Rowlands) attempting to set her up that consistently fail, she has her friend\u2019s (Drea de Matteo) disastrous blind dates to rely on as a backup for further dismay. She's surrounded by friends who are all happily engaged or romantically involved and somehow, love escapes Nora -- until she meets an unusual Frenchman (Melvil Poupaud) who helps her discover life beyond her self-imposed boundaries.", "popularity": 5.907, "poster_path": "/gH6TksNMroeKAh1S6zkaOHfYNOz.jpg", "production_companies": [{"id": 3279, "logo_path": null, "name": "Vox3 Films", "origin_country": ""}, {"id": 3097, "logo_path": null, "name": "HDNet Films", "origin_country": ""}, {"id": 5381, "logo_path": "/m6vSpFeYtFoW1lNv5mpLHzH4eLL.png", "name": "Backup Media", "origin_country": "FR"}, {"id": 106369, "logo_path": null, "name": "Phantom Films", "origin_country": "JP"}], "production_countries": [{"iso_3166_1": "JP", "name": "Japan"}, {"iso_3166_1": "FR", "name": "France"}, {"iso_3166_1": "US", "name": "United States of America"}], "release_date": "2007-01-01", "revenue": 0, "runtime": 97, "spoken_languages": [{"iso_639_1": "en", "name": "English"}, {"iso_639_1": "fr", "name": "Fran\u00e7ais"}], "status": "Released", "tagline": "", "title": "Broken English", "video": false, "vote_average": 6.7, "vote_count": 37, "keywords": {"keywords": [{"id": 2751, "name": "career woman"}, {"id": 9457, "name": "single"}, {"id": 10183, "name": "independent film"}, {"id": 187056, "name": "woman director"}]}, "similar": {"page": 1, "results": [{"adult": false, "backdrop_path": "/rf6G51j0SZL0tP57I8gnqHTRFEr.jpg", "genre_ids": [35, 18, 10749], "id": 273153, "original_language": "fr", "original_title": "La belle saison", "overview": "In 1971, Carole and Delphine meet and fall in love in Paris. When Carole follows Delphine back to her family farm in Limousin, the two find lesbianism and feminism are not as easy in the countryside.", "poster_path": "/evvAkNMO5VJiy5qIo1Hu7fUfvVI.jpg", "release_date": "2015-08-19", "title": "Summertime", "video": false, "vote_average": 6.6, "vote_count": 162, "popularity": 15.434}, {"id": 9813, "video": false, "vote_count": 128, "vote_average": 6.1, "title": "The Quiet", "release_date": "2005-09-12", "original_language": "en", "original_title": "The Quiet", "genre_ids": [18, 53], "backdrop_path": "/6eyWAZA4CEidZW1xXnQ4vlYBXTP.jpg", "adult": false, "overview": "After her widowed father dies, deaf teenager Dot moves in with her godparents, Olivia and Paul Deer. The Deers' daughter, Nina, is openly hostile to Dot, but that does not prevent her from telling her secrets to her silent stepsister, including the fact that she wants to kill her lecherous father.", "poster_path": "/GEqIE9YlmygHVUfS64LW2cwAAM.jpg", "popularity": 13.948}, {"adult": false, "backdrop_path": "/gZeJziVigmRqbkEZwKAtSqlLQ6s.jpg", "genre_ids": [18, 10749], "id": 370663, "original_language": "en", "original_title": "Below Her Mouth", "overview": "An unexpected affair quickly escalates into a heart-stopping reality for two women whose passionate connection changes their lives forever.", "poster_path": "/nTGbq37hYLuNy7YgMg0gVLma0NS.jpg", "release_date": "2016-09-10", "title": "Below Her Mouth", "video": false, "vote_average": 6.2, "vote_count": 456, "popularity": 22.676}, {"adult": false, "backdrop_path": "/txtRue33MaXv5HQpTiHPOmOcDxE.jpg", "genre_ids": [35, 10749], "id": 11631, "original_language": "en", "original_title": "Mamma Mia!", "overview": "An independent, single mother who owns a small hotel on a Greek island is about to marry off the spirited young daughter she's raised alone. But, the daughter has secretly invited three of her mother's ex-lovers in the hopes of finding her biological father.", "poster_path": "/gOm2iMMbC6EonrFzmSQ8xvCa4Ei.jpg", "release_date": "2008-07-02", "title": "Mamma Mia!", "video": false, "vote_average": 6.9, "vote_count": 4120, "popularity": 16.652}, {"adult": false, "backdrop_path": "/tzqeuHWMFihFbiLGHdalPgAcSf6.jpg", "genre_ids": [18, 10749], "id": 18620, "original_language": "en", "original_title": "Go Fish", "overview": "Max is a trendy, pretty, young lesbian, who is having trouble finding love. A friend sets her up with Ely, whom Max likes, but Ely is frumpy, homely, and older. Nor do they have much in common. Can Max learn to look past the packaging?", "poster_path": "/qrEFYrwykaGsY8NULYuYLLI7zrM.jpg", "release_date": "1994-06-10", "title": "Go Fish", "video": false, "vote_average": 5.0, "vote_count": 11, "popularity": 2.626}, {"adult": false, "backdrop_path": "/6tern9vOEwwmkDYC1vRCuO64z0C.jpg", "genre_ids": [10749, 18], "id": 475888, "original_language": "en", "original_title": "Tell It to the Bees", "overview": "Dr. Jean Markham returns to the town she left as a teenager to take over her late father's medical practice. When a school-yard scuffle lands Charlie in her surgery, she invites him to visit the hives in her garden and tell his secrets to the bees, as she once did. The new friendship between the boy and the bee keeper brings his mother Lydia into Jean's world.", "poster_path": "/Rj6zpHhMU1zFW3v28U4PSRSRgP.jpg", "release_date": "2019-05-03", "title": "Tell It to the Bees", "video": false, "vote_average": 6.4, "vote_count": 53, "popularity": 15.113}, {"adult": false, "backdrop_path": "/knczzNAjBXzSYkeWxoT1u9VNmjR.jpg", "genre_ids": [10749, 18], "id": 258480, "original_language": "en", "original_title": "Carol", "overview": "In 1950s New York, a department-store clerk who dreams of a better life falls for an older, married woman.", "poster_path": "/AbKa7ANxmui0Jmhh7gV7OSELKIL.jpg", "release_date": "2015-11-20", "title": "Carol", "video": false, "vote_average": 7.4, "vote_count": 2182, "popularity": 14.185}, {"adult": false, "backdrop_path": "/dvQDRfv3qvfHNnVAR57ouVsuErf.jpg", "genre_ids": [10749, 18], "id": 28031, "original_language": "en", "original_title": "If These Walls Could Talk 2", "overview": "The stories of three lesbian couples -- who live in the same house at different periods of time -- who are at a crossroads in their lives. In 1961, Edith loses her lover, Abby, to a stroke. Linda and Amy struggle with feminist issues in 1972. And, in 2000, Kal and Fran try to have a baby with the help of sperm donor.", "poster_path": "/xs7ODbmYQXCDhvXNvz5tF17T59H.jpg", "release_date": "2000-03-05", "title": "If These Walls Could Talk 2", "video": false, "vote_average": 7.1, "vote_count": 55, "popularity": 8.062}, {"id": 520172, "video": false, "vote_count": 0, "vote_average": 0.0, "title": "Happiest Season", "release_date": "2020-11-20", "original_language": "en", "original_title": "Happiest Season", "genre_ids": [35, 10749], "backdrop_path": null, "adult": false, "overview": "A young woman's plans to propose to her girlfriend while at her family's annual holiday party are upended when she discovers her partner hasn't yet come out to her conservative parents.", "poster_path": null, "popularity": 6.436}, {"adult": false, "backdrop_path": "/cADbqsIoiDW7X3Myg9nz8eAuno5.jpg", "genre_ids": [18, 10749], "id": 10818, "original_language": "fr", "original_title": "Naissance des pieuvres", "overview": "Set during a sultry summer in a French suburb, Marie is desperate to join the local pool's synchronized swimming team, but is her interest solely for the sake of sport or for a chance to get close to Floriane, the bad girl of the team? Sciamma, and the two leads, capture the uncertainty of teenage sexuality with a sympathetic eye in this delicate drama of the angst of coming-of-age.", "poster_path": "/4jajELYrR4Xmv3CVoKnukRnALa2.jpg", "release_date": "2007-05-17", "title": "Water Lilies", "video": false, "vote_average": 6.1, "vote_count": 119, "popularity": 10.744}, {"adult": false, "backdrop_path": "/fZ8oFcREAr6wgWcXISGql0xyxjB.jpg", "genre_ids": [35, 18], "id": 39781, "original_language": "en", "original_title": "The Kids Are All Right", "overview": "Two women, Nic and Jules, brought a son and daughter into the world through artificial insemination. When one of their children reaches age, both kids go behind their mothers' backs to meet with the donor. Life becomes so much more interesting when the father, two mothers and children start to become attached to each other.", "poster_path": "/fPDeK4MmoGfi2X0oWZev7LrbMqM.jpg", "release_date": "2010-07-09", "title": "The Kids Are All Right", "video": false, "vote_average": 6.6, "vote_count": 923, "popularity": 12.703}, {"adult": false, "backdrop_path": "/hD8DQM72Xacg1d3mFqS0eN8vKYw.jpg", "genre_ids": [18], "id": 8272, "original_language": "en", "original_title": "The Savages", "overview": "A sister and brother face the realities of familial responsibility as they begin to care for their ailing father.", "poster_path": "/nY54gSmTOmSXlQpWDB7DWp4u8a7.jpg", "release_date": "2007-01-19", "title": "The Savages", "video": false, "vote_average": 6.9, "vote_count": 192, "popularity": 13.094}, {"adult": false, "backdrop_path": "/caLMOD3ZJ3V7qjlxDXrzlJfBLgD.jpg", "genre_ids": [18, 10749], "id": 20, "original_language": "en", "original_title": "My Life Without Me", "overview": "A Pedro Almodovar production in which a fatally ill mother with only two months to live creates a list of things she wants to do before she dies with out telling her family of her illness.", "poster_path": "/vVj92VBFUBzjqzLvBiPVVlJDp78.jpg", "release_date": "2003-03-07", "title": "My Life Without Me", "video": false, "vote_average": 6.1, "vote_count": 220, "popularity": 9.208}, {"adult": false, "backdrop_path": "/useuHJQ5HOoEWkAvEjL1FW1sUfe.jpg", "genre_ids": [18], "id": 376867, "original_language": "en", "original_title": "Moonlight", "overview": "The tender, heartbreaking story of a young man\u2019s struggle to find himself, told across three defining chapters in his life as he experiences the ecstasy, pain, and beauty of falling in love, while grappling with his own sexuality.", "poster_path": "/qAwFbszz0kRyTuXmMeKQZCX3Q2O.jpg", "release_date": "2016-10-21", "title": "Moonlight", "video": false, "vote_average": 7.4, "vote_count": 4406, "popularity": 27.348}, {"adult": false, "backdrop_path": "/k8H7ye6Sab7OrDJoo8Qp5WFGHGk.jpg", "genre_ids": [35, 10749, 18], "id": 244264, "original_language": "en", "original_title": "Laggies", "overview": "Overeducated and underemployed, 28 year old Megan is in the throes of a quarterlife crisis. Squarely into adulthood with no career prospects, no particular motivation to think about her future and no one to relate to, Megan is comfortable lagging a few steps behind - while her friends check off milestones and celebrate their new grown-up status. When her high-school sweetheart proposes, Megan panics and- given an unexpected opportunity to escape for a week - hides out in the home of her new friend, 16-year old Annika and Annika's world-weary single dad Craig.", "poster_path": "/dNcoXoRC7JHiqbe7k5Ufo6syiPP.jpg", "release_date": "2014-09-25", "title": "Laggies", "video": false, "vote_average": 6.1, "vote_count": 787, "popularity": 9.883}, {"adult": false, "backdrop_path": "/g3LYarEY9LjB28Ct2trwFN72gqZ.jpg", "genre_ids": [35], "id": 437557, "original_language": "en", "original_title": "Blockers", "overview": "When three parents discover their daughters\u2019 pact to lose their virginity at prom, they launch a covert one-night operation to stop the teens from sealing the deal.", "poster_path": "/uvlUQXg0AlpGzKukO11K7QtW3Yu.jpg", "release_date": "2018-03-14", "title": "Blockers", "video": false, "vote_average": 6.2, "vote_count": 1153, "popularity": 18.075}, {"id": 434714, "video": false, "vote_count": 32, "vote_average": 7.5, "title": "My Days of Mercy", "release_date": "2019-07-11", "original_language": "en", "original_title": "My Days of Mercy", "genre_ids": [18, 10749], "backdrop_path": "/7Lbzq33nMMIQtAfZAmSqG6ibLSg.jpg", "adult": false, "overview": "The daughter of a man on death row falls in love with a woman on the opposing side of her family's political cause.", "poster_path": "/adIPKAoKnKL9vCTkvfF4J9ZA7Ln.jpg", "popularity": 6.928}, {"adult": false, "backdrop_path": "/npClMhFGn4XUkwu6coq5oKAEu6L.jpg", "genre_ids": [35, 10749, 18], "id": 634, "original_language": "en", "original_title": "Bridget Jones's Diary", "overview": "A chaotic Bridget Jones meets a snobbish lawyer, and he soon enters her world of imperfections.", "poster_path": "/ym6kjFFZg6boC0QHBVw6hqJLbxv.jpg", "release_date": "2001-04-13", "title": "Bridget Jones's Diary", "video": false, "vote_average": 6.7, "vote_count": 3079, "popularity": 16.678}, {"adult": false, "backdrop_path": "/ojn7IYKmMt8HXRd6oLwY5pLGLVc.jpg", "genre_ids": [18, 10749], "id": 9587, "original_language": "en", "original_title": "Little Women", "overview": "With their father away as a chaplain in the Civil War, Jo, Meg, Beth and Amy grow up with their mother in somewhat reduced circumstances. They are a close family who inevitably have their squabbles and tragedies. But the bond holds even when, later, male friends start to become a part of the household.", "poster_path": "/tD9YDE8pjtSvvKUpkmooE6YDSm8.jpg", "release_date": "1994-12-21", "title": "Little Women", "video": false, "vote_average": 7.2, "vote_count": 574, "popularity": 24.712}, {"adult": false, "backdrop_path": "/4aWNF3HT0ryJNLWTxtxBuMFrd3O.jpg", "genre_ids": [28, 53, 18], "id": 309886, "original_language": "en", "original_title": "Blood Father", "overview": "An ex-con reunites with his estranged wayward 16-year old daughter to protect her from drug dealers who are trying to kill her.", "poster_path": "/cKDGrVItQTdDn6LqcICz91AOxs3.jpg", "release_date": "2016-08-11", "title": "Blood Father", "video": false, "vote_average": 6.1, "vote_count": 905, "popularity": 15.153}], "total_pages": 1425, "total_results": 28482}, "recommendations": {"page": 1, "results": [{"adult": false, "backdrop_path": "/e9JG934eG8h7D2LuYN9b3HuvBzd.jpg", "genre_ids": [35, 18], "id": 96314, "original_language": "en", "original_title": "Mighty Fine", "overview": "Set in the 1970's, MIGHTY FINE is the story of Joe Fine (Chazz Palminteri) a charismatic, high-spirited man, who relocates his family--wife Stella (Andie MacDowell), a Holocaust survivor, daughters Nathalie (Jodelle Ferland) and Maddie (Rainey Qualley)--from Brooklyn to New Orleans, in search of a better life. Unfortunately, Joe's spending spree is wildly out of touch with reality, as his apparel business is teetering on the brink of collapse, a fact he refuses to accept. Written and directed by Debbie Goodstein, MIGHTY FINE is told from the perspective of an adult Nathalie remembering the events of her youth, and is inspired by Goodstein's memories of her own father. MIGHTY FINE ultimately shows how coming to terms with the past without judgment is the most fruitful way to move toward the future.", "poster_path": "/2q5uEYcUzrTGpleJ8EUlLAcXnal.jpg", "release_date": "2012-05-25", "title": "Mighty Fine", "video": false, "vote_average": 4.8, "vote_count": 7, "popularity": 4.273}, {"adult": false, "backdrop_path": "/xkFK6RGwVlSqS9bzuzxQsOROEn1.jpg", "genre_ids": [27, 53], "id": 62986, "original_language": "en", "original_title": "Lust for Dracula", "overview": "Mina Harker isn't the happiest of Hollywood Hills wives - even though she's married to wealthy pharmaceuticals magnate Jonathan Harker. The repressed Mina longs for Jonathan's love and the happiness a child would bring them, yet the arrival of the beautiful and mysterious Dracula - seductive vampire servants at her side - will change their lives forever. Dracula offers Mina the sensual existence she so desperately craves - one that is immediately threatened by Mina's sister, Dr. Abigail Van Helsing. Van Helsing seeks to not only destroy the monstrous vampire but covet Mina's seemingly perfect life and husband Jonathan, too. As these troubled characters move ever closer toward their destinies and a final battle with Dracula, blood will be spilled, souls will be destroyed, and love will become undying.", "poster_path": "/txqItBKhXeVNJkULN29gNLHkhZE.jpg", "release_date": "2004-09-27", "title": "Lust for Dracula", "video": false, "vote_average": 2.0, "vote_count": 4, "popularity": 2.621}, {"adult": false, "backdrop_path": "/pYso03OtjEjSyequImVhPWwxOQC.jpg", "genre_ids": [35], "id": 177851, "original_language": "en", "original_title": "Miss Dial", "overview": "A consumer affair rep who works from her apartment decides to play hooky one day, and spends her time calling random people, looking for new connections", "poster_path": "/902foc55u7mcbtczG2BvlCicr2s.jpg", "release_date": "2013-03-07", "title": "Miss Dial", "video": false, "vote_average": 5.1, "vote_count": 7, "popularity": 2.721}, {"id": 18408, "video": false, "vote_count": 16, "vote_average": 6.6, "title": "Cherish", "release_date": "2002-01-17", "original_language": "en", "original_title": "Cherish", "genre_ids": [35, 18, 9648, 53], "backdrop_path": "/k1IPXtLFcYa3D6aepcYxorXguDb.jpg", "adult": false, "overview": "After a martini-induced rampage, a fantasy-prone young woman is placed under house arrest.", "poster_path": "/hTNAKGnqi8v4FRPEjm9Wl5S5yMz.jpg", "popularity": 6.773}, {"adult": false, "backdrop_path": "/yLf7Ki01Vbf3xwzW5ysCv0SnnJn.jpg", "genre_ids": [35, 18], "id": 31723, "original_language": "en", "original_title": "Women in Trouble", "overview": "A serpentine day in the life of ten seemingly disparate women: a porn star, a flight attendant, a psychiatrist, a masseuse, a bartender, a pair of call girls, etc. All of them with one crucial thing in common. Trouble.", "poster_path": "/wifcx5CBYoSSICvYZihFYUmnFjF.jpg", "release_date": "2009-11-13", "title": "Women in Trouble", "video": false, "vote_average": 5.4, "vote_count": 58, "popularity": 11.029}, {"adult": false, "backdrop_path": "/mNsyLDfGKLjBz974ltFjNP94Zkq.jpg", "genre_ids": [18], "id": 118075, "original_language": "en", "original_title": "Going All the Way", "overview": "Korean War--era veterans and ex-classmates \"Gunner\" Casselman and \"Sonny\" Burns reunite upon their return home. Gunner, who spent the war years abroad, is trying to convince his mother that his gal Marty is good enough for him, while Sonny, who was stationed stateside, is torn between loyal Buddy and tempting Gale Ann. As they commiserate, the men realize that they're outgrowing the lives they lived before the war.", "poster_path": "/xDnaIuZYOLYomwC1V3Xi1RjCDrr.jpg", "release_date": "1997-01-19", "title": "Going All the Way", "video": false, "vote_average": 4.6, "vote_count": 14, "popularity": 4.006}, {"adult": false, "backdrop_path": "/thjlUi4Gx0ZmpsQVEQ7jK8WXjZ.jpg", "genre_ids": [35, 10749], "id": 20457, "original_language": "en", "original_title": "The Matchmaker", "overview": "Marcy, a worker in the reelection campaign of bumbling Senator John McGlory, is sent to Ireland on a quest to find the Irish ancestry of Sen. McGlory, to help him win the Irish vote. But when Marcy arrives in the small village of Ballinagra, she finds herself in the middle of a matchmaking festival, and the local matchmaker is determined to pair her off with one of the local bachelors.", "poster_path": "/d4T1angi2Wc03txOZSRgc1Jm1PF.jpg", "release_date": "1997-10-03", "title": "The Matchmaker", "video": false, "vote_average": 6.2, "vote_count": 26, "popularity": 4.295}, {"adult": false, "backdrop_path": "/t1xD6UP0rbmyNUqfklC6OvC1Abf.jpg", "genre_ids": [35, 18, 10749], "id": 191566, "original_language": "en", "original_title": "Crazy Kind of Love", "overview": "A broken family finds their relationships to one another changed by a new arrival in the household.", "poster_path": "/fuuzxXWqXhtmU2idbwzdR9pdr0A.jpg", "release_date": "2013-05-31", "title": "Crazy Kind of Love", "video": false, "vote_average": 6.1, "vote_count": 21, "popularity": 4.915}, {"adult": false, "backdrop_path": "/dLhvDjzg3OHtBzGQFHQYFe4Tb6G.jpg", "genre_ids": [35], "id": 57573, "original_language": "en", "original_title": "Craig Ferguson: Does This Need to Be Said?", "overview": "If you only know Craig Ferguson as host of The Late Late Show or as Drew Carey's sitcom boss, you're missing out. The gloriously ribald Scot takes to the stage in this all-new comedy special for a night of jokes and storytelling peppered with the kinds of words he's not allowed to say on network TV. Before a hootin' and hollerin' Nashville audience, Ferguson tackles every topic from celebrity sex scandals to booze to his own hilarious heavy metal past - all in an accent that makes him sound downright refined.", "poster_path": "/26DBcckapOBnLCp8QqiR4xlolKU.jpg", "release_date": "2011-02-19", "title": "Craig Ferguson: Does This Need to Be Said?", "video": false, "vote_average": 7.2, "vote_count": 9, "popularity": 2.72}, {"adult": false, "backdrop_path": "/wpHFcZ1h6OcUUNH5Gj92FPqsvpu.jpg", "genre_ids": [35, 18, 10749], "id": 14922, "original_language": "en", "original_title": "Happy Endings", "overview": "An ensemble cast telling 10 stories with intertwining characters. One story is about a father and son who are dating the same woman . Another features a woman who long ago gave her baby up for adoption but is now being blackmailed by a documentary filmmaker who claims to know the now-grown child's whereabouts.", "poster_path": "/teTjhQPzi3TtXNIlSSw3OZPDnaS.jpg", "release_date": "2005-01-20", "title": "Happy Endings", "video": false, "vote_average": 5.8, "vote_count": 58, "popularity": 8.03}, {"id": 49963, "video": false, "vote_count": 15, "vote_average": 6.5, "title": "Walking and Talking", "release_date": "1996-07-17", "original_language": "en", "original_title": "Walking and Talking", "genre_ids": [35, 18, 10749], "backdrop_path": "/qyUcA9yqly33P0shcexLmVwhBPS.jpg", "adult": false, "overview": "Things have been tough lately for Amelia. Her best friend moved out of the apartment, her cat got cancer, and now her best friend, Laura, is getting married. She copes with things, from the help of Andrew, Frank, Laura, and a brief romance with Bill \"The Ugly Guy\".", "poster_path": "/wUMMnbcqrNP1jIf64kDcJ6NtDJj.jpg", "popularity": 4.546}, {"adult": false, "backdrop_path": "/bw1EaMl4ucZqK4yfzY9pWhzlpFM.jpg", "genre_ids": [35, 18, 10749], "id": 14167, "original_language": "en", "original_title": "Standing Still", "overview": "A chain reaction of confrontations and romantic encounters occurs when college friends reunite for one's wedding.", "poster_path": "/r5a8l1fz6WjLvOmELY0tTfoCXTf.jpg", "release_date": "2005-01-02", "title": "Standing Still", "video": false, "vote_average": 5.6, "vote_count": 22, "popularity": 6.922}, {"adult": false, "backdrop_path": "/l8g9VAYVZ0LcvbNk0nZ3iLRnVXz.jpg", "genre_ids": [18, 10749], "id": 18451, "original_language": "en", "original_title": "The Whole Wide World", "overview": "The Whole Wide World tells the story of Novalyne Price, an attractive feisty West Texas schoolteacher and her bittersweet, romantic and turbulent relationship with Robert E. Howard, the great pulp fiction writer of the 1930s.", "poster_path": "/ajMk4ueXcOCbxwJjJecltiGhYrn.jpg", "release_date": "1996-09-08", "title": "The Whole Wide World", "video": false, "vote_average": 6.5, "vote_count": 21, "popularity": 4.75}, {"adult": false, "backdrop_path": "/6q9KRNfy3fCSNoT80NbEu8yJzkX.jpg", "genre_ids": [18, 53, 9648], "id": 68174, "original_language": "en", "original_title": "Waking Madison", "overview": "A woman suffering from multiple personality disorder tries to piece back together her life.", "poster_path": "/df5rLpzg08jgIqiSvBvg5xuiINP.jpg", "release_date": "2011-05-02", "title": "Waking Madison", "video": false, "vote_average": 5.7, "vote_count": 19, "popularity": 4.329}, {"adult": false, "backdrop_path": null, "genre_ids": [18, 9648], "id": 208358, "original_language": "en", "original_title": "Social Butterfly", "overview": "A 30-year-old American woman enters a teenage party in the South of France. Some of the guests wonder who she is and what she is doing there.", "poster_path": "/qrdeQJ1wj9oIjpwXbrPkivx9VMw.jpg", "release_date": "2013-01-18", "title": "Social Butterfly", "video": false, "vote_average": 6.2, "vote_count": 6, "popularity": 1.72}, {"adult": false, "backdrop_path": "/4vstNtgKQR8KQOf2czO3luqMrJ9.jpg", "genre_ids": [35], "id": 421111, "original_language": "en", "original_title": "My Dead Boyfriend", "overview": "Mary\u2019s life has been defined by a string of temp jobs and a half-hearted attempt to become a writer.  But all that changes when she comes home to find her boyfriend dead in front of the TV set.  During her misadventures in trying to get rid of his ashes, Mary discovers that there was much more to her couch potato boyfriend than she ever thought imaginable.", "poster_path": "/jDIqQoXyswo7bxPeH90BMH7Gwaq.jpg", "release_date": "2016-11-04", "title": "My Dead Boyfriend", "video": false, "vote_average": 4.2, "vote_count": 9, "popularity": 3.16}, {"adult": false, "backdrop_path": "/8QuAsm6iKDk81Q3Gk0pbmmdr6P3.jpg", "genre_ids": [35, 53], "id": 47541, "original_language": "en", "original_title": "Bad Girls from Valley High", "overview": "Three snobbish high school girls prematurely age brought on from a curse, a drug (or something) after the arrival of new transfer student whom they believe is connected to a murder they committed a year earlier. A fate worse than death.", "poster_path": "/gfyNp1enGhtUguM8CtLNy70Enxf.jpg", "release_date": "2005-07-17", "title": "Bad Girls from Valley High", "video": false, "vote_average": 3.2, "vote_count": 9, "popularity": 4.972}, {"adult": false, "backdrop_path": null, "genre_ids": [16, 80, 99], "id": 369366, "original_language": "en", "original_title": "Last Day of Freedom", "overview": "When Bill Babbitt realizes his brother Manny has committed a crime he agonizes over his decision to call the police.", "poster_path": "/pyoCj6HLZnQSQP3egUKZpgYL6d.jpg", "release_date": "2015-04-11", "title": "Last Day of Freedom", "video": false, "vote_average": 7.3, "vote_count": 11, "popularity": 3.943}, {"adult": false, "backdrop_path": "/qrd405cjXceDtJEU2qdQgX3SDWC.jpg", "genre_ids": [18], "id": 38729, "original_language": "en", "original_title": "A Delicate Balance", "overview": "The film spans three days in the life of Agnes and Tobias, an upper middle class couple who share their comfortable suburban Connecticut home with her acerbic alcoholic sister Claire. It is matriarch Agnes who helps the quartet maintain a delicate balance in their lives, held together by habit, shared memories, and considerable consumption of dry martinis.", "poster_path": "/qGUzZ8DQAW4Je7W0xmRuLbzNYTg.jpg", "release_date": "1973-11-12", "title": "A Delicate Balance", "video": false, "vote_average": 6.5, "vote_count": 4, "popularity": 3.107}, {"adult": false, "backdrop_path": null, "genre_ids": [18], "id": 43073, "original_language": "en", "original_title": "Eden", "overview": "A married couple's relationship begins to fall apart as their 10th wedding anniversary approaches.", "poster_path": "/8bt9kGyIEn0Sy6nk4ZWfiDcHXHa.jpg", "release_date": "2008-11-07", "title": "Eden", "video": false, "vote_average": 5.3, "vote_count": 3, "popularity": 1.964}], "total_pages": 2, "total_results": 40}, "credits": {"cast": [{"cast_id": 1, "character": "Nora Wilder", "credit_id": "52fe455c9251416c75053ce5", "gender": 1, "id": 7489, "name": "Parker Posey", "order": 0, "profile_path": "/7kgXNbTDwE5fxCG6KY5pacOK9aj.jpg"}, {"cast_id": 2, "character": "Audrey Andrews", "credit_id": "52fe455c9251416c75053ce9", "gender": 1, "id": 70767, "name": "Drea de Matteo", "order": 1, "profile_path": "/6rAp86rimrbRbZtm61jQoc5Fmkv.jpg"}, {"cast_id": 3, "character": "Mark Andrews", "credit_id": "52fe455c9251416c75053ced", "gender": 2, "id": 40275, "name": "Tim Guinee", "order": 2, "profile_path": "/rS2K7cJx6Vm2buE0HhIUp9tuC1g.jpg"}, {"cast_id": 4, "character": "Vivien Wilder-Mann", "credit_id": "52fe455c9251416c75053cf1", "gender": 1, "id": 4800, "name": "Gena Rowlands", "order": 3, "profile_path": "/oiSzfVdyfOWQzUJvFKx6VffoNKN.jpg"}, {"cast_id": 7, "character": "Julien", "credit_id": "52fe455c9251416c75053d01", "gender": 2, "id": 26100, "name": "Melvil Poupaud", "order": 4, "profile_path": "/p6Woc7Am82KKnGVyxjtgQuGtTWt.jpg"}, {"cast_id": 8, "character": "Nick Gable", "credit_id": "5b072a670e0a263c34000aae", "gender": 2, "id": 15009, "name": "Justin Theroux", "order": 5, "profile_path": "/vnI9L0rXBAw1HeC0Q8hJGeJMGAW.jpg"}], "crew": [{"credit_id": "52fe455c9251416c75053cf7", "department": "Directing", "gender": 0, "id": 95977, "job": "Director", "name": "Zoe R. Cassavetes", "profile_path": "/qDozNzLxrfnf2V75e0KDUAFch9.jpg"}, {"credit_id": "52fe455c9251416c75053cfd", "department": "Writing", "gender": 0, "id": 95977, "job": "Writer", "name": "Zoe R. Cassavetes", "profile_path": "/qDozNzLxrfnf2V75e0KDUAFch9.jpg"}]}}