{"adult": false, "backdrop_path": "/ojdhvkiqKwUmicHk1FT0j8xCWDY.jpg", "belongs_to_collection": null, "budget": 35000000, "genres": [{"id": 35, "name": "Comedy"}, {"id": 18, "name": "Drama"}], "homepage": null, "id": 13490, "imdb_id": "tt0494652", "original_language": "en", "original_title": "Welcome Home Roscoe Jenkins", "overview": "When a celebrated TV show host returns to his hometown in the South, his family is there to remind him that going home is no vacation!", "popularity": 12.815, "poster_path": "/wvIrljvNF6UGJ94tpjgPzT9cIPn.jpg", "production_companies": [{"id": 158, "logo_path": "/6SHlNIype9zmyEMRsBtoueUtLsq.png", "name": "Spyglass Entertainment", "origin_country": "US"}, {"id": 33, "logo_path": "/8lvHyhjr8oUKOOy2dKXoALWKdp0.png", "name": "Universal Pictures", "origin_country": "US"}], "production_countries": [{"iso_3166_1": "US", "name": "United States of America"}], "release_date": "2008-02-08", "revenue": 43650785, "runtime": 114, "spoken_languages": [{"iso_639_1": "en", "name": "English"}], "status": "Released", "tagline": "Roscoe Jenkins aims for the heartstrings and funny bones, a raucous helping of family soul food.", "title": "Welcome Home Roscoe Jenkins", "video": false, "vote_average": 5.6, "vote_count": 127, "keywords": {"keywords": [{"id": 3741, "name": "talk show"}]}, "similar": {"page": 1, "results": [{"id": 523172, "video": false, "vote_count": 230, "vote_average": 6.7, "title": "Late Night", "release_date": "2019-01-25", "original_language": "en", "original_title": "Late Night", "genre_ids": [35, 18], "backdrop_path": "/smsd8whMlYuIDvfGc63AZ5eTJHo.jpg", "adult": false, "overview": "A legendary late-night talk show host's world is turned upside down when she hires her only female staff writer. Originally intended to smooth over diversity concerns, her decision has unexpectedly hilarious consequences as the two women separated by culture and generation are united by their love of a biting punchline.", "poster_path": "/xxwb5KBqS0SHsUcyLgWMk3vuVxY.jpg", "popularity": 18.052}, {"adult": false, "backdrop_path": "/w6TR7kTsKmlBYps2i5hzoukBLCn.jpg", "genre_ids": [35, 14], "id": 10330, "original_language": "en", "original_title": "Freaky Friday", "overview": "Mother and daughter bicker over everything -- what Anna wears, whom she likes and what she wants to do when she's older. In turn, Anna detests Tess's fianc\u00e9. When a magical fortune cookie switches their personalities, they each get a peek at how the other person feels, thinks and lives.", "poster_path": "/fBtYKVgpGNoUsmRGy7rLjIQsmpf.jpg", "release_date": "2003-08-03", "title": "Freaky Friday", "video": false, "vote_average": 6.2, "vote_count": 2252, "popularity": 14.938}, {"adult": false, "backdrop_path": "/uqLUeQR6wg80RMlcIbQQHIv8EDW.jpg", "genre_ids": [10402, 35], "id": 8873, "original_language": "en", "original_title": "Wayne's World 2", "overview": "A message from Jim Morrison in a dream prompts cable access TV stars Wayne and Garth to put on a rock concert, \"Waynestock,\" with Aerosmith as headliners. But amid the preparations, Wayne frets that a record producer is putting the moves on his girlfriend, Cassandra, while Garth handles the advances of mega-babe Honey Hornee.", "poster_path": "/pBs9DuzWhqWX7vPjzB6AvAXKXzM.jpg", "release_date": "1993-12-10", "title": "Wayne's World 2", "video": false, "vote_average": 6.0, "vote_count": 558, "popularity": 12.373}, {"adult": false, "backdrop_path": "/tWw7e5Sn7M0aKfhDGdf2qK1GdMc.jpg", "genre_ids": [35, 18], "id": 177, "original_language": "en", "original_title": "The Fisher King", "overview": "Two troubled men face their terrible destinies and events of their past as they join together on a mission to find the Holy Grail and thus to save themselves.", "poster_path": "/x93W5WrOOr3PCia1cANnWmAtUwQ.jpg", "release_date": "1991-09-09", "title": "The Fisher King", "video": false, "vote_average": 7.3, "vote_count": 701, "popularity": 15.394}, {"id": 488223, "video": false, "vote_count": 97, "vote_average": 7.7, "title": "Dave Chappelle: Equanimity", "release_date": "2017-12-30", "original_language": "en", "original_title": "Dave Chappelle: Equanimity", "genre_ids": [35], "backdrop_path": "/wiRJsxQd5pFUmjw77IR9n0Lv0IX.jpg", "adult": false, "overview": "Comedy legend Dave Chappelle returns to his roots with an all-new stand-up special filmed at the Warner Theatre in Washington, D.C.", "poster_path": "/1fy9tDNs5c8hMVegLjU6YnnrwJp.jpg", "popularity": 7.818}, {"adult": false, "backdrop_path": "/k2G0BVfNWN0x4JsMfSvanfbfsq4.jpg", "genre_ids": [35, 18], "id": 284537, "original_language": "en", "original_title": "Welcome to Me", "overview": "A year in the life of Alice Klieg, a woman with Borderline Personality Disorder who wins Mega-millions, quits her meds and buys her own talk show.", "poster_path": "/1voaGFPqqGUFuzOcjEneRSPiIdV.jpg", "release_date": "2014-09-05", "title": "Welcome to Me", "video": false, "vote_average": 5.9, "vote_count": 204, "popularity": 9.19}, {"id": 30330, "video": false, "vote_count": 26, "vote_average": 6.3, "title": "The Late Shift", "release_date": "1996-02-24", "original_language": "en", "original_title": "The Late Shift", "genre_ids": [35, 18], "backdrop_path": "/riL2oUZrEMCzUJbMVXy1Eo1AnV6.jpg", "adult": false, "overview": "David Letterman vies with Jay Leno and his manager to succeed Johnny Carson, retiring from \"The Tonight Show.\"", "poster_path": "/ew2NjrAF59cZzo2W5Sc5drhpo7T.jpg", "popularity": 6.407}, {"id": 761, "video": false, "vote_count": 414, "vote_average": 7.1, "title": "The Wing or the Thigh", "release_date": "1976-10-27", "original_language": "fr", "original_title": "L'Aile ou la Cuisse", "genre_ids": [35], "backdrop_path": "/7Mj79tH5nEI7Ie2BcGJsGN7YK6M.jpg", "adult": false, "overview": "Charles Duchemin, a well-known gourmet and publisher of a famous restaurant guide, is waging a war against fast food entrepreneur Tri- catel to save the French art of cooking. After having agreed to appear on a talk show to show his skills in naming food and wine by taste, he is confronted with two disasters: his son wants to become a clown rather than a restaurant tester and he, the famous Charles Duchemin, has lost his taste!", "poster_path": "/xtiu51bOYSCp6dKOEchUiOsibKq.jpg", "popularity": 11.094}, {"id": 74849, "video": false, "vote_count": 221, "vote_average": 3.1, "title": "The Star Wars Holiday Special", "release_date": "1978-12-01", "original_language": "en", "original_title": "The Star Wars Holiday Special", "genre_ids": [12, 35, 878, 10751, 10770], "backdrop_path": "/ie6u0zegHcVJEtHSpYn0KgEogrD.jpg", "adult": false, "overview": "Luke Skywalker and Han Solo battle evil Imperial forces to help Chewbacca reach his imperiled family on the Wookiee planet - in time for Life Day, their most important day of the year!", "poster_path": "/3MsSWyFFWGNOneSfLv4Qtw8xThg.jpg", "popularity": 10.255}, {"id": 15037, "video": false, "vote_count": 245, "vote_average": 6.2, "title": "Can't Hardly Wait", "release_date": "1998-06-12", "original_language": "en", "original_title": "Can't Hardly Wait", "genre_ids": [35, 18, 10749], "backdrop_path": "/4SBMpt49oW0GV5Jnqev7nUmUFZV.jpg", "adult": false, "overview": "It's graduation day at Huntington Hills High, and you know what that means - time to party. And not just any party, either. This one will be a night to remember, as the nerds become studs, the jocks are humiliated, and freshman crushes blossom into grown-up romance.", "poster_path": "/4lNoWkbuqJFZC19geEpnEbGBxNU.jpg", "popularity": 12.066}, {"adult": false, "backdrop_path": "/h2tLXxXVW99QOoxaCIiHChFtpe9.jpg", "genre_ids": [35], "id": 492166, "original_language": "en", "original_title": "Russell Howard: Recalibrate", "overview": "Self-deprecating comic Russell Howard plows ahead through politics, porn, social media and his own shortcomings. Yet he somehow keeps it positive.", "poster_path": "/6XliXeE9gUKJTKgMTnyFvSmIroD.jpg", "release_date": "2017-12-19", "title": "Russell Howard: Recalibrate", "video": false, "vote_average": 8.0, "vote_count": 22, "popularity": 4.46}, {"adult": false, "backdrop_path": "/92q4H5sA1JrlpTB4YLnFmgniBza.jpg", "genre_ids": [35, 10749], "id": 80659, "original_language": "en", "original_title": "Get Well Soon", "overview": "After having a nervous breakdown, a popular talk-show host confronts his ex-girlfriend who is dating a cross-dresser.", "poster_path": "/m5fYXJezGiX7UzHrzMh5t3u9oEc.jpg", "release_date": "2001-12-20", "title": "Get Well Soon", "video": false, "vote_average": 4.1, "vote_count": 8, "popularity": 3.889}, {"adult": false, "backdrop_path": "/n1I0ScK8chsi49F5hAuo355U8mF.jpg", "genre_ids": [35, 878], "id": 35933, "original_language": "en", "original_title": "Max Headroom - 20 Minutes into the Future", "overview": "The film introduces Edison Carter, a television reporter trying to expose corruption and greed. In the movie, reporter Carter discovers that his employer, Network 23, has created a new form of subliminal advertising (termed \"blip-verts\") that can be fatal to certain viewers.", "poster_path": "/2Gn6Ic94ulcmdL4oHPQc3lpMm8r.jpg", "release_date": "1985-04-04", "title": "Max Headroom - 20 Minutes into the Future", "video": false, "vote_average": 6.3, "vote_count": 20, "popularity": 4.078}, {"id": 18975, "video": false, "vote_count": 122, "vote_average": 5.1, "title": "The Adventures of Pinocchio", "release_date": "1996-07-26", "original_language": "en", "original_title": "The Adventures of Pinocchio", "genre_ids": [16, 14, 10751], "backdrop_path": "/kd1sUvGxBRnXzrX5krCp3vrtEmD.jpg", "adult": false, "overview": "One of puppet-maker Geppetto's creations comes magically to life. This puppet, Pinocchio, has one major desire and that is to become a real boy someday. In order to accomplish this goal he has to learn to act responsibly. This film shows you the adventures on which he learns valuable lessons.", "poster_path": "/fT5b16eeBcroK6OhsmxYPTv36gQ.jpg", "popularity": 12.194}, {"id": 75638, "video": false, "vote_count": 678, "vote_average": 6.1, "title": "Red Lights", "release_date": "2012-03-02", "original_language": "en", "original_title": "Red Lights", "genre_ids": [53], "backdrop_path": "/kAlz6J4UHwQsB6A9850frALGmP8.jpg", "adult": false, "overview": "Two investigators of paranormal hoaxes, the veteran Dr. Margaret Matheson and her young assistant, Tom Buckley, study the most varied metaphysical phenomena with the aim of proving their fraudulent origins. Simon Silver, a legendary blind psychic, reappears after an enigmatic absence of 30 years to become the greatest international challenge to both orthodox science and professional sceptics. Tom starts to develop an intense obsession with Silver, whose magnetism becomes stronger with each new manifestation of inexplicable events. As Tom gets closer to Silver, tension mounts, and his worldview is threatened to its core.", "poster_path": "/iiNGtxUhO2oDeCci7E6OF7OEASk.jpg", "popularity": 10.209}, {"adult": false, "backdrop_path": "/5feRrJC1iagLtQVjFQBiw4V4QER.jpg", "genre_ids": [35], "id": 487156, "original_language": "en", "original_title": "Judd Apatow: The Return", "overview": "Renowned producer, director and writer Judd Apatow makes his long-awaited return to stand-up comedy with this new special shot in Montreal.", "poster_path": "/h83KVdM6UMJplVA8jgXWk60Kk1Y.jpg", "release_date": "2017-12-12", "title": "Judd Apatow: The Return", "video": false, "vote_average": 6.2, "vote_count": 17, "popularity": 4.248}, {"adult": false, "backdrop_path": "/iBawvRRrFmsNkwGC5pyePurtbUw.jpg", "genre_ids": [35], "id": 11871, "original_language": "de", "original_title": "Late Show", "overview": "No overview found.", "poster_path": "/99W0qoewfZLmV1LIp98eAQEFyWE.jpg", "release_date": "1999-02-25", "title": "Late Show", "video": false, "vote_average": 6.3, "vote_count": 10, "popularity": 2.043}, {"adult": false, "backdrop_path": "/nXbozvV3ldVx2PZya732tpTC7hA.jpg", "genre_ids": [35], "id": 67272, "original_language": "sv", "original_title": "K\u00e4nd fr\u00e5n tv", "overview": "", "poster_path": "/2Lnzksg2tPctUDatKDmZDyWT8ho.jpg", "release_date": "2001-09-21", "title": "K\u00e4nd fr\u00e5n tv", "video": false, "vote_average": 5.0, "vote_count": 5, "popularity": 1.313}, {"adult": false, "backdrop_path": "/vHrSqyT1QG3nqqFzsoy1FXDFSwl.jpg", "genre_ids": [27, 9648, 53], "id": 412766, "original_language": "en", "original_title": "Sam Was Here", "overview": "California, Mojave Desert, 1998. A strange glow appears in the sky. Sam, a forty-something door-to-door salesman, travels through the few inhabited zones of the Californian desert in search of clients.", "poster_path": "/3M1Mt7dXaiRSOygR9C66DA3sbtt.jpg", "release_date": "2016-09-27", "title": "Sam Was Here", "video": false, "vote_average": 5.3, "vote_count": 95, "popularity": 9.86}, {"adult": false, "backdrop_path": "/4WJsKk8gYoqN1WoVLX8UnE76qjy.jpg", "genre_ids": [35], "id": 136553, "original_language": "en", "original_title": "The Rumble in the Air: Conditioned Auditorium", "overview": "Bill O'Reilly, Jon Stewart, 2 podiums,1 air-conditioned auditorium... In \"O'Reilly vs. Stewart 2012: The Rumble in the Air-Conditioned Auditorium,\" O'Reilly &amp; Stewart take an entertaining and comedic approach to today's pressing political issues, in an attempt to find the best direction for America. The debate, which was streamed live online, was recorded on Saturday, October 6th, 2012, at the Lisner Auditorium at The George Washington University, in Washington, D.C.  The proceeds from the sale of the debate go to multiple charities picked by both O'Reilly &amp; Stewart, including the Fisher House Foundation, Doctors Without Borders, and the USO.", "poster_path": "/egRhE8WRF14HYTBYY6AzVzVGQNu.jpg", "release_date": "2012-10-06", "title": "The Rumble in the Air: Conditioned Auditorium", "video": false, "vote_average": 6.9, "vote_count": 6, "popularity": 2.875}], "total_pages": 3, "total_results": 54}, "recommendations": {"page": 1, "results": [{"adult": false, "backdrop_path": "/iJRukIj21oCEIZT9YxEdHda5qng.jpg", "genre_ids": [35, 10751], "id": 7233, "original_language": "en", "original_title": "Rebound", "overview": "An acclaimed college hoops coach is demoted to a junior varsity team after a public meltdown.", "poster_path": "/xBj0fdVEkibf4G0kjhVsxeGiWGu.jpg", "release_date": "2005-07-01", "title": "Rebound", "video": false, "vote_average": 5.3, "vote_count": 184, "popularity": 11.738}, {"adult": false, "backdrop_path": "/agnWagE5alhV2d8SxdBi21YPc8t.jpg", "genre_ids": [28, 35], "id": 14423, "original_language": "en", "original_title": "First Sunday", "overview": "Durell and LeeJohn are best friends and bumbling petty criminals. When told they have one week to pay a $17,000 debt or Durell will lose his son, they come up with a desperate scheme to rob their neighborhood church. Instead, they end up spending the night in the presence of the Lord and are forced to deal with much more than they bargained for.", "poster_path": "/4crEqEk5pYHvlNG7UUBBudi4z0R.jpg", "release_date": "2008-01-11", "title": "First Sunday", "video": false, "vote_average": 5.3, "vote_count": 91, "popularity": 9.642}, {"id": 28121, "video": false, "vote_count": 33, "vote_average": 6.0, "title": "A Thin Line Between Love and Hate", "release_date": "1996-04-04", "original_language": "en", "original_title": "A Thin Line Between Love and Hate", "genre_ids": [35, 80, 53, 10749], "backdrop_path": "/tvXV6rYESvuBMw8rtn357jqRIDb.jpg", "adult": false, "overview": "Nightclub manager Darnell Wright is a perpetual playboy who is almost as devoted to his job as he is to the pursuit of beautiful women. After he sets his sights on the ultra-classy Brandi Web, he launches an all-out assault to win her heart. Ultimately, charm, lust and passion prevail, but Darnell learns the hard way that when you play, you pay. Brandi is much harder to get rid of than she was to get--especially when she realizes that she has a rival vying for Darnell's affection. When he finally decides to call it quits, Brandi becomes an obsessed femme fatale stalking the new love of her life.", "poster_path": "/sDDdImTQGeMYqSQgKNlZCrzmfgt.jpg", "popularity": 6.998}, {"adult": false, "backdrop_path": "/sWt05gztuMjEYVDXqs4LdkAmvaY.jpg", "genre_ids": [35, 18], "id": 16094, "original_language": "en", "original_title": "House Party", "overview": "Young Kid has been invited to a party at his friend Play's house. But after a fight at school, Kid's father grounds him. None the less, Kid sneaks out when his father falls asleep. But Kid doesn't know that three of the thugs at school have decided to give him a lesson in behavior.", "poster_path": "/qKQ32fCcM7g5tLKMsLR75ZOOPmv.jpg", "release_date": "1990-03-09", "title": "House Party", "video": false, "vote_average": 6.2, "vote_count": 96, "popularity": 9.223}, {"id": 9917, "video": false, "vote_count": 101, "vote_average": 6.3, "title": "Waist Deep", "release_date": "2006-06-23", "original_language": "en", "original_title": "Waist Deep", "genre_ids": [28, 12, 18, 53], "backdrop_path": "/mtLJgaENVTLBIjEq1tpI7UIYWoF.jpg", "adult": false, "overview": "An ex-convict (Tyrese) gets tangled up with a gang after his car is hijacked with his son inside.", "poster_path": "/xBshLPA17Sbq1AJEACpkDLnRvPd.jpg", "popularity": 12.104}, {"id": 16300, "video": false, "vote_count": 196, "vote_average": 5.2, "title": "Down to Earth", "release_date": "2001-02-16", "original_language": "en", "original_title": "Down to Earth", "genre_ids": [35, 14, 878, 10749], "backdrop_path": "/wjIUharYJMLeYkrA3Vr5EKfFJ2S.jpg", "adult": false, "overview": "After dying before his time, an aspiring comic gets a second shot at life... by being reincarnated as a wealthy but un-likable businessman.", "poster_path": "/zp6hH5R0sFMpGDkTdmpSQozkBVA.jpg", "popularity": 10.279}, {"id": 18065, "video": false, "vote_count": 58, "vote_average": 5.2, "title": "Next Day Air", "release_date": "2009-02-06", "original_language": "en", "original_title": "Next Day Air", "genre_ids": [28, 35, 80], "backdrop_path": "/lPjRBJe9oqi2aqLKZIMobEJ9mtX.jpg", "adult": false, "overview": "Two inept criminals are mistakenly delivered a package of cocaine and think they've hit the jackpot, triggering a series of events that changes ten people's lives forever.", "poster_path": "/eDSFm1k2iwyjb8SIFFVH8Tige4Z.jpg", "popularity": 6.047}, {"adult": false, "backdrop_path": "/v6A68pZ2BWqxFMFdSuCCZBPPj8I.jpg", "genre_ids": [35, 10402], "id": 14655, "original_language": "en", "original_title": "Soul Men", "overview": "Two former backup soul singers, Louis and Floyd, have not spoken to each other in 20 years, and reluctantly agree to travel across the country together to a reunion concert to honor their recently-deceased lead singer. Cleo, a beautiful young woman who is believed to be Floyd's daughter, accompanies them as a new singer.", "poster_path": "/23UKOJp4gKPuJR3vjp3ueRUJJYr.jpg", "release_date": "2008-11-07", "title": "Soul Men", "video": false, "vote_average": 6.3, "vote_count": 76, "popularity": 9.648}, {"adult": false, "backdrop_path": "/kXQOWS6RV1b7JsuBqn64RozqgYQ.jpg", "genre_ids": [18, 10751, 35], "id": 13579, "original_language": "en", "original_title": "The Longshots", "overview": "The true story of Jasmine Plummer who, at the age of eleven, became the first female to play in Pop Warner football tournament in its 56-year history.", "poster_path": "/mrejNUR8giaAYIJkaLztELRrVXe.jpg", "release_date": "2008-08-22", "title": "The Longshots", "video": false, "vote_average": 6.5, "vote_count": 31, "popularity": 8.47}, {"id": 41382, "video": false, "vote_count": 104, "vote_average": 5.6, "title": "Lottery Ticket", "release_date": "2010-08-20", "original_language": "en", "original_title": "Lottery Ticket", "genre_ids": [35], "backdrop_path": "/7XblXZ5kpsujBF06eiKmBEOEdG0.jpg", "adult": false, "overview": "Kevin Carson is a young man living in the projects who has to survive a three-day weekend after his opportunistic neighbors find out he's holding a winning lottery ticket worth $370 million", "poster_path": "/uJlta7GItfgWpjDBd5JFXVXeImq.jpg", "popularity": 12.02}, {"id": 17770, "video": false, "vote_count": 36, "vote_average": 5.4, "title": "Trial and Error", "release_date": "1997-05-30", "original_language": "en", "original_title": "Trial and Error", "genre_ids": [35, 10749], "backdrop_path": "/hqn2GTCYk1qbUKM0oVtkdPRsSlF.jpg", "adult": false, "overview": "An actor poses as a lawyer to help his sick friend, and problems develop.", "poster_path": "/e9QDfK4ChiUa8gekyg54cMqA3Uo.jpg", "popularity": 7.83}, {"adult": false, "backdrop_path": "/ansfLVZ6OKelnyIpqT6ZXH94BZL.jpg", "genre_ids": [28, 35], "id": 14034, "original_language": "en", "original_title": "What's the Worst That Could Happen?", "overview": "Thief Kevin Caffery attempts to rob from the home of rich businessman Max Fairbanks. But Fairbanks catches him and steals his cherished ring that his girlfriend gave him. Caffery is then bent on revenge and getting his ring back with the help of his partners.", "poster_path": "/4Lobjxn27xcrdHOk6CAVPVTwzKH.jpg", "release_date": "2001-05-31", "title": "What's the Worst That Could Happen?", "video": false, "vote_average": 5.2, "vote_count": 129, "popularity": 10.033}, {"id": 13493, "video": false, "vote_count": 195, "vote_average": 5.3, "title": "College Road Trip", "release_date": "2008-03-07", "original_language": "en", "original_title": "College Road Trip", "genre_ids": [35, 10751], "backdrop_path": "/w2NeRUoFD7WtDMlICeyykwyG1IF.jpg", "adult": false, "overview": "When an overachieving high school student decides to travel around the country to choose the perfect college, her overprotective cop father also decides to accompany her in order to keep her on the straight and narrow.", "poster_path": "/nz85hJqEJfT6h42C7E9xcvT4SVt.jpg", "popularity": 10.63}, {"id": 11638, "video": false, "vote_count": 509, "vote_average": 5.8, "title": "Guess Who", "release_date": "2005-03-25", "original_language": "en", "original_title": "Guess Who", "genre_ids": [35, 10749], "backdrop_path": "/xU8w49Mnbi5YmBDHgGNv6IoTz3o.jpg", "adult": false, "overview": "The fianc\u00e9 of an African-American woman who's met with skepticism and suspicion from her father when she takes him home for the all-important introduction. As the wedding approaches, Dad must come to terms with his future son-in-law.", "poster_path": "/edxlUrSaeVYkG1VfQlceXcWeRdR.jpg", "popularity": 9.889}, {"adult": false, "backdrop_path": "/xNrO0qaRzzy8AfzGf3bBSw3TCRg.jpg", "genre_ids": [35, 10751], "id": 17207, "original_language": "en", "original_title": "Houseguest", "overview": "In hot water with the mob over an unpaid debt, a con man poses as a family friend in an affluent Pennsylvania suburb.", "poster_path": "/ooecEcidUyhRGohRZclzs0SNLd1.jpg", "release_date": "1995-01-06", "title": "Houseguest", "video": false, "vote_average": 5.7, "vote_count": 36, "popularity": 4.72}, {"id": 19084, "video": false, "vote_count": 69, "vote_average": 4.7, "title": "Johnson Family Vacation", "release_date": "2004-04-07", "original_language": "en", "original_title": "Johnson Family Vacation", "genre_ids": [35, 10751], "backdrop_path": "/rsYsH5SeKKvLcKBNyCPgXmHUjVT.jpg", "adult": false, "overview": "AAA can't help the roadside emergency that is the JOHNSON FAMILY VACATION. Even the on-board navigation system has a meltdown on Nate Johnson and his family's cross-country trek to their annual family reunion/grudge match. Reluctantly along for the ride are Nate's wife, who's only in it for the kids; their rapper-wannabe son; their teenage daughter who's fashioned herself as the next Lolita; and their youngest, whose imaginary dog Nate just can't seem to keep track of. Can the Johnsons survive each other and all the obstacles the road throws at them to make it to Caruthersville, Missouri? Can they find Missouri?", "poster_path": "/1lhP0MNneXLwNBw7KTqhikT3U8U.jpg", "popularity": 10.569}, {"adult": false, "backdrop_path": "/eI1awbf14cA2ds7gtQHZLdLTxrY.jpg", "genre_ids": [35], "id": 10426, "original_language": "en", "original_title": "Friday After Next", "overview": "Craig and Day Day have finally moved out of their parents houses and into their own crib. The cousins work nights at a local mall as security guards. When their house is robbed on Christmas Eve they team up to track him down.", "poster_path": "/pB49Sg3v247oHFPNvQLJDiX4OgA.jpg", "release_date": "2002-11-22", "title": "Friday After Next", "video": false, "vote_average": 6.1, "vote_count": 194, "popularity": 15.777}, {"id": 13411, "video": false, "vote_count": 141, "vote_average": 5.2, "title": "Malibu's Most Wanted", "release_date": "2003-04-10", "original_language": "en", "original_title": "Malibu's Most Wanted", "genre_ids": [35, 80], "backdrop_path": "/bwkrnryQYBaYNagZoEuuPlOI2UM.jpg", "adult": false, "overview": "A senator arranges for his son, a rich white kid who fancies himself black, to be kidnapped by a couple of black actors pretending to be murderers to try and shock him out of his plans to become a rapper.", "poster_path": "/bOSyafBygMTNtOjI6tgBFxtdHrm.jpg", "popularity": 10.757}, {"id": 14805, "video": false, "vote_count": 88, "vote_average": 6.1, "title": "Bait", "release_date": "2000-09-14", "original_language": "en", "original_title": "Bait", "genre_ids": [28, 80, 53], "backdrop_path": "/wHXOUZ1EeHJaBV31S8WKgaXpeEv.jpg", "adult": false, "overview": "Landing in jail for a petty theft crime, Alvin finds himself sharing a cell with John Jaster, the incarcerated half of the pair of high-tech thieves responsible for the missing gold. His partner, Bristol, is still at large. Alvin wants only to get out of prison and start fresh with his girlfriend, Lisa, and when the Feds, led by U.S. Treasury investigator Clenteen, set him loose on a sketchy deal, he thinks his luck has changed. Alvin has his freedom and the Feds have found their bait.", "poster_path": "/v7eBChA30DtdkfaevXW5axs32DU.jpg", "popularity": 7.699}, {"adult": false, "backdrop_path": "/1yMdfyQr0FovHo7EXQPgJ5MjWQf.jpg", "genre_ids": [35, 18], "id": 20759, "original_language": "en", "original_title": "The Great White Hype", "overview": "When the champ's promoter, Rev. Sultan, decides something new is needed to boost the marketability of the boxing matches, he searches and finds the only man to ever beat the champ. The problem is that he isn't a boxer anymore and he's white. However, once Rev. Sultan convinces him to fight, he goes into heavy training while the confident champ takes it easy and falls out of shape.", "poster_path": "/8RJD1CcZ3K7nfEhg6BfGcQbAvsN.jpg", "release_date": "1996-05-03", "title": "The Great White Hype", "video": false, "vote_average": 5.3, "vote_count": 53, "popularity": 7.404}], "total_pages": 2, "total_results": 40}, "credits": {"cast": [{"cast_id": 1, "character": "Roscoe Jenkins", "credit_id": "52fe45709251416c75056925", "gender": 2, "id": 78029, "name": "Martin Lawrence", "order": 0, "profile_path": "/uBVQuIdS3wGCpYaZFEeKZBuiZ2l.jpg"}, {"cast_id": 2, "character": "Papa Jenkins", "credit_id": "52fe45709251416c75056929", "gender": 2, "id": 15152, "name": "James Earl Jones", "order": 1, "profile_path": "/oqMPIsXrl9SZkRfIKN08eFROmH6.jpg"}, {"cast_id": 3, "character": "Mamma Jenkins", "credit_id": "52fe45709251416c7505692d", "gender": 1, "id": 13307, "name": "Margaret Avery", "order": 2, "profile_path": "/heWNDxiHXDRg71UJgfsvpGubN1r.jpg"}, {"cast_id": 4, "character": "Bianca Kittles", "credit_id": "52fe45709251416c75056931", "gender": 1, "id": 52847, "name": "Joy Bryant", "order": 3, "profile_path": "/baTPZOyEztjp9MdcfpiiKg48QpM.jpg"}, {"cast_id": 5, "character": "Clyde Stubb", "credit_id": "52fe45709251416c75056935", "gender": 2, "id": 5726, "name": "Cedric the Entertainer", "order": 4, "profile_path": "/btvh5FwNnknReftDdclHYZzkAlr.jpg"}, {"cast_id": 6, "character": "Lucinda Allen", "credit_id": "52fe45709251416c75056939", "gender": 1, "id": 74615, "name": "Nicole Ari Parker", "order": 5, "profile_path": "/uy630vFQOKWpuEDFF2DuCQ1Oiez.jpg"}, {"cast_id": 7, "character": "Sheriff Otis Jenkins", "credit_id": "52fe45709251416c7505693d", "gender": 2, "id": 61981, "name": "Michael Clarke Duncan", "order": 6, "profile_path": "/A0fXStrmFubDRFS8UeRW7xvcf6S.jpg"}, {"cast_id": 8, "character": "Reggie", "credit_id": "52fe45709251416c75056941", "gender": 2, "id": 51944, "name": "Mike Epps", "order": 7, "profile_path": "/64S9zCFVzHoloRSzd7yd0covlhC.jpg"}, {"cast_id": 9, "character": "Betty", "credit_id": "52fe45709251416c75056945", "gender": 1, "id": 60561, "name": "Mo'Nique", "order": 8, "profile_path": "/2oXH2sx32C3w7t7HmorpPNGCUgG.jpg"}, {"cast_id": 10, "character": "Jamaal Jenkins", "credit_id": "52fe45709251416c75056949", "gender": 2, "id": 74616, "name": "Damani Roberts", "order": 9, "profile_path": "/4W7k2PvZxe6u9UxABMjE3XIV8n1.jpg"}, {"cast_id": 11, "character": "Amy", "credit_id": "52fe45709251416c7505694d", "gender": 1, "id": 74617, "name": "Brooke Lyons", "order": 10, "profile_path": "/8UtOpgTdd4MSkuaGvoeffzCX6w0.jpg"}], "crew": [{"credit_id": "52fe45709251416c75056953", "department": "Directing", "gender": 2, "id": 72024, "job": "Director", "name": "Malcolm D. Lee", "profile_path": "/14UXPkIwfCGZHCpjeUvE342m035.jpg"}, {"credit_id": "52fe45719251416c75056959", "department": "Writing", "gender": 2, "id": 72024, "job": "Writer", "name": "Malcolm D. Lee", "profile_path": "/14UXPkIwfCGZHCpjeUvE342m035.jpg"}]}}