{"adult": false, "backdrop_path": "/c1jIQU6ZudhMPNvGMGTmlSbuKd8.jpg", "belongs_to_collection": null, "budget": 0, "genres": [{"id": 10749, "name": "Romance"}, {"id": 80, "name": "Crime"}, {"id": 18, "name": "Drama"}], "homepage": null, "id": 135015, "imdb_id": "tt0028743", "original_language": "en", "original_title": "Counsel for Crime", "overview": "Otto Kruger once again plays a dynamic, bombastic attorney in Columbia's Counsel for Crime. Kruger plays William Mellon, a shifty shyster whose underhanded methods loses him the love of his sweetheart Anne (Nana Bryant), who subsequently marries a powerful senator (Thurston Hall). What Mellon doesn't know is that Anne has borne him a son, whom the senator has adopted. Reaching adulthood, Paul (Douglass Montgomery) opts for a legal career himself, taking a clerical job with his own father's firm. In typical \"B\"-picture, Mellon is charged with murdering one of his more odious clients -- and Paul is appointed prosecuting attorney in the case.", "popularity": 1.02, "poster_path": "/oYnWHEpjOA9d1JenW4urIyn1pLY.jpg", "production_companies": [{"id": 5, "logo_path": "/71BqEFAF4V3qjjMPCpLuyJFB9A.png", "name": "Columbia Pictures", "origin_country": "US"}], "production_countries": [{"iso_3166_1": "US", "name": "United States of America"}], "release_date": "1937-10-14", "revenue": 0, "runtime": 61, "spoken_languages": [{"iso_639_1": "en", "name": "English"}], "status": "Released", "tagline": "One Word from Him... And Five Lives Are Doomed!", "title": "Counsel for Crime", "video": false, "vote_average": 6.5, "vote_count": 1, "keywords": {"keywords": [{"id": 33519, "name": "courtroom"}]}, "similar": {"page": 1, "results": [{"id": 1645, "video": false, "vote_count": 1050, "vote_average": 7.2, "title": "A Time to Kill", "release_date": "1996-07-24", "original_language": "en", "original_title": "A Time to Kill", "genre_ids": [80, 18, 53], "backdrop_path": "/b1cfBhhorGYNPbMVT6C9cHwxRr8.jpg", "adult": false, "overview": "A young lawyer defends a black man accused of murdering two men who raped his 10-year-old daughter, sparking a rebirth of the KKK.", "poster_path": "/1q2kU8NMGO446b0QAvVdY2v778x.jpg", "popularity": 16.279}, {"id": 93, "video": false, "vote_count": 414, "vote_average": 7.9, "title": "Anatomy of a Murder", "release_date": "1959-07-01", "original_language": "en", "original_title": "Anatomy of a Murder", "genre_ids": [80, 18, 9648, 53], "backdrop_path": "/aFfbSVwzXH5tCi5MQN0idkoFbk0.jpg", "adult": false, "overview": "The film pits a humble small-town lawyer against a hard-headed big city prosecutor. Emotions flare as a jealous army lieutenant pleads innocent to murdering the rapist of his seductive, beautiful wife.", "poster_path": "/rZ9QOB1ZqTjg9j0ftfur4AndoDa.jpg", "popularity": 14.413}, {"adult": false, "backdrop_path": "/eB43LYncKDJS3p5xYSUN9dUrL2A.jpg", "genre_ids": [18], "id": 205587, "original_language": "en", "original_title": "The Judge", "overview": "A successful lawyer returns to his hometown for his mother's funeral only to discover that his estranged father, the town's judge, is suspected of murder.", "poster_path": "/v6s65U6qisvxWgO3cNnreaaaite.jpg", "release_date": "2014-10-08", "title": "The Judge", "video": false, "vote_average": 7.3, "vote_count": 2562, "popularity": 16.888}, {"id": 50348, "video": false, "vote_count": 1686, "vote_average": 7.1, "title": "The Lincoln Lawyer", "release_date": "2011-03-17", "original_language": "en", "original_title": "The Lincoln Lawyer", "genre_ids": [80, 18, 53], "backdrop_path": "/zxN5XhQKDT5GwlpZo7yKxDAJMyQ.jpg", "adult": false, "overview": "A lawyer conducts business from the back of his Lincoln town car while representing a high-profile client in Beverly Hills.", "poster_path": "/gOn8Ve9Yi8fxjRkmLr5BZoOc7KV.jpg", "popularity": 14.154}, {"adult": false, "backdrop_path": "/xLIXVKahMdhdWL3fdWxKLPmgJ7S.jpg", "genre_ids": [80, 18, 10770], "id": 12219, "original_language": "en", "original_title": "12 Angry Men", "overview": "During the trial of a man accused of his father's murder, a lone juror takes a stand against the guilty verdict handed down by the others as a result of their preconceptions and prejudices.", "poster_path": "/ffPbzJWPUnextP5EP7SqYl3YBMY.jpg", "release_date": "1997-08-17", "title": "12 Angry Men", "video": false, "vote_average": 7.8, "vote_count": 139, "popularity": 9.36}, {"id": 1908, "video": false, "vote_count": 186, "vote_average": 7.9, "title": "Inherit the Wind", "release_date": "1960-06-24", "original_language": "en", "original_title": "Inherit the Wind", "genre_ids": [18, 36], "backdrop_path": "/42T54EzgmhRzJKetN62fOvk0nBZ.jpg", "adult": false, "overview": "This gripping adaptation of the Jerome Lawrence-Robert E. Lee play examines an issue that still causes great controversy\u2014the role religion should play in the schools.", "poster_path": "/kf0kih7zkHhrIfsolnW87eHohJk.jpg", "popularity": 9.627}, {"id": 396371, "video": false, "vote_count": 1968, "vote_average": 7.1, "title": "Molly's Game", "release_date": "2017-12-25", "original_language": "en", "original_title": "Molly's Game", "genre_ids": [80, 18], "backdrop_path": "/rHcBZ6ZKCe4FalWHyvBGsyMsh0k.jpg", "adult": false, "overview": "Molly Bloom, a young skier and former Olympic hopeful becomes a successful entrepreneur (and a target of an FBI investigation) when she establishes a high-stakes, international poker game.", "poster_path": "/in43bQ7k0ttr666IPP94IlbQbTR.jpg", "popularity": 18.118}, {"id": 37257, "video": false, "vote_count": 589, "vote_average": 8.3, "title": "Witness for the Prosecution", "release_date": "1957-12-17", "original_language": "en", "original_title": "Witness for the Prosecution", "genre_ids": [80, 18, 9648], "backdrop_path": "/kazLzEofKKr7pBcvKw6VRtFnXRJ.jpg", "adult": false, "overview": "When Leonard Vole is arrested for the sensational murder of a rich, middle-aged widow, the famous Sir Wilfrid Robarts agrees to appear on his behalf. Sir Wilfrid, recovering from a near-fatal heart attack, is supposed to be on a diet of bland, civil suits\u2014but the lure of the criminal courts is too much for him, especially when the case is so difficult.", "poster_path": "/heY0CCUqN4DY3X30thssZkvWZwx.jpg", "popularity": 10.439}, {"adult": false, "backdrop_path": "/pHM9Xr6ivOspDUWuprjaxgPbcB3.jpg", "genre_ids": [18, 80, 53], "id": 11975, "original_language": "en", "original_title": "The Rainmaker", "overview": "When Rudy Baylor, a young attorney with no clients, goes to work for a seedy ambulance chaser, he wants to help the parents of a terminally ill boy in their suit against an insurance company. But to take on corporate America, Rudy and a scrappy paralegal must open their own law firm.", "poster_path": "/cFM9TariJqLLiPb6OSsvTfQPTAd.jpg", "release_date": "1997-11-18", "title": "The Rainmaker", "video": false, "vote_average": 6.9, "vote_count": 489, "popularity": 13.572}, {"adult": false, "backdrop_path": "/5zuDFMpk1zdHemAu0xMySI4nFx1.jpg", "genre_ids": [18, 53], "id": 9623, "original_language": "en", "original_title": "The Juror", "overview": "With his gangster boss on trial for murder, a mob thug known as \"the Teacher\" tells Annie Laird she must talk her fellow jurors into a not-guilty verdict, implying that he'll kill her son Oliver if she fails. She manages to do this, but, when it becomes clear that the mobsters might want to silence her for good, she sends Oliver abroad and tries to gather evidence of the plot against her, setting up a final showdown.", "poster_path": "/7aXOB0DyZPxNOYbaQ2oiNn64jm3.jpg", "release_date": "1996-02-02", "title": "The Juror", "video": false, "vote_average": 5.4, "vote_count": 165, "popularity": 10.198}, {"id": 389, "video": false, "vote_count": 4267, "vote_average": 8.4, "title": "12 Angry Men", "release_date": "1957-03-25", "original_language": "en", "original_title": "12 Angry Men", "genre_ids": [18], "backdrop_path": "/lH2Ga8OzjU1XlxJ73shOlPx6cRw.jpg", "adult": false, "overview": "The defense and the prosecution have rested and the jury is filing into the jury room to decide if a young Spanish-American is guilty or innocent of murdering his father. What begins as an open and shut case soon becomes a mini-drama of each of the jurors' prejudices and preconceptions about the trial, the accused, and each other.", "poster_path": "/3W0v956XxSG5xgm7LB6qu8ExYJ2.jpg", "popularity": 32.178}, {"adult": false, "backdrop_path": "/rW5gI8SEO1qYbXGwRANYrKtMiQB.jpg", "genre_ids": [18], "id": 413362, "original_language": "en", "original_title": "Roman J. Israel, Esq.", "overview": "Hard-nosed liberal lawyer Roman J. Israel has been fighting the good fight forever while others take the credit. When his partner \u2013 the firm\u2019s frontman \u2013 has a heart attack, Israel suddenly takes on that role. He soon discovers some unsettling truths about the firm \u2013 truths that conflict with his values of helping the poor and dispossessed \u2013 and finds himself in an existential crisis that leads to extreme actions.", "poster_path": "/epTCHVcyLkT8Aqt08Ki3PWC2sUh.jpg", "release_date": "2017-11-17", "title": "Roman J. Israel, Esq.", "video": false, "vote_average": 6.3, "vote_count": 583, "popularity": 11.775}, {"id": 9800, "video": false, "vote_count": 2301, "vote_average": 7.7, "title": "Philadelphia", "release_date": "1993-12-22", "original_language": "en", "original_title": "Philadelphia", "genre_ids": [18], "backdrop_path": "/eRlkgrUeaX8LsVMjqN9f6YYw9Dw.jpg", "adult": false, "overview": "Two competing lawyers join forces to sue a prestigious law firm for AIDS discrimination. As their unlikely friendship develops their courage overcomes the prejudice and corruption of their powerful adversaries.", "poster_path": "/nE9DLSKHDmfG7FvYvDW437n8txq.jpg", "popularity": 12.47}, {"id": 12623, "video": false, "vote_count": 100, "vote_average": 6.7, "title": "Suspect", "release_date": "1987-10-23", "original_language": "en", "original_title": "Suspect", "genre_ids": [80, 18, 53], "backdrop_path": "/z4GZWUQ6UZgYz7DtdaDTYzijpJa.jpg", "adult": false, "overview": "When a Supreme Court judge commits suicide and his secretary is found murdered, all fingers point to Carl Anderson (Liam Neeson), a homeless veteran who's deaf and mute. But when public defender Kathleen Riley (Cher) is assigned to his case, she begins to believe that Anderson may actually be innocent. Juror Eddie Sanger (Dennis Quaid), a Washington lobbyist, agrees, and together the pair begins their own investigation of events.", "poster_path": "/hL79lrrMgRZO21otWbTTiljufeU.jpg", "popularity": 8.638}, {"id": 7984, "video": false, "vote_count": 850, "vote_average": 7.9, "title": "In the Name of the Father", "release_date": "1993-12-12", "original_language": "en", "original_title": "In the Name of the Father", "genre_ids": [18], "backdrop_path": "/pBvKhZ0ZrVeu9Nwyr0BHd8emvN4.jpg", "adult": false, "overview": "A small time thief from Belfast, Gerry Conlon, is falsely implicated in the IRA bombing of a pub that kills several people while he is in London. He and his four friends are coerced by British police into confessing their guilt. Gerry's father and other relatives in London are also implicated in the crime. He spends fifteen years in prison with his father trying to prove his innocence.", "poster_path": "/22UfH59UppgMtDIMjD6DxhO8J2C.jpg", "popularity": 12.3}, {"adult": false, "backdrop_path": "/iVY4hZc39fnEZ1OBJfLduDryH4h.jpg", "genre_ids": [18], "id": 24226, "original_language": "en", "original_title": "The Verdict", "overview": "Frank Galvin is a down-on-his luck lawyer, reduced to drinking and ambulance chasing. Former associate Mickey Morrissey reminds him of his obligations in a medical malpractice suit that he himself served to Galvin on a silver platter: all parties willing to settle out of court. Blundering his way through the preliminaries, he suddenly realizes that perhaps after all the case should go to court; to punish the guilty, to get a decent settlement for his clients, and to restore his standing as a lawyer.", "poster_path": "/iYEuFP1bpj5yOenKliiRFcNO3VE.jpg", "release_date": "1982-12-08", "title": "The Verdict", "video": false, "vote_average": 7.4, "vote_count": 275, "popularity": 13.872}, {"id": 11560, "video": false, "vote_count": 384, "vote_average": 6.2, "title": "High Crimes", "release_date": "2002-04-05", "original_language": "en", "original_title": "High Crimes", "genre_ids": [80, 18, 9648, 53], "backdrop_path": "/e2Vu095kdsSxTxjJaz5sYH3eSYF.jpg", "adult": false, "overview": "A female attorney learns that her husband is really a marine officer awol for fifteen years and accused of murdering fifteen civilians in El Salvador. Believing her husband when he tells her that he's being framed as part of a U.S. Military cover-up, the attorney defends him in a military court.", "poster_path": "/adujr0eiutryiWmK8i0DPGTrOpU.jpg", "popularity": 13.271}, {"adult": false, "backdrop_path": "/45P198sJ0UpcMTVfLaw981orUdf.jpg", "genre_ids": [35, 80], "id": 623, "original_language": "en", "original_title": "A Fish Called Wanda", "overview": "A diamond advocate is attempting to steal a collection of diamonds, yet troubles arise when he realizes that he is not the only one after the diamonds.", "poster_path": "/hkSGFNVfEEUXFCxRZDITFHVhUlu.jpg", "release_date": "1988-07-15", "title": "A Fish Called Wanda", "video": false, "vote_average": 7.2, "vote_count": 1114, "popularity": 12.125}, {"id": 8438, "video": false, "vote_count": 272, "vote_average": 7.1, "title": "Murder in the First", "release_date": "1995-01-20", "original_language": "en", "original_title": "Murder in the First", "genre_ids": [80, 18], "backdrop_path": "/uX0PJMkCI5rN2cWbIGsfjlomBuT.jpg", "adult": false, "overview": "Inspired by a true story. A petty criminal sent to Alcatraz in the 1930s is caught attempting to make an escape. As punishment he is put in solitary confinement. The maximum stay is supposed to be 19 days, but Henri spends years alone, cold and in complete darkness, only to emerge a madman and soon to be a murderer. The story follows a rookie lawyer attempting to prove that Alcatraz was to blame.", "poster_path": "/jPbBDALAjTQFzCl21ZKmhjSjEmD.jpg", "popularity": 11.143}, {"adult": false, "backdrop_path": "/cPg2OJ56J6p0da12Hez5u5iiFd6.jpg", "genre_ids": [80, 18, 53], "id": 241239, "original_language": "en", "original_title": "A Most Violent Year", "overview": "A thriller set in New York City during the winter of 1981, statistically one of the most violent years in the city's history, and centered on a the lives of an immigrant and his family trying to expand their business and capitalize on opportunities as the rampant violence, decay, and corruption of the day drag them in and threaten to destroy all they have built.", "poster_path": "/7xvfhwi1RjF27z3TfaJFAsIaO3x.jpg", "release_date": "2014-12-30", "title": "A Most Violent Year", "video": false, "vote_average": 6.6, "vote_count": 856, "popularity": 15.322}], "total_pages": 33, "total_results": 658}, "recommendations": {"page": 1, "results": [], "total_pages": 1, "total_results": 0}, "credits": {"cast": [{"cast_id": 2, "character": "William Mellon", "credit_id": "52fe4bebc3a368484e19e903", "gender": 2, "id": 4071, "name": "Otto Kruger", "order": 0, "profile_path": "/q9ntxkKFmSfBJ0u2orGwmfyBBZ3.jpg"}, {"cast_id": 3, "character": "Paul Maddox", "credit_id": "52fe4bebc3a368484e19e907", "gender": 2, "id": 118802, "name": "Douglass Montgomery", "order": 1, "profile_path": "/miYjS2x3hSBgeBBCo5XCVewHEAA.jpg"}, {"cast_id": 4, "character": "Ann McIntyre (as Jacqueline Wells)", "credit_id": "52fe4bebc3a368484e19e90b", "gender": 1, "id": 82349, "name": "Julie Bishop", "order": 2, "profile_path": "/uKyYueZq8n4gxiDhqIM3wKhAnj3.jpg"}, {"cast_id": 5, "character": "Sen. Maddox", "credit_id": "52fe4bebc3a368484e19e90f", "gender": 2, "id": 34277, "name": "Thurston Hall", "order": 3, "profile_path": "/kRjCgZ5ylQACboFkcgzdJhHxIX.jpg"}, {"cast_id": 6, "character": "Mrs. Maddox", "credit_id": "52fe4bebc3a368484e19e913", "gender": 1, "id": 88461, "name": "Nana Bryant", "order": 4, "profile_path": "/4TsrQXRRpO36BseB7BUTG0Op7hM.jpg"}, {"cast_id": 7, "character": "Friday", "credit_id": "52fe4bebc3a368484e19e917", "gender": 2, "id": 145828, "name": "Gene Morgan", "order": 5, "profile_path": "/wtrHqTGeno7LczG8UWOUit0Egoc.jpg"}, {"cast_id": 8, "character": "Edwin Mitchell", "credit_id": "52fe4bebc3a368484e19e91b", "gender": 2, "id": 3140, "name": "Marc Lawrence", "order": 6, "profile_path": "/l9BsvMMq9db1eSbnTGia0ymp1mv.jpg"}, {"cast_id": 9, "character": "Asa Stewart", "credit_id": "52fe4bebc3a368484e19e91f", "gender": 2, "id": 33007, "name": "Robert Warwick", "order": 7, "profile_path": "/oECcbKS8LLYxiLpizvKvcSHefte.jpg"}, {"cast_id": 10, "character": "George Evans", "credit_id": "52fe4bebc3a368484e19e923", "gender": 2, "id": 29762, "name": "Stanley Fields", "order": 8, "profile_path": "/a7gQDvBBg6S2qN8cQTeclTLGX49.jpg"}], "crew": [{"credit_id": "52fe4beac3a368484e19e8ff", "department": "Directing", "gender": 2, "id": 19396, "job": "Director", "name": "John Brahm", "profile_path": "/atZbOH9S0QTyL2VscGHD9xlwXqf.jpg"}]}}