{"adult": false, "backdrop_path": "/3wWuq8AYWuxvsocaZiWo33AKcxK.jpg", "belongs_to_collection": null, "budget": 0, "genres": [{"id": 16, "name": "Animation"}, {"id": 35, "name": "Comedy"}, {"id": 28, "name": "Action"}, {"id": 53, "name": "Thriller"}], "homepage": "http://www.joonisfilm.ee/filmid/frank-ja-wendy", "id": 135204, "imdb_id": "tt0452226", "original_language": "en", "original_title": "Frank ja Wendy", "overview": "Two American secret agents - Frank and Wendy - are sent to the world's hotbed of danger, known as Estonia. Estonia is a silly place, perhaps even sillier than the agents themselves. Frank and Wendy, for whom saving the world is their daily work, achieve both mental and manual feats with the greatest of ease. It appears that nothing can prevent their ultimate victory, but go figure. The axis of evil does not wither and attacks the super-agents from where they can least expect it...", "popularity": 0.673, "poster_path": "/8euQh8o7vu5wJHvPXouirpMrfMo.jpg", "production_companies": [{"id": 12432, "logo_path": "/zOgIPe7TadxPBpuUsoWWSryYO6y.png", "name": "Eesti Joonisfilm", "origin_country": "EE"}], "production_countries": [{"iso_3166_1": "EE", "name": "Estonia"}], "release_date": "2004-01-01", "revenue": 0, "runtime": 75, "spoken_languages": [{"iso_639_1": "et", "name": "Eesti"}], "status": "Released", "tagline": "", "title": "Frank & Wendy", "video": false, "vote_average": 7.0, "vote_count": 1, "keywords": {"keywords": [{"id": 470, "name": "spy"}, {"id": 9887, "name": "surrealism"}, {"id": 9956, "name": "sausage"}, {"id": 13015, "name": "terrorism"}]}, "similar": {"page": 1, "results": [{"adult": false, "backdrop_path": "/tjQHn6xW5BiB1RJ3OZIPDzIOSkF.jpg", "genre_ids": [12, 28, 53], "id": 954, "original_language": "en", "original_title": "Mission: Impossible", "overview": "When Ethan Hunt, the leader of a crack espionage team whose perilous operation has gone awry with no explanation, discovers that a mole has penetrated the CIA, he's surprised to learn that he's the No. 1 suspect. To clear his name, Hunt now must ferret out the real double agent and, in the process, even the score.", "poster_path": "/1PVKS17pIBFsIhgFws2uagPDNLW.jpg", "release_date": "1996-05-22", "title": "Mission: Impossible", "video": false, "vote_average": 6.9, "vote_count": 5216, "popularity": 25.737}, {"adult": false, "backdrop_path": "/vHLsgsvLtFWDlhBigKDRsYIC1p6.jpg", "genre_ids": [28, 9648, 53], "id": 27576, "original_language": "en", "original_title": "Salt", "overview": "As a CIA officer, Evelyn Salt swore an oath to duty, honor and country. Her loyalty will be tested when a defector accuses her of being a Russian spy. Salt goes on the run, using all her skills and years of experience as a covert operative to elude capture. Salt's efforts to prove her innocence only serve to cast doubt on her motives, as the hunt to uncover the truth behind her identity continues and the question remains: \"Who is Salt?\"", "poster_path": "/956xMjH4sPoqimqoLOP6AI19mjm.jpg", "release_date": "2010-07-21", "title": "Salt", "video": false, "vote_average": 6.3, "vote_count": 3533, "popularity": 20.188}, {"id": 681, "video": false, "vote_count": 1040, "vote_average": 6.4, "title": "Diamonds Are Forever", "release_date": "1971-12-13", "original_language": "en", "original_title": "Diamonds Are Forever", "genre_ids": [28, 12, 53], "backdrop_path": "/gIGLXXvsljHK1jdDNaIXsjhZnnH.jpg", "adult": false, "overview": "Diamonds are stolen only to be sold again in the international market. James Bond infiltrates a smuggling mission to find out who\u2019s guilty. The mission takes him to Las Vegas where Bond meets his archenemy Blofeld.", "poster_path": "/viPjZ3JCOahcfNCcVhiPExusJoZ.jpg", "popularity": 18.532}, {"id": 660, "video": false, "vote_count": 1117, "vote_average": 6.7, "title": "Thunderball", "release_date": "1965-12-15", "original_language": "en", "original_title": "Thunderball", "genre_ids": [28, 12, 53], "backdrop_path": "/qd0jrqxFLCKkNruPuJ7zXuQRpKG.jpg", "adult": false, "overview": "A criminal organization has obtained two nuclear bombs and are asking for a 100 million pound ransom in the form of diamonds in seven days or they will use the weapons. The secret service sends James Bond to the Bahamas to once again save the world.", "poster_path": "/sASN1VnJxWosdzp4mH40P47Xhhz.jpg", "popularity": 22.632}, {"adult": false, "backdrop_path": "/9QcYwm5af4JaUSOyuysVEYOyEXn.jpg", "genre_ids": [12, 28, 53], "id": 646, "original_language": "en", "original_title": "Dr. No", "overview": "In the film that launched the James Bond saga, Agent 007 battles mysterious Dr. No, a scientific genius bent on destroying the U.S. space program. As the countdown to disaster begins, Bond must go to Jamaica, where he encounters beautiful Honey Ryder, to confront a megalomaniacal villain in his massive island headquarters.", "poster_path": "/gRdfLVVf6FheOw6mw6wOsKhZG1l.jpg", "release_date": "1962-10-04", "title": "Dr. No", "video": false, "vote_average": 7.0, "vote_count": 1837, "popularity": 31.291}, {"id": 36669, "video": false, "vote_count": 2045, "vote_average": 5.9, "title": "Die Another Day", "release_date": "2002-11-17", "original_language": "en", "original_title": "Die Another Day", "genre_ids": [28, 12, 53], "backdrop_path": "/3YQfmtpbiFCMHcXY3lJ7fGEcOL6.jpg", "adult": false, "overview": "Bond takes on a North Korean leader who undergoes DNA replacement procedures that allow him to assume different identities. American agent, Jinx Johnson assists Bond in his attempt to thwart the villain's plans to exploit a satellite that is powered by solar energy.", "poster_path": "/1iUZqUXS7x5FcGM5J0u01xuObWC.jpg", "popularity": 24.2}, {"id": 12113, "video": false, "vote_count": 1674, "vote_average": 6.6, "title": "Body of Lies", "release_date": "2008-10-10", "original_language": "en", "original_title": "Body of Lies", "genre_ids": [28, 18, 53], "backdrop_path": "/8NKlqvUJ5IHk58KhM3Vwqp588jU.jpg", "adult": false, "overview": "The CIA\u2019s hunt is on for the mastermind of a wave of terrorist attacks. Roger Ferris is the agency\u2019s man on the ground, moving from place to place, scrambling to stay ahead of ever-shifting events. An eye in the sky \u2013 a satellite link \u2013 watches Ferris.  At the other end of that real-time link is the CIA\u2019s Ed Hoffman, strategizing events from thousands of miles away. And as Ferris nears the target, he discovers trust can be just as dangerous as it is necessary for survival.", "poster_path": "/ngQAEKZVpT0SD9i98ApEgsQKC52.jpg", "popularity": 18.11}, {"id": 37724, "video": false, "vote_count": 11109, "vote_average": 7.1, "title": "Skyfall", "release_date": "2012-10-25", "original_language": "en", "original_title": "Skyfall", "genre_ids": [28, 12, 53], "backdrop_path": "/6bjRujKSnCVSrzC1qjmqfAyaiET.jpg", "adult": false, "overview": "When Bond's latest assignment goes gravely wrong and agents around the world are exposed, MI6 is attacked forcing M to relocate the agency. These events cause her authority and position to be challenged by Gareth Mallory, the new Chairman of the Intelligence and Security Committee. With MI6 now compromised from both inside and out, M is left with one ally she can trust: Bond. 007 takes to the shadows - aided only by field agent, Eve - following a trail to the mysterious Silva, whose lethal and hidden motives have yet to reveal themselves.", "poster_path": "/lQCkPLDxFONmgzrWLvq085v1g2d.jpg", "popularity": 34.013}, {"id": 37834, "video": false, "vote_count": 2737, "vote_average": 6.1, "title": "Knight and Day", "release_date": "2010-06-15", "original_language": "en", "original_title": "Knight and Day", "genre_ids": [28, 35], "backdrop_path": "/clq0YPDQYCql9ekC17YFklk8FwX.jpg", "adult": false, "overview": "A fugitive couple goes on a glamorous and sometimes deadly adventure where nothing and no one \u2013 even themselves \u2013 are what they seem. Amid shifting alliances and unexpected betrayals, they race across the globe, with their survival ultimately hinging on the battle of truth vs. trust.", "poster_path": "/aHEpzwXvMtIEMBE13tWXS5oHZ7d.jpg", "popularity": 17.619}, {"id": 207703, "video": false, "vote_count": 11141, "vote_average": 7.6, "title": "Kingsman: The Secret Service", "release_date": "2014-12-13", "original_language": "en", "original_title": "Kingsman: The Secret Service", "genre_ids": [28, 12, 35, 80], "backdrop_path": "/7McaexSsSTLD8V17UgaZAfI0Cu9.jpg", "adult": false, "overview": "The story of a super-secret spy organization that recruits an unrefined but promising street kid into the agency's ultra-competitive training program just as a global threat emerges from a twisted tech genius.", "poster_path": "/8x7ej0LnHdKUqilNNJXYOeyB6L9.jpg", "popularity": 26.232}, {"id": 36955, "video": false, "vote_count": 2202, "vote_average": 6.9, "title": "True Lies", "release_date": "1994-07-15", "original_language": "en", "original_title": "True Lies", "genre_ids": [28, 53], "backdrop_path": "/o2agns0LEqyEUCByMT8ViIOio7r.jpg", "adult": false, "overview": "A fearless, globe-trotting, terrorist-battling secret agent has his life turned upside down when he discovers his wife might be having an affair with a used car salesman while terrorists smuggle nuclear war heads into the United States.", "poster_path": "/mTAHr5h5i64hTLqo0cW2X2083Cx.jpg", "popularity": 25.06}, {"id": 691, "video": false, "vote_count": 939, "vote_average": 6.7, "title": "The Spy Who Loved Me", "release_date": "1977-07-07", "original_language": "en", "original_title": "The Spy Who Loved Me", "genre_ids": [28, 12, 53], "backdrop_path": "/2tCAEhE2rPONBmUOs4W73AlBWYg.jpg", "adult": false, "overview": "Russian and British submarines with nuclear missiles on board both vanish from sight without a trace. England and Russia both blame each other as James Bond tries to solve the riddle of the disappearing ships. But the KGB also has an agent on the case.", "poster_path": "/vYMgDqQDpqHDhz3enGkwBmTs7p7.jpg", "popularity": 16.084}, {"adult": false, "backdrop_path": "/zaGmoSackrRF7w6NieQ0FWY0M7k.jpg", "genre_ids": [28, 35, 9648], "id": 302699, "original_language": "en", "original_title": "Central Intelligence", "overview": "After he reunites with an old pal through Facebook, a mild-mannered accountant is lured into the world of international espionage.", "poster_path": "/9M5ibpQUjoVFjjnP2AdLcof4hAk.jpg", "release_date": "2016-06-15", "title": "Central Intelligence", "video": false, "vote_average": 6.3, "vote_count": 3490, "popularity": 15.246}, {"id": 9486, "video": false, "vote_count": 2000, "vote_average": 6.2, "title": "Johnny English", "release_date": "2003-03-14", "original_language": "en", "original_title": "Johnny English", "genre_ids": [28, 12, 35], "backdrop_path": "/wNEsGAHws1UATmZfnjNBRi2Ln5.jpg", "adult": false, "overview": "A lowly pencil pusher working for MI7, Johnny English is suddenly promoted to super spy after Agent One is assassinated and every other agent is blown up at his funeral. When a billionaire entrepreneur sponsors the exhibition of the Crown Jewels\u2014and the valuable gems disappear on the opening night and on English's watch\u2014the newly-designated agent must jump into action to find the thief and recover the missing gems.", "poster_path": "/fvFOJFDwgtINOxxtrFFiCMUrGdR.jpg", "popularity": 25.499}, {"id": 213, "video": false, "vote_count": 2129, "vote_average": 8.0, "title": "North by Northwest", "release_date": "1959-07-07", "original_language": "en", "original_title": "North by Northwest", "genre_ids": [9648, 53], "backdrop_path": "/AplR1QRswlXiM65GoifX8sDadME.jpg", "adult": false, "overview": "Advertising man Roger Thornhill is mistaken for a spy, triggering a deadly cross-country chase.", "poster_path": "/aNV789h3oHm2pTHK5Bdq5RuiumZ.jpg", "popularity": 20.897}, {"adult": false, "backdrop_path": "/bqpGceqQuHbtnjEqUG9acSYIVIh.jpg", "genre_ids": [18, 53, 9648], "id": 49517, "original_language": "en", "original_title": "Tinker Tailor Soldier Spy", "overview": "In the bleak days of the Cold War, espionage veteran George Smiley is forced from semi-retirement to uncover a Soviet mole within his former colleagues at the heart of MI6.", "poster_path": "/2N3P730TYXEcNL0BO8WBuMc6yJz.jpg", "release_date": "2011-09-16", "title": "Tinker Tailor Soldier Spy", "video": false, "vote_average": 6.7, "vote_count": 1545, "popularity": 18.392}, {"id": 206647, "video": false, "vote_count": 7176, "vote_average": 6.4, "title": "Spectre", "release_date": "2015-10-26", "original_language": "en", "original_title": "Spectre", "genre_ids": [28, 12, 80], "backdrop_path": "/wVTYlkKPKrljJfugXN7UlLNjtuJ.jpg", "adult": false, "overview": "A cryptic message from Bond\u2019s past sends him on a trail to uncover a sinister organization. While M battles political forces to keep the secret service alive, Bond peels back the layers of deceit to reveal the terrible truth behind SPECTRE.", "poster_path": "/hE24GYddaxB9MVZl1CaiI86M3kp.jpg", "popularity": 38.086}, {"id": 47971, "video": false, "vote_count": 2661, "vote_average": 5.6, "title": "xXx: Return of Xander Cage", "release_date": "2017-01-13", "original_language": "en", "original_title": "xXx: Return of Xander Cage", "genre_ids": [28, 12, 80], "backdrop_path": "/zv4acOMTPoplVLKo4FaoqAseSDx.jpg", "adult": false, "overview": "Extreme athlete turned government operative Xander Cage comes out of self-imposed exile, thought to be long dead, and is set on a collision course with deadly alpha warrior Xiang and his team in a race to recover a sinister and seemingly unstoppable weapon known as Pandora's Box. Recruiting an all-new group of thrill-seeking cohorts, Xander finds himself enmeshed in a deadly conspiracy that points to collusion at the highest levels of world governments.", "poster_path": "/yNsdyNbQqaKN0TQxkHMws2KLTJ6.jpg", "popularity": 34.363}, {"id": 818, "video": false, "vote_count": 1920, "vote_average": 5.9, "title": "Austin Powers in Goldmember", "release_date": "2002-07-26", "original_language": "en", "original_title": "Austin Powers in Goldmember", "genre_ids": [35, 80, 878], "backdrop_path": "/mzZraP6PV34eVjB8giKbKIMXVeW.jpg", "adult": false, "overview": "The world's most shagadelic spy continues his fight against Dr. Evil. This time, the diabolical doctor and his clone, Mini-Me, team up with a new foe -- '70s kingpin Goldmember. While pursuing the team of villains to stop them from world domination, Austin gets help from his dad and an old girlfriend.", "poster_path": "/tFR7dTbX5BsmoUwKHfa2cWoZbwK.jpg", "popularity": 23.167}, {"id": 56288, "video": false, "vote_count": 570, "vote_average": 4.7, "title": "Spy Kids: All the Time in the World", "release_date": "2011-08-18", "original_language": "en", "original_title": "Spy Kids: All the Time in the World", "genre_ids": [28, 35, 10751], "backdrop_path": "/aezGIrtl4Q8KaLltPum0hR4VRuB.jpg", "adult": false, "overview": "Eight years after the third film, the OSS has become the world's top spy agency, while the Spy Kids department has since become defunct. A retired spy Marissa (Jessica Alba) is thrown back into the action along with her stepchildren when a maniacal Timekeeper (Jeremy Piven) attempts to take over the world. In order to save the world, Rebecca (Rowan Blanchard) and Cecil (Mason Cook) must team up with their hated stepmother. Carmen and Juni have since also grown up and will provide gadgets to them.", "poster_path": "/9pUVarhiXfCu8amjmyadzJJJITi.jpg", "popularity": 14.623}], "total_pages": 76, "total_results": 1507}, "recommendations": {"page": 1, "results": [], "total_pages": 1, "total_results": 0}, "credits": {"cast": [], "crew": [{"credit_id": "52fe4bf0c3a368484e19f439", "department": "Directing", "gender": 0, "id": 1101389, "job": "Director", "name": "Kaspar Jancis", "profile_path": null}, {"credit_id": "52fe4bf0c3a368484e19f43f", "department": "Directing", "gender": 0, "id": 1101390, "job": "Director", "name": "\u00dclo Pikkov", "profile_path": null}]}}