{"adult": false, "backdrop_path": "/vUUW75DzDO8NW8hUJKCiMQOmCAK.jpg", "belongs_to_collection": null, "budget": 0, "genres": [{"id": 99, "name": "Documentary"}], "homepage": null, "id": 135317, "imdb_id": "tt2147484", "original_language": "de", "original_title": "Speed - Auf der Suche nach der verlorenen Zeit", "overview": "It\u2019s a paradox. Never before in history we have worked more efficiently. Never before we have saved time with more sophisticated technologies. Anyway, nearly all of us are feeling an increasing pressure of time. It seems that the same technology that has been invented to make our life better and easier, is now enslaving us. Why?", "popularity": 2.651, "poster_path": "/8UoyCQ0tJhyVOhy7Otbo23LQntW.jpg", "production_companies": [], "production_countries": [{"iso_3166_1": "DE", "name": "Germany"}], "release_date": "2012-09-28", "revenue": 0, "runtime": null, "spoken_languages": [{"iso_639_1": "de", "name": "Deutsch"}, {"iso_639_1": "en", "name": "English"}], "status": "Released", "tagline": "", "title": "Speed - In Search of Lost Time", "video": false, "vote_average": 8.0, "vote_count": 11, "keywords": {"keywords": [{"id": 1507, "name": "clock"}, {"id": 3428, "name": "speed"}, {"id": 3667, "name": "time"}, {"id": 167506, "name": "burnout"}]}, "similar": {"page": 1, "results": [{"id": 49530, "video": false, "vote_count": 6900, "vote_average": 6.9, "title": "In Time", "release_date": "2011-10-27", "original_language": "en", "original_title": "In Time", "genre_ids": [28, 878, 53], "backdrop_path": "/cnGPiAd7D50YFcpt6HK7CwTUCew.jpg", "adult": false, "overview": "In the not-too-distant future the aging gene has been switched off. To avoid overpopulation, time has become the currency and the way people pay for luxuries and necessities. The rich can live forever, while the rest try to negotiate for their immortality. A poor young man who comes into a fortune of time, though too late to help his mother from dying. He ends up on the run from a corrupt police force known as 'time keepers'.", "poster_path": "/lnYuAr3QOPzvuEFlzpsRUq41IEy.jpg", "popularity": 35.233}, {"adult": false, "backdrop_path": "/mAXgaPxxUQg6U446yz8KPRYSUT.jpg", "genre_ids": [12, 18, 10751], "id": 44826, "original_language": "en", "original_title": "Hugo", "overview": "Orphaned and alone except for an uncle, Hugo Cabret lives in the walls of a train station in 1930s Paris. Hugo's job is to oil and maintain the station's clocks, but to him, his more important task is to protect a broken automaton and notebook left to him by his late father. Accompanied by the goddaughter of an embittered toy merchant, Hugo embarks on a quest to solve the mystery of the automaton and find a place he can call home.", "poster_path": "/rSmmVKeW3nsP86V2S6R7ePs4CFw.jpg", "release_date": "2011-11-22", "title": "Hugo", "video": false, "vote_average": 7.1, "vote_count": 4577, "popularity": 19.298}, {"id": 77950, "video": false, "vote_count": 1940, "vote_average": 6.1, "title": "Turbo", "release_date": "2013-07-11", "original_language": "en", "original_title": "Turbo", "genre_ids": [16, 10751], "backdrop_path": "/dvdKrICCKP8Uh1Xqkn60oQXnYer.jpg", "adult": false, "overview": "The tale of an ordinary garden snail who dreams of winning the Indy 500.", "poster_path": "/kajPlPUgobxci8ME5oqvzjN430q.jpg", "popularity": 22.479}, {"adult": false, "backdrop_path": "/rWlXrfmX1FgcPyj7oQmLfwKRaam.jpg", "genre_ids": [12, 10751, 14], "id": 241259, "original_language": "en", "original_title": "Alice Through the Looking Glass", "overview": "In the sequel to Tim Burton's \"Alice in Wonderland\", Alice Kingsleigh returns to Underland and faces a new adventure in saving the Mad Hatter.", "poster_path": "/hrweIZ34Z3MCPNfRT4tGC2CXyrH.jpg", "release_date": "2016-05-25", "title": "Alice Through the Looking Glass", "video": false, "vote_average": 6.5, "vote_count": 4231, "popularity": 26.568}, {"adult": false, "backdrop_path": "/ypyeMfKydpyuuTMdp36rMlkGDUL.jpg", "genre_ids": [28, 80, 53], "id": 168259, "original_language": "en", "original_title": "Furious 7", "overview": "Deckard Shaw seeks revenge against Dominic Toretto and his family for his comatose brother.", "poster_path": "/dCgm7efXDmiABSdWDHBDBx2jwmn.jpg", "release_date": "2015-04-01", "title": "Furious 7", "video": false, "vote_average": 7.3, "vote_count": 7042, "popularity": 26.432}, {"adult": false, "backdrop_path": "/bRGtZsVj2Qq8r5CCsNYmQUPF4z4.jpg", "genre_ids": [80, 18, 878, 53], "id": 10559, "original_language": "en", "original_title": "Frequency", "overview": "When a rare phenomenon gives police officer John Sullivan the chance to speak to his father, 30 years in the past, he takes the opportunity to prevent his dad's tragic death.  After his actions inadvertently give rise to a series of brutal murders he and his father must find a way to fix the consequences of altering time.", "poster_path": "/n0QAAZmIaPPIShVkk8eiKwfGV9.jpg", "release_date": "2000-04-28", "title": "Frequency", "video": false, "vote_average": 7.1, "vote_count": 894, "popularity": 14.503}, {"id": 630, "video": false, "vote_count": 3318, "vote_average": 7.5, "title": "The Wizard of Oz", "release_date": "1939-08-15", "original_language": "en", "original_title": "The Wizard of Oz", "genre_ids": [12, 14, 10751], "backdrop_path": "/pU2hNUkFAiq6HC8vUhnpRVcvH4G.jpg", "adult": false, "overview": "Young Dorothy finds herself in a magical world where she makes friends with a lion, a scarecrow and a tin man as they make their way along the yellow brick road to talk with the Wizard and ask for the things they miss most in their lives. The Wicked Witch of the West is the only thing that could stop them.", "poster_path": "/tKEHoKPZv3af0Pn3poaOLHOJ6NM.jpg", "popularity": 18.384}, {"adult": false, "backdrop_path": "/dAK3Sql45m1xyMzCm5LDa4Bmucx.jpg", "genre_ids": [878, 18], "id": 13363, "original_language": "en", "original_title": "The Man from Earth", "overview": "An impromptu goodbye party for Professor John Oldman becomes a mysterious interrogation after the retiring scholar reveals to his colleagues he never ages and has walked the earth for 14,000 years.", "poster_path": "/zYP2lBJ5GRV1HaIi4USqRl3phe.jpg", "release_date": "2007-06-10", "title": "The Man from Earth", "video": false, "vote_average": 7.7, "vote_count": 1235, "popularity": 12.079}, {"id": 284052, "video": false, "vote_count": 13948, "vote_average": 7.4, "title": "Doctor Strange", "release_date": "2016-10-25", "original_language": "en", "original_title": "Doctor Strange", "genre_ids": [28, 12, 14, 878], "backdrop_path": "/tFI8VLMgSTTU38i8TIsklfqS9Nl.jpg", "adult": false, "overview": "After his career is destroyed, a brilliant but arrogant surgeon gets a new lease on life when a sorcerer takes him under her wing and trains him to defend the world against evil.", "poster_path": "/4PiiNGXj1KENTmCBHeN6Mskj2Fq.jpg", "popularity": 40.604}, {"id": 463821, "video": false, "vote_count": 1173, "vote_average": 6.2, "title": "The House with a Clock in Its Walls", "release_date": "2018-09-15", "original_language": "en", "original_title": "The House with a Clock in Its Walls", "genre_ids": [14, 10751], "backdrop_path": "/LC9g7oNJc3jZNXUU8CkwSzVK2w.jpg", "adult": false, "overview": "When ten-year-old Lewis is suddenly orphaned, he is sent to live with his Uncle Jonathan in a creaky (and creepy) old mansion with a mysterious ticking noise that emanates from the walls. Upon discovering that his uncle is a warlock, Lewis begins learning magic, but when he rebelliously resurrects an evil warlock he must find the secret of the house and save the world from destruction.", "poster_path": "/qM66Hv4ByAxnilr0jaqCA9uOD4Y.jpg", "popularity": 21.787}, {"id": 12225, "video": false, "vote_count": 569, "vote_average": 6.9, "title": "Cashback", "release_date": "2006-09-10", "original_language": "en", "original_title": "Cashback", "genre_ids": [35, 18, 10749], "backdrop_path": "/4gT26M9G85HI76D9ZGDHyRx4OfE.jpg", "adult": false, "overview": "After a painful breakup, Ben develops insomnia. To kill time, he starts working the late night shift at the local supermarket, where his artistic imagination runs wild.", "poster_path": "/rXzlyFeZkpwFMd8lCrOHpjfM4VL.jpg", "popularity": 12.831}, {"id": 1903, "video": false, "vote_count": 2234, "vote_average": 6.8, "title": "Vanilla Sky", "release_date": "2001-12-10", "original_language": "en", "original_title": "Vanilla Sky", "genre_ids": [18, 14, 878, 53, 10749], "backdrop_path": "/6XwX3HzKhlBUbTy2qZx0THQOu2T.jpg", "adult": false, "overview": "David Aames has it all: wealth, good looks and gorgeous women on his arm. But just as he begins falling for the warmhearted Sofia, his face is horribly disfigured in a car accident. That's just the beginning of his troubles as the lines between illusion and reality, between life and death, are blurred.", "poster_path": "/ujMy9P4VczTW9YSpAM31uqdOMpz.jpg", "popularity": 14.632}, {"adult": false, "backdrop_path": "/kiOnPmm5P9hhvC6bhYvqvpgZGp.jpg", "genre_ids": [18, 27, 53], "id": 11804, "original_language": "en", "original_title": "White Noise", "overview": "An architect's desire to speak with his wife from beyond the grave using EVP (Electronic Voice Phenomenon), becomes an obsession with supernatural repercussions.", "poster_path": "/jilH5XTvUdF8vCo4aCWscctGG7V.jpg", "release_date": "2005-01-07", "title": "White Noise", "video": false, "vote_average": 5.6, "vote_count": 466, "popularity": 13.513}, {"adult": false, "backdrop_path": "/eV5qwxjNsNQuY7XITizuXNhVDys.jpg", "genre_ids": [10749, 18, 9648], "id": 2044, "original_language": "en", "original_title": "The Lake House", "overview": "A lonely doctor who once occupied an unusual lakeside home begins exchanging love letters with its former resident, a frustrated architect. They must try to unravel the mystery behind their extraordinary romance before it's too late.", "poster_path": "/tHpc1118dYWLnHZleGhwZxRbpae.jpg", "release_date": "2006-06-16", "title": "The Lake House", "video": false, "vote_average": 6.8, "vote_count": 1534, "popularity": 15.192}, {"id": 11006, "video": false, "vote_count": 360, "vote_average": 6.8, "title": "Smokey and the Bandit", "release_date": "1977-05-26", "original_language": "en", "original_title": "Smokey and the Bandit", "genre_ids": [28, 12, 35], "backdrop_path": "/hzjX8eA4u7tGz4d4kjTnsW4RNWK.jpg", "adult": false, "overview": "A race car driver tries to transport an illegal beer shipment from Texas to Atlanta in under 28 hours, picking up a reluctant bride-to-be on the way.", "poster_path": "/zWCR9BVNKBRZzKJ9wtcmMdZP5Ts.jpg", "popularity": 17.406}, {"id": 1542, "video": false, "vote_count": 1697, "vote_average": 7.4, "title": "Office Space", "release_date": "1999-02-19", "original_language": "en", "original_title": "Office Space", "genre_ids": [35], "backdrop_path": "/8QSLv5XMSLDRcFsstS669F5ZRZl.jpg", "adult": false, "overview": "Three office workers strike back at their evil employers by hatching a hapless attempt to embezzle money.", "poster_path": "/iO9aZzrfmMvm3IqkFiQyuuUMLh2.jpg", "popularity": 19.046}, {"adult": false, "backdrop_path": "/o5la5jIGEVeStgZcVZ04tIv5ZHL.jpg", "genre_ids": [12, 10751, 878, 53], "id": 15028, "original_language": "en", "original_title": "Clockstoppers", "overview": "Until now, Zak Gibbs' greatest challenge has been to find a way to buy a car. But when he discovers an odd wristwatch amidst his father's various inventions and slips it on -- something very strange happens. The world around him seems to come to a stop, everything and everybody frozen in time. Zak quickly learns how to manipulate the device and he and his quick-witted and beautiful new friend, Francesca, start to have some real fun.", "poster_path": "/8q5B7OUJcc6tXxzmIUBTJ63Ypt7.jpg", "release_date": "2002-03-17", "title": "Clockstoppers", "video": false, "vote_average": 5.0, "vote_count": 151, "popularity": 12.025}, {"id": 411999, "video": false, "vote_count": 217, "vote_average": 6.5, "title": "OtherLife", "release_date": "2017-06-16", "original_language": "en", "original_title": "OtherLife", "genre_ids": [80, 9648, 878], "backdrop_path": "/fhDzf6AGyytro5cFIxzSacPW6AB.jpg", "adult": false, "overview": "Ren Amari is the driven inventor of a revolutionary new drug. OtherLIfe expands the brain's sense of time and creates virtual reality directly in the user's mind. With OtherLife, mere seconds in real life feel like hours or days of exciting adventures. As Ren and her colleagues race around the clock to launch OtherLife, the government muscles in to use the drugs as a radical solution to prison overcrowding. They will create virtual cells where criminals serve long sentences in just minutes of real time. When Ren resists, she finds herself an unwilling guinea pig trapped in a prison cell in her mind. She must escape before she descends into madness, and then regain control of OtherLife before others suffer the same fate.", "poster_path": "/stSDsKsb4fS6NPzuHwfAWD2jim8.jpg", "popularity": 11.711}, {"id": 15691, "video": false, "vote_count": 121, "vote_average": 6.3, "title": "Doctor Who", "release_date": "1996-05-12", "original_language": "en", "original_title": "Doctor Who", "genre_ids": [12, 878, 10770], "backdrop_path": "/xWss7p9J94tGZ6hL41SBoN0kADQ.jpg", "adult": false, "overview": "The Seventh Doctor becomes the Eighth. And on the streets of San Francisco \u2013 alongside new ally Grace Holloway - he battles the Master.", "poster_path": "/sPdmcY6OSGOFDagLbJCqyzYYlt9.jpg", "popularity": 11.32}, {"id": 22596, "video": false, "vote_count": 182, "vote_average": 7.9, "title": "Safety Last!", "release_date": "1923-04-01", "original_language": "en", "original_title": "Safety Last!", "genre_ids": [28, 35, 10749], "backdrop_path": "/i3RzSYQt5kj2n39Gv16xv9v9wkc.jpg", "adult": false, "overview": "When a store clerk organizes a contest to climb the outside of a tall building, circumstances force him to make the perilous climb himself.", "poster_path": "/U8FVAaJvYJwjGZe34hIjj8AqvX.jpg", "popularity": 10.933}], "total_pages": 6, "total_results": 107}, "recommendations": {"page": 1, "results": [{"adult": false, "backdrop_path": "/gAOthtWw9JkWKvRE9gb9ep1zSr.jpg", "genre_ids": [18, 35], "id": 208277, "original_language": "de", "original_title": "Feuchtgebiete", "overview": "Helen is a nonconformist teenage girl who maintains a conflictual relationship with her parents. Hanging out most of her time with her friend Corinna, with whom she breaks one social taboo after another, she uses sex as a way to rebel and break the conventional bourgeois ethic. After an intimate shaving accident, Helen ends up in the hospital where it doesn\u2019t take long before she makes waves. But there she finds Robin, a male nurse who will sweep her off her feet...", "poster_path": "/zyuDsTrb8d3nQTXKIWjjaHMuWdT.jpg", "release_date": "2013-08-22", "title": "Wetlands", "video": false, "vote_average": 5.3, "vote_count": 166, "popularity": 6.599}], "total_pages": 1, "total_results": 1}, "credits": {"cast": [], "crew": [{"credit_id": "52fe4bf4c3a368484e19fe33", "department": "Directing", "gender": 2, "id": 932510, "job": "Director", "name": "Florian Opitz", "profile_path": "/wBgSTKPtpkrzm3z6LqJV7lOt993.jpg"}, {"credit_id": "52fe4bf4c3a368484e19fe39", "department": "Writing", "gender": 2, "id": 932510, "job": "Writer", "name": "Florian Opitz", "profile_path": "/wBgSTKPtpkrzm3z6LqJV7lOt993.jpg"}]}}