{"adult": false, "backdrop_path": "/a7pRerUDh3f3T1V0OQzyErtYH99.jpg", "belongs_to_collection": {"id": 187734, "name": "La Classe Am\u00e9ricaine & Cie - Saga", "poster_path": "/4wepZEo8gjEHrNNavSWjola7iSc.jpg", "backdrop_path": "/aixqVk06NYYDEqJ7Se0Q151WBSs.jpg"}, "budget": 0, "genres": [{"id": 35, "name": "Comedy"}], "homepage": null, "id": 135307, "imdb_id": "tt0782847", "original_language": "fr", "original_title": "Derrick contre Superman", "overview": "Derrick and his deputy, Harry Klein, back from holidays, discover that french TV channel 5 is dead. They'll have to build a plan to create a new \"new 5 channel\". They'll be helped by Starsky & Hutch, Matt Houston, Captain Kirk or french inspector Navarro, while Superman, assisted by Number 6 and Roger Moore, will try to thwart their plan.", "popularity": 1.471, "poster_path": "/xiPKulSjNbV7VzzvEPw4hxIrLbw.jpg", "production_companies": [{"id": 12580, "logo_path": "/cN3Zlvky0zzEscv416PSGa2EMQu.png", "name": "Dune", "origin_country": "FR"}, {"id": 104, "logo_path": "/9aotxauvc9685tq9pTcRJszuT06.png", "name": "Canal+", "origin_country": "FR"}], "production_countries": [], "release_date": "1992-12-23", "revenue": 0, "runtime": 16, "spoken_languages": [{"iso_639_1": "fr", "name": "Fran\u00e7ais"}], "status": "Released", "tagline": "", "title": "Derrick contre Superman", "video": false, "vote_average": 6.6, "vote_count": 13, "keywords": {"keywords": []}, "similar": {"page": 1, "results": [{"adult": false, "backdrop_path": "/wzam0pu9jdpwqSD3BVyB7xXXTI.jpg", "genre_ids": [16, 35], "id": 53219, "original_language": "en", "original_title": "Mickey's Trailer", "overview": "Goofy's in the driver's seat, Mickey's in the kitchen, and Donald's in bed in Mickey's high-tech house trailer. When Goofy comes back to eat breakfast, leaving the car on autopilot, it takes them onto a dangerous closed mountain road. When Goofy realizes this, he accidentally unhooks the trailer, sending it on a perilous route. They come very close to disaster several times, while the oblivious Goofy drives on and hooks back up to them.", "poster_path": "/fnYh5nbIsSfR9oC775RJSdNXHZE.jpg", "release_date": "1938-05-06", "title": "Mickey's Trailer", "video": false, "vote_average": 7.0, "vote_count": 58, "popularity": 9.744}, {"adult": false, "backdrop_path": "/hPByrqJXCXIViFheXQh48wtI7T6.jpg", "genre_ids": [16, 12, 14, 10751], "id": 31135, "original_language": "en", "original_title": "Mickey Mouse: Mickey and the Beanstalk", "overview": "Based on the timeless adventures of \"Jack and the Beanstalk,\" Mickey, Donald and Goofy climb a fantastic beanstalk up into the sky to a place where everything is huge -- the food, the castle and the fearsome giant named Willy who guards a beautiful golden harp! Will Mickey and his friends outwit the giant and make it safely back home?", "poster_path": "/kk1Xg1f1lv6loekjlKinpKJlGOu.jpg", "release_date": "1947-09-27", "title": "Mickey Mouse: Mickey and the Beanstalk", "video": false, "vote_average": 6.7, "vote_count": 166, "popularity": 13.649}, {"id": 21385, "video": false, "vote_count": 455, "vote_average": 6.4, "title": "Mickey, Donald, Goofy: The Three Musketeers", "release_date": "2004-08-04", "original_language": "en", "original_title": "Mickey, Donald, Goofy: The Three Musketeers", "genre_ids": [12, 16, 35, 10751], "backdrop_path": "/8WodHELOg5guFPMIQf0M88IQhNE.jpg", "adult": false, "overview": "In Disney's take on the Alexander Dumas tale, Mickey Mouse, Donald Duck and Goofy want nothing more than to perform brave deeds on behalf of their queen (Minnie Mouse), but they're stymied by the head Musketeer, Pete. Pete secretly wants to get rid of the queen, so he appoints Mickey and his bumbling friends as guardians to Minnie, thinking such a maneuver will ensure his scheme's success. The score features songs based on familiar classical melodies.", "poster_path": "/uDvv54as7hLH7aWHwPyIVvoNb9K.jpg", "popularity": 27.432}, {"id": 14813, "video": false, "vote_count": 456, "vote_average": 7.6, "title": "Mickey's Christmas Carol", "release_date": "1983-10-19", "original_language": "en", "original_title": "Mickey's Christmas Carol", "genre_ids": [16, 10751], "backdrop_path": "/fDK3xeAcQfQ40ZUULgZshElkspa.jpg", "adult": false, "overview": "It is an adaptation of the Charles Dickens classic A Christmas Carol, featuring Scrooge McDuck as his namesake and inspiration Ebenezer Scrooge and Mickey Mouse as Bob Cratchit. This film was based on a 1972 audio musical entitled Disney's A Christmas Carol. It is a twenty-four minute animated short film produced by Walt Disney Productions as an accompaniment to a re-release of The Rescuers.", "poster_path": "/29iF1IiC3ZyJQ1kmTf4LD8p8oro.jpg", "popularity": 14.7}, {"id": 856, "video": false, "vote_count": 3249, "vote_average": 7.4, "title": "Who Framed Roger Rabbit", "release_date": "1988-06-21", "original_language": "en", "original_title": "Who Framed Roger Rabbit", "genre_ids": [16, 35, 80, 14, 10751], "backdrop_path": "/9podqGmd36AJHO13HQIQHQZRTJC.jpg", "adult": false, "overview": "'Toon star Roger is worried that his wife Jessica is playing pattycake with someone else, so the studio hires detective Eddie Valiant to snoop on her. But the stakes are quickly raised when Marvin Acme is found dead and Roger is the prime suspect.", "poster_path": "/lYfRc57Kx9VgLZ48iulu0HKnM15.jpg", "popularity": 20.755}, {"id": 10527, "video": false, "vote_count": 4220, "vote_average": 6.4, "title": "Madagascar: Escape 2 Africa", "release_date": "2008-10-30", "original_language": "en", "original_title": "Madagascar: Escape 2 Africa", "genre_ids": [16, 35, 10751], "backdrop_path": "/anxiz37Z9FPKeuCsJcxViSWmPxg.jpg", "adult": false, "overview": "Alex, Marty, and other zoo animals find a way to escape from Madagascar when the penguins reassemble a wrecked airplane. The precariously repaired craft stays airborne just long enough to make it to the African continent. There the New Yorkers encounter members of their own species for the first time. Africa proves to be a wild place, but Alex and company wonder if it is better than their Central Park home.", "poster_path": "/9mohxwknsHcwFBSAAhoQXwFV5zn.jpg", "popularity": 23.58}, {"adult": false, "backdrop_path": "/wcT7srQ4GeeMqlszMFEtPZ7v8T7.jpg", "genre_ids": [35, 10749], "id": 28978, "original_language": "en", "original_title": "The Circus", "overview": "Charlie, a wandering tramp, becomes a circus handyman and falls in love with the circus owner's daughter. Unaware of Charlie's affection, the girl falls in love with a handsome young performer. Charlie's versatility makes him star of the show when he substitutes for an ailing tightwire walker. He is discharged from the company when he protects the girl from her father's abuse, but he returns and appeals to the handsome performer to marry the girl. After the wedding the father prevails upon them to rejoin the circus. Charlie is hired again, but he stays behind when the caravan moves on.", "poster_path": "/awTf4Y6TGvgi3VYtGNINyyJJy9Q.jpg", "release_date": "1928-01-06", "title": "The Circus", "video": false, "vote_average": 8.2, "vote_count": 330, "popularity": 12.839}, {"adult": false, "backdrop_path": "/tr6OExnBfjLADi9OyZoW308mPAp.jpg", "genre_ids": [18, 35, 10749], "id": 74643, "original_language": "en", "original_title": "The Artist", "overview": "Hollywood, 1927: As silent movie star George Valentin wonders if the arrival of talking pictures will cause him to fade into oblivion, he sparks with Peppy Miller, a young dancer set for a big break.", "poster_path": "/i0mpvMIIjyubXsVKug9vX0lYpnd.jpg", "release_date": "2011-06-26", "title": "The Artist", "video": false, "vote_average": 7.4, "vote_count": 1977, "popularity": 10.661}, {"id": 901, "video": false, "vote_count": 1026, "vote_average": 8.4, "title": "City Lights", "release_date": "1931-02-01", "original_language": "xx", "original_title": "City Lights", "genre_ids": [35, 18, 10749], "backdrop_path": "/vT6ux2rdyg2kexuLisO5Ygz7pHg.jpg", "adult": false, "overview": "City Lights is the first silent film that Charlie Chaplin directed after he established himself with sound accompanied films. The film is about a penniless man who falls in love with a flower girl.", "poster_path": "/bXNvzjULc9jrOVhGfjcc64uKZmZ.jpg", "popularity": 14.645}, {"id": 10258, "video": false, "vote_count": 148, "vote_average": 6.6, "title": "The Madagascar Penguins in a Christmas Caper", "release_date": "2005-09-23", "original_language": "en", "original_title": "The Madagascar Penguins in a Christmas Caper", "genre_ids": [16, 35, 10751], "backdrop_path": "/gdJ6j1hmt6dQgObWxDJAHUb58o6.jpg", "adult": false, "overview": "During the holiday season, when the animals of the Central Park Zoo are preparing for Christmas, Private, the youngest of the penguins notices that the Polar Bear is all alone. Assured that nobody should have to spend Christmas alone, Private goes into the city for some last-minute Christmas shopping. Along the way, he gets stuffed into a stocking", "poster_path": "/r8QtfGSjDaY6vICRVyYvZvTkjxc.jpg", "popularity": 13.032}, {"id": 150540, "video": false, "vote_count": 13957, "vote_average": 7.9, "title": "Inside Out", "release_date": "2015-06-09", "original_language": "en", "original_title": "Inside Out", "genre_ids": [16, 35, 18, 10751], "backdrop_path": "/szytSpLAyBh3ULei3x663mAv5ZT.jpg", "adult": false, "overview": "Growing up can be a bumpy road, and it's no exception for Riley, who is uprooted from her Midwest life when her father starts a new job in San Francisco. Riley's guiding emotions\u2014 Joy, Fear, Anger, Disgust and Sadness\u2014live in Headquarters, the control centre inside Riley's mind, where they help advise her through everyday life and tries to keep things positive, but the emotions conflict on how best to navigate a new city, house and school.", "poster_path": "/aAmfIX3TT40zUHGcCKrlOZRKC7u.jpg", "popularity": 57.362}, {"id": 460793, "video": false, "vote_count": 933, "vote_average": 6.2, "title": "Olaf's Frozen Adventure", "release_date": "2017-10-27", "original_language": "en", "original_title": "Olaf's Frozen Adventure", "genre_ids": [12, 16, 35, 14, 10402, 10751], "backdrop_path": "/9K4QqQZg4TVXcxBGDiVY4Aey3Rn.jpg", "adult": false, "overview": "Olaf is on a mission to harness the best holiday traditions for Anna, Elsa, and Kristoff.", "poster_path": "/As8WTtxXs9e3cBit3ztTf7zoRmm.jpg", "popularity": 21.98}, {"id": 481084, "video": false, "vote_count": 449, "vote_average": 6.1, "title": "The Addams Family", "release_date": "2019-10-10", "original_language": "en", "original_title": "The Addams Family", "genre_ids": [16, 35, 14, 10751], "backdrop_path": "/ur4NTeFGZmQ6Hz5uEkAMgPI3WRg.jpg", "adult": false, "overview": "The Addams family's lives begin to unravel when they face-off against a treacherous, greedy crafty reality-TV host while also preparing for their extended family to arrive for a major celebration.", "poster_path": "/q1epO0eO8DWu8Vo8tPfvVlzW48T.jpg", "popularity": 41.447}, {"id": 14787, "video": false, "vote_count": 124, "vote_average": 6.4, "title": "Tom and Jerry: The Magic Ring", "release_date": "2002-03-12", "original_language": "en", "original_title": "Tom and Jerry: The Magic Ring", "genre_ids": [28, 16, 35, 14, 10751], "backdrop_path": "/wPvYwB9NYUJRXIzjKeupigE1JXc.jpg", "adult": false, "overview": "The world's favourite cat and mouse team bounds back into action in an all-new full-length animated adventure certain to cast its spell over the entire family Left in charge of a priceless magical ring by his young wizard master, Tom is horrified when the ring gets stuck on Jerry's head, who then runs off into the city! Before you can say \"abracadabra\", the entire town is hot on our heroes' tails.", "poster_path": "/fF6I48WGKktHfGYYSVKPTVildWE.jpg", "popularity": 15.019}, {"adult": false, "backdrop_path": "/twGxeStlGooWV3gP6ZIcSNuQ6jf.jpg", "genre_ids": [12, 16, 10751, 14], "id": 81684, "original_language": "en", "original_title": "The Gruffalo's Child", "overview": "A follow up to the 2009 animated feature and adapted from the childrens' book by Julia Donaldson and Alex Scheffler.  The Gruffalo's child explores the deep dark wood in search of the big bad mouse and meets the Snake, Owl and Fox in the process.  She eventually finds the mouse, who manages to outwit her like the Gruffalo before!", "poster_path": "/qaGH2AoaLvoGXURQtNzj1nw6oZd.jpg", "release_date": "2011-12-25", "title": "The Gruffalo's Child", "video": false, "vote_average": 6.9, "vote_count": 73, "popularity": 9.51}, {"adult": false, "backdrop_path": "/rFwqbIWKAqy0jBQAjpeLzkpjABj.jpg", "genre_ids": [16, 35, 10751], "id": 61080, "original_language": "en", "original_title": "Pluto's Christmas Tree", "overview": "Pluto comes bounding outside to help Mickey get a Christmas tree. Chip 'n Dale see him and make fun of him, but the tree they take refuge in is the one Mickey chops down. They like the decorations, especially the candy canes and Mickey's bowl of mixed nuts. But Pluto spots them and goes after them long before Mickey spots them. Minnie, Donald, and Goofy drop by to sing carols.", "poster_path": "/t3RHoHWVv89bnFAhnzizExMUu4x.jpg", "release_date": "1952-11-21", "title": "Pluto's Christmas Tree", "video": false, "vote_average": 7.3, "vote_count": 40, "popularity": 4.97}, {"adult": false, "backdrop_path": null, "genre_ids": [], "id": 616262, "original_language": "ar", "original_title": "All Come From Dust", "overview": "A loop of edgeless bend. You were its doom, he was its bloom. You were its tomb, he was its womb. You were its gloom, he was its loom. For Heaven and Hell, were words made of fume.", "poster_path": null, "release_date": "2019-08-13", "title": "All Come From Dust", "video": false, "vote_average": 5.0, "vote_count": 1, "popularity": 0.6}, {"id": 621733, "video": false, "vote_count": 0, "vote_average": 0.0, "title": "A Trip to the Seaside", "release_date": "2019-08-30", "original_language": "en", "original_title": "A Trip to the Seaside", "genre_ids": [99], "backdrop_path": null, "adult": false, "overview": "Experimental short film on the excitement and rush of a day trip", "poster_path": "/AuZVhpoJ4jm2LWDhoJKfxQfhDAi.jpg", "popularity": 1.324}, {"id": 157336, "video": false, "vote_count": 20609, "vote_average": 8.3, "title": "Interstellar", "release_date": "2014-11-05", "original_language": "en", "original_title": "Interstellar", "genre_ids": [12, 18, 878], "backdrop_path": "/xu9zaAevzQ5nnrsXN6JcahLnG4i.jpg", "adult": false, "overview": "Interstellar chronicles the adventures of a group of explorers who make use of a newly discovered wormhole to surpass the limitations on human space travel and conquer the vast distances involved in an interstellar voyage.", "poster_path": "/nBNZadXqJSdt05SHLqgT0HuC5Gm.jpg", "popularity": 53.312}, {"adult": false, "backdrop_path": "/pc7a2qrIkIxzqWGqcexd3mHzIxy.jpg", "genre_ids": [28, 53, 12], "id": 56292, "original_language": "en", "original_title": "Mission: Impossible - Ghost Protocol", "overview": "Ethan Hunt and his team are racing against time to track down a dangerous terrorist named Hendricks, who has gained access to Russian nuclear launch codes and is planning a strike on the United States. An attempt to stop him ends in an explosion causing severe destruction to the Kremlin and the IMF to be implicated in the bombing, forcing the President to disavow them. No longer being aided by the government, Ethan and his team chase Hendricks around the globe, although they might still be too late to stop a disaster.", "poster_path": "/s58mMsgIVOFfoXPtwPWJ3hDYpXf.jpg", "release_date": "2011-12-07", "title": "Mission: Impossible - Ghost Protocol", "video": false, "vote_average": 7.0, "vote_count": 6591, "popularity": 29.242}], "total_pages": 830, "total_results": 16586}, "recommendations": {"page": 1, "results": [{"adult": false, "backdrop_path": "/hx3LDwsettgNEDLlidPanJdc57A.jpg", "genre_ids": [99], "id": 272842, "original_language": "fr", "original_title": "La Guerre des Graines", "overview": "", "poster_path": "/4Vfz2RRhSY33WCtQ1J6XeD4ClJ6.jpg", "release_date": "2014-05-27", "title": "La Guerre des Graines", "video": false, "vote_average": 5.2, "vote_count": 6, "popularity": 1.4}, {"adult": false, "backdrop_path": "/7BteMOJBv7WovfECkdW3vLFxWoh.jpg", "genre_ids": [99], "id": 126326, "original_language": "fr", "original_title": "Journal de France", "overview": "A journal, a voyage through time. He photographs France, she rediscovers the unseen footage he has so carefully kept: his first steps behind the camera, his TV reports from around the world, snatches of their memories and of our history.", "poster_path": "/9wVoglt5brUDMroLrsvair9mZoE.jpg", "release_date": "2012-05-22", "title": "Journal de France", "video": false, "vote_average": 6.7, "vote_count": 9, "popularity": 1.001}, {"id": 16130, "video": false, "vote_count": 108, "vote_average": 7.9, "title": "La classe am\u00e9ricaine", "release_date": "1993-12-30", "original_language": "fr", "original_title": "La classe am\u00e9ricaine", "genre_ids": [35], "backdrop_path": "/wD7pJC0ZpGAzBSczXnf3dHuexLq.jpg", "adult": false, "overview": "George Abitbol, \"the Most Classy Man on Earth\", dies sputtering his famous last words: \"Crappy world!\" What the heck did he mean? Reporters Steven, Peter and Dave investigate. La Classe Am\u00e9ricaine is a montage of scenes taken from the Warner Bros. catalog and dubbed to fit the narration of what is arguably the greatest story ever told.", "poster_path": "/8eG421e0yf25xttvIMcysmTgT7J.jpg", "popularity": 6.052}], "total_pages": 1, "total_results": 3}, "credits": {"cast": [{"cast_id": 7, "character": "Derrick (archive footage)", "credit_id": "52fe4bf3c3a368484e19fc93", "gender": 2, "id": 18543, "name": "Horst Tappert", "order": 0, "profile_path": "/9jEYXlw6cqARkKbtoglNO8ieXlO.jpg"}, {"cast_id": 8, "character": "Hans (archive footage)", "credit_id": "52fe4bf3c3a368484e19fc97", "gender": 2, "id": 36027, "name": "Fritz Wepper", "order": 1, "profile_path": "/fhdJ20v0xpFo2yF0TFDsyNk53kA.jpg"}, {"cast_id": 9, "character": "Brett Sinclair (archive footage)", "credit_id": "52fe4bf3c3a368484e19fc9b", "gender": 2, "id": 10222, "name": "Roger Moore", "order": 2, "profile_path": "/8tnAaHY6cehjC9B6mIvxaFPewbh.jpg"}, {"cast_id": 10, "character": "Starsky (archive footage)", "credit_id": "52fe4bf3c3a368484e19fc9f", "gender": 2, "id": 12988, "name": "Paul Michael Glaser", "order": 3, "profile_path": "/yc39Cj9ZmaEnrKZIRnYLPAdDyCK.jpg"}], "crew": [{"credit_id": "52fe4bf3c3a368484e19fc77", "department": "Production", "gender": 2, "id": 67717, "job": "Producer", "name": "Michel Hazanavicius", "profile_path": "/5Adwey0AqG16rM7jrDMjUaew9W3.jpg"}, {"credit_id": "52fe4bf3c3a368484e19fc7d", "department": "Production", "gender": 0, "id": 142989, "job": "Producer", "name": "Dominique Mezerette", "profile_path": null}, {"credit_id": "52fe4bf3c3a368484e19fc83", "department": "Crew", "gender": 0, "id": 142989, "job": "Script", "name": "Dominique Mezerette", "profile_path": null}, {"credit_id": "52fe4bf3c3a368484e19fc89", "department": "Crew", "gender": 2, "id": 67717, "job": "Script", "name": "Michel Hazanavicius", "profile_path": "/5Adwey0AqG16rM7jrDMjUaew9W3.jpg"}, {"credit_id": "52fe4bf3c3a368484e19fc8f", "department": "Directing", "gender": 2, "id": 67717, "job": "Director", "name": "Michel Hazanavicius", "profile_path": "/5Adwey0AqG16rM7jrDMjUaew9W3.jpg"}]}}