{"adult": false, "backdrop_path": "/tIiKUuuJGfpNVgqsL90t7wtyzbV.jpg", "belongs_to_collection": null, "budget": 0, "genres": [], "homepage": null, "id": 135571, "imdb_id": "tt0056562", "original_language": "ja", "original_title": "\u6d99\u3092\u3001\u7345\u5b50\u306e\u305f\u3066\u9aea\u306b", "overview": "Takashi Fujiki stars as a rebel in this drama about life on the Yokohama waterfront by New Wave director Masahiro Shinoda. The rebel works as an errand boy for a shipping company and vents his frustrations by plucking on the guitar. His interpretations of popular trends in music are sometimes right-on, and sometimes not exactly. Bereft of his guitar, the rebel's modes of expression are not as effective in generating interest as the Yokohama docks themselves, a fascinating world in their own right.", "popularity": 1.045, "poster_path": "/k61kMfMVD3OK0HAmJhdDSCfHfq.jpg", "production_companies": [{"id": 192, "logo_path": "/93eAKlnQecDdMtucfOprzcjMw9V.png", "name": "Shochiku Co., Ltd.", "origin_country": "JP"}], "production_countries": [{"iso_3166_1": "JP", "name": "Japan"}], "release_date": "1962-09-30", "revenue": 0, "runtime": 92, "spoken_languages": [{"iso_639_1": "ja", "name": "\u65e5\u672c\u8a9e"}], "status": "Released", "tagline": "", "title": "A Flame at the Pier", "video": false, "vote_average": 5.0, "vote_count": 1, "keywords": {"keywords": [{"id": 578, "name": "rock 'n' roll"}, {"id": 15137, "name": "union"}]}, "similar": {"page": 1, "results": [{"id": 6575, "video": false, "vote_count": 364, "vote_average": 6.6, "title": "Walk Hard: The Dewey Cox Story", "release_date": "2007-12-21", "original_language": "en", "original_title": "Walk Hard: The Dewey Cox Story", "genre_ids": [35, 18, 10402], "backdrop_path": "/y7EElGAn1tFE0Npmls7uvg4HPVj.jpg", "adult": false, "overview": "Following a childhood tragedy, Dewey Cox follows a long and winding road to music stardom. Dewey perseveres through changing musical styles, an addiction to nearly every drug known and bouts of uncontrollable rage.", "poster_path": "/2sc7qoLTqZC0nB2k1crwuVoKP6H.jpg", "popularity": 15.669}, {"id": 786, "video": false, "vote_count": 1485, "vote_average": 7.5, "title": "Almost Famous", "release_date": "2000-09-15", "original_language": "en", "original_title": "Almost Famous", "genre_ids": [18, 10402], "backdrop_path": "/zfucY8mxcrNeopFneyvyERZQah1.jpg", "adult": false, "overview": "In 1973, 15-year-old William Miller's unabashed love of music and aspiration to become a rock journalist lands him an assignment from Rolling Stone magazine to interview and tour with the up-and-coming band Stillwater\u2014fronted by lead guitar Russell Hammond, and lead singer Jeff Bebe.", "poster_path": "/9pNo92j6zSEAUB8pNmcJTkpnkBF.jpg", "popularity": 17.801}, {"adult": false, "backdrop_path": "/q3eNcig4YFEsUTnmIYDA90FdndO.jpg", "genre_ids": [10402, 35, 28, 80], "id": 525, "original_language": "en", "original_title": "The Blues Brothers", "overview": "Jake Blues is just out of jail, and teams up with his brother, Elwood on a 'mission from God' to raise funds for the orphanage in which they grew up. The only thing they can do is do what they do best: play music. So they get their old band together, and set out on their way\u2014while getting in a bit of trouble here and there.", "poster_path": "/6hesUNBkpVRqBTBw2HlTg0h8b56.jpg", "release_date": "1980-06-17", "title": "The Blues Brothers", "video": false, "vote_average": 7.7, "vote_count": 2299, "popularity": 21.638}, {"adult": false, "backdrop_path": "/ljjr1LTE6Xsg8bQxcymXhcaQyLw.jpg", "genre_ids": [35, 10751, 14, 16], "id": 6477, "original_language": "en", "original_title": "Alvin and the Chipmunks", "overview": "A struggling songwriter named Dave Seville finds success when he comes across a trio of singing chipmunks: mischievous leader Alvin, brainy Simon, and chubby, impressionable Theodore.", "poster_path": "/sAt2yb4dgrpkHjbB9dQaKD9Caor.jpg", "release_date": "2007-12-13", "title": "Alvin and the Chipmunks", "video": false, "vote_average": 5.7, "vote_count": 2746, "popularity": 14.626}, {"id": 13576, "video": false, "vote_count": 509, "vote_average": 6.9, "title": "This Is It", "release_date": "2009-10-28", "original_language": "en", "original_title": "This Is It", "genre_ids": [99, 10402], "backdrop_path": "/w7yzaQ7P2UBtSyMqMOx0zNxc3wB.jpg", "adult": false, "overview": "A compilation of interviews, rehearsals and backstage footage of Michael Jackson as he prepared for his series of sold-out shows in London.", "poster_path": "/4ZgT8FRJxxpG0mgOIPeCgjzAsBR.jpg", "popularity": 11.776}, {"id": 27, "video": false, "vote_count": 200, "vote_average": 5.0, "title": "9 Songs", "release_date": "2004-07-16", "original_language": "en", "original_title": "9 Songs", "genre_ids": [18, 10402, 10749], "backdrop_path": "/tie8vA3q3Q9BB5RlMlexRvv9xoh.jpg", "adult": false, "overview": "Matt, a young glaciologist, soars across the vast, silent, icebound immensities of the South Pole as he recalls his love affair with Lisa. They meet at a mobbed rock concert in a vast music hall - London's Brixton Academy. They are in bed at night's end. Together, over a period of several months, they pursue a mutual sexual passion whose inevitable stages unfold in counterpoint to nine live-concert songs.", "poster_path": "/91O7z0vo7MiNWd5xD2BoivwbQsb.jpg", "popularity": 17.371}, {"adult": false, "backdrop_path": "/tvTyRu9eKfymkje8d9VoWJEoyUv.jpg", "genre_ids": [18], "id": 53932, "original_language": "es", "original_title": "Las edades de Lul\u00fa", "overview": "Fifteen-year-old Lulu has never known any affection from her family. But when she goes to a rock concert with Pablo, a friend of the family, he introduces Lulu to her first sexual experience. Years later, Pablo and Lulu have married; Pablo has created a sheltered, private world for Lulu, into which nothing intrudes. However, Lulu tires of her cloistered existence, and begins hanging out in shady bars, looking for vicarious thrills and danger.", "poster_path": "/5PK5MAN84o0ESgzeW9euozOLIEe.jpg", "release_date": "1990-12-13", "title": "The Ages of Lulu", "video": false, "vote_average": 5.7, "vote_count": 64, "popularity": 24.141}, {"adult": false, "backdrop_path": "/iOGODt9Z92SHVEyuEQiN8wYidmQ.jpg", "genre_ids": [16, 878, 12, 14, 10402], "id": 11827, "original_language": "en", "original_title": "Heavy Metal", "overview": "A glowing orb terrorizes a young girl with a collection of stories of dark fantasy, eroticism and horror.", "poster_path": "/atUtWrDlLzT1yeVK2EoYtvbS963.jpg", "release_date": "1981-08-07", "title": "Heavy Metal", "video": false, "vote_average": 6.3, "vote_count": 316, "popularity": 19.299}, {"id": 332562, "video": false, "vote_count": 7182, "vote_average": 7.5, "title": "A Star Is Born", "release_date": "2018-10-03", "original_language": "en", "original_title": "A Star Is Born", "genre_ids": [18, 10402, 10749], "backdrop_path": "/mnDvPokXpvsdPcWSjNRPhiiLOKu.jpg", "adult": false, "overview": "Seasoned musician Jackson Maine discovers \u2014 and falls in love with \u2014 struggling artist Ally. She has just about given up on her dream to make it big as a singer \u2014 until Jack coaxes her into the spotlight. But even as Ally's career takes off, the personal side of their relationship is breaking down, as Jack fights an ongoing battle with his own internal demons.", "poster_path": "/wrFpXMNBRj2PBiN4Z5kix51XaIZ.jpg", "popularity": 37.528}, {"adult": false, "backdrop_path": "/oT79THuFrcBzrhlf4fiCddwZBCQ.jpg", "genre_ids": [18, 10402, 10749], "id": 69, "original_language": "en", "original_title": "Walk the Line", "overview": "A chronicle of country music legend Johnny Cash's life, from his early days on an Arkansas cotton farm to his rise to fame with Sun Records in Memphis, where he recorded alongside Elvis Presley, Jerry Lee Lewis and Carl Perkins.", "poster_path": "/wdxL3Zyh3O5MIbmsSiZEevJAjtQ.jpg", "release_date": "2005-09-13", "title": "Walk the Line", "video": false, "vote_average": 7.5, "vote_count": 1545, "popularity": 15.437}, {"id": 2976, "video": false, "vote_count": 1691, "vote_average": 6.6, "title": "Hairspray", "release_date": "2007-07-13", "original_language": "en", "original_title": "Hairspray", "genre_ids": [35, 18, 10749], "backdrop_path": "/yafOInYuEuK6FOw1oK40Lggp0TV.jpg", "adult": false, "overview": "Pleasantly plump teenager Tracy Turnblad auditions to be on Baltimore's most popular dance show - The Corny Collins Show - and lands a prime spot. Through her newfound fame, she becomes determined to help her friends and end the racial segregation that has been a staple of the show.", "poster_path": "/ndOpIx4BXpFCRRIxgMoGHxZxlE9.jpg", "popularity": 30.447}, {"id": 313369, "video": false, "vote_count": 11063, "vote_average": 7.9, "title": "La La Land", "release_date": "2016-11-29", "original_language": "en", "original_title": "La La Land", "genre_ids": [35, 18, 10402, 10749], "backdrop_path": "/fp6X6yhgcxzxCpmM0EVC6V9B8XB.jpg", "adult": false, "overview": "Mia, an aspiring actress, serves lattes to movie stars in between auditions and Sebastian, a jazz musician, scrapes by playing cocktail party gigs in dingy bars, but as success mounts they are faced with decisions that begin to fray the fragile fabric of their love affair, and the dreams they worked so hard to maintain in each other threaten to rip them apart.", "poster_path": "/ylXCdC106IKiarftHkcacasaAcb.jpg", "popularity": 39.654}, {"id": 458104, "video": false, "vote_count": 0, "vote_average": 0.0, "title": "Hold On", "release_date": "2019-12-06", "original_language": "en", "original_title": "Hold On", "genre_ids": [18], "backdrop_path": null, "adult": false, "overview": "Fighting to save her brother from a life of addiction on Los Angeles' Skid Row, an overlooked singing prodigy embarks on an unlikely journey with the son of a famed music manager.", "poster_path": "/7mxhUUoNkcA5eQdCTwHnWldriSl.jpg", "popularity": 2.616}, {"adult": false, "backdrop_path": "/6bnI08rrGXRkngRqJWCMXDZuJ1j.jpg", "genre_ids": [35, 10402], "id": 254470, "original_language": "en", "original_title": "Pitch Perfect 2", "overview": "The Bellas are back, and they are better than ever. After being humiliated in front of none other than the President of the United States of America, the Bellas are taken out of the Aca-Circuit. In order to clear their name, and regain their status, the Bellas take on a seemingly impossible task: winning an international competition no American team has ever won. In order to accomplish this monumental task, they need to strengthen the bonds of friendship and sisterhood and blow away the competition with their amazing aca-magic! With all new friends and old rivals tagging along for the trip, the Bellas can hopefully accomplish their dreams.", "poster_path": "/qSjruLiFB4uqRtz2xheQPxG8uaB.jpg", "release_date": "2015-05-07", "title": "Pitch Perfect 2", "video": false, "vote_average": 6.8, "vote_count": 3901, "popularity": 29.697}, {"id": 339403, "video": false, "vote_count": 9215, "vote_average": 7.4, "title": "Baby Driver", "release_date": "2017-06-28", "original_language": "en", "original_title": "Baby Driver", "genre_ids": [28, 80], "backdrop_path": "/goCvLSUFz0p7k8R10Hv4CVh3EQv.jpg", "adult": false, "overview": "After being coerced into working for a crime boss, a young getaway driver finds himself taking part in a heist doomed to fail.", "poster_path": "/dN9LbVNNZFITwfaRjl4tmwGWkRg.jpg", "popularity": 34.697}, {"id": 11887, "video": false, "vote_count": 2347, "vote_average": 6.5, "title": "High School Musical 3: Senior Year", "release_date": "2008-10-11", "original_language": "en", "original_title": "High School Musical 3: Senior Year", "genre_ids": [35, 18, 10402, 10749, 10751], "backdrop_path": "/daSGxGZL2nNjGZKkAF5ain3lmOx.jpg", "adult": false, "overview": "It's almost graduation day for high school seniors Troy, Gabriella, Sharpay, Chad, Ryan and Taylor \u2015 and the thought of heading off in separate directions after leaving East High has these Wildcats thinking they need to do something they'll remember forever. Together with the rest of the Wildcats, they stage a spring musical reflecting their hopes and fears about the future and their unforgettable experiences growing up together. But with graduation approaching and college plans in question, what will become of the dreams, romances, and friendships of East High's senior Wildcats?", "poster_path": "/ewZpH2QIfPQ0VIn9lPf7MHbLbl4.jpg", "popularity": 14.748}, {"adult": false, "backdrop_path": "/9YwwUNJKUsJ4mOERvUK9ITP0Qou.jpg", "genre_ids": [18, 35, 10749], "id": 245, "original_language": "en", "original_title": "About a Boy", "overview": "Will Freeman is a hip Londoner who one day realizes that his friends are all involved with the responsibilities of married life and that leaves him alone in the cold. Passing himself off as a single father, he starts to meet a string of single mums, confident in his ability to leave them behind when they start to ask for a commitment. But Will's hope of a continued bachelorhood is interrupted when he meets 12-year old Marcus, in many ways his complete opposite.", "poster_path": "/1kz4Q2v7cxwNnTfkjrujzWAVCne.jpg", "release_date": "2002-04-26", "title": "About a Boy", "video": false, "vote_average": 6.6, "vote_count": 1385, "popularity": 12.962}, {"adult": false, "backdrop_path": "/ePqwTIoJeKJwShMABMst5duBcw9.jpg", "genre_ids": [35, 10402, 10749], "id": 114150, "original_language": "en", "original_title": "Pitch Perfect", "overview": "College student Beca knows she does not want to be part of a clique, but that's exactly where she finds herself after arriving at her new school. Thrust in among mean gals, nice gals and just plain weird gals, Beca finds that the only thing they have in common is how well they sing together. She takes the women of the group out of their comfort zone of traditional arrangements and into a world of amazing harmonic combinations in a fight to the top of college music competitions.", "poster_path": "/cLUMPdwCV0Dxd3P1ZkCXe7bVImI.jpg", "release_date": "2012-09-28", "title": "Pitch Perfect", "video": false, "vote_average": 7.3, "vote_count": 4622, "popularity": 16.878}, {"id": 824, "video": false, "vote_count": 2859, "vote_average": 7.6, "title": "Moulin Rouge!", "release_date": "2001-03-09", "original_language": "en", "original_title": "Moulin Rouge!", "genre_ids": [18, 10749], "backdrop_path": "/ibXhTCxthtwhMj84XJq8W4KtQDt.jpg", "adult": false, "overview": "A celebration of love and creative inspiration takes place in the infamous, gaudy and glamorous Parisian nightclub, at the cusp of the 20th century. A young poet, who is plunged into the heady world of Moulin Rouge, begins a passionate affair with the club's most notorious and beautiful star.", "poster_path": "/xhuQz2yKPlWvMvvnf2u9RVkAQx6.jpg", "popularity": 15.864}, {"adult": false, "backdrop_path": "/bxPw6s61bG5Of19lp1E00n0dDWW.jpg", "genre_ids": [35, 18, 10751, 10402, 10770], "id": 10947, "original_language": "en", "original_title": "High School Musical", "overview": "Troy, the popular captain of the basketball team, and Gabriella, the brainy and beautiful member of the academic club, break all the rules of East High society when they secretly audition for the leads in the school's musical. As they reach for the stars and follow their dreams, everyone learns about acceptance, teamwork, and being yourself.", "poster_path": "/xMRBlTMMKDRJuK4IhwG5idrGHaS.jpg", "release_date": "2006-01-20", "title": "High School Musical", "video": false, "vote_average": 6.5, "vote_count": 2983, "popularity": 14.165}], "total_pages": 214, "total_results": 4271}, "recommendations": {"page": 1, "results": [], "total_pages": 1, "total_results": 0}, "credits": {"cast": [{"cast_id": 4, "character": "Saburo Minakami", "credit_id": "52fe4bfcc3a368484e1a153b", "gender": 2, "id": 233193, "name": "Takashi Fujiki", "order": 0, "profile_path": "/q1MAhUmcFouMKHzFjaVs5ytRHPG.jpg"}, {"cast_id": 5, "character": "Yuki", "credit_id": "52fe4bfcc3a368484e1a153f", "gender": 1, "id": 139366, "name": "Mariko Kaga", "order": 1, "profile_path": "/xm9DACj49KveC9SlMoRzmUs6lHL.jpg"}, {"cast_id": 7, "character": "Reiko", "credit_id": "55d7beed92514143e9000496", "gender": 1, "id": 94188, "name": "Ky\u00f4ko Kishida", "order": 2, "profile_path": "/ng8o42sEIfz0enlAeVOPd7JiHdM.jpg"}, {"cast_id": 8, "character": "Kaga", "credit_id": "55d7bf0092514143e900049c", "gender": 2, "id": 1309472, "name": "Tamotsu Hayakawa", "order": 3, "profile_path": null}, {"cast_id": 9, "character": "", "credit_id": "55d7bf09c3a368320b000500", "gender": 2, "id": 82477, "name": "K\u00f4ji Nanbara", "order": 4, "profile_path": "/84emn6YDu3x44xkJi2x596hIsch.jpg"}, {"cast_id": 10, "character": "", "credit_id": "55d7bf11c3a36832090004a1", "gender": 2, "id": 72393, "name": "Yasushi Nagata", "order": 5, "profile_path": null}, {"cast_id": 11, "character": "", "credit_id": "55d7bf19c3a36832090004a5", "gender": 2, "id": 1129045, "name": "Asao Koike", "order": 6, "profile_path": "/ht31vV8wztV0sdX9ZmP22ZSxFKt.jpg"}, {"cast_id": 12, "character": "", "credit_id": "55d7bf2192514143e00004da", "gender": 2, "id": 33734, "name": "Shinji Tanaka", "order": 7, "profile_path": null}, {"cast_id": 13, "character": "", "credit_id": "55d7bf2f92514143de000522", "gender": 2, "id": 34690, "name": "Shigeru K\u00f4yama", "order": 8, "profile_path": null}, {"cast_id": 14, "character": "", "credit_id": "55d7bf3892514143e4000509", "gender": 2, "id": 1008470, "name": "Takamaru Sasaki", "order": 9, "profile_path": "/jVUFBOgmC2pU7mcJQZtCFjB3z3C.jpg"}, {"cast_id": 15, "character": "", "credit_id": "55d7bf4192514143e60004b9", "gender": 2, "id": 97629, "name": "Jun Hamamura", "order": 10, "profile_path": "/ekJCrTOo9qwGNNJbN41x9VRYIy0.jpg"}, {"cast_id": 16, "character": "", "credit_id": "55d7bf4ec3a36831fa00055a", "gender": 2, "id": 134346, "name": "Hisao Toake", "order": 11, "profile_path": "/kEnzyjduwFK5o0BUWsVyHgjvUb0.jpg"}, {"cast_id": 17, "character": "", "credit_id": "55d7bf57c3a36831f6000502", "gender": 2, "id": 93100, "name": "Toshio Hosokawa", "order": 12, "profile_path": null}, {"cast_id": 18, "character": "", "credit_id": "55d7bf5ec3a36831f400052d", "gender": 0, "id": 552189, "name": "Koji Kiyomura", "order": 13, "profile_path": null}, {"cast_id": 19, "character": "", "credit_id": "55d7bf7b92514143de00053d", "gender": 2, "id": 68411, "name": "S\u00f4 Yamamura", "order": 14, "profile_path": "/rdnPm1VDk0Q0EfTCFRU3N0YniK5.jpg"}, {"cast_id": 22, "character": "", "credit_id": "59477782c3a368171b035a95", "gender": 2, "id": 10071, "name": "Tetsur\u014d Tamba", "order": 15, "profile_path": "/ihugQ2afio03fcKSGXdkcQKTVmt.jpg"}], "crew": [{"credit_id": "57171fd2c3a3687c2c0001f6", "department": "Sound", "gender": 2, "id": 51808, "job": "Original Music Composer", "name": "Toru Takemitsu", "profile_path": "/zarE9jriPIK3UnK52ySb2UeUJ6O.jpg"}, {"credit_id": "52fe4bfcc3a368484e1a152b", "department": "Directing", "gender": 2, "id": 133518, "job": "Director", "name": "Masahiro Shinoda", "profile_path": "/yqKydE88Ej4XlNL6YKkgHvRVbkC.jpg"}, {"credit_id": "52fe4bfcc3a368484e1a1531", "department": "Writing", "gender": 2, "id": 133518, "job": "Writer", "name": "Masahiro Shinoda", "profile_path": "/yqKydE88Ej4XlNL6YKkgHvRVbkC.jpg"}, {"credit_id": "52fe4bfcc3a368484e1a1537", "department": "Writing", "gender": 2, "id": 137495, "job": "Writer", "name": "Sh\u016bji Terayama", "profile_path": "/nw9so7BmgqtI0Ro2JUN3Bdau3IW.jpg"}, {"credit_id": "5bd615eb0e0a2622c8035003", "department": "Camera", "gender": 0, "id": 1088569, "job": "Director of Photography", "name": "Masao Kosugi", "profile_path": null}]}}