{"adult": false, "backdrop_path": "/kXasyV8W8nIr29d3U28QKrLOo5j.jpg", "belongs_to_collection": null, "budget": 0, "genres": [{"id": 18, "name": "Drama"}], "homepage": null, "id": 135799, "imdb_id": "tt2282973", "original_language": "ja", "original_title": "\u305d\u306e\u591c\u306e\u4f8d", "overview": "Five years after a hit-and-run accident kills his wife, a distraught metalworker comes face to face with the man behind the steering wheel.", "popularity": 1.227, "poster_path": "/nQ9JCZZuXffdoDgz3VmISVrFfGs.jpg", "production_companies": [{"id": 12424, "logo_path": null, "name": "TV Man Union", "origin_country": "JP"}], "production_countries": [{"iso_3166_1": "JP", "name": "Japan"}], "release_date": "2012-11-17", "revenue": 0, "runtime": 120, "spoken_languages": [{"iso_639_1": "ja", "name": "\u65e5\u672c\u8a9e"}], "status": "Released", "tagline": "", "title": "The Samurai That Night", "video": false, "vote_average": 7.0, "vote_count": 2, "keywords": {"keywords": [{"id": 9748, "name": "revenge"}]}, "similar": {"page": 1, "results": [{"id": 37835, "video": false, "vote_count": 54, "vote_average": 5.7, "title": "The Exterminator", "release_date": "1980-09-10", "original_language": "en", "original_title": "The Exterminator", "genre_ids": [28, 80, 18, 53], "backdrop_path": "/7WlZBIMGjpWAiTKs6DAfuZtYots.jpg", "adult": false, "overview": "A man's best friend is killed on the streets of New York. The man (Robert Ginty) then transforms into a violent killer, turning New York into a great war zone and Christopher George is the only one to stop him.", "poster_path": "/5fPvIpNmZ71XiLNxZ2072b8wdqg.jpg", "popularity": 6.152}, {"id": 46957, "video": false, "vote_count": 6, "vote_average": 6.5, "title": "Intimate Confessions of a Chinese Courtesan", "release_date": "1972-07-09", "original_language": "zh", "original_title": "\u611b\u5974", "genre_ids": [28, 18], "backdrop_path": "/3y2BtcjEm4yhMystxeOh46u35dH.jpg", "adult": false, "overview": "18 year old Ainu (Lily Ho) is kidnapped and sold to a brothel. Her good looks and wild personality make her very popular with the lustful clients, but also draws the lesbian attentions of brothel madam Betty Tei Pei. Betty teaches Ainu the ways of lust and the ways of kung fu, and Ainu becomes more and more similar to her captor. But rage at her treatment is still burning inside her.", "poster_path": "/x9nmTjbAcxWL3WYGBhn22IhPQ6V.jpg", "popularity": 3.818}, {"adult": false, "backdrop_path": "/kiWvoV78Cc3fUwkOHKzyBgVdrDD.jpg", "genre_ids": [37, 18, 12], "id": 281957, "original_language": "en", "original_title": "The Revenant", "overview": "In the 1820s, a frontiersman, Hugh Glass, sets out on a path of vengeance against those who left him for dead after a bear mauling.", "poster_path": "/oXUWEc5i3wYyFnL1Ycu8ppxxPvs.jpg", "release_date": "2015-12-25", "title": "The Revenant", "video": false, "vote_average": 7.5, "vote_count": 12127, "popularity": 24.135}, {"id": 311, "video": false, "vote_count": 2595, "vote_average": 8.4, "title": "Once Upon a Time in America", "release_date": "1984-05-23", "original_language": "en", "original_title": "Once Upon a Time in America", "genre_ids": [80, 18], "backdrop_path": "/vnT6HzjLSDrAweHn9xWykb8Ii6T.jpg", "adult": false, "overview": "A former Prohibition-era Jewish gangster returns to the Lower East Side of Manhattan over thirty years later, where he once again must confront the ghosts and regrets of his old life.", "poster_path": "/x733R4ISI0RbKeHhVkXdTMFmTFr.jpg", "popularity": 22.233}, {"adult": false, "backdrop_path": "/a24i4Qw6qFTtkFLQsncv8WPwevj.jpg", "genre_ids": [53, 28, 80], "id": 345887, "original_language": "en", "original_title": "The Equalizer 2", "overview": "Robert McCall, who serves an unflinching justice for the exploited and oppressed, embarks on a relentless, globe-trotting quest for vengeance when a long-time girl friend is murdered.", "poster_path": "/cQvc9N6JiMVKqol3wcYrGshsIdZ.jpg", "release_date": "2018-07-19", "title": "The Equalizer 2", "video": false, "vote_average": 6.5, "vote_count": 2483, "popularity": 21.271}, {"adult": false, "backdrop_path": "/rPfyX0pkmn8Ea4gh3DfsmzFUf05.jpg", "genre_ids": [18, 27, 80], "id": 74997, "original_language": "en", "original_title": "The Human Centipede 2 (Full Sequence)", "overview": "Inspired by the fictional Dr. Heiter, disturbed loner Martin dreams of creating a 12-person centipede and sets out to realize his sick fantasy.", "poster_path": "/kFtAdkCO0vXN2RWu2oMcR9GZ9Hi.jpg", "release_date": "2011-10-06", "title": "The Human Centipede 2 (Full Sequence)", "video": false, "vote_average": 4.5, "vote_count": 674, "popularity": 14.216}, {"adult": false, "backdrop_path": "/fy1C5tM9L39i7JF0iw6DIycOO1j.jpg", "genre_ids": [18, 28, 53], "id": 11713, "original_language": "zh", "original_title": "\u7cbe\u6b66\u9580", "overview": "Chen Zhen returns to the international compound of China only to learn of his beloved teacher's death. This is compounded by the continual racist harassment by the Japanese population in the area. Unlike his friends, he confronts it head on with his mastery of martial arts while investigating his teacher's murder.", "poster_path": "/ld1kAfLJTgpZVm3jwT58bTxmXl7.jpg", "release_date": "1972-03-22", "title": "Fist of Fury", "video": false, "vote_average": 7.4, "vote_count": 406, "popularity": 16.304}, {"adult": false, "backdrop_path": "/yuK3xiw7SRgsP5nDF7vqaYEyVE2.jpg", "genre_ids": [28, 80, 18], "id": 25473, "original_language": "en", "original_title": "Walking Tall", "overview": "Buford Pusser's a wrestler, whose wife wants him to settle down, so they go to his home town in Tennessee, where he plans to get into business with his father. But he is shocked to discover all sorts of graft and corruption going on. And when he is a victim of it and decides to strike back by running against the corrupt sheriff. And he wins and wages his own little war against them", "poster_path": "/tHa5TqyibLNOPbxR7cJ3Z1Bi1i0.jpg", "release_date": "1973-02-22", "title": "Walking Tall", "video": false, "vote_average": 6.7, "vote_count": 49, "popularity": 7.323}, {"id": 400, "video": false, "vote_count": 185, "vote_average": 6.6, "title": "Things to Do in Denver When You're Dead", "release_date": "1995-12-01", "original_language": "en", "original_title": "Things to Do in Denver When You're Dead", "genre_ids": [80, 18], "backdrop_path": "/5iCxKe3zEPnrc1Y0R0m0YnFdaBO.jpg", "adult": false, "overview": "A mafia film in Tarantino style with a star-studded cast. Jimmy\u2019s \u201cThe Saint\u201d gangster career has finally ended. Yet now he finds him self doing favors for a wise godfather known as \u201cThe Man with the Plan.\u201d", "poster_path": "/ysKIolKO0376Nl5DV1fDAAPudEq.jpg", "popularity": 8.729}, {"adult": false, "backdrop_path": "/iZOgAvUt6q356da1sfYz1UalNO.jpg", "genre_ids": [80, 18, 10749, 53], "id": 3134, "original_language": "fr", "original_title": "Baise-moi", "overview": "Manu has lived a difficult life. Abused and violently raped, she sets off to find herself only to meet Nadine, a prostitute who has encountered one too many injustices in the world. Angry at the world, they embark on a twisted, rage-filled road trip. They choose to have sex when they please and kill when they need. Leaving a trail of mischief and dead bodies in their wake. Generating a media blitz and manhunt, soon everyone is out to capture the young fugitives.", "poster_path": "/sLvsIgWMH9bV1IZnZOzY5dXKUHe.jpg", "release_date": "2000-06-28", "title": "Baise-moi", "video": false, "vote_average": 4.3, "vote_count": 173, "popularity": 14.535}, {"id": 395834, "video": false, "vote_count": 2755, "vote_average": 7.4, "title": "Wind River", "release_date": "2017-08-03", "original_language": "en", "original_title": "Wind River", "genre_ids": [80, 18, 9648, 53], "backdrop_path": "/6B8e784decj9vtKuNjbl9Fes2aZ.jpg", "adult": false, "overview": "An FBI agent teams with the town's veteran game tracker to investigate a murder that occurred on a Native American reservation.", "poster_path": "/pySivdR845Hom4u4T2WNkJxe6Ad.jpg", "popularity": 16.931}, {"adult": false, "backdrop_path": "/sw7mordbZxgITU877yTpZCud90M.jpg", "genre_ids": [18, 80], "id": 769, "original_language": "en", "original_title": "GoodFellas", "overview": "The true story of Henry Hill, a half-Irish, half-Sicilian Brooklyn kid who is adopted by neighbourhood gangsters at an early age and climbs the ranks of a Mafia family under the guidance of Jimmy Conway.", "poster_path": "/pwpGfTImTGifEGgLb3s6LRPd4I6.jpg", "release_date": "1990-09-12", "title": "GoodFellas", "video": false, "vote_average": 8.4, "vote_count": 6559, "popularity": 36.135}, {"adult": false, "backdrop_path": "/39jfRKSZZlHxfrdZOsR4R80gVoc.jpg", "genre_ids": [18, 28], "id": 8456, "original_language": "en", "original_title": "Never Back Down", "overview": "Rebellious Jake Tyler is lured into an ultimate underground fight Scene at his new high school, after receiving threats to the safety of his friends and family Jake decides to seek the mentoring of a veteran fighter who trains him for one final no-holds-barred elimination fight with his nemesis and local martial arts champion Ryan McCarthy.", "poster_path": "/6vT35MJ67U3llfi6W7MbM5r2dav.jpg", "release_date": "2008-03-04", "title": "Never Back Down", "video": false, "vote_average": 6.6, "vote_count": 1246, "popularity": 14.955}, {"adult": false, "backdrop_path": "/sDSwD63e0qfNE1YvH8aczFoSGTt.jpg", "genre_ids": [80, 18, 53], "id": 11826, "original_language": "en", "original_title": "Sexy Beast", "overview": "The idyllic life of retired safecracker Gal is put at risk when a psychotic gangster from his past arrives at his villa in southern Spain, intent on bringing him out of retirement for one last job.", "poster_path": "/rpo9njGpJVLPqRrdM6R7wIqiQ7K.jpg", "release_date": "2001-01-12", "title": "Sexy Beast", "video": false, "vote_average": 7.0, "vote_count": 391, "popularity": 9.281}, {"adult": false, "backdrop_path": "/fop31RWFi9sVL0xK5hAJGh7Fwkz.jpg", "genre_ids": [18, 80], "id": 261023, "original_language": "en", "original_title": "Black Mass", "overview": "The true story of Whitey Bulger, the brother of a state senator and the most infamous violent criminal in the history of South Boston, who became an FBI informant to take down a Mafia family invading his turf.", "poster_path": "/nSbpuyd2UySuW7kaoXzYUfes1Bl.jpg", "release_date": "2015-09-04", "title": "Black Mass", "video": false, "vote_average": 6.4, "vote_count": 2192, "popularity": 16.347}, {"id": 156022, "video": false, "vote_count": 5468, "vote_average": 7.2, "title": "The Equalizer", "release_date": "2014-09-24", "original_language": "en", "original_title": "The Equalizer", "genre_ids": [28, 80, 53], "backdrop_path": "/vbl4ZVqelrrzJ16fdDOq9siWbpi.jpg", "adult": false, "overview": "McCall believes he has put his mysterious past behind him and dedicated himself to beginning a new, quiet life. But when he meets Teri, a young girl under the control of ultra-violent Russian gangsters, he can\u2019t stand idly by \u2013 he has to help her. Armed with hidden skills that allow him to serve vengeance against anyone who would brutalize the helpless, McCall comes out of his self-imposed retirement and finds his desire for justice reawakened. If someone has a problem, if the odds are stacked against them, if they have nowhere else to turn, McCall will help. He is The Equalizer.", "poster_path": "/2eQfjqlvPAxd9aLDs8DvsKLnfed.jpg", "popularity": 39.578}, {"id": 458594, "video": false, "vote_count": 983, "vote_average": 6.5, "title": "Peppermint", "release_date": "2018-09-06", "original_language": "en", "original_title": "Peppermint", "genre_ids": [28, 53], "backdrop_path": "/9krZX6T4EEs5eFpXgSi8jZkN48O.jpg", "adult": false, "overview": "A grieving mother transforms herself into a vigilante following the murders of her husband and daughter, eluding the authorities to deliver her own personal brand of justice.", "poster_path": "/jrzxS0vcbzIIay1sdYm0rgI2QfJ.jpg", "popularity": 18.265}, {"adult": false, "backdrop_path": "/pA64Ov7lDpwXBu33yq0KpmAOYJL.jpg", "genre_ids": [27, 53], "id": 357096, "original_language": "en", "original_title": "I Spit on Your Grave III: Vengeance is Mine", "overview": "Jennifer Hills is still tormented by the brutal sexual assault she endured years ago. She\u2019s changed identities and cities, reluctantly joining a support group where she begins to piece together a new life. But when her new friend\u2019s murderer goes free and the tales of serial rapists haunt her, Jennifer will hunt down the men responsible and do what the system won\u2019t \u2013 make them pay for their crimes in the most horrific ways imaginable. Only this time, no jury may be able to save her.", "poster_path": "/6SnOlgrUoC5jqmgcYIM5lde5zYq.jpg", "release_date": "2015-10-01", "title": "I Spit on Your Grave III: Vengeance is Mine", "video": false, "vote_average": 5.3, "vote_count": 437, "popularity": 20.815}, {"id": 994, "video": false, "vote_count": 444, "vote_average": 7.2, "title": "Straw Dogs", "release_date": "1971-12-23", "original_language": "en", "original_title": "Straw Dogs", "genre_ids": [80, 18, 53], "backdrop_path": "/yL7uVOyvwZeP2U0zKIE3WQqoilA.jpg", "adult": false, "overview": "David Sumner, a mild-mannered academic from the United States, marries Amy, an Englishwoman. In order to escape a hectic stateside lifestyle, David and his wife relocate to the small town in rural Cornwall where Amy was raised. There, David is ostracized by the brutish men of the village, including Amy's old flame, Charlie. Eventually the taunts escalate, and two of the locals rape Amy. This sexual assault awakes a shockingly violent side of David.", "poster_path": "/yigkfHE1OhkxPPrjrV78Y9ibGEk.jpg", "popularity": 15.307}, {"adult": false, "backdrop_path": "/2AWa7xe0GIYNKY0t8oZUxKu68Rz.jpg", "genre_ids": [12, 18, 28], "id": 246, "original_language": "ja", "original_title": "\u5ea7\u982d\u5e02", "overview": "Zatoichi is a 19th century blind nomad who makes his living as a gambler and masseur. However, behind this humble facade, he is a master swordsman gifted with a lightning-fast draw and breathtaking precision. While wandering, Zatoichi discovers a remote mountain village at the mercy of Ginzo, a ruthless gang-leader. Ginzo disposes of anyone who gets in his way, especially after hiring the mighty samurai ronin, Hattori, as a bodyguard. After a raucous night of gambling in town, Zatoichi encounters a pair of geishas--as dangerous as they are beautiful--who've come to avenge their parents' murder. As the paths of these and other colorful characters intertwine, Ginzo's henchmen are soon after Zatoichi. With his legendary cane sword at his side, the stage is set for a riveting showdown.", "poster_path": "/xNFaRG30R3IiVFMgX8X8kAFGxCP.jpg", "release_date": "2003-09-06", "title": "Zatoichi", "video": false, "vote_average": 7.3, "vote_count": 417, "popularity": 10.708}], "total_pages": 419, "total_results": 8361}, "recommendations": {"page": 1, "results": [], "total_pages": 1, "total_results": 0}, "credits": {"cast": [{"cast_id": 10, "character": "Kenichi Nakamura", "credit_id": "5342352fc3a36814ff002c31", "gender": 2, "id": 76933, "name": "Masato Sakai", "order": 0, "profile_path": "/t566glqU8gy6fhgOC58WzVh3veZ.jpg"}, {"cast_id": 11, "character": "Hiroshi Kijima", "credit_id": "5342353dc3a368150f002d36", "gender": 2, "id": 74377, "name": "Takayuki Yamada", "order": 1, "profile_path": "/piORAl3VEo7U26ql0GiDStrJqWO.jpg"}, {"cast_id": 1, "character": "Mika", "credit_id": "52fe4c05c3a368484e1a2eb7", "gender": 1, "id": 100766, "name": "Sakura Ando", "order": 2, "profile_path": "/lR1YVfjMYKCMOHzvY3pHTFM5zSI.jpg"}, {"cast_id": 2, "character": "Junichi Aoki", "credit_id": "52fe4c05c3a368484e1a2ebb", "gender": 2, "id": 110500, "name": "Hirofumi Arai", "order": 3, "profile_path": "/8nG16y3euYjEB9ZfZP2ixx7DpXy.jpg"}, {"cast_id": 3, "character": "Hideaki Kobayashi", "credit_id": "52fe4c05c3a368484e1a2ebf", "gender": 2, "id": 1084911, "name": "Go Ayano", "order": 4, "profile_path": "/Ap5IuncBMYnABsvkEtsdoM92VTh.jpg"}, {"cast_id": 5, "character": "Hisako Nakamura", "credit_id": "52fe4c05c3a368484e1a2ec7", "gender": 1, "id": 134829, "name": "Maki Sakai", "order": 5, "profile_path": "/d9hu4KHTgbfPMvWVo8cHFsnDXZ2.jpg"}, {"cast_id": 6, "character": "Nobuo Hoshi", "credit_id": "52fe4c05c3a368484e1a2ecb", "gender": 2, "id": 67091, "name": "Tomoro Taguchi", "order": 6, "profile_path": "/z1YgwqQMxRyeMg0QQw8cOrFCljX.jpg"}, {"cast_id": 7, "character": "Yumiko Seki", "credit_id": "52fe4c05c3a368484e1a2ecf", "gender": 1, "id": 118577, "name": "Mitsuki Tanimura", "order": 7, "profile_path": "/8myBVeJJAgkMTSyPdsmA4smZU8B.jpg"}, {"cast_id": 12, "character": "Kohei Kubo", "credit_id": "560e8c7dc3a368680b00c515", "gender": 0, "id": 1268632, "name": "Tsutomu Takahashi", "order": 8, "profile_path": "/lg2GqgRSYMFdILRFIpOV8lQHLg.jpg"}, {"cast_id": 13, "character": "Akiko Kobayashi", "credit_id": "560e8cde92514147d80035bf", "gender": 1, "id": 1251907, "name": "Haruka Kinami", "order": 9, "profile_path": "/1yQkr30Ng7yMzdbAyqod1cN71pl.jpg"}, {"cast_id": 14, "character": "Susumu Sato", "credit_id": "560e8cf3c3a368681700c4d2", "gender": 2, "id": 137028, "name": "Denden", "order": 10, "profile_path": "/zP9zOfZYNIG2rJKhQAphMGgxUtY.jpg"}, {"cast_id": 4, "character": "snack bar owner", "credit_id": "52fe4c05c3a368484e1a2ec3", "gender": 1, "id": 1178881, "name": "Rie Minemura", "order": 11, "profile_path": null}], "crew": [{"credit_id": "52fe4c05c3a368484e1a2edb", "department": "Writing", "gender": 2, "id": 1096814, "job": "Screenplay", "name": "Masaaki Akahori", "profile_path": "/sOMtczUW7vHX4mif8uTvMG2WBOJ.jpg"}, {"credit_id": "52fe4c05c3a368484e1a2ed5", "department": "Directing", "gender": 2, "id": 1096814, "job": "Director", "name": "Masaaki Akahori", "profile_path": "/sOMtczUW7vHX4mif8uTvMG2WBOJ.jpg"}]}}