{"adult": false, "backdrop_path": null, "belongs_to_collection": null, "budget": 0, "genres": [{"id": 53, "name": "Thriller"}], "homepage": null, "id": 135939, "imdb_id": "tt0105346", "original_language": "en", "original_title": "Seduction: Three Tales from the 'Inner Sanctum'", "overview": "Victoria Principal stars in three gripping tales of obsessive love, portraying three different women who find there is a price to pay when passion, desire and love are taken to the extreme. In the three tales, she is seduced into a deadly love triangle, uncovering her husband's deadly obsession, and dealing with an innocent computer correspondence that becomes an obsessive, erotic love affair.", "popularity": 0.6, "poster_path": "/lo5fK5tJHb4qCyJBnM8qQWOYP1C.jpg", "production_companies": [{"id": 63668, "logo_path": null, "name": "Victoria Principal Productions", "origin_country": ""}, {"id": 3976, "logo_path": null, "name": "Carroll Newman Productions", "origin_country": ""}, {"id": 7483, "logo_path": null, "name": "Hearst Entertainment Productions", "origin_country": ""}, {"id": 5472, "logo_path": null, "name": "The Polone Company", "origin_country": ""}], "production_countries": [{"iso_3166_1": "US", "name": "United States of America"}], "release_date": "1992-04-05", "revenue": 0, "runtime": 92, "spoken_languages": [{"iso_639_1": "en", "name": "English"}], "status": "Released", "tagline": "", "title": "Seduction: Three Tales from the 'Inner Sanctum'", "video": false, "vote_average": 0.0, "vote_count": 0, "keywords": {"keywords": [{"id": 9706, "name": "anthology"}]}, "similar": {"page": 1, "results": [{"id": 20701, "video": false, "vote_count": 168, "vote_average": 6.1, "title": "Tales from the Darkside: The Movie", "release_date": "1990-05-03", "original_language": "en", "original_title": "Tales from the Darkside: The Movie", "genre_ids": [35, 14, 27, 53], "backdrop_path": "/op6AFGbt8a6bpesJKtV0XP8Yywn.jpg", "adult": false, "overview": "The first segment features an animated mummy stalking selected student victims; the second tale tells the story of a \"cat from hell\" who cannot be killed and leaves a trail of victims behind it; the third story is about a man who witnesses a bizarre killing and promises never to tell what he saw and the \"in-between\" bit is the story of a woman preparing to cook her newspaper boy for supper.", "poster_path": "/7IDTVLpSYGNYqLE2QnixboLOU32.jpg", "popularity": 9.206}, {"adult": false, "backdrop_path": "/90kmxuSwU28dVy1ghVSHI4x1wb8.jpg", "genre_ids": [35, 18, 37], "id": 537996, "original_language": "en", "original_title": "The Ballad of Buster Scruggs", "overview": "Vignettes weaving together the stories of six individuals in the old West at the end of the Civil War. Following the tales of a sharp-shooting songster, a wannabe bank robber, two weary traveling performers, a lone gold prospector, a woman traveling the West to an uncertain future, and a motley crew of strangers undertaking a carriage ride.", "poster_path": "/voxl654m7p36y8FLu8oQD7dfwwK.jpg", "release_date": "2018-11-09", "title": "The Ballad of Buster Scruggs", "video": false, "vote_average": 7.2, "vote_count": 2074, "popularity": 13.969}, {"adult": false, "backdrop_path": "/cJg0tjpHPaXcKZvon1fJyM0pXG5.jpg", "genre_ids": [14, 53, 27, 878], "id": 354251, "original_language": "en", "original_title": "Southbound", "overview": "The film contains five stories set on desolate stretches of a desert highway. Two men on the run from their past, a band on its way to a gig, a man struggling to get home, a brother in search of his long-lost sister and a family on vacation are forced to confront their worst fears and darkest secrets in these interwoven tales.", "poster_path": "/u4jDG1ANfVoCs7GChgafqkve3v8.jpg", "release_date": "2015-09-17", "title": "Southbound", "video": false, "vote_average": 5.9, "vote_count": 305, "popularity": 9.462}, {"id": 14128, "video": false, "vote_count": 809, "vote_average": 5.9, "title": "Cinderella II: Dreams Come True", "release_date": "2002-02-23", "original_language": "en", "original_title": "Cinderella II: Dreams Come True", "genre_ids": [16, 14, 10749, 10751], "backdrop_path": "/4ErXZZgpXPxDcCLnnLXysK03ss9.jpg", "adult": false, "overview": "As a newly crowned princess, Cinderella quickly learns that life at the Palace - and her royal responsibilities - are more challenging than she had imagined. In three heartwarming tales, Cinderella calls on her animal friends and her Fairy Godmother to help as she brings her own grace and charm to her regal role and discovers that being true to yourself is the best way to make your dreams come true.", "poster_path": "/36nD4aDvoFMewiHBnIcGo3vVcd6.jpg", "popularity": 18.996}, {"id": 87818, "video": false, "vote_count": 1465, "vote_average": 4.5, "title": "Movie 43", "release_date": "2013-01-01", "original_language": "en", "original_title": "Movie 43", "genre_ids": [35], "backdrop_path": "/eGWVsZhgEyNpQ327udKz5iCLHcF.jpg", "adult": false, "overview": "A series of interconnected short films follows a washed-up producer as he pitches insane story lines featuring some of the biggest stars in Hollywood.", "poster_path": "/dv2rQ4mbFYkPTopmiOdv60DtHht.jpg", "popularity": 23.274}, {"id": 601643, "video": false, "vote_count": 14, "vote_average": 4.4, "title": "Ghost Stories", "release_date": "2019-12-31", "original_language": "hi", "original_title": "Ghost Stories", "genre_ids": [27], "backdrop_path": "/3wUbvsWZK5rScJXukgM6jfAVqLT.jpg", "adult": false, "overview": "An anthology of four short horror tales.", "poster_path": "/3eKwuzlUWdpbEE5BoRYTsgBN552.jpg", "popularity": 9.369}, {"id": 23202, "video": false, "vote_count": 773, "vote_average": 6.6, "title": "Trick 'r Treat", "release_date": "2007-12-07", "original_language": "en", "original_title": "Trick 'r Treat", "genre_ids": [35, 27, 53], "backdrop_path": "/oFxeGxRjlwzf0qct3g1HGBujGqH.jpg", "adult": false, "overview": "Four interwoven stories that occur on Halloween: an everyday high school principal has a secret life as a serial killer; a college virgin might have just met the one guy for her; a group of teenagers pull a mean prank; a bitter old recluse receives an uninvited guest.", "poster_path": "/w0nmol4g7n6MFfhfphV7GzHHYjB.jpg", "popularity": 17.558}, {"id": 84348, "video": false, "vote_count": 676, "vote_average": 5.9, "title": "V/H/S", "release_date": "2012-07-28", "original_language": "en", "original_title": "V/H/S", "genre_ids": [27, 53], "backdrop_path": "/xAC9kXLxUHpdCkISgYcLzYrxIQR.jpg", "adult": false, "overview": "When a group of misfits is hired by an unknown third party to burglarize a desolate house and acquire a rare VHS tape, they discover more found footage than they bargained for.", "poster_path": "/yo49x6Jhr1ecCjy1ByFqwAbtARJ.jpg", "popularity": 11.271}, {"adult": false, "backdrop_path": "/eHaGbnX2kukzcYGOpNF3YLPmOG5.jpg", "genre_ids": [27, 35], "id": 16281, "original_language": "en", "original_title": "Creepshow", "overview": "Inspired by the E.C. comics of the 1950s, George A. Romero and Stephen King bring five tales of terror to the screen.", "poster_path": "/hgKeTL416BPzLZntcsD1k7mNFRN.jpg", "release_date": "1982-11-12", "title": "Creepshow", "video": false, "vote_average": 6.8, "vote_count": 458, "popularity": 13.179}, {"id": 5, "video": false, "vote_count": 1410, "vote_average": 6.0, "title": "Four Rooms", "release_date": "1995-12-09", "original_language": "en", "original_title": "Four Rooms", "genre_ids": [35, 80], "backdrop_path": "/3EqYpbGCE9S5GddU2K4cYzP5UmI.jpg", "adult": false, "overview": "It's Ted the Bellhop's first night on the job...and the hotel's very unusual guests are about to place him in some outrageous predicaments. It seems that this evening's room service is serving up one unbelievable happening after another.", "poster_path": "/eQs5hh9rxrk1m4xHsIz1w11Ngqb.jpg", "popularity": 20.339}, {"id": 30959, "video": false, "vote_count": 135, "vote_average": 7.8, "title": "Kwaidan", "release_date": "1964-12-29", "original_language": "ja", "original_title": "\u602a\u8ac7", "genre_ids": [18, 14, 27], "backdrop_path": "/mcZaFw5NXr8i5Mx33xMv80NOSif.jpg", "adult": false, "overview": "Taking its title from an archaic Japanese word meaning \"ghost story,\" this anthology adapts four folk tales. A penniless samurai marries for money with tragic results. A man stranded in a blizzard is saved by Yuki the Snow Maiden, but his rescue comes at a cost. Blind musician Hoichi is forced to perform for an audience of ghosts. An author relates the story of a samurai who sees another warrior's reflection in his teacup.", "poster_path": "/f6C9B1YssqKZjykS6K12ZNsEDRk.jpg", "popularity": 11.22}, {"id": 480100, "video": false, "vote_count": 51, "vote_average": 5.6, "title": "Nightmare Cinema", "release_date": "2019-06-21", "original_language": "en", "original_title": "Nightmare Cinema", "genre_ids": [27], "backdrop_path": "/7BvAnYcgDWeAEyOpmTfzUYuh9uz.jpg", "adult": false, "overview": "A series of down-on-their-luck individuals enter the decrepit and spine-chilling Rialto theater, only to have their deepest and darkest fears brought to life on the silver screen by The Projectionist \u2013 a mysterious, ghostly figure who holds the nightmarish futures of all who attend his screenings.", "poster_path": "/ftdhL4zamDnjSD4TML1ES79DueX.jpg", "popularity": 6.555}, {"adult": false, "backdrop_path": "/7vyzEMfcEpBChEyK7cP6XW6B7hi.jpg", "genre_ids": [18, 27], "id": 429417, "original_language": "en", "original_title": "Ghost Stories", "overview": "Professor Phillip Goodman devotes his life to exposing phony psychics and fraudulent supernatural shenanigans. His skepticism soon gets put to the test when he receives news of three chilling and inexplicable cases -- disturbing visions in an abandoned asylum, a car accident deep in the woods and the spirit of an unborn child. Even scarier -- each of the macabre stories seems to have a sinister connection to the professor's own life.", "poster_path": "/7a0sai9k5jr7YJRP5S3YIDErMVY.jpg", "release_date": "2018-01-20", "title": "Ghost Stories", "video": false, "vote_average": 6.6, "vote_count": 663, "popularity": 10.789}, {"adult": false, "backdrop_path": "/cEOva5ciTQxJCQgcXb6vpAx1BcP.jpg", "genre_ids": [27, 35], "id": 16288, "original_language": "en", "original_title": "Creepshow 2", "overview": "EC Comics-inspired weirdness returns with three tales. In the first, a wooden statue of a Native American comes to life...to exact vengeance on the murderer of his elderly owners. In the second, four teens are stranded on a raft on a lake with a blob that is hungry. And in the third, a hit and run woman is terrorized by the hitchhiker she accidentally killed...or did she really kill him?", "poster_path": "/qxJWtBb89RaSRgLuz1d6ZuFTfVG.jpg", "release_date": "1987-05-01", "title": "Creepshow 2", "video": false, "vote_average": 6.1, "vote_count": 256, "popularity": 17.041}, {"id": 42994, "video": false, "vote_count": 123, "vote_average": 7.4, "title": "Memories", "release_date": "1995-12-23", "original_language": "ja", "original_title": "MEMORIES", "genre_ids": [16, 14, 878], "backdrop_path": "/c0qe4ttxxqy83L11TpH7JiW9edz.jpg", "adult": false, "overview": "In this anime anthology, a salvage ship crew happens upon a haunted vessel in \"Magnetic Rose\"; a cold tablet turns a lab worker into a biological weapon in \"Stink Bomb\"; and an urban populace carries on an endless war with an unseen foe in \"Cannon Fodder.\"", "poster_path": "/mR8vQQOuti0auIcLTQruK2bBVXv.jpg", "popularity": 11.332}, {"id": 10552, "video": false, "vote_count": 246, "vote_average": 6.0, "title": "Cat's Eye", "release_date": "1985-04-12", "original_language": "en", "original_title": "Cat's Eye", "genre_ids": [35, 27, 53], "backdrop_path": "/mVWufY70kchQ0LSsE2uLg93aEXj.jpg", "adult": false, "overview": "Three short stories by shock-meister Stephen King are linked by a stray cat that roams from one tale to the next in this creepy triptych that begins as Dick (James Woods) tries to quit smoking by any means necessary. Next, we meet Johnny, an adulterous man who's forced by his lover's husband onto a building's hazardous ledge. Finally, Amanda is threatened by an evil gnome who throws suspicion on the family cat.", "poster_path": "/A65sQJbEAAV4wC9QQc0Mn4ZaMZV.jpg", "popularity": 10.862}, {"id": 87436, "video": false, "vote_count": 285, "vote_average": 4.9, "title": "The ABCs of Death", "release_date": "2013-06-28", "original_language": "en", "original_title": "The ABCs of Death", "genre_ids": [27], "backdrop_path": "/ni9zaNf9pjpodVFkZio26wfM5wN.jpg", "adult": false, "overview": "An ambitious anthology film featuring segments directed by over two dozen of the world's leading talents in contemporary genre film. Inspired by children's educational ABC books, the film comprises 26 individual chapters, each helmed by a different director assigned a letter of the alphabet. The directors were then given free reign in choosing a word to create a story involving death.", "poster_path": "/9rAaRHk7GkYCxjOlBnJLC0kXrSy.jpg", "popularity": 10.315}, {"adult": false, "backdrop_path": "/1WxlDXWHnVaVLiveVotUPdbAwjJ.jpg", "genre_ids": [18, 14, 27, 878, 53], "id": 15301, "original_language": "en", "original_title": "Twilight Zone: The Movie", "overview": "Four directors collaborated to remake four episodes of the popular television series 'The Twilight Zone' for this movie. The episodes are updated slightly and in color (the television show was in black-and-white), but very true to the originals, where eerie and disturbing situations gradually spin out of control. \"A Quality of Mercy\", \"Kick the Can\", \"It's a Good Life\", and \"Nightmare at 20,000 Feet\".", "poster_path": "/hLcKs6evdDddVrvbYUCZ9vtKWfT.jpg", "release_date": "1983-06-24", "title": "Twilight Zone: The Movie", "video": false, "vote_average": 6.5, "vote_count": 367, "popularity": 9.567}, {"id": 647511, "video": false, "vote_count": 0, "vote_average": 0.0, "title": "Fiction crew", "release_date": "2019-11-28", "original_language": "es", "original_title": "Fiction crew", "genre_ids": [], "backdrop_path": null, "adult": false, "overview": "The universe is a strange place, even stranger than we can imagine. Nightmares converge and intertwine in the dark universe of Fiction Crew, an anthology composed by twelve stories part of the same reality.", "poster_path": "/dDeXgFiaXL7No17HAw2VmA76ZS4.jpg", "popularity": 0.677}, {"id": 11624, "video": false, "vote_count": 488, "vote_average": 6.6, "title": "Everything You Always Wanted to Know About Sex *But Were Afraid to Ask", "release_date": "1972-08-06", "original_language": "en", "original_title": "Everything You Always Wanted to Know About Sex *But Were Afraid to Ask", "genre_ids": [35], "backdrop_path": "/nTUWHWyinf2UriybIS5fM3iX7ZL.jpg", "adult": false, "overview": "A collection of seven vignettes, which each address a question concerning human sexuality. From aphrodisiacs to sexual perversion to the mystery of the male orgasm, characters like a court jester, a doctor, a queen and a journalist adventure through lab experiments and game shows, all seeking answers to common questions that many would never ask.", "poster_path": "/1pvanNsn5S2Vb6gnWuzrEDHOtjl.jpg", "popularity": 11.575}], "total_pages": 27, "total_results": 521}, "recommendations": {"page": 1, "results": [], "total_pages": 1, "total_results": 0}, "credits": {"cast": [{"cast_id": 8, "character": "Patty / Sylvia", "credit_id": "52fe4c0ac3a368484e1a3e63", "gender": 1, "id": 44719, "name": "Victoria Principal", "order": 0, "profile_path": "/disSFZZwKZierJZrOeIWT3O9w0l.jpg"}, {"cast_id": 9, "character": "Kenneth / Nathan / Tom", "credit_id": "52fe4c0ac3a368484e1a3e67", "gender": 2, "id": 8659, "name": "John Terry", "order": 1, "profile_path": "/wESDSPXZXmXLp9vEfdtNKguwV3o.jpg"}, {"cast_id": 10, "character": "Ada Raymond", "credit_id": "52fe4c0ac3a368484e1a3e6b", "gender": 1, "id": 157630, "name": "Susan Diol", "order": 2, "profile_path": "/g0Hvr2eoulxrDjbDbVklxFqHOJV.jpg"}, {"cast_id": 11, "character": "Joan's Receptionist", "credit_id": "52fe4c0ac3a368484e1a3e6f", "gender": 1, "id": 1104830, "name": "Marcia Firesten", "order": 3, "profile_path": "/zlrpKNO1pnhOpoOs58EzohVsBsy.jpg"}, {"cast_id": 13, "character": "Kenneth's Receptionist", "credit_id": "52fe4c0ac3a368484e1a3e77", "gender": 0, "id": 119892, "name": "Lorie Griffin", "order": 5, "profile_path": "/h3gWIzeLflbjWGyHytk22cG5Y5e.jpg"}, {"cast_id": 14, "character": "Charles Hackley", "credit_id": "52fe4c0ac3a368484e1a3e7b", "gender": 2, "id": 13732, "name": "Richard Herd", "order": 6, "profile_path": "/1wsn9V7kkrvD2Qr3bD1vSH2OjpK.jpg"}, {"cast_id": 15, "character": "Dick", "credit_id": "52fe4c0ac3a368484e1a3e7f", "gender": 2, "id": 152707, "name": "James Carroll Jordan", "order": 7, "profile_path": "/snfrJlQkBKO1y85PHJUMHeRslSj.jpg"}, {"cast_id": 16, "character": "Frank", "credit_id": "52fe4c0ac3a368484e1a3e83", "gender": 2, "id": 43773, "name": "Andreas Katsulas", "order": 8, "profile_path": "/z1bbvx6O7VWGrtxCFugo5aCyqMS.jpg"}, {"cast_id": 17, "character": "Hoffliner", "credit_id": "52fe4c0ac3a368484e1a3e87", "gender": 2, "id": 1054852, "name": "Joe Lambie", "order": 9, "profile_path": null}, {"cast_id": 27, "character": "John Raymond", "credit_id": "58ce978bc3a3685104021bae", "gender": 0, "id": 1779786, "name": "Michael French", "order": 10, "profile_path": null}], "crew": [{"credit_id": "52fe4c0ac3a368484e1a3e3b", "department": "Directing", "gender": 2, "id": 109635, "job": "Director", "name": "Michael Ray Rhodes", "profile_path": null}, {"credit_id": "52fe4c0ac3a368484e1a3e47", "department": "Writing", "gender": 2, "id": 38162, "job": "Writer", "name": "Barry Brown", "profile_path": "/o1p61YrIsuyBHvdoMykIb2nlAN9.jpg"}, {"credit_id": "52fe4c0ac3a368484e1a3e53", "department": "Writing", "gender": 2, "id": 38162, "job": "Teleplay", "name": "Barry Brown", "profile_path": "/o1p61YrIsuyBHvdoMykIb2nlAN9.jpg"}, {"credit_id": "52fe4c0ac3a368484e1a3e59", "department": "Writing", "gender": 0, "id": 1104828, "job": "Teleplay", "name": "Robert Glass", "profile_path": null}, {"credit_id": "52fe4c0ac3a368484e1a3e8d", "department": "Production", "gender": 0, "id": 112499, "job": "Producer", "name": "Carroll Newman", "profile_path": null}, {"credit_id": "52fe4c0ac3a368484e1a3e93", "department": "Writing", "gender": 0, "id": 1104952, "job": "Original Story", "name": "James Di Pasquale", "profile_path": null}, {"credit_id": "52fe4c0ac3a368484e1a3ea5", "department": "Art", "gender": 0, "id": 1104955, "job": "Set Decoration", "name": "Caroline Stover", "profile_path": null}, {"credit_id": "551bef9dc3a3687675003107", "department": "Costume & Make-Up", "gender": 1, "id": 14311, "job": "Costume Design", "name": "Mary Malin", "profile_path": null}, {"credit_id": "5666e56ec3a36808f0001049", "department": "Art", "gender": 2, "id": 112521, "job": "Art Direction", "name": "Chris Cornwell", "profile_path": null}, {"credit_id": "5759fe58c3a3682063000091", "department": "Writing", "gender": 2, "id": 1214563, "job": "Writer", "name": "Henry Slesar", "profile_path": null}, {"credit_id": "5633f8d59251414ab7013fe6", "department": "Art", "gender": 2, "id": 112520, "job": "Production Design", "name": "Garreth Stover", "profile_path": null}]}}