{"adult": false, "backdrop_path": "/4QEhLTPPo3EOXj7U7VUgJJ9G8z2.jpg", "belongs_to_collection": null, "budget": 8000000, "genres": [{"id": 12, "name": "Adventure"}, {"id": 18, "name": "Drama"}], "homepage": null, "id": 13678, "imdb_id": "tt0395514", "original_language": "fr", "original_title": "Le dernier trappeur", "overview": "Norman is not just an admirer of nature, he's a part of it. He survives the harshness of the climate and the wildlife by coexisting with it. With his wife Nebraska, they live almost entirely off the land, making money by selling their furs.", "popularity": 5.972, "poster_path": "/yUwsSygkCczTjHe4xU2i87TLcbq.jpg", "production_companies": [{"id": 68106, "logo_path": null, "name": "Fondation Gaz de France", "origin_country": ""}, {"id": 2668, "logo_path": null, "name": "MC4 Productions", "origin_country": ""}, {"id": 11912, "logo_path": null, "name": "Mikado Film", "origin_country": ""}, {"id": 7715, "logo_path": null, "name": "Pandora", "origin_country": ""}, {"id": 68108, "logo_path": null, "name": "Sog\u00e9cin\u00e9ma", "origin_country": ""}, {"id": 844, "logo_path": null, "name": "Sofica Valor 6", "origin_country": ""}, {"id": 10473, "logo_path": "/lMUDQZVtg8On4PAW5XFQPaQy6UK.png", "name": "National Film Board of Canada", "origin_country": "CA"}, {"id": 104, "logo_path": "/9aotxauvc9685tq9pTcRJszuT06.png", "name": "Canal+", "origin_country": "FR"}, {"id": 356, "logo_path": "/9tW5wZEGotn1Ei5pErA88m47XiD.png", "name": "TF1 Films Production", "origin_country": "FR"}], "production_countries": [{"iso_3166_1": "CA", "name": "Canada"}, {"iso_3166_1": "FR", "name": "France"}, {"iso_3166_1": "DE", "name": "Germany"}, {"iso_3166_1": "CH", "name": "Switzerland"}], "release_date": "2004-12-12", "revenue": 0, "runtime": 94, "spoken_languages": [{"iso_639_1": "en", "name": "English"}, {"iso_639_1": "fr", "name": "Fran\u00e7ais"}], "status": "Released", "tagline": "In the 21st century, we can still choose to live differently.", "title": "The Last Trapper", "video": false, "vote_average": 7.0, "vote_count": 49, "keywords": {"keywords": [{"id": 4855, "name": "harmony"}, {"id": 6536, "name": "trapper"}, {"id": 10349, "name": "survival"}, {"id": 18330, "name": "nature"}]}, "similar": {"page": 1, "results": [{"adult": false, "backdrop_path": "/kiWvoV78Cc3fUwkOHKzyBgVdrDD.jpg", "genre_ids": [37, 18, 12], "id": 281957, "original_language": "en", "original_title": "The Revenant", "overview": "In the 1820s, a frontiersman, Hugh Glass, sets out on a path of vengeance against those who left him for dead after a bear mauling.", "poster_path": "/oXUWEc5i3wYyFnL1Ycu8ppxxPvs.jpg", "release_date": "2015-12-25", "title": "The Revenant", "video": false, "vote_average": 7.5, "vote_count": 12122, "popularity": 30.491}, {"id": 399360, "video": false, "vote_count": 1362, "vote_average": 6.0, "title": "Alpha", "release_date": "2018-08-17", "original_language": "en", "original_title": "Alpha", "genre_ids": [12, 18], "backdrop_path": "/nKMeTdm72LQ756Eq20uTjF1zDXu.jpg", "adult": false, "overview": "In the prehistoric past, Keda, a young and inexperienced hunter, struggles to return home after being separated from his tribe when bison hunting goes awry. On his way back he will find an unexpected ally.", "poster_path": "/afdZAIcAQscziqVtsEoh2PwsYTW.jpg", "popularity": 17.774}, {"adult": false, "backdrop_path": "/frbW3kQXhVZPhceuQa1EqwZPXQr.jpg", "genre_ids": [12, 18], "id": 8358, "original_language": "en", "original_title": "Cast Away", "overview": "Chuck, a top international manager for FedEx, and Kelly, a Ph.D. student, are in love and heading towards marriage. Then Chuck's plane to Malaysia ditches at sea during a terrible storm. He's the only survivor, and he washes up on a tiny island with nothing but some flotsam and jetsam from the aircraft's cargo.", "poster_path": "/w515BrZvczKIxbHurG6HIiYYrba.jpg", "release_date": "2000-12-22", "title": "Cast Away", "video": false, "vote_average": 7.6, "vote_count": 6740, "popularity": 25.461}, {"adult": false, "backdrop_path": "/miAmMVzrERoymTIgXG7EY7Zj8gR.jpg", "genre_ids": [12, 27, 53], "id": 14211, "original_language": "en", "original_title": "Prey", "overview": "An American family on holiday in Africa becomes lost in a game reserve and stalked by lions.", "poster_path": "/aNtrxw6agGicS9a68ERy8HPVxwG.jpg", "release_date": "2007-01-30", "title": "Prey", "video": false, "vote_average": 5.1, "vote_count": 157, "popularity": 15.077}, {"id": 214314, "video": false, "vote_count": 94, "vote_average": 7.3, "title": "Bears", "release_date": "2014-04-17", "original_language": "en", "original_title": "Bears", "genre_ids": [99], "backdrop_path": "/wA8Dct9suP3tZWH1nv7ikQThvD2.jpg", "adult": false, "overview": "Filmmakers Alastair Fothergill and Keith Scholey chronicle a year in the lives of an Alaskan brown bear named Sky and her cubs, Scout and Amber. Their saga begins as the bears emerge from hibernation at the end of winter. As time passes, the bear family must work together to find food and stay safe from other predators, especially other bears. Although their world is exciting, it is also risky, and the cubs' survival hinges on family togetherness.", "poster_path": "/uhxE8FLguSshnlv41lKRvZYZ4av.jpg", "popularity": 11.504}, {"id": 286217, "video": false, "vote_count": 13226, "vote_average": 7.7, "title": "The Martian", "release_date": "2015-09-30", "original_language": "en", "original_title": "The Martian", "genre_ids": [12, 18, 878], "backdrop_path": "/sy3e2e4JwdAtd2oZGA2uUilZe8j.jpg", "adult": false, "overview": "During a manned mission to Mars, Astronaut Mark Watney is presumed dead after a fierce storm and left behind by his crew. But Watney has survived and finds himself stranded and alone on the hostile planet. With only meager supplies, he must draw upon his ingenuity, wit and spirit to subsist and find a way to signal to Earth that he is alive.", "poster_path": "/5aGhaIHYuQbqlHWvWYqMCnj40y2.jpg", "popularity": 48.081}, {"id": 5915, "video": false, "vote_count": 6281, "vote_average": 7.8, "title": "Into the Wild", "release_date": "2007-09-11", "original_language": "en", "original_title": "Into the Wild", "genre_ids": [12, 18], "backdrop_path": "/9yJehIjvR7ULOLxeDJoth4kDDNe.jpg", "adult": false, "overview": "After graduating from Emory University in 1992, top student and athlete Christopher McCandless abandons his possessions, gives his entire $24,000 savings account to charity, and hitchhikes to Alaska to live in the wilderness.", "poster_path": "/lHyYgaocXR6KcJLxVmxZDj115hH.jpg", "popularity": 16.336}, {"id": 205775, "video": false, "vote_count": 2361, "vote_average": 6.6, "title": "In the Heart of the Sea", "release_date": "2015-11-20", "original_language": "en", "original_title": "In the Heart of the Sea", "genre_ids": [28, 12, 18, 36, 53], "backdrop_path": "/aZoZ0NglXgiBMToem9HhTAYYamw.jpg", "adult": false, "overview": "In the winter of 1820, the New England whaling ship Essex is assaulted by something no one could believe\u2014a whale of mammoth size and will, and an almost human sense of vengeance.", "poster_path": "/zVmWh0Zfg4UhbvdGI8LQrn1lQZJ.jpg", "popularity": 19.825}, {"id": 2268, "video": false, "vote_count": 2949, "vote_average": 6.0, "title": "The Golden Compass", "release_date": "2007-12-04", "original_language": "en", "original_title": "The Golden Compass", "genre_ids": [12, 14], "backdrop_path": "/qUDa6F6qDp6zcQcw3yuR6Ysc77d.jpg", "adult": false, "overview": "After overhearing a shocking secret, precocious orphan Lyra Belacqua trades her carefree existence roaming the halls of Jordan College for an otherworldly adventure in the far North, unaware that it's part of her destiny.", "poster_path": "/97dPFOvgUb5Q8LjRNt8u6lbJSfp.jpg", "popularity": 16.624}, {"id": 106, "video": false, "vote_count": 4127, "vote_average": 7.4, "title": "Predator", "release_date": "1987-06-12", "original_language": "en", "original_title": "Predator", "genre_ids": [28, 12, 878, 53], "backdrop_path": "/vvsQe0ksUH001rxFGrnZkL9eBzr.jpg", "adult": false, "overview": "Dutch and his group of commandos are hired by the CIA to rescue downed airmen from guerillas in a Central American jungle. The mission goes well but as they return they find that something is hunting them. Nearly invisible, it blends in with the forest, taking trophies from the bodies of its victims as it goes along. Occasionally seeing through its eyes, the audience sees it is an intelligent alien hunter, hunting them for sport, killing them off one at a time.", "poster_path": "/gUpto7r2XwoM5eW7MUvd8hl1etB.jpg", "popularity": 28.429}, {"id": 10948, "video": false, "vote_count": 1938, "vote_average": 7.1, "title": "The Fox and the Hound", "release_date": "1981-07-10", "original_language": "en", "original_title": "The Fox and the Hound", "genre_ids": [12, 16, 18, 10751], "backdrop_path": "/87uShMszqPxwA034GsskGdzJOgN.jpg", "adult": false, "overview": "When a feisty little fox named Tod is adopted into a farm family, he quickly becomes friends with a fun and adorable hound puppy named Copper. Life is full of hilarious adventures until Copper is expected to take on his role as a hunting dog -- and the object of his search is his best friend!", "poster_path": "/1382VHxqZDXu2t8i46zf4fP71JG.jpg", "popularity": 17.795}, {"id": 9693, "video": false, "vote_count": 4054, "vote_average": 7.6, "title": "Children of Men", "release_date": "2006-09-22", "original_language": "en", "original_title": "Children of Men", "genre_ids": [28, 18, 878, 53], "backdrop_path": "/c5jNuPA19oGiEmbh8iFeAi6aHMI.jpg", "adult": false, "overview": "In 2027, in a chaotic world in which humans can no longer procreate, a former activist agrees to help transport a miraculously pregnant woman to a sanctuary at sea, where her child's birth may help scientists save the future of humankind.", "poster_path": "/gZ6i32Da76EUxta06GL2BxpC4Cn.jpg", "popularity": 25.649}, {"id": 269149, "video": false, "vote_count": 10906, "vote_average": 7.7, "title": "Zootopia", "release_date": "2016-02-11", "original_language": "en", "original_title": "Zootopia", "genre_ids": [12, 16, 35, 10751], "backdrop_path": "/mhdeE1yShHTaDbJVdWyTlzFvNkr.jpg", "adult": false, "overview": "Determined to prove herself, Officer Judy Hopps, the first bunny on Zootopia's police force, jumps at the chance to crack her first case - even if it means partnering with scam-artist fox Nick Wilde to solve the mystery.", "poster_path": "/sM33SANp9z6rXW8Itn7NnG1GOEs.jpg", "popularity": 63.21}, {"adult": false, "backdrop_path": "/qIO14kdtP547xUGXQyiE5HfjOWS.jpg", "genre_ids": [18, 12, 10749, 10770], "id": 115290, "original_language": "en", "original_title": "Blue Lagoon: The Awakening", "overview": "Two high school students become stranded on a tropical island and must rely on each other for survival. They learn more about themselves and each other while falling in love.", "poster_path": "/ptsBY9Aqo4Mn0V1krI5s8WfFxzW.jpg", "release_date": "2012-06-16", "title": "Blue Lagoon: The Awakening", "video": false, "vote_average": 6.4, "vote_count": 855, "popularity": 19.439}, {"id": 76341, "video": false, "vote_count": 15488, "vote_average": 7.5, "title": "Mad Max: Fury Road", "release_date": "2015-05-13", "original_language": "en", "original_title": "Mad Max: Fury Road", "genre_ids": [28, 12, 878], "backdrop_path": "/tbhdm8UJAb4ViCTsulYFL3lxMCd.jpg", "adult": false, "overview": "An apocalyptic story set in the furthest reaches of our planet, in a stark desert landscape where humanity is broken, and most everyone is crazed fighting for the necessities of life. Within this world exist two rebels on the run who just might be able to restore order.", "poster_path": "/kqjL17yufvn9OVLyXYpvtyrFfak.jpg", "popularity": 35.824}, {"id": 527261, "video": false, "vote_count": 495, "vote_average": 5.7, "title": "The Silence", "release_date": "2019-05-16", "original_language": "en", "original_title": "The Silence", "genre_ids": [18, 14, 53], "backdrop_path": "/iHJQIKSLHN2mUUWySpj2MO5HVtS.jpg", "adult": false, "overview": "With the world under attack by deadly creatures who hunt by sound, a teen and her family seek refuge outside the city and encounter a mysterious cult.", "poster_path": "/lTVOquzxw2DPF3MKuYd1ynz9F6H.jpg", "popularity": 12.093}, {"id": 400157, "video": false, "vote_count": 247, "vote_average": 6.3, "title": "Wonder Park", "release_date": "2019-03-14", "original_language": "en", "original_title": "Wonder Park", "genre_ids": [12, 16, 35, 14, 10751], "backdrop_path": "/nJyAdKPnW15IAvC6sLBTE0lp6Dv.jpg", "adult": false, "overview": "A young girl named June with a big imagination makes an incredible discovery -- the amusement park of her dreams has come to life. Filled with the world's wildest rides operated by fun-loving animals, the excitement never ends. But when trouble hits, June and her misfit team of furry friends begin an unforgettable journey to save the park.", "poster_path": "/8KomINZhIuJeB4oB7k7tkq8tmE.jpg", "popularity": 18.321}, {"id": 7453, "video": false, "vote_count": 2554, "vote_average": 6.7, "title": "The Hitchhiker's Guide to the Galaxy", "release_date": "2005-04-28", "original_language": "en", "original_title": "The Hitchhiker's Guide to the Galaxy", "genre_ids": [12, 35, 878, 10751], "backdrop_path": "/kMf3ewax3ZeiSESaPQxBAReQzDD.jpg", "adult": false, "overview": "Mere seconds before the Earth is to be demolished by an alien construction crew, Arthur Dent is swept off the planet by his friend Ford Prefect, a researcher penning a new edition of \"The Hitchhiker's Guide to the Galaxy.\"", "poster_path": "/fOb4cJMhnZ11BoHNUii3Vcfo3XU.jpg", "popularity": 17.108}, {"id": 278927, "video": false, "vote_count": 5704, "vote_average": 6.8, "title": "The Jungle Book", "release_date": "2016-04-07", "original_language": "en", "original_title": "The Jungle Book", "genre_ids": [12, 18, 14, 10751], "backdrop_path": "/eIOTsGg9FCVrBc4r2nXaV61JF4F.jpg", "adult": false, "overview": "A man-cub named Mowgli fostered by wolves. After a threat from the tiger Shere Khan, Mowgli is forced to flee the jungle, by which he embarks on a journey of self discovery with the help of the panther, Bagheera and the free-spirited bear, Baloo.", "poster_path": "/vOipe2myi26UDwP978hsYOrnUWC.jpg", "popularity": 40.457}, {"adult": false, "backdrop_path": "/sRJjliXA7ZqHCr7HCK0ZB83xxjr.jpg", "genre_ids": [12, 28, 878], "id": 101299, "original_language": "en", "original_title": "The Hunger Games: Catching Fire", "overview": "Katniss Everdeen has returned home safe after winning the 74th Annual Hunger Games along with fellow tribute Peeta Mellark. Winning means that they must turn around and leave their family and close friends, embarking on a \"Victor's Tour\" of the districts. Along the way Katniss senses that a rebellion is simmering, but the Capitol is still very much in control as President Snow prepares the 75th Annual Hunger Games (The Quarter Quell) - a competition that could change Panem forever.", "poster_path": "/Hn0KgefVEp0GkdTexS6gfKTMfi.jpg", "release_date": "2013-11-15", "title": "The Hunger Games: Catching Fire", "video": false, "vote_average": 7.4, "vote_count": 12024, "popularity": 30.047}], "total_pages": 69, "total_results": 1364}, "recommendations": {"page": 1, "results": [{"adult": false, "backdrop_path": "/7v7gr1gv2iCXKGhkskF0xuZXP7o.jpg", "genre_ids": [18, 53], "id": 17086, "original_language": "en", "original_title": "Chromophobia", "overview": "Encouraged by his editor to seek 'sexy stories that sell', a reporter preys upon the private life of an erstwhile friend, with disastrous results.", "poster_path": "/mHpK2HfiTFD1s6Voq1HDMB6ggGd.jpg", "release_date": "2005-01-01", "title": "Chromophobia", "video": false, "vote_average": 5.8, "vote_count": 21, "popularity": 5.764}, {"id": 43102, "video": false, "vote_count": 17, "vote_average": 6.4, "title": "Dangerous Liaisons", "release_date": "1959-09-09", "original_language": "fr", "original_title": "Les Liaisons dangereuses", "genre_ids": [18, 10749], "backdrop_path": "/tyjoZY5dQqaUoRYidrKUceBs7W4.jpg", "adult": false, "overview": "Juliette Merteuil and Valmont is a sophisticated couple, always looking for fun and excitement. Both have sexual affairs with others and share their experiences with one another. But there is one rule: never fall in love. But this time Valmont falls madly in love with a girl he meets at a ski resort, Marianne.", "poster_path": "/taQos9Cdk0BwF81L5cB2c60uPxi.jpg", "popularity": 3.548}], "total_pages": 1, "total_results": 2}, "credits": {"cast": [{"cast_id": 2, "character": "Norman Winther", "credit_id": "52fe458a9251416c7505a169", "gender": 2, "id": 238098, "name": "Norman Winther", "order": 0, "profile_path": null}, {"cast_id": 3, "character": "Nebaska", "credit_id": "52fe458a9251416c7505a16d", "gender": 0, "id": 238099, "name": "May Loo", "order": 1, "profile_path": null}, {"cast_id": 4, "character": "Alex Van Bibber", "credit_id": "52fe458a9251416c7505a171", "gender": 2, "id": 238100, "name": "Alex Van Bibber", "order": 2, "profile_path": null}, {"cast_id": 11, "character": "", "credit_id": "5310a76dc3a36829b800141f", "gender": 0, "id": 1297473, "name": "Ken Bolton", "order": 3, "profile_path": null}, {"cast_id": 13, "character": "", "credit_id": "5310a79ac3a3682a10001455", "gender": 0, "id": 1297474, "name": "Kaori Toregai", "order": 5, "profile_path": null}, {"cast_id": 15, "character": "", "credit_id": "59658a49c3a3680d590f4b88", "gender": 0, "id": 1849645, "name": "Christopher Lewis", "order": 6, "profile_path": null}], "crew": [{"credit_id": "52fe458a9251416c7505a165", "department": "Directing", "gender": 0, "id": 139818, "job": "Director", "name": "Nicolas Vanier", "profile_path": "/k0dueWkbj1riYNdh0xAHzM3Xuy7.jpg"}, {"credit_id": "5310a602c3a3682a220012f3", "department": "Production", "gender": 0, "id": 1297468, "job": "Production Supervisor", "name": "Jean-Pierre Bailly", "profile_path": null}, {"credit_id": "5310a62dc3a36829d300142c", "department": "Camera", "gender": 0, "id": 57232, "job": "Director of Photography", "name": "Thierry Machado", "profile_path": null}, {"credit_id": "5310a667c3a3682a220012fe", "department": "Production", "gender": 0, "id": 1297469, "job": "Production Manager", "name": "Bertrand Jenny", "profile_path": null}, {"credit_id": "5310a695c3a36829b800140b", "department": "Directing", "gender": 0, "id": 1297470, "job": "Assistant Director", "name": "Philippe Baisadouli", "profile_path": null}, {"credit_id": "5310a6c9c3a36829d300143b", "department": "Sound", "gender": 0, "id": 1297471, "job": "Sound Engineer", "name": "Emmanuel Hachette", "profile_path": null}, {"credit_id": "5310a6edc3a368299b00149e", "department": "Editing", "gender": 0, "id": 1297472, "job": "Editor", "name": "Yves Chaput", "profile_path": null}, {"credit_id": "5310a8e1925141101f001087", "department": "Writing", "gender": 0, "id": 139818, "job": "Writer", "name": "Nicolas Vanier", "profile_path": "/k0dueWkbj1riYNdh0xAHzM3Xuy7.jpg"}]}}