{"adult": false, "backdrop_path": "/abnVczSNBNjxcqxqrtHuYVcKo1z.jpg", "belongs_to_collection": null, "budget": 0, "genres": [{"id": 10749, "name": "Romance"}, {"id": 35, "name": "Comedy"}, {"id": 18, "name": "Drama"}, {"id": 14, "name": "Fantasy"}], "homepage": null, "id": 137096, "imdb_id": "tt0026926", "original_language": "en", "original_title": "The Return Of Peter Grimm", "overview": "After Peter Grimm (Lionel Barrymore) dies, his spirit returns to help clean up the messy lives of those he left behind. Director George Nicholls Jr.'s 1935 drama also stars Helen Mack, Edward Ellis, Allen Vincent, James Bush, George Breakston, Donald Meek, Ethel Griffies and Lucien Littlefield.", "popularity": 1.263, "poster_path": "/3zCzDFsXgN2DAWZXBfLJIoLOWHB.jpg", "production_companies": [{"id": 6, "logo_path": "/n53F7K9scQWFXYbrCablqLKqJdp.png", "name": "RKO Radio Pictures", "origin_country": "US"}], "production_countries": [{"iso_3166_1": "US", "name": "United States of America"}], "release_date": "1935-09-13", "revenue": 0, "runtime": 82, "spoken_languages": [{"iso_639_1": "en", "name": "English"}], "status": "Released", "tagline": "", "title": "The Return Of Peter Grimm", "video": false, "vote_average": 6.0, "vote_count": 2, "keywords": {"keywords": [{"id": 6044, "name": "promise"}, {"id": 13153, "name": "spirit"}]}, "similar": {"page": 1, "results": [{"id": 30959, "video": false, "vote_count": 135, "vote_average": 7.8, "title": "Kwaidan", "release_date": "1964-12-29", "original_language": "ja", "original_title": "\u602a\u8ac7", "genre_ids": [18, 14, 27], "backdrop_path": "/mcZaFw5NXr8i5Mx33xMv80NOSif.jpg", "adult": false, "overview": "Taking its title from an archaic Japanese word meaning \"ghost story,\" this anthology adapts four folk tales. A penniless samurai marries for money with tragic results. A man stranded in a blizzard is saved by Yuki the Snow Maiden, but his rescue comes at a cost. Blind musician Hoichi is forced to perform for an audience of ghosts. An author relates the story of a samurai who sees another warrior's reflection in his teacup.", "poster_path": "/f6C9B1YssqKZjykS6K12ZNsEDRk.jpg", "popularity": 11.22}, {"id": 22620, "video": false, "vote_count": 278, "vote_average": 5.7, "title": "Scooby-Doo! The Mystery Begins", "release_date": "2009-09-12", "original_language": "en", "original_title": "Scooby-Doo! The Mystery Begins", "genre_ids": [16, 35, 14, 9648], "backdrop_path": "/3jE3gnKy7VWlGayG6lRpLjVp3KT.jpg", "adult": false, "overview": "The story of how Mystery Inc. was formed.", "poster_path": "/fUbx2NFwRTmRMtwcTbzEd804WQj.jpg", "popularity": 16.03}, {"id": 765, "video": false, "vote_count": 1523, "vote_average": 7.6, "title": "Evil Dead II", "release_date": "1987-03-13", "original_language": "en", "original_title": "Evil Dead II", "genre_ids": [35, 14, 27], "backdrop_path": "/9meXjIwJZk9aMMoMZk3AMzt8o44.jpg", "adult": false, "overview": "Ash Williams and his girlfriend Linda find a log cabin in the woods with a voice recording from an archeologist who had recorded himself reciting ancient chants from \"The Book of the Dead.\" As they play the recording an evil power is unleashed taking over Linda's body.", "poster_path": "/n49mpgUsPgBfRg2qIEj31HX0chu.jpg", "popularity": 23.528}, {"id": 11243, "video": false, "vote_count": 72, "vote_average": 5.6, "title": "The Care Bears Movie", "release_date": "1985-03-23", "original_language": "en", "original_title": "The Care Bears Movie", "genre_ids": [12, 16, 35, 14, 10751], "backdrop_path": "/9gKPWagMf8MjL3ibHrWui8hmBi6.jpg", "adult": false, "overview": "The Care Bears have their work cut out for them, because Nicolas, a lonely magician's assistant, is about to fall under the evil influence of a bad spirit who lives in an ancient magic book -- it seems Nicolas will do just about anything for friends. Aside from Nicolas, Kim and Jason are in trouble because they are starting not to trust people after suffering many disappointments.", "poster_path": "/liCDoYVBY4QO2LDWFN3HewnqKnO.jpg", "popularity": 9.125}, {"id": 406563, "video": false, "vote_count": 1518, "vote_average": 6.1, "title": "Insidious: The Last Key", "release_date": "2018-01-03", "original_language": "en", "original_title": "Insidious: The Last Key", "genre_ids": [27, 9648, 53], "backdrop_path": "/PwI3EfasE9fVuXsmMu9ffJh0Re.jpg", "adult": false, "overview": "Parapsychologist Elise Rainier and her team travel to Five Keys, NM, to investigate a man\u2019s claim of a haunting. Terror soon strikes when Rainier realizes that the house he lives in was her family\u2019s old home.", "poster_path": "/nb9fc9INMg8kQ8L7sE7XTNsZnUX.jpg", "popularity": 18.503}, {"id": 439079, "video": false, "vote_count": 3341, "vote_average": 5.6, "title": "The Nun", "release_date": "2018-09-05", "original_language": "en", "original_title": "The Nun", "genre_ids": [27, 9648, 53], "backdrop_path": "/fgsHxz21B27hOOqQBiw9L6yWcM7.jpg", "adult": false, "overview": "When a young nun at a cloistered abbey in Romania takes her own life, a priest with a haunted past and a novitiate on the threshold of her final vows are sent by the Vatican to investigate. Together they uncover the order\u2019s unholy secret. Risking not only their lives but their faith and their very souls, they confront a malevolent force in the form of the same demonic nun that first terrorized audiences in \u201cThe Conjuring 2\u201d as the abbey becomes a horrific battleground between the living and the damned.", "poster_path": "/sFC1ElvoKGdHJIWRpNB3xWJ9lJA.jpg", "popularity": 32.471}, {"adult": false, "backdrop_path": "/slpgZisYNapLoN9FWXqDOC1ExbU.jpg", "genre_ids": [27, 9648, 53], "id": 259693, "original_language": "en", "original_title": "The Conjuring 2", "overview": "Lorraine and Ed Warren travel to north London to help a single mother raising four children alone in a house plagued by malicious spirits.", "poster_path": "/7GUzvvrb6hbOWl8l8YkaS4fgTDT.jpg", "release_date": "2016-05-13", "title": "The Conjuring 2", "video": false, "vote_average": 7.2, "vote_count": 4651, "popularity": 26.258}, {"id": 340676, "video": false, "vote_count": 673, "vote_average": 5.9, "title": "Personal Shopper", "release_date": "2016-10-19", "original_language": "en", "original_title": "Personal Shopper", "genre_ids": [18, 9648, 53], "backdrop_path": "/i46GYmtFfumxJrBAuvk72twBJ3C.jpg", "adult": false, "overview": "A personal shopper in Paris refuses to leave the city until she makes contact with her twin brother who previously died there. Her life becomes more complicated when a mysterious person contacts her via text message.", "poster_path": "/jDOWYDmJvGkVkVHf7Ru66gy6ry8.jpg", "popularity": 12.285}, {"id": 128, "video": false, "vote_count": 4190, "vote_average": 8.4, "title": "Princess Mononoke", "release_date": "1997-07-12", "original_language": "ja", "original_title": "\u3082\u306e\u306e\u3051\u59eb", "genre_ids": [12, 16, 14], "backdrop_path": "/aZZCMHAoQcCXaAgbDkSD6JcFL9f.jpg", "adult": false, "overview": "Ashitaka, a prince of the disappearing Emishi people, is cursed by a demonized boar god and must journey to the west to find a cure. Along the way, he encounters San, a young human woman fighting to protect the forest, and Lady Eboshi, who is trying to destroy it. Ashitaka must find a way to bring balance to this conflict.", "poster_path": "/mNqZOtJIQfFQPjo3hmYLIn8Qqhf.jpg", "popularity": 32.056}, {"id": 330457, "video": false, "vote_count": 1916, "vote_average": 7.0, "title": "Frozen II", "release_date": "2019-11-20", "original_language": "en", "original_title": "Frozen II", "genre_ids": [12, 16, 10402, 10751], "backdrop_path": "/xJWPZIYOEFIjZpBL7SVBGnzRYXp.jpg", "adult": false, "overview": "Elsa, Anna, Kristoff and Olaf head far into the forest to learn the truth about an ancient mystery of their kingdom.", "poster_path": "/pjeMs3yqRmFL3giJy4PMXWZTTPa.jpg", "popularity": 110.338}, {"adult": false, "backdrop_path": "/2gKX53lskaCYk9ycXmaDJKqWiy.jpg", "genre_ids": [27], "id": 250546, "original_language": "en", "original_title": "Annabelle", "overview": "John Form has found the perfect gift for his expectant wife, Mia - a beautiful, rare vintage doll in a pure white wedding dress. But Mia's delight with Annabelle doesn't last long. On one horrific night, their home is invaded by members of a satanic cult, who violently attack the couple. Spilled blood and terror are not all they leave behind. The cultists have conjured an entity so malevolent that nothing they did will compare to the sinister conduit to the damned that is now... Annabelle.", "poster_path": "/yAgxM61Sn0dYML4C9v3MJFp5zPI.jpg", "release_date": "2014-10-02", "title": "Annabelle", "video": false, "vote_average": 5.6, "vote_count": 3883, "popularity": 16.599}, {"id": 12481, "video": false, "vote_count": 320, "vote_average": 7.3, "title": "The Big Boss", "release_date": "1971-10-02", "original_language": "zh", "original_title": "\u5510\u5c71\u5927\u5144", "genre_ids": [28], "backdrop_path": "/tzmHdegHSKVUwnJYvdMiolAWnWO.jpg", "adult": false, "overview": "Chen is a city boy who moves with his cousins to work at an ice factory. He does this with a family promise never to get involved in any fight. However, when members of his family begin disappearing after meeting the management of the factory, the resulting mystery and pressures force him to break that vow and take on the villainy of the Big Boss.", "poster_path": "/txmbBHN45wqWn4qrT9MPlDhuJCA.jpg", "popularity": 20.48}, {"id": 10196, "video": false, "vote_count": 2382, "vote_average": 4.6, "title": "The Last Airbender", "release_date": "2010-06-30", "original_language": "en", "original_title": "The Last Airbender", "genre_ids": [28, 12, 14, 10751], "backdrop_path": "/hzPK7B5iyQTAfG7X92uKpAwLGZC.jpg", "adult": false, "overview": "The story follows the adventures of Aang, a young successor to a long line of Avatars, who must put his childhood ways aside and stop the Fire Nation from enslaving the Water, Earth and Air nations.", "poster_path": "/zgwRTYWEEPivTwjB9S03HtmMcbM.jpg", "popularity": 17.876}, {"id": 10210, "video": false, "vote_count": 211, "vote_average": 6.4, "title": "A Midsummer Night's Dream", "release_date": "1999-04-25", "original_language": "en", "original_title": "A Midsummer Night's Dream", "genre_ids": [35, 14, 10749], "backdrop_path": "/n3uSrGGYFmgsvnLWppc8oTsScUX.jpg", "adult": false, "overview": "A film adaptation of Shakespeare's comedy about lovers whose romantic affections are manipulated by fairy magic. The setting is updated to a Tuscan hill town in the late 19th century.", "poster_path": "/2pWSszXVEPPClWzy8yir1FVEveN.jpg", "popularity": 13.112}, {"id": 25842, "video": false, "vote_count": 66, "vote_average": 7.2, "title": "A Christmas Carol", "release_date": "1938-12-16", "original_language": "en", "original_title": "A Christmas Carol", "genre_ids": [18, 14, 10751], "backdrop_path": "/7TY4Knu4EVcIVgpkStOeI99diGT.jpg", "adult": false, "overview": "Classic Charles Dickens holiday tale of Ebenezer Scrooge, the miser's miser who has a huge change of heart after spirits whisk him into the past, present, and future.", "poster_path": "/rJoFwqMaYyS3bmWXQGJh5qa7KMW.jpg", "popularity": 7.595}, {"adult": false, "backdrop_path": "/aEtgQ6FsHXmnqO4fhS8Fo0Y3qI4.jpg", "genre_ids": [18, 10749], "id": 311291, "original_language": "en", "original_title": "45 Years", "overview": "There is just one week until Kate Mercer's 45th wedding anniversary and the planning for the party is going well. But then a letter arrives for her husband. The body of his first love has been discovered, frozen and preserved in the icy glaciers of the Swiss Alps. By the time the party is upon them, five days later, there may not be a marriage left to celebrate.", "poster_path": "/audq7llmvYDeh9ihDhLg8iSUkAt.jpg", "release_date": "2015-08-04", "title": "45 Years", "video": false, "vote_average": 6.5, "vote_count": 464, "popularity": 8.503}, {"adult": false, "backdrop_path": "/6thnbe32tzVJlNHGmAKaHoQJRwP.jpg", "genre_ids": [80, 18, 27, 53], "id": 8643, "original_language": "en", "original_title": "The Exorcism of Emily Rose", "overview": "When a younger girl called Emily Rose dies, everyone puts blame on the exorcism which was performed on her by Father Moore prior to her death. The priest is arrested on suspicion of murder. The trial begins with lawyer Erin Bruner representing Moore, but it is not going to be easy, as no one wants to believe what Father Moore says is true.", "poster_path": "/lDffYgWFiAfA7ztBW6R4LWdjXK6.jpg", "release_date": "2005-09-09", "title": "The Exorcism of Emily Rose", "video": false, "vote_average": 6.4, "vote_count": 1558, "popularity": 15.807}, {"adult": false, "backdrop_path": "/qWNFwjDJOMDOnx5JRQSA6xqiTQP.jpg", "genre_ids": [27, 53], "id": 335796, "original_language": "en", "original_title": "Ouija: Origin of Evil", "overview": "In 1965 Los Angeles, a widowed mother and her two daughters add a new stunt to bolster their s\u00e9ance scam business and unwittingly invite authentic evil into their home. When the youngest daughter is overtaken by the merciless spirit, this small family confronts unthinkable fears to save her and send her possessor back to the other side.", "poster_path": "/pzhGcMGuOxxnq9ePtQPY80Wp0BG.jpg", "release_date": "2016-10-20", "title": "Ouija: Origin of Evil", "video": false, "vote_average": 6.0, "vote_count": 1566, "popularity": 15.879}, {"id": 10727, "video": false, "vote_count": 289, "vote_average": 5.2, "title": "Darkness Falls", "release_date": "2003-01-24", "original_language": "en", "original_title": "Darkness Falls", "genre_ids": [27, 53], "backdrop_path": "/82E2nTW9LCgQLSfUclOdouCtb4B.jpg", "adult": false, "overview": "A vengeful spirit has taken the form of the Tooth Fairy to exact vengeance on the town that lynched her 150 years earlier. Her only opposition is the only child, now grown up, who has survived her before.", "poster_path": "/mQJXbHqu3984LXuDuFr9bF5axy6.jpg", "popularity": 13.447}, {"id": 13160, "video": false, "vote_count": 266, "vote_average": 5.5, "title": "Over Her Dead Body", "release_date": "2008-02-01", "original_language": "en", "original_title": "Over Her Dead Body", "genre_ids": [35], "backdrop_path": "/tzhIULugg6BRNTr6guOWor6DZOh.jpg", "adult": false, "overview": "After his fianc\u00e9e, Kate, dies in an accident on their wedding day, veterinarian Henry grows depressed. To help him move on, his sister has him visit psychic Ashley and gives her Kate's diary. Ashley uses the journal's details to convincingly deliver the fake message that Kate wants Henry to move on. However, Kate's ghost is watching over Ashley and Henry. Furious when they fall for each other, she vows to sabotage their relationship.", "poster_path": "/s9qqJyFgOhjRVeC1ZVwFP02D6Pt.jpg", "popularity": 12.577}], "total_pages": 7, "total_results": 121}, "recommendations": {"page": 1, "results": [], "total_pages": 1, "total_results": 0}, "credits": {"cast": [{"cast_id": 2, "character": "Peter Grimm", "credit_id": "52fe4c26c3a368484e1a9e5d", "gender": 2, "id": 17753, "name": "Lionel Barrymore", "order": 0, "profile_path": "/5BsoVPE4FBzmiRsPQK14LdcbGCK.jpg"}, {"cast_id": 3, "character": "Catherine", "credit_id": "52fe4c26c3a368484e1a9e61", "gender": 1, "id": 30241, "name": "Helen Mack", "order": 1, "profile_path": "/2juyjMcH6PsS2MFfxpgU4nhKVKZ.jpg"}, {"cast_id": 4, "character": "Dr. Andrew Macpherson", "credit_id": "52fe4c26c3a368484e1a9e65", "gender": 2, "id": 77115, "name": "Edward Ellis", "order": 2, "profile_path": "/i35hrI7WmusnwjvNTbRenLo4aQB.jpg"}, {"cast_id": 5, "character": "Mayor Everett Bartholomew", "credit_id": "52fe4c26c3a368484e1a9e69", "gender": 2, "id": 14968, "name": "Donald Meek", "order": 3, "profile_path": "/zKB7cWdaXAi12lDOMlc85m1HiqV.jpg"}, {"cast_id": 6, "character": "Frederik", "credit_id": "52fe4c26c3a368484e1a9e6d", "gender": 0, "id": 1128883, "name": "Allen Vincent", "order": 4, "profile_path": "/pbZKNXZiovWMM5JPDlCOq8vnFFi.jpg"}, {"cast_id": 7, "character": "William Van Dam", "credit_id": "54595bc4c3a36839a4002678", "gender": 0, "id": 121175, "name": "George P. Breakston", "order": 5, "profile_path": "/au6dLDAN9IIt6lRItOQ3jj2R4ib.jpg"}, {"cast_id": 8, "character": "James", "credit_id": "54595bd60e0a26115b00266d", "gender": 2, "id": 101882, "name": "James Bush", "order": 6, "profile_path": "/sSnb6rCTmMrV5jhJItEwYroLDcQ.jpg"}, {"cast_id": 9, "character": "Mrs. Martha Bartholomew", "credit_id": "54595be00e0a2611650026b9", "gender": 1, "id": 8232, "name": "Ethel Griffies", "order": 7, "profile_path": "/m3pXmGCIlccqKUi9ERM1aiBNhTw.jpg"}, {"cast_id": 10, "character": "Colonel Tom Lawton", "credit_id": "54595be90e0a26115e0027c9", "gender": 2, "id": 34574, "name": "Lucien Littlefield", "order": 8, "profile_path": "/65jnSJmU2BC4Jrpg2Nfg6glU6wN.jpg"}, {"cast_id": 11, "character": "Circus Clown", "credit_id": "54595bf50e0a26115b002671", "gender": 2, "id": 114840, "name": "Ray Mayer", "order": 9, "profile_path": null}, {"cast_id": 12, "character": "Marta", "credit_id": "54595c03c3a368398f002615", "gender": 1, "id": 977583, "name": "Greta Meyer", "order": 10, "profile_path": "/zlFYbQ8NsvoeJ45VEccRAsYtG0q.jpg"}, {"cast_id": 13, "character": "Freckle-Faced Girl", "credit_id": "54595c100e0a261162002710", "gender": 0, "id": 249022, "name": "Lois Verner", "order": 11, "profile_path": null}], "crew": [{"credit_id": "5aa7bc9d9251415e4b01ad5c", "department": "Art", "gender": 2, "id": 11036, "job": "Art Direction", "name": "Van Nest Polglase", "profile_path": "/11wRR3ofmyXu33rjhlrwg74zpnJ.jpg"}, {"credit_id": "5aa7bc970e0a263dca01d4b4", "department": "Editing", "gender": 0, "id": 8621, "job": "Editor", "name": "Arthur P. Schmidt", "profile_path": null}, {"credit_id": "5aa7bca40e0a263dc401d786", "department": "Costume & Make-Up", "gender": 2, "id": 11491, "job": "Costume Design", "name": "Walter Plunkett", "profile_path": "/yKfswJpfffXoggkwC3eSDfaMD49.jpg"}, {"credit_id": "57df02879251413d74009182", "department": "Writing", "gender": 2, "id": 29806, "job": "Screenplay", "name": "Francis Edward Faragoh", "profile_path": null}, {"credit_id": "5aa7bc1ac3a36839e101c342", "department": "Sound", "gender": 2, "id": 34075, "job": "Original Music Composer", "name": "Alberto Colombo", "profile_path": null}, {"credit_id": "5aa7bc3f9251415e3c01b3c9", "department": "Camera", "gender": 2, "id": 39798, "job": "Director of Photography", "name": "Lucien N. Andriot", "profile_path": null}, {"credit_id": "5aa7bc0ac3a36839d501e2de", "department": "Production", "gender": 0, "id": 88972, "job": "Producer", "name": "Kenneth Macgowan", "profile_path": null}, {"credit_id": "5aa7bc48c3a36839cb01c539", "department": "Camera", "gender": 2, "id": 105511, "job": "Director of Photography", "name": "Glen MacWilliams", "profile_path": null}, {"credit_id": "57df0279925141785500d2cd", "department": "Writing", "gender": 2, "id": 144010, "job": "Theatre Play", "name": "David Belasco", "profile_path": "/6LXNuDOQ1dEIJJzdarm2YQy4TD0.jpg"}, {"credit_id": "52fe4c26c3a368484e1a9e59", "department": "Directing", "gender": 0, "id": 585135, "job": "Director", "name": "George Nichols Jr.", "profile_path": null}, {"credit_id": "5aa7bcadc3a36839e401dcf3", "department": "Directing", "gender": 2, "id": 1337941, "job": "Assistant Director", "name": "Doran Cox", "profile_path": null}]}}