{"adult": false, "backdrop_path": "/avB6gqrmVIOUK5UrKctsVpDHkQO.jpg", "belongs_to_collection": null, "budget": 3000000, "genres": [{"id": 18, "name": "Drama"}, {"id": 53, "name": "Thriller"}], "homepage": null, "id": 137420, "imdb_id": "tt0097698", "original_language": "en", "original_title": "L.A. Bounty", "overview": "Mayor candidate Mike Rhodes is kidnapped in his own home outside of Los Angeles by unknown, masked terrorists. His wife Kelly barely survives the attempted murder on her, and is able to identify one of the kidnappers. She's placed on the police's protection list while the investigation is ongoing. Ruger, a tough and merciless bounty hunter is out on the streets avenging her partner's death. With Kelly as her bait, Ruger starts a dangerous game to bring Cavanough, a crazed crime kingpin behind the kidnapping, out of hiding.", "popularity": 2.923, "poster_path": "/kY45sw4JW6tFB7PbtjvZ7bfvwwR.jpg", "production_companies": [{"id": 49915, "logo_path": null, "name": "International Video Entertainment (IVE)", "origin_country": ""}, {"id": 77856, "logo_path": null, "name": "Adventuress Productions International", "origin_country": ""}, {"id": 77857, "logo_path": null, "name": "Leighton & Hilpert Productions", "origin_country": ""}], "production_countries": [{"iso_3166_1": "US", "name": "United States of America"}], "release_date": "1989-09-15", "revenue": 0, "runtime": 85, "spoken_languages": [{"iso_639_1": "en", "name": "English"}], "status": "Released", "tagline": "For a bounty hunter, a killer is just another paycheck.", "title": "L.A. Bounty", "video": false, "vote_average": 5.4, "vote_count": 5, "keywords": {"keywords": [{"id": 801, "name": "bounty hunter"}, {"id": 1930, "name": "kidnapping"}, {"id": 8440, "name": "ex-cop"}, {"id": 12670, "name": "los angeles, california"}, {"id": 157892, "name": "warehouse"}]}, "similar": {"page": 1, "results": [{"adult": false, "backdrop_path": "/eg049B1TJdWuKuyKowNmhZxNToc.jpg", "genre_ids": [28, 53], "id": 562, "original_language": "en", "original_title": "Die Hard", "overview": "NYPD cop John McClane's plan to reconcile with his estranged wife is thrown for a serious loop when, minutes after he arrives at her office, the entire building is overtaken by a group of terrorists. With little help from the LAPD, wisecracking McClane sets out to single-handedly rescue the hostages and bring the bad guys down.", "poster_path": "/fiXHtnQpQiGVkMtyYnEfQ6Gtfx8.jpg", "release_date": "1988-07-15", "title": "Die Hard", "video": false, "vote_average": 7.7, "vote_count": 6810, "popularity": 32.473}, {"adult": false, "backdrop_path": "/747dgDfL5d8esobk7h4odaOFhUq.jpg", "genre_ids": [80, 18, 53], "id": 275, "original_language": "en", "original_title": "Fargo", "overview": "Jerry, a small-town Minnesota car salesman is bursting at the seams with debt... but he's got a plan. He's going to hire two thugs to kidnap his wife in a scheme to collect a hefty ransom from his wealthy father-in-law. It's going to be a snap and nobody's going to get hurt... until people start dying. Enter Police Chief Marge, a coffee-drinking, parka-wearing - and extremely pregnant - investigator who'll stop at nothing to get her man. And if you think her small-time investigative skills will give the crooks a run for their ransom... you betcha!", "poster_path": "/pyEkyYgtyjOX1R9EYyUcgbK1sTn.jpg", "release_date": "1996-03-08", "title": "Fargo", "video": false, "vote_average": 7.9, "vote_count": 4327, "popularity": 30.674}, {"adult": false, "backdrop_path": "/scRw6gAoO3CfgQnZjHCh2ZgU4Z1.jpg", "genre_ids": [80, 18, 878, 53], "id": 281, "original_language": "en", "original_title": "Strange Days", "overview": "Set in the year 1999 during the last days of the old millennium, the movie tells the story of Lenny Nero, an ex-cop who now deals with data-discs containing recorded memories and emotions. One day he receives a disc which contains the memories of a murderer killing a prostitute. Lenny investigates and is pulled deeper and deeper in a whirl of blackmail, murder and rape. Will he survive and solve the case?", "poster_path": "/rXvy5hG9OeVmgnv9w4IhQxhqEKD.jpg", "release_date": "1995-10-13", "title": "Strange Days", "video": false, "vote_average": 7.0, "vote_count": 663, "popularity": 17.431}, {"adult": false, "backdrop_path": "/t3OZS8yMs0NL4YgWWc04eXHTn1X.jpg", "genre_ids": [28, 80, 53], "id": 984, "original_language": "en", "original_title": "Dirty Harry", "overview": "When a madman dubbed 'Scorpio' terrorizes San Francisco, hard-nosed cop, Harry Callahan \u2013 famous for his take-no-prisoners approach to law enforcement \u2013 is tasked with hunting down the psychopath. Harry eventually collars Scorpio in the process of rescuing a kidnap victim, only to see him walk on technicalities. Now, the maverick detective is determined to nail the maniac himself.", "poster_path": "/2TADKc4GMMPdMrLXj0xJVgTvZJM.jpg", "release_date": "1971-12-21", "title": "Dirty Harry", "video": false, "vote_average": 7.5, "vote_count": 1173, "popularity": 18.839}, {"adult": false, "backdrop_path": "/a24i4Qw6qFTtkFLQsncv8WPwevj.jpg", "genre_ids": [53, 28, 80], "id": 345887, "original_language": "en", "original_title": "The Equalizer 2", "overview": "Robert McCall, who serves an unflinching justice for the exploited and oppressed, embarks on a relentless, globe-trotting quest for vengeance when a long-time girl friend is murdered.", "poster_path": "/cQvc9N6JiMVKqol3wcYrGshsIdZ.jpg", "release_date": "2018-07-19", "title": "The Equalizer 2", "video": false, "vote_average": 6.5, "vote_count": 2483, "popularity": 21.271}, {"adult": false, "backdrop_path": "/yo3LesueMprtgjRiIRmjiIrFIKj.jpg", "genre_ids": [28, 53], "id": 1571, "original_language": "en", "original_title": "Live Free or Die Hard", "overview": "John McClane is back and badder than ever, and this time he's working for Homeland Security. He calls on the services of a young hacker in his bid to stop a ring of Internet terrorists intent on taking control of America's computer infrastructure.", "poster_path": "/pHWgbaXiQD2nmex7u8Xv6XmhaZS.jpg", "release_date": "2007-06-20", "title": "Live Free or Die Hard", "video": false, "vote_average": 6.5, "vote_count": 3588, "popularity": 24.743}, {"adult": false, "backdrop_path": "/lx9eC0e98ZrdU0y55LrydS8CMMp.jpg", "genre_ids": [28, 12, 80, 18, 9648, 53], "id": 9631, "original_language": "en", "original_title": "The Negotiator", "overview": "The police try to arrest expert hostage negotiator Danny Roman, who insists he's being framed for his partner's murder in what he believes is an elaborate conspiracy. Thinking there's evidence in the Internal Affairs offices that might clear him, he takes everyone in the office hostage and demands that another well-known negotiator be brought in to handle the situation and secretly investigate the conspiracy.", "poster_path": "/u4LQDr6QB5i7dz3sMuP8u3EOd3D.jpg", "release_date": "1998-07-29", "title": "The Negotiator", "video": false, "vote_average": 7.0, "vote_count": 1082, "popularity": 18.49}, {"id": 1538, "video": false, "vote_count": 2891, "vote_average": 7.2, "title": "Collateral", "release_date": "2004-08-04", "original_language": "en", "original_title": "Collateral", "genre_ids": [80, 18, 53], "backdrop_path": "/hFcXrnmciPfIg8ZcXb1V7BeguF.jpg", "adult": false, "overview": "Cab driver Max picks up a man who offers him $600 to drive him around. But the promise of easy money sours when Max realizes his fare is an assassin.", "poster_path": "/fmkv2eRuYCTq7A5jzMBNgoNe1vA.jpg", "popularity": 22.701}, {"adult": false, "backdrop_path": "/t4DO37tO3mhMX4DCdnI1EPsRi26.jpg", "genre_ids": [80, 18, 9648], "id": 3580, "original_language": "en", "original_title": "Changeling", "overview": "Christine Collins is overjoyed when her kidnapped son is brought back home. But when Christine suspects that the boy returned to her isn't her child, the police captain has her committed to an asylum.", "poster_path": "/qtte2n6ygA1zVG5kLrjUGui28TJ.jpg", "release_date": "2008-01-30", "title": "Changeling", "video": false, "vote_average": 7.5, "vote_count": 2322, "popularity": 19.918}, {"id": 193893, "video": false, "vote_count": 1816, "vote_average": 6.3, "title": "Let's Be Cops", "release_date": "2014-08-13", "original_language": "en", "original_title": "Let's Be Cops", "genre_ids": [35], "backdrop_path": "/43GrPpAeBUOvOCZ8L1A3MLuDnkc.jpg", "adult": false, "overview": "It's the ultimate buddy cop movie except for one thing: they're not cops.  When two struggling pals dress as police officers for a costume party, they become neighborhood sensations.  But when these newly-minted \u201cheroes\u201d get tangled in a real life web of mobsters and dirty detectives, they must put their fake badges on the line.", "poster_path": "/ayYibwWAA9NxJPaD9GSybPShtvL.jpg", "popularity": 21.654}, {"id": 4771, "video": false, "vote_count": 2134, "vote_average": 7.3, "title": "Gone Baby Gone", "release_date": "2007-09-18", "original_language": "en", "original_title": "Gone Baby Gone", "genre_ids": [80, 18, 9648], "backdrop_path": "/sogh5NXPbKFajjYKBlfIBfCWgbq.jpg", "adult": false, "overview": "When 4 year old Amanda McCready disappears from her home and the police make little headway in solving the case, the girl's aunt, Beatrice McCready hires two private detectives, Patrick Kenzie and Angie Gennaro. The detectives freely admit that they have little experience with this type of case, but the family wants them for two reasons - they're not cops and they know the tough neighborhood in which they all live. As the case progresses, Kenzie and Gennaro face drug dealers, gangs and pedophiles. When they are about to solve the case, they are faced with a moral dilemma that tears them apart.", "poster_path": "/dXXMPxGiRegd7NNCtE5uchAKRAG.jpg", "popularity": 16.498}, {"id": 8090, "video": false, "vote_count": 448, "vote_average": 6.1, "title": "Untraceable", "release_date": "2008-01-22", "original_language": "en", "original_title": "Untraceable", "genre_ids": [9648, 53], "backdrop_path": "/eXuIPt9I1xuaVddlgzEQRC2EMnJ.jpg", "adult": false, "overview": "Special Agent Jennifer Marsh (Diane Lane) works in an elite division of the FBI dedicated to fighting cybercrime. She thinks she has seen it all, until a particularly sadistic criminal arises on the Internet. This tech-savvy killer posts live feeds of his crimes on his website; the more hits the site gets, the faster the victim dies. Marsh and her team must find the elusive killer before time runs out.", "poster_path": "/ySUwDRDEn01lKIMPQorpFCMLWqE.jpg", "popularity": 14.431}, {"adult": false, "backdrop_path": "/4AXlsl0azR9d9xjX9tDdfAeM8lt.jpg", "genre_ids": [80, 18, 9648, 10749], "id": 25376, "original_language": "es", "original_title": "El secreto de sus ojos", "overview": "A retired legal counselor writes a novel hoping to find closure for one of his past unresolved homicide cases and for his unreciprocated love with his superior - both of which still haunt him decades later.", "poster_path": "/z2mUzEqDi7DtA1E4mYzVjbzXnqE.jpg", "release_date": "2009-08-13", "title": "The Secret in Their Eyes", "video": false, "vote_average": 7.9, "vote_count": 1288, "popularity": 11.544}, {"id": 1266, "video": false, "vote_count": 729, "vote_average": 6.5, "title": "Street Kings", "release_date": "2008-04-10", "original_language": "en", "original_title": "Street Kings", "genre_ids": [28, 80, 18, 53], "backdrop_path": "/vQL3dus5e8XtpAiJKFcI8YiITlV.jpg", "adult": false, "overview": "Tom Ludlow is a disillusioned L.A. Police Officer, rarely playing by the rules and haunted by the death of his wife. When evidence implicates him in the execution of a fellow officer, he is forced to go up against the cop culture he's been a part of his entire career, ultimately leading him to question the loyalties of everyone around him.", "poster_path": "/2h2mThLae2QZLprtovKXRBgMM1E.jpg", "popularity": 15.229}, {"id": 1847, "video": false, "vote_count": 259, "vote_average": 7.4, "title": "The Long Goodbye", "release_date": "1973-03-07", "original_language": "en", "original_title": "The Long Goodbye", "genre_ids": [80, 18, 9648, 53], "backdrop_path": "/brm75bRffmi2SlsUmsHUxUVI1Hg.jpg", "adult": false, "overview": "Detective Philip Marlowe tries to help a friend who is accused of murdering his wife.", "poster_path": "/oBhUK54yBJ0aH6u9zCzSV5iV7OP.jpg", "popularity": 9.602}, {"adult": false, "backdrop_path": "/6Xk2RR6h4dq1JHorzL9WIsh8aJA.jpg", "genre_ids": [18, 9648, 53, 80], "id": 10990, "original_language": "en", "original_title": "Mulholland Falls", "overview": "In 1950s Los Angeles, a special crime squad of the LAPD investigates the murder of a young woman.", "poster_path": "/hZRbWIPqVlp1fslaAmC2WOWNjBU.jpg", "release_date": "1996-04-26", "title": "Mulholland Falls", "video": false, "vote_average": 6.1, "vote_count": 130, "popularity": 13.139}, {"adult": false, "backdrop_path": "/ieJ5ImFoJILNULvnIpbulAln7Lr.jpg", "genre_ids": [12, 28, 53, 878], "id": 14869, "original_language": "en", "original_title": "G.I. Joe: The Rise of Cobra", "overview": "From the Egyptian desert to deep below the polar ice caps, the elite G.I. JOE team uses the latest in next-generation spy and military equipment to fight the corrupt arms dealer Destro and the growing threat of the mysterious Cobra organization to prevent them from plunging the world into chaos.", "poster_path": "/29eW5c5DaCFQejdt9V14RrA51yD.jpg", "release_date": "2009-08-04", "title": "G.I. Joe: The Rise of Cobra", "video": false, "vote_average": 5.7, "vote_count": 3082, "popularity": 22.639}, {"id": 75780, "video": false, "vote_count": 4451, "vote_average": 6.4, "title": "Jack Reacher", "release_date": "2012-12-20", "original_language": "en", "original_title": "Jack Reacher", "genre_ids": [28, 80, 18, 53], "backdrop_path": "/ezXodpP429qK0Av89pVNlaXWJkQ.jpg", "adult": false, "overview": "When a gunman takes five lives with six shots, all evidence points to the suspect in custody. On interrogation, the suspect offers up a single note: \"Get Jack Reacher!\" So begins an extraordinary chase for the truth, pitting Jack Reacher against an unexpected enemy, with a skill for violence and a secret to keep.", "poster_path": "/mt0ELw83HIRgaKaDzhsDcIi0RnW.jpg", "popularity": 15.945}, {"adult": false, "backdrop_path": "/7RRuRcGuWkZGuRyYugfXn0Fgrrr.jpg", "genre_ids": [28, 80, 18, 53], "id": 949, "original_language": "en", "original_title": "Heat", "overview": "Obsessive master thief, Neil McCauley leads a top-notch crew on various daring heists throughout Los Angeles while determined detective, Vincent Hanna pursues him without rest. Each man recognizes and respects the ability and the dedication of the other even though they are aware their cat-and-mouse game may end in violence.", "poster_path": "/6pmLVffM9jEYK7VqDJqPblMxfEY.jpg", "release_date": "1995-12-15", "title": "Heat", "video": false, "vote_average": 7.8, "vote_count": 3615, "popularity": 21.973}, {"id": 1949, "video": false, "vote_count": 5165, "vote_average": 7.5, "title": "Zodiac", "release_date": "2007-03-02", "original_language": "en", "original_title": "Zodiac", "genre_ids": [80, 18, 9648, 53], "backdrop_path": "/jP2htGBHE7vKq4MLeC75UeC0sZH.jpg", "adult": false, "overview": "The true story of the investigation of the \"Zodiac Killer\", a serial killer who terrified the San Francisco Bay Area, taunting police with his ciphers and letters. The case becomes an obsession for three men as their lives and careers are built and destroyed by the endless trail of clues.", "poster_path": "/bgLyOROfFQI3FqYL7jQbiaV8lkN.jpg", "popularity": 24.455}], "total_pages": 291, "total_results": 5815}, "recommendations": {"page": 1, "results": [{"adult": false, "backdrop_path": "/4OI84heveHnK3BSUN3AtXsIXTWh.jpg", "genre_ids": [18, 53], "id": 36584, "original_language": "en", "original_title": "Interview with the Assassin", "overview": "Out of work TV cameraman Ron Kobelski is approached by his formerly reclusive neighbor Walter Ohlinger. Ohlinger claims that he was the mysterious \"second gunman\" that shot and killed President Kennedy. Ohlinger has kept quiet all these years, but has decided to tell his story now that he has been diagnosed with terminal cancer. Kobelski is skeptical of his neighbor's story, after his investigations provide ambiguous answers. His attitude changes, however, after he receives threatening messages on his answering machine, and spots shadowy figures in his backyard. Is Ohlinger telling the truth? Or is there a bigger conspiracy at work?", "poster_path": "/3VqSn1K1n3Ks6V9m4XQDwP00vFz.jpg", "release_date": "2002-05-09", "title": "Interview with the Assassin", "video": false, "vote_average": 5.4, "vote_count": 7, "popularity": 3.308}, {"id": 30526, "video": false, "vote_count": 14, "vote_average": 5.1, "title": "Pentathlon", "release_date": "1994-06-04", "original_language": "en", "original_title": "Pentathlon", "genre_ids": [28], "backdrop_path": "/9mSgItYYuf5RmVkel4BxeYlRExv.jpg", "adult": false, "overview": "When East German Eric Brogar (Dolph Lundgren) wins a gold medal in the pentathlon, he escapes to freedom in the west with the help of a beautiful American athlete. But his demanding coach, Heinrich Mueller (David Soul) vows revenge and Eric's best friend and his father pay the ultimate price for his freedom when they are killed by the Secret Police. In Los Angeles, Eric starts to train for the gold again. But when Mueller comes to America, Eric must win the most deadly game of all\u2026 the fight for his life.", "poster_path": "/kD5SvLTd1MSvuwPrshoIaGIDlgC.jpg", "popularity": 4.48}, {"adult": false, "backdrop_path": "/sRFJvA7CgNbuKrlLb65vIrxHtU4.jpg", "genre_ids": [], "id": 94236, "original_language": "en", "original_title": "Street Knight", "overview": "A former cop returns to challenge a plot to escalate gang violence in the streets of Los Angeles.", "poster_path": "/nq3eKBmCP2z3TZyd3D0gW3mm69E.jpg", "release_date": "1993-03-12", "title": "Street Knight", "video": false, "vote_average": 6.2, "vote_count": 12, "popularity": 3.27}, {"adult": false, "backdrop_path": "/uqJ6FMw8pCI4VK67yOz8EWQJql6.jpg", "genre_ids": [28, 18, 53], "id": 59201, "original_language": "en", "original_title": "Kinjite: Forbidden Subjects", "overview": "A Tokyo businessman (Hiroshi Hada), transferred to L.A, molests a teenage girl on a train. It turns out that the girl is the daughter of a vice cop. But in one of those plot twists that can only occur in the movies, the cop is assigned to find the businessman's own daughter who has been kidnapped and forced into a teen prostitution ring.", "poster_path": "/rTqTswNj2hHKrfMxECK3O7fRrIS.jpg", "release_date": "1989-02-03", "title": "Kinjite: Forbidden Subjects", "video": false, "vote_average": 5.1, "vote_count": 26, "popularity": 5.91}, {"id": 92272, "video": false, "vote_count": 12, "vote_average": 6.1, "title": "The Organization", "release_date": "1971-10-20", "original_language": "en", "original_title": "The Organization", "genre_ids": [28, 80, 18, 53], "backdrop_path": "/gRy94uRC9mAlkfeMNY6C0RERTQF.jpg", "adult": false, "overview": "After a group of young revolutionaries break into a company's corporate headquarters and steal $5,000,000 worth of heroin to keep it off the street, they call on San Francisco Police Lieutenant Virgil Tibbs for assistance.", "poster_path": "/1lYruWILr4LVTrFRWSB2lMsOomm.jpg", "popularity": 4.136}], "total_pages": 1, "total_results": 5}, "credits": {"cast": [{"cast_id": 2, "character": "Ruger", "credit_id": "52fe4c31c3a368484e1abf5f", "gender": 1, "id": 29541, "name": "Sybil Danning", "order": 0, "profile_path": "/6WydVNd7JTYY0zbYtH2iwKGGo7k.jpg"}, {"cast_id": 3, "character": "Cavanaugh", "credit_id": "52fe4c31c3a368484e1abf63", "gender": 2, "id": 61153, "name": "Wings Hauser", "order": 1, "profile_path": "/cu3j6sYIlsJXNektg7dwz4NvXSx.jpg"}, {"cast_id": 4, "character": "James Maxwell", "credit_id": "52fe4c31c3a368484e1abf67", "gender": 2, "id": 157467, "name": "Blackie Dammett", "order": 2, "profile_path": "/4RrnJ9ggwWScJghPcnIlkiCMFA.jpg"}, {"cast_id": 5, "character": "Lt. Chandler", "credit_id": "52fe4c31c3a368484e1abf6b", "gender": 0, "id": 44686, "name": "Henry Darrow", "order": 3, "profile_path": "/nN31ROoQKhXEt4CAlALE9qld285.jpg"}, {"cast_id": 6, "character": "Rand", "credit_id": "52fe4c31c3a368484e1abf6f", "gender": 2, "id": 15449, "name": "Frank Doubleday", "order": 4, "profile_path": "/iksQQYEtuZh6zdPLtDAkmV9iXaz.jpg"}, {"cast_id": 7, "character": "Mike Rhodes", "credit_id": "52fe4c31c3a368484e1abf73", "gender": 0, "id": 194536, "name": "Robert Hanley", "order": 5, "profile_path": null}, {"cast_id": 8, "character": "Kelly Rhodes", "credit_id": "52fe4c31c3a368484e1abf77", "gender": 1, "id": 78184, "name": "Lenore Kasdorf", "order": 6, "profile_path": "/zyU2cEF8RUC8Zx11SmVBYIPQ62a.jpg"}, {"cast_id": 9, "character": "Martin", "credit_id": "52fe4c31c3a368484e1abf7b", "gender": 2, "id": 156869, "name": "Bob Minor", "order": 7, "profile_path": "/jwCeTNiNZcAQYohUksglnNYJezJ.jpg"}, {"cast_id": 10, "character": "Jimmy", "credit_id": "52fe4c31c3a368484e1abf7f", "gender": 2, "id": 82830, "name": "Robert Quarry", "order": 8, "profile_path": "/lr88ZEjDtRCvIz2iuNhWKyUgRcr.jpg"}, {"cast_id": 11, "character": "Michaels", "credit_id": "52fe4c31c3a368484e1abf83", "gender": 2, "id": 41352, "name": "Van Quattro", "order": 9, "profile_path": "/kNmOCRKD6PyG8t9tcDOpBFOrast.jpg"}, {"cast_id": 12, "character": "Willis", "credit_id": "52fe4c31c3a368484e1abf87", "gender": 2, "id": 106730, "name": "Branscombe Richmond", "order": 10, "profile_path": "/d8i0tFr9JDfhGUhKtr25HnZey3s.jpg"}, {"cast_id": 13, "character": "Mayor Burrows", "credit_id": "52fe4c31c3a368484e1abf8b", "gender": 0, "id": 95980, "name": "J. Christopher Sullivan", "order": 11, "profile_path": null}, {"cast_id": 14, "character": "Cavanaugh's Girl", "credit_id": "52fe4c31c3a368484e1abf8f", "gender": 0, "id": 163459, "name": "Maxine Wasa", "order": 12, "profile_path": "/fELnY64XS2b1OBuTryhaE7gG93C.jpg"}], "crew": [{"credit_id": "58c90372c3a36875830066da", "department": "Production", "gender": 1, "id": 29541, "job": "Producer", "name": "Sybil Danning", "profile_path": "/6WydVNd7JTYY0zbYtH2iwKGGo7k.jpg"}, {"credit_id": "52fe4c31c3a368484e1abf95", "department": "Writing", "gender": 1, "id": 29541, "job": "Story", "name": "Sybil Danning", "profile_path": "/6WydVNd7JTYY0zbYtH2iwKGGo7k.jpg"}, {"credit_id": "58c903899251411103006b71", "department": "Camera", "gender": 2, "id": 30683, "job": "Director of Photography", "name": "Gary Graver", "profile_path": "/hgxyf9QroD3VyKefTXt8ymxCP2t.jpg"}, {"credit_id": "58c903669251411103006b60", "department": "Writing", "gender": 2, "id": 117561, "job": "Screenplay", "name": "Michael W. Leighton", "profile_path": null}, {"credit_id": "58c9037e92514110f8006e07", "department": "Production", "gender": 2, "id": 117561, "job": "Producer", "name": "Michael W. Leighton", "profile_path": null}, {"credit_id": "595f73309251410a5909de83", "department": "Crew", "gender": 0, "id": 120378, "job": "Special Effects", "name": "Kevin McCarthy", "profile_path": null}, {"credit_id": "52fe4c31c3a368484e1abf5b", "department": "Directing", "gender": 2, "id": 129116, "job": "Director", "name": "Worth Keeter", "profile_path": "/eRMunsMfkYaCUc0JkfHI22WrXvz.jpg"}, {"credit_id": "595f72cec3a36828fc09061c", "department": "Editing", "gender": 0, "id": 289148, "job": "Editor", "name": "Stewart Schill", "profile_path": null}, {"credit_id": "595f72849251410a5909ddad", "department": "Sound", "gender": 0, "id": 553147, "job": "Music", "name": "Howard Leese", "profile_path": null}, {"credit_id": "595f72ee92514121f0082ba0", "department": "Art", "gender": 0, "id": 1046173, "job": "Art Direction", "name": "Phil Brandes", "profile_path": null}, {"credit_id": "595f72f89251410b860a0915", "department": "Art", "gender": 0, "id": 1087706, "job": "Set Decoration", "name": "Archie D'Amico", "profile_path": null}, {"credit_id": "595f72d89251415a4006f062", "department": "Production", "gender": 0, "id": 1608338, "job": "Casting", "name": "Pat Orseth", "profile_path": null}, {"credit_id": "595f733cc3a368253c08e4c1", "department": "Crew", "gender": 0, "id": 1608357, "job": "Special Effects", "name": "Sandra McCarthy", "profile_path": null}, {"credit_id": "595f72e4c3a3680d59074061", "department": "Art", "gender": 0, "id": 1846529, "job": "Production Design", "name": "Shane Nelsen", "profile_path": null}]}}