{"adult": false, "backdrop_path": "/mqF4YLRb93DAqVRqGH6Dyv9JSD5.jpg", "belongs_to_collection": null, "budget": 0, "genres": [{"id": 35, "name": "Comedy"}, {"id": 18, "name": "Drama"}], "homepage": "http://www.thekitchenmovie.com/", "id": 137683, "imdb_id": "tt2011300", "original_language": "en", "original_title": "The Kitchen", "overview": "Jennifer's thirtieth birthday party is supposed to be a special day. But what starts out as a day of celebration quickly spirals into a most ill-fated day Jennifer wishes she could forget, in this ensemble comedy set entirely in a kitchen.", "popularity": 4.457, "poster_path": "/yrZDKF5NxA0g85H2RcjSWQ7yKmp.jpg", "production_companies": [{"id": 14912, "logo_path": "/e73koinOgc2lhrkjKBE8SmhQLgZ.png", "name": "Unbound Feet Productions", "origin_country": "US"}], "production_countries": [{"iso_3166_1": "US", "name": "United States of America"}], "release_date": "2012-08-13", "revenue": 0, "runtime": 79, "spoken_languages": [{"iso_639_1": "en", "name": "English"}], "status": "Released", "tagline": "It's Jennifer's party and she'll cry if she wants to", "title": "The Kitchen", "video": false, "vote_average": 5.1, "vote_count": 14, "keywords": {"keywords": [{"id": 1326, "name": "infidelity"}, {"id": 1421, "name": "birthday"}, {"id": 1721, "name": "fight"}, {"id": 3914, "name": "kitchen"}, {"id": 4552, "name": "beer"}, {"id": 5732, "name": "birthday party"}, {"id": 11732, "name": "cigarette smoking"}, {"id": 33624, "name": "band"}, {"id": 208591, "name": "abortion"}, {"id": 219802, "name": "feel bad comedy"}]}, "similar": {"page": 1, "results": [{"id": 2649, "video": false, "vote_count": 3246, "vote_average": 7.6, "title": "The Game", "release_date": "1997-09-12", "original_language": "en", "original_title": "The Game", "genre_ids": [18, 9648, 53], "backdrop_path": "/3Eux3wcYYb79D2sr8aA6BEH9kVl.jpg", "adult": false, "overview": "In honor of his birthday, San Francisco banker Nicholas Van Orton, a financial genius and a cold-hearted loner, receives an unusual present from his younger brother, Conrad: a gift certificate to play a unique kind of game. In nearly a nanosecond, Nicholas finds himself consumed by a dangerous set of ever-changing rules, unable to distinguish where the charade ends and reality begins.", "poster_path": "/4b7QXyDJsDFXrwVHUNlrmezCZJC.jpg", "popularity": 18.283}, {"id": 326359, "video": false, "vote_count": 1180, "vote_average": 6.8, "title": "Frozen Fever", "release_date": "2015-03-09", "original_language": "en", "original_title": "Frozen Fever", "genre_ids": [12, 16, 10751], "backdrop_path": "/ubioPGniCfDiASmYYpeJs5RRNaC.jpg", "adult": false, "overview": "On Anna's birthday, Elsa and Kristoff are determined to give her the best celebration ever, but Elsa's icy powers may put more than just the party at risk.", "poster_path": "/lKJiVPzsAO9IJ4LKWXZ8vkR2bg4.jpg", "popularity": 17.218}, {"adult": false, "backdrop_path": "/iFLAEKnLQZNeYztE7Vy5NbL4Tw1.jpg", "genre_ids": [35], "id": 57214, "original_language": "en", "original_title": "Project X", "overview": "Three high school seniors throw a party to make a name for themselves. As the night progresses, things spiral out of control as word of the party spreads.", "poster_path": "/cWXkRLmzKfYutvWeJXaednoGKdF.jpg", "release_date": "2012-03-01", "title": "Project X", "video": false, "vote_average": 6.4, "vote_count": 3260, "popularity": 13.407}, {"id": 3109, "video": false, "vote_count": 229, "vote_average": 7.5, "title": "The Quiet Man", "release_date": "1952-07-21", "original_language": "en", "original_title": "The Quiet Man", "genre_ids": [35, 18, 10749], "backdrop_path": "/uZttYyxXYws0REW3BKCtGXy8dWh.jpg", "adult": false, "overview": "An Irish ex-boxer retires to Ireland and searches for the proper wife.", "poster_path": "/9twLidKb0ZmPPyslgpvJI8Gbjyd.jpg", "popularity": 10.113}, {"id": 2575, "video": false, "vote_count": 238, "vote_average": 6.1, "title": "The Tailor of Panama", "release_date": "2001-02-11", "original_language": "en", "original_title": "The Tailor of Panama", "genre_ids": [18, 53], "backdrop_path": "/nUZ8nCoAyWmjcjsVcjsTpb6739Y.jpg", "adult": false, "overview": "A British spy is banished to Panama after having an affair with an ambassador's mistress. Once there he makes connection with a local tailor with a nefarious past and connections to all of the top political and gangster figures in Panama. The tailor also has a wife, who works for the Panamanian president and a huge debt. The mission is to learn what the President intends to do with the Canal.", "poster_path": "/crJTnaCvzw3gCCqNSzEK6yerzJU.jpg", "popularity": 10.269}, {"adult": false, "backdrop_path": "/wHPkYA9qUYT4BxsJk937XkD7FPC.jpg", "genre_ids": [18, 28, 10749], "id": 11220, "original_language": "cn", "original_title": "\u58ae\u843d\u5929\u4f7f", "overview": "In this bifurcated crime narrative, a disillusioned hitman attempts to escape from his violent lifestyle against the wishes of his partner, who is infatuated with him, and an eccentric mute repeatedly encounters, then subsequently falls for a depressed woman looking for the prostitute who supposedly stole her ex-boyfriend's affections.", "poster_path": "/aqCpkOvZ7hNdTT70sSnGSRxmYxv.jpg", "release_date": "1995-09-06", "title": "Fallen Angels", "video": false, "vote_average": 7.8, "vote_count": 257, "popularity": 11.531}, {"id": 532649, "video": false, "vote_count": 17, "vote_average": 5.4, "title": "Book of Monsters", "release_date": "2019-03-19", "original_language": "en", "original_title": "Book of Monsters", "genre_ids": [28, 35, 27], "backdrop_path": "/2lvEaLmW5No2HeImRpiJ1PgFqmt.jpg", "adult": false, "overview": "Sophie's 18th birthday becomes a bloodbath when monsters descend upon her house, devouring the guests and killing anyone who tries to leave. To survive the night, Sophie must face her destiny: monsters are real and she's the only one who can stop them.", "poster_path": "/2yTwzpgMFteCVpNqFbNyDQyyLjv.jpg", "popularity": 6.188}, {"id": 44750, "video": false, "vote_count": 70, "vote_average": 6.5, "title": "The Winning Season", "release_date": "2009-01-19", "original_language": "en", "original_title": "The Winning Season", "genre_ids": [35], "backdrop_path": "/cjFTDWkrJnVVC9Ga17PlzFvl1cL.jpg", "adult": false, "overview": "A comedy centered on a has-been coach who is given a shot at redemption when he's asked to run his local high school's girls basketball team", "poster_path": "/4EaYUDDhtlf5ZPp2N3U2iFqNUY2.jpg", "popularity": 6.284}, {"adult": false, "backdrop_path": "/hwXzu8MAxRslHTBqeew5Wc38Utw.jpg", "genre_ids": [35], "id": 46026, "original_language": "en", "original_title": "Our Relations", "overview": "Two sailors get caught in a mountain of mix-ups when they meet their long-lost twins. Laurel and Hardy play themselves and their twins.", "poster_path": "/sImey6EcgBlYmhKALz12VE9b4Di.jpg", "release_date": "1936-10-30", "title": "Our Relations", "video": false, "vote_average": 7.5, "vote_count": 44, "popularity": 4.82}, {"adult": false, "backdrop_path": "/3m2iyo9BgxCf4LiBNFvOTYVYNwd.jpg", "genre_ids": [14, 35, 18], "id": 364540, "original_language": "en", "original_title": "Girl Asleep", "overview": "The world is closing in on Greta Driscoll. On the cusp of turning fifteen she can't bear to leave her childhood, it contains all the things that give her comfort in this incomprehensible new world. She floats in a bubble of loserdom with her only friend Elliott, until her parents throw her a surprise 15th birthday party and she's flung into a parallel place; a world that's weirdly erotic, a little bit violent and thoroughly ludicrous - only there can she find herself.", "poster_path": "/4ohIpGpslodBYmZJtlQUw54uWEh.jpg", "release_date": "2015-10-20", "title": "Girl Asleep", "video": false, "vote_average": 6.7, "vote_count": 59, "popularity": 6.851}, {"id": 13984, "video": false, "vote_count": 29, "vote_average": 6.2, "title": "Fubar", "release_date": "2002-05-24", "original_language": "en", "original_title": "Fubar", "genre_ids": [35, 10402], "backdrop_path": "/vJbggu2ub1QWNfuDweeLcxtu02c.jpg", "adult": false, "overview": "Terry and Dean are lifelong friends who have grown-up together: shotgunning their first beers, forming their first garage band, and growing the great Canadian mullet known as \"hockey hair\". Now the lives of these Alberta everymen are brought to the big screen by documentarian Ferral Mitchener in an exploration of the depths of friendship, the fragility of life, growing up gracefully and the art and science of drinking beer like a man", "poster_path": "/uBg8BcUQ2vEpzYyLbn6EwgwlHq8.jpg", "popularity": 4.987}, {"id": 47508, "video": false, "vote_count": 16, "vote_average": 5.3, "title": "The Wizard of Oz", "release_date": "1925-01-01", "original_language": "en", "original_title": "The Wizard of Oz", "genre_ids": [35, 14, 10751], "backdrop_path": "/gbnSIE0vW2cfwjzx5s28Crtm8KP.jpg", "adult": false, "overview": "A farm girl learns she is a princess and is swept away by a tornado to the land of Oz.", "poster_path": "/cPJRF8hC3tIqpRtffhgQ24YOO3g.jpg", "popularity": 3.491}, {"adult": false, "backdrop_path": "/4btZxA8yKeUhtzumWE0p4gg7Ph4.jpg", "genre_ids": [18, 10402], "id": 28026, "original_language": "en", "original_title": "Prey for Rock & Roll", "overview": "Prey for Rock &amp; Roll is set in the Los Angeles club scene of the late 1980s and follows the story of Jacki (Gershon) and her all-girl punk rock band, Clam Dandy. On the verge of turning 40, Jacki decides that if the band's one last shot at the big time is unsuccessful, she will give up her dreams of stardom. Along the way, the women are rocked by personal tragedies that threaten to break up the band before they can get their last shot at success.", "poster_path": "/bPClcKTmxP70duBwMQ3o5EXwoeq.jpg", "release_date": "2003-01-20", "title": "Prey for Rock & Roll", "video": false, "vote_average": 5.2, "vote_count": 12, "popularity": 5.293}, {"adult": false, "backdrop_path": "/zoQrdZYNQHiup300YPJbk73xQK0.jpg", "genre_ids": [35, 18], "id": 31020, "original_language": "en", "original_title": "Company", "overview": "Originally entitled Threes, its plot revolves around Bobby (a single man unable to commit fully to a steady relationship, let alone marriage), the five married couples who are his best friends, and his three girlfriends. Unlike most book musicals, which follow a clearly delineated plot, this movie is a concept musical composed of short vignettes, presented in no particular chronological order, linked by a celebration for Bobby's 35th birthday.", "poster_path": "/1MC1C6oTZrORGRSUtOztz9yIm6I.jpg", "release_date": "2008-02-20", "title": "Company", "video": false, "vote_average": 7.3, "vote_count": 10, "popularity": 4.57}, {"adult": false, "backdrop_path": "/mqMrcFqirc3uagEkB6ls1MscqDs.jpg", "genre_ids": [35], "id": 53358, "original_language": "en", "original_title": "Fubar II", "overview": "Terry and Dean head north to make sweet cash in the oil patch.", "poster_path": "/8dfN60cF0AYCek1WVclzWrNvGOW.jpg", "release_date": "2010-10-01", "title": "Fubar II", "video": false, "vote_average": 6.5, "vote_count": 12, "popularity": 3.82}, {"adult": false, "backdrop_path": "/2j9rtueSUQZdz5rEzfeMSgrDpl9.jpg", "genre_ids": [35, 18], "id": 140846, "original_language": "en", "original_title": "Company", "overview": "Company centers on Bobby, a confirmed bachelor, celebrating his 35th birthday with his ten closest friends, who happen to be five couples.", "poster_path": "/kpvvHmWTnVAl9oEiGouQ1GZKvmf.jpg", "release_date": "2011-06-15", "title": "Company", "video": false, "vote_average": 7.8, "vote_count": 12, "popularity": 3.637}, {"id": 1839, "video": false, "vote_count": 2, "vote_average": 8.0, "title": "Alias", "release_date": "1999-01-01", "original_language": "fr", "original_title": "Alias", "genre_ids": [18], "backdrop_path": null, "adult": false, "overview": "On her birthday, Juliette is to upset to worry about the strange cleaner who imitates her every move and lusts after her clothing.", "poster_path": null, "popularity": 1.565}, {"adult": false, "backdrop_path": null, "genre_ids": [18], "id": 101029, "original_language": "en", "original_title": "The Alley Tramp", "overview": "A teenage girl sets out on a sexual odyssey of having affairs with various men including her mother's secret boyfriend.", "poster_path": "/fROMWZNQNK8MyZbF4hWuAyrfrt1.jpg", "release_date": "1968-06-12", "title": "The Alley Tramp", "video": false, "vote_average": 3.7, "vote_count": 3, "popularity": 1.324}, {"adult": false, "backdrop_path": null, "genre_ids": [35, 16], "id": 161858, "original_language": "en", "original_title": "Betty Boop's Birthday Party", "overview": "Betty drudges in the kitchen alone until her friends (including Bimbo and Koko) hold a surprise birthday party for her\u2026 which gets rowdy.", "poster_path": "/qTTG0Ecs6hLkxpLGYEo7D5ADzx7.jpg", "release_date": "1933-04-20", "title": "Betty Boop's Birthday Party", "video": false, "vote_average": 6.5, "vote_count": 2, "popularity": 1.078}, {"adult": false, "backdrop_path": null, "genre_ids": [35], "id": 576166, "original_language": "en", "original_title": "Peggy", "overview": "Everything always seems to work out perfectly for Peggy, but her social graces are put to the test when she throws a birthday party for her eight-year-old son.", "poster_path": "/4BTTNesfKUgVmiodjzsrC7EgG7I.jpg", "release_date": "2018-09-24", "title": "Peggy", "video": false, "vote_average": 0.0, "vote_count": 0, "popularity": 0.626}], "total_pages": 2, "total_results": 27}, "recommendations": {"page": 1, "results": [{"adult": false, "backdrop_path": "/jtif2p2n0BXyLKoGNWoI6WExmvF.jpg", "genre_ids": [10749, 35], "id": 18739, "original_language": "en", "original_title": "Faintheart", "overview": "A romantic comedy set in the world of battle re-enactments, about an irresponsible guy who has to shape up in order to win back his wife.", "poster_path": "/chgSMWcVCSoDEM6Jz2pXG4BLpsR.jpg", "release_date": "2008-01-01", "title": "Faintheart", "video": false, "vote_average": 6.4, "vote_count": 15, "popularity": 4.962}, {"adult": false, "backdrop_path": "/rlQZwrgZiyapL0vCuGj3YK2aCTH.jpg", "genre_ids": [18], "id": 302135, "original_language": "en", "original_title": "Skating to New York", "overview": "The coming-of-age journey of 5 teenage boys who leave their small, Canadian town behind and risk skating across Lake Ontario to New York on the coldest day of the year.", "poster_path": "/AeHgpnbU9raQUaWXk0491rKQNKm.jpg", "release_date": "2013-11-02", "title": "Skating to New York", "video": false, "vote_average": 6.1, "vote_count": 11, "popularity": 3.464}, {"adult": false, "backdrop_path": "/pkQnxNtdnth2ahTDmbsvLVXfCSM.jpg", "genre_ids": [18, 10751], "id": 154537, "original_language": "en", "original_title": "Arcadia", "overview": "Greta's dad Tom is moving the family cross-country in a dented station wagon, promising a California paradise to his kids. All that's missing is Mom.", "poster_path": "/cjgGXLqpTlXtcvmjEIGI3p2LDV1.jpg", "release_date": "2012-02-13", "title": "Arcadia", "video": false, "vote_average": 6.2, "vote_count": 12, "popularity": 2.728}, {"adult": false, "backdrop_path": "/wDMKcnnJFKprjVUW6ZJohZh4H8t.jpg", "genre_ids": [18], "id": 389630, "original_language": "en", "original_title": "All We Had", "overview": "A mother struggles to make a better life for her daughter.", "poster_path": "/8tMBGup98UrGgu5kYN83iOfyHZn.jpg", "release_date": "2016-12-09", "title": "All We Had", "video": false, "vote_average": 5.7, "vote_count": 29, "popularity": 5.475}, {"adult": false, "backdrop_path": "/ls9MnVuJE5eZTwswCn39w0hrs2m.jpg", "genre_ids": [18], "id": 81626, "original_language": "en", "original_title": "The Dish & the Spoon", "overview": "Two wounded souls commiserate through drinking and aimless wandering while acting out the roles of the happy relationships that elude them in reality. Greta Gerwig and Olly Alexander deliver beautifully-tuned comic performances in their portrayal of young adults learning to cope with the unavoidable perils of emotional dependency.", "poster_path": "/viRTbuJMIskBJfN8u7qrekQSl4W.jpg", "release_date": "2011-03-12", "title": "The Dish & the Spoon", "video": false, "vote_average": 6.4, "vote_count": 18, "popularity": 3.145}, {"adult": false, "backdrop_path": "/flhrlqUgbXkPYKzad7on9DeOdp2.jpg", "genre_ids": [18, 53], "id": 174344, "original_language": "en", "original_title": "Whitewash", "overview": "In the harsh, wintry woods of rural Quebec, Bruce (Thomas Haden Church), a down-on-his-luck snowplow operator, accidentally kills a man during a drunken night joyride. Stricken with panic, he hides the body and takes to the deep wilderness in hopes of outrunning both the authorities and his own conscience. But as both begin to close in, Bruce falls apart mentally and morally and mysteries unravel to reveal who he was before the accident, the truth behind his victim, and the circumstances that brought them together in a single moment.", "poster_path": "/aHMpTV0mX6zkjYr3HpdO2lK6vXD.jpg", "release_date": "2013-04-19", "title": "Whitewash", "video": false, "vote_average": 6.4, "vote_count": 14, "popularity": 4.441}, {"adult": false, "backdrop_path": "/wviA0SA9X6lfJ3EUGIak7FYT8ye.jpg", "genre_ids": [14], "id": 60932, "original_language": "en", "original_title": "The Last Keepers", "overview": "This romantic fantasy movie is about two people who are the last survivors of an ancient line of goddess worshipers, who sell art at a shop. When their teenage daughter Rhea falls in love with a poetically inclined boy , she begins to develop magical powers of her own throwing everything into chaos.", "poster_path": "/mGdxfwBT4QrISBxERQvLQ9Jz4Lt.jpg", "release_date": "2013-01-04", "title": "The Last Keepers", "video": false, "vote_average": 4.8, "vote_count": 28, "popularity": 4.931}], "total_pages": 1, "total_results": 7}, "credits": {"cast": [{"cast_id": 13, "character": "Jennifer", "credit_id": "52fe4c37c3a368484e1ad2eb", "gender": 1, "id": 18974, "name": "Laura Prepon", "order": 1, "profile_path": "/7iRa28jqum5M1HuMs1yNVkTYpSY.jpg"}, {"cast_id": 4, "character": "Paul", "credit_id": "52fe4c37c3a368484e1ad2c7", "gender": 2, "id": 23821, "name": "Bryan Greenberg", "order": 2, "profile_path": "/7rBZrz0gwDERoHcWacFQYl5CSPp.jpg"}, {"cast_id": 5, "character": "Penny", "credit_id": "52fe4c37c3a368484e1ad2cb", "gender": 1, "id": 74303, "name": "Dreama Walker", "order": 3, "profile_path": "/xUz7yQLQOU2smhvhAvTJvBJVGPg.jpg"}, {"cast_id": 6, "character": "Stan", "credit_id": "52fe4c37c3a368484e1ad2cf", "gender": 2, "id": 130227, "name": "Matt Bush", "order": 4, "profile_path": "/l2Ey9kLyJ83eA1HCcs06icLT6de.jpg"}, {"cast_id": 7, "character": "Kenny", "credit_id": "52fe4c37c3a368484e1ad2d3", "gender": 2, "id": 965205, "name": "Tate Ellington", "order": 5, "profile_path": "/oEVLDskW1iyC06VAdnNdqKpHosy.jpg"}, {"cast_id": 8, "character": "Amanda", "credit_id": "52fe4c37c3a368484e1ad2d7", "gender": 1, "id": 1187106, "name": "Amber Stevens West", "order": 6, "profile_path": "/cekEtPDD53639Y0231Al8ov0uGr.jpg"}, {"cast_id": 9, "character": "Kim", "credit_id": "52fe4c37c3a368484e1ad2db", "gender": 1, "id": 121935, "name": "Pepper Binkley", "order": 7, "profile_path": "/8TzfBpdmbvO07Zze5e1rP4ibUF9.jpg"}, {"cast_id": 10, "character": "Pam", "credit_id": "52fe4c37c3a368484e1ad2df", "gender": 1, "id": 154826, "name": "Catherine Reitman", "order": 8, "profile_path": "/R4djSQIWONdcdtR7uHGTDsPIa4.jpg"}, {"cast_id": 11, "character": "Andre", "credit_id": "52fe4c37c3a368484e1ad2e3", "gender": 0, "id": 1187107, "name": "Baron Vaughn", "order": 9, "profile_path": "/uWOWEDTBuekStc6l5FPWq32qWdV.jpg"}, {"cast_id": 14, "character": "Nikki", "credit_id": "53df2bf4c3a3686c4900203a", "gender": 1, "id": 1224170, "name": "Jillian Clare", "order": 10, "profile_path": "/uaYz2bBo5WQFNVGmWmdai6Ilwgs.jpg"}, {"cast_id": 15, "character": "Peter", "credit_id": "572507b9c3a368172000070d", "gender": 2, "id": 589461, "name": "Jace Mclean", "order": 11, "profile_path": "/qekCov6YvTseKIJbkPJ814HkP2Z.jpg"}, {"cast_id": 16, "character": "Isabella", "credit_id": "572508359251416df9001dfa", "gender": 1, "id": 1568201, "name": "Tanya Giang", "order": 12, "profile_path": "/yFY4KBlB98ySaJtMD69iyCanbvB.jpg"}], "crew": [{"credit_id": "52fe4c37c3a368484e1ad2bd", "department": "Directing", "gender": 0, "id": 90574, "job": "Director", "name": "Ishai Setton", "profile_path": null}, {"credit_id": "52fe4c37c3a368484e1ad2c3", "department": "Writing", "gender": 0, "id": 1079598, "job": "Writer", "name": "Jim Beggarly", "profile_path": null}]}}