{"adult": false, "backdrop_path": "/uGkO7ypWJMoelQJSu69bziHEP0g.jpg", "belongs_to_collection": null, "budget": 0, "genres": [{"id": 28, "name": "Action"}, {"id": 18, "name": "Drama"}], "homepage": null, "id": 13770, "imdb_id": "tt0075716", "original_language": "en", "original_title": "Backroads", "overview": "Two strangers - one white, one black - steal a car in western NSW and head for the coast. Jack is abrasive, cunning and disparaging about Aborigines. Gary doesn\u2019t really care \u2013 he just wants to escape. En route, they pick up Gary\u2019s Uncle Joe, a French hitchhiker and a young woman who\u2019s running away. Their petty crimes escalate as they go, heading towards disaster.", "popularity": 1.162, "poster_path": "/aMX05t6uyIXn7RV9UCAb2rOeDeN.jpg", "production_companies": [], "production_countries": [{"iso_3166_1": "AU", "name": "Australia"}], "release_date": "1977-06-27", "revenue": 0, "runtime": 60, "spoken_languages": [{"iso_639_1": "en", "name": "English"}], "status": "Released", "tagline": "", "title": "Backroads", "video": false, "vote_average": 6.2, "vote_count": 4, "keywords": {"keywords": [{"id": 3094, "name": "australian"}, {"id": 160910, "name": "xenophobia"}]}, "similar": {"page": 1, "results": [{"id": 2976, "video": false, "vote_count": 1691, "vote_average": 6.6, "title": "Hairspray", "release_date": "2007-07-13", "original_language": "en", "original_title": "Hairspray", "genre_ids": [35, 18, 10749], "backdrop_path": "/yafOInYuEuK6FOw1oK40Lggp0TV.jpg", "adult": false, "overview": "Pleasantly plump teenager Tracy Turnblad auditions to be on Baltimore's most popular dance show - The Corny Collins Show - and lands a prime spot. Through her newfound fame, she becomes determined to help her friends and end the racial segregation that has been a staple of the show.", "poster_path": "/ndOpIx4BXpFCRRIxgMoGHxZxlE9.jpg", "popularity": 30.447}, {"id": 1713, "video": false, "vote_count": 149, "vote_average": 6.3, "title": "Jungle Fever", "release_date": "1991-06-07", "original_language": "en", "original_title": "Jungle Fever", "genre_ids": [18, 10749], "backdrop_path": "/9CawH3AyiENhC2qyIDBhTkDenrt.jpg", "adult": false, "overview": "A successful and married black man contemplates having an affair with a white girl from work. He's quite rightly worried that the racial difference would make an already taboo relationship even worse.", "poster_path": "/eSWv0PSnBqQbSBzce6iaDFkf6T9.jpg", "popularity": 7.356}, {"id": 8346, "video": false, "vote_count": 1269, "vote_average": 6.4, "title": "My Big Fat Greek Wedding", "release_date": "2002-02-22", "original_language": "en", "original_title": "My Big Fat Greek Wedding", "genre_ids": [35, 18, 10749], "backdrop_path": "/miFwBsaWZER118kg0AAuHcy1YOa.jpg", "adult": false, "overview": "A young Greek woman falls in love with a non-Greek and struggles to get her family to accept him while she comes to terms with her heritage and cultural identity.", "poster_path": "/vqGs8K6MdMHVPMTgMhzKHBVgu0t.jpg", "popularity": 17.695}, {"id": 73, "video": false, "vote_count": 6718, "vote_average": 8.4, "title": "American History X", "release_date": "1998-10-30", "original_language": "en", "original_title": "American History X", "genre_ids": [18], "backdrop_path": "/i9A0UMFg1hI2kLyCCwnmSbpT2cd.jpg", "adult": false, "overview": "Derek Vineyard is paroled after serving 3 years in prison for killing two thugs who tried to break into/steal his truck. Through his brother, Danny Vineyard's narration, we learn that before going to prison, Derek was a skinhead and the leader of a violent white supremacist gang that committed acts of racial crime throughout L.A. and his actions greatly influenced Danny. Reformed and fresh out of prison, Derek severs contact with the gang and becomes determined to keep Danny from going down the same violent path as he did.", "poster_path": "/fXepRAYOx1qC3wju7XdDGx60775.jpg", "popularity": 25.921}, {"adult": false, "backdrop_path": "/t52ImvH020yOvoEhH6sRzC6XoCj.jpg", "genre_ids": [18], "id": 406, "original_language": "fr", "original_title": "La Haine", "overview": "Aimlessly whiling away their days in the concrete environs of their dead-end suburbia, Vinz, Hubert, and Said - a Jew, African, and an Arab - give human faces to France's immigrant populations, their bristling resentment at their social marginalization slowly simmering until it reaches a climactic boiling point.", "poster_path": "/jTzBED0leGPwWDqNewye11qzJgd.jpg", "release_date": "1995-05-31", "title": "La Haine", "video": false, "vote_average": 8.0, "vote_count": 1734, "popularity": 16.874}, {"adult": false, "backdrop_path": "/2lZYvShWuVThLM6Oo8zfakdBMqw.jpg", "genre_ids": [18, 10749], "id": 1365, "original_language": "en", "original_title": "Monster's Ball", "overview": "Set in the southern USA, a racist white man, Hank, falls in love with a black woman named Leticia. Ironically, Hank is a prison guard working on Death Row who executed Leticia's husband. Hank and Leticia's inter-racial affair leads to confusion and new ideas for the two unlikely lovers.", "poster_path": "/s7o0AyOFIYNjTe008pV6EZMI2IP.jpg", "release_date": "2001-11-11", "title": "Monster's Ball", "video": false, "vote_average": 6.7, "vote_count": 500, "popularity": 13.305}, {"adult": false, "backdrop_path": "/yosGyMJ2CkavMSGx6PhcZO6kCAV.jpg", "genre_ids": [878], "id": 17654, "original_language": "en", "original_title": "District 9", "overview": "Thirty years ago, aliens arrive on Earth. Not to conquer or give aid, but to find refuge from their dying planet. Separated from humans in a South African area called District 9, the aliens are managed by Multi-National United, which is unconcerned with the aliens' welfare but will do anything to master their advanced technology. When a company field agent contracts a mysterious virus that begins to alter his DNA, there is only one place he can hide: District 9.", "poster_path": "/axFmCRNQsW6Bto8XuJKo08MPPV5.jpg", "release_date": "2009-08-05", "title": "District 9", "video": false, "vote_average": 7.3, "vote_count": 5940, "popularity": 17.44}, {"id": 118957, "video": false, "vote_count": 417, "vote_average": 5.5, "title": "Bait", "release_date": "2012-09-05", "original_language": "en", "original_title": "Bait", "genre_ids": [28, 27, 53], "backdrop_path": "/11wwLaMXSMCyL9z2PhuSDEyzz8m.jpg", "adult": false, "overview": "A freak tsunami traps shoppers at a coastal Australian supermarket inside the building ... along with a 12-foot great white shark.", "poster_path": "/e2OIr4y90ZZjIRWQ0XBOVzpBn4x.jpg", "popularity": 12.746}, {"adult": false, "backdrop_path": "/xLIXVKahMdhdWL3fdWxKLPmgJ7S.jpg", "genre_ids": [80, 18, 10770], "id": 12219, "original_language": "en", "original_title": "12 Angry Men", "overview": "During the trial of a man accused of his father's murder, a lone juror takes a stand against the guilty verdict handed down by the others as a result of their preconceptions and prejudices.", "poster_path": "/ffPbzJWPUnextP5EP7SqYl3YBMY.jpg", "release_date": "1997-08-17", "title": "12 Angry Men", "video": false, "vote_average": 7.8, "vote_count": 139, "popularity": 9.36}, {"adult": false, "backdrop_path": "/7A6IWD6tA5h1zeVXJ8KtfqvDPmS.jpg", "genre_ids": [18, 10752], "id": 10592, "original_language": "en", "original_title": "Hart's War", "overview": "Fourth-generation Army Col. William McNamara is imprisoned in a brutal German POW camp. Still, as the senior-ranking American officer, he commands his fellow inmates, keeping a sense of honor alive in a place where honor is easy to destroy, all under the dangerous eye of the Luftwafe vetran Col. Wilhelm Visser. Never giving up the fight to win the war, McNamara is silently planning, waiting for his moment to strike back at the enemy. A murder in the camp gives him the chance to set a risky plan in motion. With a court martial to keep Visser and the Germans distracted, McNamara orchestrates a cunning scheme to escape and destroy a nearby munitions plant, enlisting the unwitting help of young Lt. Tommy Hart. Together with his men, McNamara uses a hero's resolve to carry out his mission, ultimately forced to weigh the value of his life against the good of his country.", "poster_path": "/yRUhSU7vzs5ePa72LNPcKKCCMZ5.jpg", "release_date": "2002-02-15", "title": "Hart's War", "video": false, "vote_average": 6.3, "vote_count": 468, "popularity": 10.297}, {"id": 1607, "video": false, "vote_count": 920, "vote_average": 7.6, "title": "A Bronx Tale", "release_date": "1993-09-14", "original_language": "en", "original_title": "A Bronx Tale", "genre_ids": [80, 18], "backdrop_path": "/aRMZOhLj6IjnmDnRGjblXYMOPxR.jpg", "adult": false, "overview": "Set in the Bronx during the tumultuous 1960s, an adolescent boy is torn between his honest, working-class father and a violent yet charismatic crime boss. Complicating matters is the youngster's growing attraction - forbidden in his neighborhood - for a beautiful black girl.", "poster_path": "/sDbO6LmLYtyqAoFTPpRcMgPSCEO.jpg", "popularity": 15.931}, {"id": 9588, "video": false, "vote_count": 185, "vote_average": 6.6, "title": "Quigley Down Under", "release_date": "1990-10-17", "original_language": "en", "original_title": "Quigley Down Under", "genre_ids": [37], "backdrop_path": "/hCRKwCg58HpQsPpkHdQmE9oQ2bk.jpg", "adult": false, "overview": "American Matt Quigley answers Australian land baron Elliott Marston's ad for a sharpshooter to kill the dingoes on his property. But when Quigley finds out that Marston's real target is the aborigines, Quigley hits the road. Now, even American expatriate Crazy Cora can't keep Quigley safe in his cat-and-mouse game with the homicidal Marston.", "poster_path": "/zaWZMk9t12lvb23hRrDmlmWgFKF.jpg", "popularity": 12.866}, {"adult": false, "backdrop_path": "/shyV7mvHa9bDojeMfb2tZDlGJjF.jpg", "genre_ids": [18], "id": 10741, "original_language": "en", "original_title": "Bobby", "overview": "In 1968 the lives of a retired doorman, hotel manager, lounge singer, busboy, beautician and others intersect in the wake of Robert F. Kennedy's assassination at the Ambassador Hotel in Los Angeles.", "poster_path": "/a38CTs2mJ2uDHHH6mUJmuGH8RVI.jpg", "release_date": "2006-09-05", "title": "Bobby", "video": false, "vote_average": 6.6, "vote_count": 216, "popularity": 8.868}, {"id": 9959, "video": false, "vote_count": 176, "vote_average": 5.4, "title": "Freedomland", "release_date": "2006-02-17", "original_language": "en", "original_title": "Freedomland", "genre_ids": [80, 18, 9648, 53], "backdrop_path": "/zUc3ftMCxKnmnvMLdUXFLC0bWbt.jpg", "adult": false, "overview": "A black police detective must solve a strange case of a kidnapped boy and deal with a big racial protest.", "poster_path": "/fz8Jc8njDsDo49oIKSkxcUUjwvK.jpg", "popularity": 9.238}, {"id": 479, "video": false, "vote_count": 647, "vote_average": 5.8, "title": "Shaft", "release_date": "2000-06-15", "original_language": "en", "original_title": "Shaft", "genre_ids": [28, 12, 80, 53], "backdrop_path": "/2p9NtyrnFZtGRyCGN5SBk1eARNK.jpg", "adult": false, "overview": "New York police detective John Shaft arrests Walter Wade Jr. for a racially motivated slaying. But the only eyewitness disappears, and Wade jumps bail for Switzerland. Two years later Wade returns to face trial, confident his money and influence will get him acquitted -- especially since he's paid a drug kingpin to kill the witness.", "poster_path": "/bqlpFp96uWu2VDpsm4MVvLXdumh.jpg", "popularity": 10.732}, {"id": 11065, "video": false, "vote_count": 141, "vote_average": 5.9, "title": "O", "release_date": "2001-08-31", "original_language": "en", "original_title": "O", "genre_ids": [18, 53, 10749], "backdrop_path": "/fc2mifxyCXyr66FMSmsfUXVREEg.jpg", "adult": false, "overview": "Even though he's the only black student at the elite Palmetto Grove Academy, star basketball player and future NBA hopeful Odin James has the adoration of all, including the team's coach and the Dean's beautiful daughter Desi. Odin's troubled friend Hugo, the coach's son, is deeply resentful of his father's preference of Odin on and off the court. When Hugo plots a diabolical scheme to sow the seed of mistrust between O and Desi, it sets in motion a disturbing chain of events which erupts into a firestorm of breathtaking intensity.", "poster_path": "/5tBxJ030QaIcPRdGxIE7kgZdyA5.jpg", "popularity": 9.075}, {"adult": false, "backdrop_path": "/2c5rkSPvdLfB0uzuHUtJiZ1sIC8.jpg", "genre_ids": [18], "id": 10637, "original_language": "en", "original_title": "Remember the Titans", "overview": "After leading his football team to 15 winning seasons, coach Bill Yoast is demoted and replaced by Herman Boone \u2013 tough, opinionated and as different from the beloved Yoast as he could be. The two men learn to overcome their differences and turn a group of hostile young men into champions.", "poster_path": "/iI12IRzif2VjTkQJRDQw3WyWKdS.jpg", "release_date": "2000-09-29", "title": "Remember the Titans", "video": false, "vote_average": 7.6, "vote_count": 1462, "popularity": 10.74}, {"id": 10493, "video": false, "vote_count": 350, "vote_average": 6.6, "title": "Dead Calm", "release_date": "1989-04-07", "original_language": "en", "original_title": "Dead Calm", "genre_ids": [27, 53], "backdrop_path": "/lX2v3jvzK6hsisrWJrZxteahAAL.jpg", "adult": false, "overview": "An Australian couple take a sailing trip in the Pacific to forget about a terrible accident. While on the open sea, in dead calm, they come across a ship with one survivor who is not at all what he seems.", "poster_path": "/oA0rhf1ItxjMobrzjZG24uKAylU.jpg", "popularity": 11.347}, {"adult": false, "backdrop_path": "/frkFxkU02YpPDi6bOSCwUBSd6I4.jpg", "genre_ids": [27, 53], "id": 9885, "original_language": "en", "original_title": "Wolf Creek", "overview": "Stranded backpackers in remote Australia fall prey to a murderous bushman, who offers to fix their car, then takes them captive.", "poster_path": "/eiQqXee0LwUvwHWp6QnZDoP1qdI.jpg", "release_date": "2005-01-01", "title": "Wolf Creek", "video": false, "vote_average": 6.2, "vote_count": 574, "popularity": 11.096}, {"adult": false, "backdrop_path": "/vSVRWaCTinfGhC7xesdJ4Pwf3MN.jpg", "genre_ids": [35, 18, 10751, 10749], "id": 10464, "original_language": "en", "original_title": "Corrina, Corrina", "overview": "When Manny Singer's wife dies, his young daughter Molly becomes mute and withdrawn. To help cope with looking after Molly, he hires sassy housekeeper Corrina Washington, who coaxes Molly out of her shell and shows father and daughter a whole new way of life. Manny and Corrina's friendship delights Molly and enrages the other townspeople.", "poster_path": "/lUmJNC3RAW0OxAtDP8CDEld9pFq.jpg", "release_date": "1994-08-12", "title": "Corrina, Corrina", "video": false, "vote_average": 6.6, "vote_count": 239, "popularity": 8.779}], "total_pages": 11, "total_results": 209}, "recommendations": {"page": 1, "results": [], "total_pages": 1, "total_results": 0}, "credits": {"cast": [{"cast_id": 11, "character": "Jack", "credit_id": "52fe45979251416c7505bb0b", "gender": 2, "id": 23, "name": "Bill Hunter", "order": 0, "profile_path": "/zCWRTbsiCKiHapWm2JRjIUHrpbS.jpg"}, {"cast_id": 12, "character": "Gary", "credit_id": "52fe45979251416c7505bb0f", "gender": 0, "id": 75050, "name": "Gary Foley", "order": 1, "profile_path": null}, {"cast_id": 13, "character": "Joe", "credit_id": "52fe45979251416c7505bb13", "gender": 0, "id": 75051, "name": "Zack Martin", "order": 2, "profile_path": null}, {"cast_id": 14, "character": "Jean Claude", "credit_id": "52fe45979251416c7505bb17", "gender": 2, "id": 18359, "name": "Terry Camilleri", "order": 3, "profile_path": "/t1lVlizt1gXlVsCNNZqXO29rMnz.jpg"}, {"cast_id": 15, "character": "Anna", "credit_id": "52fe45979251416c7505bb1b", "gender": 1, "id": 75052, "name": "Julie McGregor", "order": 4, "profile_path": null}, {"cast_id": 16, "character": "Aboriginal Woman", "credit_id": "52fe45979251416c7505bb1f", "gender": 0, "id": 75053, "name": "Essie Coffey", "order": 5, "profile_path": null}, {"cast_id": 17, "character": "Shopkeeper", "credit_id": "52fe45979251416c7505bb23", "gender": 0, "id": 75054, "name": "Allan Penney", "order": 6, "profile_path": null}], "crew": [{"credit_id": "52fe45969251416c7505bad1", "department": "Directing", "gender": 2, "id": 13015, "job": "Director", "name": "Phillip Noyce", "profile_path": "/Ahe8rRwCQ18fxtecekD1gYTXiXv.jpg"}, {"credit_id": "52fe45969251416c7505bad7", "department": "Production", "gender": 0, "id": 75044, "job": "Producer", "name": "Elizabeth Knight", "profile_path": null}, {"credit_id": "52fe45969251416c7505badd", "department": "Production", "gender": 2, "id": 13015, "job": "Producer", "name": "Phillip Noyce", "profile_path": "/Ahe8rRwCQ18fxtecekD1gYTXiXv.jpg"}, {"credit_id": "52fe45979251416c7505bae9", "department": "Editing", "gender": 0, "id": 75045, "job": "Editor", "name": "David Huggett", "profile_path": null}, {"credit_id": "52fe45979251416c7505bb07", "department": "Production", "gender": 0, "id": 75049, "job": "Publicist", "name": "Mary Moody", "profile_path": null}, {"credit_id": "571aee73c3a3680bec00006b", "department": "Camera", "gender": 2, "id": 31027, "job": "Director of Photography", "name": "Russell Boyd", "profile_path": "/3rGlp9lSNSqcjdiF4lt9QHQK2GS.jpg"}, {"credit_id": "571aee8c925141715d0030af", "department": "Sound", "gender": 0, "id": 75047, "job": "Sound", "name": "Lloyd Carrick", "profile_path": null}]}}