{"adult": false, "backdrop_path": "/dU7voa3xyloIoVUYWLlSJVJAkk1.jpg", "belongs_to_collection": null, "budget": 0, "genres": [{"id": 18, "name": "Drama"}], "homepage": "http://aso.gov.au/titles/features/the-boys/", "id": 13821, "imdb_id": "tt0139898", "original_language": "en", "original_title": "The Boys", "overview": "Brett Sprague is a violent and psychopathic man, who is released on parole after serving a sentence for assault. As he returns to his family house and we watch him and his brothers, Stevie and Glenn, for the next 24 hours, it becomes clear this day will not end well.", "popularity": 1.977, "poster_path": "/jLyfVrwm5028RPhx5oXmJv01uSr.jpg", "production_companies": [{"id": 418, "logo_path": null, "name": "New South Wales Film & Television Office", "origin_country": "AU"}, {"id": 1243, "logo_path": null, "name": "Arena Films", "origin_country": "FR"}, {"id": 2816, "logo_path": null, "name": "Axiom Films", "origin_country": ""}, {"id": 2817, "logo_path": null, "name": "Globe Films", "origin_country": ""}, {"id": 2818, "logo_path": null, "name": "SBS Independent", "origin_country": ""}, {"id": 2819, "logo_path": null, "name": "Screen Partners Ltd.", "origin_country": ""}], "production_countries": [{"iso_3166_1": "AU", "name": "Australia"}], "release_date": "1998-05-07", "revenue": 0, "runtime": 86, "spoken_languages": [{"iso_639_1": "en", "name": "English"}], "status": "Released", "tagline": "", "title": "The Boys", "video": false, "vote_average": 6.5, "vote_count": 5, "keywords": {"keywords": [{"id": 1563, "name": "prisoner"}, {"id": 3094, "name": "australian"}, {"id": 5301, "name": "brother"}, {"id": 5656, "name": "sydney"}, {"id": 5657, "name": "australia"}, {"id": 6259, "name": "psychopath"}, {"id": 8622, "name": "parole board"}]}, "similar": {"page": 1, "results": [{"id": 26405, "video": false, "vote_count": 116, "vote_average": 7.5, "title": "Wake in Fright", "release_date": "1971-07-21", "original_language": "en", "original_title": "Wake in Fright", "genre_ids": [18, 53], "backdrop_path": "/jqNFwQQ1HBUpu9M6K1Ycv2OGzjO.jpg", "adult": false, "overview": "Wake in Fright is the story of John Grant, a bonded teacher who arrives in the rough outback mining town of Bundanyabba planning to stay overnight before catching the plane to Sydney, but as one night stretches into several he plunges headlong into his own destruction.", "poster_path": "/1H4L68aEvVThmt1V1PTYyaE8LpE.jpg", "popularity": 8.293}, {"id": 483411, "video": false, "vote_count": 48, "vote_average": 6.4, "title": "Ladies in Black", "release_date": "2018-10-18", "original_language": "en", "original_title": "Ladies in Black", "genre_ids": [35, 18], "backdrop_path": "/gIkqcEqz0rj6rK1knYAOoXpwA3y.jpg", "adult": false, "overview": "Adapted from the bestselling novel by Madeleine St John, Ladies in Black is an alluring and tender-hearted comedy drama about the lives of a group of department store employees in 1959 Sydney.", "poster_path": "/sIC0Y0dGLnxbdCksftZ38FZ2c61.jpg", "popularity": 7.026}, {"id": 9555, "video": false, "vote_count": 181, "vote_average": 7.0, "title": "Rabbit-Proof Fence", "release_date": "2002-02-04", "original_language": "en", "original_title": "Rabbit-Proof Fence", "genre_ids": [28, 12, 18, 36], "backdrop_path": "/rFvKtkrO2prjidztdAW0ITzWQSe.jpg", "adult": false, "overview": "In 1931, three aboriginal girls escape after being plucked from their homes to be trained as domestic staff and set off on a trek across the Outback.", "poster_path": "/rxofVzkTIBTAIClCB0F49H8SVkO.jpg", "popularity": 11.341}, {"adult": false, "backdrop_path": "/arcpWGGnUkGkakOwZo7xfPsaz7h.jpg", "genre_ids": [9648, 53], "id": 2832, "original_language": "en", "original_title": "Identity", "overview": "Complete strangers stranded at a remote desert motel during a raging storm soon find themselves the target of a deranged murderer. As their numbers thin out, the travelers begin to turn on each other, as each tries to figure out who the killer is.", "poster_path": "/xSNSp2wmCUwFavxdkMF417hBc39.jpg", "release_date": "2003-04-25", "title": "Identity", "video": false, "vote_average": 7.2, "vote_count": 2089, "popularity": 15.517}, {"adult": false, "backdrop_path": "/7ZyiMee2s7kARJ0IvJOIgTyvmdp.jpg", "genre_ids": [12, 28, 53, 878], "id": 9659, "original_language": "en", "original_title": "Mad Max", "overview": "In a postapocalyptic future, jaded cop Max Rockatansky (Mel Gibson) is ready to retire. But his world is shattered when a malicious gang murders his family as an act of retaliation, forcing a devastated Max to hit the open road seeking vengeance. As he travels the Australian outback's empty stretches of highway, he tours the bloodstained battlegrounds ruled by marauding bikers who feed on violence.", "poster_path": "/5LrI4GiCSrChgkdskVZiwv643Kg.jpg", "release_date": "1979-04-12", "title": "Mad Max", "video": false, "vote_average": 6.7, "vote_count": 2361, "popularity": 25.21}, {"adult": false, "backdrop_path": "/45V39ywEYIUBwTOg9fAs4khQO6s.jpg", "genre_ids": [18, 53, 9648], "id": 245846, "original_language": "en", "original_title": "Strangerland", "overview": "Newly arrived to a remote desert town, Catherine and Matthew are tormented by a suspicion when their two teenage children mysteriously vanish.", "poster_path": "/cSGg9nvkB7djAUUNxk94gF0g6h4.jpg", "release_date": "2015-07-01", "title": "Strangerland", "video": false, "vote_average": 5.3, "vote_count": 150, "popularity": 10.403}, {"id": 199534, "video": false, "vote_count": 291, "vote_average": 6.2, "title": "Wolf Creek 2", "release_date": "2013-08-30", "original_language": "en", "original_title": "Wolf Creek 2", "genre_ids": [27, 53], "backdrop_path": "/jmxpUMMy63RUPCOa7sDYKc1xyyf.jpg", "adult": false, "overview": "Lured by the promise of an Australian holiday, backpackers Rutger, Katarina and Paul visit the notorious Wolf Creek Crater.  Their dream Outback adventure soon becomes a horrific reality when they encounter the site's most infamous local, the last man any traveller to the region ever wants to meet\u2014Mick Taylor.  As the backpackers flee, Mick pursues them on an epic white knuckled rampage across hostile wasteland.", "poster_path": "/gTwyc1PDHabDauWUGm3xNOm4RyF.jpg", "popularity": 9.336}, {"adult": false, "backdrop_path": "/etybioibi04QJK9xxn3Rv5NLuKs.jpg", "genre_ids": [12, 28, 53, 878], "id": 8810, "original_language": "en", "original_title": "Mad Max 2", "overview": "Max Rockatansky returns as the heroic loner who drives the dusty roads of a postapocalyptic Australian Outback in an unending search for gasoline. Arrayed against him and the other scraggly defendants of a fuel-depot encampment are the bizarre warriors commanded by the charismatic Lord Humungus, a violent leader whose scruples are as barren as the surrounding landscape.", "poster_path": "/tVaClEA7n0MxaY8sb81nHwh6XNW.jpg", "release_date": "1981-12-24", "title": "Mad Max 2", "video": false, "vote_average": 7.4, "vote_count": 1898, "popularity": 20.303}, {"id": 118957, "video": false, "vote_count": 417, "vote_average": 5.5, "title": "Bait", "release_date": "2012-09-05", "original_language": "en", "original_title": "Bait", "genre_ids": [28, 27, 53], "backdrop_path": "/11wwLaMXSMCyL9z2PhuSDEyzz8m.jpg", "adult": false, "overview": "A freak tsunami traps shoppers at a coastal Australian supermarket inside the building ... along with a 12-foot great white shark.", "poster_path": "/e2OIr4y90ZZjIRWQ0XBOVzpBn4x.jpg", "popularity": 12.746}, {"id": 8982, "video": false, "vote_count": 327, "vote_average": 6.9, "title": "The Protector", "release_date": "2005-08-11", "original_language": "th", "original_title": "\u0e15\u0e49\u0e21\u0e22\u0e33\u0e01\u0e38\u0e49\u0e07", "genre_ids": [28, 80, 18, 53], "backdrop_path": "/iHxw595q8u34LKmVkdjn3cB0QVd.jpg", "adult": false, "overview": "In Bangkok, the young Kham was raised by his father in the jungle with elephants as members of their family. When his old elephant and the baby Kern are stolen by criminals, Kham finds that the animals were sent to Sidney. He travels to Australia, where he locates the baby elephant in a restaurant owned by the evil Madame Rose, the leader of an international Thai mafia. With the support of the efficient Thai sergeant Mark, who was involved in a conspiracy, Kham fights to rescue the animal from the mobsters.", "poster_path": "/wgipNtPvjzqqilVMKxZWIFKyGF5.jpg", "popularity": 21.505}, {"id": 9355, "video": false, "vote_count": 1488, "vote_average": 6.1, "title": "Mad Max Beyond Thunderdome", "release_date": "1985-06-29", "original_language": "en", "original_title": "Mad Max Beyond Thunderdome", "genre_ids": [28, 12, 878], "backdrop_path": "/r3MhvwPC8zFBAv8HL5WBtl3F8cn.jpg", "adult": false, "overview": "Mad Max becomes a pawn in a decadent oasis of a technological society, and when exiled, becomes the deliverer of a colony of children.", "poster_path": "/9ciqnBU2YlMtMrqNwRzhmaMeL9l.jpg", "popularity": 18.594}, {"adult": false, "backdrop_path": "/4pIPqyhSA0BzKCjaLCEwAKNvKfX.jpg", "genre_ids": [18], "id": 4012, "original_language": "en", "original_title": "The Believer", "overview": "A hardcore US racist skinhead who, because of his intelligence, leads a gang dedicated to fighting the enemy: the supposed American-Jewish conspiracy for domination. However, he's hiding a secret: he's Jewish-born, a brilliant scholar whose questioning of the tenets of his faith has left him angry and confused, turning against those who he thinks have a tragic history of their own making.", "poster_path": "/ziXye4ih6Hd7jOezr5KUQw8I8G8.jpg", "release_date": "2001-10-10", "title": "The Believer", "video": false, "vote_average": 7.1, "vote_count": 328, "popularity": 8.503}, {"id": 16608, "video": false, "vote_count": 359, "vote_average": 7.2, "title": "The Proposition", "release_date": "2005-10-06", "original_language": "en", "original_title": "The Proposition", "genre_ids": [28, 12, 80, 18, 53, 37], "backdrop_path": "/pPNbjarj5cc6xAbRoNixnroN2Ar.jpg", "adult": false, "overview": "Set in the Australian outback in the 1880s, the movie follows the series of events following the horrific rape and murder of the Hopkins family, allegedly committed by the infamous Burns brothers gang. Captain Morris Stanley captures Charlie Burns and gives him 9 days to kill his older dangerous psychopathic brother, or else they'll hang his younger mentally slow brother on Christmas Day.", "poster_path": "/e4j7s9SzaJTfjkorMX1iY38IzZi.jpg", "popularity": 11.35}, {"id": 26178, "video": false, "vote_count": 71, "vote_average": 5.8, "title": "Razorback", "release_date": "1984-04-19", "original_language": "en", "original_title": "Razorback", "genre_ids": [27], "backdrop_path": "/7JZVnIwgNRi6PJdxCgTIibWENT.jpg", "adult": false, "overview": "In the Australian outback a vicious wild boar kills and causes havoc to a small community.", "poster_path": "/u5dVvyZeYFCQwljsPY7DsSwjDG7.jpg", "popularity": 8.881}, {"id": 10493, "video": false, "vote_count": 350, "vote_average": 6.6, "title": "Dead Calm", "release_date": "1989-04-07", "original_language": "en", "original_title": "Dead Calm", "genre_ids": [27, 53], "backdrop_path": "/lX2v3jvzK6hsisrWJrZxteahAAL.jpg", "adult": false, "overview": "An Australian couple take a sailing trip in the Pacific to forget about a terrible accident. While on the open sea, in dead calm, they come across a ship with one survivor who is not at all what he seems.", "poster_path": "/oA0rhf1ItxjMobrzjZG24uKAylU.jpg", "popularity": 14.644}, {"adult": false, "backdrop_path": "/frkFxkU02YpPDi6bOSCwUBSd6I4.jpg", "genre_ids": [27, 53], "id": 9885, "original_language": "en", "original_title": "Wolf Creek", "overview": "Stranded backpackers in remote Australia fall prey to a murderous bushman, who offers to fix their car, then takes them captive.", "poster_path": "/eiQqXee0LwUvwHWp6QnZDoP1qdI.jpg", "release_date": "2005-01-01", "title": "Wolf Creek", "video": false, "vote_average": 6.2, "vote_count": 574, "popularity": 13.96}, {"adult": false, "backdrop_path": "/eg5XyfnonAJHuLvw0aANU9wJQ8E.jpg", "genre_ids": [12, 18], "id": 36040, "original_language": "en", "original_title": "Walkabout", "overview": "Under the pretense of having a picnic, a geologist takes his teenage daughter and 6-year-old son into the Australian outback and attempts to shoot them. When he fails, he turns the gun on himself, and the two city-bred children must contend with harsh wilderness alone. They are saved by a chance encounter with an Aborigine boy who shows them how to survive, and in the process underscores the disharmony between nature and modern life.", "poster_path": "/24vooYt5StgtgcQObVr1GHuM5gy.jpg", "release_date": "1971-07-01", "title": "Walkabout", "video": false, "vote_average": 7.4, "vote_count": 180, "popularity": 7.572}, {"id": 10412, "video": false, "vote_count": 252, "vote_average": 6.6, "title": "Romper Stomper", "release_date": "1992-03-05", "original_language": "en", "original_title": "Romper Stomper", "genre_ids": [28, 18, 53], "backdrop_path": "/yIAwrHHGZRlddCnPs6niueDKRq7.jpg", "adult": false, "overview": "Nazi skinheads in Melbourne take out their anger on local Vietnamese, who are seen as threatening racial purity. Finally the Vietnamese have had enough and confront the skinheads in an all-out confrontation, sending the skinheads running. A woman who is prone to epileptic seizures joins the skins' merry band, and helps them on their run from justice, but is her affliction also a sign of impurity?", "poster_path": "/wW9J9InM3gdZS6vcoJVQJo9pIVj.jpg", "popularity": 10.109}, {"id": 2759, "video": false, "vote_count": 386, "vote_average": 7.3, "title": "The Adventures of Priscilla, Queen of the Desert", "release_date": "1994-05-31", "original_language": "en", "original_title": "The Adventures of Priscilla, Queen of the Desert", "genre_ids": [35, 18], "backdrop_path": "/1lwk7ezk7MknKCM47FEPNtIsWMP.jpg", "adult": false, "overview": "Two drag-queens and a transsexual contract to perform a drag show at a resort in Alice Springs, and head west from Sydney aboard their lavender bus, named 'Priscilla'. En route, they discover that the woman they've contracted with is the wife of one of the drag queens. Their bus breaks down, and is repaired by Bob, who then travels on with them.", "poster_path": "/pmHRJPlAEiYATBIgKAa0IyY6Or7.jpg", "popularity": 10.884}, {"id": 209269, "video": false, "vote_count": 93, "vote_average": 5.7, "title": "Felony", "release_date": "2014-08-28", "original_language": "en", "original_title": "Felony", "genre_ids": [80, 9648, 53], "backdrop_path": "/jofxRAcEIdgC3cWYqn68qvvb9uS.jpg", "adult": false, "overview": "Three detectives become embroiled in a tense struggle after a tragic accident that leaves a child in critical condition. One is guilty of a crime, one will try to cover it up, and the other attempts to expose it. How far will these men go to disguise and unravel the truth?", "poster_path": "/5z67bSHEegu40uR8KQzFoyFVmq6.jpg", "popularity": 7.678}], "total_pages": 5, "total_results": 90}, "recommendations": {"page": 1, "results": [], "total_pages": 1, "total_results": 0}, "credits": {"cast": [{"cast_id": 1, "character": "Brett Sprague", "credit_id": "52fe45a89251416c7505df1b", "gender": 2, "id": 1371, "name": "David Wenham", "order": 0, "profile_path": "/xDUXLTF5i2fYx7eSEAR3IdaUb9y.jpg"}, {"cast_id": 2, "character": "Michelle", "credit_id": "52fe45a89251416c7505df1f", "gender": 1, "id": 3051, "name": "Toni Collette", "order": 1, "profile_path": "/oMps1ZPH3dHmqZmrpZcRiyUBgA.jpg"}, {"cast_id": 3, "character": "Sandra Sprague", "credit_id": "52fe45a89251416c7505df23", "gender": 1, "id": 75710, "name": "Lynette Curran", "order": 2, "profile_path": "/dISGnwZckZ5KczWD3WNaUVnH8x5.jpg"}, {"cast_id": 4, "character": "Glenn Sprague", "credit_id": "52fe45a89251416c7505df27", "gender": 2, "id": 15337, "name": "John Polson", "order": 3, "profile_path": "/rsjpQFAvQSo05HflPSCODCCbYFl.jpg"}, {"cast_id": 5, "character": "Stevie Sprague", "credit_id": "52fe45a89251416c7505df2b", "gender": 2, "id": 75711, "name": "Anthony Hayes", "order": 4, "profile_path": "/6Uros6khPptET5CgkmYkU0hJla7.jpg"}, {"cast_id": 6, "character": "Jackie", "credit_id": "52fe45a89251416c7505df2f", "gender": 1, "id": 75712, "name": "Jeanette Cronin", "order": 5, "profile_path": "/fxyUQYppnKpob76ntlwlICPlQF5.jpg"}, {"cast_id": 7, "character": "Nola", "credit_id": "52fe45a89251416c7505df33", "gender": 1, "id": 75713, "name": "Anna Lise Phillips", "order": 6, "profile_path": "/twNiQKAmpyVBJmuuXR75xDFN6DI.jpg"}, {"cast_id": 8, "character": "George", "credit_id": "52fe45a89251416c7505df37", "gender": 2, "id": 7249, "name": "Pete Smith", "order": 7, "profile_path": "/gYVa8DLfNqr88GEngJr6o29dtMc.jpg"}, {"cast_id": 9, "character": "Nick", "credit_id": "52fe45a89251416c7505df3b", "gender": 0, "id": 75714, "name": "Sal Sharah", "order": 8, "profile_path": null}, {"cast_id": 10, "character": "Jailer", "credit_id": "52fe45a89251416c7505df3f", "gender": 0, "id": 75715, "name": "Lawrence Woodward", "order": 9, "profile_path": "/dAcZMeJmn5WzdD9SdAHGDlDq7CO.jpg"}, {"cast_id": 11, "character": "Graham Newman", "credit_id": "52fe45a89251416c7505df43", "gender": 0, "id": 75716, "name": "Peter Hehir", "order": 10, "profile_path": null}, {"cast_id": 12, "character": "Sparrow", "credit_id": "52fe45a89251416c7505df47", "gender": 0, "id": 75717, "name": "Andrew Heys", "order": 11, "profile_path": null}, {"cast_id": 13, "character": "Policeman", "credit_id": "52fe45a89251416c7505df4b", "gender": 0, "id": 75718, "name": "Teo Gebert", "order": 12, "profile_path": "/q3mZYQOtSoEE41x0iDgR2gjOLJs.jpg"}, {"cast_id": 14, "character": "Policeman", "credit_id": "52fe45a89251416c7505df4f", "gender": 0, "id": 75719, "name": "Anthony Kierann", "order": 13, "profile_path": null}, {"cast_id": 15, "character": "Commissioner", "credit_id": "52fe45a89251416c7505df53", "gender": 0, "id": 75720, "name": "Stephen Leeder", "order": 14, "profile_path": "/tSzZxPYjpKReHQYK98tpsQ81iWY.jpg"}, {"cast_id": 16, "character": "Girl", "credit_id": "52fe45a89251416c7505df57", "gender": 1, "id": 75721, "name": "Veronica Neave", "order": 15, "profile_path": "/dgCaFynPuunhcfxd3EbfIOutVQe.jpg"}, {"cast_id": 17, "character": "Boy", "credit_id": "52fe45a89251416c7505df5b", "gender": 2, "id": 75722, "name": "Michael Ienna", "order": 16, "profile_path": null}], "crew": [{"credit_id": "52fe45a89251416c7505df85", "department": "Production", "gender": 2, "id": 1371, "job": "Producer", "name": "David Wenham", "profile_path": "/xDUXLTF5i2fYx7eSEAR3IdaUb9y.jpg"}, {"credit_id": "52fe45a89251416c7505df61", "department": "Directing", "gender": 2, "id": 61346, "job": "Director", "name": "Rowan Woods", "profile_path": null}, {"credit_id": "52fe45a89251416c7505dfa3", "department": "Art", "gender": 0, "id": 61631, "job": "Production Design", "name": "Luigi Pittorino", "profile_path": null}, {"credit_id": "52fe45a89251416c7505dfb5", "department": "Costume & Make-Up", "gender": 0, "id": 75482, "job": "Makeup Artist", "name": "Margaret Aston", "profile_path": null}, {"credit_id": "52fe45a89251416c7505dfaf", "department": "Costume & Make-Up", "gender": 0, "id": 75482, "job": "Hairstylist", "name": "Margaret Aston", "profile_path": null}, {"credit_id": "52fe45a89251416c7505df67", "department": "Writing", "gender": 2, "id": 75723, "job": "Theatre Play", "name": "Gordon Graham", "profile_path": null}, {"credit_id": "52fe45a89251416c7505df6d", "department": "Writing", "gender": 2, "id": 75724, "job": "Screenplay", "name": "Stephen Sewell", "profile_path": null}, {"credit_id": "52fe45a89251416c7505df73", "department": "Production", "gender": 2, "id": 75725, "job": "Producer", "name": "Robert Connolly", "profile_path": "/eIAHnFSAczv9KCGFQnQBBWn54qz.jpg"}, {"credit_id": "52fe45a89251416c7505df79", "department": "Production", "gender": 2, "id": 75726, "job": "Executive Producer", "name": "Douglas Cummins", "profile_path": null}, {"credit_id": "52fe45a89251416c7505df7f", "department": "Production", "gender": 2, "id": 75727, "job": "Producer", "name": "John Maynard", "profile_path": "/tbXr1C4PQ189SrVmCURDrhE4RpV.jpg"}, {"credit_id": "52fe45a89251416c7505df8b", "department": "Sound", "gender": 0, "id": 75728, "job": "Music", "name": "The Necks", "profile_path": null}, {"credit_id": "52fe45a89251416c7505df91", "department": "Crew", "gender": 0, "id": 75729, "job": "Cinematography", "name": "Tristan Milani", "profile_path": null}, {"credit_id": "52fe45a89251416c7505df97", "department": "Editing", "gender": 0, "id": 75730, "job": "Editor", "name": "Nick Meyers", "profile_path": null}, {"credit_id": "52fe45a89251416c7505df9d", "department": "Production", "gender": 0, "id": 75731, "job": "Casting", "name": "Lesley Burgess", "profile_path": null}, {"credit_id": "52fe45a89251416c7505dfa9", "department": "Costume & Make-Up", "gender": 1, "id": 75732, "job": "Costume Design", "name": "Annie Marshall", "profile_path": null}, {"credit_id": "52fe45a89251416c7505dfbb", "department": "Costume & Make-Up", "gender": 0, "id": 75733, "job": "Makeup Artist", "name": "Jan Zeigenbein", "profile_path": null}, {"credit_id": "52fe45a89251416c7505dfc1", "department": "Production", "gender": 2, "id": 75734, "job": "Unit Production Manager", "name": "Maurice Burns", "profile_path": null}, {"credit_id": "52fe45a89251416c7505dfc7", "department": "Production", "gender": 1, "id": 75735, "job": "Production Manager", "name": "Susan Wells", "profile_path": null}, {"credit_id": "546a2e7422136e4551000676", "department": "Directing", "gender": 1, "id": 75736, "job": "Assistant Director", "name": "Debbie Antoniou", "profile_path": null}, {"credit_id": "546a2e5ceaeb816b58003809", "department": "Directing", "gender": 0, "id": 1386395, "job": "Assistant Director", "name": "Emma Schofield", "profile_path": null}]}}