{"adult": false, "backdrop_path": "/yGG2UpoC3olC1Ss0XNCTWYIg62x.jpg", "belongs_to_collection": null, "budget": 0, "genres": [{"id": 18, "name": "Drama"}], "homepage": null, "id": 138273, "imdb_id": "tt0065161", "original_language": "it", "original_title": "La Vacanza", "overview": "An allegedly insane woman is allowed to finally leave the madhouse to see if she is capable of functioning normally\u2026", "popularity": 4.835, "poster_path": "/9E4JBYuHDdLobWnEVpyjILWQ5d7.jpg", "production_companies": [], "production_countries": [], "release_date": "1971-09-04", "revenue": 0, "runtime": 101, "spoken_languages": [{"iso_639_1": "it", "name": "Italiano"}], "status": "Released", "tagline": "", "title": "Vacation", "video": false, "vote_average": 5.3, "vote_count": 6, "keywords": {"keywords": [{"id": 190007, "name": "mental hospital"}]}, "similar": {"page": 1, "results": [{"id": 37414, "video": false, "vote_count": 338, "vote_average": 5.9, "title": "The Killer Inside Me", "release_date": "2010-02-19", "original_language": "en", "original_title": "The Killer Inside Me", "genre_ids": [80, 18, 53], "backdrop_path": "/vsU6Onl9aTrDGRP5vZZbce9LS6N.jpg", "adult": false, "overview": "Deputy Sheriff Lou Ford is a pillar of the community in his small west Texas town, patient and apparently thoughtful. Some people think he is a little slow and maybe boring, but that is the worst they say about him. But then nobody knows about what Lou calls his \"sickness\": He is a brilliant, but disturbed sociopathic sadist.", "poster_path": "/9iaV9bNNFBxEWLjnMGvSmnNY4Uj.jpg", "popularity": 14.13}, {"id": 44982, "video": false, "vote_count": 436, "vote_average": 5.7, "title": "13", "release_date": "2010-03-12", "original_language": "en", "original_title": "13", "genre_ids": [18, 53], "backdrop_path": "/og44lh5n9NjhDJ4lSYHIYL5Byw2.jpg", "adult": false, "overview": "A naive young man assumes a dead man's identity and finds himself embroiled in an underground world of power, violence, and chance where men gamble behind closed doors on the lives of other men.", "poster_path": "/8w54aZ5hLX18gqs37MIdBmyIFMN.jpg", "popularity": 12.53}, {"id": 6183, "video": false, "vote_count": 101, "vote_average": 6.7, "title": "Barefoot", "release_date": "2005-03-30", "original_language": "de", "original_title": "Barfu\u00df", "genre_ids": [35, 18, 10749], "backdrop_path": "/eI70OmCCWYk99ZYxmR2PEFq6Yd1.jpg", "adult": false, "overview": "A hedonistic bachelor, falls for an escaped mental patient.  Til Schweiger comes up with a slickly-made off-the-wall romantic comedy drama \"Barfuss\" (Barefoot), his first solo directing effort in nearly a decade.  Punchy, anti-establishment tone, with Schweiger playing a hedonistic bachelor - he is his rich family's black sheep - who falls for a suicidal mental patient (Johanna Wokalek).  An offbeat, strangely tender love story develops as Nick struggles with responsibility for the first time in his life.", "poster_path": "/aN4dn64CVkdYbCLroxspDHEFX9g.jpg", "popularity": 6.211}, {"id": 62694, "video": false, "vote_count": 43, "vote_average": 7.4, "title": "The Snake Pit", "release_date": "1948-11-04", "original_language": "en", "original_title": "The Snake Pit", "genre_ids": [18], "backdrop_path": "/xyPp8XpOozFfpZmYSlz0h9SpOpO.jpg", "adult": false, "overview": "Virginia Cunningham is confused upon finding herself in a mental hospital, with no memory of her arrival at the institution. Tormented by delusions and unable to even recognize her husband, Robert, she is treated by Dr. Mark Kik, who is determined to get to the root of her mental illness. As her treatment progresses, flashbacks depict events in Virginia's life that may have contributed to her instability.", "poster_path": "/wLO2TVjM4UUQUwOq7RqfS8PCdMC.jpg", "popularity": 5.932}, {"id": 10072, "video": false, "vote_count": 858, "vote_average": 6.6, "title": "A Nightmare on Elm Street 3: Dream Warriors", "release_date": "1987-02-27", "original_language": "en", "original_title": "A Nightmare on Elm Street 3: Dream Warriors", "genre_ids": [27, 53], "backdrop_path": "/lNrbMhjhAQK9Hf4Nww7GoBezCMA.jpg", "adult": false, "overview": "It's been many years since Freddy Krueger's first victim, Nancy, came face-to-face with Freddy and his sadistic, evil ways. Now, Nancy's all grown up; she's put her frightening nightmares behind her and is helping teens cope with their dreams. Too bad Freddy's decided to herald his return by invading the kids' dreams and scaring them into committing suicide.", "poster_path": "/4aMSIhvShIkDrhOsa0WL6KFwnpD.jpg", "popularity": 21.918}, {"id": 9064, "video": false, "vote_count": 470, "vote_average": 6.3, "title": "Hellbound: Hellraiser II", "release_date": "1988-12-23", "original_language": "en", "original_title": "Hellbound: Hellraiser II", "genre_ids": [27, 53], "backdrop_path": "/ep55nYaivzIZuhKs0Ad7ZnMn75A.jpg", "adult": false, "overview": "Doctor Channard is sent a new patient, a girl warning of the terrible creatures that have destroyed her family, Cenobites who offer the most intense sensations of pleasure and pain. But Channard has been searching for the doorway to Hell for years, and Kirsty must follow him to save her father and witness the power struggles among the newly damned.", "poster_path": "/ryuo4unQkzcEKhfAfzhbQo8oxVm.jpg", "popularity": 9.434}, {"adult": false, "backdrop_path": "/cYjtFVoPofZpfg4fVemjxPFpHgw.jpg", "genre_ids": [18, 10402], "id": 76411, "original_language": "en", "original_title": "Times Square", "overview": "Two ill-matched teenage girls form a punk band and soon have New York by its ears.", "poster_path": "/dNgiK2G24h83Jkc3y1F6WiSJglm.jpg", "release_date": "1980-10-17", "title": "Times Square", "video": false, "vote_average": 7.2, "vote_count": 14, "popularity": 3.766}, {"adult": false, "backdrop_path": "/jFUIwL30NpIFau25394alOo75PI.jpg", "genre_ids": [53, 27], "id": 340601, "original_language": "en", "original_title": "Delirium", "overview": "A man recently released from a mental institute inherits a mansion after his parents die. After a series of disturbing events, he comes to believe it is haunted.", "poster_path": "/j2jIkjrASnjtwCmCNDwh9LDWvq9.jpg", "release_date": "2018-05-10", "title": "Delirium", "video": false, "vote_average": 5.5, "vote_count": 117, "popularity": 11.089}, {"id": 121250, "video": false, "vote_count": 8, "vote_average": 7.6, "title": "Home Before Dark", "release_date": "1958-11-16", "original_language": "en", "original_title": "Home Before Dark", "genre_ids": [18], "backdrop_path": "/aeK8WLXmh2ABegADlztrJR25EdE.jpg", "adult": false, "overview": "A young woman returns home after being institutionalized in a mental hospital. Director Mervyn LeRoy's 1958 drama stars Jean Simmons, Dan O'Herlihy, Rhonda Fleming, Efrem Zimbalist Jr., Joanna Barnes, Mabel Albertson, Stephen Dunne, Marjorie Bennett, Kathryn Card, Joan Weldon and Eleanor Audley.", "poster_path": "/ArL6JE6E2YltKRWKmBpuqb6Rt3b.jpg", "popularity": 2.71}, {"id": 17111, "video": false, "vote_count": 375, "vote_average": 6.9, "title": "Shutter", "release_date": "2004-09-09", "original_language": "th", "original_title": "\u0e0a\u0e31\u0e15\u0e40\u0e15\u0e2d\u0e23\u0e4c \u0e01\u0e14\u0e15\u0e34\u0e14\u0e27\u0e34\u0e0d\u0e0d\u0e32\u0e13", "genre_ids": [14, 27, 9648, 53], "backdrop_path": "/21ervSaMvErWYpYEs6ESuzAckpo.jpg", "adult": false, "overview": "A young photographer Thun and his girlfriend Jane discover mysterious shadows in their photographs after fleeing the scene of an accident. As they investigate the phenomenon, they find other photographs contain similar supernatural images, that Thun's best friends are being haunted as well, and Jane discovers that her boyfriend has not told her everything. It soon becomes clear that you can not escape your past.", "poster_path": "/kCZrvJXwPT5qcDaVJpUOWVmVgKC.jpg", "popularity": 8.67}, {"adult": false, "backdrop_path": "/fNLVYtHuN3QsmG1B0F2xbFACwj7.jpg", "genre_ids": [27], "id": 134366, "original_language": "en", "original_title": "Grave Encounters 2", "overview": "Tortured by the ghosts of the demonized insane asylum that killed the crew of GRAVE ENCOUNTERS, film students fight to escape death as their own paranormal investigation goes terribly wrong in this horrifying sequel.", "poster_path": "/kzx8h6mDnFULOKHWbG9w5x58YU7.jpg", "release_date": "2012-10-12", "title": "Grave Encounters 2", "video": false, "vote_average": 5.4, "vote_count": 481, "popularity": 13.075}, {"id": 104942, "video": false, "vote_count": 7, "vote_average": 6.9, "title": "Psychout for Murder", "release_date": "1969-02-03", "original_language": "it", "original_title": "Salvare la faccia", "genre_ids": [18, 27, 53], "backdrop_path": "/z2HeQ4dkjbMxPWicRkDwAZdxYnG.jpg", "adult": false, "overview": "Mario consigns his girlfriend Licia to a whorehouse for an evening in order to get the photographic goods to blackmail her father with. To get her out of the way, Licia is then consigned to a mental hospital by her father.", "poster_path": "/mUPaPq0tGncHEJdIByB7ohcR27L.jpg", "popularity": 4.583}, {"id": 36095, "video": false, "vote_count": 131, "vote_average": 7.4, "title": "Cure", "release_date": "1997-11-06", "original_language": "ja", "original_title": "\u30ad\u30e5\u30a2", "genre_ids": [80, 27, 9648, 53], "backdrop_path": "/td7K6x2krq757DACfgQ8NXl6N19.jpg", "adult": false, "overview": "A wave of gruesome murders is sweeping Tokyo. The only connection is a bloody X carved into the neck of each of the victims. In each case, the murderer is found near the victim and remembers nothing of the crime. Detective Takabe and psychologist Sakuma are called in to figure out the connection, but their investigation goes nowhere...", "poster_path": "/6kr9YC0sh5WDwH3hsWxIot9R7e9.jpg", "popularity": 8.307}, {"adult": false, "backdrop_path": "/8V5HBxVQuk1r9kgbqC3M90YBXD1.jpg", "genre_ids": [27, 53, 9648], "id": 77677, "original_language": "en", "original_title": "Escapee", "overview": "While on a class observation trip at a local mental hospital, young psychology major Abby Jones, has a chilling encounter with high-risk patient, Harmon Porter. She returns home for an evening of normal study with her two roommates unaware of the darkness she\u2019s awakened within him.", "poster_path": "/4L6rmQJ1K0MGB58hnJkmbC1cdlA.jpg", "release_date": "2011-09-02", "title": "Escapee", "video": false, "vote_average": 4.0, "vote_count": 41, "popularity": 6.418}, {"adult": false, "backdrop_path": null, "genre_ids": [18], "id": 362805, "original_language": "sr", "original_title": "Gledaj me", "overview": "Mina comes to the seaside mental hospital to find Andrej, who ended up there due to events from their common past that affected everybody's lives. There she gets in clash with authoritative doctor Vukcevic, but also with her own bygone, a kind of a labyrinth of dark familial stories.", "poster_path": "/uMEsNLFLPJRbS10bSU1rXmXMa6c.jpg", "release_date": "2008-01-01", "title": "Look at Me", "video": false, "vote_average": 1.0, "vote_count": 1, "popularity": 1.17}, {"adult": false, "backdrop_path": null, "genre_ids": [18], "id": 430451, "original_language": "sr", "original_title": "Slepi putnik na brodu ludaka", "overview": "The year is 1916. In occupied Belgrade, a mental hospital is the last free territory of Serbia.", "poster_path": "/7pH2b8uio5qersLDaYm9Hi4ObwT.jpg", "release_date": "2016-12-27", "title": "A Stowaway on the Ship of Fools", "video": false, "vote_average": 0.0, "vote_count": 0, "popularity": 0.66}, {"adult": false, "backdrop_path": null, "genre_ids": [18], "id": 167987, "original_language": "de", "original_title": "Kopfstand", "overview": "A misunderstood youth is incorrectly placed in a mental hospital.", "poster_path": "/mKnoWAM2bvd5y81iIXY5ImiUJNJ.jpg", "release_date": "1981-01-04", "title": "Headstand", "video": false, "vote_average": 7.3, "vote_count": 2, "popularity": 0.721}, {"adult": false, "backdrop_path": null, "genre_ids": [18], "id": 363029, "original_language": "hr", "original_title": "Pustolov pred vratima", "overview": "Story of the dream of a lonely woman lying mentally ill in a sanatorium.", "poster_path": "/fYxngn8ERV1YAMLOqslGpuscH4v.jpg", "release_date": "1961-07-10", "title": "Adventure at the Door", "video": false, "vote_average": 7.0, "vote_count": 1, "popularity": 0.6}, {"adult": false, "backdrop_path": null, "genre_ids": [35, 18], "id": 263567, "original_language": "en", "original_title": "Orang-Orang Sinting", "overview": "James, the only child of Marni the poor widow, dreams of winning a lottery worth Rp 120 million. He is angry when his mother wakes him up and orders him to find a job. Going in and out of offices and unable to find work, he daydreams in the park of taking off the gold from the National Monument. With the money, he would establish Siluman Kontraktor company with Dewi as his secretary and also his girlfriend. Then he is woken up by the police who want to inspect his identity card. Considered insane, he is admitted to a mental hospital. Here, he is always rowdy and stirs things up. Most of the film is used to exploit the craziness of the hospital. James finally escapes.", "poster_path": "/uGyBBoc3SLIHd49CKK4FxHqse1r.jpg", "release_date": "1981-04-10", "title": "Orang-Orang Sinting", "video": false, "vote_average": 6.5, "vote_count": 1, "popularity": 0.92}, {"adult": false, "backdrop_path": "/1cRMPfQdp3tgSZ7KoAvP6wRp5U9.jpg", "genre_ids": [18], "id": 314057, "original_language": "cs", "original_title": "Nepravd\u011bpodobn\u00e1 romance", "overview": "Luisa and Erika are prototypes of young women who plunge into relationships with the \"wrong\" men. Luisa wants to become an actress, which upsets her husband Igor to no end. Erika is trying to work as much as possible so that she can afford to study and thereby achieve a better outlook on life, but she unfortunately runs up against a boss who doesn't have the best intentions with her. Ultimately Luisa's husband demonstratively commits suicide. Erika accidentally kills her boss in self-defense... The women blame themselves for all these failures, and that has got to change. Both have to grow up and start living again. Perhaps even together.", "poster_path": "/tWLJ0jLdlJAS3BMSLNQTOaFioIl.jpg", "release_date": "2013-11-07", "title": "An Unlikely Romance", "video": false, "vote_average": 0.0, "vote_count": 0, "popularity": 0.84}], "total_pages": 3, "total_results": 41}, "recommendations": {"page": 1, "results": [{"id": 98008, "video": false, "vote_count": 4, "vote_average": 4.5, "title": "Attraction", "release_date": "1969-02-26", "original_language": "it", "original_title": "Nerosubianco", "genre_ids": [18, 53, 10749], "backdrop_path": "/4259tZXkjFVsDTqiMqAQz7gDUhk.jpg", "adult": false, "overview": "One of the great taboo-smashers of the late '60s, directed by Tinto Brass, featuring interracial affairs, anti-Vietnam statements, violence versus sex. ATTRACTION (NEROSUBIANCO) will stun anyone expecting a standard softcore European sex flick as released originally in the US thru Radley Metzger's Audubon Films under the title THE ARTFUL PENETRATION OF BARBARA, then brace yourself for a whirlwind trip with a married woman (Anita Sanders) whose journey through the psychedelic English youth scene awakens her to the carnal offerings of an African-American man (Terry Carter), all set to by a searing soundtrack by FREEDOM, a tripped-out group formed from the remnants of PROCAL HARUM. Nearly plotless and often improvised, this undiscovered cult film distinctive tone and editing scheme anticipated everything in the following year releases of Nicolas Roeg PERFORMANCE, Kubrick's A CLOCKWORK ORANGE to our current post-MTV mindsets.", "poster_path": "/f5Qrd4B4f9FCWtPFhzReUNjwbSy.jpg", "popularity": 5.271}], "total_pages": 1, "total_results": 1}, "credits": {"cast": [{"cast_id": 2, "character": "Immacolata Meneghelli", "credit_id": "52fe4c43c3a368484e1af7cf", "gender": 1, "id": 13333, "name": "Vanessa Redgrave", "order": 0, "profile_path": "/hGxsPCZkwa30UE0XQdGTB9yT0jz.jpg"}, {"cast_id": 3, "character": "Osiride", "credit_id": "52fe4c43c3a368484e1af7d3", "gender": 2, "id": 22383, "name": "Franco Nero", "order": 1, "profile_path": "/lwXfTQrFqAw4zcVjrhgq3THfWCg.jpg"}, {"cast_id": 4, "character": "Giudice", "credit_id": "52fe4c43c3a368484e1af7d7", "gender": 2, "id": 14151, "name": "Leopoldo Trieste", "order": 2, "profile_path": "/3DEbCzT2gL4ebP4zAYROH0QWeGA.jpg"}, {"cast_id": 5, "character": "Gigi", "credit_id": "52fe4c43c3a368484e1af7db", "gender": 2, "id": 13328, "name": "Corin Redgrave", "order": 3, "profile_path": "/moHo95qvkgkXLnWNO93Qxdnnt2U.jpg"}, {"cast_id": 6, "character": "Iside", "credit_id": "52fe4c43c3a368484e1af7df", "gender": 0, "id": 1108314, "name": "Countessa Veronica", "order": 4, "profile_path": null}], "crew": [{"credit_id": "52fe4c43c3a368484e1af7cb", "department": "Directing", "gender": 2, "id": 58021, "job": "Director", "name": "Tinto Brass", "profile_path": "/80Uuq79rcYL1FgBPHAEHzAACQFa.jpg"}, {"credit_id": "5b42a9219251414f360152f7", "department": "Writing", "gender": 2, "id": 58021, "job": "Screenplay", "name": "Tinto Brass", "profile_path": "/80Uuq79rcYL1FgBPHAEHzAACQFa.jpg"}, {"credit_id": "5b42a92d9251414f3c017035", "department": "Production", "gender": 2, "id": 58021, "job": "Producer", "name": "Tinto Brass", "profile_path": "/80Uuq79rcYL1FgBPHAEHzAACQFa.jpg"}, {"credit_id": "5b42a93ac3a368409c0166c7", "department": "Editing", "gender": 2, "id": 58021, "job": "Editor", "name": "Tinto Brass", "profile_path": "/80Uuq79rcYL1FgBPHAEHzAACQFa.jpg"}, {"credit_id": "5b42a9579251414f34015364", "department": "Production", "gender": 2, "id": 22383, "job": "Producer", "name": "Franco Nero", "profile_path": "/lwXfTQrFqAw4zcVjrhgq3THfWCg.jpg"}, {"credit_id": "5b42a9629251414f53017da3", "department": "Writing", "gender": 0, "id": 1387029, "job": "Screenplay", "name": "Roberto Lerici", "profile_path": null}, {"credit_id": "5b42a973c3a36840950181b9", "department": "Camera", "gender": 2, "id": 49901, "job": "Director of Photography", "name": "Silvano Ippoliti", "profile_path": null}, {"credit_id": "5b42a9c59251414f6a017128", "department": "Writing", "gender": 0, "id": 2080883, "job": "Screenplay", "name": "Vincenzo Siniscalchi", "profile_path": null}]}}