{"adult": false, "backdrop_path": "/2AxpnEZUBf37fSZWiiVvXKWGHRG.jpg", "belongs_to_collection": null, "budget": 0, "genres": [{"id": 18, "name": "Drama"}], "homepage": "", "id": 138357, "imdb_id": "tt0048517", "original_language": "en", "original_title": "The Prodigal", "overview": "A wealthy young Hebrew traveling in Damascus renounces his faith after is seduced by an alluring pagan priestess and cheated of his fortune by the High Priest as well.", "popularity": 3.888, "poster_path": "/eJvnrBk7DV3lR3kLeI4fIONrcNx.jpg", "production_companies": [{"id": 21, "logo_path": "/mjofSXiHpG5t6KYmU4l4FrUhT7m.png", "name": "Metro-Goldwyn-Mayer", "origin_country": "US"}], "production_countries": [{"iso_3166_1": "US", "name": "United States of America"}], "release_date": "1955-05-06", "revenue": 0, "runtime": 112, "spoken_languages": [{"iso_639_1": "en", "name": "English"}], "status": "Released", "tagline": "The story of Woman's Beauty and Man's Temptation!", "title": "The Prodigal", "video": false, "vote_average": 5.0, "vote_count": 1, "keywords": {"keywords": [{"id": 6150, "name": "faith"}, {"id": 155071, "name": "pagan"}]}, "similar": {"page": 1, "results": [{"adult": false, "backdrop_path": "/g8G91vbvyUqnyFSlVruwiaZsUrn.jpg", "genre_ids": [18], "id": 458737, "original_language": "en", "original_title": "First Reformed", "overview": "A pastor of a small church in upstate New York starts to spiral out of control after a soul-shaking encounter with an unstable environmental activist and his pregnant wife.", "poster_path": "/p2UylV0hPefEuWPFMo1r56vu2nb.jpg", "release_date": "2018-05-18", "title": "First Reformed", "video": false, "vote_average": 7.0, "vote_count": 577, "popularity": 11.112}, {"id": 310, "video": false, "vote_count": 6933, "vote_average": 6.6, "title": "Bruce Almighty", "release_date": "2003-05-23", "original_language": "en", "original_title": "Bruce Almighty", "genre_ids": [35, 14], "backdrop_path": "/bhEudqWbWsiEBdnl0kCIwFp5Hay.jpg", "adult": false, "overview": "Bruce Nolan toils as a 'human interest' television reporter in Buffalo, N.Y., but despite his high ratings and the love of his beautiful girlfriend, Bruce remains unfulfilled. At the end of the worst day in his life, he angrily ridicules God\u2014and the Almighty responds, endowing Bruce with all of His divine powers.", "poster_path": "/lgYKHifMMLT8OxYObMKa8b4STsr.jpg", "popularity": 33.694}, {"adult": false, "backdrop_path": "/mrB9FWjNgIm21zXckWleZxG7fys.jpg", "genre_ids": [18, 10749], "id": 145, "original_language": "da", "original_title": "Breaking the Waves", "overview": "In a small and conservative Scottish village, a woman's paralytic husband convinces her to have extramarital intercourse so she can tell him about it and give him a reason for living.", "poster_path": "/cmDrzXJa9TIs57pD8QfuvIQvak5.jpg", "release_date": "1996-05-13", "title": "Breaking the Waves", "video": false, "vote_average": 7.4, "vote_count": 498, "popularity": 12.248}, {"id": 16366, "video": false, "vote_count": 496, "vote_average": 6.4, "title": "Joseph: King of Dreams", "release_date": "2000-11-07", "original_language": "en", "original_title": "Joseph: King of Dreams", "genre_ids": [16, 10402, 10751], "backdrop_path": "/p5WF1vmFwTrdNlx6Z7mt5ksnG7W.jpg", "adult": false, "overview": "In this animated retelling of the story from the Bible's Book of Genesis, Joseph's gift of dream interpretation and his brilliantly colored coat inspires jealousy in his brothers.", "poster_path": "/dsL5nngGY8qTmXxtAamMUYVQDY3.jpg", "popularity": 19.669}, {"id": 5876, "video": false, "vote_count": 2781, "vote_average": 6.8, "title": "The Mist", "release_date": "2007-11-21", "original_language": "en", "original_title": "The Mist", "genre_ids": [27, 878, 53], "backdrop_path": "/slQnhKRIPkA2Cm5x6VvrOPXt4Qu.jpg", "adult": false, "overview": "After a violent storm, a dense cloud of mist envelops a small Maine town, trapping artist David Drayton and his five-year-old son in a local grocery store with other people. They soon discover that the mist conceals deadly horrors that threaten their lives, and worse, their sanity.", "poster_path": "/uYVheUBf8ITaocUP4Og9GXxOMIH.jpg", "popularity": 17.916}, {"id": 1023, "video": false, "vote_count": 347, "vote_average": 7.5, "title": "Adam's Apples", "release_date": "2005-04-15", "original_language": "da", "original_title": "Adams \u00e6bler", "genre_ids": [35, 80, 18], "backdrop_path": "/tgtZyxkghTimVYf3uF7kfLsZrGW.jpg", "adult": false, "overview": "A neo-nazi sentenced to community service at a church clashes with the blindly devotional priest.", "poster_path": "/ysLgwV21cnoI9nkWIvdZWqJuwjE.jpg", "popularity": 11.362}, {"id": 87827, "video": false, "vote_count": 9356, "vote_average": 7.3, "title": "Life of Pi", "release_date": "2012-11-20", "original_language": "en", "original_title": "Life of Pi", "genre_ids": [28, 12, 18], "backdrop_path": "/tk159LPfy69zSHw4dabehfAaJXi.jpg", "adult": false, "overview": "The story of an Indian boy named Pi, a zookeeper's son who finds himself in the company of a hyena, zebra, orangutan, and a Bengal tiger after a shipwreck sets them adrift in the Pacific Ocean.", "poster_path": "/sLYdcz7easaS7CmJGwQcVVYZqiF.jpg", "popularity": 23.211}, {"id": 10545, "video": false, "vote_count": 3017, "vote_average": 7.0, "title": "The Hunchback of Notre Dame", "release_date": "1996-06-21", "original_language": "en", "original_title": "The Hunchback of Notre Dame", "genre_ids": [16, 18, 10751], "backdrop_path": "/oslaee3VX9kJAjVezbjZKlEJDzn.jpg", "adult": false, "overview": "When Quasimodo defies the evil Frollo and ventures out to the Festival of Fools, the cruel crowd jeers him. Rescued by fellow outcast the gypsy Esmeralda, Quasi soon finds himself battling to save the people and the city he loves.", "poster_path": "/r7V92gY3AMO6li17MmGTixAnFcv.jpg", "popularity": 34.935}, {"id": 686, "video": false, "vote_count": 2421, "vote_average": 7.3, "title": "Contact", "release_date": "1997-07-11", "original_language": "en", "original_title": "Contact", "genre_ids": [18, 9648, 878], "backdrop_path": "/dBK75oCKuHVuJ9rSUnusIFbhocH.jpg", "adult": false, "overview": "Contact is a science fiction film about an encounter with alien intelligence. Based on the novel by Carl Sagan the film starred Jodie Foster as the one chosen scientist who must make some difficult decisions between her beliefs, the truth, and reality.", "poster_path": "/bCpMIywuNZeWt3i5UMLEIc0VSwM.jpg", "popularity": 19.203}, {"id": 9693, "video": false, "vote_count": 4054, "vote_average": 7.6, "title": "Children of Men", "release_date": "2006-09-22", "original_language": "en", "original_title": "Children of Men", "genre_ids": [28, 18, 878, 53], "backdrop_path": "/c5jNuPA19oGiEmbh8iFeAi6aHMI.jpg", "adult": false, "overview": "In 2027, in a chaotic world in which humans can no longer procreate, a former activist agrees to help transport a miraculously pregnant woman to a sanctuary at sea, where her child's birth may help scientists save the future of humankind.", "poster_path": "/gZ6i32Da76EUxta06GL2BxpC4Cn.jpg", "popularity": 25.649}, {"id": 474392, "video": false, "vote_count": 88, "vote_average": 5.3, "title": "Samson", "release_date": "2018-02-16", "original_language": "en", "original_title": "Samson", "genre_ids": [28, 12, 18], "backdrop_path": "/yR6952VuJ2OchliEj0vyRxFZiBT.jpg", "adult": false, "overview": "After losing the love of his life to a cruel Philistine prince, a young Hebrew with Supernatural strength defends his people, sacrificing everything to avenge his love, his people, and his God.", "poster_path": "/v7Zaj1IEzMMB7KzfglpxdXWB66u.jpg", "popularity": 15.598}, {"adult": false, "backdrop_path": "/kormVYncbZMrToXaOV58o74LNIz.jpg", "genre_ids": [18, 53, 878, 9648], "id": 2675, "original_language": "en", "original_title": "Signs", "overview": "A family living on a farm finds mysterious crop circles in their fields which suggests something more frightening to come.", "poster_path": "/bY9lCUVUajpkKWlfjWF1mtXaSUp.jpg", "release_date": "2002-08-02", "title": "Signs", "video": false, "vote_average": 6.6, "vote_count": 3220, "popularity": 16.644}, {"id": 458104, "video": false, "vote_count": 0, "vote_average": 0.0, "title": "Hold On", "release_date": "2019-12-06", "original_language": "en", "original_title": "Hold On", "genre_ids": [18], "backdrop_path": null, "adult": false, "overview": "Fighting to save her brother from a life of addiction on Los Angeles' Skid Row, an overlooked singing prodigy embarks on an unlikely journey with the son of a famed music manager.", "poster_path": "/7mxhUUoNkcA5eQdCTwHnWldriSl.jpg", "popularity": 3.131}, {"id": 207932, "video": false, "vote_count": 4175, "vote_average": 5.9, "title": "Inferno", "release_date": "2016-10-13", "original_language": "en", "original_title": "Inferno", "genre_ids": [18, 9648, 53], "backdrop_path": "/ulzy4NDp7SzVkpUSDR67vawFCCT.jpg", "adult": false, "overview": "After waking up in a hospital with amnesia, professor Robert Langdon and a doctor must race against time to foil a deadly global plot.", "poster_path": "/oFOG2yIRcluKfTtYbzz71Vj9bgz.jpg", "popularity": 25.91}, {"id": 86834, "video": false, "vote_count": 4274, "vote_average": 5.6, "title": "Noah", "release_date": "2014-03-07", "original_language": "en", "original_title": "Noah", "genre_ids": [12, 18], "backdrop_path": "/jnoJgpITphPoqA3e7JnNC4mtAVX.jpg", "adult": false, "overview": "A man who suffers visions of an apocalyptic deluge takes measures to protect his family from the coming flood.", "poster_path": "/5wioUjzwr91fvq7ydunxK2CPSxi.jpg", "popularity": 13.337}, {"id": 324786, "video": false, "vote_count": 7334, "vote_average": 8.1, "title": "Hacksaw Ridge", "release_date": "2016-10-07", "original_language": "en", "original_title": "Hacksaw Ridge", "genre_ids": [18, 36, 10752], "backdrop_path": "/zBK4QZONMQXhcgaJv1YYTdCW7q9.jpg", "adult": false, "overview": "WWII American Army Medic Desmond T. Doss, who served during the Battle of Okinawa, refuses to kill people and becomes the first Conscientious Objector in American history to receive the Congressional Medal of Honor.", "poster_path": "/bndiUFfJxNd2fYx8XO610L9a07m.jpg", "popularity": 26.345}, {"adult": false, "backdrop_path": "/dAK3Sql45m1xyMzCm5LDa4Bmucx.jpg", "genre_ids": [878, 18], "id": 13363, "original_language": "en", "original_title": "The Man from Earth", "overview": "An impromptu goodbye party for Professor John Oldman becomes a mysterious interrogation after the retiring scholar reveals to his colleagues he never ages and has walked the earth for 14,000 years.", "poster_path": "/zYP2lBJ5GRV1HaIi4USqRl3phe.jpg", "release_date": "2007-06-10", "title": "The Man from Earth", "video": false, "vote_average": 7.7, "vote_count": 1235, "popularity": 12.079}, {"id": 345938, "video": false, "vote_count": 893, "vote_average": 7.0, "title": "The Shack", "release_date": "2017-03-03", "original_language": "en", "original_title": "The Shack", "genre_ids": [18, 14], "backdrop_path": "/un7pVnJC2el8YxdIOg6YrSmBTlO.jpg", "adult": false, "overview": "After suffering a family tragedy, Mack Phillips spirals into a deep depression causing him to question his innermost beliefs. Facing a crisis of faith, he receives a mysterious letter urging him to an abandoned shack deep in the Oregon wilderness. Despite his doubts, Mack journeys to the shack and encounters an enigmatic trio of strangers led by a woman named Papa. Through this meeting, Mack finds important truths that will transform his understanding of his tragedy and change his life forever.", "poster_path": "/doAzav9kfdtsoSdw1MDFvjKq3J4.jpg", "popularity": 14.345}, {"id": 2454, "video": false, "vote_count": 3951, "vote_average": 6.5, "title": "The Chronicles of Narnia: Prince Caspian", "release_date": "2008-05-15", "original_language": "en", "original_title": "The Chronicles of Narnia: Prince Caspian", "genre_ids": [12, 14, 10751], "backdrop_path": "/eiET76GO3xECOic1rL8VcTLuy3L.jpg", "adult": false, "overview": "One year after their incredible adventures in the Lion, the Witch and the Wardrobe, Peter, Edmund, Lucy and Susan Pevensie return to Narnia to aid a young prince whose life has been threatened by the evil King Miraz. Now, with the help of a colorful cast of new characters, including Trufflehunter the badger and Nikabrik the dwarf, the Pevensie clan embarks on an incredible quest to ensure that Narnia is returned to its rightful heir.", "poster_path": "/kSSyzqw9C4wUggicG4D81XmptR1.jpg", "popularity": 20.084}, {"id": 22894, "video": false, "vote_count": 1307, "vote_average": 5.4, "title": "Legion", "release_date": "2010-01-21", "original_language": "en", "original_title": "Legion", "genre_ids": [28, 14, 27], "backdrop_path": "/gWaMoxVrkiMJ5xgvnXDhpKtP10E.jpg", "adult": false, "overview": "When God loses faith in humankind, he sends his legion of angels to bring on the Apocalypse. Humanity's only hope for survival lies in a group of strangers trapped in an out-of-the-way, desert diner with the Archangel Michael.", "poster_path": "/mXJJPsVfQdf0OWxgoWgDUFyzJQo.jpg", "popularity": 15.662}], "total_pages": 55, "total_results": 1096}, "recommendations": {"page": 1, "results": [], "total_pages": 1, "total_results": 0}, "credits": {"cast": [{"cast_id": 2, "character": "Samarra", "credit_id": "52fe4c47c3a368484e1b0531", "gender": 1, "id": 29623, "name": "Lana Turner", "order": 0, "profile_path": "/5iJOE1Q8mqXKgmSjNp5LkaDr0bb.jpg"}, {"cast_id": 3, "character": "Micah", "credit_id": "52fe4c47c3a368484e1b0535", "gender": 2, "id": 26155, "name": "Edmund Purdom", "order": 1, "profile_path": "/3TaWneIJGrhq3RmiXS7xfNbT6bZ.jpg"}, {"cast_id": 4, "character": "Nahreeb", "credit_id": "52fe4c47c3a368484e1b0539", "gender": 2, "id": 4343, "name": "Louis Calhern", "order": 2, "profile_path": "/k0uuHPK8XgKO7D7iOF2SrxVeE69.jpg"}, {"cast_id": 5, "character": "Ruth", "credit_id": "52fe4c47c3a368484e1b053d", "gender": 1, "id": 80600, "name": "Audrey Dalton", "order": 3, "profile_path": "/2JXtoU1FClln2OpOzld9wBb13Y7.jpg"}, {"cast_id": 10, "character": "Asham", "credit_id": "547095edc3a3680e2200011b", "gender": 2, "id": 100918, "name": "James Mitchell", "order": 4, "profile_path": "/jr1tVqkgnUScgfbRBCC4rMR1Cce.jpg"}, {"cast_id": 12, "character": "Rhakim", "credit_id": "5b6f2c38925141405414a9f1", "gender": 2, "id": 9112, "name": "Neville Brand", "order": 5, "profile_path": "/pjdg8caE6wBStYDjMyMHD7bf2Gx.jpg"}, {"cast_id": 13, "character": "Eli", "credit_id": "5b6f2c440e0a267ef616383f", "gender": 2, "id": 50833, "name": "Walter Hampden", "order": 6, "profile_path": "/mMEusAjmxvQ9kiH4fcyvvAbRDsA.jpg"}, {"cast_id": 14, "character": "Elissa", "credit_id": "5b6f2c519251410341069a4d", "gender": 1, "id": 42109, "name": "Taina Elg", "order": 7, "profile_path": "/az3Xpayq6RudD7tfwMLZrDB89Uj.jpg"}, {"cast_id": 15, "character": "Bosra", "credit_id": "5b6f2c5f92514140681608cf", "gender": 2, "id": 93900, "name": "Francis L. Sullivan", "order": 8, "profile_path": "/wCennvHk017VnuDgHSmB0NgRy6z.jpg"}, {"cast_id": 16, "character": "Carmish", "credit_id": "5b6f2c6b92514140681608e2", "gender": 2, "id": 9872, "name": "Joseph Wiseman", "order": 9, "profile_path": "/dh5BTlenUZIMHT7WwT0nGxvrPhx.jpg"}, {"cast_id": 17, "character": "Joram", "credit_id": "5b6f2c78c3a368189d153226", "gender": 2, "id": 82863, "name": "John Dehner", "order": 10, "profile_path": "/2maCnzFC38ACrrAtFOCMj0GoQ8V.jpg"}, {"cast_id": 18, "character": "Yasmin (as Sandra Descher)", "credit_id": "5b6f2c84c3a368189914951e", "gender": 1, "id": 153493, "name": "Sandy Descher", "order": 11, "profile_path": "/6FuhxHLYXjkjVdadOv1x6y4ClKM.jpg"}, {"cast_id": 19, "character": "Governor", "credit_id": "5b6f2c920e0a267ee51589c2", "gender": 2, "id": 30228, "name": "Cecil Kellaway", "order": 12, "profile_path": "/3qcMgq1JFZWXct7Y6CiXNi0jCZr.jpg"}, {"cast_id": 20, "character": "Barber-Surgeon", "credit_id": "5b6f2c9ec3a36818971582b3", "gender": 0, "id": 10928, "name": "Philip Tonge", "order": 13, "profile_path": "/nLO1VkEsCH8fcqLh5hJwAlJKfeB.jpg"}, {"cast_id": 21, "character": "Blind Man", "credit_id": "5b6f2cb00e0a267ee71709a8", "gender": 0, "id": 126658, "name": "David Leonard", "order": 14, "profile_path": null}, {"cast_id": 11, "character": "Citizen (uncredited)", "credit_id": "5945eaa3c3a368111500a6a1", "gender": 2, "id": 97999, "name": "John George", "order": 15, "profile_path": "/gEhNTzAQ2EoZzpAQWMYQuOVkSpF.jpg"}], "crew": [{"credit_id": "52fe4c47c3a368484e1b052d", "department": "Directing", "gender": 2, "id": 70862, "job": "Director", "name": "Richard Thorpe", "profile_path": "/szbaqa5qggPXjaLbNGb2JMgsoi3.jpg"}, {"credit_id": "52fe4c47c3a368484e1b0547", "department": "Writing", "gender": 0, "id": 196157, "job": "Adaptation", "name": "Joseph I. Breen", "profile_path": null}, {"credit_id": "52fe4c47c3a368484e1b054d", "department": "Writing", "gender": 0, "id": 1209258, "job": "Adaptation", "name": "Samuel James Larsen", "profile_path": null}, {"credit_id": "52fe4c47c3a368484e1b0553", "department": "Writing", "gender": 0, "id": 67688, "job": "Screenplay", "name": "Maurice Zimm", "profile_path": null}]}}