{"adult": false, "backdrop_path": null, "belongs_to_collection": null, "budget": 0, "genres": [{"id": 10749, "name": "Romance"}, {"id": 18, "name": "Drama"}], "homepage": null, "id": 138302, "imdb_id": "tt0119649", "original_language": "en", "original_title": "The Member of the Wedding", "overview": "In the last days leading up to her older brother's marriage, a young girl is forced to face realities and grow up quickly. A tender adaptation of Carson McCullers' classic play.", "popularity": 2.566, "poster_path": "/frrDzYGhqTcESEzs8sEYFpUGaav.jpg", "production_companies": [{"id": 8506, "logo_path": null, "name": "Gideon Productions", "origin_country": ""}], "production_countries": [{"iso_3166_1": "US", "name": "United States of America"}], "release_date": "1997-01-29", "revenue": 0, "runtime": 92, "spoken_languages": [{"iso_639_1": "en", "name": "English"}], "status": "Released", "tagline": "There's a time in a young girl's life when nothing's right...but everything's possible.", "title": "The Member of the Wedding", "video": false, "vote_average": 0.0, "vote_count": 0, "keywords": {"keywords": [{"id": 708, "name": "runaway"}, {"id": 13027, "name": "wedding"}, {"id": 171831, "name": "running away"}]}, "similar": {"page": 1, "results": [{"adult": false, "backdrop_path": "/wyvHy4ElaiNamrpS6fjquYQqxhQ.jpg", "genre_ids": [35, 18, 10749], "id": 712, "original_language": "en", "original_title": "Four Weddings and a Funeral", "overview": "Over the course of five social occasions, a committed bachelor must consider the notion that he may have discovered love.", "poster_path": "/md9kMKnLG8LG4pMDM98gy5x4K5L.jpg", "release_date": "1994-03-09", "title": "Four Weddings and a Funeral", "video": false, "vote_average": 6.7, "vote_count": 1456, "popularity": 16.541}, {"adult": false, "backdrop_path": "/gRY30dvyLhydkblpE0v3NiXt0Nj.jpg", "genre_ids": [35, 10749], "id": 6557, "original_language": "en", "original_title": "27 Dresses", "overview": "Altruistic Jane finds herself facing her worst nightmare as her younger sister announces her engagement to the man Jane secretly adores.", "poster_path": "/zzJtHNzi1D4CPwRlPHV1TRQNXD2.jpg", "release_date": "2008-01-10", "title": "27 Dresses", "video": false, "vote_average": 6.3, "vote_count": 2136, "popularity": 10.851}, {"adult": false, "backdrop_path": "/f7pTesNnPjOVAq7QqhgnSHaK9Cc.jpg", "genre_ids": [35, 10749], "id": 10521, "original_language": "en", "original_title": "Bride Wars", "overview": "Two best friends become rivals when their respective weddings are accidentally booked for the same day.", "poster_path": "/y5O46J9i98MkcExaPIeZaRImF4C.jpg", "release_date": "2009-01-09", "title": "Bride Wars", "video": false, "vote_average": 6.1, "vote_count": 1900, "popularity": 18.827}, {"adult": false, "backdrop_path": "/4brEMzPazQE3hv3mogj6k1a29RP.jpg", "genre_ids": [10749, 14, 16], "id": 3933, "original_language": "en", "original_title": "Corpse Bride", "overview": "Set in a 19th-century european village, this stop-motion animation feature follows the story of Victor, a young man whisked away to the underworld and wed to a mysterious corpse bride, while his real bride Victoria waits bereft in the land of the living.", "poster_path": "/o9GbcdP7rOg2m1NyUnUR3ZwNcTE.jpg", "release_date": "2005-09-12", "title": "Corpse Bride", "video": false, "vote_average": 7.4, "vote_count": 4926, "popularity": 16.93}, {"id": 24, "video": false, "vote_count": 10671, "vote_average": 7.9, "title": "Kill Bill: Vol. 1", "release_date": "2003-10-10", "original_language": "en", "original_title": "Kill Bill: Vol. 1", "genre_ids": [28, 80], "backdrop_path": "/kkS8PKa8c134vXsj2fQkNqOaCXU.jpg", "adult": false, "overview": "An assassin is shot by her ruthless employer, Bill, and other members of their assassination circle \u2013 but she lives to plot her vengeance.", "poster_path": "/v7TaX8kXMXs5yFFGR41guUDNcnB.jpg", "popularity": 37.008}, {"id": 567609, "video": false, "vote_count": 855, "vote_average": 6.8, "title": "Ready or Not", "release_date": "2019-08-21", "original_language": "en", "original_title": "Ready or Not", "genre_ids": [35, 27, 9648, 53], "backdrop_path": "/ubqaGfwYxZMaTEVfhPghF87tzYm.jpg", "adult": false, "overview": "A bride's wedding night takes a sinister turn when her eccentric new in-laws force her to take part in a terrifying game.", "poster_path": "/vOl6shtL0wknjaIs6JdKCpcHvg8.jpg", "popularity": 58.557}, {"adult": false, "backdrop_path": "/yNBcIGxAjvtsf4dQaVgyNy27qnp.jpg", "genre_ids": [35, 18, 37, 10402], "id": 16563, "original_language": "en", "original_title": "Seven Brides for Seven Brothers", "overview": "In 1850 Oregon, when a backwoodsman brings a wife home to his farm, his six brothers decide that they want to get married too.", "poster_path": "/42uIMPDWlJLexVGhj7zXYP1fchQ.jpg", "release_date": "1954-07-22", "title": "Seven Brides for Seven Brothers", "video": false, "vote_average": 7.3, "vote_count": 289, "popularity": 11.187}, {"id": 12531, "video": false, "vote_count": 91, "vote_average": 6.9, "title": "The Apartment", "release_date": "1996-07-27", "original_language": "fr", "original_title": "L'Appartement", "genre_ids": [18, 9648, 10749], "backdrop_path": "/64qyT8m4JQ6YODvXxtbHgKmXBX7.jpg", "adult": false, "overview": "A stylish suspense thriller that confounds the audience while presenting them with an extraordinary and elusive mystery. Max is a former playboy who has decided to settle down by marrying his current love, Muriel. However, during a business trip, Max catches a glimpse of the great lost love of his life, reviving his wanderlust and sending him off on a chase of the elusive Lisa, whom he had overheard suggesting to a friend that her lover, Daniel, had killed someone for her. Soon, Max is trying to unravel the mystery behind the suspicious death of Daniel's wife, which he hopes will lead him closer to Lisa.", "poster_path": "/1sqrQdQTn8jKLhUcPKfRVj639zA.jpg", "popularity": 21.259}, {"adult": false, "backdrop_path": "/oT79THuFrcBzrhlf4fiCddwZBCQ.jpg", "genre_ids": [18, 10402, 10749], "id": 69, "original_language": "en", "original_title": "Walk the Line", "overview": "A chronicle of country music legend Johnny Cash's life, from his early days on an Arkansas cotton farm to his rise to fame with Sun Records in Memphis, where he recorded alongside Elvis Presley, Jerry Lee Lewis and Carl Perkins.", "poster_path": "/wdxL3Zyh3O5MIbmsSiZEevJAjtQ.jpg", "release_date": "2005-09-13", "title": "Walk the Line", "video": false, "vote_average": 7.5, "vote_count": 1544, "popularity": 18.235}, {"id": 167073, "video": false, "vote_count": 2097, "vote_average": 7.3, "title": "Brooklyn", "release_date": "2015-10-20", "original_language": "en", "original_title": "Brooklyn", "genre_ids": [18, 10749], "backdrop_path": "/7fXKVIM8UQBvQ9aQOzFqThlq7eN.jpg", "adult": false, "overview": "In 1950s Ireland and New York, young Eilis Lacey has to choose between two men and two countries.", "poster_path": "/dRpkyrSDrEMFRZDeFJG4EupqUfR.jpg", "popularity": 13.039}, {"adult": false, "backdrop_path": "/qK77FcPjWwJDmJTwlZc8L31o8En.jpg", "genre_ids": [18, 878], "id": 62215, "original_language": "da", "original_title": "Melancholia", "overview": "Two sisters find their already strained relationship challenged as a mysterious new planet threatens to collide with Earth.", "poster_path": "/eCjATHunhgLl9ARKUFtmKguaWDJ.jpg", "release_date": "2011-05-26", "title": "Melancholia", "video": false, "vote_average": 7.2, "vote_count": 1840, "popularity": 13.674}, {"id": 521, "video": false, "vote_count": 1257, "vote_average": 8.0, "title": "Dial M for Murder", "release_date": "1954-05-29", "original_language": "en", "original_title": "Dial M for Murder", "genre_ids": [80, 18, 9648, 53], "backdrop_path": "/jVMlfESb0TJ29w8CUDDofEprMmn.jpg", "adult": false, "overview": "An ex-tennis pro carries out a plot to have his wife murdered after discovering she is having an affair, and assumes she will soon leave him for the other man anyway. When things go wrong, he improvises a new plan\u2014to frame her for murder instead.", "poster_path": "/xrpK1PyckNWmRxU4kZURfaCyboS.jpg", "popularity": 34.566}, {"id": 45269, "video": false, "vote_count": 5554, "vote_average": 7.7, "title": "The King's Speech", "release_date": "2010-09-06", "original_language": "en", "original_title": "The King's Speech", "genre_ids": [18, 36], "backdrop_path": "/pJnU0JArW4aLcOoS9u2vQHDGJpK.jpg", "adult": false, "overview": "The King's Speech tells the story of the man who became King George VI, the father of Queen Elizabeth II. After his brother abdicates, George ('Bertie') reluctantly assumes the throne. Plagued by a dreaded stutter and considered unfit to be king, Bertie engages the help of an unorthodox speech therapist named Lionel Logue. Through a set of unexpected techniques, and as a result of an unlikely friendship, Bertie is able to find his voice and boldly lead the country into war.", "poster_path": "/nkFTbA1XjKWo9LCTaV1hV2Lsgr1.jpg", "popularity": 20.648}, {"id": 11130, "video": false, "vote_count": 1981, "vote_average": 6.5, "title": "The Princess Diaries 2: Royal Engagement", "release_date": "2004-08-06", "original_language": "en", "original_title": "The Princess Diaries 2: Royal Engagement", "genre_ids": [35, 18, 10749, 10751], "backdrop_path": "/pmOXaAK8hteMlCiMZyyDJENHCZI.jpg", "adult": false, "overview": "Mia Thermopolis is now a college graduate and on her way to Genovia to take up her duties as princess. Her best friend Lilly also joins her for the summer. Mia continues her 'princess lessons'- riding horses side-saddle, archery, and other royal. But her complicated life is turned upside down once again when she not only learns that she is to take the crown as queen earlier than expected...", "poster_path": "/n98DlNl0DIDAn6tYYqt51bSy5KV.jpg", "popularity": 36.281}, {"id": 8346, "video": false, "vote_count": 1269, "vote_average": 6.4, "title": "My Big Fat Greek Wedding", "release_date": "2002-02-22", "original_language": "en", "original_title": "My Big Fat Greek Wedding", "genre_ids": [35, 18, 10749], "backdrop_path": "/miFwBsaWZER118kg0AAuHcy1YOa.jpg", "adult": false, "overview": "A young Greek woman falls in love with a non-Greek and struggles to get her family to accept him while she comes to terms with her heritage and cultural identity.", "poster_path": "/vqGs8K6MdMHVPMTgMhzKHBVgu0t.jpg", "popularity": 15.296}, {"adult": false, "backdrop_path": "/wcyLZBgMlUXi4CQ8IVAO31rqNih.jpg", "genre_ids": [18, 36, 53], "id": 1852, "original_language": "en", "original_title": "World Trade Center", "overview": "On September, 11th 2001, after the terrorist attack to the World Trade Center, the building collapses over the rescue team from the Port Authority Police Department. Will Jimeno and his sergeant John McLoughlin are found alive trapped under the wreckage while the rescue teams fight to save them.", "poster_path": "/hYbKIxMGqm0YaxGBYW52NbkYNAx.jpg", "release_date": "2006-08-09", "title": "World Trade Center", "video": false, "vote_average": 6.1, "vote_count": 883, "popularity": 17.532}, {"adult": false, "backdrop_path": "/nlwzLx5WVZPZDwXvexGGfaktts7.jpg", "genre_ids": [878, 53, 10749], "id": 38050, "original_language": "en", "original_title": "The Adjustment Bureau", "overview": "A man glimpses the future Fate has planned for him \u2013 and chooses to fight for his own destiny. Battling the powerful Adjustment Bureau across, under and through the streets of New York, he risks his destined greatness to be with the only woman he's ever loved.", "poster_path": "/g87PqGH9Oo3d3Tbczcfk7ZMAIEk.jpg", "release_date": "2011-03-03", "title": "The Adjustment Bureau", "video": false, "vote_average": 6.7, "vote_count": 2859, "popularity": 12.928}, {"id": 6575, "video": false, "vote_count": 364, "vote_average": 6.6, "title": "Walk Hard: The Dewey Cox Story", "release_date": "2007-12-21", "original_language": "en", "original_title": "Walk Hard: The Dewey Cox Story", "genre_ids": [35, 18, 10402], "backdrop_path": "/y7EElGAn1tFE0Npmls7uvg4HPVj.jpg", "adult": false, "overview": "Following a childhood tragedy, Dewey Cox follows a long and winding road to music stardom. Dewey perseveres through changing musical styles, an addiction to nearly every drug known and bouts of uncontrollable rage.", "poster_path": "/2sc7qoLTqZC0nB2k1crwuVoKP6H.jpg", "popularity": 12.774}, {"id": 37247, "video": false, "vote_count": 1748, "vote_average": 7.7, "title": "The Graduate", "release_date": "1967-12-21", "original_language": "en", "original_title": "The Graduate", "genre_ids": [35, 18], "backdrop_path": "/sEWKMIlgUCCb2n5mT0Mf71DRKLR.jpg", "adult": false, "overview": "Benjamin, a recent college graduate very worried about his future, finds himself in a love triangle with an older woman and her daughter.", "poster_path": "/qtVvdSsm2hvau6ItLe4gWdFKe2M.jpg", "popularity": 15.974}, {"adult": false, "backdrop_path": "/5CDIezS2xJtcSXPL24Z2dIeUOp0.jpg", "genre_ids": [35, 10749], "id": 8273, "original_language": "en", "original_title": "American Wedding", "overview": "With high school a distant memory, Jim and Michelle are getting married -- and in a hurry, since Jim's grandmother is sick and wants to see him walk down the aisle -- prompting Stifler to throw the ultimate bachelor party. And Jim's dad is reliable as ever, doling out advice no one wants to hear.", "poster_path": "/lcLuBjI3Hr12mGFKJvdMeZdf3AN.jpg", "release_date": "2003-08-01", "title": "American Wedding", "video": false, "vote_average": 6.1, "vote_count": 2482, "popularity": 25.546}], "total_pages": 64, "total_results": 1279}, "recommendations": {"page": 1, "results": [], "total_pages": 1, "total_results": 0}, "credits": {"cast": [{"cast_id": 12, "character": "Berenice Sadie Brown", "credit_id": "52fe4c44c3a368484e1afc75", "gender": 1, "id": 1981, "name": "Alfre Woodard", "order": 0, "profile_path": "/eoBvK34M52no6voo9Qibrd1S0nX.jpg"}, {"cast_id": 13, "character": "John Henry", "credit_id": "52fe4c44c3a368484e1afc79", "gender": 2, "id": 940582, "name": "Corey Dunn", "order": 1, "profile_path": null}, {"cast_id": 14, "character": "Mr. Addams", "credit_id": "52fe4c44c3a368484e1afc7d", "gender": 2, "id": 15029, "name": "Enrico Colantoni", "order": 2, "profile_path": "/yxxy8IrGRwnRPbLmgyfwF26Feve.jpg"}, {"cast_id": 15, "character": "Janice", "credit_id": "52fe4c44c3a368484e1afc81", "gender": 0, "id": 1108566, "name": "Anne Tremko", "order": 3, "profile_path": null}, {"cast_id": 16, "character": "Jarvis", "credit_id": "52fe4c44c3a368484e1afc85", "gender": 0, "id": 2844, "name": "Matt McGrath", "order": 4, "profile_path": "/lYdLQvcAYb7PFu37RrjdLZjn49Y.jpg"}, {"cast_id": 17, "character": "Wylie", "credit_id": "52fe4c44c3a368484e1afc89", "gender": 2, "id": 3798, "name": "Pat Hingle", "order": 5, "profile_path": "/bW8alHCKEK0UOJjoZwjwwH7T0ga.jpg"}, {"cast_id": 18, "character": "Mrs. Wray", "credit_id": "52fe4c44c3a368484e1afc8d", "gender": 1, "id": 174254, "name": "Joanne Pankow", "order": 6, "profile_path": "/sPomnAANs2HHM7LZ1xCUj3eoQuA.jpg"}, {"cast_id": 19, "character": "Minister", "credit_id": "52fe4c44c3a368484e1afc91", "gender": 2, "id": 953996, "name": "James J. Pence Jr.", "order": 7, "profile_path": null}, {"cast_id": 20, "character": "T.T. Williams", "credit_id": "52fe4c44c3a368484e1afc95", "gender": 0, "id": 176419, "name": "Al Wiggins", "order": 8, "profile_path": null}, {"cast_id": 21, "character": "Frankie Addams", "credit_id": "52fe4c44c3a368484e1afc99", "gender": 1, "id": 10690, "name": "Anna Paquin", "order": 9, "profile_path": "/8WwObbsortxgRJJyJKO9J04P1GI.jpg"}], "crew": [{"credit_id": "52fe4c44c3a368484e1afc6b", "department": "Art", "gender": 1, "id": 21823, "job": "Production Design", "name": "Veronica Hadfield", "profile_path": null}, {"credit_id": "546b721dc3a3680d75001eb0", "department": "Writing", "gender": 1, "id": 32788, "job": "Novel", "name": "Carson McCullers", "profile_path": "/1hNRDU9kRGYX6kr4yevTZxL2JYa.jpg"}, {"credit_id": "546b7223c3a3680d6f001d36", "department": "Writing", "gender": 1, "id": 32788, "job": "Theatre Play", "name": "Carson McCullers", "profile_path": "/1hNRDU9kRGYX6kr4yevTZxL2JYa.jpg"}, {"credit_id": "52fe4c44c3a368484e1afc53", "department": "Sound", "gender": 2, "id": 52025, "job": "Original Music Composer", "name": "Laurence Rosenthal", "profile_path": null}, {"credit_id": "52fe4c44c3a368484e1afc47", "department": "Production", "gender": 2, "id": 58083, "job": "Producer", "name": "David W. Rintels", "profile_path": null}, {"credit_id": "52fe4c44c3a368484e1afc41", "department": "Writing", "gender": 2, "id": 58083, "job": "Writer", "name": "David W. Rintels", "profile_path": null}, {"credit_id": "52fe4c44c3a368484e1afc59", "department": "Crew", "gender": 0, "id": 69049, "job": "Cinematography", "name": "Eric Van Haren Noman", "profile_path": null}, {"credit_id": "52fe4c44c3a368484e1afc3b", "department": "Directing", "gender": 2, "id": 165752, "job": "Director", "name": "Fielder Cook", "profile_path": null}, {"credit_id": "52fe4c44c3a368484e1afc4d", "department": "Production", "gender": 1, "id": 954490, "job": "Executive Producer", "name": "Victoria Riskin", "profile_path": null}, {"credit_id": "52fe4c44c3a368484e1afc71", "department": "Art", "gender": 2, "id": 964672, "job": "Art Direction", "name": "Linwood Taylor", "profile_path": null}, {"credit_id": "52fe4c44c3a368484e1afc65", "department": "Production", "gender": 1, "id": 1022286, "job": "Casting", "name": "Amy Lieberman", "profile_path": null}, {"credit_id": "52fe4c44c3a368484e1afc5f", "department": "Editing", "gender": 2, "id": 1108564, "job": "Editor", "name": "Paul LaMastra", "profile_path": null}]}}