{"adult": false, "backdrop_path": "/fVl8R7yEJFAmpklDzgrj617Z5Ep.jpg", "belongs_to_collection": null, "budget": 700000, "genres": [{"id": 80, "name": "Crime"}, {"id": 18, "name": "Drama"}], "homepage": null, "id": 138769, "imdb_id": "tt2416822", "original_language": "ru", "original_title": "\u0414\u043e\u0447\u044c", "overview": "Inna lives with her dad and little brother in a small town. Her life changes when a new girl, Masha, comes to her school. They become friends. But Masha is murdered by a maniac serial killer, who kills teenage girls in the town. Inna goes to church for the funeral service. There she meets the priest's son Ilya, whose sister was also murdered.", "popularity": 1.799, "poster_path": "/HiQT8yt3oSkWdtcfLoM1IGfq0r.jpg", "production_companies": [{"id": 11219, "logo_path": null, "name": "Valday Films", "origin_country": ""}, {"id": 21978, "logo_path": null, "name": "Gorky Film Studios", "origin_country": "RU"}], "production_countries": [{"iso_3166_1": "RU", "name": "Russia"}], "release_date": "2012-11-29", "revenue": 0, "runtime": 110, "spoken_languages": [{"iso_639_1": "ru", "name": "P\u0443\u0441\u0441\u043a\u0438\u0439"}], "status": "Released", "tagline": "", "title": "The Daughter", "video": false, "vote_average": 5.4, "vote_count": 9, "keywords": {"keywords": [{"id": 187056, "name": "woman director"}]}, "similar": {"page": 1, "results": [{"adult": false, "backdrop_path": "/cADbqsIoiDW7X3Myg9nz8eAuno5.jpg", "genre_ids": [18, 10749], "id": 10818, "original_language": "fr", "original_title": "Naissance des pieuvres", "overview": "Set during a sultry summer in a French suburb, Marie is desperate to join the local pool's synchronized swimming team, but is her interest solely for the sake of sport or for a chance to get close to Floriane, the bad girl of the team? Sciamma, and the two leads, capture the uncertainty of teenage sexuality with a sympathetic eye in this delicate drama of the angst of coming-of-age.", "poster_path": "/4jajELYrR4Xmv3CVoKnukRnALa2.jpg", "release_date": "2007-05-17", "title": "Water Lilies", "video": false, "vote_average": 6.1, "vote_count": 119, "popularity": 9.614}, {"adult": false, "backdrop_path": "/gZeJziVigmRqbkEZwKAtSqlLQ6s.jpg", "genre_ids": [18, 10749], "id": 370663, "original_language": "en", "original_title": "Below Her Mouth", "overview": "An unexpected affair quickly escalates into a heart-stopping reality for two women whose passionate connection changes their lives forever.", "poster_path": "/nTGbq37hYLuNy7YgMg0gVLma0NS.jpg", "release_date": "2016-09-10", "title": "Below Her Mouth", "video": false, "vote_average": 6.2, "vote_count": 456, "popularity": 18.664}, {"adult": false, "backdrop_path": "/dvQDRfv3qvfHNnVAR57ouVsuErf.jpg", "genre_ids": [10749, 18], "id": 28031, "original_language": "en", "original_title": "If These Walls Could Talk 2", "overview": "The stories of three lesbian couples -- who live in the same house at different periods of time -- who are at a crossroads in their lives. In 1961, Edith loses her lover, Abby, to a stroke. Linda and Amy struggle with feminist issues in 1972. And, in 2000, Kal and Fran try to have a baby with the help of sperm donor.", "poster_path": "/xs7ODbmYQXCDhvXNvz5tF17T59H.jpg", "release_date": "2000-03-05", "title": "If These Walls Could Talk 2", "video": false, "vote_average": 7.1, "vote_count": 55, "popularity": 8.86}, {"adult": false, "backdrop_path": "/knczzNAjBXzSYkeWxoT1u9VNmjR.jpg", "genre_ids": [10749, 18], "id": 258480, "original_language": "en", "original_title": "Carol", "overview": "In 1950s New York, a department-store clerk who dreams of a better life falls for an older, married woman.", "poster_path": "/AbKa7ANxmui0Jmhh7gV7OSELKIL.jpg", "release_date": "2015-11-20", "title": "Carol", "video": false, "vote_average": 7.4, "vote_count": 2184, "popularity": 13.539}, {"adult": false, "backdrop_path": "/fZ8oFcREAr6wgWcXISGql0xyxjB.jpg", "genre_ids": [35, 18], "id": 39781, "original_language": "en", "original_title": "The Kids Are All Right", "overview": "Two women, Nic and Jules, brought a son and daughter into the world through artificial insemination. When one of their children reaches age, both kids go behind their mothers' backs to meet with the donor. Life becomes so much more interesting when the father, two mothers and children start to become attached to each other.", "poster_path": "/fPDeK4MmoGfi2X0oWZev7LrbMqM.jpg", "release_date": "2010-07-09", "title": "The Kids Are All Right", "video": false, "vote_average": 6.6, "vote_count": 923, "popularity": 12.159}, {"adult": false, "backdrop_path": "/rf6G51j0SZL0tP57I8gnqHTRFEr.jpg", "genre_ids": [35, 18, 10749], "id": 273153, "original_language": "fr", "original_title": "La belle saison", "overview": "In 1971, Carole and Delphine meet and fall in love in Paris. When Carole follows Delphine back to her family farm in Limousin, the two find lesbianism and feminism are not as easy in the countryside.", "poster_path": "/evvAkNMO5VJiy5qIo1Hu7fUfvVI.jpg", "release_date": "2015-08-19", "title": "Summertime", "video": false, "vote_average": 6.6, "vote_count": 162, "popularity": 11.575}, {"adult": false, "backdrop_path": "/s12HEmmkJfI2mjltI61hGm5kubD.jpg", "genre_ids": [35, 18, 10749], "id": 20770, "original_language": "en", "original_title": "But I'm a Cheerleader", "overview": "Megan is an all-American girl. A cheerleader. She has a boyfriend. But Megan doesn't like kissing her boyfriend very much. And she's pretty touchy with her cheerleader friends. Her conservative parents worry that she must be a lesbian and send her off to \"sexual redirection\" school, where she must, with other lesbians and gays learn how to be straight.", "poster_path": "/eDGH7CHSdkrYcuUJV1e0WS9DlQL.jpg", "release_date": "1999-12-09", "title": "But I'm a Cheerleader", "video": false, "vote_average": 6.8, "vote_count": 246, "popularity": 9.011}, {"id": 9813, "video": false, "vote_count": 128, "vote_average": 6.1, "title": "The Quiet", "release_date": "2005-09-12", "original_language": "en", "original_title": "The Quiet", "genre_ids": [18, 53], "backdrop_path": "/6eyWAZA4CEidZW1xXnQ4vlYBXTP.jpg", "adult": false, "overview": "After her widowed father dies, deaf teenager Dot moves in with her godparents, Olivia and Paul Deer. The Deers' daughter, Nina, is openly hostile to Dot, but that does not prevent her from telling her secrets to her silent stepsister, including the fact that she wants to kill her lecherous father.", "poster_path": "/GEqIE9YlmygHVUfS64LW2cwAAM.jpg", "popularity": 14.844}, {"adult": false, "backdrop_path": "/tzqeuHWMFihFbiLGHdalPgAcSf6.jpg", "genre_ids": [18, 10749], "id": 18620, "original_language": "en", "original_title": "Go Fish", "overview": "Max is a trendy, pretty, young lesbian, who is having trouble finding love. A friend sets her up with Ely, whom Max likes, but Ely is frumpy, homely, and older. Nor do they have much in common. Can Max learn to look past the packaging?", "poster_path": "/qrEFYrwykaGsY8NULYuYLLI7zrM.jpg", "release_date": "1994-06-10", "title": "Go Fish", "video": false, "vote_average": 5.0, "vote_count": 11, "popularity": 3.676}, {"adult": false, "backdrop_path": "/6tern9vOEwwmkDYC1vRCuO64z0C.jpg", "genre_ids": [10749, 18], "id": 475888, "original_language": "en", "original_title": "Tell It to the Bees", "overview": "Dr. Jean Markham returns to the town she left as a teenager to take over her late father's medical practice. When a school-yard scuffle lands Charlie in her surgery, she invites him to visit the hives in her garden and tell his secrets to the bees, as she once did. The new friendship between the boy and the bee keeper brings his mother Lydia into Jean's world.", "poster_path": "/Rj6zpHhMU1zFW3v28U4PSRSRgP.jpg", "release_date": "2019-05-03", "title": "Tell It to the Bees", "video": false, "vote_average": 6.4, "vote_count": 53, "popularity": 13.175}, {"adult": false, "backdrop_path": "/baYbbMtKRDoDWYJeVWkbygAvAj8.jpg", "genre_ids": [18, 10749], "id": 31216, "original_language": "en", "original_title": "I Can't Think Straight", "overview": "I CAN'T THINK STRAIGHT is a 2007 romance movie about a London-based Jordanian of Palestinian descent, Tala, who is preparing for an elaborate wedding. A turn of events causes her to have an affair and subsequently fall in love with another woman, Leyla, a British Indian.", "poster_path": "/1kapga6rkM5wNuQBYw7sdE42CrA.jpg", "release_date": "2008-06-01", "title": "I Can't Think Straight", "video": false, "vote_average": 7.6, "vote_count": 109, "popularity": 7.815}, {"adult": false, "backdrop_path": "/lI5h8KaoeObu4NMTwzeRuUHzRwD.jpg", "genre_ids": [18, 9648, 53], "id": 401898, "original_language": "no", "original_title": "Thelma", "overview": "A college student starts to experience extreme seizures. She soon learns that the violent episodes are a symptom of inexplicable abilities.", "poster_path": "/yzSfG8TLAqw7nMQh2lxirQkQpgs.jpg", "release_date": "2017-09-15", "title": "Thelma", "video": false, "vote_average": 7.1, "vote_count": 418, "popularity": 13.105}, {"adult": false, "backdrop_path": "/tIFRPjIXQ3sYrmxbIeOu9K1JkUz.jpg", "genre_ids": [18, 10749], "id": 294, "original_language": "en", "original_title": "Desert Hearts", "overview": "The story of straight-edge literature professor Vivian who travels to Reno to get away from a relationship breakup when she falls in love with an attractive and unconventional girl named Cay.", "poster_path": "/b8JSmQSpYYJhctMtxNgqh0elENg.jpg", "release_date": "1985-10-01", "title": "Desert Hearts", "video": false, "vote_average": 7.3, "vote_count": 58, "popularity": 6.976}, {"id": 2255, "video": false, "vote_count": 772, "vote_average": 6.8, "title": "Chasing Amy", "release_date": "1997-04-04", "original_language": "en", "original_title": "Chasing Amy", "genre_ids": [35, 18, 10749], "backdrop_path": "/doKYVK61Vb8J1KUjlb9dNWkQNp6.jpg", "adult": false, "overview": "Holden and Banky are comic book artists. Everything is going good for them until they meet Alyssa, also a comic book artist. Holden falls for her, but his hopes are crushed when he finds out she's a lesbian.", "poster_path": "/4vFJileWrCGaBeobCmF0tXpQCUb.jpg", "popularity": 13.95}, {"adult": false, "backdrop_path": "/hD8DQM72Xacg1d3mFqS0eN8vKYw.jpg", "genre_ids": [18], "id": 8272, "original_language": "en", "original_title": "The Savages", "overview": "A sister and brother face the realities of familial responsibility as they begin to care for their ailing father.", "poster_path": "/nY54gSmTOmSXlQpWDB7DWp4u8a7.jpg", "release_date": "2007-01-19", "title": "The Savages", "video": false, "vote_average": 6.9, "vote_count": 192, "popularity": 9.466}, {"adult": false, "backdrop_path": "/g3LYarEY9LjB28Ct2trwFN72gqZ.jpg", "genre_ids": [35], "id": 437557, "original_language": "en", "original_title": "Blockers", "overview": "When three parents discover their daughters\u2019 pact to lose their virginity at prom, they launch a covert one-night operation to stop the teens from sealing the deal.", "poster_path": "/uvlUQXg0AlpGzKukO11K7QtW3Yu.jpg", "release_date": "2018-03-14", "title": "Blockers", "video": false, "vote_average": 6.2, "vote_count": 1155, "popularity": 17.886}, {"adult": false, "backdrop_path": "/zBB1mzmqnUuSrlTuf0SFFlI1EoJ.jpg", "genre_ids": [18], "id": 244772, "original_language": "en", "original_title": "The Skeleton Twins", "overview": "Estranged twins Maggie and Milo coincidentally cheat death on the same day, prompting them to reunite and confront the reasons their lives went so wrong. As the twins' reunion reinvigorates them, they realize the key to fixing their lives may just lie in repairing their relationship.", "poster_path": "/vvmv1R2jDXJeeeyYcGg0ypXc2XK.jpg", "release_date": "2014-09-12", "title": "The Skeleton Twins", "video": false, "vote_average": 6.7, "vote_count": 416, "popularity": 10.481}, {"adult": false, "backdrop_path": "/3YGy88nTV2e0wxZcKI1goiEN9oy.jpg", "genre_ids": [18, 10749], "id": 37636, "original_language": "en", "original_title": "High Art", "overview": "A young female intern at a small magazine company becomes involved with a drug-addicted lesbian photographer, both of whom seek to exploit each other for their respective careers, while slowly falling in love with each other.", "poster_path": "/qTg05RNJIvb9w4Z7XIcAZxuZmTn.jpg", "release_date": "1998-06-12", "title": "High Art", "video": false, "vote_average": 6.6, "vote_count": 61, "popularity": 7.422}, {"adult": false, "backdrop_path": "/caLMOD3ZJ3V7qjlxDXrzlJfBLgD.jpg", "genre_ids": [18, 10749], "id": 20, "original_language": "en", "original_title": "My Life Without Me", "overview": "A Pedro Almodovar production in which a fatally ill mother with only two months to live creates a list of things she wants to do before she dies with out telling her family of her illness.", "poster_path": "/vVj92VBFUBzjqzLvBiPVVlJDp78.jpg", "release_date": "2003-03-07", "title": "My Life Without Me", "video": false, "vote_average": 6.1, "vote_count": 220, "popularity": 10.382}, {"id": 434714, "video": false, "vote_count": 32, "vote_average": 7.5, "title": "My Days of Mercy", "release_date": "2019-07-11", "original_language": "en", "original_title": "My Days of Mercy", "genre_ids": [18, 10749], "backdrop_path": "/7Lbzq33nMMIQtAfZAmSqG6ibLSg.jpg", "adult": false, "overview": "The daughter of a man on death row falls in love with a woman on the opposing side of her family's political cause.", "poster_path": "/adIPKAoKnKL9vCTkvfF4J9ZA7Ln.jpg", "popularity": 9.342}], "total_pages": 1446, "total_results": 28910}, "recommendations": {"page": 1, "results": [{"adult": false, "backdrop_path": null, "genre_ids": [], "id": 164347, "original_language": "ru", "original_title": "\u0420\u0430\u0437\u043d\u043e\u0441\u0447\u0438\u043a", "overview": "One thing is certain: Alexey can never pay for his father\u2019s operation from his income as a pizza courier. Everything changes when the courier finds an envelope containing a Sim card. As soon as he activates it, Alexey gets instructions to do a dangerous yet lucrative job. Alexey doesn\u2019t hesitate a moment.", "poster_path": "/pFacxFarJ1eeeLgaKdHwBqfCB1Y.jpg", "release_date": "2013-01-28", "title": "The Delivery Guy", "video": false, "vote_average": 6.0, "vote_count": 3, "popularity": 1.134}, {"adult": false, "backdrop_path": "/wFqb4G8chGuOw1S47tESGChsBGf.jpg", "genre_ids": [18], "id": 282663, "original_language": "ru", "original_title": "\u042f \u043d\u0435 \u0432\u0435\u0440\u043d\u0443\u0441\u044c", "overview": "Anya, a young academic raised in an orphanage, is on the cusp of success when she\u2019s accused of drug possession. While in limbo hiding from the police, she hits the road with Kristina, another orphan several years Anya\u2019s junior, in search of her possibly mythical grandmother.", "poster_path": "/krLqjLwUeLtL6RGIwLbHX1kQXtD.jpg", "release_date": "2014-06-12", "title": "I Won't Come Back", "video": false, "vote_average": 6.0, "vote_count": 8, "popularity": 1.174}, {"adult": false, "backdrop_path": "/8t8LKU8zgvRY2giMOEtFipVb6yQ.jpg", "genre_ids": [18], "id": 187680, "original_language": "ru", "original_title": "\u042f \u0431\u0443\u0434\u0443 \u0440\u044f\u0434\u043e\u043c", "overview": "", "poster_path": "/gXuhaJVRy3MnAPr8VJFeoupfqUy.jpg", "release_date": "2012-12-06", "title": "I'll Be Around", "video": false, "vote_average": 6.3, "vote_count": 5, "popularity": 1.445}, {"adult": false, "backdrop_path": "/gLlQHNzfhLj53QxtO6KG42lSXXj.jpg", "genre_ids": [18], "id": 144804, "original_language": "ru", "original_title": "\u0416\u0438\u0442\u044c", "overview": "In the second feature film by Russian director Vasily Sigarev, fate brings ordeals to characters that find themselves immersed in deep crisis; they must seek the strength to cope with adversity. In a remote and cold region of Russia, Galya, a middle-aged woman with a drinking problem, has been separated from her twin daughters and she wants them back. On the other hand, Grishka and Anton are a young couple who decide to get married, but right after the wedding their relationship is put to the test in a brutal way. While Artyom longs to see his missing father, but his mother objects. There is only one element that brings all of these characters together: misfortune.", "poster_path": "/bHsOdveWHuXfIQI0ZnVXqFb9seQ.jpg", "release_date": "2012-08-30", "title": "Living", "video": false, "vote_average": 7.6, "vote_count": 18, "popularity": 1.818}, {"adult": false, "backdrop_path": "/2OXpqY99vOBxAsoYhlylwEjcjRP.jpg", "genre_ids": [18], "id": 31227, "original_language": "ru", "original_title": "4", "overview": "Two men and a woman happen to meet in a bar. We learn from their conversations both the intriguing and banal details of their lives. But is anyone really telling the truth?", "poster_path": "/6NTYBptoe7cGNt3xiPxR9AX9hGx.jpg", "release_date": "2004-09-10", "title": "4", "video": false, "vote_average": 5.6, "vote_count": 14, "popularity": 3.288}, {"adult": false, "backdrop_path": "/c4LvxnBYRlIy6lvY38fVb4AF2gm.jpg", "genre_ids": [18], "id": 160124, "original_language": "ru", "original_title": "\u0414\u043e\u043b\u0433\u0430\u044f \u0441\u0447\u0430\u0441\u0442\u043b\u0438\u0432\u0430\u044f \u0436\u0438\u0437\u043d\u044c", "overview": "Sascha lives in a village on the Kola Peninsular in northern Russia and dedicatedly manages what is left of an old collective farm. He gets on well with his farm workers who respect him and also tolerate his more or less clandestine love-affair with Anya, a secretary at the local government office. But then Sascha is suddenly faced with a dilemma: the district\u2019s self-seeking administrators, none of whom could be termed squeamish, offer him a lucrative deal for the farm. In legal terms, Sascha doesn\u2019t have much of a leg to stand on since his lease on the farm was only agreed with a handshake. The pressure mounts, and even more so when his employees convince him to stand firm. Against the backdrop of a landscape exposed to the elements, this unflinching man\u2019s destiny takes its course.", "poster_path": "/wa3YSDKqm9zfHomlsKwtAWAcrq6.jpg", "release_date": "2013-04-11", "title": "A Long and Happy Life", "video": false, "vote_average": 6.2, "vote_count": 6, "popularity": 1.39}, {"adult": false, "backdrop_path": "/5TicXuuu5J994AEP6Ly6xbwc55X.jpg", "genre_ids": [35, 18], "id": 64264, "original_language": "ru", "original_title": "Glyanets", "overview": "A pretty, young girl from a coal-mining town comes to Moscow with dreams of becoming a supermodel in this satirical look at the fashion industry.", "poster_path": "/jHjmMH27AoxneoqtL246FG3hee6.jpg", "release_date": "2007-08-23", "title": "Gloss", "video": false, "vote_average": 4.4, "vote_count": 8, "popularity": 2.099}, {"adult": false, "backdrop_path": "/4lGMtnJaG1QDnmV0sr283tz9bfg.jpg", "genre_ids": [18, 53], "id": 227199, "original_language": "ru", "original_title": "\u041e\u043a\u043e\u043b\u043e\u0444\u0443\u0442\u0431\u043e\u043b\u0430", "overview": "This movie is about soccer hooligans, the most aggressive and violent soccer aficionados. They are an exclusive group, the elite of all soccer fans. Whoever they may be in their everyday lives\u2014college students, bankers, musicians, or car mechanics\u2014they are a \u201cfirm.\u201d It\u2019s easy to get into a firm, but once you\u2019re in, it\u2019s for life. There\u2019s no going back.  The movie is based on actual events", "poster_path": "/3eRVLsaqmRaajxi2Lghc5ReJ9di.jpg", "release_date": "2013-09-24", "title": "Kicking Off", "video": false, "vote_average": 6.3, "vote_count": 18, "popularity": 5.234}, {"adult": false, "backdrop_path": "/sGKhZRxY0OpseIc7Ir4w6Xp2a7I.jpg", "genre_ids": [18], "id": 73281, "original_language": "ru", "original_title": "\u0414\u043e\u0440\u043e\u0433\u0430\u044f \u0415\u043b\u0435\u043d\u0430 \u0421\u0435\u0440\u0433\u0435\u0435\u0432\u043d\u0430", "overview": "Four school graduates congratulate their teacher of mathematics Yelena Sergeyevna on her birthday and ask her to return them their graduate works on mathematics in order to change them before the marks. Yelena Sergeyevna strongly objects...", "poster_path": "/5h6VoIVy1dQ8bpeJ8i2fmSkjrYD.jpg", "release_date": "1988-04-12", "title": "Dear Yelena Sergeyevna", "video": false, "vote_average": 6.3, "vote_count": 11, "popularity": 1.644}, {"id": 54698, "video": false, "vote_count": 8, "vote_average": 4.9, "title": "The First After God", "release_date": "2005-11-03", "original_language": "ru", "original_title": "\u041f\u0435\u0440\u0432\u044b\u0439 \u043f\u043e\u0441\u043b\u0435 \u0411\u043e\u0433\u0430", "genre_ids": [28, 35, 18, 10752], "backdrop_path": "/6wqFoM1yxNPIBUh4vzN7Z930jSH.jpg", "adult": false, "overview": "The film is based on the true story of Captain Marinesku and set in 1944 during WWII at the Russian Navy Base. Young and beautiful Tanka is in love with Aleksandr Marinin, the brave Captain of the Russian submarine. He is under the KGB surveillance, and his life is at risk. He takes his boat to fight the Nazi fleet, and he cannot come back home without a victory.", "poster_path": "/a5S1DkkL7zZuCVlUYZ68RWv7nyF.jpg", "popularity": 1.551}, {"adult": false, "backdrop_path": "/fPc11p0wEJl4AGX060y5xJFNaXR.jpg", "genre_ids": [35, 80], "id": 48004, "original_language": "ru", "original_title": "\u041c\u0430\u043c\u0430, \u043d\u0435 \u0433\u043e\u0440\u044e\u0439", "overview": "Wedding in a provincial seaside town. In the midst of the fun criminal authority Tourist begins to molest the bride, which infuriates the groom \u2014 merchant seaman. The bandits and the police decide to plant a sailor, but he runs away and on his quest sent the police, killers, relatives and different people.", "poster_path": "/fWS8TafjQ6KhzJh3enKtn1h5amR.jpg", "release_date": "1997-01-01", "title": "Don't Cry Mommy", "video": false, "vote_average": 5.6, "vote_count": 7, "popularity": 1.256}, {"adult": false, "backdrop_path": "/e7X2F3RrPiW0oLBgSeC7nKjZ52T.jpg", "genre_ids": [18, 14, 9648], "id": 141520, "original_language": "ru", "original_title": "Poslednyaya skazka Rity", "overview": "The film speaks about universal themes of love, hate and search for love. The portrait of three women represents these three states. Tanya Neubivko has never been in love but optimistically is searing for it. Her unfortunate and even dangerous encounters with strangers on dates almost got her killed. Rita is happily engaged and planning a wedding after a routine medical check-up. Nadya is a very unhappy doctor who hates her husband and finds relief in alcohol. The story takes place in a surreal hospital with the leaking roof and hollow walls and constantly smoking doctors, where Rita is destined to die.", "poster_path": "/6dS0fDrigZiHUiwuS5yjJECc919.jpg", "release_date": "2012-11-01", "title": "Rita's Last Fairy Tale", "video": false, "vote_average": 7.5, "vote_count": 12, "popularity": 2.818}, {"adult": false, "backdrop_path": "/cLDuZ9GHDmvfAp7movXWnVYy8Hk.jpg", "genre_ids": [28, 80, 18], "id": 61139, "original_language": "ru", "original_title": "\u0411\u0443\u043c\u0435\u0440. \u0424\u0438\u043b\u044c\u043c \u0432\u0442\u043e\u0440\u043e\u0439", "overview": "The film takes place a few years after the events shown in Bummer. Kostyan \"Kot\", who lost all his friends, the woman he loved and was nearly killed in the first installment of the film tries to begin a new, peaceful life. But is it possible to do? Has Russia changed and do \"bratki\" on black \"bummers\" no longer control business? Can he escape his past?", "poster_path": "/gMRZxmT6LZx9DWZjxN1i6PRrsKM.jpg", "release_date": "2006-12-12", "title": "Bummer 2", "video": false, "vote_average": 5.8, "vote_count": 31, "popularity": 3.698}, {"adult": false, "backdrop_path": "/4sX0pjlzDxoqiel2gwOfAXXed2n.jpg", "genre_ids": [18], "id": 51272, "original_language": "ru", "original_title": "\u0412\u043e\u043b\u0447\u043e\u043a", "overview": "There are two of them: a mother and a girl. They have no names. And they are in a constant run. The mother runs away from the daughter in an attempt to start new life, and the girl runs after her mother as she has no idea how to live without her. This endless run is full with repeated mistakes and resembles a barrel-organ sorrowful song or a spinning-top rotation. This small ridiculous toy \"volchok\" was the first toy in the girl's life, the only thing that tied her with the mother.", "poster_path": "/zC2vwbgqMDEEg3jbIZZRuNSKF0X.jpg", "release_date": "2009-08-06", "title": "Wolfy", "video": false, "vote_average": 7.2, "vote_count": 13, "popularity": 2.182}, {"adult": false, "backdrop_path": "/iJ6dcfqlH0pEnAuYvPisTNQuNYm.jpg", "genre_ids": [18], "id": 127236, "original_language": "ru", "original_title": "\u042f \u0442\u043e\u0436\u0435 \u0445\u043e\u0447\u0443", "overview": "Five passengers - the Bandit, his friend Matvei, Matvei's old father, the Musician, and a young woman - race along an empty road in a big black jeep, searching for the Belfry of Happiness which, according to hearsay, lies somewhere between St. Petersburg and the town of Uglich, near a deserted nuclear power station. The Belfry takes people, but it does not take everyone. Each of the five passengers believes that he or she will be chosen.", "poster_path": "/rRrBcigJh8YcKHASpIPAwWHyrwt.jpg", "release_date": "2012-09-07", "title": "Me Too", "video": false, "vote_average": 5.9, "vote_count": 22, "popularity": 2.35}, {"adult": false, "backdrop_path": "/f0MGhFRoW996mPamk62XUUTsuTE.jpg", "genre_ids": [12, 35], "id": 139300, "original_language": "en", "original_title": "\u0411\u0438\u043b\u0435\u0442 \u043d\u0430 Vegas", "overview": "Four Russian friends come from Moscow to Las Vegas to get 5 million dollars they've won in lottery. But everything goes wrong, when they discover that someone stole their winning ticket.", "poster_path": "/66MJKbBLeQecpm44XCLVLasdvmG.jpg", "release_date": "2013-01-24", "title": "Ticket to Vegas", "video": false, "vote_average": 3.6, "vote_count": 13, "popularity": 4.353}, {"adult": false, "backdrop_path": "/aeXBNBWmD2JTHNp6jXqVJbUirvS.jpg", "genre_ids": [35, 53], "id": 36618, "original_language": "lt", "original_title": "Zero II", "overview": "What would you get if you mix a gangster film and a soap opera? \"Zero 2\" is a crazy twister of criminal romance and sexy violence that just might laugh you to death.", "poster_path": "/6Nnp6CUTJr84t2fpMozqlp5aCA9.jpg", "release_date": "2010-01-21", "title": "Zero 2", "video": false, "vote_average": 6.4, "vote_count": 18, "popularity": 3.522}, {"adult": false, "backdrop_path": "/2fH77YwfVIbmeuc8oPZmmrKdAUz.jpg", "genre_ids": [18], "id": 60981, "original_language": "ru", "original_title": "\u0421\u0447\u0430\u0441\u0442\u044c\u0435 \u043c\u043e\u0435", "overview": "A routine run for a truck driver turns into a nightmare he can\u2019t escape in this psychological drama from filmmaker Sergei Loznitsa. Georgy (Viktor Nemets) is driving a load of freight into Russia when, after an unpleasant encounter with the police at a border crossing, he finds himself giving a lift to a strange old man (Vladimir Golovin) with disturbing stories about his younger days in the Army. After next picking up a young woman (Olga Shuvalova) who works as a prostitute and is wary of the territory, Georgy finds himself lost, and despite asking some homeless men for help, he\u2019s less sure than he was before of how to make his way back where he belongs. As brutal images of violence and alienation cross the screen, Georgy\u2019s odyssey becomes darker and more desperate until it reaches an unexpected conclusion.", "poster_path": "/nJL8F4jo4yzBz3tBUDCyuq0iv4H.jpg", "release_date": "2010-09-30", "title": "My Joy", "video": false, "vote_average": 6.8, "vote_count": 26, "popularity": 2.397}], "total_pages": 1, "total_results": 18}, "credits": {"cast": [{"cast_id": 4, "character": "Inna", "credit_id": "52fe4c55c3a368484e1b2e41", "gender": 1, "id": 1114558, "name": "Mariya Smolnikova", "order": 0, "profile_path": "/p702jBSsgYzv1xVOdQSn8mVFaZK.jpg"}, {"cast_id": 5, "character": "", "credit_id": "52fe4c55c3a368484e1b2e45", "gender": 2, "id": 1114559, "name": "Vladimir Mishukov", "order": 1, "profile_path": "/zsEZkaU1AboYOj5xsyJ7nnNokJV.jpg"}, {"cast_id": 6, "character": "", "credit_id": "52fe4c55c3a368484e1b2e49", "gender": 0, "id": 1114560, "name": "Igor Mazepa", "order": 2, "profile_path": null}, {"cast_id": 7, "character": "", "credit_id": "52fe4c55c3a368484e1b2e4d", "gender": 0, "id": 1114561, "name": "Oleg Tkachyov", "order": 3, "profile_path": null}, {"cast_id": 8, "character": "", "credit_id": "52fe4c55c3a368484e1b2e51", "gender": 2, "id": 1114562, "name": "Evgeniy Tkachuk", "order": 4, "profile_path": "/diWRXvHSKR8ZMpK1DJq0KFbk6GI.jpg"}, {"cast_id": 11, "character": "caretaker", "credit_id": "5ac9ce0992514162a4051c6d", "gender": 1, "id": 2018497, "name": "Olesya Ivantsova", "order": 5, "profile_path": null}], "crew": [{"credit_id": "52fe4c55c3a368484e1b2e31", "department": "Directing", "gender": 0, "id": 1109627, "job": "Director", "name": "Aleksandr Kasatkin", "profile_path": null}, {"credit_id": "52fe4c55c3a368484e1b2e37", "department": "Directing", "gender": 1, "id": 1059255, "job": "Director", "name": "Natalya Nazarova", "profile_path": "/ys9sR2O9XIAUggimfwZU4aC3DNk.jpg"}, {"credit_id": "52fe4c55c3a368484e1b2e3d", "department": "Writing", "gender": 1, "id": 1059255, "job": "Writer", "name": "Natalya Nazarova", "profile_path": "/ys9sR2O9XIAUggimfwZU4aC3DNk.jpg"}, {"credit_id": "5bf3a135c3a36818ae08b6c5", "department": "Camera", "gender": 2, "id": 1181876, "job": "Director of Photography", "name": "Andrey Naydyonov", "profile_path": "/g3Caq38jalhNB44g1DLXZ223Tez.jpg"}, {"credit_id": "5bf3a1420e0a26266f091a23", "department": "Sound", "gender": 2, "id": 1151246, "job": "Original Music Composer", "name": "Alexandr Manotskov", "profile_path": "/6911pJgqSYclWKmaRtUGVm9P1FS.jpg"}]}}