{"adult": false, "backdrop_path": null, "belongs_to_collection": null, "budget": 0, "genres": [{"id": 27, "name": "Horror"}], "homepage": "", "id": 139246, "imdb_id": "tt0000553", "original_language": "en", "original_title": "The Haunted Hotel", "overview": "A traveler stays the night at a rural inn, but gets no rest as he is tormented by various spectres and mysterious happenings.", "popularity": 2.167, "poster_path": "/c2xItDxojhwWgjs4OYvbu5xTlOC.jpg", "production_companies": [{"id": 15634, "logo_path": null, "name": "Vitagraph Company of America", "origin_country": ""}], "production_countries": [{"iso_3166_1": "US", "name": "United States of America"}], "release_date": "1907-02-23", "revenue": 0, "runtime": 4, "spoken_languages": [{"iso_639_1": "xx", "name": "No Language"}], "status": "Released", "tagline": "", "title": "The Haunted Hotel", "video": false, "vote_average": 5.9, "vote_count": 11, "keywords": {"keywords": [{"id": 9714, "name": "remake"}, {"id": 10224, "name": "haunting"}, {"id": 41593, "name": "meal"}, {"id": 154802, "name": "silent film"}, {"id": 162846, "name": "ghost"}, {"id": 196986, "name": "haunted hotel"}, {"id": 214549, "name": "short"}]}, "similar": {"page": 1, "results": [{"id": 14813, "video": false, "vote_count": 456, "vote_average": 7.6, "title": "Mickey's Christmas Carol", "release_date": "1983-10-19", "original_language": "en", "original_title": "Mickey's Christmas Carol", "genre_ids": [16, 10751], "backdrop_path": "/fDK3xeAcQfQ40ZUULgZshElkspa.jpg", "adult": false, "overview": "It is an adaptation of the Charles Dickens classic A Christmas Carol, featuring Scrooge McDuck as his namesake and inspiration Ebenezer Scrooge and Mickey Mouse as Bob Cratchit. This film was based on a 1972 audio musical entitled Disney's A Christmas Carol. It is a twenty-four minute animated short film produced by Walt Disney Productions as an accompaniment to a re-release of The Rescuers.", "poster_path": "/29iF1IiC3ZyJQ1kmTf4LD8p8oro.jpg", "popularity": 14.7}, {"id": 625719, "video": false, "vote_count": 1, "vote_average": 3.0, "title": "Martin's Close", "release_date": "2019-12-24", "original_language": "en", "original_title": "Martin's Close", "genre_ids": [27, 10770], "backdrop_path": "/gcccicGB2eKpE8K50wGXa9GJY3M.jpg", "adult": false, "overview": "Part of the long running tradition of 'A Ghost Story For Christmas' on BBC Four in the UK, and the third instalment presented by Mark Gatiss. A young squire accused of murdering a young girl that did not return his feelings of love reveals a supernatural secret at his trial.", "poster_path": "/ArhYVKnfILuWERuUyuvWJd1jqRm.jpg", "popularity": 6.706}, {"id": 621733, "video": false, "vote_count": 0, "vote_average": 0.0, "title": "A Trip to the Seaside", "release_date": "2019-08-30", "original_language": "en", "original_title": "A Trip to the Seaside", "genre_ids": [99], "backdrop_path": null, "adult": false, "overview": "Experimental short film on the excitement and rush of a day trip", "poster_path": "/AuZVhpoJ4jm2LWDhoJKfxQfhDAi.jpg", "popularity": 1.324}, {"id": 326359, "video": false, "vote_count": 1180, "vote_average": 6.8, "title": "Frozen Fever", "release_date": "2015-03-09", "original_language": "en", "original_title": "Frozen Fever", "genre_ids": [12, 16, 10751], "backdrop_path": "/ubioPGniCfDiASmYYpeJs5RRNaC.jpg", "adult": false, "overview": "On Anna's birthday, Elsa and Kristoff are determined to give her the best celebration ever, but Elsa's icy powers may put more than just the party at risk.", "poster_path": "/lKJiVPzsAO9IJ4LKWXZ8vkR2bg4.jpg", "popularity": 17.218}, {"adult": false, "backdrop_path": "/5OeY4U2rzePxWq2rkqMajUx2gz7.jpg", "genre_ids": [16, 10751, 12, 14, 10749], "id": 812, "original_language": "en", "original_title": "Aladdin", "overview": "Princess Jasmine grows tired of being forced to remain in the palace, so she sneaks out into the marketplace, in disguise, where she meets street-urchin Aladdin.  The couple falls in love, although Jasmine may only marry a prince.  After being thrown in jail, Aladdin becomes embroiled in a plot to find a mysterious lamp, with which the evil Jafar hopes to rule the land.", "poster_path": "/mjKozYRuHc9j7SmiXmbVmCiAM0A.jpg", "release_date": "1992-11-25", "title": "Aladdin", "video": false, "vote_average": 7.6, "vote_count": 7289, "popularity": 35.494}, {"adult": false, "backdrop_path": "/wcT7srQ4GeeMqlszMFEtPZ7v8T7.jpg", "genre_ids": [35, 10749], "id": 28978, "original_language": "en", "original_title": "The Circus", "overview": "Charlie, a wandering tramp, becomes a circus handyman and falls in love with the circus owner's daughter. Unaware of Charlie's affection, the girl falls in love with a handsome young performer. Charlie's versatility makes him star of the show when he substitutes for an ailing tightwire walker. He is discharged from the company when he protects the girl from her father's abuse, but he returns and appeals to the handsome performer to marry the girl. After the wedding the father prevails upon them to rejoin the circus. Charlie is hired again, but he stays behind when the caravan moves on.", "poster_path": "/awTf4Y6TGvgi3VYtGNINyyJJy9Q.jpg", "release_date": "1928-01-06", "title": "The Circus", "video": false, "vote_average": 8.2, "vote_count": 330, "popularity": 12.839}, {"id": 901, "video": false, "vote_count": 1026, "vote_average": 8.4, "title": "City Lights", "release_date": "1931-02-01", "original_language": "xx", "original_title": "City Lights", "genre_ids": [35, 18, 10749], "backdrop_path": "/vT6ux2rdyg2kexuLisO5Ygz7pHg.jpg", "adult": false, "overview": "City Lights is the first silent film that Charlie Chaplin directed after he established himself with sound accompanied films. The film is about a penniless man who falls in love with a flower girl.", "poster_path": "/bXNvzjULc9jrOVhGfjcc64uKZmZ.jpg", "popularity": 14.645}, {"id": 620, "video": false, "vote_count": 5187, "vote_average": 7.4, "title": "Ghostbusters", "release_date": "1984-06-08", "original_language": "en", "original_title": "Ghostbusters", "genre_ids": [35, 14], "backdrop_path": "/qmDy6Rdom8d8UFj9GeAAtVIjTRT.jpg", "adult": false, "overview": "After losing their academic posts at a prestigious university, a team of parapsychologists goes into business as proton-pack-toting \"ghostbusters\" who exterminate ghouls, hobgoblins and supernatural pests of all stripes. An ad campaign pays off when a knockout cellist hires the squad to purge her swanky digs of demons that appear to be living in her refrigerator.", "poster_path": "/3FS3oBdorgczgfCkFi2u8ZTFfpS.jpg", "popularity": 24.995}, {"id": 150540, "video": false, "vote_count": 13957, "vote_average": 7.9, "title": "Inside Out", "release_date": "2015-06-09", "original_language": "en", "original_title": "Inside Out", "genre_ids": [16, 35, 18, 10751], "backdrop_path": "/szytSpLAyBh3ULei3x663mAv5ZT.jpg", "adult": false, "overview": "Growing up can be a bumpy road, and it's no exception for Riley, who is uprooted from her Midwest life when her father starts a new job in San Francisco. Riley's guiding emotions\u2014 Joy, Fear, Anger, Disgust and Sadness\u2014live in Headquarters, the control centre inside Riley's mind, where they help advise her through everyday life and tries to keep things positive, but the emotions conflict on how best to navigate a new city, house and school.", "poster_path": "/aAmfIX3TT40zUHGcCKrlOZRKC7u.jpg", "popularity": 57.362}, {"id": 650755, "video": false, "vote_count": 0, "vote_average": 0.0, "title": "Atordoado, Eu Permane\u00e7o Atento", "release_date": "2020-01-15", "original_language": "pt", "original_title": "Atordoado, Eu Permane\u00e7o Atento", "genre_ids": [99], "backdrop_path": null, "adult": false, "overview": "", "poster_path": "/exbM8qk6f6T44olJXcM8ix1sunL.jpg", "popularity": 5.092}, {"adult": false, "backdrop_path": "/twGxeStlGooWV3gP6ZIcSNuQ6jf.jpg", "genre_ids": [12, 16, 10751, 14], "id": 81684, "original_language": "en", "original_title": "The Gruffalo's Child", "overview": "A follow up to the 2009 animated feature and adapted from the childrens' book by Julia Donaldson and Alex Scheffler.  The Gruffalo's child explores the deep dark wood in search of the big bad mouse and meets the Snake, Owl and Fox in the process.  She eventually finds the mouse, who manages to outwit her like the Gruffalo before!", "poster_path": "/qaGH2AoaLvoGXURQtNzj1nw6oZd.jpg", "release_date": "2011-12-25", "title": "The Gruffalo's Child", "video": false, "vote_average": 6.9, "vote_count": 73, "popularity": 9.51}, {"adult": false, "backdrop_path": "/97vocRyj35cdKwCpK4ZEfb7oFZm.jpg", "genre_ids": [27, 53], "id": 77949, "original_language": "en", "original_title": "The Awakening", "overview": "1921 England is overwhelmed by the loss and grief of World War I. Hoax exposer Florence Cathcart (Hall) visits a boarding school to explain sightings of a child ghost.", "poster_path": "/1iIB1eR9pFxoOdAp4FhPCYwQ1TA.jpg", "release_date": "2011-08-17", "title": "The Awakening", "video": false, "vote_average": 6.4, "vote_count": 868, "popularity": 15.354}, {"id": 234, "video": false, "vote_count": 652, "vote_average": 7.9, "title": "The Cabinet of Dr. Caligari", "release_date": "1920-02-25", "original_language": "de", "original_title": "Das Cabinet des Dr. Caligari", "genre_ids": [80, 18, 27, 53], "backdrop_path": "/6Xt1Iq0sct6LQcGF4WA5I4VqQmP.jpg", "adult": false, "overview": "Francis, a young man, recalls in his memory the horrible experiences he and his fianc\u00e9e Jane recently went through. It is the annual fair in Holstenwall. Francis and his friend Alan visit The Cabinet of Dr. Caligari, an exhibit where the mysterious doctor shows the somnambulist Cesare, and awakens him for some moments from his death-like sleep. When Alan asks Cesare about his future, Cesare answers that he will die before dawn. The next morning Alan is found dead. Francis suspects Cesare of being the murderer, and starts spying on him and Dr. Caligari.", "poster_path": "/myK9DeIsXWGKgUTZyGXg2IfFk0W.jpg", "popularity": 12.337}, {"adult": false, "backdrop_path": "/zZAJke7HMmQfc52L1AzvQkmMR3e.jpg", "genre_ids": [53, 27, 18], "id": 288158, "original_language": "en", "original_title": "The Woman in Black 2: Angel of Death", "overview": "40 years after the first haunting at Eel Marsh House, a group of children evacuated from WWII London arrive, awakening the house's darkest inhabitant.", "poster_path": "/kzWRtyMtazWA22LJXA64KKZ3slY.jpg", "release_date": "2014-12-30", "title": "The Woman in Black 2: Angel of Death", "video": false, "vote_average": 5.1, "vote_count": 681, "popularity": 9.114}, {"adult": false, "backdrop_path": "/hgn5SrO9lRh6yRkoubBH9x1NqHm.jpg", "genre_ids": [27, 53], "id": 416160, "original_language": "en", "original_title": "The Vault", "overview": "Two estranged sisters are forced to rob a bank in order to save their brother. But this is no ordinary bank.", "poster_path": "/ycK6nMAEjViBT4b3scuKpNRnilB.jpg", "release_date": "2017-09-01", "title": "The Vault", "video": false, "vote_average": 4.8, "vote_count": 221, "popularity": 13.994}, {"adult": false, "backdrop_path": "/8c4ipOaoLPKAZRm5yaAuihKsm04.jpg", "genre_ids": [16, 10751], "id": 13934, "original_language": "en", "original_title": "Mater and the Ghostlight", "overview": "Mater, the rusty but trusty tow truck from Cars, spends a day in Radiator Springs playing scary pranks on his fellow townsfolk. That night at Flo's V8 Caf\u00e9, the Sheriff tells the story of the legend of the Ghostlight, and as everyone races home Mater is left alone primed for a good old-fashioned scare.", "poster_path": "/sQWHFt51t3ZaOskX27OUwBqQilv.jpg", "release_date": "2006-07-27", "title": "Mater and the Ghostlight", "video": false, "vote_average": 6.2, "vote_count": 224, "popularity": 13.677}, {"id": 2655, "video": false, "vote_count": 1018, "vote_average": 6.4, "title": "What Lies Beneath", "release_date": "2000-07-21", "original_language": "en", "original_title": "What Lies Beneath", "genre_ids": [18, 27, 9648, 53], "backdrop_path": "/h3A6QXt8t35YQrSvbF9hOkKeeB9.jpg", "adult": false, "overview": "When Claire Spencer starts hearing ghostly voices and seeing spooky images, she wonders if an otherworldly spirit is trying to contact her. All the while, her husband tries to reassure her by telling her it's all in her head. But as Claire investigates, she discovers that the man she loves might know more than he's letting on.", "poster_path": "/A1mrfm8LEv7L28q50ld8QI5z9Iu.jpg", "popularity": 15.628}, {"id": 26317, "video": false, "vote_count": 283, "vote_average": 8.0, "title": "Man with a Movie Camera", "release_date": "1929-01-08", "original_language": "ru", "original_title": "\u0427\u0435\u043b\u043e\u0432\u0435\u043a \u0441 \u043a\u0438\u043d\u043e\u0430\u043f\u043f\u0430\u0440\u0430\u0442\u043e\u043c", "genre_ids": [99], "backdrop_path": "/8mg8GZePag5LZVhveBTL92Ufh5W.jpg", "adult": false, "overview": "A cameraman wanders around Moscow, Kharkov, Kiev and Odessa with a camera slung over his shoulder, documenting urban life with dazzling invention.", "poster_path": "/Ded5Kl7MDZQTbFpoNI62tLVWUN.jpg", "popularity": 9.16}, {"adult": false, "backdrop_path": "/hPByrqJXCXIViFheXQh48wtI7T6.jpg", "genre_ids": [16, 12, 14, 10751], "id": 31135, "original_language": "en", "original_title": "Mickey Mouse: Mickey and the Beanstalk", "overview": "Based on the timeless adventures of \"Jack and the Beanstalk,\" Mickey, Donald and Goofy climb a fantastic beanstalk up into the sky to a place where everything is huge -- the food, the castle and the fearsome giant named Willy who guards a beautiful golden harp! Will Mickey and his friends outwit the giant and make it safely back home?", "poster_path": "/kk1Xg1f1lv6loekjlKinpKJlGOu.jpg", "release_date": "1947-09-27", "title": "Mickey Mouse: Mickey and the Beanstalk", "video": false, "vote_average": 6.7, "vote_count": 166, "popularity": 13.649}, {"adult": false, "backdrop_path": "/2CR4OT6Ou4axUfThbJ6sbnMGWWm.jpg", "genre_ids": [12, 14, 878], "id": 775, "original_language": "fr", "original_title": "Le Voyage dans la Lune", "overview": "Professor Barbenfouillis and five of his colleagues from the Academy of Astronomy travel to the Moon aboard a rocket propelled by a giant cannon. Once on the lunar surface, the bold explorers face the many perils hidden in the caves of the mysterious satellite.", "poster_path": "/zztHYAfSecYuaDyIjQudjKaOLLY.jpg", "release_date": "1902-09-01", "title": "A Trip to the Moon", "video": false, "vote_average": 8.0, "vote_count": 822, "popularity": 12.649}], "total_pages": 164, "total_results": 3273}, "recommendations": {"page": 1, "results": [{"adult": false, "backdrop_path": null, "genre_ids": [35], "id": 179541, "original_language": "en", "original_title": "The Biter Bit", "overview": "A gardener is watering a garden. A prankster stands on his hose halting the flow until he looks at the nozzle and gets a stream of water to the face. He notices the prankster and gives him his comeuppance. Remake of the Lumiere film Arroseur et arros\u00e9.", "poster_path": "/wi8sxMp2kDVnleYl3o71NIDPh7q.jpg", "release_date": "1900-01-01", "title": "The Biter Bit", "video": false, "vote_average": 5.6, "vote_count": 5, "popularity": 1.016}, {"adult": false, "backdrop_path": null, "genre_ids": [12], "id": 48600, "original_language": "en", "original_title": "Ali Baba et les quarante voleurs", "overview": "", "poster_path": "/wi8sxMp2kDVnleYl3o71NIDPh7q.jpg", "release_date": "1907-11-23", "title": "Ali Baba and the Forty Thieves", "video": false, "vote_average": 7.3, "vote_count": 4, "popularity": 1.062}, {"adult": false, "backdrop_path": null, "genre_ids": [99], "id": 190707, "original_language": "en", "original_title": "Move On", "overview": "In certain sections of New York City large numbers of Jewish and Italian push-cart vendors congregate so closely along the sidewalks that they interfere with traffic. Policemen keep them moving. The picture shows how the frightened peddlers hurry away when a bluecoat appears. Some of the carts are piled high with fruits of all kinds, and it is interesting and amusing to see the expressions of combined fear and anxiety on the faces of the men as they hurry away; the fear of being arrested if they stand, and of losing some of their wares if the carts strike an obstruction in the street. Very fine photographically. (Edison film company catalog)", "poster_path": "/2uwmviASe2ahAPjP2Cg0kA7ipHt.jpg", "release_date": "1903-10-11", "title": "Move On", "video": false, "vote_average": 5.3, "vote_count": 4, "popularity": 1.074}, {"adult": false, "backdrop_path": "/jBWrflELrh1mGMPlGR3I0SeAynf.jpg", "genre_ids": [16, 10751, 10749], "id": 162528, "original_language": "fr", "original_title": "Le petit soldat", "overview": "A budding romance between two toy dancers is put into dangers when the boy is conscripted into the toy army.", "poster_path": "/fDXT0acOTq1deVT3ggF6rcgoYWw.jpg", "release_date": "1947-08-27", "title": "The Little Soldier", "video": false, "vote_average": 5.5, "vote_count": 11, "popularity": 1.745}, {"adult": false, "backdrop_path": null, "genre_ids": [], "id": 236711, "original_language": "en", "original_title": "The Autobiography of a 'Jeep'", "overview": "The invention and use of a jeep are described, from the viewpoint of one of the vehicles.", "poster_path": "/xDr4IQLYh8voW9GJPHuA6UCgyE4.jpg", "release_date": "1943-11-14", "title": "The Autobiography of a 'Jeep'", "video": false, "vote_average": 5.3, "vote_count": 4, "popularity": 0.611}, {"adult": false, "backdrop_path": "/b2qDeH8arjk8WUCYcoLJTrvBRay.jpg", "genre_ids": [16], "id": 227464, "original_language": "it", "original_title": "Una Vita In Scatola", "overview": "From being born until his death, a man spends most of his time \"imprisoned\" in boxes.", "poster_path": "/bZfE2Rxe4deGj4G8i0fnAqvO3Fx.jpg", "release_date": "1967-01-01", "title": "Life in a Tin", "video": false, "vote_average": 6.4, "vote_count": 9, "popularity": 0.949}, {"adult": false, "backdrop_path": null, "genre_ids": [], "id": 152453, "original_language": "en", "original_title": "Enfants p\u00eachant des crevettes", "overview": "Children dig for clams on the beach", "poster_path": "/9DYnS6jo3aPXWsbpfBd1q2YR3mX.jpg", "release_date": "1896-01-01", "title": "Children Digging for Clams", "video": false, "vote_average": 5.1, "vote_count": 10, "popularity": 1.061}, {"adult": false, "backdrop_path": null, "genre_ids": [10402], "id": 120011, "original_language": "fr", "original_title": "F\u00e9lix Mayol, Questions indiscr\u00e8tes", "overview": "Felix Mayol performs a song, in colour.", "poster_path": "/AfOfZjkNwdSZfsDEUdgRMGwvX06.jpg", "release_date": "1906-01-01", "title": "F\u00e9lix Mayol Performs \"Indiscreet Questions\"", "video": false, "vote_average": 6.5, "vote_count": 4, "popularity": 1.058}, {"adult": false, "backdrop_path": null, "genre_ids": [35], "id": 120025, "original_language": "fr", "original_title": "La v\u00e9rit\u00e9 sur l'homme-singe", "overview": "A balding man drinks a whole bottle of hair tonic. The unexpected surplus of hair promises a successful showbiz career for him and his wife.", "poster_path": "/taFEkOaR4X3q0SYiYoDJuynYYQ5.jpg", "release_date": "1906-01-01", "title": "The Truth Behind the Ape-Man", "video": false, "vote_average": 4.8, "vote_count": 4, "popularity": 0.806}, {"adult": false, "backdrop_path": null, "genre_ids": [], "id": 120007, "original_language": "fr", "original_title": "Saharet, bol\u00e9ro", "overview": "Saharet performs the bolero for Alice Guy.", "poster_path": "/2rLeCibyGRET3Ndi8lpuuPn21K3.jpg", "release_date": "1905-01-01", "title": "Saharet Performs the Bolero", "video": false, "vote_average": 4.0, "vote_count": 4, "popularity": 0.737}, {"adult": false, "backdrop_path": null, "genre_ids": [99], "id": 120003, "original_language": "fr", "original_title": "Le coq dress\u00e9 de Cook et Rilly", "overview": "An early sound-synchronized short of a rooster crowing.", "poster_path": "/pjgYc6HT1dHeVdd4uYbnY7z0ztk.jpg", "release_date": "1905-01-01", "title": "Cook & Rilly's Trained Rooster", "video": false, "vote_average": 4.8, "vote_count": 4, "popularity": 0.778}, {"adult": false, "backdrop_path": null, "genre_ids": [], "id": 119997, "original_language": "fr", "original_title": "Espagne", "overview": "Alice Guy shoots a travelogue documentary all around Spain.", "poster_path": "/9h5ECmXJxrTBbQJO4x6XDQaQ0iy.jpg", "release_date": "1905-01-01", "title": "Spain", "video": false, "vote_average": 5.4, "vote_count": 5, "popularity": 0.774}, {"adult": false, "backdrop_path": null, "genre_ids": [], "id": 196039, "original_language": "en", "original_title": "Nervy Nat Kisses the Bride", "overview": "A tramp gets involved in mischief on a train.", "poster_path": "/ppvbLbAarvmZ1bGAS1We5bdLExa.jpg", "release_date": "1904-09-30", "title": "Nervy Nat Kisses the Bride", "video": false, "vote_average": 3.5, "vote_count": 4, "popularity": 0.711}, {"adult": false, "backdrop_path": null, "genre_ids": [99], "id": 120005, "original_language": "fr", "original_title": "Alice Guy tourne une phonosc\u00e8ne sur la th\u00e9\u00e2tre de pose des Buttes-Chaumont", "overview": "Behind-the-scenes footage showing Alice Guy directing an early sound film.", "poster_path": "/9uUmZkSEFkoa55w91fv1W7Ps3ty.jpg", "release_date": "1907-01-01", "title": "Alice Guy Films a 'Phonosc\u00e8ne' in the Studio at Buttes-Chaumont, Paris", "video": false, "vote_average": 6.5, "vote_count": 4, "popularity": 0.775}, {"adult": false, "backdrop_path": null, "genre_ids": [99], "id": 231110, "original_language": "fr", "original_title": "Balan\u00e7oires", "overview": "19th century carnival ride.", "poster_path": "/2cXHEfeMluJrXRPcsJqV2NYMaTv.jpg", "release_date": "1896-05-30", "title": "Balan\u00e7oires", "video": false, "vote_average": 5.9, "vote_count": 8, "popularity": 0.953}, {"adult": false, "backdrop_path": null, "genre_ids": [99], "id": 178714, "original_language": "en", "original_title": "San Francisco: Aftermath of Earthquake", "overview": "Footage shot not long after the 1906 earthquake in San Francisco is edited together so that more than one scene and more than one vantage are included. We see fire raging. We see burned-out buildings, piles of rubble, and buildings with only one wall standing. People stand and watch; others walk purposely through the debris. A carriage passes; the camera pans the desolation. A horse-drawn cart is laden with a family's remaining possessions. A sign hangs outside one building: \"A little disfigured but still in business. Men Wanted.\"", "poster_path": "/jxgVqGLLNkJ8yqYAIvWXHeKOzej.jpg", "release_date": "1906-01-01", "title": "San Francisco: Aftermath of Earthquake", "video": false, "vote_average": 4.8, "vote_count": 5, "popularity": 1.597}, {"adult": false, "backdrop_path": null, "genre_ids": [35], "id": 120016, "original_language": "fr", "original_title": "Une course d'obstacle", "overview": "A bunch of people run an obstacle course all around town.", "poster_path": "/52pSnNE6buaaSAChWk1ydRuGXEN.jpg", "release_date": "1906-01-01", "title": "An Obstacle Course", "video": false, "vote_average": 5.0, "vote_count": 4, "popularity": 0.84}, {"adult": false, "backdrop_path": null, "genre_ids": [], "id": 105169, "original_language": "en", "original_title": "Cripple Creek Bar-Room Scene", "overview": "Rowdy patrons visit an Old West saloon.", "poster_path": "/d4UuRN2AQMV1RLdZQVvlwKMcWgj.jpg", "release_date": "1899-05-01", "title": "Cripple Creek Bar-Room Scene", "video": false, "vote_average": 4.4, "vote_count": 7, "popularity": 1.413}, {"adult": false, "backdrop_path": null, "genre_ids": [99], "id": 178712, "original_language": "en", "original_title": "The Georgetown Loop (Colorado)", "overview": "Georgetown is a silver-mining town at 8,500 feet near the crest of the Rockies. Hooked somehow to the rear of a four-car passenger train is a camera that pans the scenery and, when the train goes around curves, looks ahead to see the engine and passenger cars: the passengers wave hundreds of white handkerchiefs out of the train's left-side windows for the benefit of the camera. The town comes into view; the tracks are above the town, so the camera looks down on dozens of modest rooftops as it pans the area.", "poster_path": "/lvDFS51sBL5Gk0bNQUJc3YA4ipf.jpg", "release_date": "1903-01-01", "title": "The Georgetown Loop (Colorado)", "video": false, "vote_average": 5.5, "vote_count": 4, "popularity": 0.767}, {"adult": false, "backdrop_path": null, "genre_ids": [35], "id": 120037, "original_language": "fr", "original_title": "Une h\u00e9ro\u00efne de quatre ans", "overview": "A four-year-old saves the day.", "poster_path": "/rjLaQj112wRUFs4YWGOslAee4xe.jpg", "release_date": "1907-10-01", "title": "A Four-Year-Old Heroine", "video": false, "vote_average": 5.9, "vote_count": 7, "popularity": 0.973}], "total_pages": 2, "total_results": 40}, "credits": {"cast": [{"cast_id": 2, "character": "", "credit_id": "52fe4c5ec3a368484e1b4b8b", "gender": 2, "id": 931793, "name": "Paul Panzer", "order": 0, "profile_path": "/kc557GkzS3AIGz67kxOEFxGjGY2.jpg"}, {"cast_id": 3, "character": "", "credit_id": "52fe4c5ec3a368484e1b4b8f", "gender": 2, "id": 1110407, "name": "William V. Ranous", "order": 1, "profile_path": null}], "crew": [{"credit_id": "52fe4c5ec3a368484e1b4b87", "department": "Directing", "gender": 2, "id": 1100017, "job": "Director", "name": "J. Stuart Blackton", "profile_path": "/ofX2PNvE8ZDCeNqhyyrHsAaewX7.jpg"}, {"credit_id": "597ca5a39251410731013fd4", "department": "Camera", "gender": 2, "id": 1173774, "job": "Other", "name": "Albert E. Smith", "profile_path": null}]}}