{"adult": false, "backdrop_path": null, "belongs_to_collection": null, "budget": 0, "genres": [{"id": 9648, "name": "Mystery"}, {"id": 18, "name": "Drama"}], "homepage": null, "id": 139341, "imdb_id": "tt0077965", "original_language": "en", "original_title": "Mysteries", "overview": "In the winter of 1891 a stranger arrives in a small coastal town on the Isle of Man. His presence soon disturbs the lives of the local inhabitants, especially the beautiful daughter of the parson.", "popularity": 1.325, "poster_path": "/hytVJZFOT8muKI4oXabqK4R0h4T.jpg", "production_companies": [{"id": 15187, "logo_path": null, "name": "Sigma Film Productions", "origin_country": ""}], "production_countries": [{"iso_3166_1": "NL", "name": "Netherlands"}], "release_date": "1978-09-07", "revenue": 0, "runtime": 97, "spoken_languages": [{"iso_639_1": "en", "name": "English"}], "status": "Released", "tagline": "", "title": "Mysteries", "video": false, "vote_average": 8.0, "vote_count": 1, "keywords": {"keywords": [{"id": 236, "name": "suicide"}, {"id": 1415, "name": "small town"}, {"id": 156104, "name": "stranger"}, {"id": 209979, "name": "isle of man"}]}, "similar": {"page": 1, "results": [{"adult": false, "backdrop_path": "/bJLJAtGjBj836UjJZNOwgrfe5Ps.jpg", "genre_ids": [80, 18], "id": 359940, "original_language": "en", "original_title": "Three Billboards Outside Ebbing, Missouri", "overview": "After seven months have passed without a culprit in her daughter's murder case, Mildred Hayes makes a bold move, painting three signs leading into her town with a controversial message directed at Bill Willoughby, the town's revered chief of police. When his second-in-command Officer Jason Dixon, an immature mother's boy with a penchant for violence, gets involved, the battle between Mildred and Ebbing's law enforcement is only exacerbated.", "poster_path": "/vgvw6w1CtcFkuXXn004S5wQsHRl.jpg", "release_date": "2017-11-10", "title": "Three Billboards Outside Ebbing, Missouri", "video": false, "vote_average": 8.2, "vote_count": 6122, "popularity": 26.303}, {"adult": false, "backdrop_path": "/qK77FcPjWwJDmJTwlZc8L31o8En.jpg", "genre_ids": [18, 878], "id": 62215, "original_language": "da", "original_title": "Melancholia", "overview": "Two sisters find their already strained relationship challenged as a mysterious new planet threatens to collide with Earth.", "poster_path": "/eCjATHunhgLl9ARKUFtmKguaWDJ.jpg", "release_date": "2011-05-26", "title": "Melancholia", "video": false, "vote_average": 7.2, "vote_count": 1841, "popularity": 19.144}, {"id": 146015, "video": false, "vote_count": 598, "vote_average": 6.6, "title": "The Double", "release_date": "2014-04-04", "original_language": "en", "original_title": "The Double", "genre_ids": [18, 53], "backdrop_path": "/gSNqUnQSgYWxsFQ59xH077dW1Zx.jpg", "adult": false, "overview": "An awkward office drone becomes increasingly unhinged after a charismatic and confident look-alike takes a job at his workplace and seduces the woman he desires.", "poster_path": "/hN6bP9XWKHI8JhlZpk8ieF1lcyG.jpg", "popularity": 11.771}, {"id": 284276, "video": false, "vote_count": 615, "vote_average": 6.3, "title": "Cake", "release_date": "2014-09-07", "original_language": "en", "original_title": "Cake", "genre_ids": [18], "backdrop_path": "/iGRutrtJcsdk5y3xvVU8WewSowZ.jpg", "adult": false, "overview": "After having visions of a member of her support group who killed herself, a woman who also suffers with chronic pain seeks out the widower of the suicide.", "poster_path": "/wnX7WTcrwi30DyBusT1qJpQ8LzG.jpg", "popularity": 12.919}, {"id": 1427, "video": false, "vote_count": 2511, "vote_average": 7.2, "title": "Perfume: The Story of a Murderer", "release_date": "2006-09-13", "original_language": "en", "original_title": "Perfume: The Story of a Murderer", "genre_ids": [80, 18, 14], "backdrop_path": "/3i8bJa5yvLZW2k4sg2Cd1Yy0a1x.jpg", "adult": false, "overview": "Jean-Baptiste Grenouille, born in the stench of 18th century Paris, develops a superior olfactory sense, which he uses to create the world's finest perfumes. However, his work takes a dark turn as he tries to preserve scents in the search for the ultimate perfume.", "poster_path": "/zC9JHS6NlkJKPYFxOOqBl7fQCjT.jpg", "popularity": 20.263}, {"id": 14537, "video": false, "vote_count": 304, "vote_average": 8.3, "title": "Harakiri", "release_date": "1962-09-15", "original_language": "ja", "original_title": "\u5207\u8179", "genre_ids": [28, 18, 36], "backdrop_path": "/pz9fxHyGiiNLZ21bccAtwrMAH7f.jpg", "adult": false, "overview": "Aging samurai Hanshiro Tsugumo arrives at the home of Kageyu Saito and asks to commit a ritual suicide on the property, which Saito thinks is a ploy to gain pity and a job. Saito tells Tsugumo of another samurai, Motome Chijiiwa, who threatened suicide as a stratagem, only to be forced to follow through on the task. When Tsugumo reveals that Chijiiwa was his son-in-law, the disclosure sets off a fierce conflict.", "poster_path": "/k2SE5P8expiI4Pt9qzIX0xJn94E.jpg", "popularity": 15.33}, {"id": 1632, "video": false, "vote_count": 770, "vote_average": 7.6, "title": "Mississippi Burning", "release_date": "1988-12-08", "original_language": "en", "original_title": "Mississippi Burning", "genre_ids": [80, 18, 53], "backdrop_path": "/4ypwob4uxh0q1osOFq2Wh7zdopT.jpg", "adult": false, "overview": "Two FBI agents investigating the murder of civil rights workers during the 60s seek to breach the conspiracy of silence in a small Southern town where segregation divides black and white. The younger agent trained in FBI school runs up against the small town ways of his partner, a former sheriff.", "poster_path": "/uSukdUQwx0l4rRuMXNqugR1tu4n.jpg", "popularity": 16.862}, {"id": 296096, "video": false, "vote_count": 6566, "vote_average": 7.7, "title": "Me Before You", "release_date": "2016-06-01", "original_language": "en", "original_title": "Me Before You", "genre_ids": [18, 10749], "backdrop_path": "/o4lxNwKJz8oq3R0kLOIsDlHbDhZ.jpg", "adult": false, "overview": "A small town girl is caught between dead-end jobs. A high-profile, successful man becomes wheelchair bound following an accident. The man decides his life is not worth living until the girl is hired for six months to be his new caretaker. Worlds apart and trapped together by circumstance, the two get off to a rocky start. But the girl becomes determined to prove to the man that life is worth living and as they embark on a series of adventures together, each finds their world changing in ways neither of them could begin to imagine.", "poster_path": "/oN5lELHH5Xheiy0YdhnY3JB4hx2.jpg", "popularity": 22.304}, {"id": 473149, "video": false, "vote_count": 194, "vote_average": 5.9, "title": "Traffik", "release_date": "2018-04-20", "original_language": "en", "original_title": "Traffik", "genre_ids": [27, 53], "backdrop_path": "/wbk9VvJ8lkUF0ElpfRm3dFIzMJf.jpg", "adult": false, "overview": "A couple off for a romantic weekend in the mountains are accosted by a biker gang. Alone in the mountains, Brea and John must defend themselves against the gang, who will stop at nothing to protect their secrets.", "poster_path": "/e2Z466e9402RFP6wxRMfXYYiJHA.jpg", "popularity": 22.593}, {"adult": false, "backdrop_path": "/3N0XNfknTOpGwYadltyDSszCZmZ.jpg", "genre_ids": [28, 878], "id": 2048, "original_language": "en", "original_title": "I, Robot", "overview": "In 2035, where robots are common-place and abide by the three laws of robotics, a techno-phobic cop investigates an apparent suicide. Suspecting that a robot may be responsible for the death, his investigation leads him to believe that humanity may be in danger.", "poster_path": "/2mkFzf168xJrV6Leqq0bjqOlJCK.jpg", "release_date": "2004-07-15", "title": "I, Robot", "video": false, "vote_average": 6.9, "vote_count": 7608, "popularity": 41.593}, {"id": 346364, "video": false, "vote_count": 12548, "vote_average": 7.2, "title": "It", "release_date": "2017-09-06", "original_language": "en", "original_title": "It", "genre_ids": [27], "backdrop_path": "/tcheoA2nPATCm2vvXw2hVQoaEFD.jpg", "adult": false, "overview": "In a small town in Maine, seven children known as The Losers Club come face to face with life problems, bullies and a monster that takes the shape of a clown called Pennywise.", "poster_path": "/9E2y5Q7WlCVNEhP5GiVTjhEhx1o.jpg", "popularity": 27.289}, {"id": 59967, "video": false, "vote_count": 7205, "vote_average": 6.8, "title": "Looper", "release_date": "2012-09-26", "original_language": "en", "original_title": "Looper", "genre_ids": [28, 878, 53], "backdrop_path": "/vuHG8VlYnvw4gUKtS7GY5kZol69.jpg", "adult": false, "overview": "In the futuristic action thriller Looper, time travel will be invented but it will be illegal and only available on the black market. When the mob wants to get rid of someone, they will send their target 30 years into the past where a looper, a hired gun, like Joe is waiting to mop up. Joe is getting rich and life is good until the day the mob decides to close the loop, sending back Joe's future self for assassination.", "poster_path": "/sNjL6SqErDBE8OUZlrDLkexfsCj.jpg", "popularity": 24.08}, {"adult": false, "backdrop_path": "/1l77Gk2OK9hjRFze08El8Do3pT1.jpg", "genre_ids": [80, 9648, 53], "id": 996, "original_language": "en", "original_title": "Double Indemnity", "overview": "A rich woman and a calculating insurance agent plot to kill her unsuspecting husband after he signs a double indemnity policy.  Against a backdrop of distinctly Californian settings, the partners in crime plan the perfect murder to collect the insurance, which pays  double if the death is accidental.", "poster_path": "/nW0cCpfuGcR1JG7EinDbdL2Ijf2.jpg", "release_date": "1944-07-03", "title": "Double Indemnity", "video": false, "vote_average": 8.2, "vote_count": 858, "popularity": 14.326}, {"id": 14054, "video": false, "vote_count": 79, "vote_average": 6.5, "title": "Snow Angels", "release_date": "2008-03-07", "original_language": "en", "original_title": "Snow Angels", "genre_ids": [18, 10749], "backdrop_path": "/1NZW8l6OJslXIJkx9PpGCUNJdZn.jpg", "adult": false, "overview": "Waitress Annie has separated from her suicidal alcoholic husband, Glenn. Glenn has become an evangelical Christian, but his erratic attempts at getting back into Annie's life have alarmed her. High school student Arthur works at Annie's restaurant, growing closer to a new kid in town, Lila, after class. When Glenn and Annie's daughter go missing, the whole town searches for her, as he increasingly spirals out of control.", "poster_path": "/vpQQH3HlzEmhTcwijFG3Py6HN1j.jpg", "popularity": 10.194}, {"id": 8090, "video": false, "vote_count": 448, "vote_average": 6.1, "title": "Untraceable", "release_date": "2008-01-22", "original_language": "en", "original_title": "Untraceable", "genre_ids": [9648, 53], "backdrop_path": "/eXuIPt9I1xuaVddlgzEQRC2EMnJ.jpg", "adult": false, "overview": "Special Agent Jennifer Marsh (Diane Lane) works in an elite division of the FBI dedicated to fighting cybercrime. She thinks she has seen it all, until a particularly sadistic criminal arises on the Internet. This tech-savvy killer posts live feeds of his crimes on his website; the more hits the site gets, the faster the victim dies. Marsh and her team must find the elusive killer before time runs out.", "poster_path": "/ySUwDRDEn01lKIMPQorpFCMLWqE.jpg", "popularity": 14.431}, {"adult": false, "backdrop_path": "/20IgqkdFw5kuItqDCJtidSESP0t.jpg", "genre_ids": [27, 18], "id": 10066, "original_language": "en", "original_title": "House of Wax", "overview": "A group of unwitting teens are stranded near a strange wax museum and soon must fight to survive and keep from becoming the next exhibit.", "poster_path": "/uM1RebQywM5PPYsauayefpXGxVk.jpg", "release_date": "2005-04-30", "title": "House of Wax", "video": false, "vote_average": 5.7, "vote_count": 1532, "popularity": 16.398}, {"id": 9813, "video": false, "vote_count": 128, "vote_average": 6.1, "title": "The Quiet", "release_date": "2005-09-12", "original_language": "en", "original_title": "The Quiet", "genre_ids": [18, 53], "backdrop_path": "/6eyWAZA4CEidZW1xXnQ4vlYBXTP.jpg", "adult": false, "overview": "After her widowed father dies, deaf teenager Dot moves in with her godparents, Olivia and Paul Deer. The Deers' daughter, Nina, is openly hostile to Dot, but that does not prevent her from telling her secrets to her silent stepsister, including the fact that she wants to kill her lecherous father.", "poster_path": "/GEqIE9YlmygHVUfS64LW2cwAAM.jpg", "popularity": 14.844}, {"adult": false, "backdrop_path": "/8nvayG5l0urcjvvpszoECDqLWzD.jpg", "genre_ids": [18, 53, 80, 9648], "id": 186, "original_language": "en", "original_title": "Lucky Number Slevin", "overview": "Slevin is mistakenly put in the middle of a personal war between the city\u2019s biggest criminal bosses. Under constant watch, Slevin must try not to get killed by an infamous assassin and come up with an idea of how to get out of his current dilemma. A film with many twists and turns.", "poster_path": "/jtKq0EtothAzWlnRBBWGCA8uFuu.jpg", "release_date": "2006-02-24", "title": "Lucky Number Slevin", "video": false, "vote_average": 7.5, "vote_count": 2480, "popularity": 14.28}, {"id": 521, "video": false, "vote_count": 1257, "vote_average": 8.0, "title": "Dial M for Murder", "release_date": "1954-05-29", "original_language": "en", "original_title": "Dial M for Murder", "genre_ids": [80, 18, 9648, 53], "backdrop_path": "/jVMlfESb0TJ29w8CUDDofEprMmn.jpg", "adult": false, "overview": "An ex-tennis pro carries out a plot to have his wife murdered after discovering she is having an affair, and assumes she will soon leave him for the other man anyway. When things go wrong, he improvises a new plan\u2014to frame her for murder instead.", "poster_path": "/xrpK1PyckNWmRxU4kZURfaCyboS.jpg", "popularity": 28.336}, {"id": 205775, "video": false, "vote_count": 2362, "vote_average": 6.6, "title": "In the Heart of the Sea", "release_date": "2015-11-20", "original_language": "en", "original_title": "In the Heart of the Sea", "genre_ids": [28, 12, 18, 36, 53], "backdrop_path": "/aZoZ0NglXgiBMToem9HhTAYYamw.jpg", "adult": false, "overview": "In the winter of 1820, the New England whaling ship Essex is assaulted by something no one could believe\u2014a whale of mammoth size and will, and an almost human sense of vengeance.", "poster_path": "/zVmWh0Zfg4UhbvdGI8LQrn1lQZJ.jpg", "popularity": 18.435}], "total_pages": 247, "total_results": 4938}, "recommendations": {"page": 1, "results": [], "total_pages": 1, "total_results": 0}, "credits": {"cast": [{"cast_id": 1, "character": "Johan Nagel", "credit_id": "52fe4c61c3a368484e1b5693", "gender": 2, "id": 585, "name": "Rutger Hauer", "order": 0, "profile_path": "/2x1S2VAUvZXZuDjZ4E9iEKINvNu.jpg"}, {"cast_id": 2, "character": "Dany Kielland", "credit_id": "52fe4c61c3a368484e1b5697", "gender": 1, "id": 35319, "name": "Sylvia Kristel", "order": 1, "profile_path": "/9CoitH6zdr5FTBLh6FJZHnzkunc.jpg"}, {"cast_id": 3, "character": "The Midget", "credit_id": "52fe4c61c3a368484e1b569b", "gender": 0, "id": 154971, "name": "David Rappaport", "order": 2, "profile_path": "/hlbdNL8mPr840vsvYPkINHzg7G4.jpg"}, {"cast_id": 4, "character": "Martha Gude", "credit_id": "52fe4c61c3a368484e1b569f", "gender": 1, "id": 47754, "name": "Rita Tushingham", "order": 3, "profile_path": "/mXMfNP2gx26pww7D19zZdqaqi5g.jpg"}, {"cast_id": 5, "character": "Kamma", "credit_id": "52fe4c61c3a368484e1b56a3", "gender": 1, "id": 10262, "name": "Andr\u00e9a Ferr\u00e9ol", "order": 4, "profile_path": "/l2JBvxmFHXAMXsSxK7x18LVykOe.jpg"}, {"cast_id": 6, "character": "Chief Constable", "credit_id": "52fe4c61c3a368484e1b56a7", "gender": 2, "id": 27866, "name": "Fons Rademakers", "order": 5, "profile_path": "/5o9hCPVyKLQCeZGiU5yKwCP04D0.jpg"}, {"cast_id": 14, "character": "Sara", "credit_id": "55381c2ec3a36815ac007750", "gender": 1, "id": 13517, "name": "Marina de Graaf", "order": 6, "profile_path": null}, {"cast_id": 15, "character": "Hotel Owner", "credit_id": "55381c3d9251411fd00014a5", "gender": 0, "id": 211121, "name": "Adrian Brine", "order": 7, "profile_path": null}, {"cast_id": 16, "character": "Bailiff", "credit_id": "55381c58c3a3681be4003004", "gender": 2, "id": 986093, "name": "Siem Vroom", "order": 8, "profile_path": null}, {"cast_id": 17, "character": "Frederikke", "credit_id": "55381c6f92514138a9000460", "gender": 1, "id": 347515, "name": "Vivien Heilbron", "order": 9, "profile_path": "/n3Yk4gMlkOW6EkMHe2ZiaZmrunu.jpg"}], "crew": [{"credit_id": "5925154f9251413ba0008cc1", "department": "Camera", "gender": 2, "id": 1632, "job": "Director of Photography", "name": "Robby M\u00fcller", "profile_path": "/d9Fz3vBIBBYUXYbPTIxo2FwYGSL.jpg"}, {"credit_id": "5e158baf9020120018bccb85", "department": "Editing", "gender": 1, "id": 2362, "job": "Editor", "name": "Jane Seitz", "profile_path": null}, {"credit_id": "553819cbc3a36842ae005aa2", "department": "Art", "gender": 0, "id": 16677, "job": "Art Direction", "name": "Benedict Schillemans", "profile_path": null}, {"credit_id": "5538199ac3a3684c5b000dd6", "department": "Production", "gender": 2, "id": 69339, "job": "Producer", "name": "Matthijs van Heijningen", "profile_path": null}, {"credit_id": "52fe4c61c3a368484e1b56b3", "department": "Writing", "gender": 0, "id": 1111224, "job": "Screenplay", "name": "Paul de Lussanet", "profile_path": null}, {"credit_id": "52fe4c61c3a368484e1b56ad", "department": "Directing", "gender": 0, "id": 1111224, "job": "Director", "name": "Paul de Lussanet", "profile_path": null}, {"credit_id": "553819a7c3a3687845004709", "department": "Sound", "gender": 0, "id": 1174256, "job": "Original Music Composer", "name": "Laurens van Rooyen", "profile_path": null}]}}