{"adult": false, "backdrop_path": null, "belongs_to_collection": null, "budget": 0, "genres": [{"id": 80, "name": "Crime"}, {"id": 27, "name": "Horror"}, {"id": 9648, "name": "Mystery"}, {"id": 53, "name": "Thriller"}], "homepage": null, "id": 139404, "imdb_id": "tt0084095", "original_language": "en", "original_title": "Hotline", "overview": "A crisis helpline assistant attracts the attention of a serial killer who delights in feeding her cryptic, nursery-rhyme style riddles when planning his next murder!", "popularity": 1.23, "poster_path": "/4kQSroQtXWytTQGSDDnzuC4VWS5.jpg", "production_companies": [{"id": 96328, "logo_path": null, "name": "Ron Samuels Productions", "origin_country": ""}], "production_countries": [{"iso_3166_1": "US", "name": "United States of America"}], "release_date": "1982-03-10", "revenue": 0, "runtime": 96, "spoken_languages": [{"iso_639_1": "en", "name": "English"}], "status": "Released", "tagline": "Hang up! Before HE comes to cut you off...DEAD!", "title": "Hotline", "video": false, "vote_average": 10.0, "vote_count": 1, "keywords": {"keywords": [{"id": 6103, "name": "telephone"}, {"id": 12339, "name": "slasher"}]}, "similar": {"page": 1, "results": [{"adult": false, "backdrop_path": "/7QjoyyGdBV32x1sEh64dAnNjwg2.jpg", "genre_ids": [53, 35, 27], "id": 12521, "original_language": "en", "original_title": "Shocker", "overview": "After being sent to the electric chair, a serial killer uses electricity to come back from the dead and carry out his vengeance on the football player who turned him in to the police.", "poster_path": "/xEDmOhNGCKlWlS3mCiqLCVzBXVA.jpg", "release_date": "1989-10-27", "title": "Shocker", "video": false, "vote_average": 5.5, "vote_count": 176, "popularity": 10.495}, {"adult": false, "backdrop_path": "/o4psXh7IVD6GFKvBSHjHLzjL2lV.jpg", "genre_ids": [27, 53], "id": 10781, "original_language": "en", "original_title": "The Texas Chainsaw Massacre: The Beginning", "overview": "Chrissie and her friends set out on a road trip for a final fling before one is shipped off to Vietnam. Along the way, bikers harass the foursome and cause an accident that throws Chrissie from the vehicle. The lawman who arrives on the scene kills one of the bikers and brings Chrissie's friends to the Hewitt homestead, where young Leatherface is learning the tools of terror.", "poster_path": "/9elCJIG1TOJ0wew3JVx5ZMkHq5w.jpg", "release_date": "2006-10-06", "title": "The Texas Chainsaw Massacre: The Beginning", "video": false, "vote_average": 6.0, "vote_count": 936, "popularity": 19.211}, {"adult": false, "backdrop_path": "/coLGEhak0KhPpMYABmZdDnZbnSv.jpg", "genre_ids": [53, 27, 9648], "id": 39874, "original_language": "en", "original_title": "My Bloody Valentine", "overview": "Twenty years ago in the sleepy mining town of Valentine Bluffs, a fatal mining disaster occurred on Valentine's Day while some of the crew was decorating for a party. The sole survivor of the accident killed the remaining crewmembers and warned the town not to celebrate Valentine's Day again. When a group of teenagers decides to defy that order, a murderous maniac in mining gear begins dispatching townsfolk in bloody and creative ways.", "poster_path": "/kl3mewFceFtYIavvGts2atzB0e0.jpg", "release_date": "1981-02-11", "title": "My Bloody Valentine", "video": false, "vote_average": 6.3, "vote_count": 162, "popularity": 11.496}, {"id": 9792, "video": false, "vote_count": 1554, "vote_average": 6.3, "title": "The Hills Have Eyes", "release_date": "2006-03-10", "original_language": "en", "original_title": "The Hills Have Eyes", "genre_ids": [27, 53], "backdrop_path": "/7JmFtKtvgVD0zQ2xPQdUKtTXdeA.jpg", "adult": false, "overview": "Based on Wes Craven's 1977 suspenseful cult classic, The Hills Have Eyes is the story of a family road trip that goes terrifyingly awry when the travelers become stranded in a government atomic zone. Miles from nowhere, the Carter family soon realizes the seemingly uninhabited wasteland is actually the breeding ground of a blood-thirsty mutant family...and they are the prey.", "poster_path": "/hNuqY8h1oBGTnEQK75AH4IwuiPG.jpg", "popularity": 15.649}, {"adult": false, "backdrop_path": "/fmo48Lt8XtMWeHeXJzi5SbPCJud.jpg", "genre_ids": [18, 27, 80], "id": 1696, "original_language": "en", "original_title": "The Devil's Rejects", "overview": "The sequel to House of 1000 Corpses \u2013 the Firefly family are ambushed at their isolated home by Sheriff Wydell and a squad of armed men guns blazing \u2013 yet only Otis and his sister, Baby, manage to escape the barrage of bullets unharmed. Hiding out in a backwater motel, the wanted siblings wait to rendezvous with their errant father, Captain Spaulding, killing whoever happens to stand in their way.", "poster_path": "/fj4rrpUlBpFjPaJecpjID6yqacx.jpg", "release_date": "2005-07-22", "title": "The Devil's Rejects", "video": false, "vote_average": 6.7, "vote_count": 720, "popularity": 14.155}, {"adult": false, "backdrop_path": "/tdcb0RHusaQxScWORevtKQ0u9NG.jpg", "genre_ids": [80, 27, 9648], "id": 4232, "original_language": "en", "original_title": "Scream", "overview": "A killer known as Ghostface begins killing off teenagers, and as the body count begins rising, one girl and her friends find themselves contemplating the 'rules' of horror films as they find themselves living in a real-life one.", "poster_path": "/ewi7gYW22t8T3piRvrXO73GlzuL.jpg", "release_date": "1996-12-20", "title": "Scream", "video": false, "vote_average": 7.2, "vote_count": 3301, "popularity": 25.156}, {"adult": false, "backdrop_path": "/1uTsElgkaNwU1onA8ypDVZpjQPf.jpg", "genre_ids": [27, 53], "id": 5486, "original_language": "it", "original_title": "Ecologia del delitto", "overview": "An elderly heiress is killed by her husband who wants control of her fortunes. What ensues is an all-out murder spree as relatives and friends attempt to reduce the inheritance playing field, complicated by some teenagers who decide to camp out in a dilapidated building on the estate.", "poster_path": "/5l3LNFzdF50lImSYHmTpGdRndM2.jpg", "release_date": "1971-08-08", "title": "A Bay of Blood", "video": false, "vote_average": 6.5, "vote_count": 154, "popularity": 9.806}, {"adult": false, "backdrop_path": "/qqdVRlVCvVWdmSBYrEHwQuC3GBd.jpg", "genre_ids": [27, 53], "id": 371608, "original_language": "en", "original_title": "The Strangers: Prey at Night", "overview": "A family\u2019s road trip takes a dangerous turn when they arrive at a secluded mobile home park to stay with some relatives and find it mysteriously deserted. Under the cover of darkness, three masked psychopaths pay them a visit to test the family\u2019s every limit as they struggle to survive.", "poster_path": "/vdxLpPsZkPZdFrREp7eSeSzcimj.jpg", "release_date": "2018-03-07", "title": "The Strangers: Prey at Night", "video": false, "vote_average": 5.4, "vote_count": 757, "popularity": 17.265}, {"adult": false, "backdrop_path": "/z3s3TdRvEWC1TFrwtk0qhB7OdHh.jpg", "genre_ids": [27, 53], "id": 12662, "original_language": "en", "original_title": "Psycho III", "overview": "Norman Bates is still running his little motel, and he has kept the dressed skeleton he calls 'mother'. One day a nosey journalist comes to see him to ask questions about his past.", "poster_path": "/etiLhEebRnFExeb70COwqqeO8Kd.jpg", "release_date": "1986-04-02", "title": "Psycho III", "video": false, "vote_average": 5.6, "vote_count": 173, "popularity": 9.895}, {"adult": false, "backdrop_path": "/qGaTWV4nJRREsPqmfKaFpvPiSd0.jpg", "genre_ids": [27, 53], "id": 21407, "original_language": "en", "original_title": "The Collector", "overview": "Desperate to repay his debt to his ex-wife, an ex-con plots a heist at his new employer's country home, unaware that a second criminal has also targeted the property, and rigged it with a series of deadly traps.", "poster_path": "/mAJccHaJ17u40Xm8wXb73eqGQKD.jpg", "release_date": "2009-07-09", "title": "The Collector", "video": false, "vote_average": 6.3, "vote_count": 705, "popularity": 12.126}, {"id": 381034, "video": false, "vote_count": 257, "vote_average": 6.2, "title": "I Am Not a Serial Killer", "release_date": "2016-08-26", "original_language": "en", "original_title": "I Am Not a Serial Killer", "genre_ids": [27, 53], "backdrop_path": "/oDDcXrRgiipc3UI1V8f40TbKZGb.jpg", "adult": false, "overview": "Fifteen-year old John Cleaver is dangerous, and he knows it. He\u2019s obsessed with serial killers, but really doesn\u2019t want to become one. Terrible impulses constantly tempt him, so for his own sake, and the safety of those around, he lives by rigid rules to keep himself \u201cgood\u201d and \u201cnormal\u201d. However, when a real monster shows up in his town he has to let his dark side out in order to stop it \u2013 but without his rules to keep him in check, he might be more dangerous than the monster he\u2019s trying to kill.", "poster_path": "/pksHh2TvPzc6SxeKksS0PM3JxCp.jpg", "popularity": 8.523}, {"adult": false, "backdrop_path": "/t3OZS8yMs0NL4YgWWc04eXHTn1X.jpg", "genre_ids": [28, 80, 53], "id": 984, "original_language": "en", "original_title": "Dirty Harry", "overview": "When a madman dubbed 'Scorpio' terrorizes San Francisco, hard-nosed cop, Harry Callahan \u2013 famous for his take-no-prisoners approach to law enforcement \u2013 is tasked with hunting down the psychopath. Harry eventually collars Scorpio in the process of rescuing a kidnap victim, only to see him walk on technicalities. Now, the maverick detective is determined to nail the maniac himself.", "poster_path": "/2TADKc4GMMPdMrLXj0xJVgTvZJM.jpg", "release_date": "1971-12-21", "title": "Dirty Harry", "video": false, "vote_average": 7.5, "vote_count": 1173, "popularity": 18.839}, {"adult": false, "backdrop_path": "/4L1MSZo8dQ20x4AhBDKfDs1cOjs.jpg", "genre_ids": [27, 53], "id": 9728, "original_language": "en", "original_title": "Friday the 13th Part III", "overview": "An idyllic summer turns into a nightmare of unspeakable terror for yet another group of naive counselors. Ignoring Camp Crystal Lake's bloody legacy, one by one they fall victim to the maniacal Jason who stalks them at every turn.", "poster_path": "/5wg2NZyIhcMbIBAahBODXHyJ54S.jpg", "release_date": "1982-08-13", "title": "Friday the 13th Part III", "video": false, "vote_average": 5.8, "vote_count": 634, "popularity": 15.501}, {"id": 948, "video": false, "vote_count": 2727, "vote_average": 7.5, "title": "Halloween", "release_date": "1978-10-24", "original_language": "en", "original_title": "Halloween", "genre_ids": [27, 53], "backdrop_path": "/6Io0gvfEVpMQsB46yXOKCpSJOoJ.jpg", "adult": false, "overview": "Fifteen years after murdering his sister on Halloween Night 1963, Michael Myers escapes from a mental hospital and returns to the small town of Haddonfield, Illinois to kill again.", "poster_path": "/vjoOFOTBJcJvA1weJejlZ92LZD4.jpg", "popularity": 16.369}, {"adult": false, "backdrop_path": "/arcpWGGnUkGkakOwZo7xfPsaz7h.jpg", "genre_ids": [9648, 53], "id": 2832, "original_language": "en", "original_title": "Identity", "overview": "Complete strangers stranded at a remote desert motel during a raging storm soon find themselves the target of a deranged murderer. As their numbers thin out, the travelers begin to turn on each other, as each tries to figure out who the killer is.", "poster_path": "/xSNSp2wmCUwFavxdkMF417hBc39.jpg", "release_date": "2003-04-25", "title": "Identity", "video": false, "vote_average": 7.2, "vote_count": 2091, "popularity": 19.629}, {"id": 9373, "video": false, "vote_count": 1414, "vote_average": 6.1, "title": "The Texas Chainsaw Massacre", "release_date": "2003-05-21", "original_language": "en", "original_title": "The Texas Chainsaw Massacre", "genre_ids": [27], "backdrop_path": "/3rTsJ7tIC3LUSRr80PfeLbbCfBA.jpg", "adult": false, "overview": "After picking up a traumatized young hitchhiker, five friends find themselves stalked and hunted by a deformed chainsaw-wielding killer and his family of equally psychopathic killers.", "poster_path": "/gx7FCIOFGxqNyplF3t7qtmUv55g.jpg", "popularity": 19.117}, {"adult": false, "backdrop_path": "/rH6NsvJg5hYyRigUZhOWDiahUPV.jpg", "genre_ids": [27, 53], "id": 9877, "original_language": "en", "original_title": "Urban Legend", "overview": "There's a campus killer on the loose who's making urban legends, like the one about eating pop rocks and soda at the same time will make your stomach explode and the one about a psycho with an axe stepping into the backseat of your car at the gas station when not looking, into reality.", "poster_path": "/2oIf0ibr0zlhuhgbOwFSHimh7P6.jpg", "release_date": "1998-09-25", "title": "Urban Legend", "video": false, "vote_average": 5.7, "vote_count": 633, "popularity": 10.225}, {"adult": false, "backdrop_path": "/7MJNhkXpbsoE8BuxwJLuTPcjYvH.jpg", "genre_ids": [27, 9648, 53], "id": 36599, "original_language": "en", "original_title": "Prom Night", "overview": "This slasher movie follows a relentless killer who is out to avenge the death of a young girl who died after being bullied and teased by four of her classmates. Now high-school students, the guilt-ridden kids have kept their involvement a secret, but when they start being murdered, one by one, it's clear that someone knows the truth. Also coping with the past are members of the dead girl's family, most notably her prom-queen sister, Kim Hammond (Jamie Lee Curtis).", "poster_path": "/3KIy1qFmdLMwUrSlRAiovX5anhR.jpg", "release_date": "1980-07-18", "title": "Prom Night", "video": false, "vote_average": 5.6, "vote_count": 169, "popularity": 10.34}, {"id": 11974, "video": false, "vote_count": 611, "vote_average": 6.8, "title": "The 'Burbs", "release_date": "1989-02-17", "original_language": "en", "original_title": "The 'Burbs", "genre_ids": [35, 27, 53], "backdrop_path": "/yCOTJnV7I0UcusTycv5bGEDQ5ll.jpg", "adult": false, "overview": "When secretive new neighbors move in next door, suburbanite Ray Peterson and his friends let their paranoia get the best of them as they start to suspect the newcomers of evildoings and commence an investigation. But it's hardly how Ray, who much prefers drinking beer, reading his newspaper and watching a ball game on the tube expected to spend his vacation.", "poster_path": "/zPEECSo5ZOBr9oEmBLSVXcqndTO.jpg", "popularity": 13.086}, {"adult": false, "backdrop_path": "/cBUvJWcV8k7GTEGoL2Dp6CmgUV1.jpg", "genre_ids": [27, 9648], "id": 4233, "original_language": "en", "original_title": "Scream 2", "overview": "Two years after the terrifying events that occurred in Woodsboro, Sidney is now attending Windsor College in Cincinnati, and Gale Weathers' best selling book on Sidney's life has now been made into a major motion picture. When two college students are killed in a theatre while watching the new film 'Stab', Sidney knows deep down that history is repeating itself.", "poster_path": "/c5AyWNWooMGkJXlqLwmPQCjUwHt.jpg", "release_date": "1997-12-09", "title": "Scream 2", "video": false, "vote_average": 6.3, "vote_count": 1892, "popularity": 19.107}], "total_pages": 266, "total_results": 5305}, "recommendations": {"page": 1, "results": [], "total_pages": 1, "total_results": 0}, "credits": {"cast": [{"cast_id": 1, "character": "Brianne O'Neill", "credit_id": "5315e938925141589600071d", "gender": 1, "id": 44935, "name": "Lynda Carter", "order": 1, "profile_path": "/3Ic76fGqeUK93s7hLDqvtfO2kof.jpg"}, {"cast_id": 3, "character": "Tom Hunter", "credit_id": "59e8391cc3a368282e008ecf", "gender": 2, "id": 44998, "name": "Steve Forrest", "order": 2, "profile_path": "/rRuAgDKpPp2hF7sxiRyzHpenJ6K.jpg"}, {"cast_id": 4, "character": "Justin Price", "credit_id": "59e839289251414afd009559", "gender": 2, "id": 160285, "name": "Granville Van Dusen", "order": 3, "profile_path": "/fkgWAhhHZnpd90ukNfKlAuAwVyU.jpg"}, {"cast_id": 5, "character": "Kyle Durham", "credit_id": "59e839379251414ae4009cfb", "gender": 2, "id": 73149, "name": "Monte Markham", "order": 4, "profile_path": "/dJQkiCN4lENTgR5RQbqRlw2uSxs.jpg"}, {"cast_id": 6, "character": "Judy", "credit_id": "59e8394392514107970074a2", "gender": 1, "id": 1214009, "name": "Joy Garrett", "order": 5, "profile_path": null}, {"cast_id": 7, "character": "Ron Chandler", "credit_id": "59e839549251414af80096d1", "gender": 2, "id": 1213805, "name": "James Reynolds", "order": 6, "profile_path": null}, {"cast_id": 8, "character": "Rick Hernandez", "credit_id": "59e83968c3a36827b500a0de", "gender": 0, "id": 1074, "name": "Harry Waters, Jr.", "order": 7, "profile_path": "/lDpuXzAeqfoYbxV0QxidKPXoYfV.jpg"}, {"cast_id": 9, "character": "Charlie Jackson", "credit_id": "59e83976c3a36827e700a1e8", "gender": 2, "id": 15857, "name": "James Booth", "order": 8, "profile_path": "/vqDegD6QQnyO7zGZx3Kqd33TrcG.jpg"}, {"cast_id": 10, "character": "Hooten", "credit_id": "59e839819251414ae4009d8a", "gender": 2, "id": 13392, "name": "Arthur Malet", "order": 9, "profile_path": "/6YEWBozoD2s33M1QHxcPVN69Jvu.jpg"}, {"cast_id": 11, "character": "Barney", "credit_id": "59e8399a9251414aeb009824", "gender": 2, "id": 39780, "name": "Frank Stallone", "order": 10, "profile_path": "/jYNAnZsqgu7Fm5OWSJTGMnKcxkf.jpg"}, {"cast_id": 12, "character": "Vicki", "credit_id": "59e839a59251414af800973d", "gender": 1, "id": 166026, "name": "Cathy Worthington", "order": 11, "profile_path": "/ge5k8QetO4xwgHA5Ofgg2IJcvn2.jpg"}], "crew": [{"credit_id": "5315f1449251415896000782", "department": "Camera", "gender": 2, "id": 2507, "job": "Director of Photography", "name": "Matthew F. Leonetti", "profile_path": null}, {"credit_id": "5315e90d925141586c00071a", "department": "Directing", "gender": 2, "id": 52094, "job": "Director", "name": "Jerry Jameson", "profile_path": null}, {"credit_id": "59e839bfc3a36827b500a193", "department": "Writing", "gender": 0, "id": 936290, "job": "Screenplay", "name": "David E. Peckinpah", "profile_path": null}, {"credit_id": "59e839cdc3a36827b500a1a4", "department": "Writing", "gender": 2, "id": 1908206, "job": "Story", "name": "Stancil E.D. Johnson", "profile_path": null}, {"credit_id": "59e839e69251414add009c81", "department": "Directing", "gender": 0, "id": 1908208, "job": "Script Supervisor", "name": "Jeanetta L. Hoyle", "profile_path": null}]}}