{"adult": false, "backdrop_path": "/m6QXB25i7FVoQsif3PqKvtJwj3a.jpg", "belongs_to_collection": null, "budget": 0, "genres": [{"id": 35, "name": "Comedy"}], "homepage": "http://www.morganpalsson.se/", "id": 14078, "imdb_id": "tt1135941", "original_language": "sv", "original_title": "Morgan P\u00e5lsson - v\u00e4rldsreporter", "overview": "Utrikesreportern Morgan P\u00e5lsson och hans fotograf Robert Flycht blir skickade p\u00e5 ett uppdrag till ett ok\u00e4nt nordafrikanskt land \u2013 Mat\u00f3bo. Uppdraget g\u00e5r ut p\u00e5 att f\u00f6lja valet i landet men ist\u00e4llet utbryter en milit\u00e4rkupp och Morgan visar sig vara den enda utl\u00e4ndska journalisten p\u00e5 plats. Detta \u00e4r hans chans att visa vad han g\u00e5r f\u00f6r.", "popularity": 2.668, "poster_path": "/cjHPYJxw94e0cRnnYbDO87J7zr2.jpg", "production_companies": [{"id": 2861, "logo_path": null, "name": "Amagram", "origin_country": ""}], "production_countries": [{"iso_3166_1": "JO", "name": "Jordan"}, {"iso_3166_1": "SE", "name": "Sweden"}], "release_date": "2008-02-22", "revenue": 0, "runtime": 84, "spoken_languages": [{"iso_639_1": "sv", "name": "svenska"}], "status": "Released", "tagline": "", "title": "Morgan P\u00e5lsson - V\u00e4rldsreporter", "video": false, "vote_average": 5.1, "vote_count": 11, "keywords": {"keywords": [{"id": 736, "name": "journalist"}, {"id": 6285, "name": "coup d'etat"}, {"id": 12193, "name": "reporter"}, {"id": 157384, "name": "news reporter"}, {"id": 158584, "name": "tv news"}]}, "similar": {"page": 1, "results": [{"adult": false, "backdrop_path": "/zffzhr30v7nCHRcyfnVr8PmNLbM.jpg", "genre_ids": [10749, 35, 18], "id": 11355, "original_language": "en", "original_title": "Never Been Kissed", "overview": "Josie Geller, a baby-faced junior copywriter at the Chicago Sun-Times, must pose as a student at her former high school to research contemporary teenage culture. With the help of her brother, Rob, Josie infiltrates the inner circle of the most popular clique on campus. But she hits a major snag in her investigation -- not to mention her own failed love life -- when she falls for her dreamy English teacher, Sam Coulson.", "poster_path": "/1F9EAhEQxa0I5Pa5Z10hWIBFS3r.jpg", "release_date": "1999-04-09", "title": "Never Been Kissed", "video": false, "vote_average": 6.0, "vote_count": 855, "popularity": 17.41}, {"id": 1949, "video": false, "vote_count": 5158, "vote_average": 7.5, "title": "Zodiac", "release_date": "2007-03-02", "original_language": "en", "original_title": "Zodiac", "genre_ids": [80, 18, 9648, 53], "backdrop_path": "/jP2htGBHE7vKq4MLeC75UeC0sZH.jpg", "adult": false, "overview": "The true story of the investigation of the \"Zodiac Killer\", a serial killer who terrified the San Francisco Bay Area, taunting police with his ciphers and letters. The case becomes an obsession for three men as their lives and careers are built and destroyed by the endless trail of clues.", "poster_path": "/bgLyOROfFQI3FqYL7jQbiaV8lkN.jpg", "popularity": 21.354}, {"id": 9008, "video": false, "vote_count": 950, "vote_average": 7.4, "title": "The Insider", "release_date": "1999-10-28", "original_language": "en", "original_title": "The Insider", "genre_ids": [18, 53], "backdrop_path": "/7oq51chQ7MW7RVKqhL4ivxhrwGf.jpg", "adult": false, "overview": "Tells the true story of a 60 Minutes television series expos\u00e9 of the tobacco industry, as seen through the eyes of a real tobacco executive, Jeffrey Wigand.", "poster_path": "/sYQsmMl4oG56NtFaNkDxuJhhODa.jpg", "popularity": 12.176}, {"adult": false, "backdrop_path": "/adGGzfXNmu0iLgiPAW9Ghd138f7.jpg", "genre_ids": [35, 18, 10749], "id": 350, "original_language": "en", "original_title": "The Devil Wears Prada", "overview": "Andy moves to New York to work in the fashion industry. Her boss is extremely demanding, cruel and won't let her succeed if she doesn't fit into the high class elegant look of their magazine.", "poster_path": "/8unCRm0LeiO0fM6skWAZy3ZfXR1.jpg", "release_date": "2006-06-30", "title": "The Devil Wears Prada", "video": false, "vote_average": 7.3, "vote_count": 7273, "popularity": 40.097}, {"id": 228967, "video": false, "vote_count": 3855, "vote_average": 6.2, "title": "The Interview", "release_date": "2014-12-25", "original_language": "en", "original_title": "The Interview", "genre_ids": [28, 35], "backdrop_path": "/p5n7VTC6qmFIuBFjACWURYCAlKP.jpg", "adult": false, "overview": "Dave Skylark and his producer Aaron Rapaport run the celebrity tabloid show \"Skylark Tonight\". When they land an interview with a surprise fan, North Korean dictator Kim Jong-un, they are recruited by the CIA to turn their trip to Pyongyang into an assassination mission.", "poster_path": "/2uWb0aSm5cFmRCHP95OdA6hvTEs.jpg", "popularity": 16.829}, {"adult": false, "backdrop_path": "/gRY30dvyLhydkblpE0v3NiXt0Nj.jpg", "genre_ids": [35, 10749], "id": 6557, "original_language": "en", "original_title": "27 Dresses", "overview": "Altruistic Jane finds herself facing her worst nightmare as her younger sister announces her engagement to the man Jane secretly adores.", "poster_path": "/zzJtHNzi1D4CPwRlPHV1TRQNXD2.jpg", "release_date": "2008-01-10", "title": "27 Dresses", "video": false, "vote_average": 6.3, "vote_count": 2136, "popularity": 10.851}, {"id": 65754, "video": false, "vote_count": 4324, "vote_average": 7.3, "title": "The Girl with the Dragon Tattoo", "release_date": "2011-12-14", "original_language": "en", "original_title": "The Girl with the Dragon Tattoo", "genre_ids": [80, 18, 9648, 53], "backdrop_path": "/1fk2xS5hRkblBuag5JXZkmE8pg6.jpg", "adult": false, "overview": "This English-language adaptation of the Swedish novel by Stieg Larsson follows a disgraced journalist, Mikael Blomkvist, as he investigates the disappearance of a weary patriarch's niece from 40 years ago. He is aided by the pierced, tattooed, punk computer hacker named Lisbeth Salander. As they work together in the investigation, Blomkvist and Salander uncover immense corruption beyond anything they have ever imagined.", "poster_path": "/voxRWFTtagLiqnJQs9tWQLB0MN.jpg", "popularity": 19.35}, {"id": 242582, "video": false, "vote_count": 6506, "vote_average": 7.7, "title": "Nightcrawler", "release_date": "2014-10-23", "original_language": "en", "original_title": "Nightcrawler", "genre_ids": [80, 18, 53], "backdrop_path": "/gktL2rfE7d1xrwPSSTohxLOjLSs.jpg", "adult": false, "overview": "When Lou Bloom, desperate for work, muscles into the world of L.A. crime journalism, he blurs the line between observer and participant to become the star of his own story. Aiding him in his effort is Nina, a TV-news veteran.", "poster_path": "/8oPY6ULFOTbAEskySNhgsUIN4fW.jpg", "popularity": 35.295}, {"adult": false, "backdrop_path": "/t3Oea7KbSpOvuqddMnlFtZ4WHn.jpg", "genre_ids": [18, 53, 36], "id": 314365, "original_language": "en", "original_title": "Spotlight", "overview": "In 2001, editor Marty Baron of The Boston Globe assigns a team of journalists to investigate allegations against John Geoghan, an unfrocked priest accused of molesting more than 80 boys. Led by editor Walter \"Robby\" Robinson, reporters Michael Rezendes, Matt Carroll and Sacha Pfeiffer interview victims and try to unseal sensitive documents. The reporters make it their mission to provide proof of a cover-up of sexual abuse within the Roman Catholic Church.", "poster_path": "/ngKxbvsn9Si5TYVJfi1EGAGwThU.jpg", "release_date": "2015-11-06", "title": "Spotlight", "video": false, "vote_average": 7.8, "vote_count": 5408, "popularity": 22.049}, {"id": 891, "video": false, "vote_count": 888, "vote_average": 7.8, "title": "All the President's Men", "release_date": "1976-04-04", "original_language": "en", "original_title": "All the President's Men", "genre_ids": [18, 36, 9648, 53], "backdrop_path": "/rqM0Uq57NNOpEx7BBk7FqBfGqzc.jpg", "adult": false, "overview": "In the run-up to the 1972 elections, Washington Post reporter Bob Woodward covers what seems to be a minor break-in at the Democratic Party National Headquarters. He is surprised to find top lawyers already on the defense case, and the discovery of names and addresses of Republican fund organizers on the accused further arouses his suspicions. After the editor of the Post runs with the story and assigns Woodward and Carl Bernstein to it, they find the trail leading higher and higher in the Republican Party\u2014and eventually into the White House itself.", "poster_path": "/jvXiGgWyBYDfQb44spH9JPTOmAZ.jpg", "popularity": 30.144}, {"adult": false, "backdrop_path": "/zGutQCLUIQ5LakubDZtfM8s22eA.jpg", "genre_ids": [9648, 18], "id": 15, "original_language": "en", "original_title": "Citizen Kane", "overview": "Newspaper magnate, Charles Foster Kane is taken from his mother as a boy and made the ward of a rich industrialist. As a result, every well-meaning, tyrannical or self-destructive move he makes for the rest of his life appears in some way to be a reaction to that deeply wounding event.", "poster_path": "/sav0jxhqiH0bPr2vZFU0Kjt2nZL.jpg", "release_date": "1941-04-30", "title": "Citizen Kane", "video": false, "vote_average": 8.1, "vote_count": 2762, "popularity": 18.233}, {"id": 446354, "video": false, "vote_count": 2836, "vote_average": 7.0, "title": "The Post", "release_date": "2017-12-22", "original_language": "en", "original_title": "The Post", "genre_ids": [18, 36], "backdrop_path": "/8sb4aBST28vN3rBz704XJczS0Ld.jpg", "adult": false, "overview": "A cover-up that spanned four U.S. Presidents pushed the country's first female newspaper publisher and a hard-driving editor to join an unprecedented battle between journalist and government. Inspired by true events.", "poster_path": "/h4XG3g6uMMPIBPjAoQhC2QIMdkl.jpg", "popularity": 20.824}, {"adult": false, "backdrop_path": "/k9dJ6wKKg1Ye8XCGuNOtPoTpRn9.jpg", "genre_ids": [35, 18, 10749], "id": 24807, "original_language": "en", "original_title": "Mr. Deeds Goes to Town", "overview": "Longfellow Deeds lives in a small town, leading a small town kind of life. When a relative dies and leaves Deeds a fortune, Longfellow moves to the big city where he becomes an instant target for everyone. Deeds outwits them all until Babe Bennett comes along. When small-town boy meets big-city girl anything can, and does, happen.", "poster_path": "/nWPUslg7us6CUjm5XtsnsuuGmNr.jpg", "release_date": "1936-04-09", "title": "Mr. Deeds Goes to Town", "video": false, "vote_average": 7.6, "vote_count": 147, "popularity": 12.611}, {"adult": false, "backdrop_path": "/wfFTStTBWo3zIciBW4Eob3sarSz.jpg", "genre_ids": [35, 10749], "id": 3078, "original_language": "en", "original_title": "It Happened One Night", "overview": "A renegade reporter and a crazy young heiress meet on a bus heading for New York, and end up stuck with each other when the bus leaves them behind at one of the stops.", "poster_path": "/k63JqnFvkIGWGhjsqRiksZw2OSs.jpg", "release_date": "1934-02-22", "title": "It Happened One Night", "video": false, "vote_average": 7.9, "vote_count": 563, "popularity": 13.497}, {"adult": false, "backdrop_path": "/gGApniZQyEnUTSPzCqqheYhB18f.jpg", "genre_ids": [53, 18], "id": 16995, "original_language": "en", "original_title": "State of Play", "overview": "Handsome, unflappable U.S. Congressman Stephen Collins is the future of his political party: an honorable appointee who serves as the chairman of a committee overseeing defense spending. All eyes are upon the rising star to be his party's contender for the upcoming presidential race. Until his research assistant/mistress is brutally murdered and buried secrets come tumbling out.", "poster_path": "/lH5rHsUM7Umo9xyyjPguK5kTXKd.jpg", "release_date": "2009-04-17", "title": "State of Play", "video": false, "vote_average": 6.8, "vote_count": 955, "popularity": 19.268}, {"adult": false, "backdrop_path": "/79p6lNdZX7XAKGZ8rxlDC8TU0C7.jpg", "genre_ids": [18, 80], "id": 269, "original_language": "fr", "original_title": "\u00c0 bout de souffle", "overview": "A young car thief kills a policeman and tries to persuade a girl to hide in Italy with him.", "poster_path": "/mBZ6BE7V9MCC7FzhAQPJl6K0634.jpg", "release_date": "1960-03-16", "title": "Breathless", "video": false, "vote_average": 7.8, "vote_count": 791, "popularity": 13.03}, {"id": 512, "video": false, "vote_count": 895, "vote_average": 6.6, "title": "Scoop", "release_date": "2006-07-27", "original_language": "en", "original_title": "Scoop", "genre_ids": [35, 9648], "backdrop_path": "/uAq7xPyAFQVjYsZ3Q0CvPc7qzYy.jpg", "adult": false, "overview": "An American journalism student in London scoops a big story, and begins an affair with an aristocrat as the incident unfurls.", "poster_path": "/mRRSxsCnJriz3geocV4i6Lm0nox.jpg", "popularity": 12.582}, {"adult": false, "backdrop_path": "/46y6EvnDveRFwtztyHVS0y2DipU.jpg", "genre_ids": [18, 53, 28], "id": 1372, "original_language": "en", "original_title": "Blood Diamond", "overview": "An ex-mercenary turned smuggler. A Mende fisherman. Amid the explosive civil war overtaking 1999 Sierra Leone, these men join for two desperate missions: recovering a rare pink diamond of immense value and rescuing the fisherman's son conscripted as a child soldier into the brutal rebel forces ripping a swath of torture and bloodshed countrywide.", "poster_path": "/wRamTzV6udKaMXrspxqOuo02zk0.jpg", "release_date": "2006-12-07", "title": "Blood Diamond", "video": false, "vote_average": 7.5, "vote_count": 4323, "popularity": 18.56}, {"id": 10909, "video": false, "vote_count": 406, "vote_average": 6.7, "title": "Kalifornia", "release_date": "1993-09-01", "original_language": "en", "original_title": "Kalifornia", "genre_ids": [80, 53], "backdrop_path": "/ucfWS1l0mVHKOtgL8ew5Y10IZMM.jpg", "adult": false, "overview": "A journalist duo go on a tour of serial killer murder sites with two companions, unaware that one of them is a serial killer himself.", "poster_path": "/5MM64T2y1qrBchByhB4I8Vr7HY.jpg", "popularity": 10.818}, {"id": 109443, "video": false, "vote_count": 1562, "vote_average": 6.1, "title": "Anchorman 2: The Legend Continues", "release_date": "2013-12-18", "original_language": "en", "original_title": "Anchorman 2: The Legend Continues", "genre_ids": [35], "backdrop_path": "/mTMnfiWuvhbCdez9LAzbYy0vLSG.jpg", "adult": false, "overview": "With the 70s behind him, San Diego's top rated newsman, Ron Burgundy, returns to take New York's first 24-hour news channel by storm.", "poster_path": "/66HbvNKmfxYoOHAp1IVIYQsFoeA.jpg", "popularity": 13.249}], "total_pages": 5, "total_results": 99}, "recommendations": {"page": 1, "results": [{"adult": false, "backdrop_path": "/nXbozvV3ldVx2PZya732tpTC7hA.jpg", "genre_ids": [35], "id": 67272, "original_language": "sv", "original_title": "K\u00e4nd fr\u00e5n tv", "overview": "", "poster_path": "/2Lnzksg2tPctUDatKDmZDyWT8ho.jpg", "release_date": "2001-09-21", "title": "K\u00e4nd fr\u00e5n tv", "video": false, "vote_average": 5.0, "vote_count": 5, "popularity": 1.313}, {"adult": false, "backdrop_path": "/rfGFs8mt2MdNH6uE2xCVWVffmk9.jpg", "genre_ids": [35], "id": 18142, "original_language": "sv", "original_title": "Repm\u00e5nad eller Hur man g\u00f6r pojkar av m\u00e4n", "overview": "It's time for Jonsson to return to his old regiment to rehearse what he learned during conscription a few years ago. He meets his old friends, platoon leader Larsson and the music loving captain 'Beethoven'. Jonsson and his comrades doesn't take it very serious - but they have a jolly good time. A female journalist follows the exercise to write an article, and gets interested in him. Plot by Mattias Thuresson.", "poster_path": "/5OV9rSDTYcKN4sJAanTYJanormp.jpg", "release_date": "1979-02-23", "title": "The Call-up", "video": false, "vote_average": 5.1, "vote_count": 16, "popularity": 1.997}, {"adult": false, "backdrop_path": "/3jE6c1aKBrNPPAYdSlf0kXeWePm.jpg", "genre_ids": [35, 18], "id": 106242, "original_language": "sv", "original_title": "Ha ett underbart liv", "overview": "Per is doing his military service when he finds out that his girlfriend back home in Stockholm is having an affair. He goes AWOL and tries to find a way back home. On the way he meets Hanna, the daughter of a travelling salesman who joins him on his journey.", "poster_path": "/sJNbDTILXb5XtoiANWCOrmCAmmW.jpg", "release_date": "1992-02-07", "title": "Have a Wonderful Life", "video": false, "vote_average": 4.8, "vote_count": 4, "popularity": 1.542}, {"adult": false, "backdrop_path": "/x05onr3jyOc0unoIGZRwowNBSny.jpg", "genre_ids": [35], "id": 49718, "original_language": "sv", "original_title": "Morrh\u00e5r och \u00e4rtor", "overview": "A Comedy by G\u00f6sta Ekman.", "poster_path": "/rCOBOY59LqmRAMH81vje4Urf3KQ.jpg", "release_date": "1986-02-07", "title": "Morrh\u00e5r och \u00e4rtor", "video": false, "vote_average": 6.1, "vote_count": 10, "popularity": 2.862}, {"adult": false, "backdrop_path": "/hqTJwvUeJSqO4zdxvBLPdBSUL76.jpg", "genre_ids": [35], "id": 44618, "original_language": "sv", "original_title": "Mannen som slutade r\u00f6ka", "overview": "The Plot focuses on Dante Alighieri, a young man who loves smoking. When his father dies Dante inherits $17 million on one special condition: He must give up smoking in 14 days and then stay smoke-free for an entire year. If he fails, his uncle inherits the $17 million instead. Dante has a living hell while trying to quit, and hires a private detective agency called Little Secret Service who he gives free hands to stop him from smoking, While his uncle, who has taken up smoking himself, also does everything he can to make Dante smoke again.", "poster_path": "/dBqzlV5Lk3KHuryQ5efgTn7yj39.jpg", "release_date": "1972-12-16", "title": "The Man Who Quit Smoking", "video": false, "vote_average": 6.8, "vote_count": 12, "popularity": 2.207}, {"adult": false, "backdrop_path": null, "genre_ids": [18], "id": 106243, "original_language": "sv", "original_title": "Leva livet", "overview": "Vaccuum salesman Evert makes the rounds in a suburban Stockholm apartment building, getting brief glimpses of the various tenants' lives. During the course of the day, he meets an arguing married couple, a lonely older woman and a younger couple preparing an anxious dinner.", "poster_path": "/7aTqeUNGQ0Szo5iKc6CcQYOlDgv.jpg", "release_date": "2001-11-16", "title": "Days Like This", "video": false, "vote_average": 5.0, "vote_count": 3, "popularity": 1.551}, {"id": 103901, "video": false, "vote_count": 5, "vote_average": 5.0, "title": "My Big Fat Father", "release_date": "1992-11-22", "original_language": "sv", "original_title": "Min Store Tjocke Far", "genre_ids": [18], "backdrop_path": "/ASpN19WZDfZcru7ByKtY1Hl4xx.jpg", "adult": false, "overview": "Summer of 1959. 11-year old Osvald spend his summer holiday with his parents in the countryside of S\u00f6dermanland. His father has promised to play soccer with him and get some exercise. He also promised the locals to teach the church choir an Argentine mass. The father has a slight alcohol problem, so will he be able to do it?", "poster_path": "/m3FyPIVDPA6LMwSuLzxgh0Vl5RF.jpg", "popularity": 2.807}, {"adult": false, "backdrop_path": "/rIACWfruS9eOKjCfK3SSD5ngWAi.jpg", "genre_ids": [35, 18, 10770], "id": 188724, "original_language": "sv", "original_title": "Midvinterduell", "overview": "The film depicts a stubborn farmer who refuses to adapt to new rules that require him to leave his milk on the village common milk stool instead of his own. Milk truck driver is on his side and gets the milk that he continues to exhibit his milking stool.", "poster_path": "/xDMJjaWAGqYz7ouJZzqWdxOhHOG.jpg", "release_date": "1983-01-06", "title": "Midvinterduell", "video": false, "vote_average": 6.3, "vote_count": 6, "popularity": 1.4}, {"adult": false, "backdrop_path": "/2QAanm1QTrm709KDB2JMOZUurRN.jpg", "genre_ids": [35], "id": 39797, "original_language": "en", "original_title": "Att stj\u00e4la en tjuv", "overview": "Roger is a failed petty criminal living in Stockholm who falls in love with the cute Susanna", "poster_path": "/3vUem6DL33ng0oJYZqj393y3uoM.jpg", "release_date": "1996-12-25", "title": "Att stj\u00e4la en tjuv", "video": false, "vote_average": 2.2, "vote_count": 5, "popularity": 3.245}, {"adult": false, "backdrop_path": null, "genre_ids": [10749, 35], "id": 124537, "original_language": "sv", "original_title": "Pillertrillaren", "overview": "A Swedish romantic comedy by B. Gunnarsson.", "poster_path": "/6a6FC8K461XddqkcR0KbVCs5JuW.jpg", "release_date": "1994-02-11", "title": "Pillertrillaren", "video": false, "vote_average": 2.1, "vote_count": 4, "popularity": 1.945}, {"adult": false, "backdrop_path": "/4xxFmgmiPyTG93FcC6u3TJMVxYw.jpg", "genre_ids": [35], "id": 124519, "original_language": "sv", "original_title": "Badj\u00e4vlar", "overview": "In proper Swedish you say summer residents. But if you are a resident on the island you say bathe-fucks.", "poster_path": "/6RmjXuhwA0PAz97gr1yRE2VxZI4.jpg", "release_date": "1971-04-28", "title": "Badj\u00e4vlar", "video": false, "vote_average": 6.4, "vote_count": 5, "popularity": 1.926}, {"adult": false, "backdrop_path": "/tC65TqK7sq3u9ZVwEoUjO8zcxnr.jpg", "genre_ids": [18], "id": 25850, "original_language": "sv", "original_title": "Jack", "overview": "Jack spends his days smoking pot, drinking and hitting on girls together with his friends. As opposed to his friends, Jack actually knows what he wants to do with his life, he wants be an author. After a long summer together with his friends Jack finally has an idea for his first book...", "poster_path": "/5apyOTAWj8UTh62UJ77gmzrNkqt.jpg", "release_date": "1976-12-17", "title": "Jack", "video": false, "vote_average": 5.7, "vote_count": 3, "popularity": 1.3}, {"id": 188726, "video": false, "vote_count": 3, "vote_average": 6.3, "title": "Saxofonhallicken", "release_date": "1987-01-02", "original_language": "en", "original_title": "Saxofonhallicken", "genre_ids": [35, 18], "backdrop_path": "/xQOMlXLNZuz3kuHKnpXFUCeRNUG.jpg", "adult": false, "overview": "Saxophone-pimp is a meditation on urban hotel as youth. Here, at the city hotel in the small town, we find the entire gallery of: the young lion dance, the drunk lady and the happy party. New for the evening is Vera, a divorced mother in her prime. Dance band saxophonist follows the awkward attempts at contact between Vera and a drummer, and decides to help her along. He plays the classic \"Petite Fleur\". Again and again and again .....", "poster_path": "/jXvBo8jyID8UBWhJmZZNwB8trTD.jpg", "popularity": 0.6}, {"adult": false, "backdrop_path": "/3VcwiINeWjilAbTbTjVzkA24hdl.jpg", "genre_ids": [28, 35], "id": 35327, "original_language": "sv", "original_title": "Strul", "overview": "Conny is a chemistry teacher who is framed for drug possession. Unable to prove his innocence he ends up in prison. When he finds a secret exit some inmates \"persuades\" him to participate in a heist. Things become extremely hectic as he tries to prove his innocence as well as \"helping\" his inmates. When Conny thinks that it couldn't possibly get any worse he meets Susanne, a policewoman...", "poster_path": "/7c31Z66SqGrxc6GnO3JakQkVONj.jpg", "release_date": "1988-02-26", "title": "Framed", "video": false, "vote_average": 4.9, "vote_count": 18, "popularity": 3.3}, {"adult": false, "backdrop_path": "/4kNcp0Ha3II1yaYZmNNtByTyMil.jpg", "genre_ids": [35, 18], "id": 49940, "original_language": "sv", "original_title": "V\u00e4gen ut", "overview": "The enthusiastic Reine is forced to take a job as a social worker at Kumla prison.", "poster_path": "/fAkO326MnSo8844f7rZmwJY092o.jpg", "release_date": "1999-02-19", "title": "Breaking Out", "video": false, "vote_average": 5.1, "vote_count": 14, "popularity": 3.634}, {"adult": false, "backdrop_path": "/lxN69EMwtbzwvUOg6kbiD134t7m.jpg", "genre_ids": [18, 10749], "id": 40787, "original_language": "sv", "original_title": "Grabben i graven bredvid", "overview": "Desir\u00e9e, a modern librarian with urban friends and interests is visiting her late husband's grave when she meets Benny, a simple farmer. After his mother's death Benny lives alone on the run-down farm, desperately seeking a woman to take care of him. In spite of their differences the two have the dream of finding that special someone in common, and fall passionately in love. Benny wants Desir\u00e9e to move in with him and start a family as soon as possible. But being a farmer's wife is not something she is very enthusiastic about. Just presenting Benny as her boyfriend proves to be an embarrassing experience. And when she gets a tempting job offer in Stockholm she has to consider her priorities carefully.", "poster_path": "/9Wn1zTOq64IrIY3llwixmvatWGv.jpg", "release_date": "2002-08-02", "title": "The Guy in the Grave Next Door", "video": false, "vote_average": 5.1, "vote_count": 14, "popularity": 2.857}, {"id": 149444, "video": false, "vote_count": 8, "vote_average": 5.7, "title": "Dog Days", "release_date": "1970-11-30", "original_language": "sv", "original_title": "R\u00f6tm\u00e5nad", "genre_ids": [35, 18], "backdrop_path": "/ddiBgQ8emofGu2oObqj1uxt4DwF.jpg", "adult": false, "overview": "Somewhere in the archipelago outside Sandhamn lives the barber Assar Gustafsson and his 17-year old daughter Anna-Bella...", "poster_path": "/bXHuAiPf9w8UJAtQbdMVmNjoEOM.jpg", "popularity": 2.794}, {"adult": false, "backdrop_path": "/wtj77HaPwh94vg2wEEmLJlPBmkl.jpg", "genre_ids": [35], "id": 71291, "original_language": "sv", "original_title": "Kurt Olsson - filmen om mitt liv som mej sj\u00e4lv", "overview": "Hur blev Kurt den han blev? Varf\u00f6r blev han aldrig vald till klassens ordningsman? N\u00e4r kom Arne in bilden? Och vad h\u00e4nde n\u00e4r detta radarpar gjorde lumpen? Och Gudrun, vem tycker hon mest om - egentligen? Svaren f\u00e5r du i filmen om Kurtan. Kurtan tycks ha sina fingrar med i allt... fr\u00e5n varvskrisen till h\u00f6gertrafikoml\u00e4ggningen... och p\u00e5 n\u00e5got himla s\u00e4tt verkar allt g\u00e5 snett...", "poster_path": "/awXpGHWgoTqlPhQYt0kFlGRDtEV.jpg", "release_date": "1990-02-09", "title": "Kurt Olsson - filmen om mitt liv som mej sj\u00e4lv", "video": false, "vote_average": 4.0, "vote_count": 6, "popularity": 1.704}, {"adult": false, "backdrop_path": "/9XnwbuRM1ohAf4cleZtNPl16tz1.jpg", "genre_ids": [35], "id": 135394, "original_language": "sv", "original_title": "SOPOR", "overview": "A Monday morning a bunch of kids from Farsta attacks the royal house and keep the king under house arrest at the castle. They do it to get attention for their views on society.", "poster_path": "/anW8Mjp9Ea5rynlHm1u4N44HFOV.jpg", "release_date": "1981-03-21", "title": "SOPOR", "video": false, "vote_average": 4.8, "vote_count": 6, "popularity": 1.732}, {"id": 62826, "video": false, "vote_count": 6, "vote_average": 5.6, "title": "Potatishandlaren", "release_date": "1996-03-12", "original_language": "en", "original_title": "Potatishandlaren", "genre_ids": [35, 18], "backdrop_path": "/x8VErE7aFhZGmubIiApxmB0Gin0.jpg", "adult": false, "overview": "In this Swedish TV drama, a once-kittenish young woman has become a fortyish spinster, still helping her widowed father on the family farm. Marta drives tractors, does the planting and harvesting, and helps to maintain the property. Meanwhile her father Johansson worries and wonders if his aging daughter will ever find a man to marry her. Into this tense situation comes Sture, the potato seller,,,", "poster_path": "/fM4ZJWuW3wGysIACtvJC8in7DdK.jpg", "popularity": 1.448}], "total_pages": 2, "total_results": 40}, "credits": {"cast": [{"cast_id": 1, "character": "Morgan P\u00e5lsson", "credit_id": "52fe45ca9251416c7506286d", "gender": 2, "id": 76328, "name": "Anders Jansson", "order": 0, "profile_path": "/akxYNYSb0NutPWTohD04x5HghwC.jpg"}, {"cast_id": 2, "character": "Robert Flycht", "credit_id": "52fe45ca9251416c75062871", "gender": 2, "id": 76329, "name": "Johan Wester", "order": 1, "profile_path": "/hhc7OuUJPWDGj0MeAC2hUpT9KdS.jpg"}, {"cast_id": 3, "character": "Mohammed", "credit_id": "52fe45ca9251416c75062875", "gender": 2, "id": 76330, "name": "Karim Rasheed", "order": 2, "profile_path": null}, {"cast_id": 4, "character": "Eva", "credit_id": "52fe45ca9251416c75062879", "gender": 0, "id": 76331, "name": "Suzanne Reuter", "order": 3, "profile_path": "/7jxaJn0hknjmahApuAXUi3SPjRt.jpg"}, {"cast_id": 5, "character": "Stig", "credit_id": "52fe45ca9251416c7506287d", "gender": 0, "id": 76332, "name": "Rolf Skoglund", "order": 4, "profile_path": "/3ZgCKSOCAd2yxCrPKd23vjfiWYl.jpg"}, {"cast_id": 6, "character": "\u00c5se Seierland", "credit_id": "52fe45ca9251416c75062881", "gender": 1, "id": 76333, "name": "Camilla Frey", "order": 5, "profile_path": "/dI6ERrNg542fXK2qDFkk2yd8mMR.jpg"}, {"cast_id": 7, "character": "Marit", "credit_id": "52fe45ca9251416c75062885", "gender": 0, "id": 76334, "name": "Elisabeth Lahr", "order": 6, "profile_path": null}], "crew": [{"credit_id": "52fe45ca9251416c7506288b", "department": "Directing", "gender": 2, "id": 76335, "job": "Director", "name": "Fredrik Boklund", "profile_path": "/2PA24N1jlagYj2BwjJ6s2zRL7dr.jpg"}, {"credit_id": "52fe45ca9251416c75062891", "department": "Writing", "gender": 2, "id": 76329, "job": "Author", "name": "Johan Wester", "profile_path": "/hhc7OuUJPWDGj0MeAC2hUpT9KdS.jpg"}, {"credit_id": "52fe45ca9251416c75062897", "department": "Writing", "gender": 2, "id": 76328, "job": "Author", "name": "Anders Jansson", "profile_path": "/akxYNYSb0NutPWTohD04x5HghwC.jpg"}, {"credit_id": "52fe45ca9251416c7506289d", "department": "Writing", "gender": 0, "id": 76336, "job": "Author", "name": "Wiktor Ericsson", "profile_path": null}, {"credit_id": "52fe45ca9251416c750628a3", "department": "Production", "gender": 0, "id": 47325, "job": "Producer", "name": "Martin Persson", "profile_path": null}, {"credit_id": "52fe45ca9251416c750628a9", "department": "Sound", "gender": 0, "id": 76337, "job": "Music", "name": "Magnus B\u00f6rjeson", "profile_path": null}]}}