{"adult": false, "backdrop_path": "/yrycIJtxGhp5chH5drL17uBHmb3.jpg", "belongs_to_collection": null, "budget": 0, "genres": [{"id": 9648, "name": "Mystery"}, {"id": 18, "name": "Drama"}], "homepage": null, "id": 140825, "imdb_id": "tt0067382", "original_language": "fr", "original_title": "La maison sous les arbres", "overview": "An industrial-espionage group calls on a retired spy (Frank Langella) living with his wife (Faye Dunaway) and children in Paris. To force him back to his old job, his children will be kidnapped.", "popularity": 2.659, "poster_path": "/c8E8WuBbxkX0oPADxmuFYVFgYyq.jpg", "production_companies": [{"id": 1398, "logo_path": null, "name": "Les Films Corona", "origin_country": "FR"}, {"id": 459, "logo_path": null, "name": "Les Films Pomereu", "origin_country": ""}], "production_countries": [{"iso_3166_1": "FR", "name": "France"}, {"iso_3166_1": "IT", "name": "Italy"}], "release_date": "1971-06-09", "revenue": 0, "runtime": 96, "spoken_languages": [{"iso_639_1": "en", "name": "English"}], "status": "Released", "tagline": "Murder and Madness is THE DEADLY TRAP.", "title": "The Deadly Trap", "video": false, "vote_average": 5.6, "vote_count": 8, "keywords": {"keywords": [{"id": 6844, "name": "stalker"}]}, "similar": {"page": 1, "results": [{"id": 74899, "video": false, "vote_count": 17, "vote_average": 6.4, "title": "The Fan", "release_date": "1981-05-15", "original_language": "en", "original_title": "The Fan", "genre_ids": [18, 27, 53], "backdrop_path": "/n1jX5EuOSCgkNjh596xW8yrQedf.jpg", "adult": false, "overview": "A record store clerk is an obsessed fan of an actress of stage and screen. However, when faced with rejection, the fan strikes out in increasingly violent ways.", "poster_path": "/uWRwFGaDZNf6uVQjvZKuLduIZ1I.jpg", "popularity": 4.874}, {"id": 471506, "video": false, "vote_count": 403, "vote_average": 6.3, "title": "Greta", "release_date": "2019-02-28", "original_language": "en", "original_title": "Greta", "genre_ids": [9648, 53], "backdrop_path": "/2yR4VkzqOtnaj5AOCN8i2HBBzLY.jpg", "adult": false, "overview": "A young woman returns an elderly widow\u2019s lost purse, leading to an unlikely relationship between the two \u2014 until the young woman discovers her elder might not be all that she seems.", "poster_path": "/6Lgk1OGexD0fU8QqDBQHcvEwd1Z.jpg", "popularity": 18.519}, {"id": 411741, "video": false, "vote_count": 483, "vote_average": 6.5, "title": "Ingrid Goes West", "release_date": "2017-08-11", "original_language": "en", "original_title": "Ingrid Goes West", "genre_ids": [35, 18], "backdrop_path": "/enwPgakYeduofhVxvS2KGR0nIpm.jpg", "adult": false, "overview": "Ingrid becomes obsessed with a social network star named Taylor Sloane who seemingly has a perfect life. But when Ingrid decides to drop everything and move west to be Taylor's friend, her behaviour turns unsettling and dangerous.", "poster_path": "/3LEyW11onDltXHo0L1X23j9Nnvg.jpg", "popularity": 9.218}, {"id": 524247, "video": false, "vote_count": 168, "vote_average": 6.3, "title": "The Intruder", "release_date": "2019-05-03", "original_language": "en", "original_title": "The Intruder", "genre_ids": [18, 9648, 53], "backdrop_path": "/kyegg1r5oxRCZgqU7anHYD2TJap.jpg", "adult": false, "overview": "A psychological thriller about a young married couple who buys a beautiful Napa Valley house on several acres of land only to find that the man they bought it from refuses to let go of the property.", "poster_path": "/p9xKyetr0ihJ2K6HJMeXzc4IwEv.jpg", "popularity": 14.609}, {"adult": false, "backdrop_path": "/Ao2bnJMmcFepMVw1BUay25tt7TM.jpg", "genre_ids": [18, 10749], "id": 1259, "original_language": "en", "original_title": "Notes on a Scandal", "overview": "A veteran high school teacher befriends a younger art teacher, who is having an affair with one of her 15-year-old students. However, her intentions with this new \"friend\" also go well beyond platonic friendship.", "poster_path": "/lXZa1mHZ8eD0VOpNaLfvM9tSpAj.jpg", "release_date": "2006-12-25", "title": "Notes on a Scandal", "video": false, "vote_average": 7.1, "vote_count": 463, "popularity": 10.007}, {"adult": false, "backdrop_path": "/owqxugHrY65LFsSgXkx2O1iIOjG.jpg", "genre_ids": [80, 18, 10749, 53], "id": 15393, "original_language": "en", "original_title": "Play Misty for Me", "overview": "A brief fling between a male disc jockey and an obsessed female fan takes a frightening, and perhaps even deadly turn when another woman enters the picture.", "poster_path": "/gMMYNpxsVwGjgtMR20dKXr3kWUg.jpg", "release_date": "1971-11-03", "title": "Play Misty for Me", "video": false, "vote_average": 6.7, "vote_count": 184, "popularity": 9.618}, {"id": 1700, "video": false, "vote_count": 2430, "vote_average": 7.7, "title": "Misery", "release_date": "1990-11-30", "original_language": "en", "original_title": "Misery", "genre_ids": [18, 53], "backdrop_path": "/2PCMZhNMT1mNdhmg3O767ykczOe.jpg", "adult": false, "overview": "Novelist Paul Sheldon crashes his car on a snowy Colorado road. He is found by Annie Wilkes, the \"number one fan\" of Paul's heroine Misery Chastaine. Annie is also somewhat unstable, and Paul finds himself crippled, drugged and at her mercy.", "poster_path": "/s0Ot5zUmVF1jSN9WpBHRafvUPld.jpg", "popularity": 18.018}, {"id": 9373, "video": false, "vote_count": 1413, "vote_average": 6.1, "title": "The Texas Chainsaw Massacre", "release_date": "2003-05-21", "original_language": "en", "original_title": "The Texas Chainsaw Massacre", "genre_ids": [27], "backdrop_path": "/3rTsJ7tIC3LUSRr80PfeLbbCfBA.jpg", "adult": false, "overview": "After picking up a traumatized young hitchhiker, five friends find themselves stalked and hunted by a deformed chainsaw-wielding killer and his family of equally psychopathic killers.", "poster_path": "/gx7FCIOFGxqNyplF3t7qtmUv55g.jpg", "popularity": 17.769}, {"adult": false, "backdrop_path": "/lnxiNlbStoBT4CDMqPAdprS5pwN.jpg", "genre_ids": [28, 53], "id": 1991, "original_language": "en", "original_title": "Death Proof", "overview": "Austin's hottest DJ, Jungle Julia, sets out into the night to unwind with her two friends Shanna and Arlene. Covertly tracking their moves is Stuntman Mike, a scarred rebel leering from behind the wheel of his muscle car, revving just feet away.", "poster_path": "/nyQBcpxqS4im2akQlWG9Y1oeM2V.jpg", "release_date": "2007-05-21", "title": "Death Proof", "video": false, "vote_average": 6.8, "vote_count": 2819, "popularity": 20.441}, {"id": 845, "video": false, "vote_count": 799, "vote_average": 7.8, "title": "Strangers on a Train", "release_date": "1951-06-18", "original_language": "en", "original_title": "Strangers on a Train", "genre_ids": [80, 53], "backdrop_path": "/3DL6BmslkyGHm70HXFNUwoYYIjb.jpg", "adult": false, "overview": "A psychotic socialite confronts a pro tennis star with a theory on how two complete strangers can get away with murder\u2014a theory that he plans to implement.", "poster_path": "/ihC083U7ef56Ui4x0P0dobojrZ1.jpg", "popularity": 19.187}, {"adult": false, "backdrop_path": "/bYbnlh6VXFRtcSX82UMDsBDLB5j.jpg", "genre_ids": [18, 10749], "id": 28468, "original_language": "it", "original_title": "La chiave", "overview": "After twenty years of marriage, art professor Nino Rolfe attempts to break down his wife Teresa's conventional modesty. Noticing her affection for their daughter's fianc\u00e9, Nino instigates her sexual interest in him as well. This sets off a chain of unexpected events and emotional complications, as Nino and his unpredictable fascist daughter find that they both enjoy being jealous.", "poster_path": "/e6g2geNLgFzMbriH6EvSJZD78nx.jpg", "release_date": "1983-10-18", "title": "The Key", "video": false, "vote_average": 5.0, "vote_count": 128, "popularity": 19.088}, {"id": 12531, "video": false, "vote_count": 91, "vote_average": 6.9, "title": "The Apartment", "release_date": "1996-07-27", "original_language": "fr", "original_title": "L'Appartement", "genre_ids": [18, 9648, 10749], "backdrop_path": "/64qyT8m4JQ6YODvXxtbHgKmXBX7.jpg", "adult": false, "overview": "A stylish suspense thriller that confounds the audience while presenting them with an extraordinary and elusive mystery. Max is a former playboy who has decided to settle down by marrying his current love, Muriel. However, during a business trip, Max catches a glimpse of the great lost love of his life, reviving his wanderlust and sending him off on a chase of the elusive Lisa, whom he had overheard suggesting to a friend that her lover, Daniel, had killed someone for her. Soon, Max is trying to unravel the mystery behind the suspicious death of Daniel's wife, which he hopes will lead him closer to Lisa.", "poster_path": "/1sqrQdQTn8jKLhUcPKfRVj639zA.jpg", "popularity": 21.259}, {"id": 10545, "video": false, "vote_count": 3017, "vote_average": 7.0, "title": "The Hunchback of Notre Dame", "release_date": "1996-06-21", "original_language": "en", "original_title": "The Hunchback of Notre Dame", "genre_ids": [16, 18, 10751], "backdrop_path": "/oslaee3VX9kJAjVezbjZKlEJDzn.jpg", "adult": false, "overview": "When Quasimodo defies the evil Frollo and ventures out to the Festival of Fools, the cruel crowd jeers him. Rescued by fellow outcast the gypsy Esmeralda, Quasi soon finds himself battling to save the people and the city he loves.", "poster_path": "/r7V92gY3AMO6li17MmGTixAnFcv.jpg", "popularity": 34.935}, {"adult": false, "backdrop_path": "/7RRuRcGuWkZGuRyYugfXn0Fgrrr.jpg", "genre_ids": [28, 80, 18, 53], "id": 949, "original_language": "en", "original_title": "Heat", "overview": "Obsessive master thief, Neil McCauley leads a top-notch crew on various daring heists throughout Los Angeles while determined detective, Vincent Hanna pursues him without rest. Each man recognizes and respects the ability and the dedication of the other even though they are aware their cat-and-mouse game may end in violence.", "poster_path": "/6pmLVffM9jEYK7VqDJqPblMxfEY.jpg", "release_date": "1995-12-15", "title": "Heat", "video": false, "vote_average": 7.8, "vote_count": 3610, "popularity": 21.48}, {"id": 44214, "video": false, "vote_count": 9188, "vote_average": 7.6, "title": "Black Swan", "release_date": "2010-12-03", "original_language": "en", "original_title": "Black Swan", "genre_ids": [18, 27, 53], "backdrop_path": "/t8jFs6cOl1YVSfXXZivWtEb14tF.jpg", "adult": false, "overview": "A journey through the psyche of a young ballerina whose starring role as the duplicitous swan queen turns out to be a part for which she becomes frighteningly perfect.", "poster_path": "/dQ7uxvsVTspVIsqjfgQj8usJpwX.jpg", "popularity": 27.026}, {"adult": false, "backdrop_path": "/arcpWGGnUkGkakOwZo7xfPsaz7h.jpg", "genre_ids": [9648, 53], "id": 2832, "original_language": "en", "original_title": "Identity", "overview": "Complete strangers stranded at a remote desert motel during a raging storm soon find themselves the target of a deranged murderer. As their numbers thin out, the travelers begin to turn on each other, as each tries to figure out who the killer is.", "poster_path": "/xSNSp2wmCUwFavxdkMF417hBc39.jpg", "release_date": "2003-04-25", "title": "Identity", "video": false, "vote_average": 7.2, "vote_count": 2089, "popularity": 15.517}, {"id": 369972, "video": false, "vote_count": 2999, "vote_average": 7.1, "title": "First Man", "release_date": "2018-10-11", "original_language": "en", "original_title": "First Man", "genre_ids": [18, 36], "backdrop_path": "/jrudoaXcoLyHRPdolyOGemXgPEs.jpg", "adult": false, "overview": "A look at the life of the astronaut, Neil Armstrong, and the legendary space mission that led him to become the first man to walk on the Moon on July 20, 1969.", "poster_path": "/i91mfvFcPPlaegcbOyjGgiWfZzh.jpg", "popularity": 33.506}, {"id": 489999, "video": false, "vote_count": 1923, "vote_average": 7.6, "title": "Searching", "release_date": "2018-08-24", "original_language": "en", "original_title": "Searching", "genre_ids": [18, 9648, 53], "backdrop_path": "/a3ay4lYVIbgXY9QdWveWqtS1lVx.jpg", "adult": false, "overview": "After David Kim's 16-year-old daughter goes missing, a local investigation is opened and a detective is assigned to the case. But 37 hours later and without a single lead, David decides to search the one place no one has looked yet, where all secrets are kept today: his daughter's laptop.", "poster_path": "/pk9R56ZFlofbBzfwBnHlDyg5DMs.jpg", "popularity": 17.482}, {"id": 103, "video": false, "vote_count": 6106, "vote_average": 8.2, "title": "Taxi Driver", "release_date": "1976-02-07", "original_language": "en", "original_title": "Taxi Driver", "genre_ids": [80, 18], "backdrop_path": "/hjmJKAVoZ3n2KWbKgasbfdugwhu.jpg", "adult": false, "overview": "A mentally unstable Vietnam War veteran works as a night-time taxi driver in New York City where the perceived decadence and sleaze feed his urge for violent action, attempting to save a preadolescent prostitute in the process.", "poster_path": "/ekstpH614fwDX8DUln1a2Opz0N8.jpg", "popularity": 25.879}, {"adult": false, "backdrop_path": "/fwreQBx5CD55c1DpH117cS8915P.jpg", "genre_ids": [18, 53], "id": 867, "original_language": "en", "original_title": "Sliver", "overview": "A woman moves into an apartment in Manhattan and learns that the previous tenant's life ended mysteriously after they fell from the balcony.", "poster_path": "/av21Dfu31DQPtp5jkorMMS58rQC.jpg", "release_date": "1993-05-21", "title": "Sliver", "video": false, "vote_average": 5.3, "vote_count": 286, "popularity": 19.627}], "total_pages": 33, "total_results": 658}, "recommendations": {"page": 1, "results": [{"adult": false, "backdrop_path": null, "genre_ids": [18], "id": 458521, "original_language": "es", "original_title": "Tr\u00e1gala, perro", "overview": "Sister Patrocinio is a nun who is stigmatized by Christ in her hands and feet. Although some believe in this mystical fact, others suspect of manipulation and take it to the court of justice.", "poster_path": "/xJEiZT3C2eaJLPYzlL1U7yPm6EM.jpg", "release_date": "1981-11-16", "title": "Tr\u00e1gala, perro", "video": false, "vote_average": 6.3, "vote_count": 3, "popularity": 2.12}, {"adult": false, "backdrop_path": null, "genre_ids": [18], "id": 350671, "original_language": "es", "original_title": "Luna de lobos", "overview": "This is movie is about the story of the people who keep on fighting after the Spanish Civil War were officially finished. They were republicans who took shelter among the mountains (principally the mountains in the north of Spain, between Asturias and Le\u00f3n). These people were called \"maquis\" and defended the thought of a Spain free of the implacable fascism of the illicit military government of General Franco, who took the power in a bloody cruel civil war. Ramiro, Santiago and Gildo are the three main characters of the movie. Santiago and Gildo got killed and eventually Ramiro decided to escape to France, bored of being isolated by the democratic governments of other countries in Europe what kept General Franco in despite of the Republican Government, elected by the Spanish people and not by the power of guns.", "poster_path": "/8oLJ5PcFpid3hidrQrnbDMHb7N2.jpg", "release_date": "1987-05-28", "title": "Moon of Wolves", "video": false, "vote_average": 5.3, "vote_count": 3, "popularity": 1.8}, {"adult": false, "backdrop_path": "/f9zHTff4YH7cxgDu2OP4smKjAIf.jpg", "genre_ids": [35], "id": 123642, "original_language": "es", "original_title": "Siete mil d\u00edas juntos", "overview": "Petra and Matthias are a bad marriage. He works as a janitor at the school of anatomy. Petra has a bitter and uncompromising character, so that their discussions with Matthias are constant, but she is careful not to ever lift his voice. He, however, does not care who tell and shouts without hesitation. The neighbors, who are some gossips are at the end of the street everything that happens in the house of Petra and Matthias.", "poster_path": "/xQdSrqsVApDPUMG1df2n7WbKGHZ.jpg", "release_date": "1995-01-27", "title": "Long Life Together", "video": false, "vote_average": 5.5, "vote_count": 4, "popularity": 1.928}, {"adult": false, "backdrop_path": "/vCkQhEJJcpJDIstdgqTWhK2pz6R.jpg", "genre_ids": [18], "id": 160457, "original_language": "es", "original_title": "El mar y el tiempo", "overview": "Jesus returns to Spain after a long exile in Argentina. The family he meets is very different from the one he left: they live under the sadness of being the losers of the war, Marcela, before a beautiful young woman, is now an alcoholic, and the youngest can not even understand them. Jesus wants to start a new life in Spain but he feels out of place; Time has turned him into an inhabitant of the other side of the 'puddle'.", "poster_path": "/3CZeXiyFD4MUqAxFumt8yOxTgBw.jpg", "release_date": "1989-06-15", "title": "The Sea and the Weather", "video": false, "vote_average": 3.5, "vote_count": 4, "popularity": 1.261}, {"adult": false, "backdrop_path": null, "genre_ids": [18, 53, 10749], "id": 2435, "original_language": "en", "original_title": "S\u00f3lo m\u00eda", "overview": "A women meets a charming man and falls in love, they get married and start a family. As they age and have children, the man's becomes violent and abusive.", "poster_path": "/hkxD0cfPEmgWS4RByHrKQfbA71A.jpg", "release_date": "2001-10-31", "title": "S\u00f3lo m\u00eda", "video": false, "vote_average": 5.1, "vote_count": 6, "popularity": 2.028}, {"adult": false, "backdrop_path": null, "genre_ids": [], "id": 163414, "original_language": "en", "original_title": "Hay que matar a B.", "overview": "In a fictitious South American country there's lots of political tension, the labor-unions have all their members on strike. The public demands the return of politician B. from exile. However private trucker Pal can't afford to strike, so he's beaten up and his truck burned. In the headlines he's described as strike-breaker. This is only part of an intrigue which shall get him to murder B.", "poster_path": "/giv4V3Q7PCCvAi9bKwyL6tXGbm4.jpg", "release_date": "1975-01-01", "title": "Hay que matar a B.", "video": false, "vote_average": 4.3, "vote_count": 3, "popularity": 1.285}, {"adult": false, "backdrop_path": "/8o2GTkS0ZcLWLEpXuZ2e9oO9IBZ.jpg", "genre_ids": [35, 18, 10749], "id": 118955, "original_language": "en", "original_title": "The Chapman Report", "overview": "Based on the best-selling novel by Irving Wallace that was inspired by the Kinsey Report on the sexual mores of suburban women, the film follows the personal (read sexual) lives of four women (Claire Bloom, Jane Fonda, Shelley Winters and Glynis Johns) with four separate sexual hangups, ranging from frigidity to nymphomania. Efrem Zimbalist, Jr. plays a research psychologist who becomes entangled with Fonda, the young woman suffering from emotional frigidity.", "poster_path": "/xHlkaDldivwkL9H8qOmb2zyXqNo.jpg", "release_date": "1962-10-05", "title": "The Chapman Report", "video": false, "vote_average": 5.6, "vote_count": 5, "popularity": 3.377}, {"adult": false, "backdrop_path": "/2naArx4F10VeGQCAkumwklzNUKl.jpg", "genre_ids": [18], "id": 42147, "original_language": "it", "original_title": "Passione d'amore", "overview": "In the 1860's, Giorgio (Giraudeau), a young Italian soldier is sent to a remote post, far away from his lover, Clara (Antonelli). He is lodged in the house of the colonel (Girotti). He becames friends with the colonel and the local doctor (Trintignant). Among the inhabitants of the house, there is a strange young woman - Fosca (d'Obici) who is both unattractive and mad. However, she has a passion that Giorgio will have to cope with.", "poster_path": "/pnUECe5pmZ9MAVhGm2DmLRI09p5.jpg", "release_date": "1981-09-16", "title": "Passion of Love", "video": false, "vote_average": 7.1, "vote_count": 10, "popularity": 3.155}, {"adult": false, "backdrop_path": "/i8iMyqsN9TbsW6OBtxTDsOB5sdX.jpg", "genre_ids": [18, 35, 10749], "id": 49696, "original_language": "fr", "original_title": "Lundi matin", "overview": "A story told quietly of Vincent a welder at a large and seemingly toxic plant along the Rh\u00f4ne, living in a village with his sons, wife, and mother, saying little to each other.", "poster_path": "/odcaxNxAESqTpwVXe3swOHussOW.jpg", "release_date": "2002-01-01", "title": "Monday Morning", "video": false, "vote_average": 5.3, "vote_count": 7, "popularity": 1.137}, {"adult": false, "backdrop_path": "/t5JPUmygm956UCRDEek0P2ne5TV.jpg", "genre_ids": [18, 10749], "id": 68971, "original_language": "fr", "original_title": "Docteur Fran\u00e7oise Gailland", "overview": "Dr. Fran\u00e7oise Gailland has a hectic schedule, which causes her to have little time to spend with her family, which consists of her husband G\u00e9rard, her pregnant teenager daughter \u00c9lisabeth, and her sullen son Julien. However, she does manage to find the time to spend with her lover, Daniel Letessier. While her life in such disarray, she learns that she has cancer. Fran\u00e7oise tries to put a brave face on it, and is determined to face the life-threatening disease with courage.", "poster_path": "/7wmeMD7lUUrH7SjoaEWDqVIlJez.jpg", "release_date": "1976-01-14", "title": "Doctor Francoise Gailland", "video": false, "vote_average": 4.2, "vote_count": 5, "popularity": 1.308}, {"id": 45946, "video": false, "vote_count": 7, "vote_average": 6.7, "title": "Terminus", "release_date": "1961-12-01", "original_language": "en", "original_title": "Terminus", "genre_ids": [99], "backdrop_path": null, "adult": false, "overview": "This fly on the wall-style documentary from 1961 won an Oscar for best documentary, and shows the changing patterns of human emotions during 24 hours in the life of Waterloo Station.", "poster_path": "/y8ERLMkVY5U2qOP4vkITlylkSAB.jpg", "popularity": 1.471}, {"adult": false, "backdrop_path": "/rTcvE8LeBnyWzH5R31LgMLEyRak.jpg", "genre_ids": [12, 18], "id": 202619, "original_language": "es", "original_title": "Supervivientes de los Andes", "overview": "Sixteen plane crash survivors stranded in the Andes turn to cannibalism to stay alive. Based on a true story.", "poster_path": "/cTCtcfnXnR2UgbZ4j3z6RTk7Lbv.jpg", "release_date": "1976-01-15", "title": "Survive!", "video": false, "vote_average": 5.8, "vote_count": 8, "popularity": 2.922}, {"adult": false, "backdrop_path": "/mhNJrsTASayWWu24cOErHZHgfnE.jpg", "genre_ids": [18], "id": 114096, "original_language": "en", "original_title": "Bloodbrothers", "overview": "A young man is torn between following in his brothers' footsteps or striking out on his own.", "poster_path": "/2DDE8LoMSo5b7ob6gC2613ijQfV.jpg", "release_date": "1978-09-28", "title": "Bloodbrothers", "video": false, "vote_average": 6.2, "vote_count": 7, "popularity": 4.482}, {"adult": false, "backdrop_path": "/v2CwkO8jHfpG4xTo87q0SH8BXqr.jpg", "genre_ids": [35], "id": 99902, "original_language": "es", "original_title": "Todos a la c\u00e1rcel", "overview": "A prison in Valencia hosts an event recognizing political prisoners jailed during Franco\u2019s reign. The reunion proves more raucous than the organizers intended.", "poster_path": "/nuRF1rrxd1pb4Dx4Sm1BUCsBo3G.jpg", "release_date": "1993-12-22", "title": "Everyone Off to Jail", "video": false, "vote_average": 5.4, "vote_count": 8, "popularity": 1.871}], "total_pages": 1, "total_results": 14}, "credits": {"cast": [{"cast_id": 12, "character": "Jill", "credit_id": "52fe4a9d9251416c750e82d7", "gender": 1, "id": 6450, "name": "Faye Dunaway", "order": 0, "profile_path": "/bwHJPkiDOjTslgrl0mri1Ndvx2V.jpg"}, {"cast_id": 13, "character": "Philip", "credit_id": "52fe4a9d9251416c750e82db", "gender": 2, "id": 8924, "name": "Frank Langella", "order": 1, "profile_path": "/wMlcjLBQouQjE0iceseNTxUF3BF.jpg"}, {"cast_id": 14, "character": "Cynthia", "credit_id": "52fe4a9d9251416c750e82df", "gender": 1, "id": 30121, "name": "Barbara Parkins", "order": 2, "profile_path": "/p1nVhk32JBO3nJCMTNJr9UUitYW.jpg"}, {"cast_id": 15, "character": "Miss Hansen", "credit_id": "52fe4a9d9251416c750e82e3", "gender": 0, "id": 35589, "name": "Karen Blanguernon", "order": 3, "profile_path": "/e5iknUm8T0QTXJPDLTUO72ihHvL.jpg"}, {"cast_id": 16, "character": "Commissaire Chameille", "credit_id": "52fe4a9d9251416c750e82e7", "gender": 2, "id": 26879, "name": "Raymond G\u00e9r\u00f4me", "order": 4, "profile_path": "/cbvas4hfhtKJklv4N298emJbVZ4.jpg"}, {"cast_id": 17, "character": "Cathy (as Mich\u00e8le Lourie)", "credit_id": "52fe4a9d9251416c750e82eb", "gender": 0, "id": 1113513, "name": "Michele Lourie", "order": 5, "profile_path": null}, {"cast_id": 18, "character": "Patrick", "credit_id": "52fe4a9d9251416c750e82ef", "gender": 0, "id": 1113514, "name": "Patrick Vincent", "order": 6, "profile_path": null}, {"cast_id": 19, "character": "Psychiatrist", "credit_id": "52fe4a9d9251416c750e82f3", "gender": 2, "id": 27443, "name": "G\u00e9rard Buhr", "order": 7, "profile_path": "/wypCMZyhcrddkOxJkjVhoRGQTVt.jpg"}, {"cast_id": 20, "character": "", "credit_id": "52fe4a9d9251416c750e82f7", "gender": 0, "id": 25842, "name": "Louise Chevalier", "order": 8, "profile_path": null}, {"cast_id": 21, "character": "l'\u00e9tranger", "credit_id": "52fe4a9d9251416c750e82fb", "gender": 2, "id": 15395, "name": "Maurice Ronet", "order": 9, "profile_path": "/89AUkh5mjmWPDQYaWNLZdsa4cV5.jpg"}, {"cast_id": 22, "character": "l'Homme \u00e0 l'echarpe jaune", "credit_id": "5afeaf15c3a368747c0099b0", "gender": 2, "id": 34581, "name": "Patrick Dewaere", "order": 10, "profile_path": "/ytZv7q55p8FgWAi3HgtqDwgc20E.jpg"}], "crew": [{"credit_id": "52fe4a9d9251416c750e82af", "department": "Writing", "gender": 2, "id": 3573, "job": "Adaptation", "name": "Daniel Boulanger", "profile_path": "/3Egd9oziYQQjO686lDQ8Z1DWCLr.jpg"}, {"credit_id": "52fe4a9d9251416c750e8297", "department": "Directing", "gender": 2, "id": 9740, "job": "Director", "name": "Ren\u00e9 Cl\u00e9ment", "profile_path": "/uaA2c4dy8OgKqMaw77L9tI4TiSF.jpg"}, {"credit_id": "52fe4a9d9251416c750e82b5", "department": "Writing", "gender": 2, "id": 9740, "job": "Adaptation", "name": "Ren\u00e9 Cl\u00e9ment", "profile_path": "/uaA2c4dy8OgKqMaw77L9tI4TiSF.jpg"}, {"credit_id": "52fe4a9d9251416c750e82bb", "department": "Writing", "gender": 2, "id": 9791, "job": "Writer", "name": "Ring Lardner, Jr.", "profile_path": "/mocPoSqxZgbyyfPtdqAJSTamAHm.jpg"}, {"credit_id": "52fe4a9d9251416c750e82cd", "department": "Production", "gender": 0, "id": 11197, "job": "Producer", "name": "Bertrand Javal", "profile_path": null}, {"credit_id": "52fe4a9d9251416c750e829d", "department": "Writing", "gender": 2, "id": 30208, "job": "Scenario Writer", "name": "Sidney Buchman", "profile_path": null}, {"credit_id": "52fe4a9d9251416c750e82c7", "department": "Production", "gender": 2, "id": 40532, "job": "Producer", "name": "Robert Dorfmann", "profile_path": "/xggAYmIALeMYjAcWdjtdQ28wWmi.jpg"}, {"credit_id": "52fe4a9d9251416c750e82c1", "department": "Production", "gender": 2, "id": 326033, "job": "Producer", "name": "Georges Casati", "profile_path": null}, {"credit_id": "52fe4a9d9251416c750e82a3", "department": "Writing", "gender": 0, "id": 558338, "job": "Scenario Writer", "name": "Eleanor Perry", "profile_path": null}, {"credit_id": "52fe4a9d9251416c750e82d3", "department": "Sound", "gender": 0, "id": 585617, "job": "Music", "name": "Gilbert B\u00e9caud", "profile_path": null}, {"credit_id": "52fe4a9d9251416c750e82a9", "department": "Writing", "gender": 0, "id": 1113512, "job": "Novel", "name": "Arthur Cavanaugh", "profile_path": null}]}}