{"adult": false, "backdrop_path": null, "belongs_to_collection": null, "budget": 0, "genres": [{"id": 28, "name": "Action"}, {"id": 18, "name": "Drama"}], "homepage": null, "id": 141461, "imdb_id": "tt0082072", "original_language": "cn", "original_title": "\u78a7\u8840\u528d", "overview": "Phillip Kwok plays the orphaned son of a general disgraced and executed by his political enemies... which has nothing to do with the rest of the movie. Raised to be a righteous martial artist, Yuan kicks off the story proper by finding a cave containing a skeleton, a treasure map, and a manual teaching him the Golden Snake style.  Obeying a request hidden in the manual to give a portion of the treasure to the Golden Snake's old girlfriend, Yuan begins to seek the woman out - on the way solving the riddle of the Golden Snake, and how he came to his end.", "popularity": 1.429, "poster_path": "/qhlVHrKEZ0es2V9MT2LDtiCxJbB.jpg", "production_companies": [{"id": 5798, "logo_path": "/tmuI9BGXgpWLmokhlxpnG3IGNQB.png", "name": "Shaw Brothers", "origin_country": "HK"}], "production_countries": [{"iso_3166_1": "HK", "name": "Hong Kong"}], "release_date": "1981-03-06", "revenue": 0, "runtime": 104, "spoken_languages": [{"iso_639_1": "cn", "name": "\u5e7f\u5dde\u8bdd / \u5ee3\u5dde\u8a71"}], "status": "Released", "tagline": "", "title": "The Sword Stained with Royal Blood", "video": false, "vote_average": 6.3, "vote_count": 6, "keywords": {"keywords": [{"id": 779, "name": "martial arts"}, {"id": 780, "name": "kung fu"}, {"id": 1938, "name": "sword"}, {"id": 9725, "name": "sword fight"}]}, "similar": {"page": 1, "results": [{"id": 146, "video": false, "vote_count": 1771, "vote_average": 7.3, "title": "Crouching Tiger, Hidden Dragon", "release_date": "2000-07-06", "original_language": "zh", "original_title": "\u5367\u864e\u85cf\u9f99", "genre_ids": [28, 12, 18, 10749], "backdrop_path": "/dKenGLffFC9HwuxG4Sq7fJRkiFb.jpg", "adult": false, "overview": "Two warriors in pursuit of a stolen sword and a notorious fugitive are led to an impetuous, physically-skilled, teenage nobleman's daughter, who is at a crossroads in her life.", "poster_path": "/3yYPhffQRuy45HlNabFxNLyP9mg.jpg", "popularity": 20.102}, {"id": 140300, "video": false, "vote_count": 3210, "vote_average": 6.7, "title": "Kung Fu Panda 3", "release_date": "2016-01-23", "original_language": "en", "original_title": "Kung Fu Panda 3", "genre_ids": [28, 12, 16, 35, 10751], "backdrop_path": "/eHWmEUP4fa7h1Fe7TXfTL7ncDl8.jpg", "adult": false, "overview": "Continuing his \"legendary adventures of awesomeness\", Po must face two hugely epic, but different threats: one supernatural and the other a little closer to his home.", "poster_path": "/MZFPacfKzgisnPoJIPEFZUXBBT.jpg", "popularity": 30.681}, {"id": 24, "video": false, "vote_count": 10676, "vote_average": 7.9, "title": "Kill Bill: Vol. 1", "release_date": "2003-10-10", "original_language": "en", "original_title": "Kill Bill: Vol. 1", "genre_ids": [28, 80], "backdrop_path": "/kkS8PKa8c134vXsj2fQkNqOaCXU.jpg", "adult": false, "overview": "An assassin is shot by her ruthless employer, Bill, and other members of their assassination circle \u2013 but she lives to plot her vengeance.", "poster_path": "/v7TaX8kXMXs5yFFGR41guUDNcnB.jpg", "popularity": 35.853}, {"adult": false, "backdrop_path": "/wNm3hNJuOk117wEwuESKO8eCEAk.jpg", "genre_ids": [28], "id": 9461, "original_language": "en", "original_title": "Enter the Dragon", "overview": "A martial artist agrees to spy on a reclusive crime lord using his invitation to a tournament there as cover.", "poster_path": "/6C006cxfwjWYkBW4fM3xCMyr7Yg.jpg", "release_date": "1973-08-17", "title": "Enter the Dragon", "video": false, "vote_average": 7.4, "vote_count": 911, "popularity": 21.422}, {"adult": false, "backdrop_path": "/tBWZkKMcrWdrpkOAA84FBlzE2XK.jpg", "genre_ids": [12, 28, 53], "id": 9053, "original_language": "en", "original_title": "DOA: Dead or Alive", "overview": "Four beautiful rivals at an invitation-only martial-arts tournament join forces against a sinister threat. Princess Kasumi is an aristocratic warrior trained by martial-arts masters. Tina Armstrong is a wrestling superstar. Helena Douglas is an athlete with a tragic past. Christie Allen earns her keep as a thief and an assassin-for-hire.", "poster_path": "/lZ6vZka2M0jtH1khYWa8j73E275.jpg", "release_date": "2006-09-07", "title": "DOA: Dead or Alive", "video": false, "vote_average": 4.9, "vote_count": 415, "popularity": 15.433}, {"id": 11841, "video": false, "vote_count": 157, "vote_average": 7.6, "title": "The 36th Chamber of Shaolin", "release_date": "1978-02-02", "original_language": "cn", "original_title": "\u5c11\u6797\u4e09\u5341\u516d\u623f", "genre_ids": [28, 12], "backdrop_path": "/5YXoGdYF1pGv7NHypZWIVMvYl0O.jpg", "adult": false, "overview": "The anti-Ching patriots, under the guidance of Ho Kuang-han, have secretly set up their base in Canton, disguised as school masters. During a brutal Manchu attack, Lui manages to escape, and devotes himself to learning the martial arts in order to seek revenge.", "poster_path": "/hv29eb8g7iCDr0WgAcDdwZinuoY.jpg", "popularity": 13.558}, {"adult": false, "backdrop_path": null, "genre_ids": [28], "id": 300697, "original_language": "zh", "original_title": "\u6b66\u50e7", "overview": "A troop of monks from the Shaolin Temple embark on a mission to get the Golden Sutra to Tibet after the Shaolin Abbot is killed by their traitorous teacher. They are joined on their quest by a beautiful, female warrior \u2013 with aims to avenge her father's death. They traverse forests and mountains on their mission, all the while fighting off deadly ninja assassins, vicious gangsters and even the undead.", "poster_path": "/6H40Ic60Tyd47pSXeTdXrPXO9uE.jpg", "release_date": "1984-05-25", "title": "Guards of Shaolin", "video": false, "vote_average": 4.0, "vote_count": 1, "popularity": 1.862}, {"id": 263341, "video": false, "vote_count": 322, "vote_average": 6.0, "title": "Crouching Tiger, Hidden Dragon: Sword of Destiny", "release_date": "2016-02-18", "original_language": "en", "original_title": "Crouching Tiger, Hidden Dragon: Sword of Destiny", "genre_ids": [28, 12, 18], "backdrop_path": "/4m0UWBWNytXxNcmvTS7FKL2gSoI.jpg", "adult": false, "overview": "A story of lost love, young love, a legendary sword and one last opportunity at redemption.", "poster_path": "/ofUfaj5e6qZtDqTPS5GkEV0H2zH.jpg", "popularity": 12.576}, {"id": 9470, "video": false, "vote_count": 1392, "vote_average": 7.3, "title": "Kung Fu Hustle", "release_date": "2004-02-10", "original_language": "cn", "original_title": "\u529f\u592b", "genre_ids": [28, 35, 80, 14], "backdrop_path": "/qpJWj6MI6VLRt9bGbJVZtmFvqWw.jpg", "adult": false, "overview": "Set in Canton, China in the 1940s, the story revolves in a town ruled by the Axe Gang, Sing who desperately wants to become a member. He stumbles into a slum ruled by eccentric landlords who turns out to be the greatest kung-fu masters in disguise. Sing's actions eventually cause the Axe Gang and the slumlords to engage in an explosive kung-fu battle. Only one side will win and only one hero will emerge as the greatest kung-fu master of all.", "poster_path": "/dZsfDrNLGWgsIUQL1vGhl8tbnqY.jpg", "popularity": 17.654}, {"adult": false, "backdrop_path": "/9DlrsXH9LOgPeuF6Hljmx8GQNlM.jpg", "genre_ids": [18, 28], "id": 7549, "original_language": "zh", "original_title": "\u970d\u5143\u7532", "overview": "Huo Yuan Jia became the most famous martial arts fighter in all of China at the turn of the 20th Century. Huo faced personal tragedy but ultimately fought his way out of darkness, defining the true spirit of martial arts and also inspiring his nation. The son of a great fighter who didn't wish for his child to follow in his footsteps, Huo resolves to teach himself how to fight - and win.", "poster_path": "/nPku02hVAFPsAd1pJr81OkdBidw.jpg", "release_date": "2006-01-26", "title": "Fearless", "video": false, "vote_average": 7.4, "vote_count": 648, "popularity": 12.897}, {"id": 1498, "video": false, "vote_count": 919, "vote_average": 6.6, "title": "Teenage Mutant Ninja Turtles", "release_date": "1990-03-30", "original_language": "en", "original_title": "Teenage Mutant Ninja Turtles", "genre_ids": [28, 12, 35, 878, 10751], "backdrop_path": "/PxZWmNlfpuU8A26ZrYzpLaOX9S.jpg", "adult": false, "overview": "A quartet of mutated humanoid turtles clash with an uprising criminal gang of ninjas", "poster_path": "/cok0SSxmD7fYeZj6l9XOr2mb0YL.jpg", "popularity": 16.055}, {"id": 9312, "video": false, "vote_count": 1039, "vote_average": 5.7, "title": "Mortal Kombat", "release_date": "1995-08-18", "original_language": "en", "original_title": "Mortal Kombat", "genre_ids": [28, 14], "backdrop_path": "/mOIvM0pQA7J9I0Caai0zTPxnE3f.jpg", "adult": false, "overview": "For nine generations an evil sorcerer has been victorious in hand-to-hand battle against his mortal enemies. If he wins a tenth Mortal Kombat tournament, desolation and evil will reign over the multiverse forever. To save Earth, three warriors must overcome seemingly insurmountable odds, their own inner demons, and superhuman foes in this action/adventure movie based on one of the most popular video games of all time.", "poster_path": "/aQarGLCGr9ueYuwh9EXz3DfeEd9.jpg", "popularity": 17.982}, {"id": 98566, "video": false, "vote_count": 4596, "vote_average": 5.8, "title": "Teenage Mutant Ninja Turtles", "release_date": "2014-08-07", "original_language": "en", "original_title": "Teenage Mutant Ninja Turtles", "genre_ids": [28, 12, 35, 14, 878], "backdrop_path": "/OqCXGt5nl1cHPeotxCDvXLLe6p.jpg", "adult": false, "overview": "The city needs heroes. Darkness has settled over New York City as Shredder and his evil Foot Clan have an iron grip on everything from the police to the politicians. The future is grim until four unlikely outcast brothers rise from the sewers and discover their destiny as Teenage Mutant Ninja Turtles. The Turtles must work with fearless reporter April and her wise-cracking cameraman Vern Fenwick to save the city and unravel Shredder's diabolical plan.", "poster_path": "/oDL2ryJ0sV2bmjgshVgJb3qzvwp.jpg", "popularity": 33.698}, {"id": 346672, "video": false, "vote_count": 2460, "vote_average": 5.5, "title": "Underworld: Blood Wars", "release_date": "2016-11-24", "original_language": "en", "original_title": "Underworld: Blood Wars", "genre_ids": [28, 18, 14, 27], "backdrop_path": "/fXqGBlz4xtLZzo878sHUxtsVzpU.jpg", "adult": false, "overview": "Vampire death dealer Selene fends off brutal attacks from both the Lycan clan and the Vampire faction that betrayed her. With her only allies, David and his father Thomas, she must stop the eternal war between Lycans and Vampires, even if it means she has to make the ultimate sacrifice.", "poster_path": "/nHXiMnWUAUba2LZ0dFkNDVdvJ1o.jpg", "popularity": 23.524}, {"id": 272, "video": false, "vote_count": 13437, "vote_average": 7.6, "title": "Batman Begins", "release_date": "2005-06-10", "original_language": "en", "original_title": "Batman Begins", "genre_ids": [28, 80, 18], "backdrop_path": "/9myrRcegWGGp24mpVfkD4zhUfhi.jpg", "adult": false, "overview": "Driven by tragedy, billionaire Bruce Wayne dedicates his life to uncovering and defeating the corruption that plagues his home, Gotham City.  Unable to work within the system, he instead creates a new identity, a symbol of fear for the criminal underworld - The Batman.", "poster_path": "/dr6x4GyyegBWtinPBzipY02J2lV.jpg", "popularity": 54.458}, {"adult": false, "backdrop_path": "/xC9DRxpKgqJKDYLa9mkNa74eX4q.jpg", "genre_ids": [18, 12, 28, 36], "id": 79, "original_language": "zh", "original_title": "\u82f1\u96c4", "overview": "One man defeated three assassins who sought to murder the most powerful warlord in pre-unified China.", "poster_path": "/xkJnow23eDxwQXB0iIWAWkBF47y.jpg", "release_date": "2002-07-22", "title": "Hero", "video": false, "vote_average": 7.5, "vote_count": 1210, "popularity": 23.249}, {"adult": false, "backdrop_path": "/3hYidDKVg4rsrkHQsbOKeqt6qkj.jpg", "genre_ids": [35, 28], "id": 19274, "original_language": "cn", "original_title": "\u7b11\u62f3\u602a\u62db", "overview": "Jackie Chan is a youngster, living in a remote vllage with his grandfather who teaches him Kong-Fu (naturally). He keeps getting into fights, even though his grandfather warns him not to show their Kong-Fu to others. Jackie, though, is tempted by some thugs he beat up to act as the master of a Kong-Fu school. This school's name apparently spreads far, as an old enemy of Jackie's grandfather (who t", "poster_path": "/ic5iTcB0HOfNCjQRV10SJ5oA4El.jpg", "release_date": "1979-02-17", "title": "Fearless Hyena", "video": false, "vote_average": 6.6, "vote_count": 59, "popularity": 12.832}, {"id": 605, "video": false, "vote_count": 5698, "vote_average": 6.6, "title": "The Matrix Revolutions", "release_date": "2003-11-03", "original_language": "en", "original_title": "The Matrix Revolutions", "genre_ids": [28, 12, 878, 53], "backdrop_path": "/pdVHUsb2eEz9ALNTr6wfRJe5xVa.jpg", "adult": false, "overview": "The human city of Zion defends itself against the massive invasion of the machines as Neo fights to end the war at another front while also opposing the rogue Agent Smith.", "poster_path": "/sKogjhfs5q3azmpW7DFKKAeLEG8.jpg", "popularity": 22.724}, {"id": 604, "video": false, "vote_count": 6344, "vote_average": 6.9, "title": "The Matrix Reloaded", "release_date": "2003-05-15", "original_language": "en", "original_title": "The Matrix Reloaded", "genre_ids": [28, 12, 878, 53], "backdrop_path": "/Fp3piEuHXxKnPBO5R0Wj4wjZHg.jpg", "adult": false, "overview": "Six months after the events depicted in The Matrix, Neo has proved to be a good omen for the free humans, as more and more humans are being freed from the matrix and brought to Zion, the one and only stronghold of the Resistance.  Neo himself has discovered his superpowers including super speed, ability to see the codes of the things inside the matrix and a certain degree of pre-cognition. But a nasty piece of news hits the human resistance: 250,000 machine sentinels are digging to Zion and would reach them in 72 hours. As Zion prepares for the ultimate war, Neo, Morpheus and Trinity are advised by the Oracle to find the Keymaker who would help them reach the Source.  Meanwhile Neo's recurrent dreams depicting Trinity's death have got him worried and as if it was not enough, Agent Smith has somehow escaped deletion, has become more powerful than before and has fixed Neo as his next target.", "poster_path": "/ezIurBz2fdUc68d98Fp9dRf5ihv.jpg", "popularity": 26.284}, {"id": 44092, "video": false, "vote_count": 98, "vote_average": 6.8, "title": "Reign of Assassins", "release_date": "2010-09-01", "original_language": "zh", "original_title": "\u5251\u96e8", "genre_ids": [28, 36], "backdrop_path": "/5xg3yhFy7h5K10sR42QFxKKQpja.jpg", "adult": false, "overview": "Set in ancient China, Zeng Jing is a skilled assassin who finds herself in possession of a mystical Buddhist monk's remains. She begins a quest to return the remains to its rightful resting place, and thus places herself in mortal danger because a team of assassins is in a deadly pursuit to possess the remains which holds an ancient power-wielding secret.", "poster_path": "/uzFdJVmcgWk2V8ckCsHijAbQCKJ.jpg", "popularity": 10.205}], "total_pages": 97, "total_results": 1935}, "recommendations": {"page": 1, "results": [{"adult": false, "backdrop_path": "/b2MJzKTSmjByJ3jXVjSEnDRDGCu.jpg", "genre_ids": [28, 18, 14], "id": 64990, "original_language": "cn", "original_title": "Yi tian tu long ji da jie ju", "overview": "The thrills continue in this second part of this cherished adventure, created by the renowned director Chu Yuan and ingenious novelist Chin Yung. Only the union of the title weapons can save the six remaining martial arts sects who are vying for mastery. So just sit back and enjoy the movie event which spawned a legacy that continues even today with a long-running, internationally loved television series, a role-playing game, and even collectible replicas of the Heaven Sword and Dragon Sabre themselves!", "poster_path": "/c6WV40xH9ZkfqbqvHA59pyji6I.jpg", "release_date": "1978-10-27", "title": "Heaven Sword and Dragon Sabre II", "video": false, "vote_average": 6.0, "vote_count": 3, "popularity": 1.774}, {"adult": false, "backdrop_path": "/jjqmr0AjX0Ow2epgm4RVu5PGIqF.jpg", "genre_ids": [28, 18], "id": 73751, "original_language": "zh", "original_title": "\u5c04\u9d70\u82f1\u96c4\u50b3\u7e8c\u96c6", "overview": "Huang Rong is taken hostage by Ouyang Feng, who attempts to use her to seize the Nine Yin Manual from Guo Jing. Guo and Hong Qigong rescue Huang Rong and Guo gives Ouyang an \"edited\" version of the manual, that will eventually cause Ouyang to become insane after he practises the skills in the manual wrongly. Ouyang, Hong and Guo get into a fight, in which Ouyang Ke is injured, and Guo and Hong use the opportunity to escape. However, Hong Qigong is also wounded and he gives Huang Rong his Dog Beating Staff, effectively handing over his leadership of the Beggars' Sect to her. Ouyang Feng and Ouyang Ke pursue Guo Jing and Huang Rong to a deserted town for revenge. Guo and Huang take shelter in an abandoned tavern inhabited by a only a retarded girl called Shagu.", "poster_path": "/ntiYNynB17AvTf5AcV73Z8yMdCG.jpg", "release_date": "1978-05-13", "title": "The Brave Archer 2", "video": false, "vote_average": 6.1, "vote_count": 4, "popularity": 2.416}, {"adult": false, "backdrop_path": "/8lLrqMpCQmz0vC0Lz9sej5qFhxE.jpg", "genre_ids": [28], "id": 88978, "original_language": "zh", "original_title": "\u65b7\u9b42\u8c37", "overview": "Lo Wei was twenty years into his notable career when he wrote, directed, and co-starred in this tale of a murdered lord, a hired killer who unknowingly becomes friends with his intended victim, a vicious bandit chief, and a kind blind woman. Star Yueh Hua would go on to an exceptional acting career, while Lo himself would give both Bruce Lee and Jackie Chan their \"big breaks.\"", "poster_path": "/teCWAYlIAeuGVN8YPJiGu5PgnS3.jpg", "release_date": "1968-10-11", "title": "Death Valley", "video": false, "vote_average": 6.0, "vote_count": 3, "popularity": 3.053}, {"id": 75843, "video": false, "vote_count": 3, "vote_average": 6.2, "title": "The Fighting Fool", "release_date": "1979-01-01", "original_language": "en", "original_title": "\u596a\u68cd", "genre_ids": [28], "backdrop_path": "/uOvCvh4vWJxzxkgpnBlIyNkWGXV.jpg", "adult": false, "overview": "It's Meng Yuan-wen (star of The Master Strikes) versus Kuan Feng in this wild and wacky wushu saga of a priceless pole with a spectacular secret. A master martial artist's silly disciple struggles to save it from an evil white slaver, the slaver's duplicitous wife, and even his own bone-headed, but greedy, companion. Hsu Hsia choreographs the abundant action, as he had for both Five Superfighters and Drunken Master. The result is both sublime (for its kung-fu) and engagingly ridiculous.", "poster_path": "/fi8yegnxl5ihV6WtfqhqtkFIPF1.jpg", "popularity": 2.923}, {"id": 75695, "video": false, "vote_count": 3, "vote_average": 5.5, "title": "The Boxer from the Temple", "release_date": "1979-01-01", "original_language": "cn", "original_title": "\u4f5b\u5bb6\u5c0f\u5b50", "genre_ids": [28], "backdrop_path": "/zNAHV8tpXqyqSJi7iF25L387QOa.jpg", "adult": false, "overview": "Complex plots? This director didn't want them. Expensive, famous stars? Didn't need them. Glorious sets and costumes? He could take them or leave them. With his choreographer Hsu Hsia, John Lo Mar liked making lean, mean, fighting movies, and fans rejoiced. Here Wu Yuan-chin stars as \"the Kid,\" a monk whose education in the aptly named \"Crazy Lo Han Fist\" finds him battling a cruel bandit's son and befriending an abused prostitute. From then on, it's one fight after another in another John Lo Mar martial arts marvel.", "poster_path": "/AbNWFPrsJmZyNnsrDbSRQL9gnz2.jpg", "popularity": 2.419}, {"adult": false, "backdrop_path": "/ruml7DBl5xpM7YhzCdOGep4Fq7r.jpg", "genre_ids": [28, 18], "id": 107897, "original_language": "cn", "original_title": "\u4fe0\u58eb\u884c", "overview": "Yueh Hua stars as an assassin who flees after killing a hated prime minister, with Lo Lieh as the relentless imperial guard who pursues him to a remote village being terrorized by bandits. When Yueh takes over the identity of a county officer newly assigned to the village, his ruse is assisted by a pretty innkeeper's daughter (Li Ching) who insists to Lieh that Yueh is indeed the county officer and happens also to be the cousin who was betrothed to her as a child. The confused innkeeper is persuaded by his daughter to support the ruse, thus delaying Lieh's efforts to arrest the wanted man.", "poster_path": "/5rMHvebpDAyFkwWGTzvMarB4ejJ.jpg", "release_date": "1971-12-31", "title": "The Long Chase", "video": false, "vote_average": 6.2, "vote_count": 3, "popularity": 2.59}, {"adult": false, "backdrop_path": "/A9ZM61MRipFbHH0bVVMZRCWXkzZ.jpg", "genre_ids": [80, 18], "id": 108510, "original_language": "zh", "original_title": "\u6bd2\u540e\u79d8\u53f2", "overview": "A nurse decides to take justice in her own hands to fight the crime-syndicates of Hong Kong after her sister is drugged and abused by some local drug dealers.", "poster_path": "/4UpKIuBEUam0hdTnaYOwPJysr9Y.jpg", "release_date": "1976-02-12", "title": "The Sexy Killer", "video": false, "vote_average": 6.3, "vote_count": 3, "popularity": 2.143}, {"adult": false, "backdrop_path": "/rCAYkWzStOf8gcI9qMwCLNNnEWm.jpg", "genre_ids": [28, 12], "id": 138845, "original_language": "zh", "original_title": "\u8001\u9df9\u7684\u528d", "overview": "A rampaging swordsman slices and dices his way across China on a bloody mission to cut down every warrior in his way, and claim the blade of the legendary Supreme Swordsman in this Shaw Brothers classic starring Derek Yee and Jason Pai Piao, and directed by Keith Li Baak Ling. But when the son of a slain sword maker emerges as an unexpected challenger, the ruthless killer realizes that he may have finally met his match.", "poster_path": "/oeaRW1AKLhUPEinVgXS0FuLB14E.jpg", "release_date": "1984-10-10", "title": "The Supreme Swordsman", "video": false, "vote_average": 6.6, "vote_count": 5, "popularity": 1.986}, {"id": 179631, "video": false, "vote_count": 5, "vote_average": 6.2, "title": "Return of the Sentimental Swordsman", "release_date": "1981-01-31", "original_language": "zh", "original_title": "\u9b54\u528d\u4fe0\u60c5", "genre_ids": [28], "backdrop_path": "/9LKfJKbZilBzCT7cbo7obY0OF3e.jpg", "adult": false, "overview": "Li Xunhuan comes back to his home after three years of wandering. He had decided to have a normal life, but a group of skilled martial arts fighters and leaders are bent on killing him, so they can be ranked top by Bai Xiaosheng in his renowned list of the best warriors in the martial arts world. Li Xunhuan battles them as he searches for his estranged friend A'fei, who is now married and living in seclusion. Li asks A'fei to join forces and fight against a new threat that wants to rule the world: the Money Clan.", "poster_path": "/zb5govg6Z9EtoOHYKi6RTa8arCi.jpg", "popularity": 1.981}, {"adult": false, "backdrop_path": "/5X4F4Vo5o1iBhB92XGYKlWYX3I9.jpg", "genre_ids": [28, 12], "id": 164439, "original_language": "zh", "original_title": "\u6c5f\u6e56\u6f22\u5b50", "overview": "Millionaire Chu Te-Sa (Chiang) invests his considerable wealth into the rebel movement who are intent on usurping the ruling Mongol powers. His goals are impeded by a lack of support though and the supposed allies he has made in the town are merely eager to get their hands on his money. During an attack where these craven 'comrades' flee, Chu befriends three con-artists who relish the chance to show off their fighting skills. The trio subsequently agree to help Chu in his quest to end Mongol rule and hatch a plan to destroy a major munitions dump", "poster_path": "/Ia7YHwUJwhBF4ZYnv6Au2rFSJ0.jpg", "release_date": "1977-05-27", "title": "Magnificent Wanderers", "video": false, "vote_average": 5.9, "vote_count": 4, "popularity": 2.803}], "total_pages": 1, "total_results": 10}, "credits": {"cast": [{"cast_id": 17, "character": "Yuan Cheng-chih", "credit_id": "52fe4ab59251416c750eb3fd", "gender": 2, "id": 229303, "name": "Philip Kwok Chun-Fung", "order": 0, "profile_path": "/l9yEDDylyfFrSotUoobysptdpct.jpg"}, {"cast_id": 19, "character": "Wen Ching-Ching", "credit_id": "551380f59251410445002972", "gender": 1, "id": 240164, "name": "Candy Wen Xue-Er", "order": 1, "profile_path": null}, {"cast_id": 24, "character": "Wen Yi", "credit_id": "59da53d492514124cd045344", "gender": 1, "id": 238977, "name": "Ching Li", "order": 2, "profile_path": "/iswKNCFOVh9EtUOhWOhMBwQ5vem.jpg"}, {"cast_id": 18, "character": "Golden Snake", "credit_id": "55028e1892514174f6000811", "gender": 2, "id": 240158, "name": "Lung Tien-Hsiang", "order": 3, "profile_path": null}, {"cast_id": 6, "character": "Wen Jing", "credit_id": "52fe4ab59251416c750eb3d9", "gender": 2, "id": 119655, "name": "Chiang Sheng", "order": 4, "profile_path": "/4wRpgbkb2nRYjA79xg6NnSCT8AM.jpg"}, {"cast_id": 8, "character": "Grandpa Wen", "credit_id": "52fe4ab59251416c750eb3e1", "gender": 2, "id": 1114834, "name": "Wong Lik", "order": 5, "profile_path": null}, {"cast_id": 7, "character": "Uncle Wen Nan Yang", "credit_id": "52fe4ab59251416c750eb3dd", "gender": 2, "id": 1114203, "name": "Lu Feng", "order": 6, "profile_path": "/ny286I2BQ8TpZfqfWv4qkmAjsL0.jpg"}, {"cast_id": 10, "character": "Uncle Wen Bai Yang", "credit_id": "52fe4ab59251416c750eb3e5", "gender": 0, "id": 1114835, "name": "Yu Tai-Ping", "order": 7, "profile_path": "/msBgaM2pf7OsmbkR8wG5O9bWlYx.jpg"}, {"cast_id": 11, "character": "Master Rong", "credit_id": "52fe4ab59251416c750eb3e9", "gender": 2, "id": 1042681, "name": "Chan Shen", "order": 8, "profile_path": null}, {"cast_id": 26, "character": "Mu Ren Qing", "credit_id": "59da6fcbc3a368620d03f15e", "gender": 2, "id": 1180151, "name": "Lee Sau-Kei", "order": 9, "profile_path": null}, {"cast_id": 21, "character": "Uncle Muk Shon", "credit_id": "5998c518c3a3686d67000334", "gender": 2, "id": 1134505, "name": "Wong Ching-Ho", "order": 10, "profile_path": "/7FIekiYCrh63Gts2EyVNj4MdLrC.jpg"}, {"cast_id": 36, "character": "Huang Zhen", "credit_id": "5c57a6ad925141544864cf3e", "gender": 2, "id": 1575541, "name": "Chu Tit-Wo", "order": 11, "profile_path": null}, {"cast_id": 25, "character": "Mui Jin", "credit_id": "59da693492514124c90469f1", "gender": 0, "id": 1140546, "name": "Siao Yuk", "order": 12, "profile_path": null}, {"cast_id": 22, "character": "Spectator at execution", "credit_id": "5998c52ec3a368207e0128db", "gender": 2, "id": 1583011, "name": "Gam Tin-Chue", "order": 13, "profile_path": "/v9zMKXExLwZsLux84HwxydRHxYD.jpg"}, {"cast_id": 23, "character": "Spectator at execution", "credit_id": "59da162dc3a368620d038ae1", "gender": 0, "id": 1134979, "name": "Wang Han-Chen", "order": 14, "profile_path": "/vQUwJngFjfoAGKPUWWy8CveASTp.jpg"}, {"cast_id": 27, "character": "Wen Clan 5th Uncle", "credit_id": "59da73d0925141251f0489d0", "gender": 2, "id": 1163378, "name": "Keung Hon", "order": 15, "profile_path": null}, {"cast_id": 28, "character": "Governor Yuan Shung Wun", "credit_id": "59da747bc3a3686227043fdb", "gender": 0, "id": 1140990, "name": "Ngai Tim-Choi", "order": 16, "profile_path": "/ikjYrdLuee7J62zQkJingkc8Mra.jpg"}, {"cast_id": 29, "character": "Wen Clan's servant", "credit_id": "59da940ac3a36862270466ee", "gender": 2, "id": 1619660, "name": "Ting Tung", "order": 17, "profile_path": null}], "crew": [{"credit_id": "55d5da4592514102c600460b", "department": "Editing", "gender": 2, "id": 43913, "job": "Editor", "name": "Chiang Hsing-Lung", "profile_path": null}, {"credit_id": "5bd985360e0a26507d00b8c2", "department": "Writing", "gender": 2, "id": 67218, "job": "Novel", "name": "Louis Cha", "profile_path": "/7zpS5byvvwtKYqDrfirFThofhS3.jpg"}, {"credit_id": "52fe4ab59251416c750eb3f5", "department": "Writing", "gender": 2, "id": 70675, "job": "Writer", "name": "Ni Kuang", "profile_path": null}, {"credit_id": "5c55cbc9925141544861f465", "department": "Editing", "gender": 0, "id": 70679, "job": "Editor", "name": "Yen Hai Li", "profile_path": null}, {"credit_id": "52fe4ab59251416c750eb3d5", "department": "Production", "gender": 2, "id": 96550, "job": "Producer", "name": "Runme Shaw", "profile_path": "/25r5CsgxV4UTASR5yyXo5qaWDPI.jpg"}, {"credit_id": "52fe4ab59251416c750eb3ef", "department": "Directing", "gender": 2, "id": 99436, "job": "Director", "name": "Chang Cheh", "profile_path": "/uAYW00KpCDy6Xv4uwh9rVYMkbLu.jpg"}, {"credit_id": "5c55cbdfc3a368729087459b", "department": "Camera", "gender": 0, "id": 1427704, "job": "Director of Photography", "name": "Cho Wai-Kei", "profile_path": null}, {"credit_id": "5c55cc3c92514157df4e6dff", "department": "Sound", "gender": 0, "id": 1638355, "job": "Sound Recordist", "name": "Ping Kuang Hsu", "profile_path": null}, {"credit_id": "5c55cc75925141544861f4f8", "department": "Art", "gender": 2, "id": 1699006, "job": "Art Direction", "name": "Johnson Tsao Chuang-Sheng", "profile_path": null}, {"credit_id": "5c55cc9ec3a368424682aeaf", "department": "Sound", "gender": 2, "id": 1699008, "job": "Original Music Composer", "name": "Eddie H. Wang Chi-Ren", "profile_path": null}]}}