{"adult": false, "backdrop_path": null, "belongs_to_collection": null, "budget": 0, "genres": [{"id": 16, "name": "Animation"}, {"id": 27, "name": "Horror"}], "homepage": null, "id": 141754, "imdb_id": "tt2197863", "original_language": "ja", "original_title": "CHAINSAW MAID", "overview": "A sexy maid equipped with a chainsaw is a family's only hope against hordes of the undead zombies.", "popularity": 1.4, "poster_path": "/ertShWemeYDHYAYt3r4nxvfsSMR.jpg", "production_companies": [], "production_countries": [{"iso_3166_1": "JP", "name": "Japan"}], "release_date": "2007-12-09", "revenue": 0, "runtime": 7, "spoken_languages": [{"iso_639_1": "xx", "name": "No Language"}], "status": "Released", "tagline": "", "title": "CHAINSAW MAID", "video": false, "vote_average": 6.5, "vote_count": 12, "keywords": {"keywords": [{"id": 10121, "name": "stop motion"}, {"id": 12377, "name": "zombie"}, {"id": 12394, "name": "chainsaw"}, {"id": 13097, "name": "maid"}, {"id": 197065, "name": "claymation"}]}, "similar": {"page": 1, "results": [{"id": 8408, "video": false, "vote_count": 568, "vote_average": 7.0, "title": "Day of the Dead", "release_date": "1985-07-19", "original_language": "en", "original_title": "Day of the Dead", "genre_ids": [27, 878], "backdrop_path": "/pWaXoU1aqD2KpMVLt4E9ZmKQXIk.jpg", "adult": false, "overview": "Trapped in a missile silo, a small team of scientists, civilians and trigger-happy soldiers battle desperately to ensure the survival of the human race. However, the tension inside the base is reaching a breaking point, and the zombies are gathering outside.", "poster_path": "/yJ2emwXWwQc6VHW3fO4GZr0hXBt.jpg", "popularity": 9.762}, {"adult": false, "backdrop_path": "/eHaGbnX2kukzcYGOpNF3YLPmOG5.jpg", "genre_ids": [27, 35], "id": 16281, "original_language": "en", "original_title": "Creepshow", "overview": "Inspired by the E.C. comics of the 1950s, George A. Romero and Stephen King bring five tales of terror to the screen.", "poster_path": "/hgKeTL416BPzLZntcsD1k7mNFRN.jpg", "release_date": "1982-11-12", "title": "Creepshow", "video": false, "vote_average": 6.8, "vote_count": 458, "popularity": 13.179}, {"id": 72190, "video": false, "vote_count": 9915, "vote_average": 6.7, "title": "World War Z", "release_date": "2013-06-20", "original_language": "en", "original_title": "World War Z", "genre_ids": [28, 18, 27, 878, 53], "backdrop_path": "/xMOQVYLeIKBXenJ9KMeasj7S64y.jpg", "adult": false, "overview": "Life for former United Nations investigator Gerry Lane and his family seems content. Suddenly, the world is plagued by a mysterious infection turning whole human populations into rampaging mindless zombies. After barely escaping the chaos, Lane is persuaded to go on a mission to investigate this disease. What follows is a perilous trek around the world where Lane must brave horrific dangers and long odds to find answers before human civilization falls.", "poster_path": "/Ha5t0J21eyiq6Az1EXzx0iwsGH.jpg", "popularity": 29.165}, {"adult": false, "backdrop_path": "/o4psXh7IVD6GFKvBSHjHLzjL2lV.jpg", "genre_ids": [27, 53], "id": 10781, "original_language": "en", "original_title": "The Texas Chainsaw Massacre: The Beginning", "overview": "Chrissie and her friends set out on a road trip for a final fling before one is shipped off to Vietnam. Along the way, bikers harass the foursome and cause an accident that throws Chrissie from the vehicle. The lawman who arrives on the scene kills one of the bikers and brings Chrissie's friends to the Hewitt homestead, where young Leatherface is learning the tools of terror.", "poster_path": "/9elCJIG1TOJ0wew3JVx5ZMkHq5w.jpg", "release_date": "2006-10-06", "title": "The Texas Chainsaw Massacre: The Beginning", "video": false, "vote_average": 6.0, "vote_count": 936, "popularity": 19.211}, {"id": 9792, "video": false, "vote_count": 1554, "vote_average": 6.3, "title": "The Hills Have Eyes", "release_date": "2006-03-10", "original_language": "en", "original_title": "The Hills Have Eyes", "genre_ids": [27, 53], "backdrop_path": "/7JmFtKtvgVD0zQ2xPQdUKtTXdeA.jpg", "adult": false, "overview": "Based on Wes Craven's 1977 suspenseful cult classic, The Hills Have Eyes is the story of a family road trip that goes terrifyingly awry when the travelers become stranded in a government atomic zone. Miles from nowhere, the Carter family soon realizes the seemingly uninhabited wasteland is actually the breeding ground of a blood-thirsty mutant family...and they are the prey.", "poster_path": "/hNuqY8h1oBGTnEQK75AH4IwuiPG.jpg", "popularity": 15.649}, {"id": 9373, "video": false, "vote_count": 1414, "vote_average": 6.1, "title": "The Texas Chainsaw Massacre", "release_date": "2003-05-21", "original_language": "en", "original_title": "The Texas Chainsaw Massacre", "genre_ids": [27], "backdrop_path": "/3rTsJ7tIC3LUSRr80PfeLbbCfBA.jpg", "adult": false, "overview": "After picking up a traumatized young hitchhiker, five friends find themselves stalked and hunted by a deformed chainsaw-wielding killer and his family of equally psychopathic killers.", "poster_path": "/gx7FCIOFGxqNyplF3t7qtmUv55g.jpg", "popularity": 19.117}, {"id": 76617, "video": false, "vote_count": 884, "vote_average": 5.3, "title": "Texas Chainsaw 3D", "release_date": "2013-01-03", "original_language": "en", "original_title": "Texas Chainsaw 3D", "genre_ids": [27, 53], "backdrop_path": "/syZp6erObU03jSEzc3Kvrtk9gV1.jpg", "adult": false, "overview": "A young woman learns that she has inherited a Texas estate from her deceased grandmother.\u00a0After embarking on a road trip with friends to uncover her roots, she finds she is the sole owner of a lavish, isolated Victorian mansion. But her newfound wealth comes at a price as she stumbles upon a horror that awaits her in the mansion\u2019s dank cellars.", "poster_path": "/p0kJOoNvwnWgmvKvL4GqlV3OPUV.jpg", "popularity": 22.479}, {"id": 533, "video": false, "vote_count": 1440, "vote_average": 6.9, "title": "Wallace & Gromit: The Curse of the Were-Rabbit", "release_date": "2005-09-04", "original_language": "en", "original_title": "Wallace & Gromit: The Curse of the Were-Rabbit", "genre_ids": [12, 16, 35, 10751], "backdrop_path": "/v45E1vDhPp2hc1dEZx5KZuRsSxX.jpg", "adult": false, "overview": "Cheese-loving eccentric Wallace and his cunning canine pal, Gromit, investigate a mystery in Nick Park's animated adventure, in which the lovable inventor and his intrepid pup run a business ridding the town of garden pests. Using only humane methods that turn their home into a halfway house for evicted vermin, the pair stumble upon a mystery involving a voracious vegetarian monster that threatens to ruin the annual veggie-growing contest.", "poster_path": "/tLryx0x9TDV5rifA9W8yUvDZFHB.jpg", "popularity": 21.23}, {"id": 747, "video": false, "vote_count": 5110, "vote_average": 7.5, "title": "Shaun of the Dead", "release_date": "2004-04-09", "original_language": "en", "original_title": "Shaun of the Dead", "genre_ids": [35, 27], "backdrop_path": "/50mMiR0R1QclaAODTutwXBrReLJ.jpg", "adult": false, "overview": "Shaun lives a supremely uneventful life, which revolves around his girlfriend, his mother, and, above all, his local pub. This gentle routine is threatened when the dead return to life and make strenuous attempts to snack on ordinary Londoners.", "poster_path": "/2evlcGnsfdFWLb7geNlIjIewc0Q.jpg", "popularity": 25.866}, {"adult": false, "backdrop_path": "/5RPXs9g0sZ9Woo4pNLxdXdge7tc.jpg", "genre_ids": [14, 27, 35], "id": 766, "original_language": "en", "original_title": "Army of Darkness", "overview": "A man is accidentally transported to 1300 A.D., where he must battle an army of the dead and retrieve the Necronomicon so he can return home.", "poster_path": "/2eZKDIwLNnySbwqQtAaUz0kYDIL.jpg", "release_date": "1992-10-09", "title": "Army of Darkness", "video": false, "vote_average": 7.3, "vote_count": 1664, "popularity": 18.122}, {"id": 338967, "video": false, "vote_count": 1153, "vote_average": 7.0, "title": "Zombieland: Double Tap", "release_date": "2019-10-09", "original_language": "en", "original_title": "Zombieland: Double Tap", "genre_ids": [28, 35, 27], "backdrop_path": "/3ghImmHdp4RnC3UkL6hpLayclnb.jpg", "adult": false, "overview": "Columbus, Tallahassee, Wichita, and Little Rock move to the American heartland as they face off against evolved zombies, fellow survivors, and the growing pains of the snarky makeshift family.", "poster_path": "/dtRbVsUb5O12WWO54SRpiMtHKC0.jpg", "popularity": 75.447}, {"id": 19908, "video": false, "vote_count": 7598, "vote_average": 7.2, "title": "Zombieland", "release_date": "2009-10-07", "original_language": "en", "original_title": "Zombieland", "genre_ids": [35, 27], "backdrop_path": "/lLgLFzSZduH9kBxrk6BvoHc1gg0.jpg", "adult": false, "overview": "Columbus has made a habit of running from what scares him. Tallahassee doesn't have fears. If he did, he'd kick their ever-living ass. In a world overrun by zombies, these two are perfectly evolved survivors. But now, they're about to stare down the most terrifying prospect of all: each other.", "poster_path": "/vUzzDpVrab1BOG3ogxhRGfLN94d.jpg", "popularity": 27.301}, {"id": 387592, "video": false, "vote_count": 393, "vote_average": 6.0, "title": "Early Man", "release_date": "2018-01-26", "original_language": "en", "original_title": "Early Man", "genre_ids": [12, 16, 35, 10751], "backdrop_path": "/9m71RMP45mg599xtKPyjicyHn1a.jpg", "adult": false, "overview": "Dug, along with his sidekick Hognob, unite a cavemen tribe to save their hidden valley from being spoiled and, all together as a team, to face the menace of a mysterious and mighty enemy, on the turf of an ancient and sacred sport.", "poster_path": "/5iW2rntwLZoGlFCYYy8TjHyblbw.jpg", "popularity": 15.752}, {"id": 485415, "video": false, "vote_count": 276, "vote_average": 4.1, "title": "Day of the Dead: Bloodline", "release_date": "2018-01-04", "original_language": "en", "original_title": "Day of the Dead: Bloodline", "genre_ids": [28, 27], "backdrop_path": "/1CKntz5l7oblq2RYligHHvY64sh.jpg", "adult": false, "overview": "In a world overrun by zombies, military personnel and survivalists live in an underground bunker while they seek a cure.", "poster_path": "/3jM4C1wJxHLWlF4tcSyyv6fnJPR.jpg", "popularity": 16.408}, {"adult": false, "backdrop_path": "/5CPIk2eE3Nk4UPwx5HCHKDdIiJs.jpg", "genre_ids": [35, 27, 878], "id": 11429, "original_language": "en", "original_title": "Beyond Re-Animator", "overview": "Once again tampering with mother nature to disastrous results, Dr. Herbert West continues his research while serving time in a maximum security prison for his previous exploits. West's limited prison-cell experiments are suddenly interrupted by the arrival of a new prison doctor and the brother of the girl who suffered from West's experiments 13 years earlier.", "poster_path": "/7K8odajc1QUaeOtD5XvlBiWzypQ.jpg", "release_date": "2003-04-04", "title": "Beyond Re-Animator", "video": false, "vote_average": 5.5, "vote_count": 124, "popularity": 10.121}, {"adult": false, "backdrop_path": "/pAD4FAkCERB3sDprJM4f5YaKL3v.jpg", "genre_ids": [27, 35], "id": 24935, "original_language": "en", "original_title": "Return of the Living Dead: Necropolis", "overview": "A group of teenagers who, in an attempt to rescue their friend from an evil corporation, end up releasing a horde of blood thirsty zombies.", "poster_path": "/wez633rPnd9x4xObQwRHmOOM5sE.jpg", "release_date": "2005-10-15", "title": "Return of the Living Dead: Necropolis", "video": false, "vote_average": 3.6, "vote_count": 56, "popularity": 7.853}, {"id": 24920, "video": false, "vote_count": 173, "vote_average": 6.1, "title": "City of the Living Dead", "release_date": "1980-08-11", "original_language": "it", "original_title": "Paura nella citt\u00e0 dei morti viventi", "genre_ids": [27], "backdrop_path": "/6ABlj18Civvwcz5LHh1zktG5ge0.jpg", "adult": false, "overview": "A medium has a mysterious vision of a priest hanging himself...  A seemingly dead woman awakes screaming in her coffin...  And in the sleepy New England town of Dunwich, a girl vomits up her intestines and a local misfit has a drill bit ploughed into his cranium...  These hallucionogenic often grotesque visions punctuate a skeletal story telling of a reporter and a psychic who must race against time to prevent hordes of rotting corpses spewing forth from the gates of hell...", "poster_path": "/4dn3dYYyOPKx8SPkTr0Z3UWQTts.jpg", "popularity": 8.28}, {"id": 10925, "video": false, "vote_count": 551, "vote_average": 7.3, "title": "The Return of the Living Dead", "release_date": "1985-04-25", "original_language": "en", "original_title": "The Return of the Living Dead", "genre_ids": [35, 27], "backdrop_path": "/jA34vdJCxOZUoi4khkfhq1pX3WG.jpg", "adult": false, "overview": "When a bumbling pair of employees at a medical supply warehouse accidentally release a deadly gas into the air, the vapors cause the dead to re-animate as they go on a rampage seeking their favorite food: brains!", "poster_path": "/1vydUitzC8W8W5oNevEArCltydJ.jpg", "popularity": 13.326}, {"adult": false, "backdrop_path": "/bvbyidkMaBls1LTaIWYY6UmYTaL.jpg", "genre_ids": [28, 878], "id": 336843, "original_language": "en", "original_title": "Maze Runner: The Death Cure", "overview": "Thomas leads his group of escaped Gladers on their final and most dangerous mission yet. To save their friends, they must break into the legendary Last City, a WCKD-controlled labyrinth that may turn out to be the deadliest maze of all. Anyone who makes it out alive will get answers to the questions the Gladers have been asking since they first arrived in the maze.", "poster_path": "/2zYfzA3TBwrMC8tfFbpiTLODde0.jpg", "release_date": "2018-01-10", "title": "Maze Runner: The Death Cure", "video": false, "vote_average": 7.0, "vote_count": 4393, "popularity": 24.242}, {"adult": false, "backdrop_path": "/sw7mordbZxgITU877yTpZCud90M.jpg", "genre_ids": [18, 80], "id": 769, "original_language": "en", "original_title": "GoodFellas", "overview": "The true story of Henry Hill, a half-Irish, half-Sicilian Brooklyn kid who is adopted by neighbourhood gangsters at an early age and climbs the ranks of a Mafia family under the guidance of Jimmy Conway.", "poster_path": "/pwpGfTImTGifEGgLb3s6LRPd4I6.jpg", "release_date": "1990-09-12", "title": "GoodFellas", "video": false, "vote_average": 8.4, "vote_count": 6559, "popularity": 36.135}], "total_pages": 14, "total_results": 275}, "recommendations": {"page": 1, "results": [{"adult": false, "backdrop_path": null, "genre_ids": [27, 16], "id": 238671, "original_language": "en", "original_title": "Chainsaw Maid 2", "overview": "A sexy French maid fights the living dead.", "poster_path": "/6Vh8RpZ67ontOVU34ILZ09Sh4kz.jpg", "release_date": "2010-10-25", "title": "Chainsaw Maid 2", "video": false, "vote_average": 5.9, "vote_count": 7, "popularity": 0.928}, {"adult": false, "backdrop_path": null, "genre_ids": [], "id": 147681, "original_language": "en", "original_title": "Centuries of June", "overview": "Centuries of June, perhaps more than any Cornell film, is a naked attempt to capture the soul of a place and the mood of a disappearing moment.", "poster_path": "/ld8vtSGpKKHEU6nK6IvtVnuvLEv.jpg", "release_date": "1956-12-07", "title": "Centuries of June", "video": false, "vote_average": 4.0, "vote_count": 9, "popularity": 1.214}, {"adult": false, "backdrop_path": "/bFMic72fgWbYHomyYRZnk67t8Pn.jpg", "genre_ids": [35, 16, 27], "id": 242552, "original_language": "en", "original_title": "Hamster Hell", "overview": "An eight chapter tale of two hamsters secretly kept under a boy's bed.", "poster_path": "/dFZZaJmourS2mD0IIZnlisaNB8T.jpg", "release_date": "2012-06-12", "title": "Hamster Hell", "video": false, "vote_average": 6.0, "vote_count": 3, "popularity": 0.971}, {"adult": false, "backdrop_path": null, "genre_ids": [35, 16], "id": 451692, "original_language": "ja", "original_title": "PUSSYCAT", "overview": "A pretty female cat gets into trouble. What's gonna happen?", "poster_path": "/r7RCIjV14mEXKBgjL64RcEfYRrP.jpg", "release_date": "2008-11-21", "title": "PUSSYCAT", "video": false, "vote_average": 4.7, "vote_count": 7, "popularity": 0.6}, {"adult": false, "backdrop_path": null, "genre_ids": [99], "id": 148908, "original_language": "en", "original_title": "In the Street", "overview": "Images of street life in New York's Spanish Harlem during the 1940s.", "poster_path": "/qegJ2ax7YkEkpxaAgy7p8lJpN7D.jpg", "release_date": "1948-12-31", "title": "In the Street", "video": false, "vote_average": 6.3, "vote_count": 8, "popularity": 1.775}, {"adult": false, "backdrop_path": null, "genre_ids": [16], "id": 147795, "original_language": "en", "original_title": "A La Mode", "overview": "A short surreal animation created with fashion magazine clippings and sound collages.", "poster_path": "/qnA5O2hL2wzXNrWjBXPHEAgct5j.jpg", "release_date": "1959-01-01", "title": "A La Mode", "video": false, "vote_average": 5.3, "vote_count": 9, "popularity": 1.288}, {"id": 40169, "video": false, "vote_count": 10, "vote_average": 5.8, "title": "Self Defense", "release_date": "1982-01-01", "original_language": "en", "original_title": "Self Defense", "genre_ids": [28, 80, 53], "backdrop_path": null, "adult": false, "overview": "A bunch of selfrighteous bullies want to set some \"new rules\" in town while the police in Halifax (Nova Scotia, Canada) are on strike. They try to scare all the gays and lesbians in a bar, but by accident the owner of the establishment is killed, and the leader of the bullies then decides to execute all witnesses. One guy, though, escapes and takes refuge in an isolated block of flats. The young tenants in the house refuse to hand over the survivor, and the bullies then decide to get rid of all the residents in the house. This turns out to be not so easy, because the young people in the house barricade their apartments, set up traps and arm themselves in order to fight back, and this inevitably leads to more bloodshed and killings.", "poster_path": "/sOAp1BCf1Nt139c3Z7XNEu4j8bh.jpg", "popularity": 2.704}, {"adult": false, "backdrop_path": null, "genre_ids": [], "id": 190278, "original_language": "de", "original_title": "Alles dreht sich, alles bewegt sich", "overview": "A day at the carnival \u2014 sensational tent shows where miracles can be seen for the price of admission, boisterous noise of crowds and barkers, shrill and gaudy circus music, the violence of the street ten-fold. This is the substance of Everything Turns, Richter\u2019s first sound film. At its premier at Baden-Baden Richter got into a fight with two Nazi officials who disliked the films \u2018modernism.\u2019 Yet in 1936 it was awarded first prize for artistic merit by the Nazi\u2019s, with Richter\u2019s name suppressed from the credits. He had long since left Germany.", "poster_path": null, "release_date": "1929-07-25", "title": "Everything Turns, Everything Revolves", "video": false, "vote_average": 6.1, "vote_count": 10, "popularity": 1.96}, {"adult": false, "backdrop_path": null, "genre_ids": [16, 27, 878], "id": 242839, "original_language": "en", "original_title": "An Alien Claymation", "overview": "A Father gets more than he bargained for when he invites Alien visitors into his home.", "poster_path": "/ubh7SOyOw6RyB3UXhVx4UHBC0Q9.jpg", "release_date": "2012-12-10", "title": "An Alien Claymation", "video": false, "vote_average": 7.3, "vote_count": 4, "popularity": 0.6}, {"adult": false, "backdrop_path": null, "genre_ids": [], "id": 117591, "original_language": "en", "original_title": "Traitement exp\u00e9rimental d'une h\u00e9morragie chez le chien", "overview": "Jean Painleve short about an experimental canine surgery.", "poster_path": "/cdwVC18URfEdQjjxqJyRMoGDC0H.jpg", "release_date": "1930-01-01", "title": "Experimental Treatment of a Hemorrhage in a Dog", "video": false, "vote_average": 5.4, "vote_count": 8, "popularity": 0.941}, {"adult": false, "backdrop_path": "/lUkx4j2bnA5BXcvqGT75uItIi8D.jpg", "genre_ids": [27, 53], "id": 4443, "original_language": "fr", "original_title": "Nuits rouges", "overview": "Clad in a featureless red mask, The Man Without A Face is involved in a single-minded pursuit of the fabled treasure of the Knights Templar in this tribute to the pulp adventure stories of Louis Feuillade.", "poster_path": "/bgNZADmV7zmkRin0mZdIGqmnvaZ.jpg", "release_date": "1974-11-20", "title": "Shadowman", "video": false, "vote_average": 6.2, "vote_count": 5, "popularity": 2.164}, {"adult": false, "backdrop_path": "/a657E6l9XnLiy9SdS8wJpWk5ZNz.jpg", "genre_ids": [28, 12, 35, 53], "id": 41995, "original_language": "th", "original_title": "5 \u0e2b\u0e31\u0e27\u0e43\u0e08\u0e2e\u0e35\u0e42\u0e23\u0e48", "overview": "Lek, a Thai boxing instructor teaches Thai boxing to a group of kids for their self-defence. He is like both teacher and father to the kids \u2013 Wuth, Catt, Pong and Jib. The four have to look after Wuth\u2019s little brother, Woon who has a heart problem. Soon, they came across a twist of fate that leads them to fight a gang of hooligans. This causes a sudden heart attack to Woon, resulting him to have a heart transplant immediately. Unfortunately, the hospital they were in has been seized by an international terrorist group led by Paeda. Unavoidably, they get involved and fight against the terrorists, as they need to save Woon\u2019s life and help their country at the same time.", "poster_path": "/iYbvSgedEKDt8k0EcN0ycK8Musr.jpg", "release_date": "2009-03-05", "title": "Power Kids", "video": false, "vote_average": 4.4, "vote_count": 7, "popularity": 4.596}, {"id": 48783, "video": false, "vote_count": 13, "vote_average": 6.2, "title": "The Good Old Naughty Days", "release_date": "2002-07-24", "original_language": "en", "original_title": "Polissons et Galipettes", "genre_ids": [35, 99, 18], "backdrop_path": "/qsRtLgnNbenqGY5iJfApA93AFQH.jpg", "adult": false, "overview": "A series of 12 short movies from the start of the twentieth century. These movies were the first adult movies, and, according to the film-maker Michel Reilhac, show that \"the modern porn industry did not invent anything \u2013 everything had already been filmed by our great-grandparents.\"", "poster_path": "/h5AjaY8XZHKqELBTSbUMa562vHK.jpg", "popularity": 4.08}, {"adult": false, "backdrop_path": "/xMizT6fJKPYPpB1oM5M8U9YhBIQ.jpg", "genre_ids": [35, 14], "id": 67455, "original_language": "fr", "original_title": "La nuit fantastique", "overview": "Denis, a poor student in philosophy, works as a night porter in the Paris market of Les Halles in order to pay for his studies. Constantly weary, he falls asleep and dreams of a beautiful girl in white, Ir\u00e8ne, with whom he falls in love.", "poster_path": "/bL2z18OIGyBOJacM2ZT37Xz52BK.jpg", "release_date": "1942-07-10", "title": "The Fantastic Night", "video": false, "vote_average": 6.0, "vote_count": 6, "popularity": 1.768}, {"id": 43046, "video": false, "vote_count": 8, "vote_average": 6.3, "title": "The Rise and Fall of Legs Diamond", "release_date": "1960-02-03", "original_language": "en", "original_title": "The Rise and Fall of Legs Diamond", "genre_ids": [28, 80, 36], "backdrop_path": "/AozMX17b8VnR0tYnH9nTHD4LTxx.jpg", "adult": false, "overview": "Jack Diamond and his sickly brother arrive in prohibition New York as jewelry thieves. After a spell in jail, the coldly ambitious Diamond hits on the idea of stealing from thieves himself and sets about getting close to gangster boss Arnold Rothstein to move in on his booze, girls, gambling, and drugs operations.", "poster_path": "/9rUX0UGfuotQd2tb9686CJEtD6Q.jpg", "popularity": 2.916}, {"adult": false, "backdrop_path": null, "genre_ids": [], "id": 190081, "original_language": "en", "original_title": "Tusalava", "overview": "With the screen split asymmetrically, one part in positive, the other negative, the film documents the evolution of simple celled organic forms into chains of cells then more complex images from tribal cultures and contemporary modernist concepts. The images react, interpenetrate, perhaps attack, absorb and separate, until a final symbiosis (or redemption?) is achieved.", "poster_path": "/8sU8P4tOezcq5XuDSrZWGxiipvQ.jpg", "release_date": "1929-12-01", "title": "Tusalava", "video": false, "vote_average": 6.1, "vote_count": 11, "popularity": 1.4}, {"adult": false, "backdrop_path": null, "genre_ids": [16], "id": 340336, "original_language": "en", "original_title": "Le Pas", "overview": "A series of dynamic visual motifs.", "poster_path": "/uUIsKmKRzMPU4TOuuUSqX5boJdR.jpg", "release_date": "1975-06-15", "title": "Le Pas", "video": false, "vote_average": 5.3, "vote_count": 8, "popularity": 1.024}, {"adult": false, "backdrop_path": "/7UZmqBNWZzoh70M9uHLclVrke3G.jpg", "genre_ids": [80, 18, 36], "id": 64237, "original_language": "fr", "original_title": "La Bande \u00e0 Bonnot", "overview": "", "poster_path": "/24ULkAuyjegki35GqUCvRBd1ZnT.jpg", "release_date": "1968-11-01", "title": "Bonnot's Gang", "video": false, "vote_average": 5.1, "vote_count": 7, "popularity": 1.467}, {"adult": false, "backdrop_path": null, "genre_ids": [], "id": 145283, "original_language": "en", "original_title": "Children's Party", "overview": "Director Joseph Cornell evokes the nostalgia of childhood by filming a children's party.", "poster_path": "/gRgHrdtfJNo9kaMdnFhMbLP5VLv.jpg", "release_date": "1938-12-31", "title": "Children's Party", "video": false, "vote_average": 5.7, "vote_count": 10, "popularity": 2.233}, {"adult": false, "backdrop_path": null, "genre_ids": [16, 14], "id": 146172, "original_language": "en", "original_title": "Our Lady of the Sphere", "overview": "Animation using woodcuts to craft a bizarre science fiction experiment. Moving spheres, such as balloons and bubbles, are superimposed on static backgrounds to suggest travel and discovery.", "poster_path": "/mn1cPgG29pNlN2IaiMrdhSjPrur.jpg", "release_date": "1969-06-27", "title": "Our Lady of the Sphere", "video": false, "vote_average": 5.2, "vote_count": 13, "popularity": 1.477}], "total_pages": 2, "total_results": 36}, "credits": {"cast": [], "crew": [{"credit_id": "52fe4ac19251416c750eceef", "department": "Directing", "gender": 2, "id": 1207655, "job": "Director", "name": "Takena Nagao", "profile_path": "/aLUX8VWpgFqjLYGX68UPBaGXy5Q.jpg"}, {"credit_id": "57781cd992514136e1000501", "department": "Writing", "gender": 2, "id": 1207655, "job": "Writer", "name": "Takena Nagao", "profile_path": "/aLUX8VWpgFqjLYGX68UPBaGXy5Q.jpg"}, {"credit_id": "5ac14942c3a3682d1a00d7fa", "department": "Visual Effects", "gender": 2, "id": 1207655, "job": "Animation", "name": "Takena Nagao", "profile_path": "/aLUX8VWpgFqjLYGX68UPBaGXy5Q.jpg"}]}}