{"adult": false, "backdrop_path": "/fMaEkzCtTTkDnVZHwDmSbXmIdrE.jpg", "belongs_to_collection": null, "budget": 0, "genres": [{"id": 14, "name": "Fantasy"}], "homepage": null, "id": 142282, "imdb_id": "tt0055518", "original_language": "it", "original_title": "Teseo contro il minotauro", "overview": "King Minos sacrifices the 'required' virgins to the Minotaur. As his wife lies dying, she confesses that her daughter has a twin she has secreted to avoid giving one of the girls to the Minotaur. The daughter raised by Minos tries to have her twin killed, but failing in her first attempt, continues to try to have her given to the Minotaur. Theseus, the Greek hero, tries to prevent it.", "popularity": 2.4, "poster_path": "/h9pKlh0ujBmbhUVTs7qCcV7zqhI.jpg", "production_companies": [], "production_countries": [{"iso_3166_1": "IT", "name": "Italy"}], "release_date": "1960-11-25", "revenue": 0, "runtime": 105, "spoken_languages": [{"iso_639_1": "it", "name": "Italiano"}], "status": "Released", "tagline": "", "title": "The Minotaur, the Wild Beast of Crete", "video": false, "vote_average": 0.0, "vote_count": 0, "keywords": {"keywords": [{"id": 2035, "name": "mythology"}, {"id": 5457, "name": "mythical creature"}, {"id": 162861, "name": "ancient greece"}, {"id": 181213, "name": "sword and sandal"}, {"id": 184989, "name": "spectacle"}]}, "similar": {"page": 1, "results": [{"id": 18823, "video": false, "vote_count": 4032, "vote_average": 5.7, "title": "Clash of the Titans", "release_date": "2010-04-01", "original_language": "en", "original_title": "Clash of the Titans", "genre_ids": [28, 12, 14], "backdrop_path": "/ma5Ps40txofscTtWpjs39swMnwZ.jpg", "adult": false, "overview": "Born of a god but raised as a man, Perseus is helpless to save his family from Hades, vengeful god of the underworld. With nothing to lose, Perseus volunteers to lead a dangerous mission to defeat Hades before he can seize power from Zeus and unleash hell on earth. Battling unholy demons and fearsome beasts, Perseus and his warriors will only survive if Perseus accepts his power as a god, defies fate and creates his own destiny.", "poster_path": "/n8W2Y72VzSi8Yz6IvYWwfoiMTS6.jpg", "popularity": 27.268}, {"id": 57165, "video": false, "vote_count": 2661, "vote_average": 5.6, "title": "Wrath of the Titans", "release_date": "2012-03-27", "original_language": "en", "original_title": "Wrath of the Titans", "genre_ids": [12, 14], "backdrop_path": "/jJeFbbsf6Vh50IRzOtvcQb7YKty.jpg", "adult": false, "overview": "A decade after his heroic defeat of the monstrous Kraken, Perseus-the demigod son of Zeus-is attempting to live a quieter life as a village fisherman and the sole parent to his 10-year old son, Helius. Meanwhile, a struggle for supremacy rages between the gods and the Titans. Dangerously weakened by humanity's lack of devotion, the gods are losing control of the imprisoned Titans and their ferocious leader, Kronos, father of the long-ruling brothers Zeus, Hades and Poseidon.", "poster_path": "/Albfq3ziSCQVyh5PzMSsFmmgHmy.jpg", "popularity": 14.455}, {"adult": false, "backdrop_path": "/3nG6BBIxgqbIM5p1iO61RyKzUkZ.jpg", "genre_ids": [16, 10751, 14, 12, 35, 10749], "id": 11970, "original_language": "en", "original_title": "Hercules", "overview": "Bestowed with superhuman strength, a young mortal named Hercules sets out to prove himself a hero in the eyes of his father, the great god Zeus. Along with his friends Pegasus, a flying horse, and Phil, a personal trainer, Hercules is tricked by the hilarious, hotheaded villain Hades, who's plotting to take over Mount Olympus!", "poster_path": "/eFlBFMAifj436QctX3akDkUnhlk.jpg", "release_date": "1997-06-20", "title": "Hercules", "video": false, "vote_average": 7.5, "vote_count": 4318, "popularity": 23.839}, {"id": 652, "video": false, "vote_count": 6024, "vote_average": 7.0, "title": "Troy", "release_date": "2004-05-03", "original_language": "en", "original_title": "Troy", "genre_ids": [12, 36], "backdrop_path": "/lIyNUZbIeEwWpaWXAO5gnciB8Dq.jpg", "adult": false, "overview": "In year 1250 B.C. during the late Bronze age, two emerging nations begin to clash. Paris, the Trojan prince, convinces Helen, Queen of Sparta, to leave her husband Menelaus, and sail with him back to Troy. After Menelaus finds out that his wife was taken by the Trojans, he asks his brother Agamemnom to help him get her back. Agamemnon sees this as an opportunity for power. So they set off with 1,000 ships holding 50,000 Greeks to Troy. With the help of Achilles, the Greeks are able to fight the never before defeated Trojans.", "poster_path": "/edMlij7nw2NMla32xskDnzMCFBM.jpg", "popularity": 27.723}, {"id": 188207, "video": false, "vote_count": 865, "vote_average": 4.6, "title": "The Legend of Hercules", "release_date": "2014-01-10", "original_language": "en", "original_title": "The Legend of Hercules", "genre_ids": [28, 12], "backdrop_path": "/5W1jTxgPcoTKbXLb0fgMDrbphpH.jpg", "adult": false, "overview": "In Ancient Greece 1200 B.C., a queen succumbs to the lust of Zeus to bear a son promised to overthrow the tyrannical rule of the king and restore peace to a land in hardship. But this prince, Hercules, knows nothing of his real identity or his destiny. He desires only one thing: the love of Hebe, Princess of Crete, who has been promised to his own brother. When Hercules learns of his greater purpose, he must choose: to flee with his true love or to fulfill his destiny and become the true hero of his time. The story behind one of the greatest myths is revealed in this action-packed epic - a tale of love, sacrifice and the strength of the human spirit.", "poster_path": "/eIHrBHeqfQodgEjSPdZWh9b5lV3.jpg", "popularity": 23.863}, {"id": 184315, "video": false, "vote_count": 2801, "vote_average": 5.7, "title": "Hercules", "release_date": "2014-07-23", "original_language": "en", "original_title": "Hercules", "genre_ids": [28, 12], "backdrop_path": "/pNPdcgHT1FpCmauzFWepyfDvDo9.jpg", "adult": false, "overview": "Fourteen hundred years ago, a tormented soul walked the earth that was neither man nor god. Hercules was the powerful son of the god king Zeus, for this he received nothing but suffering his entire life. After twelve arduous labors and the loss of his family, this dark, world-weary soul turned his back on the gods finding his only solace in bloody battle. Over the years he warmed to the company of six similar souls, their only bond being their love of fighting and presence of death. These men and woman never question where they go to fight or why or whom, just how much they will be paid. Now the King of Thrace has hired these mercenaries to train his men to become the greatest army of all time. It is time for this bunch of lost souls to finally have their eyes opened to how far they have fallen when they must train an army to become as ruthless and blood thirsty as their reputation has become.", "poster_path": "/wGAWxOnVjwXqvoiKX7Pf6XOWnPJ.jpg", "popularity": 39.536}, {"id": 205584, "video": false, "vote_count": 2544, "vote_average": 5.4, "title": "Gods of Egypt", "release_date": "2016-02-25", "original_language": "en", "original_title": "Gods of Egypt", "genre_ids": [28, 12, 14], "backdrop_path": "/xy74anT8ZGhUIGVoalnHrmRDHbQ.jpg", "adult": false, "overview": "A common thief joins a mythical god on a quest through Egypt.", "poster_path": "/uPqAW07bGoljf3cmT5gecdOvVol.jpg", "popularity": 24.848}, {"id": 53182, "video": false, "vote_count": 4195, "vote_average": 6.0, "title": "300: Rise of an Empire", "release_date": "2014-03-05", "original_language": "en", "original_title": "300: Rise of an Empire", "genre_ids": [28, 14, 10752], "backdrop_path": "/3C4o2ozlFAfCgx5T0mC1XKHoeUM.jpg", "adult": false, "overview": "Greek general Themistokles attempts to unite all of Greece by leading the charge that will change the course of the war. Themistokles faces the massive invading Persian forces led by mortal-turned-god, Xerxes and Artemesia, the vengeful commander of the Persian navy.", "poster_path": "/gWQf5j3ZqEfOdW2rIZnkuOOva78.jpg", "popularity": 22.204}, {"adult": false, "backdrop_path": "/sG3Du3Ha6rGeSzFfXme1nh8S2Jl.jpg", "genre_ids": [18, 10751, 14, 12], "id": 34584, "original_language": "en", "original_title": "Die unendliche Geschichte", "overview": "While hiding from bullies in his school's attic, a young boy discovers the extraordinary land of Fantasia, through a magical book called The Neverending Story. The book tells the tale of Atreyu, a young warrior who, with the help of a luck dragon named Falkor, must save Fantasia from the destruction of The Nothing.", "poster_path": "/ddYCa91iDXfJCxaqSYzwi2fjfnl.jpg", "release_date": "1984-04-05", "title": "The NeverEnding Story", "video": false, "vote_average": 7.1, "vote_count": 2201, "popularity": 19.789}, {"id": 32657, "video": false, "vote_count": 4746, "vote_average": 6.1, "title": "Percy Jackson & the Olympians: The Lightning Thief", "release_date": "2010-02-01", "original_language": "en", "original_title": "Percy Jackson & the Olympians: The Lightning Thief", "genre_ids": [12, 14, 10751], "backdrop_path": "/uHQzRMqhs1bA1fLEP6J1Qc19Nfg.jpg", "adult": false, "overview": "Accident prone teenager, Percy discovers he's actually a demi-God, the son of Poseidon, and he is needed when Zeus' lightning is stolen. Percy must master his new found skills in order to prevent a war between the Gods that could devastate the entire world.", "poster_path": "/5NhyXkodMzDRW8uqtPqlxJsoBhf.jpg", "popularity": 27.202}, {"id": 620, "video": false, "vote_count": 5187, "vote_average": 7.4, "title": "Ghostbusters", "release_date": "1984-06-08", "original_language": "en", "original_title": "Ghostbusters", "genre_ids": [35, 14], "backdrop_path": "/qmDy6Rdom8d8UFj9GeAAtVIjTRT.jpg", "adult": false, "overview": "After losing their academic posts at a prestigious university, a team of parapsychologists goes into business as proton-pack-toting \"ghostbusters\" who exterminate ghouls, hobgoblins and supernatural pests of all stripes. An ad campaign pays off when a knockout cellist hires the squad to purge her swanky digs of demons that appear to be living in her refrigerator.", "poster_path": "/3FS3oBdorgczgfCkFi2u8ZTFfpS.jpg", "popularity": 24.995}, {"id": 297762, "video": false, "vote_count": 13717, "vote_average": 7.3, "title": "Wonder Woman", "release_date": "2017-05-30", "original_language": "en", "original_title": "Wonder Woman", "genre_ids": [28, 12, 14], "backdrop_path": "/6iUNJZymJBMXXriQyFZfLAKnjO6.jpg", "adult": false, "overview": "An Amazon princess comes to the world of Man in the grips of the First World War to confront the forces of evil and bring an end to human conflict.", "poster_path": "/gfJGlDaHuWimErCr5Ql0I8x9QSy.jpg", "popularity": 41.8}, {"id": 14728, "video": false, "vote_count": 243, "vote_average": 6.2, "title": "The Librarian: The Curse of the Judas Chalice", "release_date": "2008-10-25", "original_language": "en", "original_title": "The Librarian: The Curse of the Judas Chalice", "genre_ids": [28, 12, 35, 14], "backdrop_path": "/ac2zjyYWjhVsTLtQ3og3Fqxbm1G.jpg", "adult": false, "overview": "While on a dangerous mission to recover the historic Judas Chalice, Flynn is saved by Simone. But when double-crossed by a respected professor and ambushed by a ruthless gang, Flynn realizes Simone's secret, his true mission and a shocking discovery are all lying within a decaying New Orleans crypt.", "poster_path": "/oqz2HSwcMij8aG8T5vzgvAPg1mo.jpg", "popularity": 9.901}, {"id": 37958, "video": false, "vote_count": 1548, "vote_average": 5.8, "title": "Immortals", "release_date": "2011-11-10", "original_language": "en", "original_title": "Immortals", "genre_ids": [28, 18, 14], "backdrop_path": "/pNw0c7aiUZHhu8WuolfOA8xube9.jpg", "adult": false, "overview": "Theseus is a mortal man chosen by Zeus to lead the fight against the ruthless King Hyperion, who is on a rampage across Greece to obtain a weapon that can destroy humanity.", "poster_path": "/efyXTVK7oqQdQlI2YGWOkJVpbqZ.jpg", "popularity": 16.83}, {"id": 10323, "video": false, "vote_count": 370, "vote_average": 6.7, "title": "Clash of the Titans", "release_date": "1981-03-15", "original_language": "en", "original_title": "Clash of the Titans", "genre_ids": [12, 14, 878, 10751], "backdrop_path": "/uTJKC24q0KhDtLlC3OSacN1tNbm.jpg", "adult": false, "overview": "To win the right to marry his love, the beautiful princess Andromeda, and fulfil his destiny, Perseus must complete various tasks including taming Pegasus, capturing Medusa's head, and battling the Kraken monster.", "poster_path": "/75OBW467vx8ceJMSRK4NhOXk5Rc.jpg", "popularity": 15.515}, {"id": 11533, "video": false, "vote_count": 260, "vote_average": 7.1, "title": "Jason and the Argonauts", "release_date": "1963-06-19", "original_language": "en", "original_title": "Jason and the Argonauts", "genre_ids": [12, 14, 10751], "backdrop_path": "/zkBVUPzn7An2CUSS5lgp21fnbDv.jpg", "adult": false, "overview": "Jason, a fearless sailor and explorer, returns to his home land of Thessaly after a long voyage to claim his rightful throne. He learns, however, that he must first find the magical Golden Fleece. To do so, he must embark on an epic quest fraught with fantastic monsters and terrible perils.", "poster_path": "/oTvf290Awne5aAEgmPBabN3XVLU.jpg", "popularity": 11.41}, {"adult": false, "backdrop_path": "/gMzVgnh1nfEaep00EdMBuC6pYRa.jpg", "genre_ids": [28, 12, 10752], "id": 1271, "original_language": "en", "original_title": "300", "overview": "Based on Frank Miller's graphic novel, \"300\" is very loosely based the 480 B.C. Battle of Thermopylae, where the King of Sparta led his army against the advancing Persians; the battle is said to have inspired all of Greece to band together against the Persians, and helped usher in the world's first democracy.", "poster_path": "/bYR8O1H1ZlME7Dm9ysfTYZnRDpw.jpg", "release_date": "2007-03-07", "title": "300", "video": false, "vote_average": 7.1, "vote_count": 8856, "popularity": 25.601}, {"adult": false, "backdrop_path": "/jxWA2lDLidicmmDymnxlz53zAb9.jpg", "genre_ids": [16, 35, 10751], "id": 1267, "original_language": "en", "original_title": "Meet the Robinsons", "overview": "In this animated adventure, brilliant preteen inventor Lewis creates a memory scanner to retrieve his earliest recollections and find out why his mother gave him up for adoption. But when the villainous Bowler Hat Guy steals the machine, Lewis is ready to give up on his quest until the mysterious Wilbur Robinson shows up on the scene, whisking Lewis to the future to find the scanner and his mom.", "poster_path": "/oe7w9SxGmpSW1dlz5QaVVKWBEVz.jpg", "release_date": "2007-03-23", "title": "Meet the Robinsons", "video": false, "vote_average": 6.8, "vote_count": 1665, "popularity": 21.108}, {"adult": false, "backdrop_path": "/cLOekK7EmHB1beYUYEXIlcr6mpS.jpg", "genre_ids": [10752, 36, 28, 12, 18, 10749], "id": 1966, "original_language": "en", "original_title": "Alexander", "overview": "Alexander, the King of Macedonia, leads his legions against the giant Persian Empire. After defeating the Persians, he leads his army across the then known world, venturing farther than any westerner had ever gone, all the way to India.", "poster_path": "/cJrnmbsFm5cEt0pHZZ2a1ueH5aT.jpg", "release_date": "2004-11-21", "title": "Alexander", "video": false, "vote_average": 5.8, "vote_count": 1989, "popularity": 29.042}, {"adult": false, "backdrop_path": "/3mEfawlJnuu4OmUlAOesrAMsWv6.jpg", "genre_ids": [53, 27], "id": 9540, "original_language": "en", "original_title": "Dead Ringers", "overview": "Elliot, a successful gynecologist, works at the same practice as his identical twin, Beverly. Elliot is attracted to many of his patients and has affairs with them. When he inevitably loses interest, he will give the woman over to Beverly, the meeker of the two, without the woman knowing the difference. Beverly falls hard for one of the patients, Claire, but when she inadvertently deceives him, he slips into a state of madness.", "poster_path": "/9ZGBwiWIvN9KmHaLeSS5it44G21.jpg", "release_date": "1988-09-23", "title": "Dead Ringers", "video": false, "vote_average": 7.2, "vote_count": 388, "popularity": 10.111}], "total_pages": 35, "total_results": 682}, "recommendations": {"page": 1, "results": [], "total_pages": 1, "total_results": 0}, "credits": {"cast": [{"cast_id": 11, "character": "Prince Teseo", "credit_id": "52fe4ad69251416c750efd25", "gender": 2, "id": 1097243, "name": "Bob Mathias", "order": 0, "profile_path": null}, {"cast_id": 12, "character": "Princess Fedra / Arianna", "credit_id": "52fe4ad69251416c750efd29", "gender": 1, "id": 30927, "name": "Rosanna Schiaffino", "order": 1, "profile_path": "/hbi7ACCmPDfopDEqhRm4wcQ2vnG.jpg"}, {"cast_id": 13, "character": "Chirone", "credit_id": "52fe4ad69251416c750efd2d", "gender": 2, "id": 89125, "name": "Alberto Lupo", "order": 2, "profile_path": "/vYCrjsaM5gphhRRUwK9pjEZYHf3.jpg"}, {"cast_id": 14, "character": "Demetrio", "credit_id": "52fe4ad69251416c750efd31", "gender": 2, "id": 5565, "name": "Rik Battaglia", "order": 3, "profile_path": "/jqrk23h0GWTqj3XD4q4teb88jTe.jpg"}, {"cast_id": 15, "character": "Minosse, Re di Creta", "credit_id": "52fe4ad69251416c750efd35", "gender": 2, "id": 37784, "name": "Carlo Tamberlani", "order": 4, "profile_path": "/n5KFUes5QV4fxlClKftJqZOB8rW.jpg"}, {"cast_id": 16, "character": "Gerione", "credit_id": "52fe4ad69251416c750efd39", "gender": 0, "id": 238492, "name": "Nico Pepe", "order": 5, "profile_path": null}, {"cast_id": 17, "character": "Anfitrite", "credit_id": "52fe4ad69251416c750efd3d", "gender": 0, "id": 89126, "name": "Susanne Loret", "order": 6, "profile_path": null}, {"cast_id": 18, "character": "Re di Atene", "credit_id": "52fe4ad69251416c750efd41", "gender": 0, "id": 99530, "name": "Nerio Bernardi", "order": 7, "profile_path": "/sFt9XjJo2rq1NAuAZDT62DOrkJw.jpg"}, {"cast_id": 19, "character": "Medico di Corte", "credit_id": "52fe4ad69251416c750efd45", "gender": 2, "id": 101549, "name": "Paul M\u00fcller", "order": 8, "profile_path": "/v3tZduw1pzCx6eeoYO6eWkwB0cu.jpg"}, {"cast_id": 20, "character": "Illia, daughter of Xanto", "credit_id": "52fe4ad69251416c750efd49", "gender": 0, "id": 1110437, "name": "Tiziana Casetti", "order": 9, "profile_path": null}, {"cast_id": 22, "character": "Xantos", "credit_id": "5a10c82ec3a368628003f227", "gender": 0, "id": 126562, "name": "Alberto Plebani", "order": 10, "profile_path": "/nRT7RJ8DgRcK2riQBtBSc9Aimpo.jpg"}, {"cast_id": 23, "character": "Queen Pasiphae", "credit_id": "5a10c83f92514138f003c0d9", "gender": 1, "id": 1133860, "name": "Tina Lattanzi", "order": 11, "profile_path": "/d9UtRhdiTWqX8j2eWAju1z0F8CW.jpg"}, {"cast_id": 24, "character": "The Minotaur", "credit_id": "5a10c84e92514138ea03b58f", "gender": 0, "id": 1925973, "name": "Milo Malagoli", "order": 12, "profile_path": null}, {"cast_id": 25, "character": "Sunis", "credit_id": "5a10c86f92514138f003c117", "gender": 0, "id": 1074068, "name": "Adriano Micantoni", "order": 13, "profile_path": "/uWfHRhVmKZFJSBBkMHIEuEpSVuH.jpg"}, {"cast_id": 26, "character": "Timon", "credit_id": "5a10c87fc3a368628003f283", "gender": 0, "id": 1425171, "name": "Vittorio Vaser", "order": 14, "profile_path": null}, {"cast_id": 27, "character": "Ctesiphorus", "credit_id": "5a10c89092514138ea03b5e6", "gender": 0, "id": 1126387, "name": "Amedeo Trilli", "order": 15, "profile_path": null}, {"cast_id": 28, "character": "Alcimene", "credit_id": "5a10c8a692514138f003c161", "gender": 2, "id": 128435, "name": "Andrea Scotti", "order": 16, "profile_path": "/dxRQlqPDpjh54FU9feXGjyCZGYG.jpg"}, {"cast_id": 29, "character": "Jailer", "credit_id": "5a10c8b7c3a368628303d1e3", "gender": 0, "id": 1925974, "name": "Vladimiro Picciafuochi", "order": 17, "profile_path": null}, {"cast_id": 30, "character": "", "credit_id": "5a10c8c1c3a368627d040d9d", "gender": 0, "id": 1925976, "name": "Emma Barron", "order": 18, "profile_path": null}, {"cast_id": 31, "character": "", "credit_id": "5a10c8cbc3a3686292037991", "gender": 0, "id": 1266164, "name": "Elena Zareschi", "order": 19, "profile_path": null}, {"cast_id": 32, "character": "", "credit_id": "5a10c8d592514138e703c887", "gender": 0, "id": 1925977, "name": "Alberto Barberito", "order": 20, "profile_path": null}, {"cast_id": 33, "character": "", "credit_id": "5a10c8dec3a368628f039074", "gender": 0, "id": 1925978, "name": "Maria Maleff", "order": 21, "profile_path": null}, {"cast_id": 34, "character": "", "credit_id": "5a10c8e8c3a368627d040dd2", "gender": 0, "id": 1925979, "name": "Giovanni Materassi", "order": 22, "profile_path": null}], "crew": [{"credit_id": "52fe4ad69251416c750efcf7", "department": "Writing", "gender": 0, "id": 21228, "job": "Writer", "name": "Sandro Continenza", "profile_path": null}, {"credit_id": "52fe4ad69251416c750efd0f", "department": "Sound", "gender": 2, "id": 29500, "job": "Music", "name": "Carlo Rustichelli", "profile_path": "/3LOPAqzUlWbyjzxYXMlJpJDrrrE.jpg"}, {"credit_id": "52fe4ad69251416c750efd21", "department": "Art", "gender": 0, "id": 29502, "job": "Production Design", "name": "Piero Poletto", "profile_path": null}, {"credit_id": "52fe4ad69251416c750efd15", "department": "Crew", "gender": 0, "id": 33930, "job": "Cinematography", "name": "Aldo Giordani", "profile_path": null}, {"credit_id": "52fe4ad69251416c750efd1b", "department": "Editing", "gender": 0, "id": 37812, "job": "Editor", "name": "Nella Nannuzzi", "profile_path": null}, {"credit_id": "52fe4ad69251416c750efcf1", "department": "Writing", "gender": 0, "id": 93955, "job": "Writer", "name": "Gian Paolo Callegari", "profile_path": null}, {"credit_id": "52fe4ad69251416c750efceb", "department": "Directing", "gender": 2, "id": 239315, "job": "Director", "name": "Silvio Amadio", "profile_path": null}, {"credit_id": "52fe4ad69251416c750efcfd", "department": "Production", "gender": 0, "id": 314151, "job": "Producer", "name": "Giorgio Agliani", "profile_path": null}, {"credit_id": "52fe4ad69251416c750efd03", "department": "Production", "gender": 0, "id": 1089641, "job": "Producer", "name": "Gino Mordini", "profile_path": null}, {"credit_id": "52fe4ad69251416c750efd09", "department": "Production", "gender": 0, "id": 1116687, "job": "Producer", "name": "Rudolphe Solmesne", "profile_path": null}, {"credit_id": "52fe4ad69251416c750efd4f", "department": "Costume & Make-Up", "gender": 0, "id": 1122358, "job": "Makeup Artist", "name": "Duilio Giustini", "profile_path": null}]}}