{"adult": false, "backdrop_path": "/cL65UaXf9YNldEK4LewjQDfCMBz.jpg", "belongs_to_collection": null, "budget": 0, "genres": [{"id": 10749, "name": "Romance"}, {"id": 18, "name": "Drama"}, {"id": 35, "name": "Comedy"}], "homepage": null, "id": 142797, "imdb_id": "tt0051175", "original_language": "ru", "original_title": "\u0412\u044b\u0441\u043e\u0442\u0430", "overview": "For the construction of the plant comes a team of ironworkers, they will carry out the installation of the blast furnace according to the new method.\r A film about the difficult characters of ordinary Soviet people who know how to work, dream, love - to build a great human happiness.", "popularity": 1.915, "poster_path": "/x8t4ut41O4s2Qr7KTTMTae5M5iZ.jpg", "production_companies": [{"id": 344, "logo_path": "/xenuUvcunUNpbaDOYGhWZERaym7.png", "name": "Mosfilm", "origin_country": "RU"}], "production_countries": [{"iso_3166_1": "RU", "name": "Russia"}, {"iso_3166_1": "SU", "name": "Soviet Union"}], "release_date": "1957-04-27", "revenue": 0, "runtime": 94, "spoken_languages": [{"iso_639_1": "ru", "name": "P\u0443\u0441\u0441\u043a\u0438\u0439"}], "status": "Released", "tagline": "", "title": "Height", "video": false, "vote_average": 7.3, "vote_count": 4, "keywords": {"keywords": [{"id": 818, "name": "based on novel or book"}, {"id": 2111, "name": "soviet union"}, {"id": 246099, "name": "komsomol"}, {"id": 254729, "name": "ironworker"}]}, "similar": {"page": 1, "results": [{"adult": false, "backdrop_path": "/kiWvoV78Cc3fUwkOHKzyBgVdrDD.jpg", "genre_ids": [37, 18, 12], "id": 281957, "original_language": "en", "original_title": "The Revenant", "overview": "In the 1820s, a frontiersman, Hugh Glass, sets out on a path of vengeance against those who left him for dead after a bear mauling.", "poster_path": "/oXUWEc5i3wYyFnL1Ycu8ppxxPvs.jpg", "release_date": "2015-12-25", "title": "The Revenant", "video": false, "vote_average": 7.5, "vote_count": 12127, "popularity": 24.135}, {"adult": false, "backdrop_path": "/2J283YNxKhxAqHeVegUJ5mzLfGb.jpg", "genre_ids": [80, 18, 9648], "id": 392044, "original_language": "en", "original_title": "Murder on the Orient Express", "overview": "Genius Belgian detective Hercule Poirot investigates the murder of an American tycoon aboard the Orient Express train.", "poster_path": "/iBlfxlw8qwtUS0R8YjIU7JtM6LM.jpg", "release_date": "2017-11-03", "title": "Murder on the Orient Express", "video": false, "vote_average": 6.7, "vote_count": 6050, "popularity": 27.701}, {"adult": false, "backdrop_path": "/GRyynLqafMrLFMHqvfGdUweavA.jpg", "genre_ids": [27, 18, 14], "id": 628, "original_language": "en", "original_title": "Interview with the Vampire", "overview": "A vampire relates his epic life story of love, betrayal, loneliness, and dark hunger to an over-curious reporter.", "poster_path": "/hldXwwViSfHJS0kIJr07KBGmHJI.jpg", "release_date": "1994-11-11", "title": "Interview with the Vampire", "video": false, "vote_average": 7.3, "vote_count": 3231, "popularity": 21.064}, {"id": 656968, "video": false, "vote_count": 23, "vote_average": 7.0, "title": "A Christmas Carol", "release_date": "2019-12-19", "original_language": "en", "original_title": "A Christmas Carol", "genre_ids": [18, 14], "backdrop_path": "/ubLsCmv36zUUt2zxhFSowYFe5uF.jpg", "adult": false, "overview": "London, 1843. Ebenezer Scrooge, a bitter old man, despises the Christmas holiday. Over the course of Christmas Eve night he is visited by three ghosts to show him his past, present and future.", "poster_path": "/tKW48tnZKaHLBIxxgoAf9BIpyRv.jpg", "popularity": 7.061}, {"adult": false, "backdrop_path": "/hm8Gux0946IfeJ1PZwztOo6lVHH.jpg", "genre_ids": [18, 36, 35], "id": 450322, "original_language": "en", "original_title": "The Man Who Invented Christmas", "overview": "In 1843, despite the fact that Dickens is a successful writer, the failure of his latest book puts his career at a crossroads, until the moment when, struggling with inspiration and confronting reality with his childhood memories, a new character is born in the depths of his troubled mind; an old, lonely, embittered man, so vivid, so human, that a whole world grows around him, a story so inspiring that changed the meaning of Christmas forever.", "poster_path": "/xYCuRgEKynGurSEooxDa9pQPF7n.jpg", "release_date": "2017-10-12", "title": "The Man Who Invented Christmas", "video": false, "vote_average": 6.7, "vote_count": 395, "popularity": 12.264}, {"adult": false, "backdrop_path": "/sw7mordbZxgITU877yTpZCud90M.jpg", "genre_ids": [18, 80], "id": 769, "original_language": "en", "original_title": "GoodFellas", "overview": "The true story of Henry Hill, a half-Irish, half-Sicilian Brooklyn kid who is adopted by neighbourhood gangsters at an early age and climbs the ranks of a Mafia family under the guidance of Jimmy Conway.", "poster_path": "/pwpGfTImTGifEGgLb3s6LRPd4I6.jpg", "release_date": "1990-09-12", "title": "GoodFellas", "video": false, "vote_average": 8.4, "vote_count": 6559, "popularity": 36.135}, {"id": 6114, "video": false, "vote_count": 2611, "vote_average": 7.4, "title": "Dracula", "release_date": "1992-11-13", "original_language": "en", "original_title": "Dracula", "genre_ids": [27, 10749], "backdrop_path": "/hm2stwkNFAaXMEeetJS2RZ77zC1.jpg", "adult": false, "overview": "When Dracula leaves the captive Jonathan Harker and Transylvania for London in search of Mina Harker\u2014the reincarnation of Dracula's long-dead wife, Elisabeta\u2014obsessed vampire hunter Dr. Van Helsing sets out to end the madness.", "poster_path": "/ioHxm3D3JdSXR61LRhcVb8KdZOz.jpg", "popularity": 21.922}, {"adult": false, "backdrop_path": "/fewP7EsMEnfqqcx4qYHKSKebwkF.jpg", "genre_ids": [28, 18, 36], "id": 2669, "original_language": "en", "original_title": "The Bounty", "overview": "The familiar story of Lieutenant Bligh, whose cruelty leads to a mutiny on his ship. This version follows both the efforts of Fletcher Christian to get his men beyond the reach of British retribution, and the epic voyage of Lieutenant Bligh to get his loyalists safely to East Timor in a tiny lifeboat.", "poster_path": "/hXFXIc6F4NXI5emWCKcUwqEPjIZ.jpg", "release_date": "1984-05-04", "title": "The Bounty", "video": false, "vote_average": 6.7, "vote_count": 246, "popularity": 10.539}, {"id": 399019, "video": false, "vote_count": 1322, "vote_average": 5.7, "title": "The Beguiled", "release_date": "2017-06-23", "original_language": "en", "original_title": "The Beguiled", "genre_ids": [18, 37], "backdrop_path": "/5jq7TjRzmvkJsa8bF3zWqxbPtmw.jpg", "adult": false, "overview": "During the Civil War, at a Southern girls\u2019 boarding school, young women take in an injured enemy soldier. As they provide refuge and tend to his wounds, the house is taken over with sexual tension and dangerous rivalries, and taboos are broken in an unexpected turn of events.", "poster_path": "/uQxfqFAqAvNK5b1wD11b2ycDAVg.jpg", "popularity": 12.812}, {"adult": false, "backdrop_path": "/jArl1j9sL2mYjRW23EaZKWAr2E8.jpg", "genre_ids": [18, 36], "id": 399121, "original_language": "fr", "original_title": "J\u2019accuse", "overview": "In 1894, French Captain Alfred Dreyfus is wrongfully convicted of treason and sentenced to life imprisonment at Devil's Island.", "poster_path": "/xMCJhioKlEBoWAJM9aCBKR8J3BT.jpg", "release_date": "2019-09-30", "title": "An Officer and a Spy", "video": false, "vote_average": 7.4, "vote_count": 278, "popularity": 12.331}, {"adult": false, "backdrop_path": "/8cVSUI36ORfCJ6d4TP71wIrdD7h.jpg", "genre_ids": [18, 27], "id": 133805, "original_language": "en", "original_title": "Carrie", "overview": "A reimagining of the classic horror tale about Carrie White, a shy girl outcast by her peers and sheltered by her deeply religious mother, who unleashes telekinetic terror on her small town after being pushed too far at her senior prom.", "poster_path": "/j0999NYddCGcishJlxluDRQIn6k.jpg", "release_date": "2013-10-16", "title": "Carrie", "video": false, "vote_average": 5.9, "vote_count": 2914, "popularity": 15.756}, {"adult": false, "backdrop_path": "/neSLpxwG5TWNzCPDUIZ9kbl2bOL.jpg", "genre_ids": [18, 53, 80], "id": 4836, "original_language": "en", "original_title": "Layer Cake", "overview": "When a seemingly straight-forward drug deal goes awry, XXXX has to break his die-hard rules and turn up the heat, not only to outwit the old regime and come out on top, but to save his own skin...", "poster_path": "/y6BzUkrx789OhVMDXZiBBVHu6OQ.jpg", "release_date": "2004-09-30", "title": "Layer Cake", "video": false, "vote_average": 7.0, "vote_count": 1028, "popularity": 19.131}, {"adult": false, "backdrop_path": "/sRJjliXA7ZqHCr7HCK0ZB83xxjr.jpg", "genre_ids": [12, 28, 878], "id": 101299, "original_language": "en", "original_title": "The Hunger Games: Catching Fire", "overview": "Katniss Everdeen has returned home safe after winning the 74th Annual Hunger Games along with fellow tribute Peeta Mellark. Winning means that they must turn around and leave their family and close friends, embarking on a \"Victor's Tour\" of the districts. Along the way Katniss senses that a rebellion is simmering, but the Capitol is still very much in control as President Snow prepares the 75th Annual Hunger Games (The Quarter Quell) - a competition that could change Panem forever.", "poster_path": "/Hn0KgefVEp0GkdTexS6gfKTMfi.jpg", "release_date": "2013-11-15", "title": "The Hunger Games: Catching Fire", "video": false, "vote_average": 7.4, "vote_count": 12031, "popularity": 22.164}, {"id": 181283, "video": false, "vote_count": 988, "vote_average": 6.2, "title": "Child 44", "release_date": "2015-03-15", "original_language": "en", "original_title": "Child 44", "genre_ids": [80, 53], "backdrop_path": "/A2WK7mdiKHaxgE4hRyKuDIM4KGg.jpg", "adult": false, "overview": "Set in Stalin-era Soviet Union, a disgraced MGB agent is dispatched to investigate a series of child murders -- a case that begins to connect with the very top of party leadership.", "poster_path": "/nzXwfnBcsmREzHlem6fkStN1RUH.jpg", "popularity": 17.414}, {"adult": false, "backdrop_path": "/bvbyidkMaBls1LTaIWYY6UmYTaL.jpg", "genre_ids": [28, 878], "id": 336843, "original_language": "en", "original_title": "Maze Runner: The Death Cure", "overview": "Thomas leads his group of escaped Gladers on their final and most dangerous mission yet. To save their friends, they must break into the legendary Last City, a WCKD-controlled labyrinth that may turn out to be the deadliest maze of all. Anyone who makes it out alive will get answers to the questions the Gladers have been asking since they first arrived in the maze.", "poster_path": "/2zYfzA3TBwrMC8tfFbpiTLODde0.jpg", "release_date": "2018-01-10", "title": "Maze Runner: The Death Cure", "video": false, "vote_average": 7.0, "vote_count": 4396, "popularity": 25.259}, {"adult": false, "backdrop_path": "/20IgqkdFw5kuItqDCJtidSESP0t.jpg", "genre_ids": [27, 18], "id": 10066, "original_language": "en", "original_title": "House of Wax", "overview": "A group of unwitting teens are stranded near a strange wax museum and soon must fight to survive and keep from becoming the next exhibit.", "poster_path": "/uM1RebQywM5PPYsauayefpXGxVk.jpg", "release_date": "2005-04-30", "title": "House of Wax", "video": false, "vote_average": 5.7, "vote_count": 1532, "popularity": 16.398}, {"adult": false, "backdrop_path": "/dLAPTvBwEdP4h7a14isNc0HwmOj.jpg", "genre_ids": [18, 10749], "id": 250734, "original_language": "en", "original_title": "Far from the Madding Crowd", "overview": "Based on the literary classic by Thomas Hardy. Bathsheba Everdene, attracts three very different suitors: Gabriel Oak, a sheep farmer, captivated by her fetching willfulness; Frank Troy, a handsome and reckless Sergeant; and William Boldwood, a prosperous and mature bachelor. This timeless story of Bathsheba's choices and passions explores the nature of relationships and love \u2013 as well as the human ability to overcome hardships through resilience and perseverance.", "poster_path": "/6v1DEaO2TZzrqcaGohUf1K7BXkU.jpg", "release_date": "2015-04-23", "title": "Far from the Madding Crowd", "video": false, "vote_average": 7.0, "vote_count": 643, "popularity": 13.429}, {"id": 50619, "video": false, "vote_count": 5595, "vote_average": 6.0, "title": "The Twilight Saga: Breaking Dawn - Part 1", "release_date": "2011-03-15", "original_language": "en", "original_title": "The Twilight Saga: Breaking Dawn - Part 1", "genre_ids": [12, 14, 10749], "backdrop_path": "/fwhRNjMmwqeGH35eQonSPmQs2ah.jpg", "adult": false, "overview": "The new found married bliss of Bella Swan and vampire Edward Cullen is cut short when a series of betrayals and misfortunes threatens to destroy their world.", "poster_path": "/dSSzv6JrlwS48pBeTNSswLJXOYF.jpg", "popularity": 22.3}, {"id": 521, "video": false, "vote_count": 1257, "vote_average": 8.0, "title": "Dial M for Murder", "release_date": "1954-05-29", "original_language": "en", "original_title": "Dial M for Murder", "genre_ids": [80, 18, 9648, 53], "backdrop_path": "/jVMlfESb0TJ29w8CUDDofEprMmn.jpg", "adult": false, "overview": "An ex-tennis pro carries out a plot to have his wife murdered after discovering she is having an affair, and assumes she will soon leave him for the other man anyway. When things go wrong, he improvises a new plan\u2014to frame her for murder instead.", "poster_path": "/xrpK1PyckNWmRxU4kZURfaCyboS.jpg", "popularity": 28.336}, {"id": 205775, "video": false, "vote_count": 2362, "vote_average": 6.6, "title": "In the Heart of the Sea", "release_date": "2015-11-20", "original_language": "en", "original_title": "In the Heart of the Sea", "genre_ids": [28, 12, 18, 36, 53], "backdrop_path": "/aZoZ0NglXgiBMToem9HhTAYYamw.jpg", "adult": false, "overview": "In the winter of 1820, the New England whaling ship Essex is assaulted by something no one could believe\u2014a whale of mammoth size and will, and an almost human sense of vengeance.", "poster_path": "/zVmWh0Zfg4UhbvdGI8LQrn1lQZJ.jpg", "popularity": 18.435}], "total_pages": 454, "total_results": 9073}, "recommendations": {"page": 1, "results": [{"adult": false, "backdrop_path": "/u17RwOZOS8NJ061czlyEYHKiVC5.jpg", "genre_ids": [12, 36], "id": 11809, "original_language": "ru", "original_title": "\u041b\u0435\u0433\u0435\u043d\u0434\u0430 \u043e \u0422\u0438\u043b\u0435", "overview": "Based on the book by Belgian XIX century author Charles de Coaster.", "poster_path": "/9nCApriSoxJOs3ItSYL8slf4WCW.jpg", "release_date": "1976-05-05", "title": "Legend About Thiel", "video": false, "vote_average": 6.0, "vote_count": 3, "popularity": 2.615}], "total_pages": 1, "total_results": 1}, "credits": {"cast": [{"cast_id": 4, "character": "Nikolay Pasechnik", "credit_id": "52fe4aec9251416c750f29eb", "gender": 2, "id": 86894, "name": "Nikolai Rybnikov", "order": 0, "profile_path": "/uKcvVwd4mLQL5dSm25FF5WE3YxG.jpg"}, {"cast_id": 5, "character": "Katya Petrashen", "credit_id": "52fe4aec9251416c750f29ef", "gender": 0, "id": 86897, "name": "Inna Makarova", "order": 1, "profile_path": "/4kKTpsM9btRxjj0uddJE9tVI4xu.jpg"}, {"cast_id": 6, "character": "Konstantin Tokmakov", "credit_id": "52fe4aec9251416c750f29f3", "gender": 0, "id": 1117969, "name": "Gennadi Karnovich-Valua", "order": 2, "profile_path": "/5EmKQleBORSXX2P7as6Qii6XwKf.jpg"}, {"cast_id": 14, "character": "Masha", "credit_id": "5ce851a90e0a26381cd3e843", "gender": 1, "id": 1091645, "name": "Marianna Strizhenova", "order": 3, "profile_path": "/wDI7RGfwXJ8uI9Jl9WKCOwKzEXM.jpg"}, {"cast_id": 7, "character": "Igor Deryabin", "credit_id": "52fe4aed9251416c750f29f7", "gender": 0, "id": 1117971, "name": "Vasili Makarov", "order": 4, "profile_path": "/mJw2kyTPkZR1S6qG8vQsPf6CUPK.jpg"}, {"cast_id": 9, "character": "Innokenty Dymov", "credit_id": "52fe4aed9251416c750f29ff", "gender": 0, "id": 1117972, "name": "Boris Sitko", "order": 5, "profile_path": "/vk7wCLbMFuJWQrK7BSWGe5mdg8j.jpg"}, {"cast_id": 10, "character": "Berestov", "credit_id": "52fe4aed9251416c750f2a03", "gender": 0, "id": 929535, "name": "Sergei Romodanov", "order": 6, "profile_path": "/evtszNKaHspTAa1Cd6OO8TRRTrj.jpg"}, {"cast_id": 11, "character": "Berestova", "credit_id": "52fe4aed9251416c750f2a07", "gender": 1, "id": 1117973, "name": "Yelena Maksimova", "order": 7, "profile_path": "/uJBPiQBmMvvfV9uIeo7H7xAC1Kv.jpg"}, {"cast_id": 12, "character": "Boris Berestov", "credit_id": "52fe4aed9251416c750f2a0b", "gender": 2, "id": 543724, "name": "Lev Borisov", "order": 8, "profile_path": "/gloKCPpeIAjwr8g9HZDE5RY477X.jpg"}, {"cast_id": 13, "character": "Vasya Khaenko", "credit_id": "5b81026092514159e0009fec", "gender": 2, "id": 2062600, "name": "Leonid Chubarov", "order": 9, "profile_path": "/fvpNkrQ6mWuJRuIpZaqXMMmSTuI.jpg"}, {"cast_id": 15, "character": "Bagrat", "credit_id": "5ce852eec3a36817461e71f0", "gender": 2, "id": 1342323, "name": "Khoren Abrahamyan", "order": 10, "profile_path": null}, {"cast_id": 16, "character": "Valentin", "credit_id": "5ce853079251417824bb867e", "gender": 2, "id": 1942499, "name": "Valentin Pechnikov", "order": 11, "profile_path": null}], "crew": [{"credit_id": "52fe4aec9251416c750f29db", "department": "Directing", "gender": 2, "id": 549426, "job": "Director", "name": "Aleksandr Zarkhi", "profile_path": "/zzwfxbilSCjcyHkcpQaJbrfZnWD.jpg"}, {"credit_id": "52fe4aec9251416c750f29e1", "department": "Writing", "gender": 0, "id": 1117967, "job": "Writer", "name": "Mikhail Papava", "profile_path": null}, {"credit_id": "52fe4aec9251416c750f29e7", "department": "Writing", "gender": 0, "id": 1117968, "job": "Novel", "name": "Yevgeni Vorobyov", "profile_path": null}, {"credit_id": "5ce854360e0a26381cd3eddd", "department": "Sound", "gender": 2, "id": 1320344, "job": "Music", "name": "Rodion Shchedrin", "profile_path": "/gFxn0qDl7cMHTuSJihV0dOYwl3.jpg"}, {"credit_id": "5ce853f59251415450bba1f7", "department": "Art", "gender": 2, "id": 1623741, "job": "Production Design", "name": "Abram Freidin", "profile_path": null}, {"credit_id": "5ce8540fc3a368536b23fdaf", "department": "Editing", "gender": 0, "id": 1633894, "job": "Editor", "name": "Yekaterina Ovsyannikova", "profile_path": null}, {"credit_id": "5ce853a30e0a26381cd3ecf3", "department": "Crew", "gender": 0, "id": 2082522, "job": "Cinematography", "name": "Vladimir Monakhov", "profile_path": null}, {"credit_id": "5ce8551fc3a3685ad721714d", "department": "Sound", "gender": 0, "id": 2320537, "job": "Sound", "name": "Veniamin Kirshenbaum", "profile_path": null}]}}