{"adult": false, "backdrop_path": null, "belongs_to_collection": null, "budget": 0, "genres": [{"id": 9648, "name": "Mystery"}, {"id": 10751, "name": "Family"}, {"id": 878, "name": "Science Fiction"}, {"id": 14, "name": "Fantasy"}, {"id": 12, "name": "Adventure"}], "homepage": null, "id": 142815, "imdb_id": "tt0160986", "original_language": "en", "original_title": "Time at the Top", "overview": "14-year old Susan Shawson travels back in time in her building's elevator. As altered by a retired physicist living in her building, it transports her from Philadelphia of 1998 back to the same place in 1881. There she meets Victoria Walker, a girl her own age in need of assistance with her own family problems. Gradually discovering the power of her time machine, Susan, Victoria, and her young brother Robert travel back and forth in time and succeed in changing both the past and the future.", "popularity": 1.939, "poster_path": "/oApWVUCOHb5hqDlQNELCDvOJfW7.jpg", "production_companies": [{"id": 29849, "logo_path": null, "name": "Showtime/The Movie Channel", "origin_country": ""}], "production_countries": [{"iso_3166_1": "CA", "name": "Canada"}], "release_date": "1999-01-17", "revenue": 0, "runtime": 96, "spoken_languages": [], "status": "Released", "tagline": "Susan has the key to an awesome adventure!", "title": "Time at the Top", "video": false, "vote_average": 6.9, "vote_count": 4, "keywords": {"keywords": [{"id": 612, "name": "hotel"}, {"id": 4379, "name": "time travel"}, {"id": 8250, "name": "victorian england"}, {"id": 176056, "name": "time traveler"}, {"id": 188960, "name": "elevator"}, {"id": 207928, "name": "19th century"}]}, "similar": {"page": 1, "results": [{"adult": false, "backdrop_path": "/EVaEyQvzu13g6FPnzb4IlbbrGM.jpg", "genre_ids": [53, 12, 14, 878, 10749], "id": 2134, "original_language": "en", "original_title": "The Time Machine", "overview": "A Victorian Englishman travels to the far future and finds that humanity has divided into two hostile species.", "poster_path": "/cjmluKjmaqLfZmwMEwjki6tvLnS.jpg", "release_date": "1960-05-25", "title": "The Time Machine", "video": false, "vote_average": 7.4, "vote_count": 399, "popularity": 12.837}, {"adult": false, "backdrop_path": "/dLAPTvBwEdP4h7a14isNc0HwmOj.jpg", "genre_ids": [18, 10749], "id": 250734, "original_language": "en", "original_title": "Far from the Madding Crowd", "overview": "Based on the literary classic by Thomas Hardy. Bathsheba Everdene, attracts three very different suitors: Gabriel Oak, a sheep farmer, captivated by her fetching willfulness; Frank Troy, a handsome and reckless Sergeant; and William Boldwood, a prosperous and mature bachelor. This timeless story of Bathsheba's choices and passions explores the nature of relationships and love \u2013 as well as the human ability to overcome hardships through resilience and perseverance.", "poster_path": "/6v1DEaO2TZzrqcaGohUf1K7BXkU.jpg", "release_date": "2015-04-23", "title": "Far from the Madding Crowd", "video": false, "vote_average": 7.0, "vote_count": 643, "popularity": 13.429}, {"adult": false, "backdrop_path": "/hm8Gux0946IfeJ1PZwztOo6lVHH.jpg", "genre_ids": [18, 36, 35], "id": 450322, "original_language": "en", "original_title": "The Man Who Invented Christmas", "overview": "In 1843, despite the fact that Dickens is a successful writer, the failure of his latest book puts his career at a crossroads, until the moment when, struggling with inspiration and confronting reality with his childhood memories, a new character is born in the depths of his troubled mind; an old, lonely, embittered man, so vivid, so human, that a whole world grows around him, a story so inspiring that changed the meaning of Christmas forever.", "poster_path": "/xYCuRgEKynGurSEooxDa9pQPF7n.jpg", "release_date": "2017-10-12", "title": "The Man Who Invented Christmas", "video": false, "vote_average": 6.7, "vote_count": 395, "popularity": 12.264}, {"id": 49529, "video": false, "vote_count": 3606, "vote_average": 6.1, "title": "John Carter", "release_date": "2012-03-07", "original_language": "en", "original_title": "John Carter", "genre_ids": [28, 12, 878], "backdrop_path": "/2eDepJWMMBHmZ7pt9MSqzGQeoDc.jpg", "adult": false, "overview": "John Carter is a war-weary, former military captain who's inexplicably transported to the mysterious and exotic planet of Barsoom (Mars) and reluctantly becomes embroiled in an epic conflict. It's a world on the brink of collapse, and Carter rediscovers his humanity when he realizes the survival of Barsoom and its people rests in his hands.", "poster_path": "/4QDBNt9PmxqUH4Ab2R5xKWqzXiQ.jpg", "popularity": 20.92}, {"adult": false, "backdrop_path": "/A0enTetqBfL3UqLPyg0MONLQDXN.jpg", "genre_ids": [16, 10751, 12, 9648], "id": 9994, "original_language": "en", "original_title": "The Great Mouse Detective", "overview": "When the diabolical Professor Ratigan kidnaps London's master toymaker, the brilliant master of disguise Basil of Baker Street and his trusted sidekick Dawson try to elude the ultimate trap and foil the perfect crime.", "poster_path": "/9uDr7vfjCFr39KGCcqrk44Cg7fQ.jpg", "release_date": "1986-07-02", "title": "The Great Mouse Detective", "video": false, "vote_average": 7.1, "vote_count": 894, "popularity": 19.212}, {"id": 299534, "video": false, "vote_count": 10932, "vote_average": 8.3, "title": "Avengers: Endgame", "release_date": "2019-04-24", "original_language": "en", "original_title": "Avengers: Endgame", "genre_ids": [28, 12, 878], "backdrop_path": "/7RyHsO4yDXtBv1zUU3mTpHeQ0d5.jpg", "adult": false, "overview": "After the devastating events of Avengers: Infinity War, the universe is in ruins due to the efforts of the Mad Titan, Thanos. With the help of remaining allies, the Avengers must assemble once more in order to undo Thanos' actions and restore order to the universe once and for all, no matter what consequences may be in store.", "poster_path": "/or06FN3Dka5tukK1e9sl16pB3iy.jpg", "popularity": 54.02}, {"id": 448119, "video": false, "vote_count": 53, "vote_average": 7.1, "title": "Dolittle", "release_date": "2020-01-01", "original_language": "en", "original_title": "Dolittle", "genre_ids": [12, 35, 14, 10751], "backdrop_path": "/lG802rseTZcN9mtLsQPVfApEVzM.jpg", "adult": false, "overview": "After losing his wife seven years earlier, the eccentric Dr. John Dolittle, famed doctor and veterinarian of Queen Victoria\u2019s England, hermits himself away behind the high walls of Dolittle Manor with only his menagerie of exotic animals for company. But when the young queen falls gravely ill, a reluctant Dolittle is forced to set sail on an epic adventure to a mythical island in search of a cure, regaining his wit and courage as he crosses old adversaries and discovers wondrous creatures.", "poster_path": "/3Nt3v1uzUgfSuVARD1AnI9g9Zl9.jpg", "popularity": 118.679}, {"id": 23048, "video": false, "vote_count": 1526, "vote_average": 6.0, "title": "Hot Tub Time Machine", "release_date": "2010-03-26", "original_language": "en", "original_title": "Hot Tub Time Machine", "genre_ids": [12, 35, 878], "backdrop_path": "/i4xX5YUHUfNvlHt65DPDXQgJT7m.jpg", "adult": false, "overview": "A malfunctioning time machine at a ski resort takes a man back to 1986 with his two friends and nephew, where they must relive a fateful night and not change anything to make sure the nephew is born.", "poster_path": "/zERxFAXiQdPAfsumIIcBFH8fOVt.jpg", "popularity": 14.98}, {"adult": false, "backdrop_path": "/hpIUiHIyNKWsid3Tz4adtYsUqo1.jpg", "genre_ids": [16, 12, 10751], "id": 82703, "original_language": "en", "original_title": "Mr. Peabody & Sherman", "overview": "A young boy and his dog, who happens to have a genius-level IQ, spring into action when their time-machine is stolen and moments in history begin to be changed.", "poster_path": "/q4FQXK4a4HSb4pajZL4ZFKHVsjC.jpg", "release_date": "2014-02-07", "title": "Mr. Peabody & Sherman", "video": false, "vote_average": 6.6, "vote_count": 1490, "popularity": 18.443}, {"adult": false, "backdrop_path": "/kiWvoV78Cc3fUwkOHKzyBgVdrDD.jpg", "genre_ids": [37, 18, 12], "id": 281957, "original_language": "en", "original_title": "The Revenant", "overview": "In the 1820s, a frontiersman, Hugh Glass, sets out on a path of vengeance against those who left him for dead after a bear mauling.", "poster_path": "/oXUWEc5i3wYyFnL1Ycu8ppxxPvs.jpg", "release_date": "2015-12-25", "title": "The Revenant", "video": false, "vote_average": 7.5, "vote_count": 12127, "popularity": 24.135}, {"id": 398181, "video": false, "vote_count": 1302, "vote_average": 6.6, "title": "You Were Never Really Here", "release_date": "2017-11-08", "original_language": "en", "original_title": "You Were Never Really Here", "genre_ids": [53], "backdrop_path": "/h4Lk8Cgfvlzz0hcnSJBTAOwNDia.jpg", "adult": false, "overview": "A traumatised veteran, unafraid of violence, tracks down missing girls for a living. When a job spins out of control, Joe's nightmares overtake him as a conspiracy is uncovered leading to what may be his death trip or his awakening.", "poster_path": "/ktPbjD6nYg5NxmeTt72Iqaw5GD0.jpg", "popularity": 16.619}, {"id": 17979, "video": false, "vote_count": 2815, "vote_average": 6.8, "title": "A Christmas Carol", "release_date": "2009-11-04", "original_language": "en", "original_title": "A Christmas Carol", "genre_ids": [16, 10751], "backdrop_path": "/GtwSStViUdhKGf0d7tCkR7alKV.jpg", "adult": false, "overview": "Miser Ebenezer Scrooge is awakened on Christmas Eve by spirits who reveal to him his own miserable existence, what opportunities he wasted in his youth, his current cruelties, and the dire fate that awaits him if he does not change his ways. Scrooge is faced with his own story of growing bitterness and meanness, and must decide what his own future will hold: death or redemption.", "poster_path": "/jeOCcjUAcSYleVwhsaKEPT4CYwF.jpg", "popularity": 19.945}, {"adult": false, "backdrop_path": "/jxWA2lDLidicmmDymnxlz53zAb9.jpg", "genre_ids": [16, 35, 10751], "id": 1267, "original_language": "en", "original_title": "Meet the Robinsons", "overview": "In this animated adventure, brilliant preteen inventor Lewis creates a memory scanner to retrieve his earliest recollections and find out why his mother gave him up for adoption. But when the villainous Bowler Hat Guy steals the machine, Lewis is ready to give up on his quest until the mysterious Wilbur Robinson shows up on the scene, whisking Lewis to the future to find the scanner and his mom.", "poster_path": "/oe7w9SxGmpSW1dlz5QaVVKWBEVz.jpg", "release_date": "2007-03-23", "title": "Meet the Robinsons", "video": false, "vote_average": 6.8, "vote_count": 1665, "popularity": 21.108}, {"id": 146015, "video": false, "vote_count": 598, "vote_average": 6.6, "title": "The Double", "release_date": "2014-04-04", "original_language": "en", "original_title": "The Double", "genre_ids": [18, 53], "backdrop_path": "/gSNqUnQSgYWxsFQ59xH077dW1Zx.jpg", "adult": false, "overview": "An awkward office drone becomes increasingly unhinged after a charismatic and confident look-alike takes a job at his workplace and seduces the woman he desires.", "poster_path": "/hN6bP9XWKHI8JhlZpk8ieF1lcyG.jpg", "popularity": 11.771}, {"id": 59436, "video": false, "vote_count": 4450, "vote_average": 7.5, "title": "Midnight in Paris", "release_date": "2011-05-11", "original_language": "en", "original_title": "Midnight in Paris", "genre_ids": [35, 14, 10749], "backdrop_path": "/7sIDEHnw51k7Him2fEtA70I1OBw.jpg", "adult": false, "overview": "A romantic comedy about a family traveling to the French capital for business. The party includes a young engaged couple forced to confront the illusion that a life different from their own is better.", "poster_path": "/xxSopLYATHXSepXcEaBh9Gazv6p.jpg", "popularity": 18.329}, {"id": 411728, "video": false, "vote_count": 342, "vote_average": 7.2, "title": "The Professor and the Madman", "release_date": "2019-03-07", "original_language": "en", "original_title": "The Professor and the Madman", "genre_ids": [18, 36, 9648, 53], "backdrop_path": "/zhNfM1CSQqJtIqelwlK9iKtSd9P.jpg", "adult": false, "overview": "Professor James Murray begins work compiling words for the first edition of the Oxford English Dictionary in the mid 19th century, and receives over 10,000 entries from a patient at Broadmoor Criminal Lunatic Asylum, Dr. William Minor.", "poster_path": "/gtGCDLhfjW96qVarwctnuTpGOtD.jpg", "popularity": 13.302}, {"adult": false, "backdrop_path": "/GRyynLqafMrLFMHqvfGdUweavA.jpg", "genre_ids": [27, 18, 14], "id": 628, "original_language": "en", "original_title": "Interview with the Vampire", "overview": "A vampire relates his epic life story of love, betrayal, loneliness, and dark hunger to an over-curious reporter.", "poster_path": "/hldXwwViSfHJS0kIJr07KBGmHJI.jpg", "release_date": "1994-11-11", "title": "Interview with the Vampire", "video": false, "vote_average": 7.3, "vote_count": 3231, "popularity": 21.064}, {"adult": false, "backdrop_path": "/iGAQZPnHLeXTaxZdKVUjLegWDom.jpg", "genre_ids": [35, 37], "id": 440161, "original_language": "en", "original_title": "The Sisters Brothers", "overview": "Oregon, 1851. Hermann Kermit Warm, a chemist and aspiring gold prospector, keeps a profitable secret that the Commodore wants to know, so he sends the Sisters brothers, two notorious assassins, to capture him on his way to California.", "poster_path": "/7Tl2nZ6uvmxwK14Skbf9VFHEHpX.jpg", "release_date": "2018-09-19", "title": "The Sisters Brothers", "video": false, "vote_average": 6.9, "vote_count": 895, "popularity": 13.758}, {"id": 656968, "video": false, "vote_count": 23, "vote_average": 7.0, "title": "A Christmas Carol", "release_date": "2019-12-19", "original_language": "en", "original_title": "A Christmas Carol", "genre_ids": [18, 14], "backdrop_path": "/ubLsCmv36zUUt2zxhFSowYFe5uF.jpg", "adult": false, "overview": "London, 1843. Ebenezer Scrooge, a bitter old man, despises the Christmas holiday. Over the course of Christmas Eve night he is visited by three ghosts to show him his past, present and future.", "poster_path": "/tKW48tnZKaHLBIxxgoAf9BIpyRv.jpg", "popularity": 7.061}, {"id": 20237, "video": false, "vote_count": 6, "vote_average": 6.8, "title": "The Adventures of Bullwhip Griffin", "release_date": "1967-03-08", "original_language": "en", "original_title": "The Adventures of Bullwhip Griffin", "genre_ids": [28, 35, 18, 37, 10751], "backdrop_path": "/bk0FRvHr36nmp0E8IO1h9MLkNIb.jpg", "adult": false, "overview": "Boston proper meets the Wild West as Roddy McDowall, Suzanne Pleshette, and Karl Malden star in a fish-out-of-water comedy for everyone! To restore his family's lost wealth, a young Boston lad stows away on a ship bound for the California Gold Rush. When their very proper butler gives chase, all roads lead to nonstop adventure, wild and woolly characters, and a lucky punch that leads to a bonanza of belly laughs!", "poster_path": "/cmCHhK8g7sOOTkqOVTbMqRdtrbI.jpg", "popularity": 18.424}], "total_pages": 19, "total_results": 374}, "recommendations": {"page": 1, "results": [], "total_pages": 1, "total_results": 0}, "credits": {"cast": [{"cast_id": 2, "character": "Frank Shawson", "credit_id": "52fe4aed9251416c750f2b6d", "gender": 2, "id": 23881, "name": "Timothy Busfield", "order": 0, "profile_path": "/8sQr5B1h0wJ4kOcTgwWyCDfzzYq.jpg"}, {"cast_id": 3, "character": "Susan Shawson", "credit_id": "52fe4aed9251416c750f2b71", "gender": 1, "id": 25837, "name": "Elisha Cuthbert", "order": 1, "profile_path": "/3CTK6oW2LfGVE7ICsKzeSxngp3H.jpg"}, {"cast_id": 4, "character": "Victoria Walker", "credit_id": "5513726d9251410462000f82", "gender": 1, "id": 1231029, "name": "Gabrielle Boni", "order": 2, "profile_path": "/dMHsoHqIwIlZdKaYLtr2wnC6LDB.jpg"}, {"cast_id": 5, "character": "Robert Walker", "credit_id": "55137284c3a3684103000512", "gender": 2, "id": 52401, "name": "Matthew Harbour", "order": 3, "profile_path": "/bX1GrGZMczHRMGnPXSp9meKRcQf.jpg"}, {"cast_id": 6, "character": "Nora Walker / Nina Shawson", "credit_id": "551372a2c3a3683f3900ac97", "gender": 1, "id": 197795, "name": "Lynne Adams", "order": 4, "profile_path": null}, {"cast_id": 7, "character": "Edward Ormondroyd", "credit_id": "551372be92514103e9002143", "gender": 2, "id": 1225492, "name": "Richard Jutras", "order": 5, "profile_path": "/fRS7nAiOHIvV0UtYyLzk4NAw8w.jpg"}, {"cast_id": 8, "character": "Mr. Reynolds", "credit_id": "551372de9251412be4000535", "gender": 2, "id": 29463, "name": "Michael Sinelnikoff", "order": 6, "profile_path": "/21gdKsg9LAnEYJLhvLdphYzADdm.jpg"}, {"cast_id": 9, "character": "Detective Gagin", "credit_id": "551372fcc3a368423900055a", "gender": 0, "id": 1445745, "name": "Charles Edwin Powell", "order": 7, "profile_path": "/79UVj3yEcBA4dzRvkUuCg0a3UJA.jpg"}, {"cast_id": 10, "character": "Cyrus Sweeney", "credit_id": "551373349251412cec000523", "gender": 0, "id": 1218114, "name": "Jean LeClerc", "order": 8, "profile_path": null}, {"cast_id": 11, "character": "Austin", "credit_id": "55137349925141045c0027c0", "gender": 0, "id": 1445746, "name": "Howard Rosentein", "order": 9, "profile_path": null}, {"cast_id": 12, "character": "Mrs. Clutchett", "credit_id": "551373649251410462000fa3", "gender": 1, "id": 190049, "name": "Jacklin Webb", "order": 10, "profile_path": null}, {"cast_id": 13, "character": "Bodoni", "credit_id": "55137378c3a368423900056b", "gender": 2, "id": 7014, "name": "Michel Perron", "order": 11, "profile_path": "/qHx0U6EattCgT6m46f9RXwRlTya.jpg"}, {"cast_id": 14, "character": "Mrs. McLernon", "credit_id": "55137395c3a3683f3900acb1", "gender": 0, "id": 1015448, "name": "Nadia Verrucci", "order": 12, "profile_path": "/b1r2lWrxcWBYpIMmevAA5DXrzjM.jpg"}, {"cast_id": 15, "character": "Alana", "credit_id": "551373a992514104450027ac", "gender": 0, "id": 1445747, "name": "Amy King", "order": 13, "profile_path": null}, {"cast_id": 16, "character": "Captain", "credit_id": "551373c0c3a3683f3900acb8", "gender": 0, "id": 1445748, "name": "Lincoln Ward", "order": 14, "profile_path": "/8hR01IxD641NCYXh0jDg1Hr4KEF.jpg"}], "crew": [{"credit_id": "52fe4aed9251416c750f2b69", "department": "Directing", "gender": 0, "id": 189655, "job": "Director", "name": "Jim Kaufman", "profile_path": null}]}}