{"adult": false, "backdrop_path": "/it2NxUY6kh2pubfgeI5dN5u43gW.jpg", "belongs_to_collection": null, "budget": 0, "genres": [{"id": 18, "name": "Drama"}], "homepage": null, "id": 143838, "imdb_id": "tt0023240", "original_language": "en", "original_title": "The Mouthpiece", "overview": "When a hot young prosecutor learns that a man he got convicted and executed was in fact innocent, he quits his DA job and becomes a defense attorney. He grows rich and powerful defending guilty racketeers, but eventually sees the errors of his ways.", "popularity": 3.631, "poster_path": "/lmVjrQjMxJE2SQpxJozrYOXUOFC.jpg", "production_companies": [{"id": 174, "logo_path": "/IuAlhI9eVC9Z8UQWOIDdWRKSEJ.png", "name": "Warner Bros. Pictures", "origin_country": "US"}], "production_countries": [{"iso_3166_1": "US", "name": "United States of America"}], "release_date": "1932-05-07", "revenue": 0, "runtime": 86, "spoken_languages": [{"iso_639_1": "en", "name": "English"}], "status": "Released", "tagline": "", "title": "The Mouthpiece", "video": false, "vote_average": 5.8, "vote_count": 4, "keywords": {"keywords": [{"id": 1449, "name": "underworld"}, {"id": 14783, "name": "false accusations"}, {"id": 156764, "name": "pre-code"}]}, "similar": {"page": 1, "results": [{"adult": false, "backdrop_path": "/j7hS3yybvvAd9V217IkZSOjkOvY.jpg", "genre_ids": [18, 28, 53, 80], "id": 832, "original_language": "de", "original_title": "M - Eine Stadt sucht einen M\u00f6rder", "overview": "In this classic German thriller, Hans Beckert, a serial killer who preys on children, becomes the focus of a massive Berlin police manhunt. Beckert's heinous crimes are so repellant and disruptive to city life that he is even targeted by others in the seedy underworld network. With both cops and criminals in pursuit, the murderer soon realizes that people are on his trail, sending him into a tense, panicked attempt to escape justice.", "poster_path": "/AqE126KXLcT3wwmeM3HtlKqyGze.jpg", "release_date": "1931-05-11", "title": "M", "video": false, "vote_average": 8.1, "vote_count": 999, "popularity": 14.976}, {"id": 3035, "video": false, "vote_count": 715, "vote_average": 7.5, "title": "Frankenstein", "release_date": "1931-11-21", "original_language": "en", "original_title": "Frankenstein", "genre_ids": [18, 27, 878], "backdrop_path": "/nwmG8pQQ1xFAPZruYNnrnld2KMC.jpg", "adult": false, "overview": "Dr Henry Frankenstein is obsessed with assembling a living being from parts of several exhumed corpses.", "poster_path": "/wB58wlBAr6484Wm6VyFDqSD8VOJ.jpg", "popularity": 24.454}, {"id": 205584, "video": false, "vote_count": 2544, "vote_average": 5.4, "title": "Gods of Egypt", "release_date": "2016-02-25", "original_language": "en", "original_title": "Gods of Egypt", "genre_ids": [28, 12, 14], "backdrop_path": "/xy74anT8ZGhUIGVoalnHrmRDHbQ.jpg", "adult": false, "overview": "A common thief joins a mythical god on a quest through Egypt.", "poster_path": "/uPqAW07bGoljf3cmT5gecdOvVol.jpg", "popularity": 24.848}, {"adult": false, "backdrop_path": "/19qAk3bQZ6ulspbwhPw1A0bNpii.jpg", "genre_ids": [80, 27, 53], "id": 73861, "original_language": "sr", "original_title": "Srpski film", "overview": "Milos, a retired porn star, leads a normal family life trying to make ends meet. Presented with the opportunity of a lifetime to financially support his family for the rest of their lives, Milos must participate in one last mysterious film. From then on, Milos is drawn into a maelstrom of unbelievable cruelty and mayhem.", "poster_path": "/iB3ynCghwG63MrViBC6YyPzUIAn.jpg", "release_date": "2010-06-16", "title": "A Serbian Film", "video": false, "vote_average": 5.5, "vote_count": 898, "popularity": 15.06}, {"id": 24, "video": false, "vote_count": 10671, "vote_average": 7.9, "title": "Kill Bill: Vol. 1", "release_date": "2003-10-10", "original_language": "en", "original_title": "Kill Bill: Vol. 1", "genre_ids": [28, 80], "backdrop_path": "/kkS8PKa8c134vXsj2fQkNqOaCXU.jpg", "adult": false, "overview": "An assassin is shot by her ruthless employer, Bill, and other members of their assassination circle \u2013 but she lives to plot her vengeance.", "poster_path": "/v7TaX8kXMXs5yFFGR41guUDNcnB.jpg", "popularity": 37.008}, {"id": 58431, "video": false, "vote_count": 1300, "vote_average": 5.8, "title": "Pride and Prejudice and Zombies", "release_date": "2016-02-04", "original_language": "en", "original_title": "Pride and Prejudice and Zombies", "genre_ids": [35, 27, 53, 10749], "backdrop_path": "/z6gSLTHsAgqlOwID8jMHfFgeufS.jpg", "adult": false, "overview": "A zombie outbreak has fallen upon the land in this reimagining of Jane Austen\u2019s classic tale of the tangled relationships between lovers from different social classes in 19th century England. Feisty heroine Elizabeth Bennet (Lily James) is a master of martial arts and weaponry and the handsome Mr. Darcy (Sam Riley) is a fierce zombie killer, yet the epitome of upper class prejudice. As the zombie outbreak intensifies, they must swallow their pride and join forces on the blood-soaked battlefield in order to conquer the undead once and for all.", "poster_path": "/jsJlOhVHiz1xXr36616EI8tJ4b2.jpg", "popularity": 15.305}, {"id": 11619, "video": false, "vote_count": 2214, "vote_average": 6.1, "title": "Flushed Away", "release_date": "2006-10-22", "original_language": "en", "original_title": "Flushed Away", "genre_ids": [12, 16, 35, 10751], "backdrop_path": "/7gvhqD2l8T6qKlD0ec4nysh077y.jpg", "adult": false, "overview": "London high-society mouse, Roddy is flushed down the toilet by Sid, a common sewer rat. Hang on for a madcap adventure deep in the sewer bowels of Ratropolis, where Roddy meets the resourceful Rita, the rodent-hating Toad and his faithful thugs, Spike and Whitey.", "poster_path": "/oCdPDusnJvIZN6OpaF2Yj7211w.jpg", "popularity": 22.035}, {"id": 116, "video": false, "vote_count": 2412, "vote_average": 7.3, "title": "Match Point", "release_date": "2005-10-26", "original_language": "en", "original_title": "Match Point", "genre_ids": [80, 18, 53, 10749], "backdrop_path": "/40gCaXoyT75wuLbz1t5BwpLm0w4.jpg", "adult": false, "overview": "Match Point is Woody Allen\u2019s satire of the British High Society and the ambition of a young tennis instructor to enter into it. Yet when he must decide between two women - one assuring him his place in high society, and the other that would take him far from it - palms start to sweat and a dark psychological match in his head begins.", "poster_path": "/zuSFZEbSs7hj9lfeu2k7a4bPxdE.jpg", "popularity": 13.645}, {"id": 343611, "video": false, "vote_count": 3003, "vote_average": 5.6, "title": "Jack Reacher: Never Go Back", "release_date": "2016-10-19", "original_language": "en", "original_title": "Jack Reacher: Never Go Back", "genre_ids": [28, 53], "backdrop_path": "/nDS8rddEK74HfAwCC5CoT6Cwzlt.jpg", "adult": false, "overview": "Jack Reacher must uncover the truth behind a major government conspiracy in order to clear his name. On the run as a fugitive from the law, Reacher uncovers a potential secret from his past that could change his life forever.", "poster_path": "/IfB9hy4JH1eH6HEfIgIGORXi5h.jpg", "popularity": 17.058}, {"id": 12437, "video": false, "vote_count": 2335, "vote_average": 6.4, "title": "Underworld: Rise of the Lycans", "release_date": "2009-01-22", "original_language": "en", "original_title": "Underworld: Rise of the Lycans", "genre_ids": [28, 12, 14, 878, 53], "backdrop_path": "/gVfnoiCJBdv2SN7poIbU7eyNVq1.jpg", "adult": false, "overview": "A prequel to the first two Underworld films, this fantasy explains the origins of the feud between the Vampires and the Lycans. Aided by his secret love, Sonja, courageous Lucian leads the Lycans in battle against brutal Vampire king Viktor. Determined to break the king's enslavement of his people, Lucian faces off against the Death Dealer army in a bid for Lycan independence.", "poster_path": "/hZtK6fkusSKzGc0f7yQ2syo14Ze.jpg", "popularity": 15.915}, {"id": 9003, "video": false, "vote_count": 1081, "vote_average": 7.0, "title": "Hellraiser", "release_date": "1987-09-11", "original_language": "en", "original_title": "Hellraiser", "genre_ids": [27], "backdrop_path": "/rKjE17ncAGNzeImNWbdGTimzjtk.jpg", "adult": false, "overview": "An unfaithful wife encounters the zombie of her dead lover while the demonic cenobites are pursuing him after he escaped their sadomasochistic underworld.", "poster_path": "/4nfAhOTlfZUHNorHJXEib7GYFpp.jpg", "popularity": 13.674}, {"id": 57165, "video": false, "vote_count": 2659, "vote_average": 5.6, "title": "Wrath of the Titans", "release_date": "2012-03-27", "original_language": "en", "original_title": "Wrath of the Titans", "genre_ids": [12, 14], "backdrop_path": "/jJeFbbsf6Vh50IRzOtvcQb7YKty.jpg", "adult": false, "overview": "A decade after his heroic defeat of the monstrous Kraken, Perseus-the demigod son of Zeus-is attempting to live a quieter life as a village fisherman and the sole parent to his 10-year old son, Helius. Meanwhile, a struggle for supremacy rages between the gods and the Titans. Dangerously weakened by humanity's lack of devotion, the gods are losing control of the imprisoned Titans and their ferocious leader, Kronos, father of the long-ruling brothers Zeus, Hades and Poseidon.", "poster_path": "/Albfq3ziSCQVyh5PzMSsFmmgHmy.jpg", "popularity": 17.666}, {"id": 184, "video": false, "vote_count": 3542, "vote_average": 7.3, "title": "Jackie Brown", "release_date": "1997-12-24", "original_language": "en", "original_title": "Jackie Brown", "genre_ids": [35, 80, 18, 53], "backdrop_path": "/lXnsC7wRDLccJR3Ju4nInvLiKO.jpg", "adult": false, "overview": "Jackie Brown is a flight attendant who gets caught in the middle of smuggling cash into the country for her gunrunner boss. When the cops try to use Jackie to get to her boss, she hatches a plan\u2014with help from a bail bondsman\u2014to keep the money for herself. Based on Elmore Leonard's novel \u201cRum Punch\u201d.", "poster_path": "/4XVPYOdMAizdNMSwS0SK3fPJcvR.jpg", "popularity": 22.368}, {"adult": false, "backdrop_path": "/46y6EvnDveRFwtztyHVS0y2DipU.jpg", "genre_ids": [18, 53, 28], "id": 1372, "original_language": "en", "original_title": "Blood Diamond", "overview": "An ex-mercenary turned smuggler. A Mende fisherman. Amid the explosive civil war overtaking 1999 Sierra Leone, these men join for two desperate missions: recovering a rare pink diamond of immense value and rescuing the fisherman's son conscripted as a child soldier into the brutal rebel forces ripping a swath of torture and bloodshed countrywide.", "poster_path": "/wRamTzV6udKaMXrspxqOuo02zk0.jpg", "release_date": "2006-12-07", "title": "Blood Diamond", "video": false, "vote_average": 7.5, "vote_count": 4323, "popularity": 18.56}, {"adult": false, "backdrop_path": "/wEo4UtBAWdB4aOmQ9wRjI1aS7Dt.jpg", "genre_ids": [35, 18], "id": 10098, "original_language": "en", "original_title": "The Kid", "overview": "A tramp cares for a boy after he's abandoned as a newborn by his mother. Later the mother has a change of heart and aches to be reunited with her son.", "poster_path": "/drgMcyTsySQBnUPGaBThCHGdlWT.jpg", "release_date": "1921-02-06", "title": "The Kid", "video": false, "vote_average": 8.3, "vote_count": 976, "popularity": 12.296}, {"id": 86838, "video": false, "vote_count": 2334, "vote_average": 6.8, "title": "Seven Psychopaths", "release_date": "2012-09-07", "original_language": "en", "original_title": "Seven Psychopaths", "genre_ids": [35, 80], "backdrop_path": "/4H6vE7fvB0gvaaSRJyguUu67FvF.jpg", "adult": false, "overview": "A struggling screenwriter inadvertently becomes entangled in the Los Angeles criminal underworld after his oddball friends kidnap a gangster's beloved Shih Tzu.", "poster_path": "/3Zs6Ne6QAEOzQRz85VToH8ml6ab.jpg", "popularity": 13.468}, {"adult": false, "backdrop_path": "/wfFTStTBWo3zIciBW4Eob3sarSz.jpg", "genre_ids": [35, 10749], "id": 3078, "original_language": "en", "original_title": "It Happened One Night", "overview": "A renegade reporter and a crazy young heiress meet on a bus heading for New York, and end up stuck with each other when the bus leaves them behind at one of the stops.", "poster_path": "/k63JqnFvkIGWGhjsqRiksZw2OSs.jpg", "release_date": "1934-02-22", "title": "It Happened One Night", "video": false, "vote_average": 7.9, "vote_count": 563, "popularity": 13.497}, {"id": 397567, "video": false, "vote_count": 142, "vote_average": 7.7, "title": "Along with the Gods: The Two Worlds", "release_date": "2017-12-14", "original_language": "ko", "original_title": "\uc2e0\uacfc\ud568\uaed8-\uc8c4\uc640 \ubc8c", "genre_ids": [28, 18, 14], "backdrop_path": "/wyv2Y9vXYJwJzF6cNVuVwVOsOUj.jpg", "adult": false, "overview": "Having died unexpectedly, firefighter Ja-hong is taken to the afterlife by 3 afterlife guardians. Only when he passes 7 trials over 49 days and proves he was innocent in human life, he\u2019s able to reincarnate, and his 3 afterlife guardians are by his side to defend him in trial.", "poster_path": "/gJSvIsI6oQfFim0PGyuuiCYfqKs.jpg", "popularity": 11.819}, {"id": 877, "video": false, "vote_count": 222, "vote_average": 7.6, "title": "Scarface", "release_date": "1932-04-09", "original_language": "en", "original_title": "Scarface", "genre_ids": [28, 80, 18, 53], "backdrop_path": "/fX1DFPMZYsRG17BmMPJAKUaBZEz.jpg", "adult": false, "overview": "A murderous thug shoots his way to the top of the mobs while trying to protect his sister from the criminal life.", "poster_path": "/ai9WOjgNRXo42D0GJIIdi7toZ5x.jpg", "popularity": 14.434}, {"id": 138, "video": false, "vote_count": 542, "vote_average": 7.2, "title": "Dracula", "release_date": "1931-02-12", "original_language": "en", "original_title": "Dracula", "genre_ids": [14, 27], "backdrop_path": "/ouPAQD01ZOsdsZTNgxJ0J3mo6qK.jpg", "adult": false, "overview": "The legend of vampire Count Dracula begins here with this original 1931 Dracula film starring Bela Lugosi.", "poster_path": "/hA9kQrIwDHJKl1pt8GpJdDnBzim.jpg", "popularity": 11.146}], "total_pages": 55, "total_results": 1088}, "recommendations": {"page": 1, "results": [{"adult": false, "backdrop_path": "/hvkZDEV0BriI9ftwZoeC9mPQd6B.jpg", "genre_ids": [18], "id": 156320, "original_language": "en", "original_title": "Our Blushing Brides", "overview": "Three department store girls--Connie, Franky, and Jerry--share an apartment on West 91st Street in New York City. Each earns little more than 20 dollars per week. Jerry is the sensible one, but the others throw themselves at amoral rich men in an attempt to hook one and better themselves. They end up being hurt and disappointed despite Jerry's attempts to warn them.", "poster_path": "/b8TVe7RkB2ZHgJdGINTG3hp9KAH.jpg", "release_date": "1930-07-19", "title": "Our Blushing Brides", "video": false, "vote_average": 6.0, "vote_count": 4, "popularity": 2.508}, {"adult": false, "backdrop_path": "/kQSyHdO0XxO7wqRAwnDv0qyqYaC.jpg", "genre_ids": [18, 36, 10749], "id": 148675, "original_language": "en", "original_title": "Suez", "overview": "Ferdinand de Lesseps, disappointed in love, is sent as a junior diplomat to the Isthmus of Suez, and realizes it's just the place for a canal.", "poster_path": "/cBMgf5cIBIYuHvCuOVQN7TXDECS.jpg", "release_date": "1938-10-28", "title": "Suez", "video": false, "vote_average": 4.2, "vote_count": 5, "popularity": 4.723}, {"adult": false, "backdrop_path": "/793yeVHLIY3LRTuleSjQWPMZR8.jpg", "genre_ids": [18, 10749], "id": 109549, "original_language": "en", "original_title": "I Loved a Woman", "overview": "The son of a ruthless meatpacking king goes through a number of changes in ideals and motivations as he reluctantly inherits the mantle and falls in love.", "poster_path": "/zTTSe4j7Zpe2TXCsFH421jxUjbm.jpg", "release_date": "1933-09-23", "title": "I Loved a Woman", "video": false, "vote_average": 6.0, "vote_count": 4, "popularity": 3.094}, {"adult": false, "backdrop_path": "/dxU57Yo5mJPsX5jWGxNyreoaEFv.jpg", "genre_ids": [12, 80], "id": 28755, "original_language": "en", "original_title": "Framed", "overview": "Rose Manning swears revenge for the unjust slaying of her father by Inspector McArthur. Five years later, as a nightclub hostess, she is sought by Chuck Gaines, secretly a bootlegger, but she centers her attentions on young Jimmy Carter, who, she learns, is the son of McArthur.", "poster_path": "/hBmGZUcAMVP4P7nwilBQIJNgbUZ.jpg", "release_date": "1930-03-16", "title": "Framed", "video": false, "vote_average": 6.3, "vote_count": 3, "popularity": 2.736}, {"adult": false, "backdrop_path": "/8lmRgADYhFd0FxF2yMKNusUEi7E.jpg", "genre_ids": [10749, 18], "id": 44668, "original_language": "en", "original_title": "She Had to Say Yes", "overview": "Florence Denny (Loretta Young) is Daniel Drew's (Lyle Talbot) girlfriend and secretary at a clothing manufacturer during the Great Depression. In order boost sales they have been using professional female entertainers to keep their clients very happy, but the clients are getting bored of them. Daniel convinces management to replace the professionals with \"volunteers\" from the pool of stenographers. Inevitably some clients expectations are greater than their \"dates\", boyfriends become unhappy and the \"voluntary\" duty becomes less so over time.  At first, Daniel prevents Florence from being a volunteer but eventually the prospect of a bonus becomes too great and he encourages her to volunteer. Afterwards, Daniel considers Florence as a loose woman.", "poster_path": "/tGRK9wdVkaW2j5vlE5B5MxsjGA6.jpg", "release_date": "1933-07-15", "title": "She Had to Say Yes", "video": false, "vote_average": 7.0, "vote_count": 3, "popularity": 3.229}, {"adult": false, "backdrop_path": "/c4zdCoVAHxI8U5rEnPvgEQwlTmv.jpg", "genre_ids": [80], "id": 46490, "original_language": "en", "original_title": "For You I Die", "overview": "A convict is forced to participate in a prison break even though he only has a year left on his sentence.", "poster_path": "/kYBAfozroCambQhuDdiEVUASWPW.jpg", "release_date": "1947-12-17", "title": "For You I Die", "video": false, "vote_average": 6.0, "vote_count": 3, "popularity": 2.369}], "total_pages": 1, "total_results": 6}, "credits": {"cast": [{"cast_id": 2, "character": "Vincent 'Vince' Day", "credit_id": "52fe4b199251416c750f8301", "gender": 2, "id": 76974, "name": "Warren William", "order": 0, "profile_path": "/7SYBx7c5q9ftNtOSjEGBaIrjNJS.jpg"}, {"cast_id": 3, "character": "Celia Farraday", "credit_id": "52fe4b199251416c750f8305", "gender": 1, "id": 100789, "name": "Sidney Fox", "order": 1, "profile_path": "/2Pl6GPyFXa7XZjNCwHJwZhIXviO.jpg"}, {"cast_id": 4, "character": "Miss Hickey, Day's Secretary", "credit_id": "52fe4b199251416c750f8309", "gender": 1, "id": 74874, "name": "Aline MacMahon", "order": 2, "profile_path": "/pFVUxlF3AUe6hnfTkJWXpK2LcUa.jpg"}, {"cast_id": 5, "character": "Mr. Barton", "credit_id": "52fe4b199251416c750f830d", "gender": 2, "id": 2009, "name": "John Wray", "order": 3, "profile_path": "/le1ogQo0KraHo2ihAOlSHGJ4Exi.jpg"}, {"cast_id": 6, "character": "Elaine", "credit_id": "52fe4b199251416c750f8311", "gender": 1, "id": 588989, "name": "Mae Madison", "order": 4, "profile_path": "/ik2DEGjFILoaatIjAZ5gi5fuAS0.jpg"}, {"cast_id": 7, "character": "J.B. Roscoe", "credit_id": "52fe4b199251416c750f8315", "gender": 2, "id": 115370, "name": "Ralph Ince", "order": 5, "profile_path": "/kJ0JwBGMxMqZWmQAOQkdZhyBlkc.jpg"}, {"cast_id": 8, "character": "E.A. Smith", "credit_id": "52fe4b199251416c750f8319", "gender": 2, "id": 99375, "name": "Morgan Wallace", "order": 6, "profile_path": "/sJyB7G2YA64IxA8iiGIRZCYrvTp.jpg"}, {"cast_id": 9, "character": "Bartender", "credit_id": "52fe4b199251416c750f831d", "gender": 2, "id": 30002, "name": "Guy Kibbee", "order": 7, "profile_path": "/pqWHnvlW3oDUTHl8KzgBeHJwgQ0.jpg"}, {"cast_id": 10, "character": "Tony Rocco (as J. Carroll Naish)", "credit_id": "52fe4b199251416c750f8321", "gender": 2, "id": 30686, "name": "J. Carrol Naish", "order": 8, "profile_path": "/iHUIlLxzgkZSMvapdxLhBZe82B.jpg"}, {"cast_id": 14, "character": "District Attorney Forbes", "credit_id": "52fe4b199251416c750f8337", "gender": 2, "id": 590550, "name": "Walter Walker", "order": 9, "profile_path": "/9RgAFUeUDjxnUsa4Y2dbGqpqH6E.jpg"}, {"cast_id": 15, "character": "Mr. Pondapolis", "credit_id": "52fe4b199251416c750f833b", "gender": 2, "id": 29762, "name": "Stanley Fields", "order": 10, "profile_path": "/a7gQDvBBg6S2qN8cQTeclTLGX49.jpg"}, {"cast_id": 16, "character": "Thompson, Day's Butler", "credit_id": "52fe4b199251416c750f833f", "gender": 2, "id": 120537, "name": "Murray Kinnell", "order": 11, "profile_path": "/l4xAQ3u7brxZCFFAx8jVG0iaNfm.jpg"}, {"cast_id": 17, "character": "Miss DeVere", "credit_id": "52fe4b199251416c750f8343", "gender": 1, "id": 104800, "name": "Noel Francis", "order": 12, "profile_path": "/yaVLRacYQQSMmpM9rN5UA4Bds4y.jpg"}, {"cast_id": 18, "character": "John 'Johnny' Morris", "credit_id": "52fe4b199251416c750f8347", "gender": 2, "id": 96068, "name": "William Janney", "order": 13, "profile_path": "/wFtUJrgwG2eIrMaqSRKaevMICKM.jpg"}, {"cast_id": 19, "character": "Judge, Rocco Trial", "credit_id": "52fe4b199251416c750f834b", "gender": 2, "id": 14969, "name": "Berton Churchill", "order": 14, "profile_path": "/rZJl9ZZPc9V7jSp2QTck8wKIaua.jpg"}, {"cast_id": 20, "character": "Detective Arresting Garland", "credit_id": "52fe4b199251416c750f834f", "gender": 2, "id": 1075172, "name": "Davison Clark", "order": 15, "profile_path": "/lj3c9C80RZvFKTR3ToxnSDWv5M.jpg"}, {"cast_id": 21, "character": "Office Worker", "credit_id": "52fe4b199251416c750f8353", "gender": 2, "id": 120520, "name": "Kenne Duncan", "order": 16, "profile_path": "/jDYNqRMAfRl5fR1t66InT2FJxoa.jpg"}, {"cast_id": 22, "character": "Crying Prospective Client", "credit_id": "52fe4b199251416c750f8357", "gender": 1, "id": 134807, "name": "Helena Phillips Evans", "order": 17, "profile_path": null}, {"cast_id": 23, "character": "Chinese Waiter", "credit_id": "52fe4b199251416c750f835b", "gender": 2, "id": 134255, "name": "Willie Fung", "order": 18, "profile_path": "/ksRwjuntSgScLgam0Ir0jkuPgjJ.jpg"}, {"cast_id": 24, "character": "Platinum Blonde at Party", "credit_id": "52fe4b199251416c750f835f", "gender": 1, "id": 14027, "name": "Paulette Goddard", "order": 19, "profile_path": "/8MuOzgtsI1PQUIlj2e2Y1UFLpTc.jpg"}, {"cast_id": 25, "character": "One of J.B.'s Henchman", "credit_id": "52fe4b199251416c750f8363", "gender": 0, "id": 136218, "name": "Harvey Lewis", "order": 20, "profile_path": null}, {"cast_id": 26, "character": "Prison Clerk", "credit_id": "52fe4b199251416c750f8367", "gender": 2, "id": 105810, "name": "Selmer Jackson", "order": 21, "profile_path": "/tXnCgrzw6da4jKKzsHMGrHZwC3M.jpg"}, {"cast_id": 27, "character": "Cab Driver", "credit_id": "52fe4b199251416c750f836b", "gender": 2, "id": 13825, "name": "John Kelly", "order": 22, "profile_path": "/iu1SLv1ePBPo6cukTWocEPn286q.jpg"}, {"cast_id": 28, "character": "Joe Garland", "credit_id": "52fe4b199251416c750f836f", "gender": 2, "id": 99347, "name": "Jack La Rue", "order": 23, "profile_path": "/hWOwpkNevqBwp2mrjMCrLrxvPsi.jpg"}, {"cast_id": 29, "character": "Hotel Desk Clerk", "credit_id": "52fe4b199251416c750f8373", "gender": 2, "id": 29579, "name": "Charles Lane", "order": 24, "profile_path": "/wu5fTupk5atyJlCsHhXPGcdf8Mg.jpg"}, {"cast_id": 30, "character": "One of J.B.'s Henchmen", "credit_id": "52fe4b199251416c750f8377", "gender": 2, "id": 131545, "name": "Pedro Regas", "order": 25, "profile_path": null}, {"cast_id": 31, "character": "The Gardener-Murderer", "credit_id": "52fe4b199251416c750f837b", "gender": 0, "id": 592841, "name": "Hector Sarno", "order": 26, "profile_path": null}, {"cast_id": 32, "character": "Robert Wilson", "credit_id": "52fe4b199251416c750f837f", "gender": 2, "id": 89660, "name": "Emerson Treacy", "order": 27, "profile_path": null}, {"cast_id": 33, "character": "Gladys", "credit_id": "52fe4b199251416c750f8383", "gender": 1, "id": 128360, "name": "Polly Walters", "order": 28, "profile_path": null}, {"cast_id": 34, "character": "Maitre d'", "credit_id": "52fe4b199251416c750f8387", "gender": 2, "id": 34128, "name": "Eric Wilton", "order": 29, "profile_path": null}], "crew": [{"credit_id": "52fe4b199251416c750f82fd", "department": "Directing", "gender": 2, "id": 1001023, "job": "Director", "name": "James Flood", "profile_path": null}, {"credit_id": "52fe4b199251416c750f8327", "department": "Writing", "gender": 0, "id": 139312, "job": "Theatre Play", "name": "Frank J. Collins", "profile_path": null}, {"credit_id": "52fe4b199251416c750f832d", "department": "Writing", "gender": 2, "id": 128357, "job": "Screenplay", "name": "Joseph Jackson", "profile_path": null}, {"credit_id": "52fe4b199251416c750f8333", "department": "Writing", "gender": 0, "id": 32994, "job": "Adaptation", "name": "Earl Baldwin", "profile_path": null}, {"credit_id": "56e78402925141091a00102e", "department": "Directing", "gender": 2, "id": 89914, "job": "Director", "name": "Elliott Nugent", "profile_path": "/2VpK69oI5uOSnk4Ei4gv30K5Bkm.jpg"}, {"credit_id": "56e78413925141091d00101c", "department": "Camera", "gender": 2, "id": 96052, "job": "Director of Photography", "name": "Barney McGill", "profile_path": null}, {"credit_id": "56e7841c92514109170010eb", "department": "Editing", "gender": 2, "id": 18800, "job": "Editor", "name": "George Amy", "profile_path": null}, {"credit_id": "56e78424c3a368408f00119b", "department": "Art", "gender": 2, "id": 33020, "job": "Art Direction", "name": "Esdras Hartley", "profile_path": null}, {"credit_id": "56e7842cc3a368409900100d", "department": "Costume & Make-Up", "gender": 2, "id": 14650, "job": "Costume Design", "name": "Earl Luick", "profile_path": null}, {"credit_id": "56e78436925141091a001039", "department": "Directing", "gender": 0, "id": 1555845, "job": "Assistant Director", "name": "William H. Cannon", "profile_path": null}]}}