{"adult": false, "backdrop_path": null, "belongs_to_collection": null, "budget": 0, "genres": [{"id": 35, "name": "Comedy"}, {"id": 18, "name": "Drama"}], "homepage": null, "id": 144190, "imdb_id": "tt0105222", "original_language": "en", "original_title": "Rebecca's Daughters", "overview": "The Rebecca riots took place in the rural parts of west Wales, including Pembrokeshire, Cardiganshire, and Carmarthenshire, around 1839-1843.\r Based on a script that Dylan Thomas wrote for Gainsborough Pictures in 1948, \"Rebecca's Daughters\" explores the tension between the working and ruling classes in 19th century Wales. Young aristocrat Anthony Raine returns home from India to find the farmers of Pembrokeshire protesting about the rates of a tollgate run by something called \"The Whitman Turnpike Trust\", headed by the drunken Lord Sarn (Peter O'Toole).  So Raine dresses up as a woman, calls himself Rebecca, and leads the common people to victory over their masters.", "popularity": 0.84, "poster_path": "/oV4jjkjcoWD5fUX0l25cEgr2KOV.jpg", "production_companies": [], "production_countries": [], "release_date": "1992-03-05", "revenue": 0, "runtime": 95, "spoken_languages": [{"iso_639_1": "en", "name": "English"}], "status": "Released", "tagline": "\"Possess the gates of those who hate them\"", "title": "Rebecca's Daughters", "video": false, "vote_average": 6.0, "vote_count": 1, "keywords": {"keywords": [{"id": 1209, "name": "wales"}, {"id": 2187, "name": "riot"}, {"id": 12090, "name": "cross dressing"}]}, "similar": {"page": 1, "results": [{"adult": false, "backdrop_path": "/a8xpxCnvqKyshdrDNFGs6oy4r8N.jpg", "genre_ids": [18, 10749], "id": 1278, "original_language": "en", "original_title": "The Dreamers", "overview": "A young American studying in Paris in 1968 strikes up a friendship with a French brother and sister. Set against the background of the '68 Paris student riots.", "poster_path": "/7ABcfmXQZeCXl5sNrDuLS1URMPN.jpg", "release_date": "2003-09-01", "title": "The Dreamers", "video": false, "vote_average": 7.2, "vote_count": 1671, "popularity": 15.849}, {"adult": false, "backdrop_path": "/74Jh5SIWnKDwtusPfDP51EeCFHt.jpg", "genre_ids": [35, 10749], "id": 9576, "original_language": "en", "original_title": "Tootsie", "overview": "When struggling, out of work actor Michael Dorsey secretly adopts a female alter ego - Dorothy Michaels - in order to land a part in a daytime drama, he unwittingly becomes a feminist icon and ends up in a romantic pickle.", "poster_path": "/ngyCzZwb9y5sMUCig5JQT4Y33Q.jpg", "release_date": "1982-12-16", "title": "Tootsie", "video": false, "vote_average": 7.2, "vote_count": 915, "popularity": 9.882}, {"id": 283366, "video": false, "vote_count": 6766, "vote_average": 6.7, "title": "Miss Peregrine's Home for Peculiar Children", "release_date": "2016-09-28", "original_language": "en", "original_title": "Miss Peregrine's Home for Peculiar Children", "genre_ids": [12, 18, 14, 10751], "backdrop_path": "/iiWLJMRaEjaBf4WFmKAktn0IfbF.jpg", "adult": false, "overview": "A teenager finds himself transported to an island where he must help protect a group of orphans with special powers from creatures intent on destroying them.", "poster_path": "/AvekzUdI8HZnImdQulmTTmAZXrC.jpg", "popularity": 28.505}, {"id": 381283, "video": false, "vote_count": 3983, "vote_average": 7.0, "title": "mother!", "release_date": "2017-09-13", "original_language": "en", "original_title": "mother!", "genre_ids": [18, 27, 9648], "backdrop_path": "/uuQpQ8VDOtVL2IO4y2pR58odkS5.jpg", "adult": false, "overview": "A couple's relationship is tested when uninvited guests arrive at their home, disrupting their tranquil existence.", "poster_path": "/2yOKarmL8B4oXaLXUdHu882SUbu.jpg", "popularity": 23.072}, {"id": 239, "video": false, "vote_count": 1788, "vote_average": 8.2, "title": "Some Like It Hot", "release_date": "1959-03-19", "original_language": "en", "original_title": "Some Like It Hot", "genre_ids": [35, 10749], "backdrop_path": "/m7v4Qi1y7UFgMZn2sIWoTXDpYSu.jpg", "adult": false, "overview": "Two musicians witness a mob hit and struggle to find a way out of the city before they are found by the gangsters. Their only opportunity is to join an all-girl band as they leave on a tour. To make their getaway they must first disguise themselves as women, then keep their identities secret and deal with the problems this brings - such as an attractive bandmate and a very determined suitor.", "poster_path": "/pxc9EFCMYkItESpqqrI783yl8Gh.jpg", "popularity": 24.474}, {"adult": false, "backdrop_path": "/wlD4NgIp2mVyA3LeNqE39Lwx01J.jpg", "genre_ids": [53, 28, 18, 10752], "id": 252178, "original_language": "en", "original_title": "'71", "overview": "A young British soldier must find his way back to safety after his unit accidentally abandons him during a riot in the streets of Belfast.", "poster_path": "/b8dmfG84peFdouN2N8wOsiI9WHt.jpg", "release_date": "2014-10-10", "title": "'71", "video": false, "vote_average": 6.8, "vote_count": 687, "popularity": 10.144}, {"adult": false, "backdrop_path": "/1kcxHvOK57OmmTTDk0hajhybClQ.jpg", "genre_ids": [27, 53], "id": 82505, "original_language": "en", "original_title": "House at the End of the Street", "overview": "A mother and daughter move to a new town and find themselves living next door to a house where a young girl murdered her parents. When the daughter befriends the surviving son, she learns the story is far from over.", "poster_path": "/g33AdUWEVjG9ib15bganWBJs4yC.jpg", "release_date": "2012-09-21", "title": "House at the End of the Street", "video": false, "vote_average": 5.8, "vote_count": 1140, "popularity": 15.15}, {"id": 13666, "video": false, "vote_count": 245, "vote_average": 7.1, "title": "The Wolf Man", "release_date": "1941-12-12", "original_language": "en", "original_title": "The Wolf Man", "genre_ids": [18, 27], "backdrop_path": "/zDPx4cDT89UFja5DEv7RWzTmJUv.jpg", "adult": false, "overview": "After his brother's death, Larry Talbot returns home to his father and the family estate. Events soon take a turn for the worse when Larry is bitten by a werewolf.", "poster_path": "/vG8fu5syTtQLzK1hQXyi3ugOPNF.jpg", "popularity": 11.92}, {"id": 25941, "video": false, "vote_count": 550, "vote_average": 6.8, "title": "Harry Brown", "release_date": "2009-11-11", "original_language": "en", "original_title": "Harry Brown", "genre_ids": [28, 80, 18, 53], "backdrop_path": "/szj3uqOGDu8Uwvwo0Si42BCxI04.jpg", "adult": false, "overview": "An elderly ex-serviceman and widower looks to avenge his best friend's murder by doling out his own form of justice.", "poster_path": "/68V1ClrCT7ik7UDiAkIDliRaAXf.jpg", "popularity": 10.372}, {"id": 1934, "video": false, "vote_count": 1910, "vote_average": 6.9, "title": "Shakespeare in Love", "release_date": "1998-12-11", "original_language": "en", "original_title": "Shakespeare in Love", "genre_ids": [35, 36, 10749], "backdrop_path": "/qvhpBNfb53wLnEbVnmC5GNGFRHO.jpg", "adult": false, "overview": "Young Shakespeare is forced to stage his latest comedy, \"Romeo and Ethel, the Pirate's Daughter,\" before it's even written. When a lovely noblewoman auditions for a role, they fall into forbidden love -- and his play finds a new life (and title). As their relationship progresses, Shakespeare's comedy soon transforms into tragedy.", "poster_path": "/sAN5jedynbs3pa3ww0UXQ1k0lRF.jpg", "popularity": 13.21}, {"id": 4688, "video": false, "vote_count": 869, "vote_average": 7.2, "title": "Across the Universe", "release_date": "2007-09-14", "original_language": "en", "original_title": "Across the Universe", "genre_ids": [18, 14, 10749], "backdrop_path": "/1ZdfkJiul04VyAcN9WHqawMPlz6.jpg", "adult": false, "overview": "When young dockworker Jude leaves Liverpool to find his estranged father in America, he is swept up by the waves of change that are re-shaping the nation. Jude falls in love with Lucy, a rich but sheltered American girl who joins the growing anti-war movement in New York's Greenwich Village. As the body count in Vietnam rises, political tensions at home spiral out of control and the star-crossed lovers find themselves in a psychedelic world gone mad.", "poster_path": "/447c8Te3DXC46rQvDEixKGO4dS6.jpg", "popularity": 14.798}, {"id": 408873, "video": false, "vote_count": 74, "vote_average": 6.1, "title": "Kings", "release_date": "2017-11-11", "original_language": "en", "original_title": "Kings", "genre_ids": [80, 18, 10749], "backdrop_path": "/qTRg8UGaf4KZDleEKVGomv2T4tk.jpg", "adult": false, "overview": "A foster family in South Central a few weeks before the city erupts in violence following the verdict of the Rodney King trial in 1992.", "poster_path": "/sEQIshX0y64hYjjDbE1KqevW04e.jpg", "popularity": 8.496}, {"id": 424121, "video": false, "vote_count": 682, "vote_average": 6.1, "title": "Apostle", "release_date": "2018-09-21", "original_language": "en", "original_title": "Apostle", "genre_ids": [14, 27, 9648, 53], "backdrop_path": "/73iZGJA287epF2nf2UvSbjelvlK.jpg", "adult": false, "overview": "In 1905, a man travels to a remote island in search of his missing sister who has been kidnapped by a mysterious religious cult.", "poster_path": "/rd269f2Yftxxam3EOJPYVwrvjIJ.jpg", "popularity": 10.962}, {"id": 26405, "video": false, "vote_count": 116, "vote_average": 7.5, "title": "Wake in Fright", "release_date": "1971-07-21", "original_language": "en", "original_title": "Wake in Fright", "genre_ids": [18, 53], "backdrop_path": "/jqNFwQQ1HBUpu9M6K1Ycv2OGzjO.jpg", "adult": false, "overview": "Wake in Fright is the story of John Grant, a bonded teacher who arrives in the rough outback mining town of Bundanyabba planning to stay overnight before catching the plane to Sydney, but as one night stretches into several he plunges headlong into his own destruction.", "poster_path": "/1H4L68aEvVThmt1V1PTYyaE8LpE.jpg", "popularity": 8.494}, {"id": 25195, "video": false, "vote_count": 1151, "vote_average": 6.7, "title": "Leap Year", "release_date": "2010-01-08", "original_language": "en", "original_title": "Leap Year", "genre_ids": [35, 10749], "backdrop_path": "/saWThDpek8WdO6OChaOZUuA4zD1.jpg", "adult": false, "overview": "When yet another anniversary passes without a marriage proposal from her boyfriend, Anna decides to take action. Aware of a Celtic tradition that allows women to pop the question on Feb. 29, she plans to follow her lover to Dublin and ask him to marry her. Fate has other plans, however, and Anna winds up on the other side of the Emerald Isle with handsome, but surly, Declan -- an Irishman who may just lead Anna down the road to true love.", "poster_path": "/zQzJIjlbkjhH5Eu79eH8L3KoEra.jpg", "popularity": 13.014}, {"id": 10035, "video": false, "vote_count": 247, "vote_average": 5.8, "title": "100 Girls", "release_date": "2000-09-01", "original_language": "en", "original_title": "100 Girls", "genre_ids": [35, 18, 10749], "backdrop_path": "/pEx6j5TlTIoWi24bYPduSarHgDA.jpg", "adult": false, "overview": "This sexy, teen-comedy is about a freshman, Matthew, at college who meets his dream girl in a dorm elevator during a blackout. He never sees her face, but instantly falls in love. In the morning, the power is restored, but the \"dream girl\" has vanished. All Matthew knows is that she lives in an all-girls dorm. He sets out on a semester-long journey to find his mystery girl amongst a hundred female suspects. Could it be Wendy? Dora? Arlene? Patty? Cynthia? Or the 95 other girls, any of whom could have been in that elevator with Matthew.", "poster_path": "/mi61ZTuyEIT6XO3O1HAyDKWmKhQ.jpg", "popularity": 18.75}, {"adult": false, "backdrop_path": "/vLlo5NvikTF6BQOsLEtQBnhCVPw.jpg", "genre_ids": [18, 10402], "id": 394822, "original_language": "en", "original_title": "London Town", "overview": "A 14-year old boy\u2019s life changes forever when his estranged mother introduces him to the music of The Clash in 1979 London.", "poster_path": "/Aa6EPK58oGbbyE2WBt4mUdxt4ZS.jpg", "release_date": "2017-08-03", "title": "London Town", "video": false, "vote_average": 6.4, "vote_count": 14, "popularity": 5.369}, {"id": 29005, "video": false, "vote_count": 178, "vote_average": 7.2, "title": "McCabe & Mrs. Miller", "release_date": "1971-06-24", "original_language": "en", "original_title": "McCabe & Mrs. Miller", "genre_ids": [37], "backdrop_path": "/eu1tpFquagrdJGJZ4sPZcnODp4l.jpg", "adult": false, "overview": "A gambler and a prostitute become business partners in a remote Old West mining town, and their enterprise thrives until a large corporation arrives on the scene.", "poster_path": "/buuKUShkNWfF5clxVE2pGCBFu81.jpg", "popularity": 8.83}, {"adult": false, "backdrop_path": "/xYXj9gY7xKFaSTJ8FuSVn3Vc2Ha.jpg", "genre_ids": [16, 14, 28, 878, 10749], "id": 19738, "original_language": "ja", "original_title": "\u5c11\u5973\u9769\u547d\u30a6\u30c6\u30ca \u30a2\u30c9\u30a5\u30ec\u30bb\u30f3\u30b9\u9ed9\u793a\u9332", "overview": "In a loose retelling of the Revolutionary Girl Utena TV series, Utena Tenjou arrives at Ohtori Academy, only to be immediately swept up in a series of duels for the hand of her classmate Anthy Himemiya and the power she supposedly holds. At the same time, Utena reunites with Touga Kiryuu, a friend from her childhood who seems to know the secrets behind the duels. Utena must discover those secrets for herself, before the power that rules Ohtori claims her and her friends, new and old.", "poster_path": "/4gEuxmg7OTc9Nxbg5pj5cVTaKCh.jpg", "release_date": "1999-08-14", "title": "Revolutionary Girl Utena: The Adolescence of Utena", "video": false, "vote_average": 7.5, "vote_count": 23, "popularity": 7.173}, {"id": 49020, "video": false, "vote_count": 859, "vote_average": 7.4, "title": "Submarine", "release_date": "2011-03-18", "original_language": "en", "original_title": "Submarine", "genre_ids": [35, 18, 10749], "backdrop_path": "/jRHZDSOv7WUKaY3NfrwYSXH3uRC.jpg", "adult": false, "overview": "15-year-old deep-thinking Welsh schoolboy, Oliver Tate struggles to initiate and maintain a relationship with Jordana, his devilish, dark-haired classmate at their Swansea high school. As his parents' marriage begins to fall apart, similar problems arise in his relationship with Jordana.", "poster_path": "/ibYScMoDmBktoIZzUDFrhPpTPlH.jpg", "popularity": 9.321}], "total_pages": 10, "total_results": 184}, "recommendations": {"page": 1, "results": [], "total_pages": 1, "total_results": 0}, "credits": {"cast": [{"cast_id": 2, "character": "Lord Sarn", "credit_id": "52fe4b279251416c750fa175", "gender": 2, "id": 11390, "name": "Peter O'Toole", "order": 0, "profile_path": "/7kgbpV5msLxMGQRWr6VPNEYCBKQ.jpg"}, {"cast_id": 3, "character": "Anthony Raine", "credit_id": "52fe4b279251416c750fa179", "gender": 2, "id": 80365, "name": "Paul Rhys", "order": 1, "profile_path": "/yDTa82q4hIL9bSlHZa15iafkuzE.jpg"}, {"cast_id": 4, "character": "Rhiannon", "credit_id": "52fe4b279251416c750fa17d", "gender": 1, "id": 20810, "name": "Joely Richardson", "order": 2, "profile_path": "/fgjpKio6sMD5AxOWQwAdgJQErhm.jpg"}, {"cast_id": 5, "character": "Rhodri Hughes", "credit_id": "52fe4b279251416c750fa181", "gender": 2, "id": 134908, "name": "Dafydd Hywel", "order": 3, "profile_path": "/to74cNxYy63apCXO8WdmWX6NTzJ.jpg"}, {"cast_id": 6, "character": "Sarah Hughes", "credit_id": "52fe4b279251416c750fa185", "gender": 1, "id": 1120606, "name": "Sue Roderick", "order": 4, "profile_path": "/xwh9JbMh36ZymCusvnqYvHey9CQ.jpg"}, {"cast_id": 7, "character": "Capt. Marsden", "credit_id": "52fe4b279251416c750fa189", "gender": 0, "id": 1120608, "name": "Simon Dormandy", "order": 5, "profile_path": null}, {"cast_id": 8, "character": "Davy", "credit_id": "58aefa5dc3a3683556007692", "gender": 2, "id": 20056, "name": "Keith Allen", "order": 6, "profile_path": "/1azvWtgKZ9u8oadJdsykij62X1z.jpg"}, {"cast_id": 9, "character": "Jonah", "credit_id": "58aefa8f9251410b54007cac", "gender": 2, "id": 1066372, "name": "Ray Gravell", "order": 7, "profile_path": null}], "crew": [{"credit_id": "52fe4b279251416c750fa171", "department": "Directing", "gender": 2, "id": 628470, "job": "Director", "name": "Karl Francis", "profile_path": "/wVb8WmL1LImPs6ZrdPG9tdKDgxP.jpg"}]}}