{"adult": false, "backdrop_path": null, "belongs_to_collection": null, "budget": 0, "genres": [{"id": 35, "name": "Comedy"}, {"id": 53, "name": "Thriller"}], "homepage": null, "id": 144686, "imdb_id": "tt0068856", "original_language": "xx", "original_title": "The Lift", "overview": "A businessman lives out his daily routine until he meets unexpected stress in the form of his apartment building's elevator.", "popularity": 1.341, "poster_path": "/jWw5rb3iE3JUtfABENI2F8iySeF.jpg", "production_companies": [{"id": 21485, "logo_path": null, "name": "University of Southern California, School of Cinematic Arts", "origin_country": ""}], "production_countries": [{"iso_3166_1": "US", "name": "United States of America"}], "release_date": "1972-11-01", "revenue": 0, "runtime": 7, "spoken_languages": [{"iso_639_1": "xx", "name": "No Language"}], "status": "Released", "tagline": "", "title": "The Lift", "video": false, "vote_average": 7.2, "vote_count": 5, "keywords": {"keywords": [{"id": 185505, "name": "film student"}]}, "similar": {"page": 1, "results": [{"adult": false, "backdrop_path": "/hPByrqJXCXIViFheXQh48wtI7T6.jpg", "genre_ids": [16, 12, 14, 10751], "id": 31135, "original_language": "en", "original_title": "Mickey Mouse: Mickey and the Beanstalk", "overview": "Based on the timeless adventures of \"Jack and the Beanstalk,\" Mickey, Donald and Goofy climb a fantastic beanstalk up into the sky to a place where everything is huge -- the food, the castle and the fearsome giant named Willy who guards a beautiful golden harp! Will Mickey and his friends outwit the giant and make it safely back home?", "poster_path": "/kk1Xg1f1lv6loekjlKinpKJlGOu.jpg", "release_date": "1947-09-27", "title": "Mickey Mouse: Mickey and the Beanstalk", "video": false, "vote_average": 6.7, "vote_count": 166, "popularity": 13.649}, {"id": 21385, "video": false, "vote_count": 455, "vote_average": 6.4, "title": "Mickey, Donald, Goofy: The Three Musketeers", "release_date": "2004-08-04", "original_language": "en", "original_title": "Mickey, Donald, Goofy: The Three Musketeers", "genre_ids": [12, 16, 35, 10751], "backdrop_path": "/8WodHELOg5guFPMIQf0M88IQhNE.jpg", "adult": false, "overview": "In Disney's take on the Alexander Dumas tale, Mickey Mouse, Donald Duck and Goofy want nothing more than to perform brave deeds on behalf of their queen (Minnie Mouse), but they're stymied by the head Musketeer, Pete. Pete secretly wants to get rid of the queen, so he appoints Mickey and his bumbling friends as guardians to Minnie, thinking such a maneuver will ensure his scheme's success. The score features songs based on familiar classical melodies.", "poster_path": "/uDvv54as7hLH7aWHwPyIVvoNb9K.jpg", "popularity": 27.432}, {"adult": false, "backdrop_path": "/pc7a2qrIkIxzqWGqcexd3mHzIxy.jpg", "genre_ids": [28, 53, 12], "id": 56292, "original_language": "en", "original_title": "Mission: Impossible - Ghost Protocol", "overview": "Ethan Hunt and his team are racing against time to track down a dangerous terrorist named Hendricks, who has gained access to Russian nuclear launch codes and is planning a strike on the United States. An attempt to stop him ends in an explosion causing severe destruction to the Kremlin and the IMF to be implicated in the bombing, forcing the President to disavow them. No longer being aided by the government, Ethan and his team chase Hendricks around the globe, although they might still be too late to stop a disaster.", "poster_path": "/s58mMsgIVOFfoXPtwPWJ3hDYpXf.jpg", "release_date": "2011-12-07", "title": "Mission: Impossible - Ghost Protocol", "video": false, "vote_average": 7.0, "vote_count": 6591, "popularity": 29.242}, {"adult": false, "backdrop_path": "/xqQztbT6KlPLQLlRtNHoXivEMZA.jpg", "genre_ids": [18, 10749, 53], "id": 597, "original_language": "en", "original_title": "Titanic", "overview": "101-year-old Rose DeWitt Bukater tells the story of her life aboard the Titanic, 84 years later. A young Rose boards the ship with her mother and fianc\u00e9. Meanwhile, Jack Dawson and Fabrizio De Rossi win third-class tickets aboard the ship. Rose tells the whole story from Titanic's departure through to its death\u2014on its first and last voyage\u2014on April 15, 1912.", "poster_path": "/kHXEpyfl6zqn8a6YuozZUujufXf.jpg", "release_date": "1997-11-18", "title": "Titanic", "video": false, "vote_average": 7.8, "vote_count": 15731, "popularity": 44.898}, {"id": 155, "video": false, "vote_count": 20760, "vote_average": 8.4, "title": "The Dark Knight", "release_date": "2008-07-16", "original_language": "en", "original_title": "The Dark Knight", "genre_ids": [28, 80, 18, 53], "backdrop_path": "/hqkIcbrOHL86UncnHIsHVcVmzue.jpg", "adult": false, "overview": "Batman raises the stakes in his war on crime. With the help of Lt. Jim Gordon and District Attorney Harvey Dent, Batman sets out to dismantle the remaining criminal organizations that plague the streets. The partnership proves to be effective, but they soon find themselves prey to a reign of chaos unleashed by a rising criminal mastermind known to the terrified citizens of Gotham as the Joker.", "poster_path": "/pKKvCaL1TPTVtbI6EeliyND3api.jpg", "popularity": 43.746}, {"id": 10527, "video": false, "vote_count": 4220, "vote_average": 6.4, "title": "Madagascar: Escape 2 Africa", "release_date": "2008-10-30", "original_language": "en", "original_title": "Madagascar: Escape 2 Africa", "genre_ids": [16, 35, 10751], "backdrop_path": "/anxiz37Z9FPKeuCsJcxViSWmPxg.jpg", "adult": false, "overview": "Alex, Marty, and other zoo animals find a way to escape from Madagascar when the penguins reassemble a wrecked airplane. The precariously repaired craft stays airborne just long enough to make it to the African continent. There the New Yorkers encounter members of their own species for the first time. Africa proves to be a wild place, but Alex and company wonder if it is better than their Central Park home.", "poster_path": "/9mohxwknsHcwFBSAAhoQXwFV5zn.jpg", "popularity": 23.58}, {"adult": false, "backdrop_path": "/wcT7srQ4GeeMqlszMFEtPZ7v8T7.jpg", "genre_ids": [35, 10749], "id": 28978, "original_language": "en", "original_title": "The Circus", "overview": "Charlie, a wandering tramp, becomes a circus handyman and falls in love with the circus owner's daughter. Unaware of Charlie's affection, the girl falls in love with a handsome young performer. Charlie's versatility makes him star of the show when he substitutes for an ailing tightwire walker. He is discharged from the company when he protects the girl from her father's abuse, but he returns and appeals to the handsome performer to marry the girl. After the wedding the father prevails upon them to rejoin the circus. Charlie is hired again, but he stays behind when the caravan moves on.", "poster_path": "/awTf4Y6TGvgi3VYtGNINyyJJy9Q.jpg", "release_date": "1928-01-06", "title": "The Circus", "video": false, "vote_average": 8.2, "vote_count": 330, "popularity": 12.839}, {"adult": false, "backdrop_path": "/tr6OExnBfjLADi9OyZoW308mPAp.jpg", "genre_ids": [18, 35, 10749], "id": 74643, "original_language": "en", "original_title": "The Artist", "overview": "Hollywood, 1927: As silent movie star George Valentin wonders if the arrival of talking pictures will cause him to fade into oblivion, he sparks with Peppy Miller, a young dancer set for a big break.", "poster_path": "/i0mpvMIIjyubXsVKug9vX0lYpnd.jpg", "release_date": "2011-06-26", "title": "The Artist", "video": false, "vote_average": 7.4, "vote_count": 1977, "popularity": 10.661}, {"id": 901, "video": false, "vote_count": 1026, "vote_average": 8.4, "title": "City Lights", "release_date": "1931-02-01", "original_language": "xx", "original_title": "City Lights", "genre_ids": [35, 18, 10749], "backdrop_path": "/vT6ux2rdyg2kexuLisO5Ygz7pHg.jpg", "adult": false, "overview": "City Lights is the first silent film that Charlie Chaplin directed after he established himself with sound accompanied films. The film is about a penniless man who falls in love with a flower girl.", "poster_path": "/bXNvzjULc9jrOVhGfjcc64uKZmZ.jpg", "popularity": 14.645}, {"id": 10258, "video": false, "vote_count": 148, "vote_average": 6.6, "title": "The Madagascar Penguins in a Christmas Caper", "release_date": "2005-09-23", "original_language": "en", "original_title": "The Madagascar Penguins in a Christmas Caper", "genre_ids": [16, 35, 10751], "backdrop_path": "/gdJ6j1hmt6dQgObWxDJAHUb58o6.jpg", "adult": false, "overview": "During the holiday season, when the animals of the Central Park Zoo are preparing for Christmas, Private, the youngest of the penguins notices that the Polar Bear is all alone. Assured that nobody should have to spend Christmas alone, Private goes into the city for some last-minute Christmas shopping. Along the way, he gets stuffed into a stocking", "poster_path": "/r8QtfGSjDaY6vICRVyYvZvTkjxc.jpg", "popularity": 13.032}, {"id": 460793, "video": false, "vote_count": 933, "vote_average": 6.2, "title": "Olaf's Frozen Adventure", "release_date": "2017-10-27", "original_language": "en", "original_title": "Olaf's Frozen Adventure", "genre_ids": [12, 16, 35, 14, 10402, 10751], "backdrop_path": "/9K4QqQZg4TVXcxBGDiVY4Aey3Rn.jpg", "adult": false, "overview": "Olaf is on a mission to harness the best holiday traditions for Anna, Elsa, and Kristoff.", "poster_path": "/As8WTtxXs9e3cBit3ztTf7zoRmm.jpg", "popularity": 21.98}, {"id": 49026, "video": false, "vote_count": 15150, "vote_average": 7.7, "title": "The Dark Knight Rises", "release_date": "2012-07-16", "original_language": "en", "original_title": "The Dark Knight Rises", "genre_ids": [28, 80, 18, 53], "backdrop_path": "/f6ljQGv7WnJuwBPty017oPWfqjx.jpg", "adult": false, "overview": "Following the death of District Attorney Harvey Dent, Batman assumes responsibility for Dent's crimes to protect the late attorney's reputation and is subsequently hunted by the Gotham City Police Department. Eight years later, Batman encounters the mysterious Selina Kyle and the villainous Bane, a new terrorist leader who overwhelms Gotham's finest. The Dark Knight resurfaces to protect a city that has branded him an enemy.", "poster_path": "/dEYnvnUfXrqvqeRSqvIEtmzhoA8.jpg", "popularity": 43.144}, {"id": 37724, "video": false, "vote_count": 11109, "vote_average": 7.1, "title": "Skyfall", "release_date": "2012-10-25", "original_language": "en", "original_title": "Skyfall", "genre_ids": [28, 12, 53], "backdrop_path": "/6bjRujKSnCVSrzC1qjmqfAyaiET.jpg", "adult": false, "overview": "When Bond's latest assignment goes gravely wrong and agents around the world are exposed, MI6 is attacked forcing M to relocate the agency. These events cause her authority and position to be challenged by Gareth Mallory, the new Chairman of the Intelligence and Security Committee. With MI6 now compromised from both inside and out, M is left with one ally she can trust: Bond. 007 takes to the shadows - aided only by field agent, Eve - following a trail to the mysterious Silva, whose lethal and hidden motives have yet to reveal themselves.", "poster_path": "/lQCkPLDxFONmgzrWLvq085v1g2d.jpg", "popularity": 34.013}, {"id": 14787, "video": false, "vote_count": 124, "vote_average": 6.4, "title": "Tom and Jerry: The Magic Ring", "release_date": "2002-03-12", "original_language": "en", "original_title": "Tom and Jerry: The Magic Ring", "genre_ids": [28, 16, 35, 14, 10751], "backdrop_path": "/wPvYwB9NYUJRXIzjKeupigE1JXc.jpg", "adult": false, "overview": "The world's favourite cat and mouse team bounds back into action in an all-new full-length animated adventure certain to cast its spell over the entire family Left in charge of a priceless magical ring by his young wizard master, Tom is horrified when the ring gets stuck on Jerry's head, who then runs off into the city! Before you can say \"abracadabra\", the entire town is hot on our heroes' tails.", "poster_path": "/fF6I48WGKktHfGYYSVKPTVildWE.jpg", "popularity": 15.019}, {"adult": false, "backdrop_path": "/twGxeStlGooWV3gP6ZIcSNuQ6jf.jpg", "genre_ids": [12, 16, 10751, 14], "id": 81684, "original_language": "en", "original_title": "The Gruffalo's Child", "overview": "A follow up to the 2009 animated feature and adapted from the childrens' book by Julia Donaldson and Alex Scheffler.  The Gruffalo's child explores the deep dark wood in search of the big bad mouse and meets the Snake, Owl and Fox in the process.  She eventually finds the mouse, who manages to outwit her like the Gruffalo before!", "poster_path": "/qaGH2AoaLvoGXURQtNzj1nw6oZd.jpg", "release_date": "2011-12-25", "title": "The Gruffalo's Child", "video": false, "vote_average": 6.9, "vote_count": 73, "popularity": 9.51}, {"id": 87421, "video": false, "vote_count": 2672, "vote_average": 6.2, "title": "Riddick", "release_date": "2013-09-02", "original_language": "en", "original_title": "Riddick", "genre_ids": [28, 878, 53], "backdrop_path": "/mLbjD5xyrjLzVviSd8l37rxfWBo.jpg", "adult": false, "overview": "Betrayed by his own kind and left for dead on a desolate planet, Riddick fights for survival against alien predators and becomes more powerful and dangerous than ever before. Soon bounty hunters from throughout the galaxy descend on Riddick only to find themselves pawns in his greater scheme for revenge. With his enemies right where he wants them, Riddick unleashes a vicious attack of vengeance before returning to his home planet of Furya to save it from destruction.", "poster_path": "/duoN6oNGp1emHkkhlTcY76Wz2ED.jpg", "popularity": 21.712}, {"adult": false, "backdrop_path": null, "genre_ids": [], "id": 616262, "original_language": "ar", "original_title": "All Come From Dust", "overview": "A loop of edgeless bend. You were its doom, he was its bloom. You were its tomb, he was its womb. You were its gloom, he was its loom. For Heaven and Hell, were words made of fume.", "poster_path": null, "release_date": "2019-08-13", "title": "All Come From Dust", "video": false, "vote_average": 5.0, "vote_count": 1, "popularity": 0.6}, {"id": 621733, "video": false, "vote_count": 0, "vote_average": 0.0, "title": "A Trip to the Seaside", "release_date": "2019-08-30", "original_language": "en", "original_title": "A Trip to the Seaside", "genre_ids": [99], "backdrop_path": null, "adult": false, "overview": "Experimental short film on the excitement and rush of a day trip", "poster_path": "/AuZVhpoJ4jm2LWDhoJKfxQfhDAi.jpg", "popularity": 1.324}, {"id": 157336, "video": false, "vote_count": 20609, "vote_average": 8.3, "title": "Interstellar", "release_date": "2014-11-05", "original_language": "en", "original_title": "Interstellar", "genre_ids": [12, 18, 878], "backdrop_path": "/xu9zaAevzQ5nnrsXN6JcahLnG4i.jpg", "adult": false, "overview": "Interstellar chronicles the adventures of a group of explorers who make use of a newly discovered wormhole to surpass the limitations on human space travel and conquer the vast distances involved in an interstellar voyage.", "poster_path": "/nBNZadXqJSdt05SHLqgT0HuC5Gm.jpg", "popularity": 53.312}, {"id": 271110, "video": false, "vote_count": 15271, "vote_average": 7.4, "title": "Captain America: Civil War", "release_date": "2016-04-27", "original_language": "en", "original_title": "Captain America: Civil War", "genre_ids": [28, 12, 878], "backdrop_path": "/m5O3SZvQ6EgD5XXXLPIP1wLppeW.jpg", "adult": false, "overview": "Following the events of Age of Ultron, the collective governments of the world pass an act designed to regulate all superhuman activity. This polarizes opinion amongst the Avengers, causing two factions to side with Iron Man or Captain America, which causes an epic battle between former allies.", "poster_path": "/kSBXou5Ac7vEqKd97wotJumyJvU.jpg", "popularity": 41.347}], "total_pages": 815, "total_results": 16290}, "recommendations": {"page": 1, "results": [], "total_pages": 1, "total_results": 0}, "credits": {"cast": [{"cast_id": 2, "character": "", "credit_id": "561e5f79c3a3686cc1002509", "gender": 0, "id": 1522414, "name": "Michael Fuller", "order": 1, "profile_path": null}], "crew": [{"credit_id": "52fe4b3e9251416c750fcbef", "department": "Directing", "gender": 2, "id": 24, "job": "Director", "name": "Robert Zemeckis", "profile_path": "/ryiZwDAQg18IdE9gfiM4Go3ankT.jpg"}, {"credit_id": "561e5f8c92514142c9002648", "department": "Sound", "gender": 0, "id": 1522415, "job": "Music", "name": "Bill Manov", "profile_path": null}, {"credit_id": "561e5f979251410d8f002276", "department": "Sound", "gender": 0, "id": 1522416, "job": "Music", "name": "Warren Wolfe", "profile_path": null}, {"credit_id": "561e5fa5c3a3686ccc0023b4", "department": "Crew", "gender": 0, "id": 1522417, "job": "Cinematography", "name": "Bill Mauger", "profile_path": null}, {"credit_id": "561e5fb2c3a3686cd80026ef", "department": "Editing", "gender": 0, "id": 1308600, "job": "Editor", "name": "Mustafa R. Gursel", "profile_path": null}]}}