{"adult": false, "backdrop_path": "/xnL1HMEd3zz6ryWZwtUcAmZWz4k.jpg", "belongs_to_collection": null, "budget": 0, "genres": [{"id": 878, "name": "Science Fiction"}], "homepage": null, "id": 144676, "imdb_id": "tt0120080", "original_language": "en", "original_title": "Scorpio One", "overview": "Using ultra-advanced technology, scientists aboard Scorpio One have made a monumental discovery -- and paid for it with their lives. Now, with time and oxygen running out, Scorpio One is about to become ground zero for an explosive showdown high above the Earth, where the stakes are nothing less than the future of the world.", "popularity": 3.071, "poster_path": "/cQFDiCziXMwDjZxk4J6XrvTlIO.jpg", "production_companies": [{"id": 11130, "logo_path": null, "name": "Royal Oaks Entertainment Inc.", "origin_country": ""}, {"id": 21304, "logo_path": null, "name": "Cabin Fever Entertainment", "origin_country": ""}], "production_countries": [{"iso_3166_1": "US", "name": "United States of America"}], "release_date": "1998-01-01", "revenue": 0, "runtime": 92, "spoken_languages": [{"iso_639_1": "en", "name": "English"}], "status": "Released", "tagline": "At the edge of space, patriotism and terrorism are about to cross the line.", "title": "Scorpio One", "video": false, "vote_average": 3.4, "vote_count": 5, "keywords": {"keywords": [{"id": 591, "name": "cia"}, {"id": 156039, "name": "space station"}]}, "similar": {"page": 1, "results": [{"id": 254904, "video": false, "vote_count": 931, "vote_average": 6.1, "title": "The November Man", "release_date": "2014-08-27", "original_language": "en", "original_title": "The November Man", "genre_ids": [28, 80, 53], "backdrop_path": "/hSvpWAVXC781u5rOgI44799p2WL.jpg", "adult": false, "overview": "An ex- CIA operative is brought back in on a very personal mission and finds himself pitted against his former pupil in a deadly game involving high level CIA officials and the Russian president-elect.", "poster_path": "/lcg1bkriMVvc8m0jz5zk0yvzVTA.jpg", "popularity": 20.793}, {"id": 146216, "video": false, "vote_count": 2566, "vote_average": 6.5, "title": "RED 2", "release_date": "2013-07-18", "original_language": "en", "original_title": "RED 2", "genre_ids": [28, 35, 80, 53], "backdrop_path": "/iOkkgY4byK8MBoF3Mexybu22J1I.jpg", "adult": false, "overview": "Retired C.I.A. agent Frank Moses reunites his unlikely team of elite operatives for a global quest to track down a missing portable nuclear device.", "poster_path": "/dvWITvEzlq8IaUbxUuBVKvXqfo6.jpg", "popularity": 25.381}, {"id": 137094, "video": false, "vote_count": 1850, "vote_average": 6.1, "title": "Jack Ryan: Shadow Recruit", "release_date": "2014-01-15", "original_language": "en", "original_title": "Jack Ryan: Shadow Recruit", "genre_ids": [28, 18, 53], "backdrop_path": "/7WURHOyx05AWAoNcBGp72clvB49.jpg", "adult": false, "overview": "Jack Ryan, as a young covert CIA analyst, uncovers a Russian plot to crash the U.S. economy with a terrorist attack.", "poster_path": "/jBibISmRBUO35p0Picv0nOo33sc.jpg", "popularity": 23.316}, {"id": 47964, "video": false, "vote_count": 4655, "vote_average": 5.2, "title": "A Good Day to Die Hard", "release_date": "2013-02-06", "original_language": "en", "original_title": "A Good Day to Die Hard", "genre_ids": [28, 53], "backdrop_path": "/17zArExB7ztm6fjUXZwQWgGMC9f.jpg", "adult": false, "overview": "Iconoclastic, take-no-prisoners cop John McClane, finds himself for the first time on foreign soil after traveling to Moscow to help his wayward son Jack - unaware that Jack is really a highly-trained CIA operative out to stop a nuclear weapons heist. With the Russian underworld in pursuit, and battling a countdown to war, the two McClanes discover that their opposing methods make them unstoppable heroes.", "poster_path": "/c2SQMd00CCGTiDxGXVqA2J9lmzF.jpg", "popularity": 24.297}, {"id": 484641, "video": false, "vote_count": 781, "vote_average": 6.5, "title": "Anna", "release_date": "2019-06-19", "original_language": "fr", "original_title": "Anna", "genre_ids": [28, 53], "backdrop_path": "/pIL9e5cN6RNugDCCLwn3stfb9HE.jpg", "adult": false, "overview": "Beneath Anna Poliatova's striking beauty lies a secret that will unleash her indelible strength and skill to become one of the world's most feared government assassins.", "poster_path": "/oZcISsiWY4LiKERTV2alu8RWYdq.jpg", "popularity": 39.118}, {"adult": false, "backdrop_path": "/tjQHn6xW5BiB1RJ3OZIPDzIOSkF.jpg", "genre_ids": [12, 28, 53], "id": 954, "original_language": "en", "original_title": "Mission: Impossible", "overview": "When Ethan Hunt, the leader of a crack espionage team whose perilous operation has gone awry with no explanation, discovers that a mole has penetrated the CIA, he's surprised to learn that he's the No. 1 suspect. To clear his name, Hunt now must ferret out the real double agent and, in the process, even the score.", "poster_path": "/1PVKS17pIBFsIhgFws2uagPDNLW.jpg", "release_date": "1996-05-22", "title": "Mission: Impossible", "video": false, "vote_average": 6.9, "vote_count": 5214, "popularity": 29.575}, {"id": 955, "video": false, "vote_count": 3908, "vote_average": 6.1, "title": "Mission: Impossible II", "release_date": "2000-05-24", "original_language": "en", "original_title": "Mission: Impossible II", "genre_ids": [28, 12, 53], "backdrop_path": "/bDdVZNvxb670EMlZqeIy6RdyJ4V.jpg", "adult": false, "overview": "With computer genius Luther Stickell at his side and a beautiful thief on his mind, agent Ethan Hunt races across Australia and Spain to stop a former IMF agent from unleashing a genetically engineered biological weapon called Chimera. This mission, should Hunt choose to accept it, plunges him into the center of an international crisis of terrifying magnitude.", "poster_path": "/di800v3Racf2FQ1ObZ1dskgS0px.jpg", "popularity": 22.769}, {"id": 11808, "video": false, "vote_count": 803, "vote_average": 6.4, "title": "U.S. Marshals", "release_date": "1998-03-06", "original_language": "en", "original_title": "U.S. Marshals", "genre_ids": [28, 80, 53], "backdrop_path": "/kbVaXdh1wpeo9XqMDCQB9no4QlB.jpg", "adult": false, "overview": "U.S. Marshal Sam Gerard is accompanying a plane load of convicts from Chicago to New York. The plane crashes spectacularly, and Mark Sheridan escapes. But when Diplomatic Security Agent John Royce is assigned to help Gerard recapture Sheridan, it becomes clear that Sheridan is more than just another murderer.", "poster_path": "/3uixF2pHa0whTKcYmenDrArX0II.jpg", "popularity": 17.446}, {"id": 59961, "video": false, "vote_count": 2179, "vote_average": 6.4, "title": "Safe House", "release_date": "2012-02-09", "original_language": "en", "original_title": "Safe House", "genre_ids": [28, 53], "backdrop_path": "/wX0mOAa91dTAT2WCGRvvpWUKAeD.jpg", "adult": false, "overview": "A dangerous CIA renegade resurfaces after a decade on the run. When the safe house he's remanded to is attacked by mercenaries, a rookie operative escapes with him. Now, the unlikely allies must stay alive long enough to uncover who wants them dead.", "poster_path": "/q83VacoG2hHLvORTPtvCXKsdBSN.jpg", "popularity": 47.991}, {"id": 454615, "video": false, "vote_count": 91, "vote_average": 4.9, "title": "Black Water", "release_date": "2018-05-18", "original_language": "en", "original_title": "Black Water", "genre_ids": [28], "backdrop_path": "/byFf3OQceVbtHplvql7W1JmNJhU.jpg", "adult": false, "overview": "A deep cover operative awakens to find himself imprisoned on a submarine. With the help of a fellow prisoner and an amateur agent, he must race against the clock to escape the vessel and expose who set him up.", "poster_path": "/tIcZAB5AmRN8fIDXfDZ2aUok9qa.jpg", "popularity": 13.513}, {"id": 157336, "video": false, "vote_count": 20600, "vote_average": 8.3, "title": "Interstellar", "release_date": "2014-11-05", "original_language": "en", "original_title": "Interstellar", "genre_ids": [12, 18, 878], "backdrop_path": "/xu9zaAevzQ5nnrsXN6JcahLnG4i.jpg", "adult": false, "overview": "Interstellar chronicles the adventures of a group of explorers who make use of a newly discovered wormhole to surpass the limitations on human space travel and conquer the vast distances involved in an interstellar voyage.", "poster_path": "/nBNZadXqJSdt05SHLqgT0HuC5Gm.jpg", "popularity": 66.028}, {"id": 9738, "video": false, "vote_count": 6166, "vote_average": 5.7, "title": "Fantastic Four", "release_date": "2005-06-29", "original_language": "en", "original_title": "Fantastic Four", "genre_ids": [28, 12, 14, 878], "backdrop_path": "/6RaH2Znu7dUQq7c8surf7hRp44f.jpg", "adult": false, "overview": "During a space voyage, four scientists are altered by cosmic rays: Reed Richards gains the ability to stretch his body; Sue Storm can become invisible; Johnny Storm controls fire; and Ben Grimm is turned into a super-strong \u2026 thing. Together, these \"Fantastic Four\" must now thwart the evil plans of Dr. Doom and save the world from certain destruction.", "poster_path": "/sYNOCHiWA9UDUHlPvRWztSo5hZV.jpg", "popularity": 24.557}, {"id": 49047, "video": false, "vote_count": 10487, "vote_average": 7.2, "title": "Gravity", "release_date": "2013-10-03", "original_language": "en", "original_title": "Gravity", "genre_ids": [18, 878, 53], "backdrop_path": "/cQPbUnglzgIE6XDnh1dHnHKB26Y.jpg", "adult": false, "overview": "Dr. Ryan Stone, a brilliant medical engineer on her first Shuttle mission, with veteran astronaut Matt Kowalsky in command of his last flight before retiring. But on a seemingly routine spacewalk, disaster strikes. The Shuttle is destroyed, leaving Stone and Kowalsky completely alone-tethered to nothing but each other and spiraling out into the blackness of space. The deafening silence tells them they have lost any link to Earth and any chance for rescue. As fear turns to panic, every gulp of air eats away at what little oxygen is left. But the only way home may be to go further out into the terrifying expanse of space.", "poster_path": "/uPxtxhB2Fy9ihVqtBtNGHmknJqV.jpg", "popularity": 28.652}, {"id": 274855, "video": false, "vote_count": 2497, "vote_average": 5.8, "title": "Geostorm", "release_date": "2017-10-13", "original_language": "en", "original_title": "Geostorm", "genre_ids": [28, 878, 53], "backdrop_path": "/79X8JkGxzc1tJMi0KxUSaPLooVg.jpg", "adult": false, "overview": "After an unprecedented series of natural disasters threatened the planet, the world's leaders came together to create an intricate network of satellites to control the global climate and keep everyone safe. But now, something has gone wrong: the system built to protect Earth is attacking it, and it becomes a race against the clock to uncover the real threat before a worldwide geostorm wipes out everything and everyone along with it.", "poster_path": "/nrsx0jEaBgXq4PWo7SooSnYJTv.jpg", "popularity": 18.302}, {"id": 395992, "video": false, "vote_count": 4625, "vote_average": 6.4, "title": "Life", "release_date": "2017-03-22", "original_language": "en", "original_title": "Life", "genre_ids": [27, 878, 53], "backdrop_path": "/nNh7vHHISVAaziJEqAq0P9iL52w.jpg", "adult": false, "overview": "The six-member crew of the International Space Station is tasked with studying a sample from Mars that may be the first proof of extra-terrestrial life, which proves more intelligent than ever expected.", "poster_path": "/h2mhfbEBGABSHo2vXG1ECMKAJa7.jpg", "popularity": 20.7}, {"adult": false, "backdrop_path": "/rkaP7dnHenOr2n2IqMxip6rtT4W.jpg", "genre_ids": [878, 9648, 12], "id": 62, "original_language": "en", "original_title": "2001: A Space Odyssey", "overview": "Humanity finds a mysterious object buried beneath the lunar surface and sets off to find its origins with the help of HAL 9000, the world's most advanced super computer.", "poster_path": "/90T7b2LIrL07ndYQBmSm09yqVEH.jpg", "release_date": "1968-04-09", "title": "2001: A Space Odyssey", "video": false, "vote_average": 8.1, "vote_count": 6597, "popularity": 28.215}, {"id": 16320, "video": false, "vote_count": 2139, "vote_average": 7.4, "title": "Serenity", "release_date": "2005-09-03", "original_language": "en", "original_title": "Serenity", "genre_ids": [28, 12, 878, 53], "backdrop_path": "/k2qLUz5fymFOOYfehaQt6ewXSth.jpg", "adult": false, "overview": "When the renegade crew of Serenity agrees to hide a fugitive on their ship, they find themselves in an action-packed battle between the relentless military might of a totalitarian regime who will destroy anything \u2013 or anyone \u2013 to get the girl back and the bloodthirsty creatures who roam the uncharted areas of space. But... the greatest danger of all may be on their ship.", "poster_path": "/1Hq659V31ER9pQQvVBUUJbwR7NT.jpg", "popularity": 22.768}, {"id": 68724, "video": false, "vote_count": 5836, "vote_average": 6.4, "title": "Elysium", "release_date": "2013-08-07", "original_language": "en", "original_title": "Elysium", "genre_ids": [28, 18, 878, 53], "backdrop_path": "/vSbjlX9y8S2hKNURHEO4GsoIOay.jpg", "adult": false, "overview": "In the year 2159, two classes of people exist: the very wealthy who live on a pristine man-made space station called Elysium, and the rest, who live on an overpopulated, ruined Earth. Secretary Rhodes (Jodie Foster), a hard line government of\ufb01cial, will stop at nothing to enforce anti-immigration laws and preserve the luxurious lifestyle of the citizens of Elysium. That doesn\u2019t stop the people of Earth from trying to get in, by any means they can. When unlucky Max (Matt Damon) is backed into a corner, he agrees to take on a daunting mission that, if successful, will not only save his life, but could bring equality to these polarized worlds.", "poster_path": "/tHkjoAxmhp3Eau1h0Ir7maKMwUz.jpg", "popularity": 18.855}, {"adult": false, "backdrop_path": "/pZQAt4PEU5vXqFfLMPlkYajNJAW.jpg", "genre_ids": [28, 18, 53], "id": 42738, "original_language": "en", "original_title": "Scorpio", "overview": "Cross is an old hand at the CIA who often teams up with Frenchman Jean \u201cScorpio\u201d Laurier, a gifted freelance operative. After their last mission together, the CIA orders Scorpio to eliminate Cross, leaving him no choice but to obey.", "poster_path": "/sX3gCVbFdZsLOFoshY5Q7vmU3yC.jpg", "release_date": "1973-04-11", "title": "Scorpio", "video": false, "vote_average": 6.2, "vote_count": 40, "popularity": 6.115}, {"id": 384521, "video": false, "vote_count": 1919, "vote_average": 5.6, "title": "The Cloverfield Paradox", "release_date": "2018-02-04", "original_language": "en", "original_title": "The Cloverfield Paradox", "genre_ids": [27, 9648, 878, 53], "backdrop_path": "/lX4jScWnurasu6Kxuqo9819mjM2.jpg", "adult": false, "overview": "Orbiting above a planet on the brink of war, scientists test a device to solve an energy crisis and end up face-to-face with a dark alternate reality.", "poster_path": "/dJe4s2h9hac0Fu3pQVV4OuWe8kU.jpg", "popularity": 16.874}], "total_pages": 18, "total_results": 347}, "recommendations": {"page": 1, "results": [{"id": 113225, "video": false, "vote_count": 3, "vote_average": 6.3, "title": "The Last Posse", "release_date": "1953-07-04", "original_language": "en", "original_title": "The Last Posse", "genre_ids": [37], "backdrop_path": "/3otPeExnPzVHWNIEXVFhQzURjkJ.jpg", "adult": false, "overview": "A posse's pursuit of bank robbers ends with loot missing and a sheriff (Broderick Crawford) wounded.", "poster_path": "/45JJlaahpDMvhYEGITvZLXJVvzS.jpg", "popularity": 2.946}, {"adult": false, "backdrop_path": "/mgdI767xetlp3IRmBcQK0oFLVIk.jpg", "genre_ids": [37, 53], "id": 82667, "original_language": "en", "original_title": "Five Bloody Graves", "overview": "A lone gunman hunts the fearsome Apache Satago across the plains of the Wild West. When Satago's marauders ambush a stagecoach, the gunman rides to the rescue of the trapped passengers and helps them in their last stand against the deadly Indians.", "poster_path": "/mfWKCG8rO3Au7NYKto8nd6nRh4Z.jpg", "release_date": "1969-10-31", "title": "Five Bloody Graves", "video": false, "vote_average": 3.0, "vote_count": 4, "popularity": 2.028}, {"adult": false, "backdrop_path": null, "genre_ids": [18, 10749], "id": 66183, "original_language": "en", "original_title": "Love & Money", "overview": "An investment planner, bored with his job and his girlfriend, is given the opportunity to help open a new firm in South America. Once in the new country, he finds himself dealing with dictators and revolutionaries during a time of intense political upheaval, and to complicate his life further, he begins an affair with his new employer's wife.", "poster_path": "/laaBn4iaJmYEE5mUgrKSTDjCDCY.jpg", "release_date": "1982-01-01", "title": "Love and Money", "video": false, "vote_average": 6.0, "vote_count": 5, "popularity": 4.311}, {"id": 253351, "video": false, "vote_count": 3, "vote_average": 7.0, "title": "Della", "release_date": "1964-01-01", "original_language": "en", "original_title": "Della", "genre_ids": [18, 10770], "backdrop_path": "/vKzkkQI8gx6DYWriZG8nZGkTMHQ.jpg", "adult": false, "overview": "Della Chappell (Joan Crawford) is a very wealthy and incredibly reclusive woman. When a big company wants the land Della lives on, the town sends out Barney Stafford (Paul Burke) to talk to her. She invites Barney over to negotiate the proposal. Barney soon takes a liking to Della's equally reclusive daughter Jenny Chappell (Diane Baker). After spending some time with Jenny, he realizes that Della has a dark secret, one that keeps them from the outside world.", "poster_path": "/fVWP2S8iLjZKzeebjP4oez14mTT.jpg", "popularity": 2.428}, {"adult": false, "backdrop_path": "/28VfrH6gq2bNJgMWKTorOVuJYQM.jpg", "genre_ids": [35], "id": 170302, "original_language": "en", "original_title": "And the Same to You", "overview": "Dickie Dreadnought is the boxing-mad nephew of pious clergyman Reverend Sydney Mullet. To mollify his disapproving uncle, Dickie embarks on an elaborate plan to keep his budding boxing career a secret, with he and his tough-talking promoter Wally Burton both pretending to be devout 'men of the cloth'.", "poster_path": "/xaUKDgQlehmBKvjpbj9DlVc503K.jpg", "release_date": "1960-02-01", "title": "And the Same to You", "video": false, "vote_average": 6.4, "vote_count": 4, "popularity": 1.4}, {"id": 141822, "video": false, "vote_count": 5, "vote_average": 6.4, "title": "When Hell Broke Loose", "release_date": "1958-11-01", "original_language": "en", "original_title": "When Hell Broke Loose", "genre_ids": [18, 10752], "backdrop_path": "/SMNbPSYk6fnsMzeIb3FlY9owvL.jpg", "adult": false, "overview": "Near the end of the war in Germany, GI Steve Boland, a self-described \"sharp-operator\", meets a German girl, Ilsa, and they fall in love. Ilsa's brother Karl, whom she has not seen in three years, and his fellow Nazi Ludwig visit Ilsa. Karl proudly informs her that he and Ludwig are \"Werewolves\", a group of Nazi assassins parachuted behind Allied lines for the purpose of killing Allied High Command officers. She and Steve go to Army Intelligence with their information, where Steve is immediately arrested for being A.W.O.L. Captain Melton of Army G-2 intervenes on Steve's behalf, as G-2 has had a suspicion about the existence of the \"Werewolves\" but no concrete info before now.", "poster_path": "/yPXTBFLtx4WQnbfkstboCawRJsB.jpg", "popularity": 3.267}, {"adult": false, "backdrop_path": "/iosbLjvSdbQkm5fyfQq8guMrrRn.jpg", "genre_ids": [37], "id": 150677, "original_language": "it", "original_title": "Lo chiamavano King", "overview": "The Benson brothers, who are smuggling guns across the Mexican border, kill King's brother and rape his wife. King must stop their illegal activities, find who is behind them and gain revenge for his family.", "poster_path": "/lIx6orn9Vrm92GP3VDMp9rfPi9A.jpg", "release_date": "1971-05-18", "title": "His Name was King", "video": false, "vote_average": 5.8, "vote_count": 5, "popularity": 1.4}, {"adult": false, "backdrop_path": "/pSugLCnLgTdJzjZSfiiNdEBG6b4.jpg", "genre_ids": [10752], "id": 95083, "original_language": "en", "original_title": "Il dito nella piaga", "overview": "A twist of fate leads a recent Westpoint grad into being responsible for the execution of two fellow American GIs. The young lieutenant comes of age, and the two battle hardened veterans achieve a state of grace through acts of sacrifice.", "poster_path": "/31D52Jrd2nQa5IZNaBXfFkuWlD4.jpg", "release_date": "1969-08-10", "title": "Salt in the Wound", "video": false, "vote_average": 5.9, "vote_count": 5, "popularity": 4.399}, {"adult": false, "backdrop_path": "/pV3vI1JitnuWUyhf77j4gJJCMAY.jpg", "genre_ids": [27, 53], "id": 117019, "original_language": "en", "original_title": "Ghost Ship", "overview": "Warned that it is haunted, a skeptical young couple buy a rundown yacht  and fix it up to be their home-on-the-sea, only to come slowly to realize it really is haunted..", "poster_path": "/xmS4NSr6j3sfQsTc52YecTeGtok.jpg", "release_date": "1952-10-01", "title": "Ghost Ship", "video": false, "vote_average": 4.8, "vote_count": 6, "popularity": 3.934}, {"adult": false, "backdrop_path": "/iLfDTUfWC0IX2l5XHbsP8rDX3YP.jpg", "genre_ids": [10751, 35], "id": 80546, "original_language": "en", "original_title": "The Secret Agent Club", "overview": "A secret agent masquerades as a toy-seller, successfully concealing his alter ego even from his young son until, on a daring mission, he is captured by an evil arms dealer, then it falls to his inexperienced offspring to save the day.", "poster_path": "/sYQvJneCaFfa7yoVGViIUUXqN2q.jpg", "release_date": "1996-08-16", "title": "The Secret Agent Club", "video": false, "vote_average": 3.7, "vote_count": 16, "popularity": 3.353}, {"adult": false, "backdrop_path": "/1Ba4o1UtQCAODV29aPR2b5MfFo1.jpg", "genre_ids": [18, 28, 80], "id": 81720, "original_language": "en", "original_title": "Gangster Story", "overview": "Actor Walter Matthau directed his first and only feature film with the black-and-white crime drama Gangster Story. In an unusual noncomedic role, Matthau plays Jack Martin, a local gangster who wants to run his own crime syndicate in the neighborhood run by Earl Dawson (Bruce McFarlan). They eventually team up and plan a heist. Carol Grace plays the reform-minded girlfriend.", "poster_path": "/iZbKuaaXl8VS6ujHSysmv2mmXRs.jpg", "release_date": "1959-12-01", "title": "Gangster Story", "video": false, "vote_average": 4.7, "vote_count": 7, "popularity": 3.641}, {"adult": false, "backdrop_path": "/cmThswWY1cl2iWahtb5EOf1jrqo.jpg", "genre_ids": [53], "id": 50800, "original_language": "en", "original_title": "The Monkey's Paw", "overview": "A curio dealer sells a monkey's paw that can grant the possessor three wishes but warns that disaster will follow.", "poster_path": "/aze6UbbkmhiTzzwpNVaRwqlqx3Z.jpg", "release_date": "1948-06-01", "title": "The Monkey's Paw", "video": false, "vote_average": 5.7, "vote_count": 6, "popularity": 2.568}, {"id": 59822, "video": false, "vote_count": 4, "vote_average": 6.3, "title": "The Big Wheel", "release_date": "1949-11-04", "original_language": "en", "original_title": "The Big Wheel", "genre_ids": [28, 18, 10749], "backdrop_path": "/ihKlAsFhGBvBvEQLSesDjadoju7.jpg", "adult": false, "overview": "The ambitious son of an accomplished race driver struggles to outrun his father's legacy and achieve his own successes.", "poster_path": "/fgY298kceQgmVOPoxYYXPiWBHxy.jpg", "popularity": 3.508}, {"adult": false, "backdrop_path": "/pDeWsagFuTHmjl35LfFxFyglcn4.jpg", "genre_ids": [878], "id": 52455, "original_language": "en", "original_title": "Monster from Green Hell", "overview": "A test rocket carrying wasps to outer space,  to study the effects on them of weightlessness and radiations, crashes out of control back to Earth, into the jungles of Africa.  The two astrobiologists in charge of the test mount an expedition to the Darkest Continent to retrieve their experiment, only to find the wasps have grown to giant size which are panicking all forms of life as they quest for food.", "poster_path": "/htERk6p1lFCsnsf8CutKhBrNbK4.jpg", "release_date": "1957-05-17", "title": "Monster from Green Hell", "video": false, "vote_average": 2.8, "vote_count": 9, "popularity": 3.695}, {"adult": false, "backdrop_path": "/1xHUMMnpRP7p1OrZYRetmpIs2fN.jpg", "genre_ids": [80, 28, 53, 35], "id": 54498, "original_language": "en", "original_title": "The Junkman", "overview": "As film-maker Harlan Hollis drives to a James Dean festival, he's unaware that killers are tracking his every move. The fast and furious race to avoid their net, stay alive and discover who is behind this lethal plan, will take Hollis through a fiery battle, turning highways and city streets into a blazing junkyard.", "poster_path": "/4qECoy9qsXhggQVXZPZRk5eWrfv.jpg", "release_date": "1982-08-28", "title": "The Junkman", "video": false, "vote_average": 5.1, "vote_count": 6, "popularity": 3.718}, {"id": 38364, "video": false, "vote_count": 16, "vote_average": 6.9, "title": "The Square Peg", "release_date": "1958-12-04", "original_language": "en", "original_title": "The Square Peg", "genre_ids": [35, 10752], "backdrop_path": "/aenNmSk0d6fggqtj3Ma75jYD0fT.jpg", "adult": false, "overview": "Norman Pitkin and Mr Grimsdale are council workmen mending the road outside an Army base when they come into conflict with the military. Shortly afterwards, they get drafted and fall into the clutches of the Sergeant they have just bested. They are sent to France to repair roads in front of the Allied advance but get captured. Pitkin takes advantage of a useful similarity to impersonate General Schreiber and manages to return a hero", "poster_path": "/uxMpSBKt7UtKKuJspnYXkmcbPm4.jpg", "popularity": 6.151}, {"adult": false, "backdrop_path": "/99BffD3s01AF0G1ehqyCiS8gghg.jpg", "genre_ids": [28, 53], "id": 212759, "original_language": "en", "original_title": "Shotgun", "overview": "Detective Ian 'Shotgun' Jones hunts a sadistic misogynistic maniac.", "poster_path": "/edDGTSJzCGERjxJUfQXRlWNM4eK.jpg", "release_date": "1989-01-01", "title": "Shotgun", "video": false, "vote_average": 2.9, "vote_count": 5, "popularity": 4.392}, {"adult": false, "backdrop_path": "/5i5cPD5C1XIRG73JSTjoY7K1X70.jpg", "genre_ids": [27, 878], "id": 29389, "original_language": "en", "original_title": "Horror High", "overview": "A nerdy high school super whiz experiments with a chemical which will transform his guinea pig \"Mr. Mumps\" from a gentle pet into a ravenous monster. In a fit of rage against his tormentors at the high school, Vernon Potts goes on a killing spree, eliminating all of those who ever picked on him - the Gym Coach, the School Jock, The Creepy Janitor & his hated teacher, Ms. Grindstaff.", "poster_path": "/nonnAjk0CDKtMAgLJfgRDNMvh8J.jpg", "release_date": "1973-09-20", "title": "Horror High", "video": false, "vote_average": 6.0, "vote_count": 10, "popularity": 1.777}, {"id": 41830, "video": false, "vote_count": 8, "vote_average": 7.2, "title": "The Party's Over", "release_date": "1965-04-22", "original_language": "en", "original_title": "The Party's Over", "genre_ids": [18], "backdrop_path": "/nAiwrUKcpwzdB8K6cU07hEusW1s.jpg", "adult": false, "overview": "An American businessman visits London and is horrified to discover his nubile teenage daughter has become involved with a gang of thuggish \"beatniks\". Her involvement leads to wild parties, sex, death and necrophilia.", "poster_path": "/rCAGu2E0OlqFeqsZIkNsle9fQwb.jpg", "popularity": 3.255}, {"adult": false, "backdrop_path": "/cdkZkGQ8bnArMiQHKoYU5UbAzoP.jpg", "genre_ids": [27, 878], "id": 63027, "original_language": "en", "original_title": "Womaneater", "overview": "A mad scientist captures women and feeds them to a flesh-eating tree, which in turn gives him a serum that helps bring the dead back to life.", "poster_path": "/uOa5wVk9eiEKG0hLhjTeFN6zUD4.jpg", "release_date": "1958-04-01", "title": "Womaneater", "video": false, "vote_average": 4.6, "vote_count": 9, "popularity": 2.987}], "total_pages": 2, "total_results": 34}, "credits": {"cast": [{"cast_id": 1, "character": "Carter", "credit_id": "52fe4b3e9251416c750fcb9b", "gender": 2, "id": 62036, "name": "Robert Carradine", "order": 0, "profile_path": "/bHC0DdCEJ3frEWADFnTnftSmdgF.jpg"}, {"cast_id": 2, "character": "Jared Stone", "credit_id": "52fe4b3e9251416c750fcb9f", "gender": 2, "id": 112318, "name": "Jeff Speakman", "order": 1, "profile_path": "/kno9URc50rcXRkC8HenINbWBjPl.jpg"}, {"cast_id": 3, "character": "Shannon Brey", "credit_id": "52fe4b3e9251416c750fcba3", "gender": 1, "id": 1819, "name": "Robin Curtis", "order": 2, "profile_path": "/pHOmW0od8GD3PUC1Yd1jBDr2aD4.jpg"}, {"cast_id": 4, "character": "Cmdr. Wilson", "credit_id": "52fe4b3e9251416c750fcba7", "gender": 0, "id": 41280, "name": "Steve Kanaly", "order": 3, "profile_path": "/iSezeWgTfDbGF6uhqDccainUxNn.jpg"}, {"cast_id": 7, "character": "CIA Director Wilfrid Parlow", "credit_id": "547daae6c3a3685aed005d09", "gender": 2, "id": 2081, "name": "George Murdock", "order": 4, "profile_path": "/6FsCrzj86JjQJsEMYWnDBdPa0kw.jpg"}, {"cast_id": 8, "character": "Gibson", "credit_id": "547daaf5c3a3685af0005b99", "gender": 1, "id": 140198, "name": "Judith Chapman", "order": 5, "profile_path": "/gJhAuaERj7bfoolKptsux54UgqY.jpg"}], "crew": [{"credit_id": "52fe4b3e9251416c750fcbad", "department": "Directing", "gender": 2, "id": 129116, "job": "Director", "name": "Worth Keeter", "profile_path": "/eRMunsMfkYaCUc0JkfHI22WrXvz.jpg"}, {"credit_id": "547daab0c3a3685afd005619", "department": "Writing", "gender": 2, "id": 46912, "job": "Screenplay", "name": "Steve Latshaw", "profile_path": null}]}}