{"adult": false, "backdrop_path": null, "belongs_to_collection": null, "budget": 0, "genres": [{"id": 18, "name": "Drama"}, {"id": 14, "name": "Fantasy"}, {"id": 10749, "name": "Romance"}], "homepage": "http://www.imdb.com/title/tt0427430/", "id": 144758, "imdb_id": "tt0427430", "original_language": "en", "original_title": "Karroll's Christmas", "overview": "Allen Karroll hates Christmas ever since his ex-girlfriend humiliated him in front of thousands of people one Christmas. As a man who writes greeting cards for a living, this proves to be a hinderance. He also hates the man who lives across the street, Zeb Rosecog, who seems to take delight in tormenting him, who also happens to be the former CEO of Karroll's greeting card company. One day, Karroll is visited by the ghost Jacob Marley (related to Bob Marley), as well as the ghost of Christmas present, past and future (in that order) who all happen to have come to the wrong address, and had actually meant to visit Rosecog. During this experience, Karroll learns a lot about himself as well as Rosecog, and discovers that he and Rosecog have a lot in common, and decides to help Rosecog to see the light, and rediscover the joy of Christmas.", "popularity": 1.779, "poster_path": "/gj0zkTIhOL9p0jSJmnSA7pcYapf.jpg", "production_companies": [], "production_countries": [], "release_date": "2004-12-14", "revenue": 0, "runtime": 87, "spoken_languages": [{"iso_639_1": "en", "name": "English"}], "status": "Released", "tagline": "", "title": "Karroll's Christmas", "video": false, "vote_average": 5.5, "vote_count": 4, "keywords": {"keywords": [{"id": 186933, "name": "christmas music"}]}, "similar": {"page": 1, "results": [{"adult": false, "backdrop_path": "/h6NQoXBxD0uaIrpuk9FFV89vITT.jpg", "genre_ids": [10402, 35, 10751, 14, 18], "id": 10437, "original_language": "en", "original_title": "The Muppet Christmas Carol", "overview": "A retelling of the classic Dickens tale of Ebenezer Scrooge, miser extraordinaire. He is held accountable for his dastardly ways during night-time visitations by the Ghosts of Christmas Past, Present, and future.", "poster_path": "/fe4nLJkDNXhyuMnrZ60MfoSpPes.jpg", "release_date": "1992-12-10", "title": "The Muppet Christmas Carol", "video": false, "vote_average": 7.4, "vote_count": 497, "popularity": 10.24}, {"id": 25842, "video": false, "vote_count": 66, "vote_average": 7.2, "title": "A Christmas Carol", "release_date": "1938-12-16", "original_language": "en", "original_title": "A Christmas Carol", "genre_ids": [18, 14, 10751], "backdrop_path": "/7TY4Knu4EVcIVgpkStOeI99diGT.jpg", "adult": false, "overview": "Classic Charles Dickens holiday tale of Ebenezer Scrooge, the miser's miser who has a huge change of heart after spirits whisk him into the past, present, and future.", "poster_path": "/rJoFwqMaYyS3bmWXQGJh5qa7KMW.jpg", "popularity": 7.595}, {"id": 9647, "video": false, "vote_count": 786, "vote_average": 6.9, "title": "Scrooged", "release_date": "1988-11-22", "original_language": "en", "original_title": "Scrooged", "genre_ids": [35, 18, 14], "backdrop_path": "/6xezVJoUp0cZUBQeIDpW6lFuhcd.jpg", "adult": false, "overview": "In this modern take on Charles Dickens' \"A Christmas Carol,\" Frank Cross (Bill Murray) is a wildly successful television executive whose cold ambition and curmudgeonly nature has driven away the love of his life, Claire Phillips (Karen Allen). But after firing a staff member, Eliot Loudermilk (Bobcat Goldthwait), on Christmas Eve, Frank is visited by a series of ghosts who give him a chance to re-evaluate his actions and right the wrongs of his past.", "poster_path": "/uO0znfB2ZzTXA1IS7jkrjNbpkYK.jpg", "popularity": 17.767}, {"id": 17979, "video": false, "vote_count": 2815, "vote_average": 6.8, "title": "A Christmas Carol", "release_date": "2009-11-04", "original_language": "en", "original_title": "A Christmas Carol", "genre_ids": [16, 10751], "backdrop_path": "/GtwSStViUdhKGf0d7tCkR7alKV.jpg", "adult": false, "overview": "Miser Ebenezer Scrooge is awakened on Christmas Eve by spirits who reveal to him his own miserable existence, what opportunities he wasted in his youth, his current cruelties, and the dire fate that awaits him if he does not change his ways. Scrooge is faced with his own story of growing bitterness and meanness, and must decide what his own future will hold: death or redemption.", "poster_path": "/jeOCcjUAcSYleVwhsaKEPT4CYwF.jpg", "popularity": 19.945}, {"id": 16716, "video": false, "vote_count": 95, "vote_average": 7.1, "title": "A Christmas Carol", "release_date": "1999-12-05", "original_language": "en", "original_title": "A Christmas Carol", "genre_ids": [18, 14], "backdrop_path": "/lHx4YyJFUJtzkkjEthzjAr9TqE7.jpg", "adult": false, "overview": "Scrooge is a miserly old businessman in 1840s London. One Christmas Eve he is visited by the ghost of Marley, his dead business partner. Marley foretells that Scrooge will be visited by three spirits, each of whom will attempt to show Scrooge the error of his ways. Will Scrooge reform his ways in time to celebrate Christmas?", "poster_path": "/r8BDSSIaRVAk8Rkg9GutSoZrikT.jpg", "popularity": 9.238}, {"id": 850, "video": false, "vote_count": 677, "vote_average": 7.4, "title": "A Christmas Story", "release_date": "1983-11-18", "original_language": "en", "original_title": "A Christmas Story", "genre_ids": [35, 10751], "backdrop_path": "/wok0YepwQfBAPsrttFq0W6HXT2g.jpg", "adult": false, "overview": "The comic mishaps and adventures of a young boy named Ralph, trying to convince his parents, teachers, and Santa that a Red Ryder B.B. gun really is the perfect Christmas gift for the 1940s.", "poster_path": "/u348XMdz7g2Eu54yntt1qshUixk.jpg", "popularity": 9.472}, {"id": 14813, "video": false, "vote_count": 456, "vote_average": 7.6, "title": "Mickey's Christmas Carol", "release_date": "1983-10-19", "original_language": "en", "original_title": "Mickey's Christmas Carol", "genre_ids": [16, 10751], "backdrop_path": "/fDK3xeAcQfQ40ZUULgZshElkspa.jpg", "adult": false, "overview": "It is an adaptation of the Charles Dickens classic A Christmas Carol, featuring Scrooge McDuck as his namesake and inspiration Ebenezer Scrooge and Mickey Mouse as Bob Cratchit. This film was based on a 1972 audio musical entitled Disney's A Christmas Carol. It is a twenty-four minute animated short film produced by Walt Disney Productions as an accompaniment to a re-release of The Rescuers.", "poster_path": "/29iF1IiC3ZyJQ1kmTf4LD8p8oro.jpg", "popularity": 14.7}, {"id": 927, "video": false, "vote_count": 3740, "vote_average": 7.1, "title": "Gremlins", "release_date": "1984-06-07", "original_language": "en", "original_title": "Gremlins", "genre_ids": [35, 14, 27], "backdrop_path": "/xZ5SUO6YtIcSwRuKZhNLBfCJzpv.jpg", "adult": false, "overview": "When Billy Peltzer is given a strange but adorable pet named Gizmo for Christmas, he inadvertently breaks the three important rules of caring for a Mogwai, and unleashes a horde of mischievous gremlins on a small town.", "poster_path": "/atBZUwRpx60ZpzcM9yOB4E8nuY.jpg", "popularity": 29.69}, {"id": 25741, "video": false, "vote_count": 88, "vote_average": 5.6, "title": "The Flight Before Christmas", "release_date": "2008-09-22", "original_language": "en", "original_title": "Niko: Lent\u00e4j\u00e4n poika", "genre_ids": [12, 16, 18, 14, 10751], "backdrop_path": "/kEgr8FGXavizdpsZ4LwWpmkDy3L.jpg", "adult": false, "overview": "A young reindeer who suffers from vertigo learns to overcome his fear, takes flying lessons from a clumsy flying squirrel and heads to the North pole to save a troubled Santa and his fleet of flying reindeer.", "poster_path": "/7r4Z2bDmjvTY4hHbhCQqqALS3hl.jpg", "popularity": 11.717}, {"adult": false, "backdrop_path": "/reQewz6KndV7Js2mfLfaaX8Rj0T.jpg", "genre_ids": [28, 14], "id": 364, "original_language": "en", "original_title": "Batman Returns", "overview": "Having defeated the Joker, Batman now faces the Penguin\u2014a warped and deformed individual who is intent on being accepted into Gotham society, with the help of Max Schreck, a crooked businessman, whom he coerces into helping him run for the position of Mayor of Gotham, while they both attempt to frame Batman in a different light. Batman must attempt to clear his name, all while also deciding just what must be done with the mysterious Catwoman slinking about.", "poster_path": "/jKBjeXM7iBBV9UkUcOXx3m7FSHY.jpg", "release_date": "1992-06-19", "title": "Batman Returns", "video": false, "vote_average": 6.8, "vote_count": 3615, "popularity": 26.315}, {"id": 9745, "video": false, "vote_count": 644, "vote_average": 5.9, "title": "Jack Frost", "release_date": "1998-12-10", "original_language": "en", "original_title": "Jack Frost", "genre_ids": [35, 18, 14, 10751], "backdrop_path": "/15FdBioriLIBiJqG3MFBlNGgHzp.jpg", "adult": false, "overview": "A father, who can't keep his promises, dies in a car accident. One year later, he returns as a snowman, who has the final chance to put things right with his son before he is gone forever.", "poster_path": "/cPmO5VZhqN4ocrgxjGaFmLeMREv.jpg", "popularity": 14.091}, {"id": 10719, "video": false, "vote_count": 2252, "vote_average": 6.6, "title": "Elf", "release_date": "2003-10-09", "original_language": "en", "original_title": "Elf", "genre_ids": [35, 14, 10751], "backdrop_path": "/jRzrQ7Thcjpetr0n8B6w980eZet.jpg", "adult": false, "overview": "When young Buddy falls into Santa's gift sack on Christmas Eve, he's transported back to the North Pole and raised as a toy-making elf by Santa's helpers. But as he grows into adulthood, he can't shake the nagging feeling that he doesn't belong. Buddy vows to visit Manhattan and find his real dad, a workaholic publisher.", "poster_path": "/9jChHqqcpe0zHNTqkNqWZkwkgil.jpg", "popularity": 14.355}, {"adult": false, "backdrop_path": "/7ApilgVwA0rjhl92GFTzW0FLGBG.jpg", "genre_ids": [10749, 10770], "id": 427045, "original_language": "en", "original_title": "A December Bride", "overview": "Aspiring interior designer Layla is dreading the Christmastime wedding of her cousin who\u2019s marrying Layla\u2019s ex-fianc\u00e9. Although Seth is the one responsible for introducing the bride and groom, she begrudgingly accepts his offer to be her date as she\u2019s out of options. Seth gets carried away at the reception and announces they\u2019re engaged, forcing a mortified Layla to keep up the pretense.", "poster_path": "/o1jAel6EasQkLPUj0TcDOJB2btE.jpg", "release_date": "2016-11-20", "title": "A December Bride", "video": false, "vote_average": 6.5, "vote_count": 66, "popularity": 9.01}, {"id": 13398, "video": false, "vote_count": 410, "vote_average": 7.8, "title": "Tokyo Godfathers", "release_date": "2003-12-29", "original_language": "ja", "original_title": "\u6771\u4eac\u30b4\u30c3\u30c9\u30d5\u30a1\u30fc\u30b6\u30fc\u30ba", "genre_ids": [16, 18], "backdrop_path": "/fHJDbaPJvoyaVnIvoUFml3yndqY.jpg", "adult": false, "overview": "One Christmas Eve three people, a middle-aged alcoholic named Gin, a former drag queen Hana and a dependent runaway girl Miyuki, discover an abandoned newborn while looking through the garbage.", "poster_path": "/aY1q9dTGC8u8TUsAgnpJHsdAdJZ.jpg", "popularity": 12.369}, {"id": 1585, "video": false, "vote_count": 2261, "vote_average": 8.2, "title": "It's a Wonderful Life", "release_date": "1946-12-20", "original_language": "en", "original_title": "It's a Wonderful Life", "genre_ids": [18, 14, 10751], "backdrop_path": "/nMomMy1sD3SN2QsKop3zBXCJfDJ.jpg", "adult": false, "overview": "A holiday favourite for generations...  George Bailey has spent his entire life giving to the people of Bedford Falls.  All that prevents rich skinflint Mr. Potter from taking over the entire town is George's modest building and loan company.  But on Christmas Eve the business's $8,000 is lost and George's troubles begin.", "poster_path": "/bSqt9rhDZx1Q7UZ86dBPKdNomp2.jpg", "popularity": 30.622}, {"id": 1581, "video": false, "vote_count": 2900, "vote_average": 7.0, "title": "The Holiday", "release_date": "2006-12-08", "original_language": "en", "original_title": "The Holiday", "genre_ids": [35, 10749], "backdrop_path": "/9TP7FGdo9ppnuXX3DbB9RtzYKkh.jpg", "adult": false, "overview": "Two women, one from the United States and one from the United Kingdom, swap homes at Christmastime after bad breakups with their boyfriends. Each woman finds romance with a local man but realizes that the imminent return home may end the relationship.", "poster_path": "/ixNtpuq8OVp4IckgzkSJIflFDkw.jpg", "popularity": 18.889}, {"id": 527435, "video": false, "vote_count": 960, "vote_average": 7.1, "title": "The Christmas Chronicles", "release_date": "2018-11-22", "original_language": "en", "original_title": "The Christmas Chronicles", "genre_ids": [12, 35, 14, 10751], "backdrop_path": "/brENMyyhk13WLzKHBK20rBKx0u7.jpg", "adult": false, "overview": "Siblings Kate and Teddy try to prove Santa Claus is real, but when they accidentally cause his sleigh to crash, they have to save Christmas.", "poster_path": "/5Il2EMSF2KecrUKZPuen6BZmaCP.jpg", "popularity": 12.455}, {"id": 295151, "video": false, "vote_count": 540, "vote_average": 6.2, "title": "Let It Snow", "release_date": "2019-11-08", "original_language": "en", "original_title": "Let It Snow", "genre_ids": [35, 10749], "backdrop_path": "/4oSRQ03nJjl8sZAPgIXgi51XZva.jpg", "adult": false, "overview": "When a huge blizzard (that doesn't show signs of stopping) hits, Gracetown is completely snowed in. But even though it's cold outside, things are heating up inside, proving that Christmas is magical when it comes to love.", "poster_path": "/rEVu3E1OhMPJeCAn9a6QLyVhZDj.jpg", "popularity": 16.181}, {"id": 296100, "video": false, "vote_count": 1047, "vote_average": 6.1, "title": "The Night Before", "release_date": "2015-11-20", "original_language": "en", "original_title": "The Night Before", "genre_ids": [12, 35, 14], "backdrop_path": "/oU2QnkVNHyT2bP1EAxRvKz6S5ga.jpg", "adult": false, "overview": "In New York City for their annual tradition of Christmas Eve debauchery, three lifelong best friends set out to find the Holy Grail of Christmas parties since their yearly reunion might be coming to an end.", "poster_path": "/eEGZgNZgN3sZWwoSaL1u2rTGlzj.jpg", "popularity": 11.499}, {"id": 11395, "video": false, "vote_count": 1133, "vote_average": 6.3, "title": "The Santa Clause", "release_date": "1994-11-10", "original_language": "en", "original_title": "The Santa Clause", "genre_ids": [35, 18, 14, 10751], "backdrop_path": "/rcQZmnhcb6P4mkgJAHnCYp3c1gp.jpg", "adult": false, "overview": "Scott Calvin is an ordinary man, who accidentally causes Santa Claus to fall from his roof on Christmas Eve and is knocked unconscious. When he and his young son finish Santa's trip and deliveries, they go to the North Pole, where Scott learns he must become the new Santa and convince those he loves that he is indeed, Father Christmas.", "poster_path": "/4LtaCHxAwfrXNhujGsNQpLbs8wr.jpg", "popularity": 14.808}], "total_pages": 90, "total_results": 1797}, "recommendations": {"page": 1, "results": [], "total_pages": 1, "total_results": 0}, "credits": {"cast": [{"cast_id": 1, "character": "Allen Karroll", "credit_id": "52fe4b419251416c750fd099", "gender": 2, "id": 16857, "name": "Tom Everett Scott", "order": 0, "profile_path": "/nVDihOvsSm7kmeyHLtAcEzrrSYC.jpg"}, {"cast_id": 2, "character": "Jodie McDougall", "credit_id": "52fe4b419251416c750fd09d", "gender": 1, "id": 10402, "name": "Alanna Ubach", "order": 1, "profile_path": "/g0GOzbSDAzhMxoCBNofiMxHIJJj.jpg"}, {"cast_id": 3, "character": "", "credit_id": "52fe4b419251416c750fd0a1", "gender": 2, "id": 12900, "name": "Wallace Shawn", "order": 2, "profile_path": "/oGE6JqPP2xH4tNORKNqxbNPYi7u.jpg"}, {"cast_id": 4, "character": "", "credit_id": "52fe4b419251416c750fd0a5", "gender": 2, "id": 10987, "name": "Verne Troyer", "order": 3, "profile_path": "/AjCmNZ2cA6OXbLZ6ZXfxEveI7LF.jpg"}, {"cast_id": 5, "character": "", "credit_id": "52fe4b419251416c750fd0a9", "gender": 1, "id": 155426, "name": "Deanna Milligan", "order": 4, "profile_path": "/kbmsptLQDHBNx2kQeWvzZA2Dkxm.jpg"}], "crew": [{"credit_id": "52fe4b419251416c750fd0af", "department": "Directing", "gender": 2, "id": 17494, "job": "Director", "name": "Dennis Dugan", "profile_path": "/A9Hv8qqB4fgb5IMjEESzBo8LXPZ.jpg"}, {"credit_id": "5de196434f58010012ffcdef", "department": "Writing", "gender": 2, "id": 2469341, "job": "Teleplay", "name": "David Schneider", "profile_path": null}]}}