{"adult": false, "backdrop_path": "/shX4ipjkH0x3svca8AEPIqNwd1b.jpg", "belongs_to_collection": null, "budget": 0, "genres": [{"id": 18, "name": "Drama"}, {"id": 9648, "name": "Mystery"}], "homepage": "", "id": 145066, "imdb_id": "tt0105790", "original_language": "en", "original_title": "Waterland", "overview": "The story of a mentally anguished high school history teacher going through a complete reassessment of his life. His method for reassessing his life is to narrate it to his class and interweave in it three generations of his family's history.", "popularity": 4.533, "poster_path": "/kJYVr0029Gvs78A3W7YkccluG7c.jpg", "production_companies": [{"id": 185, "logo_path": null, "name": "Pandora Cinema", "origin_country": ""}, {"id": 12745, "logo_path": null, "name": "British Screen Productions", "origin_country": "GB"}, {"id": 181, "logo_path": "/zhQ77XOviCBuXd74IurqqjgLNe0.png", "name": "Channel Four Films", "origin_country": "GB"}, {"id": 927, "logo_path": null, "name": "Palace Pictures", "origin_country": ""}], "production_countries": [{"iso_3166_1": "GB", "name": "United Kingdom"}], "release_date": "1992-08-21", "revenue": 0, "runtime": 95, "spoken_languages": [{"iso_639_1": "en", "name": "English"}], "status": "Released", "tagline": "", "title": "Waterland", "video": false, "vote_average": 6.6, "vote_count": 13, "keywords": {"keywords": [{"id": 818, "name": "based on novel or book"}, {"id": 1228, "name": "1970s"}, {"id": 3371, "name": "family history"}, {"id": 10508, "name": "teacher"}, {"id": 10937, "name": "memory"}, {"id": 41525, "name": "high school teacher"}, {"id": 180546, "name": "norfolk"}, {"id": 193594, "name": "pittsburgh"}]}, "similar": {"page": 1, "results": [{"id": 84892, "video": false, "vote_count": 6548, "vote_average": 7.7, "title": "The Perks of Being a Wallflower", "release_date": "2012-09-20", "original_language": "en", "original_title": "The Perks of Being a Wallflower", "genre_ids": [18], "backdrop_path": "/uhLcaTPeBpUNgYhZXhDWkj7gMkp.jpg", "adult": false, "overview": "15-year-old freshman Charlie is a wallflower, always watching life from the sidelines, until two charismatic senior students become his mentors. Free-spirited Sam and her stepbrother Patrick help Charlie discover the joys of friendship, first love, music and more, while a teacher sparks Charlie's dreams of becoming a writer.", "poster_path": "/cyNQLnHnXZcTUDXVVSEYmquOTOI.jpg", "popularity": 19.873}, {"id": 7980, "video": false, "vote_count": 2439, "vote_average": 6.9, "title": "The Lovely Bones", "release_date": "2009-12-26", "original_language": "en", "original_title": "The Lovely Bones", "genre_ids": [18, 14], "backdrop_path": "/1ob8hisSbDnG4iV19XSZJN97sKI.jpg", "adult": false, "overview": "After being brutally murdered, 14-year-old Susie Salmon watches from heaven over her grief-stricken family -- and her killer. As she observes their daily lives, she must balance her thirst for revenge with her desire for her family to heal.", "poster_path": "/x6h0UMw1YJG9YIYwkN3ieVIgU4.jpg", "popularity": 19.737}, {"adult": false, "backdrop_path": "/dLAPTvBwEdP4h7a14isNc0HwmOj.jpg", "genre_ids": [18, 10749], "id": 250734, "original_language": "en", "original_title": "Far from the Madding Crowd", "overview": "Based on the literary classic by Thomas Hardy. Bathsheba Everdene, attracts three very different suitors: Gabriel Oak, a sheep farmer, captivated by her fetching willfulness; Frank Troy, a handsome and reckless Sergeant; and William Boldwood, a prosperous and mature bachelor. This timeless story of Bathsheba's choices and passions explores the nature of relationships and love \u2013 as well as the human ability to overcome hardships through resilience and perseverance.", "poster_path": "/6v1DEaO2TZzrqcaGohUf1K7BXkU.jpg", "release_date": "2015-04-23", "title": "Far from the Madding Crowd", "video": false, "vote_average": 7.0, "vote_count": 643, "popularity": 14.468}, {"adult": false, "backdrop_path": "/kiWvoV78Cc3fUwkOHKzyBgVdrDD.jpg", "genre_ids": [37, 18, 12], "id": 281957, "original_language": "en", "original_title": "The Revenant", "overview": "In the 1820s, a frontiersman, Hugh Glass, sets out on a path of vengeance against those who left him for dead after a bear mauling.", "poster_path": "/oXUWEc5i3wYyFnL1Ycu8ppxxPvs.jpg", "release_date": "2015-12-25", "title": "The Revenant", "video": false, "vote_average": 7.5, "vote_count": 12122, "popularity": 30.491}, {"id": 123553, "video": false, "vote_count": 3198, "vote_average": 6.3, "title": "The Mortal Instruments: City of Bones", "release_date": "2013-08-21", "original_language": "en", "original_title": "The Mortal Instruments: City of Bones", "genre_ids": [28, 12, 18, 14, 9648, 10749], "backdrop_path": "/xIisiN3GxiOMpYQOYarzWlgpDNT.jpg", "adult": false, "overview": "In New York City, Clary Fray, a seemingly ordinary teenager, learns that she is descended from a line of Shadowhunters \u2014 half-angel warriors who protect humanity from evil forces. After her mother disappears, Clary joins forces with a group of Shadowhunters and enters Downworld, an alternate realm filled with demons, vampires, and a host of other creatures. Clary and her companions must find and protect an ancient cup that holds the key to her mother's future.", "poster_path": "/xOBuyMuqc5lDNfxz6ipFjrxd38X.jpg", "popularity": 23.503}, {"adult": false, "backdrop_path": "/nEdBHjvRkKwEPD1Ps5A3rRiiLVN.jpg", "genre_ids": [14, 18, 10749], "id": 8966, "original_language": "en", "original_title": "Twilight", "overview": "When Bella Swan moves to a small town in the Pacific Northwest to live with her father, she meets the reclusive Edward Cullen, a mysterious classmate who reveals himself to be a 108-year-old vampire. Despite Edward's repeated cautions, Bella can't help but fall in love with him, a fatal move that endangers her own life when a coven of bloodsuckers try to challenge the Cullen clan.", "poster_path": "/lcMp3AONdNhjYE9MmTtMMTOiRDP.jpg", "release_date": "2008-11-20", "title": "Twilight", "video": false, "vote_average": 6.0, "vote_count": 8146, "popularity": 31.98}, {"id": 198663, "video": false, "vote_count": 11444, "vote_average": 7.1, "title": "The Maze Runner", "release_date": "2014-09-10", "original_language": "en", "original_title": "The Maze Runner", "genre_ids": [28, 9648, 878, 53], "backdrop_path": "/lkOZcsXcOLZYeJ2YxJd3vSldvU4.jpg", "adult": false, "overview": "Set in a post-apocalyptic world, young Thomas is deposited in a community of boys after his memory is erased, soon learning they're all trapped in a maze that will require him to join forces with fellow \u201crunners\u201d for a shot at escape.", "poster_path": "/coss7RgL0NH6g4fC2s5atvf3dFO.jpg", "popularity": 51.629}, {"id": 470044, "video": false, "vote_count": 909, "vote_average": 8.3, "title": "The Hate U Give", "release_date": "2018-10-19", "original_language": "en", "original_title": "The Hate U Give", "genre_ids": [80, 18], "backdrop_path": "/5AijK8OxcTzuT8z6aEcc3kO96eG.jpg", "adult": false, "overview": "Raised in a poverty-stricken slum, a 16-year-old girl named Starr now attends a suburban prep school. After she witnesses a police officer shoot her unarmed best friend, she's torn between her two very different worlds as she tries to speak her truth.", "poster_path": "/2icwBom0t5nmOuZI9FVXF3gkMK0.jpg", "popularity": 42.192}, {"id": 449176, "video": false, "vote_count": 3690, "vote_average": 8.1, "title": "Love, Simon", "release_date": "2018-02-16", "original_language": "en", "original_title": "Love, Simon", "genre_ids": [35, 18, 10749], "backdrop_path": "/rqMEeajyzSF4PpJtdCB816Iz8Vr.jpg", "adult": false, "overview": "Everyone deserves a great love story. But for seventeen-year old Simon Spier it's a little more complicated: he's yet to tell his family or friends he's gay and he doesn't know the identity of the anonymous classmate he's fallen for online.", "poster_path": "/5YUYg5q7QfC4IoNwNUtiwdiYKPr.jpg", "popularity": 24.849}, {"adult": false, "backdrop_path": "/sG3Du3Ha6rGeSzFfXme1nh8S2Jl.jpg", "genre_ids": [18, 10751, 14, 12], "id": 34584, "original_language": "en", "original_title": "Die unendliche Geschichte", "overview": "While hiding from bullies in his school's attic, a young boy discovers the extraordinary land of Fantasia, through a magical book called The Neverending Story. The book tells the tale of Atreyu, a young warrior who, with the help of a luck dragon named Falkor, must save Fantasia from the destruction of The Nothing.", "poster_path": "/ddYCa91iDXfJCxaqSYzwi2fjfnl.jpg", "release_date": "1984-04-05", "title": "The NeverEnding Story", "video": false, "vote_average": 7.1, "vote_count": 2201, "popularity": 16.928}, {"id": 411728, "video": false, "vote_count": 342, "vote_average": 7.2, "title": "The Professor and the Madman", "release_date": "2019-03-07", "original_language": "en", "original_title": "The Professor and the Madman", "genre_ids": [18, 36, 9648, 53], "backdrop_path": "/zhNfM1CSQqJtIqelwlK9iKtSd9P.jpg", "adult": false, "overview": "Professor James Murray begins work compiling words for the first edition of the Oxford English Dictionary in the mid 19th century, and receives over 10,000 entries from a patient at Broadmoor Criminal Lunatic Asylum, Dr. William Minor.", "poster_path": "/gtGCDLhfjW96qVarwctnuTpGOtD.jpg", "popularity": 14.972}, {"adult": false, "backdrop_path": "/mAXgaPxxUQg6U446yz8KPRYSUT.jpg", "genre_ids": [12, 18, 10751], "id": 44826, "original_language": "en", "original_title": "Hugo", "overview": "Orphaned and alone except for an uncle, Hugo Cabret lives in the walls of a train station in 1930s Paris. Hugo's job is to oil and maintain the station's clocks, but to him, his more important task is to protect a broken automaton and notebook left to him by his late father. Accompanied by the goddaughter of an embittered toy merchant, Hugo embarks on a quest to solve the mystery of the automaton and find a place he can call home.", "poster_path": "/rSmmVKeW3nsP86V2S6R7ePs4CFw.jpg", "release_date": "2011-11-22", "title": "Hugo", "video": false, "vote_average": 7.1, "vote_count": 4577, "popularity": 19.298}, {"id": 1878, "video": false, "vote_count": 2623, "vote_average": 7.2, "title": "Fear and Loathing in Las Vegas", "release_date": "1998-05-22", "original_language": "en", "original_title": "Fear and Loathing in Las Vegas", "genre_ids": [12, 35, 18], "backdrop_path": "/vtEKE4OFsnuIh37oo1arOMM2ELv.jpg", "adult": false, "overview": "Raoul Duke and his attorney Dr. Gonzo drive a red convertible across the Mojave desert to Las Vegas with a suitcase full of drugs to cover a motorcycle race. As their consumption of drugs increases at an alarming rate, the stoned duo trash their hotel room and fear legal repercussions. Duke begins to drive back to L.A., but after an odd run-in with a cop, he returns to Sin City and continues his wild drug binge.", "poster_path": "/u9ffgobMADj6GCafeImbov566j9.jpg", "popularity": 24.539}, {"adult": false, "backdrop_path": "/GRyynLqafMrLFMHqvfGdUweavA.jpg", "genre_ids": [27, 18, 14], "id": 628, "original_language": "en", "original_title": "Interview with the Vampire", "overview": "A vampire relates his epic life story of love, betrayal, loneliness, and dark hunger to an over-curious reporter.", "poster_path": "/hldXwwViSfHJS0kIJr07KBGmHJI.jpg", "release_date": "1994-11-11", "title": "Interview with the Vampire", "video": false, "vote_average": 7.3, "vote_count": 3229, "popularity": 20.093}, {"id": 262504, "video": false, "vote_count": 4482, "vote_average": 6.0, "title": "Allegiant", "release_date": "2016-03-09", "original_language": "en", "original_title": "Allegiant", "genre_ids": [28, 12, 9648, 878], "backdrop_path": "/p1dkPKpHJ32FvhKZSAUdA1JSYFi.jpg", "adult": false, "overview": "Beatrice Prior and Tobias Eaton venture into the world outside of the fence and are taken into protective custody by a mysterious agency known as the Bureau of Genetic Welfare.", "poster_path": "/tSFBh9Ayn5uiwbUK9HvD2lrRgaQ.jpg", "popularity": 24.314}, {"id": 222935, "video": false, "vote_count": 7929, "vote_average": 7.6, "title": "The Fault in Our Stars", "release_date": "2014-05-16", "original_language": "en", "original_title": "The Fault in Our Stars", "genre_ids": [18, 10749], "backdrop_path": "/hZWp4W5aQvGm1WiiGFYIuBUOQ3K.jpg", "adult": false, "overview": "Despite the tumor-shrinking medical miracle that has bought her a few years, Hazel has never been anything but terminal, her final chapter inscribed upon diagnosis. But when a patient named Augustus Waters suddenly appears at Cancer Kid Support Group, Hazel's story is about to be completely rewritten.", "poster_path": "/sc6XLX6J714LDkVV3Ys3clgypQS.jpg", "popularity": 21.409}, {"adult": false, "backdrop_path": "/uCjCNaxLyLkcwBq4aOHOeiKKwPE.jpg", "genre_ids": [35, 10749, 80, 18, 9648], "id": 171274, "original_language": "en", "original_title": "Inherent Vice", "overview": "In Los Angeles at the turn of the 1970s, drug-fueled detective Larry \"Doc\" Sportello investigates the disappearance of an ex-girlfriend.", "poster_path": "/2fCg6FORkgRLpFIKlUg4gULIn1u.jpg", "release_date": "2014-12-25", "title": "Inherent Vice", "video": false, "vote_average": 6.6, "vote_count": 1534, "popularity": 25.677}, {"id": 656968, "video": false, "vote_count": 23, "vote_average": 7.0, "title": "A Christmas Carol", "release_date": "2019-12-19", "original_language": "en", "original_title": "A Christmas Carol", "genre_ids": [18, 14], "backdrop_path": "/ubLsCmv36zUUt2zxhFSowYFe5uF.jpg", "adult": false, "overview": "London, 1843. Ebenezer Scrooge, a bitter old man, despises the Christmas holiday. Over the course of Christmas Eve night he is visited by three ghosts to show him his past, present and future.", "poster_path": "/tKW48tnZKaHLBIxxgoAf9BIpyRv.jpg", "popularity": 10.458}, {"adult": false, "backdrop_path": "/hm8Gux0946IfeJ1PZwztOo6lVHH.jpg", "genre_ids": [18, 36, 35], "id": 450322, "original_language": "en", "original_title": "The Man Who Invented Christmas", "overview": "In 1843, despite the fact that Dickens is a successful writer, the failure of his latest book puts his career at a crossroads, until the moment when, struggling with inspiration and confronting reality with his childhood memories, a new character is born in the depths of his troubled mind; an old, lonely, embittered man, so vivid, so human, that a whole world grows around him, a story so inspiring that changed the meaning of Christmas forever.", "poster_path": "/xYCuRgEKynGurSEooxDa9pQPF7n.jpg", "release_date": "2017-10-12", "title": "The Man Who Invented Christmas", "video": false, "vote_average": 6.7, "vote_count": 395, "popularity": 13.295}, {"id": 417678, "video": false, "vote_count": 2720, "vote_average": 7.2, "title": "Everything, Everything", "release_date": "2017-05-18", "original_language": "en", "original_title": "Everything, Everything", "genre_ids": [18, 10749], "backdrop_path": "/sSJiJKqNcejUAQDplhWyjykLbqB.jpg", "adult": false, "overview": "A teenager who's lived a sheltered life because she's allergic to everything, falls for the boy who moves in next door.", "poster_path": "/c8W3Go48Mw0GoNXsGK4W9hNO4Vf.jpg", "popularity": 15.072}], "total_pages": 17, "total_results": 327}, "recommendations": {"page": 1, "results": [{"adult": false, "backdrop_path": null, "genre_ids": [18, 35], "id": 121870, "original_language": "en", "original_title": "Patti Rocks", "overview": "It's Christmas time in the twin cities. Billy's working a lot of overtime, running barges on the Mississippi. He calls his friend Eddie, whom he hasn't seen in six months, and asks a favor: to drive with him to see his pregnant girlfriend, Patti, because Billy hasn't told her he's married and already has two children. The road trip of guy talk becomes a night of truths exchanged between men and women.", "poster_path": "/wq8nPywpy9GweuMbZsZCFmWMk8l.jpg", "release_date": "1988-01-15", "title": "Patti Rocks", "video": false, "vote_average": 3.1, "vote_count": 4, "popularity": 2.737}, {"adult": false, "backdrop_path": null, "genre_ids": [18], "id": 91217, "original_language": "en", "original_title": "Men Don't Leave", "overview": "After her husband John dies unexpectedly, Beth Macauley is unprepared for life without him. She is unemployed with no job skills and $60,000 in debt from on-going renovations to their house located in suburban Bingham. She doesn't know what to do but sell what material possessions she has, such as the family pick-up truck and the house, and move into an apartment in the city, namely Baltimore. Beth just wants to survive by finding a job she doesn't dislike, and keep her family together while trying to maintain her sanity and sense of self-worth", "poster_path": "/nG4QJg4ukabGAgbmANMCNBxUtp1.jpg", "release_date": "1990-02-02", "title": "Men Don't Leave", "video": false, "vote_average": 7.1, "vote_count": 14, "popularity": 3.03}, {"adult": false, "backdrop_path": "/Y0dBmbp7KGDrGjmF6g7POmjnnR.jpg", "genre_ids": [18], "id": 96349, "original_language": "en", "original_title": "Working Girls", "overview": "A day in the life of several sex workers in an upscale Manhattan brothel. The film is a stark portrayal of the women, the male customers and the motivations of both. Watch as the madam manipulates her \"girls\". Watch as she answers the phone by saying \"Hello John, what's new and different?\" Watch as the \"johns\" try to manipulate the \"girls\". Part nudie exploitation, part sociological thesis.", "poster_path": "/gJympU2eo89kojBGRszpSHV3NB1.jpg", "release_date": "1986-05-28", "title": "Working Girls", "video": false, "vote_average": 6.1, "vote_count": 8, "popularity": 4.123}, {"adult": false, "backdrop_path": null, "genre_ids": [18, 35], "id": 54715, "original_language": "en", "original_title": "Leaving Normal", "overview": "A female buddy story in which Meg Tilly plays a child-like 20-something who has just walked out on her abusive husband. Darly (Christine Lahti) is fleeing a life as a waitress and stripper and is on her way to Alaska to claim a home and family she abandoned eighteen years earlier after giving birth. The two run into each other on the road and Darly welcomes the company as they head north from Wyoming.", "poster_path": "/zZWTFb1eT9CL8GePAilkRyB8Zut.jpg", "release_date": "1992-04-29", "title": "Leaving Normal", "video": false, "vote_average": 6.8, "vote_count": 12, "popularity": 4.385}, {"adult": false, "backdrop_path": "/kCYSYFFv8ysBfxxb9jqDnc88VR4.jpg", "genre_ids": [18, 10749], "id": 19958, "original_language": "en", "original_title": "The Year My Voice Broke", "overview": "Set in 1962, a young prepubescent boy in rural Australia watches painfully as his best friend and first love blossoms into womanhood and falls for a thuggish rugby player, changing the lives of everyone involved.", "poster_path": "/kEVkhw9hQYknBhtTapHlVoHzOW8.jpg", "release_date": "1987-01-01", "title": "The Year My Voice Broke", "video": false, "vote_average": 7.5, "vote_count": 16, "popularity": 3.702}, {"adult": false, "backdrop_path": "/37LoFm9rIf6Th56UqYZMIb23HqH.jpg", "genre_ids": [18], "id": 32712, "original_language": "et", "original_title": "A Casa", "overview": "Abstract, beautifully photographed and nearly silent but for limited narration, this plotless arthouse outing from Lithuanian cult film director Sharunas Bartas pays tribute to a huge, old lakeside manor and Lithuanian culture.", "poster_path": "/7OlrDw8fInAdaZKb7ieIc7TSbFi.jpg", "release_date": "1997-10-01", "title": "The House", "video": false, "vote_average": 7.3, "vote_count": 11, "popularity": 2.465}, {"adult": false, "backdrop_path": "/9MZrkF78d5sCiuUJP1QgQCFLl8j.jpg", "genre_ids": [18], "id": 2302, "original_language": "en", "original_title": "Avalon", "overview": "Avalon is the third in Levinson's semi-autobiographical series of four \"Baltimore Films\": Diner (1982), Tin Men (1987), Avalon (1990), and Liberty Heights (1999). The film is set in Baltimore in the early 1950s and explores the themes of Jewish assimilation into American life.", "poster_path": "/eG8f40D3SvoLUpAub2FDZ8ygngB.jpg", "release_date": "1990-10-05", "title": "Avalon", "video": false, "vote_average": 6.6, "vote_count": 34, "popularity": 5.99}], "total_pages": 1, "total_results": 7}, "credits": {"cast": [{"cast_id": 1, "character": "Tom Crick", "credit_id": "52fe4b4c9251416c750fe70f", "gender": 2, "id": 16940, "name": "Jeremy Irons", "order": 0, "profile_path": "/9AWphjIgGX7JjTrwrx3tsTZlUgv.jpg"}, {"cast_id": 2, "character": "Mary Crick", "credit_id": "52fe4b4c9251416c750fe713", "gender": 1, "id": 11281, "name": "Sin\u00e9ad Cusack", "order": 1, "profile_path": "/r9eWOKN1WtE7RMDAwIhOpMRh3wL.jpg"}, {"cast_id": 15, "character": "Young Tom", "credit_id": "5d9f2ff1befd9100344168b8", "gender": 0, "id": 1549645, "name": "Grant Warnock", "order": 2, "profile_path": null}, {"cast_id": 5, "character": "Young Mary", "credit_id": "52fe4b4c9251416c750fe71f", "gender": 1, "id": 17286, "name": "Lena Headey", "order": 3, "profile_path": "/wcpy6J7KLzmVt0METboX3CZ0Jp.jpg"}, {"cast_id": 16, "character": "Freddie Parr", "credit_id": "5d9f3005befd91001b4156cb", "gender": 2, "id": 1359449, "name": "Callum Dixon", "order": 4, "profile_path": null}, {"cast_id": 3, "character": "Matthew Price", "credit_id": "52fe4b4c9251416c750fe717", "gender": 2, "id": 569, "name": "Ethan Hawke", "order": 5, "profile_path": "/kcby6VYk6Gb0036nUyh8chY5ZAJ.jpg"}, {"cast_id": 4, "character": "Henry Crick", "credit_id": "52fe4b4c9251416c750fe71b", "gender": 2, "id": 4935, "name": "Pete Postlethwaite", "order": 6, "profile_path": "/5nbSzrwyDcLhC15buncGdrQqJ8e.jpg"}, {"cast_id": 17, "character": "Peter", "credit_id": "5d9f3039528b2e00350e3330", "gender": 2, "id": 52262, "name": "Sean Maguire", "order": 7, "profile_path": "/axVjykZUTmM4aFCsurslXAQZGjC.jpg"}, {"cast_id": 18, "character": "Terry", "credit_id": "5d9f3047528b2e001b0e3837", "gender": 2, "id": 56366, "name": "Ross McCall", "order": 8, "profile_path": "/gM5s0Nm7EmstjJsbYZ0p76zmrvT.jpg"}, {"cast_id": 19, "character": "Dick Crick", "credit_id": "5d9f3076f0647c003fce3f58", "gender": 2, "id": 18616, "name": "David Morrissey", "order": 9, "profile_path": "/s2nSDzPcxycHyYaC4m8NiMl8V2v.jpg"}, {"cast_id": 20, "character": "Lewis Scott", "credit_id": "5d9f3094f0647c001bce4dc2", "gender": 2, "id": 11512, "name": "John Heard", "order": 10, "profile_path": "/nskqE0532LDluEwliY6tarns1xw.jpg"}, {"cast_id": 21, "character": "Maggie Ruth", "credit_id": "5d9f30a9528b2e001d0e37e4", "gender": 1, "id": 1579, "name": "Maggie Gyllenhaal", "order": 11, "profile_path": "/5UD5cztXD9nmktUEqeuIldEiEEB.jpg"}, {"cast_id": 22, "character": "Judy Dobson", "credit_id": "5d9f30bcbefd910040415cc4", "gender": 1, "id": 20047, "name": "Cara Buono", "order": 12, "profile_path": "/8nK8PSGTfDr3GtqdgUcWwbSlyJX.jpg"}, {"cast_id": 23, "character": "Helen Atkinson", "credit_id": "5d9f30e4befd910034416a99", "gender": 0, "id": 1663467, "name": "Siri Neal", "order": 13, "profile_path": null}, {"cast_id": 24, "character": "Publican", "credit_id": "5d9f3104f0647c0029ce70e8", "gender": 2, "id": 166796, "name": "Gareth Thomas", "order": 14, "profile_path": "/lzXVNQy6HMoSt7eBKAEaWLVMSyw.jpg"}, {"cast_id": 25, "character": "Rebecca Scott", "credit_id": "5d9f3115f0647c003fce4092", "gender": 0, "id": 29075, "name": "Susannah Fellows", "order": 15, "profile_path": null}, {"cast_id": 8, "character": "RAF Man", "credit_id": "5ae1bc7b0e0a262a6700dc07", "gender": 2, "id": 1468188, "name": "Paul Haigh", "order": 16, "profile_path": "/39NHG6kPerj8q0Xt9VhdXfCbxoL.jpg"}], "crew": [{"credit_id": "5d9f2f52befd91001d415604", "department": "Production", "gender": 2, "id": 377, "job": "Producer", "name": "Patrick Cassavetti", "profile_path": null}, {"credit_id": "5d9f2f9c65686e001e622f83", "department": "Sound", "gender": 2, "id": 1225, "job": "Music", "name": "Carter Burwell", "profile_path": "/feAqzRbewe6r2icciqiTeaqzTm4.jpg"}, {"credit_id": "5d9f2fb4befd91001d415683", "department": "Editing", "gender": 1, "id": 11072, "job": "Editor", "name": "Lesley Walker", "profile_path": null}, {"credit_id": "5d9f2fa9f18ce7004143aa4d", "department": "Crew", "gender": 2, "id": 2950, "job": "Cinematography", "name": "Robert Elswit", "profile_path": "/5urU681Z1ZyJxfjEGp6qY6XYXg1.jpg"}, {"credit_id": "5405157e0e0a264d8300044e", "department": "Writing", "gender": 0, "id": 84958, "job": "Writer", "name": "Peter Prince", "profile_path": null}, {"credit_id": "5405156f0e0a264b09000464", "department": "Directing", "gender": 2, "id": 15912, "job": "Director", "name": "Stephen Gyllenhaal", "profile_path": "/sGBf5Pz5Mxwd2eLWZemCxSe6mQX.jpg"}, {"credit_id": "5d9f2f3c528b2e001b0e36da", "department": "Writing", "gender": 0, "id": 2050521, "job": "Novel", "name": "Graham Swift", "profile_path": null}, {"credit_id": "5d9f2f8df18ce7001d43d2f9", "department": "Production", "gender": 0, "id": 2429708, "job": "Producer", "name": "Katy McGuinness", "profile_path": null}]}}