{"adult": false, "backdrop_path": "/nbpN8mdwA81BaxxAaDlSDgFbE9L.jpg", "belongs_to_collection": null, "budget": 0, "genres": [{"id": 18, "name": "Drama"}, {"id": 10770, "name": "TV Movie"}, {"id": 80, "name": "Crime"}], "homepage": null, "id": 145016, "imdb_id": "tt0116496", "original_language": "en", "original_title": "Harvest of Fire", "overview": "In a small Amish community, three barns are burnt down almost simultaneously. FBI agent Sally Russwell is sent in to investigate this possible hate crime. What she finds however is a community that little trust for outsiders or \"The English\" as they call them. However, in her investigations, Agent Russell makes friends with one entrepreneurial widow, Annie Beiler who has her own curiosity about this stranger. Together, Annie introduces Russell in-depth to this close knit community bearing many appealing attributes. However, as Sally's investigations continue, she discovers secrets that reveal uncomfortable truths about the religious community that are linked to the arson attacks.", "popularity": 2.724, "poster_path": "/1fMJHcLPLS7onj8BDQckX6ZtkzG.jpg", "production_companies": [{"id": 4056, "logo_path": null, "name": "Hallmark Entertainment", "origin_country": "US"}, {"id": 9027, "logo_path": "/eGT7RxXHIyhByHpZmv4WxBwoWAl.png", "name": "Hallmark Hall of Fame Productions", "origin_country": "US"}, {"id": 38359, "logo_path": null, "name": "Bernard Sofronski Productions", "origin_country": ""}], "production_countries": [{"iso_3166_1": "US", "name": "United States of America"}], "release_date": "1996-04-21", "revenue": 0, "runtime": 99, "spoken_languages": [{"iso_639_1": "en", "name": "English"}], "status": "Released", "tagline": "", "title": "Harvest of Fire", "video": false, "vote_average": 6.5, "vote_count": 2, "keywords": {"keywords": [{"id": 703, "name": "detective"}, {"id": 1812, "name": "fbi"}, {"id": 8447, "name": "amish"}, {"id": 10084, "name": "rescue"}, {"id": 11363, "name": "arson"}]}, "similar": {"page": 1, "results": [{"adult": false, "backdrop_path": "/t3OZS8yMs0NL4YgWWc04eXHTn1X.jpg", "genre_ids": [28, 80, 53], "id": 984, "original_language": "en", "original_title": "Dirty Harry", "overview": "When a madman dubbed 'Scorpio' terrorizes San Francisco, hard-nosed cop, Harry Callahan \u2013 famous for his take-no-prisoners approach to law enforcement \u2013 is tasked with hunting down the psychopath. Harry eventually collars Scorpio in the process of rescuing a kidnap victim, only to see him walk on technicalities. Now, the maverick detective is determined to nail the maniac himself.", "poster_path": "/2TADKc4GMMPdMrLXj0xJVgTvZJM.jpg", "release_date": "1971-12-21", "title": "Dirty Harry", "video": false, "vote_average": 7.5, "vote_count": 1173, "popularity": 18.839}, {"id": 75780, "video": false, "vote_count": 4451, "vote_average": 6.4, "title": "Jack Reacher", "release_date": "2012-12-20", "original_language": "en", "original_title": "Jack Reacher", "genre_ids": [28, 80, 18, 53], "backdrop_path": "/ezXodpP429qK0Av89pVNlaXWJkQ.jpg", "adult": false, "overview": "When a gunman takes five lives with six shots, all evidence points to the suspect in custody. On interrogation, the suspect offers up a single note: \"Get Jack Reacher!\" So begins an extraordinary chase for the truth, pitting Jack Reacher against an unexpected enemy, with a skill for violence and a secret to keep.", "poster_path": "/mt0ELw83HIRgaKaDzhsDcIi0RnW.jpg", "popularity": 15.945}, {"adult": false, "backdrop_path": "/2J283YNxKhxAqHeVegUJ5mzLfGb.jpg", "genre_ids": [80, 18, 9648], "id": 392044, "original_language": "en", "original_title": "Murder on the Orient Express", "overview": "Genius Belgian detective Hercule Poirot investigates the murder of an American tycoon aboard the Orient Express train.", "poster_path": "/iBlfxlw8qwtUS0R8YjIU7JtM6LM.jpg", "release_date": "2017-11-03", "title": "Murder on the Orient Express", "video": false, "vote_average": 6.7, "vote_count": 6050, "popularity": 27.701}, {"adult": false, "backdrop_path": "/bRGtZsVj2Qq8r5CCsNYmQUPF4z4.jpg", "genre_ids": [80, 18, 878, 53], "id": 10559, "original_language": "en", "original_title": "Frequency", "overview": "When a rare phenomenon gives police officer John Sullivan the chance to speak to his father, 30 years in the past, he takes the opportunity to prevent his dad's tragic death.  After his actions inadvertently give rise to a series of brutal murders he and his father must find a way to fix the consequences of altering time.", "poster_path": "/n0QAAZmIaPPIShVkk8eiKwfGV9.jpg", "release_date": "2000-04-28", "title": "Frequency", "video": false, "vote_average": 7.1, "vote_count": 897, "popularity": 14.026}, {"id": 807, "video": false, "vote_count": 11937, "vote_average": 8.3, "title": "Se7en", "release_date": "1995-09-22", "original_language": "en", "original_title": "Se7en", "genre_ids": [80, 9648, 53], "backdrop_path": "/A0WKbRIojF9DUWG4XLCmg5JK6I5.jpg", "adult": false, "overview": "Two homicide detectives are on a desperate hunt for a serial killer whose crimes are based on the \"seven deadly sins\" in this dark and haunting film that takes viewers from the tortured remains of one victim to the next. The seasoned Det. Sommerset researches each sin in an effort to get inside the killer's mind, while his novice partner, Mills, scoffs at his efforts to unravel the case.", "poster_path": "/8zw8IL4zEPjkh8Aysdcd0FwGMb0.jpg", "popularity": 34.018}, {"id": 4771, "video": false, "vote_count": 2134, "vote_average": 7.3, "title": "Gone Baby Gone", "release_date": "2007-09-18", "original_language": "en", "original_title": "Gone Baby Gone", "genre_ids": [80, 18, 9648], "backdrop_path": "/sogh5NXPbKFajjYKBlfIBfCWgbq.jpg", "adult": false, "overview": "When 4 year old Amanda McCready disappears from her home and the police make little headway in solving the case, the girl's aunt, Beatrice McCready hires two private detectives, Patrick Kenzie and Angie Gennaro. The detectives freely admit that they have little experience with this type of case, but the family wants them for two reasons - they're not cops and they know the tough neighborhood in which they all live. As the case progresses, Kenzie and Gennaro face drug dealers, gangs and pedophiles. When they are about to solve the case, they are faced with a moral dilemma that tears them apart.", "poster_path": "/dXXMPxGiRegd7NNCtE5uchAKRAG.jpg", "popularity": 16.498}, {"adult": false, "backdrop_path": "/uUYCUbgI5VxsUflTMI4Y9L2Y6vb.jpg", "genre_ids": [80, 18, 53], "id": 11423, "original_language": "ko", "original_title": "\uc0b4\uc778\uc758 \ucd94\uc5b5", "overview": "1986 Gyunggi Province. The body of a young woman is found brutally raped and murdered. Two months later, a series of rapes and murders commences under similar circumstances. And in a country that had never known such crimes, the dark whispers about a serial murderer grow louder. A special task force is set up in the area, with two local detectives Park Doo-Man and Jo Young-Goo joined by a detective from Seoul who requested to be assigned to the case.", "poster_path": "/gawnVe9cFowdoDLo9Pok12NTw39.jpg", "release_date": "2003-05-02", "title": "Memories of Murder", "video": false, "vote_average": 8.1, "vote_count": 1093, "popularity": 13.452}, {"adult": false, "backdrop_path": "/v761yOHKO3p6Yr7LDCjud6tUL5G.jpg", "genre_ids": [28, 80, 53], "id": 10651, "original_language": "en", "original_title": "The Dead Pool", "overview": "Dirty Harry Callahan returns for his final film adventure. Together with his partner Al Quan, he must investigate the systematic murder of actors and musicians. By the time Harry learns that the murders are a part of a sick game to predict the deaths of celebrities before they happen, it may be too late...", "poster_path": "/9ZUSqox9lIxN4xaYBac2QXMFcZj.jpg", "release_date": "1988-07-12", "title": "The Dead Pool", "video": false, "vote_average": 6.4, "vote_count": 389, "popularity": 10.626}, {"adult": false, "backdrop_path": "/3TCPWrxQkfon82xPNtmpweOSVJc.jpg", "genre_ids": [18, 80, 9648, 10749, 53], "id": 12150, "original_language": "en", "original_title": "Sea of Love", "overview": "Seen-it-all New York detective Frank Keller is unsettled - he has done twenty years on the force and could retire, and he hasn't come to terms with his wife leaving him for a colleague. Joining up with an officer from another part of town to investigate a series of murders linked by the lonely hearts columns he finds he is getting seriously and possibly dangerously involved with Helen, one of the main suspects.", "poster_path": "/7DkkTHIX3hUqvsRv5sDmJAkCfKK.jpg", "release_date": "1989-09-15", "title": "Sea of Love", "video": false, "vote_average": 6.7, "vote_count": 290, "popularity": 10.636}, {"adult": false, "backdrop_path": "/ltq1i8ienPm7OSdOXl3o8ROgmKc.jpg", "genre_ids": [28, 80, 18], "id": 2142, "original_language": "en", "original_title": "Cop Land", "overview": "Freddy Heflin is the sheriff of a place everyone calls \u201cCop Land\u201d \u2014 a small and seemingly peaceful town populated by the big city police officers he\u2019s long admired. Yet something ugly is taking place behind the town\u2019s peaceful facade. And when Freddy uncovers a massive, deadly conspiracy among these local residents, he is forced to take action and make a dangerous choice between protecting his idols and upholding the law.", "poster_path": "/th2UDVewgUAfIXFUaWGWWBxCM91.jpg", "release_date": "1997-08-15", "title": "Cop Land", "video": false, "vote_average": 6.7, "vote_count": 757, "popularity": 14.45}, {"id": 1847, "video": false, "vote_count": 259, "vote_average": 7.4, "title": "The Long Goodbye", "release_date": "1973-03-07", "original_language": "en", "original_title": "The Long Goodbye", "genre_ids": [80, 18, 9648, 53], "backdrop_path": "/brm75bRffmi2SlsUmsHUxUVI1Hg.jpg", "adult": false, "overview": "Detective Philip Marlowe tries to help a friend who is accused of murdering his wife.", "poster_path": "/oBhUK54yBJ0aH6u9zCzSV5iV7OP.jpg", "popularity": 9.602}, {"id": 320, "video": false, "vote_count": 2531, "vote_average": 6.9, "title": "Insomnia", "release_date": "2002-05-24", "original_language": "en", "original_title": "Insomnia", "genre_ids": [80, 9648, 53], "backdrop_path": "/p8UHSddGu2frGk0nCkuPjDemjka.jpg", "adult": false, "overview": "Two Los Angeles homicide detectives are dispatched to a northern town where the sun doesn't set to investigate the methodical murder of a local teen.", "poster_path": "/zb0D3vfjcPFvuyHp1mFPOIcYJWH.jpg", "popularity": 20.234}, {"adult": false, "backdrop_path": "/2zh06EWekQWzlxa4jpFKRuXEtgf.jpg", "genre_ids": [80, 18, 28, 53], "id": 9411, "original_language": "en", "original_title": "Fallen", "overview": "Homicide detective John Hobbes witnesses the execution of serial killer Edgar Reese. Soon after the execution the killings start again, and they are very similar to Reese's style.", "poster_path": "/v66GrbKcl1babq8BebUff0MI3m4.jpg", "release_date": "1998-01-16", "title": "Fallen", "video": false, "vote_average": 6.8, "vote_count": 674, "popularity": 15.448}, {"adult": false, "backdrop_path": "/7RRuRcGuWkZGuRyYugfXn0Fgrrr.jpg", "genre_ids": [28, 80, 18, 53], "id": 949, "original_language": "en", "original_title": "Heat", "overview": "Obsessive master thief, Neil McCauley leads a top-notch crew on various daring heists throughout Los Angeles while determined detective, Vincent Hanna pursues him without rest. Each man recognizes and respects the ability and the dedication of the other even though they are aware their cat-and-mouse game may end in violence.", "poster_path": "/6pmLVffM9jEYK7VqDJqPblMxfEY.jpg", "release_date": "1995-12-15", "title": "Heat", "video": false, "vote_average": 7.8, "vote_count": 3615, "popularity": 21.973}, {"adult": false, "backdrop_path": "/cLGKawjQ5tUJCuDyR0OnGYT4fyf.jpg", "genre_ids": [18, 53, 80], "id": 146233, "original_language": "en", "original_title": "Prisoners", "overview": "When Keller Dover's daughter and her friend go missing, he takes matters into his own hands as the police pursue multiple leads and the pressure mounts. But just how far will this desperate father go to protect his family?", "poster_path": "/yAhqW57pwMAsCgmZpM5zSIVQVTh.jpg", "release_date": "2013-09-18", "title": "Prisoners", "video": false, "vote_average": 8.0, "vote_count": 6410, "popularity": 24.427}, {"id": 2924, "video": false, "vote_count": 707, "vote_average": 6.6, "title": "Backdraft", "release_date": "1991-05-24", "original_language": "en", "original_title": "Backdraft", "genre_ids": [80], "backdrop_path": "/iosYFI66bhoB5uC27qvIejrEvJu.jpg", "adult": false, "overview": "Firemen brothers Brian and Stephen McCaffrey battle each other over past slights while trying to stop an arsonist with a diabolical agenda from torching Chicago.", "poster_path": "/3E2puQrspfkGC6XuxGdB9ghXPtY.jpg", "popularity": 20.724}, {"id": 1538, "video": false, "vote_count": 2891, "vote_average": 7.2, "title": "Collateral", "release_date": "2004-08-04", "original_language": "en", "original_title": "Collateral", "genre_ids": [80, 18, 53], "backdrop_path": "/hFcXrnmciPfIg8ZcXb1V7BeguF.jpg", "adult": false, "overview": "Cab driver Max picks up a man who offers him $600 to drive him around. But the promise of easy money sours when Max realizes his fare is an assassin.", "poster_path": "/fmkv2eRuYCTq7A5jzMBNgoNe1vA.jpg", "popularity": 22.701}, {"id": 395834, "video": false, "vote_count": 2755, "vote_average": 7.4, "title": "Wind River", "release_date": "2017-08-03", "original_language": "en", "original_title": "Wind River", "genre_ids": [80, 18, 9648, 53], "backdrop_path": "/6B8e784decj9vtKuNjbl9Fes2aZ.jpg", "adult": false, "overview": "An FBI agent teams with the town's veteran game tracker to investigate a murder that occurred on a Native American reservation.", "poster_path": "/pySivdR845Hom4u4T2WNkJxe6Ad.jpg", "popularity": 16.931}, {"adult": false, "backdrop_path": "/khzRw7ZDE3NIrYpe0RYyB864FPT.jpg", "genre_ids": [80, 28, 53], "id": 189, "original_language": "en", "original_title": "Sin City: A Dame to Kill For", "overview": "Some of Sin City's most hard-boiled citizens cross paths with a few of its more reviled inhabitants.", "poster_path": "/k80qKrJ0qQ6ocVo5N932stNSg6j.jpg", "release_date": "2014-08-20", "title": "Sin City: A Dame to Kill For", "video": false, "vote_average": 6.3, "vote_count": 2422, "popularity": 25.256}, {"id": 290250, "video": false, "vote_count": 4781, "vote_average": 7.1, "title": "The Nice Guys", "release_date": "2016-05-15", "original_language": "en", "original_title": "The Nice Guys", "genre_ids": [28, 35, 80], "backdrop_path": "/a7eSkK4bkLwKCXYDdYIqLxrqT2n.jpg", "adult": false, "overview": "A private eye investigates the apparent suicide of a fading porn star in 1970s Los Angeles and uncovers a conspiracy.", "poster_path": "/vNCeqxbKyDHL9LUza03V2Im16wB.jpg", "popularity": 30.745}], "total_pages": 283, "total_results": 5656}, "recommendations": {"page": 1, "results": [], "total_pages": 1, "total_results": 0}, "credits": {"cast": [{"cast_id": 4, "character": "Sally Russell", "credit_id": "54661db3c3a36836210001ac", "gender": 1, "id": 12139, "name": "Lolita Davidovich", "order": 1, "profile_path": "/vQlk518qlef94XXJqtrkIqS3izo.jpg"}, {"cast_id": 5, "character": "Annie Beiler", "credit_id": "54661dbfeaeb817e720002e9", "gender": 1, "id": 27446, "name": "Patty Duke", "order": 2, "profile_path": "/aQLjPeXawYEGa6OT8Hhn16GJWG2.jpg"}, {"cast_id": 6, "character": "Sheriff Garrison", "credit_id": "54661dcb0e0a264b470001dd", "gender": 2, "id": 1352413, "name": "J.A. Preston", "order": 3, "profile_path": "/6snJo3CAPBrZz3WrPA620w2lepD.jpg"}, {"cast_id": 7, "character": "Rachel", "credit_id": "54661dd7eaeb817b3c001954", "gender": 1, "id": 26495, "name": "Jean Louisa Kelly", "order": 4, "profile_path": "/mJJltLZRxaoMoMVpGvJXPqZE9b4.jpg"}, {"cast_id": 8, "character": "Jacob Hostetler", "credit_id": "54661de4c3a3683b48000195", "gender": 2, "id": 49835, "name": "Tom Aldredge", "order": 5, "profile_path": "/VNqMbbqT7vK1mYokhn3Tkpcuja.jpg"}, {"cast_id": 9, "character": "Sarah Troyer", "credit_id": "54661df6c3a3682c10000244", "gender": 1, "id": 9278, "name": "Jennifer Garner", "order": 6, "profile_path": "/2oojFB2K6FDDtC31kL7j44WrGkG.jpg"}], "crew": [{"credit_id": "54661d820e0a2640430002b0", "department": "Directing", "gender": 2, "id": 41222, "job": "Director", "name": "Arthur Allan Seidelman", "profile_path": null}, {"credit_id": "54661d8ceaeb817b3c00194d", "department": "Writing", "gender": 0, "id": 103242, "job": "Teleplay", "name": "Richard Alfieri", "profile_path": null}, {"credit_id": "54661d98eaeb810248000226", "department": "Writing", "gender": 1, "id": 1033239, "job": "Teleplay", "name": "Susan Nanus", "profile_path": null}, {"credit_id": "54661da3c3a36837760001ac", "department": "Writing", "gender": 1, "id": 1033239, "job": "Story", "name": "Susan Nanus", "profile_path": null}]}}