{"adult": false, "backdrop_path": "/6vcHBBa1v7PuERiG44O7kYER86o.jpg", "belongs_to_collection": null, "budget": 0, "genres": [{"id": 18, "name": "Drama"}], "homepage": null, "id": 14555, "imdb_id": "tt1052353", "original_language": "fr", "original_title": "Sagan", "overview": "A biopic of famous French writer Fran\u00e7oise Sagan, best known for her groundbreaking first book, Bonjour Tristesse.", "popularity": 2.272, "poster_path": "/v7gUz7TWDJKidDsX63HyqVWFikG.jpg", "production_companies": [{"id": 2926, "logo_path": null, "name": "Alexandre Films", "origin_country": ""}], "production_countries": [{"iso_3166_1": "FR", "name": "France"}], "release_date": "2008-06-11", "revenue": 0, "runtime": 180, "spoken_languages": [{"iso_639_1": "fr", "name": "Fran\u00e7ais"}], "status": "Released", "tagline": "", "title": "Sagan", "video": false, "vote_average": 6.1, "vote_count": 26, "keywords": {"keywords": [{"id": 90, "name": "paris, france"}, {"id": 187056, "name": "woman director"}]}, "similar": {"page": 1, "results": [{"adult": false, "backdrop_path": "/cADbqsIoiDW7X3Myg9nz8eAuno5.jpg", "genre_ids": [18, 10749], "id": 10818, "original_language": "fr", "original_title": "Naissance des pieuvres", "overview": "Set during a sultry summer in a French suburb, Marie is desperate to join the local pool's synchronized swimming team, but is her interest solely for the sake of sport or for a chance to get close to Floriane, the bad girl of the team? Sciamma, and the two leads, capture the uncertainty of teenage sexuality with a sympathetic eye in this delicate drama of the angst of coming-of-age.", "poster_path": "/4jajELYrR4Xmv3CVoKnukRnALa2.jpg", "release_date": "2007-05-17", "title": "Water Lilies", "video": false, "vote_average": 6.1, "vote_count": 119, "popularity": 9.614}, {"adult": false, "backdrop_path": "/gZeJziVigmRqbkEZwKAtSqlLQ6s.jpg", "genre_ids": [18, 10749], "id": 370663, "original_language": "en", "original_title": "Below Her Mouth", "overview": "An unexpected affair quickly escalates into a heart-stopping reality for two women whose passionate connection changes their lives forever.", "poster_path": "/nTGbq37hYLuNy7YgMg0gVLma0NS.jpg", "release_date": "2016-09-10", "title": "Below Her Mouth", "video": false, "vote_average": 6.2, "vote_count": 456, "popularity": 18.664}, {"adult": false, "backdrop_path": "/dvQDRfv3qvfHNnVAR57ouVsuErf.jpg", "genre_ids": [10749, 18], "id": 28031, "original_language": "en", "original_title": "If These Walls Could Talk 2", "overview": "The stories of three lesbian couples -- who live in the same house at different periods of time -- who are at a crossroads in their lives. In 1961, Edith loses her lover, Abby, to a stroke. Linda and Amy struggle with feminist issues in 1972. And, in 2000, Kal and Fran try to have a baby with the help of sperm donor.", "poster_path": "/xs7ODbmYQXCDhvXNvz5tF17T59H.jpg", "release_date": "2000-03-05", "title": "If These Walls Could Talk 2", "video": false, "vote_average": 7.1, "vote_count": 55, "popularity": 8.86}, {"adult": false, "backdrop_path": "/knczzNAjBXzSYkeWxoT1u9VNmjR.jpg", "genre_ids": [10749, 18], "id": 258480, "original_language": "en", "original_title": "Carol", "overview": "In 1950s New York, a department-store clerk who dreams of a better life falls for an older, married woman.", "poster_path": "/AbKa7ANxmui0Jmhh7gV7OSELKIL.jpg", "release_date": "2015-11-20", "title": "Carol", "video": false, "vote_average": 7.4, "vote_count": 2184, "popularity": 13.539}, {"adult": false, "backdrop_path": "/fZ8oFcREAr6wgWcXISGql0xyxjB.jpg", "genre_ids": [35, 18], "id": 39781, "original_language": "en", "original_title": "The Kids Are All Right", "overview": "Two women, Nic and Jules, brought a son and daughter into the world through artificial insemination. When one of their children reaches age, both kids go behind their mothers' backs to meet with the donor. Life becomes so much more interesting when the father, two mothers and children start to become attached to each other.", "poster_path": "/fPDeK4MmoGfi2X0oWZev7LrbMqM.jpg", "release_date": "2010-07-09", "title": "The Kids Are All Right", "video": false, "vote_average": 6.6, "vote_count": 923, "popularity": 12.159}, {"adult": false, "backdrop_path": "/rf6G51j0SZL0tP57I8gnqHTRFEr.jpg", "genre_ids": [35, 18, 10749], "id": 273153, "original_language": "fr", "original_title": "La belle saison", "overview": "In 1971, Carole and Delphine meet and fall in love in Paris. When Carole follows Delphine back to her family farm in Limousin, the two find lesbianism and feminism are not as easy in the countryside.", "poster_path": "/evvAkNMO5VJiy5qIo1Hu7fUfvVI.jpg", "release_date": "2015-08-19", "title": "Summertime", "video": false, "vote_average": 6.6, "vote_count": 162, "popularity": 11.575}, {"id": 9813, "video": false, "vote_count": 128, "vote_average": 6.1, "title": "The Quiet", "release_date": "2005-09-12", "original_language": "en", "original_title": "The Quiet", "genre_ids": [18, 53], "backdrop_path": "/6eyWAZA4CEidZW1xXnQ4vlYBXTP.jpg", "adult": false, "overview": "After her widowed father dies, deaf teenager Dot moves in with her godparents, Olivia and Paul Deer. The Deers' daughter, Nina, is openly hostile to Dot, but that does not prevent her from telling her secrets to her silent stepsister, including the fact that she wants to kill her lecherous father.", "poster_path": "/GEqIE9YlmygHVUfS64LW2cwAAM.jpg", "popularity": 14.844}, {"adult": false, "backdrop_path": "/6tern9vOEwwmkDYC1vRCuO64z0C.jpg", "genre_ids": [10749, 18], "id": 475888, "original_language": "en", "original_title": "Tell It to the Bees", "overview": "Dr. Jean Markham returns to the town she left as a teenager to take over her late father's medical practice. When a school-yard scuffle lands Charlie in her surgery, she invites him to visit the hives in her garden and tell his secrets to the bees, as she once did. The new friendship between the boy and the bee keeper brings his mother Lydia into Jean's world.", "poster_path": "/Rj6zpHhMU1zFW3v28U4PSRSRgP.jpg", "release_date": "2019-05-03", "title": "Tell It to the Bees", "video": false, "vote_average": 6.4, "vote_count": 53, "popularity": 13.175}, {"adult": false, "backdrop_path": "/baYbbMtKRDoDWYJeVWkbygAvAj8.jpg", "genre_ids": [18, 10749], "id": 31216, "original_language": "en", "original_title": "I Can't Think Straight", "overview": "I CAN'T THINK STRAIGHT is a 2007 romance movie about a London-based Jordanian of Palestinian descent, Tala, who is preparing for an elaborate wedding. A turn of events causes her to have an affair and subsequently fall in love with another woman, Leyla, a British Indian.", "poster_path": "/1kapga6rkM5wNuQBYw7sdE42CrA.jpg", "release_date": "2008-06-01", "title": "I Can't Think Straight", "video": false, "vote_average": 7.6, "vote_count": 109, "popularity": 7.815}, {"adult": false, "backdrop_path": "/lI5h8KaoeObu4NMTwzeRuUHzRwD.jpg", "genre_ids": [18, 9648, 53], "id": 401898, "original_language": "no", "original_title": "Thelma", "overview": "A college student starts to experience extreme seizures. She soon learns that the violent episodes are a symptom of inexplicable abilities.", "poster_path": "/yzSfG8TLAqw7nMQh2lxirQkQpgs.jpg", "release_date": "2017-09-15", "title": "Thelma", "video": false, "vote_average": 7.1, "vote_count": 418, "popularity": 13.105}, {"adult": false, "backdrop_path": "/tIFRPjIXQ3sYrmxbIeOu9K1JkUz.jpg", "genre_ids": [18, 10749], "id": 294, "original_language": "en", "original_title": "Desert Hearts", "overview": "The story of straight-edge literature professor Vivian who travels to Reno to get away from a relationship breakup when she falls in love with an attractive and unconventional girl named Cay.", "poster_path": "/b8JSmQSpYYJhctMtxNgqh0elENg.jpg", "release_date": "1985-10-01", "title": "Desert Hearts", "video": false, "vote_average": 7.3, "vote_count": 58, "popularity": 6.976}, {"adult": false, "backdrop_path": "/g3LYarEY9LjB28Ct2trwFN72gqZ.jpg", "genre_ids": [35], "id": 437557, "original_language": "en", "original_title": "Blockers", "overview": "When three parents discover their daughters\u2019 pact to lose their virginity at prom, they launch a covert one-night operation to stop the teens from sealing the deal.", "poster_path": "/uvlUQXg0AlpGzKukO11K7QtW3Yu.jpg", "release_date": "2018-03-14", "title": "Blockers", "video": false, "vote_average": 6.2, "vote_count": 1155, "popularity": 17.886}, {"adult": false, "backdrop_path": "/zBB1mzmqnUuSrlTuf0SFFlI1EoJ.jpg", "genre_ids": [18], "id": 244772, "original_language": "en", "original_title": "The Skeleton Twins", "overview": "Estranged twins Maggie and Milo coincidentally cheat death on the same day, prompting them to reunite and confront the reasons their lives went so wrong. As the twins' reunion reinvigorates them, they realize the key to fixing their lives may just lie in repairing their relationship.", "poster_path": "/vvmv1R2jDXJeeeyYcGg0ypXc2XK.jpg", "release_date": "2014-09-12", "title": "The Skeleton Twins", "video": false, "vote_average": 6.7, "vote_count": 416, "popularity": 10.481}, {"adult": false, "backdrop_path": "/3YGy88nTV2e0wxZcKI1goiEN9oy.jpg", "genre_ids": [18, 10749], "id": 37636, "original_language": "en", "original_title": "High Art", "overview": "A young female intern at a small magazine company becomes involved with a drug-addicted lesbian photographer, both of whom seek to exploit each other for their respective careers, while slowly falling in love with each other.", "poster_path": "/qTg05RNJIvb9w4Z7XIcAZxuZmTn.jpg", "release_date": "1998-06-12", "title": "High Art", "video": false, "vote_average": 6.6, "vote_count": 61, "popularity": 7.422}, {"adult": false, "backdrop_path": "/caLMOD3ZJ3V7qjlxDXrzlJfBLgD.jpg", "genre_ids": [18, 10749], "id": 20, "original_language": "en", "original_title": "My Life Without Me", "overview": "A Pedro Almodovar production in which a fatally ill mother with only two months to live creates a list of things she wants to do before she dies with out telling her family of her illness.", "poster_path": "/vVj92VBFUBzjqzLvBiPVVlJDp78.jpg", "release_date": "2003-03-07", "title": "My Life Without Me", "video": false, "vote_average": 6.1, "vote_count": 220, "popularity": 10.382}, {"adult": false, "backdrop_path": "/xhstSJACJF7QiO4zAsqAPXE1PbQ.jpg", "genre_ids": [18], "id": 306819, "original_language": "en", "original_title": "The Danish Girl", "overview": "When Gerda Wegener asks her husband Einar to fill in as a portrait model, Einar discovers the person she's meant to be and begins living her life as Lili Elbe. Having realized her true self and with Gerda's love and support, Lili embarks on a groundbreaking journey as a transgender pioneer.", "poster_path": "/seWQ6UKCrhGH0eP7dFZvmIBQtKF.jpg", "release_date": "2015-11-27", "title": "The Danish Girl", "video": false, "vote_average": 7.7, "vote_count": 4035, "popularity": 18.351}, {"id": 434714, "video": false, "vote_count": 32, "vote_average": 7.5, "title": "My Days of Mercy", "release_date": "2019-07-11", "original_language": "en", "original_title": "My Days of Mercy", "genre_ids": [18, 10749], "backdrop_path": "/7Lbzq33nMMIQtAfZAmSqG6ibLSg.jpg", "adult": false, "overview": "The daughter of a man on death row falls in love with a woman on the opposing side of her family's political cause.", "poster_path": "/adIPKAoKnKL9vCTkvfF4J9ZA7Ln.jpg", "popularity": 9.342}, {"adult": false, "backdrop_path": "/useuHJQ5HOoEWkAvEjL1FW1sUfe.jpg", "genre_ids": [18], "id": 376867, "original_language": "en", "original_title": "Moonlight", "overview": "The tender, heartbreaking story of a young man\u2019s struggle to find himself, told across three defining chapters in his life as he experiences the ecstasy, pain, and beauty of falling in love, while grappling with his own sexuality.", "poster_path": "/qAwFbszz0kRyTuXmMeKQZCX3Q2O.jpg", "release_date": "2016-10-21", "title": "Moonlight", "video": false, "vote_average": 7.4, "vote_count": 4410, "popularity": 21.716}, {"adult": false, "backdrop_path": "/ph5fElfh4U7O3jwhFljxz2LDp1l.jpg", "genre_ids": [18, 36], "id": 375262, "original_language": "en", "original_title": "The Favourite", "overview": "England, early 18th century. The close relationship between Queen Anne and Sarah Churchill is threatened by the arrival of Sarah's cousin, Abigail Hill, resulting in a bitter rivalry between the two cousins to be the Queen's favourite.", "poster_path": "/cwBq0onfmeilU5xgqNNjJAMPfpw.jpg", "release_date": "2018-11-23", "title": "The Favourite", "video": false, "vote_average": 7.6, "vote_count": 2823, "popularity": 28.019}, {"adult": false, "backdrop_path": "/k8H7ye6Sab7OrDJoo8Qp5WFGHGk.jpg", "genre_ids": [35, 10749, 18], "id": 244264, "original_language": "en", "original_title": "Laggies", "overview": "Overeducated and underemployed, 28 year old Megan is in the throes of a quarterlife crisis. Squarely into adulthood with no career prospects, no particular motivation to think about her future and no one to relate to, Megan is comfortable lagging a few steps behind - while her friends check off milestones and celebrate their new grown-up status. When her high-school sweetheart proposes, Megan panics and- given an unexpected opportunity to escape for a week - hides out in the home of her new friend, 16-year old Annika and Annika's world-weary single dad Craig.", "poster_path": "/dNcoXoRC7JHiqbe7k5Ufo6syiPP.jpg", "release_date": "2014-09-25", "title": "Laggies", "video": false, "vote_average": 6.1, "vote_count": 788, "popularity": 13.836}], "total_pages": 1355, "total_results": 27089}, "recommendations": {"page": 1, "results": [{"adult": false, "backdrop_path": "/97wRR1LqgHlNtEvAzIlFRm0TURn.jpg", "genre_ids": [18], "id": 70930, "original_language": "fr", "original_title": "Sauf le respect que je vous dois", "overview": "Fran\u00e7ois Durrieux, a man in his forties, married to Cl\u00e9mence and father of Benjamin, has been employed for years by the firm DSBO. In order not to lose his job, he always submits to his boss's demands whether it means working after office hours, canceling planned holidays or harming his family life. However, when one night, Simon Lacaze, his best friend and colleague, commits suicide just after being fired ignominiously, Fran\u00e7ois rebels...", "poster_path": "/u4fVJuPN9WmW4j5EZBhMXs8gqZx.jpg", "release_date": "2006-02-15", "title": "Burnt Out", "video": false, "vote_average": 6.2, "vote_count": 6, "popularity": 1.629}, {"adult": false, "backdrop_path": "/t5P1KTdO1vw3WpcEaukQodYocXD.jpg", "genre_ids": [35, 18], "id": 76272, "original_language": "fr", "original_title": "Tr\u00e8s bien, merci", "overview": "The tough lives of two ordinary individuals: Alex, an accountant and his wife B\u00e9atrice, a taxi driver.", "poster_path": "/nZLJ1FhJkqGkOrDcwjU3rnpUmYm.jpg", "release_date": "2007-04-25", "title": "Very Well, Thank You", "video": false, "vote_average": 5.9, "vote_count": 10, "popularity": 1.881}, {"adult": false, "backdrop_path": null, "genre_ids": [18, 35], "id": 266865, "original_language": "fr", "original_title": "Bouvard et P\u00e9cuchet", "overview": "", "poster_path": "/qYFj9vqhg0HPKrlvGpvgMNBVBJ4.jpg", "release_date": "1989-04-27", "title": "Bouvard et P\u00e9cuchet", "video": false, "vote_average": 4.2, "vote_count": 3, "popularity": 2.252}, {"adult": false, "backdrop_path": "/eacJ93dnNq6EQqGOHA5369MngOD.jpg", "genre_ids": [18], "id": 10930, "original_language": "fr", "original_title": "La Fleur du mal", "overview": "Three generations of a wealthy Bordeaux family are caught in the crossfire when Anne decides to run for mayor, thanks to a political pamphlet that revives an old murder scandal.", "poster_path": "/4OpX8gOrCOaQVhUl4GUqDRSvMug.jpg", "release_date": "2003-02-09", "title": "The Flower of Evil", "video": false, "vote_average": 6.3, "vote_count": 26, "popularity": 4.135}, {"id": 14413, "video": false, "vote_count": 16, "vote_average": 6.4, "title": "Hollywood, I'm Sleeping Over Tonight", "release_date": "2008-11-19", "original_language": "en", "original_title": "J'irai dormir \u00e0 Hollywood", "genre_ids": [99], "backdrop_path": "/2lySAgK1GaOcSgm1EplX7dY99m7.jpg", "adult": false, "overview": "French TV host Antoine de Maximy travels the U.S. from coast to coast, relying on the hospitality of strangers and documenting his experiences with a hand-held camera.", "poster_path": "/je5PQAb8zVtQCENbgXotK2TjYn4.jpg", "popularity": 3.803}, {"adult": false, "backdrop_path": "/MLkAeDHsD7K3djxl8Ke9yhgUWz.jpg", "genre_ids": [35, 36, 12], "id": 95219, "original_language": "fr", "original_title": "Cadet Rousselle", "overview": "", "poster_path": "/ok0Lt8mOD5SGP5plt5yeOlqkdVG.jpg", "release_date": "1954-10-20", "title": "Cadet Rousselle", "video": false, "vote_average": 5.7, "vote_count": 7, "popularity": 1.65}, {"adult": false, "backdrop_path": "/ltGEIS9cMxiKkU1IaEjkjr75Jht.jpg", "genre_ids": [18], "id": 294200, "original_language": "fr", "original_title": "Ceux qui dansent sur la t\u00eate", "overview": "", "poster_path": "/gddtkbqTvvaYjUkkchkW3Wfz1yz.jpg", "release_date": "2014-10-24", "title": "Ceux qui dansent sur la t\u00eate", "video": false, "vote_average": 5.3, "vote_count": 6, "popularity": 1.458}, {"adult": false, "backdrop_path": "/scFPOQ2gYRVjgUu31f9OxiDFDtX.jpg", "genre_ids": [10770, 35, 18, 10751], "id": 306752, "original_language": "de", "original_title": "Gl\u00fcckskind", "overview": "A man who has lost his wife and daughter finds a baby in a garbage. He decides to save her.", "poster_path": "/ln7zZvAi3dYo13lsNFTDKMBsQh1.jpg", "release_date": "2014-11-21", "title": "Gl\u00fcckskind", "video": false, "vote_average": 4.8, "vote_count": 6, "popularity": 1.957}, {"adult": false, "backdrop_path": "/krO9vwY2whYs2YRmWN36ZHyoxk2.jpg", "genre_ids": [18], "id": 12266, "original_language": "fr", "original_title": "Une \u00e9trange affaire", "overview": "A young Parisian advertising executive becomes so captivated by the unsettling charm of his mysterious new employer that he eventually abandons his family and friends, viewing it a privilege to let the ubiquitous employer take over his home, his life, his desire. Only his wife remains suspicious, recognizing both the pathos and the evil in the man\u2019s soul-stealing power.", "poster_path": "/8VSxwdsJzbFZSE67nrwSdIbrfJf.jpg", "release_date": "1981-12-23", "title": "Strange Affair", "video": false, "vote_average": 5.8, "vote_count": 11, "popularity": 3.235}, {"adult": false, "backdrop_path": "/uPdqto2YN7fU1tldslfkCanmm2Z.jpg", "genre_ids": [18], "id": 65615, "original_language": "fr", "original_title": "Les innocents", "overview": "The lines between love, sex, and politics become hopelessly blurred in this French drama.", "poster_path": "/p0m29bJ7ps6adK8HJDb7HmgzBru.jpg", "release_date": "1987-12-23", "title": "The Innocents", "video": false, "vote_average": 4.9, "vote_count": 8, "popularity": 1.841}, {"adult": false, "backdrop_path": "/tUTthghHn7O3VTopvi6gb9hYuOF.jpg", "genre_ids": [18, 10749], "id": 3424, "original_language": "fr", "original_title": "Mado", "overview": "Middle-aged businessman, Simon L\u00e9otard finds his future in jeopardy when his partner Julien commits suicide after having accumulated a mass of debts. Simon's unscrupulous business rival L\u00e9pidon offers to save him from bankruptcy by buying his company, at a discount rate. Reluctant to fall into L\u00e9pidon's trap, Simon decides to resolve the crisis himself. A prostitute, Mado, provides him with the solution to his problems...", "poster_path": "/tNVdOAQPARtdbMNQjdfKgIBMFLM.jpg", "release_date": "1976-10-27", "title": "Mado", "video": false, "vote_average": 6.5, "vote_count": 12, "popularity": 2.446}, {"adult": false, "backdrop_path": "/4XoOkcx7Nj3jA0YlpZL9OU1I3Si.jpg", "genre_ids": [35], "id": 67756, "original_language": "fr", "original_title": "Topaze", "overview": "Albert Topaze, sincere schoolteacher addicted to \"rote\" morality, works at a private school run by supremely money-grubbing M. Muche, whose daughter, also a teacher, makes cynical use of the knowledge that Topaze loves her. Alas, Topaze's naive honesty brings him unjust dismissal...and makes him fair game for the \"aunt\" of his private pupil, really the mistress of crooked politician Regis, who needs an honest-seeming \"front man.\" Can artful Suzy Courtois keep Topaze on the string? With steadily escalating disillusion comes moral crisis...", "poster_path": "/4Fhox52hN4zXWlglUXMnSMWiFRL.jpg", "release_date": "1951-01-25", "title": "Topaze", "video": false, "vote_average": 6.5, "vote_count": 10, "popularity": 1.565}, {"adult": false, "backdrop_path": "/6gm46orxSrf5dYUxqTFwWAWgQXi.jpg", "genre_ids": [18, 36], "id": 65958, "original_language": "fr", "original_title": "Le Souper", "overview": "", "poster_path": "/iWwR55TJ6Pat6d3w5vzrmtV76Yi.jpg", "release_date": "1992-12-23", "title": "The Supper", "video": false, "vote_average": 6.1, "vote_count": 18, "popularity": 2.688}, {"adult": false, "backdrop_path": "/31e4vTeQriZ3nB5R9LRYC48nLHV.jpg", "genre_ids": [10752, 18], "id": 192325, "original_language": "fr", "original_title": "Au bon beurre", "overview": "", "poster_path": "/tjKjVx2CM92QLhaMlFzDar1sVPD.jpg", "release_date": "1981-04-08", "title": "Au bon beurre", "video": false, "vote_average": 6.6, "vote_count": 7, "popularity": 0.872}, {"adult": false, "backdrop_path": "/go4BOOqxGFfJHqEMJ4YRvvyNhdw.jpg", "genre_ids": [18, 35], "id": 257381, "original_language": "fr", "original_title": "Week-ends", "overview": "It sometimes takes little to spoil a weekend in the country. A simple misunderstanding in a supermarket parking lot, a bad reaction, and there you go, everything is awry. Nothing is going well for Christine. Jean leaves her. Her oldest friends, Sylvette and Ulrich, are no longer such good friends. Everything is falling apart at the seams. But life is always full of surprises.", "poster_path": "/AoMiNIIuTcvF9mU9V5KAyd2uRVe.jpg", "release_date": "2014-02-26", "title": "Week-ends", "video": false, "vote_average": 3.9, "vote_count": 9, "popularity": 1.633}, {"adult": false, "backdrop_path": "/gE3RROHD2qClrEOPpkIfIVTCMCH.jpg", "genre_ids": [18], "id": 36296, "original_language": "en", "original_title": "Violence des \u00e9changes en milieu temp\u00e9r\u00e9", "overview": "Philippe Seigner starts his career in business consulting at the posh Paris seat of McGregor. His first serious task is delicate: An audit at a factory, which is about to be taken over. As he soon realizes, this will mean sacking about 80 employees. However, his girl friend reproaches him collaborating with ruthless capitalism, as if any of the downsizing could be mitigated by him bowing out.", "poster_path": "/dEjtzBTw6oTj3pbuUMZNrrUl6PR.jpg", "release_date": "2004-01-01", "title": "Work Hard, Play Hard", "video": false, "vote_average": 5.4, "vote_count": 10, "popularity": 1.526}, {"adult": false, "backdrop_path": "/bYz5WrgREs2rE7BByBEwWNCuXeu.jpg", "genre_ids": [35, 10749, 18], "id": 135281, "original_language": "fr", "original_title": "Camille redouble", "overview": "Camille was only sixteen and still in high school when she fell in love with Eric, another student. They later married and a child and were happy for a while. But now twenty-five years have passed and Eric leaves her for a younger woman. Bitter and desperate Camille drinks so much liquor at a New Year Eve's party that she falls into an ethylic coma and she finds herself... propelled into her own past! Camille is sixteen again when she wakes up this morning, her parents are not dead anymore and she must go to school, where she will meet her schoolmates and, of course, Eric. Is she going to fall for him again and... be miserable twenty-five years later? Or will she avoid him with the result never having her beloved daughter? Who ever said that time traveling was fun?", "poster_path": "/fDYSELYsjhI7maKW3X71X3qB5BN.jpg", "release_date": "2012-09-12", "title": "Camille Rewinds", "video": false, "vote_average": 6.2, "vote_count": 126, "popularity": 6.502}, {"adult": false, "backdrop_path": null, "genre_ids": [], "id": 108521, "original_language": "es", "original_title": "Fierrot le pou", "overview": "A young man shoots hoops in an empty gym. He misses constantly. At the other end of the court, a young woman arrives and starts warming up. She rarely misses. He's white, she's black. From time to time, she glances at him and smiles. He's fully aware of her presence and of his lack of talent. Is there any way he can impress her? His imagination takes over.", "poster_path": "/7DFg2J352SZ97Sz1mNYCDBTxCY3.jpg", "release_date": "1990-01-01", "title": "Fierrot le pou", "video": false, "vote_average": 5.7, "vote_count": 13, "popularity": 2.144}, {"id": 53028, "video": false, "vote_count": 8, "vote_average": 7.1, "title": "Jane B. by Agn\u00e8s V.", "release_date": "1988-03-02", "original_language": "fr", "original_title": "Jane B. par Agn\u00e8s V.", "genre_ids": [99, 14], "backdrop_path": "/5pVq97ZRTQUeJlPHqam4f3w3nC1.jpg", "adult": false, "overview": "A portrait of actress Jane Birkin.", "poster_path": "/1izUNQlIMkc7dhcbatWej6NvpW8.jpg", "popularity": 2.344}, {"adult": false, "backdrop_path": "/b9rPxaF63o5lT3lDyrUNGbZquSd.jpg", "genre_ids": [], "id": 60104, "original_language": "fr", "original_title": "Le Parfum de la dame en noir", "overview": "", "poster_path": "/3VH4LpUDHQNxHNHTUBKnSUl1Uij.jpg", "release_date": "2005-09-14", "title": "The Perfume of the Lady in Black", "video": false, "vote_average": 6.5, "vote_count": 10, "popularity": 2.258}], "total_pages": 2, "total_results": 40}, "credits": {"cast": [{"cast_id": 3, "character": "Fran\u00e7oise Quoirez dite Sagan", "credit_id": "52fe46009251416c75069b63", "gender": 1, "id": 4529, "name": "Sylvie Testud", "order": 0, "profile_path": "/ctKxr2mIPIXYM6tpuxZLRUSyttS.jpg"}, {"cast_id": 4, "character": "Jacques Chazot", "credit_id": "52fe46009251416c75069b67", "gender": 2, "id": 77007, "name": "Pierre Palmade", "order": 1, "profile_path": "/gepUcsexaiC8UQxnrUAxFbIxyWv.jpg"}, {"cast_id": 5, "character": "Astrid", "credit_id": "52fe46009251416c75069b6b", "gender": 1, "id": 28626, "name": "Arielle Dombasle", "order": 2, "profile_path": "/yl6RniErLOkQKxUJjn791WBJB5O.jpg"}, {"cast_id": 6, "character": "Peggy Roche", "credit_id": "52fe46009251416c75069b6f", "gender": 1, "id": 77191, "name": "Jeanne Balibar", "order": 3, "profile_path": "/nvy943Oez5Grrulv3FzLjzN8OSM.jpg"}, {"cast_id": 7, "character": "Bernard Frank", "credit_id": "52fe46009251416c75069b73", "gender": 2, "id": 7278, "name": "Lionel Abelanski", "order": 4, "profile_path": "/opIpeTJJGTR49xr1VZJNJuUWrqN.jpg"}, {"cast_id": 8, "character": "Philippe", "credit_id": "52fe46009251416c75069b77", "gender": 0, "id": 222569, "name": "Bruno Wolkowitch", "order": 5, "profile_path": "/g0XaMRH1s2IRSOr50oLxFrNKgVb.jpg"}, {"cast_id": 9, "character": "Florence Malraux", "credit_id": "52fe46009251416c75069b7b", "gender": 0, "id": 113605, "name": "Margot Abascal", "order": 6, "profile_path": "/giIekttRxbvMK6v8GFRdsjqZ14D.jpg"}, {"cast_id": 10, "character": "Suzanne Quoirez", "credit_id": "52fe46009251416c75069b7f", "gender": 1, "id": 146492, "name": "Gwendoline Hamon", "order": 7, "profile_path": "/mFgShrg4jIElwoGOvjMiq5ITWhY.jpg"}, {"cast_id": 14, "character": "", "credit_id": "5da952c4126ec300120f5c64", "gender": 1, "id": 2435311, "name": "B\u00e9n\u00e9dicte Charpiat", "order": 8, "profile_path": "/btkMKa76O0gj43aFNR7TiuEFdhk.jpg"}, {"cast_id": 15, "character": "Pepita", "credit_id": "5da952dcce6c4c0012b6ef31", "gender": 0, "id": 2435327, "name": "Rita Falcone", "order": 9, "profile_path": null}, {"cast_id": 16, "character": "Paola", "credit_id": "5da952f23d355700126ae6b9", "gender": 1, "id": 97041, "name": "Alexia Stresi", "order": 10, "profile_path": "/hErmyD4FaIgJS780Z0qNFL6lBSq.jpg"}, {"cast_id": 17, "character": "Mme Lebreton", "credit_id": "5da9530ece6c4c0018b6db63", "gender": 1, "id": 17901, "name": "Chantal Neuwirth", "order": 11, "profile_path": "/vHPORFjUCqI74qpuJGaYMfzdkeZ.jpg"}, {"cast_id": 18, "character": "Mme Bartoli", "credit_id": "5da9532bce6c4c0014b6c0ae", "gender": 0, "id": 13695, "name": "Silvie Laguna", "order": 12, "profile_path": "/rbigEHdNk1DBAgj9ge7Q1CqhdFD.jpg"}, {"cast_id": 19, "character": "Fran\u00e7oise Verny", "credit_id": "5da95349b2681f00128f2a13", "gender": 0, "id": 20684, "name": "Nora Habib", "order": 13, "profile_path": null}], "crew": [{"credit_id": "52fe46009251416c75069b59", "department": "Directing", "gender": 1, "id": 77005, "job": "Director", "name": "Diane Kurys", "profile_path": "/JFnbnnBJHCFuysxxKChIGgDSI6.jpg"}, {"credit_id": "55eae55e9251413e3a00a40b", "department": "Writing", "gender": 1, "id": 77005, "job": "Writer", "name": "Diane Kurys", "profile_path": "/JFnbnnBJHCFuysxxKChIGgDSI6.jpg"}, {"credit_id": "55eae57fc3a3682c760098de", "department": "Writing", "gender": 0, "id": 77006, "job": "Writer", "name": "Claire Lemar\u00e9chal", "profile_path": null}, {"credit_id": "52fe46009251416c75069b5f", "department": "Writing", "gender": 0, "id": 77006, "job": "Scenario Writer", "name": "Claire Lemar\u00e9chal", "profile_path": null}, {"credit_id": "55eae5709251413e2f009f7b", "department": "Writing", "gender": 0, "id": 1493125, "job": "Writer", "name": "Martine Moriconi", "profile_path": null}]}}