{"adult": false, "backdrop_path": "/7jaVrdbZVQ8HXimkf5hmZfoWH9S.jpg", "belongs_to_collection": null, "budget": 0, "genres": [{"id": 16, "name": "Animation"}, {"id": 14, "name": "Fantasy"}], "homepage": null, "id": 145977, "imdb_id": "tt0035422", "original_language": "en", "original_title": "Superman: Terror on the Midway", "overview": "When things go wrong at the circus, it's up to Superman to stop the escaped animals.", "popularity": 2.694, "poster_path": "/zfoZCSgiw4o3ubDpvuNfbgh3O0F.jpg", "production_companies": [{"id": 8302, "logo_path": null, "name": "Fleischer Studios", "origin_country": ""}], "production_countries": [{"iso_3166_1": "US", "name": "United States of America"}], "release_date": "1942-08-30", "revenue": 0, "runtime": 8, "spoken_languages": [{"iso_639_1": "en", "name": "English"}], "status": "Released", "tagline": "", "title": "Superman: Terror on the Midway", "video": false, "vote_average": 6.6, "vote_count": 7, "keywords": {"keywords": [{"id": 9715, "name": "superhero"}, {"id": 33637, "name": "super power"}, {"id": 193544, "name": "save the day"}]}, "similar": {"page": 1, "results": [{"id": 246655, "video": false, "vote_count": 8994, "vote_average": 6.5, "title": "X-Men: Apocalypse", "release_date": "2016-05-18", "original_language": "en", "original_title": "X-Men: Apocalypse", "genre_ids": [28, 12, 14, 878], "backdrop_path": "/oQWWth5AOtbWG9o8SCAviGcADed.jpg", "adult": false, "overview": "After the re-emergence of the world's first mutant, world-destroyer Apocalypse, the X-Men must unite to defeat his extinction level plan.", "poster_path": "/zSouWWrySXshPCT4t3UKCQGayyo.jpg", "popularity": 28.213}, {"id": 9738, "video": false, "vote_count": 6168, "vote_average": 5.7, "title": "Fantastic Four", "release_date": "2005-06-29", "original_language": "en", "original_title": "Fantastic Four", "genre_ids": [28, 12, 14, 878], "backdrop_path": "/6RaH2Znu7dUQq7c8surf7hRp44f.jpg", "adult": false, "overview": "During a space voyage, four scientists are altered by cosmic rays: Reed Richards gains the ability to stretch his body; Sue Storm can become invisible; Johnny Storm controls fire; and Ben Grimm is turned into a super-strong \u2026 thing. Together, these \"Fantastic Four\" must now thwart the evil plans of Dr. Doom and save the world from certain destruction.", "poster_path": "/sYNOCHiWA9UDUHlPvRWztSo5hZV.jpg", "popularity": 23.086}, {"adult": false, "backdrop_path": "/nq60mZOlrD4mZJg1T4hHUtWTIkN.jpg", "genre_ids": [12, 14, 28, 53], "id": 1979, "original_language": "en", "original_title": "Fantastic Four: Rise of the Silver Surfer", "overview": "The Fantastic Four return to the big screen as a new and all powerful enemy threatens the Earth. The seemingly unstoppable 'Silver Surfer', but all is not what it seems and there are old and new enemies that pose a greater threat than the intrepid superheroes realize.", "poster_path": "/fXpziQgnBnB4bLgjKhjTbLQumE5.jpg", "release_date": "2007-06-13", "title": "Fantastic Four: Rise of the Silver Surfer", "video": false, "vote_average": 5.5, "vote_count": 5280, "popularity": 38.268}, {"id": 10195, "video": false, "vote_count": 13991, "vote_average": 6.7, "title": "Thor", "release_date": "2011-04-21", "original_language": "en", "original_title": "Thor", "genre_ids": [28, 12, 14], "backdrop_path": "/LvmmDZxkTDqp0DX7mUo621ahdX.jpg", "adult": false, "overview": "Against his father Odin's will, The Mighty Thor - a powerful but arrogant warrior god - recklessly reignites an ancient war. Thor is cast down to Earth and forced to live among humans as punishment. Once here, Thor learns what it takes to be a true hero when the most dangerous villain of his world sends the darkest forces of Asgard to invade Earth.", "poster_path": "/9zDwvsISU8bR15R2yN3kh1lfqve.jpg", "popularity": 33.381}, {"adult": false, "backdrop_path": "/o5T8rZxoWSBMYwjsUFUqTt6uMQB.jpg", "genre_ids": [28, 12, 14, 878], "id": 141052, "original_language": "en", "original_title": "Justice League", "overview": "Fuelled by his restored faith in humanity and inspired by Superman's selfless act, Bruce Wayne and Diana Prince assemble a team of metahumans consisting of Barry Allen, Arthur Curry and Victor Stone to face the catastrophic threat of Steppenwolf and the Parademons who are on the hunt for three Mother Boxes on Earth.", "poster_path": "/eifGNCSDuxJeS1loAXil5bIGgvC.jpg", "release_date": "2017-11-15", "title": "Justice League", "video": false, "vote_average": 6.2, "vote_count": 8353, "popularity": 37.398}, {"id": 1924, "video": false, "vote_count": 2085, "vote_average": 7.0, "title": "Superman", "release_date": "1978-12-13", "original_language": "en", "original_title": "Superman", "genre_ids": [28, 12, 878], "backdrop_path": "/nS0rEXPbkHI449SF6R4WUQvTVxE.jpg", "adult": false, "overview": "Mild-mannered Clark Kent works as a reporter at the Daily Planet alongside his crush, Lois Lane. Clark must summon his superhero alter-ego when the nefarious Lex Luthor launches a plan to take over the world.", "poster_path": "/rLTdj7oB9oxsYwuweeglWRzRng7.jpg", "popularity": 26.497}, {"id": 379291, "video": false, "vote_count": 421, "vote_average": 6.9, "title": "Justice League vs. Teen Titans", "release_date": "2016-03-29", "original_language": "en", "original_title": "Justice League vs. Teen Titans", "genre_ids": [28, 16], "backdrop_path": "/AjtPveq4ZdDDvMGHY4Vi4LIM8oe.jpg", "adult": false, "overview": "Robin is sent by Batman to work with the Teen Titans after his volatile behavior botches up a Justice League mission. The Titans must then step up to face Trigon after he possesses the League and threatens to conquer the world.", "poster_path": "/dQMO9EJxDBkdRzWUEWkbYzrMDC0.jpg", "popularity": 17.968}, {"adult": false, "backdrop_path": "/2n0kjNEI3uF0ju9H5jiE3rBk5C0.jpg", "genre_ids": [14, 27, 28, 53], "id": 36586, "original_language": "en", "original_title": "Blade II", "overview": "A rare mutation has occurred within the vampire community - The Reaper. A vampire so consumed with an insatiable bloodlust that they prey on vampires as well as humans, transforming victims who are unlucky enough to survive into Reapers themselves. Blade is asked by the Vampire Nation for his help in preventing a nightmare plague that would wipe out both humans and vampires.", "poster_path": "/jlURNpXCMK830CsGRd939PJLh8c.jpg", "release_date": "2002-03-22", "title": "Blade II", "video": false, "vote_average": 6.4, "vote_count": 2814, "popularity": 29.742}, {"adult": false, "backdrop_path": "/5yAEbTXiJZQpNx7eCyyOhnY9MYw.jpg", "genre_ids": [14, 28], "id": 557, "original_language": "en", "original_title": "Spider-Man", "overview": "After being bitten by a genetically altered spider, nerdy high school student Peter Parker is endowed with amazing powers.", "poster_path": "/rZd0y1X1Gw4t5B3f01Qzj8DYY66.jpg", "release_date": "2002-05-01", "title": "Spider-Man", "video": false, "vote_average": 7.1, "vote_count": 11001, "popularity": 26.079}, {"adult": false, "backdrop_path": "/ysLIi9nzMbUqi4dQh3tqblUb27o.jpg", "genre_ids": [878, 28, 27, 53, 12, 14], "id": 36648, "original_language": "en", "original_title": "Blade: Trinity", "overview": "For years, Blade has fought against the vampires in the cover of the night. But now, after falling into the crosshairs of the FBI, he is forced out into the daylight, where he is driven to join forces with a clan of human vampire hunters he never knew existed\u2014The Nightstalkers. Together with Abigail and Hannibal, two deftly trained Nightstalkers, Blade follows a trail of blood to the ancient creature that is also hunting him\u2014the original vampire, Dracula.", "poster_path": "/4WinsdHQBdh5aTt7Bd7T7dbUXbb.jpg", "release_date": "2004-12-08", "title": "Blade: Trinity", "video": false, "vote_average": 5.8, "vote_count": 2278, "popularity": 19.358}, {"adult": false, "backdrop_path": "/7IBpOrw0ATwL1AOV97mtsceDpYs.jpg", "genre_ids": [14, 28, 12], "id": 559, "original_language": "en", "original_title": "Spider-Man 3", "overview": "The seemingly invincible Spider-Man goes up against an all-new crop of villains\u2014including the shape-shifting Sandman. While Spider-Man\u2019s superpowers are altered by an alien organism, his alter ego, Peter Parker, deals with nemesis Eddie Brock and also gets caught up in a love triangle.", "poster_path": "/2N9lhZg6VtVJoGCZDjXVC3a81Ea.jpg", "release_date": "2007-05-01", "title": "Spider-Man 3", "video": false, "vote_average": 6.2, "vote_count": 7973, "popularity": 30.343}, {"id": 284053, "video": false, "vote_count": 12880, "vote_average": 7.5, "title": "Thor: Ragnarok", "release_date": "2017-10-25", "original_language": "en", "original_title": "Thor: Ragnarok", "genre_ids": [28, 12, 35, 14], "backdrop_path": "/kaIfm5ryEOwYg8mLbq8HkPuM1Fo.jpg", "adult": false, "overview": "Thor is imprisoned on the other side of the universe and finds himself in a race against time to get back to Asgard to stop Ragnarok, the destruction of his home-world and the end of Asgardian civilization, at the hands of an all-powerful new threat, the ruthless Hela.", "poster_path": "/rzRwTcFvttcN1ZpX2xv4j3tSdJu.jpg", "popularity": 56.548}, {"id": 297762, "video": false, "vote_count": 13722, "vote_average": 7.3, "title": "Wonder Woman", "release_date": "2017-05-30", "original_language": "en", "original_title": "Wonder Woman", "genre_ids": [28, 12, 14], "backdrop_path": "/6iUNJZymJBMXXriQyFZfLAKnjO6.jpg", "adult": false, "overview": "An Amazon princess comes to the world of Man in the grips of the First World War to confront the forces of evil and bring an end to human conflict.", "poster_path": "/gfJGlDaHuWimErCr5Ql0I8x9QSy.jpg", "popularity": 44.687}, {"id": 76338, "video": false, "vote_count": 11167, "vote_average": 6.6, "title": "Thor: The Dark World", "release_date": "2013-10-29", "original_language": "en", "original_title": "Thor: The Dark World", "genre_ids": [28, 12, 14], "backdrop_path": "/3FweBee0xZoY77uO1bhUOlQorNH.jpg", "adult": false, "overview": "Thor fights to restore order across the cosmos\u2026 but an ancient race led by the vengeful Malekith returns to plunge the universe back into darkness. Faced with an enemy that even Odin and Asgard cannot withstand, Thor must embark on his most perilous and personal journey yet, one that will reunite him with Jane Foster and force him to sacrifice everything to save us all.", "poster_path": "/bnX5PqAdQZRXSw3aX3DutDcdso5.jpg", "popularity": 30.286}, {"id": 209112, "video": false, "vote_count": 12706, "vote_average": 5.8, "title": "Batman v Superman: Dawn of Justice", "release_date": "2016-03-23", "original_language": "en", "original_title": "Batman v Superman: Dawn of Justice", "genre_ids": [28, 12, 14], "backdrop_path": "/vsjBeMPZtyB7yNsYY56XYxifaQZ.jpg", "adult": false, "overview": "Fearing the actions of a god-like Super Hero left unchecked, Gotham City\u2019s own formidable, forceful vigilante takes on Metropolis\u2019s most revered, modern-day savior, while the world wrestles with what sort of hero it really needs. And with Batman and Superman at war with one another, a new threat quickly arises, putting mankind in greater danger than it\u2019s ever known before.", "poster_path": "/cGOPbv9wA5gEejkUN892JrveARt.jpg", "popularity": 40.938}, {"id": 49521, "video": false, "vote_count": 10455, "vote_average": 6.5, "title": "Man of Steel", "release_date": "2013-06-12", "original_language": "en", "original_title": "Man of Steel", "genre_ids": [28, 12, 14, 878], "backdrop_path": "/jYLh4mdOqkt30i7LTFs3o02UcGF.jpg", "adult": false, "overview": "A young boy learns that he has extraordinary powers and is not of this earth. As a young man, he journeys to discover where he came from and what he was sent here to do. But the hero in him must emerge if he is to save the world from annihilation and become the symbol of hope for all mankind.", "poster_path": "/xWlaTLnD8NJMTT9PGOD9z5re1SL.jpg", "popularity": 35.911}, {"id": 284052, "video": false, "vote_count": 13953, "vote_average": 7.4, "title": "Doctor Strange", "release_date": "2016-10-25", "original_language": "en", "original_title": "Doctor Strange", "genre_ids": [28, 12, 14, 878], "backdrop_path": "/tFI8VLMgSTTU38i8TIsklfqS9Nl.jpg", "adult": false, "overview": "After his career is destroyed, a brilliant but arrogant surgeon gets a new lease on life when a sorcerer takes him under her wing and trains him to defend the world against evil.", "poster_path": "/4PiiNGXj1KENTmCBHeN6Mskj2Fq.jpg", "popularity": 47.105}, {"id": 71676, "video": false, "vote_count": 2238, "vote_average": 4.8, "title": "Ghost Rider: Spirit of Vengeance", "release_date": "2011-12-10", "original_language": "en", "original_title": "Ghost Rider: Spirit of Vengeance", "genre_ids": [28, 14, 53], "backdrop_path": "/9w9UtpeRPK797GzT7xQXuVRSUSj.jpg", "adult": false, "overview": "When the devil resurfaces with aims to take over the world in human form, Johnny Blaze reluctantly comes out of hiding to transform into the flame-spewing supernatural hero Ghost Rider -- and rescue a 10-year-old boy from an unsavory end.", "poster_path": "/tqwWzmp5ISh64SJbNKQ9fyItnDj.jpg", "popularity": 18.398}, {"id": 287947, "video": false, "vote_count": 4115, "vote_average": 7.0, "title": "Shazam!", "release_date": "2019-03-29", "original_language": "en", "original_title": "Shazam!", "genre_ids": [28, 35, 14], "backdrop_path": "/OIGX2lm5tmlCKvZUghtwHzoxxO.jpg", "adult": false, "overview": "A boy is given the ability to become an adult superhero in times of need with a single magic word.", "poster_path": "/xnopI5Xtky18MPhK40cZAGAOVeV.jpg", "popularity": 47.365}, {"adult": false, "backdrop_path": "/amXWhCkrsN7p9S6rnLCgD9fNwE6.jpg", "genre_ids": [28, 16, 878, 10751], "id": 13640, "original_language": "en", "original_title": "Superman: Doomsday", "overview": "When LexCorps accidentally unleash a murderous creature, Doomsday, Superman meets his greatest challenge as a champion. Based on the \"The Death of Superman\" storyline that appeared in DC Comics' publications in the 1990s", "poster_path": "/3of4nShmv1hBmrebOQqGlfZ9ZL0.jpg", "release_date": "2007-09-18", "title": "Superman: Doomsday", "video": false, "vote_average": 6.6, "vote_count": 283, "popularity": 12.342}], "total_pages": 52, "total_results": 1032}, "recommendations": {"page": 1, "results": [{"adult": false, "backdrop_path": "/p061OztlxG0ssnELfeBPvMTNSzB.jpg", "genre_ids": [16, 14], "id": 99678, "original_language": "en", "original_title": "The Magnetic Telescope", "overview": "When police interfere with a reckless scientist's experiment, it creates a deadly meteor shower only Superman can stop.", "poster_path": "/41cWAnCx5qUmZcKnb0fYwrD1EzZ.jpg", "release_date": "1942-04-24", "title": "The Magnetic Telescope", "video": false, "vote_average": 7.1, "vote_count": 7, "popularity": 2.586}, {"id": 145969, "video": false, "vote_count": 8, "vote_average": 7.0, "title": "Superman: Volcano", "release_date": "1942-07-10", "original_language": "en", "original_title": "Superman: Volcano", "genre_ids": [], "backdrop_path": "/vRSFKp162ZvPmE3p8NIFb6hC2L.jpg", "adult": false, "overview": "Superman comes to the rescue when a volcano erupts.", "poster_path": "/97xqhBxxRDAfJpuoze1mo9WtpHW.jpg", "popularity": 1.847}, {"id": 145963, "video": false, "vote_count": 10, "vote_average": 6.2, "title": "Superman: The Bulleteers", "release_date": "1942-03-26", "original_language": "en", "original_title": "Superman: The Bulleteers", "genre_ids": [28, 16, 14], "backdrop_path": null, "adult": false, "overview": "Criminals with rocket powered car loot and extort the city, and only Superman can stop them!", "poster_path": "/i8hliwYdzUpbc5FA6kfNbop97Ta.jpg", "popularity": 2.292}, {"id": 145967, "video": false, "vote_count": 11, "vote_average": 6.3, "title": "Superman: Electric Earthquake", "release_date": "1942-05-15", "original_language": "en", "original_title": "Superman: Electric Earthquake", "genre_ids": [], "backdrop_path": "/2jYCdrgZLQeeLXLqAA6dXJJ5onA.jpg", "adult": false, "overview": "A scientist uses an earthquake machine to threaten the city, and only Superman can stop his extortion plan!", "poster_path": "/zVZnxX9i5rHPcb98joeRF7V3PYq.jpg", "popularity": 3.701}, {"id": 71128, "video": false, "vote_count": 9, "vote_average": 6.1, "title": "Superman: Japoteurs", "release_date": "1942-09-17", "original_language": "en", "original_title": "Superman: Japoteurs", "genre_ids": [16], "backdrop_path": "/fzocVfJ5hOfIvHlVKD1aNR7EqYT.jpg", "adult": false, "overview": "Superman vs. Japanese spies hijacking a new super-bomber.", "poster_path": "/o6vMPmvJzgIF067q0F487bZlChP.jpg", "popularity": 2.157}, {"adult": false, "backdrop_path": "/nLMZroK58XwdMei2hws4W9HEsML.jpg", "genre_ids": [28, 878, 53], "id": 93560, "original_language": "en", "original_title": "Batman and Robin", "overview": "This 15-chapter serial pits Batman and Robin against The Wizard, who uses a device that allows him to control machinery to hold the city hostage.", "poster_path": "/mhlVDSkxiyVqHBK8bqwfgK2v3e.jpg", "release_date": "1949-05-26", "title": "Batman and Robin", "video": false, "vote_average": 5.6, "vote_count": 15, "popularity": 3.013}, {"adult": false, "backdrop_path": "/l0T9V6P5Whkqlhj1VnyJcvuZ9ey.jpg", "genre_ids": [], "id": 146074, "original_language": "en", "original_title": "Secret Agent", "overview": "A double agent trying to deliver information to Washington, D.C. is chased by Nazi operatives.", "poster_path": "/qNz9b8E0vBKNvieMWJdRkOIBtLd.jpg", "release_date": "1943-07-30", "title": "Secret Agent", "video": false, "vote_average": 7.2, "vote_count": 6, "popularity": 1.266}, {"adult": false, "backdrop_path": "/gdUUXaBy9mWOCtc1bkRUyVnLWKS.jpg", "genre_ids": [28, 16, 35], "id": 146059, "original_language": "en", "original_title": "Destruction, Inc.", "overview": "Superman has to thwart wartime saboteurs tampering with things at the Metropolis Munitions Plant...who have captured Lois Lane and loaded her into a torpedo!", "poster_path": "/rWpcykLQpGojRwvfjDoANnE6k6S.jpg", "release_date": "1942-12-25", "title": "Destruction, Inc.", "video": false, "vote_average": 7.3, "vote_count": 6, "popularity": 1.749}, {"adult": false, "backdrop_path": "/bgxRJYWBZRHODLKUWlehvuYbzmR.jpg", "genre_ids": [], "id": 146061, "original_language": "en", "original_title": "The Mummy Strikes", "overview": "Egyptologists are attacked by mummies, drawing the attention of Superman.", "poster_path": "/4W7OE8cRAq2B06nDFjXAXTQzNVw.jpg", "release_date": "1943-02-19", "title": "The Mummy Strikes", "video": false, "vote_average": 7.0, "vote_count": 6, "popularity": 2.004}, {"adult": false, "backdrop_path": "/ugH6fAIXTBkCPyw5aEVE6mKtY71.jpg", "genre_ids": [], "id": 146072, "original_language": "en", "original_title": "The Underground World", "overview": "Superman has to save Lois Lane from a cult of hawk-people in an homage to Edgar Rice Burroughs's \"At the Earth's Core\".", "poster_path": "/uU50x63WnmglXlgSUWL53eYObAW.jpg", "release_date": "1943-06-18", "title": "The Underground World", "video": false, "vote_average": 6.7, "vote_count": 6, "popularity": 2.201}, {"id": 145931, "video": false, "vote_count": 12, "vote_average": 6.8, "title": "Superman: Billion Dollar Limited", "release_date": "1942-01-09", "original_language": "en", "original_title": "Superman: Billion Dollar Limited", "genre_ids": [], "backdrop_path": "/buuBlEip3beJ1oxqaLiYBh60ZYX.jpg", "adult": false, "overview": "Robbers target a special train carrying a billion dollars worth of gold, and the only one who can stop them is Superman!", "poster_path": "/9XoBpC7LQn8a9tTi8RMoyHaT77y.jpg", "popularity": 1.812}, {"adult": false, "backdrop_path": "/daFjBHKzquc5Y71Vq3NZd30eTPN.jpg", "genre_ids": [], "id": 146058, "original_language": "en", "original_title": "Eleventh Hour", "overview": "Using Clark Kent as a cover, Superman travels to Japan as a saboteur during the war.", "poster_path": "/pyjFE4FZFfUSYupQpEXXP7Xk80E.jpg", "release_date": "1942-11-20", "title": "Eleventh Hour", "video": false, "vote_average": 6.1, "vote_count": 8, "popularity": 1.798}, {"id": 71129, "video": false, "vote_count": 15, "vote_average": 7.1, "title": "Superman: The Mechanical Monsters", "release_date": "1941-11-28", "original_language": "en", "original_title": "Superman: The Mechanical Monsters", "genre_ids": [28, 16], "backdrop_path": "/ozlRRDPqd2dikRBhTAHcIhgAspg.jpg", "adult": false, "overview": "Superman battles a criminal mastermind and his robot army.", "poster_path": "/5nwvrEYd1Crqb6jdP2fA42TCk4i.jpg", "popularity": 3.972}, {"adult": false, "backdrop_path": "/hnYAsXDSnq7v4I8c98fxhNwdt1B.jpg", "genre_ids": [28, 37], "id": 23391, "original_language": "en", "original_title": "Riders of Destiny", "overview": "John Wayne portrays Singin' Sandy Saunders and has a reputation as the most notorious gunman since Billy the Kid. That's somewhat ironic though, since it's later revealed that he's a special Secret Service agent sent from Washington to investigate a land swindle scheme under the direction of town boss James Kincaid (Forrest Taylor).", "poster_path": "/beU6yj39WrwKig2kGNL8xk6hxg6.jpg", "release_date": "1933-10-10", "title": "Riders of Destiny", "video": false, "vote_average": 5.6, "vote_count": 13, "popularity": 4.594}, {"adult": false, "backdrop_path": "/gRfkxwoLi9nZIQzf5naqeGVKINp.jpg", "genre_ids": [99], "id": 41763, "original_language": "en", "original_title": "Flying Saucers Over Hollywood: The 'Plan 9' Companion", "overview": "A documentary detailing the making of the cult favorite movie \"Plan 9 From Outer Space,\" and interviews with cast members and prominent filmmakers about the film and its creator, Edward D. Wood Jr.", "poster_path": "/7Oclb3oeGgOXYCDDHzeTvc7SoNI.jpg", "release_date": "1992-01-01", "title": "Flying Saucers Over Hollywood: The 'Plan 9' Companion", "video": false, "vote_average": 6.5, "vote_count": 6, "popularity": 3.33}, {"adult": false, "backdrop_path": "/4hM75TGzM8P2rVZjqtmpjdF5PSj.jpg", "genre_ids": [35], "id": 21102, "original_language": "en", "original_title": "The Absent-Minded Waiter", "overview": "Bernie Cates requests the services of the most absent-minded waiter he's ever seen, who pours water before setting the glasses, endlessly repeats questions, brings wrong orders, and ruins everything- but the bill.", "poster_path": "/nERuBbrMbyaYG3FVFt624zprpj.jpg", "release_date": "1977-01-01", "title": "The Absent-Minded Waiter", "video": false, "vote_average": 6.5, "vote_count": 9, "popularity": 3.005}, {"adult": false, "backdrop_path": null, "genre_ids": [27], "id": 201292, "original_language": "en", "original_title": "Clockwork", "overview": "A very wealthy, but lonely woman is stalked in her home by a violent serial killer.", "poster_path": "/qSBybYZQskfuAaIi81fd5PgUI4j.jpg", "release_date": "1978-01-01", "title": "Clockwork", "video": false, "vote_average": 6.0, "vote_count": 5, "popularity": 0.985}, {"adult": false, "backdrop_path": null, "genre_ids": [99, 10751], "id": 300502, "original_language": "en", "original_title": "Drugs Are Like That", "overview": "[\u2026] Though the highs and lows of human experience are all here, it's often the gimcrack set design and fashion chops in these vintage clunkers that really wow \u2013 the pot-holder sweater vests, ponytails decorated with yarn, hippies with crumb-catching moustaches, banana-seat bikes and a hard rain of Quaaludes and amphetamines to illustrate the dangers of drug addiction. It is hard to believe anyone would buy the goofball cause-and-effect of that pill-popper's weather pattern in \"Drugs Are Like That\". Co-produced by the Miami Junior League and narrated by Anita Bryant in this cheery little hand-slapper, a kid stealing cookies from a cookie jar is implied to be headed down a bad road to Bowery bum rolls and LSD parties. (from: http://clatl.com/atlanta/av-geeks-greatest-hits-lessons-learned/Content?oid=1268313)", "poster_path": "/x1tJNroD9vBQ0I6tMTeIcfTpUtP.jpg", "release_date": "1969-01-01", "title": "Drugs Are Like That", "video": false, "vote_average": 2.0, "vote_count": 6, "popularity": 0.891}, {"adult": false, "backdrop_path": "/kHQGRznv8TXJMz69ZeCICRTg355.jpg", "genre_ids": [28, 53], "id": 81861, "original_language": "en", "original_title": "The Ultimate Weapon", "overview": "Mercenaries, Ben &amp; Vince, are assigned to destroy a stolen military arms cache held by a group of terrorists.", "poster_path": "/8rbUkdzWB5bk1QaR4wckRBZXquJ.jpg", "release_date": "1998-01-01", "title": "The Ultimate Weapon", "video": false, "vote_average": 3.3, "vote_count": 7, "popularity": 2.957}, {"id": 145961, "video": false, "vote_count": 13, "vote_average": 6.7, "title": "The Arctic Giant", "release_date": "1942-02-26", "original_language": "en", "original_title": "The Arctic Giant", "genre_ids": [16, 14], "backdrop_path": "/C8ab97clBIffq8MOtFiG9ftjga.jpg", "adult": false, "overview": "A frozen Tyrannosaurus rex is found and put on display in a museum, but when he thaws out and revives, Superman has to stop his rampage!", "poster_path": "/hw3zofRjgtpMGUrapr6Ydi6RyEb.jpg", "popularity": 2.09}], "total_pages": 1, "total_results": 20}, "credits": {"cast": [{"cast_id": 3, "character": "Lois Lane", "credit_id": "52fe4b6e9251416c751027bf", "gender": 1, "id": 560295, "name": "Joan Alexander", "order": 0, "profile_path": "/ufSNukIqs8dySVthOlsYGfOyOo9.jpg"}, {"cast_id": 4, "character": "Superman/Clark Kent", "credit_id": "52fe4b6e9251416c751027c3", "gender": 2, "id": 214193, "name": "Bud Collyer", "order": 1, "profile_path": "/3pLaAF9bd0D1BbkHXkDwkI6tEaU.jpg"}, {"cast_id": 5, "character": "Sideshow Barker", "credit_id": "52fe4b6e9251416c751027c7", "gender": 2, "id": 1004823, "name": "Jack Mercer", "order": 2, "profile_path": "/9CcSlpFjah1PpIT5GwbBBFeYwtC.jpg"}, {"cast_id": 6, "character": "Narrator", "credit_id": "52fe4b6e9251416c751027cb", "gender": 0, "id": 560296, "name": "Julian Noa", "order": 3, "profile_path": null}], "crew": [{"credit_id": "52fe4b6d9251416c751027b5", "department": "Directing", "gender": 2, "id": 143463, "job": "Director", "name": "Dave Fleischer", "profile_path": "/343V4i0ekU4crsfk88YtPqFQld7.jpg"}, {"credit_id": "52fe4b6e9251416c751027d1", "department": "Writing", "gender": 2, "id": 20007, "job": "Characters", "name": "Jerry Siegel", "profile_path": "/tpkgpm3pHrkSNewoDasKz6Chpg4.jpg"}, {"credit_id": "52fe4b6e9251416c751027d7", "department": "Writing", "gender": 2, "id": 20008, "job": "Characters", "name": "Joe Shuster", "profile_path": "/fd9TzcTrww3LDR3x1KPycR0s5D8.jpg"}, {"credit_id": "52fe4b6e9251416c751027dd", "department": "Writing", "gender": 0, "id": 1123492, "job": "Story", "name": "Jay Morton", "profile_path": null}, {"credit_id": "52fe4b6e9251416c751027e3", "department": "Writing", "gender": 2, "id": 1123494, "job": "Story", "name": "Dan Gordon", "profile_path": null}, {"credit_id": "548467e0c3a3685d08000747", "department": "Production", "gender": 2, "id": 606084, "job": "Producer", "name": "Max Fleischer", "profile_path": null}]}}