{"adult": false, "backdrop_path": null, "belongs_to_collection": null, "budget": 0, "genres": [{"id": 16, "name": "Animation"}, {"id": 14, "name": "Fantasy"}], "homepage": null, "id": 146172, "imdb_id": "tt0305934", "original_language": "en", "original_title": "Our Lady of the Sphere", "overview": "Animation using woodcuts to craft a bizarre science fiction experiment. Moving spheres, such as balloons and bubbles, are superimposed on static backgrounds to suggest travel and discovery.", "popularity": 2.068, "poster_path": "/mn1cPgG29pNlN2IaiMrdhSjPrur.jpg", "production_companies": [], "production_countries": [{"iso_3166_1": "US", "name": "United States of America"}], "release_date": "1969-06-27", "revenue": 0, "runtime": 10, "spoken_languages": [{"iso_639_1": "xx", "name": "No Language"}], "status": "Released", "tagline": "", "title": "Our Lady of the Sphere", "video": false, "vote_average": 5.2, "vote_count": 13, "keywords": {"keywords": [{"id": 7507, "name": "collage"}, {"id": 15216, "name": "avant-garde"}, {"id": 214549, "name": "short"}]}, "similar": {"page": 1, "results": [{"adult": false, "backdrop_path": "/uRLUjLYEvqQNMRItBJkjVNA1FeC.jpg", "genre_ids": [16], "id": 53453, "original_language": "en", "original_title": "Donald Duck: Beach Picnic", "overview": "Donald Duck is at the beach and tries to ride a rubber horse. He notices Pluto sleeping at the shore and decides to have some fun with him by sending the rubber horse over to Pluto which completely mesmerizes him. Meanwhile, a tribe of ants abduct Donald's picnic lunch. Donald lays out fly paper to stop the ants. Pluto follows one of the ants and, of course, he and later Donald become enmeshed in the fly paper", "poster_path": "/mC1C2ydi1h19yspJRDlUq5WOavH.jpg", "release_date": "1939-06-09", "title": "Beach Picnic", "video": false, "vote_average": 5.6, "vote_count": 20, "popularity": 4.606}, {"adult": false, "backdrop_path": "/l5bS0w1JxytrBGInjDSZMEpIxDc.jpg", "genre_ids": [16], "id": 67113, "original_language": "en", "original_title": "Mickey's Polo Team", "overview": "Mickey leads his polo team Donald (on a mule), Goofy, The Big Bad Wolf against an all-star team: Stan Laurel, Oliver Hardy, Harpo Marx (on an ostrich), Charles Chaplin, in a game refereed by Jack Holt. Featured spectators include the Three Little Pigs with Shirley Temple, W.C. Fields, and Clarabelle Cow with Clark Gable. Game action proceeds pretty much as you might expect from this bunch of comedians.", "poster_path": "/4FDkgZWa5NCstaLszniBu1H4RAC.jpg", "release_date": "1936-01-04", "title": "Mickey's Polo Team", "video": false, "vote_average": 6.9, "vote_count": 17, "popularity": 4.343}, {"adult": false, "backdrop_path": "/5OeY4U2rzePxWq2rkqMajUx2gz7.jpg", "genre_ids": [16, 10751, 12, 14, 10749], "id": 812, "original_language": "en", "original_title": "Aladdin", "overview": "Princess Jasmine grows tired of being forced to remain in the palace, so she sneaks out into the marketplace, in disguise, where she meets street-urchin Aladdin.  The couple falls in love, although Jasmine may only marry a prince.  After being thrown in jail, Aladdin becomes embroiled in a plot to find a mysterious lamp, with which the evil Jafar hopes to rule the land.", "poster_path": "/mjKozYRuHc9j7SmiXmbVmCiAM0A.jpg", "release_date": "1992-11-25", "title": "Aladdin", "video": false, "vote_average": 7.6, "vote_count": 7289, "popularity": 35.494}, {"id": 150540, "video": false, "vote_count": 13957, "vote_average": 7.9, "title": "Inside Out", "release_date": "2015-06-09", "original_language": "en", "original_title": "Inside Out", "genre_ids": [16, 35, 18, 10751], "backdrop_path": "/szytSpLAyBh3ULei3x663mAv5ZT.jpg", "adult": false, "overview": "Growing up can be a bumpy road, and it's no exception for Riley, who is uprooted from her Midwest life when her father starts a new job in San Francisco. Riley's guiding emotions\u2014 Joy, Fear, Anger, Disgust and Sadness\u2014live in Headquarters, the control centre inside Riley's mind, where they help advise her through everyday life and tries to keep things positive, but the emotions conflict on how best to navigate a new city, house and school.", "poster_path": "/aAmfIX3TT40zUHGcCKrlOZRKC7u.jpg", "popularity": 57.362}, {"id": 326359, "video": false, "vote_count": 1180, "vote_average": 6.8, "title": "Frozen Fever", "release_date": "2015-03-09", "original_language": "en", "original_title": "Frozen Fever", "genre_ids": [12, 16, 10751], "backdrop_path": "/ubioPGniCfDiASmYYpeJs5RRNaC.jpg", "adult": false, "overview": "On Anna's birthday, Elsa and Kristoff are determined to give her the best celebration ever, but Elsa's icy powers may put more than just the party at risk.", "poster_path": "/lKJiVPzsAO9IJ4LKWXZ8vkR2bg4.jpg", "popularity": 17.218}, {"id": 14813, "video": false, "vote_count": 456, "vote_average": 7.6, "title": "Mickey's Christmas Carol", "release_date": "1983-10-19", "original_language": "en", "original_title": "Mickey's Christmas Carol", "genre_ids": [16, 10751], "backdrop_path": "/fDK3xeAcQfQ40ZUULgZshElkspa.jpg", "adult": false, "overview": "It is an adaptation of the Charles Dickens classic A Christmas Carol, featuring Scrooge McDuck as his namesake and inspiration Ebenezer Scrooge and Mickey Mouse as Bob Cratchit. This film was based on a 1972 audio musical entitled Disney's A Christmas Carol. It is a twenty-four minute animated short film produced by Walt Disney Productions as an accompaniment to a re-release of The Rescuers.", "poster_path": "/29iF1IiC3ZyJQ1kmTf4LD8p8oro.jpg", "popularity": 14.7}, {"adult": false, "backdrop_path": "/hPByrqJXCXIViFheXQh48wtI7T6.jpg", "genre_ids": [16, 12, 14, 10751], "id": 31135, "original_language": "en", "original_title": "Mickey Mouse: Mickey and the Beanstalk", "overview": "Based on the timeless adventures of \"Jack and the Beanstalk,\" Mickey, Donald and Goofy climb a fantastic beanstalk up into the sky to a place where everything is huge -- the food, the castle and the fearsome giant named Willy who guards a beautiful golden harp! Will Mickey and his friends outwit the giant and make it safely back home?", "poster_path": "/kk1Xg1f1lv6loekjlKinpKJlGOu.jpg", "release_date": "1947-09-27", "title": "Mickey Mouse: Mickey and the Beanstalk", "video": false, "vote_average": 6.7, "vote_count": 166, "popularity": 13.649}, {"adult": false, "backdrop_path": "/twGxeStlGooWV3gP6ZIcSNuQ6jf.jpg", "genre_ids": [12, 16, 10751, 14], "id": 81684, "original_language": "en", "original_title": "The Gruffalo's Child", "overview": "A follow up to the 2009 animated feature and adapted from the childrens' book by Julia Donaldson and Alex Scheffler.  The Gruffalo's child explores the deep dark wood in search of the big bad mouse and meets the Snake, Owl and Fox in the process.  She eventually finds the mouse, who manages to outwit her like the Gruffalo before!", "poster_path": "/qaGH2AoaLvoGXURQtNzj1nw6oZd.jpg", "release_date": "2011-12-25", "title": "The Gruffalo's Child", "video": false, "vote_average": 6.9, "vote_count": 73, "popularity": 9.51}, {"id": 21385, "video": false, "vote_count": 455, "vote_average": 6.4, "title": "Mickey, Donald, Goofy: The Three Musketeers", "release_date": "2004-08-04", "original_language": "en", "original_title": "Mickey, Donald, Goofy: The Three Musketeers", "genre_ids": [12, 16, 35, 10751], "backdrop_path": "/8WodHELOg5guFPMIQf0M88IQhNE.jpg", "adult": false, "overview": "In Disney's take on the Alexander Dumas tale, Mickey Mouse, Donald Duck and Goofy want nothing more than to perform brave deeds on behalf of their queen (Minnie Mouse), but they're stymied by the head Musketeer, Pete. Pete secretly wants to get rid of the queen, so he appoints Mickey and his bumbling friends as guardians to Minnie, thinking such a maneuver will ensure his scheme's success. The score features songs based on familiar classical melodies.", "poster_path": "/uDvv54as7hLH7aWHwPyIVvoNb9K.jpg", "popularity": 27.432}, {"id": 621733, "video": false, "vote_count": 0, "vote_average": 0.0, "title": "A Trip to the Seaside", "release_date": "2019-08-30", "original_language": "en", "original_title": "A Trip to the Seaside", "genre_ids": [99], "backdrop_path": null, "adult": false, "overview": "Experimental short film on the excitement and rush of a day trip", "poster_path": "/AuZVhpoJ4jm2LWDhoJKfxQfhDAi.jpg", "popularity": 1.324}, {"adult": false, "backdrop_path": "/3YGfpjW0OPcrDSarphlEr64WftB.jpg", "genre_ids": [16], "id": 66834, "original_language": "en", "original_title": "Clock Cleaners", "overview": "Mickey, Donald, and Goofy are cleaning a large clock. Among the complications: Mickey fights a sleeping stork that doesn't want to leave, Donald gets tangled up in the main-spring, and Goofy is inside the bell when the clock strikes four.", "poster_path": "/jKM9p9qkibFMraRodEUzEVMemmY.jpg", "release_date": "1937-10-15", "title": "Clock Cleaners", "video": false, "vote_average": 7.0, "vote_count": 41, "popularity": 5.127}, {"id": 650755, "video": false, "vote_count": 0, "vote_average": 0.0, "title": "Atordoado, Eu Permane\u00e7o Atento", "release_date": "2020-01-15", "original_language": "pt", "original_title": "Atordoado, Eu Permane\u00e7o Atento", "genre_ids": [99], "backdrop_path": null, "adult": false, "overview": "", "poster_path": "/exbM8qk6f6T44olJXcM8ix1sunL.jpg", "popularity": 5.092}, {"adult": false, "backdrop_path": "/qFLDF62VbWyyxkwco9lwZqkGoMB.jpg", "genre_ids": [16, 10751], "id": 10895, "original_language": "en", "original_title": "Pinocchio", "overview": "Lonely toymaker Geppetto has his wishes answered when the Blue Fairy arrives to bring his wooden puppet Pinocchio to life. Before becoming a real boy, however, Pinocchio must prove he's worthy as he sets off on an adventure with his whistling sidekick and conscience, Jiminy Cricket.", "poster_path": "/gN1dQBHi4557cFduIu9njOr6knW.jpg", "release_date": "1940-02-23", "title": "Pinocchio", "video": false, "vote_average": 7.0, "vote_count": 3431, "popularity": 25.831}, {"id": 856, "video": false, "vote_count": 3249, "vote_average": 7.4, "title": "Who Framed Roger Rabbit", "release_date": "1988-06-21", "original_language": "en", "original_title": "Who Framed Roger Rabbit", "genre_ids": [16, 35, 80, 14, 10751], "backdrop_path": "/9podqGmd36AJHO13HQIQHQZRTJC.jpg", "adult": false, "overview": "'Toon star Roger is worried that his wife Jessica is playing pattycake with someone else, so the studio hires detective Eddie Valiant to snoop on her. But the stakes are quickly raised when Marvin Acme is found dead and Roger is the prime suspect.", "poster_path": "/lYfRc57Kx9VgLZ48iulu0HKnM15.jpg", "popularity": 20.755}, {"id": 12092, "video": false, "vote_count": 3673, "vote_average": 7.1, "title": "Alice in Wonderland", "release_date": "1951-07-03", "original_language": "en", "original_title": "Alice in Wonderland", "genre_ids": [12, 16, 14, 10751], "backdrop_path": "/p6frW7qR3wUbssM25BS8BlzyoKc.jpg", "adult": false, "overview": "On a golden afternoon, young Alice follows a White Rabbit, who disappears down a nearby rabbit hole. Quickly following him, she tumbles into the burrow - and enters the merry, topsy-turvy world of Wonderland! Memorable songs and whimsical escapades highlight Alice's journey, which culminates in a madcap encounter with the Queen of Hearts - and her army of playing cards!", "poster_path": "/AdwfqyNiH8UqeYKFYoiKhwTtjAb.jpg", "popularity": 31.985}, {"id": 9016, "video": false, "vote_count": 2231, "vote_average": 7.4, "title": "Treasure Planet", "release_date": "2002-11-26", "original_language": "en", "original_title": "Treasure Planet", "genre_ids": [12, 16, 14, 878, 10751], "backdrop_path": "/3HVvtFm9NvOfn1u3yfeEugh2ZWj.jpg", "adult": false, "overview": "When space galleon cabin boy Jim Hawkins discovers a map to an intergalactic \"loot of a thousand worlds,\" a cyborg cook named John Silver teaches him to battle supernovas and space storms. But, soon, Jim realizes Silver is a pirate intent on mutiny!", "poster_path": "/gFfZVblQoExIVK4PVCJ9xZZJJKy.jpg", "popularity": 23.423}, {"adult": false, "backdrop_path": "/98Gi6TauCtoQAJOIoEsnBBVTLQC.jpg", "genre_ids": [16, 10751, 10749], "id": 10340, "original_language": "en", "original_title": "Lady and the Tramp", "overview": "Lady, a golden cocker spaniel, meets up with a mongrel dog who calls himself the Tramp. He is obviously from the wrong side of town, but happenings at Lady's home make her decide to travel with him for a while.", "poster_path": "/y9nf5YIKbwycDFU4fqdKkOV1Am8.jpg", "release_date": "1955-06-16", "title": "Lady and the Tramp", "video": false, "vote_average": 7.1, "vote_count": 3162, "popularity": 29.751}, {"adult": false, "backdrop_path": "/3nG6BBIxgqbIM5p1iO61RyKzUkZ.jpg", "genre_ids": [16, 10751, 14, 12, 35, 10749], "id": 11970, "original_language": "en", "original_title": "Hercules", "overview": "Bestowed with superhuman strength, a young mortal named Hercules sets out to prove himself a hero in the eyes of his father, the great god Zeus. Along with his friends Pegasus, a flying horse, and Phil, a personal trainer, Hercules is tricked by the hilarious, hotheaded villain Hades, who's plotting to take over Mount Olympus!", "poster_path": "/eFlBFMAifj436QctX3akDkUnhlk.jpg", "release_date": "1997-06-20", "title": "Hercules", "video": false, "vote_average": 7.5, "vote_count": 4318, "popularity": 23.839}, {"id": 62177, "video": false, "vote_count": 8933, "vote_average": 6.9, "title": "Brave", "release_date": "2012-06-21", "original_language": "en", "original_title": "Brave", "genre_ids": [28, 12, 16, 35, 14, 10751], "backdrop_path": "/sfRCA9g3CunpnZO3QurHSIRcsUq.jpg", "adult": false, "overview": "Brave is set in the mystical Scottish Highlands, where M\u00e9rida is the princess of a kingdom ruled by King Fergus and Queen Elinor. An unruly daughter and an accomplished archer, M\u00e9rida one day defies a sacred custom of the land and inadvertently brings turmoil to the kingdom. In an attempt to set things right, M\u00e9rida seeks out an eccentric old Wise Woman and is granted an ill-fated wish. Also figuring into M\u00e9rida\u2019s quest \u2014 and serving as comic relief \u2014 are the kingdom\u2019s three lords: the enormous Lord MacGuffin, the surly Lord Macintosh, and the disagreeable Lord Dingwall.", "poster_path": "/qhABv2d4NZLhsOOA4iBFM4rfuJC.jpg", "popularity": 40.077}, {"adult": false, "backdrop_path": "/4brEMzPazQE3hv3mogj6k1a29RP.jpg", "genre_ids": [10749, 14, 16], "id": 3933, "original_language": "en", "original_title": "Corpse Bride", "overview": "Set in a 19th-century european village, this stop-motion animation feature follows the story of Victor, a young man whisked away to the underworld and wed to a mysterious corpse bride, while his real bride Victoria waits bereft in the land of the living.", "poster_path": "/o9GbcdP7rOg2m1NyUnUR3ZwNcTE.jpg", "release_date": "2005-09-12", "title": "Corpse Bride", "video": false, "vote_average": 7.4, "vote_count": 4928, "popularity": 23.702}], "total_pages": 911, "total_results": 18212}, "recommendations": {"page": 1, "results": [{"adult": false, "backdrop_path": null, "genre_ids": [], "id": 145283, "original_language": "en", "original_title": "Children's Party", "overview": "Director Joseph Cornell evokes the nostalgia of childhood by filming a children's party.", "poster_path": "/gRgHrdtfJNo9kaMdnFhMbLP5VLv.jpg", "release_date": "1938-12-31", "title": "Children's Party", "video": false, "vote_average": 5.7, "vote_count": 10, "popularity": 2.136}, {"adult": false, "backdrop_path": null, "genre_ids": [18], "id": 130838, "original_language": "en", "original_title": "Valse Triste", "overview": "With a similar dreamy mood like its predecessor \"Take the 5:10 to Dreamland\" (1976) this clip starts with a boy getting into his bed. The camera zooms in into the boy's mind and a slow, sad waltz (i.e.\"Valse Triste\") accompanies images of a locomotive, a miner, the globe, the sky, a sheep heard, etc. Disparate elements, but if one concentrates only at the movement of the figures, one can perceive a commotion, slowly livening up: The starting wheels of the heavy locomotive, the tired miner pushing the heavy cart of coal bricks, the globe smoothly turning around and around, the clouds imperceptibly floating in the sky, the sheep idly moving in the herd, etc.  We reach the first climax when a mannequin opens her coat like a flower. The second big crescendo spurts out from a \"water hose\", after watching schoolgirls doing gymnastics for quite a while. A sad, but nostalgic aftertaste lingers in the end when funeral cars drive away through a flooded area\u2026", "poster_path": "/fsLJMk1dPfzr5qXd3IRSmZRxpX6.jpg", "release_date": "1977-06-01", "title": "Valse Triste", "video": false, "vote_average": 6.1, "vote_count": 9, "popularity": 2.37}, {"id": 143551, "video": false, "vote_count": 12, "vote_average": 4.4, "title": "15/67: TV", "release_date": "1967-06-20", "original_language": "de", "original_title": "15/67: TV", "genre_ids": [18], "backdrop_path": null, "adult": false, "overview": "Kren frames the image to suggest a proscenium, with a view to the harbor that conveys a literal sense of \u201ctele-vision\u201d. The static framing of the image and the clearly stratified mise-en-sc\u00e8ne can hardly provoke interpretation. The sight of the girls does so all the more. Kren, the gentle voyeur - who turns the viewer into a secret accomplice - observes three teenagers, and probably like them, awaits a rendezvous. (Thomas Trummer)", "poster_path": "/sgnfQYhjZLdhILvzghflOu65R7Z.jpg", "popularity": 1.109}, {"adult": false, "backdrop_path": null, "genre_ids": [16], "id": 147721, "original_language": "en", "original_title": "Olympiad", "overview": "Study in motion based on Muybridge\u2019s photographs of man running.", "poster_path": "/xAZqGKkKEGZLudirQueicKaU2MI.jpg", "release_date": "1971-12-31", "title": "Olympiad", "video": false, "vote_average": 5.3, "vote_count": 8, "popularity": 1.313}, {"adult": false, "backdrop_path": null, "genre_ids": [16], "id": 147795, "original_language": "en", "original_title": "A La Mode", "overview": "A short surreal animation created with fashion magazine clippings and sound collages.", "poster_path": "/qnA5O2hL2wzXNrWjBXPHEAgct5j.jpg", "release_date": "1959-01-01", "title": "A La Mode", "video": false, "vote_average": 5.3, "vote_count": 9, "popularity": 1.464}, {"adult": false, "backdrop_path": null, "genre_ids": [16], "id": 209754, "original_language": "en", "original_title": "70", "overview": "\"Made with spray paint and hand-cut stencils, this film was an attempt at maximum plastic intensity\u2026 Places Breer for the first time among the major colorists of the avant-garde.\" \u2013 P. Adams Sitney", "poster_path": "/9C6XPSkHFOdDp57t1t2GMbBXu49.jpg", "release_date": "1970-01-01", "title": "70", "video": false, "vote_average": 5.5, "vote_count": 10, "popularity": 2.4}, {"adult": false, "backdrop_path": null, "genre_ids": [], "id": 212101, "original_language": "en", "original_title": "The Midnight Party", "overview": "Part of The Children's Trilogy. Filmed in 1938, effects added by Larry Jordan ca. 1965-68.", "poster_path": "/sz2i6K6pNfVJy0D5Yz46PTWxaa.jpg", "release_date": "1938-12-31", "title": "The Midnight Party", "video": false, "vote_average": 5.3, "vote_count": 10, "popularity": 2.048}, {"adult": false, "backdrop_path": null, "genre_ids": [], "id": 209744, "original_language": "en", "original_title": "Recreation", "overview": "Featuring a commentary by No\u00ebl Burch (in nonsense French), Recreation's rapid-fire montage of single-frame images of incredible density and intensity has been compared to contemporary Beat poetry. \u2014Harvard Film Archive", "poster_path": "/shgUpNpDADROJpoP6M8bcpGfvkS.jpg", "release_date": "1956-01-01", "title": "Recreation", "video": false, "vote_average": 5.5, "vote_count": 11, "popularity": 1.515}, {"adult": false, "backdrop_path": null, "genre_ids": [99], "id": 127813, "original_language": "en", "original_title": "Case Study: LSD", "overview": "A young girl relates what happened during her first LSD trip, when \u2013 among other things \u2013 her food began talking to her.", "poster_path": "/AbeOlN6VMK4Jei69lOhXWEJN4nK.jpg", "release_date": "1969-12-31", "title": "Case Study: LSD", "video": false, "vote_average": 4.9, "vote_count": 8, "popularity": 2.386}, {"adult": false, "backdrop_path": null, "genre_ids": [], "id": 249354, "original_language": "en", "original_title": "High Kukus", "overview": "A short experimental film from James Broughton.", "poster_path": "/nYBpUlfGTuZMqLzBJXXlAmY4C2h.jpg", "release_date": "1973-12-31", "title": "High Kukus", "video": false, "vote_average": 5.4, "vote_count": 8, "popularity": 0.866}, {"adult": false, "backdrop_path": null, "genre_ids": [14, 16], "id": 174298, "original_language": "fr", "original_title": "La joie de vivre", "overview": "A blond and a raven-haired beauty move with verve and style through a changing landscape. The fabric of their dresses flows and floats, adding to their allure. One loses a shoe. A young man picks it up and pursues them on his bicycle.", "poster_path": "/xYQtbDNFdYNbNj6osS3zsVgYXUp.jpg", "release_date": "1934-03-05", "title": "The Joy of Life", "video": false, "vote_average": 5.7, "vote_count": 12, "popularity": 1.074}, {"adult": false, "backdrop_path": null, "genre_ids": [16], "id": 236576, "original_language": "en", "original_title": "Contrathemis", "overview": "This sequel to Themis similarly simulates the movement of abstract colours and shapes to form distinct visual patterns.", "poster_path": "/dwuJTBgpPfNVi3jKQ9cnJIELUOG.jpg", "release_date": "1941-11-14", "title": "Contrathemis", "video": false, "vote_average": 5.9, "vote_count": 8, "popularity": 1.4}, {"adult": false, "backdrop_path": null, "genre_ids": [99, 18], "id": 127811, "original_language": "en", "original_title": "Case Study: Heroin", "overview": "A man talks about heroin abuse and withdrawal.", "poster_path": "/u9qhOug6CEbPU1CdLH3qhhqY1DY.jpg", "release_date": "1969-12-31", "title": "Case Study: Heroin", "video": false, "vote_average": 4.4, "vote_count": 9, "popularity": 1.4}, {"adult": false, "backdrop_path": null, "genre_ids": [], "id": 147393, "original_language": "nl", "original_title": "Koekoekswals", "overview": "", "poster_path": "/3oHH5w7VOdJyyIAACi4DEz9DUHH.jpg", "release_date": "1955-12-31", "title": "The Cuckoo Waltz", "video": false, "vote_average": 5.1, "vote_count": 8, "popularity": 0.883}, {"adult": false, "backdrop_path": null, "genre_ids": [99], "id": 147601, "original_language": "en", "original_title": "London to Brighton in Four Minutes", "overview": "London to Brighton in 4 minutes BBC interlude. From the days when TV was all live and programming was hectic. Often when one program finished, the next one was not ready yet, and the gap had to be filled. So the BBC developed a number if interludes to fill these gaps, this being the most famous one.", "poster_path": "/s2eTu1yu9Gz6i02zv3g3JRulyH8.jpg", "release_date": "1952-12-31", "title": "London to Brighton in Four Minutes", "video": false, "vote_average": 6.4, "vote_count": 8, "popularity": 1.4}, {"adult": false, "backdrop_path": null, "genre_ids": [], "id": 128330, "original_language": "fr", "original_title": "Jeux des reflets et de la vitesse", "overview": "A high-speed travel through Paris on trains and on the Seine.", "poster_path": "/po7ri6rsDBC9J2JmbJJO6ufHZVv.jpg", "release_date": "1925-01-01", "title": "Jeux des reflets et de la vitesse", "video": false, "vote_average": 6.1, "vote_count": 8, "popularity": 1.451}, {"adult": false, "backdrop_path": null, "genre_ids": [], "id": 143554, "original_language": "de", "original_title": "31/75: Asyl", "overview": "A meadow, a lake, the silhouette of a hill, trees. 21 days of the same view in Saarland. 21 days with five different cut-outs in a mask before the camera, which finally reveals a complete panorama. The landscape changes with the advancing seasons and becomes slowly delirious in its technical alienation.", "poster_path": "/m8XvSjDfZSaysYwZPSBNSajnaEK.jpg", "release_date": "1975-01-01", "title": "31/75: Asylum", "video": false, "vote_average": 5.6, "vote_count": 11, "popularity": 1.04}, {"adult": false, "backdrop_path": null, "genre_ids": [], "id": 190085, "original_language": "de", "original_title": "Zweigroschenzauber", "overview": "Two Penny Magic (Zweigroschenzauber) starting off with a little magic trick. It then presents an array of images from swimmers, bicyclers, murderers, airplanes in flight, boxers, lovers, runners, becoming in the end a collection of images in a magazine.", "poster_path": "/rL5kwQRIeAi4s3jnQNxXslhzRxl.jpg", "release_date": "1929-10-11", "title": "Two Pence Magic", "video": false, "vote_average": 5.8, "vote_count": 13, "popularity": 1.381}, {"adult": false, "backdrop_path": null, "genre_ids": [], "id": 164127, "original_language": "en", "original_title": "Kodachrome Color Motion Picture Tests", "overview": "This two-color (green-blue and red) film was produced as a demonstration reel at the Paragon Studios in Fort Lee, New Jersey, under the direction of Kodak scientist John Capstaff. It features leading actresses, including Mae Murray, Hope Hampton, and Mary Eaton, posing and miming for the camera to showcase the capability of the complex Kodachrome process to capture their translucent movie star complexions and colorful, high-fashion clothing. (loc.gov)", "poster_path": "/vMxDxTDIiN6tdAxItbPaXPms4CQ.jpg", "release_date": "1922-01-01", "title": "Kodachrome Color Motion Picture Tests", "video": false, "vote_average": 6.4, "vote_count": 7, "popularity": 1.921}, {"adult": false, "backdrop_path": null, "genre_ids": [99, 36], "id": 147819, "original_language": "cs", "original_title": "Jan 69", "overview": "", "poster_path": null, "release_date": "1969-01-01", "title": "Jan 69", "video": false, "vote_average": 6.0, "vote_count": 7, "popularity": 1.093}], "total_pages": 2, "total_results": 40}, "credits": {"cast": [], "crew": [{"credit_id": "52fe4b769251416c75103939", "department": "Directing", "gender": 2, "id": 267634, "job": "Director", "name": "Lawrence Jordan", "profile_path": "/kPUKW15tPKo39qYOSt5oXSW91js.jpg"}]}}