{"adult": false, "backdrop_path": "/xG62pbmFq3EEyFHo9UKrRDDpc9m.jpg", "belongs_to_collection": null, "budget": 0, "genres": [{"id": 28, "name": "Action"}], "homepage": null, "id": 146530, "imdb_id": "tt0082298", "original_language": "zh", "original_title": "\u7368\u81c2\u62f3\u738b\u52c7\u6230\u695a\u9580\u4e5d\u5b50", "overview": "Watch WANG YU as a one-armed savior battling the local goons in this martial arts classic. He has some rather amazing moves up his sleeve.", "popularity": 1.564, "poster_path": "/95l8epXLDqL1cPv4hDy3heW2kKF.jpg", "production_companies": [], "production_countries": [{"iso_3166_1": "TW", "name": "Taiwan"}], "release_date": "1976-01-01", "revenue": 0, "runtime": 84, "spoken_languages": [{"iso_639_1": "zh", "name": "\u666e\u901a\u8bdd"}], "status": "Released", "tagline": "Watch WANG YU as a one-armed savior battling the local goons in this martial arts classic. He has some rather amazing moves up his sleeve.", "title": "One Armed Swordsman Against Nine Killers", "video": false, "vote_average": 4.0, "vote_count": 3, "keywords": {"keywords": [{"id": 779, "name": "martial arts"}, {"id": 780, "name": "kung fu"}, {"id": 9725, "name": "sword fight"}, {"id": 9748, "name": "revenge"}]}, "similar": {"page": 1, "results": [{"adult": false, "backdrop_path": "/a24i4Qw6qFTtkFLQsncv8WPwevj.jpg", "genre_ids": [53, 28, 80], "id": 345887, "original_language": "en", "original_title": "The Equalizer 2", "overview": "Robert McCall, who serves an unflinching justice for the exploited and oppressed, embarks on a relentless, globe-trotting quest for vengeance when a long-time girl friend is murdered.", "poster_path": "/cQvc9N6JiMVKqol3wcYrGshsIdZ.jpg", "release_date": "2018-07-19", "title": "The Equalizer 2", "video": false, "vote_average": 6.5, "vote_count": 2483, "popularity": 21.271}, {"adult": false, "backdrop_path": "/fy1C5tM9L39i7JF0iw6DIycOO1j.jpg", "genre_ids": [18, 28, 53], "id": 11713, "original_language": "zh", "original_title": "\u7cbe\u6b66\u9580", "overview": "Chen Zhen returns to the international compound of China only to learn of his beloved teacher's death. This is compounded by the continual racist harassment by the Japanese population in the area. Unlike his friends, he confronts it head on with his mastery of martial arts while investigating his teacher's murder.", "poster_path": "/ld1kAfLJTgpZVm3jwT58bTxmXl7.jpg", "release_date": "1972-03-22", "title": "Fist of Fury", "video": false, "vote_average": 7.4, "vote_count": 406, "popularity": 16.304}, {"id": 24, "video": false, "vote_count": 10676, "vote_average": 7.9, "title": "Kill Bill: Vol. 1", "release_date": "2003-10-10", "original_language": "en", "original_title": "Kill Bill: Vol. 1", "genre_ids": [28, 80], "backdrop_path": "/kkS8PKa8c134vXsj2fQkNqOaCXU.jpg", "adult": false, "overview": "An assassin is shot by her ruthless employer, Bill, and other members of their assassination circle \u2013 but she lives to plot her vengeance.", "poster_path": "/v7TaX8kXMXs5yFFGR41guUDNcnB.jpg", "popularity": 35.853}, {"adult": false, "backdrop_path": "/wNm3hNJuOk117wEwuESKO8eCEAk.jpg", "genre_ids": [28], "id": 9461, "original_language": "en", "original_title": "Enter the Dragon", "overview": "A martial artist agrees to spy on a reclusive crime lord using his invitation to a tournament there as cover.", "poster_path": "/6C006cxfwjWYkBW4fM3xCMyr7Yg.jpg", "release_date": "1973-08-17", "title": "Enter the Dragon", "video": false, "vote_average": 7.4, "vote_count": 911, "popularity": 21.422}, {"id": 11841, "video": false, "vote_count": 157, "vote_average": 7.6, "title": "The 36th Chamber of Shaolin", "release_date": "1978-02-02", "original_language": "cn", "original_title": "\u5c11\u6797\u4e09\u5341\u516d\u623f", "genre_ids": [28, 12], "backdrop_path": "/5YXoGdYF1pGv7NHypZWIVMvYl0O.jpg", "adult": false, "overview": "The anti-Ching patriots, under the guidance of Ho Kuang-han, have secretly set up their base in Canton, disguised as school masters. During a brutal Manchu attack, Lui manages to escape, and devotes himself to learning the martial arts in order to seek revenge.", "poster_path": "/hv29eb8g7iCDr0WgAcDdwZinuoY.jpg", "popularity": 13.558}, {"adult": false, "backdrop_path": null, "genre_ids": [28], "id": 300697, "original_language": "zh", "original_title": "\u6b66\u50e7", "overview": "A troop of monks from the Shaolin Temple embark on a mission to get the Golden Sutra to Tibet after the Shaolin Abbot is killed by their traitorous teacher. They are joined on their quest by a beautiful, female warrior \u2013 with aims to avenge her father's death. They traverse forests and mountains on their mission, all the while fighting off deadly ninja assassins, vicious gangsters and even the undead.", "poster_path": "/6H40Ic60Tyd47pSXeTdXrPXO9uE.jpg", "release_date": "1984-05-25", "title": "Guards of Shaolin", "video": false, "vote_average": 4.0, "vote_count": 1, "popularity": 1.862}, {"adult": false, "backdrop_path": "/s13r8sB2v0upTWZ9yeNtfPlfaPo.jpg", "genre_ids": [28, 80, 53], "id": 9056, "original_language": "cn", "original_title": "\u8b66\u5bdf\u6545\u4e8b", "overview": "A virtuous Hong Kong police officer must clear his name after he is framed for murder.", "poster_path": "/q8YfsyX59OmoSDirXT4CyThwN5f.jpg", "release_date": "1985-12-14", "title": "Police Story", "video": false, "vote_average": 7.4, "vote_count": 307, "popularity": 14.03}, {"adult": false, "backdrop_path": "/kiWvoV78Cc3fUwkOHKzyBgVdrDD.jpg", "genre_ids": [37, 18, 12], "id": 281957, "original_language": "en", "original_title": "The Revenant", "overview": "In the 1820s, a frontiersman, Hugh Glass, sets out on a path of vengeance against those who left him for dead after a bear mauling.", "poster_path": "/oXUWEc5i3wYyFnL1Ycu8ppxxPvs.jpg", "release_date": "2015-12-25", "title": "The Revenant", "video": false, "vote_average": 7.5, "vote_count": 12127, "popularity": 24.135}, {"id": 9470, "video": false, "vote_count": 1392, "vote_average": 7.3, "title": "Kung Fu Hustle", "release_date": "2004-02-10", "original_language": "cn", "original_title": "\u529f\u592b", "genre_ids": [28, 35, 80, 14], "backdrop_path": "/qpJWj6MI6VLRt9bGbJVZtmFvqWw.jpg", "adult": false, "overview": "Set in Canton, China in the 1940s, the story revolves in a town ruled by the Axe Gang, Sing who desperately wants to become a member. He stumbles into a slum ruled by eccentric landlords who turns out to be the greatest kung-fu masters in disguise. Sing's actions eventually cause the Axe Gang and the slumlords to engage in an explosive kung-fu battle. Only one side will win and only one hero will emerge as the greatest kung-fu master of all.", "poster_path": "/dZsfDrNLGWgsIUQL1vGhl8tbnqY.jpg", "popularity": 17.654}, {"adult": false, "backdrop_path": "/9DlrsXH9LOgPeuF6Hljmx8GQNlM.jpg", "genre_ids": [18, 28], "id": 7549, "original_language": "zh", "original_title": "\u970d\u5143\u7532", "overview": "Huo Yuan Jia became the most famous martial arts fighter in all of China at the turn of the 20th Century. Huo faced personal tragedy but ultimately fought his way out of darkness, defining the true spirit of martial arts and also inspiring his nation. The son of a great fighter who didn't wish for his child to follow in his footsteps, Huo resolves to teach himself how to fight - and win.", "poster_path": "/nPku02hVAFPsAd1pJr81OkdBidw.jpg", "release_date": "2006-01-26", "title": "Fearless", "video": false, "vote_average": 7.4, "vote_count": 648, "popularity": 12.897}, {"adult": false, "backdrop_path": "/ieJ5ImFoJILNULvnIpbulAln7Lr.jpg", "genre_ids": [12, 28, 53, 878], "id": 14869, "original_language": "en", "original_title": "G.I. Joe: The Rise of Cobra", "overview": "From the Egyptian desert to deep below the polar ice caps, the elite G.I. JOE team uses the latest in next-generation spy and military equipment to fight the corrupt arms dealer Destro and the growing threat of the mysterious Cobra organization to prevent them from plunging the world into chaos.", "poster_path": "/29eW5c5DaCFQejdt9V14RrA51yD.jpg", "release_date": "2009-08-04", "title": "G.I. Joe: The Rise of Cobra", "video": false, "vote_average": 5.7, "vote_count": 3082, "popularity": 22.639}, {"id": 260346, "video": false, "vote_count": 3704, "vote_average": 6.2, "title": "Taken 3", "release_date": "2014-12-16", "original_language": "en", "original_title": "Taken 3", "genre_ids": [28, 53], "backdrop_path": "/cU6R5EgOEmiIVKommjnU89hsvcD.jpg", "adult": false, "overview": "Ex-government operative Bryan Mills finds his life is shattered when he's falsely accused of a murder that hits close to home. As he's pursued by a savvy police inspector, Mills employs his particular set of skills to track the real killer and exact his unique brand of justice.", "poster_path": "/ikDwR3i2bczqnRf1urJTy77YTFf.jpg", "popularity": 34.357}, {"id": 140300, "video": false, "vote_count": 3210, "vote_average": 6.7, "title": "Kung Fu Panda 3", "release_date": "2016-01-23", "original_language": "en", "original_title": "Kung Fu Panda 3", "genre_ids": [28, 12, 16, 35, 10751], "backdrop_path": "/eHWmEUP4fa7h1Fe7TXfTL7ncDl8.jpg", "adult": false, "overview": "Continuing his \"legendary adventures of awesomeness\", Po must face two hugely epic, but different threats: one supernatural and the other a little closer to his home.", "poster_path": "/MZFPacfKzgisnPoJIPEFZUXBBT.jpg", "popularity": 30.681}, {"adult": false, "backdrop_path": "/rSf0RYkPiMo9TyjHs2vI8rHlmfF.jpg", "genre_ids": [28, 18, 53], "id": 241554, "original_language": "en", "original_title": "Run All Night", "overview": "Brooklyn mobster and prolific hit man Jimmy Conlon has seen better days. Longtime best friend of a mob boss, Jimmy is haunted by the sins of his past\u2014as well as a dogged police detective who\u2019s been one step behind Jimmy for 30 years. But when Jimmy\u2019s estranged son becomes a target, Jimmy must make a choice between the crime family he chose and the real family he abandoned long ago. Now, with nowhere safe to turn, Jimmy has just one night to figure out exactly where his loyalties lie and to see if he can finally make things right.", "poster_path": "/aqNJrAxudMRNo8jg3HOUQqdl2xr.jpg", "release_date": "2015-03-11", "title": "Run All Night", "video": false, "vote_average": 6.4, "vote_count": 1821, "popularity": 23.621}, {"id": 245891, "video": false, "vote_count": 11535, "vote_average": 7.2, "title": "John Wick", "release_date": "2014-10-22", "original_language": "en", "original_title": "John Wick", "genre_ids": [28, 53], "backdrop_path": "/iJlGxN0p1suzloBGvvBu3QSSlhT.jpg", "adult": false, "overview": "Ex-hitman John Wick comes out of retirement to track down the gangsters that took everything from him.", "poster_path": "/5vHssUeVe25bMrof1HyaPyWgaP.jpg", "popularity": 63.785}, {"id": 146, "video": false, "vote_count": 1771, "vote_average": 7.3, "title": "Crouching Tiger, Hidden Dragon", "release_date": "2000-07-06", "original_language": "zh", "original_title": "\u5367\u864e\u85cf\u9f99", "genre_ids": [28, 12, 18, 10749], "backdrop_path": "/dKenGLffFC9HwuxG4Sq7fJRkiFb.jpg", "adult": false, "overview": "Two warriors in pursuit of a stolen sword and a notorious fugitive are led to an impetuous, physically-skilled, teenage nobleman's daughter, who is at a crossroads in her life.", "poster_path": "/3yYPhffQRuy45HlNabFxNLyP9mg.jpg", "popularity": 20.102}, {"id": 956, "video": false, "vote_count": 3963, "vote_average": 6.6, "title": "Mission: Impossible III", "release_date": "2006-05-03", "original_language": "en", "original_title": "Mission: Impossible III", "genre_ids": [28, 12, 53], "backdrop_path": "/kOELgNnVt6EGCjtDXx85YUw6p8X.jpg", "adult": false, "overview": "Retired from active duty to train new IMF agents, Ethan Hunt is called back into action to confront sadistic arms dealer, Owen Davian. Hunt must try to protect his girlfriend while working with his new team to complete the mission.", "poster_path": "/qjy8ABAbWooV4jLG6UjzDHlv4RB.jpg", "popularity": 27.756}, {"id": 500664, "video": false, "vote_count": 1709, "vote_average": 7.3, "title": "Upgrade", "release_date": "2018-06-01", "original_language": "en", "original_title": "Upgrade", "genre_ids": [28, 27, 878, 53], "backdrop_path": "/qUAGip3XiaVN668WXF2iyukWgUu.jpg", "adult": false, "overview": "A brutal mugging leaves Grey Trace paralyzed in the hospital and his beloved wife dead. A billionaire inventor soon offers Trace a cure \u2014 an artificial intelligence implant called STEM that will enhance his body. Now able to walk, Grey finds that he also has superhuman strength and agility \u2014 skills he uses to seek revenge against the thugs who destroyed his life.", "poster_path": "/8fDtXi6gVw8WUMWGT9XFz7YwkuE.jpg", "popularity": 32.518}, {"id": 458594, "video": false, "vote_count": 983, "vote_average": 6.5, "title": "Peppermint", "release_date": "2018-09-06", "original_language": "en", "original_title": "Peppermint", "genre_ids": [28, 53], "backdrop_path": "/9krZX6T4EEs5eFpXgSi8jZkN48O.jpg", "adult": false, "overview": "A grieving mother transforms herself into a vigilante following the murders of her husband and daughter, eluding the authorities to deliver her own personal brand of justice.", "poster_path": "/jrzxS0vcbzIIay1sdYm0rgI2QfJ.jpg", "popularity": 18.265}, {"adult": false, "backdrop_path": "/3hYidDKVg4rsrkHQsbOKeqt6qkj.jpg", "genre_ids": [35, 28], "id": 19274, "original_language": "cn", "original_title": "\u7b11\u62f3\u602a\u62db", "overview": "Jackie Chan is a youngster, living in a remote vllage with his grandfather who teaches him Kong-Fu (naturally). He keeps getting into fights, even though his grandfather warns him not to show their Kong-Fu to others. Jackie, though, is tempted by some thugs he beat up to act as the master of a Kong-Fu school. This school's name apparently spreads far, as an old enemy of Jackie's grandfather (who t", "poster_path": "/ic5iTcB0HOfNCjQRV10SJ5oA4El.jpg", "release_date": "1979-02-17", "title": "Fearless Hyena", "video": false, "vote_average": 6.6, "vote_count": 59, "popularity": 12.832}], "total_pages": 348, "total_results": 6952}, "recommendations": {"page": 1, "results": [], "total_pages": 1, "total_results": 0}, "credits": {"cast": [{"cast_id": 6, "character": "Liu Ching Wu/Liu Yi Su", "credit_id": "54c48925c3a36878d0007665", "gender": 2, "id": 584527, "name": "Jimmy Wang Yu", "order": 0, "profile_path": "/xDxlxR4FuBOOejSPpOM279LyUZ8.jpg"}, {"cast_id": 9, "character": "Mung Sing Hung", "credit_id": "5b57062a0e0a2673ca033fad", "gender": 2, "id": 576082, "name": "Chung Wah", "order": 1, "profile_path": null}, {"cast_id": 10, "character": "Liu, one of the 9 killers", "credit_id": "5b5706360e0a2673cd03315e", "gender": 2, "id": 936716, "name": "Chen Hung-Lieh", "order": 2, "profile_path": "/vkvx5xUAIDIbKHtWxVyJJ0qT2aW.jpg"}, {"cast_id": 11, "character": "Shao Si Yu", "credit_id": "5b5706419251416dcf032081", "gender": 2, "id": 70673, "name": "Lo Lieh", "order": 3, "profile_path": "/cUZZlI9m1JnxmCvOWDtDu5hqO3p.jpg"}, {"cast_id": 12, "character": "Chow Yi To/Chu", "credit_id": "5b57065d0e0a2673dc034fc8", "gender": 2, "id": 1173739, "name": "Cho Kin", "order": 4, "profile_path": null}, {"cast_id": 13, "character": "Yen Hsi Su", "credit_id": "5b5706680e0a2673d60355d5", "gender": 2, "id": 937835, "name": "Lung Fei", "order": 5, "profile_path": "/6CybCzh9JJYGHKMU9d72N9ZI8g2.jpg"}, {"cast_id": 14, "character": "Chu Lu", "credit_id": "5b570675c3a3685c82035fa9", "gender": 0, "id": 1713096, "name": "Wan Shan", "order": 6, "profile_path": null}, {"cast_id": 15, "character": "Fortune teller", "credit_id": "5b5706810e0a2673d8034250", "gender": 0, "id": 1602743, "name": "Ko Chun-Pang", "order": 7, "profile_path": null}, {"cast_id": 16, "character": "Assassin", "credit_id": "5b57068e0e0a2673cd0331d4", "gender": 0, "id": 1581078, "name": "Hsieh Hsing", "order": 8, "profile_path": null}, {"cast_id": 17, "character": "Mo Fei To", "credit_id": "5b5706a7c3a3685c880396ce", "gender": 0, "id": 1174703, "name": "Wong Wing-Sang", "order": 9, "profile_path": null}, {"cast_id": 18, "character": "Wong Pa, the \"Turtle\"", "credit_id": "5b5706b3c3a3685c8503200a", "gender": 0, "id": 1171977, "name": "Hau Pak-Wai", "order": 10, "profile_path": null}, {"cast_id": 19, "character": "Tai Li Wa", "credit_id": "5b5706bf0e0a2673d2035dcc", "gender": 0, "id": 147971, "name": "Chin Lung", "order": 11, "profile_path": null}, {"cast_id": 20, "character": "Liu's servant", "credit_id": "5b5706ca0e0a2673d80342ab", "gender": 2, "id": 137916, "name": "Hsieh Han", "order": 12, "profile_path": null}], "crew": [{"credit_id": "5b5706f2c3a3685c97035877", "department": "Production", "gender": 2, "id": 584527, "job": "Producer", "name": "Jimmy Wang Yu", "profile_path": "/xDxlxR4FuBOOejSPpOM279LyUZ8.jpg"}, {"credit_id": "59af585ac3a3682cc805f7b9", "department": "Directing", "gender": 2, "id": 1095002, "job": "Director", "name": "Hsu Tseng-Hung", "profile_path": "/8YCxtfHHrkd0BQvkWPIsNJOx02V.jpg"}, {"credit_id": "5b5707129251416dcf03217b", "department": "Crew", "gender": 0, "id": 1166110, "job": "Martial Arts Choreographer", "name": "Wong Gwok-Chue", "profile_path": null}, {"credit_id": "5b5706fc9251416dcf032154", "department": "Production", "gender": 2, "id": 1829412, "job": "Producer", "name": "Kang Ta-Chuan", "profile_path": null}, {"credit_id": "5b5706dc9251416dcf032135", "department": "Directing", "gender": 0, "id": 2091310, "job": "Director", "name": "Lee Jeong-Ho", "profile_path": null}, {"credit_id": "5b5706e50e0a2673df03517d", "department": "Writing", "gender": 0, "id": 2091311, "job": "Writer", "name": "Yiu Hing-Hong", "profile_path": null}]}}