{"adult": false, "backdrop_path": "/7zbTZPVl4oCswhfJW9UsGORpYCU.jpg", "belongs_to_collection": null, "budget": 0, "genres": [{"id": 80, "name": "Crime"}], "homepage": null, "id": 146603, "imdb_id": "tt2190397", "original_language": "fr", "original_title": "Sharqiya", "overview": "Kamel, a young Bedouin, is a proud security guard at the Be\u2019er Sheba central bus station. When the Israeli government threatens to tear down his settlement he decides to act. Kamel comes up with a plan to stage a bomb attack, which he will then prevent from happening, making him the hero of the day, hopefully saving his settlement and earning him the respect he's so desperately yearning for.", "popularity": 0.666, "poster_path": "/ydl9qyO9I1PuSmrhyNozNJWK74c.jpg", "production_companies": [{"id": 27334, "logo_path": null, "name": "La\u00efla Films", "origin_country": ""}, {"id": 27335, "logo_path": null, "name": "Golden Cinema", "origin_country": ""}, {"id": 27336, "logo_path": null, "name": "EZ Films", "origin_country": "FR"}], "production_countries": [{"iso_3166_1": "DE", "name": "Germany"}, {"iso_3166_1": "FR", "name": "France"}, {"iso_3166_1": "IL", "name": "Israel"}], "release_date": "2012-02-11", "revenue": 0, "runtime": 82, "spoken_languages": [{"iso_639_1": "he", "name": "\u05e2\u05b4\u05d1\u05b0\u05e8\u05b4\u05d9\u05ea"}, {"iso_639_1": "ar", "name": "\u0627\u0644\u0639\u0631\u0628\u064a\u0629"}], "status": "Released", "tagline": "", "title": "Sharqiya", "video": false, "vote_average": 7.0, "vote_count": 1, "keywords": {"keywords": [{"id": 536, "name": "israel"}, {"id": 205710, "name": "bomb threat"}]}, "similar": {"page": 1, "results": [{"id": 10661, "video": false, "vote_count": 2186, "vote_average": 5.5, "title": "You Don't Mess with the Zohan", "release_date": "2008-06-05", "original_language": "en", "original_title": "You Don't Mess with the Zohan", "genre_ids": [28, 35], "backdrop_path": "/22rKazIueNUJDYl12dijP4X0jxl.jpg", "adult": false, "overview": "An Israeli counterterrorism soldier with a secretly fabulous ambition to become a Manhattan hairstylist. Zohan's desire runs so deep that he'll do anything -- including faking his own death and going head-to-head with an Arab cab driver -- to make his dreams come true.", "poster_path": "/3n9FYKLJVqwrZ7Wf96eoF2cAowU.jpg", "popularity": 21.321}, {"id": 433627, "video": false, "vote_count": 220, "vote_average": 5.8, "title": "7 Days in Entebbe", "release_date": "2018-03-15", "original_language": "en", "original_title": "7 Days in Entebbe", "genre_ids": [80, 18, 53], "backdrop_path": "/er6vh4AXzkRiXfLXSvn2eHXuxbp.jpg", "adult": false, "overview": "In 1976, four hijackers take over an Air France airplane en route from Tel Aviv to Paris and force it to land in Entebbe, Uganda. With 248 passengers on board, one of the most daring rescue missions ever is set in motion.", "poster_path": "/nrC63ikbK4jDp3knvBqxPoWYEMM.jpg", "popularity": 15.577}, {"id": 612, "video": false, "vote_count": 1395, "vote_average": 7.1, "title": "Munich", "release_date": "2005-12-23", "original_language": "en", "original_title": "Munich", "genre_ids": [28, 18, 36, 53], "backdrop_path": "/4P5yVNTA3RWXLgXWPAxCWRTJ4le.jpg", "adult": false, "overview": "During the 1972 Olympic Games in Munich, eleven Israeli athletes are taken hostage and murdered by a Palestinian terrorist group known as Black September. In retaliation, the Israeli government recruits a group of Mossad agents to track down and execute those responsible for the attack.", "poster_path": "/7vVNo6KNonhUYYcT40Zb6QnxmY5.jpg", "popularity": 23.303}, {"id": 67, "video": false, "vote_count": 125, "vote_average": 7.0, "title": "Paradise Now", "release_date": "2005-02-14", "original_language": "en", "original_title": "Paradise Now", "genre_ids": [80, 18, 53], "backdrop_path": "/lz1iJlKRBMtE6uHauUneX7THa0c.jpg", "adult": false, "overview": "From the perspective of two Palestinian men who are preparing to perform a suicide attack in Israel, this is the first film to deal with the subject of suicide bombers.", "poster_path": "/qWZkYa8VdcDZk8uzRB2PfhpM9IL.jpg", "popularity": 11.491}, {"id": 475132, "video": false, "vote_count": 207, "vote_average": 6.9, "title": "A Private War", "release_date": "2018-11-16", "original_language": "en", "original_title": "A Private War", "genre_ids": [18, 10752], "backdrop_path": "/a34Q2xknjRKhcG9ZMDa7FjkP05H.jpg", "adult": false, "overview": "One of the most celebrated war correspondents of our time, Marie Colvin is an utterly fearless and rebellious spirit, driven to the frontlines of conflicts across the globe to give voice to the voiceless.", "poster_path": "/pAh6uDR9bBznybiJCVYZNJmjg63.jpg", "popularity": 13.889}, {"id": 8885, "video": false, "vote_count": 542, "vote_average": 7.8, "title": "Waltz with Bashir", "release_date": "2008-06-25", "original_language": "he", "original_title": "Vals Im Bashir", "genre_ids": [16, 99, 18, 10752], "backdrop_path": "/mDhgW04UtPS1fXtBlKQYWDP0s9D.jpg", "adult": false, "overview": "Director and Israeli army veteran Ari Folman interviews friends and former soldiers about their memories of  the 1982 Lebanon war and especially the Sabra and Shatila massacre in Beirut. The usage on animation enabled Folman to illustrate their personal memories and dreams.", "poster_path": "/qPINEHB2j0PUKDqo8MNLcGEjoB7.jpg", "popularity": 7.526}, {"id": 12162, "video": false, "vote_count": 3373, "vote_average": 7.3, "title": "The Hurt Locker", "release_date": "2008-10-10", "original_language": "en", "original_title": "The Hurt Locker", "genre_ids": [18, 53, 10752], "backdrop_path": "/3iPnZOXR9mpcK8RwvAW7b7Axr8v.jpg", "adult": false, "overview": "Forced to play a dangerous game of cat-and-mouse in the chaos of war, an elite Army bomb squad unit must come together in a city where everyone is a potential enemy and every object could be a deadly bomb.", "poster_path": "/3ZEqU9Ykmn8zGDUwWnmTfHaaWRB.jpg", "popularity": 19.01}, {"id": 1535, "video": false, "vote_count": 1107, "vote_average": 6.9, "title": "Spy Game", "release_date": "2001-11-18", "original_language": "en", "original_title": "Spy Game", "genre_ids": [28, 80, 53], "backdrop_path": "/ncF0ozvDnIVFzKF0J5iqwEIezRJ.jpg", "adult": false, "overview": "On the day of his retirement, a veteran CIA agent learns that his former prot\u00e9g\u00e9 has been arrested in China, is sentenced to die the next morning in Beijing, and that the CIA is considering letting that happen to avoid an international scandal.", "poster_path": "/hsb8hBeU3tkTX8SUYW6YYw6JPYD.jpg", "popularity": 18.997}, {"id": 97630, "video": false, "vote_count": 2786, "vote_average": 6.9, "title": "Zero Dark Thirty", "release_date": "2012-12-19", "original_language": "en", "original_title": "Zero Dark Thirty", "genre_ids": [18, 36, 53], "backdrop_path": "/zy5hyStEkQyjZgYtvKzJQBr7MpJ.jpg", "adult": false, "overview": "A chronicle of the decade-long hunt for al-Qaeda terrorist leader Osama bin Laden after the September 2001 attacks, and his death at the hands of the Navy S.E.A.L. Team 6 in May, 2011.", "poster_path": "/yg6IDNucLAEj7E5loTyTnUW2pgb.jpg", "popularity": 18.903}, {"adult": false, "backdrop_path": "/sO6AnUEirDnaxjy8dxaqYEKDxGi.jpg", "genre_ids": [18, 36], "id": 6844, "original_language": "en", "original_title": "The Ten Commandments", "overview": "Escaping death, a Hebrew infant is raised in a royal household to become a prince. Upon discovery of his true heritage, Moses embarks on a personal quest to reclaim his destiny as the leader and liberator of the Hebrew people.", "poster_path": "/loLrO3SfhHkN3o3fTHdx1vf9ZYf.jpg", "release_date": "1956-10-05", "title": "The Ten Commandments", "video": false, "vote_average": 7.6, "vote_count": 659, "popularity": 17.954}, {"adult": false, "backdrop_path": "/2nLOJ8gtattGzYzwlYM8PrcgknH.jpg", "genre_ids": [28, 53, 18], "id": 399248, "original_language": "en", "original_title": "Beirut", "overview": "In 1980s Beirut, Mason Skiles is a former U.S. diplomat who is called back into service to save a colleague from the group that is possibly responsible for his own family's death. Meanwhile, a CIA field agent who is working under cover at the American embassy is tasked with keeping Mason alive and ensuring that the mission is a success.", "poster_path": "/s2qIeFsI9TskZr1LkSwljQDh5nl.jpg", "release_date": "2018-04-11", "title": "Beirut", "video": false, "vote_average": 6.2, "vote_count": 250, "popularity": 11.344}, {"id": 493551, "video": false, "vote_count": 361, "vote_average": 6.7, "title": "Operation Finale", "release_date": "2018-08-29", "original_language": "en", "original_title": "Operation Finale", "genre_ids": [18, 36, 53], "backdrop_path": "/7diKA3XyLUB9pV6oI9FznQ5lv66.jpg", "adult": false, "overview": "In 1960, a team of Israeli secret agents is deployed to find Adolf Eichmann, the infamous Nazi architect of the Holocaust, supposedly hidden in Argentina, and get him to Israel to be judged.", "poster_path": "/nlIdPeH5IrR1qRErschnVQeZAQu.jpg", "popularity": 11.459}, {"id": 465003, "video": false, "vote_count": 313, "vote_average": 6.8, "title": "The Red Sea Diving Resort", "release_date": "2019-07-28", "original_language": "en", "original_title": "The Red Sea Diving Resort", "genre_ids": [18, 36, 53], "backdrop_path": "/7XI3DfxdQwvgXTCx29fglvcirQP.jpg", "adult": false, "overview": "Sudan, East Africa, 1980. A team of Israeli Mossad agents plans to rescue and transfer thousands of Ethiopian Jews to Israel. To do so, and to avoid raising suspicions from the inquisitive and ruthless authorities, they establish as a cover a fake diving resort by the Red Sea.", "poster_path": "/bTgd1QQFTKdxESevtffAvIvCnz2.jpg", "popularity": 20.729}, {"id": 10582, "video": false, "vote_count": 29, "vote_average": 6.5, "title": "Hot Bubblegum", "release_date": "1981-04-07", "original_language": "he", "original_title": "Shifshuf Naim", "genre_ids": [35, 18, 10749], "backdrop_path": "/AckEMB7NwArD1XqDNdMz03kOuQU.jpg", "adult": false, "overview": "Momo and Yudale take turns mounting Bentzi's foreign buxom cousin, but Yudale and her get stuck together. Momo raises the bar even further by proving the rumors of an accepting older buxom piano tutor, Fritzi. Bentzi looks for love.", "poster_path": "/fVtA8FrcHeiY6leezkwjOgJ6iwQ.jpg", "popularity": 13.919}, {"adult": false, "backdrop_path": "/b7jIi5nqxYrJbUnr6OQrR2YPdZf.jpg", "genre_ids": [18, 53], "id": 48289, "original_language": "en", "original_title": "The Debt", "overview": "Rachel Singer is a former Mossad agent who tried to capture a notorious Nazi war criminal \u2013 the Surgeon of Birkenau \u2013 in a secret Israeli mission that ended with his death on the streets of East Berlin. Now, 30 years later, a man claiming to be the doctor has surfaced, and Rachel must return to Eastern Europe to uncover the truth. Overwhelmed by haunting memories of her younger self and her two fellow agents, the still-celebrated heroine must relive the trauma of those events and confront the debt she has incurred.", "poster_path": "/3yahVgm0VUdWynMdxKcSEKPmIuw.jpg", "release_date": "2011-06-15", "title": "The Debt", "video": false, "vote_average": 6.6, "vote_count": 452, "popularity": 9.821}, {"id": 369697, "video": false, "vote_count": 107, "vote_average": 5.4, "title": "Norman: The Moderate Rise and Tragic Fall of a New York Fixer", "release_date": "2017-04-14", "original_language": "en", "original_title": "Norman: The Moderate Rise and Tragic Fall of a New York Fixer", "genre_ids": [35, 18, 53], "backdrop_path": "/fholWbGw5EXFx6moe6hG9dAt358.jpg", "adult": false, "overview": "A financial schemer finds himself in the middle of an international scandal after he becomes a political adviser to the new Prime Minister of Israel.", "poster_path": "/b5dVqHefhqvvN2MrLaNGnGlW7Sg.jpg", "popularity": 8.351}, {"id": 1941, "video": false, "vote_count": 78, "vote_average": 6.7, "title": "Exodus", "release_date": "1960-03-27", "original_language": "en", "original_title": "Exodus", "genre_ids": [36, 10752], "backdrop_path": "/cqnlSqWCByWHwzBjl6Ju3jp8lyd.jpg", "adult": false, "overview": "The theme is the founding of the state of Israel. The action begins on a ship filled with Jewish immigrants bound for Israel who are being off loaded on Cyprus. An Intelligence officer succeeds in getting them back on board their ship only to have the harbor blocked by the British with whom they must negotiate. The second part deals with declaring independence and the resulting warring.", "poster_path": "/lwyu4Bz5TXBplnfeFPJW5aGjFiE.jpg", "popularity": 9.928}, {"id": 29912, "video": false, "vote_count": 102, "vote_average": 6.5, "title": "The Robe", "release_date": "1953-09-16", "original_language": "en", "original_title": "The Robe", "genre_ids": [18, 36], "backdrop_path": "/iWEyb5Hi2dz73wO1h6bJ14P1TSD.jpg", "adult": false, "overview": "Marcellus is a tribune in the time of Christ. He is in charge of the group that is assigned to crucify Jesus. Drunk, he wins Jesus' homespun robe after the crucifixion. He is tormented by nightmares and delusions after the event. Hoping to find a way to live with what he has done, and still not believing in Jesus, he returns to Palestine to try and learn what he can of the man he killed.", "poster_path": "/2ReRNpGpajVq6WwjyyqBPufNOPY.jpg", "popularity": 15.772}, {"id": 28308, "video": false, "vote_count": 90, "vote_average": 5.4, "title": "The Body", "release_date": "2001-04-13", "original_language": "en", "original_title": "The Body", "genre_ids": [18, 9648, 53, 10749], "backdrop_path": "/5MtSMomBvksr1QQmr90i4amOltj.jpg", "adult": false, "overview": "An ancient skeleton has been discovered in Jerusalem in a rich man's tomb. Colouration of the wrist and leg bones indicates the cause of death was crucifiction. other signs, include a gold coin bearing the marks of Pontius Pilate and faint markings around the skull, lead authorities to suspect that these could be the bones of Jesus Christ. Politicians, clerics, religious extremists and those using terror as a means to an end, find their beliefs and identities tested while risking their lives to unearth the truth.....", "poster_path": "/qH0bedauxJ1g6OVpOwpccB8lq1o.jpg", "popularity": 8.169}, {"id": 12545, "video": false, "vote_count": 307, "vote_average": 7.1, "title": "Jesus Christ Superstar", "release_date": "1973-08-15", "original_language": "en", "original_title": "Jesus Christ Superstar", "genre_ids": [18, 36, 10402], "backdrop_path": "/x5V8j9EIBKVCfoPzVO6ctosyhlN.jpg", "adult": false, "overview": "Oscar-nominated film adaptation of the rock opera of the same name, based on the last weeks before the crucifixion of Jesus. The film was directed by Norman Jewison. Ted Neeley and Carl Anderson were nominated for two 1974 Golden Globe Award for their portrayals of Jesus and Judas, respectively.", "poster_path": "/oEWvnlFOPMl6dN7isxUvWRRNQby.jpg", "popularity": 10.536}], "total_pages": 14, "total_results": 261}, "recommendations": {"page": 1, "results": [], "total_pages": 1, "total_results": 0}, "credits": {"cast": [{"cast_id": 2, "character": "Kamel Najer", "credit_id": "52fe4b889251416c751060b9", "gender": 0, "id": 1124452, "name": "Adnan Abu Wadi", "order": 0, "profile_path": null}, {"cast_id": 3, "character": "Nadia", "credit_id": "52fe4b889251416c751060bd", "gender": 0, "id": 1124453, "name": "Maysa Abed Alhadi", "order": 1, "profile_path": null}, {"cast_id": 4, "character": "Khaled", "credit_id": "52fe4b889251416c751060c1", "gender": 0, "id": 1124454, "name": "Adnan Abu Muhareb", "order": 2, "profile_path": null}], "crew": [{"credit_id": "52fe4b889251416c751060b5", "department": "Directing", "gender": 0, "id": 1124451, "job": "Director", "name": "Ami Livne", "profile_path": null}]}}