{"adult": false, "backdrop_path": "/gcVCwzTmutNfZUA5IDu6B3istaL.jpg", "belongs_to_collection": null, "budget": 0, "genres": [{"id": 16, "name": "Animation"}, {"id": 35, "name": "Comedy"}], "homepage": "", "id": 147848, "imdb_id": "tt0025665", "original_language": "en", "original_title": "Betty Boop in Poor Cinderella", "overview": "In her only color cartoon, Betty Boop goes to the ball thanks to the good fairy; later, only her foot fits the glass slipper.", "popularity": 1.674, "poster_path": "/c8lHqc5YtvfwluErxvuTty8oo5a.jpg", "production_companies": [{"id": 8302, "logo_path": null, "name": "Fleischer Studios", "origin_country": ""}], "production_countries": [{"iso_3166_1": "US", "name": "United States of America"}], "release_date": "1934-08-03", "revenue": 0, "runtime": 11, "spoken_languages": [{"iso_639_1": "en", "name": "English"}], "status": "Released", "tagline": "", "title": "Betty Boop in Poor Cinderella", "video": false, "vote_average": 6.2, "vote_count": 10, "keywords": {"keywords": [{"id": 3205, "name": "fairy tale"}]}, "similar": {"page": 1, "results": [{"adult": false, "backdrop_path": "/wQraxOsaq0NwTO9rSwLo4Nc8hVG.jpg", "genre_ids": [10751, 14, 16, 10749], "id": 11224, "original_language": "en", "original_title": "Cinderella", "overview": "Cinderella has faith her dreams of a better life will come true. With help from her loyal mice friends and a wave of her Fairy Godmother's wand, Cinderella's rags are magically turned into a glorious gown and off she goes to the Royal Ball. But when the clock strikes midnight, the spell is broken, leaving a single glass slipper... the only key to the ultimate fairy-tale ending!", "poster_path": "/avz6S9HYWs4O8Oe4PenBFNX4uDi.jpg", "release_date": "1950-03-04", "title": "Cinderella", "video": false, "vote_average": 7.0, "vote_count": 4104, "popularity": 34.424}, {"id": 224141, "video": false, "vote_count": 3144, "vote_average": 5.7, "title": "Into the Woods", "release_date": "2014-12-24", "original_language": "en", "original_title": "Into the Woods", "genre_ids": [35, 14], "backdrop_path": "/lzJzB0QfkjpGCm9qUC4XpEIB6pm.jpg", "adult": false, "overview": "In a woods filled with magic and fairy tale characters, a baker and his wife set out to end the curse put on them by their neighbor, a spiteful witch.", "poster_path": "/5h91odPFNlBuJbRBj5N4MEBfXDE.jpg", "popularity": 29.368}, {"id": 14128, "video": false, "vote_count": 809, "vote_average": 5.9, "title": "Cinderella II: Dreams Come True", "release_date": "2002-02-23", "original_language": "en", "original_title": "Cinderella II: Dreams Come True", "genre_ids": [16, 14, 10749, 10751], "backdrop_path": "/4ErXZZgpXPxDcCLnnLXysK03ss9.jpg", "adult": false, "overview": "As a newly crowned princess, Cinderella quickly learns that life at the Palace - and her royal responsibilities - are more challenging than she had imagined. In three heartwarming tales, Cinderella calls on her animal friends and her Fairy Godmother to help as she brings her own grace and charm to her regal role and discovers that being true to yourself is the best way to make your dreams come true.", "poster_path": "/36nD4aDvoFMewiHBnIcGo3vVcd6.jpg", "popularity": 18.996}, {"id": 10882, "video": false, "vote_count": 3219, "vote_average": 6.9, "title": "Sleeping Beauty", "release_date": "1959-01-28", "original_language": "en", "original_title": "Sleeping Beauty", "genre_ids": [16, 14, 10749, 10751], "backdrop_path": "/oHZIobyIG0YzWntyPCTSJDOk9qB.jpg", "adult": false, "overview": "A beautiful princess born in a faraway kingdom is destined by a terrible curse to prick her finger on the spindle of a spinning wheel and fall into a deep sleep that can only be awakened by true love's first kiss. Determined to protect her, her parents ask three fairies to raise her in hiding. But the evil Maleficent is just as determined to seal the princess's fate.", "poster_path": "/j4YBuAe8D1jDSiitpq69og9x3Yl.jpg", "popularity": 29.356}, {"id": 16119, "video": false, "vote_count": 684, "vote_average": 6.3, "title": "Cinderella III: A Twist in Time", "release_date": "2007-02-06", "original_language": "en", "original_title": "Cinderella III: A Twist in Time", "genre_ids": [16, 14, 10749, 10751], "backdrop_path": "/8IresDDceExrC67l7MxDOcITJTm.jpg", "adult": false, "overview": "When Lady Tremaine steals the Fairy Godmother's wand and changes history, it's up to Cinderella to restore the timeline and reclaim her prince.", "poster_path": "/98PHWv6TTpjxvs6EHKJVyrjuuus.jpg", "popularity": 15.995}, {"adult": false, "backdrop_path": "/eMwWyxQMQQrlossNpZV38UliO95.jpg", "genre_ids": [12, 16, 35, 10751, 14], "id": 5393, "original_language": "en", "original_title": "Happily N'Ever After", "overview": "An alliance of evil-doers, led by Frieda, looks to take over Fairy Tale Land. But when Ella realizes her stepmother is out to ruin her storybook existence, she takes a dramatic turn and blossoms into the leader of the resistance effort.", "poster_path": "/pk80r0negE6P0zlBiuaeIESttXX.jpg", "release_date": "2006-09-14", "title": "Happily N'Ever After", "video": false, "vote_average": 4.8, "vote_count": 262, "popularity": 12.331}, {"id": 14442, "video": false, "vote_count": 1101, "vote_average": 6.2, "title": "Ella Enchanted", "release_date": "2004-04-09", "original_language": "en", "original_title": "Ella Enchanted", "genre_ids": [35, 14, 10751], "backdrop_path": "/6LuSrsnMPhF2fNSKFKtEhVxm5Eb.jpg", "adult": false, "overview": "Ella lives in a magical world in which each child, at the moment of their birth, is given a virtuous \"gift\" from a fairy godmother. Ella's so-called gift, however, is obedience. This birthright proves itself to be quite the curse once Ella finds herself in the hands of several unscrupulous characters whom she quite literally cannot disobey. Determined to gain control of her life and decisions, Ella sets off on a journey to find her fairy godmother who she hopes will lift the curse. The path, however, isn't easy -- Ella must outwit a slew of unpleasant obstacles including ogres, giants, wicked stepsisters, elves and Prince Charmont's evil uncle, who wants to take over the crown and rule the kingdom.", "poster_path": "/5xURlqmsrbMZJiTQmu3TOEIfHFT.jpg", "popularity": 13.753}, {"adult": false, "backdrop_path": "/5x0VEeFCnWzRBwU23KycKQRqEhN.jpg", "genre_ids": [10402, 35], "id": 15157, "original_language": "en", "original_title": "Another Cinderella Story", "overview": "A guy who danced with what could be the girl of his dreams at a costume ball only has one hint at her identity: the Zune she left behind as she rushed home in order to make her curfew. And with a once-in-a-lifetime opportunity in front of him, he sets out to find his masked beauty.", "poster_path": "/fLdCKCfHT8A6bnWybBsQFjC4fCo.jpg", "release_date": "2008-09-16", "title": "Another Cinderella Story", "video": false, "vote_average": 6.6, "vote_count": 1120, "popularity": 16.339}, {"id": 407655, "video": false, "vote_count": 421, "vote_average": 6.8, "title": "A Cinderella Story: If the Shoe Fits", "release_date": "2016-08-02", "original_language": "en", "original_title": "A Cinderella Story: If the Shoe Fits", "genre_ids": [35, 14, 10402, 10751], "backdrop_path": "/svYzELCLW0NGVEuvNraA4W7Hmm9.jpg", "adult": false, "overview": "A contemporary musical version of the classic Cinderella story in which the servant step daughter hope to compete in a musical competition for a famous pop star.", "poster_path": "/prZSNnK5dkYcflsbdOsVVvqasZ5.jpg", "popularity": 19.825}, {"id": 354279, "video": false, "vote_count": 86, "vote_average": 6.3, "title": "Charming", "release_date": "2018-04-20", "original_language": "en", "original_title": "Charming", "genre_ids": [16, 35, 10402, 10751], "backdrop_path": "/rTefIDfreT1kcjuld8K1wgI3ifp.jpg", "adult": false, "overview": "Three fairy tale princesses find themselves engaged to the same guy, Prince Charming.", "poster_path": "/xizxQjNw7gbstkU9YIi2NaZIXW3.jpg", "popularity": 15.747}, {"id": 808, "video": false, "vote_count": 9704, "vote_average": 7.6, "title": "Shrek", "release_date": "2001-05-16", "original_language": "en", "original_title": "Shrek", "genre_ids": [12, 16, 35, 14, 10751], "backdrop_path": "/2l5UHZBcp9cx1PwKLdisJ0gV9jB.jpg", "adult": false, "overview": "It ain't easy bein' green -- especially if you're a likable (albeit smelly) ogre named Shrek. On a mission to retrieve a gorgeous princess from the clutches of a fire-breathing dragon, Shrek teams up with an unlikely compatriot -- a wisecracking donkey.", "poster_path": "/140ewbWv8qHStD3mlBDvvGd0Zvu.jpg", "popularity": 29.933}, {"id": 809, "video": false, "vote_count": 6985, "vote_average": 7.0, "title": "Shrek 2", "release_date": "2004-05-19", "original_language": "en", "original_title": "Shrek 2", "genre_ids": [12, 16, 35, 14, 10751], "backdrop_path": "/gdFAYLb5NR5HqcEKnPloOM6fX4B.jpg", "adult": false, "overview": "Shrek, Fiona and Donkey set off to Far, Far Away to meet Fiona's mother and father. But not everyone is happy. Shrek and the King find it hard to get along, and there's tension in the marriage. The fairy godmother discovers that Shrek has married Fiona instead of her Son Prince Charming and sets about destroying their marriage.", "poster_path": "/pSQvRqxwRa2IcDJHGY1d3TdKy2q.jpg", "popularity": 28.714}, {"id": 150689, "video": false, "vote_count": 4970, "vote_average": 6.7, "title": "Cinderella", "release_date": "2015-03-12", "original_language": "en", "original_title": "Cinderella", "genre_ids": [18, 14, 10749, 10751], "backdrop_path": "/gkuyOdCeuKLdOlwQIUF44SHsYCq.jpg", "adult": false, "overview": "When her father unexpectedly passes away, young Ella finds herself at the mercy of her cruel stepmother and her daughters. Never one to give up hope, Ella's fortunes begin to change after meeting a dashing stranger in the woods.", "poster_path": "/2i0JH5WqYFqki7WDhUW56Sg0obh.jpg", "popularity": 50.557}, {"adult": false, "backdrop_path": "/ikVhBmiTMYMybYnQO8S42txlizJ.jpg", "genre_ids": [18, 10749, 35], "id": 9454, "original_language": "en", "original_title": "EverAfter", "overview": "A unique 16th century woman, Danielle possesses a love of books, and can easily quote from Sir Thomas More\u2019s UTOPIA. An intriguing mix of tomboyish athleticism and physical beauty, she has more than enough charm to capture the heart of a prince ... after beaning him with an apple.", "poster_path": "/1ELrosU04wEbfmxK9wLBjdEECqm.jpg", "release_date": "1998-07-31", "title": "EverAfter", "video": false, "vote_average": 7.1, "vote_count": 788, "popularity": 12.399}, {"id": 1417, "video": false, "vote_count": 6621, "vote_average": 7.7, "title": "Pan's Labyrinth", "release_date": "2006-08-25", "original_language": "es", "original_title": "El laberinto del fauno", "genre_ids": [18, 14, 10752], "backdrop_path": "/4XP5kp70Pw01qpD6Gr0PQwy43Mr.jpg", "adult": false, "overview": "Living with her tyrannical stepfather in a new home with her pregnant mother, 10-year-old Ofelia feels alone until she explores a decaying labyrinth guarded by a mysterious faun who claims to know her destiny. If she wishes to return to her real father, Ofelia must complete three terrifying tasks.", "poster_path": "/t0TDsqbCTgSi0AL7k4baZrOYYhi.jpg", "popularity": 22.977}, {"id": 8703, "video": false, "vote_count": 178, "vote_average": 7.8, "title": "Three Wishes for Cinderella", "release_date": "1973-11-16", "original_language": "cs", "original_title": "T\u0159i o\u0159\u00ed\u0161ky pro Popelku", "genre_ids": [12, 18, 14, 10749, 10751], "backdrop_path": "/mB6K5DYMxIjVJAc6MM0zoG2pcBp.jpg", "adult": false, "overview": "The film stars Libuse Safrankova as the title character, a young woman who is put upon by her stepmother and stepsisters. The film employs a twist, though, when a handsome prince comes knocking. Cinderella does not simply fall into the prince's arms. In this version, he must actively pursue the young woman who is a skilled sharpshooter prone to wearing hunting outfits. Cinderella also has three wishes at her disposal, gained from three magic nuts.", "poster_path": "/rxsZrGh2sS2axwSN9T7SL1aznhH.jpg", "popularity": 13.19}, {"adult": false, "backdrop_path": "/yDmyqO3xHTVxtyM0CuqobSX3Hjr.jpg", "genre_ids": [16, 10751, 14], "id": 10144, "original_language": "en", "original_title": "The Little Mermaid", "overview": "This colorful adventure tells the story of an impetuous mermaid princess named Ariel who falls in love with the very human Prince Eric and puts everything on the line for the chance to be with him. Memorable songs and characters -- including the villainous sea witch Ursula.", "poster_path": "/6aXMusULuKFAK0ZRUlv7RJ9zHTc.jpg", "release_date": "1989-11-17", "title": "The Little Mermaid", "video": false, "vote_average": 7.3, "vote_count": 4669, "popularity": 25.992}, {"adult": false, "backdrop_path": "/3mhNnNmfCGrjyVEZhjWRVcjMOSi.jpg", "genre_ids": [14, 16, 10749, 10751], "id": 54113, "original_language": "en", "original_title": "The Swan Princess: Escape from Castle Mountain", "overview": "The first wedding anniversary of Princess Odette and Prince Derek is distracted by field fires set by Knuckles. His master Clavius, wants to conquer the world, and he needs to capture a giant orb to do that. Clavius kidnaps Queen Uberta and Odette with Derek have to save her.", "poster_path": "/oTEgvTpAIugS7OH6oIoVZkmV3C3.jpg", "release_date": "1997-01-01", "title": "The Swan Princess: Escape from Castle Mountain", "video": false, "vote_average": 6.0, "vote_count": 198, "popularity": 11.608}, {"adult": false, "backdrop_path": "/9l5Nzo1qbEslfCu2NYWimpZ1Vkc.jpg", "genre_ids": [35, 10751, 14, 10749], "id": 4523, "original_language": "en", "original_title": "Enchanted", "overview": "The beautiful princess Giselle is banished by an evil queen from her magical, musical animated land and finds herself in the gritty reality of the streets of modern-day Manhattan. Shocked by this strange new environment that doesn't operate on a \"happily ever after\" basis, Giselle is now adrift in a chaotic world badly in need of enchantment. But when Giselle begins to fall in love with a charmingly flawed divorce lawyer who has come to her aid - even though she is already promised to a perfect fairy tale prince back home - she has to wonder: Can a storybook view of romance survive in the real world?", "poster_path": "/65EfHNQ6NCeAoRPNLRhTyLqNZmU.jpg", "release_date": "2007-11-20", "title": "Enchanted", "video": false, "vote_average": 6.7, "vote_count": 3505, "popularity": 22.541}, {"id": 75258, "video": false, "vote_count": 642, "vote_average": 6.9, "title": "Secret of the Wings", "release_date": "2012-08-17", "original_language": "en", "original_title": "Secret of the Wings", "genre_ids": [12, 16, 14, 10751], "backdrop_path": "/wMpL6qA67gTupcwXV8w6VIJzLxa.jpg", "adult": false, "overview": "Tinkerbell wanders into the forbidden Winter woods and meets Periwinkle. Together they learn the secret of their wings and try to unite the warm fairies and the winter fairies to help Pixie Hollow.", "poster_path": "/4oBoAsIGEw9z4R5XqhtuVmpznGk.jpg", "popularity": 21.277}], "total_pages": 43, "total_results": 842}, "recommendations": {"page": 1, "results": [{"adult": false, "backdrop_path": null, "genre_ids": [], "id": 216025, "original_language": "en", "original_title": "A Coach for Cinderella", "overview": "The typical Cinderella storyline: wicked stepmother and stepsisters, and Cinderella can't go to the ball. We see elves and woodland creatures making a dress and a coach out of various woodland materials. A twist: the coach they make then goes though a \"modernizer\" and comes out as a 1946 Chevy.", "poster_path": "/nR9HgWuomttSdUrTpRe1jBsO4Da.jpg", "release_date": "1936-08-21", "title": "A Coach for Cinderella", "video": false, "vote_average": 5.3, "vote_count": 3, "popularity": 0.6}, {"adult": false, "backdrop_path": null, "genre_ids": [18], "id": 190651, "original_language": "en", "original_title": "The Little Match Seller", "overview": "A short melodrama based on Hans Christian Andersen's harrowing tale. A poor little girl tries to sell matchsticks in the freezing December cold. She lights matches for some light and warmth. There are visions: a fireplace, dinner, a Christmas tree. She sees her dead mother, welcoming her.", "poster_path": "/a9X0Z7HDsQtyLt0mrv7iAD4vlPC.jpg", "release_date": "1902-12-24", "title": "The Little Match Seller", "video": false, "vote_average": 6.4, "vote_count": 7, "popularity": 2.502}, {"adult": false, "backdrop_path": "/qXoqQ1jsRRBNsVaG6wdPy7kvyhN.jpg", "genre_ids": [], "id": 234375, "original_language": "en", "original_title": "The Brothers Carry-Mouse-Off", "overview": "Tom tries setting out things to lure Jerry into a trap, but Jerry, riding on Tom, picks them up as Tom puts them down. Tom chases Jerry upstairs, where he runs out a door to the outside. Tom puts on a lady mouse costume and plays the ukulele and is suddenly surrounded by dozens of amorous mice then hungry cats.", "poster_path": "/dFkt4Bw3PRtT1z1L2JOxrFJ000I.jpg", "release_date": "1965-11-08", "title": "The Brothers Carry-Mouse-Off", "video": false, "vote_average": 6.3, "vote_count": 6, "popularity": 1.824}, {"adult": false, "backdrop_path": null, "genre_ids": [16, 35, 10402, 10751], "id": 174509, "original_language": "en", "original_title": "Betty Boop's Rise to Fame", "overview": "A reporter interviews Max Fleischer about his creation, and Betty illustrates with excerpts from three prior cartoons.", "poster_path": "/gW5H3dCFZe0N9KPSiLwlxzWvP2W.jpg", "release_date": "1934-05-18", "title": "Betty Boop's Rise to Fame", "video": false, "vote_average": 6.0, "vote_count": 5, "popularity": 1.143}, {"adult": false, "backdrop_path": null, "genre_ids": [99], "id": 155107, "original_language": "en", "original_title": "Buffalo Dance", "overview": "Long before Hollywood started painting white men red and dressing them as 'Injuns' Edison's company was using the genuine article! Featuring for what is believed to be the Native Americans first appearance before a motion picture camera 'Buffalo Dance' features genuine members of the Sioux Tribe dressed in full war paint and costume! The dancers are believed to be veteran members of Buffalo Bill's Wild West Show. Filmed again at the Black Maria studios by both Dickson and Heise the 'Buffalo Dance' warriors were named as Hair Coat, Parts His Hair and Last Horse. Its quite strange seeing these movies at first they all stand around waiting to begin and as they start some of the dancers look at the camera in an almost sad way at having lost their way of life.", "poster_path": "/4YD0GzfmGq33KJhkRuDUefTrlVn.jpg", "release_date": "1894-09-23", "title": "Buffalo Dance", "video": false, "vote_average": 4.4, "vote_count": 16, "popularity": 1.191}, {"adult": false, "backdrop_path": null, "genre_ids": [99, 35], "id": 144139, "original_language": "en", "original_title": "What Happened on Twenty-Third Street, New York City", "overview": "A street level view from the sidewalk, looking along the length of 23rd Street. Following actuality footage of pedestrians and street traffic, the actors, a man in summer attire and a woman in an ankle-length dress, walk toward the camera.", "poster_path": "/siUPgmlqb8o4tdsFHrmc3R41ZCt.jpg", "release_date": "1901-07-31", "title": "What Happened on Twenty-Third Street, New York City", "video": false, "vote_average": 5.5, "vote_count": 24, "popularity": 2.116}, {"adult": false, "backdrop_path": null, "genre_ids": [35, 16], "id": 148558, "original_language": "en", "original_title": "Betty Boop's Museum", "overview": "Koko is recruiting customers for a 50 cent sightseeing tour of the museum. Betty is Koko's only passenger. Betty gets locked inside by accident. The skeletons from the displays come to life and chase Betty, until she is finally rescued by Bimbo.", "poster_path": "/bl1IiRykONPHk8lETIFBgIusW7I.jpg", "release_date": "1932-12-16", "title": "Betty Boop's Museum", "video": false, "vote_average": 6.0, "vote_count": 5, "popularity": 1.599}, {"adult": false, "backdrop_path": "/7fwlrpmQ2nCwGViirrKO8cbOxcx.jpg", "genre_ids": [16], "id": 40362, "original_language": "en", "original_title": "Kitty Foiled", "overview": "Tom subjects Jerry to his usual harassment; but the cat finds a new enemy, and the mouse finds a new friend, in the canary of the house.", "poster_path": "/wqbUUrLp33vzlnEtk5Wj0laAqKW.jpg", "release_date": "1948-02-04", "title": "Kitty Foiled", "video": false, "vote_average": 6.4, "vote_count": 12, "popularity": 2.946}, {"id": 234321, "video": false, "vote_count": 7, "vote_average": 5.4, "title": "Filet Meow", "release_date": "1966-06-30", "original_language": "en", "original_title": "Filet Meow", "genre_ids": [16], "backdrop_path": "/qAuQVi0uRI24P4aSdSBFNzyi6F9.jpg", "adult": false, "overview": "Perhaps because he's grown weary of chasing Jerry, Tom sets his sights on the house's goldfish. But the female goldfish is a friend of Jerry's, and the little mouse has a crush on her. When Jerry gets involved to rescue his friend, the usual confrontations with Tom begin.", "poster_path": "/p1JxCznkDGef1U4ZPlIjNPyrFNJ.jpg", "popularity": 2.699}, {"id": 234327, "video": false, "vote_count": 7, "vote_average": 6.0, "title": "Puss 'n' Boats", "release_date": "1966-05-05", "original_language": "en", "original_title": "Puss 'n' Boats", "genre_ids": [16], "backdrop_path": "/arfizeYSsNoRj0iuhCQGw397rFr.jpg", "adult": false, "overview": "Jerry's a wharf mouse; he sees a load of cheese being loaded onto a cargo ship and tries a variety of tricks to board, but Tom is on guard.", "poster_path": "/2q6H2nV1fAI2VGxXaziQkRbflaK.jpg", "popularity": 2.445}, {"adult": false, "backdrop_path": null, "genre_ids": [35, 16], "id": 156493, "original_language": "en", "original_title": "Betty Boop, M.D.", "overview": "Betty, Koko and Bimbo sell a weird concoction in their medicine show.", "poster_path": "/sdhY9ShdfEn8Wp7YjZeMlDMEPcz.jpg", "release_date": "1932-09-01", "title": "Betty Boop, M.D.", "video": false, "vote_average": 7.2, "vote_count": 6, "popularity": 1.216}, {"adult": false, "backdrop_path": null, "genre_ids": [], "id": 174505, "original_language": "en", "original_title": "Don Quixote", "overview": "A comically ridiculously altered version of the classic tale, in which Don Quixote is victorious over his imaginary enemies and emits Tarzan-like yells of triumph.", "poster_path": "/eE4OAv5mjlKXYHte7FV83FpKOvn.jpg", "release_date": "1934-11-15", "title": "Don Quixote", "video": false, "vote_average": 6.7, "vote_count": 3, "popularity": 0.6}, {"adult": false, "backdrop_path": "/aCbjlr0KBSpAw1klNprhgGO5vgv.jpg", "genre_ids": [16], "id": 100750, "original_language": "en", "original_title": "The Home Front", "overview": "A homesick Pvt. Snafu learns that his family are almost as commited to the war efforts as himself.", "poster_path": null, "release_date": "1943-11-01", "title": "The Home Front", "video": false, "vote_average": 6.2, "vote_count": 6, "popularity": 2.011}, {"adult": false, "backdrop_path": null, "genre_ids": [], "id": 48712, "original_language": "en", "original_title": "78 Tours", "overview": "A waltz played with an accordion starts a short story about the running time.", "poster_path": "/jY4uW1mF9BlwEnfgeCfT8Z9fDkc.jpg", "release_date": "1985-01-01", "title": "78 Tours", "video": false, "vote_average": 6.5, "vote_count": 14, "popularity": 1.464}, {"adult": false, "backdrop_path": null, "genre_ids": [35, 14], "id": 144424, "original_language": "fr", "original_title": "Les Kiriki, acrobates japonais", "overview": "A family troupe of acrobats, made up to appear Japanese, perform various unbelievable stunts in front of the camera, achieved through a trick of the camera.", "poster_path": "/yMVmwPwmnNMsFdso06lQv9H0UdA.jpg", "release_date": "1907-12-27", "title": "Kiri-Kis", "video": false, "vote_average": 7.2, "vote_count": 15, "popularity": 1.211}, {"adult": false, "backdrop_path": "/b8YKEafBBAG04cWo6FDt7w32mcO.jpg", "genre_ids": [], "id": 219564, "original_language": "en", "original_title": "Guided Mouse-Ille", "overview": "2565 AD. Tom and Jerry are once again manipulating robot versions of themselves in space. Tom experiments with invisibility, a giant electromagnet, and explosives, with results from bad to disastrous.", "poster_path": "/nfzu4F5iz7yE384LbpRdSBsG1Ud.jpg", "release_date": "1967-03-10", "title": "Guided Mouse-Ille", "video": false, "vote_average": 6.6, "vote_count": 7, "popularity": 2.762}, {"adult": false, "backdrop_path": "/xEu9AT2TWxmrBTb1WvSvOPaX4wU.jpg", "genre_ids": [16], "id": 234396, "original_language": "en", "original_title": "Jerry-Go-Round", "overview": "Jerry is chased into a circus, where he removes a tack from the foot of an elephant. This gets him a friend for life, and a powerful ally in the continuing battles with Tom, not that it stops Tom from trying, even when Jerry becomes part of the act.", "poster_path": "/h12IzZbfR71qLQkj27GfbpWUipH.jpg", "release_date": "1966-03-03", "title": "Jerry-Go-Round", "video": false, "vote_average": 6.6, "vote_count": 7, "popularity": 2.216}, {"adult": false, "backdrop_path": null, "genre_ids": [16, 35], "id": 202281, "original_language": "en", "original_title": "I'm in the Army Now", "overview": "Olive tells Popeye and Bluto that she loves a man in a uniform, so they try to sign up at the recruiting station - that can only take one of them.", "poster_path": "/b7EzINEYBBINO7iI3PRwRRY1Cho.jpg", "release_date": "1936-12-25", "title": "I'm in the Army Now", "video": false, "vote_average": 5.5, "vote_count": 4, "popularity": 0.84}, {"adult": false, "backdrop_path": null, "genre_ids": [35, 16], "id": 137856, "original_language": "en", "original_title": "Daffy Duck and the Dinosaur", "overview": "Casper Caveman is hungry, so he tries to hunt for a duck, Daffy Duck.", "poster_path": "/dD3vaGJs75euMuJMMqWoWY3yV9V.jpg", "release_date": "1939-04-22", "title": "Daffy Duck and the Dinosaur", "video": false, "vote_average": 6.4, "vote_count": 14, "popularity": 2.631}, {"adult": false, "backdrop_path": null, "genre_ids": [16], "id": 188382, "original_language": "en", "original_title": "Robin Hood Makes Good", "overview": "A fox captures a group of squirrels while they're playing at \"Robin Hood.\" The smallest of the bunch, who'd been bullied into playing the villain and thus avoided capture, uses his ingenuity to rescue his friends.", "poster_path": "/3omtxiDxDBT84kn4WgHpRpiK6G3.jpg", "release_date": "1939-02-10", "title": "Robin Hood Makes Good", "video": false, "vote_average": 6.0, "vote_count": 6, "popularity": 1.365}], "total_pages": 2, "total_results": 25}, "credits": {"cast": [{"cast_id": 2, "character": "Betty Boop (voice)", "credit_id": "56fa0fd89251414df4001520", "gender": 1, "id": 58530, "name": "Mae Questel", "order": 1, "profile_path": "/8iYG7ydbgrLViJGWrVlV36QCoCK.jpg"}, {"cast_id": 4, "character": "Fairy Godmother / Ugly Stepsisters (voice)", "credit_id": "56fa10039251414ddf0014c4", "gender": 1, "id": 1123199, "name": "Bonnie Poe", "order": 3, "profile_path": null}, {"cast_id": 5, "character": "Various (voice)", "credit_id": "56fa1091c3a368193b001648", "gender": 2, "id": 1004823, "name": "Jack Mercer", "order": 4, "profile_path": "/9CcSlpFjah1PpIT5GwbBBFeYwtC.jpg"}], "crew": [{"credit_id": "52fe4bb69251416c7510ba53", "department": "Directing", "gender": 2, "id": 143463, "job": "Director", "name": "Dave Fleischer", "profile_path": "/343V4i0ekU4crsfk88YtPqFQld7.jpg"}]}}