{"adult": false, "backdrop_path": null, "belongs_to_collection": null, "budget": 0, "genres": [{"id": 35, "name": "Comedy"}, {"id": 18, "name": "Drama"}], "homepage": null, "id": 148115, "imdb_id": "tt0207141", "original_language": "en", "original_title": "Take My Advice:  The Ann and Abby Story", "overview": "Biography of feuding advice columnist twins, Ann Landers and Abby Van Buren, starts with their early lives in Sioux City, Iowa when they were known as Esther and Pauline through their double wedding and follows them into their columnist successes. However, much of the film also concentrates on their personal and professional feuds that ran the course of their lives. Written by John Sacksteder", "popularity": 0.6, "poster_path": "/elcxu9dIQD4wgPThQuKLy0ER9Mv.jpg", "production_companies": [{"id": 7483, "logo_path": null, "name": "Hearst Entertainment Productions", "origin_country": ""}, {"id": 7482, "logo_path": null, "name": "Freyda Rothstein Productions", "origin_country": ""}], "production_countries": [{"iso_3166_1": "US", "name": "United States of America"}], "release_date": "1999-07-19", "revenue": 0, "runtime": 90, "spoken_languages": [{"iso_639_1": "en", "name": "English"}], "status": "Released", "tagline": "", "title": "Take My Advice:  The Ann and Abby Story", "video": false, "vote_average": 6.0, "vote_count": 1, "keywords": {"keywords": [{"id": 380, "name": "sibling relationship"}, {"id": 15016, "name": "twins"}, {"id": 163129, "name": "dual role"}, {"id": 209064, "name": "columnist"}, {"id": 233900, "name": "star turn"}]}, "similar": {"page": 1, "results": [{"adult": false, "backdrop_path": "/hD8DQM72Xacg1d3mFqS0eN8vKYw.jpg", "genre_ids": [18], "id": 8272, "original_language": "en", "original_title": "The Savages", "overview": "A sister and brother face the realities of familial responsibility as they begin to care for their ailing father.", "poster_path": "/nY54gSmTOmSXlQpWDB7DWp4u8a7.jpg", "release_date": "2007-01-19", "title": "The Savages", "video": false, "vote_average": 6.9, "vote_count": 192, "popularity": 9.466}, {"adult": false, "backdrop_path": "/bb280OO3Omgn8q5iM5xTbI06dUo.jpg", "genre_ids": [18], "id": 1254, "original_language": "fr", "original_title": "Je vais bien, ne t'en fais pas", "overview": "A 19-year-old searches for her twin brother after he runs away from home, following a fight with their father.", "poster_path": "/yD6skMZZq0Rgn2NhI9dk4B2Dipu.jpg", "release_date": "2006-09-06", "title": "Don't Worry, I'm Fine", "video": false, "vote_average": 7.3, "vote_count": 367, "popularity": 7.676}, {"id": 10054, "video": false, "vote_count": 2071, "vote_average": 5.7, "title": "Spy Kids", "release_date": "2001-03-18", "original_language": "en", "original_title": "Spy Kids", "genre_ids": [28, 12, 35, 10751], "backdrop_path": "/8eqrTjeswE5yWsAHu3qPRQYJxCO.jpg", "adult": false, "overview": "Carmen and Juni think their parents are boring. Little do they know that in their day, Gregorio and Ingrid Cortez were the top secret agents from their respective countries. They gave up that life to raise their children. Now, the disappearances of several of their old colleagues forces the Cortez' return from retirement. What they didn't count on was Carmen and Juni joining the \"family business.\"", "poster_path": "/10zMofjfvnKahF8wqZ4nNzVeNps.jpg", "popularity": 15.249}, {"adult": false, "backdrop_path": "/ppDnBvf0f7vCZHRLtDjazpYHdTF.jpg", "genre_ids": [35, 10402, 10749], "id": 13368, "original_language": "en", "original_title": "White Christmas", "overview": "Two talented song-and-dance men team up after the war to become one of the hottest acts in show business. In time they befriend and become romantically involved with the beautiful Haynes sisters who comprise a sister act.", "poster_path": "/A5kBQsHKbIptxJyELEpHQJROCRj.jpg", "release_date": "1954-10-14", "title": "White Christmas", "video": false, "vote_average": 7.4, "vote_count": 250, "popularity": 10.494}, {"id": 4552, "video": false, "vote_count": 497, "vote_average": 7.1, "title": "A Tale of Two Sisters", "release_date": "2003-06-13", "original_language": "ko", "original_title": "\uc7a5\ud654, \ud64d\ub828", "genre_ids": [18, 27, 9648], "backdrop_path": "/6iTvLcCrokveCoVynUobXm8n3uw.jpg", "adult": false, "overview": "A recently released patient from a mental institution returns home with her sister, only to face disturbing events between her stepmother and the ghosts haunting their house- all of which are connected to a dark past in the family's history.", "poster_path": "/8fmnXoIw3e3J7YSr8bzcPica4Dk.jpg", "popularity": 21.081}, {"id": 527435, "video": false, "vote_count": 960, "vote_average": 7.1, "title": "The Christmas Chronicles", "release_date": "2018-11-22", "original_language": "en", "original_title": "The Christmas Chronicles", "genre_ids": [12, 35, 14, 10751], "backdrop_path": "/brENMyyhk13WLzKHBK20rBKx0u7.jpg", "adult": false, "overview": "Siblings Kate and Teddy try to prove Santa Claus is real, but when they accidentally cause his sleigh to crash, they have to save Christmas.", "poster_path": "/5Il2EMSF2KecrUKZPuen6BZmaCP.jpg", "popularity": 12.455}, {"id": 73, "video": false, "vote_count": 6718, "vote_average": 8.4, "title": "American History X", "release_date": "1998-10-30", "original_language": "en", "original_title": "American History X", "genre_ids": [18], "backdrop_path": "/i9A0UMFg1hI2kLyCCwnmSbpT2cd.jpg", "adult": false, "overview": "Derek Vineyard is paroled after serving 3 years in prison for killing two thugs who tried to break into/steal his truck. Through his brother, Danny Vineyard's narration, we learn that before going to prison, Derek was a skinhead and the leader of a violent white supremacist gang that committed acts of racial crime throughout L.A. and his actions greatly influenced Danny. Reformed and fresh out of prison, Derek severs contact with the gang and becomes determined to keep Danny from going down the same violent path as he did.", "poster_path": "/fXepRAYOx1qC3wju7XdDGx60775.jpg", "popularity": 25.921}, {"id": 433, "video": false, "vote_count": 2994, "vote_average": 7.6, "title": "Mary Poppins", "release_date": "1964-08-27", "original_language": "en", "original_title": "Mary Poppins", "genre_ids": [35, 14, 10751], "backdrop_path": "/7DbgR36Sct5gcyEAzoM8bqiTYUV.jpg", "adult": false, "overview": "A magical nanny employs music and adventure to help two neglected children become closer to their father.", "poster_path": "/ei8hhYCMfURfPOXKBnyl61be2iV.jpg", "popularity": 20.325}, {"adult": false, "backdrop_path": "/rV9hascFIkEKKtiKONPTHSzyCgi.jpg", "genre_ids": [18], "id": 7345, "original_language": "en", "original_title": "There Will Be Blood", "overview": "Ruthless silver miner, turned oil prospector, Daniel Plainview moves to oil-rich California. Using his adopted son to project a trustworthy, family-man image, Plainview cons local landowners into selling him their valuable properties for a pittance. However, local preacher Eli Sunday suspects Plainviews motives and intentions, starting a slow-burning feud that threatens both their lives.", "poster_path": "/bFgqkuAFBHNuq0oTtewHwuLVWSO.jpg", "release_date": "2007-12-28", "title": "There Will Be Blood", "video": false, "vote_average": 8.1, "vote_count": 3322, "popularity": 16.723}, {"adult": false, "backdrop_path": "/51fjuzYoJKvGW43j32nBpWW6Tm1.jpg", "genre_ids": [28, 80, 18, 53], "id": 111, "original_language": "en", "original_title": "Scarface", "overview": "After getting a green card in exchange for assassinating a Cuban government official, Tony Montana stakes a claim on the drug trade in Miami. Viciously murdering anyone who stands in his way, Tony eventually becomes the biggest drug lord in the state, controlling nearly all the cocaine that comes through Miami. But increased pressure from the police, wars with Colombian drug cartels and his own drug-fueled paranoia serve to fuel the flames of his eventual downfall.", "poster_path": "/zr2p353wrd6j3wjLgDT4TcaestB.jpg", "release_date": "1983-12-08", "title": "Scarface", "video": false, "vote_average": 8.1, "vote_count": 6147, "popularity": 29.172}, {"id": 425, "video": false, "vote_count": 8280, "vote_average": 7.3, "title": "Ice Age", "release_date": "2002-03-10", "original_language": "en", "original_title": "Ice Age", "genre_ids": [12, 16, 35, 10751], "backdrop_path": "/oDqbewoFuIEWA7UWurole6MzDGn.jpg", "adult": false, "overview": "With the impending ice age almost upon them, a mismatched trio of prehistoric critters \u2013 Manny the woolly mammoth, Diego the saber-toothed tiger and Sid the giant sloth \u2013 find an orphaned infant and decide to return it to its human parents. Along the way, the unlikely allies become friends but, when enemies attack, their quest takes on far nobler aims.", "poster_path": "/zpaQwR0YViPd83bx1e559QyZ35i.jpg", "popularity": 32.8}, {"id": 8204, "video": false, "vote_count": 1537, "vote_average": 6.5, "title": "The Spiderwick Chronicles", "release_date": "2008-02-14", "original_language": "en", "original_title": "The Spiderwick Chronicles", "genre_ids": [12, 18, 14, 10751], "backdrop_path": "/2Uwv3eUDRJ9UcjN8AlSg4GDm6TN.jpg", "adult": false, "overview": "Upon moving into the run-down Spiderwick Estate with their mother, twin brothers Jared and Simon Grace, along with their sister Mallory, find themselves pulled into an alternate world full of faeries and other creatures.", "poster_path": "/nSLjsBDzwsIpQL534CNfAKidyAm.jpg", "popularity": 13.069}, {"adult": false, "backdrop_path": "/ojn7IYKmMt8HXRd6oLwY5pLGLVc.jpg", "genre_ids": [18, 10749], "id": 9587, "original_language": "en", "original_title": "Little Women", "overview": "With their father away as a chaplain in the Civil War, Jo, Meg, Beth and Amy grow up with their mother in somewhat reduced circumstances. They are a close family who inevitably have their squabbles and tragedies. But the bond holds even when, later, male friends start to become a part of the household.", "poster_path": "/tD9YDE8pjtSvvKUpkmooE6YDSm8.jpg", "release_date": "1994-12-21", "title": "Little Women", "video": false, "vote_average": 7.2, "vote_count": 574, "popularity": 18.707}, {"id": 334, "video": false, "vote_count": 1849, "vote_average": 7.7, "title": "Magnolia", "release_date": "1999-12-10", "original_language": "en", "original_title": "Magnolia", "genre_ids": [18], "backdrop_path": "/9In3XGQSdr2yfgUoEdCpqxEGAOO.jpg", "adult": false, "overview": "An epic mosaic of many interrelated characters in search of happiness, forgiveness, and meaning in the San Fernando Valley.", "poster_path": "/jxkHxPiMfGiFvxSOduNV4oIKJI5.jpg", "popularity": 17.203}, {"adult": false, "backdrop_path": "/2lZYvShWuVThLM6Oo8zfakdBMqw.jpg", "genre_ids": [18, 10749], "id": 1365, "original_language": "en", "original_title": "Monster's Ball", "overview": "Set in the southern USA, a racist white man, Hank, falls in love with a black woman named Leticia. Ironically, Hank is a prison guard working on Death Row who executed Leticia's husband. Hank and Leticia's inter-racial affair leads to confusion and new ideas for the two unlikely lovers.", "poster_path": "/s7o0AyOFIYNjTe008pV6EZMI2IP.jpg", "release_date": "2001-11-11", "title": "Monster's Ball", "video": false, "vote_average": 6.7, "vote_count": 500, "popularity": 13.305}, {"id": 277216, "video": false, "vote_count": 2190, "vote_average": 7.7, "title": "Straight Outta Compton", "release_date": "2015-08-13", "original_language": "en", "original_title": "Straight Outta Compton", "genre_ids": [18, 10402], "backdrop_path": "/fdDTA06o5e7MRXnTGAf4EygL2MJ.jpg", "adult": false, "overview": "In 1987, five young men, using brutally honest rhymes and hardcore beats, put their frustration and anger about life in the most dangerous place in America into the most powerful weapon they had: their music.  Taking us back to where it all began, Straight Outta Compton tells the true story of how these cultural rebels\u2014armed only with their lyrics, swagger, bravado and raw talent\u2014stood up to the authorities that meant to keep them down and formed the world\u2019s most dangerous group, N.W.A.  And as they spoke the truth that no one had before and exposed life in the hood, their voice ignited a social revolution that is still reverberating today.", "poster_path": "/X7S1RtotXOZNV7OlgCfh5VKZSB.jpg", "popularity": 19.816}, {"id": 4347, "video": false, "vote_count": 2233, "vote_average": 7.6, "title": "Atonement", "release_date": "2007-08-29", "original_language": "en", "original_title": "Atonement", "genre_ids": [18, 10749], "backdrop_path": "/6WZFwJOKyitCqWkIj52HB34wddU.jpg", "adult": false, "overview": "As a 13-year-old, fledgling writer Briony Tallis irrevocably changes the course of several lives when she accuses her older sister's lover of a crime he did not commit.", "poster_path": "/quaWuwYZd8IbZMCOhW3CZEvyCWJ.jpg", "popularity": 16.832}, {"adult": false, "backdrop_path": "/tBs9alJ2weUkOW83RkuBlz8Nlw6.jpg", "genre_ids": [18, 14], "id": 8967, "original_language": "en", "original_title": "The Tree of Life", "overview": "The impressionistic story of a Texas family in the 1950s. The film follows the life journey of the eldest son, Jack, through the innocence of childhood to his disillusioned adult years as he tries to reconcile a complicated relationship with his father. Jack finds himself a lost soul in the modern world, seeking answers to the origins and meaning of life while questioning the existence of faith.", "poster_path": "/ptDOdfOg0srtk4TGdeYbLqxv2nd.jpg", "release_date": "2011-05-18", "title": "The Tree of Life", "video": false, "vote_average": 6.6, "vote_count": 1905, "popularity": 12.901}, {"id": 8293, "video": false, "vote_count": 234, "vote_average": 7.1, "title": "Howards End", "release_date": "1992-03-13", "original_language": "en", "original_title": "Howards End", "genre_ids": [18, 10749], "backdrop_path": "/dq5JGFP6a3B7e8kpDD0Mxj7nOca.jpg", "adult": false, "overview": "A saga of class relations and changing times in an Edwardian England on the brink of modernity, the film centers on liberal Margaret Schlegel, who, along with her sister Helen, becomes involved with two couples: wealthy, conservative industrialist Henry Wilcox and his wife Ruth, and the downwardly mobile working-class Leonard Bast and his mistress Jackie.", "poster_path": "/lqeddpBOUa6jqx3MRogIYeHj6MG.jpg", "popularity": 11.565}, {"adult": false, "backdrop_path": "/gRY30dvyLhydkblpE0v3NiXt0Nj.jpg", "genre_ids": [35, 10749], "id": 6557, "original_language": "en", "original_title": "27 Dresses", "overview": "Altruistic Jane finds herself facing her worst nightmare as her younger sister announces her engagement to the man Jane secretly adores.", "poster_path": "/zzJtHNzi1D4CPwRlPHV1TRQNXD2.jpg", "release_date": "2008-01-10", "title": "27 Dresses", "video": false, "vote_average": 6.3, "vote_count": 2137, "popularity": 14.081}], "total_pages": 134, "total_results": 2666}, "recommendations": {"page": 1, "results": [], "total_pages": 1, "total_results": 0}, "credits": {"cast": [{"cast_id": 19, "character": "Ann Landers / Abigail Van Buren", "credit_id": "52fe4bc09251416c7510ce89", "gender": 1, "id": 61980, "name": "Wendie Malick", "order": 0, "profile_path": "/w3kIoXuvYDDp2fTTzy4Uq8KZSM2.jpg"}, {"cast_id": 5, "character": "Mort", "credit_id": "52fe4bc09251416c7510ce51", "gender": 2, "id": 160319, "name": "Robert Desiderio", "order": 1, "profile_path": "/wJjTKm7yBaiP4ptEpbWrGdKEf2k.jpg"}, {"cast_id": 6, "character": "Jules (as Kenneth David Gilman)", "credit_id": "52fe4bc09251416c7510ce55", "gender": 2, "id": 157404, "name": "Kip Gilman", "order": 2, "profile_path": "/2DVjV6ro3dVeK0K9WWRWEgtRyZJ.jpg"}, {"cast_id": 8, "character": "Grown Margo", "credit_id": "52fe4bc09251416c7510ce5d", "gender": 1, "id": 88074, "name": "Michelle Duffy", "order": 3, "profile_path": "/iAifIdDuHZKcnmq9nQw4T99obyA.jpg"}, {"cast_id": 9, "character": "Abe", "credit_id": "52fe4bc09251416c7510ce61", "gender": 2, "id": 106771, "name": "David Groh", "order": 4, "profile_path": "/4Wc0KKrHnpoFuYjypGeTw5bZgHB.jpg"}, {"cast_id": 7, "character": "Young Margo", "credit_id": "52fe4bc09251416c7510ce59", "gender": 2, "id": 997792, "name": "Tyler Gannon", "order": 5, "profile_path": null}, {"cast_id": 10, "character": "Rebecca", "credit_id": "52fe4bc09251416c7510ce65", "gender": 1, "id": 1085521, "name": "Joann Johnson", "order": 6, "profile_path": null}, {"cast_id": 11, "character": "Beauty parlor woman #1", "credit_id": "52fe4bc09251416c7510ce69", "gender": 0, "id": 163121, "name": "Karen Johnson-Miller", "order": 7, "profile_path": null}, {"cast_id": 12, "character": "Beauty parlor woman #2", "credit_id": "52fe4bc09251416c7510ce6d", "gender": 0, "id": 1127176, "name": "Angela Nicole Babb", "order": 8, "profile_path": null}, {"cast_id": 13, "character": "Beauty parlor woman #3", "credit_id": "52fe4bc09251416c7510ce71", "gender": 0, "id": 950306, "name": "Raissa Fleming", "order": 9, "profile_path": null}, {"cast_id": 14, "character": "Dean Evans", "credit_id": "52fe4bc09251416c7510ce75", "gender": 0, "id": 215275, "name": "Tobias Anderson", "order": 10, "profile_path": null}, {"cast_id": 15, "character": "Cardinal Ryan", "credit_id": "52fe4bc09251416c7510ce79", "gender": 0, "id": 1127177, "name": "George Fosgate", "order": 11, "profile_path": null}, {"cast_id": 16, "character": "Vatican Bishop", "credit_id": "52fe4bc09251416c7510ce7d", "gender": 0, "id": 23896, "name": "Ted Roisum", "order": 12, "profile_path": null}, {"cast_id": 17, "character": "John Daly", "credit_id": "52fe4bc09251416c7510ce81", "gender": 0, "id": 1127178, "name": "Robert D. Heath Jr.", "order": 13, "profile_path": null}, {"cast_id": 18, "character": "Edward R. Murrow", "credit_id": "52fe4bc09251416c7510ce85", "gender": 0, "id": 163137, "name": "Dennis Bateman", "order": 14, "profile_path": null}, {"cast_id": 20, "character": "Dais speaker", "credit_id": "56aa28879251416fd800080e", "gender": 0, "id": 1569393, "name": "Carol Jones", "order": 15, "profile_path": "/jUgg9P1o75X0yrjbyMhsInXvng0.jpg"}], "crew": [{"credit_id": "52fe4bc09251416c7510ce41", "department": "Directing", "gender": 2, "id": 123543, "job": "Director", "name": "Alan Metzger", "profile_path": null}, {"credit_id": "52fe4bc09251416c7510ce47", "department": "Writing", "gender": 2, "id": 1000157, "job": "Writer", "name": "Howard Burkons", "profile_path": null}, {"credit_id": "52fe4bc09251416c7510ce4d", "department": "Writing", "gender": 2, "id": 175476, "job": "Writer", "name": "Adam Gilad", "profile_path": null}]}}