{"adult": false, "backdrop_path": "/v9G6gvnmFXOXKSLeHfYqlCxPcyO.jpg", "belongs_to_collection": null, "budget": 0, "genres": [{"id": 37, "name": "Western"}, {"id": 35, "name": "Comedy"}], "homepage": null, "id": 148843, "imdb_id": "tt0043723", "original_language": "en", "original_title": "The Lady from Texas", "overview": "An eccentric Civil War widow is accused of being insane.", "popularity": 1.883, "poster_path": "/rD7HV6IrTkKiooAqlhizsqGfWJw.jpg", "production_companies": [{"id": 10330, "logo_path": "/nY62adzeba5GVK8LJYD6yd9R8H4.png", "name": "Universal International Pictures", "origin_country": ""}], "production_countries": [{"iso_3166_1": "US", "name": "United States of America"}], "release_date": "1951-09-01", "revenue": 0, "runtime": 78, "spoken_languages": [{"iso_639_1": "en", "name": "English"}], "status": "Released", "tagline": "", "title": "The Lady from Texas", "video": false, "vote_average": 0.0, "vote_count": 0, "keywords": {"keywords": [{"id": 393, "name": "civil war"}]}, "similar": {"page": 1, "results": [{"id": 287904, "video": false, "vote_count": 117, "vote_average": 5.7, "title": "The Last Face", "release_date": "2016-05-20", "original_language": "en", "original_title": "The Last Face", "genre_ids": [18], "backdrop_path": "/5HoPEjUhVIqf1x4xMTdjwnAKSuV.jpg", "adult": false, "overview": "Miguel, a heroic Spanish doctor, puts himself in harm's way to deliver medical treatment to the victims of military uprisings in Africa.", "poster_path": "/kx4qydBEPFbVvxbEXUm0jNX0vU4.jpg", "popularity": 13.108}, {"id": 9567, "video": false, "vote_count": 1086, "vote_average": 6.5, "title": "Tears of the Sun", "release_date": "2003-03-07", "original_language": "en", "original_title": "Tears of the Sun", "genre_ids": [28, 18, 10752], "backdrop_path": "/ldqbcQaNc8RyTekKaeMoV4HBDQB.jpg", "adult": false, "overview": "Navy SEAL Lieutenant A.K. Waters and his elite squadron of tactical specialists are forced to choose between their duty and their humanity, between following orders by ignoring the conflict that surrounds them, or finding the courage to follow their conscience and protect a group of innocent refugees. When the democratic government of Nigeria collapses and the country is taken over by a ruthless military dictator, Waters, a fiercely loyal and hardened veteran is dispatched on a routine mission to retrieve a Doctors Without Borders physician.", "poster_path": "/qEe7aE4PgZCwnVoxKe7YsTm3Smh.jpg", "popularity": 16.609}, {"id": 271110, "video": false, "vote_count": 15271, "vote_average": 7.4, "title": "Captain America: Civil War", "release_date": "2016-04-27", "original_language": "en", "original_title": "Captain America: Civil War", "genre_ids": [28, 12, 878], "backdrop_path": "/m5O3SZvQ6EgD5XXXLPIP1wLppeW.jpg", "adult": false, "overview": "Following the events of Age of Ultron, the collective governments of the world pass an act designed to regulate all superhuman activity. This polarizes opinion amongst the Avengers, causing two factions to side with Iron Man or Captain America, which causes an epic battle between former allies.", "poster_path": "/kSBXou5Ac7vEqKd97wotJumyJvU.jpg", "popularity": 41.347}, {"id": 7364, "video": false, "vote_count": 803, "vote_average": 5.8, "title": "Sahara", "release_date": "2005-04-06", "original_language": "en", "original_title": "Sahara", "genre_ids": [28, 12, 35, 18, 9648], "backdrop_path": "/8yTDTKaSrSoz944H2ibPEG11JwC.jpg", "adult": false, "overview": "Scouring the ocean depths for treasure-laden shipwrecks is business as usual for a thrill-seeking underwater adventurer and his wisecracking buddy. But when these two cross paths with a beautiful doctor, they find themselves on the ultimate treasure hunt.", "poster_path": "/xB5JjL6wLzq5goIWTPoJ4tFreL5.jpg", "popularity": 10.945}, {"id": 291356, "video": false, "vote_count": 261, "vote_average": 5.9, "title": "In a Valley of Violence", "release_date": "2016-10-21", "original_language": "en", "original_title": "In a Valley of Violence", "genre_ids": [28, 80, 53, 37], "backdrop_path": "/bnw8E9Jrj0mvmktXka9L1Kvq3ji.jpg", "adult": false, "overview": "The story of a drifter named Paul who arrives in a small town seeking revenge on the thugs who murdered his friend. Sisters Mary Anne and Ellen, who run the town's hotel, help Paul in his quest for vengeance.", "poster_path": "/vt6PRYO81BUKxPFhmzg0CzOq8oo.jpg", "popularity": 9.127}, {"id": 109491, "video": false, "vote_count": 1990, "vote_average": 5.8, "title": "Beautiful Creatures", "release_date": "2013-02-13", "original_language": "en", "original_title": "Beautiful Creatures", "genre_ids": [18, 14, 10749], "backdrop_path": "/43tyIdF12g6aFBcWcVTdYlLq0Jc.jpg", "adult": false, "overview": "Ethan Wate just wants to get to know Lena Duchannes better, but unbeknownst to him, Lena has strange powers.  As Lena's 16th birthday approaches she might decide her fate, to be good or evil.  A choice which will impact her relationship forever.", "poster_path": "/s3hqcqoMr9yVBOvRLufSZSGvNve.jpg", "popularity": 13.937}, {"adult": false, "backdrop_path": "/mptra1sEhfCCP22R1B0TyOjmHIT.jpg", "genre_ids": [16, 18], "id": 2011, "original_language": "fr", "original_title": "Persepolis", "overview": "In 1970s Iran, Marjane 'Marji' Statrapi watches events through her young eyes and her idealistic family of a long dream being fulfilled of the hated Shah's defeat in the Iranian Revolution of 1979. However as Marji grows up, she witnesses first hand how the new Iran, now ruled by Islamic fundamentalists, has become a repressive tyranny on its own.", "poster_path": "/dYvyF1RlNokAd1N7Nek0vDpYsV6.jpg", "release_date": "2007-06-27", "title": "Persepolis", "video": false, "vote_average": 7.9, "vote_count": 1034, "popularity": 10.929}, {"id": 625, "video": false, "vote_count": 342, "vote_average": 7.6, "title": "The Killing Fields", "release_date": "1984-11-02", "original_language": "en", "original_title": "The Killing Fields", "genre_ids": [18, 36, 10752], "backdrop_path": "/kjEgZzhigOU6dZKGfw1oVOnmVId.jpg", "adult": false, "overview": "The Killing Fields tells the real-life story of a friendship between two journalists, an American and a Cambodian, during the bloody Khmer Rouge takeover of Cambodia in 1975, which led to the death of 2-3 million Cambodians during the next four years, until Pol Pot's regime was toppled by the intervening Vietnamese in 1979.", "poster_path": "/pzSdpgnjJi79UboweTlFDQmRq7M.jpg", "popularity": 11.082}, {"id": 10655, "video": false, "vote_count": 149, "vote_average": 6.9, "title": "Gettysburg", "release_date": "1993-10-08", "original_language": "en", "original_title": "Gettysburg", "genre_ids": [18, 36, 10752], "backdrop_path": "/mCdRlg1seLf90CLjJuCn8F9qHP4.jpg", "adult": false, "overview": "Summer 1863. The Confederacy pushes north into Pennsylvania. Union divisions converge to face them. The two great armies clash at Gettysburg, site of a theology school. For three days, through such legendary actions as Little Round Top and Pickett's Charge, the fate of \"one nation, indivisible\" hangs in the balance.", "poster_path": "/gdC3oxonNGTV9yh6CgNhsUKNfQw.jpg", "popularity": 9.784}, {"id": 1040, "video": false, "vote_count": 332, "vote_average": 7.7, "title": "The Leopard", "release_date": "1963-03-28", "original_language": "it", "original_title": "Il gattopardo", "genre_ids": [18], "backdrop_path": "/4cgiyZOZJ6kEQRslBtnPcAEuDlN.jpg", "adult": false, "overview": "As Garibaldi's troops begin the unification of Italy in the 1860s, an aristocratic Sicilian family grudgingly adapts to the sweeping social changes undermining their way of life. Proud but pragmatic Prince Don Fabrizio Salina allows his war hero nephew, Tancredi, to marry Angelica, the beautiful daughter of gauche, bourgeois Don Calogero, in order to maintain the family's accustomed level of comfort and political clout.", "poster_path": "/pZveAWV7cemGPO7n2zgxRuFusHN.jpg", "popularity": 11.208}, {"adult": false, "backdrop_path": "/AiJX96zrTTj9lSaXTR0dO5IYKS.jpg", "genre_ids": [18, 10752, 10749, 37], "id": 22267, "original_language": "en", "original_title": "Ride with the Devil", "overview": "Ride with the Devil follows four people who are fighting for truth and justice amidst the turmoil of the American Civil War. Director Ang Lee takes us to a no man's land on the Missouri/Kansas border where a staunch loyalist, an immigrant's son, a freed slave, and a young widow form an unlikely friendship as they learn how to survive in an uncertain time. In a place without rules and redefine the meaning of bravery and honor.", "poster_path": "/pH3J5IUzho4ZVaRuTuErzqHHovb.jpg", "release_date": "1999-11-24", "title": "Ride with the Devil", "video": false, "vote_average": 6.5, "vote_count": 95, "popularity": 9.269}, {"adult": false, "backdrop_path": "/pADYS0OzhEf8eoToSO9Gw2P9z1s.jpg", "genre_ids": [18, 10749, 10752], "id": 11541, "original_language": "en", "original_title": "The Year of Living Dangerously", "overview": "Australian journalist Guy Hamilton travels to Indonesia to cover civil strife in 1965. There, on the eve of an attempted coup, he befriends a Chinese Australian photographer with a deep connection to and vast knowledge of the Indonesian people and also falls in love with a British national.", "poster_path": "/3fBuFmNLTDKuL3QOlgeIvLdekJn.jpg", "release_date": "1982-12-17", "title": "The Year of Living Dangerously", "video": false, "vote_average": 6.9, "vote_count": 164, "popularity": 8.849}, {"id": 1439, "video": false, "vote_count": 413, "vote_average": 6.7, "title": "Anna and the King", "release_date": "1999-12-16", "original_language": "en", "original_title": "Anna and the King", "genre_ids": [18, 36, 10749], "backdrop_path": "/jRJ0CSlpzO4Y0pTiXAcwdTS38gu.jpg", "adult": false, "overview": "The story of the romance between the King of Siam (now Thailand) and the widowed British school teacher Anna Leonowens during the 1860s. Anna teaches the children and becomes romanced by the King. She convinces him that a man can be loved by just one woman.", "poster_path": "/dbn7qWyIcCUCmBi4kqp4y52qKDI.jpg", "popularity": 11.882}, {"id": 20848, "video": false, "vote_count": 64, "vote_average": 7.5, "title": "The White Sun of the Desert", "release_date": "1970-03-30", "original_language": "ru", "original_title": "\u0411\u0435\u043b\u043e\u0435 \u0441\u043e\u043b\u043d\u0446\u0435 \u043f\u0443\u0441\u0442\u044b\u043d\u0438", "genre_ids": [28, 12, 35, 18, 37], "backdrop_path": "/a260XrZBWP2U2VnIxbkpOttQvrk.jpg", "adult": false, "overview": "The setting is the east shore of the Caspian Sea (today's Turkmenistan) where the Red Army soldier Fyodor Sukhov has been fighting the Civil War in Russian Asia for a number of years. After being hospitalised and then demobbed, he sets off home to join his wife, only to be caught up in a desert fight between a Red Army cavalry unit and Basmachi guerrillas. The cavalry unit commander, Rahimov, \"convinces\" Sukhov to help, temporarily, with the protection of abandoned women of the Basmachi guerrilla leader Abdullah's harem. Leaving a young Red Army soldier, Petrukha, to assist Sukhov with the task, Rahimov and his cavalry unit set out to pursue fleeing Abdullah.Sukhov and women from Abdullah's harem return to a nearby shore town. Soon, looking for a seaway across the border, Abdullah and his gang come to the same town...", "poster_path": "/2rsYwgTluQhlnwpaprOQ1nNVcZm.jpg", "popularity": 7.885}, {"id": 14392, "video": false, "vote_count": 147, "vote_average": 6.7, "title": "The Warlords", "release_date": "2007-12-12", "original_language": "zh", "original_title": "\u6295\u540d\u72c0", "genre_ids": [28, 18, 36], "backdrop_path": "/rAGrRCKlICqLYTz7jZIqR8kCiar.jpg", "adult": false, "overview": "A heroic tale of three blood brothers and their struggle in the midst of war and political upheaval. It is based on \"The Assassination of Ma,\" a Qing Dynasty (1644-1911) story about the killing of general Ma Xinyi.", "poster_path": "/lrIzVggEukG6P3rK3sNTvjeu0uY.jpg", "popularity": 8.506}, {"id": 43258, "video": false, "vote_count": 47, "vote_average": 6.5, "title": "Friendly Persuasion", "release_date": "1956-11-25", "original_language": "en", "original_title": "Friendly Persuasion", "genre_ids": [18, 37, 10752], "backdrop_path": "/9zAKwMjYSOMgnnsbC5s9tQfSsJl.jpg", "adult": false, "overview": "The story of a family of Quakers in Indiana in 1862. Their religious sect is strongly opposed to violence and war. It's not easy for them to meet the rules of their religion in everyday life but when Southern troops pass the area they are in real trouble. Should they fight, despite their peaceful attitude?", "poster_path": "/foIelpKMhKmKHZg7JtnRjZZcF7i.jpg", "popularity": 6.009}, {"id": 40639, "video": false, "vote_count": 20, "vote_average": 6.3, "title": "Dark Command", "release_date": "1940-04-15", "original_language": "en", "original_title": "Dark Command", "genre_ids": [18, 37, 10749], "backdrop_path": "/ogS67dwdzmL39DlbN5tHL87IGiX.jpg", "adult": false, "overview": "When transplanted Texan Bob Seton arrives in Lawrence, Kansas he finds much to like about the place, especially Mary McCloud, daughter of the local banker. Politics is in the air however. It's just prior to the civil war and there is already a sharp division in the Territory as to whether it will remain slave-free. When he gets the opportunity to run for marshal, Seton finds himself running against the respected local schoolteacher, William Cantrell. Not is what it seems however. While acting as the upstanding citizen in public, Cantrell is dangerously ambitious and is prepared to do anything to make his mark, and his fortune, on the Territory. When he loses the race for marshal, he forms a group of raiders who run guns into the territory and rob and terrorize settlers throughout the territory. Eventually donning Confederate uniforms, it is left to Seton and the good citizens of Lawrence to face Cantrell and his raiders in one final clash.", "poster_path": "/5jiySHU4lJJuz6kiDhjblvUmfvB.jpg", "popularity": 6.554}, {"id": 5353, "video": false, "vote_count": 174, "vote_average": 6.6, "title": "The Hunting Party", "release_date": "2007-09-03", "original_language": "en", "original_title": "The Hunting Party", "genre_ids": [28, 12, 18, 53], "backdrop_path": "/gIjlJO7gyIbOx104ZmYJpdrLtDX.jpg", "adult": false, "overview": "An emerging journalist (Jesse Eisenberg), an experienced cameraman (Terrence Howard), and a discredited reporter (Richard Gere) find their bold plan to capture Bosnia's top war criminal quickly spiraling out of control when a UN representative mistakes them for a CIA hit squad in a light-hearted thriller inspired by Scott Anderson's popular Esquire article. The Weinstein Company provides stateside", "poster_path": "/5FTPcvpWh86xExOC8dFpuU1gSP7.jpg", "popularity": 7.969}, {"adult": false, "backdrop_path": "/1Aucj1zrqpLZd5yLNAmF5MGldt.jpg", "genre_ids": [18, 53, 10752], "id": 31906, "original_language": "en", "original_title": "The Beguiled", "overview": "Offbeat Civil War drama in which a wounded Yankee soldier, after finding refuge in an isolated girls' school in the South towards the end of the war, becomes the object of the young women's sexual fantasies. The soldier manipulates the situation for his own gratification, but when he refuses to completely comply with the girls' wishes, they make it very difficult for him to leave.", "poster_path": "/iUTzQnTGy7rzhFs5GnsXNAT48KE.jpg", "release_date": "1971-03-31", "title": "The Beguiled", "video": false, "vote_average": 7.0, "vote_count": 195, "popularity": 10.316}, {"adult": false, "backdrop_path": "/3LXRJNth2r3xRiqNeG7BPd2bMiW.jpg", "genre_ids": [18, 36, 53], "id": 6106, "original_language": "en", "original_title": "Salvador", "overview": "A second rated journalist from the US tries his luck in El Salvador during the military dictatorship in the 1980s.", "poster_path": "/1aNbLMXB2E7e00ko2rDPEyogI9A.jpg", "release_date": "1986-04-23", "title": "Salvador", "video": false, "vote_average": 7.2, "vote_count": 144, "popularity": 8.262}], "total_pages": 9, "total_results": 167}, "recommendations": {"page": 1, "results": [], "total_pages": 1, "total_results": 0}, "credits": {"cast": [{"cast_id": 10, "character": "Dan Mason", "credit_id": "52fe4bd69251416c7510f7ed", "gender": 2, "id": 44846, "name": "Howard Duff", "order": 0, "profile_path": "/tFRANDwl7xs5OKdR7ZlVoo1glvH.jpg"}, {"cast_id": 11, "character": "Bonnie Lee", "credit_id": "52fe4bd69251416c7510f7f1", "gender": 1, "id": 20144, "name": "Mona Freeman", "order": 1, "profile_path": "/mVvXPfan9zChrQUJlbFmGDBRac9.jpg"}, {"cast_id": 12, "character": "Miss Birdie Wheeler", "credit_id": "52fe4bd69251416c7510f7f5", "gender": 1, "id": 2667, "name": "Josephine Hull", "order": 2, "profile_path": "/ez4bvdONR5WE2qhncCh9uOilIwo.jpg"}, {"cast_id": 13, "character": "Judge George Jeffers", "credit_id": "52fe4bd69251416c7510f7f9", "gender": 2, "id": 30234, "name": "Gene Lockhart", "order": 3, "profile_path": "/7IL5fx1mfhCiMAvYXSiY1Dj7yky.jpg"}, {"cast_id": 14, "character": "Cyril Guthrie", "credit_id": "52fe4bd69251416c7510f7fd", "gender": 2, "id": 29643, "name": "Craig Stevens", "order": 4, "profile_path": "/2DUxCx7wppc8Jzom6M6M1kERLDJ.jpg"}, {"cast_id": 15, "character": "Dave Blodgett", "credit_id": "52fe4bd69251416c7510f801", "gender": 2, "id": 39816, "name": "Ed Begley", "order": 5, "profile_path": "/or39TZVqz9egZPDqQ1Lzeago1zr.jpg"}, {"cast_id": 16, "character": "Mabel Guthrie", "credit_id": "52fe4bd69251416c7510f805", "gender": 1, "id": 985870, "name": "Barbara Knudson", "order": 6, "profile_path": null}, {"cast_id": 17, "character": "Lafe", "credit_id": "52fe4bd69251416c7510f809", "gender": 0, "id": 160930, "name": "Lane Bradford", "order": 7, "profile_path": "/2FeXcbcxx14PRol8XcuFcZzBiAU.jpg"}, {"cast_id": 18, "character": "Jos\u00e9", "credit_id": "52fe4bd69251416c7510f80d", "gender": 2, "id": 120705, "name": "Chris-Pin Martin", "order": 8, "profile_path": "/gCyLa9dZ4ow5U2s7eKq9PVGAsex.jpg"}, {"cast_id": 19, "character": "Craig Toland", "credit_id": "52fe4bd69251416c7510f811", "gender": 2, "id": 101483, "name": "Kenneth Patterson", "order": 9, "profile_path": null}, {"cast_id": 20, "character": "Sheriff Mike McShane", "credit_id": "52fe4bd69251416c7510f815", "gender": 2, "id": 3338, "name": "Jay C. Flippen", "order": 10, "profile_path": "/gioapO1wsvHUH9cLmlxsWK6HaSx.jpg"}], "crew": [{"credit_id": "52fe4bd69251416c7510f7b9", "department": "Directing", "gender": 2, "id": 15705, "job": "Director", "name": "Joseph Pevney", "profile_path": "/shNmqaOUHun2YYju9qyI010uFmB.jpg"}, {"credit_id": "52fe4bd69251416c7510f7bf", "department": "Writing", "gender": 2, "id": 88642, "job": "Story", "name": "Harold Shumate", "profile_path": null}, {"credit_id": "52fe4bd69251416c7510f7c5", "department": "Writing", "gender": 2, "id": 52753, "job": "Writer", "name": "Gerald Drayson Adams", "profile_path": null}, {"credit_id": "52fe4bd69251416c7510f7cb", "department": "Writing", "gender": 0, "id": 1056750, "job": "Story", "name": "Connie Lee Bennett", "profile_path": null}, {"credit_id": "52fe4bd69251416c7510f7d1", "department": "Production", "gender": 2, "id": 43818, "job": "Producer", "name": "Leonard Goldstein", "profile_path": null}, {"credit_id": "52fe4bd69251416c7510f7d7", "department": "Crew", "gender": 2, "id": 231234, "job": "Cinematography", "name": "Charles P. Boyle", "profile_path": null}, {"credit_id": "52fe4bd69251416c7510f7dd", "department": "Editing", "gender": 2, "id": 12345, "job": "Editor", "name": "Virgil W. Vogel", "profile_path": null}, {"credit_id": "52fe4bd69251416c7510f7e3", "department": "Art", "gender": 2, "id": 29637, "job": "Art Direction", "name": "Bernard Herzbrun", "profile_path": null}, {"credit_id": "52fe4bd69251416c7510f7e9", "department": "Art", "gender": 2, "id": 960709, "job": "Art Direction", "name": "Emrich Nicholson", "profile_path": null}, {"credit_id": "5c962f77925141731e77e2cd", "department": "Production", "gender": 2, "id": 2261849, "job": "Unit Manager", "name": "Jack Gertsman", "profile_path": null}]}}