{"adult": false, "backdrop_path": "/iicUtLtKmxL0ZOkgSVkTOWmHvaV.jpg", "belongs_to_collection": null, "budget": 0, "genres": [{"id": 18, "name": "Drama"}, {"id": 878, "name": "Science Fiction"}], "homepage": "http://www.voice-over.es/en/", "id": 149535, "imdb_id": "tt2123349", "original_language": "en", "original_title": "Voice Over", "overview": "I won't tell you whose voice over leads us through three extreme situations that are actually the same. Will you survive?", "popularity": 2.479, "poster_path": "/A9sH9qUs9HwndG1ZHVdwl9imNWR.jpg", "production_companies": [{"id": 13285, "logo_path": null, "name": "Encanta Films", "origin_country": ""}, {"id": 13286, "logo_path": null, "name": "Kamel Films", "origin_country": ""}, {"id": 13287, "logo_path": null, "name": "Kowalski Films", "origin_country": ""}], "production_countries": [{"iso_3166_1": "ES", "name": "Spain"}], "release_date": "2011-11-23", "revenue": 0, "runtime": 10, "spoken_languages": [{"iso_639_1": "fr", "name": "Fran\u00e7ais"}], "status": "Released", "tagline": "", "title": "Voice Over", "video": false, "vote_average": 7.0, "vote_count": 14, "keywords": {"keywords": [{"id": 174617, "name": "fishing boat"}, {"id": 208513, "name": "anxiety"}, {"id": 230855, "name": "oxygen deprivation"}, {"id": 230856, "name": "space capsule"}, {"id": 230857, "name": "alien creature"}]}, "similar": {"page": 1, "results": [{"adult": false, "backdrop_path": "/qK77FcPjWwJDmJTwlZc8L31o8En.jpg", "genre_ids": [18, 878], "id": 62215, "original_language": "da", "original_title": "Melancholia", "overview": "Two sisters find their already strained relationship challenged as a mysterious new planet threatens to collide with Earth.", "poster_path": "/eCjATHunhgLl9ARKUFtmKguaWDJ.jpg", "release_date": "2011-05-26", "title": "Melancholia", "video": false, "vote_average": 7.2, "vote_count": 1841, "popularity": 19.144}, {"id": 452832, "video": false, "vote_count": 681, "vote_average": 5.2, "title": "Serenity", "release_date": "2019-01-24", "original_language": "en", "original_title": "Serenity", "genre_ids": [18, 9648, 53], "backdrop_path": "/ridcUDnFumpMB5AAsIvFafTSx5i.jpg", "adult": false, "overview": "The quiet life of Baker Dill, a fishing boat captain who lives on the isolated Plymouth Island, where he spends his days obsessed with capturing an elusive tuna while fighting his personal demons, is interrupted when someone from his past comes to him searching for help.", "poster_path": "/hgWAcic93phg4DOuQ8NrsgQWiqu.jpg", "popularity": 22.416}, {"id": 2501, "video": false, "vote_count": 5867, "vote_average": 7.4, "title": "The Bourne Identity", "release_date": "2002-06-14", "original_language": "en", "original_title": "The Bourne Identity", "genre_ids": [28, 18, 9648, 53], "backdrop_path": "/2Fr1vqBiDn8xRJM9elcplzHctTN.jpg", "adult": false, "overview": "Wounded to the brink of death and suffering from amnesia, Jason Bourne is rescued at sea by a fisherman. With nothing to go on but a Swiss bank account number, he starts to reconstruct his life, but finds that many people he encounters want him dead. However, Bourne realizes that he has the combat and mental skills of a world-class spy\u2014but who does he work for?", "poster_path": "/bXQIL36VQdzJ69lcjQR1WQzJqQR.jpg", "popularity": 20.935}, {"id": 578, "video": false, "vote_count": 5688, "vote_average": 7.6, "title": "Jaws", "release_date": "1975-06-18", "original_language": "en", "original_title": "Jaws", "genre_ids": [12, 27, 53], "backdrop_path": "/nR2sfOYcmJjz93lLie28t2rgyUm.jpg", "adult": false, "overview": "When an insatiable great white shark terrorizes the townspeople of Amity Island, the police chief, an oceanographer and a grizzled shark hunter seek to destroy the blood-thirsty beast.", "poster_path": "/l1yltvzILaZcx2jYvc5sEMkM7Eh.jpg", "popularity": 26.982}, {"id": 3980, "video": false, "vote_count": 424, "vote_average": 6.1, "title": "Critters", "release_date": "1986-04-11", "original_language": "en", "original_title": "Critters", "genre_ids": [28, 35, 27, 878, 53], "backdrop_path": "/dqUw5SO18T8qFs8A0NVq85M5Of3.jpg", "adult": false, "overview": "A massive ball of furry creatures from another world eat their way through a small mid-western town followed by intergalactic bounty hunters opposed only by militant townspeople.", "poster_path": "/zLL6nX13AfigvvNQ9GyNXhKVrmg.jpg", "popularity": 14.34}, {"id": 12702, "video": false, "vote_count": 168, "vote_average": 4.9, "title": "Critters 3", "release_date": "1991-12-11", "original_language": "en", "original_title": "Critters 3", "genre_ids": [35, 27, 878], "backdrop_path": "/lvpUnrcrP4PUEz06DvKlDN7wU1V.jpg", "adult": false, "overview": "In what appears to be a cross between Critters and The Towering Inferno, the residents of a shoddy L.A. apartment block are chased up to the roof by hoards of the eponymous hairy horrors.", "poster_path": "/zImPNGAVoTK1GmwcSkE0tx6el1N.jpg", "popularity": 10.644}, {"adult": false, "backdrop_path": "/za2VGJy9h5glkjAveF1z5S9eV1Z.jpg", "genre_ids": [35], "id": 1792, "original_language": "en", "original_title": "Stuck on You", "overview": "In Martha's Vineyard, Mass., conjoined twins Walt (Greg Kinnear) and Bob Tenor (Matt Damon) make the best of their handicap by being the fastest grill cooks in town. While outgoing Walt hopes to one day become a famous actor, shy Bob prefers to stay out of the spotlight. When a fading Hollywood actress, Cher (Cher), decides to get her show \"Honey and the Beaze\" cancelled, she hires Walt -- and his brotherly appendage -- as her costars. But their addition surprisingly achieves the opposite.", "poster_path": "/gUbNzcIdKCoqp9amNFpFQfpBzrB.jpg", "release_date": "2003-12-10", "title": "Stuck on You", "video": false, "vote_average": 5.3, "vote_count": 379, "popularity": 10.899}, {"id": 352548, "video": false, "vote_count": 18, "vote_average": 4.9, "title": "5th Passenger", "release_date": "2018-05-30", "original_language": "en", "original_title": "5th Passenger", "genre_ids": [878, 10770], "backdrop_path": "/gmCqVEvEE32fqBw8M1TZdpxtxOS.jpg", "adult": false, "overview": "Set in the aftermath of an oppressive class war, a pregnant officer aboard an escape pod must struggle to survive with her remaining crew when a mysterious and vicious life form attacks, determined to become the dominant species.", "poster_path": "/f8hfZCD2fSsz6LE6FA5uk5mMv11.jpg", "popularity": 5.824}, {"id": 23128, "video": false, "vote_count": 363, "vote_average": 8.1, "title": "The Cove", "release_date": "2009-07-31", "original_language": "en", "original_title": "The Cove", "genre_ids": [99], "backdrop_path": "/xQBT5JILna4hJe4AjsHQHjanAOZ.jpg", "adult": false, "overview": "The Cove tells the amazing true story of how an elite team of individuals, films makers and free divers embarked on a covert mission to penetrate the hidden cove in Japan, shining light on a dark and deadly secret. The shocking discoveries were only the tip of the iceberg.", "poster_path": "/9giC3yXFPMl5Gmy5HGd0BYvWSWS.jpg", "popularity": 8.722}, {"adult": false, "backdrop_path": "/yhjfb2KOKz2g036uOAoBMSKbRdX.jpg", "genre_ids": [18, 80, 35], "id": 159770, "original_language": "en", "original_title": "The Dirties", "overview": "The line between reality and fiction starts to blur when two best friends start making a movie about getting revenge on bullies.", "poster_path": "/yQPyYKkfPmVqCr7dCCLrRmuUgKu.jpg", "release_date": "2013-10-04", "title": "The Dirties", "video": false, "vote_average": 6.2, "vote_count": 61, "popularity": 5.129}, {"adult": false, "backdrop_path": "/uDZqxv25FTDdLX8LCj0OSauNz8a.jpg", "genre_ids": [53, 18, 27, 9648], "id": 13254, "original_language": "en", "original_title": "The Living and the Dead", "overview": "A descent into Hell is triggered when \"Ex-Lord\" Donald Brocklebank finds that he must leave Longleigh House for London to find a way to pay for the medical treatments for his wife Nancy. Alone, his over-protected, delusional, adult son, James, fancies himself in charge of the manor house with his terminally ill mother, and barricades the two of them into the house.", "poster_path": "/sCVqeI2JhFNR5zbzR7xom33SKJX.jpg", "release_date": "2006-09-23", "title": "The Living and the Dead", "video": false, "vote_average": 6.9, "vote_count": 24, "popularity": 4.558}, {"id": 16515, "video": false, "vote_count": 72, "vote_average": 7.3, "title": "Captains Courageous", "release_date": "1937-06-25", "original_language": "en", "original_title": "Captains Courageous", "genre_ids": [12, 18, 10751], "backdrop_path": "/kB0SYCWNAUr7GY0cLPqXXXUes6X.jpg", "adult": false, "overview": "Harvey, the arrogant and spoiled son of an indulgent absentee-father, falls overboard from a transatlantic steamship and is rescued by a fishing vessel on the Grand Banks. Harvey fails to persuade them to take him ashore, nor convince the crew of his wealth. The captain offers him a low-paid job, until they return to port, as part of the crew that turns him into a mature, considerate young man.", "poster_path": "/rOAgl6ksmipCViXoIVOHMR1Czd2.jpg", "popularity": 6.999}, {"adult": false, "backdrop_path": "/9iCAtaFUV3i5JqZ6vVtlLweh375.jpg", "genre_ids": [18], "id": 4173, "original_language": "it", "original_title": "Stromboli, terra di dio", "overview": "After the end of World War II Karen, a young displaced woman from Lithuania, marries Italian fisherman Antonio to get away from her internment camp. But the life on Antonio's island, Stromboli, threatened by its volcano, is a tough one and Karen cannot get used to it.", "poster_path": "/qG1rqngu5E2ytnbT8X2oMeyBCq3.jpg", "release_date": "1950-02-15", "title": "Stromboli", "video": false, "vote_average": 6.8, "vote_count": 68, "popularity": 6.077}, {"adult": false, "backdrop_path": "/3Iv3tSCDZsKCcu1rUTsLRRiZmFV.jpg", "genre_ids": [27, 53], "id": 59127, "original_language": "en", "original_title": "Eye of the Beast", "overview": "This menacing monster yarn stars James Van Der Beek as government scientist Dan Leland, who's sent to investigate reported sightings of a giant squidlike beast that's put the entire population of a fishing village on edge. Though Leland starts his journey confident that this sea creature with an insatiable appetite is the stuff of old legends, a string of horrific occurrences soon begins to change his mind.", "poster_path": "/tThMwsgfAYOGkP8zRbbO0T9dWrK.jpg", "release_date": "2007-12-08", "title": "Eye of the Beast", "video": false, "vote_average": 5.3, "vote_count": 19, "popularity": 3.782}, {"adult": false, "backdrop_path": "/hf1x5jzC48vhVnQ05ziVtGRo6yf.jpg", "genre_ids": [18, 10751, 14], "id": 14334, "original_language": "en", "original_title": "The Secret of Roan Inish", "overview": "10-year-old Fiona is sent to live with her grandparents in a small fishing village in Donegal, Ireland. She soon learns the local legend that an ancestor of hers married a Selkie - a seal who can turn into a human. Years earlier, her baby brother was washed out to sea and never seen again, so when Fiona spies a naked little boy on the abandoned Isle of Roan Inish, she is compelled to investigate..", "poster_path": "/knrhzhfMKgTqrDrCy3nBWL5sypa.jpg", "release_date": "1995-02-03", "title": "The Secret of Roan Inish", "video": false, "vote_average": 6.5, "vote_count": 31, "popularity": 4.113}, {"adult": false, "backdrop_path": "/2OXXNZtX8TiJELIJz8wgyiWlEXk.jpg", "genre_ids": [18], "id": 361571, "original_language": "fr", "original_title": "Les d\u00e9mons", "overview": "A ten year old boy, prone to excessive worry, begins to succumb to his anxiety as a string of child abductions plague his town.", "poster_path": "/2E5GrYJFLO76TnECReZhQNU9F2E.jpg", "release_date": "2015-10-30", "title": "The Demons", "video": false, "vote_average": 6.3, "vote_count": 20, "popularity": 2.758}, {"adult": false, "backdrop_path": null, "genre_ids": [53, 878, 12], "id": 327546, "original_language": "en", "original_title": "Recursion", "overview": "Recursion tells the story of Sherwin, an unlikely Best Man. Awkward and accident prone Sherwin looses the ring moments before the ceremony. But, he knows a powerful secret. A secret that allows him to try everything possible (and impossible) to correct his mistake ...again, and again, and again. The trick? Not to not to destroy his universe while he's at it.", "poster_path": "/iMe5uSTOQyubNaO4YuVkFpKifjK.jpg", "release_date": "2014-02-16", "title": "Recursion", "video": false, "vote_average": 6.0, "vote_count": 3, "popularity": 1.69}, {"adult": false, "backdrop_path": "/rKR6SDWPgA52doqz1ZiGwFgd95s.jpg", "genre_ids": [35], "id": 427673, "original_language": "en", "original_title": "Sadie's Last Days on Earth", "overview": "Everything in high school is like the world ending and Sadie Mitchell's crippling fear of the coming apocalypse is the heightened version of that.", "poster_path": "/nja5YDPrTY6MkO8lPjXBybvE5r3.jpg", "release_date": "2016-12-09", "title": "Sadie's Last Days on Earth", "video": false, "vote_average": 5.4, "vote_count": 8, "popularity": 2.426}, {"id": 654246, "video": false, "vote_count": 0, "vote_average": 0.0, "title": "Jelly Side Down", "release_date": "2019-12-13", "original_language": "en", "original_title": "Jelly Side Down", "genre_ids": [35, 27, 53], "backdrop_path": "/cuXeMNwy1X9pZd3AR6OlHMQXTKq.jpg", "adult": false, "overview": "A stressed college student is thrown into a spiral when he drops his toast jelly side down", "poster_path": "/tvIs1HXnuaSQjY59VlnRqoWEIBX.jpg", "popularity": 0.852}, {"id": 491311, "video": false, "vote_count": 2, "vote_average": 8.0, "title": "The Queen of Fear", "release_date": "2018-03-22", "original_language": "es", "original_title": "La reina del miedo", "genre_ids": [18], "backdrop_path": "/g6EfAKOv8BhHBGInFg23a46mo3v.jpg", "adult": false, "overview": "Only one month left until the premiere of The Golden Time, the long-awaited solo show by acclaimed actress Robertina. Far from focused on the preparations for this new production, Robertina lives in a state of continuous anxiety that turns her privileged life into an absurd and tumultuous landscape.", "poster_path": "/qeHutvZdLSSkwmYqiICRExeOqfz.jpg", "popularity": 1.018}], "total_pages": 3, "total_results": 51}, "recommendations": {"page": 1, "results": [{"adult": false, "backdrop_path": "/8Lh6mLbugXmDvEgXv67PUn2VKc1.jpg", "genre_ids": [10402, 99], "id": 211722, "original_language": "en", "original_title": "A Spell to Ward Off the Darkness", "overview": "A man at three disparate moments in his life: as a member of a fifteen-person collective on a small Estonian island, alone in the wilderness of Northern Finland and as the singer of a neo-pagan black metal band in Norway. Three moments for a radical proposition for the creation of utopia in the present.", "poster_path": "/671LtWstxve7orDzJQTefOdj3O6.jpg", "release_date": "2013-08-09", "title": "A Spell to Ward Off the Darkness", "video": false, "vote_average": 7.3, "vote_count": 7, "popularity": 3.124}, {"adult": false, "backdrop_path": "/lTkPt02bbUrWLwUajOioRIlM3xW.jpg", "genre_ids": [35, 27], "id": 103970, "original_language": "en", "original_title": "Feeding Frenzy", "overview": "A mysterious old man named Mr. Plinkett is keeping a deep dark secret locked away in the basement of a small-town hardware store: vicious, flesh-eating creatures with a mysterious past. Once these creatures escape, all hell breaks loose and it's up to Jesse, an incompetent hardware store employee, to stop them from turning the town into a feeding frenzy!", "poster_path": "/tmcAZMhUmebYPa59rIca2qcca0e.jpg", "release_date": "2010-01-01", "title": "Feeding Frenzy", "video": false, "vote_average": 6.2, "vote_count": 9, "popularity": 4.007}, {"adult": false, "backdrop_path": "/dY3z0069XYH4hwMzKdq0pLgxOdO.jpg", "genre_ids": [18, 14], "id": 23986, "original_language": "en", "original_title": "Cremaster 3", "overview": "CREMASTER 3 (2002) is set in New York City and narrates the construction of the Chrysler Building, which is in itself a character - host to inner, antagonistic forces at play for access to the process of (spiritual) transcendence. These factions find form in the struggle between Hiram Abiff or the Architect ...", "poster_path": "/vzu0UmHqCSdOR8itRMnGuALI2Uh.jpg", "release_date": "2002-05-15", "title": "Cremaster 3", "video": false, "vote_average": 7.0, "vote_count": 15, "popularity": 4.098}, {"adult": false, "backdrop_path": null, "genre_ids": [], "id": 179382, "original_language": "en", "original_title": "L'arriv\u00e9e", "overview": "The first of Peter Tscherkassky's Cinemascope trilogy of short films is a fragmented glimpse of images pulsating with chaotic rhythm as they fight white margins for room in his palette. Mirrored frames being split by white margin and trying to reassemble again like the poles of a magnet, a train approaching station and colliding with itself in white-hot blistering chaos.", "poster_path": "/1tlJywzPugrG79abtuPKezhnzW1.jpg", "release_date": "1998-03-17", "title": "The Arrival", "video": false, "vote_average": 5.9, "vote_count": 10, "popularity": 1.5}, {"adult": false, "backdrop_path": "/kEQ48xFyaX5CpV9gfmGiRZujaSt.jpg", "genre_ids": [18, 80, 9648, 10749], "id": 95177, "original_language": "en", "original_title": "Sun Don't Shine", "overview": "Crystal and her boyfriend Leo embark on a tense and mysterious road trip through the desolate yet hauntingly beautiful landscape of central Florida.", "poster_path": "/7jOoHONgHXbD5fG2HuXqZLwemln.jpg", "release_date": "2012-03-10", "title": "Sun Don't Shine", "video": false, "vote_average": 5.2, "vote_count": 9, "popularity": 4.021}, {"adult": false, "backdrop_path": "/qXplPzAjKEeijPCGnx6bJuxn9OW.jpg", "genre_ids": [35, 27], "id": 88006, "original_language": "en", "original_title": "Graveyard Alive- A Zombie Nurse in Love", "overview": "A shy nurse is bitten by a zombie and becomes a flesh eating sex kitten.  GRAVEYARD ALIVE is a cross between 1920's German Expressionism and 1960's B-horror films. Shot in and around the Montreal area, this is Bastard Amber Production's first full-length feature.  The story follows Patsy, a lonely, dreamy nurse who, after being bitten by a zombie, becomes a sex-kitten. With her newfound powers, she tries to win back her old flame, the suave and handsome Dr. Dox, from Goodie , a bitchy young nurse. As the film progresses, Patsy must also learn to deal with her new affliction and to live her life, no longer in her romantic dream world, but in a harsher yet ultimately more satisfying reality.  Shot in Techniscope with a 1:2.35 aspect ratio, an old process used in many 1960's films such as Dario Argento's \"The Cat O' Nine Tails\", GRAVEYARD ALIVE promises to invigorate the horror genre stylistically as well as with its audacious and thought-provoking content.", "poster_path": "/xuF0B6MulvTprDGEp9M0jnNFr4s.jpg", "release_date": "2003-01-01", "title": "Graveyard Alive- A Zombie Nurse in Love", "video": false, "vote_average": 5.6, "vote_count": 7, "popularity": 4.27}, {"adult": false, "backdrop_path": "/xMNVtR2s9Es98E3U78ocilE2MrH.jpg", "genre_ids": [99], "id": 73941, "original_language": "en", "original_title": "Limelight", "overview": "A film about Peter Gatien, the owner of legendary New York nightclubs like Limelight, The Tunnel and the Palladium. The film documents his rise and fall from the 1980s through the 1990s.", "poster_path": "/zErjWofewDkZOKaVBmJaOlCPPU3.jpg", "release_date": "2011-09-23", "title": "Limelight", "video": false, "vote_average": 5.3, "vote_count": 5, "popularity": 2.785}, {"adult": false, "backdrop_path": "/jV5UsF9RRnWCEckWw4gBkBPn8qS.jpg", "genre_ids": [18, 53], "id": 82760, "original_language": "sv", "original_title": "Avalon", "overview": "Janne, a 60 year old party promoter is arranging a nightclub at the annual tennis week in the small coastal town of B\u00e5stad, where he also teams up with his older sister Jackie. But an accident turns his life upside down and forced by the people around him, he desperately seeks a way out.", "poster_path": "/mMQb1PzbM50qqmqifEzzmWEx1jJ.jpg", "release_date": "2011-09-11", "title": "Avalon", "video": false, "vote_average": 5.6, "vote_count": 8, "popularity": 2.279}, {"adult": false, "backdrop_path": null, "genre_ids": [27], "id": 248633, "original_language": "en", "original_title": "Zombie Killers: Elephant's Graveyard", "overview": "A young militia is all that stands between a coming dead horde and their rural town decimated by the fracking industry.", "poster_path": "/piv0wLtGe0KzDaGU2pKtH7xlYdQ.jpg", "release_date": "2015-02-03", "title": "Zombie Killers: Elephant's Graveyard", "video": false, "vote_average": 2.9, "vote_count": 11, "popularity": 4.6}, {"adult": false, "backdrop_path": null, "genre_ids": [99], "id": 212994, "original_language": "en", "original_title": "From One Second to the Next", "overview": "Stories of serious traffic accidents caused by texting and driving are told by the perpetrators and surviving victims.", "poster_path": "/1BSa1Ub84Eeeo9kcdc782i1Ykga.jpg", "release_date": "2013-08-07", "title": "From One Second to the Next", "video": false, "vote_average": 7.2, "vote_count": 17, "popularity": 3.114}, {"id": 268413, "video": false, "vote_count": 10, "vote_average": 5.9, "title": "Antidote", "release_date": "2014-05-08", "original_language": "de", "original_title": "Panzehir", "genre_ids": [28, 80, 18], "backdrop_path": "/6iOj0pxPJIwBGonVE8Hesan67ou.jpg", "adult": false, "overview": "Istanbul cirminal underworld; a place of merciless families and swaggering hitmen afraid of no one. Kadir Korkut, nicknamed the \"Demon\" is the most fearsome of their kind. When he wants to retire for the love of a blind German pianist, it starts a chain of events which will paint the night red. His boss and foster father, Kara Cemal betrays and coerces Kadir by poisoning him to perform two final hits on the two largest rival families in order to receive the antidote. Outgunned, outmanned and facing impossible odds he has to team up with an outed undercover police mole Cem, and somehow survive his final night of revenge and redemption.", "poster_path": "/5RivwinCYZjD8qdhogbvr4VQZLW.jpg", "popularity": 1.934}, {"adult": false, "backdrop_path": "/nt6mv3PIsWRrGEQG7zPUh02XyGR.jpg", "genre_ids": [37, 80, 18], "id": 268956, "original_language": "en", "original_title": "Bubblegum and Broken Fingers", "overview": "\"If you don't have your own plan, you'll damn sure be a part of someone else's.\" That quote kicks off the first of multiple story lines, in the crime ensemble \"Bubblegum &amp; Broken Fingers.\" This character-driven collage of sex, violence and survival is equal parts western, gangster and love stories. We follow the journey of a mysterious silver briefcase and witness the havoc it brings each new owner.", "poster_path": "/4AAK5uX31xFqdhywQn9MVvh4U61.jpg", "release_date": "2011-01-01", "title": "Bubblegum and Broken Fingers", "video": false, "vote_average": 3.3, "vote_count": 7, "popularity": 3.098}, {"adult": false, "backdrop_path": "/nFaDRlnb5DTCEEO0NWMmwMNWLdu.jpg", "genre_ids": [18], "id": 35726, "original_language": "en", "original_title": "Fix", "overview": "FIX takes you from Beverly Hills to Watts, and places in between, in one day, as documentary filmmakers Bella and Milo race to get Milo's brother Leo from jail to rehab before 8pm, or Leo goes to prison for three years.", "poster_path": "/2Sc7LvRbSyAQOBqZaX0mnz8eCDc.jpg", "release_date": "2009-11-20", "title": "Fix", "video": false, "vote_average": 6.6, "vote_count": 7, "popularity": 3.511}, {"id": 89883, "video": false, "vote_count": 14, "vote_average": 6.5, "title": "Stuck Between Stations", "release_date": "2011-11-04", "original_language": "en", "original_title": "Stuck Between Stations", "genre_ids": [18, 10749], "backdrop_path": "/x2zgeHmf06l6vNi02nOQt8iTn0H.jpg", "adult": false, "overview": "A decade after they graduated from high school and went their separate ways, Casper (Sam Rosen), a soldier haunted by the horrors of war, and Rebecca (Zoe Lister Jones), a whip-smart graduate student with a shaky future, reunite by chance and get to know each other over the course of an accidental tour of the little-known underbelly of Minneapolis. The evening's odyssey includes a bar fight, a house party, a punk-rock circus, a spontaneous burglary, a home Casper did not know he had, and a cast of strange characters, unexpected allies and disappointing friends.", "poster_path": "/umhPhNHiEziObUjaBjicQob2r9J.jpg", "popularity": 3.855}, {"adult": false, "backdrop_path": "/vVc7Vua02QoiFW4Tk0dkgKKHHy8.jpg", "genre_ids": [80, 53, 18], "id": 164286, "original_language": "en", "original_title": "Down and Dangerous", "overview": "An inventive and resourceful cocaine smuggler defends his trade against violent rival traffickers, a monstrous and vengeful killer, and the DEA agents who want to lock him up \u2013 all while falling for a stunningly beautiful woman with a taste for danger.", "poster_path": "/qew4n4oonAQ5OVgMokXORKPAbxZ.jpg", "release_date": "2014-02-14", "title": "Down and Dangerous", "video": false, "vote_average": 4.3, "vote_count": 9, "popularity": 3.6}, {"adult": false, "backdrop_path": "/8MJVvqg2EmPIVaLWMTYWXDXUzaJ.jpg", "genre_ids": [18, 10749], "id": 38301, "original_language": "en", "original_title": "The Japanese Wife", "overview": "Snehmoy (Rahul Bose) and Miyage (Chigusa Takaku) are pen friends who exchange wedding vows through letters. Fifteen years pass but they never meet. Yet the bond of marriage is strong between them. This unusual relationship comes under a cloud when a young widow, Sandhya (Raima Sen), comes to stay with Snehmoy along with her eight-year-old son Poltu. Snehmoy and the little boy bond and the arithmetic teacher discovers the joy of palpable bonds and fatherhood. There develops an inexplicable thread of understanding with Sandhya too. But Snehmoy remained loyal to his unseen Japanese wife. When Miyage was ill from cancer, he took a long leave from his school and tried his best to find a cure for the illness. Meanwhile, malaria took a toll on him and he died. Coming of Miyage in a white sari to Sunderbans after his departure was really touching.", "poster_path": "/cf9VYWeZi009WX2X2ePPn5CwANB.jpg", "release_date": "2010-04-09", "title": "The Japanese Wife", "video": false, "vote_average": 6.4, "vote_count": 7, "popularity": 3.617}, {"adult": false, "backdrop_path": "/xpTse6rv3zE88ea3xASeJcmVrPL.jpg", "genre_ids": [27, 53], "id": 58623, "original_language": "en", "original_title": "Pickman's Muse", "overview": "An artist, Robert Pickman, becomes obsessed by visions of unworldly horror, revealed to him through an ancient artifact discovered in an abandoned church.", "poster_path": "/jQIAgM5HdTLHJUJ9DAK5PyNriTP.jpg", "release_date": "2010-08-01", "title": "Pickman's Muse", "video": false, "vote_average": 5.9, "vote_count": 7, "popularity": 2.942}, {"adult": false, "backdrop_path": "/mj01tYgh3XHRYfrb0abMzW5UyNX.jpg", "genre_ids": [99], "id": 82479, "original_language": "en", "original_title": "A Noble Lie: Oklahoma City 1995", "overview": "A Noble Lie is the culmination of years of research and documentation conducted by independent journalists, scholars, and ordinary citizens. Often risking their personal safety and sanity, they have gathered evidence which threatens to expose the startling reality of what exactly occurred at 9:02 am on April 19, 1995 in Oklahoma City.", "poster_path": "/dN1ONQvH31wS8v4YbpfyRt6kR0i.jpg", "release_date": "2011-12-07", "title": "A Noble Lie: Oklahoma City 1995", "video": false, "vote_average": 6.7, "vote_count": 10, "popularity": 2.32}, {"adult": false, "backdrop_path": "/qpGMwtR7WZhDq80owBnDbG0bnBo.jpg", "genre_ids": [18, 10749], "id": 48826, "original_language": "en", "original_title": "Jhootha Hi Sahi", "overview": "A suicidal woman's \"final\" call mistakenly connects her to a man who gives her something to live for.", "poster_path": "/7ylBZHTh6ewBIGOdW1eXv7w9s66.jpg", "release_date": "2010-10-22", "title": "Jhootha Hi Sahi", "video": false, "vote_average": 4.4, "vote_count": 7, "popularity": 4.222}, {"adult": false, "backdrop_path": "/oj7af1IO7NwsG4YC3HSE2yRI4xl.jpg", "genre_ids": [28, 53], "id": 75745, "original_language": "hi", "original_title": "Force", "overview": "A vengeful drug-dealer/gangster targets and terrorizes an entire police unit and their families.", "poster_path": "/wFgaW0qYt8SxHFVrnRjazlKUuyJ.jpg", "release_date": "2011-09-23", "title": "Force", "video": false, "vote_average": 6.1, "vote_count": 18, "popularity": 1.811}], "total_pages": 2, "total_results": 27}, "credits": {"cast": [{"cast_id": 3, "character": "Narrator", "credit_id": "52fe4beb9251416c75112011", "gender": 2, "id": 20285, "name": "F\u00e9odor Atkine", "order": 0, "profile_path": "/cf50q5tFxLlp6rlSyG96AlhZrfi.jpg"}, {"cast_id": 4, "character": "Boy", "credit_id": "52fe4beb9251416c75112015", "gender": 0, "id": 972288, "name": "Javier Cidoncha", "order": 1, "profile_path": null}, {"cast_id": 5, "character": "Lead", "credit_id": "52fe4beb9251416c75112019", "gender": 2, "id": 1109148, "name": "Jonathan Mellor", "order": 2, "profile_path": null}, {"cast_id": 6, "character": "Girl", "credit_id": "52fe4beb9251416c7511201d", "gender": 0, "id": 1152329, "name": "Luna Montignier Pedro", "order": 3, "profile_path": null}, {"cast_id": 7, "character": "Soldier 3", "credit_id": "52fe4beb9251416c75112021", "gender": 0, "id": 1152330, "name": "Sergio Perez", "order": 4, "profile_path": null}, {"cast_id": 8, "character": "Soldier 2", "credit_id": "52fe4beb9251416c75112025", "gender": 0, "id": 1152331, "name": "Daniel Robaina Romero", "order": 5, "profile_path": null}], "crew": [{"credit_id": "52fe4beb9251416c75112007", "department": "Directing", "gender": 0, "id": 1145238, "job": "Director", "name": "Mart\u00edn Rosete", "profile_path": null}, {"credit_id": "52fe4beb9251416c7511200d", "department": "Writing", "gender": 0, "id": 586103, "job": "Writer", "name": "Luiso Berdejo", "profile_path": "/1BTRXkR4pKumMEktHJTRm8clGqS.jpg"}]}}