{"adult": false, "backdrop_path": "/jk3IedElU5XHZf8mqwIL9BIRLHd.jpg", "belongs_to_collection": null, "budget": 0, "genres": [], "homepage": null, "id": 149862, "imdb_id": "tt2207519", "original_language": "en", "original_title": "Concepci\u00f3n Arenal, la visitadora de c\u00e1rceles", "overview": "TV Movie about Concepci\u00f3n Arenal in his role as visiting women's prisons. His struggle to change the conception that was on criminals and they had to be modern prisons.", "popularity": 1.732, "poster_path": "/pQt53NgpFKK8cbXDjkkmHlZwUjy.jpg", "production_companies": [], "production_countries": [], "release_date": "2012-01-01", "revenue": 0, "runtime": 80, "spoken_languages": [], "status": "Released", "tagline": "", "title": "Concepci\u00f3n Arenal, la visitadora de c\u00e1rceles", "video": false, "vote_average": 8.7, "vote_count": 6, "keywords": {"keywords": [{"id": 187056, "name": "woman director"}]}, "similar": {"page": 1, "results": [{"adult": false, "backdrop_path": "/cADbqsIoiDW7X3Myg9nz8eAuno5.jpg", "genre_ids": [18, 10749], "id": 10818, "original_language": "fr", "original_title": "Naissance des pieuvres", "overview": "Set during a sultry summer in a French suburb, Marie is desperate to join the local pool's synchronized swimming team, but is her interest solely for the sake of sport or for a chance to get close to Floriane, the bad girl of the team? Sciamma, and the two leads, capture the uncertainty of teenage sexuality with a sympathetic eye in this delicate drama of the angst of coming-of-age.", "poster_path": "/4jajELYrR4Xmv3CVoKnukRnALa2.jpg", "release_date": "2007-05-17", "title": "Water Lilies", "video": false, "vote_average": 6.1, "vote_count": 119, "popularity": 10.744}, {"adult": false, "backdrop_path": "/gZeJziVigmRqbkEZwKAtSqlLQ6s.jpg", "genre_ids": [18, 10749], "id": 370663, "original_language": "en", "original_title": "Below Her Mouth", "overview": "An unexpected affair quickly escalates into a heart-stopping reality for two women whose passionate connection changes their lives forever.", "poster_path": "/nTGbq37hYLuNy7YgMg0gVLma0NS.jpg", "release_date": "2016-09-10", "title": "Below Her Mouth", "video": false, "vote_average": 6.2, "vote_count": 456, "popularity": 22.676}, {"adult": false, "backdrop_path": "/knczzNAjBXzSYkeWxoT1u9VNmjR.jpg", "genre_ids": [10749, 18], "id": 258480, "original_language": "en", "original_title": "Carol", "overview": "In 1950s New York, a department-store clerk who dreams of a better life falls for an older, married woman.", "poster_path": "/AbKa7ANxmui0Jmhh7gV7OSELKIL.jpg", "release_date": "2015-11-20", "title": "Carol", "video": false, "vote_average": 7.4, "vote_count": 2182, "popularity": 14.185}, {"id": 9813, "video": false, "vote_count": 128, "vote_average": 6.1, "title": "The Quiet", "release_date": "2005-09-12", "original_language": "en", "original_title": "The Quiet", "genre_ids": [18, 53], "backdrop_path": "/6eyWAZA4CEidZW1xXnQ4vlYBXTP.jpg", "adult": false, "overview": "After her widowed father dies, deaf teenager Dot moves in with her godparents, Olivia and Paul Deer. The Deers' daughter, Nina, is openly hostile to Dot, but that does not prevent her from telling her secrets to her silent stepsister, including the fact that she wants to kill her lecherous father.", "poster_path": "/GEqIE9YlmygHVUfS64LW2cwAAM.jpg", "popularity": 13.948}, {"adult": false, "backdrop_path": "/g3LYarEY9LjB28Ct2trwFN72gqZ.jpg", "genre_ids": [35], "id": 437557, "original_language": "en", "original_title": "Blockers", "overview": "When three parents discover their daughters\u2019 pact to lose their virginity at prom, they launch a covert one-night operation to stop the teens from sealing the deal.", "poster_path": "/uvlUQXg0AlpGzKukO11K7QtW3Yu.jpg", "release_date": "2018-03-14", "title": "Blockers", "video": false, "vote_average": 6.2, "vote_count": 1153, "popularity": 18.075}, {"adult": false, "backdrop_path": "/fZ8oFcREAr6wgWcXISGql0xyxjB.jpg", "genre_ids": [35, 18], "id": 39781, "original_language": "en", "original_title": "The Kids Are All Right", "overview": "Two women, Nic and Jules, brought a son and daughter into the world through artificial insemination. When one of their children reaches age, both kids go behind their mothers' backs to meet with the donor. Life becomes so much more interesting when the father, two mothers and children start to become attached to each other.", "poster_path": "/fPDeK4MmoGfi2X0oWZev7LrbMqM.jpg", "release_date": "2010-07-09", "title": "The Kids Are All Right", "video": false, "vote_average": 6.6, "vote_count": 923, "popularity": 12.703}, {"adult": false, "backdrop_path": "/6tern9vOEwwmkDYC1vRCuO64z0C.jpg", "genre_ids": [10749, 18], "id": 475888, "original_language": "en", "original_title": "Tell It to the Bees", "overview": "Dr. Jean Markham returns to the town she left as a teenager to take over her late father's medical practice. When a school-yard scuffle lands Charlie in her surgery, she invites him to visit the hives in her garden and tell his secrets to the bees, as she once did. The new friendship between the boy and the bee keeper brings his mother Lydia into Jean's world.", "poster_path": "/Rj6zpHhMU1zFW3v28U4PSRSRgP.jpg", "release_date": "2019-05-03", "title": "Tell It to the Bees", "video": false, "vote_average": 6.4, "vote_count": 53, "popularity": 15.113}, {"adult": false, "backdrop_path": "/xOGEw8iywxcFMolV6SF6YdTdJTb.jpg", "genre_ids": [10402, 10749], "id": 52371, "original_language": "nl", "original_title": "LelleBelle", "overview": "19-year old Belle practices playing the violin diligently, but is unable to impart her music with a sensitive undertone. Her life changes when she discovers that sexual desire stimulates passion in her music.", "poster_path": "/nJVPgIq3icZMQ26p5uWIFdUZJfL.jpg", "release_date": "2010-10-08", "title": "LelleBelle", "video": false, "vote_average": 4.7, "vote_count": 41, "popularity": 13.931}, {"adult": false, "backdrop_path": "/dvQDRfv3qvfHNnVAR57ouVsuErf.jpg", "genre_ids": [10749, 18], "id": 28031, "original_language": "en", "original_title": "If These Walls Could Talk 2", "overview": "The stories of three lesbian couples -- who live in the same house at different periods of time -- who are at a crossroads in their lives. In 1961, Edith loses her lover, Abby, to a stroke. Linda and Amy struggle with feminist issues in 1972. And, in 2000, Kal and Fran try to have a baby with the help of sperm donor.", "poster_path": "/xs7ODbmYQXCDhvXNvz5tF17T59H.jpg", "release_date": "2000-03-05", "title": "If These Walls Could Talk 2", "video": false, "vote_average": 7.1, "vote_count": 55, "popularity": 8.062}, {"adult": false, "backdrop_path": "/rf6G51j0SZL0tP57I8gnqHTRFEr.jpg", "genre_ids": [35, 18, 10749], "id": 273153, "original_language": "fr", "original_title": "La belle saison", "overview": "In 1971, Carole and Delphine meet and fall in love in Paris. When Carole follows Delphine back to her family farm in Limousin, the two find lesbianism and feminism are not as easy in the countryside.", "poster_path": "/evvAkNMO5VJiy5qIo1Hu7fUfvVI.jpg", "release_date": "2015-08-19", "title": "Summertime", "video": false, "vote_average": 6.6, "vote_count": 162, "popularity": 15.434}, {"id": 616584, "video": false, "vote_count": 92, "vote_average": 7.5, "title": "K-12", "release_date": "2019-09-05", "original_language": "en", "original_title": "K-12", "genre_ids": [14, 27, 10402], "backdrop_path": "/fSlfaF0Ydfr2SK6hOYHvDsb7a9Z.jpg", "adult": false, "overview": "Cry Baby, a strong and sensitive girl, is sent off to a disturbing sleepaway school that\u2019s hidden underneath a grandiose fa\u00e7ade. Luckily, she has a sweet and unapologetic best friend who sticks up for her when she gets bullied by the other students whose brains are under control by the Principal and his wicked staff. With the help of the magical friends they meet along the way, as well as an Angelic Spirit Guide, they are able to gain the strength they need to fight off the school\u2019s belligerent patriarchal conditioning.", "poster_path": "/nVi0yBBPj5Z96JgGWVIg94kv7bR.jpg", "popularity": 18.105}, {"adult": false, "backdrop_path": "/caLMOD3ZJ3V7qjlxDXrzlJfBLgD.jpg", "genre_ids": [18, 10749], "id": 20, "original_language": "en", "original_title": "My Life Without Me", "overview": "A Pedro Almodovar production in which a fatally ill mother with only two months to live creates a list of things she wants to do before she dies with out telling her family of her illness.", "poster_path": "/vVj92VBFUBzjqzLvBiPVVlJDp78.jpg", "release_date": "2003-03-07", "title": "My Life Without Me", "video": false, "vote_average": 6.1, "vote_count": 220, "popularity": 9.208}, {"id": 326359, "video": false, "vote_count": 1179, "vote_average": 6.8, "title": "Frozen Fever", "release_date": "2015-03-09", "original_language": "en", "original_title": "Frozen Fever", "genre_ids": [12, 16, 10751], "backdrop_path": "/ubioPGniCfDiASmYYpeJs5RRNaC.jpg", "adult": false, "overview": "On Anna's birthday, Elsa and Kristoff are determined to give her the best celebration ever, but Elsa's icy powers may put more than just the party at risk.", "poster_path": "/lKJiVPzsAO9IJ4LKWXZ8vkR2bg4.jpg", "popularity": 17.061}, {"id": 434714, "video": false, "vote_count": 32, "vote_average": 7.5, "title": "My Days of Mercy", "release_date": "2019-07-11", "original_language": "en", "original_title": "My Days of Mercy", "genre_ids": [18, 10749], "backdrop_path": "/7Lbzq33nMMIQtAfZAmSqG6ibLSg.jpg", "adult": false, "overview": "The daughter of a man on death row falls in love with a woman on the opposing side of her family's political cause.", "poster_path": "/adIPKAoKnKL9vCTkvfF4J9ZA7Ln.jpg", "popularity": 6.928}, {"adult": false, "backdrop_path": "/useuHJQ5HOoEWkAvEjL1FW1sUfe.jpg", "genre_ids": [18], "id": 376867, "original_language": "en", "original_title": "Moonlight", "overview": "The tender, heartbreaking story of a young man\u2019s struggle to find himself, told across three defining chapters in his life as he experiences the ecstasy, pain, and beauty of falling in love, while grappling with his own sexuality.", "poster_path": "/qAwFbszz0kRyTuXmMeKQZCX3Q2O.jpg", "release_date": "2016-10-21", "title": "Moonlight", "video": false, "vote_average": 7.4, "vote_count": 4406, "popularity": 27.348}, {"adult": false, "backdrop_path": "/ph5fElfh4U7O3jwhFljxz2LDp1l.jpg", "genre_ids": [18, 36], "id": 375262, "original_language": "en", "original_title": "The Favourite", "overview": "England, early 18th century. The close relationship between Queen Anne and Sarah Churchill is threatened by the arrival of Sarah's cousin, Abigail Hill, resulting in a bitter rivalry between the two cousins to be the Queen's favourite.", "poster_path": "/cwBq0onfmeilU5xgqNNjJAMPfpw.jpg", "release_date": "2018-11-23", "title": "The Favourite", "video": false, "vote_average": 7.6, "vote_count": 2823, "popularity": 26.511}, {"id": 297762, "video": false, "vote_count": 13717, "vote_average": 7.3, "title": "Wonder Woman", "release_date": "2017-05-30", "original_language": "en", "original_title": "Wonder Woman", "genre_ids": [28, 12, 14], "backdrop_path": "/6iUNJZymJBMXXriQyFZfLAKnjO6.jpg", "adult": false, "overview": "An Amazon princess comes to the world of Man in the grips of the First World War to confront the forces of evil and bring an end to human conflict.", "poster_path": "/gfJGlDaHuWimErCr5Ql0I8x9QSy.jpg", "popularity": 41.8}, {"adult": false, "backdrop_path": "/k8H7ye6Sab7OrDJoo8Qp5WFGHGk.jpg", "genre_ids": [35, 10749, 18], "id": 244264, "original_language": "en", "original_title": "Laggies", "overview": "Overeducated and underemployed, 28 year old Megan is in the throes of a quarterlife crisis. Squarely into adulthood with no career prospects, no particular motivation to think about her future and no one to relate to, Megan is comfortable lagging a few steps behind - while her friends check off milestones and celebrate their new grown-up status. When her high-school sweetheart proposes, Megan panics and- given an unexpected opportunity to escape for a week - hides out in the home of her new friend, 16-year old Annika and Annika's world-weary single dad Craig.", "poster_path": "/dNcoXoRC7JHiqbe7k5Ufo6syiPP.jpg", "release_date": "2014-09-25", "title": "Laggies", "video": false, "vote_average": 6.1, "vote_count": 787, "popularity": 9.883}, {"adult": false, "backdrop_path": "/npClMhFGn4XUkwu6coq5oKAEu6L.jpg", "genre_ids": [35, 10749, 18], "id": 634, "original_language": "en", "original_title": "Bridget Jones's Diary", "overview": "A chaotic Bridget Jones meets a snobbish lawyer, and he soon enters her world of imperfections.", "poster_path": "/ym6kjFFZg6boC0QHBVw6hqJLbxv.jpg", "release_date": "2001-04-13", "title": "Bridget Jones's Diary", "video": false, "vote_average": 6.7, "vote_count": 3079, "popularity": 16.678}, {"adult": false, "backdrop_path": "/txtRue33MaXv5HQpTiHPOmOcDxE.jpg", "genre_ids": [35, 10749], "id": 11631, "original_language": "en", "original_title": "Mamma Mia!", "overview": "An independent, single mother who owns a small hotel on a Greek island is about to marry off the spirited young daughter she's raised alone. But, the daughter has secretly invited three of her mother's ex-lovers in the hopes of finding her biological father.", "poster_path": "/gOm2iMMbC6EonrFzmSQ8xvCa4Ei.jpg", "release_date": "2008-07-02", "title": "Mamma Mia!", "video": false, "vote_average": 6.9, "vote_count": 4120, "popularity": 16.652}], "total_pages": 1446, "total_results": 28907}, "recommendations": {"page": 1, "results": [{"adult": false, "backdrop_path": "/qC8Dz0M325EdoViAYrwM8QwuFjs.jpg", "genre_ids": [35, 10402], "id": 296844, "original_language": "ca", "original_title": "La familia irreal", "overview": "", "poster_path": "/A7pBGDajR89zPz1YSI3zo6noK1y.jpg", "release_date": "2012-11-12", "title": "La familia irreal", "video": false, "vote_average": 9.0, "vote_count": 4, "popularity": 2.066}, {"adult": false, "backdrop_path": "/7xIQtv9PkcbDuBu9LhcD5wiRfgQ.jpg", "genre_ids": [18], "id": 129261, "original_language": "es", "original_title": "Currito de la Cruz", "overview": "Currito de la Cruz's dream is to become a bullfighter. When he gets the chance to bullfight for the first time, he meets Carmona, a retired renowned bullfighter whom he manages to fascinate. As his prot\u00e9g\u00e9, Currito begins to be famous. At the same time, Currito falls in love with Roc\u00edo, Carmona's daughter, but his love is not reciprocated, because she loves \u00c1ngel Romera, another bullfighter.", "poster_path": "/ptanv0l0vOeiudlLbWL4r2uCLIX.jpg", "release_date": "1949-01-05", "title": "Currito de la Cruz", "video": false, "vote_average": 1.0, "vote_count": 4, "popularity": 3.011}, {"adult": false, "backdrop_path": "/8urpNN3bpVZT949qQAvPMP92kpv.jpg", "genre_ids": [35], "id": 401092, "original_language": "es", "original_title": "Las peque\u00f1as cosas", "overview": "A veteran and famous French actor receives lessons from his young and vital female personal assistant on the roughness, lack of empathy, own and those of others wounded pride.", "poster_path": "/diz0dVVrd9nCNkmJ2qf3ODQXXFD.jpg", "release_date": "2016-06-07", "title": "The Little Things", "video": false, "vote_average": 6.6, "vote_count": 7, "popularity": 4.156}, {"adult": false, "backdrop_path": null, "genre_ids": [14, 878, 10749], "id": 487082, "original_language": "es", "original_title": "Danielle", "overview": "", "poster_path": "/osiWAIV1crF4Gx7eppglyoISnDg.jpg", "release_date": "2017-11-11", "title": "Danielle", "video": false, "vote_average": 7.3, "vote_count": 8, "popularity": 1.808}, {"adult": false, "backdrop_path": "/9BLHRnv0sBpPyE2c2RdGSPm2suX.jpg", "genre_ids": [18], "id": 80135, "original_language": "es", "original_title": "Valentina", "overview": "In 1939, in a French prison camp, Jos\u00e9 Garc\u00e9s of the defeated Spanish Republican army raises the spirits of his fellow prisoners by telling the story of the year he was 8 years old, 1911, in a small town in northeastern Spain. He was a rascal, baffling his father, always in trouble, and in love with Valentina, a neighbor girl. On his roof top at night he sends semaphore messages to her. He writes poems. He gets them into trouble, killing her father's breeding pigeons. When the two families camp at a decaying castle, his tutor, a sympathetic priest, tells him about the most valiant men, the saints, the heroes, and the poets. Already a poet, he learns a lesson about being a hero.", "poster_path": "/6GYCj83LZOKoSpPAvxLNYqFKMc6.jpg", "release_date": "1982-11-12", "title": "Valentina", "video": false, "vote_average": 6.4, "vote_count": 7, "popularity": 3.251}, {"adult": false, "backdrop_path": "/xysQiVpIdO1gP5pHjUhGZjSa3at.jpg", "genre_ids": [10402, 99], "id": 25352, "original_language": "en", "original_title": "Muse: HAARP", "overview": "Muse's live act at Wembley Stadium, 17 June 2007", "poster_path": "/QWj5OX044WIf0rn2GatZfs6wwp.jpg", "release_date": "2008-03-17", "title": "Muse: HAARP", "video": false, "vote_average": 8.4, "vote_count": 16, "popularity": 2.587}, {"adult": false, "backdrop_path": "/t4WdoIEvRVXvCJPmHzg2FxCZZlN.jpg", "genre_ids": [10402], "id": 240237, "original_language": "en", "original_title": "Muse: Live At Rome Olympic Stadium", "overview": "Live at Rome Olympic Stadium is a live album and video by English alternative rock band Muse, released on 29 November 2013. Featuring the band's performance at Rome's Stadio Olimpico on 6 July 2013, in front of a crowd of 60,963 people, the concert was a part of The Unsustainable Tour, which is a moniker for the band's summer 2013 European leg of The 2nd Law World Tour.", "poster_path": "/tLKuh9OevMiHmvws8fadlnWuZoA.jpg", "release_date": "2013-11-11", "title": "Muse: Live At Rome Olympic Stadium", "video": true, "vote_average": 8.8, "vote_count": 22, "popularity": 3.233}, {"adult": false, "backdrop_path": "/3mxpTryxvj9bnZSFJd915Zv3EFh.jpg", "genre_ids": [35, 18, 10751], "id": 223566, "original_language": "ar", "original_title": "Ghadi", "overview": "Leba is a music instructor who lives in a small Lebanese town. Social pressure leads him to get married and have children. Lara, his beloved wife, births a girl, later other one and finally Ghadi, a boy with special needs related with Down Syndrome. Ghadi could have been a burden, but he is a cause of pride and joy for all of them \u2014but a test too that proves the intolerance of other people.", "poster_path": "/2ralmlcznuZeQKJZ0VJNlBCLnLF.jpg", "release_date": "2013-10-31", "title": "Ghadi", "video": false, "vote_average": 7.2, "vote_count": 10, "popularity": 2.677}, {"adult": false, "backdrop_path": null, "genre_ids": [18, 10751], "id": 422439, "original_language": "es", "original_title": "Las furias", "overview": "", "poster_path": "/qXjofhTJ0EhPFtgSJkvLfiNuTEM.jpg", "release_date": "2016-11-11", "title": "Las furias", "video": false, "vote_average": 7.0, "vote_count": 13, "popularity": 2.015}, {"adult": false, "backdrop_path": null, "genre_ids": [], "id": 359510, "original_language": "en", "original_title": "Vale", "overview": "A group of Spanish friends meet a girl who speaks English called Rachel. Victor is one of them but his English is not good enough to talk with Rachel.", "poster_path": "/6ICSDSEjSy8kMJ87u3L7I200iGm.jpg", "release_date": "2015-06-01", "title": "Vale", "video": false, "vote_average": 6.9, "vote_count": 16, "popularity": 2.851}, {"adult": false, "backdrop_path": "/9vtBUoRL3YxzPqiqkugPmoZSlxi.jpg", "genre_ids": [35, 18], "id": 358893, "original_language": "hi", "original_title": "Angry Indian Goddesses", "overview": "Frieda, a fashioncommercial photographer trying to find her own art, gathers her closest girlfriends from all over India to travel to Goa for a surprise announcement: she\u2019s getting married! Thus begins an impromptu bachelorette celebration that lasts for a full week. A riotous roller-coaster ride of girl bonding; friendships, break ups, make ups, fuck ups, passion, devastation, hesitation, terrorization and self realization. Amidst the fun and frenzy, heartbreak and heartache, passion and obsession, youth and innocence, secrets tumble out, tensions emerge, bonds are formed and emotions run high. Soon events will take a more serious turn, but for the moment these women are determined to seize the day.", "poster_path": "/qn7kTThiHtZHp7CAdpGSS9ik4ly.jpg", "release_date": "2015-09-18", "title": "Angry Indian Goddesses", "video": false, "vote_average": 7.6, "vote_count": 21, "popularity": 4.215}, {"adult": false, "backdrop_path": "/l435NPJftr1KiZRZxC6mODgs5jI.jpg", "genre_ids": [99], "id": 26557, "original_language": "en", "original_title": "Beijing 2008 Olympic Opening Ceremony", "overview": "The 2008 Summer Olympics opening ceremony was held at the Beijing National Stadium, also known as the Bird's Nest. It began at 8:00 pm China Standard Time (UTC+8) on August 8, 2008, as 8 is considered to be a lucky number.The number 8 is associated with prosperity and confidence in Chinese culture. The stadium was full to its 91,000 capacity according to organizers.The final ascent to the torch featured Olympic gymnast Li Ning, who appeared to run through air around the membrane of the stadium. Featuring more than 15,000 performers, the ceremony lasted over four hours and was reported to have cost over US$100 million to produce.The opening ceremony was lauded by spectators and various international presses as spectacular and spellbinding and by many accounts \"the greatest ever\".", "poster_path": "/daahoeHkMjTRPR50v4o32SWmnbU.jpg", "release_date": "2008-08-08", "title": "Beijing 2008 Olympic Opening Ceremony", "video": false, "vote_average": 7.4, "vote_count": 18, "popularity": 2.252}, {"adult": false, "backdrop_path": "/xhXcvAnILQrNajwN4sEG61Cdqb8.jpg", "genre_ids": [35, 10749], "id": 383208, "original_language": "en", "original_title": "It Had to Be You", "overview": "Sonia is a jingle writer who's always dreamt of a big and exciting life. Surprised by a sudden proposal and subsequent ultimatum from her easy-going boyfriend, Chris, Sonia has to decide whether she'll join the ranks of her married friends or take a leap and pursue her fantasies. A whimsical romantic comedy that's raunchy and yet gentle, 'It Had To Be You' explores the choices women face today while satirizing cultural expectations of gender and romance.", "poster_path": "/s4Y9aARoFp4DuBnrCyRi9pE83Lj.jpg", "release_date": "2016-10-21", "title": "It Had to Be You", "video": false, "vote_average": 5.8, "vote_count": 20, "popularity": 2.983}, {"adult": false, "backdrop_path": "/t9rP1kTCVL50QcMTHVdJQet1Zw9.jpg", "genre_ids": [35], "id": 292631, "original_language": "es", "original_title": "Negociador", "overview": "Manu Aranguren is a Basque politician who acts as a mediator for the Spanish government in its negotiations with ETA. Far from being a solemn, calculated occasion, unexpected occurrences, slip-ups or misunderstandings soon kick in to influence the dialogue. And the personal relationship between negotiators will be key in solving the conflict.", "poster_path": "/7dVuGcjIKlH37tGPjWBplyumLkN.jpg", "release_date": "2014-09-22", "title": "Negociador", "video": false, "vote_average": 6.7, "vote_count": 15, "popularity": 2.981}, {"id": 48737, "video": false, "vote_count": 20, "vote_average": 3.9, "title": "The Maidens' Conspiracy", "release_date": "2006-04-07", "original_language": "ca", "original_title": "Tirant lo Blanc", "genre_ids": [12], "backdrop_path": "/2FUywX5Mu4epR3l0VjuDAGMCzmr.jpg", "adult": false, "overview": "Constantinople, 1401. The emperor of Byzantium asks the famous knight Tirant lo Blanc to free the city from the siege of the Turks. After his victory, Tirant will have to face a more difficult task: to overcome the natural opposition of Carmesina, heiress to the Ottoman Empire, to surrender her most precious treasure.", "poster_path": "/uQuTs1r9LBftV0MZHvaWF9O479t.jpg", "popularity": 5.978}, {"adult": false, "backdrop_path": "/5X2PCm8T7GEYyU1JbIWHgj7zjyp.jpg", "genre_ids": [35], "id": 254129, "original_language": "es", "original_title": "2 francos, 40 pesetas", "overview": "Madrid, 1974. Six years have passed since Martin and his family have returned to Spain from Switzerland. A visit to their adopted country will bring complications.", "poster_path": "/eGx8qWvtJYmdIuXY7RHLPRx3sCj.jpg", "release_date": "2014-03-28", "title": "Back to Switzerland", "video": false, "vote_average": 6.7, "vote_count": 23, "popularity": 2.256}, {"adult": false, "backdrop_path": "/1llQzs4CvmdAEUKmdNFK1e8Jhs7.jpg", "genre_ids": [35], "id": 331642, "original_language": "es", "original_title": "Nacida para ganar", "overview": "Encarna, a thirtysomething girl of M\u00f3stoles (Madrid) is trapped in a life without changes, at the side of her lifelong boyfriend and with a job absent of incentives. Stigmatized by the famous Spanish sketch of the \"Empanadillas de M\u00f3stoles\", Encarna looks for a way to escape her boring life.", "poster_path": "/2m7yp3NZaf0vUEnBtwM3F1OVdk2.jpg", "release_date": "2016-05-06", "title": "Born to Win", "video": false, "vote_average": 4.3, "vote_count": 20, "popularity": 3.23}, {"id": 364902, "video": false, "vote_count": 39, "vote_average": 6.6, "title": "The Dresser", "release_date": "2015-10-31", "original_language": "en", "original_title": "The Dresser", "genre_ids": [18, 10770], "backdrop_path": "/f6WAZ6bTMQn2hfCOnP3Xe6HgqPH.jpg", "adult": false, "overview": "One fateful night in a small English regional theatre during World War II a troupe of touring actors stage a production of Shakespeares King Lear. Bombs are falling, sirens are wailing, the curtain is up in an hour but the actor/manager Sir who is playing Lear is nowhere to be seen. His dresser Norman must scramble to keep the production alive but will Sir turn up in time and if he does will he be able to perform that night? The Dresser is a wickedly funny and deeply moving story of friendship and loyalty as Sir reflects on his lifelong accomplishments and seeks to reconcile his turbulent friendships with those in his employ before the final curtain.", "poster_path": "/1daa6uruaKSl8Pfnfuek4wCiQeW.jpg", "popularity": 4.883}, {"adult": false, "backdrop_path": "/kAYjxI1WieIlqMwDV1YXmkHL7nq.jpg", "genre_ids": [35, 10749], "id": 389995, "original_language": "es", "original_title": "Me cas\u00e9 con un boludo", "overview": "Florencia, a rising actress, ends up falling in love with her co-star, a famous film star. When they decide to marry, Florencia becomes aware that in reality she fell in love with the character and that her husband is indeed a real idiot.", "poster_path": "/rWo38m3XwcbOeArt2UOixPtkoB9.jpg", "release_date": "2016-03-17", "title": "I Married a Dumbass", "video": false, "vote_average": 5.5, "vote_count": 33, "popularity": 3.26}, {"adult": false, "backdrop_path": "/mcYU2odPVZuzw9HwBiF4enrX7BY.jpg", "genre_ids": [18], "id": 359108, "original_language": "en", "original_title": "Viva", "overview": "Jes\u00fas, a young hairdresser, works at a Havana nightclub for drag performers, and dreams of being a performer himself. Encouraged by his mentor, Mama, Jes\u00fas finally gets his chance to take the stage. But when Angel, his estranged father, abruptly reenters his life, his world is quickly turned upside down. The macho Angel, recently released from a 15-year stint in prison, tries to squelch his son\u2019s ambition to perform in drag. Father and son clash over their opposing expectations of each other, struggling to understand one another and reconcile as a family. Shot in a gritty neighbourhood far from the Havana most tourists know, Viva is a heartrending story of music, performance and survival.", "poster_path": "/vnJwk3HKEraYSVIXxBrxvG6VZVn.jpg", "release_date": "2015-11-08", "title": "Viva", "video": false, "vote_average": 8.0, "vote_count": 38, "popularity": 2.499}], "total_pages": 2, "total_results": 40}, "credits": {"cast": [{"cast_id": 2, "character": "Concepci\u00f3n Arenal", "credit_id": "52fe4bf59251416c75113355", "gender": 1, "id": 3480, "name": "Blanca Portillo", "order": 0, "profile_path": "/i07cqKKYOi1MydmthPnFNpzmkx.jpg"}, {"cast_id": 3, "character": "Florentina", "credit_id": "52fe4bf59251416c75113359", "gender": 1, "id": 131085, "name": "Diana G\u00f3mez", "order": 1, "profile_path": "/oa51HMWMb2DFAVT9NaKyWoux5ti.jpg"}, {"cast_id": 4, "character": "Juana de Vega", "credit_id": "52fe4bf59251416c7511335d", "gender": 1, "id": 33409, "name": "Mabel Rivera", "order": 2, "profile_path": "/A4MguHpfBb5yVz0MJ5EW11BxxJx.jpg"}, {"cast_id": 5, "character": "Catalina", "credit_id": "52fe4bf59251416c75113361", "gender": 0, "id": 125286, "name": "Candela Fern\u00e1ndez", "order": 3, "profile_path": "/mZSylqTy0Hq5LMXbk8JVwV6OBf.jpg"}, {"cast_id": 6, "character": "Garrido", "credit_id": "52fe4bf59251416c75113365", "gender": 0, "id": 15600, "name": "Pere Arquillu\u00e9", "order": 4, "profile_path": null}, {"cast_id": 7, "character": "Narrador", "credit_id": "52fe4bf59251416c75113369", "gender": 0, "id": 123212, "name": "Ferm\u00ed Reixach", "order": 5, "profile_path": "/4VOKbiAlPm0kcq4RXMUcYLntGRR.jpg"}, {"cast_id": 8, "character": "", "credit_id": "52fe4bf59251416c7511336d", "gender": 0, "id": 1065175, "name": "Carlos Olalla", "order": 6, "profile_path": "/e7hHyAOTkZa6mFW2g1rJcErPcmH.jpg"}], "crew": [{"credit_id": "52fe4bf59251416c75113351", "department": "Directing", "gender": 1, "id": 133526, "job": "Director", "name": "Laura Ma\u00f1\u00e1", "profile_path": "/sGPD0LCcnMAe21HRctTNZbMgGiC.jpg"}]}}