{"adult": false, "backdrop_path": null, "belongs_to_collection": null, "budget": 0, "genres": [{"id": 37, "name": "Western"}], "homepage": null, "id": 150710, "imdb_id": "tt0196889", "original_language": "it", "original_title": "Quelle sporche anime dannate", "overview": "Luigi Batzella directed this spaghetti western under the pseudonym \"Paolo Solvay.\" Gioffredo Scarciofolo stars (using his standard alias, \"Jeff Cameron\") as Tom Carter, whose brother was murdered and robbed by the evil Ringo Brown (William Mayor) shortly after taking all his money out of the bank to marry Cora (Krista Nell), a local saloon girl. Tom is suspicious of Cora, but she helps him unmask the real killer.", "popularity": 0.726, "poster_path": "/uIhUjus3bjDhWfD1LP5bdWZexqU.jpg", "production_companies": [{"id": 17740, "logo_path": null, "name": "Constitution Films", "origin_country": ""}], "production_countries": [{"iso_3166_1": "IT", "name": "Italy"}], "release_date": "1971-11-14", "revenue": 0, "runtime": 91, "spoken_languages": [{"iso_639_1": "it", "name": "Italiano"}], "status": "Released", "tagline": "", "title": "Paid in Blood", "video": false, "vote_average": 5.0, "vote_count": 1, "keywords": {"keywords": [{"id": 1585, "name": "snake"}, {"id": 166529, "name": "winchester rifle"}]}, "similar": {"page": 1, "results": [{"id": 22970, "video": false, "vote_count": 4727, "vote_average": 6.5, "title": "The Cabin in the Woods", "release_date": "2012-04-12", "original_language": "en", "original_title": "The Cabin in the Woods", "genre_ids": [35, 27, 53], "backdrop_path": "/214TKe8WBBbFXVrBRV9RECeE4oW.jpg", "adult": false, "overview": "Five college friends spend the weekend at a remote cabin in the woods, where they get more than they bargained for. Together, they must discover the truth behind the cabin in the woods.", "poster_path": "/utfJuX6DfR28Mv2FMfnPFAYOmTU.jpg", "popularity": 20.491}, {"id": 72559, "video": false, "vote_count": 4091, "vote_average": 5.5, "title": "G.I. Joe: Retaliation", "release_date": "2013-03-26", "original_language": "en", "original_title": "G.I. Joe: Retaliation", "genre_ids": [28, 12, 878, 53], "backdrop_path": "/b9OVFl48ZV2oTLzACSwBpNrCUhJ.jpg", "adult": false, "overview": "Framed for crimes against the country, the G.I. Joe team is terminated by Presidential order. This forces the G.I. Joes into not only fighting their mortal enemy Cobra; they are forced to contend with threats from within the government that jeopardize their very existence.", "poster_path": "/iFWxbu2LLtfaWv6D1TSrY11huTe.jpg", "popularity": 23.132}, {"adult": false, "backdrop_path": "/ieJ5ImFoJILNULvnIpbulAln7Lr.jpg", "genre_ids": [12, 28, 53, 878], "id": 14869, "original_language": "en", "original_title": "G.I. Joe: The Rise of Cobra", "overview": "From the Egyptian desert to deep below the polar ice caps, the elite G.I. JOE team uses the latest in next-generation spy and military equipment to fight the corrupt arms dealer Destro and the growing threat of the mysterious Cobra organization to prevent them from plunging the world into chaos.", "poster_path": "/29eW5c5DaCFQejdt9V14RrA51yD.jpg", "release_date": "2009-08-04", "title": "G.I. Joe: The Rise of Cobra", "video": false, "vote_average": 5.7, "vote_count": 3082, "popularity": 22.639}, {"id": 278927, "video": false, "vote_count": 5705, "vote_average": 6.8, "title": "The Jungle Book", "release_date": "2016-04-07", "original_language": "en", "original_title": "The Jungle Book", "genre_ids": [12, 18, 14, 10751], "backdrop_path": "/eIOTsGg9FCVrBc4r2nXaV61JF4F.jpg", "adult": false, "overview": "A man-cub named Mowgli fostered by wolves. After a threat from the tiger Shere Khan, Mowgli is forced to flee the jungle, by which he embarks on a journey of self discovery with the help of the panther, Bagheera and the free-spirited bear, Baloo.", "poster_path": "/vOipe2myi26UDwP978hsYOrnUWC.jpg", "popularity": 36.281}, {"id": 9502, "video": false, "vote_count": 6771, "vote_average": 7.1, "title": "Kung Fu Panda", "release_date": "2008-06-04", "original_language": "en", "original_title": "Kung Fu Panda", "genre_ids": [12, 16, 35, 10751], "backdrop_path": "/pmLEmMLYCreFAxfdCt5uO1wDgSi.jpg", "adult": false, "overview": "When the Valley of Peace is threatened, lazy Po the panda discovers his destiny as the \"chosen one\" and trains to become a kung fu hero, but transforming the unsleek slacker into a brave warrior won't be easy. It's up to Master Shifu and the Furious Five -- Tigress, Crane, Mantis, Viper and Monkey -- to give it a try.", "poster_path": "/mk3UyyaLyXhgIhmLji25OUPXvGR.jpg", "popularity": 23.634}, {"id": 4011, "video": false, "vote_count": 3507, "vote_average": 7.3, "title": "Beetlejuice", "release_date": "1988-02-29", "original_language": "en", "original_title": "Beetlejuice", "genre_ids": [35, 14], "backdrop_path": "/upAwc1kPQJU1ZWeMgEWV8Lp6CWb.jpg", "adult": false, "overview": "Thanks to an untimely demise via drowning, a young couple end up as poltergeists in their New England farmhouse, where they fail to meet the challenge of scaring away the insufferable new owners, who want to make drastic changes. In desperation, the undead newlyweds turn to an expert frightmeister, but he's got a diabolical agenda of his own.", "poster_path": "/gWnW7vxm8yr01TVLQhL4aI02orp.jpg", "popularity": 34.958}, {"id": 9360, "video": false, "vote_count": 1328, "vote_average": 4.9, "title": "Anaconda", "release_date": "1997-04-11", "original_language": "en", "original_title": "Anaconda", "genre_ids": [12, 27, 53], "backdrop_path": "/uAnJipu2hzZ04fY68d2UoB9eAa6.jpg", "adult": false, "overview": "A \"National Geographic\" film crew is taken hostage by an insane hunter, who takes them along on his quest to capture the world's largest - and deadliest - snake.", "poster_path": "/yGku6UoX3MKbjnVbcUtrJcyghyi.jpg", "popularity": 18.682}, {"adult": false, "backdrop_path": "/73QE77hOalLxUiheYJrk9XwHL4h.jpg", "genre_ids": [28, 53], "id": 7555, "original_language": "en", "original_title": "Rambo", "overview": "When governments fail to act on behalf of captive missionaries, ex-Green Beret John James Rambo sets aside his peaceful existence along the Salween River in a war-torn region of Thailand to take action.  Although he's still haunted by violent memories of his time as a U.S. soldier during the Vietnam War, Rambo can hardly turn his back on the aid workers who so desperately need his help.", "poster_path": "/ec1m7YgBYb4os06OSNW3QBaNYqZ.jpg", "release_date": "2008-01-24", "title": "Rambo", "video": false, "vote_average": 6.5, "vote_count": 2005, "popularity": 28.245}, {"id": 672, "video": false, "vote_count": 13072, "vote_average": 7.7, "title": "Harry Potter and the Chamber of Secrets", "release_date": "2002-11-13", "original_language": "en", "original_title": "Harry Potter and the Chamber of Secrets", "genre_ids": [12, 14], "backdrop_path": "/avqzwKn89VetTEvAlBePt3Us6Al.jpg", "adult": false, "overview": "Cars fly, trees fight back, and a mysterious house-elf comes to warn Harry Potter at the start of his second year at Hogwarts. Adventure and danger await when bloody writing on a wall announces: The Chamber Of Secrets Has Been Opened. To save Hogwarts will require all of Harry, Ron and Hermione\u2019s magical abilities and courage.", "poster_path": "/sdEOH0992YZ0QSxgXNIGLq1ToUi.jpg", "popularity": 51.103}, {"adult": false, "backdrop_path": "/nSfPTyb342NQxbCZnWW8IUSVld.jpg", "genre_ids": [12, 28, 27, 53], "id": 11237, "original_language": "en", "original_title": "Anacondas: The Hunt for the Blood Orchid", "overview": "The blood orchid - A rare flower that holds the secret of eternal life and a fortune to the pharmaceutical company that finds it. Led by a two-fisted soldier of fortune, a scientific expedition is sent deep into the jungles of Borneo to locate and bring back samples of the legendary plant. Battling their way upriver, the explorers brave poisonous insects, ferocious crocodiles and savage headhunters, unaware they're being stalked by an even greater danger: a nest of giant anacondas, voracious, fifty-foot-long flesh-eaters who'll stop at nothing to protect their breeding ground, the blood orchid's home.", "poster_path": "/kgTZK00U6fMMXj8C4G6174ZZUe7.jpg", "release_date": "2004-08-26", "title": "Anacondas: The Hunt for the Blood Orchid", "video": false, "vote_average": 5.2, "vote_count": 456, "popularity": 13.388}, {"adult": false, "backdrop_path": "/tS3ms6HM52hLLU3eRdjVPSgSS4w.jpg", "genre_ids": [18, 36, 10749], "id": 8095, "original_language": "en", "original_title": "Cleopatra", "overview": "Determined to hold on to the throne, Cleopatra seduces the Roman emperor Julius Caesar. When Caesar is murdered, she redirects her attentions to his general, Marc Antony, who vows to take power\u2014but Caesar\u2019s successor has other plans.", "poster_path": "/bj7rUGUewofA9cpHt1h36gvDFfy.jpg", "release_date": "1963-06-12", "title": "Cleopatra", "video": false, "vote_average": 7.0, "vote_count": 312, "popularity": 17.932}, {"id": 65851, "video": false, "vote_count": 296, "vote_average": 6.0, "title": "Jackass 3.5", "release_date": "2011-08-03", "original_language": "en", "original_title": "Jackass 3.5", "genre_ids": [28, 35, 99], "backdrop_path": "/uqq2Pdb9eWXQz0Fe8IMpDvbOutD.jpg", "adult": false, "overview": "Jackass 3.5 is a 2011 sequel to Jackass 3D, composed of unused footage shot during the filming of Jackass 3D and interviews from cast and crew", "poster_path": "/ppjN0BZaOJ6aHMXsECHJ0dpFb8Z.jpg", "popularity": 12.807}, {"id": 503619, "video": false, "vote_count": 612, "vote_average": 5.6, "title": "The Package", "release_date": "2018-08-10", "original_language": "en", "original_title": "The Package", "genre_ids": [35], "backdrop_path": "/h7ZsXi0b7ikKNLnvdEtwVZcphZb.jpg", "adult": false, "overview": "When a group of teenagers goes on a spring break camping trip, an unfortunate accident sets off a race to save their friend\u2019s most prized possession.", "poster_path": "/70mP0nwUmtaL44Y8aoUn6uBjJON.jpg", "popularity": 14.824}, {"id": 14551, "video": false, "vote_count": 142, "vote_average": 7.4, "title": "Winchester '73", "release_date": "1950-07-12", "original_language": "en", "original_title": "Winchester '73", "genre_ids": [37], "backdrop_path": "/k4nWsAlAbzmcEKHcOn7qC4J0dLD.jpg", "adult": false, "overview": "Lin McAdam rides into town on the trail of Dutch Henry Brown, only to find himself in a shooting competition against him. McAdam wins the prize, a one-in-a-thousand Winchester rifle, but Dutch steals it and leaves town. McAdam follows, intent on settling his old quarrel, while the rifle keeps changing hands and touching a number of lives.", "poster_path": "/3t2X0rCcn6wxkOva06Io0NFkxYp.jpg", "popularity": 11.23}, {"id": 11471, "video": false, "vote_count": 196, "vote_average": 7.5, "title": "A Better Tomorrow", "release_date": "1986-08-02", "original_language": "cn", "original_title": "\u82f1\u96c4\u672c\u8272", "genre_ids": [28, 80, 18], "adult": false, "overview": "A reforming ex-gangster tries to reconcile with his estranged policeman brother, but the ties to his former gang are difficult to break.", "poster_path": "/55lvNzpXvLgIXJJEmzisWFovkTO.jpg", "popularity": 12.03}, {"id": 4192, "video": false, "vote_count": 287, "vote_average": 7.0, "title": "Death on the Nile", "release_date": "1978-10-06", "original_language": "en", "original_title": "Death on the Nile", "genre_ids": [9648], "backdrop_path": "/j58X2xzDjrHBk6VzRIfHNPYtgub.jpg", "adult": false, "overview": "As Hercule Poirot enjoys a luxurious cruise down the Nile, a newlywed heiress is found murdered on board. Can Poirot identify the killer before the ship reaches the end of its journey?", "poster_path": "/8eOWgeWrdM9cz7JR0LNp6R50j3l.jpg", "popularity": 11.094}, {"id": 423453, "video": false, "vote_count": 163, "vote_average": 5.6, "title": "Sahara", "release_date": "2017-02-01", "original_language": "fr", "original_title": "Sahara", "genre_ids": [12, 16, 35, 10751], "backdrop_path": "/cVaCZtH5kl0cftYgH3l8j0q54nF.jpg", "adult": false, "overview": "Two clans of snakes cohabit in the desert. Beautiful green serpents that live under the shelter of an oasis, protected and venerated by men and poisonous snakes that survive in the sand, dust and heat, hunted and killed by the Tuaregs. Here is the story of Ajar, a young poisonous serpent, laughed at by his peers because he still has not done his first moult and that of Eva, rebellious princess of the oasis who wants to escape to escape an arranged marriage. These two will meet and fall in love. Alas, Eva will be kidnapped by the Tuaregs and Ajar, accompanied by her best friend, Pitt the Scorpion, will have to cross the ruthless Sahara to save Eva from the terrible fate awaiting her.", "poster_path": "/turUYgFnjfsjPssIeWSLiNJFIla.jpg", "popularity": 10.191}, {"id": 326, "video": false, "vote_count": 956, "vote_average": 5.2, "title": "Snakes on a Plane", "release_date": "2006-08-06", "original_language": "en", "original_title": "Snakes on a Plane", "genre_ids": [28, 80, 18, 27, 9648, 53], "backdrop_path": "/iF5ix0kDBBdcJpMTAwa41znmxC1.jpg", "adult": false, "overview": "America is on the search for the murderer Eddie Kim. Sean Jones must fly to L.A. to testify in a hearing against Kim. Accompanied by FBI agent Neville Flynn, the flight receives some unexpected visitors.", "poster_path": "/dbt9YEAPZjd0LbaK1r8UnOZp2Uv.jpg", "popularity": 11.45}, {"id": 10253, "video": false, "vote_count": 181, "vote_average": 4.0, "title": "Dragon Wars: D-War", "release_date": "2007-02-08", "original_language": "ko", "original_title": "\ub514\uc6cc", "genre_ids": [28, 18, 14, 27, 878, 53], "backdrop_path": "/yQcyzgQwwyLL625kmVi2do3fKOp.jpg", "adult": false, "overview": "Based on the Korean legend, unknown creatures will return and devastate the planet. Reporter Ethan Kendrick is called in to investigate the matter...", "poster_path": "/cYFYF4zDRb6GrAupky0EVlp82IN.jpg", "popularity": 8.244}, {"id": 103731, "video": false, "vote_count": 1705, "vote_average": 7.0, "title": "Mud", "release_date": "2013-05-01", "original_language": "en", "original_title": "Mud", "genre_ids": [18], "backdrop_path": "/cct5idxwiY3wWtGSKvJ09iHNIvf.jpg", "adult": false, "overview": "Two boys find a fugitive hiding out on an island in the Mississippi River and form a pact to help him reunite with his lover and escape.", "poster_path": "/pKElR1ssiqRSYb9tylSt46UXOFx.jpg", "popularity": 13.057}], "total_pages": 9, "total_results": 164}, "recommendations": {"page": 1, "results": [], "total_pages": 1, "total_results": 0}, "credits": {"cast": [{"cast_id": 2, "character": "Tom Carter", "credit_id": "52fe4aea9251416c910c9f75", "gender": 2, "id": 1046524, "name": "Jeff Cameron", "order": 0, "profile_path": "/8UiTUQxv6wgCi7g7yt3XjPOHWxQ.jpg"}, {"cast_id": 9, "character": "Lee Rast", "credit_id": "5c7f0b95c3a3684e8cd2d736", "gender": 2, "id": 31779, "name": "Donald O'Brien", "order": 1, "profile_path": "/gyzoMi0Fj3GxCcauQkyxnS0CFx5.jpg"}, {"cast_id": 4, "character": "Jack Buchanan", "credit_id": "52fe4aea9251416c910c9f7d", "gender": 2, "id": 12006, "name": "Alfredo Rizzo", "order": 2, "profile_path": "/qXNtcqOVtUMYjJedqAlNzPiQg1w.jpg"}, {"cast_id": 8, "character": "Cora", "credit_id": "53f44ad10e0a267f7d0015bc", "gender": 1, "id": 33802, "name": "Krista Nell", "order": 3, "profile_path": "/pvDIV0ZoIUHnxlGuRx7PQ6dzlHW.jpg"}, {"cast_id": 6, "character": "Julie Joyce", "credit_id": "52fe4aeb9251416c910c9f85", "gender": 0, "id": 1130579, "name": "Sofia Kammara", "order": 4, "profile_path": null}, {"cast_id": 7, "character": "Zelda, Shannon's Woman", "credit_id": "52fe4aeb9251416c910c9f89", "gender": 1, "id": 224433, "name": "Esmeralda Barros", "order": 5, "profile_path": "/1p3QoiCx0Do909uf2HIVnfJSFsV.jpg"}, {"cast_id": 10, "character": "Doctor Lassiter", "credit_id": "5d03c2aa0e0a263f96d22226", "gender": 0, "id": 235950, "name": "Edilio Kim", "order": 6, "profile_path": null}, {"cast_id": 11, "character": "Bill Joyce", "credit_id": "5d03c2d10e0a26134acbf8d4", "gender": 0, "id": 1757591, "name": "William Mayor", "order": 7, "profile_path": null}, {"cast_id": 12, "character": "Saloon Girl", "credit_id": "5d03c2da9251413a9bb950de", "gender": 0, "id": 2337853, "name": "Laila Shed", "order": 8, "profile_path": null}, {"cast_id": 13, "character": "Jerry Shannon (as Marco Devis)", "credit_id": "5d03c2ed0e0a260b0acc708e", "gender": 0, "id": 55647, "name": "Gianfranco Clerici", "order": 9, "profile_path": null}, {"cast_id": 14, "character": "Jerry Carter", "credit_id": "5d03c2f80e0a2632c3cd0d20", "gender": 2, "id": 556750, "name": "Lorenzo Piani", "order": 10, "profile_path": "/nZKk9r3Do3nx8gVtRzQIhnf4TCl.jpg"}, {"cast_id": 15, "character": "Agent for Greenwaters Valley Co.", "credit_id": "5d03c3029251413ec5b92f19", "gender": 2, "id": 563651, "name": "Alessandro Perrella", "order": 11, "profile_path": "/adF09I4tPJeGIr5eY5iJaBNX7D1.jpg"}, {"cast_id": 16, "character": "Robber at Bar", "credit_id": "5d03c30bc3a368445b2872f4", "gender": 2, "id": 240908, "name": "Giulio Baraghini", "order": 12, "profile_path": "/ceGfGXe7eOHnv8wRiuh45u7uftl.jpg"}, {"cast_id": 17, "character": "Ringo Brown #1", "credit_id": "5d03c316c3a368445b2872fb", "gender": 2, "id": 101324, "name": "Franco Daddi", "order": 13, "profile_path": null}, {"cast_id": 18, "character": "James, Saloon Keeper", "credit_id": "5d03c3210e0a261fbbd3b575", "gender": 0, "id": 1462357, "name": "Salvatore Campochiaro", "order": 14, "profile_path": null}, {"cast_id": 19, "character": "Sheriff", "credit_id": "5d03c32f9251413a9bb9514b", "gender": 2, "id": 43241, "name": "Attilio Dottesio", "order": 15, "profile_path": "/Qe1u3NCklcxRKaua9JRVVRDEjy.jpg"}, {"cast_id": 20, "character": "Ringo Brown #2 (as Jean Claude Jabes)", "credit_id": "5d03c339c3a368431e2089ef", "gender": 0, "id": 2003132, "name": "Gianclaudio Jabes", "order": 16, "profile_path": null}, {"cast_id": 21, "character": "Shannon's Henchman", "credit_id": "5d03c3439251413a9bb95164", "gender": 0, "id": 1140849, "name": "Sergio Baldacchino", "order": 17, "profile_path": null}, {"cast_id": 22, "character": "Pablo", "credit_id": "5d03c34d0e0a261fbbd3b5b4", "gender": 2, "id": 30891, "name": "Xiro Papas", "order": 18, "profile_path": "/fciAEwgY2QWlQiBbcHWewLlIF7V.jpg"}, {"cast_id": 23, "character": "Alec Quinter (uncredited)", "credit_id": "5d03c3580e0a2632c3cd0db4", "gender": 2, "id": 100427, "name": "Geoffrey Copleston", "order": 19, "profile_path": "/de1nvYgJZ5vD566eSE0NuquMTUY.jpg"}, {"cast_id": 24, "character": "Robber at Bar (uncredited)", "credit_id": "5d03c3620e0a260b0acc7125", "gender": 0, "id": 1020326, "name": "Mauro Mannatrizio", "order": 20, "profile_path": null}, {"cast_id": 25, "character": "Bald Robber at Bar (uncredited)", "credit_id": "5d03c36bc3a3687b57201f97", "gender": 0, "id": 581381, "name": "Angelo Susani", "order": 21, "profile_path": null}, {"cast_id": 26, "character": "Bartender (uncredited)", "credit_id": "5d03c3740e0a263f96d22370", "gender": 2, "id": 235949, "name": "Gino Turini", "order": 22, "profile_path": null}, {"cast_id": 27, "character": "Outlaw (uncredited)", "credit_id": "5d03c37e9251413f2db97022", "gender": 0, "id": 1757595, "name": "Bruno Ukmar", "order": 23, "profile_path": null}], "crew": [{"credit_id": "52fe4aea9251416c910c9f71", "department": "Directing", "gender": 0, "id": 102063, "job": "Director", "name": "Luigi Batzella", "profile_path": null}, {"credit_id": "5d03c38f0e0a261357cc20cc", "department": "Writing", "gender": 0, "id": 1336069, "job": "Writer", "name": "Aldo Barni", "profile_path": null}, {"credit_id": "5d03c39792514163d1bb60af", "department": "Writing", "gender": 0, "id": 574029, "job": "Writer", "name": "Ian Danby", "profile_path": null}, {"credit_id": "5d03c3aa92514117b4bb5ca0", "department": "Production", "gender": 0, "id": 1511538, "job": "Production Supervisor", "name": "Mario De Rosa", "profile_path": null}, {"credit_id": "5d03c3b592514117b4bb5ca7", "department": "Production", "gender": 2, "id": 235949, "job": "Producer", "name": "Gino Turini", "profile_path": null}, {"credit_id": "5d03c3be0e0a26333ad2274a", "department": "Sound", "gender": 2, "id": 1120165, "job": "Music", "name": "Elsio Mancuso", "profile_path": null}, {"credit_id": "5d03c3c7c3a368623026c5f1", "department": "Camera", "gender": 0, "id": 1491993, "job": "Director of Photography", "name": "Giorgio Montagnani", "profile_path": null}, {"credit_id": "5d03c3cec3a368431e208a58", "department": "Editing", "gender": 0, "id": 1046519, "job": "Editor", "name": "Piera Bruni", "profile_path": null}, {"credit_id": "5d03c3d80e0a26333ad22759", "department": "Art", "gender": 0, "id": 2337854, "job": "Production Design", "name": "Giovanni Catrambone", "profile_path": null}, {"credit_id": "5d03c3e2c3a3684adb269368", "department": "Art", "gender": 0, "id": 1958069, "job": "Set Decoration", "name": "Alfredo D'Angelo", "profile_path": null}, {"credit_id": "5d03c3ea0e0a261fbbd3b688", "department": "Costume & Make-Up", "gender": 0, "id": 1711652, "job": "Makeup Artist", "name": "Liliana Dulac", "profile_path": null}, {"credit_id": "5d03c3f60e0a26134acbfade", "department": "Production", "gender": 0, "id": 1511538, "job": "Production Manager", "name": "Mario De Rosa", "profile_path": null}, {"credit_id": "5d03c4000e0a26615bccf417", "department": "Production", "gender": 2, "id": 235949, "job": "Unit Production Manager", "name": "Gino Turini", "profile_path": null}, {"credit_id": "5d03c40f0e0a26615bccf437", "department": "Directing", "gender": 0, "id": 1291724, "job": "Assistant Director", "name": "Giovanni Scolaro", "profile_path": null}, {"credit_id": "5d03c41b0e0a2632c3cd0fc3", "department": "Directing", "gender": 0, "id": 89275, "job": "Director", "name": "Massimo Pupillo", "profile_path": null}, {"credit_id": "5d03c4289251413ec5b92ffa", "department": "Art", "gender": 0, "id": 1684959, "job": "Set Dresser", "name": "Emilio Zago", "profile_path": null}, {"credit_id": "5d03c43292514162bcc087e0", "department": "Sound", "gender": 0, "id": 2014348, "job": "Sound", "name": "Ivo Benedetti", "profile_path": null}, {"credit_id": "5d03c43d92514162bcc087e5", "department": "Crew", "gender": 0, "id": 32672, "job": "Special Effects", "name": "Aldo Gasparri", "profile_path": null}, {"credit_id": "5d03c4480e0a26134acbfb3d", "department": "Crew", "gender": 0, "id": 1024363, "job": "Stunt Coordinator", "name": "Franco Pasquetto", "profile_path": null}, {"credit_id": "5d03c4540e0a26333ad227ae", "department": "Camera", "gender": 0, "id": 2337855, "job": "Assistant Camera", "name": "Roberto Cipriani", "profile_path": null}, {"credit_id": "5d03c4600e0a26615bccf4a1", "department": "Costume & Make-Up", "gender": 0, "id": 2088057, "job": "Wardrobe Master", "name": "Enide Candidi", "profile_path": null}, {"credit_id": "5d03c46c92514117b4bb5d9e", "department": "Production", "gender": 0, "id": 2337856, "job": "Production Assistant", "name": "Emilio Cannaroli", "profile_path": null}, {"credit_id": "5d03c4760e0a261357cc2270", "department": "Directing", "gender": 0, "id": 2319784, "job": "Continuity", "name": "Ornella Cataldo", "profile_path": null}]}}