{"adult": false, "backdrop_path": "/hRWNhEBdqa3YR1VaJf3qvMgBl4X.jpg", "belongs_to_collection": null, "budget": 0, "genres": [{"id": 35, "name": "Comedy"}, {"id": 18, "name": "Drama"}], "homepage": null, "id": 15148, "imdb_id": "tt0489225", "original_language": "en", "original_title": "Man in the Chair", "overview": "The story of an aspiring young filmmaker's encounter with a grumpy fount of movie lore.", "popularity": 3.886, "poster_path": "/eTwLNYKQTTs7xMGPNnhnHr6Vcx2.jpg", "production_companies": [{"id": 3043, "logo_path": null, "name": "Elbow Grease Pictures", "origin_country": ""}], "production_countries": [{"iso_3166_1": "US", "name": "United States of America"}], "release_date": "2007-01-27", "revenue": 0, "runtime": 107, "spoken_languages": [{"iso_639_1": "en", "name": "English"}], "status": "Released", "tagline": "", "title": "Man in the Chair", "video": false, "vote_average": 6.2, "vote_count": 9, "keywords": {"keywords": [{"id": 10183, "name": "independent film"}]}, "similar": {"page": 1, "results": [{"adult": false, "backdrop_path": "/kQyeXce1ozYryHichnEserMAByN.jpg", "genre_ids": [28, 80, 18, 53], "id": 11564, "original_language": "en", "original_title": "Class of 1984", "overview": "Andy is a new teacher at a inner city high school that is like nothing he has ever seen before. There is metal detectors at the front door and everything is basically run by a tough kid named Peter Stegman. Soon, Andy and Stegman become enemies and Stegman will stop at nothing to protect his turf and drug dealing business.", "poster_path": "/whDnqSYg4yYgVzbVhLSjzC5piUR.jpg", "release_date": "1982-08-20", "title": "Class of 1984", "video": false, "vote_average": 6.2, "vote_count": 121, "popularity": 9.407}, {"id": 4638, "video": false, "vote_count": 4426, "vote_average": 7.5, "title": "Hot Fuzz", "release_date": "2007-02-14", "original_language": "en", "original_title": "Hot Fuzz", "genre_ids": [28, 35, 80], "backdrop_path": "/zuskekrfW3gj9ttXNVhfdHe5n22.jpg", "adult": false, "overview": "As a former London constable, Nicholas Angel finds it difficult to adapt to his new assignment in the sleepy British village of Sandford. Not only does he miss the excitement of the big city, but he also has a well-meaning oaf for a partner. However, when a series of grisly accidents rocks Sandford, Angel smells something rotten in the idyllic village.", "poster_path": "/5Jx6s6VXnunh8wCLgR0YgjwSgjh.jpg", "popularity": 25.234}, {"adult": false, "backdrop_path": "/7RRuRcGuWkZGuRyYugfXn0Fgrrr.jpg", "genre_ids": [28, 80, 18, 53], "id": 949, "original_language": "en", "original_title": "Heat", "overview": "Obsessive master thief, Neil McCauley leads a top-notch crew on various daring heists throughout Los Angeles while determined detective, Vincent Hanna pursues him without rest. Each man recognizes and respects the ability and the dedication of the other even though they are aware their cat-and-mouse game may end in violence.", "poster_path": "/6pmLVffM9jEYK7VqDJqPblMxfEY.jpg", "release_date": "1995-12-15", "title": "Heat", "video": false, "vote_average": 7.8, "vote_count": 3610, "popularity": 21.48}, {"adult": false, "backdrop_path": "/2Tawvc0JMmR9nBXD3nhBThTQP2X.jpg", "genre_ids": [53, 18, 80, 27], "id": 1359, "original_language": "en", "original_title": "American Psycho", "overview": "A wealthy New York investment banking executive hides his alternate psychopathic ego from his co-workers and friends as he escalates deeper into his illogical, gratuitous fantasies.", "poster_path": "/qXsylPM4Lr5397R3eHrfqHhTUNc.jpg", "release_date": "2000-04-13", "title": "American Psycho", "video": false, "vote_average": 7.4, "vote_count": 4911, "popularity": 20.069}, {"id": 101, "video": false, "vote_count": 8645, "vote_average": 8.3, "title": "L\u00e9on: The Professional", "release_date": "1994-09-14", "original_language": "en", "original_title": "L\u00e9on: The Professional", "genre_ids": [28, 80, 18], "backdrop_path": "/dXQ7HILRK1Tg33RT64JwbQI7Osh.jpg", "adult": false, "overview": "L\u00e9on, the top hit man in New York, has earned a rep as an effective \"cleaner\". But when his next-door neighbors are wiped out by a loose-cannon DEA agent, he becomes the unwilling custodian of 12-year-old Mathilda. Before long, Mathilda's thoughts turn to revenge, and she considers following in L\u00e9on's footsteps.", "poster_path": "/gE8S02QUOhVnAmYu4tcrBlMTujz.jpg", "popularity": 42.005}, {"id": 83542, "video": false, "vote_count": 4860, "vote_average": 6.8, "title": "Cloud Atlas", "release_date": "2012-10-26", "original_language": "en", "original_title": "Cloud Atlas", "genre_ids": [18, 878], "backdrop_path": "/2ZA03KiD4jePTNBTJjGGFTNQPMA.jpg", "adult": false, "overview": "A set of six nested stories spanning time between the 19th century and a distant post-apocalyptic future. Cloud Atlas explores how the actions and consequences of individual lives impact one another throughout the past, the present and the future. Action, mystery and romance weave through the story as one soul is shaped from a killer into a hero and a single act of kindness ripples across centuries to inspire a revolution in the distant future.  Based on the award winning novel by David Mitchell. Directed by Tom Tykwer and the Wachowskis.", "poster_path": "/8VNiyIp67ZxhpNgdrwACW0jgvP2.jpg", "popularity": 16.718}, {"adult": false, "backdrop_path": "/s12HEmmkJfI2mjltI61hGm5kubD.jpg", "genre_ids": [35, 18, 10749], "id": 20770, "original_language": "en", "original_title": "But I'm a Cheerleader", "overview": "Megan is an all-American girl. A cheerleader. She has a boyfriend. But Megan doesn't like kissing her boyfriend very much. And she's pretty touchy with her cheerleader friends. Her conservative parents worry that she must be a lesbian and send her off to \"sexual redirection\" school, where she must, with other lesbians and gays learn how to be straight.", "poster_path": "/eDGH7CHSdkrYcuUJV1e0WS9DlQL.jpg", "release_date": "1999-12-09", "title": "But I'm a Cheerleader", "video": false, "vote_average": 6.8, "vote_count": 246, "popularity": 10.067}, {"id": 298312, "video": false, "vote_count": 2921, "vote_average": 6.2, "title": "The Visit", "release_date": "2015-09-10", "original_language": "en", "original_title": "The Visit", "genre_ids": [27, 9648, 53], "backdrop_path": "/gbJlEeALVGo7kx8bC2q4EFWX1Xy.jpg", "adult": false, "overview": "The terrifying story of a brother and sister who are sent to their grandparents' remote Pennsylvania farm for a weeklong trip. Once the children discover that the elderly couple is involved in something deeply disturbing, they see their chances of getting back home are growing smaller every day.", "poster_path": "/32tNtTEQ1vIOLm1hEOSFkVwJT5D.jpg", "popularity": 20.148}, {"adult": false, "backdrop_path": "/9e5e7dJTMxQeF7zNx0CiJmxXE1I.jpg", "genre_ids": [27, 878, 53], "id": 11309, "original_language": "en", "original_title": "Hardware", "overview": "Mark 13 is a government-built killing machine programmed with artificial intelligence, able to repair and recharge itself from any energy source. Through a series of coincidences, the cyborg's head ends up in the home of a sculptress as a bizarre Christmas present from her boyfriend. Once inside its new home, the cyborg promptly reconstructs the rest of its body using a variety of household utensils and proceeds to go on a murderous rampage.", "poster_path": "/nsFm5xniViTVr1oVUpKmgvlAOEA.jpg", "release_date": "1990-09-14", "title": "Hardware", "video": false, "vote_average": 5.7, "vote_count": 145, "popularity": 11.259}, {"adult": false, "backdrop_path": "/tG7ydFmDr2Y1kecUCM6foFxmJjP.jpg", "genre_ids": [27, 37, 35], "id": 10212, "original_language": "en", "original_title": "Ravenous", "overview": "Upon receiving reports of missing persons at Fort Spencer, a remote Army outpost on the Western frontier, Capt. John Boyd investigates. After arriving at his new post, Boyd and his regiment aid a wounded frontiersman who recounts a horrifying tale of a wagon train murdered by its supposed guide -- a vicious U.S. Army colonel gone rogue. Fearing the worst, the regiment heads out into the wilderness to verify the gruesome claims.", "poster_path": "/spwvStEA4CraTXPOcONrDzncXOZ.jpg", "release_date": "1999-03-16", "title": "Ravenous", "video": false, "vote_average": 6.8, "vote_count": 270, "popularity": 10.125}, {"id": 317744, "video": false, "vote_count": 244, "vote_average": 6.0, "title": "Careful What You Wish For", "release_date": "2015-05-06", "original_language": "en", "original_title": "Careful What You Wish For", "genre_ids": [18, 53], "backdrop_path": "/7PAQ85UXQ9IhZ5ZJIC1uC0h6PZK.jpg", "adult": false, "overview": "A guy gets more than he bargained for after entering into an affair with the wife of an investment banker. Soon, a suspicious death and substantial life insurance policy embroil him in a scandal.", "poster_path": "/hQCLtJaGcEWLp7zKECnC3cy8W4i.jpg", "popularity": 13.897}, {"adult": false, "backdrop_path": "/lcB6jRNms95ySvVTCaH8pdFJq4j.jpg", "genre_ids": [80, 18, 53], "id": 22323, "original_language": "en", "original_title": "The Boys Next Door", "overview": "Roy and Bo leave their small town the weekend after graduation for a short road trip to LA. Soon, they find themselves lashing out and leaving a trial of bodies behind them. The violence escalates throughout.", "poster_path": "/pnLU9z0fLIzIRa35ULIvlQAAwho.jpg", "release_date": "1985-10-01", "title": "The Boys Next Door", "video": false, "vote_average": 6.3, "vote_count": 28, "popularity": 5.945}, {"id": 185, "video": false, "vote_count": 7609, "vote_average": 8.2, "title": "A Clockwork Orange", "release_date": "1971-12-18", "original_language": "en", "original_title": "A Clockwork Orange", "genre_ids": [18, 878], "backdrop_path": "/unMc1jEyqCnzba976GviSFKGagt.jpg", "adult": false, "overview": "In a near-future Britain, young Alexander DeLarge and his pals get their kicks beating and raping anyone they please. When not destroying the lives of others, Alex swoons to the music of Beethoven. The state, eager to crack down on juvenile crime, gives an incarcerated Alex the option to undergo an invasive procedure that'll rob him of all personal agency. In a time when conscience is a commodity, can Alex change his tune?", "poster_path": "/4sHeTAp65WrSSuc05nRBKddhBxO.jpg", "popularity": 24.413}, {"adult": false, "backdrop_path": "/20IgqkdFw5kuItqDCJtidSESP0t.jpg", "genre_ids": [27, 18], "id": 10066, "original_language": "en", "original_title": "House of Wax", "overview": "A group of unwitting teens are stranded near a strange wax museum and soon must fight to survive and keep from becoming the next exhibit.", "poster_path": "/uM1RebQywM5PPYsauayefpXGxVk.jpg", "release_date": "2005-04-30", "title": "House of Wax", "video": false, "vote_average": 5.7, "vote_count": 1531, "popularity": 21.972}, {"id": 23398, "video": false, "vote_count": 1714, "vote_average": 5.5, "title": "Alvin and the Chipmunks: The Squeakquel", "release_date": "2009-12-21", "original_language": "en", "original_title": "Alvin and the Chipmunks: The Squeakquel", "genre_ids": [16, 35, 14, 10402, 10751], "backdrop_path": "/ukeQ5NshIaedd0s7qXED5aqPpZ5.jpg", "adult": false, "overview": "Pop sensations Alvin, Simon and Theodore end up in the care of Dave Seville's twenty-something nephew Toby. The boys must put aside music super stardom to return to school, and are tasked with saving the school's music program by winning the $25,000 prize in a battle of the bands. But the Chipmunks unexpectedly meet their match in three singing chipmunks known as The Chipettes - Brittany, Eleanor and Jeanette. Romantic and musical sparks are ignited when the Chipmunks and Chipettes square off.", "poster_path": "/8mdPqOga5fty15nXmaNcK1fsNMa.jpg", "popularity": 21.646}, {"adult": false, "backdrop_path": "/caLMOD3ZJ3V7qjlxDXrzlJfBLgD.jpg", "genre_ids": [18, 10749], "id": 20, "original_language": "en", "original_title": "My Life Without Me", "overview": "A Pedro Almodovar production in which a fatally ill mother with only two months to live creates a list of things she wants to do before she dies with out telling her family of her illness.", "poster_path": "/vVj92VBFUBzjqzLvBiPVVlJDp78.jpg", "release_date": "2003-03-07", "title": "My Life Without Me", "video": false, "vote_average": 6.1, "vote_count": 220, "popularity": 9.208}, {"id": 9813, "video": false, "vote_count": 128, "vote_average": 6.1, "title": "The Quiet", "release_date": "2005-09-12", "original_language": "en", "original_title": "The Quiet", "genre_ids": [18, 53], "backdrop_path": "/6eyWAZA4CEidZW1xXnQ4vlYBXTP.jpg", "adult": false, "overview": "After her widowed father dies, deaf teenager Dot moves in with her godparents, Olivia and Paul Deer. The Deers' daughter, Nina, is openly hostile to Dot, but that does not prevent her from telling her secrets to her silent stepsister, including the fact that she wants to kill her lecherous father.", "poster_path": "/GEqIE9YlmygHVUfS64LW2cwAAM.jpg", "popularity": 13.948}, {"adult": false, "backdrop_path": "/8nvayG5l0urcjvvpszoECDqLWzD.jpg", "genre_ids": [18, 53, 80, 9648], "id": 186, "original_language": "en", "original_title": "Lucky Number Slevin", "overview": "Slevin is mistakenly put in the middle of a personal war between the city\u2019s biggest criminal bosses. Under constant watch, Slevin must try not to get killed by an infamous assassin and come up with an idea of how to get out of his current dilemma. A film with many twists and turns.", "poster_path": "/jtKq0EtothAzWlnRBBWGCA8uFuu.jpg", "release_date": "2006-02-24", "title": "Lucky Number Slevin", "video": false, "vote_average": 7.5, "vote_count": 2480, "popularity": 17.523}, {"adult": false, "backdrop_path": "/3bO3b2wYCANInuzzvTlwXSsJT3N.jpg", "genre_ids": [35, 10751], "id": 9820, "original_language": "en", "original_title": "The Parent Trap", "overview": "Hallie Parker and Annie James are identical twins separated at a young age because of their parents' divorce. unknowingly to their parents, the girls are sent to the same summer camp where they meet, discover the truth about themselves, and then plot with each other to switch places. Hallie meets her mother, and Annie meets her father for the first time in years.", "poster_path": "/7vR4e3ga3mdSEpYe8kMeUv3mgND.jpg", "release_date": "1998-07-28", "title": "The Parent Trap", "video": false, "vote_average": 7.0, "vote_count": 2060, "popularity": 19.027}, {"id": 521, "video": false, "vote_count": 1257, "vote_average": 8.0, "title": "Dial M for Murder", "release_date": "1954-05-29", "original_language": "en", "original_title": "Dial M for Murder", "genre_ids": [80, 18, 9648, 53], "backdrop_path": "/jVMlfESb0TJ29w8CUDDofEprMmn.jpg", "adult": false, "overview": "An ex-tennis pro carries out a plot to have his wife murdered after discovering she is having an affair, and assumes she will soon leave him for the other man anyway. When things go wrong, he improvises a new plan\u2014to frame her for murder instead.", "poster_path": "/xrpK1PyckNWmRxU4kZURfaCyboS.jpg", "popularity": 34.566}], "total_pages": 1097, "total_results": 21925}, "recommendations": {"page": 1, "results": [{"adult": false, "backdrop_path": null, "genre_ids": [35, 10749], "id": 46112, "original_language": "en", "original_title": "Dawg", "overview": "To inherit a million dollars, an egotistical man must find the women he's betrayed and convince them to forgive him.", "poster_path": "/9sqcwV6a9anXhNGnDN0sbQucRr4.jpg", "release_date": "2002-02-21", "title": "Dawg", "video": false, "vote_average": 4.6, "vote_count": 14, "popularity": 3.145}, {"adult": false, "backdrop_path": "/gQXkGrfxpCwn44hGVmJnQ7l8CD5.jpg", "genre_ids": [35], "id": 140638, "original_language": "en", "original_title": "Pussycat, Pussycat, I Love You", "overview": "An American playwright living in Rome consults a quack psychiatrist to combat his fears of balding and save his failing marriage.", "poster_path": "/sibE0pSRqvHEPnZGvIypmHTMIkO.jpg", "release_date": "1970-03-25", "title": "Pussycat, Pussycat, I Love You", "video": false, "vote_average": 5.4, "vote_count": 8, "popularity": 4.295}, {"adult": false, "backdrop_path": "/tBA30IPeZZLK5zs37lOFv1kIqDE.jpg", "genre_ids": [35], "id": 26176, "original_language": "en", "original_title": "Mother, Jugs & Speed", "overview": "Mother (Bill Cosby), Jugs (Raquel Welch) & Speed (Harvey Keitel) work for a ambulance company competing for a L.A. city contract.", "poster_path": "/opJYA3qPQBNt8rWimU1ibpRysnv.jpg", "release_date": "1976-01-01", "title": "Mother, Jugs & Speed", "video": false, "vote_average": 5.8, "vote_count": 16, "popularity": 5.701}, {"id": 29825, "video": false, "vote_count": 24, "vote_average": 5.7, "title": "The Real Blonde", "release_date": "1998-02-27", "original_language": "en", "original_title": "The Real Blonde", "genre_ids": [35, 18, 10749], "backdrop_path": "/y5S8MSG9oJrMWoiC7SVMynzr5xF.jpg", "adult": false, "overview": "An aspiring actor and his girlfriend handle life's frustrations, while his friend seeks fulfillment with a blonde.", "poster_path": "/lgoH7u9atnAJ1pgjTyG9MnrJEto.jpg", "popularity": 4.959}, {"id": 13076, "video": false, "vote_count": 17, "vote_average": 6.8, "title": "Starting Out in the Evening", "release_date": "2007-11-23", "original_language": "en", "original_title": "Starting Out in the Evening", "genre_ids": [18], "backdrop_path": "/x3yvLeoJu8ZBCitOZDDOqcj0qzX.jpg", "adult": false, "overview": "Leonard Schiller once counted among New York's Literary lions, but illness and ten years of writers block have lowered his profile, almost to the point of obscurity. When Heather Wolfe, an ambitious literature major, asks to interview him for her theses on his work, her interest forces hims to address the issues that have been he has avoided all these years, and stirs in him feelings he has long forgotten, much to his daughter's consternation", "poster_path": "/hKCSp9ot1ofu0nC24DLekqdqb5U.jpg", "popularity": 3.792}, {"id": 24152, "video": false, "vote_count": 20, "vote_average": 5.7, "title": "The Magic Christian", "release_date": "1969-12-12", "original_language": "en", "original_title": "The Magic Christian", "genre_ids": [35], "backdrop_path": "/h8FUb7NY3MWtuQtDy3jKOJRu4Wr.jpg", "adult": false, "overview": "Sir Guy Grand, the richest man in the world, adopts a homeless boy, Youngman. Together, they set out to prove that anyone--and anything--can be bought with money.", "poster_path": "/iOUlJDRL7dZynvPqkp1ilMKnnE9.jpg", "popularity": 5.362}, {"adult": false, "backdrop_path": "/1hOmuRSYGkwo0VUyWBGtaePKIP.jpg", "genre_ids": [35], "id": 23312, "original_language": "en", "original_title": "Which Way Is Up?", "overview": "Richard Pryor plays three roles - a beleaguered, sex-starved farm worker named Leroy Jones; the farm worker's randy old father Rufus; and the hypocritical town preacher Rev. Lenox Thomas - and Pryor has never been so outrageously funny. The lives and love lives of these three men cross and crisscross as Leroy tries to get his life back on track.", "poster_path": "/jdleMxjKdZg6UEP6LPx8wxg7D59.jpg", "release_date": "1977-11-04", "title": "Which Way Is Up?", "video": false, "vote_average": 6.1, "vote_count": 17, "popularity": 4.42}], "total_pages": 1, "total_results": 7}, "credits": {"cast": [{"cast_id": 3, "character": "Flash Madden", "credit_id": "52fe463e9251416c75071fc9", "gender": 2, "id": 290, "name": "Christopher Plummer", "order": 0, "profile_path": "/fauMGxa6dc86nHNenQ8X6DlE6YV.jpg"}, {"cast_id": 4, "character": "Cameron Kincaid", "credit_id": "52fe463e9251416c75071fcd", "gender": 2, "id": 11665, "name": "Michael Angarano", "order": 1, "profile_path": "/zNoj0cJHoD8RPUDOgTpVgJ0KcXM.jpg"}, {"cast_id": 5, "character": "Mickey Hopkins", "credit_id": "52fe463e9251416c75071fd1", "gender": 2, "id": 588, "name": "M. Emmet Walsh", "order": 2, "profile_path": "/dLf79xlsmE40rog0gryjxsZJzml.jpg"}, {"cast_id": 6, "character": "Taylor Moss", "credit_id": "52fe463e9251416c75071fd5", "gender": 2, "id": 9208, "name": "Robert Wagner", "order": 3, "profile_path": "/nlRWGpsQPo8sSFdl8larlPUy1rS.jpg"}, {"cast_id": 8, "character": "Judy Kincaid", "credit_id": "52fe463e9251416c75071fdf", "gender": 1, "id": 91495, "name": "Mimi Kennedy", "order": 4, "profile_path": "/7Nsu0AngAeUEawRUm72Qgg8RUL6.jpg"}, {"cast_id": 9, "character": "Floyd", "credit_id": "52fe463e9251416c75071fe3", "gender": 2, "id": 12644, "name": "Mitch Pileggi", "order": 5, "profile_path": "/yJhcdFVtc2J6Nnqz7rcYB7GI4P9.jpg"}, {"cast_id": 10, "character": "Animal Shelter Dog", "credit_id": "5ac27c13925141601505ee74", "gender": 1, "id": 2013757, "name": "Sadie", "order": 6, "profile_path": null}], "crew": [{"credit_id": "52fe463e9251416c75071fc5", "department": "Writing", "gender": 2, "id": 77947, "job": "Screenplay", "name": "Michael Schroeder", "profile_path": null}, {"credit_id": "52fe463e9251416c75071fdb", "department": "Directing", "gender": 2, "id": 77947, "job": "Director", "name": "Michael Schroeder", "profile_path": null}]}}