{"adult": false, "backdrop_path": null, "belongs_to_collection": null, "budget": 0, "genres": [{"id": 35, "name": "Comedy"}], "homepage": null, "id": 152207, "imdb_id": "tt0216197", "original_language": "en", "original_title": "Seminary Girls", "overview": "From Maguire &amp; Baucus catalogue: A most amusing and life-like scene, in which a number of young ladies clad in their night robes, are seen engaged in a midnight frolic.", "popularity": 1.495, "poster_path": "/ehwvR1DvOQkl92y1NnUpoZsgiF4.jpg", "production_companies": [{"id": 18758, "logo_path": "/fe3cMUJLhbkTM9PDxdDA8hQpAxp.png", "name": "Edison Manufacturing Company", "origin_country": "US"}], "production_countries": [{"iso_3166_1": "US", "name": "United States of America"}], "release_date": "1897-03-31", "revenue": 0, "runtime": 1, "spoken_languages": [{"iso_639_1": "xx", "name": "No Language"}], "status": "Released", "tagline": "", "title": "Seminary Girls", "video": false, "vote_average": 5.8, "vote_count": 10, "keywords": {"keywords": [{"id": 41172, "name": "schoolgirl"}, {"id": 154802, "name": "silent film"}, {"id": 187368, "name": "pillow fight"}]}, "similar": {"page": 1, "results": [{"id": 901, "video": false, "vote_count": 1026, "vote_average": 8.4, "title": "City Lights", "release_date": "1931-02-01", "original_language": "xx", "original_title": "City Lights", "genre_ids": [35, 18, 10749], "backdrop_path": "/vT6ux2rdyg2kexuLisO5Ygz7pHg.jpg", "adult": false, "overview": "City Lights is the first silent film that Charlie Chaplin directed after he established himself with sound accompanied films. The film is about a penniless man who falls in love with a flower girl.", "poster_path": "/bXNvzjULc9jrOVhGfjcc64uKZmZ.jpg", "popularity": 14.645}, {"adult": false, "backdrop_path": "/wcT7srQ4GeeMqlszMFEtPZ7v8T7.jpg", "genre_ids": [35, 10749], "id": 28978, "original_language": "en", "original_title": "The Circus", "overview": "Charlie, a wandering tramp, becomes a circus handyman and falls in love with the circus owner's daughter. Unaware of Charlie's affection, the girl falls in love with a handsome young performer. Charlie's versatility makes him star of the show when he substitutes for an ailing tightwire walker. He is discharged from the company when he protects the girl from her father's abuse, but he returns and appeals to the handsome performer to marry the girl. After the wedding the father prevails upon them to rejoin the circus. Charlie is hired again, but he stays behind when the caravan moves on.", "poster_path": "/awTf4Y6TGvgi3VYtGNINyyJJy9Q.jpg", "release_date": "1928-01-06", "title": "The Circus", "video": false, "vote_average": 8.2, "vote_count": 330, "popularity": 12.839}, {"id": 10258, "video": false, "vote_count": 148, "vote_average": 6.6, "title": "The Madagascar Penguins in a Christmas Caper", "release_date": "2005-09-23", "original_language": "en", "original_title": "The Madagascar Penguins in a Christmas Caper", "genre_ids": [16, 35, 10751], "backdrop_path": "/gdJ6j1hmt6dQgObWxDJAHUb58o6.jpg", "adult": false, "overview": "During the holiday season, when the animals of the Central Park Zoo are preparing for Christmas, Private, the youngest of the penguins notices that the Polar Bear is all alone. Assured that nobody should have to spend Christmas alone, Private goes into the city for some last-minute Christmas shopping. Along the way, he gets stuffed into a stocking", "poster_path": "/r8QtfGSjDaY6vICRVyYvZvTkjxc.jpg", "popularity": 13.032}, {"adult": false, "backdrop_path": "/tr6OExnBfjLADi9OyZoW308mPAp.jpg", "genre_ids": [18, 35, 10749], "id": 74643, "original_language": "en", "original_title": "The Artist", "overview": "Hollywood, 1927: As silent movie star George Valentin wonders if the arrival of talking pictures will cause him to fade into oblivion, he sparks with Peppy Miller, a young dancer set for a big break.", "poster_path": "/i0mpvMIIjyubXsVKug9vX0lYpnd.jpg", "release_date": "2011-06-26", "title": "The Artist", "video": false, "vote_average": 7.4, "vote_count": 1977, "popularity": 10.661}, {"id": 10527, "video": false, "vote_count": 4220, "vote_average": 6.4, "title": "Madagascar: Escape 2 Africa", "release_date": "2008-10-30", "original_language": "en", "original_title": "Madagascar: Escape 2 Africa", "genre_ids": [16, 35, 10751], "backdrop_path": "/anxiz37Z9FPKeuCsJcxViSWmPxg.jpg", "adult": false, "overview": "Alex, Marty, and other zoo animals find a way to escape from Madagascar when the penguins reassemble a wrecked airplane. The precariously repaired craft stays airborne just long enough to make it to the African continent. There the New Yorkers encounter members of their own species for the first time. Africa proves to be a wild place, but Alex and company wonder if it is better than their Central Park home.", "poster_path": "/9mohxwknsHcwFBSAAhoQXwFV5zn.jpg", "popularity": 23.58}, {"id": 460793, "video": false, "vote_count": 933, "vote_average": 6.2, "title": "Olaf's Frozen Adventure", "release_date": "2017-10-27", "original_language": "en", "original_title": "Olaf's Frozen Adventure", "genre_ids": [12, 16, 35, 14, 10402, 10751], "backdrop_path": "/9K4QqQZg4TVXcxBGDiVY4Aey3Rn.jpg", "adult": false, "overview": "Olaf is on a mission to harness the best holiday traditions for Anna, Elsa, and Kristoff.", "poster_path": "/As8WTtxXs9e3cBit3ztTf7zoRmm.jpg", "popularity": 21.98}, {"id": 14787, "video": false, "vote_count": 124, "vote_average": 6.4, "title": "Tom and Jerry: The Magic Ring", "release_date": "2002-03-12", "original_language": "en", "original_title": "Tom and Jerry: The Magic Ring", "genre_ids": [28, 16, 35, 14, 10751], "backdrop_path": "/wPvYwB9NYUJRXIzjKeupigE1JXc.jpg", "adult": false, "overview": "The world's favourite cat and mouse team bounds back into action in an all-new full-length animated adventure certain to cast its spell over the entire family Left in charge of a priceless magical ring by his young wizard master, Tom is horrified when the ring gets stuck on Jerry's head, who then runs off into the city! Before you can say \"abracadabra\", the entire town is hot on our heroes' tails.", "poster_path": "/fF6I48WGKktHfGYYSVKPTVildWE.jpg", "popularity": 15.019}, {"adult": false, "backdrop_path": "/twGxeStlGooWV3gP6ZIcSNuQ6jf.jpg", "genre_ids": [12, 16, 10751, 14], "id": 81684, "original_language": "en", "original_title": "The Gruffalo's Child", "overview": "A follow up to the 2009 animated feature and adapted from the childrens' book by Julia Donaldson and Alex Scheffler.  The Gruffalo's child explores the deep dark wood in search of the big bad mouse and meets the Snake, Owl and Fox in the process.  She eventually finds the mouse, who manages to outwit her like the Gruffalo before!", "poster_path": "/qaGH2AoaLvoGXURQtNzj1nw6oZd.jpg", "release_date": "2011-12-25", "title": "The Gruffalo's Child", "video": false, "vote_average": 6.9, "vote_count": 73, "popularity": 9.51}, {"adult": false, "backdrop_path": null, "genre_ids": [], "id": 616262, "original_language": "ar", "original_title": "All Come From Dust", "overview": "A loop of edgeless bend. You were its doom, he was its bloom. You were its tomb, he was its womb. You were its gloom, he was its loom. For Heaven and Hell, were words made of fume.", "poster_path": null, "release_date": "2019-08-13", "title": "All Come From Dust", "video": false, "vote_average": 5.0, "vote_count": 1, "popularity": 0.6}, {"id": 621733, "video": false, "vote_count": 0, "vote_average": 0.0, "title": "A Trip to the Seaside", "release_date": "2019-08-30", "original_language": "en", "original_title": "A Trip to the Seaside", "genre_ids": [99], "backdrop_path": null, "adult": false, "overview": "Experimental short film on the excitement and rush of a day trip", "poster_path": "/AuZVhpoJ4jm2LWDhoJKfxQfhDAi.jpg", "popularity": 1.324}, {"id": 616584, "video": false, "vote_count": 92, "vote_average": 7.5, "title": "K-12", "release_date": "2019-09-05", "original_language": "en", "original_title": "K-12", "genre_ids": [14, 27, 10402], "backdrop_path": "/fSlfaF0Ydfr2SK6hOYHvDsb7a9Z.jpg", "adult": false, "overview": "Cry Baby, a strong and sensitive girl, is sent off to a disturbing sleepaway school that\u2019s hidden underneath a grandiose fa\u00e7ade. Luckily, she has a sweet and unapologetic best friend who sticks up for her when she gets bullied by the other students whose brains are under control by the Principal and his wicked staff. With the help of the magical friends they meet along the way, as well as an Angelic Spirit Guide, they are able to gain the strength they need to fight off the school\u2019s belligerent patriarchal conditioning.", "poster_path": "/nVi0yBBPj5Z96JgGWVIg94kv7bR.jpg", "popularity": 15.107}, {"id": 75612, "video": false, "vote_count": 7401, "vote_average": 6.5, "title": "Oblivion", "release_date": "2013-04-10", "original_language": "en", "original_title": "Oblivion", "genre_ids": [28, 12, 9648, 878], "backdrop_path": "/8TE77jL2e4zdERpv8hnBAHUmFRx.jpg", "adult": false, "overview": "Jack Harper is one of the last few drone repairmen stationed on Earth.  Part of a massive operation to extract vital resources after decades of war with a terrifying threat known as the Scavs, Jack\u2019s mission is nearly complete.  His existence is brought crashing down when he rescues a beautiful  stranger from a downed spacecraft.  Her arrival triggers a chain of events that  forces him to question everything he knows and puts the fate of humanity in his hands.", "poster_path": "/hmOzkHlkGvi8x24fYpFSnXvjklv.jpg", "popularity": 34.598}, {"id": 240832, "video": false, "vote_count": 10811, "vote_average": 6.3, "title": "Lucy", "release_date": "2014-07-25", "original_language": "en", "original_title": "Lucy", "genre_ids": [28, 878], "backdrop_path": "/eCgIoGvfNXrbSiQGqQHccuHjQHm.jpg", "adult": false, "overview": "A woman, accidentally caught in a dark deal, turns the tables on her captors and transforms into a merciless warrior evolved beyond human logic.", "poster_path": "/rwn876MeqienhOVSSjtUPnwxn0Z.jpg", "popularity": 26.958}, {"id": 828, "video": false, "vote_count": 557, "vote_average": 7.5, "title": "The Day the Earth Stood Still", "release_date": "1951-09-17", "original_language": "en", "original_title": "The Day the Earth Stood Still", "genre_ids": [878], "backdrop_path": "/uExEupzfV7Ffau0H98aefUU0zcG.jpg", "adult": false, "overview": "An alien and a robot land on earth after World War II and tell mankind to be peaceful or face destruction. A classic science fiction film from Robert Wise with an exceptional message.", "poster_path": "/x2DquTpLTq54aPFDnqlwY7apCC3.jpg", "popularity": 30.427}, {"id": 54138, "video": false, "vote_count": 6599, "vote_average": 7.3, "title": "Star Trek Into Darkness", "release_date": "2013-05-05", "original_language": "en", "original_title": "Star Trek Into Darkness", "genre_ids": [28, 12, 878], "backdrop_path": "/ns0IojuqJe24AHTxe8RVcWJUCDM.jpg", "adult": false, "overview": "When the crew of the Enterprise is called back home, they find an unstoppable force of terror from within their own organization has detonated the fleet and everything it stands for, leaving our world in a state of crisis.  With a personal score to settle, Captain Kirk leads a manhunt to a war-zone world to capture a one man weapon of mass destruction. As our heroes are propelled into an epic chess game of life and death, love will be challenged, friendships will be torn apart, and sacrifices must be made for the only family Kirk has left: his crew.", "poster_path": "/41mhrXASAW3sdn7LBWF49uCX0xi.jpg", "popularity": 22.476}, {"adult": false, "backdrop_path": "/xqQztbT6KlPLQLlRtNHoXivEMZA.jpg", "genre_ids": [18, 10749, 53], "id": 597, "original_language": "en", "original_title": "Titanic", "overview": "101-year-old Rose DeWitt Bukater tells the story of her life aboard the Titanic, 84 years later. A young Rose boards the ship with her mother and fianc\u00e9. Meanwhile, Jack Dawson and Fabrizio De Rossi win third-class tickets aboard the ship. Rose tells the whole story from Titanic's departure through to its death\u2014on its first and last voyage\u2014on April 15, 1912.", "poster_path": "/kHXEpyfl6zqn8a6YuozZUujufXf.jpg", "release_date": "1997-11-18", "title": "Titanic", "video": false, "vote_average": 7.8, "vote_count": 15731, "popularity": 44.898}, {"id": 326359, "video": false, "vote_count": 1180, "vote_average": 6.8, "title": "Frozen Fever", "release_date": "2015-03-09", "original_language": "en", "original_title": "Frozen Fever", "genre_ids": [12, 16, 10751], "backdrop_path": "/ubioPGniCfDiASmYYpeJs5RRNaC.jpg", "adult": false, "overview": "On Anna's birthday, Elsa and Kristoff are determined to give her the best celebration ever, but Elsa's icy powers may put more than just the party at risk.", "poster_path": "/lKJiVPzsAO9IJ4LKWXZ8vkR2bg4.jpg", "popularity": 17.218}, {"id": 1585, "video": false, "vote_count": 2261, "vote_average": 8.2, "title": "It's a Wonderful Life", "release_date": "1946-12-20", "original_language": "en", "original_title": "It's a Wonderful Life", "genre_ids": [18, 14, 10751], "backdrop_path": "/nMomMy1sD3SN2QsKop3zBXCJfDJ.jpg", "adult": false, "overview": "A holiday favourite for generations...  George Bailey has spent his entire life giving to the people of Bedford Falls.  All that prevents rich skinflint Mr. Potter from taking over the entire town is George's modest building and loan company.  But on Christmas Eve the business's $8,000 is lost and George's troubles begin.", "poster_path": "/bSqt9rhDZx1Q7UZ86dBPKdNomp2.jpg", "popularity": 30.622}, {"adult": false, "backdrop_path": "/pc7a2qrIkIxzqWGqcexd3mHzIxy.jpg", "genre_ids": [28, 53, 12], "id": 56292, "original_language": "en", "original_title": "Mission: Impossible - Ghost Protocol", "overview": "Ethan Hunt and his team are racing against time to track down a dangerous terrorist named Hendricks, who has gained access to Russian nuclear launch codes and is planning a strike on the United States. An attempt to stop him ends in an explosion causing severe destruction to the Kremlin and the IMF to be implicated in the bombing, forcing the President to disavow them. No longer being aided by the government, Ethan and his team chase Hendricks around the globe, although they might still be too late to stop a disaster.", "poster_path": "/s58mMsgIVOFfoXPtwPWJ3hDYpXf.jpg", "release_date": "2011-12-07", "title": "Mission: Impossible - Ghost Protocol", "video": false, "vote_average": 7.0, "vote_count": 6591, "popularity": 29.242}, {"id": 14813, "video": false, "vote_count": 456, "vote_average": 7.6, "title": "Mickey's Christmas Carol", "release_date": "1983-10-19", "original_language": "en", "original_title": "Mickey's Christmas Carol", "genre_ids": [16, 10751], "backdrop_path": "/fDK3xeAcQfQ40ZUULgZshElkspa.jpg", "adult": false, "overview": "It is an adaptation of the Charles Dickens classic A Christmas Carol, featuring Scrooge McDuck as his namesake and inspiration Ebenezer Scrooge and Mickey Mouse as Bob Cratchit. This film was based on a 1972 audio musical entitled Disney's A Christmas Carol. It is a twenty-four minute animated short film produced by Walt Disney Productions as an accompaniment to a re-release of The Rescuers.", "poster_path": "/29iF1IiC3ZyJQ1kmTf4LD8p8oro.jpg", "popularity": 14.7}], "total_pages": 832, "total_results": 16640}, "recommendations": {"page": 1, "results": [{"adult": false, "backdrop_path": null, "genre_ids": [99], "id": 152219, "original_language": "en", "original_title": "Feeding the Doves", "overview": "A woman and a young girl each carry containers of bird feed, and they toss occasional handfuls to the chickens and doves in the farmyard. Most of the chickens stay nearby, but the doves occasionally fly off and then return to eat more.", "poster_path": "/vXLRGmlzNd7CcM8FhtZat2zfLm4.jpg", "release_date": "1896-10-23", "title": "Feeding the Doves", "video": false, "vote_average": 6.3, "vote_count": 7, "popularity": 0.921}, {"adult": false, "backdrop_path": null, "genre_ids": [36], "id": 185220, "original_language": "fr", "original_title": "La r\u00e9volution en Russie", "overview": "A dramatization of the uprising in Odessa, Russia in 1905: A ship's crew, tired of being mistreated, mutinies and takes over their ship. When they reach land, a sailor who died during the mutiny is made a martyr, inspiring an uprising in the city. Then the authorities decide to repress the revolt with a brutal show of force.", "poster_path": "/kc3DwkmrbCBRURBglEzOTYVrILJ.jpg", "release_date": "1906-03-31", "title": "Revolution in Russia", "video": false, "vote_average": 5.2, "vote_count": 5, "popularity": 1.361}, {"adult": false, "backdrop_path": null, "genre_ids": [], "id": 178756, "original_language": "en", "original_title": "New York, pont de Brooklyn", "overview": "No Overview", "poster_path": "/rB9Tbd43kCVU01IvQQjPAVjcokC.jpg", "release_date": "1896-01-01", "title": "New York, Brooklyn Bridge", "video": false, "vote_average": 5.3, "vote_count": 7, "popularity": 0.852}, {"adult": false, "backdrop_path": null, "genre_ids": [35], "id": 190731, "original_language": "en", "original_title": "Dog Factory", "overview": "A brief vaudeville-style demonstration of a \"Dog Transformator,\" a machine that instantly turns dogs into sausages, and amazingly, sausages back into dogs.", "poster_path": "/mJB3fyjxQvsFDbZpqWYfRJuk82Y.jpg", "release_date": "1904-05-11", "title": "Dog Factory", "video": false, "vote_average": 4.8, "vote_count": 4, "popularity": 0.819}, {"adult": false, "backdrop_path": null, "genre_ids": [99], "id": 152456, "original_language": "fr", "original_title": "Autruches", "overview": "An ostrich pulls a cart carrying young women wearing ostrich-feather hats.", "poster_path": "/w8hhMVdDBLTPakikLyCKIwJsXKW.jpg", "release_date": "1896-07-30", "title": "Ostriches", "video": false, "vote_average": 5.6, "vote_count": 9, "popularity": 0.84}, {"adult": false, "backdrop_path": null, "genre_ids": [], "id": 147723, "original_language": "en", "original_title": "A Romance of the Rail", "overview": "", "poster_path": "/n4Rk8gxnLpfZadxybHIdMyzI8dY.jpg", "release_date": "1903-10-31", "title": "A Romance of the Rail", "video": false, "vote_average": 4.5, "vote_count": 12, "popularity": 1.335}, {"adult": false, "backdrop_path": null, "genre_ids": [99], "id": 178757, "original_language": "fr", "original_title": "New York, Broadway et Union Square", "overview": "No Overview", "poster_path": "/uu7w3x958H9f2a5VaHq8NIt1KNT.jpg", "release_date": "1896-01-01", "title": "New York: Broadway at Union Square", "video": false, "vote_average": 5.3, "vote_count": 10, "popularity": 0.735}, {"adult": false, "backdrop_path": null, "genre_ids": [99], "id": 152455, "original_language": "fr", "original_title": "Dragons traversant la Sa\u00f4ne \u00e0 la nage", "overview": "A stationary camera looks across Burgundy's river S\u00e2one toward a small military encampment. Four horsemen enter the water in the foreground, each riding his horse as it swims across toward camp or leading it by the bridle as they swim", "poster_path": "/m78k9nBZPbtJRfksZh7XtkMeZNo.jpg", "release_date": "1896-03-31", "title": "Dragoons Crossing the S\u00e2one", "video": false, "vote_average": 4.8, "vote_count": 5, "popularity": 0.6}, {"adult": false, "backdrop_path": null, "genre_ids": [99], "id": 155107, "original_language": "en", "original_title": "Buffalo Dance", "overview": "Long before Hollywood started painting white men red and dressing them as 'Injuns' Edison's company was using the genuine article! Featuring for what is believed to be the Native Americans first appearance before a motion picture camera 'Buffalo Dance' features genuine members of the Sioux Tribe dressed in full war paint and costume! The dancers are believed to be veteran members of Buffalo Bill's Wild West Show. Filmed again at the Black Maria studios by both Dickson and Heise the 'Buffalo Dance' warriors were named as Hair Coat, Parts His Hair and Last Horse. Its quite strange seeing these movies at first they all stand around waiting to begin and as they start some of the dancers look at the camera in an almost sad way at having lost their way of life.", "poster_path": "/4YD0GzfmGq33KJhkRuDUefTrlVn.jpg", "release_date": "1894-09-23", "title": "Buffalo Dance", "video": false, "vote_average": 4.4, "vote_count": 16, "popularity": 1.191}, {"adult": false, "backdrop_path": null, "genre_ids": [], "id": 197975, "original_language": "en", "original_title": "Bad Burns", "overview": "Two reels of mis-takes in shooting Part II of 3RD DEGREE. Film was loaded in camera improperly and the image slides about off-center and becomes blurred \u2013 creating some rather amusing and mysterious imagery. A made \u201cfound\u201d object. \u2014ubu.com", "poster_path": null, "release_date": "1982-01-01", "title": "Bad Burns", "video": false, "vote_average": 5.4, "vote_count": 5, "popularity": 1.272}, {"adult": false, "backdrop_path": null, "genre_ids": [], "id": 352017, "original_language": "en", "original_title": "Unrolling Event", "overview": "Toilet paper event, single frame exposures.", "poster_path": "/y7AQPgA7RsGRJkQVl0zsYaaBdWx.jpg", "release_date": "1965-01-01", "title": "Unrolling Event", "video": false, "vote_average": 4.1, "vote_count": 4, "popularity": 0.961}, {"adult": false, "backdrop_path": null, "genre_ids": [], "id": 183270, "original_language": "en", "original_title": "The Twins' Tea Party", "overview": "No Overview", "poster_path": "/4gKinMioI42IFoq382JaTAHAWJ3.jpg", "release_date": "1896-08-01", "title": "The Twins' Tea Party", "video": false, "vote_average": 6.3, "vote_count": 4, "popularity": 0.6}, {"adult": false, "backdrop_path": null, "genre_ids": [99], "id": 127221, "original_language": "en", "original_title": "Blackfriars Bridge", "overview": "R.W. Paul's early footage showing the new Blackfriars Bridge. It had been opened by Queen Victoria in 1869 for both road and rail, and showcases the distinctive Venetian Gothic ironwork.", "poster_path": "/pfppvoJ66hYM9RRfrA9D0hMNdmP.jpg", "release_date": "1896-01-01", "title": "Blackfriars Bridge", "video": false, "vote_average": 6.0, "vote_count": 6, "popularity": 1.437}, {"adult": false, "backdrop_path": null, "genre_ids": [], "id": 352015, "original_language": "en", "original_title": "Dots 1 & 2", "overview": "Single frame exposures of dot-screens.", "poster_path": "/yyojt85iPYNNjFG5jvgNKK18lH9.jpg", "release_date": "1965-01-01", "title": "Dots 1 & 2", "video": false, "vote_average": 6.5, "vote_count": 4, "popularity": 1.4}, {"adult": false, "backdrop_path": null, "genre_ids": [10749, 35], "id": 189270, "original_language": "en", "original_title": "Interrupted Lovers", "overview": "\u201cThe watchful father disturbs a dream of bliss, and the bucolic lover is taught a lesson. He made a great hit.\u201d (Edison film catalog)", "poster_path": "/nvpihRy92nYc71EEzwHGcSIbzV2.jpg", "release_date": "1896-01-01", "title": "Interrupted Lovers", "video": false, "vote_average": 3.4, "vote_count": 5, "popularity": 1.045}, {"adult": false, "backdrop_path": null, "genre_ids": [], "id": 334998, "original_language": "en", "original_title": "Word Movie", "overview": "Single frame exposures of words.", "poster_path": "/bRIZsGfFxGKCwH7BUNXhXqBCKvA.jpg", "release_date": "1966-01-01", "title": "Word Movie", "video": false, "vote_average": 7.0, "vote_count": 5, "popularity": 0.639}, {"adult": false, "backdrop_path": null, "genre_ids": [], "id": 212359, "original_language": "en", "original_title": "Panorama des rives du Nil", "overview": "Panoramic view of the banks of the River Nile.", "poster_path": "/u1kWtwdYxXNcbgApWSvvZCEmhwl.jpg", "release_date": "1897-08-05", "title": "Panorama des rives du Nil", "video": false, "vote_average": 6.5, "vote_count": 4, "popularity": 0.6}, {"adult": false, "backdrop_path": null, "genre_ids": [], "id": 195558, "original_language": "en", "original_title": "A Nymph of the Waves", "overview": "A woman in ballet slippers wearing a large white hat and a long white dress - with ruffles, puffy sleeves and petticoats - dances across water with roiling waves behind her. She holds the edges of the skirt with her hands, lifting and twirling, sometimes exposing her bloomers and a dark garter on one leg. Her style combines ballet with the exuberant kicks and twirls of a burlesque dance hall. With churning waves behind her, the water seems to wash beneath her feet. The film of the dancer, \"M'lle. Cathrina Bartho\" (1899), is superimposed on that of the water, \"Upper Rapids, from Bridge\" (1896).", "poster_path": "/fKFk0CEfpQQo5kEbhfUtTnOrdWc.jpg", "release_date": "1900-12-21", "title": "A Nymph of the Waves", "video": false, "vote_average": 6.4, "vote_count": 8, "popularity": 1.25}, {"adult": false, "backdrop_path": null, "genre_ids": [35, 10751], "id": 191934, "original_language": "fr", "original_title": "Bout-de-Zan vole un \u00e9l\u00e9phant", "overview": "Bout de Zan is a very precocious young man! When the circus comes to town, he does what any kid might do in this situation--he steals the circus' elephant!!! Later, he sits on the curb with the elephant and begs coins off people--with a sign saying 'blind since birth'. I am not sure if this is supposed to mean the kid or the animal!", "poster_path": "/vKvDhJ7cVifVxkvBsDxAJYEYVTS.jpg", "release_date": "1913-05-02", "title": "Bout de Zan Steals an Elephant", "video": false, "vote_average": 6.4, "vote_count": 9, "popularity": 1.731}, {"adult": false, "backdrop_path": null, "genre_ids": [], "id": 191594, "original_language": "xx", "original_title": "Assiettes tournantes", "overview": "F\u00e9licien Trewey, performing his spinning plates routine.", "poster_path": "/pwC6m2lVXHg5KxcATlNb72tvvXj.jpg", "release_date": "1896-02-20", "title": "Assiettes tournantes", "video": false, "vote_average": 6.5, "vote_count": 11, "popularity": 1.4}], "total_pages": 2, "total_results": 40}, "credits": {"cast": [], "crew": [{"credit_id": "52fe4b199251416c910cfd15", "department": "Directing", "gender": 0, "id": 1037658, "job": "Director", "name": "James H. White", "profile_path": "/sRtpeMqutV1HPL2ciydIOP6pRgk.jpg"}]}}