{"adult": false, "backdrop_path": "/t1sRnOjArpTdRW7Pyc0fsJ100Hy.jpg", "belongs_to_collection": null, "budget": 0, "genres": [{"id": 35, "name": "Comedy"}], "homepage": "", "id": 152468, "imdb_id": "tt0220839", "original_language": "el", "original_title": "\u0392\u03af\u03bf\u03c2 \u03ba\u03b1\u03b9 \u03a0\u03bf\u03bb\u03b9\u03c4\u03b5\u03af\u03b1", "overview": "A gifted electrician, Michalis Karamanos works for OTE - Greek Telecommunications Organization and it seems that he is the only one who hasn't been completely absorbed by the corrupt and all-devouring system. Acting as a member of the revolutionary organization Constitutional Struggle, which is fighting against the unpopular policy of the government, he connects the computer of the director of OTE to an explosive device. He threatens to destroy the telecommunications of the country if he is not allowed to broadcast on television his revolutionary message during the broadcast of an important football game. The Authorities, thinking that he has gone crazy, try to bring him around using his old friends from the army, whom they pick up one by one as intermediaries. This is a situation comedy with excellent, mature plot development, plenty of suspense as well as masterful criticism of socio-political reality.", "popularity": 0.612, "poster_path": "/xR4rX1McRLXB1F4jtYKRewGhvvY.jpg", "production_companies": [{"id": 7254, "logo_path": "/x5m947rMvwJbNpoGil5W76dIJjB.png", "name": "Greek Film Centre", "origin_country": "GR"}, {"id": 127620, "logo_path": null, "name": "Home Video Hellas", "origin_country": ""}, {"id": 21968, "logo_path": null, "name": "Spentzos Films", "origin_country": "GR"}, {"id": 5983, "logo_path": null, "name": "Stefi 2", "origin_country": ""}, {"id": 127621, "logo_path": null, "name": "Nicos Perakis FILMPRODUCTION", "origin_country": ""}], "production_countries": [{"iso_3166_1": "GR", "name": "Greece"}], "release_date": "1987-10-29", "revenue": 0, "runtime": 105, "spoken_languages": [{"iso_639_1": "el", "name": "\u03b5\u03bb\u03bb\u03b7\u03bd\u03b9\u03ba\u03ac"}], "status": "Released", "tagline": "", "title": "Living Dangerously", "video": false, "vote_average": 6.8, "vote_count": 6, "keywords": {"keywords": [{"id": 949, "name": "terrorist"}, {"id": 1200, "name": "greece"}, {"id": 1562, "name": "hostage"}, {"id": 251714, "name": "80s"}]}, "similar": {"page": 1, "results": [{"adult": false, "backdrop_path": "/ieJ5ImFoJILNULvnIpbulAln7Lr.jpg", "genre_ids": [12, 28, 53, 878], "id": 14869, "original_language": "en", "original_title": "G.I. Joe: The Rise of Cobra", "overview": "From the Egyptian desert to deep below the polar ice caps, the elite G.I. JOE team uses the latest in next-generation spy and military equipment to fight the corrupt arms dealer Destro and the growing threat of the mysterious Cobra organization to prevent them from plunging the world into chaos.", "poster_path": "/29eW5c5DaCFQejdt9V14RrA51yD.jpg", "release_date": "2009-08-04", "title": "G.I. Joe: The Rise of Cobra", "video": false, "vote_average": 5.7, "vote_count": 3082, "popularity": 22.639}, {"adult": false, "backdrop_path": "/eg049B1TJdWuKuyKowNmhZxNToc.jpg", "genre_ids": [28, 53], "id": 562, "original_language": "en", "original_title": "Die Hard", "overview": "NYPD cop John McClane's plan to reconcile with his estranged wife is thrown for a serious loop when, minutes after he arrives at her office, the entire building is overtaken by a group of terrorists. With little help from the LAPD, wisecracking McClane sets out to single-handedly rescue the hostages and bring the bad guys down.", "poster_path": "/fiXHtnQpQiGVkMtyYnEfQ6Gtfx8.jpg", "release_date": "1988-07-15", "title": "Die Hard", "video": false, "vote_average": 7.7, "vote_count": 6810, "popularity": 32.473}, {"id": 105, "video": false, "vote_count": 12168, "vote_average": 8.2, "title": "Back to the Future", "release_date": "1985-07-03", "original_language": "en", "original_title": "Back to the Future", "genre_ids": [12, 35, 878, 10751], "backdrop_path": "/x4N74cycZvKu5k3KDERJay4ajR3.jpg", "adult": false, "overview": "Eighties teenager Marty McFly is accidentally sent back in time to 1955, inadvertently disrupting his parents' first meeting and attracting his mother's romantic interest. Marty must repair the damage to history by rekindling his parents' romance and - with the help of his eccentric inventor friend Doc Brown - return to 1985.", "poster_path": "/pTpxQB1N0waaSc3OSn0e9oc8kx9.jpg", "popularity": 29.77}, {"id": 98566, "video": false, "vote_count": 4596, "vote_average": 5.8, "title": "Teenage Mutant Ninja Turtles", "release_date": "2014-08-07", "original_language": "en", "original_title": "Teenage Mutant Ninja Turtles", "genre_ids": [28, 12, 35, 14, 878], "backdrop_path": "/OqCXGt5nl1cHPeotxCDvXLLe6p.jpg", "adult": false, "overview": "The city needs heroes. Darkness has settled over New York City as Shredder and his evil Foot Clan have an iron grip on everything from the police to the politicians. The future is grim until four unlikely outcast brothers rise from the sewers and discover their destiny as Teenage Mutant Ninja Turtles. The Turtles must work with fearless reporter April and her wise-cracking cameraman Vern Fenwick to save the city and unravel Shredder's diabolical plan.", "poster_path": "/oDL2ryJ0sV2bmjgshVgJb3qzvwp.jpg", "popularity": 33.698}, {"id": 8346, "video": false, "vote_count": 1269, "vote_average": 6.4, "title": "My Big Fat Greek Wedding", "release_date": "2002-02-22", "original_language": "en", "original_title": "My Big Fat Greek Wedding", "genre_ids": [35, 18, 10749], "backdrop_path": "/miFwBsaWZER118kg0AAuHcy1YOa.jpg", "adult": false, "overview": "A young Greek woman falls in love with a non-Greek and struggles to get her family to accept him while she comes to terms with her heritage and cultural identity.", "poster_path": "/vqGs8K6MdMHVPMTgMhzKHBVgu0t.jpg", "popularity": 17.695}, {"adult": false, "backdrop_path": "/txtRue33MaXv5HQpTiHPOmOcDxE.jpg", "genre_ids": [35, 10749], "id": 11631, "original_language": "en", "original_title": "Mamma Mia!", "overview": "An independent, single mother who owns a small hotel on a Greek island is about to marry off the spirited young daughter she's raised alone. But, the daughter has secretly invited three of her mother's ex-lovers in the hopes of finding her biological father.", "poster_path": "/gOm2iMMbC6EonrFzmSQ8xvCa4Ei.jpg", "release_date": "2008-07-02", "title": "Mamma Mia!", "video": false, "vote_average": 6.9, "vote_count": 4124, "popularity": 16.301}, {"id": 10193, "video": false, "vote_count": 9507, "vote_average": 7.8, "title": "Toy Story 3", "release_date": "2010-06-16", "original_language": "en", "original_title": "Toy Story 3", "genre_ids": [16, 35, 10751], "backdrop_path": "/y2qAjM37QgatWeG84DDtwsZuMW.jpg", "adult": false, "overview": "Woody, Buzz, and the rest of Andy's toys haven't been played with in years. With Andy about to go to college, the gang find themselves accidentally left at a nefarious day care center. The toys must band together to escape and return home to Andy.", "poster_path": "/mMltbSxwEdNE4Cv8QYLpzkHWTDo.jpg", "popularity": 28.033}, {"id": 324668, "video": false, "vote_count": 3843, "vote_average": 6.2, "title": "Jason Bourne", "release_date": "2016-07-27", "original_language": "en", "original_title": "Jason Bourne", "genre_ids": [28, 53], "backdrop_path": "/dtFiuavnsnl0krJAeSmGAOFAhw2.jpg", "adult": false, "overview": "The most dangerous former operative of the CIA is drawn out of hiding to uncover hidden truths about his past.", "poster_path": "/lFSSLTlFozwpaGlO31OoUeirBgQ.jpg", "popularity": 20.841}, {"adult": false, "backdrop_path": "/pc7a2qrIkIxzqWGqcexd3mHzIxy.jpg", "genre_ids": [28, 53, 12], "id": 56292, "original_language": "en", "original_title": "Mission: Impossible - Ghost Protocol", "overview": "Ethan Hunt and his team are racing against time to track down a dangerous terrorist named Hendricks, who has gained access to Russian nuclear launch codes and is planning a strike on the United States. An attempt to stop him ends in an explosion causing severe destruction to the Kremlin and the IMF to be implicated in the bombing, forcing the President to disavow them. No longer being aided by the government, Ethan and his team chase Hendricks around the globe, although they might still be too late to stop a disaster.", "poster_path": "/s58mMsgIVOFfoXPtwPWJ3hDYpXf.jpg", "release_date": "2011-12-07", "title": "Mission: Impossible - Ghost Protocol", "video": false, "vote_average": 7.0, "vote_count": 6591, "popularity": 29.242}, {"id": 334074, "video": false, "vote_count": 630, "vote_average": 5.5, "title": "Survivor", "release_date": "2015-05-21", "original_language": "en", "original_title": "Survivor", "genre_ids": [28, 80, 53], "backdrop_path": "/tGxBYYSKSmBUpjSHDpRelsbNeBy.jpg", "adult": false, "overview": "A Foreign Service Officer in London tries to prevent a terrorist attack set to hit New York, but is forced to go on the run when she is framed for crimes she did not commit.", "poster_path": "/XtvR1aSph7X3wqrE2PY66IPzVi.jpg", "popularity": 20.787}, {"id": 156022, "video": false, "vote_count": 5468, "vote_average": 7.2, "title": "The Equalizer", "release_date": "2014-09-24", "original_language": "en", "original_title": "The Equalizer", "genre_ids": [28, 80, 53], "backdrop_path": "/vbl4ZVqelrrzJ16fdDOq9siWbpi.jpg", "adult": false, "overview": "McCall believes he has put his mysterious past behind him and dedicated himself to beginning a new, quiet life. But when he meets Teri, a young girl under the control of ultra-violent Russian gangsters, he can\u2019t stand idly by \u2013 he has to help her. Armed with hidden skills that allow him to serve vengeance against anyone who would brutalize the helpless, McCall comes out of his self-imposed retirement and finds his desire for justice reawakened. If someone has a problem, if the odds are stacked against them, if they have nowhere else to turn, McCall will help. He is The Equalizer.", "poster_path": "/2eQfjqlvPAxd9aLDs8DvsKLnfed.jpg", "popularity": 39.578}, {"id": 68721, "video": false, "vote_count": 15348, "vote_average": 6.9, "title": "Iron Man 3", "release_date": "2013-04-18", "original_language": "en", "original_title": "Iron Man 3", "genre_ids": [28, 12, 878], "backdrop_path": "/n9X2DKItL3V0yq1q1jrk8z5UAki.jpg", "adult": false, "overview": "When Tony Stark's world is torn apart by a formidable terrorist called the Mandarin, he starts an odyssey of rebuilding and retribution.", "poster_path": "/7XiGqZE8meUv7L4720L0tIDd7gO.jpg", "popularity": 25.727}, {"adult": false, "backdrop_path": "/aog6vKNxw5USOGP4whH9V1YTR5K.jpg", "genre_ids": [80, 53, 28], "id": 201088, "original_language": "en", "original_title": "Blackhat", "overview": "A man is released from prison to help American and Chinese authorities pursue a mysterious cyber criminal. The dangerous search leads them from Chicago to Hong Kong.", "poster_path": "/sW3VEsulmxMlOmQwm0h7H7lZROi.jpg", "release_date": "2015-01-13", "title": "Blackhat", "video": false, "vote_average": 5.3, "vote_count": 1243, "popularity": 19.392}, {"adult": false, "backdrop_path": "/cLGKawjQ5tUJCuDyR0OnGYT4fyf.jpg", "genre_ids": [18, 53, 80], "id": 146233, "original_language": "en", "original_title": "Prisoners", "overview": "When Keller Dover's daughter and her friend go missing, he takes matters into his own hands as the police pursue multiple leads and the pressure mounts. But just how far will this desperate father go to protect his family?", "poster_path": "/yAhqW57pwMAsCgmZpM5zSIVQVTh.jpg", "release_date": "2013-09-18", "title": "Prisoners", "video": false, "vote_average": 8.0, "vote_count": 6410, "popularity": 24.427}, {"adult": false, "backdrop_path": "/wcyLZBgMlUXi4CQ8IVAO31rqNih.jpg", "genre_ids": [18, 36, 53], "id": 1852, "original_language": "en", "original_title": "World Trade Center", "overview": "On September, 11th 2001, after the terrorist attack to the World Trade Center, the building collapses over the rescue team from the Port Authority Police Department. Will Jimeno and his sergeant John McLoughlin are found alive trapped under the wreckage while the rescue teams fight to save them.", "poster_path": "/hYbKIxMGqm0YaxGBYW52NbkYNAx.jpg", "release_date": "2006-08-09", "title": "World Trade Center", "video": false, "vote_average": 6.1, "vote_count": 883, "popularity": 19.632}, {"id": 453201, "video": false, "vote_count": 939, "vote_average": 5.4, "title": "The 15:17 to Paris", "release_date": "2018-02-02", "original_language": "en", "original_title": "The 15:17 to Paris", "genre_ids": [18, 36, 53], "backdrop_path": "/gkkBhctHPGg8hrmtWbO3ySZoj4z.jpg", "adult": false, "overview": "In August 2015, an ISIS terrorist boarded train #9364 from Brussels to Paris. Armed with an AK-47 and enough ammo to kill more than 500 people, the terrorist might have succeeded except for three American friends who refused to give in to fear. One was a college student, one was a martial arts enthusiast and airman first class in the U.S. Air Force, and the other was a member of the Oregon National Guard, and all three pals proved fearless as they charged and ultimately overpowered the gunman after he emerged from a bathroom armed and ready to kill.", "poster_path": "/qxJQ0VBCuJkJhJmuWzxI408ngwd.jpg", "popularity": 13.78}, {"id": 36557, "video": false, "vote_count": 6603, "vote_average": 7.4, "title": "Casino Royale", "release_date": "2006-11-14", "original_language": "en", "original_title": "Casino Royale", "genre_ids": [28, 12, 53], "backdrop_path": "/xq6hXdBpDPIXWjtmvbFmtLvBFJt.jpg", "adult": false, "overview": "Le Chiffre, a banker to the world's terrorists, is scheduled to participate in a high-stakes poker game in Montenegro, where he intends to use his winnings to establish his financial grip on the terrorist market. M sends Bond\u2014on his maiden mission as a 00 Agent\u2014to attend this game and prevent Le Chiffre from winning. With the help of Vesper Lynd and Felix Leiter, Bond enters the most important poker game in his already dangerous career.", "poster_path": "/zlWBxz2pTA9p45kUTrI8AQiKrHm.jpg", "popularity": 29.699}, {"adult": false, "backdrop_path": "/a24i4Qw6qFTtkFLQsncv8WPwevj.jpg", "genre_ids": [53, 28, 80], "id": 345887, "original_language": "en", "original_title": "The Equalizer 2", "overview": "Robert McCall, who serves an unflinching justice for the exploited and oppressed, embarks on a relentless, globe-trotting quest for vengeance when a long-time girl friend is murdered.", "poster_path": "/cQvc9N6JiMVKqol3wcYrGshsIdZ.jpg", "release_date": "2018-07-19", "title": "The Equalizer 2", "video": false, "vote_average": 6.5, "vote_count": 2483, "popularity": 21.271}, {"id": 137094, "video": false, "vote_count": 1851, "vote_average": 6.1, "title": "Jack Ryan: Shadow Recruit", "release_date": "2014-01-15", "original_language": "en", "original_title": "Jack Ryan: Shadow Recruit", "genre_ids": [28, 18, 53], "backdrop_path": "/7WURHOyx05AWAoNcBGp72clvB49.jpg", "adult": false, "overview": "Jack Ryan, as a young covert CIA analyst, uncovers a Russian plot to crash the U.S. economy with a terrorist attack.", "poster_path": "/jBibISmRBUO35p0Picv0nOo33sc.jpg", "popularity": 19.704}, {"id": 267860, "video": false, "vote_count": 2886, "vote_average": 6.0, "title": "London Has Fallen", "release_date": "2016-03-02", "original_language": "en", "original_title": "London Has Fallen", "genre_ids": [28, 53], "backdrop_path": "/qh3huQzcRUXZZihUE0cV6kW0SuE.jpg", "adult": false, "overview": "In London for the Prime Minister's funeral, Mike Banning discovers a plot to assassinate all the attending world leaders.", "poster_path": "/9j2AmDhZvdwMyYKpqe4CtBkN1Tw.jpg", "popularity": 23.287}], "total_pages": 36, "total_results": 705}, "recommendations": {"page": 1, "results": [{"adult": false, "backdrop_path": "/exUaTVof8ReZFPHEKhTYCvCijpo.jpg", "genre_ids": [35], "id": 587997, "original_language": "el", "original_title": "\u0391\u03c5\u03c4\u03cc \u03c4\u03bf \u03ba\u03ac\u03c4\u03b9 \u03ac\u03bb\u03bb\u03bf!", "overview": "An unorganized and spoiled guy, Telis Partalis, who is only cut off for his amusement, is squandering all of his father's possessions in feasts and cartogangers. His sister, Ellie, a tasty girl and a serious lawyer, as well as Julie's rich aunt, do their utmost to avert this situation but telis is not at all aware of his own misery. His aunt is forcing him to get engaged to the wealthy Nana, who in turn is a fanatic of the spree and has the ability to bail him out of debt. They once realize that Telis has fallen to the clutches of the deft who, led by the impostor Stelios, want to take away even the factory he has inherited. Then they all buckle together, even his sister and Nana, so they take down the bad guys. The factory survives, the hero's mind is somewhat \"coagulates\" and the love that arises between dues and nanas seals the happy ending.", "poster_path": "/1R5yyceKXOLNC4ffSjs4hPHCsXJ.jpg", "release_date": "1963-02-01", "title": "\u0391\u03c5\u03c4\u03cc \u03c4\u03bf \u03ba\u03ac\u03c4\u03b9 \u03ac\u03bb\u03bb\u03bf!", "video": false, "vote_average": 6.7, "vote_count": 3, "popularity": 0.611}, {"adult": false, "backdrop_path": "/InndgBAvMqUsfviL7KStOkt11J.jpg", "genre_ids": [35], "id": 58865, "original_language": "el", "original_title": "\u039b\u03bf\u03cd\u03c6\u03b1 \u039a\u03b1\u03b9 \u03a0\u03b1\u03c1\u03b1\u03bb\u03bb\u03b1\u03b3\u03ae", "overview": "The film is the story of a group of soldiers, who, in the course of their compulsory military service in 1967 and 1968, before and during the military dictatorship in Greece, are assigned to the then recently founded Armed Forces Television. This TV station, founded for the civilian population, was run by the Cinematographic Unit of the army which until then had only produced propaganda films and newsreels and was responsible for entertaining the troops and other charity organizations with movie screenings. The personnel was composed mostly of soldiers, who already had experience in the film business in their civilian lives, as well as those who received their training in the army. The story may be only 95% true, but that is simply because the true story is even more absurd...", "poster_path": "/pPq6TcUKB3DyBZcdGfNzfe5fixH.jpg", "release_date": "1984-10-01", "title": "Loaf and Camouflage", "video": false, "vote_average": 7.4, "vote_count": 19, "popularity": 1.94}], "total_pages": 1, "total_results": 2}, "credits": {"cast": [{"cast_id": 3, "character": "Mihalis Karamanos", "credit_id": "52fe4b229251416c910d0e77", "gender": 0, "id": 1060188, "name": "Giorgos Kimoulis", "order": 0, "profile_path": "/6Hf7RPYGanPATtSlPG0nZ1R4oIt.jpg"}, {"cast_id": 4, "character": "General Manager of TOE", "credit_id": "52fe4b229251416c910d0e7b", "gender": 2, "id": 1117987, "name": "Dimitris Kalivokas", "order": 1, "profile_path": "/nWN4TSxpCvFKLSDrF1UGUZSwMMA.jpg"}, {"cast_id": 5, "character": "Petros Savvidis", "credit_id": "52fe4b229251416c910d0e7f", "gender": 2, "id": 1132935, "name": "Giorgos Kotanidis", "order": 2, "profile_path": "/cGM4P6qeV9KezxXeIaYvqjz4aiY.jpg"}, {"cast_id": 6, "character": "Panos Balourdos", "credit_id": "52fe4b229251416c910d0e83", "gender": 0, "id": 1132936, "name": "Pavlos Kontoyannidis", "order": 3, "profile_path": "/bNzudsWyM88Xnnxqe7CDSvp1bUN.jpg"}, {"cast_id": 12, "character": "Maro Dimou", "credit_id": "5b508a0dc3a368284a011755", "gender": 0, "id": 1042162, "name": "Vana Barba", "order": 4, "profile_path": "/mDXdj4nCNo3EYymjIJYi6QFKDhx.jpg"}, {"cast_id": 8, "character": "Ahilleas Lambrou", "credit_id": "52fe4b229251416c910d0e8b", "gender": 0, "id": 1132938, "name": "Takis Moschos", "order": 5, "profile_path": "/6jQznGX0H9emYuWWZRjrSrhTmME.jpg"}, {"cast_id": 9, "character": "Giannis Papadopoulos", "credit_id": "52fe4b229251416c910d0e8f", "gender": 2, "id": 376765, "name": "Dimitris Poulikakos", "order": 6, "profile_path": "/uEwRhak7GBloJbbYBkP4ng4tFRD.jpg"}, {"cast_id": 10, "character": "Boulis/Marlafekas", "credit_id": "52fe4b229251416c910d0e93", "gender": 2, "id": 221587, "name": "Alkis Panagiotidis", "order": 7, "profile_path": "/vFftqnUwfxAyDgAxnL6DJtoPwbL.jpg"}, {"cast_id": 13, "character": "Minister", "credit_id": "5e19ad11255dba0016e1852c", "gender": 0, "id": 1940085, "name": "Timos Perlegas", "order": 8, "profile_path": null}, {"cast_id": 14, "character": "Minister's Consultant A", "credit_id": "5e19ad48b3f6f50016d574ae", "gender": 0, "id": 2219334, "name": "Anna Makraki", "order": 9, "profile_path": null}, {"cast_id": 15, "character": "Police Captain", "credit_id": "5e19ad67a0be28001800cc5f", "gender": 0, "id": 2471243, "name": "Hristos Biros", "order": 10, "profile_path": null}, {"cast_id": 16, "character": "Prosecutor #1", "credit_id": "5e19ae22255dba0011e181f8", "gender": 0, "id": 1243364, "name": "Giorgos Kyritsis", "order": 11, "profile_path": null}, {"cast_id": 11, "character": "Cindy", "credit_id": "5b5089b90e0a26413200e6eb", "gender": 1, "id": 2051040, "name": "Rocky Taylor", "order": 12, "profile_path": null}, {"cast_id": 17, "character": "coffee boy", "credit_id": "5e19afca2ea6b90015f0d84a", "gender": 0, "id": 1177441, "name": "Giorgos Ninios", "order": 13, "profile_path": null}, {"cast_id": 18, "character": "Papaloukas", "credit_id": "5e19b02e255dba0011e1856f", "gender": 0, "id": 2402411, "name": "Kostas Mandilas", "order": 14, "profile_path": null}, {"cast_id": 19, "character": "Police Captain at TOE", "credit_id": "5e19b3c9a0be280015011f52", "gender": 0, "id": 2246676, "name": "Dinos Makris", "order": 15, "profile_path": null}, {"cast_id": 20, "character": "Minister's Consultant B", "credit_id": "5e19b3fca0be280015011f8a", "gender": 0, "id": 2443003, "name": "Giannis Goumas", "order": 16, "profile_path": null}, {"cast_id": 21, "character": "housekeeper", "credit_id": "5e19b457255dba0016e1978a", "gender": 0, "id": 2506769, "name": "Fotini Papadopoulou", "order": 17, "profile_path": null}, {"cast_id": 22, "character": "Pantelis", "credit_id": "5e19b4952ea6b90017f09225", "gender": 0, "id": 18848, "name": "Gerasimos Skiadaressis", "order": 18, "profile_path": "/o7XyegxiJc938h6GuzDk1ii2uTu.jpg"}, {"cast_id": 23, "character": "Lieutenant", "credit_id": "5e19b4cb255dba0013e18983", "gender": 0, "id": 144460, "name": "Kostas Apostolidis", "order": 19, "profile_path": null}, {"cast_id": 24, "character": "Prosecutor #2", "credit_id": "5e19b4ec6f43ec001662c4d6", "gender": 2, "id": 2232511, "name": "Hristos Simardanis", "order": 20, "profile_path": "/eZKTEuoKN6uLu8qNzg8xJs3GBy9.jpg"}, {"cast_id": 25, "character": "Andritsakis", "credit_id": "5e19b50b6f43ec0010626d22", "gender": 0, "id": 1510740, "name": "Nikos Pilavios", "order": 21, "profile_path": null}, {"cast_id": 26, "character": "technician", "credit_id": "5e19b526255dba0013e189c3", "gender": 2, "id": 1121063, "name": "Steve Douzos", "order": 22, "profile_path": "/oeemM1UiLIkY8CkwP0lsbYI9WfH.jpg"}, {"cast_id": 27, "character": "director", "credit_id": "5e19b54a6f43ec001662c617", "gender": 0, "id": 124919, "name": "Pantelis Voulgaris", "order": 23, "profile_path": "/7xKLjiH0r5DpeXvbsZ6Kz8tBpWy.jpg"}, {"cast_id": 28, "character": "LA SY politician #1", "credit_id": "5e19b5bd2ea6b90013f0a114", "gender": 0, "id": 1311336, "name": "Panos Papakyriakopoulos", "order": 24, "profile_path": null}, {"cast_id": 29, "character": "reporter #1", "credit_id": "5e19b5e5255dba0013e18bb3", "gender": 0, "id": 1474910, "name": "Dimitris Stavrakas", "order": 25, "profile_path": null}, {"cast_id": 30, "character": "newscaster", "credit_id": "5e19b6032ea6b90013f0a198", "gender": 0, "id": 1602208, "name": "Fotos Lambrinos", "order": 26, "profile_path": null}, {"cast_id": 31, "character": "party leader", "credit_id": "5e19b655a0be28001300fca3", "gender": 0, "id": 2506778, "name": "Diagoras Chronopoulos", "order": 27, "profile_path": null}, {"cast_id": 32, "character": "party secretary", "credit_id": "5e19b6772ea6b90017f09587", "gender": 0, "id": 2506780, "name": "Iraklis Papadakis", "order": 28, "profile_path": null}, {"cast_id": 33, "character": "party vestibule", "credit_id": "5e19b6d92ea6b90017f0965d", "gender": 0, "id": 2506782, "name": "Aris Emmanouil", "order": 29, "profile_path": null}, {"cast_id": 34, "character": "reporter #2", "credit_id": "5e19b71ea0be28001800d4bc", "gender": 0, "id": 2506784, "name": "Hristos Hristodoulidis", "order": 30, "profile_path": null}, {"cast_id": 35, "character": "reporter #3", "credit_id": "5e19b74ca0be28001800d512", "gender": 0, "id": 1539769, "name": "Evris Papanikolas", "order": 31, "profile_path": null}, {"cast_id": 36, "character": "party official #1", "credit_id": "5e19b77e255dba0011e191f9", "gender": 0, "id": 1972568, "name": "Andreas Tsilifonis", "order": 32, "profile_path": null}, {"cast_id": 37, "character": "ERT technician #1", "credit_id": "5e19b7abb3f6f50012d4e853", "gender": 0, "id": 2506787, "name": "Odysseas Lappas", "order": 33, "profile_path": null}, {"cast_id": 38, "character": "ERT technician #2", "credit_id": "5e19b7d1b3f6f50014d50b88", "gender": 0, "id": 2422258, "name": "Vangelis Raptopoulos", "order": 34, "profile_path": null}, {"cast_id": 39, "character": "Examiner", "credit_id": "5e19b8022ea6b90013f0a872", "gender": 0, "id": 1561875, "name": "Thanasis Papageorgiou", "order": 35, "profile_path": null}], "crew": [{"credit_id": "5e19b8db6f43ec001062777d", "department": "Sound", "gender": 0, "id": 10328, "job": "Sound Mixer", "name": "Thanassis Arvanitis", "profile_path": null}, {"credit_id": "52fe4b229251416c910d0e6d", "department": "Directing", "gender": 0, "id": 36970, "job": "Director", "name": "Nikos Perakis", "profile_path": "/2XjN1jpGyBkiPCf9VolDAT2tKD0.jpg"}, {"credit_id": "52fe4b229251416c910d0e73", "department": "Writing", "gender": 0, "id": 36970, "job": "Writer", "name": "Nikos Perakis", "profile_path": "/2XjN1jpGyBkiPCf9VolDAT2tKD0.jpg"}, {"credit_id": "5e19b994255dba0011e19559", "department": "Sound", "gender": 2, "id": 73174, "job": "Music", "name": "Nikos Mamangakis", "profile_path": null}, {"credit_id": "5e19b9a82ea6b90017f09bcb", "department": "Editing", "gender": 0, "id": 1117591, "job": "Editor", "name": "Yannis Tsitsopoulos", "profile_path": null}, {"credit_id": "5e19ba0a6f43ec001362d546", "department": "Crew", "gender": 2, "id": 1147858, "job": "Cinematography", "name": "Giorgos Panousopoulos", "profile_path": "/gXQnN4FoLfdxM01Kmk5y75P7caO.jpg"}, {"credit_id": "5e19b9766f43ec00106278e1", "department": "Production", "gender": 2, "id": 1266207, "job": "Coordinating Producer", "name": "Yorgos Tsemberopoulos", "profile_path": "/hLix4bx2iJ1Y2YCBDO0BnCLdAva.jpg"}, {"credit_id": "5e19b8eeb3f6f50014d50d98", "department": "Sound", "gender": 0, "id": 2039588, "job": "Sound", "name": "Nikos Ahladis", "profile_path": null}, {"credit_id": "5e19be3e6f43ec001362de9d", "department": "Crew", "gender": 0, "id": 2163609, "job": "Script", "name": "Fotini Argyropoulo", "profile_path": null}, {"credit_id": "5e19b86cb3f6f50014d50c9f", "department": "Production", "gender": 0, "id": 2506792, "job": "Executive Producer", "name": "Spyros Mavrogenis", "profile_path": null}, {"credit_id": "5e19b89cb3f6f50014d50ce1", "department": "Costume & Make-Up", "gender": 0, "id": 2506793, "job": "Costume Design", "name": "Afroditi Kontzia", "profile_path": null}, {"credit_id": "5e19b887255dba0011e193b9", "department": "Art", "gender": 0, "id": 2506793, "job": "Set Decoration", "name": "Afroditi Kontzia", "profile_path": null}, {"credit_id": "5e19b8be2ea6b90013f0a9a1", "department": "Costume & Make-Up", "gender": 0, "id": 2506794, "job": "Makeup Artist", "name": "Maroula Vasiliadou", "profile_path": null}, {"credit_id": "5e19b9032ea6b90015f0e13b", "department": "Directing", "gender": 0, "id": 2506795, "job": "Assistant Director", "name": "Panos Thomaidis", "profile_path": null}, {"credit_id": "5e19b90fa0be28001800d85e", "department": "Directing", "gender": 0, "id": 2506796, "job": "Assistant Director", "name": "Dimitra Arapoglou", "profile_path": null}, {"credit_id": "5e19b9cf255dba0016e19f0e", "department": "Production", "gender": 0, "id": 2506797, "job": "Production Manager", "name": "Dimitris Tourlis", "profile_path": null}]}}