{"adult": false, "backdrop_path": "/hCcNNusLGDpRhMk37EYjoFFwx72.jpg", "belongs_to_collection": null, "budget": 0, "genres": [{"id": 16, "name": "Animation"}, {"id": 99, "name": "Documentary"}], "homepage": "http://www.pablothemovie.com/", "id": 153153, "imdb_id": "tt1049406", "original_language": "en", "original_title": "Pablo", "overview": "Pablo blends documentary and animation elements to tell the saga of \"famous unknown\" Pablo Ferro, a man with a personal journey that spans from Havana, during the pre-Cuban revolution to his current home, in the garage behind his son's house.", "popularity": 2.633, "poster_path": "/6Lcm2L668QOsBqL1DoH6EZEwWTr.jpg", "production_companies": [{"id": 12565, "logo_path": null, "name": "Goldstreet Films", "origin_country": ""}], "production_countries": [{"iso_3166_1": "US", "name": "United States of America"}], "release_date": "2012-10-17", "revenue": 0, "runtime": 90, "spoken_languages": [{"iso_639_1": "en", "name": "English"}], "status": "Released", "tagline": "PABLO is an animated biography that takes us through the exhilarating saga of design legend Pablo Ferro.", "title": "Pablo", "video": false, "vote_average": 6.2, "vote_count": 3, "keywords": {"keywords": [{"id": 5565, "name": "biography"}]}, "similar": {"page": 1, "results": [{"adult": false, "backdrop_path": "/mYKP6qcDUimVMAHQWLOuDHjO19S.jpg", "genre_ids": [35], "id": 445629, "original_language": "en", "original_title": "Fighting with My Family", "overview": "Born into a tight-knit wrestling family, Paige and her brother Zak are ecstatic when they get the once-in-a-lifetime opportunity to try out for the WWE. But when only Paige earns a spot in the competitive training program, she must leave her loved ones behind and face this new cutthroat world alone. Paige's journey pushes her to dig deep and ultimately prove to the world that what makes her different is the very thing that can make her a star.", "poster_path": "/cVhe15rJLRjolunSWLBN6xQLyGU.jpg", "release_date": "2019-02-14", "title": "Fighting with My Family", "video": false, "vote_average": 6.7, "vote_count": 642, "popularity": 23.641}, {"adult": false, "backdrop_path": "/jK3EAFk3GdOaQfUDCOiTujzMpwH.jpg", "genre_ids": [18], "id": 389015, "original_language": "en", "original_title": "I, Tonya", "overview": "Competitive ice skater Tonya Harding rises amongst the ranks at the U. S. Figure Skating Championships, but her future in the sport is thrown into doubt when her ex-husband intervenes.", "poster_path": "/6gNXwSHxaksR1PjVZRqNapmkgj3.jpg", "release_date": "2017-12-08", "title": "I, Tonya", "video": false, "vote_average": 7.5, "vote_count": 3327, "popularity": 19.513}, {"adult": false, "backdrop_path": "/43fnzmOMO5zOUFH3EzyuwSh87IS.jpg", "genre_ids": [18], "id": 45317, "original_language": "en", "original_title": "The Fighter", "overview": "The Fighter, is a drama about boxer \"Irish\" Micky Ward's unlikely road to the world light welterweight title. His Rocky-like rise was shepherded by half-brother Dicky, a boxer-turned-trainer who rebounded in life after nearly being KO'd by drugs and crime.", "poster_path": "/ytGIpdxYyvXwch5QILfquSTMA9f.jpg", "release_date": "2010-12-17", "title": "The Fighter", "video": false, "vote_average": 7.3, "vote_count": 2572, "popularity": 19.636}, {"id": 487558, "video": false, "vote_count": 4017, "vote_average": 7.6, "title": "BlacKkKlansman", "release_date": "2018-07-30", "original_language": "en", "original_title": "BlacKkKlansman", "genre_ids": [80], "backdrop_path": "/wKRrldOtg6HVeGqGLls6iT9XO7I.jpg", "adult": false, "overview": "Colorado Springs, late 1970s. Ron Stallworth, an African American police officer, and Flip Zimmerman, his Jewish colleague, run an undercover operation to infiltrate the Ku Klux Klan.", "poster_path": "/8jxqAvSDoneSKRczaK8v9X5gqBp.jpg", "popularity": 30.098}, {"id": 266856, "video": false, "vote_count": 6976, "vote_average": 7.9, "title": "The Theory of Everything", "release_date": "2014-11-26", "original_language": "en", "original_title": "The Theory of Everything", "genre_ids": [18, 10749], "backdrop_path": "/geAe08WmchATnZF461WffQBqJk1.jpg", "adult": false, "overview": "The Theory of Everything is the extraordinary story of one of the world\u2019s greatest living minds, the renowned astrophysicist Stephen Hawking, who falls deeply in love with fellow Cambridge student Jane Wilde.", "poster_path": "/4jspr8hLLuju59bCnMiefzRW4p0.jpg", "popularity": 22.686}, {"adult": false, "backdrop_path": "/nU6DDTabbMkd3649WYtSiOdHCMC.jpg", "genre_ids": [18, 10749], "id": 332283, "original_language": "en", "original_title": "Mary Shelley", "overview": "The love affair between poet Percy Shelley and Mary Wollstonecraft Godwin resulted in the creation of an immortal novel, \u201cFrankenstein; or, The Modern Prometheus.\u201d", "poster_path": "/gKHJTsrfxJtfFNPQJn2hDNEMtFf.jpg", "release_date": "2018-04-22", "title": "Mary Shelley", "video": false, "vote_average": 7.1, "vote_count": 516, "popularity": 12.227}, {"id": 339877, "video": false, "vote_count": 1418, "vote_average": 8.2, "title": "Loving Vincent", "release_date": "2017-06-22", "original_language": "en", "original_title": "Loving Vincent", "genre_ids": [16, 18, 9648], "backdrop_path": "/adFgBkl35kdI0bSrWZO2xury1JB.jpg", "adult": false, "overview": "The film brings the paintings of Vincent van Gogh to life to tell his remarkable story. Every one of the 65,000 frames of the film is an oil-painting hand-painted by 125 professional oil-painters who travelled from all across the world to the Loving Vincent studios in Poland and Greece to be a part of the production. As remarkable as Vincent\u2019s brilliant paintings are his passionate and ill-fated life and mysterious death.", "poster_path": "/56sq57kDm7XgyXBYrgJLumo0Jac.jpg", "popularity": 16.365}, {"id": 451915, "video": false, "vote_count": 816, "vote_average": 7.6, "title": "Beautiful Boy", "release_date": "2018-10-12", "original_language": "en", "original_title": "Beautiful Boy", "genre_ids": [18], "backdrop_path": "/sOhtC4cmaYPOlcjXCWxxrx2NKKn.jpg", "adult": false, "overview": "After he and his first wife separate, journalist David Sheff struggles to help their teenage son, who goes from experimenting with drugs to becoming devastatingly addicted to methamphetamine.", "poster_path": "/i7gsLrNxpSf8NF5IZIrcOEfMyA3.jpg", "popularity": 19.006}, {"id": 228970, "video": false, "vote_count": 1566, "vote_average": 7.0, "title": "Wild", "release_date": "2014-12-05", "original_language": "en", "original_title": "Wild", "genre_ids": [18], "backdrop_path": "/pl6mEeLTI4IRnjbBGTMrJSBoYsU.jpg", "adult": false, "overview": "A woman with a tragic past decides to start her new life by hiking for one thousand miles on the Pacific Crest Trail.", "poster_path": "/zpdwj7Q8ZdTX2bWbltCFjVwugJu.jpg", "popularity": 12.623}, {"id": 1955, "video": false, "vote_count": 1711, "vote_average": 8.1, "title": "The Elephant Man", "release_date": "1980-10-02", "original_language": "en", "original_title": "The Elephant Man", "genre_ids": [18, 36], "backdrop_path": "/rR479zn26lJp4vNxXKjfBVCHLAW.jpg", "adult": false, "overview": "A Victorian surgeon rescues a heavily disfigured man being mistreated by his \"owner\" as a side-show freak. Behind his monstrous fa\u00e7ade, there is revealed a person of great intelligence and sensitivity. Based on the true story of Joseph Merrick (called John Merrick in the film), a severely deformed man in 19th century London.", "poster_path": "/lDXJUmLQsViSKLbil2luD91l2kE.jpg", "popularity": 12.883}, {"adult": false, "backdrop_path": "/urnGzQvP8fwWWGkn1k809KqIjbm.jpg", "genre_ids": [18], "id": 87093, "original_language": "en", "original_title": "Big Eyes", "overview": "The story of the awakening of painter, Margaret Keane, her phenomenal success in the 1950s, and the subsequent legal difficulties she had with her husband, who claimed credit for her works in the 1960s.", "poster_path": "/z2tqzprHojhgEGYKQepjU28oQg6.jpg", "release_date": "2014-12-24", "title": "Big Eyes", "video": false, "vote_average": 7.0, "vote_count": 2349, "popularity": 14.024}, {"id": 5915, "video": false, "vote_count": 6283, "vote_average": 7.8, "title": "Into the Wild", "release_date": "2007-09-11", "original_language": "en", "original_title": "Into the Wild", "genre_ids": [12, 18], "backdrop_path": "/9yJehIjvR7ULOLxeDJoth4kDDNe.jpg", "adult": false, "overview": "After graduating from Emory University in 1992, top student and athlete Christopher McCandless abandons his possessions, gives his entire $24,000 savings account to charity, and hitchhikes to Alaska to live in the wilderness.", "poster_path": "/lHyYgaocXR6KcJLxVmxZDj115hH.jpg", "popularity": 13.103}, {"adult": false, "backdrop_path": "/kiWvoV78Cc3fUwkOHKzyBgVdrDD.jpg", "genre_ids": [37, 18, 12], "id": 281957, "original_language": "en", "original_title": "The Revenant", "overview": "In the 1820s, a frontiersman, Hugh Glass, sets out on a path of vengeance against those who left him for dead after a bear mauling.", "poster_path": "/oXUWEc5i3wYyFnL1Ycu8ppxxPvs.jpg", "release_date": "2015-12-25", "title": "The Revenant", "video": false, "vote_average": 7.5, "vote_count": 12127, "popularity": 24.135}, {"id": 457799, "video": false, "vote_count": 1569, "vote_average": 7.0, "title": "Extremely Wicked, Shockingly Evil and Vile", "release_date": "2019-05-02", "original_language": "en", "original_title": "Extremely Wicked, Shockingly Evil and Vile", "genre_ids": [80, 18, 53], "backdrop_path": "/uRoA67sM5vvCI4cplxhl67BTPly.jpg", "adult": false, "overview": "A chronicle of the crimes of Ted Bundy, from the perspective of his longtime girlfriend, Elizabeth Kloepfer, who refused to believe the truth about him for years.", "poster_path": "/zSuJ3r5zr5T26tTxyygHhgkUAIM.jpg", "popularity": 20.961}, {"id": 411728, "video": false, "vote_count": 342, "vote_average": 7.2, "title": "The Professor and the Madman", "release_date": "2019-03-07", "original_language": "en", "original_title": "The Professor and the Madman", "genre_ids": [18, 36, 9648, 53], "backdrop_path": "/zhNfM1CSQqJtIqelwlK9iKtSd9P.jpg", "adult": false, "overview": "Professor James Murray begins work compiling words for the first edition of the Oxford English Dictionary in the mid 19th century, and receives over 10,000 entries from a patient at Broadmoor Criminal Lunatic Asylum, Dr. William Minor.", "poster_path": "/gtGCDLhfjW96qVarwctnuTpGOtD.jpg", "popularity": 14.972}, {"id": 316029, "video": false, "vote_count": 5853, "vote_average": 8.0, "title": "The Greatest Showman", "release_date": "2017-12-20", "original_language": "en", "original_title": "The Greatest Showman", "genre_ids": [18], "backdrop_path": "/zpq404Sk7qQ7N4x3xOeNgp74GtU.jpg", "adult": false, "overview": "The story of American showman P.T. Barnum, founder of the circus that became the famous traveling Ringling Bros. and Barnum & Bailey Circus.", "poster_path": "/b9CeobiihCx1uG1tpw8hXmpi7nm.jpg", "popularity": 29.077}, {"id": 401847, "video": false, "vote_count": 664, "vote_average": 6.8, "title": "Can You Ever Forgive Me?", "release_date": "2018-10-19", "original_language": "en", "original_title": "Can You Ever Forgive Me?", "genre_ids": [35, 80, 18], "backdrop_path": "/shIOFWkjTn2NRvq5r4Mn2xLdZeJ.jpg", "adult": false, "overview": "When a bestselling celebrity biographer is no longer able to get published because she has fallen out of step with current tastes, she turns her art form to deception.", "poster_path": "/hPuZR2bFoV0kuBrA98exWyvTf40.jpg", "popularity": 18.675}, {"id": 205775, "video": false, "vote_count": 2362, "vote_average": 6.6, "title": "In the Heart of the Sea", "release_date": "2015-11-20", "original_language": "en", "original_title": "In the Heart of the Sea", "genre_ids": [28, 12, 18, 36, 53], "backdrop_path": "/aZoZ0NglXgiBMToem9HhTAYYamw.jpg", "adult": false, "overview": "In the winter of 1820, the New England whaling ship Essex is assaulted by something no one could believe\u2014a whale of mammoth size and will, and an almost human sense of vengeance.", "poster_path": "/zVmWh0Zfg4UhbvdGI8LQrn1lQZJ.jpg", "popularity": 18.435}, {"id": 300671, "video": false, "vote_count": 1700, "vote_average": 7.1, "title": "13 Hours: The Secret Soldiers of Benghazi", "release_date": "2016-01-13", "original_language": "en", "original_title": "13 Hours: The Secret Soldiers of Benghazi", "genre_ids": [28, 18, 36, 53, 10752], "backdrop_path": "/hY8myWhjSOUeeiPskhOfwwgaCwc.jpg", "adult": false, "overview": "An American Ambassador is killed during an attack at a U.S. compound in Libya as a security team struggles to make sense out of the chaos.", "poster_path": "/4gpW4MkRI0BB17GHOJzXq0WamDP.jpg", "popularity": 20.173}, {"adult": false, "backdrop_path": "/w41zFKYTsq4wf5QnQJWMXuzWl2F.jpg", "genre_ids": [18, 28], "id": 96721, "original_language": "en", "original_title": "Rush", "overview": "A biographical drama centered on the rivalry between Formula 1 drivers James Hunt and Niki Lauda during the 1976 Formula One motor-racing season.", "poster_path": "/cjEepHZOZAwmK6nAj5jis6HV75E.jpg", "release_date": "2013-09-02", "title": "Rush", "video": false, "vote_average": 7.7, "vote_count": 4276, "popularity": 17.673}], "total_pages": 389, "total_results": 7780}, "recommendations": {"page": 1, "results": [], "total_pages": 1, "total_results": 0}, "credits": {"cast": [{"cast_id": 1, "character": "Narrator / Professor", "credit_id": "52fe4b3a9251416c910d3dcf", "gender": 2, "id": 1229, "name": "Jeff Bridges", "order": 0, "profile_path": "/xms1RAY6q7Lzp7wNeRCB0kzhucn.jpg"}, {"cast_id": 2, "character": "Himself", "credit_id": "52fe4b3a9251416c910d3dd3", "gender": 2, "id": 1271, "name": "Andy Garc\u00eda", "order": 1, "profile_path": "/zE3KYH6f6cxCehJJYKDTQa8sCaK.jpg"}, {"cast_id": 3, "character": "Himself", "credit_id": "52fe4b3a9251416c910d3dd7", "gender": 2, "id": 10127, "name": "Jon Voight", "order": 2, "profile_path": "/oxLsItDwLddXu8YYJCfkddYNejL.jpg"}, {"cast_id": 4, "character": "Herself", "credit_id": "52fe4b3a9251416c910d3ddb", "gender": 1, "id": 5657, "name": "Anjelica Huston", "order": 3, "profile_path": "/paPxkSeN2IrhYRVByyucYDljD1J.jpg"}, {"cast_id": 5, "character": "Himself", "credit_id": "52fe4b3a9251416c910d3ddf", "gender": 2, "id": 59874, "name": "Robert Downey Sr.", "order": 4, "profile_path": "/6ITEZoNCgMweY7Sf6DxV4T5mkwG.jpg"}], "crew": [{"credit_id": "52fe4b3a9251416c910d3de5", "department": "Directing", "gender": 0, "id": 1133902, "job": "Director", "name": "Richard Goldgewicht", "profile_path": null}, {"credit_id": "52fe4b3a9251416c910d3deb", "department": "Writing", "gender": 0, "id": 1133903, "job": "Screenplay", "name": "Adam Trunell", "profile_path": null}]}}