{"adult": false, "backdrop_path": "/zdmTRoJ1TBiZfHEuATgObgF15px.jpg", "belongs_to_collection": null, "budget": 0, "genres": [{"id": 16, "name": "Animation"}], "homepage": null, "id": 153118, "imdb_id": "tt0415853", "original_language": "fr", "original_title": "L'homme sans ombre", "overview": "An animated film made in 2004 by the Swiss director Georges Schwizgebel. It is an adaptation of The Curious Case of Peter Shlemihl, written by German writer Adelbert von Chamisso 1813 novel.", "popularity": 0.741, "poster_path": "/VnUHXYAqXxP6H8BhmeHDGsXJer.jpg", "production_companies": [{"id": 73930, "logo_path": null, "name": "Studio GDS", "origin_country": ""}, {"id": 10473, "logo_path": "/lMUDQZVtg8On4PAW5XFQPaQy6UK.png", "name": "National Film Board of Canada", "origin_country": "CA"}], "production_countries": [{"iso_3166_1": "CH", "name": "Switzerland"}, {"iso_3166_1": "CA", "name": "Canada"}], "release_date": "2004-12-31", "revenue": 0, "runtime": 9, "spoken_languages": [{"iso_639_1": "xx", "name": "No Language"}], "status": "Released", "tagline": "", "title": "The Man Without a Shadow", "video": false, "vote_average": 7.4, "vote_count": 11, "keywords": {"keywords": [{"id": 818, "name": "based on novel or book"}, {"id": 214549, "name": "short"}]}, "similar": {"page": 1, "results": [{"id": 14813, "video": false, "vote_count": 456, "vote_average": 7.6, "title": "Mickey's Christmas Carol", "release_date": "1983-10-19", "original_language": "en", "original_title": "Mickey's Christmas Carol", "genre_ids": [16, 10751], "backdrop_path": "/fDK3xeAcQfQ40ZUULgZshElkspa.jpg", "adult": false, "overview": "It is an adaptation of the Charles Dickens classic A Christmas Carol, featuring Scrooge McDuck as his namesake and inspiration Ebenezer Scrooge and Mickey Mouse as Bob Cratchit. This film was based on a 1972 audio musical entitled Disney's A Christmas Carol. It is a twenty-four minute animated short film produced by Walt Disney Productions as an accompaniment to a re-release of The Rescuers.", "poster_path": "/29iF1IiC3ZyJQ1kmTf4LD8p8oro.jpg", "popularity": 18.001}, {"adult": false, "backdrop_path": "/4brEMzPazQE3hv3mogj6k1a29RP.jpg", "genre_ids": [10749, 14, 16], "id": 3933, "original_language": "en", "original_title": "Corpse Bride", "overview": "Set in a 19th-century european village, this stop-motion animation feature follows the story of Victor, a young man whisked away to the underworld and wed to a mysterious corpse bride, while his real bride Victoria waits bereft in the land of the living.", "poster_path": "/o9GbcdP7rOg2m1NyUnUR3ZwNcTE.jpg", "release_date": "2005-09-12", "title": "Corpse Bride", "video": false, "vote_average": 7.4, "vote_count": 4926, "popularity": 16.93}, {"id": 326359, "video": false, "vote_count": 1179, "vote_average": 6.8, "title": "Frozen Fever", "release_date": "2015-03-09", "original_language": "en", "original_title": "Frozen Fever", "genre_ids": [12, 16, 10751], "backdrop_path": "/ubioPGniCfDiASmYYpeJs5RRNaC.jpg", "adult": false, "overview": "On Anna's birthday, Elsa and Kristoff are determined to give her the best celebration ever, but Elsa's icy powers may put more than just the party at risk.", "poster_path": "/lKJiVPzsAO9IJ4LKWXZ8vkR2bg4.jpg", "popularity": 17.061}, {"id": 9016, "video": false, "vote_count": 2230, "vote_average": 7.4, "title": "Treasure Planet", "release_date": "2002-11-26", "original_language": "en", "original_title": "Treasure Planet", "genre_ids": [12, 16, 14, 878, 10751], "backdrop_path": "/3HVvtFm9NvOfn1u3yfeEugh2ZWj.jpg", "adult": false, "overview": "When space galleon cabin boy Jim Hawkins discovers a map to an intergalactic \"loot of a thousand worlds,\" a cyborg cook named John Silver teaches him to battle supernovas and space storms. But, soon, Jim realizes Silver is a pirate intent on mutiny!", "poster_path": "/gFfZVblQoExIVK4PVCJ9xZZJJKy.jpg", "popularity": 25.816}, {"id": 150540, "video": false, "vote_count": 13953, "vote_average": 7.9, "title": "Inside Out", "release_date": "2015-06-09", "original_language": "en", "original_title": "Inside Out", "genre_ids": [16, 35, 18, 10751], "backdrop_path": "/szytSpLAyBh3ULei3x663mAv5ZT.jpg", "adult": false, "overview": "Growing up can be a bumpy road, and it's no exception for Riley, who is uprooted from her Midwest life when her father starts a new job in San Francisco. Riley's guiding emotions\u2014 Joy, Fear, Anger, Disgust and Sadness\u2014live in Headquarters, the control centre inside Riley's mind, where they help advise her through everyday life and tries to keep things positive, but the emotions conflict on how best to navigate a new city, house and school.", "poster_path": "/aAmfIX3TT40zUHGcCKrlOZRKC7u.jpg", "popularity": 47.351}, {"adult": false, "backdrop_path": "/5OeY4U2rzePxWq2rkqMajUx2gz7.jpg", "genre_ids": [16, 10751, 12, 14, 10749], "id": 812, "original_language": "en", "original_title": "Aladdin", "overview": "Princess Jasmine grows tired of being forced to remain in the palace, so she sneaks out into the marketplace, in disguise, where she meets street-urchin Aladdin.  The couple falls in love, although Jasmine may only marry a prince.  After being thrown in jail, Aladdin becomes embroiled in a plot to find a mysterious lamp, with which the evil Jafar hopes to rule the land.", "poster_path": "/mjKozYRuHc9j7SmiXmbVmCiAM0A.jpg", "release_date": "1992-11-25", "title": "Aladdin", "video": false, "vote_average": 7.6, "vote_count": 7288, "popularity": 46.629}, {"id": 9479, "video": false, "vote_count": 5315, "vote_average": 7.8, "title": "The Nightmare Before Christmas", "release_date": "1993-10-09", "original_language": "en", "original_title": "The Nightmare Before Christmas", "genre_ids": [16, 14, 10751], "backdrop_path": "/16lk65YfrDFIr6evkWRjSeOOSws.jpg", "adult": false, "overview": "Tired of scaring humans every October 31 with the same old bag of tricks, Jack Skellington, the spindly king of Halloween Town, kidnaps Santa Claus and plans to deliver shrunken heads and other ghoulish gifts to children on Christmas morning. But as Christmas approaches, Jack's rag-doll girlfriend, Sally, tries to foil his misguided plans.", "poster_path": "/6oxkO1VgKCq74fNILKAg6t2dVEt.jpg", "popularity": 20.34}, {"adult": false, "backdrop_path": "/hPByrqJXCXIViFheXQh48wtI7T6.jpg", "genre_ids": [16, 12, 14, 10751], "id": 31135, "original_language": "en", "original_title": "Mickey Mouse: Mickey and the Beanstalk", "overview": "Based on the timeless adventures of \"Jack and the Beanstalk,\" Mickey, Donald and Goofy climb a fantastic beanstalk up into the sky to a place where everything is huge -- the food, the castle and the fearsome giant named Willy who guards a beautiful golden harp! Will Mickey and his friends outwit the giant and make it safely back home?", "poster_path": "/kk1Xg1f1lv6loekjlKinpKJlGOu.jpg", "release_date": "1947-09-27", "title": "Mickey Mouse: Mickey and the Beanstalk", "video": false, "vote_average": 6.7, "vote_count": 166, "popularity": 12.653}, {"adult": false, "backdrop_path": "/yFtr1BD7AHeruIm9jsVnoebEN2v.jpg", "genre_ids": [16, 35, 10751, 14], "id": 170687, "original_language": "en", "original_title": "The Boxtrolls", "overview": "An orphaned boy raised by underground creatures called Boxtrolls comes up from the sewers and out of his box to save his family and the town from the evil exterminator, Archibald Snatcher.", "poster_path": "/82BWSf1NfCm18ZJtAOIym1QRd24.jpg", "release_date": "2014-09-10", "title": "The Boxtrolls", "video": false, "vote_average": 6.6, "vote_count": 1119, "popularity": 12.991}, {"adult": false, "backdrop_path": "/twGxeStlGooWV3gP6ZIcSNuQ6jf.jpg", "genre_ids": [12, 16, 10751, 14], "id": 81684, "original_language": "en", "original_title": "The Gruffalo's Child", "overview": "A follow up to the 2009 animated feature and adapted from the childrens' book by Julia Donaldson and Alex Scheffler.  The Gruffalo's child explores the deep dark wood in search of the big bad mouse and meets the Snake, Owl and Fox in the process.  She eventually finds the mouse, who manages to outwit her like the Gruffalo before!", "poster_path": "/qaGH2AoaLvoGXURQtNzj1nw6oZd.jpg", "release_date": "2011-12-25", "title": "The Gruffalo's Child", "video": false, "vote_average": 6.9, "vote_count": 73, "popularity": 13.766}, {"id": 621733, "video": false, "vote_count": 0, "vote_average": 0.0, "title": "A Trip to the Seaside", "release_date": "2019-08-30", "original_language": "en", "original_title": "A Trip to the Seaside", "genre_ids": [99], "backdrop_path": null, "adult": false, "overview": "Experimental short film on the excitement and rush of a day trip", "poster_path": "/AuZVhpoJ4jm2LWDhoJKfxQfhDAi.jpg", "popularity": 1.324}, {"id": 19, "video": false, "vote_count": 1340, "vote_average": 8.2, "title": "Metropolis", "release_date": "1927-01-10", "original_language": "de", "original_title": "Metropolis", "genre_ids": [18, 878], "backdrop_path": "/gmH0N0bdlYGN1EUr8U2cMQYyg78.jpg", "adult": false, "overview": "In a futuristic city sharply divided between the working class and the city planners, the son of the city's mastermind falls in love with a working class prophet who predicts the coming of a savior to mediate their differences.", "poster_path": "/qriaeUUwdmlgethK3aSAx68mG05.jpg", "popularity": 20.574}, {"id": 901, "video": false, "vote_count": 1026, "vote_average": 8.4, "title": "City Lights", "release_date": "1931-02-01", "original_language": "xx", "original_title": "City Lights", "genre_ids": [35, 18, 10749], "backdrop_path": "/vT6ux2rdyg2kexuLisO5Ygz7pHg.jpg", "adult": false, "overview": "City Lights is the first silent film that Charlie Chaplin directed after he established himself with sound accompanied films. The film is about a penniless man who falls in love with a flower girl.", "poster_path": "/bXNvzjULc9jrOVhGfjcc64uKZmZ.jpg", "popularity": 14.294}, {"adult": false, "backdrop_path": "/wcT7srQ4GeeMqlszMFEtPZ7v8T7.jpg", "genre_ids": [35, 10749], "id": 28978, "original_language": "en", "original_title": "The Circus", "overview": "Charlie, a wandering tramp, becomes a circus handyman and falls in love with the circus owner's daughter. Unaware of Charlie's affection, the girl falls in love with a handsome young performer. Charlie's versatility makes him star of the show when he substitutes for an ailing tightwire walker. He is discharged from the company when he protects the girl from her father's abuse, but he returns and appeals to the handsome performer to marry the girl. After the wedding the father prevails upon them to rejoin the circus. Charlie is hired again, but he stays behind when the caravan moves on.", "poster_path": "/awTf4Y6TGvgi3VYtGNINyyJJy9Q.jpg", "release_date": "1928-01-06", "title": "The Circus", "video": false, "vote_average": 8.2, "vote_count": 330, "popularity": 12.253}, {"adult": false, "backdrop_path": "/3YGfpjW0OPcrDSarphlEr64WftB.jpg", "genre_ids": [16], "id": 66834, "original_language": "en", "original_title": "Clock Cleaners", "overview": "Mickey, Donald, and Goofy are cleaning a large clock. Among the complications: Mickey fights a sleeping stork that doesn't want to leave, Donald gets tangled up in the main-spring, and Goofy is inside the bell when the clock strikes four.", "poster_path": "/jKM9p9qkibFMraRodEUzEVMemmY.jpg", "release_date": "1937-10-15", "title": "Clock Cleaners", "video": false, "vote_average": 7.0, "vote_count": 41, "popularity": 5.975}, {"id": 650755, "video": false, "vote_count": 0, "vote_average": 0.0, "title": "Atordoado, Eu Permane\u00e7o Atento", "release_date": "2020-01-15", "original_language": "pt", "original_title": "Atordoado, Eu Permane\u00e7o Atento", "genre_ids": [99], "backdrop_path": null, "adult": false, "overview": "", "poster_path": "/exbM8qk6f6T44olJXcM8ix1sunL.jpg", "popularity": 7.153}, {"adult": false, "backdrop_path": "/qFLDF62VbWyyxkwco9lwZqkGoMB.jpg", "genre_ids": [16, 10751], "id": 10895, "original_language": "en", "original_title": "Pinocchio", "overview": "Lonely toymaker Geppetto has his wishes answered when the Blue Fairy arrives to bring his wooden puppet Pinocchio to life. Before becoming a real boy, however, Pinocchio must prove he's worthy as he sets off on an adventure with his whistling sidekick and conscience, Jiminy Cricket.", "poster_path": "/gN1dQBHi4557cFduIu9njOr6knW.jpg", "release_date": "1940-02-23", "title": "Pinocchio", "video": false, "vote_average": 7.0, "vote_count": 3429, "popularity": 24.532}, {"id": 313297, "video": false, "vote_count": 2276, "vote_average": 7.7, "title": "Kubo and the Two Strings", "release_date": "2016-08-18", "original_language": "en", "original_title": "Kubo and the Two Strings", "genre_ids": [12, 16, 10751], "backdrop_path": "/aF4TrSc1IbNNtsWdwixMQNku3Dv.jpg", "adult": false, "overview": "Kubo mesmerizes the people in his village with his magical gift for spinning wild tales with origami. When he accidentally summons an evil spirit seeking vengeance, Kubo is forced to go on a quest to solve the mystery of his fallen samurai father and his mystical weaponry, as well as discover his own magical powers.", "poster_path": "/3Kr9CIIMcXTPlm6cdZ9y3QTe4Y7.jpg", "popularity": 29.328}, {"id": 10545, "video": false, "vote_count": 3017, "vote_average": 7.0, "title": "The Hunchback of Notre Dame", "release_date": "1996-06-21", "original_language": "en", "original_title": "The Hunchback of Notre Dame", "genre_ids": [16, 18, 10751], "backdrop_path": "/oslaee3VX9kJAjVezbjZKlEJDzn.jpg", "adult": false, "overview": "When Quasimodo defies the evil Frollo and ventures out to the Festival of Fools, the cruel crowd jeers him. Rescued by fellow outcast the gypsy Esmeralda, Quasi soon finds himself battling to save the people and the city he loves.", "poster_path": "/r7V92gY3AMO6li17MmGTixAnFcv.jpg", "popularity": 34.935}, {"id": 533, "video": false, "vote_count": 1440, "vote_average": 6.9, "title": "Wallace & Gromit: The Curse of the Were-Rabbit", "release_date": "2005-09-04", "original_language": "en", "original_title": "Wallace & Gromit: The Curse of the Were-Rabbit", "genre_ids": [12, 16, 35, 10751], "backdrop_path": "/v45E1vDhPp2hc1dEZx5KZuRsSxX.jpg", "adult": false, "overview": "Cheese-loving eccentric Wallace and his cunning canine pal, Gromit, investigate a mystery in Nick Park's animated adventure, in which the lovable inventor and his intrepid pup run a business ridding the town of garden pests. Using only humane methods that turn their home into a halfway house for evicted vermin, the pair stumble upon a mystery involving a voracious vegetarian monster that threatens to ruin the annual veggie-growing contest.", "poster_path": "/tLryx0x9TDV5rifA9W8yUvDZFHB.jpg", "popularity": 23.185}], "total_pages": 1079, "total_results": 21567}, "recommendations": {"page": 1, "results": [{"adult": false, "backdrop_path": null, "genre_ids": [], "id": 150458, "original_language": "en", "original_title": "Kataku", "overview": "Through puppets and animation, a traveler tells his story of walking through Settsu, coming to the town of Ikuta. He asks if someone can show him the Seeker's Mound. Late that day, a solitary maiden says she will lead him there.", "poster_path": "/vF43aSUWo2se9QLIwfPdo4We5We.jpg", "release_date": "1979-12-31", "title": "House of Flame", "video": false, "vote_average": 6.0, "vote_count": 7, "popularity": 2.513}, {"adult": false, "backdrop_path": null, "genre_ids": [27, 35, 16, 9648], "id": 150531, "original_language": "en", "original_title": "There It Is", "overview": "When a mysterious figure appears to cause a series of disruptions at the Frisbie Home in New York, word goes out to Scotland Yard that the Fuzz-Faced Phantom is at work. Soon, Charley MacNeesha and his assistant MacGregor are sent across the ocean to investigate. But even as they arrive at the home, a new series of weird events begins.", "poster_path": "/jDydMOYTPHsPQRND7VzgLLCic6I.jpg", "release_date": "1928-01-01", "title": "There It Is", "video": false, "vote_average": 5.9, "vote_count": 8, "popularity": 2.36}, {"id": 109379, "video": false, "vote_count": 8, "vote_average": 7.1, "title": "The Peach Thief", "release_date": "1964-11-09", "original_language": "bg", "original_title": "\u041a\u0440\u0430\u0434\u0435\u0446\u044a\u0442 \u043d\u0430 \u043f\u0440\u0430\u0441\u043a\u043e\u0432\u0438", "genre_ids": [18, 10749, 10752], "backdrop_path": "/oQOZeqboftSkNi5wU483UgPeoEN.jpg", "adult": false, "overview": "The wife of a Bulgarian POW camp's warden falls in love with a Serbian prisoner at the end of World War I.", "poster_path": "/maySiiLihlnl622Bu4mBlZ42oa0.jpg", "popularity": 2.591}, {"adult": false, "backdrop_path": null, "genre_ids": [], "id": 48712, "original_language": "en", "original_title": "78 Tours", "overview": "A waltz played with an accordion starts a short story about the running time.", "poster_path": "/jY4uW1mF9BlwEnfgeCfT8Z9fDkc.jpg", "release_date": "1985-01-01", "title": "78 Tours", "video": false, "vote_average": 6.5, "vote_count": 14, "popularity": 1.96}, {"adult": false, "backdrop_path": null, "genre_ids": [], "id": 154907, "original_language": "en", "original_title": "Sunday", "overview": "", "poster_path": "/uR0s8pXMKnuq5Vvy4U0Ec0paev2.jpg", "release_date": "1961-12-31", "title": "Sunday", "video": false, "vote_average": 5.8, "vote_count": 4, "popularity": 1.4}, {"adult": false, "backdrop_path": "/bx4vPH8j4EAKcVpB2IATtZFua8R.jpg", "genre_ids": [10749, 18, 35], "id": 47590, "original_language": "ru", "original_title": "\u0414\u0435\u0432\u0443\u0448\u043a\u0430 \u0441 \u043a\u043e\u0440\u043e\u0431\u043a\u043e\u0439", "overview": "Young and beautiful girl (Anna Sten), lives near Moscow, earning a making hats for the fashion store in Moscow. Due to the requirements of the Soviet government on standards of living space, the store owner has to prescribe it fictitiously in his apartment. But on the train she meets a young boy (Ivan Koval-Samborski), and the housing problem changes their lives.", "poster_path": "/9zIDUJkXyYiEPn6aBsn3ELIpBHB.jpg", "release_date": "1927-01-01", "title": "The Girl with the Hat Box", "video": false, "vote_average": 7.0, "vote_count": 10, "popularity": 2.419}, {"adult": false, "backdrop_path": null, "genre_ids": [99], "id": 344429, "original_language": "es", "original_title": "Los invencibles Shuaras del alto Amazonas", "overview": "Scenes of daily life in the Indian communities of Ecuador.", "poster_path": "/bkBjvRn3qJm1Glh790LxEZe6hMc.jpg", "release_date": "1926-06-11", "title": "The Invincible Shuar People of the Upper Amazon", "video": false, "vote_average": 5.0, "vote_count": 3, "popularity": 0.6}, {"adult": false, "backdrop_path": null, "genre_ids": [16, 35], "id": 47207, "original_language": "en", "original_title": "Manipulation", "overview": "", "poster_path": "/lhcwlw56DmsvM52C5bwYQ5nDwwS.jpg", "release_date": "1991-01-01", "title": "Manipulation", "video": false, "vote_average": 5.6, "vote_count": 8, "popularity": 2.17}, {"adult": false, "backdrop_path": null, "genre_ids": [18], "id": 167494, "original_language": "bn", "original_title": "\u09af\u09c1\u0995\u09cd\u09a4\u09bf-\u09a4\u0995\u09cd\u0995\u09cb \u0986\u09b0 \u0997\u09aa\u09cd\u09aa\u09cb", "overview": "Four men, each peculiar in his own way, embark on a quest to reason with the estranged wife of the protagonist.", "poster_path": "/2jV9sVBtvbk9v8o50wVzgE5jEA0.jpg", "release_date": "1974-01-01", "title": "Reason, Debate and a Story", "video": false, "vote_average": 5.6, "vote_count": 5, "popularity": 1.94}, {"adult": false, "backdrop_path": null, "genre_ids": [], "id": 341113, "original_language": "en", "original_title": "I Am Twenty", "overview": "Those born on Independence Day in 1947 were selected from different parts of India and interviewed to know their hopes and desires,ambitions, hobbies, fears and frustrations and the result is this unique film.", "poster_path": "/2sRHDxuqzbHShEqQCTL9MCesoe7.jpg", "release_date": "1967-04-01", "title": "I Am Twenty", "video": false, "vote_average": 6.7, "vote_count": 3, "popularity": 0.6}, {"adult": false, "backdrop_path": null, "genre_ids": [99], "id": 128313, "original_language": "hr", "original_title": "Jasenovac", "overview": "A documentary short film about the genocide at the Jasenovac concentration camp in Croatia in World War II.", "poster_path": "/vV0LEUIkYFx3nGrYmPlUIcag5Ju.jpg", "release_date": "1945-01-01", "title": "Jasenovac", "video": false, "vote_average": 5.3, "vote_count": 4, "popularity": 0.711}, {"adult": false, "backdrop_path": null, "genre_ids": [10752, 18], "id": 409962, "original_language": "en", "original_title": "USS VD: Ship of Shame", "overview": "This film was made by the U.S. government during World War II to show its young servicemen the results of \"fooling around\" with \"loose women\" overseas. Actual victims of such sexually transmitted diseases as syphilis and gonorrhoea are shown, along with the physical deterioration that accompanies those diseases.", "poster_path": "/qwwOF0sQ0hPQAIG4slLRYJ26C6X.jpg", "release_date": "1942-01-02", "title": "USS VD: Ship of Shame", "video": false, "vote_average": 3.8, "vote_count": 4, "popularity": 1.849}, {"adult": false, "backdrop_path": null, "genre_ids": [99], "id": 411379, "original_language": "de", "original_title": "Urlaub auf Sylt", "overview": "Vacation in Sylt is a black and white compilation film about Heinz Reinefarth, a Nazi Party member, high SS police leader of Warthe, and later mayor (1951-1964) of Westerland/Sylt.", "poster_path": "/6JJkC2LuOfKpbEGGWb31V5f4PM6.jpg", "release_date": "1957-01-01", "title": "Vacation in Sylt", "video": false, "vote_average": 5.0, "vote_count": 5, "popularity": 0.76}, {"adult": false, "backdrop_path": null, "genre_ids": [], "id": 229965, "original_language": "en", "original_title": "Pasht", "overview": "In honor of the cat, so named, and the goddess of all cats which she was named after. - CAT Film Festival", "poster_path": "/fq1aRJoMhd6Kpz05Gq5ZiCXgNgI.jpg", "release_date": "1966-02-04", "title": "Pasht", "video": false, "vote_average": 4.2, "vote_count": 6, "popularity": 0.781}, {"adult": false, "backdrop_path": null, "genre_ids": [], "id": 154908, "original_language": "en", "original_title": "Sort of a Commercial for an Icebag", "overview": "short film", "poster_path": "/qvM8Tp95MmFVlO1edraH4y0pcHK.jpg", "release_date": "1970-12-31", "title": "Sort of a Commercial for an Icebag", "video": false, "vote_average": 4.2, "vote_count": 5, "popularity": 0.6}, {"adult": false, "backdrop_path": "/25XEGxFsuSuOO9zk0Ayp2Fy1Sm7.jpg", "genre_ids": [10402, 18], "id": 148941, "original_language": "en", "original_title": "St. Louis Blues", "overview": "In this all-black cast short, legendary blues singer Bessie Smith finds her gambler lover Jimmy messin' with a pretty, younger woman; he leaves and she sings the blues, with chorus and dancers.", "poster_path": "/dv39xfGaBeuy8hZRDovTfS2fgwT.jpg", "release_date": "1929-09-07", "title": "St. Louis Blues", "video": false, "vote_average": 4.9, "vote_count": 7, "popularity": 1.879}, {"adult": false, "backdrop_path": null, "genre_ids": [99], "id": 152997, "original_language": "en", "original_title": "Warsaw Ghetto", "overview": "No information available regarding the film's director.  Just under 10 minutes of over an hour's footage survive.", "poster_path": "/lFAOlgY4esPUdaCfmNVF8zVegS3.jpg", "release_date": "1942-12-31", "title": "Warsaw Ghetto", "video": false, "vote_average": 5.0, "vote_count": 6, "popularity": 0.81}, {"adult": false, "backdrop_path": null, "genre_ids": [], "id": 162691, "original_language": "en", "original_title": "Fox Movietone News: Jenkins Orphanage Band", "overview": "The Jenkins Orphanage Band - comprised of young African-Americans in Charleston, South Carolin performs for the newsreel.", "poster_path": null, "release_date": "1928-04-29", "title": "Fox Movietone News: Jenkins Orphanage Band", "video": false, "vote_average": 5.0, "vote_count": 5, "popularity": 1.105}, {"adult": false, "backdrop_path": null, "genre_ids": [99], "id": 416826, "original_language": "mk", "original_title": "\u041c\u0430\u043d\u0438\u0444\u0435\u0441\u0442\u0430\u0446\u0438\u0438 \u043f\u043e \u043f\u043e\u0432\u043e\u0434 \u0425\u0443\u0440\u0438\u0435\u0442\u043e\u0442", "overview": "Early Balkan footage.", "poster_path": null, "release_date": "1908-09-18", "title": "The Celebration on H\u00fcrriyet", "video": false, "vote_average": 4.5, "vote_count": 6, "popularity": 0.628}, {"adult": false, "backdrop_path": null, "genre_ids": [], "id": 152973, "original_language": "en", "original_title": "Camps of the Dead", "overview": "Filmed in Buchenwald, Dachau and Ohrdruf  by \"Allied Cameramen\" there is no information about the director of the film.", "poster_path": "/vp4XMLsRKvJNtPGLB7gaxpr2l0s.jpg", "release_date": "1947-12-31", "title": "Camps of the Dead", "video": false, "vote_average": 5.0, "vote_count": 5, "popularity": 0.6}], "total_pages": 2, "total_results": 40}, "credits": {"cast": [], "crew": [{"credit_id": "52fe4b399251416c910d3bfd", "department": "Directing", "gender": 0, "id": 1100023, "job": "Director", "name": "Georges Schwizgebel", "profile_path": "/imFwmWlqOwNtld2ZPhsTjdxzEJv.jpg"}, {"credit_id": "59583ca7c3a3682750011ed2", "department": "Writing", "gender": 0, "id": 1842771, "job": "Novel", "name": "Adelbert von Chamisso", "profile_path": null}]}}