{"adult": false, "backdrop_path": "/wP2bXnfIQT725qb5P5evzK0gBSc.jpg", "belongs_to_collection": null, "budget": 0, "genres": [], "homepage": "", "id": 153292, "imdb_id": "tt0206446", "original_language": "en", "original_title": "Yellowstone Cubs", "overview": "Two bear cubs, Tuffy and Tubby, are separated from their mother and spend an entire summer romping through Yellowstone National Park. In the meantime, the mother bear follows their trail as she searches for them.", "popularity": 2.66, "poster_path": "/yiMqhw2sAALDAaYtoz8QxqHK1v7.jpg", "production_companies": [{"id": 3166, "logo_path": "/vyyv4Gy9nPqAZKElPm2izLlEaVS.png", "name": "Walt Disney Productions", "origin_country": "US"}], "production_countries": [{"iso_3166_1": "US", "name": "United States of America"}], "release_date": "1963-06-01", "revenue": 0, "runtime": 48, "spoken_languages": [], "status": "Released", "tagline": "", "title": "Yellowstone Cubs", "video": false, "vote_average": 7.0, "vote_count": 1, "keywords": {"keywords": [{"id": 10468, "name": "bear"}, {"id": 189153, "name": "yellowstone"}, {"id": 189154, "name": "cubs"}]}, "similar": {"page": 1, "results": [{"adult": false, "backdrop_path": "/kiWvoV78Cc3fUwkOHKzyBgVdrDD.jpg", "genre_ids": [37, 18, 12], "id": 281957, "original_language": "en", "original_title": "The Revenant", "overview": "In the 1820s, a frontiersman, Hugh Glass, sets out on a path of vengeance against those who left him for dead after a bear mauling.", "poster_path": "/oXUWEc5i3wYyFnL1Ycu8ppxxPvs.jpg", "release_date": "2015-12-25", "title": "The Revenant", "video": false, "vote_average": 7.5, "vote_count": 12127, "popularity": 24.135}, {"id": 10009, "video": false, "vote_count": 3246, "vote_average": 7.2, "title": "Brother Bear", "release_date": "2003-10-23", "original_language": "en", "original_title": "Brother Bear", "genre_ids": [12, 16, 10751], "backdrop_path": "/mDgZ8aLCrH4NcUJIvF0W5B8qa4G.jpg", "adult": false, "overview": "When an impulsive boy named Kenai is magically transformed into a bear, he must literally walk in another's footsteps until he learns some valuable life lessons. His courageous and often zany journey introduces him to a forest full of wildlife, including the lovable bear cub Koda, hilarious moose Rutt and Tuke, woolly mammoths and rambunctious rams.", "poster_path": "/otptPbEY0vBostmo95xwiiumMJm.jpg", "popularity": 19.159}, {"id": 7484, "video": false, "vote_count": 1587, "vote_average": 6.1, "title": "Open Season", "release_date": "2006-09-29", "original_language": "en", "original_title": "Open Season", "genre_ids": [12, 16, 35], "backdrop_path": "/7bmzhqOJ9TGXUU5d4pqYUWl3YZ8.jpg", "adult": false, "overview": "Boog, a domesticated 900lb. Grizzly bear finds himself stranded in the woods 3 days before Open Season. Forced to rely on Elliot, a fast-talking mule deer, the two form an unlikely friendship and must quickly rally other forest animals if they are to form a rag-tag army against the hunters.", "poster_path": "/9TY3wQPNhZ60Mng0JetKEOfXqxU.jpg", "popularity": 21.169}, {"adult": false, "backdrop_path": "/ojGHJCgkjGuNQw77dvkZMmuCJn8.jpg", "genre_ids": [12, 18, 53], "id": 428446, "original_language": "en", "original_title": "Walking Out", "overview": "A city teen travels to Montana to go hunting with his estranged father, only for the strained trip to become a battle for survival when they encounter a grizzly bear", "poster_path": "/wK3l4ZfcRXFph6uop7yr7scM2SP.jpg", "release_date": "2017-01-21", "title": "Walking Out", "video": false, "vote_average": 5.9, "vote_count": 77, "popularity": 7.922}, {"id": 9433, "video": false, "vote_count": 620, "vote_average": 6.7, "title": "The Edge", "release_date": "1997-09-06", "original_language": "en", "original_title": "The Edge", "genre_ids": [28, 12, 18], "backdrop_path": "/sraEMMM67zLqpZrz6vtrgwTqXgz.jpg", "adult": false, "overview": "The plane carrying wealthy Charles Morse crashes down in the Alaskan wilderness. Together with the two other passengers, photographer Robert and assistant Stephen, Charles devises a plan to help them reach civilization. However, his biggest obstacle might not be the elements, or even the Kodiak bear stalking them -- it could be Robert, whom Charles suspects is having an affair with his wife and would not mind seeing him dead.", "poster_path": "/fvokkKZuhMosdpABHduMdOdIDkp.jpg", "popularity": 12.295}, {"id": 420814, "video": false, "vote_count": 1617, "vote_average": 7.4, "title": "Christopher Robin", "release_date": "2018-08-02", "original_language": "en", "original_title": "Christopher Robin", "genre_ids": [12, 35, 14, 10751], "backdrop_path": "/uDt8bQ4lGVlabEx5Gl2cPzvy6qz.jpg", "adult": false, "overview": "Christopher Robin, the boy who had countless adventures in the Hundred Acre Wood, has grown up and lost his way. Now it\u2019s up to his spirited and loveable stuffed animals, Winnie The Pooh, Tigger, Piglet, and the rest of the gang, to rekindle their friendship and remind him of endless days of childlike wonder and make-believe, when doing nothing was the very best something.", "poster_path": "/fQYgljzKgkeGEukezaJsMWp7oq1.jpg", "popularity": 16.389}, {"id": 62177, "video": false, "vote_count": 8933, "vote_average": 6.9, "title": "Brave", "release_date": "2012-06-21", "original_language": "en", "original_title": "Brave", "genre_ids": [28, 12, 16, 35, 14, 10751], "backdrop_path": "/sfRCA9g3CunpnZO3QurHSIRcsUq.jpg", "adult": false, "overview": "Brave is set in the mystical Scottish Highlands, where M\u00e9rida is the princess of a kingdom ruled by King Fergus and Queen Elinor. An unruly daughter and an accomplished archer, M\u00e9rida one day defies a sacred custom of the land and inadvertently brings turmoil to the kingdom. In an attempt to set things right, M\u00e9rida seeks out an eccentric old Wise Woman and is granted an ill-fated wish. Also figuring into M\u00e9rida\u2019s quest \u2014 and serving as comic relief \u2014 are the kingdom\u2019s three lords: the enormous Lord MacGuffin, the surly Lord Macintosh, and the disagreeable Lord Dingwall.", "poster_path": "/qhABv2d4NZLhsOOA4iBFM4rfuJC.jpg", "popularity": 40.077}, {"id": 278927, "video": false, "vote_count": 5705, "vote_average": 6.8, "title": "The Jungle Book", "release_date": "2016-04-07", "original_language": "en", "original_title": "The Jungle Book", "genre_ids": [12, 18, 14, 10751], "backdrop_path": "/eIOTsGg9FCVrBc4r2nXaV61JF4F.jpg", "adult": false, "overview": "A man-cub named Mowgli fostered by wolves. After a threat from the tiger Shere Khan, Mowgli is forced to flee the jungle, by which he embarks on a journey of self discovery with the help of the panther, Bagheera and the free-spirited bear, Baloo.", "poster_path": "/vOipe2myi26UDwP978hsYOrnUWC.jpg", "popularity": 36.281}, {"id": 11886, "video": false, "vote_count": 2672, "vote_average": 7.2, "title": "Robin Hood", "release_date": "1973-11-08", "original_language": "en", "original_title": "Robin Hood", "genre_ids": [16, 10751], "backdrop_path": "/gidtawc8Mne3Dc5UrkvXhoIZqCZ.jpg", "adult": false, "overview": "With King Richard off to the Crusades, Prince John and his slithering minion, Sir Hiss, set about taxing Nottingham's citizens with support from the corrupt sheriff - and staunch opposition by the wily Robin Hood and his band of merry men.", "poster_path": "/84Sa0NvaMLIWpK4zscMhzOiTG78.jpg", "popularity": 25.96}, {"id": 7518, "video": false, "vote_count": 2671, "vote_average": 6.4, "title": "Over the Hedge", "release_date": "2006-05-17", "original_language": "en", "original_title": "Over the Hedge", "genre_ids": [16, 35, 10751], "backdrop_path": "/vZSJZZ178D40pwzRXkKqQKjLU7X.jpg", "adult": false, "overview": "A scheming raccoon fools a mismatched family of forest creatures into helping him repay a debt of food, by invading the new suburban sprawl that popped up while they were hibernating \u2013 and learns a lesson about family himself.", "poster_path": "/fGvoD6n6blbFprgbl3BJ2U8YHSF.jpg", "popularity": 27.309}, {"id": 57158, "video": false, "vote_count": 8375, "vote_average": 7.6, "title": "The Hobbit: The Desolation of Smaug", "release_date": "2013-12-11", "original_language": "en", "original_title": "The Hobbit: The Desolation of Smaug", "genre_ids": [28, 12, 14], "backdrop_path": "/hyR7Fs6Tepgu3yCQGtgO4Ilz9tY.jpg", "adult": false, "overview": "The Dwarves, Bilbo and Gandalf have successfully escaped the Misty Mountains, and Bilbo has gained the One Ring. They all continue their journey to get their gold back from the Dragon, Smaug.", "poster_path": "/gQCiuxGsfiXH1su6lp9n0nd0UeH.jpg", "popularity": 29.574}, {"id": 407436, "video": false, "vote_count": 1626, "vote_average": 6.6, "title": "Mowgli: Legend of the Jungle", "release_date": "2018-11-25", "original_language": "en", "original_title": "Mowgli: Legend of the Jungle", "genre_ids": [12, 18], "backdrop_path": "/pApaVlxJCp2o4mrzCAD3AaLjq77.jpg", "adult": false, "overview": "A human child raised by wolves, must face off against a menacing tiger named Shere Khan, as well as his own origins.", "poster_path": "/clRnzMsFoMIdC7I5JsG6dnnHH8l.jpg", "popularity": 16.869}, {"id": 346648, "video": false, "vote_count": 1053, "vote_average": 7.5, "title": "Paddington 2", "release_date": "2017-11-09", "original_language": "en", "original_title": "Paddington 2", "genre_ids": [12, 35, 10751], "backdrop_path": "/mxIrSooBPUoPBukIRFBxjYudQoT.jpg", "adult": false, "overview": "Paddington, now happily settled with the Browns, picks up a series of odd jobs to buy the perfect present for his Aunt Lucy, but it is stolen.", "poster_path": "/zuXMvSQq9F7H29qzuUm0qyUqw6m.jpg", "popularity": 19.613}, {"id": 9325, "video": false, "vote_count": 3976, "vote_average": 7.3, "title": "The Jungle Book", "release_date": "1967-10-17", "original_language": "en", "original_title": "The Jungle Book", "genre_ids": [12, 16, 10751], "backdrop_path": "/pfSLaXhojt0cNU6lWRGxvbQ2HWi.jpg", "adult": false, "overview": "The boy Mowgli makes his way to the man-village with Bagheera, the wise panther. Along the way he meets jazzy King Louie, the hypnotic snake Kaa and the lovable, happy-go-lucky bear Baloo, who teaches Mowgli \"The Bare Necessities\" of life and the true meaning of friendship.", "poster_path": "/9YP99QP4D64RKEUs9slPnBWG5lN.jpg", "popularity": 27.523}, {"id": 14873, "video": false, "vote_count": 683, "vote_average": 5.8, "title": "The Jungle Book 2", "release_date": "2003-02-07", "original_language": "en", "original_title": "The Jungle Book 2", "genre_ids": [12, 16, 10751], "backdrop_path": "/tmPv63fkjFRVy0F7PFuuR3cJ5Xf.jpg", "adult": false, "overview": "Mowgli has been living in the man-village with his little stepbrother Ranjan and his best friend Shanti. But the man-cub still has that jungle rhythm in his heart, and he misses his old buddies Baloo and Bagheera. When Mowgli wanders back to the wild for some swingin' fun, he soon finds the man-eating tiger Shere Khan is lurking in the shadows and planning his revenge.", "poster_path": "/q2GTnlj84EqUJGvqAQy6ib2JznI.jpg", "popularity": 14.641}, {"id": 214314, "video": false, "vote_count": 94, "vote_average": 7.3, "title": "Bears", "release_date": "2014-04-17", "original_language": "en", "original_title": "Bears", "genre_ids": [99], "backdrop_path": "/wA8Dct9suP3tZWH1nv7ikQThvD2.jpg", "adult": false, "overview": "Filmmakers Alastair Fothergill and Keith Scholey chronicle a year in the lives of an Alaskan brown bear named Sky and her cubs, Scout and Amber. Their saga begins as the bears emerge from hibernation at the end of winter. As time passes, the bear family must work together to find food and stay safe from other predators, especially other bears. Although their world is exciting, it is also risky, and the cubs' survival hinges on family togetherness.", "poster_path": "/uhxE8FLguSshnlv41lKRvZYZ4av.jpg", "popularity": 10.303}, {"id": 244316, "video": false, "vote_count": 139, "vote_average": 5.3, "title": "Into the Grizzly Maze", "release_date": "2015-02-27", "original_language": "en", "original_title": "Into the Grizzly Maze", "genre_ids": [28, 27, 53], "backdrop_path": "/tVor3y29g0JmYU5xFf7WTPsZnAN.jpg", "adult": false, "overview": "Two estranged brothers reunite at their childhood home in the Alaskan wild. They set out on a two-day hike and are stalked by an unrelenting grizzly bear.", "poster_path": "/lsaKo0RL7zblIroei96vLB1ChCP.jpg", "popularity": 8.57}, {"id": 116149, "video": false, "vote_count": 2108, "vote_average": 7.1, "title": "Paddington", "release_date": "2014-11-24", "original_language": "en", "original_title": "Paddington", "genre_ids": [12, 35, 10751], "backdrop_path": "/p88qU06bHjjgWXN0utX61rtXnL.jpg", "adult": false, "overview": "A young Peruvian bear travels to London in search of a new home. Finding himself lost and alone at Paddington Station, he meets the kindly Brown family.", "poster_path": "/Sw7g22Wt4IILyD8LepkjNe5ql9.jpg", "popularity": 15.255}, {"id": 10010, "video": false, "vote_count": 826, "vote_average": 6.6, "title": "Brother Bear 2", "release_date": "2006-08-17", "original_language": "en", "original_title": "Brother Bear 2", "genre_ids": [12, 16, 10751], "backdrop_path": "/zhMiJmPuX2o2bbXWWZNUgVbw3OM.jpg", "adult": false, "overview": "Kenai finds his childhood human friend Nita and the two embark on a journey to burn the amulet he gave to her before he was a bear, much to Koda's dismay.", "poster_path": "/msZSTfilEF6hw47HTuf5AeXAO8R.jpg", "popularity": 17.237}, {"id": 10808, "video": false, "vote_count": 1002, "vote_average": 5.1, "title": "Dr. Dolittle 2", "release_date": "2001-06-22", "original_language": "en", "original_title": "Dr. Dolittle 2", "genre_ids": [35, 14, 10749, 10751], "backdrop_path": "/CI4gcw8kes1sbR9ht8rhMc2la7.jpg", "adult": false, "overview": "A group of beavers ask Dr. Dolittle to save their habitat from loggers. The only hope is to get the forest preserved because it's the home of a protected bear, but there's a problem: the bear's the only bear in the forest, so she can't reproduce. Undaunted, Dolittle persuades a circus bear to help out, but he has to teach him not just the ways of the wild, but the wiles of lady bears too.", "poster_path": "/aecUc1LobMV56Doj99ZvJR2dXgG.jpg", "popularity": 16.737}], "total_pages": 9, "total_results": 167}, "recommendations": {"page": 1, "results": [], "total_pages": 1, "total_results": 0}, "credits": {"cast": [{"cast_id": 1, "character": "Narrator", "credit_id": "52fe4b3f9251416c910d4735", "gender": 2, "id": 106830, "name": "Rex Allen", "order": 0, "profile_path": "/nW4Az8MvP87OnGgZbW71FwD9pL9.jpg"}], "crew": [{"credit_id": "52fe4b3f9251416c910d473b", "department": "Writing", "gender": 2, "id": 148822, "job": "Writer", "name": "Ralph Wright", "profile_path": "/cEXiizAz9vUew2T4Xu0tOz7tbzI.jpg"}, {"credit_id": "52fe4b3f9251416c910d4741", "department": "Directing", "gender": 0, "id": 1133992, "job": "Director", "name": "Charles L Draper", "profile_path": null}, {"credit_id": "52fe4b3f9251416c910d474d", "department": "Editing", "gender": 2, "id": 1133993, "job": "Editor", "name": "George Gale", "profile_path": null}, {"credit_id": "5400598bc3a368068c001387", "department": "Sound", "gender": 2, "id": 2107, "job": "Original Music Composer", "name": "Paul J. Smith", "profile_path": "/y8Z9LQ1vAVWqpjfMOYNmSs6mZd0.jpg"}]}}