{"adult": false, "backdrop_path": "/mg8HteqhEDB97bEQnztD1pgO4bg.jpg", "belongs_to_collection": null, "budget": 0, "genres": [{"id": 878, "name": "Science Fiction"}], "homepage": null, "id": 153701, "imdb_id": "tt2422964", "original_language": "en", "original_title": "PLURALITY", "overview": "In the near future, instant DNA identification has created an information grid that makes crime extremely difficult, and anonymity impossible. But, suddenly, the same IDs start to appear in different locations. A pro-level and intelligent sci-fi piece about the genesis of a big brother state.", "popularity": 2.484, "poster_path": "/ms1c4uHsWvV7TVGA9TecJHorlLw.jpg", "production_companies": [], "production_countries": [{"iso_3166_1": "US", "name": "United States of America"}], "release_date": "2012-05-31", "revenue": 0, "runtime": 14, "spoken_languages": [{"iso_639_1": "en", "name": "English"}], "status": "Released", "tagline": "", "title": "PLURALITY", "video": false, "vote_average": 5.9, "vote_count": 11, "keywords": {"keywords": [{"id": 1718, "name": "dna"}, {"id": 14512, "name": "new york city, usa"}, {"id": 14967, "name": "foot chase"}]}, "similar": {"page": 1, "results": [{"id": 1771, "video": false, "vote_count": 14038, "vote_average": 6.9, "title": "Captain America: The First Avenger", "release_date": "2011-07-22", "original_language": "en", "original_title": "Captain America: The First Avenger", "genre_ids": [28, 12, 878], "backdrop_path": "/pmZtj1FKvQqISS6iQbkiLg5TAsr.jpg", "adult": false, "overview": "During World War II, Steve Rogers is a sickly man from Brooklyn who's transformed into super-soldier Captain America to aid in the war effort. Rogers must stop the Red Skull \u2013 Adolf Hitler's ruthless head of weaponry, and the leader of an organization that intends to use a mysterious device of untold powers for world domination.", "poster_path": "/vSNxAJTlD0r02V9sPYpOjqDZXUK.jpg", "popularity": 20.824}, {"id": 315635, "video": false, "vote_count": 13257, "vote_average": 7.4, "title": "Spider-Man: Homecoming", "release_date": "2017-07-05", "original_language": "en", "original_title": "Spider-Man: Homecoming", "genre_ids": [28, 12, 18, 878], "backdrop_path": "/vc8bCGjdVp0UbMNLzHnHSLRbBWQ.jpg", "adult": false, "overview": "Following the events of Captain America: Civil War, Peter Parker, with the help of his mentor Tony Stark, tries to balance his life as an ordinary high school student in Queens, New York City, with fighting crime as his superhero alter ego Spider-Man as a new threat, the Vulture, emerges.", "poster_path": "/c24sv2weTHPsmDa7jEMN0m2P3RT.jpg", "popularity": 43.075}, {"id": 772, "video": false, "vote_count": 5556, "vote_average": 6.5, "title": "Home Alone 2: Lost in New York", "release_date": "1992-11-19", "original_language": "en", "original_title": "Home Alone 2: Lost in New York", "genre_ids": [12, 35, 80, 10751], "backdrop_path": "/1uHTuwx5h9T3XzsXijMMKybDFvZ.jpg", "adult": false, "overview": "Instead of flying to Florida with his folks, Kevin ends up alone in New York, where he gets a hotel room with his dad's credit card\u2014despite problems from a clerk and meddling bellboy. But when Kevin runs into his old nemeses, the Wet Bandits, he's determined to foil their plans to rob a toy store on Christmas eve.", "poster_path": "/ezGcLFTvwR64I3Z7RqHnXRFet4r.jpg", "popularity": 28.414}, {"id": 103, "video": false, "vote_count": 6109, "vote_average": 8.2, "title": "Taxi Driver", "release_date": "1976-02-07", "original_language": "en", "original_title": "Taxi Driver", "genre_ids": [80, 18], "backdrop_path": "/hjmJKAVoZ3n2KWbKgasbfdugwhu.jpg", "adult": false, "overview": "A mentally unstable Vietnam War veteran works as a night-time taxi driver in New York City where the perceived decadence and sleaze feed his urge for violent action, attempting to save a preadolescent prostitute in the process.", "poster_path": "/ekstpH614fwDX8DUln1a2Opz0N8.jpg", "popularity": 30.132}, {"adult": false, "backdrop_path": "/sw7mordbZxgITU877yTpZCud90M.jpg", "genre_ids": [18, 80], "id": 769, "original_language": "en", "original_title": "GoodFellas", "overview": "The true story of Henry Hill, a half-Irish, half-Sicilian Brooklyn kid who is adopted by neighbourhood gangsters at an early age and climbs the ranks of a Mafia family under the guidance of Jimmy Conway.", "poster_path": "/pwpGfTImTGifEGgLb3s6LRPd4I6.jpg", "release_date": "1990-09-12", "title": "GoodFellas", "video": false, "vote_average": 8.4, "vote_count": 6559, "popularity": 36.135}, {"id": 164, "video": false, "vote_count": 2459, "vote_average": 7.8, "title": "Breakfast at Tiffany's", "release_date": "1961-10-05", "original_language": "en", "original_title": "Breakfast at Tiffany's", "genre_ids": [35, 18, 10749], "backdrop_path": "/vABwESShzjlSynkyGjLihTUieMJ.jpg", "adult": false, "overview": "Fortune hunter Holly Golightly finds herself captivated by aspiring writer Paul Varjak, who's moved into her building on a wealthy woman's dime. As romance blooms between Paul and Holly, Doc Golightly shows up on the scene, revealing Holly's past.", "poster_path": "/c95lbDwL5WT8PV9DZsdSvRtXKNA.jpg", "popularity": 21.751}, {"id": 968, "video": false, "vote_count": 1444, "vote_average": 7.8, "title": "Dog Day Afternoon", "release_date": "1975-08-11", "original_language": "en", "original_title": "Dog Day Afternoon", "genre_ids": [80, 18, 53], "backdrop_path": "/gsnPjs2XTBhYDNFgnlsDgjuauDO.jpg", "adult": false, "overview": "Based on the true story of would-be Brooklyn bank robbers John Wojtowicz and Salvatore Naturale. Sonny and Sal attempt a bank heist which quickly turns sour and escalates into a hostage situation and stand-off with the police. As Sonny's motives for the robbery are slowly revealed and things become more complicated, the heist turns into a media circus.", "poster_path": "/qgWuZ2yNJrclU8EldQG4rLhwMoy.jpg", "popularity": 15.256}, {"adult": false, "backdrop_path": "/3dWSyYEdcmvNjzwIPy4sPHjdJpw.jpg", "genre_ids": [878, 27, 28], "id": 9348, "original_language": "en", "original_title": "Species", "overview": "In 1993, the Search for Extra Terrestrial Intelligence Project receives a transmission detailing an alien DNA structure, along with instructions on how to splice it with human DNA. The result is Sil, a sensual but deadly creature who can change from a beautiful woman to an armour-plated killing machine in the blink of an eye.", "poster_path": "/94P6kzKH8aPmQmPr9yZjgy7BtQQ.jpg", "release_date": "1995-07-07", "title": "Species", "video": false, "vote_average": 5.7, "vote_count": 799, "popularity": 27.177}, {"id": 782, "video": false, "vote_count": 3644, "vote_average": 7.5, "title": "Gattaca", "release_date": "1997-09-07", "original_language": "en", "original_title": "Gattaca", "genre_ids": [9648, 878, 53, 10749], "backdrop_path": "/ijwI4F3jXvyThd1doKXFWnNFJVU.jpg", "adult": false, "overview": "In a future society in the era of indefinite eugenics, humans are set on a life course depending on their DNA. Young Vincent Freeman is born with a condition that would prevent him from space travel, yet is determined to infiltrate the GATTACA space program.", "poster_path": "/gPYtuvhQvP7v5F1Tqt2iQWR3Y7i.jpg", "popularity": 38.194}, {"id": 51876, "video": false, "vote_count": 6911, "vote_average": 7.2, "title": "Limitless", "release_date": "2011-03-08", "original_language": "en", "original_title": "Limitless", "genre_ids": [9648, 878, 53], "backdrop_path": "/9ISArgiVBdNLASKmvflRDMOYYMj.jpg", "adult": false, "overview": "A paranoia-fueled action thriller about an unsuccessful writer whose life is transformed by a top-secret \"smart drug\" that allows him to use 100% of his brain and become a perfect version of himself. His enhanced abilities soon attract shadowy forces that threaten his new life in this darkly comic and provocative film.", "poster_path": "/bQfOFEeXxi51ijQrbQY9qvMtYhZ.jpg", "popularity": 22.32}, {"id": 9738, "video": false, "vote_count": 6168, "vote_average": 5.7, "title": "Fantastic Four", "release_date": "2005-06-29", "original_language": "en", "original_title": "Fantastic Four", "genre_ids": [28, 12, 14, 878], "backdrop_path": "/6RaH2Znu7dUQq7c8surf7hRp44f.jpg", "adult": false, "overview": "During a space voyage, four scientists are altered by cosmic rays: Reed Richards gains the ability to stretch his body; Sue Storm can become invisible; Johnny Storm controls fire; and Ben Grimm is turned into a super-strong \u2026 thing. Together, these \"Fantastic Four\" must now thwart the evil plans of Dr. Doom and save the world from certain destruction.", "poster_path": "/sYNOCHiWA9UDUHlPvRWztSo5hZV.jpg", "popularity": 23.086}, {"id": 442249, "video": false, "vote_count": 2159, "vote_average": 5.8, "title": "The First Purge", "release_date": "2018-07-04", "original_language": "en", "original_title": "The First Purge", "genre_ids": [28, 27, 878, 53], "backdrop_path": "/r4clWIxKeWoqrHspQP0XunuUmB7.jpg", "adult": false, "overview": "To push the crime rate below one percent for the rest of the year, the New Founding Fathers of America test a sociological theory that vents aggression for one night in one isolated community. But when the violence of oppressors meets the rage of the others, the contagion will explode from the trial-city borders and spread across the nation.", "poster_path": "/litjsBoiydO6JlO70uOX4N3WnNL.jpg", "popularity": 27.656}, {"id": 98566, "video": false, "vote_count": 4596, "vote_average": 5.8, "title": "Teenage Mutant Ninja Turtles", "release_date": "2014-08-07", "original_language": "en", "original_title": "Teenage Mutant Ninja Turtles", "genre_ids": [28, 12, 35, 14, 878], "backdrop_path": "/OqCXGt5nl1cHPeotxCDvXLLe6p.jpg", "adult": false, "overview": "The city needs heroes. Darkness has settled over New York City as Shredder and his evil Foot Clan have an iron grip on everything from the police to the politicians. The future is grim until four unlikely outcast brothers rise from the sewers and discover their destiny as Teenage Mutant Ninja Turtles. The Turtles must work with fearless reporter April and her wise-cracking cameraman Vern Fenwick to save the city and unravel Shredder's diabolical plan.", "poster_path": "/oDL2ryJ0sV2bmjgshVgJb3qzvwp.jpg", "popularity": 33.698}, {"id": 135397, "video": false, "vote_count": 14920, "vote_average": 6.6, "title": "Jurassic World", "release_date": "2015-06-06", "original_language": "en", "original_title": "Jurassic World", "genre_ids": [28, 12, 878, 53], "backdrop_path": "/t5KONotASgVKq4N19RyhIthWOPG.jpg", "adult": false, "overview": "Twenty-two years after the events of Jurassic Park, Isla Nublar now features a fully functioning dinosaur theme park, Jurassic World, as originally envisioned by John Hammond.", "poster_path": "/jjBgi2r5cRt36xF6iNUEhzscEcb.jpg", "popularity": 31.038}, {"adult": false, "backdrop_path": "/cVpBJxRBIwTjajKQ08TE6BINTEu.jpg", "genre_ids": [878, 28, 12], "id": 1724, "original_language": "en", "original_title": "The Incredible Hulk", "overview": "Scientist Bruce Banner scours the planet for an antidote to the unbridled force of rage within him: the Hulk. But when the military masterminds who dream of exploiting his powers force him back to civilization, he finds himself coming face to face with a new, deadly foe.", "poster_path": "/gCQ4e8klADtzoa6bL7XLPnjiUIg.jpg", "release_date": "2008-06-12", "title": "The Incredible Hulk", "video": false, "vote_average": 6.2, "vote_count": 7029, "popularity": 29.191}, {"adult": false, "backdrop_path": "/2p5rA1NRoyyAFfzdHl1Ab1RN3qr.jpg", "genre_ids": [80, 28, 878], "id": 9739, "original_language": "en", "original_title": "Demolition Man", "overview": "Simon Phoenix, a violent criminal cryogenically frozen in 1996, escapes during a parole hearing in 2032 in the utopia of San Angeles. Police are incapable of dealing with his violent ways and turn to his captor, who had also been cryogenically frozen after being wrongfully accused of killing 30 innocent people while apprehending Phoenix.", "poster_path": "/k0PN3Ho12cGGIVJW7SCS7apLYaP.jpg", "release_date": "1993-10-08", "title": "Demolition Man", "video": false, "vote_average": 6.5, "vote_count": 1913, "popularity": 16.803}, {"adult": false, "backdrop_path": "/bRGtZsVj2Qq8r5CCsNYmQUPF4z4.jpg", "genre_ids": [80, 18, 878, 53], "id": 10559, "original_language": "en", "original_title": "Frequency", "overview": "When a rare phenomenon gives police officer John Sullivan the chance to speak to his father, 30 years in the past, he takes the opportunity to prevent his dad's tragic death.  After his actions inadvertently give rise to a series of brutal murders he and his father must find a way to fix the consequences of altering time.", "poster_path": "/n0QAAZmIaPPIShVkk8eiKwfGV9.jpg", "release_date": "2000-04-28", "title": "Frequency", "video": false, "vote_average": 7.1, "vote_count": 897, "popularity": 14.026}, {"id": 18, "video": false, "vote_count": 6836, "vote_average": 7.5, "title": "The Fifth Element", "release_date": "1997-05-02", "original_language": "en", "original_title": "The Fifth Element", "genre_ids": [28, 12, 14, 878, 53], "backdrop_path": "/qlGoGQSVMzIjGbpvXzZUOH1FjNu.jpg", "adult": false, "overview": "In 2257, a taxi driver is unintentionally given the task of saving a young girl who is part of the key that will ensure the survival of humanity.", "poster_path": "/zaFa1NRZEnFgRTv5OVXkNIZO78O.jpg", "popularity": 46.446}, {"adult": false, "backdrop_path": "/nlwzLx5WVZPZDwXvexGGfaktts7.jpg", "genre_ids": [878, 53, 10749], "id": 38050, "original_language": "en", "original_title": "The Adjustment Bureau", "overview": "A man glimpses the future Fate has planned for him \u2013 and chooses to fight for his own destiny. Battling the powerful Adjustment Bureau across, under and through the streets of New York, he risks his destined greatness to be with the only woman he's ever loved.", "poster_path": "/g87PqGH9Oo3d3Tbczcfk7ZMAIEk.jpg", "release_date": "2011-03-03", "title": "The Adjustment Bureau", "video": false, "vote_average": 6.7, "vote_count": 2861, "popularity": 15.293}, {"id": 1927, "video": false, "vote_count": 3507, "vote_average": 5.4, "title": "Hulk", "release_date": "2003-06-19", "original_language": "en", "original_title": "Hulk", "genre_ids": [28, 878], "backdrop_path": "/kVxquPLBzAIq2NmlbWjTsfZBFh5.jpg", "adult": false, "overview": "Bruce Banner, a genetics researcher with a tragic past, suffers massive radiation exposure in his laboratory that causes him to transform into a raging green monster when he gets angry.", "poster_path": "/ogCQV6mnLtCJuiiHtMB83jvSRfY.jpg", "popularity": 22.826}], "total_pages": 63, "total_results": 1254}, "recommendations": {"page": 1, "results": [{"adult": false, "backdrop_path": "/8gLtEvilX7sMowrpFrIDVqAFM1n.jpg", "genre_ids": [14, 18, 10751], "id": 295329, "original_language": "en", "original_title": "The K\u00e1rm\u00e1n Line", "overview": "When a mother is hit by a rare condition that sees her lift off the ground at a slow but ever increasing rate, her husband and daughter are forced to come to terms with losing her.", "poster_path": "/jF6rkVOvwN1gycNRR9IIppLmO4o.jpg", "release_date": "2014-03-11", "title": "The K\u00e1rm\u00e1n Line", "video": false, "vote_average": 4.8, "vote_count": 5, "popularity": 2.136}, {"adult": false, "backdrop_path": null, "genre_ids": [16], "id": 188264, "original_language": "xx", "original_title": "\u00d6", "overview": "A creature finds a little island in the middle of the endless sea. He sets up his own empire, builds a wall and drives away intruders.", "poster_path": "/1Q0XqZL1gpiMINgBdWWe1o1pKeB.jpg", "release_date": "2012-01-01", "title": "\u00d6", "video": false, "vote_average": 5.0, "vote_count": 3, "popularity": 1.221}, {"adult": false, "backdrop_path": null, "genre_ids": [18, 10749], "id": 353049, "original_language": "sv", "original_title": "Because the Night", "overview": "Stockholm, Sweden. A warm summer night is torn apart by flashing lights and loud music. Trembling air full of hopes and expectations. Four people end up at the same place for the same reason, because the night.", "poster_path": "/84e5q4ViiAX1ynW10NSrPLx2nhr.jpg", "release_date": "2009-11-21", "title": "Because the Night", "video": false, "vote_average": 4.8, "vote_count": 4, "popularity": 0.898}, {"adult": false, "backdrop_path": null, "genre_ids": [], "id": 161405, "original_language": "en", "original_title": "(Vikten av) H\u00e5r", "overview": "Farewell braids, curls and other haircuts! Their time is now over. Director Christina H\u00f6glund lost all her hair within three months.", "poster_path": null, "release_date": "2010-01-31", "title": "(The Importance Of) Hair", "video": false, "vote_average": 6.0, "vote_count": 3, "popularity": 0.84}, {"adult": false, "backdrop_path": null, "genre_ids": [16], "id": 353051, "original_language": "en", "original_title": "Bikini", "overview": "A young man takes his mother bikini and goes to the beach. There, he meets a group of funny people. But his mother will appear soon.", "poster_path": "/6AsE3OrkJnPBapJRcvbungJGVrf.jpg", "release_date": "2004-01-01", "title": "Bikini", "video": false, "vote_average": 2.0, "vote_count": 4, "popularity": 1.212}, {"adult": false, "backdrop_path": null, "genre_ids": [53, 878, 12], "id": 327546, "original_language": "en", "original_title": "Recursion", "overview": "Recursion tells the story of Sherwin, an unlikely Best Man. Awkward and accident prone Sherwin looses the ring moments before the ceremony. But, he knows a powerful secret. A secret that allows him to try everything possible (and impossible) to correct his mistake ...again, and again, and again. The trick? Not to not to destroy his universe while he's at it.", "poster_path": "/iMe5uSTOQyubNaO4YuVkFpKifjK.jpg", "release_date": "2014-02-16", "title": "Recursion", "video": false, "vote_average": 6.0, "vote_count": 3, "popularity": 1.69}, {"adult": false, "backdrop_path": null, "genre_ids": [], "id": 355513, "original_language": "sv", "original_title": "Timglaset", "overview": "", "poster_path": null, "release_date": "", "title": "Timglaset", "video": false, "vote_average": 1.0, "vote_count": 3, "popularity": 0.68}, {"adult": false, "backdrop_path": null, "genre_ids": [99], "id": 229069, "original_language": "sv", "original_title": "Hoppets hamn", "overview": "In 1945 Irene, Ewa and Joe were among the nearly 30,000 survivors rescued from German concentration camps to the peaceful harbour town Malm\u00f6, Sweden. Here they started life again.", "poster_path": "/hn5719zJTKHaVNNm3bD3Sc95ksN.jpg", "release_date": "2011-12-15", "title": "Harbour of Hope", "video": false, "vote_average": 6.2, "vote_count": 5, "popularity": 0.784}, {"adult": false, "backdrop_path": "/pw5ZiG1A4PDViWwBMPRpLr7ZoZl.jpg", "genre_ids": [18], "id": 353368, "original_language": "sv", "original_title": "Nudisten", "overview": "When Magnus left Kerstin, she decided to be naked. Always. Since then she has been fined six times.", "poster_path": "/rAFASeIFcDbG3UDoVYT98tYV1rm.jpg", "release_date": "2010-11-04", "title": "Nudist", "video": false, "vote_average": 3.4, "vote_count": 7, "popularity": 1.225}, {"adult": false, "backdrop_path": null, "genre_ids": [18], "id": 431711, "original_language": "sv", "original_title": "Headphone Silence", "overview": "Some people take a short break.", "poster_path": "/blKAnVGuade5VbcAuLiVH4evSfG.jpg", "release_date": "2010-01-31", "title": "Headphone Silence", "video": false, "vote_average": 6.0, "vote_count": 3, "popularity": 0.956}, {"adult": false, "backdrop_path": null, "genre_ids": [99], "id": 229504, "original_language": "en", "original_title": "V\u00e4gens \u00e4nde", "overview": "V\u00e4gens \u00e4nde is a poetic and existential film about persistence, betrayal, grief and love.", "poster_path": "/7odk7iDfF5u3MY5XFUZgBhZEBqi.jpg", "release_date": "2013-11-12", "title": "Road's End", "video": false, "vote_average": 7.0, "vote_count": 3, "popularity": 1.4}, {"adult": false, "backdrop_path": null, "genre_ids": [10751, 18], "id": 300927, "original_language": "sv", "original_title": "Ett tyst barn", "overview": "A child never cries nor screams when it gets injured. All the terrible consequences involved.", "poster_path": "/yHXkb8tgUZ5BvqO3LHV2tdXs99A.jpg", "release_date": "2010-05-19", "title": "A Silent Child", "video": false, "vote_average": 2.0, "vote_count": 3, "popularity": 1.365}, {"adult": false, "backdrop_path": "/xDb4P8UAvJIQLlie7HTOPOLig5K.jpg", "genre_ids": [35], "id": 53716, "original_language": "sv", "original_title": "Jul Jul Jul", "overview": "Merry Christmas! it says so well, now that it's Christmas again. Christmas concerts or amaryllis, which are most common? We do not know. But we are many who want to be drained on the Christmas spirit. Now this Christmas show is no concert in the traditional sense. We have asked ourselves: Are the little (swedish dancing) frogs really so funny to see? And on this basis we have tried to create a somewhat different Christmas concert, but which we nevertheless assumed Christmas fundamental ingredients.  Cast apart After Shave &amp; Galenskaparna do include:\r Carl Einarsson H\u00e4ckner\r The unimaginable orchestra\r Johan Wellton\r Lisa Alfgrim with Slam\r Maltese Button", "poster_path": "/uhGNyHKCpBrCJfOOLSREt4hwU0g.jpg", "release_date": "2002-12-25", "title": "Jul Jul Jul", "video": false, "vote_average": 6.1, "vote_count": 4, "popularity": 1.233}, {"adult": false, "backdrop_path": "/t40tw3iR4JbG6GOHcRXbciq19Cq.jpg", "genre_ids": [], "id": 134718, "original_language": "en", "original_title": "Sweaty Beards", "overview": "A comedy about Swedish Vikings. Osvald is a pleasant but very cowardly viking that falls in love with the beautiful Hildegun. She on the other hand is very impressed by more heroic vikings. In order to gain Hildegun's love Osvald tries to become more heroic.", "poster_path": "/mQf6Rzv20W5HIusn5hQtwNNP1PI.jpg", "release_date": "2010-06-06", "title": "Sweaty Beards", "video": false, "vote_average": 2.8, "vote_count": 5, "popularity": 2.701}, {"adult": false, "backdrop_path": "/ornLpAF4wA1ZeBeFCVb04ZchCcK.jpg", "genre_ids": [16, 12, 10751, 14], "id": 197144, "original_language": "en", "original_title": "Sneeze Me Away", "overview": "About a boy who finds a way to enter into a magical, fantastic world by sneezing with his eyes open. He must then enlist the aid of a strange ally in order to get home again.", "poster_path": "/rb2EvD0Zi7N6vJH4qfbNrOQREUC.jpg", "release_date": "2010-05-22", "title": "Sneeze Me Away", "video": false, "vote_average": 3.4, "vote_count": 5, "popularity": 2.611}, {"adult": false, "backdrop_path": "/rIACWfruS9eOKjCfK3SSD5ngWAi.jpg", "genre_ids": [35, 18, 10770], "id": 188724, "original_language": "sv", "original_title": "Midvinterduell", "overview": "The film depicts a stubborn farmer who refuses to adapt to new rules that require him to leave his milk on the village common milk stool instead of his own. Milk truck driver is on his side and gets the milk that he continues to exhibit his milking stool.", "poster_path": "/xDMJjaWAGqYz7ouJZzqWdxOhHOG.jpg", "release_date": "1983-01-06", "title": "Midvinterduell", "video": false, "vote_average": 6.3, "vote_count": 6, "popularity": 1.14}, {"adult": false, "backdrop_path": "/gmhdyWVFjgEVvdiCjKqT7KLwUpS.jpg", "genre_ids": [18, 10749, 878], "id": 258781, "original_language": "en", "original_title": "The Naturalist", "overview": "A gay man living in a genetically modified society is given the chance to alter his sexuality. He must weigh his loving relationship, his dignity and his survival in this short film about the origins of sexuality.", "poster_path": "/duSACXYujh465hbYP5ESbHhRAzH.jpg", "release_date": "2013-05-26", "title": "The Naturalist", "video": false, "vote_average": 3.0, "vote_count": 3, "popularity": 1.117}, {"adult": false, "backdrop_path": "/tVjajaa0L5qOwC71g6JlSftGVm6.jpg", "genre_ids": [99], "id": 262713, "original_language": "sv", "original_title": "Godheten", "overview": "", "poster_path": "/pQ8w65ee1Bc6lJDHvlIqYaAvKrq.jpg", "release_date": "2013-02-15", "title": "Godheten", "video": false, "vote_average": 1.0, "vote_count": 4, "popularity": 1.075}, {"adult": false, "backdrop_path": "/6U2B92g8Zp6iVQljD8PP27iBMAH.jpg", "genre_ids": [18, 10751], "id": 123413, "original_language": "ku", "original_title": "Bekas", "overview": "Two homeless Kurdish brothers see Superman in the town's first movie theatre and decide they are going to live with him in the US. It's a long, dangerous road in the hands of ruthless human smugglers.", "poster_path": "/tBrKS8f8Bqyzv7FaizWRLaQze3C.jpg", "release_date": "2010-11-18", "title": "Bekas", "video": false, "vote_average": 6.3, "vote_count": 6, "popularity": 1.512}, {"adult": false, "backdrop_path": null, "genre_ids": [99], "id": 229104, "original_language": "en", "original_title": "Den nya tiden", "overview": "A journey through contemporary Sweden to explore changes in the society over the past 20 years.", "poster_path": "/oPdz004IcUksHfVPumo2sx9z0c7.jpg", "release_date": "2010-05-20", "title": "Den nya tiden", "video": false, "vote_average": 7.0, "vote_count": 3, "popularity": 1.184}], "total_pages": 2, "total_results": 40}, "credits": {"cast": [{"cast_id": 2, "character": "Alana Winston", "credit_id": "5cde647d925141485acdd93f", "gender": 0, "id": 2314837, "name": "Samantha Strelitz", "order": 1, "profile_path": null}, {"cast_id": 3, "character": "Director Alan Pollard", "credit_id": "5cde64b2925141485acdd95c", "gender": 2, "id": 1114054, "name": "John Di Domenico", "order": 2, "profile_path": "/68xouTnxaTgXsLf37mZ46M0CQec.jpg"}, {"cast_id": 4, "character": "Agent Simmel", "credit_id": "5cde64fc0e0a26262bcc59d4", "gender": 0, "id": 2314839, "name": "Wesli Spencer", "order": 3, "profile_path": null}, {"cast_id": 5, "character": "Apartment Mom", "credit_id": "5cde6541c3a3680d72c07aa6", "gender": 0, "id": 2314840, "name": "Jennifer Betit Yen", "order": 4, "profile_path": null}], "crew": [{"credit_id": "52fe4b499251416c910d59b9", "department": "Directing", "gender": 0, "id": 1134551, "job": "Director", "name": "Dennis Liu", "profile_path": null}]}}