{"adult": false, "backdrop_path": null, "belongs_to_collection": null, "budget": 0, "genres": [{"id": 35, "name": "Comedy"}, {"id": 18, "name": "Drama"}], "homepage": null, "id": 154399, "imdb_id": "tt0062181", "original_language": "pl", "original_title": "R\u0119ce do g\u00f3ry", "overview": "Beginning with a sci-fi prologue before finding itself with several doctors attending a medical school reunion in a sealed-up railway carriage. Between drinks, the disenchanted medicos ruminate over the effect that communism (particularly the Stalinist brand) has had on their profession.  Originally banned in 1967 and finally released in 1981 after Skolimowski shot new sequences, the 76 minute 1981 version was the only one ever officially released.", "popularity": 1.188, "poster_path": "/ut7Jq1kF6o6Z0n95DrzaGej3AzC.jpg", "production_companies": [], "production_countries": [{"iso_3166_1": "PL", "name": "Poland"}], "release_date": "1981-10-09", "revenue": 0, "runtime": 76, "spoken_languages": [{"iso_639_1": "pl", "name": "Polski"}], "status": "Released", "tagline": "", "title": "Hands Up!", "video": false, "vote_average": 6.5, "vote_count": 2, "keywords": {"keywords": [{"id": 1388, "name": "cinema"}, {"id": 3043, "name": "beirut"}, {"id": 4458, "name": "post-apocalyptic"}, {"id": 6078, "name": "politics"}, {"id": 6762, "name": "refugee train"}, {"id": 21747, "name": "poland"}, {"id": 40244, "name": "medical profession"}, {"id": 165186, "name": "plaster cast"}, {"id": 173644, "name": "communism"}, {"id": 180754, "name": "film-essay"}]}, "similar": {"page": 1, "results": [{"adult": false, "backdrop_path": "/wW0Cegcu931tcGHImRk7kKc7bUI.jpg", "genre_ids": [878, 12, 35], "id": 19673, "original_language": "pl", "original_title": "Seksmisja", "overview": "Two scientists are chosen as guinea pigs for a time experiment: they are placed in hibernation and should be brought back to life after three years. In the meantime, however, the World War III breaks out and life have been wiped out of the surface of the Earth. When they wake up, it turns out that not only 50 years have passed but also that they are the only living specimens of the male sex in a new, underground society composed exclusively of women.", "poster_path": "/uHPD4r4ahqHfzNS7hrXdZuuflGm.jpg", "release_date": "1984-05-13", "title": "Sexmission", "video": false, "vote_average": 7.5, "vote_count": 125, "popularity": 10.359}, {"id": 401469, "video": false, "vote_count": 1261, "vote_average": 6.5, "title": "Widows", "release_date": "2018-11-06", "original_language": "en", "original_title": "Widows", "genre_ids": [80, 53], "backdrop_path": "/tkri1hMrb1FhWfb2bWpprsvq9Sd.jpg", "adult": false, "overview": "A police shootout leaves four thieves dead during an explosive armed robbery attempt in Chicago. Their widows have nothing in common except a debt left behind by their spouses' criminal activities. Hoping to forge a future on their own terms, they join forces to pull off a heist.", "poster_path": "/d31SGJSaX29ba5ZUbZcesGoDE7I.jpg", "popularity": 16.285}, {"id": 476764, "video": false, "vote_count": 173, "vote_average": 6.0, "title": "The Front Runner", "release_date": "2018-11-06", "original_language": "en", "original_title": "The Front Runner", "genre_ids": [18, 36], "backdrop_path": "/kQVo5ECXrTcoMtj8hWbdiqpfPms.jpg", "adult": false, "overview": "Gary Hart, former Senator of Colorado, becomes the front-runner for the Democratic presidential nomination in 1987. Hart's intelligence, charisma and idealism makes him popular with young voters, leaving him with a seemingly clear path to the White House. All that comes crashing down when allegations of an extramarital affair surface in the media, forcing the candidate to address a scandal that threatens to derail his campaign and personal life.", "poster_path": "/7iMNvhINYaYwsF1jC5VaDeQ1V70.jpg", "popularity": 12.182}, {"id": 10139, "video": false, "vote_count": 1269, "vote_average": 7.3, "title": "Milk", "release_date": "2008-11-05", "original_language": "en", "original_title": "Milk", "genre_ids": [18, 36], "backdrop_path": "/i8NcYenVqMzB95pVz8YOPIqmGj8.jpg", "adult": false, "overview": "The true story of Harvey Milk, the first openly gay man ever elected to public office. In San Francisco in the late 1970s, Harvey Milk becomes an activist for gay rights and inspires others to join him in his fight for equal rights that should be available to all Americans.", "poster_path": "/aTbhbnq9YnKJM6wGIiedfJaoV6m.jpg", "popularity": 13.064}, {"id": 9388, "video": false, "vote_count": 1252, "vote_average": 7.2, "title": "Thank You for Smoking", "release_date": "2005-03-17", "original_language": "en", "original_title": "Thank You for Smoking", "genre_ids": [35, 18], "backdrop_path": "/D1VqMoYT4K2aFcywu3kGnycD6n.jpg", "adult": false, "overview": "Nick Naylor is a charismatic spin-doctor for Big Tobacco who'll fight to protect America's right to smoke -- even if it kills him -- while still remaining a role model for his 12-year old son. When he incurs the wrath of a senator bent on snuffing out cigarettes, Nick's powers of \"filtering the truth\" will be put to the test.", "poster_path": "/v8PKsbAGIvAhKbbRUjdQ3jgFD2S.jpg", "popularity": 14.661}, {"adult": false, "backdrop_path": "/kOpCxzuN84AgK9QlXNoAwikebKC.jpg", "genre_ids": [35, 18], "id": 1629, "original_language": "fr", "original_title": "La Chinoise", "overview": "A small group of French students are studying Mao, trying to find out their position in the world and how to change the world to a Maoistic community using terrorism.", "poster_path": "/j9RwOcVFgPD3L9ktoUOYuejquJa.jpg", "release_date": "1967-08-30", "title": "La Chinoise", "video": false, "vote_average": 7.0, "vote_count": 81, "popularity": 5.64}, {"id": 25430, "video": false, "vote_count": 96, "vote_average": 7.1, "title": "All the King's Men", "release_date": "1949-11-08", "original_language": "en", "original_title": "All the King's Men", "genre_ids": [18], "backdrop_path": "/lVjZnM9JuRYC1PUnJUBVEksmoLc.jpg", "adult": false, "overview": "All The King's Men is the story of the rise of politician Willie Stark from a rural county seat to the governor's mansion.", "poster_path": "/flvbh5w7AyIVvtp8trkzyG2j5k4.jpg", "popularity": 11.913}, {"id": 77953, "video": false, "vote_count": 1085, "vote_average": 5.8, "title": "The Campaign", "release_date": "2012-08-09", "original_language": "en", "original_title": "The Campaign", "genre_ids": [35], "backdrop_path": "/8mKomlkHvO753Wc9w2Q25ffc4UC.jpg", "adult": false, "overview": "Two rival politicians compete to win an election to represent their small North Carolina congressional district in the United States House of Representatives.", "poster_path": "/6uH8BOWN60mu2Vd5z4jCaVWb2ix.jpg", "popularity": 8.696}, {"adult": false, "backdrop_path": "/8K8EwDzFA5fRZdAfldBnVktE7O3.jpg", "genre_ids": [18, 53], "id": 5125, "original_language": "en", "original_title": "Rendition", "overview": "When an Egyptian terrorism suspect \"disappears\" on a flight from Africa to Washington DC, his American wife and a CIA analyst find themselves caught up in a struggle to secure his release from a secret detention facility somewhere outside the US.", "poster_path": "/5vsEosyU3c5pCkjygaFnhilkng4.jpg", "release_date": "2007-09-07", "title": "Rendition", "video": false, "vote_average": 6.4, "vote_count": 372, "popularity": 11.805}, {"adult": false, "backdrop_path": "/A9NDglBlTxLyKbTiKmgfh5MCrHj.jpg", "genre_ids": [18], "id": 17185, "original_language": "en", "original_title": "Advise & Consent", "overview": "A Senate investigation into the President's newly-nominated Secretary of State gives light to a secret from the past, which may not only ruin the candidate, but the President's character as well.", "poster_path": "/4fW4lM5iVVInFnV27OdXeSLUWFH.jpg", "release_date": "1962-06-06", "title": "Advise & Consent", "video": false, "vote_average": 7.4, "vote_count": 40, "popularity": 5.73}, {"id": 10435, "video": false, "vote_count": 525, "vote_average": 7.5, "title": "Chaplin", "release_date": "1992-02-17", "original_language": "en", "original_title": "Chaplin", "genre_ids": [18], "backdrop_path": "/pImxiScGXBkNvoSkJoULT6SQPO3.jpg", "adult": false, "overview": "An elderly Charlie Chaplin discusses his autobiography with his editor, while is depicted his amazing journey from his poverty-stricken childhood to world-wide success after the ingenious invention of the Little Tramp.", "poster_path": "/yEbD5ibsuZOZF522bb3RXtOYg35.jpg", "popularity": 11.186}, {"adult": false, "backdrop_path": "/eiSRZDOA0d5gKEISvknhQGgwHpk.jpg", "genre_ids": [9648, 18, 10749], "id": 37722, "original_language": "en", "original_title": "Waking the Dead", "overview": "A congressional candidate questions his sanity after seeing the love of his life, presumed dead, suddenly emerge.", "poster_path": "/knPjLo050qU82PPuGpDMhT6VICV.jpg", "release_date": "2000-03-24", "title": "Waking the Dead", "video": false, "vote_average": 6.8, "vote_count": 42, "popularity": 4.591}, {"id": 199584, "video": false, "vote_count": 85, "vote_average": 7.2, "title": "Secretly, Greatly", "release_date": "2013-06-05", "original_language": "ko", "original_title": "\uc740\ubc00\ud558\uac8c \uc704\ub300\ud558\uac8c", "genre_ids": [28, 35, 18], "backdrop_path": "/i7WGMPb7DLPvxPWOaDnAhzJAooI.jpg", "adult": false, "overview": "As a North Korean sleeper cell agent, Ryu-han infiltrates the South and assumes the role of a village idiot in a rural town. He observes the townsfolk and waits patiently for his mission. One day, after 2 years of playing the role of the village idiot, fellow elite spies Hae-rang, posed as a rock star and Hae-jin, posed as an ordinary student, are dispatched to the same town as Ryu-han. He helps the other two spies settle in and teach them how to adjust in the South. There is a sudden drastic political power shift in the North and all three spies receive an urgent and ultimate mission.", "poster_path": "/n5ESZzOGxnmugkLvyd45wOsn0mg.jpg", "popularity": 6.434}, {"adult": false, "backdrop_path": "/mdK1sZy7maFpTXT2cmOLC0Fu9BS.jpg", "genre_ids": [18, 36, 10770], "id": 14050, "original_language": "en", "original_title": "Recount", "overview": "A chronicle of the weeks after the 2000 U.S. presidential election and the subsequent recounts in Florida.", "poster_path": "/7qTLgpaMlaxsZlJpDWFQrJ2u3Iy.jpg", "release_date": "2008-05-28", "title": "Recount", "video": false, "vote_average": 6.9, "vote_count": 84, "popularity": 6.515}, {"adult": false, "backdrop_path": "/7Q4TZRh194AzbzcZLBJ4DQyhKoy.jpg", "genre_ids": [35, 18], "id": 1723, "original_language": "en", "original_title": "The Front", "overview": "A cashier poses as a writer for blacklisted talents to submit their work through, but the injustice around him pushes him to take a stand.", "poster_path": "/pTgDQhuGFuw0UfqFb6FXDKCmC0E.jpg", "release_date": "1976-09-17", "title": "The Front", "video": false, "vote_average": 7.0, "vote_count": 65, "popularity": 6.291}, {"adult": false, "backdrop_path": "/yCA6qzbMzoGOC7Rqk80H9r4ah9F.jpg", "genre_ids": [36, 18], "id": 460868, "original_language": "hi", "original_title": "The Accidental Prime Minister", "overview": "Based on the memoir by Indian policy analyst Sanjaya Baru, The Accidental Prime Minister explores Manmohan Singh's tenure as the Prime Minister of India, and the kind of control he had over his cabinet and the country.", "poster_path": "/ec6UmcBD4z76ZzlbZJWpHyr75yd.jpg", "release_date": "2019-01-11", "title": "The Accidental Prime Minister", "video": false, "vote_average": 5.3, "vote_count": 9, "popularity": 2.588}, {"adult": false, "backdrop_path": "/aIGQqmWpAuQA1QcI4IvpuTess5.jpg", "genre_ids": [18], "id": 56156, "original_language": "en", "original_title": "The Last Hurrah", "overview": "An aging politician tries to get re-elected one last time in the changing world of the 1950s when TV started to play a bigger part in politics. Based loosely on the career of multi-term Boston Mayor James Michael Curley, this film examines the good and evil inherent in politics and all the things that go into an election. Tracy's uphill battle to stay in office is set against the political machinery that preyed on ethnic hatred and old-time money.", "poster_path": "/qoZtfa60gVMjARkPinlL0GVtNzy.jpg", "release_date": "1958-10-24", "title": "The Last Hurrah", "video": false, "vote_average": 7.1, "vote_count": 19, "popularity": 4.857}, {"adult": false, "backdrop_path": "/2e759fX1LvzQOqXeyZmSOvLxrT2.jpg", "genre_ids": [53], "id": 15961, "original_language": "da", "original_title": "Kongekabale", "overview": "Starting a new job as a political journalist at a leading newspaper, Ulrik Torp witnesses a brutal struggle for power in the Midparty's ranks -- a struggle that coincides with the charismatic party leader's involvement in a near fatal car accident. A flurry of lies and media speculation surrounds the incident. Gradually, Ulrik unearths a ruthless conspiracy involving the incumbent prime minister.", "poster_path": "/h3hUu80dYIwusnnU9mYA7lrLIf.jpg", "release_date": "2004-08-10", "title": "King's Game", "video": false, "vote_average": 7.1, "vote_count": 21, "popularity": 3.204}, {"adult": false, "backdrop_path": "/1lJfWBTiOTDkv2ThBtKhDfLP7sq.jpg", "genre_ids": [18, 80], "id": 167179, "original_language": "pl", "original_title": "Drog\u00f3wka", "overview": "Seven policemen, seven deadly sins, a murder case, secrets and the filth of everyday police work: Traffic Department transports the viewer into the darkest Warsaw streets.", "poster_path": "/5iDhJc9NfOI3IMnmzAL8TJe3fNu.jpg", "release_date": "2013-01-31", "title": "Drog\u00f3wka", "video": false, "vote_average": 6.8, "vote_count": 38, "popularity": 4.566}, {"adult": false, "backdrop_path": "/zIAbwnSOjIuNndozhvsED1tJKra.jpg", "genre_ids": [18], "id": 450045, "original_language": "ml", "original_title": "\u0d38\u0d16\u0d3e\u0d35\u0d4d", "overview": "Comrade Krishna Kumar wants to make it big in politics but lacks the ideals a sakhavu should possess. He is ruthless enough to even get rid of friends who might be possible hurdles on his way up. His paths cross with that of a veteran comrade, sakhavu Krishnan and the film depicts how his life influences Krishna Kumar.", "poster_path": "/orvGUwvIGtd65BeE1haFqvrGRvS.jpg", "release_date": "2017-04-14", "title": "Sakhavu", "video": false, "vote_average": 5.2, "vote_count": 10, "popularity": 1.591}], "total_pages": 4, "total_results": 70}, "recommendations": {"page": 1, "results": [], "total_pages": 1, "total_results": 0}, "credits": {"cast": [{"cast_id": 2, "character": "Andrzej Leszczyc, Zastawa", "credit_id": "52fe4b5f9251416c910d8537", "gender": 2, "id": 43553, "name": "Jerzy Skolimowski", "order": 0, "profile_path": "/sBzhVnGFIjpA9gL4okmLhafS4CJ.jpg"}, {"cast_id": 3, "character": "Alfa", "credit_id": "52fe4b5f9251416c910d853b", "gender": 0, "id": 1135262, "name": "Joanna Szczerbic", "order": 1, "profile_path": null}, {"cast_id": 4, "character": "Opel Record", "credit_id": "52fe4b5f9251416c910d853f", "gender": 2, "id": 1413, "name": "Tadeusz \u0141omnicki", "order": 2, "profile_path": "/4mGgpzcA8Z4cbB6NkZs5uqnHppE.jpg"}, {"cast_id": 5, "character": "Romeo", "credit_id": "52fe4b5f9251416c910d8543", "gender": 0, "id": 1135263, "name": "Adam Hanuszkiewicz", "order": 3, "profile_path": "/m6QWFBLqjyHSoOffqud8UtZn72C.jpg"}, {"cast_id": 6, "character": "German Film Director", "credit_id": "52ffb21f9251416aee089e41", "gender": 2, "id": 10249, "name": "Volker Schl\u00f6ndorff", "order": 4, "profile_path": "/sin8gep9PEL3DDOzszOWKOqCwCO.jpg"}, {"cast_id": 7, "character": "Wikto", "credit_id": "52ffb2399251416ae4084396", "gender": 2, "id": 27554, "name": "Alan Bates", "order": 5, "profile_path": "/tXBtdL0JrFFMBP55fn3sh1z0WOG.jpg"}, {"cast_id": 8, "character": "Herself", "credit_id": "52ffb24b9251416adb07a220", "gender": 1, "id": 22969, "name": "Jane Asher", "order": 6, "profile_path": "/vL9Y4ArXO1Q4ctMYw6Q4JEeiiwm.jpg"}, {"cast_id": 9, "character": "", "credit_id": "52ffb25b9251416ad50820a7", "gender": 2, "id": 2310, "name": "Bruno Ganz", "order": 7, "profile_path": "/8bhS1PObqe8OOVcyIRxV5Rcdufd.jpg"}, {"cast_id": 10, "character": "", "credit_id": "52ffb26e9251416ad8072709", "gender": 1, "id": 39298, "name": "Margarethe von Trotta", "order": 8, "profile_path": "/inHCKINOzP9gby9zCIMm902i1ln.jpg"}, {"cast_id": 11, "character": "", "credit_id": "52ffb27a9251416ad5082e11", "gender": 2, "id": 4065, "name": "Fred Zinnemann", "order": 9, "profile_path": "/w29Qt8Jc7pZd6jAX3901Y2V8yxQ.jpg"}, {"cast_id": 12, "character": "", "credit_id": "52ffb2869251416ad5082ef9", "gender": 2, "id": 96407, "name": "David Essex", "order": 10, "profile_path": "/82BXYHmPx5GCFeKeikwE6K6qizA.jpg"}, {"cast_id": 13, "character": "Wartburg", "credit_id": "52ffb2bd9251416ade07dca2", "gender": 0, "id": 40917, "name": "Bogumi\u0142 Kobiela", "order": 11, "profile_path": "/9ORkZ1Ik1aKYCFhZ7ZnXpwxXrM5.jpg"}], "crew": [{"credit_id": "5d6704a42790bf0011325203", "department": "Camera", "gender": 2, "id": 7094, "job": "Director of Photography", "name": "Witold Soboci\u0144ski", "profile_path": null}, {"credit_id": "52fe4b5f9251416c910d8533", "department": "Directing", "gender": 2, "id": 43553, "job": "Director", "name": "Jerzy Skolimowski", "profile_path": "/sBzhVnGFIjpA9gL4okmLhafS4CJ.jpg"}, {"credit_id": "52ffb37f9251416ae106e5ad", "department": "Art", "gender": 2, "id": 43553, "job": "Art Direction", "name": "Jerzy Skolimowski", "profile_path": "/sBzhVnGFIjpA9gL4okmLhafS4CJ.jpg"}, {"credit_id": "52ffb3549251416adb07e11a", "department": "Editing", "gender": 0, "id": 41855, "job": "Editor", "name": "Grazyna Jasinska-Wisniarowska", "profile_path": null}, {"credit_id": "5d6704be12c60400126f311d", "department": "Sound", "gender": 0, "id": 88210, "job": "Original Music Composer", "name": "J\u00f3zef Skrzek", "profile_path": null}, {"credit_id": "5d6704ad6082eb0016a58889", "department": "Camera", "gender": 0, "id": 1007737, "job": "Director of Photography", "name": "Andrzej Kostenko", "profile_path": null}]}}