{"adult": false, "backdrop_path": "/eqtEDFy3oLnDh8rtNuDeHJB0clW.jpg", "belongs_to_collection": null, "budget": 0, "genres": [{"id": 12, "name": "Adventure"}, {"id": 18, "name": "Drama"}], "homepage": null, "id": 154326, "imdb_id": "tt1710565", "original_language": "ko", "original_title": "\ub9c8\uc74c\uc774", "overview": "11-year-old Chan-yi is looking after his lovely younger sister So-yi, by himself ever since their mother left them to find her own future. Despite their desperate situation of being abandoned by family and neighbors, these kids try their best to carry on life. One day, a little puppy joins this small family as Chan-yi steals it from an old couple\u2019s kennel as a gift his sister\u2019s birthday. Especially clever, this dog, whose name is \u201cMa-eum\u201d, returns the love received from his new family with great loyalty and it seems as though their happiness would continue forever\u2026only until a sudden accident brings them into collapse.", "popularity": 1.646, "poster_path": "/yhymvMY63pYaUiAZqELhcgdLXTe.jpg", "production_companies": [{"id": 3491, "logo_path": "/hXRKXi3M9qfP4Npi1kjAaH4eGnM.png", "name": "Showbox", "origin_country": "KR"}, {"id": 33257, "logo_path": null, "name": "Fineworks", "origin_country": "KR"}], "production_countries": [{"iso_3166_1": "KR", "name": "South Korea"}], "release_date": "2006-10-25", "revenue": 0, "runtime": 97, "spoken_languages": [{"iso_639_1": "ko", "name": "\ud55c\uad6d\uc5b4/\uc870\uc120\ub9d0"}], "status": "Released", "tagline": "You're gift from above.", "title": "Hearty Paws", "video": false, "vote_average": 7.0, "vote_count": 3, "keywords": {"keywords": [{"id": 15162, "name": "dog"}]}, "similar": {"page": 1, "results": [{"adult": false, "backdrop_path": "/kFkFiDdTGv1eb5C0P44KFUGstBA.jpg", "genre_ids": [10751, 12, 35, 16], "id": 13654, "original_language": "en", "original_title": "101 Dalmatians II: Patch's London Adventure", "overview": "Being one of 101 takes its toll on Patch, who doesn't feel unique. When he's accidentally left behind on moving day, he meets his idol, Thunderbolt, who enlists him on a publicity campaign.", "poster_path": "/ht4h6I7WwaZa1E8xzb1jE94mDvS.jpg", "release_date": "2003-01-21", "title": "101 Dalmatians II: Patch's London Adventure", "video": false, "vote_average": 5.9, "vote_count": 652, "popularity": 15.544}, {"id": 12230, "video": false, "vote_count": 3838, "vote_average": 7.1, "title": "One Hundred and One Dalmatians", "release_date": "1961-01-25", "original_language": "en", "original_title": "One Hundred and One Dalmatians", "genre_ids": [12, 16, 35, 10751], "backdrop_path": "/vHBYOUjt04iI0COvMtPAMa2pC9y.jpg", "adult": false, "overview": "When a litter of dalmatian puppies are abducted by the minions of Cruella De Vil, the parents must find them before she uses them for a diabolical fashion statement.", "poster_path": "/9klDisS1sVb5LljRhpYJ0TUbPzt.jpg", "popularity": 28.524}, {"adult": false, "backdrop_path": "/hpIUiHIyNKWsid3Tz4adtYsUqo1.jpg", "genre_ids": [16, 12, 10751], "id": 82703, "original_language": "en", "original_title": "Mr. Peabody & Sherman", "overview": "A young boy and his dog, who happens to have a genius-level IQ, spring into action when their time-machine is stolen and moments in history begin to be changed.", "poster_path": "/q4FQXK4a4HSb4pajZL4ZFKHVsjC.jpg", "release_date": "2014-02-07", "title": "Mr. Peabody & Sherman", "video": false, "vote_average": 6.6, "vote_count": 1490, "popularity": 18.443}, {"id": 11674, "video": false, "vote_count": 1935, "vote_average": 5.8, "title": "101 Dalmatians", "release_date": "1996-11-17", "original_language": "en", "original_title": "101 Dalmatians", "genre_ids": [35, 10751], "backdrop_path": "/4CcoF2VSW6GD21DGbmpxWMWafaE.jpg", "adult": false, "overview": "The Live action adaptation of a Disney Classic. When a litter of dalmatian puppies are abducted by the minions of Cruella De Vil, the parents must find them before she uses them for a diabolical fashion statement.", "poster_path": "/8o2ADoAyG796UwTjwBFjPyBz0yG.jpg", "popularity": 22.423}, {"id": 533, "video": false, "vote_count": 1440, "vote_average": 6.9, "title": "Wallace & Gromit: The Curse of the Were-Rabbit", "release_date": "2005-09-04", "original_language": "en", "original_title": "Wallace & Gromit: The Curse of the Were-Rabbit", "genre_ids": [12, 16, 35, 10751], "backdrop_path": "/v45E1vDhPp2hc1dEZx5KZuRsSxX.jpg", "adult": false, "overview": "Cheese-loving eccentric Wallace and his cunning canine pal, Gromit, investigate a mystery in Nick Park's animated adventure, in which the lovable inventor and his intrepid pup run a business ridding the town of garden pests. Using only humane methods that turn their home into a halfway house for evicted vermin, the pair stumble upon a mystery involving a voracious vegetarian monster that threatens to ruin the annual veggie-growing contest.", "poster_path": "/tLryx0x9TDV5rifA9W8yUvDZFHB.jpg", "popularity": 21.23}, {"id": 381289, "video": false, "vote_count": 1744, "vote_average": 7.3, "title": "A Dog's Purpose", "release_date": "2017-01-19", "original_language": "en", "original_title": "A Dog's Purpose", "genre_ids": [12, 35, 18, 14, 10751], "backdrop_path": "/2ddVTlMyATZdvUHE7DPExA2X6xF.jpg", "adult": false, "overview": "A dog goes on quest to discover his purpose in life over the course of several lifetimes with multiple owners.", "poster_path": "/3jcNvhtVQe5Neoffdic39fRactM.jpg", "popularity": 16.784}, {"id": 10948, "video": false, "vote_count": 1941, "vote_average": 7.1, "title": "The Fox and the Hound", "release_date": "1981-07-10", "original_language": "en", "original_title": "The Fox and the Hound", "genre_ids": [12, 16, 18, 10751], "backdrop_path": "/87uShMszqPxwA034GsskGdzJOgN.jpg", "adult": false, "overview": "When a feisty little fox named Tod is adopted into a farm family, he quickly becomes friends with a fun and adorable hound puppy named Copper. Life is full of hilarious adventures until Copper is expected to take on his role as a hunting dog -- and the object of his search is his best friend!", "poster_path": "/1382VHxqZDXu2t8i46zf4fP71JG.jpg", "popularity": 18.619}, {"id": 264644, "video": false, "vote_count": 6078, "vote_average": 8.1, "title": "Room", "release_date": "2015-10-16", "original_language": "en", "original_title": "Room", "genre_ids": [18, 53], "backdrop_path": "/6Fi9Ta7m0wdmve2B2XpDdysxAGd.jpg", "adult": false, "overview": "Jack is a young boy of 5 years old who has lived all his life in one room. He believes everything within it are the only real things in the world. But what will happen when his Ma suddenly tells him that there are other things outside of Room?", "poster_path": "/eqFckcHuFCT1FrzLOAvXBb4jHwq.jpg", "popularity": 18.572}, {"adult": false, "backdrop_path": "/tr6OExnBfjLADi9OyZoW308mPAp.jpg", "genre_ids": [18, 35, 10749], "id": 74643, "original_language": "en", "original_title": "The Artist", "overview": "Hollywood, 1927: As silent movie star George Valentin wonders if the arrival of talking pictures will cause him to fade into oblivion, he sparks with Peppy Miller, a young dancer set for a big break.", "poster_path": "/i0mpvMIIjyubXsVKug9vX0lYpnd.jpg", "release_date": "2011-06-26", "title": "The Artist", "video": false, "vote_average": 7.4, "vote_count": 1977, "popularity": 10.661}, {"id": 522924, "video": false, "vote_count": 150, "vote_average": 8.1, "title": "The Art of Racing in the Rain", "release_date": "2019-08-08", "original_language": "en", "original_title": "The Art of Racing in the Rain", "genre_ids": [35, 18, 10749], "backdrop_path": "/6esNUoXh4xQvucB7o7e3TCfjI65.jpg", "adult": false, "overview": "A family dog\u2014with a near-human soul and a philosopher's mind\u2014evaluates his life through the lessons learned by his human owner, a race-car driver.", "poster_path": "/mi5VN4ww0JZgRFJIaPxxTGKjUg7.jpg", "popularity": 17.008}, {"id": 399174, "video": false, "vote_count": 2440, "vote_average": 7.9, "title": "Isle of Dogs", "release_date": "2018-03-23", "original_language": "en", "original_title": "Isle of Dogs", "genre_ids": [12, 16, 35], "backdrop_path": "/5YtXsLG9ncjjFyGZjoeV31CGf01.jpg", "adult": false, "overview": "In the future, an outbreak of canine flu leads the mayor of a Japanese city to banish all dogs to an island that's a garbage dump. The outcasts must soon embark on an epic journey when a 12-year-old boy arrives on the island to find his beloved pet.", "poster_path": "/c0nUX6Q1ZB0P2t1Jo6EeFSVnOGQ.jpg", "popularity": 16.915}, {"id": 399360, "video": false, "vote_count": 1362, "vote_average": 6.0, "title": "Alpha", "release_date": "2018-08-17", "original_language": "en", "original_title": "Alpha", "genre_ids": [12, 18], "backdrop_path": "/nKMeTdm72LQ756Eq20uTjF1zDXu.jpg", "adult": false, "overview": "In the prehistoric past, Keda, a young and inexperienced hunter, struggles to return home after being separated from his tribe when bison hunting goes awry. On his way back he will find an unexpected ally.", "poster_path": "/afdZAIcAQscziqVtsEoh2PwsYTW.jpg", "popularity": 17.774}, {"id": 9598, "video": false, "vote_count": 1736, "vote_average": 6.1, "title": "Babe", "release_date": "1995-07-18", "original_language": "en", "original_title": "Babe", "genre_ids": [35, 18, 14, 10751], "backdrop_path": "/67jzzA7YqDTR5qIUhAH32cvkf53.jpg", "adult": false, "overview": "Babe is a little pig who doesn't quite know his place in the world. With a bunch of odd friends, like Ferdinand the duck who thinks he is a rooster and Fly the dog he calls mom, Babe realizes that he has the makings to become the greatest sheep pig of all time, and Farmer Hogget knows it. With the help of the sheep dogs Babe learns that a pig can be anything that he wants to be.", "poster_path": "/k42J5jYjvw1DEGBQP63VYYvteY7.jpg", "popularity": 12.588}, {"id": 508763, "video": false, "vote_count": 383, "vote_average": 6.7, "title": "A Dog's Way Home", "release_date": "2019-01-10", "original_language": "en", "original_title": "A Dog's Way Home", "genre_ids": [12, 18, 10751], "backdrop_path": "/w7MsyOpP003FYhsiTgVHa3rNsrz.jpg", "adult": false, "overview": "A Dog\u2019s Way Home chronicles the heartwarming adventure of Bella, a dog who embarks on an epic 400-mile journey home after she is separated from her beloved human.", "poster_path": "/pZn87R7gtmMCGGO8KeaAfZDhXLg.jpg", "popularity": 16.541}, {"id": 11024, "video": false, "vote_count": 1455, "vote_average": 5.7, "title": "Scooby-Doo 2: Monsters Unleashed", "release_date": "2004-03-24", "original_language": "en", "original_title": "Scooby-Doo 2: Monsters Unleashed", "genre_ids": [12, 35, 14, 9648], "backdrop_path": "/2vRVzvqY0tydcStBkNn73JPPOPL.jpg", "adult": false, "overview": "When Mystery, Inc. are guests of honor at the grand opening of the Coolsville Museum of Criminology, a masked villain shows up and creates havoc before stealing the costumes of the gang's most notorious villains...Could it be that their nemesis, mad scientist Jonathan Jacobo has returned and is trying to recreate their deadliest foes?", "poster_path": "/vEp6qw25qY2n03O9EaeiWNv89vb.jpg", "popularity": 18.138}, {"id": 28178, "video": false, "vote_count": 3997, "vote_average": 8.0, "title": "Hachi: A Dog's Tale", "release_date": "2009-06-13", "original_language": "en", "original_title": "Hachi: A Dog's Tale", "genre_ids": [18, 10751], "backdrop_path": "/m87xptCZD6J15HcioOOX4kfEdeD.jpg", "adult": false, "overview": "A drama based on the true story of a college professor's bond with the abandoned dog he takes into his home.", "poster_path": "/3MpVmIg6CgOCUrZ2TZ2P0yitCbM.jpg", "popularity": 38.97}, {"id": 1598, "video": false, "vote_count": 1632, "vote_average": 7.2, "title": "Cape Fear", "release_date": "1991-11-15", "original_language": "en", "original_title": "Cape Fear", "genre_ids": [53], "backdrop_path": "/zDVrWS9PzI0HJU1kyfO6UNsx9br.jpg", "adult": false, "overview": "Sam Bowden is a small-town corporate attorney. Max Cady is a tattooed, cigar-smoking, bible-quoting, psychotic rapist. What do they have in common? Fourteen years ago, Sam was a public defender assigned to Max Cady's rape trial, and he made a serious error: he hid a document from his illiterate client that could have gotten him acquitted. Now, the cagey, bibliophile Cady has been released, and he intends to teach Sam Bowden and his family a thing or two about loss.", "poster_path": "/4KvrvcqckdupXXO2YnANtyG7QLK.jpg", "popularity": 19.207}, {"id": 245891, "video": false, "vote_count": 11528, "vote_average": 7.2, "title": "John Wick", "release_date": "2014-10-22", "original_language": "en", "original_title": "John Wick", "genre_ids": [28, 53], "backdrop_path": "/iJlGxN0p1suzloBGvvBu3QSSlhT.jpg", "adult": false, "overview": "Ex-hitman John Wick comes out of retirement to track down the gangsters that took everything from him.", "poster_path": "/5vHssUeVe25bMrof1HyaPyWgaP.jpg", "popularity": 71.02}, {"adult": false, "backdrop_path": "/98Gi6TauCtoQAJOIoEsnBBVTLQC.jpg", "genre_ids": [16, 10751, 10749], "id": 10340, "original_language": "en", "original_title": "Lady and the Tramp", "overview": "Lady, a golden cocker spaniel, meets up with a mongrel dog who calls himself the Tramp. He is obviously from the wrong side of town, but happenings at Lady's home make her decide to travel with him for a while.", "poster_path": "/y9nf5YIKbwycDFU4fqdKkOV1Am8.jpg", "release_date": "1955-06-16", "title": "Lady and the Tramp", "video": false, "vote_average": 7.1, "vote_count": 3162, "popularity": 29.751}, {"adult": false, "backdrop_path": "/eC8TeqWgfyXi5gSkWwoRMh4Zd18.jpg", "genre_ids": [16, 10751], "id": 11544, "original_language": "en", "original_title": "Lilo & Stitch", "overview": "As Stitch, a runaway genetic experiment from a faraway planet, wreaks havoc on the Hawaiian Islands, he becomes the mischievous adopted alien \"puppy\" of an independent little girl named Lilo and learns about loyalty, friendship, and 'ohana, the Hawaiian tradition of family.", "poster_path": "/tVaEulzowKhMhDvHNNYb9rNEZPB.jpg", "release_date": "2002-06-21", "title": "Lilo & Stitch", "video": false, "vote_average": 7.4, "vote_count": 3483, "popularity": 22.786}], "total_pages": 36, "total_results": 711}, "recommendations": {"page": 1, "results": [], "total_pages": 1, "total_results": 0}, "credits": {"cast": [{"cast_id": 9, "character": "Chan-yi", "credit_id": "55a274a5925141297d0037bd", "gender": 2, "id": 110382, "name": "Yoo Seung-ho", "order": 0, "profile_path": "/lgasRVoDNo5KDaaj9i9cfM6RjI3.jpg"}, {"cast_id": 10, "character": "So-i", "credit_id": "5624059ac3a3680e0e00fefc", "gender": 1, "id": 1128106, "name": "Kim Hyang-gi", "order": 1, "profile_path": "/bw4lPJ6q7SdzBsE6aI1womg2UHR.jpg"}, {"cast_id": 6, "character": "Mother", "credit_id": "52fe4b5c9251416c910d7f23", "gender": 0, "id": 1134995, "name": "Nan-Hee Kim", "order": 2, "profile_path": null}, {"cast_id": 8, "character": "Gang Boss", "credit_id": "53e7255b0e0a266fa50010d2", "gender": 2, "id": 86329, "name": "Ahn Gil-kang", "order": 3, "profile_path": "/k19tZSTZOy5jb8Bla4oow72hNMg.jpg"}, {"cast_id": 11, "character": "Aunt", "credit_id": "5b7bfc170e0a267c7700f2d4", "gender": 1, "id": 564849, "name": "Seo Young-hwa", "order": 4, "profile_path": null}], "crew": [{"credit_id": "52fe4b5c9251416c910d7f0b", "department": "Directing", "gender": 2, "id": 1134991, "job": "Director", "name": "Park Eun-hyung", "profile_path": null}, {"credit_id": "52fe4b5c9251416c910d7f11", "department": "Writing", "gender": 0, "id": 1134992, "job": "Writer", "name": "Shin Dong-ik", "profile_path": null}, {"credit_id": "52fe4b5c9251416c910d7f17", "department": "Writing", "gender": 1, "id": 1134993, "job": "Writer", "name": "Suh Shin-hye", "profile_path": null}, {"credit_id": "5d4f9fcf7c6de3572ba544eb", "department": "Camera", "gender": 0, "id": 1293621, "job": "Director of Photography", "name": "Kim Sun-ryung", "profile_path": null}, {"credit_id": "5d4fa088079a970017ad6082", "department": "Editing", "gender": 2, "id": 1295402, "job": "Editor", "name": "Kim Chang-ju", "profile_path": null}, {"credit_id": "5c9add520e0a267c85beb17d", "department": "Sound", "gender": 2, "id": 1296355, "job": "Music", "name": "Cho Sung-woo", "profile_path": null}, {"credit_id": "5d4baad8c68b6900110e440a", "department": "Costume & Make-Up", "gender": 0, "id": 1769726, "job": "Costume Design", "name": "Lee Jin-hee", "profile_path": null}, {"credit_id": "5cd69f73c3a36817d2c103bb", "department": "Sound", "gender": 0, "id": 2309924, "job": "Sound Supervisor", "name": "Kim Bong-soo", "profile_path": null}, {"credit_id": "5e0caf24c2f44b00112d94d6", "department": "Sound", "gender": 2, "id": 2495788, "job": "ADR Recordist", "name": "Jang Cheol-ho", "profile_path": null}]}}