{"adult": false, "backdrop_path": null, "belongs_to_collection": null, "budget": 0, "genres": [], "homepage": null, "id": 154656, "imdb_id": "tt0131042", "original_language": "en", "original_title": "Surface Tension", "overview": "A film in three parts: a man talking while a telephone rings, a walking tour of New York, and a goldfish swimming.", "popularity": 2.267, "poster_path": "/sVisaEqr1uobxjtMbkqMJen8VYK.jpg", "production_companies": [], "production_countries": [{"iso_3166_1": "US", "name": "United States of America"}], "release_date": "1968-12-31", "revenue": 0, "runtime": 10, "spoken_languages": [{"iso_639_1": "de", "name": "Deutsch"}], "status": "Released", "tagline": "", "title": "Surface Tension", "video": false, "vote_average": 5.0, "vote_count": 10, "keywords": {"keywords": [{"id": 15216, "name": "avant-garde"}]}, "similar": {"page": 1, "results": [{"id": 621733, "video": false, "vote_count": 0, "vote_average": 0.0, "title": "A Trip to the Seaside", "release_date": "2019-08-30", "original_language": "en", "original_title": "A Trip to the Seaside", "genre_ids": [99], "backdrop_path": null, "adult": false, "overview": "Experimental short film on the excitement and rush of a day trip", "poster_path": "/AuZVhpoJ4jm2LWDhoJKfxQfhDAi.jpg", "popularity": 1.324}, {"id": 650755, "video": false, "vote_count": 0, "vote_average": 0.0, "title": "Atordoado, Eu Permane\u00e7o Atento", "release_date": "2020-01-15", "original_language": "pt", "original_title": "Atordoado, Eu Permane\u00e7o Atento", "genre_ids": [99], "backdrop_path": null, "adult": false, "overview": "", "poster_path": "/exbM8qk6f6T44olJXcM8ix1sunL.jpg", "popularity": 5.092}, {"adult": false, "backdrop_path": null, "genre_ids": [], "id": 616262, "original_language": "ar", "original_title": "All Come From Dust", "overview": "A loop of edgeless bend. You were its doom, he was its bloom. You were its tomb, he was its womb. You were its gloom, he was its loom. For Heaven and Hell, were words made of fume.", "poster_path": null, "release_date": "2019-08-13", "title": "All Come From Dust", "video": false, "vote_average": 5.0, "vote_count": 1, "popularity": 0.6}, {"id": 326359, "video": false, "vote_count": 1180, "vote_average": 6.8, "title": "Frozen Fever", "release_date": "2015-03-09", "original_language": "en", "original_title": "Frozen Fever", "genre_ids": [12, 16, 10751], "backdrop_path": "/ubioPGniCfDiASmYYpeJs5RRNaC.jpg", "adult": false, "overview": "On Anna's birthday, Elsa and Kristoff are determined to give her the best celebration ever, but Elsa's icy powers may put more than just the party at risk.", "poster_path": "/lKJiVPzsAO9IJ4LKWXZ8vkR2bg4.jpg", "popularity": 17.218}, {"id": 10258, "video": false, "vote_count": 148, "vote_average": 6.6, "title": "The Madagascar Penguins in a Christmas Caper", "release_date": "2005-09-23", "original_language": "en", "original_title": "The Madagascar Penguins in a Christmas Caper", "genre_ids": [16, 35, 10751], "backdrop_path": "/gdJ6j1hmt6dQgObWxDJAHUb58o6.jpg", "adult": false, "overview": "During the holiday season, when the animals of the Central Park Zoo are preparing for Christmas, Private, the youngest of the penguins notices that the Polar Bear is all alone. Assured that nobody should have to spend Christmas alone, Private goes into the city for some last-minute Christmas shopping. Along the way, he gets stuffed into a stocking", "poster_path": "/r8QtfGSjDaY6vICRVyYvZvTkjxc.jpg", "popularity": 13.032}, {"id": 460793, "video": false, "vote_count": 933, "vote_average": 6.2, "title": "Olaf's Frozen Adventure", "release_date": "2017-10-27", "original_language": "en", "original_title": "Olaf's Frozen Adventure", "genre_ids": [12, 16, 35, 14, 10402, 10751], "backdrop_path": "/9K4QqQZg4TVXcxBGDiVY4Aey3Rn.jpg", "adult": false, "overview": "Olaf is on a mission to harness the best holiday traditions for Anna, Elsa, and Kristoff.", "poster_path": "/As8WTtxXs9e3cBit3ztTf7zoRmm.jpg", "popularity": 21.98}, {"id": 654980, "video": false, "vote_count": 0, "vote_average": 0.0, "title": "Former Cult Member Hears Music For The First Time", "release_date": "2020-01-23", "original_language": "en", "original_title": "Former Cult Member Hears Music For The First Time", "genre_ids": [], "backdrop_path": null, "adult": false, "overview": "After a woman escapes the captivity of her abusive family, a magazine invites her to a journalistic experiment: to hear music for the first time.", "poster_path": "/85K8ODZp51Cl5OAivRyjN1MKTdy.jpg", "popularity": 18.403}, {"adult": false, "backdrop_path": null, "genre_ids": [], "id": 623058, "original_language": "en", "original_title": "We Still Have to Close Our Eyes", "overview": "John Torres repurposes documentary footage captured from the sets of various Filipino productions (including the likes of Lav Diaz and Erik Matti) into an eerie, elliptical sci-fi narrative about human avatars controlled by apps.", "poster_path": "/jY7znoWWH3BJCK25w6QBOSfIFPs.jpg", "release_date": "2019-09-06", "title": "We Still Have to Close Our Eyes", "video": false, "vote_average": 0.0, "vote_count": 0, "popularity": 1.278}, {"id": 621485, "video": false, "vote_count": 2, "vote_average": 5.5, "title": "Guest of Honor", "release_date": "2019-08-14", "original_language": "en", "original_title": "Guest of Honor", "genre_ids": [18], "backdrop_path": "/qo3f05mAqiGG5yDyVhURwwhR1oh.jpg", "adult": false, "overview": "A devout Nazi oversees a group of taste testers for Hitler.", "poster_path": "/g02YorY0sAVDJuXdL42Vpmqtv0g.jpg", "popularity": 3.407}, {"adult": false, "backdrop_path": "/5qy4PGnEzZajJNzPZ2jxiqUIBON.jpg", "genre_ids": [35], "id": 6166, "original_language": "en", "original_title": "Dinner for One", "overview": "A very old woman wants to have dinner with her friends. As they are all dead, the butler has to play the role of every guest.", "poster_path": "/2uzk4IIwOrRQHn816IsEngYn8mp.jpg", "release_date": "1963-06-08", "title": "Dinner for One", "video": false, "vote_average": 7.4, "vote_count": 73, "popularity": 6.375}, {"id": 76122, "video": false, "vote_count": 232, "vote_average": 6.5, "title": "Marvel One-Shot: The Consultant", "release_date": "2011-09-12", "original_language": "en", "original_title": "Marvel One-Shot: The Consultant", "genre_ids": [28, 12, 14, 878], "backdrop_path": "/tHthULHaBaWLS1z2UfYhvHphJSb.jpg", "adult": false, "overview": "Agent Coulson informs Agent Sitwell that the World Security Council wishes Emil Blonsky to be released from prison to join the Avengers Initiative. As Nick Fury doesn't want to release Blonsky, the two agents decide to send a patsy to sabotage the meeting...", "poster_path": "/75AsB4NRKaYanuCeKYgIh2hfsR1.jpg", "popularity": 14.466}, {"adult": false, "backdrop_path": "/twGxeStlGooWV3gP6ZIcSNuQ6jf.jpg", "genre_ids": [12, 16, 10751, 14], "id": 81684, "original_language": "en", "original_title": "The Gruffalo's Child", "overview": "A follow up to the 2009 animated feature and adapted from the childrens' book by Julia Donaldson and Alex Scheffler.  The Gruffalo's child explores the deep dark wood in search of the big bad mouse and meets the Snake, Owl and Fox in the process.  She eventually finds the mouse, who manages to outwit her like the Gruffalo before!", "poster_path": "/qaGH2AoaLvoGXURQtNzj1nw6oZd.jpg", "release_date": "2011-12-25", "title": "The Gruffalo's Child", "video": false, "vote_average": 6.9, "vote_count": 73, "popularity": 9.51}, {"id": 596890, "video": false, "vote_count": 0, "vote_average": 0.0, "title": "Tenzo", "release_date": "2019-11-27", "original_language": "ja", "original_title": "\u5178\u5ea7 -TENZO-", "genre_ids": [99], "backdrop_path": "/hI3TYhcjM1CXOkLxY0q5qjiFu9u.jpg", "adult": false, "overview": "To address the social crisis, Chiken - a buddhist monk - throws himself into various tasks such as a suicide helpline, in his temple in Yamanashi. In Fukushima, his old mate Ry\u00fbgy\u00f4 - whose temple was wrecked by the tsunami - lives in a portacabin and works on construction sites.", "poster_path": "/dMWUVF3v5Yfg68LBA0RNxKJyuVI.jpg", "popularity": 0.942}, {"adult": false, "backdrop_path": null, "genre_ids": [], "id": 617079, "original_language": "fr", "original_title": "Color-Blind", "overview": "A synaesthetic portrait made between French Polynesia and Brittany, Color-blind follows the restless ghost of Gauguin in excavating the colonial legacy of a post-postcolonial present.", "poster_path": "/1JzdZbPfjoIcIavrdS0dsU4sid.jpg", "release_date": "2019-08-14", "title": "Color-Blind", "video": false, "vote_average": 0.0, "vote_count": 0, "popularity": 0.733}, {"adult": false, "backdrop_path": "/lCDV61WEp0V5rwUl4TzfJcCBTHH.jpg", "genre_ids": [18, 10749], "id": 330947, "original_language": "en", "original_title": "Song to Song", "overview": "In this modern love story set against the Austin, Texas music scene, two entangled couples \u2014 struggling songwriters Faye and BV, and music mogul Cook and the waitress whom he ensnares \u2014 chase success through a rock \u2018n\u2019 roll landscape of seduction and betrayal.", "poster_path": "/rEvtGhNY2DQ4L8Ma6rpMhL6IbKM.jpg", "release_date": "2017-03-17", "title": "Song to Song", "video": false, "vote_average": 5.3, "vote_count": 520, "popularity": 8.906}, {"id": 13932, "video": false, "vote_count": 467, "vote_average": 7.4, "title": "Jack-Jack Attack", "release_date": "2005-03-15", "original_language": "en", "original_title": "Jack-Jack Attack", "genre_ids": [12, 16, 10751], "backdrop_path": "/mUcfavkzBSlJbhS6cXZyInM9jix.jpg", "adult": false, "overview": "The Parrs' baby Jack-Jack is thought to be normal, not having any super-powers like his parents or siblings. But when an outsider is hired to watch him, Jack-Jack shows his true potential.", "poster_path": "/btnyGcvjMbN4MpwLE7A6J7gNV01.jpg", "popularity": 10.718}, {"id": 632544, "video": false, "vote_count": 3, "vote_average": 6.7, "title": "There Comes a Knocking", "release_date": "2019-10-28", "original_language": "en", "original_title": "There Comes a Knocking", "genre_ids": [18, 27], "backdrop_path": "/QWikq7EqdXO8VDC53YPK0XRqdV.jpg", "adult": false, "overview": "A widow moves into a new home and discovers an old door that won't open.", "poster_path": "/mrrPK6OvNResUn4lori2XepxYnW.jpg", "popularity": 1.985}, {"id": 399106, "video": false, "vote_count": 935, "vote_average": 8.2, "title": "Piper", "release_date": "2016-06-16", "original_language": "en", "original_title": "Piper", "genre_ids": [16, 10751], "backdrop_path": "/w1WqcS6hT0PUWC3adG37NSUOGX5.jpg", "adult": false, "overview": "A mother bird tries to teach her little one how to find food by herself. In the process, she encounters a traumatic experience that she must overcome in order to survive.", "poster_path": "/jLRllZsubY8UWpeMyDLVXdRyEWi.jpg", "popularity": 11.432}, {"id": 77887, "video": false, "vote_count": 315, "vote_average": 6.9, "title": "Hawaiian Vacation", "release_date": "2011-06-16", "original_language": "en", "original_title": "Hawaiian Vacation", "genre_ids": [16, 35, 10751, 10770], "backdrop_path": "/kqeqmUWMb0gG2QsGSBgWHvvzR5B.jpg", "adult": false, "overview": "The toys throw Ken and Barbie a Hawaiian vacation in Bonnie's room.", "poster_path": "/c0K2qAo0UlFMEqrVNgu0Ls9EYdx.jpg", "popularity": 14.339}, {"id": 654959, "video": false, "vote_count": 0, "vote_average": 0.0, "title": "Dirty", "release_date": "2020-01-23", "original_language": "en", "original_title": "Dirty", "genre_ids": [], "backdrop_path": null, "adult": false, "overview": "Marco cuts class to spend the afternoon with his boyfriend, Graham. Things do not go as planned.", "poster_path": "/xbPHXMn0msU9Jv2MVjH6aQ5PiZd.jpg", "popularity": 14.692}], "total_pages": 610, "total_results": 12200}, "recommendations": {"page": 1, "results": [{"adult": false, "backdrop_path": null, "genre_ids": [], "id": 166704, "original_language": "en", "original_title": "Carrots & Peas", "overview": "A short film by Hollis Frampton.", "poster_path": "/c8mKRePIjnDJrXpaXy26CzBybN4.jpg", "release_date": "1969-11-30", "title": "Carrots & Peas", "video": false, "vote_average": 4.4, "vote_count": 11, "popularity": 1.643}, {"adult": false, "backdrop_path": null, "genre_ids": [], "id": 146565, "original_language": "en", "original_title": "Rip Passing Over the Mountain", "overview": "", "poster_path": "/nu4gXbaLSOXXcZ5hhG3uHSFOnhX.jpg", "release_date": "1896-09-30", "title": "Rip Passing Over the Mountain", "video": false, "vote_average": 4.5, "vote_count": 14, "popularity": 2.501}, {"adult": false, "backdrop_path": "/tzd5c81OWS6Q923NNIZ3kSQBqtE.jpg", "genre_ids": [], "id": 147419, "original_language": "en", "original_title": "Color Film", "overview": "Further examining the medium of film itself, Colorfilm is a work Lawder made while trying to make a minimalist, \"pure color\" film. Using spliced-together strips of colored film leader in white, yellow, blue, red, green, etc., Lawder ran the film through a projector and found the results to be quite boring. While he was running the film, though, he noticed how beautiful the colored strips of film looked as they ran through the projector. So, he turned a camera on the projector and filmed the colored film gorgeously winding its way through the projector's machinery.\" - Noel Black, Colorado Springs Independent", "poster_path": "/jQCMXLYezcKSdDFk74hhzKypomb.jpg", "release_date": "1971-12-31", "title": "Color Film", "video": false, "vote_average": 5.0, "vote_count": 11, "popularity": 1.742}, {"adult": false, "backdrop_path": null, "genre_ids": [99], "id": 147494, "original_language": "en", "original_title": "Circular Panorama of Electric Tower", "overview": "A most interesting picture at the Pan-American Exposition. The picture was taken from the north side of the Electric Tower. It presents the most perfect and diversified views of the Transportation Building, Mexican Plaza, the Stadium and the north side of the Electric Tower. (Edison Catalog, 1902)", "poster_path": "/nQh9oH1VE2Xfml72ZuFMgSGzV4G.jpg", "release_date": "1901-08-31", "title": "Circular Panorama of Electric Tower", "video": false, "vote_average": 5.3, "vote_count": 12, "popularity": 2.017}, {"adult": false, "backdrop_path": null, "genre_ids": [], "id": 146574, "original_language": "en", "original_title": "Rip Meeting the Dwarf", "overview": "", "poster_path": "/nu4gXbaLSOXXcZ5hhG3uHSFOnhX.jpg", "release_date": "1896-09-30", "title": "Rip Meeting the Dwarf", "video": false, "vote_average": 4.5, "vote_count": 15, "popularity": 1.453}, {"adult": false, "backdrop_path": null, "genre_ids": [99], "id": 139772, "original_language": "it", "original_title": "I dimenticati", "overview": "A  short  documentary set in  Alessandria del Carretto, a small town in the province of Cosenza.", "poster_path": "/j633BTwMZ0E1TJ1o0SpKreJHBcr.jpg", "release_date": "1959-06-01", "title": "I dimenticati", "video": false, "vote_average": 6.5, "vote_count": 8, "popularity": 1.501}, {"adult": false, "backdrop_path": null, "genre_ids": [99], "id": 136141, "original_language": "ru", "original_title": "\u0422\u0443\u0440\u043a\u0441\u0438\u0431", "overview": "Bold and exhilarating documentary account of the building of the Turkestan-Siberian railway, presented as a heroic triumph of Soviet progress over natural adversity.", "poster_path": "/nrHdMQCg1nxCFahkde4duoijY4a.jpg", "release_date": "1929-10-15", "title": "The Steel Road", "video": false, "vote_average": 7.1, "vote_count": 9, "popularity": 2.384}, {"adult": false, "backdrop_path": null, "genre_ids": [], "id": 166708, "original_language": "en", "original_title": "Pan 698", "overview": "The camera pans across a field of flowers at extreme speeds in this short film by Hollis Frampton.", "poster_path": "/kukoHikfSC7cEXNGvWLoBe7VJCm.jpg", "release_date": "1974-01-01", "title": "Pan 698", "video": false, "vote_average": 4.1, "vote_count": 7, "popularity": 2.009}, {"adult": false, "backdrop_path": "/6aRJPYkN0QeG4rMidWaNlMSqUgG.jpg", "genre_ids": [36, 99], "id": 128441, "original_language": "en", "original_title": "City of Gold", "overview": "This classic short film from Pierre Berton depicts the Klondike gold rush at its peak, when would-be prospectors struggled through harsh conditions to reach the fabled gold fields over 3000 km north of civilization. Using a collection of still photographs, the film juxtaposes the Dawson City at the height of the gold rush with its bustling taverns and dance halls with the more tranquil Dawson City of the present.", "poster_path": "/qLRZqIRJZR4pYU2OEKM7kj9a3bx.jpg", "release_date": "1957-01-01", "title": "City of Gold", "video": false, "vote_average": 5.1, "vote_count": 7, "popularity": 1.891}, {"adult": false, "backdrop_path": "/moD0zHUOKr1L2qgKlVog5XC09Ik.jpg", "genre_ids": [35], "id": 37358, "original_language": "en", "original_title": "The Golf Specialist", "overview": "At a Florida hotel, absconding miscreant J. Effingham Bellweather goes slapstick golfing with the house detective's flirtatious wife and an incompetent caddy.", "poster_path": "/9UHJLVidq0yTNYUXQ9dN34deYis.jpg", "release_date": "1930-08-22", "title": "The Golf Specialist", "video": false, "vote_average": 5.3, "vote_count": 12, "popularity": 2.221}, {"adult": false, "backdrop_path": null, "genre_ids": [], "id": 154525, "original_language": "en", "original_title": "Maxwell's Demon", "overview": "Scottish physicist James Clerk Maxwell's classic theory about the behavior of gas molecules is represented on-screen by a man performing a series of Canadian air force exercises.", "poster_path": "/tw7Yp51rlJaisR3Qq80aqOhfw3Z.jpg", "release_date": "1968-12-31", "title": "Maxwell's Demon", "video": false, "vote_average": 4.5, "vote_count": 8, "popularity": 1.687}, {"adult": false, "backdrop_path": null, "genre_ids": [], "id": 385325, "original_language": "en", "original_title": "What, Who, How", "overview": "An animated short film from Stan Vanderbeek.", "poster_path": "/4cz4PNTayOlANNvYUR3v7Pn9ZT1.jpg", "release_date": "1957-12-31", "title": "What, Who, How", "video": false, "vote_average": 4.6, "vote_count": 5, "popularity": 1.027}, {"adult": false, "backdrop_path": null, "genre_ids": [], "id": 195024, "original_language": "en", "original_title": "The Silent Majority", "overview": "The 8 minute short is open to interpretation as it examines the inner thoughts of several people around a table, with the Rita Hayworth version of Put the Blame on Mame playing on the soundtrack.", "poster_path": "/MDuZtb2AGYLCezzbpmiXLuz3Rf.jpg", "release_date": "1987-12-31", "title": "The Silent Majority", "video": false, "vote_average": 5.4, "vote_count": 7, "popularity": 1.457}, {"adult": false, "backdrop_path": null, "genre_ids": [], "id": 147558, "original_language": "en", "original_title": "Skull-duggery: Part 2 \u2013 For Johanna", "overview": "A subversive experimental short against the ruling class.", "poster_path": "/ufbdB6Io2w9fuRRXjncs1hd9gUP.jpg", "release_date": "1962-12-31", "title": "Skullduggery", "video": false, "vote_average": 4.7, "vote_count": 6, "popularity": 1.4}, {"adult": false, "backdrop_path": null, "genre_ids": [35], "id": 52283, "original_language": "en", "original_title": "The Barber Shop", "overview": "An inept barber maintains his good-humored optimism in his small town shop despite having a hen-pecking harridan for a wife and a total lack of sartorial skill.", "poster_path": "/9UHJLVidq0yTNYUXQ9dN34deYis.jpg", "release_date": "1933-07-28", "title": "The Barber Shop", "video": false, "vote_average": 6.1, "vote_count": 9, "popularity": 1.847}, {"adult": false, "backdrop_path": null, "genre_ids": [], "id": 166712, "original_language": "en", "original_title": "Magellan: At the Gates of Death, Part I: The Red Gate I, 0", "overview": "A short film by Hollis Frampton.", "poster_path": "/57YhwSz6B7n8jwpDeDOF7nKhblm.jpg", "release_date": "1976-01-01", "title": "Magellan: At the Gates of Death, Part I: The Red Gate I, 0", "video": false, "vote_average": 4.9, "vote_count": 7, "popularity": 1.4}, {"adult": false, "backdrop_path": null, "genre_ids": [], "id": 243363, "original_language": "en", "original_title": "Kama Sutra Rides Again", "overview": "Oscar nominated animated short from 1972", "poster_path": "/bteMMppSpRNgI3OLj8CTES3TUmT.jpg", "release_date": "1972-01-01", "title": "Kama Sutra Rides Again", "video": false, "vote_average": 5.7, "vote_count": 7, "popularity": 1.188}, {"adult": false, "backdrop_path": null, "genre_ids": [], "id": 166707, "original_language": "en", "original_title": "Pan 697", "overview": "A butchered cow is decapitated in this short film by Hollis Frampton.", "poster_path": "/nhXDqh9OCQBtEutGWz1Yp05WjmW.jpg", "release_date": "1974-01-01", "title": "Pan 697", "video": false, "vote_average": 3.1, "vote_count": 7, "popularity": 1.4}, {"adult": false, "backdrop_path": "/u2s38zCtkIln7YQTIbcAQJj5Vri.jpg", "genre_ids": [], "id": 129327, "original_language": "en", "original_title": "Girls Night Out", "overview": "When a housewife's girlfriends take her to a male strip club for her birthday, she brings back more than memories.", "poster_path": "/tKmVzsaqnQp10n7utKqRs6LW04i.jpg", "release_date": "1988-05-31", "title": "Girls Night Out", "video": false, "vote_average": 4.2, "vote_count": 10, "popularity": 2.074}, {"adult": false, "backdrop_path": null, "genre_ids": [99], "id": 150933, "original_language": "en", "original_title": "Trance and Dance in Bali", "overview": "Explores the themes of trance and dance in the rituals and religion of Bali. The famous Kris Dance is performed.", "poster_path": "/qqbnGATK4ORPmKWnUGBr6QVVSVe.jpg", "release_date": "1952-12-31", "title": "Trance and Dance in Bali", "video": false, "vote_average": 5.3, "vote_count": 6, "popularity": 1.464}], "total_pages": 2, "total_results": 40}, "credits": {"cast": [], "crew": [{"credit_id": "52fe4b679251416c910d94c3", "department": "Directing", "gender": 2, "id": 1092209, "job": "Director", "name": "Hollis Frampton", "profile_path": "/5JsMNbUFqtRBffGzd0RzkkW3t2Z.jpg"}]}}