{"adult": false, "backdrop_path": "/9KDm1Zsu9FRaFV1l9uNez9LAy1T.jpg", "belongs_to_collection": null, "budget": 0, "genres": [{"id": 18, "name": "Drama"}], "homepage": null, "id": 154980, "imdb_id": "tt0108480", "original_language": "fr", "original_title": "Vent d'est", "overview": "The true story of General Smyslovsky and the anti-Communist 1st Russian National Army receiving shelter in Liechtenstein in 1945 and successfully resisting Soviet pressure to be returned for execution in the USSR.", "popularity": 1.261, "poster_path": "/zLdPBXbcAQFLjN30PUkbD5p9jwD.jpg", "production_companies": [{"id": 27139, "logo_path": null, "name": "Soci\u00e9t\u00e9 G\u00e9n\u00e9rale de Gestion Cin\u00e9matographique (SGGC)", "origin_country": ""}, {"id": 2668, "logo_path": null, "name": "MC4 Productions", "origin_country": ""}, {"id": 55575, "logo_path": null, "name": "Duckster Productions", "origin_country": "FR"}], "production_countries": [{"iso_3166_1": "CH", "name": "Switzerland"}, {"iso_3166_1": "FR", "name": "France"}], "release_date": "1993-01-20", "revenue": 0, "runtime": 110, "spoken_languages": [{"iso_639_1": "fr", "name": "Fran\u00e7ais"}], "status": "Released", "tagline": "", "title": "East Wind", "video": false, "vote_average": 5.0, "vote_count": 1, "keywords": {"keywords": [{"id": 6165, "name": "historical figure"}]}, "similar": {"page": 1, "results": [{"adult": false, "backdrop_path": "/tS3ms6HM52hLLU3eRdjVPSgSS4w.jpg", "genre_ids": [18, 36, 10749], "id": 8095, "original_language": "en", "original_title": "Cleopatra", "overview": "Determined to hold on to the throne, Cleopatra seduces the Roman emperor Julius Caesar. When Caesar is murdered, she redirects her attentions to his general, Marc Antony, who vows to take power\u2014but Caesar\u2019s successor has other plans.", "poster_path": "/bj7rUGUewofA9cpHt1h36gvDFfy.jpg", "release_date": "1963-06-12", "title": "Cleopatra", "video": false, "vote_average": 7.0, "vote_count": 312, "popularity": 17.932}, {"id": 88794, "video": false, "vote_count": 1430, "vote_average": 6.2, "title": "J. Edgar", "release_date": "2011-11-09", "original_language": "en", "original_title": "J. Edgar", "genre_ids": [80, 18, 36], "backdrop_path": "/8VHxc79a8wZRM6jfw2yhXtZkn1.jpg", "adult": false, "overview": "As the face of law enforcement in America for almost 50 years, J. Edgar Hoover was feared and admired, reviled and revered. But behind closed doors, he held secrets that would have destroyed his image, his career and his life.", "poster_path": "/upACO9i21lb5lG7ovf51m3lIPcv.jpg", "popularity": 13.128}, {"id": 4518, "video": false, "vote_count": 785, "vote_average": 7.2, "title": "Elizabeth", "release_date": "1998-09-13", "original_language": "en", "original_title": "Elizabeth", "genre_ids": [18, 36], "backdrop_path": "/cCzvJ95pEB1I5cUX7Zjfl606noN.jpg", "adult": false, "overview": "The story of the ascension to the throne and the early reign of Queen Elizabeth the First, the endless attempts by her council to marry her off, the Catholic hatred of her and her romance with Lord Robert Dudley.", "poster_path": "/y4ynYOy205LorkOIN6hs6DgJ1xa.jpg", "popularity": 9.782}, {"adult": false, "backdrop_path": "/3fcBsj9JMQQ27Wuk3LVrEwVZ2VT.jpg", "genre_ids": [28, 18], "id": 323677, "original_language": "en", "original_title": "Race", "overview": "Based on the story of Jesse Owens, the athlete whose quest to become the greatest track and field athlete in history thrusts him onto the world stage of the 1936 Olympics, where he faces off against Adolf Hitler's vision of Aryan supremacy.", "poster_path": "/szLfTQ2vLFQkNbP3dc0pnco1rje.jpg", "release_date": "2016-02-19", "title": "Race", "video": false, "vote_average": 7.3, "vote_count": 990, "popularity": 15.646}, {"id": 169881, "video": false, "vote_count": 645, "vote_average": 7.3, "title": "The Physician", "release_date": "2013-12-25", "original_language": "en", "original_title": "The Physician", "genre_ids": [12, 18, 36], "backdrop_path": "/jbTbTZhmZsKVWxk0436ymadWQBd.jpg", "adult": false, "overview": "England, 1021. Rob Cole, a boy born in a miserable mining town, swears to become a physician and vanquish disease and death. His harsh path of many years, a quest for knowledge besieged by countless challenges and sacrifices, leads him to the remote Isfahan, in Persia, where he meets Ibn Sina, the greatest healer of his time.", "poster_path": "/zOnuvmY4vuabnkEZwQAXvErIaTE.jpg", "popularity": 19.251}, {"adult": false, "backdrop_path": "/3vrtpYhLZB9uxpG89Fps1ngANs4.jpg", "genre_ids": [18, 53, 36], "id": 820, "original_language": "en", "original_title": "JFK", "overview": "This acclaimed Oliver Stone drama presents the investigation into the assassination of President John F. Kennedy led by New Orleans district attorney Jim Garrison. When Garrison begins to doubt conventional thinking on the murder, he faces government resistance, and, after the killing of suspected assassin Lee Harvey Oswald, he closes the case. Later, however, Garrison reopens the investigation, finding evidence of an extensive conspiracy behind Kennedy's death.", "poster_path": "/9bmXpKDJv2kdtD4QNexErjGTIOz.jpg", "release_date": "1991-12-20", "title": "JFK", "video": false, "vote_average": 7.7, "vote_count": 1033, "popularity": 19.682}, {"id": 11202, "video": false, "vote_count": 577, "vote_average": 7.5, "title": "Patton", "release_date": "1970-01-25", "original_language": "en", "original_title": "Patton", "genre_ids": [18, 36, 10752], "backdrop_path": "/iCLuDtSSU0cFLH1oTM1828STIOB.jpg", "adult": false, "overview": "\"Patton\" tells the tale of General George S. Patton, famous tank commander of World War II. The film begins with patton's career in North Africa and progresses through the invasion of Germany and the fall of the Third Reich. Side plots also speak of Patton's numerous faults such his temper and habit towards insubordination.", "poster_path": "/rLM7jIEPTjj4CF7F1IrzzNjLUCu.jpg", "popularity": 15.839}, {"id": 613, "video": false, "vote_count": 1992, "vote_average": 7.8, "title": "Downfall", "release_date": "2004-09-08", "original_language": "de", "original_title": "Der Untergang", "genre_ids": [18, 36, 10752], "backdrop_path": "/d3AmCJXvsP818di5KcCj4fNi36.jpg", "adult": false, "overview": "In April of 1945, Germany stands at the brink of defeat with the Russian Army closing in from the east and the Allied Expeditionary Force attacking from the west. In Berlin, capital of the Third Reich, Adolf Hitler proclaims that Germany will still achieve victory and orders his generals and advisers to fight to the last man. When the end finally does come, and Hitler lies dead by his own hand, what is left of his military must find a way to end the killing that is the Battle of Berlin, and lay down their arms in surrender.", "poster_path": "/2QmpblYvUThzBQ4ArdT1Kp43DZi.jpg", "popularity": 13.146}, {"adult": false, "backdrop_path": "/j1pLMvLiXRyeeHyTZO79a4t3Qao.jpg", "genre_ids": [36, 18], "id": 10858, "original_language": "en", "original_title": "Nixon", "overview": "An all-star cast powers this epic look at American President Richard M. Nixon, a man carrying the fate of the world on his shoulders while battling the self-destructive demands from within. Spanning his troubled boyhood in California to the shocking Watergate scandal that would end his presidency.", "poster_path": "/cICkmCEiXRhvZmbuAlsA5D9B2rK.jpg", "release_date": "1995-12-22", "title": "Nixon", "video": false, "vote_average": 7.0, "vote_count": 157, "popularity": 10.693}, {"adult": false, "backdrop_path": "/vxsR4pjm8VNFrywz9TQLj3loxNB.jpg", "genre_ids": [12, 18, 36], "id": 26428, "original_language": "es", "original_title": "Agora", "overview": "A historical drama set in Roman Egypt, concerning philosopher Hypatia of Alexandria and her relationship with her slave Davus, who is torn between his love for her and the possibility of gaining his freedom by joining the rising tide of Christianity.", "poster_path": "/hZcl4TuZYTNWztIP8Zpvr6YLxiY.jpg", "release_date": "2009-05-17", "title": "Agora", "video": false, "vote_average": 6.9, "vote_count": 825, "popularity": 14.461}, {"adult": false, "backdrop_path": "/7AUPQeq5hITjaTahU8zbHpfWeev.jpg", "genre_ids": [18, 28, 37, 12], "id": 12160, "original_language": "en", "original_title": "Wyatt Earp", "overview": "Covering the life and times of one of the West's most iconic heroes Wyatt Earp weaves an intricate tale of Earp and his friends and family. With a star studded cast, sweeping cinematography and authentic costumes Wyatt Earp led the way during the Western revival in the 90's.", "poster_path": "/zSGDgcWHqmQxmX4mLJZgT5UgLjj.jpg", "release_date": "1994-06-24", "title": "Wyatt Earp", "video": false, "vote_average": 6.6, "vote_count": 386, "popularity": 12.818}, {"adult": false, "backdrop_path": "/5RhBBrDKjp7sGMCpLuydd7I8wRh.jpg", "genre_ids": [28, 18, 36, 10749, 10752], "id": 16638, "original_language": "en", "original_title": "El Cid", "overview": "Epic film of the legendary Spanish hero, Rodrigo Diaz (\"El Cid\" to his followers), who, without compromising his strict sense of honour, still succeeds in taking the initiative and driving the Moors from Spain.", "poster_path": "/2bhGhYuYvY4xmpypBc8qkIjN5pY.jpg", "release_date": "1961-10-24", "title": "El Cid", "video": false, "vote_average": 6.9, "vote_count": 134, "popularity": 11.713}, {"id": 36950, "video": false, "vote_count": 193, "vote_average": 7.1, "title": "You Don't Know Jack", "release_date": "2010-04-14", "original_language": "en", "original_title": "You Don't Know Jack", "genre_ids": [18, 10770], "backdrop_path": "/aaSYQOoIlDAeCzsKYB47qe2l4Oe.jpg", "adult": false, "overview": "Angel of mercy\u2026 or murderous \u201cDoctor Death\u201d? Jack Kervorkian is one of the most polarizing figures in modern American history, a man whose passionate belief that people have the right to die has brought him both praise and vilification. Oscar\u00ae- and Emmy\u00ae-winning actor Al Pacino brings \u201cDr. Death\u201d to life in an all-new HBO Films presentation: You Don\u2019t Know Jack, directed by Oscar\u00ae-winner Barry Levinson.", "poster_path": "/xl4x8aILt9v91TUOKXHIVDZwkXy.jpg", "popularity": 7.566}, {"id": 75900, "video": false, "vote_count": 809, "vote_average": 6.7, "title": "My Week with Marilyn", "release_date": "2011-11-23", "original_language": "en", "original_title": "My Week with Marilyn", "genre_ids": [18], "backdrop_path": "/ez5WJJ9VsFvOASh0nbm8L4lkdju.jpg", "adult": false, "overview": "Sir Laurence Olivier is making a movie in London. Young Colin Clark, an eager film student, wants to be involved and he navigates himself a job on the set. When film star Marilyn Monroe arrives for the start of shooting, all of London is excited to see the blonde bombshell, while Olivier is struggling to meet her many demands and acting ineptness, and Colin is intrigued by her. Colin's intrigue is met when Marilyn invites him into her inner world where she struggles with her fame, her beauty and her desire to be a great actress.", "poster_path": "/exyLhOls9XyWr5Eq5F8HX0I6mPu.jpg", "popularity": 15.217}, {"id": 9549, "video": false, "vote_count": 449, "vote_average": 7.5, "title": "The Right Stuff", "release_date": "1983-10-20", "original_language": "en", "original_title": "The Right Stuff", "genre_ids": [18, 36], "backdrop_path": "/2ZPIAUctGFWgatWLGnFb2FPcvbo.jpg", "adult": false, "overview": "A chronicle of the original Mercury astronauts in the formation of America's space program: Alan Shepherd, the first American in space; Gus Grissom, the benighted astronaut for whom nothing works out as planned; John Glenn, the straight-arrow 'boy scout' of the bunch who was the first American to orbit the earth; and the remaining pilots: Deke Slayton, Scott Carpenter and Wally Schirra.", "poster_path": "/df1gdyE9S3DxmTfAeN3pNdSm64J.jpg", "popularity": 11.707}, {"adult": false, "backdrop_path": "/q6rZELSmaTmg1jISuRKvtJhQ2SW.jpg", "genre_ids": [18, 36], "id": 1883, "original_language": "en", "original_title": "Malcolm X", "overview": "A tribute to the controversial black activist and leader of the struggle for black liberation. He hit bottom during his imprisonment in the '50s, he became a Black Muslim and then a leader in the Nation of Islam. His assassination in 1965 left a legacy of self-determination and racial pride.", "poster_path": "/jDQ2iBJuiimvYqk9orA2YaigBmW.jpg", "release_date": "1992-11-18", "title": "Malcolm X", "video": false, "vote_average": 7.5, "vote_count": 775, "popularity": 14.524}, {"adult": false, "backdrop_path": "/18SRMsqTVdqYiS3nc3wGYVYb79w.jpg", "genre_ids": [18, 10402], "id": 316000, "original_language": "en", "original_title": "Miles Ahead", "overview": "An exploration of the life and music of Miles Davis.", "poster_path": "/k2lVWTsJ1s3e28qAoAwynGLWoKN.jpg", "release_date": "2015-10-10", "title": "Miles Ahead", "video": false, "vote_average": 6.6, "vote_count": 133, "popularity": 12.304}, {"id": 17200, "video": false, "vote_count": 27, "vote_average": 6.9, "title": "Helter Skelter", "release_date": "1976-04-01", "original_language": "en", "original_title": "Helter Skelter", "genre_ids": [80, 18, 53, 10770], "backdrop_path": "/p7TgqehtOq2xCBSvEANsfCh3LHn.jpg", "adult": false, "overview": "The investigation of two horrific mass murders leads to the capture and trial of the psychotic pseudo-hippie Charles Manson and his \"family\".", "poster_path": "/6vuUsjO2oLnvdI2T0GEvBP5Zmki.jpg", "popularity": 9.441}, {"id": 327528, "video": false, "vote_count": 117, "vote_average": 6.8, "title": "Born to Be Blue", "release_date": "2015-09-13", "original_language": "en", "original_title": "Born to Be Blue", "genre_ids": [18, 10402], "backdrop_path": "/ywLZ2SMqyE6pLWLfA2LI5pV4Fdx.jpg", "adult": false, "overview": "Jazz legend Chet Baker finds love and redemption when he stars in a movie about his own troubled life to mount a comeback.", "poster_path": "/iEdh2CkSyDXBTAPlNS6uLF9yTTH.jpg", "popularity": 11.045}, {"id": 558095, "video": false, "vote_count": 26, "vote_average": 6.5, "title": "All Is True", "release_date": "2018-12-21", "original_language": "en", "original_title": "All Is True", "genre_ids": [18, 36], "backdrop_path": "/a5bEnu6ZgYsAN9ZikKypejRHfvk.jpg", "adult": false, "overview": "London, June 29th, 1613. The Globe Theater, ran by the famous playwright William Shakespeare, accidentally burns to ashes. Seriously affected, he stops writing and returns to his hometown, where his wife Anne and daughters Judith and Susanna get surprised to hear he intends to stay there definitively, after two decades working in the capital, neglecting his sincere affections for them.", "poster_path": "/yae0QoZuPQ6yC8HleRYXXfttPLh.jpg", "popularity": 7.794}], "total_pages": 8, "total_results": 153}, "recommendations": {"page": 1, "results": [], "total_pages": 1, "total_results": 0}, "credits": {"cast": [{"cast_id": 1, "character": "General Smyslovsky", "credit_id": "52fe4b719251416c910da845", "gender": 2, "id": 56890, "name": "Malcolm McDowell", "order": 0, "profile_path": "/lnVJ6J8szi86ssDTfyvZSl8lnlr.jpg"}, {"cast_id": 2, "character": "P\u00e8re Siegler", "credit_id": "52fe4b719251416c910da849", "gender": 2, "id": 35527, "name": "Jean-Fran\u00e7ois Balmer", "order": 1, "profile_path": "/cNPMUPwVrKHp6AMuH8DuutZ6WUV.jpg"}, {"cast_id": 3, "character": "Dr. Hoop", "credit_id": "52fe4b719251416c910da84d", "gender": 0, "id": 4289, "name": "Pierre Vaneck", "order": 2, "profile_path": "/1VYytOUrkCybWzL0qliGTXqNfNp.jpg"}, {"cast_id": 6, "character": "Capitaine Barinkova", "credit_id": "52fe4b719251416c910da851", "gender": 1, "id": 117884, "name": "Ludmila Mika\u00ebl", "order": 3, "profile_path": "/vUmMYZJCwIrRSuOmPrpWM7nKITH.jpg"}, {"cast_id": 7, "character": "Colonel Tcheko", "credit_id": "52fe4b719251416c910da855", "gender": 2, "id": 7108, "name": "Wojciech Pszoniak", "order": 4, "profile_path": "/5ttTBPNSRmisCekM3YW7y60fG1Q.jpg"}, {"cast_id": 8, "character": "Martha Hubner", "credit_id": "52fe4b719251416c910da859", "gender": 1, "id": 20080, "name": "Catherine Frot", "order": 5, "profile_path": "/18d10YaqZlGPzYjaUjMIiSMfs8E.jpg"}, {"cast_id": 9, "character": "Anna", "credit_id": "52fe4b719251416c910da85d", "gender": 1, "id": 109516, "name": "Cl\u00e9mentine C\u00e9lari\u00e9", "order": 6, "profile_path": "/yffWfisdfIgNjMMJH4zof2aNHXs.jpg"}], "crew": [{"credit_id": "52fe4b719251416c910da863", "department": "Directing", "gender": 2, "id": 32012, "job": "Director", "name": "Robert Enrico", "profile_path": null}, {"credit_id": "557f0bcec3a36821b000256d", "department": "Writing", "gender": 0, "id": 1477514, "job": "Writer", "name": "Marc Miller", "profile_path": null}, {"credit_id": "557f0bdb9251410a3d0023d3", "department": "Writing", "gender": 0, "id": 1477515, "job": "Writer", "name": "Fr\u00e9d\u00e9ric Fajardie", "profile_path": null}, {"credit_id": "557f0be5c3a3682198002643", "department": "Writing", "gender": 2, "id": 32012, "job": "Writer", "name": "Robert Enrico", "profile_path": null}]}}