{"adult": false, "backdrop_path": null, "belongs_to_collection": null, "budget": 0, "genres": [{"id": 36, "name": "History"}, {"id": 10752, "name": "War"}, {"id": 18, "name": "Drama"}], "homepage": "http://pwatkins.mnsi.net/forgottenFaces.htm", "id": 155130, "imdb_id": "tt0317522", "original_language": "en", "original_title": "The Forgotten Faces", "overview": "\u201cThe Forgotten Faces (1961), a film reconstruction of the Hungarian revolution of 1956, won Watkins another amateur Oscar, and to this day, the film is praised in England as \"one of the most memorable amateur films ever made\".", "popularity": 1.055, "poster_path": "/v10icbvjHUYsACmq13IDBVda1ES.jpg", "production_companies": [{"id": 78321, "logo_path": null, "name": "Playcraft Film Unit", "origin_country": ""}], "production_countries": [{"iso_3166_1": "GB", "name": "United Kingdom"}], "release_date": "1961-01-01", "revenue": 0, "runtime": 18, "spoken_languages": [{"iso_639_1": "en", "name": "English"}], "status": "Released", "tagline": "", "title": "The Forgotten Faces", "video": false, "vote_average": 6.2, "vote_count": 5, "keywords": {"keywords": [{"id": 6078, "name": "politics"}, {"id": 15061, "name": "docudrama"}, {"id": 214549, "name": "short"}]}, "similar": {"page": 1, "results": [{"id": 150540, "video": false, "vote_count": 13953, "vote_average": 7.9, "title": "Inside Out", "release_date": "2015-06-09", "original_language": "en", "original_title": "Inside Out", "genre_ids": [16, 35, 18, 10751], "backdrop_path": "/szytSpLAyBh3ULei3x663mAv5ZT.jpg", "adult": false, "overview": "Growing up can be a bumpy road, and it's no exception for Riley, who is uprooted from her Midwest life when her father starts a new job in San Francisco. Riley's guiding emotions\u2014 Joy, Fear, Anger, Disgust and Sadness\u2014live in Headquarters, the control centre inside Riley's mind, where they help advise her through everyday life and tries to keep things positive, but the emotions conflict on how best to navigate a new city, house and school.", "poster_path": "/aAmfIX3TT40zUHGcCKrlOZRKC7u.jpg", "popularity": 47.351}, {"id": 650755, "video": false, "vote_count": 0, "vote_average": 0.0, "title": "Atordoado, Eu Permane\u00e7o Atento", "release_date": "2020-01-15", "original_language": "pt", "original_title": "Atordoado, Eu Permane\u00e7o Atento", "genre_ids": [99], "backdrop_path": null, "adult": false, "overview": "", "poster_path": "/exbM8qk6f6T44olJXcM8ix1sunL.jpg", "popularity": 7.153}, {"id": 621733, "video": false, "vote_count": 0, "vote_average": 0.0, "title": "A Trip to the Seaside", "release_date": "2019-08-30", "original_language": "en", "original_title": "A Trip to the Seaside", "genre_ids": [99], "backdrop_path": null, "adult": false, "overview": "Experimental short film on the excitement and rush of a day trip", "poster_path": "/AuZVhpoJ4jm2LWDhoJKfxQfhDAi.jpg", "popularity": 1.324}, {"id": 326359, "video": false, "vote_count": 1179, "vote_average": 6.8, "title": "Frozen Fever", "release_date": "2015-03-09", "original_language": "en", "original_title": "Frozen Fever", "genre_ids": [12, 16, 10751], "backdrop_path": "/ubioPGniCfDiASmYYpeJs5RRNaC.jpg", "adult": false, "overview": "On Anna's birthday, Elsa and Kristoff are determined to give her the best celebration ever, but Elsa's icy powers may put more than just the party at risk.", "poster_path": "/lKJiVPzsAO9IJ4LKWXZ8vkR2bg4.jpg", "popularity": 17.061}, {"adult": false, "backdrop_path": "/5OeY4U2rzePxWq2rkqMajUx2gz7.jpg", "genre_ids": [16, 10751, 12, 14, 10749], "id": 812, "original_language": "en", "original_title": "Aladdin", "overview": "Princess Jasmine grows tired of being forced to remain in the palace, so she sneaks out into the marketplace, in disguise, where she meets street-urchin Aladdin.  The couple falls in love, although Jasmine may only marry a prince.  After being thrown in jail, Aladdin becomes embroiled in a plot to find a mysterious lamp, with which the evil Jafar hopes to rule the land.", "poster_path": "/mjKozYRuHc9j7SmiXmbVmCiAM0A.jpg", "release_date": "1992-11-25", "title": "Aladdin", "video": false, "vote_average": 7.6, "vote_count": 7288, "popularity": 46.629}, {"id": 14813, "video": false, "vote_count": 456, "vote_average": 7.6, "title": "Mickey's Christmas Carol", "release_date": "1983-10-19", "original_language": "en", "original_title": "Mickey's Christmas Carol", "genre_ids": [16, 10751], "backdrop_path": "/fDK3xeAcQfQ40ZUULgZshElkspa.jpg", "adult": false, "overview": "It is an adaptation of the Charles Dickens classic A Christmas Carol, featuring Scrooge McDuck as his namesake and inspiration Ebenezer Scrooge and Mickey Mouse as Bob Cratchit. This film was based on a 1972 audio musical entitled Disney's A Christmas Carol. It is a twenty-four minute animated short film produced by Walt Disney Productions as an accompaniment to a re-release of The Rescuers.", "poster_path": "/29iF1IiC3ZyJQ1kmTf4LD8p8oro.jpg", "popularity": 18.001}, {"id": 376290, "video": false, "vote_count": 1036, "vote_average": 7.5, "title": "Miss Sloane", "release_date": "2016-11-25", "original_language": "en", "original_title": "Miss Sloane", "genre_ids": [18, 53], "backdrop_path": "/64xHK6gmw3ZwIpjeSWZ7W686J5l.jpg", "adult": false, "overview": "An ambitious lobbyist faces off against the powerful gun lobby in an attempt to pass gun control legislation.", "poster_path": "/lPgISoC37G3E2QEVtSuJ15oYlI.jpg", "popularity": 21.855}, {"id": 19, "video": false, "vote_count": 1340, "vote_average": 8.2, "title": "Metropolis", "release_date": "1927-01-10", "original_language": "de", "original_title": "Metropolis", "genre_ids": [18, 878], "backdrop_path": "/gmH0N0bdlYGN1EUr8U2cMQYyg78.jpg", "adult": false, "overview": "In a futuristic city sharply divided between the working class and the city planners, the son of the city's mastermind falls in love with a working class prophet who predicts the coming of a savior to mediate their differences.", "poster_path": "/qriaeUUwdmlgethK3aSAx68mG05.jpg", "popularity": 20.574}, {"id": 4977, "video": false, "vote_count": 997, "vote_average": 7.8, "title": "Paprika", "release_date": "2006-10-01", "original_language": "ja", "original_title": "\u30d1\u30d7\u30ea\u30ab", "genre_ids": [16, 18, 9648, 878, 53], "backdrop_path": "/jViKJYWcILHeN0KH1Wub0Go59TZ.jpg", "adult": false, "overview": "When a machine that allows therapists to enter their patient's dreams is stolen, all hell breaks loose. Only a young female therapist can stop it: Paprika.", "poster_path": "/bLUUr474Go1DfeN1HLjE3rnZXBq.jpg", "popularity": 16.88}, {"adult": false, "backdrop_path": "/tr6OExnBfjLADi9OyZoW308mPAp.jpg", "genre_ids": [18, 35, 10749], "id": 74643, "original_language": "en", "original_title": "The Artist", "overview": "Hollywood, 1927: As silent movie star George Valentin wonders if the arrival of talking pictures will cause him to fade into oblivion, he sparks with Peppy Miller, a young dancer set for a big break.", "poster_path": "/i0mpvMIIjyubXsVKug9vX0lYpnd.jpg", "release_date": "2011-06-26", "title": "The Artist", "video": false, "vote_average": 7.4, "vote_count": 1977, "popularity": 12.71}, {"id": 901, "video": false, "vote_count": 1026, "vote_average": 8.4, "title": "City Lights", "release_date": "1931-02-01", "original_language": "xx", "original_title": "City Lights", "genre_ids": [35, 18, 10749], "backdrop_path": "/vT6ux2rdyg2kexuLisO5Ygz7pHg.jpg", "adult": false, "overview": "City Lights is the first silent film that Charlie Chaplin directed after he established himself with sound accompanied films. The film is about a penniless man who falls in love with a flower girl.", "poster_path": "/bXNvzjULc9jrOVhGfjcc64uKZmZ.jpg", "popularity": 14.294}, {"id": 665, "video": false, "vote_count": 1331, "vote_average": 7.7, "title": "Ben-Hur", "release_date": "1959-12-26", "original_language": "en", "original_title": "Ben-Hur", "genre_ids": [12, 36], "backdrop_path": "/uOQPSUGG3ZHiDg9ecN8irQNZ4T1.jpg", "adult": false, "overview": "Judah Ben-Hur, a Palestinian Jew, is battling the Roman empire at the time of Christ. His actions send him and his family into slavery, but an inspirational encounter with Jesus changes everything. He finally meets his rival in a justly famous chariot race and rescues his suffering family.", "poster_path": "/m4WQ1dBIrEIHZNCoAjdpxwSKWyH.jpg", "popularity": 19.599}, {"adult": false, "backdrop_path": "/fJQ5kjLx4UdK05MC323Vlzwr6S8.jpg", "genre_ids": [35, 18, 36], "id": 140823, "original_language": "en", "original_title": "Saving Mr. Banks", "overview": "Author P.L. Travers travels from London to Hollywood as Walt Disney Pictures adapts her novel Mary Poppins for the big screen.", "poster_path": "/mvs3reS18RP6IhjLwwLeVtkoeg0.jpg", "release_date": "2013-11-16", "title": "Saving Mr. Banks", "video": false, "vote_average": 7.4, "vote_count": 2230, "popularity": 17.126}, {"id": 891, "video": false, "vote_count": 888, "vote_average": 7.8, "title": "All the President's Men", "release_date": "1976-04-04", "original_language": "en", "original_title": "All the President's Men", "genre_ids": [18, 36, 9648, 53], "backdrop_path": "/rqM0Uq57NNOpEx7BBk7FqBfGqzc.jpg", "adult": false, "overview": "In the run-up to the 1972 elections, Washington Post reporter Bob Woodward covers what seems to be a minor break-in at the Democratic Party National Headquarters. He is surprised to find top lawyers already on the defense case, and the discovery of names and addresses of Republican fund organizers on the accused further arouses his suspicions. After the editor of the Post runs with the story and assigns Woodward and Carl Bernstein to it, they find the trail leading higher and higher in the Republican Party\u2014and eventually into the White House itself.", "poster_path": "/jvXiGgWyBYDfQb44spH9JPTOmAZ.jpg", "popularity": 30.144}, {"id": 37135, "video": false, "vote_count": 4091, "vote_average": 7.4, "title": "Tarzan", "release_date": "1999-06-18", "original_language": "en", "original_title": "Tarzan", "genre_ids": [12, 16, 18, 10751], "backdrop_path": "/hCpRqibOM0ouOiqL0HMqZOF8bYe.jpg", "adult": false, "overview": "Tarzan was a small orphan who was raised by an ape named Kala since he was a child. He believed that this was his family, but on an expedition Jane Porter is rescued by Tarzan. He then finds out that he's human. Now Tarzan must make the decision as to which family he should belong to...", "poster_path": "/y6k0qn4tcDfbnrjJ2BUnoZYmMBk.jpg", "popularity": 21.81}, {"adult": false, "backdrop_path": "/twGxeStlGooWV3gP6ZIcSNuQ6jf.jpg", "genre_ids": [12, 16, 10751, 14], "id": 81684, "original_language": "en", "original_title": "The Gruffalo's Child", "overview": "A follow up to the 2009 animated feature and adapted from the childrens' book by Julia Donaldson and Alex Scheffler.  The Gruffalo's child explores the deep dark wood in search of the big bad mouse and meets the Snake, Owl and Fox in the process.  She eventually finds the mouse, who manages to outwit her like the Gruffalo before!", "poster_path": "/qaGH2AoaLvoGXURQtNzj1nw6oZd.jpg", "release_date": "2011-12-25", "title": "The Gruffalo's Child", "video": false, "vote_average": 6.9, "vote_count": 73, "popularity": 13.766}, {"id": 517909, "video": false, "vote_count": 428, "vote_average": 6.0, "title": "The Laundromat", "release_date": "2019-09-05", "original_language": "en", "original_title": "The Laundromat", "genre_ids": [35, 80, 18], "backdrop_path": "/ld3bBHoKINhXHjABn5yEJVSBOpF.jpg", "adult": false, "overview": "When her idyllic vacation takes an unthinkable turn, Ellen Martin begins investigating a fake insurance policy, only to find herself down a rabbit hole of questionable dealings that can be linked to a Panama City law firm and its vested interest in helping the world's wealthiest citizens amass larger fortunes.", "poster_path": "/hwNMJgbiUUvPCxsnADjbV9ysM5j.jpg", "popularity": 13.746}, {"id": 446354, "video": false, "vote_count": 2836, "vote_average": 7.0, "title": "The Post", "release_date": "2017-12-22", "original_language": "en", "original_title": "The Post", "genre_ids": [18, 36], "backdrop_path": "/8sb4aBST28vN3rBz704XJczS0Ld.jpg", "adult": false, "overview": "A cover-up that spanned four U.S. Presidents pushed the country's first female newspaper publisher and a hard-driving editor to join an unprecedented battle between journalist and government. Inspired by true events.", "poster_path": "/h4XG3g6uMMPIBPjAoQhC2QIMdkl.jpg", "popularity": 20.824}, {"id": 621485, "video": false, "vote_count": 2, "vote_average": 5.5, "title": "Guest of Honor", "release_date": "2019-08-14", "original_language": "en", "original_title": "Guest of Honor", "genre_ids": [18], "backdrop_path": "/qo3f05mAqiGG5yDyVhURwwhR1oh.jpg", "adult": false, "overview": "A devout Nazi oversees a group of taste testers for Hitler.", "poster_path": "/g02YorY0sAVDJuXdL42Vpmqtv0g.jpg", "popularity": 5.678}, {"adult": false, "backdrop_path": null, "genre_ids": [], "id": 616262, "original_language": "ar", "original_title": "All Come From Dust", "overview": "A loop of edgeless bend. You were its doom, he was its bloom. You were its tomb, he was its womb. You were its gloom, he was its loom. For Heaven and Hell, were words made of fume.", "poster_path": null, "release_date": "2019-08-13", "title": "All Come From Dust", "video": false, "vote_average": 5.0, "vote_count": 1, "popularity": 0.6}], "total_pages": 946, "total_results": 18901}, "recommendations": {"page": 1, "results": [{"adult": false, "backdrop_path": null, "genre_ids": [10752, 18], "id": 409962, "original_language": "en", "original_title": "USS VD: Ship of Shame", "overview": "This film was made by the U.S. government during World War II to show its young servicemen the results of \"fooling around\" with \"loose women\" overseas. Actual victims of such sexually transmitted diseases as syphilis and gonorrhoea are shown, along with the physical deterioration that accompanies those diseases.", "poster_path": "/qwwOF0sQ0hPQAIG4slLRYJ26C6X.jpg", "release_date": "1942-01-02", "title": "USS VD: Ship of Shame", "video": false, "vote_average": 3.8, "vote_count": 4, "popularity": 1.849}, {"adult": false, "backdrop_path": null, "genre_ids": [], "id": 129684, "original_language": "en", "original_title": "Cheese", "overview": "Rottenberg\u2019s newest film, Cheese (2007), conflates farm-girl imagery with the fairy tale \u201cRapunzel\u201d into a story loosely based on the Sutherland Sisters, renowned for their extremely long hair. Floating through a pastoral yet mazelike setting of raw wooden debris cobbled together into a benign shantytown, six longhaired women in flowing white nightgowns \u201cmilk\u201d their locks and the goats they live with to generate cheese. Shots of animals crowded in pens and the sisters\u2019 bunk bed\u2013 cluttered room visually compare the women to their ruminant allies. As nurturing caretakers, these women represent maternal aspects of Mother Nature. Here Rottenberg investigates feminine magic, the ability to \u201cgrow things out of the body\u201d as she says, as the ultimate, wondrous physical mystery.", "poster_path": "/dvsCZw96byWMYHVJiOMFqjCdcv0.jpg", "release_date": "2007-01-01", "title": "Cheese", "video": false, "vote_average": 5.0, "vote_count": 4, "popularity": 0.616}, {"adult": false, "backdrop_path": "/9tuk7kxaaP1rHMpkU9A69gYRzuZ.jpg", "genre_ids": [99], "id": 97915, "original_language": "en", "original_title": "Point of Order!", "overview": "Point of Order is compiled from TV footage of the 1954 Army-McCarthy hearings, in which the Army accused Senator McCarthy of improperly pressuring the Army for special privileges for Private David Schine, formerly of McCarthy's investigative staff. McCarthy accused the Army of holding Schine hostage to keep him from searching for Communists in the Army. These hearings resulted in McCarthy's eventual censure for conduct unbecoming a senator.", "poster_path": "/c2BkZsfTrzWztL2MTgH29orGhEx.jpg", "release_date": "1964-01-14", "title": "Point of Order!", "video": false, "vote_average": 5.8, "vote_count": 5, "popularity": 2.117}], "total_pages": 1, "total_results": 3}, "credits": {"cast": [{"cast_id": 3, "character": "", "credit_id": "57680451c3a3686d6200057a", "gender": 0, "id": 1638666, "name": "Frank Hickey", "order": 1, "profile_path": null}, {"cast_id": 4, "character": "", "credit_id": "576804579251417d13000470", "gender": 0, "id": 1638667, "name": "Michael Roy", "order": 2, "profile_path": null}, {"cast_id": 5, "character": "", "credit_id": "5768046192514110d90002a7", "gender": 0, "id": 1638668, "name": "John Newing", "order": 3, "profile_path": null}, {"cast_id": 6, "character": "", "credit_id": "5768046a925141770e0004de", "gender": 0, "id": 1638669, "name": "Stan Mercer", "order": 4, "profile_path": null}, {"cast_id": 7, "character": "", "credit_id": "57680471c3a36878e400042a", "gender": 0, "id": 1638670, "name": "Irene Mallaid", "order": 5, "profile_path": null}], "crew": [{"credit_id": "52fe4b759251416c910daf89", "department": "Directing", "gender": 2, "id": 95568, "job": "Director", "name": "Peter Watkins", "profile_path": "/j5FGIkACgVLYDsQNsRbfm3a3m9b.jpg"}, {"credit_id": "52fe4b759251416c910daf8f", "department": "Writing", "gender": 2, "id": 95568, "job": "Writer", "name": "Peter Watkins", "profile_path": "/j5FGIkACgVLYDsQNsRbfm3a3m9b.jpg"}]}}