{"adult": false, "backdrop_path": null, "belongs_to_collection": null, "budget": 0, "genres": [{"id": 18, "name": "Drama"}], "homepage": null, "id": 155132, "imdb_id": "tt0186813", "original_language": "it", "original_title": "Amarsi male", "overview": "Anna plays the personal secretary of a rich industrialist who falls in love with her boss' daughter's leftist boyfriend, Carlo. Anna pretty much severs her ties with her boss (who she also had romantic moments with) and after she moves in with the college student Carlo she attempts to provide for both, but soon fails in finding job opportunities and sinks into the sleazy world of drugs and prostitution. Carlo's right wing brother demands Carlo begins his relationship with daughter of the powerful businessman in order to guarantee financial freedom for the rest of his life.", "popularity": 1.4, "poster_path": "/nLT3rmfWl8XvoABRCTqHz7kksy4.jpg", "production_companies": [{"id": 10540, "logo_path": null, "name": "Transeuropa Film", "origin_country": ""}, {"id": 84351, "logo_path": null, "name": "Ferti Film", "origin_country": ""}, {"id": 1429, "logo_path": null, "name": "Italian International Film", "origin_country": ""}], "production_countries": [{"iso_3166_1": "IT", "name": "Italy"}], "release_date": "1969-08-09", "revenue": 0, "runtime": 85, "spoken_languages": [{"iso_639_1": "it", "name": "Italiano"}], "status": "Released", "tagline": "", "title": "Amarsi male", "video": false, "vote_average": 5.0, "vote_count": 1, "keywords": {"keywords": [{"id": 6078, "name": "politics"}, {"id": 10594, "name": "money"}, {"id": 13059, "name": "prostitution"}, {"id": 156117, "name": "illegal drugs"}]}, "similar": {"page": 1, "results": [{"id": 401469, "video": false, "vote_count": 1260, "vote_average": 6.5, "title": "Widows", "release_date": "2018-11-06", "original_language": "en", "original_title": "Widows", "genre_ids": [80, 53], "backdrop_path": "/tkri1hMrb1FhWfb2bWpprsvq9Sd.jpg", "adult": false, "overview": "A police shootout leaves four thieves dead during an explosive armed robbery attempt in Chicago. Their widows have nothing in common except a debt left behind by their spouses' criminal activities. Hoping to forge a future on their own terms, they join forces to pull off a heist.", "poster_path": "/d31SGJSaX29ba5ZUbZcesGoDE7I.jpg", "popularity": 23.635}, {"id": 9798, "video": false, "vote_count": 2138, "vote_average": 6.9, "title": "Enemy of the State", "release_date": "1998-11-20", "original_language": "en", "original_title": "Enemy of the State", "genre_ids": [28, 18, 53], "backdrop_path": "/5zIxXANoUCVMFu9YFhHejmnSmhY.jpg", "adult": false, "overview": "A hotshot Washington criminal lawyer becomes the target of a rogue security executive videotaped in the act of murdering a congressman when the incriminating tape is surreptitiously slipped into his shopping bag by the videographer, who is fleeing the executive's assassins.", "poster_path": "/2B0vLBo6gJbnzke4Enc77GCxKrz.jpg", "popularity": 17.543}, {"adult": false, "backdrop_path": "/plnmzCMPAb3suBAUJ4Yi2NC1APA.jpg", "genre_ids": [35], "id": 35056, "original_language": "en", "original_title": "Date Night", "overview": "Phil and Claire Foster fear that their mild-mannered relationship may be falling into a stale rut. During their weekly date night, their dinner reservation leads to their being mistaken for a couple of thieves\u2014and now a number of unsavoury characters want Phil and Claire killed.", "poster_path": "/fzzPht9KId6Ollow30jYtABhDY3.jpg", "release_date": "2010-04-08", "title": "Date Night", "video": false, "vote_average": 6.0, "vote_count": 1888, "popularity": 14.813}, {"id": 152599, "video": false, "vote_count": 487, "vote_average": 6.2, "title": "The Immigrant", "release_date": "2013-07-03", "original_language": "en", "original_title": "The Immigrant", "genre_ids": [18, 10749], "backdrop_path": "/qnvApBAWbXNm4C1PaiMsOcWfjnj.jpg", "adult": false, "overview": "1921 New York. An immigrant woman is tricked into a life of burlesque and vaudeville until a dazzling magician tries to save her and reunite her with her sister who is being held in the confines of Ellis Island.", "poster_path": "/s1KTOHIQkn78NT74bz7pmxM6c7x.jpg", "popularity": 11.535}, {"adult": false, "backdrop_path": "/cPg2OJ56J6p0da12Hez5u5iiFd6.jpg", "genre_ids": [80, 18, 53], "id": 241239, "original_language": "en", "original_title": "A Most Violent Year", "overview": "A thriller set in New York City during the winter of 1981, statistically one of the most violent years in the city's history, and centered on a the lives of an immigrant and his family trying to expand their business and capitalize on opportunities as the rampant violence, decay, and corruption of the day drag them in and threaten to destroy all they have built.", "poster_path": "/7xvfhwi1RjF27z3TfaJFAsIaO3x.jpg", "release_date": "2014-12-30", "title": "A Most Violent Year", "video": false, "vote_average": 6.6, "vote_count": 856, "popularity": 15.322}, {"adult": false, "backdrop_path": "/gXkMRCw4dKE3yRnZpmgP8wfLL1y.jpg", "genre_ids": [80, 18, 53], "id": 4547, "original_language": "en", "original_title": "Panic Room", "overview": "Trapped in their New York brownstone's panic room, a hidden chamber built as a sanctuary in the event of break-ins, newly divorced Meg Altman and her young daughter Sarah play a deadly game of cat-and-mouse with three intruders - Burnham, Raoul and Junior - during a brutal home invasion. But the room itself is the focal point because what the intruders really want is inside it.", "poster_path": "/hjkugMBhYjV8ZXgvSnGXI3q7wt7.jpg", "release_date": "2002-03-29", "title": "Panic Room", "video": false, "vote_average": 6.7, "vote_count": 2771, "popularity": 17.866}, {"id": 539, "video": false, "vote_count": 5674, "vote_average": 8.4, "title": "Psycho", "release_date": "1960-06-16", "original_language": "en", "original_title": "Psycho", "genre_ids": [18, 27, 53], "backdrop_path": "/3md49VBCeqY6MSNyAVY6d5eC6bA.jpg", "adult": false, "overview": "When larcenous real estate clerk Marion Crane goes on the lam with a wad of cash and hopes of starting a new life, she ends up at the notorious Bates Motel, where manager Norman Bates cares for his housebound mother. The place seems quirky, but fine\u2026 until Marion decides to take a shower.", "poster_path": "/81d8oyEFgj7FlxJqSDXWr8JH8kV.jpg", "popularity": 25.393}, {"id": 376290, "video": false, "vote_count": 1036, "vote_average": 7.5, "title": "Miss Sloane", "release_date": "2016-11-25", "original_language": "en", "original_title": "Miss Sloane", "genre_ids": [18, 53], "backdrop_path": "/64xHK6gmw3ZwIpjeSWZ7W686J5l.jpg", "adult": false, "overview": "An ambitious lobbyist faces off against the powerful gun lobby in an attempt to pass gun control legislation.", "poster_path": "/lPgISoC37G3E2QEVtSuJ15oYlI.jpg", "popularity": 21.855}, {"id": 311, "video": false, "vote_count": 2595, "vote_average": 8.4, "title": "Once Upon a Time in America", "release_date": "1984-05-23", "original_language": "en", "original_title": "Once Upon a Time in America", "genre_ids": [80, 18], "backdrop_path": "/vnT6HzjLSDrAweHn9xWykb8Ii6T.jpg", "adult": false, "overview": "A former Prohibition-era Jewish gangster returns to the Lower East Side of Manhattan over thirty years later, where he once again must confront the ghosts and regrets of his old life.", "poster_path": "/x733R4ISI0RbKeHhVkXdTMFmTFr.jpg", "popularity": 22.233}, {"id": 106646, "video": false, "vote_count": 13908, "vote_average": 8.0, "title": "The Wolf of Wall Street", "release_date": "2013-12-25", "original_language": "en", "original_title": "The Wolf of Wall Street", "genre_ids": [35, 80, 18], "backdrop_path": "/rP36Rx5RQh0rmH2ynEIaG8DxbV2.jpg", "adult": false, "overview": "A New York stockbroker refuses to cooperate in a large securities fraud case involving corruption on Wall Street, corporate banking world and mob infiltration. Based on Jordan Belfort's autobiography.", "poster_path": "/vK1o5rZGqxyovfIhZyMELhk03wO.jpg", "popularity": 35.327}, {"id": 7485, "video": false, "vote_count": 2598, "vote_average": 7.0, "title": "Shooter", "release_date": "2007-03-22", "original_language": "en", "original_title": "Shooter", "genre_ids": [28, 80, 18, 9648, 53], "backdrop_path": "/3riR9Xpugbn1yvBBXGINbLeUigY.jpg", "adult": false, "overview": "A marksman living in exile is coaxed back into action after learning of a plot to kill the president. Ultimately double-crossed and framed for the attempt, he goes on the run to track the real killer and find out who exactly set him up, and why??", "poster_path": "/wCZv0lNx58sfuLT698RYYJVEeTr.jpg", "popularity": 27.042}, {"id": 400535, "video": false, "vote_count": 1615, "vote_average": 6.7, "title": "Sicario: Day of the Soldado", "release_date": "2018-06-27", "original_language": "en", "original_title": "Sicario: Day of the Soldado", "genre_ids": [28, 80, 18, 53], "backdrop_path": "/13VjjUeJ6mcDUB36XRu4YFpYNSm.jpg", "adult": false, "overview": "Agent Matt Graver teams up with operative Alejandro Gillick to prevent Mexican drug cartels from smuggling terrorists across the United States border.", "poster_path": "/msqWSQkU403cQKjQHnWLnugv7EY.jpg", "popularity": 29.236}, {"adult": false, "backdrop_path": "/xC9cG6Wy6QbH2hoAx11xPPD995R.jpg", "genre_ids": [18, 10749], "id": 86331, "original_language": "fr", "original_title": "Q", "overview": "In a social context deteriorated by a countrywide economic crisis, the life of several people will be turned upside down after they meet Cecile, a character who symbolizes desire.", "poster_path": "/9Jg9s4yTEndNmy1SSXRF9jdxY9D.jpg", "release_date": "2011-09-14", "title": "Desire", "video": false, "vote_average": 4.6, "vote_count": 204, "popularity": 25.756}, {"adult": false, "backdrop_path": "/51fjuzYoJKvGW43j32nBpWW6Tm1.jpg", "genre_ids": [28, 80, 18, 53], "id": 111, "original_language": "en", "original_title": "Scarface", "overview": "After getting a green card in exchange for assassinating a Cuban government official, Tony Montana stakes a claim on the drug trade in Miami. Viciously murdering anyone who stands in his way, Tony eventually becomes the biggest drug lord in the state, controlling nearly all the cocaine that comes through Miami. But increased pressure from the police, wars with Colombian drug cartels and his own drug-fueled paranoia serve to fuel the flames of his eventual downfall.", "poster_path": "/zr2p353wrd6j3wjLgDT4TcaestB.jpg", "release_date": "1983-12-08", "title": "Scarface", "video": false, "vote_average": 8.1, "vote_count": 6147, "popularity": 29.172}, {"id": 278, "video": false, "vote_count": 14752, "vote_average": 8.7, "title": "The Shawshank Redemption", "release_date": "1994-09-23", "original_language": "en", "original_title": "The Shawshank Redemption", "genre_ids": [80, 18], "backdrop_path": "/j9XKiZrVeViAixVRzCta7h1VU9W.jpg", "adult": false, "overview": "Framed in the 1940s for the double murder of his wife and her lover, upstanding banker Andy Dufresne begins a new life at the Shawshank prison, where he puts his accounting skills to work for an amoral warden. During his long stretch in prison, Dufresne comes to be admired by the other inmates -- including an older prisoner named Red -- for his integrity and unquenchable sense of hope.", "poster_path": "/9O7gLzmreU0nGkIB6K3BsJbzvNv.jpg", "popularity": 42.206}, {"adult": false, "backdrop_path": "/rV9hascFIkEKKtiKONPTHSzyCgi.jpg", "genre_ids": [18], "id": 7345, "original_language": "en", "original_title": "There Will Be Blood", "overview": "Ruthless silver miner, turned oil prospector, Daniel Plainview moves to oil-rich California. Using his adopted son to project a trustworthy, family-man image, Plainview cons local landowners into selling him their valuable properties for a pittance. However, local preacher Eli Sunday suspects Plainviews motives and intentions, starting a slow-burning feud that threatens both their lives.", "poster_path": "/bFgqkuAFBHNuq0oTtewHwuLVWSO.jpg", "release_date": "2007-12-28", "title": "There Will Be Blood", "video": false, "vote_average": 8.1, "vote_count": 3322, "popularity": 16.723}, {"id": 627, "video": false, "vote_count": 6006, "vote_average": 8.0, "title": "Trainspotting", "release_date": "1996-02-23", "original_language": "en", "original_title": "Trainspotting", "genre_ids": [80, 18], "backdrop_path": "/Aw0z8bUhGljT0ots6udf1MTLEMi.jpg", "adult": false, "overview": "Mark Renton, deeply immersed in the Edinburgh drug scene, tries to clean up and get out, despite the allure of the drugs and influence of friends.", "poster_path": "/p1O3eFsdb0GEIYu87xlwV7P4jM1.jpg", "popularity": 35.793}, {"id": 2503, "video": false, "vote_count": 4835, "vote_average": 7.4, "title": "The Bourne Ultimatum", "release_date": "2007-08-03", "original_language": "en", "original_title": "The Bourne Ultimatum", "genre_ids": [28, 18, 9648, 53], "backdrop_path": "/6WpDOqkZFmhNJ0rwuLJiZVKlZi1.jpg", "adult": false, "overview": "Bourne is brought out of hiding once again by reporter Simon Ross who is trying to unveil Operation Blackbriar, an upgrade to Project Treadstone, in a series of newspaper columns. Information from the reporter stirs a new set of memories, and Bourne must finally uncover his dark past while dodging The Company's best efforts to eradicate him.", "poster_path": "/fHho6JYYY0nRcETWSoeI19iZsNF.jpg", "popularity": 16.034}, {"id": 137094, "video": false, "vote_count": 1850, "vote_average": 6.1, "title": "Jack Ryan: Shadow Recruit", "release_date": "2014-01-15", "original_language": "en", "original_title": "Jack Ryan: Shadow Recruit", "genre_ids": [28, 18, 53], "backdrop_path": "/7WURHOyx05AWAoNcBGp72clvB49.jpg", "adult": false, "overview": "Jack Ryan, as a young covert CIA analyst, uncovers a Russian plot to crash the U.S. economy with a terrorist attack.", "poster_path": "/jBibISmRBUO35p0Picv0nOo33sc.jpg", "popularity": 23.316}, {"id": 891, "video": false, "vote_count": 889, "vote_average": 7.8, "title": "All the President's Men", "release_date": "1976-04-04", "original_language": "en", "original_title": "All the President's Men", "genre_ids": [18, 36, 9648, 53], "backdrop_path": "/rqM0Uq57NNOpEx7BBk7FqBfGqzc.jpg", "adult": false, "overview": "In the run-up to the 1972 elections, Washington Post reporter Bob Woodward covers what seems to be a minor break-in at the Democratic Party National Headquarters. He is surprised to find top lawyers already on the defense case, and the discovery of names and addresses of Republican fund organizers on the accused further arouses his suspicions. After the editor of the Post runs with the story and assigns Woodward and Carl Bernstein to it, they find the trail leading higher and higher in the Republican Party\u2014and eventually into the White House itself.", "poster_path": "/jvXiGgWyBYDfQb44spH9JPTOmAZ.jpg", "popularity": 28.872}], "total_pages": 118, "total_results": 2347}, "recommendations": {"page": 1, "results": [], "total_pages": 1, "total_results": 0}, "credits": {"cast": [{"cast_id": 2, "character": "Anna Lanfranchi (as Susan Scott)", "credit_id": "52fe4b759251416c910dafb1", "gender": 1, "id": 100415, "name": "Nieves Navarro", "order": 0, "profile_path": "/8JY8t5ZKvkjLihErseiFGgku02n.jpg"}, {"cast_id": 3, "character": "Carlo Tessari", "credit_id": "584dc23692514118de00262f", "gender": 0, "id": 38762, "name": "Gianni Macchia", "order": 1, "profile_path": "/ysecXVh8vo4USlM1ExfkE0XlA7W.jpg"}, {"cast_id": 4, "character": "Elena Soriano", "credit_id": "584dc243c3a36832280022dc", "gender": 1, "id": 123967, "name": "Micaela Pignatelli", "order": 2, "profile_path": "/knL0ohn3fth09n4TR2khYUHYmMT.jpg"}, {"cast_id": 5, "character": "Lucio", "credit_id": "584dc24d92514118e0002531", "gender": 0, "id": 237336, "name": "Lucio Dalla", "order": 3, "profile_path": "/iYFZaJIlr8tKvkxpFeizXgoFrIy.jpg"}, {"cast_id": 6, "character": "Call Girl", "credit_id": "584dc25892514118f00026c9", "gender": 1, "id": 44968, "name": "Lea Lander", "order": 4, "profile_path": null}, {"cast_id": 7, "character": "", "credit_id": "584dc27992514118e70025d1", "gender": 2, "id": 528090, "name": "Sergio Ammirata", "order": 5, "profile_path": null}, {"cast_id": 8, "character": "", "credit_id": "584dc28092514118e70025db", "gender": 2, "id": 240278, "name": "Ugo Adinolfi", "order": 6, "profile_path": null}, {"cast_id": 9, "character": "", "credit_id": "584dc28892514118f00026f5", "gender": 0, "id": 1121969, "name": "Mar\u00eda Luisa Sala", "order": 7, "profile_path": null}, {"cast_id": 10, "character": "", "credit_id": "584dc28fc3a368321c00274a", "gender": 0, "id": 119435, "name": "Ettore Geri", "order": 8, "profile_path": null}, {"cast_id": 11, "character": "", "credit_id": "584dc296c3a3683224002aa5", "gender": 0, "id": 1721573, "name": "Sasa Magri", "order": 9, "profile_path": null}, {"cast_id": 12, "character": "", "credit_id": "584dc2a1c3a368321c00276c", "gender": 2, "id": 10608, "name": "Gary Merrill", "order": 10, "profile_path": "/zmZqg96QgZgm5hOgpy627DFIiii.jpg"}, {"cast_id": 13, "character": "Woman in Nightclub", "credit_id": "584dc2ad92514118e7002610", "gender": 0, "id": 1706562, "name": "Lella Cattaneo", "order": 11, "profile_path": null}, {"cast_id": 14, "character": "Man at House of Prostitution", "credit_id": "584dc2bac3a368322800235c", "gender": 2, "id": 49892, "name": "Fernando Di Leo", "order": 12, "profile_path": "/extKHlTDlc7bHdwZgafCSIu5LmP.jpg"}, {"cast_id": 15, "character": "Man in Nightclub", "credit_id": "584dc2c592514118e4002777", "gender": 1, "id": 39431, "name": "Andrea Esterhazy", "order": 13, "profile_path": null}, {"cast_id": 16, "character": "Man in nightclub", "credit_id": "584dc2d1c3a368321c0027a3", "gender": 2, "id": 556743, "name": "Filippo Perego", "order": 14, "profile_path": null}], "crew": [{"credit_id": "52fe4b759251416c910dafad", "department": "Directing", "gender": 2, "id": 49892, "job": "Director", "name": "Fernando Di Leo", "profile_path": "/extKHlTDlc7bHdwZgafCSIu5LmP.jpg"}, {"credit_id": "584dc2e892514118ed002721", "department": "Writing", "gender": 2, "id": 49892, "job": "Writer", "name": "Fernando Di Leo", "profile_path": "/extKHlTDlc7bHdwZgafCSIu5LmP.jpg"}, {"credit_id": "584dc2ef92514118de0026ff", "department": "Writing", "gender": 0, "id": 1582094, "job": "Writer", "name": "Enzo Dell'Acqua", "profile_path": null}, {"credit_id": "584dc2fc92514118f000276e", "department": "Writing", "gender": 0, "id": 97757, "job": "Writer", "name": "Nino Latino", "profile_path": null}, {"credit_id": "584dc307c3a36832280023a4", "department": "Sound", "gender": 0, "id": 1140848, "job": "Original Music Composer", "name": "Silvano Spadaccino", "profile_path": "/hmSj9Nfp9pg2Sj06FZv35v3jnwQ.jpg"}, {"credit_id": "584dc320c3a3683224002b20", "department": "Camera", "gender": 0, "id": 41065, "job": "Director of Photography", "name": "Franco Villa", "profile_path": null}, {"credit_id": "584dc32c92514118ed00275e", "department": "Editing", "gender": 0, "id": 240923, "job": "Editor", "name": "Amedeo Giomini", "profile_path": null}, {"credit_id": "584dc337c3a368322e002a0a", "department": "Art", "gender": 0, "id": 102632, "job": "Production Design", "name": "Franco Bottari", "profile_path": null}, {"credit_id": "584dc34292514118e0002624", "department": "Art", "gender": 0, "id": 1721575, "job": "Set Decoration", "name": "Teresa Ferrone", "profile_path": null}, {"credit_id": "584dc34d92514118e4002804", "department": "Costume & Make-Up", "gender": 0, "id": 1682754, "job": "Costume Design", "name": "Loredana Longo", "profile_path": null}, {"credit_id": "584dc35e92514118f00027e0", "department": "Costume & Make-Up", "gender": 0, "id": 32669, "job": "Makeup Artist", "name": "Carlo Sindici", "profile_path": null}]}}