{"adult": false, "backdrop_path": "/mEBf10N0jIo1fhVk55KYz88XBav.jpg", "belongs_to_collection": null, "budget": 0, "genres": [{"id": 27, "name": "Horror"}], "homepage": "http://lilithfilm.tumblr.com/", "id": 155577, "imdb_id": "tt1666188", "original_language": "en", "original_title": "Lilith", "overview": "A contemporary take on Dante's 'Inferno,' 'Lilith' is the story of Sarah Wilson, who finds herself haunted by visions of her tragically murdered younger sister, Lilith. After a night of surreal terror, Sarah is led by her visions of her dead sister into a hellish labyrinth populated by bloodthirsty demons and bedeviled ghosts from her past. Her journey into darkness forces Sarah to confront painful secrets and her innermost fears, and her path back to reality is one fraught with terror, sadness and deception.", "popularity": 2.829, "poster_path": "/411XqPHm9d4XZ6QGGgcrAo0VnFi.jpg", "production_companies": [{"id": 46419, "logo_path": null, "name": "NEHST Creations", "origin_country": ""}, {"id": 46420, "logo_path": null, "name": "Lilithfilm", "origin_country": ""}], "production_countries": [{"iso_3166_1": "US", "name": "United States of America"}], "release_date": "2011-10-28", "revenue": 0, "runtime": 98, "spoken_languages": [{"iso_639_1": "en", "name": "English"}], "status": "Released", "tagline": "", "title": "Lilith", "video": false, "vote_average": 2.0, "vote_count": 2, "keywords": {"keywords": [{"id": 10224, "name": "haunting"}, {"id": 33605, "name": "murdered sister"}, {"id": 178004, "name": "haunted maze"}]}, "similar": {"page": 1, "results": [{"adult": false, "backdrop_path": null, "genre_ids": [27, 99, 18], "id": 427086, "original_language": "en", "original_title": "A Haunting in Saginaw, Michigan", "overview": "When a single mother and her two young daughters moved into their new home - adjacent to a cemetery - they had no idea they were making the biggest mistake of their lives. The family's \"dream house\" ultimately became their worst nightmare when they realized it was inhabited by an aggressive & territorial spirit. Desperate to drive them out, the entity repeatedly taunts the mother by terrorizing her young children and anyone who dares visit the residence.", "poster_path": "/whXUv8mnn1w7ZU4629RhqTlcnWK.jpg", "release_date": "2013-11-08", "title": "A Haunting in Saginaw, Michigan", "video": false, "vote_average": 5.7, "vote_count": 3, "popularity": 2.517}, {"adult": false, "backdrop_path": null, "genre_ids": [27, 99, 18], "id": 154239, "original_language": "en", "original_title": "A Haunting on Potter Street: The Potter Street Station", "overview": "For the first time in history a film crew has been granted permission to enter the massive and mysterious Potter Street Station of Saginaw, Michigan. Watch the evidence unfold as investigators document their journey through 30,000 square feet of suspense. Locked in over night, the investigators have 'til dawn to seek proof of the station's notorious hauntings, specifically the reported \"woman in white.\" Hidden amongst the gritty industrial sites of Saginaw, Michigan exists a virtual porthole to the past. Potter Street is lined with boarded up saloons, abandoned centuries-old buildings, and Saginaw's best kept secret... the Potter Street Station.", "poster_path": "/mKKQsBWYYWh6TCsFxg6bAlVrjtc.jpg", "release_date": "2012-11-02", "title": "A Haunting on Potter Street: The Potter Street Station", "video": false, "vote_average": 6.0, "vote_count": 2, "popularity": 1.936}, {"adult": false, "backdrop_path": null, "genre_ids": [99, 18, 27], "id": 480937, "original_language": "en", "original_title": "A Haunting on Hamilton Street", "overview": "3 locations, 760 hours of investigation, condensed into a hair raising 90 Minutes! The most thorough paranormal investigation ever conducted! A location so active as exorcist had to be flown in! With its violent land lawless past, Old Town Saginaw may be one of the most haunted places in the United States. Running through Old Town like a main artery is the infamous Hamilton Street. What will investigators uncover amongst the centuries-old structures? What lurks in the shadows awaiting them? Watch the disturbing evidence unfold as investigators spend an astonishing 24 months exploring prohibition-era tunnels, a former mortuary and a hotel/saloon inhabited by a malevolent demonic entity. Witness the most thorough paranormal investigation ever conducted!", "poster_path": "/mg4iaxKYcvpDrrPnJhSuPXZNYTy.jpg", "release_date": "2010-10-28", "title": "A Haunting on Hamilton Street", "video": false, "vote_average": 6.0, "vote_count": 3, "popularity": 1.927}, {"adult": false, "backdrop_path": null, "genre_ids": [27, 99, 18], "id": 481361, "original_language": "en", "original_title": "A Haunting on Washington Avenue: The Temple Theatre", "overview": "Watch the terror unfold as paranormal investigators find themselves face to face with the restless spirits that inhabit the historic Temple Theatre of Saginaw, Michigan. Witness the hair-raising journey as the film crew explores hidden tunnels, captures shocking evidence and validates claims that the old theatre is indeed haunted. In the heart of downtown Saginaw exists a virtual time capsule filled with history, emotion and long kept secrets. The Temple Theatre (built nearly a century ago) is currently known for its prestige and glamour. However its history hasn't always basked in the limelight.", "poster_path": "/SdsXIHL3lg3xNRRdY1BYe2Ldf3.jpg", "release_date": "2014-11-17", "title": "A Haunting on Washington Avenue: The Temple Theatre", "video": false, "vote_average": 6.2, "vote_count": 5, "popularity": 2.303}, {"adult": false, "backdrop_path": "/fNLVYtHuN3QsmG1B0F2xbFACwj7.jpg", "genre_ids": [27], "id": 134366, "original_language": "en", "original_title": "Grave Encounters 2", "overview": "Tortured by the ghosts of the demonized insane asylum that killed the crew of GRAVE ENCOUNTERS, film students fight to escape death as their own paranormal investigation goes terribly wrong in this horrifying sequel.", "poster_path": "/kzx8h6mDnFULOKHWbG9w5x58YU7.jpg", "release_date": "2012-10-12", "title": "Grave Encounters 2", "video": false, "vote_average": 5.4, "vote_count": 481, "popularity": 13.075}, {"id": 381032, "video": false, "vote_count": 21, "vote_average": 5.9, "title": "Another Evil", "release_date": "2017-05-05", "original_language": "en", "original_title": "Another Evil", "genre_ids": [35, 27], "backdrop_path": "/9xe0c5cgkjyZC06vujkfcO1pwLU.jpg", "adult": false, "overview": "After encountering a ghost in his family's vacation home, Dan and his wife Mary hire an \"industrial-grade exorcist\" named Os to get rid of the beings.", "poster_path": "/A0WcyVPOgDLs479hOaqaYaT5urP.jpg", "popularity": 5.252}, {"id": 625719, "video": false, "vote_count": 1, "vote_average": 3.0, "title": "Martin's Close", "release_date": "2019-12-24", "original_language": "en", "original_title": "Martin's Close", "genre_ids": [27, 10770], "backdrop_path": "/gcccicGB2eKpE8K50wGXa9GJY3M.jpg", "adult": false, "overview": "Part of the long running tradition of 'A Ghost Story For Christmas' on BBC Four in the UK, and the third instalment presented by Mark Gatiss. A young squire accused of murdering a young girl that did not return his feelings of love reveals a supernatural secret at his trial.", "poster_path": "/ArhYVKnfILuWERuUyuvWJd1jqRm.jpg", "popularity": 6.706}, {"adult": false, "backdrop_path": "/slpgZisYNapLoN9FWXqDOC1ExbU.jpg", "genre_ids": [27, 9648, 53], "id": 259693, "original_language": "en", "original_title": "The Conjuring 2", "overview": "Lorraine and Ed Warren travel to north London to help a single mother raising four children alone in a house plagued by malicious spirits.", "poster_path": "/7GUzvvrb6hbOWl8l8YkaS4fgTDT.jpg", "release_date": "2016-05-13", "title": "The Conjuring 2", "video": false, "vote_average": 7.2, "vote_count": 4651, "popularity": 26.258}, {"id": 138843, "video": false, "vote_count": 6584, "vote_average": 7.5, "title": "The Conjuring", "release_date": "2013-03-20", "original_language": "en", "original_title": "The Conjuring", "genre_ids": [27, 53], "backdrop_path": "/3TqhNm9C8GWLwkpG3gA7v0jBBb6.jpg", "adult": false, "overview": "Paranormal investigators Ed and Lorraine Warren work to help a family terrorized by a dark presence in their farmhouse. Forced to confront a powerful entity, the Warrens find themselves caught in the most terrifying case of their lives.", "poster_path": "/ejrD1lkCIQX26TO8k4gePsFpcyX.jpg", "popularity": 21.753}, {"adult": false, "backdrop_path": "/6QpHhWUfgUuLZCcHfvnOQKb06wD.jpg", "genre_ids": [27], "id": 423536, "original_language": "en", "original_title": "Ghosts of Darkness", "overview": "Two paranormal investigators are unexpectedly thrown together in the hope of solving a 100 year mystery. Locked for three nights in a house with a dark and unsettling past, the two investigators must put their differences to one side and work together. They soon discover the myths and stories are nothing compared to what actually resides within the eerie walls of Richwood Manor. Scepticism and showmanship are soon put to one side when the two investigators realise there is more at stake than just their professional reputation. For once they have stumbled onto the real thing, but this time it's their own lives at stake.", "poster_path": "/hVz7Gr9HWnzXQBev3CJC8EoftHG.jpg", "release_date": "2017-03-01", "title": "Ghosts of Darkness", "video": false, "vote_average": 5.9, "vote_count": 18, "popularity": 5.534}, {"adult": false, "backdrop_path": "/97vocRyj35cdKwCpK4ZEfb7oFZm.jpg", "genre_ids": [27, 53], "id": 77949, "original_language": "en", "original_title": "The Awakening", "overview": "1921 England is overwhelmed by the loss and grief of World War I. Hoax exposer Florence Cathcart (Hall) visits a boarding school to explain sightings of a child ghost.", "poster_path": "/1iIB1eR9pFxoOdAp4FhPCYwQ1TA.jpg", "release_date": "2011-08-17", "title": "The Awakening", "video": false, "vote_average": 6.4, "vote_count": 868, "popularity": 15.354}, {"adult": false, "backdrop_path": "/zZAJke7HMmQfc52L1AzvQkmMR3e.jpg", "genre_ids": [53, 27, 18], "id": 288158, "original_language": "en", "original_title": "The Woman in Black 2: Angel of Death", "overview": "40 years after the first haunting at Eel Marsh House, a group of children evacuated from WWII London arrive, awakening the house's darkest inhabitant.", "poster_path": "/kzWRtyMtazWA22LJXA64KKZ3slY.jpg", "release_date": "2014-12-30", "title": "The Woman in Black 2: Angel of Death", "video": false, "vote_average": 5.1, "vote_count": 681, "popularity": 9.114}, {"adult": false, "backdrop_path": "/hgn5SrO9lRh6yRkoubBH9x1NqHm.jpg", "genre_ids": [27, 53], "id": 416160, "original_language": "en", "original_title": "The Vault", "overview": "Two estranged sisters are forced to rob a bank in order to save their brother. But this is no ordinary bank.", "poster_path": "/ycK6nMAEjViBT4b3scuKpNRnilB.jpg", "release_date": "2017-09-01", "title": "The Vault", "video": false, "vote_average": 4.8, "vote_count": 221, "popularity": 13.994}, {"id": 2655, "video": false, "vote_count": 1018, "vote_average": 6.4, "title": "What Lies Beneath", "release_date": "2000-07-21", "original_language": "en", "original_title": "What Lies Beneath", "genre_ids": [18, 27, 9648, 53], "backdrop_path": "/h3A6QXt8t35YQrSvbF9hOkKeeB9.jpg", "adult": false, "overview": "When Claire Spencer starts hearing ghostly voices and seeing spooky images, she wonders if an otherworldly spirit is trying to contact her. All the while, her husband tries to reassure her by telling her it's all in her head. But as Claire investigates, she discovers that the man she loves might know more than he's letting on.", "poster_path": "/A1mrfm8LEv7L28q50ld8QI5z9Iu.jpg", "popularity": 15.628}, {"id": 620, "video": false, "vote_count": 5187, "vote_average": 7.4, "title": "Ghostbusters", "release_date": "1984-06-08", "original_language": "en", "original_title": "Ghostbusters", "genre_ids": [35, 14], "backdrop_path": "/qmDy6Rdom8d8UFj9GeAAtVIjTRT.jpg", "adult": false, "overview": "After losing their academic posts at a prestigious university, a team of parapsychologists goes into business as proton-pack-toting \"ghostbusters\" who exterminate ghouls, hobgoblins and supernatural pests of all stripes. An ad campaign pays off when a knockout cellist hires the squad to purge her swanky digs of demons that appear to be living in her refrigerator.", "poster_path": "/3FS3oBdorgczgfCkFi2u8ZTFfpS.jpg", "popularity": 24.995}, {"id": 16180, "video": false, "vote_count": 110, "vote_average": 6.7, "title": "The Legend of Hell House", "release_date": "1973-06-15", "original_language": "en", "original_title": "The Legend of Hell House", "genre_ids": [27, 9648], "backdrop_path": "/ikfdYfAhMoNAt4mLuKRwVQGPtaU.jpg", "adult": false, "overview": "A team consisting of a physicist, his wife, a young female psychic and the only survivor of the previous visit are sent to the notorious Hell House to prove/disprove survival after death. Previous visitors have either been killed or gone mad, and it is up to the team to survive a full week in isolation, and solve the mystery of the Hell House.", "poster_path": "/cfs20hKNClCrEWRhgiy0bKEYBtV.jpg", "popularity": 6.782}, {"id": 50698, "video": false, "vote_count": 792, "vote_average": 6.2, "title": "Grave Encounters", "release_date": "2011-09-09", "original_language": "en", "original_title": "Grave Encounters", "genre_ids": [27, 53], "backdrop_path": "/dLYgcIYNafDMFhKdLZNV4rxE6Q8.jpg", "adult": false, "overview": "A crew from a paranormal reality television show lock themselves in a haunted psychiatric hospital. They search for evidence of paranormal activity as they shoot what ends up becoming their final episode.", "poster_path": "/8vnsB3Rg9Gb91UOaecXRb7dYB37.jpg", "popularity": 10.508}, {"adult": false, "backdrop_path": "/46q5jQbgEOUXsxheIx1KM4hlGO8.jpg", "genre_ids": [27, 53], "id": 79694, "original_language": "en", "original_title": "The Apparition", "overview": "Plagued by frightening occurrences in their home, Kelly and Ben learn that a university's parapsychology experiment produced an entity that is now haunting them. The malevolent spirit feeds on fear and torments the couple no matter where they run. Desperate, Kelly and Ben turn to a paranormal researcher, but even with his aid, it may already be too late to save themselves from the terrifying presence.", "poster_path": "/qEHx7H3Gvt1zYM1AyitTA8c2XOH.jpg", "release_date": "2012-08-23", "title": "The Apparition", "video": false, "vote_average": 4.3, "vote_count": 249, "popularity": 9.062}, {"id": 552660, "video": false, "vote_count": 42, "vote_average": 6.3, "title": "No Escape Room", "release_date": "2018-10-06", "original_language": "en", "original_title": "No Escape Room", "genre_ids": [27, 53], "backdrop_path": "/aeelTQu3cFnqf6O04R3s00Z6Ffb.jpg", "adult": false, "overview": "A father and daughter check out a small town escape room and discover there is something sinister about the place.", "poster_path": "/yP0mfM0MafLVMD36kgbvZpr9gbz.jpg", "popularity": 11.648}, {"id": 416234, "video": false, "vote_count": 1007, "vote_average": 5.8, "title": "Winchester", "release_date": "2018-02-02", "original_language": "en", "original_title": "Winchester", "genre_ids": [14, 27, 9648, 53], "backdrop_path": "/d4wnMDSrQonB9iArMzd90WqaoJ4.jpg", "adult": false, "overview": "San Jose, California, 1906. Isolated in her labyrinthine mansion, eccentric firearm heiress Sarah Winchester believes that she is being haunted by the souls of those killed by the guns manufactured by her company.", "poster_path": "/tHDtskokZeO9B3JBdR1dSH0uqad.jpg", "popularity": 13.27}], "total_pages": 48, "total_results": 959}, "recommendations": {"page": 1, "results": [], "total_pages": 1, "total_results": 0}, "credits": {"cast": [{"cast_id": 1, "character": "Sarah", "credit_id": "52fe4b829251416c910dcc51", "gender": 1, "id": 96081, "name": "Julia Voth", "order": 0, "profile_path": "/lZEM9qEzkzQcrbYOtBZhodTQvCN.jpg"}, {"cast_id": 10, "character": "Lilith", "credit_id": "52fe4b829251416c910dcc75", "gender": 1, "id": 1136940, "name": "Lili Reinhart", "order": 1, "profile_path": "/iyG660kcBeQImBF4XvieZ9X5GD1.jpg"}, {"cast_id": 3, "character": "Lonza", "credit_id": "52fe4b829251416c910dcc59", "gender": 0, "id": 1136929, "name": "Bianca Christians", "order": 2, "profile_path": null}, {"cast_id": 17, "character": "Flora", "credit_id": "565e8a71c3a3687509000ccf", "gender": 0, "id": 1543606, "name": "Nancy Telzerow", "order": 3, "profile_path": null}, {"cast_id": 7, "character": "Samuel", "credit_id": "52fe4b829251416c910dcc69", "gender": 0, "id": 1136936, "name": "Jeremy Kendall", "order": 4, "profile_path": null}, {"cast_id": 8, "character": "Leon Hu", "credit_id": "52fe4b829251416c910dcc6d", "gender": 0, "id": 1136938, "name": "Spencer Jay Kim", "order": 5, "profile_path": null}, {"cast_id": 9, "character": "Kelly", "credit_id": "52fe4b829251416c910dcc71", "gender": 0, "id": 1136939, "name": "Lauren Ondecker", "order": 6, "profile_path": null}, {"cast_id": 18, "character": "Minos", "credit_id": "565e8ae39251416eff000bef", "gender": 0, "id": 1543608, "name": "Damon Taylor", "order": 7, "profile_path": null}, {"cast_id": 19, "character": "The Lion", "credit_id": "565e8b1d9251416eff000c01", "gender": 0, "id": 1543609, "name": "Karl Toth", "order": 8, "profile_path": null}, {"cast_id": 2, "character": "Benjamin", "credit_id": "52fe4b829251416c910dcc55", "gender": 0, "id": 1136928, "name": "Jesse Barnes", "order": 9, "profile_path": null}, {"cast_id": 4, "character": "Creature-Like Man", "credit_id": "52fe4b829251416c910dcc5d", "gender": 0, "id": 1136932, "name": "Antowne Duncan", "order": 10, "profile_path": null}, {"cast_id": 5, "character": "Creature-Like Man", "credit_id": "52fe4b829251416c910dcc61", "gender": 0, "id": 1136934, "name": "Franklin Grace", "order": 11, "profile_path": null}, {"cast_id": 6, "character": "Creature-Like Man", "credit_id": "52fe4b829251416c910dcc65", "gender": 0, "id": 1136935, "name": "Terence Greene", "order": 12, "profile_path": null}], "crew": [{"credit_id": "55f2d75bc3a36822fe004c46", "department": "Writing", "gender": 0, "id": 1136942, "job": "Writer", "name": "Sridhar Reddy", "profile_path": null}, {"credit_id": "55f2d792925141670d004a93", "department": "Art", "gender": 1, "id": 930010, "job": "Art Direction", "name": "Kristen Adams", "profile_path": null}, {"credit_id": "55f2d739c3a36823030047a3", "department": "Directing", "gender": 0, "id": 1136942, "job": "Director", "name": "Sridhar Reddy", "profile_path": null}, {"credit_id": "55f2d77b925141453000337f", "department": "Art", "gender": 0, "id": 1390511, "job": "Art Department Assistant", "name": "Jon Nix", "profile_path": "/oOq2mNL3dV8iv9XRtlFEajLyWqh.jpg"}]}}