{"adult": false, "backdrop_path": "/lxnG4nMhVbZnQ4utkjuUsARPUlq.jpg", "belongs_to_collection": null, "budget": 0, "genres": [{"id": 37, "name": "Western"}], "homepage": null, "id": 155685, "imdb_id": "tt0057851", "original_language": "en", "original_title": "Apache Rifles", "overview": "A young cavalry officer is assigned the job of bringing in a band of Apaches who have been terrorizing the countryside.", "popularity": 3.275, "poster_path": "/eDv79Wg9QLke2UTqQGsdHfcSj6K.jpg", "production_companies": [{"id": 11735, "logo_path": null, "name": "Robert E. Kent Productions", "origin_country": ""}, {"id": 25, "logo_path": "/qZCc1lty5FzX30aOCVRBLzaVmcp.png", "name": "20th Century Fox", "origin_country": "US"}], "production_countries": [{"iso_3166_1": "US", "name": "United States of America"}], "release_date": "1964-11-26", "revenue": 0, "runtime": 92, "spoken_languages": [{"iso_639_1": "en", "name": "English"}], "status": "Released", "tagline": "The Cry Was Revenge - And One Man Vowed to Stop the Bloodshed of Two Warring Nations!", "title": "Apache Rifles", "video": false, "vote_average": 4.7, "vote_count": 3, "keywords": {"keywords": [{"id": 1321, "name": "gold"}, {"id": 4616, "name": "apache"}, {"id": 4781, "name": "miner"}, {"id": 207928, "name": "19th century"}, {"id": 219945, "name": "calvary"}]}, "similar": {"page": 1, "results": [{"adult": false, "backdrop_path": "/iGAQZPnHLeXTaxZdKVUjLegWDom.jpg", "genre_ids": [35, 37], "id": 440161, "original_language": "en", "original_title": "The Sisters Brothers", "overview": "Oregon, 1851. Hermann Kermit Warm, a chemist and aspiring gold prospector, keeps a profitable secret that the Commodore wants to know, so he sends the Sisters brothers, two notorious assassins, to capture him on his way to California.", "poster_path": "/7Tl2nZ6uvmxwK14Skbf9VFHEHpX.jpg", "release_date": "2018-09-19", "title": "The Sisters Brothers", "video": false, "vote_average": 6.9, "vote_count": 895, "popularity": 13.758}, {"adult": false, "backdrop_path": "/kiWvoV78Cc3fUwkOHKzyBgVdrDD.jpg", "genre_ids": [37, 18, 12], "id": 281957, "original_language": "en", "original_title": "The Revenant", "overview": "In the 1820s, a frontiersman, Hugh Glass, sets out on a path of vengeance against those who left him for dead after a bear mauling.", "poster_path": "/oXUWEc5i3wYyFnL1Ycu8ppxxPvs.jpg", "release_date": "2015-12-25", "title": "The Revenant", "video": false, "vote_average": 7.5, "vote_count": 12127, "popularity": 24.135}, {"id": 20237, "video": false, "vote_count": 6, "vote_average": 6.8, "title": "The Adventures of Bullwhip Griffin", "release_date": "1967-03-08", "original_language": "en", "original_title": "The Adventures of Bullwhip Griffin", "genre_ids": [28, 35, 18, 37, 10751], "backdrop_path": "/bk0FRvHr36nmp0E8IO1h9MLkNIb.jpg", "adult": false, "overview": "Boston proper meets the Wild West as Roddy McDowall, Suzanne Pleshette, and Karl Malden star in a fish-out-of-water comedy for everyone! To restore his family's lost wealth, a young Boston lad stows away on a ship bound for the California Gold Rush. When their very proper butler gives chase, all roads lead to nonstop adventure, wild and woolly characters, and a lucky punch that leads to a bonanza of belly laughs!", "poster_path": "/cmCHhK8g7sOOTkqOVTbMqRdtrbI.jpg", "popularity": 18.424}, {"id": 12146, "video": false, "vote_count": 309, "vote_average": 6.3, "title": "The Missing", "release_date": "2003-11-26", "original_language": "en", "original_title": "The Missing", "genre_ids": [12, 53, 37], "backdrop_path": "/6YveStq0npJFRE8LqMb5jDhzr0t.jpg", "adult": false, "overview": "When rancher and single mother of two Maggie Gilkeson sees her teenage daughter, Lily, kidnapped by Apache rebels, she reluctantly accepts the help of her estranged father, Samuel, in tracking down the kidnappers. Along the way, the two must learn to reconcile the past and work together if they are going to have any hope of getting Lily back before she is taken over the border and forced to become a prostitute.", "poster_path": "/eAXh7In47DugzaN4VPI1T84USB6.jpg", "popularity": 11.946}, {"adult": false, "backdrop_path": "/ifnRFDSlMdLFs9Xjem6WewM68GD.jpg", "genre_ids": [12, 18, 37], "id": 581, "original_language": "en", "original_title": "Dances with Wolves", "overview": "Wounded Civil War soldier, John Dunbar tries to commit suicide\u2014and becomes a hero instead. As a reward, he's assigned to his dream post, a remote junction on the Western frontier, and soon makes unlikely friends with the local Sioux tribe.", "poster_path": "/uzMI1WbliKbXbjvdiDKnwb2ndsG.jpg", "release_date": "1990-11-09", "title": "Dances with Wolves", "video": false, "vote_average": 7.8, "vote_count": 2247, "popularity": 28.113}, {"id": 3090, "video": false, "vote_count": 557, "vote_average": 8.1, "title": "The Treasure of the Sierra Madre", "release_date": "1948-01-24", "original_language": "en", "original_title": "The Treasure of the Sierra Madre", "genre_ids": [12, 18, 37], "backdrop_path": "/dDuNQNUdVMSKeEOwvuicc7m83IL.jpg", "adult": false, "overview": "Fred C. Dobbs and Bob Curtin, both down on their luck in Tampico, Mexico in 1925, meet up with a grizzled prospector named Howard and decide to join with him in search of gold in the wilds of central Mexico. Through enormous difficulties, they eventually succeed in finding gold, but bandits, the elements, and most especially greed threaten to turn their success into disaster.", "poster_path": "/e3lYTRwiDVPQv07xKldwlLAXikN.jpg", "popularity": 17.812}, {"adult": false, "backdrop_path": "/dLAPTvBwEdP4h7a14isNc0HwmOj.jpg", "genre_ids": [18, 10749], "id": 250734, "original_language": "en", "original_title": "Far from the Madding Crowd", "overview": "Based on the literary classic by Thomas Hardy. Bathsheba Everdene, attracts three very different suitors: Gabriel Oak, a sheep farmer, captivated by her fetching willfulness; Frank Troy, a handsome and reckless Sergeant; and William Boldwood, a prosperous and mature bachelor. This timeless story of Bathsheba's choices and passions explores the nature of relationships and love \u2013 as well as the human ability to overcome hardships through resilience and perseverance.", "poster_path": "/6v1DEaO2TZzrqcaGohUf1K7BXkU.jpg", "release_date": "2015-04-23", "title": "Far from the Madding Crowd", "video": false, "vote_average": 7.0, "vote_count": 643, "popularity": 13.429}, {"id": 8619, "video": false, "vote_count": 1675, "vote_average": 7.1, "title": "Master and Commander: The Far Side of the World", "release_date": "2003-11-14", "original_language": "en", "original_title": "Master and Commander: The Far Side of the World", "genre_ids": [12, 18, 10752], "backdrop_path": "/uuPbSNgk2dfhMH8l4cKSQUBBk6k.jpg", "adult": false, "overview": "After an abrupt and violent encounter with a French warship inflicts severe damage upon his ship, a captain of the British Royal Navy begins a chase over two oceans to capture or destroy the enemy, though he must weigh his commitment to duty and ferocious pursuit of glory against the safety of his devoted crew, including the ship's thoughtful surgeon, his best friend.", "poster_path": "/s1cVTQEZYn4nSjZLnFbzLP0j8y2.jpg", "popularity": 32.183}, {"adult": false, "backdrop_path": "/hm8Gux0946IfeJ1PZwztOo6lVHH.jpg", "genre_ids": [18, 36, 35], "id": 450322, "original_language": "en", "original_title": "The Man Who Invented Christmas", "overview": "In 1843, despite the fact that Dickens is a successful writer, the failure of his latest book puts his career at a crossroads, until the moment when, struggling with inspiration and confronting reality with his childhood memories, a new character is born in the depths of his troubled mind; an old, lonely, embittered man, so vivid, so human, that a whole world grows around him, a story so inspiring that changed the meaning of Christmas forever.", "poster_path": "/xYCuRgEKynGurSEooxDa9pQPF7n.jpg", "release_date": "2017-10-12", "title": "The Man Who Invented Christmas", "video": false, "vote_average": 6.7, "vote_count": 395, "popularity": 12.264}, {"id": 10747, "video": false, "vote_count": 552, "vote_average": 7.5, "title": "The Outlaw Josey Wales", "release_date": "1976-06-30", "original_language": "en", "original_title": "The Outlaw Josey Wales", "genre_ids": [28, 12, 37], "backdrop_path": "/vkE1ROrP1gA5c1L31XZ8JR9QRMJ.jpg", "adult": false, "overview": "After avenging his family's brutal murder, Wales is pursued by a pack of soldiers. He prefers to travel alone, but ragtag outcasts are drawn to him - and Wales can't bring himself to leave them unprotected.", "poster_path": "/8HRmovHTe1FTiZ5GUM534izCNL2.jpg", "popularity": 14.041}, {"id": 411728, "video": false, "vote_count": 342, "vote_average": 7.2, "title": "The Professor and the Madman", "release_date": "2019-03-07", "original_language": "en", "original_title": "The Professor and the Madman", "genre_ids": [18, 36, 9648, 53], "backdrop_path": "/zhNfM1CSQqJtIqelwlK9iKtSd9P.jpg", "adult": false, "overview": "Professor James Murray begins work compiling words for the first edition of the Oxford English Dictionary in the mid 19th century, and receives over 10,000 entries from a patient at Broadmoor Criminal Lunatic Asylum, Dr. William Minor.", "poster_path": "/gtGCDLhfjW96qVarwctnuTpGOtD.jpg", "popularity": 13.302}, {"adult": false, "backdrop_path": "/9YAVIwBcBrLXeukg2dgMGfYB1uu.jpg", "genre_ids": [12, 16, 10751, 10749], "id": 10530, "original_language": "en", "original_title": "Pocahontas", "overview": "Pocahontas, daughter of a Native American tribe chief, falls in love with an English soldier as colonists invade 17th century Virginia.", "poster_path": "/kZ1ft0QZ4e3zDUPMBftEkwI9ftd.jpg", "release_date": "1995-06-14", "title": "Pocahontas", "video": false, "vote_average": 6.9, "vote_count": 3587, "popularity": 26.574}, {"id": 17979, "video": false, "vote_count": 2815, "vote_average": 6.8, "title": "A Christmas Carol", "release_date": "2009-11-04", "original_language": "en", "original_title": "A Christmas Carol", "genre_ids": [16, 10751], "backdrop_path": "/GtwSStViUdhKGf0d7tCkR7alKV.jpg", "adult": false, "overview": "Miser Ebenezer Scrooge is awakened on Christmas Eve by spirits who reveal to him his own miserable existence, what opportunities he wasted in his youth, his current cruelties, and the dire fate that awaits him if he does not change his ways. Scrooge is faced with his own story of growing bitterness and meanness, and must decide what his own future will hold: death or redemption.", "poster_path": "/jeOCcjUAcSYleVwhsaKEPT4CYwF.jpg", "popularity": 19.945}, {"id": 49529, "video": false, "vote_count": 3606, "vote_average": 6.1, "title": "John Carter", "release_date": "2012-03-07", "original_language": "en", "original_title": "John Carter", "genre_ids": [28, 12, 878], "backdrop_path": "/2eDepJWMMBHmZ7pt9MSqzGQeoDc.jpg", "adult": false, "overview": "John Carter is a war-weary, former military captain who's inexplicably transported to the mysterious and exotic planet of Barsoom (Mars) and reluctantly becomes embroiled in an epic conflict. It's a world on the brink of collapse, and Carter rediscovers his humanity when he realizes the survival of Barsoom and its people rests in his hands.", "poster_path": "/4QDBNt9PmxqUH4Ab2R5xKWqzXiQ.jpg", "popularity": 20.92}, {"adult": false, "backdrop_path": "/GRyynLqafMrLFMHqvfGdUweavA.jpg", "genre_ids": [27, 18, 14], "id": 628, "original_language": "en", "original_title": "Interview with the Vampire", "overview": "A vampire relates his epic life story of love, betrayal, loneliness, and dark hunger to an over-curious reporter.", "poster_path": "/hldXwwViSfHJS0kIJr07KBGmHJI.jpg", "release_date": "1994-11-11", "title": "Interview with the Vampire", "video": false, "vote_average": 7.3, "vote_count": 3231, "popularity": 21.064}, {"adult": false, "backdrop_path": "/913sS08HhcTQTwz7X567iR6DLHn.jpg", "genre_ids": [12, 28, 53], "id": 682, "original_language": "en", "original_title": "The Man with the Golden Gun", "overview": "A golden bullet has 007 engraved on it as it smashes into the secret service headquarters. The bullet came from the professional killer Scaramanga who has yet to miss a target and James Bond begins a mission to try and stop him.", "poster_path": "/7VSVgxAvA7IdTf8T6Oon1eaReeJ.jpg", "release_date": "1974-12-01", "title": "The Man with the Golden Gun", "video": false, "vote_average": 6.5, "vote_count": 996, "popularity": 17.905}, {"adult": false, "backdrop_path": "/A0enTetqBfL3UqLPyg0MONLQDXN.jpg", "genre_ids": [16, 10751, 12, 9648], "id": 9994, "original_language": "en", "original_title": "The Great Mouse Detective", "overview": "When the diabolical Professor Ratigan kidnaps London's master toymaker, the brilliant master of disguise Basil of Baker Street and his trusted sidekick Dawson try to elude the ultimate trap and foil the perfect crime.", "poster_path": "/9uDr7vfjCFr39KGCcqrk44Cg7fQ.jpg", "release_date": "1986-07-02", "title": "The Great Mouse Detective", "video": false, "vote_average": 7.1, "vote_count": 894, "popularity": 19.212}, {"id": 656968, "video": false, "vote_count": 23, "vote_average": 7.0, "title": "A Christmas Carol", "release_date": "2019-12-19", "original_language": "en", "original_title": "A Christmas Carol", "genre_ids": [18, 14], "backdrop_path": "/ubLsCmv36zUUt2zxhFSowYFe5uF.jpg", "adult": false, "overview": "London, 1843. Ebenezer Scrooge, a bitter old man, despises the Christmas holiday. Over the course of Christmas Eve night he is visited by three ghosts to show him his past, present and future.", "poster_path": "/tKW48tnZKaHLBIxxgoAf9BIpyRv.jpg", "popularity": 7.061}, {"id": 11362, "video": false, "vote_count": 888, "vote_average": 7.5, "title": "The Count of Monte Cristo", "release_date": "2002-01-23", "original_language": "en", "original_title": "The Count of Monte Cristo", "genre_ids": [28, 12, 18, 53], "backdrop_path": "/pgreancDSQbXbOIeMWuJclnm03C.jpg", "adult": false, "overview": "Edmond Dant\u00e9s's life and plans to marry the beautiful Mercedes are shattered when his best friend, Fernand, deceives him. After spending 13 miserable years in prison, Dant\u00e9s escapes with the help of a fellow inmate and plots his revenge, cleverly insinuating himself into the French nobility.", "poster_path": "/1JbBZex0EUcTj9FCD8oYEFbVH3j.jpg", "popularity": 14.403}, {"id": 448119, "video": false, "vote_count": 53, "vote_average": 7.1, "title": "Dolittle", "release_date": "2020-01-01", "original_language": "en", "original_title": "Dolittle", "genre_ids": [12, 35, 14, 10751], "backdrop_path": "/lG802rseTZcN9mtLsQPVfApEVzM.jpg", "adult": false, "overview": "After losing his wife seven years earlier, the eccentric Dr. John Dolittle, famed doctor and veterinarian of Queen Victoria\u2019s England, hermits himself away behind the high walls of Dolittle Manor with only his menagerie of exotic animals for company. But when the young queen falls gravely ill, a reluctant Dolittle is forced to set sail on an epic adventure to a mythical island in search of a cure, regaining his wit and courage as he crosses old adversaries and discovers wondrous creatures.", "poster_path": "/3Nt3v1uzUgfSuVARD1AnI9g9Zl9.jpg", "popularity": 118.679}], "total_pages": 211, "total_results": 4218}, "recommendations": {"page": 1, "results": [], "total_pages": 1, "total_results": 0}, "credits": {"cast": [{"cast_id": 1, "character": "Capt. Jeff Stanton", "credit_id": "52fe4b859251416c910dd349", "gender": 2, "id": 50962, "name": "Audie Murphy", "order": 0, "profile_path": "/gNrJiJu0t7WIgPR7VrnrV3FuceU.jpg"}, {"cast_id": 2, "character": "Red Hawk", "credit_id": "52fe4b859251416c910dd34d", "gender": 2, "id": 15975, "name": "Michael Dante", "order": 1, "profile_path": "/11Jb7NXav416WBnuUvK9YtsPNBq.jpg"}, {"cast_id": 3, "character": "Dawn Gillis", "credit_id": "52fe4b859251416c910dd351", "gender": 0, "id": 103714, "name": "Linda Lawson", "order": 2, "profile_path": "/qG3bmgA8x7VrAS5hjXdUcUxg5XY.jpg"}, {"cast_id": 14, "character": "Col. Nathan Perry", "credit_id": "59454b229251413ff40125bd", "gender": 2, "id": 78793, "name": "John Archer", "order": 3, "profile_path": "/64WXX5WH4kuaGAa2VckHqx3v1JQ.jpg"}, {"cast_id": 5, "character": "Mike Greer", "credit_id": "5740ac2c92514153a9000906", "gender": 2, "id": 8262, "name": "L.Q. Jones", "order": 4, "profile_path": "/jhPsFq7qYT2QKc4FO70fqxgfpXs.jpg"}, {"cast_id": 6, "character": "Hodges", "credit_id": "5740ac4fc3a3686dc2000f9a", "gender": 2, "id": 2652, "name": "Ken Lynch", "order": 5, "profile_path": "/6zrOWruN0LoolGOSNdzKdJMiVkd.jpg"}, {"cast_id": 10, "character": "Victorio (as Joseph A. Vitale)", "credit_id": "59454aea9251413fb601217f", "gender": 2, "id": 97282, "name": "Joseph Vitale", "order": 6, "profile_path": "/1Biiw87edY7hEoulme0d3ygW3Qy.jpg"}, {"cast_id": 11, "character": "Sgt. Cobb", "credit_id": "59454af7c3a3681676012e90", "gender": 2, "id": 86347, "name": "Robert Brubaker", "order": 7, "profile_path": null}, {"cast_id": 12, "character": "Cpl. Ramirez", "credit_id": "59454b039251413fbb0120ab", "gender": 0, "id": 130346, "name": "Eugene Iglesias", "order": 8, "profile_path": "/ukM08v9esTHmMfwmKNtUzOYdPQv.jpg"}, {"cast_id": 13, "character": "Capt. Thatcher", "credit_id": "59454b15c3a36816e4011c35", "gender": 2, "id": 22602, "name": "J. Pat O'Malley", "order": 9, "profile_path": "/if8jAnsuARxFUy3k7PhaFqzHd9N.jpg"}, {"cast_id": 15, "character": "Owens", "credit_id": "5c58cf8f92514157df533ba4", "gender": 2, "id": 54683, "name": "Charles Watts", "order": 10, "profile_path": "/9EMeWDGTonMmXLbwV5nkqtTR2Od.jpg"}, {"cast_id": 16, "character": "Capt. Green", "credit_id": "5c58cfb4c3a3683028888fe0", "gender": 2, "id": 62549, "name": "Peter Hansen", "order": 11, "profile_path": "/qROoQM1wvKVbOlvqdjB6QvEUtZz.jpg"}, {"cast_id": 17, "character": "George, the Sheriff", "credit_id": "5c58cfcbc3a36826a687c4df", "gender": 2, "id": 82837, "name": "Robert Karnes", "order": 12, "profile_path": "/zz4xVCQSHlqL3PFBtAp7FGHhQ4N.jpg"}, {"cast_id": 18, "character": "Gen. Nelson", "credit_id": "5c58cfe59251415e346ae367", "gender": 0, "id": 131272, "name": "S. John Launer", "order": 13, "profile_path": "/3UvSsWeetO8TC3IYFkPzR3LWWRr.jpg"}, {"cast_id": 19, "character": "Indian Agent Thompson", "credit_id": "5c58cfff0e0a263ccde6cb54", "gender": 2, "id": 111491, "name": "Howard Wright", "order": 14, "profile_path": null}], "crew": [{"credit_id": "52fe4b859251416c910dd357", "department": "Directing", "gender": 2, "id": 32175, "job": "Director", "name": "William Witney", "profile_path": "/5VOLSc8My7Thp1tbfCjYUa7gQSJ.jpg"}, {"credit_id": "59454ac39251413fdd0121c3", "department": "Writing", "gender": 0, "id": 1834843, "job": "Writer", "name": "Charles B. Smith", "profile_path": null}, {"credit_id": "59454acd9251413fad01329b", "department": "Writing", "gender": 2, "id": 103674, "job": "Story", "name": "Kenneth Gamet", "profile_path": null}, {"credit_id": "59454ad7925141400d01248a", "department": "Writing", "gender": 2, "id": 42064, "job": "Story", "name": "Richard Schayer", "profile_path": null}]}}