{"adult": false, "backdrop_path": "/e1h6nlQrvR6OxIYdydmfUTeZyTf.jpg", "belongs_to_collection": null, "budget": 0, "genres": [{"id": 16, "name": "Animation"}, {"id": 18, "name": "Drama"}], "homepage": "http://adamanddog.tumblr.com/", "id": 157301, "imdb_id": "tt2162565", "original_language": "en", "original_title": "Adam and Dog", "overview": "The story about the dog of Eden. What happened in those first days of Creation that made Man and Dog so inseparable? The dog, as he lives through this curious world, encounters a strange creature; a human being named Adam - and with that discovers a new found connection to the world.", "popularity": 3.34, "poster_path": "/zb3wQsCP5mMyfGokkOYig0pGJSH.jpg", "production_companies": [], "production_countries": [{"iso_3166_1": "US", "name": "United States of America"}], "release_date": "2013-02-01", "revenue": 0, "runtime": 16, "spoken_languages": [], "status": "Released", "tagline": "", "title": "Adam and Dog", "video": false, "vote_average": 6.7, "vote_count": 33, "keywords": {"keywords": [{"id": 15162, "name": "dog"}, {"id": 189886, "name": "garden of eden"}, {"id": 214549, "name": "short"}]}, "similar": {"page": 1, "results": [{"adult": false, "backdrop_path": "/uRLUjLYEvqQNMRItBJkjVNA1FeC.jpg", "genre_ids": [16], "id": 53453, "original_language": "en", "original_title": "Donald Duck: Beach Picnic", "overview": "Donald Duck is at the beach and tries to ride a rubber horse. He notices Pluto sleeping at the shore and decides to have some fun with him by sending the rubber horse over to Pluto which completely mesmerizes him. Meanwhile, a tribe of ants abduct Donald's picnic lunch. Donald lays out fly paper to stop the ants. Pluto follows one of the ants and, of course, he and later Donald become enmeshed in the fly paper", "poster_path": "/mC1C2ydi1h19yspJRDlUq5WOavH.jpg", "release_date": "1939-06-09", "title": "Beach Picnic", "video": false, "vote_average": 5.6, "vote_count": 20, "popularity": 5.034}, {"adult": false, "backdrop_path": "/l5bS0w1JxytrBGInjDSZMEpIxDc.jpg", "genre_ids": [16], "id": 67113, "original_language": "en", "original_title": "Mickey's Polo Team", "overview": "Mickey leads his polo team Donald (on a mule), Goofy, The Big Bad Wolf against an all-star team: Stan Laurel, Oliver Hardy, Harpo Marx (on an ostrich), Charles Chaplin, in a game refereed by Jack Holt. Featured spectators include the Three Little Pigs with Shirley Temple, W.C. Fields, and Clarabelle Cow with Clark Gable. Game action proceeds pretty much as you might expect from this bunch of comedians.", "poster_path": "/4FDkgZWa5NCstaLszniBu1H4RAC.jpg", "release_date": "1936-01-04", "title": "Mickey's Polo Team", "video": false, "vote_average": 6.9, "vote_count": 17, "popularity": 5.548}, {"id": 533, "video": false, "vote_count": 1440, "vote_average": 6.9, "title": "Wallace & Gromit: The Curse of the Were-Rabbit", "release_date": "2005-09-04", "original_language": "en", "original_title": "Wallace & Gromit: The Curse of the Were-Rabbit", "genre_ids": [12, 16, 35, 10751], "backdrop_path": "/v45E1vDhPp2hc1dEZx5KZuRsSxX.jpg", "adult": false, "overview": "Cheese-loving eccentric Wallace and his cunning canine pal, Gromit, investigate a mystery in Nick Park's animated adventure, in which the lovable inventor and his intrepid pup run a business ridding the town of garden pests. Using only humane methods that turn their home into a halfway house for evicted vermin, the pair stumble upon a mystery involving a voracious vegetarian monster that threatens to ruin the annual veggie-growing contest.", "poster_path": "/tLryx0x9TDV5rifA9W8yUvDZFHB.jpg", "popularity": 23.185}, {"id": 399174, "video": false, "vote_count": 2440, "vote_average": 7.9, "title": "Isle of Dogs", "release_date": "2018-03-23", "original_language": "en", "original_title": "Isle of Dogs", "genre_ids": [12, 16, 35], "backdrop_path": "/5YtXsLG9ncjjFyGZjoeV31CGf01.jpg", "adult": false, "overview": "In the future, an outbreak of canine flu leads the mayor of a Japanese city to banish all dogs to an island that's a garbage dump. The outcasts must soon embark on an epic journey when a 12-year-old boy arrives on the island to find his beloved pet.", "poster_path": "/c0nUX6Q1ZB0P2t1Jo6EeFSVnOGQ.jpg", "popularity": 16.915}, {"adult": false, "backdrop_path": "/eC8TeqWgfyXi5gSkWwoRMh4Zd18.jpg", "genre_ids": [16, 10751], "id": 11544, "original_language": "en", "original_title": "Lilo & Stitch", "overview": "As Stitch, a runaway genetic experiment from a faraway planet, wreaks havoc on the Hawaiian Islands, he becomes the mischievous adopted alien \"puppy\" of an independent little girl named Lilo and learns about loyalty, friendship, and 'ohana, the Hawaiian tradition of family.", "poster_path": "/tVaEulzowKhMhDvHNNYb9rNEZPB.jpg", "release_date": "2002-06-21", "title": "Lilo & Stitch", "video": false, "vote_average": 7.4, "vote_count": 3479, "popularity": 21.231}, {"adult": false, "backdrop_path": "/98Gi6TauCtoQAJOIoEsnBBVTLQC.jpg", "genre_ids": [16, 10751, 10749], "id": 10340, "original_language": "en", "original_title": "Lady and the Tramp", "overview": "Lady, a golden cocker spaniel, meets up with a mongrel dog who calls himself the Tramp. He is obviously from the wrong side of town, but happenings at Lady's home make her decide to travel with him for a while.", "poster_path": "/y9nf5YIKbwycDFU4fqdKkOV1Am8.jpg", "release_date": "1955-06-16", "title": "Lady and the Tramp", "video": false, "vote_average": 7.1, "vote_count": 3159, "popularity": 26.0}, {"id": 14813, "video": false, "vote_count": 456, "vote_average": 7.6, "title": "Mickey's Christmas Carol", "release_date": "1983-10-19", "original_language": "en", "original_title": "Mickey's Christmas Carol", "genre_ids": [16, 10751], "backdrop_path": "/fDK3xeAcQfQ40ZUULgZshElkspa.jpg", "adult": false, "overview": "It is an adaptation of the Charles Dickens classic A Christmas Carol, featuring Scrooge McDuck as his namesake and inspiration Ebenezer Scrooge and Mickey Mouse as Bob Cratchit. This film was based on a 1972 audio musical entitled Disney's A Christmas Carol. It is a twenty-four minute animated short film produced by Walt Disney Productions as an accompaniment to a re-release of The Rescuers.", "poster_path": "/29iF1IiC3ZyJQ1kmTf4LD8p8oro.jpg", "popularity": 18.001}, {"adult": false, "backdrop_path": "/4brEMzPazQE3hv3mogj6k1a29RP.jpg", "genre_ids": [10749, 14, 16], "id": 3933, "original_language": "en", "original_title": "Corpse Bride", "overview": "Set in a 19th-century european village, this stop-motion animation feature follows the story of Victor, a young man whisked away to the underworld and wed to a mysterious corpse bride, while his real bride Victoria waits bereft in the land of the living.", "poster_path": "/o9GbcdP7rOg2m1NyUnUR3ZwNcTE.jpg", "release_date": "2005-09-12", "title": "Corpse Bride", "video": false, "vote_average": 7.4, "vote_count": 4926, "popularity": 16.93}, {"adult": false, "backdrop_path": "/tr6OExnBfjLADi9OyZoW308mPAp.jpg", "genre_ids": [18, 35, 10749], "id": 74643, "original_language": "en", "original_title": "The Artist", "overview": "Hollywood, 1927: As silent movie star George Valentin wonders if the arrival of talking pictures will cause him to fade into oblivion, he sparks with Peppy Miller, a young dancer set for a big break.", "poster_path": "/i0mpvMIIjyubXsVKug9vX0lYpnd.jpg", "release_date": "2011-06-26", "title": "The Artist", "video": false, "vote_average": 7.4, "vote_count": 1977, "popularity": 12.71}, {"id": 326359, "video": false, "vote_count": 1179, "vote_average": 6.8, "title": "Frozen Fever", "release_date": "2015-03-09", "original_language": "en", "original_title": "Frozen Fever", "genre_ids": [12, 16, 10751], "backdrop_path": "/ubioPGniCfDiASmYYpeJs5RRNaC.jpg", "adult": false, "overview": "On Anna's birthday, Elsa and Kristoff are determined to give her the best celebration ever, but Elsa's icy powers may put more than just the party at risk.", "poster_path": "/lKJiVPzsAO9IJ4LKWXZ8vkR2bg4.jpg", "popularity": 17.061}, {"id": 150540, "video": false, "vote_count": 13953, "vote_average": 7.9, "title": "Inside Out", "release_date": "2015-06-09", "original_language": "en", "original_title": "Inside Out", "genre_ids": [16, 35, 18, 10751], "backdrop_path": "/szytSpLAyBh3ULei3x663mAv5ZT.jpg", "adult": false, "overview": "Growing up can be a bumpy road, and it's no exception for Riley, who is uprooted from her Midwest life when her father starts a new job in San Francisco. Riley's guiding emotions\u2014 Joy, Fear, Anger, Disgust and Sadness\u2014live in Headquarters, the control centre inside Riley's mind, where they help advise her through everyday life and tries to keep things positive, but the emotions conflict on how best to navigate a new city, house and school.", "poster_path": "/aAmfIX3TT40zUHGcCKrlOZRKC7u.jpg", "popularity": 47.351}, {"adult": false, "backdrop_path": "/5OeY4U2rzePxWq2rkqMajUx2gz7.jpg", "genre_ids": [16, 10751, 12, 14, 10749], "id": 812, "original_language": "en", "original_title": "Aladdin", "overview": "Princess Jasmine grows tired of being forced to remain in the palace, so she sneaks out into the marketplace, in disguise, where she meets street-urchin Aladdin.  The couple falls in love, although Jasmine may only marry a prince.  After being thrown in jail, Aladdin becomes embroiled in a plot to find a mysterious lamp, with which the evil Jafar hopes to rule the land.", "poster_path": "/mjKozYRuHc9j7SmiXmbVmCiAM0A.jpg", "release_date": "1992-11-25", "title": "Aladdin", "video": false, "vote_average": 7.6, "vote_count": 7288, "popularity": 46.629}, {"id": 12230, "video": false, "vote_count": 3835, "vote_average": 7.1, "title": "One Hundred and One Dalmatians", "release_date": "1961-01-25", "original_language": "en", "original_title": "One Hundred and One Dalmatians", "genre_ids": [12, 16, 35, 10751], "backdrop_path": "/vHBYOUjt04iI0COvMtPAMa2pC9y.jpg", "adult": false, "overview": "When a litter of dalmatian puppies are abducted by the minions of Cruella De Vil, the parents must find them before she uses them for a diabolical fashion statement.", "poster_path": "/9klDisS1sVb5LljRhpYJ0TUbPzt.jpg", "popularity": 24.486}, {"id": 9479, "video": false, "vote_count": 5315, "vote_average": 7.8, "title": "The Nightmare Before Christmas", "release_date": "1993-10-09", "original_language": "en", "original_title": "The Nightmare Before Christmas", "genre_ids": [16, 14, 10751], "backdrop_path": "/16lk65YfrDFIr6evkWRjSeOOSws.jpg", "adult": false, "overview": "Tired of scaring humans every October 31 with the same old bag of tricks, Jack Skellington, the spindly king of Halloween Town, kidnaps Santa Claus and plans to deliver shrunken heads and other ghoulish gifts to children on Christmas morning. But as Christmas approaches, Jack's rag-doll girlfriend, Sally, tries to foil his misguided plans.", "poster_path": "/6oxkO1VgKCq74fNILKAg6t2dVEt.jpg", "popularity": 20.34}, {"adult": false, "backdrop_path": "/hPByrqJXCXIViFheXQh48wtI7T6.jpg", "genre_ids": [16, 12, 14, 10751], "id": 31135, "original_language": "en", "original_title": "Mickey Mouse: Mickey and the Beanstalk", "overview": "Based on the timeless adventures of \"Jack and the Beanstalk,\" Mickey, Donald and Goofy climb a fantastic beanstalk up into the sky to a place where everything is huge -- the food, the castle and the fearsome giant named Willy who guards a beautiful golden harp! Will Mickey and his friends outwit the giant and make it safely back home?", "poster_path": "/kk1Xg1f1lv6loekjlKinpKJlGOu.jpg", "release_date": "1947-09-27", "title": "Mickey Mouse: Mickey and the Beanstalk", "video": false, "vote_average": 6.7, "vote_count": 166, "popularity": 12.653}, {"adult": false, "backdrop_path": "/twGxeStlGooWV3gP6ZIcSNuQ6jf.jpg", "genre_ids": [12, 16, 10751, 14], "id": 81684, "original_language": "en", "original_title": "The Gruffalo's Child", "overview": "A follow up to the 2009 animated feature and adapted from the childrens' book by Julia Donaldson and Alex Scheffler.  The Gruffalo's child explores the deep dark wood in search of the big bad mouse and meets the Snake, Owl and Fox in the process.  She eventually finds the mouse, who manages to outwit her like the Gruffalo before!", "poster_path": "/qaGH2AoaLvoGXURQtNzj1nw6oZd.jpg", "release_date": "2011-12-25", "title": "The Gruffalo's Child", "video": false, "vote_average": 6.9, "vote_count": 73, "popularity": 13.766}, {"id": 21385, "video": false, "vote_count": 455, "vote_average": 6.4, "title": "Mickey, Donald, Goofy: The Three Musketeers", "release_date": "2004-08-04", "original_language": "en", "original_title": "Mickey, Donald, Goofy: The Three Musketeers", "genre_ids": [12, 16, 35, 10751], "backdrop_path": "/8WodHELOg5guFPMIQf0M88IQhNE.jpg", "adult": false, "overview": "In Disney's take on the Alexander Dumas tale, Mickey Mouse, Donald Duck and Goofy want nothing more than to perform brave deeds on behalf of their queen (Minnie Mouse), but they're stymied by the head Musketeer, Pete. Pete secretly wants to get rid of the queen, so he appoints Mickey and his bumbling friends as guardians to Minnie, thinking such a maneuver will ensure his scheme's success. The score features songs based on familiar classical melodies.", "poster_path": "/uDvv54as7hLH7aWHwPyIVvoNb9K.jpg", "popularity": 27.868}, {"id": 621733, "video": false, "vote_count": 0, "vote_average": 0.0, "title": "A Trip to the Seaside", "release_date": "2019-08-30", "original_language": "en", "original_title": "A Trip to the Seaside", "genre_ids": [99], "backdrop_path": null, "adult": false, "overview": "Experimental short film on the excitement and rush of a day trip", "poster_path": "/AuZVhpoJ4jm2LWDhoJKfxQfhDAi.jpg", "popularity": 1.324}, {"id": 14447, "video": false, "vote_count": 246, "vote_average": 7.2, "title": "A Matter of Loaf and Death", "release_date": "2008-12-03", "original_language": "en", "original_title": "A Matter of Loaf and Death", "genre_ids": [16, 35, 80, 9648, 10751], "backdrop_path": "/dZCFDIsUrgqIjFucPHNnKFMgcPn.jpg", "adult": false, "overview": "Wallace and Gromit have a brand new business - a bakery. Although business is booming, Gromit is concerned by the news that 12 local bakers have 'disappeared' this year - but Wallace isn't worried. He's too distracted and in love with local beauty and bread enthusiast, Piella Bakewell, to be of much help. Gromit must be the sleuth and solve the escalating murder mystery.", "poster_path": "/e4L9XUCmNhiwbLICMiISh73PySF.jpg", "popularity": 13.296}, {"adult": false, "backdrop_path": "/3YGfpjW0OPcrDSarphlEr64WftB.jpg", "genre_ids": [16], "id": 66834, "original_language": "en", "original_title": "Clock Cleaners", "overview": "Mickey, Donald, and Goofy are cleaning a large clock. Among the complications: Mickey fights a sleeping stork that doesn't want to leave, Donald gets tangled up in the main-spring, and Goofy is inside the bell when the clock strikes four.", "poster_path": "/jKM9p9qkibFMraRodEUzEVMemmY.jpg", "release_date": "1937-10-15", "title": "Clock Cleaners", "video": false, "vote_average": 7.0, "vote_count": 41, "popularity": 5.975}], "total_pages": 941, "total_results": 18801}, "recommendations": {"page": 1, "results": [{"id": 157305, "video": false, "vote_count": 36, "vote_average": 6.9, "title": "Head Over Heels", "release_date": "2012-05-24", "original_language": "en", "original_title": "Head Over Heels", "genre_ids": [16, 35, 10749, 10751], "backdrop_path": "/dWav8hZv9cELh0QQv753sZsi7x1.jpg", "adult": false, "overview": "After many years of marriage, Walter and Madge have grown apart: He lives on the floor and she lives on the ceiling. When Walter tries to reignite their old romance, their equilibrium comes crashing down, and the couple that can\u2019t agree which way is up must find a way put their marriage back together.", "poster_path": "/jdpfNwhqgfissPi9AQpGTmHWRgW.jpg", "popularity": 3.272}, {"adult": false, "backdrop_path": "/jOwj5UULxFyXrSEYjnhheUbNH2T.jpg", "genre_ids": [16], "id": 142563, "original_language": "en", "original_title": "Fresh Guacamole", "overview": "In this follow-up to his stop-motion hit Western Spaghetti, director PES transforms familiar objects into Fresh Guacamole.", "poster_path": "/zSxS8LQtZ6t4G6mH7uRyfRwQPmm.jpg", "release_date": "2012-03-02", "title": "Fresh Guacamole", "video": false, "vote_average": 7.5, "vote_count": 77, "popularity": 4.89}, {"adult": false, "backdrop_path": "/qOUpXZZmvhrxwmxOWJZsotkIhFc.jpg", "genre_ids": [16], "id": 289024, "original_language": "no", "original_title": "Moulton og meg", "overview": "A seven-year-old girl longs for a bicycle so that she can be more like the other kids in her Norwegian town, but her embarrassingly unconventional, modernist architect parents see things differently. Academy Award-winning animator Torill Kove weaves memory and fantasy together in this droll and charming look at the pain of childhood alienation.", "poster_path": "/4hsPsAQY3A952cPtbqQTXlm3nvH.jpg", "release_date": "2014-09-11", "title": "Me and My Moulton", "video": false, "vote_average": 5.7, "vote_count": 16, "popularity": 1.948}, {"adult": false, "backdrop_path": "/mZT3fJm3HuRqO1uE8YwLpL49DZR.jpg", "genre_ids": [16], "id": 142540, "original_language": "en", "original_title": "The Eagleman Stag", "overview": "If you repeat the word 'fly' for long enough it sounds like you are saying 'life'. This is of no help to Peter. His answers lie in the brain of the beetle.", "poster_path": "/an2Y50kpo2tLC0wXBCzQRujvx0t.jpg", "release_date": "2011-06-19", "title": "The Eagleman Stag", "video": false, "vote_average": 6.0, "vote_count": 9, "popularity": 2.011}, {"adult": false, "backdrop_path": null, "genre_ids": [16], "id": 220867, "original_language": "en", "original_title": "Badgered", "overview": "Two crows disturb a badger's hibernation. The badger climbs out of its hole once to try to silence the crows. When that doesn't work, fate intervenes and the hill on which are the crow's tree and the badger's lair becomes an underground missile silo. The badger investigates, and events move beyond its control. Is sleep in the offing?", "poster_path": "/ohO0Jng1yvIxhRDTcQBMzf8qKAT.jpg", "release_date": "2005-02-23", "title": "Badgered", "video": false, "vote_average": 6.1, "vote_count": 8, "popularity": 1.565}, {"adult": false, "backdrop_path": "/d91EOO7W98syUmXKtetU9jXAPsJ.jpg", "genre_ids": [16], "id": 91512, "original_language": "fr", "original_title": "Dimanche", "overview": "An imaginative boy suffers the stifling ordinariness of his family's weekly Sunday ritual.", "poster_path": "/vEsherBClUVUGjegj38Ddj4XWpK.jpg", "release_date": "2011-02-10", "title": "Sunday", "video": false, "vote_average": 5.6, "vote_count": 14, "popularity": 1.824}, {"id": 74310, "video": false, "vote_count": 25, "vote_average": 6.6, "title": "Hell and Back Again", "release_date": "2011-10-04", "original_language": "en", "original_title": "Hell and Back Again", "genre_ids": [99], "backdrop_path": "/3270U9Ka9rmEFOGtRPXvi3QzXcD.jpg", "adult": false, "overview": "What does it mean to lead men in war? What does it mean to come home? Hell and Back Again is a cinematically revolutionary film that asks and answers these questions with a power and intimacy no previous film about the conflict in Afghanistan has been able to achieve. It is a masterpiece in the cinema of war.", "poster_path": "/9vQwdQWG1MGZyLuXOsndVy0AaCH.jpg", "popularity": 5.307}, {"adult": false, "backdrop_path": "/gIDHrs06e8HYAEuP4pCFpoHFDAe.jpg", "genre_ids": [12], "id": 351981, "original_language": "es", "original_title": "Historia de un oso", "overview": "An old bear goes out every day to a busy street corner. Through a tin marionette theater of his own making, the bear will tell us his life story.", "poster_path": "/rPABFSVE5b0japAl2lF2YuKWYbh.jpg", "release_date": "2014-05-08", "title": "Bear Story", "video": false, "vote_average": 7.6, "vote_count": 59, "popularity": 4.252}, {"adult": false, "backdrop_path": "/76CrXErFHVCD6YYOIk2prU3FMhx.jpg", "genre_ids": [35], "id": 32482, "original_language": "en", "original_title": "Denis Leary: Lock 'N Load", "overview": "Actor/comic Denis Leary discusses family life, coffee, religion, and other topics in this stand-up special.", "poster_path": "/bZOBfjzQsGaEnphHA4h5Uc1lDIz.jpg", "release_date": "1997-01-01", "title": "Denis Leary: Lock 'N Load", "video": false, "vote_average": 7.0, "vote_count": 8, "popularity": 4.87}, {"adult": false, "backdrop_path": "/bSGOGHQVRrRgJ6GxoJTAahyW87b.jpg", "genre_ids": [16], "id": 37845, "original_language": "en", "original_title": "French Roast", "overview": "In a fancy Parisian Caf\u00e9, an uptight businessman discovers he forgot to bring his wallet and bides his time by ordering more coffee.", "poster_path": "/bAdWh2lHJIHRGsDYKXoxTmjYdfK.jpg", "release_date": "2008-09-30", "title": "French Roast", "video": false, "vote_average": 6.7, "vote_count": 32, "popularity": 3.173}, {"adult": false, "backdrop_path": "/5eGFRSA4RpM5JA1OyFiDWXIJ60f.jpg", "genre_ids": [16, 35, 14], "id": 57091, "original_language": "en", "original_title": "Granny O'Grimm's Sleeping Beauty", "overview": "Granny O'Grimm, a seemingly sweet old lady, loses the plot as she tells her version of Sleeping Beauty to her terrified granddaughter.", "poster_path": "/tfvb0K2ESGqyCJYdHx5C7VkSrZ9.jpg", "release_date": "2008-01-01", "title": "Granny O'Grimm's Sleeping Beauty", "video": false, "vote_average": 6.0, "vote_count": 21, "popularity": 3.459}, {"adult": false, "backdrop_path": "/2p9Hu1oToWh52P811adFVsuvTQA.jpg", "genre_ids": [16, 35], "id": 62967, "original_language": "en", "original_title": "The Lady and the Reaper", "overview": "A sweet old lady is living alone in her farm, waiting for the arrival of death to meet her beloved husband again. One night, while sleeping, her life fades out and she is invited to cross death's door. Bue when she is about to do so, the old lady wakes up inside a hospital's ward: and arrogant doctor has taken her back to life and he will fight hard against death to recover the old lady's life at any cost.", "poster_path": "/x74DO8oGv2cKIbRRysouCVl6HO9.jpg", "release_date": "2009-10-01", "title": "The Lady and the Reaper", "video": false, "vote_average": 7.2, "vote_count": 40, "popularity": 3.855}, {"adult": false, "backdrop_path": "/jAwbV2BplxbjHub89KTY7FmTsMe.jpg", "genre_ids": [16, 18], "id": 329063, "original_language": "ru", "original_title": "\u041c\u044b \u043d\u0435 \u043c\u043e\u0436\u0435\u043c \u0436\u0438\u0442\u044c \u0431\u0435\u0437 \u043a\u043e\u0441\u043c\u043e\u0441\u0430", "overview": "Two cosmonauts, two friends, try to do their best in their everyday training life to make their common dream a reality. But this story is not only about the dream.", "poster_path": "/aCjwEDNxYyGnxI8mya7Nstw7bZM.jpg", "release_date": "2014-08-21", "title": "We Can't Live Without Cosmos", "video": false, "vote_average": 6.7, "vote_count": 32, "popularity": 2.867}, {"adult": false, "backdrop_path": "/qkvXdknwAXWVOLKGzx15Bqnyfpo.jpg", "genre_ids": [99], "id": 49107, "original_language": "pl", "original_title": "Refren", "overview": "One of the first documentary films of Krzysztof Kieslowski. It is a story about everyday life funeral in the 70s", "poster_path": "/kGb9rkVfSiCsR59hjd9UPGzs4wx.jpg", "release_date": "1972-01-01", "title": "Refrain", "video": false, "vote_average": 6.1, "vote_count": 8, "popularity": 1.96}, {"adult": false, "backdrop_path": "/i8JSCHOEg03TY6IfekNVsXgfGF.jpg", "genre_ids": [99], "id": 18152, "original_language": "en", "original_title": "Occupation 101", "overview": "A thought-provoking documentary on the current and historical causes of the Israeli-Palestinian conflict and U.S. political involvement.", "poster_path": "/qGtamNzyC5f5pGMvJWnTmPaU5ez.jpg", "release_date": "2006-03-25", "title": "Occupation 101", "video": false, "vote_average": 7.7, "vote_count": 16, "popularity": 4.198}, {"adult": false, "backdrop_path": "/kRzqBTZ05evxmQHJckoezcIePQw.jpg", "genre_ids": [16, 37], "id": 91515, "original_language": "en", "original_title": "Wild Life", "overview": "An English dreamer experiences both the beauty and harshness of nature when he relocates to the Canadian prairie.", "poster_path": "/vaJtzF7TjPuKQBxIQGVrgZJZMcF.jpg", "release_date": "2011-02-10", "title": "Wild Life", "video": false, "vote_average": 5.7, "vote_count": 12, "popularity": 2.578}, {"adult": false, "backdrop_path": null, "genre_ids": [99], "id": 106796, "original_language": "en", "original_title": "ChickenHawk", "overview": "Members of the controversial group NAMBLA (North American Man/Boy Love Association) discuss why their organization supports \"boys and men who have or desire engagements in sexual or emotional relationships.\"", "poster_path": "/gt66SrctJVJibLe2vhRgsfammXx.jpg", "release_date": "1994-01-01", "title": "ChickenHawk", "video": false, "vote_average": 6.6, "vote_count": 5, "popularity": 1.285}, {"id": 142918, "video": false, "vote_count": 8, "vote_average": 6.9, "title": "Woman of Tokyo", "release_date": "1933-02-09", "original_language": "ja", "original_title": "\u6771\u4eac\u306e\u5973", "genre_ids": [18], "backdrop_path": "/a2eQj2Yrj8au0xpZrdO9UsODf3z.jpg", "adult": false, "overview": "Ryoichi and Chikako, brother and sister, live together. Chikako toils during the day and, at night, prostitutes herself to fund his college tuition.", "poster_path": "/gp4ZyjIeLHdBsm5jXXsPVoLpt1V.jpg", "popularity": 1.222}, {"adult": false, "backdrop_path": "/jxWCGkwZAUV6o5Yf5ASvk4nNyaI.jpg", "genre_ids": [16, 28, 878], "id": 109722, "original_language": "fr", "original_title": "Robots of Brixton", "overview": "Brixton has degenerated into a disregarded area inhabited by London's new robot workforce - robots built and designed to carry out all of the tasks which humans are no longer inclined to do. The mechanical population of Brixton has rocketed, resulting in unplanned, cheap and quick additions to the skyline. The film follows the trials and tribulations of young robots surviving at the sharp end of inner city life, living the predictable existence of a populous hemmed in by poverty, disillusionment and mass unemployment. When the Police invade the one space which the robots can call their own, the fierce and strained relationship between the two sides explodes into an outbreak of violence echoing that of 1981.", "poster_path": "/mG4VIx6VVteUI7zMDrOgCr6kNRm.jpg", "release_date": "2011-06-25", "title": "Robots of Brixton", "video": false, "vote_average": 4.2, "vote_count": 8, "popularity": 1.42}, {"adult": false, "backdrop_path": "/yOryM3ttiaHFOCk03rIfZS6ztsZ.jpg", "genre_ids": [], "id": 159523, "original_language": "en", "original_title": "Let's Pollute", "overview": "In the spirit of 50's &amp; 60's educational films, 'Let's Pollute' is a modern satire on how pollution is our heritage and keeps our economy growing strong, while instructing us how to be better polluters for a better blighted tomorrow.", "poster_path": "/cf7klWrGKl2GyYIZ3IEERhvb7cE.jpg", "release_date": "2009-11-05", "title": "Let's Pollute", "video": false, "vote_average": 6.4, "vote_count": 9, "popularity": 1.511}], "total_pages": 2, "total_results": 40}, "credits": {"cast": [], "crew": [{"credit_id": "59044f7cc3a3684a76008c86", "department": "Production", "gender": 0, "id": 139474, "job": "Consulting Producer", "name": "Glen Keane", "profile_path": "/wFxCDcFi1PRl894WlTneXEKsvzl.jpg"}, {"credit_id": "5904503792514169c8009904", "department": "Crew", "gender": 2, "id": 961277, "job": "Score Engineer", "name": "Joey Newman", "profile_path": null}, {"credit_id": "52fe4bbe9251416c910e4533", "department": "Directing", "gender": 0, "id": 1138629, "job": "Director", "name": "Lee Min-kyu", "profile_path": null}, {"credit_id": "59044e6dc3a3684a4e009634", "department": "Visual Effects", "gender": 0, "id": 1138629, "job": "Animation", "name": "Lee Min-kyu", "profile_path": null}, {"credit_id": "55258026c3a3687dfe001f9a", "department": "Visual Effects", "gender": 0, "id": 1450331, "job": "Animation", "name": "James Baxter", "profile_path": "/dRTLlsnpqDTqfqMJ0OHDUnPaJEY.jpg"}, {"credit_id": "59044ea7c3a3684af0008a20", "department": "Visual Effects", "gender": 0, "id": 1461156, "job": "Animation", "name": "Matt Williames", "profile_path": null}, {"credit_id": "59044ecdc3a3684ad7009422", "department": "Visual Effects", "gender": 0, "id": 1461392, "job": "Animation", "name": "Mario Furmanczyk", "profile_path": null}, {"credit_id": "554aeb8292514146a5000d6c", "department": "Visual Effects", "gender": 0, "id": 1464456, "job": "Color Designer", "name": "John Dusenberry", "profile_path": null}, {"credit_id": "59044e5ac3a3684b0700889e", "department": "Visual Effects", "gender": 0, "id": 1717778, "job": "Animation", "name": "Jennifer Hager", "profile_path": null}, {"credit_id": "59044e93c3a3684af0008a0d", "department": "Visual Effects", "gender": 0, "id": 1806625, "job": "Animation", "name": "Austin Madison", "profile_path": null}, {"credit_id": "59044f3cc3a3684ab400985c", "department": "Production", "gender": 0, "id": 1806628, "job": "Associate Producer", "name": "Heidi Jo Gilbert", "profile_path": null}, {"credit_id": "59044f9fc3a3684ab40098b2", "department": "Production", "gender": 0, "id": 1806630, "job": "Consulting Producer", "name": "Thomas Ethan Harris", "profile_path": null}, {"credit_id": "59044ff1c3a3684ab40098f4", "department": "Crew", "gender": 0, "id": 1806633, "job": "Technical Supervisor", "name": "Ethan Metzger", "profile_path": null}, {"credit_id": "5904501f92514169d8009669", "department": "Sound", "gender": 0, "id": 1806634, "job": "Sound Designer", "name": "John Max Repka", "profile_path": null}]}}