{"adult": false, "backdrop_path": "/4KEaZ2KRMo4aCmt1JiEkmiIphj8.jpg", "belongs_to_collection": null, "budget": 0, "genres": [{"id": 18, "name": "Drama"}, {"id": 35, "name": "Comedy"}], "homepage": null, "id": 15956, "imdb_id": "tt0890879", "original_language": "da", "original_title": "Hjemve", "overview": "The tale of a troubled small town, and the brave few who made it their mission to keep the community together. As the citizens of a secluded Danish town gradually lose their trust in one and other, the sight of a naked man walking through town in the early hours of the morning sets off an unsettling wave of paranoia.", "popularity": 1.625, "poster_path": "/pLVLEV5ftViqhjL0vjedtJQeKOh.jpg", "production_companies": [{"id": 76, "logo_path": null, "name": "Zentropa Entertainments", "origin_country": "DK"}], "production_countries": [{"iso_3166_1": "DK", "name": "Denmark"}], "release_date": "2007-03-30", "revenue": 0, "runtime": 97, "spoken_languages": [{"iso_639_1": "da", "name": "Dansk"}], "status": "Released", "tagline": "", "title": "Just Like Home", "video": false, "vote_average": 5.0, "vote_count": 1, "keywords": {"keywords": [{"id": 187056, "name": "woman director"}]}, "similar": {"page": 1, "results": [{"adult": false, "backdrop_path": "/cADbqsIoiDW7X3Myg9nz8eAuno5.jpg", "genre_ids": [18, 10749], "id": 10818, "original_language": "fr", "original_title": "Naissance des pieuvres", "overview": "Set during a sultry summer in a French suburb, Marie is desperate to join the local pool's synchronized swimming team, but is her interest solely for the sake of sport or for a chance to get close to Floriane, the bad girl of the team? Sciamma, and the two leads, capture the uncertainty of teenage sexuality with a sympathetic eye in this delicate drama of the angst of coming-of-age.", "poster_path": "/4jajELYrR4Xmv3CVoKnukRnALa2.jpg", "release_date": "2007-05-17", "title": "Water Lilies", "video": false, "vote_average": 6.1, "vote_count": 119, "popularity": 9.614}, {"adult": false, "backdrop_path": "/gZeJziVigmRqbkEZwKAtSqlLQ6s.jpg", "genre_ids": [18, 10749], "id": 370663, "original_language": "en", "original_title": "Below Her Mouth", "overview": "An unexpected affair quickly escalates into a heart-stopping reality for two women whose passionate connection changes their lives forever.", "poster_path": "/nTGbq37hYLuNy7YgMg0gVLma0NS.jpg", "release_date": "2016-09-10", "title": "Below Her Mouth", "video": false, "vote_average": 6.2, "vote_count": 456, "popularity": 22.676}, {"adult": false, "backdrop_path": "/dvQDRfv3qvfHNnVAR57ouVsuErf.jpg", "genre_ids": [10749, 18], "id": 28031, "original_language": "en", "original_title": "If These Walls Could Talk 2", "overview": "The stories of three lesbian couples -- who live in the same house at different periods of time -- who are at a crossroads in their lives. In 1961, Edith loses her lover, Abby, to a stroke. Linda and Amy struggle with feminist issues in 1972. And, in 2000, Kal and Fran try to have a baby with the help of sperm donor.", "poster_path": "/xs7ODbmYQXCDhvXNvz5tF17T59H.jpg", "release_date": "2000-03-05", "title": "If These Walls Could Talk 2", "video": false, "vote_average": 7.1, "vote_count": 55, "popularity": 8.86}, {"adult": false, "backdrop_path": "/knczzNAjBXzSYkeWxoT1u9VNmjR.jpg", "genre_ids": [10749, 18], "id": 258480, "original_language": "en", "original_title": "Carol", "overview": "In 1950s New York, a department-store clerk who dreams of a better life falls for an older, married woman.", "poster_path": "/AbKa7ANxmui0Jmhh7gV7OSELKIL.jpg", "release_date": "2015-11-20", "title": "Carol", "video": false, "vote_average": 7.4, "vote_count": 2184, "popularity": 13.539}, {"adult": false, "backdrop_path": "/fZ8oFcREAr6wgWcXISGql0xyxjB.jpg", "genre_ids": [35, 18], "id": 39781, "original_language": "en", "original_title": "The Kids Are All Right", "overview": "Two women, Nic and Jules, brought a son and daughter into the world through artificial insemination. When one of their children reaches age, both kids go behind their mothers' backs to meet with the donor. Life becomes so much more interesting when the father, two mothers and children start to become attached to each other.", "poster_path": "/fPDeK4MmoGfi2X0oWZev7LrbMqM.jpg", "release_date": "2010-07-09", "title": "The Kids Are All Right", "video": false, "vote_average": 6.6, "vote_count": 923, "popularity": 12.159}, {"adult": false, "backdrop_path": "/rf6G51j0SZL0tP57I8gnqHTRFEr.jpg", "genre_ids": [35, 18, 10749], "id": 273153, "original_language": "fr", "original_title": "La belle saison", "overview": "In 1971, Carole and Delphine meet and fall in love in Paris. When Carole follows Delphine back to her family farm in Limousin, the two find lesbianism and feminism are not as easy in the countryside.", "poster_path": "/evvAkNMO5VJiy5qIo1Hu7fUfvVI.jpg", "release_date": "2015-08-19", "title": "Summertime", "video": false, "vote_average": 6.6, "vote_count": 162, "popularity": 11.575}, {"adult": false, "backdrop_path": "/s12HEmmkJfI2mjltI61hGm5kubD.jpg", "genre_ids": [35, 18, 10749], "id": 20770, "original_language": "en", "original_title": "But I'm a Cheerleader", "overview": "Megan is an all-American girl. A cheerleader. She has a boyfriend. But Megan doesn't like kissing her boyfriend very much. And she's pretty touchy with her cheerleader friends. Her conservative parents worry that she must be a lesbian and send her off to \"sexual redirection\" school, where she must, with other lesbians and gays learn how to be straight.", "poster_path": "/eDGH7CHSdkrYcuUJV1e0WS9DlQL.jpg", "release_date": "1999-12-09", "title": "But I'm a Cheerleader", "video": false, "vote_average": 6.8, "vote_count": 246, "popularity": 9.011}, {"id": 9813, "video": false, "vote_count": 128, "vote_average": 6.1, "title": "The Quiet", "release_date": "2005-09-12", "original_language": "en", "original_title": "The Quiet", "genre_ids": [18, 53], "backdrop_path": "/6eyWAZA4CEidZW1xXnQ4vlYBXTP.jpg", "adult": false, "overview": "After her widowed father dies, deaf teenager Dot moves in with her godparents, Olivia and Paul Deer. The Deers' daughter, Nina, is openly hostile to Dot, but that does not prevent her from telling her secrets to her silent stepsister, including the fact that she wants to kill her lecherous father.", "poster_path": "/GEqIE9YlmygHVUfS64LW2cwAAM.jpg", "popularity": 14.844}, {"adult": false, "backdrop_path": "/g3LYarEY9LjB28Ct2trwFN72gqZ.jpg", "genre_ids": [35], "id": 437557, "original_language": "en", "original_title": "Blockers", "overview": "When three parents discover their daughters\u2019 pact to lose their virginity at prom, they launch a covert one-night operation to stop the teens from sealing the deal.", "poster_path": "/uvlUQXg0AlpGzKukO11K7QtW3Yu.jpg", "release_date": "2018-03-14", "title": "Blockers", "video": false, "vote_average": 6.2, "vote_count": 1153, "popularity": 18.075}, {"adult": false, "backdrop_path": "/tzqeuHWMFihFbiLGHdalPgAcSf6.jpg", "genre_ids": [18, 10749], "id": 18620, "original_language": "en", "original_title": "Go Fish", "overview": "Max is a trendy, pretty, young lesbian, who is having trouble finding love. A friend sets her up with Ely, whom Max likes, but Ely is frumpy, homely, and older. Nor do they have much in common. Can Max learn to look past the packaging?", "poster_path": "/qrEFYrwykaGsY8NULYuYLLI7zrM.jpg", "release_date": "1994-06-10", "title": "Go Fish", "video": false, "vote_average": 5.0, "vote_count": 11, "popularity": 3.676}, {"adult": false, "backdrop_path": "/6tern9vOEwwmkDYC1vRCuO64z0C.jpg", "genre_ids": [10749, 18], "id": 475888, "original_language": "en", "original_title": "Tell It to the Bees", "overview": "Dr. Jean Markham returns to the town she left as a teenager to take over her late father's medical practice. When a school-yard scuffle lands Charlie in her surgery, she invites him to visit the hives in her garden and tell his secrets to the bees, as she once did. The new friendship between the boy and the bee keeper brings his mother Lydia into Jean's world.", "poster_path": "/Rj6zpHhMU1zFW3v28U4PSRSRgP.jpg", "release_date": "2019-05-03", "title": "Tell It to the Bees", "video": false, "vote_average": 6.4, "vote_count": 53, "popularity": 15.113}, {"adult": false, "backdrop_path": "/baYbbMtKRDoDWYJeVWkbygAvAj8.jpg", "genre_ids": [18, 10749], "id": 31216, "original_language": "en", "original_title": "I Can't Think Straight", "overview": "I CAN'T THINK STRAIGHT is a 2007 romance movie about a London-based Jordanian of Palestinian descent, Tala, who is preparing for an elaborate wedding. A turn of events causes her to have an affair and subsequently fall in love with another woman, Leyla, a British Indian.", "poster_path": "/1kapga6rkM5wNuQBYw7sdE42CrA.jpg", "release_date": "2008-06-01", "title": "I Can't Think Straight", "video": false, "vote_average": 7.6, "vote_count": 109, "popularity": 7.815}, {"adult": false, "backdrop_path": "/lI5h8KaoeObu4NMTwzeRuUHzRwD.jpg", "genre_ids": [18, 9648, 53], "id": 401898, "original_language": "no", "original_title": "Thelma", "overview": "A college student starts to experience extreme seizures. She soon learns that the violent episodes are a symptom of inexplicable abilities.", "poster_path": "/yzSfG8TLAqw7nMQh2lxirQkQpgs.jpg", "release_date": "2017-09-15", "title": "Thelma", "video": false, "vote_average": 7.1, "vote_count": 418, "popularity": 12.235}, {"adult": false, "backdrop_path": "/tIFRPjIXQ3sYrmxbIeOu9K1JkUz.jpg", "genre_ids": [18, 10749], "id": 294, "original_language": "en", "original_title": "Desert Hearts", "overview": "The story of straight-edge literature professor Vivian who travels to Reno to get away from a relationship breakup when she falls in love with an attractive and unconventional girl named Cay.", "poster_path": "/b8JSmQSpYYJhctMtxNgqh0elENg.jpg", "release_date": "1985-10-01", "title": "Desert Hearts", "video": false, "vote_average": 7.3, "vote_count": 58, "popularity": 6.976}, {"id": 520172, "video": false, "vote_count": 0, "vote_average": 0.0, "title": "Happiest Season", "release_date": "2020-11-20", "original_language": "en", "original_title": "Happiest Season", "genre_ids": [35, 10749], "backdrop_path": null, "adult": false, "overview": "A young woman's plans to propose to her girlfriend while at her family's annual holiday party are upended when she discovers her partner hasn't yet come out to her conservative parents.", "poster_path": null, "popularity": 6.436}, {"id": 2255, "video": false, "vote_count": 772, "vote_average": 6.8, "title": "Chasing Amy", "release_date": "1997-04-04", "original_language": "en", "original_title": "Chasing Amy", "genre_ids": [35, 18, 10749], "backdrop_path": "/doKYVK61Vb8J1KUjlb9dNWkQNp6.jpg", "adult": false, "overview": "Holden and Banky are comic book artists. Everything is going good for them until they meet Alyssa, also a comic book artist. Holden falls for her, but his hopes are crushed when he finds out she's a lesbian.", "poster_path": "/4vFJileWrCGaBeobCmF0tXpQCUb.jpg", "popularity": 13.95}, {"adult": false, "backdrop_path": "/hD8DQM72Xacg1d3mFqS0eN8vKYw.jpg", "genre_ids": [18], "id": 8272, "original_language": "en", "original_title": "The Savages", "overview": "A sister and brother face the realities of familial responsibility as they begin to care for their ailing father.", "poster_path": "/nY54gSmTOmSXlQpWDB7DWp4u8a7.jpg", "release_date": "2007-01-19", "title": "The Savages", "video": false, "vote_average": 6.9, "vote_count": 192, "popularity": 9.466}, {"adult": false, "backdrop_path": "/zBB1mzmqnUuSrlTuf0SFFlI1EoJ.jpg", "genre_ids": [18], "id": 244772, "original_language": "en", "original_title": "The Skeleton Twins", "overview": "Estranged twins Maggie and Milo coincidentally cheat death on the same day, prompting them to reunite and confront the reasons their lives went so wrong. As the twins' reunion reinvigorates them, they realize the key to fixing their lives may just lie in repairing their relationship.", "poster_path": "/vvmv1R2jDXJeeeyYcGg0ypXc2XK.jpg", "release_date": "2014-09-12", "title": "The Skeleton Twins", "video": false, "vote_average": 6.7, "vote_count": 416, "popularity": 10.481}, {"adult": false, "backdrop_path": "/3YGy88nTV2e0wxZcKI1goiEN9oy.jpg", "genre_ids": [18, 10749], "id": 37636, "original_language": "en", "original_title": "High Art", "overview": "A young female intern at a small magazine company becomes involved with a drug-addicted lesbian photographer, both of whom seek to exploit each other for their respective careers, while slowly falling in love with each other.", "poster_path": "/qTg05RNJIvb9w4Z7XIcAZxuZmTn.jpg", "release_date": "1998-06-12", "title": "High Art", "video": false, "vote_average": 6.6, "vote_count": 61, "popularity": 7.422}, {"adult": false, "backdrop_path": "/caLMOD3ZJ3V7qjlxDXrzlJfBLgD.jpg", "genre_ids": [18, 10749], "id": 20, "original_language": "en", "original_title": "My Life Without Me", "overview": "A Pedro Almodovar production in which a fatally ill mother with only two months to live creates a list of things she wants to do before she dies with out telling her family of her illness.", "poster_path": "/vVj92VBFUBzjqzLvBiPVVlJDp78.jpg", "release_date": "2003-03-07", "title": "My Life Without Me", "video": false, "vote_average": 6.1, "vote_count": 220, "popularity": 10.382}], "total_pages": 1446, "total_results": 28909}, "recommendations": {"page": 1, "results": [], "total_pages": 1, "total_results": 0}, "credits": {"cast": [{"cast_id": 1, "character": "Mette-Inge", "credit_id": "52fe468f9251416c7507c2fb", "gender": 0, "id": 82752, "name": "Pernille Vallentin", "order": 0, "profile_path": "/tqmDPwwm0wvTofJWvUmqeUcZ3xq.jpg"}, {"cast_id": 3, "character": "Myrtle", "credit_id": "52fe468f9251416c7507c305", "gender": 1, "id": 6120, "name": "Bodil J\u00f8rgensen", "order": 1, "profile_path": "/yu2e7EE9LPpKwYEZp16mKGplv9p.jpg"}, {"cast_id": 4, "character": "Margrethe", "credit_id": "52fe468f9251416c7507c309", "gender": 1, "id": 1183, "name": "Ann Eleonora J\u00f8rgensen", "order": 2, "profile_path": "/95Ed01N6F03FOCkem9xpQkEWVrX.jpg"}, {"cast_id": 5, "character": "Erling", "credit_id": "52fe468f9251416c7507c30d", "gender": 2, "id": 1181, "name": "Peter Gantzler", "order": 3, "profile_path": "/5W1DcELnVBMm81lKpngIWxgKx31.jpg"}, {"cast_id": 7, "character": "Ulla", "credit_id": "52fe468f9251416c7507c315", "gender": 1, "id": 42094, "name": "Mia Lyhne", "order": 5, "profile_path": "/6N9LCuNSQ8s4lEShsvVw7ODBLIl.jpg"}, {"cast_id": 10, "character": "Apoteker", "credit_id": "56687d6bc3a36836a000358e", "gender": 2, "id": 1186, "name": "Lars Kaalund", "order": 6, "profile_path": "/izg39Ayq3qEOHzzKSTXrPYWmVXw.jpg"}, {"cast_id": 11, "character": "Lindy Steen", "credit_id": "56687d77c3a36836b4003320", "gender": 2, "id": 119412, "name": "Peter Hesse Overgaard", "order": 7, "profile_path": null}, {"cast_id": 12, "character": "Jesper T\u00f8jmand", "credit_id": "56687d8cc3a368369900340e", "gender": 0, "id": 1156534, "name": "Kristian Ibler", "order": 8, "profile_path": "/coW6c43XvIJY84xZE5oMlUBt1Ma.jpg"}, {"cast_id": 13, "character": "Darling", "credit_id": "56687d97925141740b003595", "gender": 0, "id": 32728, "name": "Ida Dwinger", "order": 9, "profile_path": null}, {"cast_id": 14, "character": "Bo", "credit_id": "56687da19251417404003669", "gender": 2, "id": 107557, "name": "Henrik Lykkegaard", "order": 10, "profile_path": "/kvnq23dSFhwkq06Gxt8SSrAyBcu.jpg"}, {"cast_id": 15, "character": "Mission\u00e6r", "credit_id": "56687dae92514174110034d7", "gender": 1, "id": 55887, "name": "Stina Ekblad", "order": 11, "profile_path": "/irniBFUXWgguJUdNemmNgmJarrr.jpg"}, {"cast_id": 16, "character": "Mission\u00e6r", "credit_id": "56687db9c3a3683699003415", "gender": 2, "id": 19357, "name": "Steen Stig Lommer", "order": 12, "profile_path": "/mvS3GKuMh3DmcX6wQ1NFsWS4wRo.jpg"}, {"cast_id": 17, "character": "Defektrice", "credit_id": "56687dc7c3a36836ac003acd", "gender": 0, "id": 107556, "name": "Marie Askehave", "order": 13, "profile_path": "/1tZOLW4poN7EASqF3VrFtlhTWK1.jpg"}, {"cast_id": 18, "character": "Defektrice", "credit_id": "56687dd4925141740100387a", "gender": 1, "id": 174732, "name": "Simone Bendix", "order": 14, "profile_path": "/gIpabKnrAaenw0k83M2MD6n8i5R.jpg"}, {"cast_id": 19, "character": "Defektrice", "credit_id": "56687ddfc3a36836a00035ae", "gender": 1, "id": 21192, "name": "Laura Drasb\u00e6k", "order": 15, "profile_path": "/siZJnSSbFlEWQvpCfzxCPDHkr0C.jpg"}, {"cast_id": 20, "character": "", "credit_id": "56687de8c3a3683697003817", "gender": 1, "id": 234403, "name": "Hanne Hedelund", "order": 16, "profile_path": "/wcFauJCRofUb2eaeMF5pX9oIunS.jpg"}, {"cast_id": 21, "character": "Defektrice", "credit_id": "56687df3925141740e003ac9", "gender": 1, "id": 1170690, "name": "Susanne Juh\u00e1sz", "order": 17, "profile_path": "/whKBsn6t9wKZygi0fBQN5JSkpTE.jpg"}, {"cast_id": 22, "character": "", "credit_id": "56687dfd92514173fc003606", "gender": 2, "id": 1501675, "name": "Sophus Kirkeby Windel\u00f8v", "order": 18, "profile_path": null}, {"cast_id": 23, "character": "", "credit_id": "56687e08c3a36836af003753", "gender": 0, "id": 564610, "name": "Jytte Kvinesdal", "order": 19, "profile_path": null}, {"cast_id": 24, "character": "", "credit_id": "56687e1ac3a36836a300379b", "gender": 0, "id": 202572, "name": "Lykke Sand Michelsen", "order": 20, "profile_path": null}, {"cast_id": 25, "character": "Tilly", "credit_id": "56687e279251417401003889", "gender": 0, "id": 41904, "name": "Tilly Scott Pedersen", "order": 21, "profile_path": "/rPnsZ1WcZVzFfvglOPEGVcycWsG.jpg"}, {"cast_id": 26, "character": "", "credit_id": "56687e3292514174110034e6", "gender": 0, "id": 1546915, "name": "Jesper Riefensthal", "order": 22, "profile_path": null}, {"cast_id": 27, "character": "Overl\u00e6ge", "credit_id": "56687e3cc3a36836ac003adc", "gender": 0, "id": 1170692, "name": "Mads Riisom", "order": 23, "profile_path": "/YFIgQwSeBOmfqMjA4X2rrZ4AId.jpg"}, {"cast_id": 28, "character": "", "credit_id": "56687e47925141740e003acf", "gender": 0, "id": 1546916, "name": "Thomas Buchreitz", "order": 24, "profile_path": null}, {"cast_id": 29, "character": "", "credit_id": "56687e52925141740400367a", "gender": 0, "id": 1335537, "name": "Morten Hebsgaard", "order": 25, "profile_path": "/VRMUa1g8SGDSe8cfZf7DB9Tozp.jpg"}, {"cast_id": 30, "character": "", "credit_id": "56687e6dc3a36836ac003ae8", "gender": 2, "id": 4464, "name": "Bjarne Henriksen", "order": 26, "profile_path": "/kG3ZlQlMDbl61gJmtpgu2P7LHfl.jpg"}, {"cast_id": 31, "character": "", "credit_id": "56687e7892514173fc003611", "gender": 0, "id": 88537, "name": "Erik Holmey", "order": 27, "profile_path": null}, {"cast_id": 32, "character": "", "credit_id": "56687e839251417404003681", "gender": 0, "id": 1546917, "name": "Edwardt Jensen", "order": 28, "profile_path": null}, {"cast_id": 33, "character": "", "credit_id": "56687e8c92514174110034f4", "gender": 0, "id": 1546918, "name": "Winni J\u00f8rgensen", "order": 29, "profile_path": null}, {"cast_id": 34, "character": "", "credit_id": "56687e9792514173fc003619", "gender": 0, "id": 1546919, "name": "Anders Gjellerup Koch", "order": 30, "profile_path": null}, {"cast_id": 35, "character": "", "credit_id": "56687ea292514173ff003678", "gender": 0, "id": 1546920, "name": "Emmanuel Kokolakies", "order": 31, "profile_path": null}, {"cast_id": 36, "character": "", "credit_id": "56687eabc3a36836b4003345", "gender": 2, "id": 41906, "name": "Nicolaj Kopernikus", "order": 32, "profile_path": "/k28zBPiTz3uoGnP9Tk2ErCb3Pb8.jpg"}, {"cast_id": 37, "character": "", "credit_id": "56687eb5c3a3683699003432", "gender": 2, "id": 142929, "name": "Cay Kristiansen", "order": 33, "profile_path": null}, {"cast_id": 38, "character": "", "credit_id": "56687ebfc3a36836ac003af3", "gender": 0, "id": 1151251, "name": "Lars Oluf Larsen", "order": 34, "profile_path": null}, {"cast_id": 39, "character": "", "credit_id": "56687ec89251417408003622", "gender": 0, "id": 1440986, "name": "Anne Magn\u00e9r", "order": 35, "profile_path": null}, {"cast_id": 40, "character": "", "credit_id": "56687ed4925141740100389d", "gender": 2, "id": 71158, "name": "Lars Mikkelsen", "order": 36, "profile_path": "/729Crt14cpRmsPEOH8BGljK7N5j.jpg"}, {"cast_id": 41, "character": "", "credit_id": "56687edec3a3683697003834", "gender": 0, "id": 1546921, "name": "Mona Pedersen", "order": 37, "profile_path": null}, {"cast_id": 42, "character": "", "credit_id": "56687ee7925141740800362f", "gender": 0, "id": 1546922, "name": "Karsten Rode", "order": 38, "profile_path": null}, {"cast_id": 43, "character": "", "credit_id": "56687ef29251417411003510", "gender": 0, "id": 1546923, "name": "Maja Raaschou Kristensen", "order": 39, "profile_path": null}, {"cast_id": 44, "character": "", "credit_id": "56687efc92514173fc003623", "gender": 0, "id": 1546924, "name": "Max Sander", "order": 40, "profile_path": null}, {"cast_id": 45, "character": "", "credit_id": "56687f069251417408003634", "gender": 0, "id": 1546925, "name": "Belinda Thomsen", "order": 41, "profile_path": null}, {"cast_id": 46, "character": "", "credit_id": "56687f10c3a36836a30037db", "gender": 0, "id": 3881, "name": "Rikke W\u00f6lck", "order": 42, "profile_path": null}, {"cast_id": 47, "character": "", "credit_id": "56687f1a9251417408003639", "gender": 0, "id": 202605, "name": "Mikael Olsen", "order": 43, "profile_path": null}, {"cast_id": 48, "character": "", "credit_id": "56687f25c3a36836a60039da", "gender": 0, "id": 1546926, "name": "Elisabeth Larsen", "order": 44, "profile_path": null}], "crew": [{"credit_id": "52fe468f9251416c7507c301", "department": "Directing", "gender": 1, "id": 1176, "job": "Director", "name": "Lone Scherfig", "profile_path": "/zJDZjeBfJxVUslaOU2lI9zfsU3F.jpg"}, {"credit_id": "55355b34c3a36852de0040db", "department": "Writing", "gender": 1, "id": 1176, "job": "Writer", "name": "Lone Scherfig", "profile_path": "/zJDZjeBfJxVUslaOU2lI9zfsU3F.jpg"}, {"credit_id": "55355b2b92514166aa000408", "department": "Writing", "gender": 2, "id": 938308, "job": "Writer", "name": "Niels Hausgaard", "profile_path": "/yKpjIdcs4y1Fx5VW2Xbd7lXYx5U.jpg"}]}}