{"adult": false, "backdrop_path": null, "belongs_to_collection": null, "budget": 0, "genres": [{"id": 35, "name": "Comedy"}], "homepage": null, "id": 159908, "imdb_id": "tt0229231", "original_language": "en", "original_title": "Band Drill", "overview": "A scene from Charles Hoyt's 'A Milk White Flag': A brass band marches out, led by bandmaster Steele Ayers. When Ayers reaches his position, he turns around and directs the musicians as they take up their own positions.", "popularity": 0.84, "poster_path": "/8c4BzvFHE9QnItfrEYqOro59J4Y.jpg", "production_companies": [{"id": 18758, "logo_path": "/fe3cMUJLhbkTM9PDxdDA8hQpAxp.png", "name": "Edison Manufacturing Company", "origin_country": "US"}], "production_countries": [{"iso_3166_1": "US", "name": "United States of America"}], "release_date": "1894-11-28", "revenue": 0, "runtime": 1, "spoken_languages": [{"iso_639_1": "xx", "name": "No Language"}], "status": "Released", "tagline": "", "title": "Band Drill", "video": false, "vote_average": 3.8, "vote_count": 9, "keywords": {"keywords": [{"id": 154802, "name": "silent film"}]}, "similar": {"page": 1, "results": [{"id": 901, "video": false, "vote_count": 1026, "vote_average": 8.4, "title": "City Lights", "release_date": "1931-02-01", "original_language": "xx", "original_title": "City Lights", "genre_ids": [35, 18, 10749], "backdrop_path": "/vT6ux2rdyg2kexuLisO5Ygz7pHg.jpg", "adult": false, "overview": "City Lights is the first silent film that Charlie Chaplin directed after he established himself with sound accompanied films. The film is about a penniless man who falls in love with a flower girl.", "poster_path": "/bXNvzjULc9jrOVhGfjcc64uKZmZ.jpg", "popularity": 14.645}, {"adult": false, "backdrop_path": "/wcT7srQ4GeeMqlszMFEtPZ7v8T7.jpg", "genre_ids": [35, 10749], "id": 28978, "original_language": "en", "original_title": "The Circus", "overview": "Charlie, a wandering tramp, becomes a circus handyman and falls in love with the circus owner's daughter. Unaware of Charlie's affection, the girl falls in love with a handsome young performer. Charlie's versatility makes him star of the show when he substitutes for an ailing tightwire walker. He is discharged from the company when he protects the girl from her father's abuse, but he returns and appeals to the handsome performer to marry the girl. After the wedding the father prevails upon them to rejoin the circus. Charlie is hired again, but he stays behind when the caravan moves on.", "poster_path": "/awTf4Y6TGvgi3VYtGNINyyJJy9Q.jpg", "release_date": "1928-01-06", "title": "The Circus", "video": false, "vote_average": 8.2, "vote_count": 330, "popularity": 12.839}, {"adult": false, "backdrop_path": "/hPByrqJXCXIViFheXQh48wtI7T6.jpg", "genre_ids": [16, 12, 14, 10751], "id": 31135, "original_language": "en", "original_title": "Mickey Mouse: Mickey and the Beanstalk", "overview": "Based on the timeless adventures of \"Jack and the Beanstalk,\" Mickey, Donald and Goofy climb a fantastic beanstalk up into the sky to a place where everything is huge -- the food, the castle and the fearsome giant named Willy who guards a beautiful golden harp! Will Mickey and his friends outwit the giant and make it safely back home?", "poster_path": "/kk1Xg1f1lv6loekjlKinpKJlGOu.jpg", "release_date": "1947-09-27", "title": "Mickey Mouse: Mickey and the Beanstalk", "video": false, "vote_average": 6.7, "vote_count": 166, "popularity": 13.649}, {"id": 21385, "video": false, "vote_count": 455, "vote_average": 6.4, "title": "Mickey, Donald, Goofy: The Three Musketeers", "release_date": "2004-08-04", "original_language": "en", "original_title": "Mickey, Donald, Goofy: The Three Musketeers", "genre_ids": [12, 16, 35, 10751], "backdrop_path": "/8WodHELOg5guFPMIQf0M88IQhNE.jpg", "adult": false, "overview": "In Disney's take on the Alexander Dumas tale, Mickey Mouse, Donald Duck and Goofy want nothing more than to perform brave deeds on behalf of their queen (Minnie Mouse), but they're stymied by the head Musketeer, Pete. Pete secretly wants to get rid of the queen, so he appoints Mickey and his bumbling friends as guardians to Minnie, thinking such a maneuver will ensure his scheme's success. The score features songs based on familiar classical melodies.", "poster_path": "/uDvv54as7hLH7aWHwPyIVvoNb9K.jpg", "popularity": 27.432}, {"id": 10258, "video": false, "vote_count": 148, "vote_average": 6.6, "title": "The Madagascar Penguins in a Christmas Caper", "release_date": "2005-09-23", "original_language": "en", "original_title": "The Madagascar Penguins in a Christmas Caper", "genre_ids": [16, 35, 10751], "backdrop_path": "/gdJ6j1hmt6dQgObWxDJAHUb58o6.jpg", "adult": false, "overview": "During the holiday season, when the animals of the Central Park Zoo are preparing for Christmas, Private, the youngest of the penguins notices that the Polar Bear is all alone. Assured that nobody should have to spend Christmas alone, Private goes into the city for some last-minute Christmas shopping. Along the way, he gets stuffed into a stocking", "poster_path": "/r8QtfGSjDaY6vICRVyYvZvTkjxc.jpg", "popularity": 13.032}, {"adult": false, "backdrop_path": "/tr6OExnBfjLADi9OyZoW308mPAp.jpg", "genre_ids": [18, 35, 10749], "id": 74643, "original_language": "en", "original_title": "The Artist", "overview": "Hollywood, 1927: As silent movie star George Valentin wonders if the arrival of talking pictures will cause him to fade into oblivion, he sparks with Peppy Miller, a young dancer set for a big break.", "poster_path": "/i0mpvMIIjyubXsVKug9vX0lYpnd.jpg", "release_date": "2011-06-26", "title": "The Artist", "video": false, "vote_average": 7.4, "vote_count": 1977, "popularity": 10.661}, {"id": 10527, "video": false, "vote_count": 4220, "vote_average": 6.4, "title": "Madagascar: Escape 2 Africa", "release_date": "2008-10-30", "original_language": "en", "original_title": "Madagascar: Escape 2 Africa", "genre_ids": [16, 35, 10751], "backdrop_path": "/anxiz37Z9FPKeuCsJcxViSWmPxg.jpg", "adult": false, "overview": "Alex, Marty, and other zoo animals find a way to escape from Madagascar when the penguins reassemble a wrecked airplane. The precariously repaired craft stays airborne just long enough to make it to the African continent. There the New Yorkers encounter members of their own species for the first time. Africa proves to be a wild place, but Alex and company wonder if it is better than their Central Park home.", "poster_path": "/9mohxwknsHcwFBSAAhoQXwFV5zn.jpg", "popularity": 23.58}, {"id": 460793, "video": false, "vote_count": 933, "vote_average": 6.2, "title": "Olaf's Frozen Adventure", "release_date": "2017-10-27", "original_language": "en", "original_title": "Olaf's Frozen Adventure", "genre_ids": [12, 16, 35, 14, 10402, 10751], "backdrop_path": "/9K4QqQZg4TVXcxBGDiVY4Aey3Rn.jpg", "adult": false, "overview": "Olaf is on a mission to harness the best holiday traditions for Anna, Elsa, and Kristoff.", "poster_path": "/As8WTtxXs9e3cBit3ztTf7zoRmm.jpg", "popularity": 21.98}, {"id": 14787, "video": false, "vote_count": 124, "vote_average": 6.4, "title": "Tom and Jerry: The Magic Ring", "release_date": "2002-03-12", "original_language": "en", "original_title": "Tom and Jerry: The Magic Ring", "genre_ids": [28, 16, 35, 14, 10751], "backdrop_path": "/wPvYwB9NYUJRXIzjKeupigE1JXc.jpg", "adult": false, "overview": "The world's favourite cat and mouse team bounds back into action in an all-new full-length animated adventure certain to cast its spell over the entire family Left in charge of a priceless magical ring by his young wizard master, Tom is horrified when the ring gets stuck on Jerry's head, who then runs off into the city! Before you can say \"abracadabra\", the entire town is hot on our heroes' tails.", "poster_path": "/fF6I48WGKktHfGYYSVKPTVildWE.jpg", "popularity": 15.019}, {"adult": false, "backdrop_path": "/twGxeStlGooWV3gP6ZIcSNuQ6jf.jpg", "genre_ids": [12, 16, 10751, 14], "id": 81684, "original_language": "en", "original_title": "The Gruffalo's Child", "overview": "A follow up to the 2009 animated feature and adapted from the childrens' book by Julia Donaldson and Alex Scheffler.  The Gruffalo's child explores the deep dark wood in search of the big bad mouse and meets the Snake, Owl and Fox in the process.  She eventually finds the mouse, who manages to outwit her like the Gruffalo before!", "poster_path": "/qaGH2AoaLvoGXURQtNzj1nw6oZd.jpg", "release_date": "2011-12-25", "title": "The Gruffalo's Child", "video": false, "vote_average": 6.9, "vote_count": 73, "popularity": 9.51}, {"adult": false, "backdrop_path": null, "genre_ids": [], "id": 616262, "original_language": "ar", "original_title": "All Come From Dust", "overview": "A loop of edgeless bend. You were its doom, he was its bloom. You were its tomb, he was its womb. You were its gloom, he was its loom. For Heaven and Hell, were words made of fume.", "poster_path": null, "release_date": "2019-08-13", "title": "All Come From Dust", "video": false, "vote_average": 5.0, "vote_count": 1, "popularity": 0.6}, {"id": 621733, "video": false, "vote_count": 0, "vote_average": 0.0, "title": "A Trip to the Seaside", "release_date": "2019-08-30", "original_language": "en", "original_title": "A Trip to the Seaside", "genre_ids": [99], "backdrop_path": null, "adult": false, "overview": "Experimental short film on the excitement and rush of a day trip", "poster_path": "/AuZVhpoJ4jm2LWDhoJKfxQfhDAi.jpg", "popularity": 1.324}, {"id": 75612, "video": false, "vote_count": 7401, "vote_average": 6.5, "title": "Oblivion", "release_date": "2013-04-10", "original_language": "en", "original_title": "Oblivion", "genre_ids": [28, 12, 9648, 878], "backdrop_path": "/8TE77jL2e4zdERpv8hnBAHUmFRx.jpg", "adult": false, "overview": "Jack Harper is one of the last few drone repairmen stationed on Earth.  Part of a massive operation to extract vital resources after decades of war with a terrifying threat known as the Scavs, Jack\u2019s mission is nearly complete.  His existence is brought crashing down when he rescues a beautiful  stranger from a downed spacecraft.  Her arrival triggers a chain of events that  forces him to question everything he knows and puts the fate of humanity in his hands.", "poster_path": "/hmOzkHlkGvi8x24fYpFSnXvjklv.jpg", "popularity": 34.598}, {"id": 240832, "video": false, "vote_count": 10811, "vote_average": 6.3, "title": "Lucy", "release_date": "2014-07-25", "original_language": "en", "original_title": "Lucy", "genre_ids": [28, 878], "backdrop_path": "/eCgIoGvfNXrbSiQGqQHccuHjQHm.jpg", "adult": false, "overview": "A woman, accidentally caught in a dark deal, turns the tables on her captors and transforms into a merciless warrior evolved beyond human logic.", "poster_path": "/rwn876MeqienhOVSSjtUPnwxn0Z.jpg", "popularity": 26.958}, {"id": 828, "video": false, "vote_count": 557, "vote_average": 7.5, "title": "The Day the Earth Stood Still", "release_date": "1951-09-17", "original_language": "en", "original_title": "The Day the Earth Stood Still", "genre_ids": [878], "backdrop_path": "/uExEupzfV7Ffau0H98aefUU0zcG.jpg", "adult": false, "overview": "An alien and a robot land on earth after World War II and tell mankind to be peaceful or face destruction. A classic science fiction film from Robert Wise with an exceptional message.", "poster_path": "/x2DquTpLTq54aPFDnqlwY7apCC3.jpg", "popularity": 30.427}, {"id": 54138, "video": false, "vote_count": 6599, "vote_average": 7.3, "title": "Star Trek Into Darkness", "release_date": "2013-05-05", "original_language": "en", "original_title": "Star Trek Into Darkness", "genre_ids": [28, 12, 878], "backdrop_path": "/ns0IojuqJe24AHTxe8RVcWJUCDM.jpg", "adult": false, "overview": "When the crew of the Enterprise is called back home, they find an unstoppable force of terror from within their own organization has detonated the fleet and everything it stands for, leaving our world in a state of crisis.  With a personal score to settle, Captain Kirk leads a manhunt to a war-zone world to capture a one man weapon of mass destruction. As our heroes are propelled into an epic chess game of life and death, love will be challenged, friendships will be torn apart, and sacrifices must be made for the only family Kirk has left: his crew.", "poster_path": "/41mhrXASAW3sdn7LBWF49uCX0xi.jpg", "popularity": 22.476}, {"adult": false, "backdrop_path": "/xqQztbT6KlPLQLlRtNHoXivEMZA.jpg", "genre_ids": [18, 10749, 53], "id": 597, "original_language": "en", "original_title": "Titanic", "overview": "101-year-old Rose DeWitt Bukater tells the story of her life aboard the Titanic, 84 years later. A young Rose boards the ship with her mother and fianc\u00e9. Meanwhile, Jack Dawson and Fabrizio De Rossi win third-class tickets aboard the ship. Rose tells the whole story from Titanic's departure through to its death\u2014on its first and last voyage\u2014on April 15, 1912.", "poster_path": "/kHXEpyfl6zqn8a6YuozZUujufXf.jpg", "release_date": "1997-11-18", "title": "Titanic", "video": false, "vote_average": 7.8, "vote_count": 15731, "popularity": 44.898}, {"id": 326359, "video": false, "vote_count": 1180, "vote_average": 6.8, "title": "Frozen Fever", "release_date": "2015-03-09", "original_language": "en", "original_title": "Frozen Fever", "genre_ids": [12, 16, 10751], "backdrop_path": "/ubioPGniCfDiASmYYpeJs5RRNaC.jpg", "adult": false, "overview": "On Anna's birthday, Elsa and Kristoff are determined to give her the best celebration ever, but Elsa's icy powers may put more than just the party at risk.", "poster_path": "/lKJiVPzsAO9IJ4LKWXZ8vkR2bg4.jpg", "popularity": 17.218}, {"id": 1585, "video": false, "vote_count": 2261, "vote_average": 8.2, "title": "It's a Wonderful Life", "release_date": "1946-12-20", "original_language": "en", "original_title": "It's a Wonderful Life", "genre_ids": [18, 14, 10751], "backdrop_path": "/nMomMy1sD3SN2QsKop3zBXCJfDJ.jpg", "adult": false, "overview": "A holiday favourite for generations...  George Bailey has spent his entire life giving to the people of Bedford Falls.  All that prevents rich skinflint Mr. Potter from taking over the entire town is George's modest building and loan company.  But on Christmas Eve the business's $8,000 is lost and George's troubles begin.", "poster_path": "/bSqt9rhDZx1Q7UZ86dBPKdNomp2.jpg", "popularity": 30.622}, {"adult": false, "backdrop_path": "/pc7a2qrIkIxzqWGqcexd3mHzIxy.jpg", "genre_ids": [28, 53, 12], "id": 56292, "original_language": "en", "original_title": "Mission: Impossible - Ghost Protocol", "overview": "Ethan Hunt and his team are racing against time to track down a dangerous terrorist named Hendricks, who has gained access to Russian nuclear launch codes and is planning a strike on the United States. An attempt to stop him ends in an explosion causing severe destruction to the Kremlin and the IMF to be implicated in the bombing, forcing the President to disavow them. No longer being aided by the government, Ethan and his team chase Hendricks around the globe, although they might still be too late to stop a disaster.", "poster_path": "/s58mMsgIVOFfoXPtwPWJ3hDYpXf.jpg", "release_date": "2011-12-07", "title": "Mission: Impossible - Ghost Protocol", "video": false, "vote_average": 7.0, "vote_count": 6591, "popularity": 29.242}], "total_pages": 830, "total_results": 16596}, "recommendations": {"page": 1, "results": [{"adult": false, "backdrop_path": null, "genre_ids": [80, 35], "id": 159903, "original_language": "en", "original_title": "Chinese Laundry Scene", "overview": "The pursuit of Hop Lee by an irate policeman.", "poster_path": "/hsvjAYvITOp88ZlrXePKGR0BgZu.jpg", "release_date": "1894-04-30", "title": "Chinese Laundry Scene", "video": false, "vote_average": 4.7, "vote_count": 7, "popularity": 1.417}, {"adult": false, "backdrop_path": null, "genre_ids": [], "id": 159910, "original_language": "en", "original_title": "Hadj Cheriff", "overview": "Hadji Cheriff, a performer known for a variety of unusual abilities, demonstrates part of his act in the Thomas Edison studio. He has a large knife in his hand at the opening of the act. He then hurls the knife away and begins a rapid series of dance-like motions, executing numerous cartwheels and whirling movements.", "poster_path": "/rb5HHy0J4yZYlBA1tqL1akWo6WQ.jpg", "release_date": "1894-10-05", "title": "Hadj Cheriff", "video": false, "vote_average": 4.7, "vote_count": 8, "popularity": 1.492}, {"adult": false, "backdrop_path": null, "genre_ids": [99], "id": 188368, "original_language": "en", "original_title": "Athlete with Wand", "overview": "An athlete demonstrating various poses.", "poster_path": "/8ZyRKfX9CRtak2biYBYu2mwcM7X.jpg", "release_date": "1894-02-01", "title": "Athlete with Wand", "video": false, "vote_average": 3.6, "vote_count": 10, "popularity": 1.261}, {"adult": false, "backdrop_path": null, "genre_ids": [], "id": 159899, "original_language": "en", "original_title": "Imperial Japanese Dance", "overview": "A charming representation of the Mikado dance by three beautiful Japanese ladies in full costume. Very effective when colored.", "poster_path": "/6KJCkEts3HOttqj3HMiJbw2h4r3.jpg", "release_date": "1894-11-05", "title": "Imperial Japanese Dance", "video": false, "vote_average": 4.0, "vote_count": 11, "popularity": 1.947}, {"adult": false, "backdrop_path": null, "genre_ids": [99], "id": 189054, "original_language": "en", "original_title": "Luis Martinetti, Contortionist", "overview": "Luis Martinetti, a contortionist suspended from acrobatic flying rings, contorts himself for about thirty seconds. This is one of the first films made for Edison's kinetoscopes.", "poster_path": "/hzOL0hUqIUddCnOffhCaX4SzAJm.jpg", "release_date": "1894-01-01", "title": "Luis Martinetti, Contortionist", "video": false, "vote_average": 5.6, "vote_count": 12, "popularity": 1.956}, {"adult": false, "backdrop_path": null, "genre_ids": [99], "id": 127224, "original_language": "en", "original_title": "Sioux Ghost Dance", "overview": "From Edison films catalog: One of the most peculiar customs of the Sioux Tribe is here shown, the dancers being genuine Sioux Indians, in full war paint and war costumes. 40 feet. 7.50. According to Edison film historian C. Musser, this film and others shot on the same day (see also Buffalo dance) featured Native American Indian dancers from Buffalo Bill's Wild West show, and represent the American Indian's first appearance before a motion picture camera.", "poster_path": "/jaLceLoZuw7Uh3KdOvGF3SWC9dZ.jpg", "release_date": "1894-09-23", "title": "Sioux Ghost Dance", "video": false, "vote_average": 4.8, "vote_count": 13, "popularity": 0.84}, {"adult": false, "backdrop_path": null, "genre_ids": [], "id": 162869, "original_language": "en", "original_title": "Princess Ali", "overview": "Princess Ali, of Barnum and Bailey's circus, performs an Egyptian dance in the Edison Company's studio. As she dances, some musicians perform in the background to provide accompaniment.", "poster_path": "/vbDiBeHCF0hD01ySJvQud7TDpms.jpg", "release_date": "1895-05-09", "title": "Princess Ali", "video": false, "vote_average": 4.6, "vote_count": 7, "popularity": 1.507}, {"adult": false, "backdrop_path": null, "genre_ids": [99], "id": 189572, "original_language": "en", "original_title": "Die Serpentint\u00e4nzerin", "overview": "A young woman dancer with large, flowing robes, swirls round herself quickly, making her light robe flow around her like a butterfly's wings.", "poster_path": "/oMRm96usM1OSXbRhlY13bloFg44.jpg", "release_date": "1895-11-01", "title": "Die Serpentint\u00e4nzerin", "video": false, "vote_average": 4.8, "vote_count": 9, "popularity": 1.481}, {"adult": false, "backdrop_path": null, "genre_ids": [99], "id": 159904, "original_language": "en", "original_title": "Bucking Broncho", "overview": "Lee Martin, one of the cowboy stars in 'Buffalo Bill's Wild West', rides a bronco as a crowd looks on. While the horse is trying to throw Martin off its back, another cowboy stands on top of a fence rail and occasionally fires his six-shooter, to spur on both horse and rider.", "poster_path": "/wDpn8I8wTI1U2Lk6qwg1fI827xe.jpg", "release_date": "1894-10-16", "title": "Bucking Broncho", "video": false, "vote_average": 3.9, "vote_count": 11, "popularity": 2.065}, {"adult": false, "backdrop_path": null, "genre_ids": [], "id": 319603, "original_language": "xx", "original_title": "Cock Fight, No. 2", "overview": "Two gamecocks are fighting inside a wire cage, while two spectators look on in the background. The two men agree to make a bet on the outcome. One of them shows his money to the other, who is commenting on the fight.", "poster_path": "/rEHArD36VVwTmE2Bx0OAHybj5zs.jpg", "release_date": "1894-01-15", "title": "Cock Fight, No. 2", "video": false, "vote_average": 3.2, "vote_count": 9, "popularity": 1.277}, {"adult": false, "backdrop_path": null, "genre_ids": [99], "id": 155107, "original_language": "en", "original_title": "Buffalo Dance", "overview": "Long before Hollywood started painting white men red and dressing them as 'Injuns' Edison's company was using the genuine article! Featuring for what is believed to be the Native Americans first appearance before a motion picture camera 'Buffalo Dance' features genuine members of the Sioux Tribe dressed in full war paint and costume! The dancers are believed to be veteran members of Buffalo Bill's Wild West Show. Filmed again at the Black Maria studios by both Dickson and Heise the 'Buffalo Dance' warriors were named as Hair Coat, Parts His Hair and Last Horse. Its quite strange seeing these movies at first they all stand around waiting to begin and as they start some of the dancers look at the camera in an almost sad way at having lost their way of life.", "poster_path": "/4YD0GzfmGq33KJhkRuDUefTrlVn.jpg", "release_date": "1894-09-23", "title": "Buffalo Dance", "video": false, "vote_average": 4.4, "vote_count": 16, "popularity": 1.191}, {"adult": false, "backdrop_path": null, "genre_ids": [99], "id": 152215, "original_language": "en", "original_title": "Glenroy Brothers (Comic Boxing)", "overview": "The Glenroy Brothers perform a portion of their vaudeville act, \"The Comic View of Boxing: The Tramp &amp; the Athlete\", which depicts a boxer with a classic style trying to contend with an opponent who uses a very unorthodox approach.", "poster_path": "/lj2vNBWXQ66lVIPjchx4uBNRmrJ.jpg", "release_date": "1894-10-05", "title": "Glenroy Brothers (Comic Boxing)", "video": false, "vote_average": 5.0, "vote_count": 11, "popularity": 1.911}, {"adult": false, "backdrop_path": null, "genre_ids": [99], "id": 194089, "original_language": "en", "original_title": "The Pickaninny Dance from the \u201cPassing Show\u201d", "overview": "\u201cA scene representing Southern plantation life before the war. A jig and a breakdown by three colored boys.\u201d", "poster_path": "/6r9WBYSkqJkHdY8AhdhWwaCzWgK.jpg", "release_date": "1894-05-16", "title": "The Pickaninny Dance from the \u201cPassing Show\u201d", "video": false, "vote_average": 4.6, "vote_count": 9, "popularity": 0.84}, {"adult": false, "backdrop_path": null, "genre_ids": [], "id": 332353, "original_language": "en", "original_title": "Annabelle Sun Dance", "overview": "Annabelle Dances in William K.L. Dickson's 1894 short film", "poster_path": "/6bVcQ7Hqv4yckuqQZtvNm576uHW.jpg", "release_date": "1894-01-01", "title": "Annabelle Sun Dance", "video": false, "vote_average": 4.6, "vote_count": 6, "popularity": 1.105}, {"adult": false, "backdrop_path": null, "genre_ids": [99], "id": 194085, "original_language": "en", "original_title": "Akrobatisches Potpourri", "overview": "Eight circus performers known as the Grunato family perform their famous balancing act.", "poster_path": "/fojcvoRPjXa9P2PXSSYkuvyN6ge.jpg", "release_date": "1895-11-01", "title": "Akrobatisches Potpourri", "video": false, "vote_average": 4.5, "vote_count": 8, "popularity": 1.307}, {"adult": false, "backdrop_path": null, "genre_ids": [99], "id": 159905, "original_language": "en", "original_title": "Leonard-Cushing Fight", "overview": "In the background, five fans lean on the ropes looking into the ring. The referee is to the left; like the fans, he hardly moves as two fighters swing roundhouse blows at each other. Mike Leonard, in white trunks, is the aggressor; in black, Jack Cushing stands near the edge of the ring, warily pawing the air as Leonard comes at him. A couple of punches land, but the fighters maintain their upright postures.", "poster_path": "/9dEen9dLWqWD7CMDxwskCL2D5my.jpg", "release_date": "1894-06-14", "title": "Leonard-Cushing Fight", "video": false, "vote_average": 5.2, "vote_count": 10, "popularity": 1.511}, {"adult": false, "backdrop_path": null, "genre_ids": [], "id": 105157, "original_language": "en", "original_title": "A Hand Shake", "overview": "William K.L. Dickson and William Heise shake hands in this early experimental film.", "poster_path": "/6l4A8iKwMovccSqx4ITUGMebzpZ.jpg", "release_date": "1892-01-01", "title": "A Hand Shake", "video": false, "vote_average": 3.2, "vote_count": 14, "popularity": 2.169}, {"adult": false, "backdrop_path": null, "genre_ids": [99], "id": 159895, "original_language": "en", "original_title": "Corbett and Courtney Before the Kinetograph", "overview": "James J. Corbett and Peter Courtney meet in a boxing exhibition.", "poster_path": "/o4PqnyuEDUq8MkDfJ7qsvAKbkhT.jpg", "release_date": "1894-11-17", "title": "Corbett and Courtney Before the Kinetograph", "video": false, "vote_average": 4.8, "vote_count": 15, "popularity": 1.938}, {"adult": false, "backdrop_path": null, "genre_ids": [18, 99], "id": 189055, "original_language": "en", "original_title": "Fire Rescue Scene", "overview": "\"Firemen in working uniform, rubber coats, helmets, and boots. Thrilling rescue from burning building. Smoke effects are fine.\" - from the Edison Catalog", "poster_path": "/g7oz2UNzkKGcpJ6WyS9RUpCKokK.jpg", "release_date": "1894-12-01", "title": "Fire Rescue Scene", "video": false, "vote_average": 5.3, "vote_count": 12, "popularity": 2.19}, {"adult": false, "backdrop_path": null, "genre_ids": [], "id": 194091, "original_language": "en", "original_title": "The Hornbacker-Murphy Fight", "overview": "A referee and five fans (including a waiter in his apron) look on as two young men box. The dark-haired, slightly taller boxer throws a right and the light-haired smaller one goes down; but he's up before the referee starts counting. After the knockdown, the boxers mostly hit each other's gloves. The fans, at least one of whom is sitting inside the ring, show no animation. They're all men, dressed in a range of late 19th-century garb.", "poster_path": "/xfLRj4mDRVjWeQegWn8w00oyPJI.jpg", "release_date": "1894-10-02", "title": "The Hornbacker-Murphy Fight", "video": false, "vote_average": 4.8, "vote_count": 10, "popularity": 1.511}], "total_pages": 2, "total_results": 40}, "credits": {"cast": [{"cast_id": 3, "character": "Steele Ayers, the bandmaster", "credit_id": "54d1b3e1c3a36830820015d5", "gender": 0, "id": 1422700, "name": "Frank Baldwin", "order": 1, "profile_path": null}, {"cast_id": 4, "character": "Himself", "credit_id": "54d1b3ecc3a3687351001378", "gender": 0, "id": 1422701, "name": "Fred W. Boardman", "order": 2, "profile_path": null}, {"cast_id": 5, "character": "Himself", "credit_id": "54d1b3fdc3a3683080001890", "gender": 0, "id": 1422702, "name": "William Cushing", "order": 3, "profile_path": null}, {"cast_id": 6, "character": "Himself", "credit_id": "54d1b40d9251411b5c0014cf", "gender": 0, "id": 1422703, "name": "Ad. Dorsch", "order": 4, "profile_path": null}, {"cast_id": 7, "character": "Himself", "credit_id": "54d1b419c3a3687351001387", "gender": 0, "id": 1422704, "name": "E. P. Brown", "order": 5, "profile_path": null}, {"cast_id": 8, "character": "Himself", "credit_id": "54d1b422c3a36830820015e5", "gender": 0, "id": 1422705, "name": "J. F. Boardman", "order": 6, "profile_path": null}, {"cast_id": 9, "character": "Himself", "credit_id": "54d1b42b9251411b59001625", "gender": 0, "id": 1422706, "name": "George Goddard", "order": 7, "profile_path": null}, {"cast_id": 10, "character": "Himself", "credit_id": "54d1b434c3a368307d001918", "gender": 0, "id": 1422707, "name": "E. F. Balch", "order": 8, "profile_path": null}, {"cast_id": 11, "character": "Himself", "credit_id": "54d1b43b9251411b69001691", "gender": 0, "id": 1422708, "name": "Paul Pfarr", "order": 9, "profile_path": null}], "crew": [{"credit_id": "52fe4c249251416c910f13a5", "department": "Directing", "gender": 0, "id": 110347, "job": "Director", "name": "William K.L. Dickson ", "profile_path": "/gqyFBW6i07NodR9wTrGG13hjoZm.jpg"}, {"credit_id": "52fe4c249251416c910f13ab", "department": "Directing", "gender": 0, "id": 110348, "job": "Director", "name": "William Heise", "profile_path": "/e2J3I16996PA0QMSZJmFAD29Tmb.jpg"}]}}