{"adult": false, "backdrop_path": "/uEuDcBkQkGzqd2av6MCiNh5StjF.jpg", "belongs_to_collection": null, "budget": 0, "genres": [{"id": 10749, "name": "Romance"}, {"id": 18, "name": "Drama"}], "homepage": null, "id": 160041, "imdb_id": "tt0117185", "original_language": "it", "original_title": "Ninfa plebea", "overview": "Set during the second world war, the sentimental education of a sensual adolescent girl, growing out of her childhood in a small, impoverished village in Southern Italy.", "popularity": 2.66, "poster_path": "/abxXhhM12Ws4IsTI0NMd5zek0oi.jpg", "production_companies": [{"id": 12823, "logo_path": null, "name": "Eurolux Produzione S.r.l.", "origin_country": ""}, {"id": 1429, "logo_path": null, "name": "Italian International Film", "origin_country": ""}], "production_countries": [{"iso_3166_1": "IT", "name": "Italy"}], "release_date": "1996-04-12", "revenue": 0, "runtime": 110, "spoken_languages": [{"iso_639_1": "it", "name": "Italiano"}], "status": "Released", "tagline": "", "title": "The Nymph", "video": false, "vote_average": 6.1, "vote_count": 5, "keywords": {"keywords": [{"id": 131, "name": "italy"}, {"id": 549, "name": "prostitute"}, {"id": 596, "name": "adultery"}, {"id": 739, "name": "sexual abuse"}, {"id": 818, "name": "based on novel or book"}, {"id": 1956, "name": "world war ii"}, {"id": 2539, "name": "harassment"}, {"id": 4411, "name": "sexism"}, {"id": 6139, "name": "innocence"}, {"id": 13014, "name": "orphan"}, {"id": 13065, "name": "soldier"}, {"id": 18453, "name": "gossip"}, {"id": 179385, "name": "prostitute mother"}, {"id": 187056, "name": "woman director"}, {"id": 188993, "name": "true love"}, {"id": 189868, "name": "rumor"}]}, "similar": {"page": 1, "results": [{"adult": false, "backdrop_path": "/sn0HQZthLpYamYb8VSPbEAWT4kF.jpg", "genre_ids": [18, 36, 10752], "id": 8741, "original_language": "en", "original_title": "The Thin Red Line", "overview": "Based on the graphic novel by James Jones, The Thin Red Line tells the story of a group of men, an Army Rifle company called C-for-Charlie, who change, suffer, and ultimately make essential discoveries about themselves during the fierce World War II battle of Guadalcanal. It follows their journey, from the surprise of an unopposed landing, through the bloody and exhausting battles that follow, to the ultimate departure of those who survived. A powerful frontline cast - including Sean Penn, Nick Nolte, Woody Harrelson and George Clooney - explodes into action in this hauntingly realistic view of military and moral chaos in the Pacific during World War II.", "poster_path": "/g4ApW90svay7veAPgxU8OsNMEOB.jpg", "release_date": "1998-12-25", "title": "The Thin Red Line", "video": false, "vote_average": 7.4, "vote_count": 1577, "popularity": 19.345}, {"id": 227306, "video": false, "vote_count": 2439, "vote_average": 7.4, "title": "Unbroken", "release_date": "2014-12-25", "original_language": "en", "original_title": "Unbroken", "genre_ids": [18, 10752], "backdrop_path": "/eSbKT3v3RKFRGeOmxJbZhIvrevR.jpg", "adult": false, "overview": "A chronicle of the life of Louis Zamperini, an Olympic runner who was taken prisoner by Japanese forces during World War II.", "poster_path": "/1un8i8UtCjSCnY3OfdxtB5kDRvF.jpg", "popularity": 18.995}, {"id": 11422, "video": false, "vote_count": 133, "vote_average": 6.5, "title": "Midway", "release_date": "1976-06-18", "original_language": "en", "original_title": "Midway", "genre_ids": [28, 18, 36, 10752], "backdrop_path": "/6jeTEV03QLsjkEomKM6XhjoVJch.jpg", "adult": false, "overview": "This war drama depicts the U.S. and Japanese forces in the naval Battle of Midway, which became a turning point for Americans during World War II.", "poster_path": "/dCUVG2po7DsBvnxfe7WGcJsUn9T.jpg", "popularity": 15.349}, {"id": 515001, "video": false, "vote_count": 576, "vote_average": 8.1, "title": "Jojo Rabbit", "release_date": "2019-10-18", "original_language": "en", "original_title": "Jojo Rabbit", "genre_ids": [35, 18, 10752], "backdrop_path": "/agoBZfL1q5G79SD0npArSlJn8BH.jpg", "adult": false, "overview": "A World War II satire that follows a lonely German boy whose world view is turned upside down when he discovers his single mother is hiding a young Jewish girl in their attic. Aided only by his idiotic imaginary friend, Adolf Hitler, Jojo must confront his blind nationalism.", "poster_path": "/7GsM4mtM0worCtIVeiQt28HieeN.jpg", "popularity": 81.75}, {"adult": false, "backdrop_path": "/tk6QB32plylH41eo2Pbv4sIVljO.jpg", "genre_ids": [18], "id": 50270, "original_language": "it", "original_title": "Paprika", "overview": "A young country girl comes to town and works in a brothel in order to help her fiance get the money to start his own business. \"Paprika\" is the name given to her by the madam.", "poster_path": "/6QthFTJvUheocw3fcKklnsMcGib.jpg", "release_date": "1991-02-13", "title": "Paprika", "video": false, "vote_average": 5.9, "vote_count": 81, "popularity": 19.933}, {"adult": false, "backdrop_path": "/uousshudWOwQrDmAI23oCGpKD7m.jpg", "genre_ids": [10749, 10752, 35, 18], "id": 340101, "original_language": "en", "original_title": "Their Finest", "overview": "During the Blitz of World War II, a female screenwriter (Gemma Arterton) works on a film celebrating England's resilience as a way to buoy a weary populace's spirits. Her efforts to dramatise the true story of two sisters (Lily Knight and Francesca Knight) who undertook their own maritime mission to rescue wounded soldiers are met with mixed feelings by a dismissive all-male staff.", "poster_path": "/tF0dhJfxzOjvkybJVfNPuuj5ClH.jpg", "release_date": "2017-04-06", "title": "Their Finest", "video": false, "vote_average": 6.8, "vote_count": 232, "popularity": 11.817}, {"adult": false, "backdrop_path": "/zDXBA5yaxfPCnRT2y4if5w9rxLX.jpg", "genre_ids": [18, 10751, 14], "id": 11236, "original_language": "en", "original_title": "The Secret Garden", "overview": "A young British girl born and reared in India loses her neglectful parents in an earthquake. She is returned to England to live at her uncle's castle. Her uncle is very distant due to the loss of his wife ten years before. Neglected once again, she begins exploring the estate and discovers a garden that has been locked and neglected. Aided by one of the servants' boys, she begins restoring the garden, and eventually discovers some other secrets of the manor.", "poster_path": "/u0viU22u7ABDESyoPMcvM2jr4hJ.jpg", "release_date": "1993-08-13", "title": "The Secret Garden", "video": false, "vote_average": 7.2, "vote_count": 482, "popularity": 12.995}, {"id": 613, "video": false, "vote_count": 1992, "vote_average": 7.8, "title": "Downfall", "release_date": "2004-09-08", "original_language": "de", "original_title": "Der Untergang", "genre_ids": [18, 36, 10752], "backdrop_path": "/d3AmCJXvsP818di5KcCj4fNi36.jpg", "adult": false, "overview": "In April of 1945, Germany stands at the brink of defeat with the Russian Army closing in from the east and the Allied Expeditionary Force attacking from the west. In Berlin, capital of the Third Reich, Adolf Hitler proclaims that Germany will still achieve victory and orders his generals and advisers to fight to the last man. When the end finally does come, and Hitler lies dead by his own hand, what is left of his military must find a way to end the killing that is the Battle of Berlin, and lay down their arms in surrender.", "poster_path": "/2QmpblYvUThzBQ4ArdT1Kp43DZi.jpg", "popularity": 13.146}, {"id": 11287, "video": false, "vote_count": 725, "vote_average": 7.1, "title": "A League of Their Own", "release_date": "1992-07-01", "original_language": "en", "original_title": "A League of Their Own", "genre_ids": [35, 18, 36], "backdrop_path": "/cTzJXKXqy8pqisykmDueETv6ikb.jpg", "adult": false, "overview": "As America's stock of athletic young men is depleted during World War II, a professional all-female baseball league springs up in the Midwest, funded by publicity-hungry candy maker Walter Harvey (Garry Marshall). Competitive sisters Dottie Hinson (Geena Davis) and Kit Keller (Lori Petty) spar with each other, scout Ernie Capadino (Jon Lovitz) and grumpy has-been coach Jimmy Dugan (Tom Hanks) on their way to fame. Madonna and Rosie O'Donnell co-star as two of the sisters' teammates.", "poster_path": "/mHr58FxWSPZtxSqVxDpO12nKmMi.jpg", "popularity": 11.427}, {"id": 10545, "video": false, "vote_count": 3018, "vote_average": 7.0, "title": "The Hunchback of Notre Dame", "release_date": "1996-06-21", "original_language": "en", "original_title": "The Hunchback of Notre Dame", "genre_ids": [16, 18, 10751], "backdrop_path": "/oslaee3VX9kJAjVezbjZKlEJDzn.jpg", "adult": false, "overview": "When Quasimodo defies the evil Frollo and ventures out to the Festival of Fools, the cruel crowd jeers him. Rescued by fellow outcast the gypsy Esmeralda, Quasi soon finds himself battling to save the people and the city he loves.", "poster_path": "/r7V92gY3AMO6li17MmGTixAnFcv.jpg", "popularity": 28.041}, {"adult": false, "backdrop_path": "/pKawqrtCBMmxarft7o1LbEynys7.jpg", "genre_ids": [10752, 18, 28], "id": 228150, "original_language": "en", "original_title": "Fury", "overview": "In the last months of World War II, as the Allies make their final push in the European theatre, a battle-hardened U.S. Army sergeant named 'Wardaddy' commands a Sherman tank called 'Fury' and its five-man crew on a deadly mission behind enemy lines. Outnumbered and outgunned, Wardaddy and his men face overwhelming odds in their heroic attempts to strike at the heart of Nazi Germany.", "poster_path": "/fa4PxEPRKWRyjzYje1jM4m30qzd.jpg", "release_date": "2014-10-15", "title": "Fury", "video": false, "vote_average": 7.4, "vote_count": 7302, "popularity": 53.985}, {"id": 11046, "video": false, "vote_count": 434, "vote_average": 7.6, "title": "Where Eagles Dare", "release_date": "1968-12-04", "original_language": "en", "original_title": "Where Eagles Dare", "genre_ids": [28, 12, 18, 36, 10752], "backdrop_path": "/aAFq5jVHV6RZpLcRXATskNBuEbM.jpg", "adult": false, "overview": "World War II is raging, and an American general has been captured and is being held hostage in the Schloss Adler, a Bavarian castle that's nearly impossible to breach. It's up to a group of skilled Allied soldiers to liberate the general before it's too late.", "poster_path": "/991u0tSWGTVXCYkgC6ftaGE4bkQ.jpg", "popularity": 15.171}, {"id": 853, "video": false, "vote_count": 1914, "vote_average": 7.3, "title": "Enemy at the Gates", "release_date": "2001-03-14", "original_language": "en", "original_title": "Enemy at the Gates", "genre_ids": [28, 18, 36, 10749, 10752], "backdrop_path": "/70G2k5LYyvatd87Rai7DJM0DcYj.jpg", "adult": false, "overview": "A Russian and a German sniper play a game of cat-and-mouse during the Battle of Stalingrad in WWII.", "poster_path": "/9cSoNnB31hGY2mL78VT8mAbz6nR.jpg", "popularity": 25.616}, {"id": 466282, "video": false, "vote_count": 5270, "vote_average": 7.9, "title": "To All the Boys I've Loved Before", "release_date": "2018-08-16", "original_language": "en", "original_title": "To All the Boys I've Loved Before", "genre_ids": [35, 10749], "backdrop_path": "/uZTtVdOEIwPA6vwVRI3217DoPM.jpg", "adult": false, "overview": "Lara Jean's love life goes from imaginary to out of control when her secret letters to every boy she's ever fallen for are mysteriously mailed out.", "poster_path": "/hKHZhUbIyUAjcSrqJThFGYIR6kI.jpg", "popularity": 35.427}, {"adult": false, "backdrop_path": "/bQW1TnxHlmkWof0vsALj4HBkoxj.jpg", "genre_ids": [18, 10749], "id": 51828, "original_language": "en", "original_title": "One Day", "overview": "A romantic comedy centered on Dexter and Emma, who first meet during their graduation in 1988 and proceed to keep in touch regularly. The film follows what they do on July 15 annually, usually doing something together.", "poster_path": "/xzOz17yC3K6SZWtWylXimcHUqpD.jpg", "release_date": "2011-03-02", "title": "One Day", "video": false, "vote_average": 7.2, "vote_count": 2343, "popularity": 16.744}, {"id": 322, "video": false, "vote_count": 3521, "vote_average": 7.7, "title": "Mystic River", "release_date": "2003-10-07", "original_language": "en", "original_title": "Mystic River", "genre_ids": [80, 18, 9648, 53], "backdrop_path": "/77SSqcbjWooVLUndqjhGugA8eln.jpg", "adult": false, "overview": "The lives of three men who were childhood friends are shattered when one of them has a family tragedy.", "poster_path": "/qeHasONCKH5sR9HcTWquXI5ZN5y.jpg", "popularity": 21.69}, {"adult": false, "backdrop_path": "/mAXgaPxxUQg6U446yz8KPRYSUT.jpg", "genre_ids": [12, 18, 10751], "id": 44826, "original_language": "en", "original_title": "Hugo", "overview": "Orphaned and alone except for an uncle, Hugo Cabret lives in the walls of a train station in 1930s Paris. Hugo's job is to oil and maintain the station's clocks, but to him, his more important task is to protect a broken automaton and notebook left to him by his late father. Accompanied by the goddaughter of an embittered toy merchant, Hugo embarks on a quest to solve the mystery of the automaton and find a place he can call home.", "poster_path": "/rSmmVKeW3nsP86V2S6R7ePs4CFw.jpg", "release_date": "2011-11-22", "title": "Hugo", "video": false, "vote_average": 7.1, "vote_count": 4578, "popularity": 20.1}, {"adult": false, "backdrop_path": "/nfm6JCKUaM6dT0mATmShLY6cpmc.jpg", "genre_ids": [18, 10752], "id": 600, "original_language": "en", "original_title": "Full Metal Jacket", "overview": "A pragmatic U.S. Marine observes the dehumanizing effects the U.S.-Vietnam War has on his fellow recruits from their brutal boot camp training to the bloody street fighting in Hue.", "poster_path": "/29veIwD38rVL2qY74emXQw4y25H.jpg", "release_date": "1987-06-26", "title": "Full Metal Jacket", "video": false, "vote_average": 8.1, "vote_count": 5897, "popularity": 25.207}, {"id": 369885, "video": false, "vote_count": 3048, "vote_average": 6.7, "title": "Allied", "release_date": "2016-11-17", "original_language": "en", "original_title": "Allied", "genre_ids": [28, 18, 53, 10749, 10752], "backdrop_path": "/tC0tVH5KQhCwMlddnyA3iWOSuBA.jpg", "adult": false, "overview": "In 1942, an intelligence officer in North Africa encounters a female French Resistance fighter on a deadly mission behind enemy lines. When they reunite in London, their relationship is tested by the pressures of war.", "poster_path": "/nzXzLFTnd0Zb3ExfhOxlQgizgSu.jpg", "popularity": 29.818}, {"adult": false, "backdrop_path": "/nb70B4EXuoegiQ0C5N1fNVHIaYc.jpg", "genre_ids": [12, 18, 36, 53, 10752], "id": 5925, "original_language": "en", "original_title": "The Great Escape", "overview": "The Nazis, exasperated at the number of escapes from their prison camps by a relatively small number of Allied prisoners, relocates them to a high-security 'escape-proof' camp to sit out the remainder of the war. Undaunted, the prisoners plan one of the most ambitious escape attempts of World War II. Based on a true story.", "poster_path": "/qhy4HgUqhEbwQ1ekKTv7yEB3b0e.jpg", "release_date": "1963-06-20", "title": "The Great Escape", "video": false, "vote_average": 8.0, "vote_count": 1359, "popularity": 19.093}], "total_pages": 34, "total_results": 672}, "recommendations": {"page": 1, "results": [], "total_pages": 1, "total_results": 0}, "credits": {"cast": [{"cast_id": 16, "character": "Miluzza", "credit_id": "52fe4c26c3a36847f82203c5", "gender": 0, "id": 1141915, "name": "Lucia Cara", "order": 0, "profile_path": "/fVPIgysbtgSfYmXtWMYiVArpKtu.jpg"}, {"cast_id": 17, "character": "Nunziata", "credit_id": "52fe4c26c3a36847f82203c9", "gender": 1, "id": 34027, "name": "Stefania Sandrelli", "order": 1, "profile_path": "/2wpRnvlqHOGuHQ1AY6S8tWac1O2.jpg"}, {"cast_id": 18, "character": "Pietro", "credit_id": "52fe4c26c3a36847f82203cd", "gender": 2, "id": 5412, "name": "Raoul Bova", "order": 2, "profile_path": "/xATFToaMtpCanS5Dxv4W8N6vxd3.jpg"}, {"cast_id": 19, "character": "Dino", "credit_id": "52fe4c26c3a36847f82203d1", "gender": 0, "id": 556854, "name": "Lorenzo Crespi", "order": 3, "profile_path": "/iEzw5CfYAOajJWbPYN54yu9pAi4.jpg"}, {"cast_id": 20, "character": "Nannina", "credit_id": "52fe4c26c3a36847f82203d5", "gender": 0, "id": 1141916, "name": "Luisa Amatucci", "order": 4, "profile_path": "/AcPlbwjLRc8ZTvJqJgrFcMh1TzN.jpg"}, {"cast_id": 21, "character": "Annuzza", "credit_id": "52fe4c26c3a36847f82203d9", "gender": 1, "id": 68313, "name": "Giuditta Del Vecchio", "order": 5, "profile_path": "/spT8jOBx8Y578yoyoWhm6pZtJVf.jpg"}, {"cast_id": 22, "character": "Don Peppe", "credit_id": "52fe4c26c3a36847f82203dd", "gender": 2, "id": 1141917, "name": "Pepe Da Rosa", "order": 6, "profile_path": "/8iDx6ygXuMAGfK8vJgX4NRgYGcE.jpg"}, {"cast_id": 23, "character": "Nonno Rafele", "credit_id": "52fe4c26c3a36847f82203e1", "gender": 0, "id": 1141918, "name": "Rino Marcelli", "order": 7, "profile_path": "/yicQbwpTR6O65JolMTurLp5CLN6.jpg"}, {"cast_id": 24, "character": "Tunin", "credit_id": "52fe4c26c3a36847f82203e5", "gender": 0, "id": 226893, "name": "Massimo Bellinzoni", "order": 8, "profile_path": "/7lrd553pYCTFi01sIOk3Aw2AIWe.jpg"}, {"cast_id": 25, "character": "Gioacchino", "credit_id": "52fe4c26c3a36847f82203e9", "gender": 2, "id": 941087, "name": "Ennio Coltorti", "order": 9, "profile_path": "/zvevs8JuzH21qRQoK0wN5ZhODrW.jpg"}, {"cast_id": 26, "character": "Gesummina", "credit_id": "52fe4c26c3a36847f82203ed", "gender": 0, "id": 1014911, "name": "Isa Danieli", "order": 10, "profile_path": "/yM3HYSBkR1jUumd8v3TRlnAAJBP.jpg"}, {"cast_id": 27, "character": "Lucia", "credit_id": "52fe4c26c3a36847f82203f1", "gender": 1, "id": 1118063, "name": "Lola Pagnani", "order": 11, "profile_path": "/dDs01OnDkMZ0Aq5tt6CMOf6OxHV.jpg"}, {"cast_id": 28, "character": "Rosanella / Margherita", "credit_id": "52fe4c26c3a36847f82203f5", "gender": 0, "id": 1141919, "name": "Simona Patitucci", "order": 12, "profile_path": "/a135q6NLPUI4uSKGB5vPir1GSU8.jpg"}, {"cast_id": 29, "character": "Donna Pentita (uncredited)", "credit_id": "52fe4c26c3a36847f82203f9", "gender": 1, "id": 1004151, "name": "Francesca Rettondini", "order": 13, "profile_path": "/2B11cijOlcD4WCEFtcgUB60WaWe.jpg"}, {"cast_id": 34, "character": "", "credit_id": "59b3676b9251414a33009ef3", "gender": 2, "id": 1605545, "name": "Paolo De Giorgio", "order": 14, "profile_path": "/az6DZLhKq4pNAP38T12jgdhZWwo.jpg"}, {"cast_id": 35, "character": "", "credit_id": "59b367769251414a2b009d20", "gender": 2, "id": 1375648, "name": "Lorenzo Lavia", "order": 15, "profile_path": "/dw94Rlev3la6TTI6MhVXJXUdaWC.jpg"}], "crew": [{"credit_id": "52fe4c26c3a36847f822036d", "department": "Production", "gender": 2, "id": 101590, "job": "Producer", "name": "Ciro Ippolito", "profile_path": null}, {"credit_id": "52fe4c26c3a36847f8220373", "department": "Production", "gender": 0, "id": 50629, "job": "Producer", "name": "Fulvio Lucisano", "profile_path": "/kxFUBbxjFtBSBfYSAfJz0oADrrk.jpg"}, {"credit_id": "52fe4c26c3a36847f8220379", "department": "Directing", "gender": 1, "id": 26265, "job": "Director", "name": "Lina Wertm\u00fcller", "profile_path": "/baT0AuD8ZfRlR3R6zNJloBa1n2x.jpg"}, {"credit_id": "52fe4c26c3a36847f822037f", "department": "Sound", "gender": 2, "id": 1259, "job": "Original Music Composer", "name": "Ennio Morricone", "profile_path": "/tlntfyflyEHgJTFjqIgg8P8UIx9.jpg"}, {"credit_id": "52fe4c26c3a36847f822038b", "department": "Editing", "gender": 0, "id": 1141907, "job": "Editor", "name": "Pierluigi Leonardi", "profile_path": null}, {"credit_id": "52fe4c26c3a36847f8220391", "department": "Art", "gender": 0, "id": 29913, "job": "Production Design", "name": "Enrico Job", "profile_path": null}, {"credit_id": "52fe4c26c3a36847f8220397", "department": "Costume & Make-Up", "gender": 0, "id": 1141908, "job": "Costume Design", "name": "Gino Persico", "profile_path": null}, {"credit_id": "52fe4c26c3a36847f822039d", "department": "Costume & Make-Up", "gender": 0, "id": 1141909, "job": "Hairstylist", "name": "Carlo Barucci", "profile_path": null}, {"credit_id": "52fe4c26c3a36847f82203a3", "department": "Production", "gender": 0, "id": 1141910, "job": "Production Manager", "name": "Vincenzo Santangelo", "profile_path": null}, {"credit_id": "52fe4c26c3a36847f82203a9", "department": "Sound", "gender": 0, "id": 1141911, "job": "Sound Effects Editor", "name": "Stefano Di Fiore", "profile_path": null}, {"credit_id": "52fe4c26c3a36847f82203af", "department": "Sound", "gender": 0, "id": 1141912, "job": "Sound mixer", "name": "Alberto Doni", "profile_path": null}, {"credit_id": "52fe4c26c3a36847f82203b5", "department": "Camera", "gender": 0, "id": 1110561, "job": "Camera Technician", "name": "Federico Angelucci", "profile_path": null}, {"credit_id": "52fe4c26c3a36847f82203bb", "department": "Camera", "gender": 0, "id": 1141913, "job": "Camera Technician", "name": "Ermanno Lubich", "profile_path": null}, {"credit_id": "52fe4c26c3a36847f82203c1", "department": "Camera", "gender": 0, "id": 1141914, "job": "Grip", "name": "Emanuele Salvatore", "profile_path": null}, {"credit_id": "52fe4c26c3a36847f82203ff", "department": "Writing", "gender": 0, "id": 239917, "job": "Writer", "name": "Ugo Pirro", "profile_path": null}, {"credit_id": "52fe4c26c3a36847f8220405", "department": "Writing", "gender": 0, "id": 1141923, "job": "Novel", "name": "Domenico Rea", "profile_path": null}, {"credit_id": "52fe4c26c3a36847f822040b", "department": "Writing", "gender": 1, "id": 26265, "job": "Writer", "name": "Lina Wertm\u00fcller", "profile_path": "/baT0AuD8ZfRlR3R6zNJloBa1n2x.jpg"}, {"credit_id": "57465fb8c3a368069b000c4a", "department": "Camera", "gender": 2, "id": 26267, "job": "Director of Photography", "name": "Ennio Guarnieri", "profile_path": null}]}}