{"adult": false, "backdrop_path": "/vTbKGcloqSnzzzVaT9zJ9dnQjTP.jpg", "belongs_to_collection": null, "budget": 0, "genres": [{"id": 99, "name": "Documentary"}], "homepage": null, "id": 16117, "imdb_id": "tt0939681", "original_language": "en", "original_title": "What Would Jesus Buy?", "overview": "A serious docu-comedy about the commercialization of Christmas. What Would Jesus Buy? follows Reverend Billy and the Church of Stop Shopping Gospel Choir as they go on a cross-country mission to save Christmas from the Shopocalypse: the end of mankind from consumerism, over-consumption and the fires of eternal debt!", "popularity": 3.198, "poster_path": "/UJTFRKmihynJvOvYE4n2vg0Rko.jpg", "production_companies": [{"id": 3950, "logo_path": null, "name": "Palisades Pictures", "origin_country": ""}, {"id": 3951, "logo_path": null, "name": "Warrior Poets", "origin_country": "US"}, {"id": 8733, "logo_path": null, "name": "Wider Film Projects", "origin_country": ""}], "production_countries": [{"iso_3166_1": "US", "name": "United States of America"}], "release_date": "2007-03-11", "revenue": 0, "runtime": 91, "spoken_languages": [{"iso_639_1": "en", "name": "English"}], "status": "Released", "tagline": "", "title": "What Would Jesus Buy?", "video": false, "vote_average": 6.0, "vote_count": 9, "keywords": {"keywords": [{"id": 6490, "name": "shopping mall"}, {"id": 10907, "name": "consumerism"}]}, "similar": {"page": 1, "results": [{"id": 256961, "video": false, "vote_count": 982, "vote_average": 5.0, "title": "Paul Blart: Mall Cop 2", "release_date": "2015-04-16", "original_language": "en", "original_title": "Paul Blart: Mall Cop 2", "genre_ids": [28, 35, 10751], "backdrop_path": "/5W6XO9KjLRY6W9wGojpzK8EqEgQ.jpg", "adult": false, "overview": "Security guard Paul Blart is headed to Las Vegas to attend a Security Guard Expo with his teenage daughter Maya before she departs for college. While at the convention, he inadvertently discovers a heist - and it's up to Blart to apprehend the criminals.", "poster_path": "/oENngJWMtyH19LERE9DfLHkFBu6.jpg", "popularity": 30.624}, {"adult": false, "backdrop_path": "/q3eNcig4YFEsUTnmIYDA90FdndO.jpg", "genre_ids": [10402, 35, 28, 80], "id": 525, "original_language": "en", "original_title": "The Blues Brothers", "overview": "Jake Blues is just out of jail, and teams up with his brother, Elwood on a 'mission from God' to raise funds for the orphanage in which they grew up. The only thing they can do is do what they do best: play music. So they get their old band together, and set out on their way\u2014while getting in a bit of trouble here and there.", "poster_path": "/6hesUNBkpVRqBTBw2HlTg0h8b56.jpg", "release_date": "1980-06-17", "title": "The Blues Brothers", "video": false, "vote_average": 7.7, "vote_count": 2298, "popularity": 17.917}, {"adult": false, "backdrop_path": "/eI1awbf14cA2ds7gtQHZLdLTxrY.jpg", "genre_ids": [35], "id": 10426, "original_language": "en", "original_title": "Friday After Next", "overview": "Craig and Day Day have finally moved out of their parents houses and into their own crib. The cousins work nights at a local mall as security guards. When their house is robbed on Christmas Eve they team up to track him down.", "poster_path": "/pB49Sg3v247oHFPNvQLJDiX4OgA.jpg", "release_date": "2002-11-22", "title": "Friday After Next", "video": false, "vote_average": 6.1, "vote_count": 194, "popularity": 15.777}, {"id": 20048, "video": false, "vote_count": 1815, "vote_average": 6.4, "title": "Confessions of a Shopaholic", "release_date": "2009-02-05", "original_language": "en", "original_title": "Confessions of a Shopaholic", "genre_ids": [35, 10749], "backdrop_path": "/npNh1FMJgWrmq01bfYysGzuD4pX.jpg", "adult": false, "overview": "In the glamorous world of New York City, Rebecca Bloomwood is a fun-loving girl who is really good at shopping-a little too good, perhaps. She dreams of working for her favorite fashion magazine, but can't quite get her foot in the door-until ironically, she snags a job as an advice columnist for a financial magazine published by the same company.", "poster_path": "/8gCZJ8gOxd22Spz1MKiu4b54T2r.jpg", "popularity": 20.763}, {"id": 13342, "video": false, "vote_count": 638, "vote_average": 6.9, "title": "Fast Times at Ridgemont High", "release_date": "1982-08-13", "original_language": "en", "original_title": "Fast Times at Ridgemont High", "genre_ids": [35, 18], "backdrop_path": "/l23IoHAfjTdNMZLeDetr75H6sb7.jpg", "adult": false, "overview": "Follows a group of high school students growing up in southern California, based on the real-life adventures chronicled by Cameron Crowe. Stacy Hamilton and Mark Ratner are looking for a love interest, and are helped along by their older classmates, Linda Barrett and Mike Damone, respectively. The center of the film is held by Jeff Spicoli, a perpetually stoned surfer dude who faces off with the resolute Mr. Hand, who is convinced that everyone is on dope.", "poster_path": "/lvEenO2CikD4Zo3rFK1flAU99Pr.jpg", "popularity": 14.454}, {"adult": false, "backdrop_path": "/ckNp6LPhp1roR8dVI16q5u3LUMg.jpg", "genre_ids": [53, 9648, 27], "id": 463684, "original_language": "en", "original_title": "Velvet Buzzsaw", "overview": "Big money artists and mega-collectors pay a high price when art collides with commerce.\u00a0After a series of paintings by an unknown artist are discovered, a supernatural force enacts revenge on those who have allowed their greed to get in the way of art.", "poster_path": "/3rViQPcrWthMNecp5XnkKev6BzW.jpg", "release_date": "2019-02-01", "title": "Velvet Buzzsaw", "video": false, "vote_average": 5.3, "vote_count": 1092, "popularity": 17.923}, {"id": 338964, "video": false, "vote_count": 461, "vote_average": 5.3, "title": "Bad Santa 2", "release_date": "2016-11-23", "original_language": "en", "original_title": "Bad Santa 2", "genre_ids": [35, 80, 18, 9648], "backdrop_path": "/9tB94sgqEYlGbsJzYaGdqeYF6iF.jpg", "adult": false, "overview": "Fueled by cheap whiskey, greed and hatred, Willie Soke teams up with his angry little sidekick, Marcus, to knock off a Chicago charity on Christmas Eve. Along for the ride is chubby and cheery Thurman Merman, a 250-pound ray of sunshine who brings out Willie's sliver of humanity. Issues arise when the pair are joined by Willie's horror story of a mother, who raises the bar for the gang's ambitions, while somehow lowering the standards of criminal behavior.", "poster_path": "/y3kVZVknjDeLZSanLewaXsuwP12.jpg", "popularity": 16.508}, {"id": 11852, "video": false, "vote_count": 881, "vote_average": 5.7, "title": "The Hot Chick", "release_date": "2002-12-13", "original_language": "en", "original_title": "The Hot Chick", "genre_ids": [35, 14], "backdrop_path": "/lRCpAiSMLSpPtc3hiPUBbdbcgXn.jpg", "adult": false, "overview": "Not only is Jessica Spencer the most popular girl in school -- she is also the meanest. But things change for the attractive teen when a freak accident involving a cursed pair of earrings and a chance encounter at a gas station causes her to switch bodies with Clive, a sleazy crook. Jessica, in the form of the repulsive Clive, struggles to adjust to this radical alteration and sets out to get her own body back before the upcoming prom.", "poster_path": "/7VxJmoWobDdARhEkU8mIiZwWEj8.jpg", "popularity": 17.123}, {"id": 10869, "video": false, "vote_count": 174, "vote_average": 5.9, "title": "Herbie Rides Again", "release_date": "1974-02-14", "original_language": "en", "original_title": "Herbie Rides Again", "genre_ids": [35, 14, 10749, 10751], "backdrop_path": "/3b7KBWUVoAN9sc90gvyZwX30cFV.jpg", "adult": false, "overview": "The living Volkswagen Beetle helps an old lady protect her home from a corrupt developer.", "poster_path": "/1zwUtG1kwpJGtVqidpOrarswUB0.jpg", "popularity": 13.995}, {"id": 460846, "video": false, "vote_count": 393, "vote_average": 6.0, "title": "Security", "release_date": "2017-03-04", "original_language": "en", "original_title": "Security", "genre_ids": [28, 80, 53], "backdrop_path": "/tTxuPQGhcnxbUamaX4uMkA7onSt.jpg", "adult": false, "overview": "An ex-special services veteran, down on his luck and desperate for work, takes a job as a security guard at a run-down mall in a rough area of town. On his first night on the job, he opens the door to a distraught and desperate young girl who has fled the hijacking of a Police motorcade that was transporting her to testify as a witness in a trial. Hot on her heels is the psychopathic hijacker and his team of henchmen, who will stop at nothing to extract and eliminate the witness.", "poster_path": "/9FN5n8wGYrfSJaKGF9uObdKimIh.jpg", "popularity": 14.418}, {"adult": false, "backdrop_path": "/ao1V73JXBoPiRi5ScAKr5Dtn74i.jpg", "genre_ids": [18, 14, 27], "id": 58129, "original_language": "sv", "original_title": "K\u00f6rkarlen", "overview": "It's New Year's Eve. Three drunkards evoke a legend. The legend tells that the last person to die in a year, if he is a great sinner, will have to drive during the whole year the Phantom Chariot, that picks up the souls of the dead.", "poster_path": "/wjFmT2cIWBOYBSEOJvKGTFrqu2H.jpg", "release_date": "1921-01-01", "title": "The Phantom Carriage", "video": false, "vote_average": 8.0, "vote_count": 132, "popularity": 7.83}, {"id": 2357, "video": false, "vote_count": 118, "vote_average": 6.2, "title": "10 Items or Less", "release_date": "2006-09-11", "original_language": "en", "original_title": "10 Items or Less", "genre_ids": [35, 18], "backdrop_path": "/68AKqBAJIjcvAU7Wuh39zvTxOIn.jpg", "adult": false, "overview": "An actor who is considering the role of a supermarket manager arrives at a grocery store on the outskirts of Los Angeles to do some field research. He subsequently becomes stranded, without a car or cell phone, and accepts a ride home with Scarlet, a cashier who is about to interview for a new job. The actor rediscovers the essence of his craft while helping Scarlet gain the confidence she needs to change her life.", "poster_path": "/zBKOY3fJNQZ88VNM7oLz1l7aBZF.jpg", "popularity": 8.683}, {"id": 28941, "video": false, "vote_count": 134, "vote_average": 5.6, "title": "Chopping Mall", "release_date": "1986-03-21", "original_language": "en", "original_title": "Chopping Mall", "genre_ids": [27, 878], "backdrop_path": "/736aWFGVxc4n8pcWjMGWdpfHOHv.jpg", "adult": false, "overview": "A group of teenagers that work at the mall all get together for a late night party in one of the stores. When the mall goes on lock down before they can get out, the robot security system activates after a malfunction and goes on a killing spree. One by one the three bots try to rid the mall of the \u201cintruders.\u201d The only weapons the kids can use are the supplies in other stores, or if they can make it till morning when the mall opens back up.", "poster_path": "/7DaVAMaXmqDyzkwHqnSJ00p9MDR.jpg", "popularity": 10.222}, {"adult": false, "backdrop_path": "/9sAzNnHAnr7ZOlu5b1UmH5qYFAA.jpg", "genre_ids": [80, 18, 53], "id": 25338, "original_language": "en", "original_title": "The Silent Partner", "overview": "Toronto, Canada. A few days before Christmas, Miles Cullen, a bored teller working at a bank branch located in a shopping mall, accidentally learns that the place is about to be robbed when he finds a disconcerting note on one of the counters\u2026", "poster_path": "/mN5kB6uXIKETr2DcsG0u3wSFolN.jpg", "release_date": "1978-09-07", "title": "The Silent Partner", "video": false, "vote_average": 7.2, "vote_count": 49, "popularity": 5.491}, {"adult": false, "backdrop_path": "/3wFeNr1TBXeGNnjKWDZVxXNVY4J.jpg", "genre_ids": [99], "id": 29595, "original_language": "en", "original_title": "Wal-Mart: The High Cost of Low Price", "overview": "This documentary takes the viewer on a deeply personal journey into the everyday lives of families struggling to fight Goliath. From a family business owner in the Midwest to a preacher in California, from workers in Florida to a poet in Mexico, dozens of film crews on three continents bring the intensely personal stories of an assault on families and American values.", "poster_path": "/6jh2yA236Dh6TX7hya0qbrnAQtK.jpg", "release_date": "2005-11-04", "title": "Wal-Mart: The High Cost of Low Price", "video": false, "vote_average": 6.5, "vote_count": 45, "popularity": 6.459}, {"id": 37696, "video": false, "vote_count": 83, "vote_average": 5.7, "title": "Fear X", "release_date": "2003-01-13", "original_language": "en", "original_title": "Fear X", "genre_ids": [27, 9648, 53], "backdrop_path": "/161YuffywK7aoyjNRoQHle9ZWBV.jpg", "adult": false, "overview": "When his wife is killed in a seemingly random incident Harry, prompted by mysterious visions, journeys to discover the true circumstances surrounding her murder.", "poster_path": "/xzGSWSOAutfTkTL1okuER8sgwF7.jpg", "popularity": 6.243}, {"adult": false, "backdrop_path": "/pcGmsudsYgRGa16w7k6ozxkY0D6.jpg", "genre_ids": [99, 35], "id": 290438, "original_language": "is", "original_title": "Mj\u00f3ddin sl\u00e1 \u00ed gegn", "overview": "A Eurovision singer, Iceland's strongest woman, a male model, a plumber who wants to direct movies. They all work in the shopping mall that this documentary focuses on ... most of them want to get out, even just to the bigger mall down the road.", "poster_path": "/6RFTDDTrqsyrcFO3KlyqEaJK4S7.jpg", "release_date": "2004-03-06", "title": "Small Mall", "video": false, "vote_average": 10.0, "vote_count": 1, "popularity": 0.626}, {"id": 20785, "video": false, "vote_count": 29, "vote_average": 7.3, "title": "Emmet Otter's Jug-Band Christmas", "release_date": "1977-12-17", "original_language": "en", "original_title": "Emmet Otter's Jug-Band Christmas", "genre_ids": [35, 18, 10402, 10751], "backdrop_path": "/gLuEPQIMaZ2FDCpXNhSfjSJOskb.jpg", "adult": false, "overview": "A poor otter family risks everything for the chance to win the cash prize of a talent contest for Christmas.", "poster_path": "/7k8FAViJEKlTyJ9OAstVNGMywFQ.jpg", "popularity": 3.217}, {"id": 2644, "video": false, "vote_count": 26, "vote_average": 6.6, "title": "Aces Go Places", "release_date": "1982-01-16", "original_language": "cn", "original_title": "\u6700\u4f73\u62cd\u6a94", "genre_ids": [28, 35], "backdrop_path": "/nIpgQXmWaLPXX7GMz9fkTOQucmd.jpg", "adult": false, "overview": "King Kong, a clever thief who steals a cache of diamonds from some gangsters, frames another thief called White Glove for the crime. That's when the bald detective Albert Au, who has been chasing King Kong for quite some time, pairs with the volatile female Superintendent Ho to bring him to justice. King Kong ends up joining the good guys to defeat White Glove and another bad guy dubbed Mad Max, and recover the diamonds from the hiding place where they were left by King Kong's dead accomplice.", "poster_path": "/q6jusYR4PuCs6YzVGLXU5to3prB.jpg", "popularity": 4.134}, {"adult": false, "backdrop_path": "/uqvuXnEdnBHTALNuwy9APrQsua6.jpg", "genre_ids": [27, 35], "id": 24916, "original_language": "cn", "original_title": "\u751f\u5316\u58fd\u5c4d", "overview": "A group of young shoppers and employees must band together when a zombie outbreak over runs their Hong Kong shopping center in the middle of the shopping day.", "poster_path": "/oBjYa5N4VyDIkhKIxmKcnokMX2C.jpg", "release_date": "1998-06-11", "title": "Bio Zombie", "video": false, "vote_average": 6.0, "vote_count": 25, "popularity": 2.931}], "total_pages": 4, "total_results": 78}, "recommendations": {"page": 1, "results": [{"id": 155399, "video": false, "vote_count": 10, "vote_average": 3.6, "title": "The Day the Earth Froze", "release_date": "1959-08-24", "original_language": "fi", "original_title": "Sampo", "genre_ids": [12, 14], "backdrop_path": "/iFHreNVsm7rqJBbhlUEoDslRml0.jpg", "adult": false, "overview": "Based on Finnish mythology, this movie traces the exploits of Lemmink\u00e4inen as he woos the fair Annikki and battles the evil witch Louhi. Louhi kidnaps Annikki to compel her father to build for her a Sampo, a magical device that creates salt, grain, and gold. When Lemmink\u00e4inen tries (and fails) to recover the Sampo, Louhi steals the sun, plunging the world into frozen darkness.", "poster_path": "/jZLKbEbi8ycUyCXdm66dKAq9bTa.jpg", "popularity": 3.538}], "total_pages": 1, "total_results": 1}, "credits": {"cast": [{"cast_id": 2, "character": "Reverend Billy", "credit_id": "52fe46a49251416c7507ec35", "gender": 2, "id": 87380, "name": "Reverend Billy", "order": 0, "profile_path": null}, {"cast_id": 3, "character": "Choir Director", "credit_id": "52fe46a49251416c7507ec39", "gender": 0, "id": 132558, "name": "James Solomon Benn", "order": 1, "profile_path": null}, {"cast_id": 4, "character": "Church Director", "credit_id": "52fe46a49251416c7507ec3d", "gender": 0, "id": 555250, "name": "Savitri Durkee", "order": 2, "profile_path": null}], "crew": [{"credit_id": "52fe46a49251416c7507ec31", "department": "Directing", "gender": 2, "id": 87379, "job": "Director", "name": "Rob VanAlkemade", "profile_path": "/hVrOlm2AENQxY1oHAx7EdNnwxtD.jpg"}]}}