{"adult": false, "backdrop_path": "/h47reXy5GWVkapjrSsCf1QwNIUk.jpg", "belongs_to_collection": null, "budget": 0, "genres": [{"id": 53, "name": "Thriller"}, {"id": 28, "name": "Action"}, {"id": 80, "name": "Crime"}], "homepage": null, "id": 161413, "imdb_id": "tt0172919", "original_language": "it", "original_title": "Operazione Kappa: sparate a vista", "overview": "Two thugs take 15 people hostage and demand a ransom from the authorities million dollars in gold, a car and a plane to get out of the country.", "popularity": 2.545, "poster_path": "/tQHAMmLX4IfnXRJTwuagJPZy62Z.jpg", "production_companies": [{"id": 28526, "logo_path": null, "name": "Filmday Productions", "origin_country": ""}], "production_countries": [{"iso_3166_1": "IT", "name": "Italy"}], "release_date": "1977-06-22", "revenue": 0, "runtime": 91, "spoken_languages": [], "status": "Released", "tagline": "", "title": "Day of Violence", "video": false, "vote_average": 0.0, "vote_count": 0, "keywords": {"keywords": [{"id": 7188, "name": "hostage-taking"}]}, "similar": {"page": 1, "results": [{"id": 11667, "video": false, "vote_count": 735, "vote_average": 4.3, "title": "Street Fighter", "release_date": "1994-12-22", "original_language": "en", "original_title": "Street Fighter", "genre_ids": [28, 12, 18, 878, 53], "backdrop_path": "/kx9hVXtX8iSbbCwCbuUovbKrWyH.jpg", "adult": false, "overview": "Col. Guile and various other martial arts heroes fight against the tyranny of Dictator M. Bison and his cohorts.", "poster_path": "/1Q5YdK91oJBXJcbCuZhKXeY4vP1.jpg", "popularity": 14.397}, {"adult": false, "backdrop_path": "/o0MuugfsothnpJUpWB2MLACurRv.jpg", "genre_ids": [12, 28, 35], "id": 11373, "original_language": "sr", "original_title": "Jagoda u supermarketu", "overview": "Ex-soldier storms supermarket and takes all cashiers captive because one of them insulted his grandmother.", "poster_path": "/lMb9aOWx4tA2WyVCEoNeOP6EaJO.jpg", "release_date": "2003-02-06", "title": "Jagoda in the Supermarket", "video": false, "vote_average": 7.0, "vote_count": 23, "popularity": 3.026}, {"id": 8333, "video": false, "vote_count": 207, "vote_average": 7.5, "title": "The Taking of Pelham One Two Three", "release_date": "1974-10-02", "original_language": "en", "original_title": "The Taking of Pelham One Two Three", "genre_ids": [28, 80, 53], "backdrop_path": "/3QgM4RiF3Qcnba5gMO35746NLNC.jpg", "adult": false, "overview": "In New York, armed men hijack a subway car and demand a ransom for the passengers. Even if it's paid, how could they get away?", "poster_path": "/1S4gSWEiSTbf68fzVjnh7HcNdxG.jpg", "popularity": 9.893}, {"adult": false, "backdrop_path": "/lx9eC0e98ZrdU0y55LrydS8CMMp.jpg", "genre_ids": [28, 12, 80, 18, 9648, 53], "id": 9631, "original_language": "en", "original_title": "The Negotiator", "overview": "The police try to arrest expert hostage negotiator Danny Roman, who insists he's being framed for his partner's murder in what he believes is an elaborate conspiracy. Thinking there's evidence in the Internal Affairs offices that might clear him, he takes everyone in the office hostage and demands that another well-known negotiator be brought in to handle the situation and secretly investigate the conspiracy.", "poster_path": "/u4LQDr6QB5i7dz3sMuP8u3EOd3D.jpg", "release_date": "1998-07-29", "title": "The Negotiator", "video": false, "vote_average": 7.0, "vote_count": 1082, "popularity": 18.49}, {"adult": false, "backdrop_path": "/pJ6v9gMB2OCtnkLrtk0pl2otUE4.jpg", "genre_ids": [28, 53], "id": 9772, "original_language": "en", "original_title": "Air Force One", "overview": "Russian terrorists conspire to hijack the aircraft with the president and his family on board. The commander in chief finds himself facing an impossible predicament: give in to the terrorists and sacrifice his family, or risk everything to uphold his principles - and the integrity of the nation.", "poster_path": "/zgg8psC8jvNEx5RC4NJ4c9J0KtE.jpg", "release_date": "1997-07-25", "title": "Air Force One", "video": false, "vote_average": 6.4, "vote_count": 1566, "popularity": 17.096}, {"id": 437626, "video": false, "vote_count": 110, "vote_average": 5.8, "title": "Stockholm", "release_date": "2019-04-12", "original_language": "en", "original_title": "Stockholm", "genre_ids": [35, 80], "backdrop_path": "/hTFGxpVQoDTC8kN5aJ7qgY2eWG4.jpg", "adult": false, "overview": "Based on the extraordinary true story of the European city\u2019s 1973 bank heist and hostage crisis that was documented in the 1974 New Yorker article \u201cThe Bank Drama\u201d by Daniel Lang. The events grasped the world\u2019s attention when the hostages bonded with their captors and turned against the authorities, giving rise to the psychological phenomenon known as \u201cStockholm Syndrome.\u201d", "poster_path": "/ko3AS33BLNEBcp1CO4FvdRltTxr.jpg", "popularity": 9.817}, {"adult": false, "backdrop_path": "/nNH43KDwtiXJIie6oviBIEwE8xd.jpg", "genre_ids": [878, 28, 12, 53], "id": 172, "original_language": "en", "original_title": "Star Trek V: The Final Frontier", "overview": "Capt. Kirk and his crew must deal with Mr. Spock's half brother who kidnaps three diplomats and hijacks the Enterprise in his obsessive search for God.", "poster_path": "/kugwPq2E5IkzrgoxRycnoqqUS9H.jpg", "release_date": "1989-06-09", "title": "Star Trek V: The Final Frontier", "video": false, "vote_average": 5.7, "vote_count": 635, "popularity": 12.906}, {"adult": false, "backdrop_path": "/24JDK9dRRRzkBjHBsKQIGs7sBkj.jpg", "genre_ids": [53, 18], "id": 303858, "original_language": "en", "original_title": "Money Monster", "overview": "Financial TV host Lee Gates and his producer Patty are put in an extreme situation when an irate investor takes over their studio.", "poster_path": "/p7KDmC2beuKCCMO49L767OgwLQr.jpg", "release_date": "2016-05-12", "title": "Money Monster", "video": false, "vote_average": 6.4, "vote_count": 2031, "popularity": 13.066}, {"id": 8860, "video": false, "vote_count": 267, "vote_average": 5.6, "title": "Metro", "release_date": "1997-01-16", "original_language": "en", "original_title": "Metro", "genre_ids": [28, 12, 35, 80, 53], "backdrop_path": "/l9eGd6Ide9JoLK9hDZdlT6R0eAV.jpg", "adult": false, "overview": "Roper, a hostage negotiator catches a murderous bank robber after a blown heist. The bank robber escapes and immediately goes after the man who put him behind bars.", "poster_path": "/5fLP5go9bMQImOZUo72YLcHspau.jpg", "popularity": 10.42}, {"adult": false, "backdrop_path": "/1D0vEL7GUnf6GIa5aZQQNrHuWqf.jpg", "genre_ids": [27, 35, 80, 53], "id": 13849, "original_language": "en", "original_title": "The Cottage", "overview": "In a remote part of the countryside, a bungled kidnapping turns into a living nightmare for four central characters when they cross paths with a psychopathic farmer and all hell breaks loose.", "poster_path": "/gh08eCKFWZC1gfYH6L3dKNu2HTr.jpg", "release_date": "2008-02-07", "title": "The Cottage", "video": false, "vote_average": 6.1, "vote_count": 135, "popularity": 8.683}, {"adult": false, "backdrop_path": "/ieJ5ImFoJILNULvnIpbulAln7Lr.jpg", "genre_ids": [12, 28, 53, 878], "id": 14869, "original_language": "en", "original_title": "G.I. Joe: The Rise of Cobra", "overview": "From the Egyptian desert to deep below the polar ice caps, the elite G.I. JOE team uses the latest in next-generation spy and military equipment to fight the corrupt arms dealer Destro and the growing threat of the mysterious Cobra organization to prevent them from plunging the world into chaos.", "poster_path": "/29eW5c5DaCFQejdt9V14RrA51yD.jpg", "release_date": "2009-08-04", "title": "G.I. Joe: The Rise of Cobra", "video": false, "vote_average": 5.7, "vote_count": 3082, "popularity": 22.639}, {"id": 156022, "video": false, "vote_count": 5468, "vote_average": 7.2, "title": "The Equalizer", "release_date": "2014-09-24", "original_language": "en", "original_title": "The Equalizer", "genre_ids": [28, 80, 53], "backdrop_path": "/vbl4ZVqelrrzJ16fdDOq9siWbpi.jpg", "adult": false, "overview": "McCall believes he has put his mysterious past behind him and dedicated himself to beginning a new, quiet life. But when he meets Teri, a young girl under the control of ultra-violent Russian gangsters, he can\u2019t stand idly by \u2013 he has to help her. Armed with hidden skills that allow him to serve vengeance against anyone who would brutalize the helpless, McCall comes out of his self-imposed retirement and finds his desire for justice reawakened. If someone has a problem, if the odds are stacked against them, if they have nowhere else to turn, McCall will help. He is The Equalizer.", "poster_path": "/2eQfjqlvPAxd9aLDs8DvsKLnfed.jpg", "popularity": 39.578}, {"adult": false, "backdrop_path": "/cLGKawjQ5tUJCuDyR0OnGYT4fyf.jpg", "genre_ids": [18, 53, 80], "id": 146233, "original_language": "en", "original_title": "Prisoners", "overview": "When Keller Dover's daughter and her friend go missing, he takes matters into his own hands as the police pursue multiple leads and the pressure mounts. But just how far will this desperate father go to protect his family?", "poster_path": "/yAhqW57pwMAsCgmZpM5zSIVQVTh.jpg", "release_date": "2013-09-18", "title": "Prisoners", "video": false, "vote_average": 8.0, "vote_count": 6410, "popularity": 24.427}, {"adult": false, "backdrop_path": "/a24i4Qw6qFTtkFLQsncv8WPwevj.jpg", "genre_ids": [53, 28, 80], "id": 345887, "original_language": "en", "original_title": "The Equalizer 2", "overview": "Robert McCall, who serves an unflinching justice for the exploited and oppressed, embarks on a relentless, globe-trotting quest for vengeance when a long-time girl friend is murdered.", "poster_path": "/cQvc9N6JiMVKqol3wcYrGshsIdZ.jpg", "release_date": "2018-07-19", "title": "The Equalizer 2", "video": false, "vote_average": 6.5, "vote_count": 2482, "popularity": 24.261}, {"id": 49026, "video": false, "vote_count": 15150, "vote_average": 7.7, "title": "The Dark Knight Rises", "release_date": "2012-07-16", "original_language": "en", "original_title": "The Dark Knight Rises", "genre_ids": [28, 80, 18, 53], "backdrop_path": "/f6ljQGv7WnJuwBPty017oPWfqjx.jpg", "adult": false, "overview": "Following the death of District Attorney Harvey Dent, Batman assumes responsibility for Dent's crimes to protect the late attorney's reputation and is subsequently hunted by the Gotham City Police Department. Eight years later, Batman encounters the mysterious Selina Kyle and the villainous Bane, a new terrorist leader who overwhelms Gotham's finest. The Dark Knight resurfaces to protect a city that has branded him an enemy.", "poster_path": "/dEYnvnUfXrqvqeRSqvIEtmzhoA8.jpg", "popularity": 43.144}, {"id": 137094, "video": false, "vote_count": 1851, "vote_average": 6.1, "title": "Jack Ryan: Shadow Recruit", "release_date": "2014-01-15", "original_language": "en", "original_title": "Jack Ryan: Shadow Recruit", "genre_ids": [28, 18, 53], "backdrop_path": "/7WURHOyx05AWAoNcBGp72clvB49.jpg", "adult": false, "overview": "Jack Ryan, as a young covert CIA analyst, uncovers a Russian plot to crash the U.S. economy with a terrorist attack.", "poster_path": "/jBibISmRBUO35p0Picv0nOo33sc.jpg", "popularity": 19.704}, {"id": 1538, "video": false, "vote_count": 2891, "vote_average": 7.2, "title": "Collateral", "release_date": "2004-08-04", "original_language": "en", "original_title": "Collateral", "genre_ids": [80, 18, 53], "backdrop_path": "/hFcXrnmciPfIg8ZcXb1V7BeguF.jpg", "adult": false, "overview": "Cab driver Max picks up a man who offers him $600 to drive him around. But the promise of easy money sours when Max realizes his fare is an assassin.", "poster_path": "/fmkv2eRuYCTq7A5jzMBNgoNe1vA.jpg", "popularity": 22.701}, {"adult": false, "backdrop_path": "/yo3LesueMprtgjRiIRmjiIrFIKj.jpg", "genre_ids": [28, 53], "id": 1571, "original_language": "en", "original_title": "Live Free or Die Hard", "overview": "John McClane is back and badder than ever, and this time he's working for Homeland Security. He calls on the services of a young hacker in his bid to stop a ring of Internet terrorists intent on taking control of America's computer infrastructure.", "poster_path": "/pHWgbaXiQD2nmex7u8Xv6XmhaZS.jpg", "release_date": "2007-06-20", "title": "Live Free or Die Hard", "video": false, "vote_average": 6.5, "vote_count": 3588, "popularity": 24.743}, {"id": 535292, "video": false, "vote_count": 109, "vote_average": 6.5, "title": "21 Bridges", "release_date": "2019-10-24", "original_language": "en", "original_title": "21 Bridges", "genre_ids": [28, 80, 18, 53], "backdrop_path": "/blUCzzkFNWrur18J0BvIYBdbquv.jpg", "adult": false, "overview": "A disgraced NYPD detective after being thrust into a citywide manhunt for a cop killer, is given a shot at redemption.", "poster_path": "/bSN9SysoRBMwJKNkfOlQlCw2YQO.jpg", "popularity": 30.138}, {"adult": false, "backdrop_path": "/eg049B1TJdWuKuyKowNmhZxNToc.jpg", "genre_ids": [28, 53], "id": 562, "original_language": "en", "original_title": "Die Hard", "overview": "NYPD cop John McClane's plan to reconcile with his estranged wife is thrown for a serious loop when, minutes after he arrives at her office, the entire building is overtaken by a group of terrorists. With little help from the LAPD, wisecracking McClane sets out to single-handedly rescue the hostages and bring the bad guys down.", "poster_path": "/fiXHtnQpQiGVkMtyYnEfQ6Gtfx8.jpg", "release_date": "1988-07-15", "title": "Die Hard", "video": false, "vote_average": 7.7, "vote_count": 6810, "popularity": 32.473}], "total_pages": 14, "total_results": 269}, "recommendations": {"page": 1, "results": [], "total_pages": 1, "total_results": 0}, "credits": {"cast": [{"cast_id": 0, "character": "Paolo", "credit_id": "53d724490e0a260334000c14", "gender": 2, "id": 556714, "name": "Mario Cutini", "order": 1, "profile_path": "/lxu91oKnLWa5ZiTw9ps6QKTttpa.jpg"}, {"cast_id": 1, "character": "Jo Arbelli", "credit_id": "53d724550e0a260331000c6d", "gender": 0, "id": 1347266, "name": "Marco Marati", "order": 2, "profile_path": null}, {"cast_id": 4, "character": "Anna", "credit_id": "53d724f40e0a260337000c3f", "gender": 1, "id": 101127, "name": "Maria Pia Conte", "order": 3, "profile_path": "/ArxhzHejyTJQYObnWlAbplb1zlx.jpg"}, {"cast_id": 5, "character": "", "credit_id": "53d724fe0e0a260347000c2e", "gender": 0, "id": 1347267, "name": "Patricia Pilchard", "order": 4, "profile_path": null}, {"cast_id": 6, "character": "Inspector Aldobrandi (as Mario Antoni)", "credit_id": "59ec8b4fc3a3682edc00bcfd", "gender": 2, "id": 103156, "name": "Mario Bianchi", "order": 5, "profile_path": null}, {"cast_id": 7, "character": "(as Daria Norman)", "credit_id": "59ec8b5bc3a368535b008a8d", "gender": 1, "id": 147940, "name": "Maria Francesca", "order": 6, "profile_path": null}, {"cast_id": 8, "character": "Raped Woman", "credit_id": "59ec8b65925141274d0022af", "gender": 1, "id": 128061, "name": "Linda Sini", "order": 7, "profile_path": "/iIWLQtbiW2xf10KCbWYw8QPIcOs.jpg"}, {"cast_id": 9, "character": "", "credit_id": "59ec8b6fc3a368535b008aa4", "gender": 1, "id": 99482, "name": "Ely Galleani", "order": 8, "profile_path": "/2DOedcOahRKzji23YHaKly7CpRi.jpg"}], "crew": [{"credit_id": "53d724700e0a260331000c75", "department": "Directing", "gender": 0, "id": 1083202, "job": "Director", "name": "Luigi Petrini", "profile_path": null}, {"credit_id": "53d7247b0e0a260347000c11", "department": "Writing", "gender": 0, "id": 1083202, "job": "Writer", "name": "Luigi Petrini", "profile_path": null}, {"credit_id": "59ec8b8c92514124a7002334", "department": "Production", "gender": 0, "id": 1910022, "job": "Producer", "name": "Franco Vitolo", "profile_path": null}, {"credit_id": "59ec8b9a925141278300230a", "department": "Production", "gender": 1, "id": 147940, "job": "Production Manager", "name": "Maria Francesca", "profile_path": null}, {"credit_id": "5d6a61000929f60015459b9e", "department": "Sound", "gender": 0, "id": 72678, "job": "Music", "name": "Franco Bixio", "profile_path": null}, {"credit_id": "5d6a61100929f60013459f26", "department": "Sound", "gender": 2, "id": 59366, "job": "Music", "name": "Fabio Frizzi", "profile_path": "/6MGkjsEpKSxwOasSd5xpc93Gfmw.jpg"}, {"credit_id": "5d6a61249d89390013013980", "department": "Sound", "gender": 0, "id": 72679, "job": "Music", "name": "Vince Tempera", "profile_path": null}, {"credit_id": "5d6a61369d8939001401409e", "department": "Crew", "gender": 0, "id": 45578, "job": "Cinematography", "name": "Luigi Ciccarese", "profile_path": null}]}}