{"adult": false, "backdrop_path": null, "belongs_to_collection": null, "budget": 0, "genres": [], "homepage": null, "id": 161745, "imdb_id": "tt0104608", "original_language": "en", "original_title": "Kick or Die", "overview": "A sadistic rapist is atacking female students on a college campus. The college enlists the help of wealthy record producer Craig Merkel who hires his old friend Don Potter to teach the students self-defence. Don meets waitress Eve Campo who has her heart set on a singing career, so Don introduces her to Craig. However Craig has much more than her career on his mind.", "popularity": 1.96, "poster_path": "/gZqog5scHhP68sOpSbuwrMKNpPD.jpg", "production_companies": [], "production_countries": [{"iso_3166_1": "ZA", "name": "South Africa"}], "release_date": "1987-11-01", "revenue": 0, "runtime": 87, "spoken_languages": [{"iso_639_1": "en", "name": "English"}], "status": "Released", "tagline": "a mystery attacker..., a past romance..., where revenge becomes obsession!", "title": "Kick or Die", "video": false, "vote_average": 4.0, "vote_count": 2, "keywords": {"keywords": [{"id": 570, "name": "rape"}, {"id": 3436, "name": "karate"}, {"id": 15122, "name": "karate kick"}, {"id": 187910, "name": "kick"}]}, "similar": {"page": 1, "results": [{"adult": false, "backdrop_path": "/rPfyX0pkmn8Ea4gh3DfsmzFUf05.jpg", "genre_ids": [18, 27, 80], "id": 74997, "original_language": "en", "original_title": "The Human Centipede 2 (Full Sequence)", "overview": "Inspired by the fictional Dr. Heiter, disturbed loner Martin dreams of creating a 12-person centipede and sets out to realize his sick fantasy.", "poster_path": "/kFtAdkCO0vXN2RWu2oMcR9GZ9Hi.jpg", "release_date": "2011-10-06", "title": "The Human Centipede 2 (Full Sequence)", "video": false, "vote_average": 4.5, "vote_count": 674, "popularity": 14.216}, {"adult": false, "backdrop_path": "/kiWvoV78Cc3fUwkOHKzyBgVdrDD.jpg", "genre_ids": [37, 18, 12], "id": 281957, "original_language": "en", "original_title": "The Revenant", "overview": "In the 1820s, a frontiersman, Hugh Glass, sets out on a path of vengeance against those who left him for dead after a bear mauling.", "poster_path": "/oXUWEc5i3wYyFnL1Ycu8ppxxPvs.jpg", "release_date": "2015-12-25", "title": "The Revenant", "video": false, "vote_average": 7.5, "vote_count": 12127, "popularity": 24.135}, {"adult": false, "backdrop_path": "/19qAk3bQZ6ulspbwhPw1A0bNpii.jpg", "genre_ids": [80, 27, 53], "id": 73861, "original_language": "sr", "original_title": "Srpski film", "overview": "Milos, a retired porn star, leads a normal family life trying to make ends meet. Presented with the opportunity of a lifetime to financially support his family for the rest of their lives, Milos must participate in one last mysterious film. From then on, Milos is drawn into a maelstrom of unbelievable cruelty and mayhem.", "poster_path": "/iB3ynCghwG63MrViBC6YyPzUIAn.jpg", "release_date": "2010-06-16", "title": "A Serbian Film", "video": false, "vote_average": 5.5, "vote_count": 898, "popularity": 16.013}, {"adult": false, "backdrop_path": "/o4psXh7IVD6GFKvBSHjHLzjL2lV.jpg", "genre_ids": [27, 53], "id": 10781, "original_language": "en", "original_title": "The Texas Chainsaw Massacre: The Beginning", "overview": "Chrissie and her friends set out on a road trip for a final fling before one is shipped off to Vietnam. Along the way, bikers harass the foursome and cause an accident that throws Chrissie from the vehicle. The lawman who arrives on the scene kills one of the bikers and brings Chrissie's friends to the Hewitt homestead, where young Leatherface is learning the tools of terror.", "poster_path": "/9elCJIG1TOJ0wew3JVx5ZMkHq5w.jpg", "release_date": "2006-10-06", "title": "The Texas Chainsaw Massacre: The Beginning", "video": false, "vote_average": 6.0, "vote_count": 936, "popularity": 19.211}, {"adult": false, "backdrop_path": "/a24i4Qw6qFTtkFLQsncv8WPwevj.jpg", "genre_ids": [53, 28, 80], "id": 345887, "original_language": "en", "original_title": "The Equalizer 2", "overview": "Robert McCall, who serves an unflinching justice for the exploited and oppressed, embarks on a relentless, globe-trotting quest for vengeance when a long-time girl friend is murdered.", "poster_path": "/cQvc9N6JiMVKqol3wcYrGshsIdZ.jpg", "release_date": "2018-07-19", "title": "The Equalizer 2", "video": false, "vote_average": 6.5, "vote_count": 2483, "popularity": 21.271}, {"adult": false, "backdrop_path": "/pA64Ov7lDpwXBu33yq0KpmAOYJL.jpg", "genre_ids": [27, 53], "id": 357096, "original_language": "en", "original_title": "I Spit on Your Grave III: Vengeance is Mine", "overview": "Jennifer Hills is still tormented by the brutal sexual assault she endured years ago. She\u2019s changed identities and cities, reluctantly joining a support group where she begins to piece together a new life. But when her new friend\u2019s murderer goes free and the tales of serial rapists haunt her, Jennifer will hunt down the men responsible and do what the system won\u2019t \u2013 make them pay for their crimes in the most horrific ways imaginable. Only this time, no jury may be able to save her.", "poster_path": "/6SnOlgrUoC5jqmgcYIM5lde5zYq.jpg", "release_date": "2015-10-01", "title": "I Spit on Your Grave III: Vengeance is Mine", "video": false, "vote_average": 5.3, "vote_count": 437, "popularity": 20.815}, {"id": 588, "video": false, "vote_count": 2408, "vote_average": 6.4, "title": "Silent Hill", "release_date": "2006-04-21", "original_language": "en", "original_title": "Silent Hill", "genre_ids": [27, 9648], "backdrop_path": "/6tfW4BjdgwuYSD7gaEMEEPoDcpH.jpg", "adult": false, "overview": "The eerie and deserted ghost town of Silent Hill draws a young mother desperate to find a cure for her only child's illness. Unable to accept the doctor's diagnosis that her daughter should be permanently institutionalized for psychiatric care, Rose flees with her child, heading for the abandoned town in search of answers \u2013 and ignoring the protests of her husband. It's soon clear this place is unlike anywhere she's ever been. It's smothered by fog, inhabited by a variety of strange beings and periodically overcome by a living 'darkness' that literally transforms everything it touches. As Rose searches for her little girl, she begins to learn the history of the strange town and realizes that her daughter is just a pawn in a larger game.", "poster_path": "/4Zz9cF8S4E7DITosNYh3spybYJb.jpg", "popularity": 20.72}, {"id": 8090, "video": false, "vote_count": 448, "vote_average": 6.1, "title": "Untraceable", "release_date": "2008-01-22", "original_language": "en", "original_title": "Untraceable", "genre_ids": [9648, 53], "backdrop_path": "/eXuIPt9I1xuaVddlgzEQRC2EMnJ.jpg", "adult": false, "overview": "Special Agent Jennifer Marsh (Diane Lane) works in an elite division of the FBI dedicated to fighting cybercrime. She thinks she has seen it all, until a particularly sadistic criminal arises on the Internet. This tech-savvy killer posts live feeds of his crimes on his website; the more hits the site gets, the faster the victim dies. Marsh and her team must find the elusive killer before time runs out.", "poster_path": "/ySUwDRDEn01lKIMPQorpFCMLWqE.jpg", "popularity": 14.431}, {"id": 311, "video": false, "vote_count": 2595, "vote_average": 8.4, "title": "Once Upon a Time in America", "release_date": "1984-05-23", "original_language": "en", "original_title": "Once Upon a Time in America", "genre_ids": [80, 18], "backdrop_path": "/vnT6HzjLSDrAweHn9xWykb8Ii6T.jpg", "adult": false, "overview": "A former Prohibition-era Jewish gangster returns to the Lower East Side of Manhattan over thirty years later, where he once again must confront the ghosts and regrets of his old life.", "poster_path": "/x733R4ISI0RbKeHhVkXdTMFmTFr.jpg", "popularity": 22.233}, {"id": 458594, "video": false, "vote_count": 983, "vote_average": 6.5, "title": "Peppermint", "release_date": "2018-09-06", "original_language": "en", "original_title": "Peppermint", "genre_ids": [28, 53], "backdrop_path": "/9krZX6T4EEs5eFpXgSi8jZkN48O.jpg", "adult": false, "overview": "A grieving mother transforms herself into a vigilante following the murders of her husband and daughter, eluding the authorities to deliver her own personal brand of justice.", "poster_path": "/jrzxS0vcbzIIay1sdYm0rgI2QfJ.jpg", "popularity": 18.265}, {"id": 9373, "video": false, "vote_count": 1414, "vote_average": 6.1, "title": "The Texas Chainsaw Massacre", "release_date": "2003-05-21", "original_language": "en", "original_title": "The Texas Chainsaw Massacre", "genre_ids": [27], "backdrop_path": "/3rTsJ7tIC3LUSRr80PfeLbbCfBA.jpg", "adult": false, "overview": "After picking up a traumatized young hitchhiker, five friends find themselves stalked and hunted by a deformed chainsaw-wielding killer and his family of equally psychopathic killers.", "poster_path": "/gx7FCIOFGxqNyplF3t7qtmUv55g.jpg", "popularity": 19.117}, {"id": 156022, "video": false, "vote_count": 5468, "vote_average": 7.2, "title": "The Equalizer", "release_date": "2014-09-24", "original_language": "en", "original_title": "The Equalizer", "genre_ids": [28, 80, 53], "backdrop_path": "/vbl4ZVqelrrzJ16fdDOq9siWbpi.jpg", "adult": false, "overview": "McCall believes he has put his mysterious past behind him and dedicated himself to beginning a new, quiet life. But when he meets Teri, a young girl under the control of ultra-violent Russian gangsters, he can\u2019t stand idly by \u2013 he has to help her. Armed with hidden skills that allow him to serve vengeance against anyone who would brutalize the helpless, McCall comes out of his self-imposed retirement and finds his desire for justice reawakened. If someone has a problem, if the odds are stacked against them, if they have nowhere else to turn, McCall will help. He is The Equalizer.", "poster_path": "/2eQfjqlvPAxd9aLDs8DvsKLnfed.jpg", "popularity": 39.578}, {"adult": false, "backdrop_path": "/zWGAnbxjjwY3xFGuOeR26LGbBlG.jpg", "genre_ids": [27, 53], "id": 238636, "original_language": "en", "original_title": "The Purge: Anarchy", "overview": "One night per year, the government sanctions a 12-hour period in which citizens can commit any crime they wish -- including murder -- without fear of punishment or imprisonment. Leo, a sergeant who lost his son, plans a vigilante mission of revenge during the mayhem. However, instead of a death-dealing avenger, he becomes the unexpected protector of four innocent strangers who desperately need his help if they are to survive the night.", "poster_path": "/l1DRl40x2OWUoPP42v8fjKdS1Z3.jpg", "release_date": "2014-07-17", "title": "The Purge: Anarchy", "video": false, "vote_average": 6.6, "vote_count": 4145, "popularity": 36.766}, {"id": 395834, "video": false, "vote_count": 2755, "vote_average": 7.4, "title": "Wind River", "release_date": "2017-08-03", "original_language": "en", "original_title": "Wind River", "genre_ids": [80, 18, 9648, 53], "backdrop_path": "/6B8e784decj9vtKuNjbl9Fes2aZ.jpg", "adult": false, "overview": "An FBI agent teams with the town's veteran game tracker to investigate a murder that occurred on a Native American reservation.", "poster_path": "/pySivdR845Hom4u4T2WNkJxe6Ad.jpg", "popularity": 16.931}, {"adult": false, "backdrop_path": "/fmo48Lt8XtMWeHeXJzi5SbPCJud.jpg", "genre_ids": [18, 27, 80], "id": 1696, "original_language": "en", "original_title": "The Devil's Rejects", "overview": "The sequel to House of 1000 Corpses \u2013 the Firefly family are ambushed at their isolated home by Sheriff Wydell and a squad of armed men guns blazing \u2013 yet only Otis and his sister, Baby, manage to escape the barrage of bullets unharmed. Hiding out in a backwater motel, the wanted siblings wait to rendezvous with their errant father, Captain Spaulding, killing whoever happens to stand in their way.", "poster_path": "/fj4rrpUlBpFjPaJecpjID6yqacx.jpg", "release_date": "2005-07-22", "title": "The Devil's Rejects", "video": false, "vote_average": 6.7, "vote_count": 720, "popularity": 14.155}, {"id": 489064, "video": false, "vote_count": 102, "vote_average": 6.1, "title": "3 from Hell", "release_date": "2019-09-26", "original_language": "en", "original_title": "3 from Hell", "genre_ids": [80, 27, 53], "backdrop_path": "/18XnA53LlUcfMsOyuN4JeeXBKI9.jpg", "adult": false, "overview": "After barely surviving a furious shootout with the police, Baby Firefly, Otis Driftwood and Captain Spaulding are behind bars. But pure evil cannot be contained. Teaming up with Otis\u2019 half-brother Winslow, the demented Firefly clan escape to unleash a whole new wave of murder, madness and mayhem.", "poster_path": "/wWWjBJbORsB9xt17eXmYEYhinux.jpg", "popularity": 11.673}, {"adult": false, "backdrop_path": "/ct2r3CqnA0KtMfib4AvfBU1W9M2.jpg", "genre_ids": [28, 80, 53], "id": 398175, "original_language": "en", "original_title": "Brawl in Cell Block 99", "overview": "After working as a drug courier and getting into a brutal shootout with police, a former boxer finds himself at the mercy of his enemies as they force him to instigate violent acts that turn the prison he resides in into a battleground.", "poster_path": "/lGgIQ10NJ3d0X0uFbbUN4pRrMFZ.jpg", "release_date": "2017-09-23", "title": "Brawl in Cell Block 99", "video": false, "vote_average": 6.8, "vote_count": 605, "popularity": 13.011}, {"id": 994, "video": false, "vote_count": 444, "vote_average": 7.2, "title": "Straw Dogs", "release_date": "1971-12-23", "original_language": "en", "original_title": "Straw Dogs", "genre_ids": [80, 18, 53], "backdrop_path": "/yL7uVOyvwZeP2U0zKIE3WQqoilA.jpg", "adult": false, "overview": "David Sumner, a mild-mannered academic from the United States, marries Amy, an Englishwoman. In order to escape a hectic stateside lifestyle, David and his wife relocate to the small town in rural Cornwall where Amy was raised. There, David is ostracized by the brutish men of the village, including Amy's old flame, Charlie. Eventually the taunts escalate, and two of the locals rape Amy. This sexual assault awakes a shockingly violent side of David.", "poster_path": "/yigkfHE1OhkxPPrjrV78Y9ibGEk.jpg", "popularity": 15.307}, {"id": 5336, "video": false, "vote_count": 791, "vote_average": 6.4, "title": "Sal\u00f2, or the 120 Days of Sodom", "release_date": "1975-11-22", "original_language": "it", "original_title": "Sal\u00f2 o le 120 giornate di Sodoma", "genre_ids": [18, 27, 10752], "backdrop_path": "/wWvHu8AQlyc2D5VEEmlrDj4SuQy.jpg", "adult": false, "overview": "Four corrupted fascist libertines round up 9 teenage boys and girls and subject them to 120 days of sadistic physical, mental and sexual torture.", "poster_path": "/xnaDdiRfZlJaTf6JRc4in40eaeI.jpg", "popularity": 19.141}, {"adult": false, "backdrop_path": "/iZOgAvUt6q356da1sfYz1UalNO.jpg", "genre_ids": [80, 18, 10749, 53], "id": 3134, "original_language": "fr", "original_title": "Baise-moi", "overview": "Manu has lived a difficult life. Abused and violently raped, she sets off to find herself only to meet Nadine, a prostitute who has encountered one too many injustices in the world. Angry at the world, they embark on a twisted, rage-filled road trip. They choose to have sex when they please and kill when they need. Leaving a trail of mischief and dead bodies in their wake. Generating a media blitz and manhunt, soon everyone is out to capture the young fugitives.", "poster_path": "/sLvsIgWMH9bV1IZnZOzY5dXKUHe.jpg", "release_date": "2000-06-28", "title": "Baise-moi", "video": false, "vote_average": 4.3, "vote_count": 173, "popularity": 14.535}], "total_pages": 330, "total_results": 6597}, "recommendations": {"page": 1, "results": [], "total_pages": 1, "total_results": 0}, "credits": {"cast": [{"cast_id": 8, "character": "Don Potter", "credit_id": "52fe4c4dc3a36847f8227521", "gender": 2, "id": 68758, "name": "Kevin Bernhardt", "order": 0, "profile_path": "/fmC5anKgpreSaou4M3TA0vYasf9.jpg"}, {"cast_id": 9, "character": "Eve Campo", "credit_id": "52fe4c4dc3a36847f8227525", "gender": 0, "id": 1144148, "name": "Holaday Mason", "order": 1, "profile_path": null}, {"cast_id": 10, "character": "John Campo", "credit_id": "52fe4c4dc3a36847f8227529", "gender": 0, "id": 67953, "name": "Joe Stewardson", "order": 2, "profile_path": null}, {"cast_id": 11, "character": "Craig Merkel", "credit_id": "52fe4c4dc3a36847f822752d", "gender": 0, "id": 1144149, "name": "Tim Wallace", "order": 3, "profile_path": null}], "crew": [{"credit_id": "52fe4c4dc3a36847f82274f9", "department": "Directing", "gender": 2, "id": 195972, "job": "Director", "name": "Charles Norton", "profile_path": null}, {"credit_id": "52fe4c4dc3a36847f82274ff", "department": "Writing", "gender": 2, "id": 195972, "job": "Writer", "name": "Charles Norton", "profile_path": null}, {"credit_id": "52fe4c4dc3a36847f8227505", "department": "Production", "gender": 2, "id": 1144145, "job": "Producer", "name": "Chris Davies", "profile_path": null}, {"credit_id": "52fe4c4dc3a36847f822750b", "department": "Production", "gender": 0, "id": 1144146, "job": "Producer", "name": "Lionel A. Ephraim", "profile_path": null}, {"credit_id": "52fe4c4dc3a36847f8227511", "department": "Sound", "gender": 0, "id": 232187, "job": "Original Music Composer", "name": "Jimmie Haskell", "profile_path": null}, {"credit_id": "52fe4c4dc3a36847f8227517", "department": "Crew", "gender": 0, "id": 591579, "job": "Cinematography", "name": "Hanro Mohr", "profile_path": null}, {"credit_id": "52fe4c4dc3a36847f822751d", "department": "Editing", "gender": 0, "id": 1144147, "job": "Editor", "name": "Simon Grimley", "profile_path": null}]}}