{"adult": false, "backdrop_path": null, "belongs_to_collection": null, "budget": 0, "genres": [{"id": 16, "name": "Animation"}, {"id": 35, "name": "Comedy"}], "homepage": null, "id": 161951, "imdb_id": "tt0024555", "original_language": "en", "original_title": "Shuffle Off to Buffalo", "overview": "An animated singing and dancing revue of babies (representing a variety of stereotypes) who are being prepared for delivery by stork.", "popularity": 0.77, "poster_path": "/wqNI8Fz42AdroaXLACgOYZWyyE0.jpg", "production_companies": [{"id": 9329, "logo_path": "/aue5pVfj9TcjYEOufkcuCbAL5hE.png", "name": "The Vitaphone Corporation", "origin_country": "US"}, {"id": 174, "logo_path": "/IuAlhI9eVC9Z8UQWOIDdWRKSEJ.png", "name": "Warner Bros. Pictures", "origin_country": "US"}], "production_countries": [{"iso_3166_1": "US", "name": "United States of America"}], "release_date": "1933-07-08", "revenue": 0, "runtime": 7, "spoken_languages": [{"iso_639_1": "en", "name": "English"}], "status": "Released", "tagline": "", "title": "Shuffle Off to Buffalo", "video": false, "vote_average": 4.8, "vote_count": 4, "keywords": {"keywords": [{"id": 6325, "name": "ethnic stereotype"}, {"id": 186944, "name": "celebrity caricature"}, {"id": 247646, "name": "babies"}]}, "similar": {"page": 1, "results": [{"adult": false, "backdrop_path": "/bCZ18msRssQCdS0jfxbq9FqtVcm.jpg", "genre_ids": [16, 10751, 35], "id": 53220, "original_language": "en", "original_title": "Rabbit Fire", "overview": "Daffy Duck and Bugs argue back and forth whether it is duck season or rabbit season. The object of their arguments is hunter Elmer Fudd.", "poster_path": "/2sK0wjqW9XtBNIsK16691MDTBkh.jpg", "release_date": "1951-05-19", "title": "Rabbit Fire", "video": false, "vote_average": 7.4, "vote_count": 61, "popularity": 6.556}, {"adult": false, "backdrop_path": "/2icw1NAYK5DWqPMBQfp1YyOELWb.jpg", "genre_ids": [16, 10751, 35], "id": 52954, "original_language": "en", "original_title": "Rabbit Seasoning", "overview": "The cartoon finds a row of signs saying it's rabbit season (\"If you're looking for fun, you don't need a reason. All you need is a gun, it's Rabbit Season!\"). Bugs Bunny and Daffy Duck again are arguing over which of them is \u201cin season\u201d (it is really Duck Season, as Daffy says in the beginning), while a befuddled Elmer Fudd tries to figure out which animal is telling the truth. Between using sneaky plays-on-words, and dressing himself in women's clothing (including a Lana Turner-style sweater), Bugs manages to escape unscathed, while Daffy repeatedly has his beak blown off, upside-down, and sideways by Elmer.", "poster_path": "/aonMaH4FXfqsg9sFH99t8lbmg9l.jpg", "release_date": "1952-09-20", "title": "Rabbit Seasoning", "video": false, "vote_average": 7.3, "vote_count": 74, "popularity": 6.228}, {"id": 53210, "video": false, "vote_count": 103, "vote_average": 8.2, "title": "Duck Amuck", "release_date": "1953-02-28", "original_language": "en", "original_title": "Duck Amuck", "genre_ids": [16, 35], "backdrop_path": "/3hJQ1ps5fijMO5Y5BnxiVWtbbyA.jpg", "adult": false, "overview": "The short-tempered Daffy Duck must improvise madly as the backgrounds, his costumes, the soundtrack, even his physical form, shifts and changes at the whim of the animator.", "poster_path": "/gRZYLCncLa2mzE59qY38McDlFdN.jpg", "popularity": 9.387}, {"id": 53217, "video": false, "vote_count": 90, "vote_average": 7.5, "title": "What's Opera, Doc?", "release_date": "1957-07-06", "original_language": "en", "original_title": "What's Opera, Doc?", "genre_ids": [16, 35, 10402], "backdrop_path": "/rXuNYO4Mzqq37we9cgr9qpElsLb.jpg", "adult": false, "overview": "Bugs is in drag as the Valkyrie Brunhilde who sits on an overwieght horse. \"She\" is pursued by Elmer playing the demigod \"Siegfried\".", "poster_path": "/hPALHY93ddJEuHebvjoPgZrPxtH.jpg", "popularity": 6.623}, {"id": 101503, "video": false, "vote_count": 39, "vote_average": 6.9, "title": "Ali Baba Bunny", "release_date": "1957-02-09", "original_language": "en", "original_title": "Ali Baba Bunny", "genre_ids": [16, 35, 10751], "backdrop_path": "/kJuGfvMDYyNaM7N0oUQIsHb6GwA.jpg", "adult": false, "overview": "Bugs and Daffy get lost on the way to Pismo Beach, and find a cave full of treasure in the Arabian Desert, guarded by Hassan.", "poster_path": "/mZYI8ymqs7K1mfjR7PD8rZTCht1.jpg", "popularity": 4.186}, {"adult": false, "backdrop_path": "/2lZYvShWuVThLM6Oo8zfakdBMqw.jpg", "genre_ids": [18, 10749], "id": 1365, "original_language": "en", "original_title": "Monster's Ball", "overview": "Set in the southern USA, a racist white man, Hank, falls in love with a black woman named Leticia. Ironically, Hank is a prison guard working on Death Row who executed Leticia's husband. Hank and Leticia's inter-racial affair leads to confusion and new ideas for the two unlikely lovers.", "poster_path": "/s7o0AyOFIYNjTe008pV6EZMI2IP.jpg", "release_date": "2001-11-11", "title": "Monster's Ball", "video": false, "vote_average": 6.7, "vote_count": 500, "popularity": 13.305}, {"adult": false, "backdrop_path": "/jq4dyVYsCGQRTXKDLoqZwg4tbIr.jpg", "genre_ids": [18, 10402], "id": 65, "original_language": "en", "original_title": "8 Mile", "overview": "The setting is Detroit in 1995. The city is divided by 8 Mile, a road that splits the town in half along racial lines. A young white rapper, Jimmy \"B-Rabbit\" Smith Jr. summons strength within himself to cross over these arbitrary boundaries to fulfill his dream of success in hip hop. With his pal Future and the three one third in place, all he has to do is not choke.", "poster_path": "/dXzTrKwpbLpCqn8O70FUUhNbYQT.jpg", "release_date": "2002-11-08", "title": "8 Mile", "video": false, "vote_average": 7.0, "vote_count": 3870, "popularity": 18.577}, {"adult": false, "backdrop_path": "/q643Nomq0k9cxumlfVUvfmXdiFX.jpg", "genre_ids": [16, 35], "id": 52971, "original_language": "en", "original_title": "Rabbit of Seville", "overview": "Behind the Hollywood Bowl stage which is playing the opera, The Barber of Seville, Bugs Bunny flees into the backstage area with Elmer Fudd in close pursuit. Seeing his opportunity to fight on his terms, Bugs raises the curtain on Elmer, trapping him on stage. As the orchestra begins playing, Bugs comes into play as the barber who is going to make sure that Elmer is going to get a grooming he will never forget.", "poster_path": "/27VEl23uM1aDxR9if2Ncs8IbSmK.jpg", "release_date": "1950-12-16", "title": "Rabbit of Seville", "video": false, "vote_average": 7.5, "vote_count": 80, "popularity": 7.369}, {"adult": false, "backdrop_path": "/hBiZTHJFrMasobPU1Rscwns2kkI.jpg", "genre_ids": [16], "id": 34933, "original_language": "en", "original_title": "Bully for Bugs", "overview": "Bugs Bunny once again making that \"wrong turn at Albuquerque\" burrows into a bullring, where a magnificent bull is making short work of a toreador. The bull bucks Bugs out of the arena, prompting the bunny to declare \"Of course you realize, this means war!\" The deft Bugs' arsenal comes plenty packed, as he uses anvils, well-placed face slaps and the bull's horns as a slingshot. The bull fights back, using his horns as a shotgun barrel. The bull's comeback is short-lived; just after Bugs makes out his will, he lures the bull out of the arena, just in time to set up a rube-like device that leads to the bull's defeat.", "poster_path": "/lqLENKX6DKPyubKrlwhwj0jqYeJ.jpg", "release_date": "1953-08-08", "title": "Bully for Bugs", "video": false, "vote_average": 7.1, "vote_count": 39, "popularity": 4.557}, {"adult": false, "backdrop_path": "/5wjmYlNOIqepQYtSp4EPto09Rwi.jpg", "genre_ids": [16, 35], "id": 134103, "original_language": "en", "original_title": "Hair-Raising Hare", "overview": "A sneaker-wearing, hairy monster chases Bugs through a castle belonging to an evil scientist.", "poster_path": "/vHSuTYqaLiDw6754xQnKTW2OGC9.jpg", "release_date": "1946-05-25", "title": "Hair-Raising Hare", "video": false, "vote_average": 7.0, "vote_count": 44, "popularity": 4.781}, {"id": 10190, "video": false, "vote_count": 79, "vote_average": 6.4, "title": "Towelhead", "release_date": "2008-09-12", "original_language": "en", "original_title": "Towelhead", "genre_ids": [18], "backdrop_path": "/9XDJgNj9YTniYwnzCL3oQN4CRwM.jpg", "adult": false, "overview": "A young Arab-American girl struggles with her sexual obsession, a bigoted Army reservist and her strict father during the Gulf War.", "poster_path": "/c0A6zaSbMNbN2eXnMWzx5baQbOt.jpg", "popularity": 9.944}, {"id": 67409, "video": false, "vote_count": 78, "vote_average": 7.7, "title": "Duck Dodgers in the 24\u00bdth Century", "release_date": "1953-07-25", "original_language": "en", "original_title": "Duck Dodgers in the 24\u00bdth Century", "genre_ids": [16, 35, 878], "backdrop_path": "/z1kcZtitM28DkKrTv0spQZi0LIA.jpg", "adult": false, "overview": "Space hero Daffy battles Marvin the Martian for control of Planet X.", "poster_path": "/l1CQTtfH4pcZ8TpmTMdI3VTfagN.jpg", "popularity": 6.815}, {"adult": false, "backdrop_path": "/fiVlCqeTevV2NIKDjcrCJGywas5.jpg", "genre_ids": [16, 10751, 35], "id": 64711, "original_language": "en", "original_title": "Long-Haired Hare", "overview": "Bugs Bunny vs. a famous opera singer at the Hollywood Bowl.", "poster_path": "/g6PFGxUwuhA05ifhB0MRzkdQz9W.jpg", "release_date": "1949-06-25", "title": "Long-Haired Hare", "video": false, "vote_average": 7.2, "vote_count": 52, "popularity": 5.342}, {"id": 83746, "video": false, "vote_count": 27, "vote_average": 7.1, "title": "Broom-Stick Bunny", "release_date": "1956-02-25", "original_language": "en", "original_title": "Broom-Stick Bunny", "genre_ids": [16, 35, 10751], "backdrop_path": "/fjQ2n6zKfNh3snjX3dVYYyhQ7B8.jpg", "adult": false, "overview": "On Halloween, Bugs Bunny, masquerading as an witch, trick or treats at Witch Hazel's door. He comes to the creepy old mansion of Witch Hazel, who's mixing up a potion. Bugs is mistaken for a real witch by Hazel, who prides herself on being the ugliest witch of all.", "poster_path": "/5DZEuFWHIdMCauSPw2htHqvtpN1.jpg", "popularity": 4.087}, {"id": 83750, "video": false, "vote_count": 22, "vote_average": 6.7, "title": "Devil May Hare", "release_date": "1954-06-19", "original_language": "en", "original_title": "Devil May Hare", "genre_ids": [16, 35, 10751], "backdrop_path": "/bAxcgMD9Td7VWn73Wtez4IgZUZU.jpg", "adult": false, "overview": "The Tasmanian Devil is on the loose. Bugs offers to help him find his dinner.", "poster_path": "/aBx6AyA74GzZ2eSXPEeQbJddnVD.jpg", "popularity": 3.415}, {"id": 83743, "video": false, "vote_count": 22, "vote_average": 7.0, "title": "Bewitched Bunny", "release_date": "1954-07-24", "original_language": "en", "original_title": "Bewitched Bunny", "genre_ids": [16, 35, 10751], "backdrop_path": "/rqIVxGKVkpRyF8g0bb6j731hkeB.jpg", "adult": false, "overview": "Bugs must rescue Hansel and Gretel from Witch Hazel's clutches.", "poster_path": "/ZhzYP6hfggzIvyQUwyYcs78qzH.jpg", "popularity": 4.943}, {"id": 74961, "video": false, "vote_count": 39, "vote_average": 7.0, "title": "Fast and Furry-ous", "release_date": "1949-09-17", "original_language": "en", "original_title": "Fast and Furry-ous", "genre_ids": [16, 35], "backdrop_path": "/5e9E6TovGRVfhrORFicgr5FWunY.jpg", "adult": false, "overview": "This was the debut for Wile E. Coyote and the Road Runner. It was also their only cartoon made in the 1940s. It set the template for the series, in which Wile E. Coyote (here given the ersatz Latin name Carnivorous Vulgaris) tries to catch Roadrunner (Accelleratii Incredibus) through many traps, plans and products, although in this first cartoon not all of the products are yet made by the Acme Corporation.", "poster_path": "/fyrMmLuMdsnJfQg3FyOniBBK1VG.jpg", "popularity": 5.226}, {"id": 83765, "video": false, "vote_count": 53, "vote_average": 7.3, "title": "Feed the Kitty", "release_date": "1952-02-02", "original_language": "en", "original_title": "Feed the Kitty", "genre_ids": [16, 35, 10751], "backdrop_path": "/48rp1UKCEKkzJmgYmtasTZIpeAH.jpg", "adult": false, "overview": "A bulldog adopts a small cat, but he can't let his owners know.", "poster_path": "/dAUgGyy9qREaRQlQ5Wt6OtL991w.jpg", "popularity": 5.015}, {"id": 84594, "video": false, "vote_count": 26, "vote_average": 7.3, "title": "Scaredy Cat", "release_date": "1948-12-18", "original_language": "en", "original_title": "Scaredy Cat", "genre_ids": [16, 35, 27], "backdrop_path": "/ia5n7fpYWZHr33P6E8DEVL8ptrP.jpg", "adult": false, "overview": "Porky and Sylvester spend the night in an old dark house, whose horrors only Sylvester sees. His repeated attempts to save Porky from the ghoulish doings of the killer mice infesting the place only make the skeptical Porky all the more convinced of Sylvester's cowardice.", "poster_path": "/93HDeoljqxoeJLjDbI8e57sakDe.jpg", "popularity": 4.652}, {"adult": false, "backdrop_path": "/9vCXLs7mruKW0zKSFpV8ZdftDlI.jpg", "genre_ids": [16, 35, 10751], "id": 53211, "original_language": "en", "original_title": "One Froggy Evening", "overview": "A workman finds a singing frog in the cornerstone of an old building being demolished. But when he tries to cash in on his discovery, he finds the frog will sing only for him, and just croak for the talent agent and the audience in the theater he's spent his life savings on.", "poster_path": "/ezANN5E8ERGYQQFwhFwXv84zzqo.jpg", "release_date": "1955-12-30", "title": "One Froggy Evening", "video": false, "vote_average": 7.6, "vote_count": 84, "popularity": 7.669}], "total_pages": 3, "total_results": 59}, "recommendations": {"page": 1, "results": [{"adult": false, "backdrop_path": "/hrmm91zeNDJMlxlCRHjHDFxBC5T.jpg", "genre_ids": [18, 35], "id": 80052, "original_language": "fr", "original_title": "Le mot de Cambronne", "overview": "", "poster_path": "/ng0dY1IJI18rNHBp3fOBC4bfvxy.jpg", "release_date": "1937-03-26", "title": "Le mot de Cambronne", "video": false, "vote_average": 5.8, "vote_count": 5, "popularity": 1.075}, {"adult": false, "backdrop_path": null, "genre_ids": [18, 10749], "id": 86955, "original_language": "en", "original_title": "Body and Soul", "overview": "A minister is malevolent and sinister behind his righteous facade. He consorts with, and later extorts from, the owner of a gambling house, and betrays an honest girl, eventually driving them both to ruin.", "poster_path": "/rLPrttxRyYtkcQEGXjsTXp1Glh4.jpg", "release_date": "1925-11-09", "title": "Body and Soul", "video": false, "vote_average": 6.1, "vote_count": 9, "popularity": 1.904}], "total_pages": 1, "total_results": 2}, "credits": {"cast": [{"cast_id": 2, "character": "Old Man, Little Boy (voice) (uncredited)", "credit_id": "52fe4c52c3a36847f8228559", "gender": 2, "id": 1132058, "name": "Johnny Murray", "order": 0, "profile_path": null}, {"cast_id": 8, "character": "Singing Baby (voice) (uncredited)", "credit_id": "5ba60677c3a3680e52006704", "gender": 1, "id": 572276, "name": "Anna Mae Fritz", "order": 1, "profile_path": null}, {"cast_id": 9, "character": "Singing Baby (voice) (uncredited)", "credit_id": "5bb271930e0a2633a00207fc", "gender": 1, "id": 1283861, "name": "Alberta Perkins", "order": 2, "profile_path": null}, {"cast_id": 10, "character": "Singing Baby (voice) (uncredited)", "credit_id": "5bb271a1c3a368141d01f72a", "gender": 1, "id": 2139376, "name": "Cora Hunter Parks", "order": 3, "profile_path": null}], "crew": [{"credit_id": "52fe4c52c3a36847f8228555", "department": "Directing", "gender": 2, "id": 112994, "job": "Director", "name": "Rudolf Ising", "profile_path": "/52hR2geHrJfZSs3ocVUPxiXGAUg.jpg"}, {"credit_id": "52fe4c52c3a36847f8228563", "department": "Production", "gender": 2, "id": 112993, "job": "Producer", "name": "Hugh Harman", "profile_path": "/bgI2GMqrMwF2ATq08NbHlAXqRQJ.jpg"}, {"credit_id": "52fe4c52c3a36847f8228569", "department": "Production", "gender": 2, "id": 112994, "job": "Producer", "name": "Rudolf Ising", "profile_path": "/52hR2geHrJfZSs3ocVUPxiXGAUg.jpg"}, {"credit_id": "52fe4c52c3a36847f822856f", "department": "Production", "gender": 2, "id": 149374, "job": "Producer", "name": "Leon Schlesinger", "profile_path": "/bdOU5R4lI1KVUpylbPQqpEPs3VZ.jpg"}, {"credit_id": "56c6a4919251412451004f84", "department": "Sound", "gender": 2, "id": 1306740, "job": "Original Music Composer", "name": "Frank Marsales", "profile_path": null}]}}