{"adult": false, "backdrop_path": "/5tYgNQzqhZtB0vUzfRqTTXqkHvF.jpg", "belongs_to_collection": null, "budget": 0, "genres": [{"id": 878, "name": "Science Fiction"}], "homepage": null, "id": 16203, "imdb_id": "tt0072195", "original_language": "en", "original_title": "Space Is the Place", "overview": "Sun Ra and his Solar Myth Arkestra return to Earth after several years in space. Ra proclaims himself \"the alter-destiny\", meets with inner-city youths and battles with the devil himself to save the black race.", "popularity": 3.207, "poster_path": "/mIIU2zhpF56juLs6z8RGevAoa1b.jpg", "production_companies": [{"id": 54446, "logo_path": null, "name": "North American Star System", "origin_country": ""}], "production_countries": [{"iso_3166_1": "US", "name": "United States of America"}], "release_date": "1974-11-01", "revenue": 0, "runtime": 85, "spoken_languages": [{"iso_639_1": "en", "name": "English"}], "status": "Released", "tagline": "", "title": "Space Is the Place", "video": false, "vote_average": 6.3, "vote_count": 14, "keywords": {"keywords": [{"id": 1416, "name": "jazz"}, {"id": 6152, "name": "supernatural"}, {"id": 214775, "name": "afrofuturism"}]}, "similar": {"page": 1, "results": [{"adult": false, "backdrop_path": "/y6UDPkSAcO08O9dmijgZ7tYw4HK.jpg", "genre_ids": [18, 14, 27], "id": 561, "original_language": "en", "original_title": "Constantine", "overview": "John Constantine has literally been to Hell and back. When he teams up with a policewoman to solve the mysterious suicide of her twin sister, their investigation takes them through the world of demons and angels that exists beneath the landscape of contemporary Los Angeles.", "poster_path": "/qYTerimWp1t1zSEKknn9mByhwbX.jpg", "release_date": "2005-02-08", "title": "Constantine", "video": false, "vote_average": 6.8, "vote_count": 3672, "popularity": 29.404}, {"id": 409297, "video": false, "vote_count": 218, "vote_average": 6.1, "title": "A Dark Song", "release_date": "2016-10-14", "original_language": "en", "original_title": "A Dark Song", "genre_ids": [18, 14, 27, 9648], "backdrop_path": "/nOHFOxK8oFUHGoXNFHnaebuo74c.jpg", "adult": false, "overview": "A determined young woman and a damaged occultist risk their lives and souls to perform a dangerous ritual that will grant them what they want.", "poster_path": "/fguce8M1bZnWjVkRWCFh9P3kt6A.jpg", "popularity": 10.629}, {"id": 100241, "video": false, "vote_count": 1194, "vote_average": 5.2, "title": "I, Frankenstein", "release_date": "2014-01-22", "original_language": "en", "original_title": "I, Frankenstein", "genre_ids": [27, 53], "backdrop_path": "/rzzabQ2HNUDil53Zfueu0iyasgB.jpg", "adult": false, "overview": "200 years after his shocking creation, Dr. Frankenstein's creature, Adam, still walks the earth. But when he finds himself in the middle of a war over the fate of humanity, Adam discovers he holds the key that could destroy humankind.", "poster_path": "/amJHZ4eOMpqyKo1GK33HFV55zue.jpg", "popularity": 14.531}, {"id": 361292, "video": false, "vote_count": 1094, "vote_average": 6.9, "title": "Suspiria", "release_date": "2018-10-11", "original_language": "en", "original_title": "Suspiria", "genre_ids": [14, 27], "backdrop_path": "/AmO8I38bkHwKhgxPNrd6djBQyPU.jpg", "adult": false, "overview": "A darkness swirls at the center of a world-renowned dance company, one that will engulf the troupe's artistic director, an ambitious young dancer and a grieving psychotherapist. Some will succumb to the nightmare, others will finally wake up.", "poster_path": "/qntguRoupnAASFdld8kTDe68fEn.jpg", "popularity": 19.86}, {"adult": false, "backdrop_path": "/w8jINuXklxghTAHNxt0NQYaAN1C.jpg", "genre_ids": [27], "id": 242512, "original_language": "en", "original_title": "Ouija", "overview": "A group of friends must confront their most terrifying fears when they awaken the dark powers of an ancient spirit board.", "poster_path": "/vHTXN00kJktCbSLV50Vbk9siNiX.jpg", "release_date": "2014-10-24", "title": "Ouija", "video": false, "vote_average": 5.1, "vote_count": 1834, "popularity": 21.962}, {"id": 622, "video": false, "vote_count": 1604, "vote_average": 6.4, "title": "The Ninth Gate", "release_date": "1999-08-25", "original_language": "en", "original_title": "The Ninth Gate", "genre_ids": [27, 9648, 53], "backdrop_path": "/7ikpBrx2YZyVZxFS5YTZUZoyIJu.jpg", "adult": false, "overview": "An all-expenses-paid international search for a rare copy of the book, 'The Nine Gates of the Shadow Kingdom' brings an unscrupulous book dealer deep into a world of murder, double-dealing and satanic worship.", "poster_path": "/uamhDQBebdW3UQqOaVmma3yW8pm.jpg", "popularity": 24.171}, {"adult": false, "backdrop_path": "/kQOLgJGvFjQ7EwGfaPkW9dlGFXJ.jpg", "genre_ids": [27, 9648], "id": 565, "original_language": "en", "original_title": "The Ring", "overview": "It sounded like just another urban legend: A videotape filled with nightmarish images, leading to a phone call foretelling the viewer's death in exactly seven days. As a newspaper reporter, Rachel Keller was naturally skeptical of the story, until four teenagers all met with mysterious deaths exactly one week after watching just such a tape. Allowing her investigative curiosity to get the better of her, Rachel tracks down the video... and watches it. Now she has just seven days to unravel the mystery of the Ring.", "poster_path": "/zHJFdhqEXZJxG653oZvOM3PmNON.jpg", "release_date": "2002-10-18", "title": "The Ring", "video": false, "vote_average": 6.6, "vote_count": 3614, "popularity": 18.465}, {"adult": false, "backdrop_path": "/w4w8CTEe4isWO2TzDSQ3MV3br9l.jpg", "genre_ids": [14, 35, 10751], "id": 8839, "original_language": "en", "original_title": "Casper", "overview": "Furious that her late father only willed her his gloomy-looking mansion rather than his millions, Carrigan Crittenden is ready to burn the place to the ground when she discovers a map to a treasure hidden in the house. But when she enters the rickety mansion to seek her claim, she is frightened away by a wicked wave of ghosts. Determined to get her hands on this hidden fortune, she hires afterlife therapist Dr. James Harvey to exorcise the ghosts from the mansion. Harvey and his daughter Kat move in, and soon Kat meets Casper, the ghost of a young boy who's \"the friendliest ghost you know.\" But not so friendly are Casper's uncles--Stretch, Fatso and Stinkie--who are determined to drive all \"fleshies\" away.", "poster_path": "/1WeumvndgPE3hopKQqXbCKO26oH.jpg", "release_date": "1995-05-26", "title": "Casper", "video": false, "vote_average": 6.2, "vote_count": 2787, "popularity": 25.964}, {"id": 493922, "video": false, "vote_count": 3300, "vote_average": 7.1, "title": "Hereditary", "release_date": "2018-06-07", "original_language": "en", "original_title": "Hereditary", "genre_ids": [27, 9648, 53], "backdrop_path": "/4DUoPZOHdPuROP4nyEIsPaMIiQl.jpg", "adult": false, "overview": "When Ellen, the matriarch of the Graham family, passes away, her daughter\u2019s family begins to unravel cryptic and increasingly terrifying secrets about their ancestry.", "poster_path": "/lHV8HHlhwNup2VbpiACtlKzaGIQ.jpg", "popularity": 26.313}, {"id": 439079, "video": false, "vote_count": 3337, "vote_average": 5.6, "title": "The Nun", "release_date": "2018-09-05", "original_language": "en", "original_title": "The Nun", "genre_ids": [27, 9648, 53], "backdrop_path": "/fgsHxz21B27hOOqQBiw9L6yWcM7.jpg", "adult": false, "overview": "When a young nun at a cloistered abbey in Romania takes her own life, a priest with a haunted past and a novitiate on the threshold of her final vows are sent by the Vatican to investigate. Together they uncover the order\u2019s unholy secret. Risking not only their lives but their faith and their very souls, they confront a malevolent force in the form of the same demonic nun that first terrorized audiences in \u201cThe Conjuring 2\u201d as the abbey becomes a horrific battleground between the living and the damned.", "poster_path": "/sFC1ElvoKGdHJIWRpNB3xWJ9lJA.jpg", "popularity": 29.576}, {"id": 313369, "video": false, "vote_count": 11057, "vote_average": 7.9, "title": "La La Land", "release_date": "2016-11-29", "original_language": "en", "original_title": "La La Land", "genre_ids": [35, 18, 10402, 10749], "backdrop_path": "/fp6X6yhgcxzxCpmM0EVC6V9B8XB.jpg", "adult": false, "overview": "Mia, an aspiring actress, serves lattes to movie stars in between auditions and Sebastian, a jazz musician, scrapes by playing cocktail party gigs in dingy bars, but as success mounts they are faced with decisions that begin to fray the fragile fabric of their love affair, and the dreams they worked so hard to maintain in each other threaten to rip them apart.", "poster_path": "/ylXCdC106IKiarftHkcacasaAcb.jpg", "popularity": 30.693}, {"id": 675, "video": false, "vote_count": 11919, "vote_average": 7.6, "title": "Harry Potter and the Order of the Phoenix", "release_date": "2007-06-28", "original_language": "en", "original_title": "Harry Potter and the Order of the Phoenix", "genre_ids": [12, 14, 9648], "backdrop_path": "/gGt4ePOhD8ilxd3FYhKB06L2CyG.jpg", "adult": false, "overview": "Returning for his fifth year of study at Hogwarts, Harry is stunned to find that his warnings about the return of Lord Voldemort have been ignored. Left with no choice, Harry takes matters into his own hands, training a small group of students \u2013 dubbed 'Dumbledore's Army' \u2013 to defend themselves against the dark arts.", "poster_path": "/4YnLxYLHhT4UQ8i9jxAXWy46Xuw.jpg", "popularity": 37.566}, {"adult": false, "backdrop_path": "/o8u0NyEigCEaZHBdCYTRfXR8U4i.jpg", "genre_ids": [27, 9648, 53], "id": 396422, "original_language": "en", "original_title": "Annabelle: Creation", "overview": "Several years after the tragic death of their little girl, a doll maker and his wife welcome a nun and several girls from a shuttered orphanage into their home, soon becoming the target of the doll maker's possessed creation\u2014Annabelle.", "poster_path": "/f7pn0VD3QpEXH8sETFNUow4o7hz.jpg", "release_date": "2017-08-03", "title": "Annabelle: Creation", "video": false, "vote_average": 6.5, "vote_count": 3551, "popularity": 25.077}, {"adult": false, "backdrop_path": "/slpgZisYNapLoN9FWXqDOC1ExbU.jpg", "genre_ids": [27, 9648, 53], "id": 259693, "original_language": "en", "original_title": "The Conjuring 2", "overview": "Lorraine and Ed Warren travel to north London to help a single mother raising four children alone in a house plagued by malicious spirits.", "poster_path": "/7GUzvvrb6hbOWl8l8YkaS4fgTDT.jpg", "release_date": "2016-05-13", "title": "The Conjuring 2", "video": false, "vote_average": 7.2, "vote_count": 4646, "popularity": 25.309}, {"id": 4011, "video": false, "vote_count": 3504, "vote_average": 7.3, "title": "Beetlejuice", "release_date": "1988-02-29", "original_language": "en", "original_title": "Beetlejuice", "genre_ids": [35, 14], "backdrop_path": "/upAwc1kPQJU1ZWeMgEWV8Lp6CWb.jpg", "adult": false, "overview": "Thanks to an untimely demise via drowning, a young couple end up as poltergeists in their New England farmhouse, where they fail to meet the challenge of scaring away the insufferable new owners, who want to make drastic changes. In desperation, the undead newlyweds turn to an expert frightmeister, but he's got a diabolical agenda of his own.", "poster_path": "/gWnW7vxm8yr01TVLQhL4aI02orp.jpg", "popularity": 34.388}, {"id": 448095, "video": false, "vote_count": 308, "vote_average": 6.8, "title": "I Still See You", "release_date": "2018-09-27", "original_language": "en", "original_title": "I Still See You", "genre_ids": [14, 53], "backdrop_path": "/7rqpB7coXaNvTVMWb5vL8qU0pBp.jpg", "adult": false, "overview": "A spellbinding and romantic supernatural thriller. Ten years after an apocalyptic event left the world haunted by ghosts, Roni receives a threatening message from beyond the grave. Joining forces with a mysterious classmate, Kirk, Roni descends into a shadow world that blurs the bounds of the living and the dead-and begins a desperate race against time to stop a cunning killer.", "poster_path": "/9fqzZs922V8OmwgO11Eqclof2mQ.jpg", "popularity": 18.83}, {"adult": false, "backdrop_path": "/2gKX53lskaCYk9ycXmaDJKqWiy.jpg", "genre_ids": [27], "id": 250546, "original_language": "en", "original_title": "Annabelle", "overview": "John Form has found the perfect gift for his expectant wife, Mia - a beautiful, rare vintage doll in a pure white wedding dress. But Mia's delight with Annabelle doesn't last long. On one horrific night, their home is invaded by members of a satanic cult, who violently attack the couple. Spilled blood and terror are not all they leave behind. The cultists have conjured an entity so malevolent that nothing they did will compare to the sinister conduit to the damned that is now... Annabelle.", "poster_path": "/yAgxM61Sn0dYML4C9v3MJFp5zPI.jpg", "release_date": "2014-10-02", "title": "Annabelle", "video": false, "vote_average": 5.6, "vote_count": 3880, "popularity": 16.232}, {"id": 1487, "video": false, "vote_count": 4488, "vote_average": 6.6, "title": "Hellboy", "release_date": "2004-04-02", "original_language": "en", "original_title": "Hellboy", "genre_ids": [28, 14], "backdrop_path": "/13DIK3beAoroeJSdrcYm66s6hal.jpg", "adult": false, "overview": "In the final days of World War II, the Nazis attempt to use black magic to aid their dying cause. The Allies raid the camp where the ceremony is taking place, but not before a demon\u2014Hellboy\u2014has already been conjured. Joining the Allied forces, Hellboy eventually grows to adulthood, serving the cause of good rather than evil.", "poster_path": "/buAYSdNVKMgNhdcuKHIwelSQxPe.jpg", "popularity": 21.315}, {"id": 1677, "video": false, "vote_count": 960, "vote_average": 7.4, "title": "Ray", "release_date": "2004-10-29", "original_language": "en", "original_title": "Ray", "genre_ids": [18, 10402], "backdrop_path": "/lcVQocaLf4wf5Inmwj7TtrPRnPp.jpg", "adult": false, "overview": "Born on a sharecropping plantation in Northern Florida, Ray Charles went blind at seven. Inspired by a fiercely independent mom who insisted he make his own way, He found his calling and his gift behind a piano keyboard. Touring across the Southern musical circuit, the soulful singer gained a reputation and then exploded with worldwide fame when he pioneered couping gospel and country together.", "poster_path": "/fPDsBL0MdegEvyPhim9b5srHOqG.jpg", "popularity": 15.351}, {"adult": false, "backdrop_path": "/2F8cwDiU43qYYmRVCyv2Lx5E36C.jpg", "genre_ids": [14, 18], "id": 13188, "original_language": "en", "original_title": "Scrooge", "overview": "Ebenezer Scrooge (Alastair Sim) malcontentedly shuffles through life as a cruel miserly businessman until one fateful Christmas Eve when he is visited by three spirits, sent show him how his unhappy childhood and maladaptive adult behavior over has let him a selfish, lonely, bitter old man.  Released in the USA as \"A Christmas Carol\".", "poster_path": "/vIgQuTnJljMIwzdM94D3rnIgzlx.jpg", "release_date": "1951-11-28", "title": "Scrooge", "video": false, "vote_average": 7.5, "vote_count": 139, "popularity": 12.013}], "total_pages": 104, "total_results": 2065}, "recommendations": {"page": 1, "results": [{"adult": false, "backdrop_path": "/vIrZVkUNtw7Egz6xORGCEHFeuGq.jpg", "genre_ids": [28, 27, 878], "id": 69011, "original_language": "cn", "original_title": "\u5996\u517d\u90fd\u5e02", "overview": "Based on the popular Japanese sci-fi comic strip, \"Wicked City\" is about a futuristic Hong Kong on the verge of a take over by the Reptoids--ruthless monsters disguised as humans. They work amongst us, they live within us and their destiny is our demise. Packed with non-stop action and special effects, \"Wicked City\" will glue you to the screen until the astonishing end.", "poster_path": "/wWh6EQYeJw7JESR9sHGruKl8rgE.jpg", "release_date": "1992-01-01", "title": "The Wicked City", "video": false, "vote_average": 6.4, "vote_count": 9, "popularity": 3.118}, {"adult": false, "backdrop_path": null, "genre_ids": [27], "id": 126693, "original_language": "tl", "original_title": "Kulay dugo ang gabi", "overview": "Dr Marco's most beloved Katrina has died. As a vampire, Marco has devised a plan to bring her back from the dead. It requires large amounts of human blood and will eventually necessitate the transplantation of a human heart.", "poster_path": "/fNosedMYhsOVUV4Fx0xpMBVg42T.jpg", "release_date": "1964-01-01", "title": "The Blood Drinkers", "video": false, "vote_average": 6.6, "vote_count": 5, "popularity": 2.981}, {"adult": false, "backdrop_path": "/9KvA0EeTZgIr0DEjgsOX0rIxhbs.jpg", "genre_ids": [14], "id": 266466, "original_language": "en", "original_title": "In the Shadow of the Sun", "overview": "'The Shadow of the Sun' draws upon Derek Jarman\u2019s interest with alchemical processes as a metaphor for reprocessing Super-8 film. Jarman once described film\u2019s union of light and matter as \u201can alchemical conjunction\u201d and experimented throughout his career with creating dream symbolism through the superimposition of image and action. Originally called English Apocalypse, the film\u2019s final title is derived from a 17th Century alchemical text that used the phrase as a synonym for the philosopher\u2019s stone \u2013 the highly sought substance that turns base metals into gold and silver. The film was intended as a step toward the idea of an ambient video, that like its musical counterpart, was designed to enhance an environment.", "poster_path": "/6ZD4dBrsUAKcgWkqkj3pMEd9kRB.jpg", "release_date": "1981-02-01", "title": "In the Shadow of the Sun", "video": false, "vote_average": 7.8, "vote_count": 4, "popularity": 0.899}, {"adult": false, "backdrop_path": "/9RvJrtmx3r6IJcIRN5FW0a6D9Vg.jpg", "genre_ids": [10402, 99], "id": 38601, "original_language": "en", "original_title": "Part of the Weekend Never Dies", "overview": "A documentary about Soulwax: Director Saam Farahmand filmed Soulwax on their recent international dates, capturing all the excitement, chaos and humour of the world tour. Where the Beastie Boys filmed one gig with 50 cameras, Soulwax filmed 120 shows with one camera, in Europe, Japan, US, Latin America and Australia. The result is a snapshot of life on the road with one of the most exciting live bands in the world, and features their friends including 2manyDJ's, James Murphy &amp; Nancy Whang (LCD Soundsystem), Erol Alkan, Tiga, Justice, Busy P, So-Me, Peaches, Klaxons and many more in interview, as well as behind-the-scenes footage, and LOTS of music.", "poster_path": "/xJ0KSKNWXOAKDasfFuYJUTzN4fP.jpg", "release_date": "2008-04-24", "title": "Part of the Weekend Never Dies", "video": false, "vote_average": 5.7, "vote_count": 8, "popularity": 2.344}, {"id": 2909, "video": false, "vote_count": 6, "vote_average": 4.3, "title": "In the Dust of the Stars", "release_date": "1976-07-01", "original_language": "de", "original_title": "Im Staub der Sterne", "genre_ids": [878], "backdrop_path": "/kyKdp6J60pyYaO79u05Hkxbs20u.jpg", "adult": false, "overview": "A retro '70s vision of the future, IN THE DUST OF THE STARS was made by the DEFA film studio. A radio signal attracts a team of astronauts to a mysterious planet. Once there, they are warmly welcomed by an alien race, but are soon suspicious of what is really occurring on this strange land.", "poster_path": "/jvphRhQuotA52HYVDFrNLhQs2eQ.jpg", "popularity": 2.033}, {"adult": false, "backdrop_path": "/qrF18Vh019GDxh5uz2flRMKaeBJ.jpg", "genre_ids": [18], "id": 179868, "original_language": "ja", "original_title": "\u60c5\u708e", "overview": "As a young woman, Oriko condemned her widowed mother for openly pursuing relationships with younger men. After her mother passes away, she finds herself in an unhappy, loveless marriage and begins to understand her mother\u2019s actions.", "poster_path": "/kOXbymhfymdyKjkOXxNeX9IS5QS.jpg", "release_date": "1967-05-13", "title": "The Affair", "video": false, "vote_average": 7.7, "vote_count": 7, "popularity": 1.439}, {"adult": false, "backdrop_path": "/bSLjcSvOZypv9bvq39NRjC7cTGv.jpg", "genre_ids": [16, 35, 14, 878, 36], "id": 84488, "original_language": "ja", "original_title": "\u30af\u30ec\u30aa\u30d1\u30c8\u30e9", "overview": "Three people from the future are spiritually sent back in time to relive the era of Caesar, Marcus Antonius and Cleopatra. As close companions to these key historical figures, they seek to understand the nature of an enemy's plan in their own time.", "poster_path": "/gQ3cC30zDeSom0RMQwVZPvGLF9b.jpg", "release_date": "1970-09-15", "title": "Cleopatra", "video": false, "vote_average": 6.0, "vote_count": 12, "popularity": 4.991}, {"adult": false, "backdrop_path": "/pR213x1AvZvOhgK6OgkeMdwMwdQ.jpg", "genre_ids": [18], "id": 104241, "original_language": "ja", "original_title": "\u7149\u7344\u30a8\u30ed\u30a4\u30ab", "overview": "Rikiya Shoda is an engineer working for the Atomic Agency in Japan. One day, his wife Nanako returns home with a lost teenager called Ayu. A man, pretending to be the father, comes to get her back; Ayu keeps telling him that Rikiya and Nanako are her parents. Through this disruption, Rikiya suddenly starts remembering his youth as a revolutionary.", "poster_path": "/m7kSD7k2tCX9eCcZg4gOPi8jMYW.jpg", "release_date": "1970-09-26", "title": "Heroic Purgatory", "video": false, "vote_average": 7.4, "vote_count": 9, "popularity": 2.148}, {"id": 12602, "video": false, "vote_count": 20, "vote_average": 6.6, "title": "The Snake Pit and the Pendulum", "release_date": "1967-10-05", "original_language": "de", "original_title": "Die Schlangengrube und das Pendel", "genre_ids": [36, 27, 9648], "backdrop_path": "/v9qHSuDMFibHMZmP8svACKDjhyU.jpg", "adult": false, "overview": "In the Olden Tymes, Count Regula is drawn and quartered for killing twelve virgins in his dungeon torture chamber. Thirty-five years later, he comes back to seek revenge on the daughter of his intended thirteenth victim and the son of his prosecutor in order to attain immortal life.", "poster_path": "/vkXv0vRtHXaYpVCrpwy5qCBJypC.jpg", "popularity": 4.276}, {"adult": false, "backdrop_path": "/qAPSzD32DGK928v7ydsVn0z3YBK.jpg", "genre_ids": [18, 14, 10770], "id": 136611, "original_language": "en", "original_title": "Penda's Fen", "overview": "Through a series of real and imagined encounters with angels, demons, and England's pagan past, a pastor's son begins to question his religion and politics, and comes to terms with his sexuality.", "poster_path": "/ol8R1e8l3ieKLXYhfXiltG8ip59.jpg", "release_date": "1974-03-21", "title": "Penda's Fen", "video": false, "vote_average": 7.2, "vote_count": 9, "popularity": 2.653}, {"adult": false, "backdrop_path": "/ztmomSw5KjXWxvAKM9VqUqenDxi.jpg", "genre_ids": [12, 878], "id": 108049, "original_language": "en", "original_title": "Spirits of the Air, Gremlins of the Clouds", "overview": "Brother and sister endure alone together in a post-apocalyptic Outback until the sudden arrival of a stranger.", "poster_path": "/zaxLq35neMkPeZ5SZIVZZd9Xfv4.jpg", "release_date": "1989-01-01", "title": "Spirits of the Air, Gremlins of the Clouds", "video": false, "vote_average": 6.6, "vote_count": 7, "popularity": 3.105}], "total_pages": 1, "total_results": 11}, "credits": {"cast": [{"cast_id": 2, "character": "Himself", "credit_id": "52fe46b59251416c75080eb9", "gender": 2, "id": 79981, "name": "Sun Ra", "order": 0, "profile_path": "/7YC2ePxeAdKlY1iLzQ5SCR58aPZ.jpg"}, {"cast_id": 3, "character": "The Overseer", "credit_id": "52fe46b59251416c75080ebd", "gender": 2, "id": 79982, "name": "Raymond Johnson", "order": 1, "profile_path": "/9NYFWWNNtekNmAR5mpMgetGK9pi.jpg"}, {"cast_id": 6, "character": "Jimmy Fey", "credit_id": "5976beb7c3a36821db020b5a", "gender": 2, "id": 161455, "name": "Christopher Brooks", "order": 2, "profile_path": null}, {"cast_id": 7, "character": "Arkestra member", "credit_id": "5a14ec5892514178bf005021", "gender": 2, "id": 1640405, "name": "Marshall Allen", "order": 3, "profile_path": "/ghuMtvItwDe5V8fIIdiTnoak5fQ.jpg"}, {"cast_id": 13, "character": "Arkestra member", "credit_id": "5b7b61dfc3a368197900163f", "gender": 1, "id": 2111906, "name": "June Tyson", "order": 4, "profile_path": null}, {"cast_id": 16, "character": "Agent #1", "credit_id": "5b7ca40dc3a368590d001e71", "gender": 0, "id": 2112542, "name": "Walter Burns", "order": 5, "profile_path": null}, {"cast_id": 17, "character": "Agent #2", "credit_id": "5b7ca4220e0a263bd5001834", "gender": 0, "id": 160947, "name": "Morgan Upton", "order": 6, "profile_path": "/c6cHfJSxRl6Z9D2BcYNELq9ZwEZ.jpg"}, {"cast_id": 18, "character": "Bertha", "credit_id": "5b7dc3b00e0a2615bd0053d5", "gender": 0, "id": 2113104, "name": "La Shaa Stallings", "order": 7, "profile_path": null}, {"cast_id": 20, "character": "Candy", "credit_id": "5b7f21ee9251416c840000fa", "gender": 1, "id": 2113809, "name": "Barbara Deloney", "order": 9, "profile_path": null}, {"cast_id": 21, "character": "Tania", "credit_id": "5b7f22019251416c8400011d", "gender": 1, "id": 2113810, "name": "Erika Leder", "order": 10, "profile_path": null}, {"cast_id": 22, "character": "Arkestra Member", "credit_id": "5b818d8792514159d7015283", "gender": 0, "id": 2114998, "name": "Eloe Omoe", "order": 11, "profile_path": null}, {"cast_id": 23, "character": "Arkestra Member", "credit_id": "5b818da20e0a26459c012980", "gender": 0, "id": 2115000, "name": "Danny Davis", "order": 12, "profile_path": null}, {"cast_id": 24, "character": "Arkestra Member", "credit_id": "5b818e50c3a368655b013f0b", "gender": 0, "id": 2115001, "name": "Danny Thompson", "order": 13, "profile_path": null}, {"cast_id": 25, "character": "Arkestra Member", "credit_id": "5b81977c0e0a2645960137ab", "gender": 2, "id": 1927610, "name": "John Gilmore", "order": 14, "profile_path": null}, {"cast_id": 26, "character": "Arkestra Member", "credit_id": "5b82e87b92514159ea0287dd", "gender": 0, "id": 2115701, "name": "Kwame Hadi", "order": 15, "profile_path": null}, {"cast_id": 27, "character": "Arkestra Member", "credit_id": "5b82e890c3a368655302923b", "gender": 0, "id": 2115702, "name": "Tommy Hunter", "order": 16, "profile_path": null}, {"cast_id": 28, "character": "Arkestra Member", "credit_id": "5b82e8adc3a368655b02a54c", "gender": 0, "id": 2115703, "name": "Larry Northington", "order": 17, "profile_path": null}], "crew": [{"credit_id": "52fe46b59251416c75080eb5", "department": "Directing", "gender": 0, "id": 79980, "job": "Director", "name": "John Coney", "profile_path": null}, {"credit_id": "5976bde092514106a8037694", "department": "Writing", "gender": 2, "id": 79981, "job": "Writer", "name": "Sun Ra", "profile_path": "/7YC2ePxeAdKlY1iLzQ5SCR58aPZ.jpg"}, {"credit_id": "5976be96c3a3685ded03f495", "department": "Writing", "gender": 2, "id": 1857591, "job": "Writer", "name": "Joshua Smith", "profile_path": null}, {"credit_id": "5b71e979c3a36818941e4d26", "department": "Production", "gender": 2, "id": 1744220, "job": "Producer", "name": "Jim Newman", "profile_path": null}, {"credit_id": "5b71e9e20e0a267ef619aac4", "department": "Crew", "gender": 0, "id": 2106604, "job": "Cinematography", "name": "Seth Hill", "profile_path": null}, {"credit_id": "5b720e4292514103410a03a0", "department": "Sound", "gender": 2, "id": 79981, "job": "Music", "name": "Sun Ra", "profile_path": "/7YC2ePxeAdKlY1iLzQ5SCR58aPZ.jpg"}, {"credit_id": "5b78f6ea0e0a26473a01f031", "department": "Editing", "gender": 1, "id": 1125677, "job": "Editor", "name": "Barbara Pokras", "profile_path": null}, {"credit_id": "5b78f725925141294901f1a6", "department": "Art", "gender": 0, "id": 2110620, "job": "Production Design", "name": "Whit Mather", "profile_path": null}, {"credit_id": "5b7b681d0e0a267c7d002473", "department": "Costume & Make-Up", "gender": 0, "id": 2111926, "job": "Costume Design", "name": "Jill Percival", "profile_path": null}, {"credit_id": "5b7b68fd0e0a267c7d0025f3", "department": "Costume & Make-Up", "gender": 0, "id": 2111931, "job": "Costume Design", "name": "William S. Jones", "profile_path": null}]}}