{"adult": false, "backdrop_path": "/6wbgqe2jD4kZHlBIB0owkxj3T5r.jpg", "belongs_to_collection": {"id": 190435, "name": "Street Fighter (Animated) Collection", "poster_path": "/zrX0hsl3ny8WWCe5ww5PZlHgjjc.jpg", "backdrop_path": "/kkUdnFLEwzHPU8medJE2Vn4pm1B.jpg"}, "budget": 0, "genres": [{"id": 28, "name": "Action"}, {"id": 16, "name": "Animation"}], "homepage": null, "id": 16228, "imdb_id": "tt0495900", "original_language": "en", "original_title": "Street Fighter Alpha: Generations", "overview": "When Ryu returns to pay homage to his deceased mentor, Gouken, he is tormented by disturbing memories of his master's killer (Gouki). In a quest to become a true martial arts master, he sets out to hone his street fighting skills and deliver himself from the haunting legacy of the dark hadou.", "popularity": 3.704, "poster_path": "/f6zRlCDqif8B540QA582WSrkDDT.jpg", "production_companies": [{"id": 3706, "logo_path": "/jQAPMaK0luVFn69MvL83d3l6iCo.png", "name": "Manga", "origin_country": ""}, {"id": 7220, "logo_path": "/dD0x5awPmtx4sAr2pNvkmxkCODh.png", "name": "CAPCOM", "origin_country": "JP"}, {"id": 6559, "logo_path": null, "name": "A.P.P.P. Company", "origin_country": "JP"}], "production_countries": [{"iso_3166_1": "JP", "name": "Japan"}], "release_date": "2005-10-25", "revenue": 0, "runtime": 42, "spoken_languages": [{"iso_639_1": "en", "name": "English"}, {"iso_639_1": "ja", "name": "\u65e5\u672c\u8a9e"}], "status": "Released", "tagline": "", "title": "Street Fighter Alpha: Generations", "video": false, "vote_average": 5.3, "vote_count": 12, "keywords": {"keywords": [{"id": 779, "name": "martial arts"}, {"id": 10076, "name": "street fighter"}, {"id": 41645, "name": "based on video game"}, {"id": 210024, "name": "anime"}]}, "similar": {"page": 1, "results": [{"adult": false, "backdrop_path": "/tBWZkKMcrWdrpkOAA84FBlzE2XK.jpg", "genre_ids": [12, 28, 53], "id": 9053, "original_language": "en", "original_title": "DOA: Dead or Alive", "overview": "Four beautiful rivals at an invitation-only martial-arts tournament join forces against a sinister threat. Princess Kasumi is an aristocratic warrior trained by martial-arts masters. Tina Armstrong is a wrestling superstar. Helena Douglas is an athlete with a tragic past. Christie Allen earns her keep as a thief and an assassin-for-hire.", "poster_path": "/lZ6vZka2M0jtH1khYWa8j73E275.jpg", "release_date": "2006-09-07", "title": "DOA: Dead or Alive", "video": false, "vote_average": 4.9, "vote_count": 415, "popularity": 15.433}, {"id": 9470, "video": false, "vote_count": 1392, "vote_average": 7.3, "title": "Kung Fu Hustle", "release_date": "2004-02-10", "original_language": "cn", "original_title": "\u529f\u592b", "genre_ids": [28, 35, 80, 14], "backdrop_path": "/qpJWj6MI6VLRt9bGbJVZtmFvqWw.jpg", "adult": false, "overview": "Set in Canton, China in the 1940s, the story revolves in a town ruled by the Axe Gang, Sing who desperately wants to become a member. He stumbles into a slum ruled by eccentric landlords who turns out to be the greatest kung-fu masters in disguise. Sing's actions eventually cause the Axe Gang and the slumlords to engage in an explosive kung-fu battle. Only one side will win and only one hero will emerge as the greatest kung-fu master of all.", "poster_path": "/dZsfDrNLGWgsIUQL1vGhl8tbnqY.jpg", "popularity": 17.654}, {"adult": false, "backdrop_path": "/9DlrsXH9LOgPeuF6Hljmx8GQNlM.jpg", "genre_ids": [18, 28], "id": 7549, "original_language": "zh", "original_title": "\u970d\u5143\u7532", "overview": "Huo Yuan Jia became the most famous martial arts fighter in all of China at the turn of the 20th Century. Huo faced personal tragedy but ultimately fought his way out of darkness, defining the true spirit of martial arts and also inspiring his nation. The son of a great fighter who didn't wish for his child to follow in his footsteps, Huo resolves to teach himself how to fight - and win.", "poster_path": "/nPku02hVAFPsAd1pJr81OkdBidw.jpg", "release_date": "2006-01-26", "title": "Fearless", "video": false, "vote_average": 7.4, "vote_count": 648, "popularity": 12.897}, {"adult": false, "backdrop_path": "/AqocxdL9luA7ALU0gGSHDzDy254.jpg", "genre_ids": [14, 16, 18, 878], "id": 14069, "original_language": "ja", "original_title": "\u6642\u3092\u304b\u3051\u308b\u5c11\u5973", "overview": "When 17-year-old Makoto Konno gains the ability to, quite literally, \"leap\" backwards through time, she immediately sets about improving her grades and preventing personal mishaps. However, she soon realises that changing the past isn't as simple as it seems, and eventually, will have to rely on her new powers to shape the future of herself and her friends.", "poster_path": "/7oNeWrsaiMGxCrvkWjQ56y6JN85.jpg", "release_date": "2006-07-15", "title": "The Girl Who Leapt Through Time", "video": false, "vote_average": 7.8, "vote_count": 1043, "popularity": 22.298}, {"id": 9312, "video": false, "vote_count": 1039, "vote_average": 5.7, "title": "Mortal Kombat", "release_date": "1995-08-18", "original_language": "en", "original_title": "Mortal Kombat", "genre_ids": [28, 14], "backdrop_path": "/mOIvM0pQA7J9I0Caai0zTPxnE3f.jpg", "adult": false, "overview": "For nine generations an evil sorcerer has been victorious in hand-to-hand battle against his mortal enemies. If he wins a tenth Mortal Kombat tournament, desolation and evil will reign over the multiverse forever. To save Earth, three warriors must overcome seemingly insurmountable odds, their own inner demons, and superhuman foes in this action/adventure movie based on one of the most popular video games of all time.", "poster_path": "/aQarGLCGr9ueYuwh9EXz3DfeEd9.jpg", "popularity": 17.982}, {"id": 10991, "video": false, "vote_count": 333, "vote_average": 6.3, "title": "Pok\u00e9mon 3: The Movie - Spell of the Unown", "release_date": "2000-07-08", "original_language": "ja", "original_title": "\u5287\u5834\u7248\u30dd\u30b1\u30c3\u30c8\u30e2\u30f3\u30b9\u30bf\u30fc \u7d50\u6676\u5854\u306e\u5e1d\u738b ENTEI", "genre_ids": [28, 12, 16, 14, 10751], "backdrop_path": "/dLGQo5Xq6H18vPx00Czot8VHi3K.jpg", "adult": false, "overview": "When Me Snowdon's sadness of her father's disappearance get to her, she unknowingly uses the Unknown to create her own dream world along with Entei, who she believes to be her father. When Entei kidnaps Satoshi's mother, Satoshi along with Kasumi & Takeshi invade the mansion looking for his mom and trying to stop the mysteries of Me's Dream World and Entei!", "poster_path": "/5ILjS6XB5deiHop8SXPsYxXWVPE.jpg", "popularity": 14.6}, {"id": 140300, "video": false, "vote_count": 3210, "vote_average": 6.7, "title": "Kung Fu Panda 3", "release_date": "2016-01-23", "original_language": "en", "original_title": "Kung Fu Panda 3", "genre_ids": [28, 12, 16, 35, 10751], "backdrop_path": "/eHWmEUP4fa7h1Fe7TXfTL7ncDl8.jpg", "adult": false, "overview": "Continuing his \"legendary adventures of awesomeness\", Po must face two hugely epic, but different threats: one supernatural and the other a little closer to his home.", "poster_path": "/MZFPacfKzgisnPoJIPEFZUXBBT.jpg", "popularity": 30.681}, {"id": 81, "video": false, "vote_count": 1618, "vote_average": 7.9, "title": "Nausica\u00e4 of the Valley of the Wind", "release_date": "1984-03-11", "original_language": "ja", "original_title": "\u98a8\u306e\u8c37\u306e\u30ca\u30a6\u30b7\u30ab", "genre_ids": [12, 16, 14], "backdrop_path": "/qKIldRZ3jy3uGWdrNIt3P7QA5J3.jpg", "adult": false, "overview": "After a global war, the seaside kingdom known as the Valley of the Wind remains one of the last strongholds on Earth untouched by a poisonous jungle and the powerful insects that guard it. Led by the courageous Princess Nausica\u00e4, the people of the Valley engage in an epic struggle to restore the bond between humanity and Earth.", "poster_path": "/hnYowHwLq0iUWriAHtiiCWsI2dP.jpg", "popularity": 31.577}, {"id": 9502, "video": false, "vote_count": 6771, "vote_average": 7.1, "title": "Kung Fu Panda", "release_date": "2008-06-04", "original_language": "en", "original_title": "Kung Fu Panda", "genre_ids": [12, 16, 35, 10751], "backdrop_path": "/pmLEmMLYCreFAxfdCt5uO1wDgSi.jpg", "adult": false, "overview": "When the Valley of Peace is threatened, lazy Po the panda discovers his destiny as the \"chosen one\" and trains to become a kung fu hero, but transforming the unsleek slacker into a brave warrior won't be easy. It's up to Master Shifu and the Furious Five -- Tigress, Crane, Mantis, Viper and Monkey -- to give it a try.", "poster_path": "/mk3UyyaLyXhgIhmLji25OUPXvGR.jpg", "popularity": 23.634}, {"id": 24, "video": false, "vote_count": 10676, "vote_average": 7.9, "title": "Kill Bill: Vol. 1", "release_date": "2003-10-10", "original_language": "en", "original_title": "Kill Bill: Vol. 1", "genre_ids": [28, 80], "backdrop_path": "/kkS8PKa8c134vXsj2fQkNqOaCXU.jpg", "adult": false, "overview": "An assassin is shot by her ruthless employer, Bill, and other members of their assassination circle \u2013 but she lives to plot her vengeance.", "poster_path": "/v7TaX8kXMXs5yFFGR41guUDNcnB.jpg", "popularity": 35.853}, {"id": 9323, "video": false, "vote_count": 1641, "vote_average": 7.9, "title": "Ghost in the Shell", "release_date": "1995-11-18", "original_language": "ja", "original_title": "GHOST IN THE SHELL", "genre_ids": [28, 16, 878], "backdrop_path": "/m1LUdsYnFThcrbvRzlpbsFioEQT.jpg", "adult": false, "overview": "In the year 2029, the barriers of our world have been broken down by the net and by cybernetics, but this brings new vulnerability to humans in the form of brain-hacking. When a highly-wanted hacker known as 'The Puppetmaster' begins involving them in politics, Section 9, a group of cybernetically enhanced cops, are called in to investigate and stop the Puppetmaster.", "poster_path": "/9gC88zYUBARRSThcG93MvW14sqx.jpg", "popularity": 21.491}, {"id": 146, "video": false, "vote_count": 1771, "vote_average": 7.3, "title": "Crouching Tiger, Hidden Dragon", "release_date": "2000-07-06", "original_language": "zh", "original_title": "\u5367\u864e\u85cf\u9f99", "genre_ids": [28, 12, 18, 10749], "backdrop_path": "/dKenGLffFC9HwuxG4Sq7fJRkiFb.jpg", "adult": false, "overview": "Two warriors in pursuit of a stolen sword and a notorious fugitive are led to an impetuous, physically-skilled, teenage nobleman's daughter, who is at a crossroads in her life.", "poster_path": "/3yYPhffQRuy45HlNabFxNLyP9mg.jpg", "popularity": 20.102}, {"id": 12599, "video": false, "vote_count": 441, "vote_average": 6.6, "title": "Pok\u00e9mon: The Movie 2000", "release_date": "1999-07-17", "original_language": "ja", "original_title": "\u5287\u5834\u7248\u30dd\u30b1\u30c3\u30c8\u30e2\u30f3\u30b9\u30bf\u30fc \u5e7b\u306e\u30dd\u30b1\u30e2\u30f3 \u30eb\u30ae\u30a2\u7206\u8a95", "genre_ids": [12, 16, 14, 878, 10751], "backdrop_path": "/5uAptC91ZTbJAsCFYYj7lErIe0A.jpg", "adult": false, "overview": "Satoshi must put his skill to the test when he attempts to save the world from destruction. The Greedy Pokemon collector Gelardan throws the universe into chaos after disrupting the balance of nature by capturing one of the Pokemon birds that rule the elements of fire, lightning and ice. Will Satoshi have what it takes to save the world?", "poster_path": "/jrwTeoEHCmFEr0J9HENdPAR3dEq.jpg", "popularity": 9.277}, {"id": 399579, "video": false, "vote_count": 4126, "vote_average": 6.9, "title": "Alita: Battle Angel", "release_date": "2019-01-31", "original_language": "en", "original_title": "Alita: Battle Angel", "genre_ids": [28, 12, 878, 53], "backdrop_path": "/8RKBHHRqOMOLh5qW3sS6TSFTd8h.jpg", "adult": false, "overview": "When Alita awakens with no memory of who she is in a future world she does not recognize, she is taken in by Ido, a compassionate doctor who realizes that somewhere in this abandoned cyborg shell is the heart and soul of a young woman with an extraordinary past.", "poster_path": "/xRWht48C2V8XNfzvPehyClOvDni.jpg", "popularity": 56.054}, {"id": 604, "video": false, "vote_count": 6344, "vote_average": 6.9, "title": "The Matrix Reloaded", "release_date": "2003-05-15", "original_language": "en", "original_title": "The Matrix Reloaded", "genre_ids": [28, 12, 878, 53], "backdrop_path": "/Fp3piEuHXxKnPBO5R0Wj4wjZHg.jpg", "adult": false, "overview": "Six months after the events depicted in The Matrix, Neo has proved to be a good omen for the free humans, as more and more humans are being freed from the matrix and brought to Zion, the one and only stronghold of the Resistance.  Neo himself has discovered his superpowers including super speed, ability to see the codes of the things inside the matrix and a certain degree of pre-cognition. But a nasty piece of news hits the human resistance: 250,000 machine sentinels are digging to Zion and would reach them in 72 hours. As Zion prepares for the ultimate war, Neo, Morpheus and Trinity are advised by the Oracle to find the Keymaker who would help them reach the Source.  Meanwhile Neo's recurrent dreams depicting Trinity's death have got him worried and as if it was not enough, Agent Smith has somehow escaped deletion, has become more powerful than before and has fixed Neo as his next target.", "poster_path": "/ezIurBz2fdUc68d98Fp9dRf5ihv.jpg", "popularity": 26.284}, {"id": 605, "video": false, "vote_count": 5698, "vote_average": 6.6, "title": "The Matrix Revolutions", "release_date": "2003-11-03", "original_language": "en", "original_title": "The Matrix Revolutions", "genre_ids": [28, 12, 878, 53], "backdrop_path": "/pdVHUsb2eEz9ALNTr6wfRJe5xVa.jpg", "adult": false, "overview": "The human city of Zion defends itself against the massive invasion of the machines as Neo fights to end the war at another front while also opposing the rogue Agent Smith.", "poster_path": "/sKogjhfs5q3azmpW7DFKKAeLEG8.jpg", "popularity": 22.724}, {"adult": false, "backdrop_path": "/3hYidDKVg4rsrkHQsbOKeqt6qkj.jpg", "genre_ids": [35, 28], "id": 19274, "original_language": "cn", "original_title": "\u7b11\u62f3\u602a\u62db", "overview": "Jackie Chan is a youngster, living in a remote vllage with his grandfather who teaches him Kong-Fu (naturally). He keeps getting into fights, even though his grandfather warns him not to show their Kong-Fu to others. Jackie, though, is tempted by some thugs he beat up to act as the master of a Kong-Fu school. This school's name apparently spreads far, as an old enemy of Jackie's grandfather (who t", "poster_path": "/ic5iTcB0HOfNCjQRV10SJ5oA4El.jpg", "release_date": "1979-02-17", "title": "Fearless Hyena", "video": false, "vote_average": 6.6, "vote_count": 59, "popularity": 12.832}, {"adult": false, "backdrop_path": "/wNm3hNJuOk117wEwuESKO8eCEAk.jpg", "genre_ids": [28], "id": 9461, "original_language": "en", "original_title": "Enter the Dragon", "overview": "A martial artist agrees to spy on a reclusive crime lord using his invitation to a tournament there as cover.", "poster_path": "/6C006cxfwjWYkBW4fM3xCMyr7Yg.jpg", "release_date": "1973-08-17", "title": "Enter the Dragon", "video": false, "vote_average": 7.4, "vote_count": 911, "popularity": 21.422}, {"id": 378064, "video": false, "vote_count": 1330, "vote_average": 8.3, "title": "A Silent Voice", "release_date": "2016-09-17", "original_language": "ja", "original_title": "\u8072\u306e\u5f62", "genre_ids": [16, 18, 10749], "backdrop_path": "/q5HZvtyqG8Vz39Ee9uTQbLeEml.jpg", "adult": false, "overview": "Shouya Ishida starts bullying the new girl in class, Shouko Nishimiya, because she is deaf. But as the teasing continues, the rest of the class starts to turn on Shouya for his lack of compassion. When they leave elementary school, Shouko and Shouya do not speak to each other again... until an older, wiser Shouya, tormented by his past behaviour, decides he must see Shouko once more. He wants to atone for his sins, but is it already too late...?", "poster_path": "/drlyoSKDOPnxzJFrRWGqzDsyJvR.jpg", "popularity": 17.997}, {"adult": false, "backdrop_path": "/ic450gLSYFUGb5Gxv39YXOqOGOP.jpg", "genre_ids": [28, 80, 53], "id": 11134, "original_language": "cn", "original_title": "\u8b66\u5bdf\u6545\u4e8b III\uff1a\u8d85\u7d1a\u8b66\u5bdf", "overview": "A Hong Kong detective teams up with his female Red Chinese counterpart to stop a Chinese drug czar.", "poster_path": "/sw94gRwWJf1O4uMFHmDyZNXJeIj.jpg", "release_date": "1992-07-04", "title": "Police Story 3: Super Cop", "video": false, "vote_average": 6.7, "vote_count": 210, "popularity": 11.796}], "total_pages": 147, "total_results": 2928}, "recommendations": {"page": 1, "results": [{"adult": false, "backdrop_path": "/2WckFehKvLPClGuQEpzRFJYrPX6.jpg", "genre_ids": [28, 16], "id": 17433, "original_language": "ja", "original_title": "\u30b9\u30c8\u30ea\u30fc\u30c8\u30d5\u30a1\u30a4\u30bf\u30fcZERO", "overview": "Increasingly disturbed by the dark energies building within him, Ryu is confronted by Shun, a boy claiming to be the brother he never knew. But before Ryu can consider whether Shun's timely appearance might be more than coincidental, Shun is kidnapped by Shadowlaw. To recover Shun, Ryu must undertake the ultimate journey of self-discovery and learn to control the power threatening to consume him.", "poster_path": "/vEcvyPGXA2JYSfmioOP0Sp7HWJD.jpg", "release_date": "1999-12-22", "title": "Street Fighter Alpha - The Movie", "video": false, "vote_average": 5.7, "vote_count": 28, "popularity": 4.885}, {"id": 22679, "video": false, "vote_count": 7, "vote_average": 6.3, "title": "Arion", "release_date": "1986-03-15", "original_language": "ja", "original_title": "\u30a2\u30ea\u30aa\u30f3", "genre_ids": [28, 12, 16, 14, 10752], "backdrop_path": "/zIrZFS0zkJrlhjQaJ2fp00kYbyV.jpg", "adult": false, "overview": "The story follows Arion, a young man kidnapped by Hades as a child and raised to believe that his mother was blinded by Zeus and that killing the ruler of Mount Olympus will cure her.", "poster_path": "/pZB5vFnUvO90YVYqqV50KdVmXTc.jpg", "popularity": 2.306}, {"id": 41365, "video": false, "vote_count": 5, "vote_average": 6.2, "title": "Slayers Gorgeous", "release_date": "1998-01-01", "original_language": "ja", "original_title": "\u30b9\u30ec\u30a4\u30e4\u30fc\u30ba\u3054\u3045\u3058\u3083\u3059", "genre_ids": [12, 16, 35, 14], "backdrop_path": "/ckDpI9ttivzvc4xyGxXsjbhtL6q.jpg", "adult": false, "overview": "Sorceresses Lina Inverse and Naga the Serpent are enjoying a meal in a villiage when the residents suddenly retreat indoors and two armies - one of men and one of a young girl and a tribe of dragons. Although the ruler of the town originally tries to convince Lina that this is because of a dark legacy, in truth the dragon army is led by his daughter and their battles are over her allowance. Lina agrees to help the ruler while Naga joins his daughter, Marlene.", "poster_path": "/4KZzVGOigKEQgfRL5Ygrz5mNB9k.jpg", "popularity": 1.487}, {"adult": false, "backdrop_path": "/rwyLxZ0PieByrtf49hBjUXm6bjw.jpg", "genre_ids": [14, 16, 35, 12], "id": 35105, "original_language": "ja", "original_title": "\u30b9\u30ec\u30a4\u30e4\u30fc\u30ba", "overview": "The first Slayers movie is a prequel to the TV series, following the exploits of a couple of sorceresses with too much time on their hands and too many violent tendencies. The main mage is Lina Inverse, known for her fireballs, love of seafood, and small breasts. Actually, her breasts are normal unless you compare her to her traveling companion and sometimes rival, Naga, known for her earthquakes,", "poster_path": "/fKAGp3vdtAg8cUq9HArUMDjwQhZ.jpg", "release_date": "1995-08-05", "title": "Slayers: The Motion Picture", "video": false, "vote_average": 6.3, "vote_count": 9, "popularity": 2.206}, {"id": 125521, "video": false, "vote_count": 4, "vote_average": 4.6, "title": "Slayers Return", "release_date": "1996-08-03", "original_language": "ja", "original_title": "\u30b9\u30ec\u30a4\u30e4\u30fc\u30ba\uff32\uff25\uff34\uff35\uff32\uff2e", "genre_ids": [12, 16, 35, 14], "backdrop_path": "/yJwL8V9H1g4x0bQ2IS5NH1z1lRz.jpg", "adult": false, "overview": "Outrageous enemies such as secret organizations aiming to dominate the world and mysterious strongest fighting forces attack Lina and Naga one after another for legendary \"treasure\" lying in a village in which Elves used to live. In addition, an immortal monster not affected by attacking magic appears and drive Lina and Naga into a terrible pinch. What they should do?", "poster_path": "/5SHjecxhIV28BN2UC7kkS6uAfKM.jpg", "popularity": 2.033}, {"id": 125510, "video": false, "vote_count": 4, "vote_average": 6.0, "title": "Slayers Great", "release_date": "1997-08-02", "original_language": "ja", "original_title": "\u30b9\u30ec\u30a4\u30e4\u30fc\u30ba\u3050\u308c\u3048\u3068", "genre_ids": [12, 16, 35, 14], "backdrop_path": "/wfrbwY2dxRSxOctikysHNLNk4lX.jpg", "adult": false, "overview": "Lina and Naga, on their way to a town called Storner, robbed bad guys of their precious treasure. Storner was known as a town of \"Gorlems\" moved by magic power. And again the two were thrown into trouble by a girl called Leia. Galia, Leia's father, and Huey, her brother argued all the time and both are skilled \"Gorlem\" artisans. Lina and Naga were forced to face each other (each one inside a gorlem, Lina's one made by Galia and Naga's one made by Huey) by two villains, Heisen and Granion who were competing for supreme power over the town.", "poster_path": "/mErnTroMPQRG7G5TL6wWtnO3OW3.jpg", "popularity": 2.213}, {"adult": false, "backdrop_path": "/hnq324kj0z1PuCj1zmGVODudDKG.jpg", "genre_ids": [16, 12, 28, 878], "id": 66628, "original_language": "ja", "original_title": "\u5730\u7403\u3078\u2026", "overview": "A young boy learns he is part of a powerful race of psionic humans who must fight the normal humans determined to keep them from Earth.", "poster_path": "/zvBWyKiWj2ZPokANHOZz73CkkUf.jpg", "release_date": "1980-04-25", "title": "Toward the Terra", "video": false, "vote_average": 6.9, "vote_count": 9, "popularity": 1.835}, {"adult": false, "backdrop_path": "/v2wvcOGyQmbxQH6NzVJUdpcj2gM.jpg", "genre_ids": [16, 18, 28, 53], "id": 51106, "original_language": "ja", "original_title": "\u902e\u6355\u3057\u3061\u3083\u3046\u305e the MOVIE", "overview": "Officers Tsujimoto and Kobayakawa are transferred back to Bokuto Police Station after stints in other police departments. Shortly after this, the discovery of smuggled firearms and the recovery of a magnetic disc herald new troubles for Bokuto station as the Chief is thrown in jail for keeping silent over \"Bee Number One\", developed by Detective Emoto who went missing two years ago.", "poster_path": "/wJReVNlJtniQCpdUk8dzD0d5dGA.jpg", "release_date": "1999-04-29", "title": "You're Under Arrest: The Movie", "video": false, "vote_average": 4.9, "vote_count": 9, "popularity": 3.095}, {"adult": false, "backdrop_path": "/5U3UG71a4QQSkLf7oGQcwXw3YKu.jpg", "genre_ids": [99, 28, 80], "id": 229979, "original_language": "en", "original_title": "Necessary Evil: Super-Villains of DC Comics", "overview": "A documentary detailing the epic Rogues' Gallery of DC Comics from The Joker and Lex Luthor, Sinestro, Darkseid and more, this documentary will explore the Super Villains of DC Comics.", "poster_path": "/kzmZjtNC2SK61KRYZOEagadeUcT.jpg", "release_date": "2013-10-23", "title": "Necessary Evil: Super-Villains of DC Comics", "video": false, "vote_average": 6.1, "vote_count": 22, "popularity": 4.312}, {"id": 49516, "video": false, "vote_count": 16, "vote_average": 3.8, "title": "Black Mask II", "release_date": "2002-12-24", "original_language": "en", "original_title": "\u9ed1\u4fe02", "genre_ids": [28, 12, 18, 878], "backdrop_path": "/dODawlZaDpHbmibJAYTeYqI4spZ.jpg", "adult": false, "overview": "The Black Mask must stop a group intent on setting off a DNA bomb that could cause mutations to the human race.", "poster_path": "/gje31ol0Gevpi8scmBwZGqK8cUI.jpg", "popularity": 6.475}, {"id": 22124, "video": false, "vote_count": 18, "vote_average": 7.2, "title": "Executioners from Shaolin", "release_date": "1977-02-16", "original_language": "zh", "original_title": "\u6d2a\u7199\u5b98", "genre_ids": [28], "backdrop_path": "/jH8PklUilTV1rK5lQ3IqEQxpDCC.jpg", "adult": false, "overview": "A couple unite - she is fluent in the crane style of kung fu, he in tiger style. They have a son, but the boy's father is killed by the evil eunuch Pai Mei. Disguised as a girl, his mom trains him in crane style while he secretly learns tiger style from his father's training manual.", "poster_path": "/fPtBSGKfFiWFPQpWpvzTS5U5a7x.jpg", "popularity": 3.908}, {"id": 19504, "video": false, "vote_count": 31, "vote_average": 6.1, "title": "Death Trance", "release_date": "2005-12-09", "original_language": "ja", "original_title": "\u30c7\u30b9\u30fb\u30c8\u30e9\u30f3\u30b9", "genre_ids": [28, 878, 53], "backdrop_path": "/xPXhDVKAKJhJQuamdroO20EBy1n.jpg", "adult": false, "overview": "In an unknown place and unknown time, a lone Samurai known only as Grave thirsts for the ultimate battle.", "poster_path": "/ibzV90cPb1omUslgkOntpjWVSC2.jpg", "popularity": 3.178}, {"adult": false, "backdrop_path": "/xYXj9gY7xKFaSTJ8FuSVn3Vc2Ha.jpg", "genre_ids": [16, 14, 28, 878, 10749], "id": 19738, "original_language": "ja", "original_title": "\u5c11\u5973\u9769\u547d\u30a6\u30c6\u30ca \u30a2\u30c9\u30a5\u30ec\u30bb\u30f3\u30b9\u9ed9\u793a\u9332", "overview": "In a loose retelling of the Revolutionary Girl Utena TV series, Utena Tenjou arrives at Ohtori Academy, only to be immediately swept up in a series of duels for the hand of her classmate Anthy Himemiya and the power she supposedly holds. At the same time, Utena reunites with Touga Kiryuu, a friend from her childhood who seems to know the secrets behind the duels. Utena must discover those secrets for herself, before the power that rules Ohtori claims her and her friends, new and old.", "poster_path": "/4gEuxmg7OTc9Nxbg5pj5cVTaKCh.jpg", "release_date": "1999-08-14", "title": "Revolutionary Girl Utena: The Adolescence of Utena", "video": false, "vote_average": 7.5, "vote_count": 23, "popularity": 7.173}, {"adult": false, "backdrop_path": "/mhgnQLJw2OCqSYEp1VZC6FBjXZR.jpg", "genre_ids": [16, 28], "id": 12613, "original_language": "ja", "original_title": "\u30b9\u30c8\u30ea\u30fc\u30c8\u30d5\u30a1\u30a4\u30bf\u30fc II MOVIE", "overview": "Bison, the ruthless leader of the international terrorist organization Shadowlaw, has been desperately searching for the greatest fighter on the planet for years. He finds it in Ryu, a young wanderer who never stays in one place long enough for Bison to find him. He does, however, get a fix on Ken Masters, an American martial arts champion who studied with Ryu as a child under the same master. Meanwhile, Major Guile of the United States Army is forced to team up with Chun Li from China in hopes of apprehending Bison and putting a stop his international ring of crime.", "poster_path": "/uqX0UM0CMAPEupVWCm5i3JnK0We.jpg", "release_date": "1994-08-06", "title": "Street Fighter II: The Animated Movie", "video": false, "vote_average": 6.6, "vote_count": 75, "popularity": 8.983}], "total_pages": 1, "total_results": 14}, "credits": {"cast": [{"cast_id": 6, "character": "Ryu", "credit_id": "52fe46ba9251416c75081781", "gender": 2, "id": 111375, "name": "Yasuyuki Kase", "order": 0, "profile_path": "/ehuBw7Uhp96sm98xfPfvwaaDHID.jpg"}, {"cast_id": 7, "character": "Fuka / Sayaka", "credit_id": "52fe46ba9251416c75081785", "gender": 1, "id": 112139, "name": "Yuri Amano", "order": 1, "profile_path": "/6GfVyLY7womSNFfIQGLbo25WGeB.jpg"}, {"cast_id": 8, "character": "Ken Masters", "credit_id": "52fe46ba9251416c75081789", "gender": 0, "id": 1172203, "name": "Eiji Hanawa", "order": 2, "profile_path": null}, {"cast_id": 9, "character": "Sakura Kasugano", "credit_id": "52fe46ba9251416c7508178d", "gender": 0, "id": 1172204, "name": "Mao Kawasaki", "order": 3, "profile_path": null}, {"cast_id": 10, "character": "Gouki", "credit_id": "52fe46ba9251416c75081791", "gender": 2, "id": 122191, "name": "Daisuke Gouri", "order": 4, "profile_path": "/g5OeBa8Rww8VNZiJuU7RhZxodwc.jpg"}, {"cast_id": 11, "character": "Goutetsu", "credit_id": "52fe46ba9251416c75081795", "gender": 2, "id": 551965, "name": "Kinryuu Arimoto", "order": 5, "profile_path": "/5hwTs6JJp6BEyyd26YBsrDX7pj9.jpg"}, {"cast_id": 12, "character": "Gouken", "credit_id": "52fe46ba9251416c75081799", "gender": 0, "id": 1172205, "name": "Tadashi Sait\u00f4", "order": 6, "profile_path": null}, {"cast_id": 14, "character": "Young Gouki", "credit_id": "52fe46ba9251416c7508179d", "gender": 2, "id": 553282, "name": "Yasunori Matsumoto", "order": 7, "profile_path": "/wStHWJbhaoN1uNIPmRUH32ry6co.jpg"}, {"cast_id": 16, "character": "Old Master", "credit_id": "52fe46ba9251416c750817a1", "gender": 2, "id": 81852, "name": "Takeshi Aono", "order": 8, "profile_path": "/e3IaulH39g31sTIZuiUsXXc5iZj.jpg"}, {"cast_id": 17, "character": "Young Gouken", "credit_id": "52fe46ba9251416c750817a5", "gender": 2, "id": 1222060, "name": "Ken'yuu Horiuchi", "order": 9, "profile_path": "/69V47TlxkGWn8tVNB5d0m5tyHC3.jpg"}], "crew": [{"credit_id": "52fe46b99251416c75081765", "department": "Directing", "gender": 0, "id": 1172200, "job": "Director", "name": "Ikuo Kuwana", "profile_path": null}, {"credit_id": "52fe46b99251416c7508176b", "department": "Production", "gender": 0, "id": 1127657, "job": "Producer", "name": "Kaoru Mfaume", "profile_path": null}, {"credit_id": "52fe46b99251416c75081771", "department": "Production", "gender": 0, "id": 110672, "job": "Producer", "name": "Kazufumi Nomura", "profile_path": null}, {"credit_id": "52fe46b99251416c75081777", "department": "Sound", "gender": 0, "id": 1172201, "job": "Music", "name": "Bill Laswell", "profile_path": null}, {"credit_id": "52fe46ba9251416c7508177d", "department": "Writing", "gender": 0, "id": 1172202, "job": "Writer", "name": "Mitsuhiro Yamada", "profile_path": null}]}}