{"adult": false, "backdrop_path": "/w4gpqJFEvzYW82fkm02CreWSR6c.jpg", "belongs_to_collection": null, "budget": 0, "genres": [{"id": 18, "name": "Drama"}], "homepage": null, "id": 162837, "imdb_id": "tt0104414", "original_language": "he", "original_title": "Hessed Mufla", "overview": "A drama about two families, each with a gay son. Jonathan is splitting from Miki because the more experienced Miki is playing around. Then Jonathan sees Thomas, the son and grandson of his neighbors, who is back in Israel after failing to make it as a musician in New York: Thomas is ill, detached, in search of hard drugs. Jonathan tries to connect with him. Meanwhile, Thomas's grandmother, facing old age, has become bitter, particularly toward her hard-working daughter. They worry about Thomas. A few blocks away, Jonathan's mother, brother and sister maintain their sometimes bickering relationships, watching Jonathan brave adulthood.", "popularity": 1.617, "poster_path": "/dwDc33pzl79BApxar8B2B0Cnnwq.jpg", "production_companies": [], "production_countries": [{"iso_3166_1": "IL", "name": "Israel"}], "release_date": "1992-09-09", "revenue": 0, "runtime": 95, "spoken_languages": [{"iso_639_1": "he", "name": "\u05e2\u05b4\u05d1\u05b0\u05e8\u05b4\u05d9\u05ea"}], "status": "Released", "tagline": "", "title": "Amazing Grace", "video": false, "vote_average": 6.5, "vote_count": 2, "keywords": {"keywords": [{"id": 456, "name": "mother"}, {"id": 10198, "name": "gay relationship"}, {"id": 254312, "name": "drogue"}, {"id": 257416, "name": "sida"}]}, "similar": {"page": 1, "results": [{"adult": false, "backdrop_path": "/xe7PSGl603NPPAOvSr1bs44hQs3.jpg", "genre_ids": [18], "id": 380874, "original_language": "de", "original_title": "Jonathan", "overview": "A young man struggles with the pressure of caring for his terminally ill father while trying to unlock a secret that his father seems determined to keep from him. The story takes another dramatic turn when Ron, Burghardt\u2019s long-lost friend from his youth, re-appears \u2014 and a well-kept family secret is uncovered.", "poster_path": "/ixaQRWo75DLEUQu03dAPcSDxFmr.jpg", "release_date": "2016-05-05", "title": "Jonathan", "video": false, "vote_average": 6.7, "vote_count": 22, "popularity": 2.506}, {"adult": false, "backdrop_path": "/ybbB49QJSFgv8IxzJhPLwJbSuEG.jpg", "genre_ids": [18, 14, 10749], "id": 47643, "original_language": "en", "original_title": "Lilies - Les feluettes", "overview": "1952: Bishop Bilodeau visits a qu\u00e9b\u00e9cois prison to hear the confession of a boyhood friend jailed for murder 40 years ago. The inmates force the prelate to watch a play depicting what really happened in 1912. We meet him as a young man, strait-laced, intent on convincing Simon (now the convict) to join the seminary with him.", "poster_path": "/zEaYOUDV7nKsd8SIfC6Dcs38pp2.jpg", "release_date": "1996-09-07", "title": "Lilies", "video": false, "vote_average": 7.8, "vote_count": 16, "popularity": 6.051}, {"adult": false, "backdrop_path": "/qs4P8THxjbMZYc9QuZvzN95KzBM.jpg", "genre_ids": [18, 53, 9648], "id": 184352, "original_language": "fr", "original_title": "Tom \u00e0 la ferme", "overview": "A young man travels to an isolated farm for his lover's funeral where he's quickly drawn into a twisted, sexually charged game by his lover's aggressive brother.", "poster_path": "/wS4oYOHEKva9sMLOHSr7tW19SaQ.jpg", "release_date": "2013-09-02", "title": "Tom at the Farm", "video": false, "vote_average": 6.9, "vote_count": 408, "popularity": 7.884}, {"adult": false, "backdrop_path": "/qbrmEfBEcdrzHSAHgazJWmz3TSU.jpg", "genre_ids": [18], "id": 616229, "original_language": "en", "original_title": "The Male Gaze: The Heat of the Night", "overview": "When darkness falls, temperatures rise in these six stories about late night confessions, intimacy for sale, high speed hookups and full moon frissons. But when the sun comes up and reality reveals itself, will it have all been worth it?", "poster_path": "/e1gNLO829rkE73sBJ3aClZJHNXd.jpg", "release_date": "2019-07-15", "title": "The Male Gaze: The Heat of the Night", "video": false, "vote_average": 3.3, "vote_count": 3, "popularity": 7.834}, {"id": 449176, "video": false, "vote_count": 3691, "vote_average": 8.1, "title": "Love, Simon", "release_date": "2018-02-16", "original_language": "en", "original_title": "Love, Simon", "genre_ids": [35, 18, 10749], "backdrop_path": "/rqMEeajyzSF4PpJtdCB816Iz8Vr.jpg", "adult": false, "overview": "Everyone deserves a great love story. But for seventeen-year old Simon Spier it's a little more complicated: he's yet to tell his family or friends he's gay and he doesn't know the identity of the anonymous classmate he's fallen for online.", "poster_path": "/5YUYg5q7QfC4IoNwNUtiwdiYKPr.jpg", "popularity": 17.201}, {"adult": false, "backdrop_path": "/r3DKR4VybkjYP2w4wYFIf2cEPc.jpg", "genre_ids": [10749, 18], "id": 322127, "original_language": "de", "original_title": "You & I", "overview": "Summer in Berlin. Jonas is planning a trip through the little known area of the Uckermark in preparation for a photography project. He invites his best friend, Phillip, to come along. When they pick up a hitchhiker named Boris, the friendship of the two starts to fray. Maybe three\u2019s a crowd after all? By the end of the summer, things between Jonas and Phillip won\u2019t ever be the same again.", "poster_path": "/59OmxhLZVh3ZXLAu6iaywYYx01S.jpg", "release_date": "2015-09-16", "title": "You & I", "video": false, "vote_average": 7.4, "vote_count": 22, "popularity": 5.241}, {"adult": false, "backdrop_path": "/6VhtzImP1UvYkIAHS4L8yfmceOM.jpg", "genre_ids": [18], "id": 26280, "original_language": "fr", "original_title": "J'ai tu\u00e9 ma m\u00e8re", "overview": "Hubert, a brash 17-year-old, is confused and torn by a love-hate relationship with his mother that consumes him more and more each day. After distressing ordeals and tragic episodes, Hubert will find his mother on the banks of Saint Lawrence river, where he grew up, and where a murder will be committed: the murder of childhood.", "poster_path": "/cxb02CLALt9He1Dt0BIDKj9fdvM.jpg", "release_date": "2009-06-05", "title": "I Killed My Mother", "video": false, "vote_average": 7.7, "vote_count": 655, "popularity": 11.451}, {"id": 581791, "video": false, "vote_count": 12, "vote_average": 7.9, "title": "The Blonde One", "release_date": "2019-02-26", "original_language": "es", "original_title": "Un Rubio", "genre_ids": [18, 10749], "backdrop_path": "/lXajaGvX9fZXEFZ7yd4CgsPWkav.jpg", "adult": false, "overview": "Gabriel rents a room in Juan\u2019s House. They work together in a Woodwork place. Gabriel is a very quiet guy and has a little daughter. Juan is a party boy who has a lots of girls around. Inadvertently the sexual tension starts to grow between them. It opens a new hidden forbidden world they have to deal with.", "poster_path": "/wnuvOKLr6qAtQYVru5gJnHeBKlo.jpg", "popularity": 3.043}, {"adult": false, "backdrop_path": "/qWZSYN2tBoZdUY9NDdvSKQ6OH4u.jpg", "genre_ids": [18], "id": 377154, "original_language": "fr", "original_title": "Quand on a 17 Ans", "overview": "Set in the beautiful high Pyrenees in south-west France, Damien lives with his mother Marianne, a doctor, while his father, a pilot, is on a tour of duty abroad with the French military. At school, Damien is bullied by Thomas,  who lives in the farming community up in the mountains, nut learns to fight back. The boys find themselves living together when Marianne invites Thomas to come and stay with them while his mother is ill in hospital. Damien must learn to live with the boy who terrorised him.", "poster_path": "/ogfzBX1iNzgaCBTmRRf6c69L19k.jpg", "release_date": "2016-02-27", "title": "Being 17", "video": false, "vote_average": 6.9, "vote_count": 210, "popularity": 6.56}, {"adult": false, "backdrop_path": "/knpPKme88KkGx0IyAgXTZ4fPGC6.jpg", "genre_ids": [18], "id": 258034, "original_language": "es", "original_title": "Cuatro Lunas", "overview": "Four stories about love and self-acceptance: An eleven year-old boy struggles to keep secret the attraction he feels towards his male cousin. Two former childhood friends reunite and start a relationship that gets complicated due to one of them\u2019s fear of getting caught. A gay long lasting relationship is in jeopardy when a third man comes along. An old family man is obsessed with a young male prostitute and tries to raise the money to afford the experience.", "poster_path": "/9txGc3oPCLfYse0ozfHLltwC2Q7.jpg", "release_date": "2014-03-21", "title": "4 Moons", "video": false, "vote_average": 7.6, "vote_count": 101, "popularity": 8.755}, {"adult": false, "backdrop_path": "/8PA2FHeCohsqiFOIFirjBVnwj0s.jpg", "genre_ids": [18], "id": 425193, "original_language": "de", "original_title": "Die Geschwister", "overview": "Neuk\u00f6lln, a trendy district in Berlin. Living space is scarce here. Without surety, proof of credit worthiness and salary there is no chance at all now. Thies knows this game; he works for a real estate management company and watches that the rules are upheld - until he meets Bruno and Sonja. He provides the dissimilar siblings with a flat free of charge on the quiet. And enters into an affair with the brother. Step by step he becomes more deeply immersed in the secret of the \"siblings\". A Berlin film about a loner who gets caught up. About a couple with unclear residency status. About a city everyone wants to live in.", "poster_path": "/M70JxRkzFlMVwgsdzVBjudWwc.jpg", "release_date": "2016-11-03", "title": "Brother and Sister", "video": false, "vote_average": 7.4, "vote_count": 7, "popularity": 1.902}, {"id": 105526, "video": false, "vote_count": 52, "vote_average": 7.0, "title": "Any Day Now", "release_date": "2012-12-14", "original_language": "en", "original_title": "Any Day Now", "genre_ids": [18], "backdrop_path": "/89z83feoNJPYn9KxM5F69naWmv1.jpg", "adult": false, "overview": "In the late 1970s, when a mentally handicapped teenager is abandoned, a gay couple takes him in and becomes the family he's never had. But once the unconventional living arrangement is discovered by authorities, the men must fight the legal system to adopt the child.", "poster_path": "/qGVcgRcrZjTOrn572FXBSpVFUSt.jpg", "popularity": 6.015}, {"adult": false, "backdrop_path": "/jjQBDuCyhBW7cjllKUsuzoxll5l.jpg", "genre_ids": [18], "id": 160165, "original_language": "pl", "original_title": "W Imi\u0119...", "overview": "The contemporary story of a priest who launches a centre for troubled youth in a small parish. He is a good priest and is well-liked by his congregation, which remains unaware of his complicated past.", "poster_path": "/oHa3pVFl5Ef9K3BmFlmwWs5ftkB.jpg", "release_date": "2013-09-06", "title": "In the Name of...", "video": false, "vote_average": 7.1, "vote_count": 28, "popularity": 4.547}, {"adult": false, "backdrop_path": "/zCC5Han27o5AxhdNJ86b5YhLhIS.jpg", "genre_ids": [18, 10749], "id": 26933, "original_language": "fr", "original_title": "Les roseaux sauvages", "overview": "As the Algerian War draws to a close, a teenager with a girlfriend starts feeling homosexual urges for two of his classmates: a country boy, and a French-Algerian intellectual.", "poster_path": "/vPPsAieu9KEVZcI06xKHl9zztUO.jpg", "release_date": "1994-06-01", "title": "Wild Reeds", "video": false, "vote_average": 7.5, "vote_count": 46, "popularity": 5.558}, {"adult": false, "backdrop_path": "/ztD8x6kFrhyPIrdbEqWkxwKEgzv.jpg", "genre_ids": [80, 18], "id": 383526, "original_language": "es", "original_title": "Nunca vas a estar solo", "overview": "Introverted Juan, manager of a mannequin factory, lives alone with his eighteen-year-old gay son, Pablo. Whilst Pablo blithely studies dance, Juan is hoping that, after twenty-five years at the firm, his boss will consider him for a partnership. When Pablo is badly wounded in a brutal homophobic attack which sees him hospitalised, his father realises just how far they have become estranged. A lack of witnesses and expensive medical bills force Juan to leave the quiet stability of his life for good and reposition himself in a world where there is discrimination. Time and again his efforts come to nought, until one night on the streets of Santiago he makes up his own rules in order to save his son.", "poster_path": "/lGReDf0NnrAbdXaU1SbFyKnJJH4.jpg", "release_date": "2016-02-13", "title": "You'll Never Be Alone", "video": false, "vote_average": 7.1, "vote_count": 17, "popularity": 2.412}, {"id": 21634, "video": false, "vote_count": 250, "vote_average": 7.9, "title": "Prayers for Bobby", "release_date": "2009-02-27", "original_language": "en", "original_title": "Prayers for Bobby", "genre_ids": [18, 36, 10770], "backdrop_path": "/pSjGsbqyKUzF8rHzL0vtVWV1pS6.jpg", "adult": false, "overview": "Bobby Griffith was his mother's favorite son, the perfect all-American boy growing up under deeply religious influences in Walnut Creek, California. Bobby was also gay. Struggling with a conflict no one knew of much less understood Bobby finally came out to his family.", "poster_path": "/d9TGJxEMkLTEF5lWAx1PLNDNpA0.jpg", "popularity": 9.034}, {"adult": false, "backdrop_path": "/useuHJQ5HOoEWkAvEjL1FW1sUfe.jpg", "genre_ids": [18], "id": 376867, "original_language": "en", "original_title": "Moonlight", "overview": "The tender, heartbreaking story of a young man\u2019s struggle to find himself, told across three defining chapters in his life as he experiences the ecstasy, pain, and beauty of falling in love, while grappling with his own sexuality.", "poster_path": "/qAwFbszz0kRyTuXmMeKQZCX3Q2O.jpg", "release_date": "2016-10-21", "title": "Moonlight", "video": false, "vote_average": 7.4, "vote_count": 4410, "popularity": 21.716}, {"id": 424694, "video": false, "vote_count": 9728, "vote_average": 8.0, "title": "Bohemian Rhapsody", "release_date": "2018-10-24", "original_language": "en", "original_title": "Bohemian Rhapsody", "genre_ids": [18, 10402], "backdrop_path": "/93xA62uLd5CwMOAs37eQ7vPc1iV.jpg", "adult": false, "overview": "Singer Freddie Mercury, guitarist Brian May, drummer Roger Taylor and bass guitarist John Deacon take the music world by storm when they form the rock 'n' roll band Queen in 1970. Hit songs become instant classics. When Mercury's increasingly wild lifestyle starts to spiral out of control, Queen soon faces its greatest challenge yet \u2013 finding a way to keep the band together amid the success and excess.", "poster_path": "/lHu1wtNaczFPGFDTrjCSzeLPTKN.jpg", "popularity": 37.217}, {"adult": false, "backdrop_path": "/cLOekK7EmHB1beYUYEXIlcr6mpS.jpg", "genre_ids": [10752, 36, 28, 12, 18, 10749], "id": 1966, "original_language": "en", "original_title": "Alexander", "overview": "Alexander, the King of Macedonia, leads his legions against the giant Persian Empire. After defeating the Persians, he leads his army across the then known world, venturing farther than any westerner had ever gone, all the way to India.", "poster_path": "/cJrnmbsFm5cEt0pHZZ2a1ueH5aT.jpg", "release_date": "2004-11-21", "title": "Alexander", "video": false, "vote_average": 5.8, "vote_count": 1989, "popularity": 29.042}, {"id": 119675, "video": false, "vote_count": 487, "vote_average": 6.7, "title": "Behind the Candelabra", "release_date": "2013-05-26", "original_language": "en", "original_title": "Behind the Candelabra", "genre_ids": [18, 10749], "backdrop_path": "/4k4caZuJUSGQD6BYk3Vuyb3gB6W.jpg", "adult": false, "overview": "Based on the autobiographical novel, the tempestuous 6-year relationship between Liberace and his (much younger) lover, Scott Thorson, is recounted.", "poster_path": "/46J5VoqnneIz3hs50Ptk2o5bmXB.jpg", "popularity": 9.094}], "total_pages": 178, "total_results": 3552}, "recommendations": {"page": 1, "results": [], "total_pages": 1, "total_results": 0}, "credits": {"cast": [{"cast_id": 1, "character": "Thomas", "credit_id": "52fe4c5fc3a36847f822adb3", "gender": 0, "id": 176152, "name": "Sharon Alexander", "order": 0, "profile_path": null}, {"cast_id": 2, "character": "Miki", "credit_id": "52fe4c5fc3a36847f822adb7", "gender": 2, "id": 52686, "name": "Aki Avni", "order": 1, "profile_path": "/rBY4waZRlOmdZwxX3lTAHaRz60U.jpg"}, {"cast_id": 3, "character": "Jonathan", "credit_id": "52fe4c5fc3a36847f822adbb", "gender": 0, "id": 1011139, "name": "Gal Hoyberger", "order": 2, "profile_path": null}, {"cast_id": 4, "character": "Thomas' Mother", "credit_id": "52fe4c5fc3a36847f822adbf", "gender": 0, "id": 583795, "name": "Rivka Michaeli", "order": 3, "profile_path": "/12U4h3m5wBj9sUi4rD7aKil2EMX.jpg"}], "crew": [{"credit_id": "52fe4c5fc3a36847f822adc5", "department": "Directing", "gender": 0, "id": 1156779, "job": "Director", "name": "Amos Guttman", "profile_path": null}, {"credit_id": "52fe4c5fc3a36847f822adcb", "department": "Writing", "gender": 0, "id": 1156779, "job": "Writer", "name": "Amos Guttman", "profile_path": null}]}}