{"adult": false, "backdrop_path": "/3fmXl2HESooOzCdftnCyK57HOgF.jpg", "belongs_to_collection": null, "budget": 0, "genres": [{"id": 35, "name": "Comedy"}, {"id": 18, "name": "Drama"}], "homepage": "http://www.voxpopuli.nl", "id": 16359, "imdb_id": "tt0847770", "original_language": "en", "original_title": "Vox Populi", "overview": "Vox Populi is a black comedy about an experienced politician suffering from a midlife crisis. When he comes into contact with the common-man's logic of his new in-laws, this has a far-reaching effect on both his political and his personal life.", "popularity": 2.751, "poster_path": "/aEdJ0aNq6lYVBbaQy0uC7sHtbLH.jpg", "production_companies": [], "production_countries": [{"iso_3166_1": "NL", "name": "Netherlands"}], "release_date": "2008-10-23", "revenue": 0, "runtime": 100, "spoken_languages": [{"iso_639_1": "nl", "name": "Nederlands"}], "status": "Released", "tagline": "", "title": "Vox Populi", "video": false, "vote_average": 7.3, "vote_count": 4, "keywords": {"keywords": [{"id": 1199, "name": "netherlands"}, {"id": 3060, "name": "race politics"}, {"id": 6078, "name": "politics"}, {"id": 10123, "name": "dark comedy"}]}, "similar": {"page": 1, "results": [{"id": 592739, "video": false, "vote_count": 51, "vote_average": 5.5, "title": "Cetto C'\u00e8", "release_date": "2019-11-21", "original_language": "it", "original_title": "Cetto c'\u00e8, senzadubbiamente", "genre_ids": [35], "backdrop_path": "/bzo9brPKm8lJgL2vqYmbvs1AFyd.jpg", "adult": false, "overview": "Third movie about the character of Cetto La Qualunque (Antonio Albanese)", "poster_path": "/5n5uCJQzFUMdBu3WkHhGBg2dhts.jpg", "popularity": 4.021}, {"id": 402897, "video": false, "vote_count": 877, "vote_average": 7.0, "title": "The Death of Stalin", "release_date": "2017-10-20", "original_language": "en", "original_title": "The Death of Stalin", "genre_ids": [35, 36], "backdrop_path": "/tx5TFMF85qU2Ug4TRIGQZbDpzFA.jpg", "adult": false, "overview": "When tyrannical dictator Josef Stalin dies in 1953, his parasitic cronies square off in a frantic power struggle to become the next Soviet leader. Among the contenders are the dweebish Georgy Malenkov, the wily Nikita Khrushchev and Lavrenti Beria, the sadistic secret police chief.", "poster_path": "/xAKqG5SpsHU7vI6Fh4UYxFrDDZZ.jpg", "popularity": 14.095}, {"id": 14, "video": false, "vote_count": 7295, "vote_average": 8.0, "title": "American Beauty", "release_date": "1999-09-15", "original_language": "en", "original_title": "American Beauty", "genre_ids": [18], "backdrop_path": "/z5J18ByLeOZ68iORfMXmxeFuwyL.jpg", "adult": false, "overview": "Lester Burnham, a depressed suburban father in a mid-life crisis, decides to turn his hectic life around after developing an infatuation with his daughter's attractive friend.", "poster_path": "/or1MP8BZIAjqWYxPdPX724ydKar.jpg", "popularity": 28.789}, {"adult": false, "backdrop_path": "/hyVHeKqCDwZdvgeFvAFZD2pDcFy.jpg", "genre_ids": [14, 35, 12], "id": 1832, "original_language": "en", "original_title": "Dogma", "overview": "The latest battle in the eternal war between Good and Evil has come to New Jersey in the late, late 20th Century. Angels, demons, apostles and prophets (of a sort) walk among the cynics and innocents of America and duke it out for the fate of humankind.", "poster_path": "/zuJJAEvyiZiddzRx7JRGNDzjP07.jpg", "release_date": "1999-11-12", "title": "Dogma", "video": false, "vote_average": 6.9, "vote_count": 1485, "popularity": 16.863}, {"id": 747, "video": false, "vote_count": 5110, "vote_average": 7.5, "title": "Shaun of the Dead", "release_date": "2004-04-09", "original_language": "en", "original_title": "Shaun of the Dead", "genre_ids": [35, 27], "backdrop_path": "/50mMiR0R1QclaAODTutwXBrReLJ.jpg", "adult": false, "overview": "Shaun lives a supremely uneventful life, which revolves around his girlfriend, his mother, and, above all, his local pub. This gentle routine is threatened when the dead return to life and make strenuous attempts to snack on ordinary Londoners.", "poster_path": "/2evlcGnsfdFWLb7geNlIjIewc0Q.jpg", "popularity": 25.866}, {"adult": false, "backdrop_path": "/2Tawvc0JMmR9nBXD3nhBThTQP2X.jpg", "genre_ids": [53, 18, 80, 27], "id": 1359, "original_language": "en", "original_title": "American Psycho", "overview": "A wealthy New York investment banking executive hides his alternate psychopathic ego from his co-workers and friends as he escalates deeper into his illogical, gratuitous fantasies.", "poster_path": "/qXsylPM4Lr5397R3eHrfqHhTUNc.jpg", "release_date": "2000-04-13", "title": "American Psycho", "video": false, "vote_average": 7.4, "vote_count": 4915, "popularity": 21.511}, {"id": 935, "video": false, "vote_count": 3106, "vote_average": 8.2, "title": "Dr. Strangelove or: How I Learned to Stop Worrying and Love the Bomb", "release_date": "1964-01-29", "original_language": "en", "original_title": "Dr. Strangelove or: How I Learned to Stop Worrying and Love the Bomb", "genre_ids": [35, 18, 10752], "backdrop_path": "/8Sh5rRcOrBy4AIm3keZ50dOIn4D.jpg", "adult": false, "overview": "After the insane General Jack D. Ripper initiates a nuclear strike on the Soviet Union, a war room full of politicians, generals and a Russian diplomat all frantically try to stop the nuclear strike.", "poster_path": "/tviJ68Wj4glQk3CPMvdvExYHxX.jpg", "popularity": 20.711}, {"id": 401469, "video": false, "vote_count": 1261, "vote_average": 6.5, "title": "Widows", "release_date": "2018-11-06", "original_language": "en", "original_title": "Widows", "genre_ids": [80, 53], "backdrop_path": "/tkri1hMrb1FhWfb2bWpprsvq9Sd.jpg", "adult": false, "overview": "A police shootout leaves four thieves dead during an explosive armed robbery attempt in Chicago. Their widows have nothing in common except a debt left behind by their spouses' criminal activities. Hoping to forge a future on their own terms, they join forces to pull off a heist.", "poster_path": "/d31SGJSaX29ba5ZUbZcesGoDE7I.jpg", "popularity": 16.285}, {"adult": false, "backdrop_path": "/vZ7EVk7FaNEWYqlVWbFLHP8Z0LU.jpg", "genre_ids": [9648, 53, 27], "id": 419430, "original_language": "en", "original_title": "Get Out", "overview": "Chris and his girlfriend Rose go upstate to visit her parents for the weekend. At first, Chris reads the family's overly accommodating behavior as nervous attempts to deal with their daughter's interracial relationship, but as the weekend progresses, a series of increasingly disturbing discoveries lead him to a truth that he never could have imagined.", "poster_path": "/rdPGUJhadPg7FGFNzavib0iwTor.jpg", "release_date": "2017-02-24", "title": "Get Out", "video": false, "vote_average": 7.5, "vote_count": 10007, "popularity": 24.396}, {"adult": false, "backdrop_path": "/hkuPAYz0TstcAquVpibaDnADqQS.jpg", "genre_ids": [28, 35], "id": 109414, "original_language": "en", "original_title": "This Is the End", "overview": "While attending a party at James Franco's house, Seth Rogen, Jay Baruchel and many other celebrities are faced with the apocalypse.", "poster_path": "/1rMzHyOsk1b1ddcFJgMSB6kOASu.jpg", "release_date": "2013-06-12", "title": "This Is the End", "video": false, "vote_average": 6.2, "vote_count": 4139, "popularity": 17.805}, {"id": 185, "video": false, "vote_count": 7610, "vote_average": 8.2, "title": "A Clockwork Orange", "release_date": "1971-12-18", "original_language": "en", "original_title": "A Clockwork Orange", "genre_ids": [18, 878], "backdrop_path": "/unMc1jEyqCnzba976GviSFKGagt.jpg", "adult": false, "overview": "In a near-future Britain, young Alexander DeLarge and his pals get their kicks beating and raping anyone they please. When not destroying the lives of others, Alex swoons to the music of Beethoven. The state, eager to crack down on juvenile crime, gives an incarcerated Alex the option to undergo an invasive procedure that'll rob him of all personal agency. In a time when conscience is a commodity, can Alex change his tune?", "poster_path": "/4sHeTAp65WrSSuc05nRBKddhBxO.jpg", "popularity": 21.362}, {"id": 376290, "video": false, "vote_count": 1038, "vote_average": 7.5, "title": "Miss Sloane", "release_date": "2016-11-25", "original_language": "en", "original_title": "Miss Sloane", "genre_ids": [18, 53], "backdrop_path": "/64xHK6gmw3ZwIpjeSWZ7W686J5l.jpg", "adult": false, "overview": "An ambitious lobbyist faces off against the powerful gun lobby in an attempt to pass gun control legislation.", "poster_path": "/lPgISoC37G3E2QEVtSuJ15oYlI.jpg", "popularity": 15.942}, {"adult": false, "backdrop_path": null, "genre_ids": [35], "id": 637573, "original_language": "en", "original_title": "Daniel Sloss: X", "overview": "A new comedy special performed by Daniel Sloss.", "poster_path": "/b3DxLUvcp5hRXtTa4pv2wRAuY4P.jpg", "release_date": "2019-11-02", "title": "Daniel Sloss: X", "video": false, "vote_average": 10.0, "vote_count": 1, "popularity": 2.906}, {"id": 72113, "video": false, "vote_count": 1665, "vote_average": 7.2, "title": "Carnage", "release_date": "2011-09-16", "original_language": "en", "original_title": "Carnage", "genre_ids": [35, 18], "backdrop_path": "/9KGWIK8dylbvQTa4LeB2ESKH8FC.jpg", "adult": false, "overview": "After 11-year-old Zachary Cowan strikes his classmate across the face with a stick after an argument, the victim's parents invite Zachary's parents to their Brooklyn apartment to deal with the incident in a civilized manner.", "poster_path": "/1nhY2l0SffJ5nK8FaeiRaMblN3d.jpg", "popularity": 17.094}, {"id": 459992, "video": false, "vote_count": 883, "vote_average": 6.6, "title": "Long Shot", "release_date": "2019-05-02", "original_language": "en", "original_title": "Long Shot", "genre_ids": [35, 10749], "backdrop_path": "/88r25ghJzVYKq0vaOApqEOZsQlD.jpg", "adult": false, "overview": "Fred Flarsky is a gifted and free-spirited journalist who has a knack for getting into trouble. Charlotte Field is one of the most influential women in the world -- a smart, sophisticated and accomplished politician. When Fred unexpectedly runs into Charlotte, he soon realizes that she was his former baby sitter and childhood crush. When Charlotte decides to make a run for the presidency, she impulsively hires Fred as her speechwriter -- much to the dismay of her trusted advisers.", "poster_path": "/m2ttWZ8rMRwIMT7zA48Jo6mTkDS.jpg", "popularity": 37.774}, {"id": 7446, "video": false, "vote_count": 3479, "vote_average": 6.5, "title": "Tropic Thunder", "release_date": "2008-08-09", "original_language": "en", "original_title": "Tropic Thunder", "genre_ids": [28, 12, 35, 10752], "backdrop_path": "/pr8sj9FozsiT45TMtkwFRWONNII.jpg", "adult": false, "overview": "Vietnam veteran 'Four Leaf' Tayback's memoir, Tropic Thunder, is being made into a film, but Director Damien Cockburn can\u2019t control the cast of prima donnas. Behind schedule and over budget, Cockburn is ordered by a studio executive to get filming back on track, or risk its cancellation. On Tayback's advice, Cockburn drops the actors into the middle of the jungle to film the remaining scenes but, unbeknownst to the actors and production, the group have been dropped in the middle of the Golden Triangle, the home of heroin-producing gangs.", "poster_path": "/ue9QdvhpcNPvKQyLY5a5Pd0tagS.jpg", "popularity": 28.425}, {"id": 651, "video": false, "vote_count": 478, "vote_average": 7.1, "title": "M*A*S*H", "release_date": "1970-01-24", "original_language": "en", "original_title": "M*A*S*H", "genre_ids": [35, 18, 10752], "backdrop_path": "/l5YH6TCYi2mgZwXbDjF71iA9UBP.jpg", "adult": false, "overview": "The staff of a Korean War field hospital use humor and high jinks to keep their sanity in the face of the horror of war.", "poster_path": "/cscyvJ4nDgbqewrttPXZ5EYOdwa.jpg", "popularity": 12.777}, {"adult": false, "backdrop_path": "/plnmzCMPAb3suBAUJ4Yi2NC1APA.jpg", "genre_ids": [35], "id": 35056, "original_language": "en", "original_title": "Date Night", "overview": "Phil and Claire Foster fear that their mild-mannered relationship may be falling into a stale rut. During their weekly date night, their dinner reservation leads to their being mistaken for a couple of thieves\u2014and now a number of unsavoury characters want Phil and Claire killed.", "poster_path": "/fzzPht9KId6Ollow30jYtABhDY3.jpg", "release_date": "2010-04-08", "title": "Date Night", "video": false, "vote_average": 6.0, "vote_count": 1888, "popularity": 14.813}, {"id": 1878, "video": false, "vote_count": 2625, "vote_average": 7.2, "title": "Fear and Loathing in Las Vegas", "release_date": "1998-05-22", "original_language": "en", "original_title": "Fear and Loathing in Las Vegas", "genre_ids": [12, 35, 18], "backdrop_path": "/vtEKE4OFsnuIh37oo1arOMM2ELv.jpg", "adult": false, "overview": "Raoul Duke and his attorney Dr. Gonzo drive a red convertible across the Mojave desert to Las Vegas with a suitcase full of drugs to cover a motorcycle race. As their consumption of drugs increases at an alarming rate, the stoned duo trash their hotel room and fear legal repercussions. Duke begins to drive back to L.A., but after an odd run-in with a cop, he returns to Sin City and continues his wild drug binge.", "poster_path": "/u9ffgobMADj6GCafeImbov566j9.jpg", "popularity": 22.582}, {"adult": false, "backdrop_path": "/pZz5VmundsZO29sB3TgZKjnFEEM.jpg", "genre_ids": [35, 878], "id": 957, "original_language": "en", "original_title": "Spaceballs", "overview": "When the nefarious Dark Helmet hatches a plan to snatch Princess Vespa and steal her planet's air, space-bum-for-hire Lone Starr and his clueless sidekick fly to the rescue. Along the way, they meet Yogurt, who puts Lone Starr wise to the power of \"The Schwartz.\" Can he master it in time to save the day?", "poster_path": "/xWt9KAcToCRdJ6JH8JyZZlhkVgG.jpg", "release_date": "1987-06-24", "title": "Spaceballs", "video": false, "vote_average": 6.8, "vote_count": 1694, "popularity": 20.277}], "total_pages": 105, "total_results": 2081}, "recommendations": {"page": 1, "results": [{"adult": false, "backdrop_path": "/49sJ1aafhdsdb3uA20HKlekAQN0.jpg", "genre_ids": [18, 35, 10749], "id": 24285, "original_language": "nl", "original_title": "Phileine zegt sorry", "overview": "Gorgeous Dutch youngster Max has two passions, acting and girls. The first becomes his brilliant career, which takes off so well he gets invited to a prestigious New York theatre course for a year. But since he met fickle bitch Phileine in an Utrecht park, his flirting life is cut short while she cruelly plays with his feelings rather then his horny body. After refusing to follow him, she turns up uninvited later and still acts jealous and possessive. Grief follows for everyone, working up to a convoluted finale.", "poster_path": "/8zcY9jdPHNV9MPMTXBuL9HtbAQ0.jpg", "release_date": "2003-10-09", "title": "Phileine Says Sorry", "video": false, "vote_average": 6.2, "vote_count": 15, "popularity": 3.32}, {"adult": false, "backdrop_path": "/A9ky7j8CEPIzsyvWrGfhVPi0Vcy.jpg", "genre_ids": [18], "id": 24245, "original_language": "nl", "original_title": "De passievrucht", "overview": "Armin is in crisis. One fateful day he discovers he is infertile and has been throughout his life. From this he discovers his first wife, Monika, was unfaithful before she died. How else could she have the child that Armin always thought was his? His paranoia drives him to find the truth.", "poster_path": "/vAJ7oHCmQPIIwq4i4EPJ62t8x0f.jpg", "release_date": "2003-12-11", "title": "Father's Affair", "video": false, "vote_average": 6.7, "vote_count": 11, "popularity": 4.341}, {"adult": false, "backdrop_path": "/dpItWtQQMTvJl3nora8gVPK3GOe.jpg", "genre_ids": [35, 10751], "id": 21803, "original_language": "nl", "original_title": "Loenatik de Moevie", "overview": "", "poster_path": "/zHkFCtikNj35kFP6GV65NpX9bY8.jpg", "release_date": "2002-10-10", "title": "Loonies", "video": false, "vote_average": 7.4, "vote_count": 7, "popularity": 1.698}, {"adult": false, "backdrop_path": "/muucWDQzqLsXl2fkNYnfVbCwmGG.jpg", "genre_ids": [14, 80, 53], "id": 147241, "original_language": "nl", "original_title": "Off Screen", "overview": "March 11th, 2002. John R. takes the head of security and 17 others hostage in Amsterdam biggest skyscraper. John R. demands to speak with the Philips head of Sound&Vision. His goal is to warn people about a large-scale fraud, aimed at brainwashing consumers by means of widescreen TV sets. In the film, we find out about John's preliminary frustrations, his bizarre encounter with Philips head of Sound&Vision Gerard Wesselinck, their impossible friendship, rivalry and John's armed attempt to force the executive to do penance in public.", "poster_path": "/g8OPbS0gWcQj7EapPTJncnV3AJh.jpg", "release_date": "2005-02-03", "title": "Off Screen", "video": false, "vote_average": 6.6, "vote_count": 10, "popularity": 1.329}], "total_pages": 1, "total_results": 4}, "credits": {"cast": [{"cast_id": 2, "character": "Jos Fransen", "credit_id": "52fe46ca9251416c750839f9", "gender": 2, "id": 211080, "name": "Tom Jansen", "order": 0, "profile_path": "/5qQo8NH3OQE90cHDlWUPQ197D6D.jpg"}, {"cast_id": 3, "character": "Sjef", "credit_id": "52fe46ca9251416c750839fd", "gender": 2, "id": 107204, "name": "Johnny de Mol", "order": 1, "profile_path": "/iSEK5TgZ6G3hnrIqHDrKVYqg97I.jpg"}, {"cast_id": 4, "character": "Nina", "credit_id": "52fe46ca9251416c75083a01", "gender": 0, "id": 1147362, "name": "Esmarel Gasman", "order": 2, "profile_path": null}, {"cast_id": 5, "character": "Zo\u00eb", "credit_id": "52fe46ca9251416c75083a05", "gender": 1, "id": 54884, "name": "Tara Elders", "order": 3, "profile_path": "/sHinWyEDznd4XZHFf9sGnw8dM1X.jpg"}, {"cast_id": 6, "character": "Savo", "credit_id": "52fe46ca9251416c75083a09", "gender": 0, "id": 1147363, "name": "Bata Miodrag Milojevic", "order": 4, "profile_path": null}, {"cast_id": 7, "character": "Mira", "credit_id": "52fe46ca9251416c75083a0d", "gender": 1, "id": 1147364, "name": "Femke Lakerveld", "order": 5, "profile_path": "/8fgNVegrYRLnieNvWgExDNJ0kgP.jpg"}, {"cast_id": 8, "character": "Nico", "credit_id": "52fe46ca9251416c75083a11", "gender": 0, "id": 43719, "name": "Ton Kas", "order": 6, "profile_path": "/dMJUVIKDtz4Zngh6fPBIxkw0pQY.jpg"}, {"cast_id": 9, "character": "Geesje", "credit_id": "52fe46ca9251416c75083a15", "gender": 0, "id": 1009963, "name": "Marion van Thijn", "order": 7, "profile_path": null}, {"cast_id": 10, "character": "Gees", "credit_id": "52fe46ca9251416c75083a19", "gender": 1, "id": 211089, "name": "Beppie Melissen", "order": 8, "profile_path": "/piTNgDXkDv4ERhBDhPOj3PTXrmM.jpg"}, {"cast_id": 11, "character": "Peggy", "credit_id": "52fe46ca9251416c75083a1d", "gender": 1, "id": 48178, "name": "Hilde Van Mieghem", "order": 9, "profile_path": "/ljb6kTkFvjXVFGEEiwpRy44lCnV.jpg"}, {"cast_id": 12, "character": "Cassie", "credit_id": "52fe46ca9251416c75083a21", "gender": 0, "id": 1147366, "name": "Hakim Traidia", "order": 10, "profile_path": null}, {"cast_id": 13, "character": "Afrikaans vliegveld", "credit_id": "52fe46ca9251416c75083a25", "gender": 0, "id": 1147367, "name": "Dani\u00ebl Afful", "order": 11, "profile_path": null}, {"cast_id": 14, "character": "Himself", "credit_id": "52fe46ca9251416c75083a29", "gender": 0, "id": 1147368, "name": "Yoeri Albrecht", "order": 12, "profile_path": null}, {"cast_id": 15, "character": "Milan", "credit_id": "52fe46ca9251416c75083a2d", "gender": 0, "id": 227768, "name": "Dragan Bakema", "order": 13, "profile_path": "/u0WyVXcyDAJULrgKIpiDMkkYMFA.jpg"}, {"cast_id": 16, "character": "Actrice in pak", "credit_id": "52fe46ca9251416c75083a31", "gender": 0, "id": 1147369, "name": "Marlies Bark", "order": 14, "profile_path": null}], "crew": [{"credit_id": "52fe46ca9251416c750839f5", "department": "Directing", "gender": 0, "id": 81717, "job": "Director", "name": "Eddy Terstall", "profile_path": null}]}}