{"adult": false, "backdrop_path": null, "belongs_to_collection": null, "budget": 0, "genres": [{"id": 35, "name": "Comedy"}], "homepage": null, "id": 163528, "imdb_id": "tt0080880", "original_language": "en", "original_title": "Hog Wild", "overview": "A boy (Tim Warner), expelled from military school, returns home to his fathers disappiontment. He discovers that a motorcycle gang has been terrorizing his high school, and falls in love with the girlfriend (Angie Barnes) of the gang's leader (Bull). He battles the gang, and wins both the admiration of his father and the love of the girl.", "popularity": 2.537, "poster_path": "/rDLWvrmHi2umDfSatqp2l4QcTbh.jpg", "production_companies": [{"id": 4952, "logo_path": null, "name": "Canadian Film Development Corporation (CFDC)", "origin_country": ""}], "production_countries": [{"iso_3166_1": "CA", "name": "Canada"}], "release_date": "1980-06-01", "revenue": 0, "runtime": 95, "spoken_languages": [{"iso_639_1": "en", "name": "English"}], "status": "Released", "tagline": "...the new wave comedy hit!", "title": "Hog Wild", "video": false, "vote_average": 0.0, "vote_count": 0, "keywords": {"keywords": [{"id": 5801, "name": "nerd"}, {"id": 14736, "name": "motorcycle gang"}]}, "similar": {"page": 1, "results": [{"id": 11199, "video": false, "vote_count": 1336, "vote_average": 5.8, "title": "Wild Hogs", "release_date": "2007-03-02", "original_language": "en", "original_title": "Wild Hogs", "genre_ids": [28, 12, 35], "backdrop_path": "/9tayGegNltU7dIwa6ZGFuEFofbP.jpg", "adult": false, "overview": "Restless and ready for adventure, four suburban bikers leave the safety of their subdivision and head out on the open road. But complications ensue when they cross paths with an intimidating band of New Mexico bikers known as the Del Fuegos.", "poster_path": "/7uxAapp2ZITmQmjdyodFgCAINAG.jpg", "popularity": 16.63}, {"adult": false, "backdrop_path": "/7ZyiMee2s7kARJ0IvJOIgTyvmdp.jpg", "genre_ids": [12, 28, 53, 878], "id": 9659, "original_language": "en", "original_title": "Mad Max", "overview": "In a postapocalyptic future, jaded cop Max Rockatansky (Mel Gibson) is ready to retire. But his world is shattered when a malicious gang murders his family as an act of retaliation, forcing a devastated Max to hit the open road seeking vengeance. As he travels the Australian outback's empty stretches of highway, he tours the bloodstained battlegrounds ruled by marauding bikers who feed on violence.", "poster_path": "/5LrI4GiCSrChgkdskVZiwv643Kg.jpg", "release_date": "1979-04-12", "title": "Mad Max", "video": false, "vote_average": 6.7, "vote_count": 2363, "popularity": 25.432}, {"id": 11814, "video": false, "vote_count": 732, "vote_average": 6.4, "title": "Weird Science", "release_date": "1985-08-01", "original_language": "en", "original_title": "Weird Science", "genre_ids": [35, 878, 10749], "backdrop_path": "/5gLMyIGKBvuTrwRRvorexZD0twx.jpg", "adult": false, "overview": "Two unpopular teenagers, Gary and Wyatt, fail at all attempts to be accepted by their peers. Their desperation to be liked leads them to \"create\" a woman via their computer. Their living and breathing creation is a gorgeous woman, Lisa, whose purpose is to boost their confidence level by putting them into situations which require Gary and Wyatt to act like men.", "poster_path": "/AsFxOHwUlK7mTOkC5p6SySsdEjz.jpg", "popularity": 17.495}, {"id": 15144, "video": false, "vote_count": 1221, "vote_average": 6.8, "title": "Sixteen Candles", "release_date": "1984-05-04", "original_language": "en", "original_title": "Sixteen Candles", "genre_ids": [35, 10749], "backdrop_path": "/xCIgY4mUmO4tbDVlntym9PdZ9H8.jpg", "adult": false, "overview": "A teenage girl deals with her parents forgetting her birthday and a crush on her high school's heartthrob.", "poster_path": "/rzTrRQg5ek47Yl0Vfenc69r9gOd.jpg", "popularity": 29.228}, {"id": 82690, "video": false, "vote_count": 8488, "vote_average": 7.3, "title": "Wreck-It Ralph", "release_date": "2012-11-01", "original_language": "en", "original_title": "Wreck-It Ralph", "genre_ids": [12, 16, 35, 10751], "backdrop_path": "/1LbX3KV6qv6NoH4zKLGM7Sgtwmg.jpg", "adult": false, "overview": "Wreck-It Ralph is the 9-foot-tall, 643-pound villain of an arcade video game named Fix-It Felix Jr., in which the game's titular hero fixes buildings that Ralph destroys. Wanting to prove he can be a good guy and not just a villain, Ralph escapes his game and lands in Hero's Duty, a first-person shooter where he helps the game's hero battle against alien invaders. He later enters Sugar Rush, a kart racing game set on tracks made of candies, cookies and other sweets. There, Ralph meets Vanellope von Schweetz who has learned that her game is faced with a dire threat that could affect the entire arcade, and one that Ralph may have inadvertently started.", "poster_path": "/j8M1kHBAXa6KFNzGnWtdsVsLUro.jpg", "popularity": 30.267}, {"adult": false, "backdrop_path": "/giwHyGSqtpY9nMBwdAa8DOIk9IU.jpg", "genre_ids": [28, 35, 878], "id": 257344, "original_language": "en", "original_title": "Pixels", "overview": "Video game experts are recruited by the military to fight 1980s-era video game characters who've attacked New York.", "poster_path": "/ktyVmIqfoaJ8w0gDSZyjhhOPpD6.jpg", "release_date": "2015-07-16", "title": "Pixels", "video": false, "vote_average": 5.6, "vote_count": 4832, "popularity": 35.68}, {"id": 620, "video": false, "vote_count": 5187, "vote_average": 7.4, "title": "Ghostbusters", "release_date": "1984-06-08", "original_language": "en", "original_title": "Ghostbusters", "genre_ids": [35, 14], "backdrop_path": "/qmDy6Rdom8d8UFj9GeAAtVIjTRT.jpg", "adult": false, "overview": "After losing their academic posts at a prestigious university, a team of parapsychologists goes into business as proton-pack-toting \"ghostbusters\" who exterminate ghouls, hobgoblins and supernatural pests of all stripes. An ad campaign pays off when a knockout cellist hires the squad to purge her swanky digs of demons that appear to be living in her refrigerator.", "poster_path": "/3FS3oBdorgczgfCkFi2u8ZTFfpS.jpg", "popularity": 24.995}, {"id": 473149, "video": false, "vote_count": 194, "vote_average": 5.9, "title": "Traffik", "release_date": "2018-04-20", "original_language": "en", "original_title": "Traffik", "genre_ids": [27, 53], "backdrop_path": "/wbk9VvJ8lkUF0ElpfRm3dFIzMJf.jpg", "adult": false, "overview": "A couple off for a romantic weekend in the mountains are accosted by a biker gang. Alone in the mountains, Brea and John must defend themselves against the gang, who will stop at nothing to protect their secrets.", "poster_path": "/e2Z466e9402RFP6wxRMfXYYiJHA.jpg", "popularity": 22.593}, {"id": 5255, "video": false, "vote_count": 3619, "vote_average": 6.6, "title": "The Polar Express", "release_date": "2004-11-10", "original_language": "en", "original_title": "The Polar Express", "genre_ids": [12, 16, 14, 10751], "backdrop_path": "/AcXCaPRB037DZoZZ2cJzRSxrNBP.jpg", "adult": false, "overview": "When a doubting young boy takes an extraordinary train ride to the North Pole, he embarks on a journey of self-discovery that shows him that the wonder of life never fades for those who believe.", "poster_path": "/2NETsNUxcfBdKtq3W5YbT9O03Ak.jpg", "popularity": 21.109}, {"id": 71676, "video": false, "vote_count": 2238, "vote_average": 4.8, "title": "Ghost Rider: Spirit of Vengeance", "release_date": "2011-12-10", "original_language": "en", "original_title": "Ghost Rider: Spirit of Vengeance", "genre_ids": [28, 14, 53], "backdrop_path": "/9w9UtpeRPK797GzT7xQXuVRSUSj.jpg", "adult": false, "overview": "When the devil resurfaces with aims to take over the world in human form, Johnny Blaze reluctantly comes out of hiding to transform into the flame-spewing supernatural hero Ghost Rider -- and rescue a 10-year-old boy from an unsavory end.", "poster_path": "/tqwWzmp5ISh64SJbNKQ9fyItnDj.jpg", "popularity": 18.398}, {"adult": false, "backdrop_path": "/tBWZkKMcrWdrpkOAA84FBlzE2XK.jpg", "genre_ids": [12, 28, 53], "id": 9053, "original_language": "en", "original_title": "DOA: Dead or Alive", "overview": "Four beautiful rivals at an invitation-only martial-arts tournament join forces against a sinister threat. Princess Kasumi is an aristocratic warrior trained by martial-arts masters. Tina Armstrong is a wrestling superstar. Helena Douglas is an athlete with a tragic past. Christie Allen earns her keep as a thief and an assassin-for-hire.", "poster_path": "/lZ6vZka2M0jtH1khYWa8j73E275.jpg", "release_date": "2006-09-07", "title": "DOA: Dead or Alive", "video": false, "vote_average": 4.9, "vote_count": 415, "popularity": 15.433}, {"id": 251516, "video": false, "vote_count": 1244, "vote_average": 7.5, "title": "Kung Fury", "release_date": "2015-05-22", "original_language": "en", "original_title": "Kung Fury", "genre_ids": [28, 35, 14, 878], "backdrop_path": "/W0MNr3XN95U5KLD9xIQD96YKcS.jpg", "adult": false, "overview": "During an unfortunate series of events, a friend of Kung Fury is assassinated by the most dangerous kung fu master criminal of all time, Adolf Hitler, a.k.a Kung F\u00fchrer.  Kung Fury decides to travel back in time to Nazi Germany in order to kill Hitler and end the Nazi empire once and for all.", "poster_path": "/oJWzpGCLIj3uYa0ux19T2WwzTOf.jpg", "popularity": 9.211}, {"id": 923, "video": false, "vote_count": 1067, "vote_average": 7.5, "title": "Dawn of the Dead", "release_date": "1978-09-02", "original_language": "en", "original_title": "Dawn of the Dead", "genre_ids": [27], "backdrop_path": "/vCD9mRgSY4HuoSowm8JO4tm2mhj.jpg", "adult": false, "overview": "During an ever-growing epidemic of zombies that have risen from the dead, two Philadelphia SWAT team members, a traffic reporter, and his television-executive girlfriend seek refuge in a secluded shopping mall.", "poster_path": "/yK8BmYEvd0IPpDXL6zzlTA2geDf.jpg", "popularity": 11.925}, {"id": 15417, "video": false, "vote_count": 224, "vote_average": 6.1, "title": "Every Which Way But Loose", "release_date": "1978-12-19", "original_language": "en", "original_title": "Every Which Way But Loose", "genre_ids": [28, 12, 35, 18, 10749], "backdrop_path": "/4YdEQTF7wZyl2kTKsRc567Lp3q3.jpg", "adult": false, "overview": "Philo Beddoe is your regular, easygoing, truck-driving guy. He's also the best bar-room brawler west of the Rockies. And he lives with a 165-pound orangutan named Clyde. Like other guys, Philo finally falls in love - with a flighty singer who leads him on a screwball chase across the American Southwest. Nothing's in the way except a motorcycle gang, and legendary brawler Tank Murdock.", "poster_path": "/6djws9dSOk8WquoB14LdZy71c37.jpg", "popularity": 15.342}, {"id": 204082, "video": false, "vote_count": 1547, "vote_average": 6.5, "title": "Homefront", "release_date": "2013-11-12", "original_language": "en", "original_title": "Homefront", "genre_ids": [28, 53], "backdrop_path": "/vcFs3Vh6g6A5K9zZeFYnQNHLUQb.jpg", "adult": false, "overview": "Phil Broker is a former DEA agent who has gone through a crisis after his action against a biker gang went horribly wrong and it cost the life of his boss' son. He is recently widowed and is left with a 9-years-old daughter, Maddy. He decides to quit the turbulent and demanding life of thrill for Maddy's sake and retires to a small town. His daughter fights off a boy who was bullying her at school and this sets in motion a round of events that end in his direct confrontation with the local Meth drug lord. His past history with the biker gang also enters the arena, making matters more complex. But he has a mission in his mind to protect his daughter and he is ready to pay any cost that it demands.", "poster_path": "/6ymSuhG28tF2lnDxVTNibzlYzn0.jpg", "popularity": 18.535}, {"id": 11006, "video": false, "vote_count": 360, "vote_average": 6.8, "title": "Smokey and the Bandit", "release_date": "1977-05-26", "original_language": "en", "original_title": "Smokey and the Bandit", "genre_ids": [28, 12, 35], "backdrop_path": "/hzjX8eA4u7tGz4d4kjTnsW4RNWK.jpg", "adult": false, "overview": "A race car driver tries to transport an illegal beer shipment from Texas to Atlanta in under 28 hours, picking up a reluctant bride-to-be on the way.", "poster_path": "/zWCR9BVNKBRZzKJ9wtcmMdZP5Ts.jpg", "popularity": 15.111}, {"adult": false, "backdrop_path": "/etybioibi04QJK9xxn3Rv5NLuKs.jpg", "genre_ids": [12, 28, 53, 878], "id": 8810, "original_language": "en", "original_title": "Mad Max 2", "overview": "Max Rockatansky returns as the heroic loner who drives the dusty roads of a postapocalyptic Australian Outback in an unending search for gasoline. Arrayed against him and the other scraggly defendants of a fuel-depot encampment are the bizarre warriors commanded by the charismatic Lord Humungus, a violent leader whose scruples are as barren as the surrounding landscape.", "poster_path": "/tVaClEA7n0MxaY8sb81nHwh6XNW.jpg", "release_date": "1981-12-24", "title": "Mad Max 2", "video": false, "vote_average": 7.4, "vote_count": 1898, "popularity": 19.166}, {"id": 455656, "video": false, "vote_count": 792, "vote_average": 6.4, "title": "#RealityHigh", "release_date": "2017-07-17", "original_language": "en", "original_title": "#RealityHigh", "genre_ids": [35], "backdrop_path": "/q32LUbGLIwws4fH5Kv5E6RFGbmg.jpg", "adult": false, "overview": "When nerdy high schooler Dani finally attracts the interest of her longtime crush, she lands in the cross hairs of his ex, a social media celebrity.", "poster_path": "/wUXT3KEh6vjDzwYKiYWwdJNfZOW.jpg", "popularity": 15.596}, {"adult": false, "backdrop_path": "/xxm6PQRbfcSFO4mds8una1bkYPh.jpg", "genre_ids": [35], "id": 8363, "original_language": "en", "original_title": "Superbad", "overview": "Two co-dependent high school seniors are forced to deal with separation anxiety after their plan to stage a booze-soaked party goes awry.", "poster_path": "/7RZWtDkf0mgrxvJNFj43YW2Ugi8.jpg", "release_date": "2007-08-17", "title": "Superbad", "video": false, "vote_average": 7.1, "vote_count": 3968, "popularity": 19.274}, {"adult": false, "backdrop_path": "/A0gP8vufy0qj4XoyDCznykKGVRu.jpg", "genre_ids": [28, 12, 35], "id": 17169, "original_language": "en", "original_title": "Any Which Way You Can", "overview": "Philo takes part in a bare knuckle fight - as he does - to make some more money than he can earn from his car repair business. He decides to retire from fighting, but when the Mafia come along and arrange another fight, he is pushed into it. A motorcycle gang and an orangutan called Clyde all add to the 'fun'.", "poster_path": "/fGP1rB0MapjDyR0lCjYa6AhjQ1i.jpg", "release_date": "1980-12-17", "title": "Any Which Way You Can", "video": false, "vote_average": 6.0, "vote_count": 161, "popularity": 12.421}], "total_pages": 15, "total_results": 300}, "recommendations": {"page": 1, "results": [], "total_pages": 1, "total_results": 0}, "credits": {"cast": [{"cast_id": 4, "character": "Angie Barnes", "credit_id": "52fe4c69c3a36847f822cbf7", "gender": 1, "id": 38160, "name": "Patti D'Arbanville", "order": 0, "profile_path": "/ridXnz79GAGKVSHnVbKT9GuqLWa.jpg"}, {"cast_id": 5, "character": "Tim Warner", "credit_id": "52fe4c69c3a36847f822cbfb", "gender": 2, "id": 2712, "name": "Michael Biehn", "order": 1, "profile_path": "/uZvJIfVirbv32OK4nba5bMZ6t9G.jpg"}, {"cast_id": 6, "character": "Bull", "credit_id": "52fe4c69c3a36847f822cbff", "gender": 2, "id": 172667, "name": "Tony Rosato", "order": 2, "profile_path": null}, {"cast_id": 7, "character": "Bean", "credit_id": "52fe4c69c3a36847f822cc03", "gender": 0, "id": 1184822, "name": "Angelo Rizacos", "order": 3, "profile_path": null}, {"cast_id": 8, "character": "Shadow", "credit_id": "52fe4c69c3a36847f822cc07", "gender": 2, "id": 52083, "name": "Martin Doyle", "order": 4, "profile_path": "/v2IcgROAROk3NXijsKCh961zwEf.jpg"}, {"cast_id": 9, "character": "Mrs. Ramble", "credit_id": "5706402cc3a3685d3800240d", "gender": 1, "id": 141789, "name": "Bronwen Mantel", "order": 5, "profile_path": "/6ULnA70rotvXutfML2qVKS5GEQ0.jpg"}], "crew": [{"credit_id": "52fe4c69c3a36847f822cbe7", "department": "Directing", "gender": 0, "id": 1184820, "job": "Director", "name": "Les Rose", "profile_path": null}, {"credit_id": "52fe4c69c3a36847f822cbed", "department": "Writing", "gender": 0, "id": 1104961, "job": "Screenplay", "name": "Andrew Peter Marin", "profile_path": null}, {"credit_id": "52fe4c69c3a36847f822cbf3", "department": "Writing", "gender": 0, "id": 1184821, "job": "Story", "name": "Stephen J. Miller", "profile_path": null}]}}