{"adult": false, "backdrop_path": null, "belongs_to_collection": null, "budget": 0, "genres": [{"id": 18, "name": "Drama"}, {"id": 36, "name": "History"}], "homepage": "http://www.tenchi-meisatsu.jp/", "id": 163870, "imdb_id": "tt1834303", "original_language": "ja", "original_title": "\u5929\u5730\u660e\u5bdf", "overview": "A chronicle of the life of Yasui Santetsu, a 17th century master of go who turned his attention to astronomy and created a new calendar for Japan. Based on the life of Santetsu Yasui (December 27, 1639-November 1, 1715), appointed as the first official astronomer in the Edo Period and would go on to create the Jokyo calendar at the imperial request.", "popularity": 1.723, "poster_path": "/W5u1E1emUOuiZTTndkxDSnueUA.jpg", "production_companies": [{"id": 2073, "logo_path": "/bkpWpkSDfNG1HxJnjruVKHXBi7J.png", "name": "Kadokawa Pictures", "origin_country": "JP"}], "production_countries": [{"iso_3166_1": "JP", "name": "Japan"}], "release_date": "2012-09-15", "revenue": 0, "runtime": 141, "spoken_languages": [{"iso_639_1": "ja", "name": "\u65e5\u672c\u8a9e"}], "status": "Released", "tagline": "", "title": "Tenchi: The Samurai Astronomer", "video": false, "vote_average": 7.5, "vote_count": 2, "keywords": {"keywords": [{"id": 6165, "name": "historical figure"}]}, "similar": {"page": 1, "results": [{"adult": false, "backdrop_path": "/tS3ms6HM52hLLU3eRdjVPSgSS4w.jpg", "genre_ids": [18, 36, 10749], "id": 8095, "original_language": "en", "original_title": "Cleopatra", "overview": "Determined to hold on to the throne, Cleopatra seduces the Roman emperor Julius Caesar. When Caesar is murdered, she redirects her attentions to his general, Marc Antony, who vows to take power\u2014but Caesar\u2019s successor has other plans.", "poster_path": "/bj7rUGUewofA9cpHt1h36gvDFfy.jpg", "release_date": "1963-06-12", "title": "Cleopatra", "video": false, "vote_average": 7.0, "vote_count": 312, "popularity": 12.875}, {"id": 88794, "video": false, "vote_count": 1429, "vote_average": 6.2, "title": "J. Edgar", "release_date": "2011-11-09", "original_language": "en", "original_title": "J. Edgar", "genre_ids": [80, 18, 36], "backdrop_path": "/8VHxc79a8wZRM6jfw2yhXtZkn1.jpg", "adult": false, "overview": "As the face of law enforcement in America for almost 50 years, J. Edgar Hoover was feared and admired, reviled and revered. But behind closed doors, he held secrets that would have destroyed his image, his career and his life.", "poster_path": "/upACO9i21lb5lG7ovf51m3lIPcv.jpg", "popularity": 11.154}, {"id": 4518, "video": false, "vote_count": 785, "vote_average": 7.2, "title": "Elizabeth", "release_date": "1998-09-13", "original_language": "en", "original_title": "Elizabeth", "genre_ids": [18, 36], "backdrop_path": "/cCzvJ95pEB1I5cUX7Zjfl606noN.jpg", "adult": false, "overview": "The story of the ascension to the throne and the early reign of Queen Elizabeth the First, the endless attempts by her council to marry her off, the Catholic hatred of her and her romance with Lord Robert Dudley.", "poster_path": "/y4ynYOy205LorkOIN6hs6DgJ1xa.jpg", "popularity": 11.875}, {"adult": false, "backdrop_path": "/3fcBsj9JMQQ27Wuk3LVrEwVZ2VT.jpg", "genre_ids": [28, 18], "id": 323677, "original_language": "en", "original_title": "Race", "overview": "Based on the story of Jesse Owens, the athlete whose quest to become the greatest track and field athlete in history thrusts him onto the world stage of the 1936 Olympics, where he faces off against Adolf Hitler's vision of Aryan supremacy.", "poster_path": "/szLfTQ2vLFQkNbP3dc0pnco1rje.jpg", "release_date": "2016-02-19", "title": "Race", "video": false, "vote_average": 7.3, "vote_count": 989, "popularity": 11.176}, {"id": 169881, "video": false, "vote_count": 645, "vote_average": 7.3, "title": "The Physician", "release_date": "2013-12-25", "original_language": "en", "original_title": "The Physician", "genre_ids": [12, 18, 36], "backdrop_path": "/jbTbTZhmZsKVWxk0436ymadWQBd.jpg", "adult": false, "overview": "England, 1021. Rob Cole, a boy born in a miserable mining town, swears to become a physician and vanquish disease and death. His harsh path of many years, a quest for knowledge besieged by countless challenges and sacrifices, leads him to the remote Isfahan, in Persia, where he meets Ibn Sina, the greatest healer of his time.", "poster_path": "/zOnuvmY4vuabnkEZwQAXvErIaTE.jpg", "popularity": 23.294}, {"adult": false, "backdrop_path": "/3vrtpYhLZB9uxpG89Fps1ngANs4.jpg", "genre_ids": [18, 53, 36], "id": 820, "original_language": "en", "original_title": "JFK", "overview": "This acclaimed Oliver Stone drama presents the investigation into the assassination of President John F. Kennedy led by New Orleans district attorney Jim Garrison. When Garrison begins to doubt conventional thinking on the murder, he faces government resistance, and, after the killing of suspected assassin Lee Harvey Oswald, he closes the case. Later, however, Garrison reopens the investigation, finding evidence of an extensive conspiracy behind Kennedy's death.", "poster_path": "/9bmXpKDJv2kdtD4QNexErjGTIOz.jpg", "release_date": "1991-12-20", "title": "JFK", "video": false, "vote_average": 7.7, "vote_count": 1033, "popularity": 23.546}, {"id": 11202, "video": false, "vote_count": 577, "vote_average": 7.5, "title": "Patton", "release_date": "1970-01-25", "original_language": "en", "original_title": "Patton", "genre_ids": [18, 36, 10752], "backdrop_path": "/iCLuDtSSU0cFLH1oTM1828STIOB.jpg", "adult": false, "overview": "\"Patton\" tells the tale of General George S. Patton, famous tank commander of World War II. The film begins with patton's career in North Africa and progresses through the invasion of Germany and the fall of the Third Reich. Side plots also speak of Patton's numerous faults such his temper and habit towards insubordination.", "poster_path": "/rLM7jIEPTjj4CF7F1IrzzNjLUCu.jpg", "popularity": 15.596}, {"id": 613, "video": false, "vote_count": 1991, "vote_average": 7.8, "title": "Downfall", "release_date": "2004-09-08", "original_language": "de", "original_title": "Der Untergang", "genre_ids": [18, 36, 10752], "backdrop_path": "/d3AmCJXvsP818di5KcCj4fNi36.jpg", "adult": false, "overview": "In April of 1945, Germany stands at the brink of defeat with the Russian Army closing in from the east and the Allied Expeditionary Force attacking from the west. In Berlin, capital of the Third Reich, Adolf Hitler proclaims that Germany will still achieve victory and orders his generals and advisers to fight to the last man. When the end finally does come, and Hitler lies dead by his own hand, what is left of his military must find a way to end the killing that is the Battle of Berlin, and lay down their arms in surrender.", "poster_path": "/2QmpblYvUThzBQ4ArdT1Kp43DZi.jpg", "popularity": 13.838}, {"adult": false, "backdrop_path": "/j1pLMvLiXRyeeHyTZO79a4t3Qao.jpg", "genre_ids": [36, 18], "id": 10858, "original_language": "en", "original_title": "Nixon", "overview": "An all-star cast powers this epic look at American President Richard M. Nixon, a man carrying the fate of the world on his shoulders while battling the self-destructive demands from within. Spanning his troubled boyhood in California to the shocking Watergate scandal that would end his presidency.", "poster_path": "/cICkmCEiXRhvZmbuAlsA5D9B2rK.jpg", "release_date": "1995-12-22", "title": "Nixon", "video": false, "vote_average": 7.0, "vote_count": 156, "popularity": 9.948}, {"adult": false, "backdrop_path": "/vxsR4pjm8VNFrywz9TQLj3loxNB.jpg", "genre_ids": [12, 18, 36], "id": 26428, "original_language": "es", "original_title": "Agora", "overview": "A historical drama set in Roman Egypt, concerning philosopher Hypatia of Alexandria and her relationship with her slave Davus, who is torn between his love for her and the possibility of gaining his freedom by joining the rising tide of Christianity.", "poster_path": "/hZcl4TuZYTNWztIP8Zpvr6YLxiY.jpg", "release_date": "2009-05-17", "title": "Agora", "video": false, "vote_average": 6.9, "vote_count": 824, "popularity": 10.719}, {"adult": false, "backdrop_path": "/7AUPQeq5hITjaTahU8zbHpfWeev.jpg", "genre_ids": [18, 28, 37, 12], "id": 12160, "original_language": "en", "original_title": "Wyatt Earp", "overview": "Covering the life and times of one of the West's most iconic heroes Wyatt Earp weaves an intricate tale of Earp and his friends and family. With a star studded cast, sweeping cinematography and authentic costumes Wyatt Earp led the way during the Western revival in the 90's.", "poster_path": "/zSGDgcWHqmQxmX4mLJZgT5UgLjj.jpg", "release_date": "1994-06-24", "title": "Wyatt Earp", "video": false, "vote_average": 6.6, "vote_count": 386, "popularity": 12.452}, {"adult": false, "backdrop_path": "/5RhBBrDKjp7sGMCpLuydd7I8wRh.jpg", "genre_ids": [28, 18, 36, 10749, 10752], "id": 16638, "original_language": "en", "original_title": "El Cid", "overview": "Epic film of the legendary Spanish hero, Rodrigo Diaz (\"El Cid\" to his followers), who, without compromising his strict sense of honour, still succeeds in taking the initiative and driving the Moors from Spain.", "poster_path": "/2bhGhYuYvY4xmpypBc8qkIjN5pY.jpg", "release_date": "1961-10-24", "title": "El Cid", "video": false, "vote_average": 6.9, "vote_count": 134, "popularity": 9.747}, {"adult": false, "backdrop_path": "/9lS59Fwxwe6nPntp0Otp52NTyJC.jpg", "genre_ids": [36, 12, 80], "id": 478820, "original_language": "fr", "original_title": "L'Empereur de Paris", "overview": "Paris, France, early 19th century. The legendary convict Fran\u00e7ois Vidocq lives in disguise trying to escape from a tragic past that torments him. When, after an unfortunate event, he crosses paths with the police chief, he makes a bold decision that will turn the ruthless mastermind of the Parisian underworld against him.", "poster_path": "/7mZBfj3dFIzQgMVfkDwi9u4JBxI.jpg", "release_date": "2018-12-19", "title": "The Emperor of Paris", "video": false, "vote_average": 6.4, "vote_count": 228, "popularity": 9.962}, {"id": 36950, "video": false, "vote_count": 193, "vote_average": 7.1, "title": "You Don't Know Jack", "release_date": "2010-04-14", "original_language": "en", "original_title": "You Don't Know Jack", "genre_ids": [18, 10770], "backdrop_path": "/aaSYQOoIlDAeCzsKYB47qe2l4Oe.jpg", "adult": false, "overview": "Angel of mercy\u2026 or murderous \u201cDoctor Death\u201d? Jack Kervorkian is one of the most polarizing figures in modern American history, a man whose passionate belief that people have the right to die has brought him both praise and vilification. Oscar\u00ae- and Emmy\u00ae-winning actor Al Pacino brings \u201cDr. Death\u201d to life in an all-new HBO Films presentation: You Don\u2019t Know Jack, directed by Oscar\u00ae-winner Barry Levinson.", "poster_path": "/xl4x8aILt9v91TUOKXHIVDZwkXy.jpg", "popularity": 8.748}, {"id": 75900, "video": false, "vote_count": 809, "vote_average": 6.7, "title": "My Week with Marilyn", "release_date": "2011-11-23", "original_language": "en", "original_title": "My Week with Marilyn", "genre_ids": [18], "backdrop_path": "/ez5WJJ9VsFvOASh0nbm8L4lkdju.jpg", "adult": false, "overview": "Sir Laurence Olivier is making a movie in London. Young Colin Clark, an eager film student, wants to be involved and he navigates himself a job on the set. When film star Marilyn Monroe arrives for the start of shooting, all of London is excited to see the blonde bombshell, while Olivier is struggling to meet her many demands and acting ineptness, and Colin is intrigued by her. Colin's intrigue is met when Marilyn invites him into her inner world where she struggles with her fame, her beauty and her desire to be a great actress.", "poster_path": "/exyLhOls9XyWr5Eq5F8HX0I6mPu.jpg", "popularity": 10.869}, {"id": 9549, "video": false, "vote_count": 448, "vote_average": 7.5, "title": "The Right Stuff", "release_date": "1983-10-20", "original_language": "en", "original_title": "The Right Stuff", "genre_ids": [18, 36], "backdrop_path": "/2ZPIAUctGFWgatWLGnFb2FPcvbo.jpg", "adult": false, "overview": "A chronicle of the original Mercury astronauts in the formation of America's space program: Alan Shepherd, the first American in space; Gus Grissom, the benighted astronaut for whom nothing works out as planned; John Glenn, the straight-arrow 'boy scout' of the bunch who was the first American to orbit the earth; and the remaining pilots: Deke Slayton, Scott Carpenter and Wally Schirra.", "poster_path": "/df1gdyE9S3DxmTfAeN3pNdSm64J.jpg", "popularity": 13.38}, {"adult": false, "backdrop_path": "/q6rZELSmaTmg1jISuRKvtJhQ2SW.jpg", "genre_ids": [18, 36], "id": 1883, "original_language": "en", "original_title": "Malcolm X", "overview": "A tribute to the controversial black activist and leader of the struggle for black liberation. He hit bottom during his imprisonment in the '50s, he became a Black Muslim and then a leader in the Nation of Islam. His assassination in 1965 left a legacy of self-determination and racial pride.", "poster_path": "/jDQ2iBJuiimvYqk9orA2YaigBmW.jpg", "release_date": "1992-11-18", "title": "Malcolm X", "video": false, "vote_average": 7.5, "vote_count": 775, "popularity": 11.827}, {"adult": false, "backdrop_path": "/18SRMsqTVdqYiS3nc3wGYVYb79w.jpg", "genre_ids": [18, 10402], "id": 316000, "original_language": "en", "original_title": "Miles Ahead", "overview": "An exploration of the life and music of Miles Davis.", "poster_path": "/k2lVWTsJ1s3e28qAoAwynGLWoKN.jpg", "release_date": "2015-10-10", "title": "Miles Ahead", "video": false, "vote_average": 6.6, "vote_count": 133, "popularity": 13.624}, {"id": 35588, "video": false, "vote_count": 76, "vote_average": 6.0, "title": "Geronimo: An American Legend", "release_date": "1993-12-10", "original_language": "en", "original_title": "Geronimo: An American Legend", "genre_ids": [36, 37], "backdrop_path": "/xLSNXg491vfuZnrvOYWNq55WAuW.jpg", "adult": false, "overview": "The Apache Indians have reluctantly agreed to settle on a US Government approved reservation. Not all the Apaches are able to adapt to the life of corn farmers. One in particular, Geronimo, is restless. Pushed over the edge by broken promises and necessary actions by the government, Geronimo and thirty or so other warriors form an attack team which humiliates the government by evading capture, whi", "poster_path": "/rmbeg5wHVjC68G00SKQ0xZQpZru.jpg", "popularity": 9.992}, {"id": 17200, "video": false, "vote_count": 27, "vote_average": 6.9, "title": "Helter Skelter", "release_date": "1976-04-01", "original_language": "en", "original_title": "Helter Skelter", "genre_ids": [80, 18, 53, 10770], "backdrop_path": "/p7TgqehtOq2xCBSvEANsfCh3LHn.jpg", "adult": false, "overview": "The investigation of two horrific mass murders leads to the capture and trial of the psychotic pseudo-hippie Charles Manson and his \"family\".", "poster_path": "/6vuUsjO2oLnvdI2T0GEvBP5Zmki.jpg", "popularity": 9.208}], "total_pages": 8, "total_results": 153}, "recommendations": {"page": 1, "results": [], "total_pages": 1, "total_results": 0}, "credits": {"cast": [{"cast_id": 0, "character": "En Murase", "credit_id": "532045a7c3a36824b50001bc", "gender": 1, "id": 104522, "name": "Aoi Miyazaki", "order": 1, "profile_path": "/dHMFf5dLfOSUiCrz6A2vsqHYw3C.jpg"}, {"cast_id": 1, "character": "Santetsu Yasui", "credit_id": "532045d3c3a36824b50001be", "gender": 2, "id": 119241, "name": "Junichi Okada", "order": 2, "profile_path": "/bFTZOkLduDdWrFi6bwsTLwAq4XS.jpg"}, {"cast_id": 2, "character": "Mitsukuni Mito", "credit_id": "532045f6c3a368572e0012d7", "gender": 2, "id": 76931, "name": "Kiichi Nakai", "order": 3, "profile_path": "/boecxb6g8kC4CwYZjZCTPvUSTjI.jpg"}, {"cast_id": 3, "character": "Gieki Murase", "credit_id": "5320463bc3a36857350012fd", "gender": 2, "id": 121797, "name": "Ryuta Sato", "order": 4, "profile_path": "/3ksWC53ryoLmNHsVCAVG7utuwME.jpg"}, {"cast_id": 20, "character": "Dennai Tatsube", "credit_id": "532046d5c3a3685735001313", "gender": 0, "id": 80865, "name": "Takashi Sasano", "order": 22, "profile_path": "/172tux6gIAzCP1quDE0KqrUzNQL.jpg"}, {"cast_id": 26, "character": "Tenchi Meisatsu", "credit_id": "56ba51f492514171930007b7", "gender": 2, "id": 1018944, "name": "Shota Sometani", "order": 23, "profile_path": "/fOij6t03KcQt3CbLb4y1MQmJyJO.jpg"}], "crew": [{"credit_id": "593c0834925141058700ea08", "department": "Sound", "gender": 2, "id": 636, "job": "Original Music Composer", "name": "Joe Hisaishi", "profile_path": "/9U16jEYcoCyXGBpHrSQ7pZGdHfd.jpg"}, {"credit_id": "5bd364059251410391005a0b", "department": "Production", "gender": 0, "id": 58618, "job": "Producer", "name": "Fumio Inoue", "profile_path": null}, {"credit_id": "5bd364ca0e0a2622bd006f05", "department": "Production", "gender": 0, "id": 63692, "job": "Producer", "name": "Nozomu Enoki", "profile_path": null}, {"credit_id": "5bd363d792514103a0005ad0", "department": "Writing", "gender": 2, "id": 76936, "job": "Screenplay", "name": "Yojiro Takita", "profile_path": "/85Ask7tvPJkIPtihAUyS8yyZB6J.jpg"}, {"credit_id": "532047679251411f8c0011af", "department": "Directing", "gender": 2, "id": 76936, "job": "Director", "name": "Yojiro Takita", "profile_path": "/85Ask7tvPJkIPtihAUyS8yyZB6J.jpg"}, {"credit_id": "5bd364b6c3a368210e00571c", "department": "Production", "gender": 0, "id": 93076, "job": "Producer", "name": "Julie K. Fujishima", "profile_path": null}, {"credit_id": "532047a19251411f8c0011b7", "department": "Writing", "gender": 0, "id": 126783, "job": "Writer", "name": "Masato Kato", "profile_path": null}, {"credit_id": "593c083e925141058700ea0f", "department": "Camera", "gender": 0, "id": 545765, "job": "Director of Photography", "name": "Takeshi Hamada", "profile_path": null}, {"credit_id": "593c084ec3a3680f8700ec3e", "department": "Art", "gender": 1, "id": 551587, "job": "Production Design", "name": "Ky\u00f4ko Heya", "profile_path": null}, {"credit_id": "593c084692514105b700e887", "department": "Editing", "gender": 2, "id": 552334, "job": "Editor", "name": "Soichi Ueno", "profile_path": null}, {"credit_id": "5bd363c39251410396005ba2", "department": "Writing", "gender": 2, "id": 571457, "job": "Novel", "name": "Tow Ubukata", "profile_path": null}, {"credit_id": "532047ea9251411f7700128d", "department": "Production", "gender": 2, "id": 973293, "job": "Producer", "name": "Kazutaka Akimoto", "profile_path": null}, {"credit_id": "532047c39251411f8f001224", "department": "Production", "gender": 0, "id": 1120202, "job": "Producer", "name": "Tamotsu Shiina", "profile_path": null}, {"credit_id": "5bd3640f0e0a2622c8005d9c", "department": "Production", "gender": 0, "id": 1136045, "job": "Producer", "name": "Arimasa Okada", "profile_path": null}, {"credit_id": "5bd364e6c3a368210e00575e", "department": "Production", "gender": 0, "id": 1161664, "job": "Producer", "name": "Shinichirou Inoue", "profile_path": "/qxdvBbkO8QBIdPETF8SJ87R5u4H.jpg"}, {"credit_id": "5bd36478c3a36820f500609a", "department": "Visual Effects", "gender": 0, "id": 1651897, "job": "Visual Effects Supervisor", "name": "Makoto Chiba", "profile_path": null}, {"credit_id": "5bd364f2c3a36820f5006153", "department": "Production", "gender": 0, "id": 1831779, "job": "Producer", "name": "Toshihisa Watai", "profile_path": null}, {"credit_id": "5bd364260e0a2622bf00616a", "department": "Production", "gender": 0, "id": 2116361, "job": "Casting", "name": "Kei Kawamura", "profile_path": null}, {"credit_id": "5bd36495c3a36820f0006321", "department": "Directing", "gender": 0, "id": 2159458, "job": "Script Supervisor", "name": "Mizuho Kud\u00f4", "profile_path": null}, {"credit_id": "5bd36486c3a36820ec00774a", "department": "Lighting", "gender": 0, "id": 2161809, "job": "Gaffer", "name": "Kiyohito Ando", "profile_path": null}]}}