{"adult": false, "backdrop_path": null, "belongs_to_collection": null, "budget": 0, "genres": [{"id": 35, "name": "Comedy"}, {"id": 18, "name": "Drama"}, {"id": 10749, "name": "Romance"}], "homepage": "", "id": 16399, "imdb_id": "tt0115927", "original_language": "en", "original_title": "Commandments", "overview": "Seth Warner has reached the end of his rope. Ever since his wife died two years earlier, his world has been in turmoil. He is despondent, his career has fallen apart, even his house has been destroyed. There seems to be nothing left for him to live for. Confused and angry after two years of suffering, he finally directs his wrath at God from the rooftop of his apartment building in New York City. In the midst of a wild thunderstorm he demands to know why he has been betrayed by the god he has believed in and honored his whole life. God's answer is to strike down Seth's dog in a bolt of lightning. Pushed beyond his limits, Seth decides to respond to his years of torment by breaking each of the biblical Ten Commandments.", "popularity": 3.465, "poster_path": "/bob97FFDOHzGoD62MamZc82jZy.jpg", "production_companies": [], "production_countries": [], "release_date": "1997-05-02", "revenue": 0, "runtime": 88, "spoken_languages": [{"iso_639_1": "en", "name": "English"}], "status": "Released", "tagline": "He's getting even... by breaking all the rules", "title": "Commandments", "video": false, "vote_average": 5.7, "vote_count": 9, "keywords": {"keywords": [{"id": 10183, "name": "independent film"}, {"id": 14512, "name": "new york city, usa"}, {"id": 18171, "name": "thunderstorm"}, {"id": 212676, "name": "wrath of god"}]}, "similar": {"page": 1, "results": [{"adult": false, "backdrop_path": "/sw7mordbZxgITU877yTpZCud90M.jpg", "genre_ids": [18, 80], "id": 769, "original_language": "en", "original_title": "GoodFellas", "overview": "The true story of Henry Hill, a half-Irish, half-Sicilian Brooklyn kid who is adopted by neighbourhood gangsters at an early age and climbs the ranks of a Mafia family under the guidance of Jimmy Conway.", "poster_path": "/pwpGfTImTGifEGgLb3s6LRPd4I6.jpg", "release_date": "1990-09-12", "title": "GoodFellas", "video": false, "vote_average": 8.4, "vote_count": 6553, "popularity": 33.23}, {"adult": false, "backdrop_path": "/ltq1i8ienPm7OSdOXl3o8ROgmKc.jpg", "genre_ids": [28, 80, 18], "id": 2142, "original_language": "en", "original_title": "Cop Land", "overview": "Freddy Heflin is the sheriff of a place everyone calls \u201cCop Land\u201d \u2014 a small and seemingly peaceful town populated by the big city police officers he\u2019s long admired. Yet something ugly is taking place behind the town\u2019s peaceful facade. And when Freddy uncovers a massive, deadly conspiracy among these local residents, he is forced to take action and make a dangerous choice between protecting his idols and upholding the law.", "poster_path": "/th2UDVewgUAfIXFUaWGWWBxCM91.jpg", "release_date": "1997-08-15", "title": "Cop Land", "video": false, "vote_average": 6.7, "vote_count": 757, "popularity": 13.66}, {"id": 968, "video": false, "vote_count": 1443, "vote_average": 7.8, "title": "Dog Day Afternoon", "release_date": "1975-08-11", "original_language": "en", "original_title": "Dog Day Afternoon", "genre_ids": [80, 18, 53], "backdrop_path": "/gsnPjs2XTBhYDNFgnlsDgjuauDO.jpg", "adult": false, "overview": "Based on the true story of would-be Brooklyn bank robbers John Wojtowicz and Salvatore Naturale. Sonny and Sal attempt a bank heist which quickly turns sour and escalates into a hostage situation and stand-off with the police. As Sonny's motives for the robbery are slowly revealed and things become more complicated, the heist turns into a media circus.", "poster_path": "/qgWuZ2yNJrclU8EldQG4rLhwMoy.jpg", "popularity": 12.037}, {"adult": false, "backdrop_path": "/7QjoyyGdBV32x1sEh64dAnNjwg2.jpg", "genre_ids": [53, 35, 27], "id": 12521, "original_language": "en", "original_title": "Shocker", "overview": "After being sent to the electric chair, a serial killer uses electricity to come back from the dead and carry out his vengeance on the football player who turned him in to the police.", "poster_path": "/xEDmOhNGCKlWlS3mCiqLCVzBXVA.jpg", "release_date": "1989-10-27", "title": "Shocker", "video": false, "vote_average": 5.5, "vote_count": 176, "popularity": 9.966}, {"id": 442249, "video": false, "vote_count": 2156, "vote_average": 5.8, "title": "The First Purge", "release_date": "2018-07-04", "original_language": "en", "original_title": "The First Purge", "genre_ids": [28, 27, 878, 53], "backdrop_path": "/r4clWIxKeWoqrHspQP0XunuUmB7.jpg", "adult": false, "overview": "To push the crime rate below one percent for the rest of the year, the New Founding Fathers of America test a sociological theory that vents aggression for one night in one isolated community. But when the violence of oppressors meets the rage of the others, the contagion will explode from the trial-city borders and spread across the nation.", "poster_path": "/litjsBoiydO6JlO70uOX4N3WnNL.jpg", "popularity": 27.168}, {"id": 398181, "video": false, "vote_count": 1301, "vote_average": 6.6, "title": "You Were Never Really Here", "release_date": "2017-11-08", "original_language": "en", "original_title": "You Were Never Really Here", "genre_ids": [53], "backdrop_path": "/h4Lk8Cgfvlzz0hcnSJBTAOwNDia.jpg", "adult": false, "overview": "A traumatised veteran, unafraid of violence, tracks down missing girls for a living. When a job spins out of control, Joe's nightmares overtake him as a conspiracy is uncovered leading to what may be his death trip or his awakening.", "poster_path": "/ktPbjD6nYg5NxmeTt72Iqaw5GD0.jpg", "popularity": 19.651}, {"id": 298312, "video": false, "vote_count": 2921, "vote_average": 6.2, "title": "The Visit", "release_date": "2015-09-10", "original_language": "en", "original_title": "The Visit", "genre_ids": [27, 9648, 53], "backdrop_path": "/gbJlEeALVGo7kx8bC2q4EFWX1Xy.jpg", "adult": false, "overview": "The terrifying story of a brother and sister who are sent to their grandparents' remote Pennsylvania farm for a weeklong trip. Once the children discover that the elderly couple is involved in something deeply disturbing, they see their chances of getting back home are growing smaller every day.", "poster_path": "/32tNtTEQ1vIOLm1hEOSFkVwJT5D.jpg", "popularity": 20.148}, {"adult": false, "backdrop_path": "/iNuvbrHGNtrUwlm48u4KnQhhMKp.jpg", "genre_ids": [80, 18, 53], "id": 26390, "original_language": "en", "original_title": "Brooklyn's Finest", "overview": "Enforcing the law within the notoriously rough Brownsville section of the city and especially within the Van Dyke housing projects is the NYPD's sixty-fifth precinct. Three police officers struggle with the sometimes fine line between right and wrong.", "poster_path": "/jKSBk0LtZgXxG56uvwiAtYf6ttF.jpg", "release_date": "2009-01-16", "title": "Brooklyn's Finest", "video": false, "vote_average": 6.4, "vote_count": 500, "popularity": 12.127}, {"adult": false, "backdrop_path": "/kiWvoV78Cc3fUwkOHKzyBgVdrDD.jpg", "genre_ids": [37, 18, 12], "id": 281957, "original_language": "en", "original_title": "The Revenant", "overview": "In the 1820s, a frontiersman, Hugh Glass, sets out on a path of vengeance against those who left him for dead after a bear mauling.", "poster_path": "/oXUWEc5i3wYyFnL1Ycu8ppxxPvs.jpg", "release_date": "2015-12-25", "title": "The Revenant", "video": false, "vote_average": 7.5, "vote_count": 12122, "popularity": 30.491}, {"id": 311, "video": false, "vote_count": 2593, "vote_average": 8.4, "title": "Once Upon a Time in America", "release_date": "1984-05-23", "original_language": "en", "original_title": "Once Upon a Time in America", "genre_ids": [80, 18], "backdrop_path": "/vnT6HzjLSDrAweHn9xWykb8Ii6T.jpg", "adult": false, "overview": "A former Prohibition-era Jewish gangster returns to the Lower East Side of Manhattan over thirty years later, where he once again must confront the ghosts and regrets of his old life.", "poster_path": "/x733R4ISI0RbKeHhVkXdTMFmTFr.jpg", "popularity": 23.555}, {"id": 772, "video": false, "vote_count": 5551, "vote_average": 6.5, "title": "Home Alone 2: Lost in New York", "release_date": "1992-11-19", "original_language": "en", "original_title": "Home Alone 2: Lost in New York", "genre_ids": [12, 35, 80, 10751], "backdrop_path": "/1uHTuwx5h9T3XzsXijMMKybDFvZ.jpg", "adult": false, "overview": "Instead of flying to Florida with his folks, Kevin ends up alone in New York, where he gets a hotel room with his dad's credit card\u2014despite problems from a clerk and meddling bellboy. But when Kevin runs into his old nemeses, the Wet Bandits, he's determined to foil their plans to rob a toy store on Christmas eve.", "poster_path": "/ezGcLFTvwR64I3Z7RqHnXRFet4r.jpg", "popularity": 28.428}, {"id": 103, "video": false, "vote_count": 6106, "vote_average": 8.2, "title": "Taxi Driver", "release_date": "1976-02-07", "original_language": "en", "original_title": "Taxi Driver", "genre_ids": [80, 18], "backdrop_path": "/hjmJKAVoZ3n2KWbKgasbfdugwhu.jpg", "adult": false, "overview": "A mentally unstable Vietnam War veteran works as a night-time taxi driver in New York City where the perceived decadence and sleaze feed his urge for violent action, attempting to save a preadolescent prostitute in the process.", "poster_path": "/ekstpH614fwDX8DUln1a2Opz0N8.jpg", "popularity": 25.879}, {"id": 339692, "video": false, "vote_count": 1163, "vote_average": 6.9, "title": "Shot Caller", "release_date": "2017-07-13", "original_language": "en", "original_title": "Shot Caller", "genre_ids": [80, 18, 53], "backdrop_path": "/hehboYLXB3m90x9ybiBsupwuifL.jpg", "adult": false, "overview": "A newly-released prison gangster is forced by the leaders of his gang to orchestrate a major crime with a brutal rival gang on the streets of Southern California.", "poster_path": "/qLmLz2wtyYvmW8Ult3l2ngOnW8v.jpg", "popularity": 25.016}, {"id": 244786, "video": false, "vote_count": 8869, "vote_average": 8.4, "title": "Whiplash", "release_date": "2014-10-10", "original_language": "en", "original_title": "Whiplash", "genre_ids": [18, 10402], "backdrop_path": "/6bbZ6XyvgfjhQwbplnUh1LSj1ky.jpg", "adult": false, "overview": "Under the direction of a ruthless instructor, a talented young drummer begins to pursue perfection at any cost, even his humanity.", "poster_path": "/lIv1QinFqz4dlp5U4lQ6HaiskOZ.jpg", "popularity": 62.72}, {"id": 169917, "video": false, "vote_count": 1811, "vote_average": 6.3, "title": "A Walk Among the Tombstones", "release_date": "2014-09-18", "original_language": "en", "original_title": "A Walk Among the Tombstones", "genre_ids": [80, 18, 9648, 53], "backdrop_path": "/e56QsaJy1weAUukiK2ZmIGVUALF.jpg", "adult": false, "overview": "Private investigator Matthew Scudder is hired by a drug kingpin to find out who kidnapped and murdered his wife.", "poster_path": "/xxe77USOk2tPnq7G4cL42gf1OxQ.jpg", "popularity": 26.185}, {"adult": false, "backdrop_path": "/bRGtZsVj2Qq8r5CCsNYmQUPF4z4.jpg", "genre_ids": [80, 18, 878, 53], "id": 10559, "original_language": "en", "original_title": "Frequency", "overview": "When a rare phenomenon gives police officer John Sullivan the chance to speak to his father, 30 years in the past, he takes the opportunity to prevent his dad's tragic death.  After his actions inadvertently give rise to a series of brutal murders he and his father must find a way to fix the consequences of altering time.", "poster_path": "/n0QAAZmIaPPIShVkk8eiKwfGV9.jpg", "release_date": "2000-04-28", "title": "Frequency", "video": false, "vote_average": 7.1, "vote_count": 894, "popularity": 14.503}, {"adult": false, "backdrop_path": "/fwreQBx5CD55c1DpH117cS8915P.jpg", "genre_ids": [18, 53], "id": 867, "original_language": "en", "original_title": "Sliver", "overview": "A woman moves into an apartment in Manhattan and learns that the previous tenant's life ended mysteriously after they fell from the balcony.", "poster_path": "/av21Dfu31DQPtp5jkorMMS58rQC.jpg", "release_date": "1993-05-21", "title": "Sliver", "video": false, "vote_average": 5.3, "vote_count": 286, "popularity": 19.627}, {"id": 395834, "video": false, "vote_count": 2754, "vote_average": 7.4, "title": "Wind River", "release_date": "2017-08-03", "original_language": "en", "original_title": "Wind River", "genre_ids": [80, 18, 9648, 53], "backdrop_path": "/6B8e784decj9vtKuNjbl9Fes2aZ.jpg", "adult": false, "overview": "An FBI agent teams with the town's veteran game tracker to investigate a murder that occurred on a Native American reservation.", "poster_path": "/pySivdR845Hom4u4T2WNkJxe6Ad.jpg", "popularity": 21.415}, {"id": 315635, "video": false, "vote_count": 13251, "vote_average": 7.4, "title": "Spider-Man: Homecoming", "release_date": "2017-07-05", "original_language": "en", "original_title": "Spider-Man: Homecoming", "genre_ids": [28, 12, 18, 878], "backdrop_path": "/vc8bCGjdVp0UbMNLzHnHSLRbBWQ.jpg", "adult": false, "overview": "Following the events of Captain America: Civil War, Peter Parker, with the help of his mentor Tony Stark, tries to balance his life as an ordinary high school student in Queens, New York City, with fighting crime as his superhero alter ego Spider-Man as a new threat, the Vulture, emerges.", "poster_path": "/c24sv2weTHPsmDa7jEMN0m2P3RT.jpg", "popularity": 49.046}, {"id": 101, "video": false, "vote_count": 8645, "vote_average": 8.3, "title": "L\u00e9on: The Professional", "release_date": "1994-09-14", "original_language": "en", "original_title": "L\u00e9on: The Professional", "genre_ids": [28, 80, 18], "backdrop_path": "/dXQ7HILRK1Tg33RT64JwbQI7Osh.jpg", "adult": false, "overview": "L\u00e9on, the top hit man in New York, has earned a rep as an effective \"cleaner\". But when his next-door neighbors are wiped out by a loose-cannon DEA agent, he becomes the unwilling custodian of 12-year-old Mathilda. Before long, Mathilda's thoughts turn to revenge, and she considers following in L\u00e9on's footsteps.", "poster_path": "/gE8S02QUOhVnAmYu4tcrBlMTujz.jpg", "popularity": 42.005}], "total_pages": 489, "total_results": 9773}, "recommendations": {"page": 1, "results": [{"adult": false, "backdrop_path": null, "genre_ids": [28], "id": 38187, "original_language": "en", "original_title": "Powder Keg", "overview": "The Driver is drafted by the UN to rescue a wounded war photographer named Harvey Jacobs from out of hostile territory. While they are leaving Jacobs tells the Driver about the horrors he saw as a photographer, but he regrets his inability to help war victims. Jacobs answers the driver curiosity about why he is a photographer by saying how his mother taught him to see. He gives the Driver the film needed for a New York Times story and also his dog tags to give to his mother. When they reach the border, they are confronted by a guard who begins to draw arms as Jacobs begins taking pictures, trying to get himself killed. The Driver drives through a hail of gunfire to the border, but finds Jacobs killed by a bullet through the seat. The Driver arrives in America to visit Jacobs' mother and share the news of him winning the Pulitzer prize and hand over the dog tags, only to discover that she is blind.", "poster_path": "/qbiZ8UXWLeleKtbm6nmfNAca3EH.jpg", "release_date": "2001-01-01", "title": "Powder Keg", "video": false, "vote_average": 7.0, "vote_count": 32, "popularity": 4.953}, {"adult": false, "backdrop_path": "/icbElkCXVkeIcyHA3qfoPedHhEO.jpg", "genre_ids": [28], "id": 30091, "original_language": "en", "original_title": "The Hire: Chosen", "overview": "The Driver is carrying an Asian child who has been chosen for a strange ritual. He must drive him through a dark night in the city to get to a monk's house, while eluding several American cars out to get the child.", "poster_path": "/jOJ7B0GZTlEeavT5l9Zvyox6WiD.jpg", "release_date": "2001-01-01", "title": "Chosen", "video": false, "vote_average": 6.7, "vote_count": 35, "popularity": 4.183}, {"adult": false, "backdrop_path": "/ueWP6qY7WyqAYCyvvtwglvC45vb.jpg", "genre_ids": [80, 35, 10749], "id": 25719, "original_language": "en", "original_title": "Shooting Fish", "overview": "Two con artists (Dan Futterman, Stuart Townsend) hire an unwitting medical-school student (Kate Beckinsale) as a secretary for their latest scam.", "poster_path": "/hcWyY9VBfSmpvM9Fbu6WTfkCU9P.jpg", "release_date": "1997-08-22", "title": "Shooting Fish", "video": false, "vote_average": 6.6, "vote_count": 43, "popularity": 5.094}, {"adult": false, "backdrop_path": null, "genre_ids": [28, 12], "id": 38190, "original_language": "en", "original_title": "Ticker", "overview": "The Driver drives a wounded diplomat, who carries a mysterious briefcase, while under helicopter attack. During the attack the briefcase is struck by a bullet, causing a display on it to begin counting down, and it to leak an unknown fluid from the bullet hole. The Driver manages to destroy his pursuers, but refuses to proceed without knowing the contents of the damaged briefcase. It is revealed that the diplomat guards a human heart for a peacekeeper, whose life is needed for the continued freedom of the people. The case is delivered, and the tyrant is forced to give up his attempt to take the country by force. The Driver leaves for another mission.", "poster_path": "/j1NJjtsjbb3iYa1lgbzXQpws680.jpg", "release_date": "2002-01-01", "title": "Ticker", "video": false, "vote_average": 6.8, "vote_count": 28, "popularity": 5.156}, {"id": 38554, "video": false, "vote_count": 30, "vote_average": 5.1, "title": "Dear God", "release_date": "1996-11-01", "original_language": "en", "original_title": "Dear God", "genre_ids": [35], "backdrop_path": "/tqvZ45HjtqTovpDCmUW1kRVqLb0.jpg", "adult": false, "overview": "When letters written to God start getting results, and replies, people everywhere are amazed. The Post Office however is annoyed.", "poster_path": "/mHc6hY6Rv7S7kS50vW2vVdHWG79.jpg", "popularity": 4.789}, {"adult": false, "backdrop_path": null, "genre_ids": [28, 9648], "id": 38189, "original_language": "en", "original_title": "The Follow", "overview": "The Driver is hired by a nervous movie manager to spy on a paranoid actor's wife. During his tailing of the wife, the Driver describes the right way to tail someone. As he follows her he begins to fear what he might learn of her apparently tragic life. He discovers the wife is fleeing the country and returning to her mother's, and that she's been given a black eye, likely by her husband. He returns the money for the job, refusing to tell where the wife is, and drives off telling the manager never to call him again.", "poster_path": "/UJFieHAHnggFANaAi5d3nTR7eP.jpg", "release_date": "2001-05-24", "title": "The Follow", "video": false, "vote_average": 7.3, "vote_count": 32, "popularity": 4.981}, {"id": 20511, "video": false, "vote_count": 21, "vote_average": 6.8, "title": "Chronicles", "release_date": "2004-05-16", "original_language": "en", "original_title": "Cr\u00f3nicas", "genre_ids": [80, 18, 53], "backdrop_path": "/2JgnbTVpE6kqu1Q9FK6gc1GEQOh.jpg", "adult": false, "overview": "A suspense thriller about a reporter from Miami who travels to Ecuador in pursuit of a serial killer known as the \"Monster of Babahoyo.\"", "poster_path": "/xXuWLvuphME6idBPkGe6fFW12gC.jpg", "popularity": 4.053}, {"adult": false, "backdrop_path": "/k4eGczdIl9hzmRtRStDSqhUTgP6.jpg", "genre_ids": [28], "id": 38183, "original_language": "en", "original_title": "Ambush", "overview": "While escorting an elderly man to an undisclosed location, The Driver is confronted by a van full of armed men and is warned that the old man has stolen a large amount of diamonds. The old man claims to have swallowed the diamonds and that the men will likely cut him open to retrieve them. The Driver decides at the last minute to help him, participating in a car chase and shootout with the van. The Driver eventually evades his pursuers and watches their destruction. He then delivers the old man to a town nearby and asks the merchant if he did indeed swallowed the diamonds. The client merely chuckles and walks away. The Driver then leaves.", "poster_path": "/wt5ChxL3m37C1qfW59KJH9cu6ec.jpg", "release_date": "2001-01-01", "title": "Ambush", "video": false, "vote_average": 6.4, "vote_count": 36, "popularity": 4.329}], "total_pages": 1, "total_results": 8}, "credits": {"cast": [{"cast_id": 1, "character": "Seth Warner", "credit_id": "52fe46d09251416c750845ed", "gender": 2, "id": 18992, "name": "Aidan Quinn", "order": 0, "profile_path": "/fOiuJIBJUdiuqjQtGkffpSbRQ49.jpg"}, {"cast_id": 2, "character": "Rachel Luce", "credit_id": "52fe46d09251416c750845f1", "gender": 1, "id": 14405, "name": "Courteney Cox", "order": 1, "profile_path": "/a2NJbLwimILFYOVArpUuwS1pBAY.jpg"}, {"cast_id": 3, "character": "Harry Luce", "credit_id": "52fe46d09251416c750845f5", "gender": 2, "id": 57829, "name": "Anthony LaPaglia", "order": 2, "profile_path": "/vpowJYbuleOtdQtrFgPUPT4dSJl.jpg"}, {"cast_id": 6, "character": "Mrs. Mann", "credit_id": "53938f5a0e0a266dbb002bc7", "gender": 1, "id": 17488, "name": "Alice Drummond", "order": 3, "profile_path": "/f1O8suDhVloKdPvhyltj017SPTo.jpg"}, {"cast_id": 7, "character": "Melissa Murphy", "credit_id": "57bb8824c3a368358d000391", "gender": 1, "id": 1207046, "name": "Pamela Gray", "order": 4, "profile_path": "/rbtQXAM6HeHxvPCBzHREIxmrIn1.jpg"}, {"cast_id": 11, "character": "Karen Warner", "credit_id": "5a66fe5f0e0a26194e008bb2", "gender": 1, "id": 59662, "name": "Joanna Going", "order": 5, "profile_path": "/8wPmJGGj4HEUfaYzYjoL1AzOSlf.jpg"}, {"cast_id": 12, "character": "Banker", "credit_id": "5d0c12bcc3a36816821fa6c8", "gender": 2, "id": 31514, "name": "Peter Jacobson", "order": 6, "profile_path": "/zOyIUOFNmb15I7QbB3E9kw48LXl.jpg"}, {"cast_id": 13, "character": "Scholar", "credit_id": "5d0c12cac3a3682f681e3b5a", "gender": 1, "id": 12110, "name": "Amy Sedaris", "order": 7, "profile_path": "/pNbYqv1vdYZCp68bhT6VWXsA8nt.jpg"}, {"cast_id": 14, "character": "Mr. Mann", "credit_id": "5d0c12dd0e0a2610a7ca112b", "gender": 2, "id": 49835, "name": "Tom Aldredge", "order": 8, "profile_path": "/VNqMbbqT7vK1mYokhn3Tkpcuja.jpg"}, {"cast_id": 15, "character": "Detective", "credit_id": "5d0c12f20e0a265355ca0a47", "gender": 2, "id": 1010, "name": "Michael Badalucco", "order": 9, "profile_path": "/oK2pSu2FWyrwiPEch7Tux2GSMbK.jpg"}], "crew": [{"credit_id": "52fe46d09251416c750845fb", "department": "Directing", "gender": 2, "id": 74063, "job": "Director", "name": "Daniel Taplitz", "profile_path": null}, {"credit_id": "52fe46d09251416c75084601", "department": "Writing", "gender": 2, "id": 74063, "job": "Writer", "name": "Daniel Taplitz", "profile_path": null}, {"credit_id": "582672d6c3a36836010109f6", "department": "Sound", "gender": 2, "id": 55440, "job": "Original Music Composer", "name": "Joseph Vitarelli", "profile_path": null}, {"credit_id": "582672dcc3a368360b0128ae", "department": "Camera", "gender": 2, "id": 1129, "job": "Director of Photography", "name": "Slawomir Idziak", "profile_path": "/vA9WrEK35MyUx6Sb4NtZiouotsg.jpg"}, {"credit_id": "582672e3c3a36836010109fd", "department": "Editing", "gender": 2, "id": 12940, "job": "Editor", "name": "Michael Jablow", "profile_path": null}]}}