{"adult": false, "backdrop_path": "/1Bx7LaWenFDoCrQCy83jAHY5T4z.jpg", "belongs_to_collection": null, "budget": 0, "genres": [{"id": 18, "name": "Drama"}], "homepage": null, "id": 16420, "imdb_id": "tt0114057", "original_language": "en", "original_title": "Othello", "overview": "The evil Iago pretends to be friend of Othello in order to manipulate him to serve his own end in the film version of this Shakespeare classic.", "popularity": 8.112, "poster_path": "/qM0BXEQjmnAzlkDZ0tYmV6twqMX.jpg", "production_companies": [{"id": 97, "logo_path": "/7znWcbDd4PcJzJUlJxYqAlPPykp.png", "name": "Castle Rock Entertainment", "origin_country": "US"}, {"id": 5, "logo_path": "/71BqEFAF4V3qjjMPCpLuyJFB9A.png", "name": "Columbia Pictures", "origin_country": "US"}], "production_countries": [{"iso_3166_1": "IT", "name": "Italy"}], "release_date": "1995-12-15", "revenue": 0, "runtime": 123, "spoken_languages": [{"iso_639_1": "en", "name": "English"}], "status": "Released", "tagline": "Envy, greed, jealousy and love.", "title": "Othello", "video": false, "vote_average": 6.7, "vote_count": 73, "keywords": {"keywords": [{"id": 497, "name": "william shakespeare"}, {"id": 931, "name": "jealousy"}, {"id": 9713, "name": "friends"}, {"id": 17982, "name": "moor"}]}, "similar": {"page": 1, "results": [{"id": 19913, "video": false, "vote_count": 6205, "vote_average": 7.2, "title": "(500) Days of Summer", "release_date": "2009-07-17", "original_language": "en", "original_title": "(500) Days of Summer", "genre_ids": [35, 18, 10749], "backdrop_path": "/yYw9cVdRJ4zzwxM2cTDXfT6JI6E.jpg", "adult": false, "overview": "Tom, greeting-card writer and hopeless romantic, is caught completely off-guard when his girlfriend, Summer, suddenly dumps him. He reflects on their 500 days together to try to figure out where their love affair went sour, and in doing so, Tom rediscovers his true passions in life.", "poster_path": "/5SjtNPD1bb182vzQccvEUpXHFjN.jpg", "popularity": 20.229}, {"adult": false, "backdrop_path": "/dji4Fm0gCDVb9DQQMRvAI8YNnTz.jpg", "genre_ids": [16, 35, 10751], "id": 862, "original_language": "en", "original_title": "Toy Story", "overview": "Led by Woody, Andy's toys live happily in his room until Andy's birthday brings Buzz Lightyear onto the scene. Afraid of losing his place in Andy's heart, Woody plots against Buzz. But when circumstances separate Buzz and Woody from their owner, the duo eventually learns to put aside their differences.", "poster_path": "/rhIRbceoE9lR4veEXuwCC2wARtG.jpg", "release_date": "1995-10-30", "title": "Toy Story", "video": false, "vote_average": 7.9, "vote_count": 11531, "popularity": 31.451}, {"adult": false, "backdrop_path": "/bYbnlh6VXFRtcSX82UMDsBDLB5j.jpg", "genre_ids": [18, 10749], "id": 28468, "original_language": "it", "original_title": "La chiave", "overview": "After twenty years of marriage, art professor Nino Rolfe attempts to break down his wife Teresa's conventional modesty. Noticing her affection for their daughter's fianc\u00e9, Nino instigates her sexual interest in him as well. This sets off a chain of unexpected events and emotional complications, as Nino and his unpredictable fascist daughter find that they both enjoy being jealous.", "poster_path": "/e6g2geNLgFzMbriH6EvSJZD78nx.jpg", "release_date": "1983-10-18", "title": "The Key", "video": false, "vote_average": 5.0, "vote_count": 128, "popularity": 19.088}, {"id": 38, "video": false, "vote_count": 8439, "vote_average": 8.1, "title": "Eternal Sunshine of the Spotless Mind", "release_date": "2004-03-19", "original_language": "en", "original_title": "Eternal Sunshine of the Spotless Mind", "genre_ids": [18, 878, 10749], "backdrop_path": "/1dXTsaFxHoF9cas08UjAqE8NqOW.jpg", "adult": false, "overview": "Joel Barish, heartbroken that his girlfriend underwent a procedure to erase him from her memory, decides to do the same. However, as he watches his memories of her fade away, he realises that he still loves her, and may be too late to correct his mistake.", "poster_path": "/7y3eYvTsGjxPYDtSnumCLIMDkrV.jpg", "popularity": 22.167}, {"id": 68718, "video": false, "vote_count": 17247, "vote_average": 8.1, "title": "Django Unchained", "release_date": "2012-12-25", "original_language": "en", "original_title": "Django Unchained", "genre_ids": [18, 37], "backdrop_path": "/qUcmEqnzIwlwZxSyTf3WliSfAjJ.jpg", "adult": false, "overview": "With the help of a German bounty hunter, a freed slave sets out to rescue his wife from a brutal Mississippi plantation owner.", "poster_path": "/eCt596Z4zkqxW5AHz1HEhGm1eif.jpg", "popularity": 47.791}, {"id": 521, "video": false, "vote_count": 1257, "vote_average": 8.0, "title": "Dial M for Murder", "release_date": "1954-05-29", "original_language": "en", "original_title": "Dial M for Murder", "genre_ids": [80, 18, 9648, 53], "backdrop_path": "/jVMlfESb0TJ29w8CUDDofEprMmn.jpg", "adult": false, "overview": "An ex-tennis pro carries out a plot to have his wife murdered after discovering she is having an affair, and assumes she will soon leave him for the other man anyway. When things go wrong, he improvises a new plan\u2014to frame her for murder instead.", "poster_path": "/xrpK1PyckNWmRxU4kZURfaCyboS.jpg", "popularity": 34.566}, {"id": 504949, "video": false, "vote_count": 911, "vote_average": 7.2, "title": "The King", "release_date": "2019-10-11", "original_language": "en", "original_title": "The King", "genre_ids": [18, 36, 10752], "backdrop_path": "/r0AWsZ9dBvC2No3kND9nxv3iRbb.jpg", "adult": false, "overview": "England, 15th century. Hal, a capricious prince who lives among the populace far from court, is forced by circumstances to reluctantly accept the throne and become Henry V.", "poster_path": "/8u0QBGUbZcBW59VEAdmeFl9g98N.jpg", "popularity": 19.624}, {"id": 23168, "video": false, "vote_count": 2674, "vote_average": 7.2, "title": "The Town", "release_date": "2010-09-15", "original_language": "en", "original_title": "The Town", "genre_ids": [80, 18, 53], "backdrop_path": "/asMylckPVBXViRqxjDTzik0TpOh.jpg", "adult": false, "overview": "Doug MacRay is a longtime thief, who, smarter than the rest of his crew, is looking for his chance to exit the game. When a bank job leads to the group kidnapping an attractive branch manager, he takes on the role of monitoring her \u2013 but their burgeoning relationship threatens to unveil the identities of Doug and his crew to the FBI Agent who is on their case.", "poster_path": "/zX4fKmDXKGt4hlzhAJirdlRKFgO.jpg", "popularity": 19.797}, {"id": 207, "video": false, "vote_count": 6555, "vote_average": 8.3, "title": "Dead Poets Society", "release_date": "1989-06-02", "original_language": "en", "original_title": "Dead Poets Society", "genre_ids": [18], "backdrop_path": "/34DzJKMrzgc3EO1Dnbp6mkpbCZm.jpg", "adult": false, "overview": "At an elite, old-fashioned boarding school in New England, a passionate English teacher inspires his students to rebel against convention and seize the potential of every day, courting the disdain of the stern headmaster.", "poster_path": "/3Ri2GReavqSHqWemlP6HYn8i2P9.jpg", "popularity": 26.313}, {"id": 1422, "video": false, "vote_count": 8811, "vote_average": 8.1, "title": "The Departed", "release_date": "2006-10-05", "original_language": "en", "original_title": "The Departed", "genre_ids": [80, 18, 53], "backdrop_path": "/8Od5zV7Q7zNOX0y9tyNgpTmoiGA.jpg", "adult": false, "overview": "To take down South Boston's Irish Mafia, the police send in one of their own to infiltrate the underworld, not realizing the syndicate has done likewise. While an undercover cop curries favor with the mob kingpin, a career criminal rises through the police ranks. But both sides soon discover there's a mole among them.", "poster_path": "/tGLO9zw5ZtCeyyEWgbYGgsFxC6i.jpg", "popularity": 27.511}, {"adult": false, "backdrop_path": "/ecREZ3vYCqethftSDWK4we0X498.jpg", "genre_ids": [35, 18, 10749], "id": 4507, "original_language": "es", "original_title": "Jam\u00f3n, jam\u00f3n", "overview": "Jose Luis is an executive at his parents underwear factory where his girlfriend Sylvia works on the shop floor. When Sylvia becomes pregnant, Jose Luis promises her that he will marry her, most likely against the wishes of his parents. Jose Luis' mother is determined to break her son's engagement to a girl from a lower-class family, and hires Raul, a potential underwear model and would-be bullfighter to seduce Sylvia.", "poster_path": "/v5Fq01ZtYnA2Grxdd3g8CuGZARg.jpg", "release_date": "1992-09-03", "title": "Jamon Jamon", "video": false, "vote_average": 6.1, "vote_count": 143, "popularity": 14.21}, {"id": 28178, "video": false, "vote_count": 3995, "vote_average": 8.0, "title": "Hachi: A Dog's Tale", "release_date": "2009-06-13", "original_language": "en", "original_title": "Hachi: A Dog's Tale", "genre_ids": [18, 10751], "backdrop_path": "/m87xptCZD6J15HcioOOX4kfEdeD.jpg", "adult": false, "overview": "A drama based on the true story of a college professor's bond with the abandoned dog he takes into his home.", "poster_path": "/3MpVmIg6CgOCUrZ2TZ2P0yitCbM.jpg", "popularity": 27.836}, {"adult": false, "backdrop_path": "/5UhVmv70qTfy7YSf8r87kNXWxjK.jpg", "genre_ids": [18, 53, 9648], "id": 638, "original_language": "en", "original_title": "Lost Highway", "overview": "A tormented jazz musician finds himself lost in an enigmatic story involving murder, surveillance, gangsters, doppelgangers, and an impossible transformation inside a prison cell.", "poster_path": "/z6yhgEzGUJaBBgAxoyggRzwLnVM.jpg", "release_date": "1997-01-15", "title": "Lost Highway", "video": false, "vote_average": 7.6, "vote_count": 1277, "popularity": 16.545}, {"id": 50544, "video": false, "vote_count": 5176, "vote_average": 6.6, "title": "Friends with Benefits", "release_date": "2011-07-21", "original_language": "en", "original_title": "Friends with Benefits", "genre_ids": [35, 10749], "backdrop_path": "/liq5ljqURqLiBUgMkNiR388ZuSH.jpg", "adult": false, "overview": "Dylan and Jamie think it's going to be easy to add the simple act of sex to their friendship, despite what Hollywood romantic comedies would have them believe. They soon discover however that getting physical really does always lead to complications.", "poster_path": "/nKhhDFCdzxeJ3GUunQ570LDpUkz.jpg", "popularity": 19.228}, {"id": 45772, "video": false, "vote_count": 1217, "vote_average": 5.8, "title": "Gnomeo & Juliet", "release_date": "2011-01-13", "original_language": "en", "original_title": "Gnomeo & Juliet", "genre_ids": [16, 10751], "backdrop_path": "/5VDfdJBofpvXAMtaHTT8YFE0lru.jpg", "adult": false, "overview": "A version of Shakespeare's play, set in the world of warring indoor and outdoor gnomes. Garden gnomes Gnomeo and Juliet have as many obstacles to overcome as their quasi namesakes when they are caught up in a feud between neighbors. But with plastic pink flamingos and lawnmower races in the mix, can this young couple find lasting happiness?", "poster_path": "/atCBHTqq7khw5Z1KSVXDo6ncKWF.jpg", "popularity": 28.225}, {"adult": false, "backdrop_path": "/74Jh5SIWnKDwtusPfDP51EeCFHt.jpg", "genre_ids": [35, 10749], "id": 9576, "original_language": "en", "original_title": "Tootsie", "overview": "When struggling, out of work actor Michael Dorsey secretly adopts a female alter ego - Dorothy Michaels - in order to land a part in a daytime drama, he unwittingly becomes a feminist icon and ends up in a romantic pickle.", "poster_path": "/ngyCzZwb9y5sMUCig5JQT4Y33Q.jpg", "release_date": "1982-12-16", "title": "Tootsie", "video": false, "vote_average": 7.2, "vote_count": 915, "popularity": 10.882}, {"id": 2758, "video": false, "vote_count": 1438, "vote_average": 6.7, "title": "Addams Family Values", "release_date": "1993-11-19", "original_language": "en", "original_title": "Addams Family Values", "genre_ids": [35, 14, 10751], "backdrop_path": "/dMSC5jU9gsw2VmaVHlFqXk6w3j7.jpg", "adult": false, "overview": "Siblings Wednesday and Pugsley Addams will stop at nothing to get rid of Pubert, the new baby boy adored by parents Gomez and Morticia. Things go from bad to worse when the new \"black widow\" nanny, Debbie Jellinsky, launches her plan to add Fester to her collection of dead husbands.", "poster_path": "/8znyj20O3EYLD2EzWnZQMnkE4zH.jpg", "popularity": 20.407}, {"id": 77950, "video": false, "vote_count": 1940, "vote_average": 6.1, "title": "Turbo", "release_date": "2013-07-11", "original_language": "en", "original_title": "Turbo", "genre_ids": [16, 10751], "backdrop_path": "/dvdKrICCKP8Uh1Xqkn60oQXnYer.jpg", "adult": false, "overview": "The tale of an ordinary garden snail who dreams of winning the Indy 500.", "poster_path": "/kajPlPUgobxci8ME5oqvzjN430q.jpg", "popularity": 22.479}, {"id": 9373, "video": false, "vote_count": 1413, "vote_average": 6.1, "title": "The Texas Chainsaw Massacre", "release_date": "2003-05-21", "original_language": "en", "original_title": "The Texas Chainsaw Massacre", "genre_ids": [27], "backdrop_path": "/3rTsJ7tIC3LUSRr80PfeLbbCfBA.jpg", "adult": false, "overview": "After picking up a traumatized young hitchhiker, five friends find themselves stalked and hunted by a deformed chainsaw-wielding killer and his family of equally psychopathic killers.", "poster_path": "/gx7FCIOFGxqNyplF3t7qtmUv55g.jpg", "popularity": 17.769}, {"id": 42314, "video": false, "vote_count": 73, "vote_average": 6.9, "title": "Looking for Richard", "release_date": "1996-10-11", "original_language": "en", "original_title": "Looking for Richard", "genre_ids": [99], "backdrop_path": "/7qdxm509oFNaWENfpRoaKLpla0A.jpg", "adult": false, "overview": "Al Pacino's deeply-felt rumination on Shakespeare's significance and relevance to the modern world through interviews and an in-depth analysis of \"Richard III.\"", "poster_path": "/2iEgEoMP1S2YWKkYkwm8cgg2bBN.jpg", "popularity": 18.735}], "total_pages": 52, "total_results": 1040}, "recommendations": {"page": 1, "results": [{"id": 32855, "video": false, "vote_count": 23, "vote_average": 5.6, "title": "In Country", "release_date": "1989-09-15", "original_language": "en", "original_title": "In Country", "genre_ids": [18], "backdrop_path": "/2w9Q5DKSd57t476hvVDxlXhvKdU.jpg", "adult": false, "overview": "Samantha Hughes, a teenaged Kentucky girl, never knew her father, who died in Vietnam before her birth. Samantha lives with her uncle Emmett, who also served in Vietnam. Emmett hangs around with Tom, Earl, and Pete, three other Vietnam vets who, like Emmett, all have problems of one kind or another that relate to their war experiences. Samantha becomes obsessed with finding out about her father.", "poster_path": "/rLyxWz5O2QfOBbqLDlloUHQyuru.jpg", "popularity": 4.587}, {"adult": false, "backdrop_path": "/60jhnDUFce7UgfggGFjBISztyid.jpg", "genre_ids": [18, 35, 10749], "id": 44705, "original_language": "en", "original_title": "Twelfth Night", "overview": "Shakespeare's comedy of gender confusion, in which a girl disguises herself as a man to be near the count she adores, only to be pursued by the woman he loves.", "poster_path": "/3P83G5fXWVk6nUpzhv9BmaWwuxG.jpg", "release_date": "1996-10-31", "title": "Twelfth Night", "video": false, "vote_average": 7.0, "vote_count": 41, "popularity": 5.372}, {"adult": false, "backdrop_path": "/t1sD8P4QhZWG5nbHhJ6NrVjq8aS.jpg", "genre_ids": [18, 10749], "id": 61280, "original_language": "en", "original_title": "The Turning Point", "overview": "When her daughter joins a ballet company, a former dancer is forced to confront her long-ago decision to give up the stage to have a family.", "poster_path": "/zszTHOHYeZlVhypRF4kYKssppfL.jpg", "release_date": "1977-11-14", "title": "The Turning Point", "video": false, "vote_average": 6.5, "vote_count": 25, "popularity": 5.501}, {"adult": false, "backdrop_path": "/xrodsIAoWReSA46VcBv294K6122.jpg", "genre_ids": [35, 18, 10749], "id": 32060, "original_language": "en", "original_title": "Brighton Beach Memoirs", "overview": "Eugene, a young teenage Jewish boy, recalls his memoirs of his time as an adolescent youth. He lives with his parents, his aunt, two cousins, and his brother, Stanley, whom he looks up to and admires. He goes through the hardships of puberty, sexual fantasy, and living the life of a poor boy in a crowded house.", "poster_path": "/lkGjEVhiI6z3dQMh4QGIRs8fTgZ.jpg", "release_date": "1986-12-26", "title": "Brighton Beach Memoirs", "video": false, "vote_average": 6.7, "vote_count": 24, "popularity": 4.627}, {"adult": false, "backdrop_path": "/1TrNN0pAVcck18Qss6VJSM9ww7V.jpg", "genre_ids": [18, 35], "id": 41971, "original_language": "en", "original_title": "The Moderns", "overview": "Nick Hart is a struggling American artist who lives amongst the expatriate community in 1920s Paris. He spends most of his time drinking and socializing in local caf\u00e9's and pestering gallery owner Libby Valentin to sell his paintings. He becomes involved in a plot by wealthy art patroness Nathalie de Ville to forge three paintings. This leads to several run-ins with American rubber magnate Bertram Stone, who happens to be married to Hart's ex-wife Rachel.", "poster_path": "/2VdcWAlNU0UfTSq909n1wdb0ji.jpg", "release_date": "1988-04-15", "title": "The Moderns", "video": false, "vote_average": 6.6, "vote_count": 9, "popularity": 3.087}, {"adult": false, "backdrop_path": "/gftiZmCoQsGXlwh5DLS4YYeSrhI.jpg", "genre_ids": [35, 18], "id": 50116, "original_language": "en", "original_title": "Simpatico", "overview": "As youths in Azusa, Vinnie, Carter, and Rosie pull off a racing scam, substituting winners for plodders and winning big bucks on long odds. When an official uncovers the scam, they set him up for blackmail. Jump ahead twenty years, Carter and Rosie are married, successful racers in Kentucky about to sell their prize stallion, Simpatico. Vinnie is a drunk in Pomona. Vinnie decides to make a play for Rosie, lures Carter to California, steals his wallet and heads for Kentucky with the original blackmail material. Carter begs Vinnie's friend, a grocery clerk named Cecilia, to follow Vinnie and get the stuff back that he has in a box. Will she succeed?", "poster_path": "/z4YysyDmadnnGbIbb15mKogG7jN.jpg", "release_date": "1999-09-15", "title": "Simpatico", "video": false, "vote_average": 5.2, "vote_count": 13, "popularity": 3.427}, {"adult": false, "backdrop_path": "/haVveBrm9U1EEXNQuShnZlldvoA.jpg", "genre_ids": [18, 10751, 10749], "id": 68430, "original_language": "en", "original_title": "Paradise", "overview": "Willard Young is a 10-year-old boy who is sent by his mother to stay with her best friend Lily Reed, who lives in the Delta shrimp-fishing country in a town called Paradise. Lily and her husband Ben have been living in an unmentioned emotional vacuum since the death of their own three year old boy. Willie makes friends with the local 9-year-old tomboy Billie Pike, who teaches him to be comfortable with himself. When Willard gains a handle on his own emotions, he can now help Lily and Ben to connect, overcome grief and rediscover themselves.", "poster_path": "/eVfYCvvzWQTZKnyZkaTS6f6dA1y.jpg", "release_date": "1991-09-18", "title": "Paradise", "video": false, "vote_average": 6.2, "vote_count": 28, "popularity": 5.443}, {"id": 38731, "video": false, "vote_count": 25, "vote_average": 6.7, "title": "An Unmarried Woman", "release_date": "1978-05-26", "original_language": "en", "original_title": "An Unmarried Woman", "genre_ids": [35, 18, 10749], "backdrop_path": "/nBSIspn1vSfBfZSBd26o2JbADnF.jpg", "adult": false, "overview": "A wealthy woman from Manhattan's Upper East Side struggles to deal with her new identity and her sexuality after her husband of 16 years leaves her for a younger woman.", "poster_path": "/pJ6BLvNcLhNxvVCGgTynO5BJtQq.jpg", "popularity": 6.336}, {"id": 43471, "video": false, "vote_count": 18, "vote_average": 6.1, "title": "Anna and the King of Siam", "release_date": "1946-08-11", "original_language": "en", "original_title": "Anna and the King of Siam", "genre_ids": [18, 10749], "backdrop_path": "/9z74q8e32gYJCxCsfx17beFihrB.jpg", "adult": false, "overview": "In 1862, a young Englishwoman becomes royal tutor in Siam and befriends the King.", "poster_path": "/qE7t7e20sLdHw9prgzgYkPyDUwd.jpg", "popularity": 5.961}, {"id": 32144, "video": false, "vote_count": 13, "vote_average": 5.7, "title": "The Proposition", "release_date": "1998-03-26", "original_language": "en", "original_title": "The Proposition", "genre_ids": [18, 10749], "backdrop_path": "/ktCT4mwGS5BOvMDiJXssfrIC0b0.jpg", "adult": false, "overview": "Father Michael McKinnon goes from the UK to Boston circa 1935. For unknown reasons, he avoids at all costs the most prominent parishioners, Arthur and Eleanor Barret. Meanwhile Eleanor and Arthur desperately want to have a child, but Arthur is sterile, so they hire Harvard law student Roger Martin to impregnate Eleanor, but unfortunately Roger falls in love with her.", "poster_path": "/zIPmvZyWLHOTZgpPXgnKgO2pvM0.jpg", "popularity": 6.457}, {"id": 32221, "video": false, "vote_count": 30, "vote_average": 6.6, "title": "Rambling Rose", "release_date": "1991-09-10", "original_language": "en", "original_title": "Rambling Rose", "genre_ids": [18], "backdrop_path": "/tyxPj6hFm24Qo77CqOgS9ByZS4H.jpg", "adult": false, "overview": "Rose, is taken in by the Hillyer family to serve as a 1930s housemaid so that she can avoid falling into a life of prostitution. Rose's appearence and personality is such that all men fall for her, and Rose knows it. She can't help herself from getting into trouble with men.", "poster_path": "/1nkMjjS1zPMQeRcVaK4XDuqPCNU.jpg", "popularity": 8.338}, {"adult": false, "backdrop_path": "/czezJny206Gkno7ViToWgpUVhyT.jpg", "genre_ids": [16], "id": 159828, "original_language": "en", "original_title": "Marcel, King of Tervuren", "overview": "Marcel survives the bird flu, alcohol, sleeping pills and his son Max. Though blinded in one eye, he remains the King of Tervuren. Greek tragedy as acted out by Belgian roosters.", "poster_path": "/eW8Yzta2JtZMqbk3swBJ474nVoa.jpg", "release_date": "2013-01-16", "title": "Marcel, King of Tervuren", "video": false, "vote_average": 6.8, "vote_count": 5, "popularity": 0.84}, {"adult": false, "backdrop_path": "/AhaXng8wwbZ6J1fA6RydqQSyGeU.jpg", "genre_ids": [18], "id": 26195, "original_language": "en", "original_title": "The Secret Lives of Dentists", "overview": "An introspective dentist's suspicions about his wife's infidelity stresses his mental well being and family life to the breaking point.", "poster_path": "/55ukynMmkZUAFARVk2sNWkNSuhM.jpg", "release_date": "2002-09-09", "title": "The Secret Lives of Dentists", "video": false, "vote_average": 6.3, "vote_count": 12, "popularity": 3.266}, {"id": 49792, "video": false, "vote_count": 10, "vote_average": 6.6, "title": "Queens Logic", "release_date": "1991-02-01", "original_language": "en", "original_title": "Queens Logic", "genre_ids": [35, 18], "backdrop_path": "/uAZ2vCw3Ezesm3fjpHBKGgntVce.jpg", "adult": false, "overview": "When childhood friends Al, Dennis and Eliot get together for Ray's wedding, which may or may not happen, they end up on a roller-coaster ride through reality. During one tumultuous, crazy weekend, they face adulthood and each other with new found maturity and discover what Queens Logic is all about. This comedy takes a look at friendship, loyalty, and love.", "poster_path": "/3hFeEhS6xr7f0JUNu5m0okitJai.jpg", "popularity": 4.995}, {"id": 16666, "video": false, "vote_count": 8, "vote_average": 7.6, "title": "War Dance", "release_date": "2007-11-09", "original_language": "en", "original_title": "War Dance", "genre_ids": [99, 10402, 10752], "backdrop_path": "/5ZepdRQRAlFlBr8SLsqE3EFaTQF.jpg", "adult": false, "overview": "Three children living in a displacement camp in northern Uganda compete in their country's national music and dance festival.", "poster_path": "/bWn86VpMuvhDdmqbjq2wCy8vo78.jpg", "popularity": 4.485}, {"adult": false, "backdrop_path": "/6dC7XfhQNYmQFg6ezCXOr41bd8M.jpg", "genre_ids": [28, 53, 10749], "id": 31922, "original_language": "en", "original_title": "Year of the Gun", "overview": "In this thriller, American novelist David Raybourne (Andrew McCarthy) accidentally becomes entangled in the Red Brigade's terrorist plan to kidnap Italian Premier Aldo Moro during a research trip to Rome. As the terrorists attempt to kill David, he and his photojournalist friend (Sharon Stone) must struggle to stay alive.", "poster_path": "/bdL6xkhbWokFJIp6ENFF6qbtH8T.jpg", "release_date": "1991-09-10", "title": "Year of the Gun", "video": false, "vote_average": 4.8, "vote_count": 20, "popularity": 3.405}, {"adult": false, "backdrop_path": null, "genre_ids": [18], "id": 307692, "original_language": "en", "original_title": "Parvaneh", "overview": "Parvaneh is a young Afghan immigrant who recently arrived at a transit centre for asylum seekers in the Swiss Alps. The only things she has got to know yet are the rural area surrounding the centre and the centre itself.", "poster_path": "/q5UmwkkNguMhMHjEOmXZWLrgbSv.jpg", "release_date": "2012-11-01", "title": "Parvaneh", "video": false, "vote_average": 6.6, "vote_count": 11, "popularity": 2.2}, {"id": 36492, "video": false, "vote_count": 62, "vote_average": 6.7, "title": "Carnal Knowledge", "release_date": "1971-10-21", "original_language": "en", "original_title": "Carnal Knowledge", "genre_ids": [18], "backdrop_path": "/heqDck28IZtgFA55cKsSXXA6Pbv.jpg", "adult": false, "overview": "The concurrent sexual lives of best friends Jonathan and Sandy are presented, those lives which are affected by the sexual mores of the time and their own temperament, especially in relation to the respective women who end up in their lives.", "poster_path": "/qAdVagh7u1QkO6r0PS430m4jx3o.jpg", "popularity": 6.74}, {"id": 31659, "video": false, "vote_count": 45, "vote_average": 6.0, "title": "Wise Guys", "release_date": "1986-04-17", "original_language": "en", "original_title": "Wise Guys", "genre_ids": [35, 80], "backdrop_path": "/mJRf53TTldvdOmCRKF9QWrPdjc8.jpg", "adult": false, "overview": "Harry Valentini and Moe Dickstein are both errand boys for the Mob. When they lose $250,000, they are set up to kill each other. But they run off to Atlantic City and comedy follows.", "poster_path": "/oN4xnH6SqigBlyTlOnOkZ2tdWAB.jpg", "popularity": 5.725}, {"id": 30500, "video": false, "vote_count": 28, "vote_average": 5.6, "title": "To Gillian on Her 37th Birthday", "release_date": "1996-10-18", "original_language": "en", "original_title": "To Gillian on Her 37th Birthday", "genre_ids": [18, 10749], "backdrop_path": "/kwzLc9mzKzpvRFBpil9TfeNH4Qx.jpg", "adult": false, "overview": "David loves his wife, Gillian. Unfortunately, she died two years ago. David deals with his grief by continuing his romance with Gillian during walks with her \"ghost\" on the beach at night. While David lives in the past, other family problems crop up in the present in the real world....", "poster_path": "/f0n7yAcN5JT3BRhmuUaG22axVBY.jpg", "popularity": 6.358}], "total_pages": 2, "total_results": 40}, "credits": {"cast": [{"cast_id": 2, "character": "Othello", "credit_id": "52fe46d29251416c75084b0b", "gender": 2, "id": 2975, "name": "Laurence Fishburne", "order": 0, "profile_path": "/8suOhUmPbfKqDQ17jQ1Gy0mI3P4.jpg"}, {"cast_id": 3, "character": "Desdemona", "credit_id": "52fe46d29251416c75084b0f", "gender": 1, "id": 1350, "name": "Ir\u00e8ne Jacob", "order": 1, "profile_path": "/vjlwVgbpb22S4rriqkfOd9H4kmU.jpg"}, {"cast_id": 4, "character": "Iago", "credit_id": "52fe46d29251416c75084b13", "gender": 2, "id": 11181, "name": "Kenneth Branagh", "order": 2, "profile_path": "/bmpGjbqvAVNOK3ggiuET2Jl96tZ.jpg"}, {"cast_id": 5, "character": "Cassio", "credit_id": "52fe46d29251416c75084b17", "gender": 2, "id": 27631, "name": "Nathaniel Parker", "order": 3, "profile_path": "/8WCq0XEKhqf78Dgoevtj10glMvX.jpg"}, {"cast_id": 9, "character": "Roderigo", "credit_id": "546251330e0a267bef00010a", "gender": 2, "id": 17483, "name": "Michael Maloney", "order": 4, "profile_path": "/f0rV6ZXr8W6BkSCFeJo2KXdnD4A.jpg"}, {"cast_id": 10, "character": "Emilia", "credit_id": "546251410e0a267bf500010a", "gender": 1, "id": 1227643, "name": "Anna Patrick", "order": 5, "profile_path": "/jdi9sSi5DF5uOmurxSwQhAsXjYf.jpg"}, {"cast_id": 11, "character": "Montano", "credit_id": "546251500e0a267bef00010d", "gender": 2, "id": 32357, "name": "Nicholas Farrell", "order": 6, "profile_path": "/t1I4m6x2aAki1pRueK6pxbi7j9s.jpg"}, {"cast_id": 6, "character": "Bianca", "credit_id": "52fe46d29251416c75084b1b", "gender": 1, "id": 232174, "name": "Indra Ov\u00e9", "order": 7, "profile_path": "/nxJqWvoKAeke90UIJVgSTlvVtsu.jpg"}, {"cast_id": 12, "character": "Lodovico", "credit_id": "5462515ec3a3680813000118", "gender": 2, "id": 3968, "name": "Michael Sheen", "order": 8, "profile_path": "/rbDgZ38bn22MUC2mMpkrG0L6nhB.jpg"}], "crew": [{"credit_id": "5462510ec3a368082d000121", "department": "Writing", "gender": 2, "id": 6210, "job": "Writer", "name": "William Shakespeare", "profile_path": "/2z4njqosEQM4g26ttb9grG9rJUg.jpg"}, {"credit_id": "5d42d8e4d8cc4a0016351003", "department": "Editing", "gender": 2, "id": 12685, "job": "Editor", "name": "Tony Lawson", "profile_path": null}, {"credit_id": "52fe46d29251416c75084b07", "department": "Directing", "gender": 2, "id": 56710, "job": "Director", "name": "Oliver Parker", "profile_path": "/3qdUN7qhcQn4P3tEOTKJgTUdCIr.jpg"}, {"credit_id": "54625118c3a368081300010e", "department": "Writing", "gender": 2, "id": 56710, "job": "Adaptation", "name": "Oliver Parker", "profile_path": "/3qdUN7qhcQn4P3tEOTKJgTUdCIr.jpg"}, {"credit_id": "5c9b5c080e0a264ccec6d788", "department": "Directing", "gender": 1, "id": 1767523, "job": "Third Assistant Director", "name": "Sara Desmond", "profile_path": null}]}}