{"adult": false, "backdrop_path": null, "belongs_to_collection": null, "budget": 0, "genres": [{"id": 35, "name": "Comedy"}], "homepage": null, "id": 164399, "imdb_id": "tt0025194", "original_language": "en", "original_title": "Goodbye Love", "overview": "A sexy golddigger lands who she thinks is a wealthy big-game hunter from a royal family. What she doesn't know is that not only is he not wealthy, nor a big-game hunter nor from a royal family, but he's only a butler. Complications ensue as he tries to keep up the pretense.", "popularity": 1.176, "poster_path": "/aiZeGUX9kCAC0al6Ph6fVOQrjFF.jpg", "production_companies": [{"id": 82842, "logo_path": null, "name": "Jefferson Pictures Corporation", "origin_country": ""}], "production_countries": [{"iso_3166_1": "US", "name": "United States of America"}], "release_date": "1933-11-09", "revenue": 0, "runtime": 67, "spoken_languages": [{"iso_639_1": "en", "name": "English"}], "status": "Released", "tagline": "", "title": "Goodbye Love", "video": false, "vote_average": 0.0, "vote_count": 0, "keywords": {"keywords": [{"id": 156764, "name": "pre-code"}, {"id": 157286, "name": "gold digger"}]}, "similar": {"page": 1, "results": [{"id": 58431, "video": false, "vote_count": 1302, "vote_average": 5.8, "title": "Pride and Prejudice and Zombies", "release_date": "2016-02-04", "original_language": "en", "original_title": "Pride and Prejudice and Zombies", "genre_ids": [35, 27, 53, 10749], "backdrop_path": "/z6gSLTHsAgqlOwID8jMHfFgeufS.jpg", "adult": false, "overview": "A zombie outbreak has fallen upon the land in this reimagining of Jane Austen\u2019s classic tale of the tangled relationships between lovers from different social classes in 19th century England. Feisty heroine Elizabeth Bennet (Lily James) is a master of martial arts and weaponry and the handsome Mr. Darcy (Sam Riley) is a fierce zombie killer, yet the epitome of upper class prejudice. As the zombie outbreak intensifies, they must swallow their pride and join forces on the blood-soaked battlefield in order to conquer the undead once and for all.", "poster_path": "/jsJlOhVHiz1xXr36616EI8tJ4b2.jpg", "popularity": 16.907}, {"id": 3035, "video": false, "vote_count": 715, "vote_average": 7.5, "title": "Frankenstein", "release_date": "1931-11-21", "original_language": "en", "original_title": "Frankenstein", "genre_ids": [18, 27, 878], "backdrop_path": "/nwmG8pQQ1xFAPZruYNnrnld2KMC.jpg", "adult": false, "overview": "Dr Henry Frankenstein is obsessed with assembling a living being from parts of several exhumed corpses.", "poster_path": "/wB58wlBAr6484Wm6VyFDqSD8VOJ.jpg", "popularity": 25.919}, {"id": 1585, "video": false, "vote_count": 2261, "vote_average": 8.2, "title": "It's a Wonderful Life", "release_date": "1946-12-20", "original_language": "en", "original_title": "It's a Wonderful Life", "genre_ids": [18, 14, 10751], "backdrop_path": "/nMomMy1sD3SN2QsKop3zBXCJfDJ.jpg", "adult": false, "overview": "A holiday favourite for generations...  George Bailey has spent his entire life giving to the people of Bedford Falls.  All that prevents rich skinflint Mr. Potter from taking over the entire town is George's modest building and loan company.  But on Christmas Eve the business's $8,000 is lost and George's troubles begin.", "poster_path": "/bSqt9rhDZx1Q7UZ86dBPKdNomp2.jpg", "popularity": 30.622}, {"adult": false, "backdrop_path": "/cMrvn4Hl0A0NAL61BpDWQIsMsiN.jpg", "genre_ids": [16], "id": 149870, "original_language": "ja", "original_title": "\u98a8\u7acb\u3061\u306c", "overview": "A lifelong love of flight inspires Japanese aviation engineer Jiro Horikoshi, whose storied career includes the creation of the A-6M World War II fighter plane.", "poster_path": "/3OTcCyf7QbGdVxsS8GLtaSsTZtP.jpg", "release_date": "2013-07-20", "title": "The Wind Rises", "video": false, "vote_average": 7.8, "vote_count": 1428, "popularity": 19.227}, {"id": 497, "video": false, "vote_count": 9319, "vote_average": 8.5, "title": "The Green Mile", "release_date": "1999-12-10", "original_language": "en", "original_title": "The Green Mile", "genre_ids": [80, 18, 14], "backdrop_path": "/Rlt20sEbOQKPVjia7lUilFm49W.jpg", "adult": false, "overview": "A supernatural tale set on death row in a Southern prison, where gentle giant John Coffey possesses the mysterious power to heal people's ailments. When the cell block's head guard, Paul Edgecomb, recognizes Coffey's miraculous gift, he tries desperately to help stave off the condemned man's execution.", "poster_path": "/sOHqdY1RnSn6kcfAHKu28jvTebE.jpg", "popularity": 35.4}, {"adult": false, "backdrop_path": "/j7hS3yybvvAd9V217IkZSOjkOvY.jpg", "genre_ids": [18, 28, 53, 80], "id": 832, "original_language": "de", "original_title": "M - Eine Stadt sucht einen M\u00f6rder", "overview": "In this classic German thriller, Hans Beckert, a serial killer who preys on children, becomes the focus of a massive Berlin police manhunt. Beckert's heinous crimes are so repellant and disruptive to city life that he is even targeted by others in the seedy underworld network. With both cops and criminals in pursuit, the murderer soon realizes that people are on his trail, sending him into a tense, panicked attempt to escape justice.", "poster_path": "/AqE126KXLcT3wwmeM3HtlKqyGze.jpg", "release_date": "1931-05-11", "title": "M", "video": false, "vote_average": 8.1, "vote_count": 999, "popularity": 13.997}, {"id": 254, "video": false, "vote_count": 4697, "vote_average": 6.7, "title": "King Kong", "release_date": "2005-12-12", "original_language": "en", "original_title": "King Kong", "genre_ids": [28, 12, 18], "backdrop_path": "/lWnPz1EvXUWMvXK1plZMA1I2XMV.jpg", "adult": false, "overview": "In 1933 New York, an overly ambitious movie producer coerces his cast and hired ship crew to travel to mysterious Skull Island, where they encounter Kong, a giant ape who is immediately smitten with the leading lady.", "poster_path": "/iQYMVoI9QE2wQCOSrxhiBYd4v0w.jpg", "popularity": 26.001}, {"id": 116, "video": false, "vote_count": 2413, "vote_average": 7.3, "title": "Match Point", "release_date": "2005-10-26", "original_language": "en", "original_title": "Match Point", "genre_ids": [80, 18, 53, 10749], "backdrop_path": "/40gCaXoyT75wuLbz1t5BwpLm0w4.jpg", "adult": false, "overview": "Match Point is Woody Allen\u2019s satire of the British High Society and the ambition of a young tennis instructor to enter into it. Yet when he must decide between two women - one assuring him his place in high society, and the other that would take him far from it - palms start to sweat and a dark psychological match in his head begins.", "poster_path": "/zuSFZEbSs7hj9lfeu2k7a4bPxdE.jpg", "popularity": 15.699}, {"adult": false, "backdrop_path": "/wfFTStTBWo3zIciBW4Eob3sarSz.jpg", "genre_ids": [35, 10749], "id": 3078, "original_language": "en", "original_title": "It Happened One Night", "overview": "A renegade reporter and a crazy young heiress meet on a bus heading for New York, and end up stuck with each other when the bus leaves them behind at one of the stops.", "poster_path": "/k63JqnFvkIGWGhjsqRiksZw2OSs.jpg", "release_date": "1934-02-22", "title": "It Happened One Night", "video": false, "vote_average": 7.9, "vote_count": 564, "popularity": 11.226}, {"adult": false, "backdrop_path": "/wEo4UtBAWdB4aOmQ9wRjI1aS7Dt.jpg", "genre_ids": [35, 18], "id": 10098, "original_language": "en", "original_title": "The Kid", "overview": "A tramp cares for a boy after he's abandoned as a newborn by his mother. Later the mother has a change of heart and aches to be reunited with her son.", "poster_path": "/drgMcyTsySQBnUPGaBThCHGdlWT.jpg", "release_date": "1921-02-06", "title": "The Kid", "video": false, "vote_average": 8.3, "vote_count": 976, "popularity": 16.845}, {"adult": false, "backdrop_path": "/46y6EvnDveRFwtztyHVS0y2DipU.jpg", "genre_ids": [18, 53, 28], "id": 1372, "original_language": "en", "original_title": "Blood Diamond", "overview": "An ex-mercenary turned smuggler. A Mende fisherman. Amid the explosive civil war overtaking 1999 Sierra Leone, these men join for two desperate missions: recovering a rare pink diamond of immense value and rescuing the fisherman's son conscripted as a child soldier into the brutal rebel forces ripping a swath of torture and bloodshed countrywide.", "poster_path": "/wRamTzV6udKaMXrspxqOuo02zk0.jpg", "release_date": "2006-12-07", "title": "Blood Diamond", "video": false, "vote_average": 7.5, "vote_count": 4327, "popularity": 16.586}, {"id": 3082, "video": false, "vote_count": 1966, "vote_average": 8.3, "title": "Modern Times", "release_date": "1936-02-05", "original_language": "en", "original_title": "Modern Times", "genre_ids": [35, 18], "backdrop_path": "/s58uDwuyVMqgsbmnfyrbpfF147.jpg", "adult": false, "overview": "The Tramp struggles to live in modern industrial society with the help of a young homeless woman.", "poster_path": "/7uoiKOEjxBBW0AgDGQWrlfGQ90w.jpg", "popularity": 15.676}, {"id": 138, "video": false, "vote_count": 542, "vote_average": 7.2, "title": "Dracula", "release_date": "1931-02-12", "original_language": "en", "original_title": "Dracula", "genre_ids": [14, 27], "backdrop_path": "/ouPAQD01ZOsdsZTNgxJ0J3mo6qK.jpg", "adult": false, "overview": "The legend of vampire Count Dracula begins here with this original 1931 Dracula film starring Bela Lugosi.", "poster_path": "/hA9kQrIwDHJKl1pt8GpJdDnBzim.jpg", "popularity": 10.423}, {"adult": false, "backdrop_path": "/2cQo6h9gQtkpJFP1cEWPpnSsZ7w.jpg", "genre_ids": [14, 35, 10749], "id": 10849, "original_language": "en", "original_title": "The Purple Rose of Cairo", "overview": "Cecilia is a waitress in New Jersey, living a dreary life during the Great Depression. Her only escape from her mundane reality is the movie theatre. After losing her job, Cecilia goes to see 'The Purple Rose of Cairo' in hopes of raising her spirits, where she watches dashing archaeologist Tom Baxter time and again.", "poster_path": "/nWMT2WBzPtrXdjPlb28PFSrBGd0.jpg", "release_date": "1985-03-01", "title": "The Purple Rose of Cairo", "video": false, "vote_average": 7.5, "vote_count": 509, "popularity": 9.516}, {"id": 4464, "video": false, "vote_count": 458, "vote_average": 7.0, "title": "Seabiscuit", "release_date": "2003-07-22", "original_language": "en", "original_title": "Seabiscuit", "genre_ids": [18, 36], "backdrop_path": "/z7qXjCwD2q0nF5TWTkUuuEDsuXJ.jpg", "adult": false, "overview": "True story of the undersized Depression-era racehorse whose victories lifted not only the spirits of the team behind it but also those of their nation.", "poster_path": "/xzYOaFGZBNAciQXRasQQ8sYxBSi.jpg", "popularity": 11.359}, {"id": 877, "video": false, "vote_count": 222, "vote_average": 7.6, "title": "Scarface", "release_date": "1932-04-09", "original_language": "en", "original_title": "Scarface", "genre_ids": [28, 80, 18, 53], "backdrop_path": "/fX1DFPMZYsRG17BmMPJAKUaBZEz.jpg", "adult": false, "overview": "A murderous thug shoots his way to the top of the mobs while trying to protect his sister from the criminal life.", "poster_path": "/ai9WOjgNRXo42D0GJIIdi7toZ5x.jpg", "popularity": 11.666}, {"adult": false, "backdrop_path": "/ke4r46wgmL1WUac1cOgjSsHLqwE.jpg", "genre_ids": [12, 18, 27], "id": 244, "original_language": "en", "original_title": "King Kong", "overview": "A film crew discovers the \"eighth wonder of the world,\" a giant prehistoric ape, and brings him back to New York, where he wreaks havoc.", "poster_path": "/vXInYahVp31uL8wZORckaoHq565.jpg", "release_date": "1933-03-15", "title": "King Kong", "video": false, "vote_average": 7.6, "vote_count": 721, "popularity": 14.49}, {"id": 55787, "video": false, "vote_count": 1757, "vote_average": 6.9, "title": "Water for Elephants", "release_date": "2011-03-15", "original_language": "en", "original_title": "Water for Elephants", "genre_ids": [18, 10749], "backdrop_path": "/3gu944cvSn9fY4ON9z7m26v3Rxh.jpg", "adult": false, "overview": "In this captivating Depression-era melodrama, impetuous veterinary student Jacob Jankowski joins a celebrated circus as an animal caretaker but faces a wrenching dilemma when he's transfixed by angelic married performer Marlena.", "poster_path": "/yL2GKiIZTnr8w3M9NkCXSdbDTxA.jpg", "popularity": 11.196}, {"id": 11030, "video": false, "vote_count": 455, "vote_average": 7.5, "title": "Zelig", "release_date": "1983-07-15", "original_language": "en", "original_title": "Zelig", "genre_ids": [35], "backdrop_path": "/yzLqIeCPofnGRdCZt7OjfM8NOKS.jpg", "adult": false, "overview": "Fictional documentary about the life of human chameleon Leonard Zelig, a man who becomes a celebrity in the 1920s due to his ability to look and act like whoever is around him. Clever editing places Zelig in real newsreel footage of Woodrow Wilson, Babe Ruth, and others.", "poster_path": "/5dgjgBMWHcOrXL7EbGnU73WpXNB.jpg", "popularity": 9.866}, {"id": 17473, "video": false, "vote_count": 825, "vote_average": 4.1, "title": "The Room", "release_date": "2003-06-27", "original_language": "en", "original_title": "The Room", "genre_ids": [18, 10749], "backdrop_path": "/mz4lKE1bPRGOeoC14bf09SJw1tu.jpg", "adult": false, "overview": "Johnny is a successful banker with great respect for and dedication to the people in his life, especially his future wife Lisa. The happy-go-lucky guy sees his world fall apart when his friends begin to betray him one-by-one.", "poster_path": "/aUC39cFC2KO8CJ0EV0ijIJRr3PT.jpg", "popularity": 13.416}], "total_pages": 53, "total_results": 1053}, "recommendations": {"page": 1, "results": [], "total_pages": 1, "total_results": 0}, "credits": {"cast": [{"cast_id": 2, "character": "Oswald Groggs", "credit_id": "52fe4c79c3a36847f8230023", "gender": 2, "id": 2436, "name": "Charles Ruggles", "order": 0, "profile_path": "/mYzf9Vq3rFizQwk5cXJBFSYAcJI.jpg"}, {"cast_id": 3, "character": "Phyllis Van Kamp aka Fanny Malone", "credit_id": "52fe4c79c3a36847f8230027", "gender": 1, "id": 143560, "name": "Verree Teasdale", "order": 1, "profile_path": "/q2uwJLMhsRbzNS6I7vKdJmwlovp.jpg"}, {"cast_id": 4, "character": "Chester Hamilton", "credit_id": "52fe4c79c3a36847f823002b", "gender": 2, "id": 12022, "name": "Sidney Blackmer", "order": 2, "profile_path": "/4chnpfUW4ZcfBkXHLNvvrkYH7ZZ.jpg"}, {"cast_id": 5, "character": "Dorothy Blaine", "credit_id": "52fe4c79c3a36847f823002f", "gender": 1, "id": 120442, "name": "Phyllis Barry", "order": 3, "profile_path": "/kdvWJzQR6YRaS7qPa05j8mKIzNl.jpg"}, {"cast_id": 6, "character": "Brooks", "credit_id": "5ab548c8c3a368026b000c3f", "gender": 2, "id": 34423, "name": "Ray Walker", "order": 4, "profile_path": "/8cOCfrJ5zbf1QvrJhPZFSuTDKXD.jpg"}, {"cast_id": 7, "character": "Sandra Hamilton", "credit_id": "5ab548df9251414841000b9a", "gender": 1, "id": 93971, "name": "Mayo Methot", "order": 5, "profile_path": "/fZYfrjspFyIr5PglZ5DEmuCGPFI.jpg"}, {"cast_id": 8, "character": "Sgt. Dugan the Jailer", "credit_id": "5ab54914c3a368026b000cc3", "gender": 2, "id": 13825, "name": "John Kelly", "order": 6, "profile_path": "/iu1SLv1ePBPo6cukTWocEPn286q.jpg"}, {"cast_id": 9, "character": "Lura 'Ducky' Groggs", "credit_id": "5ab54926c3a368026b000ce2", "gender": 1, "id": 14030, "name": "Grace Hayle", "order": 7, "profile_path": "/3eWM3xwJCDp9N7vPHDhmHyJEdr.jpg"}, {"cast_id": 10, "character": "Edna the Maid", "credit_id": "5ab5493f9251414844000cb0", "gender": 1, "id": 11498, "name": "Hattie McDaniel", "order": 8, "profile_path": "/y3QtJ1qZD7Ms0IAzRbgOunMp97h.jpg"}], "crew": [{"credit_id": "5ab54970925141484a000c7a", "department": "Writing", "gender": 0, "id": 32995, "job": "Writer", "name": "George Rosener", "profile_path": "/7nMg8czkbEqw0WR39iEagvFRxNh.jpg"}, {"credit_id": "52fe4c79c3a36847f823001f", "department": "Directing", "gender": 2, "id": 87700, "job": "Director", "name": "H. Bruce Humberstone", "profile_path": "/mHdkYOkKMhIQgrcHmIglB8bwvzz.jpg"}, {"credit_id": "5ab5497e9251414844000d1a", "department": "Writing", "gender": 2, "id": 89084, "job": "Writer", "name": "John Howard Lawson", "profile_path": null}, {"credit_id": "5ab549bb9251414856000c31", "department": "Editing", "gender": 0, "id": 131026, "job": "Editor", "name": "Rose Loewinger", "profile_path": null}, {"credit_id": "5ab549630e0a263029000daa", "department": "Writing", "gender": 0, "id": 148023, "job": "Writer", "name": "Hampton Del Ruth", "profile_path": null}, {"credit_id": "5ab549ab0e0a26302c000e38", "department": "Camera", "gender": 2, "id": 1312705, "job": "Director of Photography", "name": "Charles Edgar Schoenbaum", "profile_path": "/pk714Y2FoxskI2FX1twvGceXYlO.jpg"}, {"credit_id": "5ab5498f925141484a000ca4", "department": "Production", "gender": 0, "id": 1591680, "job": "Producer", "name": "Samuel Zierler", "profile_path": null}, {"credit_id": "5ab5499c9251414853000c2e", "department": "Production", "gender": 0, "id": 2005951, "job": "Producer", "name": "Joseph I. Schnitzer", "profile_path": null}]}}