{"adult": false, "backdrop_path": "/5nyAfR2rolMGq5dwUnXdb7n3lky.jpg", "belongs_to_collection": null, "budget": 0, "genres": [{"id": 10749, "name": "Romance"}, {"id": 37, "name": "Western"}], "homepage": null, "id": 164479, "imdb_id": "tt0024674", "original_language": "en", "original_title": "To the Last Man", "overview": "In Kentucky just after the Civil War, the Hayden-Colby feud leads to Jed Colby being sent to prison for 15 years for murder. The Haydens head for Nevada and when Colby gets out of prison he heads there also seeking revenge. The head of the Hayden family tries to avoid more killing but the inevitable showdown has to occur, complicated by Lynn Hayden and Ellen Colby's plans to marry.", "popularity": 3.877, "poster_path": "/7bL3BCA9hXFwc10e0gEgbIjtIE1.jpg", "production_companies": [{"id": 4, "logo_path": "/fycMZt242LVjagMByZOLUGbCvv3.png", "name": "Paramount", "origin_country": "US"}], "production_countries": [{"iso_3166_1": "US", "name": "United States of America"}], "release_date": "1933-09-15", "revenue": 0, "runtime": 74, "spoken_languages": [{"iso_639_1": "en", "name": "English"}], "status": "Released", "tagline": "Two families at war . . . to the last man!", "title": "To the Last Man", "video": false, "vote_average": 5.9, "vote_count": 7, "keywords": {"keywords": [{"id": 797, "name": "showdown"}, {"id": 1197, "name": "nevada"}, {"id": 3291, "name": "kentucky"}, {"id": 9748, "name": "revenge"}, {"id": 156764, "name": "pre-code"}, {"id": 230375, "name": "fued"}]}, "similar": {"page": 1, "results": [{"adult": false, "backdrop_path": "/kiWvoV78Cc3fUwkOHKzyBgVdrDD.jpg", "genre_ids": [37, 18, 12], "id": 281957, "original_language": "en", "original_title": "The Revenant", "overview": "In the 1820s, a frontiersman, Hugh Glass, sets out on a path of vengeance against those who left him for dead after a bear mauling.", "poster_path": "/oXUWEc5i3wYyFnL1Ycu8ppxxPvs.jpg", "release_date": "2015-12-25", "title": "The Revenant", "video": false, "vote_average": 7.5, "vote_count": 12127, "popularity": 24.135}, {"adult": false, "backdrop_path": "/iZOgAvUt6q356da1sfYz1UalNO.jpg", "genre_ids": [80, 18, 10749, 53], "id": 3134, "original_language": "fr", "original_title": "Baise-moi", "overview": "Manu has lived a difficult life. Abused and violently raped, she sets off to find herself only to meet Nadine, a prostitute who has encountered one too many injustices in the world. Angry at the world, they embark on a twisted, rage-filled road trip. They choose to have sex when they please and kill when they need. Leaving a trail of mischief and dead bodies in their wake. Generating a media blitz and manhunt, soon everyone is out to capture the young fugitives.", "poster_path": "/sLvsIgWMH9bV1IZnZOzY5dXKUHe.jpg", "release_date": "2000-06-28", "title": "Baise-moi", "video": false, "vote_average": 4.3, "vote_count": 173, "popularity": 14.535}, {"adult": false, "backdrop_path": "/a24i4Qw6qFTtkFLQsncv8WPwevj.jpg", "genre_ids": [53, 28, 80], "id": 345887, "original_language": "en", "original_title": "The Equalizer 2", "overview": "Robert McCall, who serves an unflinching justice for the exploited and oppressed, embarks on a relentless, globe-trotting quest for vengeance when a long-time girl friend is murdered.", "poster_path": "/cQvc9N6JiMVKqol3wcYrGshsIdZ.jpg", "release_date": "2018-07-19", "title": "The Equalizer 2", "video": false, "vote_average": 6.5, "vote_count": 2483, "popularity": 21.271}, {"adult": false, "backdrop_path": "/zWGAnbxjjwY3xFGuOeR26LGbBlG.jpg", "genre_ids": [27, 53], "id": 238636, "original_language": "en", "original_title": "The Purge: Anarchy", "overview": "One night per year, the government sanctions a 12-hour period in which citizens can commit any crime they wish -- including murder -- without fear of punishment or imprisonment. Leo, a sergeant who lost his son, plans a vigilante mission of revenge during the mayhem. However, instead of a death-dealing avenger, he becomes the unexpected protector of four innocent strangers who desperately need his help if they are to survive the night.", "poster_path": "/l1DRl40x2OWUoPP42v8fjKdS1Z3.jpg", "release_date": "2014-07-17", "title": "The Purge: Anarchy", "video": false, "vote_average": 6.6, "vote_count": 4145, "popularity": 36.766}, {"id": 156022, "video": false, "vote_count": 5468, "vote_average": 7.2, "title": "The Equalizer", "release_date": "2014-09-24", "original_language": "en", "original_title": "The Equalizer", "genre_ids": [28, 80, 53], "backdrop_path": "/vbl4ZVqelrrzJ16fdDOq9siWbpi.jpg", "adult": false, "overview": "McCall believes he has put his mysterious past behind him and dedicated himself to beginning a new, quiet life. But when he meets Teri, a young girl under the control of ultra-violent Russian gangsters, he can\u2019t stand idly by \u2013 he has to help her. Armed with hidden skills that allow him to serve vengeance against anyone who would brutalize the helpless, McCall comes out of his self-imposed retirement and finds his desire for justice reawakened. If someone has a problem, if the odds are stacked against them, if they have nowhere else to turn, McCall will help. He is The Equalizer.", "poster_path": "/2eQfjqlvPAxd9aLDs8DvsKLnfed.jpg", "popularity": 39.578}, {"adult": false, "backdrop_path": "/19qAk3bQZ6ulspbwhPw1A0bNpii.jpg", "genre_ids": [80, 27, 53], "id": 73861, "original_language": "sr", "original_title": "Srpski film", "overview": "Milos, a retired porn star, leads a normal family life trying to make ends meet. Presented with the opportunity of a lifetime to financially support his family for the rest of their lives, Milos must participate in one last mysterious film. From then on, Milos is drawn into a maelstrom of unbelievable cruelty and mayhem.", "poster_path": "/iB3ynCghwG63MrViBC6YyPzUIAn.jpg", "release_date": "2010-06-16", "title": "A Serbian Film", "video": false, "vote_average": 5.5, "vote_count": 898, "popularity": 16.013}, {"id": 458594, "video": false, "vote_count": 983, "vote_average": 6.5, "title": "Peppermint", "release_date": "2018-09-06", "original_language": "en", "original_title": "Peppermint", "genre_ids": [28, 53], "backdrop_path": "/9krZX6T4EEs5eFpXgSi8jZkN48O.jpg", "adult": false, "overview": "A grieving mother transforms herself into a vigilante following the murders of her husband and daughter, eluding the authorities to deliver her own personal brand of justice.", "poster_path": "/jrzxS0vcbzIIay1sdYm0rgI2QfJ.jpg", "popularity": 18.265}, {"id": 395834, "video": false, "vote_count": 2755, "vote_average": 7.4, "title": "Wind River", "release_date": "2017-08-03", "original_language": "en", "original_title": "Wind River", "genre_ids": [80, 18, 9648, 53], "backdrop_path": "/6B8e784decj9vtKuNjbl9Fes2aZ.jpg", "adult": false, "overview": "An FBI agent teams with the town's veteran game tracker to investigate a murder that occurred on a Native American reservation.", "poster_path": "/pySivdR845Hom4u4T2WNkJxe6Ad.jpg", "popularity": 16.931}, {"id": 10747, "video": false, "vote_count": 552, "vote_average": 7.5, "title": "The Outlaw Josey Wales", "release_date": "1976-06-30", "original_language": "en", "original_title": "The Outlaw Josey Wales", "genre_ids": [28, 12, 37], "backdrop_path": "/vkE1ROrP1gA5c1L31XZ8JR9QRMJ.jpg", "adult": false, "overview": "After avenging his family's brutal murder, Wales is pursued by a pack of soldiers. He prefers to travel alone, but ragtag outcasts are drawn to him - and Wales can't bring himself to leave them unprotected.", "poster_path": "/8HRmovHTe1FTiZ5GUM534izCNL2.jpg", "popularity": 14.041}, {"adult": false, "backdrop_path": "/pA64Ov7lDpwXBu33yq0KpmAOYJL.jpg", "genre_ids": [27, 53], "id": 357096, "original_language": "en", "original_title": "I Spit on Your Grave III: Vengeance is Mine", "overview": "Jennifer Hills is still tormented by the brutal sexual assault she endured years ago. She\u2019s changed identities and cities, reluctantly joining a support group where she begins to piece together a new life. But when her new friend\u2019s murderer goes free and the tales of serial rapists haunt her, Jennifer will hunt down the men responsible and do what the system won\u2019t \u2013 make them pay for their crimes in the most horrific ways imaginable. Only this time, no jury may be able to save her.", "poster_path": "/6SnOlgrUoC5jqmgcYIM5lde5zYq.jpg", "release_date": "2015-10-01", "title": "I Spit on Your Grave III: Vengeance is Mine", "video": false, "vote_average": 5.3, "vote_count": 437, "popularity": 20.815}, {"adult": false, "backdrop_path": "/ct2r3CqnA0KtMfib4AvfBU1W9M2.jpg", "genre_ids": [28, 80, 53], "id": 398175, "original_language": "en", "original_title": "Brawl in Cell Block 99", "overview": "After working as a drug courier and getting into a brutal shootout with police, a former boxer finds himself at the mercy of his enemies as they force him to instigate violent acts that turn the prison he resides in into a battleground.", "poster_path": "/lGgIQ10NJ3d0X0uFbbUN4pRrMFZ.jpg", "release_date": "2017-09-23", "title": "Brawl in Cell Block 99", "video": false, "vote_average": 6.8, "vote_count": 605, "popularity": 13.011}, {"id": 994, "video": false, "vote_count": 444, "vote_average": 7.2, "title": "Straw Dogs", "release_date": "1971-12-23", "original_language": "en", "original_title": "Straw Dogs", "genre_ids": [80, 18, 53], "backdrop_path": "/yL7uVOyvwZeP2U0zKIE3WQqoilA.jpg", "adult": false, "overview": "David Sumner, a mild-mannered academic from the United States, marries Amy, an Englishwoman. In order to escape a hectic stateside lifestyle, David and his wife relocate to the small town in rural Cornwall where Amy was raised. There, David is ostracized by the brutish men of the village, including Amy's old flame, Charlie. Eventually the taunts escalate, and two of the locals rape Amy. This sexual assault awakes a shockingly violent side of David.", "poster_path": "/yigkfHE1OhkxPPrjrV78Y9ibGEk.jpg", "popularity": 15.307}, {"id": 6038, "video": false, "vote_count": 1388, "vote_average": 6.1, "title": "Shanghai Knights", "release_date": "2003-02-06", "original_language": "en", "original_title": "Shanghai Knights", "genre_ids": [28, 12, 35, 37], "backdrop_path": "/qznEajxCwTDpYgqnRFpncwFhvF0.jpg", "adult": false, "overview": "The dynamic duo of Chon Wang and Roy O'Bannon return for another crazy adventure. This time, they're in London to avenge the murder of Chon's father, but end up on an even bigger case. Chon's sister is there to do the same, but instead unearths a plot to kill the royal family. No one believes her, though, and it's up to Chon and Roy (who has romance on his mind) to prove her right.", "poster_path": "/g5BFUJPgv9CoGDyAX4XZFcEY36a.jpg", "popularity": 13.564}, {"id": 291356, "video": false, "vote_count": 261, "vote_average": 5.9, "title": "In a Valley of Violence", "release_date": "2016-10-21", "original_language": "en", "original_title": "In a Valley of Violence", "genre_ids": [28, 80, 53, 37], "backdrop_path": "/bnw8E9Jrj0mvmktXka9L1Kvq3ji.jpg", "adult": false, "overview": "The story of a drifter named Paul who arrives in a small town seeking revenge on the thugs who murdered his friend. Sisters Mary Anne and Ellen, who run the town's hotel, help Paul in his quest for vengeance.", "poster_path": "/vt6PRYO81BUKxPFhmzg0CzOq8oo.jpg", "popularity": 9.127}, {"adult": false, "backdrop_path": "/brZ6uY49Htby7zzLB40IXhfbwH2.jpg", "genre_ids": [28, 53], "id": 467938, "original_language": "fr", "original_title": "Revenge", "overview": "Jen's romantic getaway with her wealthy (married) boyfriend is disrupted when his friends arrive for an impromptu hunting trip. Tension mounts at the house until the situation culminates in an unexpected way.", "poster_path": "/lDjY67pqcIoQCe0kK91TVgL14om.jpg", "release_date": "2018-02-07", "title": "Revenge", "video": false, "vote_average": 6.3, "vote_count": 850, "popularity": 15.837}, {"id": 260346, "video": false, "vote_count": 3704, "vote_average": 6.2, "title": "Taken 3", "release_date": "2014-12-16", "original_language": "en", "original_title": "Taken 3", "genre_ids": [28, 53], "backdrop_path": "/cU6R5EgOEmiIVKommjnU89hsvcD.jpg", "adult": false, "overview": "Ex-government operative Bryan Mills finds his life is shattered when he's falsely accused of a murder that hits close to home. As he's pursued by a savvy police inspector, Mills employs his particular set of skills to track the real killer and exact his unique brand of justice.", "poster_path": "/ikDwR3i2bczqnRf1urJTy77YTFf.jpg", "popularity": 34.357}, {"id": 1598, "video": false, "vote_count": 1632, "vote_average": 7.2, "title": "Cape Fear", "release_date": "1991-11-15", "original_language": "en", "original_title": "Cape Fear", "genre_ids": [53], "backdrop_path": "/zDVrWS9PzI0HJU1kyfO6UNsx9br.jpg", "adult": false, "overview": "Sam Bowden is a small-town corporate attorney. Max Cady is a tattooed, cigar-smoking, bible-quoting, psychotic rapist. What do they have in common? Fourteen years ago, Sam was a public defender assigned to Max Cady's rape trial, and he made a serious error: he hid a document from his illiterate client that could have gotten him acquitted. Now, the cagey, bibliophile Cady has been released, and he intends to teach Sam Bowden and his family a thing or two about loss.", "poster_path": "/4KvrvcqckdupXXO2YnANtyG7QLK.jpg", "popularity": 19.207}, {"adult": false, "backdrop_path": "/rSf0RYkPiMo9TyjHs2vI8rHlmfF.jpg", "genre_ids": [28, 18, 53], "id": 241554, "original_language": "en", "original_title": "Run All Night", "overview": "Brooklyn mobster and prolific hit man Jimmy Conlon has seen better days. Longtime best friend of a mob boss, Jimmy is haunted by the sins of his past\u2014as well as a dogged police detective who\u2019s been one step behind Jimmy for 30 years. But when Jimmy\u2019s estranged son becomes a target, Jimmy must make a choice between the crime family he chose and the real family he abandoned long ago. Now, with nowhere safe to turn, Jimmy has just one night to figure out exactly where his loyalties lie and to see if he can finally make things right.", "poster_path": "/aqNJrAxudMRNo8jg3HOUQqdl2xr.jpg", "release_date": "2015-03-11", "title": "Run All Night", "video": false, "vote_average": 6.4, "vote_count": 1821, "popularity": 23.621}, {"adult": false, "backdrop_path": "/arcpWGGnUkGkakOwZo7xfPsaz7h.jpg", "genre_ids": [9648, 53], "id": 2832, "original_language": "en", "original_title": "Identity", "overview": "Complete strangers stranded at a remote desert motel during a raging storm soon find themselves the target of a deranged murderer. As their numbers thin out, the travelers begin to turn on each other, as each tries to figure out who the killer is.", "poster_path": "/xSNSp2wmCUwFavxdkMF417hBc39.jpg", "release_date": "2003-04-25", "title": "Identity", "video": false, "vote_average": 7.2, "vote_count": 2091, "popularity": 19.629}, {"id": 311, "video": false, "vote_count": 2595, "vote_average": 8.4, "title": "Once Upon a Time in America", "release_date": "1984-05-23", "original_language": "en", "original_title": "Once Upon a Time in America", "genre_ids": [80, 18], "backdrop_path": "/vnT6HzjLSDrAweHn9xWykb8Ii6T.jpg", "adult": false, "overview": "A former Prohibition-era Jewish gangster returns to the Lower East Side of Manhattan over thirty years later, where he once again must confront the ghosts and regrets of his old life.", "poster_path": "/x733R4ISI0RbKeHhVkXdTMFmTFr.jpg", "popularity": 22.233}], "total_pages": 48, "total_results": 947}, "recommendations": {"page": 1, "results": [{"adult": false, "backdrop_path": null, "genre_ids": [28], "id": 40725, "original_language": "en", "original_title": "The Shadow of the Eagle", "overview": "The Eagle uses sky writing to make threats against a corporation. Nathan Gregory owns a travelling fairground and is thought to be the Eagle. Craig McCoy is a pilot who goes looking for the Eagle when Gregory turns up missing.", "poster_path": "/e72qMFETE3z2AYUfMLhlWnPuTwD.jpg", "release_date": "1932-02-01", "title": "The Shadow of the Eagle", "video": false, "vote_average": 6.0, "vote_count": 4, "popularity": 3.091}, {"adult": false, "backdrop_path": "/6XamqCg7W7gOnKUQ3fKDseT7KzO.jpg", "genre_ids": [28, 37, 10749], "id": 82970, "original_language": "en", "original_title": "Ride Him, Cowboy", "overview": "John Drury saves Duke, a wild horse accused of murder, and trains him. When he discovers that the real murderer, a bad guy known as The Hawk, is the town's leading citizen, Drury arrested on a fraudulent charge.", "poster_path": "/l3XXujSK74bqALZbq3IlsI1Msji.jpg", "release_date": "1932-08-27", "title": "Ride Him, Cowboy", "video": false, "vote_average": 4.3, "vote_count": 5, "popularity": 2.689}, {"adult": false, "backdrop_path": null, "genre_ids": [35, 10749], "id": 166580, "original_language": "en", "original_title": "The Medicine Man", "overview": "The son and daughter of an abusive shopkeeper turn to a medicine show salesman for help.", "poster_path": "/myU2TJIeEwaJl3QzkJIfN2yEiIF.jpg", "release_date": "1930-06-14", "title": "The Medicine Man", "video": false, "vote_average": 5.3, "vote_count": 4, "popularity": 1.368}, {"adult": false, "backdrop_path": "/bMfjBeKEJtRDaeRrJG0c2iLQ7qL.jpg", "genre_ids": [28, 37], "id": 23286, "original_language": "en", "original_title": "Paradise Canyon", "overview": "John Wyatt is a government agent sent to smash a counterfeiting operation near the Mexican border. Joining Doc Carter's medicine show they arrive in the town where Curly Joe, who once framed Carter, resides.", "poster_path": "/2Sj8o5OprqSI1KBHY8Ex6AudWEo.jpg", "release_date": "1935-07-19", "title": "Paradise Canyon", "video": false, "vote_average": 4.8, "vote_count": 8, "popularity": 2.32}, {"adult": false, "backdrop_path": "/mrpWsVjACH5he37DXqCu9vHkYjJ.jpg", "genre_ids": [28, 37], "id": 40799, "original_language": "en", "original_title": "West of the Divide", "overview": "Ted Hayden impersonates a wanted man and joins Gentry's gang only to learn later that Gentry was the one who killed his father.", "poster_path": "/nqLcyjIkMHFhsVr3t78s4RzyeFs.jpg", "release_date": "1934-02-15", "title": "West of the Divide", "video": false, "vote_average": 5.1, "vote_count": 9, "popularity": 4.132}, {"adult": false, "backdrop_path": "/hnYAsXDSnq7v4I8c98fxhNwdt1B.jpg", "genre_ids": [28, 37], "id": 23391, "original_language": "en", "original_title": "Riders of Destiny", "overview": "John Wayne portrays Singin' Sandy Saunders and has a reputation as the most notorious gunman since Billy the Kid. That's somewhat ironic though, since it's later revealed that he's a special Secret Service agent sent from Washington to investigate a land swindle scheme under the direction of town boss James Kincaid (Forrest Taylor).", "poster_path": "/beU6yj39WrwKig2kGNL8xk6hxg6.jpg", "release_date": "1933-10-10", "title": "Riders of Destiny", "video": false, "vote_average": 5.6, "vote_count": 13, "popularity": 4.594}, {"adult": false, "backdrop_path": "/qagPhLrzfx3gqt6QobLBRZkfiLF.jpg", "genre_ids": [18], "id": 106605, "original_language": "en", "original_title": "Kept Husbands", "overview": "A former All-American football star, now working as a steel mill supervisor in New Jersey, falls in love with the mill owner's wealthy, very spoiled daughter.", "poster_path": "/44yEABinzyvBNfOLuQQfOOe9Hwq.jpg", "release_date": "1931-02-22", "title": "Kept Husbands", "video": false, "vote_average": 6.2, "vote_count": 6, "popularity": 2.109}, {"adult": false, "backdrop_path": "/mmgMkWeeYkU8MGyMZG4up7Y6A0u.jpg", "genre_ids": [28, 37], "id": 53624, "original_language": "en", "original_title": "The Desert Trail", "overview": "Rodeo star John Scott and his gambler friend Kansas Charlie are wrongly accused of armed robbery. They leave town as fast as they can to go looking for their own suspects in Poker City.", "poster_path": "/wYHqLYNQzqXQmbjNy9wBKOo55Sw.jpg", "release_date": "1935-04-21", "title": "The Desert Trail", "video": false, "vote_average": 4.7, "vote_count": 13, "popularity": 2.714}, {"adult": false, "backdrop_path": "/mux6L0txdy6hSahKPp6UGrVa3In.jpg", "genre_ids": [28, 37], "id": 22602, "original_language": "en", "original_title": "Randy Rides Alone", "overview": "Bandits lead by Matt the Mute enter a bar and kill multiple people. Randy Bowers comes to town and is framed by Matt the Mute, who is working with the sheriff (who doesn't know Matt is really a criminal). Randy escapes with the help of the niece of the dead owner of the bar. Bowers ends up running from the sheriff, and ends up in the cave in which the bandits have their hide-out\u2026", "poster_path": "/3yHWtJDwUqapTQ9E7cmX6c3W5ra.jpg", "release_date": "1934-06-05", "title": "Randy Rides Alone", "video": false, "vote_average": 4.9, "vote_count": 13, "popularity": 3.514}, {"adult": false, "backdrop_path": "/af0aNcgwRVsHp3AUTvofr7JMRAq.jpg", "genre_ids": [28, 37], "id": 49640, "original_language": "en", "original_title": "The Lawless Frontier", "overview": "Tobin is after the bandit Zanti who killed his parents. He finds him just as Zanti is about to kill Dusty and kidnap Ruby. Saving the two, he goes after Zanti. He catches him but Zanti escapes the Sheriff's handcuff's and this time Tobin has to chase him into the desert.", "poster_path": "/96yvH9xisE4wEoKAUiCp6uxt5Iy.jpg", "release_date": "1934-11-22", "title": "The Lawless Frontier", "video": false, "vote_average": 4.8, "vote_count": 11, "popularity": 3.096}], "total_pages": 1, "total_results": 10}, "credits": {"cast": [{"cast_id": 2, "character": "Lynn Hayden", "credit_id": "52fe4c7ac3a36847f82305a1", "gender": 2, "id": 1009, "name": "Randolph Scott", "order": 0, "profile_path": "/qM2DNQ7kI9oZqAYfhzgKaGURCnm.jpg"}, {"cast_id": 3, "character": "Ellen Colby", "credit_id": "52fe4c7ac3a36847f82305a5", "gender": 1, "id": 590740, "name": "Esther Ralston", "order": 1, "profile_path": "/9Lya0bdMDHtWBxGlF5jsdmOgPec.jpg"}, {"cast_id": 4, "character": "Jim Daggs", "credit_id": "52fe4c7ac3a36847f82305a9", "gender": 2, "id": 99347, "name": "Jack La Rue", "order": 2, "profile_path": "/hWOwpkNevqBwp2mrjMCrLrxvPsi.jpg"}, {"cast_id": 5, "character": "Bill Hayden", "credit_id": "52fe4c7ac3a36847f82305ad", "gender": 0, "id": 33359, "name": "Buster Crabbe", "order": 3, "profile_path": "/rP3Oaz4Jb5eF5qSNYNPdIlocivt.jpg"}, {"cast_id": 6, "character": "Neil Stanley", "credit_id": "52fe4c7ac3a36847f82305b1", "gender": 2, "id": 14451, "name": "Barton MacLane", "order": 4, "profile_path": "/vmfmiGO6cusQn9B8jw9oLPnSYr6.jpg"}, {"cast_id": 7, "character": "Jed Colby", "credit_id": "52fe4c7ac3a36847f82305b5", "gender": 2, "id": 128324, "name": "Noah Beery", "order": 5, "profile_path": "/qmib8fQCWTBOsSEpCzjuawz3tgf.jpg"}, {"cast_id": 11, "character": "Ann Hayden Stanley", "credit_id": "535a00530e0a266419001122", "gender": 1, "id": 98574, "name": "Gail Patrick", "order": 6, "profile_path": "/vCdZttcsdbWhkLUygrV2bUpf1Lw.jpg"}, {"cast_id": 12, "character": "Mark Hayden", "credit_id": "535a00680e0a2664230010a0", "gender": 2, "id": 89727, "name": "Egon Brecher", "order": 7, "profile_path": "/fpkKr3CZlG6ft4kpZhgxs9kEJZ8.jpg"}, {"cast_id": 13, "character": "Molly Hayden", "credit_id": "535a007f0e0a26641d0010e1", "gender": 1, "id": 148851, "name": "Muriel Kirkland", "order": 8, "profile_path": "/vogZeOEi3SwyWalin6SbkHjc7Ss.jpg"}, {"cast_id": 14, "character": "Jeff Morley", "credit_id": "535a009c0e0a26641000112f", "gender": 0, "id": 103619, "name": "Fuzzy Knight", "order": 9, "profile_path": "/x8aKlYScrZhgSSeV4iyGHyxi9lv.jpg"}, {"cast_id": 15, "character": "Eli Bruce", "credit_id": "535a00b30e0a2664160010ee", "gender": 2, "id": 120774, "name": "James Eagles", "order": 10, "profile_path": null}, {"cast_id": 16, "character": "Granny Spelvin", "credit_id": "535a00c90e0a266420001084", "gender": 1, "id": 14288, "name": "Eugenie Besserer", "order": 11, "profile_path": "/b98SpSMoGcL1FIDv2VPR2raj552.jpg"}, {"cast_id": 17, "character": "Grandpa Chet Spelvin", "credit_id": "535a00df0e0a2664160010f3", "gender": 2, "id": 1111256, "name": "Harlan Knight", "order": 12, "profile_path": null}, {"cast_id": 21, "character": "Lynn Hayden - as child", "credit_id": "535a02360e0a26640d0010e5", "gender": 2, "id": 1000845, "name": "Jay Ward", "order": 13, "profile_path": null}, {"cast_id": 22, "character": "Judge (uncredited)", "credit_id": "581bd7e9925141311a000928", "gender": 2, "id": 589728, "name": "Erville Alderson", "order": 14, "profile_path": "/yi3crBgbU5m4jfsH3H15YNNPrpg.jpg"}, {"cast_id": 19, "character": "Kentucky Sheriff (uncredited)", "credit_id": "535a01950e0a2664130010f2", "gender": 2, "id": 14453, "name": "James Burke", "order": 15, "profile_path": "/s01DJdyVjmF0f6fXIGzsDHjPVGs.jpg"}, {"cast_id": 20, "character": "Pete Garon (uncredited)", "credit_id": "535a01aa0e0a26641d0010f8", "gender": 2, "id": 8516, "name": "John Carradine", "order": 16, "profile_path": "/cUlQO0vGGFoF3VZjzok8U276exY.jpg"}, {"cast_id": 23, "character": "Colby Man Fred (uncredited)", "credit_id": "581bd89a9251412e68000af2", "gender": 2, "id": 98052, "name": "Harry Cording", "order": 17, "profile_path": "/gvWWu40cDWcRbhIwDjx7tyfsgJK.jpg"}, {"cast_id": 24, "character": "Colby Man (uncredited)", "credit_id": "581bd8c9c3a3682c9d000a1b", "gender": 0, "id": 1041747, "name": "Ethan Laidlaw", "order": 18, "profile_path": "/uMHfrpwbk6XBEeqsxY6jWnZjKKC.jpg"}, {"cast_id": 25, "character": "Colby Man Joe (uncredited)", "credit_id": "581bd9029251412e68000ba5", "gender": 2, "id": 98022, "name": "Jim Mason", "order": 19, "profile_path": "/aPFY5yHH56AUpxSIajnMDNCVfRl.jpg"}, {"cast_id": 8, "character": "Mary Stanley (uncredited)", "credit_id": "52fe4c7ac3a36847f82305b9", "gender": 1, "id": 95624, "name": "Shirley Temple", "order": 20, "profile_path": "/btP9pnJQT1qZGG9hDBOIIrdamCI.jpg"}, {"cast_id": 26, "character": "Colby Man (uncredited)", "credit_id": "581bd953c3a3682c9d000ac0", "gender": 2, "id": 1003817, "name": "Blackjack Ward", "order": 21, "profile_path": null}], "crew": [{"credit_id": "58f4efac925141146a000013", "department": "Camera", "gender": 2, "id": 35502, "job": "Director of Photography", "name": "Ben F. Reynolds", "profile_path": null}, {"credit_id": "52fe4c7ac3a36847f823059d", "department": "Directing", "gender": 0, "id": 37360, "job": "Director", "name": "Henry Hathaway", "profile_path": "/aHXD9EFWbtftnaBzPYfO2dkLLKd.jpg"}, {"credit_id": "5359fe7b0e0a2664160010ca", "department": "Writing", "gender": 2, "id": 99379, "job": "Screenplay", "name": "Jack Cunningham", "profile_path": null}, {"credit_id": "58f4efbd92514114a2000025", "department": "Art", "gender": 2, "id": 120450, "job": "Art Direction", "name": "A. Earl Hedrick", "profile_path": null}, {"credit_id": "5359fe600e0a2664160010c8", "department": "Writing", "gender": 2, "id": 557979, "job": "Story", "name": "Zane Grey", "profile_path": "/b481lJAh8NQSo70DohOnAU3J8Co.jpg"}, {"credit_id": "58f4e7649251413d720261c2", "department": "Production", "gender": 0, "id": 1050723, "job": "Producer", "name": "Harold Hurley", "profile_path": null}]}}