{"adult": false, "backdrop_path": null, "belongs_to_collection": null, "budget": 0, "genres": [{"id": 99, "name": "Documentary"}], "homepage": null, "id": 16464, "imdb_id": "tt0343112", "original_language": "xx", "original_title": "Traffic Crossing Leeds Bridge", "overview": "A film by Louis Aim\u00e9 Augustin Le Prince, shot in late October 1888, showing pedestrians and carriages crossing Leeds Bridge.", "popularity": 2.373, "poster_path": "/tI7SfgAWbNLtby4whM9MxVve4IA.jpg", "production_companies": [{"id": 48026, "logo_path": null, "name": "Whitley Partners", "origin_country": ""}], "production_countries": [{"iso_3166_1": "GB", "name": "United Kingdom"}], "release_date": "1888-10-15", "revenue": 0, "runtime": 1, "spoken_languages": [{"iso_639_1": "xx", "name": "No Language"}], "status": "Released", "tagline": "", "title": "Traffic Crossing Leeds Bridge", "video": false, "vote_average": 6.3, "vote_count": 45, "keywords": {"keywords": [{"id": 2673, "name": "horse"}, {"id": 3450, "name": "bridge"}, {"id": 3793, "name": "road traffic"}, {"id": 154802, "name": "silent film"}, {"id": 214549, "name": "short"}]}, "similar": {"page": 1, "results": [{"id": 621733, "video": false, "vote_count": 0, "vote_average": 0.0, "title": "A Trip to the Seaside", "release_date": "2019-08-30", "original_language": "en", "original_title": "A Trip to the Seaside", "genre_ids": [99], "backdrop_path": null, "adult": false, "overview": "Experimental short film on the excitement and rush of a day trip", "poster_path": "/AuZVhpoJ4jm2LWDhoJKfxQfhDAi.jpg", "popularity": 1.324}, {"id": 650755, "video": false, "vote_count": 0, "vote_average": 0.0, "title": "Atordoado, Eu Permane\u00e7o Atento", "release_date": "2020-01-15", "original_language": "pt", "original_title": "Atordoado, Eu Permane\u00e7o Atento", "genre_ids": [99], "backdrop_path": null, "adult": false, "overview": "", "poster_path": "/exbM8qk6f6T44olJXcM8ix1sunL.jpg", "popularity": 5.092}, {"adult": false, "backdrop_path": "/sZY4QiduYnB07OeVYdCo9H3oL8b.jpg", "genre_ids": [99], "id": 194079, "original_language": "en", "original_title": "Sallie Gardner at a Gallop", "overview": "Sallie Gardner at a Gallop was one of the earliest silent films \u2014 a production experiment by the photographer Eadward Muybridge on June 15, 1878 that led to the development of motion pictures. The motion picture consists of 24 photographs in a fast-motion series that were shown on a zoopraxiscope.", "poster_path": "/2E2x8HYXAJpgWbJk4LSpJ8BT8Xl.jpg", "release_date": "1878-06-14", "title": "Sallie Gardner at a Gallop", "video": false, "vote_average": 6.7, "vote_count": 59, "popularity": 4.836}, {"id": 326359, "video": false, "vote_count": 1180, "vote_average": 6.8, "title": "Frozen Fever", "release_date": "2015-03-09", "original_language": "en", "original_title": "Frozen Fever", "genre_ids": [12, 16, 10751], "backdrop_path": "/ubioPGniCfDiASmYYpeJs5RRNaC.jpg", "adult": false, "overview": "On Anna's birthday, Elsa and Kristoff are determined to give her the best celebration ever, but Elsa's icy powers may put more than just the party at risk.", "poster_path": "/lKJiVPzsAO9IJ4LKWXZ8vkR2bg4.jpg", "popularity": 17.218}, {"adult": false, "backdrop_path": "/5OeY4U2rzePxWq2rkqMajUx2gz7.jpg", "genre_ids": [16, 10751, 12, 14, 10749], "id": 812, "original_language": "en", "original_title": "Aladdin", "overview": "Princess Jasmine grows tired of being forced to remain in the palace, so she sneaks out into the marketplace, in disguise, where she meets street-urchin Aladdin.  The couple falls in love, although Jasmine may only marry a prince.  After being thrown in jail, Aladdin becomes embroiled in a plot to find a mysterious lamp, with which the evil Jafar hopes to rule the land.", "poster_path": "/mjKozYRuHc9j7SmiXmbVmCiAM0A.jpg", "release_date": "1992-11-25", "title": "Aladdin", "video": false, "vote_average": 7.6, "vote_count": 7289, "popularity": 35.494}, {"adult": false, "backdrop_path": "/wcT7srQ4GeeMqlszMFEtPZ7v8T7.jpg", "genre_ids": [35, 10749], "id": 28978, "original_language": "en", "original_title": "The Circus", "overview": "Charlie, a wandering tramp, becomes a circus handyman and falls in love with the circus owner's daughter. Unaware of Charlie's affection, the girl falls in love with a handsome young performer. Charlie's versatility makes him star of the show when he substitutes for an ailing tightwire walker. He is discharged from the company when he protects the girl from her father's abuse, but he returns and appeals to the handsome performer to marry the girl. After the wedding the father prevails upon them to rejoin the circus. Charlie is hired again, but he stays behind when the caravan moves on.", "poster_path": "/awTf4Y6TGvgi3VYtGNINyyJJy9Q.jpg", "release_date": "1928-01-06", "title": "The Circus", "video": false, "vote_average": 8.2, "vote_count": 330, "popularity": 12.839}, {"id": 14813, "video": false, "vote_count": 456, "vote_average": 7.6, "title": "Mickey's Christmas Carol", "release_date": "1983-10-19", "original_language": "en", "original_title": "Mickey's Christmas Carol", "genre_ids": [16, 10751], "backdrop_path": "/fDK3xeAcQfQ40ZUULgZshElkspa.jpg", "adult": false, "overview": "It is an adaptation of the Charles Dickens classic A Christmas Carol, featuring Scrooge McDuck as his namesake and inspiration Ebenezer Scrooge and Mickey Mouse as Bob Cratchit. This film was based on a 1972 audio musical entitled Disney's A Christmas Carol. It is a twenty-four minute animated short film produced by Walt Disney Productions as an accompaniment to a re-release of The Rescuers.", "poster_path": "/29iF1IiC3ZyJQ1kmTf4LD8p8oro.jpg", "popularity": 14.7}, {"id": 901, "video": false, "vote_count": 1026, "vote_average": 8.4, "title": "City Lights", "release_date": "1931-02-01", "original_language": "xx", "original_title": "City Lights", "genre_ids": [35, 18, 10749], "backdrop_path": "/vT6ux2rdyg2kexuLisO5Ygz7pHg.jpg", "adult": false, "overview": "City Lights is the first silent film that Charlie Chaplin directed after he established himself with sound accompanied films. The film is about a penniless man who falls in love with a flower girl.", "poster_path": "/bXNvzjULc9jrOVhGfjcc64uKZmZ.jpg", "popularity": 14.645}, {"id": 150540, "video": false, "vote_count": 13957, "vote_average": 7.9, "title": "Inside Out", "release_date": "2015-06-09", "original_language": "en", "original_title": "Inside Out", "genre_ids": [16, 35, 18, 10751], "backdrop_path": "/szytSpLAyBh3ULei3x663mAv5ZT.jpg", "adult": false, "overview": "Growing up can be a bumpy road, and it's no exception for Riley, who is uprooted from her Midwest life when her father starts a new job in San Francisco. Riley's guiding emotions\u2014 Joy, Fear, Anger, Disgust and Sadness\u2014live in Headquarters, the control centre inside Riley's mind, where they help advise her through everyday life and tries to keep things positive, but the emotions conflict on how best to navigate a new city, house and school.", "poster_path": "/aAmfIX3TT40zUHGcCKrlOZRKC7u.jpg", "popularity": 57.362}, {"id": 38757, "video": false, "vote_count": 7117, "vote_average": 7.5, "title": "Tangled", "release_date": "2010-11-24", "original_language": "en", "original_title": "Tangled", "genre_ids": [16, 10751], "backdrop_path": "/uFg02Gt69UM6Ouam4slMdD0s029.jpg", "adult": false, "overview": "When the kingdom's most wanted-and most charming-bandit Flynn Rider hides out in a mysterious tower, he's taken hostage by Rapunzel, a beautiful and feisty tower-bound teen with 70 feet of magical, golden hair. Flynn's curious captor, who's looking for her ticket out of the tower where she's been locked away for years, strikes a deal with the handsome thief and the unlikely duo sets off on an action-packed escapade, complete with a super-cop horse, an over-protective chameleon and a gruff gang of pub thugs.", "poster_path": "/re6AOJbhBk9FIK3knwU6rYlbPDx.jpg", "popularity": 30.508}, {"adult": false, "backdrop_path": "/twGxeStlGooWV3gP6ZIcSNuQ6jf.jpg", "genre_ids": [12, 16, 10751, 14], "id": 81684, "original_language": "en", "original_title": "The Gruffalo's Child", "overview": "A follow up to the 2009 animated feature and adapted from the childrens' book by Julia Donaldson and Alex Scheffler.  The Gruffalo's child explores the deep dark wood in search of the big bad mouse and meets the Snake, Owl and Fox in the process.  She eventually finds the mouse, who manages to outwit her like the Gruffalo before!", "poster_path": "/qaGH2AoaLvoGXURQtNzj1nw6oZd.jpg", "release_date": "2011-12-25", "title": "The Gruffalo's Child", "video": false, "vote_average": 6.9, "vote_count": 73, "popularity": 9.51}, {"adult": false, "backdrop_path": null, "genre_ids": [], "id": 616262, "original_language": "ar", "original_title": "All Come From Dust", "overview": "A loop of edgeless bend. You were its doom, he was its bloom. You were its tomb, he was its womb. You were its gloom, he was its loom. For Heaven and Hell, were words made of fume.", "poster_path": null, "release_date": "2019-08-13", "title": "All Come From Dust", "video": false, "vote_average": 5.0, "vote_count": 1, "popularity": 0.6}, {"adult": false, "backdrop_path": "/qFLDF62VbWyyxkwco9lwZqkGoMB.jpg", "genre_ids": [16, 10751], "id": 10895, "original_language": "en", "original_title": "Pinocchio", "overview": "Lonely toymaker Geppetto has his wishes answered when the Blue Fairy arrives to bring his wooden puppet Pinocchio to life. Before becoming a real boy, however, Pinocchio must prove he's worthy as he sets off on an adventure with his whistling sidekick and conscience, Jiminy Cricket.", "poster_path": "/gN1dQBHi4557cFduIu9njOr6knW.jpg", "release_date": "1940-02-23", "title": "Pinocchio", "video": false, "vote_average": 7.0, "vote_count": 3431, "popularity": 25.831}, {"id": 77931, "video": false, "vote_count": 1336, "vote_average": 5.7, "title": "The Smurfs 2", "release_date": "2013-07-30", "original_language": "en", "original_title": "The Smurfs 2", "genre_ids": [16, 35, 14, 10751], "backdrop_path": "/xqfnJn8ApELIa1zGLOa3W9q2Ztn.jpg", "adult": false, "overview": "The evil wizard Gargamel creates a couple of mischievous Smurf-like creatures called the Naughties that he hopes will let him harness the all-powerful, magical Smurf-essence. But when he discovers that only a real Smurf can give him what he wants, and only a secret spell that Smurfette knows can turn the Naughties into real Smurfs, Gargamel kidnaps Smurfette and brings her to Paris, where he has been winning the adoration of millions as the world\u00b9s greatest sorcerer. It's up to Papa, Clumsy, Grouchy, and Vanity to return to our world, reunite with their human friends Patrick and Grace Winslow, and rescue her! Will Smurfette, who has always felt different from the other Smurfs, find a new connection with the Naughties Vexy and Hackus or will the Smurfs convince her that their love for her is True Blue?", "poster_path": "/mF2FXzZ3EktWoagU4fzoabNsK6J.jpg", "popularity": 16.262}, {"adult": false, "backdrop_path": "/yDmyqO3xHTVxtyM0CuqobSX3Hjr.jpg", "genre_ids": [16, 10751, 14], "id": 10144, "original_language": "en", "original_title": "The Little Mermaid", "overview": "This colorful adventure tells the story of an impetuous mermaid princess named Ariel who falls in love with the very human Prince Eric and puts everything on the line for the chance to be with him. Memorable songs and characters -- including the villainous sea witch Ursula.", "poster_path": "/6aXMusULuKFAK0ZRUlv7RJ9zHTc.jpg", "release_date": "1989-11-17", "title": "The Little Mermaid", "video": false, "vote_average": 7.3, "vote_count": 4669, "popularity": 25.992}, {"adult": false, "backdrop_path": "/9l5Nzo1qbEslfCu2NYWimpZ1Vkc.jpg", "genre_ids": [35, 10751, 14, 10749], "id": 4523, "original_language": "en", "original_title": "Enchanted", "overview": "The beautiful princess Giselle is banished by an evil queen from her magical, musical animated land and finds herself in the gritty reality of the streets of modern-day Manhattan. Shocked by this strange new environment that doesn't operate on a \"happily ever after\" basis, Giselle is now adrift in a chaotic world badly in need of enchantment. But when Giselle begins to fall in love with a charmingly flawed divorce lawyer who has come to her aid - even though she is already promised to a perfect fairy tale prince back home - she has to wonder: Can a storybook view of romance survive in the real world?", "poster_path": "/65EfHNQ6NCeAoRPNLRhTyLqNZmU.jpg", "release_date": "2007-11-20", "title": "Enchanted", "video": false, "vote_average": 6.7, "vote_count": 3505, "popularity": 22.541}, {"id": 57212, "video": false, "vote_count": 2067, "vote_average": 7.2, "title": "War Horse", "release_date": "2011-12-25", "original_language": "en", "original_title": "War Horse", "genre_ids": [28, 18, 10752], "backdrop_path": "/iO4fslQ9CenAOcg3JfhN6o9va2.jpg", "adult": false, "overview": "Follows a young man named Albert and his horse, Joey, and how their bond is broken when Joey is sold to the cavalry and sent to the trenches of World War One. Despite being too young to enlist, Albert heads to France to save his friend.", "poster_path": "/6wMoQyJddEiLCzLUHiX7LNWhDol.jpg", "popularity": 12.763}, {"id": 920, "video": false, "vote_count": 8603, "vote_average": 6.7, "title": "Cars", "release_date": "2006-06-08", "original_language": "en", "original_title": "Cars", "genre_ids": [12, 16, 35, 10751], "backdrop_path": "/a1MlbLBk5Sy6YvMbSuKfwGlDVlb.jpg", "adult": false, "overview": "Lightning McQueen, a hotshot rookie race car driven to succeed, discovers that life is about the journey, not the finish line, when he finds himself unexpectedly detoured in the sleepy Route 66 town of Radiator Springs. On route across the country to the big Piston Cup Championship in California to compete against two seasoned pros, McQueen gets to know the town's offbeat characters.", "poster_path": "/jpfkzbIXgKZqCZAkEkFH2VYF63s.jpg", "popularity": 58.103}, {"id": 12092, "video": false, "vote_count": 3673, "vote_average": 7.1, "title": "Alice in Wonderland", "release_date": "1951-07-03", "original_language": "en", "original_title": "Alice in Wonderland", "genre_ids": [12, 16, 14, 10751], "backdrop_path": "/p6frW7qR3wUbssM25BS8BlzyoKc.jpg", "adult": false, "overview": "On a golden afternoon, young Alice follows a White Rabbit, who disappears down a nearby rabbit hole. Quickly following him, she tumbles into the burrow - and enters the merry, topsy-turvy world of Wonderland! Memorable songs and whimsical escapades highlight Alice's journey, which culminates in a madcap encounter with the Queen of Hearts - and her army of playing cards!", "poster_path": "/AdwfqyNiH8UqeYKFYoiKhwTtjAb.jpg", "popularity": 31.985}, {"adult": false, "backdrop_path": "/4brEMzPazQE3hv3mogj6k1a29RP.jpg", "genre_ids": [10749, 14, 16], "id": 3933, "original_language": "en", "original_title": "Corpse Bride", "overview": "Set in a 19th-century european village, this stop-motion animation feature follows the story of Victor, a young man whisked away to the underworld and wed to a mysterious corpse bride, while his real bride Victoria waits bereft in the land of the living.", "poster_path": "/o9GbcdP7rOg2m1NyUnUR3ZwNcTE.jpg", "release_date": "2005-09-12", "title": "Corpse Bride", "video": false, "vote_average": 7.4, "vote_count": 4928, "popularity": 23.702}], "total_pages": 935, "total_results": 18694}, "recommendations": {"page": 1, "results": [{"adult": false, "backdrop_path": null, "genre_ids": [99], "id": 96882, "original_language": "xx", "original_title": "Accordion Player", "overview": "The last remaining film of Le Prince's LPCCP Type-1 MkII single-lens camera is a sequence of frames of his son, Adolphe Le Prince, playing a diatonic button accordion. It was recorded on the steps of the house of Joseph Whitley, Adolphe's grandfather.", "poster_path": "/jAJT9hDfEDz3f4Uo4yqqVRBR5Yj.jpg", "release_date": "1888-01-01", "title": "Accordion Player", "video": false, "vote_average": 4.8, "vote_count": 30, "popularity": 1.704}, {"adult": false, "backdrop_path": null, "genre_ids": [99], "id": 159897, "original_language": "xx", "original_title": "Man Walking Around a Corner", "overview": "The last remaining production of Le Prince's LPCC Type-16 (16-lens camera) is part of a gelatine film shot in 32 images/second, and pictures a man walking around a corner. Le Prince, who was in Leeds (UK) at that time, sent these images to his wife in New York City in a letter dated 18 August 1887.", "poster_path": "/6Tvw3w1AxykA8isAgv3HqooaL7o.jpg", "release_date": "1887-08-18", "title": "Man Walking Around a Corner", "video": false, "vote_average": 5.0, "vote_count": 30, "popularity": 2.001}, {"id": 16463, "video": false, "vote_count": 84, "vote_average": 6.3, "title": "Roundhay Garden Scene", "release_date": "1888-10-14", "original_language": "xx", "original_title": "Roundhay Garden Scene", "genre_ids": [99, 36], "backdrop_path": "/xDL0mSmWbywKk7oHj7PSRUX5uWM.jpg", "adult": false, "overview": "The earliest surviving celluloid film, and believed second moving picture ever created, was shot by Louis Aim\u00e9 Augustin Le Prince using the LPCCP Type-1 MkII single-lens camera. It was taken in the garden of Oakwood Grange, the Whitley family house in Roundhay, Leeds, West Riding of Yorkshire (UK), possibly on 14 October 1888.  It shows Adolphe Le Prince (Le Prince's son), Mrs. Sarah Whitley (Le Prince's mother-in-law), Joseph Whitley and Miss Harriet Hartley walking around in circles, laughing to themselves and keeping within the area framed by the camera. The Roundhay Garden Scene was recorded at 12 frames per second and runs for 2.11 seconds.", "poster_path": "/qI9eTP3NpJlxTk3oMBvfz8Awwkw.jpg", "popularity": 8.534}, {"adult": false, "backdrop_path": null, "genre_ids": [], "id": 33315, "original_language": "xx", "original_title": "Monkeyshines, No. 2", "overview": "Experimental film that follows up on the results of \"Monkeyshines, No. 1\". Once again, an Edison company worker moves around in front of the motion picture camera.", "poster_path": "/kx0jO0Z6jCLZiAwfjBp93dDeJEQ.jpg", "release_date": "1890-11-21", "title": "Monkeyshines, No. 2", "video": false, "vote_average": 4.4, "vote_count": 22, "popularity": 1.698}, {"adult": false, "backdrop_path": null, "genre_ids": [35], "id": 32571, "original_language": "xx", "original_title": "Monkeyshines, No. 1", "overview": "Experimental film made to test the original cylinder format of the Kinetoscope and believed to be the first film shot in the United States. It shows a blurry figure in white standing in one place making large gestures and is only a few seconds long.", "poster_path": "/pXnvY4HMY7cgbFJNTCOFH3Jh4ho.jpg", "release_date": "1890-11-21", "title": "Monkeyshines, No. 1", "video": false, "vote_average": 4.1, "vote_count": 30, "popularity": 1.805}, {"adult": false, "backdrop_path": null, "genre_ids": [99], "id": 104852, "original_language": "xx", "original_title": "Newark Athlete", "overview": "Experimental film fragment made with the Edison-Dickson-Heise experimental horizontal-feed kinetograph camera and viewer, using 3/4-inch wide film.", "poster_path": "/itnuTVUMuvlal8CxQhT1PNoH2HF.jpg", "release_date": "1891-05-01", "title": "Newark Athlete", "video": false, "vote_average": 4.4, "vote_count": 31, "popularity": 2.029}, {"adult": false, "backdrop_path": null, "genre_ids": [99], "id": 33229, "original_language": "xx", "original_title": "Dickson Greeting", "overview": "William K.L. Dickson brings his hat from his one hand to the other and moves his head slightly, as a small nod toward the audience. This was the first film produced by the Edison Manufacturing Company to be shown to public audiences and the press.", "poster_path": "/nzxhqmDVlVAGMkjJJhRdUv0esiv.jpg", "release_date": "1891-01-01", "title": "Dickson Greeting", "video": false, "vote_average": 4.7, "vote_count": 29, "popularity": 2.44}, {"adult": false, "backdrop_path": null, "genre_ids": [99], "id": 16612, "original_language": "en", "original_title": "Carmencita", "overview": "The first woman to appear in front of an Edison motion picture camera and possibly the first woman to appear in a motion picture within the United States. In the film, Carmencita is recorded going through a routine she had been performing at Koster & Bial's in New York since February 1890.", "poster_path": "/6QJowxF4f2hrUtmrDXOqbRDMdDH.jpg", "release_date": "1894-03-14", "title": "Carmencita", "video": false, "vote_average": 5.1, "vote_count": 30, "popularity": 2.294}, {"adult": false, "backdrop_path": null, "genre_ids": [28, 99], "id": 33318, "original_language": "xx", "original_title": "Men Boxing", "overview": "Experimental film fragment made with the Edison-Dickson-Heise experimental horizontal-feed kinetograph camera and viewer, using 3/4-inch wide film.", "poster_path": "/7csTEvz5gWAUwB5FpybN4GI25jq.jpg", "release_date": "1891-04-30", "title": "Men Boxing", "video": false, "vote_average": 3.9, "vote_count": 18, "popularity": 1.251}, {"adult": false, "backdrop_path": null, "genre_ids": [99], "id": 155107, "original_language": "en", "original_title": "Buffalo Dance", "overview": "Long before Hollywood started painting white men red and dressing them as 'Injuns' Edison's company was using the genuine article! Featuring for what is believed to be the Native Americans first appearance before a motion picture camera 'Buffalo Dance' features genuine members of the Sioux Tribe dressed in full war paint and costume! The dancers are believed to be veteran members of Buffalo Bill's Wild West Show. Filmed again at the Black Maria studios by both Dickson and Heise the 'Buffalo Dance' warriors were named as Hair Coat, Parts His Hair and Last Horse. Its quite strange seeing these movies at first they all stand around waiting to begin and as they start some of the dancers look at the camera in an almost sad way at having lost their way of life.", "poster_path": "/4YD0GzfmGq33KJhkRuDUefTrlVn.jpg", "release_date": "1894-09-23", "title": "Buffalo Dance", "video": false, "vote_average": 4.4, "vote_count": 16, "popularity": 1.191}, {"adult": false, "backdrop_path": null, "genre_ids": [18], "id": 16624, "original_language": "xx", "original_title": "Blacksmith Scene", "overview": "Three men hammer on an anvil and pass a bottle of beer around. Notable for being the first film in which a scene is being acted out.", "poster_path": "/sQHhjP7khHjrifGqVivO35R5k7K.jpg", "release_date": "1893-05-08", "title": "Blacksmith Scene", "video": false, "vote_average": 5.5, "vote_count": 40, "popularity": 2.162}, {"adult": false, "backdrop_path": null, "genre_ids": [10402], "id": 104396, "original_language": "xx", "original_title": "Dickson Experimental Sound Film", "overview": "William K.L. Dickson plays the violin while two men dance. This is the oldest surviving sound film where sound is recorded on the phonograph.", "poster_path": "/29GejylcrVahrRziYn3B1CLUs9y.jpg", "release_date": "1894-08-31", "title": "Dickson Experimental Sound Film", "video": false, "vote_average": 6.5, "vote_count": 44, "popularity": 3.057}, {"adult": false, "backdrop_path": null, "genre_ids": [99], "id": 186019, "original_language": "en", "original_title": "Souvenir Strip of the Edison Kinetoscope", "overview": "Eugen Sandow, who claims to be the strongest man in the world, appears in the Edison Company's film studio.", "poster_path": "/2PQnbZlYPDN1Bz4VthD8lQIHEn7.jpg", "release_date": "1894-05-18", "title": "Souvenir Strip of the Edison Kinetoscope", "video": false, "vote_average": 5.1, "vote_count": 18, "popularity": 2.364}, {"adult": false, "backdrop_path": null, "genre_ids": [99], "id": 105158, "original_language": "en", "original_title": "Edison Kinetoscopic Record of a Sneeze", "overview": "A man (Thomas Edison's assistant) takes a pinch of snuff and sneezes. This is one of the earliest Thomas Edison films and was the first motion picture to be copyrighted in the United States.", "poster_path": "/utsYe7NaVdiUhXpBwgln3LTucYs.jpg", "release_date": "1894-01-09", "title": "Edison Kinetoscopic Record of a Sneeze", "video": false, "vote_average": 4.9, "vote_count": 32, "popularity": 1.779}, {"id": 315946, "video": false, "vote_count": 35, "vote_average": 6.1, "title": "Passage of Venus", "release_date": "1874-12-09", "original_language": "xx", "original_title": "Passage de Venus", "genre_ids": [99], "backdrop_path": "/d5O93YRHzzFTYv7B8DreUFDYd8t.jpg", "adult": false, "overview": "Photo sequence of the rare transit of Venus over the face of the Sun, one of the first chronophotographic sequences.", "poster_path": "/9jtgJphKW836gISyzdUKWnZ6yrB.jpg", "popularity": 3.118}, {"adult": false, "backdrop_path": null, "genre_ids": [99], "id": 152215, "original_language": "en", "original_title": "Glenroy Brothers (Comic Boxing)", "overview": "The Glenroy Brothers perform a portion of their vaudeville act, \"The Comic View of Boxing: The Tramp &amp; the Athlete\", which depicts a boxer with a classic style trying to contend with an opponent who uses a very unorthodox approach.", "poster_path": "/lj2vNBWXQ66lVIPjchx4uBNRmrJ.jpg", "release_date": "1894-10-05", "title": "Glenroy Brothers (Comic Boxing)", "video": false, "vote_average": 5.0, "vote_count": 11, "popularity": 1.911}, {"adult": false, "backdrop_path": null, "genre_ids": [99], "id": 159904, "original_language": "en", "original_title": "Bucking Broncho", "overview": "Lee Martin, one of the cowboy stars in 'Buffalo Bill's Wild West', rides a bronco as a crowd looks on. While the horse is trying to throw Martin off its back, another cowboy stands on top of a fence rail and occasionally fires his six-shooter, to spur on both horse and rider.", "poster_path": "/wDpn8I8wTI1U2Lk6qwg1fI827xe.jpg", "release_date": "1894-10-16", "title": "Bucking Broncho", "video": false, "vote_average": 3.9, "vote_count": 11, "popularity": 2.065}, {"adult": false, "backdrop_path": null, "genre_ids": [], "id": 159899, "original_language": "en", "original_title": "Imperial Japanese Dance", "overview": "A charming representation of the Mikado dance by three beautiful Japanese ladies in full costume. Very effective when colored.", "poster_path": "/6KJCkEts3HOttqj3HMiJbw2h4r3.jpg", "release_date": "1894-11-05", "title": "Imperial Japanese Dance", "video": false, "vote_average": 4.0, "vote_count": 11, "popularity": 1.947}, {"adult": false, "backdrop_path": null, "genre_ids": [], "id": 105157, "original_language": "en", "original_title": "A Hand Shake", "overview": "William K.L. Dickson and William Heise shake hands in this early experimental film.", "poster_path": "/6l4A8iKwMovccSqx4ITUGMebzpZ.jpg", "release_date": "1892-01-01", "title": "A Hand Shake", "video": false, "vote_average": 3.2, "vote_count": 14, "popularity": 2.169}, {"adult": false, "backdrop_path": "/speBQRMetQOQH2qcuTsfMCAuat3.jpg", "genre_ids": [99], "id": 144410, "original_language": "en", "original_title": "Annabelle Serpentine Dance", "overview": "Two dancers perform in succession facing a stationary camera. The first is in a diaphanous skirt, held out by her hands with arms extended. She smiles, wearing butterfly wings on her back and the wings of Mercury in her hair. Her dance emphasizes the movement of her visible, bare legs. She kicks high, bows, and moves to her right and left. The second dancer has a voluminous, long skirt, and holds sticks in each hand attached to the skirt's outer edges, so that the emphasis is on the swirling patterns the skirt makes, often obscuring her unsmiling face. Her feet move little on the unadorned stage; changes in the color of the lens filter accent the swirling patterns.", "poster_path": "/l7Lzvah6PL6vdMF5p0elKiyYqp9.jpg", "release_date": "1895-04-01", "title": "Annabelle Serpentine Dance", "video": false, "vote_average": 5.8, "vote_count": 46, "popularity": 2.585}], "total_pages": 2, "total_results": 40}, "credits": {"cast": [], "crew": [{"credit_id": "52fe46d69251416c75085367", "department": "Directing", "gender": 2, "id": 569209, "job": "Director", "name": "Louis Aim\u00e9 Augustin Le Prince", "profile_path": "/7KO2qxQAaRJLouzplMhVZnQYF3C.jpg"}]}}