{"adult": false, "backdrop_path": "/qB4lvE3xD4L291vNkEjtiXCgIrx.jpg", "belongs_to_collection": null, "budget": 4483, "genres": [{"id": 16, "name": "Animation"}], "homepage": null, "id": 16591, "imdb_id": "tt0019975", "original_language": "en", "original_title": "Hell's Bells", "overview": "The demons of hell play music for Satan, whose delight turns to wrath when an insubordinate refuses to become food for Cerberus.", "popularity": 3.323, "poster_path": "/hVS5dj5gubv612qOku8PTjjy4oW.jpg", "production_companies": [{"id": 3166, "logo_path": "/vyyv4Gy9nPqAZKElPm2izLlEaVS.png", "name": "Walt Disney Productions", "origin_country": "US"}, {"id": 5, "logo_path": "/71BqEFAF4V3qjjMPCpLuyJFB9A.png", "name": "Columbia Pictures", "origin_country": "US"}], "production_countries": [{"iso_3166_1": "US", "name": "United States of America"}], "release_date": "1929-10-29", "revenue": 0, "runtime": 6, "spoken_languages": [{"iso_639_1": "en", "name": "English"}], "status": "Released", "tagline": "", "title": "Hell's Bells", "video": false, "vote_average": 5.8, "vote_count": 16, "keywords": {"keywords": [{"id": 657, "name": "fire"}, {"id": 1585, "name": "snake"}, {"id": 1964, "name": "cave"}, {"id": 3986, "name": "spider"}, {"id": 5155, "name": "bat"}, {"id": 6154, "name": "hell"}, {"id": 6513, "name": "cartoon"}, {"id": 7486, "name": "milk"}, {"id": 9995, "name": "bell"}, {"id": 10983, "name": "anthropology"}, {"id": 12554, "name": "dragon"}, {"id": 15001, "name": "demon"}, {"id": 156139, "name": "silly symphony"}, {"id": 214549, "name": "short"}]}, "similar": {"page": 1, "results": [{"id": 326359, "video": false, "vote_count": 1180, "vote_average": 6.8, "title": "Frozen Fever", "release_date": "2015-03-09", "original_language": "en", "original_title": "Frozen Fever", "genre_ids": [12, 16, 10751], "backdrop_path": "/ubioPGniCfDiASmYYpeJs5RRNaC.jpg", "adult": false, "overview": "On Anna's birthday, Elsa and Kristoff are determined to give her the best celebration ever, but Elsa's icy powers may put more than just the party at risk.", "poster_path": "/lKJiVPzsAO9IJ4LKWXZ8vkR2bg4.jpg", "popularity": 17.218}, {"adult": false, "backdrop_path": "/5OeY4U2rzePxWq2rkqMajUx2gz7.jpg", "genre_ids": [16, 10751, 12, 14, 10749], "id": 812, "original_language": "en", "original_title": "Aladdin", "overview": "Princess Jasmine grows tired of being forced to remain in the palace, so she sneaks out into the marketplace, in disguise, where she meets street-urchin Aladdin.  The couple falls in love, although Jasmine may only marry a prince.  After being thrown in jail, Aladdin becomes embroiled in a plot to find a mysterious lamp, with which the evil Jafar hopes to rule the land.", "poster_path": "/mjKozYRuHc9j7SmiXmbVmCiAM0A.jpg", "release_date": "1992-11-25", "title": "Aladdin", "video": false, "vote_average": 7.6, "vote_count": 7289, "popularity": 35.494}, {"id": 10882, "video": false, "vote_count": 3219, "vote_average": 6.9, "title": "Sleeping Beauty", "release_date": "1959-01-28", "original_language": "en", "original_title": "Sleeping Beauty", "genre_ids": [16, 14, 10749, 10751], "backdrop_path": "/oHZIobyIG0YzWntyPCTSJDOk9qB.jpg", "adult": false, "overview": "A beautiful princess born in a faraway kingdom is destined by a terrible curse to prick her finger on the spindle of a spinning wheel and fall into a deep sleep that can only be awakened by true love's first kiss. Determined to protect her, her parents ask three fairies to raise her in hiding. But the evil Maleficent is just as determined to seal the princess's fate.", "poster_path": "/j4YBuAe8D1jDSiitpq69og9x3Yl.jpg", "popularity": 29.356}, {"id": 150540, "video": false, "vote_count": 13957, "vote_average": 7.9, "title": "Inside Out", "release_date": "2015-06-09", "original_language": "en", "original_title": "Inside Out", "genre_ids": [16, 35, 18, 10751], "backdrop_path": "/szytSpLAyBh3ULei3x663mAv5ZT.jpg", "adult": false, "overview": "Growing up can be a bumpy road, and it's no exception for Riley, who is uprooted from her Midwest life when her father starts a new job in San Francisco. Riley's guiding emotions\u2014 Joy, Fear, Anger, Disgust and Sadness\u2014live in Headquarters, the control centre inside Riley's mind, where they help advise her through everyday life and tries to keep things positive, but the emotions conflict on how best to navigate a new city, house and school.", "poster_path": "/aAmfIX3TT40zUHGcCKrlOZRKC7u.jpg", "popularity": 57.362}, {"id": 9479, "video": false, "vote_count": 5316, "vote_average": 7.8, "title": "The Nightmare Before Christmas", "release_date": "1993-10-09", "original_language": "en", "original_title": "The Nightmare Before Christmas", "genre_ids": [16, 14, 10751], "backdrop_path": "/16lk65YfrDFIr6evkWRjSeOOSws.jpg", "adult": false, "overview": "Tired of scaring humans every October 31 with the same old bag of tricks, Jack Skellington, the spindly king of Halloween Town, kidnaps Santa Claus and plans to deliver shrunken heads and other ghoulish gifts to children on Christmas morning. But as Christmas approaches, Jack's rag-doll girlfriend, Sally, tries to foil his misguided plans.", "poster_path": "/6oxkO1VgKCq74fNILKAg6t2dVEt.jpg", "popularity": 18.951}, {"id": 621733, "video": false, "vote_count": 0, "vote_average": 0.0, "title": "A Trip to the Seaside", "release_date": "2019-08-30", "original_language": "en", "original_title": "A Trip to the Seaside", "genre_ids": [99], "backdrop_path": null, "adult": false, "overview": "Experimental short film on the excitement and rush of a day trip", "poster_path": "/AuZVhpoJ4jm2LWDhoJKfxQfhDAi.jpg", "popularity": 1.324}, {"id": 27022, "video": false, "vote_count": 3219, "vote_average": 6.0, "title": "The Sorcerer's Apprentice", "release_date": "2010-07-13", "original_language": "en", "original_title": "The Sorcerer's Apprentice", "genre_ids": [28, 12, 35, 18, 14], "backdrop_path": "/v0o9M1us65w1kDQp8Q6KnB5a11s.jpg", "adult": false, "overview": "Balthazar Blake is a master sorcerer in modern-day Manhattan trying to defend the city from his arch-nemesis, Maxim Horvath. Balthazar can't do it alone, so he recruits Dave Stutler, a seemingly average guy who demonstrates hidden potential, as his reluctant prot\u00e9g\u00e9. The sorcerer gives his unwilling accomplice a crash course in the art and science of magic, and together, these unlikely partners work to stop the forces of darkness.", "poster_path": "/ZNSrRpdJ6FjMy4Iu6JpRTJ5Q87.jpg", "popularity": 24.096}, {"id": 287903, "video": false, "vote_count": 1172, "vote_average": 6.0, "title": "Krampus", "release_date": "2015-11-26", "original_language": "en", "original_title": "Krampus", "genre_ids": [35, 14, 27], "backdrop_path": "/5GsJuYZuG1bkuSI8FeWol5nvR9S.jpg", "adult": false, "overview": "A horror comedy based on the ancient legend about a pagan creature who punishes children on Christmas.", "poster_path": "/27SiV4EBHcTBMz4IKANjhX5iIoX.jpg", "popularity": 11.495}, {"id": 13932, "video": false, "vote_count": 467, "vote_average": 7.4, "title": "Jack-Jack Attack", "release_date": "2005-03-15", "original_language": "en", "original_title": "Jack-Jack Attack", "genre_ids": [12, 16, 10751], "backdrop_path": "/mUcfavkzBSlJbhS6cXZyInM9jix.jpg", "adult": false, "overview": "The Parrs' baby Jack-Jack is thought to be normal, not having any super-powers like his parents or siblings. But when an outsider is hired to watch him, Jack-Jack shows his true potential.", "poster_path": "/btnyGcvjMbN4MpwLE7A6J7gNV01.jpg", "popularity": 10.718}, {"id": 650755, "video": false, "vote_count": 0, "vote_average": 0.0, "title": "Atordoado, Eu Permane\u00e7o Atento", "release_date": "2020-01-15", "original_language": "pt", "original_title": "Atordoado, Eu Permane\u00e7o Atento", "genre_ids": [99], "backdrop_path": null, "adult": false, "overview": "", "poster_path": "/exbM8qk6f6T44olJXcM8ix1sunL.jpg", "popularity": 5.092}, {"id": 26317, "video": false, "vote_count": 283, "vote_average": 8.0, "title": "Man with a Movie Camera", "release_date": "1929-01-08", "original_language": "ru", "original_title": "\u0427\u0435\u043b\u043e\u0432\u0435\u043a \u0441 \u043a\u0438\u043d\u043e\u0430\u043f\u043f\u0430\u0440\u0430\u0442\u043e\u043c", "genre_ids": [99], "backdrop_path": "/8mg8GZePag5LZVhveBTL92Ufh5W.jpg", "adult": false, "overview": "A cameraman wanders around Moscow, Kharkov, Kiev and Odessa with a camera slung over his shoulder, documenting urban life with dazzling invention.", "poster_path": "/Ded5Kl7MDZQTbFpoNI62tLVWUN.jpg", "popularity": 9.16}, {"adult": false, "backdrop_path": "/2CR4OT6Ou4axUfThbJ6sbnMGWWm.jpg", "genre_ids": [12, 14, 878], "id": 775, "original_language": "fr", "original_title": "Le Voyage dans la Lune", "overview": "Professor Barbenfouillis and five of his colleagues from the Academy of Astronomy travel to the Moon aboard a rocket propelled by a giant cannon. Once on the lunar surface, the bold explorers face the many perils hidden in the caves of the mysterious satellite.", "poster_path": "/zztHYAfSecYuaDyIjQudjKaOLLY.jpg", "release_date": "1902-09-01", "title": "A Trip to the Moon", "video": false, "vote_average": 8.0, "vote_count": 822, "popularity": 12.649}, {"id": 5698, "video": false, "vote_count": 268, "vote_average": 7.1, "title": "The Great Train Robbery", "release_date": "1903-12-01", "original_language": "en", "original_title": "The Great Train Robbery", "genre_ids": [28, 12, 80, 37], "backdrop_path": "/9GO8h44nckngDtdJ6R1QfIsl43j.jpg", "adult": false, "overview": "The clerk at the train station is assaulted and left tied by four men, then they rob the train threatening the operator. (They) take all the money and shoot a passenger when trying to run away. A little girl discovers the clerk tied and gives notice to the sheriff, who at once goes along with his men hunting the bandits.", "poster_path": "/uf7Hr1wuUh4T83Ifg5pVpwTqRdI.jpg", "popularity": 11.231}, {"id": 257345, "video": false, "vote_count": 382, "vote_average": 4.7, "title": "The Darkness", "release_date": "2016-05-13", "original_language": "en", "original_title": "The Darkness", "genre_ids": [27, 53], "backdrop_path": "/bPYcNIJiiGKda6dKf4IFic5ADKv.jpg", "adult": false, "overview": "A family returns from a Grand Canyon vacation with a supernatural presence in tow.", "poster_path": "/g3IYNRZhWmn9wceOxwVuOqAymZa.jpg", "popularity": 9.614}, {"id": 28118, "video": false, "vote_count": 126, "vote_average": 7.0, "title": "The Gruffalo", "release_date": "2009-12-25", "original_language": "en", "original_title": "The Gruffalo", "genre_ids": [16, 10751], "backdrop_path": "/ovmpIFAfOSRN8QWaNwLHAOO44Yc.jpg", "adult": false, "overview": "The magical tale of a mouse who takes a walk though the woods in search of a nut.", "poster_path": "/zK79S4p4IoHgNGL8LVwlb974fdC.jpg", "popularity": 11.275}, {"adult": false, "backdrop_path": "/znaH5tNazEMv4DTc07vC5rFi7m7.jpg", "genre_ids": [16, 35, 10751], "id": 47166, "original_language": "en", "original_title": "Ferdinand the Bull", "overview": "This Oscar-winning short tells of a bull who preferred to sit under trees and smell flowers to clashing horns with his fellow animals. As luck would have it, an untimely bee reveals Ferdinand's ferocious side via pained howls and wild stomping. This lands him in the bull-fighting arena amidst characters based on Walt's animators with a matador reportedly modeled after Walt himself.", "poster_path": "/2ifhZGIYjovXjFAVUSXVWBbYlI9.jpg", "release_date": "1938-11-23", "title": "Ferdinand the Bull", "video": false, "vote_average": 6.5, "vote_count": 72, "popularity": 7.135}, {"adult": false, "backdrop_path": "/kw44acMdZBc1NAvuHAdMRO4i4pi.jpg", "genre_ids": [27, 16, 10751, 10402], "id": 88018, "original_language": "en", "original_title": "The Skeleton Dance", "overview": "The clock strikes midnight, the bats fly from the belfry, a dog howls at the full moon, and two black cats fight in the cemetery: a perfect time for four skeletons to come out and dance a bit.", "poster_path": "/kmW0RJVpA3nyzWiEV0kt5829AS.jpg", "release_date": "1929-08-21", "title": "The Skeleton Dance", "video": false, "vote_average": 7.3, "vote_count": 99, "popularity": 6.847}, {"id": 145316, "video": false, "vote_count": 63, "vote_average": 5.8, "title": "Air Mater", "release_date": "2011-08-04", "original_language": "en", "original_title": "Air Mater", "genre_ids": [16, 10751], "backdrop_path": "/59HNGwEqcdZQl1vcKj6kTOwkFJr.jpg", "adult": false, "overview": "Mater's decision to fly lands him accidentally at a big airshow.", "poster_path": "/meGOYxqFyWkibJkPIjVydkdOL3E.jpg", "popularity": 8.304}, {"id": 262549, "video": true, "vote_count": 5, "vote_average": 5.3, "title": "Donald Duck's Christmas Favourites", "release_date": "2012-11-13", "original_language": "en", "original_title": "Donald Duck's Christmas Favourites", "genre_ids": [16, 35, 10751], "backdrop_path": "/iKv03RibVGosDn0Q56e7b8o4mV2.jpg", "adult": false, "overview": "In Donald Duck\u2019s Christmas Favorites you\u2019ll be treated to some of the best and most hilarious cartoon shorts from the days when Walt Disney himself added his magical touch to each film. The full effect of his presence can be felt in these sparkling gems that for generations have brought joy and laughter to kids and families everywhere. Want to find out how a real snow ball fight is done? Discover how to replace snow with popcorn? Learn how an alpine expedition should not be done? You\u2019ll get all the answers you need in this collection of Donald Duck\u2019s Christmas Favorites \u2013 a delightful winter collection from all of us to all of you. Features: Hockey Champ (1939), Snow fight (1942), Rescue dog (1947), Chip an' Dale (1947), Winter storage (1949), Toy Tinkers (1949), Corn Chips (1951), On ice (1935), Alpine climbers (1936), The art of skiing (1941)", "poster_path": "/aF9FkS5iW8Uk9nqe0hKjgt18mUl.jpg", "popularity": 8.397}, {"id": 57283, "video": false, "vote_count": 138, "vote_average": 7.5, "title": "H\u00e4xan", "release_date": "1922-09-18", "original_language": "sv", "original_title": "H\u00e4xan", "genre_ids": [99, 27], "backdrop_path": "/ek9kwqeN0YjH2Wc2ZdROwMMHCL7.jpg", "adult": false, "overview": "Grave robbing, torture, possessed nuns, and a satanic Sabbath: Benjamin Christensen's legendary film uses a series of dramatic vignettes to explore the scientific hypothesis that the witches of the Middle Ages suffered the same hysteria as turn-of-the-century psychiatric patients. But the film itself is far from serious-- instead it's a witches' brew of the scary, gross, and darkly humorous.", "poster_path": "/v53aFWdXYwZJCiblIsC0ZqiS90r.jpg", "popularity": 10.544}], "total_pages": 81, "total_results": 1602}, "recommendations": {"page": 1, "results": [{"id": 39092, "video": false, "vote_count": 11, "vote_average": 4.6, "title": "Night", "release_date": "1930-04-28", "original_language": "en", "original_title": "Night", "genre_ids": [16], "backdrop_path": "/kK4pRWLgKqlr06qCovVRa82aakA.jpg", "adult": false, "overview": "The moon and two owls sing to the Blue Danube Waltz, celebrating the night. Moths dance around a candle flame, fireflies glow, frogs chorus, and so forth.", "poster_path": null, "popularity": 1.857}, {"adult": false, "backdrop_path": "/ru79bjIUZkgBViJgkljgS8KsA9L.jpg", "genre_ids": [16], "id": 68408, "original_language": "en", "original_title": "The Merry Dwarfs", "overview": "A village of dwarfs dance and play through their day. A blacksmith shoes a centipede, a street-cleaner sweeps, a marching-band strikes up and the townsmen roll out beer barrels.", "poster_path": "/tJJISm7tPxGsqB00d6V34kU2SDK.jpg", "release_date": "1929-12-16", "title": "The Merry Dwarfs", "video": false, "vote_average": 4.6, "vote_count": 9, "popularity": 2.669}, {"id": 145941, "video": false, "vote_count": 8, "vote_average": 5.5, "title": "Early to Bet", "release_date": "1951-05-12", "original_language": "en", "original_title": "Early to Bet", "genre_ids": [16], "backdrop_path": "/tNAldprrkxBTQxdaXzLOfqAwKBq.jpg", "adult": false, "overview": "The Gambling Bug causes gambling fever in anyone he bites. He bites a cat, who becomes eager to play gin-rummy with a bulldog for penalties. Even though he keeps losing and has to endure more and more painful penalties, the cat is compelled by the Gambling Bug's bite to continue playing.", "poster_path": "/1yU0hO1eY0GcbkxniOhFDX2VUmA.jpg", "popularity": 3.371}, {"adult": false, "backdrop_path": "/8hnHP1lZLnVl1kVyDG1sENDX6UD.jpg", "genre_ids": [16], "id": 70539, "original_language": "en", "original_title": "Jack Frost", "overview": "A young grizzly bear, undaunted by his mother's warnings of the coming winter, runs away from home only to be confronted by Old Man Winter himself.", "poster_path": "/fgzSvhkoDWOjTx4vcOyjK2nbq3Z.jpg", "release_date": "1934-12-22", "title": "Jack Frost", "video": false, "vote_average": 6.0, "vote_count": 12, "popularity": 1.401}, {"adult": false, "backdrop_path": "/jz45xtfoZAxSraVbqnOc2GKB9a8.jpg", "genre_ids": [16], "id": 67585, "original_language": "en", "original_title": "The China Shop", "overview": "The elderly owner of a china shop leaves for the night, and the various figurines and decorated mugs come to life. A demonic figure captures an upper-class lady and does battle with her lord, damaging much of the shop. But the demon proves to have a glass jaw and, literally, a yellow streak, and the happy couple is soon reunited. No dialogue, but some signs are in English, particularly the final punch-line.", "poster_path": "/jpKtLIcANyDGmCtiXNzG1jGdQcl.jpg", "release_date": "1934-01-13", "title": "The China Shop", "video": false, "vote_average": 5.7, "vote_count": 10, "popularity": 2.448}, {"adult": false, "backdrop_path": "/44BFYLDNKzbdGajLFOAn0SdaJaB.jpg", "genre_ids": [16], "id": 58167, "original_language": "fr", "original_title": "King Neptune", "overview": "After a short introduction, one of Neptune's mermaids is captured by a pirate ship, and their anchor chain entangles King Neptune; the various sea creatures launch a full-on assault on the pirate ship, and eventually the giant King himself gets free and creates major havoc for the ship.", "poster_path": "/37iLT28dwpjuWygdjAHKAOAzULS.jpg", "release_date": "1932-09-10", "title": "King Neptune", "video": false, "vote_average": 6.2, "vote_count": 10, "popularity": 2.069}, {"adult": false, "backdrop_path": "/9txZ6FpgtNIp5Gw4R30ySCfP5OE.jpg", "genre_ids": [16], "id": 56009, "original_language": "en", "original_title": "Playful Pan", "overview": "The mythological satyr plays some tunes on his pipes and gets various flora and fauna dancing to them. Two clouds also dance; they bump into each other, causing lightning strikes that start a forest fire. The animals rush to escape the fire. Finally, an animal comes to tell Pan of the fire; he rushes to it, and gets it to dance to his tune, right into the lake.", "poster_path": null, "release_date": "1930-12-27", "title": "Playful Pan", "video": false, "vote_average": 6.2, "vote_count": 9, "popularity": 1.91}, {"id": 54176, "video": false, "vote_count": 13, "vote_average": 5.7, "title": "Chips Ahoy", "release_date": "1956-02-24", "original_language": "en", "original_title": "Chips Ahoy", "genre_ids": [16], "backdrop_path": "/6aBMC7QJCKsE0N3Rr3Oy9byUbIn.jpg", "adult": false, "overview": "Chip and Dale are starving in their tree home when they notice a plentiful supply of acorns on an island in a lake. To get to the island, they borrow a miniature model ship of Donald's to sail on. The irate Donald, however, doesn't appreciate them stealing his ship and makes several attempts to get it back and thwart their scheme to get to their acorn paradise. Chip and Dale are, of course, always one step ahead of Donald.", "poster_path": "/iKYIn2MnybGo17jkqAtKofQIZLa.jpg", "popularity": 3.638}, {"adult": false, "backdrop_path": "/qI7ProZSYk8pFdp1C61XMOTTzEM.jpg", "genre_ids": [16], "id": 51825, "original_language": "en", "original_title": "Autumn", "overview": "The season series of Silly Symphonies continues, with squirrels storing nuts and corn, crows stealing it, beavers building a dam, ducks migrating, and the like, as the first snows fall.", "poster_path": "/29TuPQLsVVqNjQHG721LlmULLpE.jpg", "release_date": "1930-02-15", "title": "Autumn", "video": false, "vote_average": 6.4, "vote_count": 7, "popularity": 3.261}, {"adult": false, "backdrop_path": "/vsOtuUBNh2bsEXSH9MrC02fkPZk.jpg", "genre_ids": [16], "id": 51781, "original_language": "en", "original_title": "Arctic Antics", "overview": "A collection of arctic animals (seals, walruses, polar bears, penguins) float by on ice floes and on shore, performing various musical numbers.", "poster_path": "/ggluAZUI7n9kxL1yx9jhGwcnRY8.jpg", "release_date": "1930-06-05", "title": "Arctic Antics", "video": false, "vote_average": 6.7, "vote_count": 6, "popularity": 1.364}, {"adult": false, "backdrop_path": "/tu6FS0OqAz46IdmJ6mNXbNpPePb.jpg", "genre_ids": [16, 10751, 35], "id": 67175, "original_language": "en", "original_title": "Springtime", "overview": "Flowers, insects, and a crow family all dance to a jaunty tune celebrating spring. After a brief storm, grasshoppers, frogs, and spiders cavort to the Dance of the Hours.", "poster_path": "/ySY9xTez1eFwT7RTmDIyBDhAa8O.jpg", "release_date": "1929-09-25", "title": "Springtime", "video": false, "vote_average": 4.8, "vote_count": 10, "popularity": 2.504}, {"id": 67501, "video": false, "vote_count": 10, "vote_average": 5.4, "title": "Summer", "release_date": "1930-01-16", "original_language": "en", "original_title": "Summer", "genre_ids": [16], "backdrop_path": "/iSqHxQcYTlp8nKDK1Jcl0NtWDRr.jpg", "adult": false, "overview": "In the logical sequel to Springtime, a new set of insects (mostly) dances to a new set of tunes, while doing summer activities. The insects include dung beetles, dragonflies, butterflies, a walking stick, bees, and various other beetles and flies.", "poster_path": "/h3GDqIEYlUA3lWXYuOUDm2azo64.jpg", "popularity": 1.6}, {"adult": false, "backdrop_path": "/tjOVZqigMXhxAWGhkMtFZzh0qHL.jpg", "genre_ids": [16], "id": 57639, "original_language": "en", "original_title": "Frolicking Fish", "overview": "The title pretty much says it: fish and other marine life dance and frolic to various tunes. An octopus keeps spoiling the fun in various ways.", "poster_path": "/8xc589uP4pS9DmBXiaiHJME5wgV.jpg", "release_date": "1930-05-08", "title": "Frolicking Fish", "video": false, "vote_average": 6.4, "vote_count": 8, "popularity": 2.249}, {"adult": false, "backdrop_path": "/2f2oE6FtJHjBfqwOzth1eHtYQw3.jpg", "genre_ids": [16], "id": 205876, "original_language": "en", "original_title": "Angel Puss", "overview": "A little black boy is hired to kill a cat, but the feline escapes and proceeds to play tricks on the kid, pretending he's a ghost come back to haunt his \"killer.\"", "poster_path": "/yvV96Jx3ZFz5FCOYxsOw1orJ1vQ.jpg", "release_date": "1944-06-03", "title": "Angel Puss", "video": false, "vote_average": 4.0, "vote_count": 8, "popularity": 1.208}, {"adult": false, "backdrop_path": "/8OBO8O4Na9VQ8YqRgTT54Al9fWi.jpg", "genre_ids": [16], "id": 147915, "original_language": "en", "original_title": "Bugs and Thugs", "overview": "When Bugs calls a cab he doesn't know it's the getaway car for a couple of bankrobbers (he does know the capital of Nevada).", "poster_path": "/5EJfzC1JhuCa3T09U2rDfzbCrof.jpg", "release_date": "1954-03-13", "title": "Bugs and Thugs", "video": false, "vote_average": 6.7, "vote_count": 18, "popularity": 4.176}, {"adult": false, "backdrop_path": "/uUIWmDRSNEAH6QuWWxh2mLUD7ex.jpg", "genre_ids": [16], "id": 100160, "original_language": "en", "original_title": "Woody Dines Out", "overview": "Woody Woodpecker goes out to dine and accidentally stumbles into a taxidermist's shop, thinking it is a restaurant. The taxidermist, wanting a woodpecker to stuff, doesn't inform Woody otherwise, and drugs the 'meal' he serves Woody. But, before he can stuff Woody, he comes to and knocks the literal stuffing out of the taxidermist.", "poster_path": "/nPwLabZggaKLFQJY3Q0m8mlv8qK.jpg", "release_date": "1945-03-31", "title": "Woody Dines Out", "video": false, "vote_average": 5.3, "vote_count": 4, "popularity": 1.613}, {"id": 168018, "video": false, "vote_count": 6, "vote_average": 5.9, "title": "Sandy Claws", "release_date": "1955-04-02", "original_language": "en", "original_title": "Sandy Claws", "genre_ids": [16], "backdrop_path": "/bJCL1GrzXtMrdbv7U5ReeBjUh9L.jpg", "adult": false, "overview": "Tweety Bird goes to the beach with Granny, and Sylvester tries once again to catch him.", "poster_path": "/eCcVaof33xPPJvIiAKVCroKhbyC.jpg", "popularity": 3.021}, {"adult": false, "backdrop_path": "/43foZteOeFrJt58Z1ICDreKnWVF.jpg", "genre_ids": [16], "id": 52945, "original_language": "en", "original_title": "Cannibal Capers", "overview": "A group of cannibals gather together for a tribal dance. In the middle of their gala, they are interrupted by a ferocious lion!", "poster_path": "/5AEZsYj65JXwJEcJfNxzJsNZAGR.jpg", "release_date": "1930-03-13", "title": "Cannibal Capers", "video": false, "vote_average": 5.5, "vote_count": 10, "popularity": 1.653}, {"adult": false, "backdrop_path": "/f7vKP1tAWxkkAF1NGlEh5E7hFYS.jpg", "genre_ids": [16, 35], "id": 67128, "original_language": "en", "original_title": "Mother Goose Goes Hollywood", "overview": "Various Mother Goose rhymes are portrayed by Hollywood stars for example, Old King Cole's fiddlers three are the Marx Brothers, and Humpty Dumpty is W.C. Fields, who falls while tormenting Charlie McCarthy; Simple Simon and the Pieman are Laurel and Hardy.", "poster_path": "/l0SAUMUKiHWHNKm1mzjeW2KlYnR.jpg", "release_date": "1938-12-23", "title": "Mother Goose Goes Hollywood", "video": false, "vote_average": 5.1, "vote_count": 12, "popularity": 2.513}, {"adult": false, "backdrop_path": null, "genre_ids": [], "id": 176117, "original_language": "en", "original_title": "Blame It on the Samba", "overview": "Donald Duck and Jose Carioca, both literally blue, stumble across the Cafe do Samba, whose proprietor is determined to cheer them up with samba music. After they get their color back, they land in a giant brandy snifter, where a live-action woman is playing the tune on an organ. She also drums and dances a bit. The only dialogue is the lyrics of the song, sung by women.", "poster_path": "/9PDL1yMB13uN6CyyBZwfsyDFb8F.jpg", "release_date": "1948-05-27", "title": "Blame It on the Samba", "video": false, "vote_average": 6.0, "vote_count": 4, "popularity": 1.125}], "total_pages": 2, "total_results": 40}, "credits": {"cast": [], "crew": [{"credit_id": "52fe46dd9251416c750860cb", "department": "Directing", "gender": 2, "id": 123192, "job": "Director", "name": "Ub Iwerks", "profile_path": "/abGYy198t3XRfnB9Jia1A9NVBEP.jpg"}, {"credit_id": "52fe46dd9251416c750860d1", "department": "Production", "gender": 2, "id": 2106, "job": "Producer", "name": "Walt Disney", "profile_path": "/mrcVG49U2PVm1LpPMmwBtn5ZzOh.jpg"}, {"credit_id": "54d8d4dcc3a3683b9900787c", "department": "Sound", "gender": 2, "id": 551674, "job": "Music", "name": "Carl W. Stalling", "profile_path": "/7w0TsnkpyHLIYsAyYFVbdIBj2RU.jpg"}, {"credit_id": "552d2ceac3a36838dc000bdb", "department": "Visual Effects", "gender": 2, "id": 123192, "job": "Animation", "name": "Ub Iwerks", "profile_path": "/abGYy198t3XRfnB9Jia1A9NVBEP.jpg"}, {"credit_id": "552d2cf3c3a36838dc000bdd", "department": "Visual Effects", "gender": 2, "id": 115754, "job": "Animation", "name": "Les Clark", "profile_path": null}, {"credit_id": "552d2cfd9251413876004e06", "department": "Visual Effects", "gender": 2, "id": 148148, "job": "Animation", "name": "Johnny Cannon", "profile_path": "/grDZTm7xLgGwRU1xEWzmGnoQ9B3.jpg"}, {"credit_id": "552d2d08c3a3686190004d98", "department": "Visual Effects", "gender": 2, "id": 11434, "job": "Animation", "name": "Wilfred Jackson", "profile_path": "/iQgvspjL7upXGHSG6EbOuzBMg3Y.jpg"}, {"credit_id": "552d2d269251411961000a28", "department": "Visual Effects", "gender": 0, "id": 77616, "job": "Animation Production Assistant", "name": "Jack Cutting", "profile_path": "/70tV3waJkgbZOh0OXFowFGBRUab.jpg"}, {"credit_id": "552d2d38c3a368618e004ddb", "department": "Art", "gender": 0, "id": 225718, "job": "Background Designer", "name": "Carlos Manriquez", "profile_path": "/uvKFVeb59lnDShfBwQ0u6SrMimD.jpg"}]}}