{"adult": false, "backdrop_path": "/5ZepdRQRAlFlBr8SLsqE3EFaTQF.jpg", "belongs_to_collection": null, "budget": 0, "genres": [{"id": 99, "name": "Documentary"}, {"id": 10402, "name": "Music"}, {"id": 10752, "name": "War"}], "homepage": "", "id": 16666, "imdb_id": "tt0912599", "original_language": "en", "original_title": "War Dance", "overview": "Three children living in a displacement camp in northern Uganda compete in their country's national music and dance festival.", "popularity": 4.485, "poster_path": "/bWn86VpMuvhDdmqbjq2wCy8vo78.jpg", "production_companies": [], "production_countries": [{"iso_3166_1": "US", "name": "United States of America"}], "release_date": "2007-11-09", "revenue": 0, "runtime": 105, "spoken_languages": [{"iso_639_1": "en", "name": "English"}], "status": "Released", "tagline": "The war stole everything, except their music.", "title": "War Dance", "video": false, "vote_average": 7.6, "vote_count": 8, "keywords": {"keywords": [{"id": 970, "name": "parent child relationship"}, {"id": 3986, "name": "spider"}, {"id": 4528, "name": "song"}, {"id": 7404, "name": "uganda"}, {"id": 10148, "name": "tribe"}, {"id": 11663, "name": "camp"}, {"id": 13094, "name": "photograph"}, {"id": 18068, "name": "teenage boy"}, {"id": 33549, "name": "displacement"}, {"id": 33550, "name": "displacement camp"}, {"id": 33552, "name": "chorus"}, {"id": 33553, "name": "walkie talkie"}, {"id": 33556, "name": "urban setting"}, {"id": 33557, "name": "rehearsal"}, {"id": 33558, "name": "practice"}, {"id": 187056, "name": "woman director"}]}, "similar": {"page": 1, "results": [{"id": 9813, "video": false, "vote_count": 128, "vote_average": 6.1, "title": "The Quiet", "release_date": "2005-09-12", "original_language": "en", "original_title": "The Quiet", "genre_ids": [18, 53], "backdrop_path": "/6eyWAZA4CEidZW1xXnQ4vlYBXTP.jpg", "adult": false, "overview": "After her widowed father dies, deaf teenager Dot moves in with her godparents, Olivia and Paul Deer. The Deers' daughter, Nina, is openly hostile to Dot, but that does not prevent her from telling her secrets to her silent stepsister, including the fact that she wants to kill her lecherous father.", "poster_path": "/GEqIE9YlmygHVUfS64LW2cwAAM.jpg", "popularity": 13.948}, {"id": 326359, "video": false, "vote_count": 1179, "vote_average": 6.8, "title": "Frozen Fever", "release_date": "2015-03-09", "original_language": "en", "original_title": "Frozen Fever", "genre_ids": [12, 16, 10751], "backdrop_path": "/ubioPGniCfDiASmYYpeJs5RRNaC.jpg", "adult": false, "overview": "On Anna's birthday, Elsa and Kristoff are determined to give her the best celebration ever, but Elsa's icy powers may put more than just the party at risk.", "poster_path": "/lKJiVPzsAO9IJ4LKWXZ8vkR2bg4.jpg", "popularity": 17.061}, {"adult": false, "backdrop_path": "/by0WtpJ5UNxOy6ytIfPPTasbRoB.jpg", "genre_ids": [28, 12, 35, 18, 10751, 10402, 10749], "id": 17130, "original_language": "en", "original_title": "Crossroads", "overview": "Three friends get together and bury a box making a pact to open it at midnight at their high school graduation. In the little town in Georgia that they live in, things soon change. One is little miss perfect, one is an engaged prom queen, and the other is a pregnant outcast. The night of graduation, they open the box and they strike up a conversation. All of a sudden, one brings up the topic of her going to Los Angeles for a record contract audition. They all decide to go together and they leave. With a little money, they set out on the road with a guy named Ben. When one of them tells the other a rumor that he might be a homicidal maniac they are all scared of him. When they reach LA, Lucy falls in love with Ben and against her father's wishes, she stays and she goes to the audition.", "poster_path": "/egIs4cWxn0iBErFKrQ7STckjj49.jpg", "release_date": "2002-02-15", "title": "Crossroads", "video": false, "vote_average": 5.0, "vote_count": 334, "popularity": 12.973}, {"adult": false, "backdrop_path": "/caLMOD3ZJ3V7qjlxDXrzlJfBLgD.jpg", "genre_ids": [18, 10749], "id": 20, "original_language": "en", "original_title": "My Life Without Me", "overview": "A Pedro Almodovar production in which a fatally ill mother with only two months to live creates a list of things she wants to do before she dies with out telling her family of her illness.", "poster_path": "/vVj92VBFUBzjqzLvBiPVVlJDp78.jpg", "release_date": "2003-03-07", "title": "My Life Without Me", "video": false, "vote_average": 6.1, "vote_count": 220, "popularity": 9.208}, {"adult": false, "backdrop_path": "/avhG8fITuG78IkKPk28CcBBHPOp.jpg", "genre_ids": [35, 18], "id": 112160, "original_language": "fr", "original_title": "Chroniques sexuelles d'une famille d'aujourd'hui", "overview": "Three generations of a French family open up about their sexual experiences and desires after young Romain is caught masturbating in his biology class.", "poster_path": "/pU2nD3Llaz3Taq5FAaQUg00uJYD.jpg", "release_date": "2012-05-09", "title": "Sexual Chronicles of a French Family", "video": false, "vote_average": 4.4, "vote_count": 169, "popularity": 29.133}, {"adult": false, "backdrop_path": "/k8H7ye6Sab7OrDJoo8Qp5WFGHGk.jpg", "genre_ids": [35, 10749, 18], "id": 244264, "original_language": "en", "original_title": "Laggies", "overview": "Overeducated and underemployed, 28 year old Megan is in the throes of a quarterlife crisis. Squarely into adulthood with no career prospects, no particular motivation to think about her future and no one to relate to, Megan is comfortable lagging a few steps behind - while her friends check off milestones and celebrate their new grown-up status. When her high-school sweetheart proposes, Megan panics and- given an unexpected opportunity to escape for a week - hides out in the home of her new friend, 16-year old Annika and Annika's world-weary single dad Craig.", "poster_path": "/dNcoXoRC7JHiqbe7k5Ufo6syiPP.jpg", "release_date": "2014-09-25", "title": "Laggies", "video": false, "vote_average": 6.1, "vote_count": 787, "popularity": 9.883}, {"adult": false, "backdrop_path": "/txtRue33MaXv5HQpTiHPOmOcDxE.jpg", "genre_ids": [35, 10749], "id": 11631, "original_language": "en", "original_title": "Mamma Mia!", "overview": "An independent, single mother who owns a small hotel on a Greek island is about to marry off the spirited young daughter she's raised alone. But, the daughter has secretly invited three of her mother's ex-lovers in the hopes of finding her biological father.", "poster_path": "/gOm2iMMbC6EonrFzmSQ8xvCa4Ei.jpg", "release_date": "2008-07-02", "title": "Mamma Mia!", "video": false, "vote_average": 6.9, "vote_count": 4120, "popularity": 16.652}, {"adult": false, "backdrop_path": "/g3LYarEY9LjB28Ct2trwFN72gqZ.jpg", "genre_ids": [35], "id": 437557, "original_language": "en", "original_title": "Blockers", "overview": "When three parents discover their daughters\u2019 pact to lose their virginity at prom, they launch a covert one-night operation to stop the teens from sealing the deal.", "poster_path": "/uvlUQXg0AlpGzKukO11K7QtW3Yu.jpg", "release_date": "2018-03-14", "title": "Blockers", "video": false, "vote_average": 6.2, "vote_count": 1153, "popularity": 18.075}, {"adult": false, "backdrop_path": "/npClMhFGn4XUkwu6coq5oKAEu6L.jpg", "genre_ids": [35, 10749, 18], "id": 634, "original_language": "en", "original_title": "Bridget Jones's Diary", "overview": "A chaotic Bridget Jones meets a snobbish lawyer, and he soon enters her world of imperfections.", "poster_path": "/ym6kjFFZg6boC0QHBVw6hqJLbxv.jpg", "release_date": "2001-04-13", "title": "Bridget Jones's Diary", "video": false, "vote_average": 6.7, "vote_count": 3079, "popularity": 16.678}, {"adult": false, "backdrop_path": "/ojn7IYKmMt8HXRd6oLwY5pLGLVc.jpg", "genre_ids": [18, 10749], "id": 9587, "original_language": "en", "original_title": "Little Women", "overview": "With their father away as a chaplain in the Civil War, Jo, Meg, Beth and Amy grow up with their mother in somewhat reduced circumstances. They are a close family who inevitably have their squabbles and tragedies. But the bond holds even when, later, male friends start to become a part of the household.", "poster_path": "/tD9YDE8pjtSvvKUpkmooE6YDSm8.jpg", "release_date": "1994-12-21", "title": "Little Women", "video": false, "vote_average": 7.2, "vote_count": 574, "popularity": 24.712}, {"id": 8913, "video": false, "vote_count": 1053, "vote_average": 6.5, "title": "Pet Sematary", "release_date": "1989-04-21", "original_language": "en", "original_title": "Pet Sematary", "genre_ids": [18, 27], "backdrop_path": "/sbm4pRbGNaqaHjx6fPXh1aQGTJO.jpg", "adult": false, "overview": "Dr. Louis Creed's family moves into the country house of their dreams and discover a pet cemetery at the back of their property. The cursed burial ground deep in the woods brings the dead back to life -- with \"minor\" problems. At first, only the family's cat makes the return trip, but an accident forces a heartbroken father to contemplate the unthinkable.", "poster_path": "/9zUax4pjRgoPIJla9CQejqNJofB.jpg", "popularity": 18.214}, {"adult": false, "backdrop_path": "/eSs0CkWB5ASQgcx8Dr0uai3IRjT.jpg", "genre_ids": [18], "id": 339984, "original_language": "en", "original_title": "Miracles from Heaven", "overview": "When Christy discovers her 10-year-old daughter Anna has a rare, incurable disease, she becomes a ferocious advocate for her daughter\u2019s healing as she searches for a solution. After Anna has a freak accident and falls three stories, a miracle unfolds in the wake of her dramatic rescue that leaves medical specialists mystified, her family restored and their community inspired.", "poster_path": "/hz9VF1TfaM0D04pYneSXUkNeOZv.jpg", "release_date": "2016-03-17", "title": "Miracles from Heaven", "video": false, "vote_average": 7.2, "vote_count": 568, "popularity": 14.303}, {"adult": false, "backdrop_path": "/tG7ydFmDr2Y1kecUCM6foFxmJjP.jpg", "genre_ids": [27, 37, 35], "id": 10212, "original_language": "en", "original_title": "Ravenous", "overview": "Upon receiving reports of missing persons at Fort Spencer, a remote Army outpost on the Western frontier, Capt. John Boyd investigates. After arriving at his new post, Boyd and his regiment aid a wounded frontiersman who recounts a horrifying tale of a wagon train murdered by its supposed guide -- a vicious U.S. Army colonel gone rogue. Fearing the worst, the regiment heads out into the wilderness to verify the gruesome claims.", "poster_path": "/spwvStEA4CraTXPOcONrDzncXOZ.jpg", "release_date": "1999-03-16", "title": "Ravenous", "video": false, "vote_average": 6.8, "vote_count": 270, "popularity": 10.125}, {"id": 24684, "video": false, "vote_count": 794, "vote_average": 6.9, "title": "An Education", "release_date": "2009-10-29", "original_language": "en", "original_title": "An Education", "genre_ids": [18, 10749], "backdrop_path": "/4PD0Kc4BGYrYrziCwUPHnESSabZ.jpg", "adult": false, "overview": "Despite her sheltered upbringing, Jenny is a teen with a bright future; she's smart, pretty, and has aspirations of attending Oxford University. When David, a charming but much older suitor, motors into her life in a shiny automobile, Jenny gets a taste of adult life that she won't soon forget.", "poster_path": "/n0mH5BgPjlMWJLWKhjtf5MDRrm9.jpg", "popularity": 10.521}, {"adult": false, "backdrop_path": "/pBgGl3GfVxs84T7ZniUAz5FMMNx.jpg", "genre_ids": [35, 10751, 12, 14, 10749], "id": 11451, "original_language": "en", "original_title": "Herbie Fully Loaded", "overview": "Maggie Peyton, the new owner of Number 53 - the free-wheelin' Volkswagen bug with a mind of its own - puts the car through its paces on the road to becoming a NASCAR competitor.", "poster_path": "/7lTfTZ8CDfXw09eAv3OOvsbCVgs.jpg", "release_date": "2005-06-22", "title": "Herbie Fully Loaded", "video": false, "vote_average": 5.3, "vote_count": 1347, "popularity": 16.927}, {"adult": false, "backdrop_path": "/cWfC9EzsRdmz6IhtkGRhOqMfmep.jpg", "genre_ids": [35, 27], "id": 293970, "original_language": "en", "original_title": "The Final Girls", "overview": "A young woman grieving the loss of her mother, a famous scream queen from the 1980s, finds herself pulled into the world of her mom's most famous movie. Reunited, the women must fight off the film's maniacal killer.", "poster_path": "/l9Ub29ZLm9He2wTxdN5nkSbrFzv.jpg", "release_date": "2015-10-09", "title": "The Final Girls", "video": false, "vote_average": 6.5, "vote_count": 664, "popularity": 10.868}, {"adult": false, "backdrop_path": "/3qFFHnFkULFJPY3ZRvRD0U2r6b8.jpg", "genre_ids": [18], "id": 1631, "original_language": "fr", "original_title": "Une vraie jeune fille", "overview": "Bored and restless, Alice spends much of her time lusting after Jim, a local sawmill worker. When not lusting after him, Alice fills the hours with such pursuits as writing her name on a mirror with vaginal secretions and wandering the fields with her underwear around her ankles. And, in true teenaged tradition, she spends a lot of time writing in her diary.", "poster_path": "/vmUxfIYlVzPBKIEvRcmqPzU6lB.jpg", "release_date": "1976-01-01", "title": "A Real Young Girl", "video": false, "vote_average": 5.4, "vote_count": 53, "popularity": 18.542}, {"id": 858, "video": false, "vote_count": 1269, "vote_average": 6.7, "title": "Sleepless in Seattle", "release_date": "1993-06-24", "original_language": "en", "original_title": "Sleepless in Seattle", "genre_ids": [35, 18, 10749], "backdrop_path": "/p3G0VLxXu9AK0WXXsGrjfXr9wrA.jpg", "adult": false, "overview": "A young boy who tries to set his dad up on a date after the death of his mother. He calls into a radio station to talk about his dad's loneliness which soon leads the dad into meeting a journalist, Annie who flies to Seattle, to write a story about the boy and his dad. Yet Annie ends up with more than just a story in this popular romantic comedy.", "poster_path": "/afkYP15OeUOD0tFEmj6VvejuOcz.jpg", "popularity": 15.171}, {"adult": false, "backdrop_path": "/mptra1sEhfCCP22R1B0TyOjmHIT.jpg", "genre_ids": [16, 18], "id": 2011, "original_language": "fr", "original_title": "Persepolis", "overview": "In 1970s Iran, Marjane 'Marji' Statrapi watches events through her young eyes and her idealistic family of a long dream being fulfilled of the hated Shah's defeat in the Iranian Revolution of 1979. However as Marji grows up, she witnesses first hand how the new Iran, now ruled by Islamic fundamentalists, has become a repressive tyranny on its own.", "poster_path": "/dYvyF1RlNokAd1N7Nek0vDpYsV6.jpg", "release_date": "2007-06-27", "title": "Persepolis", "video": false, "vote_average": 7.9, "vote_count": 1031, "popularity": 10.513}, {"adult": false, "backdrop_path": "/cADbqsIoiDW7X3Myg9nz8eAuno5.jpg", "genre_ids": [18, 10749], "id": 10818, "original_language": "fr", "original_title": "Naissance des pieuvres", "overview": "Set during a sultry summer in a French suburb, Marie is desperate to join the local pool's synchronized swimming team, but is her interest solely for the sake of sport or for a chance to get close to Floriane, the bad girl of the team? Sciamma, and the two leads, capture the uncertainty of teenage sexuality with a sympathetic eye in this delicate drama of the angst of coming-of-age.", "poster_path": "/4jajELYrR4Xmv3CVoKnukRnALa2.jpg", "release_date": "2007-05-17", "title": "Water Lilies", "video": false, "vote_average": 6.1, "vote_count": 119, "popularity": 10.744}], "total_pages": 42, "total_results": 839}, "recommendations": {"page": 1, "results": [], "total_pages": 1, "total_results": 0}, "credits": {"cast": [{"cast_id": 5, "character": "Himself", "credit_id": "52fe46e49251416c75086f9d", "gender": 0, "id": 570796, "name": "Jane Adong", "order": 0, "profile_path": null}, {"cast_id": 6, "character": "Herself", "credit_id": "52fe46e49251416c75086fa1", "gender": 0, "id": 570797, "name": "Kitara Coldwell", "order": 1, "profile_path": null}, {"cast_id": 7, "character": "Himself", "credit_id": "52fe46e49251416c75086fa5", "gender": 0, "id": 570799, "name": "Joshua Kyallo", "order": 2, "profile_path": null}, {"cast_id": 8, "character": "Themselves", "credit_id": "52fe46e49251416c75086fa9", "gender": 0, "id": 570800, "name": "Members of Acholi Tribe", "order": 3, "profile_path": null}], "crew": [{"credit_id": "52fe46e49251416c75086f8d", "department": "Directing", "gender": 2, "id": 436081, "job": "Director", "name": "Sean Fine", "profile_path": null}, {"credit_id": "52fe46e49251416c75086f93", "department": "Directing", "gender": 0, "id": 220518, "job": "Director", "name": "Andrea Nix", "profile_path": null}, {"credit_id": "52fe46e49251416c75086f99", "department": "Writing", "gender": 2, "id": 436081, "job": "Writer", "name": "Sean Fine", "profile_path": null}, {"credit_id": "52fe46e49251416c75086faf", "department": "Writing", "gender": 0, "id": 220518, "job": "Writer", "name": "Andrea Nix", "profile_path": null}]}}