{"adult": false, "backdrop_path": "/f8vzgpVPLezYnKNDcxrG4iuiV0x.jpg", "belongs_to_collection": null, "budget": 0, "genres": [{"id": 35, "name": "Comedy"}, {"id": 37, "name": "Western"}, {"id": 28, "name": "Action"}], "homepage": null, "id": 16661, "imdb_id": "tt0018051", "original_language": "en", "original_title": "The Kid Brother", "overview": "The most important family in Hickoryville is (not surprisingly) the Hickorys, with sheriff Jim and his tough manly sons Leo and Olin. The timid youngest son, Harold, doesn't have the muscles to match up to them, so he has to use his wits to win the respect of his strong father and also the love of beautiful Mary.", "popularity": 4.204, "poster_path": "/a1KeapLaxX9plRCjVpB6vAwB3WF.jpg", "production_companies": [{"id": 4111, "logo_path": null, "name": "The Harold Lloyd Corporation", "origin_country": ""}], "production_countries": [{"iso_3166_1": "US", "name": "United States of America"}], "release_date": "1927-01-17", "revenue": 0, "runtime": 82, "spoken_languages": [{"iso_639_1": "en", "name": "English"}, {"iso_639_1": "xx", "name": "No Language"}], "status": "Released", "tagline": "", "title": "The Kid Brother", "video": false, "vote_average": 7.2, "vote_count": 34, "keywords": {"keywords": [{"id": 657, "name": "fire"}, {"id": 798, "name": "sheriff"}, {"id": 1701, "name": "hero"}, {"id": 1721, "name": "fight"}, {"id": 3713, "name": "chase"}, {"id": 5301, "name": "brother"}, {"id": 8627, "name": "stolen money"}, {"id": 13148, "name": "medicine show"}, {"id": 15149, "name": "monkey"}, {"id": 154802, "name": "silent film"}, {"id": 156702, "name": "capture"}, {"id": 161231, "name": "hideout"}, {"id": 234091, "name": "evasion"}, {"id": 236569, "name": "wrongly accused"}, {"id": 239529, "name": "ingenuity"}, {"id": 239530, "name": "thieves"}, {"id": 239531, "name": "sweethearts"}, {"id": 239532, "name": "derelict boat"}, {"id": 240119, "name": "father son relationship"}]}, "similar": {"page": 1, "results": [{"adult": false, "backdrop_path": "/fX6o5DCdGVEEZ1OT1IourOUkQMb.jpg", "genre_ids": [16, 35, 10751, 37, 12], "id": 44896, "original_language": "en", "original_title": "Rango", "overview": "When Rango, a lost family pet, accidentally winds up in the gritty, gun-slinging town of Dirt, the less-than-courageous lizard suddenly finds he stands out. Welcomed as the last hope the town has been waiting for, new Sheriff Rango is forced to play his new role to the hilt.", "poster_path": "/afxRbCwwKjrWgGJtsVNs1BW1Dk5.jpg", "release_date": "2011-03-02", "title": "Rango", "video": false, "vote_average": 6.6, "vote_count": 3767, "popularity": 18.996}, {"adult": false, "backdrop_path": "/4h6c98SPvXCfmZ0Qn5TaCZisy2K.jpg", "genre_ids": [53, 28, 9648], "id": 59965, "original_language": "en", "original_title": "Abduction", "overview": "A young man sets out to uncover the truth about his life after finding his baby photo on a missing persons website.", "poster_path": "/cUT6NQP5LAJpmUoStGtXmvNt4zA.jpg", "release_date": "2011-09-22", "title": "Abduction", "video": false, "vote_average": 5.8, "vote_count": 1957, "popularity": 18.326}, {"id": 604, "video": false, "vote_count": 6338, "vote_average": 6.9, "title": "The Matrix Reloaded", "release_date": "2003-05-15", "original_language": "en", "original_title": "The Matrix Reloaded", "genre_ids": [28, 12, 878, 53], "backdrop_path": "/Fp3piEuHXxKnPBO5R0Wj4wjZHg.jpg", "adult": false, "overview": "Six months after the events depicted in The Matrix, Neo has proved to be a good omen for the free humans, as more and more humans are being freed from the matrix and brought to Zion, the one and only stronghold of the Resistance.  Neo himself has discovered his superpowers including super speed, ability to see the codes of the things inside the matrix and a certain degree of pre-cognition. But a nasty piece of news hits the human resistance: 250,000 machine sentinels are digging to Zion and would reach them in 72 hours. As Zion prepares for the ultimate war, Neo, Morpheus and Trinity are advised by the Oracle to find the Keymaker who would help them reach the Source.  Meanwhile Neo's recurrent dreams depicting Trinity's death have got him worried and as if it was not enough, Agent Smith has somehow escaped deletion, has become more powerful than before and has fixed Neo as his next target.", "poster_path": "/ezIurBz2fdUc68d98Fp9dRf5ihv.jpg", "popularity": 32.554}, {"id": 605, "video": false, "vote_count": 5694, "vote_average": 6.6, "title": "The Matrix Revolutions", "release_date": "2003-11-03", "original_language": "en", "original_title": "The Matrix Revolutions", "genre_ids": [28, 12, 878, 53], "backdrop_path": "/pdVHUsb2eEz9ALNTr6wfRJe5xVa.jpg", "adult": false, "overview": "The human city of Zion defends itself against the massive invasion of the machines as Neo fights to end the war at another front while also opposing the rogue Agent Smith.", "poster_path": "/sKogjhfs5q3azmpW7DFKKAeLEG8.jpg", "popularity": 26.149}, {"id": 8247, "video": false, "vote_count": 3505, "vote_average": 6.0, "title": "Jumper", "release_date": "2008-02-13", "original_language": "en", "original_title": "Jumper", "genre_ids": [12, 14, 878], "backdrop_path": "/3gZ2iiqCqwVg7sKm2KUspzxfelQ.jpg", "adult": false, "overview": "David Rice is a man who knows no boundaries, a Jumper, born with the uncanny ability to teleport instantly to anywhere on Earth. When he discovers others like himself, David is thrust into a dangerous and bloodthirsty war while being hunted by a sinister and determined group of zealots who have sworn to destroy all Jumpers. Now, David\u2019s extraordinary gift may be his only hope for survival!", "poster_path": "/3pPZ9JhNz3VMmASVir5SMHvTDUU.jpg", "popularity": 16.926}, {"id": 473149, "video": false, "vote_count": 194, "vote_average": 5.9, "title": "Traffik", "release_date": "2018-04-20", "original_language": "en", "original_title": "Traffik", "genre_ids": [27, 53], "backdrop_path": "/wbk9VvJ8lkUF0ElpfRm3dFIzMJf.jpg", "adult": false, "overview": "A couple off for a romantic weekend in the mountains are accosted by a biker gang. Alone in the mountains, Brea and John must defend themselves against the gang, who will stop at nothing to protect their secrets.", "poster_path": "/e2Z466e9402RFP6wxRMfXYYiJHA.jpg", "popularity": 22.593}, {"adult": false, "backdrop_path": "/fmo48Lt8XtMWeHeXJzi5SbPCJud.jpg", "genre_ids": [18, 27, 80], "id": 1696, "original_language": "en", "original_title": "The Devil's Rejects", "overview": "The sequel to House of 1000 Corpses \u2013 the Firefly family are ambushed at their isolated home by Sheriff Wydell and a squad of armed men guns blazing \u2013 yet only Otis and his sister, Baby, manage to escape the barrage of bullets unharmed. Hiding out in a backwater motel, the wanted siblings wait to rendezvous with their errant father, Captain Spaulding, killing whoever happens to stand in their way.", "poster_path": "/fj4rrpUlBpFjPaJecpjID6yqacx.jpg", "release_date": "2005-07-22", "title": "The Devil's Rejects", "video": false, "vote_average": 6.7, "vote_count": 719, "popularity": 14.685}, {"id": 5876, "video": false, "vote_count": 2781, "vote_average": 6.8, "title": "The Mist", "release_date": "2007-11-21", "original_language": "en", "original_title": "The Mist", "genre_ids": [27, 878, 53], "backdrop_path": "/slQnhKRIPkA2Cm5x6VvrOPXt4Qu.jpg", "adult": false, "overview": "After a violent storm, a dense cloud of mist envelops a small Maine town, trapping artist David Drayton and his five-year-old son in a local grocery store with other people. They soon discover that the mist conceals deadly horrors that threaten their lives, and worse, their sanity.", "poster_path": "/uYVheUBf8ITaocUP4Og9GXxOMIH.jpg", "popularity": 17.916}, {"id": 37034, "video": false, "vote_count": 90, "vote_average": 6.4, "title": "True Legend", "release_date": "2010-02-09", "original_language": "zh", "original_title": "\u82cf\u4e5e\u513f", "genre_ids": [28, 14], "backdrop_path": "/af2mCbgATbmLYCXpXgD6xsheyGM.jpg", "adult": false, "overview": "Su Qi-Er, a wealthy man living during the Qing Dynasty who loses his fortune and reputation as a result of a conspiracy against him. After being forced out onto the streets, Su dedicates his life to martial arts and reemerges as a patriotic hero known as the \"King of Beggars.\"", "poster_path": "/mPJZ03nEivYRhrkcgzFDi669W9N.jpg", "popularity": 11.323}, {"adult": false, "backdrop_path": "/dtmmUCOjCtrjzRCtXHXwaBSySjN.jpg", "genre_ids": [12, 14, 28], "id": 23047, "original_language": "en", "original_title": "Season of the Witch", "overview": "A 14th century Crusader returns with his comrade to a homeland devastated by the Black Plague. The Church commands the two knights to transport a witch to a remote abbey, where monks will perform a ritual in hopes of ending the pestilence.", "poster_path": "/71XUlmCSJomhBZoXDBBIMxzoLFx.jpg", "release_date": "2011-01-07", "title": "Season of the Witch", "video": false, "vote_average": 5.3, "vote_count": 1502, "popularity": 13.508}, {"adult": false, "backdrop_path": "/6bqvfvhXuWMfDEaTGsK19HNGsy1.jpg", "genre_ids": [28, 53, 35, 80], "id": 4141, "original_language": "en", "original_title": "Shoot 'Em Up", "overview": "A man named Mr. Smith delivers a woman's baby during a shootout, and is then called upon to protect the newborn from the army of gunmen.", "poster_path": "/8Qdl9Q5UjVBxFuI9ZIOhS981PtZ.jpg", "release_date": "2007-07-26", "title": "Shoot 'Em Up", "video": false, "vote_average": 6.4, "vote_count": 1039, "popularity": 13.411}, {"adult": false, "backdrop_path": "/3ngGXCx43Si2pEG22zxFr9HVkn1.jpg", "genre_ids": [28, 35], "id": 9584, "original_language": "en", "original_title": "Convoy", "overview": "Truckers form a mile long \"convoy\" in support of a trucker's vendetta with an abusive sheriff...Based on the country song of same title by C.W. McCall.", "poster_path": "/zpCy9R9tjD5sawsBk5TaXbFJhJz.jpg", "release_date": "1978-06-27", "title": "Convoy", "video": false, "vote_average": 6.2, "vote_count": 148, "popularity": 13.164}, {"id": 77951, "video": false, "vote_count": 235, "vote_average": 5.5, "title": "Walking with Dinosaurs", "release_date": "2013-12-18", "original_language": "en", "original_title": "Walking with Dinosaurs", "genre_ids": [12, 16, 10751], "backdrop_path": "/msSfbrMd7LKbCW9ivIupAHo8yvp.jpg", "adult": false, "overview": "Walking with Dinosaurs 3D is a film depicting life-like 3D dinosaur characters set in photo-real landscapes that transports audiences to the prehistoric world as it existed 70 million years ago. The film is based on the 1999 documentary television miniseries Walking with Dinosaurs, produced by the BBC. Walking with Dinosaurs 3D is being produced by Evergreen Studios, the company that produced Happy Feet, and it is was released on October 11, 2013.", "poster_path": "/3QS2WnruXRj7T4gh9joOFhY6YqB.jpg", "popularity": 13.239}, {"id": 9413, "video": false, "vote_count": 204, "vote_average": 5.2, "title": "Picture Perfect", "release_date": "1997-01-08", "original_language": "en", "original_title": "Picture Perfect", "genre_ids": [35, 10749], "backdrop_path": "/5ggXR86OMwOoTpdS2AtqfGn0MIk.jpg", "adult": false, "overview": "A young advertising executive's life becomes increasingly complicated when, in order to impress her boss, she pretends to be engaged to a man she has just met.", "poster_path": "/xYnvr4o7GEaA2uyt4Q1ASUI5Obv.jpg", "popularity": 11.429}, {"id": 13932, "video": false, "vote_count": 467, "vote_average": 7.4, "title": "Jack-Jack Attack", "release_date": "2005-03-15", "original_language": "en", "original_title": "Jack-Jack Attack", "genre_ids": [12, 16, 10751], "backdrop_path": "/mUcfavkzBSlJbhS6cXZyInM9jix.jpg", "adult": false, "overview": "The Parrs' baby Jack-Jack is thought to be normal, not having any super-powers like his parents or siblings. But when an outsider is hired to watch him, Jack-Jack shows his true potential.", "poster_path": "/btnyGcvjMbN4MpwLE7A6J7gNV01.jpg", "popularity": 13.107}, {"adult": false, "backdrop_path": "/A0gP8vufy0qj4XoyDCznykKGVRu.jpg", "genre_ids": [28, 12, 35], "id": 17169, "original_language": "en", "original_title": "Any Which Way You Can", "overview": "Philo takes part in a bare knuckle fight - as he does - to make some more money than he can earn from his car repair business. He decides to retire from fighting, but when the Mafia come along and arrange another fight, he is pushed into it. A motorcycle gang and an orangutan called Clyde all add to the 'fun'.", "poster_path": "/fGP1rB0MapjDyR0lCjYa6AhjQ1i.jpg", "release_date": "1980-12-17", "title": "Any Which Way You Can", "video": false, "vote_average": 6.0, "vote_count": 161, "popularity": 12.806}, {"adult": false, "backdrop_path": null, "genre_ids": [28, 878], "id": 624860, "original_language": "en", "original_title": "The Matrix 4", "overview": "The fourth installment in The Matrix franchise. Plot unknown.", "poster_path": "/uoQfAYR1NTax9akJ1ceeQTKNXeo.jpg", "release_date": "2021-05-20", "title": "The Matrix 4", "video": false, "vote_average": 0.0, "vote_count": 0, "popularity": 6.499}, {"id": 13813, "video": false, "vote_count": 1043, "vote_average": 6.8, "title": "Defiance", "release_date": "2008-12-31", "original_language": "en", "original_title": "Defiance", "genre_ids": [28, 18, 36, 10752], "backdrop_path": "/mP1kvOxeOSJ6sDB0bzqtmsDgXCQ.jpg", "adult": false, "overview": "Based on a true story, during World War II, four Jewish brothers escape their Nazi-occupied homeland of West Belarus in Poland and join the Soviet partisans to combat the Nazis. The brothers begin the rescue of roughly 1,200 Jews still trapped in the ghettos of Poland.", "poster_path": "/ArY2fs0nK6DbrCKrxaMeCTVRZ0i.jpg", "popularity": 18.968}, {"id": 301846, "video": false, "vote_count": 238, "vote_average": 5.2, "title": "Howl", "release_date": "2015-10-01", "original_language": "en", "original_title": "Howl", "genre_ids": [27], "backdrop_path": "/f6zcd6ZVviZnCdjqdtZtWKTNDDM.jpg", "adult": false, "overview": "When passengers on a train are attacked by a creature, they must band together in order to survive until morning.", "poster_path": "/sGEOC8x0lXSlIV4hoIZjnOnze9e.jpg", "popularity": 10.756}, {"id": 5698, "video": false, "vote_count": 268, "vote_average": 7.1, "title": "The Great Train Robbery", "release_date": "1903-12-01", "original_language": "en", "original_title": "The Great Train Robbery", "genre_ids": [28, 12, 80, 37], "backdrop_path": "/9GO8h44nckngDtdJ6R1QfIsl43j.jpg", "adult": false, "overview": "The clerk at the train station is assaulted and left tied by four men, then they rob the train threatening the operator. (They) take all the money and shoot a passenger when trying to run away. A little girl discovers the clerk tied and gives notice to the sheriff, who at once goes along with his men hunting the bandits.", "poster_path": "/uf7Hr1wuUh4T83Ifg5pVpwTqRdI.jpg", "popularity": 9.865}], "total_pages": 58, "total_results": 1155}, "recommendations": {"page": 1, "results": [{"id": 22595, "video": false, "vote_count": 37, "vote_average": 7.4, "title": "Speedy", "release_date": "1928-04-07", "original_language": "en", "original_title": "Speedy", "genre_ids": [28, 35, 10751], "backdrop_path": "/2LPEWa5AXpPP73CqmG3UJoggieq.jpg", "adult": false, "overview": "Speedy loses his job as a soda jerk, then spends the day with his girl at Coney Island. He then becomes a cab driver and delivers Babe Ruth to Yankee Stadium, where he stays to see the game. When the railroad tries to run the last horse-drawn trolley (operated by his girl's grandfather) out of business, Speedy organizes the neighborhood old-timers to thwart their scheme.", "poster_path": "/zGHqCG2ZM0iguDSESRSbFuB1lX5.jpg", "popularity": 4.805}, {"adult": false, "backdrop_path": "/dj8R2sd91iqW4wIpHc3PjfPwx8f.jpg", "genre_ids": [10749, 35, 28], "id": 42368, "original_language": "en", "original_title": "For Heaven's Sake", "overview": "An irresponsible young millionaire changes his tune when he falls for the daughter of a downtown minister.", "poster_path": "/o1800C0hiZFA7tUeINn5ERvWBAY.jpg", "release_date": "1926-04-05", "title": "For Heaven's Sake", "video": false, "vote_average": 7.4, "vote_count": 12, "popularity": 2.952}, {"id": 42359, "video": false, "vote_count": 45, "vote_average": 7.2, "title": "The Freshman", "release_date": "1925-09-20", "original_language": "en", "original_title": "The Freshman", "genre_ids": [35], "backdrop_path": "/xzN6CpcfwmuuVzZDjL0OirpRhQg.jpg", "adult": false, "overview": "Harold Lamb is so excited about going to college that he has been working to earn spending money, practicing college yells, and learning a special way of introducing himself that he saw in a movie. When he arrives at Tate University, he soon becomes the target of practical jokes and ridicule. With the help of his one real friend Peggy, he resolves to make every possible effort to become popular.", "poster_path": "/yJjyEOHp1dpspruvcY4jL4gydoL.jpg", "popularity": 3.991}, {"adult": false, "backdrop_path": "/S1woYJv1UZewcQYhn5wXV5fU98.jpg", "genre_ids": [35, 10751, 18], "id": 158800, "original_language": "en", "original_title": "A Majority of One", "overview": "A gentle love story about a Japanese businessman and widower, and a Brooklyn widow. But before a happy ending can ensue, they must learn again the lessons of tolerance, kindness and forgiveness.", "poster_path": "/6wXtf2UH3mqQCwviTkJ3p6QzqnH.jpg", "release_date": "1961-12-27", "title": "A Majority of One", "video": false, "vote_average": 5.9, "vote_count": 8, "popularity": 2.894}, {"adult": false, "backdrop_path": "/fGioD1AHRfknkgjLReBdpYOgCMn.jpg", "genre_ids": [18], "id": 87894, "original_language": "en", "original_title": "Mr. Wu", "overview": "A Chinese patriarch goes mad when his daughter falls for an Englishman.", "poster_path": "/nnTrqMKgHtGuCiGbs28Gu9mKL0g.jpg", "release_date": "1927-03-26", "title": "Mr. Wu", "video": false, "vote_average": 6.0, "vote_count": 8, "popularity": 4.303}, {"id": 75804, "video": false, "vote_count": 9, "vote_average": 6.3, "title": "The Toll of the Sea", "release_date": "1922-11-26", "original_language": "en", "original_title": "The Toll of the Sea", "genre_ids": [18, 14, 10751], "backdrop_path": "/bJJQ44KcnemptXXenQoKvelFa9y.jpg", "adult": false, "overview": "An American sailor marries then deserts the Chinese beauty who had saved his life.", "poster_path": "/ikQ7YoQ46AitwDsGTvIzoXaoMUL.jpg", "popularity": 3.213}, {"adult": false, "backdrop_path": "/kmjkRLZ0buMUFQF9ztxJRylij2F.jpg", "genre_ids": [10749, 37], "id": 32716, "original_language": "en", "original_title": "3 Bad Men", "overview": "Three outlaws come to the aid of a young girl after her father is killed. A silent film directed by John Ford.", "poster_path": "/2VcCg7Gfy5NW90G1HxTo4AE6HrM.jpg", "release_date": "1926-08-28", "title": "3 Bad Men", "video": false, "vote_average": 7.2, "vote_count": 13, "popularity": 3.443}, {"id": 35454, "video": false, "vote_count": 9, "vote_average": 5.9, "title": "A Throw of Dice", "release_date": "1929-08-16", "original_language": "hi", "original_title": "Prapancha Pash", "genre_ids": [12, 18, 10749], "backdrop_path": "/3cSlpoKVhx74fAkVXtJi1Db6PKD.jpg", "adult": false, "overview": "Two neighboring kings addicted to gambling, Ranjit and his cousin Sohat, vie for the same beautiful young woman, Sunita, daughter of the hermit Kanwa.", "poster_path": "/bC6XSb5XVd8hTr8tSqKq88mkfdN.jpg", "popularity": 2.394}, {"adult": false, "backdrop_path": null, "genre_ids": [18, 28, 37], "id": 95764, "original_language": "en", "original_title": "Tumbleweeds", "overview": "It's 1889 and the Cherokee Strip is about to be opened to settlers. After cowboy Dan Carver helps move the Box K cattle off the strip he meets Molly Lassiter. Attracted to her he decides to try to file on the Box K ranch for her. But when he returns to the strip to check for stray cattle, he is arrested as a Sooner and is now unable to participate in the land rush.", "poster_path": "/fPYYDmaI6pQ9YZ46iS5qkEzkwbC.jpg", "release_date": "1925-12-27", "title": "Tumbleweeds", "video": false, "vote_average": 5.6, "vote_count": 8, "popularity": 1.952}, {"adult": false, "backdrop_path": "/khC22Np8CdshUO83koAZYWNeEHi.jpg", "genre_ids": [12, 18], "id": 85697, "original_language": "en", "original_title": "Beggars of Life", "overview": "After killing her treacherous step-father, a girl tries to escape the country with a young vagabond. She dresses as a boy, they hop freight trains, quarrel with a group of hobos, and steal a car in their attempt to escape the police, and reach Canada.", "poster_path": "/yfnBNcNtke6v431QTmUW9Yt6L2a.jpg", "release_date": "1928-09-22", "title": "Beggars of Life", "video": false, "vote_average": 6.9, "vote_count": 12, "popularity": 2.486}, {"id": 40574, "video": false, "vote_count": 25, "vote_average": 6.9, "title": "Girl Shy", "release_date": "1924-04-20", "original_language": "en", "original_title": "Girl Shy", "genre_ids": [28, 35, 10749], "backdrop_path": "/3dQo8LENCY8uxnAH7TjiWTMq5MB.jpg", "adult": false, "overview": "Harold Meadows is a shy, stuttering bachelor working in a tailor shop, who is writing a guide book for other bashful young men, \"The Secret of Making Love.\" Fate has him meet rich girl, Mary, and they fall in love. But she is about to wed an already married man, so our hero embarks upon a hair-raising daredevil ride to prevent the wedding.", "poster_path": "/lndFFS75WM1NBCGo6t92q8D94FO.jpg", "popularity": 3.815}, {"adult": false, "backdrop_path": "/b41GdxorKr8DG84XLVeA7DQnylU.jpg", "genre_ids": [18, 10749], "id": 38687, "original_language": "en", "original_title": "Flesh and the Devil", "overview": "As lifelong best friends Leo and Ulrich return home following completion of their military training, Leo sees stunning Felicitas at the railway station and, mesmerized by her beauty, is smitten. A scandal follows, for which Leo is sent away. Returning home three years later, he discovers that much has changed.", "poster_path": "/AukaPg63BxnbIYjWuNjCBgGc7Mf.jpg", "release_date": "1926-12-25", "title": "Flesh and the Devil", "video": false, "vote_average": 7.2, "vote_count": 22, "popularity": 4.369}, {"adult": false, "backdrop_path": "/8RCgnLj9uuKYAuEOvjU6BSM4wfn.jpg", "genre_ids": [35, 18], "id": 54242, "original_language": "en", "original_title": "Mickey", "overview": "Mickey, an orphan who has been brought up in a mining settlement, is sent to New York to live with her aunt.", "poster_path": "/nKYY1cyxruMIDg2l6g8NOJA28JM.jpg", "release_date": "1918-08-01", "title": "Mickey", "video": false, "vote_average": 7.0, "vote_count": 8, "popularity": 3.032}, {"id": 91208, "video": false, "vote_count": 7, "vote_average": 6.6, "title": "Souls for Sale", "release_date": "1923-04-22", "original_language": "en", "original_title": "Souls for Sale", "genre_ids": [35, 18, 10749], "backdrop_path": "/eDeOyXenPOFy1SsDgv87Ejk5bE7.jpg", "adult": false, "overview": "A young woman hits Hollywood, determined to become a star.", "poster_path": "/hsx4NGXcbBDQ1KbdIo0bAkk11jQ.jpg", "popularity": 3.169}, {"adult": false, "backdrop_path": "/tF3P0scrDeYV8wC8Vs1ZBPQuiEJ.jpg", "genre_ids": [18], "id": 53939, "original_language": "en", "original_title": "Sons and Lovers", "overview": "The son of a working-class British mining family has dreams of pursuing an art career, but when he strikes up an affair with an older woman from the town it enrages his jealous mother. (TCM.com)", "poster_path": "/yrspbX5xqjRcZTzMsaGc9NxzjCO.jpg", "release_date": "1960-08-29", "title": "Sons and Lovers", "video": false, "vote_average": 6.7, "vote_count": 11, "popularity": 3.598}, {"adult": false, "backdrop_path": "/2lAbuGxptVNqylPefUsClL220ir.jpg", "genre_ids": [18, 9648], "id": 80639, "original_language": "en", "original_title": "They Won't Forget", "overview": "A southern town is rocked by scandal when teenager Mary Clay is murdered on Confederate Decoration Day. Andrew Griffin, a small-time lawyer with political ambitions, sees the crime as his ticket to the Senate if he can find the right victim to finger for the crime. He sets out to convict Robert Hale, a transplanted northerner who was Mary's teacher at the business school where she was killed. Despite the fact that all the evidence against Hale is circumstantial, Griffin works with a ruthless reporter to create a media frenzy of prejudice and hate against the teacher.", "poster_path": "/fTnLZXvRT0aep48FvRKIAvm3RWg.jpg", "release_date": "1937-07-14", "title": "They Won't Forget", "video": false, "vote_average": 5.1, "vote_count": 8, "popularity": 3.384}, {"adult": false, "backdrop_path": "/ug5BdBYFUyjCvSIKP54lXOnJsFw.jpg", "genre_ids": [10402, 18], "id": 72856, "original_language": "en", "original_title": "Hallelujah", "overview": "A black laborer turns preacher after accidentally killing a man.", "poster_path": "/eVFaCwo95VcAS8wzwuR1wIQ6LBr.jpg", "release_date": "1929-08-20", "title": "Hallelujah", "video": false, "vote_average": 6.2, "vote_count": 14, "popularity": 4.485}, {"adult": false, "backdrop_path": "/i6qWZPJUEtKAv5UrghL9NWJDBAw.jpg", "genre_ids": [18, 10749], "id": 227245, "original_language": "pl", "original_title": "Ostatni dzie\u0144 lata", "overview": "A subtle, almost quasi-documentary tale of a confrontation between two lonely people \u2014 one from which true understanding cannot seemingly result.", "poster_path": "/y4WhhQJpJVik1UV4d2o31ExcMoF.jpg", "release_date": "1958-08-04", "title": "The Last Day of Summer", "video": false, "vote_average": 6.6, "vote_count": 8, "popularity": 1.993}, {"id": 153165, "video": false, "vote_count": 5, "vote_average": 4.6, "title": "Dr. Kildare's Strange Case", "release_date": "1940-04-12", "original_language": "en", "original_title": "Dr. Kildare's Strange Case", "genre_ids": [18], "backdrop_path": "/3zZUpOPOKjaWR7H8ZZlYuauuF5P.jpg", "adult": false, "overview": "Kildare (Lew Ayres) tries brain surgery, advised by Dr. Gillespie (Lionel Barrymore), and faces a rival for nurse Lamont (Laraine Day).", "poster_path": "/8fcrKlRGtyA6sKKpx9wsfrz3FhS.jpg", "popularity": 3.073}, {"adult": false, "backdrop_path": "/v57nut6Xvpg3Q8Ea0gEyUKzgzU2.jpg", "genre_ids": [35, 9648, 10749], "id": 100113, "original_language": "en", "original_title": "Counter-Espionage", "overview": "The Lone Wolf tracks down Nazi spies in London during the German bombing.", "poster_path": "/1zVBHcrcTy80ZmJW9yKlhR1CMcY.jpg", "release_date": "1942-09-03", "title": "Counter-Espionage", "video": false, "vote_average": 6.3, "vote_count": 5, "popularity": 4.41}], "total_pages": 2, "total_results": 40}, "credits": {"cast": [{"cast_id": 5, "character": "Harold Hickory", "credit_id": "52fe46e39251416c75086dc5", "gender": 2, "id": 88953, "name": "Harold Lloyd", "order": 0, "profile_path": "/aE1pPjEoYOVeG9BtqoYkKePzgCd.jpg"}, {"cast_id": 2, "character": "Mary Powers", "credit_id": "52fe46e39251416c75086db5", "gender": 1, "id": 102501, "name": "Jobyna Ralston", "order": 1, "profile_path": "/tIPbxqkszkjOHc1VZVzONEWHtLu.jpg"}, {"cast_id": 6, "character": "Jim Hickory", "credit_id": "52fe46e39251416c75086dc9", "gender": 2, "id": 97996, "name": "Walter James", "order": 2, "profile_path": null}, {"cast_id": 7, "character": "Leo Hickory", "credit_id": "52fe46e39251416c75086dcd", "gender": 2, "id": 141140, "name": "Leo Willis", "order": 3, "profile_path": null}, {"cast_id": 8, "character": "Olin Hickory", "credit_id": "52fe46e39251416c75086dd1", "gender": 2, "id": 148401, "name": "Olin Francis", "order": 4, "profile_path": "/l7mivZGLt4gtCkEQCCFcHBCM0cn.jpg"}, {"cast_id": 9, "character": "Sandoni", "credit_id": "52fe46e39251416c75086dd5", "gender": 2, "id": 148402, "name": "Constantine Romanoff", "order": 5, "profile_path": "/z9ERbNoNfll9giTWo04jYbOW2xr.jpg"}, {"cast_id": 10, "character": "'Flash' Farrell", "credit_id": "52fe46e39251416c75086dd9", "gender": 2, "id": 9095, "name": "Eddie Boland", "order": 6, "profile_path": "/qqY6JXPaUYjpHVFgsDJx7Oxpwm1.jpg"}, {"cast_id": 11, "character": "Sam Hooper", "credit_id": "52fe46e39251416c75086ddd", "gender": 2, "id": 98000, "name": "Frank Lanning", "order": 7, "profile_path": "/vfHbFhJ3FJdyXdsEHYFdXenS6HF.jpg"}, {"cast_id": 12, "character": "Hank Hooper", "credit_id": "52fe46e39251416c75086de1", "gender": 2, "id": 148403, "name": "Ralph Yearsley", "order": 8, "profile_path": null}, {"cast_id": 19, "character": "Monkey (uncredited)", "credit_id": "5a5ea0540e0a264d37000a25", "gender": 0, "id": 29270, "name": "Jocko the Monkey", "order": 9, "profile_path": null}], "crew": [{"credit_id": "52fe46e39251416c75086dbb", "department": "Directing", "gender": 2, "id": 143558, "job": "Director", "name": "Ted Wilde", "profile_path": null}, {"credit_id": "52fe46e39251416c75086dc1", "department": "Directing", "gender": 0, "id": 143559, "job": "Director", "name": "J.A. Howe", "profile_path": null}, {"credit_id": "52fe46e39251416c75086de7", "department": "Writing", "gender": 2, "id": 143563, "job": "Story", "name": "John Grey", "profile_path": null}, {"credit_id": "52fe46e39251416c75086ded", "department": "Writing", "gender": 2, "id": 143558, "job": "Story", "name": "Ted Wilde", "profile_path": null}, {"credit_id": "52fe46e39251416c75086df3", "department": "Writing", "gender": 2, "id": 148404, "job": "Story", "name": "Thomas J. Crizer", "profile_path": null}, {"credit_id": "52fe46e39251416c75086df9", "department": "Writing", "gender": 2, "id": 143563, "job": "Scenario Writer", "name": "John Grey", "profile_path": null}, {"credit_id": "52fe46e39251416c75086dff", "department": "Writing", "gender": 0, "id": 144015, "job": "Scenario Writer", "name": "Lex Neal", "profile_path": null}, {"credit_id": "52fe46e39251416c75086e05", "department": "Writing", "gender": 2, "id": 103444, "job": "Scenario Writer", "name": "Howard J. Green", "profile_path": null}]}}