{"adult": false, "backdrop_path": "/uOXiay4PBrkPaYzM3fzrKbPmEd7.jpg", "belongs_to_collection": null, "budget": 0, "genres": [{"id": 80, "name": "Crime"}, {"id": 53, "name": "Thriller"}, {"id": 10770, "name": "TV Movie"}], "homepage": "", "id": 167330, "imdb_id": "tt2374308", "original_language": "de", "original_title": "Mord in Eberswalde", "overview": "", "popularity": 1.178, "poster_path": "/wlspYSvGFZbI9QpQCBExbiOWkba.jpg", "production_companies": [{"id": 46, "logo_path": "/3xFdKHLXPGHEbrAkmsepGE8974Y.png", "name": "Westdeutscher Rundfunk", "origin_country": "DE"}], "production_countries": [{"iso_3166_1": "DE", "name": "Germany"}], "release_date": "2013-01-30", "revenue": 0, "runtime": 90, "spoken_languages": [{"iso_639_1": "de", "name": "Deutsch"}], "status": "Released", "tagline": "", "title": "Mord in Eberswalde", "video": false, "vote_average": 6.3, "vote_count": 7, "keywords": {"keywords": [{"id": 1468, "name": "child murderer"}, {"id": 6149, "name": "police"}, {"id": 9826, "name": "murder"}]}, "similar": {"page": 1, "results": [{"adult": false, "backdrop_path": "/pA64Ov7lDpwXBu33yq0KpmAOYJL.jpg", "genre_ids": [27, 53], "id": 357096, "original_language": "en", "original_title": "I Spit on Your Grave III: Vengeance is Mine", "overview": "Jennifer Hills is still tormented by the brutal sexual assault she endured years ago. She\u2019s changed identities and cities, reluctantly joining a support group where she begins to piece together a new life. But when her new friend\u2019s murderer goes free and the tales of serial rapists haunt her, Jennifer will hunt down the men responsible and do what the system won\u2019t \u2013 make them pay for their crimes in the most horrific ways imaginable. Only this time, no jury may be able to save her.", "poster_path": "/6SnOlgrUoC5jqmgcYIM5lde5zYq.jpg", "release_date": "2015-10-01", "title": "I Spit on Your Grave III: Vengeance is Mine", "video": false, "vote_average": 5.3, "vote_count": 437, "popularity": 20.815}, {"adult": false, "backdrop_path": "/t3OZS8yMs0NL4YgWWc04eXHTn1X.jpg", "genre_ids": [28, 80, 53], "id": 984, "original_language": "en", "original_title": "Dirty Harry", "overview": "When a madman dubbed 'Scorpio' terrorizes San Francisco, hard-nosed cop, Harry Callahan \u2013 famous for his take-no-prisoners approach to law enforcement \u2013 is tasked with hunting down the psychopath. Harry eventually collars Scorpio in the process of rescuing a kidnap victim, only to see him walk on technicalities. Now, the maverick detective is determined to nail the maniac himself.", "poster_path": "/2TADKc4GMMPdMrLXj0xJVgTvZJM.jpg", "release_date": "1971-12-21", "title": "Dirty Harry", "video": false, "vote_average": 7.5, "vote_count": 1173, "popularity": 18.839}, {"id": 15069, "video": false, "vote_count": 75, "vote_average": 5.4, "title": "W\u0394Z", "release_date": "2007-05-19", "original_language": "en", "original_title": "W\u0394Z", "genre_ids": [80, 18, 27, 53], "backdrop_path": "/nVwdXjnbfulc6cymFgOQJctpspr.jpg", "adult": false, "overview": "There is something horribly wrong with the bodies found in the dark city streets. Some are mutilated while others have the Price equation (w\u0394z = Cov (w,z) = \u03b2wzVz) carved into their flesh. Detective Eddie Argo and his new partner Helen Westcott unearth the meaning of the odd equation and realise each victim is being offered a gruesome choice: kill your loved ones, or be killed. Before long it becomes clear that the perpetrator has suffered a similar fate and is now coping by seeking a way to solve this philosophical dilemma.", "poster_path": "/8lPZ59iQRqUELprKuB0myy7u6Zm.jpg", "popularity": 7.935}, {"adult": false, "backdrop_path": "/uUYCUbgI5VxsUflTMI4Y9L2Y6vb.jpg", "genre_ids": [80, 18, 53], "id": 11423, "original_language": "ko", "original_title": "\uc0b4\uc778\uc758 \ucd94\uc5b5", "overview": "1986 Gyunggi Province. The body of a young woman is found brutally raped and murdered. Two months later, a series of rapes and murders commences under similar circumstances. And in a country that had never known such crimes, the dark whispers about a serial murderer grow louder. A special task force is set up in the area, with two local detectives Park Doo-Man and Jo Young-Goo joined by a detective from Seoul who requested to be assigned to the case.", "poster_path": "/gawnVe9cFowdoDLo9Pok12NTw39.jpg", "release_date": "2003-05-02", "title": "Memories of Murder", "video": false, "vote_average": 8.1, "vote_count": 1093, "popularity": 13.452}, {"id": 8090, "video": false, "vote_count": 448, "vote_average": 6.1, "title": "Untraceable", "release_date": "2008-01-22", "original_language": "en", "original_title": "Untraceable", "genre_ids": [9648, 53], "backdrop_path": "/eXuIPt9I1xuaVddlgzEQRC2EMnJ.jpg", "adult": false, "overview": "Special Agent Jennifer Marsh (Diane Lane) works in an elite division of the FBI dedicated to fighting cybercrime. She thinks she has seen it all, until a particularly sadistic criminal arises on the Internet. This tech-savvy killer posts live feeds of his crimes on his website; the more hits the site gets, the faster the victim dies. Marsh and her team must find the elusive killer before time runs out.", "poster_path": "/ySUwDRDEn01lKIMPQorpFCMLWqE.jpg", "popularity": 14.431}, {"id": 75780, "video": false, "vote_count": 4451, "vote_average": 6.4, "title": "Jack Reacher", "release_date": "2012-12-20", "original_language": "en", "original_title": "Jack Reacher", "genre_ids": [28, 80, 18, 53], "backdrop_path": "/ezXodpP429qK0Av89pVNlaXWJkQ.jpg", "adult": false, "overview": "When a gunman takes five lives with six shots, all evidence points to the suspect in custody. On interrogation, the suspect offers up a single note: \"Get Jack Reacher!\" So begins an extraordinary chase for the truth, pitting Jack Reacher against an unexpected enemy, with a skill for violence and a secret to keep.", "poster_path": "/mt0ELw83HIRgaKaDzhsDcIi0RnW.jpg", "popularity": 15.945}, {"adult": false, "backdrop_path": "/2J283YNxKhxAqHeVegUJ5mzLfGb.jpg", "genre_ids": [80, 18, 9648], "id": 392044, "original_language": "en", "original_title": "Murder on the Orient Express", "overview": "Genius Belgian detective Hercule Poirot investigates the murder of an American tycoon aboard the Orient Express train.", "poster_path": "/iBlfxlw8qwtUS0R8YjIU7JtM6LM.jpg", "release_date": "2017-11-03", "title": "Murder on the Orient Express", "video": false, "vote_average": 6.7, "vote_count": 6050, "popularity": 27.701}, {"adult": false, "backdrop_path": "/o4psXh7IVD6GFKvBSHjHLzjL2lV.jpg", "genre_ids": [27, 53], "id": 10781, "original_language": "en", "original_title": "The Texas Chainsaw Massacre: The Beginning", "overview": "Chrissie and her friends set out on a road trip for a final fling before one is shipped off to Vietnam. Along the way, bikers harass the foursome and cause an accident that throws Chrissie from the vehicle. The lawman who arrives on the scene kills one of the bikers and brings Chrissie's friends to the Hewitt homestead, where young Leatherface is learning the tools of terror.", "poster_path": "/9elCJIG1TOJ0wew3JVx5ZMkHq5w.jpg", "release_date": "2006-10-06", "title": "The Texas Chainsaw Massacre: The Beginning", "video": false, "vote_average": 6.0, "vote_count": 936, "popularity": 19.211}, {"adult": false, "backdrop_path": "/a24i4Qw6qFTtkFLQsncv8WPwevj.jpg", "genre_ids": [53, 28, 80], "id": 345887, "original_language": "en", "original_title": "The Equalizer 2", "overview": "Robert McCall, who serves an unflinching justice for the exploited and oppressed, embarks on a relentless, globe-trotting quest for vengeance when a long-time girl friend is murdered.", "poster_path": "/cQvc9N6JiMVKqol3wcYrGshsIdZ.jpg", "release_date": "2018-07-19", "title": "The Equalizer 2", "video": false, "vote_average": 6.5, "vote_count": 2483, "popularity": 21.271}, {"id": 807, "video": false, "vote_count": 11937, "vote_average": 8.3, "title": "Se7en", "release_date": "1995-09-22", "original_language": "en", "original_title": "Se7en", "genre_ids": [80, 9648, 53], "backdrop_path": "/A0WKbRIojF9DUWG4XLCmg5JK6I5.jpg", "adult": false, "overview": "Two homicide detectives are on a desperate hunt for a serial killer whose crimes are based on the \"seven deadly sins\" in this dark and haunting film that takes viewers from the tortured remains of one victim to the next. The seasoned Det. Sommerset researches each sin in an effort to get inside the killer's mind, while his novice partner, Mills, scoffs at his efforts to unravel the case.", "poster_path": "/8zw8IL4zEPjkh8Aysdcd0FwGMb0.jpg", "popularity": 34.018}, {"id": 395834, "video": false, "vote_count": 2755, "vote_average": 7.4, "title": "Wind River", "release_date": "2017-08-03", "original_language": "en", "original_title": "Wind River", "genre_ids": [80, 18, 9648, 53], "backdrop_path": "/6B8e784decj9vtKuNjbl9Fes2aZ.jpg", "adult": false, "overview": "An FBI agent teams with the town's veteran game tracker to investigate a murder that occurred on a Native American reservation.", "poster_path": "/pySivdR845Hom4u4T2WNkJxe6Ad.jpg", "popularity": 16.931}, {"adult": false, "backdrop_path": "/8UkJSL5hlwGh3uSC5tyoaqhHQh7.jpg", "genre_ids": [80, 18, 53], "id": 18587, "original_language": "en", "original_title": "10 to Midnight", "overview": "Based on the real-life Richard Speck murders. After his bizarre behavior results in rejection from countless women, Warren Stacy begins murdering women, always while he is naked, which minimizes any physical evidence left behind. Detective Leo Kessler is convinced of Stacy\u2019s guilt and, over the objections of his partner, plants evidence to get him behind bars. When Stacy is released on a technicality, he threatens to go after Kessler and his family, leaving Kessler to defend himself with little help from the police.", "poster_path": "/bJiLyz6g8vsFgJ5oAdMWlQAWY4T.jpg", "release_date": "1983-03-11", "title": "10 to Midnight", "video": false, "vote_average": 6.0, "vote_count": 73, "popularity": 9.514}, {"id": 4771, "video": false, "vote_count": 2134, "vote_average": 7.3, "title": "Gone Baby Gone", "release_date": "2007-09-18", "original_language": "en", "original_title": "Gone Baby Gone", "genre_ids": [80, 18, 9648], "backdrop_path": "/sogh5NXPbKFajjYKBlfIBfCWgbq.jpg", "adult": false, "overview": "When 4 year old Amanda McCready disappears from her home and the police make little headway in solving the case, the girl's aunt, Beatrice McCready hires two private detectives, Patrick Kenzie and Angie Gennaro. The detectives freely admit that they have little experience with this type of case, but the family wants them for two reasons - they're not cops and they know the tough neighborhood in which they all live. As the case progresses, Kenzie and Gennaro face drug dealers, gangs and pedophiles. When they are about to solve the case, they are faced with a moral dilemma that tears them apart.", "poster_path": "/dXXMPxGiRegd7NNCtE5uchAKRAG.jpg", "popularity": 16.498}, {"adult": false, "backdrop_path": "/v761yOHKO3p6Yr7LDCjud6tUL5G.jpg", "genre_ids": [28, 80, 53], "id": 10651, "original_language": "en", "original_title": "The Dead Pool", "overview": "Dirty Harry Callahan returns for his final film adventure. Together with his partner Al Quan, he must investigate the systematic murder of actors and musicians. By the time Harry learns that the murders are a part of a sick game to predict the deaths of celebrities before they happen, it may be too late...", "poster_path": "/9ZUSqox9lIxN4xaYBac2QXMFcZj.jpg", "release_date": "1988-07-12", "title": "The Dead Pool", "video": false, "vote_average": 6.4, "vote_count": 389, "popularity": 10.626}, {"id": 37645, "video": false, "vote_count": 575, "vote_average": 6.5, "title": "22 Bullets", "release_date": "2010-03-23", "original_language": "fr", "original_title": "L'Immortel", "genre_ids": [28, 80, 53], "backdrop_path": "/mU8zfCOTbahNGH0ZBTCuNdX16gj.jpg", "adult": false, "overview": "Charly Mattei\u0308 has turned his back on his life as an outlaw. For the last three years, he's led a peaceful life devoting himself to his wife and two children. Then, one winter morning, he's left for dead in the parking garage in Marseille's Old Port, with 22 bullets in his body. Against all the odds, he doesn't die...", "poster_path": "/wTYZjPq4YA2wC99MdHZTFQuxFpd.jpg", "popularity": 12.785}, {"adult": false, "backdrop_path": "/xBhRhY8KimSrPx6AMJXigpzlGQ2.jpg", "genre_ids": [28, 35, 80], "id": 96, "original_language": "en", "original_title": "Beverly Hills Cop II", "overview": "Axel heads for the land of sunshine and palm trees to find out who shot police Captain Andrew Bogomil. Thanks to a couple of old friends, Axel's investigation uncovers a series of robberies masterminded by a heartless weapons kingpin\u2014and the chase is on.", "poster_path": "/2y1z1baxKT0coTTRlnkI6McnR9f.jpg", "release_date": "1987-05-18", "title": "Beverly Hills Cop II", "video": false, "vote_average": 6.4, "vote_count": 1235, "popularity": 13.336}, {"id": 369300, "video": false, "vote_count": 317, "vote_average": 6.0, "title": "The Limehouse Golem", "release_date": "2016-10-18", "original_language": "en", "original_title": "The Limehouse Golem", "genre_ids": [27, 9648, 53], "backdrop_path": "/jOsELWItMJOwqEXpUewV8zFH3eX.jpg", "adult": false, "overview": "A series of murders has shaken the community to the point where people believe that only a legendary creature from dark times \u2013 the mythical Golem \u2013 must be responsible.", "poster_path": "/u9NnEq4Be7hhwSvkNf6dOAD8ppi.jpg", "popularity": 13.502}, {"adult": false, "backdrop_path": "/4AXlsl0azR9d9xjX9tDdfAeM8lt.jpg", "genre_ids": [80, 18, 9648, 10749], "id": 25376, "original_language": "es", "original_title": "El secreto de sus ojos", "overview": "A retired legal counselor writes a novel hoping to find closure for one of his past unresolved homicide cases and for his unreciprocated love with his superior - both of which still haunt him decades later.", "poster_path": "/z2mUzEqDi7DtA1E4mYzVjbzXnqE.jpg", "release_date": "2009-08-13", "title": "The Secret in Their Eyes", "video": false, "vote_average": 7.9, "vote_count": 1288, "popularity": 11.544}, {"adult": false, "backdrop_path": "/a0UYovVNPVfWILYT7TzD10xBX3q.jpg", "genre_ids": [18, 53, 80, 9648], "id": 979, "original_language": "fr", "original_title": "Irr\u00e9versible", "overview": "Events over the course of one traumatic night in Paris unfold in reverse-chronological order as the beautiful Alex is brutally raped and beaten by a stranger in the underpass. Her boyfriend and ex-lover take matters into their own hands by hiring two criminals to help them find the rapist so that they can exact revenge. A simultaneously beautiful and terrible examination of the destructive nature of cause and effect, and how time destroys everything.", "poster_path": "/rxeDxo8FvZpLu6iplNpxdtAVnfu.jpg", "release_date": "2002-05-22", "title": "Irreversible", "video": false, "vote_average": 7.1, "vote_count": 1216, "popularity": 20.416}, {"adult": false, "backdrop_path": "/3TCPWrxQkfon82xPNtmpweOSVJc.jpg", "genre_ids": [18, 80, 9648, 10749, 53], "id": 12150, "original_language": "en", "original_title": "Sea of Love", "overview": "Seen-it-all New York detective Frank Keller is unsettled - he has done twenty years on the force and could retire, and he hasn't come to terms with his wife leaving him for a colleague. Joining up with an officer from another part of town to investigate a series of murders linked by the lonely hearts columns he finds he is getting seriously and possibly dangerously involved with Helen, one of the main suspects.", "poster_path": "/7DkkTHIX3hUqvsRv5sDmJAkCfKK.jpg", "release_date": "1989-09-15", "title": "Sea of Love", "video": false, "vote_average": 6.7, "vote_count": 290, "popularity": 10.636}], "total_pages": 421, "total_results": 8411}, "recommendations": {"page": 1, "results": [{"adult": false, "backdrop_path": "/mfglnchVs0CWDy3adEJD0NTaQPl.jpg", "genre_ids": [18, 10749], "id": 77691, "original_language": "de", "original_title": "Das Kaninchen bin ich", "overview": "The Rabbit Is Me was made in 1965 to encourage discussion of the democratization of East German society. In it, a young student has an affair with a judge who once sentenced her brother for political reasons; she eventually confronts him with his opportunism and hypocrisy. It is a sardonic portrayal of the German Democratic Republic's judicial system and its social implications. The film was banned by officials as an anti-socialist, pessimistic and revisionist attack on the state. It henceforth lent its name to all the banned films of 1965, which became known as the \"Rabbit Films.\" After its release in 1990, The Rabbit Is Me earned critical praise as one of the most important and courageous works ever made in East Germany. It was screened at The Museum of Modern Art in 2005 as part of the film series Rebels with a Cause: The Cinema of East Germany.", "poster_path": "/eBq6andMAUoC6jhiK8BFbGqMKSz.jpg", "release_date": "1965-10-25", "title": "The Rabbit Is Me", "video": false, "vote_average": 7.0, "vote_count": 6, "popularity": 1.72}], "total_pages": 1, "total_results": 1}, "credits": {"cast": [{"cast_id": 14, "character": "Stefan Witt", "credit_id": "5348e642c3a3684b93000d9a", "gender": 2, "id": 40634, "name": "Florian Panzner", "order": 0, "profile_path": "/uFThrzolaV3zPRnHyEpmmB1djOx.jpg"}, {"cast_id": 7, "character": "Heinz G\u00f6dicke", "credit_id": "52fe4caec3a36847f823a223", "gender": 2, "id": 49021, "name": "Ronald Zehrfeld", "order": 1, "profile_path": "/eG0nxLprz6ENiN3xfMjBZ8PvC7H.jpg"}, {"cast_id": 8, "character": "Carla B\u00f6hm", "credit_id": "52fe4caec3a36847f823a227", "gender": 1, "id": 1079462, "name": "Ulrike C. Tscharre", "order": 2, "profile_path": "/zwEAScd4MB0FR6UcBQDb9Dorp7H.jpg"}, {"cast_id": 9, "character": "Dr. Liebers", "credit_id": "52fe4caec3a36847f823a22b", "gender": 2, "id": 928468, "name": "Godehard Giese", "order": 3, "profile_path": "/2vz3pSqdPUEtJ5xcNTWh7eZVdkj.jpg"}, {"cast_id": 10, "character": "Georg Thom", "credit_id": "52fe4caec3a36847f823a22f", "gender": 2, "id": 44393, "name": "Martin Brambach", "order": 4, "profile_path": "/hhzG3JDXgWFtIgl9RwEX0JVbPN.jpg"}, {"cast_id": 13, "character": "Jan Voigt", "credit_id": "52fe4caec3a36847f823a23b", "gender": 2, "id": 928150, "name": "Gerdy Zint", "order": 7, "profile_path": "/fnwQebG8AcqcTlhfVhdjKCTCrA4.jpg"}, {"cast_id": 16, "character": "Karl Heinz Kische", "credit_id": "593b17be92514105e20013bf", "gender": 2, "id": 231635, "name": "Arved Birnbaum", "order": 8, "profile_path": "/nqFo4gR3v37ahwfe6KNIdsMyrCU.jpg"}, {"cast_id": 17, "character": "Erwin Hagedorn", "credit_id": "593b17d0c3a3680f330012b2", "gender": 0, "id": 1825968, "name": "Sergius Buckmeier", "order": 9, "profile_path": null}, {"cast_id": 19, "character": "Nadja St\u00fcbner", "credit_id": "593b17ef92514105b70013f1", "gender": 0, "id": 1831162, "name": "Anna Katrin Kl\u00f6pfer", "order": 11, "profile_path": null}, {"cast_id": 20, "character": "Franks Mutter", "credit_id": "593b180ac3a3680f14001408", "gender": 0, "id": 1831163, "name": "Beate G\u00e4rtner", "order": 12, "profile_path": null}, {"cast_id": 21, "character": "Gerhard St\u00fcbner", "credit_id": "593b1819c3a3680f8700154a", "gender": 0, "id": 1719653, "name": "Raiko K\u00fcster", "order": 13, "profile_path": null}, {"cast_id": 22, "character": "Dieter Hofmann", "credit_id": "593b182cc3a3680f330012eb", "gender": 0, "id": 1831165, "name": "Ingo van Gulijk", "order": 14, "profile_path": null}, {"cast_id": 23, "character": "Wachmann der Sowjetarmee", "credit_id": "593b183bc3a3680f5900144a", "gender": 2, "id": 1323642, "name": "Jens Kipper", "order": 15, "profile_path": null}, {"cast_id": 24, "character": "Professsor Schikowsky", "credit_id": "593b1854c3a3680f6700155c", "gender": 0, "id": 72852, "name": "Peter Harting", "order": 16, "profile_path": null}, {"cast_id": 25, "character": "Wirt", "credit_id": "593b18649251410597001453", "gender": 2, "id": 1249400, "name": "Thomas Gimbel", "order": 17, "profile_path": null}, {"cast_id": 26, "character": "Barfrau", "credit_id": "593b1875c3a3680f87001595", "gender": 1, "id": 1643632, "name": "Doris Plenert", "order": 18, "profile_path": null}, {"cast_id": 27, "character": "Lehmann, SED-Kreisleitung", "credit_id": "593b1893925141058f001591", "gender": 0, "id": 49306, "name": "Rolf Dennemann", "order": 19, "profile_path": null}, {"cast_id": 28, "character": "Anna Kreische", "credit_id": "593b189e9251410593001522", "gender": 1, "id": 50958, "name": "Sybille J. Schedwill", "order": 20, "profile_path": "/vGlAYdSicQCMUj31xzRArpE32cT.jpg"}, {"cast_id": 29, "character": "Oberst der Sowjetarmee", "credit_id": "593b18abc3a3680f870015bc", "gender": 2, "id": 28345, "name": "Mark Zak", "order": 21, "profile_path": "/z40WacN0nfck9xTIoHe7txudO0q.jpg"}, {"cast_id": 30, "character": "Rene M\u00fcller, Polizist", "credit_id": "593b18bbc3a3680f59001499", "gender": 2, "id": 72221, "name": "Rolf Berg", "order": 22, "profile_path": null}, {"cast_id": 31, "character": "Richter", "credit_id": "593b18c892514105b7001482", "gender": 0, "id": 48176, "name": "Axel Gottschick", "order": 23, "profile_path": null}, {"cast_id": 32, "character": "Frank Fuhrmann", "credit_id": "593b18d9c3a3680ee00017d6", "gender": 2, "id": 1351386, "name": "Damian Hardung", "order": 24, "profile_path": "/qU2DfL5eedrIZEfHbtO8VPVdkfF.jpg"}, {"cast_id": 33, "character": "", "credit_id": "593b18e6c3a3680f1400149d", "gender": 0, "id": 1831168, "name": "Ida Irmler", "order": 25, "profile_path": null}, {"cast_id": 34, "character": "Krankenschwester", "credit_id": "593b190192514105cf001618", "gender": 1, "id": 1253190, "name": "Bettina Kenney", "order": 26, "profile_path": "/s9bX40rKcKinymxqU0Cg83KKEow.jpg"}, {"cast_id": 35, "character": "Mitarbeiter der Staatssicherheit", "credit_id": "593b191dc3a3680f590014ef", "gender": 0, "id": 1572122, "name": "Peter Brachschoss", "order": 27, "profile_path": null}], "crew": [{"credit_id": "52fe4caec3a36847f823a20f", "department": "Writing", "gender": 2, "id": 32814, "job": "Writer", "name": "Holger Karsten Schmidt", "profile_path": "/ykJjexcLM401HvPiwowQpaXZJca.jpg"}, {"credit_id": "52fe4caec3a36847f823a21b", "department": "Sound", "gender": 2, "id": 43487, "job": "Music", "name": "Irmin Schmidt", "profile_path": null}, {"credit_id": "538f3ed3c3a3680d66000139", "department": "Directing", "gender": 2, "id": 48165, "job": "Director", "name": "Stephan Wagner", "profile_path": "/4rGn511RrqiAgrt3OehULC9I703.jpg"}, {"credit_id": "52fe4caec3a36847f823a215", "department": "Camera", "gender": 0, "id": 48170, "job": "Camera Operator", "name": "Thomas Benesch", "profile_path": null}]}}