{"adult": false, "backdrop_path": "/4Igb16xjtvARJdgqFzsfTWgKtbI.jpg", "belongs_to_collection": null, "budget": 10000000, "genres": [{"id": 28, "name": "Action"}, {"id": 12, "name": "Adventure"}, {"id": 35, "name": "Comedy"}, {"id": 10751, "name": "Family"}], "homepage": null, "id": 16790, "imdb_id": "tt0101455", "original_language": "en", "original_title": "Bingo", "overview": "Bingo, the runaway circus dog, is off the leash and saving Chuckie's life! Bingo and the boy become the best of friends in this canine comedy featuring doggy disguises and skateboarding, pinball and prison. Chuckie and his parents (Cindy Williams and David Rasche) are moving house, a thousand miles away, but Bingo won't be allowed to join them. Chuckie and Bingo's determination to be reunited is t", "popularity": 8.697, "poster_path": "/bKHC9qH1KzsVHCv7zb5te8X8FYs.jpg", "production_companies": [{"id": 559, "logo_path": "/eC0bWHVjnjUducyA6YFoEFqnPMC.png", "name": "TriStar Pictures", "origin_country": "US"}], "production_countries": [{"iso_3166_1": "US", "name": "United States of America"}], "release_date": "1991-08-09", "revenue": 8667684, "runtime": 90, "spoken_languages": [{"iso_639_1": "fr", "name": "Fran\u00e7ais"}, {"iso_639_1": "en", "name": "English"}, {"iso_639_1": "it", "name": "Italiano"}, {"iso_639_1": "nl", "name": "Nederlands"}, {"iso_639_1": "es", "name": "Espa\u00f1ol"}], "status": "Released", "tagline": "More hip than humanly possible.", "title": "Bingo", "video": false, "vote_average": 5.1, "vote_count": 53, "keywords": {"keywords": [{"id": 2551, "name": "pet"}, {"id": 15162, "name": "dog"}, {"id": 207834, "name": "pet owner reunion"}]}, "similar": {"page": 1, "results": [{"adult": false, "backdrop_path": "/kFkFiDdTGv1eb5C0P44KFUGstBA.jpg", "genre_ids": [10751, 12, 35, 16], "id": 13654, "original_language": "en", "original_title": "101 Dalmatians II: Patch's London Adventure", "overview": "Being one of 101 takes its toll on Patch, who doesn't feel unique. When he's accidentally left behind on moving day, he meets his idol, Thunderbolt, who enlists him on a publicity campaign.", "poster_path": "/ht4h6I7WwaZa1E8xzb1jE94mDvS.jpg", "release_date": "2003-01-21", "title": "101 Dalmatians II: Patch's London Adventure", "video": false, "vote_average": 5.9, "vote_count": 652, "popularity": 18.617}, {"id": 12230, "video": false, "vote_count": 3835, "vote_average": 7.1, "title": "One Hundred and One Dalmatians", "release_date": "1961-01-25", "original_language": "en", "original_title": "One Hundred and One Dalmatians", "genre_ids": [12, 16, 35, 10751], "backdrop_path": "/vHBYOUjt04iI0COvMtPAMa2pC9y.jpg", "adult": false, "overview": "When a litter of dalmatian puppies are abducted by the minions of Cruella De Vil, the parents must find them before she uses them for a diabolical fashion statement.", "poster_path": "/9klDisS1sVb5LljRhpYJ0TUbPzt.jpg", "popularity": 24.486}, {"id": 11674, "video": false, "vote_count": 1934, "vote_average": 5.8, "title": "101 Dalmatians", "release_date": "1996-11-17", "original_language": "en", "original_title": "101 Dalmatians", "genre_ids": [35, 10751], "backdrop_path": "/4CcoF2VSW6GD21DGbmpxWMWafaE.jpg", "adult": false, "overview": "The Live action adaptation of a Disney Classic. When a litter of dalmatian puppies are abducted by the minions of Cruella De Vil, the parents must find them before she uses them for a diabolical fashion statement.", "poster_path": "/8o2ADoAyG796UwTjwBFjPyBz0yG.jpg", "popularity": 21.811}, {"adult": false, "backdrop_path": "/hpIUiHIyNKWsid3Tz4adtYsUqo1.jpg", "genre_ids": [16, 12, 10751], "id": 82703, "original_language": "en", "original_title": "Mr. Peabody & Sherman", "overview": "A young boy and his dog, who happens to have a genius-level IQ, spring into action when their time-machine is stolen and moments in history begin to be changed.", "poster_path": "/q4FQXK4a4HSb4pajZL4ZFKHVsjC.jpg", "release_date": "2014-02-07", "title": "Mr. Peabody & Sherman", "video": false, "vote_average": 6.6, "vote_count": 1489, "popularity": 16.57}, {"id": 10345, "video": false, "vote_count": 470, "vote_average": 5.8, "title": "K-9", "release_date": "1989-04-28", "original_language": "en", "original_title": "K-9", "genre_ids": [28, 35, 80], "backdrop_path": "/cpeXyg83ONQCMGcTixIJ4pNcNlN.jpg", "adult": false, "overview": "The extravagant cop Michael Dooley needs some help to fight a drug dealer who has tried to kill him. A \"friend\" gives him a dog named Jerry Lee (Officer Lewis), who has been trained to smell drugs. With his help, Dooley sets out to put his enemy behind the bars, but Jerry Lee has a personality of his own and works only when he wants to. On the other hand, the dog is quite good at destroying Dooley's car, house and sex-life...", "poster_path": "/21mBNUe0X4WYywe6w5DyihltmAn.jpg", "popularity": 14.752}, {"adult": false, "backdrop_path": "/fkxHaPJaB35wnoUC7glF16W3lWH.jpg", "genre_ids": [16, 12, 10751], "id": 21032, "original_language": "en", "original_title": "Balto", "overview": "An outcast half-wolf risks his life to prevent a deadly epidemic from ravaging Nome, Alaska.", "poster_path": "/gV5PCAVCPNxlOLFM1bKk50EqLXO.jpg", "release_date": "1995-12-22", "title": "Balto", "video": false, "vote_average": 7.3, "vote_count": 1190, "popularity": 16.672}, {"id": 381289, "video": false, "vote_count": 1744, "vote_average": 7.3, "title": "A Dog's Purpose", "release_date": "2017-01-19", "original_language": "en", "original_title": "A Dog's Purpose", "genre_ids": [12, 35, 18, 14, 10751], "backdrop_path": "/2ddVTlMyATZdvUHE7DPExA2X6xF.jpg", "adult": false, "overview": "A dog goes on quest to discover his purpose in life over the course of several lifetimes with multiple owners.", "poster_path": "/3jcNvhtVQe5Neoffdic39fRactM.jpg", "popularity": 16.784}, {"id": 533, "video": false, "vote_count": 1440, "vote_average": 6.9, "title": "Wallace & Gromit: The Curse of the Were-Rabbit", "release_date": "2005-09-04", "original_language": "en", "original_title": "Wallace & Gromit: The Curse of the Were-Rabbit", "genre_ids": [12, 16, 35, 10751], "backdrop_path": "/v45E1vDhPp2hc1dEZx5KZuRsSxX.jpg", "adult": false, "overview": "Cheese-loving eccentric Wallace and his cunning canine pal, Gromit, investigate a mystery in Nick Park's animated adventure, in which the lovable inventor and his intrepid pup run a business ridding the town of garden pests. Using only humane methods that turn their home into a halfway house for evicted vermin, the pair stumble upon a mystery involving a voracious vegetarian monster that threatens to ruin the annual veggie-growing contest.", "poster_path": "/tLryx0x9TDV5rifA9W8yUvDZFHB.jpg", "popularity": 23.185}, {"id": 10948, "video": false, "vote_count": 1938, "vote_average": 7.1, "title": "The Fox and the Hound", "release_date": "1981-07-10", "original_language": "en", "original_title": "The Fox and the Hound", "genre_ids": [12, 16, 18, 10751], "backdrop_path": "/87uShMszqPxwA034GsskGdzJOgN.jpg", "adult": false, "overview": "When a feisty little fox named Tod is adopted into a farm family, he quickly becomes friends with a fun and adorable hound puppy named Copper. Life is full of hilarious adventures until Copper is expected to take on his role as a hunting dog -- and the object of his search is his best friend!", "poster_path": "/1382VHxqZDXu2t8i46zf4fP71JG.jpg", "popularity": 17.795}, {"id": 399174, "video": false, "vote_count": 2440, "vote_average": 7.9, "title": "Isle of Dogs", "release_date": "2018-03-23", "original_language": "en", "original_title": "Isle of Dogs", "genre_ids": [12, 16, 35], "backdrop_path": "/5YtXsLG9ncjjFyGZjoeV31CGf01.jpg", "adult": false, "overview": "In the future, an outbreak of canine flu leads the mayor of a Japanese city to banish all dogs to an island that's a garbage dump. The outcasts must soon embark on an epic journey when a 12-year-old boy arrives on the island to find his beloved pet.", "poster_path": "/c0nUX6Q1ZB0P2t1Jo6EeFSVnOGQ.jpg", "popularity": 16.915}, {"adult": false, "backdrop_path": "/bRLRsAORRuTfZj5XcGWpNXPlt1z.jpg", "genre_ids": [35, 10751], "id": 11806, "original_language": "en", "original_title": "Beethoven", "overview": "The Newton family live in their comfortable home, but there seems to something missing. This \"hole\" is filled by a small puppy, who walks into their home and their lives. Beethoven, as he is named, grows into a giant of a dog... a St Bernard. Doctor Varnick, the local vet has a secret and horrible sideline, which requires lots of dogs for experiments. Beethoven is on the bad doctor's list.", "poster_path": "/rjmkdq77jvcJgXn0E88Fl2Qu7vI.jpg", "release_date": "1992-04-03", "title": "Beethoven", "video": false, "vote_average": 5.7, "vote_count": 1115, "popularity": 20.672}, {"adult": false, "backdrop_path": "/fX6o5DCdGVEEZ1OT1IourOUkQMb.jpg", "genre_ids": [16, 35, 10751, 37, 12], "id": 44896, "original_language": "en", "original_title": "Rango", "overview": "When Rango, a lost family pet, accidentally winds up in the gritty, gun-slinging town of Dirt, the less-than-courageous lizard suddenly finds he stands out. Welcomed as the last hope the town has been waiting for, new Sheriff Rango is forced to play his new role to the hilt.", "poster_path": "/afxRbCwwKjrWgGJtsVNs1BW1Dk5.jpg", "release_date": "2011-03-02", "title": "Rango", "video": false, "vote_average": 6.6, "vote_count": 3767, "popularity": 18.996}, {"id": 9598, "video": false, "vote_count": 1734, "vote_average": 6.1, "title": "Babe", "release_date": "1995-07-18", "original_language": "en", "original_title": "Babe", "genre_ids": [35, 18, 14, 10751], "backdrop_path": "/67jzzA7YqDTR5qIUhAH32cvkf53.jpg", "adult": false, "overview": "Babe is a little pig who doesn't quite know his place in the world. With a bunch of odd friends, like Ferdinand the duck who thinks he is a rooster and Fly the dog he calls mom, Babe realizes that he has the makings to become the greatest sheep pig of all time, and Farmer Hogget knows it. With the help of the sheep dogs Babe learns that a pig can be anything that he wants to be.", "poster_path": "/k42J5jYjvw1DEGBQP63VYYvteY7.jpg", "popularity": 18.246}, {"id": 46195, "video": false, "vote_count": 4079, "vote_average": 6.6, "title": "Rio", "release_date": "2011-04-03", "original_language": "en", "original_title": "Rio", "genre_ids": [12, 16, 35, 10751], "backdrop_path": "/odbEuhGUgSkeWWD1sPoylXTZMUa.jpg", "adult": false, "overview": "Captured by smugglers when he was just a hatchling, a macaw named Blu never learned to fly and lives a happily domesticated life in Minnesota with his human friend, Linda. Blu is thought to be the last of his kind, but when word comes that Jewel, a lone female, lives in Rio de Janeiro, Blu and Linda go to meet her. Animal smugglers kidnap Blu and Jewel, but the pair soon escape and begin a perilous adventure back to freedom -- and Linda.", "poster_path": "/isQ9BSjdF8IrSm2g4WPHSJYN5s9.jpg", "popularity": 18.907}, {"id": 11024, "video": false, "vote_count": 1453, "vote_average": 5.7, "title": "Scooby-Doo 2: Monsters Unleashed", "release_date": "2004-03-24", "original_language": "en", "original_title": "Scooby-Doo 2: Monsters Unleashed", "genre_ids": [12, 35, 14, 9648], "backdrop_path": "/2vRVzvqY0tydcStBkNn73JPPOPL.jpg", "adult": false, "overview": "When Mystery, Inc. are guests of honor at the grand opening of the Coolsville Museum of Criminology, a masked villain shows up and creates havoc before stealing the costumes of the gang's most notorious villains...Could it be that their nemesis, mad scientist Jonathan Jacobo has returned and is trying to recreate their deadliest foes?", "poster_path": "/vEp6qw25qY2n03O9EaeiWNv89vb.jpg", "popularity": 16.572}, {"id": 508763, "video": false, "vote_count": 383, "vote_average": 6.7, "title": "A Dog's Way Home", "release_date": "2019-01-10", "original_language": "en", "original_title": "A Dog's Way Home", "genre_ids": [12, 18, 10751], "backdrop_path": "/w7MsyOpP003FYhsiTgVHa3rNsrz.jpg", "adult": false, "overview": "A Dog\u2019s Way Home chronicles the heartwarming adventure of Bella, a dog who embarks on an epic 400-mile journey home after she is separated from her beloved human.", "poster_path": "/pZn87R7gtmMCGGO8KeaAfZDhXLg.jpg", "popularity": 16.541}, {"adult": false, "backdrop_path": "/jDLJ1X0YCzTD5Jh5WxfN7wD0pyN.jpg", "genre_ids": [16, 35, 10751], "id": 12233, "original_language": "en", "original_title": "Oliver & Company", "overview": "This animated take on Oliver Twist re-imagines Oliver as an adorable orphaned kitten who struggles to survive in New York City and falls in with a band of canine criminals led by an evil human. First, Oliver meets Dodger, a carefree mutt with street savoir faire. But when Oliver meets wealthy Jenny on one of the gang's thieving missions, his life changes forever.", "poster_path": "/m54pXsIUy3IJoaGhk3RwKsZQPG8.jpg", "release_date": "1988-11-18", "title": "Oliver & Company", "video": false, "vote_average": 6.7, "vote_count": 901, "popularity": 15.777}, {"id": 927, "video": false, "vote_count": 3738, "vote_average": 7.1, "title": "Gremlins", "release_date": "1984-06-07", "original_language": "en", "original_title": "Gremlins", "genre_ids": [35, 14, 27], "backdrop_path": "/xZ5SUO6YtIcSwRuKZhNLBfCJzpv.jpg", "adult": false, "overview": "When Billy Peltzer is given a strange but adorable pet named Gizmo for Christmas, he inadvertently breaks the three important rules of caring for a Mogwai, and unleashes a horde of mischievous gremlins on a small town.", "poster_path": "/atBZUwRpx60ZpzcM9yOB4E8nuY.jpg", "popularity": 22.601}, {"id": 1598, "video": false, "vote_count": 1631, "vote_average": 7.2, "title": "Cape Fear", "release_date": "1991-11-15", "original_language": "en", "original_title": "Cape Fear", "genre_ids": [53], "backdrop_path": "/zDVrWS9PzI0HJU1kyfO6UNsx9br.jpg", "adult": false, "overview": "Sam Bowden is a small-town corporate attorney. Max Cady is a tattooed, cigar-smoking, bible-quoting, psychotic rapist. What do they have in common? Fourteen years ago, Sam was a public defender assigned to Max Cady's rape trial, and he made a serious error: he hid a document from his illiterate client that could have gotten him acquitted. Now, the cagey, bibliophile Cady has been released, and he intends to teach Sam Bowden and his family a thing or two about loss.", "poster_path": "/4KvrvcqckdupXXO2YnANtyG7QLK.jpg", "popularity": 14.046}, {"id": 245891, "video": false, "vote_count": 11528, "vote_average": 7.2, "title": "John Wick", "release_date": "2014-10-22", "original_language": "en", "original_title": "John Wick", "genre_ids": [28, 53], "backdrop_path": "/iJlGxN0p1suzloBGvvBu3QSSlhT.jpg", "adult": false, "overview": "Ex-hitman John Wick comes out of retirement to track down the gangsters that took everything from him.", "poster_path": "/5vHssUeVe25bMrof1HyaPyWgaP.jpg", "popularity": 71.02}], "total_pages": 37, "total_results": 724}, "recommendations": {"page": 1, "results": [{"adult": false, "backdrop_path": "/44AUg78Bh1riStNYaaa370CTYfq.jpg", "genre_ids": [12, 35, 10751], "id": 15170, "original_language": "en", "original_title": "Buddy", "overview": "An eccentric socialite raises a gorilla as her son.", "poster_path": "/kbf9TnR3j81cRtafGDiGaMdTOz8.jpg", "release_date": "1997-06-06", "title": "Buddy", "video": false, "vote_average": 4.3, "vote_count": 33, "popularity": 4.167}, {"id": 40688, "video": false, "vote_count": 40, "vote_average": 4.1, "title": "Meet the Deedles", "release_date": "1998-03-27", "original_language": "en", "original_title": "Meet the Deedles", "genre_ids": [35, 10751], "backdrop_path": "/qv9y9c5pKsBfMFNyxCrgwf8OyVP.jpg", "adult": false, "overview": "Two surfers end up as Yellowstone park rangers and have to stop a former ranger who is out for revenge.", "poster_path": "/cTqPqHGXkmRnIpSq3VEXdIyXyYC.jpg", "popularity": 5.914}, {"id": 21352, "video": false, "vote_count": 67, "vote_average": 5.2, "title": "Andr\u00e9", "release_date": "1994-08-17", "original_language": "en", "original_title": "Andr\u00e9", "genre_ids": [12, 18, 10751], "backdrop_path": "/l0CO255nMbn0kv1e8rbrSUmerlk.jpg", "adult": false, "overview": "The true story of how a marine seal named Andre befriended a little girl and her family, circa 1962.", "poster_path": "/dB6aXyLns7nKsxcPAE5Dj40dNSx.jpg", "popularity": 8.87}, {"adult": false, "backdrop_path": "/aM2uocp6daoQLpmjGSsSLmYLsya.jpg", "genre_ids": [10749, 18], "id": 118430, "original_language": "en", "original_title": "The Forbidden Dance", "overview": "A princess in the Amazon rain forests tries to fight a conglomerate threatening the forests by going to Los Angeles. There she links up with a rich kid who tells her that she must get on television to succeed with her mission. Quick as a wink, the two come up with the idea of winning a lambada dance contest.", "poster_path": "/pYuwYXdChx3RM0Fdf7IyqzNidOf.jpg", "release_date": "1990-03-16", "title": "The Forbidden Dance", "video": false, "vote_average": 3.6, "vote_count": 20, "popularity": 4.54}, {"id": 73901, "video": false, "vote_count": 31, "vote_average": 6.6, "title": "Wakko's Wish", "release_date": "1999-12-20", "original_language": "en", "original_title": "Wakko's Wish", "genre_ids": [16, 35, 10402], "backdrop_path": "/r9p91rPkPM3WA25nY1icSVSkFAi.jpg", "adult": false, "overview": "Steven Spielberg Presents Animaniacs: Wakko's Wish, usually referred to as Wakko's Wish is a 1999 American direct-to-video animated tragicomedy film based on the Warner Bros. 1993-98 animated series, Animaniacs, and also the swan song to the original series before its renewal in 2017. The film relocates all the Animaniacs characters to a quasi-medieval fairy tale world and portrays their race to find the wishing star that will grant them a wish. While the film was released during the Christmas season, the holiday is not a factor in its plot, though the events do take place during winter.", "poster_path": "/suIB8jSYQmIvM88nRFHZSxLdwVk.jpg", "popularity": 5.714}, {"adult": false, "backdrop_path": "/gOqIEKn121IPoSceqQSxfrpsXU4.jpg", "genre_ids": [35, 18, 10749], "id": 31564, "original_language": "en", "original_title": "Lunatics: A Love Story", "overview": "In the seedy part of Los Angeles, a man who writes poetry has spent six months without leaving his apartment because of his paranoid delusions involving sadistic doctors, rappers, and spiders. A woman who seems to jinx things by wanting to help is dumped by her boyfriend and finds herself penniless on the streets, and soon runs afoul of a local gang. Due to a telephone glitch, the man calls her at a phone booth trying to dial a \"talk line\" and invites her to his place. There they must help each other to overcome their respective problems.", "poster_path": "/azI5uZGXmsxLnLM2SVQQ1J8v4pK.jpg", "release_date": "1991-01-01", "title": "Lunatics: A Love Story", "video": false, "vote_average": 4.1, "vote_count": 6, "popularity": 4.057}, {"adult": false, "backdrop_path": null, "genre_ids": [28, 12, 878, 53], "id": 36859, "original_language": "en", "original_title": "Bells of Innocence", "overview": "Jux Jonas (Mike Norris) is stuck deep in the heart of Texas with his friends Oren (Carey Scott) and Conrad (David White) after an emergency plane landing. Soon, they realize they're far from safety, stranded in a strange community where the locals seem under the spell of a voice from a short-wave radio owned by a local rancher (Marshall Teague). Will they ever escape? Also co-stars Norris's famous father, Chuck, in a supporting role.", "poster_path": "/4bGopQJcTCojvdmm7CRDgD3WBIz.jpg", "release_date": "2003-01-01", "title": "Bells of Innocence", "video": false, "vote_average": 1.6, "vote_count": 10, "popularity": 3.136}, {"adult": false, "backdrop_path": "/32ExoMkCFhlc8smTA8YC993nZrW.jpg", "genre_ids": [35, 10749], "id": 70148, "original_language": "pt", "original_title": "Houve uma Vez Dois Ver\u00f5es", "overview": "A coming of age dramatic comedy dealing with the effect that two \"summers\" have on the lives of several teenagers. The main story involves an innocent teenage boy and a conniving teenage girl who meet on a beach one summer in Southern Brazil. They meet up again the following summer", "poster_path": "/pXSZdgnZHe2LPf8gV0yuI8rksN1.jpg", "release_date": "2002-12-28", "title": "Houve uma Vez Dois Ver\u00f5es", "video": false, "vote_average": 6.2, "vote_count": 11, "popularity": 1.791}, {"adult": false, "backdrop_path": "/lMqDxfPtuyFFr3RpLVs2kRefMzh.jpg", "genre_ids": [12, 16, 10751, 14], "id": 42001, "original_language": "en", "original_title": "The Princess and the Goblin", "overview": "The story is about the Princess Irene and a young warrior boy named Curty. Irene must use her magic power to fight off goblins and save the kingdom.", "poster_path": "/9WqrpzM05XAELZiSKX6rLmhg4HG.jpg", "release_date": "1992-12-18", "title": "The Princess and the Goblin", "video": false, "vote_average": 5.5, "vote_count": 24, "popularity": 5.97}, {"adult": false, "backdrop_path": "/eJR91XfNz1Bx0SMILVQ02c25iEI.jpg", "genre_ids": [35, 10751], "id": 42580, "original_language": "en", "original_title": "Life with Mikey", "overview": "Michael Chapman was once a child TV star. But when he grew up, he couldn't get work. So he and his brother, Ed start their own talent agency that specializes in child acts. They can't seem to find the next big thing and they have to deal with another agency who's not above bribery to get the kids to sign with them. One day Michael meets a girl named Angie and she's a real spitfire. Michael thinks she could be what they are looking for. Problem is that she has a big chip on her shoulder.", "poster_path": "/yFyDtoGn1XYnDi9KCTouisLKWrd.jpg", "release_date": "1993-06-04", "title": "Life with Mikey", "video": false, "vote_average": 5.4, "vote_count": 61, "popularity": 6.13}, {"id": 17770, "video": false, "vote_count": 36, "vote_average": 5.4, "title": "Trial and Error", "release_date": "1997-05-30", "original_language": "en", "original_title": "Trial and Error", "genre_ids": [35, 10749], "backdrop_path": "/hqn2GTCYk1qbUKM0oVtkdPRsSlF.jpg", "adult": false, "overview": "An actor poses as a lawyer to help his sick friend, and problems develop.", "poster_path": "/e9QDfK4ChiUa8gekyg54cMqA3Uo.jpg", "popularity": 7.83}, {"adult": false, "backdrop_path": "/zubtwxr6iC1348n1hcNzx8IebMO.jpg", "genre_ids": [10751, 35, 80], "id": 41579, "original_language": "en", "original_title": "Getting Even with Dad", "overview": "Ray, an ex-con and widower, is planning a coin heist with two accomplices to help him to buy his own bakery. However, he doesn't expect his son Timmy, who was living with Ray's sister, to show up at the house right in the middle of planning. Timmy is ignored and Ray and his buddies pull off the heist. Timmy gets his father's attention by stealing the coins and hiding them. To get them back, his father must take him to a number of different places and treat him like he enjoys his presence. They grow fond of each other but Timmy won't stay with his dad unless he gives up the coins.", "poster_path": "/W6mvVkoXr9SzYxVeM0OtsdL5B1.jpg", "release_date": "1994-06-17", "title": "Getting Even with Dad", "video": false, "vote_average": 4.9, "vote_count": 96, "popularity": 8.455}, {"adult": false, "backdrop_path": "/MGxOhhRqYyVIge5sPGE4DHB7h.jpg", "genre_ids": [18, 10749], "id": 28320, "original_language": "en", "original_title": "Aurora Borealis", "overview": "A young man struggles to correct his life after the death of his father.", "poster_path": "/wqoFCcvWvmYlC4HJ9ikT7YeLDIo.jpg", "release_date": "2005-04-22", "title": "Aurora Borealis", "video": false, "vote_average": 6.6, "vote_count": 17, "popularity": 5.46}, {"id": 33657, "video": false, "vote_count": 11, "vote_average": 3.6, "title": "A Smile Like Yours", "release_date": "1997-08-27", "original_language": "en", "original_title": "A Smile Like Yours", "genre_ids": [35, 10749], "backdrop_path": "/7IDfBrAYFllo1ng8SKGvo4w2vBM.jpg", "adult": false, "overview": "A comedy about a couple who cannot conceive a baby", "poster_path": "/sm7eMB5PDR4pwJBX8uu1E0y6q60.jpg", "popularity": 5.858}, {"adult": false, "backdrop_path": "/o6nbpD7TDduADyVPMkTQocHNacy.jpg", "genre_ids": [27], "id": 74101, "original_language": "en", "original_title": "Dark Harvest", "overview": "A group of teenagers go to the family farm of one of them only to be attacked by a killer scarecrow.", "poster_path": "/vYWcFDQT1JG0a11JhcYCl1J6gKQ.jpg", "release_date": "2004-04-20", "title": "Dark Harvest", "video": false, "vote_average": 2.0, "vote_count": 10, "popularity": 4.373}, {"adult": false, "backdrop_path": "/abHgETrV3xOEsfKt7E1kCVhkBr6.jpg", "genre_ids": [35, 18, 10751], "id": 20551, "original_language": "en", "original_title": "Ernest Goes to School", "overview": "Jim Varney's recurring dim-bulb character Ernest P. Worrell returns in this film as a school bus driver seeking to obtain a high school diploma.", "poster_path": "/9yfXHHySBsWClyLLMPnckW1EUxk.jpg", "release_date": "1994-12-14", "title": "Ernest Goes to School", "video": false, "vote_average": 3.8, "vote_count": 39, "popularity": 5.692}, {"id": 44772, "video": false, "vote_count": 21, "vote_average": 5.5, "title": "No Small Affair", "release_date": "1984-11-09", "original_language": "en", "original_title": "No Small Affair", "genre_ids": [35, 18, 10749], "backdrop_path": "/sntY5gyqMjt3jZKqRS2fcBStbY3.jpg", "adult": false, "overview": "The 16 years old amateur photographer Charles accidentally takes a photo of Laura - and falls in love with her, when he develops the picture. He finds out that she works as singer in a bar, but is about to be thrown out. Although rejected at first by the 23 years old, he wants to help her and starts an ad campaign behind her back... with unexpected results.", "poster_path": "/s2VU2KPRZrLOvvALKo2Y39Z2SbL.jpg", "popularity": 5.637}, {"adult": false, "backdrop_path": "/b1gGis5F6XYdsi4uiweb4MMRTDc.jpg", "genre_ids": [18, 35], "id": 161495, "original_language": "en", "original_title": "Roommates", "overview": "An elderly, yet young-at-heart man, moves in with his grandson, and both their lives turn upside-down.", "poster_path": "/6ul4lqY6uvv6rwvoLscYJSQhAxj.jpg", "release_date": "1995-03-03", "title": "Roommates", "video": false, "vote_average": 6.4, "vote_count": 14, "popularity": 5.89}, {"adult": false, "backdrop_path": "/xNrO0qaRzzy8AfzGf3bBSw3TCRg.jpg", "genre_ids": [35, 10751], "id": 17207, "original_language": "en", "original_title": "Houseguest", "overview": "In hot water with the mob over an unpaid debt, a con man poses as a family friend in an affluent Pennsylvania suburb.", "poster_path": "/ooecEcidUyhRGohRZclzs0SNLd1.jpg", "release_date": "1995-01-06", "title": "Houseguest", "video": false, "vote_average": 5.7, "vote_count": 36, "popularity": 4.72}, {"adult": false, "backdrop_path": "/ob6EbBIrRLx5D4LZmdNfz6eTi3R.jpg", "genre_ids": [35, 10751], "id": 39128, "original_language": "en", "original_title": "Ernest In The Army", "overview": "Ernest P. Worrell is now in the military as a soldier. Once he begins, him and his team investigates a dictator who was responsible for the wars in the nearly village. Suddenly, Ernest finds a lost boy and has to keep him safe until his father recovers.", "poster_path": "/6eBNyqAL2H0e1FZg3qQkXFtnldp.jpg", "release_date": "1998-02-24", "title": "Ernest In The Army", "video": false, "vote_average": 4.2, "vote_count": 24, "popularity": 6.43}], "total_pages": 2, "total_results": 40}, "credits": {"cast": [{"cast_id": 1, "character": "Natalie Devlin", "credit_id": "52fe46ec9251416c75088059", "gender": 1, "id": 8434, "name": "Cindy Williams", "order": 0, "profile_path": "/zqGqPA1OKurP3LbaujJuyny6xTv.jpg"}, {"cast_id": 2, "character": "Hal Devlin", "credit_id": "52fe46ec9251416c7508805d", "gender": 2, "id": 33533, "name": "David Rasche", "order": 1, "profile_path": "/9qDHYBJViTtFeGbErb2bQwj6u4F.jpg"}, {"cast_id": 3, "character": "Ginger", "credit_id": "52fe46ec9251416c75088061", "gender": 1, "id": 8266, "name": "Suzie Plakson", "order": 2, "profile_path": "/hq3uUS5kBGlFbkgTnnrJc0MEtfN.jpg"}, {"cast_id": 5, "character": "Vet", "credit_id": "52fe46ec9251416c7508806b", "gender": 2, "id": 80342, "name": "Jackson Davies", "order": 3, "profile_path": "/6hb1hKNDUjymHTP1Pjm86OrVh42.jpg"}, {"cast_id": 6, "character": "Chuckie Devlin", "credit_id": "52fe46ec9251416c7508806f", "gender": 2, "id": 76995, "name": "Robert J. Steinmiller Jr.", "order": 4, "profile_path": null}, {"cast_id": 7, "character": "Lennie", "credit_id": "52fe46ec9251416c75088073", "gender": 2, "id": 29685, "name": "Kurt Fuller", "order": 5, "profile_path": "/rZUUgDoYTfYwbh87V7E4VVWUPlh.jpg"}], "crew": [{"credit_id": "52fe46ec9251416c75088067", "department": "Directing", "gender": 2, "id": 12677, "job": "Director", "name": "Matthew Robbins", "profile_path": "/abxZZtYWLhnliR572pJvhfyksnD.jpg"}, {"credit_id": "5444ed380e0a266333007823", "department": "Writing", "gender": 2, "id": 56521, "job": "Writer", "name": "Jim Strain", "profile_path": null}, {"credit_id": "56522a0dc3a368070f00b83d", "department": "Crew", "gender": 2, "id": 1007395, "job": "Stunts", "name": "J.J. Makaro", "profile_path": "/y1Ec2iASfEU4Mr3I05xXHl0PmDQ.jpg"}]}}