{"adult": false, "backdrop_path": "/lzErbifgC0TY8fSKMsJe5LvXFVX.jpg", "belongs_to_collection": {"id": 521291, "name": "Ah Boys to Men Collection", "poster_path": "/b0M3aSw2kk0XXvKPGEOVS21OB82.jpg", "backdrop_path": "/clt99YrAuJLVJLueMoH7yo0DUll.jpg"}, "budget": 3000000, "genres": [{"id": 35, "name": "Comedy"}], "homepage": "http://www.facebook.com/AhBoysToMen", "id": 168026, "imdb_id": "tt2525596", "original_language": "en", "original_title": "Ah Boys To Men (Part 1)", "overview": "Ah Boys to Men (\u65b0\u5175\u6b63\u4f20) is a 2012\u20132013 Singaporean two-part comedy film produced and directed by Jack Neo, written by Neo and Link Sng and starring Wang Wei Liang, Noah Yap, Joshua Tan and Maxi Lim. It revolves around a group of army recruits in National Service in Singapore.", "popularity": 2.997, "poster_path": "/yx8QwWVtjYayzovF12nQiTHOyPR.jpg", "production_companies": [{"id": 7711, "logo_path": null, "name": "Clover Films", "origin_country": ""}, {"id": 4103, "logo_path": null, "name": "J Team", "origin_country": ""}], "production_countries": [{"iso_3166_1": "SG", "name": "Singapore"}], "release_date": "2012-11-07", "revenue": 6180000, "runtime": 108, "spoken_languages": [{"iso_639_1": "en", "name": "English"}, {"iso_639_1": "zh", "name": "\u666e\u901a\u8bdd"}], "status": "Released", "tagline": "The 'keng' evolution of an 'Ah Boy' to a man.", "title": "Ah Boys To Men (Part 1)", "video": false, "vote_average": 5.9, "vote_count": 10, "keywords": {"keywords": [{"id": 4224, "name": "singapore"}, {"id": 6092, "name": "army"}, {"id": 158715, "name": "national service"}, {"id": 241984, "name": "singlish"}]}, "similar": {"page": 1, "results": [{"adult": false, "backdrop_path": "/nf7yXBYY3jbR1PiAvl7a5RAZ5iW.jpg", "genre_ids": [10752, 35, 18], "id": 168348, "original_language": "en", "original_title": "The Virgin Soldiers", "overview": "The core of the plot is the romantic triangle formed by the protagonist, a conscripted soldier named Private Brigg; a worldly professional soldier named Sergeant Driscoll, and Phillipa Raskin, the daughter of the Regimental Sergeant Major. The location is a British army base in Singapore during the Malayan Emergency.", "poster_path": "/uxrbCmhagVaddOIVJ3aPdwivhYU.jpg", "release_date": "1969-10-14", "title": "The Virgin Soldiers", "video": false, "vote_average": 7.0, "vote_count": 7, "popularity": 3.004}, {"adult": false, "backdrop_path": "/4acJADl01VUcQpfN4szNvjHDKEB.jpg", "genre_ids": [10752, 35, 18, 10749], "id": 25037, "original_language": "en", "original_title": "The Life and Death of Colonel Blimp", "overview": "General Candy, who's overseeing an English squad in 1943, is a veteran leader who doesn't have the respect of the men he's training and is considered out-of-touch with what's needed to win the war. But it wasn't always this way. Flashing back to his early career in the Boer War and World War I, we see a dashing young officer whose life has been shaped by three different women, and by a lasting friendship with a German soldier.", "poster_path": "/v59sVFyekAIlRlOPWVR1zXTpNpf.jpg", "release_date": "1943-06-10", "title": "The Life and Death of Colonel Blimp", "video": false, "vote_average": 7.9, "vote_count": 94, "popularity": 8.588}, {"adult": false, "backdrop_path": "/tG7ydFmDr2Y1kecUCM6foFxmJjP.jpg", "genre_ids": [27, 37, 35], "id": 10212, "original_language": "en", "original_title": "Ravenous", "overview": "Upon receiving reports of missing persons at Fort Spencer, a remote Army outpost on the Western frontier, Capt. John Boyd investigates. After arriving at his new post, Boyd and his regiment aid a wounded frontiersman who recounts a horrifying tale of a wagon train murdered by its supposed guide -- a vicious U.S. Army colonel gone rogue. Fearing the worst, the regiment heads out into the wilderness to verify the gruesome claims.", "poster_path": "/spwvStEA4CraTXPOcONrDzncXOZ.jpg", "release_date": "1999-03-16", "title": "Ravenous", "video": false, "vote_average": 6.8, "vote_count": 271, "popularity": 10.22}, {"adult": false, "backdrop_path": "/vSDl3hqsxxNaj0tE5ZLsTQeL0dS.jpg", "genre_ids": [18, 10752], "id": 975, "original_language": "en", "original_title": "Paths of Glory", "overview": "A commanding officer defends three scapegoats on trial for a failed offensive that occurred within the French Army in 1916.", "poster_path": "/6lMXjI1O1N7XyZEjqIo5wkbrgxg.jpg", "release_date": "1957-09-18", "title": "Paths of Glory", "video": false, "vote_average": 8.3, "vote_count": 1350, "popularity": 16.678}, {"id": 563, "video": false, "vote_count": 2705, "vote_average": 6.9, "title": "Starship Troopers", "release_date": "1997-11-07", "original_language": "en", "original_title": "Starship Troopers", "genre_ids": [28, 12, 878, 53], "backdrop_path": "/cYWI1lnHEvoVKDdlrRt2b5et3Bj.jpg", "adult": false, "overview": "Set in the future, the story follows a young soldier named Johnny Rico and his exploits in the Mobile Infantry. Rico's military career progresses from recruit to non-commissioned officer and finally to officer against the backdrop of an interstellar war between mankind and an arachnoid species known as \"the Bugs\".", "poster_path": "/zeCD9WkhABFJmPq3SlTozXJGEtr.jpg", "popularity": 19.504}, {"id": 374720, "video": false, "vote_count": 10120, "vote_average": 7.4, "title": "Dunkirk", "release_date": "2017-07-19", "original_language": "en", "original_title": "Dunkirk", "genre_ids": [28, 18, 10752], "backdrop_path": "/fudEG1VUWuOqleXv6NwCExK0VLy.jpg", "adult": false, "overview": "The story of the miraculous evacuation of Allied soldiers from Belgium, Britain, Canada and France, who were cut off and surrounded by the German army from the beaches and harbour of Dunkirk between May 26th and June 4th 1940 during World War II.", "poster_path": "/bOXBV303Fgkzn2K4FeKDc0O31q4.jpg", "popularity": 28.538}, {"id": 530915, "video": false, "vote_count": 625, "vote_average": 8.2, "title": "1917", "release_date": "2019-12-10", "original_language": "en", "original_title": "1917", "genre_ids": [18, 36, 10752], "backdrop_path": "/tUWivz05fcY14K6RzicRm7IHkUD.jpg", "adult": false, "overview": "At the height of the First World War, two young British soldiers, Schofield and Blake are given a seemingly impossible mission. In a race against time, they must cross enemy territory and deliver a message that will stop a deadly attack on hundreds of soldiers\u2014Blake's own brother among them.", "poster_path": "/AuGiPiGMYMkSosOJ3BQjDEAiwtO.jpg", "popularity": 241.648}, {"id": 10590, "video": false, "vote_count": 983, "vote_average": 6.9, "title": "We Were Soldiers", "release_date": "2002-03-01", "original_language": "en", "original_title": "We Were Soldiers", "genre_ids": [28, 36, 10752], "backdrop_path": "/8ikyF16LecHlHkkMmuZJDV9GWa7.jpg", "adult": false, "overview": "The story of the first major battle of the American phase of the Vietnam War and the soldiers on both sides that fought it.", "poster_path": "/kjG02l5Nqcgd3ZOb7aMBb9CIIIi.jpg", "popularity": 14.796}, {"id": 8916, "video": false, "vote_count": 2873, "vote_average": 6.1, "title": "Antz", "release_date": "1998-10-02", "original_language": "en", "original_title": "Antz", "genre_ids": [12, 16, 35, 10751], "backdrop_path": "/kMfLkbVTsALj5eIu72jtwzDhVsV.jpg", "adult": false, "overview": "In this animated hit, a neurotic worker ant in love with a rebellious princess rises to unlikely stardom when he switches places with a soldier. Signing up to march in a parade, he ends up under the command of a bloodthirsty general. But he's actually been enlisted to fight against a termite army.", "poster_path": "/3biVcPu5hrfKUMC73sTFq17dmmS.jpg", "popularity": 19.964}, {"id": 455207, "video": false, "vote_count": 1889, "vote_average": 7.0, "title": "Crazy Rich Asians", "release_date": "2018-08-15", "original_language": "en", "original_title": "Crazy Rich Asians", "genre_ids": [35, 18, 10749], "backdrop_path": "/zeHB7aP46Xs3u4aFLuAq2GFeUGb.jpg", "adult": false, "overview": "An American-born Chinese economics professor accompanies her boyfriend to Singapore for his best friend's wedding, only to get thrust into the lives of Asia's rich and famous.", "poster_path": "/1XxL4LJ5WHdrcYcihEZUCgNCpAW.jpg", "popularity": 15.192}, {"adult": false, "backdrop_path": "/qsN29Wb7sqw06I9TzEnJE3soxHM.jpg", "genre_ids": [18, 10752], "id": 438259, "original_language": "en", "original_title": "Journey's End", "overview": "Set in a dugout in Aisne in 1918, a group of British officers, led by the mentally disintegrating young officer Stanhope, variously await their fate.", "poster_path": "/5gGkt84bCPt7XRo35FcsrOeer78.jpg", "release_date": "2017-12-14", "title": "Journey's End", "video": false, "vote_average": 6.3, "vote_count": 110, "popularity": 12.839}, {"id": 4421, "video": false, "vote_count": 864, "vote_average": 6.3, "title": "G.I. Jane", "release_date": "1997-08-19", "original_language": "en", "original_title": "G.I. Jane", "genre_ids": [28, 18], "backdrop_path": "/b1x0SSMl4MEj0gbEBaVssp0FgqN.jpg", "adult": false, "overview": "A female Senator succeeds in enrolling a woman into Combined Reconnaissance Team training where everyone expects her to fail.", "poster_path": "/yf4zJg6ACAhH4fkHSdEDrBUuEyg.jpg", "popularity": 14.125}, {"id": 485811, "video": false, "vote_count": 52, "vote_average": 4.4, "title": "Redcon-1", "release_date": "2018-09-07", "original_language": "en", "original_title": "Redcon-1", "genre_ids": [28, 27], "backdrop_path": "/palbhPOSYf2g1p18vWd91dDhZLM.jpg", "adult": false, "overview": "After a zombie apocalypse spreads from a London prison, the UK is brought to its knees. The spread of the virus is temporarily contained but, without a cure, it\u2019s only a matter of time before it breaks its boundaries and the biggest problem of all\u2026 any zombies with combat skills are now enhanced. With the South East of England quarantined from the rest of the world using fortified borders, intelligence finds that the scientist responsible for the outbreak is alive and well in London. With his recovery being the only hope of a cure, a squad of eight Special Forces soldiers is sent on a suicide mission to the city, now ruled by the undead, with a single task: get him out alive within 72 hours by any means necessary. What emerges is an unlikely pairing on a course to save humanity against ever-rising odds.", "poster_path": "/vVPrWngVJ2cfYAncBedQty69Dlf.jpg", "popularity": 10.184}, {"id": 1417, "video": false, "vote_count": 6621, "vote_average": 7.7, "title": "Pan's Labyrinth", "release_date": "2006-08-25", "original_language": "es", "original_title": "El laberinto del fauno", "genre_ids": [18, 14, 10752], "backdrop_path": "/4XP5kp70Pw01qpD6Gr0PQwy43Mr.jpg", "adult": false, "overview": "Living with her tyrannical stepfather in a new home with her pregnant mother, 10-year-old Ofelia feels alone until she explores a decaying labyrinth guarded by a mysterious faun who claims to know her destiny. If she wishes to return to her real father, Ofelia must complete three terrifying tasks.", "poster_path": "/t0TDsqbCTgSi0AL7k4baZrOYYhi.jpg", "popularity": 22.977}, {"id": 1092, "video": false, "vote_count": 891, "vote_average": 8.0, "title": "The Third Man", "release_date": "1949-08-31", "original_language": "en", "original_title": "The Third Man", "genre_ids": [9648, 53], "backdrop_path": "/lrIuSWdC1LfKJZUnBX6axJxzZGe.jpg", "adult": false, "overview": "In postwar Vienna, Austria, Holly Martins, a writer of pulp Westerns, arrives penniless as a guest of his childhood chum Harry Lime, only to learn he has died. Martins develops a conspiracy theory after learning of a \"third man\" present at the time of Harry's death, running into interference from British officer Major Calloway, and falling head-over-heels for Harry's grief-stricken lover, Anna.", "poster_path": "/rO2Fq0AZZx9obs52KJdx4mRE8p5.jpg", "popularity": 14.387}, {"adult": false, "backdrop_path": "/gMzVgnh1nfEaep00EdMBuC6pYRa.jpg", "genre_ids": [28, 12, 10752], "id": 1271, "original_language": "en", "original_title": "300", "overview": "Based on Frank Miller's graphic novel, \"300\" is very loosely based the 480 B.C. Battle of Thermopylae, where the King of Sparta led his army against the advancing Persians; the battle is said to have inspired all of Greece to band together against the Persians, and helped usher in the world's first democracy.", "poster_path": "/bYR8O1H1ZlME7Dm9ysfTYZnRDpw.jpg", "release_date": "2007-03-07", "title": "300", "video": false, "vote_average": 7.1, "vote_count": 8856, "popularity": 25.601}, {"id": 8840, "video": false, "vote_count": 1169, "vote_average": 6.5, "title": "DragonHeart", "release_date": "1996-05-31", "original_language": "en", "original_title": "DragonHeart", "genre_ids": [28, 12, 14], "backdrop_path": "/1VWsgfwm3cJ4vZnKEWxOj9cv7q.jpg", "adult": false, "overview": "In an ancient time when majestic fire-breathers soared through the skies, a knight named Bowen comes face to face and heart to heart with the last dragon on Earth, Draco. Taking up arms to suppress a tyrant king, Bowen soon realizes his task will be harder than he'd imagined: If he kills the king, Draco will die as well.", "poster_path": "/5bqI54aIyPDzPKkScwJprzbAsIi.jpg", "popularity": 17.182}, {"id": 534, "video": false, "vote_count": 4114, "vote_average": 6.0, "title": "Terminator Salvation", "release_date": "2009-05-20", "original_language": "en", "original_title": "Terminator Salvation", "genre_ids": [28, 878, 53], "backdrop_path": "/mglXOOyXISvuIdLgvhU9oXn1Mi7.jpg", "adult": false, "overview": "All grown up in post-apocalyptic 2018, John Connor must lead the resistance of humans against the increasingly dominating militaristic robots. But when Marcus Wright appears, his existence confuses the mission as Connor tries to determine whether Wright has come from the future or the past -- and whether he's friend or foe.", "poster_path": "/gw6JhlekZgtKUFlDTezq3j5JEPK.jpg", "popularity": 34.306}, {"id": 10515, "video": false, "vote_count": 1875, "vote_average": 8.0, "title": "Castle in the Sky", "release_date": "1986-08-02", "original_language": "ja", "original_title": "\u5929\u7a7a\u306e\u57ce\u30e9\u30d4\u30e5\u30bf", "genre_ids": [28, 12, 16, 14, 10749, 10751], "backdrop_path": "/hf4CRxGMi8zmLjkudyTWfVtnuXr.jpg", "adult": false, "overview": "A young boy and a girl with a magic crystal must race against pirates and foreign agents in a search for a legendary floating castle.", "poster_path": "/4RTG2AaqZ9eleL51ryWwv78WwDu.jpg", "popularity": 34.176}, {"adult": false, "backdrop_path": "/ufqPsRItWyFzdFz3MevDkxRF8pT.jpg", "genre_ids": [18, 10752, 28], "id": 792, "original_language": "en", "original_title": "Platoon", "overview": "As a young and naive recruit in Vietnam, Chris Taylor faces a moral crisis when confronted with the horrors of war and the duality of man.", "poster_path": "/8hDlxJZYCJJLRHbSk7hsRQ9SNp7.jpg", "release_date": "1986-12-19", "title": "Platoon", "video": false, "vote_average": 7.7, "vote_count": 2387, "popularity": 19.539}], "total_pages": 35, "total_results": 687}, "recommendations": {"page": 1, "results": [{"adult": false, "backdrop_path": "/d0AmizpVFC3jtKPlV7kxEjrmOLZ.jpg", "genre_ids": [35, 18, 10752], "id": 193173, "original_language": "en", "original_title": "Ah Boys To Men (Part 2)", "overview": "Ken is quick to adopt a change in personality by becoming an \"on-the-ball\" recruit, even more so than \"Wayang King\" Aloysius. Differing viewpoints sour the friendship between Ken and Lobang. Meanwhile, Ken's father has become partially paralyzed because of his stroke but is determined to make a recovery. After booking out, Aloysius seeks advice from his parents as he feels excluded from the group; his father (Chen Tianwen) tells him the best solution is not to do anything. Back at Tekong, Recruit IP Man learns about \"Real Bullet\" Zhen Zidan (Benjamin Mok), an \"Ah Beng\" who stole his girlfriend Mayoki (Sherraine Low). IP Man hits back by criticizing Mayoki for her inferior qualities.", "poster_path": "/tFqXCL9alvjNZdldrKcWdUFO3rh.jpg", "release_date": "2013-01-31", "title": "Ah Boys To Men (Part 2)", "video": false, "vote_average": 6.7, "vote_count": 6, "popularity": 1.624}, {"adult": false, "backdrop_path": "/bIH7BLioSddaDtOF985q5es6SQc.jpg", "genre_ids": [35, 28], "id": 343139, "original_language": "en", "original_title": "Ah Boys to Men 3: Frogmen", "overview": "In an alternate timeline, Ken, Lobang and Wayang King are transferred to the Naval Diving Unit (NDU) and have to overcome obstacles and personal issues to grow as people.", "poster_path": "/8bmoA7bD4SfVF61uznhMUD3j5Mw.jpg", "release_date": "2015-02-19", "title": "Ah Boys to Men 3: Frogmen", "video": false, "vote_average": 7.7, "vote_count": 3, "popularity": 3.445}, {"adult": false, "backdrop_path": "/9KHV8DZY3Y71zBTHNpx3cLIZXmW.jpg", "genre_ids": [10751, 18], "id": 195763, "original_language": "zh", "original_title": "\u8dd1\u5427\u5b69\u5b50", "overview": "A remake of the award-winning Iranian film Children of Heaven, Homerun is a drama about two poor siblings and their adventures over a lost pair of shoes.", "poster_path": "/9ZeDMtjtGIbM6bysmH9bXf7X0HW.jpg", "release_date": "2003-08-06", "title": "Homerun", "video": false, "vote_average": 6.0, "vote_count": 7, "popularity": 0.85}, {"adult": false, "backdrop_path": null, "genre_ids": [53, 18, 10749], "id": 287324, "original_language": "en", "original_title": "\u7b2c\u4e03\u8b0a\u8a00", "overview": "Lying is a universal language, spoken and understood by 7 billion people. none of us can evade the jinx of The Seventh Lie - Self Deception. Chauffeur Song claims to be a part-time killer. Or is he a womanizer, tries to get in the heart of his chum's wife Julianne? Julianne checks into a hotel with Song to discover his frightful plan. A sneaky Hotel Bellhop bumps into them. Could he come to Julianne's rescue? Or is he a brilliant con-artist who attempts to rip off moneyed guests of the hotel? In this hotel, he uncovers his darkest secret and comes across a Runaway Bride Gwen. The lives of these seemingly unassociated souls are interlaced together to face the appalling truth beneath their lies.", "poster_path": "/dIz90eK4H7ywG8beg4ygALY4Ia6.jpg", "release_date": "2014-10-30", "title": "The Seventh Lie", "video": false, "vote_average": 4.3, "vote_count": 6, "popularity": 2.553}], "total_pages": 1, "total_results": 4}, "credits": {"cast": [{"cast_id": 1, "character": "Ken Chow", "credit_id": "52fe4cc0c3a36847f823d377", "gender": 2, "id": 1150001, "name": "Joshua Tan", "order": 0, "profile_path": "/aoKxNVC6XHQwZL0gvsvXmzT6M4w.jpg"}, {"cast_id": 2, "character": "Aloysius Jin (Wayang King)", "credit_id": "52fe4cc0c3a36847f823d37b", "gender": 2, "id": 1150002, "name": "Maxi Lim", "order": 1, "profile_path": "/yDGL0DUpNXWKq7M52v4KT6hOBWD.jpg"}, {"cast_id": 3, "character": "Bang \"Lobang\" Lee Onn", "credit_id": "52fe4cc0c3a36847f823d37f", "gender": 0, "id": 1150003, "name": "Wang Wei Liang", "order": 2, "profile_path": null}, {"cast_id": 4, "character": "Man In Ping (IP Man)", "credit_id": "52fe4cc0c3a36847f823d383", "gender": 0, "id": 1150004, "name": "Noah Yap", "order": 3, "profile_path": null}, {"cast_id": 5, "character": "Sergeant Alex Ong", "credit_id": "52fe4cc0c3a36847f823d387", "gender": 2, "id": 1150005, "name": "Tosh Rock Zhang", "order": 4, "profile_path": "/8jPCp3k4waWA6PxqiIKMLGoouEK.jpg"}, {"cast_id": 6, "character": "Sergeant Jed Heng", "credit_id": "52fe4cc0c3a36847f823d38b", "gender": 0, "id": 1150006, "name": "Luke Lee", "order": 5, "profile_path": null}, {"cast_id": 9, "character": "Tan Wei Ming", "credit_id": "58c8d2bd92514110f5003059", "gender": 0, "id": 1776779, "name": "Charlie Goh", "order": 6, "profile_path": null}, {"cast_id": 10, "character": "Chong Koa Ann", "credit_id": "58c8d2d692514111130030cc", "gender": 0, "id": 1776780, "name": "Daniel Ang", "order": 7, "profile_path": null}], "crew": [{"credit_id": "53c23415c3a3684cf4007887", "department": "Directing", "gender": 0, "id": 225055, "job": "Director", "name": "Jack Neo", "profile_path": "/22jlcaHy6eZpkOwN4YdshYFx6v4.jpg"}, {"credit_id": "53c23442c3a3684cec007c07", "department": "Production", "gender": 0, "id": 1296302, "job": "Producer", "name": "Tengku Iesta Tengku Alaudin", "profile_path": null}]}}