{"adult": false, "backdrop_path": null, "belongs_to_collection": null, "budget": 0, "genres": [{"id": 99, "name": "Documentary"}], "homepage": null, "id": 168421, "imdb_id": "tt0140894", "original_language": "es", "original_title": "Chile, la memoria obstinada", "overview": "After decades of fascist rule in Chile, Patricio Guzman returns to his country to screen his documentary, Battle of Chile", "popularity": 1.171, "poster_path": "/f5NYmYhoZ13S56JMtBGCsIy22OX.jpg", "production_companies": [{"id": 11332, "logo_path": null, "name": "La Sept-Arte", "origin_country": "FR"}, {"id": 1848, "logo_path": null, "name": "Les", "origin_country": ""}, {"id": 10473, "logo_path": "/lMUDQZVtg8On4PAW5XFQPaQy6UK.png", "name": "National Film Board of Canada", "origin_country": "CA"}], "production_countries": [{"iso_3166_1": "CA", "name": "Canada"}, {"iso_3166_1": "CL", "name": "Chile"}, {"iso_3166_1": "FR", "name": "France"}], "release_date": "1997-02-25", "revenue": 0, "runtime": 59, "spoken_languages": [{"iso_639_1": "es", "name": "Espa\u00f1ol"}], "status": "Released", "tagline": "", "title": "Chile, Obstinate Memory", "video": false, "vote_average": 7.4, "vote_count": 7, "keywords": {"keywords": [{"id": 6460, "name": "chile"}, {"id": 156887, "name": "military dictatorship"}]}, "similar": {"page": 1, "results": [{"adult": false, "backdrop_path": "/3oGN8PMWCxePR6sT4gkOyvmIWHA.jpg", "genre_ids": [99, 36], "id": 441186, "original_language": "es", "original_title": "El pacto de Adriana", "overview": "Lissette's favorite aunt, Adriana, settled in Australia, is arrested in 2007 while is visiting her family in Chile and accused of having worked for dictator Pinochet's notorious secret police, the DINA, and participated in the commission of state crimes. When Adriana denies these accusations, Lissette begins to investigate her story to film a documentary about it.", "poster_path": "/v71eLPlu75rvyB9KiHKaJLvnsAj.jpg", "release_date": "2017-10-05", "title": "Adriana's Pact", "video": false, "vote_average": 7.5, "vote_count": 4, "popularity": 0.84}, {"id": 318781, "video": false, "vote_count": 1199, "vote_average": 7.4, "title": "Colonia", "release_date": "2016-02-12", "original_language": "en", "original_title": "Colonia", "genre_ids": [18], "backdrop_path": "/3Sfjr8UCYrbtDubyDA0MCFjDccI.jpg", "adult": false, "overview": "A young woman's desperate search for her abducted boyfriend that draws her into the infamous Colonia Dignidad, a sect nobody ever escaped from.", "poster_path": "/buEhROtfCEFNhjPWdJVgeVnrThj.jpg", "popularity": 15.421}, {"id": 650755, "video": false, "vote_count": 0, "vote_average": 0.0, "title": "Atordoado, Eu Permane\u00e7o Atento", "release_date": "2020-01-15", "original_language": "pt", "original_title": "Atordoado, Eu Permane\u00e7o Atento", "genre_ids": [99], "backdrop_path": null, "adult": false, "overview": "", "poster_path": "/exbM8qk6f6T44olJXcM8ix1sunL.jpg", "popularity": 5.092}, {"id": 110398, "video": false, "vote_count": 243, "vote_average": 7.2, "title": "No", "release_date": "2012-08-07", "original_language": "es", "original_title": "No", "genre_ids": [18, 36], "backdrop_path": "/92MsvjpGoaiujgg6prkwmFvggoP.jpg", "adult": false, "overview": "In 1988, Chilean military dictator Augusto Pinochet, due to international pressure, is forced to call a plebiscite on his presidency. The country will vote \u2018Yes\u2019 or \u2018No\u2019 to Pinochet extending his rule for another eight years. Opposition leaders for the \u2018No\u2019 vote persuade a brash young advertising executive, Rene Saavedra, to spearhead their campaign. Against all odds, with scant resources and while under scrutiny by the despot\u2019s minions, Saavedra and his team devise an audacious plan to win the election and set Chile free.", "poster_path": "/2WEog45eMBUFRgxhIbxx2nOaaMZ.jpg", "popularity": 6.135}, {"adult": false, "backdrop_path": "/3bCuHw1NA4FFwESs1vJCk8gHi3O.jpg", "genre_ids": [18, 36], "id": 293646, "original_language": "en", "original_title": "The 33", "overview": "Based on a true story about the collapse at the mine in San Jose, Chile that left 33 miners isolated underground for 69 days.", "poster_path": "/6QkKCZCfFQ91jjRZgHndiE2npmw.jpg", "release_date": "2015-08-06", "title": "The 33", "video": false, "vote_average": 6.2, "vote_count": 622, "popularity": 14.521}, {"adult": false, "backdrop_path": "/mjjUvCXlAwWtDWlCMbzijwBdd7R.jpg", "genre_ids": [18], "id": 1653, "original_language": "es", "original_title": "Diarios de motocicleta", "overview": "Based on the journals of Che Guevara, leader of the Cuban Revolution. In his memoirs, Guevara recounts adventures he, and best friend Alberto Granado, had while crossing South America by motorcycle in the early 1950s.", "poster_path": "/uNMLsBv48WwIohS7n5DVe1fsFcb.jpg", "release_date": "2004-02-06", "title": "The Motorcycle Diaries", "video": false, "vote_average": 7.4, "vote_count": 680, "popularity": 10.627}, {"id": 10531, "video": false, "vote_count": 195, "vote_average": 7.1, "title": "Death and the Maiden", "release_date": "1994-05-04", "original_language": "en", "original_title": "Death and the Maiden", "genre_ids": [18, 9648, 53], "backdrop_path": "/xgnb9II4X5n42Qs2afPZf7lFMGF.jpg", "adult": false, "overview": "A political activist is convinced that her guest is a man who once tortured her for the government.", "poster_path": "/3p1K153ZbRV7FNyi4DNnzHfxJZa.jpg", "popularity": 8.411}, {"id": 1523, "video": false, "vote_count": 1138, "vote_average": 7.5, "title": "The Last King of Scotland", "release_date": "2006-09-01", "original_language": "en", "original_title": "The Last King of Scotland", "genre_ids": [18], "backdrop_path": "/p7WgP9egrM3hEogrhrLiHA8QD1r.jpg", "adult": false, "overview": "Young Scottish doctor, Nicholas Garrigan decides it's time for an adventure after he finishes his formal education, so he decides to try his luck in Uganda, and arrives during the downfall of President Obote. General Idi Amin comes to power and asks Garrigan to become his personal doctor.", "poster_path": "/rgJa3DRf8L2EnYKr5ZRMpuQn0s2.jpg", "popularity": 12.724}, {"id": 171424, "video": false, "vote_count": 694, "vote_average": 5.3, "title": "The Green Inferno", "release_date": "2014-09-04", "original_language": "en", "original_title": "The Green Inferno", "genre_ids": [28, 12, 27, 53], "backdrop_path": "/gX2nkTe2RI2RCM9BsNe1yyNWKFa.jpg", "adult": false, "overview": "A group of student activists travel from New York City to the Amazon to save the rainforest.  However, once they arrive in this vast green landscape, they soon discover that they are not alone\u2026 and that no good deed goes unpunished.", "poster_path": "/prG32jWEgiZ2N8BpBPu1G0jMiv2.jpg", "popularity": 12.287}, {"id": 566397, "video": false, "vote_count": 0, "vote_average": 0.0, "title": "The Man Standing Next", "release_date": "2020-01-22", "original_language": "ko", "original_title": "\ub0a8\uc0b0\uc758 \ubd80\uc7a5\ub4e4", "genre_ids": [28, 18], "backdrop_path": "/m0Zp6dlmjfpolhMWx6KHJvmFlOk.jpg", "adult": false, "overview": "In the 1970s, Korea is under the absolute control of the President Park who controls the KCIA, the organization with an edge over any branch of government. The director of KCIA, KIM Gyu-pyeong, is the seemingly most prospective second-in-command. In the midst of reign of fear, a former KCIA director, PARK Yong-gak who knows all about the government\u2019s obscure operations, exiles to the U.S. where the investigation of \u2018Koreagate\u2019 is underway. As the tension escalates, the stifling political maneuvering by the all second-in-command\u2019s unfolds.", "poster_path": "/irC14m9de5imarTX6br5op1xfqU.jpg", "popularity": 20.801}, {"adult": false, "backdrop_path": "/7hLq5EKhVnkXNRPI7EIalEM1C6T.jpg", "genre_ids": [18, 36, 9648, 53], "id": 15600, "original_language": "en", "original_title": "Missing", "overview": "Based on the real-life experiences of Ed Horman. A conservative American businessman travels to a South American country to investigate the sudden disappearance of his son after a right-wing military takeover. Accompanied by his son's wife he uncovers a trail of cover-ups that implicate the US State department which supports the right-wing dictatorship.", "poster_path": "/b7L4cl5OUHMr1aB2CUajWXJwAZy.jpg", "release_date": "1982-02-12", "title": "Missing", "video": false, "vote_average": 7.4, "vote_count": 155, "popularity": 8.061}, {"adult": false, "backdrop_path": "/3LXRJNth2r3xRiqNeG7BPd2bMiW.jpg", "genre_ids": [18, 36, 53], "id": 6106, "original_language": "en", "original_title": "Salvador", "overview": "A second rated journalist from the US tries his luck in El Salvador during the military dictatorship in the 1980s.", "poster_path": "/1aNbLMXB2E7e00ko2rDPEyogI9A.jpg", "release_date": "1986-04-23", "title": "Salvador", "video": false, "vote_average": 7.2, "vote_count": 144, "popularity": 8.262}, {"adult": false, "backdrop_path": "/evFkerKuiR43Jd1bXa9DYF3BLC6.jpg", "genre_ids": [18, 36, 80, 53], "id": 352161, "original_language": "es", "original_title": "El clan", "overview": "In Argentina, between 1982 and 1985, the Puccios, a well-established family of San Isidro, an upper-class suburb of Buenos Aires, kidnap several people and hold them as hostages for a ransom.", "poster_path": "/AqNPsFnhANzv8cxFClh9SMURtsZ.jpg", "release_date": "2015-08-13", "title": "The Clan", "video": false, "vote_average": 6.6, "vote_count": 227, "popularity": 8.015}, {"adult": false, "backdrop_path": "/u4CVC9VVpbfxxFqf8fcaPVegUmZ.jpg", "genre_ids": [16, 18], "id": 499537, "original_language": "es", "original_title": "La casa lobo", "overview": "Mar\u00eda, a girl from Colonia Dignidad, in Chile \u2014a kind of sectarian community, tyrannically mastered by the ruthless Paul Sch\u00e4fer, a German madman, religious fanatic and child predator, who would end up turning the place into a torture center at the service of the military dictatorship ruled by Augusto Pinochet\u2014, is punished for having lost three pigs, so she decides to run away and take refuge in an abandoned house hidden in the forest.", "poster_path": "/WkqlMUpC9f5dFCZIxmQSvs6MAI.jpg", "release_date": "2018-09-21", "title": "The Wolf House", "video": false, "vote_average": 7.7, "vote_count": 12, "popularity": 3.366}, {"adult": false, "backdrop_path": "/eiSRZDOA0d5gKEISvknhQGgwHpk.jpg", "genre_ids": [9648, 18, 10749], "id": 37722, "original_language": "en", "original_title": "Waking the Dead", "overview": "A congressional candidate questions his sanity after seeing the love of his life, presumed dead, suddenly emerge.", "poster_path": "/knPjLo050qU82PPuGpDMhT6VICV.jpg", "release_date": "2000-03-24", "title": "Waking the Dead", "video": false, "vote_average": 6.8, "vote_count": 42, "popularity": 4.591}, {"id": 12086, "video": false, "vote_count": 70, "vote_average": 7.8, "title": "Machuca", "release_date": "2004-02-24", "original_language": "es", "original_title": "Machuca", "genre_ids": [18], "backdrop_path": "/8ZROTUCw5vnlHXSpn1ANjSBGV5a.jpg", "adult": false, "overview": "Santiago, capital of Chile during the Marxist government of elected, highly controversial president Salvador Allende. Father McEnroe supports his leftist views by introducing a program at the prestigious \"collegio\" (Catholic prep school) St. Patrick to allow free admission of some proletarian kids. One of them is Pedro Machuca, slum-raised son of the cleaning lady in Gonzalo Infante's liberal-bourgeois home. Yet the new classmates become buddies, paradoxically protesting together as Gonzalo gets adopted by Pedro's slum family and gang. But the adults spoil that too, not in the least when general Pinochet's coup ousts Allende, and supporters such as McEnroe.", "poster_path": "/8sNsiSVjaHixczLi4WyT3dhgI0L.jpg", "popularity": 4.215}, {"id": 416149, "video": false, "vote_count": 36, "vote_average": 4.1, "title": "The Perfect Weapon", "release_date": "2016-09-09", "original_language": "en", "original_title": "The Perfect Weapon", "genre_ids": [28, 878], "backdrop_path": "/nhuSsCGddsFTn02mNCwHjYCUyf0.jpg", "adult": false, "overview": "In a not too distant future, a totalitarian state run by \u2018The Director\u201d (Seagal) controls all aspects of life. All enemies of the state are dealt in the harshest way. Most of them are executed by the secret government\u2019s assassins. The best operative is code-named \u201cCondor\u201d (Messner) \u2013 an elite agent and hit man for the government. However, in his latest assignment, \u201cCondor\u201d fails to kill an opposition leader, and finds himself on the run from the very same government agency that he works for. This sets in motion a chain of events with unforseen consequences for all involved.", "poster_path": "/am6eVYHSU3bORdz5Ukmc7XSiW5R.jpg", "popularity": 9.539}, {"adult": false, "backdrop_path": "/nRGW8UCpG8NF5S5ebXUoW01WEck.jpg", "genre_ids": [18], "id": 77878, "original_language": "en", "original_title": "The Lady", "overview": "The story of Aung San Suu Kyi as she becomes the core of Burma's democracy movement, and her relationship with her husband, writer Michael Aris.", "poster_path": "/s1hHovkNPjPQtCTaG2YhJb8HX5Q.jpg", "release_date": "2011-11-30", "title": "The Lady", "video": false, "vote_average": 6.9, "vote_count": 143, "popularity": 9.166}, {"adult": false, "backdrop_path": "/gIpDbIYiF7BVmVuuvG4rhUyLgs4.jpg", "genre_ids": [18], "id": 90148, "original_language": "en", "original_title": "Of Love and Shadows", "overview": "Irene is a magazine editor living under the shadow of the Pinochet dictatorship in Chile. Francisco is a handsome photographer and he comes to Irene for a job. As a sympathizer with the underground resistance movement, Francisco opens her eyes and her heart to the atrocities being committed by the state.", "poster_path": "/uM64Zehu9W5Ix237Hz3WEl9a6i5.jpg", "release_date": "1994-05-10", "title": "Of Love and Shadows", "video": false, "vote_average": 5.0, "vote_count": 23, "popularity": 6.318}, {"id": 437103, "video": false, "vote_count": 40, "vote_average": 8.2, "title": "1987: When the Day Comes", "release_date": "2017-12-27", "original_language": "ko", "original_title": "1987", "genre_ids": [18, 36, 53], "backdrop_path": "/no875UXrxLQhjITs2SC9OOCn94M.jpg", "adult": false, "overview": "In 1987 Korea, under an oppressive military regime, a college student gets killed during a police interrogation involving torture. Government of officials are quick to cover up the death and order the body to be cremated. A prosecutor who is supposed to sign the cremation release, raises questions about a 21-year-old kid dying of a heart attack, and he begins looking into the case for truth. Despite a systematic attempt to silence everyone involved in the case, the truth gets out, causing an eruption of public outrage.", "poster_path": "/3KgL5KiGk8ABfMFHzGP2GnoH8sL.jpg", "popularity": 5.978}], "total_pages": 9, "total_results": 170}, "recommendations": {"page": 1, "results": [{"adult": false, "backdrop_path": "/28bUP7M17KWleH3Fz6ZbbxZQO4.jpg", "genre_ids": [99], "id": 38008, "original_language": "en", "original_title": "Ghosts of Cit\u00e9 Soleil", "overview": "In the slum of Cit\u00e9 Soleil, President Aristide's most loyal supporters were ruling as kings. The five major gang leaders were controlling heavily armed young men; the Chim\u00e9res. The Secret army of President Jean-Bertrand Aristide. \"Ghosts of Cit\u00e9 Soleil\" is a film about Billy and Haitian 2pac. Two brothers. Gang Leaders of the Chim\u00e9res.", "poster_path": "/pKiEJOV4t1c1Q4jwEDPPreNgDbA.jpg", "release_date": "2006-01-01", "title": "Ghosts of Cit\u00e9 Soleil", "video": false, "vote_average": 6.3, "vote_count": 3, "popularity": 2.973}, {"adult": false, "backdrop_path": null, "genre_ids": [35, 18], "id": 63066, "original_language": "es", "original_title": "25 Watts", "overview": "Montevideo, Saturday, 7 in the morning. El Leche, Javi, and Seba have not gone to sleep yet. Tired and bored, they sit in the usual wall fence to have a beer. On a lazy summer Saturday the three boys each with their own worries\u2014studies, work, and, of course, love.", "poster_path": "/q2YTO9rw8lisWFEK9tBZWqcdjAb.jpg", "release_date": "2001-01-01", "title": "25 Watts", "video": false, "vote_average": 6.7, "vote_count": 13, "popularity": 1.476}], "total_pages": 1, "total_results": 2}, "credits": {"cast": [{"cast_id": 2, "character": "Himself", "credit_id": "52fe4cccc3a36847f823f1f3", "gender": 0, "id": 1211686, "name": "Jos\u00e9 Balmes", "order": 0, "profile_path": null}, {"cast_id": 3, "character": "Herself", "credit_id": "52fe4cccc3a36847f823f1f7", "gender": 0, "id": 1211687, "name": "Hortensia Allende", "order": 1, "profile_path": null}, {"cast_id": 5, "character": "Narrator", "credit_id": "52fe4cccc3a36847f823f1ff", "gender": 0, "id": 1211688, "name": "Vincent Davy", "order": 3, "profile_path": null}, {"cast_id": 6, "character": "Narrator", "credit_id": "5659cb99c3a36877d7000284", "gender": 2, "id": 566294, "name": "Patricio Guzm\u00e1n", "order": 4, "profile_path": "/u0fXKSw88BHJs53uspQuykfx5Ck.jpg"}], "crew": [{"credit_id": "52fe4cccc3a36847f823f1ef", "department": "Directing", "gender": 2, "id": 566294, "job": "Director", "name": "Patricio Guzm\u00e1n", "profile_path": "/u0fXKSw88BHJs53uspQuykfx5Ck.jpg"}]}}