{"adult": false, "backdrop_path": "/rl9dhnJ22NwPBF8ooXyUMwivNWE.jpg", "belongs_to_collection": null, "budget": 0, "genres": [{"id": 18, "name": "Drama"}], "homepage": null, "id": 168693, "imdb_id": "tt1259773", "original_language": "en", "original_title": "Milk", "overview": "Andrea Arnold\u2019s directorial debut consists of a woman named Hetty that has a unique way of dealing with the unexpected death of her child.", "popularity": 2.84, "poster_path": "/vG9pb7R5RN43os5MoJQKh8SzaXh.jpg", "production_companies": [{"id": 1391, "logo_path": null, "name": "Anglia Television", "origin_country": ""}], "production_countries": [{"iso_3166_1": "GB", "name": "United Kingdom"}], "release_date": "1998-01-01", "revenue": 0, "runtime": 10, "spoken_languages": [{"iso_639_1": "en", "name": "English"}], "status": "Released", "tagline": "", "title": "Milk", "video": false, "vote_average": 6.9, "vote_count": 7, "keywords": {"keywords": [{"id": 187056, "name": "woman director"}, {"id": 214549, "name": "short"}]}, "similar": {"page": 1, "results": [{"id": 326359, "video": false, "vote_count": 1180, "vote_average": 6.8, "title": "Frozen Fever", "release_date": "2015-03-09", "original_language": "en", "original_title": "Frozen Fever", "genre_ids": [12, 16, 10751], "backdrop_path": "/ubioPGniCfDiASmYYpeJs5RRNaC.jpg", "adult": false, "overview": "On Anna's birthday, Elsa and Kristoff are determined to give her the best celebration ever, but Elsa's icy powers may put more than just the party at risk.", "poster_path": "/lKJiVPzsAO9IJ4LKWXZ8vkR2bg4.jpg", "popularity": 17.218}, {"adult": false, "backdrop_path": "/gZeJziVigmRqbkEZwKAtSqlLQ6s.jpg", "genre_ids": [18, 10749], "id": 370663, "original_language": "en", "original_title": "Below Her Mouth", "overview": "An unexpected affair quickly escalates into a heart-stopping reality for two women whose passionate connection changes their lives forever.", "poster_path": "/nTGbq37hYLuNy7YgMg0gVLma0NS.jpg", "release_date": "2016-09-10", "title": "Below Her Mouth", "video": false, "vote_average": 6.2, "vote_count": 456, "popularity": 18.664}, {"id": 150540, "video": false, "vote_count": 13957, "vote_average": 7.9, "title": "Inside Out", "release_date": "2015-06-09", "original_language": "en", "original_title": "Inside Out", "genre_ids": [16, 35, 18, 10751], "backdrop_path": "/szytSpLAyBh3ULei3x663mAv5ZT.jpg", "adult": false, "overview": "Growing up can be a bumpy road, and it's no exception for Riley, who is uprooted from her Midwest life when her father starts a new job in San Francisco. Riley's guiding emotions\u2014 Joy, Fear, Anger, Disgust and Sadness\u2014live in Headquarters, the control centre inside Riley's mind, where they help advise her through everyday life and tries to keep things positive, but the emotions conflict on how best to navigate a new city, house and school.", "poster_path": "/aAmfIX3TT40zUHGcCKrlOZRKC7u.jpg", "popularity": 57.362}, {"adult": false, "backdrop_path": "/6tern9vOEwwmkDYC1vRCuO64z0C.jpg", "genre_ids": [10749, 18], "id": 475888, "original_language": "en", "original_title": "Tell It to the Bees", "overview": "Dr. Jean Markham returns to the town she left as a teenager to take over her late father's medical practice. When a school-yard scuffle lands Charlie in her surgery, she invites him to visit the hives in her garden and tell his secrets to the bees, as she once did. The new friendship between the boy and the bee keeper brings his mother Lydia into Jean's world.", "poster_path": "/Rj6zpHhMU1zFW3v28U4PSRSRgP.jpg", "release_date": "2019-05-03", "title": "Tell It to the Bees", "video": false, "vote_average": 6.4, "vote_count": 53, "popularity": 13.175}, {"id": 83542, "video": false, "vote_count": 4861, "vote_average": 6.8, "title": "Cloud Atlas", "release_date": "2012-10-26", "original_language": "en", "original_title": "Cloud Atlas", "genre_ids": [18, 878], "backdrop_path": "/2ZA03KiD4jePTNBTJjGGFTNQPMA.jpg", "adult": false, "overview": "A set of six nested stories spanning time between the 19th century and a distant post-apocalyptic future. Cloud Atlas explores how the actions and consequences of individual lives impact one another throughout the past, the present and the future. Action, mystery and romance weave through the story as one soul is shaped from a killer into a hero and a single act of kindness ripples across centuries to inspire a revolution in the distant future.  Based on the award winning novel by David Mitchell. Directed by Tom Tykwer and the Wachowskis.", "poster_path": "/8VNiyIp67ZxhpNgdrwACW0jgvP2.jpg", "popularity": 19.113}, {"id": 621733, "video": false, "vote_count": 0, "vote_average": 0.0, "title": "A Trip to the Seaside", "release_date": "2019-08-30", "original_language": "en", "original_title": "A Trip to the Seaside", "genre_ids": [99], "backdrop_path": null, "adult": false, "overview": "Experimental short film on the excitement and rush of a day trip", "poster_path": "/AuZVhpoJ4jm2LWDhoJKfxQfhDAi.jpg", "popularity": 1.324}, {"adult": false, "backdrop_path": "/5OeY4U2rzePxWq2rkqMajUx2gz7.jpg", "genre_ids": [16, 10751, 12, 14, 10749], "id": 812, "original_language": "en", "original_title": "Aladdin", "overview": "Princess Jasmine grows tired of being forced to remain in the palace, so she sneaks out into the marketplace, in disguise, where she meets street-urchin Aladdin.  The couple falls in love, although Jasmine may only marry a prince.  After being thrown in jail, Aladdin becomes embroiled in a plot to find a mysterious lamp, with which the evil Jafar hopes to rule the land.", "poster_path": "/mjKozYRuHc9j7SmiXmbVmCiAM0A.jpg", "release_date": "1992-11-25", "title": "Aladdin", "video": false, "vote_average": 7.6, "vote_count": 7289, "popularity": 35.494}, {"id": 10555, "video": false, "vote_count": 4064, "vote_average": 6.0, "title": "Shark Tale", "release_date": "2004-09-20", "original_language": "en", "original_title": "Shark Tale", "genre_ids": [28, 16, 35, 10751], "backdrop_path": "/v3RnhCEMu9MVxA5aHWPgVzFGdSG.jpg", "adult": false, "overview": "Oscar is a small fish whose big aspirations often get him into trouble. Meanwhile, Lenny is a great white shark with a surprising secret that no sea creature would guess: He's a vegetarian. When a lie turns Oscar into an improbable hero and Lenny becomes an outcast, the two form an unlikely friendship.", "poster_path": "/r08DpyPyhXcJTfNZAICNGMzcQ8l.jpg", "popularity": 28.177}, {"id": 62177, "video": false, "vote_count": 8933, "vote_average": 6.9, "title": "Brave", "release_date": "2012-06-21", "original_language": "en", "original_title": "Brave", "genre_ids": [28, 12, 16, 35, 14, 10751], "backdrop_path": "/sfRCA9g3CunpnZO3QurHSIRcsUq.jpg", "adult": false, "overview": "Brave is set in the mystical Scottish Highlands, where M\u00e9rida is the princess of a kingdom ruled by King Fergus and Queen Elinor. An unruly daughter and an accomplished archer, M\u00e9rida one day defies a sacred custom of the land and inadvertently brings turmoil to the kingdom. In an attempt to set things right, M\u00e9rida seeks out an eccentric old Wise Woman and is granted an ill-fated wish. Also figuring into M\u00e9rida\u2019s quest \u2014 and serving as comic relief \u2014 are the kingdom\u2019s three lords: the enormous Lord MacGuffin, the surly Lord Macintosh, and the disagreeable Lord Dingwall.", "poster_path": "/qhABv2d4NZLhsOOA4iBFM4rfuJC.jpg", "popularity": 40.077}, {"id": 14813, "video": false, "vote_count": 456, "vote_average": 7.6, "title": "Mickey's Christmas Carol", "release_date": "1983-10-19", "original_language": "en", "original_title": "Mickey's Christmas Carol", "genre_ids": [16, 10751], "backdrop_path": "/fDK3xeAcQfQ40ZUULgZshElkspa.jpg", "adult": false, "overview": "It is an adaptation of the Charles Dickens classic A Christmas Carol, featuring Scrooge McDuck as his namesake and inspiration Ebenezer Scrooge and Mickey Mouse as Bob Cratchit. This film was based on a 1972 audio musical entitled Disney's A Christmas Carol. It is a twenty-four minute animated short film produced by Walt Disney Productions as an accompaniment to a re-release of The Rescuers.", "poster_path": "/29iF1IiC3ZyJQ1kmTf4LD8p8oro.jpg", "popularity": 14.7}, {"id": 109445, "video": false, "vote_count": 10976, "vote_average": 7.3, "title": "Frozen", "release_date": "2013-11-27", "original_language": "en", "original_title": "Frozen", "genre_ids": [12, 16, 10751], "backdrop_path": "/cN9Nbwh66TRcj2gBE8cSEZulsx3.jpg", "adult": false, "overview": "Young princess Anna of Arendelle dreams about finding true love at her sister Elsa\u2019s coronation. Fate takes her on a dangerous journey in an attempt to end the eternal winter that has fallen over the kingdom. She's accompanied by ice delivery man Kristoff, his reindeer Sven, and snowman Olaf. On an adventure where she will find out what friendship, courage, family, and true love really means.", "poster_path": "/eFnGmj63QPUpK7QUWSOUhypIQOT.jpg", "popularity": 59.088}, {"id": 650755, "video": false, "vote_count": 0, "vote_average": 0.0, "title": "Atordoado, Eu Permane\u00e7o Atento", "release_date": "2020-01-15", "original_language": "pt", "original_title": "Atordoado, Eu Permane\u00e7o Atento", "genre_ids": [99], "backdrop_path": null, "adult": false, "overview": "", "poster_path": "/exbM8qk6f6T44olJXcM8ix1sunL.jpg", "popularity": 5.092}, {"adult": false, "backdrop_path": "/caLMOD3ZJ3V7qjlxDXrzlJfBLgD.jpg", "genre_ids": [18, 10749], "id": 20, "original_language": "en", "original_title": "My Life Without Me", "overview": "A Pedro Almodovar production in which a fatally ill mother with only two months to live creates a list of things she wants to do before she dies with out telling her family of her illness.", "poster_path": "/vVj92VBFUBzjqzLvBiPVVlJDp78.jpg", "release_date": "2003-03-07", "title": "My Life Without Me", "video": false, "vote_average": 6.1, "vote_count": 220, "popularity": 10.382}, {"id": 9813, "video": false, "vote_count": 128, "vote_average": 6.1, "title": "The Quiet", "release_date": "2005-09-12", "original_language": "en", "original_title": "The Quiet", "genre_ids": [18, 53], "backdrop_path": "/6eyWAZA4CEidZW1xXnQ4vlYBXTP.jpg", "adult": false, "overview": "After her widowed father dies, deaf teenager Dot moves in with her godparents, Olivia and Paul Deer. The Deers' daughter, Nina, is openly hostile to Dot, but that does not prevent her from telling her secrets to her silent stepsister, including the fact that she wants to kill her lecherous father.", "poster_path": "/GEqIE9YlmygHVUfS64LW2cwAAM.jpg", "popularity": 14.844}, {"adult": false, "backdrop_path": "/uC54rlRdLMZ46fnrz5SoVYleNyv.jpg", "genre_ids": [18], "id": 4995, "original_language": "en", "original_title": "Boogie Nights", "overview": "Set in 1977, back when sex was safe, pleasure was a business and business was booming, idealistic porn producer Jack Horner aspires to elevate his craft to an art form. Horner discovers Eddie Adams, a hot young talent working as a busboy in a nightclub, and welcomes him into the extended family of movie-makers, misfits and hangers-on that are always around. Adams' rise from nobody to a celebrity adult entertainer is meteoric, and soon the whole world seems to know his porn alter ego, \"Dirk Diggler\". Now, when disco and drugs are in vogue, fashion is in flux and the party never seems to stop, Adams' dreams of turning sex into stardom are about to collide with cold, hard reality.", "poster_path": "/gTq6MPt7SeMiJ2miHeMoNEZTz4p.jpg", "release_date": "1997-10-07", "title": "Boogie Nights", "video": false, "vote_average": 7.6, "vote_count": 1660, "popularity": 21.563}, {"adult": false, "backdrop_path": "/qbrmEfBEcdrzHSAHgazJWmz3TSU.jpg", "genre_ids": [18], "id": 616229, "original_language": "en", "original_title": "The Male Gaze: The Heat of the Night", "overview": "When darkness falls, temperatures rise in these six stories about late night confessions, intimacy for sale, high speed hookups and full moon frissons. But when the sun comes up and reality reveals itself, will it have all been worth it?", "poster_path": "/e1gNLO829rkE73sBJ3aClZJHNXd.jpg", "release_date": "2019-07-15", "title": "The Male Gaze: The Heat of the Night", "video": false, "vote_average": 3.3, "vote_count": 3, "popularity": 7.834}, {"adult": false, "backdrop_path": "/bQW1TnxHlmkWof0vsALj4HBkoxj.jpg", "genre_ids": [18, 10749], "id": 51828, "original_language": "en", "original_title": "One Day", "overview": "A romantic comedy centered on Dexter and Emma, who first meet during their graduation in 1988 and proceed to keep in touch regularly. The film follows what they do on July 15 annually, usually doing something together.", "poster_path": "/xzOz17yC3K6SZWtWylXimcHUqpD.jpg", "release_date": "2011-03-02", "title": "One Day", "video": false, "vote_average": 7.2, "vote_count": 2343, "popularity": 16.744}, {"id": 9837, "video": false, "vote_count": 2194, "vote_average": 7.1, "title": "The Prince of Egypt", "release_date": "1998-12-15", "original_language": "en", "original_title": "The Prince of Egypt", "genre_ids": [12, 16, 35, 18, 10402, 10751], "backdrop_path": "/1yB6o6L5DLteeraLhz5Q0buBm6i.jpg", "adult": false, "overview": "This is the extraordinary tale of two brothers named Moses and Ramses, one born of royal blood, and one an orphan with a secret past. Growing up the best of friends, they share a strong bond of free-spirited youth and good-natured rivalry. But the truth will ultimately set them at odds, as one becomes the ruler of the most powerful empire on earth, and the other the chosen leader of his people! Their final confrontation will forever change their lives and the world.", "poster_path": "/wD34ls2faCrj8YvFViEaPfBtBEe.jpg", "popularity": 23.613}, {"id": 84892, "video": false, "vote_count": 6553, "vote_average": 7.7, "title": "The Perks of Being a Wallflower", "release_date": "2012-09-20", "original_language": "en", "original_title": "The Perks of Being a Wallflower", "genre_ids": [18], "backdrop_path": "/uhLcaTPeBpUNgYhZXhDWkj7gMkp.jpg", "adult": false, "overview": "15-year-old freshman Charlie is a wallflower, always watching life from the sidelines, until two charismatic senior students become his mentors. Free-spirited Sam and her stepbrother Patrick help Charlie discover the joys of friendship, first love, music and more, while a teacher sparks Charlie's dreams of becoming a writer.", "poster_path": "/cyNQLnHnXZcTUDXVVSEYmquOTOI.jpg", "popularity": 19.486}, {"id": 376865, "video": false, "vote_count": 325, "vote_average": 5.6, "title": "High Life", "release_date": "2018-11-07", "original_language": "en", "original_title": "High Life", "genre_ids": [18, 9648, 878, 53], "backdrop_path": "/bo5VJbds3oeMoj19GFnzBoUgjJS.jpg", "adult": false, "overview": "Monte and his baby daughter are the last survivors of a damned and dangerous mission to the outer reaches of the solar system. They must now rely on each other to survive as they hurtle toward the oblivion of a black hole.", "poster_path": "/wElOvH7H6sLElsTOLu1MY6oWRUx.jpg", "popularity": 14.717}], "total_pages": 1610, "total_results": 32181}, "recommendations": {"page": 1, "results": [{"id": 231218, "video": false, "vote_count": 8, "vote_average": 7.2, "title": "Dog", "release_date": "2001-08-16", "original_language": "en", "original_title": "Dog", "genre_ids": [18], "backdrop_path": "/m5OTh9Yh9VhLzaaZHLQadopl8Dj.jpg", "adult": false, "overview": "A teenage girl gets ready to go out to meet her boyfriend, despite her mother's loud verbal disapproval of her clothes. She goes out to a deserted area with him and he begins to touch her up and have sex with her, however a dog reveals the true nature of her boyfriend.", "poster_path": "/8vvJwtpmqTwAkpDNHfGsphVNxYi.jpg", "popularity": 2.334}, {"adult": false, "backdrop_path": "/sMPWC36D2MQnTOH5gtnTneM6j1j.jpg", "genre_ids": [80, 18, 9648], "id": 110379, "original_language": "hu", "original_title": "Sz\u00fcrk\u00fclet", "overview": "In this grim story, three murders of young girls are committed in a similar manner, and their bodies are all found in the woods. The only suspect, a young man assumed to be a paedophile, commits suicide during the investigation. A policeman becomes obsessed with solving the mystery of this serial killer and he continues to investigate even after he has been taken off the case.", "poster_path": "/807RpfaZF5z6XoQwEuJ7ATtTBcx.jpg", "release_date": "1990-09-28", "title": "Twilight", "video": false, "vote_average": 7.4, "vote_count": 9, "popularity": 1.951}, {"adult": false, "backdrop_path": "/8aawXi3pVc3HdnXgk9wzNzT4lUk.jpg", "genre_ids": [99], "id": 251037, "original_language": "zh", "original_title": "Wu ming zhe", "overview": "The character of this story lives far from the worlds of the material and the spirit. He has built his own subsistence conditions. He often goes to the neighboring villages, although he doesn\u2019t communicate with other people. He collects some waste but doesn\u2019t beg. He prowls about the ruins of deserted villages, as an animal or as a ghost. Under double political and economical pressure, most of people are depriving of their last dignity into a world where it exists a lack of material and spirit. But a human being stays a human being. He is looking for reasons to continue to live. \u2014Wang Bing", "poster_path": "/FEzdQf9RUQiQSqLfjCNE6jHgjn.jpg", "release_date": "2009-01-01", "title": "Man with No Name", "video": false, "vote_average": 7.3, "vote_count": 4, "popularity": 0.98}, {"adult": false, "backdrop_path": "/qab7TVaQmQTB3UYOSiDM4lfJG5v.jpg", "genre_ids": [18], "id": 149507, "original_language": "fa", "original_title": "\u06af\u0632\u0627\u0631\u0634\u200e\u200e", "overview": "The movie revolves around the life of a tax collector who is accused of taking bribes, and also has to deal with problems at home, including the suicide attempt of his wife.", "poster_path": "/dYYzui1HmATdnQtse1dNxsoZGx0.jpg", "release_date": "1977-01-01", "title": "The Report", "video": false, "vote_average": 6.5, "vote_count": 4, "popularity": 3.107}, {"id": 91067, "video": false, "vote_count": 5, "vote_average": 7.0, "title": "The Ditch", "release_date": "2011-04-15", "original_language": "zh", "original_title": "\u5939\u8fb9\u6c9f", "genre_ids": [18], "backdrop_path": "/m9wS1Q9yaKOA000EqEAm82wb0Xw.jpg", "adult": false, "overview": "The film focuses on the suffering of Chinese who were imprisoned in a forced labor camp called Jiabiangou in the Gobi Desert in winter 1960 under Mao Zedong on the grounds that they were \"rightist elements\". The film tells of the harsh life of these men, who coped with physical exhaustion, extreme cold, starvation and death on a daily basis.", "poster_path": "/v4evbZ0ysAx8GJXBHTwLMainH9D.jpg", "popularity": 2.545}, {"adult": false, "backdrop_path": "/qejHCRDkeY63ijbu41McLkmIVyU.jpg", "genre_ids": [18], "id": 340448, "original_language": "xx", "original_title": "\u7121\u7121\u7720", "overview": "A new entry in the Walker series. 'No No Sleep' is set in Tokyo, where Tsai Ming-liang met with Ando Masanobu.", "poster_path": "/ldneqYTlZw8MokNzD95yVqzwFlA.jpg", "release_date": "2015-04-21", "title": "No No Sleep", "video": false, "vote_average": 6.8, "vote_count": 4, "popularity": 1.46}, {"adult": false, "backdrop_path": null, "genre_ids": [80, 18], "id": 200021, "original_language": "fa", "original_title": "\u062f\u0633\u062a\u0641\u0631\u0648\u0634", "overview": "The movie consists of three episodes that explore the lives of poor and desperate in Iran. In episode one, a very poor couple with many crippled children abandon their newly born baby in hopes that it will have a better future. In the second episode, a mentally impaired and isolated young man tries to take care of his senile mother who is almost dead. In the third episode, a cowardly and desperate peddler tries to escape from his boss.", "poster_path": "/8kXeu5ZBPpe4lGgv7oxY5x6tgVG.jpg", "release_date": "1987-02-02", "title": "The Peddler", "video": false, "vote_average": 6.6, "vote_count": 5, "popularity": 0.767}, {"adult": false, "backdrop_path": "/pC2f31IiZiPNUHrEnkdnYOtJSFY.jpg", "genre_ids": [12, 18, 9648, 53, 80], "id": 56801, "original_language": "fr", "original_title": "Judex", "overview": "When an unscrupulous banker ruins his family, a young man swears to bring him to justice, so he adopts a new identity, the mysterious Judex, and ominously disguised and sunk into the muddy path of vengeance, punishes the crooks and protects the innocents. (Originally a twelve-part epic serial.)", "poster_path": "/2Qdfz67QpEldakhryWRPIf2hDMh.jpg", "release_date": "1916-12-16", "title": "Judex", "video": false, "vote_average": 7.1, "vote_count": 9, "popularity": 1.582}, {"id": 237957, "video": false, "vote_count": 10, "vote_average": 7.1, "title": "Nostos: The Return", "release_date": "1989-12-31", "original_language": "it", "original_title": "Nostos: il ritorno", "genre_ids": [12, 18, 36], "backdrop_path": "/8X7jcS9AJaWzBX8DSePvBvCqw2i.jpg", "adult": false, "overview": "At the end of the war, Odysseus, the wandering hero, with his companions begins his sail back home to the Mediterranean. The conclusion of his adventure is delayed by many natural obstacles and he takes an internal journey of fleeting memories of his childhood, his parents, love for a beautiful girl, nostalgia for the past, regret for what he did, and the deep silence that envelops everything. He confronts the most terrible loneliness following a shipwreck in which all the comrades perish.", "poster_path": "/fl4rar7JZ1S5PiRa6Wuuvln662j.jpg", "popularity": 2.073}, {"adult": false, "backdrop_path": "/3Spg9F3Ev0qU19ygt2uHVtc0dHY.jpg", "genre_ids": [35], "id": 40600, "original_language": "en", "original_title": "Hot Moves", "overview": "Four friends, annoyed at how almost everyone else they know is having sex but them, agree to do what they can to help each other lose their virginity before the end of the summer. Most of their opportunities are foiled by their inexperience and bad planning. Michael, the most sensible boy of the foursome, really just wants to stay with his long-time girlfriend and take their relationship to an intimate level, but after putting him off for six months he grows impatient and splits up with her to seek his fortune elsewhere.", "poster_path": "/isvDigvtK1PFXRWfaDNscDyQFUr.jpg", "release_date": "1984-10-04", "title": "Hot Moves", "video": false, "vote_average": 4.4, "vote_count": 8, "popularity": 4.919}, {"adult": false, "backdrop_path": "/rvbNUvGvINOHiVJhVdn24GwXio8.jpg", "genre_ids": [10749, 18, 36], "id": 99600, "original_language": "zh", "original_title": "\u597d\u7537\u597d\u5973", "overview": "Intended as the concluding film in the trilogy on the modern history of Taiwan began with Beiqing Chengshi (1989), this film reveals the story through three levels: a film within a film as well as the past and present as linked by a young woman, Liang Ching. She is being persecuted by an anonymous man who calls her repeatedly but does not speak. He has stolen her diary and faxes her pages daily. Liang is also rehearsing for a new film that is due to go into production soon. The film, entitled Haonan Haonu, is about a couple Chiang Bi-yu and Chung Hao-tung who returns to China to participate in the anti-Japanese movement in China in the 1940s and are arrested as communists when they go back to Taiwan.", "poster_path": "/yMmjIymprpdHrSoentdTaUNqgMG.jpg", "release_date": "1995-05-13", "title": "Good Men, Good Women", "video": false, "vote_average": 7.0, "vote_count": 9, "popularity": 1.93}, {"adult": false, "backdrop_path": null, "genre_ids": [18], "id": 277172, "original_language": "fr", "original_title": "Gradiva", "overview": "Fed up with his status as gallery poster boy, Rodin\u2019s \u201cThe Thinker\u201d airs his grievances to his partner...", "poster_path": "/iG9dkqPuH3uKe4gY61MGZ1quQGK.jpg", "release_date": "2014-05-28", "title": "Gradiva", "video": false, "vote_average": 5.3, "vote_count": 7, "popularity": 0.947}, {"id": 374728, "video": false, "vote_count": 9, "vote_average": 6.6, "title": "I Don't Belong Anywhere: The Cinema of Chantal Akerman", "release_date": "2015-08-07", "original_language": "fr", "original_title": "I Don\u2019t Belong Anywhere : Le Cin\u00e9ma de Chantal Akerman", "genre_ids": [], "backdrop_path": null, "adult": false, "overview": "I Don\u2019t Belong Anywhere -  Le Cin\u00e9ma de Chantal Akerman, explores some of the Belgian filmmaker\u2019s 40 plus films. From Brussels to Tel-Aviv, from Paris to New-York, this documentary charts the sites of her peregrinations. An experimental filmmaker, a nomad, Chantal Akerman shares her cinematic trajectory, one that has never ceased to interrogate the the meaning of her existence. Thanks in great part to the interventions of her editor, Claire Atherton, she delineates the origins of her film language and her aesthetic stance.", "poster_path": "/jOAU0h1tQAA5C1VQi4btFgdIhiw.jpg", "popularity": 1.256}, {"adult": false, "backdrop_path": "/4SFSia8VdxyUi2WJq3GI4rE3olv.jpg", "genre_ids": [18], "id": 94649, "original_language": "es", "original_title": "La libertad", "overview": "A woodcutter goes about his work.", "poster_path": "/d258qEiSMMd6XMxyG0J21vCW8kh.jpg", "release_date": "2001-06-28", "title": "La Libertad", "video": false, "vote_average": 6.7, "vote_count": 11, "popularity": 1.511}, {"adult": false, "backdrop_path": null, "genre_ids": [99], "id": 310799, "original_language": "zh", "original_title": "\u5149\u9670\u7684\u6545\u4e8b\uff0d\u53f0\u7063\u65b0\u96fb\u5f71", "overview": "With Taiwan remaining in the grip of martial law in 1982, a group of filmmakers from that country set out to establish a cultural identity through cinema and to share it with the world. This engaging documentary looks at the movement's legacy.", "poster_path": "/mvqtCBjXn6vuBpw5Q8QBaqL9UxM.jpg", "release_date": "2014-10-01", "title": "Flowers of Taipei: Taiwan New Cinema", "video": false, "vote_average": 7.5, "vote_count": 6, "popularity": 1.791}, {"id": 53028, "video": false, "vote_count": 8, "vote_average": 7.1, "title": "Jane B. by Agn\u00e8s V.", "release_date": "1988-03-02", "original_language": "fr", "original_title": "Jane B. par Agn\u00e8s V.", "genre_ids": [99, 14], "backdrop_path": "/5pVq97ZRTQUeJlPHqam4f3w3nC1.jpg", "adult": false, "overview": "A portrait of actress Jane Birkin.", "poster_path": "/1izUNQlIMkc7dhcbatWej6NvpW8.jpg", "popularity": 2.344}], "total_pages": 1, "total_results": 16}, "credits": {"cast": [{"cast_id": 2, "character": "Ralph", "credit_id": "532c683fc3a3686ef800019a", "gender": 2, "id": 1225379, "name": "Stephen McGann", "order": 1, "profile_path": "/xH2xU2A4HtdDNRl9iSTVISHHyys.jpg"}, {"cast_id": 3, "character": "Martin", "credit_id": "532c6852c3a3686ede000165", "gender": 2, "id": 59075, "name": "Lee Oakes", "order": 2, "profile_path": "/42kTdJ12vPM5uT3vIaA7Ix8DPF.jpg"}, {"cast_id": 4, "character": "Hetty", "credit_id": "532c6860c3a3686ef80001a4", "gender": 1, "id": 223457, "name": "Lynda Steadman", "order": 3, "profile_path": null}], "crew": [{"credit_id": "52fe4cd4c3a36847f824078d", "department": "Directing", "gender": 1, "id": 71082, "job": "Director", "name": "Andrea Arnold", "profile_path": "/tdOz2FOhMyQaLOyEQYK1GEk8PA8.jpg"}, {"credit_id": "596e8185925141607b00a9b9", "department": "Writing", "gender": 1, "id": 71082, "job": "Writer", "name": "Andrea Arnold", "profile_path": "/tdOz2FOhMyQaLOyEQYK1GEk8PA8.jpg"}]}}