{"adult": false, "backdrop_path": "/uugOHzbVLyGOREHKr0Pvm1q97gy.jpg", "belongs_to_collection": null, "budget": 0, "genres": [{"id": 99, "name": "Documentary"}], "homepage": null, "id": 168853, "imdb_id": "tt0907856", "original_language": "en", "original_title": "Klunkerz", "overview": "Long before the mountain bike entered our global consciousness, the cycling enthusiasts of Northern California's Marin County rode modified pre-WWII bicycles down the slopes of Mount Tamalpais. They developed their bikes through rigorous field-testing, often risking life and limb to do so. Some of these cyclists were Category-1 road racers looking for a new way to train during the off-season. Others were simply fun-loving hippies looking for a new way to commune with nature. Their early bikes were scavenged from dumpsters and junkyards. It was from these humble beginnings that a multi-billion dollar industry, a form of recreation for the masses, and an Olympic event, were born. These hefty steeds were affectionately known as Klunkerz.", "popularity": 1.97, "poster_path": "/folsdIpbJY3uOyPVD5cZ82LnDAV.jpg", "production_companies": [], "production_countries": [{"iso_3166_1": "US", "name": "United States of America"}], "release_date": "2006-10-08", "revenue": 0, "runtime": 83, "spoken_languages": [{"iso_639_1": "en", "name": "English"}], "status": "Released", "tagline": "In the late 1960s through the 1970s a group of cyclists in Northern California's Marin County turned the bicycle world upside-down by taking their adventures off-road.", "title": "Klunkerz", "video": false, "vote_average": 8.0, "vote_count": 1, "keywords": {"keywords": [{"id": 3797, "name": "bicycle"}, {"id": 9682, "name": "history"}, {"id": 10191, "name": "mountain biking"}, {"id": 163222, "name": "off road"}, {"id": 225410, "name": "hippies"}]}, "similar": {"page": 1, "results": [{"id": 549559, "video": false, "vote_count": 204, "vote_average": 8.1, "title": "Apollo 11", "release_date": "2019-03-01", "original_language": "en", "original_title": "Apollo 11", "genre_ids": [99, 36], "backdrop_path": "/cRW5341t1y61XK7mrhTvwoodZz6.jpg", "adult": false, "overview": "A look at the Apollo 11 mission to land on the moon led by commander Neil Armstrong and pilot Buzz Aldrin.", "poster_path": "/woLMRroHyoTGoXyxdEeBJEYBFtu.jpg", "popularity": 18.75}, {"adult": false, "backdrop_path": "/4bHX7nAmjMiZO9eotJITyro0raw.jpg", "genre_ids": [18], "id": 376866, "original_language": "en", "original_title": "Jackie", "overview": "An account of the days of First Lady, Jacqueline Kennedy, in the immediate aftermath of John F. Kennedy's assassination in 1963.", "poster_path": "/iMkl2Akc1f4CSJCieVwczM4KjZR.jpg", "release_date": "2016-12-02", "title": "Jackie", "video": false, "vote_average": 6.5, "vote_count": 1554, "popularity": 12.598}, {"id": 8916, "video": false, "vote_count": 2873, "vote_average": 6.1, "title": "Antz", "release_date": "1998-10-02", "original_language": "en", "original_title": "Antz", "genre_ids": [12, 16, 35, 10751], "backdrop_path": "/kMfLkbVTsALj5eIu72jtwzDhVsV.jpg", "adult": false, "overview": "In this animated hit, a neurotic worker ant in love with a rebellious princess rises to unlikely stardom when he switches places with a soldier. Signing up to march in a parade, he ends up under the command of a bloodthirsty general. But he's actually been enlisted to fight against a termite army.", "poster_path": "/3biVcPu5hrfKUMC73sTFq17dmmS.jpg", "popularity": 19.964}, {"adult": false, "backdrop_path": "/xStFRUQtjdQWiZEGN80rgkhN0Kh.jpg", "genre_ids": [18, 878], "id": 11864, "original_language": "en", "original_title": "Enemy Mine", "overview": "A soldier from Earth crashlands on an alien world after sustaining battle damage. Eventually he encounters another survivor, but from the enemy species he was fighting; they band together to survive on this hostile world. In the end the human finds himself caring for his enemy in a completely unexpected way.", "poster_path": "/rOGOW5BnkT0Ccg7XEDmdBUBuw0K.jpg", "release_date": "1985-12-12", "title": "Enemy Mine", "video": false, "vote_average": 6.8, "vote_count": 456, "popularity": 12.134}, {"adult": false, "backdrop_path": "/pKawqrtCBMmxarft7o1LbEynys7.jpg", "genre_ids": [10752, 18, 28], "id": 228150, "original_language": "en", "original_title": "Fury", "overview": "In the last months of World War II, as the Allies make their final push in the European theatre, a battle-hardened U.S. Army sergeant named 'Wardaddy' commands a Sherman tank called 'Fury' and its five-man crew on a deadly mission behind enemy lines. Outnumbered and outgunned, Wardaddy and his men face overwhelming odds in their heroic attempts to strike at the heart of Nazi Germany.", "poster_path": "/fa4PxEPRKWRyjzYje1jM4m30qzd.jpg", "release_date": "2014-10-15", "title": "Fury", "video": false, "vote_average": 7.4, "vote_count": 7302, "popularity": 53.985}, {"id": 205584, "video": false, "vote_count": 2544, "vote_average": 5.4, "title": "Gods of Egypt", "release_date": "2016-02-25", "original_language": "en", "original_title": "Gods of Egypt", "genre_ids": [28, 12, 14], "backdrop_path": "/xy74anT8ZGhUIGVoalnHrmRDHbQ.jpg", "adult": false, "overview": "A common thief joins a mythical god on a quest through Egypt.", "poster_path": "/uPqAW07bGoljf3cmT5gecdOvVol.jpg", "popularity": 18.688}, {"id": 602, "video": false, "vote_count": 6006, "vote_average": 6.8, "title": "Independence Day", "release_date": "1996-06-25", "original_language": "en", "original_title": "Independence Day", "genre_ids": [28, 12, 878], "backdrop_path": "/4E2xKGrU2qcqUE2S3Nl27hwZdqy.jpg", "adult": false, "overview": "On July 2, a giant alien mothership enters orbit around Earth and deploys several dozen saucer-shaped 'destroyer' spacecraft that quickly lay waste to major cities around the planet. On July 3, the United States conducts a coordinated counterattack that fails. On July 4, a plan is devised to gain access to the interior of the alien mothership in space, in order to plant a nuclear missile.", "poster_path": "/bqLlWZJdhrS0knfEJRkquW7L8z2.jpg", "popularity": 20.636}, {"id": 300671, "video": false, "vote_count": 1700, "vote_average": 7.1, "title": "13 Hours: The Secret Soldiers of Benghazi", "release_date": "2016-01-13", "original_language": "en", "original_title": "13 Hours: The Secret Soldiers of Benghazi", "genre_ids": [28, 18, 36, 53, 10752], "backdrop_path": "/hY8myWhjSOUeeiPskhOfwwgaCwc.jpg", "adult": false, "overview": "An American Ambassador is killed during an attack at a U.S. compound in Libya as a security team struggles to make sense out of the chaos.", "poster_path": "/4gpW4MkRI0BB17GHOJzXq0WamDP.jpg", "popularity": 20.173}, {"id": 577332, "video": false, "vote_count": 7, "vote_average": 8.3, "title": "Panipat", "release_date": "2019-12-05", "original_language": "hi", "original_title": "P\u092a\u093e\u0928\u0940\u092a\u091f", "genre_ids": [28, 18, 36, 10752], "backdrop_path": "/jAubfxS4QpGI9nfNHckxa4Faitu.jpg", "adult": false, "overview": "During 18th century India, the Marathas emerged as the most powerful empire in the nation until the Afghan King Ahmad Shah Abdali plans to take over India. Sadashiv Rao Bhau is brought in to save the empire from the king which then leads to the third battle of Panipat.", "poster_path": "/z59Vr7l2ZFQPh76ooSQdXjW3YRo.jpg", "popularity": 9.057}, {"adult": false, "backdrop_path": "/nfm6JCKUaM6dT0mATmShLY6cpmc.jpg", "genre_ids": [18, 10752], "id": 600, "original_language": "en", "original_title": "Full Metal Jacket", "overview": "A pragmatic U.S. Marine observes the dehumanizing effects the U.S.-Vietnam War has on his fellow recruits from their brutal boot camp training to the bloody street fighting in Hue.", "poster_path": "/29veIwD38rVL2qY74emXQw4y25H.jpg", "release_date": "1987-06-26", "title": "Full Metal Jacket", "video": false, "vote_average": 8.1, "vote_count": 5897, "popularity": 25.207}, {"id": 369885, "video": false, "vote_count": 3048, "vote_average": 6.7, "title": "Allied", "release_date": "2016-11-17", "original_language": "en", "original_title": "Allied", "genre_ids": [28, 18, 53, 10749, 10752], "backdrop_path": "/tC0tVH5KQhCwMlddnyA3iWOSuBA.jpg", "adult": false, "overview": "In 1942, an intelligence officer in North Africa encounters a female French Resistance fighter on a deadly mission behind enemy lines. When they reunite in London, their relationship is tested by the pressures of war.", "poster_path": "/nzXzLFTnd0Zb3ExfhOxlQgizgSu.jpg", "popularity": 29.818}, {"id": 12244, "video": false, "vote_count": 2156, "vote_average": 6.7, "title": "9", "release_date": "2009-08-19", "original_language": "en", "original_title": "9", "genre_ids": [28, 12, 16, 878, 53], "backdrop_path": "/jTki4a30PUskfGtOFx6PgYr74H7.jpg", "adult": false, "overview": "When 9 first comes to life, he finds himself in a post-apocalyptic world. All humans are gone, and it is only by chance that he discovers a small community of others like him taking refuge from fearsome machines that roam the earth intent on their extinction. Despite being the neophyte of the group, 9 convinces the others that hiding will do them no good.", "poster_path": "/iGMOQt6R88ZuJRtlfpqWRa5268h.jpg", "popularity": 25.329}, {"adult": false, "backdrop_path": "/43fnzmOMO5zOUFH3EzyuwSh87IS.jpg", "genre_ids": [18], "id": 45317, "original_language": "en", "original_title": "The Fighter", "overview": "The Fighter, is a drama about boxer \"Irish\" Micky Ward's unlikely road to the world light welterweight title. His Rocky-like rise was shepherded by half-brother Dicky, a boxer-turned-trainer who rebounded in life after nearly being KO'd by drugs and crime.", "poster_path": "/ytGIpdxYyvXwch5QILfquSTMA9f.jpg", "release_date": "2010-12-17", "title": "The Fighter", "video": false, "vote_average": 7.3, "vote_count": 2572, "popularity": 19.636}, {"adult": false, "backdrop_path": "/3BY2I6iLunYRkkl8Hb3hZl8O9MQ.jpg", "genre_ids": [18, 36], "id": 76203, "original_language": "en", "original_title": "12 Years a Slave", "overview": "In the pre-Civil War United States, Solomon Northup, a free black man from upstate New York, is abducted and sold into slavery. Facing cruelty as well as unexpected kindnesses Solomon struggles not only to stay alive, but to retain his dignity. In the twelfth year of his unforgettable odyssey, Solomon\u2019s chance meeting with a Canadian abolitionist will forever alter his life.", "poster_path": "/kb3X943WMIJYVg4SOAyK0pmWL5D.jpg", "release_date": "2013-10-18", "title": "12 Years a Slave", "video": false, "vote_average": 7.9, "vote_count": 7315, "popularity": 21.97}, {"id": 330459, "video": false, "vote_count": 10231, "vote_average": 7.5, "title": "Rogue One: A Star Wars Story", "release_date": "2016-12-14", "original_language": "en", "original_title": "Rogue One: A Star Wars Story", "genre_ids": [28, 12, 878], "backdrop_path": "/tZjVVIYXACV4IIIhXeIM59ytqwS.jpg", "adult": false, "overview": "A rogue band of resistance fighters unite for a mission to steal the Death Star plans and bring a new hope to the galaxy.", "poster_path": "/qjiskwlV1qQzRCjpV0cL9pEMF9a.jpg", "popularity": 29.289}, {"id": 131631, "video": false, "vote_count": 10886, "vote_average": 6.8, "title": "The Hunger Games: Mockingjay - Part 1", "release_date": "2014-11-18", "original_language": "en", "original_title": "The Hunger Games: Mockingjay - Part 1", "genre_ids": [12, 878, 53], "backdrop_path": "/4PwyB0ErucIANzW24Kori71J6gU.jpg", "adult": false, "overview": "Katniss Everdeen reluctantly becomes the symbol of a mass rebellion against the autocratic Capitol.", "poster_path": "/gj282Pniaa78ZJfbaixyLXnXEDI.jpg", "popularity": 54.62}, {"id": 57212, "video": false, "vote_count": 2067, "vote_average": 7.2, "title": "War Horse", "release_date": "2011-12-25", "original_language": "en", "original_title": "War Horse", "genre_ids": [28, 18, 10752], "backdrop_path": "/iO4fslQ9CenAOcg3JfhN6o9va2.jpg", "adult": false, "overview": "Follows a young man named Albert and his horse, Joey, and how their bond is broken when Joey is sold to the cavalry and sent to the trenches of World War One. Despite being too young to enlist, Albert heads to France to save his friend.", "poster_path": "/6wMoQyJddEiLCzLUHiX7LNWhDol.jpg", "popularity": 12.763}, {"adult": false, "backdrop_path": "/bRGtZsVj2Qq8r5CCsNYmQUPF4z4.jpg", "genre_ids": [80, 18, 878, 53], "id": 10559, "original_language": "en", "original_title": "Frequency", "overview": "When a rare phenomenon gives police officer John Sullivan the chance to speak to his father, 30 years in the past, he takes the opportunity to prevent his dad's tragic death.  After his actions inadvertently give rise to a series of brutal murders he and his father must find a way to fix the consequences of altering time.", "poster_path": "/n0QAAZmIaPPIShVkk8eiKwfGV9.jpg", "release_date": "2000-04-28", "title": "Frequency", "video": false, "vote_average": 7.1, "vote_count": 897, "popularity": 14.026}, {"id": 346672, "video": false, "vote_count": 2460, "vote_average": 5.5, "title": "Underworld: Blood Wars", "release_date": "2016-11-24", "original_language": "en", "original_title": "Underworld: Blood Wars", "genre_ids": [28, 18, 14, 27], "backdrop_path": "/fXqGBlz4xtLZzo878sHUxtsVzpU.jpg", "adult": false, "overview": "Vampire death dealer Selene fends off brutal attacks from both the Lycan clan and the Vampire faction that betrayed her. With her only allies, David and his father Thomas, she must stop the eternal war between Lycans and Vampires, even if it means she has to make the ultimate sacrifice.", "poster_path": "/nHXiMnWUAUba2LZ0dFkNDVdvJ1o.jpg", "popularity": 23.524}, {"id": 173, "video": false, "vote_count": 368, "vote_average": 7.0, "title": "20,000 Leagues Under the Sea", "release_date": "1954-05-13", "original_language": "en", "original_title": "20,000 Leagues Under the Sea", "genre_ids": [12, 878], "backdrop_path": "/y2PFn5oP0jWt5Kk0EwFcWenqawp.jpg", "adult": false, "overview": "A ship sent to investigate a wave of mysterious sinkings encounters the advanced submarine, the Nautilus, commanded by Captain Nemo.", "poster_path": "/yhoL2CxBp9IwMhHrCj6FIb2lrYR.jpg", "popularity": 15.509}], "total_pages": 148, "total_results": 2942}, "recommendations": {"page": 1, "results": [], "total_pages": 1, "total_results": 0}, "credits": {"cast": [{"cast_id": 1, "character": "Himself", "credit_id": "5973d8479251415806005be9", "gender": 2, "id": 1511150, "name": "Gary Fisher", "order": 0, "profile_path": null}, {"cast_id": 0, "character": "Himself", "credit_id": "5973d5c392514157fb005cbd", "gender": 0, "id": 1856364, "name": "Joe Breeze", "order": 1, "profile_path": null}, {"cast_id": 3, "character": "Himself", "credit_id": "5973da1cc3a3685ded006383", "gender": 0, "id": 1856373, "name": "Tom Ritchey", "order": 2, "profile_path": null}, {"cast_id": 2, "character": "Himself", "credit_id": "5973d9b3c3a3685dba005656", "gender": 0, "id": 1856371, "name": "Charlie Kelly", "order": 3, "profile_path": null}, {"cast_id": 4, "character": "Himself", "credit_id": "5973da87c3a3685ded006409", "gender": 0, "id": 1856376, "name": "Mike Sinyard", "order": 4, "profile_path": null}, {"cast_id": 8, "character": "Herself", "credit_id": "5973e30cc3a3685ded006c8a", "gender": 1, "id": 1856394, "name": "Wende Cragg", "order": 5, "profile_path": "/zyx86Ab24vnt8K0h26tc1aVwRzA.jpg"}, {"cast_id": 9, "character": "Himself", "credit_id": "5973e82dc3a3685dba0062ef", "gender": 0, "id": 1856397, "name": "Alan Bonds", "order": 6, "profile_path": null}, {"cast_id": 10, "character": "Himself", "credit_id": "5973e85dc3a3685dba00632a", "gender": 0, "id": 1856398, "name": "Otis Guy", "order": 7, "profile_path": null}], "crew": [{"credit_id": "5973dbb392514157ec006433", "department": "Writing", "gender": 2, "id": 1856379, "job": "Writer", "name": "Billy Savage", "profile_path": null}, {"credit_id": "5973dbd7c3a3685dd8006d00", "department": "Production", "gender": 2, "id": 1856379, "job": "Producer", "name": "Billy Savage", "profile_path": null}, {"credit_id": "5973dbe4925141580600600a", "department": "Directing", "gender": 2, "id": 1856379, "job": "Director", "name": "Billy Savage", "profile_path": null}]}}