{"adult": false, "backdrop_path": "/zGHWjvk0GL50OQQV76dJE31a3LU.jpg", "belongs_to_collection": null, "budget": 0, "genres": [{"id": 18, "name": "Drama"}], "homepage": "", "id": 16993, "imdb_id": "tt0068575", "original_language": "en", "original_title": "Fat City", "overview": "Two men, working as professional boxers, come to blows when their careers each begin to take opposite momentum.", "popularity": 6.561, "poster_path": "/43wzIQppbnNlJceD7SS0qF0H4ZX.jpg", "production_companies": [{"id": 2070, "logo_path": null, "name": "Rastar Pictures", "origin_country": ""}, {"id": 5, "logo_path": "/71BqEFAF4V3qjjMPCpLuyJFB9A.png", "name": "Columbia Pictures", "origin_country": "US"}], "production_countries": [{"iso_3166_1": "US", "name": "United States of America"}], "release_date": "1972-07-26", "revenue": 0, "runtime": 100, "spoken_languages": [{"iso_639_1": "en", "name": "English"}], "status": "Released", "tagline": "Life is what happens in between rounds.", "title": "Fat City", "video": false, "vote_average": 7.2, "vote_count": 58, "keywords": {"keywords": [{"id": 387, "name": "california"}, {"id": 396, "name": "transporter"}, {"id": 2792, "name": "boxer"}, {"id": 4487, "name": "boxing match"}, {"id": 6075, "name": "sport"}, {"id": 7464, "name": "alcoholism"}, {"id": 155464, "name": "over-the-hill fighter"}, {"id": 207268, "name": "neo-noir"}]}, "similar": {"page": 1, "results": [{"id": 1375, "video": false, "vote_count": 1669, "vote_average": 5.6, "title": "Rocky V", "release_date": "1990-10-18", "original_language": "en", "original_title": "Rocky V", "genre_ids": [18], "backdrop_path": "/dr5pdEDOdCvelCQqP32UZubiSgE.jpg", "adult": false, "overview": "A lifetime of taking shots has ended Rocky\u2019s career, and a crooked accountant has left him broke. Inspired by the memory of his trainer, however, Rocky finds glory in training and takes on an up-and-coming boxer.", "poster_path": "/5P2RiuLt31mWyb6duww8qlAhs6G.jpg", "popularity": 16.084}, {"adult": false, "backdrop_path": "/6qYptQG2ynJANbyjjYOt4fpHfxF.jpg", "genre_ids": [18], "id": 1371, "original_language": "en", "original_title": "Rocky III", "overview": "Now the world champion, Rocky Balboa is living in luxury and only fighting opponents who pose no threat to him in the ring, until Clubber Lang challenges him to a bout. After taking a pounding from Lang, the humbled champ turns to former bitter rival Apollo Creed for a rematch with Lang.", "poster_path": "/ns55NGqTDEEjcI9z2a9htA2cFtG.jpg", "release_date": "1982-05-28", "title": "Rocky III", "video": false, "vote_average": 6.8, "vote_count": 2155, "popularity": 19.06}, {"id": 1374, "video": false, "vote_count": 2311, "vote_average": 6.9, "title": "Rocky IV", "release_date": "1985-11-21", "original_language": "en", "original_title": "Rocky IV", "genre_ids": [18], "backdrop_path": "/uvbjTLZSxGehXWDo1ENyVuBrYie.jpg", "adult": false, "overview": "After iron man Drago, a highly intimidating 6-foot-5, 261-pound Soviet athlete, kills Apollo Creed in an exhibition match, Rocky comes to the heart of Russia for 15 pile-driving boxing rounds of revenge.", "poster_path": "/jmvpwgW5M2kduR9zB0q8qGFC4zM.jpg", "popularity": 21.193}, {"adult": false, "backdrop_path": "/xx9DyVNmehDJPrYGsy9AJgYzAtd.jpg", "genre_ids": [18], "id": 1367, "original_language": "en", "original_title": "Rocky II", "overview": "After Rocky goes the distance with champ Apollo Creed, both try to put the fight behind them and move on. Rocky settles down with Adrian but can't put his life together outside the ring, while Creed seeks a rematch to restore his reputation. Soon enough, the \"Master of Disaster\" and the \"Italian Stallion\" are set on a collision course for a climactic battle that is brutal and unforgettable.", "poster_path": "/fqJH7mI4dFANRay8qdJoGa7fK1k.jpg", "release_date": "1979-06-15", "title": "Rocky II", "video": false, "vote_average": 7.1, "vote_count": 2341, "popularity": 19.433}, {"id": 921, "video": false, "vote_count": 1244, "vote_average": 7.5, "title": "Cinderella Man", "release_date": "2005-06-02", "original_language": "en", "original_title": "Cinderella Man", "genre_ids": [18, 36, 10749], "backdrop_path": "/ozvvHdadtBYpExCwAjsNPSjV6hT.jpg", "adult": false, "overview": "The true story of boxer, Jim Braddock who, in the 1920\u2019s after his retirement, has a surprise comeback in order to get him and his family out of a socially poor state.", "poster_path": "/xZhumK43Z6jmwCWglh7uHcpkqdb.jpg", "popularity": 14.337}, {"adult": false, "backdrop_path": "/qVjKZMB0IdOc2JlwiiGsuKTvTJs.jpg", "genre_ids": [18], "id": 22881, "original_language": "en", "original_title": "The Blind Side", "overview": "The story of Michael Oher, a homeless and traumatized boy who became an All American football player and first round NFL draft pick with the help of a caring woman and her family", "poster_path": "/wEGFSgPebLk6g1ngKsJ6a46PYLV.jpg", "release_date": "2009-11-20", "title": "The Blind Side", "video": false, "vote_average": 7.5, "vote_count": 3212, "popularity": 30.144}, {"id": 307081, "video": false, "vote_count": 3699, "vote_average": 7.4, "title": "Southpaw", "release_date": "2015-03-24", "original_language": "en", "original_title": "Southpaw", "genre_ids": [28, 18], "backdrop_path": "/tTt1cdEEkKMJ1R4VBTe5vbE3bWO.jpg", "adult": false, "overview": "Billy \"The Great\" Hope, the reigning junior middleweight boxing champion, has an impressive career, a loving wife and daughter, and a lavish lifestyle. However, when tragedy strikes, Billy hits rock bottom, losing his family, his house and his manager. He soon finds an unlikely savior in Tick Willis, a former fighter who trains the city's toughest amateur boxers. With his future on the line, Hope fights to reclaim the trust of those he loves the most.", "poster_path": "/50d0XQQETSyg3bwBXhC7K33pKgc.jpg", "popularity": 24.057}, {"id": 1366, "video": false, "vote_count": 4241, "vote_average": 7.7, "title": "Rocky", "release_date": "1976-11-21", "original_language": "en", "original_title": "Rocky", "genre_ids": [18], "backdrop_path": "/2kkyt0FLROrXt41IgSdE7goCFNQ.jpg", "adult": false, "overview": "When world heavyweight boxing champion, Apollo Creed wants to give an unknown fighter a shot at the title as a publicity stunt, his handlers choose palooka Rocky Balboa, an uneducated collector for a Philadelphia loan shark. Rocky teams up with trainer  Mickey Goldmill to make the most of this once in a lifetime break.", "poster_path": "/9TUR3s1PMJHwDRbpm7PWQ0S7IRy.jpg", "popularity": 25.64}, {"id": 312221, "video": false, "vote_count": 4400, "vote_average": 7.4, "title": "Creed", "release_date": "2015-11-25", "original_language": "en", "original_title": "Creed", "genre_ids": [18], "backdrop_path": "/fs2yhdSCzMVlNECrN84WuCkgXov.jpg", "adult": false, "overview": "The former World Heavyweight Champion Rocky Balboa serves as a trainer and mentor to Adonis Johnson, the son of his late friend and former rival Apollo Creed.", "poster_path": "/hKzhV274pkZBSpXfCjUyzbyYKLl.jpg", "popularity": 17.551}, {"id": 242582, "video": false, "vote_count": 6506, "vote_average": 7.7, "title": "Nightcrawler", "release_date": "2014-10-23", "original_language": "en", "original_title": "Nightcrawler", "genre_ids": [80, 18, 53], "backdrop_path": "/gktL2rfE7d1xrwPSSTohxLOjLSs.jpg", "adult": false, "overview": "When Lou Bloom, desperate for work, muscles into the world of L.A. crime journalism, he blurs the line between observer and participant to become the star of his own story. Aiding him in his effort is Nina, a TV-news veteran.", "poster_path": "/8oPY6ULFOTbAEskySNhgsUIN4fW.jpg", "popularity": 35.295}, {"id": 480530, "video": false, "vote_count": 2746, "vote_average": 6.8, "title": "Creed II", "release_date": "2018-11-21", "original_language": "en", "original_title": "Creed II", "genre_ids": [18], "backdrop_path": "/hZqx2JcZVjHSY2lMEMDC0XlObiw.jpg", "adult": false, "overview": "Between personal obligations and training for his next big fight against an opponent with ties to his family's past, Adonis Creed is up against the challenge of his life.", "poster_path": "/v3QyboWRoA4O9RbcsqH8tJMe8EB.jpg", "popularity": 22.97}, {"adult": false, "backdrop_path": "/jK3EAFk3GdOaQfUDCOiTujzMpwH.jpg", "genre_ids": [18], "id": 389015, "original_language": "en", "original_title": "I, Tonya", "overview": "Competitive ice skater Tonya Harding rises amongst the ranks at the U. S. Figure Skating Championships, but her future in the sport is thrown into doubt when her ex-husband intervenes.", "poster_path": "/6gNXwSHxaksR1PjVZRqNapmkgj3.jpg", "release_date": "2017-12-08", "title": "I, Tonya", "video": false, "vote_average": 7.5, "vote_count": 3327, "popularity": 19.513}, {"adult": false, "backdrop_path": "/43fnzmOMO5zOUFH3EzyuwSh87IS.jpg", "genre_ids": [18], "id": 45317, "original_language": "en", "original_title": "The Fighter", "overview": "The Fighter, is a drama about boxer \"Irish\" Micky Ward's unlikely road to the world light welterweight title. His Rocky-like rise was shepherded by half-brother Dicky, a boxer-turned-trainer who rebounded in life after nearly being KO'd by drugs and crime.", "poster_path": "/ytGIpdxYyvXwch5QILfquSTMA9f.jpg", "release_date": "2010-12-17", "title": "The Fighter", "video": false, "vote_average": 7.3, "vote_count": 2571, "popularity": 17.881}, {"adult": false, "backdrop_path": "/uCjCNaxLyLkcwBq4aOHOeiKKwPE.jpg", "genre_ids": [35, 10749, 80, 18, 9648], "id": 171274, "original_language": "en", "original_title": "Inherent Vice", "overview": "In Los Angeles at the turn of the 1970s, drug-fueled detective Larry \"Doc\" Sportello investigates the disappearance of an ex-girlfriend.", "poster_path": "/2fCg6FORkgRLpFIKlUg4gULIn1u.jpg", "release_date": "2014-12-25", "title": "Inherent Vice", "video": false, "vote_average": 6.6, "vote_count": 1534, "popularity": 25.677}, {"id": 8923, "video": false, "vote_count": 1358, "vote_average": 7.2, "title": "Green Street Hooligans", "release_date": "2005-09-09", "original_language": "en", "original_title": "Green Street Hooligans", "genre_ids": [80, 18], "backdrop_path": "/oasVTD3UpTEjhTAVx9ZCy1k19Qv.jpg", "adult": false, "overview": "After being wrongfully expelled from Harvard University, American Matt Buckner flees to his sister's home in England. Once there, he is befriended by her charming and dangerous brother-in-law, Pete Dunham, and introduced to the underworld of British football hooliganism. Matt learns to stand his ground through a friendship that develops against the backdrop of this secret and often violent world. 'Green Street Hooligans' is a story of loyalty, trust and the sometimes brutal consequences of living close to the edge.", "poster_path": "/z3LC4kI8azbeuHRGgDdWo6VBCdX.jpg", "popularity": 14.424}, {"id": 1538, "video": false, "vote_count": 2889, "vote_average": 7.2, "title": "Collateral", "release_date": "2004-08-04", "original_language": "en", "original_title": "Collateral", "genre_ids": [80, 18, 53], "backdrop_path": "/hFcXrnmciPfIg8ZcXb1V7BeguF.jpg", "adult": false, "overview": "Cab driver Max picks up a man who offers him $600 to drive him around. But the promise of easy money sours when Max realizes his fare is an assassin.", "poster_path": "/fmkv2eRuYCTq7A5jzMBNgoNe1vA.jpg", "popularity": 16.215}, {"adult": false, "backdrop_path": "/n1Gh3MJAVvXmkgSDf3SOLlPCjag.jpg", "genre_ids": [35, 18, 10749], "id": 9390, "original_language": "en", "original_title": "Jerry Maguire", "overview": "Jerry Maguire used to be a typical sports agent: willing to do just about anything he could to get the biggest possible contracts for his clients, plus a nice commission for himself. Then, one day, he suddenly has second thoughts about what he's really doing. When he voices these doubts, he ends up losing his job and all of his clients, save Rod Tidwell, an egomaniacal football player.", "poster_path": "/99YTEdKOKDRClsscOpJfdkbaTrQ.jpg", "release_date": "1996-12-13", "title": "Jerry Maguire", "video": false, "vote_average": 6.9, "vote_count": 1794, "popularity": 16.867}, {"id": 2034, "video": false, "vote_count": 3168, "vote_average": 7.4, "title": "Training Day", "release_date": "2001-10-05", "original_language": "en", "original_title": "Training Day", "genre_ids": [28, 80, 18, 53], "backdrop_path": "/A1S9fBzc4Wepc6onnCd9eVR2FLp.jpg", "adult": false, "overview": "On his first day on the job as a narcotics officer, a rookie cop works with a rogue detective who isn't what he appears.", "poster_path": "/sDT2biSB7wzBJdXq9o3ldr7VfvY.jpg", "popularity": 16.789}, {"id": 107, "video": false, "vote_count": 5245, "vote_average": 7.8, "title": "Snatch", "release_date": "2000-09-01", "original_language": "en", "original_title": "Snatch", "genre_ids": [80, 53], "backdrop_path": "/cNLZ7YGRikb4IsLblrzu86ndZPw.jpg", "adult": false, "overview": "The second film from British director Guy Ritchie. Snatch tells an obscure story similar to his first fast-paced crazy character-colliding filled film \u201cLock, Stock and Two Smoking Barrels.\u201d There are two overlapping stories here \u2013 one is the search for a stolen diamond, and the other about a boxing promoter who\u2019s having trouble with a psychotic gangster.", "poster_path": "/on9JlbGEccLsYkjeEph2Whm1DIp.jpg", "popularity": 25.391}, {"id": 290250, "video": false, "vote_count": 4777, "vote_average": 7.1, "title": "The Nice Guys", "release_date": "2016-05-15", "original_language": "en", "original_title": "The Nice Guys", "genre_ids": [28, 35, 80], "backdrop_path": "/a7eSkK4bkLwKCXYDdYIqLxrqT2n.jpg", "adult": false, "overview": "A private eye investigates the apparent suicide of a fading porn star in 1970s Los Angeles and uncovers a conspiracy.", "poster_path": "/vNCeqxbKyDHL9LUza03V2Im16wB.jpg", "popularity": 24.554}], "total_pages": 27, "total_results": 525}, "recommendations": {"page": 1, "results": [{"id": 26744, "video": false, "vote_count": 54, "vote_average": 6.9, "title": "Force of Evil", "release_date": "1948-12-25", "original_language": "en", "original_title": "Force of Evil", "genre_ids": [28, 80, 18], "backdrop_path": "/uYb7sIteD8cVcMcmqidvxYTJCX6.jpg", "adult": false, "overview": "Lawyer Joe Morse wants to consolidate all the small-time numbers racket operators into one big powerful operation. But his elder brother Leo is one of these small-time operators who wants to stay that way, preferring not to deal with the gangsters who dominate the big-time.", "poster_path": "/eAT2wc8WF0MwCwdyepT4RaK6cHA.jpg", "popularity": 5.368}, {"id": 26036, "video": false, "vote_count": 63, "vote_average": 7.5, "title": "Bigger Than Life", "release_date": "1956-08-02", "original_language": "en", "original_title": "Bigger Than Life", "genre_ids": [18], "backdrop_path": "/vD5czaAuzDMddHlGsEApWYQZqcx.jpg", "adult": false, "overview": "A seriously ill schoolteacher becomes dependent on a \"miracle\" drug that begins to affect his sanity.", "poster_path": "/tKKZg15kTcFIgqUgmoCNMCwje6r.jpg", "popularity": 9.129}, {"adult": false, "backdrop_path": "/3OhXsQWgASHdbJtEr0tgNp2LIjE.jpg", "genre_ids": [18], "id": 117406, "original_language": "pt", "original_title": "Porto da Minha Inf\u00e2ncia", "overview": "Manoel de Oliveira's autobiographical documentary about returning to his hometown.", "poster_path": "/tvcBDOIHDlVUv5cFrPAUjfVZTFE.jpg", "release_date": "2001-09-19", "title": "Porto of My Childhood", "video": false, "vote_average": 6.9, "vote_count": 8, "popularity": 2.048}, {"adult": false, "backdrop_path": "/a7G2IW9MuKlt0osiVSZ1oeMepaL.jpg", "genre_ids": [18, 10749], "id": 35987, "original_language": "fr", "original_title": "Lola Mont\u00e8s", "overview": "Lola Montes, previously a great adventurer, is reduced to being the attraction of a circus after having been the lover of various important men.", "poster_path": "/1laVDkH28pmS2iVCiXXY4pz0kuw.jpg", "release_date": "1955-12-23", "title": "Lola Mont\u00e8s", "video": false, "vote_average": 6.8, "vote_count": 49, "popularity": 5.874}, {"id": 39415, "video": false, "vote_count": 32, "vote_average": 6.3, "title": "Loulou", "release_date": "1980-09-03", "original_language": "fr", "original_title": "Loulou", "genre_ids": [18, 10749], "backdrop_path": "/sM2IYcfxd0xro7BzDAdH4R6wc9h.jpg", "adult": false, "overview": "Nelly, a restless young woman abandons her bourgeois friends and a steady relationship for the unemployed wild, leather-clad bad boy Loulou, whose charms include focusing his energy into sex.", "poster_path": "/gttocqcPfaLho5OIhY9Hq9VPSgq.jpg", "popularity": 4.05}, {"adult": false, "backdrop_path": "/sVnCg03eTCQIN2aSblm8oinbakG.jpg", "genre_ids": [99], "id": 97035, "original_language": "fr", "original_title": "Une histoire de vent", "overview": "It is an autobiographical fiction starring Ivens as an old man who has spent his life trying to \"tame the wind and harness the sea\" by capturing them on film.", "poster_path": "/sF5bf3gb7GLSStPPHg3YDmbt8I0.jpg", "release_date": "1988-09-09", "title": "A Tale of the Wind", "video": false, "vote_average": 6.7, "vote_count": 12, "popularity": 3.367}, {"adult": false, "backdrop_path": "/2ywAjiDhGKupFbUewJhmvAlWwa1.jpg", "genre_ids": [10749, 18, 80, 9648], "id": 27045, "original_language": "en", "original_title": "The Crimson Kimono", "overview": "A Los Angeles detective and his Japanese partner woo an artist while solving a stripper's murder.", "poster_path": "/anNUxDXYV34AlRbAXRFb3CAh3K6.jpg", "release_date": "1959-10-01", "title": "The Crimson Kimono", "video": false, "vote_average": 7.1, "vote_count": 17, "popularity": 4.752}, {"adult": false, "backdrop_path": "/r2Xx2cCOjB2aRnyQCfYKgWuJ8pl.jpg", "genre_ids": [18, 14, 35], "id": 42529, "original_language": "sh", "original_title": "W.R. - Misterije organizma", "overview": "What does the energy harnessed through orgasm have to do with the state of communist Yugoslavia circa 1971? Only counterculture filmmaker extraordinaire Du\u0161an Makavejev has the answers (or the questions). His surreal documentary-fiction collision WR: Mysteries of the Organism begins as an investigation into the life and work of controversial psychologist and philosopher Wilhelm Reich and then explodes into a free-form narrative of a beautiful young Slavic girl\u2019s sexual liberation.", "poster_path": "/kYsn9htLhZgg8FxHvOET0BCQjmW.jpg", "release_date": "1971-10-13", "title": "WR: Mysteries of the Organism", "video": false, "vote_average": 6.8, "vote_count": 34, "popularity": 4.288}, {"adult": false, "backdrop_path": "/sS7svEvrDM4Ud8tDHyxjgsFSX6j.jpg", "genre_ids": [18, 53, 80, 9648], "id": 29835, "original_language": "en", "original_title": "Cause for Alarm", "overview": "An invalid husband wrongly believes his wife and doctor are conspiring to kill him and outlines that suspicion in a letter, which causes a serious concern when he ends up dying anyway.", "poster_path": "/7oW37oPsUQ3t9G6zLUkl2bOzmbV.jpg", "release_date": "1951-03-30", "title": "Cause for Alarm", "video": false, "vote_average": 6.1, "vote_count": 15, "popularity": 5.082}, {"id": 16659, "video": false, "vote_count": 22, "vote_average": 6.3, "title": "My Brilliant Career", "release_date": "1979-08-17", "original_language": "en", "original_title": "My Brilliant Career", "genre_ids": [18, 10749], "backdrop_path": "/3QUgGAOm5H1mY468ceneItY3UfS.jpg", "adult": false, "overview": "A young woman who is determined to maintain her independence finds herself at odds with her family who wants her to tame her wild side and get married.", "poster_path": "/tCc7mK1Kz6yvcmlTCDfFfBfLvKa.jpg", "popularity": 4.513}, {"adult": false, "backdrop_path": null, "genre_ids": [99], "id": 139772, "original_language": "it", "original_title": "I dimenticati", "overview": "A  short  documentary set in  Alessandria del Carretto, a small town in the province of Cosenza.", "poster_path": "/j633BTwMZ0E1TJ1o0SpKreJHBcr.jpg", "release_date": "1959-06-01", "title": "I dimenticati", "video": false, "vote_average": 6.5, "vote_count": 8, "popularity": 1.732}, {"adult": false, "backdrop_path": "/o590Ip3ljRPDwC7NQWaVNbs1PTb.jpg", "genre_ids": [53], "id": 28007, "original_language": "en", "original_title": "The Reckless Moment", "overview": "A mother attempts to protect her murderous daughter.", "poster_path": "/A1atN0FVLQWXWluuIlGyE43089g.jpg", "release_date": "1949-12-29", "title": "The Reckless Moment", "video": false, "vote_average": 6.9, "vote_count": 42, "popularity": 6.744}, {"id": 56167, "video": false, "vote_count": 29, "vote_average": 7.2, "title": "The Golden Coach", "release_date": "1952-12-05", "original_language": "it", "original_title": "Le carrosse d'or", "genre_ids": [35, 18, 36], "backdrop_path": "/zkIiDLZUmJzRFMUftNDbKg7mOsF.jpg", "adult": false, "overview": "A viceroy, a nobleman and a bullfighter court a comedy-troupe actress in 16th-century Peru.", "poster_path": "/cDlxLnLMboEfdDcPelodOs71GVs.jpg", "popularity": 5.095}, {"id": 43118, "video": false, "vote_count": 56, "vote_average": 7.4, "title": "Ivan the Terrible, Part II: The Boyars' Plot", "release_date": "1958-09-01", "original_language": "ru", "original_title": "\u0418\u0432\u0430\u043d \u0413\u0440\u043e\u0437\u043d\u044b\u0439. \u0421\u043a\u0430\u0437 \u0432\u0442\u043e\u0440\u043e\u0439: \u0411\u043e\u044f\u0440\u0441\u043a\u0438\u0439 \u0437\u0430\u0433\u043e\u0432\u043e\u0440", "genre_ids": [18, 36], "backdrop_path": "/quPrVJTaViVPy524rKCW3OaapsR.jpg", "adult": false, "overview": "This is the second part of a projected three-part epic biopic of Russian Czar Ivan Grozny, undertaken by Soviet film-maker Sergei Eisenstein at the behest of Josef Stalin.  Production of the epic was stopped before the third part could be filmed, due to producer dissatisfaction with Eisenstein's introducing forbidden experimental filming techniques into the material, more evident in this part than the first part.  As it was, this second part was banned from showings until after the deaths of both Eisenstein and Stalin, and a change of attitude by the subsequent heads of the Soviet government.  In this part, as Ivan the Terrible attempts to consolidate his power by establishing a personal army, his political rivals, the Russian boyars, plot to assassinate him.", "poster_path": "/9VufNqHN0EIkZAsJIv5vDYIitPo.jpg", "popularity": 5.946}, {"id": 19119, "video": false, "vote_count": 96, "vote_average": 7.4, "title": "Night and the City", "release_date": "1950-04-01", "original_language": "en", "original_title": "Night and the City", "genre_ids": [18, 53], "backdrop_path": "/szsupRypFOULpqoBr3wMqXPjiPn.jpg", "adult": false, "overview": "Londoner Harry Fabian is a second-rate con man looking for an angle. After years of putting up with Harry's schemes, his girlfriend, Mary, becomes fed up when he taps her for yet another loan. His latest ploy, promoting an aging Greek wrestler, goes awry when the wrestler dies and everyone points the finger at Harry. Hiding out in a riverfront barge, Harry sees his grand ambitions spiral into a nightmare of fear and desperation as the underworld closes in.", "poster_path": "/rASB5Db25c3oIV0tSPEtsQ2pqzs.jpg", "popularity": 8.598}, {"adult": false, "backdrop_path": null, "genre_ids": [], "id": 146579, "original_language": "en", "original_title": "Rip's Twenty Years' Sleep", "overview": "", "poster_path": "/nu4gXbaLSOXXcZ5hhG3uHSFOnhX.jpg", "release_date": "1896-09-30", "title": "Rip's Twenty Years' Sleep", "video": false, "vote_average": 4.4, "vote_count": 14, "popularity": 2.178}, {"adult": false, "backdrop_path": "/wnwS9NM2HndA3sm2LI6rSWzeadb.jpg", "genre_ids": [18], "id": 42325, "original_language": "en", "original_title": "Bewitched", "overview": "A girl enlists a psychic to get rid of her murderous alternate personality.", "poster_path": "/hC54uKnKsNRLTqzBLAogWENwYwJ.jpg", "release_date": "1945-07-04", "title": "Bewitched", "video": false, "vote_average": 4.9, "vote_count": 11, "popularity": 4.222}, {"adult": false, "backdrop_path": null, "genre_ids": [], "id": 146580, "original_language": "en", "original_title": "Awakening of Rip", "overview": "", "poster_path": "/nu4gXbaLSOXXcZ5hhG3uHSFOnhX.jpg", "release_date": "1896-09-30", "title": "Awakening of Rip", "video": false, "vote_average": 4.1, "vote_count": 16, "popularity": 1.772}, {"adult": false, "backdrop_path": null, "genre_ids": [], "id": 147723, "original_language": "en", "original_title": "A Romance of the Rail", "overview": "", "poster_path": "/n4Rk8gxnLpfZadxybHIdMyzI8dY.jpg", "release_date": "1903-10-31", "title": "A Romance of the Rail", "video": false, "vote_average": 4.5, "vote_count": 12, "popularity": 1.495}, {"adult": false, "backdrop_path": "/8iqWC0vFo4yDEi8dlLaeQT9HQ7M.jpg", "genre_ids": [80, 53], "id": 26167, "original_language": "en", "original_title": "Raw Deal", "overview": "In this film noir classic, a revenge-seeking gangster (Dennis O'Keefe) is sent to prison after being framed for a crime he didn't commit. After seducing a beautiful young woman, he uses her to help him carry out his plot for vengeance, leading him to the crazy pyromaniac (Raymond Burr) who set him up.", "poster_path": "/zufy5IkCuNvj5Z9qZtRfShNXBnz.jpg", "release_date": "1948-05-26", "title": "Raw Deal", "video": false, "vote_average": 7.0, "vote_count": 39, "popularity": 6.485}], "total_pages": 2, "total_results": 40}, "credits": {"cast": [{"cast_id": 7, "character": "Tully", "credit_id": "52fe46fc9251416c7508a229", "gender": 2, "id": 825, "name": "Stacy Keach", "order": 0, "profile_path": "/9G0urAVBBP9FRX1wrxkdZCj3VCW.jpg"}, {"cast_id": 8, "character": "Ernie", "credit_id": "52fe46fc9251416c7508a22d", "gender": 2, "id": 1229, "name": "Jeff Bridges", "order": 1, "profile_path": "/xms1RAY6q7Lzp7wNeRCB0kzhucn.jpg"}, {"cast_id": 9, "character": "Oma", "credit_id": "52fe46fc9251416c7508a231", "gender": 1, "id": 59369, "name": "Susan Tyrrell", "order": 2, "profile_path": "/2cQnK1bJxp9PldCeA05kohavPs8.jpg"}, {"cast_id": 11, "character": "Faye", "credit_id": "54c20510c3a3687c4000d5e2", "gender": 1, "id": 12407, "name": "Candy Clark", "order": 3, "profile_path": "/6pGZGgHa09ktPwEcFWNAU3PLFdi.jpg"}, {"cast_id": 20, "character": "Ruben", "credit_id": "572e5c1c92514173a100042f", "gender": 2, "id": 17651, "name": "Nicholas Colasanto", "order": 4, "profile_path": "/i7gdG5j4jf13lSkvKI0JalJ9IyZ.jpg"}, {"cast_id": 21, "character": "Babe", "credit_id": "572e5c25c3a36818d100077e", "gender": 2, "id": 136334, "name": "Art Aragon", "order": 5, "profile_path": null}, {"cast_id": 22, "character": "Referee at Tully-Lucero Fight", "credit_id": "5a7dbf830e0a2654e90000cc", "gender": 2, "id": 16528, "name": "Al Silvani", "order": 6, "profile_path": "/j6M9EdM5seejyRK769haG7iluW4.jpg"}], "crew": [{"credit_id": "52fe46fc9251416c7508a207", "department": "Directing", "gender": 2, "id": 6593, "job": "Director", "name": "John Huston", "profile_path": "/1YV2m0943zGmgQaHHgtFuQhOEKl.jpg"}, {"credit_id": "52fe46fc9251416c7508a20d", "department": "Production", "gender": 2, "id": 6593, "job": "Producer", "name": "John Huston", "profile_path": "/1YV2m0943zGmgQaHHgtFuQhOEKl.jpg"}, {"credit_id": "52fe46fc9251416c7508a213", "department": "Production", "gender": 2, "id": 32790, "job": "Producer", "name": "Ray Stark", "profile_path": null}, {"credit_id": "52fe46fc9251416c7508a225", "department": "Editing", "gender": 2, "id": 19334, "job": "Editor", "name": "Walter Thompson", "profile_path": null}, {"credit_id": "572e5bd1c3a3680fdf003e6b", "department": "Writing", "gender": 2, "id": 81117, "job": "Novel", "name": "Leonard Gardner", "profile_path": null}, {"credit_id": "535a25220e0a2664100013b4", "department": "Camera", "gender": 0, "id": 8217, "job": "Director of Photography", "name": "Conrad L. Hall", "profile_path": "/fGWnmu9EAYqX974sP0ddkOjgVEy.jpg"}, {"credit_id": "572e5bcbc3a3684bd3000d8a", "department": "Writing", "gender": 2, "id": 81117, "job": "Screenplay", "name": "Leonard Gardner", "profile_path": null}, {"credit_id": "572e5bddc3a3684bd3000d8f", "department": "Production", "gender": 0, "id": 1616576, "job": "Associate Producer", "name": "David Dworski", "profile_path": null}, {"credit_id": "572e5be992514173a100042b", "department": "Production", "gender": 2, "id": 2871, "job": "Casting", "name": "Fred Roos", "profile_path": "/qfXLY5E589l0TQnoayWmUrBDsgo.jpg"}, {"credit_id": "572e5bef9251410d30002e36", "department": "Production", "gender": 1, "id": 8426, "job": "Casting", "name": "Jennifer Shull", "profile_path": null}, {"credit_id": "572e5bf7c3a36869e60022d5", "department": "Art", "gender": 2, "id": 12017, "job": "Production Design", "name": "Richard Sylbert", "profile_path": null}, {"credit_id": "572e5bfec3a3680fe5003c89", "department": "Art", "gender": 2, "id": 118291, "job": "Set Decoration", "name": "Morris Hoffman", "profile_path": null}, {"credit_id": "572e5c05c3a36819390007b5", "department": "Costume & Make-Up", "gender": 1, "id": 29800, "job": "Costume Design", "name": "Dorothy Jeakins", "profile_path": null}]}}