{"adult": false, "backdrop_path": "/8KAt6hfqNZ5pJ0hTO632KsgbZMV.jpg", "belongs_to_collection": null, "budget": 0, "genres": [{"id": 35, "name": "Comedy"}], "homepage": null, "id": 170729, "imdb_id": "tt0045324", "original_language": "en", "original_title": "When in Rome", "overview": "An American fugitive flees to Rome and tries to elude capture by masquerading as a priest.", "popularity": 1.936, "poster_path": "/3M5dxpkgVV5m02coXokp3llfN3k.jpg", "production_companies": [{"id": 21, "logo_path": "/mjofSXiHpG5t6KYmU4l4FrUhT7m.png", "name": "Metro-Goldwyn-Mayer", "origin_country": "US"}], "production_countries": [{"iso_3166_1": "US", "name": "United States of America"}], "release_date": "1952-05-11", "revenue": 0, "runtime": 78, "spoken_languages": [{"iso_639_1": "en", "name": "English"}], "status": "Released", "tagline": "You'll have a wonderful time", "title": "When in Rome", "video": false, "vote_average": 0.0, "vote_count": 0, "keywords": {"keywords": [{"id": 588, "name": "rome italy"}]}, "similar": {"page": 1, "results": [{"id": 9564, "video": false, "vote_count": 1051, "vote_average": 6.0, "title": "Asterix & Obelix Take on Caesar", "release_date": "1999-02-01", "original_language": "fr", "original_title": "Ast\u00e9rix & Ob\u00e9lix contre C\u00e9sar", "genre_ids": [12, 35, 14, 10751], "backdrop_path": "/rhAJgyO6lgZKLcXFKiSvxKdDGfq.jpg", "adult": false, "overview": "Set in 50 B.C., Asterix and Obelix are living in a small but well-protected village in Gaul, where a magic potion concocted by Druids turns the townsfolk into mighty soldiers. When Roman troops carve a path through Gaul to reach the English Channel, Caesar and his aide de camp Detritus discover the secret elixir and capture the Druid leader who knows its formula, and Asterix and Obelix are sent off to rescue them.", "poster_path": "/nCYmH6fFFo1ccZFCouyobJhgUGv.jpg", "popularity": 17.593}, {"adult": false, "backdrop_path": "/5vZw7ltCKI0JiOYTtRxaIC3DX0e.jpg", "genre_ids": [28, 18, 12], "id": 98, "original_language": "en", "original_title": "Gladiator", "overview": "In the year 180, the death of emperor Marcus Aurelius throws the Roman Empire into chaos.  Maximus is one of the Roman army's most capable and trusted generals and a key advisor to the emperor.  As Marcus' devious son Commodus ascends to the throne, Maximus is set to be executed.  He escapes, but is captured by slave traders.  Renamed Spaniard and forced to become a gladiator, Maximus must battle to the death with other men for the amusement of paying audiences.", "poster_path": "/6WBIzCgmDCYrqh64yDREGeDk9d3.jpg", "release_date": "2000-05-01", "title": "Gladiator", "video": false, "vote_average": 8.1, "vote_count": 10798, "popularity": 31.354}, {"adult": false, "backdrop_path": "/6Bd5pJw8ZL3IdLOgFSBNbGibZbL.jpg", "genre_ids": [10751, 16, 12, 35], "id": 11047, "original_language": "fr", "original_title": "Ast\u00e9rix le Gaulois", "overview": "In the year 50 BC, Gaul is occupied by the Romans - nearly. But the small village of Asterix and his friends still resists the Roman legions with the aid of their druid's magic potion, which gives superhuman strength. Learning of this potion, a Roman centurion kidnaps the druid to get the secret formula out of him.", "poster_path": "/5nYIjqB2ScgycBCLEbvqA5XTSUX.jpg", "release_date": "1967-12-20", "title": "Asterix the Gaul", "video": false, "vote_average": 6.4, "vote_count": 356, "popularity": 13.414}, {"id": 439, "video": false, "vote_count": 829, "vote_average": 8.1, "title": "La Dolce Vita", "release_date": "1960-02-05", "original_language": "it", "original_title": "La dolce vita", "genre_ids": [35, 18], "backdrop_path": "/b3ofp0vhkbKsrz2V44DimBRKkxf.jpg", "adult": false, "overview": "Episodic journey of an Italian journalist scouring Rome in search of love.", "poster_path": "/aU7WLwPVCOoonAPWOPBmZ8X0c3c.jpg", "popularity": 18.483}, {"adult": false, "backdrop_path": "/4psf8OdNFLVGz185HG2Z5vOYXmu.jpg", "genre_ids": [35, 10749, 18], "id": 804, "original_language": "en", "original_title": "Roman Holiday", "overview": "Overwhelmed by her suffocating schedule, touring European princess Ann takes off for a night while in Rome. When a sedative she took from her doctor kicks in, however, she falls asleep on a park bench and is found by an American reporter, Joe Bradley, who takes her back to his apartment for safety. At work the next morning, Joe finds out Ann's regal identity and bets his editor he can get exclusive interview with her, but romance soon gets in the way.", "poster_path": "/A0JKLHc5rS3uztYl9GDOMwXl1d3.jpg", "release_date": "1953-08-26", "title": "Roman Holiday", "video": false, "vote_average": 7.9, "vote_count": 1049, "popularity": 18.683}, {"id": 23759, "video": false, "vote_count": 759, "vote_average": 6.1, "title": "Centurion", "release_date": "2010-02-15", "original_language": "en", "original_title": "Centurion", "genre_ids": [28, 12, 18], "backdrop_path": "/izb3iimHxLAbs439DnLHNpJsyps.jpg", "adult": false, "overview": "Britain, A.D. 117. Quintus Dias, the sole survivor of a Pictish raid on a Roman frontier fort, marches north with General Virilus' legendary Ninth Legion, under orders to wipe the Picts from the face of the Earth and destroy their leader, Gorlacon.", "poster_path": "/lwQs5DNvy9RHTB0RWEScgZqPPiS.jpg", "popularity": 16.152}, {"id": 13448, "video": false, "vote_count": 4319, "vote_average": 6.6, "title": "Angels & Demons", "release_date": "2009-05-13", "original_language": "en", "original_title": "Angels & Demons", "genre_ids": [9648, 53], "backdrop_path": "/wjrTJhDQEqmmaEfbM2Qo8ibzvSS.jpg", "adult": false, "overview": "Harvard symbologist Robert Langdon is recruited by the Vatican to investigate the apparent return of the Illuminati - a secret, underground organization - after four cardinals are kidnapped on the night of the papal conclave.", "poster_path": "/grN4lETrHNejatQZFP2F2DAWMU4.jpg", "popularity": 16.017}, {"id": 551332, "video": false, "vote_count": 776, "vote_average": 7.7, "title": "The Two Popes", "release_date": "2019-11-27", "original_language": "en", "original_title": "The Two Popes", "genre_ids": [35, 18, 36], "backdrop_path": "/mHz65gYQ3SmkQH3GKWSKWUkK5zW.jpg", "adult": false, "overview": "Frustrated with the direction of the church, Cardinal Bergoglio requests permission to retire in 2012 from Pope Benedict. Instead, facing scandal and self-doubt, the introspective Pope Benedict summons his harshest critic and future successor to Rome to reveal a secret that would shake the foundations of the Catholic Church.", "poster_path": "/4d4mTSfDIFIbUbMLUfaKodvxYXA.jpg", "popularity": 37.162}, {"id": 2899, "video": false, "vote_count": 1973, "vote_average": 7.4, "title": "Asterix & Obelix: Mission Cleopatra", "release_date": "2002-01-29", "original_language": "fr", "original_title": "Ast\u00e9rix & Ob\u00e9lix Mission Cl\u00e9op\u00e2tre", "genre_ids": [12, 35, 14, 10751], "backdrop_path": "/2g6rIEw3t8ZWzMRlDlgXFr8pAlB.jpg", "adult": false, "overview": "The Egyptian Queen Cleopatra bets against the Roman Emperor, Julius Caesar, that her people are still great, even if the times of the Pharaohs has long passed. She vows (against all logic) to build a new palace for Caesar within three months. Since all her architects are either busy otherwise or too conservative in style, this ambivalent honor falls to Edifis. He is to build the palace and be covered in gold or, if not, his fate is to be eaten by crocodiles. Edifis calls upon an old friend to help him out: The fabulous Druid Getafix from Gaul, who brews a fantastic potion that gives supernatural strength. In order to help and protect the old Druid, Asterix and Obelix accompany him on his journey to Egypt. When Julius Caesar gets wind of the project succeeding, he has the building site attacked by his troops in order to win the bet and not lose face. But just like the local pirates, he hasn't counted on Asterix and Obelix.", "poster_path": "/qWy5b64SoBXcMDdfgLyLZgIHSdv.jpg", "popularity": 20.077}, {"id": 179144, "video": false, "vote_count": 1725, "vote_average": 7.5, "title": "The Great Beauty", "release_date": "2013-05-21", "original_language": "it", "original_title": "La grande bellezza", "genre_ids": [18], "backdrop_path": "/BvJAJuAnIooQQGzRdFTY9Oy6Wj.jpg", "adult": false, "overview": "Jep Gambardella has seduced his way through the lavish nightlife of Rome for decades, but after his 65th birthday and a shock from the past, Jep looks past the nightclubs and parties to find a timeless landscape of absurd, exquisite beauty.", "poster_path": "/nDBRRkZgaGhJw91wdcUFYwWIbFF.jpg", "popularity": 15.136}, {"id": 7131, "video": false, "vote_count": 3395, "vote_average": 6.1, "title": "Van Helsing", "release_date": "2004-05-05", "original_language": "en", "original_title": "Van Helsing", "genre_ids": [28, 12, 27], "backdrop_path": "/sib4pGrwKQUbFRyHlhXv03HXoHj.jpg", "adult": false, "overview": "Famed monster slayer Gabriel Van Helsing is dispatched to Transylvania to assist the last of the Valerious bloodline in defeating Count Dracula. Anna Valerious reveals that Dracula has formed an unholy alliance with Dr. Frankenstein's monster and is hell-bent on exacting a centuries-old curse on her family.", "poster_path": "/s2OPT5CZsZBQYAIlO9Mv4AimHvV.jpg", "popularity": 19.526}, {"id": 956, "video": false, "vote_count": 3963, "vote_average": 6.6, "title": "Mission: Impossible III", "release_date": "2006-05-03", "original_language": "en", "original_title": "Mission: Impossible III", "genre_ids": [28, 12, 53], "backdrop_path": "/kOELgNnVt6EGCjtDXx85YUw6p8X.jpg", "adult": false, "overview": "Retired from active duty to train new IMF agents, Ethan Hunt is called back into action to confront sadistic arms dealer, Owen Davian. Hunt must try to protect his girlfriend while working with his new team to complete the mission.", "poster_path": "/qjy8ABAbWooV4jLG6UjzDHlv4RB.jpg", "popularity": 27.756}, {"id": 439079, "video": false, "vote_count": 3341, "vote_average": 5.6, "title": "The Nun", "release_date": "2018-09-05", "original_language": "en", "original_title": "The Nun", "genre_ids": [27, 9648, 53], "backdrop_path": "/fgsHxz21B27hOOqQBiw9L6yWcM7.jpg", "adult": false, "overview": "When a young nun at a cloistered abbey in Romania takes her own life, a priest with a haunted past and a novitiate on the threshold of her final vows are sent by the Vatican to investigate. Together they uncover the order\u2019s unholy secret. Risking not only their lives but their faith and their very souls, they confront a malevolent force in the form of the same demonic nun that first terrorized audiences in \u201cThe Conjuring 2\u201d as the abbey becomes a horrific battleground between the living and the damned.", "poster_path": "/sFC1ElvoKGdHJIWRpNB3xWJ9lJA.jpg", "popularity": 32.471}, {"id": 615, "video": false, "vote_count": 1934, "vote_average": 7.1, "title": "The Passion of the Christ", "release_date": "2004-02-25", "original_language": "en", "original_title": "The Passion of the Christ", "genre_ids": [18], "backdrop_path": "/clVnEHURb8Ot3twaLmf7N1lNym1.jpg", "adult": false, "overview": "A graphic portrayal of the last twelve hours of Jesus of Nazareth's life.", "poster_path": "/oFuLM1EaKhi1WNWiTjQ1HKIZ1Eg.jpg", "popularity": 21.645}, {"id": 665, "video": false, "vote_count": 1332, "vote_average": 7.7, "title": "Ben-Hur", "release_date": "1959-12-26", "original_language": "en", "original_title": "Ben-Hur", "genre_ids": [12, 36], "backdrop_path": "/uOQPSUGG3ZHiDg9ecN8irQNZ4T1.jpg", "adult": false, "overview": "Judah Ben-Hur, a Palestinian Jew, is battling the Roman empire at the time of Christ. His actions send him and his family into slavery, but an inspirational encounter with Jesus changes everything. He finally meets his rival in a justly famous chariot race and rescues his suffering family.", "poster_path": "/m4WQ1dBIrEIHZNCoAjdpxwSKWyH.jpg", "popularity": 19.591}, {"adult": false, "backdrop_path": "/pdIoY6ZOqwbwPlTuDh83TbJ64xw.jpg", "genre_ids": [35, 18, 9648], "id": 270487, "original_language": "en", "original_title": "Hail, Caesar!", "overview": "When a Hollywood star mysteriously disappears in the middle of filming, the studio sends their \"fixer\" to get him back. Set in the 1950s, the story was inspired by the career of Eddie Mannix (1891\u20131963).", "poster_path": "/rzMYZYphL9qrbBClQq1Jc0zPMmY.jpg", "release_date": "2016-02-05", "title": "Hail, Caesar!", "video": false, "vote_average": 5.9, "vote_count": 2550, "popularity": 15.402}, {"id": 242, "video": false, "vote_count": 3308, "vote_average": 7.4, "title": "The Godfather: Part III", "release_date": "1990-12-24", "original_language": "en", "original_title": "The Godfather: Part III", "genre_ids": [80, 18, 53], "backdrop_path": "/dEuqTwwhfvk66jUKQa7bMqM5Cf7.jpg", "adult": false, "overview": "In the midst of trying to legitimize his business dealings in 1979 New York and Italy, aging mafia don, Michael Corleone seeks forgiveness for his sins while taking a young protege under his wing.", "poster_path": "/1hdm3Axw9LjITbApvAXBbqO58zE.jpg", "popularity": 27.213}, {"id": 11620, "video": false, "vote_count": 182, "vote_average": 6.9, "title": "Quo Vadis", "release_date": "1951-11-08", "original_language": "en", "original_title": "Quo Vadis", "genre_ids": [18, 36, 10749], "backdrop_path": "/sVIOBiSg6mmnK3auQ5pMzlvTsJn.jpg", "adult": false, "overview": "Set against the back drop of Rome in crisis, General Marcus Vinicius returns to the city from the battle fields and falls in love with a Christian woman, Lygia. Caught in the grip of insanity, Nero's atrocities become more extreme and he burns Rome, laying the blame on the Christians. Vinicius races to save Lygia from the wrath of Nero as the empire of Rome collapses around them.", "poster_path": "/205q2KznSETw5MeUHupvusQGXDC.jpg", "popularity": 10.609}, {"adult": false, "backdrop_path": "/pZRC8VRTaQ9d6NHR0enOjKVLJjo.jpg", "genre_ids": [28, 12, 14, 10752], "id": 9703, "original_language": "en", "original_title": "The Last Legion", "overview": "As the Roman empire crumbles, young Romulus Augustus flees the city and embarks on a perilous voyage to Britain to track down a legion of supporters.", "poster_path": "/8K4WWwFew1CzCGVkgmKdamCA6kz.jpg", "release_date": "2007-04-19", "title": "The Last Legion", "video": false, "vote_average": 5.4, "vote_count": 458, "popularity": 11.624}, {"adult": false, "backdrop_path": "/euAMcJLG26pW1kv4kPEtVEwwroQ.jpg", "genre_ids": [36], "id": 476968, "original_language": "en", "original_title": "Paul, Apostle of Christ", "overview": "Risking his life, Luke ventures to Rome to visit Paul -- the apostle who's bound in chains and held captive in Nero's darkest and bleakest prison cell. Haunted by the shadows of his past misdeeds, Paul wonders if he's been forgotten as he awaits his grisly execution. Before Paul's death, Luke resolves to write another book that details the birth of what will come to be known as the church.", "poster_path": "/2NUXG94dGMKYgJL1BkJGKynMb3l.jpg", "release_date": "2018-03-23", "title": "Paul, Apostle of Christ", "video": false, "vote_average": 7.0, "vote_count": 106, "popularity": 16.541}], "total_pages": 16, "total_results": 309}, "recommendations": {"page": 1, "results": [], "total_pages": 1, "total_results": 0}, "credits": {"cast": [{"cast_id": 2, "character": "Father John X. Halligan", "credit_id": "52fe4cfcc3a36847f8248787", "gender": 2, "id": 37446, "name": "Van Johnson", "order": 0, "profile_path": "/fVhWeeytSzeasZzOWG0KXOhMsiF.jpg"}, {"cast_id": 3, "character": "Joe Brewster", "credit_id": "52fe4cfcc3a36847f824878b", "gender": 2, "id": 111578, "name": "Paul Douglas", "order": 1, "profile_path": "/vXikiygQljU0at92pLe84ptTqaJ.jpg"}, {"cast_id": 4, "character": "Aggiunto Bodulli", "credit_id": "52fe4cfcc3a36847f824878f", "gender": 0, "id": 33747, "name": "Joseph Calleia", "order": 2, "profile_path": "/xyb6l5Epo5NXbKUXD7puhLoYca2.jpg"}, {"cast_id": 5, "character": "Mrs. Lugacetti", "credit_id": "52fe4cfcc3a36847f8248793", "gender": 1, "id": 113726, "name": "Argentina Brunetti", "order": 3, "profile_path": "/j20aALAavaDN5idoDo0CHSttHmY.jpg"}, {"cast_id": 6, "character": "Rosa", "credit_id": "52fe4cfcc3a36847f8248797", "gender": 1, "id": 89019, "name": "Mimi Aguglia", "order": 4, "profile_path": "/m6On1atyXyhDMcSOO4fPr5UoQzo.jpg"}, {"cast_id": 7, "character": "Girdle Salesman", "credit_id": "52fe4cfcc3a36847f824879b", "gender": 2, "id": 103068, "name": "Harry Hayden", "order": 5, "profile_path": "/x0dehwsSXkTXFqDhMGIf7FH6Tv7.jpg"}, {"cast_id": 11, "character": "Antonio Silesto", "credit_id": "554a524d92514104c4002628", "gender": 2, "id": 1177603, "name": "Carlo Rizzo", "order": 6, "profile_path": null}, {"cast_id": 12, "character": "Father McGinniss", "credit_id": "554a525d92514136fa001725", "gender": 2, "id": 106101, "name": "Tudor Owen", "order": 7, "profile_path": "/wl75h6SDHDJ9kYjzDK3NCXKtduM.jpg"}], "crew": [{"credit_id": "554a5229c3a36841b900288e", "department": "Writing", "gender": 2, "id": 20371, "job": "Story", "name": "Robert Buckner", "profile_path": null}, {"credit_id": "554a5214c3a36841bf002686", "department": "Writing", "gender": 1, "id": 31069, "job": "Writer", "name": "Dorothy Kingsley", "profile_path": null}, {"credit_id": "554a521f92514104ba002808", "department": "Writing", "gender": 2, "id": 30295, "job": "Writer", "name": "Charles Schnee", "profile_path": null}, {"credit_id": "52fe4cfcc3a36847f8248783", "department": "Directing", "gender": 2, "id": 84034, "job": "Director", "name": "Clarence Brown", "profile_path": "/irSTQOJsBR5vXvSmDKvBgCqdrS7.jpg"}]}}