{"adult": false, "backdrop_path": null, "belongs_to_collection": null, "budget": 0, "genres": [{"id": 99, "name": "Documentary"}], "homepage": null, "id": 172297, "imdb_id": "tt0129807", "original_language": "fr", "original_title": "La b\u00eate lumineuse", "overview": "A documentary film about a group of hunters who gather annually to hunt moose near Maniwaki, Quebec.", "popularity": 1.179, "poster_path": "/6yFPRgWyhVvLxYtPYxlDV1TYmA0.jpg", "production_companies": [{"id": 10473, "logo_path": "/lMUDQZVtg8On4PAW5XFQPaQy6UK.png", "name": "National Film Board of Canada", "origin_country": "CA"}], "production_countries": [{"iso_3166_1": "CA", "name": "Canada"}], "release_date": "1982-10-15", "revenue": 0, "runtime": 128, "spoken_languages": [{"iso_639_1": "fr", "name": "Fran\u00e7ais"}], "status": "Released", "tagline": "", "title": "The Shimmering Beast", "video": false, "vote_average": 7.4, "vote_count": 5, "keywords": {"keywords": [{"id": 3356, "name": "quebec"}, {"id": 8871, "name": "moose"}, {"id": 9721, "name": "hunting trip"}]}, "similar": {"page": 1, "results": [{"id": 269149, "video": false, "vote_count": 10912, "vote_average": 7.7, "title": "Zootopia", "release_date": "2016-02-11", "original_language": "en", "original_title": "Zootopia", "genre_ids": [12, 16, 35, 10751], "backdrop_path": "/mhdeE1yShHTaDbJVdWyTlzFvNkr.jpg", "adult": false, "overview": "Determined to prove herself, Officer Judy Hopps, the first bunny on Zootopia's police force, jumps at the chance to crack her first case - even if it means partnering with scam-artist fox Nick Wilde to solve the mystery.", "poster_path": "/sM33SANp9z6rXW8Itn7NnG1GOEs.jpg", "popularity": 51.293}, {"id": 22538, "video": false, "vote_count": 4336, "vote_average": 7.4, "title": "Scott Pilgrim vs. the World", "release_date": "2010-08-12", "original_language": "en", "original_title": "Scott Pilgrim vs. the World", "genre_ids": [28, 35, 10749], "backdrop_path": "/7W9xm2YTq54rfLFimIniMrywShv.jpg", "adult": false, "overview": "Scott Pilgrim is a 23 year old radical Canadian gamer and wannabe rockstar who falls in love with an American delivery girl, Ramona Flowers, and must defeat her seven evil exes to be able to date her.", "poster_path": "/lafRuPbjEQrrHG9QEaoyV2znZC.jpg", "popularity": 17.272}, {"id": 10010, "video": false, "vote_count": 826, "vote_average": 6.6, "title": "Brother Bear 2", "release_date": "2006-08-17", "original_language": "en", "original_title": "Brother Bear 2", "genre_ids": [12, 16, 10751], "backdrop_path": "/zhMiJmPuX2o2bbXWWZNUgVbw3OM.jpg", "adult": false, "overview": "Kenai finds his childhood human friend Nita and the two embark on a journey to burn the amulet he gave to her before he was a bear, much to Koda's dismay.", "poster_path": "/msZSTfilEF6hw47HTuf5AeXAO8R.jpg", "popularity": 17.237}, {"id": 669, "video": false, "vote_count": 123, "vote_average": 7.1, "title": "Nanook of the North", "release_date": "1922-06-11", "original_language": "en", "original_title": "Nanook of the North", "genre_ids": [99], "backdrop_path": "/f8wJyERoBQgmptrue3xhMkC1Mjq.jpg", "adult": false, "overview": "This pioneering documentary film depicts the lives of the indigenous Inuit people of Canada's northern Quebec region. Although the production contains some fictional elements, it vividly shows how its resourceful subjects survive in such a harsh climate, revealing how they construct their igloo homes and find food by hunting and fishing. The film also captures the beautiful, if unforgiving, frozen landscape of the Great White North, far removed from conventional civilization.", "poster_path": "/aWmdeyP4rvOlQZCdjLCpJfJnHVT.jpg", "popularity": 8.419}, {"adult": false, "backdrop_path": "/bzGtoJ3Z0W4Y4xf3SMtnVFfhAHW.jpg", "genre_ids": [99], "id": 1430, "original_language": "en", "original_title": "Bowling for Columbine", "overview": "This is not a film about gun control. It is a film about the fearful heart and soul of the United States, and the 280 million Americans lucky enough to have the right to a constitutionally protected Uzi. From a look at the Columbine High School security camera tapes to the home of Oscar-winning NRA President Charlton Heston, from a young man who makes homemade napalm with The Anarchist's Cookbook to the murder of a six-year-old girl by another six-year-old. Bowling for Columbine is a journey through the US, through our past, hoping to discover why our pursuit of happiness is so riddled with violence.", "poster_path": "/eQLThQmmiCyEoGDr1MdNGYOjU0M.jpg", "release_date": "2002-10-09", "title": "Bowling for Columbine", "video": false, "vote_average": 7.6, "vote_count": 871, "popularity": 15.528}, {"id": 11371, "video": false, "vote_count": 847, "vote_average": 6.7, "title": "The Score", "release_date": "2001-07-13", "original_language": "en", "original_title": "The Score", "genre_ids": [28, 80, 9648, 53], "backdrop_path": "/cQ7y4GAwmDZAHev8IwOzA6Utr3z.jpg", "adult": false, "overview": "An aging thief hopes to retire and live off his ill-gotten wealth when a young kid convinces him into doing one last heist.", "poster_path": "/8d9HG9An0WOPNQywo99QyEptLHz.jpg", "popularity": 15.466}, {"id": 11081, "video": false, "vote_count": 780, "vote_average": 6.2, "title": "Taking Lives", "release_date": "2004-03-19", "original_language": "en", "original_title": "Taking Lives", "genre_ids": [28, 80, 18, 9648, 53], "backdrop_path": "/qcjTmSVyYqGMCVRH7FjXwMdan40.jpg", "adult": false, "overview": "Recruited to assist Montreal police in their desperate search for a serial killer who assumes the identities of his victims, FBI profiler Illeana Scott knows it's only a matter of time before the killer strikes again. Her most promising lead is a museum employee who might be the killer's only eyewitness.", "poster_path": "/xO14kWYB9ZhiBw5KqGK9oIl5YoQ.jpg", "popularity": 14.819}, {"id": 265177, "video": false, "vote_count": 1581, "vote_average": 8.3, "title": "Mommy", "release_date": "2014-05-22", "original_language": "en", "original_title": "Mommy", "genre_ids": [18], "backdrop_path": "/ktUKyHQwjY64JJPVbf51bVML9Qn.jpg", "adult": false, "overview": "A peculiar neighbor offers hope to a recent widow who is struggling to raise a teenager who is unpredictable and, sometimes, violent.", "poster_path": "/tpoaLlY0ZdVGDLToVwkGdWxLHRe.jpg", "popularity": 13.429}, {"id": 2069, "video": false, "vote_count": 1024, "vote_average": 6.4, "title": "The Whole Nine Yards", "release_date": "2000-02-18", "original_language": "en", "original_title": "The Whole Nine Yards", "genre_ids": [35, 80], "backdrop_path": "/vFvI2DPGV4TjYnsvkJtePas7wgz.jpg", "adult": false, "overview": "After a mobster agrees to cooperate with an FBI investigation in order to stay out of prison, he's relocated by the authorities to a life of suburban anonymity as part of a witness protection program. It's not long before a couple of his new neighbours figure out his true identity and come knocking to see if he'd be up for one more hit\u2014suburban style.", "poster_path": "/rnXnZrKipVb8v4mS2Oo6Ga2O0fg.jpg", "popularity": 22.041}, {"id": 17663, "video": false, "vote_count": 146, "vote_average": 8.3, "title": "Anne of Green Gables", "release_date": "1985-12-01", "original_language": "en", "original_title": "Anne of Green Gables", "genre_ids": [18, 10751], "backdrop_path": "/9qUvWPRou0KnsUfMxsEOpm8uzDv.jpg", "adult": false, "overview": "At the turn of the century on Prince Edward Island, Matthew Cuthbert and his sister Marilla decide to take on an orphan boy as help for their farm. But they get an unexpected jolt when they're mistakenly sent a girl instead: Anne Shirley. Anne's a dreamer with an unusual point of view, far removed from Marilla's pragmatic ways, and it's only on trial that Marilla agrees to keep Anne.", "poster_path": "/jlBgPhEXn2RnvSLJcqzmNIyis2o.jpg", "popularity": 10.793}, {"id": 530081, "video": false, "vote_count": 145, "vote_average": 5.5, "title": "The Man Who Killed Hitler and Then the Bigfoot", "release_date": "2019-02-08", "original_language": "en", "original_title": "The Man Who Killed Hitler and Then the Bigfoot", "genre_ids": [12, 18, 14], "backdrop_path": "/9AumMXASjqCWygqYNvN7bbWMv2m.jpg", "adult": false, "overview": "Decades after serving in WWII and assassinating Adolf Hitler, a legendary American war veteran must now hunt down the fabled Bigfoot.", "poster_path": "/2SjYLE1kOiw7A1NioP24ER0aXov.jpg", "popularity": 12.867}, {"id": 8989, "video": false, "vote_count": 337, "vote_average": 5.7, "title": "Harry and the Hendersons", "release_date": "1987-06-05", "original_language": "en", "original_title": "Harry and the Hendersons", "genre_ids": [35, 14, 10751], "backdrop_path": "/zpLxlU7tZ3wnAKudHOlhuluR5nm.jpg", "adult": false, "overview": "Returning from a hunting trip in the forest, the Henderson family's car hits an animal in the road. At first they fear it was a man, but when they examine the \"body\" they find it's a \"bigfoot\". They think it's dead so they decide to take it home (there could be some money in this). As you guessed, it isn't dead. Far from being the ferocious monster they fear \"Harry\" to be, he's a friendly giant.", "poster_path": "/mhpajPCVjE3y4wgDLichDF5Peq8.jpg", "popularity": 12.556}, {"id": 415010, "video": false, "vote_count": 151, "vote_average": 5.5, "title": "Ravenous", "release_date": "2017-09-23", "original_language": "fr", "original_title": "Les affam\u00e9s", "genre_ids": [18, 27, 878], "backdrop_path": "/cTqnn7KLlDV5eexwFM7gh2EwUFy.jpg", "adult": false, "overview": "In an isolated rural community of Quebec, Canada, some inhabitants attack other people, hungry for human flesh. A few survivors gather and go deep into the forest to escape them.", "poster_path": "/4VHUwd7GXHRi6m4exxJNEZdESwD.jpg", "popularity": 8.972}, {"id": 519141, "video": false, "vote_count": 90, "vote_average": 7.9, "title": "Matthias & Maxime", "release_date": "2019-10-09", "original_language": "fr", "original_title": "Matthias & Maxime", "genre_ids": [18], "backdrop_path": "/27xckIk5qdMina9WEtnMjp3oJHX.jpg", "adult": false, "overview": "Two childhood best friends are asked to share a kiss for the purposes of a student short film. Soon, a lingering doubt sets in, confronting both men with their preferences, threatening the brotherhood of their social circle, and, eventually, changing their lives.", "poster_path": "/hwGqFaFp2caxRo4oHKSe4nfxqHh.jpg", "popularity": 10.013}, {"adult": false, "backdrop_path": null, "genre_ids": [10402, 16], "id": 652507, "original_language": "en", "original_title": "Frog Dog Log: Live \u00e0 Laval", "overview": "Dog attempts to sleep in the hills of Laval, Qu\u00e9bec, Canada.", "poster_path": "/eEITVAjNACfbO3MEPI2GCNHmzHt.jpg", "release_date": "2019-12-12", "title": "Frog Dog Log: Live \u00e0 Laval", "video": false, "vote_average": 0.0, "vote_count": 0, "popularity": 0.6}, {"adult": false, "backdrop_path": "/lDliK5G67oQg5LxUweMmNmKNBUy.jpg", "genre_ids": [18], "id": 11421, "original_language": "fr", "original_title": "C.R.A.Z.Y.", "overview": "A story of two love affairs. A father's love for his five sons. And one son's love for his father, a love so strong it compels him to live a lie. That son is Zac Beaulieu, born on the 25th of December 1960, different from all his brothers, but desperate to fit in. During the next 20 years, life takes Zac on a surprising and unexpected journey that ultimately leads him to accept his true nature and, even more importantly, leads his father to love him for who he really is.", "poster_path": "/kzz4wY0q9KlzFQp6UpYP160eZjJ.jpg", "release_date": "2005-05-27", "title": "C.R.A.Z.Y.", "video": false, "vote_average": 7.7, "vote_count": 241, "popularity": 7.162}, {"adult": false, "backdrop_path": "/dZhPIZwIqLPR3yY1tau5AVgqRsk.jpg", "genre_ids": [18], "id": 10217, "original_language": "en", "original_title": "The Sweet Hereafter", "overview": "A small mountain community in Canada is devastated when a school bus accident leaves more than a dozen of its children dead. A big-city lawyer arrives to help the survivors' and victims' families prepare a class-action suit, but his efforts only seem to push the townspeople further apart. At the same time, one teenage survivor of the accident has to reckon with the loss of innocence brought about by a different kind of damage.", "poster_path": "/bMmbAvCJ9ZLgCQq0YxygOMQxzEZ.jpg", "release_date": "1997-05-14", "title": "The Sweet Hereafter", "video": false, "vote_average": 7.2, "vote_count": 198, "popularity": 10.634}, {"adult": false, "backdrop_path": "/1cnUtLTT68oEO1EYqSkyrGVsk66.jpg", "genre_ids": [80, 18], "id": 22302, "original_language": "fr", "original_title": "Polytechnique", "overview": "A dramatization of the Montreal Massacre of 1989 where several female engineering students were murdered by an unstable misogynist.", "poster_path": "/exIZZs9KL7ZohdmxXJYM8tMwAFc.jpg", "release_date": "2009-01-24", "title": "Polytechnique", "video": false, "vote_average": 7.1, "vote_count": 280, "popularity": 7.811}, {"adult": false, "backdrop_path": "/vKnAW5y22TpzcB7xpFFWTXOfsjG.jpg", "genre_ids": [27, 878], "id": 29437, "original_language": "en", "original_title": "Rabid", "overview": "After undergoing radical surgery for injuries from a motorcycle accident, a young woman develops a strange phallic growth on her body and a thirst for human blood\u2014the only nourishment that will now sustain her.", "poster_path": "/q41ufRSwRPTavOs3LMbpclfJ5Ot.jpg", "release_date": "1977-04-08", "title": "Rabid", "video": false, "vote_average": 6.4, "vote_count": 181, "popularity": 11.559}, {"adult": false, "backdrop_path": "/rxelfiq2rJnKWNqY4DyFDHJKhRW.jpg", "genre_ids": [18, 10749], "id": 110160, "original_language": "fr", "original_title": "Laurence Anyways", "overview": "The story of an impossible love between a cisgender woman named Fred and a transgender woman named Laurence who reveals her inner desire to become her true self.", "poster_path": "/qxUKbHFaqC0PYKITLERnt5fmuBg.jpg", "release_date": "2012-05-18", "title": "Laurence Anyways", "video": false, "vote_average": 7.8, "vote_count": 415, "popularity": 8.302}], "total_pages": 25, "total_results": 483}, "recommendations": {"page": 1, "results": [{"adult": false, "backdrop_path": null, "genre_ids": [], "id": 358825, "original_language": "en", "original_title": "The Water Circle", "overview": "Short film", "poster_path": "/A5ZIU0HP05eXhrp8DwJ6cc4rNli.jpg", "release_date": "1975-01-01", "title": "The Water Circle", "video": false, "vote_average": 5.3, "vote_count": 4, "popularity": 1.21}, {"adult": false, "backdrop_path": null, "genre_ids": [99], "id": 145013, "original_language": "en", "original_title": "Power and the Land", "overview": "A documentary showing the struggle to bring electricity to rural areas of the United States.", "poster_path": "/3Z4qFu4ooq6307pMQs60tN437PT.jpg", "release_date": "1940-08-31", "title": "Power and the Land", "video": false, "vote_average": 6.3, "vote_count": 4, "popularity": 1.852}, {"adult": false, "backdrop_path": null, "genre_ids": [], "id": 151230, "original_language": "en", "original_title": "Samsara: Death and Rebirth in Cambodia", "overview": "Made as a relief worker's master's thesis, this documentary chronicles the difficulties of rebuilding a community in post-Pol Pot Cambodia", "poster_path": "/cqr5WVOaKbQmZwDfMiVC8ITKbWA.jpg", "release_date": "1990-01-01", "title": "Samsara: Death and Rebirth in Cambodia", "video": false, "vote_average": 6.3, "vote_count": 4, "popularity": 1.541}], "total_pages": 1, "total_results": 3}, "credits": {"cast": [{"cast_id": 2, "character": "Canotier", "credit_id": "55575eb69251411e54005b06", "gender": 0, "id": 1467682, "name": "Louis-Philippe L\u00e9cuyer", "order": 0, "profile_path": null}, {"cast_id": 1, "character": "Canotier", "credit_id": "55575ea8c3a368777400605f", "gender": 0, "id": 1467681, "name": "Philippe Cross", "order": 1, "profile_path": null}, {"cast_id": 3, "character": "Archer", "credit_id": "55575ec9c3a3687782006940", "gender": 0, "id": 1467683, "name": "St\u00e9phane-Albert Boulais", "order": 2, "profile_path": null}, {"cast_id": 4, "character": "Archer", "credit_id": "55575ed3c3a368777e005d92", "gender": 0, "id": 1467684, "name": "Maurice Chaillot", "order": 3, "profile_path": null}, {"cast_id": 5, "character": "Orignal", "credit_id": "55575ee19251411e51006113", "gender": 0, "id": 1467685, "name": "Bernard L'Heureux", "order": 4, "profile_path": null}, {"cast_id": 6, "character": "Orignal", "credit_id": "55575eeec3a368778200694c", "gender": 0, "id": 1467686, "name": "Michel Guyot", "order": 5, "profile_path": null}, {"cast_id": 10, "character": "Barney the Guide", "credit_id": "5a00464b925141471d06246e", "gender": 0, "id": 1918476, "name": "Barney Descontie", "order": 6, "profile_path": null}, {"cast_id": 7, "character": "Chasseur d'ours", "credit_id": "55575f0092514102250001cb", "gender": 0, "id": 1467687, "name": "Maurice Aumont", "order": 7, "profile_path": null}, {"cast_id": 8, "character": "Chasseur d'ours", "credit_id": "55575f1092514102250001d0", "gender": 0, "id": 1467688, "name": "Claude Lauriault", "order": 8, "profile_path": null}, {"cast_id": 9, "character": "Laurier the Table Constructor", "credit_id": "5a004636c3a3686853061920", "gender": 0, "id": 1918475, "name": "Laurier Pr\u00e9vost", "order": 9, "profile_path": null}], "crew": [{"credit_id": "55575e809251411e5b005df1", "department": "Directing", "gender": 2, "id": 60893, "job": "Director", "name": "Pierre Perrault", "profile_path": null}]}}