{"adult": false, "backdrop_path": "/wCgtt2gRNoAkpPZYpykHVpsAsAb.jpg", "belongs_to_collection": null, "budget": 0, "genres": [{"id": 35, "name": "Comedy"}], "homepage": null, "id": 173385, "imdb_id": "tt0279895", "original_language": "el", "original_title": "\u039f \u039a\u03b1\u03bb\u03cd\u03c4\u03b5\u03c1\u03cc\u03c2 \u03bc\u03bf\u03c5 \u03a6\u03af\u03bb\u03bf\u03c2", "overview": "My Best Friend is the outrageous story of two men, friends since childhood, who have spent their lives tormenting one another. It is only when Constantinos discovers Alekos in bed with his wife that their friendship and their respective marriages finally collapse into a death spiral of sex, deceit and irrepressible humor. As events unfold another deception, one concealed by both men's wives, opens the door to incredible erotic intrigue. Antonis Kafetzopoulos delivers a virtuoso performance in this surrealistic comedy about lies, friendship, love and deadlock", "popularity": 0.658, "poster_path": "/pQHQTKX2ddfhfABi4srvoiMyBVb.jpg", "production_companies": [], "production_countries": [{"iso_3166_1": "GR", "name": "Greece"}], "release_date": "2001-03-02", "revenue": 0, "runtime": 104, "spoken_languages": [{"iso_639_1": "el", "name": "\u03b5\u03bb\u03bb\u03b7\u03bd\u03b9\u03ba\u03ac"}], "status": "Released", "tagline": "", "title": "My Best Friend", "video": false, "vote_average": 6.1, "vote_count": 11, "keywords": {"keywords": [{"id": 9799, "name": "romantic comedy"}, {"id": 170827, "name": "sex comedy"}, {"id": 193171, "name": "sitcom"}]}, "similar": {"page": 1, "results": [{"adult": false, "backdrop_path": "/4AgJ8gbjyQ0xg4Q5wjZHu00HOn4.jpg", "genre_ids": [35], "id": 127746, "original_language": "it", "original_title": "La dottoressa ci sta col Colonnello", "overview": "Colonel Anacleto Punch, military doctor, falls in love with the beautiful and sensual South African Dr. Eve Russell, specializing in transplants. Thinking that his manhood is not adequate for the beautiful colleague, decides to do a transplant with the unsuspecting nurse prawn, that with women has always been successful. But the end result will not be as anticipated.", "poster_path": "/4FsXIBLdXcmuWAl9uHAcvN87lHR.jpg", "release_date": "1980-11-11", "title": "La dottoressa ci sta col Colonnello", "video": false, "vote_average": 5.1, "vote_count": 21, "popularity": 5.008}, {"id": 2770, "video": false, "vote_count": 2941, "vote_average": 6.1, "title": "American Pie 2", "release_date": "2001-08-10", "original_language": "en", "original_title": "American Pie 2", "genre_ids": [35, 10749], "backdrop_path": "/1C1d3Tpesm8Vn3BRqsQZt0LfZcG.jpg", "adult": false, "overview": "The whole gang are back and as close as ever. They decide to get even closer by spending the summer together at a beach house. They decide to hold the biggest party ever to be seen, even if the preparation doesn't always go to plan. Especially when Stifler, Finch and Jim become more close to each other than they ever want to be and when Jim mistakes super glue for lubricant...", "poster_path": "/q4LNgUnRfltxzp3gf1MAGiK5LhV.jpg", "popularity": 20.359}, {"adult": false, "backdrop_path": "/98ahnrena4PwLth7HFYGLf9yssH.jpg", "genre_ids": [35, 18, 10749], "id": 22705, "original_language": "it", "original_title": "Tra(sgre)dire", "overview": "While scouting out apartments in London for her Venetian boyfriend, Carla rents an apartment that overlooks the Thames. There she meet the lesbian hyper-horny real estate agent Moira.", "poster_path": "/kZITrLEiTfzzJhtwtXhQUl3ImCQ.jpg", "release_date": "2000-01-28", "title": "Cheeky", "video": false, "vote_average": 5.7, "vote_count": 92, "popularity": 30.42}, {"adult": false, "backdrop_path": "/vXT5Gw09k99o9XXqqxBPz9NKgsa.jpg", "genre_ids": [35, 12], "id": 9285, "original_language": "en", "original_title": "Road Trip", "overview": "Four friends take off on an 1800 mile road trip to retrieve an illicit tape mistakenly mailed to a girl friend.", "poster_path": "/DCoZVnHVvtKTYwfM00dfVRbfUQ.jpg", "release_date": "2000-05-19", "title": "Road Trip", "video": false, "vote_average": 6.0, "vote_count": 1018, "popularity": 20.323}, {"adult": false, "backdrop_path": "/nnRJ5fwbtLxHU4ii9X1REB7Utir.jpg", "genre_ids": [35], "id": 151027, "original_language": "it", "original_title": "La professoressa di scienze naturali", "overview": "When the local science teacher hurts herself during a failed experiment and ends up in hospital, she is replaced by young and sexy Stevania Marini. Barely out of school herself, Stefania finds herself the object of affection for several men, including a young baron and and even most of her male students. One of these, Andrea Balsamo is part of the family with whom Stefania is staying and as such has a stronger foothold than most of the other men in town", "poster_path": "/vxABWlbNeJP0L5jJhCJRstXbsD7.jpg", "release_date": "1976-08-10", "title": "School Days", "video": false, "vote_average": 3.8, "vote_count": 6, "popularity": 2.444}, {"id": 2210, "video": false, "vote_count": 190, "vote_average": 5.5, "title": "Earth Girls Are Easy", "release_date": "1988-05-12", "original_language": "en", "original_title": "Earth Girls Are Easy", "genre_ids": [35, 10402, 878], "backdrop_path": "/rcgE2Tlbuzo3FFYMtzdTjdyybo0.jpg", "adult": false, "overview": "In this musical comedy, Valerie is dealing with her philandering fianc\u00e9, Ted, when she finds that a trio of aliens have crashed their spaceship into her swimming pool. Once the furry beings are shaved at her girlfriend's salon, the women discover three handsome men underneath. After absorbing the native culture via television, the spacemen are ready to hit the dating scene in 1980s Los Angeles.", "poster_path": "/pO9Edq8mgp9kD3N6EkCGYLnIVaA.jpg", "popularity": 13.511}, {"id": 9027, "video": false, "vote_count": 133, "vote_average": 5.2, "title": "The Guru", "release_date": "2002-08-21", "original_language": "en", "original_title": "The Guru", "genre_ids": [35, 10749], "backdrop_path": "/yTMI4fDST4PGujX3WnFat5PWS6D.jpg", "adult": false, "overview": "Bored with Bollywood movies but fascinated with their Hollywood counterparts from his youth, Ram dreams to become a singer and actor in America, the country where dreams are made. He is encouraged when his American-based close friend, Vijay Rao, comes for visit, and brags about driving a Mercedes and living in a penthouse.", "poster_path": "/kbqBlFIjxXkJCLHQxzq9nhTKubQ.jpg", "popularity": 8.248}, {"adult": false, "backdrop_path": "/r2b4rCQlaQ9eyhZhVukW8EnRW0c.jpg", "genre_ids": [35], "id": 55580, "original_language": "it", "original_title": "Fermo posta Tinto Brass", "overview": "This film is a series of letters, photos and video cassettes which women often send in to certain newspapers. By visualizing their story-telling (the name given by the psychologists to their fantasies) the film portrays the confessions, the secret longings, the adventures, recollections, dreams, desires and fantasies of these women. It is an open secret that most women dream of forbidden affairs, secret lovers and hasty encounters but when it comes down to it they lack the courage to pursue their dreams.", "poster_path": "/zC4QqXYwdOPS3LT9J0YPN3bcDxz.jpg", "release_date": "1995-08-30", "title": "P.O. Box Tinto Brass", "video": false, "vote_average": 5.2, "vote_count": 34, "popularity": 11.931}, {"adult": false, "backdrop_path": "/qPCI9SZmHXmeG6OK367r9GvkuGl.jpg", "genre_ids": [35, 10749], "id": 41280, "original_language": "en", "original_title": "Private Lessons", "overview": "Phillip Filmore is a naive, 15-year-old, preoccupied with sex, who develops a crush on Nicole Mallow, the new 30-something, French housekeeper and sitter to look after him when Phillip's father is out of town for the summer on a \"business\" trip. But Mr. Filmore's unscrupulous chauffeur, Lester Lewis, takes advantage of Phillip's crush on Nicole to hire her to seduce the youth, then draws her into a plot to fake her own death in a blackmail scheme aimed to drain Phillip's trust fund.", "poster_path": "/azdrerXeyr2Aofr7p9osEWnz05g.jpg", "release_date": "1981-08-21", "title": "Private Lessons", "video": false, "vote_average": 5.8, "vote_count": 37, "popularity": 24.872}, {"id": 384677, "video": false, "vote_count": 1692, "vote_average": 7.0, "title": "Set It Up", "release_date": "2018-06-12", "original_language": "en", "original_title": "Set It Up", "genre_ids": [35, 10749], "backdrop_path": "/wYHaQzfzv5vOGaV6uPhatFWG338.jpg", "adult": false, "overview": "Two overworked and underpaid assistants come up with a plan to get their bosses off their backs by setting them up with each other.", "poster_path": "/XF5jV0UxKnYNPAimem0hbwPfCR.jpg", "popularity": 17.802}, {"id": 11172, "video": false, "vote_count": 1032, "vote_average": 6.3, "title": "Music and Lyrics", "release_date": "2007-02-09", "original_language": "en", "original_title": "Music and Lyrics", "genre_ids": [35, 10402, 10749], "backdrop_path": "/cLZsdMMC3hoVQy9xwn3YJ4CR9Pd.jpg", "adult": false, "overview": "A washed up singer is given a couple days to compose a chart-topping hit for an aspiring teen sensation. Though he's never written a decent lyric in his life, he sparks with an offbeat younger woman with a flair for words.", "poster_path": "/jhv9qSAuwGkzVj1pSnu3HQBb8Qe.jpg", "popularity": 12.796}, {"adult": false, "backdrop_path": "/8ZIZJbPXCtnIG1rJpR57iFRyPTt.jpg", "genre_ids": [10749, 35], "id": 544, "original_language": "en", "original_title": "There's Something About Mary", "overview": "For Ted, prom night went about as bad as it\u2019s possible for any night to go. Thirteen years later, he finally gets another chance with his old prom date, only to run up against other suitors including the sleazy detective he hired to find her.", "poster_path": "/zD4ACYImREkDRk8PPiIXHDx4nZa.jpg", "release_date": "1998-07-15", "title": "There's Something About Mary", "video": false, "vote_average": 6.5, "vote_count": 3196, "popularity": 23.945}, {"adult": false, "backdrop_path": "/4QBI1pdjr2hH1fgC8NqwZZnWNso.jpg", "genre_ids": [10749, 35, 18], "id": 138697, "original_language": "en", "original_title": "Don Jon", "overview": "A New Jersey guy dedicated to his family, friends, and church, develops unrealistic expectations from watching porn and works to find happiness and intimacy with his potential true love.", "poster_path": "/xD93OhEhMPN0v5VXt21D6rx7HGg.jpg", "release_date": "2013-07-26", "title": "Don Jon", "video": false, "vote_average": 5.9, "vote_count": 2910, "popularity": 20.524}, {"id": 291870, "video": false, "vote_count": 2886, "vote_average": 5.8, "title": "Dirty Grandpa", "release_date": "2016-01-21", "original_language": "en", "original_title": "Dirty Grandpa", "genre_ids": [35], "backdrop_path": "/ivm52GLofIbvTb4dp4S4zbPO6II.jpg", "adult": false, "overview": "Jason Kelly is one week away from marrying his boss's uber-controlling daughter, putting him on the fast track for a partnership at the law firm. However, when the straight-laced Jason is tricked into driving his foul-mouthed grandfather, Dick, to Daytona for spring break, his pending nuptials are suddenly in jeopardy. Between riotous frat parties, bar fights, and an epic night of karaoke, Dick is on a quest to live his life to the fullest and bring Jason along for the ride.", "poster_path": "/cZEx6mB5Ftnt7LvlDjTKXcrTvyg.jpg", "popularity": 20.13}, {"id": 1581, "video": false, "vote_count": 2900, "vote_average": 7.0, "title": "The Holiday", "release_date": "2006-12-08", "original_language": "en", "original_title": "The Holiday", "genre_ids": [35, 10749], "backdrop_path": "/9TP7FGdo9ppnuXX3DbB9RtzYKkh.jpg", "adult": false, "overview": "Two women, one from the United States and one from the United Kingdom, swap homes at Christmastime after bad breakups with their boyfriends. Each woman finds romance with a local man but realizes that the imminent return home may end the relationship.", "poster_path": "/ixNtpuq8OVp4IckgzkSJIflFDkw.jpg", "popularity": 18.889}, {"id": 9489, "video": false, "vote_count": 1859, "vote_average": 6.6, "title": "You've Got Mail", "release_date": "1998-12-17", "original_language": "en", "original_title": "You've Got Mail", "genre_ids": [35, 10749], "backdrop_path": "/jbdQ0PDyrWqz5HfzKmparE93ky9.jpg", "adult": false, "overview": "Book superstore magnate, Joe Fox and independent book shop owner, Kathleen Kelly fall in love in the anonymity of the Internet\u2014both blissfully unaware that he's trying to put her out of business.", "poster_path": "/2XIsqnCwEE3Uf5TlP9H68STgtk6.jpg", "popularity": 16.79}, {"id": 703, "video": false, "vote_count": 2272, "vote_average": 7.8, "title": "Annie Hall", "release_date": "1977-04-19", "original_language": "en", "original_title": "Annie Hall", "genre_ids": [35, 18, 10749], "backdrop_path": "/8iNt5LGxpX9XeNWJgjx17xfTT7u.jpg", "adult": false, "overview": "New York comedian Alvy Singer falls in love with the ditsy Annie Hall.", "poster_path": "/bK9bLXwxWuXX5mbq75PZqjvAtfG.jpg", "popularity": 14.556}, {"adult": false, "backdrop_path": "/avhG8fITuG78IkKPk28CcBBHPOp.jpg", "genre_ids": [35, 18], "id": 112160, "original_language": "fr", "original_title": "Chroniques sexuelles d'une famille d'aujourd'hui", "overview": "Three generations of a French family open up about their sexual experiences and desires after young Romain is caught masturbating in his biology class.", "poster_path": "/pU2nD3Llaz3Taq5FAaQUg00uJYD.jpg", "release_date": "2012-05-09", "title": "Sexual Chronicles of a French Family", "video": false, "vote_average": 4.4, "vote_count": 169, "popularity": 26.875}, {"adult": false, "backdrop_path": "/txR74Uy6sYbUv4HQURQXNF8LXTf.jpg", "genre_ids": [35], "id": 8277, "original_language": "en", "original_title": "American Pie Presents: Beta House", "overview": "Erik, Ryan, and Cooze start college and pledge the Beta House fraternity, presided over by none other than legendary Dwight Stifler. But chaos ensues when a fraternity of geeks threatens to stop the debauchery and the Betas have to make a stand for their right to party.", "poster_path": "/xJeYprcFqBfov6dUpjJIxDeaZJr.jpg", "release_date": "2007-12-10", "title": "American Pie Presents: Beta House", "video": false, "vote_average": 5.5, "vote_count": 1087, "popularity": 16.688}, {"adult": false, "backdrop_path": "/npClMhFGn4XUkwu6coq5oKAEu6L.jpg", "genre_ids": [35, 10749, 18], "id": 634, "original_language": "en", "original_title": "Bridget Jones's Diary", "overview": "A chaotic Bridget Jones meets a snobbish lawyer, and he soon enters her world of imperfections.", "poster_path": "/ym6kjFFZg6boC0QHBVw6hqJLbxv.jpg", "release_date": "2001-04-13", "title": "Bridget Jones's Diary", "video": false, "vote_average": 6.7, "vote_count": 3080, "popularity": 19.453}], "total_pages": 121, "total_results": 2404}, "recommendations": {"page": 1, "results": [{"adult": false, "backdrop_path": null, "genre_ids": [35], "id": 254502, "original_language": "el", "original_title": "\u03a120", "overview": "A shy and reluctant Theology high school teacher in Thessaloniki-Greece decides to solve his erection problem by consulting a doctor for the first time after two years. The doctor just replies that the problem can be solved by R20. R20 is played fabulously by Dimitris Starovas. He is a former psychologist (now operating his father's import export meat business) that uses company trucks as moving brothels. R20 actually stands for: \"Russian 20 years old\" which eventually means that Lakis Lazopoulos has to cheat on his wife to solve his problem.", "poster_path": "/8vIdjvnpI2AtbMPqwlEZyonEeJi.jpg", "release_date": "2004-02-13", "title": "R20", "video": false, "vote_average": 6.3, "vote_count": 3, "popularity": 1.322}, {"adult": false, "backdrop_path": "/5n7j2tajApnyDijmOSyn2mKMKcU.jpg", "genre_ids": [35], "id": 555218, "original_language": "el", "original_title": "\u039f \u0393\u03b1\u03bc\u03c0\u03c1\u03cc\u03c2 \u039c\u03bf\u03c5, \u039f \u0394\u03b9\u03ba\u03b7\u03b3\u03cc\u03c1\u03bf\u03c2!", "overview": "A barber wants to marry his daughter to a scientist. He believes that he has found the proper candidate in the face of a trainee lawyer.", "poster_path": "/TP9tOaMXNMHvJ4dMYA9BgR8BCL.jpg", "release_date": "1962-01-01", "title": "\u039f \u0393\u03b1\u03bc\u03c0\u03c1\u03cc\u03c2 \u039c\u03bf\u03c5, \u039f \u0394\u03b9\u03ba\u03b7\u03b3\u03cc\u03c1\u03bf\u03c2!", "video": false, "vote_average": 7.3, "vote_count": 3, "popularity": 1.4}, {"adult": false, "backdrop_path": "/vLhbNFTaIg7fagsuZXiVgsqeZQD.jpg", "genre_ids": [35], "id": 398243, "original_language": "el", "original_title": "\u039e\u03cd\u03c0\u03bd\u03b1 \u039a\u03bf\u03c1\u03cc\u03b9\u03b4\u03bf...", "overview": "The Tasia chasing the impostor Lepoura Vangelis arrives with hitchhiking in Athens. Gaining confidence wholesaler Kyriacou Bolore and taken to his house as a maid. The daughter of Kiriakos, Lia, presents the writer Phaedon Tramountana and asks him to finance the scenario. His son Lakis, wants to succeed in the profession of wholesaler and prefers to deal with the rock band. His sister Ismene has in mind only the deck.", "poster_path": "/qaCtsKQBc7K6nO44X398Rs0zaxt.jpg", "release_date": "1969-01-01", "title": "\u039e\u03cd\u03c0\u03bd\u03b1 \u039a\u03bf\u03c1\u03cc\u03b9\u03b4\u03bf...", "video": false, "vote_average": 6.3, "vote_count": 4, "popularity": 2.365}], "total_pages": 1, "total_results": 3}, "credits": {"cast": [{"cast_id": 1, "character": "Konstadinos", "credit_id": "52fe4d31c3a36847f8253d7b", "gender": 0, "id": 106819, "name": "Lakis Lazopoulos", "order": 0, "profile_path": "/yonNnZytjCY3EaRMlZha2rLABrd.jpg"}, {"cast_id": 2, "character": "Alekos", "credit_id": "52fe4d31c3a36847f8253d7f", "gender": 2, "id": 1074097, "name": "Antonis Kafetzopoulos", "order": 1, "profile_path": "/cJQs4TQm5CIoymBVkZI09iwAlAz.jpg"}, {"cast_id": 3, "character": "Andrea", "credit_id": "52fe4d31c3a36847f8253d83", "gender": 0, "id": 234812, "name": "Smaragda Karydi", "order": 2, "profile_path": "/74ubS22oFIr7yA31H64lXENMTWr.jpg"}, {"cast_id": 4, "character": "dafni", "credit_id": "52fe4d31c3a36847f8253d87", "gender": 1, "id": 1120002, "name": "Vera Krouska", "order": 3, "profile_path": "/13NJtlihSc0v6mdJQ1Ys29Dwls8.jpg"}], "crew": [{"credit_id": "577f665f9251410c82001e77", "department": "Directing", "gender": 2, "id": 122423, "job": "Director", "name": "Yorgos Lanthimos", "profile_path": "/p6ykeQGWagu0wkLUJZX5xVtAkG8.jpg"}]}}