{"adult": false, "backdrop_path": "/Xw9MEZPV1hWcqYKL2DOsaAQpew.jpg", "belongs_to_collection": null, "budget": 0, "genres": [{"id": 99, "name": "Documentary"}], "homepage": "http://www.sparkpictures.net/", "id": 173488, "imdb_id": "tt2554648", "original_language": "en", "original_title": "Spark: A Burning Man Story", "overview": "Each year, 60,000 people from around the globe gather in a dusty windswept Nevada desert to build a temporary city, collaborating on large-scale art and partying for a week before burning a giant effigy in a ritual frenzy. Spark takes a peek behind the curtain with Burning Man organizers and participants, revealing a year of unprecedented challenges and growth.", "popularity": 3.702, "poster_path": "/oWEqfWS79oPK9a3RFO9dCUnvEWZ.jpg", "production_companies": [{"id": 79903, "logo_path": null, "name": "Ignite Channel", "origin_country": ""}, {"id": 79901, "logo_path": null, "name": "Spark Pictures", "origin_country": ""}], "production_countries": [{"iso_3166_1": "US", "name": "United States of America"}], "release_date": "2013-08-16", "revenue": 0, "runtime": 90, "spoken_languages": [{"iso_639_1": "en", "name": "English"}], "status": "Released", "tagline": "", "title": "Spark: A Burning Man Story", "video": false, "vote_average": 6.3, "vote_count": 5, "keywords": {"keywords": [{"id": 160213, "name": "festival"}, {"id": 187056, "name": "woman director"}]}, "similar": {"page": 1, "results": [{"adult": false, "backdrop_path": "/cADbqsIoiDW7X3Myg9nz8eAuno5.jpg", "genre_ids": [18, 10749], "id": 10818, "original_language": "fr", "original_title": "Naissance des pieuvres", "overview": "Set during a sultry summer in a French suburb, Marie is desperate to join the local pool's synchronized swimming team, but is her interest solely for the sake of sport or for a chance to get close to Floriane, the bad girl of the team? Sciamma, and the two leads, capture the uncertainty of teenage sexuality with a sympathetic eye in this delicate drama of the angst of coming-of-age.", "poster_path": "/4jajELYrR4Xmv3CVoKnukRnALa2.jpg", "release_date": "2007-05-17", "title": "Water Lilies", "video": false, "vote_average": 6.1, "vote_count": 119, "popularity": 9.614}, {"adult": false, "backdrop_path": "/gZeJziVigmRqbkEZwKAtSqlLQ6s.jpg", "genre_ids": [18, 10749], "id": 370663, "original_language": "en", "original_title": "Below Her Mouth", "overview": "An unexpected affair quickly escalates into a heart-stopping reality for two women whose passionate connection changes their lives forever.", "poster_path": "/nTGbq37hYLuNy7YgMg0gVLma0NS.jpg", "release_date": "2016-09-10", "title": "Below Her Mouth", "video": false, "vote_average": 6.2, "vote_count": 456, "popularity": 22.676}, {"adult": false, "backdrop_path": "/knczzNAjBXzSYkeWxoT1u9VNmjR.jpg", "genre_ids": [10749, 18], "id": 258480, "original_language": "en", "original_title": "Carol", "overview": "In 1950s New York, a department-store clerk who dreams of a better life falls for an older, married woman.", "poster_path": "/AbKa7ANxmui0Jmhh7gV7OSELKIL.jpg", "release_date": "2015-11-20", "title": "Carol", "video": false, "vote_average": 7.4, "vote_count": 2182, "popularity": 14.185}, {"id": 9813, "video": false, "vote_count": 128, "vote_average": 6.1, "title": "The Quiet", "release_date": "2005-09-12", "original_language": "en", "original_title": "The Quiet", "genre_ids": [18, 53], "backdrop_path": "/6eyWAZA4CEidZW1xXnQ4vlYBXTP.jpg", "adult": false, "overview": "After her widowed father dies, deaf teenager Dot moves in with her godparents, Olivia and Paul Deer. The Deers' daughter, Nina, is openly hostile to Dot, but that does not prevent her from telling her secrets to her silent stepsister, including the fact that she wants to kill her lecherous father.", "poster_path": "/GEqIE9YlmygHVUfS64LW2cwAAM.jpg", "popularity": 14.844}, {"adult": false, "backdrop_path": "/g3LYarEY9LjB28Ct2trwFN72gqZ.jpg", "genre_ids": [35], "id": 437557, "original_language": "en", "original_title": "Blockers", "overview": "When three parents discover their daughters\u2019 pact to lose their virginity at prom, they launch a covert one-night operation to stop the teens from sealing the deal.", "poster_path": "/uvlUQXg0AlpGzKukO11K7QtW3Yu.jpg", "release_date": "2018-03-14", "title": "Blockers", "video": false, "vote_average": 6.2, "vote_count": 1153, "popularity": 18.075}, {"adult": false, "backdrop_path": "/fZ8oFcREAr6wgWcXISGql0xyxjB.jpg", "genre_ids": [35, 18], "id": 39781, "original_language": "en", "original_title": "The Kids Are All Right", "overview": "Two women, Nic and Jules, brought a son and daughter into the world through artificial insemination. When one of their children reaches age, both kids go behind their mothers' backs to meet with the donor. Life becomes so much more interesting when the father, two mothers and children start to become attached to each other.", "poster_path": "/fPDeK4MmoGfi2X0oWZev7LrbMqM.jpg", "release_date": "2010-07-09", "title": "The Kids Are All Right", "video": false, "vote_average": 6.6, "vote_count": 923, "popularity": 12.703}, {"adult": false, "backdrop_path": "/6tern9vOEwwmkDYC1vRCuO64z0C.jpg", "genre_ids": [10749, 18], "id": 475888, "original_language": "en", "original_title": "Tell It to the Bees", "overview": "Dr. Jean Markham returns to the town she left as a teenager to take over her late father's medical practice. When a school-yard scuffle lands Charlie in her surgery, she invites him to visit the hives in her garden and tell his secrets to the bees, as she once did. The new friendship between the boy and the bee keeper brings his mother Lydia into Jean's world.", "poster_path": "/Rj6zpHhMU1zFW3v28U4PSRSRgP.jpg", "release_date": "2019-05-03", "title": "Tell It to the Bees", "video": false, "vote_average": 6.4, "vote_count": 53, "popularity": 15.113}, {"adult": false, "backdrop_path": "/xOGEw8iywxcFMolV6SF6YdTdJTb.jpg", "genre_ids": [10402, 10749], "id": 52371, "original_language": "nl", "original_title": "LelleBelle", "overview": "19-year old Belle practices playing the violin diligently, but is unable to impart her music with a sensitive undertone. Her life changes when she discovers that sexual desire stimulates passion in her music.", "poster_path": "/nJVPgIq3icZMQ26p5uWIFdUZJfL.jpg", "release_date": "2010-10-08", "title": "LelleBelle", "video": false, "vote_average": 4.7, "vote_count": 41, "popularity": 13.931}, {"adult": false, "backdrop_path": "/dvQDRfv3qvfHNnVAR57ouVsuErf.jpg", "genre_ids": [10749, 18], "id": 28031, "original_language": "en", "original_title": "If These Walls Could Talk 2", "overview": "The stories of three lesbian couples -- who live in the same house at different periods of time -- who are at a crossroads in their lives. In 1961, Edith loses her lover, Abby, to a stroke. Linda and Amy struggle with feminist issues in 1972. And, in 2000, Kal and Fran try to have a baby with the help of sperm donor.", "poster_path": "/xs7ODbmYQXCDhvXNvz5tF17T59H.jpg", "release_date": "2000-03-05", "title": "If These Walls Could Talk 2", "video": false, "vote_average": 7.1, "vote_count": 55, "popularity": 8.062}, {"adult": false, "backdrop_path": "/rf6G51j0SZL0tP57I8gnqHTRFEr.jpg", "genre_ids": [35, 18, 10749], "id": 273153, "original_language": "fr", "original_title": "La belle saison", "overview": "In 1971, Carole and Delphine meet and fall in love in Paris. When Carole follows Delphine back to her family farm in Limousin, the two find lesbianism and feminism are not as easy in the countryside.", "poster_path": "/evvAkNMO5VJiy5qIo1Hu7fUfvVI.jpg", "release_date": "2015-08-19", "title": "Summertime", "video": false, "vote_average": 6.6, "vote_count": 162, "popularity": 15.434}, {"id": 616584, "video": false, "vote_count": 92, "vote_average": 7.5, "title": "K-12", "release_date": "2019-09-05", "original_language": "en", "original_title": "K-12", "genre_ids": [14, 27, 10402], "backdrop_path": "/fSlfaF0Ydfr2SK6hOYHvDsb7a9Z.jpg", "adult": false, "overview": "Cry Baby, a strong and sensitive girl, is sent off to a disturbing sleepaway school that\u2019s hidden underneath a grandiose fa\u00e7ade. Luckily, she has a sweet and unapologetic best friend who sticks up for her when she gets bullied by the other students whose brains are under control by the Principal and his wicked staff. With the help of the magical friends they meet along the way, as well as an Angelic Spirit Guide, they are able to gain the strength they need to fight off the school\u2019s belligerent patriarchal conditioning.", "poster_path": "/nVi0yBBPj5Z96JgGWVIg94kv7bR.jpg", "popularity": 18.105}, {"adult": false, "backdrop_path": "/caLMOD3ZJ3V7qjlxDXrzlJfBLgD.jpg", "genre_ids": [18, 10749], "id": 20, "original_language": "en", "original_title": "My Life Without Me", "overview": "A Pedro Almodovar production in which a fatally ill mother with only two months to live creates a list of things she wants to do before she dies with out telling her family of her illness.", "poster_path": "/vVj92VBFUBzjqzLvBiPVVlJDp78.jpg", "release_date": "2003-03-07", "title": "My Life Without Me", "video": false, "vote_average": 6.1, "vote_count": 220, "popularity": 10.382}, {"adult": false, "backdrop_path": "/useuHJQ5HOoEWkAvEjL1FW1sUfe.jpg", "genre_ids": [18], "id": 376867, "original_language": "en", "original_title": "Moonlight", "overview": "The tender, heartbreaking story of a young man\u2019s struggle to find himself, told across three defining chapters in his life as he experiences the ecstasy, pain, and beauty of falling in love, while grappling with his own sexuality.", "poster_path": "/qAwFbszz0kRyTuXmMeKQZCX3Q2O.jpg", "release_date": "2016-10-21", "title": "Moonlight", "video": false, "vote_average": 7.4, "vote_count": 4406, "popularity": 27.348}, {"id": 326359, "video": false, "vote_count": 1179, "vote_average": 6.8, "title": "Frozen Fever", "release_date": "2015-03-09", "original_language": "en", "original_title": "Frozen Fever", "genre_ids": [12, 16, 10751], "backdrop_path": "/ubioPGniCfDiASmYYpeJs5RRNaC.jpg", "adult": false, "overview": "On Anna's birthday, Elsa and Kristoff are determined to give her the best celebration ever, but Elsa's icy powers may put more than just the party at risk.", "poster_path": "/lKJiVPzsAO9IJ4LKWXZ8vkR2bg4.jpg", "popularity": 17.061}, {"adult": false, "backdrop_path": "/k8H7ye6Sab7OrDJoo8Qp5WFGHGk.jpg", "genre_ids": [35, 10749, 18], "id": 244264, "original_language": "en", "original_title": "Laggies", "overview": "Overeducated and underemployed, 28 year old Megan is in the throes of a quarterlife crisis. Squarely into adulthood with no career prospects, no particular motivation to think about her future and no one to relate to, Megan is comfortable lagging a few steps behind - while her friends check off milestones and celebrate their new grown-up status. When her high-school sweetheart proposes, Megan panics and- given an unexpected opportunity to escape for a week - hides out in the home of her new friend, 16-year old Annika and Annika's world-weary single dad Craig.", "poster_path": "/dNcoXoRC7JHiqbe7k5Ufo6syiPP.jpg", "release_date": "2014-09-25", "title": "Laggies", "video": false, "vote_average": 6.1, "vote_count": 787, "popularity": 9.883}, {"adult": false, "backdrop_path": "/ph5fElfh4U7O3jwhFljxz2LDp1l.jpg", "genre_ids": [18, 36], "id": 375262, "original_language": "en", "original_title": "The Favourite", "overview": "England, early 18th century. The close relationship between Queen Anne and Sarah Churchill is threatened by the arrival of Sarah's cousin, Abigail Hill, resulting in a bitter rivalry between the two cousins to be the Queen's favourite.", "poster_path": "/cwBq0onfmeilU5xgqNNjJAMPfpw.jpg", "release_date": "2018-11-23", "title": "The Favourite", "video": false, "vote_average": 7.6, "vote_count": 2823, "popularity": 26.511}, {"id": 297762, "video": false, "vote_count": 13717, "vote_average": 7.3, "title": "Wonder Woman", "release_date": "2017-05-30", "original_language": "en", "original_title": "Wonder Woman", "genre_ids": [28, 12, 14], "backdrop_path": "/6iUNJZymJBMXXriQyFZfLAKnjO6.jpg", "adult": false, "overview": "An Amazon princess comes to the world of Man in the grips of the First World War to confront the forces of evil and bring an end to human conflict.", "poster_path": "/gfJGlDaHuWimErCr5Ql0I8x9QSy.jpg", "popularity": 41.8}, {"id": 434714, "video": false, "vote_count": 32, "vote_average": 7.5, "title": "My Days of Mercy", "release_date": "2019-07-11", "original_language": "en", "original_title": "My Days of Mercy", "genre_ids": [18, 10749], "backdrop_path": "/7Lbzq33nMMIQtAfZAmSqG6ibLSg.jpg", "adult": false, "overview": "The daughter of a man on death row falls in love with a woman on the opposing side of her family's political cause.", "poster_path": "/adIPKAoKnKL9vCTkvfF4J9ZA7Ln.jpg", "popularity": 6.928}, {"adult": false, "backdrop_path": "/npClMhFGn4XUkwu6coq5oKAEu6L.jpg", "genre_ids": [35, 10749, 18], "id": 634, "original_language": "en", "original_title": "Bridget Jones's Diary", "overview": "A chaotic Bridget Jones meets a snobbish lawyer, and he soon enters her world of imperfections.", "poster_path": "/ym6kjFFZg6boC0QHBVw6hqJLbxv.jpg", "release_date": "2001-04-13", "title": "Bridget Jones's Diary", "video": false, "vote_average": 6.7, "vote_count": 3080, "popularity": 19.453}, {"adult": false, "backdrop_path": "/ojn7IYKmMt8HXRd6oLwY5pLGLVc.jpg", "genre_ids": [18, 10749], "id": 9587, "original_language": "en", "original_title": "Little Women", "overview": "With their father away as a chaplain in the Civil War, Jo, Meg, Beth and Amy grow up with their mother in somewhat reduced circumstances. They are a close family who inevitably have their squabbles and tragedies. But the bond holds even when, later, male friends start to become a part of the household.", "poster_path": "/tD9YDE8pjtSvvKUpkmooE6YDSm8.jpg", "release_date": "1994-12-21", "title": "Little Women", "video": false, "vote_average": 7.2, "vote_count": 574, "popularity": 18.707}], "total_pages": 1333, "total_results": 26659}, "recommendations": {"page": 1, "results": [{"adult": false, "backdrop_path": "/lB73FWGkkeFRysQMZQlLNfvbPKu.jpg", "genre_ids": [99], "id": 381024, "original_language": "en", "original_title": "Orange Sunshine", "overview": "The never-before-told story of the Brotherhood of Eternal Love \u2013 a spiritual group of surfers and hippies in Southern California that became the largest suppliers of psychedelic drugs in the world during the 1960s and early 1970s. Bonded by their dreams to fight social injustice and spread peace, this unlikely band of free-spirited idealists quickly transformed into a drug-smuggling empire and at the same time inadvertently invented the modern illegal drug trade. At the head of the Brotherhood, and the heart of this story, is the anti-capitalistic husband and wife team, who made it their mission to change the world through LSD.", "poster_path": "/pElD520j1jgANaPUIm6qkR4ThEY.jpg", "release_date": "2016-03-14", "title": "Orange Sunshine", "video": false, "vote_average": 7.8, "vote_count": 8, "popularity": 5.655}, {"adult": false, "backdrop_path": null, "genre_ids": [99], "id": 419170, "original_language": "en", "original_title": "Your Job in Germany", "overview": "Your Job In Germany is a short film made for the United States War Department in 1945 just before Victory in Europe Day (VE). It was shown to US soldiers about to go on occupation duty in Germany. The film was made by the military film unit commanded by Frank Capra and was written by Theodor Geisel, better known by his pen name Dr. Seuss.", "poster_path": "/6T1XDCNB9FU3Px9bFOxj4i7yb9w.jpg", "release_date": "1945-04-15", "title": "Your Job in Germany", "video": false, "vote_average": 5.0, "vote_count": 4, "popularity": 3.128}, {"adult": false, "backdrop_path": "/f7onWB4BkjUA9GwRcvvYlo2m7Q1.jpg", "genre_ids": [18], "id": 26589, "original_language": "en", "original_title": "Dust Be My Destiny", "overview": "Embittered after serving time for a burglary he did not commit, Joe Bell is soon back in jail, on a prison farm. His love for the foreman's daughter leads to a fight between them, leading to the older man's death due to a weak heart. Joe and Mabel go on the run as he thinks no-one would believe a nobody like him.", "poster_path": "/twsX5wNnkWzyoZqrTR3iO7cgKPQ.jpg", "release_date": "1939-09-16", "title": "Dust Be My Destiny", "video": false, "vote_average": 7.3, "vote_count": 6, "popularity": 2.311}, {"id": 496863, "video": false, "vote_count": 6, "vote_average": 6.7, "title": "XY Chelsea", "release_date": "2019-05-24", "original_language": "en", "original_title": "XY Chelsea", "genre_ids": [99], "backdrop_path": "/c7y4Fcgp1Yicg80lMlJlV7Fv89k.jpg", "adult": false, "overview": "The historic story of whistleblower Chelsea Manning. Shot over two years and featuring exclusive interviews and behind-the-scenes verit\u00e9 with Manning, the film picks up on the momentous day in May when she leaves prison and follows her through her journey of discovery.", "poster_path": "/vpa3T9OV5mduslVjtKZ0PCGzlEj.jpg", "popularity": 6.295}, {"adult": false, "backdrop_path": "/dfYVkoLwzu74IOj5Fci2y72QsQz.jpg", "genre_ids": [99], "id": 271707, "original_language": "en", "original_title": "Das gro\u00dfe Museum", "overview": "This feature documentary portrays one of the most important museums in the world,  the Kunsthistorisches Museum Wien. It presents a unique look behind the scenes of  this fascinating institution and encounters a number of charismatic protagonists and  their working fields unfolding the museum\u2019s special world \u2013 as an art institution as  well a vehicle for state representation.", "poster_path": "/hwln6hcZJ1nI6WB8ZxHomx6GIGD.jpg", "release_date": "2014-04-26", "title": "The Great Museum", "video": false, "vote_average": 6.5, "vote_count": 7, "popularity": 1.277}, {"adult": false, "backdrop_path": "/kW9bJ4YH0o9vOWFza0a3cTGDRhM.jpg", "genre_ids": [99], "id": 543086, "original_language": "en", "original_title": "The Truth About Killer Robots", "overview": "Exploring provocative viewpoints from engineers, factory workers, journalists, philosophers and Asimov himself, The Truth About Killer Robots is a cautionary tale about a world automating beyond control.", "poster_path": "/yPR24C1KEnLpilYvYV09Ax52nBg.jpg", "release_date": "2018-09-06", "title": "The Truth About Killer Robots", "video": false, "vote_average": 6.2, "vote_count": 5, "popularity": 5.48}, {"id": 490780, "video": false, "vote_count": 8, "vote_average": 7.5, "title": "Dark Money", "release_date": "2018-01-22", "original_language": "en", "original_title": "Dark Money", "genre_ids": [99], "backdrop_path": "/sDNTZDQN3FB1tow5Pr4q8J2WJm2.jpg", "adult": false, "overview": "'Dark money' contributions, made possible by the U.S. Supreme Court's Citizens United ruling, flood modern American elections\u2014but Montana is showing Washington D.C. how to solve the problem of unlimited anonymous money in politics.", "poster_path": "/tXXq3iBWIs9X1LWSCGLoDGbYNHO.jpg", "popularity": 3.589}, {"adult": false, "backdrop_path": "/7KyE9AIfwQv03Lqr58jkHxR6siz.jpg", "genre_ids": [18, 80], "id": 239000, "original_language": "en", "original_title": "The Big Operator", "overview": "A power-mad union boss resorts to murder to eliminate witnesses scheduled to testify against him. The eclectic cast includes Mickey Rooney, Mamie Van Doren, Mel Torme, Jay North, Vampira, Charles Chaplin Jr., Jackie Coogan and Norman Grabowski.", "poster_path": "/7I7gnFHvgrQWb4dKDrjdjbCgtgT.jpg", "release_date": "1959-08-01", "title": "The Big Operator", "video": false, "vote_average": 6.0, "vote_count": 4, "popularity": 2.752}, {"adult": false, "backdrop_path": "/2nTfmjdAYY5QJEAjIDfRQKfXtPO.jpg", "genre_ids": [35, 10402, 10749], "id": 43193, "original_language": "en", "original_title": "Dangerous When Wet", "overview": "The health conscious, dairy-farming Higgins family begin each day with an invigorating swim. One day, traveling health-tonic salesman, Windy Weebe, comes to town and suggests they could swim the English Channel. Sponsored by \"Liquapep\" and coached by Windy, the family arrive in Europe. There it is decided that daughter Katie is the only one strong enough to enter the contest. But while she should be focused on the difficult and risky task ahead, Katie is pursed by dashing Frenchman, Andr\u00e9 Lanet... This comedic musical is well remembered for the scene when Katie dreams she is swimming with cartoon characters Tom & Jerry!", "poster_path": "/coosul6pLmH84zRHogwpBz5IB51.jpg", "release_date": "1953-07-03", "title": "Dangerous When Wet", "video": false, "vote_average": 6.1, "vote_count": 8, "popularity": 5.051}, {"adult": false, "backdrop_path": "/dDjaRfZ6MuEgPzhlkUa6pl76sip.jpg", "genre_ids": [18], "id": 157384, "original_language": "en", "original_title": "Mother of George", "overview": "A story about a woman willing to do anything and risk everything for her marriage.", "poster_path": "/3wPN8isCREeMk1M3XHqbEDghPJu.jpg", "release_date": "2013-01-18", "title": "Mother of George", "video": false, "vote_average": 6.5, "vote_count": 13, "popularity": 3.356}, {"adult": false, "backdrop_path": "/mann0c97dRndcE8YseO0CN42rCC.jpg", "genre_ids": [18], "id": 34752, "original_language": "en", "original_title": "The Glass Wall", "overview": "Peter Kaban, a Hungarian refugee, is about to be deported after jumping ship in New York harbor. He needs to find an ex-G.I named Tom whom he helped during the war, as Tom.can prove Peter's right to legal entry iof the United States. It is a race against the clock! If he can't find Tom within 24 hours and prove his case, he will be branded a fugitive and will be permanently disqualified for U.S. citizenship.", "poster_path": "/fg0Y0KlcmG4ALhecZCQ3y1tCzVD.jpg", "release_date": "1953-03-19", "title": "The Glass Wall", "video": false, "vote_average": 5.6, "vote_count": 10, "popularity": 7.125}], "total_pages": 1, "total_results": 11}, "credits": {"cast": [{"cast_id": 4, "character": "Herself", "credit_id": "531bafbbc3a3685c56005300", "gender": 0, "id": 1299662, "name": "Katy Boynton", "order": 1, "profile_path": null}, {"cast_id": 5, "character": "Himself", "credit_id": "531bafcac3a3685c51005265", "gender": 0, "id": 1299663, "name": "Marco Cochrane", "order": 2, "profile_path": null}, {"cast_id": 6, "character": "Herself", "credit_id": "531bafd5c3a3685c5d005381", "gender": 0, "id": 1299664, "name": "Harley K. Dubois", "order": 3, "profile_path": null}, {"cast_id": 7, "character": "Herself", "credit_id": "531bafe0c3a3685c370053ad", "gender": 0, "id": 1299665, "name": "Marian Goodell", "order": 4, "profile_path": null}, {"cast_id": 8, "character": "Himself", "credit_id": "531baffec3a3685c5d00538c", "gender": 0, "id": 1299666, "name": "Larry Harvey", "order": 5, "profile_path": null}, {"cast_id": 9, "character": "Himself", "credit_id": "531bb00cc3a3685c310053a2", "gender": 0, "id": 1299667, "name": "Jon La Grace", "order": 6, "profile_path": null}, {"cast_id": 10, "character": "Himself", "credit_id": "531bb019c3a3685c51005277", "gender": 0, "id": 1299668, "name": "John Law", "order": 7, "profile_path": null}], "crew": [{"credit_id": "52fe4d34c3a36847f82545db", "department": "Directing", "gender": 2, "id": 172651, "job": "Director", "name": "Steve Brown", "profile_path": null}, {"credit_id": "52fe4d34c3a36847f82545e1", "department": "Directing", "gender": 0, "id": 126142, "job": "Director", "name": "Jessie Deeter", "profile_path": null}, {"credit_id": "52fe4d34c3a36847f82545e7", "department": "Camera", "gender": 2, "id": 1117209, "job": "Director of Photography", "name": "John Behrens", "profile_path": null}, {"credit_id": "579e3b81c3a3684b8a0031dc", "department": "Editing", "gender": 0, "id": 1659275, "job": "Editor", "name": "Andrew Gersh", "profile_path": null}, {"credit_id": "579e3b919251411022001ae4", "department": "Sound", "gender": 2, "id": 70474, "job": "Original Music Composer", "name": "Joachim Cooder", "profile_path": null}, {"credit_id": "579e3c2fc3a3683cfd001d56", "department": "Sound", "gender": 0, "id": 1566120, "job": "Music Supervisor", "name": "Amin\u00e9 Ramer", "profile_path": null}, {"credit_id": "579e3cc9c3a3681db8002442", "department": "Production", "gender": 0, "id": 1659276, "job": "Executive Producer", "name": "David Chang", "profile_path": null}, {"credit_id": "579e3cd7c3a3684bd700342e", "department": "Production", "gender": 0, "id": 1659277, "job": "Executive Producer", "name": "Robert Zangrillo", "profile_path": null}, {"credit_id": "579e3cef925141106b001b8c", "department": "Production", "gender": 0, "id": 1659278, "job": "Executive Producer", "name": "Konstantin Othmer", "profile_path": null}, {"credit_id": "579e3cff92514110d00019e3", "department": "Production", "gender": 0, "id": 1659279, "job": "Associate Producer", "name": "Theresa Desautels", "profile_path": null}, {"credit_id": "579e3d329251411022001bb2", "department": "Production", "gender": 0, "id": 1467609, "job": "Executive Producer", "name": "Alec Lorimore", "profile_path": null}, {"credit_id": "579e3d5c92514177b1002304", "department": "Production", "gender": 2, "id": 3288, "job": "Executive Producer", "name": "Chris Weitz", "profile_path": "/xlnVbsnoP3PZCjEa2d99ETVLAFB.jpg"}, {"credit_id": "579e3d7ec3a3681db80024a0", "department": "Production", "gender": 2, "id": 172651, "job": "Producer", "name": "Steve Brown", "profile_path": null}, {"credit_id": "579e3d92c3a3683d2b001d6f", "department": "Production", "gender": 0, "id": 126142, "job": "Producer", "name": "Jessie Deeter", "profile_path": null}]}}