{"adult": false, "backdrop_path": "/UsSmqRJyJsaJ3QYyLdQYbcQ5xA.jpg", "belongs_to_collection": null, "budget": 0, "genres": [{"id": 18, "name": "Drama"}, {"id": 10749, "name": "Romance"}], "homepage": null, "id": 173912, "imdb_id": "tt2659190", "original_language": "fr", "original_title": "Le temps de l'aventure", "overview": "In the short break between performances in Calais, stage actress Alix makes a quick escape to Paris. On the train she meets a mysterious English stranger and, for the most fleeting of afternoons, imagines what the future could hold down a different road.", "popularity": 3.784, "poster_path": "/13KRpbR9nOT8fyCdM7q3lN6K3Ve.jpg", "production_companies": [{"id": 2700, "logo_path": "/xVyuzrVzoMbxBh3xNZbUudm4meJ.png", "name": "Rectangle Productions", "origin_country": "FR"}, {"id": 11199, "logo_path": "/ursSXLOZaDxiZ84sEgfXbiFnYaa.png", "name": "SCOPE Pictures", "origin_country": "BE"}, {"id": 3353, "logo_path": "/qv2v9HaStUTRjqonODM29YG0oFX.png", "name": "Element Pictures", "origin_country": "IE"}, {"id": 591, "logo_path": "/q5I5RDwMEiqoNmfaJgd2LraEOJY.png", "name": "France 3 Cin\u00e9ma", "origin_country": "FR"}, {"id": 14267, "logo_path": null, "name": "Alvy Distribution", "origin_country": ""}, {"id": 5125, "logo_path": "/t3oWTsVukmEzrZzvfr37XRBibo5.png", "name": "Le Pacte", "origin_country": "FR"}, {"id": 10611, "logo_path": "/zQ4fGaEnNkWfSzyygXRcUZwPmDG.png", "name": "Cin\u00e9+", "origin_country": "FR"}, {"id": 850, "logo_path": "/aF7qajGJGtMpdrtvssM9g90YanX.png", "name": "Eurimages", "origin_country": "FR"}, {"id": 13836, "logo_path": null, "name": "Cofinova 8", "origin_country": "FR"}, {"id": 11246, "logo_path": "/4YZ5CQZkJa2FIKGtjLLoKhNOAIw.png", "name": "R\u00e9gion Ile-de-France", "origin_country": "FR"}, {"id": 14268, "logo_path": "/dt8foss5srgTblxN4flZ5CRxRqI.png", "name": "Cofinova 9", "origin_country": "FR"}, {"id": 104, "logo_path": "/9aotxauvc9685tq9pTcRJszuT06.png", "name": "Canal+", "origin_country": "FR"}, {"id": 7131, "logo_path": "/eLvjHPYZ12GR58lrDgg6MXZp2a3.png", "name": "France T\u00e9l\u00e9visions", "origin_country": "FR"}], "production_countries": [{"iso_3166_1": "FR", "name": "France"}], "release_date": "2013-04-10", "revenue": 0, "runtime": 104, "spoken_languages": [{"iso_639_1": "en", "name": "English"}, {"iso_639_1": "fr", "name": "Fran\u00e7ais"}], "status": "Released", "tagline": "", "title": "Just a Sigh", "video": false, "vote_average": 6.9, "vote_count": 14, "keywords": {"keywords": [{"id": 14534, "name": "relationship"}]}, "similar": {"page": 1, "results": [{"id": 38, "video": false, "vote_count": 8439, "vote_average": 8.1, "title": "Eternal Sunshine of the Spotless Mind", "release_date": "2004-03-19", "original_language": "en", "original_title": "Eternal Sunshine of the Spotless Mind", "genre_ids": [18, 878, 10749], "backdrop_path": "/1dXTsaFxHoF9cas08UjAqE8NqOW.jpg", "adult": false, "overview": "Joel Barish, heartbroken that his girlfriend underwent a procedure to erase him from her memory, decides to do the same. However, as he watches his memories of her fade away, he realises that he still loves her, and may be too late to correct his mistake.", "poster_path": "/7y3eYvTsGjxPYDtSnumCLIMDkrV.jpg", "popularity": 22.167}, {"adult": false, "backdrop_path": "/zXsskYrKF8QSivBykfMp48AdtuM.jpg", "genre_ids": [18, 10749], "id": 10641, "original_language": "en", "original_title": "Autumn in New York", "overview": "Autumn in New York follows the sexual exploits of Will Keane - New York restaurateur, infamous verging-on-50 playboy, master of the no-commitment seduction - until he runs into an unexpected dead end when he meets Charlotte Fielding. Charlotte is half Will's age and twice his match, a 21 year-old free spirit yearning to get out and taste the excitement of adult life.", "poster_path": "/tQ5ze794HtDjxTxYVxHRn7AzbSL.jpg", "release_date": "2000-08-11", "title": "Autumn in New York", "video": false, "vote_average": 6.0, "vote_count": 364, "popularity": 14.24}, {"adult": false, "backdrop_path": "/Lnjz6blDcd8rm7AwsGCa3SicDn.jpg", "genre_ids": [18, 10749], "id": 261470, "original_language": "es", "original_title": "Perdona si te llamo amor", "overview": "A successful, attractive, intelligent and brilliant advertising executive is longing to finally find emotional stability in his life, and decides to propose to his girlfriend. After she refuses his proposal, his life takes a turn when a new young lady enters his life.", "poster_path": "/bI2MNBCiK1xcuDRf4A2RvMAwSZ5.jpg", "release_date": "2014-06-20", "title": "Sorry If I Call You Love", "video": false, "vote_average": 6.8, "vote_count": 164, "popularity": 17.841}, {"adult": false, "backdrop_path": "/sypQlfdD6dij70dzpQMRE4QjGVA.jpg", "genre_ids": [18, 35], "id": 111969, "original_language": "en", "original_title": "Stuck in Love", "overview": "An acclaimed writer, his ex-wife, and their teenaged children come to terms with the complexities of love in all its forms over the course of one tumultuous year.", "poster_path": "/wxrH3NZ4wTtHVzbquknLRRQMFWW.jpg", "release_date": "2012-09-09", "title": "Stuck in Love", "video": false, "vote_average": 7.3, "vote_count": 1251, "popularity": 11.655}, {"id": 1903, "video": false, "vote_count": 2234, "vote_average": 6.8, "title": "Vanilla Sky", "release_date": "2001-12-10", "original_language": "en", "original_title": "Vanilla Sky", "genre_ids": [18, 14, 878, 53, 10749], "backdrop_path": "/6XwX3HzKhlBUbTy2qZx0THQOu2T.jpg", "adult": false, "overview": "David Aames has it all: wealth, good looks and gorgeous women on his arm. But just as he begins falling for the warmhearted Sofia, his face is horribly disfigured in a car accident. That's just the beginning of his troubles as the lines between illusion and reality, between life and death, are blurred.", "poster_path": "/ujMy9P4VczTW9YSpAM31uqdOMpz.jpg", "popularity": 14.632}, {"adult": false, "backdrop_path": "/qmERQjNTQ8HhBi5dxwv8BNzrOX.jpg", "genre_ids": [18, 10749], "id": 38684, "original_language": "en", "original_title": "Jane Eyre", "overview": "After a bleak childhood, Jane Eyre goes out into the world to become a governess. As she lives happily in her new position at Thornfield Hall, she meet the dark, cold, and abrupt master of the house, Mr. Rochester. Jane and her employer grow close in friendship and she soon finds herself falling in love with him. Happiness seems to have found Jane at last, but could Mr. Rochester's terrible secret be about to destroy it forever?", "poster_path": "/oC7wvdrBA0RgbXaJZwcxsl1zKBR.jpg", "release_date": "2011-03-11", "title": "Jane Eyre", "video": false, "vote_average": 7.1, "vote_count": 854, "popularity": 11.425}, {"id": 451925, "video": false, "vote_count": 143, "vote_average": 6.3, "title": "Time Freak", "release_date": "2018-11-09", "original_language": "en", "original_title": "Time Freak", "genre_ids": [35, 878, 10749], "backdrop_path": "/90Vk1RuNt5hdufI0J1IGDRfx9S6.jpg", "adult": false, "overview": "Stillman, a heartbroken physics student, builds a time machine when his girlfriend breaks up with him. Going back in time, he attempts to save their relationship by fixing every mistake he made\u2014while dragging his best friend along in the process.", "poster_path": "/17FFyw0tmwuLailIWVYFHaRLZWJ.jpg", "popularity": 10.097}, {"adult": false, "backdrop_path": "/hD8DQM72Xacg1d3mFqS0eN8vKYw.jpg", "genre_ids": [18], "id": 8272, "original_language": "en", "original_title": "The Savages", "overview": "A sister and brother face the realities of familial responsibility as they begin to care for their ailing father.", "poster_path": "/nY54gSmTOmSXlQpWDB7DWp4u8a7.jpg", "release_date": "2007-01-19", "title": "The Savages", "video": false, "vote_average": 6.9, "vote_count": 192, "popularity": 13.094}, {"id": 10683, "video": false, "vote_count": 393, "vote_average": 7.5, "title": "Happiness", "release_date": "1998-10-16", "original_language": "en", "original_title": "Happiness", "genre_ids": [35, 18], "backdrop_path": "/ArW9pVWnEqYKx0zbEIIVr6pzsvO.jpg", "adult": false, "overview": "The lives of many individuals connected by the desire for happiness, often from sources usually considered dark or evil.", "poster_path": "/rYfUcEV88Z3gENrfYTE6i8yBkDr.jpg", "popularity": 11.656}, {"id": 12531, "video": false, "vote_count": 91, "vote_average": 6.9, "title": "The Apartment", "release_date": "1996-07-27", "original_language": "fr", "original_title": "L'Appartement", "genre_ids": [18, 9648, 10749], "backdrop_path": "/64qyT8m4JQ6YODvXxtbHgKmXBX7.jpg", "adult": false, "overview": "A stylish suspense thriller that confounds the audience while presenting them with an extraordinary and elusive mystery. Max is a former playboy who has decided to settle down by marrying his current love, Muriel. However, during a business trip, Max catches a glimpse of the great lost love of his life, reviving his wanderlust and sending him off on a chase of the elusive Lisa, whom he had overheard suggesting to a friend that her lover, Daniel, had killed someone for her. Soon, Max is trying to unravel the mystery behind the suspicious death of Daniel's wife, which he hopes will lead him closer to Lisa.", "poster_path": "/1sqrQdQTn8jKLhUcPKfRVj639zA.jpg", "popularity": 21.259}, {"adult": false, "backdrop_path": "/74Jh5SIWnKDwtusPfDP51EeCFHt.jpg", "genre_ids": [35, 10749], "id": 9576, "original_language": "en", "original_title": "Tootsie", "overview": "When struggling, out of work actor Michael Dorsey secretly adopts a female alter ego - Dorothy Michaels - in order to land a part in a daytime drama, he unwittingly becomes a feminist icon and ends up in a romantic pickle.", "poster_path": "/ngyCzZwb9y5sMUCig5JQT4Y33Q.jpg", "release_date": "1982-12-16", "title": "Tootsie", "video": false, "vote_average": 7.2, "vote_count": 915, "popularity": 10.882}, {"id": 1417, "video": false, "vote_count": 6619, "vote_average": 7.7, "title": "Pan's Labyrinth", "release_date": "2006-08-25", "original_language": "es", "original_title": "El laberinto del fauno", "genre_ids": [18, 14, 10752], "backdrop_path": "/4XP5kp70Pw01qpD6Gr0PQwy43Mr.jpg", "adult": false, "overview": "Living with her tyrannical stepfather in a new home with her pregnant mother, 10-year-old Ofelia feels alone until she explores a decaying labyrinth guarded by a mysterious faun who claims to know her destiny. If she wishes to return to her real father, Ofelia must complete three terrifying tasks.", "poster_path": "/t0TDsqbCTgSi0AL7k4baZrOYYhi.jpg", "popularity": 22.501}, {"id": 521, "video": false, "vote_count": 1257, "vote_average": 8.0, "title": "Dial M for Murder", "release_date": "1954-05-29", "original_language": "en", "original_title": "Dial M for Murder", "genre_ids": [80, 18, 9648, 53], "backdrop_path": "/jVMlfESb0TJ29w8CUDDofEprMmn.jpg", "adult": false, "overview": "An ex-tennis pro carries out a plot to have his wife murdered after discovering she is having an affair, and assumes she will soon leave him for the other man anyway. When things go wrong, he improvises a new plan\u2014to frame her for murder instead.", "poster_path": "/xrpK1PyckNWmRxU4kZURfaCyboS.jpg", "popularity": 34.566}, {"id": 27022, "video": false, "vote_count": 3218, "vote_average": 6.0, "title": "The Sorcerer's Apprentice", "release_date": "2010-07-13", "original_language": "en", "original_title": "The Sorcerer's Apprentice", "genre_ids": [28, 12, 35, 18, 14], "backdrop_path": "/v0o9M1us65w1kDQp8Q6KnB5a11s.jpg", "adult": false, "overview": "Balthazar Blake is a master sorcerer in modern-day Manhattan trying to defend the city from his arch-nemesis, Maxim Horvath. Balthazar can't do it alone, so he recruits Dave Stutler, a seemingly average guy who demonstrates hidden potential, as his reluctant prot\u00e9g\u00e9. The sorcerer gives his unwilling accomplice a crash course in the art and science of magic, and together, these unlikely partners work to stop the forces of darkness.", "poster_path": "/ZNSrRpdJ6FjMy4Iu6JpRTJ5Q87.jpg", "popularity": 20.949}, {"adult": false, "backdrop_path": "/xC9cG6Wy6QbH2hoAx11xPPD995R.jpg", "genre_ids": [18, 10749], "id": 86331, "original_language": "fr", "original_title": "Q", "overview": "In a social context deteriorated by a countrywide economic crisis, the life of several people will be turned upside down after they meet Cecile, a character who symbolizes desire.", "poster_path": "/9Jg9s4yTEndNmy1SSXRF9jdxY9D.jpg", "release_date": "2011-09-14", "title": "Desire", "video": false, "vote_average": 4.7, "vote_count": 204, "popularity": 30.344}, {"id": 537915, "video": false, "vote_count": 2376, "vote_average": 6.0, "title": "After", "release_date": "2019-04-11", "original_language": "en", "original_title": "After", "genre_ids": [18, 10749], "backdrop_path": "/997ToEZvF2Obp9zNZbY5ELVnmrW.jpg", "adult": false, "overview": "Tessa Young is a dedicated student, dutiful daughter and loyal girlfriend to her high school sweetheart. Entering her first semester of college, Tessa's guarded world opens up when she meets Hardin Scott, a mysterious and brooding rebel who makes her question all she thought she knew about herself -- and what she wants out of life.", "poster_path": "/u3B2YKUjWABcxXZ6Nm9h10hLUbh.jpg", "popularity": 28.116}, {"id": 293863, "video": false, "vote_count": 4193, "vote_average": 7.4, "title": "The Age of Adaline", "release_date": "2015-04-16", "original_language": "en", "original_title": "The Age of Adaline", "genre_ids": [18, 14, 10749], "backdrop_path": "/dgOosqHUPTrs9hDijYTnBNHYYib.jpg", "adult": false, "overview": "After 29-year-old Adaline recovers from a nearly lethal accident, she inexplicably stops growing older. As the years stretch on and on, Adaline keeps her secret to herself  until she meets a man who changes her life.", "poster_path": "/gEDGROZ4NQDlRjUPPSSyIf0hKvD.jpg", "popularity": 14.551}, {"adult": false, "backdrop_path": "/bQW1TnxHlmkWof0vsALj4HBkoxj.jpg", "genre_ids": [18, 10749], "id": 51828, "original_language": "en", "original_title": "One Day", "overview": "A romantic comedy centered on Dexter and Emma, who first meet during their graduation in 1988 and proceed to keep in touch regularly. The film follows what they do on July 15 annually, usually doing something together.", "poster_path": "/xzOz17yC3K6SZWtWylXimcHUqpD.jpg", "release_date": "2011-03-02", "title": "One Day", "video": false, "vote_average": 7.2, "vote_count": 2342, "popularity": 15.269}, {"id": 369885, "video": false, "vote_count": 3048, "vote_average": 6.7, "title": "Allied", "release_date": "2016-11-17", "original_language": "en", "original_title": "Allied", "genre_ids": [28, 18, 53, 10749, 10752], "backdrop_path": "/tC0tVH5KQhCwMlddnyA3iWOSuBA.jpg", "adult": false, "overview": "In 1942, an intelligence officer in North Africa encounters a female French Resistance fighter on a deadly mission behind enemy lines. When they reunite in London, their relationship is tested by the pressures of war.", "poster_path": "/nzXzLFTnd0Zb3ExfhOxlQgizgSu.jpg", "popularity": 32.359}, {"id": 272693, "video": false, "vote_count": 3247, "vote_average": 6.8, "title": "The DUFF", "release_date": "2015-02-20", "original_language": "en", "original_title": "The DUFF", "genre_ids": [35, 10749], "backdrop_path": "/awGZf5T1hflis9Z2KvRMhp798xU.jpg", "adult": false, "overview": "Bianca's universe turns upside down when she learns that her high school refers to her as a \u2018DUFF' (Designated Ugly Fat Friend). Hoping to erase that label, she enlists the help of a charming jock and her favorite teacher. Together they'll face the school's mean girl and remind everyone that we are all someone's DUFF\u2026 and that's totally fine.", "poster_path": "/dBBgPTCN5Zze4POXWVVpwf3wkra.jpg", "popularity": 14.151}], "total_pages": 109, "total_results": 2170}, "recommendations": {"page": 1, "results": [{"adult": false, "backdrop_path": null, "genre_ids": [18], "id": 255482, "original_language": "es", "original_title": "La tercera orilla", "overview": "Tensions rise when a doctor (Daniel Veronese) pressures his teenage son to follow in his footsteps.", "poster_path": "/rHSQDV28uAOGIyLe2w5c0QoSeE7.jpg", "release_date": "2014-03-13", "title": "The Third Side of the River", "video": false, "vote_average": 5.9, "vote_count": 9, "popularity": 2.104}, {"id": 4792, "video": false, "vote_count": 8, "vote_average": 4.6, "title": "Killer", "release_date": "1972-03-01", "original_language": "fr", "original_title": "Le tueur", "genre_ids": [80, 53], "backdrop_path": "/8TPVcbX2rOiEGVYPnoBNFPbD0bR.jpg", "adult": false, "overview": "Christmas Eve in Paris. Leo Zimmerman is a businessman who lives for his beloved little daughter\u2019s smile. Outwardly, his life is exemplary. However, when Dimitri Kopas walks into his office, pretending to be a normal client, Leo understands that a contract is out on his head and that the young man has come to town to kill him. Overcome with anxiety and paranoia, no longer able to sleep, Leo decides to meet the killer face to face and to broker a strange deal.", "poster_path": "/xTaDyi9grPll2uz2OqzdgyoxiHE.jpg", "popularity": 2.1}, {"adult": false, "backdrop_path": "/AunMxectEGaSkVY8VhrOMtWzrzM.jpg", "genre_ids": [35], "id": 63577, "original_language": "fr", "original_title": "Le Sucre", "overview": "Civil servant Adrien Courtois comes to Paris in order to make his money bear fruits.", "poster_path": "/cS7PQBdEjNz03KGrQeP612UuBIN.jpg", "release_date": "1978-10-15", "title": "Sugar", "video": false, "vote_average": 6.8, "vote_count": 15, "popularity": 3.132}, {"adult": false, "backdrop_path": null, "genre_ids": [80, 18], "id": 33799, "original_language": "fr", "original_title": "Place Vend\u00f4me", "overview": "The story of a woman that remained distracted for a long time from her life, from the passions that made her feel alive. The importance of true love is compared with the material value of diamonds. Only one truly lasts forever. She's got to find the thing that values most for her, the thing that gives psychical stability and real happiness again to her life.", "poster_path": "/eFOAmp4BDsajfBkdSVk95LpTwic.jpg", "release_date": "1998-10-07", "title": "Place Vendome", "video": false, "vote_average": 6.5, "vote_count": 14, "popularity": 5.437}, {"adult": false, "backdrop_path": "/qYyMVcIxlzpmLmLeLSTi9oPFO9a.jpg", "genre_ids": [18, 35, 80], "id": 62133, "original_language": "fr", "original_title": "Cible \u00e9mouvante", "overview": "Into the solitary life of middle-aged hitman, Victor Meynard, come two people: Antoine, a youth who becomes Victor's apprentice, and Ren\u00e9e, a bold thief Victor's been hired to kill because she cheated a mobster. When circumstances prevent Victor from killing her, the gangster sends two more teams to do it (and to dispatch Victor and Antoine). Victor decides to help Ren\u00e9e, and the unlikely trio ends up at his house with his temperamental mother; there, as they hide out, Victor's attraction to Ren\u00e9e grows, she discovers his vocation and fears he's going to kill her, and an ultimate showdown with their hunters is inevitable.", "poster_path": "/A0MgkrzZxAnx3ZU98ysbV6R2SEx.jpg", "release_date": "1993-08-18", "title": "Wild Target", "video": false, "vote_average": 7.1, "vote_count": 11, "popularity": 2.147}, {"adult": false, "backdrop_path": "/b9Wn22NyM76o8bH2aSYvKhpkwL1.jpg", "genre_ids": [35, 10749], "id": 51851, "original_language": "fr", "original_title": "Changement d'adresse", "overview": "In Paris, the emotional and professional tribulations of a musician and his roommate. Freshly installed in Paris, David, a shy and clumsy musician, falls madly in love with his student, Julia. He tries everything to seduce her. His roommate, Anne, encourages, advises, and consoles... passionately!", "poster_path": "/e8LzG1mmL9wTU31hqKGrVG5pMxx.jpg", "release_date": "2006-06-21", "title": "Change of Address", "video": false, "vote_average": 6.4, "vote_count": 20, "popularity": 2.401}], "total_pages": 1, "total_results": 6}, "credits": {"cast": [{"cast_id": 3, "character": "Alix", "credit_id": "52fe4d3fc3a36847f82568a5", "gender": 1, "id": 19117, "name": "Emmanuelle Devos", "order": 0, "profile_path": "/4dmA6XhsqPAfcpIR5NXxwHSlhB4.jpg"}, {"cast_id": 4, "character": "L'homme", "credit_id": "52fe4d3fc3a36847f82568a9", "gender": 2, "id": 5168, "name": "Gabriel Byrne", "order": 1, "profile_path": "/yQR6Exu12940oRXoCWmwULyWLP8.jpg"}, {"cast_id": 5, "character": "Rodolphe", "credit_id": "52fe4d3fc3a36847f82568ad", "gender": 0, "id": 35964, "name": "Gilles Privat", "order": 2, "profile_path": "/sMrav9xFCnkivDuwzCsBscaIssl.jpg"}, {"cast_id": 6, "character": "Diane", "credit_id": "52fe4d3fc3a36847f82568b1", "gender": 1, "id": 4287, "name": "Aur\u00e9lia Petit", "order": 3, "profile_path": "/4a5lhGwOEOjM1WyTjALPe7cNzxK.jpg"}, {"cast_id": 7, "character": "Olivier", "credit_id": "52fe4d3fc3a36847f82568b5", "gender": 2, "id": 228719, "name": "Laurent Capelluto", "order": 4, "profile_path": "/fE6HK47D9rLnHwspIt27aCcFhz6.jpg"}, {"cast_id": 8, "character": "La femme \u00e0 l'accueil de la banque", "credit_id": "569fe473c3a36858e500b2f6", "gender": 1, "id": 1566222, "name": "No\u00e9mie Landreau", "order": 5, "profile_path": "/cKdzy3CRV6K74AQWMwaZfKyEFmp.jpg"}], "crew": [{"credit_id": "52fe4d3fc3a36847f825689b", "department": "Directing", "gender": 0, "id": 239637, "job": "Director", "name": "J\u00e9r\u00f4me Bonnell", "profile_path": null}, {"credit_id": "52fe4d3fc3a36847f82568a1", "department": "Writing", "gender": 0, "id": 239637, "job": "Writer", "name": "J\u00e9r\u00f4me Bonnell", "profile_path": null}, {"credit_id": "5ba51ff4c3a368083201a7d1", "department": "Editing", "gender": 1, "id": 1058836, "job": "Editor", "name": "Julie Dupr\u00e9", "profile_path": null}, {"credit_id": "5ba5201f9251412df70180a1", "department": "Camera", "gender": 0, "id": 1122744, "job": "Director of Photography", "name": "Pascal Lagriffoul", "profile_path": null}, {"credit_id": "5ba52073c3a368083a0188c2", "department": "Sound", "gender": 1, "id": 1091467, "job": "Sound Editor", "name": "Julie Brenta", "profile_path": null}, {"credit_id": "5ba520930e0a26323201969d", "department": "Sound", "gender": 0, "id": 479716, "job": "Sound Recordist", "name": "Laurent Bena\u00efm", "profile_path": null}]}}