{"adult": false, "backdrop_path": null, "belongs_to_collection": null, "budget": 0, "genres": [{"id": 99, "name": "Documentary"}], "homepage": "http://www.TheMotivationMovie.com", "id": 174334, "imdb_id": "tt2755016", "original_language": "en", "original_title": "The Motivation", "overview": "Go inside the lives and training regimes of eight of the world\u2019s gutsiest professional skateboarders. These fearless stars face unique obstacles on the way to the Street League Championship and the coveted title of best skateboarder in the world.", "popularity": 3.206, "poster_path": "/8y9bnf4JT3i0DrElazjuA3JYc1U.jpg", "production_companies": [{"id": 57437, "logo_path": null, "name": "Rain Dominion", "origin_country": "US"}], "production_countries": [], "release_date": "2013-04-25", "revenue": 0, "runtime": 88, "spoken_languages": [{"iso_639_1": "pt", "name": "Portugu\u00eas"}, {"iso_639_1": "en", "name": "English"}], "status": "Released", "tagline": "", "title": "The Motivation", "video": false, "vote_average": 7.0, "vote_count": 19, "keywords": {"keywords": [{"id": 271, "name": "competition"}, {"id": 390, "name": "skateboarding"}, {"id": 33355, "name": "skateboard"}, {"id": 167882, "name": "professional sports"}, {"id": 178873, "name": "skateboarder"}]}, "similar": {"page": 1, "results": [{"id": 13532, "video": false, "vote_count": 500, "vote_average": 6.1, "title": "Fanboys", "release_date": "2009-02-06", "original_language": "en", "original_title": "Fanboys", "genre_ids": [12, 35], "backdrop_path": "/89udmMtxl8AuQHYoFdSgB5e6xYs.jpg", "adult": false, "overview": "In 1999, Star Wars fanatics take a cross-country trip to George Lucas' Skywalker Ranch so their dying friend can see a screening of The Phantom Menace before its release.", "poster_path": "/ywI92p2x7D96nuEayGVOMll35SF.jpg", "popularity": 13.772}, {"id": 91356, "video": false, "vote_count": 29, "vote_average": 6.7, "title": "Comic-Con Episode IV: A Fan's Hope", "release_date": "2011-09-10", "original_language": "en", "original_title": "Comic-Con Episode IV: A Fan's Hope", "genre_ids": [99], "backdrop_path": "/9jEhi26UTbZXn2QFzcYtiPyYkWB.jpg", "adult": false, "overview": "A behind-the-scenes look at San Diego Comic-Con, the world's largest comic book convention, and the fans who attend every year.", "poster_path": "/axltQJKHxolLfbGwuTKZZlLbBsZ.jpg", "popularity": 8.754}, {"adult": false, "backdrop_path": "/5JqfbGd425PRS6BQ5MMfzT3g1Wy.jpg", "genre_ids": [99], "id": 15800, "original_language": "en", "original_title": "Trekkies", "overview": "A hilarious look at the universe's most fervent fans.", "poster_path": "/bXfxkQnoq9xDegq7dmJpJXSMRYf.jpg", "release_date": "1997-10-18", "title": "Trekkies", "video": false, "vote_average": 6.5, "vote_count": 32, "popularity": 6.057}, {"id": 491474, "video": false, "vote_count": 46, "vote_average": 6.8, "title": "Skate Kitchen", "release_date": "2018-08-10", "original_language": "en", "original_title": "Skate Kitchen", "genre_ids": [18], "backdrop_path": "/8AXIZeciFJxD7wTJs7qGsfYD54f.jpg", "adult": false, "overview": "Camille's life as a lonely suburban teenager changes dramatically when she befriends a group of girl skateboarders. As she journeys deeper into this raw New York City subculture, she begins to understand the true meaning of friendship as well as her inner self.", "poster_path": "/wXoxxRVbCyQkW8oEYlKVHBPJTlm.jpg", "popularity": 7.544}, {"adult": false, "backdrop_path": "/ad3zVcsQNttAwcNeWjaMn4rJpMg.jpg", "genre_ids": [28], "id": 1380, "original_language": "en", "original_title": "Gleaming the Cube", "overview": "An Orange County teenager's carefree life of ditching class and skateboarding abandoned pools comes to a screeching halt when someone close to him dies. The cops rule the death a suicide, but the bereaved skater believes he was murdered. It's up to him to solve the case, with a skateboard.", "poster_path": "/aXFBVIY2i3HETfBGvRojg3RRt3C.jpg", "release_date": "1989-01-13", "title": "Gleaming the Cube", "video": false, "vote_average": 5.9, "vote_count": 65, "popularity": 6.883}, {"adult": false, "backdrop_path": "/tvqOacgIVtrxW7G3WKrIjc4hU1W.jpg", "genre_ids": [99], "id": 35199, "original_language": "en", "original_title": "Wordplay", "overview": "From the masters who create the mind-bending diversions to the tense competition at the American Crossword Puzzle Tournament, Patrick Creadon's documentary reveals a fascinating look at a decidedly addictive pastime. Creadon captures New York Times editor Will Shortz at work, talks to celebrity solvers -- including Bill Clinton and Ken Burns -- and presents an intimate look at the national tournament and its competitors.", "poster_path": "/ydMzrQpwayNFPQi967rrrZlBBmC.jpg", "release_date": "2006-06-26", "title": "Wordplay", "video": false, "vote_average": 7.4, "vote_count": 25, "popularity": 5.346}, {"adult": false, "backdrop_path": "/oc4c56cWn1kAYBnQk1XVuxLnwBa.jpg", "genre_ids": [99], "id": 184149, "original_language": "en", "original_title": "Somm", "overview": "Somm takes the viewer on a humorous, emotional and illuminating look into the mysterious world of the Court of Master Sommeliers and their massively intimidating Master Sommelier Exam.", "poster_path": "/cUEdU3orGQz5VS4gUbtIctG4WjW.jpg", "release_date": "2013-06-21", "title": "Somm", "video": false, "vote_average": 7.2, "vote_count": 39, "popularity": 5.544}, {"adult": false, "backdrop_path": "/q59RIuLMNerJbCu87dWtZOEgZke.jpg", "genre_ids": [99], "id": 160220, "original_language": "en", "original_title": "Bronies: The Extremely Unexpected Adult Fans of My Little Pony", "overview": "A film profiling the unusual cross-demographic fandom of the ostensibly girl oriented television series \"My Little Pony: Friendship Is Magic\"", "poster_path": "/oEW5BXfVY6xYNfk1ClhaX4F0SgQ.jpg", "release_date": "2012-11-04", "title": "Bronies: The Extremely Unexpected Adult Fans of My Little Pony", "video": false, "vote_average": 5.2, "vote_count": 31, "popularity": 6.773}, {"adult": false, "backdrop_path": "/ga3bLGS8Jx5OTr1Wt8YfYIW6HAx.jpg", "genre_ids": [99], "id": 225050, "original_language": "en", "original_title": "Fallen - Road Less Traveled", "overview": "For most of us skateboarding is a way of life, but somehow the focus of almost every skate video has been based around single tricks that come together to make individual video parts. While we\u2019ve always enjoyed watching and making these types of videos, there\u2019s something special about knowing what went into a project and what it was like for those who experienced it first hand. Therefore, when we set out to make the new Fallen video, we wanted to document every aspect of our missions with the goal of taking the viewer on the journey with us. Over the course of two and a half years, we traveled to Turkey, Croatia, South Africa, Portugal, the American West and Thailand. The memories alone made the extended travel and uncomfortable situations worth the effort. We invite you to join us on the Road Less Traveled.", "poster_path": "/8Hg0SL6UfoI8Ou559wBXqpQY57l.jpg", "release_date": "2013-09-30", "title": "Fallen - Road Less Traveled", "video": false, "vote_average": 10.0, "vote_count": 2, "popularity": 0.6}, {"adult": false, "backdrop_path": "/5EEuVgiPEJNLvFQc3FTgKYaveuW.jpg", "genre_ids": [99], "id": 81899, "original_language": "en", "original_title": "Trek Nation", "overview": "Trek Nation is a documentary film directed by Scott Colthorp examining the positive impact that Star Trek and creator Gene Roddenberry may have had on people's lives as seen through the eyes of his son, Eugene Roddenberry, Jr. (\"Rod\"). It includes interviews with castmembers and crew from all five Star Trek shows, as well as various fans and celebrities who were markedly influenced by the show while growing up. Rod Roddenberry also visits Skywalker Ranch to interview George Lucas on the influence that Star Trek had on him. Lucas shares how he had gone to Star Trek conventions prior to creating Star Wars.", "poster_path": "/aYmz4TgkCNXP72WgbmHAbmDuBKw.jpg", "release_date": "2011-11-30", "title": "Trek Nation", "video": false, "vote_average": 7.0, "vote_count": 14, "popularity": 5.115}, {"adult": false, "backdrop_path": "/sxOahZRr3oBTHZEfKCNP7BrYA2g.jpg", "genre_ids": [99], "id": 75311, "original_language": "en", "original_title": "The People vs. George Lucas", "overview": "The passion the original Star Wars trilogy inspires in its fans is unparalleled; but when it comes to George Lucas himself, many have found their ardor has cooled into a complicated love-hate relationship. This hilarious, heartfelt documentary delves deep into Lucas\u2019s cultural legacy, asking all the tough questions. Has Lucas betrayed his masterwork? Should he just have left the original trilogy alone? Is The Phantom Menace so bad it should carry a health warning? Utilizing interviews taken from over 600 hours of footage, and peppered with extraordinary Star Wars and Indiana Jones recreations lovingly immortalized in song, needlepoint, Lego, claymation, puppets and paper-m\u00e2ch\u00e9, above all this film asks the question: who truly owns that galaxy far, far away\u2014the man who created it, or the fans who worship it?", "poster_path": "/AtHiQoLWzbNk5iSJrAoDAf2YTrZ.jpg", "release_date": "2010-03-14", "title": "The People vs. George Lucas", "video": false, "vote_average": 6.4, "vote_count": 57, "popularity": 7.867}, {"adult": false, "backdrop_path": "/bHETgolkxCrnb0woF9gRQdZLCwN.jpg", "genre_ids": [99, 10402], "id": 23997, "original_language": "en", "original_title": "Every Little Step", "overview": "Every Little Step follows the plight of real-life dancers as they struggle through auditions for the Broadway revival of \"A Chorus Line\" and also investigates the history of the show and the creative minds behind the original and current incarnations.", "poster_path": "/gwIewDhmPqhmf3FHYAH3owyYG1q.jpg", "release_date": "2008-09-06", "title": "Every Little Step", "video": false, "vote_average": 5.9, "vote_count": 9, "popularity": 4.417}, {"adult": false, "backdrop_path": "/jBJIjPOFsQYkkWlezDSUD3jyTfH.jpg", "genre_ids": [99], "id": 169864, "original_language": "en", "original_title": "The Short Game", "overview": "Each year, the world\u2019s best 7 year-old golfers descend on Pinehurst, North Carolina to compete in the World Championships of Junior Golf. The Short Game follows eight of these very young athletes on their quest to become the sport\u2019s next phenom.", "poster_path": "/dGGeogv5IHMJf0QaB2ORyLz6rzi.jpg", "release_date": "2013-09-20", "title": "The Short Game", "video": false, "vote_average": 7.4, "vote_count": 20, "popularity": 4.234}, {"adult": false, "backdrop_path": "/rk47cNWdb0L66eQahvr6p9dvZAh.jpg", "genre_ids": [99], "id": 329697, "original_language": "en", "original_title": "Raiders!: The Story of the Greatest Fan Film Ever Made", "overview": "In 1982, three 11 year-olds in Mississippi set out to remake their favorite film: Raiders of the Lost Ark. It took seven turbulent years that tested the limits of their friendship and nearly burned down their mother's house. By the end, they had completed every scene except one... the explosive airplane scene. 30 years later, they attempt to finally realize their childhood dream by building a replica of the 75 foot \"Flying Wing\" plane from Raiders in a mud pit in the backwoods of Mississippi... and then blow it up! This is the story behind the making of what is known as \"the greatest fan film ever made.\"", "poster_path": "/6qH6ZkqIPtMvETKSaWNnRNLV6Te.jpg", "release_date": "2015-03-14", "title": "Raiders!: The Story of the Greatest Fan Film Ever Made", "video": false, "vote_average": 7.2, "vote_count": 32, "popularity": 6.698}, {"adult": false, "backdrop_path": "/o6tykUWcN5DttLvSxbAsKtp4Hd4.jpg", "genre_ids": [99, 10402], "id": 199782, "original_language": "en", "original_title": "Bruce Springsteen: Springsteen & I", "overview": "For 40 years Bruce Springsteen has influenced fans from all over. His songs defined more than a generation. This film gives the fans just as much time as The Boss himself, with never shown footage and live performances from his last tour.", "poster_path": "/r8jD8MWpK02UYwDE9clJWnE5JVH.jpg", "release_date": "2013-07-22", "title": "Bruce Springsteen: Springsteen & I", "video": false, "vote_average": 7.5, "vote_count": 20, "popularity": 3.996}, {"adult": false, "backdrop_path": "/doQXzq3AmKevliPbU3um9YKESQT.jpg", "genre_ids": [99], "id": 95808, "original_language": "en", "original_title": "Brooklyn Castle", "overview": "Brooklyn Castle is a documentary about I.S. 318 \u2013 an inner-city school where more than 65 percent of students are from homes with incomes below the federal poverty level \u2013 that also happens to have the best, most winning junior high school chess team in the country. (If Albert Einstein, who was rated 1800, were to join the team, he\u2019d only rank fifth best.) Chess has transformed the school from one cited in 2003 as a \u201cschool in need of improvement\u201d to one of New York City\u2019s best. But a series of recession-driven public school budget cuts now threaten to undermine those hard-won successes.", "poster_path": "/oVAgwODMnrAVEUDAYKs7Uz4F5fb.jpg", "release_date": "2012-10-19", "title": "Brooklyn Castle", "video": false, "vote_average": 7.3, "vote_count": 12, "popularity": 4.256}, {"adult": false, "backdrop_path": "/9a6CK90OLPvXVyzfAKOSzKWkCuH.jpg", "genre_ids": [28, 99], "id": 264484, "original_language": "en", "original_title": "Circa - It's Time", "overview": "C1RCA Footwear presents it's full length video with team members Adrian Lopez,  Jon Allie, Colt Cannon, Peter Ramondetta, and others.", "poster_path": "/c7J6q2ba3Clux9F7ckiimoVM8r2.jpg", "release_date": "2006-06-05", "title": "Circa: It's Time", "video": false, "vote_average": 8.3, "vote_count": 2, "popularity": 0.918}, {"adult": false, "backdrop_path": null, "genre_ids": [99], "id": 30906, "original_language": "en", "original_title": "Frontrunners", "overview": "A documentary on the competition for student body president at New York's Stuyvesant High School. As the notoriously competitive school's election draws near, the campaign becomes a microcosm for the nation at large, with race, gender and appearance vying for attention with real issues.", "poster_path": "/zMfxtZhutFoYL1gSTVYrbP9MjXM.jpg", "release_date": "2008-10-15", "title": "Frontrunners", "video": false, "vote_average": 6.4, "vote_count": 5, "popularity": 1.155}, {"adult": false, "backdrop_path": null, "genre_ids": [99], "id": 222403, "original_language": "en", "original_title": "Indyfans", "overview": "Amid the release of the fourth Indiana Jones movie, filmmaker Brandon Kleyla chronicles the fanaticism of the whip-carrying admirers and interviews various filmmakers, archaeologists and writers about the Indy franchise. Viewers learn why archaeologist Indiana Jones and his many adventures have spawned die-hard, convention-going fans for more than two decades.", "poster_path": "/czdRRvBK2VkLz1bzdd6KHqPwxAH.jpg", "release_date": "2008-04-01", "title": "Indyfans", "video": false, "vote_average": 0.0, "vote_count": 0, "popularity": 0.84}, {"adult": false, "backdrop_path": "/gfhPICLb5SSzdKob9sm1CQeASEB.jpg", "genre_ids": [99], "id": 57722, "original_language": "en", "original_title": "Kings of Pastry", "overview": "The collar awarded to the winners of the Meilleur Ouvrier de France (Best Craftsman in France) is more than the ultimate recognition for every pastry chef - it is a dream and an obsession. The 3-day competition includes everything from delicate chocolates to precarious six foot sugar sculptures and requires that the chefs have extraordinary skill, nerves of steel and luck. The film follows Jacquy Pfeiffer, founder of The French Pastry School in Chicago, as he returns to France to compete against 15 of France's leading pastry chefs. The filmmakers were given first time/exclusive access to this high-stakes drama of passion, sacrifice, disappointment and joy in the quest to have President Sarkozy declare them one of the best in France.", "poster_path": "/v4uqhHO7Zgnga4Cw8Uqxx1TC4vm.jpg", "release_date": "2009-11-06", "title": "Kings of Pastry", "video": false, "vote_average": 6.8, "vote_count": 16, "popularity": 4.26}], "total_pages": 11, "total_results": 213}, "recommendations": {"page": 1, "results": [{"adult": false, "backdrop_path": null, "genre_ids": [99], "id": 347700, "original_language": "en", "original_title": "Motivation 2: The Chris Cole Story", "overview": "The story of a man that earned his place as an innovator, motivator and legend in skateboarding that now creates inspiration and opportunity for a new generation. Cole's progression from humble neighborhood beginnings to the world of elite street skateboarding is revealed through recently discovered archival footage, presenting a skater that went on to achieve the highest amount of skate contest wins, a list of defining video parts, being twice selected as Thrasher magazine's Skater of the Year, back-to-back X-Games gold medals, and becoming the 2013 Street League Super Crown World Champion", "poster_path": "/gFQSlqO9a0jqga1uz7YlGBFINJF.jpg", "release_date": "2015-06-23", "title": "Motivation 2: The Chris Cole Story", "video": false, "vote_average": 7.5, "vote_count": 13, "popularity": 4.379}, {"adult": false, "backdrop_path": "/5PfZK19nMeCJ5S0CMMkQLeA70cU.jpg", "genre_ids": [35], "id": 26556, "original_language": "en", "original_title": "Dara \u00d3 Briain: Talks Funny", "overview": "Recorded at the world famous Hammersmith Apollo before 3,300 fans, this is the culmination of Dara's massive 2008 sellout tour of the UK and Ireland. Dara is at his best, mixing top drawer material with lightning fast improvisation to give his audience yet another hilarious night to remember.", "poster_path": "/eAe7bTgP7BHMEjcozUJZzSmpg6M.jpg", "release_date": "2008-11-17", "title": "Dara \u00d3 Briain: Talks Funny", "video": false, "vote_average": 7.7, "vote_count": 9, "popularity": 3.077}, {"adult": false, "backdrop_path": "/633pkfqUbUKe5eGa4XgCpMeFgGk.jpg", "genre_ids": [35], "id": 23675, "original_language": "en", "original_title": "Lee Evans: Wired and Wonderful - Live AT WEMBLEY", "overview": "On this release, Lee Evans is live at Wembley, unleashing his latest material to a giddy crowd. And witness the funny man's version of \"Bohemian Rhapsody.\" Beelzebub has a devil put aside for...Lee", "poster_path": "/rIEOGr9seask1LCssCLvQIwSQXD.jpg", "release_date": "2002-01-01", "title": "Lee Evans: Wired and Wonderful", "video": false, "vote_average": 6.8, "vote_count": 10, "popularity": 1.994}, {"adult": false, "backdrop_path": null, "genre_ids": [99], "id": 490209, "original_language": "en", "original_title": "Motivation 3: The Next Generation", "overview": "Following up on the first two installments about SLS and Chris Cole, The Motivation 3 is coming soon. It will focus on Tampa Am and how that can potentially impact a young skaters career. Starring Dashawn Jordan, Zion Wright, Aurelien Giraud, and Lucas Alves, and directed by Adam Bhala Lough, this is certainly not to be missed.", "poster_path": "/bYUVnXfisyhXZ4V8R7U4pO4r3X8.jpg", "release_date": "2017-09-12", "title": "Motivation 3: The Next Generation", "video": false, "vote_average": 6.2, "vote_count": 6, "popularity": 1.478}, {"adult": false, "backdrop_path": "/jBJIjPOFsQYkkWlezDSUD3jyTfH.jpg", "genre_ids": [99], "id": 169864, "original_language": "en", "original_title": "The Short Game", "overview": "Each year, the world\u2019s best 7 year-old golfers descend on Pinehurst, North Carolina to compete in the World Championships of Junior Golf. The Short Game follows eight of these very young athletes on their quest to become the sport\u2019s next phenom.", "poster_path": "/dGGeogv5IHMJf0QaB2ORyLz6rzi.jpg", "release_date": "2013-09-20", "title": "The Short Game", "video": false, "vote_average": 7.4, "vote_count": 20, "popularity": 4.234}, {"adult": false, "backdrop_path": "/y4awfjWpvFc6YRhM73PvNrhcDZa.jpg", "genre_ids": [35], "id": 21941, "original_language": "en", "original_title": "Lee Evans: XL Tour Live 2005", "overview": "Comedy antics of Lee Evans on his live stand-up tour in Cardiff, Wales.", "poster_path": "/x0566DrQ1msFWMnjZnQOoQ5SMdR.jpg", "release_date": "2005-11-28", "title": "Lee Evans: XL Tour Live 2005", "video": false, "vote_average": 7.7, "vote_count": 9, "popularity": 2.543}, {"adult": false, "backdrop_path": null, "genre_ids": [99], "id": 369605, "original_language": "en", "original_title": "Sky Line", "overview": "The concept of an elevator to space is not new. In the world of Arthur C. Clarke, it is a natural progression. What most people don't know is that men and women around the world are working hard to build it right this moment. Some want to solve the energy crisis, some want easier access to raw materials in the solar system, and some just want to travel to space and gaze upon their home planet. For all of them though, the elevator is more than just a science fiction plot, it is a way of life. Discover what happens when egos and passions collide in a quest to build the impossible.", "poster_path": "/kP7OhvYUDg9aHMGvooPvfFe1jJo.jpg", "release_date": "2015-11-20", "title": "Sky Line", "video": false, "vote_average": 6.0, "vote_count": 5, "popularity": 4.008}, {"adult": false, "backdrop_path": "/kTzJ0hAJffey2j7CxUfO4MVJGgP.jpg", "genre_ids": [10402, 99], "id": 324275, "original_language": "en", "original_title": "Hot Sugar's Cold World", "overview": "Nick Koenig, aka Hot Sugar, is in a hot mess. Considered a modern-day Mozart, the young electronic musician/producer records sounds from everyday life\u2014from hanging up payphone receivers to Hurricane Sandy rain\u2014and chops, loops and samples them into Grammy Award\u2013nominated beats. He\u2019s living the life every musician dreams of, complete with an internet-phenom girlfriend, rapper/singer \u201cKitty.\u201d But when she dumps him, Hot Sugar is set adrift. Fleeing to Paris, he tries to regroup, searching for new sounds and a sense of self.  Filmmaker Adam Lough mixes scenes of Hot Sugar at work on his vintage recording devices with surprising soul-searching reflections he offers to the camera. As tweets and posts about the broken couple blow up on the internet, Hot Sugar\u2019s road trip presses onward, revealing even more exotic layers of the man and his music. Fun and flash, this lyrical journey offers audiences a fascinating peek into a modern artist\u2019s creative process.", "poster_path": "/8IURj8sjMeEvpYNput0ViHitt61.jpg", "release_date": "2015-03-13", "title": "Hot Sugar's Cold World", "video": false, "vote_average": 7.5, "vote_count": 6, "popularity": 2.577}, {"adult": false, "backdrop_path": "/pMzCaJ1cZPioaXcHJpPN8s1Dr9q.jpg", "genre_ids": [35], "id": 109460, "original_language": "en", "original_title": "Problem Child: Leslie Jones", "overview": "Comedian Leslie Jones (aka Big Les) showcases her raunchy and hysterically funny stand up in her first ever comedy special.", "poster_path": "/oh4Xmzj2Aag9huvVax1jABxWTXm.jpg", "release_date": "2010-02-02", "title": "Problem Child: Leslie Jones", "video": false, "vote_average": 6.4, "vote_count": 7, "popularity": 3.817}, {"adult": false, "backdrop_path": "/8jXdcDFbBcnOdSsqHF5ePpihKYK.jpg", "genre_ids": [18, 53], "id": 58194, "original_language": "en", "original_title": "White Irish Drinkers", "overview": "A coming of age story set in 1975 working-class Brooklyn, in which two teenage brothers living with their abusive father and their well-meaning but ineffective mother are caught up in a life of petty crime. Older brother Danny concocts a daring scheme to steal enough money for the two to escape, timed around the chaos of an upcoming Rolling Stones concert. The sensitive younger brother, Brian, ultimately has a choice: remain loyal to the brother with whom he shares a powerful love-hate bond, or use his hidden talent as an artist as his own ticket out of their dead-end existence.", "poster_path": "/1J16LtpL9inmGUZsnmKJswO5VEB.jpg", "release_date": "2011-03-25", "title": "White Irish Drinkers", "video": false, "vote_average": 6.2, "vote_count": 16, "popularity": 2.7}], "total_pages": 1, "total_results": 10}, "credits": {"cast": [{"cast_id": 2, "character": "Himself", "credit_id": "559aa27392514109db003862", "gender": 2, "id": 116131, "name": "Ryan Sheckler", "order": 1, "profile_path": "/xYl1caKwtyY84mU8j8dUkmP0TzS.jpg"}, {"cast_id": 3, "character": "Himself", "credit_id": "559aa280c3a3685ee0003f28", "gender": 2, "id": 142589, "name": "Rob Dyrdek", "order": 2, "profile_path": "/cYYCsdMu8IFdaqSIfauzwpcH7mc.jpg"}, {"cast_id": 4, "character": "Himself", "credit_id": "559aa28dc3a3685f1f003b1f", "gender": 2, "id": 1246581, "name": "Paul Rodriguez", "order": 3, "profile_path": "/dV2eP6DTNDpl0mUhlhoZzsd4lO1.jpg"}, {"cast_id": 5, "character": "Himself", "credit_id": "559aa2c0c3a3685f5a003dfc", "gender": 2, "id": 216486, "name": "Chris Cole", "order": 4, "profile_path": "/x0hgzQSsFmOr6r871cyalmtGiCO.jpg"}, {"cast_id": 6, "character": "Himself", "credit_id": "59621e0ec3a368293b0dda0b", "gender": 2, "id": 1498788, "name": "Sean Malto", "order": 5, "profile_path": "/w7aCqLugTu4epgnk1fU8lehmpol.jpg"}], "crew": [{"credit_id": "52fe4d48c3a36847f82589bf", "department": "Directing", "gender": 0, "id": 93019, "job": "Director", "name": "Adam Bhala Lough", "profile_path": null}]}}