{"adult": false, "backdrop_path": "/3SCSxlQyUhQR3cssUwitLaIWQcG.jpg", "belongs_to_collection": null, "budget": 0, "genres": [{"id": 18, "name": "Drama"}, {"id": 80, "name": "Crime"}, {"id": 53, "name": "Thriller"}], "homepage": null, "id": 174383, "imdb_id": "tt0066156", "original_language": "en", "original_title": "No Place to Hide", "overview": "In New York in the late 60s, a politically motivated group of students plans bombings of company offices who do business with dictators in Middle American countries. But when they contact a known terrorist and bombing specialist, the FBI gets on their track.", "popularity": 3.475, "poster_path": "/lFtQtC1Bsec5ZbaYm2xZUaR2Nnv.jpg", "production_companies": [{"id": 16405, "logo_path": null, "name": "Galaxy Films", "origin_country": "IN"}], "production_countries": [{"iso_3166_1": "US", "name": "United States of America"}], "release_date": "1970-12-22", "revenue": 0, "runtime": 80, "spoken_languages": [{"iso_639_1": "en", "name": "English"}], "status": "Released", "tagline": "", "title": "No Place to Hide", "video": false, "vote_average": 4.6, "vote_count": 8, "keywords": {"keywords": [{"id": 1812, "name": "fbi"}, {"id": 2532, "name": "bomber"}, {"id": 10183, "name": "independent film"}, {"id": 13015, "name": "terrorism"}, {"id": 34117, "name": "cult film"}]}, "similar": {"page": 1, "results": [{"adult": false, "backdrop_path": "/9e5e7dJTMxQeF7zNx0CiJmxXE1I.jpg", "genre_ids": [27, 878, 53], "id": 11309, "original_language": "en", "original_title": "Hardware", "overview": "Mark 13 is a government-built killing machine programmed with artificial intelligence, able to repair and recharge itself from any energy source. Through a series of coincidences, the cyborg's head ends up in the home of a sculptress as a bizarre Christmas present from her boyfriend. Once inside its new home, the cyborg promptly reconstructs the rest of its body using a variety of household utensils and proceeds to go on a murderous rampage.", "poster_path": "/nsFm5xniViTVr1oVUpKmgvlAOEA.jpg", "release_date": "1990-09-14", "title": "Hardware", "video": false, "vote_average": 5.7, "vote_count": 145, "popularity": 10.189}, {"adult": false, "backdrop_path": "/ltq1i8ienPm7OSdOXl3o8ROgmKc.jpg", "genre_ids": [28, 80, 18], "id": 2142, "original_language": "en", "original_title": "Cop Land", "overview": "Freddy Heflin is the sheriff of a place everyone calls \u201cCop Land\u201d \u2014 a small and seemingly peaceful town populated by the big city police officers he\u2019s long admired. Yet something ugly is taking place behind the town\u2019s peaceful facade. And when Freddy uncovers a massive, deadly conspiracy among these local residents, he is forced to take action and make a dangerous choice between protecting his idols and upholding the law.", "poster_path": "/th2UDVewgUAfIXFUaWGWWBxCM91.jpg", "release_date": "1997-08-15", "title": "Cop Land", "video": false, "vote_average": 6.7, "vote_count": 757, "popularity": 14.45}, {"id": 185, "video": false, "vote_count": 7610, "vote_average": 8.2, "title": "A Clockwork Orange", "release_date": "1971-12-18", "original_language": "en", "original_title": "A Clockwork Orange", "genre_ids": [18, 878], "backdrop_path": "/unMc1jEyqCnzba976GviSFKGagt.jpg", "adult": false, "overview": "In a near-future Britain, young Alexander DeLarge and his pals get their kicks beating and raping anyone they please. When not destroying the lives of others, Alex swoons to the music of Beethoven. The state, eager to crack down on juvenile crime, gives an incarcerated Alex the option to undergo an invasive procedure that'll rob him of all personal agency. In a time when conscience is a commodity, can Alex change his tune?", "poster_path": "/4sHeTAp65WrSSuc05nRBKddhBxO.jpg", "popularity": 21.362}, {"id": 395834, "video": false, "vote_count": 2754, "vote_average": 7.4, "title": "Wind River", "release_date": "2017-08-03", "original_language": "en", "original_title": "Wind River", "genre_ids": [80, 18, 9648, 53], "backdrop_path": "/6B8e784decj9vtKuNjbl9Fes2aZ.jpg", "adult": false, "overview": "An FBI agent teams with the town's veteran game tracker to investigate a murder that occurred on a Native American reservation.", "poster_path": "/pySivdR845Hom4u4T2WNkJxe6Ad.jpg", "popularity": 21.415}, {"id": 298312, "video": false, "vote_count": 2921, "vote_average": 6.2, "title": "The Visit", "release_date": "2015-09-10", "original_language": "en", "original_title": "The Visit", "genre_ids": [27, 9648, 53], "backdrop_path": "/gbJlEeALVGo7kx8bC2q4EFWX1Xy.jpg", "adult": false, "overview": "The terrifying story of a brother and sister who are sent to their grandparents' remote Pennsylvania farm for a weeklong trip. Once the children discover that the elderly couple is involved in something deeply disturbing, they see their chances of getting back home are growing smaller every day.", "poster_path": "/32tNtTEQ1vIOLm1hEOSFkVwJT5D.jpg", "popularity": 20.148}, {"id": 241, "video": false, "vote_count": 1845, "vote_average": 7.1, "title": "Natural Born Killers", "release_date": "1994-08-25", "original_language": "en", "original_title": "Natural Born Killers", "genre_ids": [80, 18, 53], "backdrop_path": "/l6pleT9BWjOOcFzpL2G1j5ApBTr.jpg", "adult": false, "overview": "Two victims of traumatized childhoods become lovers and psychopathic serial murderers irresponsibly glorified by the mass media.", "poster_path": "/w5sruoTQ87PFAGRJQyyaCOM1C4A.jpg", "popularity": 20.062}, {"adult": false, "backdrop_path": "/fop31RWFi9sVL0xK5hAJGh7Fwkz.jpg", "genre_ids": [18, 80], "id": 261023, "original_language": "en", "original_title": "Black Mass", "overview": "The true story of Whitey Bulger, the brother of a state senator and the most infamous violent criminal in the history of South Boston, who became an FBI informant to take down a Mafia family invading his turf.", "poster_path": "/nSbpuyd2UySuW7kaoXzYUfes1Bl.jpg", "release_date": "2015-09-04", "title": "Black Mass", "video": false, "vote_average": 6.4, "vote_count": 2190, "popularity": 14.581}, {"id": 1632, "video": false, "vote_count": 770, "vote_average": 7.6, "title": "Mississippi Burning", "release_date": "1988-12-08", "original_language": "en", "original_title": "Mississippi Burning", "genre_ids": [80, 18, 53], "backdrop_path": "/4ypwob4uxh0q1osOFq2Wh7zdopT.jpg", "adult": false, "overview": "Two FBI agents investigating the murder of civil rights workers during the 60s seek to breach the conspiracy of silence in a small Southern town where segregation divides black and white. The younger agent trained in FBI school runs up against the small town ways of his partner, a former sheriff.", "poster_path": "/uSukdUQwx0l4rRuMXNqugR1tu4n.jpg", "popularity": 16.862}, {"adult": false, "backdrop_path": "/etybioibi04QJK9xxn3Rv5NLuKs.jpg", "genre_ids": [12, 28, 53, 878], "id": 8810, "original_language": "en", "original_title": "Mad Max 2", "overview": "Max Rockatansky returns as the heroic loner who drives the dusty roads of a postapocalyptic Australian Outback in an unending search for gasoline. Arrayed against him and the other scraggly defendants of a fuel-depot encampment are the bizarre warriors commanded by the charismatic Lord Humungus, a violent leader whose scruples are as barren as the surrounding landscape.", "poster_path": "/tVaClEA7n0MxaY8sb81nHwh6XNW.jpg", "release_date": "1981-12-24", "title": "Mad Max 2", "video": false, "vote_average": 7.4, "vote_count": 1898, "popularity": 19.166}, {"id": 8090, "video": false, "vote_count": 448, "vote_average": 6.1, "title": "Untraceable", "release_date": "2008-01-22", "original_language": "en", "original_title": "Untraceable", "genre_ids": [9648, 53], "backdrop_path": "/eXuIPt9I1xuaVddlgzEQRC2EMnJ.jpg", "adult": false, "overview": "Special Agent Jennifer Marsh (Diane Lane) works in an elite division of the FBI dedicated to fighting cybercrime. She thinks she has seen it all, until a particularly sadistic criminal arises on the Internet. This tech-savvy killer posts live feeds of his crimes on his website; the more hits the site gets, the faster the victim dies. Marsh and her team must find the elusive killer before time runs out.", "poster_path": "/ySUwDRDEn01lKIMPQorpFCMLWqE.jpg", "popularity": 14.431}, {"adult": false, "backdrop_path": "/7QjoyyGdBV32x1sEh64dAnNjwg2.jpg", "genre_ids": [53, 35, 27], "id": 12521, "original_language": "en", "original_title": "Shocker", "overview": "After being sent to the electric chair, a serial killer uses electricity to come back from the dead and carry out his vengeance on the football player who turned him in to the police.", "poster_path": "/xEDmOhNGCKlWlS3mCiqLCVzBXVA.jpg", "release_date": "1989-10-27", "title": "Shocker", "video": false, "vote_average": 5.5, "vote_count": 176, "popularity": 10.495}, {"adult": false, "backdrop_path": "/neSLpxwG5TWNzCPDUIZ9kbl2bOL.jpg", "genre_ids": [18, 53, 80], "id": 4836, "original_language": "en", "original_title": "Layer Cake", "overview": "When a seemingly straight-forward drug deal goes awry, XXXX has to break his die-hard rules and turn up the heat, not only to outwit the old regime and come out on top, but to save his own skin...", "poster_path": "/y6BzUkrx789OhVMDXZiBBVHu6OQ.jpg", "release_date": "2004-09-30", "title": "Layer Cake", "video": false, "vote_average": 7.0, "vote_count": 1028, "popularity": 19.131}, {"id": 9331, "video": false, "vote_count": 730, "vote_average": 6.6, "title": "Clear and Present Danger", "release_date": "1994-08-03", "original_language": "en", "original_title": "Clear and Present Danger", "genre_ids": [28, 18, 53], "backdrop_path": "/dxzko1cqui9Scowo53u6lJuEhug.jpg", "adult": false, "overview": "CIA Analyst Jack Ryan is drawn into an illegal war fought by the US government against a Colombian drug cartel.", "poster_path": "/avRDucB3FLf1Xz5532hbOYd1giX.jpg", "popularity": 18.792}, {"adult": false, "backdrop_path": "/8nvayG5l0urcjvvpszoECDqLWzD.jpg", "genre_ids": [18, 53, 80, 9648], "id": 186, "original_language": "en", "original_title": "Lucky Number Slevin", "overview": "Slevin is mistakenly put in the middle of a personal war between the city\u2019s biggest criminal bosses. Under constant watch, Slevin must try not to get killed by an infamous assassin and come up with an idea of how to get out of his current dilemma. A film with many twists and turns.", "poster_path": "/jtKq0EtothAzWlnRBBWGCA8uFuu.jpg", "release_date": "2006-02-24", "title": "Lucky Number Slevin", "video": false, "vote_average": 7.5, "vote_count": 2480, "popularity": 14.28}, {"adult": false, "backdrop_path": "/kiWvoV78Cc3fUwkOHKzyBgVdrDD.jpg", "genre_ids": [37, 18, 12], "id": 281957, "original_language": "en", "original_title": "The Revenant", "overview": "In the 1820s, a frontiersman, Hugh Glass, sets out on a path of vengeance against those who left him for dead after a bear mauling.", "poster_path": "/oXUWEc5i3wYyFnL1Ycu8ppxxPvs.jpg", "release_date": "2015-12-25", "title": "The Revenant", "video": false, "vote_average": 7.5, "vote_count": 12122, "popularity": 30.491}, {"adult": false, "backdrop_path": "/7RRuRcGuWkZGuRyYugfXn0Fgrrr.jpg", "genre_ids": [28, 80, 18, 53], "id": 949, "original_language": "en", "original_title": "Heat", "overview": "Obsessive master thief, Neil McCauley leads a top-notch crew on various daring heists throughout Los Angeles while determined detective, Vincent Hanna pursues him without rest. Each man recognizes and respects the ability and the dedication of the other even though they are aware their cat-and-mouse game may end in violence.", "poster_path": "/6pmLVffM9jEYK7VqDJqPblMxfEY.jpg", "release_date": "1995-12-15", "title": "Heat", "video": false, "vote_average": 7.8, "vote_count": 3615, "popularity": 21.973}, {"id": 4638, "video": false, "vote_count": 4429, "vote_average": 7.5, "title": "Hot Fuzz", "release_date": "2007-02-14", "original_language": "en", "original_title": "Hot Fuzz", "genre_ids": [28, 35, 80], "backdrop_path": "/zuskekrfW3gj9ttXNVhfdHe5n22.jpg", "adult": false, "overview": "As a former London constable, Nicholas Angel finds it difficult to adapt to his new assignment in the sleepy British village of Sandford. Not only does he miss the excitement of the big city, but he also has a well-meaning oaf for a partner. However, when a series of grisly accidents rocks Sandford, Angel smells something rotten in the idyllic village.", "poster_path": "/5Jx6s6VXnunh8wCLgR0YgjwSgjh.jpg", "popularity": 22.387}, {"adult": false, "backdrop_path": "/sDiGcjWhSu42dCw0jQmBInAkDZ9.jpg", "genre_ids": [28, 53], "id": 379149, "original_language": "en", "original_title": "The Foreigner", "overview": "Quan is a humble London businessman whose long-buried past erupts in a revenge-fueled vendetta when the only person left for him to love \u2013 his teenage daughter \u2013 dies in a senseless act of politically-motivated terrorism. His relentless search to find the terrorists leads to a cat-and-mouse conflict with a British government official whose own past may hold the clues to the identities of the elusive killers.", "poster_path": "/rwM4hzrmc5HiWfQD9ls9DL4QgGl.jpg", "release_date": "2017-09-28", "title": "The Foreigner", "video": false, "vote_average": 6.7, "vote_count": 1247, "popularity": 20.765}, {"adult": false, "backdrop_path": "/zWGAnbxjjwY3xFGuOeR26LGbBlG.jpg", "genre_ids": [27, 53], "id": 238636, "original_language": "en", "original_title": "The Purge: Anarchy", "overview": "One night per year, the government sanctions a 12-hour period in which citizens can commit any crime they wish -- including murder -- without fear of punishment or imprisonment. Leo, a sergeant who lost his son, plans a vigilante mission of revenge during the mayhem. However, instead of a death-dealing avenger, he becomes the unexpected protector of four innocent strangers who desperately need his help if they are to survive the night.", "poster_path": "/l1DRl40x2OWUoPP42v8fjKdS1Z3.jpg", "release_date": "2014-07-17", "title": "The Purge: Anarchy", "video": false, "vote_average": 6.6, "vote_count": 4141, "popularity": 32.533}, {"id": 273481, "video": false, "vote_count": 4907, "vote_average": 7.3, "title": "Sicario", "release_date": "2015-09-17", "original_language": "en", "original_title": "Sicario", "genre_ids": [28, 80, 53], "backdrop_path": "/zAHozevwbbsB2epEVpCkzqVccWW.jpg", "adult": false, "overview": "An idealistic FBI agent is enlisted by a government task force to aid in the escalating war against drugs at the border area between the U.S. and Mexico.", "poster_path": "/p2SdfGmQRaw8xhFbexlHL7srMM8.jpg", "popularity": 29.022}], "total_pages": 414, "total_results": 8278}, "recommendations": {"page": 1, "results": [{"id": 30525, "video": false, "vote_count": 3, "vote_average": 2.3, "title": "Future Fear", "release_date": "1997-12-01", "original_language": "en", "original_title": "Future Fear", "genre_ids": [28, 878], "backdrop_path": "/hUeDcap54Lg8vVBOs3TFi4EQfZM.jpg", "adult": false, "overview": "An able-bodied scientist has found a cure for the plague from outer space which has eradicated almost all life on the planet. A mad general who wants to repopulate the planet with a new race sends a special female assassin to take him out.", "poster_path": "/ik1UEPEffZV0aRGskZid7j5iZZN.jpg", "popularity": 3.816}], "total_pages": 1, "total_results": 1}, "credits": {"cast": [{"cast_id": 1, "character": "Jerry Savage", "credit_id": "52fe4d4ac3a36847f8259193", "gender": 2, "id": 16483, "name": "Sylvester Stallone", "order": 0, "profile_path": "/gnmwOa46C2TP35N7ARSzboTdx2u.jpg"}, {"cast_id": 2, "character": "James Henderson", "credit_id": "533d62a0c3a36878fb003106", "gender": 2, "id": 16506, "name": "Henry G. Sanders", "order": 1, "profile_path": "/2SU75g2CAIzGWbgfIlNvKZQhYTZ.jpg"}, {"cast_id": 3, "character": "Tommy Trafler", "credit_id": "533d62b2c3a36879120030f5", "gender": 2, "id": 1095032, "name": "Tony Page", "order": 2, "profile_path": null}, {"cast_id": 4, "character": "Laurie Fisher", "credit_id": "533d62c0c3a36878e600316e", "gender": 0, "id": 1306724, "name": "Rebecca Grimes", "order": 3, "profile_path": null}, {"cast_id": 5, "character": "Estelle Ferguson", "credit_id": "533d62cbc3a36878e6003174", "gender": 0, "id": 1306725, "name": "Vickie Lancaster", "order": 4, "profile_path": null}, {"cast_id": 6, "character": "Ray Brown", "credit_id": "533d62d6c3a36878f4003148", "gender": 2, "id": 1055617, "name": "Dennis Tate", "order": 5, "profile_path": null}, {"cast_id": 7, "character": "Marlena St. James", "credit_id": "533d62efc3a36878fb003112", "gender": 0, "id": 1306726, "name": "Barbara Lee Govan", "order": 6, "profile_path": null}, {"cast_id": 8, "character": "William Decker", "credit_id": "533d62fcc3a36879120030fd", "gender": 2, "id": 978012, "name": "Roy White", "order": 7, "profile_path": null}, {"cast_id": 9, "character": "Chuck Bradley", "credit_id": "533d630bc3a3687912003101", "gender": 0, "id": 1219275, "name": "Jed Mills", "order": 8, "profile_path": "/g3ezU4evH6AmnrvhTrwjgOhqFYt.jpg"}, {"cast_id": 10, "character": "Richard Scott", "credit_id": "533d6317c3a368791b003155", "gender": 0, "id": 596917, "name": "David Orange", "order": 9, "profile_path": null}, {"cast_id": 11, "character": "Warehouse attendant", "credit_id": "533d6326c3a36879030032bc", "gender": 0, "id": 1024558, "name": "Joe Kottler", "order": 10, "profile_path": null}, {"cast_id": 12, "character": "Dance teacher", "credit_id": "533d6332c3a368791b003159", "gender": 0, "id": 1306727, "name": "Linda Adana", "order": 11, "profile_path": null}, {"cast_id": 13, "character": "Dance student", "credit_id": "533d633dc3a36878ed003234", "gender": 0, "id": 1306728, "name": "Laura Giammarco", "order": 12, "profile_path": null}, {"cast_id": 14, "character": "Dance student", "credit_id": "533d6348c3a36878e600317d", "gender": 0, "id": 1306729, "name": "Lillian Baley", "order": 13, "profile_path": null}, {"cast_id": 15, "character": "Dance student", "credit_id": "533d6352c3a36878fb003122", "gender": 0, "id": 1306730, "name": "Susan Glassman", "order": 14, "profile_path": null}, {"cast_id": 27, "character": "Dance Student (as Susan Mann)", "credit_id": "58fc5417c3a36879f401a54c", "gender": 1, "id": 1790822, "name": "Suzy Mann", "order": 15, "profile_path": null}, {"cast_id": 28, "character": "Customer", "credit_id": "58fc5422c3a36879db01e15e", "gender": 1, "id": 98374, "name": "Marlene Willoughby", "order": 16, "profile_path": "/nXK4m7DqzJtDZpJqmzYdBZkiH6g.jpg"}], "crew": [{"credit_id": "533d6569c3a368790b00303a", "department": "Writing", "gender": 2, "id": 8247, "job": "Writer", "name": "Larry Beinhart", "profile_path": null}, {"credit_id": "5486d428c3a3681cfd0018fa", "department": "Editing", "gender": 0, "id": 42631, "job": "Editor", "name": "LaReine Johnston", "profile_path": null}, {"credit_id": "533d655ec3a36878ed00326f", "department": "Directing", "gender": 0, "id": 1110543, "job": "Director", "name": "Robert Allen Schnitzer", "profile_path": null}, {"credit_id": "5486d3cf9251417609001537", "department": "Production", "gender": 0, "id": 1110543, "job": "Producer", "name": "Robert Allen Schnitzer", "profile_path": null}, {"credit_id": "5486d38d925141760f0014a8", "department": "Writing", "gender": 0, "id": 1110543, "job": "Writer", "name": "Robert Allen Schnitzer", "profile_path": null}, {"credit_id": "5486d3ae92514175fc00140b", "department": "Crew", "gender": 0, "id": 1223371, "job": "Additional Dialogue", "name": "Louis Pastore", "profile_path": null}, {"credit_id": "5486d3e89251417606001418", "department": "Production", "gender": 0, "id": 1396837, "job": "Producer", "name": "David Appleton", "profile_path": null}, {"credit_id": "5486d3ff9251417606001420", "department": "Sound", "gender": 0, "id": 1396838, "job": "Music", "name": "Joseph Delacorte", "profile_path": null}, {"credit_id": "5486d415c3a3681cfd0018f0", "department": "Crew", "gender": 0, "id": 1396839, "job": "Cinematography", "name": "Marty Knopf", "profile_path": null}, {"credit_id": "5486d446c3a3681cf6001777", "department": "Sound", "gender": 0, "id": 1396840, "job": "Sound Re-Recording Mixer", "name": "Felipe Borrero", "profile_path": null}]}}