{"adult": false, "backdrop_path": null, "belongs_to_collection": null, "budget": 0, "genres": [{"id": 18, "name": "Drama"}], "homepage": null, "id": 174895, "imdb_id": "tt0497639", "original_language": "ru", "original_title": "\u041c\u043e\u043b\u0447\u0438, \u0433\u0440\u0443\u0441\u0442\u044c... \u043c\u043e\u043b\u0447\u0438", "overview": "Paula is a circus performer married to the alcoholic clown-acrobat Lorio. Lorio's heavy drinking leads to him being severely injured during a performance. This forces Paula and the now-crippled Lorio to become street musicians. This film formerly ran to 81 minutes \u2013 regrettably, the second half is considered lost.", "popularity": 0.931, "poster_path": "/cKZgclzQ2KB0qPhAi9xH3fgzMtC.jpg", "production_companies": [], "production_countries": [{"iso_3166_1": "RU", "name": "Russia"}], "release_date": "1918-05-14", "revenue": 0, "runtime": 45, "spoken_languages": [], "status": "Released", "tagline": "", "title": "Be Silent, Sorrow, Be Silent", "video": false, "vote_average": 5.7, "vote_count": 3, "keywords": {"keywords": [{"id": 215678, "name": "partially lost film"}]}, "similar": {"page": 1, "results": [{"id": 901, "video": false, "vote_count": 1026, "vote_average": 8.4, "title": "City Lights", "release_date": "1931-02-01", "original_language": "xx", "original_title": "City Lights", "genre_ids": [35, 18, 10749], "backdrop_path": "/vT6ux2rdyg2kexuLisO5Ygz7pHg.jpg", "adult": false, "overview": "City Lights is the first silent film that Charlie Chaplin directed after he established himself with sound accompanied films. The film is about a penniless man who falls in love with a flower girl.", "poster_path": "/bXNvzjULc9jrOVhGfjcc64uKZmZ.jpg", "popularity": 14.645}, {"adult": false, "backdrop_path": "/tr6OExnBfjLADi9OyZoW308mPAp.jpg", "genre_ids": [18, 35, 10749], "id": 74643, "original_language": "en", "original_title": "The Artist", "overview": "Hollywood, 1927: As silent movie star George Valentin wonders if the arrival of talking pictures will cause him to fade into oblivion, he sparks with Peppy Miller, a young dancer set for a big break.", "poster_path": "/i0mpvMIIjyubXsVKug9vX0lYpnd.jpg", "release_date": "2011-06-26", "title": "The Artist", "video": false, "vote_average": 7.4, "vote_count": 1977, "popularity": 10.661}, {"id": 19, "video": false, "vote_count": 1340, "vote_average": 8.2, "title": "Metropolis", "release_date": "1927-01-10", "original_language": "de", "original_title": "Metropolis", "genre_ids": [18, 878], "backdrop_path": "/gmH0N0bdlYGN1EUr8U2cMQYyg78.jpg", "adult": false, "overview": "In a futuristic city sharply divided between the working class and the city planners, the son of the city's mastermind falls in love with a working class prophet who predicts the coming of a savior to mediate their differences.", "poster_path": "/qriaeUUwdmlgethK3aSAx68mG05.jpg", "popularity": 20.587}, {"adult": false, "backdrop_path": "/wcT7srQ4GeeMqlszMFEtPZ7v8T7.jpg", "genre_ids": [35, 10749], "id": 28978, "original_language": "en", "original_title": "The Circus", "overview": "Charlie, a wandering tramp, becomes a circus handyman and falls in love with the circus owner's daughter. Unaware of Charlie's affection, the girl falls in love with a handsome young performer. Charlie's versatility makes him star of the show when he substitutes for an ailing tightwire walker. He is discharged from the company when he protects the girl from her father's abuse, but he returns and appeals to the handsome performer to marry the girl. After the wedding the father prevails upon them to rejoin the circus. Charlie is hired again, but he stays behind when the caravan moves on.", "poster_path": "/awTf4Y6TGvgi3VYtGNINyyJJy9Q.jpg", "release_date": "1928-01-06", "title": "The Circus", "video": false, "vote_average": 8.2, "vote_count": 330, "popularity": 12.839}, {"id": 3059, "video": false, "vote_count": 141, "vote_average": 7.4, "title": "Intolerance: Love's Struggle Throughout the Ages", "release_date": "1916-09-04", "original_language": "en", "original_title": "Intolerance: Love's Struggle Throughout the Ages", "genre_ids": [18], "backdrop_path": "/9XksyoSydGAiMjDx7bVp0JdPsIl.jpg", "adult": false, "overview": "The story of a poor young woman, separated by prejudice from her husband and baby, is interwoven with tales of intolerance from throughout history.", "poster_path": "/mnjifw19X094HvG80CN7nyMSRsD.jpg", "popularity": 9.721}, {"adult": false, "backdrop_path": "/wEo4UtBAWdB4aOmQ9wRjI1aS7Dt.jpg", "genre_ids": [35, 18], "id": 10098, "original_language": "en", "original_title": "The Kid", "overview": "A tramp cares for a boy after he's abandoned as a newborn by his mother. Later the mother has a change of heart and aches to be reunited with her son.", "poster_path": "/drgMcyTsySQBnUPGaBThCHGdlWT.jpg", "release_date": "1921-02-06", "title": "The Kid", "video": false, "vote_average": 8.3, "vote_count": 976, "popularity": 16.845}, {"adult": false, "backdrop_path": "/zc5vjonSbXUUazuQSi0R2bUfWNP.jpg", "genre_ids": [18], "id": 1405, "original_language": "en", "original_title": "Greed", "overview": "A lottery win of $5,000 forever changes the lives of a miner turned dentist and his wife.", "poster_path": "/eur2vc2BGiOocBuBLVPXySO7lRh.jpg", "release_date": "1925-01-26", "title": "Greed", "video": false, "vote_average": 7.6, "vote_count": 71, "popularity": 7.117}, {"id": 20532, "video": false, "vote_count": 145, "vote_average": 8.4, "title": "Sansho the Bailiff", "release_date": "1954-03-31", "original_language": "ja", "original_title": "\u5c71\u6912\u5927\u592b", "genre_ids": [18], "backdrop_path": "/d0IwJw1p2H0WYhk1iCwVNygpsUs.jpg", "adult": false, "overview": "In medieval Japan a compassionate governor is sent into exile. His wife and children try to join him, but are separated, and the children grow up amid suffering and oppression.", "poster_path": "/deBjt3LT3UQHRXiNX1fu28lAtK6.jpg", "popularity": 11.358}, {"id": 653, "video": false, "vote_count": 906, "vote_average": 7.7, "title": "Nosferatu", "release_date": "1922-02-17", "original_language": "de", "original_title": "Nosferatu, eine Symphonie des Grauens", "genre_ids": [18, 14, 27], "backdrop_path": "/B4SauS3u6akDAzufZsauFHTBwz.jpg", "adult": false, "overview": "Vampire Count Orlok is interested in a new residence and in his real estate agent\u2019s young wife. F.\u202fW. Murnau\u2019s unauthorized adaptation of Bram Stoker\u2019s \u201cDracula.\u201d", "poster_path": "/cD61HX8e80CtzHIq4BFGFg5TR0A.jpg", "popularity": 12.31}, {"id": 643, "video": false, "vote_count": 539, "vote_average": 7.6, "title": "Battleship Potemkin", "release_date": "1925-12-21", "original_language": "ru", "original_title": "\u0411\u0440\u043e\u043d\u0435\u043d\u043e\u0441\u0435\u0446 \u041f\u043e\u0442\u0451\u043c\u043a\u0438\u043d", "genre_ids": [18, 36], "backdrop_path": "/nS2tyCL7unTVhNJBFgBdg2Ii5Yr.jpg", "adult": false, "overview": "A dramatized account of a great Russian naval mutiny and a resultant public demonstration, showing support, which brought on a police massacre. The film had an incredible impact on the development of cinema and is a masterful example of montage editing.", "poster_path": "/tjnaRiHUsxBADaOwrQpnTnjHVwi.jpg", "popularity": 16.078}, {"adult": false, "backdrop_path": "/mToLBtYmXqt2dJv1FCPrHGRAhGo.jpg", "genre_ids": [18], "id": 293673, "original_language": "en", "original_title": "True As Steel", "overview": "Successful middle-aged manufacturer Frank Parry takes a business trip to New York, where he becomes infatuated with Eva Boutelle, manager of the Swansea Cotton Mills. For a time, their affair develops, but Eva remains true to her husband ...", "poster_path": "/nF4KAzgdYF6B6swlSKGIFUt00UR.jpg", "release_date": "1924-04-20", "title": "True As Steel", "video": false, "vote_average": 0.0, "vote_count": 0, "popularity": 0.84}, {"id": 234, "video": false, "vote_count": 652, "vote_average": 7.9, "title": "The Cabinet of Dr. Caligari", "release_date": "1920-02-25", "original_language": "de", "original_title": "Das Cabinet des Dr. Caligari", "genre_ids": [80, 18, 27, 53], "backdrop_path": "/6Xt1Iq0sct6LQcGF4WA5I4VqQmP.jpg", "adult": false, "overview": "Francis, a young man, recalls in his memory the horrible experiences he and his fianc\u00e9e Jane recently went through. It is the annual fair in Holstenwall. Francis and his friend Alan visit The Cabinet of Dr. Caligari, an exhibit where the mysterious doctor shows the somnambulist Cesare, and awakens him for some moments from his death-like sleep. When Alan asks Cesare about his future, Cesare answers that he will die before dawn. The next morning Alan is found dead. Francis suspects Cesare of being the murderer, and starts spying on him and Dr. Caligari.", "poster_path": "/myK9DeIsXWGKgUTZyGXg2IfFk0W.jpg", "popularity": 12.337}, {"id": 26317, "video": false, "vote_count": 283, "vote_average": 8.0, "title": "Man with a Movie Camera", "release_date": "1929-01-08", "original_language": "ru", "original_title": "\u0427\u0435\u043b\u043e\u0432\u0435\u043a \u0441 \u043a\u0438\u043d\u043e\u0430\u043f\u043f\u0430\u0440\u0430\u0442\u043e\u043c", "genre_ids": [99], "backdrop_path": "/8mg8GZePag5LZVhveBTL92Ufh5W.jpg", "adult": false, "overview": "A cameraman wanders around Moscow, Kharkov, Kiev and Odessa with a camera slung over his shoulder, documenting urban life with dazzling invention.", "poster_path": "/Ded5Kl7MDZQTbFpoNI62tLVWUN.jpg", "popularity": 9.16}, {"adult": false, "backdrop_path": "/dmtvvDJPBLLkjHgA4Oj7WBa27s2.jpg", "genre_ids": [12, 28, 35], "id": 961, "original_language": "en", "original_title": "The General", "overview": "During America\u2019s Civil War Union spies steal engineer Johnnie Gray's beloved locomotive The General - his lady love, Annabelle Lee, aboard an attached boxcar - and he single-handedly must do all in his power to both get The General back and to rescue Annabelle. Released throughout most of the world in 1927, this Silent comedy-action film flopped when originally released, but now is regarded as one of the great American motion pictures. The story is based on actual historic events.", "poster_path": "/hjK9y09NjHOqAaz6PfOmzxU1qCT.jpg", "release_date": "1926-12-31", "title": "The General", "video": false, "vote_average": 8.1, "vote_count": 525, "popularity": 15.565}, {"id": 992, "video": false, "vote_count": 362, "vote_average": 8.2, "title": "Sherlock, Jr.", "release_date": "1924-04-19", "original_language": "en", "original_title": "Sherlock, Jr.", "genre_ids": [28, 35, 9648], "backdrop_path": "/l3RiIjaN1peXQ2lAwnpF33Xb5R0.jpg", "adult": false, "overview": "A film projectionist longs to be a detective, and puts his meagre skills to work when he is framed by a rival for stealing his girlfriend's father's pocketwatch.", "poster_path": "/1G9r3rqtbFAQuyWKOZm4Y5J5s7Q.jpg", "popularity": 12.82}, {"id": 8583, "video": false, "vote_count": 105, "vote_average": 7.1, "title": "Dangerous Beauty", "release_date": "1998-02-20", "original_language": "en", "original_title": "Dangerous Beauty", "genre_ids": [18, 10749], "backdrop_path": "/52bqRYbzzV32SnYcxmJUILbbv6L.jpg", "adult": false, "overview": "Veronica is brilliant, gifted and beautiful, but the handsome aristocrat she loves, Marco Venier, cannot marry her because she is penniless and of questionable family. So Veronica's mother, Paola, teaches her to become a courtesan, one of the exotic companions favored by the richest and most powerful Venetian men. Veronica courageously uses her charms to change destiny -- and to give herself a chance at true love.", "poster_path": "/vSGDmTsjaD2yZrS73nUJ4ikPqjQ.jpg", "popularity": 9.725}, {"adult": false, "backdrop_path": "/2CR4OT6Ou4axUfThbJ6sbnMGWWm.jpg", "genre_ids": [12, 14, 878], "id": 775, "original_language": "fr", "original_title": "Le Voyage dans la Lune", "overview": "Professor Barbenfouillis and five of his colleagues from the Academy of Astronomy travel to the Moon aboard a rocket propelled by a giant cannon. Once on the lunar surface, the bold explorers face the many perils hidden in the caves of the mysterious satellite.", "poster_path": "/zztHYAfSecYuaDyIjQudjKaOLLY.jpg", "release_date": "1902-09-01", "title": "A Trip to the Moon", "video": false, "vote_average": 8.0, "vote_count": 822, "popularity": 12.649}, {"id": 5698, "video": false, "vote_count": 268, "vote_average": 7.1, "title": "The Great Train Robbery", "release_date": "1903-12-01", "original_language": "en", "original_title": "The Great Train Robbery", "genre_ids": [28, 12, 80, 37], "backdrop_path": "/9GO8h44nckngDtdJ6R1QfIsl43j.jpg", "adult": false, "overview": "The clerk at the train station is assaulted and left tied by four men, then they rob the train threatening the operator. (They) take all the money and shoot a passenger when trying to run away. A little girl discovers the clerk tied and gives notice to the sheriff, who at once goes along with his men hunting the bandits.", "poster_path": "/uf7Hr1wuUh4T83Ifg5pVpwTqRdI.jpg", "popularity": 11.231}, {"id": 780, "video": false, "vote_count": 397, "vote_average": 8.2, "title": "The Passion of Joan of Arc", "release_date": "1928-04-21", "original_language": "fr", "original_title": "La passion de Jeanne d'Arc", "genre_ids": [18, 36], "backdrop_path": "/hZuYH68nGqqUKZlOnxb8zjeR92U.jpg", "adult": false, "overview": "A classic of the silent age, this film tells the story of the doomed but ultimately canonized 15th-century teenage warrior. On trial for claiming she'd spoken to God, Jeanne d'Arc is subjected to inhumane treatment and scare tactics at the hands of church court officials. Initially bullied into changing her story, Jeanne eventually opts for what she sees as the truth. Her punishment, a famously brutal execution, earns her perpetual martyrdom.", "poster_path": "/5HL0dEJfd7PF0eRiKz8BiNfe8Tf.jpg", "popularity": 18.485}, {"id": 669, "video": false, "vote_count": 123, "vote_average": 7.1, "title": "Nanook of the North", "release_date": "1922-06-11", "original_language": "en", "original_title": "Nanook of the North", "genre_ids": [99], "backdrop_path": "/f8wJyERoBQgmptrue3xhMkC1Mjq.jpg", "adult": false, "overview": "This pioneering documentary film depicts the lives of the indigenous Inuit people of Canada's northern Quebec region. Although the production contains some fictional elements, it vividly shows how its resourceful subjects survive in such a harsh climate, revealing how they construct their igloo homes and find food by hunting and fishing. The film also captures the beautiful, if unforgiving, frozen landscape of the Great White North, far removed from conventional civilization.", "poster_path": "/aWmdeyP4rvOlQZCdjLCpJfJnHVT.jpg", "popularity": 8.419}], "total_pages": 175, "total_results": 3487}, "recommendations": {"page": 1, "results": [], "total_pages": 1, "total_results": 0}, "credits": {"cast": [{"cast_id": 3, "character": "Paula, Lorio's partner", "credit_id": "53da68b30e0a2652dc002636", "gender": 1, "id": 1210599, "name": "Vera Kholodnaya", "order": 1, "profile_path": "/uukpJDjxA77IFZKPnGE1J6fpNqG.jpg"}, {"cast_id": 4, "character": "Lorio, Musik-Clown", "credit_id": "53da68bd0e0a2652df0027b3", "gender": 2, "id": 1157257, "name": "Pyotr Chardynin", "order": 2, "profile_path": "/vSUJ9VBsBrv4xSSDnWcYHfw5Dwp.jpg"}, {"cast_id": 5, "character": "Olekso Presvich, a hypnotist and illusionist", "credit_id": "53da68c40e0a2652dc00263c", "gender": 0, "id": 1348116, "name": "Konstantin Khokhlov", "order": 3, "profile_path": "/rB1zIA5BoHmzLkuSNZJn53h6r6e.jpg"}, {"cast_id": 6, "character": "Prakhov, a merchant", "credit_id": "5cec4e9f0e0a26114ccb83df", "gender": 0, "id": 1269850, "name": "Ivan Khudoleyev", "order": 4, "profile_path": "/fDDAk8oHc5pH4K0giyc13ElweM2.jpg"}, {"cast_id": 7, "character": "Volyntsev, an artist", "credit_id": "5cec4eac925141669ebd1ee1", "gender": 2, "id": 1344535, "name": "Vladimir Maksimov", "order": 5, "profile_path": "/2QSxZbkNZTkTBF3rZb1T27d2HTX.jpg"}, {"cast_id": 8, "character": "A lady of the demi-monde", "credit_id": "5cec4f4a0e0a26114ccb84a5", "gender": 0, "id": 2323028, "name": "Yanina Mirato", "order": 6, "profile_path": null}, {"cast_id": 9, "character": "Telepnev, a rich gentleman", "credit_id": "5cec4f650e0a264090c9cb22", "gender": 2, "id": 1230281, "name": "Vitold Polonsky", "order": 7, "profile_path": "/60peE1ACjrV6uHv5FuA5tdrpIkl.jpg"}, {"cast_id": 10, "character": "Volyntsev's mother", "credit_id": "5cec4f700e0a261bbbd027bc", "gender": 1, "id": 1157329, "name": "Olga Rakhmanova", "order": 8, "profile_path": "/2mX5SqGSgZB00c4TNPjLPj5he8z.jpg"}, {"cast_id": 11, "character": "Zaritskii, a barrister", "credit_id": "5cec4f7d0e0a26114ccb84e2", "gender": 2, "id": 35417, "name": "Ossip Runitsch", "order": 9, "profile_path": "/o6xO7o0McHckHIWiTWq3pUv1Uy4.jpg"}], "crew": [{"credit_id": "52fe4d54c3a36847f825b359", "department": "Directing", "gender": 2, "id": 1157257, "job": "Director", "name": "Pyotr Chardynin", "profile_path": "/vSUJ9VBsBrv4xSSDnWcYHfw5Dwp.jpg"}, {"credit_id": "5cec4f9fc3a36838131df956", "department": "Directing", "gender": 2, "id": 1157569, "job": "Director", "name": "Vyacheslav Viskovsky", "profile_path": "/nQnoYMwMUvI7XEjuVuEaX4yuWGE.jpg"}, {"credit_id": "52fe4d54c3a36847f825b35f", "department": "Directing", "gender": 2, "id": 1157573, "job": "Director", "name": "Cheslav Sabinsky", "profile_path": null}, {"credit_id": "5cec4fae0e0a263f4ac9c835", "department": "Crew", "gender": 0, "id": 1171513, "job": "Cinematography", "name": "Vladimir Siversen", "profile_path": null}, {"credit_id": "5cec4fbac3a36824971e0c2e", "department": "Art", "gender": 0, "id": 1540580, "job": "Art Direction", "name": "Aleksei Utkin", "profile_path": null}]}}