{"adult": false, "backdrop_path": "/3TNbh7ax7oj2OjsHtJNPj7c7d8b.jpg", "belongs_to_collection": null, "budget": 0, "genres": [{"id": 35, "name": "Comedy"}, {"id": 18, "name": "Drama"}], "homepage": null, "id": 175606, "imdb_id": "tt2434800", "original_language": "fr", "original_title": "Les Coquillettes", "overview": "Three female friends recall their misadventures (more sexual than cinematical) attending the Locarno Film Festival.", "popularity": 1.032, "poster_path": "/oEHXfp15IZXsm4hAphnWJWudn7o.jpg", "production_companies": [{"id": 7128, "logo_path": null, "name": "Ecce Films", "origin_country": ""}], "production_countries": [{"iso_3166_1": "FR", "name": "France"}], "release_date": "2013-03-20", "revenue": 0, "runtime": 75, "spoken_languages": [{"iso_639_1": "fr", "name": "Fran\u00e7ais"}], "status": "Released", "tagline": "", "title": "Les Coquillettes", "video": false, "vote_average": 4.4, "vote_count": 10, "keywords": {"keywords": [{"id": 187056, "name": "woman director"}]}, "similar": {"page": 1, "results": [{"adult": false, "backdrop_path": "/cADbqsIoiDW7X3Myg9nz8eAuno5.jpg", "genre_ids": [18, 10749], "id": 10818, "original_language": "fr", "original_title": "Naissance des pieuvres", "overview": "Set during a sultry summer in a French suburb, Marie is desperate to join the local pool's synchronized swimming team, but is her interest solely for the sake of sport or for a chance to get close to Floriane, the bad girl of the team? Sciamma, and the two leads, capture the uncertainty of teenage sexuality with a sympathetic eye in this delicate drama of the angst of coming-of-age.", "poster_path": "/4jajELYrR4Xmv3CVoKnukRnALa2.jpg", "release_date": "2007-05-17", "title": "Water Lilies", "video": false, "vote_average": 6.1, "vote_count": 119, "popularity": 9.614}, {"adult": false, "backdrop_path": "/gZeJziVigmRqbkEZwKAtSqlLQ6s.jpg", "genre_ids": [18, 10749], "id": 370663, "original_language": "en", "original_title": "Below Her Mouth", "overview": "An unexpected affair quickly escalates into a heart-stopping reality for two women whose passionate connection changes their lives forever.", "poster_path": "/nTGbq37hYLuNy7YgMg0gVLma0NS.jpg", "release_date": "2016-09-10", "title": "Below Her Mouth", "video": false, "vote_average": 6.2, "vote_count": 456, "popularity": 22.676}, {"adult": false, "backdrop_path": "/dvQDRfv3qvfHNnVAR57ouVsuErf.jpg", "genre_ids": [10749, 18], "id": 28031, "original_language": "en", "original_title": "If These Walls Could Talk 2", "overview": "The stories of three lesbian couples -- who live in the same house at different periods of time -- who are at a crossroads in their lives. In 1961, Edith loses her lover, Abby, to a stroke. Linda and Amy struggle with feminist issues in 1972. And, in 2000, Kal and Fran try to have a baby with the help of sperm donor.", "poster_path": "/xs7ODbmYQXCDhvXNvz5tF17T59H.jpg", "release_date": "2000-03-05", "title": "If These Walls Could Talk 2", "video": false, "vote_average": 7.1, "vote_count": 55, "popularity": 8.86}, {"adult": false, "backdrop_path": "/knczzNAjBXzSYkeWxoT1u9VNmjR.jpg", "genre_ids": [10749, 18], "id": 258480, "original_language": "en", "original_title": "Carol", "overview": "In 1950s New York, a department-store clerk who dreams of a better life falls for an older, married woman.", "poster_path": "/AbKa7ANxmui0Jmhh7gV7OSELKIL.jpg", "release_date": "2015-11-20", "title": "Carol", "video": false, "vote_average": 7.4, "vote_count": 2184, "popularity": 13.539}, {"adult": false, "backdrop_path": "/fZ8oFcREAr6wgWcXISGql0xyxjB.jpg", "genre_ids": [35, 18], "id": 39781, "original_language": "en", "original_title": "The Kids Are All Right", "overview": "Two women, Nic and Jules, brought a son and daughter into the world through artificial insemination. When one of their children reaches age, both kids go behind their mothers' backs to meet with the donor. Life becomes so much more interesting when the father, two mothers and children start to become attached to each other.", "poster_path": "/fPDeK4MmoGfi2X0oWZev7LrbMqM.jpg", "release_date": "2010-07-09", "title": "The Kids Are All Right", "video": false, "vote_average": 6.6, "vote_count": 923, "popularity": 12.159}, {"adult": false, "backdrop_path": "/rf6G51j0SZL0tP57I8gnqHTRFEr.jpg", "genre_ids": [35, 18, 10749], "id": 273153, "original_language": "fr", "original_title": "La belle saison", "overview": "In 1971, Carole and Delphine meet and fall in love in Paris. When Carole follows Delphine back to her family farm in Limousin, the two find lesbianism and feminism are not as easy in the countryside.", "poster_path": "/evvAkNMO5VJiy5qIo1Hu7fUfvVI.jpg", "release_date": "2015-08-19", "title": "Summertime", "video": false, "vote_average": 6.6, "vote_count": 162, "popularity": 11.575}, {"adult": false, "backdrop_path": "/s12HEmmkJfI2mjltI61hGm5kubD.jpg", "genre_ids": [35, 18, 10749], "id": 20770, "original_language": "en", "original_title": "But I'm a Cheerleader", "overview": "Megan is an all-American girl. A cheerleader. She has a boyfriend. But Megan doesn't like kissing her boyfriend very much. And she's pretty touchy with her cheerleader friends. Her conservative parents worry that she must be a lesbian and send her off to \"sexual redirection\" school, where she must, with other lesbians and gays learn how to be straight.", "poster_path": "/eDGH7CHSdkrYcuUJV1e0WS9DlQL.jpg", "release_date": "1999-12-09", "title": "But I'm a Cheerleader", "video": false, "vote_average": 6.8, "vote_count": 246, "popularity": 9.011}, {"id": 9813, "video": false, "vote_count": 128, "vote_average": 6.1, "title": "The Quiet", "release_date": "2005-09-12", "original_language": "en", "original_title": "The Quiet", "genre_ids": [18, 53], "backdrop_path": "/6eyWAZA4CEidZW1xXnQ4vlYBXTP.jpg", "adult": false, "overview": "After her widowed father dies, deaf teenager Dot moves in with her godparents, Olivia and Paul Deer. The Deers' daughter, Nina, is openly hostile to Dot, but that does not prevent her from telling her secrets to her silent stepsister, including the fact that she wants to kill her lecherous father.", "poster_path": "/GEqIE9YlmygHVUfS64LW2cwAAM.jpg", "popularity": 14.844}, {"adult": false, "backdrop_path": "/g3LYarEY9LjB28Ct2trwFN72gqZ.jpg", "genre_ids": [35], "id": 437557, "original_language": "en", "original_title": "Blockers", "overview": "When three parents discover their daughters\u2019 pact to lose their virginity at prom, they launch a covert one-night operation to stop the teens from sealing the deal.", "poster_path": "/uvlUQXg0AlpGzKukO11K7QtW3Yu.jpg", "release_date": "2018-03-14", "title": "Blockers", "video": false, "vote_average": 6.2, "vote_count": 1153, "popularity": 18.075}, {"adult": false, "backdrop_path": "/tzqeuHWMFihFbiLGHdalPgAcSf6.jpg", "genre_ids": [18, 10749], "id": 18620, "original_language": "en", "original_title": "Go Fish", "overview": "Max is a trendy, pretty, young lesbian, who is having trouble finding love. A friend sets her up with Ely, whom Max likes, but Ely is frumpy, homely, and older. Nor do they have much in common. Can Max learn to look past the packaging?", "poster_path": "/qrEFYrwykaGsY8NULYuYLLI7zrM.jpg", "release_date": "1994-06-10", "title": "Go Fish", "video": false, "vote_average": 5.0, "vote_count": 11, "popularity": 3.676}, {"adult": false, "backdrop_path": "/6tern9vOEwwmkDYC1vRCuO64z0C.jpg", "genre_ids": [10749, 18], "id": 475888, "original_language": "en", "original_title": "Tell It to the Bees", "overview": "Dr. Jean Markham returns to the town she left as a teenager to take over her late father's medical practice. When a school-yard scuffle lands Charlie in her surgery, she invites him to visit the hives in her garden and tell his secrets to the bees, as she once did. The new friendship between the boy and the bee keeper brings his mother Lydia into Jean's world.", "poster_path": "/Rj6zpHhMU1zFW3v28U4PSRSRgP.jpg", "release_date": "2019-05-03", "title": "Tell It to the Bees", "video": false, "vote_average": 6.4, "vote_count": 53, "popularity": 15.113}, {"adult": false, "backdrop_path": "/baYbbMtKRDoDWYJeVWkbygAvAj8.jpg", "genre_ids": [18, 10749], "id": 31216, "original_language": "en", "original_title": "I Can't Think Straight", "overview": "I CAN'T THINK STRAIGHT is a 2007 romance movie about a London-based Jordanian of Palestinian descent, Tala, who is preparing for an elaborate wedding. A turn of events causes her to have an affair and subsequently fall in love with another woman, Leyla, a British Indian.", "poster_path": "/1kapga6rkM5wNuQBYw7sdE42CrA.jpg", "release_date": "2008-06-01", "title": "I Can't Think Straight", "video": false, "vote_average": 7.6, "vote_count": 109, "popularity": 7.815}, {"adult": false, "backdrop_path": "/lI5h8KaoeObu4NMTwzeRuUHzRwD.jpg", "genre_ids": [18, 9648, 53], "id": 401898, "original_language": "no", "original_title": "Thelma", "overview": "A college student starts to experience extreme seizures. She soon learns that the violent episodes are a symptom of inexplicable abilities.", "poster_path": "/yzSfG8TLAqw7nMQh2lxirQkQpgs.jpg", "release_date": "2017-09-15", "title": "Thelma", "video": false, "vote_average": 7.1, "vote_count": 418, "popularity": 12.235}, {"adult": false, "backdrop_path": "/tIFRPjIXQ3sYrmxbIeOu9K1JkUz.jpg", "genre_ids": [18, 10749], "id": 294, "original_language": "en", "original_title": "Desert Hearts", "overview": "The story of straight-edge literature professor Vivian who travels to Reno to get away from a relationship breakup when she falls in love with an attractive and unconventional girl named Cay.", "poster_path": "/b8JSmQSpYYJhctMtxNgqh0elENg.jpg", "release_date": "1985-10-01", "title": "Desert Hearts", "video": false, "vote_average": 7.3, "vote_count": 58, "popularity": 6.976}, {"id": 520172, "video": false, "vote_count": 0, "vote_average": 0.0, "title": "Happiest Season", "release_date": "2020-11-20", "original_language": "en", "original_title": "Happiest Season", "genre_ids": [35, 10749], "backdrop_path": null, "adult": false, "overview": "A young woman's plans to propose to her girlfriend while at her family's annual holiday party are upended when she discovers her partner hasn't yet come out to her conservative parents.", "poster_path": null, "popularity": 6.436}, {"id": 2255, "video": false, "vote_count": 772, "vote_average": 6.8, "title": "Chasing Amy", "release_date": "1997-04-04", "original_language": "en", "original_title": "Chasing Amy", "genre_ids": [35, 18, 10749], "backdrop_path": "/doKYVK61Vb8J1KUjlb9dNWkQNp6.jpg", "adult": false, "overview": "Holden and Banky are comic book artists. Everything is going good for them until they meet Alyssa, also a comic book artist. Holden falls for her, but his hopes are crushed when he finds out she's a lesbian.", "poster_path": "/4vFJileWrCGaBeobCmF0tXpQCUb.jpg", "popularity": 13.95}, {"adult": false, "backdrop_path": "/hD8DQM72Xacg1d3mFqS0eN8vKYw.jpg", "genre_ids": [18], "id": 8272, "original_language": "en", "original_title": "The Savages", "overview": "A sister and brother face the realities of familial responsibility as they begin to care for their ailing father.", "poster_path": "/nY54gSmTOmSXlQpWDB7DWp4u8a7.jpg", "release_date": "2007-01-19", "title": "The Savages", "video": false, "vote_average": 6.9, "vote_count": 192, "popularity": 9.466}, {"adult": false, "backdrop_path": "/zBB1mzmqnUuSrlTuf0SFFlI1EoJ.jpg", "genre_ids": [18], "id": 244772, "original_language": "en", "original_title": "The Skeleton Twins", "overview": "Estranged twins Maggie and Milo coincidentally cheat death on the same day, prompting them to reunite and confront the reasons their lives went so wrong. As the twins' reunion reinvigorates them, they realize the key to fixing their lives may just lie in repairing their relationship.", "poster_path": "/vvmv1R2jDXJeeeyYcGg0ypXc2XK.jpg", "release_date": "2014-09-12", "title": "The Skeleton Twins", "video": false, "vote_average": 6.7, "vote_count": 416, "popularity": 10.481}, {"adult": false, "backdrop_path": "/3YGy88nTV2e0wxZcKI1goiEN9oy.jpg", "genre_ids": [18, 10749], "id": 37636, "original_language": "en", "original_title": "High Art", "overview": "A young female intern at a small magazine company becomes involved with a drug-addicted lesbian photographer, both of whom seek to exploit each other for their respective careers, while slowly falling in love with each other.", "poster_path": "/qTg05RNJIvb9w4Z7XIcAZxuZmTn.jpg", "release_date": "1998-06-12", "title": "High Art", "video": false, "vote_average": 6.6, "vote_count": 61, "popularity": 7.422}, {"adult": false, "backdrop_path": "/caLMOD3ZJ3V7qjlxDXrzlJfBLgD.jpg", "genre_ids": [18, 10749], "id": 20, "original_language": "en", "original_title": "My Life Without Me", "overview": "A Pedro Almodovar production in which a fatally ill mother with only two months to live creates a list of things she wants to do before she dies with out telling her family of her illness.", "poster_path": "/vVj92VBFUBzjqzLvBiPVVlJDp78.jpg", "release_date": "2003-03-07", "title": "My Life Without Me", "video": false, "vote_average": 6.1, "vote_count": 220, "popularity": 10.382}], "total_pages": 1446, "total_results": 28909}, "recommendations": {"page": 1, "results": [{"adult": false, "backdrop_path": null, "genre_ids": [18], "id": 162991, "original_language": "fr", "original_title": "Petit \u00e0 petit", "overview": "An African travels to Paris to learn about the construction of tall buildings, but is soon taken up with the oddities of French life.", "poster_path": "/kJUp86mVtz0q2r5bYZdduX1HAOk.jpg", "release_date": "1970-08-22", "title": "Little by Little", "video": false, "vote_average": 7.2, "vote_count": 5, "popularity": 0.86}], "total_pages": 1, "total_results": 1}, "credits": {"cast": [{"cast_id": 18, "character": "Camille", "credit_id": "5c0bbae392514147920717a5", "gender": 0, "id": 1947458, "name": "Camille Genaud", "order": 0, "profile_path": null}, {"cast_id": 5, "character": "Carole", "credit_id": "52fe4d61c3a36847f825dd4b", "gender": 1, "id": 1160703, "name": "Carole Le Page", "order": 1, "profile_path": null}, {"cast_id": 4, "character": "Sophie", "credit_id": "52fe4d61c3a36847f825dd47", "gender": 0, "id": 237875, "name": "Sophie Letourneur", "order": 2, "profile_path": "/iOEg2KGZA3TSoZaTbzqdBD6rVTU.jpg"}, {"cast_id": 6, "character": "Martin", "credit_id": "52fe4d61c3a36847f825dd4f", "gender": 0, "id": 1160704, "name": "Julien Gester", "order": 3, "profile_path": null}, {"cast_id": 7, "character": "Luigi", "credit_id": "52fe4d61c3a36847f825dd53", "gender": 0, "id": 1160705, "name": "Eugenio Renzi", "order": 4, "profile_path": null}, {"cast_id": 8, "character": "PA", "credit_id": "52fe4d62c3a36847f825dd57", "gender": 2, "id": 230401, "name": "Louis-Do de Lencquesaing", "order": 5, "profile_path": "/guqKGL4uLouIa4fyCjrq4DmGufe.jpg"}, {"cast_id": 21, "character": "Isabelle", "credit_id": "5c0bbd6ec3a368251c076c02", "gender": 0, "id": 1795999, "name": "Isabelle R\u00e9gnier", "order": 6, "profile_path": null}, {"cast_id": 27, "character": "L\u00e9a", "credit_id": "5c0bc800c3a368252007a038", "gender": 0, "id": 1033745, "name": "Camille Rutherford", "order": 7, "profile_path": "/bSadFpmi6OyqTNt7SF4jYd2JuBM.jpg"}, {"cast_id": 24, "character": "Lolita", "credit_id": "5c0bc1270e0a2638b8077b06", "gender": 1, "id": 56242, "name": "Lolita Chammah", "order": 8, "profile_path": "/rEB51aMzlTEEpFxvEzAj5MddC6I.jpg"}, {"cast_id": 16, "character": "Vanessa Palaisy", "credit_id": "5c0bb761c3a368251507b2fc", "gender": 0, "id": 1507991, "name": "Isabelle Mayor", "order": 9, "profile_path": null}, {"cast_id": 22, "character": "Caroline", "credit_id": "5c0bc059c3a368251807a45d", "gender": 1, "id": 589491, "name": "Caroline Deruas", "order": 10, "profile_path": null}, {"cast_id": 15, "character": "Himself", "credit_id": "5c0bb631c3a368252d077c36", "gender": 0, "id": 1177760, "name": "Beno\u00eet Forgeard", "order": 11, "profile_path": "/e7VN3ZMYVUS2lP3psdtD7Sa7LCi.jpg"}, {"cast_id": 17, "character": "Tibo", "credit_id": "5c0bb82892514147920711f6", "gender": 0, "id": 1743612, "name": "Thibault Sauvaige", "order": 12, "profile_path": null}, {"cast_id": 19, "character": "Gougeon", "credit_id": "5c0bbbac0e0a2638c7073525", "gender": 0, "id": 1833025, "name": "Christophe Gougeon", "order": 13, "profile_path": null}, {"cast_id": 25, "character": "Yann", "credit_id": "5c0bc48f0e0a2638b8078295", "gender": 0, "id": 1106807, "name": "Yann Le Quellec", "order": 14, "profile_path": null}, {"cast_id": 23, "character": "Le directeur du festival", "credit_id": "5c0bc07dc3a3682528079f77", "gender": 0, "id": 1451497, "name": "Olivier P\u00e8re", "order": 15, "profile_path": null}, {"cast_id": 20, "character": "Marcus", "credit_id": "5c0bbca2c3a368252a07a2a1", "gender": 0, "id": 1137551, "name": "Antoine Parouty", "order": 16, "profile_path": null}, {"cast_id": 26, "character": "", "credit_id": "5c0bc4acc3a368251507d185", "gender": 0, "id": 221142, "name": "Mark Peranson", "order": 17, "profile_path": null}, {"cast_id": 9, "character": "Himself", "credit_id": "52fe4d62c3a36847f825dd5b", "gender": 2, "id": 16269, "name": "Louis Garrel", "order": 18, "profile_path": "/lrGbGrTogl6f1by8OnZEsvI63kY.jpg"}], "crew": [{"credit_id": "52fe4d61c3a36847f825dd37", "department": "Directing", "gender": 0, "id": 237875, "job": "Director", "name": "Sophie Letourneur", "profile_path": "/iOEg2KGZA3TSoZaTbzqdBD6rVTU.jpg"}, {"credit_id": "52fe4d61c3a36847f825dd3d", "department": "Writing", "gender": 0, "id": 237875, "job": "Writer", "name": "Sophie Letourneur", "profile_path": "/iOEg2KGZA3TSoZaTbzqdBD6rVTU.jpg"}, {"credit_id": "52fe4d61c3a36847f825dd43", "department": "Camera", "gender": 0, "id": 1137551, "job": "Director of Photography", "name": "Antoine Parouty", "profile_path": null}, {"credit_id": "5bf76def9251415cc40d377a", "department": "Editing", "gender": 0, "id": 71627, "job": "Editor", "name": "Jean-Christophe Hym", "profile_path": null}, {"credit_id": "5bf76e220e0a264cfc00476c", "department": "Production", "gender": 0, "id": 1175624, "job": "Producer", "name": "Emmanuel Chaumet", "profile_path": null}, {"credit_id": "5c0bb33e0e0a2638b80759fa", "department": "Sound", "gender": 0, "id": 1943297, "job": "Sound Editor", "name": "Carole Verner", "profile_path": null}, {"credit_id": "5c0bb3540e0a2638cc0778f7", "department": "Sound", "gender": 0, "id": 1895463, "job": "Sound Recordist", "name": "Pascal Ribier", "profile_path": null}]}}