{"adult": false, "backdrop_path": "/h0BZHoel88oviWWCf9yGRRJPpbT.jpg", "belongs_to_collection": null, "budget": 0, "genres": [{"id": 18, "name": "Drama"}, {"id": 10749, "name": "Romance"}], "homepage": "", "id": 175983, "imdb_id": "tt0025117", "original_language": "en", "original_title": "Finishing School", "overview": "Virginia, who studies at a boarding school for upper-class girls, falls in love with a medical intern who works as a waiter for a living. Both the director of the school and her mother oppose such a relationship.", "popularity": 3.785, "poster_path": "/6mTMbv2A60vQtFY0YqEX9olS78o.jpg", "production_companies": [{"id": 6, "logo_path": "/n53F7K9scQWFXYbrCablqLKqJdp.png", "name": "RKO Radio Pictures", "origin_country": "US"}], "production_countries": [{"iso_3166_1": "US", "name": "United States of America"}], "release_date": "1934-05-04", "revenue": 0, "runtime": 71, "spoken_languages": [{"iso_639_1": "en", "name": "English"}], "status": "Released", "tagline": "", "title": "Finishing School", "video": false, "vote_average": 6.3, "vote_count": 9, "keywords": {"keywords": [{"id": 213, "name": "upper class"}, {"id": 1253, "name": "roommate"}, {"id": 5248, "name": "female friendship"}, {"id": 7665, "name": "girls' boarding school"}, {"id": 13005, "name": "doctor"}, {"id": 40950, "name": "waiter"}, {"id": 156764, "name": "pre-code"}, {"id": 187056, "name": "woman director"}, {"id": 214548, "name": "1930s"}]}, "similar": {"page": 1, "results": [{"adult": false, "backdrop_path": "/cADbqsIoiDW7X3Myg9nz8eAuno5.jpg", "genre_ids": [18, 10749], "id": 10818, "original_language": "fr", "original_title": "Naissance des pieuvres", "overview": "Set during a sultry summer in a French suburb, Marie is desperate to join the local pool's synchronized swimming team, but is her interest solely for the sake of sport or for a chance to get close to Floriane, the bad girl of the team? Sciamma, and the two leads, capture the uncertainty of teenage sexuality with a sympathetic eye in this delicate drama of the angst of coming-of-age.", "poster_path": "/4jajELYrR4Xmv3CVoKnukRnALa2.jpg", "release_date": "2007-05-17", "title": "Water Lilies", "video": false, "vote_average": 6.1, "vote_count": 119, "popularity": 9.614}, {"id": 9813, "video": false, "vote_count": 128, "vote_average": 6.1, "title": "The Quiet", "release_date": "2005-09-12", "original_language": "en", "original_title": "The Quiet", "genre_ids": [18, 53], "backdrop_path": "/6eyWAZA4CEidZW1xXnQ4vlYBXTP.jpg", "adult": false, "overview": "After her widowed father dies, deaf teenager Dot moves in with her godparents, Olivia and Paul Deer. The Deers' daughter, Nina, is openly hostile to Dot, but that does not prevent her from telling her secrets to her silent stepsister, including the fact that she wants to kill her lecherous father.", "poster_path": "/GEqIE9YlmygHVUfS64LW2cwAAM.jpg", "popularity": 14.844}, {"adult": false, "backdrop_path": "/ePqwTIoJeKJwShMABMst5duBcw9.jpg", "genre_ids": [35, 10402, 10749], "id": 114150, "original_language": "en", "original_title": "Pitch Perfect", "overview": "College student Beca knows she does not want to be part of a clique, but that's exactly where she finds herself after arriving at her new school. Thrust in among mean gals, nice gals and just plain weird gals, Beca finds that the only thing they have in common is how well they sing together. She takes the women of the group out of their comfort zone of traditional arrangements and into a world of amazing harmonic combinations in a fight to the top of college music competitions.", "poster_path": "/cLUMPdwCV0Dxd3P1ZkCXe7bVImI.jpg", "release_date": "2012-09-28", "title": "Pitch Perfect", "video": false, "vote_average": 7.3, "vote_count": 4622, "popularity": 16.878}, {"adult": false, "backdrop_path": "/gZeJziVigmRqbkEZwKAtSqlLQ6s.jpg", "genre_ids": [18, 10749], "id": 370663, "original_language": "en", "original_title": "Below Her Mouth", "overview": "An unexpected affair quickly escalates into a heart-stopping reality for two women whose passionate connection changes their lives forever.", "poster_path": "/nTGbq37hYLuNy7YgMg0gVLma0NS.jpg", "release_date": "2016-09-10", "title": "Below Her Mouth", "video": false, "vote_average": 6.2, "vote_count": 456, "popularity": 18.664}, {"id": 153, "video": false, "vote_count": 3922, "vote_average": 7.4, "title": "Lost in Translation", "release_date": "2003-08-31", "original_language": "en", "original_title": "Lost in Translation", "genre_ids": [35, 18, 10749], "backdrop_path": "/iJP2ogeM5YpZyUOkmCiZ5UXWyBf.jpg", "adult": false, "overview": "Two lost souls visiting Tokyo -- the young, neglected wife of a photographer and a washed-up movie star shooting a TV commercial -- find an odd solace and pensive freedom to be real in each other's company, away from their lives in America.", "poster_path": "/wkSzJs7oMf8MIr9CQVICsvRfwA7.jpg", "popularity": 17.289}, {"adult": false, "backdrop_path": "/iIU2NlC0EpL5NTPtGWmupyoMPhN.jpg", "genre_ids": [18], "id": 22798, "original_language": "en", "original_title": "Whip It", "overview": "In Bodeen, Texas, Land Of The Dragon, an indie-rock loving misfit finds a way of dealing with her small-town misery after she discovers a roller derby league in nearby Austin.", "poster_path": "/At7kxW4HK54kALuD9qDhFgsxkKM.jpg", "release_date": "2009-09-13", "title": "Whip It", "video": false, "vote_average": 6.7, "vote_count": 678, "popularity": 8.53}, {"id": 83542, "video": false, "vote_count": 4861, "vote_average": 6.8, "title": "Cloud Atlas", "release_date": "2012-10-26", "original_language": "en", "original_title": "Cloud Atlas", "genre_ids": [18, 878], "backdrop_path": "/2ZA03KiD4jePTNBTJjGGFTNQPMA.jpg", "adult": false, "overview": "A set of six nested stories spanning time between the 19th century and a distant post-apocalyptic future. Cloud Atlas explores how the actions and consequences of individual lives impact one another throughout the past, the present and the future. Action, mystery and romance weave through the story as one soul is shaped from a killer into a hero and a single act of kindness ripples across centuries to inspire a revolution in the distant future.  Based on the award winning novel by David Mitchell. Directed by Tom Tykwer and the Wachowskis.", "poster_path": "/8VNiyIp67ZxhpNgdrwACW0jgvP2.jpg", "popularity": 19.113}, {"adult": false, "backdrop_path": "/46des5ED7ppRBSTOCug2SbYX7mS.jpg", "genre_ids": [12, 35, 18, 10751], "id": 10188, "original_language": "en", "original_title": "The Sisterhood of the Traveling Pants 2", "overview": "Four young women continue the journey toward adulthood that began with \"The Sisterhood of the Traveling Pants.\" Now three years later, these lifelong friends embark on separate paths for their first year of college and the summer beyond, but remain in touch by sharing their experiences with each other.", "poster_path": "/ryo25cJml7YKPemZ9IeArPezbES.jpg", "release_date": "2008-08-06", "title": "The Sisterhood of the Traveling Pants 2", "video": false, "vote_average": 6.2, "vote_count": 542, "popularity": 15.062}, {"id": 616584, "video": false, "vote_count": 92, "vote_average": 7.5, "title": "K-12", "release_date": "2019-09-05", "original_language": "en", "original_title": "K-12", "genre_ids": [14, 27, 10402], "backdrop_path": "/fSlfaF0Ydfr2SK6hOYHvDsb7a9Z.jpg", "adult": false, "overview": "Cry Baby, a strong and sensitive girl, is sent off to a disturbing sleepaway school that\u2019s hidden underneath a grandiose fa\u00e7ade. Luckily, she has a sweet and unapologetic best friend who sticks up for her when she gets bullied by the other students whose brains are under control by the Principal and his wicked staff. With the help of the magical friends they meet along the way, as well as an Angelic Spirit Guide, they are able to gain the strength they need to fight off the school\u2019s belligerent patriarchal conditioning.", "poster_path": "/nVi0yBBPj5Z96JgGWVIg94kv7bR.jpg", "popularity": 15.107}, {"id": 326359, "video": false, "vote_count": 1180, "vote_average": 6.8, "title": "Frozen Fever", "release_date": "2015-03-09", "original_language": "en", "original_title": "Frozen Fever", "genre_ids": [12, 16, 10751], "backdrop_path": "/ubioPGniCfDiASmYYpeJs5RRNaC.jpg", "adult": false, "overview": "On Anna's birthday, Elsa and Kristoff are determined to give her the best celebration ever, but Elsa's icy powers may put more than just the party at risk.", "poster_path": "/lKJiVPzsAO9IJ4LKWXZ8vkR2bg4.jpg", "popularity": 17.218}, {"adult": false, "backdrop_path": "/pBgGl3GfVxs84T7ZniUAz5FMMNx.jpg", "genre_ids": [35, 10751, 12, 14, 10749], "id": 11451, "original_language": "en", "original_title": "Herbie Fully Loaded", "overview": "Maggie Peyton, the new owner of Number 53 - the free-wheelin' Volkswagen bug with a mind of its own - puts the car through its paces on the road to becoming a NASCAR competitor.", "poster_path": "/7lTfTZ8CDfXw09eAv3OOvsbCVgs.jpg", "release_date": "2005-06-22", "title": "Herbie Fully Loaded", "video": false, "vote_average": 5.3, "vote_count": 1347, "popularity": 14.041}, {"adult": false, "backdrop_path": "/fZ8oFcREAr6wgWcXISGql0xyxjB.jpg", "genre_ids": [35, 18], "id": 39781, "original_language": "en", "original_title": "The Kids Are All Right", "overview": "Two women, Nic and Jules, brought a son and daughter into the world through artificial insemination. When one of their children reaches age, both kids go behind their mothers' backs to meet with the donor. Life becomes so much more interesting when the father, two mothers and children start to become attached to each other.", "poster_path": "/fPDeK4MmoGfi2X0oWZev7LrbMqM.jpg", "release_date": "2010-07-09", "title": "The Kids Are All Right", "video": false, "vote_average": 6.6, "vote_count": 923, "popularity": 12.159}, {"adult": false, "backdrop_path": "/nriBinb7Y3Bm6LdbmOC0mFxSm8d.jpg", "genre_ids": [80, 18], "id": 226, "original_language": "en", "original_title": "Boys Don't Cry", "overview": "Female born, Teena Brandon adopts his male identity of Brandon Teena and attempts to find himself and love in Nebraska.", "poster_path": "/6bqIZTEuJnUrgnxcymciszvOz8J.jpg", "release_date": "1999-09-02", "title": "Boys Don't Cry", "video": false, "vote_average": 7.5, "vote_count": 718, "popularity": 10.072}, {"adult": false, "backdrop_path": "/24JDK9dRRRzkBjHBsKQIGs7sBkj.jpg", "genre_ids": [53, 18], "id": 303858, "original_language": "en", "original_title": "Money Monster", "overview": "Financial TV host Lee Gates and his producer Patty are put in an extreme situation when an irate investor takes over their studio.", "poster_path": "/p7KDmC2beuKCCMO49L767OgwLQr.jpg", "release_date": "2016-05-12", "title": "Money Monster", "video": false, "vote_average": 6.4, "vote_count": 2031, "popularity": 11.472}, {"id": 71688, "video": false, "vote_count": 1019, "vote_average": 6.4, "title": "The Iron Lady", "release_date": "2011-12-30", "original_language": "en", "original_title": "The Iron Lady", "genre_ids": [18, 36], "backdrop_path": "/dfM5XwQcw36HAnKhowEh5776MJl.jpg", "adult": false, "overview": "A look at the life of Margaret Thatcher, the former Prime Minister of the United Kingdom, with a focus on the price she paid for power.", "poster_path": "/e67tal4u66eFz8yGnJGTO5FYRxY.jpg", "popularity": 10.839}, {"adult": false, "backdrop_path": "/2WmdaMjTufY8MIRe4SBmo22haaM.jpg", "genre_ids": [35, 10749], "id": 75802, "original_language": "en", "original_title": "Hysteria", "overview": "Two doctors in Victorian England use manual stimulation of female genitalia to cure their patients' ills, leading to the invention of the vibrator.", "poster_path": "/1vtHZYTBS5iRA5ADibY6cwU7Ffm.jpg", "release_date": "2011-06-06", "title": "Hysteria", "video": false, "vote_average": 6.6, "vote_count": 511, "popularity": 15.659}, {"adult": false, "backdrop_path": "/rf6G51j0SZL0tP57I8gnqHTRFEr.jpg", "genre_ids": [35, 18, 10749], "id": 273153, "original_language": "fr", "original_title": "La belle saison", "overview": "In 1971, Carole and Delphine meet and fall in love in Paris. When Carole follows Delphine back to her family farm in Limousin, the two find lesbianism and feminism are not as easy in the countryside.", "poster_path": "/evvAkNMO5VJiy5qIo1Hu7fUfvVI.jpg", "release_date": "2015-08-19", "title": "Summertime", "video": false, "vote_average": 6.6, "vote_count": 162, "popularity": 11.575}, {"id": 399131, "video": false, "vote_count": 556, "vote_average": 5.6, "title": "Dude", "release_date": "2018-04-20", "original_language": "en", "original_title": "Dude", "genre_ids": [35], "backdrop_path": "/o8kdF2dZNzjEzuVZfgaSLUSVqNH.jpg", "adult": false, "overview": "Four best friends negotiate loss and major life changes during the last two weeks of high school.", "poster_path": "/vh4K737r0ZjrioIjHcs7ktV8RFO.jpg", "popularity": 10.749}, {"id": 17612, "video": false, "vote_count": 296, "vote_average": 7.0, "title": "Lost and Delirious", "release_date": "2001-01-21", "original_language": "en", "original_title": "Lost and Delirious", "genre_ids": [18, 10749], "backdrop_path": "/jvG6o8FobdmXr6bFr4v9MVOHWoX.jpg", "adult": false, "overview": "LOST AND DELIRIOUS is the story of three adolescent girls' first love, their discovery of sexual passion, and their search for identities. Set in a posh, private boarding school surrounded by luxuriant, green forest, LOST AND DELIRIOUS moves swiftly from academic routine, homesickness, and girlish silliness to the darker region of lover's intrigue.", "poster_path": "/3Cu95A09arsfTsOJfygVwhJe5qc.jpg", "popularity": 12.502}, {"adult": false, "backdrop_path": "/dXQdfVXUOrGhby6yTk9yZEDKhhg.jpg", "genre_ids": [18], "id": 65229, "original_language": "fr", "original_title": "Tomboy", "overview": "A French family with two daughters, 10-year-old Laure and 6-year-old Jeanne, moves to a new neighborhood during the summer holidays. With her tomboy ways, Laure is immediately mistaken for a boy by the local kids and passes herself off as Micka\u00ebl.", "poster_path": "/q4bl7q32VmqWMPl5WWfCdu2UFSw.jpg", "release_date": "2011-04-20", "title": "Tomboy", "video": false, "vote_average": 7.2, "vote_count": 339, "popularity": 9.175}], "total_pages": 39, "total_results": 766}, "recommendations": {"page": 1, "results": [{"adult": false, "backdrop_path": "/9wEDRB5RTjKx5y0unxS68jZH5vN.jpg", "genre_ids": [18], "id": 169761, "original_language": "en", "original_title": "Way Back Home", "overview": "A rural Maine farmer fights for custody of the boy who he's raised as his own.", "poster_path": "/bLcIkaF0L6qz4T0O7gVBqqWlrZg.jpg", "release_date": "1931-11-13", "title": "Way Back Home", "video": false, "vote_average": 7.0, "vote_count": 3, "popularity": 1.993}, {"adult": false, "backdrop_path": "/l0AvvVo3kZxd4XTJZQ7qbhhSs9s.jpg", "genre_ids": [80, 18], "id": 100894, "original_language": "en", "original_title": "The Mayor of Hell", "overview": "Members of a teenage gang are sent to the State Reformatory, presided over by the callous Thompson. Soon Patsy Gargan, a former gangster appointed Deputy Commissioner, arrives and takes over the administration to run the place on radical principles. Thompson needs a quick way to discredit him.", "poster_path": "/5CdojmwLh4aGY2yL6gIWyUImIma.jpg", "release_date": "1933-06-24", "title": "The Mayor of Hell", "video": false, "vote_average": 7.5, "vote_count": 10, "popularity": 2.942}, {"adult": false, "backdrop_path": "/uq2c1kUTNVZGg9fVYSz7buPnkCo.jpg", "genre_ids": [18, 35, 10749], "id": 199030, "original_language": "en", "original_title": "This Modern Age", "overview": "American Val Winters goes to Paris to meet the expatriate divorced mother she has never known. While there she and Harvard footballer Bob Blake fall in love. When Bob brings his parents to meet her, Val's mother is revealed to have been for years the mistress of married Andr\u00e9 de Graignon. This discovery causes major problems.", "poster_path": "/5hIHzrYN7jbwqPuK3ReAP9LjV2I.jpg", "release_date": "1931-08-29", "title": "This Modern Age", "video": false, "vote_average": 6.0, "vote_count": 6, "popularity": 2.411}, {"adult": false, "backdrop_path": "/1Oe39C9yUDPxbzPMMefgb87ZL29.jpg", "genre_ids": [18], "id": 134427, "original_language": "en", "original_title": "Downstairs", "overview": "In the Austrian manor of Baron and Baroness von Burgen, the relationship between the upstairs aristocracy and the downstairs staff is quite positive. The servants seem to enjoy their time together, and some even fall in love, as head butler Albert and maid Anna have done. But when lecherous new chauffeur Karl Schneider enters the house, affairs and blackmail follow, and the harmony of the home is slowly destroyed.", "poster_path": "/rDNi6VhOkuabHPssipfp17xyS8.jpg", "release_date": "1932-08-06", "title": "Downstairs", "video": false, "vote_average": 8.0, "vote_count": 6, "popularity": 3.179}, {"adult": false, "backdrop_path": "/7nhK45x7igJea5B5UoXBjH7Av04.jpg", "genre_ids": [18], "id": 153168, "original_language": "en", "original_title": "The Common Law", "overview": "When a woman models for an artist they fall in love. Can the artist overcome the beauty's recent past as another man's mistress?", "poster_path": "/9U8yECcyx7RplzMvphvicCijMLy.jpg", "release_date": "1931-07-24", "title": "The Common Law", "video": false, "vote_average": 6.4, "vote_count": 5, "popularity": 2.263}, {"adult": false, "backdrop_path": "/rkaEoARJiK4lYcgi2AWKFaUDdwW.jpg", "genre_ids": [18, 53], "id": 109008, "original_language": "en", "original_title": "Escape", "overview": "An American goes to Germany to find his mother and discovers her in a concentration camp. With the help of an American-born widowed countess he seeks to engineer her escape.", "poster_path": "/kUmeDhPPPHm8hqsa9MlubxeDSaV.jpg", "release_date": "1940-11-01", "title": "Escape", "video": false, "vote_average": 7.7, "vote_count": 6, "popularity": 3.169}, {"adult": false, "backdrop_path": "/hrUhzHONVZHMQSpSqVrYnu5wFNT.jpg", "genre_ids": [18], "id": 176627, "original_language": "en", "original_title": "Mary Stevens, M.D.", "overview": "A woman doctor decides to have a baby without benefit of marriage.", "poster_path": "/m9ssKS6co5zPMfieIlxFprpOAsF.jpg", "release_date": "1933-07-22", "title": "Mary Stevens, M.D.", "video": false, "vote_average": 7.2, "vote_count": 5, "popularity": 3.136}, {"id": 37581, "video": false, "vote_count": 9, "vote_average": 6.9, "title": "Christopher Strong", "release_date": "1933-03-09", "original_language": "en", "original_title": "Christopher Strong", "genre_ids": [18], "backdrop_path": "/3yZpe9vekxHfBUgRkZjM77kwi37.jpg", "adult": false, "overview": "A romance develops between a happily married middle-aged British politician and an adventurous young aviatrix.", "poster_path": "/z0Lvs8PCSRAokbJM6ST3FnhweNs.jpg", "popularity": 3.274}, {"adult": false, "backdrop_path": "/ciRN42ohcuty25gEJZCJ5qNgdX3.jpg", "genre_ids": [18], "id": 155953, "original_language": "en", "original_title": "The Blot", "overview": "Professor Griggs, teaching at the college, doesn't get paid a living wage; his next door neighbor, successful shoemaker Olsen, has money and plentiful food, while the Griggses have hardly any. When the professor's rich student Phil West falls for beautiful Griggs daughter Amelia and also befriends the poor Reverend Gates (a young man who is also in love with Amelia), he observes the difference in his life and theirs and tries to help make a difference.", "poster_path": "/2Gc7H1jmZM69TbGA8DSZx3WkQA8.jpg", "release_date": "1921-09-04", "title": "The Blot", "video": false, "vote_average": 7.1, "vote_count": 7, "popularity": 2.669}, {"id": 188366, "video": false, "vote_count": 5, "vote_average": 6.6, "title": "Miss Pinkerton", "release_date": "1932-05-27", "original_language": "en", "original_title": "Miss Pinkerton", "genre_ids": [35, 9648, 53], "backdrop_path": "/1K0x4DAbTT5MdxRLJNesL5h87He.jpg", "adult": false, "overview": "Scion of the once-rich Mitchell family, Herbert Wynn is found shot to death. Nurse Adams, bored by hospital routine, is recruited by the police to ferret out clues as she tends to Wynn's elderly aunt Julia. Jokingly given the 'rank' of Miss Pinkerson, after the famous detective agency, Adams probes into the mystery, but not before a second death.", "poster_path": "/prUqqevNe69sgUaZgGs8ixD8cjL.jpg", "popularity": 2.982}, {"id": 120831, "video": false, "vote_count": 9, "vote_average": 7.3, "title": "Love", "release_date": "1928-01-02", "original_language": "en", "original_title": "Love", "genre_ids": [18], "backdrop_path": "/3JOMDhPlo33EXOcySzd2mGDPCEK.jpg", "adult": false, "overview": "In Imperial Russia, Anna Karenina falls in love with the dashing military officer Count Vronsky and abandons her husband and child to become his mistress.", "poster_path": "/8baCUp1HrTfssHdstGjy9ir7oiG.jpg", "popularity": 3.276}, {"id": 44463, "video": false, "vote_count": 17, "vote_average": 7.3, "title": "The Miracle Woman", "release_date": "1931-07-20", "original_language": "en", "original_title": "The Miracle Woman", "genre_ids": [18], "backdrop_path": "/t61TU4iEysU5xKRXVnGKBjEomxI.jpg", "adult": false, "overview": "A phony faith healer falls for a blind man and seeks to go straight.", "poster_path": "/bUDpNNIcOjk9bUHkz3oXkBqHB04.jpg", "popularity": 3.331}], "total_pages": 1, "total_results": 12}, "credits": {"cast": [{"cast_id": 3, "character": "Virginia Radcliffe", "credit_id": "52fe4d68c3a36847f825f301", "gender": 1, "id": 95117, "name": "Frances Dee", "order": 0, "profile_path": "/xJyKgeBsvo8jYBbiMuqaJ43HPne.jpg"}, {"cast_id": 4, "character": "Mrs. Helen Crawford Radcliffe", "credit_id": "52fe4d68c3a36847f825f305", "gender": 1, "id": 9071, "name": "Billie Burke", "order": 1, "profile_path": "/vhcDgp1TkIaleLfnE8lH72qvGBE.jpg"}, {"cast_id": 5, "character": "Cecilia 'Pony' Ferris", "credit_id": "52fe4d68c3a36847f825f309", "gender": 1, "id": 30003, "name": "Ginger Rogers", "order": 2, "profile_path": "/ah4nyaNUOMZwmGbDOAtN8S8J6ap.jpg"}, {"cast_id": 6, "character": "Ralph McFarland", "credit_id": "52fe4d68c3a36847f825f30d", "gender": 2, "id": 3244, "name": "Bruce Cabot", "order": 3, "profile_path": "/tPGeXs9vzGrP6myIxw4quP3PJl3.jpg"}, {"cast_id": 29, "character": "Mr. Frank S. Radcliffe", "credit_id": "576ff22692514176e60027ba", "gender": 2, "id": 14688, "name": "John Halliday", "order": 4, "profile_path": "/soyfwUQtgcxahcylFig4lG9RvRs.jpg"}, {"cast_id": 8, "character": "Miss Van Alstyne", "credit_id": "54c88d8f92514157cc00165d", "gender": 1, "id": 17755, "name": "Beulah Bondi", "order": 5, "profile_path": "/dduvRQRhbwdlbS12nljnHTkChIR.jpg"}, {"cast_id": 9, "character": "Miss Fisher", "credit_id": "54c88d98c3a36870ba0014e9", "gender": 1, "id": 85956, "name": "Sara Haden", "order": 6, "profile_path": "/wufYXd5Cy2EESw2VRa00tmlzH8s.jpg"}, {"cast_id": 10, "character": "Dr. Hewitt", "credit_id": "54c88da0925141678c005787", "gender": 1, "id": 120440, "name": "Helen Freeman", "order": 7, "profile_path": null}, {"cast_id": 11, "character": "Ruth Wallace", "credit_id": "54c88da8c3a36870ba0014ed", "gender": 0, "id": 1273900, "name": "Marjorie Lytell", "order": 8, "profile_path": null}, {"cast_id": 12, "character": "Madeline 'Maggy' Kelly", "credit_id": "54c88dbec3a3687006001586", "gender": 0, "id": 1419572, "name": "Adalyn Doyle", "order": 9, "profile_path": null}, {"cast_id": 13, "character": "Billie", "credit_id": "54c88dc6c3a36870ba0014f2", "gender": 1, "id": 19327, "name": "Anne Shirley", "order": 10, "profile_path": "/vqwHzjBgV8wlWUi1cATSXCHV0bA.jpg"}, {"cast_id": 14, "character": "Aunt Jessica", "credit_id": "54c88dd1c3a36879df000d9b", "gender": 1, "id": 1025732, "name": "Irene Franklin", "order": 11, "profile_path": "/wr2vDTWEi3Q3G82dGTgokPs6lfS.jpg"}, {"cast_id": 40, "character": "Miss Schmidt", "credit_id": "5c8723390e0a2627fd5b11bf", "gender": 0, "id": 2263572, "name": "Ann Cameron", "order": 12, "profile_path": null}, {"cast_id": 41, "character": "Miss Edith Garland", "credit_id": "5c87234e9251415c691a994c", "gender": 0, "id": 1652646, "name": "Rose Coghlan", "order": 13, "profile_path": null}, {"cast_id": 15, "character": "Miss Weber", "credit_id": "54c88dedc3a3687006001590", "gender": 0, "id": 1090773, "name": "Caroline Rankin", "order": 14, "profile_path": "/3UJgEhaboZrjDtLf7i3wUy6bETc.jpg"}, {"cast_id": 42, "character": "Edith (uncredited)", "credit_id": "5c8724450e0a2627fd5b12a3", "gender": 0, "id": 2263579, "name": "Margaret Armstrong", "order": 15, "profile_path": null}, {"cast_id": 43, "character": "Evelyn (uncredited)", "credit_id": "5c87246892514129191fcf17", "gender": 1, "id": 97042, "name": "Theresa Harris", "order": 16, "profile_path": "/4WQcTE5lAhlq7uS04CDQ2l43scg.jpg"}, {"cast_id": 16, "character": "Maude (uncredited)", "credit_id": "54c88df6c3a36874ac005570", "gender": 1, "id": 8515, "name": "Jane Darwell", "order": 17, "profile_path": "/geGrMcqxcFtMKKJO36OFpVwZFFW.jpg"}, {"cast_id": 44, "character": "Student (uncredited)", "credit_id": "5c87249a0e0a2669995d0687", "gender": 1, "id": 89252, "name": "Joan Barclay", "order": 18, "profile_path": "/oFfCBfJibvOuRbPECqUOTKvDoSB.jpg"}], "crew": [{"credit_id": "576ff0ff92514148c900039f", "department": "Art", "gender": 2, "id": 11036, "job": "Art Direction", "name": "Van Nest Polglase", "profile_path": "/11wRR3ofmyXu33rjhlrwg74zpnJ.jpg"}, {"credit_id": "576ff0e7925141190f0070cf", "department": "Crew", "gender": 2, "id": 3252, "job": "Special Effects", "name": "Vernon L. Walker", "profile_path": "/efFZ1KZeJuvE4mWaLrceC9TS3vN.jpg"}, {"credit_id": "576ff1c3c3a368193b0003dc", "department": "Editing", "gender": 0, "id": 8621, "job": "Editor", "name": "Arthur P. Schmidt", "profile_path": null}, {"credit_id": "576fefbc92514148ee0002a5", "department": "Production", "gender": 2, "id": 3238, "job": "Executive Producer", "name": "Merian C. Cooper", "profile_path": "/cTAvZsPWnHUn5CIQC0dNxBsLDvf.jpg"}, {"credit_id": "5c87221b0e0a2627fd5b10b3", "department": "Sound", "gender": 2, "id": 3249, "job": "Music", "name": "Max Steiner", "profile_path": "/jGcpktUdPqVERqb8BqYwp0YC5Z1.jpg"}, {"credit_id": "5c8722390e0a264310688f88", "department": "Sound", "gender": 2, "id": 3249, "job": "Music Director", "name": "Max Steiner", "profile_path": "/jGcpktUdPqVERqb8BqYwp0YC5Z1.jpg"}, {"credit_id": "5c87222c9251412766242978", "department": "Sound", "gender": 2, "id": 4345, "job": "Music", "name": "Roy Webb", "profile_path": null}, {"credit_id": "576ff11fc3a368198b000397", "department": "Art", "gender": 2, "id": 4349, "job": "Art Direction", "name": "Albert S. D'Agostino", "profile_path": "/nYJgsC5n7j2XZRgqVlct6Zy0U3V.jpg"}, {"credit_id": "573f711c9251414cec0009ed", "department": "Costume & Make-Up", "gender": 2, "id": 4352, "job": "Makeup Artist", "name": "Mel Berns", "profile_path": "/OGT3K2ekiitrITzytByC3JSxf2.jpg"}, {"credit_id": "5c8721a2c3a3687f84d45914", "department": "Costume & Make-Up", "gender": 2, "id": 11491, "job": "Costume Design", "name": "Walter Plunkett", "profile_path": "/yKfswJpfffXoggkwC3eSDfaMD49.jpg"}, {"credit_id": "5cd989d0c3a36875bcc62114", "department": "Sound", "gender": 2, "id": 13813, "job": "Sound Recordist", "name": "John L. Cass", "profile_path": null}, {"credit_id": "576ff02592514177350025d4", "department": "Production", "gender": 0, "id": 88972, "job": "Associate Producer", "name": "Kenneth Macgowan", "profile_path": null}, {"credit_id": "57f851f592514120cf00009d", "department": "Camera", "gender": 2, "id": 97048, "job": "Director of Photography", "name": "J. Roy Hunt", "profile_path": null}, {"credit_id": "5c8721eec3a3687f84d45969", "department": "Directing", "gender": 2, "id": 121047, "job": "Assistant Director", "name": "Edward Killy", "profile_path": null}, {"credit_id": "5c8720dc925141649b179451", "department": "Writing", "gender": 0, "id": 128397, "job": "Story", "name": "Louis Weitzenkorn", "profile_path": null}, {"credit_id": "576ff077c3a36809d6007272", "department": "Writing", "gender": 0, "id": 149128, "job": "Screenplay", "name": "Laird Doyle", "profile_path": null}, {"credit_id": "54c88d8092514167890054f3", "department": "Writing", "gender": 0, "id": 556859, "job": "Story", "name": "David Hempstead", "profile_path": null}, {"credit_id": "52fe4d68c3a36847f825f2f7", "department": "Directing", "gender": 0, "id": 585135, "job": "Director", "name": "George Nichols Jr.", "profile_path": null}, {"credit_id": "576ff04ac3a36818f600038e", "department": "Writing", "gender": 1, "id": 1010628, "job": "Screenplay", "name": "Wanda Tuchock", "profile_path": null}, {"credit_id": "52fe4d68c3a36847f825f2fd", "department": "Directing", "gender": 1, "id": 1010628, "job": "Director", "name": "Wanda Tuchock", "profile_path": null}, {"credit_id": "5c87218dc3a3687f84d4590b", "department": "Production", "gender": 0, "id": 1123079, "job": "Casting Director", "name": "Fred Schuessler", "profile_path": null}, {"credit_id": "5c8720ca0e0a26765e5e391d", "department": "Writing", "gender": 0, "id": 2263568, "job": "Theatre Play", "name": "Katharine Clugston", "profile_path": null}]}}