{"adult": false, "backdrop_path": "/71x8kblLR1fAXLrCKE1kbanSuBM.jpg", "belongs_to_collection": null, "budget": 0, "genres": [{"id": 18, "name": "Drama"}], "homepage": null, "id": 176253, "imdb_id": "tt0028083", "original_language": "en", "original_title": "Panic on the Air", "overview": "A sports announcer and a friend investigate after a pitcher misses a series. When they discover that gangsters are trying to find a hidden fortune, they use the radio show to foil the plan.", "popularity": 0.705, "poster_path": "/2L00GK1tLx6c7sL0Ue8Ylhm2wwp.jpg", "production_companies": [{"id": 5, "logo_path": "/71BqEFAF4V3qjjMPCpLuyJFB9A.png", "name": "Columbia Pictures", "origin_country": "US"}], "production_countries": [{"iso_3166_1": "US", "name": "United States of America"}], "release_date": "1936-04-10", "revenue": 0, "runtime": 54, "spoken_languages": [{"iso_639_1": "en", "name": "English"}], "status": "Released", "tagline": "", "title": "Panic on the Air", "video": false, "vote_average": 5.5, "vote_count": 2, "keywords": {"keywords": [{"id": 918, "name": "newspaper"}, {"id": 9826, "name": "murder"}, {"id": 10920, "name": "radio program"}, {"id": 155759, "name": "horse racing"}]}, "similar": {"page": 1, "results": [{"adult": false, "backdrop_path": "/3TCPWrxQkfon82xPNtmpweOSVJc.jpg", "genre_ids": [18, 80, 9648, 10749, 53], "id": 12150, "original_language": "en", "original_title": "Sea of Love", "overview": "Seen-it-all New York detective Frank Keller is unsettled - he has done twenty years on the force and could retire, and he hasn't come to terms with his wife leaving him for a colleague. Joining up with an officer from another part of town to investigate a series of murders linked by the lonely hearts columns he finds he is getting seriously and possibly dangerously involved with Helen, one of the main suspects.", "poster_path": "/7DkkTHIX3hUqvsRv5sDmJAkCfKK.jpg", "release_date": "1989-09-15", "title": "Sea of Love", "video": false, "vote_average": 6.7, "vote_count": 290, "popularity": 10.636}, {"id": 75780, "video": false, "vote_count": 4451, "vote_average": 6.4, "title": "Jack Reacher", "release_date": "2012-12-20", "original_language": "en", "original_title": "Jack Reacher", "genre_ids": [28, 80, 18, 53], "backdrop_path": "/ezXodpP429qK0Av89pVNlaXWJkQ.jpg", "adult": false, "overview": "When a gunman takes five lives with six shots, all evidence points to the suspect in custody. On interrogation, the suspect offers up a single note: \"Get Jack Reacher!\" So begins an extraordinary chase for the truth, pitting Jack Reacher against an unexpected enemy, with a skill for violence and a secret to keep.", "poster_path": "/mt0ELw83HIRgaKaDzhsDcIi0RnW.jpg", "popularity": 15.945}, {"id": 1949, "video": false, "vote_count": 5165, "vote_average": 7.5, "title": "Zodiac", "release_date": "2007-03-02", "original_language": "en", "original_title": "Zodiac", "genre_ids": [80, 18, 9648, 53], "backdrop_path": "/jP2htGBHE7vKq4MLeC75UeC0sZH.jpg", "adult": false, "overview": "The true story of the investigation of the \"Zodiac Killer\", a serial killer who terrified the San Francisco Bay Area, taunting police with his ciphers and letters. The case becomes an obsession for three men as their lives and careers are built and destroyed by the endless trail of clues.", "poster_path": "/bgLyOROfFQI3FqYL7jQbiaV8lkN.jpg", "popularity": 24.455}, {"adult": false, "backdrop_path": "/2J283YNxKhxAqHeVegUJ5mzLfGb.jpg", "genre_ids": [80, 18, 9648], "id": 392044, "original_language": "en", "original_title": "Murder on the Orient Express", "overview": "Genius Belgian detective Hercule Poirot investigates the murder of an American tycoon aboard the Orient Express train.", "poster_path": "/iBlfxlw8qwtUS0R8YjIU7JtM6LM.jpg", "release_date": "2017-11-03", "title": "Murder on the Orient Express", "video": false, "vote_average": 6.7, "vote_count": 6050, "popularity": 27.701}, {"adult": false, "backdrop_path": "/8UkJSL5hlwGh3uSC5tyoaqhHQh7.jpg", "genre_ids": [80, 18, 53], "id": 18587, "original_language": "en", "original_title": "10 to Midnight", "overview": "Based on the real-life Richard Speck murders. After his bizarre behavior results in rejection from countless women, Warren Stacy begins murdering women, always while he is naked, which minimizes any physical evidence left behind. Detective Leo Kessler is convinced of Stacy\u2019s guilt and, over the objections of his partner, plants evidence to get him behind bars. When Stacy is released on a technicality, he threatens to go after Kessler and his family, leaving Kessler to defend himself with little help from the police.", "poster_path": "/bJiLyz6g8vsFgJ5oAdMWlQAWY4T.jpg", "release_date": "1983-03-11", "title": "10 to Midnight", "video": false, "vote_average": 6.0, "vote_count": 73, "popularity": 9.514}, {"id": 4771, "video": false, "vote_count": 2134, "vote_average": 7.3, "title": "Gone Baby Gone", "release_date": "2007-09-18", "original_language": "en", "original_title": "Gone Baby Gone", "genre_ids": [80, 18, 9648], "backdrop_path": "/sogh5NXPbKFajjYKBlfIBfCWgbq.jpg", "adult": false, "overview": "When 4 year old Amanda McCready disappears from her home and the police make little headway in solving the case, the girl's aunt, Beatrice McCready hires two private detectives, Patrick Kenzie and Angie Gennaro. The detectives freely admit that they have little experience with this type of case, but the family wants them for two reasons - they're not cops and they know the tough neighborhood in which they all live. As the case progresses, Kenzie and Gennaro face drug dealers, gangs and pedophiles. When they are about to solve the case, they are faced with a moral dilemma that tears them apart.", "poster_path": "/dXXMPxGiRegd7NNCtE5uchAKRAG.jpg", "popularity": 16.498}, {"adult": false, "backdrop_path": "/uUYCUbgI5VxsUflTMI4Y9L2Y6vb.jpg", "genre_ids": [80, 18, 53], "id": 11423, "original_language": "ko", "original_title": "\uc0b4\uc778\uc758 \ucd94\uc5b5", "overview": "1986 Gyunggi Province. The body of a young woman is found brutally raped and murdered. Two months later, a series of rapes and murders commences under similar circumstances. And in a country that had never known such crimes, the dark whispers about a serial murderer grow louder. A special task force is set up in the area, with two local detectives Park Doo-Man and Jo Young-Goo joined by a detective from Seoul who requested to be assigned to the case.", "poster_path": "/gawnVe9cFowdoDLo9Pok12NTw39.jpg", "release_date": "2003-05-02", "title": "Memories of Murder", "video": false, "vote_average": 8.1, "vote_count": 1093, "popularity": 13.452}, {"adult": false, "backdrop_path": "/pA64Ov7lDpwXBu33yq0KpmAOYJL.jpg", "genre_ids": [27, 53], "id": 357096, "original_language": "en", "original_title": "I Spit on Your Grave III: Vengeance is Mine", "overview": "Jennifer Hills is still tormented by the brutal sexual assault she endured years ago. She\u2019s changed identities and cities, reluctantly joining a support group where she begins to piece together a new life. But when her new friend\u2019s murderer goes free and the tales of serial rapists haunt her, Jennifer will hunt down the men responsible and do what the system won\u2019t \u2013 make them pay for their crimes in the most horrific ways imaginable. Only this time, no jury may be able to save her.", "poster_path": "/6SnOlgrUoC5jqmgcYIM5lde5zYq.jpg", "release_date": "2015-10-01", "title": "I Spit on Your Grave III: Vengeance is Mine", "video": false, "vote_average": 5.3, "vote_count": 437, "popularity": 20.815}, {"adult": false, "backdrop_path": "/t3OZS8yMs0NL4YgWWc04eXHTn1X.jpg", "genre_ids": [28, 80, 53], "id": 984, "original_language": "en", "original_title": "Dirty Harry", "overview": "When a madman dubbed 'Scorpio' terrorizes San Francisco, hard-nosed cop, Harry Callahan \u2013 famous for his take-no-prisoners approach to law enforcement \u2013 is tasked with hunting down the psychopath. Harry eventually collars Scorpio in the process of rescuing a kidnap victim, only to see him walk on technicalities. Now, the maverick detective is determined to nail the maniac himself.", "poster_path": "/2TADKc4GMMPdMrLXj0xJVgTvZJM.jpg", "release_date": "1971-12-21", "title": "Dirty Harry", "video": false, "vote_average": 7.5, "vote_count": 1173, "popularity": 18.839}, {"id": 15069, "video": false, "vote_count": 75, "vote_average": 5.4, "title": "W\u0394Z", "release_date": "2007-05-19", "original_language": "en", "original_title": "W\u0394Z", "genre_ids": [80, 18, 27, 53], "backdrop_path": "/nVwdXjnbfulc6cymFgOQJctpspr.jpg", "adult": false, "overview": "There is something horribly wrong with the bodies found in the dark city streets. Some are mutilated while others have the Price equation (w\u0394z = Cov (w,z) = \u03b2wzVz) carved into their flesh. Detective Eddie Argo and his new partner Helen Westcott unearth the meaning of the odd equation and realise each victim is being offered a gruesome choice: kill your loved ones, or be killed. Before long it becomes clear that the perpetrator has suffered a similar fate and is now coping by seeking a way to solve this philosophical dilemma.", "poster_path": "/8lPZ59iQRqUELprKuB0myy7u6Zm.jpg", "popularity": 7.935}, {"adult": false, "backdrop_path": "/iNuvbrHGNtrUwlm48u4KnQhhMKp.jpg", "genre_ids": [80, 18, 53], "id": 26390, "original_language": "en", "original_title": "Brooklyn's Finest", "overview": "Enforcing the law within the notoriously rough Brownsville section of the city and especially within the Van Dyke housing projects is the NYPD's sixty-fifth precinct. Three police officers struggle with the sometimes fine line between right and wrong.", "poster_path": "/jKSBk0LtZgXxG56uvwiAtYf6ttF.jpg", "release_date": "2009-01-16", "title": "Brooklyn's Finest", "video": false, "vote_average": 6.4, "vote_count": 500, "popularity": 11.822}, {"id": 8090, "video": false, "vote_count": 448, "vote_average": 6.1, "title": "Untraceable", "release_date": "2008-01-22", "original_language": "en", "original_title": "Untraceable", "genre_ids": [9648, 53], "backdrop_path": "/eXuIPt9I1xuaVddlgzEQRC2EMnJ.jpg", "adult": false, "overview": "Special Agent Jennifer Marsh (Diane Lane) works in an elite division of the FBI dedicated to fighting cybercrime. She thinks she has seen it all, until a particularly sadistic criminal arises on the Internet. This tech-savvy killer posts live feeds of his crimes on his website; the more hits the site gets, the faster the victim dies. Marsh and her team must find the elusive killer before time runs out.", "poster_path": "/ySUwDRDEn01lKIMPQorpFCMLWqE.jpg", "popularity": 14.431}, {"adult": false, "backdrop_path": "/3naOwcmYNZfd80kC1OXmembjc8j.jpg", "genre_ids": [53, 28, 18], "id": 445954, "original_language": "en", "original_title": "Acts of Vengeance", "overview": "A fast-talking lawyer transforms his body and takes a vow of silence, not to be broken until he finds out who killed his wife and daughter and has his revenge.", "poster_path": "/r5o6vWPYOQs6bv91gQ8kQs2zQYl.jpg", "release_date": "2017-10-27", "title": "Acts of Vengeance", "video": false, "vote_average": 5.7, "vote_count": 234, "popularity": 15.211}, {"adult": false, "backdrop_path": "/kiWvoV78Cc3fUwkOHKzyBgVdrDD.jpg", "genre_ids": [37, 18, 12], "id": 281957, "original_language": "en", "original_title": "The Revenant", "overview": "In the 1820s, a frontiersman, Hugh Glass, sets out on a path of vengeance against those who left him for dead after a bear mauling.", "poster_path": "/oXUWEc5i3wYyFnL1Ycu8ppxxPvs.jpg", "release_date": "2015-12-25", "title": "The Revenant", "video": false, "vote_average": 7.5, "vote_count": 12127, "popularity": 24.135}, {"adult": false, "backdrop_path": "/bRGtZsVj2Qq8r5CCsNYmQUPF4z4.jpg", "genre_ids": [80, 18, 878, 53], "id": 10559, "original_language": "en", "original_title": "Frequency", "overview": "When a rare phenomenon gives police officer John Sullivan the chance to speak to his father, 30 years in the past, he takes the opportunity to prevent his dad's tragic death.  After his actions inadvertently give rise to a series of brutal murders he and his father must find a way to fix the consequences of altering time.", "poster_path": "/n0QAAZmIaPPIShVkk8eiKwfGV9.jpg", "release_date": "2000-04-28", "title": "Frequency", "video": false, "vote_average": 7.1, "vote_count": 897, "popularity": 14.026}, {"adult": false, "backdrop_path": "/cLGKawjQ5tUJCuDyR0OnGYT4fyf.jpg", "genre_ids": [18, 53, 80], "id": 146233, "original_language": "en", "original_title": "Prisoners", "overview": "When Keller Dover's daughter and her friend go missing, he takes matters into his own hands as the police pursue multiple leads and the pressure mounts. But just how far will this desperate father go to protect his family?", "poster_path": "/yAhqW57pwMAsCgmZpM5zSIVQVTh.jpg", "release_date": "2013-09-18", "title": "Prisoners", "video": false, "vote_average": 8.0, "vote_count": 6410, "popularity": 24.427}, {"id": 395834, "video": false, "vote_count": 2755, "vote_average": 7.4, "title": "Wind River", "release_date": "2017-08-03", "original_language": "en", "original_title": "Wind River", "genre_ids": [80, 18, 9648, 53], "backdrop_path": "/6B8e784decj9vtKuNjbl9Fes2aZ.jpg", "adult": false, "overview": "An FBI agent teams with the town's veteran game tracker to investigate a murder that occurred on a Native American reservation.", "poster_path": "/pySivdR845Hom4u4T2WNkJxe6Ad.jpg", "popularity": 16.931}, {"adult": false, "backdrop_path": "/u8YCDjufshSw6rpYOJNAchbzM1K.jpg", "genre_ids": [28, 18, 53], "id": 7007, "original_language": "en", "original_title": "Rising Sun", "overview": "When a prostitute is found dead in a Los Angeles skyscraper occupied by a large Japanese corporation, detectives John Conner and Web Smith are called in to investigate. Although Conner has previous experience working in Japan, cultural differences make their progress difficult until a security disc showing the murder turns up. Close scrutiny proves the disc has been doctored, and the detectives realize they're dealing with a cover-up as well.", "poster_path": "/d07rjd7e54ClVLoixmf6alTiDDj.jpg", "release_date": "1993-07-30", "title": "Rising Sun", "video": false, "vote_average": 6.1, "vote_count": 374, "popularity": 9.735}, {"id": 807, "video": false, "vote_count": 11937, "vote_average": 8.3, "title": "Se7en", "release_date": "1995-09-22", "original_language": "en", "original_title": "Se7en", "genre_ids": [80, 9648, 53], "backdrop_path": "/A0WKbRIojF9DUWG4XLCmg5JK6I5.jpg", "adult": false, "overview": "Two homicide detectives are on a desperate hunt for a serial killer whose crimes are based on the \"seven deadly sins\" in this dark and haunting film that takes viewers from the tortured remains of one victim to the next. The seasoned Det. Sommerset researches each sin in an effort to get inside the killer's mind, while his novice partner, Mills, scoffs at his efforts to unravel the case.", "poster_path": "/8zw8IL4zEPjkh8Aysdcd0FwGMb0.jpg", "popularity": 34.018}, {"id": 1632, "video": false, "vote_count": 770, "vote_average": 7.6, "title": "Mississippi Burning", "release_date": "1988-12-08", "original_language": "en", "original_title": "Mississippi Burning", "genre_ids": [80, 18, 53], "backdrop_path": "/4ypwob4uxh0q1osOFq2Wh7zdopT.jpg", "adult": false, "overview": "Two FBI agents investigating the murder of civil rights workers during the 60s seek to breach the conspiracy of silence in a small Southern town where segregation divides black and white. The younger agent trained in FBI school runs up against the small town ways of his partner, a former sheriff.", "poster_path": "/uSukdUQwx0l4rRuMXNqugR1tu4n.jpg", "popularity": 16.862}], "total_pages": 395, "total_results": 7896}, "recommendations": {"page": 1, "results": [], "total_pages": 1, "total_results": 0}, "credits": {"cast": [{"cast_id": 2, "character": "Jerry Franklin", "credit_id": "52fe4d6dc3a36847f826072f", "gender": 2, "id": 2007, "name": "Lew Ayres", "order": 0, "profile_path": "/8Z3YPfpxj5dR9jR5GGXWaoGmjAu.jpg"}, {"cast_id": 3, "character": "Mary Connor", "credit_id": "52fe4d6dc3a36847f8260733", "gender": 1, "id": 123120, "name": "Florence Rice", "order": 1, "profile_path": "/vkoj74SboWxtg7XR9C8j8YprUxU.jpg"}, {"cast_id": 4, "character": "Andy", "credit_id": "52fe4d6dc3a36847f8260737", "gender": 2, "id": 153337, "name": "Benny Baker", "order": 2, "profile_path": "/iEUV0hO3DDG8HdNZJViUe06DI7j.jpg"}, {"cast_id": 5, "character": "Gordon", "credit_id": "52fe4d6dc3a36847f826073b", "gender": 2, "id": 13361, "name": "Edwin Maxwell", "order": 3, "profile_path": "/8mLgclzsR9m7TOPDH2qgRAbsapi.jpg"}, {"cast_id": 6, "character": "Marvin Danker", "credit_id": "52fe4d6dc3a36847f826073f", "gender": 2, "id": 14454, "name": "Murray Alper", "order": 4, "profile_path": "/gt2IIpoK6M8YVgmTrqV6A3dDz7j.jpg"}, {"cast_id": 9, "character": "Chief Inspector Fitzgerald", "credit_id": "5d8626a35a469000219a9e3f", "gender": 2, "id": 30160, "name": "Charles C. Wilson", "order": 5, "profile_path": "/awAONzbcbB4Pw8JSIRYdVfKYG12.jpg"}, {"cast_id": 10, "character": "Major Bliss", "credit_id": "5d8626bbe78e2d001074ae83", "gender": 2, "id": 1009392, "name": "Wyrley Birch", "order": 6, "profile_path": "/wyNxUDSJ8qbVirPTZqXFEs1bfL8.jpg"}, {"cast_id": 11, "character": "Cillani", "credit_id": "5d862732e78e2d002974a3e4", "gender": 2, "id": 103501, "name": "Robert Emmett Keane", "order": 7, "profile_path": "/801kNUBxwr1BDuTS0rM6wr1469s.jpg"}, {"cast_id": 12, "character": "Lefty Dugan", "credit_id": "5d8627505a469000219aa083", "gender": 2, "id": 145828, "name": "Gene Morgan", "order": 8, "profile_path": "/wtrHqTGeno7LczG8UWOUit0Egoc.jpg"}, {"cast_id": 13, "character": "McNulty", "credit_id": "5d86278d336e01001915213d", "gender": 0, "id": 109677, "name": "Eddie Lee", "order": 9, "profile_path": null}, {"cast_id": 14, "character": "Bliss' Butler", "credit_id": "5d8627a8b76cbb0017df9529", "gender": 2, "id": 939842, "name": "Wilson Benge", "order": 10, "profile_path": null}, {"cast_id": 18, "character": "Gordon's Secretary", "credit_id": "5d8627ffe78e2d002974a57f", "gender": 2, "id": 119543, "name": "Harry Depp", "order": 11, "profile_path": null}, {"cast_id": 19, "character": "Johnson's Secretary", "credit_id": "5d862820336e0100191522a2", "gender": 0, "id": 1419086, "name": "Mary Lou Dix", "order": 12, "profile_path": "/k6pYpBURKm5VxGCQDRTtwowvLST.jpg"}, {"cast_id": 21, "character": "Johnson", "credit_id": "5d86284e5a469000219aa2da", "gender": 2, "id": 12502, "name": "Jonathan Hale", "order": 13, "profile_path": "/ajOXZDy3XsZkZ3OqsMBejg8BFXG.jpg"}, {"cast_id": 22, "character": "Finn Harrigan", "credit_id": "5d86286a22f5d70020a88aba", "gender": 2, "id": 93628, "name": "Harry Harvey", "order": 14, "profile_path": "/6YL4zhffF9rekiWv6twdn1h4jkN.jpg"}, {"cast_id": 23, "character": "Shiny White, Sandwich Man", "credit_id": "5d86288cb76cbb001fdf87a7", "gender": 2, "id": 89736, "name": "Si Jenks", "order": 15, "profile_path": "/se1vmf9YDvkI2u6sQB2TLH07RtA.jpg"}, {"cast_id": 24, "character": "Ed", "credit_id": "5d8628985a469000109aa157", "gender": 0, "id": 1041747, "name": "Ethan Laidlaw", "order": 16, "profile_path": "/uMHfrpwbk6XBEeqsxY6jWnZjKKC.jpg"}, {"cast_id": 16, "character": "Groundskeeper", "credit_id": "5d8627ccb76cbb001fdf8596", "gender": 2, "id": 137401, "name": "Harry Bernard", "order": 17, "profile_path": null}, {"cast_id": 15, "character": "Bellhop", "credit_id": "5d8627b922f5d70018a87ec3", "gender": 2, "id": 1283203, "name": "Mickey Bennett", "order": 18, "profile_path": null}, {"cast_id": 20, "character": "Page Boy", "credit_id": "5d8628325a469000109aa0e9", "gender": 0, "id": 1126708, "name": "Rolf Ernest", "order": 19, "profile_path": null}, {"cast_id": 25, "character": "Bartender", "credit_id": "5d8628adb76cbb000edf6514", "gender": 2, "id": 34333, "name": "Arthur Loft", "order": 20, "profile_path": "/eFaXh7N58cEz15pJgehAKNJOQJg.jpg"}, {"cast_id": 26, "character": "Cigarette Girl", "credit_id": "5d8628d35a469000299a9e71", "gender": 1, "id": 100594, "name": "Lucille Lund", "order": 21, "profile_path": "/z9DUSYg6Y5BfNV3FAPECpMGvhAO.jpg"}, {"cast_id": 29, "character": "Radio Technician", "credit_id": "5d86290b22f5d70028a8bd1b", "gender": 2, "id": 130496, "name": "Arthur Rankin", "order": 22, "profile_path": "/7adpNmR3b84QGP89vqUcHOZ0Rab.jpg"}, {"cast_id": 27, "character": "Policeman", "credit_id": "5d8628e8e78e2d001074b2eb", "gender": 0, "id": 1357958, "name": "Clyde McAtee", "order": 23, "profile_path": null}, {"cast_id": 28, "character": "Policeman", "credit_id": "5d8628f722f5d7000fa87764", "gender": 0, "id": 1336787, "name": "Earl Pingree", "order": 24, "profile_path": null}, {"cast_id": 17, "character": "Taxi Driver", "credit_id": "5d8627dc5a469000219aa1ce", "gender": 2, "id": 1086622, "name": "Joe Bordeaux", "order": 25, "profile_path": null}, {"cast_id": 30, "character": "Taxi Driver", "credit_id": "5d86291eb76cbb000edf65d9", "gender": 2, "id": 955691, "name": "Harry Tenbrook", "order": 26, "profile_path": "/huE2pp39vwaVTykcU3DoCw4kifL.jpg"}], "crew": [{"credit_id": "5d862a72b76cbb000edf67c0", "department": "Sound", "gender": 0, "id": 14025, "job": "Sound Engineer", "name": "Glenn Rominger", "profile_path": null}, {"credit_id": "52fe4d6dc3a36847f8260745", "department": "Writing", "gender": 2, "id": 88642, "job": "Screenplay", "name": "Harold Shumate", "profile_path": null}, {"credit_id": "5d862a13336e01002914e915", "department": "Camera", "gender": 2, "id": 96726, "job": "Director of Photography", "name": "Benjamin H. Kline", "profile_path": null}, {"credit_id": "52fe4d6dc3a36847f826072b", "department": "Directing", "gender": 0, "id": 111462, "job": "Director", "name": "D. Ross Lederman", "profile_path": "/qPHIdiVCkuSjAhqGkVE9tVJ4hZ9.jpg"}, {"credit_id": "5d862a2ee78e2d002974ab40", "department": "Editing", "gender": 2, "id": 172518, "job": "Editor", "name": "James Sweeney", "profile_path": null}, {"credit_id": "5d86298f22f5d7000fa87887", "department": "Production", "gender": 2, "id": 328697, "job": "Associate Producer", "name": "Ralph Cohn", "profile_path": null}, {"credit_id": "5d862a03336e01001115333f", "department": "Production", "gender": 2, "id": 1020761, "job": "Executive Producer", "name": "Robert North", "profile_path": null}, {"credit_id": "52fe4d6dc3a36847f826074b", "department": "Writing", "gender": 0, "id": 1171110, "job": "Story", "name": "Theodore S. Tinsley", "profile_path": null}, {"credit_id": "5d862a4bb76cbb001fdf8a5b", "department": "Directing", "gender": 2, "id": 1323482, "job": "Assistant Director", "name": "Morey Lightfoot", "profile_path": null}]}}