{"adult": false, "backdrop_path": "/qjVkJX1z4Kj6ECQdlMof5QsXqWr.jpg", "belongs_to_collection": null, "budget": 0, "genres": [], "homepage": null, "id": 177085, "imdb_id": "tt0167250", "original_language": "en", "original_title": "Late Last Night", "overview": "After a fight with his wife, who's leaving him, Dan's day is getting worse by the minute. He calls an old friend for a night of binge drinking and intoxication. They start a cathartic ride through the city's underbelly.", "popularity": 2.008, "poster_path": "/iT8TdXXzXEkDu2Nc340Z666wB3Y.jpg", "production_companies": [{"id": 6765, "logo_path": null, "name": "Sterling Entertainment", "origin_country": ""}, {"id": 8992, "logo_path": null, "name": "Scanbox", "origin_country": ""}], "production_countries": [{"iso_3166_1": "US", "name": "United States of America"}], "release_date": "1999-06-20", "revenue": 0, "runtime": 90, "spoken_languages": [], "status": "Released", "tagline": "", "title": "Late Last Night", "video": false, "vote_average": 7.0, "vote_count": 2, "keywords": {"keywords": [{"id": 567, "name": "alcohol"}, {"id": 572, "name": "sex"}, {"id": 2796, "name": "self-discovery"}, {"id": 6054, "name": "friendship"}, {"id": 11494, "name": "drug use"}, {"id": 14534, "name": "relationship"}, {"id": 15160, "name": "divorce"}]}, "similar": {"page": 1, "results": [{"adult": false, "backdrop_path": "/Ao2bnJMmcFepMVw1BUay25tt7TM.jpg", "genre_ids": [18, 10749], "id": 1259, "original_language": "en", "original_title": "Notes on a Scandal", "overview": "A veteran high school teacher befriends a younger art teacher, who is having an affair with one of her 15-year-old students. However, her intentions with this new \"friend\" also go well beyond platonic friendship.", "poster_path": "/lXZa1mHZ8eD0VOpNaLfvM9tSpAj.jpg", "release_date": "2006-12-25", "title": "Notes on a Scandal", "video": false, "vote_average": 7.1, "vote_count": 463, "popularity": 12.753}, {"id": 12531, "video": false, "vote_count": 91, "vote_average": 6.9, "title": "The Apartment", "release_date": "1996-07-27", "original_language": "fr", "original_title": "L'Appartement", "genre_ids": [18, 9648, 10749], "backdrop_path": "/64qyT8m4JQ6YODvXxtbHgKmXBX7.jpg", "adult": false, "overview": "A stylish suspense thriller that confounds the audience while presenting them with an extraordinary and elusive mystery. Max is a former playboy who has decided to settle down by marrying his current love, Muriel. However, during a business trip, Max catches a glimpse of the great lost love of his life, reviving his wanderlust and sending him off on a chase of the elusive Lisa, whom he had overheard suggesting to a friend that her lover, Daniel, had killed someone for her. Soon, Max is trying to unravel the mystery behind the suspicious death of Daniel's wife, which he hopes will lead him closer to Lisa.", "poster_path": "/1sqrQdQTn8jKLhUcPKfRVj639zA.jpg", "popularity": 19.17}, {"adult": false, "backdrop_path": "/6QNqvsrOIFuz67Nq97ItD2byVa5.jpg", "genre_ids": [18], "id": 12271, "original_language": "en", "original_title": "Factory Girl", "overview": "In the mid-1960s, wealthy debutant Edie Sedgwick meets artist Andy Warhol. She joins Warhol's famous Factory and becomes his muse. Although she seems to have it all, Edie cannot have the love she craves from Andy, and she has an affair with a charismatic musician, who pushes her to seek independence from the artist and the milieu.", "poster_path": "/inaRwOEDPzYRDnqLi0lQZLQPLCL.jpg", "release_date": "2006-12-29", "title": "Factory Girl", "video": false, "vote_average": 6.1, "vote_count": 144, "popularity": 7.549}, {"adult": false, "backdrop_path": "/275ywEHPVfW47kJXiRDQgYM5ax9.jpg", "genre_ids": [18, 9648], "id": 9777, "original_language": "en", "original_title": "Proof", "overview": "Catherine is a woman in her late twenties who is strongly devoted to her father, Robert, a brilliant and well-known mathematician whose grip on reality is beginning to slip away. As Robert descends into madness, Catherine begins to wonder if she may have inherited her father\u2019s mental illness along with his mathematical genius. When Robert\u2019s work reveals a mathematical proof of potentially historic proportions, it sets off shock waves in more ways than one.", "poster_path": "/eGVCVdbUR4gaAKPk1P4mar91qSX.jpg", "release_date": "2005-09-05", "title": "Proof", "video": false, "vote_average": 6.4, "vote_count": 380, "popularity": 9.051}, {"id": 179144, "video": false, "vote_count": 1725, "vote_average": 7.5, "title": "The Great Beauty", "release_date": "2013-05-21", "original_language": "it", "original_title": "La grande bellezza", "genre_ids": [18], "backdrop_path": "/BvJAJuAnIooQQGzRdFTY9Oy6Wj.jpg", "adult": false, "overview": "Jep Gambardella has seduced his way through the lavish nightlife of Rome for decades, but after his 65th birthday and a shock from the past, Jep looks past the nightclubs and parties to find a timeless landscape of absurd, exquisite beauty.", "poster_path": "/nDBRRkZgaGhJw91wdcUFYwWIbFF.jpg", "popularity": 15.136}, {"adult": false, "backdrop_path": "/i2h4lbb7r1zyHJjIEPviW7RZnty.jpg", "genre_ids": [18, 10749], "id": 14313, "original_language": "en", "original_title": "Feast of Love", "overview": "A meditation on love and its various incarnations, set within a community of friends in Oregon. It is described as an exploration of the magical, mysterious and sometimes painful incarnations of love.", "poster_path": "/5mKRVEghvoFpFRYZ0GT0uTovXZo.jpg", "release_date": "2007-09-28", "title": "Feast of Love", "video": false, "vote_average": 6.1, "vote_count": 116, "popularity": 8.0}, {"adult": false, "backdrop_path": "/bYbnlh6VXFRtcSX82UMDsBDLB5j.jpg", "genre_ids": [18, 10749], "id": 28468, "original_language": "it", "original_title": "La chiave", "overview": "After twenty years of marriage, art professor Nino Rolfe attempts to break down his wife Teresa's conventional modesty. Noticing her affection for their daughter's fianc\u00e9, Nino instigates her sexual interest in him as well. This sets off a chain of unexpected events and emotional complications, as Nino and his unpredictable fascist daughter find that they both enjoy being jealous.", "poster_path": "/e6g2geNLgFzMbriH6EvSJZD78nx.jpg", "release_date": "1983-10-18", "title": "The Key", "video": false, "vote_average": 5.0, "vote_count": 128, "popularity": 15.363}, {"id": 38, "video": false, "vote_count": 8445, "vote_average": 8.1, "title": "Eternal Sunshine of the Spotless Mind", "release_date": "2004-03-19", "original_language": "en", "original_title": "Eternal Sunshine of the Spotless Mind", "genre_ids": [18, 878, 10749], "backdrop_path": "/1dXTsaFxHoF9cas08UjAqE8NqOW.jpg", "adult": false, "overview": "Joel Barish, heartbroken that his girlfriend underwent a procedure to erase him from her memory, decides to do the same. However, as he watches his memories of her fade away, he realises that he still loves her, and may be too late to correct his mistake.", "poster_path": "/7y3eYvTsGjxPYDtSnumCLIMDkrV.jpg", "popularity": 22.427}, {"id": 263472, "video": false, "vote_count": 1669, "vote_average": 5.0, "title": "Knock Knock", "release_date": "2015-06-26", "original_language": "en", "original_title": "Knock Knock", "genre_ids": [18, 53], "backdrop_path": "/gJduaRau3X2oE3xkmjs1FufT2GE.jpg", "adult": false, "overview": "When a devoted husband and father is left home alone for the weekend, two stranded young women unexpectedly knock on his door for help. What starts out as a kind gesture results in a dangerous seduction and a deadly game of cat and mouse.", "poster_path": "/eynMtjBB1fXsB5vsQylVmsDLmvw.jpg", "popularity": 19.205}, {"adult": false, "backdrop_path": "/uC54rlRdLMZ46fnrz5SoVYleNyv.jpg", "genre_ids": [18], "id": 4995, "original_language": "en", "original_title": "Boogie Nights", "overview": "Set in 1977, back when sex was safe, pleasure was a business and business was booming, idealistic porn producer Jack Horner aspires to elevate his craft to an art form. Horner discovers Eddie Adams, a hot young talent working as a busboy in a nightclub, and welcomes him into the extended family of movie-makers, misfits and hangers-on that are always around. Adams' rise from nobody to a celebrity adult entertainer is meteoric, and soon the whole world seems to know his porn alter ego, \"Dirk Diggler\". Now, when disco and drugs are in vogue, fashion is in flux and the party never seems to stop, Adams' dreams of turning sex into stardom are about to collide with cold, hard reality.", "poster_path": "/gTq6MPt7SeMiJ2miHeMoNEZTz4p.jpg", "release_date": "1997-10-07", "title": "Boogie Nights", "video": false, "vote_average": 7.6, "vote_count": 1660, "popularity": 21.563}, {"adult": false, "backdrop_path": "/74Jh5SIWnKDwtusPfDP51EeCFHt.jpg", "genre_ids": [35, 10749], "id": 9576, "original_language": "en", "original_title": "Tootsie", "overview": "When struggling, out of work actor Michael Dorsey secretly adopts a female alter ego - Dorothy Michaels - in order to land a part in a daytime drama, he unwittingly becomes a feminist icon and ends up in a romantic pickle.", "poster_path": "/ngyCzZwb9y5sMUCig5JQT4Y33Q.jpg", "release_date": "1982-12-16", "title": "Tootsie", "video": false, "vote_average": 7.2, "vote_count": 915, "popularity": 9.882}, {"adult": false, "backdrop_path": "/bQW1TnxHlmkWof0vsALj4HBkoxj.jpg", "genre_ids": [18, 10749], "id": 51828, "original_language": "en", "original_title": "One Day", "overview": "A romantic comedy centered on Dexter and Emma, who first meet during their graduation in 1988 and proceed to keep in touch regularly. The film follows what they do on July 15 annually, usually doing something together.", "poster_path": "/xzOz17yC3K6SZWtWylXimcHUqpD.jpg", "release_date": "2011-03-02", "title": "One Day", "video": false, "vote_average": 7.2, "vote_count": 2343, "popularity": 16.744}, {"adult": false, "backdrop_path": "/xC9cG6Wy6QbH2hoAx11xPPD995R.jpg", "genre_ids": [18, 10749], "id": 86331, "original_language": "fr", "original_title": "Q", "overview": "In a social context deteriorated by a countrywide economic crisis, the life of several people will be turned upside down after they meet Cecile, a character who symbolizes desire.", "poster_path": "/9Jg9s4yTEndNmy1SSXRF9jdxY9D.jpg", "release_date": "2011-09-14", "title": "Desire", "video": false, "vote_average": 4.6, "vote_count": 204, "popularity": 25.756}, {"id": 4964, "video": false, "vote_count": 2405, "vote_average": 6.2, "title": "Knocked Up", "release_date": "2007-06-01", "original_language": "en", "original_title": "Knocked Up", "genre_ids": [35, 18, 10749], "backdrop_path": "/cmEojt7Ykuk6p2argyu0hEDoo0d.jpg", "adult": false, "overview": "For fun loving party animal Ben Stone, the last thing he ever expected was for his one night stand to show up on his doorstep eight weeks later to tell him she's pregnant.", "poster_path": "/b4OaXw2MW97VvIiZE0Sbn1NfxSh.jpg", "popularity": 19.715}, {"id": 376659, "video": false, "vote_count": 2897, "vote_average": 6.5, "title": "Bad Moms", "release_date": "2016-07-28", "original_language": "en", "original_title": "Bad Moms", "genre_ids": [35], "backdrop_path": "/elPpPBuYB2Zn5wFwz2FSlJlKUjp.jpg", "adult": false, "overview": "When three overworked and under-appreciated moms are pushed beyond their limits, they ditch their conventional responsibilities for a jolt of long overdue freedom, fun, and comedic self-indulgence.", "poster_path": "/9PaIkUnfOcU1wi5cFbamnmAkjEs.jpg", "popularity": 22.619}, {"adult": false, "backdrop_path": "/gZeJziVigmRqbkEZwKAtSqlLQ6s.jpg", "genre_ids": [18, 10749], "id": 370663, "original_language": "en", "original_title": "Below Her Mouth", "overview": "An unexpected affair quickly escalates into a heart-stopping reality for two women whose passionate connection changes their lives forever.", "poster_path": "/nTGbq37hYLuNy7YgMg0gVLma0NS.jpg", "release_date": "2016-09-10", "title": "Below Her Mouth", "video": false, "vote_average": 6.2, "vote_count": 456, "popularity": 18.664}, {"id": 272693, "video": false, "vote_count": 3249, "vote_average": 6.8, "title": "The DUFF", "release_date": "2015-02-20", "original_language": "en", "original_title": "The DUFF", "genre_ids": [35, 10749], "backdrop_path": "/awGZf5T1hflis9Z2KvRMhp798xU.jpg", "adult": false, "overview": "Bianca's universe turns upside down when she learns that her high school refers to her as a \u2018DUFF' (Designated Ugly Fat Friend). Hoping to erase that label, she enlists the help of a charming jock and her favorite teacher. Together they'll face the school's mean girl and remind everyone that we are all someone's DUFF\u2026 and that's totally fine.", "poster_path": "/dBBgPTCN5Zze4POXWVVpwf3wkra.jpg", "popularity": 17.232}, {"id": 10995, "video": false, "vote_count": 255, "vote_average": 6.6, "title": "The Lover", "release_date": "1992-02-22", "original_language": "fr", "original_title": "L'Amant", "genre_ids": [18, 10749], "backdrop_path": "/zRAgf1F0rRp0Tys8AnMWGBFJRZv.jpg", "adult": false, "overview": "A poor French teenage girl engages in an illicit affair with a wealthy Chinese heir in 1920s Saigon. For the first time in her young life she has control, and she wields it deftly over her besotted lover throughout a series of clandestine meetings and torrid encounters.", "poster_path": "/iey1UA4hav2cn60qGi1zgKxpPBl.jpg", "popularity": 13.161}, {"adult": false, "backdrop_path": "/aWLIsFyLSX81Z0ORQQpxMFm1zFw.jpg", "genre_ids": [35], "id": 188222, "original_language": "en", "original_title": "Entourage", "overview": "Movie star Vincent Chase, together with his boys, Eric, Turtle and Johnny, are back\u2026and back in business with super agent-turned-studio head Ari Gold. Some of their ambitions have changed, but the bond between them remains strong as they navigate the capricious and often cutthroat world of Hollywood.", "poster_path": "/eXFOwg43NeZAv4BgXTlmdp7pzRG.jpg", "release_date": "2015-06-03", "title": "Entourage", "video": false, "vote_average": 6.2, "vote_count": 669, "popularity": 18.152}, {"adult": false, "backdrop_path": "/fwreQBx5CD55c1DpH117cS8915P.jpg", "genre_ids": [18, 53], "id": 867, "original_language": "en", "original_title": "Sliver", "overview": "A woman moves into an apartment in Manhattan and learns that the previous tenant's life ended mysteriously after they fell from the balcony.", "poster_path": "/av21Dfu31DQPtp5jkorMMS58rQC.jpg", "release_date": "1993-05-21", "title": "Sliver", "video": false, "vote_average": 5.3, "vote_count": 288, "popularity": 19.094}], "total_pages": 33, "total_results": 647}, "recommendations": {"page": 1, "results": [], "total_pages": 1, "total_results": 0}, "credits": {"cast": [{"cast_id": 1, "character": "Dan", "credit_id": "52fe4d7dc3a36847f8263de9", "gender": 2, "id": 2880, "name": "Emilio Estevez", "order": 0, "profile_path": "/2NSM4zFrw3i16UYdUhfETVjqC4I.jpg"}, {"cast_id": 2, "character": "Jeff", "credit_id": "52fe4d7ec3a36847f8263ded", "gender": 2, "id": 6106, "name": "Steven Weber", "order": 1, "profile_path": "/8FtkapenCOpe39eE1sQus5WLWAq.jpg"}, {"cast_id": 3, "character": "Jill", "credit_id": "52fe4d7ec3a36847f8263df1", "gender": 1, "id": 47757, "name": "Kelly Rowan", "order": 2, "profile_path": "/uxrGUfhLtqZXhy35r4RsHpZNz6Z.jpg"}, {"cast_id": 4, "character": "Angel", "credit_id": "52fe4d7ec3a36847f8263df5", "gender": 1, "id": 156485, "name": "Leah Lail", "order": 3, "profile_path": "/jP6HKEI3GV32s1uVxpFHrc1vXR1.jpg"}, {"cast_id": 5, "character": "Tristan", "credit_id": "52fe4d7ec3a36847f8263df9", "gender": 1, "id": 154529, "name": "Lisa Robin Kelly", "order": 4, "profile_path": "/nXl7WqMMPUlKNijjay3VxmyHOcq.jpg"}, {"cast_id": 6, "character": "Dr. Fontes", "credit_id": "52fe4d7ec3a36847f8263dfd", "gender": 1, "id": 11514, "name": "Catherine O'Hara", "order": 5, "profile_path": "/cMBxHeztNVc8YXKcj084Mdd3f3U.jpg"}, {"cast_id": 7, "character": "Sgt. Van Wyck", "credit_id": "52fe4d7ec3a36847f8263e01", "gender": 2, "id": 3911, "name": "John Carroll Lynch", "order": 6, "profile_path": "/5eEGOANKnCCj7FLa3oV28gGYWkW.jpg"}, {"cast_id": 8, "character": "Ponzo", "credit_id": "52fe4d7ec3a36847f8263e05", "gender": 2, "id": 16861, "name": "John Hawkes", "order": 7, "profile_path": "/bz4usMR7NWEgVgWTxVBLEjCo3Dv.jpg"}], "crew": [{"credit_id": "52fe4d7ec3a36847f8263e0b", "department": "Directing", "gender": 2, "id": 32593, "job": "Director", "name": "Steven Brill", "profile_path": "/9CpoLVxDKV2XRF3rigTNSVimJK1.jpg"}, {"credit_id": "52fe4d7ec3a36847f8263e11", "department": "Writing", "gender": 2, "id": 32593, "job": "Writer", "name": "Steven Brill", "profile_path": "/9CpoLVxDKV2XRF3rigTNSVimJK1.jpg"}]}}