{"adult": false, "backdrop_path": "/7EGxcScmTQAiV0ZqAalFuEXOZVO.jpg", "belongs_to_collection": {"id": 415931, "name": "The Bowery Boys", "poster_path": "/q6sA4bzMT9cK7EEmXYwt7PNrL5h.jpg", "backdrop_path": "/foe3kuiJmg5AklhtD3skWbaTMf2.jpg"}, "budget": 0, "genres": [{"id": 35, "name": "Comedy"}], "homepage": null, "id": 178569, "imdb_id": "tt0048222", "original_language": "en", "original_title": "Jail Busters", "overview": "Slip and Sach (Bowery Boys) go to prison to help a reporter with a story.", "popularity": 2.044, "poster_path": "/w2NfdMC2CgbtnwqIXUTnppznY8e.jpg", "production_companies": [{"id": 4928, "logo_path": null, "name": "Allied Artists Pictures", "origin_country": ""}], "production_countries": [{"iso_3166_1": "US", "name": "United States of America"}], "release_date": "1955-09-18", "revenue": 0, "runtime": 61, "spoken_languages": [{"iso_639_1": "en", "name": "English"}], "status": "Released", "tagline": "YARD-BOIDS in a GILDED CAGE!", "title": "Jail Busters", "video": false, "vote_average": 6.0, "vote_count": 2, "keywords": {"keywords": [{"id": 378, "name": "prison"}, {"id": 190483, "name": "bowery boys"}]}, "similar": {"page": 1, "results": [{"id": 107846, "video": false, "vote_count": 3131, "vote_average": 6.7, "title": "Escape Plan", "release_date": "2013-10-09", "original_language": "en", "original_title": "Escape Plan", "genre_ids": [28, 53], "backdrop_path": "/lDmAQexExnvfKAG8fvx04ro6Ly4.jpg", "adult": false, "overview": "Ray Breslin is the world's foremost authority on structural security. After analyzing every high security prison and learning a vast array of survival skills so he can design escape-proof prisons, his skills are put to the test. He's framed and incarcerated in a master prison he designed himself. He needs to escape and find the person who put him behind bars.", "poster_path": "/j3XZwBeWgoAbVmkW3JyOme79I2e.jpg", "popularity": 19.433}, {"adult": false, "backdrop_path": "/nnP2m2MuHZmC5aeqlL5fRD0G149.jpg", "genre_ids": [80, 18, 35], "id": 1554, "original_language": "en", "original_title": "Down by Law", "overview": "A disc jockey, a pimp and an Italian tourist escape from jail in New Orleans.", "poster_path": "/4IyxoUQ7BB5kcSd7gASe2dTyWu7.jpg", "release_date": "1986-09-20", "title": "Down by Law", "video": false, "vote_average": 7.5, "vote_count": 325, "popularity": 7.916}, {"id": 1701, "video": false, "vote_count": 2370, "vote_average": 6.7, "title": "Con Air", "release_date": "1997-06-01", "original_language": "en", "original_title": "Con Air", "genre_ids": [28, 80, 53], "backdrop_path": "/aX2mwtawBe2TD1csPBYvm03sx3a.jpg", "adult": false, "overview": "When the government puts all its rotten criminal eggs in one airborne basket, it's asking for trouble. Before you can say, \"Pass the barf bag,\" the crooks control the plane, led by creepy Cyrus \"The Virus\" Grissom. Watching his every move is the just-released Cameron Poe, who'd rather reunite with his family.", "poster_path": "/yhaOQ7xXw0PLHLvg1w0M9zlPdg6.jpg", "popularity": 27.211}, {"id": 10734, "video": false, "vote_count": 1344, "vote_average": 7.5, "title": "Escape from Alcatraz", "release_date": "1979-06-22", "original_language": "en", "original_title": "Escape from Alcatraz", "genre_ids": [80, 18], "backdrop_path": "/doJGjcWPpuGuDPJwCpCNnYUG9x4.jpg", "adult": false, "overview": "Escape from Alcatraz tells the story of the only three men ever to escape from the infamous maximum security prison at Alcatraz. In 29 years, the seemingly impenetrable federal penitentiary, which housed Al Capone and \"Birdman\" Robert Stroud, was only broken once - by three men never heard of again.", "poster_path": "/lBAxIEywz3KfzXimn9qHBArLHU8.jpg", "popularity": 32.525}, {"id": 278, "video": false, "vote_count": 14752, "vote_average": 8.7, "title": "The Shawshank Redemption", "release_date": "1994-09-23", "original_language": "en", "original_title": "The Shawshank Redemption", "genre_ids": [80, 18], "backdrop_path": "/j9XKiZrVeViAixVRzCta7h1VU9W.jpg", "adult": false, "overview": "Framed in the 1940s for the double murder of his wife and her lover, upstanding banker Andy Dufresne begins a new life at the Shawshank prison, where he puts his accounting skills to work for an amoral warden. During his long stretch in prison, Dufresne comes to be admired by the other inmates -- including an older prisoner named Red -- for his integrity and unquenchable sense of hope.", "poster_path": "/9O7gLzmreU0nGkIB6K3BsJbzvNv.jpg", "popularity": 42.206}, {"adult": false, "backdrop_path": "/5CPIk2eE3Nk4UPwx5HCHKDdIiJs.jpg", "genre_ids": [35, 27, 878], "id": 11429, "original_language": "en", "original_title": "Beyond Re-Animator", "overview": "Once again tampering with mother nature to disastrous results, Dr. Herbert West continues his research while serving time in a maximum security prison for his previous exploits. West's limited prison-cell experiments are suddenly interrupted by the arrival of a new prison doctor and the brother of the girl who suffered from West's experiments 13 years earlier.", "poster_path": "/7K8odajc1QUaeOtD5XvlBiWzypQ.jpg", "release_date": "2003-04-04", "title": "Beyond Re-Animator", "video": false, "vote_average": 5.5, "vote_count": 124, "popularity": 10.121}, {"adult": false, "backdrop_path": "/tK2ElPDTp0pM8w5BZbuaEHbzaHs.jpg", "genre_ids": [53, 28, 35, 80, 18], "id": 150, "original_language": "en", "original_title": "48 Hrs.", "overview": "A hard-nosed cop reluctantly teams up with a wise-cracking criminal temporarily paroled to him, in order to track down a killer.", "poster_path": "/rq8NvwC5tC2E8SNU1CF8iJJErNQ.jpg", "release_date": "1982-12-07", "title": "48 Hrs.", "video": false, "vote_average": 6.6, "vote_count": 735, "popularity": 13.24}, {"id": 5924, "video": false, "vote_count": 947, "vote_average": 8.0, "title": "Papillon", "release_date": "1973-12-13", "original_language": "en", "original_title": "Papillon", "genre_ids": [80, 18], "backdrop_path": "/w6XYdZIXZlMNL2efDXdXI6q4lhm.jpg", "adult": false, "overview": "A man befriends a fellow criminal as the two of them begin serving their sentence on a dreadful prison island, which inspires the man to plot his escape.", "poster_path": "/cPKfxaWXNkVkHLSV2nb06RfvrSM.jpg", "popularity": 12.566}, {"adult": false, "backdrop_path": "/nb70B4EXuoegiQ0C5N1fNVHIaYc.jpg", "genre_ids": [12, 18, 36, 53, 10752], "id": 5925, "original_language": "en", "original_title": "The Great Escape", "overview": "The Nazis, exasperated at the number of escapes from their prison camps by a relatively small number of Allied prisoners, relocates them to a high-security 'escape-proof' camp to sit out the remainder of the war. Undaunted, the prisoners plan one of the most ambitious escape attempts of World War II. Based on a true story.", "poster_path": "/qhy4HgUqhEbwQ1ekKTv7yEB3b0e.jpg", "release_date": "1963-06-20", "title": "The Great Escape", "video": false, "vote_average": 8.0, "vote_count": 1359, "popularity": 19.093}, {"id": 708, "video": false, "vote_count": 845, "vote_average": 6.4, "title": "The Living Daylights", "release_date": "1987-06-29", "original_language": "en", "original_title": "The Living Daylights", "genre_ids": [28, 12, 53], "backdrop_path": "/gt0TafbcheJeT9SFewDLqYWk3Sd.jpg", "adult": false, "overview": "James Bond helps a Russian General escape into the west. He soon finds out that the KGB wants to kill him for helping the General. A little while later the General is kidnapped from the Secret Service leading 007 to be suspicious.", "poster_path": "/yEryMe58dx7zm1QBhQFeuYcv2aH.jpg", "popularity": 17.272}, {"id": 12088, "video": false, "vote_count": 316, "vote_average": 5.9, "title": "Fortress", "release_date": "1992-09-30", "original_language": "en", "original_title": "Fortress", "genre_ids": [28, 878, 53], "backdrop_path": "/csGyWqK4dTAtSPpreU26TzoY9ua.jpg", "adult": false, "overview": "A futuristic prison movie. Protagonist and wife are nabbed at a future US emigration point with an illegal baby during population control. The resulting prison experience is the subject of the movie. The prison is a futuristic one run by a private corporation bent on mind control in various ways", "poster_path": "/evjpqWPUY4VpOdyLpeRfkGU8DiR.jpg", "popularity": 14.843}, {"adult": false, "backdrop_path": "/arcpWGGnUkGkakOwZo7xfPsaz7h.jpg", "genre_ids": [9648, 53], "id": 2832, "original_language": "en", "original_title": "Identity", "overview": "Complete strangers stranded at a remote desert motel during a raging storm soon find themselves the target of a deranged murderer. As their numbers thin out, the travelers begin to turn on each other, as each tries to figure out who the killer is.", "poster_path": "/xSNSp2wmCUwFavxdkMF417hBc39.jpg", "release_date": "2003-04-25", "title": "Identity", "video": false, "vote_average": 7.2, "vote_count": 2091, "popularity": 19.629}, {"adult": false, "backdrop_path": "/xiBsA8Qj5KhO4cUKz6RHDtKpBGs.jpg", "genre_ids": [28, 12, 53, 10752], "id": 1368, "original_language": "en", "original_title": "First Blood", "overview": "When former Green Beret John Rambo is harassed by local law enforcement and arrested for vagrancy, the Vietnam vet snaps, runs for the hills and rat-a-tat-tats his way into the action-movie hall of fame. Hounded by a relentless sheriff, Rambo employs heavy-handed guerilla tactics to shake the cops off his tail.", "poster_path": "/wOsPbJixVc80iilfcByLKPAKz6G.jpg", "release_date": "1982-10-22", "title": "First Blood", "video": false, "vote_average": 7.4, "vote_count": 3235, "popularity": 29.852}, {"adult": false, "backdrop_path": "/9lrM0o89ASyHmDgMLfCbU5qdsAm.jpg", "genre_ids": [35, 18], "id": 9291, "original_language": "en", "original_title": "The Longest Yard", "overview": "Pro quarter-back, Paul Crewe and former college champion and coach, Nate Scarboro are doing time in the same prison. Asked to put together a team of inmates to take on the guards, Crewe enlists the help of Scarboro to coach the inmates to victory in a football game 'fixed' to turn out quite another way.", "poster_path": "/ag6q9euZABqbHtbDhoRT9xEYltP.jpg", "release_date": "2005-05-27", "title": "The Longest Yard", "video": false, "vote_average": 6.4, "vote_count": 1766, "popularity": 16.3}, {"adult": false, "backdrop_path": "/5UhVmv70qTfy7YSf8r87kNXWxjK.jpg", "genre_ids": [18, 53, 9648], "id": 638, "original_language": "en", "original_title": "Lost Highway", "overview": "A tormented jazz musician finds himself lost in an enigmatic story involving murder, surveillance, gangsters, doppelgangers, and an impossible transformation inside a prison cell.", "poster_path": "/z6yhgEzGUJaBBgAxoyggRzwLnVM.jpg", "release_date": "1997-01-15", "title": "Lost Highway", "video": false, "vote_average": 7.6, "vote_count": 1279, "popularity": 17.633}, {"id": 227159, "video": false, "vote_count": 2803, "vote_average": 6.1, "title": "Horrible Bosses 2", "release_date": "2014-11-26", "original_language": "en", "original_title": "Horrible Bosses 2", "genre_ids": [35], "backdrop_path": "/7OluTl9LoaMDZ2MVdrFVuU2os09.jpg", "adult": false, "overview": "Dale, Kurt and Nick decide to start their own business but things don't go as planned because of a slick investor, prompting the trio to pull off a harebrained and misguided kidnapping scheme.", "poster_path": "/boBOkwIqgrs8noxBUSDkkicKa4K.jpg", "popularity": 25.43}, {"adult": false, "backdrop_path": "/q3eNcig4YFEsUTnmIYDA90FdndO.jpg", "genre_ids": [10402, 35, 28, 80], "id": 525, "original_language": "en", "original_title": "The Blues Brothers", "overview": "Jake Blues is just out of jail, and teams up with his brother, Elwood on a 'mission from God' to raise funds for the orphanage in which they grew up. The only thing they can do is do what they do best: play music. So they get their old band together, and set out on their way\u2014while getting in a bit of trouble here and there.", "poster_path": "/6hesUNBkpVRqBTBw2HlTg0h8b56.jpg", "release_date": "1980-06-17", "title": "The Blues Brothers", "video": false, "vote_average": 7.7, "vote_count": 2299, "popularity": 21.638}, {"id": 7443, "video": false, "vote_count": 2876, "vote_average": 6.6, "title": "Chicken Run", "release_date": "2000-06-21", "original_language": "en", "original_title": "Chicken Run", "genre_ids": [16, 35, 10751], "backdrop_path": "/b0Zlbk19oTLjKPvb807suPFKBtN.jpg", "adult": false, "overview": "Having been hopelessly repressed and facing eventual certain death at the British chicken farm where they are held, Ginger the chicken along with the help of Rocky the American rooster decide to rebel and lead their fellow chickens in a great escape from the murderous farmers Mr. and Mrs. Tweedy and their farm of doom.", "poster_path": "/z0MafJgUnVyVbczicYMkPKKHkBi.jpg", "popularity": 23.082}, {"id": 809, "video": false, "vote_count": 6985, "vote_average": 7.0, "title": "Shrek 2", "release_date": "2004-05-19", "original_language": "en", "original_title": "Shrek 2", "genre_ids": [12, 16, 35, 14, 10751], "backdrop_path": "/gdFAYLb5NR5HqcEKnPloOM6fX4B.jpg", "adult": false, "overview": "Shrek, Fiona and Donkey set off to Far, Far Away to meet Fiona's mother and father. But not everyone is happy. Shrek and the King find it hard to get along, and there's tension in the marriage. The fairy godmother discovers that Shrek has married Fiona instead of her Son Prince Charming and sets about destroying their marriage.", "poster_path": "/pSQvRqxwRa2IcDJHGY1d3TdKy2q.jpg", "popularity": 28.714}, {"id": 10193, "video": false, "vote_count": 9507, "vote_average": 7.8, "title": "Toy Story 3", "release_date": "2010-06-16", "original_language": "en", "original_title": "Toy Story 3", "genre_ids": [16, 35, 10751], "backdrop_path": "/y2qAjM37QgatWeG84DDtwsZuMW.jpg", "adult": false, "overview": "Woody, Buzz, and the rest of Andy's toys haven't been played with in years. With Andy about to go to college, the gang find themselves accidentally left at a nefarious day care center. The toys must band together to escape and return home to Andy.", "poster_path": "/mMltbSxwEdNE4Cv8QYLpzkHWTDo.jpg", "popularity": 28.033}], "total_pages": 77, "total_results": 1538}, "recommendations": {"page": 1, "results": [], "total_pages": 1, "total_results": 0}, "credits": {"cast": [{"cast_id": 4, "character": "Terence Aloysius 'Slip' Mahoney", "credit_id": "52fe4d98c3a36847f82697c3", "gender": 2, "id": 89989, "name": "Leo Gorcey", "order": 0, "profile_path": "/ntzfWLKlvtMuem9knh5Omx6mkcP.jpg"}, {"cast_id": 5, "character": "Horace Debussy 'Sach' Jones", "credit_id": "52fe4d98c3a36847f82697c7", "gender": 2, "id": 33024, "name": "Huntz Hall", "order": 1, "profile_path": "/wR3Rlmbwu5gfISwljC1Z0VRSvp4.jpg"}, {"cast_id": 6, "character": "Louie Dumbrowsky", "credit_id": "52fe4d98c3a36847f82697cb", "gender": 0, "id": 14034, "name": "Bernard Gorcey", "order": 2, "profile_path": "/3QbC072V9ZXCqO4q1JZ4uvlUSjl.jpg"}, {"cast_id": 7, "character": "Captain Jenkins, Head Guard", "credit_id": "52fe4d98c3a36847f82697cf", "gender": 2, "id": 14451, "name": "Barton MacLane", "order": 3, "profile_path": "/vmfmiGO6cusQn9B8jw9oLPnSYr6.jpg"}, {"cast_id": 8, "character": "Percival P. Lannigan", "credit_id": "52fe4d98c3a36847f82697d3", "gender": 2, "id": 16004, "name": "Anthony Caruso", "order": 4, "profile_path": "/d2p7VwnIAQKds9JHkz0yxSF6sIQ.jpg"}, {"cast_id": 9, "character": "Warden B.W. Oswald", "credit_id": "52fe4d98c3a36847f82697d7", "gender": 2, "id": 2101, "name": "Percy Helton", "order": 5, "profile_path": "/xqr6Yn0swcDkCD42lECMdNW6q98.jpg"}, {"cast_id": 10, "character": "Charles 'Chuck' Anderson (as David Condon)", "credit_id": "52fe4d98c3a36847f82697db", "gender": 0, "id": 120211, "name": "David Gorcey", "order": 6, "profile_path": "/dcwpRQn8y1x88LrvzclFJ0wUjzr.jpg"}, {"cast_id": 11, "character": "Butch Williams (as Bennie Bartlett)", "credit_id": "52fe4d98c3a36847f82697df", "gender": 2, "id": 556861, "name": "Benny Bartlett", "order": 7, "profile_path": "/gy5tJ4QPexruvd1Gz5gzTaHBQsx.jpg"}, {"cast_id": 12, "character": "Cy Bowman", "credit_id": "52fe4d98c3a36847f82697e3", "gender": 2, "id": 34119, "name": "Lyle Talbot", "order": 8, "profile_path": "/gHbCftyesSSHRCEClOQUOVjISV8.jpg"}], "crew": [{"credit_id": "52fe4d98c3a36847f82697b3", "department": "Directing", "gender": 2, "id": 30833, "job": "Director", "name": "William Beaudine", "profile_path": "/krWEsV2QBljRm98l2DxtkCPHxjI.jpg"}, {"credit_id": "52fe4d98c3a36847f82697b9", "department": "Writing", "gender": 2, "id": 34402, "job": "Screenplay", "name": "Edward Bernds", "profile_path": "/n061MNq2CTLDyuxxy24jh8sthFk.jpg"}, {"credit_id": "52fe4d98c3a36847f82697bf", "department": "Writing", "gender": 0, "id": 105735, "job": "Screenplay", "name": "Elwood Ullman", "profile_path": null}]}}