{"adult": false, "backdrop_path": null, "belongs_to_collection": null, "budget": 0, "genres": [{"id": 18, "name": "Drama"}, {"id": 14, "name": "Fantasy"}, {"id": 10749, "name": "Romance"}], "homepage": null, "id": 178595, "imdb_id": "tt1698499", "original_language": "el", "original_title": "DOS \u03bc\u03b9\u03b1 \u03b9\u03c3\u03c4\u03bf\u03c1\u03af\u03b1 \u03b1\u03b3\u03ac\u03c0\u03b7\u03c2, \u03b1\u03c0' \u03c4\u03b7\u03bd \u03b1\u03bd\u03ac\u03c0\u03bf\u03b4\u03b7", "overview": "Athens &amp; Barcelona, two cities, two love stories, two languages, two realities, two couples that will never meet, two years anniversary... or is it all one?", "popularity": 1.201, "poster_path": "/gjD6dVsotut25gLmdqdeETWJg29.jpg", "production_companies": [{"id": 47144, "logo_path": null, "name": "Bakis", "origin_country": ""}, {"id": 121174, "logo_path": null, "name": "Yvonne Roman Films", "origin_country": ""}, {"id": 121175, "logo_path": null, "name": "Arktos", "origin_country": ""}], "production_countries": [{"iso_3166_1": "GR", "name": "Greece"}], "release_date": "2011-09-01", "revenue": 0, "runtime": null, "spoken_languages": [{"iso_639_1": "el", "name": "\u03b5\u03bb\u03bb\u03b7\u03bd\u03b9\u03ba\u03ac"}, {"iso_639_1": "es", "name": "Espa\u00f1ol"}], "status": "Released", "tagline": "A love story, in reverse.", "title": "DOS \u03bc\u03b9\u03b1 \u03b9\u03c3\u03c4\u03bf\u03c1\u03af\u03b1 \u03b1\u03b3\u03ac\u03c0\u03b7\u03c2, \u03b1\u03c0' \u03c4\u03b7\u03bd \u03b1\u03bd\u03ac\u03c0\u03bf\u03b4\u03b7", "video": false, "vote_average": 4.3, "vote_count": 3, "keywords": {"keywords": [{"id": 107, "name": "barcelona, spain"}, {"id": 2844, "name": "athens"}, {"id": 14534, "name": "relationship"}]}, "similar": {"page": 1, "results": [{"id": 38, "video": false, "vote_count": 8439, "vote_average": 8.1, "title": "Eternal Sunshine of the Spotless Mind", "release_date": "2004-03-19", "original_language": "en", "original_title": "Eternal Sunshine of the Spotless Mind", "genre_ids": [18, 878, 10749], "backdrop_path": "/1dXTsaFxHoF9cas08UjAqE8NqOW.jpg", "adult": false, "overview": "Joel Barish, heartbroken that his girlfriend underwent a procedure to erase him from her memory, decides to do the same. However, as he watches his memories of her fade away, he realises that he still loves her, and may be too late to correct his mistake.", "poster_path": "/7y3eYvTsGjxPYDtSnumCLIMDkrV.jpg", "popularity": 22.167}, {"adult": false, "backdrop_path": "/zXsskYrKF8QSivBykfMp48AdtuM.jpg", "genre_ids": [18, 10749], "id": 10641, "original_language": "en", "original_title": "Autumn in New York", "overview": "Autumn in New York follows the sexual exploits of Will Keane - New York restaurateur, infamous verging-on-50 playboy, master of the no-commitment seduction - until he runs into an unexpected dead end when he meets Charlotte Fielding. Charlotte is half Will's age and twice his match, a 21 year-old free spirit yearning to get out and taste the excitement of adult life.", "poster_path": "/tQ5ze794HtDjxTxYVxHRn7AzbSL.jpg", "release_date": "2000-08-11", "title": "Autumn in New York", "video": false, "vote_average": 6.0, "vote_count": 364, "popularity": 14.24}, {"adult": false, "backdrop_path": "/Lnjz6blDcd8rm7AwsGCa3SicDn.jpg", "genre_ids": [18, 10749], "id": 261470, "original_language": "es", "original_title": "Perdona si te llamo amor", "overview": "A successful, attractive, intelligent and brilliant advertising executive is longing to finally find emotional stability in his life, and decides to propose to his girlfriend. After she refuses his proposal, his life takes a turn when a new young lady enters his life.", "poster_path": "/bI2MNBCiK1xcuDRf4A2RvMAwSZ5.jpg", "release_date": "2014-06-20", "title": "Sorry If I Call You Love", "video": false, "vote_average": 6.8, "vote_count": 164, "popularity": 17.841}, {"id": 1903, "video": false, "vote_count": 2234, "vote_average": 6.8, "title": "Vanilla Sky", "release_date": "2001-12-10", "original_language": "en", "original_title": "Vanilla Sky", "genre_ids": [18, 14, 878, 53, 10749], "backdrop_path": "/6XwX3HzKhlBUbTy2qZx0THQOu2T.jpg", "adult": false, "overview": "David Aames has it all: wealth, good looks and gorgeous women on his arm. But just as he begins falling for the warmhearted Sofia, his face is horribly disfigured in a car accident. That's just the beginning of his troubles as the lines between illusion and reality, between life and death, are blurred.", "poster_path": "/ujMy9P4VczTW9YSpAM31uqdOMpz.jpg", "popularity": 14.632}, {"adult": false, "backdrop_path": "/qmERQjNTQ8HhBi5dxwv8BNzrOX.jpg", "genre_ids": [18, 10749], "id": 38684, "original_language": "en", "original_title": "Jane Eyre", "overview": "After a bleak childhood, Jane Eyre goes out into the world to become a governess. As she lives happily in her new position at Thornfield Hall, she meet the dark, cold, and abrupt master of the house, Mr. Rochester. Jane and her employer grow close in friendship and she soon finds herself falling in love with him. Happiness seems to have found Jane at last, but could Mr. Rochester's terrible secret be about to destroy it forever?", "poster_path": "/oC7wvdrBA0RgbXaJZwcxsl1zKBR.jpg", "release_date": "2011-03-11", "title": "Jane Eyre", "video": false, "vote_average": 7.1, "vote_count": 854, "popularity": 11.425}, {"adult": false, "backdrop_path": "/sypQlfdD6dij70dzpQMRE4QjGVA.jpg", "genre_ids": [18, 35], "id": 111969, "original_language": "en", "original_title": "Stuck in Love", "overview": "An acclaimed writer, his ex-wife, and their teenaged children come to terms with the complexities of love in all its forms over the course of one tumultuous year.", "poster_path": "/wxrH3NZ4wTtHVzbquknLRRQMFWW.jpg", "release_date": "2012-09-09", "title": "Stuck in Love", "video": false, "vote_average": 7.3, "vote_count": 1251, "popularity": 11.655}, {"id": 12531, "video": false, "vote_count": 91, "vote_average": 6.9, "title": "The Apartment", "release_date": "1996-07-27", "original_language": "fr", "original_title": "L'Appartement", "genre_ids": [18, 9648, 10749], "backdrop_path": "/64qyT8m4JQ6YODvXxtbHgKmXBX7.jpg", "adult": false, "overview": "A stylish suspense thriller that confounds the audience while presenting them with an extraordinary and elusive mystery. Max is a former playboy who has decided to settle down by marrying his current love, Muriel. However, during a business trip, Max catches a glimpse of the great lost love of his life, reviving his wanderlust and sending him off on a chase of the elusive Lisa, whom he had overheard suggesting to a friend that her lover, Daniel, had killed someone for her. Soon, Max is trying to unravel the mystery behind the suspicious death of Daniel's wife, which he hopes will lead him closer to Lisa.", "poster_path": "/1sqrQdQTn8jKLhUcPKfRVj639zA.jpg", "popularity": 21.259}, {"id": 27022, "video": false, "vote_count": 3218, "vote_average": 6.0, "title": "The Sorcerer's Apprentice", "release_date": "2010-07-13", "original_language": "en", "original_title": "The Sorcerer's Apprentice", "genre_ids": [28, 12, 35, 18, 14], "backdrop_path": "/v0o9M1us65w1kDQp8Q6KnB5a11s.jpg", "adult": false, "overview": "Balthazar Blake is a master sorcerer in modern-day Manhattan trying to defend the city from his arch-nemesis, Maxim Horvath. Balthazar can't do it alone, so he recruits Dave Stutler, a seemingly average guy who demonstrates hidden potential, as his reluctant prot\u00e9g\u00e9. The sorcerer gives his unwilling accomplice a crash course in the art and science of magic, and together, these unlikely partners work to stop the forces of darkness.", "poster_path": "/ZNSrRpdJ6FjMy4Iu6JpRTJ5Q87.jpg", "popularity": 20.949}, {"id": 537915, "video": false, "vote_count": 2376, "vote_average": 6.0, "title": "After", "release_date": "2019-04-11", "original_language": "en", "original_title": "After", "genre_ids": [18, 10749], "backdrop_path": "/997ToEZvF2Obp9zNZbY5ELVnmrW.jpg", "adult": false, "overview": "Tessa Young is a dedicated student, dutiful daughter and loyal girlfriend to her high school sweetheart. Entering her first semester of college, Tessa's guarded world opens up when she meets Hardin Scott, a mysterious and brooding rebel who makes her question all she thought she knew about herself -- and what she wants out of life.", "poster_path": "/u3B2YKUjWABcxXZ6Nm9h10hLUbh.jpg", "popularity": 28.116}, {"adult": false, "backdrop_path": "/74Jh5SIWnKDwtusPfDP51EeCFHt.jpg", "genre_ids": [35, 10749], "id": 9576, "original_language": "en", "original_title": "Tootsie", "overview": "When struggling, out of work actor Michael Dorsey secretly adopts a female alter ego - Dorothy Michaels - in order to land a part in a daytime drama, he unwittingly becomes a feminist icon and ends up in a romantic pickle.", "poster_path": "/ngyCzZwb9y5sMUCig5JQT4Y33Q.jpg", "release_date": "1982-12-16", "title": "Tootsie", "video": false, "vote_average": 7.2, "vote_count": 915, "popularity": 10.882}, {"adult": false, "backdrop_path": "/bQW1TnxHlmkWof0vsALj4HBkoxj.jpg", "genre_ids": [18, 10749], "id": 51828, "original_language": "en", "original_title": "One Day", "overview": "A romantic comedy centered on Dexter and Emma, who first meet during their graduation in 1988 and proceed to keep in touch regularly. The film follows what they do on July 15 annually, usually doing something together.", "poster_path": "/xzOz17yC3K6SZWtWylXimcHUqpD.jpg", "release_date": "2011-03-02", "title": "One Day", "video": false, "vote_average": 7.2, "vote_count": 2342, "popularity": 15.269}, {"id": 293863, "video": false, "vote_count": 4193, "vote_average": 7.4, "title": "The Age of Adaline", "release_date": "2015-04-16", "original_language": "en", "original_title": "The Age of Adaline", "genre_ids": [18, 14, 10749], "backdrop_path": "/dgOosqHUPTrs9hDijYTnBNHYYib.jpg", "adult": false, "overview": "After 29-year-old Adaline recovers from a nearly lethal accident, she inexplicably stops growing older. As the years stretch on and on, Adaline keeps her secret to herself  until she meets a man who changes her life.", "poster_path": "/gEDGROZ4NQDlRjUPPSSyIf0hKvD.jpg", "popularity": 14.551}, {"id": 1417, "video": false, "vote_count": 6619, "vote_average": 7.7, "title": "Pan's Labyrinth", "release_date": "2006-08-25", "original_language": "es", "original_title": "El laberinto del fauno", "genre_ids": [18, 14, 10752], "backdrop_path": "/4XP5kp70Pw01qpD6Gr0PQwy43Mr.jpg", "adult": false, "overview": "Living with her tyrannical stepfather in a new home with her pregnant mother, 10-year-old Ofelia feels alone until she explores a decaying labyrinth guarded by a mysterious faun who claims to know her destiny. If she wishes to return to her real father, Ofelia must complete three terrifying tasks.", "poster_path": "/t0TDsqbCTgSi0AL7k4baZrOYYhi.jpg", "popularity": 22.501}, {"id": 10184, "video": false, "vote_count": 2199, "vote_average": 6.4, "title": "He's Just Not That Into You", "release_date": "2009-02-06", "original_language": "en", "original_title": "He's Just Not That Into You", "genre_ids": [35, 18, 10749], "backdrop_path": "/lyltBzgnMcWo13FTc1RyU8Xl1Zk.jpg", "adult": false, "overview": "Remember that really cute girl/guy who said they'd call \u2013 and didn't? Maybe they lost your number. Maybe they're in the hospital. Maybe they're awed by your looks, brains or success. Or maybe... They're just not that into you.", "poster_path": "/ruc33YnCrmCL8PHdPQVzfa4shWX.jpg", "popularity": 17.598}, {"id": 369885, "video": false, "vote_count": 3048, "vote_average": 6.7, "title": "Allied", "release_date": "2016-11-17", "original_language": "en", "original_title": "Allied", "genre_ids": [28, 18, 53, 10749, 10752], "backdrop_path": "/tC0tVH5KQhCwMlddnyA3iWOSuBA.jpg", "adult": false, "overview": "In 1942, an intelligence officer in North Africa encounters a female French Resistance fighter on a deadly mission behind enemy lines. When they reunite in London, their relationship is tested by the pressures of war.", "poster_path": "/nzXzLFTnd0Zb3ExfhOxlQgizgSu.jpg", "popularity": 32.359}, {"adult": false, "backdrop_path": "/AqocxdL9luA7ALU0gGSHDzDy254.jpg", "genre_ids": [14, 16, 18, 878], "id": 14069, "original_language": "ja", "original_title": "\u6642\u3092\u304b\u3051\u308b\u5c11\u5973", "overview": "When 17-year-old Makoto Konno gains the ability to, quite literally, \"leap\" backwards through time, she immediately sets about improving her grades and preventing personal mishaps. However, she soon realises that changing the past isn't as simple as it seems, and eventually, will have to rely on her new powers to shape the future of herself and her friends.", "poster_path": "/7oNeWrsaiMGxCrvkWjQ56y6JN85.jpg", "release_date": "2006-07-15", "title": "The Girl Who Leapt Through Time", "video": false, "vote_average": 7.8, "vote_count": 1043, "popularity": 23.641}, {"id": 76492, "video": false, "vote_count": 5544, "vote_average": 6.9, "title": "Hotel Transylvania", "release_date": "2012-09-20", "original_language": "en", "original_title": "Hotel Transylvania", "genre_ids": [16, 35, 14, 10751], "backdrop_path": "/sETTal2HPPkUC3lWc27HL1AFu9C.jpg", "adult": false, "overview": "Welcome to Hotel Transylvania, Dracula's lavish five-stake resort, where monsters and their families can live it up and no humans are allowed. One special weekend, Dracula has invited all his best friends to celebrate his beloved daughter Mavis's 118th birthday. For Dracula catering to all of these legendary monsters is no problem but the party really starts when one ordinary guy stumbles into the hotel and changes everything!", "poster_path": "/9qugesYpAWHUpdrw2w8URSGkAPt.jpg", "popularity": 25.375}, {"adult": false, "backdrop_path": "/5OeY4U2rzePxWq2rkqMajUx2gz7.jpg", "genre_ids": [16, 10751, 12, 14, 10749], "id": 812, "original_language": "en", "original_title": "Aladdin", "overview": "Princess Jasmine grows tired of being forced to remain in the palace, so she sneaks out into the marketplace, in disguise, where she meets street-urchin Aladdin.  The couple falls in love, although Jasmine may only marry a prince.  After being thrown in jail, Aladdin becomes embroiled in a plot to find a mysterious lamp, with which the evil Jafar hopes to rule the land.", "poster_path": "/mjKozYRuHc9j7SmiXmbVmCiAM0A.jpg", "release_date": "1992-11-25", "title": "Aladdin", "video": false, "vote_average": 7.6, "vote_count": 7288, "popularity": 46.629}, {"id": 152601, "video": false, "vote_count": 8845, "vote_average": 7.9, "title": "Her", "release_date": "2013-12-18", "original_language": "en", "original_title": "Her", "genre_ids": [18, 878, 10749], "backdrop_path": "/4f4tWe6uhwtuKMygfIAytR2W0pj.jpg", "adult": false, "overview": "In the not so distant future, Theodore, a lonely writer purchases a newly developed operating system designed to meet the user's every needs. To Theodore's surprise, a romantic relationship develops between him and his operating system. This unconventional love story blends science fiction and romance in a sweet tale that explores the nature of love and the ways that technology isolates and connects us all.", "poster_path": "/fsoTLnUXEUTNuVCBxAJMY0HPPd.jpg", "popularity": 24.773}, {"adult": false, "backdrop_path": "/xqQztbT6KlPLQLlRtNHoXivEMZA.jpg", "genre_ids": [18, 10749, 53], "id": 597, "original_language": "en", "original_title": "Titanic", "overview": "101-year-old Rose DeWitt Bukater tells the story of her life aboard the Titanic, 84 years later. A young Rose boards the ship with her mother and fianc\u00e9. Meanwhile, Jack Dawson and Fabrizio De Rossi win third-class tickets aboard the ship. Rose tells the whole story from Titanic's departure through to its death\u2014on its first and last voyage\u2014on April 15, 1912.", "poster_path": "/kHXEpyfl6zqn8a6YuozZUujufXf.jpg", "release_date": "1997-11-18", "title": "Titanic", "video": false, "vote_average": 7.8, "vote_count": 15727, "popularity": 42.978}], "total_pages": 114, "total_results": 2269}, "recommendations": {"page": 1, "results": [], "total_pages": 1, "total_results": 0}, "credits": {"cast": [{"cast_id": 3, "character": "Hector", "credit_id": "5304049d92514104cc02fb0a", "gender": 0, "id": 1294285, "name": "David Fern\u00e1ndez Fabu", "order": 2, "profile_path": null}, {"cast_id": 4, "character": "Nerea", "credit_id": "530404b992514104cc02fdaf", "gender": 0, "id": 1294286, "name": "In\u00e9s Casta\u00f1o", "order": 3, "profile_path": null}, {"cast_id": 5, "character": "", "credit_id": "56c235159251414a8f0004e9", "gender": 1, "id": 1155111, "name": "Marina Kalogirou", "order": 4, "profile_path": "/3gX1DnBLcJ23SR6X31e8ZgpYHz7.jpg"}, {"cast_id": 6, "character": "Hippolytos", "credit_id": "5d38343b60c51d7a16835aea", "gender": 0, "id": 2370140, "name": "Stavros Yagoulis", "order": 5, "profile_path": null}, {"cast_id": 7, "character": "Patroklos", "credit_id": "5d383451ab684974f58a18c6", "gender": 2, "id": 1132978, "name": "Yorgos Karamihos", "order": 6, "profile_path": "/nCTtUlxkzqUJqqYCtINmVTgcfQS.jpg"}], "crew": [{"credit_id": "52fe4d99c3a36847f8269b69", "department": "Directing", "gender": 0, "id": 1161117, "job": "Director", "name": "Stathis Athanasiou", "profile_path": null}, {"credit_id": "5d383460e54d5d2490dcf539", "department": "Crew", "gender": 0, "id": 1161117, "job": "Script", "name": "Stathis Athanasiou", "profile_path": null}]}}