{"adult": false, "backdrop_path": "/uHWqg4NpvOtiLN3yyr8jC9DJqwc.jpg", "belongs_to_collection": null, "budget": 0, "genres": [{"id": 18, "name": "Drama"}], "homepage": null, "id": 17893, "imdb_id": "tt1206285", "original_language": "es", "original_title": "Camino", "overview": "A religious organization interferes with the life of a terminally ill girl.", "popularity": 5.46, "poster_path": "/qSxyPiBU709CwzXJocnKEefngo9.jpg", "production_companies": [{"id": 12010, "logo_path": null, "name": "Mediapro", "origin_country": ""}], "production_countries": [{"iso_3166_1": "ES", "name": "Spain"}], "release_date": "2008-10-16", "revenue": 0, "runtime": 143, "spoken_languages": [{"iso_639_1": "es", "name": "Espa\u00f1ol"}], "status": "Released", "tagline": "", "title": "Camino", "video": false, "vote_average": 7.1, "vote_count": 86, "keywords": {"keywords": [{"id": 8097, "name": "leukemia"}]}, "similar": {"page": 1, "results": [{"adult": false, "backdrop_path": "/pHM9Xr6ivOspDUWuprjaxgPbcB3.jpg", "genre_ids": [18, 80, 53], "id": 11975, "original_language": "en", "original_title": "The Rainmaker", "overview": "When Rudy Baylor, a young attorney with no clients, goes to work for a seedy ambulance chaser, he wants to help the parents of a terminally ill boy in their suit against an insurance company. But to take on corporate America, Rudy and a scrappy paralegal must open their own law firm.", "poster_path": "/cFM9TariJqLLiPb6OSsvTfQPTAd.jpg", "release_date": "1997-11-18", "title": "The Rainmaker", "video": false, "vote_average": 6.9, "vote_count": 488, "popularity": 19.137}, {"id": 9422, "video": false, "vote_count": 204, "vote_average": 6.3, "title": "A Civil Action", "release_date": "1998-12-25", "original_language": "en", "original_title": "A Civil Action", "genre_ids": [18], "backdrop_path": "/PIpkcbsE9IruwPBbTTDp1qrS5x.jpg", "adult": false, "overview": "Jan Schlickmann is a cynical lawyer who goes out to 'get rid of' a case, only to find out it is potentially worth millions. The case becomes his obsession, to the extent that he is willing to give up everything\u2014including his career and his clients' goals\u2014in order to continue the case against all odds.", "poster_path": "/81TGgmcObcfL6jcjPsU1n4n9THI.jpg", "popularity": 13.581}, {"id": 9458, "video": false, "vote_count": 111, "vote_average": 6.0, "title": "Desperate Measures", "release_date": "1998-01-30", "original_language": "en", "original_title": "Desperate Measures", "genre_ids": [28, 18, 53], "backdrop_path": "/xASMuSKqEtUSlFSPvBdXc8f6tT9.jpg", "adult": false, "overview": "San Francisco police officer Frank Connor is in a frantic search for a compatible bone marrow donor for his gravely ill son. There's only one catch the potential donor is convicted multiple murderer Peter McCabe who sees a trip to the hospital as the perfect opportunity to get what he wants most freedom. With McCabe's escape, the entire hospital becomes a battleground and Connor must pursue and, ironically, protect the deadly fugitive who is his son's only hope for survival.", "poster_path": "/NvkAJ4RERSSfztgqcRvGCXN508.jpg", "popularity": 9.173}, {"id": 9819, "video": false, "vote_count": 296, "vote_average": 6.7, "title": "Marvin's Room", "release_date": "1996-12-18", "original_language": "en", "original_title": "Marvin's Room", "genre_ids": [18], "backdrop_path": "/dXGjxSaKV02s1It9i0IF7HhVQ8l.jpg", "adult": false, "overview": "A leukemia patient attempts to end a 20-year feud with her sister to get her bone marrow.", "poster_path": "/lTHq1K5Y6EDRjxTBvReXHY6AKQ3.jpg", "popularity": 10.777}, {"adult": false, "backdrop_path": "/jrSo8OTeWZ0Ego7uOYS20syIZ5N.jpg", "genre_ids": [35, 18], "id": 308369, "original_language": "en", "original_title": "Me and Earl and the Dying Girl", "overview": "Greg is coasting through senior year of high school as anonymously as possible, avoiding social interactions like the plague while secretly making spirited, bizarre films with Earl, his only friend. But both his anonymity and friendship threaten to unravel when his mother forces him to befriend a classmate with leukemia.", "poster_path": "/4Zrvc5rddDSHD3JmfkzvAx82wuT.jpg", "release_date": "2015-06-12", "title": "Me and Earl and the Dying Girl", "video": false, "vote_average": 7.6, "vote_count": 1696, "popularity": 10.454}, {"adult": false, "backdrop_path": "/lfPKcPZWDJK38Y19EV4y8vSy00t.jpg", "genre_ids": [18, 35], "id": 8696, "original_language": "en", "original_title": "Calendar Girls", "overview": "Members of a Yorkshire branch of the Women's Institute cause controversy when they pose nude for a charity calendar.", "poster_path": "/iFJW7jAE7GVfoBJLNMwtNTAstQT.jpg", "release_date": "2003-09-02", "title": "Calendar Girls", "video": false, "vote_average": 6.6, "vote_count": 199, "popularity": 10.806}, {"adult": false, "backdrop_path": "/hZCFpyWSMul9zn7Bxs0rgRYjWH7.jpg", "genre_ids": [18, 53], "id": 11222, "original_language": "de", "original_title": "Der amerikanische Freund", "overview": "Tom Ripley, who deals in forged art, suggests a picture framer he knows would make a good hit man.", "poster_path": "/x8DO2kP5Znbog0WvefZPcHIHfWU.jpg", "release_date": "1977-06-26", "title": "The American Friend", "video": false, "vote_average": 7.1, "vote_count": 142, "popularity": 6.84}, {"id": 69717, "video": false, "vote_count": 22, "vote_average": 7.3, "title": "Ways to Live Forever", "release_date": "2010-10-29", "original_language": "en", "original_title": "Ways to Live Forever", "genre_ids": [18, 10751], "backdrop_path": "/bc8d0uwp4fSaXV7JfNRxytDSgvR.jpg", "adult": false, "overview": "Sam loves facts. He wants to know about UFOs and horror movies and airships and ghosts and scientists, and how it feels to kiss a girl. And because he has leukemia he wants to know the facts about dying. Sam needs answers to the questions nobody will answer.", "poster_path": "/5rpOSNyHFzo8E45dpulgPicAS8t.jpg", "popularity": 4.951}, {"id": 306755, "video": false, "vote_count": 2, "vote_average": 6.0, "title": "Dirty Dealing", "release_date": "2018-06-19", "original_language": "en", "original_title": "Dirty Dealing", "genre_ids": [18], "backdrop_path": "/aZNzj2SPDVLSDSTDWwa2VPg7RNO.jpg", "adult": false, "overview": "A group of sexy blackjack dealers, The Sin Pit Pussycats, plot to rob a Vegas casino to get revenge against the shady owner who wronged them.", "poster_path": "/IMoEoMgF2eKdwf0AimIGkVpDrA.jpg", "popularity": 2.706}, {"id": 107774, "video": false, "vote_count": 8, "vote_average": 6.1, "title": "Pete 'n' Tillie", "release_date": "1972-12-17", "original_language": "en", "original_title": "Pete 'n' Tillie", "genre_ids": [35, 18, 10749], "backdrop_path": "/2dJyusaMWzFoEodHgGThQpypoxp.jpg", "adult": false, "overview": "A fun-loving bachelor woos and weds a secretary, but the bonds of this marriage aren't strong enough to stop his philandering from continuing.", "poster_path": "/k2tEUd65hV4RyCq6QZhNNbvhQmE.jpg", "popularity": 2.864}, {"adult": false, "backdrop_path": "/3AEEvtgJDexbLMpst9wUY6UYhgl.jpg", "genre_ids": [35, 18], "id": 11628, "original_language": "de", "original_title": "Solino", "overview": "The movie portrays the story of an Italian family emigrated in Germany in the 1970s. Romano (Gigi Savoia), the father, decides to open a pizzeria which, by mutual decision with the wife Rosa (Antonella Attili), will call Solino, leaving his sons Gigi and Giancarlo to work there. A hostile relationship comes to life between the father and his sons, which will end up in the escape of the boys from family.", "poster_path": "/38Oyp2p0oTbGmQZOXpMyBjKgthf.jpg", "release_date": "2002-09-23", "title": "Solino", "video": false, "vote_average": 7.1, "vote_count": 28, "popularity": 4.093}, {"adult": false, "backdrop_path": "/AmmAZbs1QMYYmstqeBf9gKBekLi.jpg", "genre_ids": [18], "id": 345928, "original_language": "en", "original_title": "Shovel Buddies", "overview": "A group of friends attempt to successfully complete a list of tasks assigned to them as the \"Shovel List\" by their dead friend.", "poster_path": "/6jAv7Xu05uf1HxpQVRAnWZnegNj.jpg", "release_date": "2016-10-11", "title": "Shovel Buddies", "video": false, "vote_average": 6.2, "vote_count": 19, "popularity": 5.026}, {"adult": false, "backdrop_path": "/2BH0t9FrtMmMcuLqpNCG5ZlSXh9.jpg", "genre_ids": [18, 10749], "id": 242250, "original_language": "nl", "original_title": "Hemel op Aarde", "overview": "Love is the Word is a moving, romantic and funny coming-of-age drama about the magic of first love and the misery of first lost, set in 1978: the year 'Grease' hit the big screen.", "poster_path": "/7vztHiG4IeQkjkPSfWZ5eOEz7kM.jpg", "release_date": "2013-12-19", "title": "Love is the Word", "video": false, "vote_average": 6.3, "vote_count": 9, "popularity": 2.601}, {"adult": false, "backdrop_path": null, "genre_ids": [10749, 18, 878], "id": 546144, "original_language": "en", "original_title": "Dito Lang Ako", "overview": "Everyday, Nelia waits outside a store in Timog hoping for Delfin--a man that she lost 40 years ago--to comeback. Unwilling to forget the romance that she spent with him, she recalls their tale set amid the timeless beauty of Quezon City in 1970s. Will Nelia be able to move on? Will Delfin's love transcend through time? As Nelia and Delfin's story unfolds, 'Dito Lang Ako' becomes more than just a recollection of a past romance, it is an achingly compassionate story of heartfelt passion, tender moments and most of all, unselfish love.", "poster_path": "/amvaS2sG3IfTZzk7OM1geKzApgl.jpg", "release_date": "2018-08-08", "title": "I Am Here", "video": false, "vote_average": 0.0, "vote_count": 0, "popularity": 0.754}, {"adult": false, "backdrop_path": "/pvwWctedYzx6rXN6RKgUMJcwru7.jpg", "genre_ids": [18, 10749], "id": 118202, "original_language": "cn", "original_title": "\u5929\u6daf\u6d77\u89d2", "overview": "Where is the end of the world? A rich girl diagnosed with leukemia wants to follow a sailor friend to St Kilda, Scotland to find out...but first she must search him out, who is missing.", "poster_path": "/ws8RCp9yuGgUHvneSqkuXWMQTXQ.jpg", "release_date": "1996-10-18", "title": "Lost and Found", "video": false, "vote_average": 6.5, "vote_count": 6, "popularity": 2.478}, {"adult": false, "backdrop_path": "/ewJU8TXK2an4ktpnt0pZcommaeP.jpg", "genre_ids": [18, 14, 27, 9648], "id": 79785, "original_language": "en", "original_title": "Harlequin", "overview": "In this modern-day version of the Rasputin story, David Hemmings plays an up-and-coming senator, Nick Rast, whose young son is terminally ill with leukaemia. A mysterious faith healer, Gregory Wolfe, appears and seems to cure the boy. Rast's wife Sandy falls in love with Wolfe, but the powerful interests behind Rast's career, represented by geriatric monster Doc Wheelan are less happy with events.", "poster_path": "/cpKPjzuACboHbH0BEJgPz4EaH6A.jpg", "release_date": "1980-03-28", "title": "Harlequin", "video": false, "vote_average": 6.3, "vote_count": 14, "popularity": 3.311}, {"adult": false, "backdrop_path": null, "genre_ids": [18], "id": 280309, "original_language": "it", "original_title": "L'ultima neve di primavera", "overview": "A 10-year-old boy starts to die of neglect when his widowed father spends too much time forsaking his parental duties in favour of playboy activities and a jet-set life-style.", "poster_path": "/kf9hc8TG9hf3zLE7zEHjG5Cpzqe.jpg", "release_date": "1973-12-20", "title": "The Last Snows of Spring", "video": false, "vote_average": 8.1, "vote_count": 6, "popularity": 2.181}, {"adult": false, "backdrop_path": null, "genre_ids": [10751, 16, 35, 18], "id": 133131, "original_language": "en", "original_title": "Why, Charlie Brown, Why?", "overview": "A new girl comes to the neighbourhood school and Linus is smitten with her. Unfortunately, she develops the symptoms of leukemia and must go to the hospital for cancer treatment. Linus and Charlie Brown help her through the traumas of chemotherapy as best they can while Snoopy plays at being the world's greatest doctor.", "poster_path": "/7d3e59Q8ZnNRySJkhmql96BBF3Q.jpg", "release_date": "1990-03-16", "title": "Why, Charlie Brown, Why?", "video": false, "vote_average": 6.2, "vote_count": 10, "popularity": 1.485}, {"adult": false, "backdrop_path": null, "genre_ids": [10770, 18], "id": 564179, "original_language": "en", "original_title": "Stones for Ibarra", "overview": "A couple moves to a small Mexican town called Ibarra. They help open a local mine which brings new life to the town and the local ways help the two of them find peace they were missing.", "poster_path": null, "release_date": "1988-01-29", "title": "Stones for Ibarra", "video": false, "vote_average": 0.0, "vote_count": 0, "popularity": 0.844}, {"adult": false, "backdrop_path": "/yxdPv51GWwP7MUoy7sJsQzp6i2L.jpg", "genre_ids": [18, 10770], "id": 252735, "original_language": "en", "original_title": "Griffin and Phoenix", "overview": "Geoffrey Griffin who has been diagnosed with terminal cancer in his chest, meets Sarah Phoenix as they both attend a university lecture on the psychology of dying. Sarah Phoenix has got terminal leukemia, but Griffin doesn't know that, and she doesn't know that he is terminally ill. They start spending time together and fall in love, both struggling with their fate. This is the beginning of a beautiful and sad love story!", "poster_path": "/i77whLCPR0p1tXplwswMapZmQv7.jpg", "release_date": "1976-02-27", "title": "Griffin and Phoenix", "video": false, "vote_average": 6.0, "vote_count": 3, "popularity": 3.395}], "total_pages": 2, "total_results": 33}, "recommendations": {"page": 1, "results": [{"adult": false, "backdrop_path": "/fRSJzrBBqWYNIYcScvlBZICGFWo.jpg", "genre_ids": [35], "id": 75492, "original_language": "es", "original_title": "Fin de semana al desnudo", "overview": "Angustias, a hotel maid, and Rodolfo, play boy who will spend a few days in that hotel with Octavia, witness how a wealthy lady, seeking to steal her jewelry by thieves, is accidentally killed by her lover in a discussion.", "poster_path": "/iUUQaN1pOCfcPRveWP4LYLJEkZn.jpg", "release_date": "1974-08-31", "title": "Naked Weekend", "video": false, "vote_average": 4.7, "vote_count": 12, "popularity": 2.507}, {"adult": false, "backdrop_path": null, "genre_ids": [35], "id": 61995, "original_language": "es", "original_title": "Guapo heredero busca esposa", "overview": "", "poster_path": "/xvRYs4fJUwXtt6OcH66szZ1ZXLH.jpg", "release_date": "1972-09-24", "title": "Guapo heredero busca esposa", "video": false, "vote_average": 4.8, "vote_count": 10, "popularity": 2.022}, {"adult": false, "backdrop_path": "/aWAB2WXlCq3mCtGD5Ra3txDsF8a.jpg", "genre_ids": [35], "id": 176116, "original_language": "es", "original_title": "Jenaro el de los 14", "overview": "", "poster_path": "/zjfQn3a92Jfg6yptZpcQPuLDW49.jpg", "release_date": "1974-03-08", "title": "Jenaro el de los 14", "video": false, "vote_average": 5.2, "vote_count": 11, "popularity": 1.989}, {"adult": false, "backdrop_path": "/xygvOTkpt0AvzM0aciwsxqaQHOZ.jpg", "genre_ids": [18], "id": 115695, "original_language": "es", "original_title": "El Lute II: Ma\u00f1ana ser\u00e9 libre", "overview": "This is the story of a man fighting with all his might for his life and his freedom. Eleuterio (\u201dEl Lute\u201d) embarks upon an action-packed future, fuelled by the notions of freedom and dreams of living just as his countrymen, ever-growing in his mind. Nothing and no-one can stop him. After escaping the Puerto de Santa Mar\u00eda prison, the reunion with his family is just the beginning of what will become an endless escape.", "poster_path": "/eNLpsvvfrxQ924cpGFguN5ejTH6.jpg", "release_date": "1988-04-20", "title": "El Lute II: Tomorrow I'll Be Free", "video": false, "vote_average": 6.1, "vote_count": 16, "popularity": 3.388}, {"id": 215401, "video": false, "vote_count": 8, "vote_average": 4.6, "title": "Carola de d\u00eda, Carola de noche", "release_date": "1969-07-29", "original_language": "en", "original_title": "Carola de d\u00eda, Carola de noche", "genre_ids": [10402], "backdrop_path": null, "adult": false, "overview": "Carola is a princess in a land far far away that had to run away after revolution in her country. She goes to Spain and has to disguise herself to save her life, because the revolution wants her to die. But Carola doesn't like to be imprisoned and secretly goes out by night to find out how spaniards live. What she didn't expect, was that she would fall in love with a man she meets in a restaurant, a man who works in a cabaret where she decides to start working as a singer because money is running out.", "poster_path": "/x91ppvfzziVcPA1MowvJKcgk3Fr.jpg", "popularity": 2.267}, {"adult": false, "backdrop_path": null, "genre_ids": [], "id": 133632, "original_language": "es", "original_title": "Esa voz es una mina", "overview": "A young miner, married to a lovely woman crippled, lives happily proving to have a wonderful singing voice while hauling trucks in the mine. One day, to hear a clever promoter, gets its hands on an interesting contract to sing in the most cosmopolitan nightclubs, waking him good prospects for a revenue amazement while he meets another woman who might get put endanger their marriage.", "poster_path": "/b6rlGJ4x2auPorzVy3PZ4c5Yqk.jpg", "release_date": "1956-04-01", "title": "Esa voz es una mina", "video": false, "vote_average": 5.3, "vote_count": 9, "popularity": 1.4}, {"adult": false, "backdrop_path": null, "genre_ids": [10402, 35, 18], "id": 226343, "original_language": "es", "original_title": "El caballo blanco", "overview": "Claimed by his grandmother, who lives in a Mexican village, Joselito begins the journey from Spain. Once there, while traveling in a stagecoach, is assaulted by bandits. Joselito manages to escape and, walking aimlessly, he meets Antoine, a rider who is ex officio of random player, and become close friends.", "poster_path": "/xcw2tPWgui5Y3b94q5XgQg8KYjD.jpg", "release_date": "1962-02-15", "title": "El caballo blanco", "video": false, "vote_average": 6.1, "vote_count": 9, "popularity": 1.746}, {"adult": false, "backdrop_path": "/jpgYthSTsm6UUdJzCst2ycGIZJe.jpg", "genre_ids": [10749, 18], "id": 85761, "original_language": "es", "original_title": "Horas de luz", "overview": "September 1987. In a shootout with police, Juan Jose Garfia makes a triple murder. Sentenced to more than one hundred years, is a rebel prisoner, clever and elusive that it has nothing to lose and nobody to worry about. In 1991, manages to escape from a police van jumping up. Stopped after two months of robberies and shootings, Garfia leads several prison riots, against which the authorities takes as a measure subjecting prisoners to a more contentious special isolation regime. Garfia, the prisoner with the highest IQ, avoiding drugs, which seems immune to punishment, and lives two years without seeing anyone, held in a tiny cell and subjected to continuous harassment. There he meets Marimar, a nurse I can barely speak, but between both of a current of mutual understanding.", "poster_path": "/vODdooXF8Ug5YEw2djVYFsA8dMS.jpg", "release_date": "2004-09-24", "title": "Hours of Light", "video": false, "vote_average": 5.3, "vote_count": 9, "popularity": 1.712}, {"adult": false, "backdrop_path": null, "genre_ids": [35], "id": 184915, "original_language": "es", "original_title": "Pisito de solteras", "overview": "The shy professor Emilio is about to celebrate a wedding nobody wants. At the last minute he escapes and settles in a Madrid apartment shared by four friends of his ex-fiancee. The unhappy man is like a little lamb in a wolf's lair - in this case four wolves.", "poster_path": "/bAaZZk4MlQaxrHVSPU96c76bg8A.jpg", "release_date": "1974-08-19", "title": "Pisito de solteras", "video": false, "vote_average": 5.1, "vote_count": 8, "popularity": 1.348}, {"adult": false, "backdrop_path": null, "genre_ids": [18, 10749], "id": 365279, "original_language": "es", "original_title": "Me siento extra\u00f1a", "overview": "", "poster_path": "/sgV7Ab5n5eoGOGQWeLfQonEo9lg.jpg", "release_date": "1977-12-01", "title": "I Feel Strange", "video": false, "vote_average": 5.0, "vote_count": 11, "popularity": 2.513}, {"adult": false, "backdrop_path": null, "genre_ids": [], "id": 112193, "original_language": "es", "original_title": "El piyayo", "overview": "The Piyayo offers a calm and friendly reflection on the Providence by the streets of Malaga.  He is a gypsy lover of tradition, rich in grace and with a spirit that exudes honesty. He lives offering company to all who listen to him through the city. And so the character touches for the quality and nobility of his feeling, while his conversations, in every corner of Malaga, remember everyone to have faith in Divine Providence, showing a practical lesson on the subject.", "poster_path": "/zAtXrqqrdw50QNZIuU8jiCAc1Sl.jpg", "release_date": "1956-02-01", "title": "El piyayo", "video": false, "vote_average": 5.5, "vote_count": 6, "popularity": 3.096}, {"adult": false, "backdrop_path": null, "genre_ids": [18, 10402], "id": 103869, "original_language": "es", "original_title": "Bello recuerdo", "overview": "Back from vacation, Lucy, a school's music teacher, misses a boy. People say he will not return because he recently lost his father. She is very affected by his favorite student, so she decides to go to see him, finding the house in utter ruin. But chance makes Lucy forced to take the child and immediately found in him the son that was kidnapped years ago in America when she was a famous artist.", "poster_path": "/mbQvFO7je9cHdkP00lFGJSOcr7u.jpg", "release_date": "1961-10-16", "title": "Bello recuerdo", "video": false, "vote_average": 5.3, "vote_count": 10, "popularity": 2.572}, {"adult": false, "backdrop_path": "/gAvlzLHFksL0EAKWSQjN3gJO6ZK.jpg", "genre_ids": [35], "id": 194246, "original_language": "es", "original_title": "Los Padrinos", "overview": "", "poster_path": "/y1BWsJvSulkB5INZ7hN0ElZrnfD.jpg", "release_date": "1973-07-04", "title": "Los Padrinos", "video": false, "vote_average": 6.1, "vote_count": 8, "popularity": 1.215}, {"adult": false, "backdrop_path": null, "genre_ids": [], "id": 132009, "original_language": "es", "original_title": "Vida y color", "overview": "", "poster_path": "/9uEEvQTSaa9NxlHrrsVjOXUyD9q.jpg", "release_date": "2006-01-05", "title": "Vida y color", "video": false, "vote_average": 6.0, "vote_count": 13, "popularity": 1.4}, {"adult": false, "backdrop_path": null, "genre_ids": [10749, 35], "id": 383516, "original_language": "es", "original_title": "M\u00e1s bonita que ninguna", "overview": "", "poster_path": "/pBrKUkRKCkxWSkVazW9USVrui6a.jpg", "release_date": "1965-02-18", "title": "M\u00e1s bonita que ninguna", "video": false, "vote_average": 5.5, "vote_count": 10, "popularity": 1.907}, {"adult": false, "backdrop_path": null, "genre_ids": [10402], "id": 65006, "original_language": "es", "original_title": "La mujer es un buen negocio", "overview": "", "poster_path": "/m4PvPfwOkl32LxssJcmJWFBmlPF.jpg", "release_date": "1977-02-14", "title": "La mujer es un buen negocio", "video": false, "vote_average": 5.2, "vote_count": 11, "popularity": 1.815}, {"adult": false, "backdrop_path": null, "genre_ids": [], "id": 202443, "original_language": "en", "original_title": "La hija de Juan Sim\u00f3n", "overview": "Carmela, the daughter of Juan Simon, falls in love for an actor who shoots a movie in town and make promises that actress. However, Carmela, in Madrid, just for engaging in life easy. The godson of Juan Simon, Antonio, is presented and win a radio contest with the magic of her voice.", "poster_path": "/fhk0ISSsrwJ3eLa96FVRzVmwUsL.jpg", "release_date": "1957-06-24", "title": "La hija de Juan Sim\u00f3n", "video": false, "vote_average": 6.0, "vote_count": 9, "popularity": 1.707}, {"adult": false, "backdrop_path": null, "genre_ids": [18], "id": 372942, "original_language": "es", "original_title": "Entre dos amores", "overview": "", "poster_path": "/eEzOCejAoGoDsTfULSAOcvZx3PJ.jpg", "release_date": "1972-12-17", "title": "Entre dos amores", "video": false, "vote_average": 5.0, "vote_count": 9, "popularity": 2.652}, {"adult": false, "backdrop_path": null, "genre_ids": [35], "id": 429866, "original_language": "en", "original_title": "Tocata y fuga de Lolita", "overview": "Carlos, a widower in his forties, lives with his daughter Lolita and his sister Merche. He is a candidate to Spanish Court's Proctor, so frequently travels outside Madrid. During one of those trips, he is forced to return at home precipitously, because his sister informed him that Lolita has left the house to live with some friends.", "poster_path": "/rTqMtq9AzhuWl7zUP9gifvrAATD.jpg", "release_date": "1974-09-26", "title": "Tocata y fuga de Lolita", "video": false, "vote_average": 4.9, "vote_count": 7, "popularity": 3.619}, {"adult": false, "backdrop_path": "/7slrwpAF8ce8ScYSeP2YcaiikW9.jpg", "genre_ids": [], "id": 116696, "original_language": "es", "original_title": "Tiempos de Az\u00facar", "overview": "Miguel is a child that loves her neighbour \u00c1ngela and enjoy working in the pastry-cook's shop of his family. He don't tell \u00c1ngela his feelings, and when they grow \u00c1ngela marry with another man and has two sons with him, but she continues her friendship with Miguel.However, she will not be happy with her husband and will return to the town with Miguel, and they will show their true feelings.", "poster_path": "/cuuBGxYYosJAJRr9MolVwttdQy9.jpg", "release_date": "2001-06-15", "title": "Sugar Times", "video": false, "vote_average": 7.3, "vote_count": 7, "popularity": 1.697}], "total_pages": 2, "total_results": 40}, "credits": {"cast": [{"cast_id": 1, "character": "Camino", "credit_id": "52fe474f9251416c75094d9d", "gender": 1, "id": 82455, "name": "Nerea Camacho", "order": 0, "profile_path": "/jhbvqA3oot3IWoZvrljCDNdqfJh.jpg"}, {"cast_id": 3, "character": "Jos\u00e9", "credit_id": "52fe474f9251416c75094da1", "gender": 2, "id": 56468, "name": "Mariano Venancio", "order": 2, "profile_path": "/uVT79nEvsilJVsKE90xvQCHOv48.jpg"}, {"cast_id": 5, "character": "Gloria", "credit_id": "52fe474f9251416c75094dab", "gender": 1, "id": 36278, "name": "Carme Elias", "order": 3, "profile_path": "/zdEM6b1NGwOWKd6rgmPnRCpPedw.jpg"}, {"cast_id": 7, "character": "Nuria", "credit_id": "52fe474f9251416c75094db5", "gender": 1, "id": 26279, "name": "Manuela Vell\u00e9s", "order": 4, "profile_path": "/iL5gQVXm6sqc7phmQLfLwAi4d4a.jpg"}, {"cast_id": 8, "character": "T\u00eda Marita", "credit_id": "52fe474f9251416c75094db9", "gender": 1, "id": 967160, "name": "Lola Casamayor", "order": 5, "profile_path": null}, {"cast_id": 9, "character": "In\u00e9s", "credit_id": "52fe474f9251416c75094dbd", "gender": 1, "id": 25028, "name": "Ana Gracia", "order": 6, "profile_path": "/kyWxOl7P3uz6xJmSzZ3a8LttQC8.jpg"}, {"cast_id": 10, "character": "Don Miguel \u00c1ngel", "credit_id": "52fe474f9251416c75094dc1", "gender": 0, "id": 967161, "name": "Pepe Ocio", "order": 7, "profile_path": "/7ybrvqJd9xNPm2RWO3PtzN5ioBv.jpg"}, {"cast_id": 11, "character": "Don Luis", "credit_id": "52fe474f9251416c75094dc5", "gender": 2, "id": 257448, "name": "Jordi Dauder", "order": 8, "profile_path": "/aNP5Dg91UDUVEqpGNxcQdtwdunE.jpg"}, {"cast_id": 12, "character": "Mr. Meebles", "credit_id": "52fe474f9251416c75094dc9", "gender": 2, "id": 962179, "name": "Emilio Gavira", "order": 9, "profile_path": "/iYCqFiBqQJwtjEIv5U17DlqpTZs.jpg"}, {"cast_id": 13, "character": "Cuco", "credit_id": "52fe474f9251416c75094dcd", "gender": 2, "id": 967162, "name": "Lucas Manzano", "order": 10, "profile_path": null}, {"cast_id": 14, "character": "Bego\u00f1a", "credit_id": "52fe474f9251416c75094dd1", "gender": 1, "id": 967163, "name": "Claudia Otero", "order": 11, "profile_path": null}, {"cast_id": 15, "character": "Elena", "credit_id": "52fe474f9251416c75094dd5", "gender": 1, "id": 967164, "name": "Miriam Raya", "order": 12, "profile_path": null}, {"cast_id": 16, "character": "\u00c1ngel Custodio", "credit_id": "5564c63cc3a36874e2001538", "gender": 2, "id": 440879, "name": "Jan Cornet", "order": 13, "profile_path": "/mSvPtwX5nP9gkoXsXtTHripMU4G.jpg"}], "crew": [{"credit_id": "52fe474f9251416c75094da7", "department": "Directing", "gender": 2, "id": 56470, "job": "Director", "name": "Javier Fesser", "profile_path": "/ljDbu5ncnRgatqwASA9VhZhOlRY.jpg"}, {"credit_id": "52fe474f9251416c75094db1", "department": "Writing", "gender": 2, "id": 56470, "job": "Writer", "name": "Javier Fesser", "profile_path": "/ljDbu5ncnRgatqwASA9VhZhOlRY.jpg"}]}}