{"adult": false, "backdrop_path": "/olXTtjwN8SwNYLveRto1ehdBkXa.jpg", "belongs_to_collection": null, "budget": 0, "genres": [{"id": 37, "name": "Western"}, {"id": 35, "name": "Comedy"}, {"id": 10749, "name": "Romance"}], "homepage": null, "id": 178914, "imdb_id": "tt0041479", "original_language": "en", "original_title": "Curtain Call at Cactus Creek", "overview": "Traveling entertainer gets mixed up with bank robbers.", "popularity": 1.533, "poster_path": "/6qNQNDdAEdmxAdwHt8KILIjvnC3.jpg", "production_companies": [{"id": 10330, "logo_path": "/nY62adzeba5GVK8LJYD6yd9R8H4.png", "name": "Universal International Pictures", "origin_country": ""}], "production_countries": [{"iso_3166_1": "US", "name": "United States of America"}], "release_date": "1950-05-24", "revenue": 0, "runtime": 86, "spoken_languages": [{"iso_639_1": "en", "name": "English"}], "status": "Released", "tagline": "All's riot on the Western Frontier !", "title": "Curtain Call at Cactus Creek", "video": false, "vote_average": 0.0, "vote_count": 0, "keywords": {"keywords": [{"id": 10726, "name": "gang"}, {"id": 206999, "name": "troupe"}, {"id": 207716, "name": "actor"}]}, "similar": {"page": 1, "results": [{"adult": false, "backdrop_path": "/eJYh0ePAVWqFz1CooYPY8Akl6cH.jpg", "genre_ids": [80, 18, 10749], "id": 13199, "original_language": "en", "original_title": "American Me", "overview": "Edward J. Olmos made his directorial bow with the powerhouse crime saga American Me. Olmos stars as street-gang leader Santana, who during his 18 years in Folsom Prison rules over all the drug-and-murder activities behind bars. Upon his release, Santana goes back to his old neighborhood, intending to lead a peaceful, crime-free life. But his old gang buddies force him back into his old habits. The", "poster_path": "/1ZQQi5AQCo4ThYxHPy6bKIMOrLm.jpg", "release_date": "1992-03-13", "title": "American Me", "video": false, "vote_average": 7.3, "vote_count": 66, "popularity": 7.716}, {"id": 3131, "video": false, "vote_count": 3917, "vote_average": 7.3, "title": "Gangs of New York", "release_date": "2002-12-14", "original_language": "en", "original_title": "Gangs of New York", "genre_ids": [80, 18, 36], "backdrop_path": "/a2Aj5ksEo2HOUH3FbGyZCtaJM4C.jpg", "adult": false, "overview": "It's 1863. America was born in the streets. Amsterdam Vallon returns to the Five Points of America to seek vengeance against the psychotic gangland kingpin, Bill the Butcher, who murdered his father years earlier. With an eager pickpocket by his side and a whole new army, Vallon fights his way to seek vengeance on the Butcher and restore peace in the area.", "poster_path": "/lemqKtcCuAano5aqrzxYiKC8kkn.jpg", "popularity": 20.98}, {"id": 339692, "video": false, "vote_count": 1166, "vote_average": 6.9, "title": "Shot Caller", "release_date": "2017-07-13", "original_language": "en", "original_title": "Shot Caller", "genre_ids": [80, 18, 53], "backdrop_path": "/hehboYLXB3m90x9ybiBsupwuifL.jpg", "adult": false, "overview": "A newly-released prison gangster is forced by the leaders of his gang to orchestrate a major crime with a brutal rival gang on the streets of Southern California.", "poster_path": "/qLmLz2wtyYvmW8Ult3l2ngOnW8v.jpg", "popularity": 22.37}, {"adult": false, "backdrop_path": "/k4BAPrE5WkNLvpsPsiMfu8W4Zyi.jpg", "genre_ids": [18, 80], "id": 598, "original_language": "pt", "original_title": "Cidade de Deus", "overview": "Cidade de Deus is a shantytown that started during the 1960s and became one of Rio de Janeiro\u2019s most dangerous places in the beginning of the 1980s. To tell the story of this place, the movie describes the life of various characters, all seen by the point of view of the narrator, Buscap\u00e9. Buscap\u00e9 was raised in a very violent environment. Despite the feeling that all odds were against him, he finds out that life can be seen with other eyes...", "poster_path": "/4YEX7qUfg6kN2tHm84CMt2CEq9n.jpg", "release_date": "2002-02-05", "title": "City of God", "video": false, "vote_average": 8.4, "vote_count": 3792, "popularity": 18.508}, {"adult": false, "backdrop_path": "/a24i4Qw6qFTtkFLQsncv8WPwevj.jpg", "genre_ids": [53, 28, 80], "id": 345887, "original_language": "en", "original_title": "The Equalizer 2", "overview": "Robert McCall, who serves an unflinching justice for the exploited and oppressed, embarks on a relentless, globe-trotting quest for vengeance when a long-time girl friend is murdered.", "poster_path": "/cQvc9N6JiMVKqol3wcYrGshsIdZ.jpg", "release_date": "2018-07-19", "title": "The Equalizer 2", "video": false, "vote_average": 6.5, "vote_count": 2483, "popularity": 21.271}, {"id": 37094, "video": false, "vote_count": 1728, "vote_average": 7.3, "title": "Falling Down", "release_date": "1993-02-26", "original_language": "en", "original_title": "Falling Down", "genre_ids": [80, 18, 53], "backdrop_path": "/cS45swrlrTJijH1RblBLe8LlW2p.jpg", "adult": false, "overview": "On the day of his daughter's birthday, William \"D-Fens\" Foster is trying to get to the home of his estranged ex-wife to see his daughter. His car breaks down, so he leaves his car in a traffic jam in Los Angeles and decides to walk. He goes to a convenience store and tries to get some change for a phone call, but the Korean owner does not oblige, tipping Foster over the edge. The unstable Foster, so frustrated with the various flaws he sees in society, begins to psychotically and violently lash out against them.", "poster_path": "/s6dnkgQmcaZQiU1omVkyBcrVERR.jpg", "popularity": 15.537}, {"adult": false, "backdrop_path": "/t52ImvH020yOvoEhH6sRzC6XoCj.jpg", "genre_ids": [18], "id": 406, "original_language": "fr", "original_title": "La Haine", "overview": "Aimlessly whiling away their days in the concrete environs of their dead-end suburbia, Vinz, Hubert, and Said - a Jew, African, and an Arab - give human faces to France's immigrant populations, their bristling resentment at their social marginalization slowly simmering until it reaches a climactic boiling point.", "poster_path": "/jTzBED0leGPwWDqNewye11qzJgd.jpg", "release_date": "1995-05-31", "title": "La Haine", "video": false, "vote_average": 8.0, "vote_count": 1734, "popularity": 16.874}, {"id": 33542, "video": false, "vote_count": 478, "vote_average": 6.6, "title": "Rumble in the Bronx", "release_date": "1995-01-30", "original_language": "cn", "original_title": "\u7d05\u756a\u5340", "genre_ids": [28, 35, 80, 53], "backdrop_path": "/rGeVEsRDVvlMBN7fmOKhNW2GtWy.jpg", "adult": false, "overview": "Keong comes from Hong Kong to visit New York for his uncle's wedding. His uncle runs a market in the Bronx and Keong offers to help out while Uncle is on his honeymoon. During his stay in the Bronx, Keong befriends a neighbor kid and beats up some neighborhood thugs who cause problems at the market. One of those petty thugs in the local gang stumbles into a criminal situation way over his head.", "poster_path": "/y7AxKPPCtZyrGQKvxzn5zTQ8wFm.jpg", "popularity": 14.701}, {"id": 277216, "video": false, "vote_count": 2190, "vote_average": 7.7, "title": "Straight Outta Compton", "release_date": "2015-08-13", "original_language": "en", "original_title": "Straight Outta Compton", "genre_ids": [18, 10402], "backdrop_path": "/fdDTA06o5e7MRXnTGAf4EygL2MJ.jpg", "adult": false, "overview": "In 1987, five young men, using brutally honest rhymes and hardcore beats, put their frustration and anger about life in the most dangerous place in America into the most powerful weapon they had: their music.  Taking us back to where it all began, Straight Outta Compton tells the true story of how these cultural rebels\u2014armed only with their lyrics, swagger, bravado and raw talent\u2014stood up to the authorities that meant to keep them down and formed the world\u2019s most dangerous group, N.W.A.  And as they spoke the truth that no one had before and exposed life in the hood, their voice ignited a social revolution that is still reverberating today.", "poster_path": "/X7S1RtotXOZNV7OlgCfh5VKZSB.jpg", "popularity": 19.816}, {"id": 194662, "video": false, "vote_count": 8621, "vote_average": 7.5, "title": "Birdman", "release_date": "2014-08-27", "original_language": "en", "original_title": "Birdman", "genre_ids": [35, 18], "backdrop_path": "/AsJVim0Hk3KbQPbfjyijfjqmaoZ.jpg", "adult": false, "overview": "A fading actor best known for his portrayal of a popular superhero attempts to mount a comeback by appearing in a Broadway play. As opening night approaches, his attempts to become more altruistic, rebuild his career, and reconnect with friends and family prove more difficult than expected.", "poster_path": "/rSZs93P0LLxqlVEbI001UKoeCQC.jpg", "popularity": 40.415}, {"adult": false, "backdrop_path": "/kiWvoV78Cc3fUwkOHKzyBgVdrDD.jpg", "genre_ids": [37, 18, 12], "id": 281957, "original_language": "en", "original_title": "The Revenant", "overview": "In the 1820s, a frontiersman, Hugh Glass, sets out on a path of vengeance against those who left him for dead after a bear mauling.", "poster_path": "/oXUWEc5i3wYyFnL1Ycu8ppxxPvs.jpg", "release_date": "2015-12-25", "title": "The Revenant", "video": false, "vote_average": 7.5, "vote_count": 12127, "popularity": 24.135}, {"adult": false, "backdrop_path": "/74Jh5SIWnKDwtusPfDP51EeCFHt.jpg", "genre_ids": [35, 10749], "id": 9576, "original_language": "en", "original_title": "Tootsie", "overview": "When struggling, out of work actor Michael Dorsey secretly adopts a female alter ego - Dorothy Michaels - in order to land a part in a daytime drama, he unwittingly becomes a feminist icon and ends up in a romantic pickle.", "poster_path": "/ngyCzZwb9y5sMUCig5JQT4Y33Q.jpg", "release_date": "1982-12-16", "title": "Tootsie", "video": false, "vote_average": 7.2, "vote_count": 915, "popularity": 9.882}, {"id": 138832, "video": false, "vote_count": 5758, "vote_average": 6.8, "title": "We're the Millers", "release_date": "2013-08-07", "original_language": "en", "original_title": "We're the Millers", "genre_ids": [35, 80], "backdrop_path": "/hoSddFLIyr6FUylOwCxoahbvnXd.jpg", "adult": false, "overview": "A veteran pot dealer creates a fake family as part of his plan to move a huge shipment of weed into the U.S. from Mexico.", "poster_path": "/digXuLXmk88Ar23LYUQTLcz5npA.jpg", "popularity": 22.212}, {"id": 223485, "video": false, "vote_count": 586, "vote_average": 6.6, "title": "Slow West", "release_date": "2015-04-16", "original_language": "en", "original_title": "Slow West", "genre_ids": [28, 18, 53, 37, 10749], "backdrop_path": "/9qF6lhj6X0ImH4iWGZs1uspXJI0.jpg", "adult": false, "overview": "In the Old West, a 17-year-old Scottish boy teams up with a mysterious gunman to find the woman with whom he is infatuated.", "poster_path": "/uZ9dBBn0GaEw0YIBvQd01Io3pho.jpg", "popularity": 10.467}, {"id": 8467, "video": false, "vote_count": 3730, "vote_average": 6.5, "title": "Dumb and Dumber", "release_date": "1994-12-16", "original_language": "en", "original_title": "Dumb and Dumber", "genre_ids": [35], "backdrop_path": "/2BkcMxgEq7i5x69Q6w77JeEewWr.jpg", "adult": false, "overview": "Lloyd and Harry are two men whose stupidity is really indescribable. When Mary, a beautiful woman, loses an important suitcase with money before she leaves for Aspen, the two friends (who have found the suitcase) decide to return it to her. After some \"adventures\" they finally get to Aspen where, using the lost money they live it up and fight for Mary's heart.", "poster_path": "/3PEAkZHa8ehfUkuKbzmQNRTTAAs.jpg", "popularity": 21.067}, {"adult": false, "backdrop_path": "/tr6OExnBfjLADi9OyZoW308mPAp.jpg", "genre_ids": [18, 35, 10749], "id": 74643, "original_language": "en", "original_title": "The Artist", "overview": "Hollywood, 1927: As silent movie star George Valentin wonders if the arrival of talking pictures will cause him to fade into oblivion, he sparks with Peppy Miller, a young dancer set for a big break.", "poster_path": "/i0mpvMIIjyubXsVKug9vX0lYpnd.jpg", "release_date": "2011-06-26", "title": "The Artist", "video": false, "vote_average": 7.4, "vote_count": 1977, "popularity": 10.661}, {"adult": false, "backdrop_path": "/qYIag7ACS9todyiWyYQVG2PL0Iv.jpg", "genre_ids": [35], "id": 10607, "original_language": "en", "original_title": "Don't Be a Menace to South Central While Drinking Your Juice in the Hood", "overview": "When Ashtray (Shawn Wayans) moves to South Central L.A. to live with his father (who appears to be the same age he is) and grandmother (who likes to talk tough and smoke reefer), he falls in with his gang-banging cousin Loc Dog (Marlon Wayans), who along with the requisite pistols and Uzi carries a thermo-nuclear warhead for self-defense. Will Ashtray be able to keep living the straight life?", "poster_path": "/l6D9f9WbxdI4tyCmJGs56y8tQla.jpg", "release_date": "1996-01-12", "title": "Don't Be a Menace to South Central While Drinking Your Juice in the Hood", "video": false, "vote_average": 6.2, "vote_count": 412, "popularity": 19.933}, {"adult": false, "backdrop_path": "/7m6D3kQBrbMcqxwrSNEsvs1XuMS.jpg", "genre_ids": [35, 80], "id": 11895, "original_language": "en", "original_title": "Police Academy 6: City Under Siege", "overview": "Our favourite police men are called together to deal with a gang who rob banks and jewelers. Using their various talents as well as their extraordinary luck, the crooks stand no chance against our men and women wearing blue..", "poster_path": "/9mW8fM0PkXvSSmLODTb2OAYEQTY.jpg", "release_date": "1989-03-09", "title": "Police Academy 6: City Under Siege", "video": false, "vote_average": 4.9, "vote_count": 421, "popularity": 13.794}, {"id": 8961, "video": false, "vote_count": 2968, "vote_average": 6.5, "title": "Bad Boys II", "release_date": "2003-07-18", "original_language": "en", "original_title": "Bad Boys II", "genre_ids": [28, 12, 35, 80, 53], "backdrop_path": "/5xQVApmdUbBlCi1QzS8NwbCF0Ne.jpg", "adult": false, "overview": "Out-of-control, trash-talking buddy cops Marcus Burnett and Mike Lowrey of the Miami Narcotics Task Force reunite, and bullets fly, cars crash and laughs explode as they pursue a whacked-out drug lord from the streets of Miami to the barrios of Cuba. But the real fireworks result when Marcus discovers that playboy Mike is secretly romancing Marcus\u2019 sexy sister.", "poster_path": "/680X9apSqmAcebLg8evnnUeQNeI.jpg", "popularity": 37.123}, {"id": 153, "video": false, "vote_count": 3922, "vote_average": 7.4, "title": "Lost in Translation", "release_date": "2003-08-31", "original_language": "en", "original_title": "Lost in Translation", "genre_ids": [35, 18, 10749], "backdrop_path": "/iJP2ogeM5YpZyUOkmCiZ5UXWyBf.jpg", "adult": false, "overview": "Two lost souls visiting Tokyo -- the young, neglected wife of a photographer and a washed-up movie star shooting a TV commercial -- find an odd solace and pensive freedom to be real in each other's company, away from their lives in America.", "poster_path": "/wkSzJs7oMf8MIr9CQVICsvRfwA7.jpg", "popularity": 17.289}], "total_pages": 94, "total_results": 1871}, "recommendations": {"page": 1, "results": [], "total_pages": 1, "total_results": 0}, "credits": {"cast": [{"cast_id": 2, "character": "", "credit_id": "52fe4d9ec3a36847f826ac93", "gender": 2, "id": 13295, "name": "Donald O'Connor", "order": 0, "profile_path": "/pPB1oZgIBfZqRM0xMNtKD9g4LJP.jpg"}, {"cast_id": 3, "character": "", "credit_id": "52fe4d9ec3a36847f826ac97", "gender": 1, "id": 109721, "name": "Gale Storm", "order": 1, "profile_path": "/bCjpdMFCrIBRYubV0kqZKmmHl0d.jpg"}, {"cast_id": 4, "character": "", "credit_id": "52fe4d9ec3a36847f826ac9b", "gender": 2, "id": 4302, "name": "Walter Brennan", "order": 2, "profile_path": "/wPp0mmWWVMzOD3ipne6MrgDr0Tm.jpg"}, {"cast_id": 5, "character": "", "credit_id": "52fe4d9ec3a36847f826ac9f", "gender": 2, "id": 1905, "name": "Vincent Price", "order": 3, "profile_path": "/1B5qC9TdVc20e6pA5zpFsuoCXUg.jpg"}, {"cast_id": 6, "character": "", "credit_id": "52fe4d9ec3a36847f826aca3", "gender": 1, "id": 860, "name": "Eve Arden", "order": 4, "profile_path": "/48QTc9iIS3nuJOE8FiAV6qPFPuj.jpg"}, {"cast_id": 7, "character": "", "credit_id": "52fe4d9ec3a36847f826aca7", "gender": 2, "id": 34286, "name": "Chick Chandler", "order": 5, "profile_path": "/c4ARz3iDt7kFJ1Oev1iHjGSGnt9.jpg"}, {"cast_id": 8, "character": "", "credit_id": "52fe4d9ec3a36847f826acab", "gender": 2, "id": 3341, "name": "Joe Sawyer", "order": 6, "profile_path": "/lCaAMy0BeuEf0kFBuNnKWz5lkTL.jpg"}, {"cast_id": 9, "character": "", "credit_id": "52fe4d9ec3a36847f826acaf", "gender": 2, "id": 4077, "name": "Harry Shannon", "order": 7, "profile_path": "/7Js8vAjzKzM5eXcu6THDzWM7j5P.jpg"}, {"cast_id": 10, "character": "", "credit_id": "52fe4d9ec3a36847f826acb3", "gender": 2, "id": 96713, "name": "Rex Lease", "order": 8, "profile_path": "/dstgv2uzv4FeuJQa05sJYLmV9rM.jpg"}, {"cast_id": 11, "character": "", "credit_id": "52fe4d9ec3a36847f826acb7", "gender": 2, "id": 120739, "name": "I. Stanford Jolley", "order": 9, "profile_path": "/f52QrybfGyAgm9pH9BnY95MBd7C.jpg"}, {"cast_id": 12, "character": "", "credit_id": "52fe4d9ec3a36847f826acbb", "gender": 2, "id": 30299, "name": "Hank Worden", "order": 10, "profile_path": "/r43IWN0nGj6kpgNAiK0kgzTIA95.jpg"}, {"cast_id": 17, "character": "Posse Man (uncredited)", "credit_id": "5a1140ffc3a368628904626d", "gender": 0, "id": 931630, "name": "Johnny Carpenter", "order": 11, "profile_path": "/156YUd8JbejLf971ewjKyVpKu1b.jpg"}, {"cast_id": 18, "character": "Henchman (uncredited)", "credit_id": "5a11411fc3a368627d04e42d", "gender": 0, "id": 160930, "name": "Lane Bradford", "order": 12, "profile_path": "/2FeXcbcxx14PRol8XcuFcZzBiAU.jpg"}, {"cast_id": 19, "character": "Henchman (uncredited)", "credit_id": "5a11413592514138f30490bd", "gender": 2, "id": 43836, "name": "Edmund Cobb", "order": 13, "profile_path": "/ss20cqXhEqdtoXVesH7nwKr3o0e.jpg"}, {"cast_id": 20, "character": "Henchman (uncredited)", "credit_id": "5a11414c92514138f9045a9a", "gender": 0, "id": 121207, "name": "Terry Frost", "order": 14, "profile_path": "/icYVIm2FnFJirB4r2cyBnJy8TMu.jpg"}, {"cast_id": 21, "character": "Banker Maxwell (uncredited)", "credit_id": "5a11416892514138e404658b", "gender": 2, "id": 932308, "name": "Ferris Taylor", "order": 15, "profile_path": null}, {"cast_id": 22, "character": "Jailer (uncredited)", "credit_id": "5a114179c3a368628f044bc8", "gender": 2, "id": 116494, "name": "Eddy Waller", "order": 16, "profile_path": "/8eir0WQgHFnDMok4MkIqdjWbkBH.jpg"}], "crew": [{"credit_id": "52fe4d9ec3a36847f826ac8f", "department": "Directing", "gender": 2, "id": 29627, "job": "Director", "name": "Charles Lamont", "profile_path": null}, {"credit_id": "588aa24a925141533b00ec97", "department": "Writing", "gender": 2, "id": 29628, "job": "Screenplay", "name": "Howard Dimsdale", "profile_path": null}, {"credit_id": "588aa250c3a368149100d5c5", "department": "Writing", "gender": 2, "id": 29628, "job": "Story", "name": "Howard Dimsdale", "profile_path": null}, {"credit_id": "588aa265c3a368191e00e10e", "department": "Writing", "gender": 2, "id": 64116, "job": "Story", "name": "Stanley Roberts", "profile_path": null}, {"credit_id": "588aa259c3a368181000daca", "department": "Writing", "gender": 2, "id": 70495, "job": "Writer", "name": "Oscar Brodney", "profile_path": null}, {"credit_id": "5d06492d0e0a260eddcd3f1b", "department": "Costume & Make-Up", "gender": 1, "id": 2337066, "job": "Hairstylist", "name": "Emmy Eckhardt", "profile_path": null}, {"credit_id": "5d0645150e0a260eddcd3982", "department": "Lighting", "gender": 2, "id": 2337071, "job": "Gaffer", "name": "Max Nippell", "profile_path": null}]}}