{"adult": false, "backdrop_path": null, "belongs_to_collection": null, "budget": 0, "genres": [], "homepage": null, "id": 179837, "imdb_id": "tt0156770", "original_language": "de", "original_title": "Manufraktur", "overview": "A tangled network woven with tiny particles of movements broken out of found footage and compiled anew: the elements of the \"to the left, to the right, back and forth\" grammar of narrative space, discharged from all semantic burden. What remains is a self-sufficient swarm of splinters, fleeting vectors of lost direction, furrowed with the traces of the manual process of production.", "popularity": 1.322, "poster_path": "/h4FyeiVbZ487heEzdXAU3tzRgck.jpg", "production_companies": [], "production_countries": [{"iso_3166_1": "AT", "name": "Austria"}], "release_date": "1985-01-01", "revenue": 0, "runtime": 3, "spoken_languages": [{"iso_639_1": "de", "name": "Deutsch"}], "status": "Released", "tagline": "", "title": "Manufractur", "video": false, "vote_average": 6.3, "vote_count": 12, "keywords": {"keywords": [{"id": 14629, "name": "experimental"}, {"id": 163053, "name": "found footage"}]}, "similar": {"page": 1, "results": [{"id": 621733, "video": false, "vote_count": 0, "vote_average": 0.0, "title": "A Trip to the Seaside", "release_date": "2019-08-30", "original_language": "en", "original_title": "A Trip to the Seaside", "genre_ids": [99], "backdrop_path": null, "adult": false, "overview": "Experimental short film on the excitement and rush of a day trip", "poster_path": "/AuZVhpoJ4jm2LWDhoJKfxQfhDAi.jpg", "popularity": 1.324}, {"id": 650755, "video": false, "vote_count": 0, "vote_average": 0.0, "title": "Atordoado, Eu Permane\u00e7o Atento", "release_date": "2020-01-15", "original_language": "pt", "original_title": "Atordoado, Eu Permane\u00e7o Atento", "genre_ids": [99], "backdrop_path": null, "adult": false, "overview": "", "poster_path": "/exbM8qk6f6T44olJXcM8ix1sunL.jpg", "popularity": 5.092}, {"adult": false, "backdrop_path": "/twGxeStlGooWV3gP6ZIcSNuQ6jf.jpg", "genre_ids": [12, 16, 10751, 14], "id": 81684, "original_language": "en", "original_title": "The Gruffalo's Child", "overview": "A follow up to the 2009 animated feature and adapted from the childrens' book by Julia Donaldson and Alex Scheffler.  The Gruffalo's child explores the deep dark wood in search of the big bad mouse and meets the Snake, Owl and Fox in the process.  She eventually finds the mouse, who manages to outwit her like the Gruffalo before!", "poster_path": "/qaGH2AoaLvoGXURQtNzj1nw6oZd.jpg", "release_date": "2011-12-25", "title": "The Gruffalo's Child", "video": false, "vote_average": 6.9, "vote_count": 73, "popularity": 9.51}, {"adult": false, "backdrop_path": null, "genre_ids": [], "id": 616262, "original_language": "ar", "original_title": "All Come From Dust", "overview": "A loop of edgeless bend. You were its doom, he was its bloom. You were its tomb, he was its womb. You were its gloom, he was its loom. For Heaven and Hell, were words made of fume.", "poster_path": null, "release_date": "2019-08-13", "title": "All Come From Dust", "video": false, "vote_average": 5.0, "vote_count": 1, "popularity": 0.6}, {"id": 326359, "video": false, "vote_count": 1180, "vote_average": 6.8, "title": "Frozen Fever", "release_date": "2015-03-09", "original_language": "en", "original_title": "Frozen Fever", "genre_ids": [12, 16, 10751], "backdrop_path": "/ubioPGniCfDiASmYYpeJs5RRNaC.jpg", "adult": false, "overview": "On Anna's birthday, Elsa and Kristoff are determined to give her the best celebration ever, but Elsa's icy powers may put more than just the party at risk.", "poster_path": "/lKJiVPzsAO9IJ4LKWXZ8vkR2bg4.jpg", "popularity": 17.218}, {"id": 901, "video": false, "vote_count": 1026, "vote_average": 8.4, "title": "City Lights", "release_date": "1931-02-01", "original_language": "xx", "original_title": "City Lights", "genre_ids": [35, 18, 10749], "backdrop_path": "/vT6ux2rdyg2kexuLisO5Ygz7pHg.jpg", "adult": false, "overview": "City Lights is the first silent film that Charlie Chaplin directed after he established himself with sound accompanied films. The film is about a penniless man who falls in love with a flower girl.", "poster_path": "/bXNvzjULc9jrOVhGfjcc64uKZmZ.jpg", "popularity": 14.645}, {"id": 10258, "video": false, "vote_count": 148, "vote_average": 6.6, "title": "The Madagascar Penguins in a Christmas Caper", "release_date": "2005-09-23", "original_language": "en", "original_title": "The Madagascar Penguins in a Christmas Caper", "genre_ids": [16, 35, 10751], "backdrop_path": "/gdJ6j1hmt6dQgObWxDJAHUb58o6.jpg", "adult": false, "overview": "During the holiday season, when the animals of the Central Park Zoo are preparing for Christmas, Private, the youngest of the penguins notices that the Polar Bear is all alone. Assured that nobody should have to spend Christmas alone, Private goes into the city for some last-minute Christmas shopping. Along the way, he gets stuffed into a stocking", "poster_path": "/r8QtfGSjDaY6vICRVyYvZvTkjxc.jpg", "popularity": 13.032}, {"adult": false, "backdrop_path": "/wcT7srQ4GeeMqlszMFEtPZ7v8T7.jpg", "genre_ids": [35, 10749], "id": 28978, "original_language": "en", "original_title": "The Circus", "overview": "Charlie, a wandering tramp, becomes a circus handyman and falls in love with the circus owner's daughter. Unaware of Charlie's affection, the girl falls in love with a handsome young performer. Charlie's versatility makes him star of the show when he substitutes for an ailing tightwire walker. He is discharged from the company when he protects the girl from her father's abuse, but he returns and appeals to the handsome performer to marry the girl. After the wedding the father prevails upon them to rejoin the circus. Charlie is hired again, but he stays behind when the caravan moves on.", "poster_path": "/awTf4Y6TGvgi3VYtGNINyyJJy9Q.jpg", "release_date": "1928-01-06", "title": "The Circus", "video": false, "vote_average": 8.2, "vote_count": 330, "popularity": 12.839}, {"adult": false, "backdrop_path": "/tr6OExnBfjLADi9OyZoW308mPAp.jpg", "genre_ids": [18, 35, 10749], "id": 74643, "original_language": "en", "original_title": "The Artist", "overview": "Hollywood, 1927: As silent movie star George Valentin wonders if the arrival of talking pictures will cause him to fade into oblivion, he sparks with Peppy Miller, a young dancer set for a big break.", "poster_path": "/i0mpvMIIjyubXsVKug9vX0lYpnd.jpg", "release_date": "2011-06-26", "title": "The Artist", "video": false, "vote_average": 7.4, "vote_count": 1977, "popularity": 10.661}, {"adult": false, "backdrop_path": "/6kVVfNT0auG6fU5SFQ1zbayNWUC.jpg", "genre_ids": [28, 53, 878], "id": 7191, "original_language": "en", "original_title": "Cloverfield", "overview": "Five young New Yorkers throw their friend a going-away party the night that a monster the size of a skyscraper descends upon the city. Told from the point of view of their video camera, the film is a document of their attempt to survive the most surreal, horrifying event of their lives.", "poster_path": "/qIegUGJqyMMCRjkKV1s7A9MqdJ8.jpg", "release_date": "2008-01-15", "title": "Cloverfield", "video": false, "vote_average": 6.5, "vote_count": 4429, "popularity": 18.322}, {"id": 76726, "video": false, "vote_count": 3331, "vote_average": 6.7, "title": "Chronicle", "release_date": "2012-02-01", "original_language": "en", "original_title": "Chronicle", "genre_ids": [18, 878, 53], "backdrop_path": "/f54d3tpzdRW02IDIIVRuwiY2N3K.jpg", "adult": false, "overview": "Three high school students make an incredible discovery, leading to their developing uncanny powers beyond their understanding. As they learn to control their abilities and use them to their advantage, their lives start to spin out of control, and their darker sides begin to take over.", "poster_path": "/kdyrdFIt29FUmLIKvedAc2j4rpo.jpg", "popularity": 16.937}, {"id": 14813, "video": false, "vote_count": 456, "vote_average": 7.6, "title": "Mickey's Christmas Carol", "release_date": "1983-10-19", "original_language": "en", "original_title": "Mickey's Christmas Carol", "genre_ids": [16, 10751], "backdrop_path": "/fDK3xeAcQfQ40ZUULgZshElkspa.jpg", "adult": false, "overview": "It is an adaptation of the Charles Dickens classic A Christmas Carol, featuring Scrooge McDuck as his namesake and inspiration Ebenezer Scrooge and Mickey Mouse as Bob Cratchit. This film was based on a 1972 audio musical entitled Disney's A Christmas Carol. It is a twenty-four minute animated short film produced by Walt Disney Productions as an accompaniment to a re-release of The Rescuers.", "poster_path": "/29iF1IiC3ZyJQ1kmTf4LD8p8oro.jpg", "popularity": 14.7}, {"id": 19, "video": false, "vote_count": 1340, "vote_average": 8.2, "title": "Metropolis", "release_date": "1927-01-10", "original_language": "de", "original_title": "Metropolis", "genre_ids": [18, 878], "backdrop_path": "/gmH0N0bdlYGN1EUr8U2cMQYyg78.jpg", "adult": false, "overview": "In a futuristic city sharply divided between the working class and the city planners, the son of the city's mastermind falls in love with a working class prophet who predicts the coming of a savior to mediate their differences.", "poster_path": "/qriaeUUwdmlgethK3aSAx68mG05.jpg", "popularity": 20.587}, {"id": 298312, "video": false, "vote_count": 2924, "vote_average": 6.2, "title": "The Visit", "release_date": "2015-09-10", "original_language": "en", "original_title": "The Visit", "genre_ids": [27, 9648, 53], "backdrop_path": "/gbJlEeALVGo7kx8bC2q4EFWX1Xy.jpg", "adult": false, "overview": "The terrifying story of a brother and sister who are sent to their grandparents' remote Pennsylvania farm for a weeklong trip. Once the children discover that the elderly couple is involved in something deeply disturbing, they see their chances of getting back home are growing smaller every day.", "poster_path": "/32tNtTEQ1vIOLm1hEOSFkVwJT5D.jpg", "popularity": 24.632}, {"id": 460793, "video": false, "vote_count": 933, "vote_average": 6.2, "title": "Olaf's Frozen Adventure", "release_date": "2017-10-27", "original_language": "en", "original_title": "Olaf's Frozen Adventure", "genre_ids": [12, 16, 35, 14, 10402, 10751], "backdrop_path": "/9K4QqQZg4TVXcxBGDiVY4Aey3Rn.jpg", "adult": false, "overview": "Olaf is on a mission to harness the best holiday traditions for Anna, Elsa, and Kristoff.", "poster_path": "/As8WTtxXs9e3cBit3ztTf7zoRmm.jpg", "popularity": 21.98}, {"id": 14787, "video": false, "vote_count": 124, "vote_average": 6.4, "title": "Tom and Jerry: The Magic Ring", "release_date": "2002-03-12", "original_language": "en", "original_title": "Tom and Jerry: The Magic Ring", "genre_ids": [28, 16, 35, 14, 10751], "backdrop_path": "/wPvYwB9NYUJRXIzjKeupigE1JXc.jpg", "adult": false, "overview": "The world's favourite cat and mouse team bounds back into action in an all-new full-length animated adventure certain to cast its spell over the entire family Left in charge of a priceless magical ring by his young wizard master, Tom is horrified when the ring gets stuck on Jerry's head, who then runs off into the city! Before you can say \"abracadabra\", the entire town is hot on our heroes' tails.", "poster_path": "/fF6I48WGKktHfGYYSVKPTVildWE.jpg", "popularity": 15.019}, {"id": 654980, "video": false, "vote_count": 0, "vote_average": 0.0, "title": "Former Cult Member Hears Music For The First Time", "release_date": "2020-01-23", "original_language": "en", "original_title": "Former Cult Member Hears Music For The First Time", "genre_ids": [], "backdrop_path": null, "adult": false, "overview": "After a woman escapes the captivity of her abusive family, a magazine invites her to a journalistic experiment: to hear music for the first time.", "poster_path": "/85K8ODZp51Cl5OAivRyjN1MKTdy.jpg", "popularity": 18.403}, {"id": 216282, "video": false, "vote_count": 1270, "vote_average": 5.9, "title": "Into the Storm", "release_date": "2014-08-06", "original_language": "en", "original_title": "Into the Storm", "genre_ids": [28, 53], "backdrop_path": "/i0umpdqVURR1VZFX67QGJEXKvLe.jpg", "adult": false, "overview": "As a new day begins in the town of Silverton, its residents have little reason to believe it will be anything other than ordinary. Mother Nature, however has other plans. In the span of just a few hours, an unprecedented onslaught of powerful tornadoes ravages Silverton. Storm trackers predict that the worst is still to come, as terrified residents seek shelter, and professional storm-chasers run toward the danger, hoping to study the phenomenon close up and get a once-in-a-lifetime shot.", "poster_path": "/dtuyhlOtqj8zPPFgTgWJ0bF3s2h.jpg", "popularity": 12.064}, {"adult": false, "backdrop_path": null, "genre_ids": [], "id": 623058, "original_language": "en", "original_title": "We Still Have to Close Our Eyes", "overview": "John Torres repurposes documentary footage captured from the sets of various Filipino productions (including the likes of Lav Diaz and Erik Matti) into an eerie, elliptical sci-fi narrative about human avatars controlled by apps.", "poster_path": "/jY7znoWWH3BJCK25w6QBOSfIFPs.jpg", "release_date": "2019-09-06", "title": "We Still Have to Close Our Eyes", "video": false, "vote_average": 0.0, "vote_count": 0, "popularity": 1.278}, {"id": 23827, "video": false, "vote_count": 3072, "vote_average": 5.9, "title": "Paranormal Activity", "release_date": "2009-09-25", "original_language": "en", "original_title": "Paranormal Activity", "genre_ids": [27, 9648], "backdrop_path": "/sPaDUSuVQy1SL7ybnxilgWzLDAQ.jpg", "adult": false, "overview": "A young couple begins to film the strange activities occurring in their house nightly, and find that there's something lurking in the darkness.", "poster_path": "/ns7J1iMSDs5UkEVjMXLPiss7Lrt.jpg", "popularity": 16.504}], "total_pages": 893, "total_results": 17843}, "recommendations": {"page": 1, "results": [{"adult": false, "backdrop_path": null, "genre_ids": [], "id": 101810, "original_language": "en", "original_title": "William Buys a Parrot", "overview": "A bizarre silent short film showing author William S. Burroughs negotiating to buy a parrot.", "poster_path": "/gYXp1x25CDkMtpFyxHRxXJZRVKO.jpg", "release_date": "1963-10-16", "title": "William Buys a Parrot", "video": false, "vote_average": 6.6, "vote_count": 5, "popularity": 0.854}, {"adult": false, "backdrop_path": null, "genre_ids": [99], "id": 48869, "original_language": "it", "original_title": "Le mura di Sana'a", "overview": "The capital of Yemen, the city of Sana'a, holds an important part of history within its walls filled with medieval architecture and culture. But that same culture was about to disappear with the country's modernization which came after the civil war in the 1960's. To impeach such modern invasion, director Pasolini pledges to UNESCO for the recognition of Sana'a as a World Heritage Site.", "poster_path": "/ocNnhvSSxX0QIv4sTQnE4Xg60J.jpg", "release_date": "1971-02-15", "title": "The Walls of Sana'a", "video": false, "vote_average": 6.4, "vote_count": 7, "popularity": 1.423}, {"adult": false, "backdrop_path": null, "genre_ids": [], "id": 127323, "original_language": "en", "original_title": "Dog Star Man: Part IV", "overview": "A man is supine on a mountain side. Images rush past of nature and a stained glass saint. An infant is born. We see a lactating nipple. Images include a mountain peak, farm buildings, a tree stump, a fire, a crawling baby, and the sun. The man falls and rolls. Then, later, he swings his ax.", "poster_path": "/i4utOPtqb6VpFR7zNzlXziUOaq0.jpg", "release_date": "1965-02-22", "title": "Dog Star Man: Part IV", "video": false, "vote_average": 6.5, "vote_count": 20, "popularity": 2.654}, {"adult": false, "backdrop_path": null, "genre_ids": [], "id": 144943, "original_language": "en", "original_title": "The Machine of Eden", "overview": "Short film from Stan Brakhage", "poster_path": "/hpQ8vy0trlbfeVeqXHblnwmf07u.jpg", "release_date": "1970-09-23", "title": "The Machine of Eden", "video": false, "vote_average": 5.2, "vote_count": 10, "popularity": 3.986}, {"adult": false, "backdrop_path": null, "genre_ids": [], "id": 127320, "original_language": "en", "original_title": "Dog Star Man: Part III", "overview": "Sexual intimacy. Three kinds of images race past, superimposed on each other sometimes: two bodies, a man and a woman's, close up, nude - patches of skin, wisps of hair, glimpses of a face and genitalia; strips of celluloid with lines and squiggles scratched on them; and, close-up shots of what appear to be the insides of living bodies - a heart beating, muscle and sinew and tissue wet with fluids. The exterior and interior of desire.", "poster_path": "/7yxH1QWMcHCTzChePqkkl01R38i.jpg", "release_date": "1964-11-17", "title": "Dog Star Man: Part III", "video": false, "vote_average": 6.6, "vote_count": 21, "popularity": 3.09}, {"adult": false, "backdrop_path": null, "genre_ids": [], "id": 86280, "original_language": "en", "original_title": "Star Spangled to Death", "overview": "An examination of the history of the U.S. through archival footage and contrasting views of society. Incorporating audiovisual material ranging from political campaign films to animated cartoons to children\u2019s phonograph records, featuring Al Jolson, Mickey Mouse, the young Jack Smith, and a half-dozen American presidents, this vast, ironic pageant of 20th-century American history is a unique and mind-boggling contraption, the ultimate underground movie.", "poster_path": "/1SshlLXCfFgqX9iJLtwPuAYh4Bx.jpg", "release_date": "2004-05-21", "title": "Star Spangled to Death", "video": false, "vote_average": 8.2, "vote_count": 5, "popularity": 1.894}, {"adult": false, "backdrop_path": null, "genre_ids": [], "id": 190293, "original_language": "de", "original_title": "Impressionen vom alten Marseiller Hafen (Vieux Port)", "overview": "\"Impressionen vom alten marseiller Hafen,\" captures the steady hum of commerce of one of europe's biggest and most populous port cities.", "poster_path": "/65y7gQzYrTywDwMk54SIA6Ti8RS.jpg", "release_date": "1929-04-30", "title": "Impressions of the Old Marseille Harbor", "video": false, "vote_average": 6.6, "vote_count": 5, "popularity": 1.634}, {"adult": false, "backdrop_path": null, "genre_ids": [10751, 18], "id": 66182, "original_language": "fr", "original_title": "Yaaba", "overview": "A small African village. The story focuses on Bila, a ten year old boy who befriends an old woman, Sana. Everybody calls her 'Witch' but Bila himself calls her 'Yaaba' (grandmother). When Bila's cousin Nopoko gets sick it is Sana's medicine that saves her.", "poster_path": "/6VSa0GgsLSidJhd11YcALPNobiC.jpg", "release_date": "1989-09-14", "title": "Yaaba", "video": false, "vote_average": 5.9, "vote_count": 7, "popularity": 1.136}, {"adult": false, "backdrop_path": "/8iCwliz1Sq11USlbtPlnMU3JsTp.jpg", "genre_ids": [35], "id": 44350, "original_language": "en", "original_title": "Hor B'Levana", "overview": "A comic and episodic satire, the film uses improvisation to illustrate the clash between fantasy and reality in real life. Although conceived in the style of Mekas\u2019 \u201cHallelujah the hills\u201d (1962), it\u2019s an authentically Israeli satire, an openly rebellious and individualistic expression that poked fun at the sacred myths of earlier zionist films. The technique of film within the film is used to portray cinema as reflection of the imagination, a miracle based on dreams and fantasies that take on concrete characteristics \u2013 parallel to the miracle of Israel, the dream that has become reality. Although not a commercial success, its importance is beyond any measure, though it remains a unique experiment, boldly uncommercial and subversive, out of any context in that patriotic, ideological epoch.", "poster_path": "/wV6NLo6i7xWIKkMpSVkz9evupfd.jpg", "release_date": "1964-01-01", "title": "Hole in the Moon", "video": false, "vote_average": 6.3, "vote_count": 5, "popularity": 1.258}, {"adult": false, "backdrop_path": null, "genre_ids": [10752, 14], "id": 376710, "original_language": "en", "original_title": "2nd War Hats", "overview": "", "poster_path": "/pcr2Vrxh15RFj3eHWfFX62jadZH.jpg", "release_date": "1986-01-01", "title": "2nd War Hats", "video": false, "vote_average": 6.3, "vote_count": 4, "popularity": 0.6}, {"adult": false, "backdrop_path": "/neqZew2pahZQGepq2oMLFDofkbk.jpg", "genre_ids": [99], "id": 131792, "original_language": "en", "original_title": "At Sea", "overview": "Three segments depicting the life cycle of a freighter boat.", "poster_path": "/kys23FFRsQuhltdYj6KcpG32XAt.jpg", "release_date": "2007-09-07", "title": "At Sea", "video": false, "vote_average": 7.8, "vote_count": 10, "popularity": 2.513}, {"adult": false, "backdrop_path": null, "genre_ids": [99], "id": 278859, "original_language": "en", "original_title": "Thot-Fal'N", "overview": "Thot-Fal\u2019N is a typical piece of Stan Brakhage montage: 9 minutes of completely silent close-ups, shots blurred to incoherence, and occasional clips of American streets or people. Among the identifiable humans there\u2019s a brief sequence with William Burroughs and a balloon, and also shots of Allen Ginsberg and Peter Orlovsky.", "poster_path": "/8tHs0gkPRXWOInrM4P6oTmEDhiN.jpg", "release_date": "1978-06-27", "title": "Thot-Fal'N", "video": false, "vote_average": 5.5, "vote_count": 4, "popularity": 1.612}, {"adult": false, "backdrop_path": null, "genre_ids": [99], "id": 195312, "original_language": "en", "original_title": "In the Grip of the Blizzard", "overview": "\"This is a very remarkable picture, showing Union Square, New York City, during the great March blizzard of 1899. The camera was stationed at the corner of Broadway and Fourteenth Street, and was swept in almost a complete circle, showing the tremendous drifts of snow and the blockade at 'Dead Man's Curve' in Fourteenth Street. This picture was taken during the busiest time of the day, and shows to what extent New York City was tied up by this tremendous fall of snow.\" (AMB Picture Catalogue (1902)", "poster_path": "/lX54qqesXnoTnflA885B6uP9ybz.jpg", "release_date": "1899-05-20", "title": "In the Grip of the Blizzard", "video": false, "vote_average": 6.2, "vote_count": 6, "popularity": 1.128}, {"id": 146987, "video": false, "vote_count": 12, "vote_average": 6.3, "title": "By Night with Torch and Spear", "release_date": "1942-12-31", "original_language": "en", "original_title": "By Night with Torch and Spear", "genre_ids": [], "backdrop_path": null, "adult": false, "overview": "Smoke, sparks and steam dance together in Cornell's found-footage collage. Backwards title cards (or an alien language, if you like) punctuate this mishmash of the industrial and the ancient.", "poster_path": null, "popularity": 1.558}, {"adult": false, "backdrop_path": null, "genre_ids": [], "id": 197975, "original_language": "en", "original_title": "Bad Burns", "overview": "Two reels of mis-takes in shooting Part II of 3RD DEGREE. Film was loaded in camera improperly and the image slides about off-center and becomes blurred \u2013 creating some rather amusing and mysterious imagery. A made \u201cfound\u201d object. \u2014ubu.com", "poster_path": null, "release_date": "1982-01-01", "title": "Bad Burns", "video": false, "vote_average": 5.4, "vote_count": 5, "popularity": 1.272}, {"adult": false, "backdrop_path": null, "genre_ids": [35], "id": 151934, "original_language": "en", "original_title": "A Kitten For Hitler", "overview": "The result of a challenge from Melvyn Bragg to write a film that Ken Russell himself would be eager to see banned, was A Kitten For Hitler \u2013 a 10-minute short in which a plucky young Jewish boy traverses the globe on a quest to warm the F\u00fchrer's heart with the gift of a cuddly feline.", "poster_path": "/cL46vvCGL9PW7M7cfuX9DOtOCpe.jpg", "release_date": "2007-06-01", "title": "A Kitten For Hitler", "video": false, "vote_average": 4.2, "vote_count": 5, "popularity": 1.394}, {"adult": false, "backdrop_path": null, "genre_ids": [], "id": 352017, "original_language": "en", "original_title": "Unrolling Event", "overview": "Toilet paper event, single frame exposures.", "poster_path": "/y7AQPgA7RsGRJkQVl0zsYaaBdWx.jpg", "release_date": "1965-01-01", "title": "Unrolling Event", "video": false, "vote_average": 4.1, "vote_count": 4, "popularity": 0.961}, {"adult": false, "backdrop_path": null, "genre_ids": [99], "id": 163230, "original_language": "en", "original_title": "Bridges-Go-Round", "overview": "York City's various bridges transform into an urban jungle (jazz version) or an alien landscape (electro-acoustic version).", "poster_path": "/e8yQRfDG94rmH9fBLL4XBKMwbfC.jpg", "release_date": "1958-04-25", "title": "Bridges-Go-Round", "video": false, "vote_average": 7.1, "vote_count": 9, "popularity": 1.4}, {"adult": false, "backdrop_path": null, "genre_ids": [], "id": 352015, "original_language": "en", "original_title": "Dots 1 & 2", "overview": "Single frame exposures of dot-screens.", "poster_path": "/yyojt85iPYNNjFG5jvgNKK18lH9.jpg", "release_date": "1965-01-01", "title": "Dots 1 & 2", "video": false, "vote_average": 6.5, "vote_count": 4, "popularity": 1.4}, {"adult": false, "backdrop_path": null, "genre_ids": [], "id": 334998, "original_language": "en", "original_title": "Word Movie", "overview": "Single frame exposures of words.", "poster_path": "/bRIZsGfFxGKCwH7BUNXhXqBCKvA.jpg", "release_date": "1966-01-01", "title": "Word Movie", "video": false, "vote_average": 7.0, "vote_count": 5, "popularity": 0.639}], "total_pages": 2, "total_results": 40}, "credits": {"cast": [], "crew": [{"credit_id": "52fe4dacc3a36847f826e055", "department": "Directing", "gender": 2, "id": 1050201, "job": "Director", "name": "Peter Tscherkassky", "profile_path": "/4R8xs3JI3pgaEE8EW7sbzz6n0c7.jpg"}]}}