{"adult": false, "backdrop_path": "/bOsOKRLtGF30zrehahRmp8MBCJN.jpg", "belongs_to_collection": null, "budget": 0, "genres": [{"id": 28, "name": "Action"}, {"id": 35, "name": "Comedy"}, {"id": 53, "name": "Thriller"}, {"id": 80, "name": "Crime"}], "homepage": null, "id": 18002, "imdb_id": "tt0199727", "original_language": "en", "original_title": "Love, Honour and Obey", "overview": "Jonny dreams of leaving his dead-end job as a courier. Through his childhood best friend, nephew of the notorious crime lord Ray Kreed, he wins his way into the toughest gang in North London. Hungry for action, Jonny sparks a feud between Ray's gang and a rival firm in South London headed by drug kingpin Sean and his lieutenant Matthew.", "popularity": 4.645, "poster_path": "/p0Bpd8CS93x4ClvyMvShPYKJq5s.jpg", "production_companies": [{"id": 1625, "logo_path": null, "name": "Fugitive Features", "origin_country": ""}], "production_countries": [{"iso_3166_1": "GB", "name": "United Kingdom"}], "release_date": "2000-04-07", "revenue": 0, "runtime": 103, "spoken_languages": [{"iso_639_1": "en", "name": "English"}], "status": "Released", "tagline": "", "title": "Love, Honour and Obey", "video": false, "vote_average": 6.0, "vote_count": 34, "keywords": {"keywords": [{"id": 212, "name": "london, england"}, {"id": 2987, "name": "gang war"}, {"id": 3734, "name": "ambition"}, {"id": 10291, "name": "organized crime"}, {"id": 10726, "name": "gang"}]}, "similar": {"page": 1, "results": [{"id": 877, "video": false, "vote_count": 222, "vote_average": 7.6, "title": "Scarface", "release_date": "1932-04-09", "original_language": "en", "original_title": "Scarface", "genre_ids": [28, 80, 18, 53], "backdrop_path": "/fX1DFPMZYsRG17BmMPJAKUaBZEz.jpg", "adult": false, "overview": "A murderous thug shoots his way to the top of the mobs while trying to protect his sister from the criminal life.", "poster_path": "/ai9WOjgNRXo42D0GJIIdi7toZ5x.jpg", "popularity": 14.434}, {"id": 13809, "video": false, "vote_count": 1564, "vote_average": 6.9, "title": "RockNRolla", "release_date": "2008-09-04", "original_language": "en", "original_title": "RockNRolla", "genre_ids": [28, 80, 53], "backdrop_path": "/g6FLR1fSleLUmYxufJNMTYiVpA4.jpg", "adult": false, "overview": "When a Russian mobster sets up a real estate scam that generates millions of pounds, various members of London's criminal underworld pursue their share of the fortune. Various shady characters, including Mr One-Two, Stella the accountant, and Johnny Quid, a druggie rock-star, try to claim their slice.", "poster_path": "/9tnHUDuUDrNJxJ3raxpKIrnYXlH.jpg", "popularity": 14.474}, {"id": 521, "video": false, "vote_count": 1257, "vote_average": 8.0, "title": "Dial M for Murder", "release_date": "1954-05-29", "original_language": "en", "original_title": "Dial M for Murder", "genre_ids": [80, 18, 9648, 53], "backdrop_path": "/jVMlfESb0TJ29w8CUDDofEprMmn.jpg", "adult": false, "overview": "An ex-tennis pro carries out a plot to have his wife murdered after discovering she is having an affair, and assumes she will soon leave him for the other man anyway. When things go wrong, he improvises a new plan\u2014to frame her for murder instead.", "poster_path": "/xrpK1PyckNWmRxU4kZURfaCyboS.jpg", "popularity": 34.566}, {"id": 75780, "video": false, "vote_count": 4450, "vote_average": 6.4, "title": "Jack Reacher", "release_date": "2012-12-20", "original_language": "en", "original_title": "Jack Reacher", "genre_ids": [28, 80, 18, 53], "backdrop_path": "/ezXodpP429qK0Av89pVNlaXWJkQ.jpg", "adult": false, "overview": "When a gunman takes five lives with six shots, all evidence points to the suspect in custody. On interrogation, the suspect offers up a single note: \"Get Jack Reacher!\" So begins an extraordinary chase for the truth, pitting Jack Reacher against an unexpected enemy, with a skill for violence and a secret to keep.", "poster_path": "/mt0ELw83HIRgaKaDzhsDcIi0RnW.jpg", "popularity": 19.929}, {"id": 22004, "video": false, "vote_count": 84, "vote_average": 6.3, "title": "Trespass", "release_date": "1992-12-25", "original_language": "en", "original_title": "Trespass", "genre_ids": [28, 80, 53], "backdrop_path": "/4RCqPm1daScK8Pj7WgBh2l06uCj.jpg", "adult": false, "overview": "Two Arkansas firemen, Vince and Don, get hold of a map that leads to a cache of stolen gold in an abandoned factory in East St. Louis. What they don't know is that the factory is in the turf of a local gang, who come by to execute one of their enemies. Vince sees the shooting, the gang spots Vince, and extended mayhem ensues. As Vince and Don try to escape, gang leader King James argues with his subordinate Savon about how to get rid of the trespassers.", "poster_path": "/zTvIflGrVhLM6UKRqSJ4VkydLwv.jpg", "popularity": 11.778}, {"id": 44147, "video": false, "vote_count": 388, "vote_average": 6.4, "title": "Wild Target", "release_date": "2010-06-17", "original_language": "en", "original_title": "Wild Target", "genre_ids": [28, 35], "backdrop_path": "/aZBIoiZyqzohhGeYkroi08fBOMw.jpg", "adult": false, "overview": "Victor Maynard is a middle-aged, solitary assassin who lives to please his formidable mother, despite his own peerless reputation for lethal efficiency. His professional routine is interrupted when he finds himself drawn to one of his intended victims. After sparing her life, he unexpectedly acquires a young apprentice. Believing Victor to be a private detective, his two new companions tag along, while he attempts to thwart the murderous attentions of his unhappy client.", "poster_path": "/x1O8MOIY41fpKbCUt1I4sKeLwwr.jpg", "popularity": 10.01}, {"adult": false, "backdrop_path": "/fop31RWFi9sVL0xK5hAJGh7Fwkz.jpg", "genre_ids": [18, 80], "id": 261023, "original_language": "en", "original_title": "Black Mass", "overview": "The true story of Whitey Bulger, the brother of a state senator and the most infamous violent criminal in the history of South Boston, who became an FBI informant to take down a Mafia family invading his turf.", "poster_path": "/nSbpuyd2UySuW7kaoXzYUfes1Bl.jpg", "release_date": "2015-09-04", "title": "Black Mass", "video": false, "vote_average": 6.4, "vote_count": 2190, "popularity": 14.581}, {"adult": false, "backdrop_path": "/uUYCUbgI5VxsUflTMI4Y9L2Y6vb.jpg", "genre_ids": [80, 18, 53], "id": 11423, "original_language": "ko", "original_title": "\uc0b4\uc778\uc758 \ucd94\uc5b5", "overview": "1986 Gyunggi Province. The body of a young woman is found brutally raped and murdered. Two months later, a series of rapes and murders commences under similar circumstances. And in a country that had never known such crimes, the dark whispers about a serial murderer grow louder. A special task force is set up in the area, with two local detectives Park Doo-Man and Jo Young-Goo joined by a detective from Seoul who requested to be assigned to the case.", "poster_path": "/gawnVe9cFowdoDLo9Pok12NTw39.jpg", "release_date": "2003-05-02", "title": "Memories of Murder", "video": false, "vote_average": 8.1, "vote_count": 1093, "popularity": 16.342}, {"adult": false, "backdrop_path": "/v761yOHKO3p6Yr7LDCjud6tUL5G.jpg", "genre_ids": [28, 80, 53], "id": 10651, "original_language": "en", "original_title": "The Dead Pool", "overview": "Dirty Harry Callahan returns for his final film adventure. Together with his partner Al Quan, he must investigate the systematic murder of actors and musicians. By the time Harry learns that the murders are a part of a sick game to predict the deaths of celebrities before they happen, it may be too late...", "poster_path": "/9ZUSqox9lIxN4xaYBac2QXMFcZj.jpg", "release_date": "1988-07-12", "title": "The Dead Pool", "video": false, "vote_average": 6.4, "vote_count": 389, "popularity": 14.171}, {"adult": false, "backdrop_path": "/g1BfxcnplYEveGqS1ttfhdRBgbR.jpg", "genre_ids": [35, 53, 80], "id": 8012, "original_language": "en", "original_title": "Get Shorty", "overview": "Chili Palmer is a Miami mobster who gets sent by his boss, the psychopathic \"Bones\" Barboni, to collect a bad debt from Harry Zimm, a Hollywood producer who specializes in cheesy horror films. When Chili meets Harry's leading lady, the romantic sparks fly. After pitching his own life story as a movie idea, Chili learns that being a mobster and being a Hollywood producer really aren't all that different.", "poster_path": "/vWtDUUgQAsVyvRW4mE75LBgVm2e.jpg", "release_date": "1995-10-20", "title": "Get Shorty", "video": false, "vote_average": 6.5, "vote_count": 543, "popularity": 11.5}, {"adult": false, "backdrop_path": "/neSLpxwG5TWNzCPDUIZ9kbl2bOL.jpg", "genre_ids": [18, 53, 80], "id": 4836, "original_language": "en", "original_title": "Layer Cake", "overview": "When a seemingly straight-forward drug deal goes awry, XXXX has to break his die-hard rules and turn up the heat, not only to outwit the old regime and come out on top, but to save his own skin...", "poster_path": "/y6BzUkrx789OhVMDXZiBBVHu6OQ.jpg", "release_date": "2004-09-30", "title": "Layer Cake", "video": false, "vote_average": 7.0, "vote_count": 1028, "popularity": 15.863}, {"adult": false, "backdrop_path": "/sw7mordbZxgITU877yTpZCud90M.jpg", "genre_ids": [18, 80], "id": 769, "original_language": "en", "original_title": "GoodFellas", "overview": "The true story of Henry Hill, a half-Irish, half-Sicilian Brooklyn kid who is adopted by neighbourhood gangsters at an early age and climbs the ranks of a Mafia family under the guidance of Jimmy Conway.", "poster_path": "/pwpGfTImTGifEGgLb3s6LRPd4I6.jpg", "release_date": "1990-09-12", "title": "GoodFellas", "video": false, "vote_average": 8.4, "vote_count": 6553, "popularity": 33.23}, {"id": 11474, "video": false, "vote_count": 965, "vote_average": 7.6, "title": "The Warriors", "release_date": "1979-02-08", "original_language": "en", "original_title": "The Warriors", "genre_ids": [28, 53], "backdrop_path": "/nK4qiKkZ6FqWyWG4Dzug2eMqYcx.jpg", "adult": false, "overview": "Prominent gang leader Cyrus calls a meeting of New York's gangs to set aside their turf wars and take over the city. At the meeting, a rival leader kills Cyrus, but a Coney Island gang called the Warriors is wrongly blamed for Cyrus' death. Before you know it, the cops and every gangbanger in town is hot on the Warriors' trail.", "poster_path": "/sqEzykIkLOae6L4kD0zf3VTVkti.jpg", "popularity": 15.138}, {"adult": false, "backdrop_path": "/5UhVmv70qTfy7YSf8r87kNXWxjK.jpg", "genre_ids": [18, 53, 9648], "id": 638, "original_language": "en", "original_title": "Lost Highway", "overview": "A tormented jazz musician finds himself lost in an enigmatic story involving murder, surveillance, gangsters, doppelgangers, and an impossible transformation inside a prison cell.", "poster_path": "/z6yhgEzGUJaBBgAxoyggRzwLnVM.jpg", "release_date": "1997-01-15", "title": "Lost Highway", "video": false, "vote_average": 7.6, "vote_count": 1277, "popularity": 16.545}, {"adult": false, "backdrop_path": "/8nvayG5l0urcjvvpszoECDqLWzD.jpg", "genre_ids": [18, 53, 80, 9648], "id": 186, "original_language": "en", "original_title": "Lucky Number Slevin", "overview": "Slevin is mistakenly put in the middle of a personal war between the city\u2019s biggest criminal bosses. Under constant watch, Slevin must try not to get killed by an infamous assassin and come up with an idea of how to get out of his current dilemma. A film with many twists and turns.", "poster_path": "/jtKq0EtothAzWlnRBBWGCA8uFuu.jpg", "release_date": "2006-02-24", "title": "Lucky Number Slevin", "video": false, "vote_average": 7.5, "vote_count": 2480, "popularity": 17.523}, {"adult": false, "backdrop_path": "/2f8fkWSWOVcTlWforoVpsuaCiwI.jpg", "genre_ids": [53, 28], "id": 449985, "original_language": "en", "original_title": "Triple Threat", "overview": "A crime syndicate places a hit on a billionaire's daughter, making her the target of an elite assassin squad. A small band of down-and-out mercenaries protects her, fighting tooth and nail to stop the assassins from reaching their target.", "poster_path": "/cSpM3QxmoSLp4O1WAMQpUDcaB7R.jpg", "release_date": "2019-03-19", "title": "Triple Threat", "video": false, "vote_average": 5.5, "vote_count": 146, "popularity": 17.856}, {"id": 4638, "video": false, "vote_count": 4426, "vote_average": 7.5, "title": "Hot Fuzz", "release_date": "2007-02-14", "original_language": "en", "original_title": "Hot Fuzz", "genre_ids": [28, 35, 80], "backdrop_path": "/zuskekrfW3gj9ttXNVhfdHe5n22.jpg", "adult": false, "overview": "As a former London constable, Nicholas Angel finds it difficult to adapt to his new assignment in the sleepy British village of Sandford. Not only does he miss the excitement of the big city, but he also has a well-meaning oaf for a partner. However, when a series of grisly accidents rocks Sandford, Angel smells something rotten in the idyllic village.", "poster_path": "/5Jx6s6VXnunh8wCLgR0YgjwSgjh.jpg", "popularity": 25.234}, {"id": 949, "video": false, "vote_count": 3610, "vote_average": 7.8, "title": "Heat", "release_date": "1995-12-15", "original_language": "en", "original_title": "Heat", "genre_ids": [28, 80, 18, 53], "backdrop_path": "/7RRuRcGuWkZGuRyYugfXn0Fgrrr.jpg", "adult": false, "overview": "Obsessive master thief, Neil McCauley leads a top-notch crew on various daring heists throughout Los Angeles while determined detective, Vincent Hanna pursues him without rest. Each man recognizes and respects the ability and the dedication of the other even though they are aware their cat-and-mouse game may end in violence.", "poster_path": "/6pmLVffM9jEYK7VqDJqPblMxfEY.jpg", "popularity": 21.48}, {"id": 245891, "video": false, "vote_count": 11528, "vote_average": 7.2, "title": "John Wick", "release_date": "2014-10-22", "original_language": "en", "original_title": "John Wick", "genre_ids": [28, 53], "backdrop_path": "/iJlGxN0p1suzloBGvvBu3QSSlhT.jpg", "adult": false, "overview": "Ex-hitman John Wick comes out of retirement to track down the gangsters that took everything from him.", "poster_path": "/5vHssUeVe25bMrof1HyaPyWgaP.jpg", "popularity": 71.02}, {"id": 138832, "video": false, "vote_count": 5756, "vote_average": 6.8, "title": "We're the Millers", "release_date": "2013-08-07", "original_language": "en", "original_title": "We're the Millers", "genre_ids": [35, 80], "backdrop_path": "/hoSddFLIyr6FUylOwCxoahbvnXd.jpg", "adult": false, "overview": "A veteran pot dealer creates a fake family as part of his plan to move a huge shipment of weed into the U.S. from Mexico.", "poster_path": "/digXuLXmk88Ar23LYUQTLcz5npA.jpg", "popularity": 19.043}], "total_pages": 31, "total_results": 602}, "recommendations": {"page": 1, "results": [{"adult": false, "backdrop_path": null, "genre_ids": [], "id": 107934, "original_language": "en", "original_title": "Blue Ridge", "overview": "Paranoid and unpredictable, J.T. lives a solitary life of used tires and decaying trailers. Despite his situation, J.T. wins the love of Sara, an innocent young girl left alone in the world after losing the last of her family.", "poster_path": "/e9zLgHMDbXrzK0s9DlETkli72JU.jpg", "release_date": "2012-06-07", "title": "Blue Ridge", "video": false, "vote_average": 5.7, "vote_count": 6, "popularity": 1.773}, {"adult": false, "backdrop_path": null, "genre_ids": [10402, 35], "id": 399786, "original_language": "en", "original_title": "Browsers", "overview": "Set in contemporary Manhattan, it follows four young people as they start their first jobs at a news website.", "poster_path": "/acSXZvo8KeigZyCBZ0CJtzoFsDZ.jpg", "release_date": "2013-04-19", "title": "Browsers", "video": false, "vote_average": 6.6, "vote_count": 7, "popularity": 4.415}, {"adult": false, "backdrop_path": null, "genre_ids": [99], "id": 130002, "original_language": "en", "original_title": "Mark Twain", "overview": "Largely considered to be the greatest American author, Mark Twain is celebrated in this exhaustive documentary by filmmaker Ken Burns.", "poster_path": "/1YASpcw1BDPJPHyLHGkaRGLLNvl.jpg", "release_date": "2002-01-14", "title": "Mark Twain", "video": false, "vote_average": 6.6, "vote_count": 10, "popularity": 3.676}, {"adult": false, "backdrop_path": null, "genre_ids": [], "id": 208377, "original_language": "en", "original_title": "A Triumph of the Heart: The Ricky Bell Story", "overview": "Ricky Bell, an all-pro running back with the Tampa Bay Buccaneers, who died of a rare muscle disease in the prime of his career. The plot centers on Bell's relationship with a father-less handicapped boy, and his efforts to be a big brother to him. The boy ends up being an inspiration for Bell when his disease makes the athlete more afflicted than the boy.", "poster_path": "/CY368L2UX9xneH5VT4na6H19eG.jpg", "release_date": "1991-04-02", "title": "A Triumph of the Heart: The Ricky Bell Story", "video": false, "vote_average": 5.0, "vote_count": 8, "popularity": 4.119}, {"adult": false, "backdrop_path": null, "genre_ids": [35], "id": 57873, "original_language": "en", "original_title": "The Girl Most Likely to...", "overview": "An ugly girl undergoes plastic surgery and becomes beautiful. She then takes revenge on all the people who mistreated her when she was ugly.", "poster_path": "/oe6RMgEWaipi7rnM76bnfVT0soV.jpg", "release_date": "1973-01-01", "title": "The Girl Most Likely to...", "video": false, "vote_average": 7.1, "vote_count": 19, "popularity": 2.544}, {"adult": false, "backdrop_path": "/5IvFyyldPdbTADbj1UtPRTTXDKa.jpg", "genre_ids": [35, 18, 10749], "id": 36542, "original_language": "en", "original_title": "Mr. Right", "overview": "Louise thought she\u2019d met the man of her dreams. But it all went wrong when she introduced him to her gay friends... Harry hates being a TV producer and dreams of leaving his job to travel the world. He loves Alex, an aspiring actor who is struggling to create an identity for himself as a performer.", "poster_path": "/zW5gvPvWMaB49dW8zhKedvO2TFz.jpg", "release_date": "2009-07-13", "title": "Mr. Right", "video": false, "vote_average": 5.1, "vote_count": 6, "popularity": 4.41}, {"adult": false, "backdrop_path": "/yonsfg10UqJkfAjblARlkZLUPtC.jpg", "genre_ids": [99, 10402], "id": 74237, "original_language": "en", "original_title": "A Skin Too Few: The Days of Nick Drake", "overview": "A study, mostly chronological, of the life of Nick Drake (1948-1974). Gabrielle, his older sister, tells us of her brother's birth in Burma, childhood in Warwickshire, life at Cambridge and in London, then back to his parents' home in Tanworth. His parents describe his habits and personality. Two friends and the producer, arranger, sound engineer, and photographer for his three albums comment. His mother, a musician and poet, is an early influence. His quiet folk style made his one tour a disaster. His lack of success and gradual withdrawal end with his death at 26. Eleven of his recordings play on the soundtrack, usually as we see his room, a city, or the Warwickshire countryside.", "poster_path": "/n433IPeL37V4ofe5i1DJ5sAZ0O2.jpg", "release_date": "2002-04-19", "title": "A Skin Too Few: The Days of Nick Drake", "video": false, "vote_average": 7.7, "vote_count": 12, "popularity": 1.86}], "total_pages": 1, "total_results": 7}, "credits": {"cast": [{"cast_id": 2, "character": "Jonny", "credit_id": "52fe47599251416c75096355", "gender": 2, "id": 9012, "name": "Jonny Lee Miller", "order": 0, "profile_path": "/70oZd4dPWNAibagHJvRU1Tf9e6h.jpg"}, {"cast_id": 3, "character": "Jude", "credit_id": "52fe47599251416c75096359", "gender": 2, "id": 9642, "name": "Jude Law", "order": 1, "profile_path": "/4077Cyuo1mw53u1gNjLyQkqeZN0.jpg"}, {"cast_id": 4, "character": "Ray Kreed", "credit_id": "52fe47599251416c7509635d", "gender": 2, "id": 5538, "name": "Ray Winstone", "order": 2, "profile_path": "/tycHZh88ZF0Uv81ZJV3xuTXSrQP.jpg"}, {"cast_id": 5, "character": "Sean", "credit_id": "52fe47599251416c75096361", "gender": 2, "id": 28848, "name": "Sean Pertwee", "order": 3, "profile_path": "/mHNlvnrlFvNddFY6isD0S40lAIu.jpg"}, {"cast_id": 6, "character": "Matthew", "credit_id": "52fe47599251416c75096365", "gender": 2, "id": 7026, "name": "Rhys Ifans", "order": 4, "profile_path": "/p0rbwzc4Yj2oHW0iiln0X0Wx9EK.jpg"}, {"cast_id": 1, "character": "Sadie", "credit_id": "52fe47599251416c75096351", "gender": 1, "id": 41381, "name": "Sadie Frost", "order": 5, "profile_path": "/nORllrdt6W4GYZUcVXJoM0Cxhg1.jpg"}, {"cast_id": 9, "character": "Fat Alan", "credit_id": "52fe47599251416c75096375", "gender": 2, "id": 59076, "name": "Perry Benson", "order": 6, "profile_path": "/kco06yHRhBNi0x06KHHE3q85R8T.jpg"}, {"cast_id": 10, "character": "Ray", "credit_id": "52fe47599251416c75096379", "gender": 0, "id": 82805, "name": "Ray Burdis", "order": 7, "profile_path": "/mp3q2lsXkHH0AoZOnoippbV8CJv.jpg"}, {"cast_id": 11, "character": "Dominic", "credit_id": "52fe47599251416c7509637d", "gender": 2, "id": 82804, "name": "Dominic Anciano", "order": 8, "profile_path": null}, {"cast_id": 12, "character": "Kathy", "credit_id": "52fe47599251416c75096381", "gender": 1, "id": 37759, "name": "Kathy Burke", "order": 9, "profile_path": "/q3z7nP1ryyGuwixShrBmghcmm0F.jpg"}, {"cast_id": 14, "character": "John", "credit_id": "52fe47599251416c75096385", "gender": 0, "id": 138038, "name": "John Beckett", "order": 11, "profile_path": null}, {"cast_id": 17, "character": "Laila", "credit_id": "52fe47599251416c75096389", "gender": 1, "id": 113523, "name": "Laila Morse", "order": 14, "profile_path": "/uYO4GCZWitLJEDG4YiikG3vTPbE.jpg"}], "crew": [{"credit_id": "52fe47599251416c7509636b", "department": "Directing", "gender": 2, "id": 82804, "job": "Director", "name": "Dominic Anciano", "profile_path": null}, {"credit_id": "52fe47599251416c75096371", "department": "Directing", "gender": 0, "id": 82805, "job": "Director", "name": "Ray Burdis", "profile_path": "/mp3q2lsXkHH0AoZOnoippbV8CJv.jpg"}, {"credit_id": "52fe47599251416c7509638f", "department": "Writing", "gender": 2, "id": 82804, "job": "Writer", "name": "Dominic Anciano", "profile_path": null}, {"credit_id": "52fe47599251416c75096395", "department": "Writing", "gender": 0, "id": 82805, "job": "Writer", "name": "Ray Burdis", "profile_path": "/mp3q2lsXkHH0AoZOnoippbV8CJv.jpg"}]}}