{"adult": false, "backdrop_path": "/9ts3jLbYdYZdunjC7hki2AcMMI4.jpg", "belongs_to_collection": null, "budget": 0, "genres": [{"id": 35, "name": "Comedy"}, {"id": 10770, "name": "TV Movie"}], "homepage": "http://www.hallmarkchannel.com/tomdickandharriet/about", "id": 180794, "imdb_id": "tt2673674", "original_language": "en", "original_title": "Tom, Dick and Harriet", "overview": "When Tom loses his job at an advertising agency, he enlists a youthful con-man to help save his career.", "popularity": 2.113, "poster_path": "/dvQDqmu3G1qdwGleuHXF68d6urR.jpg", "production_companies": [{"id": 8147, "logo_path": "/q6HOAdSNgCbeOqwoMVRc6REgbXF.png", "name": "Entertainment One", "origin_country": "CA"}, {"id": 1764, "logo_path": null, "name": "Chris/Rose Productions", "origin_country": "US"}, {"id": 4056, "logo_path": null, "name": "Hallmark Entertainment", "origin_country": "US"}], "production_countries": [{"iso_3166_1": "US", "name": "United States of America"}], "release_date": "2013-06-20", "revenue": 0, "runtime": 83, "spoken_languages": [{"iso_639_1": "en", "name": "English"}], "status": "Released", "tagline": "", "title": "Tom, Dick and Harriet", "video": false, "vote_average": 4.4, "vote_count": 4, "keywords": {"keywords": [{"id": 242, "name": "new york"}, {"id": 970, "name": "parent child relationship"}, {"id": 3202, "name": "con man"}, {"id": 10325, "name": "mistaken identity"}, {"id": 168346, "name": "manhattan, new york city"}, {"id": 170085, "name": "attitude"}, {"id": 174445, "name": "ageism"}, {"id": 186507, "name": "advertising agency"}, {"id": 204264, "name": "russian novels"}, {"id": 204265, "name": "tickets"}]}, "similar": {"page": 1, "results": [{"id": 772, "video": false, "vote_count": 5556, "vote_average": 6.5, "title": "Home Alone 2: Lost in New York", "release_date": "1992-11-19", "original_language": "en", "original_title": "Home Alone 2: Lost in New York", "genre_ids": [12, 35, 80, 10751], "backdrop_path": "/1uHTuwx5h9T3XzsXijMMKybDFvZ.jpg", "adult": false, "overview": "Instead of flying to Florida with his folks, Kevin ends up alone in New York, where he gets a hotel room with his dad's credit card\u2014despite problems from a clerk and meddling bellboy. But when Kevin runs into his old nemeses, the Wet Bandits, he's determined to foil their plans to rob a toy store on Christmas eve.", "poster_path": "/ezGcLFTvwR64I3Z7RqHnXRFet4r.jpg", "popularity": 28.414}, {"adult": false, "backdrop_path": "/4Hsk6Rh2kpUTmlnsjxMiXWiPBSb.jpg", "genre_ids": [35, 18], "id": 400579, "original_language": "en", "original_title": "Tully", "overview": "Marlo, a mother of three, including a newborn, is gifted a night nanny by her brother. Hesitant at first, she quickly forms a bond with the thoughtful, surprising, and sometimes challenging nanny named Tully.", "poster_path": "/wDI4YXBXolMYi15Qx2kClvdSERM.jpg", "release_date": "2018-05-04", "title": "Tully", "video": false, "vote_average": 6.9, "vote_count": 766, "popularity": 15.626}, {"adult": false, "backdrop_path": "/qjm30F9hwJ6BNbsb7iOrrKwkY3n.jpg", "genre_ids": [35, 18, 10749], "id": 696, "original_language": "en", "original_title": "Manhattan", "overview": "Manhattan explores how the life of a middle-aged television writer dating a teenage girl is further complicated when he falls in love with his best friend's mistress.", "poster_path": "/k4eT3EvfxW1L9Wmt04UqJqCvCR6.jpg", "release_date": "1979-04-25", "title": "Manhattan", "video": false, "vote_average": 7.9, "vote_count": 1320, "popularity": 17.292}, {"id": 164, "video": false, "vote_count": 2459, "vote_average": 7.8, "title": "Breakfast at Tiffany's", "release_date": "1961-10-05", "original_language": "en", "original_title": "Breakfast at Tiffany's", "genre_ids": [35, 18, 10749], "backdrop_path": "/vABwESShzjlSynkyGjLihTUieMJ.jpg", "adult": false, "overview": "Fortune hunter Holly Golightly finds herself captivated by aspiring writer Paul Varjak, who's moved into her building on a wealthy woman's dime. As romance blooms between Paul and Holly, Doc Golightly shows up on the scene, revealing Holly's past.", "poster_path": "/c95lbDwL5WT8PV9DZsdSvRtXKNA.jpg", "popularity": 21.751}, {"id": 103, "video": false, "vote_count": 6109, "vote_average": 8.2, "title": "Taxi Driver", "release_date": "1976-02-07", "original_language": "en", "original_title": "Taxi Driver", "genre_ids": [80, 18], "backdrop_path": "/hjmJKAVoZ3n2KWbKgasbfdugwhu.jpg", "adult": false, "overview": "A mentally unstable Vietnam War veteran works as a night-time taxi driver in New York City where the perceived decadence and sleaze feed his urge for violent action, attempting to save a preadolescent prostitute in the process.", "poster_path": "/ekstpH614fwDX8DUln1a2Opz0N8.jpg", "popularity": 30.132}, {"adult": false, "backdrop_path": "/vfvVuu1JdnEGcyZUj7VHrhhbeMj.jpg", "genre_ids": [12, 28], "id": 89, "original_language": "en", "original_title": "Indiana Jones and the Last Crusade", "overview": "When Dr. Henry Jones Sr. suddenly goes missing while pursuing the Holy Grail, eminent archaeologist Indiana must team up with Marcus Brody, Sallah and Elsa Schneider to follow in his father's footsteps and stop the Nazis from recovering the power of eternal life.", "poster_path": "/4p1N2Qrt8j0H8xMHMHvtRxv9weZ.jpg", "release_date": "1989-05-24", "title": "Indiana Jones and the Last Crusade", "video": false, "vote_average": 7.8, "vote_count": 5985, "popularity": 27.988}, {"id": 492188, "video": false, "vote_count": 1897, "vote_average": 8.0, "title": "Marriage Story", "release_date": "2019-11-06", "original_language": "en", "original_title": "Marriage Story", "genre_ids": [18], "backdrop_path": "/nwoDC0IJA47wr3znJgT1kkk64Gy.jpg", "adult": false, "overview": "A stage director and an actress struggle through a grueling, coast-to-coast divorce that pushes them to their personal extremes.", "poster_path": "/pZekG6xabTmZxjmYw10wN84Hp8d.jpg", "popularity": 76.357}, {"id": 315635, "video": false, "vote_count": 13257, "vote_average": 7.4, "title": "Spider-Man: Homecoming", "release_date": "2017-07-05", "original_language": "en", "original_title": "Spider-Man: Homecoming", "genre_ids": [28, 12, 18, 878], "backdrop_path": "/vc8bCGjdVp0UbMNLzHnHSLRbBWQ.jpg", "adult": false, "overview": "Following the events of Captain America: Civil War, Peter Parker, with the help of his mentor Tony Stark, tries to balance his life as an ordinary high school student in Queens, New York City, with fighting crime as his superhero alter ego Spider-Man as a new threat, the Vulture, emerges.", "poster_path": "/c24sv2weTHPsmDa7jEMN0m2P3RT.jpg", "popularity": 43.075}, {"id": 396398, "video": false, "vote_count": 585, "vote_average": 6.4, "title": "The Meyerowitz Stories (New and Selected)", "release_date": "2017-10-13", "original_language": "en", "original_title": "The Meyerowitz Stories (New and Selected)", "genre_ids": [35, 18], "backdrop_path": "/hwBqtQy8uuQ3g9gzuFoBgn0xHk4.jpg", "adult": false, "overview": "An estranged family gathers together in New York for an event celebrating the artistic work of their father.", "poster_path": "/c9teDTgwxgnb7wnZjZo4oNcF80R.jpg", "popularity": 14.01}, {"id": 7303, "video": false, "vote_count": 1110, "vote_average": 5.8, "title": "Maid in Manhattan", "release_date": "2002-12-13", "original_language": "en", "original_title": "Maid in Manhattan", "genre_ids": [35, 18, 10749], "backdrop_path": "/enycOzeSeV4BXbCSQ0ZZN8PXI0n.jpg", "adult": false, "overview": "Marisa Ventura is a struggling single mom who works at a posh Manhattan hotel and dreams of a better life for her and her young son. One fateful day, hotel guest and senatorial candidate Christopher Marshall meets Marisa and mistakes her for a wealthy socialite. After an enchanting evening together, the two fall madly in love. But when Marisa's true identity is revealed, issues of class and social status threaten to separate them. Can two people from very different worlds overcome their differences and live happily ever after?", "poster_path": "/3LQ4wKp4lF41yTTRSd6QdgD6eXO.jpg", "popularity": 11.1}, {"adult": false, "backdrop_path": "/knczzNAjBXzSYkeWxoT1u9VNmjR.jpg", "genre_ids": [10749, 18], "id": 258480, "original_language": "en", "original_title": "Carol", "overview": "In 1950s New York, a department-store clerk who dreams of a better life falls for an older, married woman.", "poster_path": "/AbKa7ANxmui0Jmhh7gV7OSELKIL.jpg", "release_date": "2015-11-20", "title": "Carol", "video": false, "vote_average": 7.4, "vote_count": 2184, "popularity": 13.539}, {"id": 639, "video": false, "vote_count": 2229, "vote_average": 7.4, "title": "When Harry Met Sally...", "release_date": "1989-07-21", "original_language": "en", "original_title": "When Harry Met Sally...", "genre_ids": [35, 18, 10749], "backdrop_path": "/xd5SYDUhNVGLUeK2epbEjnVBpPN.jpg", "adult": false, "overview": "During their travel from Chicago to New York, Harry and Sally debate whether or not sex ruins a friendship between a man and a woman. Eleven years later, and they're still no closer to finding the answer.", "poster_path": "/anYI1fzx90PgjO9PY3JStJZJmQT.jpg", "popularity": 13.339}, {"id": 276905, "video": false, "vote_count": 186, "vote_average": 4.2, "title": "Norm of the North", "release_date": "2016-01-14", "original_language": "en", "original_title": "Norm of the North", "genre_ids": [12, 16, 35, 10751], "backdrop_path": "/usGFCIMg0CZR9nyLlHPNVFXh5Vc.jpg", "adult": false, "overview": "Polar bear Norm and his three Arctic lemming buddies are forced out into the world once their icy home begins melting and breaking apart. Landing in New York, Norm begins life anew as a performing corporate mascot, only to discover that his new employers are directly responsible for the destruction of his polar home.", "poster_path": "/qv09dxeJoNQIbalsl47yObGgcc5.jpg", "popularity": 13.824}, {"adult": false, "backdrop_path": "/1I8jDOv9hefU0pS4q9ANgnIe9ri.jpg", "genre_ids": [35, 14, 10749], "id": 9678, "original_language": "en", "original_title": "Little Nicky", "overview": "After the lord of darkness decides he will not cede his throne to any of his three sons, the two most powerful of them escape to Earth to create a kingdom for themselves. This action closes the portal filtering sinful souls to Hell and causes Satan to wither away. He must send his most weak but beloved son, Little Nicky, to Earth to return his brothers to Hell.", "poster_path": "/ijfKqbZoZQjer5Oiolxy7hn8L92.jpg", "release_date": "2000-11-10", "title": "Little Nicky", "video": false, "vote_average": 5.3, "vote_count": 857, "popularity": 16.082}, {"adult": false, "backdrop_path": "/xdha8DvElblfBbNnkpGsF42lAyv.jpg", "genre_ids": [28, 80, 53], "id": 2749, "original_language": "en", "original_title": "15 Minutes", "overview": "When Eastern European criminals Oleg and Emil come to New York City to pick up their share of a heist score, Oleg steals a video camera and starts filming their activities, both legal and illegal. When they learn how the American media circus can make a remorseless killer look like the victim and make them rich, they target media-savvy NYPD Homicide Detective Eddie Flemming and media-naive FDNY Fire Marshal Jordy Warsaw, the cops investigating their murder and torching of their former criminal partner, filming everything to sell to the local tabloid TV show \"Top Story.\"", "poster_path": "/qqqleHV8y7NLKt7isSZAvOwVPH6.jpg", "release_date": "2001-03-01", "title": "15 Minutes", "video": false, "vote_average": 5.8, "vote_count": 372, "popularity": 14.636}, {"adult": false, "backdrop_path": "/zBB1mzmqnUuSrlTuf0SFFlI1EoJ.jpg", "genre_ids": [18], "id": 244772, "original_language": "en", "original_title": "The Skeleton Twins", "overview": "Estranged twins Maggie and Milo coincidentally cheat death on the same day, prompting them to reunite and confront the reasons their lives went so wrong. As the twins' reunion reinvigorates them, they realize the key to fixing their lives may just lie in repairing their relationship.", "poster_path": "/vvmv1R2jDXJeeeyYcGg0ypXc2XK.jpg", "release_date": "2014-09-12", "title": "The Skeleton Twins", "video": false, "vote_average": 6.7, "vote_count": 416, "popularity": 10.481}, {"id": 286554, "video": false, "vote_count": 1351, "vote_average": 6.5, "title": "Two Night Stand", "release_date": "2014-09-26", "original_language": "en", "original_title": "Two Night Stand", "genre_ids": [35, 10749], "backdrop_path": "/7i0YF4pxkyBHRo9L9SJ2iisMygu.jpg", "adult": false, "overview": "After an extremely regrettable one night stand, two strangers wake up to find themselves snowed in after sleeping through a blizzard that put all of Manhattan on ice. They're now trapped together in a tiny apartment, forced to get to know each other way more than any one night stand should.", "poster_path": "/787egmKPQvpL7GiUze7AlkoQB1B.jpg", "popularity": 12.479}, {"adult": false, "backdrop_path": "/e4PLAPt4KMKMbfj1yRmfYfDwVLc.jpg", "genre_ids": [35, 18], "id": 9685, "original_language": "en", "original_title": "Igby Goes Down", "overview": "A young man's peculiar upbringing renders him unable to competently cope with the struggle of growing up.", "poster_path": "/6z3LZflI7ZTdj2iB0KJnnoZMUjY.jpg", "release_date": "2002-09-13", "title": "Igby Goes Down", "video": false, "vote_average": 6.6, "vote_count": 159, "popularity": 8.384}, {"adult": false, "backdrop_path": "/djifnv4QTD7JsFp4WFK6yLPPvXy.jpg", "genre_ids": [35, 10749], "id": 16553, "original_language": "en", "original_title": "Little Manhattan", "overview": "Ten-year-old Gabe was just a normal kid growing up in Manhattan until Rosemary Telesco walked into his life, actually into his karate class. But before Gabe can tell Rosemary how he feels, she tells him she will not be going to public school any more. Gabe has a lot more to learn about life, love, and girls.", "poster_path": "/1ptpZ9vA73urZykDxnYOnJjMAcS.jpg", "release_date": "2005-09-30", "title": "Little Manhattan", "video": false, "vote_average": 6.9, "vote_count": 416, "popularity": 10.603}, {"id": 285783, "video": false, "vote_count": 2047, "vote_average": 6.9, "title": "The Walk", "release_date": "2015-09-30", "original_language": "en", "original_title": "The Walk", "genre_ids": [12, 18, 53], "backdrop_path": "/vYlH1SK5Eu7BW9FI229zBlt1n9W.jpg", "adult": false, "overview": "The story of French high-wire artist Philippe Petit's attempt to cross the Twin Towers of the World Trade Center in 1974.", "poster_path": "/j38bmdM59GZP7dQtJ4srJqX6zlw.jpg", "popularity": 17.46}], "total_pages": 7, "total_results": 124}, "recommendations": {"page": 1, "results": [], "total_pages": 1, "total_results": 0}, "credits": {"cast": [{"cast_id": 2, "character": "Tom Burns", "credit_id": "52fe4c529251416c75116e0b", "gender": 2, "id": 6106, "name": "Steven Weber", "order": 0, "profile_path": "/8FtkapenCOpe39eE1sQus5WLWAq.jpg"}, {"cast_id": 3, "character": "Harriet Fellows", "credit_id": "52fe4c529251416c75116e0f", "gender": 1, "id": 59240, "name": "Michelle Harrison", "order": 1, "profile_path": "/aCdt4RsUBPZM0jMFUGyhGkUF4qr.jpg"}, {"cast_id": 4, "character": "Dick Varnett", "credit_id": "539b53bdc3a3684b7b001493", "gender": 2, "id": 52718, "name": "Andrew Francis", "order": 2, "profile_path": "/cNkWES21R5esE4A7yU8qEvh8wEY.jpg"}, {"cast_id": 5, "character": "Reese Danzinger", "credit_id": "539b53d0c3a3684b6b001521", "gender": 2, "id": 67979, "name": "Michael Eklund", "order": 3, "profile_path": "/nS5KythBX5J8Blk1sXz4YsoWNbZ.jpg"}, {"cast_id": 6, "character": "Liz", "credit_id": "539b53e5c3a3684cc400141e", "gender": 1, "id": 91402, "name": "Ali Liebert", "order": 4, "profile_path": "/1qETVHm9tx14cqsukOtx9SoBFyu.jpg"}, {"cast_id": 28, "character": "Tania", "credit_id": "56cb2005c3a368409c00abb4", "gender": 1, "id": 143329, "name": "Anna Mae Routledge", "order": 5, "profile_path": "/6VuUB4yfIPHMkpxIs94jCJgUj6H.jpg"}, {"cast_id": 8, "character": "Kelly Burns", "credit_id": "539b5451c3a3684cb2001681", "gender": 1, "id": 1018864, "name": "MacKenzie Porter", "order": 6, "profile_path": "/p6LLAqfuxCqL7lYYYDNf7OjP3b0.jpg"}, {"cast_id": 9, "character": "Branson", "credit_id": "539b546ec3a3684b7b0014ac", "gender": 2, "id": 27128, "name": "Aaron Pearl", "order": 7, "profile_path": "/bgc9RfqNqK4pPVmt4FWJtlCS1fz.jpg"}, {"cast_id": 10, "character": "Randall Cafter", "credit_id": "539b5488c3a3684cb200168e", "gender": 2, "id": 27113, "name": "Scott Hylands", "order": 8, "profile_path": "/9pnyaMxYddfdO5gft1bR0q31oge.jpg"}, {"cast_id": 14, "character": "Natalie", "credit_id": "539b556ec3a3684b7b0014e4", "gender": 1, "id": 64678, "name": "Linda Darlow", "order": 9, "profile_path": "/772LteU4MZU1hLIT4ZRBdAyUpq2.jpg"}, {"cast_id": 7, "character": "Derek", "credit_id": "539b5410c3a368477500039e", "gender": 2, "id": 219997, "name": "Hamza Adam", "order": 10, "profile_path": "/9zaWQLIdOdWwvlMFhXGLYaMeZM5.jpg"}, {"cast_id": 11, "character": "AJ", "credit_id": "539b54e7c3a3684cc4001444", "gender": 1, "id": 583051, "name": "Diana Bang", "order": 11, "profile_path": "/tW8PfqAooyCS4lshUhNzNz0tfAo.jpg"}, {"cast_id": 12, "character": "Head Hunter", "credit_id": "539b5510c3a3684c910014ed", "gender": 1, "id": 59183, "name": "Sarah-Jane Redmond", "order": 12, "profile_path": "/6LyqFc8EfX7hjNnxh4MIo3yhm37.jpg"}, {"cast_id": 15, "character": "Car Model", "credit_id": "539b5584c3a3684c910014f2", "gender": 1, "id": 1195504, "name": "Sahar Biniaz", "order": 13, "profile_path": "/b6aIBKUalstZqTUaQriWcuHFmjR.jpg"}, {"cast_id": 29, "character": "Security Guard", "credit_id": "56cb22c2c3a368409100b6e9", "gender": 2, "id": 1502991, "name": "Romuald Hivert", "order": 14, "profile_path": "/vpwa8Vfd97hqxp4w5ElM08k0d0r.jpg"}, {"cast_id": 30, "character": "Receptionist", "credit_id": "56cb2319c3a368409500b76f", "gender": 1, "id": 60613, "name": "Brenda Crichlow", "order": 15, "profile_path": "/5mV7wnLRhVS4xKla6DHlatDLLrp.jpg"}, {"cast_id": 31, "character": "Bouncer", "credit_id": "56cb232cc3a368408900b547", "gender": 0, "id": 1581488, "name": "Nick Hiebert", "order": 16, "profile_path": null}, {"cast_id": 32, "character": "Russian Waitress", "credit_id": "56cb23c0c3a368408e00a934", "gender": 1, "id": 1039259, "name": "Aida Linkova", "order": 17, "profile_path": null}, {"cast_id": 33, "character": "NY Business Man (uncredited)", "credit_id": "56cb250ec3a368408c00c17d", "gender": 2, "id": 1239269, "name": "Billy Mitchell", "order": 18, "profile_path": "/ukRRo3qP7OgjemcWk6gkPBsfXNl.jpg"}], "crew": [{"credit_id": "52fe4c529251416c75116e07", "department": "Directing", "gender": 2, "id": 115178, "job": "Director", "name": "Kristoffer Tabori", "profile_path": "/c6UmFiIdAC0QeJWZIJlatrrXv7m.jpg"}, {"credit_id": "539b55b9c3a36847750003ef", "department": "Writing", "gender": 0, "id": 1075811, "job": "Writer", "name": "Ken Krauss", "profile_path": null}, {"credit_id": "5603d2dd925141117200173d", "department": "Production", "gender": 2, "id": 64736, "job": "Producer", "name": "Randy Cheveldave", "profile_path": null}, {"credit_id": "5603d3129251416f0f0024b3", "department": "Sound", "gender": 0, "id": 1341518, "job": "Music", "name": "Brent Belke", "profile_path": null}, {"credit_id": "5603d329c3a3685521004fb6", "department": "Camera", "gender": 2, "id": 1323117, "job": "Director of Photography", "name": "Neil Cervin", "profile_path": null}, {"credit_id": "5603d33b9251416e95002698", "department": "Editing", "gender": 2, "id": 63957, "job": "Editor", "name": "Garry M.B. Smith", "profile_path": null}, {"credit_id": "5603d34cc3a368552b00495f", "department": "Production", "gender": 1, "id": 63784, "job": "Casting", "name": "Candice Elzinga", "profile_path": "/r03Ef6Pc7uwos4Vsg4faajV3Dlq.jpg"}, {"credit_id": "5603d35d92514122cd00550d", "department": "Art", "gender": 0, "id": 27158, "job": "Production Design", "name": "Paul Joyal", "profile_path": null}, {"credit_id": "5603d372c3a368552300438f", "department": "Art", "gender": 0, "id": 64668, "job": "Set Decoration", "name": "Ian Nothnagel", "profile_path": null}, {"credit_id": "5603d386c3a3681fe70002e9", "department": "Costume & Make-Up", "gender": 0, "id": 1319152, "job": "Costume Design", "name": "Kerry Weinrauch", "profile_path": null}, {"credit_id": "5603d39bc3a3681fe70002ed", "department": "Costume & Make-Up", "gender": 1, "id": 1514148, "job": "Hairstylist", "name": "Tara Colledge", "profile_path": null}, {"credit_id": "5603d3af92514122c000456f", "department": "Costume & Make-Up", "gender": 0, "id": 1514185, "job": "Makeup Artist", "name": "Kathy Howatt", "profile_path": null}, {"credit_id": "5603d3d19251416f0f0024d2", "department": "Directing", "gender": 1, "id": 1409751, "job": "Script Supervisor", "name": "Ingrid Kenning", "profile_path": null}]}}