{"adult": false, "backdrop_path": "/wsyRe9M9tj081o9ztuI4mvl3jjM.jpg", "belongs_to_collection": {"id": 415931, "name": "The Bowery Boys", "poster_path": "/q6sA4bzMT9cK7EEmXYwt7PNrL5h.jpg", "backdrop_path": "/foe3kuiJmg5AklhtD3skWbaTMf2.jpg"}, "budget": 0, "genres": [{"id": 80, "name": "Crime"}, {"id": 12, "name": "Adventure"}, {"id": 35, "name": "Comedy"}, {"id": 28, "name": "Action"}], "homepage": null, "id": 180812, "imdb_id": "tt0049208", "original_language": "en", "original_title": "Fighting Trouble", "overview": "An overambitious shutterbug almost gets his lights put out permanently when he decides to snap a picture of a mob boss.", "popularity": 1.056, "poster_path": "/hzxrZGf5vs7N4ewLYGe5otPTVpG.jpg", "production_companies": [{"id": 4928, "logo_path": null, "name": "Allied Artists Pictures", "origin_country": ""}], "production_countries": [{"iso_3166_1": "US", "name": "United States of America"}], "release_date": "1956-09-16", "revenue": 0, "runtime": 61, "spoken_languages": [{"iso_639_1": "en", "name": "English"}], "status": "Released", "tagline": "THOSE COOL KIDS YOU LOVE get the goods on the town's hottest hoods...with their super-duper crime camera!", "title": "Fighting Trouble", "video": false, "vote_average": 0.0, "vote_count": 0, "keywords": {"keywords": [{"id": 190483, "name": "bowery boys"}]}, "similar": {"page": 1, "results": [{"adult": false, "backdrop_path": "/8hUKdDBcN0U0qtGHyEM4ur4g8v6.jpg", "genre_ids": [35, 28, 12], "id": 107966, "original_language": "en", "original_title": "Loose in London", "overview": "The Bowery Boys take on British crooks when one of them thinks he's inherited a title.", "poster_path": "/lc3maUNnQKdEyUVozd4kUWTVa1m.jpg", "release_date": "1953-05-24", "title": "Loose in London", "video": false, "vote_average": 5.5, "vote_count": 3, "popularity": 1.794}, {"adult": false, "backdrop_path": "/j5aPjpxKoieH2Ygith0ooIjicsW.jpg", "genre_ids": [35, 9648, 28], "id": 177454, "original_language": "en", "original_title": "Hold That Hypnotist", "overview": "When one of the Boys agrees to be hypnotized, he discovers he led a past life in the 1600s as a British tax collector.", "poster_path": "/lGcQReEzzENtKY1thCZEbWLB042.jpg", "release_date": "1957-02-24", "title": "Hold That Hypnotist", "video": false, "vote_average": 6.5, "vote_count": 1, "popularity": 1.603}, {"adult": false, "backdrop_path": "/dT4A7naK7cAxRzlg6GtvSxTRVFU.jpg", "genre_ids": [35, 9648, 80], "id": 193454, "original_language": "en", "original_title": "Hard Boiled Mahoney", "overview": "Sach just lost his job as an assistant to a private detective, but he wasn't paid. Slip goes with him down to the detective's office to demand payment, but finds the office empty. A woman enters the office and mistakes Slip for the detective and convinces him to take on a case to find her sister after offering a $50 retainer.", "poster_path": "/950VrLxtIy8bx4jYSlaSLZkqCzo.jpg", "release_date": "1947-05-10", "title": "Hard Boiled Mahoney", "video": false, "vote_average": 8.0, "vote_count": 2, "popularity": 1.753}, {"adult": false, "backdrop_path": "/z7vSMhiUIcdQyssVs3OhwM34hbP.jpg", "genre_ids": [80, 35], "id": 182950, "original_language": "en", "original_title": "Blonde Dynamite", "overview": "While Louie is on vacation, the boys turn The Sweet Shop into an escort service, and soon find a group of beautiful girls as their first clients.", "poster_path": "/8vSufPGrnBhLhLMZ83rLRJyXgHs.jpg", "release_date": "1950-02-12", "title": "Blonde Dynamite", "video": false, "vote_average": 5.0, "vote_count": 1, "popularity": 0.84}, {"adult": false, "backdrop_path": "/bbrUCobJVR7s2lGVy2weZkGbzdG.jpg", "genre_ids": [35, 28], "id": 111461, "original_language": "en", "original_title": "Ghost Chasers", "overview": "A ghost helps the Bowery Boys capture a gang of crooks led by a mad doctor.", "poster_path": "/waYSjY41xAkglUOs8B9wEIAa2Ig.jpg", "release_date": "1951-04-29", "title": "Ghost Chasers", "video": false, "vote_average": 6.2, "vote_count": 3, "popularity": 1.513}, {"adult": false, "backdrop_path": "/jjuSBPK7JMcEt4zamH30TqLlffO.jpg", "genre_ids": [35, 28], "id": 193439, "original_language": "en", "original_title": "Smuggler's Cove", "overview": "Slip and Sach are working as cleaners in a high rise building. They enter an office to clean it when a messenger hears them use Slip's given name, Terrance Mahoney. The messenger has a letter for \"Terrance Mahonoey, Esq.\" and mistakenly delivers it to Slip. The letter informs Slip that he has inherited a mansion in Long Island. The boys then make their way to the mansion and find that it is inhabited by diamond smugglers. The real owner of the house shows up and helps save the day and defeat the smugglers and gives the boys the house as a reward.", "poster_path": "/fFLZVy1uAQOZS0mchX2MDOfcg3Y.jpg", "release_date": "1948-10-10", "title": "Smuggler's Cove", "video": false, "vote_average": 4.0, "vote_count": 2, "popularity": 1.063}, {"adult": false, "backdrop_path": "/gKJHTyI0sV95y022Eg5PVHuHquX.jpg", "genre_ids": [35, 80], "id": 252916, "original_language": "en", "original_title": "Here Come the Marines", "overview": "After Slip is drafted into the Marines, the rest of the gang volunteers so they can be with him. Sach discovers that the colonel knew his father and he is promoted. During a drill that he is putting the rest of the gang through, they find a soldier left for dead on the side of the road. Slip discovers a playing card next to the marine and traces it to Jolly Joe Johnson's gambling house. They suspect that the gambling house is cheating and set out to uncover the proof.", "poster_path": "/mt9wapiJfCXWxgjdDTlwvbefwfA.jpg", "release_date": "1952-06-29", "title": "Here Come the Marines", "video": false, "vote_average": 7.0, "vote_count": 1, "popularity": 0.895}, {"adult": false, "backdrop_path": "/RdU1l4g0gdLoNVCM3lUufi1cc7.jpg", "genre_ids": [80, 35], "id": 229650, "original_language": "en", "original_title": "Trouble Makers", "overview": "Slip and Sach are in the sidewalk star-gazing business when they see a murder committed in a room at the El Royale Hotel.", "poster_path": "/jWEcAMouM2bS29gkNXll35rg2JA.jpg", "release_date": "1949-01-02", "title": "Trouble Makers", "video": false, "vote_average": 6.0, "vote_count": 1, "popularity": 0.6}, {"adult": false, "backdrop_path": "/becT0AYWujivqeZrVGyndliH3M6.jpg", "genre_ids": [28, 35], "id": 230182, "original_language": "en", "original_title": "Crashing Las Vegas", "overview": "An electric shock enables Sach to predict numbers.", "poster_path": "/5WNPK2oOmHAhn2dj2ySJZxwMly0.jpg", "release_date": "1956-04-27", "title": "Crashing Las Vegas", "video": false, "vote_average": 6.5, "vote_count": 1, "popularity": 1.723}, {"id": 115706, "video": false, "vote_count": 0, "vote_average": 0.0, "title": "Hold That Line", "release_date": "1952-03-23", "original_language": "en", "original_title": "Hold That Line", "genre_ids": [28, 35], "backdrop_path": "/vw4XrniHzLzU45GA2BzBFCsrw5m.jpg", "adult": false, "overview": "The Bowery Boys are enrolled in a fancy college by a pair of rich snobs who think they can turn the Boys into classy guys. Sach becomes a football star, and is kidnapped by gangsters to keep him out of the big game.", "poster_path": "/9nk3Ot3vmKBnOfW8Wx6arD1ipEW.jpg", "popularity": 1.038}, {"adult": false, "backdrop_path": "/zQxi9n7Mvy1Wlv6CeJOjnXrbNdi.jpg", "genre_ids": [35, 27, 878], "id": 89725, "original_language": "en", "original_title": "The Bowery Boys Meet the Monsters", "overview": "Slip, Sach and the rest of the Bowery Boys enter a haunted house, where they engage in slapstick with a gorilla, a robot and a vampire", "poster_path": "/bPyzzstspUqyHGJEkPgW41LtXER.jpg", "release_date": "1954-06-06", "title": "The Bowery Boys Meet the Monsters", "video": false, "vote_average": 4.4, "vote_count": 8, "popularity": 1.953}, {"adult": false, "backdrop_path": "/4JJHk22C7nZdTezcCjV6B6t5Gvw.jpg", "genre_ids": [35], "id": 166904, "original_language": "en", "original_title": "Master Minds", "overview": "When Sach eats too much sugar, he goes into a trance whereby he's able to predict the future. Slip tries to make some money off of Sach by using him as a fortune teller in a carnival, until a mad scientist kidnaps Sach to use him in an intelligence-switching experiment with a monster.", "poster_path": "/kS2ppyAX8NfMNuItYAg64Birapj.jpg", "release_date": "1949-11-27", "title": "Master Minds", "video": false, "vote_average": 6.3, "vote_count": 4, "popularity": 1.349}, {"adult": false, "backdrop_path": "/xUtmO7pDhDYdxBcfuEpYgaENSL5.jpg", "genre_ids": [35], "id": 186268, "original_language": "en", "original_title": "Angels in Disguise", "overview": "Slip and the gang (Bowery Boys) stray from newspaper work to detective work.", "poster_path": "/zzhtLkTvvbLxaOxsnXFVb59skxV.jpg", "release_date": "1949-09-25", "title": "Angels in Disguise", "video": false, "vote_average": 6.7, "vote_count": 3, "popularity": 2.56}, {"adult": false, "backdrop_path": "/x7QHHe8ATiYWTmNJhGiANUM50bR.jpg", "genre_ids": [35], "id": 177252, "original_language": "en", "original_title": "Spook Chasers", "overview": "Sach and the gang (Bowery Boys) find stashed cash in an old farmhouse apparently haunted.", "poster_path": "/qUsDDwNQ7autT479uxh6avrp73X.jpg", "release_date": "1957-06-02", "title": "Spook Chasers", "video": false, "vote_average": 6.3, "vote_count": 6, "popularity": 2.999}, {"adult": false, "backdrop_path": "/uEZn3SYJUw6qkJT8dJfSCz4uk6M.jpg", "genre_ids": [35], "id": 70313, "original_language": "en", "original_title": "Bowery to Bagdad", "overview": "The Bowery Boys find a lamp that has strange magic powers.", "poster_path": "/fEAsY5zg9RsDrH82XvaieeH707U.jpg", "release_date": "1955-01-07", "title": "Bowery to Bagdad", "video": false, "vote_average": 6.7, "vote_count": 5, "popularity": 2.333}, {"adult": false, "backdrop_path": "/4QlbHPEqfUqcvKJNLf793FF1rwC.jpg", "genre_ids": [28, 53], "id": 130886, "original_language": "en", "original_title": "Live Wires", "overview": "Slip gets fired from his job at a construction company for decking his boss. His sister, who got him a job at the company, is angry with him. Slip manages to get a job with the District Attorney serving warrants, as does Sach. Through his job, Slip finds out that all is not quite kosher at his old construction company, and that his sister may be in danger.", "poster_path": "/z85PW0UMvpS4oX3kh0nEdOhp8Rc.jpg", "release_date": "1946-01-12", "title": "Live Wires", "video": false, "vote_average": 7.3, "vote_count": 2, "popularity": 1.418}, {"adult": false, "backdrop_path": "/n0zGmGlW08bQgeJfFfy4yaK0Wmt.jpg", "genre_ids": [35], "id": 97353, "original_language": "en", "original_title": "Up In Smoke", "overview": "The Bowery Boys: In order to be able to get the names of winning horses at the track, Sach agrees to sell his soul to the devil.", "poster_path": "/xo5IPbYGLi3mjYGnTpZNGGvUgXp.jpg", "release_date": "1957-12-22", "title": "Up In Smoke", "video": false, "vote_average": 8.0, "vote_count": 1, "popularity": 2.011}, {"adult": false, "backdrop_path": "/cop96e9DRtBa6M1qwKTIJynVFNC.jpg", "genre_ids": [35], "id": 89541, "original_language": "en", "original_title": "Bowery Bombshell", "overview": "Slip (Leo Gorcey), Sach (Huntz Hall), Bobby (Bobby Jordan), Whitey (William Benedict) and Chuck (David Gorcey) unsuccessfully try to sell a dilapidated car to a street cleaner for a fabulous amount, so they can get enough money to save Louie's (Bernard Gorcey) Malt Shop. Sidewalk photographer Cathy Smith (Teala Loring) snaps a pictures of three bank robbers as they are fleeing a robbery but when the Bowery Boys and Cathy realize that Sach is also in the photograph, they break into the photo lab to destroy the negative, which might make the police think Sach was involved in the robbery.", "poster_path": "/1fexUAv74kwoQCxif1Za6HJvKn1.jpg", "release_date": "1946-07-20", "title": "Bowery Bombshell", "video": false, "vote_average": 7.0, "vote_count": 1, "popularity": 2.452}, {"adult": false, "backdrop_path": "/tzNmvjhuTLmSATS6y9HOIXgjE2E.jpg", "genre_ids": [35], "id": 178623, "original_language": "en", "original_title": "In Fast Company", "overview": "The Bowery Boys come to the rescue when a corrupt taxi company puts the squeeze on several independent drivers.", "poster_path": "/6z8x6MM20FdP6C56A5JwEIsNTr2.jpg", "release_date": "1946-06-22", "title": "In Fast Company", "video": false, "vote_average": 6.5, "vote_count": 2, "popularity": 1.881}, {"adult": false, "backdrop_path": "/oY6dIoKAiSJX4rj5ZQHcYxkryRl.jpg", "genre_ids": [35, 9648], "id": 182689, "original_language": "en", "original_title": "Jungle Gents", "overview": "The boys get sent to Africa by a diamond firm when they find out that one of them can locate the stones by smell.", "poster_path": "/eKSF3jAf1syJ77LTQpNtXZ7dzGt.jpg", "release_date": "1954-09-05", "title": "Jungle Gents", "video": false, "vote_average": 0.0, "vote_count": 0, "popularity": 2.018}], "total_pages": 3, "total_results": 47}, "recommendations": {"page": 1, "results": [], "total_pages": 1, "total_results": 0}, "credits": {"cast": [{"cast_id": 3, "character": "Horace Debussy 'Sach' Jones", "credit_id": "52fe4c539251416c75116ffd", "gender": 2, "id": 33024, "name": "Huntz Hall", "order": 0, "profile_path": "/wR3Rlmbwu5gfISwljC1Z0VRSvp4.jpg"}, {"cast_id": 4, "character": "Stanislaus 'Duke' Covelske", "credit_id": "52fe4c539251416c75117001", "gender": 2, "id": 133436, "name": "Stanley Clements", "order": 1, "profile_path": "/ycQbiaJwuYouJc2yX1kc4UIkdka.jpg"}, {"cast_id": 5, "character": "Mae Randle", "credit_id": "52fe4c539251416c75117005", "gender": 0, "id": 34437, "name": "Adele Jergens", "order": 2, "profile_path": "/54sawiD0U5Vvw0Y9rjymyeebOZT.jpg"}, {"cast_id": 9, "character": "Handsome Hal Lomax (as Joseph Downing)", "credit_id": "57dc26879251412ef3000438", "gender": 0, "id": 84639, "name": "Joe Downing", "order": 3, "profile_path": "/zLWtkTj487PywkdNR5C4d8rulC0.jpg"}, {"cast_id": 6, "character": "Miss Kate Kelly", "credit_id": "52fe4c539251416c75117009", "gender": 1, "id": 120010, "name": "Queenie Smith", "order": 4, "profile_path": "/ros5xXP9STFYPJVvpOX6NPbcxSm.jpg"}, {"cast_id": 7, "character": "Frankie Arbo (as Thomas B. Henry)", "credit_id": "52fe4c539251416c7511700d", "gender": 2, "id": 82748, "name": "Thomas Browne Henry", "order": 5, "profile_path": "/2TVfKY4IcY9C7J8kXx3bCdCUVLX.jpg"}, {"cast_id": 10, "character": "Dolly Tate", "credit_id": "57dc2695c3a3684161000451", "gender": 1, "id": 134001, "name": "Laurie Mitchell", "order": 6, "profile_path": "/94rxdoYbC4KuC9ME8eEm4WsZukk.jpg"}, {"cast_id": 11, "character": "Chuck (as David Condon)", "credit_id": "57dc26a39251412ef600048e", "gender": 0, "id": 120211, "name": "David Gorcey", "order": 7, "profile_path": "/dcwpRQn8y1x88LrvzclFJ0wUjzr.jpg"}, {"cast_id": 8, "character": "Ray Vance", "credit_id": "57dc2676c3a368417b0004ad", "gender": 2, "id": 85996, "name": "Tim Ryan", "order": 8, "profile_path": "/1aLbG01i86jib8tATnC0DyJPrOC.jpg"}, {"cast_id": 18, "character": "Bates (uncredited)", "credit_id": "5dd0d6262866fa0015887e37", "gender": 2, "id": 106010, "name": "John Bleifer", "order": 9, "profile_path": "/m7w858fATC0Hph6tnnyqEYmQ6ve.jpg"}, {"cast_id": 19, "character": "Chips Conroy (uncredited)", "credit_id": "5dd0d6312d531a0013d927f5", "gender": 2, "id": 1216592, "name": "William Boyett", "order": 10, "profile_path": "/bXMRPKQjv0BuMGGsgO1ewpIbODl.jpg"}, {"cast_id": 20, "character": "Mailman (uncredited)", "credit_id": "5dd0d63c57d3780015d87d41", "gender": 2, "id": 106611, "name": "Paul Brinegar", "order": 11, "profile_path": "/8YOaYazXeGZLRNcYcson7vym4Tr.jpg"}, {"cast_id": 21, "character": "Max Kling (uncredited)", "credit_id": "5dd0d646b76cbb00167a6889", "gender": 0, "id": 120555, "name": "Benny Burt", "order": 12, "profile_path": null}, {"cast_id": 22, "character": "Hawaiian Girl (uncredited)", "credit_id": "5dd0d65c2866fa0015887ebf", "gender": 0, "id": 2460050, "name": "Ann Griffith", "order": 13, "profile_path": null}, {"cast_id": 23, "character": "McBride (uncredited)", "credit_id": "5dd0d6652d531a0013d92a17", "gender": 2, "id": 168061, "name": "Clegg Hoyt", "order": 14, "profile_path": null}, {"cast_id": 24, "character": "Fred Evans (uncredited)", "credit_id": "5dd0d67e2d531a0018d90ecb", "gender": 0, "id": 103092, "name": "Michael Ross", "order": 15, "profile_path": null}, {"cast_id": 25, "character": "Vic Savinie (uncredited)", "credit_id": "5dd0d6892d531a0018d90ed4", "gender": 2, "id": 120791, "name": "Rick Vallin", "order": 16, "profile_path": "/gW0mjy28fJPNiw1c0LeGqRb7W2E.jpg"}, {"cast_id": 26, "character": "Bit Role (uncredited)", "credit_id": "5dd0d69757d3780015d87e13", "gender": 0, "id": 2460052, "name": "Loreli Vitek", "order": 17, "profile_path": null}, {"cast_id": 27, "character": "Danny (uncredited)", "credit_id": "5dd0d6a12d531a0013d92a73", "gender": 0, "id": 2460053, "name": "Danny Welton", "order": 18, "profile_path": null}, {"cast_id": 28, "character": "Smoggy Smith (uncredited)", "credit_id": "5dd0d7132866fa001888be1b", "gender": 0, "id": 2460055, "name": "Charles Williams", "order": 19, "profile_path": null}], "crew": [{"credit_id": "5a37620d92514103241e1f5f", "department": "Editing", "gender": 0, "id": 25169, "job": "Editor", "name": "William Austin", "profile_path": null}, {"credit_id": "5a376219c3a368148f057f77", "department": "Art", "gender": 0, "id": 29280, "job": "Set Decoration", "name": "Joseph Kish", "profile_path": null}, {"credit_id": "5a3761ec0e0a264cd01e60e0", "department": "Camera", "gender": 2, "id": 98161, "job": "Director of Photography", "name": "Harry Neumann", "profile_path": null}, {"credit_id": "52fe4c539251416c75116ff9", "department": "Writing", "gender": 0, "id": 105735, "job": "Screenplay", "name": "Elwood Ullman", "profile_path": null}, {"credit_id": "5a376214925141547b05bcfc", "department": "Art", "gender": 2, "id": 120193, "job": "Art Direction", "name": "Dave Milton", "profile_path": null}, {"credit_id": "5a3761dac3a36814ab06303d", "department": "Production", "gender": 0, "id": 133434, "job": "Producer", "name": "Ben Schwalb", "profile_path": null}, {"credit_id": "52fe4c539251416c75116ff3", "department": "Directing", "gender": 2, "id": 178247, "job": "Director", "name": "George Blair", "profile_path": null}, {"credit_id": "5a3761e30e0a264cca1df883", "department": "Sound", "gender": 2, "id": 935070, "job": "Original Music Composer", "name": "Buddy Bregman", "profile_path": null}]}}