{"adult": false, "backdrop_path": "/kelMjiWry52cEimqQXXhZBW9jUE.jpg", "belongs_to_collection": null, "budget": 0, "genres": [{"id": 99, "name": "Documentary"}], "homepage": null, "id": 18112, "imdb_id": "tt1262863", "original_language": "en", "original_title": "Boogie Man: The Lee Atwater Story", "overview": "Boogie Man is a comprehensive look at political strategist, racist, and former Republican National Convention Committee chairman, Lee Atwater, who reinvigorated the Republican Party\u2019s Southern Strategy to increase political support among white voters in the South by appealing to racism against African Americans. He mentored Karl Rove and George W. Bush and played a key role in the elections of Reagan and George H.W. Bush.", "popularity": 2.993, "poster_path": "/veJf1jGjKpny296xkzN9SowumOq.jpg", "production_companies": [{"id": 3450, "logo_path": null, "name": "InterPositive Media", "origin_country": ""}], "production_countries": [{"iso_3166_1": "GB", "name": "United Kingdom"}, {"iso_3166_1": "US", "name": "United States of America"}], "release_date": "2008-09-26", "revenue": 0, "runtime": 86, "spoken_languages": [{"iso_639_1": "en", "name": "English"}], "status": "Released", "tagline": "", "title": "Boogie Man: The Lee Atwater Story", "video": false, "vote_average": 7.6, "vote_count": 10, "keywords": {"keywords": [{"id": 577, "name": "black people"}, {"id": 840, "name": "u.s. president"}, {"id": 2636, "name": "blues"}, {"id": 3036, "name": "bible"}, {"id": 4434, "name": "interview"}, {"id": 5627, "name": "cynicism"}, {"id": 6007, "name": "media"}, {"id": 6078, "name": "politics"}, {"id": 6083, "name": "politician"}, {"id": 8570, "name": "president"}, {"id": 8646, "name": "ronald reagan"}]}, "similar": {"page": 1, "results": [{"adult": false, "backdrop_path": "/4bHX7nAmjMiZO9eotJITyro0raw.jpg", "genre_ids": [18], "id": 376866, "original_language": "en", "original_title": "Jackie", "overview": "An account of the days of First Lady, Jacqueline Kennedy, in the immediate aftermath of John F. Kennedy's assassination in 1963.", "poster_path": "/iMkl2Akc1f4CSJCieVwczM4KjZR.jpg", "release_date": "2016-12-02", "title": "Jackie", "video": false, "vote_average": 6.5, "vote_count": 1554, "popularity": 12.598}, {"id": 459992, "video": false, "vote_count": 881, "vote_average": 6.6, "title": "Long Shot", "release_date": "2019-05-02", "original_language": "en", "original_title": "Long Shot", "genre_ids": [35, 10749], "backdrop_path": "/88r25ghJzVYKq0vaOApqEOZsQlD.jpg", "adult": false, "overview": "Fred Flarsky is a gifted and free-spirited journalist who has a knack for getting into trouble. Charlotte Field is one of the most influential women in the world -- a smart, sophisticated and accomplished politician. When Fred unexpectedly runs into Charlotte, he soon realizes that she was his former baby sitter and childhood crush. When Charlotte decides to make a run for the presidency, she impulsively hires Fred as her speechwriter -- much to the dismay of her trusted advisers.", "poster_path": "/m2ttWZ8rMRwIMT7zA48Jo6mTkDS.jpg", "popularity": 36.039}, {"id": 401469, "video": false, "vote_count": 1260, "vote_average": 6.5, "title": "Widows", "release_date": "2018-11-06", "original_language": "en", "original_title": "Widows", "genre_ids": [80, 53], "backdrop_path": "/tkri1hMrb1FhWfb2bWpprsvq9Sd.jpg", "adult": false, "overview": "A police shootout leaves four thieves dead during an explosive armed robbery attempt in Chicago. Their widows have nothing in common except a debt left behind by their spouses' criminal activities. Hoping to forge a future on their own terms, they join forces to pull off a heist.", "poster_path": "/d31SGJSaX29ba5ZUbZcesGoDE7I.jpg", "popularity": 23.635}, {"id": 393624, "video": false, "vote_count": 97, "vote_average": 7.3, "title": "Official Secrets", "release_date": "2019-08-30", "original_language": "en", "original_title": "Official Secrets", "genre_ids": [80, 18, 36, 53, 10749, 10752], "backdrop_path": "/t6SIw4qU9oyhN07o2ZY9TpmiFjh.jpg", "adult": false, "overview": "The true story of British intelligence whistleblower Katharine Gun who\u2014prior to the 2003 Iraq invasion\u2014leaked a top-secret NSA memo exposing a joint US-UK illegal spying operation against members of the UN Security Council. The memo proposed blackmailing member states into voting for war.", "poster_path": "/lyCGqSkT3PqLYQXiWs4FCVJBAYW.jpg", "popularity": 14.4}, {"id": 476764, "video": false, "vote_count": 173, "vote_average": 6.0, "title": "The Front Runner", "release_date": "2018-11-06", "original_language": "en", "original_title": "The Front Runner", "genre_ids": [18, 36], "backdrop_path": "/kQVo5ECXrTcoMtj8hWbdiqpfPms.jpg", "adult": false, "overview": "Gary Hart, former Senator of Colorado, becomes the front-runner for the Democratic presidential nomination in 1987. Hart's intelligence, charisma and idealism makes him popular with young voters, leaving him with a seemingly clear path to the White House. All that comes crashing down when allegations of an extramarital affair surface in the media, forcing the candidate to address a scandal that threatens to derail his campaign and personal life.", "poster_path": "/7iMNvhINYaYwsF1jC5VaDeQ1V70.jpg", "popularity": 15.949}, {"id": 9440, "video": false, "vote_count": 165, "vote_average": 6.3, "title": "Primary Colors", "release_date": "1998-03-20", "original_language": "en", "original_title": "Primary Colors", "genre_ids": [18], "backdrop_path": "/5dr51JtcVDwBhBzkrugSEbhV2je.jpg", "adult": false, "overview": "In this adaptation of the best-selling roman \u00e0 clef about Bill Clinton's 1992 run for the White House, the young and gifted Henry Burton is tapped to oversee the presidential campaign of Governor Jack Stanton. Burton is pulled into the politician's colorful world and looks on as Stanton -- who has a wandering eye that could be his downfall -- contends with his ambitious wife, Susan, and an outspoken adviser, Richard Jemmons.", "poster_path": "/6ojWGOU5BcjZHDOwBOtxDhTWxJf.jpg", "popularity": 9.038}, {"id": 11420, "video": false, "vote_count": 148, "vote_average": 7.8, "title": "The Corporation", "release_date": "2003-09-10", "original_language": "en", "original_title": "The Corporation", "genre_ids": [99], "backdrop_path": "/qOpNpDLNEjeOvN3q7rhJLFY41MT.jpg", "adult": false, "overview": "Since the late 18th century American legal decision that the business corporation organizational model is legally a person, it has become a dominant economic, political and social force around the globe. This film takes an in-depth psychological examination of the organization model through various case studies. What the study illustrates is that in the its behaviour, this type of \"person\" typically acts like a dangerously destructive psychopath without conscience. Furthermore, we see the profound threat this psychopath has for our world and our future, but also how the people with courage, intelligence and determination can do to stop it.", "poster_path": "/7S5rkHsVfMAQEHFQavx3nm74hNH.jpg", "popularity": 9.358}, {"adult": false, "backdrop_path": "/kBb9XuEfRPRO9BajTAyIk0SxBm8.jpg", "genre_ids": [18, 36], "id": 10523, "original_language": "en", "original_title": "W.", "overview": "Whether you love him or hate him, there is no question that George W. Bush is one of the most controversial public figures in recent memory. W takes viewers through Bush\u2019s eventful life -- his struggles and triumphs, how he found both his wife and his faith, and of course the critical days leading up to Bush\u2019s decision to invade Iraq.", "poster_path": "/upFQuRzN23kLvzO1brSFClLqZvV.jpg", "release_date": "2008-10-17", "title": "W.", "video": false, "vote_average": 6.0, "vote_count": 266, "popularity": 9.4}, {"id": 10139, "video": false, "vote_count": 1269, "vote_average": 7.3, "title": "Milk", "release_date": "2008-11-05", "original_language": "en", "original_title": "Milk", "genre_ids": [18, 36], "backdrop_path": "/i8NcYenVqMzB95pVz8YOPIqmGj8.jpg", "adult": false, "overview": "The true story of Harvey Milk, the first openly gay man ever elected to public office. In San Francisco in the late 1970s, Harvey Milk becomes an activist for gay rights and inspires others to join him in his fight for equal rights that should be available to all Americans.", "poster_path": "/aTbhbnq9YnKJM6wGIiedfJaoV6m.jpg", "popularity": 12.072}, {"adult": false, "backdrop_path": "/ki67J68pj68F4NaqHeELZcmu5v4.jpg", "genre_ids": [99, 36, 10752], "id": 13180, "original_language": "en", "original_title": "Zeitgeist: Addendum", "overview": "Zeitgeist: Addendum premiered at the 5th Annual Artivist Film Festival. Director Peter Joseph stated: \"The failure of our world to resolve the issues of war, poverty, and corruption, rests within a gross ignorance about what guides human behavior to begin with. It address the true source of the instability in our society, while offering the only fundamental, long-term solution.\"", "poster_path": "/8YT6FHOCj2xT9bnKerL5s6grAwD.jpg", "release_date": "2008-10-02", "title": "Zeitgeist: Addendum", "video": false, "vote_average": 7.3, "vote_count": 129, "popularity": 8.687}, {"id": 347123, "video": false, "vote_count": 159, "vote_average": 6.6, "title": "All the Way", "release_date": "2016-05-23", "original_language": "en", "original_title": "All the Way", "genre_ids": [18, 36, 10770], "backdrop_path": "/8MXKQQbMm0akExVSRJieUh3GJkL.jpg", "adult": false, "overview": "Lyndon B. Johnson's amazing 11-month journey from taking office after JFK's assassination, through the fight to pass the 1964 Civil Rights Act and his own presidential campaign, culminating on the night LBJ is actually elected to the office \u2013 no longer the 'accidental President.'", "poster_path": "/j4AEurmnYoRsA1nHhRK9AE4j2CL.jpg", "popularity": 10.123}, {"id": 9388, "video": false, "vote_count": 1252, "vote_average": 7.2, "title": "Thank You for Smoking", "release_date": "2005-03-17", "original_language": "en", "original_title": "Thank You for Smoking", "genre_ids": [35, 18], "backdrop_path": "/D1VqMoYT4K2aFcywu3kGnycD6n.jpg", "adult": false, "overview": "Nick Naylor is a charismatic spin-doctor for Big Tobacco who'll fight to protect America's right to smoke -- even if it kills him -- while still remaining a role model for his 12-year old son. When he incurs the wrath of a senator bent on snuffing out cigarettes, Nick's powers of \"filtering the truth\" will be put to the test.", "poster_path": "/v8PKsbAGIvAhKbbRUjdQ3jgFD2S.jpg", "popularity": 10.472}, {"id": 2575, "video": false, "vote_count": 237, "vote_average": 6.2, "title": "The Tailor of Panama", "release_date": "2001-02-11", "original_language": "en", "original_title": "The Tailor of Panama", "genre_ids": [18, 53], "backdrop_path": "/nUZ8nCoAyWmjcjsVcjsTpb6739Y.jpg", "adult": false, "overview": "A British spy is banished to Panama after having an affair with an ambassador's mistress. Once there he makes connection with a local tailor with a nefarious past and connections to all of the top political and gangster figures in Panama. The tailor also has a wife, who works for the Panamanian president and a huge debt. The mission is to learn what the President intends to do with the Canal.", "poster_path": "/crJTnaCvzw3gCCqNSzEK6yerzJU.jpg", "popularity": 10.455}, {"id": 25430, "video": false, "vote_count": 95, "vote_average": 7.1, "title": "All the King's Men", "release_date": "1949-11-08", "original_language": "en", "original_title": "All the King's Men", "genre_ids": [18], "backdrop_path": "/lVjZnM9JuRYC1PUnJUBVEksmoLc.jpg", "adult": false, "overview": "All The King's Men is the story of the rise of politician Willie Stark from a rural county seat to the governor's mansion.", "poster_path": "/flvbh5w7AyIVvtp8trkzyG2j5k4.jpg", "popularity": 8.509}, {"adult": false, "backdrop_path": "/A9NDglBlTxLyKbTiKmgfh5MCrHj.jpg", "genre_ids": [18], "id": 17185, "original_language": "en", "original_title": "Advise & Consent", "overview": "A Senate investigation into the President's newly-nominated Secretary of State gives light to a secret from the past, which may not only ruin the candidate, but the President's character as well.", "poster_path": "/4fW4lM5iVVInFnV27OdXeSLUWFH.jpg", "release_date": "1962-06-06", "title": "Advise & Consent", "video": false, "vote_average": 7.4, "vote_count": 40, "popularity": 6.857}, {"id": 7461, "video": false, "vote_count": 1225, "vote_average": 6.3, "title": "Vantage Point", "release_date": "2008-02-01", "original_language": "en", "original_title": "Vantage Point", "genre_ids": [28, 80, 18, 53], "backdrop_path": "/7DwOjEHdJ3dc3kBNaN7XQ0yE258.jpg", "adult": false, "overview": "The attempted assassination of the American president is told and re-told from several different perspectives.", "poster_path": "/2PnFsTzmFC3Ydhj0uBEYjPqHWHO.jpg", "popularity": 11.568}, {"id": 77953, "video": false, "vote_count": 1084, "vote_average": 5.8, "title": "The Campaign", "release_date": "2012-08-09", "original_language": "en", "original_title": "The Campaign", "genre_ids": [35], "backdrop_path": "/8mKomlkHvO753Wc9w2Q25ffc4UC.jpg", "adult": false, "overview": "Two rival politicians compete to win an election to represent their small North Carolina congressional district in the United States House of Representatives.", "poster_path": "/6uH8BOWN60mu2Vd5z4jCaVWb2ix.jpg", "popularity": 9.938}, {"adult": false, "backdrop_path": "/8K8EwDzFA5fRZdAfldBnVktE7O3.jpg", "genre_ids": [18, 53], "id": 5125, "original_language": "en", "original_title": "Rendition", "overview": "When an Egyptian terrorism suspect \"disappears\" on a flight from Africa to Washington DC, his American wife and a CIA analyst find themselves caught up in a struggle to secure his release from a secret detention facility somewhere outside the US.", "poster_path": "/5vsEosyU3c5pCkjygaFnhilkng4.jpg", "release_date": "2007-09-07", "title": "Rendition", "video": false, "vote_average": 6.4, "vote_count": 372, "popularity": 8.432}, {"id": 9776, "video": false, "vote_count": 140, "vote_average": 5.6, "title": "Head of State", "release_date": "2003-03-28", "original_language": "en", "original_title": "Head of State", "genre_ids": [35], "backdrop_path": "/rtM4e4ZwFHyF3zbkQjp2uuE7LlN.jpg", "adult": false, "overview": "When a presidential candidate dies unexpectedly in the middle of the campaign, the Democratic party unexpectedly picks a Washington, D.C. alderman, Mays Gilliam (Rock) as his replacement .", "poster_path": "/8ecBdSIyHLtZaZu0jzocgJngg8I.jpg", "popularity": 8.156}, {"adult": false, "backdrop_path": "/eiSRZDOA0d5gKEISvknhQGgwHpk.jpg", "genre_ids": [9648, 18, 10749], "id": 37722, "original_language": "en", "original_title": "Waking the Dead", "overview": "A congressional candidate questions his sanity after seeing the love of his life, presumed dead, suddenly emerge.", "poster_path": "/knPjLo050qU82PPuGpDMhT6VICV.jpg", "release_date": "2000-03-24", "title": "Waking the Dead", "video": false, "vote_average": 6.8, "vote_count": 42, "popularity": 7.197}], "total_pages": 6, "total_results": 102}, "recommendations": {"page": 1, "results": [{"adult": false, "backdrop_path": "/1hXFyVjSxnQwYSc46p6RNC11T6l.jpg", "genre_ids": [99], "id": 59406, "original_language": "en", "original_title": "PsyWar: The real battlefield is your mind", "overview": "This film explores the evolution of propaganda and public relations in the United States, with an emphasis on the elitist theory of democracy and the relationship between war, propaganda and class. Includes original interviews with a number of dissident scholars including Noam Chomsky, Howard Zinn, Michael Parenti, Peter Phillips (Project Censored), John Stauber (PR Watch), Christopher Simpson (The Science of Coercion) and others. A deep, richly illustrated study of the nature and history of propaganda, featuring some of the world\u2019s most insightful critics, Psywar exposes the propaganda system, providing crucial background and insight into the control of information and thought.", "poster_path": "/8i17ydGTzay0PbbRkT9ipLkah1N.jpg", "release_date": "2010-10-08", "title": "PsyWar: The real battlefield is your mind", "video": false, "vote_average": 6.9, "vote_count": 7, "popularity": 2.364}, {"adult": false, "backdrop_path": null, "genre_ids": [99], "id": 170345, "original_language": "en", "original_title": "Spin", "overview": "A documentary about the 1992 U.S. presidential election based on pirated satellite feeds.", "poster_path": "/9xtI9NB5KK8tl1s4rKp20iOHnuz.jpg", "release_date": "1995-10-05", "title": "Spin", "video": false, "vote_average": 8.0, "vote_count": 9, "popularity": 2.419}, {"adult": false, "backdrop_path": "/pCTqUaQE0OFnhwAARXzMcQHHkB5.jpg", "genre_ids": [99], "id": 12901, "original_language": "en", "original_title": "No End in Sight", "overview": "Chronological look at the fiasco in Iraq, especially decisions made in the spring of 2003 - and the backgrounds of those making decisions - immediately following the overthrow of Saddam: no occupation plan, an inadequate team to run the country, insufficient troops to keep order, and three edicts from the White House announced by Bremmer when he took over.", "poster_path": "/bLUDAyc3VyK2tKYaJHfN8BjJI1H.jpg", "release_date": "2007-07-27", "title": "No End in Sight", "video": false, "vote_average": 7.9, "vote_count": 43, "popularity": 5.982}, {"adult": false, "backdrop_path": "/gLd4L49bg5MwUg1MEvbeu6GU0lU.jpg", "genre_ids": [99], "id": 54714, "original_language": "en", "original_title": "The Trials of Henry Kissinger", "overview": "This riveting documentary depicts former Secretary of State Henry Kissinger as a warmonger responsible for military cover-ups in Vietnam, Cambodia and East Timor, as well as the assassination of a Chilean leader in 1970. Based on a book by journalist Christopher Hitchens, the film includes interviews with historians, political analysts and such journalists as New York Times writer William Safire, a former Nixon speechwriter.", "poster_path": "/5jcedJWL0tR4nSCkIGuWMSKBloX.jpg", "release_date": "2002-09-29", "title": "The Trials of Henry Kissinger", "video": false, "vote_average": 7.4, "vote_count": 14, "popularity": 1.736}, {"id": 30330, "video": false, "vote_count": 26, "vote_average": 6.3, "title": "The Late Shift", "release_date": "1996-02-24", "original_language": "en", "original_title": "The Late Shift", "genre_ids": [35, 18], "backdrop_path": "/riL2oUZrEMCzUJbMVXy1Eo1AnV6.jpg", "adult": false, "overview": "David Letterman vies with Jay Leno and his manager to succeed Johnny Carson, retiring from \"The Tonight Show.\"", "poster_path": "/ew2NjrAF59cZzo2W5Sc5drhpo7T.jpg", "popularity": 6.407}], "total_pages": 1, "total_results": 5}, "credits": {"cast": [{"cast_id": 1, "character": "", "credit_id": "52fe47609251416c75097257", "gender": 0, "id": 117535, "name": "Tom DeLay", "order": 0, "profile_path": "/ZneOwX4tgiMUgkIkY6ePZAX1F5.jpg"}, {"cast_id": 2, "character": "", "credit_id": "52fe47609251416c7509725b", "gender": 0, "id": 117536, "name": "Michael Dukakis", "order": 1, "profile_path": "/7PQyKnQc715fEnIkEmqpwEF9u1a.jpg"}, {"cast_id": 3, "character": "", "credit_id": "52fe47609251416c7509725f", "gender": 0, "id": 117537, "name": "Ishmael Reed", "order": 2, "profile_path": null}, {"cast_id": 4, "character": "", "credit_id": "52fe47609251416c75097263", "gender": 0, "id": 117538, "name": "Sam Donaldson", "order": 3, "profile_path": "/6BO3N65MDktJSXzSGaxg5wcsBr1.jpg"}], "crew": [{"credit_id": "57bc9b24c3a368228f0076a9", "department": "Directing", "gender": 0, "id": 1669559, "job": "Director", "name": "Stefan Forbes", "profile_path": null}, {"credit_id": "5c0f847a0e0a2638bc0db79a", "department": "Writing", "gender": 0, "id": 1669559, "job": "Writer", "name": "Stefan Forbes", "profile_path": null}, {"credit_id": "5c0f84860e0a2638d30e1399", "department": "Production", "gender": 0, "id": 1669559, "job": "Producer", "name": "Stefan Forbes", "profile_path": null}, {"credit_id": "5c0f849b92514147b00d1c3d", "department": "Production", "gender": 0, "id": 209964, "job": "Producer", "name": "Noland Walker", "profile_path": null}, {"credit_id": "5c0f84a8c3a36825230d30d9", "department": "Production", "gender": 0, "id": 2192968, "job": "Associate Producer", "name": "Tia Wou", "profile_path": null}, {"credit_id": "5c0f850c92514147980d072a", "department": "Sound", "gender": 0, "id": 1669559, "job": "Original Music Composer", "name": "Stefan Forbes", "profile_path": null}, {"credit_id": "5c0f8523c3a368252a0e1689", "department": "Sound", "gender": 0, "id": 2192970, "job": "Original Music Composer", "name": "Tim Robert", "profile_path": null}, {"credit_id": "5c0f852cc3a36825200d907c", "department": "Camera", "gender": 0, "id": 1669559, "job": "Director of Photography", "name": "Stefan Forbes", "profile_path": null}, {"credit_id": "5c0f8536c3a36825180dd9a6", "department": "Editing", "gender": 0, "id": 1669559, "job": "Editor", "name": "Stefan Forbes", "profile_path": null}, {"credit_id": "5c0f854192514147920d0744", "department": "Sound", "gender": 0, "id": 1847278, "job": "Sound", "name": "Tyler Bender", "profile_path": null}, {"credit_id": "5c0f854bc3a36825180dd9ca", "department": "Sound", "gender": 0, "id": 1455664, "job": "Sound Editor", "name": "Scott Cannizzaro", "profile_path": null}, {"credit_id": "5c0f8556925141479e0c7600", "department": "Sound", "gender": 1, "id": 40140, "job": "Sound Editor", "name": "Margaret Crimmins", "profile_path": null}, {"credit_id": "5c0f855f92514147920d0778", "department": "Sound", "gender": 0, "id": 2192971, "job": "Sound Recordist", "name": "Bryan Dembinski", "profile_path": null}, {"credit_id": "5c0f85850e0a2638c50e32ff", "department": "Sound", "gender": 0, "id": 2192972, "job": "Sound Editor", "name": "Greg Smith", "profile_path": null}, {"credit_id": "5c0f85ad9251414f29041bfa", "department": "Camera", "gender": 0, "id": 1525379, "job": "Additional Photography", "name": "Stephen McCarthy", "profile_path": null}, {"credit_id": "5c0f85bbc3a368252d0e03de", "department": "Camera", "gender": 0, "id": 84374, "job": "Additional Photography", "name": "Brett Wiley", "profile_path": null}, {"credit_id": "5c0f85c7c3a368252a0e1779", "department": "Editing", "gender": 0, "id": 937924, "job": "Additional Editor", "name": "Emir Lewis", "profile_path": null}]}}