{"adult": false, "backdrop_path": null, "belongs_to_collection": null, "budget": 0, "genres": [{"id": 99, "name": "Documentary"}], "homepage": null, "id": 182050, "imdb_id": "tt0387492", "original_language": "en", "original_title": "pickAxe", "overview": "An eclectic mix of activists take a stand to protect an old growth forest from logging at Warner Creek in the Willamette National Forest of Oregon, blockading the logging road and repelling the State Police. Over months a community builds around the illegal blockade as it develops into the Cascadia Free State and similar actions spread across the region. Years after its release, Pickaxe has become a classic document of the potential for grassroots direct action to achieve victory against the forces of both government and big business. Lovingly crafted by the participants themselves, the film expertly presents every moment, from confrontation to celebration.", "popularity": 0.805, "poster_path": "/8YnwBRsnegbVM6yayUISRPGGohG.jpg", "production_companies": [], "production_countries": [], "release_date": "1999-04-03", "revenue": 0, "runtime": 94, "spoken_languages": [], "status": "Released", "tagline": "", "title": "pickAxe", "video": false, "vote_average": 0.0, "vote_count": 0, "keywords": {"keywords": [{"id": 5879, "name": "anarchist"}]}, "similar": {"page": 1, "results": [{"id": 475557, "video": false, "vote_count": 8109, "vote_average": 8.3, "title": "Joker", "release_date": "2019-10-02", "original_language": "en", "original_title": "Joker", "genre_ids": [80, 18, 53], "backdrop_path": "/n6bUvigpRFqSwmPp1m2YADdbRBc.jpg", "adult": false, "overview": "During the 1980s, a failed stand-up comedian is driven insane and turns to a life of crime and chaos in Gotham City while becoming an infamous psychopathic crime figure.", "poster_path": "/udDclJoHjfjb8Ekgsd4FDteOkCU.jpg", "popularity": 231.13}, {"id": 7735, "video": false, "vote_count": 1915, "vote_average": 7.6, "title": "The Wave", "release_date": "2008-03-11", "original_language": "de", "original_title": "Die Welle", "genre_ids": [18, 53], "backdrop_path": "/2hFGKZG8G5L22O5que802vUEXF1.jpg", "adult": false, "overview": "A school teacher discusses types of government with his class. His students find it too boring to repeatedly go over national socialism and believe that dictatorship cannot be established in modern Germany. He starts an experiment to show how easily the masses can become manipulated.", "poster_path": "/h3FL7Un5LA5dAbg0AoRNjeWvsTK.jpg", "popularity": 11.285}, {"adult": false, "backdrop_path": "/ehaiYM4dHtQfTou3RF7r6LwIvZf.jpg", "genre_ids": [28, 878], "id": 10134, "original_language": "en", "original_title": "Cyborg", "overview": "A martial artist hunts a killer in a plague-infested urban dump of the future.", "poster_path": "/nOspcG8HP6KPdMvzezavRbzYCEw.jpg", "release_date": "1989-04-07", "title": "Cyborg", "video": false, "vote_average": 5.1, "vote_count": 300, "popularity": 12.025}, {"adult": false, "backdrop_path": null, "genre_ids": [28, 18], "id": 453648, "original_language": "en", "original_title": "The Anarchists vs ISIS", "overview": "A group of American activists join forces with a Kurdish militia group to help defeat ISIS in Syria.", "poster_path": null, "release_date": "", "title": "The Anarchists vs ISIS", "video": false, "vote_average": 0.0, "vote_count": 0, "popularity": 3.497}, {"adult": false, "backdrop_path": "/1eZOFYQrEm7xAM1cd3eMfGY7mMj.jpg", "genre_ids": [18, 35, 53], "id": 9775, "original_language": "en", "original_title": "Noviembre", "overview": "Impelled by a spirit which still preserves a patina of idealism, Alfredo arrives to Madrid with the intention to create \"a performance that is free, straight from the heart, capable of making people feel alive\". His concept of what acting should be begins beyond the stage, out in the streets face to face with the public. Outdoors, in any town square, in a park or in the city's most commercial street, Alfredo and his troupe November start the show; demons to provoke passers-by, displays of social conscience, actions taken to the extreme to put the forces of law and order on full alert. There are no limits, no censorship; only ideas which are always valid so long as the public ceases to be the public and becomes part of the show swept by surprise, fear, tears or laughter. Theater as life, life as theater\u2026 there is no longer any difference.", "poster_path": "/tf31EnEvEqH20zcniYrPRmIKNgq.jpg", "release_date": "2003-09-26", "title": "November", "video": false, "vote_average": 7.3, "vote_count": 22, "popularity": 3.1}, {"id": 178, "video": false, "vote_count": 245, "vote_average": 6.1, "title": "Blown Away", "release_date": "1994-07-01", "original_language": "en", "original_title": "Blown Away", "genre_ids": [53], "backdrop_path": "/4r7ihWJaqCG2Tecf6cYCeVuqQNh.jpg", "adult": false, "overview": "Blown Away tells the story of Jimmy Dove who works for the Boston bomb squad. Shortly after Dove leaves the force his partner is killed by a bomb that Dove thinks might have been made by someone he knows.", "poster_path": "/elDZEW6wkGHTAwIUDrNMARNgxPY.jpg", "popularity": 14.797}, {"adult": false, "backdrop_path": "/9Sjks3KlveFtVhbituxhOLUgDau.jpg", "genre_ids": [35, 10751, 878], "id": 10748, "original_language": "en", "original_title": "St. Trinian's", "overview": "When their beloved school is threatened with closure should the powers that be fail to raise the proper funds, the girls scheme to steal a priceless painting and use the profits to pull St. Trinian's out of the red.", "poster_path": "/7WkJDzTqWaw2j57Yx1KvoIb5eWA.jpg", "release_date": "2007-12-21", "title": "St. Trinian's", "video": false, "vote_average": 6.0, "vote_count": 296, "popularity": 12.457}, {"id": 2457, "video": false, "vote_count": 165, "vote_average": 8.3, "title": "Children of Paradise", "release_date": "1945-03-15", "original_language": "fr", "original_title": "Les Enfants du Paradis", "genre_ids": [18, 10749], "backdrop_path": "/59kBgtfbhh1dalgjGvFhDL98jN.jpg", "adult": false, "overview": "Filmed during the German occupation, this French milestone centers around the theatrical life of a beautiful courtesan and the four men who love her. Voted the \u201cBest French Film in History\u201d by the French Film Academy in 1990.", "poster_path": "/yiy9stl1jjVhW44ypkWMFDT8Ix3.jpg", "popularity": 8.125}, {"id": 38884, "video": false, "vote_count": 113, "vote_average": 7.5, "title": "Land and Freedom", "release_date": "1995-01-01", "original_language": "en", "original_title": "Land and Freedom", "genre_ids": [18, 36, 10749, 10752], "backdrop_path": "/upOTyTfvqwJMw8EVxm2O04SMQdE.jpg", "adult": false, "overview": "David Carr is a British Communist who is unemployed. In 1936, when the Spanish Civil War begins, he decides to fight for the Republican side, a coalition of liberals, communists and anarchists, so he joins the POUM militia and witnesses firsthand the betrayal of the Spanish revolution by Stalin's followers and Moscow's orders.", "poster_path": "/6pBxruRCygxR4AcmilYr8YIe0a9.jpg", "popularity": 8.438}, {"adult": false, "backdrop_path": "/y0bFDyiAGTPtISShar2GgeLCrfN.jpg", "genre_ids": [18], "id": 49014, "original_language": "en", "original_title": "Cosmopolis", "overview": "Riding across Manhattan in a stretch limo during a riot in order to get a haircut, a 28-year-old billionaire asset manager's life begins to crumble.", "poster_path": "/qN0EQOf8ikWmju4ECJW54vyRu7Q.jpg", "release_date": "2012-05-25", "title": "Cosmopolis", "video": false, "vote_average": 5.5, "vote_count": 614, "popularity": 7.846}, {"id": 1896, "video": false, "vote_count": 36, "vote_average": 6.8, "title": "Salvador (Puig Antich)", "release_date": "2006-05-23", "original_language": "ca", "original_title": "Salvador (Puig Antich)", "genre_ids": [18, 36], "backdrop_path": "/eEYEQAEqZAVhgsPmefU3PS4l5An.jpg", "adult": false, "overview": "The story of Salvador Puig Antich, one of the last political prisoners to be executed under Franco's Fascist State in 1974.", "poster_path": "/yHVHgyT5YfOHmDmgyL9R3Vc99pR.jpg", "popularity": 6.13}, {"id": 1553, "video": false, "vote_count": 222, "vote_average": 7.1, "title": "The Beat That My Heart Skipped", "release_date": "2005-03-16", "original_language": "fr", "original_title": "De battre mon c\u0153ur s'est arr\u00eat\u00e9", "genre_ids": [80, 18, 10402], "backdrop_path": "/ye1Yym4OhOp38rXKbKQJFolQCIA.jpg", "adult": false, "overview": "Like his father, Tom is a real estate agent who makes his money from dirty, and sometimes brutal, deals. But a chance encounter prompts him to take up the piano and become a concert pianist. He auditions with the help of a beautiful, young virtuoso pianist who cannot speak French - music is their only exchange. But pressures from the ugly world of his day job soon become more than he can handle...", "poster_path": "/47zfk5IIrbupXbw6DFay25vY1cR.jpg", "popularity": 7.813}, {"adult": false, "backdrop_path": "/uuvaXWaW8fibwSCejJINzEPB0rF.jpg", "genre_ids": [35, 18], "id": 14022, "original_language": "en", "original_title": "Slacker", "overview": "Austin, Texas, is an Eden for the young and unambitious, from the enthusiastically eccentric to the dangerously apathetic. Here, the nobly lazy can eschew responsibility in favor of nursing their esoteric obsessions. The locals include a backseat philosopher who passionately expounds on his dream theories to a seemingly comatose cabbie, a young woman who tries to hawk Madonna's Pap test to anyone who will listen and a kindly old anarchist looking for recruits.", "poster_path": "/p3ObbD4HkNo8uJ8ipGz7utQ8FOx.jpg", "release_date": "1991-07-05", "title": "Slacker", "video": false, "vote_average": 6.8, "vote_count": 153, "popularity": 9.582}, {"adult": false, "backdrop_path": "/t6bdLSqLyurQD9hWhL4x8xM2w3z.jpg", "genre_ids": [18, 37, 10749], "id": 28304, "original_language": "en", "original_title": "The Furies", "overview": "A New Mexico cattle man and his strong-willed daughter clash over the man's choice for a new bride. Things get worse when the elder man has his daughter's lover hanged. With the help of an old flame, a gambler, the daughter puts into motion a plan to drive her father from his estate.", "poster_path": "/AoVFEL9OIB59RwDQlBRH05Q7gAh.jpg", "release_date": "1950-08-16", "title": "The Furies", "video": false, "vote_average": 7.1, "vote_count": 26, "popularity": 4.858}, {"adult": false, "backdrop_path": "/uR90A57maaLWztipywYjyABi8qf.jpg", "genre_ids": [28, 12, 80], "id": 16276, "original_language": "fr", "original_title": "Les Brigades du Tigre", "overview": "The film, set in 1912, is about the exploits of France's first motorized police brigade.", "poster_path": "/kz15GNaRXn2FazduV4Hn2j3qsKs.jpg", "release_date": "2006-04-14", "title": "The Tiger Brigades", "video": false, "vote_average": 5.8, "vote_count": 69, "popularity": 4.598}, {"adult": false, "backdrop_path": null, "genre_ids": [99], "id": 4981, "original_language": "en", "original_title": "There Is No Authority But Yourself", "overview": "A Dutch documentary about the history of the anrchist punk band Crass. The film features archive footage of the band and interviews with former members Steve Ignorant, Penny RimbThe film features archive footage of the band and interviews with former members Steve Ignorant, Penny Rimbaud and Gee Vaucher.", "poster_path": "/lWSpZ73VSemrZix0n31iTpviMsH.jpg", "release_date": "2006-01-01", "title": "There Is No Authority But Yourself", "video": false, "vote_average": 0.0, "vote_count": 0, "popularity": 1.4}, {"adult": false, "backdrop_path": null, "genre_ids": [99], "id": 344696, "original_language": "es", "original_title": "\u00c1cratas", "overview": "Armed based on photography, period films, archival materials and testimonies of survivors, family members and historians, the documentary accurately and exquisitely reconstructs the course of the \u201cexpropriating anarchists\u201d in the R\u00edo de la Plata and specifically in Montevideo del First third of the 20th century.", "poster_path": "/A1rFE2oX6YZBOArrGXDoFD5rh3P.jpg", "release_date": "2000-06-06", "title": "\u00c1cratas", "video": false, "vote_average": 7.0, "vote_count": 1, "popularity": 0.6}, {"id": 10000, "video": false, "vote_count": 29, "vote_average": 7.2, "title": "The Snail's Strategy", "release_date": "1993-12-25", "original_language": "es", "original_title": "La estrategia del caracol", "genre_ids": [35, 18], "backdrop_path": "/Ar87X5wNldG33l3Ka1iMK26I6xZ.jpg", "adult": false, "overview": "A group of tenants living in an old house are confronted with having to move out due to a renovation project the city has undertaken. The tenants decide to unite and come up with a strategy, but in the process\u2014while the landlord and his aggressive attorney are chasing them\u2014the tenants transform into the opposite of who they once were.", "poster_path": "/mdfFmAd1dXPa02GvZTnGDPWLut6.jpg", "popularity": 3.525}, {"id": 78117, "video": false, "vote_count": 18, "vote_average": 7.5, "title": "Eros + Massacre", "release_date": "1969-03-13", "original_language": "ja", "original_title": "\u30a8\u30ed\u30b9\uff0b\u8650\u6bba", "genre_ids": [18], "backdrop_path": "/zEPVHPVN72OMOAbngjDjkkPKQdJ.jpg", "adult": false, "overview": "Two interwoven stories. The first is a biography of anarchist Sakae Osugi which follows his relationship with three women in the 1920s. The second centers around two 1960s students researching Osugi's theories.", "poster_path": "/vbNDSmtMjbZnnfMchb5HKCSlOM1.jpg", "popularity": 2.603}, {"id": 16606, "video": false, "vote_count": 61, "vote_average": 6.5, "title": "Attack the Gas Station!", "release_date": "1999-10-02", "original_language": "ko", "original_title": "\uc8fc\uc720\uc18c \uc2b5\uaca9\uc0ac\uac74", "genre_ids": [28, 35], "backdrop_path": "/A6lpXCqOTCmmVobMZLuyFD7uCyF.jpg", "adult": false, "overview": "A quartet of disaffected Korean youths have robbed a Seoul gas station. After taking the gas station over, their wacky antics ensue; forcing the manager to sing, kidnapping customers that complain about the service, and staging fist-fights between street gang members and gas station employees; all of these reflect their own gripes against society.", "poster_path": "/hPytSVUREQlEvIZtxpCNi2zxotY.jpg", "popularity": 6.009}], "total_pages": 4, "total_results": 69}, "recommendations": {"page": 1, "results": [], "total_pages": 1, "total_results": 0}, "credits": {"cast": [{"cast_id": 1, "character": "Himself", "credit_id": "54797741c3a3685c4b001a66", "gender": 0, "id": 930525, "name": "Tim Ream", "order": 1, "profile_path": null}], "crew": [{"credit_id": "5a7b5c08c3a3687b6700e180", "department": "Directing", "gender": 2, "id": 1623654, "job": "Director", "name": "Tim Lewis", "profile_path": null}]}}