{"adult": false, "backdrop_path": null, "belongs_to_collection": null, "budget": 0, "genres": [{"id": 16, "name": "Animation"}], "homepage": null, "id": 182865, "imdb_id": "tt1680060", "original_language": "en", "original_title": "Bottle", "overview": "A transoceanic conversation between two characters via objects in a bottle.", "popularity": 1.304, "poster_path": "/49E9oLH9Y5Lpj5YsuvEOB3N2zH6.jpg", "production_companies": [], "production_countries": [], "release_date": "2011-01-01", "revenue": 0, "runtime": 6, "spoken_languages": [], "status": "Released", "tagline": "", "title": "Bottle", "video": false, "vote_average": 7.0, "vote_count": 4, "keywords": {"keywords": [{"id": 10121, "name": "stop motion"}, {"id": 187056, "name": "woman director"}]}, "similar": {"page": 1, "results": [{"id": 326359, "video": false, "vote_count": 1180, "vote_average": 6.8, "title": "Frozen Fever", "release_date": "2015-03-09", "original_language": "en", "original_title": "Frozen Fever", "genre_ids": [12, 16, 10751], "backdrop_path": "/ubioPGniCfDiASmYYpeJs5RRNaC.jpg", "adult": false, "overview": "On Anna's birthday, Elsa and Kristoff are determined to give her the best celebration ever, but Elsa's icy powers may put more than just the party at risk.", "poster_path": "/lKJiVPzsAO9IJ4LKWXZ8vkR2bg4.jpg", "popularity": 17.218}, {"id": 9813, "video": false, "vote_count": 128, "vote_average": 6.1, "title": "The Quiet", "release_date": "2005-09-12", "original_language": "en", "original_title": "The Quiet", "genre_ids": [18, 53], "backdrop_path": "/6eyWAZA4CEidZW1xXnQ4vlYBXTP.jpg", "adult": false, "overview": "After her widowed father dies, deaf teenager Dot moves in with her godparents, Olivia and Paul Deer. The Deers' daughter, Nina, is openly hostile to Dot, but that does not prevent her from telling her secrets to her silent stepsister, including the fact that she wants to kill her lecherous father.", "poster_path": "/GEqIE9YlmygHVUfS64LW2cwAAM.jpg", "popularity": 14.844}, {"adult": false, "backdrop_path": "/gZeJziVigmRqbkEZwKAtSqlLQ6s.jpg", "genre_ids": [18, 10749], "id": 370663, "original_language": "en", "original_title": "Below Her Mouth", "overview": "An unexpected affair quickly escalates into a heart-stopping reality for two women whose passionate connection changes their lives forever.", "poster_path": "/nTGbq37hYLuNy7YgMg0gVLma0NS.jpg", "release_date": "2016-09-10", "title": "Below Her Mouth", "video": false, "vote_average": 6.2, "vote_count": 456, "popularity": 18.664}, {"id": 533, "video": false, "vote_count": 1440, "vote_average": 6.9, "title": "Wallace & Gromit: The Curse of the Were-Rabbit", "release_date": "2005-09-04", "original_language": "en", "original_title": "Wallace & Gromit: The Curse of the Were-Rabbit", "genre_ids": [12, 16, 35, 10751], "backdrop_path": "/v45E1vDhPp2hc1dEZx5KZuRsSxX.jpg", "adult": false, "overview": "Cheese-loving eccentric Wallace and his cunning canine pal, Gromit, investigate a mystery in Nick Park's animated adventure, in which the lovable inventor and his intrepid pup run a business ridding the town of garden pests. Using only humane methods that turn their home into a halfway house for evicted vermin, the pair stumble upon a mystery involving a voracious vegetarian monster that threatens to ruin the annual veggie-growing contest.", "poster_path": "/tLryx0x9TDV5rifA9W8yUvDZFHB.jpg", "popularity": 21.23}, {"id": 62177, "video": false, "vote_count": 8933, "vote_average": 6.9, "title": "Brave", "release_date": "2012-06-21", "original_language": "en", "original_title": "Brave", "genre_ids": [28, 12, 16, 35, 14, 10751], "backdrop_path": "/sfRCA9g3CunpnZO3QurHSIRcsUq.jpg", "adult": false, "overview": "Brave is set in the mystical Scottish Highlands, where M\u00e9rida is the princess of a kingdom ruled by King Fergus and Queen Elinor. An unruly daughter and an accomplished archer, M\u00e9rida one day defies a sacred custom of the land and inadvertently brings turmoil to the kingdom. In an attempt to set things right, M\u00e9rida seeks out an eccentric old Wise Woman and is granted an ill-fated wish. Also figuring into M\u00e9rida\u2019s quest \u2014 and serving as comic relief \u2014 are the kingdom\u2019s three lords: the enormous Lord MacGuffin, the surly Lord Macintosh, and the disagreeable Lord Dingwall.", "poster_path": "/qhABv2d4NZLhsOOA4iBFM4rfuJC.jpg", "popularity": 40.077}, {"adult": false, "backdrop_path": "/4brEMzPazQE3hv3mogj6k1a29RP.jpg", "genre_ids": [10749, 14, 16], "id": 3933, "original_language": "en", "original_title": "Corpse Bride", "overview": "Set in a 19th-century european village, this stop-motion animation feature follows the story of Victor, a young man whisked away to the underworld and wed to a mysterious corpse bride, while his real bride Victoria waits bereft in the land of the living.", "poster_path": "/o9GbcdP7rOg2m1NyUnUR3ZwNcTE.jpg", "release_date": "2005-09-12", "title": "Corpse Bride", "video": false, "vote_average": 7.4, "vote_count": 4928, "popularity": 23.702}, {"id": 10555, "video": false, "vote_count": 4064, "vote_average": 6.0, "title": "Shark Tale", "release_date": "2004-09-20", "original_language": "en", "original_title": "Shark Tale", "genre_ids": [28, 16, 35, 10751], "backdrop_path": "/v3RnhCEMu9MVxA5aHWPgVzFGdSG.jpg", "adult": false, "overview": "Oscar is a small fish whose big aspirations often get him into trouble. Meanwhile, Lenny is a great white shark with a surprising secret that no sea creature would guess: He's a vegetarian. When a lie turns Oscar into an improbable hero and Lenny becomes an outcast, the two form an unlikely friendship.", "poster_path": "/r08DpyPyhXcJTfNZAICNGMzcQ8l.jpg", "popularity": 28.177}, {"id": 9479, "video": false, "vote_count": 5316, "vote_average": 7.8, "title": "The Nightmare Before Christmas", "release_date": "1993-10-09", "original_language": "en", "original_title": "The Nightmare Before Christmas", "genre_ids": [16, 14, 10751], "backdrop_path": "/16lk65YfrDFIr6evkWRjSeOOSws.jpg", "adult": false, "overview": "Tired of scaring humans every October 31 with the same old bag of tricks, Jack Skellington, the spindly king of Halloween Town, kidnaps Santa Claus and plans to deliver shrunken heads and other ghoulish gifts to children on Christmas morning. But as Christmas approaches, Jack's rag-doll girlfriend, Sally, tries to foil his misguided plans.", "poster_path": "/6oxkO1VgKCq74fNILKAg6t2dVEt.jpg", "popularity": 18.951}, {"id": 109445, "video": false, "vote_count": 10976, "vote_average": 7.3, "title": "Frozen", "release_date": "2013-11-27", "original_language": "en", "original_title": "Frozen", "genre_ids": [12, 16, 10751], "backdrop_path": "/cN9Nbwh66TRcj2gBE8cSEZulsx3.jpg", "adult": false, "overview": "Young princess Anna of Arendelle dreams about finding true love at her sister Elsa\u2019s coronation. Fate takes her on a dangerous journey in an attempt to end the eternal winter that has fallen over the kingdom. She's accompanied by ice delivery man Kristoff, his reindeer Sven, and snowman Olaf. On an adventure where she will find out what friendship, courage, family, and true love really means.", "poster_path": "/eFnGmj63QPUpK7QUWSOUhypIQOT.jpg", "popularity": 59.088}, {"adult": false, "backdrop_path": "/6tern9vOEwwmkDYC1vRCuO64z0C.jpg", "genre_ids": [10749, 18], "id": 475888, "original_language": "en", "original_title": "Tell It to the Bees", "overview": "Dr. Jean Markham returns to the town she left as a teenager to take over her late father's medical practice. When a school-yard scuffle lands Charlie in her surgery, she invites him to visit the hives in her garden and tell his secrets to the bees, as she once did. The new friendship between the boy and the bee keeper brings his mother Lydia into Jean's world.", "poster_path": "/Rj6zpHhMU1zFW3v28U4PSRSRgP.jpg", "release_date": "2019-05-03", "title": "Tell It to the Bees", "video": false, "vote_average": 6.4, "vote_count": 53, "popularity": 13.175}, {"id": 387592, "video": false, "vote_count": 393, "vote_average": 6.0, "title": "Early Man", "release_date": "2018-01-26", "original_language": "en", "original_title": "Early Man", "genre_ids": [12, 16, 35, 10751], "backdrop_path": "/9m71RMP45mg599xtKPyjicyHn1a.jpg", "adult": false, "overview": "Dug, along with his sidekick Hognob, unite a cavemen tribe to save their hidden valley from being spoiled and, all together as a team, to face the menace of a mysterious and mighty enemy, on the turf of an ancient and sacred sport.", "poster_path": "/5iW2rntwLZoGlFCYYy8TjHyblbw.jpg", "popularity": 14.887}, {"adult": false, "backdrop_path": "/knczzNAjBXzSYkeWxoT1u9VNmjR.jpg", "genre_ids": [10749, 18], "id": 258480, "original_language": "en", "original_title": "Carol", "overview": "In 1950s New York, a department-store clerk who dreams of a better life falls for an older, married woman.", "poster_path": "/AbKa7ANxmui0Jmhh7gV7OSELKIL.jpg", "release_date": "2015-11-20", "title": "Carol", "video": false, "vote_average": 7.4, "vote_count": 2184, "popularity": 13.539}, {"adult": false, "backdrop_path": "/yFtr1BD7AHeruIm9jsVnoebEN2v.jpg", "genre_ids": [16, 35, 10751, 14], "id": 170687, "original_language": "en", "original_title": "The Boxtrolls", "overview": "An orphaned boy raised by underground creatures called Boxtrolls comes up from the sewers and out of his box to save his family and the town from the evil exterminator, Archibald Snatcher.", "poster_path": "/82BWSf1NfCm18ZJtAOIym1QRd24.jpg", "release_date": "2014-09-10", "title": "The Boxtrolls", "video": false, "vote_average": 6.6, "vote_count": 1119, "popularity": 12.957}, {"id": 309809, "video": false, "vote_count": 1671, "vote_average": 7.6, "title": "The Little Prince", "release_date": "2015-07-29", "original_language": "en", "original_title": "The Little Prince", "genre_ids": [12, 16, 14, 10751], "backdrop_path": "/f5gs9YKhwdYNTaOKP7ePfu7V1HD.jpg", "adult": false, "overview": "Based on the best-seller book 'The Little Prince', the movie tells the story of a little girl that lives with resignation in a world where efficiency and work are the only dogmas. Everything will change when accidentally she discovers her neighbor that will tell her about the story of the Little Prince that he once met.", "poster_path": "/uUNd8rVnHxhl2DOtaU7itT2vv78.jpg", "popularity": 14.606}, {"adult": false, "backdrop_path": "/rf6G51j0SZL0tP57I8gnqHTRFEr.jpg", "genre_ids": [35, 18, 10749], "id": 273153, "original_language": "fr", "original_title": "La belle saison", "overview": "In 1971, Carole and Delphine meet and fall in love in Paris. When Carole follows Delphine back to her family farm in Limousin, the two find lesbianism and feminism are not as easy in the countryside.", "poster_path": "/evvAkNMO5VJiy5qIo1Hu7fUfvVI.jpg", "release_date": "2015-08-19", "title": "Summertime", "video": false, "vote_average": 6.6, "vote_count": 162, "popularity": 11.575}, {"id": 616584, "video": false, "vote_count": 92, "vote_average": 7.5, "title": "K-12", "release_date": "2019-09-05", "original_language": "en", "original_title": "K-12", "genre_ids": [14, 27, 10402], "backdrop_path": "/fSlfaF0Ydfr2SK6hOYHvDsb7a9Z.jpg", "adult": false, "overview": "Cry Baby, a strong and sensitive girl, is sent off to a disturbing sleepaway school that\u2019s hidden underneath a grandiose fa\u00e7ade. Luckily, she has a sweet and unapologetic best friend who sticks up for her when she gets bullied by the other students whose brains are under control by the Principal and his wicked staff. With the help of the magical friends they meet along the way, as well as an Angelic Spirit Guide, they are able to gain the strength they need to fight off the school\u2019s belligerent patriarchal conditioning.", "poster_path": "/nVi0yBBPj5Z96JgGWVIg94kv7bR.jpg", "popularity": 15.107}, {"adult": false, "backdrop_path": "/caLMOD3ZJ3V7qjlxDXrzlJfBLgD.jpg", "genre_ids": [18, 10749], "id": 20, "original_language": "en", "original_title": "My Life Without Me", "overview": "A Pedro Almodovar production in which a fatally ill mother with only two months to live creates a list of things she wants to do before she dies with out telling her family of her illness.", "poster_path": "/vVj92VBFUBzjqzLvBiPVVlJDp78.jpg", "release_date": "2003-03-07", "title": "My Life Without Me", "video": false, "vote_average": 6.1, "vote_count": 220, "popularity": 10.382}, {"adult": false, "backdrop_path": "/useuHJQ5HOoEWkAvEjL1FW1sUfe.jpg", "genre_ids": [18], "id": 376867, "original_language": "en", "original_title": "Moonlight", "overview": "The tender, heartbreaking story of a young man\u2019s struggle to find himself, told across three defining chapters in his life as he experiences the ecstasy, pain, and beauty of falling in love, while grappling with his own sexuality.", "poster_path": "/qAwFbszz0kRyTuXmMeKQZCX3Q2O.jpg", "release_date": "2016-10-21", "title": "Moonlight", "video": false, "vote_average": 7.4, "vote_count": 4410, "popularity": 21.716}, {"adult": false, "backdrop_path": "/k8H7ye6Sab7OrDJoo8Qp5WFGHGk.jpg", "genre_ids": [35, 10749, 18], "id": 244264, "original_language": "en", "original_title": "Laggies", "overview": "Overeducated and underemployed, 28 year old Megan is in the throes of a quarterlife crisis. Squarely into adulthood with no career prospects, no particular motivation to think about her future and no one to relate to, Megan is comfortable lagging a few steps behind - while her friends check off milestones and celebrate their new grown-up status. When her high-school sweetheart proposes, Megan panics and- given an unexpected opportunity to escape for a week - hides out in the home of her new friend, 16-year old Annika and Annika's world-weary single dad Craig.", "poster_path": "/dNcoXoRC7JHiqbe7k5Ufo6syiPP.jpg", "release_date": "2014-09-25", "title": "Laggies", "video": false, "vote_average": 6.1, "vote_count": 788, "popularity": 13.836}, {"adult": false, "backdrop_path": "/g3LYarEY9LjB28Ct2trwFN72gqZ.jpg", "genre_ids": [35], "id": 437557, "original_language": "en", "original_title": "Blockers", "overview": "When three parents discover their daughters\u2019 pact to lose their virginity at prom, they launch a covert one-night operation to stop the teens from sealing the deal.", "poster_path": "/uvlUQXg0AlpGzKukO11K7QtW3Yu.jpg", "release_date": "2018-03-14", "title": "Blockers", "video": false, "vote_average": 6.2, "vote_count": 1155, "popularity": 17.886}], "total_pages": 1342, "total_results": 26826}, "recommendations": {"page": 1, "results": [{"adult": false, "backdrop_path": null, "genre_ids": [16], "id": 237083, "original_language": "en", "original_title": "Along Came Daffy", "overview": "Snow-bound in a cabin, two starving men begin visualizing each other as food, before salesman Daffy Duck calls at their door. The two men fancy Daffy as a duck dinner and chase him around the cabin. Daffy tells them he is a cookbook salesman with a complimentary turkey dinner. The men let Daffy go and sit down to feast on turkey, but a group of famished mice suddenly appear and devour the bird before the men can raise a knife to carve. When Daffy returns to try to sell the men some after-dinner mints, they resume their hungry chase of Daffy.", "poster_path": "/4HeL8zIZmxMacVKfyIOmS402uco.jpg", "release_date": "1947-06-03", "title": "Along Came Daffy", "video": false, "vote_average": 6.3, "vote_count": 7, "popularity": 2.818}, {"adult": false, "backdrop_path": null, "genre_ids": [27], "id": 27519, "original_language": "de", "original_title": "Der Student von Prag", "overview": "For Balduin, going out to beer parties with his fellow students and fighting out disputes at the tip of the sword have lost their charms. He wants to find love; but how would he, a penniless student, ever dare looking up to any woman worth of loving? Absorbed in his dreary thoughts and indifferent to the advances of Lyduschka, Balduin is unexpectedly offered a fortune by the mysterious money-lender Scapinelli - but on a strange condition...", "poster_path": "/v7YgL0iC2MU5wm0wdAimtQkAvtL.jpg", "release_date": "1926-10-25", "title": "The Student of Prague", "video": false, "vote_average": 5.8, "vote_count": 4, "popularity": 0.619}, {"adult": false, "backdrop_path": "/yl0SNrXFDOxzfNMQPXcQzwfx8Zs.jpg", "genre_ids": [], "id": 140694, "original_language": "en", "original_title": "Night of the Living Bread", "overview": "An explosion at a bakery causes bread to come to murderous life and attack people. A handful of desperate folks seek refuge in a secluded farmhouse. Will any of them survive the night of the living bread? Independent short spoof on the classic \"Night of the Living Dead\".", "poster_path": "/jLtqaeYEwS9TiDfXSeodmjW5R5r.jpg", "release_date": "1990-01-01", "title": "Night of the Living Bread", "video": false, "vote_average": 6.8, "vote_count": 5, "popularity": 2.44}], "total_pages": 1, "total_results": 3}, "credits": {"cast": [], "crew": [{"credit_id": "52fe4c8e9251416c7511e20d", "department": "Directing", "gender": 1, "id": 1166002, "job": "Director", "name": "Kirsten Lepore", "profile_path": "/mdR7U49NVQRPlng9U89ns50v8zo.jpg"}]}}