{"adult": false, "backdrop_path": "/1i7Nv0ne60fv4cqzumxQMxSuLBN.jpg", "belongs_to_collection": null, "budget": 0, "genres": [{"id": 18, "name": "Drama"}], "homepage": "http://fune-amu.com/", "id": 182827, "imdb_id": "tt2315226", "original_language": "ja", "original_title": "\u821f\u3092\u7de8\u3080", "overview": "Majime, an eccentric man in publishing company, who has unique ability of words, joins the team that will compile a new dictionary, \u2018The Great Passage.\u2019 In the eclectic team, he becomes immersed in the world of dictionaries. But the team is overwhelmed with problems. Will \u2018The Great Passage\u2019 ever be completed?", "popularity": 3.196, "poster_path": "/mCwC6r3HlWCSQRHz2eSq0qJgl0G.jpg", "production_companies": [{"id": 14145, "logo_path": null, "name": "Little More Co.", "origin_country": ""}], "production_countries": [{"iso_3166_1": "JP", "name": "Japan"}], "release_date": "2013-04-13", "revenue": 0, "runtime": 133, "spoken_languages": [{"iso_639_1": "ja", "name": "\u65e5\u672c\u8a9e"}], "status": "Released", "tagline": "", "title": "The Great Passage", "video": false, "vote_average": 6.7, "vote_count": 19, "keywords": {"keywords": [{"id": 6040, "name": "group"}, {"id": 10564, "name": "japanese culture"}]}, "similar": {"page": 1, "results": [{"adult": false, "backdrop_path": "/d23XXntJrVwNENvdriJdqlW1ae6.jpg", "genre_ids": [18, 36, 10752], "id": 826, "original_language": "en", "original_title": "The Bridge on the River Kwai", "overview": "The classic story of English POWs in Burma forced to build a bridge to aid the war effort of their Japanese captors. British and American intelligence officers conspire to blow up the structure, but Col. Nicholson , the commander who supervised the bridge's construction, has acquired a sense of pride in his creation and tries to foil their plans.", "poster_path": "/vtPR6tSHeu35rF6qTDw3Yjr9eDg.jpg", "release_date": "1957-10-02", "title": "The Bridge on the River Kwai", "video": false, "vote_average": 7.9, "vote_count": 1042, "popularity": 19.597}, {"adult": false, "backdrop_path": "/anDdOJw25lqoXfyNQ0v9gHyPn3Q.jpg", "genre_ids": [16, 53], "id": 10494, "original_language": "ja", "original_title": "\u30d1\u30fc\u30d5\u30a7\u30af\u30c8\u30d6\u30eb\u30fc", "overview": "A retired pop singer turned actress' sense of reality is shaken when she is stalked by an obsessed fan and seemingly a ghost of her past.", "poster_path": "/sxBzVuwqIABKIbdij7lOrRvDb15.jpg", "release_date": "1997-07-25", "title": "Perfect Blue", "video": false, "vote_average": 8.2, "vote_count": 815, "popularity": 18.266}, {"id": 389, "video": false, "vote_count": 4265, "vote_average": 8.4, "title": "12 Angry Men", "release_date": "1957-03-25", "original_language": "en", "original_title": "12 Angry Men", "genre_ids": [18], "backdrop_path": "/lH2Ga8OzjU1XlxJ73shOlPx6cRw.jpg", "adult": false, "overview": "The defense and the prosecution have rested and the jury is filing into the jury room to decide if a young Spanish-American is guilty or innocent of murdering his father. What begins as an open and shut case soon becomes a mini-drama of each of the jurors' prejudices and preconceptions about the trial, the accused, and each other.", "poster_path": "/3W0v956XxSG5xgm7LB6qu8ExYJ2.jpg", "popularity": 22.984}, {"id": 11422, "video": false, "vote_count": 132, "vote_average": 6.5, "title": "Midway", "release_date": "1976-06-18", "original_language": "en", "original_title": "Midway", "genre_ids": [28, 18, 36, 10752], "backdrop_path": "/6jeTEV03QLsjkEomKM6XhjoVJch.jpg", "adult": false, "overview": "This war drama depicts the U.S. and Japanese forces in the naval Battle of Midway, which became a turning point for Americans during World War II.", "poster_path": "/dCUVG2po7DsBvnxfe7WGcJsUn9T.jpg", "popularity": 19.326}, {"id": 346, "video": false, "vote_count": 1683, "vote_average": 8.4, "title": "Seven Samurai", "release_date": "1954-04-26", "original_language": "ja", "original_title": "\u4e03\u4eba\u306e\u4f8d", "genre_ids": [28, 18], "backdrop_path": "/61vLiK96sbXeHpQiMxI4CuqBA3z.jpg", "adult": false, "overview": "A samurai answers a village's request for protection after he falls on hard times. The town needs protection from bandits, so the samurai gathers six others to help him teach the people how to defend themselves, and the villagers provide the soldiers with food. A giant battle occurs when 40 bandits attack the village.", "poster_path": "/v6xrz4fr92KY1oNC3HsEvrsvR1n.jpg", "popularity": 25.105}, {"id": 227306, "video": false, "vote_count": 2437, "vote_average": 7.4, "title": "Unbroken", "release_date": "2014-12-25", "original_language": "en", "original_title": "Unbroken", "genre_ids": [18, 10752], "backdrop_path": "/eSbKT3v3RKFRGeOmxJbZhIvrevR.jpg", "adult": false, "overview": "A chronicle of the life of Louis Zamperini, an Olympic runner who was taken prisoner by Japanese forces during World War II.", "poster_path": "/1un8i8UtCjSCnY3OfdxtB5kDRvF.jpg", "popularity": 18.912}, {"id": 4977, "video": false, "vote_count": 997, "vote_average": 7.8, "title": "Paprika", "release_date": "2006-10-01", "original_language": "ja", "original_title": "\u30d1\u30d7\u30ea\u30ab", "genre_ids": [16, 18, 9648, 878, 53], "backdrop_path": "/jViKJYWcILHeN0KH1Wub0Go59TZ.jpg", "adult": false, "overview": "When a machine that allows therapists to enter their patient's dreams is stolen, all hell breaks loose. Only a young female therapist can stop it: Paprika.", "poster_path": "/bLUUr474Go1DfeN1HLjE3rnZXBq.jpg", "popularity": 16.88}, {"adult": false, "backdrop_path": "/7geWAyhcmjcMQWcZA5lrS7Le8cG.jpg", "genre_ids": [18, 53], "id": 11878, "original_language": "ja", "original_title": "\u7528\u5fc3\u68d2", "overview": "A nameless ronin, or samurai with no master, enters a small village in feudal Japan where two rival businessmen are struggling for control of the local gambling trade. Taking the name Sanjuro Kuwabatake, the ronin convinces both silk merchant Tazaemon and sake merchant Tokuemon to hire him as a personal bodyguard, then artfully sets in motion a full-scale gang war between the two ambitious and unscrupulous men.", "poster_path": "/tN7kYPjRhDolpui9sc9Eq9n5b2O.jpg", "release_date": "1961-04-25", "title": "Yojimbo", "video": false, "vote_average": 8.2, "vote_count": 646, "popularity": 11.25}, {"id": 153, "video": false, "vote_count": 3919, "vote_average": 7.4, "title": "Lost in Translation", "release_date": "2003-08-31", "original_language": "en", "original_title": "Lost in Translation", "genre_ids": [35, 18, 10749], "backdrop_path": "/iJP2ogeM5YpZyUOkmCiZ5UXWyBf.jpg", "adult": false, "overview": "Two lost souls visiting Tokyo -- the young, neglected wife of a photographer and a washed-up movie star shooting a TV commercial -- find an odd solace and pensive freedom to be real in each other's company, away from their lives in America.", "poster_path": "/wkSzJs7oMf8MIr9CQVICsvRfwA7.jpg", "popularity": 19.913}, {"id": 324786, "video": false, "vote_count": 7334, "vote_average": 8.1, "title": "Hacksaw Ridge", "release_date": "2016-10-07", "original_language": "en", "original_title": "Hacksaw Ridge", "genre_ids": [18, 36, 10752], "backdrop_path": "/zBK4QZONMQXhcgaJv1YYTdCW7q9.jpg", "adult": false, "overview": "WWII American Army Medic Desmond T. Doss, who served during the Battle of Okinawa, refuses to kill people and becomes the first Conscientious Objector in American history to receive the Congressional Medal of Honor.", "poster_path": "/bndiUFfJxNd2fYx8XO610L9a07m.jpg", "popularity": 26.345}, {"id": 548, "video": false, "vote_count": 990, "vote_average": 8.2, "title": "Rashomon", "release_date": "1950-08-25", "original_language": "ja", "original_title": "\u7f85\u751f\u9580", "genre_ids": [80, 18, 9648], "backdrop_path": "/eGWc9KHURMRghR1bEj25hZNztNX.jpg", "adult": false, "overview": "Brimming with action while incisively examining the nature of truth, \"Rashomon\" is perhaps the finest film ever to investigate the philosophy of justice. Through an ingenious use of camera and flashbacks, Kurosawa reveals the complexities of human nature as four people recount different versions of the story of a man's murder and the rape of his wife.", "poster_path": "/mwWJuktWk8z5OY4og0z48Jg4u3n.jpg", "popularity": 14.25}, {"id": 372058, "video": false, "vote_count": 4877, "vote_average": 8.5, "title": "Your Name.", "release_date": "2016-08-26", "original_language": "ja", "original_title": "\u541b\u306e\u540d\u306f\u3002", "genre_ids": [16, 18, 10749], "backdrop_path": "/7OMAfDJikBxItZBIug0NJig5DHD.jpg", "adult": false, "overview": "High schoolers Mitsuha and Taki are complete strangers living separate lives. But one night, they suddenly switch places. Mitsuha wakes up in Taki\u2019s body, and he in hers. This bizarre occurrence continues to happen randomly, and the two must adjust their lives around each other.", "poster_path": "/xq1Ugd62d23K2knRUx6xxuALTZB.jpg", "popularity": 40.041}, {"id": 14537, "video": false, "vote_count": 304, "vote_average": 8.3, "title": "Harakiri", "release_date": "1962-09-15", "original_language": "ja", "original_title": "\u5207\u8179", "genre_ids": [28, 18, 36], "backdrop_path": "/pz9fxHyGiiNLZ21bccAtwrMAH7f.jpg", "adult": false, "overview": "Aging samurai Hanshiro Tsugumo arrives at the home of Kageyu Saito and asks to commit a ritual suicide on the property, which Saito thinks is a ploy to gain pity and a job. Saito tells Tsugumo of another samurai, Motome Chijiiwa, who threatened suicide as a stratagem, only to be forced to follow through on the task. When Tsugumo reveals that Chijiiwa was his son-in-law, the disclosure sets off a fierce conflict.", "poster_path": "/k2SE5P8expiI4Pt9qzIX0xJn94E.jpg", "popularity": 15.525}, {"id": 28178, "video": false, "vote_count": 3995, "vote_average": 8.0, "title": "Hachi: A Dog's Tale", "release_date": "2009-06-13", "original_language": "en", "original_title": "Hachi: A Dog's Tale", "genre_ids": [18, 10751], "backdrop_path": "/m87xptCZD6J15HcioOOX4kfEdeD.jpg", "adult": false, "overview": "A drama based on the true story of a college professor's bond with the abandoned dog he takes into his home.", "poster_path": "/3MpVmIg6CgOCUrZ2TZ2P0yitCbM.jpg", "popularity": 27.836}, {"id": 390634, "video": false, "vote_count": 75, "vote_average": 5.7, "title": "Fate/Stay Night: Heaven's Feel II. Lost Butterfly", "release_date": "2019-01-12", "original_language": "ja", "original_title": "\u5287\u5834\u7248 Fate\uff0fstay night [Heaven's Feel] II. lost butterfly", "genre_ids": [28, 16, 18, 14], "backdrop_path": "/8WlEeHKf0BIydR1kWnOVHSSWugi.jpg", "adult": false, "overview": "Theatrical-release adaptation of the visual novel \"Fate/stay night\", following the third and final route. (Part 2 of a trilogy.)", "poster_path": "/4tS0iyKQBDFqVpVcH21MSJwXZdq.jpg", "popularity": 23.985}, {"id": 64686, "video": false, "vote_count": 2273, "vote_average": 6.0, "title": "47 Ronin", "release_date": "2013-12-06", "original_language": "en", "original_title": "47 Ronin", "genre_ids": [28, 12, 18, 14], "backdrop_path": "/slQkkaBHH1K915HtuN89iu0xqOv.jpg", "adult": false, "overview": "Kai\u2014an outcast\u2014joins Oishi, the leader of 47 outcast samurai.  Together they seek vengeance upon the treacherous overlord who killed their master and banished their kind.  To restore honour to their homeland, the warriors embark upon a quest that challenges them with a series of trials that would destroy ordinary warriors.", "poster_path": "/pUH46wa0n4zXZytpriSaoNUXai4.jpg", "popularity": 15.342}, {"adult": false, "backdrop_path": "/cMrvn4Hl0A0NAL61BpDWQIsMsiN.jpg", "genre_ids": [16], "id": 149870, "original_language": "ja", "original_title": "\u98a8\u7acb\u3061\u306c", "overview": "A lifelong love of flight inspires Japanese aviation engineer Jiro Horikoshi, whose storied career includes the creation of the A-6M World War II fighter plane.", "poster_path": "/3OTcCyf7QbGdVxsS8GLtaSsTZtP.jpg", "release_date": "2013-07-20", "title": "The Wind Rises", "video": false, "vote_average": 7.8, "vote_count": 1427, "popularity": 23.476}, {"id": 399174, "video": false, "vote_count": 2440, "vote_average": 7.9, "title": "Isle of Dogs", "release_date": "2018-03-23", "original_language": "en", "original_title": "Isle of Dogs", "genre_ids": [12, 16, 35], "backdrop_path": "/5YtXsLG9ncjjFyGZjoeV31CGf01.jpg", "adult": false, "overview": "In the future, an outbreak of canine flu leads the mayor of a Japanese city to banish all dogs to an island that's a garbage dump. The outcasts must soon embark on an epic journey when a 12-year-old boy arrives on the island to find his beloved pet.", "poster_path": "/c0nUX6Q1ZB0P2t1Jo6EeFSVnOGQ.jpg", "popularity": 16.915}, {"id": 8392, "video": false, "vote_count": 3716, "vote_average": 8.1, "title": "My Neighbor Totoro", "release_date": "1988-04-16", "original_language": "ja", "original_title": "\u3068\u306a\u308a\u306e\u30c8\u30c8\u30ed", "genre_ids": [16, 14, 10751], "backdrop_path": "/hoIqf9YjZM0oQOrFXp8DcucJ3Jg.jpg", "adult": false, "overview": "Two sisters move to the country with their father in order to be closer to their hospitalized mother, and discover the surrounding trees are inhabited by Totoros, magical spirits of the forest. When the youngest runs away from home, the older sister seeks help from the spirits to find her.", "poster_path": "/rtGDOeG9LzoerkDGZF9dnVeLppL.jpg", "popularity": 47.36}, {"adult": false, "backdrop_path": "/7pMlmyqitl0nqpEGOL3v8dEbu2K.jpg", "genre_ids": [28, 53, 27], "id": 341006, "original_language": "en", "original_title": "The Belko Experiment", "overview": "A group of eighty American workers are locked in their office and ordered by an unknown voice to participate in a twisted game.", "poster_path": "/faJK0dP3S92kQoKtO4LZMjy41kf.jpg", "release_date": "2016-03-17", "title": "The Belko Experiment", "video": false, "vote_average": 6.1, "vote_count": 852, "popularity": 11.208}], "total_pages": 41, "total_results": 802}, "recommendations": {"page": 1, "results": [{"adult": false, "backdrop_path": null, "genre_ids": [18], "id": 83944, "original_language": "ja", "original_title": "\u6d77\u70ad\u5e02\u53d9\u666f", "overview": "The bittersweet events in the lives of people in Hakodate, a regional city connected by a streetcar network. A laid-off man and his younger sister go up a mountain to see the first sunrise of the year. Meanwhile, Haruo  has inherited his family's gas business, but things aren't going well in his new endeavor and he becomes increasingly frustrated.", "poster_path": "/uX4Vs5hw4oquQ8H0VaGeFgzvatP.jpg", "release_date": "2010-12-18", "title": "Sketches of Kaitan City", "video": false, "vote_average": 5.3, "vote_count": 3, "popularity": 2.08}, {"adult": false, "backdrop_path": "/oPNiZI2ENiGKHhfkwnwoI8VR0qA.jpg", "genre_ids": [18], "id": 213587, "original_language": "ja", "original_title": "\u65c5\u7acb\u3061\u306e\u5cf6\u5504\u3000\u5341\u4e94\u306e\u6625", "overview": "Yuna lives on a remote Ryukyu island in Japan dividing her time between studies and tending the home for her father, a stoic sugar cane farmer. For reasons unknown to Yuna, her father has been ostracized by the rest of his family. Like generations before her, Yuna will move to the big island of Okinawa to finish her education, but before she leaves she must lead her traditional music circle in a farewell concert. In her stirring portrayal of Yuna, accomplished pop and television star, Miyoshi Ayaka sings and plays the sanmisen, a traditional Japanese stringed instrument. Director Yoshida has worked closely with the locals of Minamodaito to craft a sensitive and poignant impression of a young girl on the cusp of adulthood, torn between the alternately attractive and conflicting natures of tradition and progress.", "poster_path": "/n9IN08of2ySLTqKef4SQwXbHNW1.jpg", "release_date": "2013-04-25", "title": "Leaving on the 15th Spring", "video": false, "vote_average": 6.3, "vote_count": 3, "popularity": 2.455}, {"adult": false, "backdrop_path": "/7XmHQ6QhL0v48c6hu5LEiEi1cou.jpg", "genre_ids": [18], "id": 391804, "original_language": "ja", "original_title": "\u6c38\u3044\u8a00\u3044\u8a33", "overview": "A recently widowed writer whose wife died in a bus crash comes to terms with his grief\u2014or lack of it\u2014in caring for the children of a working man who also lost his wife in the same accident.", "poster_path": "/yxCsNKSi08lf62gxvTiQaDy0yWa.jpg", "release_date": "2016-10-14", "title": "The Long Excuse", "video": false, "vote_average": 6.8, "vote_count": 16, "popularity": 3.181}, {"adult": false, "backdrop_path": "/hIdLcnqPYkjX5JJMIJb9pRnOzN7.jpg", "genre_ids": [18], "id": 273311, "original_language": "ja", "original_title": "\u9577\u3044\u6563\u6b69", "overview": "A lonely retired girl's High School Principal who's lost his wife to alcoholism moves to an old apartment in a country town. There he forms a relationship with a neglected little neighborhood girl.", "poster_path": "/jL09F0c39glfOqWqzaYyX1MsuSG.jpg", "release_date": "2006-04-01", "title": "A Long Walk", "video": false, "vote_average": 7.8, "vote_count": 5, "popularity": 1.856}, {"adult": false, "backdrop_path": "/ekPitJKBR0Din1QIjUIWEBsv3AE.jpg", "genre_ids": [18], "id": 421483, "original_language": "zh", "original_title": "\u516b\u6708", "overview": "In the early 1990s, Xiaolei, who lives in a small village in western China, longs for a summer holiday without homework after he graduated from primary school. However, it is filled with boring routine, and Xiaolei feels the anxiety around him. When his father has left, Xiaolei realises that his life is completely changed.", "poster_path": "/eP7lrS5l9kN5ypSWuyoJxOqd6cc.jpg", "release_date": "2016-07-23", "title": "The Summer Is Gone", "video": false, "vote_average": 7.3, "vote_count": 3, "popularity": 1.223}, {"adult": false, "backdrop_path": null, "genre_ids": [99], "id": 122110, "original_language": "en", "original_title": "Broken Noses", "overview": "Photographer Bruce Weber profiles boxer Andy Minsker, including his pro career and family relations, and the boys' boxing club Minsker runs.", "poster_path": "/qHSD2WWsY8ECXxPPxM3q7LvCaPx.jpg", "release_date": "1987-11-04", "title": "Broken Noses", "video": false, "vote_average": 6.3, "vote_count": 3, "popularity": 1.248}, {"adult": false, "backdrop_path": "/i9Z5NhwGnTssTwmJKWise44YU1i.jpg", "genre_ids": [18, 80, 53], "id": 380762, "original_language": "cn", "original_title": "\u6a39\u5927\u62db\u98a8", "overview": "The film is set in Hong Kong before its handover to China in 1997, when the city\u2019s booming economy inadvertently attracts three infamous criminals from Mainland China to cross the border and make their fortune in Hong Kong. Although unknown to one another, their notoriety has bred the rumor that the triumvirate will join forces to stage a shocking heist together, so much so that the criminals themselves get wind of it and are tempted to do just that.", "poster_path": "/jhsLDrUx1Oc22daT5GBnhsD53CJ.jpg", "release_date": "2016-04-07", "title": "Trivisa", "video": false, "vote_average": 7.4, "vote_count": 24, "popularity": 4.539}, {"adult": false, "backdrop_path": "/tp3IAxZwjddd7EBKTcUtCcf6KFu.jpg", "genre_ids": [18], "id": 223476, "original_language": "ja", "original_title": "\u5171\u55b0\u3044", "overview": "Based on a novel by Shinya Tanaka, this film is set in a quiet riverside town, where 17-year-old Tooma lives with his father and his father\u2019s lover. Tooma witnesses his father\u2019s sadistic behavior towards his lover and soon finds himself following in his father\u2019s footsteps.", "poster_path": "/kXaWaupg8dwrB1OKxXLvB6zsAzI.jpg", "release_date": "2013-09-07", "title": "Backwater", "video": false, "vote_average": 6.0, "vote_count": 9, "popularity": 2.386}, {"adult": false, "backdrop_path": "/4dIRzVFlfHLwIZpmBtB6fJyPx8A.jpg", "genre_ids": [18], "id": 88797, "original_language": "ja", "original_title": "\u30c7\u30a3\u30a2\u30fb\u30c9\u30af\u30bf\u30fc", "overview": "Charming little story about a local town's doctor - but he is hiding a secret.  He will have to come face to face with this truth, despite being great at his job... he will be forced to explain his actions and take responsibility.", "poster_path": "/yvgcC4mCowpZEg2YnmzsMc7sW1q.jpg", "release_date": "2009-07-27", "title": "Dear Doctor", "video": false, "vote_average": 5.8, "vote_count": 8, "popularity": 1.506}, {"id": 274817, "video": false, "vote_count": 27, "vote_average": 7.3, "title": "Wood Job!", "release_date": "2014-05-10", "original_language": "ja", "original_title": "WOOD JOB! \u795e\u53bb\u306a\u3042\u306a\u3042\u65e5\u5e38", "genre_ids": [35, 18], "backdrop_path": "/bFU4i2qUEIHoQdaSRiBtUN8OzZR.jpg", "adult": false, "overview": "A bittersweet coming-of-age film based on a novel dealing with forestry. Yuki Hirano wants to live an easy life, like working a part-time job after his high school graduation. But, after his high school graduation, Yuki hears from his homeroom teacher that he has been hired for a job. When Yuki gets home, his mother is packing his stuff. Yuki's mother and his homeroom teacher decided that Yuki will work as a forestry trainee after his graduation. Yuki will have to go Kamusari Village. Since then, Yuki begins to work as a forestry trainee and becomes assimilated with the beauty of nature and the warm-hearted people in the village.", "poster_path": "/gvo0367R3pWJJrwGDRMMOCZnSwY.jpg", "popularity": 5.162}, {"adult": false, "backdrop_path": "/sr2B7jbSbcHKTY7AdDCkQbchcFE.jpg", "genre_ids": [18], "id": 255948, "original_language": "ja", "original_title": "\u4e03\u591c\u5f85", "overview": "A young woman leaves her job and lover in Japan to start a new life in Thailand.", "poster_path": "/uZQyFlUHUsVtAHabxwliliPifTU.jpg", "release_date": "2008-11-01", "title": "Nanayo", "video": false, "vote_average": 7.4, "vote_count": 12, "popularity": 1.938}, {"adult": false, "backdrop_path": "/yZ3wE9SbPkobmhxeHVml1RNOV6Y.jpg", "genre_ids": [18, 10749], "id": 96811, "original_language": "ja", "original_title": "\u6731\u82b1\u306e\u6708", "overview": "Based on a Japanese novel written by Masako Bando, the story revolves around Kayoko who lives with one man (Tetsuya) but is in love with another (Takumi).", "poster_path": "/yHp8vWOkzfZLCd9faDP5WUn8cd6.jpg", "release_date": "2012-02-01", "title": "Hanezu", "video": false, "vote_average": 6.2, "vote_count": 10, "popularity": 1.536}, {"adult": false, "backdrop_path": "/leSnxCgAhgbaN4Ii0gpB3qtjOEH.jpg", "genre_ids": [35, 18], "id": 81558, "original_language": "ja", "original_title": "\u4eba\u306e\u30bb\u30c3\u30af\u30b9\u3092\u7b11\u3046\u306a", "overview": "Mirume (Ken'ichi Matsuyama) is a 19 year old college student who falls in love with Yuri (Hiromi Nagasaku), an almost 40 year old art teacher at his university. Yuri isn't your typical college professor, having a quirky sense of humor and unpredictable personality. When Yuri invites Murume to her studio, she playfully seduces the still naive 19 year old student. Things become more complicated when Mirume discovers that Yuri is married to a much older man ....", "poster_path": "/8WeYuIeRLvsXfWq44xwIXV5FtsD.jpg", "release_date": "2008-01-19", "title": "Sex is No Laughing Matter", "video": false, "vote_average": 6.8, "vote_count": 13, "popularity": 5.114}], "total_pages": 1, "total_results": 13}, "credits": {"cast": [{"cast_id": 2, "character": "Mitsuya Majime", "credit_id": "52fe4c8c9251416c7511df31", "gender": 2, "id": 72932, "name": "Ryuhei Matsuda", "order": 0, "profile_path": "/h5LaFzOmcIufsD0i0nv12AG00Mo.jpg"}, {"cast_id": 3, "character": "Kaguya Hayashi", "credit_id": "52fe4c8c9251416c7511df35", "gender": 1, "id": 104522, "name": "Aoi Miyazaki", "order": 1, "profile_path": "/dHMFf5dLfOSUiCrz6A2vsqHYw3C.jpg"}, {"cast_id": 4, "character": "Masashi Nishioka", "credit_id": "52fe4c8c9251416c7511df39", "gender": 2, "id": 63694, "name": "Joe Odagiri", "order": 2, "profile_path": "/dR7bz6PqdKiRVSbFPrhNavmr6kL.jpg"}, {"cast_id": 5, "character": "Midori Kishibe", "credit_id": "52fe4c8c9251416c7511df3d", "gender": 1, "id": 1054260, "name": "Haru Kuroki", "order": 3, "profile_path": "/rTxASkiwbxohT0UVHORLmECo53Y.jpg"}, {"cast_id": 6, "character": "Take", "credit_id": "52fe4c8c9251416c7511df41", "gender": 1, "id": 111235, "name": "Misako Watanabe", "order": 4, "profile_path": "/3jLsF5Qs5FYyweHxhEqkWwR6aiQ.jpg"}, {"cast_id": 7, "character": "Remi Miyoshi", "credit_id": "52fe4c8c9251416c7511df45", "gender": 1, "id": 118651, "name": "Chizuru Ikewaki", "order": 5, "profile_path": "/sCy1c56n87eOgoBCO2GrLh33YSk.jpg"}, {"cast_id": 8, "character": "Murakoshi", "credit_id": "52fe4c8c9251416c7511df49", "gender": 2, "id": 58665, "name": "Shingo Tsurumi", "order": 6, "profile_path": "/564J9omYeVURMOWnxR6iv3WQ5dR.jpg"}, {"cast_id": 9, "character": "Kaoru Sasaki", "credit_id": "52fe4c8d9251416c7511df4d", "gender": 1, "id": 229408, "name": "Hiroko Isayama", "order": 7, "profile_path": "/xczJ3sNGKTbOmOtmV5tCX1T8JnY.jpg"}, {"cast_id": 10, "character": "Chie Matsumoto", "credit_id": "52fe4c8d9251416c7511df51", "gender": 1, "id": 108020, "name": "Kaoru Yachigusa", "order": 8, "profile_path": "/y4fX9lRUFm5Dv7gKCmCb4XYfNmz.jpg"}, {"cast_id": 11, "character": "Kohei Araki", "credit_id": "52fe4c8d9251416c7511df55", "gender": 2, "id": 20332, "name": "Kaoru Kobayashi", "order": 9, "profile_path": "/3gNFgTysl94iMcEH8dfOut1yE8u.jpg"}, {"cast_id": 12, "character": "Tomohiro Matsumoto", "credit_id": "52fe4c8d9251416c7511df59", "gender": 2, "id": 24548, "name": "G\u00f4 Kat\u00f4", "order": 10, "profile_path": "/wDbLvnl2QM8YvLovV6DBYfcr63N.jpg"}, {"cast_id": 13, "character": "Editor", "credit_id": "52fe4c8d9251416c7511df5d", "gender": 0, "id": 226738, "name": "Kazuki Namioka", "order": 11, "profile_path": "/gncP6GrWoM94a6kfrXcb3gWcnsa.jpg"}, {"cast_id": 14, "character": "Actress", "credit_id": "52fe4c8d9251416c7511df61", "gender": 1, "id": 27788, "name": "Kumiko Aso", "order": 12, "profile_path": "/zOOq4vvaXNVUqoHJiqnT1sjrUG8.jpg"}, {"cast_id": 32, "character": "Shinichiro Miyamoto", "credit_id": "5bd09c690e0a26329d000272", "gender": 2, "id": 1398752, "name": "Sh\u00f4hei Uno", "order": 13, "profile_path": "/1ahyZ0i9TzjXAFfUW95ehAqtwBM.jpg"}, {"cast_id": 33, "character": "Egawa", "credit_id": "5bd09c920e0a2632a200053f", "gender": 2, "id": 509437, "name": "Ryu Morioka", "order": 14, "profile_path": "/7RFWZA3iSQs1ih9yS4zbR74VQzk.jpg"}, {"cast_id": 34, "character": "Togawa", "credit_id": "5bd09c9fc3a36866c50003b9", "gender": 0, "id": 1507843, "name": "Naoki Matayoshi", "order": 15, "profile_path": null}, {"cast_id": 35, "character": "Kobayashi", "credit_id": "5bd09cabc3a36866c100035b", "gender": 0, "id": 1564458, "name": "Yoshiki Saito", "order": 16, "profile_path": null}], "crew": [{"credit_id": "52fe4c8d9251416c7511df8b", "department": "Editing", "gender": 0, "id": 73192, "job": "Editor", "name": "Shinichi Fushima", "profile_path": null}, {"credit_id": "5bd09bf692514136d400022c", "department": "Lighting", "gender": 0, "id": 115646, "job": "Gaffer", "name": "Tatsuya Osada", "profile_path": null}, {"credit_id": "5bd09b3492514136d800015d", "department": "Production", "gender": 0, "id": 128701, "job": "Executive Producer", "name": "Miyoshi Kikuchi", "profile_path": null}, {"credit_id": "52fe4c8d9251416c7511df6d", "department": "Writing", "gender": 2, "id": 238727, "job": "Screenplay", "name": "Kensaku Watanabe", "profile_path": null}, {"credit_id": "5c61bd769251412fb4fb3160", "department": "Camera", "gender": 2, "id": 238811, "job": "Director of Photography", "name": "Junichi Fujisawa", "profile_path": null}, {"credit_id": "52fe4c8c9251416c7511df2d", "department": "Directing", "gender": 2, "id": 509442, "job": "Director", "name": "Yuya Ishii", "profile_path": "/iJD7bgbfk3HNKxUoRJJVUNQGeLb.jpg"}, {"credit_id": "5bd09c0792514136cd0002b2", "department": "Costume & Make-Up", "gender": 0, "id": 553067, "job": "Costumer", "name": "Masae Miyamoto", "profile_path": null}, {"credit_id": "5bd09b970e0a2632a20003c2", "department": "Art", "gender": 0, "id": 1044527, "job": "Art Direction", "name": "Mitsuo Harada", "profile_path": null}, {"credit_id": "52fe4c8d9251416c7511df67", "department": "Writing", "gender": 0, "id": 1275585, "job": "Novel", "name": "Shiwon Miura", "profile_path": null}, {"credit_id": "52fe4c8d9251416c7511df73", "department": "Production", "gender": 0, "id": 1275586, "job": "Producer", "name": "Kimitaka Goka", "profile_path": null}, {"credit_id": "52fe4c8d9251416c7511df79", "department": "Production", "gender": 0, "id": 1275587, "job": "Producer", "name": "Yasuyuki Iwanami", "profile_path": null}, {"credit_id": "5bd09b240e0a26328f0000f0", "department": "Production", "gender": 0, "id": 1367187, "job": "Producer", "name": "Fumitsugu Ikeda", "profile_path": null}, {"credit_id": "57fdba7dc3a3681f7d003403", "department": "Sound", "gender": 2, "id": 1553701, "job": "Music", "name": "Takashi Watanabe", "profile_path": null}, {"credit_id": "5bd09bc492514136c80001d2", "department": "Costume & Make-Up", "gender": 0, "id": 1776967, "job": "Makeup & Hair", "name": "Ky\u00f4ko Toyokawa", "profile_path": null}, {"credit_id": "5c7e58fcc3a3684e98d16936", "department": "Sound", "gender": 0, "id": 1778550, "job": "Sound Recordist", "name": "Hirokazu Kato", "profile_path": null}, {"credit_id": "5bd09bdbc3a36866c100022c", "department": "Crew", "gender": 0, "id": 2159236, "job": "Post-Production Manager", "name": "Kenny Kusaka", "profile_path": null}, {"credit_id": "5bd09b430e0a2632a2000354", "department": "Production", "gender": 0, "id": 2159294, "job": "Executive Producer", "name": "Kaho Song", "profile_path": null}, {"credit_id": "5bd09b72c3a36866b1000316", "department": "Production", "gender": 0, "id": 2159295, "job": "Producer", "name": "Tomo Tsuchii", "profile_path": null}, {"credit_id": "5c7e4ac5c3a3684e8cd15e79", "department": "Production", "gender": 0, "id": 2257832, "job": "Producer", "name": "Tomoo Tsuchii", "profile_path": null}]}}