{"adult": false, "backdrop_path": "/eLRlbdMvhYMVixA8cF8TjgFQE6B.jpg", "belongs_to_collection": null, "budget": 0, "genres": [{"id": 18, "name": "Drama"}, {"id": 35, "name": "Comedy"}], "homepage": null, "id": 183218, "imdb_id": "tt0056435", "original_language": "en", "original_title": "Safe at Home!", "overview": "A Florida boy (Bryan Russell) tells his Little League buddies that his father knows two New York Yankees (Mickey Mantle, Roger Maris).", "popularity": 2.633, "poster_path": "/2OV51vkvuwRDmEMglcvJj1f2zws.jpg", "production_companies": [{"id": 5, "logo_path": "/71BqEFAF4V3qjjMPCpLuyJFB9A.png", "name": "Columbia Pictures", "origin_country": "US"}], "production_countries": [{"iso_3166_1": "US", "name": "United States of America"}], "release_date": "1962-04-13", "revenue": 0, "runtime": 84, "spoken_languages": [], "status": "Released", "tagline": "A GRAND SLAM! Fun And Laughter With The Greatest Guys In Baseball... and the luckiest kid in the world!", "title": "Safe at Home!", "video": false, "vote_average": 4.5, "vote_count": 2, "keywords": {"keywords": [{"id": 1480, "name": "baseball"}, {"id": 6075, "name": "sport"}]}, "similar": {"page": 1, "results": [{"id": 245913, "video": false, "vote_count": 511, "vote_average": 7.3, "title": "Pel\u00e9: Birth of a Legend", "release_date": "2016-05-06", "original_language": "en", "original_title": "Pel\u00e9: Birth of a Legend", "genre_ids": [18, 36], "backdrop_path": "/mmKn7ECMiCUGFhIhoX2t9SYrTQn.jpg", "adult": false, "overview": "The life story of Brazilian football legend, Pele.", "poster_path": "/7AQFHlPohPiAYKTd1C35Q61z0eD.jpg", "popularity": 15.163}, {"adult": false, "backdrop_path": "/qVjKZMB0IdOc2JlwiiGsuKTvTJs.jpg", "genre_ids": [18], "id": 22881, "original_language": "en", "original_title": "The Blind Side", "overview": "The story of Michael Oher, a homeless and traumatized boy who became an All American football player and first round NFL draft pick with the help of a caring woman and her family", "poster_path": "/wEGFSgPebLk6g1ngKsJ6a46PYLV.jpg", "release_date": "2009-11-20", "title": "The Blind Side", "video": false, "vote_average": 7.5, "vote_count": 3212, "popularity": 42.202}, {"adult": false, "backdrop_path": "/jK3EAFk3GdOaQfUDCOiTujzMpwH.jpg", "genre_ids": [18], "id": 389015, "original_language": "en", "original_title": "I, Tonya", "overview": "Competitive ice skater Tonya Harding rises amongst the ranks at the U. S. Figure Skating Championships, but her future in the sport is thrown into doubt when her ex-husband intervenes.", "poster_path": "/6gNXwSHxaksR1PjVZRqNapmkgj3.jpg", "release_date": "2017-12-08", "title": "I, Tonya", "video": false, "vote_average": 7.5, "vote_count": 3327, "popularity": 19.513}, {"id": 8923, "video": false, "vote_count": 1359, "vote_average": 7.2, "title": "Green Street Hooligans", "release_date": "2005-09-09", "original_language": "en", "original_title": "Green Street Hooligans", "genre_ids": [80, 18], "backdrop_path": "/oasVTD3UpTEjhTAVx9ZCy1k19Qv.jpg", "adult": false, "overview": "After being wrongfully expelled from Harvard University, American Matt Buckner flees to his sister's home in England. Once there, he is befriended by her charming and dangerous brother-in-law, Pete Dunham, and introduced to the underworld of British football hooliganism. Matt learns to stand his ground through a friendship that develops against the backdrop of this secret and often violent world. 'Green Street Hooligans' is a story of loyalty, trust and the sometimes brutal consequences of living close to the edge.", "poster_path": "/z3LC4kI8azbeuHRGgDdWo6VBCdX.jpg", "popularity": 20.194}, {"adult": false, "backdrop_path": "/n1Gh3MJAVvXmkgSDf3SOLlPCjag.jpg", "genre_ids": [35, 18, 10749], "id": 9390, "original_language": "en", "original_title": "Jerry Maguire", "overview": "Jerry Maguire used to be a typical sports agent: willing to do just about anything he could to get the biggest possible contracts for his clients, plus a nice commission for himself. Then, one day, he suddenly has second thoughts about what he's really doing. When he voices these doubts, he ends up losing his job and all of his clients, save Rod Tidwell, an egomaniacal football player.", "poster_path": "/99YTEdKOKDRClsscOpJfdkbaTrQ.jpg", "release_date": "1996-12-13", "title": "Jerry Maguire", "video": false, "vote_average": 6.9, "vote_count": 1796, "popularity": 20.431}, {"adult": false, "backdrop_path": "/kBTdPNTAzagAY6UiwY957KCDGuu.jpg", "genre_ids": [16, 35, 10751], "id": 2300, "original_language": "en", "original_title": "Space Jam", "overview": "Swackhammer, an evil alien theme park owner, needs a new attraction at Moron Mountain. When his gang, the Nerdlucks, heads to Earth to kidnap Bugs Bunny and the Looney Tunes, Bugs challenges them to a basketball game to determine their fate. The aliens agree, but they steal the powers of NBA basketball players, including Larry Bird and Charles Barkley -- so Bugs gets some help from superstar Michael Jordan.", "poster_path": "/xI9AwhOWtsbFlS8tYD2PXa80p7u.jpg", "release_date": "1996-11-15", "title": "Space Jam", "video": false, "vote_average": 6.7, "vote_count": 3180, "popularity": 17.288}, {"adult": false, "backdrop_path": "/kmrSb8Gu0s6fGkm3zHJnHh25F4J.jpg", "genre_ids": [18, 10752], "id": 17360, "original_language": "en", "original_title": "Escape to Victory", "overview": "A group of POWs in a German prison camp during World War II play the German National Soccer Team in this powerful film depicting the role of prisoners during wartime.", "poster_path": "/tKFWYW9vDVKrBupSQydptyYVkXi.jpg", "release_date": "1981-06-17", "title": "Escape to Victory", "video": false, "vote_average": 6.8, "vote_count": 419, "popularity": 11.037}, {"adult": false, "backdrop_path": "/9lrM0o89ASyHmDgMLfCbU5qdsAm.jpg", "genre_ids": [35, 18], "id": 9291, "original_language": "en", "original_title": "The Longest Yard", "overview": "Pro quarter-back, Paul Crewe and former college champion and coach, Nate Scarboro are doing time in the same prison. Asked to put together a team of inmates to take on the guards, Crewe enlists the help of Scarboro to coach the inmates to victory in a football game 'fixed' to turn out quite another way.", "poster_path": "/ag6q9euZABqbHtbDhoRT9xEYltP.jpg", "release_date": "2005-05-27", "title": "The Longest Yard", "video": false, "vote_average": 6.4, "vote_count": 1766, "popularity": 16.3}, {"adult": false, "backdrop_path": "/zu3zLkJeRtGJq4I6D7ONMWmFOLh.jpg", "genre_ids": [28, 18], "id": 9766, "original_language": "en", "original_title": "Gridiron Gang", "overview": "Teenagers at a juvenile detention center, under the leadership of their counselor, gain self-esteem by playing football together.", "poster_path": "/8UlDsCPjAfg15L5Sgkcmy8rv1rg.jpg", "release_date": "2006-09-15", "title": "Gridiron Gang", "video": false, "vote_average": 6.7, "vote_count": 431, "popularity": 10.994}, {"id": 60308, "video": false, "vote_count": 2517, "vote_average": 7.2, "title": "Moneyball", "release_date": "2011-09-22", "original_language": "en", "original_title": "Moneyball", "genre_ids": [18], "backdrop_path": "/T9a9Q6Pin6Pra7dNMwWzAibxkk.jpg", "adult": false, "overview": "The story of Oakland Athletics general manager Billy Beane's successful attempt to put together a baseball team on a budget, by employing computer-generated analysis to draft his players.", "poster_path": "/3oAa8mJJ97CH9AeGEY6vjAxqcvZ.jpg", "popularity": 16.975}, {"adult": false, "backdrop_path": "/3fcBsj9JMQQ27Wuk3LVrEwVZ2VT.jpg", "genre_ids": [28, 18], "id": 323677, "original_language": "en", "original_title": "Race", "overview": "Based on the story of Jesse Owens, the athlete whose quest to become the greatest track and field athlete in history thrusts him onto the world stage of the 1936 Olympics, where he faces off against Adolf Hitler's vision of Aryan supremacy.", "poster_path": "/szLfTQ2vLFQkNbP3dc0pnco1rje.jpg", "release_date": "2016-02-19", "title": "Race", "video": false, "vote_average": 7.3, "vote_count": 989, "popularity": 11.176}, {"adult": false, "backdrop_path": "/20IgqkdFw5kuItqDCJtidSESP0t.jpg", "genre_ids": [27, 18], "id": 10066, "original_language": "en", "original_title": "House of Wax", "overview": "A group of unwitting teens are stranded near a strange wax museum and soon must fight to survive and keep from becoming the next exhibit.", "poster_path": "/uM1RebQywM5PPYsauayefpXGxVk.jpg", "release_date": "2005-04-30", "title": "House of Wax", "video": false, "vote_average": 5.7, "vote_count": 1532, "popularity": 16.398}, {"adult": false, "backdrop_path": "/mYKP6qcDUimVMAHQWLOuDHjO19S.jpg", "genre_ids": [35], "id": 445629, "original_language": "en", "original_title": "Fighting with My Family", "overview": "Born into a tight-knit wrestling family, Paige and her brother Zak are ecstatic when they get the once-in-a-lifetime opportunity to try out for the WWE. But when only Paige earns a spot in the competitive training program, she must leave her loved ones behind and face this new cutthroat world alone. Paige's journey pushes her to dig deep and ultimately prove to the world that what makes her different is the very thing that can make her a star.", "poster_path": "/cVhe15rJLRjolunSWLBN6xQLyGU.jpg", "release_date": "2019-02-14", "title": "Fighting with My Family", "video": false, "vote_average": 6.7, "vote_count": 642, "popularity": 23.641}, {"id": 391757, "video": false, "vote_count": 185, "vote_average": 6.5, "title": "Never Back Down: No Surrender", "release_date": "2016-06-07", "original_language": "en", "original_title": "Never Back Down: No Surrender", "genre_ids": [28, 18], "backdrop_path": "/pzjnObK3uiHcKwiir9OPPWzbW8f.jpg", "adult": false, "overview": "Picking up after the events of Never Back Down 2, former MMA champion Case Walker is on the comeback trail to become champion once again.", "poster_path": "/dYNS4o4Q4DDLiKRAAvZ9KcrhHuy.jpg", "popularity": 16.224}, {"id": 396371, "video": false, "vote_count": 1968, "vote_average": 7.1, "title": "Molly's Game", "release_date": "2017-12-25", "original_language": "en", "original_title": "Molly's Game", "genre_ids": [80, 18], "backdrop_path": "/rHcBZ6ZKCe4FalWHyvBGsyMsh0k.jpg", "adult": false, "overview": "Molly Bloom, a young skier and former Olympic hopeful becomes a successful entrepreneur (and a target of an FBI investigation) when she establishes a high-stakes, international poker game.", "poster_path": "/in43bQ7k0ttr666IPP94IlbQbTR.jpg", "popularity": 18.118}, {"id": 307081, "video": false, "vote_count": 3699, "vote_average": 7.4, "title": "Southpaw", "release_date": "2015-03-24", "original_language": "en", "original_title": "Southpaw", "genre_ids": [28, 18], "backdrop_path": "/tTt1cdEEkKMJ1R4VBTe5vbE3bWO.jpg", "adult": false, "overview": "Billy \"The Great\" Hope, the reigning junior middleweight boxing champion, has an impressive career, a loving wife and daughter, and a lavish lifestyle. However, when tragedy strikes, Billy hits rock bottom, losing his family, his house and his manager. He soon finds an unlikely savior in Tick Willis, a former fighter who trains the city's toughest amateur boxers. With his future on the line, Hope fights to reclaim the trust of those he loves the most.", "poster_path": "/50d0XQQETSyg3bwBXhC7K33pKgc.jpg", "popularity": 24.057}, {"id": 1375, "video": false, "vote_count": 1670, "vote_average": 5.6, "title": "Rocky V", "release_date": "1990-10-18", "original_language": "en", "original_title": "Rocky V", "genre_ids": [18], "backdrop_path": "/dr5pdEDOdCvelCQqP32UZubiSgE.jpg", "adult": false, "overview": "A lifetime of taking shots has ended Rocky\u2019s career, and a crooked accountant has left him broke. Inspired by the memory of his trainer, however, Rocky finds glory in training and takes on an up-and-coming boxer.", "poster_path": "/5P2RiuLt31mWyb6duww8qlAhs6G.jpg", "popularity": 22.518}, {"adult": false, "backdrop_path": "/w41zFKYTsq4wf5QnQJWMXuzWl2F.jpg", "genre_ids": [18, 28], "id": 96721, "original_language": "en", "original_title": "Rush", "overview": "A biographical drama centered on the rivalry between Formula 1 drivers James Hunt and Niki Lauda during the 1976 Formula One motor-racing season.", "poster_path": "/cjEepHZOZAwmK6nAj5jis6HV75E.jpg", "release_date": "2013-09-02", "title": "Rush", "video": false, "vote_average": 7.7, "vote_count": 4276, "popularity": 17.673}, {"id": 70006, "video": false, "vote_count": 288, "vote_average": 6.1, "title": "Never Back Down 2: The Beatdown", "release_date": "2011-09-13", "original_language": "en", "original_title": "Never Back Down 2: The Beatdown", "genre_ids": [28, 18], "backdrop_path": "/lSFqtjxMfAHa58TBDDBELKeq2DH.jpg", "adult": false, "overview": "Four fighters different backgrounds come together to train under an ex MMA rising star and then ultimately have to fight each other and the traitor in heir midst.", "poster_path": "/qeISu4rUk9l9sQTMs86fAoxSx8p.jpg", "popularity": 15.641}, {"id": 73, "video": false, "vote_count": 6718, "vote_average": 8.4, "title": "American History X", "release_date": "1998-10-30", "original_language": "en", "original_title": "American History X", "genre_ids": [18], "backdrop_path": "/i9A0UMFg1hI2kLyCCwnmSbpT2cd.jpg", "adult": false, "overview": "Derek Vineyard is paroled after serving 3 years in prison for killing two thugs who tried to break into/steal his truck. Through his brother, Danny Vineyard's narration, we learn that before going to prison, Derek was a skinhead and the leader of a violent white supremacist gang that committed acts of racial crime throughout L.A. and his actions greatly influenced Danny. Reformed and fresh out of prison, Derek severs contact with the gang and becomes determined to keep Danny from going down the same violent path as he did.", "poster_path": "/fXepRAYOx1qC3wju7XdDGx60775.jpg", "popularity": 25.921}], "total_pages": 178, "total_results": 3553}, "recommendations": {"page": 1, "results": [], "total_pages": 1, "total_results": 0}, "credits": {"cast": [{"cast_id": 8, "character": "Mickey Mantle", "credit_id": "5ad819820e0a26433000a6c1", "gender": 0, "id": 1218884, "name": "Mickey Mantle", "order": 1, "profile_path": "/aw9VUMUS6Wjv3yIJ7Zw8s7D4zVZ.jpg"}, {"cast_id": 9, "character": "Roger Maris", "credit_id": "5ad8198dc3a368718f00bd2c", "gender": 0, "id": 1249456, "name": "Roger Maris", "order": 2, "profile_path": "/vKHZ3TU4ND6tNeOshKYAPtTh9V6.jpg"}, {"cast_id": 4, "character": "Bill Turner", "credit_id": "52fe4c9a9251416c7511fb2b", "gender": 2, "id": 34285, "name": "William Frawley", "order": 4, "profile_path": "/nG2PEowEAQEB7yiaJ6kvoFHNuNU.jpg"}, {"cast_id": 5, "character": "Johanna Price", "credit_id": "52fe4c9a9251416c7511fb2f", "gender": 1, "id": 40208, "name": "Patricia Barry", "order": 5, "profile_path": "/wxw6Ml6onth4WEy5PgmP1MxDoQW.jpg"}, {"cast_id": 6, "character": "Ken Lawton", "credit_id": "52fe4c9a9251416c7511fb33", "gender": 2, "id": 97478, "name": "Don Collier", "order": 6, "profile_path": "/nCyPshvwwJhceI1vY8wqdV2dFJy.jpg"}, {"cast_id": 7, "character": "Hutch Lawton", "credit_id": "571bec18925141115f00640f", "gender": 2, "id": 37885, "name": "Bryan Russell", "order": 7, "profile_path": "/8wmB9Zo1Ptt4tUC06Y2XVljfd6A.jpg"}, {"cast_id": 10, "character": "Mr. Torres", "credit_id": "5ad819c8c3a368718f00bd69", "gender": 0, "id": 130346, "name": "Eugene Iglesias", "order": 8, "profile_path": "/ukM08v9esTHmMfwmKNtUzOYdPQv.jpg"}, {"cast_id": 11, "character": "Henry", "credit_id": "5ad819d69251413ccd00a2f6", "gender": 2, "id": 163367, "name": "Flip Mark", "order": 9, "profile_path": "/83SbsBYo0Gp7SX7vbY4YaXfdhhC.jpg"}, {"cast_id": 12, "character": "Mike Torres", "credit_id": "5ad819ef9251413cd000a5ca", "gender": 0, "id": 1928717, "name": "Scott Lane", "order": 10, "profile_path": null}, {"cast_id": 13, "character": "Henry's Father", "credit_id": "5ad819fdc3a368719300a681", "gender": 0, "id": 1191428, "name": "Charles G. Martin", "order": 11, "profile_path": null}, {"cast_id": 14, "character": "Ralph Houk", "credit_id": "5ad81a069251413cd000a5e0", "gender": 0, "id": 2025535, "name": "Ralph Houk", "order": 12, "profile_path": null}, {"cast_id": 15, "character": "Whitey Ford", "credit_id": "5ad81a0e0e0a26433900aaf9", "gender": 0, "id": 2025536, "name": "Whitey Ford", "order": 13, "profile_path": null}], "crew": [{"credit_id": "52fe4c9a9251416c7511fb1f", "department": "Directing", "gender": 2, "id": 87407, "job": "Director", "name": "Walter Doniger", "profile_path": null}, {"credit_id": "5ad81ae2c3a368718c00ab00", "department": "Writing", "gender": 2, "id": 66919, "job": "Screenplay", "name": "Robert Dillon", "profile_path": null}, {"credit_id": "5ad81ae8c3a368718f00be65", "department": "Writing", "gender": 2, "id": 66919, "job": "Story", "name": "Robert Dillon", "profile_path": null}, {"credit_id": "5ad81af5c3a36871a600a52d", "department": "Writing", "gender": 0, "id": 2025540, "job": "Story", "name": "Tom Naud", "profile_path": null}, {"credit_id": "5ad81b0d9251413cbe00a55d", "department": "Writing", "gender": 0, "id": 83915, "job": "Writer", "name": "Steven Ritch", "profile_path": "/zSMLIVBWrkEKft2imQMcBfI29xz.jpg"}]}}