{"adult": false, "backdrop_path": null, "belongs_to_collection": null, "budget": 0, "genres": [], "homepage": null, "id": 183697, "imdb_id": "tt0088898", "original_language": "en", "original_title": "The Chain", "overview": "Comedy featuring interweaving stories of seven households caught up in a property chain on moving day, each one dependent on the other.", "popularity": 1.141, "poster_path": "/qUE1AQ9uEccXodmwdTrKcHFNP1.jpg", "production_companies": [{"id": 9210, "logo_path": "/ruUf9qymJ1gKLmerDKO8pgq1CYM.png", "name": "Film Four International", "origin_country": ""}], "production_countries": [{"iso_3166_1": "GB", "name": "United Kingdom"}], "release_date": "1984-01-01", "revenue": 0, "runtime": 100, "spoken_languages": [{"iso_639_1": "en", "name": "English"}], "status": "Released", "tagline": "Your life in their vans.", "title": "The Chain", "video": false, "vote_average": 6.0, "vote_count": 3, "keywords": {"keywords": [{"id": 3805, "name": "relocation"}, {"id": 6095, "name": "house"}]}, "similar": {"page": 1, "results": [{"id": 8392, "video": false, "vote_count": 3717, "vote_average": 8.1, "title": "My Neighbor Totoro", "release_date": "1988-04-16", "original_language": "ja", "original_title": "\u3068\u306a\u308a\u306e\u30c8\u30c8\u30ed", "genre_ids": [16, 14, 10751], "backdrop_path": "/hoIqf9YjZM0oQOrFXp8DcucJ3Jg.jpg", "adult": false, "overview": "Two sisters move to the country with their father in order to be closer to their hospitalized mother, and discover the surrounding trees are inhabited by Totoros, magical spirits of the forest. When the youngest runs away from home, the older sister seeks help from the spirits to find her.", "poster_path": "/rtGDOeG9LzoerkDGZF9dnVeLppL.jpg", "popularity": 42.754}, {"id": 150540, "video": false, "vote_count": 13957, "vote_average": 7.9, "title": "Inside Out", "release_date": "2015-06-09", "original_language": "en", "original_title": "Inside Out", "genre_ids": [16, 35, 18, 10751], "backdrop_path": "/szytSpLAyBh3ULei3x663mAv5ZT.jpg", "adult": false, "overview": "Growing up can be a bumpy road, and it's no exception for Riley, who is uprooted from her Midwest life when her father starts a new job in San Francisco. Riley's guiding emotions\u2014 Joy, Fear, Anger, Disgust and Sadness\u2014live in Headquarters, the control centre inside Riley's mind, where they help advise her through everyday life and tries to keep things positive, but the emotions conflict on how best to navigate a new city, house and school.", "poster_path": "/aAmfIX3TT40zUHGcCKrlOZRKC7u.jpg", "popularity": 57.362}, {"id": 12609, "video": false, "vote_count": 186, "vote_average": 6.5, "title": "Help! I'm A Fish", "release_date": "2000-10-06", "original_language": "da", "original_title": "Hj\u00e6lp, jeg er en fisk", "genre_ids": [12, 16, 35], "backdrop_path": "/jBQJ1J45pqRLtABbK9LBgKL0YmE.jpg", "adult": false, "overview": "Three children accidentally get turned into fish after drinking a potion made by an eccentric scientist. The kids end up in the sea, with one problem. They must find and drink the antidote within 48 hours, or forever remain as fish.", "poster_path": "/s9yFQD19xJqXEnAnUAZFUan25DJ.jpg", "popularity": 11.709}, {"adult": false, "backdrop_path": "/jLtAbxJvYdveTr3AeBZyzf9dkOM.jpg", "genre_ids": [27, 9648, 53], "id": 1970, "original_language": "en", "original_title": "The Grudge", "overview": "American nurse, Karen Davis moves to Tokyo and encounters a vengeful supernatural spirit known as The Grudge that often possesses its victims. When a series of horrifying and mysterious deaths occur \u2013 with the spirit passing its curse onto each victim - Karen must find away to break the spell before she becomes the spirit's next victim.", "poster_path": "/y05X9RL0FIcEwoVSTppCPcQwhvf.jpg", "release_date": "2004-10-22", "title": "The Grudge", "video": false, "vote_average": 5.9, "vote_count": 1752, "popularity": 15.889}, {"id": 12536, "video": false, "vote_count": 632, "vote_average": 4.3, "title": "Home Alone 4", "release_date": "2003-11-26", "original_language": "en", "original_title": "Home Alone 4", "genre_ids": [35, 80, 10751], "backdrop_path": "/xcM06BgNt3cpIVUHRCTTxwo4JJh.jpg", "adult": false, "overview": "Kevin McCallister's parents have split up. Now living with his mom, he decides to spend Christmas with his dad at the mansion of his father's rich girlfriend, Natalie. Meanwhile robber Marv Merchants, one of the villains from the first two movies, partners up with a new criminal named Vera to hit Natalie's mansion.", "poster_path": "/359bHILkiD6ZVCq6WoHSD0UuJQV.jpg", "popularity": 17.11}, {"id": 428449, "video": false, "vote_count": 1087, "vote_average": 7.0, "title": "A Ghost Story", "release_date": "2017-04-24", "original_language": "en", "original_title": "A Ghost Story", "genre_ids": [18, 14, 10749], "backdrop_path": "/8kiPIqPWJaeTNQlHvGyHodeh9lU.jpg", "adult": false, "overview": "Recently deceased, a white-sheeted ghost returns to his suburban home to console his bereft wife, only to find that in his spectral state he has become unstuck in time, forced to watch passively as the life he knew and the woman he loves slowly slip away.", "poster_path": "/rp5JPIyZi9sMob15l46zNQLe5cO.jpg", "popularity": 13.016}, {"id": 6795, "video": false, "vote_count": 1850, "vote_average": 6.3, "title": "Zathura: A Space Adventure", "release_date": "2005-11-06", "original_language": "en", "original_title": "Zathura: A Space Adventure", "genre_ids": [12, 35, 14, 878, 10751], "backdrop_path": "/jzcOVeydNYF4hX0OiNftWC8QZJz.jpg", "adult": false, "overview": "After their father is called into work, two young boys, Walter and Danny, are left in the care of their teenage sister, Lisa, and told they must stay inside. Walter and Danny, who anticipate a boring day, are shocked when they begin playing Zathura, a space-themed board game, which they realize has mystical powers when their house is shot into space. With the help of an astronaut, the boys attempt to return home.", "poster_path": "/amqgIuISRBt8tsZM6cTT6gO9WLR.jpg", "popularity": 14.36}, {"adult": false, "backdrop_path": "/7Gn9Q4G511ATmHXsnkfvtvDvfGb.jpg", "genre_ids": [14, 27, 35], "id": 37530, "original_language": "en", "original_title": "House II: The Second Story", "overview": "Young urban professionals Jesse (Arye Gross) and his girlfriend Kate (Lar Park Lincoln), move into an old mansion that has been in Jesse's family for generations. They are soon joined by Jesse's goofy friend Charlie (Jonathan Stark), who brought along his diva girlfriend Lana (Amy Yasbeck), in the hopes of being discovered by Kate, who works for a record company. Jesse has returned to this old family mansion after his parents were murdered when he was a baby. While going through old things in the basement, Jesse finds a picture of his great-great grandfather (and namesake) in front of a Mayan temple holding a crystal skull with jewels in the eyes. In the background is a man Jesse learns is Slim Razor, a former partner of his great-great grandfather turned bitter enemy after a disagreement over who would get to keep the skull.", "poster_path": "/kU2oksmXZ4Ibz98EykS6QQxSxqb.jpg", "release_date": "1987-05-14", "title": "House II: The Second Story", "video": false, "vote_average": 5.6, "vote_count": 119, "popularity": 8.559}, {"id": 73563, "video": false, "vote_count": 27, "vote_average": 5.5, "title": "The Greening of Whitney Brown", "release_date": "2011-11-10", "original_language": "en", "original_title": "The Greening of Whitney Brown", "genre_ids": [12, 18, 10751], "backdrop_path": "/b8KkEU84FQpZ6czwozugCDStjvG.jpg", "adult": false, "overview": "Whitney, a spoiled pre-teen from Philadelphia, is forced to move to the country when her parents feel the squeeze of economic hard times. A fish out of water, far from her comfort zone, she befriends an amazing horse, and undertakes a misguided journey back to her old life, only to discover that her family is her home.", "poster_path": "/p6lZxCfrwJzvqizUYrlh5i9Ri7s.jpg", "popularity": 6.157}, {"id": 10402, "video": false, "vote_count": 681, "vote_average": 5.5, "title": "Deuce Bigalow: Male Gigolo", "release_date": "1999-12-10", "original_language": "en", "original_title": "Deuce Bigalow: Male Gigolo", "genre_ids": [35], "backdrop_path": "/2BE6SGCQsXu4Z3kNK4MbQe9lfsR.jpg", "adult": false, "overview": "Deuce Bigalow is a less than attractive, down on his luck aquarium cleaner. One day he wrecks the house of a gigolo and needs quick money to repair it. The only way he can make it is to become a gigolo himself, taking on an unusual mix of female clients. He encounters a couple of problems, though. He falls in love with one of his unusual clients, and a sleazy police officer is hot on his trail.", "poster_path": "/zexB4wsNLffPR3YuTcTt8SLn9UC.jpg", "popularity": 14.231}, {"adult": false, "backdrop_path": "/jixekHe0lX093eZHUe5wqKM8SOR.jpg", "genre_ids": [27], "id": 10331, "original_language": "en", "original_title": "Night of the Living Dead", "overview": "A group of people try to survive an attack of bloodthirsty zombies while trapped in a rural Pennsylvania farmhouse.", "poster_path": "/faPfcZ181gWmCoMbal7bAXFPFh9.jpg", "release_date": "1968-10-01", "title": "Night of the Living Dead", "video": false, "vote_average": 7.7, "vote_count": 1188, "popularity": 15.31}, {"id": 6283, "video": false, "vote_count": 641, "vote_average": 6.3, "title": "MouseHunt", "release_date": "1997-12-19", "original_language": "en", "original_title": "MouseHunt", "genre_ids": [35, 10751], "backdrop_path": "/ukwGASVRcZZAZpn2MX71j1s6pyL.jpg", "adult": false, "overview": "Down-on-their luck brothers, Lars and Ernie Smuntz, aren't happy with the crumbling old mansion they inherit... until they discover the estate is worth millions. Before they can cash in, they have to rid the house of it's single, stubborn occupant: a tiny and tenacious mouse.", "poster_path": "/gQ3Nyb3UkRHyuiN96MNmKmREc6F.jpg", "popularity": 11.63}, {"id": 16235, "video": false, "vote_count": 144, "vote_average": 5.8, "title": "Amityville II: The Possession", "release_date": "1982-09-24", "original_language": "en", "original_title": "Amityville II: The Possession", "genre_ids": [27], "backdrop_path": "/rZHdqFaKU6FuSCfchnyjm8nMjrd.jpg", "adult": false, "overview": "The Lutz family have managed to flee their home with their lives intact, but before them, another family lived in this house and were caught up in the original evil who weren't so lucky...", "poster_path": "/qzvf4p6bKyadZQo2aZFsR4uuT2W.jpg", "popularity": 12.682}, {"id": 57431, "video": false, "vote_count": 537, "vote_average": 5.5, "title": "The Sitter", "release_date": "2011-12-09", "original_language": "en", "original_title": "The Sitter", "genre_ids": [35], "backdrop_path": "/hGp2VR0Owc8WgiXtljsSzgJtIIg.jpg", "adult": false, "overview": "Noah, is not your typical entertain-the-kids-no-matter-how-boring-it-is kind of sitter. He's reluctant to take a sitting gig; he'd rather, well, be doing anything else, especially if it involves slacking. When Noah is watching the neighbor's kid he gets a booty call from his girlfriend in the city. To hook up with her, Noah takes to the streets, but his urban adventure spins out of control as he finds himself on the run from a maniacal drug lord.", "poster_path": "/fjEbzpUboJB9TTxU0VuNpvhQOw.jpg", "popularity": 11.941}, {"adult": false, "backdrop_path": "/qpBoK7OBUEbNJFaLEnXw0HbaYKS.jpg", "genre_ids": [35], "id": 209244, "original_language": "en", "original_title": "Are You Here", "overview": "When Steve Dallas, a womanizing local weatherman, hears that his off-the-grid best friend Ben Baker has lost his estranged father, the two return to Ben's childhood home. Once there, they discover Ben has inherited the family fortune, and the ill-equipped duo must battle Ben's formidable sister and deal with his father's gorgeous 25-year old widow.", "poster_path": "/jxyeaavDoJbxKkq7peeL0YDBVQs.jpg", "release_date": "2013-09-07", "title": "Are You Here", "video": false, "vote_average": 5.3, "vote_count": 171, "popularity": 10.862}, {"id": 6404, "video": false, "vote_count": 336, "vote_average": 7.5, "title": "Nosferatu the Vampyre", "release_date": "1979-01-17", "original_language": "de", "original_title": "Nosferatu - Phantom der Nacht", "genre_ids": [18, 27], "backdrop_path": "/hqSThhiEMal7eSWEoWgeVyvSLAW.jpg", "adult": false, "overview": "Jonathan Harker, a real state agent, goes to Transylvania to visit the mysterious Count Dracula and formalize the purchase of a property in Wismar. Once Jonathan is caught under his evil spell, Dracula travels to Wismar where he meets the beautiful Lucy, Jonathan's wife, while a plague spreads through the town, now ruled by death.", "poster_path": "/fKFkl1G6XldPz4jD82DpFdYduI6.jpg", "popularity": 11.923}, {"adult": false, "backdrop_path": "/bVZNGCXhQMPpCCDr6HaYjqMULck.jpg", "genre_ids": [27, 53], "id": 9378, "original_language": "en", "original_title": "Thir13en Ghosts", "overview": "Arthur and his two children, Kathy and Bobby, inherit his Uncle Cyrus's estate: a glass house that serves as a prison to 12 ghosts. When the family, accompanied by Bobby's Nanny and an attorney, enter the house they find themselves trapped inside an evil machine \"designed by the devil and powered by the dead\" to open the Eye of Hell. Aided by Dennis, a ghost hunter, and his rival Kalina, a ghost rights activist out to set the ghosts free, the group must do what they can to get out of the house alive.", "poster_path": "/s4KZw4vmXfZGbPLBJB7RpWsiUxk.jpg", "release_date": "2001-10-26", "title": "Thir13en Ghosts", "video": false, "vote_average": 5.7, "vote_count": 906, "popularity": 14.036}, {"adult": false, "backdrop_path": "/qn8zn1zvmpT5fBO7uiMxBrRVMTN.jpg", "genre_ids": [18], "id": 11093, "original_language": "en", "original_title": "House of Sand and Fog", "overview": "Behrani, an Iranian immigrant buys a California bungalow, thinking he can fix it up, sell it again, and make enough money to send his son to college. However, the house is the legal property of former drug addict Kathy. After losing the house in an unfair legal dispute with the county, she is left with nowhere to go. Wanting her house back, she hires a lawyer and befriends a police officer. Neither Kathy nor Behrani have broken the law, so they find themselves involved in a difficult moral dilemma.", "poster_path": "/su4tynEOu7bv0CBcIPCjpQWP6BP.jpg", "release_date": "2003-12-19", "title": "House of Sand and Fog", "video": false, "vote_average": 7.1, "vote_count": 365, "popularity": 15.123}, {"id": 9966, "video": false, "vote_count": 448, "vote_average": 5.6, "title": "The Messengers", "release_date": "2007-02-02", "original_language": "en", "original_title": "The Messengers", "genre_ids": [27, 9648, 53], "backdrop_path": "/eueT68ZeLT3XbE8JOgN9OaqZArK.jpg", "adult": false, "overview": "When the Solomons trade in the craziness of big-city life for the quiet of a North Dakota farm, little do they expect the nightmare that follows. Soon after arriving, teenage Jess (Kristen Stewart) and her younger brother see terrifying apparitions and endure attacks from a supernatural source. Jess must warn her disbelieving family before it is too late to save them.", "poster_path": "/x2Z5iXhHaoK22vwfxju5vq25apS.jpg", "popularity": 9.793}, {"id": 10466, "video": false, "vote_count": 555, "vote_average": 6.4, "title": "The Money Pit", "release_date": "1986-03-15", "original_language": "en", "original_title": "The Money Pit", "genre_ids": [35, 10749], "backdrop_path": "/wfhWgaJK1MvV0ygYM2tU2puMqJa.jpg", "adult": false, "overview": "After being evicted from their Manhattan apartment, a couple buy what looks like the home of their dreams\u2014only to find themselves saddled with a bank-account-draining nightmare. Struggling to keep their relationship together as their rambling mansion falls to pieces around them, the two watch in hilarious horror as everything\u2014including the kitchen sink\u2014disappears into the Money Pit.", "poster_path": "/vzUfCSAXDIQemW6Kdk2RU2JtfiV.jpg", "popularity": 11.859}], "total_pages": 9, "total_results": 162}, "recommendations": {"page": 1, "results": [], "total_pages": 1, "total_results": 0}, "credits": {"cast": [{"cast_id": 1, "character": "Bamber", "credit_id": "52fe4ca99251416c751218bf", "gender": 2, "id": 94713, "name": "Warren Mitchell", "order": 0, "profile_path": "/mMFruuo24m0A8LgVXjE6cUDrGFx.jpg"}, {"cast_id": 2, "character": "Nick", "credit_id": "52fe4ca99251416c751218c3", "gender": 2, "id": 1369, "name": "Bernard Hill", "order": 1, "profile_path": "/oSzgbT0gL2p8TjivnqLu7LW3Gab.jpg"}, {"cast_id": 3, "character": "Thomas", "credit_id": "52fe4ca99251416c751218c7", "gender": 2, "id": 7192, "name": "Leo McKern", "order": 2, "profile_path": "/qcO1TFO6SowLOQAwKRMKrqmrk6A.jpg"}, {"cast_id": 4, "character": "Keith", "credit_id": "52fe4ca99251416c751218cb", "gender": 2, "id": 47698, "name": "Denis Lawson", "order": 3, "profile_path": "/nxPR7KIlJ4CPPI2hniTUk6bu9fA.jpg"}, {"cast_id": 5, "character": "Dudley", "credit_id": "52fe4ca99251416c751218cf", "gender": 0, "id": 78427, "name": "David Troughton", "order": 4, "profile_path": "/sNYpAOzzEN6AnPpmFBWTisAcnfm.jpg"}, {"cast_id": 6, "character": "Alison", "credit_id": "52fe4ca99251416c751218d3", "gender": 1, "id": 127164, "name": "Phyllis Logan", "order": 5, "profile_path": "/1S2Ee4XvtyjlWrPISm5BxSVWr0V.jpg"}, {"cast_id": 7, "character": "Mr Thorn", "credit_id": "52fe4ca99251416c751218d7", "gender": 0, "id": 15788, "name": "Nigel Hawthorne", "order": 6, "profile_path": "/oca9LUcOudMuVUJJSj8xznHdDTu.jpg"}, {"cast_id": 8, "character": "Betty", "credit_id": "52fe4ca99251416c751218db", "gender": 1, "id": 8227, "name": "Anna Massey", "order": 7, "profile_path": "/hO6qoo665U7JAHmbH7PQ7L07DOO.jpg"}, {"cast_id": 18, "character": "Mrs. Andreos", "credit_id": "58651e84c3a36852e001e536", "gender": 1, "id": 8226, "name": "Billie Whitelaw", "order": 8, "profile_path": "/5XSUS3oSuG2CtJQPiEBQd9AAmg4.jpg"}, {"cast_id": 19, "character": "Deidre", "credit_id": "58651e90c3a36852d201b4c9", "gender": 1, "id": 33448, "name": "Judy Parfitt", "order": 9, "profile_path": "/mT6Q98tr7kUqQLJgmdC5RZtfl3I.jpg"}, {"cast_id": 20, "character": "Carrie", "credit_id": "58651ed6c3a36852c901d293", "gender": 1, "id": 541338, "name": "Rita Wolf", "order": 10, "profile_path": "/cSefHCxUglyvq9P3xnmIfRp6Zjd.jpg"}, {"cast_id": 21, "character": "Tornado", "credit_id": "5b34f05b9251413c5802445d", "gender": 2, "id": 140164, "name": "Gary Waldhorn", "order": 11, "profile_path": "/6gM6lMDuVFT2xq1qs9I2TMjgumh.jpg"}, {"cast_id": 22, "character": "Paul", "credit_id": "5b34f0e59251413cb501e2dd", "gender": 0, "id": 1537290, "name": "Tony Westrope", "order": 12, "profile_path": null}, {"cast_id": 23, "character": "Des", "credit_id": "5b34f1169251413c9d01af55", "gender": 2, "id": 227342, "name": "Herbert Norville", "order": 13, "profile_path": "/xfoTFYnv4LYa7JCdbdSJhsAaEIB.jpg"}, {"cast_id": 24, "character": "Des' Mum", "credit_id": "5b34f1280e0a26400d021b87", "gender": 0, "id": 1241055, "name": "Carmen Munroe", "order": 14, "profile_path": null}, {"cast_id": 25, "character": "Stan", "credit_id": "5b34f1330e0a263ffc0222ce", "gender": 2, "id": 1232334, "name": "Ron Pember", "order": 15, "profile_path": null}, {"cast_id": 26, "character": "Alex", "credit_id": "5b34f14a0e0a26401602348e", "gender": 2, "id": 91447, "name": "John Rowe", "order": 16, "profile_path": "/6FXV41mv5uvVtnCRJdXy6b0KxJd.jpg"}, {"cast_id": 27, "character": "Mark", "credit_id": "5b34f16a9251413c74022af4", "gender": 2, "id": 1918904, "name": "Matthew Blakstad", "order": 17, "profile_path": null}, {"cast_id": 28, "character": "Rosemary", "credit_id": "5b34f17d9251413c910206ad", "gender": 1, "id": 1248786, "name": "Charlotte Long", "order": 18, "profile_path": null}, {"cast_id": 29, "character": "Tasha", "credit_id": "5b34f194c3a368532f024a1e", "gender": 1, "id": 135175, "name": "Jade Magri", "order": 19, "profile_path": null}, {"cast_id": 30, "character": "Homeless Old Lady", "credit_id": "5b34f1a50e0a26401402441e", "gender": 0, "id": 189377, "name": "Anne Tirard", "order": 20, "profile_path": null}, {"cast_id": 31, "character": "Old Lady", "credit_id": "5b34f1be9251413c8e02169d", "gender": 1, "id": 158278, "name": "Patsy Smart", "order": 21, "profile_path": "/r84Y2ZcsZ98OdCAnyLwt4KUqg7K.jpg"}, {"cast_id": 32, "character": "Ambrose", "credit_id": "5b34f2290e0a264002022b55", "gender": 2, "id": 93967, "name": "Mark Dignam", "order": 22, "profile_path": "/7tzFChShd2AY0yYNE540yyKhJrY.jpg"}, {"cast_id": 33, "character": "Edgar", "credit_id": "5b34f23b0e0a263fff020922", "gender": 0, "id": 1229049, "name": "Alex Tetteh-Lartey", "order": 23, "profile_path": null}, {"cast_id": 34, "character": "Policeman", "credit_id": "5b34f246c3a36853280268d7", "gender": 0, "id": 2044698, "name": "Robin Summers", "order": 24, "profile_path": null}, {"cast_id": 36, "character": "Myra", "credit_id": "5b34f274c3a36853280268f4", "gender": 0, "id": 1371914, "name": "Vicky Licorish", "order": 25, "profile_path": null}, {"cast_id": 48, "character": "Gary", "credit_id": "5b35146fc3a368533201e4a6", "gender": 2, "id": 1227722, "name": "Steven Woodcock", "order": 26, "profile_path": "/xc2rYFhhbZk4E9e36pXfqv0za5f.jpg"}, {"cast_id": 37, "character": "Carpet Layer", "credit_id": "5b34f2820e0a26400d021c39", "gender": 2, "id": 1541513, "name": "Paddy Joyce", "order": 27, "profile_path": null}, {"cast_id": 39, "character": "1st Removal Man", "credit_id": "5b34f2e00e0a264016023500", "gender": 2, "id": 1087600, "name": "Ben Onwukwe", "order": 29, "profile_path": "/xmEFrfwRk0OSXJc1grCfxTq3rqv.jpg"}, {"cast_id": 40, "character": "2nd Removal Man", "credit_id": "5b34f2eec3a3685311020055", "gender": 0, "id": 1242557, "name": "James Coyle", "order": 30, "profile_path": null}, {"cast_id": 41, "character": "3rd Removal Man", "credit_id": "5b34f2fcc3a368531102005c", "gender": 2, "id": 174382, "name": "George Rossi", "order": 31, "profile_path": null}, {"cast_id": 42, "character": "Foxx", "credit_id": "5b34f316c3a368533701d320", "gender": 0, "id": 1843657, "name": "Graham Jarvis", "order": 32, "profile_path": null}, {"cast_id": 43, "character": "Bozo", "credit_id": "5b34f3280e0a26400d021c75", "gender": 0, "id": 2074140, "name": "Darliah Wood", "order": 33, "profile_path": null}, {"cast_id": 44, "character": "Dingy", "credit_id": "5b34f338c3a368531a01f75e", "gender": 0, "id": 1242305, "name": "Kim Clifford", "order": 34, "profile_path": null}, {"cast_id": 45, "character": "Clampsman", "credit_id": "5b34f34fc3a368532c0254ae", "gender": 0, "id": 1687604, "name": "Michael Mulkerrin", "order": 35, "profile_path": null}, {"cast_id": 46, "character": "Removal Man", "credit_id": "5b34f35e0e0a2640140244c9", "gender": 2, "id": 25674, "name": "Christopher Ettridge", "order": 36, "profile_path": null}, {"cast_id": 47, "character": "Newsreader (voice)", "credit_id": "5b34f36e9251413c9102074c", "gender": 0, "id": 1233623, "name": "Bob Holness", "order": 37, "profile_path": null}, {"cast_id": 49, "character": "Postman", "credit_id": "5e0b8d1bd5dbc20013fd91e7", "gender": 2, "id": 166019, "name": "Bill Thomas", "order": 38, "profile_path": "/63IssO5Y4mi3xRtZbFdYyrm2ID5.jpg"}], "crew": [{"credit_id": "52fe4ca99251416c751218e1", "department": "Directing", "gender": 2, "id": 70055, "job": "Director", "name": "Jack Gold", "profile_path": "/oCrmaENYfBArdtQK7aQrGDINeoo.jpg"}, {"credit_id": "52fe4caa9251416c751218e7", "department": "Writing", "gender": 0, "id": 64626, "job": "Writer", "name": "Jack Rosenthal", "profile_path": null}, {"credit_id": "52fe4caa9251416c751218ed", "department": "Sound", "gender": 2, "id": 40150, "job": "Music", "name": "Stanley Myers", "profile_path": null}, {"credit_id": "52fe4caa9251416c751218f3", "department": "Crew", "gender": 0, "id": 100982, "job": "Cinematography", "name": "Wolfgang Suschitzky", "profile_path": null}, {"credit_id": "52fe4caa9251416c751218f9", "department": "Production", "gender": 1, "id": 390, "job": "Casting", "name": "Irene Lamb", "profile_path": null}, {"credit_id": "52fe4caa9251416c751218ff", "department": "Production", "gender": 0, "id": 1166964, "job": "Producer", "name": "Victor Glynn", "profile_path": null}, {"credit_id": "52fe4caa9251416c75121905", "department": "Production", "gender": 0, "id": 1072693, "job": "Producer", "name": "John Paul Chapple", "profile_path": null}, {"credit_id": "52fe4caa9251416c7512190b", "department": "Production", "gender": 2, "id": 949674, "job": "Executive Producer", "name": "David Deutsch", "profile_path": null}, {"credit_id": "52fe4caa9251416c75121911", "department": "Production", "gender": 2, "id": 1166965, "job": "Executive Producer", "name": "Peter Manley", "profile_path": null}]}}