{"adult": false, "backdrop_path": null, "belongs_to_collection": null, "budget": 0, "genres": [{"id": 35, "name": "Comedy"}], "homepage": null, "id": 184581, "imdb_id": "tt0055149", "original_language": "en", "original_title": "Mary Had a Little...", "overview": "A theatrical impresario tries to win a bet with a psychiatrist over the production of a perfect baby.", "popularity": 1.642, "poster_path": "/xTIRCNk98raLCYRkjjPbE3dj9zC.jpg", "production_companies": [{"id": 17341, "logo_path": null, "name": "Caralan Productions Ltd.", "origin_country": ""}], "production_countries": [{"iso_3166_1": "GB", "name": "United Kingdom"}], "release_date": "1961-09-28", "revenue": 0, "runtime": 83, "spoken_languages": [{"iso_639_1": "en", "name": "English"}], "status": "Released", "tagline": "The Picture That Gets to the Bottom of Things!", "title": "Mary Had a Little...", "video": false, "vote_average": 0.0, "vote_count": 0, "keywords": {"keywords": [{"id": 1009, "name": "baby"}, {"id": 15106, "name": "psychiatrist"}]}, "similar": {"page": 1, "results": [{"id": 95610, "video": false, "vote_count": 2004, "vote_average": 6.4, "title": "Bridget Jones's Baby", "release_date": "2016-09-14", "original_language": "en", "original_title": "Bridget Jones's Baby", "genre_ids": [35, 10749], "backdrop_path": "/w9VNDcQet0TUoLRWHg8JbT4QjpW.jpg", "adult": false, "overview": "Breaking up with Mark Darcy leaves Bridget Jones over 40 and single again. Feeling that she has everything under control, Jones decides to focus on her career as a top news producer. Suddenly, her love life comes back from the dead when she meets a dashing and handsome American named Jack. Things couldn't be better, until Bridget discovers that she is pregnant. Now, the befuddled mom-to-be must figure out if the proud papa is Mark or Jack.", "poster_path": "/j8di6S3mUuFe5Yz8etRG8yG5EeE.jpg", "popularity": 18.421}, {"adult": false, "backdrop_path": "/4Hsk6Rh2kpUTmlnsjxMiXWiPBSb.jpg", "genre_ids": [35, 18], "id": 400579, "original_language": "en", "original_title": "Tully", "overview": "Marlo, a mother of three, including a newborn, is gifted a night nanny by her brother. Hesitant at first, she quickly forms a bond with the thoughtful, surprising, and sometimes challenging nanny named Tully.", "poster_path": "/wDI4YXBXolMYi15Qx2kClvdSERM.jpg", "release_date": "2018-05-04", "title": "Tully", "video": false, "vote_average": 6.9, "vote_count": 766, "popularity": 18.984}, {"adult": false, "backdrop_path": "/wKQlgHjJwh5mGBZ37vDsXBx9zbh.jpg", "genre_ids": [35], "id": 11862, "original_language": "en", "original_title": "Father of the Bride Part II", "overview": "Just when George Banks has recovered from his daughter's wedding, he receives the news that she's pregnant ... and that George's wife, Nina, is expecting too. He was planning on selling their home, but that's a plan that -- like George -- will have to change with the arrival of both a grandchild and a kid of his own.", "poster_path": "/e64sOI48hQXyru7naBFyssKFxVd.jpg", "release_date": "1995-12-08", "title": "Father of the Bride Part II", "video": false, "vote_average": 6.2, "vote_count": 368, "popularity": 11.365}, {"id": 378, "video": false, "vote_count": 1075, "vote_average": 7.1, "title": "Raising Arizona", "release_date": "1987-03-01", "original_language": "en", "original_title": "Raising Arizona", "genre_ids": [35, 80], "backdrop_path": "/A9jMrrFyAHhbr0c7OwrFuL5Ay7E.jpg", "adult": false, "overview": "The Coen Brothers tell the story of an absurd yet likable family with an unproductive couple as the focal point. The couple has gotten themselves into some trouble while kidnapping a baby and give Hollywood one of the most memorable chase scenes to date.", "poster_path": "/jsBg2bhvbSncyezo9sMntMzBuy6.jpg", "popularity": 12.302}, {"id": 22345, "video": false, "vote_count": 195, "vote_average": 3.8, "title": "Baby Geniuses", "release_date": "1999-03-12", "original_language": "en", "original_title": "Baby Geniuses", "genre_ids": [35, 878, 10751], "backdrop_path": "/bkiITWsN6r0xI2fXtgAFHQoBZN5.jpg", "adult": false, "overview": "Scientist hold talking, super-intelligent babies captive, but things take a turn for the worse when a mix-up occurs between a baby genius and its twin.", "poster_path": "/jQfj2mST2uRbRbYG8qKcdqb6JCM.jpg", "popularity": 11.416}, {"adult": false, "backdrop_path": "/eTxgy8eROB5Ly7ZXKLukQoF6tKl.jpg", "genre_ids": [27, 878], "id": 11549, "original_language": "en", "original_title": "Invasion of the Body Snatchers", "overview": "A small-town doctor learns that the population of his community is being replaced by emotionless alien duplicates.", "poster_path": "/4oj0G2Zr6tQKBDOzKaLuefdeBsG.jpg", "release_date": "1956-02-05", "title": "Invasion of the Body Snatchers", "video": false, "vote_average": 7.5, "vote_count": 472, "popularity": 26.588}, {"id": 13515, "video": false, "vote_count": 1001, "vote_average": 6.1, "title": "Mirrors", "release_date": "2008-08-15", "original_language": "en", "original_title": "Mirrors", "genre_ids": [18, 27, 9648, 53], "backdrop_path": "/v2t6Zbg6X0LeklL3A5iQsz4p4sh.jpg", "adult": false, "overview": "An ex-cop and his family are the target of an evil force that is using mirrors as a gateway into their home.", "poster_path": "/h0Lf0PoLqvcDDpWhvCpiLGSREmp.jpg", "popularity": 16.466}, {"id": 167, "video": false, "vote_count": 1310, "vote_average": 7.2, "title": "K-PAX", "release_date": "2001-10-22", "original_language": "en", "original_title": "K-PAX", "genre_ids": [18, 878], "backdrop_path": "/yrPhUxZcTo68CFjsVCdHXYm8emP.jpg", "adult": false, "overview": "Prot is a patient at a mental hospital who claims to be from a far away Planet. His psychiatrist tries to help him, only to begin to doubt his own explanations.", "poster_path": "/pCZxl9Si7i46nduSqUSzFdHYiEO.jpg", "popularity": 16.998}, {"id": 10564, "video": false, "vote_count": 394, "vote_average": 7.1, "title": "Where the Heart Is", "release_date": "2000-04-27", "original_language": "en", "original_title": "Where the Heart Is", "genre_ids": [35, 18, 10749], "backdrop_path": "/bcIaRLkPsVunpFUdR1FvBcMhKuL.jpg", "adult": false, "overview": "Novalee Nation is a 17-year-old Tennessee transient who has to grow up in a hurry when she's left pregnant and abandoned by her boyfriend on a roadside in Sequoyah, Okla., and takes refuge in the friendly aisles of Wal-Mart. In short order, some eccentric, kindly strangers \"adopt\" Novalee and her infant daughter, helping them buck the odds and build a new life.", "poster_path": "/rNP5NSdXzl6y5CuQ6Sh2JmEnvt5.jpg", "popularity": 9.93}, {"id": 1909, "video": false, "vote_count": 393, "vote_average": 6.4, "title": "Don Juan DeMarco", "release_date": "1994-10-12", "original_language": "en", "original_title": "Don Juan DeMarco", "genre_ids": [35, 18, 10749], "backdrop_path": "/9qkepBLafRQVuMXWgnjqvdefD92.jpg", "adult": false, "overview": "John Arnold DeMarco is a man who believes he is Don Juan, the greatest lover in the world. Clad in a cape and mask, DeMarco undergoes psychiatric treatment with Dr. Jack Mickler to cure him of his apparent delusion. But the psychiatric sessions have an unexpected effect on the psychiatric staff and, most profoundly, Dr Mickler, who rekindles the romance in his complacent marriage.", "poster_path": "/fe0TuYz9jCKUba2Omj48K8bWJ8z.jpg", "popularity": 11.778}, {"id": 9494, "video": false, "vote_count": 1260, "vote_average": 6.0, "title": "Look Who's Talking", "release_date": "1989-10-12", "original_language": "en", "original_title": "Look Who's Talking", "genre_ids": [35, 10749], "backdrop_path": "/m9TyWTTaaFUNMlNJ3b8Q0gkOiZY.jpg", "adult": false, "overview": "Mollie is a single working mother who's out to find the perfect father for her child. Her baby, Mikey, prefers James, a cab driver turned babysitter who has what it takes to make them both happy. But Mollie won't even consider James. It's going to take all the tricks a baby can think of to bring them together before it's too late", "poster_path": "/zyq8wUKk3FVfgkYnI1IVgmypOtG.jpg", "popularity": 12.265}, {"id": 40807, "video": false, "vote_count": 2336, "vote_average": 7.1, "title": "50/50", "release_date": "2011-09-30", "original_language": "en", "original_title": "50/50", "genre_ids": [35, 18], "backdrop_path": "/kGac26bIqfwm8eqbP1RjKP70brE.jpg", "adult": false, "overview": "Inspired by a true story, a comedy centered on a 27-year-old guy who learns of his cancer diagnosis, and his subsequent struggle to beat the disease.", "poster_path": "/uDKmnFHqE3rQ9r6ErQsOZWuzXN8.jpg", "popularity": 19.878}, {"id": 2758, "video": false, "vote_count": 1438, "vote_average": 6.7, "title": "Addams Family Values", "release_date": "1993-11-19", "original_language": "en", "original_title": "Addams Family Values", "genre_ids": [35, 14, 10751], "backdrop_path": "/dMSC5jU9gsw2VmaVHlFqXk6w3j7.jpg", "adult": false, "overview": "Siblings Wednesday and Pugsley Addams will stop at nothing to get rid of Pubert, the new baby boy adored by parents Gomez and Morticia. Things go from bad to worse when the new \"black widow\" nanny, Debbie Jellinsky, launches her plan to add Fester to her collection of dead husbands.", "poster_path": "/8znyj20O3EYLD2EzWnZQMnkE4zH.jpg", "popularity": 20.407}, {"id": 4964, "video": false, "vote_count": 2403, "vote_average": 6.2, "title": "Knocked Up", "release_date": "2007-06-01", "original_language": "en", "original_title": "Knocked Up", "genre_ids": [35, 18, 10749], "backdrop_path": "/cmEojt7Ykuk6p2argyu0hEDoo0d.jpg", "adult": false, "overview": "For fun loving party animal Ben Stone, the last thing he ever expected was for his one night stand to show up on his doorstep eight weeks later to tell him she's pregnant.", "poster_path": "/b4OaXw2MW97VvIiZE0Sbn1NfxSh.jpg", "popularity": 32.089}, {"adult": false, "backdrop_path": "/anApKvoqZgMIdsVtadQvylcGrkf.jpg", "genre_ids": [35], "id": 195589, "original_language": "en", "original_title": "Neighbors", "overview": "A couple with a newborn baby face unexpected difficulties after they are forced to live next to a fraternity house.", "poster_path": "/bpj8myebvnTw5HDmzTSI8N6WFYr.jpg", "release_date": "2014-05-08", "title": "Neighbors", "video": false, "vote_average": 6.2, "vote_count": 4900, "popularity": 15.138}, {"id": 332210, "video": false, "vote_count": 1437, "vote_average": 6.5, "title": "Storks", "release_date": "2016-09-22", "original_language": "en", "original_title": "Storks", "genre_ids": [12, 16, 35, 10751], "backdrop_path": "/yziCg46YIvmWAvPdztuZQqNBinW.jpg", "adult": false, "overview": "Storks deliver babies\u2026or at least they used to. Now they deliver packages for a global internet retail giant. Junior, the company\u2019s top delivery stork, is about to be promoted when he accidentally activates the Baby Making Machine, producing an adorable and wholly unauthorized baby girl...", "poster_path": "/5qVD5TD1CiALR5vUsMzh2BschVU.jpg", "popularity": 22.486}, {"adult": false, "backdrop_path": "/ecREZ3vYCqethftSDWK4we0X498.jpg", "genre_ids": [35, 18, 10749], "id": 4507, "original_language": "es", "original_title": "Jam\u00f3n, jam\u00f3n", "overview": "Jose Luis is an executive at his parents underwear factory where his girlfriend Sylvia works on the shop floor. When Sylvia becomes pregnant, Jose Luis promises her that he will marry her, most likely against the wishes of his parents. Jose Luis' mother is determined to break her son's engagement to a girl from a lower-class family, and hires Raul, a potential underwear model and would-be bullfighter to seduce Sylvia.", "poster_path": "/v5Fq01ZtYnA2Grxdd3g8CuGZARg.jpg", "release_date": "1992-09-03", "title": "Jamon Jamon", "video": false, "vote_average": 6.1, "vote_count": 143, "popularity": 14.21}, {"id": 1624, "video": false, "vote_count": 3193, "vote_average": 6.6, "title": "Liar Liar", "release_date": "1997-03-21", "original_language": "en", "original_title": "Liar Liar", "genre_ids": [35], "backdrop_path": "/r2HPHDQGEoOYUvFqbKmPADPa0Em.jpg", "adult": false, "overview": "Fletcher Reede is a fast-talking attorney and habitual liar. When his son Max blows out the candles on his fifth birthday he has just one wish - that his dad will stop lying for 24 hours. When Max's wish comes true, Fletcher discovers that his mouth has suddenly become his biggest liability.", "poster_path": "/qd8VcWKrE4cNfInl9Osb8o8h9KP.jpg", "popularity": 25.744}, {"id": 11427, "video": false, "vote_count": 245, "vote_average": 6.5, "title": "Dead End", "release_date": "2003-01-30", "original_language": "en", "original_title": "Dead End", "genre_ids": [27, 9648, 53], "backdrop_path": "/mStA8L0tXViSfd89KeXatNIA5u8.jpg", "adult": false, "overview": "Christmas Eve. On his way to his in-laws with his family, Frank Harrington decides to try a shortcut, for the first time in 20 years. It turns out to be the biggest mistake of his life.", "poster_path": "/51JnZig26aAUZ7zA4l5MkFCQ9th.jpg", "popularity": 9.211}, {"id": 41210, "video": false, "vote_count": 1113, "vote_average": 6.1, "title": "The Switch", "release_date": "2010-05-11", "original_language": "en", "original_title": "The Switch", "genre_ids": [35, 18, 10749], "backdrop_path": "/4UnmIN6aJhUiCIw8JlQuxUJ9vzR.jpg", "adult": false, "overview": "An unmarried 40-year-old woman turns to a turkey baster in order to become pregnant. Seven years later, she reunites with her best friend, who has been living with a secret: he replaced her preferred sperm sample with his own.", "poster_path": "/cikOGh4sUstWitAS3BTEpXsJ1vr.jpg", "popularity": 11.205}], "total_pages": 44, "total_results": 880}, "recommendations": {"page": 1, "results": [], "total_pages": 1, "total_results": 0}, "credits": {"cast": [{"cast_id": 1, "character": "Laurel Clive", "credit_id": "52fe4cc39251416c75124cb9", "gender": 1, "id": 101499, "name": "Hazel Court", "order": 0, "profile_path": "/arrnJNt1mJqH7NEwyYr7Mxz0eeY.jpg"}, {"cast_id": 2, "character": "Mary Kirk", "credit_id": "52fe4cc39251416c75124cbd", "gender": 0, "id": 1063412, "name": "Agn\u00e8s Laurent", "order": 1, "profile_path": "/jNtf8abv0WdnXmIuuPRgbvsAWJm.jpg"}, {"cast_id": 6, "character": "Scott Raymond", "credit_id": "52fe4cc39251416c75124cd3", "gender": 2, "id": 123905, "name": "Jack Watling", "order": 2, "profile_path": "/d6g1UNXikvpKxXsPB69UVgnzsUg.jpg"}, {"cast_id": 7, "character": "Dr. Malcolm Nettel", "credit_id": "52fe4cc39251416c75124cd7", "gender": 2, "id": 133870, "name": "John Bentley", "order": 3, "profile_path": "/57F66wTkkXdGOPpFr69wV0FsNCD.jpg"}, {"cast_id": 8, "character": "Police Sergeant", "credit_id": "52fe4cc39251416c75124cdb", "gender": 2, "id": 84444, "name": "Terry Scott", "order": 4, "profile_path": "/qkTsK45uw8JYkldkeooLNvUjd1H.jpg"}], "crew": [{"credit_id": "52fe4cc39251416c75124ccf", "department": "Writing", "gender": 2, "id": 25620, "job": "Screenplay", "name": "Jameson Brewer", "profile_path": null}, {"credit_id": "52fe4cc39251416c75124cc3", "department": "Directing", "gender": 2, "id": 77101, "job": "Director", "name": "Edward Buzzell", "profile_path": "/rJIp8s3dQfosC3m8KGzJEhRvLd3.jpg"}, {"credit_id": "52fe4cc39251416c75124cc9", "department": "Writing", "gender": 2, "id": 109704, "job": "Screenplay", "name": "Robert E. Kent", "profile_path": null}, {"credit_id": "5c2637970e0a263e1b0bd748", "department": "Costume & Make-Up", "gender": 1, "id": 2202098, "job": "Wardrobe Master", "name": "Barbara Gillett", "profile_path": null}]}}