{"adult": false, "backdrop_path": null, "belongs_to_collection": null, "budget": 0, "genres": [{"id": 12, "name": "Adventure"}, {"id": 10751, "name": "Family"}], "homepage": null, "id": 185048, "imdb_id": "tt0026038", "original_language": "en", "original_title": "The Adventures of Rex and Rinty", "overview": "A 12 episode serial starring Rex, the King of the Wild Horses and Rin-Tin-Tin, Jr. Rex is brought from the island of Sujan, where he is worshiped as a God-Horse, to the U.S. to be trained as a polo pony. He escapes, meets Rinty and with the help of Frank Bradley is returned to Sujan. The natives have been persuaded to turn against their God-Horse, however he is rescued just in time before he is burned as a sacrifice.", "popularity": 0.633, "poster_path": "/hmyTkeHyrwDNwoQkUcpv5IH5y5m.jpg", "production_companies": [{"id": 4743, "logo_path": null, "name": "Mascot Pictures", "origin_country": ""}], "production_countries": [{"iso_3166_1": "US", "name": "United States of America"}], "release_date": "1935-08-30", "revenue": 0, "runtime": 229, "spoken_languages": [{"iso_639_1": "en", "name": "English"}], "status": "Released", "tagline": "", "title": "The Adventures of Rex and Rinty", "video": false, "vote_average": 4.0, "vote_count": 1, "keywords": {"keywords": [{"id": 33637, "name": "super power"}, {"id": 179991, "name": "movie serial"}]}, "similar": {"page": 1, "results": [{"id": 1452, "video": false, "vote_count": 2594, "vote_average": 5.6, "title": "Superman Returns", "release_date": "2006-06-28", "original_language": "en", "original_title": "Superman Returns", "genre_ids": [28, 12, 878], "backdrop_path": "/uAVdwu4vEx0TwuC4ewp9RqplKEV.jpg", "adult": false, "overview": "Superman returns to discover his 5-year absence has allowed Lex Luthor to walk free, and that those he was closest to felt abandoned and have moved on. Luthor plots his ultimate revenge that could see millions killed and change the face of the planet forever, as well as ridding himself of the Man of Steel.", "poster_path": "/e3aLTaD5ppxo3en0GAGceekEPAe.jpg", "popularity": 20.912}, {"id": 1924, "video": false, "vote_count": 2085, "vote_average": 7.0, "title": "Superman", "release_date": "1978-12-13", "original_language": "en", "original_title": "Superman", "genre_ids": [28, 12, 878], "backdrop_path": "/nS0rEXPbkHI449SF6R4WUQvTVxE.jpg", "adult": false, "overview": "Mild-mannered Clark Kent works as a reporter at the Daily Planet alongside his crush, Lois Lane. Clark must summon his superhero alter-ego when the nefarious Lex Luthor launches a plan to take over the world.", "poster_path": "/rLTdj7oB9oxsYwuweeglWRzRng7.jpg", "popularity": 26.497}, {"id": 209112, "video": false, "vote_count": 12706, "vote_average": 5.8, "title": "Batman v Superman: Dawn of Justice", "release_date": "2016-03-23", "original_language": "en", "original_title": "Batman v Superman: Dawn of Justice", "genre_ids": [28, 12, 14], "backdrop_path": "/vsjBeMPZtyB7yNsYY56XYxifaQZ.jpg", "adult": false, "overview": "Fearing the actions of a god-like Super Hero left unchecked, Gotham City\u2019s own formidable, forceful vigilante takes on Metropolis\u2019s most revered, modern-day savior, while the world wrestles with what sort of hero it really needs. And with Batman and Superman at war with one another, a new threat quickly arises, putting mankind in greater danger than it\u2019s ever known before.", "poster_path": "/cGOPbv9wA5gEejkUN892JrveARt.jpg", "popularity": 40.938}, {"adult": false, "backdrop_path": "/pkqkxX7tkN0QLBtOYzugtBqyu0C.jpg", "genre_ids": [35, 878, 28, 12], "id": 9531, "original_language": "en", "original_title": "Superman III", "overview": "Aiming to defeat the Man of Steel, wealthy executive Ross Webster hires bumbling but brilliant Gus Gorman to develop synthetic kryptonite, which yields some unexpected psychological effects in the third installment of the 1980s Superman franchise. Between rekindling romance with his high school sweetheart and saving himself, Superman must contend with a powerful supercomputer.", "poster_path": "/pDjfBk3YkdvRK2VERvoHaXJdNxF.jpg", "release_date": "1983-06-17", "title": "Superman III", "video": false, "vote_average": 5.4, "vote_count": 938, "popularity": 14.943}, {"id": 8536, "video": false, "vote_count": 1270, "vote_average": 6.6, "title": "Superman II", "release_date": "1980-12-04", "original_language": "en", "original_title": "Superman II", "genre_ids": [28, 12, 878], "backdrop_path": "/1d0bPDy0Ud7g7vZ5qnKI6HsduLE.jpg", "adult": false, "overview": "Three escaped criminals from the planet Krypton test the Man of Steel's mettle. Led by General Zod, the Kryptonians take control of the White House and partner with Lex Luthor to destroy Superman and rule the world. But Superman, who attempts to make himself human in order to get closer to Lois, realizes he has a responsibility to save the planet.", "poster_path": "/uvxjXSfph2FD07A2jBG9NHJnl27.jpg", "popularity": 17.065}, {"adult": false, "backdrop_path": "/k88XKMUDhOM0df0uEJrjYgDBR7r.jpg", "genre_ids": [28, 878, 14, 12], "id": 298618, "original_language": "en", "original_title": "The Flash", "overview": "The standalone film with The Flash set in the DC Extended Universe.", "poster_path": "/8bWYaeBrTr5LegScAwNnUVeOKiz.jpg", "release_date": "2022-06-30", "title": "The Flash", "video": false, "vote_average": 0.0, "vote_count": 0, "popularity": 11.202}, {"id": 155, "video": false, "vote_count": 20760, "vote_average": 8.4, "title": "The Dark Knight", "release_date": "2008-07-16", "original_language": "en", "original_title": "The Dark Knight", "genre_ids": [28, 80, 18, 53], "backdrop_path": "/hqkIcbrOHL86UncnHIsHVcVmzue.jpg", "adult": false, "overview": "Batman raises the stakes in his war on crime. With the help of Lt. Jim Gordon and District Attorney Harvey Dent, Batman sets out to dismantle the remaining criminal organizations that plague the streets. The partnership proves to be effective, but they soon find themselves prey to a reign of chaos unleashed by a rising criminal mastermind known to the terrified citizens of Gotham as the Joker.", "poster_path": "/pKKvCaL1TPTVtbI6EeliyND3api.jpg", "popularity": 43.746}, {"id": 272, "video": false, "vote_count": 13437, "vote_average": 7.6, "title": "Batman Begins", "release_date": "2005-06-10", "original_language": "en", "original_title": "Batman Begins", "genre_ids": [28, 80, 18], "backdrop_path": "/9myrRcegWGGp24mpVfkD4zhUfhi.jpg", "adult": false, "overview": "Driven by tragedy, billionaire Bruce Wayne dedicates his life to uncovering and defeating the corruption that plagues his home, Gotham City.  Unable to work within the system, he instead creates a new identity, a symbol of fear for the criminal underworld - The Batman.", "poster_path": "/dr6x4GyyegBWtinPBzipY02J2lV.jpg", "popularity": 54.458}, {"id": 44912, "video": false, "vote_count": 4726, "vote_average": 5.1, "title": "Green Lantern", "release_date": "2011-06-16", "original_language": "en", "original_title": "Green Lantern", "genre_ids": [28, 12, 878, 53], "backdrop_path": "/gulyiqtyuzFRJCnvNwD6Z786kQi.jpg", "adult": false, "overview": "For centuries, a small but powerful force of warriors called the Green Lantern Corps has sworn to keep intergalactic order. Each Green Lantern wears a ring that grants him superpowers. But when a new enemy called Parallax threatens to destroy the balance of power in the Universe, their fate and the fate of Earth lie in the hands of the first human ever recruited.", "poster_path": "/zUSEYp9G7Hk9GZIfbPoOiSHvwHV.jpg", "popularity": 15.073}, {"id": 297762, "video": false, "vote_count": 13722, "vote_average": 7.3, "title": "Wonder Woman", "release_date": "2017-05-30", "original_language": "en", "original_title": "Wonder Woman", "genre_ids": [28, 12, 14], "backdrop_path": "/6iUNJZymJBMXXriQyFZfLAKnjO6.jpg", "adult": false, "overview": "An Amazon princess comes to the world of Man in the grips of the First World War to confront the forces of evil and bring an end to human conflict.", "poster_path": "/gfJGlDaHuWimErCr5Ql0I8x9QSy.jpg", "popularity": 44.687}, {"id": 9738, "video": false, "vote_count": 6168, "vote_average": 5.7, "title": "Fantastic Four", "release_date": "2005-06-29", "original_language": "en", "original_title": "Fantastic Four", "genre_ids": [28, 12, 14, 878], "backdrop_path": "/6RaH2Znu7dUQq7c8surf7hRp44f.jpg", "adult": false, "overview": "During a space voyage, four scientists are altered by cosmic rays: Reed Richards gains the ability to stretch his body; Sue Storm can become invisible; Johnny Storm controls fire; and Ben Grimm is turned into a super-strong \u2026 thing. Together, these \"Fantastic Four\" must now thwart the evil plans of Dr. Doom and save the world from certain destruction.", "poster_path": "/sYNOCHiWA9UDUHlPvRWztSo5hZV.jpg", "popularity": 23.086}, {"adult": false, "backdrop_path": "/o5T8rZxoWSBMYwjsUFUqTt6uMQB.jpg", "genre_ids": [28, 12, 14, 878], "id": 141052, "original_language": "en", "original_title": "Justice League", "overview": "Fuelled by his restored faith in humanity and inspired by Superman's selfless act, Bruce Wayne and Diana Prince assemble a team of metahumans consisting of Barry Allen, Arthur Curry and Victor Stone to face the catastrophic threat of Steppenwolf and the Parademons who are on the hunt for three Mother Boxes on Earth.", "poster_path": "/eifGNCSDuxJeS1loAXil5bIGgvC.jpg", "release_date": "2017-11-15", "title": "Justice League", "video": false, "vote_average": 6.2, "vote_count": 8353, "popularity": 37.398}, {"id": 49521, "video": false, "vote_count": 10455, "vote_average": 6.5, "title": "Man of Steel", "release_date": "2013-06-12", "original_language": "en", "original_title": "Man of Steel", "genre_ids": [28, 12, 14, 878], "backdrop_path": "/jYLh4mdOqkt30i7LTFs3o02UcGF.jpg", "adult": false, "overview": "A young boy learns that he has extraordinary powers and is not of this earth. As a young man, he journeys to discover where he came from and what he was sent here to do. But the hero in him must emerge if he is to save the world from annihilation and become the symbol of hope for all mankind.", "poster_path": "/xWlaTLnD8NJMTT9PGOD9z5re1SL.jpg", "popularity": 35.911}, {"adult": false, "backdrop_path": "/amXWhCkrsN7p9S6rnLCgD9fNwE6.jpg", "genre_ids": [28, 16, 878, 10751], "id": 13640, "original_language": "en", "original_title": "Superman: Doomsday", "overview": "When LexCorps accidentally unleash a murderous creature, Doomsday, Superman meets his greatest challenge as a champion. Based on the \"The Death of Superman\" storyline that appeared in DC Comics' publications in the 1990s", "poster_path": "/3of4nShmv1hBmrebOQqGlfZ9ZL0.jpg", "release_date": "2007-09-18", "title": "Superman: Doomsday", "video": false, "vote_average": 6.6, "vote_count": 283, "popularity": 12.342}, {"adult": false, "backdrop_path": "/spFSZBt83uruCwedMN8HR2uFklI.jpg", "genre_ids": [28, 12, 878], "id": 11411, "original_language": "en", "original_title": "Superman IV: The Quest for Peace", "overview": "With global superpowers engaged in an increasingly hostile arms race, Superman leads a crusade to rid the world of nuclear weapons. But Lex Luthor, recently sprung from jail, is declaring war on the Man of Steel and his quest to save the planet. Using a strand of Superman's hair, Luthor synthesizes a powerful ally known as Nuclear Man and ignites an epic battle spanning Earth and space.", "poster_path": "/q1P6UHWdrtZNkmdnoprV0ILfLlr.jpg", "release_date": "1987-07-23", "title": "Superman IV: The Quest for Peace", "video": false, "vote_average": 4.3, "vote_count": 640, "popularity": 11.9}, {"id": 49026, "video": false, "vote_count": 15150, "vote_average": 7.7, "title": "The Dark Knight Rises", "release_date": "2012-07-16", "original_language": "en", "original_title": "The Dark Knight Rises", "genre_ids": [28, 80, 18, 53], "backdrop_path": "/f6ljQGv7WnJuwBPty017oPWfqjx.jpg", "adult": false, "overview": "Following the death of District Attorney Harvey Dent, Batman assumes responsibility for Dent's crimes to protect the late attorney's reputation and is subsequently hunted by the Gotham City Police Department. Eight years later, Batman encounters the mysterious Selina Kyle and the villainous Bane, a new terrorist leader who overwhelms Gotham's finest. The Dark Knight resurfaces to protect a city that has branded him an enemy.", "poster_path": "/dEYnvnUfXrqvqeRSqvIEtmzhoA8.jpg", "popularity": 43.144}, {"id": 287947, "video": false, "vote_count": 4115, "vote_average": 7.0, "title": "Shazam!", "release_date": "2019-03-29", "original_language": "en", "original_title": "Shazam!", "genre_ids": [28, 35, 14], "backdrop_path": "/OIGX2lm5tmlCKvZUghtwHzoxxO.jpg", "adult": false, "overview": "A boy is given the ability to become an adult superhero in times of need with a single magic word.", "poster_path": "/xnopI5Xtky18MPhK40cZAGAOVeV.jpg", "popularity": 47.365}, {"id": 15359, "video": false, "vote_count": 261, "vote_average": 7.2, "title": "Wonder Woman", "release_date": "2009-03-03", "original_language": "en", "original_title": "Wonder Woman", "genre_ids": [28, 12, 16, 878], "backdrop_path": "/csEPWGKrb1B6hqMrCIkC2EUsldC.jpg", "adult": false, "overview": "On the mystical island of Themyscira, a proud and fierce warrior race of Amazons have raised a daughter of untold beauty, grace and strength: Princess Diana. When an Army fighter pilot, Steve Trevor, crash-lands on the island, the rebellious and headstrong Diana defies Amazonian law by accompanying Trevor back to civilization.", "poster_path": "/r0YlQIDuWBX0cgkoWIFtPHcgg66.jpg", "popularity": 11.485}, {"adult": false, "backdrop_path": "/m8pvzH17KRA4ChPjDDkU781oN8W.jpg", "genre_ids": [28, 12, 16], "id": 30061, "original_language": "en", "original_title": "Justice League: Crisis on Two Earths", "overview": "A heroic version of Lex Luthor from an alternate universe appears to recruit the Justice League to help save his Earth from the Crime Syndicate, an evil version of the League. What ensues is the ultimate battle of good versus evil in a war that threatens both planets and, through a devious plan launched by Batman's counterpart Owlman, puts the balance of all existence in peril.", "poster_path": "/mImQPVPKNGlqPDmewsZ7TLvHND.jpg", "release_date": "2010-02-23", "title": "Justice League: Crisis on Two Earths", "video": false, "vote_average": 7.2, "vote_count": 311, "popularity": 13.563}, {"id": 65291, "video": false, "vote_count": 215, "vote_average": 6.2, "title": "Green Lantern: Emerald Knights", "release_date": "2011-04-09", "original_language": "en", "original_title": "Green Lantern: Emerald Knights", "genre_ids": [28, 12, 16, 18, 878], "backdrop_path": "/2Nfwmw7tmz2LGgh0PtmlllQrbaa.jpg", "adult": false, "overview": "As the home planet of the Green Lantern Corps faces a battle with an ancient enemy, Hal Jordan prepares new recruit Arisia for the coming conflict by relating stories of the first Green Lantern and several of Hal's comrades.", "poster_path": "/ijFQVrfLMMMKQ4pUkNuRcrXKqMT.jpg", "popularity": 11.484}], "total_pages": 62, "total_results": 1236}, "recommendations": {"page": 1, "results": [], "total_pages": 1, "total_results": 0}, "credits": {"cast": [{"cast_id": 3, "character": "Rex, The King of Wild Horses", "credit_id": "52fe4cd39251416c75126d39", "gender": 0, "id": 196371, "name": "Rex", "order": 0, "profile_path": null}, {"cast_id": 4, "character": "Rinty", "credit_id": "52fe4cd39251416c75126d3d", "gender": 0, "id": 975852, "name": "Rin Tin Tin Jr.", "order": 1, "profile_path": "/p8bUlMLYsa0fk2KhXyf1H7hsyUg.jpg"}, {"cast_id": 5, "character": "Frank Bradley", "credit_id": "52fe4cd39251416c75126d41", "gender": 2, "id": 120704, "name": "Kane Richmond", "order": 2, "profile_path": "/bqsDtCPUD3ysHne42Jn70ADJrX7.jpg"}, {"cast_id": 6, "character": "Dorothy Bruce", "credit_id": "52fe4cd39251416c75126d45", "gender": 0, "id": 1290382, "name": "Norma Taylor", "order": 3, "profile_path": null}, {"cast_id": 7, "character": "Tanaga", "credit_id": "52fe4cd39251416c75126d49", "gender": 2, "id": 39801, "name": "Mischa Auer", "order": 4, "profile_path": "/qeOEHGEThuu7y9spmH60GdkdTUF.jpg"}, {"cast_id": 8, "character": "Jensen", "credit_id": "52fe4cd39251416c75126d4d", "gender": 0, "id": 90072, "name": "Smiley Burnette", "order": 5, "profile_path": "/dMHXxjK2qpLNLcccMRYZCA1rX6G.jpg"}, {"cast_id": 9, "character": "Crawford", "credit_id": "52fe4cd39251416c75126d51", "gender": 2, "id": 100920, "name": "Harry Woods", "order": 6, "profile_path": "/3dA8pb7nD6QCBCfEm7PW2boVPIL.jpg"}, {"cast_id": 10, "character": "Pasha", "credit_id": "52fe4cd39251416c75126d55", "gender": 2, "id": 131545, "name": "Pedro Regas", "order": 7, "profile_path": null}, {"cast_id": 11, "character": "Debor", "credit_id": "52fe4cd39251416c75126d59", "gender": 2, "id": 121097, "name": "Hooper Atchley", "order": 8, "profile_path": "/lp8zFYsRvxc0cfGLMu6J9JDtfNh.jpg"}, {"cast_id": 12, "character": "Wheeler", "credit_id": "52fe4cd39251416c75126d5d", "gender": 0, "id": 117646, "name": "Wheeler Oakman", "order": 9, "profile_path": "/5ZxNElQ2uT84egXB54Y1461Z1UV.jpg"}, {"cast_id": 13, "character": "Kinso", "credit_id": "52fe4cd39251416c75126d61", "gender": 2, "id": 99468, "name": "Victor Potel", "order": 10, "profile_path": "/obZCOU7xnxvlkLLfHtlZPs3EB3Q.jpg"}, {"cast_id": 14, "character": "Mr. Bruce", "credit_id": "52fe4cd39251416c75126d65", "gender": 0, "id": 141029, "name": "Allan Cavan", "order": 11, "profile_path": null}, {"cast_id": 15, "character": "Mitchell", "credit_id": "52fe4cd39251416c75126d69", "gender": 2, "id": 120785, "name": "Al Bridge", "order": 12, "profile_path": "/8Hg4xik4ux0MJfcRGAPvfLWJhPS.jpg"}, {"cast_id": 16, "character": "Jones", "credit_id": "52fe4cd39251416c75126d6d", "gender": 2, "id": 43836, "name": "Edmund Cobb", "order": 13, "profile_path": "/ss20cqXhEqdtoXVesH7nwKr3o0e.jpg"}, {"cast_id": 17, "character": "Martin", "credit_id": "52fe4cd39251416c75126d71", "gender": 2, "id": 117675, "name": "Charles King", "order": 14, "profile_path": "/1TxGsPspiWIROFOZIunBqAdHYJ3.jpg"}, {"cast_id": 18, "character": "Anderson", "credit_id": "52fe4cd39251416c75126d75", "gender": 2, "id": 34811, "name": "George Chesebro", "order": 15, "profile_path": "/5twW9TV67EiC8R0loCd3WXnKCms.jpg"}, {"cast_id": 19, "character": "McDonald", "credit_id": "52fe4cd39251416c75126d79", "gender": 0, "id": 88655, "name": "Jack Rockwell", "order": 16, "profile_path": "/8PjlaeemMyBGWIt5L5NUV3ZNB0J.jpg"}, {"cast_id": 20, "character": "Forest Ranger Jerry Morton", "credit_id": "52fe4cd39251416c75126d7d", "gender": 2, "id": 127520, "name": "Ralph Byrd", "order": 17, "profile_path": "/lAxObuqfkZcWUILSkihdVhyKosc.jpg"}], "crew": [{"credit_id": "52fe4cd39251416c75126d2f", "department": "Directing", "gender": 2, "id": 11431, "job": "Director", "name": "Ford Beebe", "profile_path": "/hYyHEnluu3sg9mCm5ZSl3oR8Jor.jpg"}, {"credit_id": "52fe4cd39251416c75126d35", "department": "Directing", "gender": 2, "id": 99463, "job": "Director", "name": "B. Reeves Eason", "profile_path": null}, {"credit_id": "52fe4cd39251416c75126d83", "department": "Writing", "gender": 0, "id": 1057674, "job": "Screenplay", "name": "John Rathmell", "profile_path": null}, {"credit_id": "52fe4cd39251416c75126d89", "department": "Writing", "gender": 0, "id": 32180, "job": "Screenplay", "name": "Barney A. Sarecky", "profile_path": null}, {"credit_id": "52fe4cd39251416c75126d8f", "department": "Writing", "gender": 2, "id": 99463, "job": "Screenplay", "name": "B. Reeves Eason", "profile_path": null}, {"credit_id": "52fe4cd39251416c75126d95", "department": "Writing", "gender": 2, "id": 103925, "job": "Screenplay", "name": "Maurice Geraghty", "profile_path": null}, {"credit_id": "52fe4cd39251416c75126d9b", "department": "Writing", "gender": 0, "id": 928437, "job": "Screenplay", "name": "Ray Trampe", "profile_path": null}, {"credit_id": "52fe4cd39251416c75126da1", "department": "Production", "gender": 2, "id": 88984, "job": "Producer", "name": "Nat Levine", "profile_path": null}, {"credit_id": "52fe4cd39251416c75126dad", "department": "Editing", "gender": 0, "id": 34327, "job": "Editor", "name": "Richard Fantl", "profile_path": null}, {"credit_id": "52fe4cd49251416c75126db3", "department": "Editing", "gender": 0, "id": 86004, "job": "Editor", "name": "Joseph H. Lewis", "profile_path": "/lMwmKsspovp268RzuoWXmhuQRI9.jpg"}, {"credit_id": "52fe4cd49251416c75126db9", "department": "Crew", "gender": 0, "id": 1290385, "job": "Sound Recordist", "name": "Clifford A. Ruberg", "profile_path": null}, {"credit_id": "52fe4cd49251416c75126dbf", "department": "Crew", "gender": 2, "id": 1013293, "job": "Stunts", "name": "Tracy Layne", "profile_path": null}, {"credit_id": "52fe4cd49251416c75126dc5", "department": "Crew", "gender": 0, "id": 8245, "job": "Stunts", "name": "Ted Mapes", "profile_path": "/fJalsImUHTPRY3O5ljNR6uDcG7D.jpg"}, {"credit_id": "52fe4cd49251416c75126dcb", "department": "Crew", "gender": 2, "id": 34103, "job": "Stunts", "name": "Eddie Parker", "profile_path": "/ncw2uHEi2GdVsojhCpRTMt86GtP.jpg"}, {"credit_id": "52fe4cd49251416c75126dd1", "department": "Crew", "gender": 0, "id": 121234, "job": "Stunts", "name": "Joe Yrigoyen", "profile_path": null}, {"credit_id": "52fe4cd49251416c75126dd7", "department": "Sound", "gender": 2, "id": 1010129, "job": "Music", "name": "Lee Zahler", "profile_path": null}, {"credit_id": "5384acdbc3a368059500b1d8", "department": "Camera", "gender": 2, "id": 32183, "job": "Director of Photography", "name": "William Nobles", "profile_path": null}]}}