{"adult": false, "backdrop_path": "/wjWPJU84UO8fEF9wvBcrjT35nc0.jpg", "belongs_to_collection": null, "budget": 0, "genres": [{"id": 18, "name": "Drama"}], "homepage": null, "id": 185061, "imdb_id": "tt0092160", "original_language": "da", "original_title": "Venner for altid", "overview": "Teenager Kristian moves to a new neighborhood. He makes friends with two very different boys in the new school: Henrik, an independent boy, and Patrick, the leader of a gang. Later on, Kristian is startled when he finds Patrick is gay and having an affair with the captain of a soccer team.", "popularity": 1.213, "poster_path": "/2a3sN8lhBn84YCuo9JH1koRpoRI.jpg", "production_companies": [{"id": 18349, "logo_path": null, "name": "Jens Ravn Film Produktion", "origin_country": ""}], "production_countries": [{"iso_3166_1": "DK", "name": "Denmark"}], "release_date": "1987-02-05", "revenue": 0, "runtime": 90, "spoken_languages": [{"iso_639_1": "da", "name": "Dansk"}, {"iso_639_1": "en", "name": "English"}], "status": "Released", "tagline": "Innocence is No Excuse", "title": "Friends Forever", "video": false, "vote_average": 10.0, "vote_count": 2, "keywords": {"keywords": [{"id": 237, "name": "gay"}, {"id": 6270, "name": "high school"}, {"id": 10180, "name": "homosexuality"}, {"id": 13042, "name": "football (soccer)"}, {"id": 18005, "name": "high school friends"}, {"id": 183570, "name": "danish"}]}, "similar": {"page": 1, "results": [{"id": 449176, "video": false, "vote_count": 3691, "vote_average": 8.1, "title": "Love, Simon", "release_date": "2018-02-16", "original_language": "en", "original_title": "Love, Simon", "genre_ids": [35, 18, 10749], "backdrop_path": "/rqMEeajyzSF4PpJtdCB816Iz8Vr.jpg", "adult": false, "overview": "Everyone deserves a great love story. But for seventeen-year old Simon Spier it's a little more complicated: he's yet to tell his family or friends he's gay and he doesn't know the identity of the anonymous classmate he's fallen for online.", "poster_path": "/5YUYg5q7QfC4IoNwNUtiwdiYKPr.jpg", "popularity": 17.201}, {"id": 21634, "video": false, "vote_count": 250, "vote_average": 7.9, "title": "Prayers for Bobby", "release_date": "2009-02-27", "original_language": "en", "original_title": "Prayers for Bobby", "genre_ids": [18, 36, 10770], "backdrop_path": "/pSjGsbqyKUzF8rHzL0vtVWV1pS6.jpg", "adult": false, "overview": "Bobby Griffith was his mother's favorite son, the perfect all-American boy growing up under deeply religious influences in Walnut Creek, California. Bobby was also gay. Struggling with a conflict no one knew of much less understood Bobby finally came out to his family.", "poster_path": "/d9TGJxEMkLTEF5lWAx1PLNDNpA0.jpg", "popularity": 9.034}, {"adult": false, "backdrop_path": "/qs4P8THxjbMZYc9QuZvzN95KzBM.jpg", "genre_ids": [18, 53, 9648], "id": 184352, "original_language": "fr", "original_title": "Tom \u00e0 la ferme", "overview": "A young man travels to an isolated farm for his lover's funeral where he's quickly drawn into a twisted, sexually charged game by his lover's aggressive brother.", "poster_path": "/wS4oYOHEKva9sMLOHSr7tW19SaQ.jpg", "release_date": "2013-09-02", "title": "Tom at the Farm", "video": false, "vote_average": 6.9, "vote_count": 408, "popularity": 7.884}, {"adult": false, "backdrop_path": "/qbrmEfBEcdrzHSAHgazJWmz3TSU.jpg", "genre_ids": [18], "id": 616229, "original_language": "en", "original_title": "The Male Gaze: The Heat of the Night", "overview": "When darkness falls, temperatures rise in these six stories about late night confessions, intimacy for sale, high speed hookups and full moon frissons. But when the sun comes up and reality reveals itself, will it have all been worth it?", "poster_path": "/e1gNLO829rkE73sBJ3aClZJHNXd.jpg", "release_date": "2019-07-15", "title": "The Male Gaze: The Heat of the Night", "video": false, "vote_average": 3.3, "vote_count": 3, "popularity": 7.834}, {"adult": false, "backdrop_path": "/6VhtzImP1UvYkIAHS4L8yfmceOM.jpg", "genre_ids": [18], "id": 26280, "original_language": "fr", "original_title": "J'ai tu\u00e9 ma m\u00e8re", "overview": "Hubert, a brash 17-year-old, is confused and torn by a love-hate relationship with his mother that consumes him more and more each day. After distressing ordeals and tragic episodes, Hubert will find his mother on the banks of Saint Lawrence river, where he grew up, and where a murder will be committed: the murder of childhood.", "poster_path": "/cxb02CLALt9He1Dt0BIDKj9fdvM.jpg", "release_date": "2009-06-05", "title": "I Killed My Mother", "video": false, "vote_average": 7.7, "vote_count": 655, "popularity": 11.451}, {"adult": false, "backdrop_path": "/4NJplkljN06NQLMLSUNmrIsBjBZ.jpg", "genre_ids": [35, 18], "id": 400547, "original_language": "en", "original_title": "Hurricane Bianca", "overview": "Hurricane Bianca is a revenge comedy about a New York teacher who moves to a small town in Texas, gets fired for being gay, and returns disguised in drag to get revenge on the people who were nasty to him.", "poster_path": "/w1QM09R1TqwHTb5UA8X8jR2yh4x.jpg", "release_date": "2016-06-03", "title": "Hurricane Bianca", "video": false, "vote_average": 6.2, "vote_count": 212, "popularity": 9.77}, {"adult": false, "backdrop_path": "/useuHJQ5HOoEWkAvEjL1FW1sUfe.jpg", "genre_ids": [18], "id": 376867, "original_language": "en", "original_title": "Moonlight", "overview": "The tender, heartbreaking story of a young man\u2019s struggle to find himself, told across three defining chapters in his life as he experiences the ecstasy, pain, and beauty of falling in love, while grappling with his own sexuality.", "poster_path": "/qAwFbszz0kRyTuXmMeKQZCX3Q2O.jpg", "release_date": "2016-10-21", "title": "Moonlight", "video": false, "vote_average": 7.4, "vote_count": 4410, "popularity": 21.716}, {"adult": false, "backdrop_path": "/qWZSYN2tBoZdUY9NDdvSKQ6OH4u.jpg", "genre_ids": [18], "id": 377154, "original_language": "fr", "original_title": "Quand on a 17 Ans", "overview": "Set in the beautiful high Pyrenees in south-west France, Damien lives with his mother Marianne, a doctor, while his father, a pilot, is on a tour of duty abroad with the French military. At school, Damien is bullied by Thomas,  who lives in the farming community up in the mountains, nut learns to fight back. The boys find themselves living together when Marianne invites Thomas to come and stay with them while his mother is ill in hospital. Damien must learn to live with the boy who terrorised him.", "poster_path": "/ogfzBX1iNzgaCBTmRRf6c69L19k.jpg", "release_date": "2016-02-27", "title": "Being 17", "video": false, "vote_average": 6.9, "vote_count": 210, "popularity": 6.56}, {"adult": false, "backdrop_path": "/1l5NKzPZmvrI1BygrGz5png96Wl.jpg", "genre_ids": [18, 10749], "id": 382475, "original_language": "en", "original_title": "The Pass", "overview": "The night before their debut game, two professional soccer players share a kiss. In a sporting world where image is everything, this surprising \u2018pass\u2019 sets the men up for a contrasting decade of fame and failure, full of secrets and denial.", "poster_path": "/1HoULoDol45qOr4LiKBwJdfU1pr.jpg", "release_date": "2016-03-16", "title": "The Pass", "video": false, "vote_average": 6.9, "vote_count": 67, "popularity": 5.722}, {"adult": false, "backdrop_path": "/ztD8x6kFrhyPIrdbEqWkxwKEgzv.jpg", "genre_ids": [80, 18], "id": 383526, "original_language": "es", "original_title": "Nunca vas a estar solo", "overview": "Introverted Juan, manager of a mannequin factory, lives alone with his eighteen-year-old gay son, Pablo. Whilst Pablo blithely studies dance, Juan is hoping that, after twenty-five years at the firm, his boss will consider him for a partnership. When Pablo is badly wounded in a brutal homophobic attack which sees him hospitalised, his father realises just how far they have become estranged. A lack of witnesses and expensive medical bills force Juan to leave the quiet stability of his life for good and reposition himself in a world where there is discrimination. Time and again his efforts come to nought, until one night on the streets of Santiago he makes up his own rules in order to save his son.", "poster_path": "/lGReDf0NnrAbdXaU1SbFyKnJJH4.jpg", "release_date": "2016-02-13", "title": "You'll Never Be Alone", "video": false, "vote_average": 7.1, "vote_count": 17, "popularity": 2.412}, {"adult": false, "backdrop_path": "/sZo96MCFy4yFaJFKIfj4hbyvTci.jpg", "genre_ids": [18, 10749], "id": 26371, "original_language": "en", "original_title": "Maurice", "overview": "After his lover rejects him, a young man trapped by the oppressiveness of Edwardian society tries to come to terms with and accept his sexuality.", "poster_path": "/4MI2y8XViPrDiKs1p0QC4bTeZzf.jpg", "release_date": "1987-08-21", "title": "Maurice", "video": false, "vote_average": 7.6, "vote_count": 161, "popularity": 11.282}, {"adult": false, "backdrop_path": "/r3DKR4VybkjYP2w4wYFIf2cEPc.jpg", "genre_ids": [10749, 18], "id": 322127, "original_language": "de", "original_title": "You & I", "overview": "Summer in Berlin. Jonas is planning a trip through the little known area of the Uckermark in preparation for a photography project. He invites his best friend, Phillip, to come along. When they pick up a hitchhiker named Boris, the friendship of the two starts to fray. Maybe three\u2019s a crowd after all? By the end of the summer, things between Jonas and Phillip won\u2019t ever be the same again.", "poster_path": "/59OmxhLZVh3ZXLAu6iaywYYx01S.jpg", "release_date": "2015-09-16", "title": "You & I", "video": false, "vote_average": 7.4, "vote_count": 22, "popularity": 5.241}, {"id": 10139, "video": false, "vote_count": 1269, "vote_average": 7.3, "title": "Milk", "release_date": "2008-11-05", "original_language": "en", "original_title": "Milk", "genre_ids": [18, 36], "backdrop_path": "/i8NcYenVqMzB95pVz8YOPIqmGj8.jpg", "adult": false, "overview": "The true story of Harvey Milk, the first openly gay man ever elected to public office. In San Francisco in the late 1970s, Harvey Milk becomes an activist for gay rights and inspires others to join him in his fight for equal rights that should be available to all Americans.", "poster_path": "/aTbhbnq9YnKJM6wGIiedfJaoV6m.jpg", "popularity": 13.064}, {"id": 424694, "video": false, "vote_count": 9728, "vote_average": 8.0, "title": "Bohemian Rhapsody", "release_date": "2018-10-24", "original_language": "en", "original_title": "Bohemian Rhapsody", "genre_ids": [18, 10402], "backdrop_path": "/93xA62uLd5CwMOAs37eQ7vPc1iV.jpg", "adult": false, "overview": "Singer Freddie Mercury, guitarist Brian May, drummer Roger Taylor and bass guitarist John Deacon take the music world by storm when they form the rock 'n' roll band Queen in 1970. Hit songs become instant classics. When Mercury's increasingly wild lifestyle starts to spiral out of control, Queen soon faces its greatest challenge yet \u2013 finding a way to keep the band together amid the success and excess.", "poster_path": "/lHu1wtNaczFPGFDTrjCSzeLPTKN.jpg", "popularity": 37.217}, {"adult": false, "backdrop_path": "/cLOekK7EmHB1beYUYEXIlcr6mpS.jpg", "genre_ids": [10752, 36, 28, 12, 18, 10749], "id": 1966, "original_language": "en", "original_title": "Alexander", "overview": "Alexander, the King of Macedonia, leads his legions against the giant Persian Empire. After defeating the Persians, he leads his army across the then known world, venturing farther than any westerner had ever gone, all the way to India.", "poster_path": "/cJrnmbsFm5cEt0pHZZ2a1ueH5aT.jpg", "release_date": "2004-11-21", "title": "Alexander", "video": false, "vote_average": 5.8, "vote_count": 1989, "popularity": 29.042}, {"adult": false, "backdrop_path": "/1Z53X8Rj7ebuIUHU0XqizkFMPOK.jpg", "genre_ids": [18, 10749], "id": 17483, "original_language": "en", "original_title": "Shelter", "overview": "Forced to give up his dreams of art school, Zach works dead-end jobs to support his sister and her son. Questioning his life, he paints, surfs and hangs out with his best friend, Gabe. When Gabe's older brother returns home for the summer, Zach suddenly finds himself drawn into a relationship he didn't expect.", "poster_path": "/auMRglisVmM01BRGAWCjv7AuUeE.jpg", "release_date": "2007-06-16", "title": "Shelter", "video": false, "vote_average": 7.7, "vote_count": 249, "popularity": 11.276}, {"adult": false, "backdrop_path": "/nEug8rlR13l1vkSUpeCkE5J3QrZ.jpg", "genre_ids": [18, 10749], "id": 4369, "original_language": "en", "original_title": "Juste une question d'amour", "overview": "After his gay cousin dies from hepatitis, young Laurent, who lives with his best friend Carole, falls in love with Cedric, a plant scientist. He's afraid to inform his conservative parents that he is gay.", "poster_path": "/c4dP2ZMjAGTquCS0kNkfN9q1wMv.jpg", "release_date": "2000-01-01", "title": "Just a Question of Love", "video": false, "vote_average": 7.7, "vote_count": 59, "popularity": 8.298}, {"adult": false, "backdrop_path": "/8OfLHQTBRh6WSEB0ZnrpLxXRHdK.jpg", "genre_ids": [18], "id": 338189, "original_language": "fr", "original_title": "Juste la fin du monde", "overview": "Louis, a terminally ill writer, returns home after a long absence to tell his family that he is dying.", "poster_path": "/zD9TQOqZrgTjI7XfHPNjNSki7C0.jpg", "release_date": "2016-08-26", "title": "It's Only the End of the World", "video": false, "vote_average": 7.3, "vote_count": 979, "popularity": 11.214}, {"id": 11703, "video": false, "vote_count": 106, "vote_average": 7.1, "title": "Kiss of the Spider Woman", "release_date": "1985-07-26", "original_language": "en", "original_title": "Kiss of the Spider Woman", "genre_ids": [18], "backdrop_path": "/wS4DaBON5GtMdD3UQcVyqqKXGs9.jpg", "adult": false, "overview": "Luis Molina and Valentin Arregui are cell mates in a South American prison. Luis, a gay man, is found guilty of immoral behaviour and Valentin is a political prisoner. To escape reality Luis invents romantic movies, while Valentin tries to keep his mind on the situation he's in. During the time they spend together, the two men come to understand and respect one another.", "poster_path": "/xvKVV1plZeJmwUZT9fMoUIugsCx.jpg", "popularity": 9.556}, {"adult": false, "backdrop_path": "/dzcp30eKApjCKR2Xw4Ml2jlJ5EK.jpg", "genre_ids": [18, 10749], "id": 261776, "original_language": "es", "original_title": "El tercero", "overview": "After meeting in a chat room, Fede (22) arrives at a downtown building to have an intimate encounter with a gay couple older than him. As the night unfolds, Fede has an intense and telling experience. The next morning finds him different, as if suddenly he had found a new possible way to love.", "poster_path": "/yNfgEVfg41Xqu3Z1O8tZUs1oRUN.jpg", "release_date": "2014-03-27", "title": "The Third One", "video": false, "vote_average": 5.4, "vote_count": 21, "popularity": 6.061}], "total_pages": 53, "total_results": 1053}, "recommendations": {"page": 1, "results": [], "total_pages": 1, "total_results": 0}, "credits": {"cast": [{"cast_id": 1, "character": "Rektor Kallenbach", "credit_id": "52fe4cd49251416c75126eb1", "gender": 0, "id": 587064, "name": "Rita Angela", "order": 0, "profile_path": null}, {"cast_id": 2, "character": "Dan Carstensen", "credit_id": "52fe4cd49251416c75126eb5", "gender": 0, "id": 1096890, "name": "Carsten Morch", "order": 1, "profile_path": null}, {"cast_id": 3, "character": "Anders", "credit_id": "52fe4cd49251416c75126eb9", "gender": 0, "id": 1096924, "name": "Lars Kylmann Jacobsen", "order": 2, "profile_path": null}, {"cast_id": 4, "character": "Berit", "credit_id": "52fe4cd49251416c75126ebd", "gender": 0, "id": 1096920, "name": "Trine Torp Hansen", "order": 3, "profile_path": null}, {"cast_id": 5, "character": "Patrick", "credit_id": "52fe4cd49251416c75126ec1", "gender": 0, "id": 1096886, "name": "Thomas Sigsgaard", "order": 4, "profile_path": null}, {"cast_id": 6, "character": "Kristian", "credit_id": "52fe4cd49251416c75126ec5", "gender": 0, "id": 1096885, "name": "Claus Bender Mortensen", "order": 5, "profile_path": null}, {"cast_id": 7, "character": "Mads", "credit_id": "52fe4cd49251416c75126ec9", "gender": 0, "id": 1096916, "name": "Morten Stig Christensen", "order": 6, "profile_path": null}, {"cast_id": 8, "character": "Henrik", "credit_id": "52fe4cd49251416c75126ecd", "gender": 0, "id": 1096887, "name": "Thomas Elholm", "order": 7, "profile_path": null}], "crew": [{"credit_id": "52fe4cd49251416c75126ed3", "department": "Directing", "gender": 0, "id": 1096891, "job": "Director", "name": "Stefan Henszelman", "profile_path": null}, {"credit_id": "52fe4cd49251416c75126ed9", "department": "Writing", "gender": 0, "id": 1096891, "job": "Writer", "name": "Stefan Henszelman", "profile_path": null}, {"credit_id": "52fe4cd49251416c75126edf", "department": "Writing", "gender": 0, "id": 1096893, "job": "Writer", "name": "Alexander Korschen", "profile_path": null}, {"credit_id": "52fe4cd49251416c75126ee5", "department": "Production", "gender": 0, "id": 1185584, "job": "Producer", "name": "Jens Ravn", "profile_path": null}, {"credit_id": "52fe4cd49251416c75126eeb", "department": "Crew", "gender": 0, "id": 1273907, "job": "Cinematography", "name": "Marcel Berga", "profile_path": null}, {"credit_id": "52fe4cd49251416c75126ef1", "department": "Sound", "gender": 0, "id": 1273908, "job": "Music", "name": "Kim Sagild", "profile_path": null}, {"credit_id": "52fe4cd49251416c75126ef7", "department": "Sound", "gender": 0, "id": 1273909, "job": "Music", "name": "Christian Skeel", "profile_path": null}, {"credit_id": "52fe4cd49251416c75126efd", "department": "Sound", "gender": 0, "id": 1273910, "job": "Music", "name": "Morti Vizki", "profile_path": null}]}}