{"adult": false, "backdrop_path": null, "belongs_to_collection": null, "budget": 0, "genres": [{"id": 99, "name": "Documentary"}], "homepage": null, "id": 185292, "imdb_id": "tt0065541", "original_language": "en", "original_title": "Chesty: A Tribute to a Legend", "overview": "A tribute documentary on the most decorated U.S. Marine, General Lewis B. 'Chesty' Puller.", "popularity": 1.37, "poster_path": "/pYQwglASzM5xrDTlr6gfeZvFD15.jpg", "production_companies": [], "production_countries": [{"iso_3166_1": "US", "name": "United States of America"}], "release_date": "1976-04-04", "revenue": 0, "runtime": 47, "spoken_languages": [{"iso_639_1": "en", "name": "English"}], "status": "Released", "tagline": "", "title": "Chesty: A Tribute to a Legend", "video": false, "vote_average": 7.0, "vote_count": 1, "keywords": {"keywords": []}, "similar": {"page": 1, "results": [{"id": 84288, "video": false, "vote_count": 73, "vote_average": 7.5, "title": "The Invisible War", "release_date": "2012-01-20", "original_language": "en", "original_title": "The Invisible War", "genre_ids": [80, 99, 18, 36], "backdrop_path": "/2GnYQgDfCI2uRb7Nytwnkayi6s7.jpg", "adult": false, "overview": "An investigative and powerfully emotional documentary about the epidemic of rape of soldiers within the US military, the institutions that perpetuate and cover up its existence, and its profound personal and social consequences.", "poster_path": "/ph9Lo3pMNmTXFQa9wZVdCKL2tRe.jpg", "popularity": 8.357}, {"id": 1562, "video": false, "vote_count": 2398, "vote_average": 6.5, "title": "28 Weeks Later", "release_date": "2007-04-26", "original_language": "en", "original_title": "28 Weeks Later", "genre_ids": [27, 878, 53], "backdrop_path": "/q4GEKbi4ZO2lhZJg0Zr6kYNKQgm.jpg", "adult": false, "overview": "The inhabitants of the British Isles have lost their battle against the onslaught of disease, as the deadly rage virus has killed every citizen there. Six months later, a group of Americans dare to set foot on the isles, convinced the danger has come and gone. But it soon becomes all too clear that the scourge continues to live, waiting to pounce on its next victims.", "poster_path": "/bElOpwpp45BGMWrMBdZAy9j3Vx7.jpg", "popularity": 28.235}, {"id": 11169, "video": false, "vote_count": 188, "vote_average": 6.2, "title": "Spartan", "release_date": "2004-03-12", "original_language": "en", "original_title": "Spartan", "genre_ids": [28, 80, 18, 9648, 53], "backdrop_path": "/fIVMlNTjxvOSgNolqCGMzfM5HWD.jpg", "adult": false, "overview": "U.S. government agent Scott is assigned to rescue the daughter of a high-ranking government official. As willing as he is to bend the rules to get things done, though, Scott is shocked to find that others are willing to go even further to protect a political career.", "poster_path": "/qvqHhBcuzWI3kw4qxsGhDod64op.jpg", "popularity": 10.43}, {"adult": false, "backdrop_path": "/uMsgP6YoeNLn6ilBgxUBcwd3JxF.jpg", "genre_ids": [28, 12, 878, 53], "id": 29621, "original_language": "en", "original_title": "Solo", "overview": "An android fighting-machine (Mario Van Peebles) is charged with destroying a small brigade of rebels in a Latin American war who are fighting to maintain their freedom and protect their village. Contrary to his programming, Peebles decides to stay and assist the rebels in their plight. Having gained this information, his \"creators\" develop a more powerful android to try and defeat him.", "poster_path": "/9qqdpyYVnU5zY5KsTKCIp5gpZoV.jpg", "release_date": "1996-08-23", "title": "Solo", "video": false, "vote_average": 4.1, "vote_count": 31, "popularity": 7.556}, {"id": 14439, "video": false, "vote_count": 21, "vote_average": 7.1, "title": "The Pentagon Wars", "release_date": "1998-02-28", "original_language": "en", "original_title": "The Pentagon Wars", "genre_ids": [35, 18, 10752], "backdrop_path": "/aI0qkCp3MahGuNWaUPdzh2ttoUW.jpg", "adult": false, "overview": "From the director of \u201cMade In America\u201d and \u201cThe Money Pit\u201d comes a hilarious look at one of the most expensive blunders in military history. Over 17 years and almost as many billion dollars have gone into devising the BFV (Bradley Fighting Vehicle). There's only one problem. . . it doesn't work.", "poster_path": "/8TrUPNIxlExYhp3fb71jOa0zNRZ.jpg", "popularity": 8.711}, {"adult": false, "backdrop_path": "/uq22gTprpWAmI6rE6NSxxRvuXcd.jpg", "genre_ids": [99], "id": 36715, "original_language": "en", "original_title": "Police State IV: The Rise of FEMA", "overview": "POLICE STATE 4 chronicles the sickening depths to which our republic has fallen. Veteran documentary filmmaker Alex Jones conclusively proves the existence of a secret network of FEMA camps, now being expanded nationwide. The military industrial complex is transforming our once free nation into a giant prison camp. A cashless society control grid, constructed in the name of fighting terrorism, was actually built to enslave the American people. Body scanners, sound cannons, citizen spies, staged terror and cameras on every street corner -- it's only the beginning of the New World Order's hellish plan. This film exposes how the \"Continuity of Government\" program has established an all powerful shadow state. Prepare to enter the secretive world of emergency dictatorship, FEMA camps, and a shredded Constitution.", "poster_path": "/w14ZeGD55q5qtHtT28nIO3Dv8r1.jpg", "release_date": "2010-04-20", "title": "Police State IV: The Rise of FEMA", "video": false, "vote_average": 6.7, "vote_count": 7, "popularity": 2.601}, {"adult": false, "backdrop_path": "/bJJnrhhr8KezYLdfb0eZuJlNzpb.jpg", "genre_ids": [35, 10402, 10749], "id": 43517, "original_language": "en", "original_title": "This Is the Army", "overview": "In WW I dancer Jerry Jones stages an all-soldier show on Broadway, called Yip Yip Yaphank. Wounded in the War, he becomes a producer. In WW II his son Johnny Jones, who was before his fathers assistant, gets the order to stage a knew all-soldier show, called THIS IS THE ARMY. But in his pesonal life he has problems, because he refuses to marry his fianc\u00e9e until the war is over.", "poster_path": "/r3ORgeLsguV35bzKWBGP1YsjRNh.jpg", "release_date": "1943-08-14", "title": "This Is the Army", "video": false, "vote_average": 6.6, "vote_count": 9, "popularity": 3.332}, {"adult": false, "backdrop_path": "/5UWF72BCymCzuKSaSVPpn1nacEV.jpg", "genre_ids": [18, 10752], "id": 74714, "original_language": "fr", "original_title": "Di\u00ean Bi\u00ean Phu", "overview": "Vietnam, 1954. An American reporter finds himself in the middle of the battle of \u0110i\u1ec7n Bi\u00ean Ph\u1ee7, between the French army and the Vietminh.", "poster_path": "/snqmAzSevLzf8hip90clpdIvVip.jpg", "release_date": "1992-03-04", "title": "Di\u00ean Bi\u00ean Phu", "video": false, "vote_average": 6.0, "vote_count": 11, "popularity": 3.91}, {"adult": false, "backdrop_path": null, "genre_ids": [99], "id": 185297, "original_language": "en", "original_title": "Korea", "overview": "An orientation film for American soldiers traveling to Korea in the years after the war.", "poster_path": null, "release_date": "1959-01-01", "title": "Korea", "video": false, "vote_average": 0.0, "vote_count": 0, "popularity": 1.4}, {"adult": false, "backdrop_path": null, "genre_ids": [99, 10752], "id": 235039, "original_language": "en", "original_title": "Coming Out Under Fire", "overview": "A historical account of military policy regarding homosexuality during World War II. The documentary includes interviews with several homosexual WWII veterans.", "poster_path": "/aLjrSIGD4HHROVaCLmUfyoTz4Ov.jpg", "release_date": "1994-01-01", "title": "Coming Out Under Fire", "video": false, "vote_average": 6.0, "vote_count": 2, "popularity": 1.52}, {"adult": false, "backdrop_path": "/kbSWIoBV3vtZ6zoKFvIoiq9LG6G.jpg", "genre_ids": [99], "id": 247605, "original_language": "en", "original_title": "Attack and Capture: The Story of U-Boat 505", "overview": "On June 4, 1944 Captain Daniel Gallery and his men of the U.S. Naval Task Force 22.3 did the nearly impossible - they captured a German U-boat. It was the first enemy vessel-of-war captured in battle on the high seas by the U.S. Navy since 1815. Climb aboard the historic U-505 and relive its journey from a powerhouse of the German fleet to a display at the Museum of Science and Industry in Chicago. Witness archival footage and rare interviews with both German and American crew members involved in the capture of the U-505. And view even rarer footage of Captains Daniel Gallery and Harold Lange, captain of the 505 at the time of its capture..", "poster_path": "/2ocMJK0EGVzWPCiOFSSOirIojjT.jpg", "release_date": "2002-01-01", "title": "Attack and Capture: The Story of U-Boat 505", "video": false, "vote_average": 0.0, "vote_count": 0, "popularity": 1.091}, {"adult": false, "backdrop_path": "/1uQffhBSBNo3v7N1naZyvfXEsVC.jpg", "genre_ids": [99], "id": 259086, "original_language": "en", "original_title": "Working Class", "overview": "Loosely based on Charles Dicken\u2019s book \u201cA Tale of Two Cities\u201d, Working Class tells the tale of underground street artists Mike Giant and Mike Maxwell and their decade long friendship that started with a tattoo. The story is told through the cities they call home by, cutting back and forth between the neighborhoods of San Francisco and San Diego, as the artists talk about their life philosophies and the work they create.", "poster_path": "/gBe5znMDscKcrnWAAQn8spvJPVi.jpg", "release_date": "2011-09-08", "title": "Working Class", "video": false, "vote_average": 5.3, "vote_count": 2, "popularity": 1.154}, {"adult": false, "backdrop_path": "/radGoTC6VhRlie52H2LYsEhFE6B.jpg", "genre_ids": [99], "id": 265145, "original_language": "en", "original_title": "Russian Air Force 100th Anniversary Airshow", "overview": "100th Anniversary Airshow Russian Air Force Zhukovsky 2012  The Russian Air Force celebrated its 100th Anniversary at Zhukovsky near Moscow with the best air show that PlanesTV has ever attended.  It was not just the content that made this show so special - the weather was magnificent; clear air and some dramatic cloud formations and our camera positions delivered some breathtaking material. We recorded on site for 3 days - the general public was only permitted entry on the last day.", "poster_path": "/16THCtKXl1uEjs8Gq39j29spy71.jpg", "release_date": "2013-05-03", "title": "Russian Air Force 100th Anniversary Airshow", "video": false, "vote_average": 0.0, "vote_count": 0, "popularity": 0.808}, {"adult": false, "backdrop_path": "/kBktF87PaWkkMXrdDso599frglt.jpg", "genre_ids": [99], "id": 75283, "original_language": "cs", "original_title": "\u010cesk\u00fd m\u00edr", "overview": "From the makers of legendary CZECH DREAM, a hilarious documentary about a hoax  hypermarket, comes CZECH PEACE, a new playfully explosive flm about the mayor of a  small Czech village and his attempts to foil the American plan to build its 762nd military base  right on his doorstep. The players in this story are everyone from villagers to George W. Bush,  Condoleezza Rice, Barack Obama, peace activists and lobbyists representing American  arms manufacturers. Can the Mayor of Trokavec (population 80) take the US on? CZECH PEACE shows the workings of geopolitics and the way they affect the little people.  The personal clashes with the impersonal, the specifc with the universal, and an individual  with the so-called great history.", "poster_path": "/tyCgu936lzOgOyBgAOQhLnIG4Ih.jpg", "release_date": "2010-05-06", "title": "Czech Peace", "video": false, "vote_average": 5.8, "vote_count": 3, "popularity": 1.4}, {"adult": false, "backdrop_path": null, "genre_ids": [99], "id": 96027, "original_language": "en", "original_title": "Pethainontas Gia Tin Alitheia", "overview": "The film \u2013 documentary \u201cShooting vs Shooting\u201d presents a group of astonishing stories about journalists who were afflicted in the Iraq war, by following a journalist\u2019s journey in Baghdad in 2009 and the story of a mother who seeks for an answer to the question why her son got killed while his only weapon was his camera. \u201cShooting vs Shooting\u201d narrates incredible moments and adventures, reveals unknown sides to the facts and shows the dramatic stories of media workers who lost their lives, trying to freely broadcast the truth to the public opinion. Through the documentary, we witness the absurdity of war, the responsibilities of governments and armies and the atrociousness of blinded fanatics.", "poster_path": "/X92Uq6uiBKVyIFfxMEMTEWGnnL.jpg", "release_date": "", "title": "Shooting VS Shooting", "video": false, "vote_average": 0.0, "vote_count": 0, "popularity": 0.676}, {"id": 212161, "video": false, "vote_count": 17, "vote_average": 5.7, "title": "Code Geass: Akito the Exiled 2: The Wyvern Divided", "release_date": "2013-09-14", "original_language": "ja", "original_title": "\u30b3\u30fc\u30c9\u30ae\u30a2\u30b9 \u4ea1\u56fd\u306e\u30a2\u30ad\u30c8 \u7b2c2\u7ae0\u300c\u5f15\u304d\u88c2\u304b\u308c\u3057\u7ffc\u7adc\u300d", "genre_ids": [28, 16], "backdrop_path": "/cO5EOqiuhklv0t9UECzPG33UbP9.jpg", "adult": false, "overview": "The war between Euro Britannia and the European Union  continues. New orders are given to the W-0 Unit. To land in the middle of the enemy territory as a diversion.  The pilots of the W-0 Unit consist only of the commanding officer, Leila, the only surviving Japanese from their last battle, Akito, and the three that escaped from the Eleven ghettos and lived in the underworld, Ryou, Yukiya, and Ayano. With everyone holding their respective expectations, the operation moves forward.  On the other side in Euro Britannia, Shin, who made his benefactor commit suicide with the mysterious power of \u201cGeass\u201d, is appointed the leader of the Knights of St. Michael. As Shin steadily advances for the sake of his own ambition, he and his subordinates in the Ashura squad are given orders to deploy.  The one that lives in order to fight, and the one that fights in order to live.", "poster_path": "/oyklF3LHto3jdwrVmQaze5Q3EDM.jpg", "popularity": 5.174}, {"adult": false, "backdrop_path": "/8VKW0FHoR9xzqBjtYZDn8qrCYs8.jpg", "genre_ids": [35], "id": 43313, "original_language": "en", "original_title": "The Teahouse of the August Moon", "overview": "An Okinawan translator introduces U.S. occupation forces to the joys of local life.", "poster_path": "/tiGogoqJ1RNWX3CXq6SGcTgIIAG.jpg", "release_date": "1956-01-01", "title": "The Teahouse of the August Moon", "video": false, "vote_average": 6.3, "vote_count": 17, "popularity": 4.546}, {"adult": false, "backdrop_path": "/1GC535BShuiqo9q5ZCO1jmZMlsn.jpg", "genre_ids": [27, 878], "id": 29347, "original_language": "en", "original_title": "Fiend Without a Face", "overview": "An American airbase in Canada provokes resentment from the nearby residents after fallout from nuclear experiments at the base are blamed for a recent spate of disappearances. A captain from the airbase is assigned to investigate, and begins to suspect that an elderly British scientist who lives near the base and conducts research in the field of mind over matter knows more than he is letting on..", "poster_path": "/mvy9fNmdFIMlStKVFWUvMP8JpNX.jpg", "release_date": "1958-07-03", "title": "Fiend Without a Face", "video": false, "vote_average": 6.1, "vote_count": 33, "popularity": 3.564}, {"adult": false, "backdrop_path": "/eyk1w3QpJ8O5glNBCdLogl7xw88.jpg", "genre_ids": [35, 18], "id": 61934, "original_language": "en", "original_title": "The Long Gray Line", "overview": "The life story of a salt-of-the-earth Irish immigrant, who becomes an Army Noncommissioned Officer and spends his 50 year career at the United States Military Academy at West Point. This includes his job-related experiences as well as his family life and the relationships he develops with young cadets with whom he befriends. Based on the life of a real person.", "poster_path": "/dc45HvAVsg6j9y1Pq7lJKbDwhaX.jpg", "release_date": "1955-02-09", "title": "The Long Gray Line", "video": false, "vote_average": 6.7, "vote_count": 17, "popularity": 3.421}, {"adult": false, "backdrop_path": null, "genre_ids": [28, 53], "id": 224130, "original_language": "ko", "original_title": "\uc720\ub839", "overview": "Korea's first nuclear submarine and a crew with no record of existence embark on a do-or-die mission into the deep waters of the Pacific.", "poster_path": "/kucw7dQ6fLhu9lygGaFzlTx9KuN.jpg", "release_date": "1999-07-31", "title": "Phantom: The Submarine", "video": false, "vote_average": 4.5, "vote_count": 4, "popularity": 1.863}], "total_pages": 2, "total_results": 35}, "recommendations": {"page": 1, "results": [], "total_pages": 1, "total_results": 0}, "credits": {"cast": [{"cast_id": 2, "character": "Himself/Narrator", "credit_id": "5957354d9251410c56003cc5", "gender": 2, "id": 4165, "name": "John Wayne", "order": 1, "profile_path": "/iw9gHSQj1l3TQeiJb5tNK2N8k2w.jpg"}], "crew": [{"credit_id": "52fe4cdc9251416c75127ee7", "department": "Directing", "gender": 2, "id": 8500, "job": "Director", "name": "John Ford", "profile_path": "/dEOu7wZjE9BH4kdADWh9eTM10U.jpg"}]}}