{"adult": false, "backdrop_path": null, "belongs_to_collection": null, "budget": 0, "genres": [{"id": 28, "name": "Action"}, {"id": 18, "name": "Drama"}, {"id": 53, "name": "Thriller"}], "homepage": null, "id": 18589, "imdb_id": "tt0068164", "original_language": "en", "original_title": "The Abductors", "overview": "Someone is stealing cheerleaders and other pretty girls and selling them to the highest bidder. Female super sexy spy Ginger is soon employed to investigate the disappearances. She does so by going undercover with a fellow agent and doing whatever is necessary to put an end to the operation and take down the leaders.", "popularity": 3.44, "poster_path": "/1apaynZr407cTLjHekh97uiL9u3.jpg", "production_companies": [{"id": 23967, "logo_path": null, "name": "Derio", "origin_country": ""}], "production_countries": [{"iso_3166_1": "US", "name": "United States of America"}], "release_date": "1972-01-28", "revenue": 0, "runtime": 90, "spoken_languages": [{"iso_639_1": "en", "name": "English"}], "status": "Released", "tagline": "", "title": "The Abductors", "video": false, "vote_average": 6.6, "vote_count": 5, "keywords": {"keywords": [{"id": 1930, "name": "kidnapping"}, {"id": 192248, "name": "white slavery"}]}, "similar": {"page": 1, "results": [{"adult": false, "backdrop_path": "/a24i4Qw6qFTtkFLQsncv8WPwevj.jpg", "genre_ids": [53, 28, 80], "id": 345887, "original_language": "en", "original_title": "The Equalizer 2", "overview": "Robert McCall, who serves an unflinching justice for the exploited and oppressed, embarks on a relentless, globe-trotting quest for vengeance when a long-time girl friend is murdered.", "poster_path": "/cQvc9N6JiMVKqol3wcYrGshsIdZ.jpg", "release_date": "2018-07-19", "title": "The Equalizer 2", "video": false, "vote_average": 6.5, "vote_count": 2482, "popularity": 24.261}, {"adult": false, "backdrop_path": "/eg049B1TJdWuKuyKowNmhZxNToc.jpg", "genre_ids": [28, 53], "id": 562, "original_language": "en", "original_title": "Die Hard", "overview": "NYPD cop John McClane's plan to reconcile with his estranged wife is thrown for a serious loop when, minutes after he arrives at her office, the entire building is overtaken by a group of terrorists. With little help from the LAPD, wisecracking McClane sets out to single-handedly rescue the hostages and bring the bad guys down.", "poster_path": "/fiXHtnQpQiGVkMtyYnEfQ6Gtfx8.jpg", "release_date": "1988-07-15", "title": "Die Hard", "video": false, "vote_average": 7.7, "vote_count": 6810, "popularity": 32.473}, {"adult": false, "backdrop_path": "/747dgDfL5d8esobk7h4odaOFhUq.jpg", "genre_ids": [80, 18, 53], "id": 275, "original_language": "en", "original_title": "Fargo", "overview": "Jerry, a small-town Minnesota car salesman is bursting at the seams with debt... but he's got a plan. He's going to hire two thugs to kidnap his wife in a scheme to collect a hefty ransom from his wealthy father-in-law. It's going to be a snap and nobody's going to get hurt... until people start dying. Enter Police Chief Marge, a coffee-drinking, parka-wearing - and extremely pregnant - investigator who'll stop at nothing to get her man. And if you think her small-time investigative skills will give the crooks a run for their ransom... you betcha!", "poster_path": "/pyEkyYgtyjOX1R9EYyUcgbK1sTn.jpg", "release_date": "1996-03-08", "title": "Fargo", "video": false, "vote_average": 7.9, "vote_count": 4327, "popularity": 30.674}, {"id": 8090, "video": false, "vote_count": 448, "vote_average": 6.1, "title": "Untraceable", "release_date": "2008-01-22", "original_language": "en", "original_title": "Untraceable", "genre_ids": [9648, 53], "backdrop_path": "/eXuIPt9I1xuaVddlgzEQRC2EMnJ.jpg", "adult": false, "overview": "Special Agent Jennifer Marsh (Diane Lane) works in an elite division of the FBI dedicated to fighting cybercrime. She thinks she has seen it all, until a particularly sadistic criminal arises on the Internet. This tech-savvy killer posts live feeds of his crimes on his website; the more hits the site gets, the faster the victim dies. Marsh and her team must find the elusive killer before time runs out.", "poster_path": "/ySUwDRDEn01lKIMPQorpFCMLWqE.jpg", "popularity": 14.431}, {"adult": false, "backdrop_path": "/rPfyX0pkmn8Ea4gh3DfsmzFUf05.jpg", "genre_ids": [18, 27, 80], "id": 74997, "original_language": "en", "original_title": "The Human Centipede 2 (Full Sequence)", "overview": "Inspired by the fictional Dr. Heiter, disturbed loner Martin dreams of creating a 12-person centipede and sets out to realize his sick fantasy.", "poster_path": "/kFtAdkCO0vXN2RWu2oMcR9GZ9Hi.jpg", "release_date": "2011-10-06", "title": "The Human Centipede 2 (Full Sequence)", "video": false, "vote_average": 4.5, "vote_count": 674, "popularity": 14.216}, {"adult": false, "backdrop_path": "/t3OZS8yMs0NL4YgWWc04eXHTn1X.jpg", "genre_ids": [28, 80, 53], "id": 984, "original_language": "en", "original_title": "Dirty Harry", "overview": "When a madman dubbed 'Scorpio' terrorizes San Francisco, hard-nosed cop, Harry Callahan \u2013 famous for his take-no-prisoners approach to law enforcement \u2013 is tasked with hunting down the psychopath. Harry eventually collars Scorpio in the process of rescuing a kidnap victim, only to see him walk on technicalities. Now, the maverick detective is determined to nail the maniac himself.", "poster_path": "/2TADKc4GMMPdMrLXj0xJVgTvZJM.jpg", "release_date": "1971-12-21", "title": "Dirty Harry", "video": false, "vote_average": 7.5, "vote_count": 1173, "popularity": 18.839}, {"id": 311, "video": false, "vote_count": 2595, "vote_average": 8.4, "title": "Once Upon a Time in America", "release_date": "1984-05-23", "original_language": "en", "original_title": "Once Upon a Time in America", "genre_ids": [80, 18], "backdrop_path": "/vnT6HzjLSDrAweHn9xWykb8Ii6T.jpg", "adult": false, "overview": "A former Prohibition-era Jewish gangster returns to the Lower East Side of Manhattan over thirty years later, where he once again must confront the ghosts and regrets of his old life.", "poster_path": "/x733R4ISI0RbKeHhVkXdTMFmTFr.jpg", "popularity": 22.233}, {"id": 458594, "video": false, "vote_count": 983, "vote_average": 6.5, "title": "Peppermint", "release_date": "2018-09-06", "original_language": "en", "original_title": "Peppermint", "genre_ids": [28, 53], "backdrop_path": "/9krZX6T4EEs5eFpXgSi8jZkN48O.jpg", "adult": false, "overview": "A grieving mother transforms herself into a vigilante following the murders of her husband and daughter, eluding the authorities to deliver her own personal brand of justice.", "poster_path": "/jrzxS0vcbzIIay1sdYm0rgI2QfJ.jpg", "popularity": 25.2}, {"adult": false, "backdrop_path": "/ieJ5ImFoJILNULvnIpbulAln7Lr.jpg", "genre_ids": [12, 28, 53, 878], "id": 14869, "original_language": "en", "original_title": "G.I. Joe: The Rise of Cobra", "overview": "From the Egyptian desert to deep below the polar ice caps, the elite G.I. JOE team uses the latest in next-generation spy and military equipment to fight the corrupt arms dealer Destro and the growing threat of the mysterious Cobra organization to prevent them from plunging the world into chaos.", "poster_path": "/29eW5c5DaCFQejdt9V14RrA51yD.jpg", "release_date": "2009-08-04", "title": "G.I. Joe: The Rise of Cobra", "video": false, "vote_average": 5.7, "vote_count": 3082, "popularity": 22.639}, {"adult": false, "backdrop_path": "/o4psXh7IVD6GFKvBSHjHLzjL2lV.jpg", "genre_ids": [27, 53], "id": 10781, "original_language": "en", "original_title": "The Texas Chainsaw Massacre: The Beginning", "overview": "Chrissie and her friends set out on a road trip for a final fling before one is shipped off to Vietnam. Along the way, bikers harass the foursome and cause an accident that throws Chrissie from the vehicle. The lawman who arrives on the scene kills one of the bikers and brings Chrissie's friends to the Hewitt homestead, where young Leatherface is learning the tools of terror.", "poster_path": "/9elCJIG1TOJ0wew3JVx5ZMkHq5w.jpg", "release_date": "2006-10-06", "title": "The Texas Chainsaw Massacre: The Beginning", "video": false, "vote_average": 6.0, "vote_count": 936, "popularity": 19.211}, {"id": 180, "video": false, "vote_count": 5106, "vote_average": 7.3, "title": "Minority Report", "release_date": "2002-06-20", "original_language": "en", "original_title": "Minority Report", "genre_ids": [28, 9648, 878, 53], "backdrop_path": "/6HbOqP1GUElNLdX8Bx2uP542CIP.jpg", "adult": false, "overview": "John Anderton is a top 'Precrime' cop in the late-21st century, when technology can predict crimes before they're committed. But Anderton becomes the quarry when another investigator targets him for a murder charge.", "poster_path": "/dS5AHLt4DhZpisxryIxKJU6Urxb.jpg", "popularity": 21.222}, {"id": 473149, "video": false, "vote_count": 194, "vote_average": 5.9, "title": "Traffik", "release_date": "2018-04-20", "original_language": "en", "original_title": "Traffik", "genre_ids": [27, 53], "backdrop_path": "/wbk9VvJ8lkUF0ElpfRm3dFIzMJf.jpg", "adult": false, "overview": "A couple off for a romantic weekend in the mountains are accosted by a biker gang. Alone in the mountains, Brea and John must defend themselves against the gang, who will stop at nothing to protect their secrets.", "poster_path": "/e2Z466e9402RFP6wxRMfXYYiJHA.jpg", "popularity": 22.593}, {"adult": false, "backdrop_path": "/cLGKawjQ5tUJCuDyR0OnGYT4fyf.jpg", "genre_ids": [18, 53, 80], "id": 146233, "original_language": "en", "original_title": "Prisoners", "overview": "When Keller Dover's daughter and her friend go missing, he takes matters into his own hands as the police pursue multiple leads and the pressure mounts. But just how far will this desperate father go to protect his family?", "poster_path": "/yAhqW57pwMAsCgmZpM5zSIVQVTh.jpg", "release_date": "2013-09-18", "title": "Prisoners", "video": false, "vote_average": 8.0, "vote_count": 6410, "popularity": 24.427}, {"adult": false, "backdrop_path": "/yo3LesueMprtgjRiIRmjiIrFIKj.jpg", "genre_ids": [28, 53], "id": 1571, "original_language": "en", "original_title": "Live Free or Die Hard", "overview": "John McClane is back and badder than ever, and this time he's working for Homeland Security. He calls on the services of a young hacker in his bid to stop a ring of Internet terrorists intent on taking control of America's computer infrastructure.", "poster_path": "/pHWgbaXiQD2nmex7u8Xv6XmhaZS.jpg", "release_date": "2007-06-20", "title": "Live Free or Die Hard", "video": false, "vote_average": 6.5, "vote_count": 3588, "popularity": 24.743}, {"adult": false, "backdrop_path": "/lx9eC0e98ZrdU0y55LrydS8CMMp.jpg", "genre_ids": [28, 12, 80, 18, 9648, 53], "id": 9631, "original_language": "en", "original_title": "The Negotiator", "overview": "The police try to arrest expert hostage negotiator Danny Roman, who insists he's being framed for his partner's murder in what he believes is an elaborate conspiracy. Thinking there's evidence in the Internal Affairs offices that might clear him, he takes everyone in the office hostage and demands that another well-known negotiator be brought in to handle the situation and secretly investigate the conspiracy.", "poster_path": "/u4LQDr6QB5i7dz3sMuP8u3EOd3D.jpg", "release_date": "1998-07-29", "title": "The Negotiator", "video": false, "vote_average": 7.0, "vote_count": 1082, "popularity": 18.49}, {"adult": false, "backdrop_path": "/fmo48Lt8XtMWeHeXJzi5SbPCJud.jpg", "genre_ids": [18, 27, 80], "id": 1696, "original_language": "en", "original_title": "The Devil's Rejects", "overview": "The sequel to House of 1000 Corpses \u2013 the Firefly family are ambushed at their isolated home by Sheriff Wydell and a squad of armed men guns blazing \u2013 yet only Otis and his sister, Baby, manage to escape the barrage of bullets unharmed. Hiding out in a backwater motel, the wanted siblings wait to rendezvous with their errant father, Captain Spaulding, killing whoever happens to stand in their way.", "poster_path": "/fj4rrpUlBpFjPaJecpjID6yqacx.jpg", "release_date": "2005-07-22", "title": "The Devil's Rejects", "video": false, "vote_average": 6.7, "vote_count": 720, "popularity": 14.155}, {"adult": false, "backdrop_path": "/e86x1nXqfXRlqATuy60MmzFUFQr.jpg", "genre_ids": [18, 28, 53], "id": 2163, "original_language": "en", "original_title": "Breakdown", "overview": "When his SUV breaks down on a remote Southwestern road, Jeff Taylor lets his wife, Amy, hitch a ride with a trucker to get help. When she doesn't return, Jeff fixes his SUV and tracks down the trucker -- who tells the police he's never seen Amy. Johnathan Mostow's tense thriller then follows Jeff's desperate search for his wife, which eventually uncovers a small town's murderous secret.", "poster_path": "/uj5VmM4jrn3HHeuFfEH8XQizA2g.jpg", "release_date": "1997-05-02", "title": "Breakdown", "video": false, "vote_average": 6.7, "vote_count": 397, "popularity": 12.767}, {"id": 2320, "video": false, "vote_count": 457, "vote_average": 6.2, "title": "Executive Decision", "release_date": "1996-03-15", "original_language": "en", "original_title": "Executive Decision", "genre_ids": [28, 12, 18, 53], "backdrop_path": "/bjVntRO9QkAwm1HzTfH1nn1nOpn.jpg", "adult": false, "overview": "Terrorists hijack a 747 inbound to Washington D.C., demanding the the release of their imprisoned leader. Intelligence expert David Grant (Kurt Russell) suspects another reason and he is soon the reluctant member of a special assault team that is assigned to intercept the plane and hijackers.", "poster_path": "/wmgkFuEr8bHRAgs1HS5U46Rzo0I.jpg", "popularity": 11.941}, {"adult": false, "backdrop_path": "/pdIoY6ZOqwbwPlTuDh83TbJ64xw.jpg", "genre_ids": [35, 18, 9648], "id": 270487, "original_language": "en", "original_title": "Hail, Caesar!", "overview": "When a Hollywood star mysteriously disappears in the middle of filming, the studio sends their \"fixer\" to get him back. Set in the 1950s, the story was inspired by the career of Eddie Mannix (1891\u20131963).", "poster_path": "/rzMYZYphL9qrbBClQq1Jc0zPMmY.jpg", "release_date": "2016-02-05", "title": "Hail, Caesar!", "video": false, "vote_average": 5.9, "vote_count": 2550, "popularity": 15.402}, {"id": 9039, "video": false, "vote_count": 272, "vote_average": 6.1, "title": "Trapped", "release_date": "2002-09-20", "original_language": "en", "original_title": "Trapped", "genre_ids": [28, 80, 18, 53], "backdrop_path": "/uaX2ToWXk6K00rPSAaAajkKdQBU.jpg", "adult": false, "overview": "When their daughter is kidnapped by experienced nappers (Bacon and Love), the Jennings (Theron and Townsend) turn the tables on this seemingly foolproof plan.", "poster_path": "/rsQdv6J3SLqlaJofB4yyX1PqP9n.jpg", "popularity": 12.07}], "total_pages": 241, "total_results": 4819}, "recommendations": {"page": 1, "results": [], "total_pages": 1, "total_results": 0}, "credits": {"cast": [{"cast_id": 2, "character": "Ginger", "credit_id": "54ddbb009251411956001157", "gender": 1, "id": 558148, "name": "Cheri Caffaro", "order": 0, "profile_path": "/56m29Y9MD2lhm9M9d4tZMFGH7rP.jpg"}, {"cast_id": 3, "character": "Ken Stanton", "credit_id": "54ddbb109251411953001074", "gender": 0, "id": 1115655, "name": "Richard Smedley", "order": 1, "profile_path": null}, {"cast_id": 16, "character": "Jablon", "credit_id": "574fdbfbc3a36847ae000920", "gender": 2, "id": 45615, "name": "Patrick Wright", "order": 2, "profile_path": null}, {"cast_id": 5, "character": "Carter Winston", "credit_id": "54ddbb53c3a36845580011d6", "gender": 1, "id": 182161, "name": "Laurie Rose", "order": 4, "profile_path": null}, {"cast_id": 6, "character": "Jason Varone", "credit_id": "54ddbb6ec3a368454d0011d0", "gender": 0, "id": 558155, "name": "William Grannel", "order": 5, "profile_path": null}, {"cast_id": 7, "character": "Abductor", "credit_id": "54ddbb7e925141195300107f", "gender": 0, "id": 1426700, "name": "Anthony Barone", "order": 6, "profile_path": null}, {"cast_id": 8, "character": "Mary Lou", "credit_id": "54ddbb8ec3a3684551001293", "gender": 0, "id": 1426701, "name": "Gerie Bronson", "order": 7, "profile_path": null}, {"cast_id": 9, "character": "Jane", "credit_id": "54ddbbbc9251417feb000cbf", "gender": 1, "id": 101584, "name": "Jeramie Rain", "order": 8, "profile_path": "/fNEnmGQwhlYDSqaX9WJu2Zdzb1e.jpg"}, {"cast_id": 10, "character": "Abductor", "credit_id": "54ddbbcfc3a368537a000b96", "gender": 2, "id": 160627, "name": "Jay Rasumny", "order": 9, "profile_path": "/qWf0BugxTXNxvlqWp34gEBdqg1B.jpg"}], "crew": [{"credit_id": "54ddbdffc3a3685446000b3d", "department": "Directing", "gender": 2, "id": 38696, "job": "Director", "name": "Don Schain", "profile_path": null}, {"credit_id": "54ddbc10925141194b001266", "department": "Production", "gender": 0, "id": 558157, "job": "Producer", "name": "Ralph T. Desiderio", "profile_path": null}, {"credit_id": "54ddbc21c3a36845580011f1", "department": "Camera", "gender": 0, "id": 1426702, "job": "Director of Photography", "name": "R. Kent Evans", "profile_path": null}, {"credit_id": "54ddbe0d925141027c000c28", "department": "Writing", "gender": 2, "id": 38696, "job": "Writer", "name": "Don Schain", "profile_path": null}, {"credit_id": "5b0ac4b30e0a260df2008d5e", "department": "Art", "gender": 2, "id": 207648, "job": "Set Decoration", "name": "David Ross", "profile_path": "/fHy5COG5zXCLe0CKKUoKIR5DNi3.jpg"}, {"credit_id": "5b0ac520c3a3684abb00ca05", "department": "Directing", "gender": 2, "id": 207648, "job": "Assistant Director", "name": "David Ross", "profile_path": "/fHy5COG5zXCLe0CKKUoKIR5DNi3.jpg"}]}}