{"adult": false, "backdrop_path": "/w7KAy8cP7kTY3fqJSQbhQRA5TN1.jpg", "belongs_to_collection": null, "budget": 0, "genres": [{"id": 12, "name": "Adventure"}], "homepage": null, "id": 186691, "imdb_id": "tt0032142", "original_language": "en", "original_title": "Women in the Wind", "overview": "A famous aviator (William Gargan) helps an amateur (Kay Francis) enter a cross-country air race for women.", "popularity": 2.875, "poster_path": "/epFUii5X3W8rmlICt71B1jpu2f9.jpg", "production_companies": [{"id": 174, "logo_path": "/IuAlhI9eVC9Z8UQWOIDdWRKSEJ.png", "name": "Warner Bros. Pictures", "origin_country": "US"}], "production_countries": [{"iso_3166_1": "US", "name": "United States of America"}], "release_date": "1939-04-15", "revenue": 0, "runtime": 63, "spoken_languages": [{"iso_639_1": "en", "name": "English"}], "status": "Released", "tagline": "", "title": "Women in the Wind", "video": false, "vote_average": 7.0, "vote_count": 2, "keywords": {"keywords": [{"id": 10168, "name": "aviation"}, {"id": 169814, "name": "aviator"}]}, "similar": {"page": 1, "results": [{"adult": false, "backdrop_path": "/uYusKBIK023fGZm5QycSpcfYbR4.jpg", "genre_ids": [18], "id": 2567, "original_language": "en", "original_title": "The Aviator", "overview": "A biopic depicting the life of filmmaker and aviation pioneer Howard Hughes from 1927 to 1947, during which time he became a successful film producer and an aviation magnate, while simultaneously growing more unstable due to severe obsessive-compulsive disorder.", "poster_path": "/3MKBQgIHI5DPVNvryiTesskS5mf.jpg", "release_date": "2004-12-17", "title": "The Aviator", "video": false, "vote_average": 7.2, "vote_count": 3052, "popularity": 19.43}, {"adult": false, "backdrop_path": "/cMrvn4Hl0A0NAL61BpDWQIsMsiN.jpg", "genre_ids": [16], "id": 149870, "original_language": "ja", "original_title": "\u98a8\u7acb\u3061\u306c", "overview": "A lifelong love of flight inspires Japanese aviation engineer Jiro Horikoshi, whose storied career includes the creation of the A-6M World War II fighter plane.", "poster_path": "/3OTcCyf7QbGdVxsS8GLtaSsTZtP.jpg", "release_date": "2013-07-20", "title": "The Wind Rises", "video": false, "vote_average": 7.8, "vote_count": 1427, "popularity": 23.476}, {"id": 27932, "video": false, "vote_count": 122, "vote_average": 5.7, "title": "Airport 1975", "release_date": "1974-10-18", "original_language": "en", "original_title": "Airport 1975", "genre_ids": [28, 12, 18, 53], "backdrop_path": "/e5MP0pHZdcF48PAGtJTgss4qsV8.jpg", "adult": false, "overview": "\"Something hit us...the crew is dead...help us, please, please help us!\" With these terrifying words, 22 of Hollywood's greatest stars find themselves aboard a pilotless jumbo jet headed on a collision course with destruction in the nerve chilling sequel to the greatest disaster movie ever made.", "poster_path": "/53M89n1LDl20ZCAhqEadjTVc0Ml.jpg", "popularity": 13.725}, {"id": 363676, "video": false, "vote_count": 4333, "vote_average": 7.1, "title": "Sully", "release_date": "2016-09-07", "original_language": "en", "original_title": "Sully", "genre_ids": [18, 36], "backdrop_path": "/vC9H1ZVdXi1KjH4aPfGB54mvDNh.jpg", "adult": false, "overview": "On 15 January 2009, the world witnessed the 'Miracle on the Hudson' when Captain 'Sully' Sullenberger glided his disabled plane onto the frigid waters of the Hudson River, saving the lives of all 155 aboard. However, even as Sully was being heralded by the public and the media for his unprecedented feat of aviation skill, an investigation was unfolding that threatened to destroy his reputation and career.", "poster_path": "/h6O5OE3ueRVdCc7V7cwTiQocI7D.jpg", "popularity": 23.083}, {"id": 340677, "video": false, "vote_count": 377, "vote_average": 5.3, "title": "I.T.", "release_date": "2016-09-09", "original_language": "en", "original_title": "I.T.", "genre_ids": [80, 18, 53], "backdrop_path": "/rE5JaYnrqyEQfxatJYXckOjW7QC.jpg", "adult": false, "overview": "Mike Regan is a successful, self-made man who has it all: a gorgeous wife, a beautiful teenage daughter and a sleek, state-of-the-art \u201csmart home\u201d. But he soon finds himself in a deadly, high-stakes game of cat-and-mouse when his I.T. consultant, Ed, starts using his skills to stalk Mike\u2019s daughter and endanger his family, his business, and his life. In a world where there is no privacy, and personal secrets can go viral by the click of a mouse, Mike needs to rely on his old connections to defeat a new kind of nemesis.", "poster_path": "/46BJXoEkwu10dcZJ0psrLtCCBTP.jpg", "popularity": 14.355}, {"id": 11076, "video": false, "vote_count": 226, "vote_average": 6.7, "title": "Fly Away Home", "release_date": "1996-09-13", "original_language": "en", "original_title": "Fly Away Home", "genre_ids": [28, 12, 18, 10751], "backdrop_path": "/zJiKgxIeikZPr0nM6qNgDL2gzjr.jpg", "adult": false, "overview": "Amy is only 13 years old when her mother is killed. She goes to Canada to live with her father, an eccentric inventor whom she barely knows. Amy is miserable in her new life... until she discovers a nest of goose eggs that were abandoned when a local forest is torn down. The eggs hatch and Amy becomes \"Mama Goose\". When Winter comes, Amy, and her dad must find a way to lead the birds South...", "poster_path": "/azFDIXe7TgEgte7gHL8PkvXW0GC.jpg", "popularity": 9.706}, {"adult": false, "backdrop_path": "/5ELbliQwIoUxAeHtAXIrbXYhIiJ.jpg", "genre_ids": [10770, 18, 36, 10752], "id": 31894, "original_language": "en", "original_title": "The Tuskegee Airmen", "overview": "During the Second World War, a special project is begun by the US Army Air Corps to integrate African American pilots into the Fighter Pilot Program. Known as the \"Tuskegee Airman\" for the name of the airbase at which they were trained, these men were forced to constantly endure harassement, prejudice, and much behind the scenes politics until at last they were able to prove themselves in combat.", "poster_path": "/r0WGtjLLrPPtyteWHFKKnjTM4id.jpg", "release_date": "1995-08-25", "title": "The Tuskegee Airmen", "video": false, "vote_average": 7.0, "vote_count": 38, "popularity": 6.331}, {"id": 18776, "video": false, "vote_count": 57, "vote_average": 6.8, "title": "The Spirit of St. Louis", "release_date": "1957-04-19", "original_language": "en", "original_title": "The Spirit of St. Louis", "genre_ids": [28, 18, 36], "backdrop_path": "/1uCD2mE2XzPjVayFDK3RwB6LGac.jpg", "adult": false, "overview": "Charles 'Slim' Lindbergh struggles to finance and design an airplane that will make his New York to Paris flight the first solo transatlantic crossing.", "poster_path": "/8Rz55oPiWfjVd437l7HXxA2Piet.jpg", "popularity": 7.492}, {"id": 18886, "video": false, "vote_count": 44, "vote_average": 5.7, "title": "Flight of the Intruder", "release_date": "1991-01-18", "original_language": "en", "original_title": "Flight of the Intruder", "genre_ids": [28, 10752], "backdrop_path": "/b2EiKBDoz2cbhIAbK7kqGURkHbJ.jpg", "adult": false, "overview": "U.S. Navy pilot Lt. Jake Grafton and his bombardier buddy, Lt. Cmdr. Virgil Cole, are two soldiers embedded in the Vietnam War growing frustrated by the military's constraints on their missions. Despite the best efforts of their commanding officer, Cmdr. Frank Camparelli, to re-engage them, this disillusioned pair decide to take the war effort into their own hands with an explosive battle plan that could well get them court-martialed.", "poster_path": "/bzbUVMRaXzELbhswKAOrqUx0oKu.jpg", "popularity": 5.124}, {"adult": false, "backdrop_path": null, "genre_ids": [18, 12, 10770], "id": 279721, "original_language": "en", "original_title": "Pancho Barnes", "overview": "A made for TV movie in which Valerie Bertinelli portrays Florence Pancho Barnes, a bored socialite who decides to learn to fly", "poster_path": "/uQPXqCNPcM5WL2OCLYbWBQs6Ve2.jpg", "release_date": "1988-10-25", "title": "Pancho Barnes", "video": false, "vote_average": 5.0, "vote_count": 1, "popularity": 2.676}, {"adult": false, "backdrop_path": "/8GjWIEmwhcA4TWxqRR3Mcn0sspP.jpg", "genre_ids": [10752, 28, 12, 18], "id": 37468, "original_language": "en", "original_title": "The Big Lift", "overview": "The Berlin Air Lift from the point of view of two NCOs.", "poster_path": "/lQ7MOU0ZXXCMlVLeut1zd7bIOts.jpg", "release_date": "1950-04-26", "title": "The Big Lift", "video": false, "vote_average": 6.8, "vote_count": 12, "popularity": 4.77}, {"id": 619271, "video": false, "vote_count": 0, "vote_average": 0.0, "title": "Expedition Amelia", "release_date": "2019-10-20", "original_language": "en", "original_title": "Expedition Amelia", "genre_ids": [99, 10770], "backdrop_path": "/3M8ewNb0AnAzFK3Fawv09YwCj5R.jpg", "adult": false, "overview": "Explorer Robert Ballard sets out to solve the mystery of Amelia Earhart's disappearance as he and a team of experts travel to the remote Pacific atoll named Nikumaroro in search of her final resting place.", "poster_path": "/gyMGwhwu4vgII9AWAGvahiG0tYR.jpg", "popularity": 4.357}, {"adult": false, "backdrop_path": "/v4h1sSG4LlwygZjBjyqvWTaLcMB.jpg", "genre_ids": [12, 10751], "id": 35101, "original_language": "en", "original_title": "The Last Flight of Noah's Ark", "overview": "The only chance to escape a desert island is to convert the plane carrying many different animals into a boat.", "poster_path": "/undK2bf6ntIt7gTMjX9KkzeXSTU.jpg", "release_date": "1980-06-24", "title": "The Last Flight of Noah's Ark", "video": false, "vote_average": 5.7, "vote_count": 24, "popularity": 4.947}, {"adult": false, "backdrop_path": "/xEaUJjRtcyHFTU3Y64SbGeCeON9.jpg", "genre_ids": [18], "id": 50013, "original_language": "ru", "original_title": "\u041a\u0440\u044b\u043b\u044c\u044f", "overview": "The war ended a long time ago, but for the heroine of the film, the former pilot, only those years were filled with genuine meaning. She deeply feels discord with reality, lack of contact with her daughter. She doesn't manage to adapt to this peaceful, everyday life, she doesn't lose her piercing desire to fly...", "poster_path": "/4jDXu8qR2NjQNUvqxmlFTMJMn4A.jpg", "release_date": "1966-01-01", "title": "Wings", "video": false, "vote_average": 7.2, "vote_count": 19, "popularity": 3.362}, {"adult": false, "backdrop_path": "/fUZeq960G0bUfabKSOmYWK1vUSV.jpg", "genre_ids": [10752, 18, 35], "id": 37129, "original_language": "ru", "original_title": "\u0412 \u0431\u043e\u0439 \u0438\u0434\u0443\u0442 \u043e\u0434\u043d\u0438 \u0441\u0442\u0430\u0440\u0438\u043a\u0438", "overview": "Bogdan Titarenko is very talented pilot and brave leader of \"Singing group\". He also must look after some new cadets and fight together with them against German Luftwaffe planes. Close to Bogdan always are his friends, they are all from different parts of the country, but they all became real brothers.", "poster_path": "/4TE8gM826e1OU62AErJ5LS4F1os.jpg", "release_date": "1973-06-06", "title": "Only Old Men Are Going to Battle", "video": false, "vote_average": 7.9, "vote_count": 51, "popularity": 3.864}, {"adult": false, "backdrop_path": "/AcoLi12WhzX5uBwyPaT2B6iWO0L.jpg", "genre_ids": [28, 10752, 18], "id": 43780, "original_language": "en", "original_title": "One of Our Aircraft Is Missing", "overview": "During the Allied Bombing offensive of World War II the public was often informed that \"A raid took place last night over ..., One (or often more) of Our Aircraft Is Missing\". Behind these sombre words hid tales of death, destruction and derring-do. This is the story of one such bomber crew who were shot down and the brave Dutch patriots who helped them home.", "poster_path": "/50ERGbegoXH2vZKM0hJwFavMEHT.jpg", "release_date": "1942-04-24", "title": "One of Our Aircraft Is Missing", "video": false, "vote_average": 6.3, "vote_count": 14, "popularity": 4.977}, {"adult": false, "backdrop_path": "/v9ktMEd0KcdlGPLJm1b5FocgWN7.jpg", "genre_ids": [28, 12, 18, 53, 10749], "id": 47737, "original_language": "en", "original_title": "Gold", "overview": "Rod Slater is the newly appointed general manager of the Sonderditch gold mine, but he stumbles across an ingenious plot to flood the mine, by drilling into an underground lake, so the unscrupulous owners can make a killing in the international gold market.", "poster_path": "/trL1KIwcvtpJTeHzHGvpYRyKUVD.jpg", "release_date": "1974-06-08", "title": "Gold", "video": false, "vote_average": 5.6, "vote_count": 25, "popularity": 5.359}, {"id": 15813, "video": false, "vote_count": 36, "vote_average": 6.9, "title": "Dark Blue World", "release_date": "2001-05-17", "original_language": "cs", "original_title": "Tmavomodr\u00fd sv\u011bt", "genre_ids": [28, 18, 10752], "backdrop_path": "/a5wcvbWmcSqZF1JvhD6z9CHQN8P.jpg", "adult": false, "overview": "Lt. Franta Slama is a top pilot in the Czech Air Force who is assigned to train a promising young flier, Karel Vojtisek, and they soon become friends. When Nazi Germany invades Czechoslovakia in 1939, they both reject the authority of their new leaders and escape to England where they join other Czech exiles in the RAF. While flying a mission over England, Karel crash lands and happens upon the farmhouse of Susan, a young woman whose husband is in the Navy. Karel soon falls head over heels for Susan but, while they enjoy a brief fling, in time Susan decides she prefers the company of the older and more worldly Franta. As Franta and Karel struggle to maintain their friendship despite their romantic rivalry.", "poster_path": "/uoN9NuRYxaxRweNHs5V4QGjD7Xo.jpg", "popularity": 10.19}, {"id": 37779, "video": false, "vote_count": 37, "vote_average": 4.9, "title": "The Last Flight", "release_date": "2009-11-05", "original_language": "fr", "original_title": "Le Dernier Vol", "genre_ids": [12, 18, 10749], "backdrop_path": "/yhjg2gC3XfrLOxngmmNpoIlaUx5.jpg", "adult": false, "overview": "Aviator Marie Valli\u00e8res de Beaumont goes on a journey to find her lover Bill Lancaster after his plane disappears in the Sahara. After her plane is forced down in the T\u00e9n\u00e9r\u00e9 she meets Lieutenant Antoine Chauvet of the French Camel Corps who joins in the hunt for Lancaster. As the two endure hardships in the desert, they begin to develop feelings for each other.", "poster_path": "/lJqJeEl237mFNIEBF6LaLHY2QfT.jpg", "popularity": 2.81}, {"adult": false, "backdrop_path": "/nZQOd6LoiK3brI7pilgVza6F0Ep.jpg", "genre_ids": [18, 10770], "id": 52579, "original_language": "en", "original_title": "The Amazing Howard Hughes", "overview": "The Amazing Howard Hughes is a 1977 television movie about American aviation pioneer and filmmaker Howard Hughes, based on the book by Hughes' business partner Noah Dietrich. The film starred Tommy Lee Jones, Ed Flanders, and Tovah Feldshuh.", "poster_path": "/dmV1SUAnfMWxl8VJrQUxlYHGlSY.jpg", "release_date": "1977-04-13", "title": "The Amazing Howard Hughes", "video": false, "vote_average": 5.3, "vote_count": 4, "popularity": 2.404}], "total_pages": 6, "total_results": 116}, "recommendations": {"page": 1, "results": [], "total_pages": 1, "total_results": 0}, "credits": {"cast": [{"cast_id": 4, "character": "Janet Steele", "credit_id": "52fe4d039251416c7512d0f1", "gender": 1, "id": 2434, "name": "Kay Francis", "order": 0, "profile_path": "/g1jkxUQpjucwWczcFRMX8Km8OmV.jpg"}, {"cast_id": 5, "character": "Ace Boreman", "credit_id": "52fe4d039251416c7512d0f5", "gender": 2, "id": 87697, "name": "William Gargan", "order": 1, "profile_path": "/b0MLBWskl7cUtbT2BVJ9Lc2U6IH.jpg"}, {"cast_id": 6, "character": "Doc", "credit_id": "52fe4d039251416c7512d0f9", "gender": 2, "id": 15666, "name": "Victor Jory", "order": 2, "profile_path": "/4phylVED6xN2gFYeUQnywahstGG.jpg"}, {"cast_id": 7, "character": "Stuffy McInnes (as Maxie Rosenbloom)", "credit_id": "52fe4d039251416c7512d0fd", "gender": 2, "id": 106095, "name": "Maxie Rosenbloom", "order": 3, "profile_path": "/fXbmXYKyRQWVTywU4BlMXbC1KgJ.jpg"}, {"cast_id": 8, "character": "Denny Corson", "credit_id": "52fe4d039251416c7512d101", "gender": 0, "id": 30278, "name": "Eddie Foy Jr.", "order": 4, "profile_path": "/o8ydEPgEfdc913AdyPDkXRx5lQ0.jpg"}, {"cast_id": 9, "character": "Frieda Boreman", "credit_id": "52fe4d039251416c7512d105", "gender": 1, "id": 99827, "name": "Sheila Bromley", "order": 5, "profile_path": "/ezVIMObrxUIImS7awcXu0oNKrrq.jpg"}, {"cast_id": 10, "character": "Kit Campbell", "credit_id": "52fe4d039251416c7512d109", "gender": 1, "id": 860, "name": "Eve Arden", "order": 6, "profile_path": "/48QTc9iIS3nuJOE8FiAV6qPFPuj.jpg"}, {"cast_id": 11, "character": "Bill Steele", "credit_id": "54732284c3a36845e5000086", "gender": 2, "id": 138092, "name": "Charles Anthony Hughes", "order": 7, "profile_path": null}, {"cast_id": 12, "character": "Johnnie", "credit_id": "547322999251414b4b000164", "gender": 0, "id": 1193377, "name": "Frankie Burke", "order": 8, "profile_path": "/hVEp2bpRd8adVTysSTVsu7AYOYd.jpg"}, {"cast_id": 13, "character": "Farmer", "credit_id": "547322b69251414b4b000174", "gender": 2, "id": 34280, "name": "Spencer Charters", "order": 9, "profile_path": "/67wOC0rjJG6tpXVQLZsOj6s7clP.jpg"}, {"cast_id": 14, "character": "Salesman (uncredited)", "credit_id": "547322d39251413a5d0043a2", "gender": 2, "id": 1030251, "name": "Nat Carr", "order": 10, "profile_path": null}, {"cast_id": 15, "character": "Chuck - the Mechanic (uncredited)", "credit_id": "547322e9c3a368118200291c", "gender": 2, "id": 17759, "name": "Frank Faylen", "order": 11, "profile_path": "/rTeI8MEFLqdtGkIO5bc96DqO4pE.jpg"}, {"cast_id": 16, "character": "Burbank Official (uncredited)", "credit_id": "547322ffc3a3682cbe00012b", "gender": 2, "id": 117036, "name": "Milton Kibbee", "order": 12, "profile_path": "/jQpaekf2R1MMm7uqgMbP38dTrNh.jpg"}, {"cast_id": 17, "character": "Salesman (uncredited)", "credit_id": "54732321c3a36845e5000098", "gender": 2, "id": 133277, "name": "Frank Mayo", "order": 13, "profile_path": "/3eNNCBwqvJtS1aTqy77mxtIZ3y4.jpg"}, {"cast_id": 18, "character": "Farmer's Wife", "credit_id": "5557dc60c3a3687774006ec3", "gender": 1, "id": 29953, "name": "Vera Lewis", "order": 14, "profile_path": "/q8kMDxClpiT543Ktt5I4gUZ3LkE.jpg"}, {"cast_id": 19, "character": "Palmer", "credit_id": "5557dc6bc3a368776a0067f8", "gender": 2, "id": 33856, "name": "William Gould", "order": 15, "profile_path": "/2K0Bi9wrem2IzsQkLJAvzuGYwnP.jpg"}, {"cast_id": 20, "character": "Air Races Official", "credit_id": "5557dc78c3a36877790064f6", "gender": 2, "id": 583697, "name": "Gordon Hart", "order": 16, "profile_path": null}, {"cast_id": 21, "character": "Joan", "credit_id": "5557dc8392514133f400017b", "gender": 0, "id": 1174032, "name": "Ila Rhodes", "order": 17, "profile_path": null}, {"cast_id": 22, "character": "Phyllis", "credit_id": "5557dc90c3a36877720071ed", "gender": 1, "id": 1020788, "name": "Rosella Towne", "order": 18, "profile_path": "/bgY8OFIbwnyLdQpVHPIkBGtSpOt.jpg"}, {"cast_id": 23, "character": "Aviatrix", "credit_id": "5557dca0c3a368777e006aff", "gender": 0, "id": 1458242, "name": "Marian Alden", "order": 19, "profile_path": null}, {"cast_id": 24, "character": "Woman", "credit_id": "5557dcb2c3a368776f007c53", "gender": 1, "id": 1173990, "name": "Marie Astaire", "order": 20, "profile_path": null}, {"cast_id": 25, "character": "Salesman", "credit_id": "5557dcc092514133f4000184", "gender": 2, "id": 199891, "name": "Richard Bond", "order": 21, "profile_path": null}, {"cast_id": 26, "character": "Burbank Race Official / Cleveland Spectator", "credit_id": "5557dccbc3a368776c0066b8", "gender": 2, "id": 80546, "name": "Sidney Bracey", "order": 22, "profile_path": "/o72gF6HWbCBrm4wBZWgWiP6RYAK.jpg"}, {"cast_id": 27, "character": "Wichita Official", "credit_id": "5557dcdd9251411e4d006dfa", "gender": 0, "id": 141029, "name": "Allan Cavan", "order": 23, "profile_path": null}, {"cast_id": 28, "character": "Airport Policeman / Mob Scene Extra", "credit_id": "5557dce7c3a368776c0066c0", "gender": 2, "id": 14419, "name": "Glen Cavender", "order": 24, "profile_path": "/z1B6ZXQObMu2m8D4zcrTGVmHTch.jpg"}, {"cast_id": 29, "character": "Aviatrix", "credit_id": "5557dcf092514133f4000193", "gender": 0, "id": 1467830, "name": "Alice Connors", "order": 25, "profile_path": null}, {"cast_id": 30, "character": "Telegraph Office Attendant", "credit_id": "5557dd03c3a368776c0066ca", "gender": 2, "id": 562908, "name": "Joe Cunningham", "order": 26, "profile_path": "/yEJE3rQfY1kTylA9KocUyM8maiM.jpg"}, {"cast_id": 31, "character": "Photographer", "credit_id": "5557dd0ec3a3687774006eef", "gender": 2, "id": 109725, "name": "Steve Darrell", "order": 27, "profile_path": "/kvLRjB508zaE11X5c2qncODz71R.jpg"}, {"cast_id": 32, "character": "Woman", "credit_id": "5557dd189251415b2e00055a", "gender": 0, "id": 1467831, "name": "Lucille De Nevers", "order": 28, "profile_path": null}, {"cast_id": 33, "character": "Wichita Starter", "credit_id": "5557dd24c3a3687779006527", "gender": 2, "id": 33233, "name": "Edgar Edwards", "order": 29, "profile_path": null}, {"cast_id": 34, "character": "Attendant", "credit_id": "5557dd2dc3a3687774006eff", "gender": 0, "id": 1467832, "name": "Hudson Faucett", "order": 30, "profile_path": null}, {"cast_id": 35, "character": "Aviatrix", "credit_id": "5557dd3ac3a368776c0066de", "gender": 0, "id": 1467833, "name": "Iris Gabrielle", "order": 31, "profile_path": null}, {"cast_id": 36, "character": "Ace's Mechanic", "credit_id": "5557dd44c3a368776c0066e4", "gender": 2, "id": 121098, "name": "Jack Gardner", "order": 32, "profile_path": null}, {"cast_id": 37, "character": "Bartender / Mechanic", "credit_id": "5557dd4dc3a368776c0066e8", "gender": 2, "id": 1181275, "name": "Kit Guard", "order": 33, "profile_path": "/qTRvlchIyQcywHHkjHHdQUFhFsS.jpg"}, {"cast_id": 38, "character": "Joe - the Bartender", "credit_id": "5557dd59c3a368776f007c8b", "gender": 2, "id": 1016646, "name": "George Guhl", "order": 34, "profile_path": "/uzXTrYPbMiK1kVIX5vJkD1ilBtC.jpg"}, {"cast_id": 39, "character": "Process Server", "credit_id": "5557dd64c3a368776c0066ee", "gender": 2, "id": 43845, "name": "John Harron", "order": 35, "profile_path": "/JGb5PfERiGg5NaTtV5FcCHccwk.jpg"}, {"cast_id": 40, "character": "Cleveland Radio Announcer", "credit_id": "5557dd7092514133f40001b9", "gender": 2, "id": 117026, "name": "John Hiestand", "order": 36, "profile_path": null}, {"cast_id": 41, "character": "Aviatrix", "credit_id": "5557dd7a9251415b2e000581", "gender": 0, "id": 1277493, "name": "Diana Hughes", "order": 37, "profile_path": null}, {"cast_id": 42, "character": "Photographer", "credit_id": "5557dd83c3a368777e006b3e", "gender": 0, "id": 31000, "name": "David Kerman", "order": 38, "profile_path": null}, {"cast_id": 43, "character": "Cleveland Announcer on Podium", "credit_id": "5557dd8dc3a368776f007ca5", "gender": 0, "id": 1163193, "name": "Reid Kilpatrick", "order": 39, "profile_path": null}, {"cast_id": 44, "character": "Cleveland Official", "credit_id": "5557dd9cc3a3687779006549", "gender": 0, "id": 1088566, "name": "Alexander Leftwich", "order": 40, "profile_path": null}, {"cast_id": 45, "character": "Wichita Official", "credit_id": "5557dda6c3a36877820078b3", "gender": 2, "id": 1422893, "name": "Al Lloyd", "order": 41, "profile_path": null}, {"cast_id": 46, "character": "Burbank Offical", "credit_id": "5557ddafc3a368777e006b4c", "gender": 2, "id": 30201, "name": "Wilfred Lucas", "order": 42, "profile_path": "/fn8JaV3BoxyPt0n5j6jMB9K9wQe.jpg"}, {"cast_id": 47, "character": "Salesman", "credit_id": "5557ddc0c3a36877820078bf", "gender": 2, "id": 171111, "name": "Harold Miller", "order": 43, "profile_path": "/aqUMczw1ohojrCRHniSsODhcvR7.jpg"}, {"cast_id": 48, "character": "Cleveland Radio Operator", "credit_id": "5557ddca92514133f40001d6", "gender": 2, "id": 1027243, "name": "Carlyle Moore Jr.", "order": 44, "profile_path": "/xIpaRyFVum99EPz1qj3dxpQPSpq.jpg"}, {"cast_id": 49, "character": "Interne", "credit_id": "5557ddd4c3a3687772007249", "gender": 2, "id": 1466142, "name": "Will Morgan", "order": 45, "profile_path": null}, {"cast_id": 50, "character": "Salesman", "credit_id": "5557ddde9251412ff9005585", "gender": 2, "id": 980330, "name": "Jack Mower", "order": 46, "profile_path": "/40SznvE0dvL39Fg2Q0pbAPx6V0o.jpg"}, {"cast_id": 51, "character": "Cleveland Official", "credit_id": "5557dde79251411e4d006e39", "gender": 0, "id": 1284767, "name": "Wedgwood Nowell", "order": 47, "profile_path": "/x6BH1s8L1Sbpf0ugVBmwqb2qAMi.jpg"}, {"cast_id": 52, "character": "Cleveland Official", "credit_id": "5557ddf39251412ff900558d", "gender": 2, "id": 1239954, "name": "Pat O'Malley", "order": 48, "profile_path": "/utgR2ffBbzwW0JwFDLVw6lE9Ky2.jpg"}, {"cast_id": 53, "character": "Frieda's Mechanic", "credit_id": "5557ddfd92514129b7000232", "gender": 2, "id": 931793, "name": "Paul Panzer", "order": 49, "profile_path": "/kc557GkzS3AIGz67kxOEFxGjGY2.jpg"}, {"cast_id": 54, "character": "Wichita Official", "credit_id": "5557de06c3a368776a00685b", "gender": 2, "id": 121066, "name": "Lee Phelps", "order": 50, "profile_path": "/yBLIKr2IpxLzSiqBt6N9PqGQ7EZ.jpg"}, {"cast_id": 55, "character": "Airport Man Getting Hose Out", "credit_id": "5557de109251411e4d006e42", "gender": 0, "id": 119548, "name": "John J. Richardson", "order": 51, "profile_path": null}, {"cast_id": 56, "character": "Salesman", "credit_id": "5557de1a9251412afe00026b", "gender": 2, "id": 2673, "name": "John Ridgely", "order": 52, "profile_path": "/438JXIe6hZKXcao3X7mfYdcPOOc.jpg"}, {"cast_id": 57, "character": "Aviatrix", "credit_id": "5557de22c3a368776c00672c", "gender": 0, "id": 1437095, "name": "Sally Sage", "order": 53, "profile_path": null}, {"cast_id": 58, "character": "Policeman at Airport", "credit_id": "5557de2c9251412afe000272", "gender": 2, "id": 1198701, "name": "Cliff Saum", "order": 54, "profile_path": null}, {"cast_id": 59, "character": "Policeman at Cleveland Air Field", "credit_id": "5557de35c3a368776f007cd8", "gender": 2, "id": 120473, "name": "Brick Sullivan", "order": 55, "profile_path": null}, {"cast_id": 60, "character": "Mechanic Guarding Door", "credit_id": "5557de4092514129b7000242", "gender": 2, "id": 940651, "name": "Don Turner", "order": 56, "profile_path": null}, {"cast_id": 61, "character": "Radio Announcer", "credit_id": "5557de49c3a368776a006873", "gender": 2, "id": 34008, "name": "Emmett Vogan", "order": 57, "profile_path": "/cgahLkQCEDNyGyj39R3MiPeHWIO.jpg"}, {"cast_id": 62, "character": "Mechanic / Cleveland Spectator", "credit_id": "5557de539251412afe000277", "gender": 2, "id": 29274, "name": "Leo White", "order": 58, "profile_path": "/wzD5hXyaVXQol86cYGGp3SOzlaq.jpg"}, {"cast_id": 63, "character": "Cleveland Spectator", "credit_id": "5557de5f9251412a2a000253", "gender": 2, "id": 96061, "name": "Tom Wilson", "order": 59, "profile_path": "/wl63iKG9u51UY2dlULyramJhLnX.jpg"}, {"cast_id": 64, "character": "Welcoming Official / Cleveland Spectator", "credit_id": "5557de69c3a3687772007276", "gender": 2, "id": 119549, "name": "Jack Wise", "order": 60, "profile_path": null}], "crew": [{"credit_id": "52fe4d039251416c7512d0e7", "department": "Writing", "gender": 0, "id": 8720, "job": "Screenplay", "name": "Lee Katz", "profile_path": null}, {"credit_id": "52fe4d039251416c7512d0ed", "department": "Writing", "gender": 0, "id": 33957, "job": "Screenplay", "name": "Albert DeMond", "profile_path": null}, {"credit_id": "52fe4d039251416c7512d0e1", "department": "Directing", "gender": 2, "id": 50300, "job": "Director", "name": "John Farrow", "profile_path": "/amtDvJFbgk2ea4Mdtc7ZxXibZMf.jpg"}]}}