{"adult": false, "backdrop_path": null, "belongs_to_collection": null, "budget": 0, "genres": [{"id": 12, "name": "Adventure"}], "homepage": null, "id": 189133, "imdb_id": "tt0074881", "original_language": "en", "original_title": "Mayday at 40,000 Feet!", "overview": "The co-pilot and engineer of a passenger jet struggle to keep the plane airborne until it can reach an open airfield after a killer aboard the plane fires a gun at an engine and pilot of the plane.", "popularity": 1.861, "poster_path": "/n8OdLbZ9vcL6LDJfDAgdCmmUuK0.jpg", "production_companies": [{"id": 23950, "logo_path": null, "name": "Andrew J. Fenady Productions", "origin_country": ""}, {"id": 1957, "logo_path": "/nmcNfPq03WLtOyufJzQbiPu2Enc.png", "name": "Warner Bros. Television", "origin_country": "US"}], "production_countries": [{"iso_3166_1": "US", "name": "United States of America"}], "release_date": "1976-11-12", "revenue": 0, "runtime": 100, "spoken_languages": [{"iso_639_1": "de", "name": "Deutsch"}], "status": "Released", "tagline": "A crippled plane. A crazed convict...", "title": "Mayday at 40,000 Feet!", "video": false, "vote_average": 8.0, "vote_count": 2, "keywords": {"keywords": [{"id": 3800, "name": "airplane"}, {"id": 10617, "name": "disaster"}]}, "similar": {"page": 1, "results": [{"id": 7227, "video": false, "vote_count": 123, "vote_average": 5.7, "title": "Airport '77", "release_date": "1977-03-11", "original_language": "en", "original_title": "Airport '77", "genre_ids": [28, 12, 18, 53], "backdrop_path": "/wioNLmjqP9T6KoyLpg4A8M5gywm.jpg", "adult": false, "overview": "Flight 23 has crashed in the Bermuda Triangle while taking VIPs and valuable art to Philip Stevens new museum. But when hijackers take off the plane and knock everyone out with sleeping gas the plane crashes in the sea. The passengers survive but a small hole at the front is flooding the plane and 2 daring rescues must be put into action because everyone is trapped 200 feet underwater.", "poster_path": "/m9b3frZR0Wu8I3ayN3QPrxfZMvC.jpg", "popularity": 8.781}, {"id": 5559, "video": false, "vote_count": 2864, "vote_average": 5.9, "title": "Bee Movie", "release_date": "2007-10-28", "original_language": "en", "original_title": "Bee Movie", "genre_ids": [12, 16, 35, 10751], "backdrop_path": "/2lBpQZevIJdL4vPrZ7Nnm7mrVlm.jpg", "adult": false, "overview": "Barry B. Benson, a bee who has just graduated from college, is disillusioned at his lone career choice: making honey. On a special trip outside the hive, Barry's life is saved by Vanessa, a florist in New York City. As their relationship blossoms, he discovers humans actually eat honey, and subsequently decides to sue us.", "poster_path": "/QhbOzpYfBOwrRiuTu9otPk919R.jpg", "popularity": 19.912}, {"id": 27932, "video": false, "vote_count": 122, "vote_average": 5.7, "title": "Airport 1975", "release_date": "1974-10-18", "original_language": "en", "original_title": "Airport 1975", "genre_ids": [28, 12, 18, 53], "backdrop_path": "/e5MP0pHZdcF48PAGtJTgss4qsV8.jpg", "adult": false, "overview": "\"Something hit us...the crew is dead...help us, please, please help us!\" With these terrifying words, 22 of Hollywood's greatest stars find themselves aboard a pilotless jumbo jet headed on a collision course with destruction in the nerve chilling sequel to the greatest disaster movie ever made.", "poster_path": "/53M89n1LDl20ZCAhqEadjTVc0Ml.jpg", "popularity": 13.725}, {"id": 2320, "video": false, "vote_count": 457, "vote_average": 6.2, "title": "Executive Decision", "release_date": "1996-03-15", "original_language": "en", "original_title": "Executive Decision", "genre_ids": [28, 12, 18, 53], "backdrop_path": "/bjVntRO9QkAwm1HzTfH1nn1nOpn.jpg", "adult": false, "overview": "Terrorists hijack a 747 inbound to Washington D.C., demanding the the release of their imprisoned leader. Intelligence expert David Grant (Kurt Russell) suspects another reason and he is soon the reluctant member of a special assault team that is assigned to intercept the plane and hijackers.", "poster_path": "/wmgkFuEr8bHRAgs1HS5U46Rzo0I.jpg", "popularity": 14.601}, {"id": 676, "video": false, "vote_count": 3791, "vote_average": 6.8, "title": "Pearl Harbor", "release_date": "2001-05-21", "original_language": "en", "original_title": "Pearl Harbor", "genre_ids": [18, 36, 10749, 10752], "backdrop_path": "/cDctk61tUeQz4LX7tTFPknI28ea.jpg", "adult": false, "overview": "The lifelong friendship between Rafe McCawley and Danny Walker is put to the ultimate test when the two ace fighter pilots become entangled in a love triangle with beautiful Naval nurse Evelyn Johnson. But the rivalry between the friends-turned-foes is immediately put on hold when they find themselves at the center of Japan's devastating attack on Pearl Harbor on Dec. 7, 1941.", "poster_path": "/gzjMpcyV1RksWonaA87DZ8wQTH0.jpg", "popularity": 31.159}, {"adult": false, "backdrop_path": "/9GyBSsMiGkPSk4OESIYZuedijBI.jpg", "genre_ids": [28, 18], "id": 744, "original_language": "en", "original_title": "Top Gun", "overview": "For Lieutenant Pete 'Maverick' Mitchell and his friend and co-pilot Nick 'Goose' Bradshaw, being accepted into an elite training school for fighter pilots is a dream come true. But a tragedy, as well as personal demons, will threaten Pete's dreams of becoming an ace pilot.", "poster_path": "/orGXnBKfT41LxZhitLkXhqUfJJW.jpg", "release_date": "1986-05-16", "title": "Top Gun", "video": false, "vote_average": 6.9, "vote_count": 3510, "popularity": 21.989}, {"adult": false, "backdrop_path": "/tFPvOmz0uNmfp1sq2ebYAeUCLQ4.jpg", "genre_ids": [35], "id": 813, "original_language": "en", "original_title": "Airplane!", "overview": "Alcoholic pilot, Ted Striker has developed a fear of flying due to wartime trauma, but nevertheless boards a passenger jet in an attempt to woo back his stewardess girlfriend. Food poisoning decimates the passengers and crew, leaving it up to Striker to land the plane with the help of a glue-sniffing air traffic controller and Striker's vengeful former Air Force captain, who must both talk him down.", "poster_path": "/b4sAWNIbfXw4WTdc1wiVRBk2Vko.jpg", "release_date": "1980-07-02", "title": "Airplane!", "video": false, "vote_average": 7.3, "vote_count": 2347, "popularity": 30.318}, {"adult": false, "backdrop_path": "/1R2wRq5aZJHMmg3gUlqw2uSdj2t.jpg", "genre_ids": [18, 28], "id": 296524, "original_language": "en", "original_title": "Deepwater Horizon", "overview": "A story set on the offshore drilling rig Deepwater Horizon, which exploded during April 2010 and created the worst oil spill in U.S. history.", "poster_path": "/7D6hM7IR0TbQmNvSZVtEiPM3H5h.jpg", "release_date": "2016-09-29", "title": "Deepwater Horizon", "video": false, "vote_average": 6.7, "vote_count": 2808, "popularity": 17.36}, {"id": 5919, "video": false, "vote_count": 452, "vote_average": 7.1, "title": "The Towering Inferno", "release_date": "1974-12-14", "original_language": "en", "original_title": "The Towering Inferno", "genre_ids": [28, 53], "backdrop_path": "/wE5m9AAgmNEYXIHpzmu6ltxFLsZ.jpg", "adult": false, "overview": "At the opening party of a colossal\u2014but poorly constructed\u2014office building, a massive fire breaks out, threatening to destroy the tower and everyone in it.", "poster_path": "/atGCmFz8L5KmmVmP4kFcrS1vCyd.jpg", "popularity": 12.171}, {"adult": false, "backdrop_path": "/nq60mZOlrD4mZJg1T4hHUtWTIkN.jpg", "genre_ids": [12, 14, 28, 53], "id": 1979, "original_language": "en", "original_title": "Fantastic Four: Rise of the Silver Surfer", "overview": "The Fantastic Four return to the big screen as a new and all powerful enemy threatens the Earth. The seemingly unstoppable 'Silver Surfer', but all is not what it seems and there are old and new enemies that pose a greater threat than the intrepid superheroes realize.", "poster_path": "/fXpziQgnBnB4bLgjKhjTbLQumE5.jpg", "release_date": "2007-06-13", "title": "Fantastic Four: Rise of the Silver Surfer", "video": false, "vote_average": 5.5, "vote_count": 5275, "popularity": 33.44}, {"adult": false, "backdrop_path": "/m9vS8UfYd9XZedhO7ifpAznxSOj.jpg", "genre_ids": [12, 28], "id": 217, "original_language": "en", "original_title": "Indiana Jones and the Kingdom of the Crystal Skull", "overview": "Set during the Cold War, the Soviets \u2013 led by sword-wielding Irina Spalko \u2013 are in search of a crystal skull which has supernatural powers related to a mystical Lost City of Gold. After being captured and then escaping from them, Indy is coerced to head to Peru at the behest of a young man whose friend \u2013 and Indy's colleague \u2013 Professor Oxley has been captured for his knowledge of the skull's whereabouts.", "poster_path": "/qY1x6v5daMDTr904G3y84WVgpfC.jpg", "release_date": "2008-05-21", "title": "Indiana Jones and the Kingdom of the Crystal Skull", "video": false, "vote_average": 5.9, "vote_count": 4970, "popularity": 31.396}, {"id": 658, "video": false, "vote_count": 1914, "vote_average": 7.4, "title": "Goldfinger", "release_date": "1964-09-17", "original_language": "en", "original_title": "Goldfinger", "genre_ids": [28, 12, 53], "backdrop_path": "/iyD72nJFBGbEIrpQjzdhE3wFxPL.jpg", "adult": false, "overview": "Special agent 007 comes face to face with one of the most notorious villains of all time, and now he must outwit and outgun the powerful tycoon to prevent him from cashing in on a devious scheme to raid Fort Knox -- and obliterate the world's economy.", "poster_path": "/vBNbFU3OS6okJIQBOos1aZXpy2Z.jpg", "popularity": 31.276}, {"id": 76163, "video": false, "vote_count": 4534, "vote_average": 6.2, "title": "The Expendables 2", "release_date": "2012-08-08", "original_language": "en", "original_title": "The Expendables 2", "genre_ids": [28, 12, 53], "backdrop_path": "/pIjnoUnXdLpROFzIRPNziPzgBUp.jpg", "adult": false, "overview": "Mr. Church reunites the Expendables for what should be an easy paycheck, but when one of their men is murdered on the job, their quest for revenge puts them deep in enemy territory and up against an unexpected threat.", "poster_path": "/dJPnTe1qOcO7XqsJvESFph83m6m.jpg", "popularity": 19.182}, {"id": 135397, "video": false, "vote_count": 14919, "vote_average": 6.6, "title": "Jurassic World", "release_date": "2015-06-06", "original_language": "en", "original_title": "Jurassic World", "genre_ids": [28, 12, 878, 53], "backdrop_path": "/t5KONotASgVKq4N19RyhIthWOPG.jpg", "adult": false, "overview": "Twenty-two years after the events of Jurassic Park, Isla Nublar now features a fully functioning dinosaur theme park, Jurassic World, as originally envisioned by John Hammond.", "poster_path": "/jjBgi2r5cRt36xF6iNUEhzscEcb.jpg", "popularity": 28.861}, {"id": 81, "video": false, "vote_count": 1617, "vote_average": 7.9, "title": "Nausica\u00e4 of the Valley of the Wind", "release_date": "1984-03-11", "original_language": "ja", "original_title": "\u98a8\u306e\u8c37\u306e\u30ca\u30a6\u30b7\u30ab", "genre_ids": [12, 16, 14], "backdrop_path": "/qKIldRZ3jy3uGWdrNIt3P7QA5J3.jpg", "adult": false, "overview": "After a global war, the seaside kingdom known as the Valley of the Wind remains one of the last strongholds on Earth untouched by a poisonous jungle and the powerful insects that guard it. Led by the courageous Princess Nausica\u00e4, the people of the Valley engage in an epic struggle to restore the bond between humanity and Earth.", "poster_path": "/hnYowHwLq0iUWriAHtiiCWsI2dP.jpg", "popularity": 27.513}, {"id": 47971, "video": false, "vote_count": 2659, "vote_average": 5.6, "title": "xXx: Return of Xander Cage", "release_date": "2017-01-13", "original_language": "en", "original_title": "xXx: Return of Xander Cage", "genre_ids": [28, 12, 80], "backdrop_path": "/zv4acOMTPoplVLKo4FaoqAseSDx.jpg", "adult": false, "overview": "Extreme athlete turned government operative Xander Cage comes out of self-imposed exile, thought to be long dead, and is set on a collision course with deadly alpha warrior Xiang and his team in a race to recover a sinister and seemingly unstoppable weapon known as Pandora's Box. Recruiting an all-new group of thrill-seeking cohorts, Xander finds himself enmeshed in a deadly conspiracy that points to collusion at the highest levels of world governments.", "poster_path": "/yNsdyNbQqaKN0TQxkHMws2KLTJ6.jpg", "popularity": 32.989}, {"adult": false, "backdrop_path": "/vfvVuu1JdnEGcyZUj7VHrhhbeMj.jpg", "genre_ids": [12, 28], "id": 89, "original_language": "en", "original_title": "Indiana Jones and the Last Crusade", "overview": "When Dr. Henry Jones Sr. suddenly goes missing while pursuing the Holy Grail, eminent archaeologist Indiana must team up with Marcus Brody, Sallah and Elsa Schneider to follow in his father's footsteps and stop the Nazis from recovering the power of eternal life.", "poster_path": "/4p1N2Qrt8j0H8xMHMHvtRxv9weZ.jpg", "release_date": "1989-05-24", "title": "Indiana Jones and the Last Crusade", "video": false, "vote_average": 7.8, "vote_count": 5981, "popularity": 40.251}, {"adult": false, "backdrop_path": "/syALjBwUyG9wq0JZrzTVtkiuvdn.jpg", "genre_ids": [28, 12, 53], "id": 1639, "original_language": "en", "original_title": "Speed 2: Cruise Control", "overview": "Sandra Bullock and Jason Patric star as a young couple whose dream cruise turns to terror when a lunatic computer genius (Willem Dafoe) sets a new course for destruction.", "poster_path": "/biK8HM38OxMPih2VjjZkJ9gbRpO.jpg", "release_date": "1997-06-13", "title": "Speed 2: Cruise Control", "video": false, "vote_average": 4.3, "vote_count": 887, "popularity": 17.345}, {"id": 708, "video": false, "vote_count": 845, "vote_average": 6.4, "title": "The Living Daylights", "release_date": "1987-06-29", "original_language": "en", "original_title": "The Living Daylights", "genre_ids": [28, 12, 53], "backdrop_path": "/gt0TafbcheJeT9SFewDLqYWk3Sd.jpg", "adult": false, "overview": "James Bond helps a Russian General escape into the west. He soon finds out that the KGB wants to kill him for helping the General. A little while later the General is kidnapped from the Secret Service leading 007 to be suspicious.", "poster_path": "/yEryMe58dx7zm1QBhQFeuYcv2aH.jpg", "popularity": 28.787}, {"adult": false, "backdrop_path": "/lI3qV4kiSg0BvE6gelzV0tPAoFK.jpg", "genre_ids": [28, 53, 878, 12], "id": 95, "original_language": "en", "original_title": "Armageddon", "overview": "When an asteroid threatens to collide with Earth, NASA honcho Dan Truman determines the only way to stop it is to drill into its surface and detonate a nuclear bomb. This leads him to renowned driller Harry Stamper, who agrees to helm the dangerous space mission provided he can bring along his own hotshot crew. Among them is the cocksure A.J. who Harry thinks isn't good enough for his daughter, until the mission proves otherwise.", "poster_path": "/coINnuCzcw5FMHBty8hcudMOBnO.jpg", "release_date": "1998-07-01", "title": "Armageddon", "video": false, "vote_average": 6.7, "vote_count": 4735, "popularity": 25.1}], "total_pages": 70, "total_results": 1382}, "recommendations": {"page": 1, "results": [], "total_pages": 1, "total_results": 0}, "credits": {"cast": [{"cast_id": 1, "character": "Pete Douglass", "credit_id": "53039affc3a3680a2165e99f", "gender": 2, "id": 51377, "name": "David Janssen", "order": 0, "profile_path": "/xJTcnw9X76FWkfB596qR2dIUOp7.jpg"}, {"cast_id": 26, "character": "Mike Fuller", "credit_id": "5ade224ec3a36876fe002236", "gender": 2, "id": 149994, "name": "Don Meredith", "order": 2, "profile_path": "/l7wGZBx0Rx0fnV3VUCwcCinsNXj.jpg"}, {"cast_id": 3, "character": "Stan Burkhart", "credit_id": "53039b69c3a3680a1963b475", "gender": 2, "id": 29312, "name": "Christopher George", "order": 3, "profile_path": "/hNm1vhINBPyfN4yuFuNsEAjU78l.jpg"}, {"cast_id": 4, "character": "Joseph Mannheim", "credit_id": "53039b76c3a3680a3f648dd7", "gender": 2, "id": 7124, "name": "Ray Milland", "order": 4, "profile_path": "/zB7jGIBc6dc3fMqCpXlCDZxQrll.jpg"}, {"cast_id": 5, "character": "Cathy Armello", "credit_id": "53039b81c3a3680a116ed4a3", "gender": 1, "id": 100633, "name": "Lynda Day George", "order": 5, "profile_path": "/vZ03lok1D9yIyR8xeFKhZJfwbdi.jpg"}, {"cast_id": 6, "character": "Susan Mackenzie", "credit_id": "53039b8bc3a3680a116ed50b", "gender": 1, "id": 65552, "name": "Margaret Blye", "order": 6, "profile_path": "/hc23lp1JvAqQYKJvrdOJMlhvJ3S.jpg"}, {"cast_id": 9, "character": "Greco", "credit_id": "538553e50e0a261444000a04", "gender": 2, "id": 88163, "name": "Marjoe Gortner", "order": 7, "profile_path": "/erkvUkK0SMTAyhoyvqzlTxPebme.jpg"}, {"cast_id": 8, "character": "Marshal Riese", "credit_id": "53039bb0c3a3680a3f6490ff", "gender": 2, "id": 85895, "name": "Broderick Crawford", "order": 8, "profile_path": "/fCoHg9CyOza4o9Mg1TLd5yXFGM4.jpg"}, {"cast_id": 10, "character": "Terry Dunlap", "credit_id": "538554910e0a261441000a3c", "gender": 1, "id": 129437, "name": "Shani Wallis", "order": 9, "profile_path": "/cGDZ8oiOwRUnf8m5b5wAQVWrmA6.jpg"}, {"cast_id": 11, "character": "Kitty Douglass", "credit_id": "538554b40e0a261453000a5d", "gender": 1, "id": 82405, "name": "Jane Powell", "order": 10, "profile_path": "/zU4GkEqdn8Qlv14V7rrx3clNjnF.jpg"}, {"cast_id": 12, "character": "Wynberg", "credit_id": "538554f40e0a261456000a20", "gender": 2, "id": 115550, "name": "John Pickard", "order": 11, "profile_path": "/rUhld5l6uxr0nJEXCGFs6tQIeru.jpg"}, {"cast_id": 13, "character": "Controller", "credit_id": "53855571c3a3681ad7000877", "gender": 2, "id": 1213029, "name": "Steven Marlo", "order": 12, "profile_path": null}, {"cast_id": 14, "character": "Forenzo", "credit_id": "5385558ec3a3681aea000879", "gender": 2, "id": 1217791, "name": "Al Molinaro", "order": 13, "profile_path": "/4BGMjNOkXchm0vbZVHNeSLyOfIN.jpg"}, {"cast_id": 15, "character": "Reporter", "credit_id": "538555aac3a3681af00008fb", "gender": 2, "id": 4492, "name": "Philip Baker Hall", "order": 14, "profile_path": "/eH7GrivSuLEvhJL85qPkhNvg3E7.jpg"}], "crew": [{"credit_id": "53039abcc3a36809fd5ef524", "department": "Directing", "gender": 2, "id": 101767, "job": "Director", "name": "Robert Butler", "profile_path": null}, {"credit_id": "538555d5c3a3681af0000900", "department": "Production", "gender": 2, "id": 115484, "job": "Producer", "name": "Andrew J. Fenady", "profile_path": null}, {"credit_id": "538555edc3a3681aed0008db", "department": "Sound", "gender": 2, "id": 229862, "job": "Music", "name": "Richard Markowitz", "profile_path": null}, {"credit_id": "5385561bc3a3681add0008c8", "department": "Editing", "gender": 0, "id": 1325112, "job": "Editor", "name": "Nick Archer", "profile_path": null}, {"credit_id": "53855632c3a3681ae30008e3", "department": "Art", "gender": 0, "id": 1206546, "job": "Art Direction", "name": "Robert Kinoshita", "profile_path": null}, {"credit_id": "53855645c3a3681ae30008e7", "department": "Art", "gender": 0, "id": 1311377, "job": "Set Decoration", "name": "Ira Bates", "profile_path": null}, {"credit_id": "5385567ec3a3681aea000887", "department": "Writing", "gender": 2, "id": 115484, "job": "Teleplay", "name": "Andrew J. Fenady", "profile_path": null}, {"credit_id": "538556f50e0a26144d000a06", "department": "Writing", "gender": 0, "id": 1212969, "job": "Teleplay", "name": "Dick Nelson", "profile_path": null}, {"credit_id": "538557200e0a26144d000a12", "department": "Writing", "gender": 0, "id": 1325113, "job": "Teleplay", "name": "Austin Ferguson", "profile_path": null}, {"credit_id": "538702180e0a26144700348d", "department": "Camera", "gender": 2, "id": 580677, "job": "Director of Photography", "name": "William K. Jurgensen", "profile_path": null}]}}