{"adult": false, "backdrop_path": "/kyNJl2ZTxEIKOKDYYR7VqCWekZx.jpg", "belongs_to_collection": null, "budget": 0, "genres": [{"id": 35, "name": "Comedy"}, {"id": 80, "name": "Crime"}, {"id": 18, "name": "Drama"}], "homepage": null, "id": 189888, "imdb_id": "tt0080412", "original_language": "en", "original_title": "The Baltimore Bullet", "overview": "A tale of two hustlers trying to set up a big game.", "popularity": 2.197, "poster_path": "/sWMXILIEPvQulXkIBfgu0DOc7BH.jpg", "production_companies": [{"id": 37441, "logo_path": null, "name": "Filmfair Communications", "origin_country": ""}], "production_countries": [{"iso_3166_1": "US", "name": "United States of America"}], "release_date": "1980-03-31", "revenue": 215498, "runtime": 103, "spoken_languages": [{"iso_639_1": "en", "name": "English"}], "status": "Released", "tagline": "Hide your women. Lock up your cash. Billie Joe & the Baltimore Bullet are on their way!", "title": "The Baltimore Bullet", "video": false, "vote_average": 6.0, "vote_count": 3, "keywords": {"keywords": [{"id": 2348, "name": "hustler"}, {"id": 11711, "name": "billiard hall"}, {"id": 12380, "name": "tournament"}, {"id": 177108, "name": "snooker"}]}, "similar": {"page": 1, "results": [{"id": 420817, "video": false, "vote_count": 4668, "vote_average": 7.0, "title": "Aladdin", "release_date": "2019-05-22", "original_language": "en", "original_title": "Aladdin", "genre_ids": [12, 35, 14, 10749, 10751], "backdrop_path": "/rVqY0Bo4Npf6EIONUROxjYAJfmD.jpg", "adult": false, "overview": "A kindhearted street urchin named Aladdin embarks on a magical adventure after finding a lamp that releases a wisecracking genie while a power-hungry Grand Vizier vies for the same lamp that has the power to make their deepest wishes come true.", "poster_path": "/3iYQTLGoy7QnjcUYRJy4YrAgGvp.jpg", "popularity": 58.512}, {"id": 9312, "video": false, "vote_count": 1039, "vote_average": 5.7, "title": "Mortal Kombat", "release_date": "1995-08-18", "original_language": "en", "original_title": "Mortal Kombat", "genre_ids": [28, 14], "backdrop_path": "/mOIvM0pQA7J9I0Caai0zTPxnE3f.jpg", "adult": false, "overview": "For nine generations an evil sorcerer has been victorious in hand-to-hand battle against his mortal enemies. If he wins a tenth Mortal Kombat tournament, desolation and evil will reign over the multiverse forever. To save Earth, three warriors must overcome seemingly insurmountable odds, their own inner demons, and superhuman foes in this action/adventure movie based on one of the most popular video games of all time.", "poster_path": "/aQarGLCGr9ueYuwh9EXz3DfeEd9.jpg", "popularity": 17.982}, {"adult": false, "backdrop_path": "/sRJjliXA7ZqHCr7HCK0ZB83xxjr.jpg", "genre_ids": [12, 28, 878], "id": 101299, "original_language": "en", "original_title": "The Hunger Games: Catching Fire", "overview": "Katniss Everdeen has returned home safe after winning the 74th Annual Hunger Games along with fellow tribute Peeta Mellark. Winning means that they must turn around and leave their family and close friends, embarking on a \"Victor's Tour\" of the districts. Along the way Katniss senses that a rebellion is simmering, but the Capitol is still very much in control as President Snow prepares the 75th Annual Hunger Games (The Quarter Quell) - a competition that could change Panem forever.", "poster_path": "/Hn0KgefVEp0GkdTexS6gfKTMfi.jpg", "release_date": "2013-11-15", "title": "The Hunger Games: Catching Fire", "video": false, "vote_average": 7.4, "vote_count": 12031, "popularity": 22.164}, {"id": 674, "video": false, "vote_count": 12268, "vote_average": 7.8, "title": "Harry Potter and the Goblet of Fire", "release_date": "2005-11-16", "original_language": "en", "original_title": "Harry Potter and the Goblet of Fire", "genre_ids": [12, 14, 10751], "backdrop_path": "/gzKW3emulMxIHzuXxZoyDB1lei9.jpg", "adult": false, "overview": "Harry starts his fourth year at Hogwarts, competes in the treacherous Triwizard Tournament and faces the evil Lord Voldemort. Ron and Hermione help Harry manage the pressure \u2013 but Voldemort lurks, awaiting his chance to destroy Harry and all that he stands for.", "poster_path": "/fECBtHlr0RB3foNHDiCBXeg9Bv9.jpg", "popularity": 37.055}, {"adult": false, "backdrop_path": "/tBWZkKMcrWdrpkOAA84FBlzE2XK.jpg", "genre_ids": [12, 28, 53], "id": 9053, "original_language": "en", "original_title": "DOA: Dead or Alive", "overview": "Four beautiful rivals at an invitation-only martial-arts tournament join forces against a sinister threat. Princess Kasumi is an aristocratic warrior trained by martial-arts masters. Tina Armstrong is a wrestling superstar. Helena Douglas is an athlete with a tragic past. Christie Allen earns her keep as a thief and an assassin-for-hire.", "poster_path": "/lZ6vZka2M0jtH1khYWa8j73E275.jpg", "release_date": "2006-09-07", "title": "DOA: Dead or Alive", "video": false, "vote_average": 4.9, "vote_count": 415, "popularity": 15.433}, {"adult": false, "backdrop_path": "/bkPFcKiMj8lPoYsxGSFBRXQMkyu.jpg", "genre_ids": [18], "id": 990, "original_language": "en", "original_title": "The Hustler", "overview": "Fast Eddie Felson is a small-time pool hustler with a lot of talent but a self-destructive attitude. His bravado causes him to challenge the legendary Minnesota Fats to a high-stakes match.", "poster_path": "/c7lg1HUBw6rXkpCMQ3TUyZaIWO4.jpg", "release_date": "1961-09-25", "title": "The Hustler", "video": false, "vote_average": 7.8, "vote_count": 480, "popularity": 14.819}, {"id": 8005, "video": false, "vote_count": 1143, "vote_average": 6.6, "title": "Robin Hood: Men in Tights", "release_date": "1993-07-28", "original_language": "en", "original_title": "Robin Hood: Men in Tights", "genre_ids": [35], "backdrop_path": "/u9qAKiXdBeK7oWzaG3XRK53Ozbt.jpg", "adult": false, "overview": "Robin Hood comes home after fighting in the Crusades to learn that the noble King Richard is in exile and that the despotic King John now rules England, with the help of the Sheriff of Rottingham. Robin Hood assembles a band of fellow patriots to do battle with King John and the Sheriff.", "poster_path": "/3pd3sdot0HfQTFzqgTUzaF4kcxP.jpg", "popularity": 15.113}, {"id": 38234, "video": false, "vote_count": 341, "vote_average": 7.4, "title": "Undisputed III: Redemption", "release_date": "2010-05-22", "original_language": "en", "original_title": "Undisputed III: Redemption", "genre_ids": [28, 53], "backdrop_path": "/c9GlsmZsZ9DR0G3LhRNip2wF06Y.jpg", "adult": false, "overview": "Russian inmate Boyka, now severely hobbled by the knee injury suffered at the end of Undisputed 2. No longer the feared prison fighter he was, he has declined so far that he is now good only for cleaning toilets. But when a new prison fight tournament begins - an international affair, matching the best fighters from prisons around the globe, enticing them with the promise of freedom for the winner - Boyka must reclaim his dignity and fight for his position in the tournament.", "poster_path": "/vLSnWLCnqk5j3oLnMnBHJGL3bO0.jpg", "popularity": 17.913}, {"id": 474335, "video": false, "vote_count": 254, "vote_average": 6.5, "title": "Uncle Drew", "release_date": "2018-06-27", "original_language": "en", "original_title": "Uncle Drew", "genre_ids": [35], "backdrop_path": "/xv2UTn6bU0wwmMW8D8ZnAx7SWNX.jpg", "adult": false, "overview": "Uncle Drew recruits a squad of older basketball players to return to the court to compete in a tournament.", "poster_path": "/cDjAlFbpvjuxH4gFD02fqlyk6qL.jpg", "popularity": 10.76}, {"id": 25188, "video": false, "vote_count": 285, "vote_average": 7.8, "title": "The Last Picture Show", "release_date": "1971-10-02", "original_language": "en", "original_title": "The Last Picture Show", "genre_ids": [18], "backdrop_path": "/53VyjeSqjBGQXsSPIrgE57jjH3o.jpg", "adult": false, "overview": "High school seniors and best friends, Sonny and Duane, live in a dying Texas town. The handsome Duane is dating local beauty, Jacy, while Sonny is having an affair with the coach's wife, Ruth. As graduation nears, both boys contemplate their futures. While Duane eyes the army and Sonny takes over a local business, each boy struggles to figure out if he can escape this dead-end town and build a better life somewhere else.", "poster_path": "/sq2HpOW7PLWmOcofQrA9NoEyZI0.jpg", "popularity": 9.727}, {"adult": false, "backdrop_path": "/stSaFz5CtMXwIj3r4MDjqxqWRot.jpg", "genre_ids": [18, 12], "id": 468, "original_language": "en", "original_title": "My Own Private Idaho", "overview": "In this loose adaptation of Shakespeare's \"Henry IV,\" Mike Waters is a gay hustler afflicted with narcolepsy. Scott Favor is the rebellious son of a mayor. Together, the two travel from Portland, Oregon to Idaho and finally to the coast of Italy in a quest to find Mike's estranged mother. Along the way they turn tricks for money and drugs, eventually attracting the attention of a wealthy benefactor and sexual deviant.", "poster_path": "/xgWJPruxsL2TGVwhZDM8YiarbEY.jpg", "release_date": "1991-02-01", "title": "My Own Private Idaho", "video": false, "vote_average": 7.1, "vote_count": 524, "popularity": 14.658}, {"id": 9476, "video": false, "vote_count": 1821, "vote_average": 6.8, "title": "A Knight's Tale", "release_date": "2001-05-11", "original_language": "en", "original_title": "A Knight's Tale", "genre_ids": [28, 12, 18, 10749], "backdrop_path": "/kohGZ3OqK31UYmf7b5fM5pB80VW.jpg", "adult": false, "overview": "William Thatcher, a peasant, is sent to apprentice with a Knight named Hector as a young boy. Urged by his father to \"change his Stars\", he assumes Sir Hector's place in a tournament when Hector dies in the middle of it. He wins. With the other apprentices, he trains and assumes the title of Sir Ulrich von Lichtenstein.", "poster_path": "/1ZUpkMivvlF0ZoyXQzHF4El3izv.jpg", "popularity": 21.766}, {"adult": false, "backdrop_path": "/tHuWYBNfsVOc99PBmQtEBryG2Hd.jpg", "genre_ids": [35, 10751, 878, 18], "id": 11966, "original_language": "en", "original_title": "Short Circuit 2", "overview": "Robot Johnny Five comes to the city and gets manipulated by criminals who want him for their own purposes.", "poster_path": "/18yjQQMK6mtB3L3os1kmT7MwXdf.jpg", "release_date": "1988-07-06", "title": "Short Circuit 2", "video": false, "vote_average": 5.9, "vote_count": 303, "popularity": 12.097}, {"adult": false, "backdrop_path": "/cjWfKlJDnxqPxSRaPd9W3MWAdkq.jpg", "genre_ids": [27, 28, 53], "id": 24056, "original_language": "en", "original_title": "The Tournament", "overview": "Every ten or seven years in an unsuspecting town, The Tournament takes place. A battle royale between 30 of the world's deadliest assassins. The last man standing receiving the $10,000,000 cash prize and the title of Worlds No 1, which itself carries the legendary million dollar a bullet price tag.", "poster_path": "/ldqexoGgxnuV1hpX64MR6WnyEVG.jpg", "release_date": "2009-05-01", "title": "The Tournament", "video": false, "vote_average": 5.8, "vote_count": 321, "popularity": 10.117}, {"id": 9823, "video": false, "vote_count": 496, "vote_average": 4.1, "title": "Mortal Kombat: Annihilation", "release_date": "1997-11-21", "original_language": "en", "original_title": "Mortal Kombat: Annihilation", "genre_ids": [28, 14, 878], "backdrop_path": "/19EpgKZDkLIwY1TI1pjBJtQ5qdr.jpg", "adult": false, "overview": "A group of heroic warriors has only six days to save the planet in \"Mortal Kombat Annihilation.\" To succeed they must survive the most spectacular series of challenges any human, or god, has ever encountered as they battle an evil warlord bent on taking control of Earth. Sequel to the film \"Mortal Kombat,\" and based on the popular video game.", "poster_path": "/A8p168AFQ60U5ypR5NogN5Tr13S.jpg", "popularity": 11.132}, {"adult": false, "backdrop_path": "/61RDA1ZIRRxYrDkV51ErctwUzsb.jpg", "genre_ids": [28, 18, 53], "id": 11123, "original_language": "en", "original_title": "Earthquake", "overview": "Earthquake is a 1974 American disaster film that achieved huge box-office success, continuing the disaster film genre of the 1970s where recognizable all-star casts attempt to survive life or death situations. The plot concerns the struggle for survival after a catastrophic earthquake destroys most of the city of Los Angeles, California.", "poster_path": "/oQU4ibX2ROGZcl5dUzC08fDCnuW.jpg", "release_date": "1974-11-15", "title": "Earthquake", "video": false, "vote_average": 5.8, "vote_count": 139, "popularity": 9.938}, {"id": 11873, "video": false, "vote_count": 647, "vote_average": 6.8, "title": "The Color of Money", "release_date": "1986-10-07", "original_language": "en", "original_title": "The Color of Money", "genre_ids": [18], "backdrop_path": "/jAitDcerFEgELU0195AyT4AWKG0.jpg", "adult": false, "overview": "Former pool hustler \"Fast Eddie\" Felson decides he wants to return to the game by taking a pupil. He meets talented but green Vincent Lauria and proposes a partnership. As they tour pool halls, Eddie teaches Vincent the tricks of scamming, but he eventually grows frustrated with Vincent's showboat antics, leading to an argument and a falling-out. Eddie takes up playing again and soon crosses paths with Vincent as an opponent.", "poster_path": "/xBFzAIDqlvyDIy5Zf5ASVz3kHwN.jpg", "popularity": 10.549}, {"adult": false, "backdrop_path": "/9Ln5wxy1yuvgIEw2hDqMld44BGH.jpg", "genre_ids": [18], "id": 3116, "original_language": "en", "original_title": "Midnight Cowboy", "overview": "Joe Buck is a wide-eyed hustler from Texas hoping to score big with wealthy New York City women; he finds a companion in Enrico \"Ratso\" Rizzo, an ailing swindler with a bum leg and a quixotic fantasy of escaping to Florida.", "poster_path": "/f7YLzOxwWzeEdo7RhAlPSBTYa8.jpg", "release_date": "1969-05-25", "title": "Midnight Cowboy", "video": false, "vote_average": 7.6, "vote_count": 619, "popularity": 12.369}, {"adult": false, "backdrop_path": "/g3acAt4ROTOaSPHxHa1K2VjjitZ.jpg", "genre_ids": [18, 36], "id": 397538, "original_language": "sv", "original_title": "Borg vs McEnroe", "overview": "The Swedish Bj\u00f6rn Borg and the American John McEnroe, the best tennis players in the world, maintain a legendary duel during the 1980 Wimbledon tournament.", "poster_path": "/9jdg8VxleYb1DhPiEfHM7DzfvGw.jpg", "release_date": "2017-09-06", "title": "Borg vs McEnroe", "video": false, "vote_average": 7.0, "vote_count": 646, "popularity": 12.003}, {"adult": false, "backdrop_path": "/9Yvgdlc0C1fdXHxubMNxzhF6mac.jpg", "genre_ids": [18, 28, 53], "id": 22164, "original_language": "en", "original_title": "Blood and Bone", "overview": "In Los Angeles, an ex-con takes the underground fighting world by storm in his quest to fulfill a promise to a dead friend.", "poster_path": "/771kBCBYaSeuqGF1yl5SGdYHeXE.jpg", "release_date": "2009-02-07", "title": "Blood and Bone", "video": false, "vote_average": 6.8, "vote_count": 249, "popularity": 13.301}], "total_pages": 6, "total_results": 111}, "recommendations": {"page": 1, "results": [], "total_pages": 1, "total_results": 0}, "credits": {"cast": [{"cast_id": 2, "character": "Nick Casey", "credit_id": "52fe4d649251416c75139aaf", "gender": 2, "id": 5563, "name": "James Coburn", "order": 0, "profile_path": "/sEouHlYr1hOzl3u6E4KV6gIJSPd.jpg"}, {"cast_id": 3, "character": "The Deacon", "credit_id": "52fe4d649251416c75139ab3", "gender": 2, "id": 5004, "name": "Omar Sharif", "order": 1, "profile_path": "/yDUBIJa5BdktDzSgCkKEZLz7KxH.jpg"}, {"cast_id": 4, "character": "Billie Joe Robbins", "credit_id": "52fe4d649251416c75139ab7", "gender": 2, "id": 2547, "name": "Bruce Boxleitner", "order": 2, "profile_path": "/8CWvXiTru0EPH0M9ecLQ84E0YWA.jpg"}, {"cast_id": 6, "character": "Valene Burns", "credit_id": "532d2199c3a3685fcb00119f", "gender": 1, "id": 13652, "name": "Ronee Blakley", "order": 3, "profile_path": "/fLdnGFUv9bpT0Tk1iqKBV1k1TH0.jpg"}, {"cast_id": 9, "character": "Max", "credit_id": "545a4d9cc3a36826000002b9", "gender": 2, "id": 41224, "name": "Jack O'Halloran", "order": 4, "profile_path": "/e7mGR37EUMd0JgIbvKxg871LR4e.jpg"}, {"cast_id": 10, "character": "Snow White", "credit_id": "545a4dac0e0a263f4a0002cb", "gender": 2, "id": 2067, "name": "Calvin Lockhart", "order": 5, "profile_path": "/eK0wIuJMvQWE1ZKQq65kj9P4TKv.jpg"}, {"cast_id": 5, "character": "Waitress", "credit_id": "52fe4d649251416c75139abb", "gender": 1, "id": 52623, "name": "Joyce Mandel", "order": 6, "profile_path": "/qJPrNvN5avZfxxkch2egvJeFGbV.jpg"}, {"cast_id": 11, "character": "Sugar", "credit_id": "56d41efa925141391f000a81", "gender": 1, "id": 108155, "name": "Cisse Cameron", "order": 7, "profile_path": "/qOJ9sKjVdmCUlk2rUOZpo8VftrH.jpg"}], "crew": [{"credit_id": "52fe4d649251416c75139aab", "department": "Directing", "gender": 2, "id": 88458, "job": "Director", "name": "Robert Ellis Miller", "profile_path": null}, {"credit_id": "545a4d790e0a263f5900029a", "department": "Writing", "gender": 2, "id": 103035, "job": "Screenplay", "name": "John Brascia", "profile_path": null}, {"credit_id": "545a4d7e0e0a263f5300029a", "department": "Writing", "gender": 2, "id": 103035, "job": "Story", "name": "John Brascia", "profile_path": null}]}}