{"adult": false, "backdrop_path": "/lwHk98Y4QoLuVYHE0zVuqR7whb4.jpg", "belongs_to_collection": null, "budget": 0, "genres": [{"id": 28, "name": "Action"}, {"id": 35, "name": "Comedy"}, {"id": 53, "name": "Thriller"}, {"id": 878, "name": "Science Fiction"}], "homepage": null, "id": 190166, "imdb_id": "tt0060676", "original_language": "en", "original_title": "Matchless", "overview": "A secret agent possesses a ring that makes him invisible for a short time, once every 10 hours. He is in pursuit of an evil criminal mastermind but, at the same time, must evade an enemy agent who also wants the ring.", "popularity": 2.799, "poster_path": "/pkT2wg6cQ1Rq0acl0O6wEsU9msW.jpg", "production_companies": [{"id": 1216, "logo_path": null, "name": "Dino de Laurentiis Cinematografica", "origin_country": "IT"}], "production_countries": [{"iso_3166_1": "IT", "name": "Italy"}], "release_date": "1967-08-13", "revenue": 0, "runtime": 105, "spoken_languages": [{"iso_639_1": "en", "name": "English"}, {"iso_639_1": "it", "name": "Italiano"}], "status": "Released", "tagline": "THIS WOMAN is the most thrilling act of espionage you've ever seen! She holds the key to \"Matchless\" - a spy plot as flawless as her beauty - as reckless as her body!", "title": "Matchless", "video": false, "vote_average": 5.7, "vote_count": 3, "keywords": {"keywords": [{"id": 470, "name": "spy"}, {"id": 11134, "name": "espionage"}, {"id": 158750, "name": "female agent"}, {"id": 189115, "name": "invisibility"}]}, "similar": {"page": 1, "results": [{"adult": false, "backdrop_path": "/vHLsgsvLtFWDlhBigKDRsYIC1p6.jpg", "genre_ids": [28, 9648, 53], "id": 27576, "original_language": "en", "original_title": "Salt", "overview": "As a CIA officer, Evelyn Salt swore an oath to duty, honor and country. Her loyalty will be tested when a defector accuses her of being a Russian spy. Salt goes on the run, using all her skills and years of experience as a covert operative to elude capture. Salt's efforts to prove her innocence only serve to cast doubt on her motives, as the hunt to uncover the truth behind her identity continues and the question remains: \"Who is Salt?\"", "poster_path": "/956xMjH4sPoqimqoLOP6AI19mjm.jpg", "release_date": "2010-07-21", "title": "Salt", "video": false, "vote_average": 6.3, "vote_count": 3533, "popularity": 20.188}, {"id": 341013, "video": false, "vote_count": 4061, "vote_average": 6.3, "title": "Atomic Blonde", "release_date": "2017-07-26", "original_language": "en", "original_title": "Atomic Blonde", "genre_ids": [28, 9648, 53], "backdrop_path": "/g3hni0i9iAQ13jDGOFWavJFlojc.jpg", "adult": false, "overview": "An undercover MI6 agent is sent to Berlin during the Cold War to investigate the murder of a fellow agent and recover a missing list of double agents.", "poster_path": "/kV9R5h0Yct1kR8Hf8sJ1nX0Vz4x.jpg", "popularity": 31.297}, {"adult": false, "backdrop_path": "/tjQHn6xW5BiB1RJ3OZIPDzIOSkF.jpg", "genre_ids": [12, 28, 53], "id": 954, "original_language": "en", "original_title": "Mission: Impossible", "overview": "When Ethan Hunt, the leader of a crack espionage team whose perilous operation has gone awry with no explanation, discovers that a mole has penetrated the CIA, he's surprised to learn that he's the No. 1 suspect. To clear his name, Hunt now must ferret out the real double agent and, in the process, even the score.", "poster_path": "/1PVKS17pIBFsIhgFws2uagPDNLW.jpg", "release_date": "1996-05-22", "title": "Mission: Impossible", "video": false, "vote_average": 6.9, "vote_count": 5216, "popularity": 25.737}, {"adult": false, "backdrop_path": "/bqpGceqQuHbtnjEqUG9acSYIVIh.jpg", "genre_ids": [18, 53, 9648], "id": 49517, "original_language": "en", "original_title": "Tinker Tailor Soldier Spy", "overview": "In the bleak days of the Cold War, espionage veteran George Smiley is forced from semi-retirement to uncover a Soviet mole within his former colleagues at the heart of MI6.", "poster_path": "/2N3P730TYXEcNL0BO8WBuMc6yJz.jpg", "release_date": "2011-09-16", "title": "Tinker Tailor Soldier Spy", "video": false, "vote_average": 6.7, "vote_count": 1545, "popularity": 18.392}, {"adult": false, "backdrop_path": "/oS1Ck6sbBnIReyactTdFlFF2Wkh.jpg", "genre_ids": [35, 28, 12], "id": 203801, "original_language": "en", "original_title": "The Man from U.N.C.L.E.", "overview": "At the height of the Cold War, a mysterious criminal organization plans to use nuclear weapons and technology to upset the fragile balance of power between the United States and Soviet Union. CIA agent Napoleon Solo and KGB agent Illya Kuryakin are forced to put aside their hostilities and work together to stop the evildoers in their tracks. The duo's only lead is the daughter of a missing German scientist, whom they must find soon to prevent a global catastrophe.", "poster_path": "/i9P3FU8z2Sd7jYRx6l1Iby0zP0o.jpg", "release_date": "2015-08-13", "title": "The Man from U.N.C.L.E.", "video": false, "vote_average": 7.1, "vote_count": 3842, "popularity": 21.895}, {"id": 681, "video": false, "vote_count": 1040, "vote_average": 6.4, "title": "Diamonds Are Forever", "release_date": "1971-12-13", "original_language": "en", "original_title": "Diamonds Are Forever", "genre_ids": [28, 12, 53], "backdrop_path": "/gIGLXXvsljHK1jdDNaIXsjhZnnH.jpg", "adult": false, "overview": "Diamonds are stolen only to be sold again in the international market. James Bond infiltrates a smuggling mission to find out who\u2019s guilty. The mission takes him to Las Vegas where Bond meets his archenemy Blofeld.", "poster_path": "/viPjZ3JCOahcfNCcVhiPExusJoZ.jpg", "popularity": 18.532}, {"id": 660, "video": false, "vote_count": 1117, "vote_average": 6.7, "title": "Thunderball", "release_date": "1965-12-15", "original_language": "en", "original_title": "Thunderball", "genre_ids": [28, 12, 53], "backdrop_path": "/qd0jrqxFLCKkNruPuJ7zXuQRpKG.jpg", "adult": false, "overview": "A criminal organization has obtained two nuclear bombs and are asking for a 100 million pound ransom in the form of diamonds in seven days or they will use the weapons. The secret service sends James Bond to the Bahamas to once again save the world.", "poster_path": "/sASN1VnJxWosdzp4mH40P47Xhhz.jpg", "popularity": 22.632}, {"adult": false, "backdrop_path": "/9QcYwm5af4JaUSOyuysVEYOyEXn.jpg", "genre_ids": [12, 28, 53], "id": 646, "original_language": "en", "original_title": "Dr. No", "overview": "In the film that launched the James Bond saga, Agent 007 battles mysterious Dr. No, a scientific genius bent on destroying the U.S. space program. As the countdown to disaster begins, Bond must go to Jamaica, where he encounters beautiful Honey Ryder, to confront a megalomaniacal villain in his massive island headquarters.", "poster_path": "/gRdfLVVf6FheOw6mw6wOsKhZG1l.jpg", "release_date": "1962-10-04", "title": "Dr. No", "video": false, "vote_average": 7.0, "vote_count": 1837, "popularity": 31.291}, {"id": 36669, "video": false, "vote_count": 2045, "vote_average": 5.9, "title": "Die Another Day", "release_date": "2002-11-17", "original_language": "en", "original_title": "Die Another Day", "genre_ids": [28, 12, 53], "backdrop_path": "/3YQfmtpbiFCMHcXY3lJ7fGEcOL6.jpg", "adult": false, "overview": "Bond takes on a North Korean leader who undergoes DNA replacement procedures that allow him to assume different identities. American agent, Jinx Johnson assists Bond in his attempt to thwart the villain's plans to exploit a satellite that is powered by solar energy.", "poster_path": "/1iUZqUXS7x5FcGM5J0u01xuObWC.jpg", "popularity": 24.2}, {"id": 818, "video": false, "vote_count": 1920, "vote_average": 5.9, "title": "Austin Powers in Goldmember", "release_date": "2002-07-26", "original_language": "en", "original_title": "Austin Powers in Goldmember", "genre_ids": [35, 80, 878], "backdrop_path": "/mzZraP6PV34eVjB8giKbKIMXVeW.jpg", "adult": false, "overview": "The world's most shagadelic spy continues his fight against Dr. Evil. This time, the diabolical doctor and his clone, Mini-Me, team up with a new foe -- '70s kingpin Goldmember. While pursuing the team of villains to stop them from world domination, Austin gets help from his dad and an old girlfriend.", "poster_path": "/tFR7dTbX5BsmoUwKHfa2cWoZbwK.jpg", "popularity": 23.167}, {"id": 37724, "video": false, "vote_count": 11109, "vote_average": 7.1, "title": "Skyfall", "release_date": "2012-10-25", "original_language": "en", "original_title": "Skyfall", "genre_ids": [28, 12, 53], "backdrop_path": "/6bjRujKSnCVSrzC1qjmqfAyaiET.jpg", "adult": false, "overview": "When Bond's latest assignment goes gravely wrong and agents around the world are exposed, MI6 is attacked forcing M to relocate the agency. These events cause her authority and position to be challenged by Gareth Mallory, the new Chairman of the Intelligence and Security Committee. With MI6 now compromised from both inside and out, M is left with one ally she can trust: Bond. 007 takes to the shadows - aided only by field agent, Eve - following a trail to the mysterious Silva, whose lethal and hidden motives have yet to reveal themselves.", "poster_path": "/lQCkPLDxFONmgzrWLvq085v1g2d.jpg", "popularity": 34.013}, {"id": 37834, "video": false, "vote_count": 2737, "vote_average": 6.1, "title": "Knight and Day", "release_date": "2010-06-15", "original_language": "en", "original_title": "Knight and Day", "genre_ids": [28, 35], "backdrop_path": "/clq0YPDQYCql9ekC17YFklk8FwX.jpg", "adult": false, "overview": "A fugitive couple goes on a glamorous and sometimes deadly adventure where nothing and no one \u2013 even themselves \u2013 are what they seem. Amid shifting alliances and unexpected betrayals, they race across the globe, with their survival ultimately hinging on the battle of truth vs. trust.", "poster_path": "/aHEpzwXvMtIEMBE13tWXS5oHZ7d.jpg", "popularity": 17.619}, {"id": 207703, "video": false, "vote_count": 11138, "vote_average": 7.6, "title": "Kingsman: The Secret Service", "release_date": "2014-12-13", "original_language": "en", "original_title": "Kingsman: The Secret Service", "genre_ids": [28, 12, 35, 80], "backdrop_path": "/7McaexSsSTLD8V17UgaZAfI0Cu9.jpg", "adult": false, "overview": "The story of a super-secret spy organization that recruits an unrefined but promising street kid into the agency's ultra-competitive training program just as a global threat emerges from a twisted tech genius.", "poster_path": "/8x7ej0LnHdKUqilNNJXYOeyB6L9.jpg", "popularity": 24.161}, {"id": 36955, "video": false, "vote_count": 2202, "vote_average": 6.9, "title": "True Lies", "release_date": "1994-07-15", "original_language": "en", "original_title": "True Lies", "genre_ids": [28, 53], "backdrop_path": "/o2agns0LEqyEUCByMT8ViIOio7r.jpg", "adult": false, "overview": "A fearless, globe-trotting, terrorist-battling secret agent has his life turned upside down when he discovers his wife might be having an affair with a used car salesman while terrorists smuggle nuclear war heads into the United States.", "poster_path": "/mTAHr5h5i64hTLqo0cW2X2083Cx.jpg", "popularity": 25.06}, {"id": 691, "video": false, "vote_count": 939, "vote_average": 6.7, "title": "The Spy Who Loved Me", "release_date": "1977-07-07", "original_language": "en", "original_title": "The Spy Who Loved Me", "genre_ids": [28, 12, 53], "backdrop_path": "/2tCAEhE2rPONBmUOs4W73AlBWYg.jpg", "adult": false, "overview": "Russian and British submarines with nuclear missiles on board both vanish from sight without a trace. England and Russia both blame each other as James Bond tries to solve the riddle of the disappearing ships. But the KGB also has an agent on the case.", "poster_path": "/vYMgDqQDpqHDhz3enGkwBmTs7p7.jpg", "popularity": 16.084}, {"adult": false, "backdrop_path": "/zaGmoSackrRF7w6NieQ0FWY0M7k.jpg", "genre_ids": [28, 35, 9648], "id": 302699, "original_language": "en", "original_title": "Central Intelligence", "overview": "After he reunites with an old pal through Facebook, a mild-mannered accountant is lured into the world of international espionage.", "poster_path": "/9M5ibpQUjoVFjjnP2AdLcof4hAk.jpg", "release_date": "2016-06-15", "title": "Central Intelligence", "video": false, "vote_average": 6.3, "vote_count": 3486, "popularity": 14.895}, {"id": 1535, "video": false, "vote_count": 1107, "vote_average": 6.9, "title": "Spy Game", "release_date": "2001-11-18", "original_language": "en", "original_title": "Spy Game", "genre_ids": [28, 80, 53], "backdrop_path": "/ncF0ozvDnIVFzKF0J5iqwEIezRJ.jpg", "adult": false, "overview": "On the day of his retirement, a veteran CIA agent learns that his former prot\u00e9g\u00e9 has been arrested in China, is sentenced to die the next morning in Beijing, and that the CIA is considering letting that happen to avoid an international scandal.", "poster_path": "/hsb8hBeU3tkTX8SUYW6YYw6JPYD.jpg", "popularity": 18.997}, {"id": 9486, "video": false, "vote_count": 2000, "vote_average": 6.2, "title": "Johnny English", "release_date": "2003-03-14", "original_language": "en", "original_title": "Johnny English", "genre_ids": [28, 12, 35], "backdrop_path": "/wNEsGAHws1UATmZfnjNBRi2Ln5.jpg", "adult": false, "overview": "A lowly pencil pusher working for MI7, Johnny English is suddenly promoted to super spy after Agent One is assassinated and every other agent is blown up at his funeral. When a billionaire entrepreneur sponsors the exhibition of the Crown Jewels\u2014and the valuable gems disappear on the opening night and on English's watch\u2014the newly-designated agent must jump into action to find the thief and recover the missing gems.", "poster_path": "/fvFOJFDwgtINOxxtrFFiCMUrGdR.jpg", "popularity": 25.499}, {"adult": false, "backdrop_path": "/3amJMLyjx0rDbwhnKNG8d6gzDSV.jpg", "genre_ids": [53, 18], "id": 296098, "original_language": "en", "original_title": "Bridge of Spies", "overview": "During the Cold War, the Soviet Union captures U.S. pilot Francis Gary Powers after shooting down his U-2 spy plane. Sentenced to 10 years in prison, Powers' only hope is New York lawyer James Donovan, recruited by a CIA operative to negotiate his release. Donovan boards a plane to Berlin, hoping to win the young man's freedom through a prisoner exchange. If all goes well, the Russians would get Rudolf Abel, the convicted spy who Donovan defended in court.", "poster_path": "/xPCNA8zJxyyFKTj47QpvkXHukzB.jpg", "release_date": "2015-10-15", "title": "Bridge of Spies", "video": false, "vote_average": 7.2, "vote_count": 4664, "popularity": 19.268}, {"id": 213, "video": false, "vote_count": 2129, "vote_average": 8.0, "title": "North by Northwest", "release_date": "1959-07-07", "original_language": "en", "original_title": "North by Northwest", "genre_ids": [9648, 53], "backdrop_path": "/AplR1QRswlXiM65GoifX8sDadME.jpg", "adult": false, "overview": "Advertising man Roger Thornhill is mistaken for a spy, triggering a deadly cross-country chase.", "poster_path": "/aNV789h3oHm2pTHK5Bdq5RuiumZ.jpg", "popularity": 20.897}], "total_pages": 49, "total_results": 980}, "recommendations": {"page": 1, "results": [], "total_pages": 1, "total_results": 0}, "credits": {"cast": [{"cast_id": 4, "character": "Perry 'Matchless' Liston", "credit_id": "52fe4c599251416c910f228f", "gender": 2, "id": 54123, "name": "Patrick O'Neal", "order": 0, "profile_path": "/ao2jCOEIew0VuYRjYg9LiFWiYYA.jpg"}, {"cast_id": 5, "character": "Arabella", "credit_id": "52fe4c599251416c910f2293", "gender": 1, "id": 19612, "name": "Ira von F\u00fcrstenberg", "order": 1, "profile_path": "/u26jq08vTQxDtGFvgVufNOlnn49.jpg"}, {"cast_id": 6, "character": "Gregori Andreanu", "credit_id": "52fe4c599251416c910f2297", "gender": 2, "id": 9221, "name": "Donald Pleasence", "order": 2, "profile_path": "/eVJGFCd8ikP6w0XjkuiTbsm65eD.jpg"}, {"cast_id": 7, "character": "Hank Norris", "credit_id": "52fe4c599251416c910f229b", "gender": 2, "id": 14731, "name": "Henry Silva", "order": 3, "profile_path": "/jRsXbYfr0t2ohfofil8WikkAOtT.jpg"}, {"cast_id": 8, "character": "Tipsy", "credit_id": "52fe4c599251416c910f229f", "gender": 1, "id": 24690, "name": "Nicoletta Machiavelli", "order": 4, "profile_path": "/wS75aj2T5pXIhpiuBuJHbi61wGm.jpg"}, {"cast_id": 9, "character": "General Shapiro", "credit_id": "52fe4c599251416c910f22a3", "gender": 2, "id": 5792, "name": "Howard St. John", "order": 5, "profile_path": "/1MmHUGc6btitSBRTu5vmYeGuHII.jpg"}, {"cast_id": 10, "character": "Colonel Coolpepper", "credit_id": "52fe4c599251416c910f22a7", "gender": 2, "id": 40191, "name": "Sorrell Booke", "order": 6, "profile_path": "/4LuFV048VmqjbM98UWklsetsq60.jpg"}, {"cast_id": 11, "character": "Hogdon (as Lewis Jordan)", "credit_id": "52fe4c599251416c910f22ab", "gender": 0, "id": 40893, "name": "Tiziano Cortini", "order": 7, "profile_path": null}, {"cast_id": 12, "character": "O-Lan (as Elisabeth Wu)", "credit_id": "52fe4c599251416c910f22af", "gender": 1, "id": 1046595, "name": "Elisabetta Wu", "order": 8, "profile_path": "/aLO07U2xQfqBE1bJOtOj6Ob22Wi.jpg"}], "crew": [{"credit_id": "5c5a21f5c3a3683cd186b025", "department": "Sound", "gender": 0, "id": 25321, "job": "Original Music Composer", "name": "Piero Piccioni", "profile_path": "/ArFViJn3OmeE7CLXpyeg6yoku0B.jpg"}, {"credit_id": "5bc853f792514109f6011f7e", "department": "Costume & Make-Up", "gender": 2, "id": 32055, "job": "Costume Designer", "name": "Piero Tosi", "profile_path": "/bTE02wqXfOBOFlAcNlpWnVfcUHO.jpg"}, {"credit_id": "52fe4c599251416c910f228b", "department": "Writing", "gender": 0, "id": 49900, "job": "Story", "name": "Ermanno Donati", "profile_path": null}, {"credit_id": "52fe4c599251416c910f227f", "department": "Directing", "gender": 2, "id": 146793, "job": "Director", "name": "Alberto Lattuada", "profile_path": "/dR6AK20kw2VSRkOrLOnGuYzp5el.jpg"}, {"credit_id": "52fe4c599251416c910f2285", "department": "Writing", "gender": 2, "id": 146793, "job": "Writer", "name": "Alberto Lattuada", "profile_path": "/dR6AK20kw2VSRkOrLOnGuYzp5el.jpg"}]}}