{"adult": false, "backdrop_path": "/gnCDvTnpZO5xrcLbKbdsmm3KsUf.jpg", "belongs_to_collection": null, "budget": 0, "genres": [{"id": 878, "name": "Science Fiction"}, {"id": 53, "name": "Thriller"}], "homepage": "http://www.abemovie.com/", "id": 190250, "imdb_id": "tt2883236", "original_language": "en", "original_title": "ABE", "overview": "A short film about a robot programmed for love who wants to fix the humans who do not love him back.", "popularity": 2.923, "poster_path": "/eX5RExVtLwhjFo1Ze7ioxw2oeKl.jpg", "production_companies": [], "production_countries": [{"iso_3166_1": "GB", "name": "United Kingdom"}], "release_date": "2013-04-16", "revenue": 0, "runtime": 8, "spoken_languages": [{"iso_639_1": "en", "name": "English"}], "status": "Released", "tagline": "", "title": "ABE", "video": false, "vote_average": 6.0, "vote_count": 41, "keywords": {"keywords": [{"id": 214549, "name": "short"}]}, "similar": {"page": 1, "results": [{"id": 621733, "video": false, "vote_count": 0, "vote_average": 0.0, "title": "A Trip to the Seaside", "release_date": "2019-08-30", "original_language": "en", "original_title": "A Trip to the Seaside", "genre_ids": [99], "backdrop_path": null, "adult": false, "overview": "Experimental short film on the excitement and rush of a day trip", "poster_path": "/AuZVhpoJ4jm2LWDhoJKfxQfhDAi.jpg", "popularity": 1.324}, {"id": 14813, "video": false, "vote_count": 456, "vote_average": 7.6, "title": "Mickey's Christmas Carol", "release_date": "1983-10-19", "original_language": "en", "original_title": "Mickey's Christmas Carol", "genre_ids": [16, 10751], "backdrop_path": "/fDK3xeAcQfQ40ZUULgZshElkspa.jpg", "adult": false, "overview": "It is an adaptation of the Charles Dickens classic A Christmas Carol, featuring Scrooge McDuck as his namesake and inspiration Ebenezer Scrooge and Mickey Mouse as Bob Cratchit. This film was based on a 1972 audio musical entitled Disney's A Christmas Carol. It is a twenty-four minute animated short film produced by Walt Disney Productions as an accompaniment to a re-release of The Rescuers.", "poster_path": "/29iF1IiC3ZyJQ1kmTf4LD8p8oro.jpg", "popularity": 14.7}, {"adult": false, "backdrop_path": "/4brEMzPazQE3hv3mogj6k1a29RP.jpg", "genre_ids": [10749, 14, 16], "id": 3933, "original_language": "en", "original_title": "Corpse Bride", "overview": "Set in a 19th-century european village, this stop-motion animation feature follows the story of Victor, a young man whisked away to the underworld and wed to a mysterious corpse bride, while his real bride Victoria waits bereft in the land of the living.", "poster_path": "/o9GbcdP7rOg2m1NyUnUR3ZwNcTE.jpg", "release_date": "2005-09-12", "title": "Corpse Bride", "video": false, "vote_average": 7.4, "vote_count": 4928, "popularity": 23.702}, {"id": 326359, "video": false, "vote_count": 1180, "vote_average": 6.8, "title": "Frozen Fever", "release_date": "2015-03-09", "original_language": "en", "original_title": "Frozen Fever", "genre_ids": [12, 16, 10751], "backdrop_path": "/ubioPGniCfDiASmYYpeJs5RRNaC.jpg", "adult": false, "overview": "On Anna's birthday, Elsa and Kristoff are determined to give her the best celebration ever, but Elsa's icy powers may put more than just the party at risk.", "poster_path": "/lKJiVPzsAO9IJ4LKWXZ8vkR2bg4.jpg", "popularity": 17.218}, {"id": 150540, "video": false, "vote_count": 13957, "vote_average": 7.9, "title": "Inside Out", "release_date": "2015-06-09", "original_language": "en", "original_title": "Inside Out", "genre_ids": [16, 35, 18, 10751], "backdrop_path": "/szytSpLAyBh3ULei3x663mAv5ZT.jpg", "adult": false, "overview": "Growing up can be a bumpy road, and it's no exception for Riley, who is uprooted from her Midwest life when her father starts a new job in San Francisco. Riley's guiding emotions\u2014 Joy, Fear, Anger, Disgust and Sadness\u2014live in Headquarters, the control centre inside Riley's mind, where they help advise her through everyday life and tries to keep things positive, but the emotions conflict on how best to navigate a new city, house and school.", "poster_path": "/aAmfIX3TT40zUHGcCKrlOZRKC7u.jpg", "popularity": 57.362}, {"adult": false, "backdrop_path": "/5OeY4U2rzePxWq2rkqMajUx2gz7.jpg", "genre_ids": [16, 10751, 12, 14, 10749], "id": 812, "original_language": "en", "original_title": "Aladdin", "overview": "Princess Jasmine grows tired of being forced to remain in the palace, so she sneaks out into the marketplace, in disguise, where she meets street-urchin Aladdin.  The couple falls in love, although Jasmine may only marry a prince.  After being thrown in jail, Aladdin becomes embroiled in a plot to find a mysterious lamp, with which the evil Jafar hopes to rule the land.", "poster_path": "/mjKozYRuHc9j7SmiXmbVmCiAM0A.jpg", "release_date": "1992-11-25", "title": "Aladdin", "video": false, "vote_average": 7.6, "vote_count": 7289, "popularity": 35.494}, {"id": 9479, "video": false, "vote_count": 5316, "vote_average": 7.8, "title": "The Nightmare Before Christmas", "release_date": "1993-10-09", "original_language": "en", "original_title": "The Nightmare Before Christmas", "genre_ids": [16, 14, 10751], "backdrop_path": "/16lk65YfrDFIr6evkWRjSeOOSws.jpg", "adult": false, "overview": "Tired of scaring humans every October 31 with the same old bag of tricks, Jack Skellington, the spindly king of Halloween Town, kidnaps Santa Claus and plans to deliver shrunken heads and other ghoulish gifts to children on Christmas morning. But as Christmas approaches, Jack's rag-doll girlfriend, Sally, tries to foil his misguided plans.", "poster_path": "/6oxkO1VgKCq74fNILKAg6t2dVEt.jpg", "popularity": 18.951}, {"id": 650755, "video": false, "vote_count": 0, "vote_average": 0.0, "title": "Atordoado, Eu Permane\u00e7o Atento", "release_date": "2020-01-15", "original_language": "pt", "original_title": "Atordoado, Eu Permane\u00e7o Atento", "genre_ids": [99], "backdrop_path": null, "adult": false, "overview": "", "poster_path": "/exbM8qk6f6T44olJXcM8ix1sunL.jpg", "popularity": 5.092}, {"id": 4977, "video": false, "vote_count": 999, "vote_average": 7.8, "title": "Paprika", "release_date": "2006-10-01", "original_language": "ja", "original_title": "\u30d1\u30d7\u30ea\u30ab", "genre_ids": [16, 18, 9648, 878, 53], "backdrop_path": "/jViKJYWcILHeN0KH1Wub0Go59TZ.jpg", "adult": false, "overview": "When a machine that allows therapists to enter their patient's dreams is stolen, all hell breaks loose. Only a young female therapist can stop it: Paprika.", "poster_path": "/bLUUr474Go1DfeN1HLjE3rnZXBq.jpg", "popularity": 14.934}, {"id": 19, "video": false, "vote_count": 1340, "vote_average": 8.2, "title": "Metropolis", "release_date": "1927-01-10", "original_language": "de", "original_title": "Metropolis", "genre_ids": [18, 878], "backdrop_path": "/gmH0N0bdlYGN1EUr8U2cMQYyg78.jpg", "adult": false, "overview": "In a futuristic city sharply divided between the working class and the city planners, the son of the city's mastermind falls in love with a working class prophet who predicts the coming of a savior to mediate their differences.", "poster_path": "/qriaeUUwdmlgethK3aSAx68mG05.jpg", "popularity": 20.587}, {"id": 9016, "video": false, "vote_count": 2231, "vote_average": 7.4, "title": "Treasure Planet", "release_date": "2002-11-26", "original_language": "en", "original_title": "Treasure Planet", "genre_ids": [12, 16, 14, 878, 10751], "backdrop_path": "/3HVvtFm9NvOfn1u3yfeEugh2ZWj.jpg", "adult": false, "overview": "When space galleon cabin boy Jim Hawkins discovers a map to an intergalactic \"loot of a thousand worlds,\" a cyborg cook named John Silver teaches him to battle supernovas and space storms. But, soon, Jim realizes Silver is a pirate intent on mutiny!", "poster_path": "/gFfZVblQoExIVK4PVCJ9xZZJJKy.jpg", "popularity": 23.423}, {"adult": false, "backdrop_path": "/twGxeStlGooWV3gP6ZIcSNuQ6jf.jpg", "genre_ids": [12, 16, 10751, 14], "id": 81684, "original_language": "en", "original_title": "The Gruffalo's Child", "overview": "A follow up to the 2009 animated feature and adapted from the childrens' book by Julia Donaldson and Alex Scheffler.  The Gruffalo's child explores the deep dark wood in search of the big bad mouse and meets the Snake, Owl and Fox in the process.  She eventually finds the mouse, who manages to outwit her like the Gruffalo before!", "poster_path": "/qaGH2AoaLvoGXURQtNzj1nw6oZd.jpg", "release_date": "2011-12-25", "title": "The Gruffalo's Child", "video": false, "vote_average": 6.9, "vote_count": 73, "popularity": 9.51}, {"adult": false, "backdrop_path": null, "genre_ids": [], "id": 616262, "original_language": "ar", "original_title": "All Come From Dust", "overview": "A loop of edgeless bend. You were its doom, he was its bloom. You were its tomb, he was its womb. You were its gloom, he was its loom. For Heaven and Hell, were words made of fume.", "poster_path": null, "release_date": "2019-08-13", "title": "All Come From Dust", "video": false, "vote_average": 5.0, "vote_count": 1, "popularity": 0.6}, {"adult": false, "backdrop_path": "/qFLDF62VbWyyxkwco9lwZqkGoMB.jpg", "genre_ids": [16, 10751], "id": 10895, "original_language": "en", "original_title": "Pinocchio", "overview": "Lonely toymaker Geppetto has his wishes answered when the Blue Fairy arrives to bring his wooden puppet Pinocchio to life. Before becoming a real boy, however, Pinocchio must prove he's worthy as he sets off on an adventure with his whistling sidekick and conscience, Jiminy Cricket.", "poster_path": "/gN1dQBHi4557cFduIu9njOr6knW.jpg", "release_date": "1940-02-23", "title": "Pinocchio", "video": false, "vote_average": 7.0, "vote_count": 3431, "popularity": 25.831}, {"id": 313297, "video": false, "vote_count": 2277, "vote_average": 7.7, "title": "Kubo and the Two Strings", "release_date": "2016-08-18", "original_language": "en", "original_title": "Kubo and the Two Strings", "genre_ids": [12, 16, 10751], "backdrop_path": "/aF4TrSc1IbNNtsWdwixMQNku3Dv.jpg", "adult": false, "overview": "Kubo mesmerizes the people in his village with his magical gift for spinning wild tales with origami. When he accidentally summons an evil spirit seeking vengeance, Kubo is forced to go on a quest to solve the mystery of his fallen samurai father and his mystical weaponry, as well as discover his own magical powers.", "poster_path": "/3Kr9CIIMcXTPlm6cdZ9y3QTe4Y7.jpg", "popularity": 33.362}, {"id": 533, "video": false, "vote_count": 1440, "vote_average": 6.9, "title": "Wallace & Gromit: The Curse of the Were-Rabbit", "release_date": "2005-09-04", "original_language": "en", "original_title": "Wallace & Gromit: The Curse of the Were-Rabbit", "genre_ids": [12, 16, 35, 10751], "backdrop_path": "/v45E1vDhPp2hc1dEZx5KZuRsSxX.jpg", "adult": false, "overview": "Cheese-loving eccentric Wallace and his cunning canine pal, Gromit, investigate a mystery in Nick Park's animated adventure, in which the lovable inventor and his intrepid pup run a business ridding the town of garden pests. Using only humane methods that turn their home into a halfway house for evicted vermin, the pair stumble upon a mystery involving a voracious vegetarian monster that threatens to ruin the annual veggie-growing contest.", "poster_path": "/tLryx0x9TDV5rifA9W8yUvDZFHB.jpg", "popularity": 21.23}, {"id": 856, "video": false, "vote_count": 3249, "vote_average": 7.4, "title": "Who Framed Roger Rabbit", "release_date": "1988-06-21", "original_language": "en", "original_title": "Who Framed Roger Rabbit", "genre_ids": [16, 35, 80, 14, 10751], "backdrop_path": "/9podqGmd36AJHO13HQIQHQZRTJC.jpg", "adult": false, "overview": "'Toon star Roger is worried that his wife Jessica is playing pattycake with someone else, so the studio hires detective Eddie Valiant to snoop on her. But the stakes are quickly raised when Marvin Acme is found dead and Roger is the prime suspect.", "poster_path": "/lYfRc57Kx9VgLZ48iulu0HKnM15.jpg", "popularity": 20.755}, {"id": 14836, "video": false, "vote_count": 3514, "vote_average": 7.6, "title": "Coraline", "release_date": "2009-02-05", "original_language": "en", "original_title": "Coraline", "genre_ids": [16, 10751], "backdrop_path": "/obBsMjC9dkDeoYsLxHURikW87UZ.jpg", "adult": false, "overview": "When Coraline moves to an old house, she feels bored and neglected by her parents. She finds a hidden door with a bricked up passage. During the night, she crosses the passage and finds a parallel world where everybody has buttons instead of eyes, with caring parents and all her dreams coming true. When the Other Mother invites Coraline to stay in her world forever, the girl refuses and finds that the alternate reality where she is trapped is only a trick to lure her.", "poster_path": "/ybOmHUVVXcwBQErjw7tmeE97fpO.jpg", "popularity": 25.26}, {"adult": false, "backdrop_path": "/yDmyqO3xHTVxtyM0CuqobSX3Hjr.jpg", "genre_ids": [16, 10751, 14], "id": 10144, "original_language": "en", "original_title": "The Little Mermaid", "overview": "This colorful adventure tells the story of an impetuous mermaid princess named Ariel who falls in love with the very human Prince Eric and puts everything on the line for the chance to be with him. Memorable songs and characters -- including the villainous sea witch Ursula.", "poster_path": "/6aXMusULuKFAK0ZRUlv7RJ9zHTc.jpg", "release_date": "1989-11-17", "title": "The Little Mermaid", "video": false, "vote_average": 7.3, "vote_count": 4669, "popularity": 25.992}, {"id": 10882, "video": false, "vote_count": 3219, "vote_average": 6.9, "title": "Sleeping Beauty", "release_date": "1959-01-28", "original_language": "en", "original_title": "Sleeping Beauty", "genre_ids": [16, 14, 10749, 10751], "backdrop_path": "/oHZIobyIG0YzWntyPCTSJDOk9qB.jpg", "adult": false, "overview": "A beautiful princess born in a faraway kingdom is destined by a terrible curse to prick her finger on the spindle of a spinning wheel and fall into a deep sleep that can only be awakened by true love's first kiss. Determined to protect her, her parents ask three fairies to raise her in hiding. But the evil Maleficent is just as determined to seal the princess's fate.", "poster_path": "/j4YBuAe8D1jDSiitpq69og9x3Yl.jpg", "popularity": 29.356}], "total_pages": 922, "total_results": 18439}, "recommendations": {"page": 1, "results": [{"adult": false, "backdrop_path": "/poNfVhzf5YXjzCtoQEVLMOzxuqy.jpg", "genre_ids": [16, 27], "id": 52803, "original_language": "en", "original_title": "Sebastian's Voodoo", "overview": "A voodoo doll must find the courage to save his friends from being pinned to death.", "poster_path": "/bUbqkAjve5BJgs5OGbTCNB4w9Ni.jpg", "release_date": "2008-06-07", "title": "Sebastian's Voodoo", "video": false, "vote_average": 6.4, "vote_count": 34, "popularity": 3.798}, {"adult": false, "backdrop_path": "/uxOv3ky3Vxm1cSIzBugdu43Dwdp.jpg", "genre_ids": [27, 878], "id": 59852, "original_language": "en", "original_title": "Blinky\u2122", "overview": "A story about a boy, his robot and the consequences of his anger at the disintegration of his parents marriage.", "poster_path": "/5BAFoOcJ0kp1JNcI8eVyou49A54.jpg", "release_date": "2011-03-21", "title": "Blinky\u2122", "video": false, "vote_average": 6.8, "vote_count": 55, "popularity": 4.252}, {"adult": false, "backdrop_path": "/bItFErbElVZWzjP6bVDIqvTvjvh.jpg", "genre_ids": [16, 35, 878], "id": 269711, "original_language": "xx", "original_title": "Johnny Express", "overview": "It's 2150. There are all sorts of Aliens living throughout space. Johnny is a Space Delivery Man who travels to different planets to deliver packages. Johnny is lazy and his only desire is to sleep in his autopilot spaceship. When the spaceship arrives at the destination, all he has to do is simply deliver the box. However, it never goes as planned. Johnny encounters strange and bizarre planets and always seems to cause trouble on his delivery route.  Will he be able to finish his mission without trouble?", "poster_path": "/7weWtCY6dy0djeWB80aE0dFfRni.jpg", "release_date": "2014-05-08", "title": "Johnny Express", "video": false, "vote_average": 7.7, "vote_count": 34, "popularity": 1.753}, {"adult": false, "backdrop_path": "/eJPL5PLNT8pJwL9V7MIe4XEumuX.jpg", "genre_ids": [16, 10751], "id": 209905, "original_language": "en", "original_title": "Ormie", "overview": "Ormie is a Pig, in every sense of the word. Pig see cookie. Pig want cookie. But they are out of reach... or are they? See Ormie's attempts to gain the warm sweet taste that is his obsession.", "poster_path": "/hPxNUNzNjmnkEr7nBycMhAXg5GA.jpg", "release_date": "2010-12-29", "title": "Ormie", "video": false, "vote_average": 6.2, "vote_count": 6, "popularity": 1.152}, {"adult": false, "backdrop_path": "/feMkVzV7BM5xUQBTl1raAswM8fU.jpg", "genre_ids": [878], "id": 298367, "original_language": "en", "original_title": "Flesh Computer", "overview": "When his cybernetic pet project is put in jeopardy, the handyman of a decaying apartment building is forced to take a stand, blurring the lines between human and machine.", "poster_path": "/jZVqOF7bw8Sw0RgIP1ij9ejobh8.jpg", "release_date": "2014-02-07", "title": "Flesh Computer", "video": false, "vote_average": 5.0, "vote_count": 6, "popularity": 1.135}, {"adult": false, "backdrop_path": "/6QjsnDCuGlrTRpwb2Pubzv75mg3.jpg", "genre_ids": [16], "id": 72805, "original_language": "en", "original_title": "Arka", "overview": "An unknown virus has destroyed almost the entire human population. Oblivious to the true nature of the disease, the only remaining survivors escape to the sea. In great ships, they set off in search of uninhabited land. So begins the exodus, led by one man ...", "poster_path": "/aAqULL6umHIlMk3I6Yhs64akIZc.jpg", "release_date": "2007-05-26", "title": "ARK", "video": false, "vote_average": 6.5, "vote_count": 23, "popularity": 2.393}, {"adult": false, "backdrop_path": "/1tocBhef2YLQQL30GDZ6WPJoWMr.jpg", "genre_ids": [18, 27, 53], "id": 85646, "original_language": "en", "original_title": "Entrance", "overview": "ENTRANCE is about the limits of our perception, how the things lurking on the periphery of our lives can lead to horrific conclusions; about how she fell out of love with the city, but it wouldn't let her go.", "poster_path": "/eHkxgoWOOyAkIAARABe3uqFjAD6.jpg", "release_date": "2012-05-18", "title": "Entrance", "video": false, "vote_average": 3.7, "vote_count": 9, "popularity": 3.579}, {"adult": false, "backdrop_path": null, "genre_ids": [], "id": 85083, "original_language": "en", "original_title": "He Dies At The End", "overview": "Working late, a man\u2019s computer asks him if he would like to know how he will die.", "poster_path": "/ykqH78Vtz6gvHfKzk1OHrXisOvY.jpg", "release_date": "2010-08-21", "title": "He Dies At The End", "video": false, "vote_average": 7.1, "vote_count": 14, "popularity": 1.322}, {"adult": false, "backdrop_path": null, "genre_ids": [99], "id": 89873, "original_language": "en", "original_title": "Unraveled", "overview": "Just days before Bernard Madoff captured headlines as the largest Ponzi schemer in U.S. history, Marc Dreier, a prominent Manhattan attorney, was arrested for orchestrating a massive fraud scheme that netted hundreds of millions of dollars from hedge funds. Brazen forgeries and impersonations branded the white collar crime spree remarkable. \"Unraveled\" is set in the purgatory of house arrest -- an Upper East Side penthouse -- where the Court has ordered Dreier confined until his sentencing day. The film weaves Dreier's struggle to prepare for the possibility of life imprisonment with first-person flashbacks, which reveal his audacious path of destruction. Destroyed by his own hubris, Dreier attempts to grasp his tragic unraveling. With unprecedented access, \"Unraveled\" exposes a mastermind of criminal deception.", "poster_path": "/Adm3NLGZBP4AnyiWo1KsCHWiZrR.jpg", "release_date": "2012-04-13", "title": "Unraveled", "video": false, "vote_average": 6.6, "vote_count": 5, "popularity": 2.226}, {"adult": false, "backdrop_path": null, "genre_ids": [], "id": 197975, "original_language": "en", "original_title": "Bad Burns", "overview": "Two reels of mis-takes in shooting Part II of 3RD DEGREE. Film was loaded in camera improperly and the image slides about off-center and becomes blurred \u2013 creating some rather amusing and mysterious imagery. A made \u201cfound\u201d object. \u2014ubu.com", "poster_path": null, "release_date": "1982-01-01", "title": "Bad Burns", "video": false, "vote_average": 5.4, "vote_count": 5, "popularity": 1.272}, {"adult": false, "backdrop_path": "/uJDudTGNM79bAO6F3pRaJIXdyGq.jpg", "genre_ids": [18], "id": 123884, "original_language": "en", "original_title": "Solipsist", "overview": "SOLIPSIST is a three part experimental fantasy short film about otherworldly beings whose minds and bodies converge into one entity. Filled with elaborate costumes, stunning visual effects, and underwater puppets, the film is a non-narrative purely visual/audio experience designed to transport viewers through a hypnotic, dream-like experience. It consists of three parts, each featuring visually fantastic characters and creatures that converge with each other in surreal ways. The film concludes by featuring all three segments combine into a colorful, psychedelic finale.", "poster_path": "/uNSiuD2cycDeB3M4d7nVQXINEXg.jpg", "release_date": "2012-11-01", "title": "Solipsist", "video": false, "vote_average": 6.7, "vote_count": 7, "popularity": 2.594}, {"adult": false, "backdrop_path": null, "genre_ids": [], "id": 352017, "original_language": "en", "original_title": "Unrolling Event", "overview": "Toilet paper event, single frame exposures.", "poster_path": "/y7AQPgA7RsGRJkQVl0zsYaaBdWx.jpg", "release_date": "1965-01-01", "title": "Unrolling Event", "video": false, "vote_average": 4.1, "vote_count": 4, "popularity": 0.961}, {"adult": false, "backdrop_path": null, "genre_ids": [], "id": 352015, "original_language": "en", "original_title": "Dots 1 & 2", "overview": "Single frame exposures of dot-screens.", "poster_path": "/yyojt85iPYNNjFG5jvgNKK18lH9.jpg", "release_date": "1965-01-01", "title": "Dots 1 & 2", "video": false, "vote_average": 6.5, "vote_count": 4, "popularity": 1.4}, {"adult": false, "backdrop_path": null, "genre_ids": [], "id": 334998, "original_language": "en", "original_title": "Word Movie", "overview": "Single frame exposures of words.", "poster_path": "/bRIZsGfFxGKCwH7BUNXhXqBCKvA.jpg", "release_date": "1966-01-01", "title": "Word Movie", "video": false, "vote_average": 7.0, "vote_count": 5, "popularity": 0.639}, {"adult": false, "backdrop_path": "/rv0KAPsxhHrbnILgHWeaJVsUivx.jpg", "genre_ids": [9648, 53], "id": 27227, "original_language": "en", "original_title": "The Cabinet of Dr. Caligari", "overview": "Remake of Das Cabinet des Dr. Caligari (1920). Shot entirely on green screen. Some exact shots from the 1920 film were superimposed to properly replicate the original. Francis relates the story of traveling magician Dr. Caligari and Cesare. Their arrival in a town coincides with savage killings.", "poster_path": "/qWkMs5A4N1X4iRCdHDhnq6b5f1y.jpg", "release_date": "2005-10-22", "title": "The Cabinet of Dr. Caligari", "video": false, "vote_average": 6.5, "vote_count": 16, "popularity": 3.135}, {"adult": false, "backdrop_path": "/zZkCfEi8hoI3QbXwfIDOHAPkJpn.jpg", "genre_ids": [27, 53], "id": 69870, "original_language": "en", "original_title": "The Sender", "overview": "A disturbed telepathic man is able to transmit his dreams and visions into the minds of the people around him.", "poster_path": "/t1gAtGXv74SA3JP4tTHXKt5oRy5.jpg", "release_date": "1982-10-22", "title": "The Sender", "video": false, "vote_average": 5.3, "vote_count": 19, "popularity": 3.849}, {"adult": false, "backdrop_path": "/AN27ke2tLT08riv1EJjbLxLYiO.jpg", "genre_ids": [53, 28, 878, 27], "id": 263416, "original_language": "en", "original_title": "Dead Sea", "overview": "A Marine Biologist is assigned to investigate the mysterious deaths of marine life in an inland salt water lake that have been attributed to a creature thought to have been the stuff of legend.", "poster_path": "/wUBiF3RrMPsinYgeByHU9zgdQTp.jpg", "release_date": "2014-04-15", "title": "Dead Sea", "video": false, "vote_average": 2.9, "vote_count": 15, "popularity": 6.419}, {"adult": false, "backdrop_path": "/nZkLkBQvrtsG6RGdlAL8CIr5Z7l.jpg", "genre_ids": [53, 27], "id": 121572, "original_language": "en", "original_title": "Toad Road", "overview": "A disturbing portrait of contemporary youth culture where the lines between reality and fiction are blurred with often frightening results.", "poster_path": "/vfCy01Rjb2CuO8lBqYcyT0NvtlO.jpg", "release_date": "2013-10-25", "title": "Toad Road", "video": false, "vote_average": 5.0, "vote_count": 20, "popularity": 2.595}, {"adult": false, "backdrop_path": "/hAwKWoRbJbXy5Bgbef3YaN8uC3A.jpg", "genre_ids": [27, 53], "id": 19205, "original_language": "en", "original_title": "Cthulhu", "overview": "A Seattle history professor, drawn back to his estranged family on the Oregon coast to execute his late mother's estate, is reacquainted with his best friend from childhood, with whom he has a long-awaited tryst. Caught in an accelerating series of events, he discovers aspects of his father's New Age cult which take on a dangerous and apocalyptic significance.", "poster_path": "/uJrOCR04AwmhbDpcrkjifBM6Dqm.jpg", "release_date": "2007-03-31", "title": "Cthulhu", "video": false, "vote_average": 4.8, "vote_count": 16, "popularity": 4.798}, {"adult": false, "backdrop_path": "/rCKcyt3AqRKd6ywjo1M9TxAX6op.jpg", "genre_ids": [27, 878], "id": 28660, "original_language": "en", "original_title": "The Mangler Reborn", "overview": "A decade after the original massacre, another man obsessed over his machine ends with several murders and possession.", "poster_path": "/2Hpd0XrMPZowlZfiSN2whMml2vV.jpg", "release_date": "2005-11-29", "title": "The Mangler Reborn", "video": false, "vote_average": 4.2, "vote_count": 9, "popularity": 4.768}], "total_pages": 2, "total_results": 40}, "credits": {"cast": [{"cast_id": 2, "character": "Abe (voice)", "credit_id": "52fe4c5b9251416c910f27a3", "gender": 0, "id": 1075144, "name": "Sam Hoare", "order": 0, "profile_path": "/fKdxncBXNhkEMIcUwMSMfDsIYXC.jpg"}, {"cast_id": 3, "character": "Jennifer", "credit_id": "52fe4c5b9251416c910f27a7", "gender": 0, "id": 1176429, "name": "Claire Huskisson", "order": 1, "profile_path": null}, {"cast_id": 4, "character": "Mary", "credit_id": "52fe4c5b9251416c910f27ab", "gender": 0, "id": 1176431, "name": "Emily Baxter", "order": 2, "profile_path": null}], "crew": [{"credit_id": "52fe4c5b9251416c910f279f", "department": "Directing", "gender": 0, "id": 1115718, "job": "Director", "name": "Rob McLellan", "profile_path": null}]}}