{"adult": false, "backdrop_path": null, "belongs_to_collection": null, "budget": 0, "genres": [{"id": 14, "name": "Fantasy"}], "homepage": null, "id": 190682, "imdb_id": "tt0223267", "original_language": "fr", "original_title": "Faust aux enfers", "overview": "The German legend of a scholar's unholy pact with the Devil would have been very familiar to most moviegoers (at least European ones), so Georges M\u00e9li\u00e8s' early cinematic treatment likely got away with simply offering a fancifully illustrated late episode without the earlier narrative context (however, spoken narration provides some of the latter in this restored print). Tempted by Mephistopheles with all kinds of dancing and ethereal babes, Faust is at first excited and then terrified by the sight of various demons and monsters. The painted-set designers really went hog wild on this one, depicting the (sometimes sexy) torments of subterranean Hell with in bold terms (even when ballerinas prance in the foreground). (Dennis Harvey, Fandor)", "popularity": 0.84, "poster_path": "/b39f1C7ZK0hwTi4RFxWkop6KnHQ.jpg", "production_companies": [{"id": 7159, "logo_path": null, "name": "Star-Film", "origin_country": ""}, {"id": 37046, "logo_path": null, "name": "Georges M\u00e9li\u00e8s", "origin_country": ""}], "production_countries": [{"iso_3166_1": "FR", "name": "France"}], "release_date": "1903-12-12", "revenue": 0, "runtime": 7, "spoken_languages": [{"iso_639_1": "xx", "name": "No Language"}], "status": "Released", "tagline": "", "title": "The Damnation of Faust", "video": false, "vote_average": 5.9, "vote_count": 11, "keywords": {"keywords": [{"id": 41011, "name": "based on song, poem or rhyme"}, {"id": 154802, "name": "silent film"}]}, "similar": {"page": 1, "results": [{"adult": false, "backdrop_path": "/hPByrqJXCXIViFheXQh48wtI7T6.jpg", "genre_ids": [16, 12, 14, 10751], "id": 31135, "original_language": "en", "original_title": "Mickey Mouse: Mickey and the Beanstalk", "overview": "Based on the timeless adventures of \"Jack and the Beanstalk,\" Mickey, Donald and Goofy climb a fantastic beanstalk up into the sky to a place where everything is huge -- the food, the castle and the fearsome giant named Willy who guards a beautiful golden harp! Will Mickey and his friends outwit the giant and make it safely back home?", "poster_path": "/kk1Xg1f1lv6loekjlKinpKJlGOu.jpg", "release_date": "1947-09-27", "title": "Mickey Mouse: Mickey and the Beanstalk", "video": false, "vote_average": 6.7, "vote_count": 166, "popularity": 13.649}, {"adult": false, "backdrop_path": "/twGxeStlGooWV3gP6ZIcSNuQ6jf.jpg", "genre_ids": [12, 16, 10751, 14], "id": 81684, "original_language": "en", "original_title": "The Gruffalo's Child", "overview": "A follow up to the 2009 animated feature and adapted from the childrens' book by Julia Donaldson and Alex Scheffler.  The Gruffalo's child explores the deep dark wood in search of the big bad mouse and meets the Snake, Owl and Fox in the process.  She eventually finds the mouse, who manages to outwit her like the Gruffalo before!", "poster_path": "/qaGH2AoaLvoGXURQtNzj1nw6oZd.jpg", "release_date": "2011-12-25", "title": "The Gruffalo's Child", "video": false, "vote_average": 6.9, "vote_count": 73, "popularity": 9.51}, {"adult": false, "backdrop_path": "/wcT7srQ4GeeMqlszMFEtPZ7v8T7.jpg", "genre_ids": [35, 10749], "id": 28978, "original_language": "en", "original_title": "The Circus", "overview": "Charlie, a wandering tramp, becomes a circus handyman and falls in love with the circus owner's daughter. Unaware of Charlie's affection, the girl falls in love with a handsome young performer. Charlie's versatility makes him star of the show when he substitutes for an ailing tightwire walker. He is discharged from the company when he protects the girl from her father's abuse, but he returns and appeals to the handsome performer to marry the girl. After the wedding the father prevails upon them to rejoin the circus. Charlie is hired again, but he stays behind when the caravan moves on.", "poster_path": "/awTf4Y6TGvgi3VYtGNINyyJJy9Q.jpg", "release_date": "1928-01-06", "title": "The Circus", "video": false, "vote_average": 8.2, "vote_count": 330, "popularity": 12.839}, {"id": 901, "video": false, "vote_count": 1026, "vote_average": 8.4, "title": "City Lights", "release_date": "1931-02-01", "original_language": "xx", "original_title": "City Lights", "genre_ids": [35, 18, 10749], "backdrop_path": "/vT6ux2rdyg2kexuLisO5Ygz7pHg.jpg", "adult": false, "overview": "City Lights is the first silent film that Charlie Chaplin directed after he established himself with sound accompanied films. The film is about a penniless man who falls in love with a flower girl.", "poster_path": "/bXNvzjULc9jrOVhGfjcc64uKZmZ.jpg", "popularity": 14.645}, {"id": 52520, "video": false, "vote_count": 2773, "vote_average": 6.2, "title": "Underworld: Awakening", "release_date": "2012-01-19", "original_language": "en", "original_title": "Underworld: Awakening", "genre_ids": [28, 14, 27], "backdrop_path": "/8iNsXY3LPsuT0gnUiTBMoNuRZI7.jpg", "adult": false, "overview": "Having escaped years of imprisonment, vampire warrioress Selene finds herself in a changed world where humans have discovered the existence of both Vampire and Lycan clans and are conducting an all-out war to eradicate both immortal species. Now Selene must battle the humans and a frightening new breed of super Lycans to ensure the death dealers' survival.", "poster_path": "/ayazc5fQ2YAw7vjaE1WGlJWtGX9.jpg", "popularity": 15.03}, {"id": 1585, "video": false, "vote_count": 2261, "vote_average": 8.2, "title": "It's a Wonderful Life", "release_date": "1946-12-20", "original_language": "en", "original_title": "It's a Wonderful Life", "genre_ids": [18, 14, 10751], "backdrop_path": "/nMomMy1sD3SN2QsKop3zBXCJfDJ.jpg", "adult": false, "overview": "A holiday favourite for generations...  George Bailey has spent his entire life giving to the people of Bedford Falls.  All that prevents rich skinflint Mr. Potter from taking over the entire town is George's modest building and loan company.  But on Christmas Eve the business's $8,000 is lost and George's troubles begin.", "poster_path": "/bSqt9rhDZx1Q7UZ86dBPKdNomp2.jpg", "popularity": 30.622}, {"id": 181808, "video": false, "vote_count": 9718, "vote_average": 7.0, "title": "Star Wars: The Last Jedi", "release_date": "2017-12-13", "original_language": "en", "original_title": "Star Wars: The Last Jedi", "genre_ids": [28, 12, 14, 878], "backdrop_path": "/5Iw7zQTHVRBOYpA0V6z0yypOPZh.jpg", "adult": false, "overview": "Rey develops her newly discovered abilities with the guidance of Luke Skywalker, who is unsettled by the strength of her powers. Meanwhile, the Resistance prepares to do battle with the First Order.", "poster_path": "/kOVEVeg59E0wsnXmF9nrh6OmWII.jpg", "popularity": 54.85}, {"id": 140607, "video": false, "vote_count": 13675, "vote_average": 7.4, "title": "Star Wars: The Force Awakens", "release_date": "2015-12-15", "original_language": "en", "original_title": "Star Wars: The Force Awakens", "genre_ids": [28, 12, 14, 878], "backdrop_path": "/c2Ax8Rox5g6CneChwy1gmu4UbSb.jpg", "adult": false, "overview": "Thirty years after defeating the Galactic Empire, Han Solo and his allies face a new threat from the evil Kylo Ren and his army of Stormtroopers.", "poster_path": "/weUSwMdQIa3NaXVzwUoIIcAi85d.jpg", "popularity": 37.271}, {"id": 460793, "video": false, "vote_count": 933, "vote_average": 6.2, "title": "Olaf's Frozen Adventure", "release_date": "2017-10-27", "original_language": "en", "original_title": "Olaf's Frozen Adventure", "genre_ids": [12, 16, 35, 14, 10402, 10751], "backdrop_path": "/9K4QqQZg4TVXcxBGDiVY4Aey3Rn.jpg", "adult": false, "overview": "Olaf is on a mission to harness the best holiday traditions for Anna, Elsa, and Kristoff.", "poster_path": "/As8WTtxXs9e3cBit3ztTf7zoRmm.jpg", "popularity": 21.98}, {"id": 14787, "video": false, "vote_count": 124, "vote_average": 6.4, "title": "Tom and Jerry: The Magic Ring", "release_date": "2002-03-12", "original_language": "en", "original_title": "Tom and Jerry: The Magic Ring", "genre_ids": [28, 16, 35, 14, 10751], "backdrop_path": "/wPvYwB9NYUJRXIzjKeupigE1JXc.jpg", "adult": false, "overview": "The world's favourite cat and mouse team bounds back into action in an all-new full-length animated adventure certain to cast its spell over the entire family Left in charge of a priceless magical ring by his young wizard master, Tom is horrified when the ring gets stuck on Jerry's head, who then runs off into the city! Before you can say \"abracadabra\", the entire town is hot on our heroes' tails.", "poster_path": "/fF6I48WGKktHfGYYSVKPTVildWE.jpg", "popularity": 15.019}, {"adult": false, "backdrop_path": null, "genre_ids": [], "id": 616262, "original_language": "ar", "original_title": "All Come From Dust", "overview": "A loop of edgeless bend. You were its doom, he was its bloom. You were its tomb, he was its womb. You were its gloom, he was its loom. For Heaven and Hell, were words made of fume.", "poster_path": null, "release_date": "2019-08-13", "title": "All Come From Dust", "video": false, "vote_average": 5.0, "vote_count": 1, "popularity": 0.6}, {"id": 621733, "video": false, "vote_count": 0, "vote_average": 0.0, "title": "A Trip to the Seaside", "release_date": "2019-08-30", "original_language": "en", "original_title": "A Trip to the Seaside", "genre_ids": [99], "backdrop_path": null, "adult": false, "overview": "Experimental short film on the excitement and rush of a day trip", "poster_path": "/AuZVhpoJ4jm2LWDhoJKfxQfhDAi.jpg", "popularity": 1.324}, {"id": 157336, "video": false, "vote_count": 20609, "vote_average": 8.3, "title": "Interstellar", "release_date": "2014-11-05", "original_language": "en", "original_title": "Interstellar", "genre_ids": [12, 18, 878], "backdrop_path": "/xu9zaAevzQ5nnrsXN6JcahLnG4i.jpg", "adult": false, "overview": "Interstellar chronicles the adventures of a group of explorers who make use of a newly discovered wormhole to surpass the limitations on human space travel and conquer the vast distances involved in an interstellar voyage.", "poster_path": "/nBNZadXqJSdt05SHLqgT0HuC5Gm.jpg", "popularity": 53.312}, {"adult": false, "backdrop_path": "/pc7a2qrIkIxzqWGqcexd3mHzIxy.jpg", "genre_ids": [28, 53, 12], "id": 56292, "original_language": "en", "original_title": "Mission: Impossible - Ghost Protocol", "overview": "Ethan Hunt and his team are racing against time to track down a dangerous terrorist named Hendricks, who has gained access to Russian nuclear launch codes and is planning a strike on the United States. An attempt to stop him ends in an explosion causing severe destruction to the Kremlin and the IMF to be implicated in the bombing, forcing the President to disavow them. No longer being aided by the government, Ethan and his team chase Hendricks around the globe, although they might still be too late to stop a disaster.", "poster_path": "/s58mMsgIVOFfoXPtwPWJ3hDYpXf.jpg", "release_date": "2011-12-07", "title": "Mission: Impossible - Ghost Protocol", "video": false, "vote_average": 7.0, "vote_count": 6591, "popularity": 29.242}, {"id": 271110, "video": false, "vote_count": 15271, "vote_average": 7.4, "title": "Captain America: Civil War", "release_date": "2016-04-27", "original_language": "en", "original_title": "Captain America: Civil War", "genre_ids": [28, 12, 878], "backdrop_path": "/m5O3SZvQ6EgD5XXXLPIP1wLppeW.jpg", "adult": false, "overview": "Following the events of Age of Ultron, the collective governments of the world pass an act designed to regulate all superhuman activity. This polarizes opinion amongst the Avengers, causing two factions to side with Iron Man or Captain America, which causes an epic battle between former allies.", "poster_path": "/kSBXou5Ac7vEqKd97wotJumyJvU.jpg", "popularity": 41.347}, {"id": 326359, "video": false, "vote_count": 1180, "vote_average": 6.8, "title": "Frozen Fever", "release_date": "2015-03-09", "original_language": "en", "original_title": "Frozen Fever", "genre_ids": [12, 16, 10751], "backdrop_path": "/ubioPGniCfDiASmYYpeJs5RRNaC.jpg", "adult": false, "overview": "On Anna's birthday, Elsa and Kristoff are determined to give her the best celebration ever, but Elsa's icy powers may put more than just the party at risk.", "poster_path": "/lKJiVPzsAO9IJ4LKWXZ8vkR2bg4.jpg", "popularity": 17.218}, {"adult": false, "backdrop_path": "/xqQztbT6KlPLQLlRtNHoXivEMZA.jpg", "genre_ids": [18, 10749, 53], "id": 597, "original_language": "en", "original_title": "Titanic", "overview": "101-year-old Rose DeWitt Bukater tells the story of her life aboard the Titanic, 84 years later. A young Rose boards the ship with her mother and fianc\u00e9. Meanwhile, Jack Dawson and Fabrizio De Rossi win third-class tickets aboard the ship. Rose tells the whole story from Titanic's departure through to its death\u2014on its first and last voyage\u2014on April 15, 1912.", "poster_path": "/kHXEpyfl6zqn8a6YuozZUujufXf.jpg", "release_date": "1997-11-18", "title": "Titanic", "video": false, "vote_average": 7.8, "vote_count": 15731, "popularity": 44.898}, {"id": 240832, "video": false, "vote_count": 10811, "vote_average": 6.3, "title": "Lucy", "release_date": "2014-07-25", "original_language": "en", "original_title": "Lucy", "genre_ids": [28, 878], "backdrop_path": "/eCgIoGvfNXrbSiQGqQHccuHjQHm.jpg", "adult": false, "overview": "A woman, accidentally caught in a dark deal, turns the tables on her captors and transforms into a merciless warrior evolved beyond human logic.", "poster_path": "/rwn876MeqienhOVSSjtUPnwxn0Z.jpg", "popularity": 26.958}, {"id": 75612, "video": false, "vote_count": 7401, "vote_average": 6.5, "title": "Oblivion", "release_date": "2013-04-10", "original_language": "en", "original_title": "Oblivion", "genre_ids": [28, 12, 9648, 878], "backdrop_path": "/8TE77jL2e4zdERpv8hnBAHUmFRx.jpg", "adult": false, "overview": "Jack Harper is one of the last few drone repairmen stationed on Earth.  Part of a massive operation to extract vital resources after decades of war with a terrifying threat known as the Scavs, Jack\u2019s mission is nearly complete.  His existence is brought crashing down when he rescues a beautiful  stranger from a downed spacecraft.  Her arrival triggers a chain of events that  forces him to question everything he knows and puts the fate of humanity in his hands.", "poster_path": "/hmOzkHlkGvi8x24fYpFSnXvjklv.jpg", "popularity": 34.598}, {"id": 828, "video": false, "vote_count": 557, "vote_average": 7.5, "title": "The Day the Earth Stood Still", "release_date": "1951-09-17", "original_language": "en", "original_title": "The Day the Earth Stood Still", "genre_ids": [878], "backdrop_path": "/uExEupzfV7Ffau0H98aefUU0zcG.jpg", "adult": false, "overview": "An alien and a robot land on earth after World War II and tell mankind to be peaceful or face destruction. A classic science fiction film from Robert Wise with an exceptional message.", "poster_path": "/x2DquTpLTq54aPFDnqlwY7apCC3.jpg", "popularity": 30.427}], "total_pages": 832, "total_results": 16631}, "recommendations": {"page": 1, "results": [{"adult": false, "backdrop_path": null, "genre_ids": [], "id": 195945, "original_language": "fr", "original_title": "L\u2019Enchanteur Alcofribas", "overview": "Two men in a cave perform magic.", "poster_path": "/cp2g0RxgbaweRSQxQ2JW8LVuISs.jpg", "release_date": "1903-11-22", "title": "Alcofribas, The Master Magician", "video": false, "vote_average": 4.4, "vote_count": 7, "popularity": 1.439}, {"adult": false, "backdrop_path": null, "genre_ids": [], "id": 196145, "original_language": "fr", "original_title": "La Damnation du docteur Faust", "overview": "Melies second attempt at telling the story of Faust. This time out Faust and his love Marguerite are sentenced to Hell where they are showed the torture that awaits.", "poster_path": "/yGUNlJVqJfhg56u0HGghDvhWbNX.jpg", "release_date": "1904-04-01", "title": "Faust and Marguerite", "video": false, "vote_average": 4.3, "vote_count": 6, "popularity": 1.094}, {"adult": false, "backdrop_path": null, "genre_ids": [], "id": 189602, "original_language": "fr", "original_title": "Le Ph\u00e9nix ou le coffret de cristal", "overview": "Another magic short of M\u00e9li\u00e8s.", "poster_path": "/twXqygwr7q1WioGFmnn1lCIJseu.jpg", "release_date": "1905-11-11", "title": "The Magic Dice", "video": false, "vote_average": 4.4, "vote_count": 5, "popularity": 0.84}, {"id": 108269, "video": false, "vote_count": 6, "vote_average": 5.2, "title": "Marvellous Egg Production", "release_date": "1902-01-01", "original_language": "fr", "original_title": "La Danseuse microscopique", "genre_ids": [35, 14], "backdrop_path": null, "adult": false, "overview": "\u201cThis is an absolutely new and extraordinary subject. A juggler takes in succession about a dozen eggs out of his servant's mouth. He breaks all the eggs into a hat, and after having beaten them up after the manner of a cook, he extracts an egg as large as the hat itself. As soon as he sets this egg on the table there appears a tiny dancing girl, full of life, as big as a baby's doll, and who performs on the table some beautiful stage dances. All of a sudden she increases to the size of a ordinary woman, and jumping on the floor she delights the audience with her turns. The juggler and the dancing girl disappear in the most extraordinary way.\u201d (M\u00e9li\u00e8s Catalog)", "poster_path": "/lC4Tib7qKpDnMmF35kEfLpgJ1X2.jpg", "popularity": 0.659}, {"id": 108273, "video": false, "vote_count": 6, "vote_average": 5.2, "title": "The Magician and the Imp", "release_date": "1902-01-01", "original_language": "fr", "original_title": "La clownesse fant\u00f4me", "genre_ids": [35, 14], "backdrop_path": null, "adult": false, "overview": "The magician appears upon the stage with an imp as his assistant. The imp holds a piece of cloth in his hand. At the command of the magician the cloth is suddenly transformed into a beautiful girl, clad in tights. A barrel is then introduced and the girl enters one end.", "poster_path": "/w1phuZcA5xTBVoIkqI1MAIsW0MD.jpg", "popularity": 1.42}, {"adult": false, "backdrop_path": null, "genre_ids": [], "id": 195952, "original_language": "fr", "original_title": "Jacques et Jim", "overview": "In a room filled with jugglers' properties of enormous size a prestidigitateur dressed in eccentric costume enters with his assistant. The servant, believing that he would be comfortable in an armchair, sits down in it, but finds that it conceals a bucket of water, in which he falls. The juggler brings a large empty cask and puts it upon a table and fills it up with several pails of water.", "poster_path": "/hwTrGcyH7xa1ROAkQVxXY87z8IA.jpg", "release_date": "1903-12-11", "title": "Comical Conjuring", "video": false, "vote_average": 5.0, "vote_count": 6, "popularity": 1.122}, {"adult": false, "backdrop_path": null, "genre_ids": [14], "id": 190690, "original_language": "en", "original_title": "L'\u0152uf du sorcier ou L'\u0152uf magique prolifique", "overview": "A human skeleton is placed upon a table by an attendant. When the attendant leaves the room the skeleton begins kicking his legs and throwing his arms about and suddenly turns into a magician. The magician produces an egg, performing several sleight-of-hand tricks, and places it upon the table with the small end downward. He then crudely draws a human face upon the shell, and the egg immediately begins growing larger and larger until it reaches the size of a normal head.", "poster_path": "/yenWXigsl8aQefLZpo2UsXME1k7.jpg", "release_date": "1903-01-31", "title": "The Prolific Magical Egg", "video": false, "vote_average": 5.5, "vote_count": 6, "popularity": 0.986}, {"adult": false, "backdrop_path": null, "genre_ids": [], "id": 195951, "original_language": "fr", "original_title": "Tom Tight et Dum Dum", "overview": "Two comic characters, Jack Jags and Dum Dum, perform slapstick comedy on stage.", "poster_path": "/th2zQSKNWEOtzRma7BcIkqHrBwt.jpg", "release_date": "1903-11-06", "title": "Jack Jags and Dum Dum", "video": false, "vote_average": 3.7, "vote_count": 6, "popularity": 1.271}, {"id": 108289, "video": false, "vote_count": 9, "vote_average": 5.6, "title": "An Impossible Balancing Feat", "release_date": "1902-01-01", "original_language": "fr", "original_title": "L'\u00c9quilibre impossible", "genre_ids": [], "backdrop_path": null, "adult": false, "overview": "A magician along with three doppelgangers perform an elaborate balancing act.", "poster_path": "/qZILq1jPvFpbbMnt4em8nCCxJxD.jpg", "popularity": 0.95}, {"adult": false, "backdrop_path": null, "genre_ids": [35, 14], "id": 190704, "original_language": "fr", "original_title": "La flamme merveilleuse", "overview": "A juggler enters upon the scene, picks up a skull, throws it into the air, catches it in his hands, where it is transformed into a handkerchief. The handkerchief, after being twirled about a wand, is changed to a napkin, and afterward to a tablecloth. Out of the table cloth comes a servant.", "poster_path": "/cG2BVMRP3LzwAMXPH7h1STCb2q9.jpg", "release_date": "1903-07-24", "title": "The Mystical Flame", "video": false, "vote_average": 4.8, "vote_count": 5, "popularity": 1.266}, {"adult": false, "backdrop_path": null, "genre_ids": [], "id": 190729, "original_language": "fr", "original_title": "Le coffre enchant\u00e9", "overview": "Bewtiched trunk", "poster_path": "/fVyWXWhY856xCjzYnDAen3gAC12.jpg", "release_date": "1904-03-05", "title": "The Bewitched Trunk", "video": false, "vote_average": 3.8, "vote_count": 5, "popularity": 0.6}, {"id": 114143, "video": false, "vote_count": 9, "vote_average": 5.7, "title": "The Inn Where No Man Rests", "release_date": "1903-01-01", "original_language": "fr", "original_title": "L\u2019Auberge du bon repos", "genre_ids": [35, 14], "backdrop_path": null, "adult": false, "overview": "A traveller is shown to a room in an inn. After a brief dispute with the hostess and a porter, he is left to himself. But strange things begin to happen in his room, and before long he has created a disturbance that has everyone running to his room to find out what is going on.", "poster_path": "/rykGNFLOY3FosNMjgJVcETeh4Zz.jpg", "popularity": 0.981}, {"adult": false, "backdrop_path": null, "genre_ids": [], "id": 195939, "original_language": "fr", "original_title": "La Bo\u00eete \u00e0 malice", "overview": "As scene as pleasing as incomprehensible. A juggler summons two chairs, which come to the stage jumping and twirling around. Across the back of these chairs the operator places a sheet of glass on which he lays a box about four inches high. He then takes a table cover, with his servant's help, rolls it up and from the centre emerges a lady, beautifully dressed. At the juggler's order she jumps in the box, in which she completely disappears.", "poster_path": "/9DJq8wiSNgPQeJjDjrEhNUVGE7N.jpg", "release_date": "1903-01-01", "title": "The Mysterious Box", "video": false, "vote_average": 5.4, "vote_count": 7, "popularity": 0.84}, {"adult": false, "backdrop_path": null, "genre_ids": [35], "id": 195948, "original_language": "fr", "original_title": "Bob Kick, l\u2019enfant terrible", "overview": "A boy is led into the frame by two nursemaids who give him a big ball to play with. For the remainder of the film heads appear and disappear, stage props blow up and turn into other objects or people, and finally Bob Kick disappears.", "poster_path": "/AaV8knPK6wPcuIa2rc7Kl61AYQQ.jpg", "release_date": "1903-11-21", "title": "Bob Kick, the Mischievous Kid", "video": false, "vote_average": 3.4, "vote_count": 7, "popularity": 0.907}, {"adult": false, "backdrop_path": null, "genre_ids": [], "id": 196073, "original_language": "fr", "original_title": "La Planche du diable", "overview": "Melies and his crew perform magic tricks.", "poster_path": "/6wWOQcgBUcfL9t1Qyy05Vh8VbSl.jpg", "release_date": "1904-05-22", "title": "The Devilish Plank", "video": false, "vote_average": 4.4, "vote_count": 7, "popularity": 0.631}, {"adult": false, "backdrop_path": null, "genre_ids": [28, 99], "id": 189810, "original_language": "en", "original_title": "A Morning Alarm", "overview": "\u201cThis shows the Fire Department leaving headquarters for an early morning fire. The scene is remarkable for its natural effect. The opening of the engine house doors, the prancing of the horses, and even the startled expression upon the faces of the spectators are all clearly depicted.\u201d (Edison Films, 1897)", "poster_path": "/k48TUMJkwz6TUYi4q1qLt8YS0jO.jpg", "release_date": "1896-11-27", "title": "A Morning Alarm", "video": false, "vote_average": 3.8, "vote_count": 5, "popularity": 1.318}, {"id": 196131, "video": false, "vote_count": 6, "vote_average": 5.8, "title": "Tit for Tat", "release_date": "1904-02-05", "original_language": "fr", "original_title": "Un pr\u00eat\u00e9 pour un rendu", "genre_ids": [35], "backdrop_path": null, "adult": false, "overview": "Georges Melies the magician. Melies removes his own head, puts it in a glass box on a stool, then grows another one. Melies lights up a cigarette and blows smoke at his old head. The head gets payback by levitating above Melies and spewing water on him.", "poster_path": "/4NJeo6kg2NK8XaTHPZSrMawMC8U.jpg", "popularity": 0.84}, {"adult": false, "backdrop_path": null, "genre_ids": [], "id": 196599, "original_language": "en", "original_title": "Le Tambourin fantastique", "overview": "Magic tricks in a medieval setting.", "poster_path": "/2ngnUQX9Abkesfq72uvBF3uj4Es.jpg", "release_date": "1908-01-17", "title": "Le Tambourin fantastique", "video": false, "vote_average": 5.2, "vote_count": 7, "popularity": 1.213}, {"adult": false, "backdrop_path": null, "genre_ids": [35], "id": 196653, "original_language": "fr", "original_title": "Salon de coiffure", "overview": "One fine day at a barbershop that has stupid staff and very rude customers.", "poster_path": "/6sH7MNQXhjWWx8bsYM9o7CMHAf8.jpg", "release_date": "1908-04-30", "title": "In the Barber Shop", "video": false, "vote_average": 4.6, "vote_count": 7, "popularity": 0.652}, {"adult": false, "backdrop_path": null, "genre_ids": [], "id": 196659, "original_language": "fr", "original_title": "Le conseil de pipelet", "overview": "A man gets cajoled into working as a sideshow wrestler.", "poster_path": "/2ngnUQX9Abkesfq72uvBF3uj4Es.jpg", "release_date": "1908-05-24", "title": "Sideshow Wrestlers", "video": false, "vote_average": 4.3, "vote_count": 6, "popularity": 1.084}], "total_pages": 2, "total_results": 40}, "credits": {"cast": [{"cast_id": 2, "character": "Mephistopholes", "credit_id": "561507f192514172d600571a", "gender": 2, "id": 11523, "name": "Georges M\u00e9li\u00e8s", "order": 1, "profile_path": "/cjQ3IvPbkNArGjhj4dkGqEwOgdW.jpg"}], "crew": [{"credit_id": "52fe4c699251416c910f4149", "department": "Directing", "gender": 2, "id": 11523, "job": "Director", "name": "Georges M\u00e9li\u00e8s", "profile_path": "/cjQ3IvPbkNArGjhj4dkGqEwOgdW.jpg"}, {"credit_id": "56150803c3a36818a1004100", "department": "Crew", "gender": 0, "id": 1365812, "job": "Poem", "name": "Hector Berlioz", "profile_path": "/p4xjy2nzYPiQRkaejE5FcmUjS0N.jpg"}]}}