{"adult": false, "backdrop_path": "/aMkinTfDogzErWP4SfGZfoB3hgb.jpg", "belongs_to_collection": null, "budget": 0, "genres": [{"id": 35, "name": "Comedy"}], "homepage": null, "id": 190967, "imdb_id": "tt1825784", "original_language": "en", "original_title": "3 Geezers!", "overview": "Follow actor J Kimball as he researches what it's like to be old for a role in an upcoming movie. When he meets the residents at The Coconuts convalescent home, he quickly discovers that his perceptions of the elderly may be off from today's reality. After being on the wrong end of some pranks, J enlists the help of his Hollywood friends to turn the tides. Mayhem ensues.", "popularity": 4.277, "poster_path": "/4uswzYm1HO0EVUBFcW1BQ4CDLCL.jpg", "production_companies": [{"id": 17033, "logo_path": null, "name": "Rubber Tree Productions", "origin_country": ""}], "production_countries": [{"iso_3166_1": "US", "name": "United States of America"}], "release_date": "2013-05-22", "revenue": 0, "runtime": 81, "spoken_languages": [{"iso_639_1": "en", "name": "English"}], "status": "Released", "tagline": "It\u2019s Cocoon meets The Hangover in this hilarious romp through the golden years.", "title": "3 Geezers!", "video": false, "vote_average": 4.7, "vote_count": 13, "keywords": {"keywords": [{"id": 187056, "name": "woman director"}]}, "similar": {"page": 1, "results": [{"adult": false, "backdrop_path": "/fZ8oFcREAr6wgWcXISGql0xyxjB.jpg", "genre_ids": [35, 18], "id": 39781, "original_language": "en", "original_title": "The Kids Are All Right", "overview": "Two women, Nic and Jules, brought a son and daughter into the world through artificial insemination. When one of their children reaches age, both kids go behind their mothers' backs to meet with the donor. Life becomes so much more interesting when the father, two mothers and children start to become attached to each other.", "poster_path": "/fPDeK4MmoGfi2X0oWZev7LrbMqM.jpg", "release_date": "2010-07-09", "title": "The Kids Are All Right", "video": false, "vote_average": 6.6, "vote_count": 923, "popularity": 12.159}, {"adult": false, "backdrop_path": "/rf6G51j0SZL0tP57I8gnqHTRFEr.jpg", "genre_ids": [35, 18, 10749], "id": 273153, "original_language": "fr", "original_title": "La belle saison", "overview": "In 1971, Carole and Delphine meet and fall in love in Paris. When Carole follows Delphine back to her family farm in Limousin, the two find lesbianism and feminism are not as easy in the countryside.", "poster_path": "/evvAkNMO5VJiy5qIo1Hu7fUfvVI.jpg", "release_date": "2015-08-19", "title": "Summertime", "video": false, "vote_average": 6.6, "vote_count": 162, "popularity": 11.575}, {"adult": false, "backdrop_path": "/s12HEmmkJfI2mjltI61hGm5kubD.jpg", "genre_ids": [35, 18, 10749], "id": 20770, "original_language": "en", "original_title": "But I'm a Cheerleader", "overview": "Megan is an all-American girl. A cheerleader. She has a boyfriend. But Megan doesn't like kissing her boyfriend very much. And she's pretty touchy with her cheerleader friends. Her conservative parents worry that she must be a lesbian and send her off to \"sexual redirection\" school, where she must, with other lesbians and gays learn how to be straight.", "poster_path": "/eDGH7CHSdkrYcuUJV1e0WS9DlQL.jpg", "release_date": "1999-12-09", "title": "But I'm a Cheerleader", "video": false, "vote_average": 6.8, "vote_count": 246, "popularity": 9.011}, {"adult": false, "backdrop_path": "/g3LYarEY9LjB28Ct2trwFN72gqZ.jpg", "genre_ids": [35], "id": 437557, "original_language": "en", "original_title": "Blockers", "overview": "When three parents discover their daughters\u2019 pact to lose their virginity at prom, they launch a covert one-night operation to stop the teens from sealing the deal.", "poster_path": "/uvlUQXg0AlpGzKukO11K7QtW3Yu.jpg", "release_date": "2018-03-14", "title": "Blockers", "video": false, "vote_average": 6.2, "vote_count": 1155, "popularity": 17.886}, {"adult": false, "backdrop_path": "/cADbqsIoiDW7X3Myg9nz8eAuno5.jpg", "genre_ids": [18, 10749], "id": 10818, "original_language": "fr", "original_title": "Naissance des pieuvres", "overview": "Set during a sultry summer in a French suburb, Marie is desperate to join the local pool's synchronized swimming team, but is her interest solely for the sake of sport or for a chance to get close to Floriane, the bad girl of the team? Sciamma, and the two leads, capture the uncertainty of teenage sexuality with a sympathetic eye in this delicate drama of the angst of coming-of-age.", "poster_path": "/4jajELYrR4Xmv3CVoKnukRnALa2.jpg", "release_date": "2007-05-17", "title": "Water Lilies", "video": false, "vote_average": 6.1, "vote_count": 119, "popularity": 9.614}, {"adult": false, "backdrop_path": "/gZeJziVigmRqbkEZwKAtSqlLQ6s.jpg", "genre_ids": [18, 10749], "id": 370663, "original_language": "en", "original_title": "Below Her Mouth", "overview": "An unexpected affair quickly escalates into a heart-stopping reality for two women whose passionate connection changes their lives forever.", "poster_path": "/nTGbq37hYLuNy7YgMg0gVLma0NS.jpg", "release_date": "2016-09-10", "title": "Below Her Mouth", "video": false, "vote_average": 6.2, "vote_count": 456, "popularity": 18.664}, {"adult": false, "backdrop_path": "/knczzNAjBXzSYkeWxoT1u9VNmjR.jpg", "genre_ids": [10749, 18], "id": 258480, "original_language": "en", "original_title": "Carol", "overview": "In 1950s New York, a department-store clerk who dreams of a better life falls for an older, married woman.", "poster_path": "/AbKa7ANxmui0Jmhh7gV7OSELKIL.jpg", "release_date": "2015-11-20", "title": "Carol", "video": false, "vote_average": 7.4, "vote_count": 2184, "popularity": 13.539}, {"id": 520172, "video": false, "vote_count": 0, "vote_average": 0.0, "title": "Happiest Season", "release_date": "2020-11-20", "original_language": "en", "original_title": "Happiest Season", "genre_ids": [35, 10749], "backdrop_path": null, "adult": false, "overview": "A young woman's plans to propose to her girlfriend while at her family's annual holiday party are upended when she discovers her partner hasn't yet come out to her conservative parents.", "poster_path": null, "popularity": 6.027}, {"id": 2255, "video": false, "vote_count": 772, "vote_average": 6.8, "title": "Chasing Amy", "release_date": "1997-04-04", "original_language": "en", "original_title": "Chasing Amy", "genre_ids": [35, 18, 10749], "backdrop_path": "/doKYVK61Vb8J1KUjlb9dNWkQNp6.jpg", "adult": false, "overview": "Holden and Banky are comic book artists. Everything is going good for them until they meet Alyssa, also a comic book artist. Holden falls for her, but his hopes are crushed when he finds out she's a lesbian.", "poster_path": "/4vFJileWrCGaBeobCmF0tXpQCUb.jpg", "popularity": 13.95}, {"id": 9813, "video": false, "vote_count": 128, "vote_average": 6.1, "title": "The Quiet", "release_date": "2005-09-12", "original_language": "en", "original_title": "The Quiet", "genre_ids": [18, 53], "backdrop_path": "/6eyWAZA4CEidZW1xXnQ4vlYBXTP.jpg", "adult": false, "overview": "After her widowed father dies, deaf teenager Dot moves in with her godparents, Olivia and Paul Deer. The Deers' daughter, Nina, is openly hostile to Dot, but that does not prevent her from telling her secrets to her silent stepsister, including the fact that she wants to kill her lecherous father.", "poster_path": "/GEqIE9YlmygHVUfS64LW2cwAAM.jpg", "popularity": 14.844}, {"adult": false, "backdrop_path": "/k8H7ye6Sab7OrDJoo8Qp5WFGHGk.jpg", "genre_ids": [35, 10749, 18], "id": 244264, "original_language": "en", "original_title": "Laggies", "overview": "Overeducated and underemployed, 28 year old Megan is in the throes of a quarterlife crisis. Squarely into adulthood with no career prospects, no particular motivation to think about her future and no one to relate to, Megan is comfortable lagging a few steps behind - while her friends check off milestones and celebrate their new grown-up status. When her high-school sweetheart proposes, Megan panics and- given an unexpected opportunity to escape for a week - hides out in the home of her new friend, 16-year old Annika and Annika's world-weary single dad Craig.", "poster_path": "/dNcoXoRC7JHiqbe7k5Ufo6syiPP.jpg", "release_date": "2014-09-25", "title": "Laggies", "video": false, "vote_average": 6.1, "vote_count": 788, "popularity": 13.836}, {"adult": false, "backdrop_path": "/txtRue33MaXv5HQpTiHPOmOcDxE.jpg", "genre_ids": [35, 10749], "id": 11631, "original_language": "en", "original_title": "Mamma Mia!", "overview": "An independent, single mother who owns a small hotel on a Greek island is about to marry off the spirited young daughter she's raised alone. But, the daughter has secretly invited three of her mother's ex-lovers in the hopes of finding her biological father.", "poster_path": "/gOm2iMMbC6EonrFzmSQ8xvCa4Ei.jpg", "release_date": "2008-07-02", "title": "Mamma Mia!", "video": false, "vote_average": 6.9, "vote_count": 4124, "popularity": 16.301}, {"adult": false, "backdrop_path": "/npClMhFGn4XUkwu6coq5oKAEu6L.jpg", "genre_ids": [35, 10749, 18], "id": 634, "original_language": "en", "original_title": "Bridget Jones's Diary", "overview": "A chaotic Bridget Jones meets a snobbish lawyer, and he soon enters her world of imperfections.", "poster_path": "/ym6kjFFZg6boC0QHBVw6hqJLbxv.jpg", "release_date": "2001-04-13", "title": "Bridget Jones's Diary", "video": false, "vote_average": 6.7, "vote_count": 3080, "popularity": 19.453}, {"adult": false, "backdrop_path": "/by0WtpJ5UNxOy6ytIfPPTasbRoB.jpg", "genre_ids": [28, 12, 35, 18, 10751, 10402, 10749], "id": 17130, "original_language": "en", "original_title": "Crossroads", "overview": "Three friends get together and bury a box making a pact to open it at midnight at their high school graduation. In the little town in Georgia that they live in, things soon change. One is little miss perfect, one is an engaged prom queen, and the other is a pregnant outcast. The night of graduation, they open the box and they strike up a conversation. All of a sudden, one brings up the topic of her going to Los Angeles for a record contract audition. They all decide to go together and they leave. With a little money, they set out on the road with a guy named Ben. When one of them tells the other a rumor that he might be a homicidal maniac they are all scared of him. When they reach LA, Lucy falls in love with Ben and against her father's wishes, she stays and she goes to the audition.", "poster_path": "/egIs4cWxn0iBErFKrQ7STckjj49.jpg", "release_date": "2002-02-15", "title": "Crossroads", "video": false, "vote_average": 5.0, "vote_count": 334, "popularity": 14.197}, {"adult": false, "backdrop_path": "/6tern9vOEwwmkDYC1vRCuO64z0C.jpg", "genre_ids": [10749, 18], "id": 475888, "original_language": "en", "original_title": "Tell It to the Bees", "overview": "Dr. Jean Markham returns to the town she left as a teenager to take over her late father's medical practice. When a school-yard scuffle lands Charlie in her surgery, she invites him to visit the hives in her garden and tell his secrets to the bees, as she once did. The new friendship between the boy and the bee keeper brings his mother Lydia into Jean's world.", "poster_path": "/Rj6zpHhMU1zFW3v28U4PSRSRgP.jpg", "release_date": "2019-05-03", "title": "Tell It to the Bees", "video": false, "vote_average": 6.4, "vote_count": 53, "popularity": 13.175}, {"adult": false, "backdrop_path": "/xOGEw8iywxcFMolV6SF6YdTdJTb.jpg", "genre_ids": [10402, 10749], "id": 52371, "original_language": "nl", "original_title": "LelleBelle", "overview": "19-year old Belle practices playing the violin diligently, but is unable to impart her music with a sensitive undertone. Her life changes when she discovers that sexual desire stimulates passion in her music.", "poster_path": "/nJVPgIq3icZMQ26p5uWIFdUZJfL.jpg", "release_date": "2010-10-08", "title": "LelleBelle", "video": false, "vote_average": 4.7, "vote_count": 41, "popularity": 13.747}, {"adult": false, "backdrop_path": "/uJTwAnWnbHZSUTCuouAbNaCHXEU.jpg", "genre_ids": [35, 10749], "id": 19316, "original_language": "en", "original_title": "Saving Face", "overview": "A Chinese-American lesbian and her traditionalist mother are reluctant to go public with secret loves that clash against cultural expectations.", "poster_path": "/7upctoAqpN7OkTUsIqD3EApv8fx.jpg", "release_date": "2004-09-12", "title": "Saving Face", "video": false, "vote_average": 7.2, "vote_count": 72, "popularity": 8.156}, {"adult": false, "backdrop_path": "/dvQDRfv3qvfHNnVAR57ouVsuErf.jpg", "genre_ids": [10749, 18], "id": 28031, "original_language": "en", "original_title": "If These Walls Could Talk 2", "overview": "The stories of three lesbian couples -- who live in the same house at different periods of time -- who are at a crossroads in their lives. In 1961, Edith loses her lover, Abby, to a stroke. Linda and Amy struggle with feminist issues in 1972. And, in 2000, Kal and Fran try to have a baby with the help of sperm donor.", "poster_path": "/xs7ODbmYQXCDhvXNvz5tF17T59H.jpg", "release_date": "2000-03-05", "title": "If These Walls Could Talk 2", "video": false, "vote_average": 7.1, "vote_count": 55, "popularity": 8.86}, {"adult": false, "backdrop_path": "/8ELLcGJkQD1JrjJ6A5LS3Frn87q.jpg", "genre_ids": [35, 10749, 18], "id": 10735, "original_language": "en", "original_title": "What a Girl Wants", "overview": "An American girl, Daphne, heads to Europe in search of the father she's never met. But instead of finding a British version of her bohemian mother, she learns the love of her mom's life is an uptight politician. The only problem now is that her long-lost dad is engaged to a fiercely territorial social climber with a daughter who makes Daphne's life miserable.", "poster_path": "/ctYovWPdo7AYgYsLRR8WsNsRa2T.jpg", "release_date": "2003-03-27", "title": "What a Girl Wants", "video": false, "vote_average": 6.0, "vote_count": 967, "popularity": 13.359}, {"id": 11634, "video": false, "vote_count": 236, "vote_average": 7.2, "title": "Show Me Love", "release_date": "1998-10-23", "original_language": "sv", "original_title": "Fucking \u00c5m\u00e5l", "genre_ids": [35, 18, 10749], "backdrop_path": "/iwEnridqOcgZlXHRmH1xiZKO538.jpg", "adult": false, "overview": "\u00c5m\u00e5l is a small insignificant town where nothing ever happens, where the latest trends are out of date when they get there. Young Elin has a bit of a bad reputation when it comes to guys, but the fact is that she has never done *it*. Another girl in her school, Agnes, is in love with her but is too shy to do anything about it. For different reasons, Elin ends up at Agnes' birthday party as the only guest. They have a girl's night out together but after that Elin desperately avoids Agnes, refusing to even consider her own homosexuality.", "poster_path": "/gkM27kmi9woapo1oQ2lho59u5Hn.jpg", "popularity": 8.964}], "total_pages": 1446, "total_results": 28909}, "recommendations": {"page": 1, "results": [{"adult": false, "backdrop_path": null, "genre_ids": [27, 9648], "id": 254634, "original_language": "en", "original_title": "The Chair", "overview": "A psychologist, a psychiatrist and a prison warden open up a long-closed prison, unaware that the ghost of an electrocuted convict haunts it.", "poster_path": "/kjiMRz3uK5jWrEsdDw6GcXFMAIg.jpg", "release_date": "1988-10-08", "title": "The Chair", "video": false, "vote_average": 3.7, "vote_count": 3, "popularity": 2.138}, {"id": 11505, "video": false, "vote_count": 13, "vote_average": 5.3, "title": "Family Plan", "release_date": "1997-01-01", "original_language": "en", "original_title": "Family Plan", "genre_ids": [35], "backdrop_path": "/nxpIaBQRMCxTLvW1ZejNRRjaNRS.jpg", "adult": false, "overview": "A bumbling guy takes a group of orphans to summer camp.", "poster_path": "/cOyoDhOhWx0gBtgAh4fISnM6kds.jpg", "popularity": 5.095}, {"id": 51428, "video": false, "vote_count": 6, "vote_average": 5.2, "title": "Ghost Writer", "release_date": "2007-03-09", "original_language": "en", "original_title": "Suffering Man's Charity", "genre_ids": [35, 27], "backdrop_path": "/5umGJj7Yp3VmTFy4AXF7D2sRllj.jpg", "adult": false, "overview": "John Vandermark (Cumming) has taken in a struggling writer, Sebastian St. Germain (Boreanaz), who overstays his welcome. When John discovers that Sebastian has simply been using him, he turns the tables on his young tenant in an effort to make him work off his rent debt. When Sebastian dies accidentally in the process, John tries to make it up to him by helping him get his book published posthumously. When the book is published, John can't help but take credit for the work of genius... and Sebastian comes back to haunt him.", "poster_path": "/wbK3KzDANTqQT54nCkk56cUGd1P.jpg", "popularity": 4.532}, {"adult": false, "backdrop_path": null, "genre_ids": [27, 53], "id": 29474, "original_language": "en", "original_title": "The Flying Serpent", "overview": "A demented archaeologist discovers a living, breathing serpent creature known to the Aztecs as Quetzalcoatl and accidentally kills his wife by giving her one of the beast's feathers, causing the creature to track her down and slaughter her. Using this knowledge he exacts revenge upon his enemies by placing one of the feathers on his intended victim and letting the beast loose to wreak havoc.", "poster_path": "/pz3vAbZN7DT4hNyRMwThUNtLlQj.jpg", "release_date": "1946-02-01", "title": "The Flying Serpent", "video": false, "vote_average": 4.2, "vote_count": 6, "popularity": 2.118}, {"adult": false, "backdrop_path": "/hP4sSmMw06wyfdVkriCHSYoAM1V.jpg", "genre_ids": [10751, 35, 18], "id": 265347, "original_language": "en", "original_title": "Chasing Ghosts", "overview": "Lucas Simons has become obsessed with death following the loss of his older brother. A shy child, Lucas spends most of his free time filming funerals in an attempt to understand what happens when we die. When Lucas accidentally captures a mysterious presence in one of his films and posts it online, he inadvertently becomes a YouTube phenomenon and the target of media speculation. Suddenly, he and his grief-numbed parents find themselves thrust into the spotlight, shaking them out of their complacency while complicating their relationship. Lucas's quest for answers leads him toward an unlikely friendship with Chris Brighton (Tim Meadows), a local author who died for nine minutes and lived to tell about it. As Chris takes on a mentor role to Lucas, he helps him navigate the fame while teaching him how to embrace life again and live larger than the shadow of death. (from Nashville Film Festival)", "poster_path": "/5uTRycUM5MjTH8EFseYbbftzIgy.jpg", "release_date": "2014-04-06", "title": "Chasing Ghosts", "video": false, "vote_average": 6.8, "vote_count": 8, "popularity": 3.19}, {"adult": false, "backdrop_path": "/fR1iOmDrJdjm8hn95dIvAx4kboZ.jpg", "genre_ids": [28, 12, 878], "id": 37620, "original_language": "en", "original_title": "The Black Knight Returns", "overview": "When an evil corporation threatens to unleash the black plague, Evan Grail, is recruited by his grandfather, Max, into the order of the Black Knights - a secret band of warriors who have been called upon in the past to fight evil and injustice. Evan learns that his parents were murdered by the same twisted villain, Simon Darth, who threatens to unleash the plague. Evan wears the uniform of the Black Knights and must fight Simon's evil army to save the day.", "poster_path": "/oQXolKbew5XeQkRyxJKdHoclvjf.jpg", "release_date": "2009-02-01", "title": "The Black Knight Returns", "video": false, "vote_average": 2.0, "vote_count": 7, "popularity": 2.964}, {"adult": false, "backdrop_path": null, "genre_ids": [18, 878], "id": 56320, "original_language": "en", "original_title": "The Scientist", "overview": "A reclusive physicist creates an infinite-energy machine in his basement that changes his life and all those around him.", "poster_path": "/yDLs99EL3c7ig12myHLsBGgk83P.jpg", "release_date": "2010-04-16", "title": "The Scientist", "video": false, "vote_average": 6.2, "vote_count": 5, "popularity": 3.594}, {"adult": false, "backdrop_path": "/3ZiXYUbMBzfFLYyx8PlOSsgqGJf.jpg", "genre_ids": [10749, 18], "id": 172819, "original_language": "en", "original_title": "Kilimanjaro", "overview": "For years, Doug Collins has been wading through a routine unsatisfying job and an increasingly miserable relationship. After his girlfriend moves out, Doug pushes himself to live a more fulfilling life starting with a trek to the summit of Mt. Kilimanjaro.", "poster_path": "/6haoEhyJjlZFIA2KqMyHguvzQ7q.jpg", "release_date": "2013-03-09", "title": "Kilimanjaro", "video": false, "vote_average": 4.3, "vote_count": 3, "popularity": 1.545}, {"adult": false, "backdrop_path": null, "genre_ids": [], "id": 315007, "original_language": "en", "original_title": "Self-Assembly", "overview": "In a self-assembly cabinet, bereaved parents find a monstrous substitute for their dead son.", "poster_path": "/3hbemdbc8TVhGta8wuzD8DeNwnY.jpg", "release_date": "2014-11-28", "title": "Self-Assembly", "video": false, "vote_average": 6.5, "vote_count": 4, "popularity": 2.75}, {"id": 21119, "video": false, "vote_count": 9, "vote_average": 6.1, "title": "The Last Days of Frankie the Fly", "release_date": "1996-10-24", "original_language": "en", "original_title": "The Last Days of Frankie the Fly", "genre_ids": [80], "backdrop_path": "/1ywgtuaaFULvgZ456Sdyt7bcYW1.jpg", "adult": false, "overview": "Dreaming of ascending the underworld ladder and gaining revenge on his sadistic boss, Sal, a Mafia flunky, Frankie, tries to take a step in the right direction by \"saving\" an exploited, drug-addicted porn actress, Margaret.", "poster_path": "/jWni4RT94XL5zmZcpcoKoeVU23z.jpg", "popularity": 5.554}, {"adult": false, "backdrop_path": "/601jj1XYHewV6nkR6RPbnpC0NLQ.jpg", "genre_ids": [35], "id": 250622, "original_language": "en", "original_title": "National Lampoon Presents: Endless Bummer", "overview": "From National Lampoon, the masters of raunchy comedy, comes a summer tale of beers, babes, and bros! In the surf town of Ventura, California, JD's surf board is stolen by a surfer from Los Angeles...a crime that cannot go unpunished. Gathering his friends and the local surf hero, Mike Mooney, they take a road trip to LA to get the surfboard back, then return to Ventura for the wildest summer party ever!", "poster_path": "/u7TEiazVkXnRI1zupfdLJAHw5d4.jpg", "release_date": "2009-10-20", "title": "National Lampoon Presents: Endless Bummer", "video": false, "vote_average": 4.0, "vote_count": 12, "popularity": 5.135}, {"id": 186606, "video": false, "vote_count": 23, "vote_average": 4.9, "title": "iSteve", "release_date": "2013-04-14", "original_language": "en", "original_title": "iSteve", "genre_ids": [35], "backdrop_path": "/lnygCfdI2ARgnmAjmcElCvZYVWq.jpg", "adult": false, "overview": "A comedic look at the life of Steve Jobs.", "poster_path": "/1rnrSexwNH7YhadghgtTRgjw83T.jpg", "popularity": 4.501}, {"adult": false, "backdrop_path": "/iNIXUw64Zxl0ssKDLBY9C4nKKCd.jpg", "genre_ids": [28, 27], "id": 17138, "original_language": "en", "original_title": "The 8th Plague", "overview": "The 8th Plague is the story of a woman named Launa who is investigating the disappearance of her sister, Nikki. Nikki had gone camping in the mountain town of Halcyon Springs and never came back. Becoming more and more frustrated, Launa realizes that she must find her sister on her own with the help of Mason, a mysterious local man with a shadowed past.", "poster_path": "/A9HG68P0RZY1XOafpmMQsTJGLn6.jpg", "release_date": "2006-09-04", "title": "The 8th Plague", "video": false, "vote_average": 4.3, "vote_count": 7, "popularity": 2.266}, {"adult": false, "backdrop_path": "/gJfC6MwgBPLKUow3aMQFqxjHdB4.jpg", "genre_ids": [], "id": 425285, "original_language": "en", "original_title": "Halfway", "overview": "A recently released convict finds himself trapped between his urban criminal past and his new life on probation as the only black man in a conservative white Wisconsin farming town.", "poster_path": "/AoHrdaPjRaQwbrNPvSXTghw8YUo.jpg", "release_date": "2017-04-21", "title": "Halfway", "video": false, "vote_average": 6.3, "vote_count": 4, "popularity": 2.539}, {"adult": false, "backdrop_path": "/fM3TekhcW5h87cnxpalETJnKeKf.jpg", "genre_ids": [14, 53, 878], "id": 3030, "original_language": "en", "original_title": "End of the World", "overview": "After witnessing a man's death in a bizzare accident, Father Pergado goes on a spiritual retreat, where he encounters his alien double bent on world conquest.", "poster_path": "/gL8aFUP6nTd6aZ3yEQ7ejecdDo9.jpg", "release_date": "1977-08-01", "title": "End of the World", "video": false, "vote_average": 3.5, "vote_count": 8, "popularity": 3.728}, {"adult": false, "backdrop_path": "/fk0Axf8OoZip5Bw3S2JklcZ6uQc.jpg", "genre_ids": [27, 28, 53, 9648], "id": 112969, "original_language": "en", "original_title": "Slaughter of the Innocents", "overview": "A seasoned FBI Agent's child-genius son assists him on catching a child-killer, a schizophrenic mohab nut who believes he's been chosen by god to be a new Noah.", "poster_path": "/yddkugBKam7KZ9asHNkDZlEJuOV.jpg", "release_date": "1993-01-01", "title": "Slaughter of the Innocents", "video": false, "vote_average": 5.7, "vote_count": 9, "popularity": 7.453}, {"adult": false, "backdrop_path": "/7WPJphv5ip1U5cjp2ZgPhifJFzF.jpg", "genre_ids": [18, 53], "id": 436146, "original_language": "en", "original_title": "Seven Lucky Gods", "overview": "An illegal immigrant from Albania infiltrates the lives of a group of Londoners with devastating consequences.", "poster_path": "/fknTuIkjZr2XdadAk3ExxmO1uIF.jpg", "release_date": "2014-04-04", "title": "Seven Lucky Gods", "video": false, "vote_average": 8.3, "vote_count": 4, "popularity": 4.627}, {"adult": false, "backdrop_path": "/xSLCcmJHNtCI9lqSfLak06fps4j.jpg", "genre_ids": [27], "id": 29126, "original_language": "en", "original_title": "Black Moon", "overview": "A woman returning to her island birthplace finds herself drawn to a voodoo cult.", "poster_path": "/s9tWqX7G3w3PCCaN8JkDkNo9sXj.jpg", "release_date": "1934-06-15", "title": "Black Moon", "video": false, "vote_average": 5.5, "vote_count": 11, "popularity": 2.474}, {"adult": false, "backdrop_path": "/fYgYrNrMuHEUuio7p40fogoETYE.jpg", "genre_ids": [35], "id": 438511, "original_language": "en", "original_title": "The Relationtrip", "overview": "After bonding over their mutual disinterest in relationships, self-proclaimed loners, Beck and Liam, decide to go away together on a \u2018friend\u2019 trip where things get weird. Really, really weird.", "poster_path": "/deiLj5pJePycVVCr8wOg2N5OYPX.jpg", "release_date": "2017-03-11", "title": "The Relationtrip", "video": false, "vote_average": 6.0, "vote_count": 4, "popularity": 3.576}, {"adult": false, "backdrop_path": "/cvn6Pjq5a6wS9MffwzZ7wevqE4o.jpg", "genre_ids": [27, 28], "id": 150794, "original_language": "en", "original_title": "Demon Cop", "overview": "A former probationary officer who is a patient at a mental asylum escapes and prowls the city, looking for victims whose blood may cure the blood disease he has that has turned him into a werewolf-type monster.", "poster_path": "/aslrBqjJb6hUoUy1PFVchmUEmGN.jpg", "release_date": "1990-12-30", "title": "Demon Cop", "video": false, "vote_average": 3.3, "vote_count": 6, "popularity": 2.174}], "total_pages": 2, "total_results": 40}, "credits": {"cast": [{"cast_id": 3, "character": "J. Kimball", "credit_id": "52fe4c749251416c910f5735", "gender": 2, "id": 18999, "name": "J.K. Simmons", "order": 0, "profile_path": "/jPoNW5fugs5h8AbcE7H5OBm04Tm.jpg"}, {"cast_id": 4, "character": "Tim", "credit_id": "52fe4c749251416c910f5739", "gender": 2, "id": 12898, "name": "Tim Allen", "order": 1, "profile_path": "/uX2xVf6pMmPepxnvFWyBtjexzgY.jpg"}, {"cast_id": 5, "character": "Scott", "credit_id": "52fe4c749251416c910f573d", "gender": 2, "id": 1894, "name": "Scott Caan", "order": 2, "profile_path": "/kvUKf9HCaqUtgj7XuKZOvN66MOT.jpg"}, {"cast_id": 6, "character": "Victor", "credit_id": "52fe4c749251416c910f5741", "gender": 2, "id": 91369, "name": "Basil Hoffman", "order": 3, "profile_path": "/3kIPq25xlD05KZWJa6T835mlUMc.jpg"}, {"cast_id": 7, "character": "Kevin", "credit_id": "52fe4c749251416c910f5745", "gender": 2, "id": 7166, "name": "Kevin Pollak", "order": 4, "profile_path": "/kwu2T8CDnThZTzE88uiSgJ5eHXf.jpg"}, {"cast_id": 8, "character": "Randy", "credit_id": "52fe4c749251416c910f5749", "gender": 2, "id": 74748, "name": "Randy Couture", "order": 5, "profile_path": "/rsUeCsaKCY01iWK1chOW9VZkOMO.jpg"}, {"cast_id": 9, "character": "Director", "credit_id": "52fe4c749251416c910f574d", "gender": 2, "id": 7623, "name": "Sam Raimi", "order": 6, "profile_path": "/uEAaCUJzyMI8N5mOVyLtaOPKoEf.jpg"}], "crew": [{"credit_id": "52fe4c749251416c910f572b", "department": "Directing", "gender": 1, "id": 155596, "job": "Director", "name": "Michelle Schumacher", "profile_path": null}, {"credit_id": "52fe4c749251416c910f5731", "department": "Writing", "gender": 0, "id": 1171538, "job": "Writer", "name": "Randle Schumacher", "profile_path": null}, {"credit_id": "52fe4c749251416c910f5753", "department": "Writing", "gender": 0, "id": 1209960, "job": "Writer", "name": "Eric Radzan", "profile_path": null}, {"credit_id": "5d552ad74bc38b19242419ff", "department": "Writing", "gender": 0, "id": 1665441, "job": "Writer", "name": "Tony Cummings", "profile_path": null}]}}