{"adult": false, "backdrop_path": "/kppFb8Xt9S3vfLqcVfExPHumcOX.jpg", "belongs_to_collection": null, "budget": 0, "genres": [{"id": 80, "name": "Crime"}, {"id": 35, "name": "Comedy"}], "homepage": null, "id": 191130, "imdb_id": "tt0037735", "original_language": "en", "original_title": "Genius at Work", "overview": "Two actors who play detectives on the radio find themselves investigating a real crime masterminded by an arch-criminal named the Cobra.", "popularity": 0.84, "poster_path": "/5MUqvWlNq5oqTYFcwDbfBOUGBvC.jpg", "production_companies": [{"id": 6, "logo_path": "/n53F7K9scQWFXYbrCablqLKqJdp.png", "name": "RKO Radio Pictures", "origin_country": "US"}], "production_countries": [{"iso_3166_1": "US", "name": "United States of America"}], "release_date": "1946-08-16", "revenue": 0, "runtime": 61, "spoken_languages": [{"iso_639_1": "en", "name": "English"}], "status": "Released", "tagline": "", "title": "Genius at Work", "video": false, "vote_average": 5.0, "vote_count": 1, "keywords": {"keywords": [{"id": 703, "name": "detective"}, {"id": 2135, "name": "radio"}]}, "similar": {"page": 1, "results": [{"id": 1847, "video": false, "vote_count": 259, "vote_average": 7.4, "title": "The Long Goodbye", "release_date": "1973-03-07", "original_language": "en", "original_title": "The Long Goodbye", "genre_ids": [80, 18, 9648, 53], "backdrop_path": "/brm75bRffmi2SlsUmsHUxUVI1Hg.jpg", "adult": false, "overview": "Detective Philip Marlowe tries to help a friend who is accused of murdering his wife.", "poster_path": "/oBhUK54yBJ0aH6u9zCzSV5iV7OP.jpg", "popularity": 9.602}, {"adult": false, "backdrop_path": "/t3OZS8yMs0NL4YgWWc04eXHTn1X.jpg", "genre_ids": [28, 80, 53], "id": 984, "original_language": "en", "original_title": "Dirty Harry", "overview": "When a madman dubbed 'Scorpio' terrorizes San Francisco, hard-nosed cop, Harry Callahan \u2013 famous for his take-no-prisoners approach to law enforcement \u2013 is tasked with hunting down the psychopath. Harry eventually collars Scorpio in the process of rescuing a kidnap victim, only to see him walk on technicalities. Now, the maverick detective is determined to nail the maniac himself.", "poster_path": "/2TADKc4GMMPdMrLXj0xJVgTvZJM.jpg", "release_date": "1971-12-21", "title": "Dirty Harry", "video": false, "vote_average": 7.5, "vote_count": 1173, "popularity": 18.839}, {"id": 75780, "video": false, "vote_count": 4451, "vote_average": 6.4, "title": "Jack Reacher", "release_date": "2012-12-20", "original_language": "en", "original_title": "Jack Reacher", "genre_ids": [28, 80, 18, 53], "backdrop_path": "/ezXodpP429qK0Av89pVNlaXWJkQ.jpg", "adult": false, "overview": "When a gunman takes five lives with six shots, all evidence points to the suspect in custody. On interrogation, the suspect offers up a single note: \"Get Jack Reacher!\" So begins an extraordinary chase for the truth, pitting Jack Reacher against an unexpected enemy, with a skill for violence and a secret to keep.", "poster_path": "/mt0ELw83HIRgaKaDzhsDcIi0RnW.jpg", "popularity": 15.945}, {"adult": false, "backdrop_path": "/2J283YNxKhxAqHeVegUJ5mzLfGb.jpg", "genre_ids": [80, 18, 9648], "id": 392044, "original_language": "en", "original_title": "Murder on the Orient Express", "overview": "Genius Belgian detective Hercule Poirot investigates the murder of an American tycoon aboard the Orient Express train.", "poster_path": "/iBlfxlw8qwtUS0R8YjIU7JtM6LM.jpg", "release_date": "2017-11-03", "title": "Murder on the Orient Express", "video": false, "vote_average": 6.7, "vote_count": 6050, "popularity": 27.701}, {"adult": false, "backdrop_path": "/bRGtZsVj2Qq8r5CCsNYmQUPF4z4.jpg", "genre_ids": [80, 18, 878, 53], "id": 10559, "original_language": "en", "original_title": "Frequency", "overview": "When a rare phenomenon gives police officer John Sullivan the chance to speak to his father, 30 years in the past, he takes the opportunity to prevent his dad's tragic death.  After his actions inadvertently give rise to a series of brutal murders he and his father must find a way to fix the consequences of altering time.", "poster_path": "/n0QAAZmIaPPIShVkk8eiKwfGV9.jpg", "release_date": "2000-04-28", "title": "Frequency", "video": false, "vote_average": 7.1, "vote_count": 897, "popularity": 14.026}, {"id": 807, "video": false, "vote_count": 11937, "vote_average": 8.3, "title": "Se7en", "release_date": "1995-09-22", "original_language": "en", "original_title": "Se7en", "genre_ids": [80, 9648, 53], "backdrop_path": "/A0WKbRIojF9DUWG4XLCmg5JK6I5.jpg", "adult": false, "overview": "Two homicide detectives are on a desperate hunt for a serial killer whose crimes are based on the \"seven deadly sins\" in this dark and haunting film that takes viewers from the tortured remains of one victim to the next. The seasoned Det. Sommerset researches each sin in an effort to get inside the killer's mind, while his novice partner, Mills, scoffs at his efforts to unravel the case.", "poster_path": "/8zw8IL4zEPjkh8Aysdcd0FwGMb0.jpg", "popularity": 34.018}, {"id": 4771, "video": false, "vote_count": 2134, "vote_average": 7.3, "title": "Gone Baby Gone", "release_date": "2007-09-18", "original_language": "en", "original_title": "Gone Baby Gone", "genre_ids": [80, 18, 9648], "backdrop_path": "/sogh5NXPbKFajjYKBlfIBfCWgbq.jpg", "adult": false, "overview": "When 4 year old Amanda McCready disappears from her home and the police make little headway in solving the case, the girl's aunt, Beatrice McCready hires two private detectives, Patrick Kenzie and Angie Gennaro. The detectives freely admit that they have little experience with this type of case, but the family wants them for two reasons - they're not cops and they know the tough neighborhood in which they all live. As the case progresses, Kenzie and Gennaro face drug dealers, gangs and pedophiles. When they are about to solve the case, they are faced with a moral dilemma that tears them apart.", "poster_path": "/dXXMPxGiRegd7NNCtE5uchAKRAG.jpg", "popularity": 16.498}, {"adult": false, "backdrop_path": "/uUYCUbgI5VxsUflTMI4Y9L2Y6vb.jpg", "genre_ids": [80, 18, 53], "id": 11423, "original_language": "ko", "original_title": "\uc0b4\uc778\uc758 \ucd94\uc5b5", "overview": "1986 Gyunggi Province. The body of a young woman is found brutally raped and murdered. Two months later, a series of rapes and murders commences under similar circumstances. And in a country that had never known such crimes, the dark whispers about a serial murderer grow louder. A special task force is set up in the area, with two local detectives Park Doo-Man and Jo Young-Goo joined by a detective from Seoul who requested to be assigned to the case.", "poster_path": "/gawnVe9cFowdoDLo9Pok12NTw39.jpg", "release_date": "2003-05-02", "title": "Memories of Murder", "video": false, "vote_average": 8.1, "vote_count": 1093, "popularity": 13.452}, {"adult": false, "backdrop_path": "/v761yOHKO3p6Yr7LDCjud6tUL5G.jpg", "genre_ids": [28, 80, 53], "id": 10651, "original_language": "en", "original_title": "The Dead Pool", "overview": "Dirty Harry Callahan returns for his final film adventure. Together with his partner Al Quan, he must investigate the systematic murder of actors and musicians. By the time Harry learns that the murders are a part of a sick game to predict the deaths of celebrities before they happen, it may be too late...", "poster_path": "/9ZUSqox9lIxN4xaYBac2QXMFcZj.jpg", "release_date": "1988-07-12", "title": "The Dead Pool", "video": false, "vote_average": 6.4, "vote_count": 389, "popularity": 10.626}, {"adult": false, "backdrop_path": "/3TCPWrxQkfon82xPNtmpweOSVJc.jpg", "genre_ids": [18, 80, 9648, 10749, 53], "id": 12150, "original_language": "en", "original_title": "Sea of Love", "overview": "Seen-it-all New York detective Frank Keller is unsettled - he has done twenty years on the force and could retire, and he hasn't come to terms with his wife leaving him for a colleague. Joining up with an officer from another part of town to investigate a series of murders linked by the lonely hearts columns he finds he is getting seriously and possibly dangerously involved with Helen, one of the main suspects.", "poster_path": "/7DkkTHIX3hUqvsRv5sDmJAkCfKK.jpg", "release_date": "1989-09-15", "title": "Sea of Love", "video": false, "vote_average": 6.7, "vote_count": 290, "popularity": 10.636}, {"id": 4193, "video": false, "vote_count": 172, "vote_average": 6.8, "title": "Evil Under the Sun", "release_date": "1982-03-05", "original_language": "en", "original_title": "Evil Under the Sun", "genre_ids": [80, 18, 9648, 53], "backdrop_path": "/4OQpu41qYHyFHHeuZ4WID5KxipL.jpg", "adult": false, "overview": "Trying to find how a millionaire wound up with a phony diamond brings Hercule Poirot to an exclusive island resort frequented by the rich and famous. When a murder is committed, everyone has an alibi.", "poster_path": "/fUZCiY6YYO8w4tv8nrh30isOf4J.jpg", "popularity": 8.8}, {"adult": false, "backdrop_path": "/2zh06EWekQWzlxa4jpFKRuXEtgf.jpg", "genre_ids": [80, 18, 28, 53], "id": 9411, "original_language": "en", "original_title": "Fallen", "overview": "Homicide detective John Hobbes witnesses the execution of serial killer Edgar Reese. Soon after the execution the killings start again, and they are very similar to Reese's style.", "poster_path": "/v66GrbKcl1babq8BebUff0MI3m4.jpg", "release_date": "1998-01-16", "title": "Fallen", "video": false, "vote_average": 6.8, "vote_count": 674, "popularity": 15.448}, {"adult": false, "backdrop_path": "/7RRuRcGuWkZGuRyYugfXn0Fgrrr.jpg", "genre_ids": [28, 80, 18, 53], "id": 949, "original_language": "en", "original_title": "Heat", "overview": "Obsessive master thief, Neil McCauley leads a top-notch crew on various daring heists throughout Los Angeles while determined detective, Vincent Hanna pursues him without rest. Each man recognizes and respects the ability and the dedication of the other even though they are aware their cat-and-mouse game may end in violence.", "poster_path": "/6pmLVffM9jEYK7VqDJqPblMxfEY.jpg", "release_date": "1995-12-15", "title": "Heat", "video": false, "vote_average": 7.8, "vote_count": 3615, "popularity": 21.973}, {"id": 193893, "video": false, "vote_count": 1816, "vote_average": 6.3, "title": "Let's Be Cops", "release_date": "2014-08-13", "original_language": "en", "original_title": "Let's Be Cops", "genre_ids": [35], "backdrop_path": "/43GrPpAeBUOvOCZ8L1A3MLuDnkc.jpg", "adult": false, "overview": "It's the ultimate buddy cop movie except for one thing: they're not cops.  When two struggling pals dress as police officers for a costume party, they become neighborhood sensations.  But when these newly-minted \u201cheroes\u201d get tangled in a real life web of mobsters and dirty detectives, they must put their fake badges on the line.", "poster_path": "/ayYibwWAA9NxJPaD9GSybPShtvL.jpg", "popularity": 21.654}, {"adult": false, "backdrop_path": "/cLGKawjQ5tUJCuDyR0OnGYT4fyf.jpg", "genre_ids": [18, 53, 80], "id": 146233, "original_language": "en", "original_title": "Prisoners", "overview": "When Keller Dover's daughter and her friend go missing, he takes matters into his own hands as the police pursue multiple leads and the pressure mounts. But just how far will this desperate father go to protect his family?", "poster_path": "/yAhqW57pwMAsCgmZpM5zSIVQVTh.jpg", "release_date": "2013-09-18", "title": "Prisoners", "video": false, "vote_average": 8.0, "vote_count": 6410, "popularity": 24.427}, {"adult": false, "backdrop_path": "/khzRw7ZDE3NIrYpe0RYyB864FPT.jpg", "genre_ids": [80, 28, 53], "id": 189, "original_language": "en", "original_title": "Sin City: A Dame to Kill For", "overview": "Some of Sin City's most hard-boiled citizens cross paths with a few of its more reviled inhabitants.", "poster_path": "/k80qKrJ0qQ6ocVo5N932stNSg6j.jpg", "release_date": "2014-08-20", "title": "Sin City: A Dame to Kill For", "video": false, "vote_average": 6.3, "vote_count": 2422, "popularity": 25.256}, {"id": 290250, "video": false, "vote_count": 4781, "vote_average": 7.1, "title": "The Nice Guys", "release_date": "2016-05-15", "original_language": "en", "original_title": "The Nice Guys", "genre_ids": [28, 35, 80], "backdrop_path": "/a7eSkK4bkLwKCXYDdYIqLxrqT2n.jpg", "adult": false, "overview": "A private eye investigates the apparent suicide of a fading porn star in 1970s Los Angeles and uncovers a conspiracy.", "poster_path": "/vNCeqxbKyDHL9LUza03V2Im16wB.jpg", "popularity": 30.745}, {"adult": false, "backdrop_path": "/2tIA5AOrdPQYR89TVzgPwYRLxGv.jpg", "genre_ids": [28, 53, 80], "id": 20676, "original_language": "en", "original_title": "Deep Cover", "overview": "The black policeman Russell Stevens applies for a special anti-drug squad which targets the highest boss of cocaine delivery to LA: the Colombian foreign minister's nephew. Russell works his way up from the bottom undercover, until he reaches the boss. The first step is to get the lawyer and hobby dealer David Jason to trust him.", "poster_path": "/vVLNUxxT2BHeBsNKET0tfnUUmwZ.jpg", "release_date": "1992-04-15", "title": "Deep Cover", "video": false, "vote_average": 7.1, "vote_count": 70, "popularity": 6.955}, {"adult": false, "backdrop_path": "/n3mOfQBLMPGO3AO0L5pgkf2DaEF.jpg", "genre_ids": [80, 9648, 53], "id": 910, "original_language": "en", "original_title": "The Big Sleep", "overview": "Private Investigator Philip Marlowe is hired by wealthy General Sternwood regarding a matter involving his youngest daughter Carmen. Before the complex case is over, Marlowe sees murder, blackmail, deception, and what might be love.", "poster_path": "/ttUJSTKBdu1dR8d24FaoS4S1GFJ.jpg", "release_date": "1946-08-23", "title": "The Big Sleep", "video": false, "vote_average": 7.7, "vote_count": 507, "popularity": 12.425}, {"adult": false, "backdrop_path": "/xBhRhY8KimSrPx6AMJXigpzlGQ2.jpg", "genre_ids": [28, 35, 80], "id": 96, "original_language": "en", "original_title": "Beverly Hills Cop II", "overview": "Axel heads for the land of sunshine and palm trees to find out who shot police Captain Andrew Bogomil. Thanks to a couple of old friends, Axel's investigation uncovers a series of robberies masterminded by a heartless weapons kingpin\u2014and the chase is on.", "poster_path": "/2y1z1baxKT0coTTRlnkI6McnR9f.jpg", "release_date": "1987-05-18", "title": "Beverly Hills Cop II", "video": false, "vote_average": 6.4, "vote_count": 1235, "popularity": 13.336}], "total_pages": 270, "total_results": 5384}, "recommendations": {"page": 1, "results": [], "total_pages": 1, "total_results": 0}, "credits": {"cast": [{"cast_id": 2, "character": "Jerry Miles", "credit_id": "52fe4c799251416c910f61c7", "gender": 2, "id": 96142, "name": "Wally Brown", "order": 0, "profile_path": "/zVhIHblR7IktchEVH9GcXsUdFjP.jpg"}, {"cast_id": 3, "character": "Mike Strager", "credit_id": "52fe4c799251416c910f61cb", "gender": 2, "id": 105804, "name": "Alan Carney", "order": 1, "profile_path": "/bupTMbL6qwYhclIhmCEv6lXyQyB.jpg"}, {"cast_id": 4, "character": "Ellen Brent", "credit_id": "52fe4c799251416c910f61cf", "gender": 1, "id": 93718, "name": "Anne Jeffreys", "order": 2, "profile_path": "/ly583oSlMvHoTBr5KUVx8cgR6gf.jpg"}, {"cast_id": 5, "character": "Latimer Marsh / The Cobra", "credit_id": "52fe4c799251416c910f61d3", "gender": 2, "id": 2495, "name": "Lionel Atwill", "order": 3, "profile_path": "/kZOpzski4M8SZLFNozaAgp7Gbgp.jpg"}, {"cast_id": 6, "character": "Stone", "credit_id": "52fe4c799251416c910f61d7", "gender": 2, "id": 1547, "name": "Bela Lugosi", "order": 4, "profile_path": "/nI14KbMwRNyl8v2Ds5TVAzhu5No.jpg"}, {"cast_id": 18, "character": "Lt. Rick Campbell", "credit_id": "53bd41c4c3a3684cf90014f3", "gender": 2, "id": 106108, "name": "Marc Cramer", "order": 5, "profile_path": "/x3w8XnRIYBXj0HOQJod29A7ekHE.jpg"}, {"cast_id": 19, "character": "Lt. Gilley", "credit_id": "53bd41e9c3a3684cec00143c", "gender": 2, "id": 124882, "name": "Ralph Dunn", "order": 6, "profile_path": "/rb3xuZbdVkwxpYrae1KyV0jNW8a.jpg"}], "crew": [{"credit_id": "52fe4c799251416c910f61c3", "department": "Directing", "gender": 2, "id": 103346, "job": "Director", "name": "Leslie Goodwins", "profile_path": "/e3942phwO7JQorBskeUhJWMtNuj.jpg"}, {"credit_id": "53bd3edd0e0a26157f001a97", "department": "Writing", "gender": 2, "id": 109704, "job": "Writer", "name": "Robert E. Kent", "profile_path": null}, {"credit_id": "53bd3ef50e0a26158f0018a2", "department": "Writing", "gender": 0, "id": 145700, "job": "Writer", "name": "Monte Brice", "profile_path": null}, {"credit_id": "53bd3f130e0a261585001861", "department": "Production", "gender": 2, "id": 103915, "job": "Producer", "name": "Herman Schlom", "profile_path": null}, {"credit_id": "53bd3f3f0e0a261585001866", "department": "Editing", "gender": 0, "id": 138469, "job": "Editor", "name": "Marvin Coil", "profile_path": null}, {"credit_id": "53bd40a3c3a3684cec00141e", "department": "Art", "gender": 2, "id": 978515, "job": "Art Direction", "name": "Ralph Berger", "profile_path": null}, {"credit_id": "53bd40b4c3a3684ce9001461", "department": "Art", "gender": 2, "id": 4349, "job": "Art Direction", "name": "Albert S. D'Agostino", "profile_path": "/nYJgsC5n7j2XZRgqVlct6Zy0U3V.jpg"}, {"credit_id": "53bd40c8c3a3684cf4001415", "department": "Art", "gender": 2, "id": 7338, "job": "Set Decoration", "name": "Darrell Silvera", "profile_path": null}, {"credit_id": "53bd40dcc3a3684cf4001417", "department": "Costume & Make-Up", "gender": 1, "id": 38229, "job": "Costume Design", "name": "Reni\u00e9", "profile_path": "/76N2CTu6h9sZZ8CfkexRlhFiVly.jpg"}, {"credit_id": "53bd40f5c3a3687e59001150", "department": "Directing", "gender": 2, "id": 1179589, "job": "Assistant Director", "name": "Harry D'Arcy", "profile_path": null}, {"credit_id": "53bd4106c3a3684ce9001478", "department": "Crew", "gender": 2, "id": 3252, "job": "Special Effects", "name": "Vernon L. Walker", "profile_path": "/efFZ1KZeJuvE4mWaLrceC9TS3vN.jpg"}, {"credit_id": "5552849bc3a3683fc80057d9", "department": "Camera", "gender": 2, "id": 33413, "job": "Director of Photography", "name": "Robert De Grasse", "profile_path": null}]}}