{"adult": false, "backdrop_path": "/8SDFAf4pfjhrXd0j6fXXYZNhaEz.jpg", "belongs_to_collection": null, "budget": 0, "genres": [{"id": 35, "name": "Comedy"}, {"id": 18, "name": "Drama"}], "homepage": null, "id": 192501, "imdb_id": "tt0039293", "original_language": "en", "original_title": "Cynthia", "overview": "Sheltered by her parents, a small-town teenager finally goes out on a date.", "popularity": 3.286, "poster_path": "/bp7vgbjOlMSnHp8ugHhid4ZlROF.jpg", "production_companies": [{"id": 21, "logo_path": "/mjofSXiHpG5t6KYmU4l4FrUhT7m.png", "name": "Metro-Goldwyn-Mayer", "origin_country": "US"}], "production_countries": [{"iso_3166_1": "US", "name": "United States of America"}], "release_date": "1947-08-27", "revenue": 0, "runtime": 98, "spoken_languages": [{"iso_639_1": "en", "name": "English"}], "status": "Released", "tagline": "You'll fall in love with Cynthia", "title": "Cynthia", "video": false, "vote_average": 0.0, "vote_count": 0, "keywords": {"keywords": [{"id": 157303, "name": "first love"}]}, "similar": {"page": 1, "results": [{"id": 536881, "video": false, "vote_count": 3, "vote_average": 5.8, "title": "Genesis", "release_date": "2019-03-15", "original_language": "fr", "original_title": "Gen\u00e8se", "genre_ids": [18, 10749], "backdrop_path": "/yFwUbogMjgpvNMmUDYPjnkPOMYn.jpg", "adult": false, "overview": "Guillaume, his stepsister Charlotte and F\u00e9lix experience the turmoils of first love.", "poster_path": "/aXfhvvGJB4tNSPN8nx2xMU0jys2.jpg", "popularity": 2.769}, {"id": 84892, "video": false, "vote_count": 6548, "vote_average": 7.7, "title": "The Perks of Being a Wallflower", "release_date": "2012-09-20", "original_language": "en", "original_title": "The Perks of Being a Wallflower", "genre_ids": [18], "backdrop_path": "/uhLcaTPeBpUNgYhZXhDWkj7gMkp.jpg", "adult": false, "overview": "15-year-old freshman Charlie is a wallflower, always watching life from the sidelines, until two charismatic senior students become his mentors. Free-spirited Sam and her stepbrother Patrick help Charlie discover the joys of friendship, first love, music and more, while a teacher sparks Charlie's dreams of becoming a writer.", "poster_path": "/cyNQLnHnXZcTUDXVVSEYmquOTOI.jpg", "popularity": 19.873}, {"id": 391713, "video": false, "vote_count": 4441, "vote_average": 7.3, "title": "Lady Bird", "release_date": "2017-09-08", "original_language": "en", "original_title": "Lady Bird", "genre_ids": [35, 18], "backdrop_path": "/ocsCa41WtMqlsEnmewedmxpuCpF.jpg", "adult": false, "overview": "A California high school student plans to escape from her family and small town by going to college in New York, much to the disapproval of wildly loving, deeply opinionated and strong-willed mother.", "poster_path": "/iySFtKLrWvVzXzlFj7x1zalxi5G.jpg", "popularity": 23.697}, {"adult": false, "backdrop_path": "/8ndqvvwDVe9oDUQF1Jt6NCjAn7z.jpg", "genre_ids": [10749, 18], "id": 398818, "original_language": "en", "original_title": "Call Me by Your Name", "overview": "In 1980s Italy, a relationship begins between seventeen-year-old teenage Elio and the older adult man hired as his father's research assistant.", "poster_path": "/tcNniniS4rfqrLH0oORikJfnIwY.jpg", "release_date": "2017-09-01", "title": "Call Me by Your Name", "video": false, "vote_average": 8.3, "vote_count": 5875, "popularity": 30.709}, {"id": 61979, "video": false, "vote_count": 1061, "vote_average": 7.4, "title": "Three Steps Above Heaven", "release_date": "2010-12-03", "original_language": "es", "original_title": "Tres metros sobre el cielo", "genre_ids": [18, 10749], "backdrop_path": "/tBIUBCP6x5rOSyvytX2oVSp1gQ9.jpg", "adult": false, "overview": "Story of two young people who belong to different worlds. It is the chronicle of a love improbable, almost impossible but inevitable dragging in a frantic journey they discover the first great love. Babi (Maria Valverde) is a girl from upper-middle class that is educated in goodness and innocence . Hache (Mario Casas) is a rebellious boy, impulsive, unconscious, has a appetite for risk and danger embodied in endless fights and illegal motorbike races, the limit of common sense", "poster_path": "/57D3h8wb3LMURTyG0dv2VtHfvCM.jpg", "popularity": 22.361}, {"id": 17474, "video": false, "vote_count": 128, "vote_average": 7.2, "title": "The Man in the Moon", "release_date": "1991-09-30", "original_language": "en", "original_title": "The Man in the Moon", "genre_ids": [18, 10749, 10751], "backdrop_path": "/dAkQlCnGqOmqPcpkZW7fk7P0oKj.jpg", "adult": false, "overview": "Maureen Trant and her younger sibling Dani share a strong connection, but local boy Court Foster threatens to throw their bond off balance. Dani and Court meet first and have a flirtatious rapport -- but when he meets Maureen, he falls hard and they begin a passionate affair. The new couple try to keep their love hidden from Dani, but she soon learns the truth, disavowing her sister. But a heartbreaking accident later reunites the girls.", "poster_path": "/6joNFlFTW7uKr7JZYJCoLyUx3B2.jpg", "popularity": 12.0}, {"adult": false, "backdrop_path": "/ujCvokRcEkE54t9UF4viGniENMU.jpg", "genre_ids": [18, 10749], "id": 56903, "original_language": "it", "original_title": "Tre metri sopra il cielo", "overview": "A bad boy and a socialite girl hook-up.", "poster_path": "/v1uyiF4pWzBhBlM5732XM0OnCCA.jpg", "release_date": "2004-03-12", "title": "Three Steps Over Heaven", "video": false, "vote_average": 5.7, "vote_count": 447, "popularity": 14.612}, {"adult": false, "backdrop_path": "/kc7FqQezGzNiu3QV2pRjPmgP2ie.jpg", "genre_ids": [80, 18], "id": 647434, "original_language": "en", "original_title": "Eagle Rock", "overview": "In the early 1970s, a young woman in prison for murder reflects on what led her to the crime, the cult she was a part of, and her relationship with its leader.", "poster_path": "/bIecXKtD5Au54ehN5CuSJJKx6ZW.jpg", "release_date": "2019-11-29", "title": "Eagle Rock", "video": false, "vote_average": 0.0, "vote_count": 0, "popularity": 0.957}, {"adult": false, "backdrop_path": "/ev7aQyHCUlebr6MKjhVIQJeJK8l.jpg", "genre_ids": [18, 10749], "id": 100898, "original_language": "nl", "original_title": "Noordzee, Texas", "overview": "Pim lives in a run-down house in a dead-end street somewhere on the Flanders coast, together with his mother Yvette Bulteel. Life here smells of cold French fries, cheap cigarettes, vermouth and stale beer. Mother Yvette uses her friend Etienne, with his lousy grey Fiat, as a driver for the nights she has to \u201cperform\u201d.  As a kid Pim dreams of a better life, imagining princesses and beauty queens. But when Pim turns 16 he dreams of Gino, the handsome boy next door, instead. Ever since they were children there has been this tension between them. Now Gino is Pim\u2019s motorcycling hero. Cold mockery, little humiliations and tiny bits of hope make up Pim\u2019s life. No wonder he sometimes flees to his dream world.", "poster_path": "/l3mD6Tm2hB1oxWQL1PsQ8WcPdju.jpg", "release_date": "2011-03-16", "title": "North Sea Texas", "video": false, "vote_average": 7.3, "vote_count": 122, "popularity": 6.587}, {"id": 15804, "video": false, "vote_count": 83, "vote_average": 8.3, "title": "A Brighter Summer Day", "release_date": "1991-07-27", "original_language": "zh", "original_title": "\u726f\u5dba\u8857\u5c11\u5e74\u6bba\u4eba\u4e8b\u4ef6", "genre_ids": [80, 18, 10749], "backdrop_path": "/a8Xf9S2vj6L0Tvf7nUv1VT9GpjH.jpg", "adult": false, "overview": "A boy experiences first love, friendships and injustices growing up in 1960s Taiwan.", "poster_path": "/rUmXrzRxzLiHnAQUyxyuhcLEWNy.jpg", "popularity": 10.504}, {"adult": false, "backdrop_path": "/k3peZU1BPCVTBOrww1gP9y9BLOJ.jpg", "genre_ids": [18], "id": 473706, "original_language": "en", "original_title": "Pin Cushion", "overview": "Super close mother Lyn and daughter Iona (Dafty One and Dafty Two) are excited for their new life in a new town. Determined to make a success of things after a tricky start, Iona becomes 'best friends' with Keely, Stacey and Chelsea. Used to being Iona's bestie herself, Lyn feels left out. So Lyn also makes friends with Belinda, her neighbour.", "poster_path": "/wTfa0IHWyFivMoLKIey9aduuT8d.jpg", "release_date": "2018-07-13", "title": "Pin Cushion", "video": false, "vote_average": 6.9, "vote_count": 21, "popularity": 3.456}, {"adult": false, "backdrop_path": "/8hHKZf57Ddk8yinZoIdnnpbbdDJ.jpg", "genre_ids": [10749, 18], "id": 350060, "original_language": "is", "original_title": "Hjartasteinn", "overview": "A remote fishing village in Iceland. Teenage boys Thor and Christian experience a turbulent summer as one tries to win the heart of a girl while the other discovers new feelings toward his best friend. When summer ends and the harsh nature of Iceland takes back its rights, it's time to leave the playground and face adulthood.", "poster_path": "/ecBEkb4RvsP8O0GAlRrQoUzMz9W.jpg", "release_date": "2016-12-28", "title": "Heartstone", "video": false, "vote_average": 7.7, "vote_count": 62, "popularity": 6.979}, {"adult": false, "backdrop_path": "/leXf341C7aSphqetA82lM2Oad3A.jpg", "genre_ids": [35, 18, 10749], "id": 41357, "original_language": "en", "original_title": "Summer of '42", "overview": "Over the summer of 1942 on Nantucket Island, three friends -- Hermie, Oscy and Benjie -- are more concerned with getting laid than anything else. Hermie falls in love with the married Dorothy, whose husband is an army pilot recently sent to the battlefront of World War II.", "poster_path": "/cJYezdxCKG2WuVJjKfnGPdVKtB0.jpg", "release_date": "1971-04-09", "title": "Summer of '42", "video": false, "vote_average": 6.8, "vote_count": 65, "popularity": 10.268}, {"id": 21764, "video": false, "vote_count": 64, "vote_average": 6.9, "title": "Gregory's Girl", "release_date": "1981-04-23", "original_language": "en", "original_title": "Gregory's Girl", "genre_ids": [35, 10749], "backdrop_path": "/kHV3ddDiXwGZUvGl5c6TMVEmCz4.jpg", "adult": false, "overview": "In his Scottish New Town home, gangling Gregory and his schoolfriends are starting to find out about girls. He fancies Dorothy, not least because she has got into the football team - and is a better player than him. He finally asks her out, but it is obviously the females in control of matters here, and that very much includes Gregory's younger sister.", "poster_path": "/vVOdKnervWwvxIeJzLCqQzQPs7o.jpg", "popularity": 4.644}, {"adult": false, "backdrop_path": "/8FfD5WXHrJLx0r4expl9IIBMsOW.jpg", "genre_ids": [18, 9648], "id": 280960, "original_language": "pt", "original_title": "Catarina e os Outros", "overview": "Outside, the first sun rays break the dawn.  Sixteen years old Catarina can't fall asleep.  Inconsequently, in the big city adults are moved by desire...  Catarina found she is HIV positive. She wants to drag everyone else along.", "poster_path": "/swSEhrje6NDIqtxAqjBziCkXWU8.jpg", "release_date": "2011-03-01", "title": "Catarina and the others", "video": false, "vote_average": 4.5, "vote_count": 70, "popularity": 11.967}, {"id": 466282, "video": false, "vote_count": 5265, "vote_average": 7.9, "title": "To All the Boys I've Loved Before", "release_date": "2018-08-16", "original_language": "en", "original_title": "To All the Boys I've Loved Before", "genre_ids": [35, 10749], "backdrop_path": "/uZTtVdOEIwPA6vwVRI3217DoPM.jpg", "adult": false, "overview": "Lara Jean's love life goes from imaginary to out of control when her secret letters to every boy she's ever fallen for are mysteriously mailed out.", "poster_path": "/hKHZhUbIyUAjcSrqJThFGYIR6kI.jpg", "popularity": 39.96}, {"id": 11887, "video": false, "vote_count": 2347, "vote_average": 6.5, "title": "High School Musical 3: Senior Year", "release_date": "2008-10-11", "original_language": "en", "original_title": "High School Musical 3: Senior Year", "genre_ids": [35, 18, 10402, 10749, 10751], "backdrop_path": "/daSGxGZL2nNjGZKkAF5ain3lmOx.jpg", "adult": false, "overview": "It's almost graduation day for high school seniors Troy, Gabriella, Sharpay, Chad, Ryan and Taylor \u2015 and the thought of heading off in separate directions after leaving East High has these Wildcats thinking they need to do something they'll remember forever. Together with the rest of the Wildcats, they stage a spring musical reflecting their hopes and fears about the future and their unforgettable experiences growing up together. But with graduation approaching and college plans in question, what will become of the dreams, romances, and friendships of East High's senior Wildcats?", "poster_path": "/ewZpH2QIfPQ0VIn9lPf7MHbLbl4.jpg", "popularity": 19.967}, {"id": 14, "video": false, "vote_count": 7289, "vote_average": 8.0, "title": "American Beauty", "release_date": "1999-09-15", "original_language": "en", "original_title": "American Beauty", "genre_ids": [18], "backdrop_path": "/z5J18ByLeOZ68iORfMXmxeFuwyL.jpg", "adult": false, "overview": "Lester Burnham, a depressed suburban father in a mid-life crisis, decides to turn his hectic life around after developing an infatuation with his daughter's attractive friend.", "poster_path": "/or1MP8BZIAjqWYxPdPX724ydKar.jpg", "popularity": 34.256}, {"adult": false, "backdrop_path": "/useuHJQ5HOoEWkAvEjL1FW1sUfe.jpg", "genre_ids": [18], "id": 376867, "original_language": "en", "original_title": "Moonlight", "overview": "The tender, heartbreaking story of a young man\u2019s struggle to find himself, told across three defining chapters in his life as he experiences the ecstasy, pain, and beauty of falling in love, while grappling with his own sexuality.", "poster_path": "/qAwFbszz0kRyTuXmMeKQZCX3Q2O.jpg", "release_date": "2016-10-21", "title": "Moonlight", "video": false, "vote_average": 7.4, "vote_count": 4406, "popularity": 27.348}, {"adult": false, "backdrop_path": "/k4BAPrE5WkNLvpsPsiMfu8W4Zyi.jpg", "genre_ids": [18, 80], "id": 598, "original_language": "pt", "original_title": "Cidade de Deus", "overview": "Cidade de Deus is a shantytown that started during the 1960s and became one of Rio de Janeiro\u2019s most dangerous places in the beginning of the 1980s. To tell the story of this place, the movie describes the life of various characters, all seen by the point of view of the narrator, Buscap\u00e9. Buscap\u00e9 was raised in a very violent environment. Despite the feeling that all odds were against him, he finds out that life can be seen with other eyes...", "poster_path": "/4YEX7qUfg6kN2tHm84CMt2CEq9n.jpg", "release_date": "2002-02-05", "title": "City of God", "video": false, "vote_average": 8.4, "vote_count": 3791, "popularity": 22.045}], "total_pages": 45, "total_results": 897}, "recommendations": {"page": 1, "results": [], "total_pages": 1, "total_results": 0}, "credits": {"cast": [{"cast_id": 5, "character": "Cynthia Bishop", "credit_id": "52fe4ca99251416c910fc017", "gender": 1, "id": 3635, "name": "Elizabeth Taylor", "order": 0, "profile_path": "/rPbfZlBX18OIj7H1Bahq7YcJL0v.jpg"}, {"cast_id": 6, "character": "Larry Bishop", "credit_id": "52fe4ca99251416c910fc01b", "gender": 2, "id": 103366, "name": "George Murphy", "order": 1, "profile_path": "/boE6DkfJ7liB5TAM0FopMrQEgxX.jpg"}, {"cast_id": 7, "character": "Prof. Rosenkrantz", "credit_id": "52fe4ca99251416c910fc01f", "gender": 2, "id": 94110, "name": "S.Z. Sakall", "order": 2, "profile_path": "/jBp6orDZiX5ay9tyaHQOpcFJAqd.jpg"}, {"cast_id": 8, "character": "Louise Bishop", "credit_id": "52fe4ca99251416c910fc023", "gender": 1, "id": 13992, "name": "Mary Astor", "order": 3, "profile_path": "/w1KLRK5J5SRXkqONL9WS8exhKgp.jpg"}, {"cast_id": 9, "character": "Dr. Fred I. Jannings", "credit_id": "52fe4ca99251416c910fc027", "gender": 2, "id": 30234, "name": "Gene Lockhart", "order": 4, "profile_path": "/7IL5fx1mfhCiMAvYXSiY1Dj7yky.jpg"}, {"cast_id": 10, "character": "Carrie Bishop Jannings", "credit_id": "52fe4ca99251416c910fc02b", "gender": 1, "id": 20369, "name": "Spring Byington", "order": 5, "profile_path": "/n2bZwVguxiNEdtSgZkvXPrHfatO.jpg"}, {"cast_id": 11, "character": "Ricky Latham", "credit_id": "52fe4ca99251416c910fc02f", "gender": 2, "id": 120052, "name": "Jimmy Lydon", "order": 6, "profile_path": "/aDU4K9drrHOPQWAjZj72wy71EVM.jpg"}, {"cast_id": 12, "character": "Will Parker", "credit_id": "53309632c3a3685fc300726d", "gender": 2, "id": 125847, "name": "Scotty Beckett", "order": 7, "profile_path": "/1cKFfAtdB7FO101jl5ICPeTylwB.jpg"}, {"cast_id": 13, "character": "Fredonia Jannings", "credit_id": "53309652c3a3685fe2007263", "gender": 1, "id": 1137630, "name": "Carol Brannon", "order": 8, "profile_path": null}, {"cast_id": 14, "character": "Miss Brady, English Teacher", "credit_id": "5330966cc3a3685fac007047", "gender": 1, "id": 8638, "name": "Anna Q. Nilsson", "order": 9, "profile_path": "/eVCoFpQHGiQUxaOQFclqB5FI90c.jpg"}, {"cast_id": 15, "character": "Mr. Phillips, Principal", "credit_id": "533096a8c3a3685fcb007060", "gender": 2, "id": 81182, "name": "Morris Ankrum", "order": 10, "profile_path": "/vbZl5cWCIK2Y6tpIPfv1nBFhgSl.jpg"}, {"cast_id": 16, "character": "Mac McQuillan, Jannings' Nurse", "credit_id": "533096bfc3a3685fc3007279", "gender": 1, "id": 20126, "name": "Kathleen Howard", "order": 11, "profile_path": "/mB7ZMAIex6LuCbXdtYJl2X6shoT.jpg"}, {"cast_id": 17, "character": "Stella Regan", "credit_id": "533096dcc3a3685fb3006f15", "gender": 1, "id": 1002873, "name": "Shirley Johns", "order": 12, "profile_path": null}, {"cast_id": 18, "character": "Alice", "credit_id": "533096f2c3a3685fdb0072f8", "gender": 1, "id": 1002820, "name": "Barbara Challis", "order": 13, "profile_path": null}, {"cast_id": 19, "character": "J.M. Dingle, Napoleon Hardware", "credit_id": "5330970cc3a3685fc300728a", "gender": 2, "id": 34238, "name": "Harlan Briggs", "order": 14, "profile_path": "/7yKYlqb1Rd2ekAJBjxmPgP0Uws1.jpg"}, {"cast_id": 20, "character": "Gus Wood, Thatcher's Real Estate Rep", "credit_id": "53309729c3a3685fdb0072ff", "gender": 2, "id": 34279, "name": "Will Wright", "order": 15, "profile_path": "/zUdSY3q6vUd8hyuhX25fvnZTVdg.jpg"}, {"cast_id": 21, "character": "Agnes, Jannings' Cook (uncredited)", "credit_id": "5330978ec3a3685fbb00705a", "gender": 1, "id": 102002, "name": "Minerva Urecal", "order": 16, "profile_path": "/gMG30MRyu03iSkUSEnL6BHVORQB.jpg"}], "crew": [{"credit_id": "52fe4ca99251416c910fc001", "department": "Directing", "gender": 2, "id": 93906, "job": "Director", "name": "Robert Z. Leonard", "profile_path": "/w6wkz4NRYhhOTWqVjXvoHAWj6yQ.jpg"}, {"credit_id": "52fe4ca99251416c910fc013", "department": "Writing", "gender": 1, "id": 125363, "job": "Theatre Play", "name": "Vi\u00f1a Delmar", "profile_path": null}, {"credit_id": "585ba88b92514175ad080586", "department": "Writing", "gender": 2, "id": 139317, "job": "Writer", "name": "Charles Kaufman", "profile_path": null}, {"credit_id": "52fe4ca99251416c910fc007", "department": "Writing", "gender": 2, "id": 295892, "job": "Writer", "name": "Harold Buchman", "profile_path": null}]}}