{"adult": false, "backdrop_path": "/rIVzCD3UDqtp4t5lcGBacu0qaji.jpg", "belongs_to_collection": null, "budget": 0, "genres": [{"id": 18, "name": "Drama"}], "homepage": null, "id": 194853, "imdb_id": "tt0058122", "original_language": "pt", "original_title": "Os Fuzis", "overview": "A group of armed soldiers is sent to the Northeast of Brazil in an attempt to stop a famine-struck population from invading and stealing a food deposit in the dry backlands. While the alienation and insanity of people driven to hallucination by their latent hunger is conducted by the predictions of a religious figure, a truck driver observes the situation and remains torn between his friendship with the soldiers and his revolt against the lack of government action in fighting the misery that lingers over the region.", "popularity": 0.84, "poster_path": "/oYXZayooqrpACkR1Kmo8TZKAlEr.jpg", "production_companies": [{"id": 93202, "logo_path": null, "name": "Inbracine Filmes", "origin_country": "BR"}, {"id": 8479, "logo_path": null, "name": "Copacabana Filmes", "origin_country": "BR"}, {"id": 93203, "logo_path": null, "name": "Daga Filmes", "origin_country": "BR"}], "production_countries": [{"iso_3166_1": "AR", "name": "Argentina"}, {"iso_3166_1": "BR", "name": "Brazil"}], "release_date": "1964-06-01", "revenue": 0, "runtime": 80, "spoken_languages": [{"iso_639_1": "pt", "name": "Portugu\u00eas"}], "status": "Released", "tagline": "", "title": "The Guns", "video": false, "vote_average": 6.6, "vote_count": 7, "keywords": {"keywords": [{"id": 209984, "name": "cinema novo"}]}, "similar": {"page": 1, "results": [{"id": 67612, "video": false, "vote_count": 60, "vote_average": 7.2, "title": "Black God, White Devil", "release_date": "1964-03-13", "original_language": "pt", "original_title": "Deus e o Diabo na Terra do Sol", "genre_ids": [12, 80, 18, 37], "backdrop_path": "/w0PuvuEFq8A4w2dMgpqYGpgip9i.jpg", "adult": false, "overview": "Set in the drought-plagued Brazilian badlands of the 1940s, Black God, White Devil explores the climate of superstition, physical and spiritual terrorism, and fear that gripped the country. The central characters, Manuel and Rosa, are on the run, and move credulously from allegiance to allegiance until they finally learn that the land belongs neither to god nor devil, but to the people themselves. The film\u2019s storyline, somewhere between folk ballad and contemporary myth, contains a multitude of references to Brazilian history and culture.", "poster_path": "/jwilT4rIjH7M7hU5LxZYLQcH6Di.jpg", "popularity": 4.683}, {"adult": false, "backdrop_path": "/9UxfgJcx0oEasEESTgJjTUDz0bH.jpg", "genre_ids": [18], "id": 836, "original_language": "pt", "original_title": "Vidas secas", "overview": "'Vidas secas' tells in vivid images the almost documentary like story of a drover and his family in the northern interior states of Brazil during the drought. A family in the search of a new hope and destiny.", "poster_path": "/mSPX9vKLhslmV6yzTK1krzUJiac.jpg", "release_date": "1963-08-22", "title": "Barren Lives", "video": false, "vote_average": 7.3, "vote_count": 39, "popularity": 3.356}, {"id": 74349, "video": false, "vote_count": 30, "vote_average": 6.2, "title": "Antonio das Mortes", "release_date": "1969-05-20", "original_language": "pt", "original_title": "O Drag\u00e3o da Maldade contra o Santo Guerreiro", "genre_ids": [18, 37], "backdrop_path": "/voOUcsIgQQYPlLvIDPKeSJ0CT3h.jpg", "adult": false, "overview": "Mauricio do Valle reprises his role as Antonio das Mortes, the troubled hitman from Black God, White Devil. A new incarnation of Cangaceiro bandits, led by Coirana, has risen in the badlands. A blind landowner hires Antonio to wipe out his old nemesis. Yet after besting Coirana and accompanying the dying man to his mountain hideout, Antonio is moved by the plight of the Cangaceiro\u2019s followers. The troubled hitman turns revolutionary, his gun and machete aimed towards his former masters.", "poster_path": "/fOoqqn5A2XoPLblvAPpujRonzZm.jpg", "popularity": 2.924}, {"adult": false, "backdrop_path": "/mjjUvCXlAwWtDWlCMbzijwBdd7R.jpg", "genre_ids": [18], "id": 1653, "original_language": "es", "original_title": "Diarios de motocicleta", "overview": "Based on the journals of Che Guevara, leader of the Cuban Revolution. In his memoirs, Guevara recounts adventures he, and best friend Alberto Granado, had while crossing South America by motorcycle in the early 1950s.", "poster_path": "/uNMLsBv48WwIohS7n5DVe1fsFcb.jpg", "release_date": "2004-02-06", "title": "The Motorcycle Diaries", "video": false, "vote_average": 7.4, "vote_count": 680, "popularity": 10.627}, {"id": 52345, "video": false, "vote_count": 221, "vote_average": 7.8, "title": "Lisbela and the Prisoner", "release_date": "2003-08-22", "original_language": "pt", "original_title": "Lisbela e o Prisioneiro", "genre_ids": [35, 10749], "backdrop_path": "/4KDlC0cZvR5LtszqjFhZcMzdiUD.jpg", "adult": false, "overview": "Lisbela is a young woman who loves going to the movies. Lel\u00e9u is a con man, going from town to town selling all sort of things and performing as master of ceremonies for some cheesy numbers, such as the woman who gets transformed into a gorilla. He gets involved with Linaura, a sexy and beautiful woman who happens to be the wife of the most frightening hitman of the place. The hitman finds out his wife's affair and goes after Lel\u00e9u, who has to leave in a hurry. In another town, he meets and falls instantly in love with Lisbela, who is engaged to Douglas, a hillbilly who tries hard to pass for a cosmopolitan Rio de Janeiro dweller.", "poster_path": "/9nlaRxQeYaMrVVANMppagFohCRP.jpg", "popularity": 1.042}, {"id": 7347, "video": false, "vote_count": 1082, "vote_average": 8.0, "title": "Elite Squad", "release_date": "2007-10-12", "original_language": "pt", "original_title": "Tropa de Elite", "genre_ids": [28, 80, 18], "backdrop_path": "/7hhmSkzktUm5GxuVUWXlJrVx81L.jpg", "adult": false, "overview": "In 1997, before the visit of the pope to Rio de Janeiro, Captain Nascimento from BOPE (Special Police Operations Battalion) is assigned to eliminate the risks of the drug dealers in a dangerous slum nearby where the pope intends to be lodged.", "poster_path": "/soOOLcNFRHCKf1WD6T8psUY5Xgi.jpg", "popularity": 8.203}, {"id": 666, "video": false, "vote_count": 358, "vote_average": 8.1, "title": "Central Station", "release_date": "1998-11-20", "original_language": "pt", "original_title": "Central do Brasil", "genre_ids": [18], "backdrop_path": "/lrLIy9OFRQg4VkhrCyolfNXJEUH.jpg", "adult": false, "overview": "An emotive journey of a former school teacher, who writes letters for illiterate people, and a young boy, whose mother has just died, as they search for the father he never knew.", "poster_path": "/uQj3kqTPOVnEFnWr7esi90ZyzTm.jpg", "popularity": 13.915}, {"id": 72660, "video": false, "vote_count": 141, "vote_average": 7.9, "title": "I Don't Want to Go Back Alone", "release_date": "2010-07-18", "original_language": "pt", "original_title": "Eu N\u00e3o Quero Voltar Sozinho", "genre_ids": [18, 10749], "backdrop_path": "/51SpFoqN7TUjeBL35vw0x9P1Q7E.jpg", "adult": false, "overview": "The arrival of a new student in school changes Leonardo's life. This 15 year-old blind teenager has to deal with the jealousy of his friend Giovana while figuring out the new feelings he's having towards his new friend, Gabriel.", "poster_path": "/c0dVfg5wwiYzlYl9QsmrtWiwM6d.jpg", "popularity": 7.629}, {"id": 206563, "video": false, "vote_count": 380, "vote_average": 7.1, "title": "Trash", "release_date": "2014-10-09", "original_language": "pt", "original_title": "Trash", "genre_ids": [12, 80, 18, 53], "backdrop_path": "/7SkCvOnCKyYO3qTgpLINMKATlaN.jpg", "adult": false, "overview": "Set in Brazil, three kids who make a discovery in a garbage dump soon find themselves running from the cops and trying to right a terrible wrong.", "poster_path": "/tHJhoWA2m1OGdrjyjEK6mpEcksJ.jpg", "popularity": 8.617}, {"id": 310569, "video": false, "vote_count": 404, "vote_average": 8.1, "title": "The Second Mother", "release_date": "2015-02-08", "original_language": "pt", "original_title": "Que Horas Ela Volta?", "genre_ids": [18], "backdrop_path": "/1s8oM0myujOb2pAHrfPaBZLqt6I.jpg", "adult": false, "overview": "After leaving her daughter Jessica in a small town in Pernambuco to be raised by relatives, Val spends the next 13 years working as a nanny to Fabinho in S\u00e3o Paulo. She has financial stability but has to live with the guilt of having not raised Jessica herself. As Fabinho\u2019s university entrance exams approach, Jessica reappears in her life and seems to want to give her mother a second chance. However Jessica has not been raised to be a servant and her very existence will turn Val\u2019s routine on its head. With precision and humour, Anna Muylaert turns her eye on the subtle and powerful forces that keep rigid class structures in place and how the youth may just be the ones to shake it all up.", "poster_path": "/lhcZrT1QGp8LfpuncuaQvFHIZJV.jpg", "popularity": 7.022}, {"id": 34671, "video": false, "vote_count": 113, "vote_average": 7.4, "title": "Olga", "release_date": "2004-08-20", "original_language": "pt", "original_title": "Olga", "genre_ids": [18, 36], "backdrop_path": "/aXYK7Sk5KnHyWFu2Rnz98vZLT8N.jpg", "adult": false, "overview": "Based upon the true story of Olga Ben\u00e1rio, the German-born wife of Brazilian communist leader Lu\u00eds Carlos Prestes. During the dictatorship of Get\u00falio Vargas (1930-1945) she was arrested and sent to Nazi Germany, where she was put to death in a concentration camp. After World War II began, Vargas decided to uphold the Allies.", "poster_path": "/2K0g91dSCYdIApEHq02Svglxg25.jpg", "popularity": 6.458}, {"id": 47931, "video": false, "vote_count": 914, "vote_average": 7.8, "title": "Elite Squad: The Enemy Within", "release_date": "2010-10-08", "original_language": "pt", "original_title": "Tropa de Elite 2", "genre_ids": [28, 80, 18], "backdrop_path": "/1odL7ZU4rP8wOqPj2NLDOTyMJCh.jpg", "adult": false, "overview": "After a bloody invasion of the BOPE in the High-Security Penitentiary Bangu 1 in Rio de Janeiro to control a rebellion of interns, the Lieutenant-Colonel Roberto Nascimento and the second in command Captain Andr\u00e9 Matias are accused by the Human Right Aids member Diogo Fraga of execution of prisoners. Matias is transferred to the corrupted Military Police and Nascimento is exonerated from the BOPE by the Governor.", "poster_path": "/65Uy9xucPOAZDKa54RlojVyP24k.jpg", "popularity": 9.414}, {"id": 49367, "video": false, "vote_count": 203, "vote_average": 6.6, "title": "Two Sons of Francisco", "release_date": "2005-08-19", "original_language": "pt", "original_title": "Dois Filhos de Francisco", "genre_ids": [18, 36], "backdrop_path": "/gq9ZQ7VZJ0sjlJukn1vGLw6Nc3p.jpg", "adult": false, "overview": "The story of Francisco, a very simple and poor man whose dream was to see his children become country music stars, and who made all the efforts to make it happen.", "poster_path": "/2vYfnWXxfgXfDe5OwoAUG8zUa9j.jpg", "popularity": 5.985}, {"id": 7343, "video": false, "vote_count": 146, "vote_average": 7.1, "title": "City of Men", "release_date": "2007-08-31", "original_language": "pt", "original_title": "Cidade dos Homens", "genre_ids": [18], "backdrop_path": "/1Rx2CUzT0sABHw9loorBuQXAPzr.jpg", "adult": false, "overview": "Best buddies Acerola and Laranjinha, about to turn 18, discover things about their missing fathers' pasts which will shatter their solid friendship, in the middle of a war between rival drug gangs from Rio's favelas.", "poster_path": "/bIg5Hv4FZn9210BIO2wJ36MOjMF.jpg", "popularity": 7.169}, {"adult": false, "backdrop_path": "/izhdSskWmW3nD96nMZUIGoJNpa1.jpg", "genre_ids": [18], "id": 8440, "original_language": "pt", "original_title": "Carandiru", "overview": "Carandiru, a story based on real facts and on the book written by the doctor Drauzio Varella, starts when he decides to carry out an AIDS prevention program inside Latin America\u2019s largest prison: the Casa de Deten\u00e7\u00e3o de S\u00e3o Paulo, Carandiru, the victim of one of the darkest days in Brazilian History, when the State of S\u00e3o Paulo\u2019s Military Police, with the excuse for law enforcement, shot to death 111 people.", "poster_path": "/4WbrzAUrtxhMgn6ULKpJHG4WS87.jpg", "release_date": "2003-03-21", "title": "Carandiru", "video": false, "vote_average": 7.5, "vote_count": 237, "popularity": 7.467}, {"adult": false, "backdrop_path": "/uIlOgPkKfLsv7Mju5UO9Dt970sK.jpg", "genre_ids": [80, 18], "id": 17358, "original_language": "pt", "original_title": "Meu Nome n\u00e3o \u00e9 Johnny", "overview": "The true story of Jo\u00e3o Guilherme Estrella (\"Johnny\"), a young middle-class bon vivant who became a big-time cocaine dealer in Rio de Janeiro in the early 1990s.", "poster_path": "/q0f9hmTPMqNne3HiIy5LVlXFx0b.jpg", "release_date": "2008-01-04", "title": "My Name Ain't Johnny", "video": false, "vote_average": 7.0, "vote_count": 130, "popularity": 5.568}, {"id": 21253, "video": false, "vote_count": 51, "vote_average": 7.4, "title": "Four Days in September", "release_date": "1997-01-01", "original_language": "pt", "original_title": "O Que \u00e9 Isso, Companheiro?", "genre_ids": [18, 36, 53], "backdrop_path": "/oMzM41z0tCqgixQ0dwcXPqoWDM4.jpg", "adult": false, "overview": "Fernando, a journalist, and his friend C\u00e9sar join terrorist group MR8 in order to fight Brazilian dictatorial regime during the late sixties. Cesare, however, is wounded and captured during a bank hold up. Fernando then decides to kidnap the American ambassador in Brazil and ask for the release of fifteen political prisoners in exchange for his life.", "poster_path": "/qDHde9CScDykVYfwaLCvNRqAZlU.jpg", "popularity": 3.847}, {"id": 40823, "video": false, "vote_count": 160, "vote_average": 7.3, "title": "The Man Who Copied", "release_date": "2003-06-13", "original_language": "pt", "original_title": "O Homem Que Copiava", "genre_ids": [35, 18, 10749], "backdrop_path": "/nuI843dXVQC2Dl4PIKiF15oxPVV.jpg", "adult": false, "overview": "Andr\u00e9, 19, lives in Porto Alegre, Brazil, and works as a photocopier operator. He likes to see his neighbor S\u00edlvia with a pair of binoculars. She works selling clothes. Becoming attracted to her, he tries to get nearer, and goes to her shop to buy something, but finds out that he can't afford it. So he puts the photocopier to other uses, and begins to envisage fishy schemes to earn some money.", "poster_path": "/3RsEkEdLEFd0Q5HThqMd4X8tYZk.jpg", "popularity": 4.937}, {"adult": false, "backdrop_path": "/alQqTpmEkxSLgajfEYTsTH6nAKB.jpg", "genre_ids": [12, 35], "id": 40096, "original_language": "pt", "original_title": "O Auto da Compadecida", "overview": "The lively Jo\u00e3o Grilo and the sly Chic\u00f3 are poor guys living in the hinterland who cheat a bunch of people in a small Northeast Brazil town. But when they die, they have to be judged by Christ, the Devil and the Virgin Mary, before they are admitted to paradise.", "poster_path": "/uHEmM49YphluJnGep8Ef1qwD2QX.jpg", "release_date": "2000-09-15", "title": "A Dog's Will", "video": false, "vote_average": 8.4, "vote_count": 540, "popularity": 9.527}, {"id": 377273, "video": false, "vote_count": 255, "vote_average": 7.5, "title": "Aquarius", "release_date": "2016-09-01", "original_language": "pt", "original_title": "Aquarius", "genre_ids": [18], "backdrop_path": "/nB43fedXBzwx7Xv8OWKjfaMzpQF.jpg", "adult": false, "overview": "Clara, a 65-year-old widow and retired music critic, was born into a wealthy and traditional family in Recife, Brazil. She is the last resident of the Aquarius, an original two-story building, built in the 1940s, in the upper-class, seaside Boa Viagem Avenue. All the neighboring apartments have already been acquired by a company which has other plans for that plot.", "poster_path": "/gxuT8EbgXsHq02LLDYuXdTD963V.jpg", "popularity": 7.023}], "total_pages": 14, "total_results": 273}, "recommendations": {"page": 1, "results": [], "total_pages": 1, "total_results": 0}, "credits": {"cast": [{"cast_id": 26, "character": "Ga\u00facho", "credit_id": "52fe4cfb9251416c91106a79", "gender": 0, "id": 12396, "name": "\u00c1tila I\u00f3rio", "order": 0, "profile_path": "/l212CzDWR8paIhjsPrPsauEJbgR.jpg"}, {"cast_id": 34, "character": "M\u00e1rio", "credit_id": "52fe4cfb9251416c91106a99", "gender": 2, "id": 130036, "name": "Nelson Xavier", "order": 1, "profile_path": "/z3y0KRuUG7LcQxzp52RuX9lPnu4.jpg"}, {"cast_id": 30, "character": "Pedro", "credit_id": "52fe4cfb9251416c91106a89", "gender": 0, "id": 103667, "name": "Paulo C\u00e9sar Per\u00e9io", "order": 2, "profile_path": "/erHkY4ZPLPbAJBC3cFVp4402GrY.jpg"}, {"cast_id": 22, "character": "Jos\u00e9", "credit_id": "52fe4cfb9251416c91106a69", "gender": 2, "id": 112112, "name": "Hugo Carvana", "order": 3, "profile_path": "/89GkB5yguRKh6uOujJ9DDvvvZVv.jpg"}, {"cast_id": 23, "character": "301", "credit_id": "52fe4cfb9251416c91106a6d", "gender": 2, "id": 1164472, "name": "Ivan C\u00e2ndido", "order": 4, "profile_path": "/vB4uc9VEEzKXJFfBA1by5YqVwoA.jpg"}, {"cast_id": 31, "character": "Voice", "credit_id": "52fe4cfb9251416c91106a8d", "gender": 2, "id": 230269, "name": "Ant\u00f4nio Pitanga", "order": 5, "profile_path": "/jNugjnXX6FlOTyVxpG23OKVzYUj.jpg"}, {"cast_id": 20, "character": "Sargento", "credit_id": "52fe4cfb9251416c91106a61", "gender": 2, "id": 1175188, "name": "Leonidas Bayer", "order": 6, "profile_path": "/w2opuz37nzucGxcLvyThaDqnWy3.jpg"}, {"cast_id": 25, "character": "Lu\u00edsa", "credit_id": "52fe4cfb9251416c91106a75", "gender": 1, "id": 1091459, "name": "Maria Gladys", "order": 7, "profile_path": "/oAKbMl5hVSMzbG70CDNw6fJujlW.jpg"}, {"cast_id": 32, "character": "Bar owner", "credit_id": "52fe4cfb9251416c91106a91", "gender": 2, "id": 229254, "name": "Ruy Polanah", "order": 8, "profile_path": "/kTZMGkLRTS7Y1PqpIh7wU3yEu4Y.jpg"}, {"cast_id": 19, "character": "Man with dead child", "credit_id": "52fe4cfb9251416c91106a5d", "gender": 2, "id": 563713, "name": "Joel Barcellos", "order": 9, "profile_path": "/oKCoEd3Je3SlUR8ZlKeshdTk6uz.jpg"}, {"cast_id": 29, "character": "Religious man", "credit_id": "52fe4cfb9251416c91106a85", "gender": 0, "id": 1175192, "name": "Mauricio Loyola", "order": 10, "profile_path": null}, {"cast_id": 33, "character": "", "credit_id": "52fe4cfb9251416c91106a95", "gender": 2, "id": 930476, "name": "Cecil Thir\u00e9", "order": 11, "profile_path": "/zxKM6vXMtH9RV8B9ZPZjHB2Phqu.jpg"}, {"cast_id": 18, "character": "", "credit_id": "52fe4cfb9251416c91106a59", "gender": 0, "id": 1175187, "name": "Maria Ad\u00e9lia", "order": 12, "profile_path": null}, {"cast_id": 21, "character": "", "credit_id": "52fe4cfb9251416c91106a65", "gender": 0, "id": 1175189, "name": "Paulo Campos", "order": 13, "profile_path": null}, {"cast_id": 27, "character": "", "credit_id": "52fe4cfb9251416c91106a7d", "gender": 0, "id": 1175190, "name": "Hugo Kusnetzoff", "order": 14, "profile_path": null}, {"cast_id": 28, "character": "", "credit_id": "52fe4cfb9251416c91106a81", "gender": 0, "id": 1175191, "name": "Maria Ligia", "order": 15, "profile_path": null}, {"cast_id": 35, "character": "", "credit_id": "5888496392514162f500b3bd", "gender": 2, "id": 1062936, "name": "Billy Davis", "order": 16, "profile_path": null}], "crew": [{"credit_id": "52fe4cfb9251416c911069fb", "department": "Writing", "gender": 2, "id": 20548, "job": "Screenplay", "name": "Ruy Guerra", "profile_path": "/As9S3qSWr9WMQZvNN7OqLyKmU9I.jpg"}, {"credit_id": "52fe4cfb9251416c911069f5", "department": "Directing", "gender": 2, "id": 20548, "job": "Director", "name": "Ruy Guerra", "profile_path": "/As9S3qSWr9WMQZvNN7OqLyKmU9I.jpg"}, {"credit_id": "52fe4cfb9251416c91106a1f", "department": "Camera", "gender": 0, "id": 22456, "job": "Director of Photography", "name": "Ricardo Aronovich", "profile_path": null}, {"credit_id": "52fe4cfb9251416c91106a37", "department": "Production", "gender": 2, "id": 229254, "job": "Production Manager", "name": "Ruy Polanah", "profile_path": "/kTZMGkLRTS7Y1PqpIh7wU3yEu4Y.jpg"}, {"credit_id": "52fe4cfb9251416c91106a55", "department": "Crew", "gender": 2, "id": 592439, "job": "Title Graphics", "name": "Ziraldo", "profile_path": "/ghH7pzdPbzJg6EWixQKch41eGxK.jpg"}, {"credit_id": "52fe4cfb9251416c91106a3d", "department": "Crew", "gender": 2, "id": 930476, "job": "Second Unit", "name": "Cecil Thir\u00e9", "profile_path": "/zxKM6vXMtH9RV8B9ZPZjHB2Phqu.jpg"}, {"credit_id": "588849fac3a36859ec00a2b3", "department": "Production", "gender": 2, "id": 1062936, "job": "Production Manager", "name": "Billy Davis", "profile_path": null}, {"credit_id": "52fe4cfb9251416c91106a43", "department": "Art", "gender": 0, "id": 1063555, "job": "Art Direction", "name": "Saturno Cerra", "profile_path": "/7a7kTmT5yRUx9RBYdmroDynIG6G.jpg"}, {"credit_id": "52fe4cfb9251416c91106a25", "department": "Editing", "gender": 2, "id": 1068940, "job": "Editor", "name": "Raimundo Higino", "profile_path": null}, {"credit_id": "52fe4cfb9251416c91106a01", "department": "Writing", "gender": 0, "id": 1175168, "job": "Screenplay", "name": "Pierre Pelegri", "profile_path": null}, {"credit_id": "52fe4cfb9251416c91106a07", "department": "Writing", "gender": 2, "id": 1175177, "job": "Screenplay", "name": "Miguel Torres", "profile_path": null}, {"credit_id": "52fe4cfb9251416c91106a0d", "department": "Production", "gender": 2, "id": 1175180, "job": "Producer", "name": "Jarbas Barbosa", "profile_path": null}, {"credit_id": "52fe4cfb9251416c91106a13", "department": "Production", "gender": 2, "id": 1175181, "job": "Producer", "name": "Gilberto Perrone", "profile_path": null}, {"credit_id": "52fe4cfb9251416c91106a19", "department": "Sound", "gender": 0, "id": 1175182, "job": "Original Music Composer", "name": "Moacir Santos", "profile_path": null}, {"credit_id": "52fe4cfb9251416c91106a2b", "department": "Art", "gender": 0, "id": 1175183, "job": "Production Design", "name": "Calazans Neto", "profile_path": null}, {"credit_id": "52fe4cfb9251416c91106a49", "department": "Sound", "gender": 0, "id": 1175185, "job": "Sound Designer", "name": "Eduardo Sidney", "profile_path": null}, {"credit_id": "52fe4cfb9251416c91106a4f", "department": "Crew", "gender": 0, "id": 1175186, "job": "Production Office Assistant", "name": "Jos\u00e9 Higino", "profile_path": null}]}}