{"adult": false, "backdrop_path": "/550qtj2cFlb5LysSsfOp3wZTAHT.jpg", "belongs_to_collection": null, "budget": 0, "genres": [{"id": 18, "name": "Drama"}], "homepage": "http://www.aprilshowersmovie.com/", "id": 19501, "imdb_id": "tt1212451", "original_language": "en", "original_title": "April Showers", "overview": "A look inside a tragedy through the eyes of a survivor. Based on actual events, April Showers is about picking up the pieces in the direct aftermath of school violence", "popularity": 4.491, "poster_path": "/aowOQ8xQUTF33yEz7GW2NyGCvMF.jpg", "production_companies": [{"id": 61007, "logo_path": null, "name": "April Showers", "origin_country": ""}], "production_countries": [{"iso_3166_1": "US", "name": "United States of America"}], "release_date": "2009-04-18", "revenue": 0, "runtime": 94, "spoken_languages": [{"iso_639_1": "en", "name": "English"}], "status": "Released", "tagline": "In an instant, their world changed forever.", "title": "April Showers", "video": false, "vote_average": 4.9, "vote_count": 15, "keywords": {"keywords": [{"id": 10183, "name": "independent film"}]}, "similar": {"page": 1, "results": [{"adult": false, "backdrop_path": "/kQyeXce1ozYryHichnEserMAByN.jpg", "genre_ids": [28, 80, 18, 53], "id": 11564, "original_language": "en", "original_title": "Class of 1984", "overview": "Andy is a new teacher at a inner city high school that is like nothing he has ever seen before. There is metal detectors at the front door and everything is basically run by a tough kid named Peter Stegman. Soon, Andy and Stegman become enemies and Stegman will stop at nothing to protect his turf and drug dealing business.", "poster_path": "/whDnqSYg4yYgVzbVhLSjzC5piUR.jpg", "release_date": "1982-08-20", "title": "Class of 1984", "video": false, "vote_average": 6.2, "vote_count": 121, "popularity": 9.407}, {"adult": false, "backdrop_path": "/7RRuRcGuWkZGuRyYugfXn0Fgrrr.jpg", "genre_ids": [28, 80, 18, 53], "id": 949, "original_language": "en", "original_title": "Heat", "overview": "Obsessive master thief, Neil McCauley leads a top-notch crew on various daring heists throughout Los Angeles while determined detective, Vincent Hanna pursues him without rest. Each man recognizes and respects the ability and the dedication of the other even though they are aware their cat-and-mouse game may end in violence.", "poster_path": "/6pmLVffM9jEYK7VqDJqPblMxfEY.jpg", "release_date": "1995-12-15", "title": "Heat", "video": false, "vote_average": 7.8, "vote_count": 3610, "popularity": 21.48}, {"adult": false, "backdrop_path": "/2Tawvc0JMmR9nBXD3nhBThTQP2X.jpg", "genre_ids": [53, 18, 80, 27], "id": 1359, "original_language": "en", "original_title": "American Psycho", "overview": "A wealthy New York investment banking executive hides his alternate psychopathic ego from his co-workers and friends as he escalates deeper into his illogical, gratuitous fantasies.", "poster_path": "/qXsylPM4Lr5397R3eHrfqHhTUNc.jpg", "release_date": "2000-04-13", "title": "American Psycho", "video": false, "vote_average": 7.4, "vote_count": 4911, "popularity": 20.069}, {"id": 101, "video": false, "vote_count": 8645, "vote_average": 8.3, "title": "L\u00e9on: The Professional", "release_date": "1994-09-14", "original_language": "en", "original_title": "L\u00e9on: The Professional", "genre_ids": [28, 80, 18], "backdrop_path": "/dXQ7HILRK1Tg33RT64JwbQI7Osh.jpg", "adult": false, "overview": "L\u00e9on, the top hit man in New York, has earned a rep as an effective \"cleaner\". But when his next-door neighbors are wiped out by a loose-cannon DEA agent, he becomes the unwilling custodian of 12-year-old Mathilda. Before long, Mathilda's thoughts turn to revenge, and she considers following in L\u00e9on's footsteps.", "poster_path": "/gE8S02QUOhVnAmYu4tcrBlMTujz.jpg", "popularity": 42.005}, {"id": 83542, "video": false, "vote_count": 4860, "vote_average": 6.8, "title": "Cloud Atlas", "release_date": "2012-10-26", "original_language": "en", "original_title": "Cloud Atlas", "genre_ids": [18, 878], "backdrop_path": "/2ZA03KiD4jePTNBTJjGGFTNQPMA.jpg", "adult": false, "overview": "A set of six nested stories spanning time between the 19th century and a distant post-apocalyptic future. Cloud Atlas explores how the actions and consequences of individual lives impact one another throughout the past, the present and the future. Action, mystery and romance weave through the story as one soul is shaped from a killer into a hero and a single act of kindness ripples across centuries to inspire a revolution in the distant future.  Based on the award winning novel by David Mitchell. Directed by Tom Tykwer and the Wachowskis.", "poster_path": "/8VNiyIp67ZxhpNgdrwACW0jgvP2.jpg", "popularity": 16.718}, {"adult": false, "backdrop_path": "/s12HEmmkJfI2mjltI61hGm5kubD.jpg", "genre_ids": [35, 18, 10749], "id": 20770, "original_language": "en", "original_title": "But I'm a Cheerleader", "overview": "Megan is an all-American girl. A cheerleader. She has a boyfriend. But Megan doesn't like kissing her boyfriend very much. And she's pretty touchy with her cheerleader friends. Her conservative parents worry that she must be a lesbian and send her off to \"sexual redirection\" school, where she must, with other lesbians and gays learn how to be straight.", "poster_path": "/eDGH7CHSdkrYcuUJV1e0WS9DlQL.jpg", "release_date": "1999-12-09", "title": "But I'm a Cheerleader", "video": false, "vote_average": 6.8, "vote_count": 246, "popularity": 10.067}, {"id": 4638, "video": false, "vote_count": 4426, "vote_average": 7.5, "title": "Hot Fuzz", "release_date": "2007-02-14", "original_language": "en", "original_title": "Hot Fuzz", "genre_ids": [28, 35, 80], "backdrop_path": "/zuskekrfW3gj9ttXNVhfdHe5n22.jpg", "adult": false, "overview": "As a former London constable, Nicholas Angel finds it difficult to adapt to his new assignment in the sleepy British village of Sandford. Not only does he miss the excitement of the big city, but he also has a well-meaning oaf for a partner. However, when a series of grisly accidents rocks Sandford, Angel smells something rotten in the idyllic village.", "poster_path": "/5Jx6s6VXnunh8wCLgR0YgjwSgjh.jpg", "popularity": 25.234}, {"id": 298312, "video": false, "vote_count": 2921, "vote_average": 6.2, "title": "The Visit", "release_date": "2015-09-10", "original_language": "en", "original_title": "The Visit", "genre_ids": [27, 9648, 53], "backdrop_path": "/gbJlEeALVGo7kx8bC2q4EFWX1Xy.jpg", "adult": false, "overview": "The terrifying story of a brother and sister who are sent to their grandparents' remote Pennsylvania farm for a weeklong trip. Once the children discover that the elderly couple is involved in something deeply disturbing, they see their chances of getting back home are growing smaller every day.", "poster_path": "/32tNtTEQ1vIOLm1hEOSFkVwJT5D.jpg", "popularity": 20.148}, {"adult": false, "backdrop_path": "/9e5e7dJTMxQeF7zNx0CiJmxXE1I.jpg", "genre_ids": [27, 878, 53], "id": 11309, "original_language": "en", "original_title": "Hardware", "overview": "Mark 13 is a government-built killing machine programmed with artificial intelligence, able to repair and recharge itself from any energy source. Through a series of coincidences, the cyborg's head ends up in the home of a sculptress as a bizarre Christmas present from her boyfriend. Once inside its new home, the cyborg promptly reconstructs the rest of its body using a variety of household utensils and proceeds to go on a murderous rampage.", "poster_path": "/nsFm5xniViTVr1oVUpKmgvlAOEA.jpg", "release_date": "1990-09-14", "title": "Hardware", "video": false, "vote_average": 5.7, "vote_count": 145, "popularity": 11.259}, {"id": 317744, "video": false, "vote_count": 244, "vote_average": 6.0, "title": "Careful What You Wish For", "release_date": "2015-05-06", "original_language": "en", "original_title": "Careful What You Wish For", "genre_ids": [18, 53], "backdrop_path": "/7PAQ85UXQ9IhZ5ZJIC1uC0h6PZK.jpg", "adult": false, "overview": "A guy gets more than he bargained for after entering into an affair with the wife of an investment banker. Soon, a suspicious death and substantial life insurance policy embroil him in a scandal.", "poster_path": "/hQCLtJaGcEWLp7zKECnC3cy8W4i.jpg", "popularity": 13.897}, {"adult": false, "backdrop_path": "/lcB6jRNms95ySvVTCaH8pdFJq4j.jpg", "genre_ids": [80, 18, 53], "id": 22323, "original_language": "en", "original_title": "The Boys Next Door", "overview": "Roy and Bo leave their small town the weekend after graduation for a short road trip to LA. Soon, they find themselves lashing out and leaving a trial of bodies behind them. The violence escalates throughout.", "poster_path": "/pnLU9z0fLIzIRa35ULIvlQAAwho.jpg", "release_date": "1985-10-01", "title": "The Boys Next Door", "video": false, "vote_average": 6.3, "vote_count": 28, "popularity": 5.945}, {"id": 185, "video": false, "vote_count": 7609, "vote_average": 8.2, "title": "A Clockwork Orange", "release_date": "1971-12-18", "original_language": "en", "original_title": "A Clockwork Orange", "genre_ids": [18, 878], "backdrop_path": "/unMc1jEyqCnzba976GviSFKGagt.jpg", "adult": false, "overview": "In a near-future Britain, young Alexander DeLarge and his pals get their kicks beating and raping anyone they please. When not destroying the lives of others, Alex swoons to the music of Beethoven. The state, eager to crack down on juvenile crime, gives an incarcerated Alex the option to undergo an invasive procedure that'll rob him of all personal agency. In a time when conscience is a commodity, can Alex change his tune?", "poster_path": "/4sHeTAp65WrSSuc05nRBKddhBxO.jpg", "popularity": 24.413}, {"adult": false, "backdrop_path": "/20IgqkdFw5kuItqDCJtidSESP0t.jpg", "genre_ids": [27, 18], "id": 10066, "original_language": "en", "original_title": "House of Wax", "overview": "A group of unwitting teens are stranded near a strange wax museum and soon must fight to survive and keep from becoming the next exhibit.", "poster_path": "/uM1RebQywM5PPYsauayefpXGxVk.jpg", "release_date": "2005-04-30", "title": "House of Wax", "video": false, "vote_average": 5.7, "vote_count": 1531, "popularity": 21.972}, {"adult": false, "backdrop_path": "/caLMOD3ZJ3V7qjlxDXrzlJfBLgD.jpg", "genre_ids": [18, 10749], "id": 20, "original_language": "en", "original_title": "My Life Without Me", "overview": "A Pedro Almodovar production in which a fatally ill mother with only two months to live creates a list of things she wants to do before she dies with out telling her family of her illness.", "poster_path": "/vVj92VBFUBzjqzLvBiPVVlJDp78.jpg", "release_date": "2003-03-07", "title": "My Life Without Me", "video": false, "vote_average": 6.1, "vote_count": 220, "popularity": 9.208}, {"id": 9813, "video": false, "vote_count": 128, "vote_average": 6.1, "title": "The Quiet", "release_date": "2005-09-12", "original_language": "en", "original_title": "The Quiet", "genre_ids": [18, 53], "backdrop_path": "/6eyWAZA4CEidZW1xXnQ4vlYBXTP.jpg", "adult": false, "overview": "After her widowed father dies, deaf teenager Dot moves in with her godparents, Olivia and Paul Deer. The Deers' daughter, Nina, is openly hostile to Dot, but that does not prevent her from telling her secrets to her silent stepsister, including the fact that she wants to kill her lecherous father.", "poster_path": "/GEqIE9YlmygHVUfS64LW2cwAAM.jpg", "popularity": 13.948}, {"adult": false, "backdrop_path": "/8nvayG5l0urcjvvpszoECDqLWzD.jpg", "genre_ids": [18, 53, 80, 9648], "id": 186, "original_language": "en", "original_title": "Lucky Number Slevin", "overview": "Slevin is mistakenly put in the middle of a personal war between the city\u2019s biggest criminal bosses. Under constant watch, Slevin must try not to get killed by an infamous assassin and come up with an idea of how to get out of his current dilemma. A film with many twists and turns.", "poster_path": "/jtKq0EtothAzWlnRBBWGCA8uFuu.jpg", "release_date": "2006-02-24", "title": "Lucky Number Slevin", "video": false, "vote_average": 7.5, "vote_count": 2480, "popularity": 17.523}, {"id": 521, "video": false, "vote_count": 1257, "vote_average": 8.0, "title": "Dial M for Murder", "release_date": "1954-05-29", "original_language": "en", "original_title": "Dial M for Murder", "genre_ids": [80, 18, 9648, 53], "backdrop_path": "/jVMlfESb0TJ29w8CUDDofEprMmn.jpg", "adult": false, "overview": "An ex-tennis pro carries out a plot to have his wife murdered after discovering she is having an affair, and assumes she will soon leave him for the other man anyway. When things go wrong, he improvises a new plan\u2014to frame her for murder instead.", "poster_path": "/xrpK1PyckNWmRxU4kZURfaCyboS.jpg", "popularity": 34.566}, {"id": 205596, "video": false, "vote_count": 11343, "vote_average": 8.1, "title": "The Imitation Game", "release_date": "2014-11-14", "original_language": "en", "original_title": "The Imitation Game", "genre_ids": [18, 36, 53, 10752], "backdrop_path": "/qcb6z1HpokTOKdjqDTsnjJk0Xvg.jpg", "adult": false, "overview": "Based on the real life story of legendary cryptanalyst Alan Turing, the film portrays the nail-biting race against time by Turing and his brilliant team of code-breakers at Britain's top-secret Government Code and Cypher School at Bletchley Park, during the darkest days of World War II.", "poster_path": "/noUp0XOqIcmgefRnRZa1nhtRvWO.jpg", "popularity": 40.743}, {"id": 75780, "video": false, "vote_count": 4450, "vote_average": 6.4, "title": "Jack Reacher", "release_date": "2012-12-20", "original_language": "en", "original_title": "Jack Reacher", "genre_ids": [28, 80, 18, 53], "backdrop_path": "/ezXodpP429qK0Av89pVNlaXWJkQ.jpg", "adult": false, "overview": "When a gunman takes five lives with six shots, all evidence points to the suspect in custody. On interrogation, the suspect offers up a single note: \"Get Jack Reacher!\" So begins an extraordinary chase for the truth, pitting Jack Reacher against an unexpected enemy, with a skill for violence and a secret to keep.", "poster_path": "/mt0ELw83HIRgaKaDzhsDcIi0RnW.jpg", "popularity": 19.929}, {"adult": false, "backdrop_path": "/kiWvoV78Cc3fUwkOHKzyBgVdrDD.jpg", "genre_ids": [37, 18, 12], "id": 281957, "original_language": "en", "original_title": "The Revenant", "overview": "In the 1820s, a frontiersman, Hugh Glass, sets out on a path of vengeance against those who left him for dead after a bear mauling.", "poster_path": "/oXUWEc5i3wYyFnL1Ycu8ppxxPvs.jpg", "release_date": "2015-12-25", "title": "The Revenant", "video": false, "vote_average": 7.5, "vote_count": 12122, "popularity": 30.491}], "total_pages": 1097, "total_results": 21925}, "recommendations": {"page": 1, "results": [{"adult": false, "backdrop_path": "/wCnBxGgvFSXgRBBkx0uO18DcxA1.jpg", "genre_ids": [18], "id": 84201, "original_language": "en", "original_title": "For Ellen", "overview": "After an overnight long-distance drive, Joby has a special meeting\u2014with lawyers and his ex-wife. A struggling musician with the prerequisite tattoos, slimy hair, goatee, and his head firmly floating in the clouds, Joby hasn\u2019t been around to be a dad. Now is his last chance to fight for shared custody of his daughter, Ellen.", "poster_path": "/e90D2CALahc3sOzf8wHjsyFQ8ck.jpg", "release_date": "2012-02-12", "title": "For Ellen", "video": false, "vote_average": 5.6, "vote_count": 18, "popularity": 4.675}, {"adult": false, "backdrop_path": "/aazpkm4VZ6yoZJIDA8NoWrbzy6v.jpg", "genre_ids": [9648, 53, 27], "id": 79067, "original_language": "en", "original_title": "Lost Place", "overview": "While on a GPS treasure hunt in the Palatinate forest four teenagers come across an old US military radio tower station. Back in the days of the Cold War it was part of a secret military program that produced horrific side effects, but has long since abandoned. Until now, when the station is mysteriously powered up again.", "poster_path": "/2bueQHOVBB8gsT6ropKeTRdBJ62.jpg", "release_date": "2013-09-19", "title": "Lost Place", "video": false, "vote_average": 4.1, "vote_count": 10, "popularity": 2.552}, {"adult": false, "backdrop_path": "/aZE7N3v6yVzZj3v4GkOCuFM0yPh.jpg", "genre_ids": [27, 9648, 14, 28], "id": 42916, "original_language": "en", "original_title": "Fading of the Cries", "overview": "Jacob, a young man armed with a deadly sword, saves Sarah, a teenage girl, from Mathias, a malevolent evil that has begun plaguing a small farmland town while in search of an ancient necklace that had belonged to Sarahs Uncle. Jacob sets out to get Sarah home safely, running through streets, fields, churches and underground tunnels, while being pursued by hordes of demonic creatures. Along the way, both come to terms with the demons within themselves - Sarah begins to understand her hatred towards her mother and sister may be unjustified and Jacob discovers the secrets of his past, realizing the only way to truly defeat the demons is to return to the very place his family was murdered.", "poster_path": "/vKAlseKbqIRrLoozolNdpXJNtoo.jpg", "release_date": "2011-07-08", "title": "Fading of the Cries", "video": false, "vote_average": 3.4, "vote_count": 15, "popularity": 4.102}, {"adult": false, "backdrop_path": "/aPADQfLsf7l2ZLO1MB9Tl1GoFVz.jpg", "genre_ids": [28, 27], "id": 88379, "original_language": "en", "original_title": "Osombie", "overview": "Osama bin Laden returns from his watery grave and creates an army of zombie insurgents.", "poster_path": "/1TQrM2vRCZdwsBmjsZbEAyujafu.jpg", "release_date": "2012-01-01", "title": "Osombie", "video": false, "vote_average": 4.4, "vote_count": 23, "popularity": 5.05}, {"adult": false, "backdrop_path": "/kYQgqhn5ezbAGCegs749VV7K6Vl.jpg", "genre_ids": [878, 28, 27], "id": 41373, "original_language": "ja", "original_title": "\u30a2\u30b5\u30eb\u30c8\u30ac\u30fc\u30eb\u30ba", "overview": "Three women and one man - with an assortment of weaponry - wage war against giant mutant sandwhales in a barren digital landscape, all to achieve points within the virtual reality video game called Avalon.", "poster_path": "/muKrgX2oNqLEkTo7r3Qm4a2LeOW.jpg", "release_date": "2009-12-19", "title": "Assault Girls", "video": false, "vote_average": 5.3, "vote_count": 20, "popularity": 6.563}, {"adult": false, "backdrop_path": "/9qaYvMxU2xSZaBC3x1N4YgAg7Tc.jpg", "genre_ids": [53, 27], "id": 107315, "original_language": "en", "original_title": "Below Zero", "overview": "When Jack (Edward Furlong) is in danger of missing a deadline, his manager orders him to take whatever measures are needed to complete his screenplay. Jack locks himself in a slaughterhouse freezer but discovers that his inner demons are keeping him company. Despite the cold, Jack's imagination is red-hot as he concocts the story of Frank (Furlong), a tow truck driver who's locked in a fridge with the dying victim of a serial killer.", "poster_path": "/2pg6dHikWmQcU82QkdJqhV6IBQ1.jpg", "release_date": "2011-10-22", "title": "Below Zero", "video": false, "vote_average": 5.3, "vote_count": 18, "popularity": 3.446}, {"id": 51245, "video": false, "vote_count": 18, "vote_average": 6.0, "title": "Inseparable", "release_date": "2011-10-08", "original_language": "zh", "original_title": "\u5f62\u5f71\u4e0d\u79bb", "genre_ids": [35, 18, 53], "backdrop_path": "/gxHNmNRjWygoEYyJDotCNrBA0bB.jpg", "adult": false, "overview": "A troubled young man, Li faces pressure at work and problems at home with his moody wife. Chuck, rescues Li from the brink of despair and becomes an unlikely mentor. But who is Chuck really?", "poster_path": "/jRnbtHX736Kz0x6T7YcdDUaafJG.jpg", "popularity": 6.964}, {"id": 64687, "video": false, "vote_count": 24, "vote_average": 3.4, "title": "Iron Invader", "release_date": "2011-02-12", "original_language": "en", "original_title": "Iron Invader", "genre_ids": [28, 14, 878, 10770], "backdrop_path": "/sqZ0eJjvuc51nHlHKH68Z4As4Q.jpg", "adult": false, "overview": "A local artist uses the wreckage of a crashed Russian satellite in his giant sculpture for the town's centennial celebration. But soon a mysterious alien substance brings the giant sculpture to life; creating an iron monster whose only instinct is to survive at any cost.", "poster_path": "/gRqy6PbtSmlq5hZNUzCeDKGgAvt.jpg", "popularity": 6.654}], "total_pages": 1, "total_results": 8}, "credits": {"cast": [{"cast_id": 1, "character": "Sean", "credit_id": "52fe47db9251416c750a7ca7", "gender": 2, "id": 55464, "name": "Kelly Blatz", "order": 0, "profile_path": "/x54SeTJVYwm3RxkesIMpPGW0DTg.jpg"}, {"cast_id": 2, "character": "Jason", "credit_id": "52fe47db9251416c750a7cab", "gender": 2, "id": 57675, "name": "Daryl Sabara", "order": 1, "profile_path": "/nc7a3w7Rpj763AvD9IseKewbfi7.jpg"}, {"cast_id": 8, "character": "Vicki", "credit_id": "52fe47db9251416c750a7cc9", "gender": 1, "id": 93377, "name": "Janel Parrish", "order": 2, "profile_path": "/n0a9h319zcUsZdc0Dt77PQpnVzO.jpg"}, {"cast_id": 9, "character": "April", "credit_id": "52fe47db9251416c750a7ccd", "gender": 1, "id": 202946, "name": "Ellen Woglom", "order": 3, "profile_path": "/cjo0jKjkPehl7TDLGeZULJxv3kb.jpg"}, {"cast_id": 10, "character": "Sally", "credit_id": "52fe47db9251416c750a7cd1", "gender": 1, "id": 7796, "name": "Illeana Douglas", "order": 4, "profile_path": "/iwioN2tbwp8DrM8SkRds8Bx1L9N.jpg"}, {"cast_id": 11, "character": "Mr. Blackwell", "credit_id": "52fe47db9251416c750a7cd5", "gender": 2, "id": 74036, "name": "Tom Arnold", "order": 5, "profile_path": "/z2ajL1ozVCS4Ug04zOGCNH06OPP.jpg"}, {"cast_id": 14, "character": "Nick", "credit_id": "5bf7c4d10e0a264cfc00c726", "gender": 0, "id": 1065265, "name": "Sean Durrie", "order": 6, "profile_path": "/8wk6sKzxDmwq2jk5xc5As31Kt9V.jpg"}, {"cast_id": 15, "character": "Jessica", "credit_id": "5bf7c4e20e0a264320052fed", "gender": 1, "id": 93894, "name": "Rachel Lien", "order": 7, "profile_path": "/8E7fF6I5TardgwbX6f4mKifhf2C.jpg"}, {"cast_id": 16, "character": "Jonathan", "credit_id": "5bf7c54dc3a368219300b49e", "gender": 2, "id": 223923, "name": "Bryan McClure", "order": 8, "profile_path": "/rb9jyLqs94yPRpVvhhiJrQXppA4.jpg"}, {"cast_id": 17, "character": "Helen Mann", "credit_id": "5bf7c5a1c3a36863750836b6", "gender": 1, "id": 2181064, "name": "Brenda O'Brien", "order": 9, "profile_path": "/lDdSglWti4LYuxT3otOyD1cS3IE.jpg"}, {"cast_id": 18, "character": "Samantha", "credit_id": "5bf7c62f0e0a261ac207bdb4", "gender": 1, "id": 1347705, "name": "Nina Rausch", "order": 10, "profile_path": "/fI3gmK1n2UokmRzyNl8sGeJCNFW.jpg"}, {"cast_id": 20, "character": "Ben", "credit_id": "5bf7c6b7c3a36818aa0eb1a9", "gender": 2, "id": 1772163, "name": "Ben Chrystak", "order": 11, "profile_path": "/hC3i0NAQ7X1hKpvIA1EIp3csNJr.jpg"}, {"cast_id": 21, "character": "Mike", "credit_id": "5bf7c9e1c3a368189f0f75e3", "gender": 2, "id": 2181074, "name": "William Grennan", "order": 12, "profile_path": "/eJNkCO3JJVcybpDSVn7XwMk1kpB.jpg"}, {"cast_id": 26, "character": "Sylvia", "credit_id": "5bf7cfbc0e0a264cfc00d953", "gender": 1, "id": 56732, "name": "Fernanda Romero", "order": 13, "profile_path": "/s9Diy8zLaMpJhhfRDIugY8rq6I0.jpg"}, {"cast_id": 23, "character": "Sean's Father", "credit_id": "5bf7cc339251412f3507b1b6", "gender": 2, "id": 119893, "name": "Mark Arnold", "order": 14, "profile_path": "/dTfoxBUC6jpZry0ijlS8g4Y5cuS.jpg"}, {"cast_id": 24, "character": "Sean's Mother", "credit_id": "5bf7cf380e0a26265c0f652b", "gender": 1, "id": 2181090, "name": "Bonnie Pfrenger", "order": 15, "profile_path": "/eJtPAHasaykP6MT1BAmZklvbOEI.jpg"}, {"cast_id": 22, "character": "Chris", "credit_id": "5bf7ca469251415cd10e45ca", "gender": 0, "id": 2181075, "name": "Jacob Highland", "order": 16, "profile_path": null}, {"cast_id": 6, "character": "Funeral Friend 1", "credit_id": "52fe47db9251416c750a7cc1", "gender": 0, "id": 1207971, "name": "Anna Adams", "order": 17, "profile_path": null}, {"cast_id": 19, "character": "Funeral Friend 2", "credit_id": "5bf7c66ec3a36818a50e9018", "gender": 0, "id": 2181067, "name": "Michael Lawson Jr.", "order": 18, "profile_path": null}, {"cast_id": 7, "character": "Reporter", "credit_id": "52fe47db9251416c750a7cc5", "gender": 0, "id": 1207972, "name": "Dominic Arellano", "order": 19, "profile_path": null}, {"cast_id": 25, "character": "Relief Worker", "credit_id": "5bf7cf920e0a26265c0f6581", "gender": 1, "id": 465436, "name": "April Wade", "order": 20, "profile_path": "/pJBUzLUHkTYwc63luiCvgCl9tB3.jpg"}, {"cast_id": 27, "character": "Otto Green", "credit_id": "5bf7d0609251415cc40dc3d9", "gender": 0, "id": 2181098, "name": "Ben Severson", "order": 21, "profile_path": "/1t2IQstSlsYrAyY7WT1JZriPlD5.jpg"}], "crew": [{"credit_id": "52fe47db9251416c750a7cb1", "department": "Directing", "gender": 0, "id": 1207968, "job": "Director", "name": "Andrew Robinson", "profile_path": null}, {"credit_id": "52fe47db9251416c750a7cb7", "department": "Sound", "gender": 0, "id": 1207969, "job": "Original Music Composer", "name": "Dominik Rausch", "profile_path": null}, {"credit_id": "52fe47db9251416c750a7cbd", "department": "Crew", "gender": 0, "id": 1207970, "job": "Cinematography", "name": "Yoshi Carroll", "profile_path": null}, {"credit_id": "55d0ea97c3a3681bf90089f6", "department": "Writing", "gender": 2, "id": 14782, "job": "Writer", "name": "Andrew Robinson", "profile_path": "/o5OPpqs5i6vfH3yy6LdAgA7A2hQ.jpg"}, {"credit_id": "58bfe946c3a3686938005dcc", "department": "Visual Effects", "gender": 0, "id": 1772182, "job": "Digital Compositors", "name": "Jacob Berggren", "profile_path": null}]}}