{"adult": false, "backdrop_path": null, "belongs_to_collection": null, "budget": 0, "genres": [{"id": 99, "name": "Documentary"}], "homepage": null, "id": 195178, "imdb_id": "tt0229753", "original_language": "en", "original_title": "A Street Arab", "overview": "A preadolescent boy, dressed like a street urchin, performs acrobatic stunts for the camera.", "popularity": 0.994, "poster_path": "/8BhCY0xxiOtGTR4wOqyUjYensyF.jpg", "production_companies": [{"id": 18758, "logo_path": "/fe3cMUJLhbkTM9PDxdDA8hQpAxp.png", "name": "Edison Manufacturing Company", "origin_country": "US"}], "production_countries": [{"iso_3166_1": "US", "name": "United States of America"}], "release_date": "1898-05-20", "revenue": 0, "runtime": 1, "spoken_languages": [{"iso_639_1": "xx", "name": "No Language"}], "status": "Released", "tagline": "", "title": "A Street Arab", "video": false, "vote_average": 5.7, "vote_count": 3, "keywords": {"keywords": [{"id": 154802, "name": "silent film"}, {"id": 208774, "name": "acrobats"}]}, "similar": {"page": 1, "results": [{"id": 901, "video": false, "vote_count": 1026, "vote_average": 8.4, "title": "City Lights", "release_date": "1931-02-01", "original_language": "xx", "original_title": "City Lights", "genre_ids": [35, 18, 10749], "backdrop_path": "/vT6ux2rdyg2kexuLisO5Ygz7pHg.jpg", "adult": false, "overview": "City Lights is the first silent film that Charlie Chaplin directed after he established himself with sound accompanied films. The film is about a penniless man who falls in love with a flower girl.", "poster_path": "/bXNvzjULc9jrOVhGfjcc64uKZmZ.jpg", "popularity": 14.645}, {"adult": false, "backdrop_path": "/wcT7srQ4GeeMqlszMFEtPZ7v8T7.jpg", "genre_ids": [35, 10749], "id": 28978, "original_language": "en", "original_title": "The Circus", "overview": "Charlie, a wandering tramp, becomes a circus handyman and falls in love with the circus owner's daughter. Unaware of Charlie's affection, the girl falls in love with a handsome young performer. Charlie's versatility makes him star of the show when he substitutes for an ailing tightwire walker. He is discharged from the company when he protects the girl from her father's abuse, but he returns and appeals to the handsome performer to marry the girl. After the wedding the father prevails upon them to rejoin the circus. Charlie is hired again, but he stays behind when the caravan moves on.", "poster_path": "/awTf4Y6TGvgi3VYtGNINyyJJy9Q.jpg", "release_date": "1928-01-06", "title": "The Circus", "video": false, "vote_average": 8.2, "vote_count": 330, "popularity": 12.839}, {"id": 621733, "video": false, "vote_count": 0, "vote_average": 0.0, "title": "A Trip to the Seaside", "release_date": "2019-08-30", "original_language": "en", "original_title": "A Trip to the Seaside", "genre_ids": [99], "backdrop_path": null, "adult": false, "overview": "Experimental short film on the excitement and rush of a day trip", "poster_path": "/AuZVhpoJ4jm2LWDhoJKfxQfhDAi.jpg", "popularity": 1.324}, {"adult": false, "backdrop_path": "/twGxeStlGooWV3gP6ZIcSNuQ6jf.jpg", "genre_ids": [12, 16, 10751, 14], "id": 81684, "original_language": "en", "original_title": "The Gruffalo's Child", "overview": "A follow up to the 2009 animated feature and adapted from the childrens' book by Julia Donaldson and Alex Scheffler.  The Gruffalo's child explores the deep dark wood in search of the big bad mouse and meets the Snake, Owl and Fox in the process.  She eventually finds the mouse, who manages to outwit her like the Gruffalo before!", "poster_path": "/qaGH2AoaLvoGXURQtNzj1nw6oZd.jpg", "release_date": "2011-12-25", "title": "The Gruffalo's Child", "video": false, "vote_average": 6.9, "vote_count": 73, "popularity": 9.51}, {"adult": false, "backdrop_path": null, "genre_ids": [], "id": 616262, "original_language": "ar", "original_title": "All Come From Dust", "overview": "A loop of edgeless bend. You were its doom, he was its bloom. You were its tomb, he was its womb. You were its gloom, he was its loom. For Heaven and Hell, were words made of fume.", "poster_path": null, "release_date": "2019-08-13", "title": "All Come From Dust", "video": false, "vote_average": 5.0, "vote_count": 1, "popularity": 0.6}, {"id": 240832, "video": false, "vote_count": 10811, "vote_average": 6.3, "title": "Lucy", "release_date": "2014-07-25", "original_language": "en", "original_title": "Lucy", "genre_ids": [28, 878], "backdrop_path": "/eCgIoGvfNXrbSiQGqQHccuHjQHm.jpg", "adult": false, "overview": "A woman, accidentally caught in a dark deal, turns the tables on her captors and transforms into a merciless warrior evolved beyond human logic.", "poster_path": "/rwn876MeqienhOVSSjtUPnwxn0Z.jpg", "popularity": 26.958}, {"id": 828, "video": false, "vote_count": 557, "vote_average": 7.5, "title": "The Day the Earth Stood Still", "release_date": "1951-09-17", "original_language": "en", "original_title": "The Day the Earth Stood Still", "genre_ids": [878], "backdrop_path": "/uExEupzfV7Ffau0H98aefUU0zcG.jpg", "adult": false, "overview": "An alien and a robot land on earth after World War II and tell mankind to be peaceful or face destruction. A classic science fiction film from Robert Wise with an exceptional message.", "poster_path": "/x2DquTpLTq54aPFDnqlwY7apCC3.jpg", "popularity": 30.427}, {"id": 75612, "video": false, "vote_count": 7401, "vote_average": 6.5, "title": "Oblivion", "release_date": "2013-04-10", "original_language": "en", "original_title": "Oblivion", "genre_ids": [28, 12, 9648, 878], "backdrop_path": "/8TE77jL2e4zdERpv8hnBAHUmFRx.jpg", "adult": false, "overview": "Jack Harper is one of the last few drone repairmen stationed on Earth.  Part of a massive operation to extract vital resources after decades of war with a terrifying threat known as the Scavs, Jack\u2019s mission is nearly complete.  His existence is brought crashing down when he rescues a beautiful  stranger from a downed spacecraft.  Her arrival triggers a chain of events that  forces him to question everything he knows and puts the fate of humanity in his hands.", "poster_path": "/hmOzkHlkGvi8x24fYpFSnXvjklv.jpg", "popularity": 34.598}, {"id": 157336, "video": false, "vote_count": 20609, "vote_average": 8.3, "title": "Interstellar", "release_date": "2014-11-05", "original_language": "en", "original_title": "Interstellar", "genre_ids": [12, 18, 878], "backdrop_path": "/xu9zaAevzQ5nnrsXN6JcahLnG4i.jpg", "adult": false, "overview": "Interstellar chronicles the adventures of a group of explorers who make use of a newly discovered wormhole to surpass the limitations on human space travel and conquer the vast distances involved in an interstellar voyage.", "poster_path": "/nBNZadXqJSdt05SHLqgT0HuC5Gm.jpg", "popularity": 53.312}, {"id": 369972, "video": false, "vote_count": 3001, "vote_average": 7.1, "title": "First Man", "release_date": "2018-10-11", "original_language": "en", "original_title": "First Man", "genre_ids": [18, 36], "backdrop_path": "/jrudoaXcoLyHRPdolyOGemXgPEs.jpg", "adult": false, "overview": "A look at the life of the astronaut, Neil Armstrong, and the legendary space mission that led him to become the first man to walk on the Moon on July 20, 1969.", "poster_path": "/i91mfvFcPPlaegcbOyjGgiWfZzh.jpg", "popularity": 27.464}, {"adult": false, "backdrop_path": "/pc7a2qrIkIxzqWGqcexd3mHzIxy.jpg", "genre_ids": [28, 53, 12], "id": 56292, "original_language": "en", "original_title": "Mission: Impossible - Ghost Protocol", "overview": "Ethan Hunt and his team are racing against time to track down a dangerous terrorist named Hendricks, who has gained access to Russian nuclear launch codes and is planning a strike on the United States. An attempt to stop him ends in an explosion causing severe destruction to the Kremlin and the IMF to be implicated in the bombing, forcing the President to disavow them. No longer being aided by the government, Ethan and his team chase Hendricks around the globe, although they might still be too late to stop a disaster.", "poster_path": "/s58mMsgIVOFfoXPtwPWJ3hDYpXf.jpg", "release_date": "2011-12-07", "title": "Mission: Impossible - Ghost Protocol", "video": false, "vote_average": 7.0, "vote_count": 6591, "popularity": 29.242}, {"id": 158852, "video": false, "vote_count": 4945, "vote_average": 6.2, "title": "Tomorrowland", "release_date": "2015-05-19", "original_language": "en", "original_title": "Tomorrowland", "genre_ids": [12, 9648, 878, 10751], "backdrop_path": "/fQbc5XuB4vWA9gnY1CmyxFaOufF.jpg", "adult": false, "overview": "Bound by a shared destiny, a bright, optimistic teen bursting with scientific curiosity and a former boy-genius inventor jaded by disillusionment embark on a danger-filled mission to unearth the secrets of an enigmatic place somewhere in time and space that exists in their collective memory as \"Tomorrowland.\"", "poster_path": "/69Cz9VNQZy39fUE2g0Ggth6SBTM.jpg", "popularity": 39.867}, {"id": 271110, "video": false, "vote_count": 15271, "vote_average": 7.4, "title": "Captain America: Civil War", "release_date": "2016-04-27", "original_language": "en", "original_title": "Captain America: Civil War", "genre_ids": [28, 12, 878], "backdrop_path": "/m5O3SZvQ6EgD5XXXLPIP1wLppeW.jpg", "adult": false, "overview": "Following the events of Age of Ultron, the collective governments of the world pass an act designed to regulate all superhuman activity. This polarizes opinion amongst the Avengers, causing two factions to side with Iron Man or Captain America, which causes an epic battle between former allies.", "poster_path": "/kSBXou5Ac7vEqKd97wotJumyJvU.jpg", "popularity": 41.347}, {"id": 52520, "video": false, "vote_count": 2773, "vote_average": 6.2, "title": "Underworld: Awakening", "release_date": "2012-01-19", "original_language": "en", "original_title": "Underworld: Awakening", "genre_ids": [28, 14, 27], "backdrop_path": "/8iNsXY3LPsuT0gnUiTBMoNuRZI7.jpg", "adult": false, "overview": "Having escaped years of imprisonment, vampire warrioress Selene finds herself in a changed world where humans have discovered the existence of both Vampire and Lycan clans and are conducting an all-out war to eradicate both immortal species. Now Selene must battle the humans and a frightening new breed of super Lycans to ensure the death dealers' survival.", "poster_path": "/ayazc5fQ2YAw7vjaE1WGlJWtGX9.jpg", "popularity": 15.03}, {"id": 10258, "video": false, "vote_count": 148, "vote_average": 6.6, "title": "The Madagascar Penguins in a Christmas Caper", "release_date": "2005-09-23", "original_language": "en", "original_title": "The Madagascar Penguins in a Christmas Caper", "genre_ids": [16, 35, 10751], "backdrop_path": "/gdJ6j1hmt6dQgObWxDJAHUb58o6.jpg", "adult": false, "overview": "During the holiday season, when the animals of the Central Park Zoo are preparing for Christmas, Private, the youngest of the penguins notices that the Polar Bear is all alone. Assured that nobody should have to spend Christmas alone, Private goes into the city for some last-minute Christmas shopping. Along the way, he gets stuffed into a stocking", "poster_path": "/r8QtfGSjDaY6vICRVyYvZvTkjxc.jpg", "popularity": 13.032}, {"id": 10527, "video": false, "vote_count": 4220, "vote_average": 6.4, "title": "Madagascar: Escape 2 Africa", "release_date": "2008-10-30", "original_language": "en", "original_title": "Madagascar: Escape 2 Africa", "genre_ids": [16, 35, 10751], "backdrop_path": "/anxiz37Z9FPKeuCsJcxViSWmPxg.jpg", "adult": false, "overview": "Alex, Marty, and other zoo animals find a way to escape from Madagascar when the penguins reassemble a wrecked airplane. The precariously repaired craft stays airborne just long enough to make it to the African continent. There the New Yorkers encounter members of their own species for the first time. Africa proves to be a wild place, but Alex and company wonder if it is better than their Central Park home.", "poster_path": "/9mohxwknsHcwFBSAAhoQXwFV5zn.jpg", "popularity": 23.58}, {"id": 454992, "video": false, "vote_count": 1255, "vote_average": 6.4, "title": "The Spy Who Dumped Me", "release_date": "2018-08-02", "original_language": "en", "original_title": "The Spy Who Dumped Me", "genre_ids": [28, 35], "backdrop_path": "/3Ptt97kQLuJS37zwA4lkJAkr02m.jpg", "adult": false, "overview": "Audrey and Morgan, two thirty-year-old best friends in Los Angeles, are thrust unexpectedly into an international conspiracy when Audrey\u2019s ex-boyfriend shows up at their apartment with a team of deadly assassins on his trail.", "poster_path": "/tpPERI5i6yjT73jYWyZ9iWltQ9L.jpg", "popularity": 23.25}, {"id": 155, "video": false, "vote_count": 20760, "vote_average": 8.4, "title": "The Dark Knight", "release_date": "2008-07-16", "original_language": "en", "original_title": "The Dark Knight", "genre_ids": [28, 80, 18, 53], "backdrop_path": "/hqkIcbrOHL86UncnHIsHVcVmzue.jpg", "adult": false, "overview": "Batman raises the stakes in his war on crime. With the help of Lt. Jim Gordon and District Attorney Harvey Dent, Batman sets out to dismantle the remaining criminal organizations that plague the streets. The partnership proves to be effective, but they soon find themselves prey to a reign of chaos unleashed by a rising criminal mastermind known to the terrified citizens of Gotham as the Joker.", "poster_path": "/pKKvCaL1TPTVtbI6EeliyND3api.jpg", "popularity": 43.746}, {"id": 19, "video": false, "vote_count": 1340, "vote_average": 8.2, "title": "Metropolis", "release_date": "1927-01-10", "original_language": "de", "original_title": "Metropolis", "genre_ids": [18, 878], "backdrop_path": "/gmH0N0bdlYGN1EUr8U2cMQYyg78.jpg", "adult": false, "overview": "In a futuristic city sharply divided between the working class and the city planners, the son of the city's mastermind falls in love with a working class prophet who predicts the coming of a savior to mediate their differences.", "poster_path": "/qriaeUUwdmlgethK3aSAx68mG05.jpg", "popularity": 20.587}, {"id": 54138, "video": false, "vote_count": 6599, "vote_average": 7.3, "title": "Star Trek Into Darkness", "release_date": "2013-05-05", "original_language": "en", "original_title": "Star Trek Into Darkness", "genre_ids": [28, 12, 878], "backdrop_path": "/ns0IojuqJe24AHTxe8RVcWJUCDM.jpg", "adult": false, "overview": "When the crew of the Enterprise is called back home, they find an unstoppable force of terror from within their own organization has detonated the fleet and everything it stands for, leaving our world in a state of crisis.  With a personal score to settle, Captain Kirk leads a manhunt to a war-zone world to capture a one man weapon of mass destruction. As our heroes are propelled into an epic chess game of life and death, love will be challenged, friendships will be torn apart, and sacrifices must be made for the only family Kirk has left: his crew.", "poster_path": "/41mhrXASAW3sdn7LBWF49uCX0xi.jpg", "popularity": 22.476}], "total_pages": 831, "total_results": 16607}, "recommendations": {"page": 1, "results": [], "total_pages": 1, "total_results": 0}, "credits": {"cast": [], "crew": [{"credit_id": "52fe4d089251416c911084f1", "department": "Directing", "gender": 0, "id": 110348, "job": "Director", "name": "William Heise", "profile_path": "/e2J3I16996PA0QMSZJmFAD29Tmb.jpg"}]}}