{"adult": false, "backdrop_path": null, "belongs_to_collection": null, "budget": 0, "genres": [{"id": 35, "name": "Comedy"}, {"id": 28, "name": "Action"}, {"id": 10749, "name": "Romance"}], "homepage": null, "id": 195367, "imdb_id": "tt0211040", "original_language": "it", "original_title": "Tiffany Memorandum", "overview": "A journalist and  secretary get involved in espionage.", "popularity": 1.634, "poster_path": "/hp7dgh8MlOw26ek085EdrF0UHDg.jpg", "production_companies": [{"id": 1527, "logo_path": null, "name": "Les Productions Jacques Roitfeld", "origin_country": ""}, {"id": 22792, "logo_path": null, "name": "Fida Cinematografica", "origin_country": ""}], "production_countries": [{"iso_3166_1": "FR", "name": "France"}, {"iso_3166_1": "IT", "name": "Italy"}], "release_date": "1967-08-12", "revenue": 0, "runtime": 85, "spoken_languages": [{"iso_639_1": "it", "name": "Italiano"}], "status": "Released", "tagline": "", "title": "Tiffany Memorandum", "video": false, "vote_average": 4.5, "vote_count": 2, "keywords": {"keywords": [{"id": 470, "name": "spy"}]}, "similar": {"page": 1, "results": [{"id": 206647, "video": false, "vote_count": 7173, "vote_average": 6.4, "title": "Spectre", "release_date": "2015-10-26", "original_language": "en", "original_title": "Spectre", "genre_ids": [28, 12, 80], "backdrop_path": "/wVTYlkKPKrljJfugXN7UlLNjtuJ.jpg", "adult": false, "overview": "A cryptic message from Bond\u2019s past sends him on a trail to uncover a sinister organization. While M battles political forces to keep the secret service alive, Bond peels back the layers of deceit to reveal the terrible truth behind SPECTRE.", "poster_path": "/hE24GYddaxB9MVZl1CaiI86M3kp.jpg", "popularity": 36.838}, {"id": 660, "video": false, "vote_count": 1117, "vote_average": 6.7, "title": "Thunderball", "release_date": "1965-12-15", "original_language": "en", "original_title": "Thunderball", "genre_ids": [28, 12, 53], "backdrop_path": "/qd0jrqxFLCKkNruPuJ7zXuQRpKG.jpg", "adult": false, "overview": "A criminal organization has obtained two nuclear bombs and are asking for a 100 million pound ransom in the form of diamonds in seven days or they will use the weapons. The secret service sends James Bond to the Bahamas to once again save the world.", "poster_path": "/sASN1VnJxWosdzp4mH40P47Xhhz.jpg", "popularity": 22.632}, {"id": 36669, "video": false, "vote_count": 2045, "vote_average": 5.9, "title": "Die Another Day", "release_date": "2002-11-17", "original_language": "en", "original_title": "Die Another Day", "genre_ids": [28, 12, 53], "backdrop_path": "/3YQfmtpbiFCMHcXY3lJ7fGEcOL6.jpg", "adult": false, "overview": "Bond takes on a North Korean leader who undergoes DNA replacement procedures that allow him to assume different identities. American agent, Jinx Johnson assists Bond in his attempt to thwart the villain's plans to exploit a satellite that is powered by solar energy.", "poster_path": "/1iUZqUXS7x5FcGM5J0u01xuObWC.jpg", "popularity": 24.2}, {"id": 37724, "video": false, "vote_count": 11109, "vote_average": 7.1, "title": "Skyfall", "release_date": "2012-10-25", "original_language": "en", "original_title": "Skyfall", "genre_ids": [28, 12, 53], "backdrop_path": "/6bjRujKSnCVSrzC1qjmqfAyaiET.jpg", "adult": false, "overview": "When Bond's latest assignment goes gravely wrong and agents around the world are exposed, MI6 is attacked forcing M to relocate the agency. These events cause her authority and position to be challenged by Gareth Mallory, the new Chairman of the Intelligence and Security Committee. With MI6 now compromised from both inside and out, M is left with one ally she can trust: Bond. 007 takes to the shadows - aided only by field agent, Eve - following a trail to the mysterious Silva, whose lethal and hidden motives have yet to reveal themselves.", "poster_path": "/lQCkPLDxFONmgzrWLvq085v1g2d.jpg", "popularity": 34.013}, {"adult": false, "backdrop_path": "/tjQHn6xW5BiB1RJ3OZIPDzIOSkF.jpg", "genre_ids": [12, 28, 53], "id": 954, "original_language": "en", "original_title": "Mission: Impossible", "overview": "When Ethan Hunt, the leader of a crack espionage team whose perilous operation has gone awry with no explanation, discovers that a mole has penetrated the CIA, he's surprised to learn that he's the No. 1 suspect. To clear his name, Hunt now must ferret out the real double agent and, in the process, even the score.", "poster_path": "/1PVKS17pIBFsIhgFws2uagPDNLW.jpg", "release_date": "1996-05-22", "title": "Mission: Impossible", "video": false, "vote_average": 6.9, "vote_count": 5216, "popularity": 25.737}, {"id": 691, "video": false, "vote_count": 939, "vote_average": 6.7, "title": "The Spy Who Loved Me", "release_date": "1977-07-07", "original_language": "en", "original_title": "The Spy Who Loved Me", "genre_ids": [28, 12, 53], "backdrop_path": "/2tCAEhE2rPONBmUOs4W73AlBWYg.jpg", "adult": false, "overview": "Russian and British submarines with nuclear missiles on board both vanish from sight without a trace. England and Russia both blame each other as James Bond tries to solve the riddle of the disappearing ships. But the KGB also has an agent on the case.", "poster_path": "/vYMgDqQDpqHDhz3enGkwBmTs7p7.jpg", "popularity": 16.084}, {"adult": false, "backdrop_path": "/vHLsgsvLtFWDlhBigKDRsYIC1p6.jpg", "genre_ids": [28, 9648, 53], "id": 27576, "original_language": "en", "original_title": "Salt", "overview": "As a CIA officer, Evelyn Salt swore an oath to duty, honor and country. Her loyalty will be tested when a defector accuses her of being a Russian spy. Salt goes on the run, using all her skills and years of experience as a covert operative to elude capture. Salt's efforts to prove her innocence only serve to cast doubt on her motives, as the hunt to uncover the truth behind her identity continues and the question remains: \"Who is Salt?\"", "poster_path": "/956xMjH4sPoqimqoLOP6AI19mjm.jpg", "release_date": "2010-07-21", "title": "Salt", "video": false, "vote_average": 6.3, "vote_count": 3533, "popularity": 20.188}, {"adult": false, "backdrop_path": "/bqpGceqQuHbtnjEqUG9acSYIVIh.jpg", "genre_ids": [18, 53, 9648], "id": 49517, "original_language": "en", "original_title": "Tinker Tailor Soldier Spy", "overview": "In the bleak days of the Cold War, espionage veteran George Smiley is forced from semi-retirement to uncover a Soviet mole within his former colleagues at the heart of MI6.", "poster_path": "/2N3P730TYXEcNL0BO8WBuMc6yJz.jpg", "release_date": "2011-09-16", "title": "Tinker Tailor Soldier Spy", "video": false, "vote_average": 6.7, "vote_count": 1545, "popularity": 18.392}, {"id": 341013, "video": false, "vote_count": 4061, "vote_average": 6.3, "title": "Atomic Blonde", "release_date": "2017-07-26", "original_language": "en", "original_title": "Atomic Blonde", "genre_ids": [28, 9648, 53], "backdrop_path": "/g3hni0i9iAQ13jDGOFWavJFlojc.jpg", "adult": false, "overview": "An undercover MI6 agent is sent to Berlin during the Cold War to investigate the murder of a fellow agent and recover a missing list of double agents.", "poster_path": "/kV9R5h0Yct1kR8Hf8sJ1nX0Vz4x.jpg", "popularity": 31.297}, {"id": 238713, "video": false, "vote_count": 4195, "vote_average": 6.8, "title": "Spy", "release_date": "2015-05-06", "original_language": "en", "original_title": "Spy", "genre_ids": [28, 35, 80], "backdrop_path": "/x5F6AIyqCjRMwqmF8NR98kU4VzH.jpg", "adult": false, "overview": "A desk-bound CIA analyst volunteers to go undercover to infiltrate the world of a deadly arms dealer, and prevent diabolical global disaster.", "poster_path": "/gCBw0AQDhlo0bNetkjsSRWzrxpW.jpg", "popularity": 17.209}, {"adult": false, "backdrop_path": "/oS1Ck6sbBnIReyactTdFlFF2Wkh.jpg", "genre_ids": [35, 28, 12], "id": 203801, "original_language": "en", "original_title": "The Man from U.N.C.L.E.", "overview": "At the height of the Cold War, a mysterious criminal organization plans to use nuclear weapons and technology to upset the fragile balance of power between the United States and Soviet Union. CIA agent Napoleon Solo and KGB agent Illya Kuryakin are forced to put aside their hostilities and work together to stop the evildoers in their tracks. The duo's only lead is the daughter of a missing German scientist, whom they must find soon to prevent a global catastrophe.", "poster_path": "/i9P3FU8z2Sd7jYRx6l1Iby0zP0o.jpg", "release_date": "2015-08-13", "title": "The Man from U.N.C.L.E.", "video": false, "vote_average": 7.1, "vote_count": 3842, "popularity": 21.895}, {"id": 681, "video": false, "vote_count": 1040, "vote_average": 6.4, "title": "Diamonds Are Forever", "release_date": "1971-12-13", "original_language": "en", "original_title": "Diamonds Are Forever", "genre_ids": [28, 12, 53], "backdrop_path": "/gIGLXXvsljHK1jdDNaIXsjhZnnH.jpg", "adult": false, "overview": "Diamonds are stolen only to be sold again in the international market. James Bond infiltrates a smuggling mission to find out who\u2019s guilty. The mission takes him to Las Vegas where Bond meets his archenemy Blofeld.", "poster_path": "/viPjZ3JCOahcfNCcVhiPExusJoZ.jpg", "popularity": 18.532}, {"id": 36670, "video": false, "vote_count": 696, "vote_average": 6.1, "title": "Never Say Never Again", "release_date": "1983-10-07", "original_language": "en", "original_title": "Never Say Never Again", "genre_ids": [28, 12, 53], "backdrop_path": "/jYO08KXUKvJvzx3KcE7MoaDYvoM.jpg", "adult": false, "overview": "James Bond returns as the secret agent 007 one more time to battle the evil organization SPECTRE. Bond must defeat Largo, who has stolen two atomic warheads for nuclear blackmail. But Bond has an ally in Largo's girlfriend, the willowy Domino, who falls for Bond and seeks revenge. This is the last time for Sean Connery as Her Majesty's Secret Agent 007. Made outside of the traditional Broccoli production environment due to separate rights having been obtained for this specific Ian Fleming story.", "poster_path": "/s9tBlhTEW0OtYJdemVMPbRcD7wk.jpg", "popularity": 23.883}, {"id": 10764, "video": false, "vote_count": 4876, "vote_average": 6.2, "title": "Quantum of Solace", "release_date": "2008-10-30", "original_language": "en", "original_title": "Quantum of Solace", "genre_ids": [28, 12, 80, 53], "backdrop_path": "/hfZVY8lMiE7HH1cDc2qzSFF6Kbt.jpg", "adult": false, "overview": "Quantum of Solace continues the adventures of James Bond after Casino Royale. Betrayed by Vesper, the woman he loved, 007 fights the urge to make his latest mission personal. Pursuing his determination to uncover the truth, Bond and M interrogate Mr. White, who reveals that the organization that blackmailed Vesper is far more complex and dangerous than anyone had imagined.", "poster_path": "/6mlNx0Jiqhg3D7NlANT9pidsgPJ.jpg", "popularity": 27.546}, {"id": 47971, "video": false, "vote_count": 2661, "vote_average": 5.6, "title": "xXx: Return of Xander Cage", "release_date": "2017-01-13", "original_language": "en", "original_title": "xXx: Return of Xander Cage", "genre_ids": [28, 12, 80], "backdrop_path": "/zv4acOMTPoplVLKo4FaoqAseSDx.jpg", "adult": false, "overview": "Extreme athlete turned government operative Xander Cage comes out of self-imposed exile, thought to be long dead, and is set on a collision course with deadly alpha warrior Xiang and his team in a race to recover a sinister and seemingly unstoppable weapon known as Pandora's Box. Recruiting an all-new group of thrill-seeking cohorts, Xander finds himself enmeshed in a deadly conspiracy that points to collusion at the highest levels of world governments.", "poster_path": "/yNsdyNbQqaKN0TQxkHMws2KLTJ6.jpg", "popularity": 34.363}, {"adult": false, "backdrop_path": "/9QcYwm5af4JaUSOyuysVEYOyEXn.jpg", "genre_ids": [12, 28, 53], "id": 646, "original_language": "en", "original_title": "Dr. No", "overview": "In the film that launched the James Bond saga, Agent 007 battles mysterious Dr. No, a scientific genius bent on destroying the U.S. space program. As the countdown to disaster begins, Bond must go to Jamaica, where he encounters beautiful Honey Ryder, to confront a megalomaniacal villain in his massive island headquarters.", "poster_path": "/gRdfLVVf6FheOw6mw6wOsKhZG1l.jpg", "release_date": "1962-10-04", "title": "Dr. No", "video": false, "vote_average": 7.0, "vote_count": 1837, "popularity": 31.291}, {"id": 497698, "video": false, "vote_count": 0, "vote_average": 0.0, "title": "Black Widow", "release_date": "2020-04-24", "original_language": "en", "original_title": "Black Widow", "genre_ids": [28, 12, 53], "backdrop_path": "/dGMpzHn9uNqBysBQ6Sp5xdOgM66.jpg", "adult": false, "overview": "Natasha Romanoff, on the run from the government following her disobedience to the Sokovia Accords and for aiding Steve Rogers, finds herself on her own and is forced to deal with some of the red in her ledger.", "poster_path": "/sRhaJ6D3x6gQB0swrV0UDqMwHJu.jpg", "popularity": 23.3}, {"id": 818, "video": false, "vote_count": 1920, "vote_average": 5.9, "title": "Austin Powers in Goldmember", "release_date": "2002-07-26", "original_language": "en", "original_title": "Austin Powers in Goldmember", "genre_ids": [35, 80, 878], "backdrop_path": "/mzZraP6PV34eVjB8giKbKIMXVeW.jpg", "adult": false, "overview": "The world's most shagadelic spy continues his fight against Dr. Evil. This time, the diabolical doctor and his clone, Mini-Me, team up with a new foe -- '70s kingpin Goldmember. While pursuing the team of villains to stop them from world domination, Austin gets help from his dad and an old girlfriend.", "poster_path": "/tFR7dTbX5BsmoUwKHfa2cWoZbwK.jpg", "popularity": 23.167}, {"id": 37834, "video": false, "vote_count": 2737, "vote_average": 6.1, "title": "Knight and Day", "release_date": "2010-06-15", "original_language": "en", "original_title": "Knight and Day", "genre_ids": [28, 35], "backdrop_path": "/clq0YPDQYCql9ekC17YFklk8FwX.jpg", "adult": false, "overview": "A fugitive couple goes on a glamorous and sometimes deadly adventure where nothing and no one \u2013 even themselves \u2013 are what they seem. Amid shifting alliances and unexpected betrayals, they race across the globe, with their survival ultimately hinging on the battle of truth vs. trust.", "poster_path": "/aHEpzwXvMtIEMBE13tWXS5oHZ7d.jpg", "popularity": 17.619}, {"id": 207703, "video": false, "vote_count": 11138, "vote_average": 7.6, "title": "Kingsman: The Secret Service", "release_date": "2014-12-13", "original_language": "en", "original_title": "Kingsman: The Secret Service", "genre_ids": [28, 12, 35, 80], "backdrop_path": "/7McaexSsSTLD8V17UgaZAfI0Cu9.jpg", "adult": false, "overview": "The story of a super-secret spy organization that recruits an unrefined but promising street kid into the agency's ultra-competitive training program just as a global threat emerges from a twisted tech genius.", "poster_path": "/8x7ej0LnHdKUqilNNJXYOeyB6L9.jpg", "popularity": 24.161}], "total_pages": 49, "total_results": 977}, "recommendations": {"page": 1, "results": [], "total_pages": 1, "total_results": 0}, "credits": {"cast": [{"cast_id": 37, "character": "Dick Hallam", "credit_id": "5b5f52359251414fd4002777", "gender": 2, "id": 89162, "name": "Ken Clark", "order": 0, "profile_path": "/3juksb2A0jrmN1HaYWXVKAkF3rX.jpg"}, {"cast_id": 6, "character": "Sylvie Meynard", "credit_id": "545b7c0f0e0a261fb6001e06", "gender": 1, "id": 35586, "name": "Irina Demick", "order": 2, "profile_path": "/cX68VgdLRjFEh4O4UO6VgadrTIC.jpg"}, {"cast_id": 4, "character": "Brook", "credit_id": "52fe4d0d9251416c91108f05", "gender": 2, "id": 39004, "name": "Luigi Vannucchi", "order": 3, "profile_path": "/9oqdSah4Q3grfDBsByJgmQNCRsg.jpg"}, {"cast_id": 5, "character": "The Shadow's Agent", "credit_id": "52fe4d0d9251416c91108f09", "gender": 1, "id": 66677, "name": "Loredana Nusciak", "order": 4, "profile_path": "/a1vTNbPCSQyXmo7141dVMpDi5k8.jpg"}, {"cast_id": 18, "character": "Colonel Callaghan", "credit_id": "5b5e585fc3a3684227037ca5", "gender": 0, "id": 28328, "name": "Jacques Berthier", "order": 5, "profile_path": null}, {"cast_id": 19, "character": "The Shadow's Agent with furry collar", "credit_id": "5b5e5880925141521a03714e", "gender": 2, "id": 50829, "name": "Carlo Hintermann", "order": 6, "profile_path": "/dwEB3tTtHQvTxxGynNUq5rrbP6G.jpg"}, {"cast_id": 20, "character": "Francisco Aguirrez", "credit_id": "5b5e5890c3a368422f03aee7", "gender": 0, "id": 28185, "name": "Michel Bardinet", "order": 7, "profile_path": "/iHjgwMJE9vXlKMbdHO6HoW3rMDw.jpg"}, {"cast_id": 21, "character": "Cunningham's Chief Agent", "credit_id": "5b5e58a5c3a36842240356a8", "gender": 0, "id": 83147, "name": "Giampiero Albertini", "order": 8, "profile_path": "/d915kIdNpILhuoJucHxvkSJ48wp.jpg"}, {"cast_id": 22, "character": "Pedro Almereyda / Max Schulz", "credit_id": "5b5e58b4925141521a0371c1", "gender": 2, "id": 27647, "name": "Angelo Infanti", "order": 9, "profile_path": "/dkRVpiDj9YyiuM15XZKT11zZBIR.jpg"}, {"cast_id": 23, "character": "Cunningham's Agent", "credit_id": "5b5e58c4925141521a0371ee", "gender": 0, "id": 1066207, "name": "Franco Giornelli", "order": 10, "profile_path": null}, {"cast_id": 24, "character": "Cunningham's Agent Disguised as a Nurse", "credit_id": "5b5e58da0e0a262e8d0398eb", "gender": 2, "id": 128435, "name": "Andrea Scotti", "order": 11, "profile_path": "/dxRQlqPDpjh54FU9feXGjyCZGYG.jpg"}, {"cast_id": 25, "character": "Hotel Maid", "credit_id": "5b5e58ebc3a3684227037db5", "gender": 1, "id": 68667, "name": "Solvi St\u00fcbing", "order": 12, "profile_path": "/jAVxlJGBgSLV7iBEESLHXOqOfIp.jpg"}, {"cast_id": 26, "character": "Brook's Agent", "credit_id": "5b5e58fec3a368422c030235", "gender": 0, "id": 1315099, "name": "Dario De Grassi", "order": 13, "profile_path": null}, {"cast_id": 27, "character": "", "credit_id": "5b5e59170e0a262e95038b58", "gender": 0, "id": 2095388, "name": "Adriano Uriani", "order": 14, "profile_path": null}, {"cast_id": 28, "character": "Brook's Agent", "credit_id": "5b5e59250e0a262e98035eea", "gender": 2, "id": 50747, "name": "Antonio Marsina", "order": 15, "profile_path": "/sYq9L0t6YumiaqYjnJsEwWFDjJL.jpg"}, {"cast_id": 29, "character": "", "credit_id": "5b5e59330e0a262e95038bab", "gender": 2, "id": 1182279, "name": "Peter Blades", "order": 16, "profile_path": null}, {"cast_id": 30, "character": "Brook's Agent Looking After Hallam", "credit_id": "5b5e5944c3a368421b03ab52", "gender": 0, "id": 1060741, "name": "Loris Bazzocchi", "order": 17, "profile_path": "/a7dJxBeBwIMmxFIzBUt0FTNAt7i.jpg"}, {"cast_id": 31, "character": "", "credit_id": "5b5e5954c3a368421b03ab6f", "gender": 1, "id": 995741, "name": "Mirella Pamphili", "order": 18, "profile_path": null}, {"cast_id": 32, "character": "Cunningham's Agent Disguised as a Nurse", "credit_id": "5b5e5960925141521a037332", "gender": 2, "id": 587456, "name": "Valentino Macchi", "order": 19, "profile_path": "/biRVb5tk02H05Selwee4A6ne2dL.jpg"}, {"cast_id": 33, "character": "Shadow", "credit_id": "5b5e596dc3a368422a0321cc", "gender": 2, "id": 53819, "name": "Gr\u00e9goire Aslan", "order": 20, "profile_path": "/1KymTHXP2weyuSYNJeXzrNmGCPM.jpg"}, {"cast_id": 34, "character": "The Manager of 'Baumkuchen'", "credit_id": "5b5e597c925141521a037396", "gender": 2, "id": 39432, "name": "Tom Felleghy", "order": 21, "profile_path": "/7Q1KOJeCp2ZODPiSVQXqrmXr5QE.jpg"}, {"cast_id": 35, "character": "The TV Technician", "credit_id": "5b5e598a0e0a262e98035fb6", "gender": 2, "id": 101116, "name": "Vanni Materassi", "order": 22, "profile_path": "/pagBh0FtlkYGlLe8iQ2XfZdBcg8.jpg"}, {"cast_id": 36, "character": "Guest at 'Baumkuchen'", "credit_id": "5b5e599d925141521a0373f5", "gender": 2, "id": 98774, "name": "Fulvio Mingozzi", "order": 23, "profile_path": "/mxirX6YqWkoVPB6bRq7sMzrLIIP.jpg"}], "crew": [{"credit_id": "58d349f89251411f8100a8f8", "department": "Writing", "gender": 0, "id": 21228, "job": "Screenplay", "name": "Sandro Continenza", "profile_path": null}, {"credit_id": "58d34a3fc3a368124f00a944", "department": "Costume & Make-Up", "gender": 0, "id": 24851, "job": "Costume Design", "name": "Mario Giorsi", "profile_path": null}, {"credit_id": "58d34a4cc3a368125f00a696", "department": "Production", "gender": 2, "id": 26710, "job": "Production Manager", "name": "Mario Mariani", "profile_path": null}, {"credit_id": "58d34a229251411fa500a693", "department": "Sound", "gender": 2, "id": 33804, "job": "Original Music Composer", "name": "Riz Ortolani", "profile_path": "/hRt4uLf7DUvuX1pJnXVvBfp8taC.jpg"}, {"credit_id": "58d34a08c3a368121b009def", "department": "Production", "gender": 0, "id": 32210, "job": "Producer", "name": "Edmondo Amati", "profile_path": null}, {"credit_id": "58d34a38c3a36812670099f2", "department": "Art", "gender": 2, "id": 32213, "job": "Art Direction", "name": "Alberto Boccianti", "profile_path": null}, {"credit_id": "58d34a31c3a368125f00a67c", "department": "Editing", "gender": 0, "id": 31985, "job": "Editor", "name": "Renato Cinquini", "profile_path": null}, {"credit_id": "52fe4d0d9251416c91108ef9", "department": "Directing", "gender": 2, "id": 32495, "job": "Director", "name": "Sergio Grieco", "profile_path": null}, {"credit_id": "58d349ffc3a368124f00a900", "department": "Writing", "gender": 0, "id": 98776, "job": "Screenplay", "name": "Roberto Gianviti", "profile_path": null}, {"credit_id": "58d34a2ac3a368126f009e5f", "department": "Camera", "gender": 2, "id": 103112, "job": "Director of Photography", "name": "Stelvio Massi", "profile_path": "/fnH87a3k953qXhvDFLJCf3fpPKF.jpg"}, {"credit_id": "58d34a549251411f8100a956", "department": "Costume & Make-Up", "gender": 0, "id": 589496, "job": "Makeup Artist", "name": "Pierantonio Mecacci", "profile_path": null}, {"credit_id": "58d34a5bc3a368123400a670", "department": "Costume & Make-Up", "gender": 0, "id": 1660367, "job": "Hairstylist", "name": "Mara Rocchetti", "profile_path": null}]}}