{"adult": false, "backdrop_path": "/k0pIJJUqGKe3lWYa38QU1AdpI31.jpg", "belongs_to_collection": null, "budget": 0, "genres": [{"id": 12, "name": "Adventure"}], "homepage": null, "id": 195709, "imdb_id": "tt0055377", "original_language": "it", "original_title": "La rivolta degli schiavi", "overview": "A rich man's daughter (Rhonda Fleming) sides with a Christian rebel during the fall of the Roman Empire.", "popularity": 1.504, "poster_path": "/hxo0XZt66JfhdWifwJ9X3DuU1i9.jpg", "production_companies": [{"id": 14569, "logo_path": null, "name": "Ambrosiana Cinematografica", "origin_country": ""}], "production_countries": [{"iso_3166_1": "ES", "name": "Spain"}, {"iso_3166_1": "IT", "name": "Italy"}, {"iso_3166_1": "DE", "name": "Germany"}], "release_date": "1960-12-30", "revenue": 0, "runtime": 102, "spoken_languages": [{"iso_639_1": "de", "name": "Deutsch"}, {"iso_639_1": "it", "name": "Italiano"}], "status": "Released", "tagline": "WANTON . . . TEMPTRESS . . . She put the torch to an empire of sin!", "title": "Revolt of the Slaves", "video": false, "vote_average": 4.0, "vote_count": 2, "keywords": {"keywords": [{"id": 1405, "name": "roman empire"}, {"id": 5049, "name": "ancient rome"}, {"id": 162845, "name": "revolt"}, {"id": 191812, "name": "whipping a slave"}, {"id": 252609, "name": "4th century"}]}, "similar": {"page": 1, "results": [{"id": 967, "video": false, "vote_count": 1076, "vote_average": 7.6, "title": "Spartacus", "release_date": "1960-10-06", "original_language": "en", "original_title": "Spartacus", "genre_ids": [28, 12, 18, 36], "backdrop_path": "/aheSIG4h3JNxWeDvdb1NxKzgjaM.jpg", "adult": false, "overview": "The rebellious Thracian Spartacus, born and raised a slave, is sold to Gladiator trainer Batiatus. After weeks of being trained to kill for the arena, Spartacus turns on his owners and leads the other slaves in rebellion. As the rebels move from town to town, their numbers swell as escaped slaves join their ranks. Under the leadership of Spartacus, they make their way to southern Italy, where they will cross the sea and return to their homes.", "poster_path": "/hpICDCTdMIpcqEeNa0k3rcedw2B.jpg", "popularity": 17.247}, {"adult": false, "backdrop_path": "/5vZw7ltCKI0JiOYTtRxaIC3DX0e.jpg", "genre_ids": [28, 18, 12], "id": 98, "original_language": "en", "original_title": "Gladiator", "overview": "In the year 180, the death of emperor Marcus Aurelius throws the Roman Empire into chaos.  Maximus is one of the Roman army's most capable and trusted generals and a key advisor to the emperor.  As Marcus' devious son Commodus ascends to the throne, Maximus is set to be executed.  He escapes, but is captured by slave traders.  Renamed Spaniard and forced to become a gladiator, Maximus must battle to the death with other men for the amusement of paying audiences.", "poster_path": "/6WBIzCgmDCYrqh64yDREGeDk9d3.jpg", "release_date": "2000-05-01", "title": "Gladiator", "video": false, "vote_average": 8.1, "vote_count": 10792, "popularity": 29.021}, {"id": 9564, "video": false, "vote_count": 1049, "vote_average": 6.0, "title": "Asterix & Obelix Take on Caesar", "release_date": "1999-02-01", "original_language": "fr", "original_title": "Ast\u00e9rix & Ob\u00e9lix contre C\u00e9sar", "genre_ids": [12, 35, 14, 10751], "backdrop_path": "/rhAJgyO6lgZKLcXFKiSvxKdDGfq.jpg", "adult": false, "overview": "Set in 50 B.C., Asterix and Obelix are living in a small but well-protected village in Gaul, where a magic potion concocted by Druids turns the townsfolk into mighty soldiers. When Roman troops carve a path through Gaul to reach the English Channel, Caesar and his aide de camp Detritus discover the secret elixir and capture the Druid leader who knows its formula, and Asterix and Obelix are sent off to rescue them.", "poster_path": "/nCYmH6fFFo1ccZFCouyobJhgUGv.jpg", "popularity": 18.613}, {"id": 23759, "video": false, "vote_count": 759, "vote_average": 6.1, "title": "Centurion", "release_date": "2010-02-15", "original_language": "en", "original_title": "Centurion", "genre_ids": [28, 12, 18], "backdrop_path": "/izb3iimHxLAbs439DnLHNpJsyps.jpg", "adult": false, "overview": "Britain, A.D. 117. Quintus Dias, the sole survivor of a Pictish raid on a Roman frontier fort, marches north with General Virilus' legendary Ninth Legion, under orders to wipe the Picts from the face of the Earth and destroy their leader, Gorlacon.", "poster_path": "/lwQs5DNvy9RHTB0RWEScgZqPPiS.jpg", "popularity": 17.653}, {"adult": false, "backdrop_path": "/pZRC8VRTaQ9d6NHR0enOjKVLJjo.jpg", "genre_ids": [28, 12, 14, 10752], "id": 9703, "original_language": "en", "original_title": "The Last Legion", "overview": "As the Roman empire crumbles, young Romulus Augustus flees the city and embarks on a perilous voyage to Britain to track down a legion of supporters.", "poster_path": "/8K4WWwFew1CzCGVkgmKdamCA6kz.jpg", "release_date": "2007-04-19", "title": "The Last Legion", "video": false, "vote_average": 5.4, "vote_count": 458, "popularity": 14.147}, {"adult": false, "backdrop_path": "/aRL0VSl58stheyPRVDRtgbq1TEx.jpg", "genre_ids": [12, 18], "id": 49494, "original_language": "en", "original_title": "The Eagle", "overview": "In 140 AD, twenty years after the unexplained disappearance of the entire Ninth Legion in the mountains of Scotland, young centurion Marcus Aquila (Tatum) arrives from Rome to solve the mystery and restore the reputation of his father, the commander of the Ninth. Accompanied only by his British slave Esca (Bell), Marcus sets out across Hadrian's Wall into the uncharted highlands of Caledonia - to confront its savage tribes, make peace with his father's memory, and retrieve the lost legion's golden emblem, the Eagle of the Ninth.", "poster_path": "/1e3SKFIEy8zPYICzQXBqeKM6xx8.jpg", "release_date": "2011-02-08", "title": "The Eagle", "video": false, "vote_average": 6.1, "vote_count": 776, "popularity": 11.627}, {"id": 665, "video": false, "vote_count": 1331, "vote_average": 7.7, "title": "Ben-Hur", "release_date": "1959-12-26", "original_language": "en", "original_title": "Ben-Hur", "genre_ids": [12, 36], "backdrop_path": "/uOQPSUGG3ZHiDg9ecN8irQNZ4T1.jpg", "adult": false, "overview": "Judah Ben-Hur, a Palestinian Jew, is battling the Roman empire at the time of Christ. His actions send him and his family into slavery, but an inspirational encounter with Jesus changes everything. He finally meets his rival in a justly famous chariot race and rescues his suffering family.", "poster_path": "/m4WQ1dBIrEIHZNCoAjdpxwSKWyH.jpg", "popularity": 19.599}, {"adult": false, "backdrop_path": "/euAMcJLG26pW1kv4kPEtVEwwroQ.jpg", "genre_ids": [36], "id": 476968, "original_language": "en", "original_title": "Paul, Apostle of Christ", "overview": "Risking his life, Luke ventures to Rome to visit Paul -- the apostle who's bound in chains and held captive in Nero's darkest and bleakest prison cell. Haunted by the shadows of his past misdeeds, Paul wonders if he's been forgotten as he awaits his grisly execution. Before Paul's death, Luke resolves to write another book that details the birth of what will come to be known as the church.", "poster_path": "/2NUXG94dGMKYgJL1BkJGKynMb3l.jpg", "release_date": "2018-03-23", "title": "Paul, Apostle of Christ", "video": false, "vote_average": 7.0, "vote_count": 106, "popularity": 18.432}, {"adult": false, "backdrop_path": "/tS3ms6HM52hLLU3eRdjVPSgSS4w.jpg", "genre_ids": [18, 36, 10749], "id": 8095, "original_language": "en", "original_title": "Cleopatra", "overview": "Determined to hold on to the throne, Cleopatra seduces the Roman emperor Julius Caesar. When Caesar is murdered, she redirects her attentions to his general, Marc Antony, who vows to take power\u2014but Caesar\u2019s successor has other plans.", "poster_path": "/bj7rUGUewofA9cpHt1h36gvDFfy.jpg", "release_date": "1963-06-12", "title": "Cleopatra", "video": false, "vote_average": 7.0, "vote_count": 312, "popularity": 12.875}, {"id": 11620, "video": false, "vote_count": 182, "vote_average": 6.9, "title": "Quo Vadis", "release_date": "1951-11-08", "original_language": "en", "original_title": "Quo Vadis", "genre_ids": [18, 36, 10749], "backdrop_path": "/sVIOBiSg6mmnK3auQ5pMzlvTsJn.jpg", "adult": false, "overview": "Set against the back drop of Rome in crisis, General Marcus Vinicius returns to the city from the battle fields and falls in love with a Christian woman, Lygia. Caught in the grip of insanity, Nero's atrocities become more extreme and he burns Rome, laying the blame on the Christians. Vinicius races to save Lygia from the wrath of Nero as the empire of Rome collapses around them.", "poster_path": "/205q2KznSETw5MeUHupvusQGXDC.jpg", "popularity": 9.054}, {"adult": false, "backdrop_path": "/noE6vg035lEXJl3sCHAgLkWZK1D.jpg", "genre_ids": [28, 12, 36, 10749, 18], "id": 76649, "original_language": "en", "original_title": "Pompeii", "overview": "In 79 A.D., Milo, a slave turned gladiator, finds himself in a race against time to save his true love Cassia, the beautiful daughter of a wealthy merchant who has been unwillingly betrothed to a corrupt Roman Senator. As Mount Vesuvius erupts in a torrent of blazing lava, Milo must fight his way out of the arena in order to save his beloved as the once magnificent Pompeii crumbles around him.", "poster_path": "/idiv0IxVhVSDW8cWxfprYyY5Yev.jpg", "release_date": "2014-02-18", "title": "Pompeii", "video": false, "vote_average": 5.4, "vote_count": 2253, "popularity": 15.279}, {"id": 131631, "video": false, "vote_count": 10881, "vote_average": 6.8, "title": "The Hunger Games: Mockingjay - Part 1", "release_date": "2014-11-18", "original_language": "en", "original_title": "The Hunger Games: Mockingjay - Part 1", "genre_ids": [12, 878, 53], "backdrop_path": "/4PwyB0ErucIANzW24Kori71J6gU.jpg", "adult": false, "overview": "Katniss Everdeen reluctantly becomes the symbol of a mass rebellion against the autocratic Capitol.", "poster_path": "/gj282Pniaa78ZJfbaixyLXnXEDI.jpg", "popularity": 47.043}, {"id": 9387, "video": false, "vote_count": 1293, "vote_average": 6.7, "title": "Conan the Barbarian", "release_date": "1982-04-02", "original_language": "en", "original_title": "Conan the Barbarian", "genre_ids": [28, 12, 14], "backdrop_path": "/nvMjK1uiIN5PDHwA6BF7ij8SUFB.jpg", "adult": false, "overview": "A film adaptation of the classic sword and sorcery hero, Conan the Barbarian. A horde of rampaging warriors massacre the parents of young Conan and enslave the young child for years on The Wheel of Pain. As the sole survivor of the childhood massacre, Conan is released from slavery and taught the ancient arts of fighting. Transforming himself into a killing machine, Conan travels into the wilderness to seek vengeance on Thulsa Doom, the man responsible for killing his family. In the wilderness, Conan takes up with the thieves Valeria and Subotai. The group comes upon King Osric, who wants the trio of warriors to help rescue his daughter who has joined Doom in the hills.", "poster_path": "/9siMCK6u0TtgDVtCJQGKRQAnAqA.jpg", "popularity": 20.907}, {"id": 2899, "video": false, "vote_count": 1971, "vote_average": 7.4, "title": "Asterix & Obelix: Mission Cleopatra", "release_date": "2002-01-29", "original_language": "fr", "original_title": "Ast\u00e9rix & Ob\u00e9lix Mission Cl\u00e9op\u00e2tre", "genre_ids": [12, 35, 14, 10751], "backdrop_path": "/2g6rIEw3t8ZWzMRlDlgXFr8pAlB.jpg", "adult": false, "overview": "The Egyptian Queen Cleopatra bets against the Roman Emperor, Julius Caesar, that her people are still great, even if the times of the Pharaohs has long passed. She vows (against all logic) to build a new palace for Caesar within three months. Since all her architects are either busy otherwise or too conservative in style, this ambivalent honor falls to Edifis. He is to build the palace and be covered in gold or, if not, his fate is to be eaten by crocodiles. Edifis calls upon an old friend to help him out: The fabulous Druid Getafix from Gaul, who brews a fantastic potion that gives supernatural strength. In order to help and protect the old Druid, Asterix and Obelix accompany him on his journey to Egypt. When Julius Caesar gets wind of the project succeeding, he has the building site attacked by his troops in order to win the bet and not lose face. But just like the local pirates, he hasn't counted on Asterix and Obelix.", "poster_path": "/qWy5b64SoBXcMDdfgLyLZgIHSdv.jpg", "popularity": 22.505}, {"id": 11163, "video": false, "vote_count": 135, "vote_average": 6.8, "title": "Fellini's Satyricon", "release_date": "1969-09-18", "original_language": "it", "original_title": "Fellini's Satyricon", "genre_ids": [18, 14], "backdrop_path": "/j7kntdQ8QJqKpcn5AJIV9asx8tU.jpg", "adult": false, "overview": "A series of disjointed mythical tales set in first century Rome.", "poster_path": "/dk4aZLthV1AonOYp4PBD3dI8qih.jpg", "popularity": 13.937}, {"id": 197, "video": false, "vote_count": 6042, "vote_average": 7.9, "title": "Braveheart", "release_date": "1995-05-24", "original_language": "en", "original_title": "Braveheart", "genre_ids": [28, 18, 36, 10752], "backdrop_path": "/7A3uAcB6KAScHcFw0giptE1mhAZ.jpg", "adult": false, "overview": "Enraged at the slaughter of Murron, his new bride and childhood love, Scottish warrior William Wallace slays a platoon of the local English lord's soldiers. This leads the village to revolt and, eventually, the entire country to rise up against English rule.", "poster_path": "/or1gBugydmjToAEq7OZY0owwFk.jpg", "popularity": 28.111}, {"id": 615, "video": false, "vote_count": 1932, "vote_average": 7.1, "title": "The Passion of the Christ", "release_date": "2004-02-25", "original_language": "en", "original_title": "The Passion of the Christ", "genre_ids": [18], "backdrop_path": "/clVnEHURb8Ot3twaLmf7N1lNym1.jpg", "adult": false, "overview": "A graphic portrayal of the last twelve hours of Jesus of Nazareth's life.", "poster_path": "/oFuLM1EaKhi1WNWiTjQ1HKIZ1Eg.jpg", "popularity": 18.285}, {"id": 110415, "video": false, "vote_count": 5358, "vote_average": 6.8, "title": "Snowpiercer", "release_date": "2013-08-01", "original_language": "ko", "original_title": "Snowpiercer", "genre_ids": [28, 18, 878], "backdrop_path": "/dUrRhiIb9sWckFsKmdNR39Ot1eG.jpg", "adult": false, "overview": "In a future where a failed global-warming experiment kills off most life on the planet, a class system evolves aboard the Snowpiercer, a train that travels around the globe via a perpetual-motion engine.", "poster_path": "/oP0ZWr6MsaQ1TV7xvnZJMKSfz0H.jpg", "popularity": 24.925}, {"id": 9453, "video": false, "vote_count": 306, "vote_average": 5.4, "title": "Caligula", "release_date": "1979-01-21", "original_language": "en", "original_title": "Caligola", "genre_ids": [18, 36, 10749], "backdrop_path": "/7urYTquDoObFzF5SrhHi9kfLp4W.jpg", "adult": false, "overview": "The perversion behind imperial Rome, the epic story of Rome's mad Emporer. All the details of his cruel, bizarre reign are revealed right here: His unholy sexual passion for his sister, his marriage to Rome's most infamous prostitute, his fiendishly inventive means of disposing those who would oppose him, and more.", "poster_path": "/hrlfv70HG6SBjJs1ARZqwou38FI.jpg", "popularity": 17.725}, {"id": 9477, "video": false, "vote_count": 1628, "vote_average": 6.2, "title": "King Arthur", "release_date": "2004-07-07", "original_language": "en", "original_title": "King Arthur", "genre_ids": [12, 36, 10752], "backdrop_path": "/u633783ZPMkQamBwp5fliTO34jR.jpg", "adult": false, "overview": "The story of the Arthurian legend, based on the 'Sarmatian hypothesis' which contends that the legend has a historical nucleus in the Sarmatian heavy cavalry troops stationed in Britain, and that the Roman-British military commander, Lucius Artorius Castus is the historical person behind the legend.", "poster_path": "/5midPf1b8pI5xlJsNn4eQLwPNtA.jpg", "popularity": 23.418}], "total_pages": 11, "total_results": 206}, "recommendations": {"page": 1, "results": [], "total_pages": 1, "total_results": 0}, "credits": {"cast": [{"cast_id": 6, "character": "Fabiola", "credit_id": "52fe4d199251416c9110a8bb", "gender": 1, "id": 10160, "name": "Rhonda Fleming", "order": 0, "profile_path": "/8qwbS5st77lc9vMgh8j1vtMl6oe.jpg"}, {"cast_id": 7, "character": "Vibio", "credit_id": "52fe4d199251416c9110a8bf", "gender": 2, "id": 238743, "name": "Lang Jeffries", "order": 1, "profile_path": "/lpzHC0eoZ3UeUWS0EoowDZ61DRH.jpg"}, {"cast_id": 8, "character": "Massimiano", "credit_id": "52fe4d199251416c9110a8c3", "gender": 2, "id": 397, "name": "Dar\u00edo Moreno", "order": 2, "profile_path": null}, {"cast_id": 9, "character": "Sebastian", "credit_id": "52fe4d199251416c9110a8c7", "gender": 2, "id": 563809, "name": "Ettore Manni", "order": 3, "profile_path": "/cWv2SZfLKriA0QzYrqXjbdVkYmv.jpg"}, {"cast_id": 10, "character": "Agnese", "credit_id": "52fe4d199251416c9110a8cb", "gender": 1, "id": 101555, "name": "Wandisa Guida", "order": 4, "profile_path": "/zeEgSg3d8llxJDHBaZPhFWvE24n.jpg"}, {"cast_id": 11, "character": "Fabio", "credit_id": "52fe4d199251416c9110a8cf", "gender": 2, "id": 37191, "name": "Gino Cervi", "order": 5, "profile_path": "/dnArJe5KJvtHrEIc6Mtwgmic4tE.jpg"}, {"cast_id": 12, "character": "Valerio", "credit_id": "52fe4d199251416c9110a8d3", "gender": 2, "id": 14821, "name": "Fernando Rey", "order": 6, "profile_path": "/dK8oBtRU5z8pA0LvMqh09leXQVc.jpg"}, {"cast_id": 13, "character": "Corvino", "credit_id": "52fe4d199251416c9110a8d7", "gender": 2, "id": 34263, "name": "Serge Gainsbourg", "order": 7, "profile_path": "/hWIYqDHPuUrPkRkpmDDC0v1gY3X.jpg"}], "crew": [{"credit_id": "52fe4d199251416c9110a89f", "department": "Directing", "gender": 2, "id": 1042171, "job": "Director", "name": "Nunzio Malasomma", "profile_path": null}, {"credit_id": "52fe4d199251416c9110a8a5", "department": "Writing", "gender": 2, "id": 10147, "job": "Dialogue", "name": "Daniel Mainwaring", "profile_path": null}, {"credit_id": "52fe4d199251416c9110a8ab", "department": "Writing", "gender": 0, "id": 31893, "job": "Screenplay", "name": "Stefano Strucchi", "profile_path": null}, {"credit_id": "52fe4d199251416c9110a8b1", "department": "Writing", "gender": 0, "id": 99511, "job": "Screenplay", "name": "Duccio Tessari", "profile_path": "/miLLq2SqVLrOegQm7Lt2hvV0oGp.jpg"}, {"credit_id": "52fe4d199251416c9110a8b7", "department": "Writing", "gender": 0, "id": 1175968, "job": "Novel", "name": "Nicholas Patrick Wiseman", "profile_path": null}]}}