{"adult": false, "backdrop_path": "/o9zBoNSr7pzmC52m5lnOWxbo3ZL.jpg", "belongs_to_collection": null, "budget": 0, "genres": [{"id": 18, "name": "Drama"}], "homepage": "http://www.hbo.com/movies/muhammad-alis-greatest-fight", "id": 196355, "imdb_id": "tt2061756", "original_language": "en", "original_title": "Muhammad Ali's Greatest Fight", "overview": "Muhammad Ali\u2019s historic Supreme Court battle from behind closed doors. When Ali was drafted into the Vietnam War at the height of his boxing career, his claim to conscientious objector status led to a controversial legal battle that rattled the U.S. judicial system right up to the highest court in the land.", "popularity": 4.071, "poster_path": "/zbAWQ41NPaWbN0deyMuxF1ustmj.jpg", "production_companies": [{"id": 3346, "logo_path": null, "name": "Rainmark Films", "origin_country": "GB"}, {"id": 49930, "logo_path": null, "name": "Sakura Films", "origin_country": ""}, {"id": 7429, "logo_path": "/6in9uMqxXEHx5XgYgkeRBpZ4rPw.png", "name": "HBO Films", "origin_country": "US"}], "production_countries": [{"iso_3166_1": "US", "name": "United States of America"}], "release_date": "2013-10-04", "revenue": 0, "runtime": 97, "spoken_languages": [{"iso_639_1": "en", "name": "English"}], "status": "Released", "tagline": "Some Fights Are Bigger Than The Ring", "title": "Muhammad Ali's Greatest Fight", "video": false, "vote_average": 6.5, "vote_count": 18, "keywords": {"keywords": [{"id": 818, "name": "based on novel or book"}, {"id": 2957, "name": "vietnam war"}, {"id": 15108, "name": "justice"}]}, "similar": {"page": 1, "results": [{"adult": false, "backdrop_path": "/kiWvoV78Cc3fUwkOHKzyBgVdrDD.jpg", "genre_ids": [37, 18, 12], "id": 281957, "original_language": "en", "original_title": "The Revenant", "overview": "In the 1820s, a frontiersman, Hugh Glass, sets out on a path of vengeance against those who left him for dead after a bear mauling.", "poster_path": "/oXUWEc5i3wYyFnL1Ycu8ppxxPvs.jpg", "release_date": "2015-12-25", "title": "The Revenant", "video": false, "vote_average": 7.5, "vote_count": 12122, "popularity": 30.491}, {"adult": false, "backdrop_path": "/GRyynLqafMrLFMHqvfGdUweavA.jpg", "genre_ids": [27, 18, 14], "id": 628, "original_language": "en", "original_title": "Interview with the Vampire", "overview": "A vampire relates his epic life story of love, betrayal, loneliness, and dark hunger to an over-curious reporter.", "poster_path": "/hldXwwViSfHJS0kIJr07KBGmHJI.jpg", "release_date": "1994-11-11", "title": "Interview with the Vampire", "video": false, "vote_average": 7.3, "vote_count": 3229, "popularity": 20.093}, {"adult": false, "backdrop_path": "/sw7mordbZxgITU877yTpZCud90M.jpg", "genre_ids": [18, 80], "id": 769, "original_language": "en", "original_title": "GoodFellas", "overview": "The true story of Henry Hill, a half-Irish, half-Sicilian Brooklyn kid who is adopted by neighbourhood gangsters at an early age and climbs the ranks of a Mafia family under the guidance of Jimmy Conway.", "poster_path": "/pwpGfTImTGifEGgLb3s6LRPd4I6.jpg", "release_date": "1990-09-12", "title": "GoodFellas", "video": false, "vote_average": 8.4, "vote_count": 6553, "popularity": 33.23}, {"adult": false, "backdrop_path": "/fewP7EsMEnfqqcx4qYHKSKebwkF.jpg", "genre_ids": [28, 18, 36], "id": 2669, "original_language": "en", "original_title": "The Bounty", "overview": "The familiar story of Lieutenant Bligh, whose cruelty leads to a mutiny on his ship. This version follows both the efforts of Fletcher Christian to get his men beyond the reach of British retribution, and the epic voyage of Lieutenant Bligh to get his loyalists safely to East Timor in a tiny lifeboat.", "poster_path": "/hXFXIc6F4NXI5emWCKcUwqEPjIZ.jpg", "release_date": "1984-05-04", "title": "The Bounty", "video": false, "vote_average": 6.7, "vote_count": 246, "popularity": 11.928}, {"id": 11560, "video": false, "vote_count": 384, "vote_average": 6.2, "title": "High Crimes", "release_date": "2002-04-05", "original_language": "en", "original_title": "High Crimes", "genre_ids": [80, 18, 9648, 53], "backdrop_path": "/e2Vu095kdsSxTxjJaz5sYH3eSYF.jpg", "adult": false, "overview": "A female attorney learns that her husband is really a marine officer awol for fifteen years and accused of murdering fifteen civilians in El Salvador. Believing her husband when he tells her that he's being framed as part of a U.S. Military cover-up, the attorney defends him in a military court.", "poster_path": "/adujr0eiutryiWmK8i0DPGTrOpU.jpg", "popularity": 12.468}, {"adult": false, "backdrop_path": "/jArl1j9sL2mYjRW23EaZKWAr2E8.jpg", "genre_ids": [18, 36], "id": 399121, "original_language": "fr", "original_title": "J\u2019accuse", "overview": "In 1894, French Captain Alfred Dreyfus is wrongfully convicted of treason and sentenced to life imprisonment at Devil's Island.", "poster_path": "/xMCJhioKlEBoWAJM9aCBKR8J3BT.jpg", "release_date": "2019-09-30", "title": "An Officer and a Spy", "video": false, "vote_average": 7.4, "vote_count": 275, "popularity": 12.138}, {"id": 625, "video": false, "vote_count": 342, "vote_average": 7.6, "title": "The Killing Fields", "release_date": "1984-11-02", "original_language": "en", "original_title": "The Killing Fields", "genre_ids": [18, 36, 10752], "backdrop_path": "/kjEgZzhigOU6dZKGfw1oVOnmVId.jpg", "adult": false, "overview": "The Killing Fields tells the real-life story of a friendship between two journalists, an American and a Cambodian, during the bloody Khmer Rouge takeover of Cambodia in 1975, which led to the death of 2-3 million Cambodians during the next four years, until Pol Pot's regime was toppled by the intervening Vietnamese in 1979.", "poster_path": "/pzSdpgnjJi79UboweTlFDQmRq7M.jpg", "popularity": 10.547}, {"adult": false, "backdrop_path": "/sRJjliXA7ZqHCr7HCK0ZB83xxjr.jpg", "genre_ids": [12, 28, 878], "id": 101299, "original_language": "en", "original_title": "The Hunger Games: Catching Fire", "overview": "Katniss Everdeen has returned home safe after winning the 74th Annual Hunger Games along with fellow tribute Peeta Mellark. Winning means that they must turn around and leave their family and close friends, embarking on a \"Victor's Tour\" of the districts. Along the way Katniss senses that a rebellion is simmering, but the Capitol is still very much in control as President Snow prepares the 75th Annual Hunger Games (The Quarter Quell) - a competition that could change Panem forever.", "poster_path": "/Hn0KgefVEp0GkdTexS6gfKTMfi.jpg", "release_date": "2013-11-15", "title": "The Hunger Games: Catching Fire", "video": false, "vote_average": 7.4, "vote_count": 12024, "popularity": 30.047}, {"adult": false, "backdrop_path": "/bvbyidkMaBls1LTaIWYY6UmYTaL.jpg", "genre_ids": [28, 878], "id": 336843, "original_language": "en", "original_title": "Maze Runner: The Death Cure", "overview": "Thomas leads his group of escaped Gladers on their final and most dangerous mission yet. To save their friends, they must break into the legendary Last City, a WCKD-controlled labyrinth that may turn out to be the deadliest maze of all. Anyone who makes it out alive will get answers to the questions the Gladers have been asking since they first arrived in the maze.", "poster_path": "/2zYfzA3TBwrMC8tfFbpiTLODde0.jpg", "release_date": "2018-01-10", "title": "Maze Runner: The Death Cure", "video": false, "vote_average": 7.0, "vote_count": 4393, "popularity": 24.242}, {"adult": false, "backdrop_path": "/dLAPTvBwEdP4h7a14isNc0HwmOj.jpg", "genre_ids": [18, 10749], "id": 250734, "original_language": "en", "original_title": "Far from the Madding Crowd", "overview": "Based on the literary classic by Thomas Hardy. Bathsheba Everdene, attracts three very different suitors: Gabriel Oak, a sheep farmer, captivated by her fetching willfulness; Frank Troy, a handsome and reckless Sergeant; and William Boldwood, a prosperous and mature bachelor. This timeless story of Bathsheba's choices and passions explores the nature of relationships and love \u2013 as well as the human ability to overcome hardships through resilience and perseverance.", "poster_path": "/6v1DEaO2TZzrqcaGohUf1K7BXkU.jpg", "release_date": "2015-04-23", "title": "Far from the Madding Crowd", "video": false, "vote_average": 7.0, "vote_count": 643, "popularity": 14.468}, {"id": 457799, "video": false, "vote_count": 1569, "vote_average": 7.0, "title": "Extremely Wicked, Shockingly Evil and Vile", "release_date": "2019-05-02", "original_language": "en", "original_title": "Extremely Wicked, Shockingly Evil and Vile", "genre_ids": [80, 18, 53], "backdrop_path": "/uRoA67sM5vvCI4cplxhl67BTPly.jpg", "adult": false, "overview": "A chronicle of the crimes of Ted Bundy, from the perspective of his longtime girlfriend, Elizabeth Kloepfer, who refused to believe the truth about him for years.", "poster_path": "/zSuJ3r5zr5T26tTxyygHhgkUAIM.jpg", "popularity": 20.961}, {"adult": false, "backdrop_path": "/nfm6JCKUaM6dT0mATmShLY6cpmc.jpg", "genre_ids": [18, 10752], "id": 600, "original_language": "en", "original_title": "Full Metal Jacket", "overview": "A pragmatic U.S. Marine observes the dehumanizing effects the U.S.-Vietnam War has on his fellow recruits from their brutal boot camp training to the bloody street fighting in Hue.", "poster_path": "/29veIwD38rVL2qY74emXQw4y25H.jpg", "release_date": "1987-06-26", "title": "Full Metal Jacket", "video": false, "vote_average": 8.1, "vote_count": 5892, "popularity": 25.71}, {"adult": false, "backdrop_path": "/mAXgaPxxUQg6U446yz8KPRYSUT.jpg", "genre_ids": [12, 18, 10751], "id": 44826, "original_language": "en", "original_title": "Hugo", "overview": "Orphaned and alone except for an uncle, Hugo Cabret lives in the walls of a train station in 1930s Paris. Hugo's job is to oil and maintain the station's clocks, but to him, his more important task is to protect a broken automaton and notebook left to him by his late father. Accompanied by the goddaughter of an embittered toy merchant, Hugo embarks on a quest to solve the mystery of the automaton and find a place he can call home.", "poster_path": "/rSmmVKeW3nsP86V2S6R7ePs4CFw.jpg", "release_date": "2011-11-22", "title": "Hugo", "video": false, "vote_average": 7.1, "vote_count": 4577, "popularity": 19.298}, {"id": 84892, "video": false, "vote_count": 6548, "vote_average": 7.7, "title": "The Perks of Being a Wallflower", "release_date": "2012-09-20", "original_language": "en", "original_title": "The Perks of Being a Wallflower", "genre_ids": [18], "backdrop_path": "/uhLcaTPeBpUNgYhZXhDWkj7gMkp.jpg", "adult": false, "overview": "15-year-old freshman Charlie is a wallflower, always watching life from the sidelines, until two charismatic senior students become his mentors. Free-spirited Sam and her stepbrother Patrick help Charlie discover the joys of friendship, first love, music and more, while a teacher sparks Charlie's dreams of becoming a writer.", "poster_path": "/cyNQLnHnXZcTUDXVVSEYmquOTOI.jpg", "popularity": 19.873}, {"id": 429351, "video": false, "vote_count": 1511, "vote_average": 5.8, "title": "12 Strong", "release_date": "2018-01-16", "original_language": "en", "original_title": "12 Strong", "genre_ids": [28, 18, 36, 10752], "backdrop_path": "/x5EUEv1N9g4BCX9GQXKvv3nqMVo.jpg", "adult": false, "overview": "A team of CIA agents and special forces head into Afghanistan in the aftermath of the September 11th attacks in an attempt to dismantle the Taliban.", "poster_path": "/j18021qCeRi3yUBtqd2UFj1c0RQ.jpg", "popularity": 20.439}, {"adult": false, "backdrop_path": "/2J283YNxKhxAqHeVegUJ5mzLfGb.jpg", "genre_ids": [80, 18, 9648], "id": 392044, "original_language": "en", "original_title": "Murder on the Orient Express", "overview": "Genius Belgian detective Hercule Poirot investigates the murder of an American tycoon aboard the Orient Express train.", "poster_path": "/iBlfxlw8qwtUS0R8YjIU7JtM6LM.jpg", "release_date": "2017-11-03", "title": "Murder on the Orient Express", "video": false, "vote_average": 6.7, "vote_count": 6044, "popularity": 24.868}, {"id": 411728, "video": false, "vote_count": 342, "vote_average": 7.2, "title": "The Professor and the Madman", "release_date": "2019-03-07", "original_language": "en", "original_title": "The Professor and the Madman", "genre_ids": [18, 36, 9648, 53], "backdrop_path": "/zhNfM1CSQqJtIqelwlK9iKtSd9P.jpg", "adult": false, "overview": "Professor James Murray begins work compiling words for the first edition of the Oxford English Dictionary in the mid 19th century, and receives over 10,000 entries from a patient at Broadmoor Criminal Lunatic Asylum, Dr. William Minor.", "poster_path": "/gtGCDLhfjW96qVarwctnuTpGOtD.jpg", "popularity": 14.972}, {"id": 401847, "video": false, "vote_count": 664, "vote_average": 6.8, "title": "Can You Ever Forgive Me?", "release_date": "2018-10-19", "original_language": "en", "original_title": "Can You Ever Forgive Me?", "genre_ids": [35, 80, 18], "backdrop_path": "/shIOFWkjTn2NRvq5r4Mn2xLdZeJ.jpg", "adult": false, "overview": "When a bestselling celebrity biographer is no longer able to get published because she has fallen out of step with current tastes, she turns her art form to deception.", "poster_path": "/hPuZR2bFoV0kuBrA98exWyvTf40.jpg", "popularity": 18.675}, {"id": 75780, "video": false, "vote_count": 4450, "vote_average": 6.4, "title": "Jack Reacher", "release_date": "2012-12-20", "original_language": "en", "original_title": "Jack Reacher", "genre_ids": [28, 80, 18, 53], "backdrop_path": "/ezXodpP429qK0Av89pVNlaXWJkQ.jpg", "adult": false, "overview": "When a gunman takes five lives with six shots, all evidence points to the suspect in custody. On interrogation, the suspect offers up a single note: \"Get Jack Reacher!\" So begins an extraordinary chase for the truth, pitting Jack Reacher against an unexpected enemy, with a skill for violence and a secret to keep.", "poster_path": "/mt0ELw83HIRgaKaDzhsDcIi0RnW.jpg", "popularity": 19.929}, {"id": 205775, "video": false, "vote_count": 2361, "vote_average": 6.6, "title": "In the Heart of the Sea", "release_date": "2015-11-20", "original_language": "en", "original_title": "In the Heart of the Sea", "genre_ids": [28, 12, 18, 36, 53], "backdrop_path": "/aZoZ0NglXgiBMToem9HhTAYYamw.jpg", "adult": false, "overview": "In the winter of 1820, the New England whaling ship Essex is assaulted by something no one could believe\u2014a whale of mammoth size and will, and an almost human sense of vengeance.", "poster_path": "/zVmWh0Zfg4UhbvdGI8LQrn1lQZJ.jpg", "popularity": 19.825}], "total_pages": 409, "total_results": 8174}, "recommendations": {"page": 1, "results": [{"adult": false, "backdrop_path": "/7SsA6Ac1Fx7IswJ3cKMm7n0naoT.jpg", "genre_ids": [99], "id": 444526, "original_language": "en", "original_title": "Rock and a Hard Place", "overview": "A look at the Miami-Dade County Corrections and Rehabilitation Boot Camp Program, which allows young inmates undergo a strict six-week course in order to learn from their past mistakes and make a better future for themselves.", "poster_path": "/xM40r6PbzaumRyJyuxrtSvwtfAF.jpg", "release_date": "2017-03-27", "title": "Rock and a Hard Place", "video": false, "vote_average": 6.7, "vote_count": 15, "popularity": 3.873}, {"adult": false, "backdrop_path": null, "genre_ids": [], "id": 47099, "original_language": "en", "original_title": "Tueur \u00e0 gages", "overview": "A young man gets into an accident and now owes people money. He lives in present day Almaty, Kazakhstan, where jobs are scarce. So he turns to dubious characters for help which leads him deeper and deeper into trouble.", "poster_path": "/7ksXHnv9vji2afzKA1H8sdxHMUf.jpg", "release_date": "1998-01-01", "title": "Killer", "video": false, "vote_average": 5.5, "vote_count": 2, "popularity": 1.097}, {"adult": false, "backdrop_path": "/o1T8hrgPT1HhsTiYTxpoZ8GIyD6.jpg", "genre_ids": [99], "id": 373481, "original_language": "en", "original_title": "Unlocking the Cage", "overview": "Renowned filmmakers D A Pennebaker and Chris Hegedus follow determined animal rights activist Steven Wise into the courtroom for an unprecedented battle that seeks to utilize the writ of habeas corpus to expand legal \u201cpersonhood\u201d to include certain animals. Wise\u2019s unusual plaintiffs\u2014chimpanzees Tommy and Kiko, once famed showbiz stars\u2014are now living in filth, struggling to survive. Wise and his impassioned legal team take us into the field, revealing gripping evidence of such abuse and plunging us into the intricacies of their case as they probe preconceived notions of what it means to be a non-human animal.", "poster_path": "/6ASGjEXmqxrAaDGbj7jKkreErff.jpg", "release_date": "2016-01-25", "title": "Unlocking the Cage", "video": false, "vote_average": 7.8, "vote_count": 5, "popularity": 2.985}, {"adult": false, "backdrop_path": "/tRyPuhThCFVWaE4JkPOBdFl5a5s.jpg", "genre_ids": [10402, 10749, 10751, 14], "id": 42622, "original_language": "en", "original_title": "Finian's Rainbow", "overview": "Having left Ireland, Finian McLonergan and his daughter Sharon arrive in the American state of Missitucky with a magical golden crock which has been stolen from Og, a leprechaun. Finian buries the crock believing that it will grow bigger. Rawkins, a racist Senator, is determined to get his hands on the it but is thwarted when he is magically turned black and gets a helping of his own bigotry. After many plot twists all is resolved and love, wealth and happiness descend on Rainbow Valley.", "poster_path": "/hDrQjKrfLZdSt2cZ9OG2RafWx0.jpg", "release_date": "1968-10-09", "title": "Finian's Rainbow", "video": false, "vote_average": 5.9, "vote_count": 22, "popularity": 3.892}, {"adult": false, "backdrop_path": "/tLzR8GRQbHKd0JbOaGmvJ7It2cj.jpg", "genre_ids": [35, 18], "id": 87892, "original_language": "en", "original_title": "That Gang of Mine", "overview": "A street kid has dreams of becoming a jockey. He gets his chance when he and his gang discover a poor old man who has a championship race horse. The man agrees to let the boy ride his horse in a race, but first the gang must get enough money to pay for the race's entry fees.", "poster_path": "/gt0lBeZ3lCWMeNqmp2VlIEY7ZRZ.jpg", "release_date": "1940-09-23", "title": "That Gang of Mine", "video": false, "vote_average": 6.2, "vote_count": 5, "popularity": 3.078}, {"adult": false, "backdrop_path": "/nDWfUcMGtBKxAFtJ6gwnG67FlFy.jpg", "genre_ids": [10402, 35, 10749], "id": 80032, "original_language": "en", "original_title": "I Love Melvin", "overview": "Melvin Hoover, a budding photographer for Look magazine, accidentally bumps into a young actress named Judy LeRoy in the park. They start to talk and Melvin soon offers to do a photo spread of her. His boss, however, has no intention of using the photos. Melvin wants to marry Judy, but her father would rather she marry dull and dependable Harry Black. As a last resort, Melvin promises to get Judy's photo on the cover of the next issue of Look, a task easier said than done.", "poster_path": "/20Af4w0yLU3Df1zS3VyZatJZbsG.jpg", "release_date": "1953-03-20", "title": "I Love Melvin", "video": false, "vote_average": 6.8, "vote_count": 11, "popularity": 3.092}, {"adult": false, "backdrop_path": "/zSwMQ9rgWcISeLroREOHElkNrNj.jpg", "genre_ids": [99], "id": 376515, "original_language": "en", "original_title": "Becoming Mike Nichols", "overview": "This intimate portrait of director, producer, and improvisational comedy icon Mike Nichols shows his final and historic interviews filmed just months before his death. Director Douglas McGrath documents Nichols\u2019s early life, as he opens up to his friend, director Jack O\u2019Brien, about the storied beginnings of his career.", "poster_path": "/y4yYAw8cbwdE2UzkcEyYgbThmsE.jpg", "release_date": "2016-01-28", "title": "Becoming Mike Nichols", "video": false, "vote_average": 7.0, "vote_count": 6, "popularity": 2.876}, {"adult": false, "backdrop_path": "/rmHVmWAX9hgke7VqSfsEbE1MGoP.jpg", "genre_ids": [99], "id": 333820, "original_language": "en", "original_title": "The Diplomat", "overview": "The life and legacy of Richard Holbrooke, whose singular career spans fifty years of American foreign policy, is told in this documentary from Holbrooke's eldest son David.", "poster_path": "/cgewSN4EFUMLMfutSWDLwku4TrG.jpg", "release_date": "2015-04-23", "title": "The Diplomat", "video": false, "vote_average": 7.8, "vote_count": 5, "popularity": 1.689}, {"id": 67022, "video": false, "vote_count": 7, "vote_average": 5.6, "title": "Quartet", "release_date": "1981-10-25", "original_language": "fr", "original_title": "Quartet", "genre_ids": [18, 10749], "backdrop_path": "/gC5iO36KfH46iVdsCWmEH7X91Oh.jpg", "adult": false, "overview": "Quartet is the story of a girl who, adrift with her feckless husband amidst the literati of glittering Paris in the 1920s, becomes entrapped by a rich and sybaritic English couple. Adapted from the wistful, melancholy autobiographical novel by Jean Rhys, Quartet is full of intense confrontations dazzlingly acted by Alan Bates, Maggie Smith, Anthony Higgins, and Isabelle Adjani. This is one of the Merchant Ivory team\u2019s darkest and most compelling dramas of dangerously intertwined relationships.", "poster_path": "/e6mAdf5RoWBxnPNbDA3zgTPl91Q.jpg", "popularity": 3.532}, {"adult": false, "backdrop_path": "/rVZNrdhNj5FHBdkggTVn2XrRVEi.jpg", "genre_ids": [28, 18], "id": 78734, "original_language": "en", "original_title": "In Old Chicago", "overview": "The O'Leary brothers -- honest Jack and roguish Dion -- become powerful figures, and eventually rivals, in Chicago on the eve of its Great Fire.", "poster_path": "/vu0BjJ9gQPAEqTPd7tJY0vYFQgj.jpg", "release_date": "1938-04-15", "title": "In Old Chicago", "video": false, "vote_average": 6.3, "vote_count": 11, "popularity": 4.345}, {"adult": false, "backdrop_path": "/2l4BX8926AVZBZmogHBM12ZoACl.jpg", "genre_ids": [10749, 18, 9648], "id": 53779, "original_language": "en", "original_title": "Kings Row", "overview": "Five children in an apparently ideal American small town find their lives changing as the years pass near the turn of the century in 1900. Parris and Drake, both of whom have lost their parents, are best friends; Parris dreams of becoming a doctor, studying under the father of his sweetheart Cassie, while Drake plans on becoming a local businessman when he receives his full inheritance - juggling girlfriends in the meantime. As they become adults, the revelations of local secrets threaten to ruin their hopes and dreams.", "poster_path": "/fVXoIwDUK0jBvxETwUWoWoCHWS.jpg", "release_date": "1942-04-18", "title": "Kings Row", "video": false, "vote_average": 6.9, "vote_count": 18, "popularity": 4.472}, {"adult": false, "backdrop_path": "/p1mliA3veDVT3ILcaSmldbWYnxl.jpg", "genre_ids": [99], "id": 365447, "original_language": "en", "original_title": "Body Team 12", "overview": "Body Team 12 is tasked with collecting the dead at the height of the Ebola outbreak. These body collectors have arguably the most dangerous and gruesome job in the world. Yet despite the strain they emerge as heroes while the film explores their philosophy and strength.", "poster_path": "/wUPlMaBnOg9OWtnrVYjabYfAvWw.jpg", "release_date": "2015-04-19", "title": "Body Team 12", "video": false, "vote_average": 7.0, "vote_count": 12, "popularity": 2.661}, {"adult": false, "backdrop_path": "/j60HmVxmeMo9wsWuwHaDUpUbzRS.jpg", "genre_ids": [35, 18, 10749], "id": 42731, "original_language": "en", "original_title": "A Thousand Clowns", "overview": "Twelve-year-old Nick lives with his Uncle Murray, a Mr.Micawber-like Dickensian character who keeps hoping something won't turn up. What turns up is a social worker, who falls in love with Murray and a bit in love with Nick. As the child welfare people try to force Murray to become a conventional man (as the price they demand for allowing him to keep Nick), the nephew, who until now has gloried in his Uncle's iconoclastic approach to life, tries to play mediator. But when he succeeds, he is alarmed by the uncle's willingness to cave in to society in order to save the relationship.", "poster_path": "/wrqcwGTKkKNXzR39WPa7LD3qm9Z.jpg", "release_date": "1965-12-13", "title": "A Thousand Clowns", "video": false, "vote_average": 7.2, "vote_count": 13, "popularity": 3.815}, {"adult": false, "backdrop_path": "/d0Ggq6NagFTBXbVA8JyiXptqU4A.jpg", "genre_ids": [10749, 18], "id": 84214, "original_language": "en", "original_title": "Come Back, Little Sheba", "overview": "An emotionally remote recovering alcoholic and his dowdy, unambitious wife face a personal crisis when they take in an attractive lodger.  Doc Delaney (Burt Lancaster) and wife Lola (Shirley Booth) had an indiscreet affair, she became pregnant and, compelled to marry her, he gave up his medical studies, forfeited his future and settled down to a life of quiet desperation with the simple, frumpy Lola, who lost the child but has remained Doc's steadfast if slatternly wife.  Now a chiropractor, recovering alcoholic, and active member of his town's AA chapter, Doc's sobriety is severely tested when Marie (Terry Moore), a young college student becomes their boarder, bringing new life and long-dormant hostilities to the surface of Doc and Lola's troubled marriage.", "poster_path": "/vDFP0yzirZchry1sF6zkNZx2j2.jpg", "release_date": "1952-12-24", "title": "Come Back, Little Sheba", "video": false, "vote_average": 8.0, "vote_count": 15, "popularity": 4.266}, {"id": 69557, "video": false, "vote_count": 14, "vote_average": 7.0, "title": "The Pumpkin Eater", "release_date": "1964-06-01", "original_language": "en", "original_title": "The Pumpkin Eater", "genre_ids": [18], "backdrop_path": "/1E8AOCvNEGNpa04yQvBcrKmw2Lb.jpg", "adult": false, "overview": "The study of a marriage. Jo has five children and husband number two when she meets writer Jake Armitage. She leaves this husband to marry Jake, and his career takes off. A few years and at least one child later, Jo is deeply depressed, breaking down in the middle of Harrods. After psychiatric care and the prospect of a new house in the country, she gets better; then, she is pregnant again, and this time Jake objects. Jo consents to an abortion and sterilization in the belief it will make her marriage happy again, but afterwards she learns ugly truths about Jake.", "poster_path": "/lMsnpQ0Bcm63uLDXYlTkLnkw0sR.jpg", "popularity": 5.857}], "total_pages": 1, "total_results": 15}, "credits": {"cast": [{"cast_id": 3, "character": "John Marshall Harlan", "credit_id": "52fe4d2d9251416c9110d3c9", "gender": 2, "id": 290, "name": "Christopher Plummer", "order": 0, "profile_path": "/fauMGxa6dc86nHNenQ8X6DlE6YV.jpg"}, {"cast_id": 4, "character": "Justice Thurgood Marshall", "credit_id": "52fe4d2d9251416c9110d3cd", "gender": 2, "id": 2047, "name": "Danny Glover", "order": 1, "profile_path": "/jSNTEnm0Sxm8FRtoBfJmhmQyozH.jpg"}, {"cast_id": 5, "character": "Chief Justice Warren Burger", "credit_id": "52fe4d2d9251416c9110d3d1", "gender": 2, "id": 8924, "name": "Frank Langella", "order": 2, "profile_path": "/wMlcjLBQouQjE0iceseNTxUF3BF.jpg"}, {"cast_id": 6, "character": "Justice Harry Blackmun", "credit_id": "52fe4d2d9251416c9110d3d5", "gender": 2, "id": 42157, "name": "Ed Begley Jr.", "order": 3, "profile_path": "/au4qlxxeHitgPDHmt7WhWTA7Znb.jpg"}, {"cast_id": 7, "character": "Justice Potter Stewart", "credit_id": "52fe4d2d9251416c9110d3d9", "gender": 2, "id": 8246, "name": "Barry Levinson", "order": 4, "profile_path": "/AvPOBBODhSCtUJAqxeq2s0nYnTw.jpg"}, {"cast_id": 9, "character": "Kevin Kennedy", "credit_id": "52fe4d2d9251416c9110d3e1", "gender": 2, "id": 239996, "name": "Benjamin Walker", "order": 5, "profile_path": "/zd56RC1ifqvQyA90cjtvYD4sO3I.jpg"}, {"cast_id": 12, "character": "Covert Becker", "credit_id": "59d31ea8c3a36852f600732a", "gender": 2, "id": 59254, "name": "Pablo Schreiber", "order": 6, "profile_path": "/uo8YljeePz3pbj7gvWXdB4gOOW4.jpg"}, {"cast_id": 11, "character": "Himself (archive footage)", "credit_id": "52fe4d2d9251416c9110d3e9", "gender": 2, "id": 65605, "name": "Muhammad Ali", "order": 7, "profile_path": "/l9RnFUghCHQviM9deKlvdGOvrpZ.jpg"}], "crew": [{"credit_id": "52fe4d2d9251416c9110d3bf", "department": "Directing", "gender": 0, "id": 3224, "job": "Director", "name": "Stephen Frears", "profile_path": "/8IewTBLTPujw1t1MwpXba8cCXOU.jpg"}, {"credit_id": "52fe4d2d9251416c9110d3c5", "department": "Writing", "gender": 0, "id": 15539, "job": "Writer", "name": "Shawn Slovo", "profile_path": "/uIdcQ929eNpfaqEYZhJT1aVkii8.jpg"}]}}