{"adult": false, "backdrop_path": "/b7XHvBmQzhsZz4KUNBcALhWdlcr.jpg", "belongs_to_collection": null, "budget": 0, "genres": [{"id": 18, "name": "Drama"}, {"id": 53, "name": "Thriller"}], "homepage": null, "id": 196482, "imdb_id": "tt0059108", "original_language": "en", "original_title": "The Dirty Game", "overview": "A U.S. intelligence general (Robert Ryan) recalls three Cold War cases of Soviet (Henry Fonda), French and Italian (Vittorio Gassman) spies.", "popularity": 2.165, "poster_path": "/iAtFSM99Do10tf1f3chH832qbm4.jpg", "production_companies": [{"id": 1328, "logo_path": null, "name": "Eichberg-Film", "origin_country": "DE"}, {"id": 8930, "logo_path": null, "name": "Euro International Film (EIA)", "origin_country": ""}, {"id": 1477, "logo_path": null, "name": "Franco London Films", "origin_country": ""}, {"id": 34479, "logo_path": null, "name": "Landau / Unger", "origin_country": ""}], "production_countries": [{"iso_3166_1": "FR", "name": "France"}, {"iso_3166_1": "DE", "name": "Germany"}, {"iso_3166_1": "IT", "name": "Italy"}], "release_date": "1965-06-23", "revenue": 0, "runtime": 113, "spoken_languages": [{"iso_639_1": "en", "name": "English"}], "status": "Released", "tagline": "The world they rule is a world of shadows.", "title": "The Dirty Game", "video": false, "vote_average": 6.0, "vote_count": 1, "keywords": {"keywords": [{"id": 470, "name": "spy"}]}, "similar": {"page": 1, "results": [{"adult": false, "backdrop_path": "/vHLsgsvLtFWDlhBigKDRsYIC1p6.jpg", "genre_ids": [28, 9648, 53], "id": 27576, "original_language": "en", "original_title": "Salt", "overview": "As a CIA officer, Evelyn Salt swore an oath to duty, honor and country. Her loyalty will be tested when a defector accuses her of being a Russian spy. Salt goes on the run, using all her skills and years of experience as a covert operative to elude capture. Salt's efforts to prove her innocence only serve to cast doubt on her motives, as the hunt to uncover the truth behind her identity continues and the question remains: \"Who is Salt?\"", "poster_path": "/956xMjH4sPoqimqoLOP6AI19mjm.jpg", "release_date": "2010-07-21", "title": "Salt", "video": false, "vote_average": 6.3, "vote_count": 3533, "popularity": 20.188}, {"id": 341013, "video": false, "vote_count": 4063, "vote_average": 6.3, "title": "Atomic Blonde", "release_date": "2017-07-26", "original_language": "en", "original_title": "Atomic Blonde", "genre_ids": [28, 9648, 53], "backdrop_path": "/g3hni0i9iAQ13jDGOFWavJFlojc.jpg", "adult": false, "overview": "An undercover MI6 agent is sent to Berlin during the Cold War to investigate the murder of a fellow agent and recover a missing list of double agents.", "poster_path": "/kV9R5h0Yct1kR8Hf8sJ1nX0Vz4x.jpg", "popularity": 28.364}, {"adult": false, "backdrop_path": "/bqpGceqQuHbtnjEqUG9acSYIVIh.jpg", "genre_ids": [18, 53, 9648], "id": 49517, "original_language": "en", "original_title": "Tinker Tailor Soldier Spy", "overview": "In the bleak days of the Cold War, espionage veteran George Smiley is forced from semi-retirement to uncover a Soviet mole within his former colleagues at the heart of MI6.", "poster_path": "/2N3P730TYXEcNL0BO8WBuMc6yJz.jpg", "release_date": "2011-09-16", "title": "Tinker Tailor Soldier Spy", "video": false, "vote_average": 6.7, "vote_count": 1545, "popularity": 18.392}, {"adult": false, "backdrop_path": "/tjQHn6xW5BiB1RJ3OZIPDzIOSkF.jpg", "genre_ids": [12, 28, 53], "id": 954, "original_language": "en", "original_title": "Mission: Impossible", "overview": "When Ethan Hunt, the leader of a crack espionage team whose perilous operation has gone awry with no explanation, discovers that a mole has penetrated the CIA, he's surprised to learn that he's the No. 1 suspect. To clear his name, Hunt now must ferret out the real double agent and, in the process, even the score.", "poster_path": "/1PVKS17pIBFsIhgFws2uagPDNLW.jpg", "release_date": "1996-05-22", "title": "Mission: Impossible", "video": false, "vote_average": 6.9, "vote_count": 5216, "popularity": 25.737}, {"id": 213, "video": false, "vote_count": 2129, "vote_average": 8.0, "title": "North by Northwest", "release_date": "1959-07-07", "original_language": "en", "original_title": "North by Northwest", "genre_ids": [9648, 53], "backdrop_path": "/AplR1QRswlXiM65GoifX8sDadME.jpg", "adult": false, "overview": "Advertising man Roger Thornhill is mistaken for a spy, triggering a deadly cross-country chase.", "poster_path": "/aNV789h3oHm2pTHK5Bdq5RuiumZ.jpg", "popularity": 20.897}, {"id": 681, "video": false, "vote_count": 1040, "vote_average": 6.4, "title": "Diamonds Are Forever", "release_date": "1971-12-13", "original_language": "en", "original_title": "Diamonds Are Forever", "genre_ids": [28, 12, 53], "backdrop_path": "/gIGLXXvsljHK1jdDNaIXsjhZnnH.jpg", "adult": false, "overview": "Diamonds are stolen only to be sold again in the international market. James Bond infiltrates a smuggling mission to find out who\u2019s guilty. The mission takes him to Las Vegas where Bond meets his archenemy Blofeld.", "poster_path": "/viPjZ3JCOahcfNCcVhiPExusJoZ.jpg", "popularity": 18.532}, {"adult": false, "backdrop_path": "/3amJMLyjx0rDbwhnKNG8d6gzDSV.jpg", "genre_ids": [53, 18], "id": 296098, "original_language": "en", "original_title": "Bridge of Spies", "overview": "During the Cold War, the Soviet Union captures U.S. pilot Francis Gary Powers after shooting down his U-2 spy plane. Sentenced to 10 years in prison, Powers' only hope is New York lawyer James Donovan, recruited by a CIA operative to negotiate his release. Donovan boards a plane to Berlin, hoping to win the young man's freedom through a prisoner exchange. If all goes well, the Russians would get Rudolf Abel, the convicted spy who Donovan defended in court.", "poster_path": "/xPCNA8zJxyyFKTj47QpvkXHukzB.jpg", "release_date": "2015-10-15", "title": "Bridge of Spies", "video": false, "vote_average": 7.2, "vote_count": 4667, "popularity": 20.65}, {"id": 36669, "video": false, "vote_count": 2045, "vote_average": 5.9, "title": "Die Another Day", "release_date": "2002-11-17", "original_language": "en", "original_title": "Die Another Day", "genre_ids": [28, 12, 53], "backdrop_path": "/3YQfmtpbiFCMHcXY3lJ7fGEcOL6.jpg", "adult": false, "overview": "Bond takes on a North Korean leader who undergoes DNA replacement procedures that allow him to assume different identities. American agent, Jinx Johnson assists Bond in his attempt to thwart the villain's plans to exploit a satellite that is powered by solar energy.", "poster_path": "/1iUZqUXS7x5FcGM5J0u01xuObWC.jpg", "popularity": 24.2}, {"adult": false, "backdrop_path": "/9QcYwm5af4JaUSOyuysVEYOyEXn.jpg", "genre_ids": [12, 28, 53], "id": 646, "original_language": "en", "original_title": "Dr. No", "overview": "In the film that launched the James Bond saga, Agent 007 battles mysterious Dr. No, a scientific genius bent on destroying the U.S. space program. As the countdown to disaster begins, Bond must go to Jamaica, where he encounters beautiful Honey Ryder, to confront a megalomaniacal villain in his massive island headquarters.", "poster_path": "/gRdfLVVf6FheOw6mw6wOsKhZG1l.jpg", "release_date": "1962-10-04", "title": "Dr. No", "video": false, "vote_average": 7.0, "vote_count": 1837, "popularity": 31.291}, {"id": 660, "video": false, "vote_count": 1117, "vote_average": 6.7, "title": "Thunderball", "release_date": "1965-12-15", "original_language": "en", "original_title": "Thunderball", "genre_ids": [28, 12, 53], "backdrop_path": "/qd0jrqxFLCKkNruPuJ7zXuQRpKG.jpg", "adult": false, "overview": "A criminal organization has obtained two nuclear bombs and are asking for a 100 million pound ransom in the form of diamonds in seven days or they will use the weapons. The secret service sends James Bond to the Bahamas to once again save the world.", "poster_path": "/sASN1VnJxWosdzp4mH40P47Xhhz.jpg", "popularity": 22.632}, {"id": 37724, "video": false, "vote_count": 11109, "vote_average": 7.1, "title": "Skyfall", "release_date": "2012-10-25", "original_language": "en", "original_title": "Skyfall", "genre_ids": [28, 12, 53], "backdrop_path": "/6bjRujKSnCVSrzC1qjmqfAyaiET.jpg", "adult": false, "overview": "When Bond's latest assignment goes gravely wrong and agents around the world are exposed, MI6 is attacked forcing M to relocate the agency. These events cause her authority and position to be challenged by Gareth Mallory, the new Chairman of the Intelligence and Security Committee. With MI6 now compromised from both inside and out, M is left with one ally she can trust: Bond. 007 takes to the shadows - aided only by field agent, Eve - following a trail to the mysterious Silva, whose lethal and hidden motives have yet to reveal themselves.", "poster_path": "/lQCkPLDxFONmgzrWLvq085v1g2d.jpg", "popularity": 34.013}, {"id": 497698, "video": false, "vote_count": 0, "vote_average": 0.0, "title": "Black Widow", "release_date": "2020-04-24", "original_language": "en", "original_title": "Black Widow", "genre_ids": [28, 12, 53], "backdrop_path": "/dGMpzHn9uNqBysBQ6Sp5xdOgM66.jpg", "adult": false, "overview": "Natasha Romanoff, on the run from the government following her disobedience to the Sokovia Accords and for aiding Steve Rogers, finds herself on her own and is forced to deal with some of the red in her ledger.", "poster_path": "/sRhaJ6D3x6gQB0swrV0UDqMwHJu.jpg", "popularity": 23.191}, {"id": 36955, "video": false, "vote_count": 2202, "vote_average": 6.9, "title": "True Lies", "release_date": "1994-07-15", "original_language": "en", "original_title": "True Lies", "genre_ids": [28, 53], "backdrop_path": "/o2agns0LEqyEUCByMT8ViIOio7r.jpg", "adult": false, "overview": "A fearless, globe-trotting, terrorist-battling secret agent has his life turned upside down when he discovers his wife might be having an affair with a used car salesman while terrorists smuggle nuclear war heads into the United States.", "poster_path": "/mTAHr5h5i64hTLqo0cW2X2083Cx.jpg", "popularity": 25.06}, {"id": 691, "video": false, "vote_count": 939, "vote_average": 6.7, "title": "The Spy Who Loved Me", "release_date": "1977-07-07", "original_language": "en", "original_title": "The Spy Who Loved Me", "genre_ids": [28, 12, 53], "backdrop_path": "/2tCAEhE2rPONBmUOs4W73AlBWYg.jpg", "adult": false, "overview": "Russian and British submarines with nuclear missiles on board both vanish from sight without a trace. England and Russia both blame each other as James Bond tries to solve the riddle of the disappearing ships. But the KGB also has an agent on the case.", "poster_path": "/vYMgDqQDpqHDhz3enGkwBmTs7p7.jpg", "popularity": 16.084}, {"id": 1535, "video": false, "vote_count": 1107, "vote_average": 6.9, "title": "Spy Game", "release_date": "2001-11-18", "original_language": "en", "original_title": "Spy Game", "genre_ids": [28, 80, 53], "backdrop_path": "/ncF0ozvDnIVFzKF0J5iqwEIezRJ.jpg", "adult": false, "overview": "On the day of his retirement, a veteran CIA agent learns that his former prot\u00e9g\u00e9 has been arrested in China, is sentenced to die the next morning in Beijing, and that the CIA is considering letting that happen to avoid an international scandal.", "poster_path": "/hsb8hBeU3tkTX8SUYW6YYw6JPYD.jpg", "popularity": 18.997}, {"id": 238713, "video": false, "vote_count": 4197, "vote_average": 6.8, "title": "Spy", "release_date": "2015-05-06", "original_language": "en", "original_title": "Spy", "genre_ids": [28, 35, 80], "backdrop_path": "/x5F6AIyqCjRMwqmF8NR98kU4VzH.jpg", "adult": false, "overview": "A desk-bound CIA analyst volunteers to go undercover to infiltrate the world of a deadly arms dealer, and prevent diabolical global disaster.", "poster_path": "/gCBw0AQDhlo0bNetkjsSRWzrxpW.jpg", "popularity": 21.09}, {"adult": false, "backdrop_path": "/oS1Ck6sbBnIReyactTdFlFF2Wkh.jpg", "genre_ids": [35, 28, 12], "id": 203801, "original_language": "en", "original_title": "The Man from U.N.C.L.E.", "overview": "At the height of the Cold War, a mysterious criminal organization plans to use nuclear weapons and technology to upset the fragile balance of power between the United States and Soviet Union. CIA agent Napoleon Solo and KGB agent Illya Kuryakin are forced to put aside their hostilities and work together to stop the evildoers in their tracks. The duo's only lead is the daughter of a missing German scientist, whom they must find soon to prevent a global catastrophe.", "poster_path": "/i9P3FU8z2Sd7jYRx6l1Iby0zP0o.jpg", "release_date": "2015-08-13", "title": "The Man from U.N.C.L.E.", "video": false, "vote_average": 7.1, "vote_count": 3844, "popularity": 20.194}, {"id": 47971, "video": false, "vote_count": 2661, "vote_average": 5.6, "title": "xXx: Return of Xander Cage", "release_date": "2017-01-13", "original_language": "en", "original_title": "xXx: Return of Xander Cage", "genre_ids": [28, 12, 80], "backdrop_path": "/zv4acOMTPoplVLKo4FaoqAseSDx.jpg", "adult": false, "overview": "Extreme athlete turned government operative Xander Cage comes out of self-imposed exile, thought to be long dead, and is set on a collision course with deadly alpha warrior Xiang and his team in a race to recover a sinister and seemingly unstoppable weapon known as Pandora's Box. Recruiting an all-new group of thrill-seeking cohorts, Xander finds himself enmeshed in a deadly conspiracy that points to collusion at the highest levels of world governments.", "poster_path": "/yNsdyNbQqaKN0TQxkHMws2KLTJ6.jpg", "popularity": 34.363}, {"id": 206647, "video": false, "vote_count": 7176, "vote_average": 6.4, "title": "Spectre", "release_date": "2015-10-26", "original_language": "en", "original_title": "Spectre", "genre_ids": [28, 12, 80], "backdrop_path": "/wVTYlkKPKrljJfugXN7UlLNjtuJ.jpg", "adult": false, "overview": "A cryptic message from Bond\u2019s past sends him on a trail to uncover a sinister organization. While M battles political forces to keep the secret service alive, Bond peels back the layers of deceit to reveal the terrible truth behind SPECTRE.", "poster_path": "/hE24GYddaxB9MVZl1CaiI86M3kp.jpg", "popularity": 38.086}, {"id": 818, "video": false, "vote_count": 1920, "vote_average": 5.9, "title": "Austin Powers in Goldmember", "release_date": "2002-07-26", "original_language": "en", "original_title": "Austin Powers in Goldmember", "genre_ids": [35, 80, 878], "backdrop_path": "/mzZraP6PV34eVjB8giKbKIMXVeW.jpg", "adult": false, "overview": "The world's most shagadelic spy continues his fight against Dr. Evil. This time, the diabolical doctor and his clone, Mini-Me, team up with a new foe -- '70s kingpin Goldmember. While pursuing the team of villains to stop them from world domination, Austin gets help from his dad and an old girlfriend.", "poster_path": "/tFR7dTbX5BsmoUwKHfa2cWoZbwK.jpg", "popularity": 23.167}], "total_pages": 49, "total_results": 968}, "recommendations": {"page": 1, "results": [], "total_pages": 1, "total_results": 0}, "credits": {"cast": [{"cast_id": 5, "character": "Dimitri Koulov", "credit_id": "52fe4d329251416c9110de75", "gender": 2, "id": 4958, "name": "Henry Fonda", "order": 0, "profile_path": "/6wXWsqSXF3wCsGcwVqiszy6RX9X.jpg"}, {"cast_id": 6, "character": "General Bruce", "credit_id": "52fe4d329251416c9110de79", "gender": 2, "id": 8253, "name": "Robert Ryan", "order": 1, "profile_path": "/xBAWG79UGCkchPPTbONycJiKW2g.jpg"}, {"cast_id": 7, "character": "Perego / Ferrari", "credit_id": "52fe4d329251416c9110de7d", "gender": 2, "id": 12259, "name": "Vittorio Gassman", "order": 2, "profile_path": "/qjSYEX5zQuuJzRvznpFz5Xqfbvv.jpg"}, {"cast_id": 8, "character": "Suzette / Monique", "credit_id": "52fe4d329251416c9110de81", "gender": 1, "id": 6014, "name": "Annie Girardot", "order": 3, "profile_path": "/qNioeFO3GcaIHDT5Mhb8SYMLqC.jpg"}, {"cast_id": 9, "character": "Petchatkin", "credit_id": "52fe4d329251416c9110de85", "gender": 2, "id": 2567, "name": "Peter van Eyck", "order": 4, "profile_path": "/xXkWcMKcFSEiupgII0VMCt942Zz.jpg"}, {"cast_id": 10, "character": "Dupont", "credit_id": "53655f5b0e0a2647d8001be9", "gender": 2, "id": 14246, "name": "Robert Hossein", "order": 5, "profile_path": "/qMRtDMRsuJlS9BSCSYYWYq7Ndzp.jpg"}, {"cast_id": 11, "character": "Laland", "credit_id": "53655f670e0a2647ce001b5c", "gender": 2, "id": 37131, "name": "Bourvil", "order": 6, "profile_path": "/6fX9Tw5NSW5yPTonQ5s4iYdMRKg.jpg"}, {"cast_id": 12, "character": "russischer General", "credit_id": "53655f760e0a2647d1001ad7", "gender": 2, "id": 16310, "name": "Wolfgang Lukschy", "order": 7, "profile_path": "/fhm3MzsXrS8qA2UJfI7Dg15Pdhk.jpg"}, {"cast_id": 13, "character": "Callaghan", "credit_id": "53655f830e0a2647c8001bc3", "gender": 2, "id": 10254, "name": "Mario Adorf", "order": 8, "profile_path": "/dCusK8NWuHzrI3Abf8nDNfe3DfA.jpg"}, {"cast_id": 14, "character": "Sernas", "credit_id": "53655f950e0a2647c8001bc6", "gender": 2, "id": 102026, "name": "Jacques Sernas", "order": 9, "profile_path": "/pGYZy1Fm1L5M2qSXFtHCaWCKlnx.jpg"}, {"cast_id": 15, "character": "Serge", "credit_id": "53655fa50e0a2647c4001b8a", "gender": 2, "id": 9767, "name": "Georges Marchal", "order": 10, "profile_path": "/yTh4yaGnvlfosgwvftiMGJBs0wj.jpg"}, {"cast_id": 16, "character": "russischer Agent", "credit_id": "53655fb30e0a2647d4001a52", "gender": 2, "id": 14277, "name": "Klaus Kinski", "order": 11, "profile_path": "/mpDEwzQ6rtz8jgyGBCcGwbqfKx4.jpg"}], "crew": [{"credit_id": "52fe4d329251416c9110de5f", "department": "Directing", "gender": 2, "id": 9855, "job": "Director", "name": "Terence Young", "profile_path": "/vXufUCM2ybRgYggqxoV5479a03Y.jpg"}, {"credit_id": "52fe4d329251416c9110de6b", "department": "Directing", "gender": 2, "id": 32516, "job": "Director", "name": "Werner Klingler", "profile_path": null}, {"credit_id": "52fe4d329251416c9110de71", "department": "Directing", "gender": 2, "id": 48995, "job": "Director", "name": "Christian-Jaque", "profile_path": "/pxQRaAfnaI7LHCxj9VjMdIHADqf.jpg"}, {"credit_id": "52fe4d329251416c9110de65", "department": "Directing", "gender": 2, "id": 122016, "job": "Director", "name": "Carlo Lizzani", "profile_path": "/ub7mqgWBDwS3B1eGmP9PoOIpy1F.jpg"}]}}