{"adult": false, "backdrop_path": null, "belongs_to_collection": null, "budget": 0, "genres": [{"id": 18, "name": "Drama"}, {"id": 16, "name": "Animation"}, {"id": 14, "name": "Fantasy"}], "homepage": null, "id": 196654, "imdb_id": "tt0140002", "original_language": "en", "original_title": "Dreams of Toyland", "overview": "Arthur Melbourne Cooper's animation showing a boy's dream of his toys coming to life uses a live action framing device for the dream sequence which uses stop motion techniques to animate a child's toys.", "popularity": 1.696, "poster_path": "/t2YteqzlgOg6cFgaIeXCSeUbkIT.jpg", "production_companies": [{"id": 53890, "logo_path": null, "name": "Alpha Trading Company", "origin_country": ""}], "production_countries": [{"iso_3166_1": "GB", "name": "United Kingdom"}], "release_date": "1908-02-24", "revenue": 0, "runtime": 7, "spoken_languages": [{"iso_639_1": "xx", "name": "No Language"}], "status": "Released", "tagline": "", "title": "Dreams of Toyland", "video": false, "vote_average": 6.0, "vote_count": 6, "keywords": {"keywords": [{"id": 1566, "name": "dream"}, {"id": 3030, "name": "nightmare"}, {"id": 4290, "name": "toy"}, {"id": 11097, "name": "part stop motion"}, {"id": 154802, "name": "silent film"}, {"id": 209358, "name": "acab"}]}, "similar": {"page": 1, "results": [{"adult": false, "backdrop_path": "/hm4vpIhBW75bTIDTurq2d4rLZy1.jpg", "genre_ids": [53, 18, 27], "id": 3511, "original_language": "en", "original_title": "The Broken", "overview": "The life of a successful radiologist spirals out of control when she sees the spitting image of herself driving down a London street. While attempting to uncover who the imposter could be, she stumbles into a terrifying mystery that her family and closest friends are somehow involved in, leaving her with no one to trust.", "poster_path": "/nGTUsccLUZhF9Bb5fjvL7KrogvC.jpg", "release_date": "2008-01-18", "title": "The Broken", "video": false, "vote_average": 5.5, "vote_count": 113, "popularity": 10.122}, {"id": 258230, "video": false, "vote_count": 2101, "vote_average": 7.2, "title": "A Monster Calls", "release_date": "2016-10-07", "original_language": "en", "original_title": "A Monster Calls", "genre_ids": [18, 14], "backdrop_path": "/xVW8REyVqKwxAtUYY07UGlZH43L.jpg", "adult": false, "overview": "A boy imagines a monster that helps him deal with his difficult life and see the world in a different way.", "poster_path": "/oqZ0MBWxNrArZpyVqk3QGAA37QL.jpg", "popularity": 18.303}, {"id": 81188, "video": false, "vote_count": 4115, "vote_average": 7.3, "title": "Rise of the Guardians", "release_date": "2012-11-21", "original_language": "en", "original_title": "Rise of the Guardians", "genre_ids": [28, 12, 16, 14, 10751], "backdrop_path": "/uLAzeXooxaCJvxltbEqZQHLxniP.jpg", "adult": false, "overview": "When an evil spirit known as Pitch lays down the gauntlet to take over the world, the immortal Guardians must join forces for the first time to protect the hopes, beliefs and imagination of children all over the world.", "poster_path": "/sIZr3pWcnLTjMkOaTkBrV967lTK.jpg", "popularity": 27.86}, {"adult": false, "backdrop_path": "/ukaTVB2RFnZ6OeqoCSfltX1qOBN.jpg", "genre_ids": [14, 27, 53], "id": 10836, "original_language": "en", "original_title": "Dagon", "overview": "A boating accident off the coast of Spain sends Paul and his girlfriend Barbara to the decrepit fishing village of Imboca. As night falls, people start to disappear and things not quite human start to appear. Paul is pursued by the entire town. Running for his life, he uncovers Imboca's secret..they worship Dagon, a monstrous god of the sea...and Dagon's unholy offspring are on the loose...", "poster_path": "/8S648eMKObi8ERFS7cSYDocxSaZ.jpg", "release_date": "2001-10-12", "title": "Dagon", "video": false, "vote_average": 6.3, "vote_count": 147, "popularity": 11.939}, {"id": 11360, "video": false, "vote_count": 3005, "vote_average": 6.9, "title": "Dumbo", "release_date": "1941-10-22", "original_language": "en", "original_title": "Dumbo", "genre_ids": [16, 10751], "backdrop_path": "/sa5vHfu5n4NFqZbVf2hzqGr6bim.jpg", "adult": false, "overview": "Dumbo is a baby elephant born with over-sized ears and a supreme lack of confidence. But thanks to his even more diminutive buddy Timothy the Mouse,  the pint-sized pachyderm learns to surmount all obstacles.", "poster_path": "/hKDdllslMtsU9JixAv5HR9biXlp.jpg", "popularity": 24.294}, {"adult": false, "backdrop_path": "/5UhVmv70qTfy7YSf8r87kNXWxjK.jpg", "genre_ids": [18, 53, 9648], "id": 638, "original_language": "en", "original_title": "Lost Highway", "overview": "A tormented jazz musician finds himself lost in an enigmatic story involving murder, surveillance, gangsters, doppelgangers, and an impossible transformation inside a prison cell.", "poster_path": "/z6yhgEzGUJaBBgAxoyggRzwLnVM.jpg", "release_date": "1997-01-15", "title": "Lost Highway", "video": false, "vote_average": 7.6, "vote_count": 1279, "popularity": 17.633}, {"adult": false, "backdrop_path": "/twGxeStlGooWV3gP6ZIcSNuQ6jf.jpg", "genre_ids": [12, 16, 10751, 14], "id": 81684, "original_language": "en", "original_title": "The Gruffalo's Child", "overview": "A follow up to the 2009 animated feature and adapted from the childrens' book by Julia Donaldson and Alex Scheffler.  The Gruffalo's child explores the deep dark wood in search of the big bad mouse and meets the Snake, Owl and Fox in the process.  She eventually finds the mouse, who manages to outwit her like the Gruffalo before!", "poster_path": "/qaGH2AoaLvoGXURQtNzj1nw6oZd.jpg", "release_date": "2011-12-25", "title": "The Gruffalo's Child", "video": false, "vote_average": 6.9, "vote_count": 73, "popularity": 9.51}, {"id": 1903, "video": false, "vote_count": 2237, "vote_average": 6.8, "title": "Vanilla Sky", "release_date": "2001-12-10", "original_language": "en", "original_title": "Vanilla Sky", "genre_ids": [18, 14, 878, 53, 10749], "backdrop_path": "/6XwX3HzKhlBUbTy2qZx0THQOu2T.jpg", "adult": false, "overview": "David Aames has it all: wealth, good looks and gorgeous women on his arm. But just as he begins falling for the warmhearted Sofia, his face is horribly disfigured in a car accident. That's just the beginning of his troubles as the lines between illusion and reality, between life and death, are blurred.", "poster_path": "/ujMy9P4VczTW9YSpAM31uqdOMpz.jpg", "popularity": 16.046}, {"id": 377, "video": false, "vote_count": 2763, "vote_average": 7.3, "title": "A Nightmare on Elm Street", "release_date": "1984-11-14", "original_language": "en", "original_title": "A Nightmare on Elm Street", "genre_ids": [27], "backdrop_path": "/67qMLI58HmQ5ArBsTVBxG4KHuRJ.jpg", "adult": false, "overview": "Teenagers in a small town are dropping like flies, apparently in the grip of mass hysteria causing their suicides. A cop's daughter, Nancy Thompson, traces the cause to child molester Fred Krueger, who was burned alive by angry parents many years before. Krueger has now come back in the dreams of his killers' children, claiming their lives as his revenge. Nancy and her boyfriend, Glen, must devise a plan to lure the monster out of the realm of nightmares and into the real world...", "poster_path": "/sXFlyjfWv544uKOJmPd2vVsaFm9.jpg", "popularity": 18.151}, {"id": 10014, "video": false, "vote_count": 874, "vote_average": 5.8, "title": "A Nightmare on Elm Street Part 2: Freddy's Revenge", "release_date": "1985-10-31", "original_language": "en", "original_title": "A Nightmare on Elm Street Part 2: Freddy's Revenge", "genre_ids": [27], "backdrop_path": "/tJTrNDt1242xe4zlatlZfDMvWjg.jpg", "adult": false, "overview": "A new family moves into the house on Elm Street, and before long, the kids are again having nightmares about deceased child murderer Freddy Krueger. This time, Freddy attempts to possess a teenage boy to cause havoc in the real world, and can only be overcome if the boy's sweetheart can master her fear.", "poster_path": "/seEMZxo6bhHWbWPNcBQfsMAk39F.jpg", "popularity": 16.661}, {"id": 11596, "video": false, "vote_count": 684, "vote_average": 6.4, "title": "New Nightmare", "release_date": "1994-10-13", "original_language": "en", "original_title": "New Nightmare", "genre_ids": [14, 27, 9648, 53], "backdrop_path": "/bFdZFVHMn6stFWr4c08OTJDZHcG.jpg", "adult": false, "overview": "In this meta horror film, a demonic entity uses the fictional character of Freddy Krueger to enter the real world and torment \"Elm Street\" heroine Heather Langenkamp and her family.", "poster_path": "/oLEZibnraixTE68rTaYv4FEmvYd.jpg", "popularity": 14.971}, {"id": 626, "video": false, "vote_count": 636, "vote_average": 7.5, "title": "Un Chien Andalou", "release_date": "1929-06-05", "original_language": "fr", "original_title": "Un chien andalou", "genre_ids": [18, 14, 27], "backdrop_path": "/5XUmngHuhc41kMwv7ZeRWaplcBl.jpg", "adult": false, "overview": "Un Chien Andalou is a classic European avant-garde surrealist film from the cooperation of director Luis Bu\u00f1uel and Salvador Dali. The film changed the way people made movies. Most famous is the scene of a woman\u2019s eye being cut with a knife.", "poster_path": "/r4OfwC3AcDJqqBg3ayD0w5KWKdV.jpg", "popularity": 10.496}, {"id": 10072, "video": false, "vote_count": 858, "vote_average": 6.6, "title": "A Nightmare on Elm Street 3: Dream Warriors", "release_date": "1987-02-27", "original_language": "en", "original_title": "A Nightmare on Elm Street 3: Dream Warriors", "genre_ids": [27, 53], "backdrop_path": "/lNrbMhjhAQK9Hf4Nww7GoBezCMA.jpg", "adult": false, "overview": "It's been many years since Freddy Krueger's first victim, Nancy, came face-to-face with Freddy and his sadistic, evil ways. Now, Nancy's all grown up; she's put her frightening nightmares behind her and is helping teens cope with their dreams. Too bad Freddy's decided to herald his return by invading the kids' dreams and scaring them into committing suicide.", "poster_path": "/4aMSIhvShIkDrhOsa0WL6KFwnpD.jpg", "popularity": 21.918}, {"adult": false, "backdrop_path": "/atDDJBJ9eUeXbySh6wFbUBIQlQ1.jpg", "genre_ids": [27, 53, 35], "id": 11284, "original_language": "en", "original_title": "Freddy's Dead: The Final Nightmare", "overview": "Just when you thought it was safe to sleep, Freddy Krueger returns in this sixth installment of the Nightmare on Elm Street films, as psychologist Maggie Burroughs, tormented by recurring nightmares, meets a patient with the same horrific dreams. Their quest for answers leads to a certain house on Elm Street -- where the nightmares become reality.", "poster_path": "/m4IFNmheHcjbLsVWbUq9TIpWL5S.jpg", "release_date": "1991-09-05", "title": "Freddy's Dead: The Final Nightmare", "video": false, "vote_average": 5.2, "vote_count": 628, "popularity": 15.132}, {"adult": false, "backdrop_path": "/lBIU50ihAcSJtxrayTv1CmyP7r0.jpg", "genre_ids": [16, 10751, 10770, 12, 35, 14], "id": 256835, "original_language": "en", "original_title": "Toy Story That Time Forgot", "overview": "During a post-Christmas play date, the gang find themselves in uncharted territory when the coolest set of action figures ever turn out to be dangerously delusional. It's all up to Trixie, the triceratops, if the gang hopes to return to Bonnie's room in this Toy Story That Time Forgot.", "poster_path": "/bxLjTD2FutUHjIIULCW7DU8rVoH.jpg", "release_date": "2014-12-02", "title": "Toy Story That Time Forgot", "video": false, "vote_average": 6.8, "vote_count": 502, "popularity": 14.253}, {"adult": false, "backdrop_path": "/hPByrqJXCXIViFheXQh48wtI7T6.jpg", "genre_ids": [16, 12, 14, 10751], "id": 31135, "original_language": "en", "original_title": "Mickey Mouse: Mickey and the Beanstalk", "overview": "Based on the timeless adventures of \"Jack and the Beanstalk,\" Mickey, Donald and Goofy climb a fantastic beanstalk up into the sky to a place where everything is huge -- the food, the castle and the fearsome giant named Willy who guards a beautiful golden harp! Will Mickey and his friends outwit the giant and make it safely back home?", "poster_path": "/kk1Xg1f1lv6loekjlKinpKJlGOu.jpg", "release_date": "1947-09-27", "title": "Mickey Mouse: Mickey and the Beanstalk", "video": false, "vote_average": 6.7, "vote_count": 166, "popularity": 13.649}, {"adult": false, "backdrop_path": "/2CR4OT6Ou4axUfThbJ6sbnMGWWm.jpg", "genre_ids": [12, 14, 878], "id": 775, "original_language": "fr", "original_title": "Le Voyage dans la Lune", "overview": "Professor Barbenfouillis and five of his colleagues from the Academy of Astronomy travel to the Moon aboard a rocket propelled by a giant cannon. Once on the lunar surface, the bold explorers face the many perils hidden in the caves of the mysterious satellite.", "poster_path": "/zztHYAfSecYuaDyIjQudjKaOLLY.jpg", "release_date": "1902-09-01", "title": "A Trip to the Moon", "video": false, "vote_average": 8.0, "vote_count": 822, "popularity": 12.649}, {"adult": false, "backdrop_path": "/wdMq7F5Cr1DGg8ioNPZvWxqQer4.jpg", "genre_ids": [878, 14], "id": 76535, "original_language": "en", "original_title": "Marvel One-Shot: A Funny Thing Happened on the Way to Thor's Hammer", "overview": "Agent Coulson stops at a convenience store and deals with a coincidental robbery during his visit.", "poster_path": "/5uGaqAnt0RQ87uKy8UlRDNrL2jY.jpg", "release_date": "2011-10-25", "title": "Marvel One-Shot: A Funny Thing Happened on the Way to Thor's Hammer", "video": false, "vote_average": 7.1, "vote_count": 181, "popularity": 11.889}, {"id": 301804, "video": false, "vote_count": 1043, "vote_average": 6.4, "title": "Before I Wake", "release_date": "2016-04-07", "original_language": "en", "original_title": "Before I Wake", "genre_ids": [18, 14, 27, 53], "backdrop_path": "/cUp2lfjeE6HopMUirgJHwMh8W7G.jpg", "adult": false, "overview": "An orphaned child's dreams\u2014and nightmares\u2014manifest physically as he sleeps.", "poster_path": "/sI9neTbF3ECdpf2MpC88EMGJH13.jpg", "popularity": 8.352}, {"id": 2046, "video": false, "vote_count": 613, "vote_average": 6.5, "title": "The Gift", "release_date": "2000-12-22", "original_language": "en", "original_title": "The Gift", "genre_ids": [18, 27, 9648, 53], "backdrop_path": "/17DPnjwKCVZKWwHAtGUt6XeO1MB.jpg", "adult": false, "overview": "When a local woman disappears and the police can't seem to find any leads, her father turns to a poor young woman with psychic powers. Slowly she starts having visions of the woman chained and in a pond. Her visions lead to the body and the arrest of an abusive husband, but did he really do it?", "poster_path": "/mC66QbJk1PbUrVMu3kh14adLpQl.jpg", "popularity": 16.416}], "total_pages": 109, "total_results": 2164}, "recommendations": {"page": 1, "results": [{"adult": false, "backdrop_path": null, "genre_ids": [35], "id": 142042, "original_language": "fr", "original_title": "Par le trou de la serrure", "overview": "As a janitor is cleaning a hotel, he decides to peek through the keyholes to observe some of the guests in their rooms. In room 8, a woman is busy making herself look more attractive, and the janitor enjoys watching her. There are also some interesting things going on in the other rooms on the floor.", "poster_path": "/vwaxFQ37FZyNvQFHy7xanbnMGKB.jpg", "release_date": "1901-08-01", "title": "What Is Seen Through a Keyhole", "video": false, "vote_average": 5.8, "vote_count": 8, "popularity": 0.6}, {"adult": false, "backdrop_path": null, "genre_ids": [14, 35], "id": 119958, "original_language": "fr", "original_title": "Sc\u00e8ne d'escamotage", "overview": "An illusionist makes a woman disappear in thin air.", "poster_path": "/4BPENdgYy0HYcp8Uob5drokMUk1.jpg", "release_date": "1898-01-01", "title": "Disappearing Act", "video": false, "vote_average": 4.6, "vote_count": 6, "popularity": 0.954}, {"adult": false, "backdrop_path": null, "genre_ids": [99], "id": 312762, "original_language": "fr", "original_title": "Tourou et Bitti: Les tambours d'avant", "overview": "\"Tourou et Bitti\", an eight minute documentary concerning a ritual in Niger, is yet another example of Rouch's excellence in creating documentaries which surpass the conventional documentary format. Just as frightening and fascinating as \"Les ma\u00eetres fous\", this one goes straight into the roots of ancient African cultures, in which music has an hypnotic effect, being at the same time an exorcism and a public show. Both the female and the male dancers are almost deities about to be unleashed... Spectral and humanitarian.", "poster_path": "/6L9kc1vZkPVZsvO53V6R2Ubvbcr.jpg", "release_date": "1971-01-01", "title": "The Drums of the Past", "video": false, "vote_average": 5.7, "vote_count": 3, "popularity": 0.701}, {"adult": false, "backdrop_path": null, "genre_ids": [18, 16, 10752, 35], "id": 243244, "original_language": "sh", "original_title": "Igra", "overview": "In this child's game, a live-action boy and girl draw characters and compete who is better. The girl draws a flower and the boy draws a car that runs it over. Then a drawn lion chases a drawn girl, until it all becomes frightfully serious.", "poster_path": "/oFFBa3wmz3bcoWHRRpgYROcnIWy.jpg", "release_date": "1962-01-01", "title": "The Game", "video": false, "vote_average": 6.2, "vote_count": 5, "popularity": 1.587}, {"adult": false, "backdrop_path": null, "genre_ids": [16], "id": 184402, "original_language": "de", "original_title": "Opus IV", "overview": "An abstract animation by Walter Ruttmann.", "poster_path": "/mF7L0KIt3i8L5vpN2uLhyNlcvyM.jpg", "release_date": "1925-04-09", "title": "Opus IV", "video": false, "vote_average": 6.2, "vote_count": 9, "popularity": 1.986}, {"adult": false, "backdrop_path": "/amm4fPLPN9UVdKpYgq4pVvil6qr.jpg", "genre_ids": [18], "id": 105582, "original_language": "ja", "original_title": "Ako", "overview": "A day in the life of Ako, a 16 year old Japanese girl, and her friends and co-workers. An alarm clock wakes her in a dorm; she gets ready for work and travels to a large bakery. We see her with friends, chatting and laughing, as well as working. They go out, seven of them jammed in an old Pontiac: bowling, then to an amusement park, then driving around. Car trouble may put her at risk. Is she going to be okay?", "poster_path": "/ceZuvg7A03pGqEwOagbA2ng19LQ.jpg", "release_date": "1965-01-01", "title": "Ako", "video": false, "vote_average": 7.1, "vote_count": 8, "popularity": 2.118}, {"adult": false, "backdrop_path": null, "genre_ids": [9648, 16, 27], "id": 19034, "original_language": "cs", "original_title": "Z\u00e1nik domu Usher\u016f", "overview": "In this animated version of Edgar Allan Poe's story, a traveller arrives at the Usher mansion to find that the sibling inhabitants are living under a mysterious family curse: The brother's senses have become painfully acute, while his sister has become nearly catatonic.", "poster_path": null, "release_date": "1980-01-01", "title": "The Fall of the House of Usher", "video": false, "vote_average": 6.1, "vote_count": 8, "popularity": 2.114}, {"adult": false, "backdrop_path": null, "genre_ids": [16], "id": 280003, "original_language": "cs", "original_title": "Diskjockey", "overview": "An alarm clock wakes a man who washes his face, has breakfast, drives his car to work, spins records, returns home, and takes his pills. It's a world of circles - often seen from above: an espresso cup, a stairwell, the pills, and the records spinning. At the dance where the music plays, the rhythms evoke images of a butcher slicing head cheese, gears driving other wheels and levers, a combine churning out bales of hay, a butcher cutting chunks of meat for a stew, and boxers punching. The circle of music and life.", "poster_path": "/8vFDcCmYSP87Y2CvIy4lp4eQ7T3.jpg", "release_date": "1980-01-01", "title": "Disc Jockey", "video": false, "vote_average": 6.2, "vote_count": 6, "popularity": 0.889}, {"adult": false, "backdrop_path": "/yRp9HLtPIhupan1Dnopk4naHjZL.jpg", "genre_ids": [35, 18], "id": 85016, "original_language": "ja", "original_title": "\u6c5f \u5206 \u5229 \u6e80 \u6c0f \u306e \u512a\u96c5 \u306a \u751f\u6d3b", "overview": "A salaryman's drunken ravings in public attract the attention of journalists who coerce him into telling them his life's story.", "poster_path": "/4lijmjljHK6AQie88sx6Zu367ZK.jpg", "release_date": "1963-11-16", "title": "The Elegant Life of Mr. Everyman", "video": false, "vote_average": 6.2, "vote_count": 5, "popularity": 1.435}, {"adult": false, "backdrop_path": null, "genre_ids": [99], "id": 153173, "original_language": "nl", "original_title": "Philips-Radio", "overview": "An industrial film which shows the operations inside the Philips Radio plant: In a m\u00eal\u00e9e of activity, glassblowers make delicate glass bulbs. Machinery assists the bulb manufacture. A virtuoso glassblower begins a more complex tube used in radio broadcasting; it is then turned, fired, and sculpted. Conveyors carry partially completed units. Workers perform their various specific assembly-line tasks. Cases are manufactured and machined, wire harnesses are assembled, loudspeakers are produced. As radios near completion, they are run through a series of tests. Engineers and draughtsmen define future developments. In a closing stop-motion sequence, in a style reminiscent of Norman McLaren, a group of loudspeakers performs a playful dance. The film overall is a poetic depiction of an industrial process.", "poster_path": "/4mNVqZeOWV0VcRlqCxXQlows3fL.jpg", "release_date": "1931-08-27", "title": "Philips-Radio", "video": false, "vote_average": 6.5, "vote_count": 8, "popularity": 0.636}, {"adult": false, "backdrop_path": null, "genre_ids": [99], "id": 183714, "original_language": "ru", "original_title": "\u0417\u0435\u043c\u043b\u044f \u043b\u044e\u0434\u0435\u0439", "overview": "This is the subject of ongoing discovery of the beauty of the world, that man makes in his life and in his work, which is being developed as part of a big city, presented during a day's work. This film starts and ends with the rotating image of the sculpture of Rodin the Thinker; this famous sculpture has long since become the symbol of the unchanging expression of human thought.", "poster_path": "/nnxYkAUOonK9dk7TjFjM2jbAs6X.jpg", "release_date": "1966-01-04", "title": "The Land of the People", "video": false, "vote_average": 6.8, "vote_count": 8, "popularity": 1.448}, {"adult": false, "backdrop_path": "/5UPvvw5GaumbYx8I7lfOIpPLb5r.jpg", "genre_ids": [], "id": 265422, "original_language": "en", "original_title": "Pas \u00e0 deux", "overview": "An animated short film of dancers from Monique Renault and Gerrit van Dijk.", "poster_path": "/nTFBd1cYulKvCqaIvXTPhvlHG82.jpg", "release_date": "1988-12-31", "title": "Pas \u00e0 deux", "video": false, "vote_average": 6.0, "vote_count": 4, "popularity": 1.353}, {"id": 190305, "video": false, "vote_count": 8, "vote_average": 5.8, "title": "Skyscraper Symphony", "release_date": "1929-04-30", "original_language": "en", "original_title": "Skyscraper Symphony", "genre_ids": [99], "backdrop_path": null, "adult": false, "overview": "A montage of the skyscrapers of Manhattan opens with a succession of stationary views of the upper portions of numerous buildings. This is followed by a wide variety of fluid shots, which also begin to show more and more of the surrounding city, in addition to the skyscrapers themselves.", "poster_path": "/eiBkaxR5psPXrZtX25ZabRaMrON.jpg", "popularity": 1.35}, {"adult": false, "backdrop_path": null, "genre_ids": [27, 35, 16, 9648], "id": 150531, "original_language": "en", "original_title": "There It Is", "overview": "When a mysterious figure appears to cause a series of disruptions at the Frisbie Home in New York, word goes out to Scotland Yard that the Fuzz-Faced Phantom is at work. Soon, Charley MacNeesha and his assistant MacGregor are sent across the ocean to investigate. But even as they arrive at the home, a new series of weird events begins.", "poster_path": "/jDydMOYTPHsPQRND7VzgLLCic6I.jpg", "release_date": "1928-01-01", "title": "There It Is", "video": false, "vote_average": 5.9, "vote_count": 8, "popularity": 2.595}, {"adult": false, "backdrop_path": null, "genre_ids": [16], "id": 331489, "original_language": "pl", "original_title": "Nowa Ksiazka", "overview": "Short film by Zbig Rybczy\u0144ski.", "poster_path": "/bQyxexRSuZiac0UmTp6q1Pgv1XA.jpg", "release_date": "1975-06-30", "title": "New Book", "video": false, "vote_average": 6.2, "vote_count": 5, "popularity": 1.61}, {"adult": false, "backdrop_path": null, "genre_ids": [99], "id": 183005, "original_language": "en", "original_title": "The 400 Million", "overview": "The 400 million people of China are heirs to a great civilization, as their pagodas and stone lions can attest. But they are under attack from the Japanese. Civilian refugees walk, stumble, crawl to escape the destruction of their cities... While in the China of tradition, water buffalo still work the paddies and camels cross the desert, modern China is now a republic founded by Dr. Sun Yat-sen, with modern schools, heavy industry, large engineering projects... The government of Chiang Kai-shek resists the Japanese invasion from the coast. Madame Chiang receives a cheque from the U.S.A. for war relief. War production continues in distant villages safe from the grasp of the Japanese. With modern weapons the Chinese are pursuing their struggle behind enemy lines. And still their opponent persists in his reprisal bombings of civilian targets. \"Will these people win?\"", "poster_path": "/1sdgRfoj9R3ypGSvEUSRX2JEzjL.jpg", "release_date": "1939-03-07", "title": "The 400 Million", "video": false, "vote_average": 6.3, "vote_count": 4, "popularity": 1.96}, {"id": 85797, "video": false, "vote_count": 5, "vote_average": 6.2, "title": "Mermaid", "release_date": "1964-09-21", "original_language": "ja", "original_title": "Ningyo", "genre_ids": [16], "backdrop_path": "/6lzbzWqfUzpugkTemzD7FfGVq7X.jpg", "adult": false, "overview": "No overview found.", "poster_path": "/3Y6Gkc5w7PHMxcMo4AF6q3vl3MV.jpg", "popularity": 1.304}, {"adult": false, "backdrop_path": null, "genre_ids": [], "id": 386435, "original_language": "xx", "original_title": "Esperalia", "overview": "", "poster_path": null, "release_date": "1983-01-01", "title": "Esperalia", "video": false, "vote_average": 6.0, "vote_count": 4, "popularity": 0.977}, {"adult": false, "backdrop_path": null, "genre_ids": [99], "id": 183725, "original_language": "hy", "original_title": "Menq", "overview": "Monumental picture exploring the identity and fate of the Armenian nation.", "poster_path": "/neuwUEqldWrGvono8woP1SgbYSu.jpg", "release_date": "1969-02-01", "title": "We", "video": false, "vote_average": 6.6, "vote_count": 13, "popularity": 0.811}, {"id": 118497, "video": false, "vote_count": 10, "vote_average": 7.4, "title": "Carriage to Vienna", "release_date": "1966-11-11", "original_language": "cs", "original_title": "Ko\u010d\u00e1r do V\u00eddn\u011b", "genre_ids": [18, 10752], "backdrop_path": "/oQpN9xKLSHF4KKWIafJ4OFhWkjE.jpg", "adult": false, "overview": "A WW2 story of a young Austrian soldier running from the Russian army and a woman whom he forces to come along in order to save his wounded mate.", "poster_path": "/1jmcbS1FplzBUVv8UX8kB1bsVw.jpg", "popularity": 1.752}], "total_pages": 2, "total_results": 40}, "credits": {"cast": [], "crew": [{"credit_id": "52fe4d369251416c9110e6ab", "department": "Directing", "gender": 0, "id": 1175868, "job": "Director", "name": "Arthur Melbourne Cooper", "profile_path": null}]}}