{"adult": false, "backdrop_path": "/g0vxbWAkB1ueyZQ0D7NcS5Ep01n.jpg", "belongs_to_collection": null, "budget": 0, "genres": [{"id": 80, "name": "Crime"}, {"id": 18, "name": "Drama"}], "homepage": "http://worldcinemafoundation.org/films/law-of-the-border", "id": 197297, "imdb_id": "tt0261739", "original_language": "tr", "original_title": "Hudutlar\u0131n Kanunu", "overview": "In order to keep his ailing son alive, an impoverished man agrees to sneak a herd of sheep across the border.", "popularity": 1.922, "poster_path": "/uowNuk7qobJiMCqf6sA6c9t462A.jpg", "production_companies": [{"id": 14656, "logo_path": null, "name": "Dada\u015f Film", "origin_country": ""}], "production_countries": [{"iso_3166_1": "TR", "name": "Turkey"}], "release_date": "1966-10-04", "revenue": 0, "runtime": 71, "spoken_languages": [{"iso_639_1": "tr", "name": "T\u00fcrk\u00e7e"}], "status": "Released", "tagline": "", "title": "Law of the Border", "video": false, "vote_average": 6.3, "vote_count": 10, "keywords": {"keywords": [{"id": 3020, "name": "sheep"}, {"id": 5733, "name": "turkey"}, {"id": 6212, "name": "smuggling"}, {"id": 209094, "name": "feudality"}]}, "similar": {"page": 1, "results": [{"adult": false, "backdrop_path": "/jdGHRopcOEPDRQVfvuIv4BkxUgw.jpg", "genre_ids": [10751, 16, 35, 12], "id": 263109, "original_language": "en", "original_title": "Shaun the Sheep Movie", "overview": "When Shaun decides to take the day off and have some fun, he gets a little more action than he bargained for. A mix up with the Farmer, a caravan and a very steep hill lead them all to the Big City and it's up to Shaun and the flock to return everyone safely to the green grass of home.", "poster_path": "/aOHsNN1p2nuiF9WaMaCNXy0T80J.jpg", "release_date": "2015-02-05", "title": "Shaun the Sheep Movie", "video": false, "vote_average": 6.9, "vote_count": 792, "popularity": 14.405}, {"id": 9598, "video": false, "vote_count": 1736, "vote_average": 6.1, "title": "Babe", "release_date": "1995-07-18", "original_language": "en", "original_title": "Babe", "genre_ids": [35, 18, 14, 10751], "backdrop_path": "/67jzzA7YqDTR5qIUhAH32cvkf53.jpg", "adult": false, "overview": "Babe is a little pig who doesn't quite know his place in the world. With a bunch of odd friends, like Ferdinand the duck who thinks he is a rooster and Fly the dog he calls mom, Babe realizes that he has the makings to become the greatest sheep pig of all time, and Farmer Hogget knows it. With the help of the sheep dogs Babe learns that a pig can be anything that he wants to be.", "poster_path": "/k42J5jYjvw1DEGBQP63VYYvteY7.jpg", "popularity": 12.588}, {"id": 308266, "video": false, "vote_count": 2676, "vote_average": 6.8, "title": "War Dogs", "release_date": "2016-08-17", "original_language": "en", "original_title": "War Dogs", "genre_ids": [35, 80, 18], "backdrop_path": "/15ruj2IGZqXXQCgln4Do8WPeAIr.jpg", "adult": false, "overview": "Based on the true story of two young men, David Packouz and Efraim Diveroli, who won a $300 million contract from the Pentagon to arm America's allies in Afghanistan.", "poster_path": "/wJXku1YhMKeuzYNEHux7XtaYPsE.jpg", "popularity": 18.007}, {"id": 82675, "video": false, "vote_count": 4355, "vote_average": 6.2, "title": "Taken 2", "release_date": "2012-09-27", "original_language": "en", "original_title": "Taken 2", "genre_ids": [28, 80, 53], "backdrop_path": "/uLQjXZq6307jTgcACnhOeh5mCK2.jpg", "adult": false, "overview": "In Istanbul, retired CIA operative Bryan Mills and his wife are taken hostage by the father of a kidnapper Mills killed while rescuing his daughter.", "poster_path": "/rDX2zd9aVMJnBmlS8efwOYsi76R.jpg", "popularity": 18.364}, {"adult": false, "backdrop_path": "/9VgOCnaG4GY1zzz8QYvtPu8msNs.jpg", "genre_ids": [28, 80, 18], "id": 7220, "original_language": "en", "original_title": "The Punisher", "overview": "When undercover FBI agent Frank Castle's wife and son are slaughtered, he becomes 'the Punisher' -- a ruthless vigilante willing to go to any length to avenge his family.", "poster_path": "/qLeje0AueCpJBDW7pmg4Gv7cO1h.jpg", "release_date": "2004-04-15", "title": "The Punisher", "video": false, "vote_average": 6.2, "vote_count": 1528, "popularity": 19.254}, {"id": 269149, "video": false, "vote_count": 10912, "vote_average": 7.7, "title": "Zootopia", "release_date": "2016-02-11", "original_language": "en", "original_title": "Zootopia", "genre_ids": [12, 16, 35, 10751], "backdrop_path": "/mhdeE1yShHTaDbJVdWyTlzFvNkr.jpg", "adult": false, "overview": "Determined to prove herself, Officer Judy Hopps, the first bunny on Zootopia's police force, jumps at the chance to crack her first case - even if it means partnering with scam-artist fox Nick Wilde to solve the mystery.", "poster_path": "/sM33SANp9z6rXW8Itn7NnG1GOEs.jpg", "popularity": 51.293}, {"id": 681, "video": false, "vote_count": 1040, "vote_average": 6.4, "title": "Diamonds Are Forever", "release_date": "1971-12-13", "original_language": "en", "original_title": "Diamonds Are Forever", "genre_ids": [28, 12, 53], "backdrop_path": "/gIGLXXvsljHK1jdDNaIXsjhZnnH.jpg", "adult": false, "overview": "Diamonds are stolen only to be sold again in the international market. James Bond infiltrates a smuggling mission to find out who\u2019s guilty. The mission takes him to Las Vegas where Bond meets his archenemy Blofeld.", "poster_path": "/viPjZ3JCOahcfNCcVhiPExusJoZ.jpg", "popularity": 18.532}, {"id": 12481, "video": false, "vote_count": 320, "vote_average": 7.3, "title": "The Big Boss", "release_date": "1971-10-02", "original_language": "zh", "original_title": "\u5510\u5c71\u5927\u5144", "genre_ids": [28], "backdrop_path": "/tzmHdegHSKVUwnJYvdMiolAWnWO.jpg", "adult": false, "overview": "Chen is a city boy who moves with his cousins to work at an ice factory. He does this with a family promise never to get involved in any fight. However, when members of his family begin disappearing after meeting the management of the factory, the resulting mystery and pressures force him to break that vow and take on the villainy of the Big Boss.", "poster_path": "/txmbBHN45wqWn4qrT9MPlDhuJCA.jpg", "popularity": 20.48}, {"adult": false, "backdrop_path": "/46y6EvnDveRFwtztyHVS0y2DipU.jpg", "genre_ids": [18, 53, 28], "id": 1372, "original_language": "en", "original_title": "Blood Diamond", "overview": "An ex-mercenary turned smuggler. A Mende fisherman. Amid the explosive civil war overtaking 1999 Sierra Leone, these men join for two desperate missions: recovering a rare pink diamond of immense value and rescuing the fisherman's son conscripted as a child soldier into the brutal rebel forces ripping a swath of torture and bloodshed countrywide.", "poster_path": "/wRamTzV6udKaMXrspxqOuo02zk0.jpg", "release_date": "2006-12-07", "title": "Blood Diamond", "video": false, "vote_average": 7.5, "vote_count": 4327, "popularity": 16.586}, {"id": 90, "video": false, "vote_count": 2118, "vote_average": 7.1, "title": "Beverly Hills Cop", "release_date": "1984-11-29", "original_language": "en", "original_title": "Beverly Hills Cop", "genre_ids": [28, 35, 80], "backdrop_path": "/gmV4lsRAAtgdTysO3FwTxN8wevb.jpg", "adult": false, "overview": "Tough-talking Detroit cop Axel Foley heads to the rarified world of Beverly Hills in his beat-up Chevy Nova to investigate a friend's murder, but soon realizes he's stumbled onto something much more complicated. Bungling rookie detective, Billy Rosewood joins the fish-out-of-water Axel and shows him the West Los Angeles ropes.", "poster_path": "/eEm00B2qO4j4gGH9PDg8dHvyApD.jpg", "popularity": 26.934}, {"id": 10876, "video": false, "vote_count": 279, "vote_average": 7.0, "title": "Quills", "release_date": "2000-11-22", "original_language": "en", "original_title": "Quills", "genre_ids": [18], "backdrop_path": "/1VDVlHWlMipUwbsGKot8qJr640G.jpg", "adult": false, "overview": "A nobleman with a literary flair, the Marquis de Sade lives in a madhouse where a beautiful laundry maid smuggles his erotic stories to a printer, defying orders from the asylum's resident priest. The titillating passages whip all of France into a sexual frenzy, until a fiercely conservative doctor tries to put an end to the fun.", "poster_path": "/4fz5LDFsapXDJVLsy2jh5VPZtR0.jpg", "popularity": 14.995}, {"id": 11006, "video": false, "vote_count": 360, "vote_average": 6.8, "title": "Smokey and the Bandit", "release_date": "1977-05-26", "original_language": "en", "original_title": "Smokey and the Bandit", "genre_ids": [28, 12, 35], "backdrop_path": "/hzjX8eA4u7tGz4d4kjTnsW4RNWK.jpg", "adult": false, "overview": "A race car driver tries to transport an illegal beer shipment from Texas to Atlanta in under 28 hours, picking up a reluctant bride-to-be on the way.", "poster_path": "/zWCR9BVNKBRZzKJ9wtcmMdZP5Ts.jpg", "popularity": 15.111}, {"id": 418472, "video": false, "vote_count": 83, "vote_average": 7.7, "title": "The Wild Pear Tree", "release_date": "2018-06-01", "original_language": "tr", "original_title": "Ahlat A\u011fac\u0131", "genre_ids": [18], "backdrop_path": "/3VUKpgrssr9iQYFAZiAbN5lbw7g.jpg", "adult": false, "overview": "Sinan is passionate about literature and has always wanted to be a writer. Returning to the village where he was born, he pours his heart and soul into scraping together the money he needs to be published, but his father\u2019s debts catch up with him.", "poster_path": "/9QNUj1e6MdyuRKxWg4v2riG97In.jpg", "popularity": 9.323}, {"id": 22821, "video": false, "vote_count": 439, "vote_average": 6.0, "title": "The Boondock Saints II: All Saints Day", "release_date": "2009-11-24", "original_language": "en", "original_title": "The Boondock Saints II: All Saints Day", "genre_ids": [28, 80, 53], "backdrop_path": "/cyoM4hIMHnIOWcLvfMlpmbpRer4.jpg", "adult": false, "overview": "Skillfully framed by an unknown enemy for the murder of a priest, wanted vigilante MacManus brothers Murphy and Connor must come out of hiding on a sheep farm in Ireland to fight for justice in Boston.", "poster_path": "/hjU3caMd9O3h21e5kzJeUOAoy7h.jpg", "popularity": 11.358}, {"adult": false, "backdrop_path": "/jnrvQO04kdoxYzxzIc7VM1meads.jpg", "genre_ids": [28, 12, 878, 53], "id": 9381, "original_language": "en", "original_title": "Babylon A.D.", "overview": "A veteran-turned-mercenary  is hired to take a young woman with a secret from post-apocalyptic Eastern Europe to New York City.", "poster_path": "/eeoB2u438Z8b14HJn8TVe8X9F1U.jpg", "release_date": "2008-08-20", "title": "Babylon A.D.", "video": false, "vote_average": 5.5, "vote_count": 1204, "popularity": 14.207}, {"id": 397, "video": false, "vote_count": 398, "vote_average": 6.4, "title": "French Kiss", "release_date": "1995-05-05", "original_language": "en", "original_title": "French Kiss", "genre_ids": [35, 10749], "backdrop_path": "/yS0YFDsgfpV145n2MoIhcCKuWvi.jpg", "adult": false, "overview": "The plot involves a couple in love and one woman\u2019s attempt to fly to Paris to get her lover back from a business trip and marry him. On the way she unknowingly smuggles something of value that has a petty thief chasing her across France as she chases after her future husband.", "poster_path": "/bZqvonwVru1XtnniQZgZRa3Znyk.jpg", "popularity": 10.552}, {"id": 454650, "video": false, "vote_count": 38, "vote_average": 4.3, "title": "Beast of Burden", "release_date": "2018-02-23", "original_language": "en", "original_title": "Beast of Burden", "genre_ids": [28, 80, 18, 53], "backdrop_path": "/bgh5OlSNhcYGCVMqV0xTwNgkbY4.jpg", "adult": false, "overview": "Sean Haggerty only has an hour to deliver his illegal cargo. An hour to reassure a drug cartel, a hitman, and the DEA that nothing is wrong. An hour to make sure his wife survives. And he must do it all from the cockpit of his Cessna.", "poster_path": "/uexWTafwBClTU1qJTEHT0T8TZHb.jpg", "popularity": 7.374}, {"adult": false, "backdrop_path": "/mATUzBPKf8CHXCdnZWPmnXS2m2O.jpg", "genre_ids": [10751, 16, 35], "id": 532, "original_language": "en", "original_title": "A Close Shave", "overview": "Wallace falls in love with wool-shop owner Wendolene, not suspecting that she (or rather, her dog) is at the head of a fiendish sheep-rustling plot. Gromit is set up and jailed, but his new-found sheepish friend is determined to give Wallace a helping hand in finding out the real truth.", "poster_path": "/efFW4euBJIha6WVJoBPSfyui2Aa.jpg", "release_date": "1996-03-07", "title": "A Close Shave", "video": false, "vote_average": 7.5, "vote_count": 416, "popularity": 10.197}, {"id": 3603, "video": false, "vote_count": 358, "vote_average": 5.6, "title": "Black Sheep", "release_date": "2006-09-09", "original_language": "en", "original_title": "Black Sheep", "genre_ids": [35, 27], "backdrop_path": "/kCELrsJRoM0vqzWdgLIjwkjrAyt.jpg", "adult": false, "overview": "A genetic engineering experiment gone horribly awry turns a large flock of docile sheep into unrelenting killing machines in this rural horror comedy directed by Jonathan King and featuring special effects designed by Weta Workshop.", "poster_path": "/8YoL8WSHv7UKTq7iziI7SrRmdql.jpg", "popularity": 11.76}, {"adult": false, "backdrop_path": "/eLUah3hMQ708x7tDkqSyycJvdRE.jpg", "genre_ids": [18], "id": 336222, "original_language": "is", "original_title": "Hr\u00fatar", "overview": "In a secluded valley in Iceland, Gummi and Kiddi live side by side, tending to their sheep. Their ancestral sheep-stock is considered one of the country\u2019s best and the two brothers are repeatedly awarded for their prized rams who carry an ancient lineage. Although they share the land and a way of life, Gummi and Kiddi have not spoken to each other in four decades. When a lethal disease suddenly infects Kiddi\u2019s sheep, the entire valley comes under threat. The authorities decide to cull all the animals in the area to contain the outbreak. But Gummi and Kiddi don\u2019t give up so easily \u2013 and each brother tries to stave off the disaster in his own fashion: Kiddi by using his rifle and Gummi by using his wits.", "poster_path": "/raOBs0LDaMix0g8sGFtYxwYx6JQ.jpg", "release_date": "2015-05-28", "title": "Rams", "video": false, "vote_average": 7.2, "vote_count": 135, "popularity": 9.013}], "total_pages": 14, "total_results": 273}, "recommendations": {"page": 1, "results": [{"adult": false, "backdrop_path": "/wwjuVHHxgugs1l9rVmrx7B0G2SQ.jpg", "genre_ids": [80, 18, 10749], "id": 261531, "original_language": "tr", "original_title": "Kanun Nam\u0131na", "overview": "Deemed \"the D.W. Griffith of Turkish Cinema,\" Omer Lutfi Akad directs this 1952 film based upon real events that took place in \u0130stanbul, in the following years of World war II. It is about a love triangle that led to homicide. It was a stylistic departure of what otherwise had been typical of Turkish melodramas of the time.", "poster_path": "/4JYDgtiCnnZT0qSnV2akJ4wJH68.jpg", "release_date": "1952-10-26", "title": "In the Name of the Law", "video": false, "vote_average": 5.8, "vote_count": 4, "popularity": 1.638}, {"adult": false, "backdrop_path": null, "genre_ids": [18], "id": 270062, "original_language": "tr", "original_title": "Kuyu", "overview": "In The Well (Kuyu), Osman (Hayati Hamzao\u011flu) is in love with his fellow villager Fatma (Nil G\u00f6nc\u00fc). What Fatma feels about this is of no concern for him. The only thing that matters to him is his irresistible desire. He kidnaps Fatma, goes to jail for it, and his third attempt in forced compliance culminates in a tragic finale for both of them because of the young girl\u2019s fatal revolt.", "poster_path": "/8ylT9szvbM13vnumRTbFNYur9zp.jpg", "release_date": "1968-01-01", "title": "In The Well", "video": false, "vote_average": 5.8, "vote_count": 4, "popularity": 0.888}, {"adult": false, "backdrop_path": null, "genre_ids": [18, 37], "id": 126560, "original_language": "tr", "original_title": "Seyyit Han", "overview": "In this rural revenge drama, G\u00fcney plays Seyyit Han, a poor man in love with a woman from his Anatolian village who returns his affection. Seyyit Han postpones their marriage so that he can make his fortune elsewhere and return to the village to claim his \"bride of the earth.\" During his prolonged absence, a rich landowner begins to woo the lonely woman, and her brother, intent upon making this propitious wedding happen, spreads the rumor that Seyyit Han has died.", "poster_path": "/nb3owoNiPn4ihF0oHfUZZS1FrDG.jpg", "release_date": "1968-04-01", "title": "Bride of the Earth", "video": false, "vote_average": 6.2, "vote_count": 5, "popularity": 1.075}, {"adult": false, "backdrop_path": null, "genre_ids": [18], "id": 96049, "original_language": "tr", "original_title": "Gelin", "overview": "The struggles of a migrant Anatolian family to adapt to and survive in the very different conditions of urban Istanbul.  A young woman moves with her husband and small child to her husband's family in Istanbul. Her son becomes ill and the doctor tells her that he will soon die if he doesn't get an operation. The family refuses to help her because they can't see anything wrong with the boy and all money is needed for a new shop they have just opened. When her son dies she takes a desperate step.", "poster_path": "/yjNiXFDmyv5FbEswhEMCKSQhL0i.jpg", "release_date": "1973-04-01", "title": "The Bride", "video": false, "vote_average": 7.2, "vote_count": 12, "popularity": 1.06}, {"adult": false, "backdrop_path": "/xKReLAo3zYySZwra3EM7BtttNfL.jpg", "genre_ids": [], "id": 381803, "original_language": "tr", "original_title": "Yok Art\u0131k", "overview": "A Turkish taxi driver tells stories which are almost unbelievable.", "poster_path": "/oT6YDdVcrvFvsM3Sp0y68LAJs3Z.jpg", "release_date": "2015-09-25", "title": "Yok Art\u0131k", "video": false, "vote_average": 4.6, "vote_count": 17, "popularity": 3.325}, {"adult": false, "backdrop_path": null, "genre_ids": [18], "id": 58897, "original_language": "tr", "original_title": "Susuz Yaz", "overview": "A scheming tobacco farmer sets out to ruin his competition by diverting the local water to his own property.", "poster_path": "/qx7mNX29k80OB9vG8GoxokjpJ8y.jpg", "release_date": "1963-12-16", "title": "Dry Summer", "video": false, "vote_average": 7.6, "vote_count": 22, "popularity": 2.677}, {"id": 52104, "video": false, "vote_count": 16, "vote_average": 7.8, "title": "Hope", "release_date": "1970-01-01", "original_language": "tr", "original_title": "Umut", "genre_ids": [18], "backdrop_path": null, "adult": false, "overview": "\"Umut\" is the story of an illiterate man and his family, whose existence depends on his income as a horse cab driver. When one of his horses is killed by an automobile, and when it is clear that neither justice nor charity will prevail, the man, played by G\u00fcney, begins a slow slide into despair. On the advice of a local holy man, and fuelled by an indefatigable optimism, he sets out into the desert in quest of a mythical lost treasure, slipping further and further into that final, ineluctable moment where hope itself becomes the last terrible delusion.", "poster_path": "/xShhRKRcJ6aFI6kaIXnXdEsLhSL.jpg", "popularity": 2.027}, {"id": 37586, "video": false, "vote_count": 21, "vote_average": 5.8, "title": "Egg", "release_date": "2007-11-09", "original_language": "tr", "original_title": "Yumurta", "genre_ids": [18], "backdrop_path": "/ufJUwvxhvFDBJ4orxdbPYdSOye4.jpg", "adult": false, "overview": "Poet Yusuf (35-38) returns to his childhood hometown, which he hadn't visited for years, upon his mother's death. He is faced with a neglected, crumbling house. Ayla, a young girl (17-19) awaits him there. Yusuf has been unaware of the existence of this distant relation who had been living with his mother for five years; He stays by his dead mother's bedside for a while on the morning of his return...", "poster_path": "/oGtSiXJhiEmpsLh3KQQQmntvxhN.jpg", "popularity": 2.372}, {"adult": false, "backdrop_path": "/x4HuL3A2t066kiHoCLvLJos8xLd.jpg", "genre_ids": [18], "id": 41834, "original_language": "de", "original_title": "Reise der Hoffnung", "overview": "In a village in eastern Turkey, tales of the economic success of Turks in Switzerland inspire Haydar to convince his wife Meryem that they must go. He sells their livestock and small plot of land in exchange for passage for two. He wants to leave their seven children in the care of the eldest and his parents; his father advises him to take one son to be educated in Europe, as economic insurance. The three set off for Istanbul, Milan, and Switzerland, stowing away on a ship. At Lake Como, they pay the rest of their money to unprincipled men who abandon them at an Alpine pass before a blizzard. Father and son are separated from Meryem. Will anyone reach the land of promise?", "poster_path": "/5tXMqVrPWK6bwh76uWK9bqYiB4z.jpg", "release_date": "1990-08-01", "title": "Journey of Hope", "video": false, "vote_average": 6.9, "vote_count": 10, "popularity": 1.32}], "total_pages": 1, "total_results": 9}, "credits": {"cast": [{"cast_id": 2, "character": "Hidir", "credit_id": "52fe4d509251416c91111da7", "gender": 0, "id": 145352, "name": "Y\u0131lmaz G\u00fcney", "order": 0, "profile_path": "/uvvCvfKUSP29UYOd3nJAWYeMzqO.jpg"}, {"cast_id": 19, "character": "\u00d6gretmen Ayse", "credit_id": "5a004793c3a3686853061b33", "gender": 0, "id": 1320031, "name": "Pervin Par", "order": 1, "profile_path": "/7QA9JwSFkgHL680bNOkDykOiH0J.jpg"}, {"cast_id": 20, "character": "Ali Cello", "credit_id": "5a00479cc3a36868a7055217", "gender": 2, "id": 228612, "name": "Erol Ta\u015f", "order": 2, "profile_path": "/492Kwtge20qeeMXxMynU3DAnhV3.jpg"}, {"cast_id": 21, "character": "Aziz", "credit_id": "5a0047a5c3a3686893063e39", "gender": 2, "id": 1325477, "name": "Tuncer Necmio\u011flu", "order": 3, "profile_path": "/v61Rkiku1gwmvqmV7yS8p96orF4.jpg"}, {"cast_id": 22, "character": "Duran Aga", "credit_id": "5a0047b0c3a368687e054e41", "gender": 0, "id": 1052880, "name": "Muharrem G\u00fcrses", "order": 4, "profile_path": null}, {"cast_id": 23, "character": "Abuzer", "credit_id": "5a0047b8c3a3686893063e5b", "gender": 2, "id": 143304, "name": "Aydemir Akba\u015f", "order": 5, "profile_path": "/gTgAKds04qRhO3r6g7LbjydHeq6.jpg"}, {"cast_id": 24, "character": "Ismail", "credit_id": "5a0047c4c3a3686893063e73", "gender": 2, "id": 1078374, "name": "S\u0131rr\u0131 Elita\u015f", "order": 6, "profile_path": "/pNaxoZwtl8LnSLQhU9dYoWwcMfd.jpg"}, {"cast_id": 25, "character": "Bekir", "credit_id": "5a0047cec3a3686853061b9b", "gender": 2, "id": 20728, "name": "Tuncel Kurtiz", "order": 7, "profile_path": "/vSRA3lJoOYsstWixWLIt6TDNKfw.jpg"}, {"cast_id": 26, "character": "\u00dcstegmen Zeki", "credit_id": "5a0047dd925141473305dfc1", "gender": 2, "id": 1127942, "name": "Atilla Erg\u00fcn", "order": 8, "profile_path": "/o1eHNLXjBb9RErLcE0h3yj46bFA.jpg"}, {"cast_id": 27, "character": "Hasan Dervis Aga", "credit_id": "5a0047e7925141470505e4d9", "gender": 2, "id": 1320056, "name": "Osman Alyanak", "order": 9, "profile_path": "/x8rWLG1rRz8YrTMcZD2WCPmyNNd.jpg"}, {"cast_id": 28, "character": "", "credit_id": "5a0047eec3a3686844059f85", "gender": 2, "id": 1320694, "name": "Ahmet Danyal Topatan", "order": 10, "profile_path": "/8g6mvI9V4quSYHwP19g0ntfVMAV.jpg"}], "crew": [{"credit_id": "58afe662c3a3682c9c0082cb", "department": "Writing", "gender": 0, "id": 145352, "job": "Writer", "name": "Y\u0131lmaz G\u00fcney", "profile_path": "/uvvCvfKUSP29UYOd3nJAWYeMzqO.jpg"}, {"credit_id": "537e2dabc3a368059e00173c", "department": "Directing", "gender": 2, "id": 1007638, "job": "Director", "name": "\u00d6mer L\u00fctfi Akad", "profile_path": "/gPgPxxDiWTVqzoUameguAdkWrgY.jpg"}, {"credit_id": "537e2db3c3a36805a8001664", "department": "Writing", "gender": 2, "id": 1007638, "job": "Writer", "name": "\u00d6mer L\u00fctfi Akad", "profile_path": "/gPgPxxDiWTVqzoUameguAdkWrgY.jpg"}, {"credit_id": "58afe6559251411a64009c60", "department": "Camera", "gender": 0, "id": 1200606, "job": "Director of Photography", "name": "Ali Ugur", "profile_path": null}, {"credit_id": "58afe66b9251411a54009ca5", "department": "Production", "gender": 0, "id": 1323385, "job": "Producer", "name": "Kadir Kesemen", "profile_path": null}, {"credit_id": "58afe6729251411a64009c79", "department": "Sound", "gender": 0, "id": 1764584, "job": "Original Music Composer", "name": "Nida T\u00fcfek\u00e7i", "profile_path": null}]}}