{"adult": false, "backdrop_path": "/1e9mUIJisVfApTSyvUYxl7i46yw.jpg", "belongs_to_collection": null, "budget": 0, "genres": [{"id": 35, "name": "Comedy"}], "homepage": null, "id": 198600, "imdb_id": "tt0046424", "original_language": "en", "original_title": "Three Sailors and a Girl", "overview": "A group of sailors invest in a musical revue.", "popularity": 3.471, "poster_path": "/gLSAvLAXpUJDYDP2iSA1rBtYnx7.jpg", "production_companies": [{"id": 174, "logo_path": "/IuAlhI9eVC9Z8UQWOIDdWRKSEJ.png", "name": "Warner Bros. Pictures", "origin_country": "US"}], "production_countries": [{"iso_3166_1": "US", "name": "United States of America"}], "release_date": "1953-11-23", "revenue": 0, "runtime": 95, "spoken_languages": [{"iso_639_1": "en", "name": "English"}], "status": "Released", "tagline": "WARNER BROS.' HIP-SWINGIEST MUSICAL SHINDIG OF 'EM ALL!", "title": "Three Sailors and a Girl", "video": false, "vote_average": 7.0, "vote_count": 1, "keywords": {"keywords": [{"id": 4344, "name": "musical"}, {"id": 41599, "name": "sailor"}]}, "similar": {"page": 1, "results": [{"id": 224141, "video": false, "vote_count": 3143, "vote_average": 5.7, "title": "Into the Woods", "release_date": "2014-12-24", "original_language": "en", "original_title": "Into the Woods", "genre_ids": [35, 14], "backdrop_path": "/lzJzB0QfkjpGCm9qUC4XpEIB6pm.jpg", "adult": false, "overview": "In a woods filled with magic and fairy tale characters, a baker and his wife set out to end the curse put on them by their neighbor, a spiteful witch.", "poster_path": "/5h91odPFNlBuJbRBj5N4MEBfXDE.jpg", "popularity": 28.397}, {"id": 872, "video": false, "vote_count": 1616, "vote_average": 8.2, "title": "Singin' in the Rain", "release_date": "1952-04-10", "original_language": "en", "original_title": "Singin' in the Rain", "genre_ids": [35, 10402, 10749], "backdrop_path": "/amW1YWQvcP8slDyDp1R652aVQZ7.jpg", "adult": false, "overview": "In 1927 Hollywood, a silent film production company and cast make a difficult transition to sound.", "poster_path": "/s39odBPtyutGBnEfBIpdm0fpRwv.jpg", "popularity": 20.625}, {"id": 18126, "video": false, "vote_count": 1217, "vote_average": 6.4, "title": "Hannah Montana: The Movie", "release_date": "2009-04-10", "original_language": "en", "original_title": "Hannah Montana: The Movie", "genre_ids": [35, 18, 10402, 10749, 10751], "backdrop_path": "/ezx3NkXNqf2KnJCP6Nfj1bfCFut.jpg", "adult": false, "overview": "As Hannah Montana's popularity begins to take over her life, Miley Stewart, on the urging from her father takes a trip to her hometown of Crowley Corners, Tennessee to get some perspective on what matters in life the most.", "poster_path": "/8pwbnmvshHj2yYPYlyJ8K8Yzecy.jpg", "popularity": 14.838}, {"id": 2005, "video": false, "vote_count": 1805, "vote_average": 6.7, "title": "Sister Act", "release_date": "1992-05-28", "original_language": "en", "original_title": "Sister Act", "genre_ids": [35, 10402], "backdrop_path": "/oaLqlJxt8TJSjsdfMpSkLexZ4l5.jpg", "adult": false, "overview": "A Reno singer witnesses a mob murder and the cops stash her in a nunnery to protect her from the mob's hitmen. The mother superior does not trust her, and takes steps to limit her influence on the other nuns. Eventually the singer rescues the failing choir and begins helping with community projects, which gets her an interview on TV\u2014and identification by the mob.", "poster_path": "/7wQxLtybiUbtC6tsJh9htFEmqq3.jpg", "popularity": 13.161}, {"id": 504608, "video": false, "vote_count": 1661, "vote_average": 7.4, "title": "Rocketman", "release_date": "2019-05-22", "original_language": "en", "original_title": "Rocketman", "genre_ids": [18, 10402], "backdrop_path": "/sZZJ42GrWKxSOfcrpI2TSFQa0AQ.jpg", "adult": false, "overview": "The story of Elton John's life, from his years as a prodigy at the Royal Academy of Music through his influential and enduring musical partnership with Bernie Taupin.", "poster_path": "/f4FF18ia7yTvHf2izNrHqBmgH8U.jpg", "popularity": 26.576}, {"id": 194662, "video": false, "vote_count": 8616, "vote_average": 7.5, "title": "Birdman", "release_date": "2014-08-27", "original_language": "en", "original_title": "Birdman", "genre_ids": [35, 18], "backdrop_path": "/AsJVim0Hk3KbQPbfjyijfjqmaoZ.jpg", "adult": false, "overview": "A fading actor best known for his portrayal of a popular superhero attempts to mount a comeback by appearing in a Broadway play. As opening night approaches, his attempts to become more altruistic, rebuild his career, and reconnect with friends and family prove more difficult than expected.", "poster_path": "/rSZs93P0LLxqlVEbI001UKoeCQC.jpg", "popularity": 37.733}, {"adult": false, "backdrop_path": "/ppDnBvf0f7vCZHRLtDjazpYHdTF.jpg", "genre_ids": [35, 10402, 10749], "id": 13368, "original_language": "en", "original_title": "White Christmas", "overview": "Two talented song-and-dance men team up after the war to become one of the hottest acts in show business. In time they befriend and become romantically involved with the beautiful Haynes sisters who comprise a sister act.", "poster_path": "/A5kBQsHKbIptxJyELEpHQJROCRj.jpg", "release_date": "1954-10-14", "title": "White Christmas", "video": false, "vote_average": 7.4, "vote_count": 250, "popularity": 16.622}, {"adult": false, "backdrop_path": "/3eAudH9hkkr451VoAZPLEQVy5wX.jpg", "genre_ids": [35, 18, 10402, 10749], "id": 6282, "original_language": "en", "original_title": "Coyote Ugly", "overview": "Graced with a velvet voice, 21-year-old Violet Sanford heads to New York to pursue her dream of becoming a songwriter only to find her aspirations sidelined by the accolades and notoriety she receives at her \"day\" job as a barmaid at Coyote Ugly. The \"Coyotes\" as they are affectionately called tantalize customers and the media alike with their outrageous antics, making Coyote Ugly the watering hole for guys on the prowl.", "poster_path": "/p3nIrS9rkdVmMmgKAWtGsmAnhGV.jpg", "release_date": "2000-07-30", "title": "Coyote Ugly", "video": false, "vote_average": 6.1, "vote_count": 1166, "popularity": 20.571}, {"id": 407655, "video": false, "vote_count": 421, "vote_average": 6.8, "title": "A Cinderella Story: If the Shoe Fits", "release_date": "2016-08-02", "original_language": "en", "original_title": "A Cinderella Story: If the Shoe Fits", "genre_ids": [35, 14, 10402, 10751], "backdrop_path": "/svYzELCLW0NGVEuvNraA4W7Hmm9.jpg", "adult": false, "overview": "A contemporary musical version of the classic Cinderella story in which the servant step daughter hope to compete in a musical competition for a famous pop star.", "poster_path": "/prZSNnK5dkYcflsbdOsVVvqasZ5.jpg", "popularity": 23.748}, {"id": 11887, "video": false, "vote_count": 2347, "vote_average": 6.5, "title": "High School Musical 3: Senior Year", "release_date": "2008-10-11", "original_language": "en", "original_title": "High School Musical 3: Senior Year", "genre_ids": [35, 18, 10402, 10749, 10751], "backdrop_path": "/daSGxGZL2nNjGZKkAF5ain3lmOx.jpg", "adult": false, "overview": "It's almost graduation day for high school seniors Troy, Gabriella, Sharpay, Chad, Ryan and Taylor \u2015 and the thought of heading off in separate directions after leaving East High has these Wildcats thinking they need to do something they'll remember forever. Together with the rest of the Wildcats, they stage a spring musical reflecting their hopes and fears about the future and their unforgettable experiences growing up together. But with graduation approaching and college plans in question, what will become of the dreams, romances, and friendships of East High's senior Wildcats?", "poster_path": "/ewZpH2QIfPQ0VIn9lPf7MHbLbl4.jpg", "popularity": 19.967}, {"id": 252, "video": false, "vote_count": 1835, "vote_average": 7.5, "title": "Willy Wonka & the Chocolate Factory", "release_date": "1971-06-29", "original_language": "en", "original_title": "Willy Wonka & the Chocolate Factory", "genre_ids": [35, 14, 10751], "backdrop_path": "/nyqiCFF3pjcdwG2KmOwvM6CCLKA.jpg", "adult": false, "overview": "Eccentric candy man Willy Wonka prompts a worldwide frenzy when he announces that golden tickets hidden inside five of his delicious candy bars will admit their lucky holders into his top-secret confectionary. But does Wonka have an agenda hidden amid a world of Oompa Loompas and chocolate rivers?", "poster_path": "/b94qXd1FcIwgzv0NYMUe2bjrzJR.jpg", "popularity": 18.34}, {"adult": false, "backdrop_path": "/90kmxuSwU28dVy1ghVSHI4x1wb8.jpg", "genre_ids": [35, 18, 37], "id": 537996, "original_language": "en", "original_title": "The Ballad of Buster Scruggs", "overview": "Vignettes weaving together the stories of six individuals in the old West at the end of the Civil War. Following the tales of a sharp-shooting songster, a wannabe bank robber, two weary traveling performers, a lone gold prospector, a woman traveling the West to an uncertain future, and a motley crew of strangers undertaking a carriage ride.", "poster_path": "/voxl654m7p36y8FLu8oQD7dfwwK.jpg", "release_date": "2018-11-09", "title": "The Ballad of Buster Scruggs", "video": false, "vote_average": 7.2, "vote_count": 2072, "popularity": 15.524}, {"adult": false, "backdrop_path": "/6bnI08rrGXRkngRqJWCMXDZuJ1j.jpg", "genre_ids": [35, 10402], "id": 254470, "original_language": "en", "original_title": "Pitch Perfect 2", "overview": "The Bellas are back, and they are better than ever. After being humiliated in front of none other than the President of the United States of America, the Bellas are taken out of the Aca-Circuit. In order to clear their name, and regain their status, the Bellas take on a seemingly impossible task: winning an international competition no American team has ever won. In order to accomplish this monumental task, they need to strengthen the bonds of friendship and sisterhood and blow away the competition with their amazing aca-magic! With all new friends and old rivals tagging along for the trip, the Bellas can hopefully accomplish their dreams.", "poster_path": "/qSjruLiFB4uqRtz2xheQPxG8uaB.jpg", "release_date": "2015-05-07", "title": "Pitch Perfect 2", "video": false, "vote_average": 6.8, "vote_count": 3898, "popularity": 27.354}, {"adult": false, "backdrop_path": "/3nG6BBIxgqbIM5p1iO61RyKzUkZ.jpg", "genre_ids": [16, 10751, 14, 12, 35, 10749], "id": 11970, "original_language": "en", "original_title": "Hercules", "overview": "Bestowed with superhuman strength, a young mortal named Hercules sets out to prove himself a hero in the eyes of his father, the great god Zeus. Along with his friends Pegasus, a flying horse, and Phil, a personal trainer, Hercules is tricked by the hilarious, hotheaded villain Hades, who's plotting to take over Mount Olympus!", "poster_path": "/eFlBFMAifj436QctX3akDkUnhlk.jpg", "release_date": "1997-06-20", "title": "Hercules", "video": false, "vote_average": 7.5, "vote_count": 4316, "popularity": 27.252}, {"id": 703, "video": false, "vote_count": 2268, "vote_average": 7.8, "title": "Annie Hall", "release_date": "1977-04-19", "original_language": "en", "original_title": "Annie Hall", "genre_ids": [35, 18, 10749], "backdrop_path": "/8iNt5LGxpX9XeNWJgjx17xfTT7u.jpg", "adult": false, "overview": "New York comedian Alvy Singer falls in love with the ditsy Annie Hall.", "poster_path": "/bK9bLXwxWuXX5mbq75PZqjvAtfG.jpg", "popularity": 15.038}, {"adult": false, "backdrop_path": "/h6NQoXBxD0uaIrpuk9FFV89vITT.jpg", "genre_ids": [10402, 35, 10751, 14, 18], "id": 10437, "original_language": "en", "original_title": "The Muppet Christmas Carol", "overview": "A retelling of the classic Dickens tale of Ebenezer Scrooge, miser extraordinaire. He is held accountable for his dastardly ways during night-time visitations by the Ghosts of Christmas Past, Present, and future.", "poster_path": "/fe4nLJkDNXhyuMnrZ60MfoSpPes.jpg", "release_date": "1992-12-10", "title": "The Muppet Christmas Carol", "video": false, "vote_average": 7.4, "vote_count": 497, "popularity": 13.269}, {"adult": false, "backdrop_path": "/9l5Nzo1qbEslfCu2NYWimpZ1Vkc.jpg", "genre_ids": [35, 10751, 14, 10749], "id": 4523, "original_language": "en", "original_title": "Enchanted", "overview": "The beautiful princess Giselle is banished by an evil queen from her magical, musical animated land and finds herself in the gritty reality of the streets of modern-day Manhattan. Shocked by this strange new environment that doesn't operate on a \"happily ever after\" basis, Giselle is now adrift in a chaotic world badly in need of enchantment. But when Giselle begins to fall in love with a charmingly flawed divorce lawyer who has come to her aid - even though she is already promised to a perfect fairy tale prince back home - she has to wonder: Can a storybook view of romance survive in the real world?", "poster_path": "/65EfHNQ6NCeAoRPNLRhTyLqNZmU.jpg", "release_date": "2007-11-20", "title": "Enchanted", "video": false, "vote_average": 6.7, "vote_count": 3505, "popularity": 20.256}, {"id": 420817, "video": false, "vote_count": 4662, "vote_average": 7.0, "title": "Aladdin", "release_date": "2019-05-22", "original_language": "en", "original_title": "Aladdin", "genre_ids": [12, 35, 14, 10749, 10751], "backdrop_path": "/rVqY0Bo4Npf6EIONUROxjYAJfmD.jpg", "adult": false, "overview": "A kindhearted street urchin named Aladdin embarks on a magical adventure after finding a lamp that releases a wisecracking genie while a power-hungry Grand Vizier vies for the same lamp that has the power to make their deepest wishes come true.", "poster_path": "/3iYQTLGoy7QnjcUYRJy4YrAgGvp.jpg", "popularity": 79.26}, {"id": 433, "video": false, "vote_count": 2992, "vote_average": 7.6, "title": "Mary Poppins", "release_date": "1964-08-27", "original_language": "en", "original_title": "Mary Poppins", "genre_ids": [35, 14, 10751], "backdrop_path": "/7DbgR36Sct5gcyEAzoM8bqiTYUV.jpg", "adult": false, "overview": "A magical nanny employs music and adventure to help two neglected children become closer to their father.", "poster_path": "/ei8hhYCMfURfPOXKBnyl61be2iV.jpg", "popularity": 19.493}, {"adult": false, "backdrop_path": "/wGxK2uFowRXdyKcv8Gni7snK3yu.jpg", "genre_ids": [28, 12, 35], "id": 134, "original_language": "en", "original_title": "O Brother, Where Art Thou?", "overview": "In the deep south during the 1930s, three escaped convicts search for hidden treasure while a relentless lawman pursues them. On their journey they come across many comical characters and incredible situations. Based upon Homer's 'Odyssey'.", "poster_path": "/eIqSzq6j3yuxNmifiUOh6iTpG9N.jpg", "release_date": "2000-08-30", "title": "O Brother, Where Art Thou?", "video": false, "vote_average": 7.3, "vote_count": 2211, "popularity": 21.828}], "total_pages": 164, "total_results": 3275}, "recommendations": {"page": 1, "results": [], "total_pages": 1, "total_results": 0}, "credits": {"cast": [{"cast_id": 1, "character": "Penny Weston", "credit_id": "52fe4d829251416c911189a7", "gender": 1, "id": 82405, "name": "Jane Powell", "order": 0, "profile_path": "/zU4GkEqdn8Qlv14V7rrx3clNjnF.jpg"}, {"cast_id": 2, "character": "Choirboy B. Jones", "credit_id": "52fe4d829251416c911189ab", "gender": 2, "id": 82387, "name": "Gordon MacRae", "order": 1, "profile_path": "/qGGOLJ0oAQ8cbi8LEjnVhawU1wS.jpg"}, {"cast_id": 3, "character": "Twitch", "credit_id": "52fe4d829251416c911189af", "gender": 2, "id": 16002, "name": "Gene Nelson", "order": 2, "profile_path": "/4r2dfRAqqk4cS5oesMrUjdq1to.jpg"}, {"cast_id": 9, "character": "Joe Woods", "credit_id": "52fe4d829251416c911189cf", "gender": 2, "id": 14574, "name": "Sam Levene", "order": 3, "profile_path": "/rqKY46wP6XbEVbDYaC6Euq23FWb.jpg"}, {"cast_id": 10, "character": "Emilio Rossi", "credit_id": "52fe4d829251416c911189d3", "gender": 2, "id": 124506, "name": "George Givot", "order": 4, "profile_path": "/gd5xgniY8Ex6pEghzD1rZf1wMrD.jpg"}, {"cast_id": 11, "character": "Faye Foss", "credit_id": "52fe4d829251416c911189d7", "gender": 1, "id": 22948, "name": "Veda Ann Borg", "order": 5, "profile_path": "/1sLegrMApxC4Z5dFMIxjxT1ZhtQ.jpg"}, {"cast_id": 12, "character": "Melvin Webster", "credit_id": "52fe4d829251416c911189db", "gender": 0, "id": 1025762, "name": "Archer MacDonald", "order": 6, "profile_path": null}, {"cast_id": 13, "character": "B.P. Morrow - Bank President", "credit_id": "52fe4d829251416c911189df", "gender": 2, "id": 20145, "name": "Raymond Greenleaf", "order": 7, "profile_path": "/hgTVOog97FZpEeN8xwbN0aNVNxm.jpg"}, {"cast_id": 14, "character": "Hank the Sailor", "credit_id": "52fe4d829251416c911189e3", "gender": 2, "id": 130334, "name": "Henry Slate", "order": 8, "profile_path": null}, {"cast_id": 4, "character": "Porky", "credit_id": "52fe4d829251416c911189b3", "gender": 2, "id": 111215, "name": "Jack E. Leonard", "order": 9, "profile_path": "/scpHY0Hn9qiTZ1kVT3q8qBZ5Vee.jpg"}, {"cast_id": 15, "character": "Submarine Crew", "credit_id": "591283459251414e8d04a8c3", "gender": 2, "id": 97128, "name": "Merv Griffin", "order": 10, "profile_path": "/1LPKHl0XZD0Ssbk280HPWMXKqxq.jpg"}, {"cast_id": 16, "character": "Submarine Crew", "credit_id": "591283539251414e8504cec7", "gender": 2, "id": 193763, "name": "Jack Larson", "order": 11, "profile_path": "/11UOpxJnhX2JZ7dAjy7G735pUbo.jpg"}, {"cast_id": 17, "character": "Angry Nightclub Patron", "credit_id": "591283689251414e8d04a8de", "gender": 1, "id": 121323, "name": "Bess Flowers", "order": 12, "profile_path": "/akbW8jJl8GSXFpixFaobMOqvNv4.jpg"}, {"cast_id": 25, "character": "Nightclub Patron", "credit_id": "597b67aa925141364a0141b8", "gender": 1, "id": 1413586, "name": "Suzanne Ridgeway", "order": 13, "profile_path": "/fCzOpu1U7YmVWKjSXlPXUYY92k4.jpg"}, {"cast_id": 26, "character": "Dancer", "credit_id": "597b67e3c3a3686007006e08", "gender": 1, "id": 1859762, "name": "Winona Smith", "order": 14, "profile_path": null}], "crew": [{"credit_id": "597b6751c3a368375a014c1e", "department": "Editing", "gender": 2, "id": 2761, "job": "Editor", "name": "Owen Marks", "profile_path": null}, {"credit_id": "597b678bc3a368374c0147bd", "department": "Sound", "gender": 2, "id": 29276, "job": "Original Music Composer", "name": "Howard Jackson", "profile_path": null}, {"credit_id": "597b677ec3a368375a014c69", "department": "Sound", "gender": 2, "id": 30267, "job": "Original Music Composer", "name": "Ray Heindorf", "profile_path": null}, {"credit_id": "597b6747c3a3686007006d28", "department": "Camera", "gender": 2, "id": 30970, "job": "Director of Photography", "name": "Carl E. Guthrie", "profile_path": null}, {"credit_id": "52fe4d829251416c911189c5", "department": "Writing", "gender": 0, "id": 66111, "job": "Screenplay", "name": "Devery Freeman", "profile_path": null}, {"credit_id": "52fe4d829251416c911189bf", "department": "Writing", "gender": 2, "id": 69936, "job": "Screenplay", "name": "Roland Kibbee", "profile_path": null}, {"credit_id": "52fe4d829251416c911189b9", "department": "Directing", "gender": 2, "id": 94218, "job": "Director", "name": "Roy Del Ruth", "profile_path": "/vm5P5O0qcLYqhdPXw17U4CkBEsV.jpg"}, {"credit_id": "52fe4d829251416c911189cb", "department": "Writing", "gender": 0, "id": 144060, "job": "Theatre Play", "name": "George S. Kaufman", "profile_path": null}, {"credit_id": "597b675e925141364a01415a", "department": "Art", "gender": 2, "id": 1077688, "job": "Art Direction", "name": "Leo K. Kuter", "profile_path": null}, {"credit_id": "597b673c9251413681013ff2", "department": "Production", "gender": 2, "id": 1208374, "job": "Producer", "name": "Sammy Cahn", "profile_path": "/aoRS9Ymm55cm3uKEtIPDG2yNIvo.jpg"}, {"credit_id": "597b6768925141364301408b", "department": "Art", "gender": 0, "id": 1494831, "job": "Set Decoration", "name": "G.W. Berntsen", "profile_path": null}]}}