{"adult": false, "backdrop_path": "/jzagBTlEG1Qy5TwIwejuRTgKDKL.jpg", "belongs_to_collection": null, "budget": 0, "genres": [{"id": 35, "name": "Comedy"}, {"id": 18, "name": "Drama"}], "homepage": "http://thebigaskmovie.com/", "id": 199056, "imdb_id": "tt2327541", "original_language": "en", "original_title": "The Big Ask", "overview": "The Big Ask is a dark comedy about three couples who head to the desert to help their friend heal after the death of his mother. They would do anything for him - except for the one thing he wants.", "popularity": 1.746, "poster_path": "/jVu5F1gRLBXoHJghqP8Q1c6rD2z.jpg", "production_companies": [], "production_countries": [], "release_date": "2014-05-30", "revenue": 0, "runtime": 91, "spoken_languages": [], "status": "Released", "tagline": "", "title": "The Big Ask", "video": false, "vote_average": 4.6, "vote_count": 7, "keywords": {"keywords": [{"id": 6054, "name": "friendship"}, {"id": 18034, "name": "desert"}]}, "similar": {"page": 1, "results": [{"id": 61979, "video": false, "vote_count": 1062, "vote_average": 7.4, "title": "Three Steps Above Heaven", "release_date": "2010-12-03", "original_language": "es", "original_title": "Tres metros sobre el cielo", "genre_ids": [18, 10749], "backdrop_path": "/tBIUBCP6x5rOSyvytX2oVSp1gQ9.jpg", "adult": false, "overview": "Story of two young people who belong to different worlds. It is the chronicle of a love improbable, almost impossible but inevitable dragging in a frantic journey they discover the first great love. Babi (Maria Valverde) is a girl from upper-middle class that is educated in goodness and innocence . Hache (Mario Casas) is a rebellious boy, impulsive, unconscious, has a appetite for risk and danger embodied in endless fights and illegal motorbike races, the limit of common sense", "poster_path": "/57D3h8wb3LMURTyG0dv2VtHfvCM.jpg", "popularity": 17.308}, {"adult": false, "backdrop_path": "/7B3I7S9a4bLonbYw6XVcoDzW8RT.jpg", "genre_ids": [18, 10749], "id": 109689, "original_language": "es", "original_title": "Tengo ganas de ti", "overview": "Sequel to \"Three Steps Above Heaven\". The sexy Gin is the new love of Hache, but this can not forget his former girlfriend, so the love triangle is inevitable.", "poster_path": "/z13I3sWzOoKBDAEpJ7iK9bSznQn.jpg", "release_date": "2012-06-22", "title": "I Want You", "video": false, "vote_average": 6.7, "vote_count": 694, "popularity": 17.432}, {"id": 50544, "video": false, "vote_count": 5179, "vote_average": 6.6, "title": "Friends with Benefits", "release_date": "2011-07-21", "original_language": "en", "original_title": "Friends with Benefits", "genre_ids": [35, 10749], "backdrop_path": "/liq5ljqURqLiBUgMkNiR388ZuSH.jpg", "adult": false, "overview": "Dylan and Jamie think it's going to be easy to add the simple act of sex to their friendship, despite what Hollywood romantic comedies would have them believe. They soon discover however that getting physical really does always lead to complications.", "poster_path": "/nKhhDFCdzxeJ3GUunQ570LDpUkz.jpg", "popularity": 19.488}, {"adult": false, "backdrop_path": "/2oG0ggdMliMDjenw00eSwZFypUp.jpg", "genre_ids": [35, 18], "id": 376660, "original_language": "en", "original_title": "The Edge of Seventeen", "overview": "Two high school girls are best friends until one dates the other's older brother, who is totally his sister's nemesis.", "poster_path": "/gxK80WUwkQePpXpzRdpob0i7DD5.jpg", "release_date": "2016-11-18", "title": "The Edge of Seventeen", "video": false, "vote_average": 7.2, "vote_count": 2517, "popularity": 17.267}, {"adult": false, "backdrop_path": "/w2KDvs7D0E6yDGESrAeJ0tzimSA.jpg", "genre_ids": [35, 18], "id": 44564, "original_language": "en", "original_title": "The Dilemma", "overview": "Longtime friends Ronny and Nick are partners in an auto-design firm. They are hard at work on a presentation for a dream project that would really launch their company. Then Ronny spots Nick's wife out with another man, and in the process of investigating the possible affair, he learns that Nick has a few secrets of his own. As the presentation nears, Ronny agonizes over what might happen if the truth gets out.", "poster_path": "/wMwKQBOrlz3KN3QLIFj65hyJw9B.jpg", "release_date": "2011-01-13", "title": "The Dilemma", "video": false, "vote_average": 5.4, "vote_count": 542, "popularity": 10.815}, {"id": 77338, "video": false, "vote_count": 10879, "vote_average": 8.2, "title": "The Intouchables", "release_date": "2011-11-02", "original_language": "fr", "original_title": "Intouchables", "genre_ids": [35, 18], "backdrop_path": "/ihWaJZCUIon2dXcosjQG2JHJAPN.jpg", "adult": false, "overview": "A true story of two men who should never have met \u2013 a quadriplegic aristocrat who was injured in a paragliding accident and a young man from the projects.", "poster_path": "/4mFsNQwbD0F237Tx7gAPotd0nbJ.jpg", "popularity": 21.193}, {"adult": false, "backdrop_path": "/74Jh5SIWnKDwtusPfDP51EeCFHt.jpg", "genre_ids": [35, 10749], "id": 9576, "original_language": "en", "original_title": "Tootsie", "overview": "When struggling, out of work actor Michael Dorsey secretly adopts a female alter ego - Dorothy Michaels - in order to land a part in a daytime drama, he unwittingly becomes a feminist icon and ends up in a romantic pickle.", "poster_path": "/ngyCzZwb9y5sMUCig5JQT4Y33Q.jpg", "release_date": "1982-12-16", "title": "Tootsie", "video": false, "vote_average": 7.2, "vote_count": 915, "popularity": 9.882}, {"id": 76726, "video": false, "vote_count": 3331, "vote_average": 6.7, "title": "Chronicle", "release_date": "2012-02-01", "original_language": "en", "original_title": "Chronicle", "genre_ids": [18, 878, 53], "backdrop_path": "/f54d3tpzdRW02IDIIVRuwiY2N3K.jpg", "adult": false, "overview": "Three high school students make an incredible discovery, leading to their developing uncanny powers beyond their understanding. As they learn to control their abilities and use them to their advantage, their lives start to spin out of control, and their darker sides begin to take over.", "poster_path": "/kdyrdFIt29FUmLIKvedAc2j4rpo.jpg", "popularity": 16.937}, {"id": 68718, "video": false, "vote_count": 17255, "vote_average": 8.1, "title": "Django Unchained", "release_date": "2012-12-25", "original_language": "en", "original_title": "Django Unchained", "genre_ids": [18, 37], "backdrop_path": "/qUcmEqnzIwlwZxSyTf3WliSfAjJ.jpg", "adult": false, "overview": "With the help of a German bounty hunter, a freed slave sets out to rescue his wife from a brutal Mississippi plantation owner.", "poster_path": "/eCt596Z4zkqxW5AHz1HEhGm1eif.jpg", "popularity": 39.475}, {"adult": false, "backdrop_path": "/jxWA2lDLidicmmDymnxlz53zAb9.jpg", "genre_ids": [16, 35, 10751], "id": 1267, "original_language": "en", "original_title": "Meet the Robinsons", "overview": "In this animated adventure, brilliant preteen inventor Lewis creates a memory scanner to retrieve his earliest recollections and find out why his mother gave him up for adoption. But when the villainous Bowler Hat Guy steals the machine, Lewis is ready to give up on his quest until the mysterious Wilbur Robinson shows up on the scene, whisking Lewis to the future to find the scanner and his mom.", "poster_path": "/oe7w9SxGmpSW1dlz5QaVVKWBEVz.jpg", "release_date": "2007-03-23", "title": "Meet the Robinsons", "video": false, "vote_average": 6.8, "vote_count": 1665, "popularity": 21.108}, {"id": 449176, "video": false, "vote_count": 3690, "vote_average": 8.1, "title": "Love, Simon", "release_date": "2018-02-16", "original_language": "en", "original_title": "Love, Simon", "genre_ids": [35, 18, 10749], "backdrop_path": "/rqMEeajyzSF4PpJtdCB816Iz8Vr.jpg", "adult": false, "overview": "Everyone deserves a great love story. But for seventeen-year old Simon Spier it's a little more complicated: he's yet to tell his family or friends he's gay and he doesn't know the identity of the anonymous classmate he's fallen for online.", "poster_path": "/5YUYg5q7QfC4IoNwNUtiwdiYKPr.jpg", "popularity": 24.849}, {"id": 40807, "video": false, "vote_count": 2337, "vote_average": 7.1, "title": "50/50", "release_date": "2011-09-30", "original_language": "en", "original_title": "50/50", "genre_ids": [35, 18], "backdrop_path": "/kGac26bIqfwm8eqbP1RjKP70brE.jpg", "adult": false, "overview": "Inspired by a true story, a comedy centered on a 27-year-old guy who learns of his cancer diagnosis, and his subsequent struggle to beat the disease.", "poster_path": "/uDKmnFHqE3rQ9r6ErQsOZWuzXN8.jpg", "popularity": 13.937}, {"id": 23168, "video": false, "vote_count": 2676, "vote_average": 7.2, "title": "The Town", "release_date": "2010-09-15", "original_language": "en", "original_title": "The Town", "genre_ids": [80, 18, 53], "backdrop_path": "/asMylckPVBXViRqxjDTzik0TpOh.jpg", "adult": false, "overview": "Doug MacRay is a longtime thief, who, smarter than the rest of his crew, is looking for his chance to exit the game. When a bank job leads to the group kidnapping an attractive branch manager, he takes on the role of monitoring her \u2013 but their burgeoning relationship threatens to unveil the identities of Doug and his crew to the FBI Agent who is on their case.", "poster_path": "/zX4fKmDXKGt4hlzhAJirdlRKFgO.jpg", "popularity": 22.874}, {"id": 19913, "video": false, "vote_count": 6208, "vote_average": 7.2, "title": "(500) Days of Summer", "release_date": "2009-07-17", "original_language": "en", "original_title": "(500) Days of Summer", "genre_ids": [35, 18, 10749], "backdrop_path": "/yYw9cVdRJ4zzwxM2cTDXfT6JI6E.jpg", "adult": false, "overview": "Tom, greeting-card writer and hopeless romantic, is caught completely off-guard when his girlfriend, Summer, suddenly dumps him. He reflects on their 500 days together to try to figure out where their love affair went sour, and in doing so, Tom rediscovers his true passions in life.", "poster_path": "/5SjtNPD1bb182vzQccvEUpXHFjN.jpg", "popularity": 20.487}, {"adult": false, "backdrop_path": "/w4w8CTEe4isWO2TzDSQ3MV3br9l.jpg", "genre_ids": [14, 35, 10751], "id": 8839, "original_language": "en", "original_title": "Casper", "overview": "Furious that her late father only willed her his gloomy-looking mansion rather than his millions, Carrigan Crittenden is ready to burn the place to the ground when she discovers a map to a treasure hidden in the house. But when she enters the rickety mansion to seek her claim, she is frightened away by a wicked wave of ghosts. Determined to get her hands on this hidden fortune, she hires afterlife therapist Dr. James Harvey to exorcise the ghosts from the mansion. Harvey and his daughter Kat move in, and soon Kat meets Casper, the ghost of a young boy who's \"the friendliest ghost you know.\" But not so friendly are Casper's uncles--Stretch, Fatso and Stinkie--who are determined to drive all \"fleshies\" away.", "poster_path": "/1WeumvndgPE3hopKQqXbCKO26oH.jpg", "release_date": "1995-05-26", "title": "Casper", "video": false, "vote_average": 6.2, "vote_count": 2788, "popularity": 25.596}, {"adult": false, "backdrop_path": "/k8H7ye6Sab7OrDJoo8Qp5WFGHGk.jpg", "genre_ids": [35, 10749, 18], "id": 244264, "original_language": "en", "original_title": "Laggies", "overview": "Overeducated and underemployed, 28 year old Megan is in the throes of a quarterlife crisis. Squarely into adulthood with no career prospects, no particular motivation to think about her future and no one to relate to, Megan is comfortable lagging a few steps behind - while her friends check off milestones and celebrate their new grown-up status. When her high-school sweetheart proposes, Megan panics and- given an unexpected opportunity to escape for a week - hides out in the home of her new friend, 16-year old Annika and Annika's world-weary single dad Craig.", "poster_path": "/dNcoXoRC7JHiqbe7k5Ufo6syiPP.jpg", "release_date": "2014-09-25", "title": "Laggies", "video": false, "vote_average": 6.1, "vote_count": 788, "popularity": 13.836}, {"adult": false, "backdrop_path": "/msOjpu9wigi6n1Xa51MeLcBue88.jpg", "genre_ids": [18, 36, 10752, 10749], "id": 468224, "original_language": "en", "original_title": "Tolkien", "overview": "England, early 20th century. The future writer and philologist John Ronald Reuel Tolkien (1892-1973) and three of his schoolmates create a strong bond between them as they share the same passion for literature and art, a true fellowship that strengthens as they grow up, but the outbreak of World War I threatens to shatter it.", "poster_path": "/A7eYO3t7oZQdfJj5KlJBI7GhT9H.jpg", "release_date": "2019-05-03", "title": "Tolkien", "video": false, "vote_average": 6.8, "vote_count": 450, "popularity": 13.09}, {"id": 177572, "video": false, "vote_count": 11024, "vote_average": 7.8, "title": "Big Hero 6", "release_date": "2014-10-24", "original_language": "en", "original_title": "Big Hero 6", "genre_ids": [28, 12, 16, 35, 10751], "backdrop_path": "/wXBCE6sS94zb8IlnQ51OPApgfhC.jpg", "adult": false, "overview": "The special bond that develops between plus-sized inflatable robot Baymax, and prodigy Hiro Hamada, who team up with a group of friends to form a band of high-tech heroes.", "poster_path": "/9gLu47Zw5ertuFTZaxXOvNfy78T.jpg", "popularity": 51.374}, {"id": 391713, "video": false, "vote_count": 4444, "vote_average": 7.3, "title": "Lady Bird", "release_date": "2017-09-08", "original_language": "en", "original_title": "Lady Bird", "genre_ids": [35, 18], "backdrop_path": "/ocsCa41WtMqlsEnmewedmxpuCpF.jpg", "adult": false, "overview": "A California high school student plans to escape from her family and small town by going to college in New York, much to the disapproval of wildly loving, deeply opinionated and strong-willed mother.", "poster_path": "/iySFtKLrWvVzXzlFj7x1zalxi5G.jpg", "popularity": 26.625}, {"id": 13, "video": false, "vote_count": 16610, "vote_average": 8.4, "title": "Forrest Gump", "release_date": "1994-07-06", "original_language": "en", "original_title": "Forrest Gump", "genre_ids": [35, 18, 10749], "backdrop_path": "/wMgbnUVS9wbRGAdki8fqxKU1O0N.jpg", "adult": false, "overview": "A man with a low IQ has accomplished great things in his life and been present during significant historic events\u2014in each case, far exceeding what anyone imagined he could do. But despite all he has achieved, his one true love eludes him.", "poster_path": "/yE5d3BUhE8hCnkMUJOo1QDoOGNz.jpg", "popularity": 41.886}], "total_pages": 206, "total_results": 4106}, "recommendations": {"page": 1, "results": [{"id": 44546, "video": false, "vote_count": 8, "vote_average": 5.6, "title": "Lathe of Heaven", "release_date": "2002-09-08", "original_language": "en", "original_title": "Lathe of Heaven", "genre_ids": [878], "backdrop_path": "/bIWF4Q7WfZQt5QmU52UXZeu7dYB.jpg", "adult": false, "overview": "In a near future society a man claims that his dreams physically change reality. His therapist is confused at first but soon decides to use him for his own gain. The 2002 adaptation discards a significant portion of the original plot, some essential characters, and much of the philosophical underpinnings of the book and the original PBS production. Ursula K. Le Guin disapproved of the A&amp;E production, and stated that she found it \"misguided and uninteresting\".", "poster_path": "/rpGgiqi3j9LbW4kTckT9VJQu16I.jpg", "popularity": 2.866}, {"adult": false, "backdrop_path": "/lo01u4ZFUmrL9eRWfsrsDVZ65zF.jpg", "genre_ids": [99, 28], "id": 105942, "original_language": "en", "original_title": "ReGeneration", "overview": "ReGeneration is a 2010 American documentary film written and directed by Phillip Montgomery that looks at the issues facing today's youth and young adults, and the influences that contribute to America's current culture of apathy toward to political and social causes.", "poster_path": "/q6DqzWDuai2EqWE4stWwIZDRIaK.jpg", "release_date": "2010-05-24", "title": "ReGeneration", "video": false, "vote_average": 7.4, "vote_count": 11, "popularity": 2.94}, {"adult": false, "backdrop_path": "/7Dil0i2PT5llCrZCaeaPGgETpfX.jpg", "genre_ids": [18, 10749], "id": 40876, "original_language": "en", "original_title": "Down to the Bone", "overview": "A woman stuck in a stale marriage struggles to raise her children and manage her secret drug habit. But when winter comes to her small town, her balancing act begins to come crashing down.", "poster_path": "/9sDMFNVC25f5vq511oWogDUyBff.jpg", "release_date": "2004-01-14", "title": "Down to the Bone", "video": false, "vote_average": 6.5, "vote_count": 17, "popularity": 3.778}, {"adult": false, "backdrop_path": "/tjEFzlYMY0bDqJEESqUCjMADVZD.jpg", "genre_ids": [53], "id": 26041, "original_language": "en", "original_title": "Frozen", "overview": "It's two years since the mysterious disappearance of Kath Swarbrick's older sister Annie, but Kath remains haunted by a need to know what happened. When police investigations wind down, Kath continues the search herself. She gets nowhere until she steals some CCTV footage of her sister on her final day. Visiting the spot where Annie was filmed, Kath becomes convinced she has found a portal to another reality and from this portal Kath is trying to say something.", "poster_path": "/tAe8xF832tbrezAXtUzGhwiv6CS.jpg", "release_date": "2005-03-12", "title": "Frozen", "video": false, "vote_average": 6.0, "vote_count": 11, "popularity": 4.675}, {"adult": false, "backdrop_path": "/bOEr0Se2Pb57LvcGqtyX5ZQAMjs.jpg", "genre_ids": [35, 18], "id": 41496, "original_language": "en", "original_title": "A Dog Year", "overview": "Jon Katz is close to burnout. He's a writer with writer's block; his wife has left for her sister's because he's emotionally distant; he rarely answers his phone. A kennel sends him a border collie that's undisciplined because of abuse. Despite a series of mishaps, Jon decides to keep trying with the dog, and he rents a dilapidated farm house to give the dog room to run. A local handyman refers Jon to a woman who might be able to help him train the dog. Reluctantly, Jon gives her a try. Is the dog the problem, or the owner?", "poster_path": "/207xpwfEQAp1JJeMwpfiFzQ8O6U.jpg", "release_date": "2009-09-03", "title": "A Dog Year", "video": false, "vote_average": 6.4, "vote_count": 24, "popularity": 3.56}, {"adult": false, "backdrop_path": "/YfqJcfEoRaRp41zOkDku4ZAKyM.jpg", "genre_ids": [53], "id": 18273, "original_language": "en", "original_title": "Downloading Nancy", "overview": "Sick of her life, housewife Nancy just wants it to be over and done with, but rather than kill herself, she hires a stranger from the Internet to do the job for her. But fate takes a strange turn when she meets her killer and the two fall in love. Of course, Nancy realizes that love and murder do not naturally go hand in hand.", "poster_path": "/whdUfaM1rzbgiCm8hy8Cvvmysiz.jpg", "release_date": "2008-01-21", "title": "Downloading Nancy", "video": false, "vote_average": 5.3, "vote_count": 29, "popularity": 5.331}, {"adult": false, "backdrop_path": "/2CvHi6a3YPBhpFs3OC7XPxMB67a.jpg", "genre_ids": [27, 53], "id": 143928, "original_language": "en", "original_title": "Hellgate", "overview": "A western businessman, his Thai wife and son experience a horrible accident while visiting Bangkok. In the aftermath, they find there is a shadow world between life and death where endless darkness lies.", "poster_path": "/ArF8t5MPDImcTJWu3T6YCGUc7mX.jpg", "release_date": "2011-11-05", "title": "Hellgate", "video": false, "vote_average": 4.7, "vote_count": 14, "popularity": 4.33}, {"adult": false, "backdrop_path": "/en1qYBwJTIj7ChHQreEpOMzf884.jpg", "genre_ids": [18, 35], "id": 285270, "original_language": "en", "original_title": "Believe Me", "overview": "Desperate, broke, and out of ideas, four college seniors start a fake charity to embezzle money for tuition.", "poster_path": "/iSp7EVRLsTdd6CaKCvi6wCkMfqt.jpg", "release_date": "2014-09-26", "title": "Believe Me", "video": false, "vote_average": 5.1, "vote_count": 23, "popularity": 4.208}, {"id": 13164, "video": false, "vote_count": 16, "vote_average": 5.4, "title": "Everything's Gone Green", "release_date": "2006-04-13", "original_language": "en", "original_title": "Everything's Gone Green", "genre_ids": [35], "backdrop_path": "/xenO6eT2Iube7iVzn9Xs77Zg3Sx.jpg", "adult": false, "overview": "Ryan, a good-natured slacker, is tempted into a money laundering scheme while working for a lottery magazine. A capitalistic comedy that asks the question - when is \"enough\" enough?", "poster_path": "/reaYd8JUX4V8t6rmCvpU4iQrgxM.jpg", "popularity": 5.466}, {"id": 52654, "video": false, "vote_count": 21, "vote_average": 6.3, "title": "The Luzhin Defence", "release_date": "2000-08-21", "original_language": "en", "original_title": "The Luzhin Defence", "genre_ids": [18, 10749], "backdrop_path": "/fy7EVUj5UfskPDdQ8jBp2Fj3nsZ.jpg", "adult": false, "overview": "Based upon the novel by Vladimir Nabokov, a chess grandmaster travels to Italy in the 1920s to play in a tournament and falls in love.", "poster_path": "/dxiCjd2ofh6AcqssynYtM0Emdc2.jpg", "popularity": 4.817}, {"adult": false, "backdrop_path": "/qaaL16luAx5V5zLZichgIJZUlEf.jpg", "genre_ids": [80, 9648, 53], "id": 35689, "original_language": "en", "original_title": "Don McKay", "overview": "Everything appears off-kilter when a man returns to his hometown after 25 years to visit his former lover.", "poster_path": "/ypMSDfp7Iu70YUS5e73jYLpx96M.jpg", "release_date": "2009-04-24", "title": "Don McKay", "video": false, "vote_average": 5.3, "vote_count": 29, "popularity": 4.007}, {"id": 172469, "video": false, "vote_count": 15, "vote_average": 5.0, "title": "Love & Air Sex", "release_date": "2014-02-07", "original_language": "en", "original_title": "Love & Air Sex", "genre_ids": [35], "backdrop_path": "/ywUZFLki9T9PFYMgm0NVWwMug0S.jpg", "adult": false, "overview": "When brokenhearted Stan flies to Austin for the weekend in hopes of \"accidentally\" running into his ex-girlfriend Cathy, he arrives to find their best friends Jeff and Kara in the middle of their own vicious breakup. Before too long, battle lines are drawn \u2013 and with the Air Sex World Championships in town, anything can go down.", "poster_path": "/mqvf2qhMvZdApYObih2fiJszA0E.jpg", "popularity": 5.107}, {"adult": false, "backdrop_path": "/o9W8xGfyer3O1fk5pP3f7Ofd3nu.jpg", "genre_ids": [27, 53], "id": 62105, "original_language": "en", "original_title": "Re-Cut", "overview": "When twin girls are found dead in their family\u2019s barn, reality star turned TV-reporter Meredith Phillips and her de-facto camera crew are dispatched to rural Wisconsin to investigate the gruesome deaths. In their relentless drive to break the story, the reporters become entangled in a deadly mystery and uncover the small town\u2019s shocking secret. Edited together from the crew\u2019s multiple cameras, the film documents their struggle to survive the most terrifying night of their lives and becomes the only evidence of a crime too horrific to imagine.", "poster_path": "/67Bq6wEOXQ3usGFoy8cCksxMcne.jpg", "release_date": "2010-01-04", "title": "Re-Cut", "video": false, "vote_average": 3.8, "vote_count": 10, "popularity": 3.48}, {"adult": false, "backdrop_path": "/zulmbKl7wyydkybezBZ7TLsvAD9.jpg", "genre_ids": [28, 18], "id": 45233, "original_language": "en", "original_title": "Blade Violent - I violenti", "overview": "Emanuelle, a reporter, comes just a little too close to exposing a corrupt official, and is sent to prison on trumped-up charges. In the prison, the inmates are constantly humiliated and tortured by the prison staff. Overly affectionate prisoners are forced underwater, while others are obliged to look on. Emanuelle finds an enemy in the deranged Albina, who \"runs the prison.\" For the pleasure of the warden, Emanuelle and Albina are forced to fight each other with knives. Bad becomes worse when four men awaiting execution escape and take over the prison. Gore flows like water.", "poster_path": "/vGiQmRuUx6xAqF8o7YFRIW0pIce.jpg", "release_date": "1983-08-31", "title": "Women's Prison Massacre", "video": false, "vote_average": 4.5, "vote_count": 20, "popularity": 6.516}, {"adult": false, "backdrop_path": "/wCnBxGgvFSXgRBBkx0uO18DcxA1.jpg", "genre_ids": [18], "id": 84201, "original_language": "en", "original_title": "For Ellen", "overview": "After an overnight long-distance drive, Joby has a special meeting\u2014with lawyers and his ex-wife. A struggling musician with the prerequisite tattoos, slimy hair, goatee, and his head firmly floating in the clouds, Joby hasn\u2019t been around to be a dad. Now is his last chance to fight for shared custody of his daughter, Ellen.", "poster_path": "/e90D2CALahc3sOzf8wHjsyFQ8ck.jpg", "release_date": "2012-02-12", "title": "For Ellen", "video": false, "vote_average": 5.6, "vote_count": 18, "popularity": 3.746}, {"adult": false, "backdrop_path": "/bseA4a7ETR7EPSHvfGiynJ2ja95.jpg", "genre_ids": [18], "id": 261824, "original_language": "en", "original_title": "X/Y", "overview": "As Mark, Jen, Sylvia, and Jake navigate through their emotionally-arrested states, X/Y reveals the honest and wanton desire we all have to connect with someone and what is at stake when that connection fades.", "poster_path": "/jkdm0fESsSZLmqTnRtxEZzFK41X.jpg", "release_date": "2014-04-19", "title": "X/Y", "video": false, "vote_average": 4.9, "vote_count": 11, "popularity": 3.914}, {"id": 1363, "video": false, "vote_count": 24, "vote_average": 5.4, "title": "The Hi-Lo Country", "release_date": "1998-12-30", "original_language": "en", "original_title": "The Hi-Lo Country", "genre_ids": [28, 18, 37, 10749], "backdrop_path": "/iRSTQfYxNiIjr49PdX6PYPBXRTJ.jpg", "adult": false, "overview": "An intimate story of the enduring bond of friendship between two hard-living men, set against a sweeping backdrop: the American West, post-World War II, in its twilight. Pete and Big Boy are masters of the prairie, but ultimately face trickier terrain: the human heart.", "poster_path": "/dRV0aqhalPHVRwHKHTsj36QVhTR.jpg", "popularity": 4.924}, {"id": 1803, "video": false, "vote_count": 26, "vote_average": 6.3, "title": "Angel", "release_date": "1984-04-19", "original_language": "en", "original_title": "Angel", "genre_ids": [28, 80, 53], "backdrop_path": "/5m7zi5ndJludQeRAKK6j1FoZVUK.jpg", "adult": false, "overview": "15 year-old Molly is top of her high school class. But nobody suspects that the model pupil earns her money at night: as a prostitute on Sunset Blvd. The well-organized separation of her two lives is shattered when two of her friends are slain by a serial killer. She's the only eye witness and becomes a target herself.", "poster_path": "/3O7VwsGQdgqjChRxSZwPjjYND6m.jpg", "popularity": 8.543}], "total_pages": 1, "total_results": 18}, "credits": {"cast": [{"cast_id": 1, "character": "Andrew", "credit_id": "52fe4d919251416c9111abfd", "gender": 2, "id": 38582, "name": "David Krumholtz", "order": 0, "profile_path": "/5171elOp1qFxf9c8DkpeyhHBB6d.jpg"}, {"cast_id": 2, "character": "Dave", "credit_id": "52fe4d919251416c9111ac01", "gender": 2, "id": 54834, "name": "Zachary Knighton", "order": 1, "profile_path": "/sktWiOHOzmD8uQipSmYVma98j6O.jpg"}, {"cast_id": 3, "character": "Owen", "credit_id": "52fe4d919251416c9111ac05", "gender": 2, "id": 50095, "name": "Jason Ritter", "order": 2, "profile_path": "/ysWVNRFfk7oGngurF7VWkWhvyQS.jpg"}, {"cast_id": 4, "character": "Hannah", "credit_id": "52fe4d919251416c9111ac09", "gender": 1, "id": 15091, "name": "Melanie Lynskey", "order": 3, "profile_path": "/cwBglgH30cm9pjatpyzLCFbTINm.jpg"}, {"cast_id": 5, "character": "Emily", "credit_id": "52fe4d919251416c9111ac0d", "gender": 1, "id": 94098, "name": "Gillian Jacobs", "order": 4, "profile_path": "/sbZVI3F2t5CjmRANwHk3X6iOQpt.jpg"}, {"cast_id": 6, "character": "Zoe", "credit_id": "52fe4d919251416c9111ac11", "gender": 0, "id": 999605, "name": "Ahna O'Reilly", "order": 5, "profile_path": "/5zPbxS0shym8wutmhq3JQjC2aBT.jpg"}, {"cast_id": 7, "character": "Lori", "credit_id": "52fe4d919251416c9111ac15", "gender": 1, "id": 46814, "name": "Dale Dickey", "order": 6, "profile_path": "/588WXHw17JYi2rAqIVQXzgYENu3.jpg"}, {"cast_id": 8, "character": "Rich", "credit_id": "52fe4d919251416c9111ac19", "gender": 2, "id": 67711, "name": "French Stewart", "order": 7, "profile_path": "/8IpVIyRvwRAeWjsGtM7eAcZlj4t.jpg"}, {"cast_id": 9, "character": "Old Man Carl", "credit_id": "52fe4d919251416c9111ac1d", "gender": 2, "id": 13726, "name": "Ned Beatty", "order": 8, "profile_path": "/aO5MtnqcZHpsVYz1nINdjqgEJUl.jpg"}], "crew": [{"credit_id": "52fe4d919251416c9111ac23", "department": "Directing", "gender": 0, "id": 1284954, "job": "Director", "name": "Thomas Beatty", "profile_path": null}, {"credit_id": "5a6e0991925141076901bde5", "department": "Directing", "gender": 0, "id": 1968497, "job": "Director", "name": "Rebecca Fishman", "profile_path": null}]}}