{"adult": false, "backdrop_path": "/ovrUhCK8glSjfZzgVlVYL1IghDh.jpg", "belongs_to_collection": null, "budget": 0, "genres": [{"id": 18, "name": "Drama"}], "homepage": null, "id": 199305, "imdb_id": "tt0035797", "original_language": "it", "original_title": "Desiderio", "overview": "Paola, a Milan call girl, returns home to her village in the Abruzzi mountains in an attempt to go straight. Rejected by her father, blackmailed by a former lover, and lusted after by her brother-in-law, she turns to her beloved sister for support. Denied succor, like so many of Rossellini\u2019s isolated figures, Paola awaits the arrival of her fianc\u00e9, who has offered her a new start, but instead decides that life is untenable.", "popularity": 0.727, "poster_path": "/eHcQdzDmkjZvgDzv9aXcPZv2Fnl.jpg", "production_companies": [{"id": 88398, "logo_path": null, "name": "Sovrania Film", "origin_country": ""}, {"id": 88399, "logo_path": null, "name": "Imperator Film", "origin_country": "IT"}, {"id": 88400, "logo_path": null, "name": "Societ\u00e0 Anonima Film Italiani Roma (SAFIR)", "origin_country": ""}], "production_countries": [{"iso_3166_1": "IT", "name": "Italy"}], "release_date": "1946-09-09", "revenue": 0, "runtime": 91, "spoken_languages": [{"iso_639_1": "it", "name": "Italiano"}], "status": "Released", "tagline": "There's a girl like her in every town!", "title": "Desire", "video": false, "vote_average": 0.0, "vote_count": 0, "keywords": {"keywords": [{"id": 549, "name": "prostitute"}, {"id": 10614, "name": "tragedy"}]}, "similar": {"page": 1, "results": [{"adult": false, "backdrop_path": "/tk6QB32plylH41eo2Pbv4sIVljO.jpg", "genre_ids": [18], "id": 50270, "original_language": "it", "original_title": "Paprika", "overview": "A young country girl comes to town and works in a brothel in order to help her fiance get the money to start his own business. \"Paprika\" is the name given to her by the madam.", "poster_path": "/6QthFTJvUheocw3fcKklnsMcGib.jpg", "release_date": "1991-02-13", "title": "Paprika", "video": false, "vote_average": 5.9, "vote_count": 81, "popularity": 19.933}, {"adult": false, "backdrop_path": "/3mEfawlJnuu4OmUlAOesrAMsWv6.jpg", "genre_ids": [53, 27], "id": 9540, "original_language": "en", "original_title": "Dead Ringers", "overview": "Elliot, a successful gynecologist, works at the same practice as his identical twin, Beverly. Elliot is attracted to many of his patients and has affairs with them. When he inevitably loses interest, he will give the woman over to Beverly, the meeker of the two, without the woman knowing the difference. Beverly falls hard for one of the patients, Claire, but when she inadvertently deceives him, he slips into a state of madness.", "poster_path": "/9ZGBwiWIvN9KmHaLeSS5it44G21.jpg", "release_date": "1988-09-23", "title": "Dead Ringers", "video": false, "vote_average": 7.2, "vote_count": 388, "popularity": 10.111}, {"adult": false, "backdrop_path": "/hm4vpIhBW75bTIDTurq2d4rLZy1.jpg", "genre_ids": [53, 18, 27], "id": 3511, "original_language": "en", "original_title": "The Broken", "overview": "The life of a successful radiologist spirals out of control when she sees the spitting image of herself driving down a London street. While attempting to uncover who the imposter could be, she stumbles into a terrifying mystery that her family and closest friends are somehow involved in, leaving her with no one to trust.", "poster_path": "/nGTUsccLUZhF9Bb5fjvL7KrogvC.jpg", "release_date": "2008-01-18", "title": "The Broken", "video": false, "vote_average": 5.5, "vote_count": 113, "popularity": 10.122}, {"adult": false, "backdrop_path": "/xC9cG6Wy6QbH2hoAx11xPPD995R.jpg", "genre_ids": [18, 10749], "id": 86331, "original_language": "fr", "original_title": "Q", "overview": "In a social context deteriorated by a countrywide economic crisis, the life of several people will be turned upside down after they meet Cecile, a character who symbolizes desire.", "poster_path": "/9Jg9s4yTEndNmy1SSXRF9jdxY9D.jpg", "release_date": "2011-09-14", "title": "Desire", "video": false, "vote_average": 4.6, "vote_count": 204, "popularity": 25.756}, {"id": 249397, "video": false, "vote_count": 1667, "vote_average": 6.7, "title": "Nymphomaniac: Vol. II", "release_date": "2013-12-25", "original_language": "en", "original_title": "Nymphomaniac: Vol. II", "genre_ids": [18, 9648], "backdrop_path": "/chloasXdurCYMk0Oa11665jFCQl.jpg", "adult": false, "overview": "The continuation of Joe's sexually dictated life delves into the darker aspects of her adult life and what led to her being in Seligman's care.", "poster_path": "/2FBFiDhx3tGe8PG4A5iuCbeIJ4s.jpg", "popularity": 19.876}, {"adult": false, "backdrop_path": "/fwreQBx5CD55c1DpH117cS8915P.jpg", "genre_ids": [18, 53], "id": 867, "original_language": "en", "original_title": "Sliver", "overview": "A woman moves into an apartment in Manhattan and learns that the previous tenant's life ended mysteriously after they fell from the balcony.", "poster_path": "/av21Dfu31DQPtp5jkorMMS58rQC.jpg", "release_date": "1993-05-21", "title": "Sliver", "video": false, "vote_average": 5.3, "vote_count": 288, "popularity": 19.094}, {"adult": false, "backdrop_path": "/90kmxuSwU28dVy1ghVSHI4x1wb8.jpg", "genre_ids": [35, 18, 37], "id": 537996, "original_language": "en", "original_title": "The Ballad of Buster Scruggs", "overview": "Vignettes weaving together the stories of six individuals in the old West at the end of the Civil War. Following the tales of a sharp-shooting songster, a wannabe bank robber, two weary traveling performers, a lone gold prospector, a woman traveling the West to an uncertain future, and a motley crew of strangers undertaking a carriage ride.", "poster_path": "/voxl654m7p36y8FLu8oQD7dfwwK.jpg", "release_date": "2018-11-09", "title": "The Ballad of Buster Scruggs", "video": false, "vote_average": 7.2, "vote_count": 2074, "popularity": 13.969}, {"id": 1427, "video": false, "vote_count": 2511, "vote_average": 7.2, "title": "Perfume: The Story of a Murderer", "release_date": "2006-09-13", "original_language": "en", "original_title": "Perfume: The Story of a Murderer", "genre_ids": [80, 18, 14], "backdrop_path": "/3i8bJa5yvLZW2k4sg2Cd1Yy0a1x.jpg", "adult": false, "overview": "Jean-Baptiste Grenouille, born in the stench of 18th century Paris, develops a superior olfactory sense, which he uses to create the world's finest perfumes. However, his work takes a dark turn as he tries to preserve scents in the search for the ultimate perfume.", "poster_path": "/zC9JHS6NlkJKPYFxOOqBl7fQCjT.jpg", "popularity": 20.263}, {"id": 504, "video": false, "vote_count": 1127, "vote_average": 7.2, "title": "Monster", "release_date": "2003-12-24", "original_language": "en", "original_title": "Monster", "genre_ids": [80, 18], "backdrop_path": "/pexMctImHaIj8haojBDP5RxhM9X.jpg", "adult": false, "overview": "An emotionally scarred highway drifter shoots a sadistic trick who rapes her, and ultimately becomes America's first female serial killer.", "poster_path": "/aevmNtJCNG4ZlfEeEGZ79frMUes.jpg", "popularity": 14.393}, {"adult": false, "backdrop_path": "/fop31RWFi9sVL0xK5hAJGh7Fwkz.jpg", "genre_ids": [18, 80], "id": 261023, "original_language": "en", "original_title": "Black Mass", "overview": "The true story of Whitey Bulger, the brother of a state senator and the most infamous violent criminal in the history of South Boston, who became an FBI informant to take down a Mafia family invading his turf.", "poster_path": "/nSbpuyd2UySuW7kaoXzYUfes1Bl.jpg", "release_date": "2015-09-04", "title": "Black Mass", "video": false, "vote_average": 6.4, "vote_count": 2192, "popularity": 16.347}, {"adult": false, "backdrop_path": "/9sdyDGXuVgL9jjbAOB66PDNfykB.jpg", "genre_ids": [18], "id": 25482, "original_language": "es", "original_title": "Canciones de amor en Lolita's Club", "overview": "The plot follows the story of twin brothers, one is a coldhearted violent police officer, the other is a helpless romantic with a mental disability. The two brothers are tragically involved with a prostitute who works in the bordello that gives the film its title. The film was adapted from an eponymous novel written by Juan Mars\u00e9.", "poster_path": "/15jLOE0qqlM3goiJltqOJHopzm1.jpg", "release_date": "2007-11-30", "title": "Lolita's Club", "video": false, "vote_average": 3.8, "vote_count": 6, "popularity": 3.959}, {"id": 1626, "video": false, "vote_count": 282, "vote_average": 8.0, "title": "Vivre Sa Vie", "release_date": "1962-08-28", "original_language": "fr", "original_title": "Vivre sa vie: film en douze tableaux", "genre_ids": [18], "backdrop_path": "/wXfI2cHga8Ek4gcixd1mZzOCk8A.jpg", "adult": false, "overview": "Twelve episodic tales in the life of a Parisian woman and her slow descent into prostitution.", "poster_path": "/5XTJ9q5ZGcWcK6fY1w2YEZMtPRr.jpg", "popularity": 11.457}, {"adult": false, "backdrop_path": "/arcpWGGnUkGkakOwZo7xfPsaz7h.jpg", "genre_ids": [9648, 53], "id": 2832, "original_language": "en", "original_title": "Identity", "overview": "Complete strangers stranded at a remote desert motel during a raging storm soon find themselves the target of a deranged murderer. As their numbers thin out, the travelers begin to turn on each other, as each tries to figure out who the killer is.", "poster_path": "/xSNSp2wmCUwFavxdkMF417hBc39.jpg", "release_date": "2003-04-25", "title": "Identity", "video": false, "vote_average": 7.2, "vote_count": 2091, "popularity": 19.629}, {"id": 59967, "video": false, "vote_count": 7205, "vote_average": 6.8, "title": "Looper", "release_date": "2012-09-26", "original_language": "en", "original_title": "Looper", "genre_ids": [28, 878, 53], "backdrop_path": "/vuHG8VlYnvw4gUKtS7GY5kZol69.jpg", "adult": false, "overview": "In the futuristic action thriller Looper, time travel will be invented but it will be illegal and only available on the black market. When the mob wants to get rid of someone, they will send their target 30 years into the past where a looper, a hired gun, like Joe is waiting to mop up. Joe is getting rich and life is good until the day the mob decides to close the loop, sending back Joe's future self for assassination.", "poster_path": "/sNjL6SqErDBE8OUZlrDLkexfsCj.jpg", "popularity": 24.08}, {"id": 11033, "video": false, "vote_count": 359, "vote_average": 6.8, "title": "Dressed to Kill", "release_date": "1980-07-25", "original_language": "en", "original_title": "Dressed to Kill", "genre_ids": [27, 9648, 53], "backdrop_path": "/mtGByKUtyLVWXl8OjWFOicLHsFo.jpg", "adult": false, "overview": "A mysterious, tall, blonde woman wearing sunglasses murders one of a psychiatrist's patients, and now she's after the prostitute who witnessed it.", "poster_path": "/b9RHUexTE6MT5x6iZ2Wmq56H1cJ.jpg", "popularity": 15.886}, {"id": 157847, "video": false, "vote_count": 566, "vote_average": 6.6, "title": "Joe", "release_date": "2014-04-11", "original_language": "en", "original_title": "Joe", "genre_ids": [18], "backdrop_path": "/183Jzh007eOZRkrfIDAcpvhzKli.jpg", "adult": false, "overview": "The rough-hewn boss of a lumber crew courts trouble when he steps in to protect the youngest member of his team from an abusive father.", "poster_path": "/bvcLnoffCm67n7pZPVdJ6pluJsi.jpg", "popularity": 11.275}, {"id": 76758, "video": false, "vote_count": 375, "vote_average": 7.4, "title": "The Flowers of War", "release_date": "2011-12-15", "original_language": "zh", "original_title": "\u91d1\u9675\u5341\u4e09\u91f5", "genre_ids": [18, 36, 10752], "backdrop_path": "/iJNkqCLAHm9hseBMLFeuwxD7Wpo.jpg", "adult": false, "overview": "A Westerner finds refuge with a group of women in a church during Japan's rape of Nanking in 1937. Posing as a priest, he attempts to lead the women to safety.", "poster_path": "/s9Lgt28YhHIVllsF3N1FxwNuGre.jpg", "popularity": 9.36}, {"adult": false, "backdrop_path": "/o4lpqMqDQGx4RVorWzcHnSaDeRo.jpg", "genre_ids": [27], "id": 1690, "original_language": "en", "original_title": "Hostel", "overview": "Three backpackers head to a Slovakian city that promises to meet their hedonistic expectations, with no idea of the hell that awaits them.", "poster_path": "/zF3pEs1CUbjPgioxDH4h2MEHsWl.jpg", "release_date": "2006-01-06", "title": "Hostel", "video": false, "vote_average": 5.8, "vote_count": 2026, "popularity": 16.556}, {"adult": false, "backdrop_path": "/tvTyRu9eKfymkje8d9VoWJEoyUv.jpg", "genre_ids": [18], "id": 53932, "original_language": "es", "original_title": "Las edades de Lul\u00fa", "overview": "Fifteen-year-old Lulu has never known any affection from her family. But when she goes to a rock concert with Pablo, a friend of the family, he introduces Lulu to her first sexual experience. Years later, Pablo and Lulu have married; Pablo has created a sheltered, private world for Lulu, into which nothing intrudes. However, Lulu tires of her cloistered existence, and begins hanging out in shady bars, looking for vicarious thrills and danger.", "poster_path": "/5PK5MAN84o0ESgzeW9euozOLIEe.jpg", "release_date": "1990-12-13", "title": "The Ages of Lulu", "video": false, "vote_average": 5.7, "vote_count": 64, "popularity": 24.141}, {"adult": false, "backdrop_path": "/bYbnlh6VXFRtcSX82UMDsBDLB5j.jpg", "genre_ids": [18, 10749], "id": 28468, "original_language": "it", "original_title": "La chiave", "overview": "After twenty years of marriage, art professor Nino Rolfe attempts to break down his wife Teresa's conventional modesty. Noticing her affection for their daughter's fianc\u00e9, Nino instigates her sexual interest in him as well. This sets off a chain of unexpected events and emotional complications, as Nino and his unpredictable fascist daughter find that they both enjoy being jealous.", "poster_path": "/e6g2geNLgFzMbriH6EvSJZD78nx.jpg", "release_date": "1983-10-18", "title": "The Key", "video": false, "vote_average": 5.0, "vote_count": 128, "popularity": 15.363}], "total_pages": 304, "total_results": 6080}, "recommendations": {"page": 1, "results": [], "total_pages": 1, "total_results": 0}, "credits": {"cast": [{"cast_id": 1, "character": "Nando Mancini", "credit_id": "52fe4d979251416c9111b92b", "gender": 0, "id": 18340, "name": "Massimo Girotti", "order": 0, "profile_path": "/bz4jZxPSe00wKze4vF6aGpIcKn6.jpg"}, {"cast_id": 2, "character": "Giovanni Mirelli", "credit_id": "52fe4d979251416c9111b92f", "gender": 2, "id": 225484, "name": "Carlo Ninchi", "order": 1, "profile_path": "/fSvZqzydqOJrBrmGgoDAqzfCf1N.jpg"}, {"cast_id": 3, "character": "Paola Previtali (as Elly Parvo)", "credit_id": "52fe4d989251416c9111b933", "gender": 1, "id": 1121484, "name": "Elli Parvo", "order": 2, "profile_path": null}, {"cast_id": 4, "character": "Anna Previtali Mancini", "credit_id": "52fe4d989251416c9111b937", "gender": 0, "id": 543797, "name": "Roswita Schmidt", "order": 3, "profile_path": null}, {"cast_id": 5, "character": "Elena", "credit_id": "52fe4d989251416c9111b93b", "gender": 0, "id": 1179525, "name": "Lia Corelli", "order": 4, "profile_path": null}, {"cast_id": 19, "character": "Riccardo", "credit_id": "5a1755d4c3a3680b96006ddd", "gender": 0, "id": 4425, "name": "Francesco Grandjacquet", "order": 5, "profile_path": "/2Mbez4QZIUX6eqDi5VSjyiWIGFX.jpg"}], "crew": [{"credit_id": "58ddab21c3a3687c670011f7", "department": "Writing", "gender": 2, "id": 4410, "job": "Screenplay", "name": "Roberto Rossellini", "profile_path": "/u0wEQn45GT9ciDhOblvhDrSBmKC.jpg"}, {"credit_id": "54044e13c3a36843660067a2", "department": "Directing", "gender": 2, "id": 4410, "job": "Director", "name": "Roberto Rossellini", "profile_path": "/u0wEQn45GT9ciDhOblvhDrSBmKC.jpg"}, {"credit_id": "58ddab339251411b7a001169", "department": "Sound", "gender": 2, "id": 4416, "job": "Original Music Composer", "name": "Renzo Rossellini", "profile_path": null}, {"credit_id": "54044e05c3a3684372006517", "department": "Directing", "gender": 2, "id": 4422, "job": "Director", "name": "Marcello Pagliero", "profile_path": "/lXAv4nx1KkvZFohYn7fi5SFZRVO.jpg"}, {"credit_id": "58ddab489251411b87001201", "department": "Editing", "gender": 2, "id": 4422, "job": "Editor", "name": "Marcello Pagliero", "profile_path": "/lXAv4nx1KkvZFohYn7fi5SFZRVO.jpg"}, {"credit_id": "58ddab519251411b7a001183", "department": "Art", "gender": 0, "id": 12333, "job": "Production Design", "name": "Virgilio Marchi", "profile_path": null}, {"credit_id": "58ddab3bc3a3687c4d001247", "department": "Camera", "gender": 2, "id": 37198, "job": "Director of Photography", "name": "Rodolfo Lombardi", "profile_path": null}, {"credit_id": "58ddab1ac3a3687bf900117d", "department": "Writing", "gender": 2, "id": 41634, "job": "Screenplay", "name": "Giuseppe De Santis", "profile_path": "/eemhoFxca7szX9IPO5ec4hnXP9l.jpg"}, {"credit_id": "58ddab41c3a3687c4d001250", "department": "Camera", "gender": 0, "id": 479487, "job": "Director of Photography", "name": "Ugo Lombardi", "profile_path": null}, {"credit_id": "58ddab28c3a3687bf900118b", "department": "Writing", "gender": 0, "id": 1593268, "job": "Screenplay", "name": "Diego Calcagno", "profile_path": null}, {"credit_id": "58ddab139251411b7f001209", "department": "Writing", "gender": 0, "id": 1787001, "job": "Screenplay", "name": "Rosario Leone", "profile_path": null}, {"credit_id": "58ddab5bc3a3687bf90011b4", "department": "Production", "gender": 0, "id": 1787012, "job": "Production Manager", "name": "Renzo De Bonis", "profile_path": null}, {"credit_id": "58ddab649251411b830011d7", "department": "Production", "gender": 0, "id": 1787013, "job": "Production Manager", "name": "Silvio Lodi", "profile_path": null}]}}