{"adult": false, "backdrop_path": null, "belongs_to_collection": null, "budget": 0, "genres": [{"id": 27, "name": "Horror"}], "homepage": null, "id": 199330, "imdb_id": "tt2806362", "original_language": "es", "original_title": "El d\u00eda trajo la oscuridad", "overview": "It starts like this: a beach, a cliff, a pine tree forest, and a house made of stone. In the house, Virginia wakes up startled by a nightmare, and in the nightmare we can see her cousin Anabel with a deathly pale face and traces of blood around her lips.", "popularity": 1.336, "poster_path": "/hmnnoTWwb34VShkQSZTc0IEaWRz.jpg", "production_companies": [{"id": 34073, "logo_path": null, "name": "Domenica Films", "origin_country": ""}], "production_countries": [{"iso_3166_1": "AR", "name": "Argentina"}], "release_date": "2013-04-13", "revenue": 0, "runtime": 78, "spoken_languages": [{"iso_639_1": "es", "name": "Espa\u00f1ol"}], "status": "Released", "tagline": "", "title": "Darkness by Day", "video": false, "vote_average": 4.3, "vote_count": 4, "keywords": {"keywords": [{"id": 548, "name": "countryside"}, {"id": 1533, "name": "isolation"}, {"id": 3133, "name": "vampire"}, {"id": 3752, "name": "night"}, {"id": 10596, "name": "argentina"}]}, "similar": {"page": 1, "results": [{"id": 7131, "video": false, "vote_count": 3395, "vote_average": 6.1, "title": "Van Helsing", "release_date": "2004-05-05", "original_language": "en", "original_title": "Van Helsing", "genre_ids": [28, 12, 27], "backdrop_path": "/sib4pGrwKQUbFRyHlhXv03HXoHj.jpg", "adult": false, "overview": "Famed monster slayer Gabriel Van Helsing is dispatched to Transylvania to assist the last of the Valerious bloodline in defeating Count Dracula. Anna Valerious reveals that Dracula has formed an unholy alliance with Dr. Frankenstein's monster and is hell-bent on exacting a centuries-old curse on her family.", "poster_path": "/s2OPT5CZsZBQYAIlO9Mv4AimHvV.jpg", "popularity": 19.526}, {"id": 49017, "video": false, "vote_count": 4003, "vote_average": 6.3, "title": "Dracula Untold", "release_date": "2014-10-01", "original_language": "en", "original_title": "Dracula Untold", "genre_ids": [28, 18, 14, 27, 10752], "backdrop_path": "/gy5ItoprIPOT7Z1c2YhNhart39l.jpg", "adult": false, "overview": "Vlad Tepes is a great hero, but when he learns the Sultan is preparing for battle and needs to form an army of 1,000 boys, he vows to find a way to protect his family. Vlad turns to dark forces in order to get the power to destroy his enemies and agrees to go from hero to monster as he's turned into the mythological vampire, Dracula.", "poster_path": "/4oy4e0DP6LRwRszfx8NY8EYBj8V.jpg", "popularity": 32.104}, {"adult": false, "backdrop_path": "/ysLIi9nzMbUqi4dQh3tqblUb27o.jpg", "genre_ids": [878, 28, 27, 53, 12, 14], "id": 36648, "original_language": "en", "original_title": "Blade: Trinity", "overview": "For years, Blade has fought against the vampires in the cover of the night. But now, after falling into the crosshairs of the FBI, he is forced out into the daylight, where he is driven to join forces with a clan of human vampire hunters he never knew existed\u2014The Nightstalkers. Together with Abigail and Hannibal, two deftly trained Nightstalkers, Blade follows a trail of blood to the ancient creature that is also hunting him\u2014the original vampire, Dracula.", "poster_path": "/4WinsdHQBdh5aTt7Bd7T7dbUXbb.jpg", "release_date": "2004-12-08", "title": "Blade: Trinity", "video": false, "vote_average": 5.8, "vote_count": 2278, "popularity": 19.358}, {"adult": false, "backdrop_path": "/99Z7mNsixJJTn10tHLCtu6XcY6E.jpg", "genre_ids": [53, 27], "id": 10577, "original_language": "en", "original_title": "Dracula 2000", "overview": "In the millenium version of this classic Gothic horror we find Abraham Van Helsing, who has tangled with Count Dracula in the past, working as an English antiques dealer. Simon is a vampire hunter in training under his apprenticeship.", "poster_path": "/6YF56U91zP1mQvle83KA1A7CPop.jpg", "release_date": "2000-12-22", "title": "Dracula 2000", "video": false, "vote_average": 4.7, "vote_count": 317, "popularity": 11.748}, {"adult": false, "backdrop_path": "/yXjduDjZdoYo58eMG0yr19mhRiA.jpg", "genre_ids": [28, 16, 27], "id": 161337, "original_language": "en", "original_title": "Underworld: Endless War", "overview": "Underworld: Endless War is a collection of three short, anime-style tie-in stories-\u2014whose creation was supervised by Len Wiseman, director of the first 2 Underworld movies and producer of Underworld 3 &amp; 4--each tell a different story, and at different periods of history to highlight new events of the Underworld mythology. These stories also tell of what happened before the events in Underworld: Awakening", "poster_path": "/85NPnGHxkt1Ebz9uuU5blZW4KZE.jpg", "release_date": "2011-10-19", "title": "Underworld: Endless War", "video": true, "vote_average": 6.2, "vote_count": 58, "popularity": 10.358}, {"id": 24021, "video": false, "vote_count": 5444, "vote_average": 6.1, "title": "The Twilight Saga: Eclipse", "release_date": "2010-06-23", "original_language": "en", "original_title": "The Twilight Saga: Eclipse", "genre_ids": [12, 18, 14, 10749], "backdrop_path": "/lKCZYVQQb7Agw6WR25WvQBFKJmK.jpg", "adult": false, "overview": "Bella once again finds herself surrounded by danger as Seattle is ravaged by a string of mysterious killings and a malicious vampire continues her quest for revenge. In the midst of it all, she is forced to choose between her love for Edward and her friendship with Jacob, knowing that her decision has the potential to ignite the ageless struggle between vampire and werewolf. With her graduation quickly approaching, Bella is confronted with the most important decision of her life.", "poster_path": "/sOpCY4by0bkEu9LbVXVCOpWWKzF.jpg", "popularity": 21.716}, {"id": 277, "video": false, "vote_count": 4160, "vote_average": 6.7, "title": "Underworld", "release_date": "2003-09-19", "original_language": "en", "original_title": "Underworld", "genre_ids": [28, 14, 53], "backdrop_path": "/cPhRPAJWK8BuuJqqf6PztzvOlnZ.jpg", "adult": false, "overview": "Vampires and werewolves have waged a nocturnal war against each other for centuries. But all bets are off when a female vampire warrior named Selene, who's famous for her strength and werewolf-hunting prowess, becomes smitten with a peace-loving male werewolf, Michael, who wants to end the war.", "poster_path": "/rdkxl5iXdpVU188cL1LLG3sy6z4.jpg", "popularity": 22.311}, {"id": 346672, "video": false, "vote_count": 2460, "vote_average": 5.5, "title": "Underworld: Blood Wars", "release_date": "2016-11-24", "original_language": "en", "original_title": "Underworld: Blood Wars", "genre_ids": [28, 18, 14, 27], "backdrop_path": "/fXqGBlz4xtLZzo878sHUxtsVzpU.jpg", "adult": false, "overview": "Vampire death dealer Selene fends off brutal attacks from both the Lycan clan and the Vampire faction that betrayed her. With her only allies, David and his father Thomas, she must stop the eternal war between Lycans and Vampires, even if it means she has to make the ultimate sacrifice.", "poster_path": "/nHXiMnWUAUba2LZ0dFkNDVdvJ1o.jpg", "popularity": 23.524}, {"id": 52520, "video": false, "vote_count": 2773, "vote_average": 6.2, "title": "Underworld: Awakening", "release_date": "2012-01-19", "original_language": "en", "original_title": "Underworld: Awakening", "genre_ids": [28, 14, 27], "backdrop_path": "/8iNsXY3LPsuT0gnUiTBMoNuRZI7.jpg", "adult": false, "overview": "Having escaped years of imprisonment, vampire warrioress Selene finds herself in a changed world where humans have discovered the existence of both Vampire and Lycan clans and are conducting an all-out war to eradicate both immortal species. Now Selene must battle the humans and a frightening new breed of super Lycans to ensure the death dealers' survival.", "poster_path": "/ayazc5fQ2YAw7vjaE1WGlJWtGX9.jpg", "popularity": 15.03}, {"adult": false, "backdrop_path": "/GRyynLqafMrLFMHqvfGdUweavA.jpg", "genre_ids": [27, 18, 14], "id": 628, "original_language": "en", "original_title": "Interview with the Vampire", "overview": "A vampire relates his epic life story of love, betrayal, loneliness, and dark hunger to an over-curious reporter.", "poster_path": "/hldXwwViSfHJS0kIJr07KBGmHJI.jpg", "release_date": "1994-11-11", "title": "Interview with the Vampire", "video": false, "vote_average": 7.3, "vote_count": 3231, "popularity": 21.064}, {"id": 36647, "video": false, "vote_count": 3460, "vote_average": 6.6, "title": "Blade", "release_date": "1998-08-21", "original_language": "en", "original_title": "Blade", "genre_ids": [28, 27], "backdrop_path": "/dGnDGHD5vmaRow4BzAiuJaGwIz3.jpg", "adult": false, "overview": "When Blade's mother was bitten by a vampire during pregnancy, she did not know that she gave her son a special gift while dying\u2014all the good vampire attributes in combination with the best human skills. Blade and his mentor battle an evil vampire rebel who plans to take over the outdated vampire council, capture Blade and resurrect a voracious blood god.", "poster_path": "/hEXJCBVZYWT8qBMwGJoSsvtnVhr.jpg", "popularity": 30.575}, {"id": 6114, "video": false, "vote_count": 2611, "vote_average": 7.4, "title": "Dracula", "release_date": "1992-11-13", "original_language": "en", "original_title": "Dracula", "genre_ids": [27, 10749], "backdrop_path": "/hm2stwkNFAaXMEeetJS2RZ77zC1.jpg", "adult": false, "overview": "When Dracula leaves the captive Jonathan Harker and Transylvania for London in search of Mina Harker\u2014the reincarnation of Dracula's long-dead wife, Elisabeta\u2014obsessed vampire hunter Dr. Van Helsing sets out to end the madness.", "poster_path": "/ioHxm3D3JdSXR61LRhcVb8KdZOz.jpg", "popularity": 21.922}, {"id": 2907, "video": false, "vote_count": 2495, "vote_average": 7.0, "title": "The Addams Family", "release_date": "1991-11-22", "original_language": "en", "original_title": "The Addams Family", "genre_ids": [35, 14, 27], "backdrop_path": "/5ZVG87nRXvzTv8VXdcYE5GzLg4K.jpg", "adult": false, "overview": "When an evil doctor finds out Uncle Fester has been missing for 25 years, he introduces a fake Fester in an attempt to get the Addams family's money. Wednesday has some doubts about the new uncle Fester, but the fake uncle adapts very well to the strange family.", "poster_path": "/ajiQj0jbacMAmPxDU3fP9TeIfTi.jpg", "popularity": 23.376}, {"id": 9945, "video": false, "vote_count": 533, "vote_average": 6.1, "title": "Vampires", "release_date": "1998-10-30", "original_language": "en", "original_title": "Vampires", "genre_ids": [28, 18, 14, 27, 53, 37], "backdrop_path": "/rFCx9xDNgywf1A5hsBbic0C0ihd.jpg", "adult": false, "overview": "The church enlists a team of vampire-hunters to hunt down and destroy a group of vampires searching for an ancient relic that will allow them to exist in sunlight.", "poster_path": "/qHGawU64MeGvtU86s6V0MA7MqFV.jpg", "popularity": 9.529}, {"id": 12110, "video": false, "vote_count": 476, "vote_average": 5.9, "title": "Dracula: Dead and Loving It", "release_date": "1995-12-22", "original_language": "en", "original_title": "Dracula: Dead and Loving It", "genre_ids": [35, 14, 27], "backdrop_path": "/y7N276seR43H31xvDbWMWxEsDr.jpg", "adult": false, "overview": "When a lawyer shows up at the vampire's doorstep, he falls prey to his charms and joins him in his search for fresh blood. Enter Professor Van Helsing, who may be the only one able to vanquish the Count.", "poster_path": "/xve4cgfYItnOhtzLYoTwTVy5FGr.jpg", "popularity": 14.191}, {"id": 50619, "video": false, "vote_count": 5595, "vote_average": 6.0, "title": "The Twilight Saga: Breaking Dawn - Part 1", "release_date": "2011-03-15", "original_language": "en", "original_title": "The Twilight Saga: Breaking Dawn - Part 1", "genre_ids": [12, 14, 10749], "backdrop_path": "/fwhRNjMmwqeGH35eQonSPmQs2ah.jpg", "adult": false, "overview": "The new found married bliss of Bella Swan and vampire Edward Cullen is cut short when a series of betrayals and misfortunes threatens to destroy their world.", "poster_path": "/dSSzv6JrlwS48pBeTNSswLJXOYF.jpg", "popularity": 22.3}, {"adult": false, "backdrop_path": "/wSnMlhSWIZ7JQYkHq168hK9R8Lh.jpg", "genre_ids": [14, 28, 878, 53], "id": 834, "original_language": "en", "original_title": "Underworld: Evolution", "overview": "As the war between the vampires and the Lycans rages on, Selene, a former member of the Death Dealers (an elite vampire special forces unit that hunts werewolves), and Michael, the werewolf hybrid, work together in an effort to unlock the secrets of their respective bloodlines.", "poster_path": "/fogihlu39MuYgL6pKObI4SQWPOY.jpg", "release_date": "2006-01-12", "title": "Underworld: Evolution", "video": false, "vote_average": 6.5, "vote_count": 2559, "popularity": 19.188}, {"id": 123553, "video": false, "vote_count": 3198, "vote_average": 6.3, "title": "The Mortal Instruments: City of Bones", "release_date": "2013-08-21", "original_language": "en", "original_title": "The Mortal Instruments: City of Bones", "genre_ids": [28, 12, 18, 14, 9648, 10749], "backdrop_path": "/xIisiN3GxiOMpYQOYarzWlgpDNT.jpg", "adult": false, "overview": "In New York City, Clary Fray, a seemingly ordinary teenager, learns that she is descended from a line of Shadowhunters \u2014 half-angel warriors who protect humanity from evil forces. After her mother disappears, Clary joins forces with a group of Shadowhunters and enters Downworld, an alternate realm filled with demons, vampires, and a host of other creatures. Clary and her companions must find and protect an ancient cup that holds the key to her mother's future.", "poster_path": "/xOBuyMuqc5lDNfxz6ipFjrxd38X.jpg", "popularity": 20.181}, {"id": 76492, "video": false, "vote_count": 5547, "vote_average": 6.9, "title": "Hotel Transylvania", "release_date": "2012-09-20", "original_language": "en", "original_title": "Hotel Transylvania", "genre_ids": [16, 35, 14, 10751], "backdrop_path": "/sETTal2HPPkUC3lWc27HL1AFu9C.jpg", "adult": false, "overview": "Welcome to Hotel Transylvania, Dracula's lavish five-stake resort, where monsters and their families can live it up and no humans are allowed. One special weekend, Dracula has invited all his best friends to celebrate his beloved daughter Mavis's 118th birthday. For Dracula catering to all of these legendary monsters is no problem but the party really starts when one ordinary guy stumbles into the hotel and changes everything!", "poster_path": "/9qugesYpAWHUpdrw2w8URSGkAPt.jpg", "popularity": 31.161}, {"id": 18239, "video": false, "vote_count": 5721, "vote_average": 5.8, "title": "The Twilight Saga: New Moon", "release_date": "2009-03-15", "original_language": "en", "original_title": "The Twilight Saga: New Moon", "genre_ids": [12, 18, 14, 10749], "backdrop_path": "/fOI3kFfMGBnNJJlnwYAXunpqzze.jpg", "adult": false, "overview": "Forks, Washington resident Bella Swan is reeling from the departure of her vampire love, Edward Cullen, and finds comfort in her friendship with Jacob Black, a werewolf. But before she knows it, she's thrust into a centuries-old conflict, and her desire to be with Edward at any cost leads her to take greater and greater risks.", "poster_path": "/4O6OCHVrXie2Th8asDn5utvlTwC.jpg", "popularity": 20.947}], "total_pages": 77, "total_results": 1535}, "recommendations": {"page": 1, "results": [], "total_pages": 1, "total_results": 0}, "credits": {"cast": [{"cast_id": 1, "character": "", "credit_id": "541600e5c3a3684cfd002999", "gender": 0, "id": 1364033, "name": "Pablo Caramelo", "order": 1, "profile_path": null}, {"cast_id": 2, "character": "", "credit_id": "541600f3c3a3684d030029ab", "gender": 0, "id": 145026, "name": "Marta Lubos", "order": 2, "profile_path": null}, {"cast_id": 3, "character": "", "credit_id": "541601050e0a261c23002b38", "gender": 0, "id": 447207, "name": "Romina Paula", "order": 3, "profile_path": "/uz477QUUhIoHySuhsRd7wGM7WLL.jpg"}, {"cast_id": 4, "character": "", "credit_id": "541601170e0a261c32002ada", "gender": 1, "id": 1302010, "name": "Mora Recalde", "order": 4, "profile_path": "/u3MGGlLmyFw4WZzwI7UIR1lJPGI.jpg"}, {"cast_id": 5, "character": "", "credit_id": "541601250e0a261c27002b42", "gender": 0, "id": 1364034, "name": "Luciano Suardi", "order": 5, "profile_path": null}], "crew": [{"credit_id": "541600bdc3a3684cf3002b66", "department": "Directing", "gender": 2, "id": 1187260, "job": "Director", "name": "Mart\u00edn De Salvo", "profile_path": null}, {"credit_id": "5848105bc3a3681414008a31", "department": "Writing", "gender": 0, "id": 1489096, "job": "Writer", "name": "Josefina Trotta", "profile_path": null}, {"credit_id": "5848106f92514119b3008084", "department": "Production", "gender": 0, "id": 1719297, "job": "Producer", "name": "Pepe Salvia", "profile_path": null}, {"credit_id": "58481083c3a368141100804d", "department": "Production", "gender": 0, "id": 1719298, "job": "Producer", "name": "Laura Tabl\u00f3n", "profile_path": null}, {"credit_id": "5848109792514119b6008291", "department": "Sound", "gender": 0, "id": 1719299, "job": "Music", "name": "Jorge Chikiar", "profile_path": null}, {"credit_id": "584810a792514119b9008370", "department": "Camera", "gender": 0, "id": 1719300, "job": "Director of Photography", "name": "Nicolas Trovato", "profile_path": null}, {"credit_id": "584810b892514119b9008378", "department": "Editing", "gender": 0, "id": 1386373, "job": "Editor", "name": "Andr\u00e9s Tambornino", "profile_path": null}, {"credit_id": "584810cbc3a368140a008612", "department": "Art", "gender": 0, "id": 1719301, "job": "Art Direction", "name": "Fernanda Chali", "profile_path": null}, {"credit_id": "584810e1c3a368141f0082d2", "department": "Camera", "gender": 0, "id": 1719302, "job": "Camera Operator", "name": "Cristian Vega", "profile_path": null}, {"credit_id": "584810f392514119b60082bc", "department": "Camera", "gender": 0, "id": 1719303, "job": "First Assistant Camera", "name": "Natalia Mart\u00ednez", "profile_path": null}, {"credit_id": "5848110892514119c2008529", "department": "Sound", "gender": 0, "id": 1719304, "job": "Sound Editor", "name": "Bruno Fumagalli", "profile_path": null}]}}