{"adult": false, "backdrop_path": "/9F6K0rQxzamZJnsnG2hLDa0znAv.jpg", "belongs_to_collection": null, "budget": 825000, "genres": [{"id": 16, "name": "Animation"}], "homepage": null, "id": 199947, "imdb_id": "tt0819780", "original_language": "fi", "original_title": "Keisarin Salaisuus", "overview": "", "popularity": 0.6, "poster_path": "/dWQRz67SMTEhUWxXsWxbhsq4ZyB.jpg", "production_companies": [{"id": 6159, "logo_path": "/pbWyMDcAM6s228tiUxjl3v1OAxr.png", "name": "Helsinki Filmi", "origin_country": "FI"}], "production_countries": [{"iso_3166_1": "FI", "name": "Finland"}], "release_date": "2006-08-27", "revenue": 0, "runtime": 85, "spoken_languages": [{"iso_639_1": "fi", "name": "suomi"}, {"iso_639_1": "pt", "name": "Portugu\u00eas"}], "status": "Released", "tagline": "", "title": "Emperor's Secret", "video": false, "vote_average": 5.0, "vote_count": 1, "keywords": {"keywords": [{"id": 10159, "name": "computer animation"}]}, "similar": {"page": 1, "results": [{"adult": false, "backdrop_path": "/vTM52y1yV5MzAQjls0Wd1wAqHoj.jpg", "genre_ids": [16, 10751], "id": 273307, "original_language": "en", "original_title": "VeggieTales: Larry-Boy and the Rumor Weed", "overview": "Any rumors caught your ear lately? Junior Asparagus and Laura Carrot learn just how easily rumors get started when they accidently launch a whopper about Larry-Boy's butler, Alfred! Before they know it, their little story is spreading all over Bumblyburg like a weed! Can Larry-Boy stop the rumor before Alfred gets hurt? Can anyone stop the rumor before Larry-Boy gets hurt?!? In the end, the kids learn that God doesn't want us to tell stories that can hurt. He wants us to spread nice words! Don't miss the action in ... Larry-Boy and the Rumor Weed!", "poster_path": "/nZ8nzaWIoNTiM9VwnC7sPN3DV7O.jpg", "release_date": "1999-07-24", "title": "VeggieTales: Larry-Boy and the Rumor Weed", "video": false, "vote_average": 5.3, "vote_count": 10, "popularity": 3.16}, {"id": 260513, "video": false, "vote_count": 7538, "vote_average": 7.5, "title": "Incredibles 2", "release_date": "2018-06-14", "original_language": "en", "original_title": "Incredibles 2", "genre_ids": [28, 12, 16, 10751], "backdrop_path": "/mabuNsGJgRuCTuGqjFkWe1xdu19.jpg", "adult": false, "overview": "Elastigirl springs into action to save the day, while Mr. Incredible faces his greatest challenge yet \u2013 taking care of the problems of his three children.", "poster_path": "/9lFKBtaVIhP7E2Pk0IY1CwTKTMZ.jpg", "popularity": 44.731}, {"adult": false, "backdrop_path": "/xStFRUQtjdQWiZEGN80rgkhN0Kh.jpg", "genre_ids": [18, 878], "id": 11864, "original_language": "en", "original_title": "Enemy Mine", "overview": "A soldier from Earth crashlands on an alien world after sustaining battle damage. Eventually he encounters another survivor, but from the enemy species he was fighting; they band together to survive on this hostile world. In the end the human finds himself caring for his enemy in a completely unexpected way.", "poster_path": "/rOGOW5BnkT0Ccg7XEDmdBUBuw0K.jpg", "release_date": "1985-12-12", "title": "Enemy Mine", "video": false, "vote_average": 6.8, "vote_count": 456, "popularity": 12.134}, {"id": 686, "video": false, "vote_count": 2422, "vote_average": 7.3, "title": "Contact", "release_date": "1997-07-11", "original_language": "en", "original_title": "Contact", "genre_ids": [18, 9648, 878], "backdrop_path": "/dBK75oCKuHVuJ9rSUnusIFbhocH.jpg", "adult": false, "overview": "Contact is a science fiction film about an encounter with alien intelligence. Based on the novel by Carl Sagan the film starred Jodie Foster as the one chosen scientist who must make some difficult decisions between her beliefs, the truth, and reality.", "poster_path": "/bCpMIywuNZeWt3i5UMLEIc0VSwM.jpg", "popularity": 21.581}, {"id": 563, "video": false, "vote_count": 2705, "vote_average": 6.9, "title": "Starship Troopers", "release_date": "1997-11-07", "original_language": "en", "original_title": "Starship Troopers", "genre_ids": [28, 12, 878, 53], "backdrop_path": "/cYWI1lnHEvoVKDdlrRt2b5et3Bj.jpg", "adult": false, "overview": "Set in the future, the story follows a young soldier named Johnny Rico and his exploits in the Mobile Infantry. Rico's military career progresses from recruit to non-commissioned officer and finally to officer against the backdrop of an interstellar war between mankind and an arachnoid species known as \"the Bugs\".", "poster_path": "/zeCD9WkhABFJmPq3SlTozXJGEtr.jpg", "popularity": 19.504}, {"adult": false, "backdrop_path": "/pZz5VmundsZO29sB3TgZKjnFEEM.jpg", "genre_ids": [35, 878], "id": 957, "original_language": "en", "original_title": "Spaceballs", "overview": "When the nefarious Dark Helmet hatches a plan to snatch Princess Vespa and steal her planet's air, space-bum-for-hire Lone Starr and his clueless sidekick fly to the rescue. Along the way, they meet Yogurt, who puts Lone Starr wise to the power of \"The Schwartz.\" Can he master it in time to save the day?", "poster_path": "/xWt9KAcToCRdJ6JH8JyZZlhkVgG.jpg", "release_date": "1987-06-24", "title": "Spaceballs", "video": false, "vote_average": 6.8, "vote_count": 1694, "popularity": 20.277}, {"id": 330459, "video": false, "vote_count": 10231, "vote_average": 7.5, "title": "Rogue One: A Star Wars Story", "release_date": "2016-12-14", "original_language": "en", "original_title": "Rogue One: A Star Wars Story", "genre_ids": [28, 12, 878], "backdrop_path": "/tZjVVIYXACV4IIIhXeIM59ytqwS.jpg", "adult": false, "overview": "A rogue band of resistance fighters unite for a mission to steal the Death Star plans and bring a new hope to the galaxy.", "poster_path": "/qjiskwlV1qQzRCjpV0cL9pEMF9a.jpg", "popularity": 29.289}, {"id": 926, "video": false, "vote_count": 1225, "vote_average": 7.0, "title": "Galaxy Quest", "release_date": "1999-12-23", "original_language": "en", "original_title": "Galaxy Quest", "genre_ids": [35, 878, 10751], "backdrop_path": "/zOyjWVIEJf5LhA88nBILQB8zfUJ.jpg", "adult": false, "overview": "The stars of a 1980s sci-fi show\u2014now eking out a living through re-runs and sci-fi conventions\u2014are beamed aboard an alien spacecraft. Believing the cast's heroic on-screen dramas are historical documents of real-life adventures, the band of aliens turn to the cast members for help in their quest to overcome the oppressive regime in their solar system.", "poster_path": "/1wStSUQZaWpq8czTTKFgdOyhfmB.jpg", "popularity": 25.754}, {"id": 181808, "video": false, "vote_count": 9718, "vote_average": 7.0, "title": "Star Wars: The Last Jedi", "release_date": "2017-12-13", "original_language": "en", "original_title": "Star Wars: The Last Jedi", "genre_ids": [28, 12, 14, 878], "backdrop_path": "/5Iw7zQTHVRBOYpA0V6z0yypOPZh.jpg", "adult": false, "overview": "Rey develops her newly discovered abilities with the guidance of Luke Skywalker, who is unsettled by the strength of her powers. Meanwhile, the Resistance prepares to do battle with the First Order.", "poster_path": "/kOVEVeg59E0wsnXmF9nrh6OmWII.jpg", "popularity": 54.85}, {"id": 19995, "video": false, "vote_count": 20117, "vote_average": 7.4, "title": "Avatar", "release_date": "2009-12-10", "original_language": "en", "original_title": "Avatar", "genre_ids": [28, 12, 14, 878], "backdrop_path": "/aHcth2AXzZSjhX7JYh7ie73YVNc.jpg", "adult": false, "overview": "In the 22nd century, a paraplegic Marine is dispatched to the moon Pandora on a unique mission, but becomes torn between following orders and protecting an alien civilization.", "poster_path": "/kmcqlZGaSh20zpTbuoF0Cdn07dT.jpg", "popularity": 39.174}, {"id": 1891, "video": false, "vote_count": 10794, "vote_average": 8.4, "title": "The Empire Strikes Back", "release_date": "1980-05-20", "original_language": "en", "original_title": "The Empire Strikes Back", "genre_ids": [28, 12, 878], "backdrop_path": "/amYkOxCwHiVTFKendcIW0rSrRlU.jpg", "adult": false, "overview": "The epic saga continues as Luke Skywalker, in hopes of defeating the evil Galactic Empire, learns the ways of the Jedi from aging master Yoda. But Darth Vader is more determined than ever to capture Luke. Meanwhile, rebel leader Princess Leia, cocky Han Solo, Chewbacca, and droids C-3PO and R2-D2 are thrown into various stages of capture, betrayal and despair.", "poster_path": "/9SKDSFbaM6LuGqG1aPWN3wYGEyD.jpg", "popularity": 25.562}, {"id": 1892, "video": false, "vote_count": 8971, "vote_average": 8.0, "title": "Return of the Jedi", "release_date": "1983-05-23", "original_language": "en", "original_title": "Return of the Jedi", "genre_ids": [28, 12, 878], "backdrop_path": "/koE7aMeR2ATivI18mCbscLsI0Nm.jpg", "adult": false, "overview": "Luke Skywalker leads a mission to rescue his friend Han Solo from the clutches of Jabba the Hutt, while the Emperor seeks to destroy the Rebellion once and for all with a second dreaded Death Star.", "poster_path": "/lrJWyjOVjPhghl4KyAMtOepAxs.jpg", "popularity": 31.676}, {"id": 698, "video": false, "vote_count": 999, "vote_average": 6.1, "title": "Moonraker", "release_date": "1979-06-26", "original_language": "en", "original_title": "Moonraker", "genre_ids": [28, 12, 878, 53], "backdrop_path": "/ueJ8K4ik1UQKa3cVUa8RHfDDqL.jpg", "adult": false, "overview": "After Drax Industries' Moonraker space shuttle is hijacked, secret agent James Bond is assigned to investigate, traveling to California to meet the company's owner, the mysterious Hugo Drax. With the help of scientist Dr. Holly Goodhead, Bond soon uncovers Drax's nefarious plans for humanity, all the while fending off an old nemesis, Jaws, and venturing to Venice, Rio, the Amazon...and outer space.", "poster_path": "/pz2r25q3NzNTDGygTYesq5mvwbz.jpg", "popularity": 19.673}, {"id": 57089, "video": false, "vote_count": 294, "vote_average": 5.0, "title": "Hoodwinked Too! Hood VS. Evil", "release_date": "2011-04-29", "original_language": "en", "original_title": "Hoodwinked Too! Hood VS. Evil", "genre_ids": [16, 35, 10751], "backdrop_path": "/32Jory70ZxHp2q14J2f7eNnyhLe.jpg", "adult": false, "overview": "Red Riding Hood is training in the group of Sister Hoods, when she and the Wolf are called to examine the sudden mysterious disappearance of Hansel and Gretel.", "poster_path": "/1Ldl7ji0iTlGePh09RU4bopkwSG.jpg", "popularity": 13.191}, {"adult": false, "backdrop_path": "/tBs9alJ2weUkOW83RkuBlz8Nlw6.jpg", "genre_ids": [18, 14], "id": 8967, "original_language": "en", "original_title": "The Tree of Life", "overview": "The impressionistic story of a Texas family in the 1950s. The film follows the life journey of the eldest son, Jack, through the innocence of childhood to his disillusioned adult years as he tries to reconcile a complicated relationship with his father. Jack finds himself a lost soul in the modern world, seeking answers to the origins and meaning of life while questioning the existence of faith.", "poster_path": "/ptDOdfOg0srtk4TGdeYbLqxv2nd.jpg", "release_date": "2011-05-18", "title": "The Tree of Life", "video": false, "vote_average": 6.6, "vote_count": 1905, "popularity": 12.901}, {"adult": false, "backdrop_path": "/mNla2FQU3n8uLIX7PPfD3r2geCZ.jpg", "genre_ids": [16, 14, 35, 878], "id": 278427, "original_language": "en", "original_title": "Family Guy Presents: It's a Trap!", "overview": "With the Griffins stuck again at home during a blackout, Peter tells the story of \u201cStar Wars Episode VI: Return of the Jedi.\u201d", "poster_path": "/hi1V4pE2H6AqlFNmSOxqORsAPgU.jpg", "release_date": "2010-12-21", "title": "Family Guy Presents: It's a Trap!", "video": false, "vote_average": 6.8, "vote_count": 259, "popularity": 10.591}, {"id": 275066, "video": true, "vote_count": 3, "vote_average": 8.7, "title": "VeggieTales: The League of Incredible Vegetables", "release_date": "2012-10-13", "original_language": "en", "original_title": "VeggieTales: The League of Incredible Vegetables", "genre_ids": [16, 10751], "backdrop_path": "/SVvSz0MNK1fWRrErzRVDYDa9Ns.jpg", "adult": false, "overview": "When Dr. Flurry wants to freeze the town of Bumblyburg in fear the problem's too big for LarryBoy alone. Enter The League of Incredible Vegetables!", "poster_path": "/kTkc6cgwzRPgBtYSGrDkGpo5MMM.jpg", "popularity": 0.957}, {"id": 13924, "video": false, "vote_count": 113, "vote_average": 5.4, "title": "The Adventures of Andr\u00e9 and Wally B.", "release_date": "1984-12-17", "original_language": "xx", "original_title": "The Adventures of Andr\u00e9 and Wally B.", "genre_ids": [16, 10751], "backdrop_path": "/7l7JMlnEvxoHTPRo0tcGwLEVCu8.jpg", "adult": false, "overview": "There's nothing like a restful nap in a pleasant wooded valley. But when Andr\u00e9 awakens and is greeted by a pesky yellow-and-black striped insect with a nasty stinger, he ends up taking a quick (and painful) hike.", "poster_path": "/fJyrCqZRzL4HN1FJ46OGITV4Yda.jpg", "popularity": 9.793}, {"adult": false, "backdrop_path": "/jDFuIr055fm4NA5UhQ9sgxfLbar.jpg", "genre_ids": [99], "id": 15302, "original_language": "en", "original_title": "The Pixar Story", "overview": "A look at the first years of Pixar Animation Studios - from the success of \"Toy Story\" and Pixar's promotion of talented people, to the building of its East Bay campus, the company's relationship with Disney, and its remarkable initial string of eight hits. The contributions of John Lasseter, Ed Catmull and Steve Jobs are profiled. The decline of two-dimensional animation is chronicled as three-dimensional animation rises. Hard work and creativity seem to share the screen in equal proportions.", "poster_path": "/zML03Zd84aqsZmi2sAq1FqLth7T.jpg", "release_date": "2007-08-28", "title": "The Pixar Story", "video": false, "vote_average": 7.6, "vote_count": 115, "popularity": 8.036}, {"id": 11051, "video": false, "vote_count": 488, "vote_average": 7.3, "title": "The Last Temptation of Christ", "release_date": "1988-08-12", "original_language": "en", "original_title": "The Last Temptation of Christ", "genre_ids": [18], "backdrop_path": "/rBqdcQeM1h05YjF9rFtPWnNaDO2.jpg", "adult": false, "overview": "Jesus, a humble Judean carpenter beginning to see that he is the son of God, is drawn into revolutionary action against the Roman occupiers by Judas -- despite his protestations that love, not violence, is the path to salvation. The burden of being the savior of mankind torments Jesus throughout his life, leading him to doubt. As he is put to death on the cross, Jesus is tempted by visions of an ordinary life married to Mary Magdalene.", "poster_path": "/dutPJWBeQgdfjRqeKojqmyIdXFd.jpg", "popularity": 11.894}], "total_pages": 16, "total_results": 301}, "recommendations": {"page": 1, "results": [], "total_pages": 1, "total_results": 0}, "credits": {"cast": [], "crew": [{"credit_id": "52fe4db79251416c9111f8b3", "department": "Directing", "gender": 1, "id": 1186697, "job": "Director", "name": "Riina Hyyti\u00e4", "profile_path": null}, {"credit_id": "5c43b89a0e0a266d5ad1f971", "department": "Writing", "gender": 2, "id": 88863, "job": "Story", "name": "Mika Ripatti", "profile_path": null}, {"credit_id": "5c43b8a5c3a3681a09236bfa", "department": "Writing", "gender": 0, "id": 88858, "job": "Screenplay", "name": "Aleksi Bardy", "profile_path": null}, {"credit_id": "5c43b8b4c3a3681a0e2370d4", "department": "Writing", "gender": 0, "id": 88864, "job": "Story", "name": "Seppo Vesiluoma", "profile_path": null}, {"credit_id": "5c43b8bd0e0a266d5cd205e4", "department": "Writing", "gender": 0, "id": 2221808, "job": "Writer", "name": "Jari Peltola", "profile_path": null}, {"credit_id": "5c43b8c99251412bf4dcb5b1", "department": "Production", "gender": 0, "id": 88858, "job": "Producer", "name": "Aleksi Bardy", "profile_path": null}, {"credit_id": "5c43b8d39251412bebdcc0ca", "department": "Sound", "gender": 0, "id": 2221809, "job": "Music", "name": "Tauri Oksala", "profile_path": null}]}}