{"adult": false, "backdrop_path": "/9O5FiACeyUnzPTIEUTNHbKfi7pu.jpg", "belongs_to_collection": null, "budget": 0, "genres": [{"id": 99, "name": "Documentary"}], "homepage": null, "id": 200655, "imdb_id": "tt0073193", "original_language": "en", "original_title": "Janis", "overview": "Released just a few years after her death, this forms a picture of who Janis was through interviews and performance clips.", "popularity": 2.133, "poster_path": "/h15Fz3A5qQQT2lDP8ubkKf3pwL2.jpg", "production_companies": [], "production_countries": [{"iso_3166_1": "CA", "name": "Canada"}], "release_date": "1974-10-18", "revenue": 0, "runtime": 96, "spoken_languages": [{"iso_639_1": "en", "name": "English"}], "status": "Released", "tagline": "", "title": "Janis", "video": false, "vote_average": 7.9, "vote_count": 9, "keywords": {"keywords": [{"id": 567, "name": "alcohol"}, {"id": 5565, "name": "biography"}, {"id": 10229, "name": "singer"}]}, "similar": {"page": 1, "results": [{"id": 487558, "video": false, "vote_count": 4020, "vote_average": 7.6, "title": "BlacKkKlansman", "release_date": "2018-07-30", "original_language": "en", "original_title": "BlacKkKlansman", "genre_ids": [80], "backdrop_path": "/wKRrldOtg6HVeGqGLls6iT9XO7I.jpg", "adult": false, "overview": "Colorado Springs, late 1970s. Ron Stallworth, an African American police officer, and Flip Zimmerman, his Jewish colleague, run an undercover operation to infiltrate the Ku Klux Klan.", "poster_path": "/8jxqAvSDoneSKRczaK8v9X5gqBp.jpg", "popularity": 25.597}, {"id": 424694, "video": false, "vote_count": 9728, "vote_average": 8.0, "title": "Bohemian Rhapsody", "release_date": "2018-10-24", "original_language": "en", "original_title": "Bohemian Rhapsody", "genre_ids": [18, 10402], "backdrop_path": "/93xA62uLd5CwMOAs37eQ7vPc1iV.jpg", "adult": false, "overview": "Singer Freddie Mercury, guitarist Brian May, drummer Roger Taylor and bass guitarist John Deacon take the music world by storm when they form the rock 'n' roll band Queen in 1970. Hit songs become instant classics. When Mercury's increasingly wild lifestyle starts to spiral out of control, Queen soon faces its greatest challenge yet \u2013 finding a way to keep the band together amid the success and excess.", "poster_path": "/lHu1wtNaczFPGFDTrjCSzeLPTKN.jpg", "popularity": 37.217}, {"id": 504608, "video": false, "vote_count": 1666, "vote_average": 7.4, "title": "Rocketman", "release_date": "2019-05-22", "original_language": "en", "original_title": "Rocketman", "genre_ids": [18, 10402], "backdrop_path": "/sZZJ42GrWKxSOfcrpI2TSFQa0AQ.jpg", "adult": false, "overview": "The story of Elton John's life, from his years as a prodigy at the Royal Academy of Music through his influential and enduring musical partnership with Bernie Taupin.", "poster_path": "/f4FF18ia7yTvHf2izNrHqBmgH8U.jpg", "popularity": 27.709}, {"id": 266856, "video": false, "vote_count": 6976, "vote_average": 7.9, "title": "The Theory of Everything", "release_date": "2014-11-26", "original_language": "en", "original_title": "The Theory of Everything", "genre_ids": [18, 10749], "backdrop_path": "/geAe08WmchATnZF461WffQBqJk1.jpg", "adult": false, "overview": "The Theory of Everything is the extraordinary story of one of the world\u2019s greatest living minds, the renowned astrophysicist Stephen Hawking, who falls deeply in love with fellow Cambridge student Jane Wilde.", "poster_path": "/4jspr8hLLuju59bCnMiefzRW4p0.jpg", "popularity": 22.686}, {"adult": false, "backdrop_path": "/nU6DDTabbMkd3649WYtSiOdHCMC.jpg", "genre_ids": [18, 10749], "id": 332283, "original_language": "en", "original_title": "Mary Shelley", "overview": "The love affair between poet Percy Shelley and Mary Wollstonecraft Godwin resulted in the creation of an immortal novel, \u201cFrankenstein; or, The Modern Prometheus.\u201d", "poster_path": "/gKHJTsrfxJtfFNPQJn2hDNEMtFf.jpg", "release_date": "2018-04-22", "title": "Mary Shelley", "video": false, "vote_average": 7.1, "vote_count": 516, "popularity": 12.227}, {"id": 451915, "video": false, "vote_count": 818, "vote_average": 7.6, "title": "Beautiful Boy", "release_date": "2018-10-12", "original_language": "en", "original_title": "Beautiful Boy", "genre_ids": [18], "backdrop_path": "/sOhtC4cmaYPOlcjXCWxxrx2NKKn.jpg", "adult": false, "overview": "After he and his first wife separate, journalist David Sheff struggles to help their teenage son, who goes from experimenting with drugs to becoming devastatingly addicted to methamphetamine.", "poster_path": "/i7gsLrNxpSf8NF5IZIrcOEfMyA3.jpg", "popularity": 17.739}, {"id": 228970, "video": false, "vote_count": 1566, "vote_average": 7.0, "title": "Wild", "release_date": "2014-12-05", "original_language": "en", "original_title": "Wild", "genre_ids": [18], "backdrop_path": "/pl6mEeLTI4IRnjbBGTMrJSBoYsU.jpg", "adult": false, "overview": "A woman with a tragic past decides to start her new life by hiking for one thousand miles on the Pacific Crest Trail.", "poster_path": "/zpdwj7Q8ZdTX2bWbltCFjVwugJu.jpg", "popularity": 12.623}, {"id": 1955, "video": false, "vote_count": 1711, "vote_average": 8.1, "title": "The Elephant Man", "release_date": "1980-10-02", "original_language": "en", "original_title": "The Elephant Man", "genre_ids": [18, 36], "backdrop_path": "/rR479zn26lJp4vNxXKjfBVCHLAW.jpg", "adult": false, "overview": "A Victorian surgeon rescues a heavily disfigured man being mistreated by his \"owner\" as a side-show freak. Behind his monstrous fa\u00e7ade, there is revealed a person of great intelligence and sensitivity. Based on the true story of Joseph Merrick (called John Merrick in the film), a severely deformed man in 19th century London.", "poster_path": "/lDXJUmLQsViSKLbil2luD91l2kE.jpg", "popularity": 12.883}, {"adult": false, "backdrop_path": "/mYKP6qcDUimVMAHQWLOuDHjO19S.jpg", "genre_ids": [35], "id": 445629, "original_language": "en", "original_title": "Fighting with My Family", "overview": "Born into a tight-knit wrestling family, Paige and her brother Zak are ecstatic when they get the once-in-a-lifetime opportunity to try out for the WWE. But when only Paige earns a spot in the competitive training program, she must leave her loved ones behind and face this new cutthroat world alone. Paige's journey pushes her to dig deep and ultimately prove to the world that what makes her different is the very thing that can make her a star.", "poster_path": "/cVhe15rJLRjolunSWLBN6xQLyGU.jpg", "release_date": "2019-02-14", "title": "Fighting with My Family", "video": false, "vote_average": 6.7, "vote_count": 643, "popularity": 18.498}, {"adult": false, "backdrop_path": "/urnGzQvP8fwWWGkn1k809KqIjbm.jpg", "genre_ids": [18], "id": 87093, "original_language": "en", "original_title": "Big Eyes", "overview": "The story of the awakening of painter, Margaret Keane, her phenomenal success in the 1950s, and the subsequent legal difficulties she had with her husband, who claimed credit for her works in the 1960s.", "poster_path": "/z2tqzprHojhgEGYKQepjU28oQg6.jpg", "release_date": "2014-12-24", "title": "Big Eyes", "video": false, "vote_average": 7.0, "vote_count": 2349, "popularity": 14.024}, {"id": 5915, "video": false, "vote_count": 6283, "vote_average": 7.8, "title": "Into the Wild", "release_date": "2007-09-11", "original_language": "en", "original_title": "Into the Wild", "genre_ids": [12, 18], "backdrop_path": "/9yJehIjvR7ULOLxeDJoth4kDDNe.jpg", "adult": false, "overview": "After graduating from Emory University in 1992, top student and athlete Christopher McCandless abandons his possessions, gives his entire $24,000 savings account to charity, and hitchhikes to Alaska to live in the wilderness.", "poster_path": "/lHyYgaocXR6KcJLxVmxZDj115hH.jpg", "popularity": 13.103}, {"adult": false, "backdrop_path": "/kiWvoV78Cc3fUwkOHKzyBgVdrDD.jpg", "genre_ids": [37, 18, 12], "id": 281957, "original_language": "en", "original_title": "The Revenant", "overview": "In the 1820s, a frontiersman, Hugh Glass, sets out on a path of vengeance against those who left him for dead after a bear mauling.", "poster_path": "/oXUWEc5i3wYyFnL1Ycu8ppxxPvs.jpg", "release_date": "2015-12-25", "title": "The Revenant", "video": false, "vote_average": 7.5, "vote_count": 12127, "popularity": 24.135}, {"id": 457799, "video": false, "vote_count": 1572, "vote_average": 7.0, "title": "Extremely Wicked, Shockingly Evil and Vile", "release_date": "2019-05-02", "original_language": "en", "original_title": "Extremely Wicked, Shockingly Evil and Vile", "genre_ids": [80, 18, 53], "backdrop_path": "/uRoA67sM5vvCI4cplxhl67BTPly.jpg", "adult": false, "overview": "A chronicle of the crimes of Ted Bundy, from the perspective of his longtime girlfriend, Elizabeth Kloepfer, who refused to believe the truth about him for years.", "poster_path": "/zSuJ3r5zr5T26tTxyygHhgkUAIM.jpg", "popularity": 22.062}, {"adult": false, "backdrop_path": "/6bnI08rrGXRkngRqJWCMXDZuJ1j.jpg", "genre_ids": [35, 10402], "id": 254470, "original_language": "en", "original_title": "Pitch Perfect 2", "overview": "The Bellas are back, and they are better than ever. After being humiliated in front of none other than the President of the United States of America, the Bellas are taken out of the Aca-Circuit. In order to clear their name, and regain their status, the Bellas take on a seemingly impossible task: winning an international competition no American team has ever won. In order to accomplish this monumental task, they need to strengthen the bonds of friendship and sisterhood and blow away the competition with their amazing aca-magic! With all new friends and old rivals tagging along for the trip, the Bellas can hopefully accomplish their dreams.", "poster_path": "/qSjruLiFB4uqRtz2xheQPxG8uaB.jpg", "release_date": "2015-05-07", "title": "Pitch Perfect 2", "video": false, "vote_average": 6.8, "vote_count": 3901, "popularity": 29.697}, {"id": 411728, "video": false, "vote_count": 342, "vote_average": 7.2, "title": "The Professor and the Madman", "release_date": "2019-03-07", "original_language": "en", "original_title": "The Professor and the Madman", "genre_ids": [18, 36, 9648, 53], "backdrop_path": "/zhNfM1CSQqJtIqelwlK9iKtSd9P.jpg", "adult": false, "overview": "Professor James Murray begins work compiling words for the first edition of the Oxford English Dictionary in the mid 19th century, and receives over 10,000 entries from a patient at Broadmoor Criminal Lunatic Asylum, Dr. William Minor.", "poster_path": "/gtGCDLhfjW96qVarwctnuTpGOtD.jpg", "popularity": 13.302}, {"id": 316029, "video": false, "vote_count": 5853, "vote_average": 8.0, "title": "The Greatest Showman", "release_date": "2017-12-20", "original_language": "en", "original_title": "The Greatest Showman", "genre_ids": [18], "backdrop_path": "/zpq404Sk7qQ7N4x3xOeNgp74GtU.jpg", "adult": false, "overview": "The story of American showman P.T. Barnum, founder of the circus that became the famous traveling Ringling Bros. and Barnum & Bailey Circus.", "poster_path": "/b9CeobiihCx1uG1tpw8hXmpi7nm.jpg", "popularity": 29.077}, {"id": 401847, "video": false, "vote_count": 664, "vote_average": 6.8, "title": "Can You Ever Forgive Me?", "release_date": "2018-10-19", "original_language": "en", "original_title": "Can You Ever Forgive Me?", "genre_ids": [35, 80, 18], "backdrop_path": "/shIOFWkjTn2NRvq5r4Mn2xLdZeJ.jpg", "adult": false, "overview": "When a bestselling celebrity biographer is no longer able to get published because she has fallen out of step with current tastes, she turns her art form to deception.", "poster_path": "/hPuZR2bFoV0kuBrA98exWyvTf40.jpg", "popularity": 16.339}, {"id": 205775, "video": false, "vote_count": 2362, "vote_average": 6.6, "title": "In the Heart of the Sea", "release_date": "2015-11-20", "original_language": "en", "original_title": "In the Heart of the Sea", "genre_ids": [28, 12, 18, 36, 53], "backdrop_path": "/aZoZ0NglXgiBMToem9HhTAYYamw.jpg", "adult": false, "overview": "In the winter of 1820, the New England whaling ship Essex is assaulted by something no one could believe\u2014a whale of mammoth size and will, and an almost human sense of vengeance.", "poster_path": "/zVmWh0Zfg4UhbvdGI8LQrn1lQZJ.jpg", "popularity": 18.435}, {"id": 300671, "video": false, "vote_count": 1700, "vote_average": 7.1, "title": "13 Hours: The Secret Soldiers of Benghazi", "release_date": "2016-01-13", "original_language": "en", "original_title": "13 Hours: The Secret Soldiers of Benghazi", "genre_ids": [28, 18, 36, 53, 10752], "backdrop_path": "/hY8myWhjSOUeeiPskhOfwwgaCwc.jpg", "adult": false, "overview": "An American Ambassador is killed during an attack at a U.S. compound in Libya as a security team struggles to make sense out of the chaos.", "poster_path": "/4gpW4MkRI0BB17GHOJzXq0WamDP.jpg", "popularity": 20.173}, {"id": 396371, "video": false, "vote_count": 1970, "vote_average": 7.1, "title": "Molly's Game", "release_date": "2017-12-25", "original_language": "en", "original_title": "Molly's Game", "genre_ids": [80, 18], "backdrop_path": "/rHcBZ6ZKCe4FalWHyvBGsyMsh0k.jpg", "adult": false, "overview": "Molly Bloom, a young skier and former Olympic hopeful becomes a successful entrepreneur (and a target of an FBI investigation) when she establishes a high-stakes, international poker game.", "poster_path": "/in43bQ7k0ttr666IPP94IlbQbTR.jpg", "popularity": 18.141}], "total_pages": 314, "total_results": 6263}, "recommendations": {"page": 1, "results": [{"adult": false, "backdrop_path": "/Kgrr8gHyzMGbkzGjK8TVhb7qie.jpg", "genre_ids": [35, 18], "id": 68861, "original_language": "fi", "original_title": "Veijarit", "overview": "The director Lauri Nurkse tells that Veijarit is a film about \"arjensietokyvytt\u00f6myys\" (= inability to tolerate everyday life) and about the Peter Pan complex. The main actor Mikko Leppilampi says it's about \"kolkyttoistavuotiaat\" (= thirtyeenagers = people of thirty behaving like teenagers). An immediate reference point is the commedia all'italiana of the 1950s and the 1960s, the black comedy often exposing the infantile stage of development of the Italian male. Saku and \u00c4ss\u00e4 are anti-heroes, but we never fail to sense the humanity behind their shallow and crazy ways. Veijarit is a satire and a parody of a superficial way of life, but there is a vitality in the protagonists that we feel can lead them to a more meaningful stage of existence after the prolonged youth full of sound and fury. There is a motif of transcendence in the imagery of flying: will the balloons carry me or will they burst.", "poster_path": "/rMx2NghgjrthMqcPp9VRca4PMWv.jpg", "release_date": "2010-12-25", "title": "Veijarit", "video": false, "vote_average": 5.0, "vote_count": 6, "popularity": 2.218}, {"adult": false, "backdrop_path": "/3gjkXpuUne0cCG2lEcz1JZzLHtN.jpg", "genre_ids": [], "id": 102218, "original_language": "es", "original_title": "Mujeres en el parque", "overview": "", "poster_path": "/loiHaCOs4chLJagiprw9Bq4gx1q.jpg", "release_date": "2006-10-21", "title": "Mujeres en el parque", "video": false, "vote_average": 6.7, "vote_count": 3, "popularity": 1.285}, {"adult": false, "backdrop_path": null, "genre_ids": [18], "id": 99387, "original_language": "es", "original_title": "Malas temporadas", "overview": "When the troubled son of an NGO worker refuses to take a test and announces that he is not leaving his room, his concerned mother asks one of her clients, a Cuban exile, for help in setting the boy straight. Gonzalo has decided to drop out of school, and his mother Ana isn't sure how to convince the boy that he's making a crucial mistake. Ana's client Carlos is a Cuban exile who makes his living selling cigars and artwork on the black market. When Carlos learns of Ana's dilemma, he calls on recently released convict Mikel to teach the boy how to play chess. Perhaps is young Gonzalo can master the game, he can learn to start living again. As the lessons get underway, each of these characters learns that in order to truly move on with their lives they much first break free of the bonds that prevent them from being who they really are.", "poster_path": "/AaDu1jc2WlkqZYCcC7kNflWUWXh.jpg", "release_date": "2005-11-18", "title": "Hard Times", "video": false, "vote_average": 6.3, "vote_count": 6, "popularity": 1.615}, {"adult": false, "backdrop_path": "/9NFYKXvAukL96rAL0rECNbriefW.jpg", "genre_ids": [18], "id": 167074, "original_language": "es", "original_title": "La vida que te espera", "overview": "A fight over the calf of a prize milk cow in the close-knit and traditional Pas Valley of Cantabria leaves a cantankerous dairy farmer dead and another fearful of arrest. He and his daughter Val conspire to keep the cause of death quiet, but tensions mount when Val becomes attracted to the dead farmer's son, Rai, estranged from his father and now a hairdresser in the city. The tensions open long-festering family resentments and spur the lurid imagination of Val's younger sister, the teen Genia. \"What goes unsaid, gets undone,\" the Pasiegos say, but is it true? Is there harm in staying silent?", "poster_path": "/q1s9wfPclvWh33rKNPXzIimJUs3.jpg", "release_date": "2004-01-30", "title": "Your Next Life", "video": false, "vote_average": 6.3, "vote_count": 6, "popularity": 1.726}, {"adult": false, "backdrop_path": "/aL8RqNC2W1q94H88eu9wUWffH4I.jpg", "genre_ids": [99, 10770], "id": 453543, "original_language": "es", "original_title": "Sexo en el plat\u00f3", "overview": "How are the sex scenes filmed? What tricks are used to fake the desire? How do the interpreters prepare and feel? Spanish actors and directors talk about the most intimate side of acting, about the tricks and work methods when narrating exposed sex. In Spain the general rule is that there are no rules. Each film, each interpreter, faces it in very different ways.", "poster_path": "/dURlMF67OhGpWjWSL0h6Pi72xZU.jpg", "release_date": "2007-04-09", "title": "Sexo en el plat\u00f3", "video": false, "vote_average": 5.5, "vote_count": 6, "popularity": 2.063}, {"adult": false, "backdrop_path": null, "genre_ids": [], "id": 147512, "original_language": "en", "original_title": "Nubes de verano", "overview": "Daniel (Roberto Enr\u00edquez), Ana (Natalia Mill\u00e1n), and their little boy, Manuel (Kevin Almod\u00f3var), travel from Madrid to a resort on the Costa Brava for the summer. Ana runs into Marta (Irene Montal\u00e0 of L'Auberge Espagnole), a local shopgirl whom she's met on previous visits. Marta introduces Ana to her cousin, Robert (David Selvas), who runs an antique shop. Robert is immediately attracted to Ana. Marta tells him that Ana is happily married, and confesses that she has a crush on Ana's husband, Daniel. Robert, intrigued, makes a pact with Marta. Robert will help Marta seduce Daniel if she will help Robert seduce Ana. One night, the cousins cunningly arrange to separate the couple, and some serious flirtation ensues. While Marta, casually dates a local surfer, Tom\u00e1s (Roger Casamajor), begins to have second thoughts, Robert grows more obsessed with the couple. He befriends Daniel and peppers him with questions about the strength of his nine-year marriage.", "poster_path": "/yBduPZQN31MniqqCfE6RVq7KOHw.jpg", "release_date": "2004-04-30", "title": "Summer Clouds", "video": false, "vote_average": 6.6, "vote_count": 9, "popularity": 2.906}, {"adult": false, "backdrop_path": "/mGz9r1Iu7wopYgLJGIfU8LrOXUb.jpg", "genre_ids": [35], "id": 287301, "original_language": "fi", "original_title": "Kes\u00e4kaverit", "overview": "25-year-old Iiris and Karoliina have been best friends since childhood. Karoliina has been travelling and living abroad for some years now, but is coming back home for the summer as Karoliina has gotten them a job as waitresses in Hanko, the best summer city in Finland!", "poster_path": "/ajXKaDrVm6WJ8LemPv9L3CqsSMs.jpg", "release_date": "2014-08-01", "title": "Summertime", "video": false, "vote_average": 4.8, "vote_count": 10, "popularity": 2.657}, {"adult": false, "backdrop_path": "/adrfC9wPP7ZuOgJBN7Mu30b6BiF.jpg", "genre_ids": [10749, 18, 10752], "id": 54669, "original_language": "fi", "original_title": "K\u00e4sky", "overview": "There is civil war in Finland. Between whites vs reds. A woman soldier of reds is captured by the whites. She is ordered to be executed.\r The lieutenat is enforced into a homosexual relationship with his commanding officer to save the Red female with whom he is infatuated.", "poster_path": "/dgWmPf749BKifxgIC8zQQ2FDYAm.jpg", "release_date": "2008-08-29", "title": "Tears of April", "video": false, "vote_average": 6.6, "vote_count": 10, "popularity": 3.002}, {"adult": false, "backdrop_path": null, "genre_ids": [18, 10749], "id": 71110, "original_language": "es", "original_title": "En la ciudad", "overview": "The film portrays the daily lives, secrets, lies, loneliness and frustrations of a group of eight thirty-something friends living in Barcelona.", "poster_path": "/g5HSHV4kWb8IAtbGInV6mxwB1U5.jpg", "release_date": "2003-11-07", "title": "In the City", "video": false, "vote_average": 6.5, "vote_count": 10, "popularity": 3.29}, {"id": 70955, "video": false, "vote_count": 9, "vote_average": 6.3, "title": "Backstage", "release_date": "2005-11-16", "original_language": "fr", "original_title": "Backstage", "genre_ids": [18], "backdrop_path": "/jZmbixZryvbpUSECzFGZHErJz7E.jpg", "adult": false, "overview": "An adolescent groupie zeroes in on her Blondie-like idol after the singer chances to cross her orbit on a publicity tour. Gradually their lives intertwine as, with near-operatic intensity, the film delves into the emotional dependency on both sides of celebrity culture.", "poster_path": "/A6JBXXQD75tU9olO5t0j3l6qkp0.jpg", "popularity": 1.996}, {"adult": false, "backdrop_path": null, "genre_ids": [10752, 10749, 18], "id": 124955, "original_language": "en", "original_title": "La hora de los valientes", "overview": "After the Spanish Civil War breaks out, the Prado Museum is being evacuated. One of the guards finds a painting by the master, Goya, and takes it to prevent damage to the work of art. In the interim, he meets a young lady with whom he falls in love. Assisted by her and her family members, the soldier attempts to save Goya's masterpiece intact amidst the war and violence.", "poster_path": "/dVhefvgTqxIwhn51egAjsqxo1aM.jpg", "release_date": "1998-12-18", "title": "A Time for Defiance", "video": false, "vote_average": 6.4, "vote_count": 8, "popularity": 2.048}, {"adult": false, "backdrop_path": "/4ph6Kr8iu2LravoTU6tEf1nLMai.jpg", "genre_ids": [18], "id": 66184, "original_language": "pt", "original_title": "Barravento", "overview": "In the State of Bahia, Brazil, an educated black man returns to his home fishing village to try and free people from mysticism, in particular the Candombl\u00e9 religion, which he considers a factor of political and social oppression, with tragic outcome.", "poster_path": "/qq6cWnoNb3C8HrBsf7SHlcqDKmK.jpg", "release_date": "1962-05-28", "title": "Barravento", "video": false, "vote_average": 7.2, "vote_count": 15, "popularity": 1.745}, {"adult": false, "backdrop_path": "/uIF3gtJiItKcWpluZfxuAvzjF8i.jpg", "genre_ids": [18], "id": 87308, "original_language": "fa", "original_title": "\u0634\u06cc\u0631\u06cc\u0646", "overview": "A hundred and fourteen famous Iranian theater and cinema actresses and a French star: mute spectators at a theatrical representation of Khosrow and Shirin, a Persian poem from the twelfth century, put on stage by Kiarostami. The development of the text -- long a favorite in Persia and the Middle East -- remains invisible to the viewer of the film, the whole story is told by the faces of the women watching the show.", "poster_path": "/qXqu5U1ZXk2InH7m3xDL55YuCXq.jpg", "release_date": "2008-01-20", "title": "Shirin", "video": false, "vote_average": 7.0, "vote_count": 13, "popularity": 2.844}, {"adult": false, "backdrop_path": "/p0T0ZKCH8FhUQt6bdNvdzK1neUM.jpg", "genre_ids": [18], "id": 15941, "original_language": "es", "original_title": "Los Borgia", "overview": "A portrait of the bloody dynasty that spawned a pope, Alexander VI, as well as the role model for Machiavelli's \"The Prince,\" his son Cesare Borgia, and a legend of femme duplicity, daughter Lucrezia Borgia.", "poster_path": "/mCO243MBb9A01pXVZh84kBsh9RH.jpg", "release_date": "2006-10-06", "title": "The Borgia", "video": false, "vote_average": 5.3, "vote_count": 17, "popularity": 4.697}], "total_pages": 1, "total_results": 14}, "credits": {"cast": [{"cast_id": 4, "character": "Herself", "credit_id": "52fe4c8dc3a368484e1bc09d", "gender": 1, "id": 86395, "name": "Janis Joplin", "order": 0, "profile_path": "/7ZcZPmctQpIyo4OwX6gvG7N3Gq5.jpg"}, {"cast_id": 5, "character": "Himself", "credit_id": "58dc00d4c3a3685c8a0014b9", "gender": 2, "id": 1786140, "name": "Richard Bell", "order": 1, "profile_path": null}], "crew": [{"credit_id": "52fe4c8dc3a368484e1bc08d", "department": "Directing", "gender": 0, "id": 927798, "job": "Director", "name": "Howard Alk", "profile_path": null}, {"credit_id": "52fe4c8dc3a368484e1bc093", "department": "Writing", "gender": 0, "id": 927798, "job": "Writer", "name": "Howard Alk", "profile_path": null}, {"credit_id": "52fe4c8dc3a368484e1bc099", "department": "Writing", "gender": 0, "id": 1181520, "job": "Writer", "name": "Seaton Findlay", "profile_path": null}]}}