{"adult": false, "backdrop_path": null, "belongs_to_collection": null, "budget": 0, "genres": [{"id": 28, "name": "Action"}], "homepage": "", "id": 201593, "imdb_id": "tt0072975", "original_language": "en", "original_title": "The Farmer", "overview": "Kyle Martin returns as a silver star hero, but realizes running a one man farm is not profitable, and the bank wants to foreclose, despite returning as a hero. Then a gambler Johnny has a car accident near his farm, in which Kyle saves his life, in which Johnny offers him 1,5000 dollars, which still isn't enough to save the farm. Then when Johnny past-post on a horse race for over $50,000, angering local mobster Passini as he and his three henchmen kills Johnny's bodyguard and then blinds Johnny's eyes with acid to \"make a example out of him\", Johnny asks his girl Betty to ask Kyle to kill Prassini and his men one by one for $50,000, the money he needs to save his farm, which sets the path for revenge.  Written by serpent 5", "popularity": 0.859, "poster_path": "/l2Qs97NaDPmasSCOqyCtYBmi1Xy.jpg", "production_companies": [], "production_countries": [], "release_date": "1977-03-08", "revenue": 0, "runtime": 97, "spoken_languages": [], "status": "Released", "tagline": "He doesn't get mad. He gets even.", "title": "The Farmer", "video": false, "vote_average": 0.0, "vote_count": 0, "keywords": {"keywords": [{"id": 2804, "name": "exploitation"}, {"id": 6158, "name": "cult"}, {"id": 9748, "name": "revenge"}, {"id": 9826, "name": "murder"}, {"id": 154846, "name": "farmer"}]}, "similar": {"page": 1, "results": [{"adult": false, "backdrop_path": "/t3OZS8yMs0NL4YgWWc04eXHTn1X.jpg", "genre_ids": [28, 80, 53], "id": 984, "original_language": "en", "original_title": "Dirty Harry", "overview": "When a madman dubbed 'Scorpio' terrorizes San Francisco, hard-nosed cop, Harry Callahan \u2013 famous for his take-no-prisoners approach to law enforcement \u2013 is tasked with hunting down the psychopath. Harry eventually collars Scorpio in the process of rescuing a kidnap victim, only to see him walk on technicalities. Now, the maverick detective is determined to nail the maniac himself.", "poster_path": "/2TADKc4GMMPdMrLXj0xJVgTvZJM.jpg", "release_date": "1971-12-21", "title": "Dirty Harry", "video": false, "vote_average": 7.5, "vote_count": 1173, "popularity": 18.839}, {"adult": false, "backdrop_path": "/a24i4Qw6qFTtkFLQsncv8WPwevj.jpg", "genre_ids": [53, 28, 80], "id": 345887, "original_language": "en", "original_title": "The Equalizer 2", "overview": "Robert McCall, who serves an unflinching justice for the exploited and oppressed, embarks on a relentless, globe-trotting quest for vengeance when a long-time girl friend is murdered.", "poster_path": "/cQvc9N6JiMVKqol3wcYrGshsIdZ.jpg", "release_date": "2018-07-19", "title": "The Equalizer 2", "video": false, "vote_average": 6.5, "vote_count": 2483, "popularity": 21.271}, {"adult": false, "backdrop_path": "/v761yOHKO3p6Yr7LDCjud6tUL5G.jpg", "genre_ids": [28, 80, 53], "id": 10651, "original_language": "en", "original_title": "The Dead Pool", "overview": "Dirty Harry Callahan returns for his final film adventure. Together with his partner Al Quan, he must investigate the systematic murder of actors and musicians. By the time Harry learns that the murders are a part of a sick game to predict the deaths of celebrities before they happen, it may be too late...", "poster_path": "/9ZUSqox9lIxN4xaYBac2QXMFcZj.jpg", "release_date": "1988-07-12", "title": "The Dead Pool", "video": false, "vote_average": 6.4, "vote_count": 389, "popularity": 10.626}, {"adult": false, "backdrop_path": "/pA64Ov7lDpwXBu33yq0KpmAOYJL.jpg", "genre_ids": [27, 53], "id": 357096, "original_language": "en", "original_title": "I Spit on Your Grave III: Vengeance is Mine", "overview": "Jennifer Hills is still tormented by the brutal sexual assault she endured years ago. She\u2019s changed identities and cities, reluctantly joining a support group where she begins to piece together a new life. But when her new friend\u2019s murderer goes free and the tales of serial rapists haunt her, Jennifer will hunt down the men responsible and do what the system won\u2019t \u2013 make them pay for their crimes in the most horrific ways imaginable. Only this time, no jury may be able to save her.", "poster_path": "/6SnOlgrUoC5jqmgcYIM5lde5zYq.jpg", "release_date": "2015-10-01", "title": "I Spit on Your Grave III: Vengeance is Mine", "video": false, "vote_average": 5.3, "vote_count": 437, "popularity": 20.815}, {"adult": false, "backdrop_path": "/xdha8DvElblfBbNnkpGsF42lAyv.jpg", "genre_ids": [28, 80, 53], "id": 2749, "original_language": "en", "original_title": "15 Minutes", "overview": "When Eastern European criminals Oleg and Emil come to New York City to pick up their share of a heist score, Oleg steals a video camera and starts filming their activities, both legal and illegal. When they learn how the American media circus can make a remorseless killer look like the victim and make them rich, they target media-savvy NYPD Homicide Detective Eddie Flemming and media-naive FDNY Fire Marshal Jordy Warsaw, the cops investigating their murder and torching of their former criminal partner, filming everything to sell to the local tabloid TV show \"Top Story.\"", "poster_path": "/qqqleHV8y7NLKt7isSZAvOwVPH6.jpg", "release_date": "2001-03-01", "title": "15 Minutes", "video": false, "vote_average": 5.8, "vote_count": 372, "popularity": 14.636}, {"adult": false, "backdrop_path": "/3naOwcmYNZfd80kC1OXmembjc8j.jpg", "genre_ids": [53, 28, 18], "id": 445954, "original_language": "en", "original_title": "Acts of Vengeance", "overview": "A fast-talking lawyer transforms his body and takes a vow of silence, not to be broken until he finds out who killed his wife and daughter and has his revenge.", "poster_path": "/r5o6vWPYOQs6bv91gQ8kQs2zQYl.jpg", "release_date": "2017-10-27", "title": "Acts of Vengeance", "video": false, "vote_average": 5.7, "vote_count": 234, "popularity": 15.211}, {"id": 75780, "video": false, "vote_count": 4451, "vote_average": 6.4, "title": "Jack Reacher", "release_date": "2012-12-20", "original_language": "en", "original_title": "Jack Reacher", "genre_ids": [28, 80, 18, 53], "backdrop_path": "/ezXodpP429qK0Av89pVNlaXWJkQ.jpg", "adult": false, "overview": "When a gunman takes five lives with six shots, all evidence points to the suspect in custody. On interrogation, the suspect offers up a single note: \"Get Jack Reacher!\" So begins an extraordinary chase for the truth, pitting Jack Reacher against an unexpected enemy, with a skill for violence and a secret to keep.", "poster_path": "/mt0ELw83HIRgaKaDzhsDcIi0RnW.jpg", "popularity": 15.945}, {"id": 4638, "video": false, "vote_count": 4429, "vote_average": 7.5, "title": "Hot Fuzz", "release_date": "2007-02-14", "original_language": "en", "original_title": "Hot Fuzz", "genre_ids": [28, 35, 80], "backdrop_path": "/zuskekrfW3gj9ttXNVhfdHe5n22.jpg", "adult": false, "overview": "As a former London constable, Nicholas Angel finds it difficult to adapt to his new assignment in the sleepy British village of Sandford. Not only does he miss the excitement of the big city, but he also has a well-meaning oaf for a partner. However, when a series of grisly accidents rocks Sandford, Angel smells something rotten in the idyllic village.", "poster_path": "/5Jx6s6VXnunh8wCLgR0YgjwSgjh.jpg", "popularity": 22.387}, {"adult": false, "backdrop_path": "/aJCEQFFXNcfg5YneJzTG15qzxF7.jpg", "genre_ids": [28, 53], "id": 1572, "original_language": "en", "original_title": "Die Hard: With a Vengeance", "overview": "New York detective John McClane is back and kicking bad-guy butt in the third installment of this action-packed series, which finds him teaming with civilian Zeus Carver to prevent the loss of innocent lives. McClane thought he'd seen it all, until a genius named Simon engages McClane, his new \"partner\" -- and his beloved city -- in a deadly game that demands their concentration.", "poster_path": "/ivpXGcsPZglyYrN65THWSD7JM3q.jpg", "release_date": "1995-05-19", "title": "Die Hard: With a Vengeance", "video": false, "vote_average": 7.1, "vote_count": 3603, "popularity": 27.341}, {"id": 500664, "video": false, "vote_count": 1709, "vote_average": 7.3, "title": "Upgrade", "release_date": "2018-06-01", "original_language": "en", "original_title": "Upgrade", "genre_ids": [28, 27, 878, 53], "backdrop_path": "/qUAGip3XiaVN668WXF2iyukWgUu.jpg", "adult": false, "overview": "A brutal mugging leaves Grey Trace paralyzed in the hospital and his beloved wife dead. A billionaire inventor soon offers Trace a cure \u2014 an artificial intelligence implant called STEM that will enhance his body. Now able to walk, Grey finds that he also has superhuman strength and agility \u2014 skills he uses to seek revenge against the thugs who destroyed his life.", "poster_path": "/8fDtXi6gVw8WUMWGT9XFz7YwkuE.jpg", "popularity": 32.518}, {"adult": false, "backdrop_path": "/kiWvoV78Cc3fUwkOHKzyBgVdrDD.jpg", "genre_ids": [37, 18, 12], "id": 281957, "original_language": "en", "original_title": "The Revenant", "overview": "In the 1820s, a frontiersman, Hugh Glass, sets out on a path of vengeance against those who left him for dead after a bear mauling.", "poster_path": "/oXUWEc5i3wYyFnL1Ycu8ppxxPvs.jpg", "release_date": "2015-12-25", "title": "The Revenant", "video": false, "vote_average": 7.5, "vote_count": 12127, "popularity": 24.135}, {"adult": false, "backdrop_path": "/ct2r3CqnA0KtMfib4AvfBU1W9M2.jpg", "genre_ids": [28, 80, 53], "id": 398175, "original_language": "en", "original_title": "Brawl in Cell Block 99", "overview": "After working as a drug courier and getting into a brutal shootout with police, a former boxer finds himself at the mercy of his enemies as they force him to instigate violent acts that turn the prison he resides in into a battleground.", "poster_path": "/lGgIQ10NJ3d0X0uFbbUN4pRrMFZ.jpg", "release_date": "2017-09-23", "title": "Brawl in Cell Block 99", "video": false, "vote_average": 6.8, "vote_count": 605, "popularity": 13.011}, {"adult": false, "backdrop_path": "/oni8CXvEg56JhrfVdVUrQYOuhP0.jpg", "genre_ids": [80, 28, 53], "id": 55846, "original_language": "en", "original_title": "Blitz", "overview": "A tough, renegade cop with a gay sidekick is dispatched to take down a serial killer who has been targeting police officers.", "poster_path": "/woY0qY4DR6bPOQ7cBwyblePsYky.jpg", "release_date": "2011-05-20", "title": "Blitz", "video": false, "vote_average": 6.0, "vote_count": 862, "popularity": 18.232}, {"id": 37645, "video": false, "vote_count": 575, "vote_average": 6.5, "title": "22 Bullets", "release_date": "2010-03-23", "original_language": "fr", "original_title": "L'Immortel", "genre_ids": [28, 80, 53], "backdrop_path": "/mU8zfCOTbahNGH0ZBTCuNdX16gj.jpg", "adult": false, "overview": "Charly Mattei\u0308 has turned his back on his life as an outlaw. For the last three years, he's led a peaceful life devoting himself to his wife and two children. Then, one winter morning, he's left for dead in the parking garage in Marseille's Old Port, with 22 bullets in his body. Against all the odds, he doesn't die...", "poster_path": "/wTYZjPq4YA2wC99MdHZTFQuxFpd.jpg", "popularity": 12.785}, {"id": 4771, "video": false, "vote_count": 2134, "vote_average": 7.3, "title": "Gone Baby Gone", "release_date": "2007-09-18", "original_language": "en", "original_title": "Gone Baby Gone", "genre_ids": [80, 18, 9648], "backdrop_path": "/sogh5NXPbKFajjYKBlfIBfCWgbq.jpg", "adult": false, "overview": "When 4 year old Amanda McCready disappears from her home and the police make little headway in solving the case, the girl's aunt, Beatrice McCready hires two private detectives, Patrick Kenzie and Angie Gennaro. The detectives freely admit that they have little experience with this type of case, but the family wants them for two reasons - they're not cops and they know the tough neighborhood in which they all live. As the case progresses, Kenzie and Gennaro face drug dealers, gangs and pedophiles. When they are about to solve the case, they are faced with a moral dilemma that tears them apart.", "poster_path": "/dXXMPxGiRegd7NNCtE5uchAKRAG.jpg", "popularity": 16.498}, {"adult": false, "backdrop_path": "/xBhRhY8KimSrPx6AMJXigpzlGQ2.jpg", "genre_ids": [28, 35, 80], "id": 96, "original_language": "en", "original_title": "Beverly Hills Cop II", "overview": "Axel heads for the land of sunshine and palm trees to find out who shot police Captain Andrew Bogomil. Thanks to a couple of old friends, Axel's investigation uncovers a series of robberies masterminded by a heartless weapons kingpin\u2014and the chase is on.", "poster_path": "/2y1z1baxKT0coTTRlnkI6McnR9f.jpg", "release_date": "1987-05-18", "title": "Beverly Hills Cop II", "video": false, "vote_average": 6.4, "vote_count": 1235, "popularity": 13.336}, {"adult": false, "backdrop_path": "/uUYCUbgI5VxsUflTMI4Y9L2Y6vb.jpg", "genre_ids": [80, 18, 53], "id": 11423, "original_language": "ko", "original_title": "\uc0b4\uc778\uc758 \ucd94\uc5b5", "overview": "1986 Gyunggi Province. The body of a young woman is found brutally raped and murdered. Two months later, a series of rapes and murders commences under similar circumstances. And in a country that had never known such crimes, the dark whispers about a serial murderer grow louder. A special task force is set up in the area, with two local detectives Park Doo-Man and Jo Young-Goo joined by a detective from Seoul who requested to be assigned to the case.", "poster_path": "/gawnVe9cFowdoDLo9Pok12NTw39.jpg", "release_date": "2003-05-02", "title": "Memories of Murder", "video": false, "vote_average": 8.1, "vote_count": 1093, "popularity": 13.452}, {"id": 146198, "video": false, "vote_count": 1322, "vote_average": 5.8, "title": "Triple 9", "release_date": "2016-02-19", "original_language": "en", "original_title": "Triple 9", "genre_ids": [28, 9648, 53], "backdrop_path": "/paT9Ovofjj30JvsDRyhFfjgUEfn.jpg", "adult": false, "overview": "A gang of criminals and corrupt cops plan the murder of a police officer in order to pull off their biggest heist yet across town.", "poster_path": "/36zbHT728v00HbbUBmrsOMu7Hde.jpg", "popularity": 15.265}, {"id": 14373, "video": false, "vote_count": 182, "vote_average": 6.1, "title": "Death Wish II", "release_date": "1982-02-20", "original_language": "en", "original_title": "Death Wish II", "genre_ids": [28, 80, 53], "backdrop_path": "/tunPGpLoGhECru6pxVEaQsn9Ffj.jpg", "adult": false, "overview": "Paul Kersey is again a vigilante trying to find five punks who murdered his housekeeper and daughter in Los Angeles.", "poster_path": "/2HCtaAqI7Jw9FzxRImG35gsNNZC.jpg", "popularity": 13.322}, {"id": 8090, "video": false, "vote_count": 448, "vote_average": 6.1, "title": "Untraceable", "release_date": "2008-01-22", "original_language": "en", "original_title": "Untraceable", "genre_ids": [9648, 53], "backdrop_path": "/eXuIPt9I1xuaVddlgzEQRC2EMnJ.jpg", "adult": false, "overview": "Special Agent Jennifer Marsh (Diane Lane) works in an elite division of the FBI dedicated to fighting cybercrime. She thinks she has seen it all, until a particularly sadistic criminal arises on the Internet. This tech-savvy killer posts live feeds of his crimes on his website; the more hits the site gets, the faster the victim dies. Marsh and her team must find the elusive killer before time runs out.", "poster_path": "/ySUwDRDEn01lKIMPQorpFCMLWqE.jpg", "popularity": 14.431}], "total_pages": 423, "total_results": 8454}, "recommendations": {"page": 1, "results": [], "total_pages": 1, "total_results": 0}, "credits": {"cast": [{"cast_id": 1, "character": "Kyle Martin", "credit_id": "52fe4cacc3a368484e1c1eff", "gender": 0, "id": 186900, "name": "Gary Conway", "order": 0, "profile_path": null}, {"cast_id": 8, "character": "Kyle Martin", "credit_id": "57a0edee92514167670002f0", "gender": 2, "id": 31261, "name": "Gary Conway", "order": 1, "profile_path": "/7LnLw0D2zj3SrD6hN650xVfyMaU.jpg"}, {"cast_id": 9, "character": "Johnny O.", "credit_id": "57a0ee0492514108eb0026db", "gender": 2, "id": 15975, "name": "Michael Dante", "order": 2, "profile_path": "/11Jb7NXav416WBnuUvK9YtsPNBq.jpg"}, {"cast_id": 10, "character": "2nd Soldier", "credit_id": "57a0ee139251413ec9001307", "gender": 0, "id": 1660403, "name": "Dave Graig", "order": 3, "profile_path": null}, {"cast_id": 11, "character": "Laundry Sam", "credit_id": "57a0ee26c3a36847640002f2", "gender": 0, "id": 1190889, "name": "Stratton Leopold", "order": 4, "profile_path": null}, {"cast_id": 12, "character": "Train Bartender", "credit_id": "57a0f0dbc3a368479d000454", "gender": 0, "id": 1660410, "name": "Ray McIver", "order": 5, "profile_path": null}], "crew": [{"credit_id": "52fe4cacc3a368484e1c1f05", "department": "Directing", "gender": 0, "id": 69954, "job": "Director", "name": "David Berlatsky", "profile_path": null}, {"credit_id": "52fe4cacc3a368484e1c1f0b", "department": "Writing", "gender": 0, "id": 1183685, "job": "Writer", "name": "John Carmody", "profile_path": null}, {"credit_id": "52fe4cacc3a368484e1c1f11", "department": "Writing", "gender": 1, "id": 967824, "job": "Writer", "name": "Janice Eymann", "profile_path": null}, {"credit_id": "52fe4cacc3a368484e1c1f17", "department": "Writing", "gender": 0, "id": 78089, "job": "Writer", "name": "George Fargo", "profile_path": null}, {"credit_id": "52fe4cacc3a368484e1c1f1d", "department": "Production", "gender": 0, "id": 186900, "job": "Producer", "name": "Gary Conway", "profile_path": null}, {"credit_id": "55ca10a69251410c55001c20", "department": "Sound", "gender": 2, "id": 31065, "job": "Original Music Composer", "name": "Hugo Montenegro", "profile_path": null}]}}