{"adult": false, "backdrop_path": "/ymlxEfvrSkqy2S9P6LqYLaqrV5E.jpg", "belongs_to_collection": null, "budget": 0, "genres": [{"id": 12, "name": "Adventure"}, {"id": 18, "name": "Drama"}, {"id": 10749, "name": "Romance"}], "homepage": null, "id": 20171, "imdb_id": "tt0475860", "original_language": "es", "original_title": "Paraiso Travel", "overview": "PARAISO TRAVEL is the story of Marlon Cruz, a young Colombian man who, motivated by his girlfriend Reina leaves his comfortable life in Medellin and flees with her through Guatemala and Mexico, across the borders, illegally into the United States. Marlon's journey, which takes him through seedy strip clubs, dance halls, homeless hostels, ultimately takes him to a place he could have not predicted", "popularity": 3.211, "poster_path": "/fBIDSOFrHgaBRXa9e1xFmPgiM9I.jpg", "production_companies": [], "production_countries": [{"iso_3166_1": "US", "name": "United States of America"}, {"iso_3166_1": "CO", "name": "Colombia"}], "release_date": "2009-07-10", "revenue": 0, "runtime": 110, "spoken_languages": [{"iso_639_1": "es", "name": "Espa\u00f1ol"}, {"iso_639_1": "en", "name": "English"}], "status": "Released", "tagline": "", "title": "Paraiso Travel", "video": false, "vote_average": 6.4, "vote_count": 18, "keywords": {"keywords": [{"id": 279, "name": "usa"}, {"id": 2173, "name": "illegal immigration"}, {"id": 8996, "name": "medell\u00edn colombia"}, {"id": 10183, "name": "independent film"}]}, "similar": {"page": 1, "results": [{"id": 75780, "video": false, "vote_count": 4450, "vote_average": 6.4, "title": "Jack Reacher", "release_date": "2012-12-20", "original_language": "en", "original_title": "Jack Reacher", "genre_ids": [28, 80, 18, 53], "backdrop_path": "/ezXodpP429qK0Av89pVNlaXWJkQ.jpg", "adult": false, "overview": "When a gunman takes five lives with six shots, all evidence points to the suspect in custody. On interrogation, the suspect offers up a single note: \"Get Jack Reacher!\" So begins an extraordinary chase for the truth, pitting Jack Reacher against an unexpected enemy, with a skill for violence and a secret to keep.", "poster_path": "/mt0ELw83HIRgaKaDzhsDcIi0RnW.jpg", "popularity": 19.929}, {"id": 594, "video": false, "vote_count": 4322, "vote_average": 7.3, "title": "The Terminal", "release_date": "2004-06-17", "original_language": "en", "original_title": "The Terminal", "genre_ids": [35, 18], "backdrop_path": "/39wUqkmY9Ikwo6DTgSRzwAMVqkS.jpg", "adult": false, "overview": "Viktor Navorski is a man without a country; his plane took off just as a coup d'etat exploded in his homeland, leaving it in shambles, and now he's stranded at Kennedy Airport, where he's holding a passport that nobody recognizes. While quarantined in the transit lounge until authorities can figure out what to do with him, Viktor simply goes on living \u2013 and courts romance with a beautiful flight attendant.", "poster_path": "/f4Dup6awDfDqAHKgWqNJ2HFw1qN.jpg", "popularity": 17.455}, {"id": 298312, "video": false, "vote_count": 2921, "vote_average": 6.2, "title": "The Visit", "release_date": "2015-09-10", "original_language": "en", "original_title": "The Visit", "genre_ids": [27, 9648, 53], "backdrop_path": "/gbJlEeALVGo7kx8bC2q4EFWX1Xy.jpg", "adult": false, "overview": "The terrifying story of a brother and sister who are sent to their grandparents' remote Pennsylvania farm for a weeklong trip. Once the children discover that the elderly couple is involved in something deeply disturbing, they see their chances of getting back home are growing smaller every day.", "poster_path": "/32tNtTEQ1vIOLm1hEOSFkVwJT5D.jpg", "popularity": 20.148}, {"adult": false, "backdrop_path": "/20IgqkdFw5kuItqDCJtidSESP0t.jpg", "genre_ids": [27, 18], "id": 10066, "original_language": "en", "original_title": "House of Wax", "overview": "A group of unwitting teens are stranded near a strange wax museum and soon must fight to survive and keep from becoming the next exhibit.", "poster_path": "/uM1RebQywM5PPYsauayefpXGxVk.jpg", "release_date": "2005-04-30", "title": "House of Wax", "video": false, "vote_average": 5.7, "vote_count": 1531, "popularity": 21.972}, {"adult": false, "backdrop_path": "/8nvayG5l0urcjvvpszoECDqLWzD.jpg", "genre_ids": [18, 53, 80, 9648], "id": 186, "original_language": "en", "original_title": "Lucky Number Slevin", "overview": "Slevin is mistakenly put in the middle of a personal war between the city\u2019s biggest criminal bosses. Under constant watch, Slevin must try not to get killed by an infamous assassin and come up with an idea of how to get out of his current dilemma. A film with many twists and turns.", "poster_path": "/jtKq0EtothAzWlnRBBWGCA8uFuu.jpg", "release_date": "2006-02-24", "title": "Lucky Number Slevin", "video": false, "vote_average": 7.5, "vote_count": 2480, "popularity": 17.523}, {"id": 521, "video": false, "vote_count": 1257, "vote_average": 8.0, "title": "Dial M for Murder", "release_date": "1954-05-29", "original_language": "en", "original_title": "Dial M for Murder", "genre_ids": [80, 18, 9648, 53], "backdrop_path": "/jVMlfESb0TJ29w8CUDDofEprMmn.jpg", "adult": false, "overview": "An ex-tennis pro carries out a plot to have his wife murdered after discovering she is having an affair, and assumes she will soon leave him for the other man anyway. When things go wrong, he improvises a new plan\u2014to frame her for murder instead.", "poster_path": "/xrpK1PyckNWmRxU4kZURfaCyboS.jpg", "popularity": 34.566}, {"id": 205596, "video": false, "vote_count": 11343, "vote_average": 8.1, "title": "The Imitation Game", "release_date": "2014-11-14", "original_language": "en", "original_title": "The Imitation Game", "genre_ids": [18, 36, 53, 10752], "backdrop_path": "/qcb6z1HpokTOKdjqDTsnjJk0Xvg.jpg", "adult": false, "overview": "Based on the real life story of legendary cryptanalyst Alan Turing, the film portrays the nail-biting race against time by Turing and his brilliant team of code-breakers at Britain's top-secret Government Code and Cypher School at Bletchley Park, during the darkest days of World War II.", "poster_path": "/noUp0XOqIcmgefRnRZa1nhtRvWO.jpg", "popularity": 40.743}, {"adult": false, "backdrop_path": "/kiWvoV78Cc3fUwkOHKzyBgVdrDD.jpg", "genre_ids": [37, 18, 12], "id": 281957, "original_language": "en", "original_title": "The Revenant", "overview": "In the 1820s, a frontiersman, Hugh Glass, sets out on a path of vengeance against those who left him for dead after a bear mauling.", "poster_path": "/oXUWEc5i3wYyFnL1Ycu8ppxxPvs.jpg", "release_date": "2015-12-25", "title": "The Revenant", "video": false, "vote_average": 7.5, "vote_count": 12122, "popularity": 30.491}, {"adult": false, "backdrop_path": "/hm4vpIhBW75bTIDTurq2d4rLZy1.jpg", "genre_ids": [53, 18, 27], "id": 3511, "original_language": "en", "original_title": "The Broken", "overview": "The life of a successful radiologist spirals out of control when she sees the spitting image of herself driving down a London street. While attempting to uncover who the imposter could be, she stumbles into a terrifying mystery that her family and closest friends are somehow involved in, leaving her with no one to trust.", "poster_path": "/nGTUsccLUZhF9Bb5fjvL7KrogvC.jpg", "release_date": "2008-01-18", "title": "The Broken", "video": false, "vote_average": 5.5, "vote_count": 113, "popularity": 9.129}, {"adult": false, "backdrop_path": "/qbrmEfBEcdrzHSAHgazJWmz3TSU.jpg", "genre_ids": [18], "id": 616229, "original_language": "en", "original_title": "The Male Gaze: The Heat of the Night", "overview": "When darkness falls, temperatures rise in these six stories about late night confessions, intimacy for sale, high speed hookups and full moon frissons. But when the sun comes up and reality reveals itself, will it have all been worth it?", "poster_path": "/e1gNLO829rkE73sBJ3aClZJHNXd.jpg", "release_date": "2019-07-15", "title": "The Male Gaze: The Heat of the Night", "video": false, "vote_average": 3.3, "vote_count": 3, "popularity": 13.056}, {"id": 311, "video": false, "vote_count": 2593, "vote_average": 8.4, "title": "Once Upon a Time in America", "release_date": "1984-05-23", "original_language": "en", "original_title": "Once Upon a Time in America", "genre_ids": [80, 18], "backdrop_path": "/vnT6HzjLSDrAweHn9xWykb8Ii6T.jpg", "adult": false, "overview": "A former Prohibition-era Jewish gangster returns to the Lower East Side of Manhattan over thirty years later, where he once again must confront the ghosts and regrets of his old life.", "poster_path": "/x733R4ISI0RbKeHhVkXdTMFmTFr.jpg", "popularity": 23.555}, {"adult": false, "backdrop_path": "/4BMel8xxSed1pCkPSGc9R3jsUtC.jpg", "genre_ids": [18, 10749], "id": 142, "original_language": "en", "original_title": "Brokeback Mountain", "overview": "Two modern-day cowboys meet on a shepherding job in the summer of '63, the two share a raw and powerful summer together that turns into a lifelong relationship conflicting with the lives they are supposed to live.", "poster_path": "/z2DqVxj17aW6xpimRlCLfhKSfUm.jpg", "release_date": "2005-09-10", "title": "Brokeback Mountain", "video": false, "vote_average": 7.8, "vote_count": 3787, "popularity": 19.947}, {"adult": false, "backdrop_path": "/9PwUQZDHGPKsgbnoBl1Ah9zXWjk.jpg", "genre_ids": [18, 10749], "id": 453, "original_language": "en", "original_title": "A Beautiful Mind", "overview": "John Nash is a brilliant but asocial mathematician fighting schizophrenia. After he accepts secret work in cryptography, his life takes a turn for the nightmarish.", "poster_path": "/4SFqHDZ1NvWdysucWbgnYlobdxC.jpg", "release_date": "2001-12-11", "title": "A Beautiful Mind", "video": false, "vote_average": 7.8, "vote_count": 6094, "popularity": 19.654}, {"adult": false, "backdrop_path": "/eHhtUoazdml8CMvzWtpunIyqrZS.jpg", "genre_ids": [18, 53, 10749], "id": 884, "original_language": "en", "original_title": "Crash", "overview": "After getting into a serious car accident, a TV director discovers an underground sub-culture of scarred, omnisexual car-crash victims who use car accidents and the raw sexual energy they produce to try to rejuvenate his sex life with his wife.", "poster_path": "/4PDLGJsS5uVBQlYjLMZ7t85dU0P.jpg", "release_date": "1996-07-17", "title": "Crash", "video": false, "vote_average": 6.5, "vote_count": 438, "popularity": 15.592}, {"adult": false, "backdrop_path": "/7RRuRcGuWkZGuRyYugfXn0Fgrrr.jpg", "genre_ids": [28, 80, 18, 53], "id": 949, "original_language": "en", "original_title": "Heat", "overview": "Obsessive master thief, Neil McCauley leads a top-notch crew on various daring heists throughout Los Angeles while determined detective, Vincent Hanna pursues him without rest. Each man recognizes and respects the ability and the dedication of the other even though they are aware their cat-and-mouse game may end in violence.", "poster_path": "/6pmLVffM9jEYK7VqDJqPblMxfEY.jpg", "release_date": "1995-12-15", "title": "Heat", "video": false, "vote_average": 7.8, "vote_count": 3610, "popularity": 21.48}, {"adult": false, "backdrop_path": "/jQR6de9dwOjvx91wC4tqpTlMqCD.jpg", "genre_ids": [53, 80, 18], "id": 109421, "original_language": "en", "original_title": "Side Effects", "overview": "A woman turns to prescription medication as a way of handling her anxiety concerning her husband's upcoming release from prison.", "poster_path": "/ttD69Yhh2BV1WVqr27NRbF8ubOW.jpg", "release_date": "2013-02-07", "title": "Side Effects", "video": false, "vote_average": 6.5, "vote_count": 2035, "popularity": 11.74}, {"adult": false, "backdrop_path": "/rSf0RYkPiMo9TyjHs2vI8rHlmfF.jpg", "genre_ids": [28, 18, 53], "id": 241554, "original_language": "en", "original_title": "Run All Night", "overview": "Brooklyn mobster and prolific hit man Jimmy Conlon has seen better days. Longtime best friend of a mob boss, Jimmy is haunted by the sins of his past\u2014as well as a dogged police detective who\u2019s been one step behind Jimmy for 30 years. But when Jimmy\u2019s estranged son becomes a target, Jimmy must make a choice between the crime family he chose and the real family he abandoned long ago. Now, with nowhere safe to turn, Jimmy has just one night to figure out exactly where his loyalties lie and to see if he can finally make things right.", "poster_path": "/aqNJrAxudMRNo8jg3HOUQqdl2xr.jpg", "release_date": "2015-03-11", "title": "Run All Night", "video": false, "vote_average": 6.4, "vote_count": 1820, "popularity": 30.086}, {"id": 169917, "video": false, "vote_count": 1811, "vote_average": 6.3, "title": "A Walk Among the Tombstones", "release_date": "2014-09-18", "original_language": "en", "original_title": "A Walk Among the Tombstones", "genre_ids": [80, 18, 9648, 53], "backdrop_path": "/e56QsaJy1weAUukiK2ZmIGVUALF.jpg", "adult": false, "overview": "Private investigator Matthew Scudder is hired by a drug kingpin to find out who kidnapped and murdered his wife.", "poster_path": "/xxe77USOk2tPnq7G4cL42gf1OxQ.jpg", "popularity": 26.185}, {"adult": false, "backdrop_path": "/useuHJQ5HOoEWkAvEjL1FW1sUfe.jpg", "genre_ids": [18], "id": 376867, "original_language": "en", "original_title": "Moonlight", "overview": "The tender, heartbreaking story of a young man\u2019s struggle to find himself, told across three defining chapters in his life as he experiences the ecstasy, pain, and beauty of falling in love, while grappling with his own sexuality.", "poster_path": "/qAwFbszz0kRyTuXmMeKQZCX3Q2O.jpg", "release_date": "2016-10-21", "title": "Moonlight", "video": false, "vote_average": 7.4, "vote_count": 4406, "popularity": 27.348}, {"id": 84892, "video": false, "vote_count": 6548, "vote_average": 7.7, "title": "The Perks of Being a Wallflower", "release_date": "2012-09-20", "original_language": "en", "original_title": "The Perks of Being a Wallflower", "genre_ids": [18], "backdrop_path": "/uhLcaTPeBpUNgYhZXhDWkj7gMkp.jpg", "adult": false, "overview": "15-year-old freshman Charlie is a wallflower, always watching life from the sidelines, until two charismatic senior students become his mentors. Free-spirited Sam and her stepbrother Patrick help Charlie discover the joys of friendship, first love, music and more, while a teacher sparks Charlie's dreams of becoming a writer.", "poster_path": "/cyNQLnHnXZcTUDXVVSEYmquOTOI.jpg", "popularity": 19.873}], "total_pages": 423, "total_results": 8459}, "recommendations": {"page": 1, "results": [{"adult": false, "backdrop_path": "/vYx9NRmHweW0T2CcWZxCbp26RuB.jpg", "genre_ids": [18, 35], "id": 327501, "original_language": "es", "original_title": "Esto huele mal", "overview": "Based on a true story, ESTO HUELE MAL is about seduction, lies and infidelity. Nothing threatens the dishonest life that Ricardo Caicedo lives as an upstanding business man, until the tragic night in which an explosion happens in the El Nogal social club, where he was supposed to be having a business dinner.", "poster_path": "/emVrfq05xREFK0S8xAGHt7WTAF2.jpg", "release_date": "2007-05-26", "title": "This Smells Bad", "video": false, "vote_average": 7.2, "vote_count": 3, "popularity": 1.737}], "total_pages": 1, "total_results": 1}, "credits": {"cast": [{"cast_id": 4, "character": "Reina", "credit_id": "52fe43dbc3a368484e00207b", "gender": 1, "id": 589156, "name": "Angelica Blandon", "order": 0, "profile_path": "/8Wsccgplh6b7hgfCAi58gDZ80vx.jpg"}, {"cast_id": 5, "character": "Giovanny", "credit_id": "52fe43dbc3a368484e00207f", "gender": 0, "id": 589157, "name": "Pedro Capo", "order": 1, "profile_path": null}, {"cast_id": 6, "character": "Carlos", "credit_id": "52fe43dbc3a368484e002083", "gender": 2, "id": 557579, "name": "Ra\u00fal Castillo", "order": 2, "profile_path": "/s5gmpBa56R2PU2O6uLz90665v28.jpg"}, {"cast_id": 7, "character": "Marlon", "credit_id": "52fe43dbc3a368484e002087", "gender": 2, "id": 589158, "name": "Aldemar Correa", "order": 3, "profile_path": null}, {"cast_id": 9, "character": "Roger Pena", "credit_id": "596d212992514108d0004b5b", "gender": 2, "id": 5723, "name": "John Leguizamo", "order": 4, "profile_path": "/rbq24AzthnwRXUYcVfUnP5bKN50.jpg"}, {"cast_id": 10, "character": "Ximeno", "credit_id": "596d2148c3a36829da004a9a", "gender": 0, "id": 1348561, "name": "Louis Arcella", "order": 5, "profile_path": "/4xHuoASFBPDCl8EYm6jv2IL7x0m.jpg"}, {"cast_id": 11, "character": "Raquel", "credit_id": "596d216a92514108d0004bab", "gender": 1, "id": 380973, "name": "Margarita Rosa de Francisco", "order": 6, "profile_path": "/hXkT0tiMEokpqXNhtDFYVtnAiNy.jpg"}, {"cast_id": 12, "character": "Milagros Valdez", "credit_id": "596d218192514108930048ef", "gender": 1, "id": 57409, "name": "Ana de la Reguera", "order": 7, "profile_path": "/lMFcS5MT1NNDo6gSE6h78nkeMmU.jpg"}, {"cast_id": 13, "character": "Cop", "credit_id": "596d21a1c3a36829a6004ed5", "gender": 0, "id": 1513379, "name": "Tim Gallin", "order": 8, "profile_path": null}, {"cast_id": 14, "character": "Milagro Family Member", "credit_id": "596d21b9c3a36829a6004ef1", "gender": 1, "id": 590493, "name": "Gina Hernandez", "order": 9, "profile_path": "/2GfaFhfPdfsVltkF0WK9iqxxdiV.jpg"}, {"cast_id": 15, "character": "Don Hernan", "credit_id": "596d21d0c3a3682a390055c8", "gender": 2, "id": 649813, "name": "Germ\u00e1n Jaramillo", "order": 10, "profile_path": "/apqi011oo0Ej4ZdnwCTq3QtsaFT.jpg"}, {"cast_id": 16, "character": "Victor", "credit_id": "596d2200c3a3682a6c0044fb", "gender": 0, "id": 1479193, "name": "Ethen Lane", "order": 11, "profile_path": null}, {"cast_id": 17, "character": "Don Pastor", "credit_id": "596d2233c3a36829fa004870", "gender": 2, "id": 985955, "name": "Luis Fernando Munera", "order": 12, "profile_path": "/3G35k2zJ9sxjfpAnpZYXMe7eDyg.jpg"}, {"cast_id": 18, "character": "Mexicote driver", "credit_id": "596d22509251410897004815", "gender": 2, "id": 69865, "name": "Jes\u00fas Ochoa", "order": 13, "profile_path": "/8LB9o0qVYMMmlSgGb5V4qkPHcON.jpg"}, {"cast_id": 19, "character": "Fernando", "credit_id": "596d2270c3a36829a6004fdb", "gender": 0, "id": 1461320, "name": "Loukas Papas", "order": 14, "profile_path": "/zjOWUZBCpASww7oL4t19EfMT8AM.jpg"}, {"cast_id": 20, "character": "Menacing man in car", "credit_id": "596d228bc3a36829da004c0c", "gender": 2, "id": 1659312, "name": "Panama Redd", "order": 15, "profile_path": "/kRTEQdJGGWqe5FOMJ4uKtTzc3Cu.jpg"}, {"cast_id": 21, "character": "Camilo", "credit_id": "596d22a092514108a000491b", "gender": 0, "id": 1240771, "name": "Federico Rivera", "order": 16, "profile_path": null}, {"cast_id": 22, "character": "Los Simpaticos Conga Player", "credit_id": "596d22b792514108d0004d41", "gender": 0, "id": 1698486, "name": "Eddie Rosado", "order": 17, "profile_path": null}, {"cast_id": 23, "character": "La Calena", "credit_id": "596d22cd92514108ad004e21", "gender": 0, "id": 1103805, "name": "Vicky Rueda", "order": 18, "profile_path": null}, {"cast_id": 24, "character": "Madame Taylor", "credit_id": "596d22e5c3a3682a500049a3", "gender": 0, "id": 1251531, "name": "Indhira Serrano", "order": 19, "profile_path": null}, {"cast_id": 25, "character": "Patricia", "credit_id": "596d22fc92514108d0004d8c", "gender": 0, "id": 1431673, "name": "Ana Mar\u00eda S\u00e1nchez", "order": 20, "profile_path": null}], "crew": [{"credit_id": "596d311cc3a3682a6c0051da", "department": "Production", "gender": 2, "id": 5723, "job": "Co-Producer", "name": "John Leguizamo", "profile_path": "/rbq24AzthnwRXUYcVfUnP5bKN50.jpg"}, {"credit_id": "596d30f292514108c400586b", "department": "Production", "gender": 0, "id": 17162, "job": "Executive Producer", "name": "Ed Elbert", "profile_path": null}, {"credit_id": "596d320f92514108ad005c12", "department": "Production", "gender": 1, "id": 17674, "job": "Casting", "name": "Carla Hool", "profile_path": "/4n9pbehYIrArk5CGRnMBeqmOQa5.jpg"}, {"credit_id": "596d31b492514108d0005af5", "department": "Production", "gender": 2, "id": 15901, "job": "Executive Producer", "name": "Jonathan Sanger", "profile_path": "/7epc1s3FiswPYJhSZxbt9tDxzig.jpg"}, {"credit_id": "52fe43dbc3a368484e00206b", "department": "Directing", "gender": 2, "id": 59651, "job": "Director", "name": "Simon Brand", "profile_path": "/4EgFKYBN4IBJjGMfT6oWSuuJL2n.jpg"}, {"credit_id": "596d31d6c3a3682a50005724", "department": "Sound", "gender": 2, "id": 59665, "job": "Music", "name": "Angelo Milli", "profile_path": null}, {"credit_id": "52fe43dbc3a368484e002071", "department": "Writing", "gender": 2, "id": 66917, "job": "Writer", "name": "Jorge Franco Ramos", "profile_path": null}, {"credit_id": "596d31fac3a36829da005a45", "department": "Editing", "gender": 2, "id": 69875, "job": "Editor", "name": "Alberto de Toro", "profile_path": null}, {"credit_id": "596d317dc3a3682a500056d4", "department": "Production", "gender": 0, "id": 586433, "job": "Producer", "name": "Alex Pereira", "profile_path": null}, {"credit_id": "596d318fc3a3682c0f005a71", "department": "Production", "gender": 0, "id": 589155, "job": "Producer", "name": "Juan Rend\u00f3n", "profile_path": null}, {"credit_id": "52fe43dbc3a368484e002077", "department": "Writing", "gender": 0, "id": 589155, "job": "Writer", "name": "Juan Rend\u00f3n", "profile_path": null}, {"credit_id": "596d322192514108c40059a4", "department": "Production", "gender": 0, "id": 1142383, "job": "Casting", "name": "Maria E. Nelson", "profile_path": null}, {"credit_id": "596d30ab92514108a000555d", "department": "Production", "gender": 0, "id": 1327891, "job": "Executive Producer", "name": "Sarah Black", "profile_path": null}, {"credit_id": "596d315fc3a3682a500056bd", "department": "Production", "gender": 0, "id": 1382468, "job": "Line Producer", "name": "Luis Fernando Ch\u00e1vez Ortiz", "profile_path": null}, {"credit_id": "596d32419251410a120056bc", "department": "Art", "gender": 0, "id": 1465332, "job": "Co-Art Director", "name": "Gonzalo Cordoba", "profile_path": null}, {"credit_id": "57f56f90c3a36831d300124c", "department": "Art", "gender": 0, "id": 1689780, "job": "Production Design", "name": "Miguel \u00c1ngel \u00c1lvarez", "profile_path": null}, {"credit_id": "596d30c4c3a36829fa00553d", "department": "Production", "gender": 0, "id": 1758111, "job": "Line Producer", "name": "Chris Bongirne", "profile_path": null}, {"credit_id": "596d30db9251410a12005575", "department": "Production", "gender": 0, "id": 1768557, "job": "Producer", "name": "Santiago D\u00edaz", "profile_path": null}]}}