{"adult": false, "backdrop_path": null, "belongs_to_collection": null, "budget": 0, "genres": [{"id": 99, "name": "Documentary"}], "homepage": "", "id": 203226, "imdb_id": "tt0086838", "original_language": "en", "original_title": "2084: Video clip pour une r\u00e9flexion syndicale et pour le plaisir", "overview": "A film of Chris Marker and the broadcasting(audiovisual) confederate Group - CFDT(FRENCH TRADE UNION)...  For the centenarian of the law of 1884, which we agree to take for point of departure of the labor union, CFDT(FRENCH TRADE UNION) confided to Chris Marker the realisation of a film dedicated to hundred years of syndicalism in France. Chris Marker plans the question in the future and imagines a television news of 2084 for the anniversary of the second centenarian and three possible scenarios: the grey hypothesis, that of the \"crisis\", \" a fearful society which hums and gives itself false safeties in the hope of a balance always questioned \"; the black hypothesis, \" a world where the technique took the place of the ideologies \"; the blue hypothesis, finally, that of the dream and the imagination.", "popularity": 2.446, "poster_path": "/qTgjr1KymjDCHsQNrZJGN9Sxuhj.jpg", "production_companies": [{"id": 41942, "logo_path": null, "name": "Conf\u00e9d\u00e9ration Fran\u00e7aise D\u00e9mocratique du Travail (CFDT)", "origin_country": ""}, {"id": 29028, "logo_path": null, "name": "La Lanterne", "origin_country": ""}], "production_countries": [{"iso_3166_1": "FR", "name": "France"}], "release_date": "1984-10-01", "revenue": 0, "runtime": 10, "spoken_languages": [{"iso_639_1": "fr", "name": "Fran\u00e7ais"}], "status": "Released", "tagline": "", "title": "2084", "video": false, "vote_average": 5.7, "vote_count": 9, "keywords": {"keywords": []}, "similar": {"page": 1, "results": [{"adult": false, "backdrop_path": "/hPByrqJXCXIViFheXQh48wtI7T6.jpg", "genre_ids": [16, 12, 14, 10751], "id": 31135, "original_language": "en", "original_title": "Mickey Mouse: Mickey and the Beanstalk", "overview": "Based on the timeless adventures of \"Jack and the Beanstalk,\" Mickey, Donald and Goofy climb a fantastic beanstalk up into the sky to a place where everything is huge -- the food, the castle and the fearsome giant named Willy who guards a beautiful golden harp! Will Mickey and his friends outwit the giant and make it safely back home?", "poster_path": "/kk1Xg1f1lv6loekjlKinpKJlGOu.jpg", "release_date": "1947-09-27", "title": "Mickey Mouse: Mickey and the Beanstalk", "video": false, "vote_average": 6.7, "vote_count": 166, "popularity": 13.649}, {"id": 14813, "video": false, "vote_count": 456, "vote_average": 7.6, "title": "Mickey's Christmas Carol", "release_date": "1983-10-19", "original_language": "en", "original_title": "Mickey's Christmas Carol", "genre_ids": [16, 10751], "backdrop_path": "/fDK3xeAcQfQ40ZUULgZshElkspa.jpg", "adult": false, "overview": "It is an adaptation of the Charles Dickens classic A Christmas Carol, featuring Scrooge McDuck as his namesake and inspiration Ebenezer Scrooge and Mickey Mouse as Bob Cratchit. This film was based on a 1972 audio musical entitled Disney's A Christmas Carol. It is a twenty-four minute animated short film produced by Walt Disney Productions as an accompaniment to a re-release of The Rescuers.", "poster_path": "/29iF1IiC3ZyJQ1kmTf4LD8p8oro.jpg", "popularity": 14.7}, {"id": 621733, "video": false, "vote_count": 0, "vote_average": 0.0, "title": "A Trip to the Seaside", "release_date": "2019-08-30", "original_language": "en", "original_title": "A Trip to the Seaside", "genre_ids": [99], "backdrop_path": null, "adult": false, "overview": "Experimental short film on the excitement and rush of a day trip", "poster_path": "/AuZVhpoJ4jm2LWDhoJKfxQfhDAi.jpg", "popularity": 1.324}, {"adult": false, "backdrop_path": "/twGxeStlGooWV3gP6ZIcSNuQ6jf.jpg", "genre_ids": [12, 16, 10751, 14], "id": 81684, "original_language": "en", "original_title": "The Gruffalo's Child", "overview": "A follow up to the 2009 animated feature and adapted from the childrens' book by Julia Donaldson and Alex Scheffler.  The Gruffalo's child explores the deep dark wood in search of the big bad mouse and meets the Snake, Owl and Fox in the process.  She eventually finds the mouse, who manages to outwit her like the Gruffalo before!", "poster_path": "/qaGH2AoaLvoGXURQtNzj1nw6oZd.jpg", "release_date": "2011-12-25", "title": "The Gruffalo's Child", "video": false, "vote_average": 6.9, "vote_count": 73, "popularity": 9.51}, {"adult": false, "backdrop_path": null, "genre_ids": [], "id": 616262, "original_language": "ar", "original_title": "All Come From Dust", "overview": "A loop of edgeless bend. You were its doom, he was its bloom. You were its tomb, he was its womb. You were its gloom, he was its loom. For Heaven and Hell, were words made of fume.", "poster_path": null, "release_date": "2019-08-13", "title": "All Come From Dust", "video": false, "vote_average": 5.0, "vote_count": 1, "popularity": 0.6}, {"id": 240832, "video": false, "vote_count": 10811, "vote_average": 6.3, "title": "Lucy", "release_date": "2014-07-25", "original_language": "en", "original_title": "Lucy", "genre_ids": [28, 878], "backdrop_path": "/eCgIoGvfNXrbSiQGqQHccuHjQHm.jpg", "adult": false, "overview": "A woman, accidentally caught in a dark deal, turns the tables on her captors and transforms into a merciless warrior evolved beyond human logic.", "poster_path": "/rwn876MeqienhOVSSjtUPnwxn0Z.jpg", "popularity": 26.958}, {"id": 856, "video": false, "vote_count": 3249, "vote_average": 7.4, "title": "Who Framed Roger Rabbit", "release_date": "1988-06-21", "original_language": "en", "original_title": "Who Framed Roger Rabbit", "genre_ids": [16, 35, 80, 14, 10751], "backdrop_path": "/9podqGmd36AJHO13HQIQHQZRTJC.jpg", "adult": false, "overview": "'Toon star Roger is worried that his wife Jessica is playing pattycake with someone else, so the studio hires detective Eddie Valiant to snoop on her. But the stakes are quickly raised when Marvin Acme is found dead and Roger is the prime suspect.", "poster_path": "/lYfRc57Kx9VgLZ48iulu0HKnM15.jpg", "popularity": 20.755}, {"id": 75612, "video": false, "vote_count": 7401, "vote_average": 6.5, "title": "Oblivion", "release_date": "2013-04-10", "original_language": "en", "original_title": "Oblivion", "genre_ids": [28, 12, 9648, 878], "backdrop_path": "/8TE77jL2e4zdERpv8hnBAHUmFRx.jpg", "adult": false, "overview": "Jack Harper is one of the last few drone repairmen stationed on Earth.  Part of a massive operation to extract vital resources after decades of war with a terrifying threat known as the Scavs, Jack\u2019s mission is nearly complete.  His existence is brought crashing down when he rescues a beautiful  stranger from a downed spacecraft.  Her arrival triggers a chain of events that  forces him to question everything he knows and puts the fate of humanity in his hands.", "poster_path": "/hmOzkHlkGvi8x24fYpFSnXvjklv.jpg", "popularity": 34.598}, {"id": 157336, "video": false, "vote_count": 20609, "vote_average": 8.3, "title": "Interstellar", "release_date": "2014-11-05", "original_language": "en", "original_title": "Interstellar", "genre_ids": [12, 18, 878], "backdrop_path": "/xu9zaAevzQ5nnrsXN6JcahLnG4i.jpg", "adult": false, "overview": "Interstellar chronicles the adventures of a group of explorers who make use of a newly discovered wormhole to surpass the limitations on human space travel and conquer the vast distances involved in an interstellar voyage.", "poster_path": "/nBNZadXqJSdt05SHLqgT0HuC5Gm.jpg", "popularity": 53.312}, {"id": 369972, "video": false, "vote_count": 3001, "vote_average": 7.1, "title": "First Man", "release_date": "2018-10-11", "original_language": "en", "original_title": "First Man", "genre_ids": [18, 36], "backdrop_path": "/jrudoaXcoLyHRPdolyOGemXgPEs.jpg", "adult": false, "overview": "A look at the life of the astronaut, Neil Armstrong, and the legendary space mission that led him to become the first man to walk on the Moon on July 20, 1969.", "poster_path": "/i91mfvFcPPlaegcbOyjGgiWfZzh.jpg", "popularity": 27.464}, {"adult": false, "backdrop_path": "/pc7a2qrIkIxzqWGqcexd3mHzIxy.jpg", "genre_ids": [28, 53, 12], "id": 56292, "original_language": "en", "original_title": "Mission: Impossible - Ghost Protocol", "overview": "Ethan Hunt and his team are racing against time to track down a dangerous terrorist named Hendricks, who has gained access to Russian nuclear launch codes and is planning a strike on the United States. An attempt to stop him ends in an explosion causing severe destruction to the Kremlin and the IMF to be implicated in the bombing, forcing the President to disavow them. No longer being aided by the government, Ethan and his team chase Hendricks around the globe, although they might still be too late to stop a disaster.", "poster_path": "/s58mMsgIVOFfoXPtwPWJ3hDYpXf.jpg", "release_date": "2011-12-07", "title": "Mission: Impossible - Ghost Protocol", "video": false, "vote_average": 7.0, "vote_count": 6591, "popularity": 29.242}, {"id": 158852, "video": false, "vote_count": 4945, "vote_average": 6.2, "title": "Tomorrowland", "release_date": "2015-05-19", "original_language": "en", "original_title": "Tomorrowland", "genre_ids": [12, 9648, 878, 10751], "backdrop_path": "/fQbc5XuB4vWA9gnY1CmyxFaOufF.jpg", "adult": false, "overview": "Bound by a shared destiny, a bright, optimistic teen bursting with scientific curiosity and a former boy-genius inventor jaded by disillusionment embark on a danger-filled mission to unearth the secrets of an enigmatic place somewhere in time and space that exists in their collective memory as \"Tomorrowland.\"", "poster_path": "/69Cz9VNQZy39fUE2g0Ggth6SBTM.jpg", "popularity": 39.867}, {"id": 271110, "video": false, "vote_count": 15271, "vote_average": 7.4, "title": "Captain America: Civil War", "release_date": "2016-04-27", "original_language": "en", "original_title": "Captain America: Civil War", "genre_ids": [28, 12, 878], "backdrop_path": "/m5O3SZvQ6EgD5XXXLPIP1wLppeW.jpg", "adult": false, "overview": "Following the events of Age of Ultron, the collective governments of the world pass an act designed to regulate all superhuman activity. This polarizes opinion amongst the Avengers, causing two factions to side with Iron Man or Captain America, which causes an epic battle between former allies.", "poster_path": "/kSBXou5Ac7vEqKd97wotJumyJvU.jpg", "popularity": 41.347}, {"id": 52520, "video": false, "vote_count": 2773, "vote_average": 6.2, "title": "Underworld: Awakening", "release_date": "2012-01-19", "original_language": "en", "original_title": "Underworld: Awakening", "genre_ids": [28, 14, 27], "backdrop_path": "/8iNsXY3LPsuT0gnUiTBMoNuRZI7.jpg", "adult": false, "overview": "Having escaped years of imprisonment, vampire warrioress Selene finds herself in a changed world where humans have discovered the existence of both Vampire and Lycan clans and are conducting an all-out war to eradicate both immortal species. Now Selene must battle the humans and a frightening new breed of super Lycans to ensure the death dealers' survival.", "poster_path": "/ayazc5fQ2YAw7vjaE1WGlJWtGX9.jpg", "popularity": 15.03}, {"id": 321612, "video": false, "vote_count": 11799, "vote_average": 6.9, "title": "Beauty and the Beast", "release_date": "2017-03-16", "original_language": "en", "original_title": "Beauty and the Beast", "genre_ids": [14, 10749, 10751], "backdrop_path": "/6aUWe0GSl69wMTSWWexsorMIvwU.jpg", "adult": false, "overview": "A live-action adaptation of Disney's version of the classic tale of a cursed prince and a beautiful young woman who helps him break the spell.", "poster_path": "/tWqifoYuwLETmmasnGHO7xBjEtt.jpg", "popularity": 47.679}, {"id": 10258, "video": false, "vote_count": 148, "vote_average": 6.6, "title": "The Madagascar Penguins in a Christmas Caper", "release_date": "2005-09-23", "original_language": "en", "original_title": "The Madagascar Penguins in a Christmas Caper", "genre_ids": [16, 35, 10751], "backdrop_path": "/gdJ6j1hmt6dQgObWxDJAHUb58o6.jpg", "adult": false, "overview": "During the holiday season, when the animals of the Central Park Zoo are preparing for Christmas, Private, the youngest of the penguins notices that the Polar Bear is all alone. Assured that nobody should have to spend Christmas alone, Private goes into the city for some last-minute Christmas shopping. Along the way, he gets stuffed into a stocking", "poster_path": "/r8QtfGSjDaY6vICRVyYvZvTkjxc.jpg", "popularity": 13.032}, {"id": 10527, "video": false, "vote_count": 4220, "vote_average": 6.4, "title": "Madagascar: Escape 2 Africa", "release_date": "2008-10-30", "original_language": "en", "original_title": "Madagascar: Escape 2 Africa", "genre_ids": [16, 35, 10751], "backdrop_path": "/anxiz37Z9FPKeuCsJcxViSWmPxg.jpg", "adult": false, "overview": "Alex, Marty, and other zoo animals find a way to escape from Madagascar when the penguins reassemble a wrecked airplane. The precariously repaired craft stays airborne just long enough to make it to the African continent. There the New Yorkers encounter members of their own species for the first time. Africa proves to be a wild place, but Alex and company wonder if it is better than their Central Park home.", "poster_path": "/9mohxwknsHcwFBSAAhoQXwFV5zn.jpg", "popularity": 23.58}, {"id": 155, "video": false, "vote_count": 20760, "vote_average": 8.4, "title": "The Dark Knight", "release_date": "2008-07-16", "original_language": "en", "original_title": "The Dark Knight", "genre_ids": [28, 80, 18, 53], "backdrop_path": "/hqkIcbrOHL86UncnHIsHVcVmzue.jpg", "adult": false, "overview": "Batman raises the stakes in his war on crime. With the help of Lt. Jim Gordon and District Attorney Harvey Dent, Batman sets out to dismantle the remaining criminal organizations that plague the streets. The partnership proves to be effective, but they soon find themselves prey to a reign of chaos unleashed by a rising criminal mastermind known to the terrified citizens of Gotham as the Joker.", "poster_path": "/pKKvCaL1TPTVtbI6EeliyND3api.jpg", "popularity": 43.746}, {"id": 19, "video": false, "vote_count": 1340, "vote_average": 8.2, "title": "Metropolis", "release_date": "1927-01-10", "original_language": "de", "original_title": "Metropolis", "genre_ids": [18, 878], "backdrop_path": "/gmH0N0bdlYGN1EUr8U2cMQYyg78.jpg", "adult": false, "overview": "In a futuristic city sharply divided between the working class and the city planners, the son of the city's mastermind falls in love with a working class prophet who predicts the coming of a savior to mediate their differences.", "poster_path": "/qriaeUUwdmlgethK3aSAx68mG05.jpg", "popularity": 20.587}, {"id": 54138, "video": false, "vote_count": 6599, "vote_average": 7.3, "title": "Star Trek Into Darkness", "release_date": "2013-05-05", "original_language": "en", "original_title": "Star Trek Into Darkness", "genre_ids": [28, 12, 878], "backdrop_path": "/ns0IojuqJe24AHTxe8RVcWJUCDM.jpg", "adult": false, "overview": "When the crew of the Enterprise is called back home, they find an unstoppable force of terror from within their own organization has detonated the fleet and everything it stands for, leaving our world in a state of crisis.  With a personal score to settle, Captain Kirk leads a manhunt to a war-zone world to capture a one man weapon of mass destruction. As our heroes are propelled into an epic chess game of life and death, love will be challenged, friendships will be torn apart, and sacrifices must be made for the only family Kirk has left: his crew.", "poster_path": "/41mhrXASAW3sdn7LBWF49uCX0xi.jpg", "popularity": 22.476}], "total_pages": 830, "total_results": 16586}, "recommendations": {"page": 1, "results": [{"adult": false, "backdrop_path": null, "genre_ids": [99], "id": 147306, "original_language": "it", "original_title": "Pastori di Orgosolo", "overview": "Poetic documentary on the work of sheepmen in winter.", "poster_path": "/kThoxqdXKnHjpQFNzZFx4ldfMo0.jpg", "release_date": "1958-06-01", "title": "Shepherds of Orgosolo", "video": false, "vote_average": 5.9, "vote_count": 7, "popularity": 2.108}, {"adult": false, "backdrop_path": "/m8eaxYDOKpc4ZpXqlhEM2iwW5jy.jpg", "genre_ids": [18], "id": 220005, "original_language": "it", "original_title": "Al primo soffio di vento", "overview": "Using few words and gorgeous imagery, this is a poetic painting of a family, each in their own space on an August afternoon.", "poster_path": "/Yms9N8J6BV5CXpQW2Y7LLJ0YRX.jpg", "release_date": "2003-09-25", "title": "At the First Breath of Wind", "video": false, "vote_average": 8.2, "vote_count": 5, "popularity": 1.064}, {"adult": false, "backdrop_path": null, "genre_ids": [35, 16], "id": 347411, "original_language": "en", "original_title": "Quasi's Cabaret Trailer", "overview": "A spoof of movie promotional trailers.", "poster_path": "/LmU9TKCczJ4LgZS55Tv8qcwgIn.jpg", "release_date": "1980-07-02", "title": "Quasi's Cabaret Trailer", "video": false, "vote_average": 4.8, "vote_count": 5, "popularity": 1.139}, {"adult": false, "backdrop_path": "/laXxTp5grfItyQwdPy8FUUnEZIs.jpg", "genre_ids": [99], "id": 194602, "original_language": "nl", "original_title": "Beppie", "overview": "BEPPIE is a moving and disarming portrait of an Amsterdam street urchin. Van der Keuken once described her as follows: 'She was ten years old and the joy of the Achtergracht, where I was living at the time. An Amsterdam child, sweet and crooked as a corkscrew.' He films her while she skims the city with some friends and knocks at strangers' doors. Her family has nine children and is not well off. In those days, a visit to the De Miranda swimming pool cost a quarter, but only ten cents if the weather was bad. At school, Beppie gets a poor mark because she is too boisterous, but when the whole class rattles off the multiplication tables, she joins in at the top of her voice. All of TV-watching Holland was wildly enthusiastic about this portrait, with which Van der Keuken even made the front page of the national newspaper De Telegraaf.", "poster_path": "/w44lTBD8qfUGSDF54xQj3U3gv7d.jpg", "release_date": "1965-12-21", "title": "Beppie", "video": false, "vote_average": 5.7, "vote_count": 3, "popularity": 1.046}, {"id": 85792, "video": false, "vote_count": 4, "vote_average": 6.0, "title": "The Drop", "release_date": "1965-10-01", "original_language": "ja", "original_title": "Shizuku", "genre_ids": [16], "backdrop_path": "/j1QGfIUWNlskC5GEYv8EVV5cC85.jpg", "adult": false, "overview": "A sailor is desperate for fresh water to drink while adrift on a raft in the sea.", "poster_path": "/eWefxAyk6802udjD5TEz1lCzAZT.jpg", "popularity": 1.303}, {"adult": false, "backdrop_path": null, "genre_ids": [99], "id": 269969, "original_language": "nl", "original_title": "Blind Kind", "overview": "With the use of montage sequences, voiced over with the observations of the children, van der Keuken was able to use artistic expression to portray the sightless children\u2019s unique perspective of the world.", "poster_path": "/2wWfHr8P59xqs3VGEP9LjyRXFq2.jpg", "release_date": "1964-01-01", "title": "The Blind Child", "video": false, "vote_average": 6.3, "vote_count": 4, "popularity": 0.932}, {"adult": false, "backdrop_path": "/k3KOzh3Ad9HmrMaw1TSqYv6PKRa.jpg", "genre_ids": [], "id": 104266, "original_language": "ja", "original_title": "\u8ff7\u5bae\u8b5a", "overview": "Experimental short film about two men carrying a door.", "poster_path": "/nP9sGqky8WUN32uc6up5r3iaFSY.jpg", "release_date": "1975-06-01", "title": "A Tale of Labyrinth", "video": false, "vote_average": 5.7, "vote_count": 7, "popularity": 0.968}, {"adult": false, "backdrop_path": "/nXdNRFUV6jIQjxFmcsohS9tVXHz.jpg", "genre_ids": [18], "id": 76388, "original_language": "fr", "original_title": "Le th\u00e9 au harem d'Archim\u00e8de", "overview": "The story of two youths - one Algerian, one French - who become juvenile delinquents in a Paris suburb.", "poster_path": "/3uWrR5PArFJX97tAuATb3XwXXcf.jpg", "release_date": "1985-04-30", "title": "Tea in the Harem", "video": false, "vote_average": 6.8, "vote_count": 8, "popularity": 3.014}, {"adult": false, "backdrop_path": "/mNlJLlPHYGqZDzRCtav7bCVnuE7.jpg", "genre_ids": [18], "id": 88302, "original_language": "ka", "original_title": "\u10e4\u10d8\u10e0\u10dd\u10e1\u10db\u10d0\u10dc\u10d8", "overview": "The story of self-taught Georgian painter Niko Pirosmani.", "poster_path": "/dsRYQQEcI4fdnoknzuLa1xaGKib.jpg", "release_date": "1969-12-28", "title": "Pirosmani", "video": false, "vote_average": 6.0, "vote_count": 10, "popularity": 2.583}, {"adult": false, "backdrop_path": "/iFdykuBEXucWgUHeYcXM8acC3kM.jpg", "genre_ids": [], "id": 143278, "original_language": "en", "original_title": "A Trip to the Orphanage", "overview": "While an opera singers sings in a snowy and cold street, we are allowed to witness a meeting between a man and a woman through blowing net curtains. The music is touched by sadness and the emotions of the characters are no different. Nearer they become while the singer sinks deeper into the melancholy.", "poster_path": "/rTJT9jASuhi23WlXHbcoywufzNo.jpg", "release_date": "2004-06-06", "title": "A Trip to the Orphanage", "video": false, "vote_average": 5.4, "vote_count": 8, "popularity": 1.785}, {"adult": false, "backdrop_path": "/fPhY5CBOl74DhiXdvzg3R8fJQ04.jpg", "genre_ids": [18], "id": 152943, "original_language": "nl", "original_title": "Pentimento", "overview": "This film is dominated by an icy blue. In a monumental building a group of scientists submit women to obscure experiments, in which sexuality and cruelty constantly merge into one another. When the film was released, this horrifying game of power and powerlessness was condemned severely by a militant group of feminists. The criticism was undeserved. After all, 'Pentimento' is an art-historical term for a hidden image underneath the actual image giving an indication of how the latter evolved to its current state. The film does not endorse the lopsided power relations in our world but actually challenges them.", "poster_path": "/f03Jl8ITjIcLatpqpiBZWnUNB3s.jpg", "release_date": "1979-02-01", "title": "Pentimento", "video": false, "vote_average": 6.4, "vote_count": 7, "popularity": 2.256}, {"adult": false, "backdrop_path": null, "genre_ids": [16], "id": 237307, "original_language": "en", "original_title": "Wise Quackers", "overview": "Daffy Duck falls from the sky onto Elmer Fudd's farm. Rather than be shot, he begs Elmer to accept him as a personal slave. After torturing Elmer with his type of kindness, slave Daffy puts a whip in Elmer's hands, then instantly dresses like Abraham Lincoln to scold Elmer for \"whipping slaves\".", "poster_path": "/8TQB3ioMhC0tJE3SvaebyaMSiJz.jpg", "release_date": "1949-01-01", "title": "Wise Quackers", "video": false, "vote_average": 6.3, "vote_count": 4, "popularity": 1.613}, {"adult": false, "backdrop_path": null, "genre_ids": [], "id": 175558, "original_language": "en", "original_title": "The Original Movie", "overview": "A writer sells his masterpiece to a film company. It gets butchered horribly in the process of getting made into a movie.", "poster_path": "/pURURJxSYfQ8lfXrgIZr9VI88fo.jpg", "release_date": "1922-04-08", "title": "The Original Movie", "video": false, "vote_average": 6.4, "vote_count": 5, "popularity": 0.6}, {"adult": false, "backdrop_path": null, "genre_ids": [16], "id": 236466, "original_language": "en", "original_title": "Circus Today", "overview": "A barker guides us through a sideshow, a menagerie, and on to the big top, for a series of typical Avery gags. For example, the trapeze artists, the Flying Cadenzas, literally fly; the lion puts his head in the tamer's mouth; and the human cannonball flies around the world.", "poster_path": "/aHvaPBXgPNxQs7H5g0vIFFsuLGF.jpg", "release_date": "1940-06-21", "title": "Circus Today", "video": false, "vote_average": 6.0, "vote_count": 3, "popularity": 1.544}, {"adult": false, "backdrop_path": null, "genre_ids": [], "id": 196659, "original_language": "fr", "original_title": "Le conseil de pipelet", "overview": "A man gets cajoled into working as a sideshow wrestler.", "poster_path": "/2ngnUQX9Abkesfq72uvBF3uj4Es.jpg", "release_date": "1908-05-24", "title": "Sideshow Wrestlers", "video": false, "vote_average": 4.3, "vote_count": 6, "popularity": 1.084}, {"adult": false, "backdrop_path": null, "genre_ids": [80, 35], "id": 166760, "original_language": "en", "original_title": "Les fromages automobiles", "overview": "The interior of a trolley car. A menagerie of passengers notices a foul odour, and pinpoint the source of the stench at a cheese saleswoman. The gendarmerie removes her from the trolley and drags her to the precinct.", "poster_path": "/lGexG8Hnv6YgsS9680d9EE0Ztls.jpg", "release_date": "1907-01-01", "title": "The Skipping Cheese", "video": false, "vote_average": 5.8, "vote_count": 5, "popularity": 1.611}, {"id": 103962, "video": false, "vote_count": 7, "vote_average": 6.1, "title": "Lumber Jack-Rabbit", "release_date": "1954-09-26", "original_language": "en", "original_title": "Lumber Jack-Rabbit", "genre_ids": [16, 35], "backdrop_path": null, "adult": false, "overview": "Bugs Bunny stumbles on the carrot patch of Paul Bunyan, but doesn't realize that it is guarded by a 124-foot, 4,600-ton dog named Smidgen.", "poster_path": "/2Ggpp0v5Aj0siE3G50UPVeRcwdo.jpg", "popularity": 2.82}, {"id": 202768, "video": false, "vote_count": 5, "vote_average": 7.8, "title": "Three", "release_date": "1965-05-12", "original_language": "sr", "original_title": "Tri", "genre_ids": [18, 10752], "backdrop_path": null, "adult": false, "overview": "In this episodic WW II drama, a Yugoslavian youth attempts to escape from German soldiers. In the first scene, he stands amongst a group of refugees waiting for a train. One man, with no identification papers is accused of a petty crime and the crowd insists that three soldiers arrest him. The youth tries to stop them all, but he fails and the man is executed. Soon afterward, his wife shows up and proves that he was indeed innocent. In the second episode, the youth participates in a resistance raid and ends up pursued into a swamp where he meets another fugitive. This man ends up sacrificing his life so that the youth can escape. The final story begins as the war ends. The youth has become an officer in the Yugoslav army and is being forced to deliver an order to execute all citizens who collaborated with the Germans. One of the traitors is a woman he cares for, but this doesn't stop him from obeying his commands.", "poster_path": "/j6JBNa9706ovD0nukza0rfHCWWc.jpg", "popularity": 1.889}, {"adult": false, "backdrop_path": null, "genre_ids": [16, 80, 10751, 35], "id": 235806, "original_language": "en", "original_title": "Catty Cornered", "overview": "Rocky the gangster kidnaps Tweety Bird for a million dollar ransom and holes up in an abandoned city building...", "poster_path": "/doylO0khSOlQ1FM6hN8MKnMmmFe.jpg", "release_date": "1953-10-30", "title": "Catty Cornered", "video": false, "vote_average": 6.0, "vote_count": 5, "popularity": 2.486}, {"adult": false, "backdrop_path": null, "genre_ids": [99], "id": 46750, "original_language": "en", "original_title": "\u0421\u043e\u043d\u0430\u0442\u0430 \u0434\u043b\u044f \u0413\u0438\u0442\u043b\u0435\u0440\u0430", "overview": "As with so many early films by Sokurov, this film has two dates: the first is the date of its creation (the film was then banned), the second is the date of the final edition and legal public screening. The film consists of German and Soviet archive footage of the World War II \u2014 to be exact, from the end of the war. An attempt to make a large\u2013scale documentary on this subject had been undertaken in the Soviet cinema of the 1960s: the film \u2014 \u201cOrdinary Fascism\u201d \u2014 by the outstanding Soviet film\u2013maker Mikhail Romm had become a classic retrospective investigation of fascism. But Sokurov uses the expressive power of the documentary image in an absolutely different way. He does not amass materials for a large\u2013scale picture of Nazi crimes.", "poster_path": "/hnPBnW921cANaHiX8UW7muD5PVq.jpg", "release_date": "1989-01-01", "title": "Sonata for Hitler", "video": false, "vote_average": 5.3, "vote_count": 7, "popularity": 2.504}], "total_pages": 2, "total_results": 40}, "credits": {"cast": [{"cast_id": 2, "character": "Narrator", "credit_id": "5498aa2192514150290004b9", "gender": 2, "id": 27440, "name": "Fran\u00e7ois P\u00e9rier", "order": 1, "profile_path": "/nYEA81FGfwT0O9obLX6gysC7VeO.jpg"}, {"cast_id": 3, "character": "", "credit_id": "5498aa2a9251415033000420", "gender": 0, "id": 1402832, "name": "Bibiane Kirby", "order": 2, "profile_path": null}, {"cast_id": 4, "character": "", "credit_id": "5498aa32c3a3681cf80004bb", "gender": 0, "id": 1402833, "name": "Atika Tahiri", "order": 3, "profile_path": null}], "crew": [{"credit_id": "52fe4cdbc3a368484e1c9f8d", "department": "Directing", "gender": 2, "id": 9956, "job": "Director", "name": "Chris Marker", "profile_path": "/b1DZhCEw14SKzCdfT8xmV4ZHpid.jpg"}]}}