{"adult": false, "backdrop_path": "/hkPn0lJb7NWSTICG7xO3ROMW6Wa.jpg", "belongs_to_collection": null, "budget": 0, "genres": [{"id": 35, "name": "Comedy"}], "homepage": "", "id": 20332, "imdb_id": "tt1369567", "original_language": "en", "original_title": "Russell Peters: Red, White and Brown", "overview": "In this sold-out performance, Canadian comic Russell Peters skewers racial stereotypes as he offers his audacious take on multiculturalism--including his Indian heritage and culture clashes around the world. Recorded live at Madison Square Garden's WAMU theater and broadcast on Showtime, this stand-up concert is not to be missed.  Red, White and Brown is the second stand-up comedy album by Canadian comedian Russell Peters, recorded at the WAMU Theatre in Madison Square Garden on February 2, 2008.[3] The CD/DVD was released in Canada on September 30, 2008, and in the U.S. on January 27, 2009, debuting at #3 on the Canadian Albums Chart.[4] The hip hop theme music was produced by Marco Polo, and legendary MC Melle Mel introduced Peters to the stage.", "popularity": 4.941, "poster_path": "/lF1XjJlKst7kZJbVmEtwT2FSWRI.jpg", "production_companies": [{"id": 12700, "logo_path": "/4Bw5eCs1SdRXDmTI84kfuqk6Gqm.png", "name": "Warner Music Group", "origin_country": "US"}], "production_countries": [{"iso_3166_1": "US", "name": "United States of America"}], "release_date": "2008-10-07", "revenue": 0, "runtime": 57, "spoken_languages": [{"iso_639_1": "en", "name": "English"}], "status": "Released", "tagline": "", "title": "Russell Peters: Red, White and Brown", "video": false, "vote_average": 7.6, "vote_count": 27, "keywords": {"keywords": [{"id": 9716, "name": "stand-up comedy"}]}, "similar": {"page": 1, "results": [{"id": 444705, "video": false, "vote_count": 130, "vote_average": 7.9, "title": "Dave Chappelle: The Age of Spin", "release_date": "2017-03-21", "original_language": "en", "original_title": "Dave Chappelle: The Age of Spin", "genre_ids": [35], "backdrop_path": "/xlwFzTxkqoBm3dLkfPSZU0rWS9L.jpg", "adult": false, "overview": "Comedy icon Dave Chappelle makes his triumphant return to the screen with a pair of blistering, fresh stand-up specials. Filmed at The Palladium in Los Angeles, California, in March 2016.", "poster_path": "/lFGP9COk4X3sBqrkUpbQ78GdnZm.jpg", "popularity": 10.23}, {"adult": false, "backdrop_path": "/wggEfOyXd356KAKyYeiWXGr7mYs.jpg", "genre_ids": [35], "id": 35595, "original_language": "en", "original_title": "Dave Chappelle: HBO Comedy Half-Hour", "overview": "Dave gets his own HBO special, filmed in San Francisco", "poster_path": "/AuQLSJRADu0ZnftllkSYpjRwn4U.jpg", "release_date": "1998-01-09", "title": "Dave Chappelle: HBO Comedy Half-Hour", "video": false, "vote_average": 6.8, "vote_count": 21, "popularity": 3.3}, {"id": 325346, "video": false, "vote_count": 160, "vote_average": 6.4, "title": "The Hollars", "release_date": "2016-08-25", "original_language": "en", "original_title": "The Hollars", "genre_ids": [35, 18, 10749], "backdrop_path": "/uHKD274QYWX4GORyADqHIbQ9Qwx.jpg", "adult": false, "overview": "Aspiring New York City artist, John Hollar returns to his Middle America hometown on the eve of his mother\u2019s brain surgery. Joined by his girlfriend, eight months pregnant with their first child, John is forced to navigate the crazy world he left behind.", "poster_path": "/9ybRAn6AoSuyMjfqbhgosdye2R5.jpg", "popularity": 9.627}, {"id": 52345, "video": false, "vote_count": 221, "vote_average": 7.8, "title": "Lisbela and the Prisoner", "release_date": "2003-08-22", "original_language": "pt", "original_title": "Lisbela e o Prisioneiro", "genre_ids": [35, 10749], "backdrop_path": "/4KDlC0cZvR5LtszqjFhZcMzdiUD.jpg", "adult": false, "overview": "Lisbela is a young woman who loves going to the movies. Lel\u00e9u is a con man, going from town to town selling all sort of things and performing as master of ceremonies for some cheesy numbers, such as the woman who gets transformed into a gorilla. He gets involved with Linaura, a sexy and beautiful woman who happens to be the wife of the most frightening hitman of the place. The hitman finds out his wife's affair and goes after Lel\u00e9u, who has to leave in a hurry. In another town, he meets and falls instantly in love with Lisbela, who is engaged to Douglas, a hillbilly who tries hard to pass for a cosmopolitan Rio de Janeiro dweller.", "poster_path": "/9nlaRxQeYaMrVVANMppagFohCRP.jpg", "popularity": 1.389}, {"adult": false, "backdrop_path": null, "genre_ids": [35], "id": 637573, "original_language": "en", "original_title": "Daniel Sloss: X", "overview": "A new comedy special performed by Daniel Sloss.", "poster_path": "/b3DxLUvcp5hRXtTa4pv2wRAuY4P.jpg", "release_date": "2019-11-02", "title": "Daniel Sloss: X", "video": false, "vote_average": 10.0, "vote_count": 1, "popularity": 2.661}, {"id": 49013, "video": false, "vote_count": 4527, "vote_average": 5.9, "title": "Cars 2", "release_date": "2011-06-11", "original_language": "en", "original_title": "Cars 2", "genre_ids": [12, 16, 35, 10751], "backdrop_path": "/jEcmZhtJkZQc6ta2vzBd9CU7GIx.jpg", "adult": false, "overview": "Star race car Lightning McQueen and his pal Mater head overseas to compete in the World Grand Prix race. But the road to the championship becomes rocky as Mater gets caught up in an intriguing adventure of his own: international espionage.", "poster_path": "/AblhtULOVtrkSnFxRPQ8gBemxw9.jpg", "popularity": 27.827}, {"adult": false, "backdrop_path": "/fBYnaVOcc2Ghfkv473z0xdBRQ0m.jpg", "genre_ids": [10751, 16, 12, 35], "id": 270946, "original_language": "en", "original_title": "Penguins of Madagascar", "overview": "Skipper, Kowalski, Rico and Private join forces with undercover organization The North Wind to stop the villainous Dr. Octavius Brine from destroying the world as we know it.", "poster_path": "/pRer59eyY4rjkLPeKXKo7fPxCHH.jpg", "release_date": "2014-11-22", "title": "Penguins of Madagascar", "video": false, "vote_average": 6.4, "vote_count": 2485, "popularity": 30.234}, {"id": 9647, "video": false, "vote_count": 785, "vote_average": 6.9, "title": "Scrooged", "release_date": "1988-11-22", "original_language": "en", "original_title": "Scrooged", "genre_ids": [35, 18, 14], "backdrop_path": "/6xezVJoUp0cZUBQeIDpW6lFuhcd.jpg", "adult": false, "overview": "In this modern take on Charles Dickens' \"A Christmas Carol,\" Frank Cross (Bill Murray) is a wildly successful television executive whose cold ambition and curmudgeonly nature has driven away the love of his life, Claire Phillips (Karen Allen). But after firing a staff member, Eliot Loudermilk (Bobcat Goldthwait), on Christmas Eve, Frank is visited by a series of ghosts who give him a chance to re-evaluate his actions and right the wrongs of his past.", "poster_path": "/uO0znfB2ZzTXA1IS7jkrjNbpkYK.jpg", "popularity": 13.78}, {"adult": false, "backdrop_path": "/c42tFwWNHc8jJ49Zb0yqSAqr5TM.jpg", "genre_ids": [12, 35, 10751, 14, 16], "id": 228165, "original_language": "en", "original_title": "The SpongeBob Movie: Sponge Out of Water", "overview": "Burger Beard is a pirate who is in search of the final page of a magical book that makes any evil plan he writes in it come true, which happens to be the Krabby Patty secret formula. When the entire city of Bikini Bottom is put in danger, SpongeBob, Patrick, Mr. Krabs, Squidward, Sandy, and Plankton need to go on a quest that takes them to the surface. In order to get back the recipe and save their city, the gang must retrieve the book and transform themselves into superheroes.", "poster_path": "/9wChSuUoQDiBKUnGTcYMkzRha60.jpg", "release_date": "2015-01-28", "title": "The SpongeBob Movie: Sponge Out of Water", "video": false, "vote_average": 5.8, "vote_count": 1271, "popularity": 23.115}, {"id": 11072, "video": false, "vote_count": 1035, "vote_average": 7.3, "title": "Blazing Saddles", "release_date": "1974-02-07", "original_language": "en", "original_title": "Blazing Saddles", "genre_ids": [35, 37], "backdrop_path": "/tCitxLKMzCxexGlSg4g4IDVC3RM.jpg", "adult": false, "overview": "A town\u2014where everyone seems to be named Johnson\u2014stands in the way of the railroad. In order to grab their land, robber baron Hedley Lemar sends his henchmen to make life in the town unbearable. After the sheriff is killed, the town demands a new sheriff from the Governor, so Hedley convinces him to send the town the first black sheriff in the west.", "poster_path": "/yccgwPNVaqtgS1d0U5jjM6Mnza8.jpg", "popularity": 21.773}, {"id": 703, "video": false, "vote_count": 2268, "vote_average": 7.8, "title": "Annie Hall", "release_date": "1977-04-19", "original_language": "en", "original_title": "Annie Hall", "genre_ids": [35, 18, 10749], "backdrop_path": "/8iNt5LGxpX9XeNWJgjx17xfTT7u.jpg", "adult": false, "overview": "New York comedian Alvy Singer falls in love with the ditsy Annie Hall.", "poster_path": "/bK9bLXwxWuXX5mbq75PZqjvAtfG.jpg", "popularity": 15.038}, {"id": 528888, "video": false, "vote_count": 352, "vote_average": 7.1, "title": "Dolemite Is My Name", "release_date": "2019-10-04", "original_language": "en", "original_title": "Dolemite Is My Name", "genre_ids": [35, 18, 36], "backdrop_path": "/8FuiFasbeFQj24Vqx6JqSCqj5lO.jpg", "adult": false, "overview": "The story of Rudy Ray Moore, who created the iconic big screen pimp character Dolemite in the 1970s.", "poster_path": "/uoAqJg7ZSmftnBGOkupU1ySZQU0.jpg", "popularity": 46.626}, {"adult": false, "backdrop_path": "/oKUzgU9BWw218fT8SFGPrhRwcbf.jpg", "genre_ids": [35, 99], "id": 32930, "original_language": "en", "original_title": "Bill Maher... But I'm Not Wrong", "overview": "In front of a live audience at the Raleigh Memorial Auditorium at the Progress Energy Center for the Performing Arts in Raleigh, North Carolina, the Emmy-nominated host of Real Time with Bill Maher performs an all-new hour of stand-up comedy.  Among the topics Bill discusses in his ninth HBO solo special are: Whether the \"Great Recession\" is really over; the fake patriotism of the right wing; what goes on in the mind of a terrorist; why Obama needs a posse instead of the secret service; the drug war; Michael Jackson; getting out of Iraq and Afghanistan; racism; the Teabagger movement; religion; the health-care fight; why Gov. Mark Sanford will come out looking good, and how silly it is to ask \"Why do men cheat?\"; and why comedy most definitely didn't die when George Bush left office.", "poster_path": "/dAPT89WS1Lx81tfqHQMNqxlQKJx.jpg", "release_date": "2010-02-18", "title": "Bill Maher... But I'm Not Wrong", "video": false, "vote_average": 6.7, "vote_count": 17, "popularity": 5.179}, {"id": 394741, "video": false, "vote_count": 498, "vote_average": 7.0, "title": "Stan & Ollie", "release_date": "2018-12-28", "original_language": "en", "original_title": "Stan & Ollie", "genre_ids": [35, 18], "backdrop_path": "/bH7ax3A4Pxlh5ddG4d3HNDMlhK4.jpg", "adult": false, "overview": "With their golden era long behind them, comedy duo Stan Laurel and Oliver Hardy embark on a variety hall tour of Britain and Ireland. Despite the pressures of a hectic schedule, and with the support of their wives Lucille and Ida \u2013 a formidable double act in their own right \u2013 the pair's love of performing, as well as for each other, endures as they secure their place in the hearts of their adoring public", "poster_path": "/8qDBDXA8Od8gc4IQMnoXUKyj8Pf.jpg", "popularity": 18.424}, {"adult": false, "backdrop_path": "/yl0siKWmGjnBcuCEacKyW0vHsWq.jpg", "genre_ids": [10749, 18], "id": 409387, "original_language": "ko", "original_title": "\uc815\uc0ac : \uacb0\ud63c \ub9d0\uace0 \uc5f0\uc560", "overview": "\"Getting married is crazy! I only want to be in relationships!\" The life story of a woman who doesn't want to settle for one man. Her mom nags at her to get married, her superior grills her to bring results and her boyfriend turns out to be married. Soo-kyeong comforts herself with some spicy food. One lonely birthday, she ends up having sex with the chef of the spicy food restaurant. They fit well mentally and physically so they get closer but Soo-kyeong rejects the chef's marriage proposal. The chef gets married with someone else and asks her, \"I got married with someone else like you said. Now will you have a relationship with me?\"", "poster_path": "/4hiv07Quj8A7J8onCIAjNCy62Er.jpg", "release_date": "2016-04-19", "title": "Sex: A Relationship and Not Marriage", "video": false, "vote_average": 7.7, "vote_count": 3, "popularity": 15.508}, {"adult": false, "backdrop_path": "/bQW1TnxHlmkWof0vsALj4HBkoxj.jpg", "genre_ids": [18, 10749], "id": 51828, "original_language": "en", "original_title": "One Day", "overview": "A romantic comedy centered on Dexter and Emma, who first meet during their graduation in 1988 and proceed to keep in touch regularly. The film follows what they do on July 15 annually, usually doing something together.", "poster_path": "/xzOz17yC3K6SZWtWylXimcHUqpD.jpg", "release_date": "2011-03-02", "title": "One Day", "video": false, "vote_average": 7.2, "vote_count": 2342, "popularity": 15.269}, {"id": 23483, "video": false, "vote_count": 8160, "vote_average": 7.1, "title": "Kick-Ass", "release_date": "2010-03-22", "original_language": "en", "original_title": "Kick-Ass", "genre_ids": [28, 80], "backdrop_path": "/ngPkB9K8ZpIjv8HpIC8ExqAfG6H.jpg", "adult": false, "overview": "Dave Lizewski is an unnoticed high school student and comic book fan who one day decides to become a super-hero, even though he has no powers, training or meaningful reason to do so.", "poster_path": "/gtfggr5n3ED1neoTqVYmsVCoSS.jpg", "popularity": 17.344}, {"adult": false, "backdrop_path": "/7ApilgVwA0rjhl92GFTzW0FLGBG.jpg", "genre_ids": [10749, 10770], "id": 427045, "original_language": "en", "original_title": "A December Bride", "overview": "Aspiring interior designer Layla is dreading the Christmastime wedding of her cousin who\u2019s marrying Layla\u2019s ex-fianc\u00e9. Although Seth is the one responsible for introducing the bride and groom, she begrudgingly accepts his offer to be her date as she\u2019s out of options. Seth gets carried away at the reception and announces they\u2019re engaged, forcing a mortified Layla to keep up the pretense.", "poster_path": "/o1jAel6EasQkLPUj0TcDOJB2btE.jpg", "release_date": "2016-11-20", "title": "A December Bride", "video": false, "vote_average": 6.5, "vote_count": 66, "popularity": 8.437}, {"id": 67308, "video": false, "vote_count": 44, "vote_average": 4.8, "title": "3-D Sex and Zen: Extreme Ecstasy", "release_date": "2011-04-14", "original_language": "cn", "original_title": "3D\u8089\u84b2\u5718\u4e4b\u6975\u6a02\u5bf6\u9451", "genre_ids": [12, 18, 10749], "backdrop_path": "/xHsqBcDy5VvV4MuI974HuIoRRQc.jpg", "adult": false, "overview": "Loosely based on a 17th century erotic Chinese story named The Carnal Prayer Mat, the story follows a young scholar named Yangsheng who gets married to the beautiful daughter of a local merchant. When their sex life proves unsatisfactory, Yangsheng leaves home and journeys to the Pavilion of Ultimate Bliss.", "poster_path": "/dEb0Kb0xmUuHmO1Dk4WKHuaw5Cw.jpg", "popularity": 23.645}, {"adult": false, "backdrop_path": "/5OeY4U2rzePxWq2rkqMajUx2gz7.jpg", "genre_ids": [16, 10751, 12, 14, 10749], "id": 812, "original_language": "en", "original_title": "Aladdin", "overview": "Princess Jasmine grows tired of being forced to remain in the palace, so she sneaks out into the marketplace, in disguise, where she meets street-urchin Aladdin.  The couple falls in love, although Jasmine may only marry a prince.  After being thrown in jail, Aladdin becomes embroiled in a plot to find a mysterious lamp, with which the evil Jafar hopes to rule the land.", "poster_path": "/mjKozYRuHc9j7SmiXmbVmCiAM0A.jpg", "release_date": "1992-11-25", "title": "Aladdin", "video": false, "vote_average": 7.6, "vote_count": 7288, "popularity": 46.629}], "total_pages": 189, "total_results": 3773}, "recommendations": {"page": 1, "results": [{"adult": false, "backdrop_path": "/c5o8yYZW1yNpP5imgHKc7MiRec5.jpg", "genre_ids": [35], "id": 23077, "original_language": "en", "original_title": "Russell Peters: Outsourced", "overview": "Russell\u2019s last DVD and CD, Outsourced, was taped before a sold out audience at the Warfield Theatre in San Francisco, and gives viewers and listeners an excellent overview of Russell\u2019s comedic genius.", "poster_path": "/eUOSR3DUluICXSOdPZlitRnksEq.jpg", "release_date": "2006-08-01", "title": "Russell Peters: Outsourced", "video": false, "vote_average": 7.5, "vote_count": 23, "popularity": 4.574}, {"adult": false, "backdrop_path": "/t5YgVaH9oTcH0Ot7R0AM1FPxiQz.jpg", "genre_ids": [35], "id": 66605, "original_language": "en", "original_title": "Russell Peters: The Green Card Tour", "overview": "Russell Peters once again delivers his trademark take on race and culture as well as his lightning quick improv. Russell shares his observations on everything from the declining population of white people, to the stereotyping of Arabs, to his recent travels in India.", "poster_path": "/3gWkOByTuAlsRgcBYNSLgjSEhVy.jpg", "release_date": "2011-03-23", "title": "Russell Peters: The Green Card Tour", "video": false, "vote_average": 6.8, "vote_count": 19, "popularity": 3.519}, {"adult": false, "backdrop_path": "/8utcyCUYJBHVScU5j3ytbW9wvuf.jpg", "genre_ids": [35], "id": 228009, "original_language": "en", "original_title": "Russell Peters: Notorious", "overview": "Now watch comedy rockstar, Russell Peters up-close and personal with his new act and his trademark lightening fast improv with all new material as part of his Notorious World Tour 2013.", "poster_path": "/e0Ivg865ljU9TPV68MU5E4lmHOi.jpg", "release_date": "2013-10-15", "title": "Russell Peters: Notorious", "video": false, "vote_average": 6.7, "vote_count": 37, "popularity": 3.714}, {"adult": false, "backdrop_path": null, "genre_ids": [35], "id": 274376, "original_language": "en", "original_title": "Russell Peters: 2 concerts, 1 ticket", "overview": "This DVD package showcases two of Russell Peters' sold-out shows - Show Me The Funny and COMEDY NOW! Move over Howie, Jim, Tom and Mike - Peters is Canada's next big thing. NOW Magazine says, \"He's controversial, silly, cerebral, profane, eloquent, a fine mimic, purposefully self-effacing and proves time after time his ability to whip up a crowd.", "poster_path": "/s5AfFvITU43eiMKJNGNb4SomIVO.jpg", "release_date": "2006-04-04", "title": "Russell Peters: 2 concerts, 1 ticket", "video": false, "vote_average": 7.2, "vote_count": 6, "popularity": 1.229}, {"adult": false, "backdrop_path": "/wcsYNfanXS8w7pYLHtg6y761JAR.jpg", "genre_ids": [35], "id": 298718, "original_language": "en", "original_title": "Dane Cook: Troublemaker", "overview": "Comedian Dane Cook knows how to stir it up with his patented brand of observational humor, skewering aspects of modern life, from our hidden Internet selves to gender taboos and everything in between, in this exclusive comedy event.", "poster_path": "/rXJHq7yQ92IuTAIxAYKUILvjVLU.jpg", "release_date": "2014-10-17", "title": "Dane Cook: Troublemaker", "video": false, "vote_average": 7.0, "vote_count": 4, "popularity": 2.243}, {"adult": false, "backdrop_path": "/4GOTpBwdPIEBQUxoTM3zdwlaEQu.jpg", "genre_ids": [35], "id": 417026, "original_language": "en", "original_title": "Russell Peters: Almost Famous", "overview": "The comic comes home to Toronto to sound off on cultural quirks, furniture building and bathroom visits, reveling in all things ridiculously human.", "poster_path": "/djCYbBhclsEj8nIJ79qXxd5nQmx.jpg", "release_date": "2016-10-07", "title": "Russell Peters: Almost Famous", "video": false, "vote_average": 6.9, "vote_count": 24, "popularity": 3.911}, {"adult": false, "backdrop_path": "/gK3lucSd5xjrmtuM1wODZSl9TNg.jpg", "genre_ids": [35, 99], "id": 71440, "original_language": "en", "original_title": "Katt Williams: 9 Lives", "overview": "From Lord Have Mercy to A Pimp Named Slickback, original comedy freak Katt Williams has made his mark inhabiting a hustler's gallery of fast-and-loose personae. This real-deal documentary tracks the actor's rise from young stand-up to BET staple. Along with never-seen footage from early stand-up performances and backstage glimpses of Williams at work, the film includes interviews with Jeremy Piven, Damon Wayans, Snoop Dogg and Kathy Griffin.", "poster_path": "/tmTZ2f12g6OHthqUZsuFdXorGvZ.jpg", "release_date": "2010-11-02", "title": "Katt Williams: 9 Lives", "video": false, "vote_average": 5.8, "vote_count": 6, "popularity": 2.006}, {"adult": false, "backdrop_path": "/jw3snOC66oRkrqbBr8sVybliBK3.jpg", "genre_ids": [35], "id": 74593, "original_language": "en", "original_title": "Bill Cosby: 49", "overview": "In this concert film, Bill Cosby muses on his nearing the big 5-0 and how that age affects men, their wives, and their children.", "poster_path": "/oO6feWBVFtVVQs614CWAscKAJUw.jpg", "release_date": "1987-04-01", "title": "Bill Cosby: 49", "video": false, "vote_average": 5.7, "vote_count": 3, "popularity": 0.74}, {"adult": false, "backdrop_path": "/ad98sFXFr8A7ZMqYBY3Zgb70jkH.jpg", "genre_ids": [35], "id": 362108, "original_language": "en", "original_title": "Paul F. Tompkins: Crying and Driving", "overview": "Paul F. Tompkins tells tales of haunting one\u2019s own house, disastrous attempts at pretend fatherhood, carrying a learner\u2019s permit to kill, and marrying a woman who used a fine-print loophole to breach a castle.", "poster_path": "/lz3qpmuZI3pj1PYxBh4fyR2JSqa.jpg", "release_date": "2015-10-10", "title": "Paul F. Tompkins: Crying and Driving", "video": false, "vote_average": 7.7, "vote_count": 6, "popularity": 2.662}, {"adult": false, "backdrop_path": "/c7JziqkNWJMOOGqEq35acrqAM73.jpg", "genre_ids": [35], "id": 13488, "original_language": "en", "original_title": "Katt Williams: It's Pimpin' Pimpin'", "overview": "Americas 1 comedian Katt Williams brings to stage his raw & uncut comedy from his highly successful 100 city its pimpin pimpin tour.", "poster_path": "/5IkF59HCGyJdF2W9hlWj7Eq1ARL.jpg", "release_date": "2008-11-11", "title": "Katt Williams: It's Pimpin' Pimpin'", "video": false, "vote_average": 6.3, "vote_count": 15, "popularity": 4.371}, {"adult": false, "backdrop_path": "/iXS4ZryzLADmcLeyrvbqexEAXaC.jpg", "genre_ids": [16, 10402], "id": 69019, "original_language": "en", "original_title": "The Amazing Mr. Bickford", "overview": "Several pieces of Frank Zappa's music are set against clay animation by Bruce Bickford.", "poster_path": "/byVrnqR8VEBTGWzRYtFStno8OE.jpg", "release_date": "1987-01-01", "title": "The Amazing Mr. Bickford", "video": false, "vote_average": 5.4, "vote_count": 7, "popularity": 1.968}, {"adult": false, "backdrop_path": "/4hM75TGzM8P2rVZjqtmpjdF5PSj.jpg", "genre_ids": [35], "id": 21102, "original_language": "en", "original_title": "The Absent-Minded Waiter", "overview": "Bernie Cates requests the services of the most absent-minded waiter he's ever seen, who pours water before setting the glasses, endlessly repeats questions, brings wrong orders, and ruins everything- but the bill.", "poster_path": "/nERuBbrMbyaYG3FVFt624zprpj.jpg", "release_date": "1977-01-01", "title": "The Absent-Minded Waiter", "video": false, "vote_average": 6.5, "vote_count": 9, "popularity": 3.231}, {"adult": false, "backdrop_path": "/vrZ6NUpZ60wkQv7bEzp2xhpLsJy.jpg", "genre_ids": [35, 18], "id": 40802, "original_language": "en", "original_title": "Katt Williams: Pimpadelic", "overview": "Comedian Katt Williams talks intimately about his family, career, god, his future and the state of the comedy business", "poster_path": "/mwcfDCG9XLkvEJYIPsntxY4bulG.jpg", "release_date": "2009-10-13", "title": "Katt Williams: Pimpadelic", "video": false, "vote_average": 6.1, "vote_count": 8, "popularity": 3.277}, {"adult": false, "backdrop_path": "/aRas8axlWe6vmCFFX38JnsMLdLo.jpg", "genre_ids": [99], "id": 17705, "original_language": "en", "original_title": "Tropical Rainforest", "overview": "The story of the evolution of tropical rain forests, their recent and rapid destruction, and the intense efforts of scientists to understand them even as they disappear. This film gives viewers a better appreciation of the importance of tropical rain forests on a global scale.", "poster_path": "/uldX7QxN3KO6OazUM5u0amLWF57.jpg", "release_date": "1992-02-01", "title": "Tropical Rainforest", "video": false, "vote_average": 5.3, "vote_count": 7, "popularity": 3.469}, {"adult": false, "backdrop_path": null, "genre_ids": [16, 99], "id": 51407, "original_language": "sv", "original_title": "Slavar", "overview": "Animated documentary about two Sudanese children who are abducted and used as slaves", "poster_path": "/fVJJ45xvR4lts3CHbCpoloySw2D.jpg", "release_date": "2008-01-01", "title": "Slaves", "video": false, "vote_average": 4.7, "vote_count": 3, "popularity": 0.945}, {"adult": false, "backdrop_path": "/gp63yVeHz0qm4u107EJ6XA3pcfB.jpg", "genre_ids": [16], "id": 224447, "original_language": "en", "original_title": "Huset p\u00e5 Kampen", "overview": "A man buys a house on a hill. A rat was there first, and proves to be unusually difficult to remove; it seems to think all the man's attempts to kill it are actually gifts. It loves the taste of the poison, thinks the trap is a sculpture, and so forth.", "poster_path": "/x44r66x0KrAMtW6BMuRGgbh3w5R.jpg", "release_date": "1998-01-01", "title": "One Day a Man Bought a House", "video": false, "vote_average": 5.4, "vote_count": 5, "popularity": 1.3}, {"adult": false, "backdrop_path": null, "genre_ids": [16], "id": 38588, "original_language": "en", "original_title": "Alice in the Jungle", "overview": "Alice and Julius the cat are riding an elephant through the jungle. Julius falls and is nearly eaten by crocodiles but manages to escape nevertheless. Meanwhile, two elephant children are having fun at a watering hole and a monkey barber has his barber pole eaten by a hippo, who mistakes it for a candy cane. Julius tries to remedy the latter injustice by starching up a tiger's striped tail and knocking it off, using it as a replacement pole. Alice hunts a lion who proves to be too much for her to handle, but Julius bravely comes to the rescue.", "poster_path": "/pdvmqydltX72whfhjS2GIwrM5Tk.jpg", "release_date": "1925-01-01", "title": "Alice in the Jungle", "video": false, "vote_average": 4.5, "vote_count": 4, "popularity": 1.598}, {"adult": false, "backdrop_path": "/1Kc5FKzVWi2YH7z0M2LaaKQQkP1.jpg", "genre_ids": [35], "id": 31775, "original_language": "en", "original_title": "Dave Attell: Captain Miserable", "overview": "Dave Attell is funnier and more outlandish than ever in his first solo HBO, special, a 60-minute concert performed in front of a live audience at The Lincoln Theater, the venerable Washington DC venue. Attell's sarcastic wit and quick-fire delivery prove why he has earned the reputation as a \"comic's comic\" and was dubbed one of the\"25 Funniest People in America\" by Entertainment Weekly. His decidedly adult brand of comedy covers everything including alcohol consumption, dating current events and celebrities, and everything else on his mind.", "poster_path": "/9cUqKEjfNl9lxU3SiEKvCFSKMOk.jpg", "release_date": "2007-12-08", "title": "Dave Attell: Captain Miserable", "video": false, "vote_average": 5.9, "vote_count": 8, "popularity": 1.79}, {"adult": false, "backdrop_path": "/fkElbMQILLeDmxSwUeJQ6yxZNqp.jpg", "genre_ids": [35], "id": 63050, "original_language": "en", "original_title": "Sinbad: Afros and Bellbottoms", "overview": "Afros &amp; Bellbottoms is a self-styled monologue on the \"good \u2018ol days\" when dashikis, afros, bellbottoms, platform shoes and collars wide enough to take hang gliding were the hit!", "poster_path": "/pvuOM4GD4AUc2DqdgFvTviEC0Se.jpg", "release_date": "1993-04-17", "title": "Sinbad: Afros and Bellbottoms", "video": false, "vote_average": 5.1, "vote_count": 5, "popularity": 2.149}, {"id": 236194, "video": false, "vote_count": 3, "vote_average": 6.0, "title": "The Mice Will Play", "release_date": "1938-12-17", "original_language": "en", "original_title": "The Mice Will Play", "genre_ids": [16], "backdrop_path": null, "adult": false, "overview": "The mice are on the loose after hours in a doctor's office, playing with the various pieces of medical apparatus. Susie Mouse is caged for research until her lover Johnnie frees her. A mouse orchestra plays a swinging wedding song. But throughout, a cat is stalking...", "poster_path": "/lCvcP7F3yunHEo5npy9O2AXDZHy.jpg", "popularity": 1.309}], "total_pages": 2, "total_results": 40}, "credits": {"cast": [{"cast_id": 1, "character": "Himself", "credit_id": "52fe43e1c3a368484e003a51", "gender": 2, "id": 82417, "name": "Russell Peters", "order": 0, "profile_path": "/zACDT51HnBvlA0WkcwuMKC5HscR.jpg"}, {"cast_id": 8, "character": "Himself", "credit_id": "52fe43e1c3a368484e003a67", "gender": 0, "id": 214586, "name": "Melle Mel", "order": 1, "profile_path": null}], "crew": [{"credit_id": "52fe43e1c3a368484e003a57", "department": "Production", "gender": 2, "id": 82417, "job": "Executive Producer", "name": "Russell Peters", "profile_path": "/zACDT51HnBvlA0WkcwuMKC5HscR.jpg"}, {"credit_id": "52fe43e1c3a368484e003a5d", "department": "Production", "gender": 0, "id": 1129917, "job": "Executive Producer", "name": "Clayton Peters", "profile_path": null}, {"credit_id": "52fe43e1c3a368484e003a63", "department": "Directing", "gender": 0, "id": 1129918, "job": "Director", "name": "Jigar Talati", "profile_path": null}, {"credit_id": "52fe43e1c3a368484e003a6d", "department": "Production", "gender": 0, "id": 1129918, "job": "Producer", "name": "Jigar Talati", "profile_path": null}]}}