{"adult": false, "backdrop_path": "/gD4D4NKcyCemTxv6lF23VDQMqNp.jpg", "belongs_to_collection": null, "budget": 0, "genres": [{"id": 28, "name": "Action"}, {"id": 12, "name": "Adventure"}, {"id": 35, "name": "Comedy"}], "homepage": null, "id": 203684, "imdb_id": "tt0058858", "original_language": "ja", "original_title": "\uff11\uff10\uff10\u767a\uff11\uff10\uff10\u4e2d", "overview": "After being mistaken for an Interpol agent, a man who was just supposed to go on vacation gets mixed up in a war between two gangs intent on winning the favor of a notorious arms dealer.", "popularity": 1.955, "poster_path": "/4uuS8WeHrHqNmcNYtTPHcpz1hY6.jpg", "production_companies": [{"id": 882, "logo_path": "/fRSWWjquvzcHjACbtF53utZFIll.png", "name": "Toho Company, Ltd.", "origin_country": "JP"}], "production_countries": [{"iso_3166_1": "JP", "name": "Japan"}], "release_date": "1965-12-05", "revenue": 0, "runtime": 101, "spoken_languages": [{"iso_639_1": "en", "name": "English"}, {"iso_639_1": "fr", "name": "Fran\u00e7ais"}, {"iso_639_1": "ja", "name": "\u65e5\u672c\u8a9e"}], "status": "Released", "tagline": "Thrill at the zenith of danger! Gasp through onslaughts of action! Squirm as a girl takes over!", "title": "Ironfinger", "video": false, "vote_average": 6.5, "vote_count": 3, "keywords": {"keywords": [{"id": 233, "name": "japan"}, {"id": 470, "name": "spy"}, {"id": 782, "name": "assassin"}, {"id": 1683, "name": "gadget"}, {"id": 6163, "name": "arms dealer"}, {"id": 6710, "name": "interpol"}, {"id": 7984, "name": "bikini"}, {"id": 11931, "name": "spoof"}]}, "similar": {"page": 1, "results": [{"id": 2503, "video": false, "vote_count": 4835, "vote_average": 7.4, "title": "The Bourne Ultimatum", "release_date": "2007-08-03", "original_language": "en", "original_title": "The Bourne Ultimatum", "genre_ids": [28, 18, 9648, 53], "backdrop_path": "/6WpDOqkZFmhNJ0rwuLJiZVKlZi1.jpg", "adult": false, "overview": "Bourne is brought out of hiding once again by reporter Simon Ross who is trying to unveil Operation Blackbriar, an upgrade to Project Treadstone, in a series of newspaper columns. Information from the reporter stirs a new set of memories, and Bourne must finally uncover his dark past while dodging The Company's best efforts to eradicate him.", "poster_path": "/fHho6JYYY0nRcETWSoeI19iZsNF.jpg", "popularity": 16.034}, {"adult": false, "backdrop_path": "/tjQHn6xW5BiB1RJ3OZIPDzIOSkF.jpg", "genre_ids": [12, 28, 53], "id": 954, "original_language": "en", "original_title": "Mission: Impossible", "overview": "When Ethan Hunt, the leader of a crack espionage team whose perilous operation has gone awry with no explanation, discovers that a mole has penetrated the CIA, he's surprised to learn that he's the No. 1 suspect. To clear his name, Hunt now must ferret out the real double agent and, in the process, even the score.", "poster_path": "/1PVKS17pIBFsIhgFws2uagPDNLW.jpg", "release_date": "1996-05-22", "title": "Mission: Impossible", "video": false, "vote_average": 6.9, "vote_count": 5216, "popularity": 25.737}, {"id": 9486, "video": false, "vote_count": 2000, "vote_average": 6.2, "title": "Johnny English", "release_date": "2003-03-14", "original_language": "en", "original_title": "Johnny English", "genre_ids": [28, 12, 35], "backdrop_path": "/wNEsGAHws1UATmZfnjNBRi2Ln5.jpg", "adult": false, "overview": "A lowly pencil pusher working for MI7, Johnny English is suddenly promoted to super spy after Agent One is assassinated and every other agent is blown up at his funeral. When a billionaire entrepreneur sponsors the exhibition of the Crown Jewels\u2014and the valuable gems disappear on the opening night and on English's watch\u2014the newly-designated agent must jump into action to find the thief and recover the missing gems.", "poster_path": "/fvFOJFDwgtINOxxtrFFiCMUrGdR.jpg", "popularity": 25.499}, {"id": 238713, "video": false, "vote_count": 4197, "vote_average": 6.8, "title": "Spy", "release_date": "2015-05-06", "original_language": "en", "original_title": "Spy", "genre_ids": [28, 35, 80], "backdrop_path": "/x5F6AIyqCjRMwqmF8NR98kU4VzH.jpg", "adult": false, "overview": "A desk-bound CIA analyst volunteers to go undercover to infiltrate the world of a deadly arms dealer, and prevent diabolical global disaster.", "poster_path": "/gCBw0AQDhlo0bNetkjsSRWzrxpW.jpg", "popularity": 21.09}, {"id": 346, "video": false, "vote_count": 1683, "vote_average": 8.4, "title": "Seven Samurai", "release_date": "1954-04-26", "original_language": "ja", "original_title": "\u4e03\u4eba\u306e\u4f8d", "genre_ids": [28, 18], "backdrop_path": "/61vLiK96sbXeHpQiMxI4CuqBA3z.jpg", "adult": false, "overview": "A samurai answers a village's request for protection after he falls on hard times. The town needs protection from bandits, so the samurai gathers six others to help him teach the people how to defend themselves, and the villagers provide the soldiers with food. A giant battle occurs when 40 bandits attack the village.", "poster_path": "/v6xrz4fr92KY1oNC3HsEvrsvR1n.jpg", "popularity": 25.017}, {"id": 681, "video": false, "vote_count": 1040, "vote_average": 6.4, "title": "Diamonds Are Forever", "release_date": "1971-12-13", "original_language": "en", "original_title": "Diamonds Are Forever", "genre_ids": [28, 12, 53], "backdrop_path": "/gIGLXXvsljHK1jdDNaIXsjhZnnH.jpg", "adult": false, "overview": "Diamonds are stolen only to be sold again in the international market. James Bond infiltrates a smuggling mission to find out who\u2019s guilty. The mission takes him to Las Vegas where Bond meets his archenemy Blofeld.", "poster_path": "/viPjZ3JCOahcfNCcVhiPExusJoZ.jpg", "popularity": 18.532}, {"id": 657, "video": false, "vote_count": 1493, "vote_average": 7.1, "title": "From Russia with Love", "release_date": "1963-10-11", "original_language": "en", "original_title": "From Russia with Love", "genre_ids": [28, 12, 53], "backdrop_path": "/vemDErY5wkg2Yg5eTQ7ciPRuyqt.jpg", "adult": false, "overview": "Agent 007 is back in the second installment of the James Bond series, this time battling a secret crime organization known as SPECTRE. Russians Rosa Klebb and Kronsteen are out to snatch a decoding device known as the Lektor, using the ravishing Tatiana to lure Bond into helping them. Bond willingly travels to meet Tatiana in Istanbul, where he must rely on his wits to escape with his life in a series of deadly encounters with the enemy", "poster_path": "/fvIG285JwenrV1K6kVASi1TECJ0.jpg", "popularity": 20.662}, {"id": 206647, "video": false, "vote_count": 7176, "vote_average": 6.4, "title": "Spectre", "release_date": "2015-10-26", "original_language": "en", "original_title": "Spectre", "genre_ids": [28, 12, 80], "backdrop_path": "/wVTYlkKPKrljJfugXN7UlLNjtuJ.jpg", "adult": false, "overview": "A cryptic message from Bond\u2019s past sends him on a trail to uncover a sinister organization. While M battles political forces to keep the secret service alive, Bond peels back the layers of deceit to reveal the terrible truth behind SPECTRE.", "poster_path": "/hE24GYddaxB9MVZl1CaiI86M3kp.jpg", "popularity": 38.086}, {"id": 47971, "video": false, "vote_count": 2661, "vote_average": 5.6, "title": "xXx: Return of Xander Cage", "release_date": "2017-01-13", "original_language": "en", "original_title": "xXx: Return of Xander Cage", "genre_ids": [28, 12, 80], "backdrop_path": "/zv4acOMTPoplVLKo4FaoqAseSDx.jpg", "adult": false, "overview": "Extreme athlete turned government operative Xander Cage comes out of self-imposed exile, thought to be long dead, and is set on a collision course with deadly alpha warrior Xiang and his team in a race to recover a sinister and seemingly unstoppable weapon known as Pandora's Box. Recruiting an all-new group of thrill-seeking cohorts, Xander finds himself enmeshed in a deadly conspiracy that points to collusion at the highest levels of world governments.", "poster_path": "/yNsdyNbQqaKN0TQxkHMws2KLTJ6.jpg", "popularity": 34.363}, {"id": 49040, "video": false, "vote_count": 3881, "vote_average": 6.1, "title": "The Bourne Legacy", "release_date": "2012-08-08", "original_language": "en", "original_title": "The Bourne Legacy", "genre_ids": [28, 53], "backdrop_path": "/gCdJYpX1TXGEZrEJl0mMTTpinMh.jpg", "adult": false, "overview": "New CIA operative Aaron Cross experiences life-or-death stakes that have been triggered by the previous actions of Jason Bourne.", "poster_path": "/qIJonjlSzU6LCJklS6CH3p5vLcQ.jpg", "popularity": 20.243}, {"id": 660, "video": false, "vote_count": 1117, "vote_average": 6.7, "title": "Thunderball", "release_date": "1965-12-15", "original_language": "en", "original_title": "Thunderball", "genre_ids": [28, 12, 53], "backdrop_path": "/qd0jrqxFLCKkNruPuJ7zXuQRpKG.jpg", "adult": false, "overview": "A criminal organization has obtained two nuclear bombs and are asking for a 100 million pound ransom in the form of diamonds in seven days or they will use the weapons. The secret service sends James Bond to the Bahamas to once again save the world.", "poster_path": "/sASN1VnJxWosdzp4mH40P47Xhhz.jpg", "popularity": 22.632}, {"adult": false, "backdrop_path": "/9QcYwm5af4JaUSOyuysVEYOyEXn.jpg", "genre_ids": [12, 28, 53], "id": 646, "original_language": "en", "original_title": "Dr. No", "overview": "In the film that launched the James Bond saga, Agent 007 battles mysterious Dr. No, a scientific genius bent on destroying the U.S. space program. As the countdown to disaster begins, Bond must go to Jamaica, where he encounters beautiful Honey Ryder, to confront a megalomaniacal villain in his massive island headquarters.", "poster_path": "/gRdfLVVf6FheOw6mw6wOsKhZG1l.jpg", "release_date": "1962-10-04", "title": "Dr. No", "video": false, "vote_average": 7.0, "vote_count": 1837, "popularity": 31.291}, {"adult": false, "backdrop_path": "/e1svWjxTXMOmdgkVLSPHSfWv90R.jpg", "genre_ids": [28, 18, 53], "id": 2502, "original_language": "en", "original_title": "The Bourne Supremacy", "overview": "When a CIA operation to purchase classified Russian documents is blown by a rival agent, who then shows up in the sleepy seaside village where Bourne and Marie have been living. The pair run for their lives and Bourne, who promised retaliation should anyone from his former life attempt contact, is forced to once again take up his life as a trained assassin to survive.", "poster_path": "/jXwZgmqOtsqsXuB9oGhocOAegCM.jpg", "release_date": "2004-07-23", "title": "The Bourne Supremacy", "video": false, "vote_average": 7.3, "vote_count": 4750, "popularity": 17.814}, {"id": 667, "video": false, "vote_count": 1033, "vote_average": 6.6, "title": "You Only Live Twice", "release_date": "1967-06-12", "original_language": "en", "original_title": "You Only Live Twice", "genre_ids": [28, 12, 53], "backdrop_path": "/jahBdYTAGMJaEove9l9hzYpDKJD.jpg", "adult": false, "overview": "A mysterious spacecraft captures Russian and American space capsules and brings the two superpowers to the brink of war. James Bond investigates the case in Japan and comes face to face with his archenemy Blofeld.", "poster_path": "/7dnsJZniZK1Hbc9mOFDYa5W0dHi.jpg", "popularity": 26.38}, {"id": 497698, "video": false, "vote_count": 0, "vote_average": 0.0, "title": "Black Widow", "release_date": "2020-04-24", "original_language": "en", "original_title": "Black Widow", "genre_ids": [28, 12, 53], "backdrop_path": "/dGMpzHn9uNqBysBQ6Sp5xdOgM66.jpg", "adult": false, "overview": "Natasha Romanoff, on the run from the government following her disobedience to the Sokovia Accords and for aiding Steve Rogers, finds herself on her own and is forced to deal with some of the red in her ledger.", "poster_path": "/sRhaJ6D3x6gQB0swrV0UDqMwHJu.jpg", "popularity": 23.191}, {"id": 36669, "video": false, "vote_count": 2045, "vote_average": 5.9, "title": "Die Another Day", "release_date": "2002-11-17", "original_language": "en", "original_title": "Die Another Day", "genre_ids": [28, 12, 53], "backdrop_path": "/3YQfmtpbiFCMHcXY3lJ7fGEcOL6.jpg", "adult": false, "overview": "Bond takes on a North Korean leader who undergoes DNA replacement procedures that allow him to assume different identities. American agent, Jinx Johnson assists Bond in his attempt to thwart the villain's plans to exploit a satellite that is powered by solar energy.", "poster_path": "/1iUZqUXS7x5FcGM5J0u01xuObWC.jpg", "popularity": 24.2}, {"id": 37724, "video": false, "vote_count": 11109, "vote_average": 7.1, "title": "Skyfall", "release_date": "2012-10-25", "original_language": "en", "original_title": "Skyfall", "genre_ids": [28, 12, 53], "backdrop_path": "/6bjRujKSnCVSrzC1qjmqfAyaiET.jpg", "adult": false, "overview": "When Bond's latest assignment goes gravely wrong and agents around the world are exposed, MI6 is attacked forcing M to relocate the agency. These events cause her authority and position to be challenged by Gareth Mallory, the new Chairman of the Intelligence and Security Committee. With MI6 now compromised from both inside and out, M is left with one ally she can trust: Bond. 007 takes to the shadows - aided only by field agent, Eve - following a trail to the mysterious Silva, whose lethal and hidden motives have yet to reveal themselves.", "poster_path": "/lQCkPLDxFONmgzrWLvq085v1g2d.jpg", "popularity": 34.013}, {"id": 37834, "video": false, "vote_count": 2737, "vote_average": 6.1, "title": "Knight and Day", "release_date": "2010-06-15", "original_language": "en", "original_title": "Knight and Day", "genre_ids": [28, 35], "backdrop_path": "/clq0YPDQYCql9ekC17YFklk8FwX.jpg", "adult": false, "overview": "A fugitive couple goes on a glamorous and sometimes deadly adventure where nothing and no one \u2013 even themselves \u2013 are what they seem. Amid shifting alliances and unexpected betrayals, they race across the globe, with their survival ultimately hinging on the battle of truth vs. trust.", "poster_path": "/aHEpzwXvMtIEMBE13tWXS5oHZ7d.jpg", "popularity": 17.619}, {"id": 14537, "video": false, "vote_count": 304, "vote_average": 8.3, "title": "Harakiri", "release_date": "1962-09-15", "original_language": "ja", "original_title": "\u5207\u8179", "genre_ids": [28, 18, 36], "backdrop_path": "/pz9fxHyGiiNLZ21bccAtwrMAH7f.jpg", "adult": false, "overview": "Aging samurai Hanshiro Tsugumo arrives at the home of Kageyu Saito and asks to commit a ritual suicide on the property, which Saito thinks is a ploy to gain pity and a job. Saito tells Tsugumo of another samurai, Motome Chijiiwa, who threatened suicide as a stratagem, only to be forced to follow through on the task. When Tsugumo reveals that Chijiiwa was his son-in-law, the disclosure sets off a fierce conflict.", "poster_path": "/k2SE5P8expiI4Pt9qzIX0xJn94E.jpg", "popularity": 15.33}, {"id": 207703, "video": false, "vote_count": 11141, "vote_average": 7.6, "title": "Kingsman: The Secret Service", "release_date": "2014-12-13", "original_language": "en", "original_title": "Kingsman: The Secret Service", "genre_ids": [28, 12, 35, 80], "backdrop_path": "/7McaexSsSTLD8V17UgaZAfI0Cu9.jpg", "adult": false, "overview": "The story of a super-secret spy organization that recruits an unrefined but promising street kid into the agency's ultra-competitive training program just as a global threat emerges from a twisted tech genius.", "poster_path": "/8x7ej0LnHdKUqilNNJXYOeyB6L9.jpg", "popularity": 26.232}], "total_pages": 9, "total_results": 177}, "recommendations": {"page": 1, "results": [], "total_pages": 1, "total_results": 0}, "credits": {"cast": [{"cast_id": 2, "character": "Andrew Hoshino", "credit_id": "52fe4ce4c3a368484e1cb759", "gender": 2, "id": 18615, "name": "Akira Takarada", "order": 0, "profile_path": "/65Z2wChBXZjkcRcFgq7aeDkoyCa.jpg"}, {"cast_id": 3, "character": "Yumi Sawada", "credit_id": "52fe4ce4c3a368484e1cb75d", "gender": 1, "id": 10070, "name": "Mie Hama", "order": 1, "profile_path": "/79z3Dz2KQCO5ru3SUqHFMx1Wate.jpg"}, {"cast_id": 4, "character": "Detective Tezuka", "credit_id": "52fe4ce4c3a368484e1cb761", "gender": 2, "id": 931388, "name": "Ichir\u00f4 Arishima", "order": 2, "profile_path": "/lexqwPhFtt9aSNIH63FRWCxDxwp.jpg"}, {"cast_id": 5, "character": "", "credit_id": "52fe4ce4c3a368484e1cb765", "gender": 2, "id": 228547, "name": "Jun Tatara", "order": 3, "profile_path": "/xzUlQEvQgTDt7939OhQH3Rf7vHN.jpg"}, {"cast_id": 6, "character": "Komori", "credit_id": "52fe4ce4c3a368484e1cb769", "gender": 2, "id": 30568, "name": "Akihiko Hirata", "order": 4, "profile_path": "/hfJ3M03wlP0lhXpPRejONiKXfg0.jpg"}, {"cast_id": 7, "character": "", "credit_id": "52fe4ce4c3a368484e1cb76d", "gender": 0, "id": 108026, "name": "Sachio Sakai", "order": 5, "profile_path": "/5b6g3ZHfSXxfNgInvwz44lUv43I.jpg"}, {"cast_id": 8, "character": "Man of sunglasses", "credit_id": "52fe4ce4c3a368484e1cb771", "gender": 2, "id": 129509, "name": "Susumu Kurobe", "order": 6, "profile_path": "/iMRdCBvpP7KPpb9EVNFWcAoEyL2.jpg"}, {"cast_id": 9, "character": "Matsuki", "credit_id": "52fe4ce4c3a368484e1cb775", "gender": 2, "id": 30567, "name": "T\u00f4ru Ibuki", "order": 7, "profile_path": null}, {"cast_id": 10, "character": "Ken", "credit_id": "52fe4ce4c3a368484e1cb779", "gender": 0, "id": 30474, "name": "Ch\u00f4tar\u00f4 T\u00f4gin", "order": 8, "profile_path": "/t6rhfy9hVKl9jx8PNrfY1pKGCV5.jpg"}, {"cast_id": 11, "character": "Takeshi Aonuma", "credit_id": "52fe4ce4c3a368484e1cb77d", "gender": 2, "id": 1167990, "name": "Naoya Kusakawa", "order": 9, "profile_path": "/l4d1RplbxJhssYonWOLxbE3I1LN.jpg"}, {"cast_id": 12, "character": "", "credit_id": "52fe4ce4c3a368484e1cb781", "gender": 2, "id": 1167989, "name": "K\u00f4ji Iwamoto", "order": 10, "profile_path": null}, {"cast_id": 24, "character": "", "credit_id": "5806c5249251415bbe00d70f", "gender": 0, "id": 931389, "name": "Shigeki Ishida", "order": 11, "profile_path": null}, {"cast_id": 25, "character": "", "credit_id": "5806c52d9251415b9000dfea", "gender": 2, "id": 1060036, "name": "Yasuz\u00f4 Ogawa", "order": 12, "profile_path": null}, {"cast_id": 26, "character": "Stripper", "credit_id": "5806c5539251415a5400e248", "gender": 1, "id": 1119062, "name": "Hatsue Tonooka", "order": 13, "profile_path": "/8jNIwcYFbaNdoZxNzHiAsyLuZ51.jpg"}, {"cast_id": 27, "character": "", "credit_id": "5806c585c3a3684c7400d145", "gender": 0, "id": 1696537, "name": "Wataru Sunaga", "order": 14, "profile_path": null}, {"cast_id": 28, "character": "", "credit_id": "5dc93571470ead001598a8bf", "gender": 2, "id": 551815, "name": "Mike Daneen", "order": 16, "profile_path": "/dgfSNY47ZCyoJD4NkA6OTi320Lr.jpg"}], "crew": [{"credit_id": "5806c4c39251415a7a00dbc4", "department": "Sound", "gender": 2, "id": 18609, "job": "Original Music Composer", "name": "Masaru Sat\u00f4", "profile_path": "/eXVLW2cSdIqQmwvXqlN0soZwYNz.jpg"}, {"credit_id": "5806c456c3a3684c7400cffe", "department": "Production", "gender": 2, "id": 18604, "job": "Executive Producer", "name": "Tomoyuki Tanaka", "profile_path": "/fceS19GAexPnmtVQJHG9VxaVHGZ.jpg"}, {"credit_id": "5806c4e4c3a3684e8b00d587", "department": "Editing", "gender": 0, "id": 30466, "job": "Editor", "name": "Ry\u00f4hei Fujii", "profile_path": null}, {"credit_id": "52fe4ce4c3a368484e1cb755", "department": "Directing", "gender": 2, "id": 30561, "job": "Director", "name": "Jun Fukuda", "profile_path": "/ti07yIFVwOgzc838N2jYOU4Da2Z.jpg"}, {"credit_id": "52fe4ce4c3a368484e1cb791", "department": "Writing", "gender": 2, "id": 85309, "job": "Writer", "name": "Kihachi Okamoto", "profile_path": "/gJmUTQxOTYHD0vu5r15kKkjTQGP.jpg"}, {"credit_id": "52fe4ce4c3a368484e1cb78b", "department": "Writing", "gender": 0, "id": 548036, "job": "Writer", "name": "Michio Tsuzuki", "profile_path": null}, {"credit_id": "5806c45f9251415bec00d9c4", "department": "Production", "gender": 0, "id": 1189031, "job": "Executive Producer", "name": "Kenichiro Tsunoda", "profile_path": null}, {"credit_id": "5806c4b19251415a5400e18b", "department": "Lighting", "gender": 0, "id": 1534243, "job": "Lighting Technician", "name": "Hiromitsu Mori", "profile_path": null}, {"credit_id": "5806c4a092514170b7014f03", "department": "Crew", "gender": 2, "id": 1534577, "job": "Sound Recordist", "name": "Fumio Yanoguchi", "profile_path": null}, {"credit_id": "5806c47b9251415ab000ea80", "department": "Camera", "gender": 0, "id": 1659598, "job": "Director of Photography", "name": "Shinsaku Uno", "profile_path": null}, {"credit_id": "5806c4879251415b9000df2f", "department": "Art", "gender": 0, "id": 1659609, "job": "Art Direction", "name": "Kazuo Ogawa", "profile_path": null}]}}