{"adult": false, "backdrop_path": "/8LGM8vFP79PbISaZULQcdQu5lmJ.jpg", "belongs_to_collection": null, "budget": 0, "genres": [{"id": 18, "name": "Drama"}], "homepage": null, "id": 2037, "imdb_id": "tt0083572", "original_language": "fr", "original_title": "Aphrodite", "overview": "Harry is a young millionaire on holiday; he takes his yacht to a Greek island, and stays in the mansion of his friend...", "popularity": 4.394, "poster_path": "/pzYHKCmLo6dVapOM89u63Tl302l.jpg", "production_companies": [{"id": 899, "logo_path": null, "name": "Almira Films", "origin_country": ""}, {"id": 900, "logo_path": null, "name": "Les Films de la Tour", "origin_country": ""}, {"id": 901, "logo_path": null, "name": "Carlton Film Export", "origin_country": ""}], "production_countries": [{"iso_3166_1": "FR", "name": "France"}], "release_date": "1982-01-01", "revenue": 0, "runtime": 95, "spoken_languages": [{"iso_639_1": "fr", "name": "Fran\u00e7ais"}], "status": "Released", "tagline": "", "title": "Aphrodite", "video": false, "vote_average": 3.5, "vote_count": 1, "keywords": {"keywords": [{"id": 911, "name": "exotic island"}, {"id": 1664, "name": "eroticism"}, {"id": 2504, "name": "world war i"}, {"id": 3342, "name": "yacht"}, {"id": 6163, "name": "arms dealer"}]}, "similar": {"page": 1, "results": [{"id": 530915, "video": false, "vote_count": 625, "vote_average": 8.2, "title": "1917", "release_date": "2019-12-10", "original_language": "en", "original_title": "1917", "genre_ids": [18, 36, 10752], "backdrop_path": "/tUWivz05fcY14K6RzicRm7IHkUD.jpg", "adult": false, "overview": "At the height of the First World War, two young British soldiers, Schofield and Blake are given a seemingly impossible mission. In a race against time, they must cross enemy territory and deliver a message that will stop a deadly attack on hundreds of soldiers\u2014Blake's own brother among them.", "poster_path": "/AuGiPiGMYMkSosOJ3BQjDEAiwtO.jpg", "popularity": 241.648}, {"adult": false, "backdrop_path": "/qsN29Wb7sqw06I9TzEnJE3soxHM.jpg", "genre_ids": [18, 10752], "id": 438259, "original_language": "en", "original_title": "Journey's End", "overview": "Set in a dugout in Aisne in 1918, a group of British officers, led by the mentally disintegrating young officer Stanhope, variously await their fate.", "poster_path": "/5gGkt84bCPt7XRo35FcsrOeer78.jpg", "release_date": "2017-12-14", "title": "Journey's End", "video": false, "vote_average": 6.3, "vote_count": 110, "popularity": 12.839}, {"id": 543580, "video": false, "vote_count": 188, "vote_average": 8.0, "title": "They Shall Not Grow Old", "release_date": "2018-12-17", "original_language": "en", "original_title": "They Shall Not Grow Old", "genre_ids": [99, 36, 10752], "backdrop_path": "/d1WK4WyqjX2WqtCOLD5pn4jxLQN.jpg", "adult": false, "overview": "A documentary about World War I with never-before-seen footage to commemorate the centennial of Armistice Day, and the end of the war.", "poster_path": "/yMGfJeTXUdIjOqjS0jJfjgYEuYC.jpg", "popularity": 13.229}, {"id": 11661, "video": false, "vote_count": 488, "vote_average": 7.4, "title": "Joyeux Noel", "release_date": "2005-11-09", "original_language": "fr", "original_title": "Joyeux No\u00ebl", "genre_ids": [18, 36, 10402, 10749, 10752], "backdrop_path": "/tcrrE9vjnenDxOZrbCcY4V7LdVw.jpg", "adult": false, "overview": "France, 1914, during World War I. On Christmas Eve, an extraordinary event takes place in the bloody no man's land that the French and the Scots dispute with the Germans\u2026", "poster_path": "/9Ka8lKCIiWjnZiMslPQeakS5UhW.jpg", "popularity": 17.122}, {"adult": false, "backdrop_path": "/vSDl3hqsxxNaj0tE5ZLsTQeL0dS.jpg", "genre_ids": [18, 10752], "id": 975, "original_language": "en", "original_title": "Paths of Glory", "overview": "A commanding officer defends three scapegoats on trial for a failed offensive that occurred within the French Army in 1916.", "poster_path": "/6lMXjI1O1N7XyZEjqIo5wkbrgxg.jpg", "release_date": "1957-09-18", "title": "Paths of Glory", "video": false, "vote_average": 8.3, "vote_count": 1350, "popularity": 16.678}, {"adult": false, "backdrop_path": "/msOjpu9wigi6n1Xa51MeLcBue88.jpg", "genre_ids": [18, 36, 10752, 10749], "id": 468224, "original_language": "en", "original_title": "Tolkien", "overview": "England, early 20th century. The future writer and philologist John Ronald Reuel Tolkien (1892-1973) and three of his schoolmates create a strong bond between them as they share the same passion for literature and art, a true fellowship that strengthens as they grow up, but the outbreak of World War I threatens to shatter it.", "poster_path": "/A7eYO3t7oZQdfJj5KlJBI7GhT9H.jpg", "release_date": "2019-05-03", "title": "Tolkien", "video": false, "vote_average": 6.8, "vote_count": 453, "popularity": 15.582}, {"id": 374720, "video": false, "vote_count": 10120, "vote_average": 7.4, "title": "Dunkirk", "release_date": "2017-07-19", "original_language": "en", "original_title": "Dunkirk", "genre_ids": [28, 18, 10752], "backdrop_path": "/fudEG1VUWuOqleXv6NwCExK0VLy.jpg", "adult": false, "overview": "The story of the miraculous evacuation of Allied soldiers from Belgium, Britain, Canada and France, who were cut off and surrounded by the German army from the beaches and harbour of Dunkirk between May 26th and June 4th 1940 during World War II.", "poster_path": "/bOXBV303Fgkzn2K4FeKDc0O31q4.jpg", "popularity": 28.538}, {"id": 9753, "video": false, "vote_count": 86, "vote_average": 4.4, "title": "Survival Island", "release_date": "2006-05-05", "original_language": "en", "original_title": "Three", "genre_ids": [12, 18, 27, 9648, 53], "backdrop_path": "/56Yi1X3Kn8Oo1l9avoVYycGgaKi.jpg", "adult": false, "overview": "After a yachting accident, a millionaire and his wife are shipwrecked on a desert island along with their former deckhand, Manuel.", "poster_path": "/dg5gHoU11VYT0vAv5Uon6SHeoDr.jpg", "popularity": 22.163}, {"id": 2057, "video": false, "vote_count": 429, "vote_average": 5.9, "title": "Original Sin", "release_date": "2001-05-08", "original_language": "en", "original_title": "Original Sin", "genre_ids": [53], "backdrop_path": "/is3I5v8FwLiEWxaksfN8D4MLNGH.jpg", "adult": false, "overview": "A young man is plunged into a life of subterfuge, deceit and mistaken identity in pursuit of a femme fatale whose heart is never quite within his grasp", "poster_path": "/yGis1Mai4ivspEXdWtXLg0bZPkX.jpg", "popularity": 18.232}, {"id": 297762, "video": false, "vote_count": 13722, "vote_average": 7.3, "title": "Wonder Woman", "release_date": "2017-05-30", "original_language": "en", "original_title": "Wonder Woman", "genre_ids": [28, 12, 14], "backdrop_path": "/6iUNJZymJBMXXriQyFZfLAKnjO6.jpg", "adult": false, "overview": "An Amazon princess comes to the world of Man in the grips of the First World War to confront the forces of evil and bring an end to human conflict.", "poster_path": "/gfJGlDaHuWimErCr5Ql0I8x9QSy.jpg", "popularity": 44.687}, {"id": 433356, "video": false, "vote_count": 145, "vote_average": 6.1, "title": "The Ottoman Lieutenant", "release_date": "2017-03-10", "original_language": "en", "original_title": "The Ottoman Lieutenant", "genre_ids": [18, 10749, 10752], "backdrop_path": "/5kmoreEiqaU0JoE8GZmLwLvAsJq.jpg", "adult": false, "overview": "Lillie, a determined American woman, ventures overseas to join Dr. Jude at a remote medical mission in the Ottoman Empire (now Turkey). However, Lillie soon finds herself at odds with Jude and the mission\u2019s founder, Woodruff, when she falls for the titular military man, Ismail, just as the war is about to erupt.", "poster_path": "/c5E8KTDuGNdF4Lmv3OhsQ0W1zPw.jpg", "popularity": 11.281}, {"adult": false, "backdrop_path": "/a17pGiXiDAKMlTnBpixc61Jjka1.jpg", "genre_ids": [36, 18, 10752], "id": 284689, "original_language": "en", "original_title": "Testament of Youth", "overview": "Testament of Youth is a powerful story of love, war and remembrance, based on the First World War memoir by Vera Brittain, which has become the classic testimony of that war from a woman\u2019s point of view. A searing journey from youthful hopes and dreams to the edge of despair and back again, it\u2019s a film about young love, the futility of war and how to make sense of the darkest times.", "poster_path": "/bm4LR8WLYg1CKEjpFcDkIL0DBjS.jpg", "release_date": "2014-10-14", "title": "Testament of Youth", "video": false, "vote_average": 7.4, "vote_count": 545, "popularity": 9.289}, {"id": 2841, "video": false, "vote_count": 660, "vote_average": 7.3, "title": "A Very Long Engagement", "release_date": "2004-10-26", "original_language": "fr", "original_title": "Un long dimanche de fian\u00e7ailles", "genre_ids": [18, 10749, 10752], "backdrop_path": "/pvSoTwy7GCpj4PE3O2XarCvB6ct.jpg", "adult": false, "overview": "In 1919, Mathilde was 19 years old. Two years earlier, her fianc\u00e9 Manech left for the front at the Somme. Like millions of others he was \"killed on the field of battle.\" It's written in black and white on the official notice. But Mathilde refuses to believe it. If Manech had died, she would know. She hangs on to her intuition as tightly as she would onto the last thread of hope linking her to her lover. A former sergeant tells her in vain that Manech died in the no man's land of a trench named Bingo Crepescule, in the company of four other men condemned to die for self-inflicted wounds. Her path ahead is full of obstacles but Mathilde is not frightened. Anything is possible to someone who is willing to challenge fate...", "poster_path": "/jtE7Xrj8KKnhGI3p2yCgwrtUCnd.jpg", "popularity": 10.84}, {"id": 1252, "video": false, "vote_count": 193, "vote_average": 6.1, "title": "Lonely Hearts", "release_date": "2006-04-30", "original_language": "en", "original_title": "Lonely Hearts", "genre_ids": [80, 18, 53, 10749], "backdrop_path": "/eJBksbmMBf6ucrlEoabouuF2WSj.jpg", "adult": false, "overview": "Based on a true story. .\u00a0.\u00a0. In the late 1940s, Martha Beck and Raymond Fernandez were America\u2019s notorious \u201cLonely Hearts Killers.\u201d Their lethal scam was simple; they would swindle and then viciously murder lovelorn war widows who would answer their personal ads in which Ray would describe himself as a sexy Latin lover.", "poster_path": "/wxsyl5wjobtYhll3rf5nGuC4kBN.jpg", "popularity": 9.361}, {"id": 143, "video": false, "vote_count": 337, "vote_average": 7.8, "title": "All Quiet on the Western Front", "release_date": "1930-04-29", "original_language": "en", "original_title": "All Quiet on the Western Front", "genre_ids": [18, 10752], "backdrop_path": "/cmAHUFBqg8VO0InX9QdDTZQSg9H.jpg", "adult": false, "overview": "A young soldier faces profound disillusionment in the soul-destroying horror of World War I. Together with several other young German soldiers, he experiences the horrors of war, such evil of which he had not conceived of when signing up to fight. They eventually become sad, tormented, and confused of their purpose.", "poster_path": "/yAU6jklJLUjZot3WyvyJrxVdLKb.jpg", "popularity": 13.462}, {"adult": false, "backdrop_path": "/mvV4iBXrH3hpWGgz9XH3FXWuokL.jpg", "genre_ids": [12, 18, 36, 10752], "id": 11646, "original_language": "en", "original_title": "Gallipoli", "overview": "As World War I rages, brave and youthful Australians Archy and Frank\u2014both agile runners\u2014become friends and enlist in the Australian and New Zealand Army Corps together. They later find themselves part of the Dardanelles Campaign on the Gallipoli peninsula, a brutal eight-month conflict which pit the British and their allies against the Ottoman Empire and left over 500,000 men dead.", "poster_path": "/un7VCqTmjrq3u75mQ204a8tofD4.jpg", "release_date": "1981-08-13", "title": "Gallipoli", "video": false, "vote_average": 7.2, "vote_count": 226, "popularity": 10.644}, {"adult": false, "backdrop_path": "/ax6TJuFqiuPruL8Lsqg4Kq8U3tK.jpg", "genre_ids": [18, 36, 10749], "id": 18254, "original_language": "en", "original_title": "Reds", "overview": "An account of the revolutionary years of the legendary American journalist John Reed (1887-1920), who shared his adventurous professional life with his radical commitment to the socialist revolution in Russia, his dream of spreading its principles among the members of the American working class, and his troubled romantic relationship with the writer Louise Bryant (1885-1936).", "poster_path": "/5GMPURI5crYPsgS3Gy8Gz9Zh063.jpg", "release_date": "1981-12-25", "title": "Reds", "video": false, "vote_average": 7.2, "vote_count": 146, "popularity": 9.752}, {"id": 28966, "video": false, "vote_count": 114, "vote_average": 7.3, "title": "Wings", "release_date": "1927-08-12", "original_language": "en", "original_title": "Wings", "genre_ids": [28, 18, 10749, 10752], "backdrop_path": "/ca3BH6Hmtgn8oDyl2lauC6vDlkF.jpg", "adult": false, "overview": "Two young men, one rich, one middle class, both in love with the same woman, become US Air Corps fighter pilots and, eventually, heroic flying aces during World War I. Devoted best friends, their mutual love of the girl eventually threatens their bond. Meanwhile, a hometown girl who's the lovestruck lifelong next door neighbor of one of them, pines away.", "poster_path": "/a5z7gCR1xLikOJK3WYXIoXoo9Xi.jpg", "popularity": 7.437}, {"id": 627816, "video": false, "vote_count": 1, "vote_average": 7.0, "title": "A Ladder to the Moon", "release_date": "2019-12-19", "original_language": "es", "original_title": "Una escalera hacia la Luna", "genre_ids": [18, 10752], "backdrop_path": "/mAwb51DfNkRQ3A8GUqr6LxQLiTD.jpg", "adult": false, "overview": "1916. Ren\u00e9 Carpentier is a young French farmer who must leave his home behind in order to fight the Germans and serve his country. On the other side of the great ocean, Canadian Nick Irving leaves behind the woman he loves to photograph the horrors of the War in Europe and to become a hero. Both characters will embark on a journey to the mud of the trenches of Verdun to fight the bloody battles of the Great War with a single purpose ... return home.", "poster_path": "/a5MAgJFHThrUb0n3cdEWA8hSjTQ.jpg", "popularity": 1.411}, {"id": 43824, "video": false, "vote_count": 62, "vote_average": 7.9, "title": "Waterloo Bridge", "release_date": "1940-05-17", "original_language": "en", "original_title": "Waterloo Bridge", "genre_ids": [18, 10749], "backdrop_path": "/exTZN0LDS9gzmsCTnm9lnkBckpy.jpg", "adult": false, "overview": "On the eve of World War II, a British officer revisits Waterloo Bridge and recalls the young man he was at the beginning of World War I and the young ballerina he met just before he left for the front. Myra stayed with him past curfew and is thrown out of the corps de ballet. She survives on the streets of London, falling even lower after she hears her true love has been killed in action. But he wasn't killed. Those terrible years were nothing more than a bad dream is Myra's hope after Roy finds her and takes her to his family's country estate.", "poster_path": "/2XgYKd5tr5b9W5Yfq80yTZqf3hy.jpg", "popularity": 6.906}], "total_pages": 3, "total_results": 53}, "recommendations": {"page": 1, "results": [], "total_pages": 1, "total_results": 0}, "credits": {"cast": [{"cast_id": 12, "character": "Harry Laird", "credit_id": "52fe432fc3a36847f8040b27", "gender": 2, "id": 5789, "name": "Horst Buchholz", "order": 0, "profile_path": "/bNyMxUU2aVaqDfoqRhnIjQJe3jo.jpg"}, {"cast_id": 13, "character": "Susan Stanford", "credit_id": "52fe432fc3a36847f8040b2b", "gender": 1, "id": 14262, "name": "Capucine", "order": 1, "profile_path": "/pGzEiXMc77pxXwhiH4j0vdb20IO.jpg"}, {"cast_id": 14, "character": "Pauline", "credit_id": "52fe432fc3a36847f8040b2f", "gender": 1, "id": 15211, "name": "Val\u00e9rie Kaprisky", "order": 2, "profile_path": "/xQQFRPkCXZyuHqZxIyG9FWljbep.jpg"}, {"cast_id": 15, "character": "Valerie", "credit_id": "52fe432fc3a36847f8040b33", "gender": 1, "id": 20945, "name": "Catherine Jourdan", "order": 3, "profile_path": "/hLPxSkGrKjs6uN32AR8KaLNPJIa.jpg"}, {"cast_id": 16, "character": "Mark", "credit_id": "52fe432fc3a36847f8040b37", "gender": 2, "id": 20946, "name": "Daniel Beretta", "order": 4, "profile_path": "/fpDwHMmT8u8L56aUtY8gHaTPWk7.jpg"}, {"cast_id": 17, "character": "Orloff", "credit_id": "52fe432fc3a36847f8040b3b", "gender": 0, "id": 20947, "name": "Yves Massard", "order": 5, "profile_path": null}, {"cast_id": 18, "character": "Barbara", "credit_id": "52fe432fc3a36847f8040b3f", "gender": 1, "id": 20948, "name": "Delia Boccardo", "order": 6, "profile_path": "/6Jx7sLJtYHoIIBEYTswng3yrkER.jpg"}, {"cast_id": 19, "character": "", "credit_id": "5acb2aa30e0a2631f700d772", "gender": 2, "id": 584234, "name": "Paolo Baroni", "order": 7, "profile_path": "/bgrtx1S3XoobMU0X9UU0jUwQyBU.jpg"}, {"cast_id": 20, "character": "Julie", "credit_id": "5acb2aae925141434400ca65", "gender": 1, "id": 589965, "name": "Monica Nickel", "order": 8, "profile_path": "/6JeDYvIKOPblDWHU7M5QfQ0IBiN.jpg"}, {"cast_id": 21, "character": "", "credit_id": "5acb2ab9c3a3687dee00cc71", "gender": 0, "id": 1075550, "name": "Carmelo Petix", "order": 9, "profile_path": "/qBptJWZnrJmgCqh0Ng2Wu4L52rz.jpg"}, {"cast_id": 22, "character": "", "credit_id": "5acb2ac1925141439d00bb2c", "gender": 0, "id": 1917852, "name": "Nicole Norden", "order": 10, "profile_path": "/mWIxDYCWqtHXKtDd2hNIn5rFcxb.jpg"}, {"cast_id": 23, "character": "", "credit_id": "5acb2ac9c3a36834de067acc", "gender": 0, "id": 2019338, "name": "Vanessa Weill", "order": 11, "profile_path": null}, {"cast_id": 24, "character": "", "credit_id": "5acb2ad0925141439d00bb3e", "gender": 0, "id": 2019339, "name": "Lydia Dalbret", "order": 12, "profile_path": null}], "crew": [{"credit_id": "52fe432fc3a36847f8040b1d", "department": "Art", "gender": 0, "id": 2190, "job": "Art Direction", "name": "G\u00e9rard Viard", "profile_path": null}, {"credit_id": "52fe432fc3a36847f8040ae7", "department": "Production", "gender": 0, "id": 20935, "job": "Producer", "name": "Raoul Katz", "profile_path": null}, {"credit_id": "52fe432fc3a36847f8040aed", "department": "Production", "gender": 0, "id": 20936, "job": "Producer", "name": "Adolphe Viezzi", "profile_path": null}, {"credit_id": "52fe432fc3a36847f8040af3", "department": "Directing", "gender": 2, "id": 20937, "job": "Director", "name": "Robert Fuest", "profile_path": "/w7wmTbPWYL7vkrF0ZNVBJDhOVYW.jpg"}, {"credit_id": "52fe432fc3a36847f8040af9", "department": "Writing", "gender": 0, "id": 20938, "job": "Novel", "name": "Pierre Lou\u00ffs", "profile_path": null}, {"credit_id": "52fe432fc3a36847f8040aff", "department": "Camera", "gender": 0, "id": 20939, "job": "Director of Photography", "name": "Bernard Daillencourt", "profile_path": null}, {"credit_id": "52fe432fc3a36847f8040b05", "department": "Editing", "gender": 0, "id": 20940, "job": "Editor", "name": "No\u00eblle Balenci", "profile_path": null}, {"credit_id": "52fe432fc3a36847f8040b0b", "department": "Writing", "gender": 0, "id": 20941, "job": "Screenplay", "name": "John Melson", "profile_path": null}, {"credit_id": "52fe432fc3a36847f8040b11", "department": "Writing", "gender": 0, "id": 20942, "job": "Screenplay", "name": "Jean Ardy", "profile_path": null}, {"credit_id": "52fe432fc3a36847f8040b17", "department": "Sound", "gender": 0, "id": 20943, "job": "Original Music Composer", "name": "Jean-Pierre Stora", "profile_path": null}, {"credit_id": "52fe432fc3a36847f8040b23", "department": "Sound", "gender": 0, "id": 20944, "job": "Sound Designer", "name": "Georges Vaglio", "profile_path": null}]}}