{"adult": false, "backdrop_path": "/zz4GkFViqqabHGkKF549Ni1AYC2.jpg", "belongs_to_collection": null, "budget": 0, "genres": [{"id": 10751, "name": "Family"}], "homepage": "", "id": 206171, "imdb_id": "tt0048304", "original_language": "en", "original_title": "The Littlest Outlaw", "overview": "A little boy runs away with a star jumping horse after the horse is abused.", "popularity": 2.89, "poster_path": "/s5wKSo1SPZjSZV70whagchzDtiS.jpg", "production_companies": [{"id": 2, "logo_path": "/wdrCwmRnLFJhEoH8GSfymY85KHT.png", "name": "Walt Disney Pictures", "origin_country": "US"}], "production_countries": [{"iso_3166_1": "US", "name": "United States of America"}], "release_date": "1955-12-22", "revenue": 0, "runtime": 73, "spoken_languages": [{"iso_639_1": "en", "name": "English"}], "status": "Released", "tagline": "A BOY AND HIS HORSE...Yet their story of Courage...Devotion...and Suspense...Is one you will never forget!", "title": "The Littlest Outlaw", "video": false, "vote_average": 5.8, "vote_count": 5, "keywords": {"keywords": [{"id": 2673, "name": "horse"}, {"id": 191210, "name": "horse thief"}]}, "similar": {"page": 1, "results": [{"id": 4464, "video": false, "vote_count": 458, "vote_average": 7.0, "title": "Seabiscuit", "release_date": "2003-07-22", "original_language": "en", "original_title": "Seabiscuit", "genre_ids": [18, 36], "backdrop_path": "/z7qXjCwD2q0nF5TWTkUuuEDsuXJ.jpg", "adult": false, "overview": "True story of the undersized Depression-era racehorse whose victories lifted not only the spirits of the team behind it but also those of their nation.", "poster_path": "/xzYOaFGZBNAciQXRasQQ8sYxBSi.jpg", "popularity": 11.359}, {"adult": false, "backdrop_path": "/xXJ48xbBA2xT8HxNSEz9SpCkSeV.jpg", "genre_ids": [18, 10751], "id": 17641, "original_language": "en", "original_title": "National Velvet", "overview": "Mi Taylor was a young wanderer and opportunist whose father had given him \"all the roads in the Kingdom\" to travel. One of the roads, and a notation in his father's journal, leads him to the quiet English country-side home of the Brown family. The youngest daughter, Velvet, has a passion for horses and when she wins the spirited steed Pie in a town lottery, Mi is encouraged to train the horse...", "poster_path": "/x2uvh9AFTRdyD0FOJ1dDlerPjtA.jpg", "release_date": "1944-12-21", "title": "National Velvet", "video": false, "vote_average": 7.2, "vote_count": 50, "popularity": 6.34}, {"id": 334354, "video": false, "vote_count": 113, "vote_average": 7.4, "title": "Windstorm 2", "release_date": "2015-05-14", "original_language": "de", "original_title": "Ostwind 2", "genre_ids": [12, 18, 10749, 10751], "backdrop_path": "/l6atARsPq42Jz3Ls9fHqeGnahoy.jpg", "adult": false, "overview": "Summer vacation. Mika is overjoyed to see Windstorm again. But then she discovers strange wounds on the belly of Windstorm, for which no one has an explanation. Yet this is Kaltenbach verge of bankruptcy! With a heavy heart Mika decides to participate in a variety tournament in which beckons a high prize money. But during training affects Windstorm distracted, often he runs away easily. Mika pursued the black stallion until deep into the forest and is quite surprised: From the thicket a seemingly magical gray mare appears and the two horses dance around lovingly. Suddenly, a strange boy named Milan appears, who says the mare had escaped him. He claimed that he could Help Mika to win the tournament. But is there still time to save Kaltenbach?", "poster_path": "/4MAtc4Lz8Ds2AyZid0XrsKmMEby.jpg", "popularity": 8.851}, {"id": 2023, "video": false, "vote_count": 613, "vote_average": 6.6, "title": "Hidalgo", "release_date": "2004-02-04", "original_language": "en", "original_title": "Hidalgo", "genre_ids": [28, 12, 37], "backdrop_path": "/1tH9AnFjBFemdowMfDrnnhY8Y1z.jpg", "adult": false, "overview": "Set in 1890, this is the story of a Pony Express courier who travels to Arabia to compete with his horse, Hidalgo, in a dangerous race for a massive contest prize, in an adventure that sends the pair around the world...", "poster_path": "/5BiWWo12FnSFTatD8dfMpoF7bVs.jpg", "popularity": 19.079}, {"id": 223485, "video": false, "vote_count": 586, "vote_average": 6.6, "title": "Slow West", "release_date": "2015-04-16", "original_language": "en", "original_title": "Slow West", "genre_ids": [28, 18, 53, 37, 10749], "backdrop_path": "/9qF6lhj6X0ImH4iWGZs1uspXJI0.jpg", "adult": false, "overview": "In the Old West, a 17-year-old Scottish boy teams up with a mysterious gunman to find the woman with whom he is infatuated.", "poster_path": "/uZ9dBBn0GaEw0YIBvQd01Io3pho.jpg", "popularity": 10.467}, {"adult": false, "backdrop_path": "/9SudvdR6HYtgTqMz17RYXdWuTUl.jpg", "genre_ids": [12, 28, 53], "id": 707, "original_language": "en", "original_title": "A View to a Kill", "overview": "A newly developed microchip designed by Zorin Industries for the British Government that can survive the electromagnetic radiation caused by a nuclear explosion has landed in the hands of the KGB. James Bond must find out how and why. His suspicions soon lead him to big industry leader Max Zorin.", "poster_path": "/veDMW7eX6tat86EapsvGEICJ8Tq.jpg", "release_date": "1985-05-24", "title": "A View to a Kill", "video": false, "vote_average": 6.2, "vote_count": 957, "popularity": 24.223}, {"adult": false, "backdrop_path": "/sG3Du3Ha6rGeSzFfXme1nh8S2Jl.jpg", "genre_ids": [18, 10751, 14, 12], "id": 34584, "original_language": "en", "original_title": "Die unendliche Geschichte", "overview": "While hiding from bullies in his school's attic, a young boy discovers the extraordinary land of Fantasia, through a magical book called The Neverending Story. The book tells the tale of Atreyu, a young warrior who, with the help of a luck dragon named Falkor, must save Fantasia from the destruction of The Nothing.", "poster_path": "/ddYCa91iDXfJCxaqSYzwi2fjfnl.jpg", "release_date": "1984-04-05", "title": "The NeverEnding Story", "video": false, "vote_average": 7.1, "vote_count": 2201, "popularity": 19.789}, {"id": 38757, "video": false, "vote_count": 7117, "vote_average": 7.5, "title": "Tangled", "release_date": "2010-11-24", "original_language": "en", "original_title": "Tangled", "genre_ids": [16, 10751], "backdrop_path": "/uFg02Gt69UM6Ouam4slMdD0s029.jpg", "adult": false, "overview": "When the kingdom's most wanted-and most charming-bandit Flynn Rider hides out in a mysterious tower, he's taken hostage by Rapunzel, a beautiful and feisty tower-bound teen with 70 feet of magical, golden hair. Flynn's curious captor, who's looking for her ticket out of the tower where she's been locked away for years, strikes a deal with the handsome thief and the unlikely duo sets off on an action-packed escapade, complete with a super-cop horse, an over-protective chameleon and a gruff gang of pub thugs.", "poster_path": "/re6AOJbhBk9FIK3knwU6rYlbPDx.jpg", "popularity": 30.508}, {"adult": false, "backdrop_path": "/kQOLgJGvFjQ7EwGfaPkW9dlGFXJ.jpg", "genre_ids": [27, 9648], "id": 565, "original_language": "en", "original_title": "The Ring", "overview": "It sounded like just another urban legend: A videotape filled with nightmarish images, leading to a phone call foretelling the viewer's death in exactly seven days. As a newspaper reporter, Rachel Keller was naturally skeptical of the story, until four teenagers all met with mysterious deaths exactly one week after watching just such a tape. Allowing her investigative curiosity to get the better of her, Rachel tracks down the video... and watches it. Now she has just seven days to unravel the mystery of the Ring.", "poster_path": "/zHJFdhqEXZJxG653oZvOM3PmNON.jpg", "release_date": "2002-10-18", "title": "The Ring", "video": false, "vote_average": 6.6, "vote_count": 3616, "popularity": 12.821}, {"id": 57212, "video": false, "vote_count": 2067, "vote_average": 7.2, "title": "War Horse", "release_date": "2011-12-25", "original_language": "en", "original_title": "War Horse", "genre_ids": [28, 18, 10752], "backdrop_path": "/iO4fslQ9CenAOcg3JfhN6o9va2.jpg", "adult": false, "overview": "Follows a young man named Albert and his horse, Joey, and how their bond is broken when Joey is sold to the cavalry and sent to the trenches of World War One. Despite being too young to enlist, Albert heads to France to save his friend.", "poster_path": "/6wMoQyJddEiLCzLUHiX7LNWhDol.jpg", "popularity": 12.763}, {"id": 196, "video": false, "vote_count": 6115, "vote_average": 7.4, "title": "Back to the Future Part III", "release_date": "1990-05-25", "original_language": "en", "original_title": "Back to the Future Part III", "genre_ids": [12, 35, 878], "backdrop_path": "/pP2a4MBQbIeZMbErBWMjxTT5Npb.jpg", "adult": false, "overview": "The final installment of the Back to the Future trilogy finds Marty digging the trusty DeLorean out of a mineshaft and looking for Doc in the Wild West of 1885. But when their time machine breaks down, the travelers are stranded in a land of spurs. More problems arise when Doc falls for pretty schoolteacher Clara Clayton, and Marty tangles with Buford Tannen.", "poster_path": "/6DmgPTZYaug7QNDjOhUDWyjOQDl.jpg", "popularity": 17.871}, {"id": 947, "video": false, "vote_count": 1588, "vote_average": 8.0, "title": "Lawrence of Arabia", "release_date": "1962-12-10", "original_language": "en", "original_title": "Lawrence of Arabia", "genre_ids": [12, 18, 36, 10752], "backdrop_path": "/lENerYvUcfl9GlolqA1emj5gb4k.jpg", "adult": false, "overview": "The story of British officer T.E. Lawrence's mission to aid the Arab tribes in their revolt against the Ottoman Empire during the First World War. Lawrence becomes a flamboyant, messianic figure in the cause of Arab unity but his psychological instability threatens to undermine his achievements.", "poster_path": "/j21UXCOq0EbV8EPTtmPn1CGePfB.jpg", "popularity": 17.37}, {"id": 36955, "video": false, "vote_count": 2202, "vote_average": 6.9, "title": "True Lies", "release_date": "1994-07-15", "original_language": "en", "original_title": "True Lies", "genre_ids": [28, 53], "backdrop_path": "/o2agns0LEqyEUCByMT8ViIOio7r.jpg", "adult": false, "overview": "A fearless, globe-trotting, terrorist-battling secret agent has his life turned upside down when he discovers his wife might be having an affair with a used car salesman while terrorists smuggle nuclear war heads into the United States.", "poster_path": "/mTAHr5h5i64hTLqo0cW2X2083Cx.jpg", "popularity": 25.06}, {"id": 9342, "video": false, "vote_count": 2443, "vote_average": 6.4, "title": "The Mask of Zorro", "release_date": "1998-07-16", "original_language": "en", "original_title": "The Mask of Zorro", "genre_ids": [28, 12], "backdrop_path": "/zQu6bClLL0wnrHDlQYA43wtSiWg.jpg", "adult": false, "overview": "It has been twenty years since Don Diego de la Vega fought Spanish oppression in Alta California as the legendary romantic hero, Zorro. Having escaped from prison he transforms troubled bandit Alejandro into his successor, in order to foil the plans of the tyrannical Don Rafael Montero who robbed him of his freedom, his wife and his precious daughter.", "poster_path": "/QBxafkXiqUadYWsVZGhi8qyPT6.jpg", "popularity": 20.775}, {"id": 9277, "video": false, "vote_count": 1262, "vote_average": 8.1, "title": "The Sting", "release_date": "1973-12-25", "original_language": "en", "original_title": "The Sting", "genre_ids": [35, 80, 18], "backdrop_path": "/qdTTCAt35taHlFeeKZwBXLuJ5z7.jpg", "adult": false, "overview": "Set in the 1930s this intricate caper deals with an ambitious small-time crook and a veteran con man who seek revenge on a vicious crime lord who murdered one of their gang.", "poster_path": "/mQaM8fDQdFWwCTFp0TZG8fChlZ5.jpg", "popularity": 17.896}, {"id": 455842, "video": false, "vote_count": 18, "vote_average": 5.7, "title": "Elliot: The Littlest Reindeer", "release_date": "2018-11-08", "original_language": "en", "original_title": "Elliot: The Littlest Reindeer", "genre_ids": [12, 16, 10751], "backdrop_path": "/2Djp1gHsUsbf2YpvyoihXecGXPi.jpg", "adult": false, "overview": "When Blitzen announces his retirement on December 21st, a miniature horse has 3 days to fulfill his lifelong dream of earning a spot on Santa's team at the North Pole try-outs.", "poster_path": "/sYq809WTep01HO5oJR9o9VbEDJv.jpg", "popularity": 5.728}, {"adult": false, "backdrop_path": "/sgcgfrlOOB6lVXbfl75YTszF4jI.jpg", "genre_ids": [28, 12, 37], "id": 57201, "original_language": "en", "original_title": "The Lone Ranger", "overview": "The Texas Rangers chase down a gang of outlaws led by Butch Cavendish, but the gang ambushes the Rangers, seemingly killing them all. One survivor is found, however, by an American Indian named Tonto, who nurses him back to health. The Ranger, donning a mask and riding a white stallion named Silver, teams up with Tonto to bring the unscrupulous gang and others of that ilk to justice.", "poster_path": "/b4vil5ueYJNBNypHmo1tpuevh4z.jpg", "release_date": "2013-07-03", "title": "The Lone Ranger", "video": false, "vote_average": 6.0, "vote_count": 4109, "popularity": 18.929}, {"id": 12920, "video": false, "vote_count": 175, "vote_average": 6.5, "title": "Dreamer: Inspired By a True Story", "release_date": "2005-09-10", "original_language": "en", "original_title": "Dreamer: Inspired By a True Story", "genre_ids": [18, 10751], "backdrop_path": "/7TeuTbE4WfQ2ujijJAfTwiogIcn.jpg", "adult": false, "overview": "Ben Crane believes that a severely injured racehorse deserves another chance. He and his daughter Cale adopt the mare and save it from being sacrificed by the owner.", "poster_path": "/hVGeYxlMkjvnde0QSuloQragYNe.jpg", "popularity": 10.681}, {"id": 966, "video": false, "vote_count": 921, "vote_average": 7.6, "title": "The Magnificent Seven", "release_date": "1960-10-22", "original_language": "en", "original_title": "The Magnificent Seven", "genre_ids": [37], "backdrop_path": "/oRSocDAAADYnCkI4jiUeRnlCnwG.jpg", "adult": false, "overview": "An oppressed Mexican peasant village hires seven gunfighters to help defend their homes.", "poster_path": "/7w3JmmyL8GpBvW6BusQfQCSm2h0.jpg", "popularity": 16.213}, {"adult": false, "backdrop_path": "/yr9ZWlNyR8Yz43q5gv2YZPt4Bbw.jpg", "genre_ids": [28, 53, 80], "id": 15092, "original_language": "en", "original_title": "Crank: High Voltage", "overview": "Chelios faces a Chinese mobster who has stolen his nearly indestructible heart and replaced it with a battery-powered ticker that requires regular jolts of electricity to keep working.", "poster_path": "/6WLcJkIwyycyUDDfZ5VWU1TcLwF.jpg", "release_date": "2009-04-16", "title": "Crank: High Voltage", "video": false, "vote_average": 5.9, "vote_count": 1588, "popularity": 19.648}], "total_pages": 25, "total_results": 492}, "recommendations": {"page": 1, "results": [{"adult": false, "backdrop_path": null, "genre_ids": [37, 35, 18, 10751], "id": 104297, "original_language": "en", "original_title": "Scandalous John", "overview": "A crotchety old ranch owner fights to be able to live his life the way he wants to, and not the way other people--and the law--tell him he has to.", "poster_path": "/8KbITraPK0evQWPvrji0obNhmRB.jpg", "release_date": "1971-06-22", "title": "Scandalous John", "video": false, "vote_average": 6.5, "vote_count": 4, "popularity": 2.334}, {"adult": false, "backdrop_path": "/hkORutoJMSjZHq9oXX3YvBMaS9i.jpg", "genre_ids": [12, 37], "id": 231259, "original_language": "en", "original_title": "Ten Who Dared", "overview": "The John Wesley Powell expedition of 1869 explores the dangerous Colorado River, withstands internal dissension, and finally discovers the Grand Canyon.", "poster_path": "/fxzrHwnguRhcLMVcFJxvvBDwsn4.jpg", "release_date": "1960-11-01", "title": "Ten Who Dared", "video": false, "vote_average": 5.8, "vote_count": 4, "popularity": 4.403}, {"adult": false, "backdrop_path": null, "genre_ids": [10751], "id": 98348, "original_language": "en", "original_title": "King of the Grizzlies", "overview": "Moki (John Yesno), a Cree Indian, is made foreman of a sprawling cattle ranch owned by his former army commander. But he carries with him through life the lore of his own people. When he rescues a bear cub, Wahb, he feels a mystical connection between himself and the magnificent creature. Later, Wahb, now a 1,300-pound bear, returns from the wild to wreak havoc on the cattle ranch, and Moki must face this fearsome grizzly. This spectacular film depicts a territorial battle over a country of breathtaking beauty.", "poster_path": "/b3PQqT64u2P0LNojvIBFDxjIqdP.jpg", "release_date": "1970-02-11", "title": "King of the Grizzlies", "video": false, "vote_average": 6.5, "vote_count": 4, "popularity": 2.08}, {"adult": false, "backdrop_path": "/6AmGG6obZ6j2628XWV5T9rNIw5d.jpg", "genre_ids": [37], "id": 132074, "original_language": "en", "original_title": "Smith!", "overview": "When the Indian Jimmyboy is accused of murder of a white man, he flees onto the ranch of Smith, who's well known for his tolerance for Indians, since he was raised by the old Indian Antoine. Smith helps Jimmyboy against the mean Sheriff and promises to speak for him in court, thus persuading him to surrender himself to the police.", "poster_path": "/uhcTtnFrUo1WCTVABzfEA60v0bg.jpg", "release_date": "1969-03-21", "title": "Smith!", "video": false, "vote_average": 6.5, "vote_count": 4, "popularity": 2.519}, {"id": 58019, "video": false, "vote_count": 8, "vote_average": 7.3, "title": "Miracle of the White Stallions", "release_date": "1963-03-29", "original_language": "en", "original_title": "Miracle of the White Stallions", "genre_ids": [18, 10751], "backdrop_path": "/yhO6mh708XQrh07p1WMPU97eYoY.jpg", "adult": false, "overview": "In WWII Austria, Col. Alois Podhajsky must protect his beloved Lipizzaner stallions and make sure that they are surrendered into the right hands. But Patton's something of a horse fancier and can help...if he sees the stallions perform.", "poster_path": "/24VlEmFZynfw63KvLiKNtMCElDZ.jpg", "popularity": 3.93}, {"id": 50033, "video": false, "vote_count": 11, "vote_average": 6.2, "title": "Savage Sam", "release_date": "1963-06-01", "original_language": "en", "original_title": "Savage Sam", "genre_ids": [28, 12, 18, 37, 10751], "backdrop_path": "/pR2zwR0mnfZM9G35PFy5SdTgcbY.jpg", "adult": false, "overview": "Travis, Arliss, and Lisbeth are captured by Apaches while Old Yeller's son, Sam, tracks their trail.", "poster_path": "/3N7LO9q68oaOPsjLPJJ8HjVZWDK.jpg", "popularity": 3.222}, {"id": 64875, "video": false, "vote_count": 6, "vote_average": 6.5, "title": "The Fighting Prince of Donegal", "release_date": "1966-10-01", "original_language": "en", "original_title": "The Fighting Prince of Donegal", "genre_ids": [28, 12], "backdrop_path": "/gMauz5D14F8qgB8KFffrNgieeEF.jpg", "adult": false, "overview": "Ireland 1587. Hugh O'Donnell inherits the title of The O'Donnell, the prince of Donegal, and tries to unite Ireland to make war on England. But then Hugh is kidnapped and imprisoned by the Viceroy of Ireland and held ransom for the Clans' good behavior. Hugh must escape prison and the Viceroy's villainous henchman, Captain Leeds, before he can fight.", "poster_path": "/cRhCbKHJM2giFyad3D9Omn6vZjC.jpg", "popularity": 2.64}, {"id": 103711, "video": false, "vote_count": 6, "vote_average": 5.3, "title": "Charley and the Angel", "release_date": "1973-03-23", "original_language": "en", "original_title": "Charley and the Angel", "genre_ids": [35, 14, 10751], "backdrop_path": "/3k3GzIZ6kC2lE8zddK7LExkUxO4.jpg", "adult": false, "overview": "Charley is a workaholic family man that finds out from an angel that his \"number's up\" and he will be dying soon so he tries to change his ways and be a better husband and father with the time he has left.", "poster_path": "/mvL0ioyVJovVV8Al0u1gEvwCOoG.jpg", "popularity": 4.275}, {"id": 46667, "video": false, "vote_count": 8, "vote_average": 5.1, "title": "Superdad", "release_date": "1973-12-14", "original_language": "en", "original_title": "Superdad", "genre_ids": [35], "backdrop_path": "/zAT4skLQRLK7mNf24iDxXiEW3Y.jpg", "adult": false, "overview": "A dad tries to impress the daughter -- a soon-to-be college student he thinks is hanging around with a bad crowd.", "poster_path": "/tEucpLYwBRpeX4hohge4N4oErpG.jpg", "popularity": 4.541}, {"id": 18506, "video": false, "vote_count": 12, "vote_average": 6.0, "title": "Once Upon A Mattress", "release_date": "2005-12-18", "original_language": "en", "original_title": "Once Upon A Mattress", "genre_ids": [35, 10402, 10749], "backdrop_path": "/ySHcUvtYEcDe5thwOun66ZbIBHi.jpg", "adult": false, "overview": "Queen Aggravain has ruled that none may marry until her son, Prince Dauntless marries. However, she has managed to sabotage every princess that come along. When Sir Harry and Lady Larken learn that they are going to be parents, wed or not, he goes off to the swamps and brings back Princess Winnifred (\"Fred\" to her friends).", "poster_path": "/yE6V68cs26jlz0nie7ouy8fSL9h.jpg", "popularity": 4.451}], "total_pages": 1, "total_results": 10}, "credits": {"cast": [{"cast_id": 4, "character": "Gen. Torres", "credit_id": "5842f7189251417ed3009997", "gender": 2, "id": 96973, "name": "Pedro Armend\u00e1riz", "order": 1, "profile_path": "/yGYb49OKTcmvdVxrQutZrmbM15v.jpg"}, {"cast_id": 5, "character": "Padre", "credit_id": "5842fa039251417eca00a0ce", "gender": 0, "id": 33747, "name": "Joseph Calleia", "order": 2, "profile_path": "/xyb6l5Epo5NXbKUXD7puhLoYca2.jpg"}, {"cast_id": 6, "character": "Chato", "credit_id": "5842fa10c3a36876c600940c", "gender": 2, "id": 24827, "name": "Rodolfo Acosta", "order": 3, "profile_path": "/m7lQ5rATvSUtamHOj6qtfZJGDHr.jpg"}, {"cast_id": 7, "character": "Pablito", "credit_id": "5842fa1f9251417ebe009c72", "gender": 0, "id": 1188542, "name": "Andr\u00e9s Vel\u00e1zquez", "order": 4, "profile_path": null}, {"cast_id": 8, "character": "Celita", "credit_id": "5842fa2f9251417ed00099a9", "gender": 0, "id": 1717886, "name": "Laila Maley", "order": 5, "profile_path": null}], "crew": [{"credit_id": "52fe4d17c3a368484e1d684b", "department": "Directing", "gender": 2, "id": 974634, "job": "Director", "name": "Roberto Gavald\u00f3n", "profile_path": "/uuNhU4gU4XCo3iMjvtuW25JIuwV.jpg"}, {"credit_id": "5842fb46c3a36876ae00ab38", "department": "Writing", "gender": 2, "id": 5836, "job": "Writer", "name": "Bill Walsh", "profile_path": "/nfwyYYj1sVg5uneKLftutLhNqIN.jpg"}, {"credit_id": "5842fb50c3a36876ae00ab42", "department": "Writing", "gender": 2, "id": 165461, "job": "Story", "name": "Larry Lansburgh", "profile_path": null}]}}