{"adult": false, "backdrop_path": "/bCWVIeyhwyBJ2zxFBKSGVdJbXTb.jpg", "belongs_to_collection": null, "budget": 0, "genres": [{"id": 80, "name": "Crime"}, {"id": 18, "name": "Drama"}, {"id": 10749, "name": "Romance"}, {"id": 53, "name": "Thriller"}], "homepage": "", "id": 20689, "imdb_id": "tt0118926", "original_language": "en", "original_title": "The Dancer Upstairs", "overview": "A police detective in a South American country is dedicated to hunting down a revolutionary guerilla leader.", "popularity": 5.015, "poster_path": "/jG662jKzEf63fhcbbN3WiLlz5MX.jpg", "production_companies": [{"id": 357, "logo_path": null, "name": "V\u00eda Digital", "origin_country": "ES"}, {"id": 43, "logo_path": "/4RgIPr55kBakgupWkzdDxqXJEqr.png", "name": "Fox Searchlight Pictures", "origin_country": "US"}, {"id": 1025, "logo_path": null, "name": "Lolafilms", "origin_country": "ES"}, {"id": 2130, "logo_path": "/g0lqeY2FvhzXcOI6z8RVXbORRUY.png", "name": "Mr. Mudd Production", "origin_country": "US"}, {"id": 11737, "logo_path": null, "name": "Antena 3 Televisi\u00f3n", "origin_country": ""}], "production_countries": [{"iso_3166_1": "ES", "name": "Spain"}, {"iso_3166_1": "US", "name": "United States of America"}], "release_date": "2002-09-20", "revenue": 0, "runtime": 132, "spoken_languages": [{"iso_639_1": "qu", "name": ""}, {"iso_639_1": "es", "name": "Espa\u00f1ol"}, {"iso_639_1": "en", "name": "English"}], "status": "Released", "tagline": "An honest man caught in a world of intrigue, power and passion.", "title": "The Dancer Upstairs", "video": false, "vote_average": 7.0, "vote_count": 29, "keywords": {"keywords": []}, "similar": {"page": 1, "results": [{"id": 949, "video": false, "vote_count": 3610, "vote_average": 7.8, "title": "Heat", "release_date": "1995-12-15", "original_language": "en", "original_title": "Heat", "genre_ids": [28, 80, 18, 53], "backdrop_path": "/7RRuRcGuWkZGuRyYugfXn0Fgrrr.jpg", "adult": false, "overview": "Obsessive master thief, Neil McCauley leads a top-notch crew on various daring heists throughout Los Angeles while determined detective, Vincent Hanna pursues him without rest. Each man recognizes and respects the ability and the dedication of the other even though they are aware their cat-and-mouse game may end in violence.", "poster_path": "/6pmLVffM9jEYK7VqDJqPblMxfEY.jpg", "popularity": 21.48}, {"adult": false, "backdrop_path": "/khzRw7ZDE3NIrYpe0RYyB864FPT.jpg", "genre_ids": [80, 28, 53], "id": 189, "original_language": "en", "original_title": "Sin City: A Dame to Kill For", "overview": "Some of Sin City's most hard-boiled citizens cross paths with a few of its more reviled inhabitants.", "poster_path": "/k80qKrJ0qQ6ocVo5N932stNSg6j.jpg", "release_date": "2014-08-20", "title": "Sin City: A Dame to Kill For", "video": false, "vote_average": 6.3, "vote_count": 2422, "popularity": 26.881}, {"adult": false, "backdrop_path": "/4UIjazRJV5Q2D7gYg9NS1BGiFdU.jpg", "genre_ids": [80, 18, 53, 9648], "id": 1073, "original_language": "en", "original_title": "Arlington Road", "overview": "Threats from sinister foreign nationals aren't the only thing to fear. Bedraggled college professor Michael Faraday has been vexed (and increasingly paranoid) since his wife's accidental death in a botched FBI operation. But all that takes a backseat when a seemingly all-American couple set up house next door.", "poster_path": "/jMwDRI4qu5FrSAzf7BfNveuRVf9.jpg", "release_date": "1999-03-19", "title": "Arlington Road", "video": false, "vote_average": 7.1, "vote_count": 521, "popularity": 9.656}, {"adult": false, "backdrop_path": "/3TCPWrxQkfon82xPNtmpweOSVJc.jpg", "genre_ids": [18, 80, 9648, 10749, 53], "id": 12150, "original_language": "en", "original_title": "Sea of Love", "overview": "Seen-it-all New York detective Frank Keller is unsettled - he has done twenty years on the force and could retire, and he hasn't come to terms with his wife leaving him for a colleague. Joining up with an officer from another part of town to investigate a series of murders linked by the lonely hearts columns he finds he is getting seriously and possibly dangerously involved with Helen, one of the main suspects.", "poster_path": "/7DkkTHIX3hUqvsRv5sDmJAkCfKK.jpg", "release_date": "1989-09-15", "title": "Sea of Love", "video": false, "vote_average": 6.7, "vote_count": 289, "popularity": 11.238}, {"id": 1847, "video": false, "vote_count": 259, "vote_average": 7.4, "title": "The Long Goodbye", "release_date": "1973-03-07", "original_language": "en", "original_title": "The Long Goodbye", "genre_ids": [80, 18, 9648, 53], "backdrop_path": "/brm75bRffmi2SlsUmsHUxUVI1Hg.jpg", "adult": false, "overview": "Detective Philip Marlowe tries to help a friend who is accused of murdering his wife.", "poster_path": "/oBhUK54yBJ0aH6u9zCzSV5iV7OP.jpg", "popularity": 10.68}, {"adult": false, "backdrop_path": "/feZlULeOhSRLz23ZXUeDX3Dl2dS.jpg", "genre_ids": [80, 53, 9648], "id": 17494, "original_language": "en", "original_title": "Unlawful Entry", "overview": "After a break-in at their house, a couple gets help from one of the cops that answered their call. He helps them install the security system, and begins dropping by on short notice and unofficial patrol, and spends a lot of time discussing the couple's problems with the wife. The husband begins wondering if they're getting too much help.", "poster_path": "/sKUk1ca6gHaIopi8VqE8GoxJq6J.jpg", "release_date": "1992-06-26", "title": "Unlawful Entry", "video": false, "vote_average": 6.1, "vote_count": 121, "popularity": 9.938}, {"id": 521, "video": false, "vote_count": 1257, "vote_average": 8.0, "title": "Dial M for Murder", "release_date": "1954-05-29", "original_language": "en", "original_title": "Dial M for Murder", "genre_ids": [80, 18, 9648, 53], "backdrop_path": "/jVMlfESb0TJ29w8CUDDofEprMmn.jpg", "adult": false, "overview": "An ex-tennis pro carries out a plot to have his wife murdered after discovering she is having an affair, and assumes she will soon leave him for the other man anyway. When things go wrong, he improvises a new plan\u2014to frame her for murder instead.", "poster_path": "/xrpK1PyckNWmRxU4kZURfaCyboS.jpg", "popularity": 34.566}, {"adult": false, "backdrop_path": "/lx9eC0e98ZrdU0y55LrydS8CMMp.jpg", "genre_ids": [28, 12, 80, 18, 9648, 53], "id": 9631, "original_language": "en", "original_title": "The Negotiator", "overview": "The police try to arrest expert hostage negotiator Danny Roman, who insists he's being framed for his partner's murder in what he believes is an elaborate conspiracy. Thinking there's evidence in the Internal Affairs offices that might clear him, he takes everyone in the office hostage and demands that another well-known negotiator be brought in to handle the situation and secretly investigate the conspiracy.", "poster_path": "/u4LQDr6QB5i7dz3sMuP8u3EOd3D.jpg", "release_date": "1998-07-29", "title": "The Negotiator", "video": false, "vote_average": 7.0, "vote_count": 1081, "popularity": 16.926}, {"id": 1580, "video": false, "vote_count": 1265, "vote_average": 8.0, "title": "Rope", "release_date": "1948-08-26", "original_language": "en", "original_title": "Rope", "genre_ids": [80, 53], "backdrop_path": "/2RWBzG3DYGYmgbsazg3Fls0X02l.jpg", "adult": false, "overview": "Two men attempt to prove they committed the perfect crime by hosting a dinner party after strangling their former classmate to death.", "poster_path": "/tJlmMbaleBT8IwuidgI0ZvlLbWA.jpg", "popularity": 16.298}, {"id": 101, "video": false, "vote_count": 8645, "vote_average": 8.3, "title": "L\u00e9on: The Professional", "release_date": "1994-09-14", "original_language": "en", "original_title": "L\u00e9on: The Professional", "genre_ids": [28, 80, 18], "backdrop_path": "/dXQ7HILRK1Tg33RT64JwbQI7Osh.jpg", "adult": false, "overview": "L\u00e9on, the top hit man in New York, has earned a rep as an effective \"cleaner\". But when his next-door neighbors are wiped out by a loose-cannon DEA agent, he becomes the unwilling custodian of 12-year-old Mathilda. Before long, Mathilda's thoughts turn to revenge, and she considers following in L\u00e9on's footsteps.", "poster_path": "/gE8S02QUOhVnAmYu4tcrBlMTujz.jpg", "popularity": 42.005}, {"id": 1018, "video": false, "vote_count": 3309, "vote_average": 7.8, "title": "Mulholland Drive", "release_date": "2001-09-08", "original_language": "en", "original_title": "Mulholland Drive", "genre_ids": [18, 9648, 53], "backdrop_path": "/91KNvuQXrWq5vehtQpciCOiOyJe.jpg", "adult": false, "overview": "Blonde Betty Elms has only just arrived in Hollywood to become a movie star when she meets an enigmatic brunette with amnesia. Meanwhile, as the two set off to solve the second woman's identity, filmmaker Adam Kesher runs into ominous trouble while casting his latest project.", "poster_path": "/tVxGt7uffLVhIIcwuldXOMpFBPX.jpg", "popularity": 25.956}, {"id": 1645, "video": false, "vote_count": 1049, "vote_average": 7.2, "title": "A Time to Kill", "release_date": "1996-07-24", "original_language": "en", "original_title": "A Time to Kill", "genre_ids": [80, 18, 53], "backdrop_path": "/b1cfBhhorGYNPbMVT6C9cHwxRr8.jpg", "adult": false, "overview": "A young lawyer defends a black man accused of murdering two men who raped his 10-year-old daughter, sparking a rebirth of the KKK.", "poster_path": "/1q2kU8NMGO446b0QAvVdY2v778x.jpg", "popularity": 17.855}, {"adult": false, "backdrop_path": "/2zh06EWekQWzlxa4jpFKRuXEtgf.jpg", "genre_ids": [80, 18, 28, 53], "id": 9411, "original_language": "en", "original_title": "Fallen", "overview": "Homicide detective John Hobbes witnesses the execution of serial killer Edgar Reese. Soon after the execution the killings start again, and they are very similar to Reese's style.", "poster_path": "/v66GrbKcl1babq8BebUff0MI3m4.jpg", "release_date": "1998-01-16", "title": "Fallen", "video": false, "vote_average": 6.8, "vote_count": 674, "popularity": 18.647}, {"adult": false, "backdrop_path": "/sDSwD63e0qfNE1YvH8aczFoSGTt.jpg", "genre_ids": [80, 18, 53], "id": 11826, "original_language": "en", "original_title": "Sexy Beast", "overview": "The idyllic life of retired safecracker Gal is put at risk when a psychotic gangster from his past arrives at his villa in southern Spain, intent on bringing him out of retirement for one last job.", "poster_path": "/rpo9njGpJVLPqRrdM6R7wIqiQ7K.jpg", "release_date": "2001-01-12", "title": "Sexy Beast", "video": false, "vote_average": 7.0, "vote_count": 391, "popularity": 10.199}, {"adult": false, "backdrop_path": "/tR1RXbnkSvZq0sgx0Gyh3GmgYoB.jpg", "genre_ids": [80, 18, 53], "id": 21734, "original_language": "en", "original_title": "Shadow of a Doubt", "overview": "A bored teen living in Santa Rosa, California, Charlotte \"Charlie\" Newton, is frustrated because nothing seems to be happening in her life and that of her family. Then, she receives wonderful news: her uncle (for whom she was named), Charlie Oakley, is arriving for a visit. But Uncle Charlie may not be the man he seems to be.", "poster_path": "/ptyWagbWE8jSGyV2tGEzAdVbRCj.jpg", "release_date": "1943-01-15", "title": "Shadow of a Doubt", "video": false, "vote_average": 7.7, "vote_count": 446, "popularity": 14.275}, {"adult": false, "backdrop_path": "/jRNqzZZwYIpiukkblMQ4G2Vc5p7.jpg", "genre_ids": [9648, 80, 53], "id": 963, "original_language": "en", "original_title": "The Maltese Falcon", "overview": "A private detective takes on a case that involves him with three eccentric criminals, a beautiful liar, and their quest for a priceless statuette.", "poster_path": "/jQilmbgbKtpbHM9hw9hgmqomJ9.jpg", "release_date": "1941-10-18", "title": "The Maltese Falcon", "video": false, "vote_average": 7.8, "vote_count": 838, "popularity": 14.575}, {"id": 793, "video": false, "vote_count": 1663, "vote_average": 7.7, "title": "Blue Velvet", "release_date": "1986-08-01", "original_language": "en", "original_title": "Blue Velvet", "genre_ids": [80, 27, 9648, 53], "backdrop_path": "/5ESiCDqO1aMlELkk0vzqXIwOvGz.jpg", "adult": false, "overview": "The discovery of a severed human ear found in a field leads a young man on an investigation related to a beautiful, mysterious nightclub singer and a group of criminals who have kidnapped her child.", "poster_path": "/xWy2JaA0bUqld48K0Kum9WF3tKy.jpg", "popularity": 14.205}, {"id": 303, "video": false, "vote_count": 758, "vote_average": 7.9, "title": "Notorious", "release_date": "1946-08-15", "original_language": "en", "original_title": "Notorious", "genre_ids": [18, 53, 10749], "backdrop_path": "/b8WFk5jSQNju3SGptSOREo51qmE.jpg", "adult": false, "overview": "In order to help bring Nazis to justice, U.S. government agent T.R. Devlin recruits Alicia Huberman, the American daughter of a convicted German war criminal, as a spy. As they begin to fall for one another, Alicia is instructed to win the affections of Alexander Sebastian, a Nazi hiding out in Brazil. When Sebastian becomes serious about his relationship with Alicia, the stakes get higher, and Devlin must watch her slip further undercover.", "poster_path": "/vcdSvOr5NcY6alt0kBqDQlFC3Nk.jpg", "popularity": 14.011}, {"id": 313922, "video": false, "vote_count": 1485, "vote_average": 6.8, "title": "Green Room", "release_date": "2016-04-15", "original_language": "en", "original_title": "Green Room", "genre_ids": [80, 27, 53], "backdrop_path": "/w5TW2cLJknpWRYjmyuwfsQ1jFDA.jpg", "adult": false, "overview": "A punk rock band becomes trapped in a secluded venue after finding a scene of violence. For what they saw, the band themselves become targets of violence from a gang of white power skinheads, who want to eliminate all evidence of the crime.", "poster_path": "/sTlPvjdQrrv5cLH410aMlSxqi0x.jpg", "popularity": 14.19}, {"id": 11027, "video": false, "vote_count": 241, "vote_average": 6.5, "title": "The Postman Always Rings Twice", "release_date": "1981-03-20", "original_language": "en", "original_title": "The Postman Always Rings Twice", "genre_ids": [80, 18, 10749], "backdrop_path": "/pcTf3ELE8MJPRC81ki4w4tKPlDc.jpg", "adult": false, "overview": "This remake of the 1946 movie of the same name accounts an affair between a seedy drifter and a seductive wife of a roadside cafe owner. This begins a chain of events that culminates in murder.", "poster_path": "/p0g8mKDx52ObdNQLhembcMavqeI.jpg", "popularity": 15.827}], "total_pages": 291, "total_results": 5805}, "recommendations": {"page": 1, "results": [{"adult": false, "backdrop_path": "/Q7GVVmrxGiQ2OQs6MCLrHYqY3o.jpg", "genre_ids": [18], "id": 60608, "original_language": "en", "original_title": "Comment j'ai tu\u00e9 mon p\u00e8re", "overview": "When his long-time disappeared father is entering his life again, Jean-Luc, a successful doctor, has no option but to face his own life story. Will he ever be able to forget and forgive?", "poster_path": "/zl1kDfxTfySlLFL1ZE3y6zwbppj.jpg", "release_date": "2001-09-19", "title": "How I Killed My Father", "video": false, "vote_average": 6.5, "vote_count": 4, "popularity": 2.464}, {"adult": false, "backdrop_path": "/lJQEXKUU4pvz8DG8lXpHVYTIMF7.jpg", "genre_ids": [18, 53], "id": 50028, "original_language": "en", "original_title": "Saving Grace B. Jones", "overview": "In a 1950s-era Missouri town the life of a couple is thrown into chaos when the husband's sister is released from the local asylum and comes to live with the family.", "poster_path": "/z1PUGC3QrsJx0cGtCC5VM0pIerJ.jpg", "release_date": "2009-03-28", "title": "Saving Grace B. Jones", "video": false, "vote_average": 5.0, "vote_count": 4, "popularity": 2.734}, {"id": 220933, "video": false, "vote_count": 9, "vote_average": 6.6, "title": "No God, No Master", "release_date": "2014-04-11", "original_language": "en", "original_title": "No God, No Master", "genre_ids": [80, 18, 36, 53], "backdrop_path": "/yvtZ7TSDmKaN3gci0hYZFWnPm3u.jpg", "adult": false, "overview": "A plot to overthrow the United States government is uncovered in New York City in the summer of 1919 when William Flynn, a field agent for the Bureau of Investigation, is sent to investigate a bomb threat that has targeted some of America's most powerful politicians and leaders of commerce, New York millionaire John D. Rockefeller, Sr. among them. Flynn's investigation takes him on a journey into the underworld of homegrown terrorism and introduces him to a competitive culture of violence and murder. Greed, power, and politics are at the center of the story and Flynn must distinguish the villains from the merely discontented. Along the way, he discovers that terrorism has many faces and that a determination of guilt or innocence often lies in the psychology of fear that constricts individuals at every level of society.  Sedona International Film Festival.", "poster_path": "/3ZDuB2XxrKEPh2KVxHGQatArO1g.jpg", "popularity": 2.661}, {"adult": false, "backdrop_path": "/bZliEcd0l5OzHbiVMMMHecQDe2b.jpg", "genre_ids": [18], "id": 176720, "original_language": "en", "original_title": "Something Real and Good", "overview": "A young man and woman meet by chance in an airport while waiting for a delayed flight. When the plane is rerouted, they decide to make the best of it, and over the course of one night, realize that sometimes it takes a detour to make a connection. Written by Rebecca Green", "poster_path": "/kRlyL5cKMXDHTnbWaU2MPLvcAHy.jpg", "release_date": "2013-03-05", "title": "Something Real and Good", "video": false, "vote_average": 5.7, "vote_count": 9, "popularity": 2.218}, {"adult": false, "backdrop_path": "/ooBtJH08K8aAiuccC6cHfJCOgIs.jpg", "genre_ids": [18, 80, 9648, 53], "id": 115565, "original_language": "en", "original_title": "Equinox", "overview": "Henry Petosa and Freddy Ace are twins who were separated being babies, and they do not know each other. Henry was adopted by a honest man, while Freddy becomes a gangster. Henry is very shy and has a lot of mental troubles. The film melts the two stories by a young writer who discovers that they were sons of an european noble and they own a large inheritance.", "poster_path": "/tqO00qQBtG3pNuxTTWUTEqPp1jA.jpg", "release_date": "1992-09-18", "title": "Equinox", "video": false, "vote_average": 5.5, "vote_count": 6, "popularity": 4.702}], "total_pages": 1, "total_results": 5}, "credits": {"cast": [{"cast_id": 3, "character": "Agust\u00edn Rejas", "credit_id": "52fe43f4c3a368484e007b99", "gender": 2, "id": 3810, "name": "Javier Bardem", "order": 0, "profile_path": "/p5xjCovj1uzvA2SXrWLH78Nh1Jf.jpg"}, {"cast_id": 4, "character": "Sucre", "credit_id": "52fe43f4c3a368484e007b9d", "gender": 2, "id": 36632, "name": "Juan Diego Botto", "order": 1, "profile_path": "/kSjrSosAt5qwu9LNCAUkMuFALwH.jpg"}, {"cast_id": 5, "character": "Yolanda", "credit_id": "52fe43f4c3a368484e007ba1", "gender": 1, "id": 56654, "name": "Laura Morante", "order": 2, "profile_path": "/AgidnVEP8Xpfph6B1RPes1bBjwx.jpg"}, {"cast_id": 6, "character": "Llosa", "credit_id": "56c9b17ac3a368408900740b", "gender": 1, "id": 24918, "name": "Elvira M\u00ednguez", "order": 3, "profile_path": "/cgzCJ5ewByXizdXDCjQ0MGS2laQ.jpg"}, {"cast_id": 7, "character": "Sylvina Rejas", "credit_id": "56c9b1939251411ea8007158", "gender": 1, "id": 109712, "name": "Alexandra Lencastre", "order": 4, "profile_path": "/c5vP9l2wfEE1vYGn2Cic2wtkdAL.jpg"}, {"cast_id": 8, "character": "Merino", "credit_id": "56c9b1ab925141174200749e", "gender": 2, "id": 24627, "name": "Oliver Cotton", "order": 5, "profile_path": "/d193v7k42LUOfWud2R4W0KrenGy.jpg"}, {"cast_id": 9, "character": "Calder\u00f3n", "credit_id": "56c9b1c292514130a900029c", "gender": 0, "id": 234486, "name": "Lu\u00eds Miguel Cintra", "order": 6, "profile_path": "/bVv9Hgy62EhGWsuFAf4kc7zQ417.jpg"}, {"cast_id": 10, "character": "Clorindo", "credit_id": "56c9b1d8c3a3684097007f58", "gender": 0, "id": 1061545, "name": "Javier Manrique", "order": 7, "profile_path": "/2wO7N4LPGfSHyKgXBO2lKKZhoRU.jpg"}, {"cast_id": 11, "character": "Ezequiel / Dur\u00e1n", "credit_id": "56c9b1f192514117420074a9", "gender": 2, "id": 133525, "name": "Abel Folk", "order": 8, "profile_path": "/o3C9XMDjsUwrX6pq5J7QfV5Tzbh.jpg"}, {"cast_id": 12, "character": "Pascual", "credit_id": "56c9b23bc3a3684087007607", "gender": 2, "id": 30357, "name": "Xabier Elorriaga", "order": 9, "profile_path": "/l1Y4idb3SMKjTFIyzh8YuPqf7do.jpg"}, {"cast_id": 13, "character": "Marina", "credit_id": "56c9b250c3a3684097007f69", "gender": 0, "id": 1195027, "name": "Natalia Dicenta", "order": 10, "profile_path": null}, {"cast_id": 27, "character": "Abimael Guzman (uncredited)", "credit_id": "5c054ecd0e0a2629ce0c4a41", "gender": 2, "id": 6949, "name": "John Malkovich", "order": 11, "profile_path": "/tCtiWZbKKRgHhLxFCIPfveYAsdc.jpg"}], "crew": [{"credit_id": "57765370c3a3685031001fed", "department": "Sound", "gender": 2, "id": 405, "job": "Original Music Composer", "name": "Alberto Iglesias", "profile_path": "/2PGZyiqdAAyi2S0ZpFw5V0ojCqY.jpg"}, {"credit_id": "577653e1c3a368381a002691", "department": "Costume & Make-Up", "gender": 0, "id": 3657, "job": "Costume Design", "name": "Bina Daigeler", "profile_path": null}, {"credit_id": "5776535e9251417eb0001e40", "department": "Camera", "gender": 2, "id": 4376, "job": "Director of Photography", "name": "Jos\u00e9 Luis Alcaine", "profile_path": null}, {"credit_id": "577653d0c3a3684f6c001e5a", "department": "Art", "gender": 0, "id": 2634, "job": "Production Design", "name": "Pierre-Fran\u00e7ois Limbosch", "profile_path": "/pHIjPLdHeSEFCIBvuI6wPViueQN.jpg"}, {"credit_id": "52fe43f4c3a368484e007b8f", "department": "Directing", "gender": 2, "id": 6949, "job": "Director", "name": "John Malkovich", "profile_path": "/tCtiWZbKKRgHhLxFCIPfveYAsdc.jpg"}, {"credit_id": "57765390c3a368381a00266a", "department": "Production", "gender": 2, "id": 6949, "job": "Producer", "name": "John Malkovich", "profile_path": "/tCtiWZbKKRgHhLxFCIPfveYAsdc.jpg"}, {"credit_id": "57765385c3a3684f6c001e3c", "department": "Production", "gender": 2, "id": 13159, "job": "Producer", "name": "Andr\u00e9s Vicente G\u00f3mez", "profile_path": "/4R1F2kZ9ZnzNQv5Vja9Btqa7A07.jpg"}, {"credit_id": "577653a0c3a368381a00266f", "department": "Production", "gender": 1, "id": 52445, "job": "Executive Producer", "name": "Lianne Halfon", "profile_path": null}, {"credit_id": "577653bd9251417e16001d1c", "department": "Production", "gender": 2, "id": 52897, "job": "Executive Producer", "name": "Russell Smith", "profile_path": null}, {"credit_id": "577652c39251417ee3001d86", "department": "Writing", "gender": 2, "id": 86431, "job": "Screenplay", "name": "Nicholas Shakespeare", "profile_path": null}, {"credit_id": "5776532d9251417d96001e95", "department": "Writing", "gender": 2, "id": 86431, "job": "Novel", "name": "Nicholas Shakespeare", "profile_path": null}, {"credit_id": "57765351c3a36834c3002381", "department": "Editing", "gender": 2, "id": 1084080, "job": "Editor", "name": "Mario Battistel", "profile_path": null}, {"credit_id": "577653eb9251417e58001e6a", "department": "Art", "gender": 0, "id": 1643811, "job": "Set Decoration", "name": "Laura Musso", "profile_path": null}, {"credit_id": "57765425c3a368381a0026a7", "department": "Sound", "gender": 0, "id": 1643812, "job": "Production Sound Mixer", "name": "Antonio Bloch", "profile_path": null}]}}