{"adult": false, "backdrop_path": null, "belongs_to_collection": null, "budget": 0, "genres": [{"id": 18, "name": "Drama"}, {"id": 28, "name": "Action"}], "homepage": null, "id": 207837, "imdb_id": "tt0104080", "original_language": "en", "original_title": "Delta Heat", "overview": "An L.A. cop investigates the death of his partner in the swamps of Louisiana. Enlisting the help of an ex-cop who lost his hand to an alligator many years before.", "popularity": 1.61, "poster_path": "/ystwXu78buupdruiV8y6M7Dzed4.jpg", "production_companies": [{"id": 35362, "logo_path": null, "name": "Sawmill Entertainment Corporation", "origin_country": ""}, {"id": 9212, "logo_path": null, "name": "Harkham Productions", "origin_country": ""}], "production_countries": [{"iso_3166_1": "US", "name": "United States of America"}], "release_date": "1992-12-30", "revenue": 0, "runtime": 91, "spoken_languages": [{"iso_639_1": "en", "name": "English"}], "status": "Released", "tagline": "", "title": "Delta Heat", "video": false, "vote_average": 5.0, "vote_count": 2, "keywords": {"keywords": [{"id": 2411, "name": "new orleans, usa"}, {"id": 6149, "name": "police"}]}, "similar": {"page": 1, "results": [{"id": 4771, "video": false, "vote_count": 2134, "vote_average": 7.3, "title": "Gone Baby Gone", "release_date": "2007-09-18", "original_language": "en", "original_title": "Gone Baby Gone", "genre_ids": [80, 18, 9648], "backdrop_path": "/sogh5NXPbKFajjYKBlfIBfCWgbq.jpg", "adult": false, "overview": "When 4 year old Amanda McCready disappears from her home and the police make little headway in solving the case, the girl's aunt, Beatrice McCready hires two private detectives, Patrick Kenzie and Angie Gennaro. The detectives freely admit that they have little experience with this type of case, but the family wants them for two reasons - they're not cops and they know the tough neighborhood in which they all live. As the case progresses, Kenzie and Gennaro face drug dealers, gangs and pedophiles. When they are about to solve the case, they are faced with a moral dilemma that tears them apart.", "poster_path": "/dXXMPxGiRegd7NNCtE5uchAKRAG.jpg", "popularity": 16.498}, {"adult": false, "backdrop_path": "/iNuvbrHGNtrUwlm48u4KnQhhMKp.jpg", "genre_ids": [80, 18, 53], "id": 26390, "original_language": "en", "original_title": "Brooklyn's Finest", "overview": "Enforcing the law within the notoriously rough Brownsville section of the city and especially within the Van Dyke housing projects is the NYPD's sixty-fifth precinct. Three police officers struggle with the sometimes fine line between right and wrong.", "poster_path": "/jKSBk0LtZgXxG56uvwiAtYf6ttF.jpg", "release_date": "2009-01-16", "title": "Brooklyn's Finest", "video": false, "vote_average": 6.4, "vote_count": 500, "popularity": 11.822}, {"id": 11028, "video": false, "vote_count": 92, "vote_average": 6.3, "title": "The Big Easy", "release_date": "1986-11-27", "original_language": "en", "original_title": "The Big Easy", "genre_ids": [28, 80, 18, 9648], "backdrop_path": "/8faVhusJPZqr5jvKc2K3M9sQgL3.jpg", "adult": false, "overview": "Remy McSwain is a New Orleans police lieutenant who investigates the murder of a local mobster. His investigation leads him to suspect that fellow members of the police force may be involved.", "poster_path": "/nD8sNuwcvd396E07uXAM2swi0Jo.jpg", "popularity": 7.081}, {"adult": false, "backdrop_path": "/uUYCUbgI5VxsUflTMI4Y9L2Y6vb.jpg", "genre_ids": [80, 18, 53], "id": 11423, "original_language": "ko", "original_title": "\uc0b4\uc778\uc758 \ucd94\uc5b5", "overview": "1986 Gyunggi Province. The body of a young woman is found brutally raped and murdered. Two months later, a series of rapes and murders commences under similar circumstances. And in a country that had never known such crimes, the dark whispers about a serial murderer grow louder. A special task force is set up in the area, with two local detectives Park Doo-Man and Jo Young-Goo joined by a detective from Seoul who requested to be assigned to the case.", "poster_path": "/gawnVe9cFowdoDLo9Pok12NTw39.jpg", "release_date": "2003-05-02", "title": "Memories of Murder", "video": false, "vote_average": 8.1, "vote_count": 1093, "popularity": 13.452}, {"adult": false, "backdrop_path": "/ltq1i8ienPm7OSdOXl3o8ROgmKc.jpg", "genre_ids": [28, 80, 18], "id": 2142, "original_language": "en", "original_title": "Cop Land", "overview": "Freddy Heflin is the sheriff of a place everyone calls \u201cCop Land\u201d \u2014 a small and seemingly peaceful town populated by the big city police officers he\u2019s long admired. Yet something ugly is taking place behind the town\u2019s peaceful facade. And when Freddy uncovers a massive, deadly conspiracy among these local residents, he is forced to take action and make a dangerous choice between protecting his idols and upholding the law.", "poster_path": "/th2UDVewgUAfIXFUaWGWWBxCM91.jpg", "release_date": "1997-08-15", "title": "Cop Land", "video": false, "vote_average": 6.7, "vote_count": 757, "popularity": 14.45}, {"id": 11699, "video": false, "vote_count": 592, "vote_average": 6.1, "title": "The Bad Lieutenant: Port of Call - New Orleans", "release_date": "2009-09-11", "original_language": "en", "original_title": "The Bad Lieutenant: Port of Call - New Orleans", "genre_ids": [80, 18], "backdrop_path": "/gRiIVeHX0Qbe4R41RpMahLWsP3V.jpg", "adult": false, "overview": "Terrence McDonagh, a New Orleans Police sergeant, who starts out as a good cop, receiving a medal and a promotion to lieutenant for heroism during Hurricane Katrina. During his heroic act, McDonagh injures his back and later becomes addicted to prescription pain medication. McDonagh finds himself involved with a drug dealer who is suspected of murdering a family of African immigrants.", "poster_path": "/zRULXsd0rb1lVfnSyQkYPi2nLcB.jpg", "popularity": 13.566}, {"adult": false, "backdrop_path": "/dFyEwLUOeFolYsySpXIfGkhteiM.jpg", "genre_ids": [18, 35, 10752, 80, 53], "id": 9104, "original_language": "en", "original_title": "Buffalo Soldiers", "overview": "Set just before the fall of the Berlin Wall in 1989, Sgt. Ray Elwood is an American soldier stationed at a German army camp. A soldier because a judge gave him a choice between the army and jail, Ray spends much of his free time cooking cocaine for the MPs. When a soldier dies and a toxicology screen shows an alarming level of illegal narcotics, someone is sent in to investigate.", "poster_path": "/53vlXW4mVcSc9faIU5GonNuZtRZ.jpg", "release_date": "2001-09-08", "title": "Buffalo Soldiers", "video": false, "vote_average": 6.4, "vote_count": 150, "popularity": 10.117}, {"adult": false, "backdrop_path": "/t3OZS8yMs0NL4YgWWc04eXHTn1X.jpg", "genre_ids": [28, 80, 53], "id": 984, "original_language": "en", "original_title": "Dirty Harry", "overview": "When a madman dubbed 'Scorpio' terrorizes San Francisco, hard-nosed cop, Harry Callahan \u2013 famous for his take-no-prisoners approach to law enforcement \u2013 is tasked with hunting down the psychopath. Harry eventually collars Scorpio in the process of rescuing a kidnap victim, only to see him walk on technicalities. Now, the maverick detective is determined to nail the maniac himself.", "poster_path": "/2TADKc4GMMPdMrLXj0xJVgTvZJM.jpg", "release_date": "1971-12-21", "title": "Dirty Harry", "video": false, "vote_average": 7.5, "vote_count": 1173, "popularity": 18.839}, {"id": 75780, "video": false, "vote_count": 4451, "vote_average": 6.4, "title": "Jack Reacher", "release_date": "2012-12-20", "original_language": "en", "original_title": "Jack Reacher", "genre_ids": [28, 80, 18, 53], "backdrop_path": "/ezXodpP429qK0Av89pVNlaXWJkQ.jpg", "adult": false, "overview": "When a gunman takes five lives with six shots, all evidence points to the suspect in custody. On interrogation, the suspect offers up a single note: \"Get Jack Reacher!\" So begins an extraordinary chase for the truth, pitting Jack Reacher against an unexpected enemy, with a skill for violence and a secret to keep.", "poster_path": "/mt0ELw83HIRgaKaDzhsDcIi0RnW.jpg", "popularity": 15.945}, {"adult": false, "backdrop_path": "/pyopmpNMW3mTBz0ZqInyGYDEgb6.jpg", "genre_ids": [18, 53], "id": 11062, "original_language": "en", "original_title": "City Hall", "overview": "The accidental shooting of a boy in New York leads to an investigation by the Deputy Mayor, and unexpectedly far-reaching consequences.", "poster_path": "/ttdjD9NpxXsTJidPT3o1Gk0oTkG.jpg", "release_date": "1996-02-16", "title": "City Hall", "video": false, "vote_average": 6.1, "vote_count": 123, "popularity": 8.487}, {"adult": false, "backdrop_path": "/v761yOHKO3p6Yr7LDCjud6tUL5G.jpg", "genre_ids": [28, 80, 53], "id": 10651, "original_language": "en", "original_title": "The Dead Pool", "overview": "Dirty Harry Callahan returns for his final film adventure. Together with his partner Al Quan, he must investigate the systematic murder of actors and musicians. By the time Harry learns that the murders are a part of a sick game to predict the deaths of celebrities before they happen, it may be too late...", "poster_path": "/9ZUSqox9lIxN4xaYBac2QXMFcZj.jpg", "release_date": "1988-07-12", "title": "The Dead Pool", "video": false, "vote_average": 6.4, "vote_count": 389, "popularity": 10.626}, {"adult": false, "backdrop_path": "/ho7jLHVAwI4W3qWHcsLmFyRWsKl.jpg", "genre_ids": [80, 18, 53], "id": 58625, "original_language": "en", "original_title": "Street Kings 2: Motor City", "overview": "Ray Liotta (Goodfellas) delivers an intense, electrifying performance in this explosive follow-up to the gritty urban crime thriller Street Kings. Liotta plays Detroit detective Marty Kingston, the leader of an undercover narcotics team, whose members are being systematically murdered one by one. To solve the brutal killings, Kingston joins forces with a cocky, young homicide detective. But neither of them is prepared for the shocking corruption their investigation will uncover \u2014 stunning secrets that will set both men on a violent collision course with betrayal and vengeance.", "poster_path": "/svVKzBrVQSvu8Wgut5xrUocwlKm.jpg", "release_date": "2011-07-15", "title": "Street Kings 2: Motor City", "video": false, "vote_average": 4.6, "vote_count": 39, "popularity": 5.749}, {"adult": false, "backdrop_path": "/xBhRhY8KimSrPx6AMJXigpzlGQ2.jpg", "genre_ids": [28, 35, 80], "id": 96, "original_language": "en", "original_title": "Beverly Hills Cop II", "overview": "Axel heads for the land of sunshine and palm trees to find out who shot police Captain Andrew Bogomil. Thanks to a couple of old friends, Axel's investigation uncovers a series of robberies masterminded by a heartless weapons kingpin\u2014and the chase is on.", "poster_path": "/2y1z1baxKT0coTTRlnkI6McnR9f.jpg", "release_date": "1987-05-18", "title": "Beverly Hills Cop II", "video": false, "vote_average": 6.4, "vote_count": 1235, "popularity": 13.336}, {"id": 1266, "video": false, "vote_count": 729, "vote_average": 6.5, "title": "Street Kings", "release_date": "2008-04-10", "original_language": "en", "original_title": "Street Kings", "genre_ids": [28, 80, 18, 53], "backdrop_path": "/vQL3dus5e8XtpAiJKFcI8YiITlV.jpg", "adult": false, "overview": "Tom Ludlow is a disillusioned L.A. Police Officer, rarely playing by the rules and haunted by the death of his wife. When evidence implicates him in the execution of a fellow officer, he is forced to go up against the cop culture he's been a part of his entire career, ultimately leading him to question the loyalties of everyone around him.", "poster_path": "/2h2mThLae2QZLprtovKXRBgMM1E.jpg", "popularity": 15.229}, {"id": 15069, "video": false, "vote_count": 75, "vote_average": 5.4, "title": "W\u0394Z", "release_date": "2007-05-19", "original_language": "en", "original_title": "W\u0394Z", "genre_ids": [80, 18, 27, 53], "backdrop_path": "/nVwdXjnbfulc6cymFgOQJctpspr.jpg", "adult": false, "overview": "There is something horribly wrong with the bodies found in the dark city streets. Some are mutilated while others have the Price equation (w\u0394z = Cov (w,z) = \u03b2wzVz) carved into their flesh. Detective Eddie Argo and his new partner Helen Westcott unearth the meaning of the odd equation and realise each victim is being offered a gruesome choice: kill your loved ones, or be killed. Before long it becomes clear that the perpetrator has suffered a similar fate and is now coping by seeking a way to solve this philosophical dilemma.", "poster_path": "/8lPZ59iQRqUELprKuB0myy7u6Zm.jpg", "popularity": 7.935}, {"adult": false, "backdrop_path": "/scRw6gAoO3CfgQnZjHCh2ZgU4Z1.jpg", "genre_ids": [80, 18, 878, 53], "id": 281, "original_language": "en", "original_title": "Strange Days", "overview": "Set in the year 1999 during the last days of the old millennium, the movie tells the story of Lenny Nero, an ex-cop who now deals with data-discs containing recorded memories and emotions. One day he receives a disc which contains the memories of a murderer killing a prostitute. Lenny investigates and is pulled deeper and deeper in a whirl of blackmail, murder and rape. Will he survive and solve the case?", "poster_path": "/rXvy5hG9OeVmgnv9w4IhQxhqEKD.jpg", "release_date": "1995-10-13", "title": "Strange Days", "video": false, "vote_average": 7.0, "vote_count": 663, "popularity": 17.431}, {"id": 9873, "video": false, "vote_count": 166, "vote_average": 6.4, "title": "F/X", "release_date": "1986-02-07", "original_language": "en", "original_title": "F/X", "genre_ids": [28, 80, 53], "backdrop_path": "/t0u76RL3YlcfnWdRWgRudROqEkg.jpg", "adult": false, "overview": "A movies special effects man is hired by a government agency to help stage the assassination of a well known gangster. When the agency double cross him, he uses his special effects to trap the gangster and the corrupt agents.", "poster_path": "/6VAiIPBnIRPWXi70sxsHDn9rXA8.jpg", "popularity": 8.513}, {"adult": false, "backdrop_path": "/jYnjr6jNSo2CU9cmNbZZGvnrzjv.jpg", "genre_ids": [18, 80, 53], "id": 2001, "original_language": "en", "original_title": "We Own the Night", "overview": "A New York nightclub manager tries to save his brother and father from Russian mafia hitmen.", "poster_path": "/iUQdkZstEViwMgRjqrCu6uCfVjc.jpg", "release_date": "2007-05-25", "title": "We Own the Night", "video": false, "vote_average": 6.7, "vote_count": 685, "popularity": 13.466}, {"adult": false, "backdrop_path": "/hEoThfZZpQAyU9HlpEaSO4Ofnbz.jpg", "genre_ids": [28, 35, 27], "id": 429733, "original_language": "en", "original_title": "Mayhem", "overview": "A virus spreads through an office complex causing white collar workers to act out their worst impulses.", "poster_path": "/fF5ULrCAQ8TULXyFGlPlQ2s3Jie.jpg", "release_date": "2017-03-13", "title": "Mayhem", "video": false, "vote_average": 6.3, "vote_count": 272, "popularity": 8.922}, {"id": 400535, "video": false, "vote_count": 1616, "vote_average": 6.7, "title": "Sicario: Day of the Soldado", "release_date": "2018-06-27", "original_language": "en", "original_title": "Sicario: Day of the Soldado", "genre_ids": [28, 80, 18, 53], "backdrop_path": "/13VjjUeJ6mcDUB36XRu4YFpYNSm.jpg", "adult": false, "overview": "Agent Matt Graver teams up with operative Alejandro Gillick to prevent Mexican drug cartels from smuggling terrorists across the United States border.", "poster_path": "/msqWSQkU403cQKjQHnWLnugv7EY.jpg", "popularity": 24.365}], "total_pages": 345, "total_results": 6881}, "recommendations": {"page": 1, "results": [], "total_pages": 1, "total_results": 0}, "credits": {"cast": [{"cast_id": 3, "character": "Mike Bishop", "credit_id": "52fe4d3ec3a368484e1dea7b", "gender": 2, "id": 11085, "name": "Anthony Edwards", "order": 0, "profile_path": "/sCdevgZnwQb3AkDFM0ajGJGmY4p.jpg"}, {"cast_id": 4, "character": "Jackson Rivers", "credit_id": "52fe4d3ec3a368484e1dea7f", "gender": 2, "id": 2714, "name": "Lance Henriksen", "order": 1, "profile_path": "/wf4Pr9RxsHGd0O9fLPiB3Al8IVC.jpg"}, {"cast_id": 5, "character": "Vicky Forbes", "credit_id": "52fe4d3ec3a368484e1dea83", "gender": 1, "id": 22434, "name": "Betsy Russell", "order": 2, "profile_path": "/4uELRGwPn9bJ9H1BF5bZKlu32go.jpg"}, {"cast_id": 6, "character": "Tine Tulane", "credit_id": "52fe4d3ec3a368484e1dea87", "gender": 1, "id": 67298, "name": "Linda Dona", "order": 3, "profile_path": "/61jGVFszBBC5TgLsPAEPS6Tzrrt.jpg"}, {"cast_id": 7, "character": "Crawford", "credit_id": "52fe4d3ec3a368484e1dea8b", "gender": 0, "id": 1190850, "name": "Rod Masterson", "order": 4, "profile_path": null}, {"cast_id": 8, "character": "Bill", "credit_id": "52fe4d3ec3a368484e1dea8f", "gender": 0, "id": 1190851, "name": "John P. Fertitta", "order": 5, "profile_path": "/ym9cir7KWJcdq8otWzaPC8bg10l.jpg"}, {"cast_id": 9, "character": "Hotel Clerk", "credit_id": "52fe4d3ec3a368484e1dea93", "gender": 2, "id": 9170, "name": "Stocker Fontelieu", "order": 6, "profile_path": null}, {"cast_id": 10, "character": "Melancon", "credit_id": "52fe4d3ec3a368484e1dea97", "gender": 0, "id": 1190852, "name": "Jack Harris", "order": 7, "profile_path": null}, {"cast_id": 11, "character": "Clayborne", "credit_id": "52fe4d3ec3a368484e1dea9b", "gender": 2, "id": 108188, "name": "Clyde Jones", "order": 8, "profile_path": "/sSJWqS8cBveSoMkSbDVMR3DSZ9C.jpg"}, {"cast_id": 12, "character": "LaSalle", "credit_id": "52fe4d3ec3a368484e1dea9f", "gender": 2, "id": 16459, "name": "John McConnell", "order": 9, "profile_path": "/gAHxNx9PhT2xVqct6ac61tKFabT.jpg"}], "crew": [{"credit_id": "52fe4d3ec3a368484e1dea71", "department": "Directing", "gender": 2, "id": 100645, "job": "Director", "name": "Michael Fischa", "profile_path": null}, {"credit_id": "52fe4d3ec3a368484e1dea77", "department": "Writing", "gender": 0, "id": 1190849, "job": "Writer", "name": "Sam A. Scribner", "profile_path": null}, {"credit_id": "52fe4d3ec3a368484e1deaa5", "department": "Sound", "gender": 2, "id": 68126, "job": "Original Music Composer", "name": "Christopher Tyng", "profile_path": null}, {"credit_id": "52fe4d3ec3a368484e1deaab", "department": "Camera", "gender": 0, "id": 961501, "job": "Director of Photography", "name": "Avraham Karpick", "profile_path": null}, {"credit_id": "52fe4d3ec3a368484e1deab7", "department": "Art", "gender": 0, "id": 30859, "job": "Production Design", "name": "Don Day", "profile_path": null}, {"credit_id": "52fe4d3ec3a368484e1deabd", "department": "Production", "gender": 0, "id": 1190853, "job": "Casting", "name": "Ted Warren", "profile_path": null}, {"credit_id": "52fe4d3ec3a368484e1deac3", "department": "Costume & Make-Up", "gender": 0, "id": 1190854, "job": "Costume Design", "name": "Donna Chance", "profile_path": null}, {"credit_id": "52fe4d3ec3a368484e1deac9", "department": "Costume & Make-Up", "gender": 0, "id": 1190855, "job": "Costume Design", "name": "Stacey Chance", "profile_path": null}, {"credit_id": "598330ba925141425701015b", "department": "Editing", "gender": 2, "id": 1168870, "job": "Editor", "name": "Robert Gordon", "profile_path": null}]}}