{"adult": false, "backdrop_path": "/bFrxkUeDBU6NYGEooSnxNj4SmmS.jpg", "belongs_to_collection": {"id": 33878, "name": "Destricted", "poster_path": "/6dxfr5Vg3epYbd7v13OFKiq8unz.jpg", "backdrop_path": "/aY2bItuAENr36kEKVY6BenXABdm.jpg"}, "budget": 0, "genres": [{"id": 99, "name": "Documentary"}, {"id": 18, "name": "Drama"}], "homepage": null, "id": 208478, "imdb_id": "tt0492962", "original_language": "en", "original_title": "Destricted", "overview": "A compilation of erotic films intended to illuminate the points where art meets sexuality.", "popularity": 5.966, "poster_path": "/kg3oCdYQ4UL8TC1F1qZ6Hb1efXF.jpg", "production_companies": [], "production_countries": [], "release_date": "2006-09-15", "revenue": 0, "runtime": 116, "spoken_languages": [{"iso_639_1": "en", "name": "English"}], "status": "Released", "tagline": "", "title": "Destricted", "video": false, "vote_average": 4.7, "vote_count": 31, "keywords": {"keywords": [{"id": 187056, "name": "woman director"}]}, "similar": {"page": 1, "results": [{"adult": false, "backdrop_path": "/cADbqsIoiDW7X3Myg9nz8eAuno5.jpg", "genre_ids": [18, 10749], "id": 10818, "original_language": "fr", "original_title": "Naissance des pieuvres", "overview": "Set during a sultry summer in a French suburb, Marie is desperate to join the local pool's synchronized swimming team, but is her interest solely for the sake of sport or for a chance to get close to Floriane, the bad girl of the team? Sciamma, and the two leads, capture the uncertainty of teenage sexuality with a sympathetic eye in this delicate drama of the angst of coming-of-age.", "poster_path": "/4jajELYrR4Xmv3CVoKnukRnALa2.jpg", "release_date": "2007-05-17", "title": "Water Lilies", "video": false, "vote_average": 6.1, "vote_count": 119, "popularity": 10.744}, {"adult": false, "backdrop_path": "/gZeJziVigmRqbkEZwKAtSqlLQ6s.jpg", "genre_ids": [18, 10749], "id": 370663, "original_language": "en", "original_title": "Below Her Mouth", "overview": "An unexpected affair quickly escalates into a heart-stopping reality for two women whose passionate connection changes their lives forever.", "poster_path": "/nTGbq37hYLuNy7YgMg0gVLma0NS.jpg", "release_date": "2016-09-10", "title": "Below Her Mouth", "video": false, "vote_average": 6.2, "vote_count": 456, "popularity": 22.676}, {"adult": false, "backdrop_path": "/dvQDRfv3qvfHNnVAR57ouVsuErf.jpg", "genre_ids": [10749, 18], "id": 28031, "original_language": "en", "original_title": "If These Walls Could Talk 2", "overview": "The stories of three lesbian couples -- who live in the same house at different periods of time -- who are at a crossroads in their lives. In 1961, Edith loses her lover, Abby, to a stroke. Linda and Amy struggle with feminist issues in 1972. And, in 2000, Kal and Fran try to have a baby with the help of sperm donor.", "poster_path": "/xs7ODbmYQXCDhvXNvz5tF17T59H.jpg", "release_date": "2000-03-05", "title": "If These Walls Could Talk 2", "video": false, "vote_average": 7.1, "vote_count": 55, "popularity": 8.062}, {"adult": false, "backdrop_path": "/knczzNAjBXzSYkeWxoT1u9VNmjR.jpg", "genre_ids": [10749, 18], "id": 258480, "original_language": "en", "original_title": "Carol", "overview": "In 1950s New York, a department-store clerk who dreams of a better life falls for an older, married woman.", "poster_path": "/AbKa7ANxmui0Jmhh7gV7OSELKIL.jpg", "release_date": "2015-11-20", "title": "Carol", "video": false, "vote_average": 7.4, "vote_count": 2182, "popularity": 14.185}, {"adult": false, "backdrop_path": "/fZ8oFcREAr6wgWcXISGql0xyxjB.jpg", "genre_ids": [35, 18], "id": 39781, "original_language": "en", "original_title": "The Kids Are All Right", "overview": "Two women, Nic and Jules, brought a son and daughter into the world through artificial insemination. When one of their children reaches age, both kids go behind their mothers' backs to meet with the donor. Life becomes so much more interesting when the father, two mothers and children start to become attached to each other.", "poster_path": "/fPDeK4MmoGfi2X0oWZev7LrbMqM.jpg", "release_date": "2010-07-09", "title": "The Kids Are All Right", "video": false, "vote_average": 6.6, "vote_count": 923, "popularity": 12.703}, {"adult": false, "backdrop_path": "/rf6G51j0SZL0tP57I8gnqHTRFEr.jpg", "genre_ids": [35, 18, 10749], "id": 273153, "original_language": "fr", "original_title": "La belle saison", "overview": "In 1971, Carole and Delphine meet and fall in love in Paris. When Carole follows Delphine back to her family farm in Limousin, the two find lesbianism and feminism are not as easy in the countryside.", "poster_path": "/evvAkNMO5VJiy5qIo1Hu7fUfvVI.jpg", "release_date": "2015-08-19", "title": "Summertime", "video": false, "vote_average": 6.6, "vote_count": 162, "popularity": 15.434}, {"adult": false, "backdrop_path": "/s12HEmmkJfI2mjltI61hGm5kubD.jpg", "genre_ids": [35, 18, 10749], "id": 20770, "original_language": "en", "original_title": "But I'm a Cheerleader", "overview": "Megan is an all-American girl. A cheerleader. She has a boyfriend. But Megan doesn't like kissing her boyfriend very much. And she's pretty touchy with her cheerleader friends. Her conservative parents worry that she must be a lesbian and send her off to \"sexual redirection\" school, where she must, with other lesbians and gays learn how to be straight.", "poster_path": "/eDGH7CHSdkrYcuUJV1e0WS9DlQL.jpg", "release_date": "1999-12-09", "title": "But I'm a Cheerleader", "video": false, "vote_average": 6.8, "vote_count": 246, "popularity": 10.067}, {"id": 9813, "video": false, "vote_count": 128, "vote_average": 6.1, "title": "The Quiet", "release_date": "2005-09-12", "original_language": "en", "original_title": "The Quiet", "genre_ids": [18, 53], "backdrop_path": "/6eyWAZA4CEidZW1xXnQ4vlYBXTP.jpg", "adult": false, "overview": "After her widowed father dies, deaf teenager Dot moves in with her godparents, Olivia and Paul Deer. The Deers' daughter, Nina, is openly hostile to Dot, but that does not prevent her from telling her secrets to her silent stepsister, including the fact that she wants to kill her lecherous father.", "poster_path": "/GEqIE9YlmygHVUfS64LW2cwAAM.jpg", "popularity": 13.948}, {"adult": false, "backdrop_path": "/tzqeuHWMFihFbiLGHdalPgAcSf6.jpg", "genre_ids": [18, 10749], "id": 18620, "original_language": "en", "original_title": "Go Fish", "overview": "Max is a trendy, pretty, young lesbian, who is having trouble finding love. A friend sets her up with Ely, whom Max likes, but Ely is frumpy, homely, and older. Nor do they have much in common. Can Max learn to look past the packaging?", "poster_path": "/qrEFYrwykaGsY8NULYuYLLI7zrM.jpg", "release_date": "1994-06-10", "title": "Go Fish", "video": false, "vote_average": 5.0, "vote_count": 11, "popularity": 2.626}, {"adult": false, "backdrop_path": "/6tern9vOEwwmkDYC1vRCuO64z0C.jpg", "genre_ids": [10749, 18], "id": 475888, "original_language": "en", "original_title": "Tell It to the Bees", "overview": "Dr. Jean Markham returns to the town she left as a teenager to take over her late father's medical practice. When a school-yard scuffle lands Charlie in her surgery, she invites him to visit the hives in her garden and tell his secrets to the bees, as she once did. The new friendship between the boy and the bee keeper brings his mother Lydia into Jean's world.", "poster_path": "/Rj6zpHhMU1zFW3v28U4PSRSRgP.jpg", "release_date": "2019-05-03", "title": "Tell It to the Bees", "video": false, "vote_average": 6.4, "vote_count": 53, "popularity": 15.113}, {"adult": false, "backdrop_path": "/baYbbMtKRDoDWYJeVWkbygAvAj8.jpg", "genre_ids": [18, 10749], "id": 31216, "original_language": "en", "original_title": "I Can't Think Straight", "overview": "I CAN'T THINK STRAIGHT is a 2007 romance movie about a London-based Jordanian of Palestinian descent, Tala, who is preparing for an elaborate wedding. A turn of events causes her to have an affair and subsequently fall in love with another woman, Leyla, a British Indian.", "poster_path": "/1kapga6rkM5wNuQBYw7sdE42CrA.jpg", "release_date": "2008-06-01", "title": "I Can't Think Straight", "video": false, "vote_average": 7.6, "vote_count": 109, "popularity": 8.749}, {"adult": false, "backdrop_path": "/lI5h8KaoeObu4NMTwzeRuUHzRwD.jpg", "genre_ids": [18, 9648, 53], "id": 401898, "original_language": "no", "original_title": "Thelma", "overview": "A college student starts to experience extreme seizures. She soon learns that the violent episodes are a symptom of inexplicable abilities.", "poster_path": "/yzSfG8TLAqw7nMQh2lxirQkQpgs.jpg", "release_date": "2017-09-15", "title": "Thelma", "video": false, "vote_average": 7.1, "vote_count": 418, "popularity": 12.235}, {"adult": false, "backdrop_path": "/tIFRPjIXQ3sYrmxbIeOu9K1JkUz.jpg", "genre_ids": [18, 10749], "id": 294, "original_language": "en", "original_title": "Desert Hearts", "overview": "The story of straight-edge literature professor Vivian who travels to Reno to get away from a relationship breakup when she falls in love with an attractive and unconventional girl named Cay.", "poster_path": "/b8JSmQSpYYJhctMtxNgqh0elENg.jpg", "release_date": "1985-10-01", "title": "Desert Hearts", "video": false, "vote_average": 7.3, "vote_count": 58, "popularity": 8.237}, {"id": 2255, "video": false, "vote_count": 772, "vote_average": 6.8, "title": "Chasing Amy", "release_date": "1997-04-04", "original_language": "en", "original_title": "Chasing Amy", "genre_ids": [35, 18, 10749], "backdrop_path": "/doKYVK61Vb8J1KUjlb9dNWkQNp6.jpg", "adult": false, "overview": "Holden and Banky are comic book artists. Everything is going good for them until they meet Alyssa, also a comic book artist. Holden falls for her, but his hopes are crushed when he finds out she's a lesbian.", "poster_path": "/4vFJileWrCGaBeobCmF0tXpQCUb.jpg", "popularity": 11.325}, {"adult": false, "backdrop_path": "/hD8DQM72Xacg1d3mFqS0eN8vKYw.jpg", "genre_ids": [18], "id": 8272, "original_language": "en", "original_title": "The Savages", "overview": "A sister and brother face the realities of familial responsibility as they begin to care for their ailing father.", "poster_path": "/nY54gSmTOmSXlQpWDB7DWp4u8a7.jpg", "release_date": "2007-01-19", "title": "The Savages", "video": false, "vote_average": 6.9, "vote_count": 192, "popularity": 13.094}, {"adult": false, "backdrop_path": "/g3LYarEY9LjB28Ct2trwFN72gqZ.jpg", "genre_ids": [35], "id": 437557, "original_language": "en", "original_title": "Blockers", "overview": "When three parents discover their daughters\u2019 pact to lose their virginity at prom, they launch a covert one-night operation to stop the teens from sealing the deal.", "poster_path": "/uvlUQXg0AlpGzKukO11K7QtW3Yu.jpg", "release_date": "2018-03-14", "title": "Blockers", "video": false, "vote_average": 6.2, "vote_count": 1153, "popularity": 18.075}, {"adult": false, "backdrop_path": "/zBB1mzmqnUuSrlTuf0SFFlI1EoJ.jpg", "genre_ids": [18], "id": 244772, "original_language": "en", "original_title": "The Skeleton Twins", "overview": "Estranged twins Maggie and Milo coincidentally cheat death on the same day, prompting them to reunite and confront the reasons their lives went so wrong. As the twins' reunion reinvigorates them, they realize the key to fixing their lives may just lie in repairing their relationship.", "poster_path": "/vvmv1R2jDXJeeeyYcGg0ypXc2XK.jpg", "release_date": "2014-09-12", "title": "The Skeleton Twins", "video": false, "vote_average": 6.7, "vote_count": 416, "popularity": 9.821}, {"adult": false, "backdrop_path": "/3YGy88nTV2e0wxZcKI1goiEN9oy.jpg", "genre_ids": [18, 10749], "id": 37636, "original_language": "en", "original_title": "High Art", "overview": "A young female intern at a small magazine company becomes involved with a drug-addicted lesbian photographer, both of whom seek to exploit each other for their respective careers, while slowly falling in love with each other.", "poster_path": "/qTg05RNJIvb9w4Z7XIcAZxuZmTn.jpg", "release_date": "1998-06-12", "title": "High Art", "video": false, "vote_average": 6.6, "vote_count": 61, "popularity": 7.27}, {"adult": false, "backdrop_path": "/caLMOD3ZJ3V7qjlxDXrzlJfBLgD.jpg", "genre_ids": [18, 10749], "id": 20, "original_language": "en", "original_title": "My Life Without Me", "overview": "A Pedro Almodovar production in which a fatally ill mother with only two months to live creates a list of things she wants to do before she dies with out telling her family of her illness.", "poster_path": "/vVj92VBFUBzjqzLvBiPVVlJDp78.jpg", "release_date": "2003-03-07", "title": "My Life Without Me", "video": false, "vote_average": 6.1, "vote_count": 220, "popularity": 9.208}, {"id": 434714, "video": false, "vote_count": 32, "vote_average": 7.5, "title": "My Days of Mercy", "release_date": "2019-07-11", "original_language": "en", "original_title": "My Days of Mercy", "genre_ids": [18, 10749], "backdrop_path": "/7Lbzq33nMMIQtAfZAmSqG6ibLSg.jpg", "adult": false, "overview": "The daughter of a man on death row falls in love with a woman on the opposing side of her family's political cause.", "poster_path": "/adIPKAoKnKL9vCTkvfF4J9ZA7Ln.jpg", "popularity": 6.928}], "total_pages": 1446, "total_results": 28907}, "recommendations": {"page": 1, "results": [{"adult": false, "backdrop_path": null, "genre_ids": [878, 18, 9648], "id": 185809, "original_language": "fr", "original_title": "Tintarella di luna", "overview": "After a volcano, a small village from where no one can escape. The plague spreads, and among the survivors, the famine rules. For a piece of bread, Charlotte sleeps with the grocer. Night falls. The cliffs, someone is watching\u2026", "poster_path": "/ylFjQiOrs5qMkpQ0wfa9vKhHkmE.jpg", "release_date": "1985-01-01", "title": "Tintarella di luna", "video": false, "vote_average": 5.8, "vote_count": 6, "popularity": 1.055}, {"adult": false, "backdrop_path": null, "genre_ids": [80, 27, 53], "id": 143519, "original_language": "en", "original_title": "Fingered", "overview": "One of Richard Kern\u2019s most ambitious works is Fingered (1986), whose sarcastic disclaimer says \u201calthough it is not our sole intention to shock, insult, or irritate, you have been warned that we are catering only to our own preferences as members of the sexual minority.\u201d", "poster_path": "/pzJ7KBLJ7Mq5en5RXrHormYVwNe.jpg", "release_date": "1986-08-19", "title": "Fingered", "video": false, "vote_average": 6.3, "vote_count": 7, "popularity": 1.046}, {"adult": false, "backdrop_path": null, "genre_ids": [], "id": 185818, "original_language": "en", "original_title": "Une exp\u00e9rience d'hypnose t\u00e9l\u00e9visuelle", "overview": "What interests me is the hypnotic trance in which one can plunge a viewer. When you make a film and it works, you're like a shaman, a hypnotist.", "poster_path": "/4MlZPUG2eSvMp9R9s25nsN8qPw8.jpg", "release_date": "1995-01-01", "title": "A Hypnotic Television Experience", "video": false, "vote_average": 6.3, "vote_count": 4, "popularity": 0.96}, {"adult": false, "backdrop_path": "/beHQfYg0H0cQ54QI56h2EMhsYca.jpg", "genre_ids": [18, 28], "id": 38186, "original_language": "ru", "original_title": "\u0427\u0443\u0436\u0430\u044f", "overview": "1990s. Gangster Kiev. A team of four men is assigned to deliver a girl from Prague, nicknamed \"Alien\", the sister of a recently arrested criminal called Babai, whose testimony could damage some important people.", "poster_path": "/lAZsAd0prE24SbgwUZWN4jkwX8z.jpg", "release_date": "2010-06-17", "title": "Alien Girl", "video": false, "vote_average": 6.6, "vote_count": 12, "popularity": 3.03}, {"id": 271197, "video": false, "vote_count": 3, "vote_average": 5.0, "title": "Samoa, Queen of the Jungle", "release_date": "1968-03-08", "original_language": "it", "original_title": "Samoa, regina della giungla", "genre_ids": [28, 12], "backdrop_path": "/lhe12PStSREACDZWa5cRPYvGU5r.jpg", "adult": false, "overview": "The adventurer Clint (Roger Browne) travels across Borneo with a bunch of rogues and geologists on the search for a diamond mine. In the middle of the jungle, they meet a beautiful woman called Samoa (Edwige Fenech). Hardly a surprise that Clint falls in love with Samoa, but trouble with the natives begins when the diamonds are found because diamonds are holy stones to them.", "poster_path": "/oSdjx9tszThqqIjQeSvHGu5huk8.jpg", "popularity": 2.904}, {"adult": false, "backdrop_path": "/etuqqz7G8D3yjZvwmXDmF3RKBZZ.jpg", "genre_ids": [35, 18], "id": 48860, "original_language": "sr", "original_title": "Nedostaje mi Sonja Henie", "overview": "One camera in one setting, one attic and eight young directors \u2013 the result is a unique Dadaistic collage of seven short sketches. The original task for each filmmaker was to keep each short under three minutes, to set it in one hotel room, and to include the sentence \u201cI miss Sonja Henie.\" This experimental film was shot over a single night at the international film festival FEST in Beograd in 1971.", "poster_path": "/eZLOufkm1EZ5UL0paHAK2imZTjP.jpg", "release_date": "1971-01-20", "title": "I Miss Sonja Henie", "video": false, "vote_average": 6.1, "vote_count": 8, "popularity": 2.163}, {"id": 214556, "video": false, "vote_count": 8, "vote_average": 5.1, "title": "Shultes", "release_date": "2008-07-16", "original_language": "ru", "original_title": "\u0428\u0443\u043b\u044c\u0442\u0435\u0441", "genre_ids": [80, 18], "backdrop_path": null, "adult": false, "overview": "Lesha Shultes, a pickpocket, leads the ordinary life of an average urban creature. The only extraordinary thing about Shultes is that he carries a little notebook with him and notes down everything. This minimalist drama of a 'small man' in a metropolis delivers an existential message with a distinct Russian flavour.", "poster_path": "/3hrDS8wrgIffXkCIcbZJ0Be24hi.jpg", "popularity": 1.965}, {"adult": false, "backdrop_path": "/4E5BDZ5xpySRFlnbmMkHAP8Mhni.jpg", "genre_ids": [18], "id": 138522, "original_language": "lt", "original_title": "M\u016bs\u0173 nedaug", "overview": "A slow, dialogue-free film about a woman's journey in Siberia.", "poster_path": "/rE0WYvn0z26PqesgJfOYBWYoJrl.jpg", "release_date": "1996-09-18", "title": "Few of Us", "video": false, "vote_average": 8.0, "vote_count": 8, "popularity": 2.041}, {"adult": false, "backdrop_path": "/e7X2F3RrPiW0oLBgSeC7nKjZ52T.jpg", "genre_ids": [18, 14, 9648], "id": 141520, "original_language": "ru", "original_title": "Poslednyaya skazka Rity", "overview": "The film speaks about universal themes of love, hate and search for love. The portrait of three women represents these three states. Tanya Neubivko has never been in love but optimistically is searing for it. Her unfortunate and even dangerous encounters with strangers on dates almost got her killed. Rita is happily engaged and planning a wedding after a routine medical check-up. Nadya is a very unhappy doctor who hates her husband and finds relief in alcohol. The story takes place in a surreal hospital with the leaking roof and hollow walls and constantly smoking doctors, where Rita is destined to die.", "poster_path": "/6dS0fDrigZiHUiwuS5yjJECc919.jpg", "release_date": "2012-11-01", "title": "Rita's Last Fairy Tale", "video": false, "vote_average": 7.5, "vote_count": 12, "popularity": 2.013}, {"adult": false, "backdrop_path": "/xlLghn5EG7QDryBYrptp2WEFv8X.jpg", "genre_ids": [18], "id": 6511, "original_language": "de", "original_title": "Die Konsequenz", "overview": "Thomas is the son of a prison warden. He falls for and seduces Martin, who is older and one of the prison inmates. After Martin is released, They try to build a relationship and a life together but, no one will leave them alone.", "poster_path": "/5b2rC6cgglPMab6LbQauTfBJmv2.jpg", "release_date": "1977-12-02", "title": "The Consequence", "video": false, "vote_average": 5.6, "vote_count": 6, "popularity": 1.786}, {"adult": false, "backdrop_path": "/1nMces6XTSqlwTmj6kusgZtMv4Q.jpg", "genre_ids": [18], "id": 408436, "original_language": "hr", "original_title": "Ne gledaj mi u pijat", "overview": "Marijana's life revolves around her family, whether she likes it or not. They live on top of one another in a tiny apartment, driving one another crazy. Then her controlling father has a stroke and is left completely bedridden, and Marijana takes his place as head of the clan. Soon, she is working two jobs to keep everything afloat, while her mother and disabled brother do their best to scupper the ship. Driven to the edge, Marijana finds comfort in seedy sex with random strangers; and this taste of freedom leaves her wanting more. But now that she has finally found freedom, what's she meant to do with it?", "poster_path": "/1dDuXuWBx0MyHAtnajcjI42UFgi.jpg", "release_date": "2016-09-01", "title": "Quit Staring at My Plate", "video": false, "vote_average": 6.8, "vote_count": 6, "popularity": 2.367}, {"adult": false, "backdrop_path": "/hOLp3itT3qjRhB0D9OesOTbMtzu.jpg", "genre_ids": [35], "id": 49579, "original_language": "ru", "original_title": "\u0421\u0443\u043c\u0430\u0441\u0448\u0435\u0434\u0448\u0430\u044f \u043f\u043e\u043c\u043e\u0449\u044c", "overview": "Kind and lazy Jenya comes to Moscow from small village in Belarus for earnings. Criminal incident unexpectedly separates Jenya from companions and leaves him alone without money and documents. He has no friends or relatives in this big and hostile city and he is about to end as a homeless bum.", "poster_path": "/ln3xdYWvyJgv9BtbbEvoEXyhzhs.jpg", "release_date": "2009-02-08", "title": "Help Gone Mad", "video": false, "vote_average": 4.9, "vote_count": 8, "popularity": 2.109}, {"id": 49475, "video": false, "vote_count": 11, "vote_average": 6.3, "title": "Porn Theater", "release_date": "2002-11-20", "original_language": "en", "original_title": "La Chatte \u00e0 deux t\u00eates", "genre_ids": [18], "backdrop_path": "/AwBVO8SEBBWgENWjTpDWm0HMevm.jpg", "adult": false, "overview": "In a Parisian porn theater, a cashier, a 50-year-old man and a young projectionist are drawn into a complex love affair.", "poster_path": "/63AavPp6836LwWxxFPoofmdghBu.jpg", "popularity": 1.78}, {"id": 73764, "video": false, "vote_count": 20, "vote_average": 6.1, "title": "My Nights Are More Beautiful Than Your Days", "release_date": "1989-04-19", "original_language": "fr", "original_title": "Mes nuits sont plus belles que vos jours", "genre_ids": [18, 10749], "backdrop_path": "/yHiMPGfTNfcNgZ0vuz3D2nkIsoj.jpg", "adult": false, "overview": "A most whimsical, hurly-burly quasi-autobiographical love romp from the master of operatic intellectual romance! French pop star Jacques Dutronc is a genius computer programmer diagnosed with a terminal brain disease, and Sophie Marceau is the flighty main attraction of a hilariously surreal mentalist nightclub act. Embarking on a billowy, tempestuous May-September fling (mirroring Zulawski and Marceau\u2019s own marriage), they both move through their respective childhood traumas, while simultaneously racing to retain Lucas\u2019 grasp of language. A pastel-and-neon poetic feast not only on the visual level, but also literally, My Nights\u2026 astounds with its lush wordplay \u2014 for the only way that Lucas is able to progressively battle his own evaporating mind is to speak with increasingly rhyming and metaphorical flourishes, until the entire world becomes one big sweet-toothed, Zulawskian word-association game.", "poster_path": "/aKEBu1nItB5QGVs7NYqUgvpoT48.jpg", "popularity": 4.563}, {"id": 68335, "video": false, "vote_count": 18, "vote_average": 5.3, "title": "Now & Later", "release_date": "2009-02-18", "original_language": "en", "original_title": "Now & Later", "genre_ids": [18], "backdrop_path": "/uyzZkiHMLirxPL5h69xO652J2bm.jpg", "adult": false, "overview": "Sex, politics and American culture are mixed into a combustible combination in Now &amp; Later. Angela is an illegal Latina immigrant living in Los Angeles who stumbles across Bill, a disgraced banker on the run. She takes him in. Through passionate sex, soul-searching conversations ranging from politics to philosophy, and other worldly pleasures, Angela introduces Bill to another worldview. As their affair heats up, the course of Bill's life begins to take an abrupt and unexpected turn.", "poster_path": "/j0zZ2IyWbFf8T65hmJLDmzmpqaw.jpg", "popularity": 8.15}], "total_pages": 2, "total_results": 32}, "credits": {"cast": [], "crew": [{"credit_id": "5c6c280bc3a36843c6e7e5bc", "department": "Production", "gender": 2, "id": 6590, "job": "Executive Producer", "name": "Sigurj\u00f3n Sighvatsson", "profile_path": "/3flA6EUiOxnwnNnao61b0pRSXFu.jpg"}, {"credit_id": "52fe4d4bc3a368484e1e1775", "department": "Directing", "gender": 2, "id": 14597, "job": "Director", "name": "Gaspar No\u00e9", "profile_path": "/7v4DeEFTX5Uud0JlArnAaGHazRR.jpg"}, {"credit_id": "52fe4d4bc3a368484e1e1763", "department": "Directing", "gender": 2, "id": 51917, "job": "Director", "name": "Larry Clark", "profile_path": "/tJtdWinMXjDWwnEAwoPQH4hrdTF.jpg"}, {"credit_id": "52fe4d4bc3a368484e1e1757", "department": "Directing", "gender": 2, "id": 58838, "job": "Director", "name": "Marco Brambilla", "profile_path": "/uFzVGRzub6RxyN5SjIPUZOnWVtW.jpg"}, {"credit_id": "52fe4d4bc3a368484e1e1751", "department": "Directing", "gender": 2, "id": 116018, "job": "Director", "name": "Matthew Barney", "profile_path": "/8Br7fRmMzCcDHUW0IyV5oB3ob6z.jpg"}, {"credit_id": "52fe4d4bc3a368484e1e178d", "department": "Writing", "gender": 2, "id": 116018, "job": "Writer", "name": "Matthew Barney", "profile_path": "/8Br7fRmMzCcDHUW0IyV5oB3ob6z.jpg"}, {"credit_id": "52fe4d4bc3a368484e1e177b", "department": "Directing", "gender": 0, "id": 1001817, "job": "Director", "name": "Richard H. Prince", "profile_path": null}, {"credit_id": "52fe4d4bc3a368484e1e1793", "department": "Writing", "gender": 0, "id": 1001817, "job": "Writer", "name": "Richard H. Prince", "profile_path": null}, {"credit_id": "52fe4d4bc3a368484e1e174b", "department": "Directing", "gender": 1, "id": 1060565, "job": "Director", "name": "Marina Abramovi\u0107", "profile_path": "/acyUmjRy0bLQgHk8Utpg88oCwAl.jpg"}, {"credit_id": "52fe4d4bc3a368484e1e1781", "department": "Directing", "gender": 1, "id": 1137903, "job": "Director", "name": "Sam Taylor-Johnson", "profile_path": "/dwX7Tgg5VSAsx5CfCy0eEj98sFn.jpg"}, {"credit_id": "52fe4d4bc3a368484e1e1799", "department": "Writing", "gender": 1, "id": 1137903, "job": "Writer", "name": "Sam Taylor-Johnson", "profile_path": "/dwX7Tgg5VSAsx5CfCy0eEj98sFn.jpg"}, {"credit_id": "52fe4d4bc3a368484e1e175d", "department": "Directing", "gender": 0, "id": 1191485, "job": "Director", "name": "Cecily Brown", "profile_path": null}, {"credit_id": "52fe4d4bc3a368484e1e1769", "department": "Directing", "gender": 0, "id": 1191486, "job": "Director", "name": "Sante D'Orazio", "profile_path": null}, {"credit_id": "52fe4d4bc3a368484e1e176f", "department": "Directing", "gender": 0, "id": 1191487, "job": "Director", "name": "Marilyn Minter", "profile_path": null}, {"credit_id": "52fe4d4bc3a368484e1e1787", "department": "Directing", "gender": 0, "id": 1191488, "job": "Director", "name": "Tunga", "profile_path": null}]}}