{"adult": false, "backdrop_path": null, "belongs_to_collection": null, "budget": 0, "genres": [{"id": 12, "name": "Adventure"}, {"id": 10752, "name": "War"}, {"id": 28, "name": "Action"}], "homepage": null, "id": 209207, "imdb_id": "tt0042666", "original_language": "en", "original_title": "Last of the Buccaneers", "overview": "Swashbuckler about the adventures of pirate Jean Lafitte after he helped save New Orleans from a British invasion during the War of 1812.", "popularity": 2.572, "poster_path": "/bIQ5SMgpS3BkXD5M2LohK4LbR0P.jpg", "production_companies": [{"id": 5, "logo_path": "/71BqEFAF4V3qjjMPCpLuyJFB9A.png", "name": "Columbia Pictures", "origin_country": "US"}], "production_countries": [{"iso_3166_1": "US", "name": "United States of America"}], "release_date": "1950-10-25", "revenue": 0, "runtime": 79, "spoken_languages": [{"iso_639_1": "en", "name": "English"}], "status": "Released", "tagline": "", "title": "Last of the Buccaneers", "video": false, "vote_average": 6.0, "vote_count": 1, "keywords": {"keywords": [{"id": 12988, "name": "pirate"}, {"id": 166489, "name": "war of 1812"}]}, "similar": {"page": 1, "results": [{"id": 22, "video": false, "vote_count": 13521, "vote_average": 7.7, "title": "Pirates of the Caribbean: The Curse of the Black Pearl", "release_date": "2003-07-09", "original_language": "en", "original_title": "Pirates of the Caribbean: The Curse of the Black Pearl", "genre_ids": [28, 12, 14], "backdrop_path": "/8AUQ7YlJJA9C8kWk8P4YNHIcFDE.jpg", "adult": false, "overview": "Jack Sparrow, a freewheeling 18th-century pirate, quarrels with a rival pirate bent on pillaging Port Royal. When the governor's daughter is kidnapped, Sparrow decides to help the girl's love save her.", "poster_path": "/tkt9xR1kNX5R9rCebASKck44si2.jpg", "popularity": 40.826}, {"id": 166426, "video": false, "vote_count": 7551, "vote_average": 6.6, "title": "Pirates of the Caribbean: Dead Men Tell No Tales", "release_date": "2017-05-23", "original_language": "en", "original_title": "Pirates of the Caribbean: Dead Men Tell No Tales", "genre_ids": [28, 12, 35, 14], "backdrop_path": "/7C921eWK06n12c1miRXnYoEu5Yv.jpg", "adult": false, "overview": "Thrust into an all-new adventure, a down-on-his-luck Capt. Jack Sparrow feels the winds of ill-fortune blowing even more strongly when deadly ghost sailors led by his old nemesis, the evil Capt. Salazar, escape from the Devil's Triangle. Jack's only hope of survival lies in seeking out the legendary Trident of Poseidon, but to find it, he must forge an uneasy alliance with a brilliant and beautiful astronomer and a headstrong young man in the British navy.", "poster_path": "/xbpSDU3p7YUGlu9Mr6Egg2Vweto.jpg", "popularity": 35.104}, {"id": 16905, "video": false, "vote_count": 105, "vote_average": 7.3, "title": "Captain Blood", "release_date": "1935-12-28", "original_language": "en", "original_title": "Captain Blood", "genre_ids": [12, 10749], "backdrop_path": "/tr2RZyZxb2PnjN9mH8mitj6g3Zv.jpg", "adult": false, "overview": "Dr. Peter Blood, unjustly convicted of treason and exiled from England, becomes a notorious pirate.", "poster_path": "/iuYA1w7iIk1XKiwbCIFFKVQlLOt.jpg", "popularity": 9.962}, {"adult": false, "backdrop_path": "/zyWbOvKCdA9V9P5xuUG2eiPYsUo.jpg", "genre_ids": [12, 14, 10751], "id": 10601, "original_language": "en", "original_title": "Peter Pan", "overview": "In stifling Edwardian London, Wendy Darling mesmerizes her brothers every night with bedtime tales of swordplay, swashbuckling and the fearsome Captain Hook. But the children become the heroes of an even greater story, when Peter Pan flies into their nursery one night and leads them over moonlit rooftops through a galaxy of stars and to the lush jungles of Neverland.", "poster_path": "/kN9nWy36vyCJyMTRjQPgolxEr8l.jpg", "release_date": "2003-12-25", "title": "Peter Pan", "video": false, "vote_average": 7.1, "vote_count": 1571, "popularity": 16.027}, {"id": 10693, "video": false, "vote_count": 3344, "vote_average": 7.2, "title": "Peter Pan", "release_date": "1953-02-05", "original_language": "en", "original_title": "Peter Pan", "genre_ids": [12, 16, 14, 10751], "backdrop_path": "/9bNHgmqQ4u4ujYpGwCiMB2BsCLC.jpg", "adult": false, "overview": "Leaving the safety of their nursery behind, Wendy, Michael and John follow Peter Pan to a magical world where childhood lasts forever. But while in Neverland, the kids must face Captain Hook and foil his attempts to get rid of Peter for good.", "poster_path": "/6UTZmeQcxbtW32MyR5nKIx7ID4f.jpg", "popularity": 24.922}, {"id": 9340, "video": false, "vote_count": 3237, "vote_average": 7.5, "title": "The Goonies", "release_date": "1985-06-07", "original_language": "en", "original_title": "The Goonies", "genre_ids": [12, 35, 10751], "backdrop_path": "/qKeyO9gXaaK0g87tvvqOPK1siwc.jpg", "adult": false, "overview": "A young teenager named Mikey Walsh finds an old treasure map in his father's attic. Hoping to save their homes from demolition, Mikey and his friends Data Wang, Chunk Cohen, and Mouth Devereaux run off on a big quest to find the secret stash of Pirate One-Eyed Willie.", "poster_path": "/bZUbpjwnarSHJK40W9sGpyedWhx.jpg", "popularity": 30.164}, {"id": 9016, "video": false, "vote_count": 2230, "vote_average": 7.4, "title": "Treasure Planet", "release_date": "2002-11-26", "original_language": "en", "original_title": "Treasure Planet", "genre_ids": [12, 16, 14, 878, 10751], "backdrop_path": "/3HVvtFm9NvOfn1u3yfeEugh2ZWj.jpg", "adult": false, "overview": "When space galleon cabin boy Jim Hawkins discovers a map to an intergalactic \"loot of a thousand worlds,\" a cyborg cook named John Silver teaches him to battle supernovas and space storms. But, soon, Jim realizes Silver is a pirate intent on mutiny!", "poster_path": "/gFfZVblQoExIVK4PVCJ9xZZJJKy.jpg", "popularity": 25.816}, {"adult": false, "backdrop_path": "/l7zANdjgTvYqwZUx76Vk0EKpCH5.jpg", "genre_ids": [12, 28, 14], "id": 1865, "original_language": "en", "original_title": "Pirates of the Caribbean: On Stranger Tides", "overview": "Captain Jack Sparrow crosses paths with a woman from his past, and he's not sure if it's love -- or if she's a ruthless con artist who's using him to find the fabled Fountain of Youth. When she forces him aboard the Queen Anne's Revenge, the ship of the formidable pirate Blackbeard, Jack finds himself on an unexpected adventure in which he doesn't know who to fear more: Blackbeard or the woman from his past.", "poster_path": "/wNUDAq5OUMOtxMlz64YaCp7gZma.jpg", "release_date": "2011-05-14", "title": "Pirates of the Caribbean: On Stranger Tides", "video": false, "vote_average": 6.4, "vote_count": 9294, "popularity": 27.764}, {"id": 285, "video": false, "vote_count": 9135, "vote_average": 7.1, "title": "Pirates of the Caribbean: At World's End", "release_date": "2007-05-19", "original_language": "en", "original_title": "Pirates of the Caribbean: At World's End", "genre_ids": [28, 12, 14], "backdrop_path": "/EDloimImeTz1rFM7YIJ5Dw1mzU.jpg", "adult": false, "overview": "Captain Barbossa, long believed to be dead, has come back to life and is headed to the edge of the Earth with Will Turner and Elizabeth Swann. But nothing is quite as it seems.", "poster_path": "/bXb00CkHqx7TPchTGG131sWV59y.jpg", "popularity": 30.261}, {"adult": false, "backdrop_path": "/yD3gXOtGmXnbJBPLgqluZU2QF5c.jpg", "genre_ids": [12, 14, 28], "id": 58, "original_language": "en", "original_title": "Pirates of the Caribbean: Dead Man's Chest", "overview": "Captain Jack Sparrow works his way out of a blood debt with the ghostly Davey Jones, he also attempts to avoid eternal damnation.", "poster_path": "/9pSUIBqkr89PdlJ6fNrXwNNbgp.jpg", "release_date": "2006-06-20", "title": "Pirates of the Caribbean: Dead Man's Chest", "video": false, "vote_average": 7.2, "vote_count": 10261, "popularity": 33.154}, {"id": 109424, "video": false, "vote_count": 4231, "vote_average": 7.6, "title": "Captain Phillips", "release_date": "2013-10-10", "original_language": "en", "original_title": "Captain Phillips", "genre_ids": [28, 18, 53], "backdrop_path": "/vsniZLsR7qt175WOvaqnr5r4AKc.jpg", "adult": false, "overview": "The true story of Captain Richard Phillips and the 2009 hijacking by Somali pirates of the US-flagged MV Maersk Alabama, the first American cargo ship to be hijacked in two hundred years.", "poster_path": "/AnMTMPTUzeWNbYxzp29WqYf1br1.jpg", "popularity": 15.609}, {"id": 71805, "video": false, "vote_count": 24, "vote_average": 6.7, "title": "Shipwrecked", "release_date": "1990-10-03", "original_language": "no", "original_title": "H\u00e5kon H\u00e5konsen", "genre_ids": [12, 10751], "backdrop_path": "/rp5dh6D0MLOIIVHkugv6Z8gBLwg.jpg", "adult": false, "overview": "A young Norwegian boy in 1850s England goes to work as a cabin boy and discovers some of his shipmates are actually pirates.", "poster_path": "/jf2PkR0Yt0ZRMKqtJzwja7JV2Hk.jpg", "popularity": 45.277}, {"id": 10515, "video": false, "vote_count": 1871, "vote_average": 8.0, "title": "Castle in the Sky", "release_date": "1986-08-02", "original_language": "ja", "original_title": "\u5929\u7a7a\u306e\u57ce\u30e9\u30d4\u30e5\u30bf", "genre_ids": [28, 12, 16, 14, 10749, 10751], "backdrop_path": "/hf4CRxGMi8zmLjkudyTWfVtnuXr.jpg", "adult": false, "overview": "A young boy and a girl with a magic crystal must race against pirates and foreign agents in a search for a legendary floating castle.", "poster_path": "/4RTG2AaqZ9eleL51ryWwv78WwDu.jpg", "popularity": 29.174}, {"id": 266647, "video": false, "vote_count": 1877, "vote_average": 5.9, "title": "Pan", "release_date": "2015-09-24", "original_language": "en", "original_title": "Pan", "genre_ids": [12, 14, 10751], "backdrop_path": "/6Ym6bgfhvpgQS5Sg8kKnfW1hX7P.jpg", "adult": false, "overview": "Living a bleak existence at a London orphanage, 12-year-old Peter finds himself whisked away to the fantastical world of Neverland. Adventure awaits as he meets new friend James Hook and the warrior Tiger Lily. They must band together to save Neverland from the ruthless pirate Blackbeard. Along the way, the rebellious and mischievous boy discovers his true destiny, becoming the hero forever known as Peter Pan.", "poster_path": "/uflLJBg5iVWaPpzc4Qm54HNoGYd.jpg", "popularity": 19.695}, {"id": 2493, "video": false, "vote_count": 2686, "vote_average": 7.7, "title": "The Princess Bride", "release_date": "1987-09-25", "original_language": "en", "original_title": "The Princess Bride", "genre_ids": [12, 35, 14, 10749, 10751], "backdrop_path": "/oaXyPP3HNW0gBl0ZGXLhJOdACeH.jpg", "adult": false, "overview": "In this enchantingly cracked fairy tale, the beautiful Princess Buttercup and the dashing Westley must overcome staggering odds to find happiness amid six-fingered swordsmen, murderous princes, Sicilians and rodents of unusual size. But even death can't stop these true lovebirds from triumphing.", "poster_path": "/gpxjoE0yvRwIhFEJgNArtKtaN7S.jpg", "popularity": 16.912}, {"adult": false, "backdrop_path": "/zrGPZc07huy9ApZs7GCrWj05Cy8.jpg", "genre_ids": [12, 14, 10749, 10751], "id": 2270, "original_language": "en", "original_title": "Stardust", "overview": "In a countryside town bordering on a magical land, a young man makes a promise to his beloved that he'll retrieve a fallen star by venturing into the magical realm. His journey takes him into a world beyond his wildest dreams and reveals his true identity.", "poster_path": "/A9gXvPOnMu961E36x5p3RT4FQ5E.jpg", "release_date": "2007-08-09", "title": "Stardust", "video": false, "vote_average": 7.2, "vote_count": 2401, "popularity": 19.248}, {"id": 11362, "video": false, "vote_count": 888, "vote_average": 7.5, "title": "The Count of Monte Cristo", "release_date": "2002-01-23", "original_language": "en", "original_title": "The Count of Monte Cristo", "genre_ids": [28, 12, 18, 53], "backdrop_path": "/pgreancDSQbXbOIeMWuJclnm03C.jpg", "adult": false, "overview": "Edmond Dant\u00e9s's life and plans to marry the beautiful Mercedes are shattered when his best friend, Fernand, deceives him. After spending 13 miserable years in prison, Dant\u00e9s escapes with the help of a fellow inmate and plots his revenge, cleverly insinuating himself into the French nobility.", "poster_path": "/1JbBZex0EUcTj9FCD8oYEFbVH3j.jpg", "popularity": 17.682}, {"id": 175112, "video": false, "vote_count": 571, "vote_average": 6.7, "title": "Tinker Bell and the Pirate Fairy", "release_date": "2014-02-13", "original_language": "en", "original_title": "Tinker Bell and the Pirate Fairy", "genre_ids": [16, 10751], "backdrop_path": "/1DfcGAQ4EVIZFnveo1IzHFtgFTS.jpg", "adult": false, "overview": "Zarina, a smart and ambitious dust-keeper fairy who\u2019s captivated by Blue Pixie Dust and its endless possibilities, flees Pixie Hollow and joins forces with the scheming pirates of Skull Rock, who make her captain of their ship. Tinker Bell and her friends must embark on an epic adventure to find Zarina, and together they go sword-to-sword with the band of pirates led by a cabin boy named James, who\u2019ll soon be known as Captain Hook himself.", "poster_path": "/7pTcejxx8f0Xlw3WEmdg1lNnHrP.jpg", "popularity": 21.311}, {"id": 9804, "video": false, "vote_count": 2063, "vote_average": 6.0, "title": "Waterworld", "release_date": "1995-07-28", "original_language": "en", "original_title": "Waterworld", "genre_ids": [28, 12, 878], "backdrop_path": "/2WZjxBC95ZVRqc0rxbV8a2NdPHt.jpg", "adult": false, "overview": "In a futuristic world where the polar ice caps have melted and made Earth a liquid planet, a beautiful barmaid rescues a mutant seafarer from a floating island prison. They escape, along with her young charge, Enola, and sail off aboard his ship.", "poster_path": "/9I0z3rM8gdIyjHBTIYniFXiwFOo.jpg", "popularity": 19.499}, {"id": 21519, "video": false, "vote_count": 172, "vote_average": 7.2, "title": "Project A", "release_date": "1983-12-22", "original_language": "cn", "original_title": "A\u8a08\u5283", "genre_ids": [28, 12, 35], "backdrop_path": "/tuAMryZ4tZZ4LOMvXSANCcLEoWM.jpg", "adult": false, "overview": "In late 19th Century Hong Kong the British may rule the land, but the pirates rule the waters. One Coast Guard officer is Dragon Ma, who is determined that his beloved Coast Guard will not be made a fool of.", "poster_path": "/aiEtQitm0pbRC93ABsrHhw9HhMR.jpg", "popularity": 18.917}], "total_pages": 16, "total_results": 311}, "recommendations": {"page": 1, "results": [], "total_pages": 1, "total_results": 0}, "credits": {"cast": [{"cast_id": 3, "character": "Jean Lafitte", "credit_id": "52fe4d5ec3a368484e1e5447", "gender": 2, "id": 4112, "name": "Paul Henreid", "order": 0, "profile_path": "/mW3WfoX4JDZ6oRQqVA6hO5LSRUi.jpg"}, {"cast_id": 4, "character": "Sgt. Dominick", "credit_id": "52fe4d5ec3a368484e1e544b", "gender": 2, "id": 14028, "name": "Jack Oakie", "order": 1, "profile_path": "/rSo16WdKISZTAZwffjdQTBO26DU.jpg"}, {"cast_id": 5, "character": "Belle Summer", "credit_id": "52fe4d5ec3a368484e1e544f", "gender": 1, "id": 238553, "name": "Karin Booth", "order": 2, "profile_path": "/7oT55xwhTXupVKzHI9AozebR1QT.jpg"}, {"cast_id": 6, "character": "Swallow", "credit_id": "52fe4d5ec3a368484e1e5453", "gender": 1, "id": 93896, "name": "Mary Anderson", "order": 3, "profile_path": "/2Qf7Fiy64RYJgW098lKlTyFEwXO.jpg"}, {"cast_id": 7, "character": "George Mareval", "credit_id": "52fe4d5ec3a368484e1e5457", "gender": 2, "id": 78849, "name": "Edgar Barrier", "order": 4, "profile_path": "/jptIjimqXPmJZEIW9ozLDmnvcQL.jpg"}, {"cast_id": 8, "character": "Sgt. Belchue", "credit_id": "52fe4d5ec3a368484e1e545b", "gender": 2, "id": 82863, "name": "John Dehner", "order": 5, "profile_path": "/2maCnzFC38ACrrAtFOCMj0GoQ8V.jpg"}, {"cast_id": 9, "character": "Brown", "credit_id": "53d43492c3a3686b9a001e7f", "gender": 2, "id": 98052, "name": "Harry Cording", "order": 6, "profile_path": "/gvWWu40cDWcRbhIwDjx7tyfsgJK.jpg"}, {"cast_id": 10, "character": "Dunwood", "credit_id": "53d434a8c3a3686b85001f4d", "gender": 0, "id": 30849, "name": "William Fawcett", "order": 7, "profile_path": "/4IWcWzlR34zzejjRpALE1Sifs2e.jpg"}, {"cast_id": 11, "character": "Pirate", "credit_id": "53d434b5c3a3686b8e001cf3", "gender": 2, "id": 112722, "name": "Ross Elliott", "order": 8, "profile_path": "/tYEwSVPt29T6vd1lYNM3dRiehP0.jpg"}, {"cast_id": 12, "character": "Gov. Claiborne", "credit_id": "53d434d1c3a3686b88001f69", "gender": 2, "id": 30216, "name": "Pierre Watkin", "order": 9, "profile_path": "/s9Z72wx6hJ2BwG6feVC6s4TcWrb.jpg"}, {"cast_id": 13, "character": "New Orleans Party Guest", "credit_id": "53d434e4c3a3686b94002038", "gender": 1, "id": 121323, "name": "Bess Flowers", "order": 10, "profile_path": "/akbW8jJl8GSXFpixFaobMOqvNv4.jpg"}], "crew": [{"credit_id": "52fe4d5ec3a368484e1e543d", "department": "Directing", "gender": 2, "id": 82491, "job": "Director", "name": "Lew Landers", "profile_path": "/cMnGcXsZptyy0uHQnfxisA9n07L.jpg"}, {"credit_id": "52fe4d5ec3a368484e1e5443", "department": "Writing", "gender": 2, "id": 109704, "job": "Screenplay", "name": "Robert E. Kent", "profile_path": null}]}}