{"adult": false, "backdrop_path": "/pahSEjEt49pwRan1vLvSIOruCTV.jpg", "belongs_to_collection": null, "budget": 0, "genres": [{"id": 10402, "name": "Music"}, {"id": 99, "name": "Documentary"}], "homepage": "http://www.filmagemovie.com/", "id": 210274, "imdb_id": "tt2417154", "original_language": "en", "original_title": "Filmage: The Story of Descendents/All", "overview": "Long before Green Day and Blink 182 inflicted punk-rock's puncture wound on the map of mainstream music, the Descendents were at home concocting the perfect mix of pop, angst, love, and coffee. FILMAGE: The Story of DESCENDENTS/ALL follows drummer/square-peg Bill Stevenson and his 'caffeinated retardedness' as he pushes his rotating door of bandmates to 'achieve ALL,' his philosophy of going for greatness at all costs. Stevenson is a force to be reckoned with--not even grapefruit-sized brain tumors can keep him down.", "popularity": 2.747, "poster_path": "/kQMXaSTOnSYnbCDd7fhQIWkxyNY.jpg", "production_companies": [], "production_countries": [], "release_date": "2013-10-01", "revenue": 0, "runtime": 90, "spoken_languages": [{"iso_639_1": "en", "name": "English"}], "status": "Released", "tagline": "", "title": "Filmage: The Story of Descendents/All", "video": false, "vote_average": 7.4, "vote_count": 9, "keywords": {"keywords": [{"id": 4470, "name": "punk"}, {"id": 6027, "name": "music"}]}, "similar": {"page": 1, "results": [{"id": 612738, "video": false, "vote_count": 0, "vote_average": 0.0, "title": "People In A Film", "release_date": "2019-12-20", "original_language": "en", "original_title": "People In A Film", "genre_ids": [99], "backdrop_path": null, "adult": false, "overview": "Chronicles the musical career of British post-punk art rockers Wire.", "poster_path": "/l9uceh7mGbgGxs6ycfTRsjDeak5.jpg", "popularity": 0.757}, {"adult": false, "backdrop_path": "/pQOs5bwFpaimeaK5PA2XXteU1Ly.jpg", "genre_ids": [10402, 99], "id": 20575, "original_language": "en", "original_title": "Queen: Live at Wembley Stadium", "overview": "One of the world's biggest bands return to the scene of their Live Aid (1985) triumph a year earlier to play all their greatest hits in front of a packed Wembley Stadium.", "poster_path": "/qztOmfZ8uLPN3MUNHJd8GaJST2V.jpg", "release_date": "1986-07-12", "title": "Live at Wembley Stadium", "video": false, "vote_average": 8.7, "vote_count": 49, "popularity": 8.207}, {"id": 786, "video": false, "vote_count": 1485, "vote_average": 7.5, "title": "Almost Famous", "release_date": "2000-09-15", "original_language": "en", "original_title": "Almost Famous", "genre_ids": [18, 10402], "backdrop_path": "/zfucY8mxcrNeopFneyvyERZQah1.jpg", "adult": false, "overview": "In 1973, 15-year-old William Miller's unabashed love of music and aspiration to become a rock journalist lands him an assignment from Rolling Stone magazine to interview and tour with the up-and-coming band Stillwater\u2014fronted by lead guitar Russell Hammond, and lead singer Jeff Bebe.", "poster_path": "/9pNo92j6zSEAUB8pNmcJTkpnkBF.jpg", "popularity": 17.801}, {"adult": false, "backdrop_path": "/5wCpuGgrEBjtPUCjHMNSGDfvekA.jpg", "genre_ids": [99, 10402], "id": 34380, "original_language": "en", "original_title": "Instrument: Ten Years with the Band Fugazi", "overview": "Shot from 1987 through 1998 on super 8, 16mm and video, Instrument is composed mainly of footage of concerts, interviews with the band members, practices, tours and time spent in the studio recording their 1995 album, Red Medicine. The film also includes portraits of fans as well as interviews with them at various Fugazi shows around the United States throughout the years.", "poster_path": "/6KM7aMY0LPPY5wBx3QMG2vNcf9K.jpg", "release_date": "1999-03-01", "title": "Instrument: Ten Years with the Band Fugazi", "video": false, "vote_average": 7.3, "vote_count": 11, "popularity": 3.034}, {"adult": false, "backdrop_path": "/q3eNcig4YFEsUTnmIYDA90FdndO.jpg", "genre_ids": [10402, 35, 28, 80], "id": 525, "original_language": "en", "original_title": "The Blues Brothers", "overview": "Jake Blues is just out of jail, and teams up with his brother, Elwood on a 'mission from God' to raise funds for the orphanage in which they grew up. The only thing they can do is do what they do best: play music. So they get their old band together, and set out on their way\u2014while getting in a bit of trouble here and there.", "poster_path": "/6hesUNBkpVRqBTBw2HlTg0h8b56.jpg", "release_date": "1980-06-17", "title": "The Blues Brothers", "video": false, "vote_average": 7.7, "vote_count": 2299, "popularity": 21.638}, {"id": 6575, "video": false, "vote_count": 364, "vote_average": 6.6, "title": "Walk Hard: The Dewey Cox Story", "release_date": "2007-12-21", "original_language": "en", "original_title": "Walk Hard: The Dewey Cox Story", "genre_ids": [35, 18, 10402], "backdrop_path": "/y7EElGAn1tFE0Npmls7uvg4HPVj.jpg", "adult": false, "overview": "Following a childhood tragedy, Dewey Cox follows a long and winding road to music stardom. Dewey perseveres through changing musical styles, an addiction to nearly every drug known and bouts of uncontrollable rage.", "poster_path": "/2sc7qoLTqZC0nB2k1crwuVoKP6H.jpg", "popularity": 15.669}, {"id": 13576, "video": false, "vote_count": 509, "vote_average": 6.9, "title": "This Is It", "release_date": "2009-10-28", "original_language": "en", "original_title": "This Is It", "genre_ids": [99, 10402], "backdrop_path": "/w7yzaQ7P2UBtSyMqMOx0zNxc3wB.jpg", "adult": false, "overview": "A compilation of interviews, rehearsals and backstage footage of Michael Jackson as he prepared for his series of sold-out shows in London.", "poster_path": "/4ZgT8FRJxxpG0mgOIPeCgjzAsBR.jpg", "popularity": 11.776}, {"id": 20313, "video": true, "vote_count": 20, "vote_average": 8.7, "title": "Where the Light Is: John Mayer Live in Los Angeles", "release_date": "2008-07-01", "original_language": "en", "original_title": "Where the Light Is: John Mayer Live in Los Angeles", "genre_ids": [10402], "backdrop_path": "/3hRjAtEvLGdRpznktxZRnVmdilz.jpg", "adult": false, "overview": "Where The Light Is: John Mayer Live in Los Angeles captures the multi-Grammy\u00ae Award-winning, Platinum-selling singer/songwriter in the element where fans love him the most: live on stage. This special concert includes three sets: an acoustic performance, a rare set with John Mayer Trio (John Mayer, Steve Jordan and Pino Palladino), as well as a set featuring Mayer's full band.", "poster_path": "/laZt8OKutRXptSbwbMLWlWGoIPM.jpg", "popularity": 4.422}, {"adult": false, "backdrop_path": "/2aHM8lYzcaO4MfN7VNvo1QFU0ft.jpg", "genre_ids": [99, 10402], "id": 373558, "original_language": "en", "original_title": "Taylor Swift: The 1989 World Tour - Live", "overview": "Taylor delivers the concert event of the year. Filmed at Sydney's ANZ Stadium in front of 76,000 fans, The 1989 World Tour - Live captures the excitement and energy of the hottest pop star in the world. Filled with great music, an electrifying stage show, and superstar guest appearances, the concert film is only on Apple Music.", "poster_path": "/kzXe8kscKo83BwGvIofWg6SCR7n.jpg", "release_date": "2015-12-20", "title": "Taylor Swift: The 1989 World Tour - Live", "video": false, "vote_average": 8.3, "vote_count": 65, "popularity": 10.446}, {"adult": false, "backdrop_path": "/iOGODt9Z92SHVEyuEQiN8wYidmQ.jpg", "genre_ids": [16, 878, 12, 14, 10402], "id": 11827, "original_language": "en", "original_title": "Heavy Metal", "overview": "A glowing orb terrorizes a young girl with a collection of stories of dark fantasy, eroticism and horror.", "poster_path": "/atUtWrDlLzT1yeVK2EoYtvbS963.jpg", "release_date": "1981-08-07", "title": "Heavy Metal", "video": false, "vote_average": 6.3, "vote_count": 316, "popularity": 19.299}, {"id": 332562, "video": false, "vote_count": 7182, "vote_average": 7.5, "title": "A Star Is Born", "release_date": "2018-10-03", "original_language": "en", "original_title": "A Star Is Born", "genre_ids": [18, 10402, 10749], "backdrop_path": "/mnDvPokXpvsdPcWSjNRPhiiLOKu.jpg", "adult": false, "overview": "Seasoned musician Jackson Maine discovers \u2014 and falls in love with \u2014 struggling artist Ally. She has just about given up on her dream to make it big as a singer \u2014 until Jack coaxes her into the spotlight. But even as Ally's career takes off, the personal side of their relationship is breaking down, as Jack fights an ongoing battle with his own internal demons.", "poster_path": "/wrFpXMNBRj2PBiN4Z5kix51XaIZ.jpg", "popularity": 37.528}, {"adult": false, "backdrop_path": "/oT79THuFrcBzrhlf4fiCddwZBCQ.jpg", "genre_ids": [18, 10402, 10749], "id": 69, "original_language": "en", "original_title": "Walk the Line", "overview": "A chronicle of country music legend Johnny Cash's life, from his early days on an Arkansas cotton farm to his rise to fame with Sun Records in Memphis, where he recorded alongside Elvis Presley, Jerry Lee Lewis and Carl Perkins.", "poster_path": "/wdxL3Zyh3O5MIbmsSiZEevJAjtQ.jpg", "release_date": "2005-09-13", "title": "Walk the Line", "video": false, "vote_average": 7.5, "vote_count": 1545, "popularity": 15.437}, {"id": 11887, "video": false, "vote_count": 2347, "vote_average": 6.5, "title": "High School Musical 3: Senior Year", "release_date": "2008-10-11", "original_language": "en", "original_title": "High School Musical 3: Senior Year", "genre_ids": [35, 18, 10402, 10749, 10751], "backdrop_path": "/daSGxGZL2nNjGZKkAF5ain3lmOx.jpg", "adult": false, "overview": "It's almost graduation day for high school seniors Troy, Gabriella, Sharpay, Chad, Ryan and Taylor \u2015 and the thought of heading off in separate directions after leaving East High has these Wildcats thinking they need to do something they'll remember forever. Together with the rest of the Wildcats, they stage a spring musical reflecting their hopes and fears about the future and their unforgettable experiences growing up together. But with graduation approaching and college plans in question, what will become of the dreams, romances, and friendships of East High's senior Wildcats?", "poster_path": "/ewZpH2QIfPQ0VIn9lPf7MHbLbl4.jpg", "popularity": 14.748}, {"adult": false, "backdrop_path": "/6bnI08rrGXRkngRqJWCMXDZuJ1j.jpg", "genre_ids": [35, 10402], "id": 254470, "original_language": "en", "original_title": "Pitch Perfect 2", "overview": "The Bellas are back, and they are better than ever. After being humiliated in front of none other than the President of the United States of America, the Bellas are taken out of the Aca-Circuit. In order to clear their name, and regain their status, the Bellas take on a seemingly impossible task: winning an international competition no American team has ever won. In order to accomplish this monumental task, they need to strengthen the bonds of friendship and sisterhood and blow away the competition with their amazing aca-magic! With all new friends and old rivals tagging along for the trip, the Bellas can hopefully accomplish their dreams.", "poster_path": "/qSjruLiFB4uqRtz2xheQPxG8uaB.jpg", "release_date": "2015-05-07", "title": "Pitch Perfect 2", "video": false, "vote_average": 6.8, "vote_count": 3901, "popularity": 29.697}, {"adult": false, "backdrop_path": "/ePqwTIoJeKJwShMABMst5duBcw9.jpg", "genre_ids": [35, 10402, 10749], "id": 114150, "original_language": "en", "original_title": "Pitch Perfect", "overview": "College student Beca knows she does not want to be part of a clique, but that's exactly where she finds herself after arriving at her new school. Thrust in among mean gals, nice gals and just plain weird gals, Beca finds that the only thing they have in common is how well they sing together. She takes the women of the group out of their comfort zone of traditional arrangements and into a world of amazing harmonic combinations in a fight to the top of college music competitions.", "poster_path": "/cLUMPdwCV0Dxd3P1ZkCXe7bVImI.jpg", "release_date": "2012-09-28", "title": "Pitch Perfect", "video": false, "vote_average": 7.3, "vote_count": 4622, "popularity": 16.878}, {"id": 313369, "video": false, "vote_count": 11063, "vote_average": 7.9, "title": "La La Land", "release_date": "2016-11-29", "original_language": "en", "original_title": "La La Land", "genre_ids": [35, 18, 10402, 10749], "backdrop_path": "/fp6X6yhgcxzxCpmM0EVC6V9B8XB.jpg", "adult": false, "overview": "Mia, an aspiring actress, serves lattes to movie stars in between auditions and Sebastian, a jazz musician, scrapes by playing cocktail party gigs in dingy bars, but as success mounts they are faced with decisions that begin to fray the fragile fabric of their love affair, and the dreams they worked so hard to maintain in each other threaten to rip them apart.", "poster_path": "/ylXCdC106IKiarftHkcacasaAcb.jpg", "popularity": 39.654}, {"adult": false, "backdrop_path": "/bxPw6s61bG5Of19lp1E00n0dDWW.jpg", "genre_ids": [35, 18, 10751, 10402, 10770], "id": 10947, "original_language": "en", "original_title": "High School Musical", "overview": "Troy, the popular captain of the basketball team, and Gabriella, the brainy and beautiful member of the academic club, break all the rules of East High society when they secretly audition for the leads in the school's musical. As they reach for the stars and follow their dreams, everyone learns about acceptance, teamwork, and being yourself.", "poster_path": "/xMRBlTMMKDRJuK4IhwG5idrGHaS.jpg", "release_date": "2006-01-20", "title": "High School Musical", "video": false, "vote_average": 6.5, "vote_count": 2983, "popularity": 14.165}, {"id": 653567, "video": false, "vote_count": 0, "vote_average": 0.0, "title": "Miss Americana", "release_date": "2020-01-23", "original_language": "en", "original_title": "Miss Americana", "genre_ids": [99], "backdrop_path": "/sKBaoiGW5JdPazIlwQlZeXeITXq.jpg", "adult": false, "overview": "A raw and emotionally revealing look at one of the most iconic artists of our time during a transformational period in her life as she learns to embrace her role not only as a songwriter and performer, but as a woman harnessing the full power of her voice.", "poster_path": "/fmHMmBl3VftWdLTy8E1mvWCgLe7.jpg", "popularity": 19.526}, {"adult": false, "backdrop_path": "/ljjr1LTE6Xsg8bQxcymXhcaQyLw.jpg", "genre_ids": [35, 10751, 14, 16], "id": 6477, "original_language": "en", "original_title": "Alvin and the Chipmunks", "overview": "A struggling songwriter named Dave Seville finds success when he comes across a trio of singing chipmunks: mischievous leader Alvin, brainy Simon, and chubby, impressionable Theodore.", "poster_path": "/sAt2yb4dgrpkHjbB9dQaKD9Caor.jpg", "release_date": "2007-12-13", "title": "Alvin and the Chipmunks", "video": false, "vote_average": 5.7, "vote_count": 2746, "popularity": 14.626}, {"id": 313922, "video": false, "vote_count": 1485, "vote_average": 6.8, "title": "Green Room", "release_date": "2016-04-15", "original_language": "en", "original_title": "Green Room", "genre_ids": [80, 27, 53], "backdrop_path": "/w5TW2cLJknpWRYjmyuwfsQ1jFDA.jpg", "adult": false, "overview": "A punk rock band becomes trapped in a secluded venue after finding a scene of violence. For what they saw, the band themselves become targets of violence from a gang of white power skinheads, who want to eliminate all evidence of the crime.", "poster_path": "/sTlPvjdQrrv5cLH410aMlSxqi0x.jpg", "popularity": 12.641}], "total_pages": 288, "total_results": 5755}, "recommendations": {"page": 1, "results": [{"adult": false, "backdrop_path": "/mxA7R71misKEgz7kca9xC54YNIj.jpg", "genre_ids": [35, 18], "id": 191698, "original_language": "en", "original_title": "2 Jacks", "overview": "Jack Hussar is a legendary Hollywood director, whose persona commands respect and adoration from his fans. Can his son, Jack Jr. maintain his legacy?", "poster_path": "/q6EmDawN7SEcEjzLNZYojq6WEmd.jpg", "release_date": "2012-08-23", "title": "2 Jacks", "video": false, "vote_average": 5.9, "vote_count": 8, "popularity": 3.335}, {"adult": false, "backdrop_path": "/tm8fCdBLj1FIYfVWwbUqlJlzbcP.jpg", "genre_ids": [35], "id": 510095, "original_language": "en", "original_title": "Baja", "overview": "Four 22 year-olds on a Mexican road trip seem bound for disaster until they, and their trip, are unexpectedly redeemed by a series of miraculous events.", "poster_path": "/9EVbnMh0YRZaarjW3tA7iexLDAc.jpg", "release_date": "2018-04-01", "title": "Baja", "video": false, "vote_average": 6.4, "vote_count": 7, "popularity": 3.745}, {"adult": false, "backdrop_path": "/skJbiTKdAycO8sj6KaXShJOhPJ0.jpg", "genre_ids": [99, 36, 10402], "id": 567979, "original_language": "en", "original_title": "America's Blues", "overview": "America's Blues takes a new angle on the Blues, focusing on, not only the musical impact it has had on all forms of Popular American Music, but also the influence it has had on art, fashion, language, film and racial equality.", "poster_path": "/r4UPQfA74LWVcq5c1KIMI1KcHYD.jpg", "release_date": "2015-06-05", "title": "America's Blues", "video": false, "vote_average": 8.3, "vote_count": 3, "popularity": 1.464}, {"adult": false, "backdrop_path": "/oXoWnINeLEiN5y7DDlzAmXuLwwq.jpg", "genre_ids": [12, 35, 14], "id": 579296, "original_language": "en", "original_title": "Abnormal Attraction", "overview": "In a world where mythical creatures are real, monsters and humans are forced to coexist; and as prejudice and insecurity pulls everyone apart, three separate storylines manage to come together.", "poster_path": "/ljOaX35V09izGupAEx8h8saFd7n.jpg", "release_date": "2018-03-01", "title": "Abnormal Attraction", "video": false, "vote_average": 6.6, "vote_count": 5, "popularity": 5.231}, {"adult": false, "backdrop_path": "/jgjP3u7gfiAQ9YiynJH3tFBePzr.jpg", "genre_ids": [35], "id": 558117, "original_language": "en", "original_title": "Burguesinha", "overview": "When her Brazilian, senator father is arrested for involving his entire family in campaign finance fraud, a spoiled, rich, Brazilian socialite must suddenly start a new life in America without friends, money, a place to live or a greencard.", "poster_path": "/5sV4p7sxYkZNnW98MpeEvrIMdtg.jpg", "release_date": "2017-10-05", "title": "The Socialite", "video": false, "vote_average": 6.0, "vote_count": 4, "popularity": 2.997}, {"adult": false, "backdrop_path": "/rkyZQedCsCLv10GW1UPqsZwZqIU.jpg", "genre_ids": [18, 10751, 53], "id": 482650, "original_language": "en", "original_title": "Cold November", "overview": "On the cusp of womanhood, 12-year-old Florence goes on her first deer hunt, a traditional rite-of- passage in her matriarchal family.", "poster_path": "/zbwYd2uujOJ4EGxt67Veg0E4Gde.jpg", "release_date": "2018-03-23", "title": "Cold November", "video": false, "vote_average": 6.9, "vote_count": 7, "popularity": 3.758}, {"adult": false, "backdrop_path": "/dVszwjtJP2rL4SbxoNzBOmXX2RT.jpg", "genre_ids": [18], "id": 120399, "original_language": "en", "original_title": "The King Is Dead!", "overview": "A happy, unsuspecting couple, Max (Dan Wyllie) and Therese (Bojana Novakovic), buy a house in what appears to be a quiet, friendly neighbourhood. Settling in well, they make friends with a nice family on one side and soon meet a more interesting family on the other side. But interesting soon becomes loud and loud soon becomes intolerable. When the intolerable becomes violent and the police are powerless, Max and Therese attempt to take matters into their own hands.", "poster_path": "/1nrcwAyVhiTZqOoKFeSr3I46WIn.jpg", "release_date": "2012-07-12", "title": "The King Is Dead!", "video": false, "vote_average": 5.7, "vote_count": 13, "popularity": 3.718}, {"id": 287284, "video": false, "vote_count": 12, "vote_average": 4.6, "title": "Swung", "release_date": "2015-06-19", "original_language": "en", "original_title": "Swung", "genre_ids": [18, 10749], "backdrop_path": "/UKGQSxXZsG2EikC2cAS8J88Y4X.jpg", "adult": false, "overview": "David\u2019s life is on the slide: he\u2019s broke, in the middle of a divorce and \u2018can\u2019t get it up\u2019.  His girlfriend, Alice, is his rock, but the magazine she writes for is going down and the pressure is on to find a story.  While job hunting online, David stumbles across the perfect antidote to his boredom: a \u2018Swingers\u2019 site. The resulting inbox of lewd invitations on the home-laptop justifiably upsets Alice, until she realises this could be just the \u2018story\u2019 she needs.  The idea of uncovering the swinging scene causes quite a stir in Alice\u2019s office and, much to David\u2019s chagrin, she is urged to pursue the story.  Their first reluctant foray is an hysterically low-rent initiation, however, an unexpected upturn for David\u2019s manhood is all the extra encouragement they need.  As events accelerate beyond their control the once adoring couple become lost and fundamental questions are asked of their relationship.", "poster_path": "/wRjm5zztXRUYhXEl3FQKbIbgtMC.jpg", "popularity": 8.681}, {"adult": false, "backdrop_path": "/iVwp3G9eaVofN2uPSOcP5kEw5eT.jpg", "genre_ids": [18, 35], "id": 274480, "original_language": "en", "original_title": "Among Ravens", "overview": "The story of a group of friends who reunite for their annual 4th of July weekend only to be confronted by Chad, a strange and beautiful nature photographer who begins to change their lives one by one.", "poster_path": "/6v976yjTa3Ppb2XjE8gzBBYJqax.jpg", "release_date": "2014-07-18", "title": "Among Ravens", "video": false, "vote_average": 5.4, "vote_count": 13, "popularity": 3.933}], "total_pages": 1, "total_results": 9}, "credits": {"cast": [{"cast_id": 2, "character": "Self", "credit_id": "5b8052949251416c820157d9", "gender": 2, "id": 1207009, "name": "Milo Auckerman", "order": 1, "profile_path": null}, {"cast_id": 3, "character": "Self", "credit_id": "5b8052a50e0a2660a001493d", "gender": 0, "id": 2114435, "name": "Stephen Egerton", "order": 2, "profile_path": null}, {"cast_id": 4, "character": "Self", "credit_id": "5b8052c50e0a2660a8014bb8", "gender": 2, "id": 1859804, "name": "Tony Lombardo", "order": 3, "profile_path": null}, {"cast_id": 5, "character": "Self", "credit_id": "5b8052d30e0a2660a001498c", "gender": 0, "id": 2114436, "name": "Bill Stevenson", "order": 4, "profile_path": null}, {"cast_id": 6, "character": "Self", "credit_id": "5b8052fd9251416c80012477", "gender": 0, "id": 1160020, "name": "Dave Smalley", "order": 5, "profile_path": null}, {"cast_id": 7, "character": "Self", "credit_id": "5b805308c3a3687e0a018481", "gender": 0, "id": 1943748, "name": "Doug Carrion", "order": 6, "profile_path": null}, {"cast_id": 8, "character": "Self", "credit_id": "5b8053239251416c800124bd", "gender": 0, "id": 2114437, "name": "Frank Navetta", "order": 7, "profile_path": null}], "crew": [{"credit_id": "54e11b0492514119560062ca", "department": "Directing", "gender": 2, "id": 1427689, "job": "Director", "name": "Matt Riggle", "profile_path": null}, {"credit_id": "54e11b0c92514119560062cf", "department": "Directing", "gender": 0, "id": 1427690, "job": "Director", "name": "Deedle Lacour", "profile_path": null}]}}