{"adult": false, "backdrop_path": "/2R0kxI6CiKkOIctbDn25OLNiHgf.jpg", "belongs_to_collection": null, "budget": 0, "genres": [{"id": 35, "name": "Comedy"}], "homepage": null, "id": 21059, "imdb_id": "tt0339071", "original_language": "en", "original_title": "Girls Will Be Girls", "overview": "The confessional, behind-the-scenes showbiz melodrama goes under the knife \u2014 so to speak \u2014 in this drag comedy. \"Girls Will Be Girls\" casts three male performers in the roles of Evie Harris (Jack Plotnick), a has-been starlet of the '70s who has since gone to seed in her decaying Hollywood home; her best friend and domestic servant, Coco (Clinton Leupp); and Varla (Jeffrey Roberson), the daughter of a deceased peer/rival of Evie's who shows up to rent out a room in her home. The tension among the trio of women escalates as Evie prepares for a pull-out-all-the-stops television special commemorating her past career glories, which include sundry disaster movies and TV variety shows. What Evie doesn't know is that the na\u00efve-seeming Varla has a debt to settle for her deceased mom, and will stop at nothing to seek vengeance.", "popularity": 3.819, "poster_path": "/lFrZNE2ekEL7y9RxtaxnDjq4Ca1.jpg", "production_companies": [{"id": 3896, "logo_path": null, "name": "SRO Pictures", "origin_country": ""}], "production_countries": [{"iso_3166_1": "US", "name": "United States of America"}], "release_date": "2003-07-05", "revenue": 0, "runtime": 79, "spoken_languages": [], "status": "Released", "tagline": "", "title": "Girls Will Be Girls", "video": false, "vote_average": 5.8, "vote_count": 12, "keywords": {"keywords": [{"id": 237, "name": "gay"}, {"id": 824, "name": "drag queen"}, {"id": 9755, "name": "parody"}, {"id": 10183, "name": "independent film"}, {"id": 12396, "name": "hollywood, california"}]}, "similar": {"page": 1, "results": [{"id": 449176, "video": false, "vote_count": 3690, "vote_average": 8.1, "title": "Love, Simon", "release_date": "2018-02-16", "original_language": "en", "original_title": "Love, Simon", "genre_ids": [35, 18, 10749], "backdrop_path": "/rqMEeajyzSF4PpJtdCB816Iz8Vr.jpg", "adult": false, "overview": "Everyone deserves a great love story. But for seventeen-year old Simon Spier it's a little more complicated: he's yet to tell his family or friends he's gay and he doesn't know the identity of the anonymous classmate he's fallen for online.", "poster_path": "/5YUYg5q7QfC4IoNwNUtiwdiYKPr.jpg", "popularity": 24.849}, {"adult": false, "backdrop_path": "/qbrmEfBEcdrzHSAHgazJWmz3TSU.jpg", "genre_ids": [18], "id": 616229, "original_language": "en", "original_title": "The Male Gaze: The Heat of the Night", "overview": "When darkness falls, temperatures rise in these six stories about late night confessions, intimacy for sale, high speed hookups and full moon frissons. But when the sun comes up and reality reveals itself, will it have all been worth it?", "poster_path": "/e1gNLO829rkE73sBJ3aClZJHNXd.jpg", "release_date": "2019-07-15", "title": "The Male Gaze: The Heat of the Night", "video": false, "vote_average": 3.3, "vote_count": 3, "popularity": 13.056}, {"adult": false, "backdrop_path": "/4NJplkljN06NQLMLSUNmrIsBjBZ.jpg", "genre_ids": [35, 18], "id": 400547, "original_language": "en", "original_title": "Hurricane Bianca", "overview": "Hurricane Bianca is a revenge comedy about a New York teacher who moves to a small town in Texas, gets fired for being gay, and returns disguised in drag to get revenge on the people who were nasty to him.", "poster_path": "/w1QM09R1TqwHTb5UA8X8jR2yh4x.jpg", "release_date": "2016-06-03", "title": "Hurricane Bianca", "video": false, "vote_average": 6.2, "vote_count": 212, "popularity": 10.051}, {"adult": false, "backdrop_path": "/s12HEmmkJfI2mjltI61hGm5kubD.jpg", "genre_ids": [35, 18, 10749], "id": 20770, "original_language": "en", "original_title": "But I'm a Cheerleader", "overview": "Megan is an all-American girl. A cheerleader. She has a boyfriend. But Megan doesn't like kissing her boyfriend very much. And she's pretty touchy with her cheerleader friends. Her conservative parents worry that she must be a lesbian and send her off to \"sexual redirection\" school, where she must, with other lesbians and gays learn how to be straight.", "poster_path": "/eDGH7CHSdkrYcuUJV1e0WS9DlQL.jpg", "release_date": "1999-12-09", "title": "But I'm a Cheerleader", "video": false, "vote_average": 6.8, "vote_count": 246, "popularity": 10.067}, {"adult": false, "backdrop_path": "/6VhtzImP1UvYkIAHS4L8yfmceOM.jpg", "genre_ids": [18], "id": 26280, "original_language": "fr", "original_title": "J'ai tu\u00e9 ma m\u00e8re", "overview": "Hubert, a brash 17-year-old, is confused and torn by a love-hate relationship with his mother that consumes him more and more each day. After distressing ordeals and tragic episodes, Hubert will find his mother on the banks of Saint Lawrence river, where he grew up, and where a murder will be committed: the murder of childhood.", "poster_path": "/cxb02CLALt9He1Dt0BIDKj9fdvM.jpg", "release_date": "2009-06-05", "title": "I Killed My Mother", "video": false, "vote_average": 7.7, "vote_count": 655, "popularity": 9.653}, {"id": 21634, "video": false, "vote_count": 250, "vote_average": 7.9, "title": "Prayers for Bobby", "release_date": "2009-02-27", "original_language": "en", "original_title": "Prayers for Bobby", "genre_ids": [18, 36, 10770], "backdrop_path": "/pSjGsbqyKUzF8rHzL0vtVWV1pS6.jpg", "adult": false, "overview": "Bobby Griffith was his mother's favorite son, the perfect all-American boy growing up under deeply religious influences in Walnut Creek, California. Bobby was also gay. Struggling with a conflict no one knew of much less understood Bobby finally came out to his family.", "poster_path": "/d9TGJxEMkLTEF5lWAx1PLNDNpA0.jpg", "popularity": 11.874}, {"id": 15708, "video": false, "vote_count": 134, "vote_average": 7.0, "title": "Latter Days", "release_date": "2003-07-10", "original_language": "en", "original_title": "Latter Days", "genre_ids": [35, 18, 10749], "backdrop_path": "/reLMKZKtOdyuir23G6xpZ5c4zTU.jpg", "adult": false, "overview": "Christian, a hunky, 20-something, West Hollywood party boy gets more than he bargains for when he tries to seduce 19-year-old Elder Aaron Davis, a sexually confused Mormon missionary who moves into his apartment complex.", "poster_path": "/wZGcUBqv0YfD84SmkBAGEjh5Hvc.jpg", "popularity": 13.426}, {"id": 2255, "video": false, "vote_count": 772, "vote_average": 6.8, "title": "Chasing Amy", "release_date": "1997-04-04", "original_language": "en", "original_title": "Chasing Amy", "genre_ids": [35, 18, 10749], "backdrop_path": "/doKYVK61Vb8J1KUjlb9dNWkQNp6.jpg", "adult": false, "overview": "Holden and Banky are comic book artists. Everything is going good for them until they meet Alyssa, also a comic book artist. Holden falls for her, but his hopes are crushed when he finds out she's a lesbian.", "poster_path": "/4vFJileWrCGaBeobCmF0tXpQCUb.jpg", "popularity": 11.325}, {"adult": false, "backdrop_path": "/hU7YAbnf49QLnvxs30aCgGgSb9T.jpg", "genre_ids": [35], "id": 11000, "original_language": "en", "original_title": "The Birdcage", "overview": "A gay cabaret owner and his drag queen companion agree to put up a false straight front so that their son can introduce them to his fianc\u00e9's conservative moralistic parents.", "poster_path": "/wRTkvqRTB05gcGInsnGqVgLkb3t.jpg", "release_date": "1996-03-08", "title": "The Birdcage", "video": false, "vote_average": 7.0, "vote_count": 597, "popularity": 14.808}, {"adult": false, "backdrop_path": "/da8Kj1bgPvL8Tf1PgkA70UwmYzh.jpg", "genre_ids": [35, 18, 10749], "id": 10938, "original_language": "en", "original_title": "Beautiful Thing", "overview": "Set during a long, hot summer on the Thamesmead Estate in Southeast London, three teenagers edge towards adulthood.", "poster_path": "/8z1ZkZoznIGLyx4xHEaQNZqG63D.jpg", "release_date": "1996-06-21", "title": "Beautiful Thing", "video": false, "vote_average": 7.5, "vote_count": 154, "popularity": 10.559}, {"adult": false, "backdrop_path": "/qs4P8THxjbMZYc9QuZvzN95KzBM.jpg", "genre_ids": [18, 53, 9648], "id": 184352, "original_language": "fr", "original_title": "Tom \u00e0 la ferme", "overview": "A young man travels to an isolated farm for his lover's funeral where he's quickly drawn into a twisted, sexually charged game by his lover's aggressive brother.", "poster_path": "/wS4oYOHEKva9sMLOHSr7tW19SaQ.jpg", "release_date": "2013-09-02", "title": "Tom at the Farm", "video": false, "vote_average": 6.9, "vote_count": 408, "popularity": 7.517}, {"adult": false, "backdrop_path": "/useuHJQ5HOoEWkAvEjL1FW1sUfe.jpg", "genre_ids": [18], "id": 376867, "original_language": "en", "original_title": "Moonlight", "overview": "The tender, heartbreaking story of a young man\u2019s struggle to find himself, told across three defining chapters in his life as he experiences the ecstasy, pain, and beauty of falling in love, while grappling with his own sexuality.", "poster_path": "/qAwFbszz0kRyTuXmMeKQZCX3Q2O.jpg", "release_date": "2016-10-21", "title": "Moonlight", "video": false, "vote_average": 7.4, "vote_count": 4406, "popularity": 27.348}, {"id": 424694, "video": false, "vote_count": 9721, "vote_average": 8.0, "title": "Bohemian Rhapsody", "release_date": "2018-10-24", "original_language": "en", "original_title": "Bohemian Rhapsody", "genre_ids": [18, 10402], "backdrop_path": "/93xA62uLd5CwMOAs37eQ7vPc1iV.jpg", "adult": false, "overview": "Singer Freddie Mercury, guitarist Brian May, drummer Roger Taylor and bass guitarist John Deacon take the music world by storm when they form the rock 'n' roll band Queen in 1970. Hit songs become instant classics. When Mercury's increasingly wild lifestyle starts to spiral out of control, Queen soon faces its greatest challenge yet \u2013 finding a way to keep the band together amid the success and excess.", "poster_path": "/lHu1wtNaczFPGFDTrjCSzeLPTKN.jpg", "popularity": 40.186}, {"adult": false, "backdrop_path": "/cLOekK7EmHB1beYUYEXIlcr6mpS.jpg", "genre_ids": [10752, 36, 28, 12, 18, 10749], "id": 1966, "original_language": "en", "original_title": "Alexander", "overview": "Alexander, the King of Macedonia, leads his legions against the giant Persian Empire. After defeating the Persians, he leads his army across the then known world, venturing farther than any westerner had ever gone, all the way to India.", "poster_path": "/cJrnmbsFm5cEt0pHZZ2a1ueH5aT.jpg", "release_date": "2004-11-21", "title": "Alexander", "video": false, "vote_average": 5.8, "vote_count": 1987, "popularity": 24.267}, {"adult": false, "backdrop_path": "/kDaq8QVfOc83qGoCwFuNvGGg54J.jpg", "genre_ids": [35, 18, 10749], "id": 9261, "original_language": "zh", "original_title": "\u559c\u5bb4", "overview": "A Taiwanese-American man is happily settled in New York with his American boyfriend. He plans a marriage of convenience to a Chinese woman in order to keep his parents off his back and to get the woman a green card. Chaos follows when his parents arrive in New York for the wedding.", "poster_path": "/5oOmx1qLY7WtNpWQC0QXmD04ke2.jpg", "release_date": "1993-08-04", "title": "The Wedding Banquet", "video": false, "vote_average": 7.2, "vote_count": 94, "popularity": 7.489}, {"adult": false, "backdrop_path": "/QM7paiUdsP7svJqCQCM0BCGUM7.jpg", "genre_ids": [18, 35, 10749], "id": 19151, "original_language": "en", "original_title": "East Side Story", "overview": "In this playfully provocative story set amidst the often-turbulent backdrop of gentrification, things get hot when an openly gay white couple moves into an East L.A. neighborhood where the locals have more than skeletons in their closets. The arrival of the Anglo newcomers rocks the quiet world of Diego Campos (Rene Alvarado), a handsome young local who is tired of being played for a boy toy by his closeted real estate agent lover Pablo (David Beron). Will Diego stay at home and fulfill his Mexican grandmother\u2019s desire for him to inherit the family restaurant - or will he follow his heart and become a chef in the big city? Award winning producer Carlos Portugal makes his directorial debut with a winning combination of quirky characters, rich storylines and suggestive situations that will appeal to fans of Latino telenovelas and popular series such as \"Sex and the City,\" \"Ugly Betty\" and \"Queer As Folk.\"", "poster_path": "/vAnj0nIESOt6agbm3uB6pln9XVt.jpg", "release_date": "2006-01-01", "title": "East Side Story", "video": false, "vote_average": 5.6, "vote_count": 13, "popularity": 5.004}, {"id": 490132, "video": false, "vote_count": 5172, "vote_average": 8.3, "title": "Green Book", "release_date": "2018-11-16", "original_language": "en", "original_title": "Green Book", "genre_ids": [35, 18], "backdrop_path": "/78PjwaykLY2QqhMfWRDvmfbC6EV.jpg", "adult": false, "overview": "Tony Lip, a bouncer in 1962, is hired to drive pianist Don Shirley on a tour through the Deep South in the days when African Americans, forced to find alternate accommodations and services due to segregation laws below the Mason-Dixon Line, relied on a guide called The Negro Motorist Green Book.", "poster_path": "/7BsvSuDQuoqhWmU2fL7W2GOcZHU.jpg", "popularity": 35.522}, {"adult": false, "backdrop_path": "/zjG95oDnBcFKMPgBEmmuNVOMC90.jpg", "genre_ids": [35, 18], "id": 299782, "original_language": "en", "original_title": "The Other Side of the Wind", "overview": "Surrounded by fans and skeptics, grizzled director J.J. \"Jake\" Hannaford returns from years abroad in Europe to a changed Hollywood, where he attempts to make his innovative comeback film.", "poster_path": "/kFky1paYEfHxfCYByEc9g7gn6Zk.jpg", "release_date": "2018-11-02", "title": "The Other Side of the Wind", "video": false, "vote_average": 6.9, "vote_count": 79, "popularity": 8.27}, {"adult": false, "backdrop_path": "/vTOvVBrcxx0rqTuX1pcdPKXjohY.jpg", "genre_ids": [35, 80, 18], "id": 12079, "original_language": "en", "original_title": "Spun", "overview": "Over the course of three days Ross, a college dropout addicted to crystal-meth, encounters a variety of oddball folks - including a stripper named Nikki and her boyfriend, the local meth producer, The Cook - but all he really wants to do is hook up with his old girlfriend, Amy.", "poster_path": "/b7FNTUC8P2frIimPKH5qv5GLSda.jpg", "release_date": "2002-06-01", "title": "Spun", "video": false, "vote_average": 6.7, "vote_count": 244, "popularity": 10.05}, {"adult": false, "backdrop_path": "/3Mn05BZJvD0vrKpMAkHoZYYgHA1.jpg", "genre_ids": [18, 35], "id": 1420, "original_language": "en", "original_title": "Breakfast on Pluto", "overview": "In the 1970s, a foundling lad, Patrick \"Kitten\" Braden, comes of age by leaving his Irish town for London, in part to look for his mother and in part because his transgender nature is beyond the town's understanding.", "poster_path": "/14tmdb1PiLNDZf3VD29S2nUKVV0.jpg", "release_date": "2005-09-03", "title": "Breakfast on Pluto", "video": false, "vote_average": 7.3, "vote_count": 164, "popularity": 10.703}], "total_pages": 328, "total_results": 6543}, "recommendations": {"page": 1, "results": [{"adult": false, "backdrop_path": "/6LxINM5qTOMJTQEm16VAcKHmrlH.jpg", "genre_ids": [80, 18, 10749], "id": 154515, "original_language": "en", "original_title": "Dance, Fools, Dance", "overview": "When misfortune hits hard on the Jordan family of Chicago's upper class, Bonnie Jordan, a dazzling and witty girl, finds a job as an aspiring reporter; however, his naive younger brother Rodney takes a twisted path and gets involved with the wrong people.", "poster_path": "/hcIS27FprV4AT2LYFlDl2GnHACq.jpg", "release_date": "1931-02-07", "title": "Dance, Fools, Dance", "video": false, "vote_average": 6.5, "vote_count": 4, "popularity": 3.185}, {"id": 66701, "video": false, "vote_count": 11, "vote_average": 7.1, "title": "Heroes for Sale", "release_date": "1933-06-17", "original_language": "en", "original_title": "Heroes for Sale", "genre_ids": [18], "backdrop_path": "/kgRwjUo8gq5IVXlNRCinykMUQJJ.jpg", "adult": false, "overview": "Tom Holmes is someone guided by honesty and moral rectitude, a heroic veteran of the World War I marked by the unbearable suffering caused by his battle wounds, a traumatized but courageous man who will experience, in the years to come, the pain of misfortune but also the happiness of success and hope and love for other human beings.", "poster_path": "/aMoszS79MOVSoWtSP5IzZkPLGoY.jpg", "popularity": 2.717}, {"id": 77410, "video": false, "vote_count": 5, "vote_average": 7.0, "title": "Chris & Don: A Love Story", "release_date": "2007-06-13", "original_language": "en", "original_title": "Chris & Don: A Love Story", "genre_ids": [99, 10749], "backdrop_path": "/u3bPnNsTAi4Q1pSJHxny7iLutkR.jpg", "adult": false, "overview": "Chris & Don: A Love Story is a 2007 documentary film that chronicles the lifelong relationship between author Christopher Isherwood and his much younger lover, artist Don Bachardy. Chris & Don combines present-day interviews, archival footage shot by the couple from the 1950s, excerpts from Isherwood's diaries, and playful animations to recount their romance. It was directed by Guido Santi and Tina Mascara, and was the centerpiece film at NewFest, the New York LGBTQ Film Festival, in 2008.", "poster_path": "/8v77384s5xeNJahVdlOfKUEFNkX.jpg", "popularity": 2.56}, {"adult": false, "backdrop_path": "/AaWTAAuofsJFFDmsoCMnPbYupkU.jpg", "genre_ids": [18, 36], "id": 84274, "original_language": "en", "original_title": "Disraeli", "overview": "Prime Minister of Great Britain Benjamin Disraeli outwits the subterfuge of the Russians and chicanery at home in order to secure the purchase of the Suez Canal.", "poster_path": "/eVJpfh42k1SXkwyAQGzEdM3xSvf.jpg", "release_date": "1929-11-01", "title": "Disraeli", "video": false, "vote_average": 6.9, "vote_count": 7, "popularity": 3.419}, {"id": 20675, "video": false, "vote_count": 11, "vote_average": 6.3, "title": "The Beast of the City", "release_date": "1932-02-13", "original_language": "en", "original_title": "The Beast of the City", "genre_ids": [80, 18, 10749], "backdrop_path": "/erKYTvd2iojuTks9vDhXkuYEHxJ.jpg", "adult": false, "overview": "Police Chief Jim Fitzpatrick is after gangster Sam Belmonte. He uses his corrupt brother Ed to watch over Daisy who was associated with Belmonte.", "poster_path": "/ukQz6FruiN9Q16xiox18bhnoCGS.jpg", "popularity": 3.769}, {"adult": false, "backdrop_path": "/3LNBgCtT7IZfw9JafARuOETvwzv.jpg", "genre_ids": [18], "id": 85504, "original_language": "en", "original_title": "The Sin of Madelon Claudet", "overview": "Out of jail for a crime she did not commit, Madelon turns to prostitution and thievery to send her illegitimate son to medical school.", "poster_path": "/6Y3PTsAukFXvHojykl3Z6rmfn5p.jpg", "release_date": "1931-10-23", "title": "The Sin of Madelon Claudet", "video": false, "vote_average": 6.4, "vote_count": 7, "popularity": 3.764}], "total_pages": 1, "total_results": 6}, "credits": {"cast": [{"cast_id": 3, "character": "Evie", "credit_id": "52fe440ac3a368484e00c041", "gender": 2, "id": 29795, "name": "Jack Plotnick", "order": 0, "profile_path": "/1BeShuLhc2HXZieyGEOVgDssAuR.jpg"}, {"cast_id": 4, "character": "Coco Peru", "credit_id": "52fe440ac3a368484e00c045", "gender": 2, "id": 60235, "name": "Miss Coco Peru", "order": 1, "profile_path": "/sDhG3dJ1IKF3jzOv3tsSBqY8QzB.jpg"}, {"cast_id": 5, "character": "Varla", "credit_id": "52fe440ac3a368484e00c049", "gender": 2, "id": 87040, "name": "Jeffery Roberson", "order": 2, "profile_path": null}, {"cast_id": 7, "character": "Stevie", "credit_id": "52fe440ac3a368484e00c04d", "gender": 2, "id": 87042, "name": "Ron Mathews", "order": 4, "profile_path": null}, {"cast_id": 8, "character": "Marla", "credit_id": "52fe440ac3a368484e00c051", "gender": 2, "id": 87040, "name": "Jeffery Roberson", "order": 5, "profile_path": null}], "crew": [{"credit_id": "538af5640e0a26670b00115a", "department": "Directing", "gender": 2, "id": 1213124, "job": "Director", "name": "Richard Day", "profile_path": null}, {"credit_id": "538af56e0e0a266702001132", "department": "Writing", "gender": 2, "id": 1213124, "job": "Writer", "name": "Richard Day", "profile_path": null}]}}