{"adult": false, "backdrop_path": "/n7rmQ1lZScTQ0PFonGb8RbimND8.jpg", "belongs_to_collection": null, "budget": 0, "genres": [{"id": 35, "name": "Comedy"}], "homepage": null, "id": 2106, "imdb_id": "tt0059282", "original_language": "en", "original_title": "Hot Enough for June", "overview": "A young man travels to Prague for his new employer, unaware that he is being used as an espionage courier.", "popularity": 3.707, "poster_path": "/dniUzNk8piReUMNKIOBrGrwnAFY.jpg", "production_companies": [{"id": 364, "logo_path": null, "name": "The Rank Organisation", "origin_country": ""}], "production_countries": [{"iso_3166_1": "GB", "name": "United Kingdom"}], "release_date": "1964-01-01", "revenue": 0, "runtime": 98, "spoken_languages": [{"iso_639_1": "en", "name": "English"}], "status": "Released", "tagline": "She's an eye catcher...He's a spy catcher", "title": "Hot Enough for June", "video": false, "vote_average": 6.5, "vote_count": 6, "keywords": {"keywords": [{"id": 2106, "name": "cold war"}]}, "similar": {"page": 1, "results": [{"id": 1374, "video": false, "vote_count": 2312, "vote_average": 6.9, "title": "Rocky IV", "release_date": "1985-11-21", "original_language": "en", "original_title": "Rocky IV", "genre_ids": [18], "backdrop_path": "/uvbjTLZSxGehXWDo1ENyVuBrYie.jpg", "adult": false, "overview": "After iron man Drago, a highly intimidating 6-foot-5, 261-pound Soviet athlete, kills Apollo Creed in an exhibition match, Rocky comes to the heart of Russia for 15 pile-driving boxing rounds of revenge.", "poster_path": "/jmvpwgW5M2kduR9zB0q8qGFC4zM.jpg", "popularity": 23.829}, {"id": 9604, "video": false, "vote_count": 723, "vote_average": 6.0, "title": "Red Heat", "release_date": "1988-06-17", "original_language": "en", "original_title": "Red Heat", "genre_ids": [28, 80], "backdrop_path": "/rqqaRqNMvnx3W5lnh4dFXqotMgO.jpg", "adult": false, "overview": "A tough Russian policeman is forced to partner up with a cocky Chicago police detective when he is sent to Chicago to apprehend a Georgian drug lord who killed his partner and fled the country.", "poster_path": "/tCBns5Uxpy82dvs0pztDtD2CeL8.jpg", "popularity": 14.576}, {"adult": false, "backdrop_path": "/bqpGceqQuHbtnjEqUG9acSYIVIh.jpg", "genre_ids": [18, 53, 9648], "id": 49517, "original_language": "en", "original_title": "Tinker Tailor Soldier Spy", "overview": "In the bleak days of the Cold War, espionage veteran George Smiley is forced from semi-retirement to uncover a Soviet mole within his former colleagues at the heart of MI6.", "poster_path": "/2N3P730TYXEcNL0BO8WBuMc6yJz.jpg", "release_date": "2011-09-16", "title": "Tinker Tailor Soldier Spy", "video": false, "vote_average": 6.7, "vote_count": 1545, "popularity": 18.392}, {"adult": false, "backdrop_path": "/3amJMLyjx0rDbwhnKNG8d6gzDSV.jpg", "genre_ids": [53, 18], "id": 296098, "original_language": "en", "original_title": "Bridge of Spies", "overview": "During the Cold War, the Soviet Union captures U.S. pilot Francis Gary Powers after shooting down his U-2 spy plane. Sentenced to 10 years in prison, Powers' only hope is New York lawyer James Donovan, recruited by a CIA operative to negotiate his release. Donovan boards a plane to Berlin, hoping to win the young man's freedom through a prisoner exchange. If all goes well, the Russians would get Rudolf Abel, the convicted spy who Donovan defended in court.", "poster_path": "/xPCNA8zJxyyFKTj47QpvkXHukzB.jpg", "release_date": "2015-10-15", "title": "Bridge of Spies", "video": false, "vote_average": 7.2, "vote_count": 4667, "popularity": 20.65}, {"id": 484641, "video": false, "vote_count": 783, "vote_average": 6.5, "title": "Anna", "release_date": "2019-06-19", "original_language": "fr", "original_title": "Anna", "genre_ids": [28, 53], "backdrop_path": "/pIL9e5cN6RNugDCCLwn3stfb9HE.jpg", "adult": false, "overview": "Beneath Anna Poliatova's striking beauty lies a secret that will unleash her indelible strength and skill to become one of the world's most feared government assassins.", "poster_path": "/oZcISsiWY4LiKERTV2alu8RWYdq.jpg", "popularity": 34.301}, {"id": 1669, "video": false, "vote_count": 1714, "vote_average": 7.4, "title": "The Hunt for Red October", "release_date": "1990-03-02", "original_language": "en", "original_title": "The Hunt for Red October", "genre_ids": [28, 12, 53], "backdrop_path": "/pXBGI43RCsbxNQNEPnkXC6GQMx3.jpg", "adult": false, "overview": "A new, technologically-superior Soviet sub, the Red October, is heading for the U.S. coast under the command of Captain Marko Ramius. The American government thinks Ramius is planning to attack. A lone CIA analyst has a different idea: he thinks Ramius is planning to defect, but he has only a few hours to find him and prove it \u2014 because the entire Russian naval and air commands are trying to find him, too.", "poster_path": "/bqvlKYlWq2uibsuVzKTWseeccd2.jpg", "popularity": 17.525}, {"id": 8665, "video": false, "vote_count": 501, "vote_average": 6.4, "title": "K-19: The Widowmaker", "release_date": "2002-07-19", "original_language": "en", "original_title": "K-19: The Widowmaker", "genre_ids": [18, 36, 9648, 53, 10752], "backdrop_path": "/tPhbQaiiFauAipdEuc9TQVgOmn6.jpg", "adult": false, "overview": "When Russia's first nuclear submarine malfunctions on its maiden voyage, the crew must race to save the ship and prevent a nuclear disaster.", "poster_path": "/sRLT9pkLnC9gjYnixxw99iLImzN.jpg", "popularity": 17.656}, {"adult": false, "backdrop_path": "/mv0QPfuEgelDInFKoijLhsDxm2x.jpg", "genre_ids": [18, 53], "id": 582, "original_language": "de", "original_title": "Das Leben der Anderen", "overview": "A tragic love story set in East Berlin with the backdrop of an undercover Stasi controlled culture. Stasi captain Wieler is ordered to follow author Dreyman and plunges deeper and deeper into his life until he reaches the threshold of doubting the system.", "poster_path": "/bzzDAg3fkztvfQB08VBprhs9tVE.jpg", "release_date": "2006-03-15", "title": "The Lives of Others", "video": false, "vote_average": 8.1, "vote_count": 1935, "popularity": 15.018}, {"id": 10386, "video": false, "vote_count": 3141, "vote_average": 7.8, "title": "The Iron Giant", "release_date": "1999-08-06", "original_language": "en", "original_title": "The Iron Giant", "genre_ids": [12, 16, 35, 878, 10751], "backdrop_path": "/7FE4OF0nNGL3BFS7NygJzTSLy91.jpg", "adult": false, "overview": "In the small town of Rockwell, Maine in October 1957, a giant metal machine befriends a nine-year-old boy and ultimately finds its humanity by unselfishly saving people from their own fears and prejudices.", "poster_path": "/rdN6IjV4xlDDhrT8ewkkJfPvp2e.jpg", "popularity": 16.89}, {"adult": false, "backdrop_path": "/oS1Ck6sbBnIReyactTdFlFF2Wkh.jpg", "genre_ids": [35, 28, 12], "id": 203801, "original_language": "en", "original_title": "The Man from U.N.C.L.E.", "overview": "At the height of the Cold War, a mysterious criminal organization plans to use nuclear weapons and technology to upset the fragile balance of power between the United States and Soviet Union. CIA agent Napoleon Solo and KGB agent Illya Kuryakin are forced to put aside their hostilities and work together to stop the evildoers in their tracks. The duo's only lead is the daughter of a missing German scientist, whom they must find soon to prevent a global catastrophe.", "poster_path": "/i9P3FU8z2Sd7jYRx6l1Iby0zP0o.jpg", "release_date": "2015-08-13", "title": "The Man from U.N.C.L.E.", "video": false, "vote_average": 7.1, "vote_count": 3844, "popularity": 20.194}, {"adult": false, "backdrop_path": "/vHLsgsvLtFWDlhBigKDRsYIC1p6.jpg", "genre_ids": [28, 9648, 53], "id": 27576, "original_language": "en", "original_title": "Salt", "overview": "As a CIA officer, Evelyn Salt swore an oath to duty, honor and country. Her loyalty will be tested when a defector accuses her of being a Russian spy. Salt goes on the run, using all her skills and years of experience as a covert operative to elude capture. Salt's efforts to prove her innocence only serve to cast doubt on her motives, as the hunt to uncover the truth behind her identity continues and the question remains: \"Who is Salt?\"", "poster_path": "/956xMjH4sPoqimqoLOP6AI19mjm.jpg", "release_date": "2010-07-21", "title": "Salt", "video": false, "vote_average": 6.3, "vote_count": 3533, "popularity": 20.188}, {"id": 152259, "video": false, "vote_count": 167, "vote_average": 5.9, "title": "Phantom", "release_date": "2013-01-03", "original_language": "en", "original_title": "Phantom", "genre_ids": [53], "backdrop_path": "/sIdrKGOnvJgVGClPysGwcEmHXG.jpg", "adult": false, "overview": "The haunted Captain of a Soviet submarine holds the fate of the world in his hands. Forced to leave his family behind, he is charged with leading a covert mission cloaked in mystery.", "poster_path": "/rjwEcrZsmljiA0GUFcLJ4wZ2DhA.jpg", "popularity": 9.142}, {"id": 7451, "video": false, "vote_count": 2623, "vote_average": 5.8, "title": "xXx", "release_date": "2002-08-09", "original_language": "en", "original_title": "xXx", "genre_ids": [28, 12, 9648, 53], "backdrop_path": "/gNI9gwuzVEnDYylNvMrMLcS7IzB.jpg", "adult": false, "overview": "Xander Cage is your standard adrenaline junkie with no fear and a lousy attitude. When the US Government \"recruits\" him to go on a mission, he's not exactly thrilled. His mission: to gather information on an organization that may just be planning the destruction of the world, led by the nihilistic Yorgi.", "poster_path": "/86BnliVDBo2TjKmrgQTJIPHxAKd.jpg", "popularity": 58.633}, {"id": 505914, "video": false, "vote_count": 76, "vote_average": 4.4, "title": "A.I. Rising", "release_date": "2018-02-25", "original_language": "en", "original_title": "A.I. Rising", "genre_ids": [18, 878, 10749], "backdrop_path": "/ddQ11EC7tiXJVNNHjGCMMQgJYNz.jpg", "adult": false, "overview": "On a lonely mission to Alpha Centauri, Milutin is teamed up with Nimani 1345, a female cyborg designed to fulfill his every need. At first thrilled to be able to control her, Sebastian grows tired of having his desires fulfilled so easily. Longing for human intimacy, Sebastian alters Nimani's programmed responses, but in doing so he risks the mission's security \u2014 and his own life.", "poster_path": "/aXosp6MFBxYi4m6ZmE4u1auReHc.jpg", "popularity": 19.05}, {"id": 181283, "video": false, "vote_count": 988, "vote_average": 6.2, "title": "Child 44", "release_date": "2015-03-15", "original_language": "en", "original_title": "Child 44", "genre_ids": [80, 53], "backdrop_path": "/A2WK7mdiKHaxgE4hRyKuDIM4KGg.jpg", "adult": false, "overview": "Set in Stalin-era Soviet Union, a disgraced MGB agent is dispatched to investigate a series of child murders -- a case that begins to connect with the very top of party leadership.", "poster_path": "/nzXwfnBcsmREzHlem6fkStN1RUH.jpg", "popularity": 17.414}, {"id": 657, "video": false, "vote_count": 1493, "vote_average": 7.1, "title": "From Russia with Love", "release_date": "1963-10-11", "original_language": "en", "original_title": "From Russia with Love", "genre_ids": [28, 12, 53], "backdrop_path": "/vemDErY5wkg2Yg5eTQ7ciPRuyqt.jpg", "adult": false, "overview": "Agent 007 is back in the second installment of the James Bond series, this time battling a secret crime organization known as SPECTRE. Russians Rosa Klebb and Kronsteen are out to snatch a decoding device known as the Lektor, using the ravishing Tatiana to lure Bond into helping them. Bond willingly travels to meet Tatiana in Istanbul, where he must rely on his wits to escape with his life in a series of deadly encounters with the enemy", "poster_path": "/fvIG285JwenrV1K6kVASi1TECJ0.jpg", "popularity": 20.662}, {"id": 341013, "video": false, "vote_count": 4063, "vote_average": 6.3, "title": "Atomic Blonde", "release_date": "2017-07-26", "original_language": "en", "original_title": "Atomic Blonde", "genre_ids": [28, 9648, 53], "backdrop_path": "/g3hni0i9iAQ13jDGOFWavJFlojc.jpg", "adult": false, "overview": "An undercover MI6 agent is sent to Berlin during the Cold War to investigate the murder of a fellow agent and recover a missing list of double agents.", "poster_path": "/kV9R5h0Yct1kR8Hf8sJ1nX0Vz4x.jpg", "popularity": 28.364}, {"adult": false, "backdrop_path": "/ckpSxGKHrzUg8Kh4zVvrDKofdeJ.jpg", "genre_ids": [28, 53, 12, 80], "id": 4824, "original_language": "en", "original_title": "The Jackal", "overview": "Hired by a powerful member of the Russian mafia to avenge an FBI sting that left his brother dead, a psychopathic hitman known only as The Jackal proves an elusive target for the people charged with the task of bringing him down: a deputy FBI director, a Russian MVK Major,  and a jailed IRA terrorist who can recognize him.", "poster_path": "/6Hh2ROGTRKdbUfEXVVv5fNhmXK3.jpg", "release_date": "1997-11-14", "title": "The Jackal", "video": false, "vote_average": 6.2, "vote_count": 1007, "popularity": 15.678}, {"id": 700, "video": false, "vote_count": 993, "vote_average": 6.3, "title": "Octopussy", "release_date": "1983-06-05", "original_language": "en", "original_title": "Octopussy", "genre_ids": [28, 12, 53], "backdrop_path": "/nOp4RM4AYlW8Ux0XHBTqXbPlSgY.jpg", "adult": false, "overview": "James Bond is sent to investigate after a fellow \u201c00\u201d agent is found dead with a priceless Faberg\u00e9 egg. James Bond follows the mystery and uncovers a smuggling scandal and a Russian General who wants to provoke a new World War.", "poster_path": "/s1GeJcwTclopbed1Bo2hjunSika.jpg", "popularity": 17.602}, {"adult": false, "backdrop_path": "/6wBfey6EVR5qxYLB8pxoTVQYWkS.jpg", "genre_ids": [28, 80, 18, 53], "id": 1620, "original_language": "en", "original_title": "Hitman", "overview": "The best-selling videogame, Hitman, roars to life with both barrels blazing in this hardcore action-thriller starring Timothy Olyphant. A genetically engineered assassin with deadly aim, known only as \"Agent 47\" eliminates strategic targets for a top-secret organization. But when he's double-crossed, the hunter becomes the prey as 47 finds himself in a life-or-death game of international intrigue.", "poster_path": "/1U2FpMotSyaciATw5qfEsKdgpX4.jpg", "release_date": "2007-11-21", "title": "Hitman", "video": false, "vote_average": 5.9, "vote_count": 1868, "popularity": 16.204}], "total_pages": 23, "total_results": 456}, "recommendations": {"page": 1, "results": [{"id": 37615, "video": false, "vote_count": 6, "vote_average": 6.6, "title": "Cover Up", "release_date": "1949-02-25", "original_language": "en", "original_title": "Cover Up", "genre_ids": [9648], "backdrop_path": "/k46xMVR1ymDpQM8748yNkilk5Ix.jpg", "adult": false, "overview": "In a small Midwestern town a man is found dead. Dennis O'Keefe plays an insurance investigator looking into the apparent suicide. All clues leads him into suspecting murder. Unfortunately, no one wants to assist him with the case, including Sheriff Larry Best (Bendix). Finally, attractive local girl Anita (Britton) breaks the silence and helps investigator Donovan solve the case.", "poster_path": "/8T890IORE2kMxoeV4T7SW2eXtEn.jpg", "popularity": 2.719}, {"adult": false, "backdrop_path": "/y000RmQsZWI528gP1zjAXjXuVFZ.jpg", "genre_ids": [18], "id": 153163, "original_language": "en", "original_title": "The Secret of Dr. Kildare", "overview": "Intern Kildare (Lew Ayres) heals a millionaire's daughter and tricks Dr. Gillespie (Lionel Barrymore) into taking a vacation.", "poster_path": "/7qjzw8JJjIRl1grLaC3M5NuwBsm.jpg", "release_date": "1939-11-24", "title": "The Secret of Dr. Kildare", "video": false, "vote_average": 6.1, "vote_count": 8, "popularity": 1.968}, {"adult": false, "backdrop_path": "/kSe9JQHaa5IVBrpLPror4KasDt2.jpg", "genre_ids": [18, 53], "id": 27212, "original_language": "en", "original_title": "A Bullet for Joey", "overview": "Raoul Leduc is a police inspector trailing a spy who plots to kidnap an important American atomic scientist. Joe Victor a gangster who is hired to carry out the abduction, balks when he learns what is at stake and helps Leduc out instead.", "poster_path": "/osVgi1exmfwGKXypGZU2HJqe1Pi.jpg", "release_date": "1955-04-15", "title": "A Bullet for Joey", "video": false, "vote_average": 5.4, "vote_count": 10, "popularity": 3.034}, {"id": 91583, "video": false, "vote_count": 8, "vote_average": 6.8, "title": "Perfect Friday", "release_date": "1970-11-10", "original_language": "en", "original_title": "Perfect Friday", "genre_ids": [35, 80], "backdrop_path": "/1CNov0ElVrYUzTLJUReangjzJw3.jpg", "adult": false, "overview": "The deputy manager of a London bank has worked out a way to rob the branch of \u00a3200,000. When he becomes involved with the attractive Lady Dorset he decides to go ahead with his plan. He needs her help and that of her philandering spendthrift husband. It all comes down to a matter of trust.", "poster_path": "/9SPaeJizYrd7U1y0tutSqmO0mGX.jpg", "popularity": 3.206}, {"id": 43599, "video": false, "vote_count": 10, "vote_average": 6.9, "title": "Employees' Entrance", "release_date": "1933-02-11", "original_language": "en", "original_title": "Employees' Entrance", "genre_ids": [18, 10749], "backdrop_path": "/31oPm14cx7fn0DRzCZRui1MTQux.jpg", "adult": false, "overview": "Kurt Anderson is the tyrannical manager of a New York department store in financial straits. He thinks nothing of firing an employee of more than 20 years or of toying with the affections of every woman he meets. One such victim is Madeline, a beautiful young woman in need of a job. Anderson hires her as a salesgirl, but not before the two spend the night together. Madeline is ashamed, especially after she falls for Martin West, a rising young star at the store. Her biggest fear is that Martin finds out the truth about her \"career move.\"", "poster_path": "/wSBj1uwxgjO6BuzzImGuS0NlKIJ.jpg", "popularity": 4.569}], "total_pages": 1, "total_results": 5}, "credits": {"cast": [{"cast_id": 10, "character": "Nicholas Whistler", "credit_id": "52fe4336c3a36847f8042d49", "gender": 2, "id": 21605, "name": "Dirk Bogarde", "order": 0, "profile_path": "/rIoedSTXnSooIh4zZV3K4M48gBh.jpg"}, {"cast_id": 11, "character": "Vlasta Simoneva", "credit_id": "52fe4336c3a36847f8042d4d", "gender": 1, "id": 21606, "name": "Sylva Koscina", "order": 1, "profile_path": "/jwkKgsRYHIkHMSNcGAeuYA829i3.jpg"}, {"cast_id": 12, "character": "Col. Cunliffe", "credit_id": "52fe4336c3a36847f8042d51", "gender": 2, "id": 6599, "name": "Robert Morley", "order": 2, "profile_path": "/7R4jQRl8CTFYCYpiQ1O2AjYtiK6.jpg"}, {"cast_id": 13, "character": "Simoneva", "credit_id": "52fe4336c3a36847f8042d55", "gender": 2, "id": 7192, "name": "Leo McKern", "order": 3, "profile_path": "/qcO1TFO6SowLOQAwKRMKrqmrk6A.jpg"}, {"cast_id": 14, "character": "Josef", "credit_id": "52fe4336c3a36847f8042d59", "gender": 2, "id": 21607, "name": "Roger Delgado", "order": 4, "profile_path": "/bPtlbUq1lJwLHslk0fnFfGi1Wvb.jpg"}, {"cast_id": 15, "character": "Sun Bathing Man", "credit_id": "52fe4336c3a36847f8042d5d", "gender": 2, "id": 21608, "name": "Derek Fowlds", "order": 5, "profile_path": "/fp5DyzxGR4Fc6KZEcrODxuF1nVj.jpg"}, {"cast_id": 16, "character": "Golushha", "credit_id": "52fe4336c3a36847f8042d61", "gender": 2, "id": 21609, "name": "Eric Pohlmann", "order": 6, "profile_path": "/iTRgLQL9dTNbzgsypSOvlB9lQ3l.jpg"}, {"cast_id": 17, "character": "Roger Allsop", "credit_id": "59ff3078925141470c040b46", "gender": 2, "id": 14264, "name": "John Le Mesurier", "order": 7, "profile_path": "/42H9hrRtpFrQ7LFlBr8AnHfgDnr.jpg"}, {"cast_id": 18, "character": "Johnnie", "credit_id": "59ff30afc3a368684403cb35", "gender": 2, "id": 140167, "name": "Noel Harrison", "order": 8, "profile_path": "/tGSA34qqODrUWoFZujPEhVXmsGX.jpg"}, {"cast_id": 19, "character": "Cunliffe\u2019s Secretary", "credit_id": "59ff3112925141470c040c81", "gender": 0, "id": 1918044, "name": "Amanda Grinling", "order": 9, "profile_path": null}, {"cast_id": 20, "character": "Vicek", "credit_id": "59ff313bc3a368683504351c", "gender": 0, "id": 998539, "name": "Philo Hauser", "order": 10, "profile_path": null}, {"cast_id": 21, "character": "Clerk in Opening Scene", "credit_id": "59ff317ac3a368687e039356", "gender": 2, "id": 10597, "name": "John Junkin", "order": 11, "profile_path": "/d224PCAmBldQ98JFRmdEVaWaDP5.jpg"}, {"cast_id": 22, "character": "Lorna", "credit_id": "59ff31a5925141473303f7df", "gender": 0, "id": 121727, "name": "Jill Melford", "order": 12, "profile_path": "/kV8mihI88IT4wbBKQries2BlpZA.jpg"}, {"cast_id": 23, "character": "Fred", "credit_id": "59ff31c9c3a368687e039409", "gender": 2, "id": 94842, "name": "Derek Nimmo", "order": 13, "profile_path": "/j9dLfyge3ypZrE3g475b2artZ9p.jpg"}, {"cast_id": 24, "character": "Roddinghead", "credit_id": "59ff3209925141471d042971", "gender": 2, "id": 47000, "name": "Richard Vernon", "order": 14, "profile_path": "/bl4auPonPHOCZcxdPbePbpeK5hS.jpg"}, {"cast_id": 25, "character": "Leon", "credit_id": "59ff3243925141473303f967", "gender": 2, "id": 102663, "name": "Brook Williams", "order": 15, "profile_path": "/6tkfggZ0AujmPo8QZ2DMOEb2hwr.jpg"}, {"cast_id": 26, "character": "Technician in Czech Glass Factory", "credit_id": "5b6a3de30e0a267ef4105a9d", "gender": 2, "id": 95095, "name": "Gertan Klauber", "order": 16, "profile_path": "/EYEMedOu9hMK4HVG9FFlsguv1f.jpg"}, {"cast_id": 27, "character": "Plakov", "credit_id": "5b6a3dfd925141404f0e4d37", "gender": 2, "id": 85628, "name": "Richard Pasco", "order": 17, "profile_path": "/ztGPCGOzowLv23fA4r1HNSABZNP.jpg"}, {"cast_id": 28, "character": "Simenova's Assistant", "credit_id": "5b6a3e160e0a267eeb113129", "gender": 2, "id": 12828, "name": "Alan Tilvern", "order": 18, "profile_path": "/8PQ6c0GCbuJ5T6dCjfX72gUtbTG.jpg"}, {"cast_id": 29, "character": "Employment Exchange Clerk", "credit_id": "5b6a3e6292514140680feddf", "gender": 2, "id": 16275, "name": "Norman Bird", "order": 19, "profile_path": "/lHj58cWdvdkleI7lDTpRHnwqKP4.jpg"}, {"cast_id": 30, "character": "Waiter", "credit_id": "5b6a3e760e0a267eed11113f", "gender": 2, "id": 1039759, "name": "Andre Charisse", "order": 20, "profile_path": "/xJKt7Hr6SHdbhFkrbPmMNSOcmaa.jpg"}, {"cast_id": 31, "character": "British Embassy Porter", "credit_id": "5b6a3eaac3a36818861395be", "gender": 2, "id": 6637, "name": "Frank Finlay", "order": 21, "profile_path": "/fz3sIozTo0L1eCKlwHdoe92dcXk.jpg"}, {"cast_id": 32, "character": "Russian Dancer", "credit_id": "5b6a3ecdc3a36818970fcdc5", "gender": 0, "id": 2102042, "name": "Sandra Hampton", "order": 22, "profile_path": null}, {"cast_id": 33, "character": "Hotel Receptionist", "credit_id": "5b6a3ee8c3a3681886139678", "gender": 1, "id": 54941, "name": "Harriet Medin", "order": 23, "profile_path": "/7CwP8SQey9wzVLE821qCYfa6irr.jpg"}, {"cast_id": 34, "character": "Passenger on Plane", "credit_id": "5b6a3f060e0a267eed111236", "gender": 2, "id": 47391, "name": "William Mervyn", "order": 24, "profile_path": "/h1YXoTkwbaScl3eQJdwIPSKckNO.jpg"}, {"cast_id": 35, "character": "The Milkman", "credit_id": "5b6a3f22c3a36818861396e0", "gender": 2, "id": 1020091, "name": "Tiberio Mitri", "order": 25, "profile_path": "/kpXPIPgCHHddsjAKtSEUUZG6QJA.jpg"}, {"cast_id": 36, "character": "Pravelko", "credit_id": "5b6a3f380e0a267ef4105d1f", "gender": 2, "id": 30142, "name": "George Pravda", "order": 26, "profile_path": "/2BxYYGdUEVDlHP9NoXi3sxvHaYw.jpg"}, {"cast_id": 37, "character": "", "credit_id": "5b6a3f4cc3a368189413499b", "gender": 2, "id": 11841, "name": "Robert Rietti", "order": 27, "profile_path": "/unVhoINw9Xd10maqb4XUWhskPS8.jpg"}, {"cast_id": 38, "character": "Men's Room Attendant", "credit_id": "5b6a3f68c3a3681888104822", "gender": 2, "id": 11282, "name": "John Standing", "order": 28, "profile_path": "/npS8a4mKgqpJJiNeRPn0Ftl7pxj.jpg"}], "crew": [{"credit_id": "52fe4336c3a36847f8042d3f", "department": "Art", "gender": 2, "id": 7756, "job": "Art Direction", "name": "Syd Cain", "profile_path": null}, {"credit_id": "52fe4336c3a36847f8042d2d", "department": "Sound", "gender": 2, "id": 14807, "job": "Original Music Composer", "name": "Angelo Francesco Lavagnino", "profile_path": null}, {"credit_id": "52fe4336c3a36847f8042d21", "department": "Writing", "gender": 0, "id": 21600, "job": "Screenplay", "name": "Lukas Heller", "profile_path": null}, {"credit_id": "52fe4336c3a36847f8042d15", "department": "Directing", "gender": 2, "id": 21598, "job": "Director", "name": "Ralph Thomas", "profile_path": "/uAekWIEsStagyyUG5wc3sUMFxFN.jpg"}, {"credit_id": "52fe4336c3a36847f8042d1b", "department": "Writing", "gender": 0, "id": 21599, "job": "Novel", "name": "Lionel Davidson", "profile_path": null}, {"credit_id": "52fe4336c3a36847f8042d27", "department": "Production", "gender": 0, "id": 21601, "job": "Producer", "name": "Betty E. Box", "profile_path": "/r6QytrjPQtccJbt6EeA2DkaTsAK.jpg"}, {"credit_id": "52fe4336c3a36847f8042d33", "department": "Camera", "gender": 0, "id": 21602, "job": "Director of Photography", "name": "Ernest Steward", "profile_path": null}, {"credit_id": "52fe4336c3a36847f8042d39", "department": "Editing", "gender": 2, "id": 21603, "job": "Editor", "name": "Alfred Roome", "profile_path": null}, {"credit_id": "52fe4336c3a36847f8042d45", "department": "Costume & Make-Up", "gender": 0, "id": 21604, "job": "Costume Design", "name": "Yvonne Caffin", "profile_path": null}]}}