{"adult": false, "backdrop_path": null, "belongs_to_collection": null, "budget": 0, "genres": [{"id": 27, "name": "Horror"}], "homepage": null, "id": 213212, "imdb_id": "tt0130039", "original_language": "en", "original_title": "Janie", "overview": "A sadistic teenager searching for \"Daddy\" murders and dismembers anybody who picks her up hitch-hiking. In a March 2018 interview with Rialto Report, credited director Jack Bravman admitted that Roberta Findlay actually directed this film, while John Amero confirmed Bravman handed over directorial duties, though he claims to Roberta's husband, Michael.", "popularity": 1.323, "poster_path": "/NRb07TIx2jEt3hMbo2MLcFJSCy.jpg", "production_companies": [{"id": 34576, "logo_path": null, "name": "Janie Film Company", "origin_country": ""}], "production_countries": [{"iso_3166_1": "US", "name": "United States of America"}], "release_date": "1970-01-01", "revenue": 0, "runtime": 65, "spoken_languages": [{"iso_639_1": "en", "name": "English"}], "status": "Released", "tagline": "Her lovers went from bed... to dead.", "title": "Janie", "video": false, "vote_average": 6.0, "vote_count": 2, "keywords": {"keywords": [{"id": 625, "name": "sadistic"}, {"id": 2804, "name": "exploitation"}, {"id": 9826, "name": "murder"}, {"id": 10809, "name": "teenage girl"}, {"id": 11546, "name": "hitchhiker"}, {"id": 14819, "name": "violence"}]}, "similar": {"page": 1, "results": [{"adult": false, "backdrop_path": "/pA64Ov7lDpwXBu33yq0KpmAOYJL.jpg", "genre_ids": [27, 53], "id": 357096, "original_language": "en", "original_title": "I Spit on Your Grave III: Vengeance is Mine", "overview": "Jennifer Hills is still tormented by the brutal sexual assault she endured years ago. She\u2019s changed identities and cities, reluctantly joining a support group where she begins to piece together a new life. But when her new friend\u2019s murderer goes free and the tales of serial rapists haunt her, Jennifer will hunt down the men responsible and do what the system won\u2019t \u2013 make them pay for their crimes in the most horrific ways imaginable. Only this time, no jury may be able to save her.", "poster_path": "/6SnOlgrUoC5jqmgcYIM5lde5zYq.jpg", "release_date": "2015-10-01", "title": "I Spit on Your Grave III: Vengeance is Mine", "video": false, "vote_average": 5.3, "vote_count": 437, "popularity": 20.815}, {"adult": false, "backdrop_path": "/rPfyX0pkmn8Ea4gh3DfsmzFUf05.jpg", "genre_ids": [18, 27, 80], "id": 74997, "original_language": "en", "original_title": "The Human Centipede 2 (Full Sequence)", "overview": "Inspired by the fictional Dr. Heiter, disturbed loner Martin dreams of creating a 12-person centipede and sets out to realize his sick fantasy.", "poster_path": "/kFtAdkCO0vXN2RWu2oMcR9GZ9Hi.jpg", "release_date": "2011-10-06", "title": "The Human Centipede 2 (Full Sequence)", "video": false, "vote_average": 4.5, "vote_count": 674, "popularity": 14.216}, {"id": 9373, "video": false, "vote_count": 1414, "vote_average": 6.1, "title": "The Texas Chainsaw Massacre", "release_date": "2003-05-21", "original_language": "en", "original_title": "The Texas Chainsaw Massacre", "genre_ids": [27], "backdrop_path": "/3rTsJ7tIC3LUSRr80PfeLbbCfBA.jpg", "adult": false, "overview": "After picking up a traumatized young hitchhiker, five friends find themselves stalked and hunted by a deformed chainsaw-wielding killer and his family of equally psychopathic killers.", "poster_path": "/gx7FCIOFGxqNyplF3t7qtmUv55g.jpg", "popularity": 19.117}, {"adult": false, "backdrop_path": "/o4psXh7IVD6GFKvBSHjHLzjL2lV.jpg", "genre_ids": [27, 53], "id": 10781, "original_language": "en", "original_title": "The Texas Chainsaw Massacre: The Beginning", "overview": "Chrissie and her friends set out on a road trip for a final fling before one is shipped off to Vietnam. Along the way, bikers harass the foursome and cause an accident that throws Chrissie from the vehicle. The lawman who arrives on the scene kills one of the bikers and brings Chrissie's friends to the Hewitt homestead, where young Leatherface is learning the tools of terror.", "poster_path": "/9elCJIG1TOJ0wew3JVx5ZMkHq5w.jpg", "release_date": "2006-10-06", "title": "The Texas Chainsaw Massacre: The Beginning", "video": false, "vote_average": 6.0, "vote_count": 936, "popularity": 19.211}, {"id": 39988, "video": false, "vote_count": 35, "vote_average": 6.0, "title": "Late Night Trains", "release_date": "1975-04-09", "original_language": "it", "original_title": "L'ultimo treno della notte", "genre_ids": [27], "backdrop_path": "/wDIh791uYbxKjpXAZwu3ry6zS2w.jpg", "adult": false, "overview": "A pair of psychotic hoodlums and an equally demented nymphomaniac woman terrorize two young girls on a train trip from Germany to Italy.", "poster_path": "/nOdLx58FiN0UxFrQoubeM5ghBWT.jpg", "popularity": 4.409}, {"adult": false, "backdrop_path": "/iLvqbCanH1liQ5VERCyCR31GkkL.jpg", "genre_ids": [35, 27, 878], "id": 15762, "original_language": "en", "original_title": "Night of the Creeps", "overview": "In 1959, an alien experiment crashes to earth and infects a fraternity member. They freeze the body, but in the modern day, two geeks pledging a fraternity accidentally thaw the corpse, which proceeds to infect the campus with parasites that transform their hosts into killer zombies.", "poster_path": "/A3s2tQGNb6mhlr1hPZeE5F8IUwp.jpg", "release_date": "1986-08-21", "title": "Night of the Creeps", "video": false, "vote_average": 6.6, "vote_count": 219, "popularity": 10.383}, {"id": 573, "video": false, "vote_count": 364, "vote_average": 7.1, "title": "Frenzy", "release_date": "1972-05-25", "original_language": "en", "original_title": "Frenzy", "genre_ids": [80, 27, 53], "backdrop_path": "/szCaGTZQEHlgrNdPryLAIg9WGFS.jpg", "adult": false, "overview": "After a serial killer strangles several women with a necktie, London police identify a suspect\u2014but he's the wrong man.", "poster_path": "/4SFvqrlSigAt9tnhXFSMyKeJWQk.jpg", "popularity": 11.634}, {"adult": false, "backdrop_path": "/9ZYJvlx2nzoi2Q4O11wuDHvTZQe.jpg", "genre_ids": [80, 18, 27, 53], "id": 10692, "original_language": "en", "original_title": "Henry: Portrait of a Serial Killer", "overview": "Henry likes to kill people, in different ways each time. Henry shares an apartment with Otis. When Otis' sister comes to stay, we see both sides of Henry: \"the guy next door\" and the serial killer.", "poster_path": "/jE9bDB7v7lMED5PWpPMsmc3SzlI.jpg", "release_date": "1986-09-24", "title": "Henry: Portrait of a Serial Killer", "video": false, "vote_average": 6.8, "vote_count": 304, "popularity": 10.2}, {"id": 276488, "video": false, "vote_count": 162, "vote_average": 5.7, "title": "Let Us Prey", "release_date": "2014-04-17", "original_language": "en", "original_title": "Let Us Prey", "genre_ids": [27, 53], "backdrop_path": "/6y5s5XboARsaZARPBO9L3oYM9Bl.jpg", "adult": false, "overview": "Rachel, a rookie cop, is about to begin her first night shift in a neglected police station in a Scottish, backwater town. The kind of place where the tide has gone out and stranded a motley bunch of the aimless, the forgotten, the bitter-and-twisted who all think that, really, they deserve to be somewhere else. They all think they're there by accident and that, with a little luck, life is going to get better. Wrong, on both counts. Six is about to arrive - and All Hell Will Break Loose!", "poster_path": "/yQgKyDXbV8XQKKarJ8ph5Y9dpQe.jpg", "popularity": 9.209}, {"id": 500664, "video": false, "vote_count": 1709, "vote_average": 7.3, "title": "Upgrade", "release_date": "2018-06-01", "original_language": "en", "original_title": "Upgrade", "genre_ids": [28, 27, 878, 53], "backdrop_path": "/qUAGip3XiaVN668WXF2iyukWgUu.jpg", "adult": false, "overview": "A brutal mugging leaves Grey Trace paralyzed in the hospital and his beloved wife dead. A billionaire inventor soon offers Trace a cure \u2014 an artificial intelligence implant called STEM that will enhance his body. Now able to walk, Grey finds that he also has superhuman strength and agility \u2014 skills he uses to seek revenge against the thugs who destroyed his life.", "poster_path": "/8fDtXi6gVw8WUMWGT9XFz7YwkuE.jpg", "popularity": 32.518}, {"adult": false, "backdrop_path": "/19qAk3bQZ6ulspbwhPw1A0bNpii.jpg", "genre_ids": [80, 27, 53], "id": 73861, "original_language": "sr", "original_title": "Srpski film", "overview": "Milos, a retired porn star, leads a normal family life trying to make ends meet. Presented with the opportunity of a lifetime to financially support his family for the rest of their lives, Milos must participate in one last mysterious film. From then on, Milos is drawn into a maelstrom of unbelievable cruelty and mayhem.", "poster_path": "/iB3ynCghwG63MrViBC6YyPzUIAn.jpg", "release_date": "2010-06-16", "title": "A Serbian Film", "video": false, "vote_average": 5.5, "vote_count": 898, "popularity": 16.013}, {"id": 948, "video": false, "vote_count": 2727, "vote_average": 7.5, "title": "Halloween", "release_date": "1978-10-24", "original_language": "en", "original_title": "Halloween", "genre_ids": [27, 53], "backdrop_path": "/6Io0gvfEVpMQsB46yXOKCpSJOoJ.jpg", "adult": false, "overview": "Fifteen years after murdering his sister on Halloween Night 1963, Michael Myers escapes from a mental hospital and returns to the small town of Haddonfield, Illinois to kill again.", "poster_path": "/vjoOFOTBJcJvA1weJejlZ92LZD4.jpg", "popularity": 16.369}, {"adult": false, "backdrop_path": "/zWGAnbxjjwY3xFGuOeR26LGbBlG.jpg", "genre_ids": [27, 53], "id": 238636, "original_language": "en", "original_title": "The Purge: Anarchy", "overview": "One night per year, the government sanctions a 12-hour period in which citizens can commit any crime they wish -- including murder -- without fear of punishment or imprisonment. Leo, a sergeant who lost his son, plans a vigilante mission of revenge during the mayhem. However, instead of a death-dealing avenger, he becomes the unexpected protector of four innocent strangers who desperately need his help if they are to survive the night.", "poster_path": "/l1DRl40x2OWUoPP42v8fjKdS1Z3.jpg", "release_date": "2014-07-17", "title": "The Purge: Anarchy", "video": false, "vote_average": 6.6, "vote_count": 4145, "popularity": 36.766}, {"id": 381288, "video": false, "vote_count": 11449, "vote_average": 7.3, "title": "Split", "release_date": "2017-01-19", "original_language": "en", "original_title": "Split", "genre_ids": [27, 53], "backdrop_path": "/9pkZesKMnblFfKxEhQx45YQ2kIe.jpg", "adult": false, "overview": "Though Kevin has evidenced 23 personalities to his trusted psychiatrist, Dr. Fletcher, there remains one still submerged who is set to materialize and dominate all the others. Compelled to abduct three teenage girls led by the willful, observant Casey, Kevin reaches a war for survival among all of those contained within him \u2014 as well as everyone around him \u2014 as the walls between his compartments shatter apart.", "poster_path": "/rXMWOZiCt6eMX22jWuTOSdQ98bY.jpg", "popularity": 39.624}, {"adult": false, "backdrop_path": "/fmo48Lt8XtMWeHeXJzi5SbPCJud.jpg", "genre_ids": [18, 27, 80], "id": 1696, "original_language": "en", "original_title": "The Devil's Rejects", "overview": "The sequel to House of 1000 Corpses \u2013 the Firefly family are ambushed at their isolated home by Sheriff Wydell and a squad of armed men guns blazing \u2013 yet only Otis and his sister, Baby, manage to escape the barrage of bullets unharmed. Hiding out in a backwater motel, the wanted siblings wait to rendezvous with their errant father, Captain Spaulding, killing whoever happens to stand in their way.", "poster_path": "/fj4rrpUlBpFjPaJecpjID6yqacx.jpg", "release_date": "2005-07-22", "title": "The Devil's Rejects", "video": false, "vote_average": 6.7, "vote_count": 720, "popularity": 14.155}, {"adult": false, "backdrop_path": "/61jXRAqQihmnIfViTChwkGHMXsT.jpg", "genre_ids": [27, 9648, 53], "id": 12619, "original_language": "en", "original_title": "Cherry Falls", "overview": "Cherry Falls is a quiet little town - until the night that a serial killer begins preying on its youth. After a third teen is found slain, the killer's modus operandi emerges: the victims were all virgins. Sheriff Marken is concerned for the safety of the teens in general and in particular his own daughter Jody, who is still a virgin...", "poster_path": "/9bw9yVBFyv3nMeVDR7gjzELAATh.jpg", "release_date": "2000-08-25", "title": "Cherry Falls", "video": false, "vote_average": 5.0, "vote_count": 133, "popularity": 9.535}, {"adult": false, "backdrop_path": "/jWyWzGqDX999LUFaKxHGo3GvRoH.jpg", "genre_ids": [27, 9648, 53], "id": 39918, "original_language": "de", "original_title": "Die S\u00e4ge des Todes", "overview": "Miguel, a horribly disfigured young man, goes on a rampage at a masquerade party and rapes and then mutilates a girl. Institutionalized at a mental asylum, he is released five years later, into the care of his sister, Manuela who, along with their wheelchair bound mother operates a boarding school for young women. Miguel becomes obsessed with one of the girls at the school, and wants to resume his incestuous relationship with his sister.", "poster_path": "/mBoJUYD08K0im1wND6abtUy3ggU.jpg", "release_date": "1981-03-27", "title": "Bloody Moon", "video": false, "vote_average": 4.8, "vote_count": 22, "popularity": 5.423}, {"adult": false, "backdrop_path": "/kiWvoV78Cc3fUwkOHKzyBgVdrDD.jpg", "genre_ids": [37, 18, 12], "id": 281957, "original_language": "en", "original_title": "The Revenant", "overview": "In the 1820s, a frontiersman, Hugh Glass, sets out on a path of vengeance against those who left him for dead after a bear mauling.", "poster_path": "/oXUWEc5i3wYyFnL1Ycu8ppxxPvs.jpg", "release_date": "2015-12-25", "title": "The Revenant", "video": false, "vote_average": 7.5, "vote_count": 12127, "popularity": 24.135}, {"adult": false, "backdrop_path": "/a24i4Qw6qFTtkFLQsncv8WPwevj.jpg", "genre_ids": [53, 28, 80], "id": 345887, "original_language": "en", "original_title": "The Equalizer 2", "overview": "Robert McCall, who serves an unflinching justice for the exploited and oppressed, embarks on a relentless, globe-trotting quest for vengeance when a long-time girl friend is murdered.", "poster_path": "/cQvc9N6JiMVKqol3wcYrGshsIdZ.jpg", "release_date": "2018-07-19", "title": "The Equalizer 2", "video": false, "vote_average": 6.5, "vote_count": 2483, "popularity": 21.271}, {"adult": false, "backdrop_path": "/qqdVRlVCvVWdmSBYrEHwQuC3GBd.jpg", "genre_ids": [27, 53], "id": 371608, "original_language": "en", "original_title": "The Strangers: Prey at Night", "overview": "A family\u2019s road trip takes a dangerous turn when they arrive at a secluded mobile home park to stay with some relatives and find it mysteriously deserted. Under the cover of darkness, three masked psychopaths pay them a visit to test the family\u2019s every limit as they struggle to survive.", "poster_path": "/vdxLpPsZkPZdFrREp7eSeSzcimj.jpg", "release_date": "2018-03-07", "title": "The Strangers: Prey at Night", "video": false, "vote_average": 5.4, "vote_count": 758, "popularity": 16.815}], "total_pages": 74, "total_results": 1474}, "recommendations": {"page": 1, "results": [], "total_pages": 1, "total_results": 0}, "credits": {"cast": [{"cast_id": 2, "character": "Janie", "credit_id": "52fe4dc0c3a368484e1fb4b5", "gender": 0, "id": 1076528, "name": "Mary Jane Carpenter", "order": 0, "profile_path": null}, {"cast_id": 3, "character": "", "credit_id": "52fe4dc0c3a368484e1fb4b9", "gender": 0, "id": 1291444, "name": "Peer St. Jean", "order": 1, "profile_path": null}, {"cast_id": 4, "character": "", "credit_id": "52fe4dc0c3a368484e1fb4bd", "gender": 0, "id": 1291445, "name": "Tina Kraskow", "order": 2, "profile_path": null}, {"cast_id": 5, "character": "Homeowner (as Richard Jennings)", "credit_id": "52fe4dc0c3a368484e1fb4c1", "gender": 2, "id": 236380, "name": "Michael Findlay", "order": 3, "profile_path": null}, {"cast_id": 6, "character": "", "credit_id": "5431312d0e0a26583400194c", "gender": 0, "id": 1325970, "name": "William Savage", "order": 4, "profile_path": null}, {"cast_id": 7, "character": "(as Berla Molke)", "credit_id": "54313142c3a36810910019a5", "gender": 0, "id": 1087021, "name": "Berla L. Moke", "order": 5, "profile_path": null}, {"cast_id": 8, "character": "", "credit_id": "5431314ec3a36831ac002ff3", "gender": 0, "id": 1371255, "name": "Ella Greenberg", "order": 6, "profile_path": null}, {"cast_id": 9, "character": "", "credit_id": "54313158c3a36811ef00197a", "gender": 0, "id": 1371256, "name": "Walter Dunnet", "order": 7, "profile_path": null}, {"cast_id": 10, "character": "", "credit_id": "543131670e0a2646490030bb", "gender": 0, "id": 1371257, "name": "Paul Marten", "order": 8, "profile_path": null}, {"cast_id": 12, "character": "Roberta", "credit_id": "58e6441cc3a36872af03b817", "gender": 1, "id": 1114201, "name": "Roberta Findlay", "order": 9, "profile_path": "/esAoEvERRjedDmHDc6SQzS8Yebd.jpg"}], "crew": [{"credit_id": "5431317ec3a36811430018db", "department": "Writing", "gender": 2, "id": 15890, "job": "Screenplay", "name": "James Foley", "profile_path": "/ujAhQvNNnBqa6ZP2C46DMdAp09w.jpg"}, {"credit_id": "52fe4dc0c3a368484e1fb4b1", "department": "Directing", "gender": 2, "id": 119862, "job": "Director", "name": "Jack Bravman", "profile_path": null}, {"credit_id": "58e64436c3a36872f603f734", "department": "Production", "gender": 2, "id": 119862, "job": "Producer", "name": "Jack Bravman", "profile_path": null}, {"credit_id": "5afbd0cdc3a3680707004521", "department": "Directing", "gender": 2, "id": 236380, "job": "Director", "name": "Michael Findlay", "profile_path": null}, {"credit_id": "5afbb7abc3a368070e0032b7", "department": "Directing", "gender": 1, "id": 1114201, "job": "Director", "name": "Roberta Findlay", "profile_path": "/esAoEvERRjedDmHDc6SQzS8Yebd.jpg"}, {"credit_id": "58e6443f92514127e80436d3", "department": "Camera", "gender": 1, "id": 1114201, "job": "Director of Photography", "name": "Roberta Findlay", "profile_path": "/esAoEvERRjedDmHDc6SQzS8Yebd.jpg"}, {"credit_id": "58e6444cc3a36872ee042a2c", "department": "Camera", "gender": 1, "id": 1114201, "job": "Camera Operator", "name": "Roberta Findlay", "profile_path": "/esAoEvERRjedDmHDc6SQzS8Yebd.jpg"}, {"credit_id": "58e6446dc3a36872f603f76a", "department": "Sound", "gender": 2, "id": 1200453, "job": "Sound", "name": "John Amero", "profile_path": "/9QY7kLahaJqYx9HWbELJE63GasP.jpg"}]}}