{"adult": false, "backdrop_path": null, "belongs_to_collection": null, "budget": 0, "genres": [{"id": 18, "name": "Drama"}, {"id": 53, "name": "Thriller"}], "homepage": null, "id": 213744, "imdb_id": "tt0067914", "original_language": "it", "original_title": "Un uomo dalla pelle dura", "overview": "Boxer Teddy Wilcox (Robert Blake) leaves his manager and relocates. He finds Nick, a manager/trainer. Before Wilcox's first fight, Nick receives a threat-- Wilcox loses, or Nick will die.", "popularity": 1.4, "poster_path": "/xPF1Tp9IpR1sna3XNaLQBOnohi.jpg", "production_companies": [], "production_countries": [], "release_date": "1972-02-02", "revenue": 0, "runtime": 83, "spoken_languages": [{"iso_639_1": "it", "name": "Italiano"}], "status": "Released", "tagline": "", "title": "The Boxer", "video": false, "vote_average": 10.0, "vote_count": 2, "keywords": {"keywords": []}, "similar": {"page": 1, "results": [{"id": 70, "video": false, "vote_count": 5415, "vote_average": 7.9, "title": "Million Dollar Baby", "release_date": "2004-12-15", "original_language": "en", "original_title": "Million Dollar Baby", "genre_ids": [18], "backdrop_path": "/7nGW4MhYQ7sJfp482XkrgqPYQ2S.jpg", "adult": false, "overview": "Despondent over a painful estrangement from his daughter, trainer Frankie Dunn isn't prepared for boxer Maggie Fitzgerald to enter his life. But Maggie's determined to go pro and to convince Dunn and his cohort to help her.", "poster_path": "/h4VZKi2Jt4VoBYJmtC4c3bO8KqM.jpg", "popularity": 22.24}, {"adult": false, "backdrop_path": "/6qYptQG2ynJANbyjjYOt4fpHfxF.jpg", "genre_ids": [18], "id": 1371, "original_language": "en", "original_title": "Rocky III", "overview": "Now the world champion, Rocky Balboa is living in luxury and only fighting opponents who pose no threat to him in the ring, until Clubber Lang challenges him to a bout. After taking a pounding from Lang, the humbled champ turns to former bitter rival Apollo Creed for a rematch with Lang.", "poster_path": "/ns55NGqTDEEjcI9z2a9htA2cFtG.jpg", "release_date": "1982-05-28", "title": "Rocky III", "video": false, "vote_average": 6.8, "vote_count": 2156, "popularity": 25.559}, {"adult": false, "backdrop_path": "/tcJIy7V4H8v9accnFAKyuKwAtQR.jpg", "genre_ids": [10749, 35, 80], "id": 1389, "original_language": "en", "original_title": "Out of Sight", "overview": "Meet Jack Foley, a smooth criminal who bends the law and is determined to make one last heist. Karen Sisco is a federal marshal who chooses all the right moves \u2026 and all the wrong guys. Now they're willing to risk it all to find out if there's more between them than just the law.", "poster_path": "/hSL2Ta4ErgAxPEOlkkxZmrTSAET.jpg", "release_date": "1998-06-26", "title": "Out of Sight", "video": false, "vote_average": 6.6, "vote_count": 611, "popularity": 16.444}, {"id": 12481, "video": false, "vote_count": 320, "vote_average": 7.3, "title": "The Big Boss", "release_date": "1971-10-02", "original_language": "zh", "original_title": "\u5510\u5c71\u5927\u5144", "genre_ids": [28], "backdrop_path": "/tzmHdegHSKVUwnJYvdMiolAWnWO.jpg", "adult": false, "overview": "Chen is a city boy who moves with his cousins to work at an ice factory. He does this with a family promise never to get involved in any fight. However, when members of his family begin disappearing after meeting the management of the factory, the resulting mystery and pressures force him to break that vow and take on the villainy of the Big Boss.", "poster_path": "/txmbBHN45wqWn4qrT9MPlDhuJCA.jpg", "popularity": 20.48}, {"adult": false, "backdrop_path": "/xx9DyVNmehDJPrYGsy9AJgYzAtd.jpg", "genre_ids": [18], "id": 1367, "original_language": "en", "original_title": "Rocky II", "overview": "After Rocky goes the distance with champ Apollo Creed, both try to put the fight behind them and move on. Rocky settles down with Adrian but can't put his life together outside the ring, while Creed seeks a rematch to restore his reputation. Soon enough, the \"Master of Disaster\" and the \"Italian Stallion\" are set on a collision course for a climactic battle that is brutal and unforgettable.", "poster_path": "/fqJH7mI4dFANRay8qdJoGa7fK1k.jpg", "release_date": "1979-06-15", "title": "Rocky II", "video": false, "vote_average": 7.1, "vote_count": 2345, "popularity": 27.206}, {"id": 11259, "video": false, "vote_count": 579, "vote_average": 6.6, "title": "Far and Away", "release_date": "1992-05-22", "original_language": "en", "original_title": "Far and Away", "genre_ids": [12, 18, 37, 10749], "backdrop_path": "/v40ut2UW4eHDkIhcOCIdBcEfKH4.jpg", "adult": false, "overview": "A young man leaves Ireland with his landlord's daughter after some trouble with her father, and they dream of owning land at the big giveaway in Oklahoma ca. 1893. When they get to the new land, they find jobs and begin saving money. The man becomes a local barehands boxer, and rides in glory until he is beaten, then his employers steal all the couple's money and they must fight off starvation in the winter, and try to keep their dream of owning land alive. Meanwhile, the woman's parents find out where she has gone and have come to America to find her and take her back.", "poster_path": "/yNdfm55jkgFk1IeAqxSEPFDPR5x.jpg", "popularity": 9.906}, {"id": 64807, "video": false, "vote_count": 788, "vote_average": 6.0, "title": "Grudge Match", "release_date": "2013-12-25", "original_language": "en", "original_title": "Grudge Match", "genre_ids": [35], "backdrop_path": "/4jnkfPSVu3JjrMpGhe0AyWjsYwA.jpg", "adult": false, "overview": "A pair of aging boxing rivals are coaxed out of retirement to fight one final bout -- 30 years after their last match.", "poster_path": "/hScOPtZpAxYWx2sOGcfbzYti39Z.jpg", "popularity": 9.617}, {"adult": false, "backdrop_path": "/1yMdfyQr0FovHo7EXQPgJ5MjWQf.jpg", "genre_ids": [35, 18], "id": 20759, "original_language": "en", "original_title": "The Great White Hype", "overview": "When the champ's promoter, Rev. Sultan, decides something new is needed to boost the marketability of the boxing matches, he searches and finds the only man to ever beat the champ. The problem is that he isn't a boxer anymore and he's white. However, once Rev. Sultan convinces him to fight, he goes into heavy training while the confident champ takes it easy and falls out of shape.", "poster_path": "/8RJD1CcZ3K7nfEhg6BfGcQbAvsN.jpg", "release_date": "1996-05-03", "title": "The Great White Hype", "video": false, "vote_average": 5.3, "vote_count": 53, "popularity": 5.202}, {"id": 10548, "video": false, "vote_count": 113, "vote_average": 7.7, "title": "When We Were Kings", "release_date": "1996-10-25", "original_language": "en", "original_title": "When We Were Kings", "genre_ids": [99], "backdrop_path": "/f6SSam3qrMz5y8Yrc0SqvWCpsQY.jpg", "adult": false, "overview": "It's 1974. Muhammad Ali is 32 and thought by many to be past his prime. George Foreman is ten years younger and the heavyweight champion of the world. Promoter Don King wants to make a name for himself and offers both fighters five million dollars apiece to fight one another, and when they accept, King has only to come up with the money. He finds a willing backer in Mobutu Sese Suko, the dictator of Zaire, and the \"Rumble in the Jungle\" is set, including a musical festival featuring some of America's top black performers, like James Brown and B.B. King.", "poster_path": "/wAw3KIEuQGIwhCBWtvWFQRItz0d.jpg", "popularity": 7.265}, {"adult": false, "backdrop_path": "/nQLOKbKuzKPrRCy6z1nQUystzJd.jpg", "genre_ids": [28, 18], "id": 16219, "original_language": "en", "original_title": "Gladiator", "overview": "Tommy Riley has moved with his dad to Chicago from a 'nice place'. He keeps to himself, goes to school. However, after a street fight he is noticed and quickly falls into the world of illegal underground boxing - where punches can kill.", "poster_path": "/713us6KGUrYbEqH6KkdkpVFP68.jpg", "release_date": "1992-03-06", "title": "Gladiator", "video": false, "vote_average": 6.2, "vote_count": 55, "popularity": 7.559}, {"id": 19157, "video": false, "vote_count": 70, "vote_average": 2.7, "title": "Going Overboard", "release_date": "1989-05-11", "original_language": "en", "original_title": "Going Overboard", "genre_ids": [35], "backdrop_path": "/b0JtsGWPFVf5Rqn0Y7YXegYcvhJ.jpg", "adult": false, "overview": "A struggling young comedian takes a menial job on a cruise ship where he hopes for his big chance to make it in the world of cruise ship comedy.", "poster_path": "/btTJrU4EAXihCzKYES1ROY6ZUpR.jpg", "popularity": 9.192}, {"id": 100542, "video": false, "vote_count": 33, "vote_average": 4.6, "title": "Vikingdom", "release_date": "2013-09-11", "original_language": "en", "original_title": "Vikingdom", "genre_ids": [12], "backdrop_path": "/7lK2cM9zotTi3pqX5LHe2u9IY1E.jpg", "adult": false, "overview": "A warrior fleeing the violence of his past must take up the sword and risk everything to face a god of incalculable power.", "poster_path": "/wKMs9VXJotRQue48dmHWf1DMCop.jpg", "popularity": 7.248}, {"id": 253295, "video": false, "vote_count": 46, "vote_average": 6.4, "title": "Manny", "release_date": "2014-12-31", "original_language": "en", "original_title": "Manny", "genre_ids": [99, 18], "backdrop_path": "/8CQMlhukSKtGAHCg11iYN7T9gYn.jpg", "adult": false, "overview": "From abject poverty to becoming a ten-time boxing world champion, congressman, and international icon, Manny Pacquiao is the true definition of a Cinderella story. In the Philippines, he first entered the ring as a sixteen-year-old weighing ninety-eight pounds with the goal of earning money to feed his family. Now, almost twenty years later, when he fights, the country of 100 million people comes to a complete standstill to watch. Regarded for his ability to bring people together, Pacquiao entered the political arena in 2010. As history\u2019s first boxing congressman, Pacquiao now fights for his people both inside and outside of the ring. Now at the height of his career, he is faced with maneuvering an unscrupulous sport while maintaining his political duties. The question now is, what bridge is too far for Manny Pacquiao to cross?", "poster_path": "/eG5Hq3GkDzZMmETB9soAz5UCI8Y.jpg", "popularity": 6.278}, {"id": 42566, "video": false, "vote_count": 42, "vote_average": 5.5, "title": "An Eye for an Eye", "release_date": "1981-08-14", "original_language": "en", "original_title": "An Eye for an Eye", "genre_ids": [28, 12, 80], "backdrop_path": "/3BCZw3oMjqQyHRlRtWZ6jS42jRy.jpg", "adult": false, "overview": "Sean Kane is forced to resign from the San Francisco Police Department's Narcotics Division when he goes berserk after his partner is murdered. He decides to fight alone and follows a trail of drug traffickers into unexpected high places.", "poster_path": "/r6ADlyCeDyyBEcP2xqkdCQZWPqj.jpg", "popularity": 7.417}, {"adult": false, "backdrop_path": "/rU052tOJAvYpB979bw2soQ6q47x.jpg", "genre_ids": [35, 10749], "id": 42176, "original_language": "en", "original_title": "The Main Event", "overview": "Hillary Kramer, successful Perfume magnate awakes one morning to find that her accountant has robbed her blind and left for South America. Going through all of her remaining assets she finds a boxer, purchased as a tax write off. She decides to take Kid Natural, (Eddie Scanlon) who is much more at home giving driving lessons, into the ring and use him as her key to riches. Eddie thinks this will only get him killed and resists.", "poster_path": "/yg6zWyQdJJtdTR5bfspNBCjrgDo.jpg", "release_date": "1979-06-22", "title": "The Main Event", "video": false, "vote_average": 5.0, "vote_count": 15, "popularity": 4.7}, {"id": 313074, "video": false, "vote_count": 50, "vote_average": 5.1, "title": "Sword of Vengeance", "release_date": "2014-10-03", "original_language": "en", "original_title": "Sword of Vengeance", "genre_ids": [36], "backdrop_path": "/jcaN0lHWmY8PPdFumbDAGMDOsjJ.jpg", "adult": false, "overview": "Returning to his homeland after years of slavery, a Norman prince seeks revenge on his father's  murderer \u2013 his ruthless uncle, Earl Durant. Gaining the trust of a band of exiled farmers, he leads them into battle against Durant, exploiting them in his inexorable quest for vengeance. As one by one they are slaughtered in the brutal battle, will the prince sacrifice everything an everyone to fulfil his quest for blood?", "poster_path": "/uyZdLJxPRsNPvrLDZQatE3CE3af.jpg", "popularity": 7.078}, {"adult": false, "backdrop_path": "/jcLpa4Z6GkF5cD5vy1LEG3apPls.jpg", "genre_ids": [18], "id": 17487, "original_language": "en", "original_title": "Body and Soul", "overview": "Charley Davis, against the wishes of his mother, becomes a boxer. As he becomes more successful the fighter becomes surrounded by shady characters, including an unethical promoter named Roberts, who tempt the man with a number of vices. Charley finds himself faced with increasingly difficult choices.", "poster_path": "/zb2seWnMyOwbvOP4BKsVAZ1BtPI.jpg", "release_date": "1947-11-09", "title": "Body and Soul", "video": false, "vote_average": 6.7, "vote_count": 46, "popularity": 6.19}, {"adult": false, "backdrop_path": "/ho1VJRlnEoF8cGzqUWkpA6oajlv.jpg", "genre_ids": [99], "id": 13003, "original_language": "en", "original_title": "Gonzo: The Life and Work of Dr. Hunter S. Thompson", "overview": "Fueled by a raging libido, Wild Turkey, and superhuman doses of drugs, Thompson was a true \"free lance, \" goring sacred cows with impunity, hilarity, and a steel-eyed conviction for writing wrongs. Focusing on the good doctor's heyday, 1965 to 1975, the film includes clips of never-before-seen (nor heard) home movies, audiotapes, and passages from unpublished manuscripts.", "poster_path": "/50yZpVfW35nqbEdL4hWdIlLF5Rr.jpg", "release_date": "2008-07-04", "title": "Gonzo: The Life and Work of Dr. Hunter S. Thompson", "video": false, "vote_average": 7.0, "vote_count": 62, "popularity": 6.725}, {"adult": false, "backdrop_path": "/7sUhWH0RAVL8JWK8fpYNzYPUPgO.jpg", "genre_ids": [18], "id": 28528, "original_language": "en", "original_title": "The Harder They Fall", "overview": "Jobless sportswriter Eddie Willis is hired by corrupt fight promoter Nick Benko to promote his current prot\u00e9g\u00e9, an unknown Argentinian boxer named Toro Moreno. Although Moreno is a hulking giant, his chances for success are hampered by a powder-puff punch and a glass jaw. Exploiting Willis' reputation for integrity and standing in the boxing community, Benko arranges a series of fixed fights that propel the unsophisticated Moreno to #1 contender for the championship. The reigning champ, the sadistic Buddy Brannen, harbors resentment at the publicity Toro has been receiving and vows to viciously punish him in the ring. Eddie must now decide whether or not to tell the naive Toro the truth.", "poster_path": "/wUt7Vtexj9CJC9YepC78S5FzXwa.jpg", "release_date": "1956-05-09", "title": "The Harder They Fall", "video": false, "vote_average": 7.1, "vote_count": 54, "popularity": 7.66}, {"id": 213015, "video": false, "vote_count": 44, "vote_average": 6.8, "title": "Unbeatable", "release_date": "2013-08-15", "original_language": "cn", "original_title": "\u6fc0\u6230", "genre_ids": [28, 18], "backdrop_path": "/8spRy66jlk9DwxVoV4Q4GHmBxMs.jpg", "adult": false, "overview": "Fai, once a world champion in boxing, escapes to Macau from the loan sharks and unexpectedly encounters Qi, a young chap who is determined to win a boxing match. Fai becomes Qi's mentor and rediscovers his passion to fight not only in the ring but for his life and the cares.", "poster_path": "/tK9BMigMgxqVg8a0vRneGCzxaBl.jpg", "popularity": 4.762}], "total_pages": 11, "total_results": 219}, "recommendations": {"page": 1, "results": [], "total_pages": 1, "total_results": 0}, "credits": {"cast": [{"cast_id": 1, "character": "Teddy \"Cherokee\" Wilcox", "credit_id": "52fe4dcbc3a368484e1fe145", "gender": 2, "id": 9287, "name": "Robert Blake", "order": 0, "profile_path": "/2jNypGrgrzYyKqlrEsZ6HwSbVcy.jpg"}, {"cast_id": 2, "character": "Nick's Daughter", "credit_id": "52fe4dcbc3a368484e1fe149", "gender": 1, "id": 70119, "name": "Catherine Spaak", "order": 1, "profile_path": "/2K5rOYhol0cPkiBUrWjmmdF4CSD.jpg"}, {"cast_id": 3, "character": "Captain Perkins", "credit_id": "52fe4dcbc3a368484e1fe14d", "gender": 2, "id": 7502, "name": "Ernest Borgnine", "order": 2, "profile_path": "/22dULsrCPcH0eKLY3Y5GAR97ErE.jpg"}, {"cast_id": 5, "character": "", "credit_id": "534fff940e0a267ea10012fa", "gender": 2, "id": 4961, "name": "Gabriele Ferzetti", "order": 3, "profile_path": "/vQxVIzRZPAi37hZzpqqhd0fi5bh.jpg"}, {"cast_id": 6, "character": "", "credit_id": "534fffa80e0a267eb60011e6", "gender": 2, "id": 21708, "name": "Tom\u00e1s Mili\u00e1n", "order": 4, "profile_path": "/kVLofZfWggH8H3h9OyBpyjZtvyq.jpg"}], "crew": [{"credit_id": "534fff7b0e0a267eb90012e9", "department": "Directing", "gender": 2, "id": 99437, "job": "Director", "name": "Franco Prosperi", "profile_path": "/55M2e7qA99xDavKw9MNzgY5ivqQ.jpg"}]}}