{"adult": false, "backdrop_path": "/6RdNBIssDTuxFbS5Ub56IefuqPZ.jpg", "belongs_to_collection": null, "budget": 0, "genres": [{"id": 18, "name": "Drama"}, {"id": 10770, "name": "TV Movie"}], "homepage": null, "id": 2141, "imdb_id": "tt0240628", "original_language": "en", "original_title": "James Dean", "overview": "The man behind the legend and a knowing look at the 1950's Hollywood are revealed in this dynamic bioepic of the meteoric star whose troubled life echoed his gut-grabbing performances in East of Eden, Rebel Without A Cause and Giant.", "popularity": 5.839, "poster_path": "/9RZ4LZYOqtTQWoP7a1jUgXi752e.jpg", "production_companies": [{"id": 974, "logo_path": null, "name": "Five Mile River Films", "origin_country": ""}, {"id": 975, "logo_path": null, "name": "Gerber Pictures", "origin_country": "US"}, {"id": 976, "logo_path": null, "name": "Marvin Worth Productions", "origin_country": "US"}, {"id": 977, "logo_path": null, "name": "Splendid Television", "origin_country": ""}], "production_countries": [{"iso_3166_1": "US", "name": "United States of America"}], "release_date": "2001-08-04", "revenue": 0, "runtime": 90, "spoken_languages": [{"iso_639_1": "en", "name": "English"}], "status": "Released", "tagline": "The stars that burn brightest burn quickest", "title": "James Dean", "video": false, "vote_average": 7.1, "vote_count": 59, "keywords": {"keywords": [{"id": 4463, "name": "icon"}, {"id": 5565, "name": "biography"}, {"id": 12396, "name": "hollywood, california"}, {"id": 164245, "name": "dying young"}, {"id": 207716, "name": "actor"}, {"id": 208611, "name": "1950s"}]}, "similar": {"page": 1, "results": [{"adult": false, "backdrop_path": "/tr6OExnBfjLADi9OyZoW308mPAp.jpg", "genre_ids": [18, 35, 10749], "id": 74643, "original_language": "en", "original_title": "The Artist", "overview": "Hollywood, 1927: As silent movie star George Valentin wonders if the arrival of talking pictures will cause him to fade into oblivion, he sparks with Peppy Miller, a young dancer set for a big break.", "poster_path": "/i0mpvMIIjyubXsVKug9vX0lYpnd.jpg", "release_date": "2011-06-26", "title": "The Artist", "video": false, "vote_average": 7.4, "vote_count": 1977, "popularity": 10.661}, {"adult": false, "backdrop_path": "/urnGzQvP8fwWWGkn1k809KqIjbm.jpg", "genre_ids": [18], "id": 87093, "original_language": "en", "original_title": "Big Eyes", "overview": "The story of the awakening of painter, Margaret Keane, her phenomenal success in the 1950s, and the subsequent legal difficulties she had with her husband, who claimed credit for her works in the 1960s.", "poster_path": "/z2tqzprHojhgEGYKQepjU28oQg6.jpg", "release_date": "2014-12-24", "title": "Big Eyes", "video": false, "vote_average": 7.0, "vote_count": 2349, "popularity": 14.024}, {"adult": false, "backdrop_path": "/r8pjTYuz3fDOFAhHNrhrsrh9lNa.jpg", "genre_ids": [18], "id": 294016, "original_language": "en", "original_title": "Trumbo", "overview": "The career of screenwriter Dalton Trumbo is halted by a witch hunt in the late 1940s when he defies the anti-communist HUAC committee and is blacklisted.", "poster_path": "/zShoKppVxFtRP8pIVeVQ4j2DEkz.jpg", "release_date": "2015-10-27", "title": "Trumbo", "video": false, "vote_average": 7.2, "vote_count": 971, "popularity": 9.737}, {"id": 466272, "video": false, "vote_count": 4091, "vote_average": 7.5, "title": "Once Upon a Time\u2026 in Hollywood", "release_date": "2019-07-25", "original_language": "en", "original_title": "Once Upon a Time\u2026 in Hollywood", "genre_ids": [35, 18, 53], "backdrop_path": "/yB2hTgz9CTVYjlMWPSl3LPx5nWj.jpg", "adult": false, "overview": "Los Angeles, 1969. TV star Rick Dalton, a struggling actor specializing in westerns, and stuntman Cliff Booth, his best friend, try to survive in a constantly changing movie industry. Dalton is the neighbor of the young and promising actress and model Sharon Tate, who has just married the prestigious Polish director Roman Polanski\u2026", "poster_path": "/8j58iEBw9pOXFD2L0nt0ZXeHviB.jpg", "popularity": 111.288}, {"adult": false, "backdrop_path": "/9alS7FBSf8rvDLskpCRuKqAI2h5.jpg", "genre_ids": [18, 36], "id": 746, "original_language": "en", "original_title": "The Last Emperor", "overview": "A dramatic history of Pu Yi, the last of the Emperors of China, from his lofty birth and brief reign in the Forbidden City, the object of worship by half a billion people; through his abdication, his decline and dissolute lifestyle; his exploitation by the invading Japanese, and finally to his obscure existence as just another peasant worker in the People's Republic.", "poster_path": "/KTirnfG6FZLKWbm8Am3EEKmZDx.jpg", "release_date": "1987-10-21", "title": "The Last Emperor", "video": false, "vote_average": 7.6, "vote_count": 774, "popularity": 13.039}, {"id": 394741, "video": false, "vote_count": 498, "vote_average": 7.0, "title": "Stan & Ollie", "release_date": "2018-12-28", "original_language": "en", "original_title": "Stan & Ollie", "genre_ids": [35, 18], "backdrop_path": "/bH7ax3A4Pxlh5ddG4d3HNDMlhK4.jpg", "adult": false, "overview": "With their golden era long behind them, comedy duo Stan Laurel and Oliver Hardy embark on a variety hall tour of Britain and Ireland. Despite the pressures of a hectic schedule, and with the support of their wives Lucille and Ida \u2013 a formidable double act in their own right \u2013 the pair's love of performing, as well as for each other, endures as they secure their place in the hearts of their adoring public", "poster_path": "/8qDBDXA8Od8gc4IQMnoXUKyj8Pf.jpg", "popularity": 18.424}, {"id": 75900, "video": false, "vote_count": 809, "vote_average": 6.7, "title": "My Week with Marilyn", "release_date": "2011-11-23", "original_language": "en", "original_title": "My Week with Marilyn", "genre_ids": [18], "backdrop_path": "/ez5WJJ9VsFvOASh0nbm8L4lkdju.jpg", "adult": false, "overview": "Sir Laurence Olivier is making a movie in London. Young Colin Clark, an eager film student, wants to be involved and he navigates himself a job on the set. When film star Marilyn Monroe arrives for the start of shooting, all of London is excited to see the blonde bombshell, while Olivier is struggling to meet her many demands and acting ineptness, and Colin is intrigued by her. Colin's intrigue is met when Marilyn invites him into her inner world where she struggles with her fame, her beauty and her desire to be a great actress.", "poster_path": "/exyLhOls9XyWr5Eq5F8HX0I6mPu.jpg", "popularity": 15.217}, {"adult": false, "backdrop_path": "/pdIoY6ZOqwbwPlTuDh83TbJ64xw.jpg", "genre_ids": [35, 18, 9648], "id": 270487, "original_language": "en", "original_title": "Hail, Caesar!", "overview": "When a Hollywood star mysteriously disappears in the middle of filming, the studio sends their \"fixer\" to get him back. Set in the 1950s, the story was inspired by the career of Eddie Mannix (1891\u20131963).", "poster_path": "/rzMYZYphL9qrbBClQq1Jc0zPMmY.jpg", "release_date": "2016-02-05", "title": "Hail, Caesar!", "video": false, "vote_average": 5.9, "vote_count": 2550, "popularity": 11.273}, {"id": 371638, "video": false, "vote_count": 2188, "vote_average": 7.2, "title": "The Disaster Artist", "release_date": "2017-03-12", "original_language": "en", "original_title": "The Disaster Artist", "genre_ids": [35, 18], "backdrop_path": "/cCIWU5b4izIpLeGQnQNW7iTtIDN.jpg", "adult": false, "overview": "An aspiring actor in Hollywood meets an enigmatic stranger by the name of Tommy Wiseau, the meeting leads the actor down a path nobody could have predicted; creating the worst movie ever made.", "poster_path": "/jj84nF5vYRD0HUTowBKcrKk8hZP.jpg", "popularity": 20.869}, {"id": 291984, "video": false, "vote_count": 342, "vote_average": 7.4, "title": "The Death & Life of John F. Donovan", "release_date": "2019-03-13", "original_language": "en", "original_title": "The Death & Life of John F. Donovan", "genre_ids": [18], "backdrop_path": "/duXbSimVAH4ZThehr8EFq8d4zlU.jpg", "adult": false, "overview": "A decade after the death of an American TV star, a young actor reminisces about the written correspondence he once shared with the former, as well as the impact those letters had on both their lives.", "poster_path": "/2bhI7Ivk7VmvUaJaDTxJUgOXp1E.jpg", "popularity": 11.617}, {"adult": false, "backdrop_path": "/nU6DDTabbMkd3649WYtSiOdHCMC.jpg", "genre_ids": [18, 10749], "id": 332283, "original_language": "en", "original_title": "Mary Shelley", "overview": "The love affair between poet Percy Shelley and Mary Wollstonecraft Godwin resulted in the creation of an immortal novel, \u201cFrankenstein; or, The Modern Prometheus.\u201d", "poster_path": "/gKHJTsrfxJtfFNPQJn2hDNEMtFf.jpg", "release_date": "2018-04-22", "title": "Mary Shelley", "video": false, "vote_average": 7.1, "vote_count": 516, "popularity": 11.335}, {"id": 5915, "video": false, "vote_count": 6283, "vote_average": 7.8, "title": "Into the Wild", "release_date": "2007-09-11", "original_language": "en", "original_title": "Into the Wild", "genre_ids": [12, 18], "backdrop_path": "/9yJehIjvR7ULOLxeDJoth4kDDNe.jpg", "adult": false, "overview": "After graduating from Emory University in 1992, top student and athlete Christopher McCandless abandons his possessions, gives his entire $24,000 savings account to charity, and hitchhikes to Alaska to live in the wilderness.", "poster_path": "/lHyYgaocXR6KcJLxVmxZDj115hH.jpg", "popularity": 13.103}, {"id": 457799, "video": false, "vote_count": 1569, "vote_average": 7.0, "title": "Extremely Wicked, Shockingly Evil and Vile", "release_date": "2019-05-02", "original_language": "en", "original_title": "Extremely Wicked, Shockingly Evil and Vile", "genre_ids": [80, 18, 53], "backdrop_path": "/uRoA67sM5vvCI4cplxhl67BTPly.jpg", "adult": false, "overview": "A chronicle of the crimes of Ted Bundy, from the perspective of his longtime girlfriend, Elizabeth Kloepfer, who refused to believe the truth about him for years.", "poster_path": "/zSuJ3r5zr5T26tTxyygHhgkUAIM.jpg", "popularity": 20.961}, {"id": 396371, "video": false, "vote_count": 1968, "vote_average": 7.1, "title": "Molly's Game", "release_date": "2017-12-25", "original_language": "en", "original_title": "Molly's Game", "genre_ids": [80, 18], "backdrop_path": "/rHcBZ6ZKCe4FalWHyvBGsyMsh0k.jpg", "adult": false, "overview": "Molly Bloom, a young skier and former Olympic hopeful becomes a successful entrepreneur (and a target of an FBI investigation) when she establishes a high-stakes, international poker game.", "poster_path": "/in43bQ7k0ttr666IPP94IlbQbTR.jpg", "popularity": 18.118}, {"id": 369972, "video": false, "vote_count": 2999, "vote_average": 7.1, "title": "First Man", "release_date": "2018-10-11", "original_language": "en", "original_title": "First Man", "genre_ids": [18, 36], "backdrop_path": "/jrudoaXcoLyHRPdolyOGemXgPEs.jpg", "adult": false, "overview": "A look at the life of the astronaut, Neil Armstrong, and the legendary space mission that led him to become the first man to walk on the Moon on July 20, 1969.", "poster_path": "/i91mfvFcPPlaegcbOyjGgiWfZzh.jpg", "popularity": 33.506}, {"adult": false, "backdrop_path": "/jK3EAFk3GdOaQfUDCOiTujzMpwH.jpg", "genre_ids": [18], "id": 389015, "original_language": "en", "original_title": "I, Tonya", "overview": "Competitive ice skater Tonya Harding rises amongst the ranks at the U. S. Figure Skating Championships, but her future in the sport is thrown into doubt when her ex-husband intervenes.", "poster_path": "/6gNXwSHxaksR1PjVZRqNapmkgj3.jpg", "release_date": "2017-12-08", "title": "I, Tonya", "video": false, "vote_average": 7.5, "vote_count": 3327, "popularity": 19.513}, {"id": 318846, "video": false, "vote_count": 5226, "vote_average": 7.3, "title": "The Big Short", "release_date": "2015-12-11", "original_language": "en", "original_title": "The Big Short", "genre_ids": [35, 18], "backdrop_path": "/6UyMLbe0lAPqfZLtVllAwBNFIis.jpg", "adult": false, "overview": "The men who made millions from a global economic meltdown.", "poster_path": "/p11Ftd4VposrAzthkhF53ifYZRl.jpg", "popularity": 21.111}, {"id": 300671, "video": false, "vote_count": 1700, "vote_average": 7.1, "title": "13 Hours: The Secret Soldiers of Benghazi", "release_date": "2016-01-13", "original_language": "en", "original_title": "13 Hours: The Secret Soldiers of Benghazi", "genre_ids": [28, 18, 36, 53, 10752], "backdrop_path": "/hY8myWhjSOUeeiPskhOfwwgaCwc.jpg", "adult": false, "overview": "An American Ambassador is killed during an attack at a U.S. compound in Libya as a security team struggles to make sense out of the chaos.", "poster_path": "/4gpW4MkRI0BB17GHOJzXq0WamDP.jpg", "popularity": 21.078}, {"id": 310307, "video": false, "vote_count": 2423, "vote_average": 7.0, "title": "The Founder", "release_date": "2016-09-13", "original_language": "en", "original_title": "The Founder", "genre_ids": [18, 36], "backdrop_path": "/qPZpmZKO2N73IeHMuyck116ZpiO.jpg", "adult": false, "overview": "The true story of how Ray Kroc, a salesman from Illinois, met Mac and Dick McDonald, who were running a burger operation in 1950s Southern California. Kroc was impressed by the brothers\u2019 speedy system of making the food and saw franchise potential. He maneuvered himself into a position to be able to pull the company from the brothers and create a billion-dollar empire.", "poster_path": "/fxvlzT7yyKiZneTDPwk85BSw1JF.jpg", "popularity": 19.494}, {"id": 334543, "video": false, "vote_count": 4305, "vote_average": 8.1, "title": "Lion", "release_date": "2016-11-24", "original_language": "en", "original_title": "Lion", "genre_ids": [18], "backdrop_path": "/fgffluhvdOv79SkYaKrfRA0xkf4.jpg", "adult": false, "overview": "A five-year-old Indian boy gets lost on the streets of Calcutta, thousands of kilometers from home. He survives many challenges before being adopted by a couple in Australia; 25 years later, he sets out to find his lost family.", "poster_path": "/iBGRbLvg6kVc7wbS8wDdVHq6otm.jpg", "popularity": 36.395}], "total_pages": 23, "total_results": 453}, "recommendations": {"page": 1, "results": [{"adult": false, "backdrop_path": "/kGAAEQogV7gYWleigvjqWQl85c4.jpg", "genre_ids": [35], "id": 47118, "original_language": "el", "original_title": "\u03a4\u03bf \u03ba\u03bb\u03ac\u03bc\u03b1 \u03b2\u03b3\u03ae\u03ba\u03b5 \u03b1\u03c0' \u03c4\u03bf\u03bd \u03c0\u03b1\u03c1\u03ac\u03b4\u03b5\u03b9\u03c3\u03bf", "overview": "This is the story of two Greek families, named Delafrangas and Bisbikides. The former family is very wealthy & lucky, the latter very poor and continually struck by fate. Poor but honest Martha is in love with Giakoumis, a young builder and bouzouki organist, but all her dreams fall apart when posh Tzela \"steals\" the love of her beloved one... A couple of flash backs, following their families roots back to WW2 and the Turkish domination, and a hidden secret will unfold the story's ending..", "poster_path": "/4q8jd5e7Coj86MVwwzCkuODDsjJ.jpg", "release_date": "2001-10-26", "title": "Crying... Silicon Tears", "video": false, "vote_average": 6.9, "vote_count": 15, "popularity": 2.534}, {"id": 165569, "video": false, "vote_count": 9, "vote_average": 5.0, "title": "Wuthering Heights", "release_date": "2003-09-14", "original_language": "en", "original_title": "Wuthering Heights", "genre_ids": [18, 10770], "backdrop_path": "/daVatdWFFxFgwXN5ZQpMl4AzLyh.jpg", "adult": false, "overview": "A musical version of the classic story set in the modern day.", "poster_path": "/q3rJqtzYZelGUJUVweFmFM8bK9D.jpg", "popularity": 5.093}, {"adult": false, "backdrop_path": "/5WuyDtg973eUtgNMKMAxejCIjyc.jpg", "genre_ids": [35], "id": 35396, "original_language": "el", "original_title": "\u039d\u03aesos", "overview": "The death of a prominent citizen reveals the corruption that festers behind closed doors on a seemingly beautiful serene Greek island of Sifnos.", "poster_path": "/mX0cfccWyPkMVdjp261TTiCjw1L.jpg", "release_date": "2009-12-29", "title": "The Island (\u03bd\u03aesos)", "video": false, "vote_average": 6.7, "vote_count": 13, "popularity": 3.522}, {"adult": false, "backdrop_path": "/aALepIbYEs1DJavHb54s6OJDUNh.jpg", "genre_ids": [18, 10749], "id": 80070, "original_language": "en", "original_title": "On the Edge", "overview": "On the Edge is about suicidal patients discovering their true selves while going through therapy in a treatment center.", "poster_path": "/coPDDnNIzcKwszCt2QiAuTIz2Es.jpg", "release_date": "2001-08-10", "title": "On the Edge", "video": false, "vote_average": 7.0, "vote_count": 21, "popularity": 2.548}, {"adult": false, "backdrop_path": "/ev3KS2ST3ArXGLT9aykzPTxvVKr.jpg", "genre_ids": [18, 36, 10749], "id": 72966, "original_language": "en", "original_title": "Henry VIII", "overview": "Henry VIII is a two-part British television movie produced principally by Granada Television for ITV. It chronicles the life of Henry VIII of England from the disintegration of his first marriage to an aging Spanish princess until his death following a stroke in 1547, by which time he had married for the sixth time. Additional production funding was provided by WGBH Boston, Powercorp and the Australian Broadcasting Corporation.", "poster_path": "/m1Hsdj5d3NazyYLi2uxDuAdNiAd.jpg", "release_date": "2003-10-12", "title": "Henry VIII", "video": false, "vote_average": 6.5, "vote_count": 14, "popularity": 4.751}, {"adult": false, "backdrop_path": "/2X89wrsQKEMPOkDkLKX5xoGwcar.jpg", "genre_ids": [], "id": 172499, "original_language": "el", "original_title": "\u0391\u03bd...", "overview": "Athens - Greece - The age of Economic crisis Demetris is a highly independent man who lives a normal life. A confirmed bachelor at the age of 33! When a moment arrives, his choice at that point in time will change everything. His roommate is a female German Shepherd called Lonesome. One night, after supper, Lonesome wants to be taken out. Demetris tries to change her mind but Lonesome insists Its at this moment that he comes to a decision. This decision will change his entire life. If Demetris goes out he will meet Christina, the love of his life. If he stays in, he will not meet her. Does true love exist? What is the impact of a severe economic crisis on people and how can the crisis destroy a couple? One story shown from two different angles.", "poster_path": "/3ZT22jUgIhfoIl5V0r8DWXZlMC4.jpg", "release_date": "2012-11-28", "title": "What If...", "video": false, "vote_average": 6.2, "vote_count": 22, "popularity": 1.336}, {"adult": false, "backdrop_path": "/2fOLHNI6clZ9vOAJmS33owPbb4i.jpg", "genre_ids": [18], "id": 34557, "original_language": "en", "original_title": "Turn the Beat Around", "overview": "An idealist young dancer named Zoe (Romina D\u2019Ugo) tackles the difficult issue of resurrecting disco dancing in today\u2019s music business. She meets hostility beyond resistance on every dance floor where she spins and twirls. Fortunately, she has at least one ally, a nightclub owner and visionary named Michael (David Guintoli) who shares her zeal for the long-ago dance craze. With money to burn, Michael arranges for Zoe to test market bringing back disco, even with rival choreographers like Malika (Brooklyn Sudano). Soon dance takes a two-step in the wrong direction when hard-hearted Malika and Michael start vying to become Zoe\u2019s dance partner.", "poster_path": "/7i0Zy5GiavPvdeK73wasXsQvwNX.jpg", "release_date": "2010-02-26", "title": "Turn the Beat Around", "video": false, "vote_average": 6.4, "vote_count": 7, "popularity": 3.316}, {"adult": false, "backdrop_path": "/yFMVHGyumJm5j7QeQ6bwegILcuR.jpg", "genre_ids": [53, 10770, 18, 9648], "id": 28486, "original_language": "en", "original_title": "The Hound of the Baskervilles", "overview": "Sherlock Holmes and Dr. Watson are called in to unravel a mysterious curse that has plagued the Baskerville family for generations. When Sir Charles Baskerville is found dead, his heir, Sir Henry, begs Holmes to save him from the terrifying supernatural hound that has brought fear and death to his household.", "poster_path": "/onJ9vxNd80o7UgQ9BAVVS6X5fWs.jpg", "release_date": "2002-12-26", "title": "The Hound of the Baskervilles", "video": false, "vote_average": 6.3, "vote_count": 18, "popularity": 5.098}], "total_pages": 1, "total_results": 8}, "credits": {"cast": [{"cast_id": 12, "character": "James Dean", "credit_id": "52fe433ac3a36847f8043fc1", "gender": 2, "id": 17051, "name": "James Franco", "order": 0, "profile_path": "/tTzie9cpKHxajFRqUOZBaIWGZGM.jpg"}, {"cast_id": 13, "character": "Winton Dean", "credit_id": "52fe433ac3a36847f8043fc5", "gender": 2, "id": 21030, "name": "Michael Moriarty", "order": 1, "profile_path": "/2EY162LDxpVVG6g10lm70uxkNJp.jpg"}, {"cast_id": 14, "character": "Pier Angeli", "credit_id": "52fe433ac3a36847f8043fc9", "gender": 1, "id": 21965, "name": "Valentina Cervi", "order": 2, "profile_path": "/6esZeabxIXAlvX7AnXQSbmbTdkN.jpg"}, {"cast_id": 15, "character": "Elia Kazan", "credit_id": "52fe433ac3a36847f8043fcd", "gender": 2, "id": 15029, "name": "Enrico Colantoni", "order": 3, "profile_path": "/yxxy8IrGRwnRPbLmgyfwF26Feve.jpg"}, {"cast_id": 17, "character": "Hedda Hopper", "credit_id": "52fe433ac3a36847f8043fd1", "gender": 1, "id": 16051, "name": "Joanne Linville", "order": 4, "profile_path": "/zc694khBdWZnTSe13ieOmQH0sTB.jpg"}, {"cast_id": 18, "character": "Billy Rose", "credit_id": "52fe433ac3a36847f8043fd5", "gender": 2, "id": 16542, "name": "John Pleshette", "order": 5, "profile_path": "/4Uf2uc679UjQxU9Q9ThQYtO7ciT.jpg"}, {"cast_id": 19, "character": "Martin Landau", "credit_id": "52fe433ac3a36847f8043fd9", "gender": 0, "id": 21967, "name": "Samuel Gould", "order": 6, "profile_path": "/kzoyMk82i2tzag1KtJXVvwLR16K.jpg"}, {"cast_id": 20, "character": "Raymond Massey", "credit_id": "52fe433ac3a36847f8043fdd", "gender": 2, "id": 52995, "name": "Edward Herrmann", "order": 7, "profile_path": "/3AGRAverIuT6kgSfGQPiY55QZzG.jpg"}, {"cast_id": 21, "character": "Jane Deacy", "credit_id": "56c753e49251410e380028ef", "gender": 1, "id": 170189, "name": "Ellen Gerstein", "order": 8, "profile_path": "/pSeTLBNeyEMtcJNfwmUzLIOiujs.jpg"}, {"cast_id": 23, "character": "Jayne Mansfield", "credit_id": "58fe461592514163df03519b", "gender": 1, "id": 52144, "name": "Lana Clarkson", "order": 9, "profile_path": "/mPcfJBBENUFpXkK7eWGeljxhuun.jpg"}], "crew": [{"credit_id": "52fe433ac3a36847f8043f81", "department": "Directing", "gender": 2, "id": 21958, "job": "Director", "name": "Mark Rydell", "profile_path": "/jnv40T7RTervb0jHzkh9bJFtQvH.jpg"}, {"credit_id": "52fe433ac3a36847f8043f87", "department": "Writing", "gender": 2, "id": 21960, "job": "Screenplay", "name": "Israel Horovitz", "profile_path": null}, {"credit_id": "52fe433ac3a36847f8043f8d", "department": "Production", "gender": 2, "id": 21961, "job": "Producer", "name": "George W. Perkins", "profile_path": null}, {"credit_id": "52fe433ac3a36847f8043f93", "department": "Sound", "gender": 2, "id": 21962, "job": "Original Music Composer", "name": "John Frizzell", "profile_path": "/jAhfYD26ihaLcOe1AKX6aRDcLLo.jpg"}, {"credit_id": "52fe433ac3a36847f8043f99", "department": "Camera", "gender": 2, "id": 18257, "job": "Director of Photography", "name": "Robbie Greenberg", "profile_path": null}, {"credit_id": "52fe433ac3a36847f8043f9f", "department": "Editing", "gender": 2, "id": 12509, "job": "Editor", "name": "Antony Gibbs", "profile_path": null}, {"credit_id": "52fe433ac3a36847f8043fa5", "department": "Production", "gender": 0, "id": 4952, "job": "Casting", "name": "Nancy Foy", "profile_path": "/blCkmS4dqNsbPGuQfozHE6wgWBw.jpg"}, {"credit_id": "52fe433ac3a36847f8043fab", "department": "Art", "gender": 2, "id": 21963, "job": "Set Designer", "name": "Robert Pearson", "profile_path": null}, {"credit_id": "52fe433ac3a36847f8043fb1", "department": "Art", "gender": 2, "id": 11374, "job": "Art Direction", "name": "Marc Dabe", "profile_path": null}, {"credit_id": "52fe433ac3a36847f8043fb7", "department": "Art", "gender": 0, "id": 603, "job": "Set Decoration", "name": "Leslie McCarthy-Frankenheimer", "profile_path": null}, {"credit_id": "52fe433ac3a36847f8043fbd", "department": "Costume & Make-Up", "gender": 1, "id": 21964, "job": "Set Costumer", "name": "Yvonne Blake", "profile_path": "/4ryEQrB0CwzDiE0QEEU9C7eGbLV.jpg"}, {"credit_id": "570831d7c3a3681d290005de", "department": "Crew", "gender": 0, "id": 1368867, "job": "Special Effects Coordinator", "name": "Allen Hall", "profile_path": null}, {"credit_id": "5c1530e392514132c60ad1c3", "department": "Art", "gender": 2, "id": 1648134, "job": "Title Designer", "name": "Dan Perri", "profile_path": null}]}}