{"adult": false, "backdrop_path": "/8vts6oR6O1TLxoT0dYfOTJZDhPM.jpg", "belongs_to_collection": null, "budget": 0, "genres": [{"id": 36, "name": "History"}, {"id": 18, "name": "Drama"}], "homepage": null, "id": 214251, "imdb_id": "tt3102458", "original_language": "ca", "original_title": "Historia de la meva mort", "overview": "Famous lover Casanova (Vicen\u00e7 Altai\u00f3), now long past his prime, meets Count Dracula (Eliseu Huertas) during a journey to Transylvania.", "popularity": 1.848, "poster_path": "/y3hQXhmOL6tIFziemryRN8HdxYS.jpg", "production_companies": [{"id": 13720, "logo_path": null, "name": "Andergraun Films", "origin_country": ""}, {"id": 15261, "logo_path": "/wgKSrQW5yw07bT1TR0iTRO6FD2d.png", "name": "Capricci Films", "origin_country": "FR"}, {"id": 5085, "logo_path": "/mPuVc7m1Ki7OQQvAYwYfIlEI3vu.png", "name": "Televisi\u00f3 de Catalunya", "origin_country": "ES"}], "production_countries": [{"iso_3166_1": "ES", "name": "Spain"}, {"iso_3166_1": "FR", "name": "France"}], "release_date": "2013-10-23", "revenue": 0, "runtime": 148, "spoken_languages": [{"iso_639_1": "ca", "name": "Catal\u00e0"}], "status": "Released", "tagline": "", "title": "Story of My Death", "video": false, "vote_average": 8.2, "vote_count": 9, "keywords": {"keywords": [{"id": 572, "name": "sex"}, {"id": 3133, "name": "vampire"}, {"id": 8642, "name": "casanova"}]}, "similar": {"page": 1, "results": [{"adult": false, "backdrop_path": "/98ahnrena4PwLth7HFYGLf9yssH.jpg", "genre_ids": [35, 18, 10749], "id": 22705, "original_language": "it", "original_title": "Tra(sgre)dire", "overview": "While scouting out apartments in London for her Venetian boyfriend, Carla rents an apartment that overlooks the Thames. There she meet the lesbian hyper-horny real estate agent Moira.", "poster_path": "/kZITrLEiTfzzJhtwtXhQUl3ImCQ.jpg", "release_date": "2000-01-28", "title": "Cheeky", "video": false, "vote_average": 5.7, "vote_count": 92, "popularity": 30.42}, {"adult": false, "backdrop_path": "/ysLIi9nzMbUqi4dQh3tqblUb27o.jpg", "genre_ids": [878, 28, 27, 53, 12, 14], "id": 36648, "original_language": "en", "original_title": "Blade: Trinity", "overview": "For years, Blade has fought against the vampires in the cover of the night. But now, after falling into the crosshairs of the FBI, he is forced out into the daylight, where he is driven to join forces with a clan of human vampire hunters he never knew existed\u2014The Nightstalkers. Together with Abigail and Hannibal, two deftly trained Nightstalkers, Blade follows a trail of blood to the ancient creature that is also hunting him\u2014the original vampire, Dracula.", "poster_path": "/4WinsdHQBdh5aTt7Bd7T7dbUXbb.jpg", "release_date": "2004-12-08", "title": "Blade: Trinity", "video": false, "vote_average": 5.8, "vote_count": 2278, "popularity": 19.358}, {"adult": false, "backdrop_path": "/tvTyRu9eKfymkje8d9VoWJEoyUv.jpg", "genre_ids": [18], "id": 53932, "original_language": "es", "original_title": "Las edades de Lul\u00fa", "overview": "Fifteen-year-old Lulu has never known any affection from her family. But when she goes to a rock concert with Pablo, a friend of the family, he introduces Lulu to her first sexual experience. Years later, Pablo and Lulu have married; Pablo has created a sheltered, private world for Lulu, into which nothing intrudes. However, Lulu tires of her cloistered existence, and begins hanging out in shady bars, looking for vicarious thrills and danger.", "poster_path": "/5PK5MAN84o0ESgzeW9euozOLIEe.jpg", "release_date": "1990-12-13", "title": "The Ages of Lulu", "video": false, "vote_average": 5.7, "vote_count": 64, "popularity": 24.141}, {"id": 12531, "video": false, "vote_count": 91, "vote_average": 6.9, "title": "The Apartment", "release_date": "1996-07-27", "original_language": "fr", "original_title": "L'Appartement", "genre_ids": [18, 9648, 10749], "backdrop_path": "/64qyT8m4JQ6YODvXxtbHgKmXBX7.jpg", "adult": false, "overview": "A stylish suspense thriller that confounds the audience while presenting them with an extraordinary and elusive mystery. Max is a former playboy who has decided to settle down by marrying his current love, Muriel. However, during a business trip, Max catches a glimpse of the great lost love of his life, reviving his wanderlust and sending him off on a chase of the elusive Lisa, whom he had overheard suggesting to a friend that her lover, Daniel, had killed someone for her. Soon, Max is trying to unravel the mystery behind the suspicious death of Daniel's wife, which he hopes will lead him closer to Lisa.", "poster_path": "/1sqrQdQTn8jKLhUcPKfRVj639zA.jpg", "popularity": 19.17}, {"id": 49017, "video": false, "vote_count": 4003, "vote_average": 6.3, "title": "Dracula Untold", "release_date": "2014-10-01", "original_language": "en", "original_title": "Dracula Untold", "genre_ids": [28, 18, 14, 27, 10752], "backdrop_path": "/gy5ItoprIPOT7Z1c2YhNhart39l.jpg", "adult": false, "overview": "Vlad Tepes is a great hero, but when he learns the Sultan is preparing for battle and needs to form an army of 1,000 boys, he vows to find a way to protect his family. Vlad turns to dark forces in order to get the power to destroy his enemies and agrees to go from hero to monster as he's turned into the mythological vampire, Dracula.", "poster_path": "/4oy4e0DP6LRwRszfx8NY8EYBj8V.jpg", "popularity": 32.104}, {"adult": false, "backdrop_path": "/uC54rlRdLMZ46fnrz5SoVYleNyv.jpg", "genre_ids": [18], "id": 4995, "original_language": "en", "original_title": "Boogie Nights", "overview": "Set in 1977, back when sex was safe, pleasure was a business and business was booming, idealistic porn producer Jack Horner aspires to elevate his craft to an art form. Horner discovers Eddie Adams, a hot young talent working as a busboy in a nightclub, and welcomes him into the extended family of movie-makers, misfits and hangers-on that are always around. Adams' rise from nobody to a celebrity adult entertainer is meteoric, and soon the whole world seems to know his porn alter ego, \"Dirk Diggler\". Now, when disco and drugs are in vogue, fashion is in flux and the party never seems to stop, Adams' dreams of turning sex into stardom are about to collide with cold, hard reality.", "poster_path": "/gTq6MPt7SeMiJ2miHeMoNEZTz4p.jpg", "release_date": "1997-10-07", "title": "Boogie Nights", "video": false, "vote_average": 7.6, "vote_count": 1660, "popularity": 21.563}, {"adult": false, "backdrop_path": "/yIszPJawrrp6zcb62d7XJnaxAmw.jpg", "genre_ids": [18], "id": 13078, "original_language": "en", "original_title": "The Babysitters", "overview": "Seventeen-year-old Shirley is a good student who works as a babysitter in order to make money for college. One night Michael, a father Shirley works for, confesses he's unhappy with married life. Shirley has a crush on Michael, and seizes this moment to kiss him. Michael is so happy he presents Shirley with a big tip, which gives her an idea. Shirley plans to make extra money by setting up her teenage friends with other unhappy fathers.", "poster_path": "/nsrNUqGXI95unRKZEu8BJ584xWn.jpg", "release_date": "2007-09-11", "title": "The Babysitters", "video": false, "vote_average": 5.3, "vote_count": 153, "popularity": 15.673}, {"id": 9945, "video": false, "vote_count": 533, "vote_average": 6.1, "title": "Vampires", "release_date": "1998-10-30", "original_language": "en", "original_title": "Vampires", "genre_ids": [28, 18, 14, 27, 53, 37], "backdrop_path": "/rFCx9xDNgywf1A5hsBbic0C0ihd.jpg", "adult": false, "overview": "The church enlists a team of vampire-hunters to hunt down and destroy a group of vampires searching for an ancient relic that will allow them to exist in sunlight.", "poster_path": "/qHGawU64MeGvtU86s6V0MA7MqFV.jpg", "popularity": 9.529}, {"id": 10537, "video": false, "vote_count": 603, "vote_average": 6.9, "title": "The Doors", "release_date": "1991-03-01", "original_language": "en", "original_title": "The Doors", "genre_ids": [18, 10402], "backdrop_path": "/1rv5sW6Qs2YK2iOzIgwH3SJPIl1.jpg", "adult": false, "overview": "The story of the famous and influential 1960s rock band and its lead singer and composer, Jim Morrison.", "poster_path": "/9CkFrWAkg23YynYd2uJLyWznMZZ.jpg", "popularity": 14.573}, {"id": 7131, "video": false, "vote_count": 3395, "vote_average": 6.1, "title": "Van Helsing", "release_date": "2004-05-05", "original_language": "en", "original_title": "Van Helsing", "genre_ids": [28, 12, 27], "backdrop_path": "/sib4pGrwKQUbFRyHlhXv03HXoHj.jpg", "adult": false, "overview": "Famed monster slayer Gabriel Van Helsing is dispatched to Transylvania to assist the last of the Valerious bloodline in defeating Count Dracula. Anna Valerious reveals that Dracula has formed an unholy alliance with Dr. Frankenstein's monster and is hell-bent on exacting a centuries-old curse on her family.", "poster_path": "/s2OPT5CZsZBQYAIlO9Mv4AimHvV.jpg", "popularity": 19.526}, {"id": 76492, "video": false, "vote_count": 5544, "vote_average": 6.9, "title": "Hotel Transylvania", "release_date": "2012-09-20", "original_language": "en", "original_title": "Hotel Transylvania", "genre_ids": [16, 35, 14, 10751], "backdrop_path": "/sETTal2HPPkUC3lWc27HL1AFu9C.jpg", "adult": false, "overview": "Welcome to Hotel Transylvania, Dracula's lavish five-stake resort, where monsters and their families can live it up and no humans are allowed. One special weekend, Dracula has invited all his best friends to celebrate his beloved daughter Mavis's 118th birthday. For Dracula catering to all of these legendary monsters is no problem but the party really starts when one ordinary guy stumbles into the hotel and changes everything!", "poster_path": "/9qugesYpAWHUpdrw2w8URSGkAPt.jpg", "popularity": 25.375}, {"id": 2770, "video": false, "vote_count": 2941, "vote_average": 6.1, "title": "American Pie 2", "release_date": "2001-08-10", "original_language": "en", "original_title": "American Pie 2", "genre_ids": [35, 10749], "backdrop_path": "/1C1d3Tpesm8Vn3BRqsQZt0LfZcG.jpg", "adult": false, "overview": "The whole gang are back and as close as ever. They decide to get even closer by spending the summer together at a beach house. They decide to hold the biggest party ever to be seen, even if the preparation doesn't always go to plan. Especially when Stifler, Finch and Jim become more close to each other than they ever want to be and when Jim mistakes super glue for lubricant...", "poster_path": "/q4LNgUnRfltxzp3gf1MAGiK5LhV.jpg", "popularity": 20.359}, {"id": 36647, "video": false, "vote_count": 3460, "vote_average": 6.6, "title": "Blade", "release_date": "1998-08-21", "original_language": "en", "original_title": "Blade", "genre_ids": [28, 27], "backdrop_path": "/dGnDGHD5vmaRow4BzAiuJaGwIz3.jpg", "adult": false, "overview": "When Blade's mother was bitten by a vampire during pregnancy, she did not know that she gave her son a special gift while dying\u2014all the good vampire attributes in combination with the best human skills. Blade and his mentor battle an evil vampire rebel who plans to take over the outdated vampire council, capture Blade and resurrect a voracious blood god.", "poster_path": "/hEXJCBVZYWT8qBMwGJoSsvtnVhr.jpg", "popularity": 30.575}, {"adult": false, "backdrop_path": "/3mEfawlJnuu4OmUlAOesrAMsWv6.jpg", "genre_ids": [53, 27], "id": 9540, "original_language": "en", "original_title": "Dead Ringers", "overview": "Elliot, a successful gynecologist, works at the same practice as his identical twin, Beverly. Elliot is attracted to many of his patients and has affairs with them. When he inevitably loses interest, he will give the woman over to Beverly, the meeker of the two, without the woman knowing the difference. Beverly falls hard for one of the patients, Claire, but when she inadvertently deceives him, he slips into a state of madness.", "poster_path": "/9ZGBwiWIvN9KmHaLeSS5it44G21.jpg", "release_date": "1988-09-23", "title": "Dead Ringers", "video": false, "vote_average": 7.2, "vote_count": 388, "popularity": 10.111}, {"adult": false, "backdrop_path": "/s7dcAllZEVSrVIVMUVAUmwAxFmn.jpg", "genre_ids": [35], "id": 4247, "original_language": "en", "original_title": "Scary Movie", "overview": "Following on the heels of popular teen-scream horror movies, with uproarious comedy and biting satire. Marlon and Shawn Wayans, Shannon Elizabeth and Carmen Electra pitch in to skewer some of Hollywood's biggest blockbusters, including Scream, I Know What You Did Last Summer, The Matrix, American Pie and The Blair Witch Project.", "poster_path": "/bvVmVFBVQLytK1H4TJTFdnhvf4T.jpg", "release_date": "2000-07-07", "title": "Scary Movie", "video": false, "vote_average": 6.2, "vote_count": 3801, "popularity": 22.055}, {"id": 400155, "video": false, "vote_count": 1997, "vote_average": 6.8, "title": "Hotel Transylvania 3: Summer Vacation", "release_date": "2018-06-28", "original_language": "en", "original_title": "Hotel Transylvania 3: Summer Vacation", "genre_ids": [16, 35, 14, 10751], "backdrop_path": "/m03jul0YdVEOFXEQVUv6pOVQYGL.jpg", "adult": false, "overview": "Dracula, Mavis, Johnny and the rest of the Drac Pack take a vacation on a luxury Monster Cruise Ship, where Dracula falls in love with the ship\u2019s captain, Ericka, who\u2019s secretly a descendant of Abraham Van Helsing, the notorious monster slayer.", "poster_path": "/gjAFM4xhA5vyLxxKMz38ujlUfDL.jpg", "popularity": 34.278}, {"adult": false, "backdrop_path": "/tk6QB32plylH41eo2Pbv4sIVljO.jpg", "genre_ids": [18], "id": 50270, "original_language": "it", "original_title": "Paprika", "overview": "A young country girl comes to town and works in a brothel in order to help her fiance get the money to start his own business. \"Paprika\" is the name given to her by the madam.", "poster_path": "/6QthFTJvUheocw3fcKklnsMcGib.jpg", "release_date": "1991-02-13", "title": "Paprika", "video": false, "vote_average": 5.9, "vote_count": 81, "popularity": 19.933}, {"adult": false, "backdrop_path": "/vXT5Gw09k99o9XXqqxBPz9NKgsa.jpg", "genre_ids": [35, 12], "id": 9285, "original_language": "en", "original_title": "Road Trip", "overview": "Four friends take off on an 1800 mile road trip to retrieve an illicit tape mistakenly mailed to a girl friend.", "poster_path": "/DCoZVnHVvtKTYwfM00dfVRbfUQ.jpg", "release_date": "2000-05-19", "title": "Road Trip", "video": false, "vote_average": 6.0, "vote_count": 1018, "popularity": 20.323}, {"id": 467956, "video": false, "vote_count": 340, "vote_average": 6.9, "title": "The Professor", "release_date": "2019-02-14", "original_language": "en", "original_title": "The Professor", "genre_ids": [35, 18], "backdrop_path": "/dnFwUWT36xseF7LwT2PLkX7mbi0.jpg", "adult": false, "overview": "A world-weary college professor is given a life-changing diagnosis and decides to throw all pretense and conventions to the wind and live his life as boldly and freely as possible with a biting sense of humor, a reckless streak and a touch of madness.", "poster_path": "/cypBSinhGuQaZ7VuOmGtcKMp91G.jpg", "popularity": 15.86}, {"adult": false, "backdrop_path": "/bYbnlh6VXFRtcSX82UMDsBDLB5j.jpg", "genre_ids": [18, 10749], "id": 28468, "original_language": "it", "original_title": "La chiave", "overview": "After twenty years of marriage, art professor Nino Rolfe attempts to break down his wife Teresa's conventional modesty. Noticing her affection for their daughter's fianc\u00e9, Nino instigates her sexual interest in him as well. This sets off a chain of unexpected events and emotional complications, as Nino and his unpredictable fascist daughter find that they both enjoy being jealous.", "poster_path": "/e6g2geNLgFzMbriH6EvSJZD78nx.jpg", "release_date": "1983-10-18", "title": "The Key", "video": false, "vote_average": 5.0, "vote_count": 128, "popularity": 15.363}], "total_pages": 196, "total_results": 3909}, "recommendations": {"page": 1, "results": [{"adult": false, "backdrop_path": null, "genre_ids": [], "id": 133179, "original_language": "en", "original_title": "River Rites", "overview": "Trance dance and water implosion, a line drawn between secular freak-outs and religious phenomena. Shot in a single-take at a sacred site on the Upper Suriname River, the minor secrets of an animist are revealed as time itself is undone. Rites are the new Trypps, embodiment is our eternal everything. \u2013Venice Film Festival", "poster_path": "/1cn1kyvouaEnFT2wdznPhcY5QKx.jpg", "release_date": "2011-09-05", "title": "River Rites", "video": false, "vote_average": 6.9, "vote_count": 7, "popularity": 1.353}, {"adult": false, "backdrop_path": "/sAEz15KRYoSzfgWcYFcFdtkXCq0.jpg", "genre_ids": [], "id": 228587, "original_language": "fr", "original_title": "La plage", "overview": "Reworked and colored images of people playing at the seashore.", "poster_path": "/rYyoyuL1O4ulACIZiLHUo2mmfyf.jpg", "release_date": "1992-01-01", "title": "La plage", "video": false, "vote_average": 6.8, "vote_count": 6, "popularity": 1.05}, {"adult": false, "backdrop_path": "/neqZew2pahZQGepq2oMLFDofkbk.jpg", "genre_ids": [99], "id": 131792, "original_language": "en", "original_title": "At Sea", "overview": "Three segments depicting the life cycle of a freighter boat.", "poster_path": "/kys23FFRsQuhltdYj6KcpG32XAt.jpg", "release_date": "2007-09-07", "title": "At Sea", "video": false, "vote_average": 7.8, "vote_count": 10, "popularity": 3.067}], "total_pages": 1, "total_results": 3}, "credits": {"cast": [{"cast_id": 3, "character": "Casanova", "credit_id": "52fe4dd7c3a368484e200d6f", "gender": 0, "id": 1198888, "name": "Vicen\u00e7 Altai\u00f3", "order": 0, "profile_path": "/rZbk0ciL3AXLlcu9ssYTkt8YdGc.jpg"}, {"cast_id": 4, "character": "Pompeu", "credit_id": "52fe4dd7c3a368484e200d73", "gender": 0, "id": 932163, "name": "Llu\u00eds Serrat", "order": 1, "profile_path": null}, {"cast_id": 10, "character": "Dr\u00e0cula", "credit_id": "59819a1c92514151e7011029", "gender": 0, "id": 1862474, "name": "Eliseu Huertas", "order": 2, "profile_path": null}, {"cast_id": 5, "character": "Pare", "credit_id": "52fe4dd7c3a368484e200d77", "gender": 0, "id": 1198889, "name": "Xavier Pau", "order": 3, "profile_path": null}, {"cast_id": 6, "character": "Clar", "credit_id": "52fe4dd7c3a368484e200d7b", "gender": 0, "id": 1198890, "name": "Clara Visa", "order": 4, "profile_path": null}, {"cast_id": 7, "character": "Delfina", "credit_id": "52fe4dd7c3a368484e200d7f", "gender": 0, "id": 1198891, "name": "Noelia Rodenas", "order": 5, "profile_path": null}, {"cast_id": 9, "character": "Carmen", "credit_id": "52fe4dd7c3a368484e200d87", "gender": 0, "id": 1160593, "name": "Montse Triola", "order": 6, "profile_path": null}, {"cast_id": 11, "character": "Poeta", "credit_id": "59819a3f92514151e701105a", "gender": 0, "id": 1862475, "name": "Mike Landscape", "order": 7, "profile_path": null}, {"cast_id": 12, "character": "Senyor", "credit_id": "59819a4e92514151e00113c3", "gender": 0, "id": 932162, "name": "Llu\u00eds Carb\u00f3", "order": 8, "profile_path": null}, {"cast_id": 13, "character": "Noia", "credit_id": "59819a59925141519101166a", "gender": 0, "id": 1862476, "name": "Cl\u00e0udia Robert", "order": 9, "profile_path": null}, {"cast_id": 14, "character": "Mare", "credit_id": "59819a6b92514151ed01092a", "gender": 0, "id": 1862477, "name": "Floarga Dootz", "order": 10, "profile_path": null}, {"cast_id": 15, "character": "Noia", "credit_id": "59819a75c3a3680ceb011289", "gender": 0, "id": 1862478, "name": "Rosa Tharrats", "order": 11, "profile_path": null}, {"cast_id": 16, "character": "Jugador", "credit_id": "59819a82c3a3680caa00fad4", "gender": 2, "id": 1527341, "name": "Sebasti\u00e1n Vogler", "order": 12, "profile_path": null}], "crew": [{"credit_id": "52fe4dd7c3a368484e200d65", "department": "Directing", "gender": 0, "id": 932161, "job": "Director", "name": "Albert Serra", "profile_path": "/nrUe7HdcsEJgSkAllK9BsGBleUn.jpg"}, {"credit_id": "52fe4dd7c3a368484e200d6b", "department": "Writing", "gender": 0, "id": 932161, "job": "Screenplay", "name": "Albert Serra", "profile_path": "/nrUe7HdcsEJgSkAllK9BsGBleUn.jpg"}]}}