{"adult": false, "backdrop_path": "/yooGjKXLjLCH2SqfnEanezy6URW.jpg", "belongs_to_collection": null, "budget": 0, "genres": [{"id": 35, "name": "Comedy"}], "homepage": null, "id": 215374, "imdb_id": "tt1309557", "original_language": "en", "original_title": "Eamon", "overview": "Grace, Daniel and Eamon, their hyperactive son, spoiled by his mother, envied by his father, go on vacation to an Irish coastal town for a few days, without money but plenty of hidden feelings inside them that they are unable to express.", "popularity": 1.253, "poster_path": "/8bfI8rUi41CppHvC4E7CNKjeksf.jpg", "production_companies": [{"id": 96945, "logo_path": null, "name": "Zanita Films", "origin_country": ""}, {"id": 1898, "logo_path": "/8ix6SGlJiyuUDxLBtY8E0PY2G7w.png", "name": "Screen Ireland", "origin_country": "IE"}], "production_countries": [{"iso_3166_1": "IE", "name": "Ireland"}], "release_date": "2010-02-05", "revenue": 0, "runtime": 82, "spoken_languages": [{"iso_639_1": "en", "name": "English"}, {"iso_639_1": "fr", "name": "Fran\u00e7ais"}], "status": "Released", "tagline": "", "title": "Eamon", "video": false, "vote_average": 4.5, "vote_count": 3, "keywords": {"keywords": [{"id": 1157, "name": "husband wife relationship"}, {"id": 4553, "name": "black humor"}, {"id": 7208, "name": "spoiled child"}, {"id": 10041, "name": "dysfunctional family"}, {"id": 14724, "name": "family vacation"}, {"id": 14985, "name": "ireland"}, {"id": 34145, "name": "beach house"}, {"id": 240237, "name": "mother son relationship"}, {"id": 251802, "name": "solitary beach"}]}, "similar": {"page": 1, "results": [{"id": 296099, "video": false, "vote_count": 2162, "vote_average": 6.2, "title": "Vacation", "release_date": "2015-07-28", "original_language": "en", "original_title": "Vacation", "genre_ids": [35], "backdrop_path": "/lWhTsYsTRMDDBg3KIUMzVb8gs2l.jpg", "adult": false, "overview": "Hoping to bring his family closer together and to recreate his childhood vacation for his own kids, a grown up Rusty Griswold takes his wife and their two sons on a cross-country road trip to the coolest theme park in America, Walley World. Needless to say, things don't go quite as planned.", "poster_path": "/q9kL9WW0Uu4AcfTi5iCLcYzBgnm.jpg", "popularity": 24.125}, {"id": 531309, "video": false, "vote_count": 1165, "vote_average": 5.8, "title": "Brightburn", "release_date": "2019-05-09", "original_language": "en", "original_title": "Brightburn", "genre_ids": [27, 878, 53], "backdrop_path": "/j3w3lT3ABvJsVE3byNOMCYmnGMB.jpg", "adult": false, "overview": "What if a child from another world crash-landed on Earth, but instead of becoming a hero to mankind, he proved to be something far more sinister?", "poster_path": "/sJWwkYc9ajwnPRSkqj8Aue5JbKz.jpg", "popularity": 29.783}, {"id": 369557, "video": false, "vote_count": 1342, "vote_average": 8.0, "title": "Sing Street", "release_date": "2016-03-11", "original_language": "en", "original_title": "Sing Street", "genre_ids": [35, 18, 10402, 10749], "backdrop_path": "/9j4UaRypr19wz0BOofwvkPRm1Se.jpg", "adult": false, "overview": "A boy growing up in Dublin during the 1980s escapes his strained family life by starting a band to impress the mysterious girl he likes.", "poster_path": "/s0C78plmx3dFcO3WMnoXCz56FiN.jpg", "popularity": 15.725}, {"id": 399057, "video": false, "vote_count": 1809, "vote_average": 6.9, "title": "The Killing of a Sacred Deer", "release_date": "2017-10-20", "original_language": "en", "original_title": "The Killing of a Sacred Deer", "genre_ids": [18, 9648, 53], "backdrop_path": "/vG8n4NYXrNGnjhswkr2EhRxKI2q.jpg", "adult": false, "overview": "Dr. Steven Murphy is a renowned cardiovascular surgeon who presides over a spotless household with his wife and two children. Lurking at the margins of his idyllic suburban existence is Martin, a fatherless teen who insinuates himself into the doctor's life in gradually unsettling ways.", "poster_path": "/e4DGlsc9g0h5AyoyvvAuIRnofN7.jpg", "popularity": 17.519}, {"id": 5723, "video": false, "vote_count": 768, "vote_average": 7.5, "title": "Once", "release_date": "2007-03-23", "original_language": "en", "original_title": "Once", "genre_ids": [18, 10402, 10749], "backdrop_path": "/5e9rYIQzaSy3v6ntyFuA3N4QN6b.jpg", "adult": false, "overview": "A vacuum repairman moonlights as a street musician and hopes for his big break. One day a Czech immigrant, who earns a living selling flowers, approaches him with the news that she is also an aspiring singer-songwriter. The pair decide to collaborate, and the songs that they compose reflect the story of their blossoming love.", "poster_path": "/fEjwJfeDxgsRBlYgEWMgvrKQ6VB.jpg", "popularity": 11.17}, {"id": 171540, "video": false, "vote_count": 195, "vote_average": 6.7, "title": "Big Bad Wolves", "release_date": "2013-04-21", "original_language": "he", "original_title": "\u05de\u05d9 \u05de\u05e4\u05d7\u05d3 \u05de\u05d4\u05d6\u05d0\u05d1 \u05d4\u05e8\u05e2", "genre_ids": [35, 80, 27, 53], "backdrop_path": "/633zJZ7P3IHAh3ot6A1fVIhEzn8.jpg", "adult": false, "overview": "Tel Aviv, Israel. The twisted paths of three very different men brutally collide due to a chain of unspeakable murders: a grieving father who has been doomed to seek vengeance and a police detective who boldly crosses the narrow boundary between law and crime meet a religion teacher suspected of being the murderer.", "poster_path": "/uDpkD98PAnAfdk8Bp5G9DvreYs9.jpg", "popularity": 6.983}, {"id": 560391, "video": false, "vote_count": 0, "vote_average": 0.0, "title": "Downhill", "release_date": "2020-02-13", "original_language": "en", "original_title": "Downhill", "genre_ids": [18], "backdrop_path": null, "adult": false, "overview": "Barely escaping an avalanche during a family ski vacation in the Alps, a married couple is thrown into disarray as they are forced to reevaluate their lives and how they feel about each other.", "poster_path": "/dV3t2ZrforWd803QmgEMOVkv8Mj.jpg", "popularity": 6.158}, {"adult": false, "backdrop_path": "/uAgGu97PosJjcX8suTIXyNx69me.jpg", "genre_ids": [18, 53, 36], "id": 1770, "original_language": "en", "original_title": "Michael Collins", "overview": "Michael Collins plays a crucial role in the establishment of the Irish Free State in the 1920s, but becomes vilified by those hoping to create a completely independent Irish republic.", "poster_path": "/brIBbU6t9glEGAKRTJ4PMj9OiDC.jpg", "release_date": "1996-10-25", "title": "Michael Collins", "video": false, "vote_average": 7.0, "vote_count": 224, "popularity": 8.373}, {"adult": false, "backdrop_path": "/lD6JhXP1MGeRNdkdTpid1ClfiIS.jpg", "genre_ids": [18, 35, 10749], "id": 10609, "original_language": "en", "original_title": "The Life and Death of Peter Sellers", "overview": "The turbulent personal and professional life of actor Peter Sellers (1925-1980), from his beginnings as a comic performer on BBC Radio to his huge success as one of the greatest film comedians of all time; an obsessive artist so dedicated to his work that neglected his loved ones and sacrificed part of his own personality to convincingly create that of his many memorable characters.", "poster_path": "/lf8OoO2T6X0O7jGa49icIqf8Gm5.jpg", "release_date": "2004-10-01", "title": "The Life and Death of Peter Sellers", "video": false, "vote_average": 6.7, "vote_count": 93, "popularity": 6.958}, {"adult": false, "backdrop_path": "/bFMVJ0RZ6xHqsZhHQwxc0fPi5h6.jpg", "genre_ids": [18, 10752], "id": 1116, "original_language": "en", "original_title": "The Wind That Shakes the Barley", "overview": "In 1920s Ireland young doctor Damien O'Donovan prepares to depart for a new job in a London hospital. As he says his goodbyes at a friend's farm, British Black and Tans arrive, and a young man is killed. Damien joins his brother Teddy in the Irish Republican Army, but political events are soon set in motion that tear the brothers apart.", "poster_path": "/uLt7SpgPjfwkWqJpUk08xONISFZ.jpg", "release_date": "2006-03-24", "title": "The Wind That Shakes the Barley", "video": false, "vote_average": 7.4, "vote_count": 345, "popularity": 7.695}, {"adult": false, "backdrop_path": "/pMbCSmzUB2IKynwwYKd746lvzVX.jpg", "genre_ids": [35, 18, 10402], "id": 11663, "original_language": "en", "original_title": "The Commitments", "overview": "Jimmy Rabbitte, just a tick out of school, gets a brilliant idea: to put a soul band together in Barrytown, his slum home in north Dublin. First he needs musicians and singers: things slowly start to click when he finds three fine-voiced females virtually in his back yard, a lead singer (Deco) at a wedding, and, responding to his ad, an aging trumpet player, Joey \"The Lips\" Fagan.", "poster_path": "/o79frLPO8k1BPDct9rRNuNy6ydB.jpg", "release_date": "1991-08-14", "title": "The Commitments", "video": false, "vote_average": 7.3, "vote_count": 259, "popularity": 11.147}, {"id": 3309, "video": false, "vote_count": 165, "vote_average": 7.8, "title": "Mildred Pierce", "release_date": "1945-10-20", "original_language": "en", "original_title": "Mildred Pierce", "genre_ids": [80, 18], "backdrop_path": "/iWAijx2874J0QgNVXwqW24IMRai.jpg", "adult": false, "overview": "After her unfaithful husband leaves her, Mildred Pierce proves she can become independent and successful. However winning the approval of her spoiled daughter proves a greater challenge.", "poster_path": "/WP1oQxIyGAIVfavlXcxkucCZAO.jpg", "popularity": 11.285}, {"id": 265189, "video": false, "vote_count": 461, "vote_average": 6.8, "title": "Force Majeure", "release_date": "2014-08-15", "original_language": "sv", "original_title": "Turist", "genre_ids": [18], "backdrop_path": "/3FkVs6SHcAiGD9AIPYpPDu3pwK0.jpg", "adult": false, "overview": "While holidaying in the French Alps, a Swedish family deals with acts of cowardliness as an avalanche breaks out.", "poster_path": "/rGMtc9AtZsnWSSL5VnLaGvx1PI6.jpg", "popularity": 10.118}, {"adult": false, "backdrop_path": "/jaXaFgiFtwRXFbf42Ti94hACesJ.jpg", "genre_ids": [10751, 35], "id": 41521, "original_language": "en", "original_title": "Mr. Hobbs Takes a Vacation", "overview": "Banker Roger Hobbs wants to spend his vacation alone with his wife, Peggy, but she insists on a family vacation at a California beach house that turns out to be ugly and broken down. Daughter Katey, embarrassed by her braces, refuses to go to the beach, as does TV-addicted son Danny. When the family is joined by Hobbs' two unhappily married daughters and their husbands, he must help everyone with their problems to get some peace.", "poster_path": "/rfBecKnldrAeHLL0b1emuy0mp6v.jpg", "release_date": "1962-06-15", "title": "Mr. Hobbs Takes a Vacation", "video": false, "vote_average": 6.8, "vote_count": 35, "popularity": 4.589}, {"id": 462445, "video": false, "vote_count": 13, "vote_average": 6.5, "title": "Cardboard Gangsters", "release_date": "2017-04-22", "original_language": "en", "original_title": "Cardboard Gangsters", "genre_ids": [80, 18], "backdrop_path": "/7a9sOXKdRxXFHIVHqg7FNu7liU.jpg", "adult": false, "overview": "A group of young Cardboard Gangsters attempt to gain control of the drug trade in Darndale, chasing the glorified lifestyle of money, power and sex.", "poster_path": "/p8xEFeBpEYxA4rUYEvEYUaeYDcG.jpg", "popularity": 1.974}, {"adult": false, "backdrop_path": null, "genre_ids": [35, 18], "id": 52038, "original_language": "en", "original_title": "A Man of No Importance", "overview": "Alfie Byrne is a middle-aged bus conductor in Dublin in 1963. He would appear to live a life of quiet desperation: he's gay, but firmly closeted, and his sister is always trying to find him \"the right girl\". His passion is Oscar Wilde, his hobby is putting on amateur theatre productions in the local church hall. We follow him as he struggles with temptation, friendship, disapproval, and the conservative yet oddly lyrical world of Ireland in the early 1960s.", "poster_path": "/nSBeudgK6eFA1kzSAR4b8ndZked.jpg", "release_date": "1994-12-24", "title": "A Man of No Importance", "video": false, "vote_average": 6.5, "vote_count": 6, "popularity": 1.655}, {"adult": false, "backdrop_path": "/rELRkrFUS2GJRESkbQN4DYcYnXm.jpg", "genre_ids": [18, 10402, 10749], "id": 26701, "original_language": "en", "original_title": "Humoresque", "overview": "A classical musician from a working class background is sidetracked by his love for a wealthy, neurotic socialite.", "poster_path": "/h4yoQsMqZ93oAdNCVxtCAA3dczh.jpg", "release_date": "1947-01-25", "title": "Humoresque", "video": false, "vote_average": 7.1, "vote_count": 28, "popularity": 4.079}, {"adult": false, "backdrop_path": "/iFx2jfdSn7mSfvPUPBoE6WaNiZw.jpg", "genre_ids": [18], "id": 93672, "original_language": "fr", "original_title": "La gueule ouverte", "overview": "The portrait of a woman going through a terminal illness and the tumorous lives of her husband and son.", "poster_path": "/1cuafEpyLS7RvE2f2KUYPKiK8dl.jpg", "release_date": "1974-05-08", "title": "The Mouth Agape", "video": false, "vote_average": 7.0, "vote_count": 9, "popularity": 2.037}, {"adult": false, "backdrop_path": "/fWfaySt2FefNWkcYi1IqNtOfZkf.jpg", "genre_ids": [18], "id": 173456, "original_language": "en", "original_title": "The Plough and the Stars", "overview": "A husband clashes with his wife over his membership to the Irish citizen army.  Barbara Stanwyck stars as the wife of an Irish revolutionary during the Easter rebellion.", "poster_path": "/xzICle5yzkcZgbWgkep1BiwE26a.jpg", "release_date": "1936-12-26", "title": "The Plough and the Stars", "video": false, "vote_average": 6.0, "vote_count": 6, "popularity": 2.777}, {"adult": false, "backdrop_path": "/fpHMW4j5u7HrTkyN4UzZh3hNNQi.jpg", "genre_ids": [99], "id": 521680, "original_language": "es", "original_title": "Harto the Borges", "overview": "A fragmented biography, inconclusive, partial, of the brilliant Argentinian writer Jorge Luis Borges, based on different testimonies: his links with Leonor de Acedevo \u2014his mother\u2014 and Mar\u00eda Kodama \u2014his second wife\u2014; his vast culture and devout dedication to literature, his and that of others; his country: the politicians and the disloyal military. Borges gradually builds his own impersonation of Borges.", "poster_path": "/4Aos48Z6xgiHcjw0SgJc6gOEjVU.jpg", "release_date": "2000-09-14", "title": "Harto the Borges", "video": false, "vote_average": 0.0, "vote_count": 0, "popularity": 0.683}], "total_pages": 2, "total_results": 27}, "recommendations": {"page": 1, "results": [], "total_pages": 1, "total_results": 0}, "credits": {"cast": [{"cast_id": 2, "character": "Eamon", "credit_id": "52fe4dfbc3a368484e207ee9", "gender": 0, "id": 1157313, "name": "Robert Donnelly", "order": 0, "profile_path": "/etCjxlPqw9Oocrl1WRjpkszpOV2.jpg"}, {"cast_id": 3, "character": "Grace", "credit_id": "52fe4dfbc3a368484e207eed", "gender": 1, "id": 989821, "name": "Amy Kirwan", "order": 1, "profile_path": null}, {"cast_id": 4, "character": "Daniel", "credit_id": "52fe4dfbc3a368484e207ef1", "gender": 2, "id": 143859, "name": "Darren Healy", "order": 2, "profile_path": "/fiFwnaigoFDhcnlC8KZShYQocSh.jpg"}, {"cast_id": 14, "character": "Grace's Mom", "credit_id": "5d2185c46d4c97000e74bb27", "gender": 1, "id": 1614351, "name": "Deirdre Monaghan", "order": 3, "profile_path": null}, {"cast_id": 15, "character": "Grand Aunt", "credit_id": "5d21861c94d8a8311646c076", "gender": 1, "id": 1418542, "name": "Phyllis MacMahon", "order": 4, "profile_path": "/simmfdBfVWY5dwNo8RwWzT2YL8D.jpg"}, {"cast_id": 16, "character": "Steve", "credit_id": "5d21865094d8a84984426b78", "gender": 0, "id": 2356083, "name": "Fergal Doyle", "order": 5, "profile_path": null}, {"cast_id": 17, "character": "Freda", "credit_id": "5d2186756d4c97001074c227", "gender": 1, "id": 54000, "name": "Mary Murray", "order": 6, "profile_path": "/y57r0yZ3wBDwSLMtDmUgaCKvsBp.jpg"}, {"cast_id": 18, "character": "James", "credit_id": "5d2186b394d8a87d34406bc3", "gender": 0, "id": 2356085, "name": "Jason Walker Grouse", "order": 7, "profile_path": null}, {"cast_id": 19, "character": "Waiter", "credit_id": "5d2186ef6d4c97000f74c142", "gender": 0, "id": 2356086, "name": "Tim Gahan", "order": 8, "profile_path": null}, {"cast_id": 20, "character": "Chloe", "credit_id": "5d21871015c6363acbf4b139", "gender": 0, "id": 2356087, "name": "Sophie Scully", "order": 9, "profile_path": null}, {"cast_id": 21, "character": "David", "credit_id": "5d21872c15c6361729f75c6c", "gender": 0, "id": 2356088, "name": "Oliver Byrne", "order": 10, "profile_path": null}, {"cast_id": 22, "character": "Sarah", "credit_id": "5d21874c6d4c97001074c3c2", "gender": 1, "id": 989823, "name": "Muireann Bird", "order": 11, "profile_path": null}, {"cast_id": 23, "character": "Barman", "credit_id": "5d21879c15c6363acbf4b261", "gender": 0, "id": 2356089, "name": "Nick Seymour", "order": 12, "profile_path": null}, {"cast_id": 24, "character": "Mr. Daly", "credit_id": "5d2187b915c6364f5bf49de7", "gender": 0, "id": 2081383, "name": "Frank Melia", "order": 13, "profile_path": null}, {"cast_id": 25, "character": "Woman in Sweet Shop", "credit_id": "5d2187f16d4c97000e74bea6", "gender": 0, "id": 2356090, "name": "Br\u00edd N\u00ed Threasaigh", "order": 14, "profile_path": null}, {"cast_id": 26, "character": "Steve's Wife", "credit_id": "5d21887d6d4c97000d74ca08", "gender": 0, "id": 2356091, "name": "Movania Parkinson", "order": 15, "profile_path": null}, {"cast_id": 27, "character": "Man in Car", "credit_id": "5d21889f94d8a84984426f91", "gender": 0, "id": 2356092, "name": "Thomas Solar", "order": 16, "profile_path": null}, {"cast_id": 28, "character": "Woman in Car", "credit_id": "5d2188b7f794ad000f8df09e", "gender": 0, "id": 2356093, "name": "Zahara Moufid", "order": 17, "profile_path": null}], "crew": [{"credit_id": "52fe4dfbc3a368484e207ee5", "department": "Directing", "gender": 1, "id": 989824, "job": "Director", "name": "Margaret Corkery", "profile_path": null}, {"credit_id": "5d2183b26d4c97000f74bb8e", "department": "Writing", "gender": 1, "id": 989824, "job": "Screenplay", "name": "Margaret Corkery", "profile_path": null}, {"credit_id": "5d21840515c6363acbf4aad7", "department": "Production", "gender": 0, "id": 111843, "job": "Producer", "name": "Seamus Byrne", "profile_path": null}, {"credit_id": "5d21842d15c6361729f757c8", "department": "Camera", "gender": 0, "id": 1604745, "job": "Director of Photography", "name": "David Grennan", "profile_path": null}, {"credit_id": "5d21844cf794ad00108de764", "department": "Art", "gender": 0, "id": 12039, "job": "Production Design", "name": "Paki Smith", "profile_path": null}, {"credit_id": "5d218486f794ad000f8de6f3", "department": "Costume & Make-Up", "gender": 0, "id": 2002284, "job": "Costume Designer", "name": "Angel Concepcion", "profile_path": null}, {"credit_id": "5d2184ed15c6367adcf5c876", "department": "Sound", "gender": 0, "id": 2356081, "job": "Sound Recordist", "name": "Karl Merren", "profile_path": null}, {"credit_id": "5d21850515c6361729f758bb", "department": "Editing", "gender": 0, "id": 1808669, "job": "Editor", "name": "Mairead McIvor", "profile_path": null}, {"credit_id": "5d21855294d8a8311646bf4a", "department": "Sound", "gender": 0, "id": 1832110, "job": "Original Music Composer", "name": "Miriam Ingram", "profile_path": null}, {"credit_id": "5d21856ef794ad00118de9fc", "department": "Sound", "gender": 0, "id": 2356082, "job": "Original Music Composer", "name": "Colin J. Morris", "profile_path": null}, {"credit_id": "5d21890815c6364f5bf49fd7", "department": "Production", "gender": 0, "id": 1917794, "job": "Production Manager", "name": "Noreen Donohoe", "profile_path": null}, {"credit_id": "5d2189246d4c97000e74c0ca", "department": "Production", "gender": 0, "id": 2356094, "job": "Casting Director", "name": "Dorothy MacGabhann", "profile_path": null}, {"credit_id": "5d2189a6f794ad00118df1a9", "department": "Art", "gender": 0, "id": 2356096, "job": "Art Direction", "name": "\u00c1ine N\u00ed Ch\u00edobh\u00e1in", "profile_path": null}, {"credit_id": "5d2189c6f794ad000f8df39b", "department": "Costume & Make-Up", "gender": 0, "id": 15879, "job": "Makeup Artist", "name": "Ken Jennings", "profile_path": null}, {"credit_id": "5d2189eff794ad024c8dba91", "department": "Sound", "gender": 0, "id": 117239, "job": "Supervising Sound Editor", "name": "Jon Stevenson", "profile_path": null}]}}