{"adult": false, "backdrop_path": "/udm3lPiLW4ohilJOOEEX6iU25ic.jpg", "belongs_to_collection": null, "budget": 0, "genres": [{"id": 35, "name": "Comedy"}, {"id": 18, "name": "Drama"}], "homepage": "", "id": 215653, "imdb_id": "tt2388819", "original_language": "tr", "original_title": "Yozgat Blues", "overview": "Sabri, a barber in Yozgat - a very small city in the middle of Anatolia - has an emotional breakdown when he runs into Yavuz and Ne\u015fe, who come to the town to sing in a small music hall-bar. This will also affect Ne\u015fe and Yavuz. None of their desires will be how they want them to be.", "popularity": 1.941, "poster_path": "/v19aeZEnwfgu6L98zxtvcSeoftT.jpg", "production_companies": [{"id": 107615, "logo_path": null, "name": "Hokusfokus Film", "origin_country": "TR"}, {"id": 126826, "logo_path": null, "name": "Arden Film", "origin_country": ""}], "production_countries": [{"iso_3166_1": "TR", "name": "Turkey"}], "release_date": "2013-12-05", "revenue": 0, "runtime": 93, "spoken_languages": [{"iso_639_1": "tr", "name": "T\u00fcrk\u00e7e"}], "status": "Released", "tagline": "", "title": "Yozgat Blues", "video": false, "vote_average": 8.0, "vote_count": 4, "keywords": {"keywords": [{"id": 10572, "name": "music business"}]}, "similar": {"page": 1, "results": [{"id": 4551, "video": false, "vote_count": 519, "vote_average": 5.5, "title": "Be Cool", "release_date": "2005-03-04", "original_language": "en", "original_title": "Be Cool", "genre_ids": [35, 80], "backdrop_path": "/eT84ElbmCj7SznhxznXLBkmE0uF.jpg", "adult": false, "overview": "Disenchanted with the movie industry, Chili Palmer tries the music industry, meeting and romancing a widow of a music executive along the way.", "poster_path": "/ekKCH7Zkb5ZTr1f1AczZY23FH.jpg", "popularity": 9.563}, {"adult": false, "backdrop_path": "/tiGvJOIp8Z4oIBMGLt3HWKf8rdg.jpg", "genre_ids": [18, 10402, 99], "id": 109264, "original_language": "en", "original_title": "This Is Elvis", "overview": "Though several actors portray Elvis Presley at different stages of his life, this documentary is comprised mostly of actual performance footage and interviews with Elvis, his fans and those close to him. This biographical docu-drama features rare footage of Elvis and dramatically recreated scenes from Elvis' life.", "poster_path": "/1pJGeuZVtc9NSOpLude7Ce9tid3.jpg", "release_date": "1981-04-04", "title": "This Is Elvis", "video": false, "vote_average": 6.5, "vote_count": 11, "popularity": 2.935}, {"id": 277216, "video": false, "vote_count": 2190, "vote_average": 7.7, "title": "Straight Outta Compton", "release_date": "2015-08-13", "original_language": "en", "original_title": "Straight Outta Compton", "genre_ids": [18, 10402], "backdrop_path": "/fdDTA06o5e7MRXnTGAf4EygL2MJ.jpg", "adult": false, "overview": "In 1987, five young men, using brutally honest rhymes and hardcore beats, put their frustration and anger about life in the most dangerous place in America into the most powerful weapon they had: their music.  Taking us back to where it all began, Straight Outta Compton tells the true story of how these cultural rebels\u2014armed only with their lyrics, swagger, bravado and raw talent\u2014stood up to the authorities that meant to keep them down and formed the world\u2019s most dangerous group, N.W.A.  And as they spoke the truth that no one had before and exposed life in the hood, their voice ignited a social revolution that is still reverberating today.", "poster_path": "/X7S1RtotXOZNV7OlgCfh5VKZSB.jpg", "popularity": 19.816}, {"id": 1125, "video": false, "vote_count": 567, "vote_average": 6.7, "title": "Dreamgirls", "release_date": "2006-12-25", "original_language": "en", "original_title": "Dreamgirls", "genre_ids": [18], "backdrop_path": "/ivr7JiwjfLdUaEL48X1dcvQ2eaT.jpg", "adult": false, "overview": "Three young women dream of becoming pop stars\u2014and get their wish when they're chosen to be backup singers for the legendary James 'Thunder' Early.", "poster_path": "/jrtyk21qp9oVHveellwoyp825q2.jpg", "popularity": 11.599}, {"adult": false, "backdrop_path": "/AhXLn61RxOgxjkyAzjqILJRIfpX.jpg", "genre_ids": [18], "id": 5708, "original_language": "en", "original_title": "Control", "overview": "Control is the biography of Joy Division lead singer Ian Curtis, taking his story from schoolboy days of 1973 to his suicide on the eve of the band's first American tour in 1980.", "poster_path": "/rBw5I19naBSjVm3oKeExBaNbb0L.jpg", "release_date": "2007-09-26", "title": "Control", "video": false, "vote_average": 7.6, "vote_count": 426, "popularity": 10.974}, {"adult": false, "backdrop_path": "/ardZi7ExQAnZEjShfDT2RkWmTF2.jpg", "genre_ids": [35, 80, 53], "id": 318922, "original_language": "en", "original_title": "Kill Your Friends", "overview": "In the late 1990s, a drug-addled nihilist resorts to murder to climb the ladder of the London music industry.", "poster_path": "/A2eUN6GtN3dZl2BXubUusK7cxsD.jpg", "release_date": "2015-11-06", "title": "Kill Your Friends", "video": false, "vote_average": 6.2, "vote_count": 211, "popularity": 10.848}, {"id": 84334, "video": false, "vote_count": 493, "vote_average": 7.9, "title": "Searching for Sugar Man", "release_date": "2012-06-30", "original_language": "en", "original_title": "Searching for Sugar Man", "genre_ids": [99, 10402], "backdrop_path": "/yxqXznxXmrw2x8qqraXJf1RJG7B.jpg", "adult": false, "overview": "Two South Africans set out to discover what happened to their unlikely musical hero, the mysterious 1970s rock 'n' roller, Rodriguez. The film won Best Documentary at the 85th Academy Awards.", "poster_path": "/7Jr5J3pdgEnQymHNge20XUM3YlV.jpg", "popularity": 11.42}, {"adult": false, "backdrop_path": "/bSojsYtf1HuZ8b6jDSyiaLHthNA.jpg", "genre_ids": [35, 18, 10402], "id": 141679, "original_language": "en", "original_title": "Spike Island", "overview": "Teenage musicians travel to England's Spike Island in the hope of attending an outdoor performance by their favorite band, the Stone Roses.", "poster_path": "/b9pS5hpUwpWY3ubyZfybPnr9AP2.jpg", "release_date": "2012-10-11", "title": "Spike Island", "video": false, "vote_average": 7.0, "vote_count": 45, "popularity": 8.545}, {"adult": false, "backdrop_path": "/rUhv3tCAMExhLH655CuvXfh7rTz.jpg", "genre_ids": [10402, 18, 80], "id": 7514, "original_language": "en", "original_title": "The Harder They Come", "overview": "Ivanhoe Martin arrives in Kingston, Jamaica, looking for work and, after some initial struggles, lands a recording contract as a reggae singer. He records his first song, \"The Harder They Come,\" but after a bitter dispute with a manipulative producer named Hilton, soon finds himself resorting to petty crime in order to pay the bills. He deals marijuana, kills some abusive cops and earns local folk hero status. Meanwhile, his record is topping the charts.", "poster_path": "/lfL1K3XXr3O9xcDII9QyL1aHOBJ.jpg", "release_date": "1972-09-01", "title": "The Harder They Come", "video": false, "vote_average": 6.7, "vote_count": 42, "popularity": 4.506}, {"adult": false, "backdrop_path": "/8X113tcqYBoW9pzAIELFEsGM0wi.jpg", "genre_ids": [16, 10402, 18, 36], "id": 29204, "original_language": "en", "original_title": "American Pop", "overview": "The history of American popular music runs parallel with the history of a Russian Jewish immigrant family, with each male descendant possessing different musical abilities.", "poster_path": "/p5tD6RwnK7FlzrQTStz9Gd17oLt.jpg", "release_date": "1981-02-13", "title": "American Pop", "video": false, "vote_average": 7.0, "vote_count": 50, "popularity": 6.038}, {"adult": false, "backdrop_path": "/5FfjnAzwuhp8cnqwtJ7CPeifbng.jpg", "genre_ids": [10402, 99], "id": 286183, "original_language": "en", "original_title": "The Definitive Elvis: Elvis and the Colonel", "overview": "One of the dominating figures in Elvis Presley's life was his manager, who was known as the \"Colonel\". No other relationship in Elvis' life was as controversial and misunderstood as the one he had with Colonel Tom Parker. The truth about their unique friendship is revealed in this documentary.", "poster_path": "/upCot2biDuhlPltreulnf7tGEJN.jpg", "release_date": "2002-03-31", "title": "The Definitive Elvis: Elvis and the Colonel", "video": false, "vote_average": 6.2, "vote_count": 3, "popularity": 1.29}, {"adult": false, "backdrop_path": "/nv72vAjOMUCazl0izzUowZK9vJr.jpg", "genre_ids": [35, 18], "id": 344039, "original_language": "en", "original_title": "Len and Company", "overview": "A successful music producer quits the industry and exiles himself in upstate New York, but the solitude he seeks is shattered when his estranged son and the pop star he's created come looking for answers.", "poster_path": "/inmn7KmhAMg7tXikugRKICUFWy1.jpg", "release_date": "2015-09-11", "title": "Len and Company", "video": false, "vote_average": 6.3, "vote_count": 6, "popularity": 3.277}, {"id": 42198, "video": false, "vote_count": 6, "vote_average": 4.7, "title": "American Hot Wax", "release_date": "1978-03-17", "original_language": "en", "original_title": "American Hot Wax", "genre_ids": [18, 36, 10402], "backdrop_path": null, "adult": false, "overview": "This is the story loosely based on Cleveland disc jockey Alan Freed, who introduced rock'n'roll to teenage American radio audiences in the 1950s. Freed was a source of great controversy: criticized by conservatives for corrupting youth with the \"devil's music\"; hated by racists for promoting African American music for white consumption; persecuted by law enforcement officials and finally brought down by the \"payola\" scandals.", "poster_path": "/bdRHGMl3vGugZ1gFV5RdLHPZrVE.jpg", "popularity": 2.151}, {"id": 209416, "video": false, "vote_count": 48, "vote_average": 7.3, "title": "Supermensch: The Legend of Shep Gordon", "release_date": "2013-09-07", "original_language": "en", "original_title": "Supermensch: The Legend of Shep Gordon", "genre_ids": [99], "backdrop_path": "/craUEp6KvOiYzotrjxMvSbP8Li7.jpg", "adult": false, "overview": "Supermensch documents the astounding career of Hollywood insider, the loveable Shep Gordon, who fell into music management by chance after moving to LA straight out of college, and befriending Janis Joplin, Jim Morrison and Jimi Hendrix. Shep managed rock stars such as Pink Floyd, Luther Vandross, Teddy Pendergrass and Alice Cooper, and later went on to manage chefs such as Emeril Lagasse, ushering in the era of celebrity chefs on television.", "poster_path": "/1spRBeofv0knLliedyqOI8DS7sz.jpg", "popularity": 5.359}, {"adult": false, "backdrop_path": "/sNqsYf3VT73FKCy3HIbqeW55p7u.jpg", "genre_ids": [99], "id": 30192, "original_language": "en", "original_title": "Standing in the Shadows of Motown", "overview": "In 1959, Berry Gordy Jr. gathered the best musicians from Detroit's thriving jazz and blues scene to begin cutting songs for his new record company. Over a fourteen year period they were the heartbeat on every hit from Motown's Detroit era. By the end of their phenomenal run, this unheralded group of musicians had played on more number ones hits than the Beach Boys, the Rolling Stones, Elvis and the Beatles combined - which makes them the greatest hit machine in the history of popular music. They called themselves the Funk Brothers. Forty-one years after they played their first note on a Motown record and three decades since they were all together, the Funk Brothers reunited back in Detroit to play their music and tell their unforgettable story, with the help of archival footage, still photos, narration, interviews, re-creation scenes, 20 Motown master tracks, and twelve new live performances of Motown classics with the Brothers backing up contemporary performers.", "poster_path": "/sai93c24h1EtzkUCxsleTs0auOa.jpg", "release_date": "2002-11-15", "title": "Standing in the Shadows of Motown", "video": false, "vote_average": 7.1, "vote_count": 19, "popularity": 4.585}, {"adult": false, "backdrop_path": "/A44ORrkOT2vdC20gC8UYlPHJCqT.jpg", "genre_ids": [35, 99], "id": 25048, "original_language": "en", "original_title": "Le Donk & Scor-zay-zee", "overview": "An improvised comedy, shot over five days by Shane Meadows, devised with and starring Paddy Considine. Rock roadie and failed musician, Le Donk has lived, loved and learned. Along the way he's lost a girlfriend but he has found a new sidekick in up-and-coming rap prodigy Scor-zay-zee. With Meadows' fly-on-the-wall crew in tow, Donk sets out to make Scor-zay-zee a star...", "poster_path": "/7Z8LRsK5lW3dYOVAev3NVpK0CGf.jpg", "release_date": "2009-10-09", "title": "Le Donk & Scor-zay-zee", "video": false, "vote_average": 5.5, "vote_count": 13, "popularity": 2.975}, {"adult": false, "backdrop_path": "/cnFHgyLIj6oZ2fN3yfpA1xueazU.jpg", "genre_ids": [35, 18], "id": 115464, "original_language": "en", "original_title": "Whale Music", "overview": "Shot around the breathtaking coastline of B.C.'s Howe Sound, Whale Music is the triumphant adaptation of Paul Quarringaton's Governor General's Award-winning novel about the redemption of a faded rock star through love and music. Richard J. Lewis' exploration of the reclusive musician's efforts to create a piece of music that will summon the whales is a sensory and emotional tour de force. Written by Vancouver Film Festival, Handbook", "poster_path": "/wITSPed7ioTSGvQxGSsMyrBKHQa.jpg", "release_date": "1994-11-03", "title": "Whale Music", "video": false, "vote_average": 6.1, "vote_count": 4, "popularity": 2.496}, {"adult": false, "backdrop_path": null, "genre_ids": [18], "id": 112731, "original_language": "en", "original_title": "Outlaw Blues", "overview": "An aspiring musician is released from prison to find that a song he had written while locked up has been stolen and made into a hit record by a country music superstar. When his confrontation with the star takes a violent turn the ex-con has to go back on the run, but he finds an unexpected ally in a shrewd background singer with a plan to turn the tables in his favor.", "poster_path": "/xpls9mUv5wWZZo36RUCJGt0ye2r.jpg", "release_date": "1977-07-15", "title": "Outlaw Blues", "video": false, "vote_average": 5.0, "vote_count": 1, "popularity": 1.926}, {"id": 194160, "video": false, "vote_count": 3, "vote_average": 5.3, "title": "White Star", "release_date": "1983-10-27", "original_language": "de", "original_title": "White Star", "genre_ids": [18, 10402], "backdrop_path": null, "adult": false, "overview": "A clean-cut synth artist in Germany hopes to turn his career around with the help of a washed-up, erratic, publicity-crazed American manager.", "poster_path": "/cdIQbhid0iumZU6GTrONQb19hZX.jpg", "popularity": 2.467}, {"adult": false, "backdrop_path": null, "genre_ids": [18], "id": 42157, "original_language": "en", "original_title": "One Trick Pony", "overview": "Jonah (Paul Simon) is an aging rock star trying to put together a new album in the face of an indifferent record label and a talentless producer. At the same time, he's struggling to save his failing marriage.", "poster_path": "/aGelCtRpZwgUwqdMQOjBPGp1eE5.jpg", "release_date": "1980-10-03", "title": "One Trick Pony", "video": false, "vote_average": 6.5, "vote_count": 2, "popularity": 2.717}], "total_pages": 3, "total_results": 43}, "recommendations": {"page": 1, "results": [{"adult": false, "backdrop_path": "/AnPUFHhnNNvphGvgz33XgFscMMW.jpg", "genre_ids": [18], "id": 215525, "original_language": "tr", "original_title": "\u015eark\u0131 S\u00f6yleyen Kad\u0131nlar", "overview": "An island off the coast of Turkey is about to be evacuated due to a possible earthquake but its inhabitants have been stricken with a mysterious illness, consigning them to an uncertain fate.", "poster_path": "/pewEyLzUJEKcqRnSJ02NKEFZM3J.jpg", "release_date": "2013-09-10", "title": "Singing Women", "video": false, "vote_average": 5.0, "vote_count": 4, "popularity": 2.156}, {"adult": false, "backdrop_path": null, "genre_ids": [], "id": 168339, "original_language": "tr", "original_title": "Ek\u00fcmenopolis: Ucu Olmayan \u015eehir", "overview": "Ecumenopolis: City Without Limits\" tells the story of Istanbul and other Mega-Cities on a neo-liberal course to destruction. It follows the story of a migrant family from the demolition of their neighborhood to their on-going struggle for housing rights. The film takes a look at the city on a macro level and through the eyes of experts, going from the tops of mushrooming skyscrapers to the depths of the railway tunnel under the Bosphorous strait; from the historic neighborhoods in the south to the forests in the north; from isolated islands of poverty to the villas of the rich. It's an Istanbul going from 15 million to 30 million. It's an Istanbul going from 2 million cars to 8 million. It's the Istanbul of the future that will soon engulf the entire region. It's an Istanbul nobody has ever seen before.", "poster_path": "/bVa6Alv9MI5Vt98jGV2p5q4Kulv.jpg", "release_date": "2011-04-15", "title": "Ecumenopolis: City Without Limits", "video": false, "vote_average": 8.5, "vote_count": 4, "popularity": 1.484}, {"id": 79682, "video": false, "vote_count": 5, "vote_average": 5.8, "title": "Future Lasts Forever", "release_date": "2011-11-11", "original_language": "en", "original_title": "Gelecek Uzun S\u00fcrer", "genre_ids": [18, 10749], "backdrop_path": null, "adult": false, "overview": "A woman struggles with love and personal loss against the backdrop of a land torn by civil war in this drama from filmmaker Ozcan Alper. Sumru (Gaye Gursel) is a Turkish woman who studies ethnic music at a college in Istanbul and frequently makes field recordings of artists who practice rare and unusual forms. Sumru is struggling with loneliness after the disappearance of her Kurdish boyfriend, and for her latest project, she sets out on a lengthy road trip recording the stories of Kurdish women who have survived the murder of their Turkish husbands or lovers, hoping she might track down her man in her travels. After making her first stop in the city of Diyarbaki, Sumru meets Ahmet, who makes a living selling black market goods and shares her love of music and history. The two become fast friends, and as Ahmet joins Sumru on her travels, their relationship grows deeper, though she also becomes more aware of the tragedy that has gripped her country and the consequences of the civil war.", "poster_path": "/hOQl4lQyWI0TmOZv9mp4lN6lrs3.jpg", "popularity": 1.14}, {"id": 165071, "video": false, "vote_count": 5, "vote_average": 4.4, "title": "Body", "release_date": "2012-05-03", "original_language": "en", "original_title": "V\u00fccut", "genre_ids": [], "backdrop_path": null, "adult": false, "overview": "Leyla and her boyfriend Yilmaz are in the porn film sector for 25 years in Germany. A while ago, they moved to Istanbul and Yilmaz left her for another woman. Although they are separated, Yilmaz comes up with a last minute request: one last movie where Leyla meets 20 year old handsome but quite traumatic character Izzet. The age difference between Leyla and Izzet, unsolved problems of Izzet's chubby mother and sister, Yilmaz's passion to his work and its results all crash into each other in an unexpected way.", "poster_path": "/jrDgv6lsfXZoGMMOcUX9giUuByf.jpg", "popularity": 2.425}, {"adult": false, "backdrop_path": null, "genre_ids": [18], "id": 96049, "original_language": "tr", "original_title": "Gelin", "overview": "The struggles of a migrant Anatolian family to adapt to and survive in the very different conditions of urban Istanbul.  A young woman moves with her husband and small child to her husband's family in Istanbul. Her son becomes ill and the doctor tells her that he will soon die if he doesn't get an operation. The family refuses to help her because they can't see anything wrong with the boy and all money is needed for a new shop they have just opened. When her son dies she takes a desperate step.", "poster_path": "/yjNiXFDmyv5FbEswhEMCKSQhL0i.jpg", "release_date": "1973-04-01", "title": "The Bride", "video": false, "vote_average": 7.2, "vote_count": 12, "popularity": 1.06}, {"adult": false, "backdrop_path": "/5VbAuqHvTUvSQW1WnQGJyxtV5td.jpg", "genre_ids": [18], "id": 50129, "original_language": "tr", "original_title": "11'e 10 Kala", "overview": "10 to 11 is the story of a passionate collector Mithat and the concierge of the building, Ali. For Mithat Istanbul is as vast as his collections and for Ali is nothing more than a few blocks around the building. When the neighbors decide to have the building rebuilt with the fear of earthquake and the wish for a more valuable house, Mithat's most challenging struggle to save his collections begins. The building becomes the common destiny of these two men living alone. Their relationship that begins with the collaboration to save the continuity of the collections changes track with Mithat's handing Istanbul over to Ali and ends when they involuntarily change each other's fate.", "poster_path": "/bGmMyKvsL9VVzi2UTHxf9hk7gVY.jpg", "release_date": "2009-09-25", "title": "10 to 11", "video": false, "vote_average": 7.0, "vote_count": 8, "popularity": 1.48}, {"adult": false, "backdrop_path": "/f1sbD6CcK2NuI1kAnGdmVXEiuv8.jpg", "genre_ids": [18], "id": 163857, "original_language": "tr", "original_title": "Arkada\u015f", "overview": "After betraying his social class, denying his peasant roots and fleeing his native village, Ahmed has become a successful businessman and has found a place in the sun among the bourgeoisie. Azem, his childhood friend, has followed a quite different way. refusing the rat race, he has remained close to people of humble origin. Politically committed, he aspires to be useful to his country and more particularly to the forsaken rural world. The two former friends meet again. Due to the influence of Azem, Ahmed gradually becomes aware that his life is a failure.", "poster_path": "/lCXs5DLTA4KGkPFQF3a6eNCY8uL.jpg", "release_date": "1974-10-01", "title": "Friend", "video": false, "vote_average": 7.5, "vote_count": 6, "popularity": 1.729}], "total_pages": 1, "total_results": 7}, "credits": {"cast": [{"cast_id": 1, "character": "Yavuz", "credit_id": "55af8369c3a368648e00aaa1", "gender": 2, "id": 87224, "name": "Ercan Kesal", "order": 0, "profile_path": "/otTLTqM7XArTb6RhQilWh8KT8Y.jpg"}, {"cast_id": 2, "character": "Ne\u015fe", "credit_id": "55af837692514125da00c0a6", "gender": 1, "id": 142854, "name": "Ay\u00e7a Damgac\u0131", "order": 1, "profile_path": "/iQ1ef9JL9lsW4wcD1UdKscMj0FN.jpg"}, {"cast_id": 3, "character": "Sabri", "credit_id": "55af837ec3a3682d630095f4", "gender": 2, "id": 999758, "name": "Tansu Bi\u00e7er", "order": 2, "profile_path": "/lhYtQGU3aT3PfzFj0ovNa79ndKH.jpg"}, {"cast_id": 4, "character": "Kamil", "credit_id": "55af8389c3a3682d630095f7", "gender": 2, "id": 144179, "name": "Nadir Sar\u0131bacak", "order": 3, "profile_path": "/bgtjWT9MLjpaEqLCCz6Ftw7FPvr.jpg"}, {"cast_id": 10, "character": "M\u00fcd\u00fcr", "credit_id": "5e011cacd1a89300148cd4e3", "gender": 2, "id": 545069, "name": "Serkan Ercan", "order": 4, "profile_path": "/vjX9EnmZqnisNyMEttrnqNUh89o.jpg"}, {"cast_id": 5, "character": "Sadettin Usta", "credit_id": "55af8393c3a368300200c108", "gender": 2, "id": 743, "name": "Kevork Malikyan", "order": 5, "profile_path": "/aq3elIciFeSrvbVyDNeoozQqLnm.jpg"}, {"cast_id": 11, "character": "Esnaf", "credit_id": "5e011cbd26dac10014660a96", "gender": 0, "id": 1728618, "name": "Serkan \u00d6zt\u00fcrk", "order": 6, "profile_path": null}, {"cast_id": 12, "character": "Resepsiyonist", "credit_id": "5e011cd775110d0018d8bc40", "gender": 0, "id": 2489217, "name": "Recep \u00c7avdar", "order": 7, "profile_path": null}, {"cast_id": 13, "character": "Gazeteci", "credit_id": "5e011ce2d236e6001291bade", "gender": 0, "id": 2489218, "name": "Sakin Uslu", "order": 8, "profile_path": null}, {"cast_id": 14, "character": "M\u00fc\u015fteri", "credit_id": "5e011cf675110d0018d8bc67", "gender": 0, "id": 2489219, "name": "Nazif Tun\u00e7", "order": 9, "profile_path": null}, {"cast_id": 15, "character": "Ya\u015far", "credit_id": "5e011d1f26dac1001264aac9", "gender": 0, "id": 592097, "name": "Adnan T\u00f6nel", "order": 10, "profile_path": null}, {"cast_id": 16, "character": "K\u0131z 1", "credit_id": "5e011d3ad1a89300148cd58c", "gender": 0, "id": 1381258, "name": "Asiye Din\u00e7soy", "order": 11, "profile_path": "/1yuA7v69b4z7Q2fUoz29PFxUY2G.jpg"}, {"cast_id": 17, "character": "K\u0131z 2", "credit_id": "5e011d490284200019af8067", "gender": 0, "id": 2489222, "name": "Feyruz Tokdemir", "order": 12, "profile_path": null}], "crew": [{"credit_id": "5e011b5bd1a89300148cd3c8", "department": "Writing", "gender": 2, "id": 144177, "job": "Screenplay", "name": "Mahmut Faz\u0131l Co\u015fkun", "profile_path": null}, {"credit_id": "5442ab0f0e0a26634d002674", "department": "Directing", "gender": 2, "id": 144177, "job": "Director", "name": "Mahmut Faz\u0131l Co\u015fkun", "profile_path": null}, {"credit_id": "5e011b84d236e6001691d564", "department": "Crew", "gender": 2, "id": 1425655, "job": "Cinematography", "name": "Bar\u0131\u015f \u00d6zbi\u00e7er", "profile_path": null}, {"credit_id": "5e011b5365686e001597bf41", "department": "Writing", "gender": 2, "id": 2104904, "job": "Screenplay", "name": "Tar\u0131k Tufan", "profile_path": null}, {"credit_id": "5e011b7175110d0011d89271", "department": "Production", "gender": 0, "id": 2489214, "job": "Producer", "name": "Halil Karda\u015f", "profile_path": null}]}}