{"adult": false, "backdrop_path": null, "belongs_to_collection": null, "budget": 0, "genres": [{"id": 16, "name": "Animation"}, {"id": 10751, "name": "Family"}], "homepage": null, "id": 218556, "imdb_id": "tt1796414", "original_language": "ru", "original_title": "\u0411\u043e\u043b\u044c\u0448\u043e\u0439 \u0423\u0445", "overview": "", "popularity": 1.185, "poster_path": "/fPuHRKgQIsvBxK4rhyBc0JBZXIO.jpg", "production_companies": [{"id": 6608, "logo_path": "/eALlDyTQSw5rLU1IJvYps4himcU.png", "name": "\u0422\u041e \"\u042d\u043a\u0440\u0430\u043d\"", "origin_country": "SU"}], "production_countries": [{"iso_3166_1": "RU", "name": "Russia"}, {"iso_3166_1": "SU", "name": "Soviet Union"}], "release_date": "1989-02-02", "revenue": 0, "runtime": 10, "spoken_languages": [{"iso_639_1": "ru", "name": "P\u0443\u0441\u0441\u043a\u0438\u0439"}], "status": "Released", "tagline": "", "title": "\u0411\u043e\u043b\u044c\u0448\u043e\u0439 \u0423\u0445", "video": false, "vote_average": 6.5, "vote_count": 5, "keywords": {"keywords": []}, "similar": {"page": 1, "results": [{"adult": false, "backdrop_path": "/3YGfpjW0OPcrDSarphlEr64WftB.jpg", "genre_ids": [16], "id": 66834, "original_language": "en", "original_title": "Clock Cleaners", "overview": "Mickey, Donald, and Goofy are cleaning a large clock. Among the complications: Mickey fights a sleeping stork that doesn't want to leave, Donald gets tangled up in the main-spring, and Goofy is inside the bell when the clock strikes four.", "poster_path": "/jKM9p9qkibFMraRodEUzEVMemmY.jpg", "release_date": "1937-10-15", "title": "Clock Cleaners", "video": false, "vote_average": 7.0, "vote_count": 41, "popularity": 5.127}, {"adult": false, "backdrop_path": "/hPByrqJXCXIViFheXQh48wtI7T6.jpg", "genre_ids": [16, 12, 14, 10751], "id": 31135, "original_language": "en", "original_title": "Mickey Mouse: Mickey and the Beanstalk", "overview": "Based on the timeless adventures of \"Jack and the Beanstalk,\" Mickey, Donald and Goofy climb a fantastic beanstalk up into the sky to a place where everything is huge -- the food, the castle and the fearsome giant named Willy who guards a beautiful golden harp! Will Mickey and his friends outwit the giant and make it safely back home?", "poster_path": "/kk1Xg1f1lv6loekjlKinpKJlGOu.jpg", "release_date": "1947-09-27", "title": "Mickey Mouse: Mickey and the Beanstalk", "video": false, "vote_average": 6.7, "vote_count": 166, "popularity": 13.649}, {"adult": false, "backdrop_path": "/fLSOAdt2Gw2hEmofi3SpSHeIjVw.jpg", "genre_ids": [16], "id": 67130, "original_language": "en", "original_title": "Moving Day", "overview": "Donald and Mickey are overdue on their rent, so the sheriff is preparing to evict them and sell their belongings. Goofy the ice-man comes by and helps them move out before the sale, but their piano doesn't want to stay on his truck. Meanwhile, Donald has a fight with a plunger and a fishbowl after removing a heater from the gas line.", "poster_path": "/9pnNp9NsNyqFzpDkgckn7sBcfei.jpg", "release_date": "1936-06-20", "title": "Moving Day", "video": false, "vote_average": 5.7, "vote_count": 20, "popularity": 3.095}, {"adult": false, "backdrop_path": "/l5bS0w1JxytrBGInjDSZMEpIxDc.jpg", "genre_ids": [16], "id": 67113, "original_language": "en", "original_title": "Mickey's Polo Team", "overview": "Mickey leads his polo team Donald (on a mule), Goofy, The Big Bad Wolf against an all-star team: Stan Laurel, Oliver Hardy, Harpo Marx (on an ostrich), Charles Chaplin, in a game refereed by Jack Holt. Featured spectators include the Three Little Pigs with Shirley Temple, W.C. Fields, and Clarabelle Cow with Clark Gable. Game action proceeds pretty much as you might expect from this bunch of comedians.", "poster_path": "/4FDkgZWa5NCstaLszniBu1H4RAC.jpg", "release_date": "1936-01-04", "title": "Mickey's Polo Team", "video": false, "vote_average": 6.9, "vote_count": 17, "popularity": 4.343}, {"id": 14813, "video": false, "vote_count": 456, "vote_average": 7.6, "title": "Mickey's Christmas Carol", "release_date": "1983-10-19", "original_language": "en", "original_title": "Mickey's Christmas Carol", "genre_ids": [16, 10751], "backdrop_path": "/fDK3xeAcQfQ40ZUULgZshElkspa.jpg", "adult": false, "overview": "It is an adaptation of the Charles Dickens classic A Christmas Carol, featuring Scrooge McDuck as his namesake and inspiration Ebenezer Scrooge and Mickey Mouse as Bob Cratchit. This film was based on a 1972 audio musical entitled Disney's A Christmas Carol. It is a twenty-four minute animated short film produced by Walt Disney Productions as an accompaniment to a re-release of The Rescuers.", "poster_path": "/29iF1IiC3ZyJQ1kmTf4LD8p8oro.jpg", "popularity": 14.7}, {"adult": false, "backdrop_path": "/wzam0pu9jdpwqSD3BVyB7xXXTI.jpg", "genre_ids": [16, 35], "id": 53219, "original_language": "en", "original_title": "Mickey's Trailer", "overview": "Goofy's in the driver's seat, Mickey's in the kitchen, and Donald's in bed in Mickey's high-tech house trailer. When Goofy comes back to eat breakfast, leaving the car on autopilot, it takes them onto a dangerous closed mountain road. When Goofy realizes this, he accidentally unhooks the trailer, sending it on a perilous route. They come very close to disaster several times, while the oblivious Goofy drives on and hooks back up to them.", "poster_path": "/fnYh5nbIsSfR9oC775RJSdNXHZE.jpg", "release_date": "1938-05-06", "title": "Mickey's Trailer", "video": false, "vote_average": 7.0, "vote_count": 58, "popularity": 9.744}, {"adult": false, "backdrop_path": "/twGxeStlGooWV3gP6ZIcSNuQ6jf.jpg", "genre_ids": [12, 16, 10751, 14], "id": 81684, "original_language": "en", "original_title": "The Gruffalo's Child", "overview": "A follow up to the 2009 animated feature and adapted from the childrens' book by Julia Donaldson and Alex Scheffler.  The Gruffalo's child explores the deep dark wood in search of the big bad mouse and meets the Snake, Owl and Fox in the process.  She eventually finds the mouse, who manages to outwit her like the Gruffalo before!", "poster_path": "/qaGH2AoaLvoGXURQtNzj1nw6oZd.jpg", "release_date": "2011-12-25", "title": "The Gruffalo's Child", "video": false, "vote_average": 6.9, "vote_count": 73, "popularity": 9.51}, {"id": 21385, "video": false, "vote_count": 455, "vote_average": 6.4, "title": "Mickey, Donald, Goofy: The Three Musketeers", "release_date": "2004-08-04", "original_language": "en", "original_title": "Mickey, Donald, Goofy: The Three Musketeers", "genre_ids": [12, 16, 35, 10751], "backdrop_path": "/8WodHELOg5guFPMIQf0M88IQhNE.jpg", "adult": false, "overview": "In Disney's take on the Alexander Dumas tale, Mickey Mouse, Donald Duck and Goofy want nothing more than to perform brave deeds on behalf of their queen (Minnie Mouse), but they're stymied by the head Musketeer, Pete. Pete secretly wants to get rid of the queen, so he appoints Mickey and his bumbling friends as guardians to Minnie, thinking such a maneuver will ensure his scheme's success. The score features songs based on familiar classical melodies.", "poster_path": "/uDvv54as7hLH7aWHwPyIVvoNb9K.jpg", "popularity": 27.432}, {"id": 234567, "video": false, "vote_count": 130, "vote_average": 7.6, "title": "Get a Horse!", "release_date": "2013-11-27", "original_language": "en", "original_title": "Get a Horse!", "genre_ids": [16, 10751], "backdrop_path": "/pHKhvWkI65I579uXvIU2TcIxIRe.jpg", "adult": false, "overview": "Mickey, Minnie, Horace Horsecollar, and Clarabelle Cow go on a musical wagon ride until Peg-Leg Pete tries to run them off the road.", "poster_path": "/gJD2wDa5gGUTQITW9ZfjckxSBEs.jpg", "popularity": 8.087}, {"id": 326359, "video": false, "vote_count": 1180, "vote_average": 6.8, "title": "Frozen Fever", "release_date": "2015-03-09", "original_language": "en", "original_title": "Frozen Fever", "genre_ids": [12, 16, 10751], "backdrop_path": "/ubioPGniCfDiASmYYpeJs5RRNaC.jpg", "adult": false, "overview": "On Anna's birthday, Elsa and Kristoff are determined to give her the best celebration ever, but Elsa's icy powers may put more than just the party at risk.", "poster_path": "/lKJiVPzsAO9IJ4LKWXZ8vkR2bg4.jpg", "popularity": 17.218}, {"adult": false, "backdrop_path": "/5OeY4U2rzePxWq2rkqMajUx2gz7.jpg", "genre_ids": [16, 10751, 12, 14, 10749], "id": 812, "original_language": "en", "original_title": "Aladdin", "overview": "Princess Jasmine grows tired of being forced to remain in the palace, so she sneaks out into the marketplace, in disguise, where she meets street-urchin Aladdin.  The couple falls in love, although Jasmine may only marry a prince.  After being thrown in jail, Aladdin becomes embroiled in a plot to find a mysterious lamp, with which the evil Jafar hopes to rule the land.", "poster_path": "/mjKozYRuHc9j7SmiXmbVmCiAM0A.jpg", "release_date": "1992-11-25", "title": "Aladdin", "video": false, "vote_average": 7.6, "vote_count": 7289, "popularity": 35.494}, {"id": 321612, "video": false, "vote_count": 11799, "vote_average": 6.9, "title": "Beauty and the Beast", "release_date": "2017-03-16", "original_language": "en", "original_title": "Beauty and the Beast", "genre_ids": [14, 10749, 10751], "backdrop_path": "/6aUWe0GSl69wMTSWWexsorMIvwU.jpg", "adult": false, "overview": "A live-action adaptation of Disney's version of the classic tale of a cursed prince and a beautiful young woman who helps him break the spell.", "poster_path": "/tWqifoYuwLETmmasnGHO7xBjEtt.jpg", "popularity": 47.679}, {"id": 856, "video": false, "vote_count": 3249, "vote_average": 7.4, "title": "Who Framed Roger Rabbit", "release_date": "1988-06-21", "original_language": "en", "original_title": "Who Framed Roger Rabbit", "genre_ids": [16, 35, 80, 14, 10751], "backdrop_path": "/9podqGmd36AJHO13HQIQHQZRTJC.jpg", "adult": false, "overview": "'Toon star Roger is worried that his wife Jessica is playing pattycake with someone else, so the studio hires detective Eddie Valiant to snoop on her. But the stakes are quickly raised when Marvin Acme is found dead and Roger is the prime suspect.", "poster_path": "/lYfRc57Kx9VgLZ48iulu0HKnM15.jpg", "popularity": 20.755}, {"id": 158852, "video": false, "vote_count": 4945, "vote_average": 6.2, "title": "Tomorrowland", "release_date": "2015-05-19", "original_language": "en", "original_title": "Tomorrowland", "genre_ids": [12, 9648, 878, 10751], "backdrop_path": "/fQbc5XuB4vWA9gnY1CmyxFaOufF.jpg", "adult": false, "overview": "Bound by a shared destiny, a bright, optimistic teen bursting with scientific curiosity and a former boy-genius inventor jaded by disillusionment embark on a danger-filled mission to unearth the secrets of an enigmatic place somewhere in time and space that exists in their collective memory as \"Tomorrowland.\"", "poster_path": "/69Cz9VNQZy39fUE2g0Ggth6SBTM.jpg", "popularity": 39.867}, {"id": 10527, "video": false, "vote_count": 4220, "vote_average": 6.4, "title": "Madagascar: Escape 2 Africa", "release_date": "2008-10-30", "original_language": "en", "original_title": "Madagascar: Escape 2 Africa", "genre_ids": [16, 35, 10751], "backdrop_path": "/anxiz37Z9FPKeuCsJcxViSWmPxg.jpg", "adult": false, "overview": "Alex, Marty, and other zoo animals find a way to escape from Madagascar when the penguins reassemble a wrecked airplane. The precariously repaired craft stays airborne just long enough to make it to the African continent. There the New Yorkers encounter members of their own species for the first time. Africa proves to be a wild place, but Alex and company wonder if it is better than their Central Park home.", "poster_path": "/9mohxwknsHcwFBSAAhoQXwFV5zn.jpg", "popularity": 23.58}, {"id": 10258, "video": false, "vote_count": 148, "vote_average": 6.6, "title": "The Madagascar Penguins in a Christmas Caper", "release_date": "2005-09-23", "original_language": "en", "original_title": "The Madagascar Penguins in a Christmas Caper", "genre_ids": [16, 35, 10751], "backdrop_path": "/gdJ6j1hmt6dQgObWxDJAHUb58o6.jpg", "adult": false, "overview": "During the holiday season, when the animals of the Central Park Zoo are preparing for Christmas, Private, the youngest of the penguins notices that the Polar Bear is all alone. Assured that nobody should have to spend Christmas alone, Private goes into the city for some last-minute Christmas shopping. Along the way, he gets stuffed into a stocking", "poster_path": "/r8QtfGSjDaY6vICRVyYvZvTkjxc.jpg", "popularity": 13.032}, {"id": 150540, "video": false, "vote_count": 13957, "vote_average": 7.9, "title": "Inside Out", "release_date": "2015-06-09", "original_language": "en", "original_title": "Inside Out", "genre_ids": [16, 35, 18, 10751], "backdrop_path": "/szytSpLAyBh3ULei3x663mAv5ZT.jpg", "adult": false, "overview": "Growing up can be a bumpy road, and it's no exception for Riley, who is uprooted from her Midwest life when her father starts a new job in San Francisco. Riley's guiding emotions\u2014 Joy, Fear, Anger, Disgust and Sadness\u2014live in Headquarters, the control centre inside Riley's mind, where they help advise her through everyday life and tries to keep things positive, but the emotions conflict on how best to navigate a new city, house and school.", "poster_path": "/aAmfIX3TT40zUHGcCKrlOZRKC7u.jpg", "popularity": 57.362}, {"id": 460793, "video": false, "vote_count": 933, "vote_average": 6.2, "title": "Olaf's Frozen Adventure", "release_date": "2017-10-27", "original_language": "en", "original_title": "Olaf's Frozen Adventure", "genre_ids": [12, 16, 35, 14, 10402, 10751], "backdrop_path": "/9K4QqQZg4TVXcxBGDiVY4Aey3Rn.jpg", "adult": false, "overview": "Olaf is on a mission to harness the best holiday traditions for Anna, Elsa, and Kristoff.", "poster_path": "/As8WTtxXs9e3cBit3ztTf7zoRmm.jpg", "popularity": 21.98}, {"id": 481084, "video": false, "vote_count": 449, "vote_average": 6.1, "title": "The Addams Family", "release_date": "2019-10-10", "original_language": "en", "original_title": "The Addams Family", "genre_ids": [16, 35, 14, 10751], "backdrop_path": "/ur4NTeFGZmQ6Hz5uEkAMgPI3WRg.jpg", "adult": false, "overview": "The Addams family's lives begin to unravel when they face-off against a treacherous, greedy crafty reality-TV host while also preparing for their extended family to arrive for a major celebration.", "poster_path": "/q1epO0eO8DWu8Vo8tPfvVlzW48T.jpg", "popularity": 41.447}, {"id": 420818, "video": false, "vote_count": 4270, "vote_average": 7.1, "title": "The Lion King", "release_date": "2019-07-12", "original_language": "en", "original_title": "The Lion King", "genre_ids": [12, 10751], "backdrop_path": "/nRXO2SnOA75OsWhNhXstHB8ZmI3.jpg", "adult": false, "overview": "Simba idolizes his father, King Mufasa, and takes to heart his own royal destiny. But not everyone in the kingdom celebrates the new cub's arrival. Scar, Mufasa's brother\u2014and former heir to the throne\u2014has plans of his own. The battle for Pride Rock is ravaged with betrayal, tragedy and drama, ultimately resulting in Simba's exile. With help from a curious pair of newfound friends, Simba will have to figure out how to grow up and take back what is rightfully his.", "poster_path": "/2bXbqYdUdNVa8VIWXVfclP2ICtT.jpg", "popularity": 59.947}], "total_pages": 830, "total_results": 16587}, "recommendations": {"page": 1, "results": [], "total_pages": 1, "total_results": 0}, "credits": {"cast": [{"cast_id": 10, "character": "The Owl (voice) / \u0424\u0438\u043b\u0438\u043d", "credit_id": "59525136c3a36834e5008746", "gender": 2, "id": 550078, "name": "Aleksandr Pozharov", "order": 0, "profile_path": "/jumuTA0175fJnDho2thgZCilgA6.jpg"}, {"cast_id": 9, "character": "Ukh / \u0423\u0445", "credit_id": "5704eabe9251410694001388", "gender": 2, "id": 579743, "name": "Aleksandr Ilin", "order": 1, "profile_path": "/7NCAX81mTJY2hFDdxun3jQV5DqQ.jpg"}, {"cast_id": 7, "character": "The Wolf Cub (voice) / \u0412\u043e\u043b\u0447\u043e\u043d\u043e\u043a", "credit_id": "5698468f9251412543001136", "gender": 1, "id": 1278730, "name": "Zoya Pylnova", "order": 2, "profile_path": "/aNDY44sl9gcX0h0g1Bg7qBzQyvn.jpg"}, {"cast_id": 11, "character": "Kondrat the Bat (voice) / \u041a\u043e\u043d\u0434\u0440\u0430\u0442, \u043b\u0435\u0442\u0443\u0447\u0438\u0439 \u043c\u044b\u0448\u043e\u043d\u043e\u043a", "credit_id": "5cdff0a6c3a36846901f3c0e", "gender": 1, "id": 1585473, "name": "Lyudmila Gnilova", "order": 3, "profile_path": "/9YWSZrk1YdigAh4dfsnAR8eHXov.jpg"}], "crew": [{"credit_id": "569841ad925141253400121b", "department": "Camera", "gender": 0, "id": 1563465, "job": "Camera Operator", "name": "\u042d\u0440\u043d\u0441\u0442 \u0413\u0430\u043c\u0430\u043d", "profile_path": null}, {"credit_id": "569841f5c3a3687600000fcc", "department": "Sound", "gender": 0, "id": 1563466, "job": "Sound", "name": "\u041d\u0435\u043b\u043b\u0438 \u041a\u0443\u0434\u0440\u0438\u043d\u0430", "profile_path": null}, {"credit_id": "569842299251412534001234", "department": "Crew", "gender": 0, "id": 1563467, "job": "Compositors", "name": "\u0418\u0440\u0430\u043a\u043b\u0438\u0439 \u0413\u0430\u0431\u0435\u043b\u0438", "profile_path": null}, {"credit_id": "569842489251412540000fe9", "department": "Writing", "gender": 0, "id": 1563468, "job": "Writer", "name": "\u041c\u0438\u0445\u0430\u0438\u043b \u0428\u0435\u043b\u0435\u0445\u043e\u0432", "profile_path": null}, {"credit_id": "569842e1925141253400126c", "department": "Directing", "gender": 2, "id": 1279071, "job": "Director", "name": "Yuriy Butyrin", "profile_path": "/fi0CQlnFNmXNATIbivo9W1NUa9Y.jpg"}]}}