{"adult": false, "backdrop_path": null, "belongs_to_collection": null, "budget": 0, "genres": [{"id": 35, "name": "Comedy"}], "homepage": null, "id": 218680, "imdb_id": "tt1119215", "original_language": "ja", "original_title": "Sugar Sweet", "overview": "Naomi makes lesbian porn. But it's not the over-the-top-dumb-dialogue-kind of lesbian porn that guys get off on, so her producers demand a re-shoot. At the same time she's directing the first lesbian love story for a pseudo-reality TV dating show, with her bubbly Gen-X pal Azusa and an office manager/dominatrix go-go dancer named Miki as the featured couple. All the while, Naomi spends her nights online, confessing her fears and dreams to a gentle, supportive soul known only by her screen name Sugar.", "popularity": 0.6, "poster_path": "/on4c4cUzCf6GHkCxpYajvevzA4k.jpg", "production_companies": [{"id": 39440, "logo_path": null, "name": "Aspire Vision", "origin_country": ""}], "production_countries": [{"iso_3166_1": "JP", "name": "Japan"}], "release_date": "2001-09-21", "revenue": 0, "runtime": 67, "spoken_languages": [{"iso_639_1": "ja", "name": "\u65e5\u672c\u8a9e"}], "status": "Released", "tagline": "Life is stranger than fiction", "title": "Sugar Sweet", "video": false, "vote_average": 0.0, "vote_count": 0, "keywords": {"keywords": [{"id": 15136, "name": "female homosexuality"}]}, "similar": {"page": 1, "results": [{"adult": false, "backdrop_path": "/yw93TFk5L6jZ43yMGitll8CHa6m.jpg", "genre_ids": [35, 18], "id": 37165, "original_language": "en", "original_title": "The Truman Show", "overview": "Truman Burbank is the star of The Truman Show, a 24-hour-a-day reality TV show that broadcasts every aspect of his life without his knowledge. His entire life has been an unending soap opera for consumption by the rest of the world. And everyone he knows, including his wife and his best friend is really an actor, paid to be part of his life.", "poster_path": "/EelZzudHRvJmjWccWscN1S5vmI.jpg", "release_date": "1998-06-04", "title": "The Truman Show", "video": false, "vote_average": 8.0, "vote_count": 10411, "popularity": 22.164}, {"adult": false, "backdrop_path": "/6hBIRNqGhaFxMHLRyudhRJOJGHt.jpg", "genre_ids": [27, 53], "id": 13186, "original_language": "en", "original_title": "Wrong Turn 2: Dead End", "overview": "Retired military commander Colonel Dale Murphy hosts the simulated post-apocalyptic reality show where participants are challenged to survive a remote West Virginia wasteland. But the show turns into a nightmarish showdown when each realizes they are being hunted by an inbred family of cannibals determined to make them all dinner!", "poster_path": "/ftmiyfrTrqTi5Qod62nGRP9BGPn.jpg", "release_date": "2007-08-25", "title": "Wrong Turn 2: Dead End", "video": false, "vote_average": 5.7, "vote_count": 617, "popularity": 16.22}, {"adult": false, "backdrop_path": "/3NVJomTYv5v76rz0uu3n9VW2BAF.jpg", "genre_ids": [35], "id": 11374, "original_language": "en", "original_title": "Edtv", "overview": "Video store clerk Ed agrees to have his life filmed by a camera crew for a tv network.", "poster_path": "/sF3YBtYn6yAHMPDbiC58WArIWMl.jpg", "release_date": "1999-03-26", "title": "Edtv", "video": false, "vote_average": 6.0, "vote_count": 346, "popularity": 9.853}, {"id": 44899, "video": false, "vote_count": 116, "vote_average": 5.8, "title": "The Challenge", "release_date": "2003-01-24", "original_language": "en", "original_title": "The Challenge", "genre_ids": [12, 35, 10751], "backdrop_path": "/oZqnvSMMYbcYgegdyiws0R6vQPv.jpg", "adult": false, "overview": "Estranged twins Lizzie and Shane are chosen for a Survivor-like popular game show with college scholarships as the prize.", "poster_path": "/gnasPDxMjVuMfAjBkfQvbOoOBfC.jpg", "popularity": 10.037}, {"id": 9647, "video": false, "vote_count": 786, "vote_average": 6.9, "title": "Scrooged", "release_date": "1988-11-22", "original_language": "en", "original_title": "Scrooged", "genre_ids": [35, 18, 14], "backdrop_path": "/6xezVJoUp0cZUBQeIDpW6lFuhcd.jpg", "adult": false, "overview": "In this modern take on Charles Dickens' \"A Christmas Carol,\" Frank Cross (Bill Murray) is a wildly successful television executive whose cold ambition and curmudgeonly nature has driven away the love of his life, Claire Phillips (Karen Allen). But after firing a staff member, Eliot Loudermilk (Bobcat Goldthwait), on Christmas Eve, Frank is visited by a series of ghosts who give him a chance to re-evaluate his actions and right the wrongs of his past.", "poster_path": "/uO0znfB2ZzTXA1IS7jkrjNbpkYK.jpg", "popularity": 17.767}, {"id": 1370, "video": false, "vote_count": 1558, "vote_average": 5.9, "title": "Rambo III", "release_date": "1988-05-24", "original_language": "en", "original_title": "Rambo III", "genre_ids": [28, 12, 53, 10752], "backdrop_path": "/51P7TrAJIIfrwyPwpswui42zQLq.jpg", "adult": false, "overview": "Combat has taken its toll on Rambo, but he's finally begun to find inner peace in a monastery. When Rambo's friend and mentor Col. Trautman asks for his help on a top secret mission to Afghanistan, Rambo declines but must reconsider when Trautman is captured.", "poster_path": "/gWYfUEkExdr0SLY5L2mjnhKgE4C.jpg", "popularity": 18.508}, {"id": 8329, "video": false, "vote_count": 2246, "vote_average": 7.1, "title": "[REC]", "release_date": "2007-04-10", "original_language": "es", "original_title": "[REC]", "genre_ids": [27, 9648], "backdrop_path": "/qJjGPJSXtCMOvBLJwusTGkiboYZ.jpg", "adult": false, "overview": "A television reporter and cameraman follow emergency workers into a dark apartment building and are quickly locked inside with something terrifying.", "poster_path": "/hJx9gqUJgWXRkFpIbCcNYrkqAQX.jpg", "popularity": 15.123}, {"id": 10774, "video": false, "vote_count": 816, "vote_average": 7.9, "title": "Network", "release_date": "1976-11-01", "original_language": "en", "original_title": "Network", "genre_ids": [18], "backdrop_path": "/pRMmLhZQncfvS44JelQyB078ZP2.jpg", "adult": false, "overview": "When veteran anchorman Howard Beale is forced to retire his 25-year post because of his age, he announces to viewers that he will kill himself during his farewell broadcast. Network executives rethink their decision when his fanatical tirade results in a spike in ratings.", "poster_path": "/qKcduPILUyZJsHWHGVwDF1CshUi.jpg", "popularity": 12.175}, {"id": 5851, "video": false, "vote_count": 528, "vote_average": 5.4, "title": "Showtime", "release_date": "2002-03-14", "original_language": "en", "original_title": "Showtime", "genre_ids": [28, 35], "backdrop_path": "/rQwWtujstlG3dzfGsnp57Hh3pmj.jpg", "adult": false, "overview": "A spoof of buddy cop movies where two very different cops are forced to team up on a new reality based T.V. cop show.", "poster_path": "/a1vRxRQFRwheHXJESIt2cnfudaH.jpg", "popularity": 9.901}, {"id": 529962, "video": false, "vote_count": 592, "vote_average": 6.5, "title": "The Perfection", "release_date": "2018-09-20", "original_language": "en", "original_title": "The Perfection", "genre_ids": [27, 53], "backdrop_path": "/99LvuMDXJ6A6I7FW61OvjDjvvAx.jpg", "adult": false, "overview": "When troubled musical prodigy Charlotte seeks out Elizabeth, the new star pupil of her former school, the encounter sends both musicians down a sinister path with shocking consequences.", "poster_path": "/tPDe68PDsgIGMs6wdJLtcwVVxA7.jpg", "popularity": 16.559}, {"id": 9713, "video": false, "vote_count": 221, "vote_average": 5.0, "title": "Holy Man", "release_date": "1998-10-08", "original_language": "en", "original_title": "Holy Man", "genre_ids": [35, 18], "backdrop_path": "/ruJnCxmriVGFEz2fZScGDk2jVjr.jpg", "adult": false, "overview": "Eddie Murphy stars as an over-the-top television evangelist who finds a way to turn television home shopping into a religious experience, and takes America by storm.", "poster_path": "/11mINUUPFtqEBdsbayBenOaTWbP.jpg", "popularity": 9.875}, {"adult": false, "backdrop_path": "/6Ae5hTEgmowsgKcotKTXvoiKlpt.jpg", "genre_ids": [36, 18], "id": 11450, "original_language": "en", "original_title": "Quiz Show", "overview": "Quiz Show is a 1994 American historical drama film which tells the true story of the Twenty One quiz show scandal of the 1950s.", "poster_path": "/yoGJo1h3Hl2exXPVcG9UXWDENtX.jpg", "release_date": "1994-08-25", "title": "Quiz Show", "video": false, "vote_average": 7.3, "vote_count": 477, "popularity": 13.508}, {"id": 25218, "video": false, "vote_count": 89, "vote_average": 5.8, "title": "Live!", "release_date": "2007-01-01", "original_language": "en", "original_title": "Live!", "genre_ids": [53], "backdrop_path": "/ppQqUOQq35fLFiYfuPHfiwmxOWx.jpg", "adult": false, "overview": "A mockumentary following an ambitious TV network executive trying to produce a controversial reality show where contestants play Russian Roulette", "poster_path": "/oWYvy3IS0DoXfUtv8IShcToOyts.jpg", "popularity": 7.697}, {"adult": false, "backdrop_path": "/2EWVQPsowLLIE6Ok6N61V6xDjmv.jpg", "genre_ids": [16, 35], "id": 36736, "original_language": "en", "original_title": "The Drawn Together Movie: The Movie!", "overview": "Eight housemates on a fake animated reality TV show realize they've been canceled and set off on a journey to get back on the air.", "poster_path": "/gVQYBtUXC8GUQZx6RxigC3Hleab.jpg", "release_date": "2010-04-20", "title": "The Drawn Together Movie: The Movie!", "video": false, "vote_average": 6.3, "vote_count": 60, "popularity": 9.578}, {"id": 377319, "video": false, "vote_count": 46, "vote_average": 7.5, "title": "Derren Brown: Pushed to the Edge", "release_date": "2016-01-12", "original_language": "en", "original_title": "Derren Brown: Pushed to the Edge", "genre_ids": [99, 10770], "backdrop_path": "/afQQzFPziBwmvgKNlGYEMv2Q3RV.jpg", "adult": false, "overview": "Derren Brown investigates the power of social compliance by persuading an unwitting member of the public into believing that they have pushed someone to their death.", "poster_path": "/hL31qRjjhVynNnBCkTLGKbbA956.jpg", "popularity": 8.361}, {"adult": false, "backdrop_path": null, "genre_ids": [27], "id": 513372, "original_language": "en", "original_title": "Hoax", "overview": "An investigation into a camping trip gone wrong turns into a fight for survival when a team, including a brilliant primate specialist and led by a ruthless television producer, must come to grips with the possible existence of Bigfoot.", "poster_path": "/hK7s0dsNLGyEFokHyvyyTj1KCYL.jpg", "release_date": "2019-08-20", "title": "Hoax", "video": false, "vote_average": 5.1, "vote_count": 9, "popularity": 5.819}, {"adult": false, "backdrop_path": "/A4pEYA8zDqIHBf4nEHP9TbPzTou.jpg", "genre_ids": [18], "id": 375098, "original_language": "en", "original_title": "The Show", "overview": "An unsettling look at reality television, where a disturbing game show has its contestants ending their lives for the public's enjoyment.", "poster_path": "/tg3hztSt33hf1OopspKVjVY7jC4.jpg", "release_date": "2017-09-21", "title": "The Show", "video": false, "vote_average": 5.8, "vote_count": 100, "popularity": 7.894}, {"id": 31472, "video": false, "vote_count": 24, "vote_average": 6.2, "title": "Lust for a Vampire", "release_date": "1971-01-17", "original_language": "en", "original_title": "Lust for a Vampire", "genre_ids": [27], "backdrop_path": "/4J7Q8x82cU0eCaLNxrPhNYDpPkA.jpg", "adult": false, "overview": "In 1830, the Karnstein heirs use the blood of an innocent to bring forth the evil that is the beautiful Mircalla - or as she was in 1710, Carmilla. The nearby Finishing School offers rich pickings not only in in the blood of nubile young ladies but also with the headmaster who is desperate to become Mircalla's disciple, and the equally besotted and even more foolish author Richard Lestrange.", "poster_path": "/gyWcd2AlGgo46j2XUjhr6ppEYP1.jpg", "popularity": 5.317}, {"id": 11598, "video": false, "vote_count": 128, "vote_average": 6.2, "title": "The Kentucky Fried Movie", "release_date": "1977-08-10", "original_language": "en", "original_title": "The Kentucky Fried Movie", "genre_ids": [35], "backdrop_path": "/uRUCFHzusW3GONa2oieJgSDM7Qm.jpg", "adult": false, "overview": "A series of loosely connected skits that spoof news programs, commercials, porno films, kung-fu films, disaster films, blaxploitation films, spy films, mafia films, and the fear that somebody is watching you on the other side of the TV.", "poster_path": "/mKsEoJf6Anet52lsWPfQEYcX5xr.jpg", "popularity": 9.872}, {"adult": false, "backdrop_path": null, "genre_ids": [12, 35, 27], "id": 440949, "original_language": "en", "original_title": "Wild Men", "overview": "The inept cast and crew of a surprise hit reality-TV show travel deep into the Adirondack mountains for their second season to find proof that Bigfoot exists. Any remaining skepticism they have is ripped to pieces.", "poster_path": "/bnBsTlCiVnbKCTcmcphuIrtt9q5.jpg", "release_date": "2017-01-28", "title": "Wild Men", "video": false, "vote_average": 7.5, "vote_count": 2, "popularity": 1.855}], "total_pages": 8, "total_results": 158}, "recommendations": {"page": 1, "results": [], "total_pages": 1, "total_results": 0}, "credits": {"cast": [{"cast_id": 1, "character": "Naomi", "credit_id": "5474c66792514144d5000476", "gender": 0, "id": 1389285, "name": "Saori Kitagawa", "order": 1, "profile_path": null}, {"cast_id": 2, "character": "Azusa", "credit_id": "5474c67bc3a368364c000338", "gender": 0, "id": 1389286, "name": "Saki", "order": 2, "profile_path": null}, {"cast_id": 3, "character": "", "credit_id": "583f1240c3a368668a00e0ae", "gender": 0, "id": 1035394, "name": "Tamayo", "order": 3, "profile_path": "/jbbwELNbkthUfrHWzxb6O2LAWvW.jpg"}], "crew": [{"credit_id": "5474c51c9251413aab00244f", "department": "Directing", "gender": 0, "id": 1197183, "job": "Director", "name": "Desiree Lim", "profile_path": null}, {"credit_id": "583f1263925141153500e1b2", "department": "Crew", "gender": 0, "id": 1716415, "job": "Cinematography", "name": "Natsuyo Nakamura", "profile_path": null}, {"credit_id": "583f126ec3a368667d00efff", "department": "Writing", "gender": 0, "id": 1716416, "job": "Writer", "name": "Carole Hisasue", "profile_path": null}, {"credit_id": "583f127b925141152d00db28", "department": "Writing", "gender": 0, "id": 1197183, "job": "Writer", "name": "Desiree Lim", "profile_path": null}, {"credit_id": "583f128cc3a368669100c87c", "department": "Sound", "gender": 0, "id": 1716417, "job": "Music", "name": "Masao Tahara", "profile_path": null}]}}