{"adult": false, "backdrop_path": null, "belongs_to_collection": null, "budget": 0, "genres": [{"id": 10749, "name": "Romance"}, {"id": 18, "name": "Drama"}], "homepage": null, "id": 219435, "imdb_id": "tt0277740", "original_language": "en", "original_title": "Hubad sa Ilalim ng Buwan", "overview": "A young woman recalls how her father (a fallen priest), her mother (a woman with a secret past) and her teenage sister returned with her to live in their ancestral home after the family business failed. She was plagued with mysterious problems of sleepwalking and began a romance with a young man who tried to cure her.", "popularity": 1.816, "poster_path": "/d7xcXE4wYX2N3A0x30IXKxN73Dp.jpg", "production_companies": [{"id": 43374, "logo_path": null, "name": "Good Harvest Productions", "origin_country": ""}, {"id": 8238, "logo_path": "/3f3SS3sep9V3Nf7RAxNd5UUEw1E.png", "name": "Regal Entertainment", "origin_country": "PH"}], "production_countries": [{"iso_3166_1": "PH", "name": "Philippines"}], "release_date": "1999-09-08", "revenue": 0, "runtime": 127, "spoken_languages": [{"iso_639_1": "tl", "name": ""}], "status": "Released", "tagline": "", "title": "Naked Under the Moon", "video": false, "vote_average": 8.3, "vote_count": 3, "keywords": {"keywords": [{"id": 6895, "name": "philippines"}, {"id": 217311, "name": "sex party"}]}, "similar": {"page": 1, "results": [{"id": 553100, "video": false, "vote_count": 13, "vote_average": 6.2, "title": "Wild and Free", "release_date": "2018-10-10", "original_language": "tl", "original_title": "Wild and Free", "genre_ids": [18], "backdrop_path": "/9v4nPAyVvtGONV5NtPkDHA9bczS.jpg", "adult": false, "overview": "Ellie and Jake fall in love, but struggle with their relationship when they discover an unexpected connection between their pasts.", "poster_path": "/AhDZQkocc4DQpkSY5dTOmqesqXn.jpg", "popularity": 28.337}, {"id": 576235, "video": false, "vote_count": 0, "vote_average": 0.0, "title": "Elise", "release_date": "2019-02-06", "original_language": "tl", "original_title": "Elise", "genre_ids": [35, 10749], "backdrop_path": "/5yNJKAAV4Ab4DnjRXCVEqalROrC.jpg", "adult": false, "overview": "As their paths cross again several years later, Bert has a hard time acknowledging that he is still in love with Elise.", "poster_path": "/msKjsFkcc7qLJhekzWzpsgQjG8g.jpg", "popularity": 9.948}, {"adult": false, "backdrop_path": null, "genre_ids": [27, 14], "id": 620413, "original_language": "tl", "original_title": "Sa Gabing Tanging Liwanag Ay Paniniwala", "overview": "The continuous disappearance of townsmen ignited the town captain to search the woods in order to find out who is behind the disappearances and where are the people being brought to. Upon his search, the town captain and his son came across a mysterious answer.", "poster_path": "/jngkUyvbdD5bxNKqoKuj1bVyFha.jpg", "release_date": "2019-08-03", "title": "Sa Gabing Tanging Liwanag Ay Paniniwala", "video": false, "vote_average": 0.0, "vote_count": 0, "popularity": 0.945}, {"id": 49040, "video": false, "vote_count": 3881, "vote_average": 6.1, "title": "The Bourne Legacy", "release_date": "2012-08-08", "original_language": "en", "original_title": "The Bourne Legacy", "genre_ids": [28, 53], "backdrop_path": "/gCdJYpX1TXGEZrEJl0mMTTpinMh.jpg", "adult": false, "overview": "New CIA operative Aaron Cross experiences life-or-death stakes that have been triggered by the previous actions of Jason Bourne.", "poster_path": "/qIJonjlSzU6LCJklS6CH3p5vLcQ.jpg", "popularity": 20.243}, {"adult": false, "backdrop_path": "/34xYArXhdaFiYp0zppC7Dk7m5zW.jpg", "genre_ids": [53, 80, 18, 9648], "id": 183026, "original_language": "en", "original_title": "Rigodon", "overview": "A heartbroken young woman begins a sexual relationship with a struggling artista, not knowing that her new beau is already married. As the truth comes out, obsession and jealousy bring pain into all their lives.", "poster_path": "/kwPyz2Oa7IcjRsm6bJlOQSgsh63.jpg", "release_date": "2012-11-21", "title": "Rigodon", "video": false, "vote_average": 6.7, "vote_count": 8, "popularity": 11.962}, {"adult": false, "backdrop_path": "/gT8pjzyprU8zwwJan8Y9enSUmyo.jpg", "genre_ids": [35, 10749], "id": 548789, "original_language": "tl", "original_title": "The Hopeful Romantic", "overview": "Jess, a bellboy working at The Manila Hotel, is gifted an all-expenses paid stay at the hotel's most expensive suite. And during his stay, he encounters Veronica, a professional golddigger. Jess keeps up the illusion of being a rich guest of the hotel, hoping to get Veronica to fall in love with him before he has to tell her the truth.", "poster_path": "/23WBe0eWfARtbsZIUmVbgA0CGg7.jpg", "release_date": "2018-09-12", "title": "The Hopeful Romantic", "video": false, "vote_average": 3.0, "vote_count": 4, "popularity": 10.058}, {"adult": false, "backdrop_path": "/fr8Aon16ksAcjGnv9D2j2A3wAfz.jpg", "genre_ids": [18, 9648, 53], "id": 9729, "original_language": "en", "original_title": "Where the Truth Lies", "overview": "An ambitious reporter probes the reasons behind the sudden split of a 1950s comedy team.", "poster_path": "/kM3SILXjW9YyX8OQbkoVUj1izWQ.jpg", "release_date": "2005-10-07", "title": "Where the Truth Lies", "video": false, "vote_average": 6.1, "vote_count": 145, "popularity": 8.936}, {"adult": false, "backdrop_path": null, "genre_ids": [35, 80], "id": 565156, "original_language": "tl", "original_title": "Ang Pangarap Kong Holdap", "overview": "A group of friends set out a plan for a perfect crime.", "poster_path": "/iLubK0GqnQPq74OztLN3C0Pp9R0.jpg", "release_date": "2018-11-28", "title": "Ang Pangarap Kong Holdap", "video": false, "vote_average": 2.0, "vote_count": 1, "popularity": 6.741}, {"adult": false, "backdrop_path": "/5oFqUQDyUxHarGKBITc3l8upu6F.jpg", "genre_ids": [18, 10749], "id": 369927, "original_language": "en", "original_title": "A Second Chance", "overview": "In the continuation of Popoy and Basha\u2019s love story from \u201cOne More Chance,\u201d we find the couple walking down the aisle and vowing to love each other \u201cforever and ever.\u201d \u201cA Second Chance\u201d explores realities and intricacies and Popoy and Basha\u2019s married life. We find Popoy as a failed achiever, struggling to keep his business and self-esteem intact, while Basha has given up so much in her life to keep their marriage together.", "poster_path": "/2q20s3mfjjkTCEwKIbxm8m4pGeM.jpg", "release_date": "2015-11-25", "title": "A Second Chance", "video": false, "vote_average": 7.2, "vote_count": 8, "popularity": 3.423}, {"adult": false, "backdrop_path": "/jYZ415g5qBx0ea4ZgriNeWH0Tl7.jpg", "genre_ids": [28, 35, 10749], "id": 9660, "original_language": "en", "original_title": "Operation Petticoat", "overview": "A World War II submarine commander finds himself stuck with a decrepit sub, a con-man executive officer, and a group of army nurses.", "poster_path": "/emhiXStVB3HoE2MtYVRzTNOgOMn.jpg", "release_date": "1959-12-05", "title": "Operation Petticoat", "video": false, "vote_average": 7.1, "vote_count": 142, "popularity": 8.116}, {"id": 4539, "video": false, "vote_count": 149, "vote_average": 8.0, "title": "Hearts of Darkness: A Filmmaker's Apocalypse", "release_date": "1991-09-06", "original_language": "en", "original_title": "Hearts of Darkness: A Filmmaker's Apocalypse", "genre_ids": [99], "backdrop_path": "/mQ6GJtc5xZpNQpVhAfoeZZbrzJO.jpg", "adult": false, "overview": "A chronicle of the production problems \u2014 including bad weather, actors' health, war near the filming locations, and more \u2014 which plagued the filming of Apocalypse Now, increasing costs and nearly destroying the life and career of Francis Ford Coppola.", "poster_path": "/iQLXcATpUxrRdEzxoDqzCgYllnT.jpg", "popularity": 8.496}, {"adult": false, "backdrop_path": "/2HYvAhyrIaYG2AcdyAZX4FWIZo2.jpg", "genre_ids": [10749, 18], "id": 134380, "original_language": "en", "original_title": "The Mistress", "overview": "A young woman is torn between the affections of her two lovers. One is a young bachelor who brings passion into her life. The other is a married man who has kept her as his mistress for years. Architect JD has a chip on his shoulder about his father Rico never really accepting him as his son. Seamstress Sari struggles to take care of her family. The two meet by chance, and JD aggressively pursues Saris affections. Though the two are clearly a good match, there is a problem standing in the way of their bliss: Sari is the mistress of JDs father. Against his better judgment, JD continues to court Sari even after finding out this difficult fact. He hides his true identity as Ricos son, and fights to win Saris heart.", "poster_path": "/1tB0ClfLmo9kAijLvHzSCR65DUh.jpg", "release_date": "2012-09-21", "title": "The Mistress", "video": false, "vote_average": 6.4, "vote_count": 7, "popularity": 5.286}, {"adult": false, "backdrop_path": "/oxfN2hOLhMPCuDdG68f3wAV7uIu.jpg", "genre_ids": [80, 18, 10749], "id": 18311, "original_language": "cn", "original_title": "\u963f\u98db\u6b63\u50b3", "overview": "Yuddy, a Hong Kong playboy known for breaking girls' hearts, tries to find solace and the truth after discovering the woman who raised him isn't his mother.", "poster_path": "/8GxQZTt3WNke0TqKGCBuTmTxMu8.jpg", "release_date": "1990-12-15", "title": "Days of Being Wild", "video": false, "vote_average": 7.4, "vote_count": 172, "popularity": 11.268}, {"adult": false, "backdrop_path": "/n4yqgEw0uUu8erfouZ1ORSpBTAH.jpg", "genre_ids": [10752, 18, 36], "id": 403357, "original_language": "es", "original_title": "1898: los \u00faltimos de Filipinas", "overview": "The Philippines, 1898. Fifty Spanish soldiers arrive in the small village of Baler to rebuild an outpost. Although the war against the Filipinos and their American allies is almost lost, as is the Spanish Empire, the garrison will endure a cruel siege for eleven months. They will be the last to surrender.", "poster_path": "/q2CbFRigH5qz8v68Q5GbadSMcOz.jpg", "release_date": "2016-12-02", "title": "1898: Our Last Men in the Philippines", "video": false, "vote_average": 6.5, "vote_count": 80, "popularity": 7.653}, {"adult": false, "backdrop_path": null, "genre_ids": [99, 10402], "id": 635872, "original_language": "tl", "original_title": "ICYMI: I See Me", "overview": "A music documentary on MNL48, a franchise of the highly successful Japanese idol group, AKB48. The film looks into the girls as they perform within a music subculture that tries to get a foothold in a market of an overtly critical audience.", "poster_path": "/dDx99h6KtrGMjAV2pskUJigBbEY.jpg", "release_date": "2019-10-21", "title": "ICYMI: I See Me", "video": false, "vote_average": 0.0, "vote_count": 0, "popularity": 1.083}, {"id": 19096, "video": false, "vote_count": 26, "vote_average": 6.1, "title": "Back to Bataan", "release_date": "1945-05-30", "original_language": "en", "original_title": "Back to Bataan", "genre_ids": [28, 18, 10752], "backdrop_path": "/6FRB0D9SJ2vZitrXuRuwCJMWT2W.jpg", "adult": false, "overview": "An Army colonel leads a guerrilla campaign against the Japanese in the Philippines.", "poster_path": "/nfoHUCIXIzKX1AhkWOXEmCKmHzI.jpg", "popularity": 7.138}, {"id": 462181, "video": false, "vote_count": 7, "vote_average": 5.4, "title": "Palm Swings", "release_date": "2017-10-03", "original_language": "en", "original_title": "Palm Swings", "genre_ids": [35, 18, 10749], "backdrop_path": "/sTuw5ARn1a795wtb63IFNxOddc1.jpg", "adult": false, "overview": "After moving to Palm Springs, a young married couple puts their love to the test when they discover that their neighbors are swingers.", "poster_path": "/g1YnKSZECx2mfCheJmmQOX3CaDn.jpg", "popularity": 8.363}, {"adult": false, "backdrop_path": null, "genre_ids": [18], "id": 352273, "original_language": "en", "original_title": "Tubero", "overview": "A young plumber gets drawn into several affairs, his lack of control pushing him into dangerous situations.", "poster_path": "/AhGO3GklxxxeztdBnskWuibvfan.jpg", "release_date": "2011-05-25", "title": "Tubero", "video": false, "vote_average": 8.5, "vote_count": 1, "popularity": 4.29}, {"adult": false, "backdrop_path": "/3pVJIuV4xPDNIMIv5ZsJPtTV67x.jpg", "genre_ids": [18, 28, 10752], "id": 31935, "original_language": "en", "original_title": "Too Late the Hero", "overview": "A WWII film set on a Pacific island. Japanese and allied forces occupy different parts of the island. When a group of British soldiers are sent on a mission behind enemy lines, things don't go exactly to plan. This film differs in that some of the 'heroes' are very reluctant, but they come good when they are pursued by the Japanese who are determined to prevent them returning to base.", "poster_path": "/gshAXlNmSpgJwll5Zi65N5TnGpO.jpg", "release_date": "1970-05-20", "title": "Too Late the Hero", "video": false, "vote_average": 6.4, "vote_count": 37, "popularity": 6.594}, {"adult": false, "backdrop_path": "/8FtzdLyAL7P1y2S1HnmOlNr9bUX.jpg", "genre_ids": [35, 10749], "id": 461438, "original_language": "tl", "original_title": "Can We Still Be Friends?", "overview": "Digs a no fuss, no frills kind of guy and idealistic achiever Sam who are friends turned lovers turned exes. Their relationship as a couple lasted for almost eight years until they both decided on an amicable breakup.", "poster_path": "/rUlMsLiL1iUvqE8YYwog0KPz6sV.jpg", "release_date": "2017-06-14", "title": "Can We Still Be Friends?", "video": false, "vote_average": 6.2, "vote_count": 175, "popularity": 5.45}], "total_pages": 82, "total_results": 1625}, "recommendations": {"page": 1, "results": [], "total_pages": 1, "total_results": 0}, "credits": {"cast": [{"cast_id": 1, "character": "", "credit_id": "52fe4e67c3a368484e21ed35", "gender": 0, "id": 559359, "name": "Klaudia Koronel", "order": 0, "profile_path": "/sRvKgdOSCx9LEHQkBo7NCDVTrnP.jpg"}, {"cast_id": 2, "character": "", "credit_id": "52fe4e67c3a368484e21ed39", "gender": 1, "id": 269947, "name": "Elizabeth Oropesa", "order": 1, "profile_path": "/20pbChHjgpS2LQQRzvb9rSRQ5qA.jpg"}, {"cast_id": 3, "character": "", "credit_id": "52fe4e67c3a368484e21ed3d", "gender": 2, "id": 934088, "name": "Julio Diaz", "order": 2, "profile_path": "/hys0GPXj3tLrI4kHc30LK1ouTpq.jpg"}, {"cast_id": 4, "character": "", "credit_id": "52fe4e67c3a368484e21ed41", "gender": 1, "id": 1059195, "name": "Isabel Granada", "order": 3, "profile_path": "/fJ9AknzDthsXVs5OtD31UygF1Nf.jpg"}, {"cast_id": 5, "character": "", "credit_id": "52fe4e67c3a368484e21ed45", "gender": 0, "id": 1187268, "name": "Mike Magat", "order": 4, "profile_path": null}, {"cast_id": 7, "character": "", "credit_id": "52fe4e67c3a368484e21ed4d", "gender": 2, "id": 278923, "name": "Joel Torre", "order": 5, "profile_path": "/5PP5K8EgMhcRA3n1IfRhfcxDS5M.jpg"}, {"cast_id": 8, "character": "", "credit_id": "52fe4e67c3a368484e21ed51", "gender": 2, "id": 1076721, "name": "Ronnie Lazaro", "order": 7, "profile_path": "/9pv4SFkv02aWFSUlkBi6DU1WWNj.jpg"}, {"cast_id": 19, "character": "Sister Louie", "credit_id": "55ac98749251411e11008889", "gender": 1, "id": 1028952, "name": "Lui Manansala", "order": 8, "profile_path": "/6oOLKi2N0I2IHVmnsm4bmymTOvm.jpg"}, {"cast_id": 20, "character": "", "credit_id": "55ac98829251411e0b008444", "gender": 0, "id": 1156089, "name": "Noel Miralles", "order": 9, "profile_path": null}], "crew": [{"credit_id": "52fe4e67c3a368484e21ed57", "department": "Directing", "gender": 0, "id": 1051381, "job": "Director", "name": "Lav Diaz", "profile_path": "/niiWV6WNbH70i7zvJSu6DowM7SP.jpg"}, {"credit_id": "52fe4e67c3a368484e21ed5d", "department": "Writing", "gender": 0, "id": 1080413, "job": "Screenstory", "name": "Suzette Doctolero", "profile_path": null}, {"credit_id": "52fe4e67c3a368484e21ed63", "department": "Writing", "gender": 0, "id": 1051381, "job": "Screenplay", "name": "Lav Diaz", "profile_path": "/niiWV6WNbH70i7zvJSu6DowM7SP.jpg"}, {"credit_id": "52fe4e67c3a368484e21ed69", "department": "Writing", "gender": 0, "id": 1204296, "job": "Screenstory", "name": "Bong Ramos", "profile_path": null}, {"credit_id": "52fe4e67c3a368484e21ed6f", "department": "Production", "gender": 0, "id": 1188896, "job": "Executive Producer", "name": "Joey Gosiengfiao", "profile_path": null}, {"credit_id": "52fe4e67c3a368484e21ed75", "department": "Production", "gender": 0, "id": 1036375, "job": "Executive Producer", "name": "Lily Y. Monteverde", "profile_path": null}, {"credit_id": "52fe4e67c3a368484e21ed7b", "department": "Sound", "gender": 0, "id": 1204297, "job": "Original Music Composer", "name": "Michelle Pritchard", "profile_path": null}, {"credit_id": "52fe4e67c3a368484e21ed81", "department": "Camera", "gender": 0, "id": 1204298, "job": "Director of Photography", "name": "Louie Quirino", "profile_path": null}, {"credit_id": "52fe4e67c3a368484e21ed87", "department": "Editing", "gender": 0, "id": 1204283, "job": "Editor", "name": "Randy Brien", "profile_path": null}, {"credit_id": "52fe4e67c3a368484e21ed8d", "department": "Art", "gender": 0, "id": 1204299, "job": "Production Design", "name": "Elson de Veyra", "profile_path": null}]}}