{"adult": false, "backdrop_path": null, "belongs_to_collection": null, "budget": 0, "genres": [{"id": 53, "name": "Thriller"}, {"id": 28, "name": "Action"}, {"id": 18, "name": "Drama"}], "homepage": null, "id": 220404, "imdb_id": "tt0114973", "original_language": "en", "original_title": "The Wolves", "overview": "When Blackie Blacavov and his sister Barbara inherit 50,000 acres of Alaskan wilderness, he tries to live a more harmonious, natural existence on the land. But Barbara, without informing Blackie, gives mining exploration rights to King, a businessman with a passion for hunting wolves. On the sly, King also uses the area as a toxic waste dump. So Blackie and Barbara join together with the wolves to defeat their common enemy and save the idyllic refuge.", "popularity": 0.84, "poster_path": null, "production_companies": [{"id": 38969, "logo_path": null, "name": "Courier Film Studios", "origin_country": ""}, {"id": 18908, "logo_path": null, "name": "Central Cinema Company Film (CCC)", "origin_country": ""}], "production_countries": [{"iso_3166_1": "US", "name": "United States of America"}, {"iso_3166_1": "RU", "name": "Russia"}, {"iso_3166_1": "DE", "name": "Germany"}], "release_date": "1996-03-18", "revenue": 0, "runtime": 88, "spoken_languages": [{"iso_639_1": "en", "name": "English"}], "status": "Released", "tagline": "", "title": "The Wolves", "video": false, "vote_average": 0.0, "vote_count": 0, "keywords": {"keywords": [{"id": 1994, "name": "wolf"}, {"id": 3593, "name": "wilderness"}, {"id": 9880, "name": "alaska"}]}, "similar": {"page": 1, "results": [{"adult": false, "backdrop_path": "/kiWvoV78Cc3fUwkOHKzyBgVdrDD.jpg", "genre_ids": [37, 18, 12], "id": 281957, "original_language": "en", "original_title": "The Revenant", "overview": "In the 1820s, a frontiersman, Hugh Glass, sets out on a path of vengeance against those who left him for dead after a bear mauling.", "poster_path": "/oXUWEc5i3wYyFnL1Ycu8ppxxPvs.jpg", "release_date": "2015-12-25", "title": "The Revenant", "video": false, "vote_average": 7.5, "vote_count": 12127, "popularity": 24.135}, {"id": 244316, "video": false, "vote_count": 139, "vote_average": 5.3, "title": "Into the Grizzly Maze", "release_date": "2015-02-27", "original_language": "en", "original_title": "Into the Grizzly Maze", "genre_ids": [28, 27, 53], "backdrop_path": "/tVor3y29g0JmYU5xFf7WTPsZnAN.jpg", "adult": false, "overview": "Two estranged brothers reunite at their childhood home in the Alaskan wild. They set out on a two-day hike and are stalked by an unrelenting grizzly bear.", "poster_path": "/lsaKo0RL7zblIroei96vLB1ChCP.jpg", "popularity": 8.57}, {"id": 9433, "video": false, "vote_count": 620, "vote_average": 6.7, "title": "The Edge", "release_date": "1997-09-06", "original_language": "en", "original_title": "The Edge", "genre_ids": [28, 12, 18], "backdrop_path": "/sraEMMM67zLqpZrz6vtrgwTqXgz.jpg", "adult": false, "overview": "The plane carrying wealthy Charles Morse crashes down in the Alaskan wilderness. Together with the two other passengers, photographer Robert and assistant Stephen, Charles devises a plan to help them reach civilization. However, his biggest obstacle might not be the elements, or even the Kodiak bear stalking them -- it could be Robert, whom Charles suspects is having an affair with his wife and would not mind seeing him dead.", "poster_path": "/fvokkKZuhMosdpABHduMdOdIDkp.jpg", "popularity": 12.295}, {"adult": false, "backdrop_path": "/33zf3AIzCqHtOC5aCMUUVo66lpc.jpg", "genre_ids": [12, 18], "id": 14280, "original_language": "en", "original_title": "Never Cry Wolf", "overview": "This film dramatizes the true story of Farley Mowat, when he was sent to the Canadian tundra area to collect evidence of the grievous harm the wolf population was allegedly doing to the caribou herds. In his struggle to survive in that difficult environment he studies the wolves, and realizes that the old beliefs about wolves and their supposed threat are almost totally false. Furthermore, he learns that humans represent a far greater threat to the land, and also to the wolves, a species which plays an important role in the ecosystem of the north.", "poster_path": "/gl2ewbze5UAN3VPuewbzsJX9Sr9.jpg", "release_date": "1983-10-07", "title": "Never Cry Wolf", "video": false, "vote_average": 7.2, "vote_count": 60, "popularity": 8.917}, {"id": 399360, "video": false, "vote_count": 1362, "vote_average": 6.0, "title": "Alpha", "release_date": "2018-08-17", "original_language": "en", "original_title": "Alpha", "genre_ids": [12, 18], "backdrop_path": "/nKMeTdm72LQ756Eq20uTjF1zDXu.jpg", "adult": false, "overview": "In the prehistoric past, Keda, a young and inexperienced hunter, struggles to return home after being separated from his tribe when bison hunting goes awry. On his way back he will find an unexpected ally.", "poster_path": "/afdZAIcAQscziqVtsEoh2PwsYTW.jpg", "popularity": 14.7}, {"adult": false, "backdrop_path": "/ojGHJCgkjGuNQw77dvkZMmuCJn8.jpg", "genre_ids": [12, 18, 53], "id": 428446, "original_language": "en", "original_title": "Walking Out", "overview": "A city teen travels to Montana to go hunting with his estranged father, only for the strained trip to become a battle for survival when they encounter a grizzly bear", "poster_path": "/wK3l4ZfcRXFph6uop7yr7scM2SP.jpg", "release_date": "2017-01-21", "title": "Walking Out", "video": false, "vote_average": 5.9, "vote_count": 77, "popularity": 7.922}, {"id": 46845, "video": false, "vote_count": 52, "vote_average": 6.3, "title": "Man in the Wilderness", "release_date": "1971-11-24", "original_language": "en", "original_title": "Man in the Wilderness", "genre_ids": [12, 18, 37], "backdrop_path": "/rRpgJh4aC2emNuARy0WGdzckgPi.jpg", "adult": false, "overview": "In the early 1800s, a group of fur trappers and Indian traders are returning with their goods to civilization and are making a desperate attempt to beat the oncoming winter. When guide Zachary Bass is injured in a bear attack, they decide he's a goner and leave him behind to die. When he recovers instead, he swears revenge on them and tracks them and their paranoiac expedition leader down.", "poster_path": "/qjWXZKsjDieaOFmGc5rP4hy8Fi6.jpg", "popularity": 5.906}, {"id": 5915, "video": false, "vote_count": 6283, "vote_average": 7.8, "title": "Into the Wild", "release_date": "2007-09-11", "original_language": "en", "original_title": "Into the Wild", "genre_ids": [12, 18], "backdrop_path": "/9yJehIjvR7ULOLxeDJoth4kDDNe.jpg", "adult": false, "overview": "After graduating from Emory University in 1992, top student and athlete Christopher McCandless abandons his possessions, gives his entire $24,000 savings account to charity, and hitchhikes to Alaska to live in the wilderness.", "poster_path": "/lHyYgaocXR6KcJLxVmxZDj115hH.jpg", "popularity": 13.103}, {"id": 278927, "video": false, "vote_count": 5705, "vote_average": 6.8, "title": "The Jungle Book", "release_date": "2016-04-07", "original_language": "en", "original_title": "The Jungle Book", "genre_ids": [12, 18, 14, 10751], "backdrop_path": "/eIOTsGg9FCVrBc4r2nXaV61JF4F.jpg", "adult": false, "overview": "A man-cub named Mowgli fostered by wolves. After a threat from the tiger Shere Khan, Mowgli is forced to flee the jungle, by which he embarks on a journey of self discovery with the help of the panther, Bagheera and the free-spirited bear, Baloo.", "poster_path": "/vOipe2myi26UDwP978hsYOrnUWC.jpg", "popularity": 36.281}, {"id": 407436, "video": false, "vote_count": 1626, "vote_average": 6.6, "title": "Mowgli: Legend of the Jungle", "release_date": "2018-11-25", "original_language": "en", "original_title": "Mowgli: Legend of the Jungle", "genre_ids": [12, 18], "backdrop_path": "/pApaVlxJCp2o4mrzCAD3AaLjq77.jpg", "adult": false, "overview": "A human child raised by wolves, must face off against a menacing tiger named Shere Khan, as well as his own origins.", "poster_path": "/clRnzMsFoMIdC7I5JsG6dnnHH8l.jpg", "popularity": 16.869}, {"adult": false, "backdrop_path": "/fkxHaPJaB35wnoUC7glF16W3lWH.jpg", "genre_ids": [16, 12, 10751], "id": 21032, "original_language": "en", "original_title": "Balto", "overview": "An outcast half-wolf risks his life to prevent a deadly epidemic from ravaging Nome, Alaska.", "poster_path": "/gV5PCAVCPNxlOLFM1bKk50EqLXO.jpg", "release_date": "1995-12-22", "title": "Balto", "video": false, "vote_average": 7.3, "vote_count": 1190, "popularity": 18.002}, {"id": 10009, "video": false, "vote_count": 3246, "vote_average": 7.2, "title": "Brother Bear", "release_date": "2003-10-23", "original_language": "en", "original_title": "Brother Bear", "genre_ids": [12, 16, 10751], "backdrop_path": "/mDgZ8aLCrH4NcUJIvF0W5B8qa4G.jpg", "adult": false, "overview": "When an impulsive boy named Kenai is magically transformed into a bear, he must literally walk in another's footsteps until he learns some valuable life lessons. His courageous and often zany journey introduces him to a forest full of wildlife, including the lovable bear cub Koda, hilarious moose Rutt and Tuke, woolly mammoths and rambunctious rams.", "poster_path": "/otptPbEY0vBostmo95xwiiumMJm.jpg", "popularity": 19.159}, {"id": 7484, "video": false, "vote_count": 1587, "vote_average": 6.1, "title": "Open Season", "release_date": "2006-09-29", "original_language": "en", "original_title": "Open Season", "genre_ids": [12, 16, 35], "backdrop_path": "/7bmzhqOJ9TGXUU5d4pqYUWl3YZ8.jpg", "adult": false, "overview": "Boog, a domesticated 900lb. Grizzly bear finds himself stranded in the woods 3 days before Open Season. Forced to rely on Elliot, a fast-talking mule deer, the two form an unlikely friendship and must quickly rally other forest animals if they are to form a rag-tag army against the hunters.", "poster_path": "/9TY3wQPNhZ60Mng0JetKEOfXqxU.jpg", "popularity": 21.169}, {"id": 214314, "video": false, "vote_count": 94, "vote_average": 7.3, "title": "Bears", "release_date": "2014-04-17", "original_language": "en", "original_title": "Bears", "genre_ids": [99], "backdrop_path": "/wA8Dct9suP3tZWH1nv7ikQThvD2.jpg", "adult": false, "overview": "Filmmakers Alastair Fothergill and Keith Scholey chronicle a year in the lives of an Alaskan brown bear named Sky and her cubs, Scout and Amber. Their saga begins as the bears emerge from hibernation at the end of winter. As time passes, the bear family must work together to find food and stay safe from other predators, especially other bears. Although their world is exciting, it is also risky, and the cubs' survival hinges on family togetherness.", "poster_path": "/uhxE8FLguSshnlv41lKRvZYZ4av.jpg", "popularity": 10.303}, {"id": 9325, "video": false, "vote_count": 3976, "vote_average": 7.3, "title": "The Jungle Book", "release_date": "1967-10-17", "original_language": "en", "original_title": "The Jungle Book", "genre_ids": [12, 16, 10751], "backdrop_path": "/pfSLaXhojt0cNU6lWRGxvbQ2HWi.jpg", "adult": false, "overview": "The boy Mowgli makes his way to the man-village with Bagheera, the wise panther. Along the way he meets jazzy King Louie, the hypnotic snake Kaa and the lovable, happy-go-lucky bear Baloo, who teaches Mowgli \"The Bare Necessities\" of life and the true meaning of friendship.", "poster_path": "/9YP99QP4D64RKEUs9slPnBWG5lN.jpg", "popularity": 27.523}, {"id": 395841, "video": false, "vote_count": 507, "vote_average": 5.2, "title": "Hold the Dark", "release_date": "2018-09-22", "original_language": "en", "original_title": "Hold the Dark", "genre_ids": [80, 9648, 53], "backdrop_path": "/ejcwWvDNRSATxEuRNEjK01seIem.jpg", "adult": false, "overview": "In the grim Alaskan winter, a naturalist hunts for wolves blamed for killing a local boy, but he soon finds himself swept into a chilling mystery.", "poster_path": "/1etEySwZQnBJpzgplgadPi5y4PL.jpg", "popularity": 12.176}, {"id": 286217, "video": false, "vote_count": 13234, "vote_average": 7.7, "title": "The Martian", "release_date": "2015-09-30", "original_language": "en", "original_title": "The Martian", "genre_ids": [12, 18, 878], "backdrop_path": "/sy3e2e4JwdAtd2oZGA2uUilZe8j.jpg", "adult": false, "overview": "During a manned mission to Mars, Astronaut Mark Watney is presumed dead after a fierce storm and left behind by his crew. But Watney has survived and finds himself stranded and alone on the hostile planet. With only meager supplies, he must draw upon his ingenuity, wit and spirit to subsist and find a way to signal to Earth that he is alive.", "poster_path": "/5aGhaIHYuQbqlHWvWYqMCnj40y2.jpg", "popularity": 45.972}, {"id": 27022, "video": false, "vote_count": 3219, "vote_average": 6.0, "title": "The Sorcerer's Apprentice", "release_date": "2010-07-13", "original_language": "en", "original_title": "The Sorcerer's Apprentice", "genre_ids": [28, 12, 35, 18, 14], "backdrop_path": "/v0o9M1us65w1kDQp8Q6KnB5a11s.jpg", "adult": false, "overview": "Balthazar Blake is a master sorcerer in modern-day Manhattan trying to defend the city from his arch-nemesis, Maxim Horvath. Balthazar can't do it alone, so he recruits Dave Stutler, a seemingly average guy who demonstrates hidden potential, as his reluctant prot\u00e9g\u00e9. The sorcerer gives his unwilling accomplice a crash course in the art and science of magic, and together, these unlikely partners work to stop the forces of darkness.", "poster_path": "/ZNSrRpdJ6FjMy4Iu6JpRTJ5Q87.jpg", "popularity": 24.096}, {"id": 9693, "video": false, "vote_count": 4056, "vote_average": 7.6, "title": "Children of Men", "release_date": "2006-09-22", "original_language": "en", "original_title": "Children of Men", "genre_ids": [28, 18, 878, 53], "backdrop_path": "/c5jNuPA19oGiEmbh8iFeAi6aHMI.jpg", "adult": false, "overview": "In 2027, in a chaotic world in which humans can no longer procreate, a former activist agrees to help transport a miraculously pregnant woman to a sanctuary at sea, where her child's birth may help scientists save the future of humankind.", "poster_path": "/gZ6i32Da76EUxta06GL2BxpC4Cn.jpg", "popularity": 18.249}, {"id": 106, "video": false, "vote_count": 4130, "vote_average": 7.4, "title": "Predator", "release_date": "1987-06-12", "original_language": "en", "original_title": "Predator", "genre_ids": [28, 12, 878, 53], "backdrop_path": "/vvsQe0ksUH001rxFGrnZkL9eBzr.jpg", "adult": false, "overview": "Dutch and his group of commandos are hired by the CIA to rescue downed airmen from guerillas in a Central American jungle. The mission goes well but as they return they find that something is hunting them. Nearly invisible, it blends in with the forest, taking trophies from the bodies of its victims as it goes along. Occasionally seeing through its eyes, the audience sees it is an intelligent alien hunter, hunting them for sport, killing them off one at a time.", "poster_path": "/gUpto7r2XwoM5eW7MUvd8hl1etB.jpg", "popularity": 28.364}], "total_pages": 40, "total_results": 782}, "recommendations": {"page": 1, "results": [], "total_pages": 1, "total_results": 0}, "credits": {"cast": [{"cast_id": 1, "character": "Blackie", "credit_id": "52fe4da69251416c7513c1e5", "gender": 2, "id": 2884, "name": "Darren Dalton", "order": 0, "profile_path": "/ilvaY9lSWPWMPXxRmrDBTl3xbWm.jpg"}, {"cast_id": 2, "character": "King", "credit_id": "52fe4da69251416c7513c1e9", "gender": 2, "id": 40568, "name": "Raimund Harmstorf", "order": 1, "profile_path": "/3lT1N62WLSrDn2sr7N4nLdrMnht.jpg"}, {"cast_id": 3, "character": "Larry", "credit_id": "52fe4da69251416c7513c1ed", "gender": 2, "id": 60433, "name": "Ben Cardinal", "order": 2, "profile_path": null}, {"cast_id": 7, "character": "Connors", "credit_id": "546e31c59251415ffb000042", "gender": 2, "id": 55571, "name": "John Furey", "order": 3, "profile_path": "/dttETPmEg7mt39T9URx19IedPLD.jpg"}, {"cast_id": 8, "character": "Barbara (as Kristen Hocking)", "credit_id": "546e31d8c3a368452e000047", "gender": 1, "id": 18475, "name": "Kristen Dalton", "order": 4, "profile_path": "/hJE14DbGUWXVQHUxdIClpEcUfFo.jpg"}], "crew": [{"credit_id": "52fe4da69251416c7513c1f3", "department": "Directing", "gender": 2, "id": 102627, "job": "Director", "name": "Steve Carver", "profile_path": "/mQj6GGZ9s4IGh4qWUjCJBbFar1v.jpg"}, {"credit_id": "546e31919251415ffb00003e", "department": "Writing", "gender": 0, "id": 81271, "job": "Writer", "name": "Stephen Peters", "profile_path": null}, {"credit_id": "546e319c9251415ff3000053", "department": "Writing", "gender": 2, "id": 12737, "job": "Writer", "name": "Artur Brauner", "profile_path": "/uW5tXwzaAji5DYUonEBSDuEcsip.jpg"}]}}