{"adult": false, "backdrop_path": "/1wTD2Nel54XOgKHnGpuMzPch7Wk.jpg", "belongs_to_collection": null, "budget": 1250000, "genres": [{"id": 28, "name": "Action"}, {"id": 18, "name": "Drama"}, {"id": 53, "name": "Thriller"}], "homepage": null, "id": 220798, "imdb_id": "tt1587436", "original_language": "ru", "original_title": "Crosshairs", "overview": "Hired to enact revenge on a man who savagely beat a beautiful Russian d\u00e9butant, Jack Verlaine is pressed between his newly acquired job and a persistent man named, Brill, who offers him a chance to advance higher in his seedy career. But when an estranged lover reappears in Verlaine's regimented existence, he soon realizes the new elements in his life may be just a plot to uncover his true identity.", "popularity": 0.84, "poster_path": "/sfXbqx2To8P3Sl3GYjdnm2e1qZe.jpg", "production_companies": [{"id": 21333, "logo_path": null, "name": "Burbank Movie Company", "origin_country": ""}], "production_countries": [], "release_date": "2013-05-13", "revenue": 0, "runtime": null, "spoken_languages": [], "status": "Released", "tagline": "To kill is easy. To live is difficult.", "title": "Crosshairs", "video": false, "vote_average": 3.8, "vote_count": 3, "keywords": {"keywords": [{"id": 782, "name": "assassin"}, {"id": 2708, "name": "hitman"}, {"id": 10410, "name": "conspiracy"}, {"id": 13059, "name": "prostitution"}, {"id": 199723, "name": "sex trade"}]}, "similar": {"page": 1, "results": [{"adult": false, "backdrop_path": "/8nvayG5l0urcjvvpszoECDqLWzD.jpg", "genre_ids": [18, 53, 80, 9648], "id": 186, "original_language": "en", "original_title": "Lucky Number Slevin", "overview": "Slevin is mistakenly put in the middle of a personal war between the city\u2019s biggest criminal bosses. Under constant watch, Slevin must try not to get killed by an infamous assassin and come up with an idea of how to get out of his current dilemma. A film with many twists and turns.", "poster_path": "/jtKq0EtothAzWlnRBBWGCA8uFuu.jpg", "release_date": "2006-02-24", "title": "Lucky Number Slevin", "video": false, "vote_average": 7.5, "vote_count": 2480, "popularity": 14.28}, {"id": 101, "video": false, "vote_count": 8647, "vote_average": 8.3, "title": "L\u00e9on: The Professional", "release_date": "1994-09-14", "original_language": "en", "original_title": "L\u00e9on: The Professional", "genre_ids": [28, 80, 18], "backdrop_path": "/dXQ7HILRK1Tg33RT64JwbQI7Osh.jpg", "adult": false, "overview": "L\u00e9on, the top hit man in New York, has earned a rep as an effective \"cleaner\". But when his next-door neighbors are wiped out by a loose-cannon DEA agent, he becomes the unwilling custodian of 12-year-old Mathilda. Before long, Mathilda's thoughts turn to revenge, and she considers following in L\u00e9on's footsteps.", "poster_path": "/gE8S02QUOhVnAmYu4tcrBlMTujz.jpg", "popularity": 41.351}, {"id": 12201, "video": false, "vote_count": 882, "vote_average": 6.3, "title": "Edge of Darkness", "release_date": "2010-01-28", "original_language": "en", "original_title": "Edge of Darkness", "genre_ids": [80, 18, 9648, 53], "backdrop_path": "/ksxr95M6fh2f2zgIlgGDDyfgOhC.jpg", "adult": false, "overview": "As a seasoned homicide detective, Thomas Craven has seen the bleakest side of humanity. But nothing prepares him for the toughest investigation of his life: the search for his only daughter Emma's killer. Now, he is on a personal mission to uncover the disturbing secrets surrounding her murder, including corporate corruption, government collusion and Emma's own mysterious life.", "poster_path": "/pvHjp1vEFmp5FquSCPQ2O95tIZJ.jpg", "popularity": 11.857}, {"adult": false, "backdrop_path": "/gGApniZQyEnUTSPzCqqheYhB18f.jpg", "genre_ids": [53, 18], "id": 16995, "original_language": "en", "original_title": "State of Play", "overview": "Handsome, unflappable U.S. Congressman Stephen Collins is the future of his political party: an honorable appointee who serves as the chairman of a committee overseeing defense spending. All eyes are upon the rising star to be his party's contender for the upcoming presidential race. Until his research assistant/mistress is brutally murdered and buried secrets come tumbling out.", "poster_path": "/lH5rHsUM7Umo9xyyjPguK5kTXKd.jpg", "release_date": "2009-04-17", "title": "State of Play", "video": false, "vote_average": 6.8, "vote_count": 956, "popularity": 17.093}, {"adult": false, "backdrop_path": "/neSLpxwG5TWNzCPDUIZ9kbl2bOL.jpg", "genre_ids": [18, 53, 80], "id": 4836, "original_language": "en", "original_title": "Layer Cake", "overview": "When a seemingly straight-forward drug deal goes awry, XXXX has to break his die-hard rules and turn up the heat, not only to outwit the old regime and come out on top, but to save his own skin...", "poster_path": "/y6BzUkrx789OhVMDXZiBBVHu6OQ.jpg", "release_date": "2004-09-30", "title": "Layer Cake", "video": false, "vote_average": 7.0, "vote_count": 1028, "popularity": 19.131}, {"id": 13184, "video": false, "vote_count": 599, "vote_average": 5.1, "title": "Bangkok Dangerous", "release_date": "2008-08-21", "original_language": "en", "original_title": "Bangkok Dangerous", "genre_ids": [28, 80, 53], "backdrop_path": "/lBVtKWWXH46r7oMLdfT3quioaVb.jpg", "adult": false, "overview": "When carrying out a hit, assassin Joe (Cage) always makes use of the knowledge of the local population. On arriving in Bangkok, Joe meets street kid Kong and he becomes his primary aide. But when Kong is nearly killed, he asks Joe to train him up in the deadly arts and unwittingly becomes a target of a band of killers.", "poster_path": "/eyHn8A0lze1pbCNxv0UsATBOmyv.jpg", "popularity": 10.287}, {"id": 9331, "video": false, "vote_count": 730, "vote_average": 6.6, "title": "Clear and Present Danger", "release_date": "1994-08-03", "original_language": "en", "original_title": "Clear and Present Danger", "genre_ids": [28, 18, 53], "backdrop_path": "/dxzko1cqui9Scowo53u6lJuEhug.jpg", "adult": false, "overview": "CIA Analyst Jack Ryan is drawn into an illegal war fought by the US government against a Colombian drug cartel.", "poster_path": "/avRDucB3FLf1Xz5532hbOYd1giX.jpg", "popularity": 18.792}, {"adult": false, "backdrop_path": "/kSTvteM3ekuoeO7u7GJtZQkZuom.jpg", "genre_ids": [28, 53, 80], "id": 1948, "original_language": "en", "original_title": "Crank", "overview": "Professional assassin Chev Chelios learns his rival has injected him with a poison that will kill him if his heart rate drops.", "poster_path": "/6RnD3Zfh0tO0cD2vroWyH0F98Ej.jpg", "release_date": "2006-08-31", "title": "Crank", "video": false, "vote_average": 6.6, "vote_count": 2121, "popularity": 21.613}, {"adult": false, "backdrop_path": "/fLMv873bBAvrCtzeAbRVjb4Mi9Y.jpg", "genre_ids": [28, 53, 80], "id": 27582, "original_language": "en", "original_title": "The Mechanic", "overview": "Arthur Bishop is a 'mechanic' - an elite assassin with a strict code and unique talent for cleanly eliminating targets. It's a job that requires professional perfection and total detachment, and Bishop is the best in the business. But when he is ordered to take out his mentor and close friend Harry, Bishop is anything but detached.", "poster_path": "/eScKoGnjaUvGD2OkK3DImyzfVkt.jpg", "release_date": "2011-01-13", "title": "The Mechanic", "video": false, "vote_average": 6.3, "vote_count": 1857, "popularity": 20.52}, {"id": 75780, "video": false, "vote_count": 4451, "vote_average": 6.4, "title": "Jack Reacher", "release_date": "2012-12-20", "original_language": "en", "original_title": "Jack Reacher", "genre_ids": [28, 80, 18, 53], "backdrop_path": "/ezXodpP429qK0Av89pVNlaXWJkQ.jpg", "adult": false, "overview": "When a gunman takes five lives with six shots, all evidence points to the suspect in custody. On interrogation, the suspect offers up a single note: \"Get Jack Reacher!\" So begins an extraordinary chase for the truth, pitting Jack Reacher against an unexpected enemy, with a skill for violence and a secret to keep.", "poster_path": "/mt0ELw83HIRgaKaDzhsDcIi0RnW.jpg", "popularity": 15.945}, {"adult": false, "backdrop_path": "/2f8fkWSWOVcTlWforoVpsuaCiwI.jpg", "genre_ids": [53, 28], "id": 449985, "original_language": "en", "original_title": "Triple Threat", "overview": "A crime syndicate places a hit on a billionaire's daughter, making her the target of an elite assassin squad. A small band of down-and-out mercenaries protects her, fighting tooth and nail to stop the assassins from reaching their target.", "poster_path": "/cSpM3QxmoSLp4O1WAMQpUDcaB7R.jpg", "release_date": "2019-03-19", "title": "Triple Threat", "video": false, "vote_average": 5.5, "vote_count": 146, "popularity": 14.986}, {"id": 4638, "video": false, "vote_count": 4429, "vote_average": 7.5, "title": "Hot Fuzz", "release_date": "2007-02-14", "original_language": "en", "original_title": "Hot Fuzz", "genre_ids": [28, 35, 80], "backdrop_path": "/zuskekrfW3gj9ttXNVhfdHe5n22.jpg", "adult": false, "overview": "As a former London constable, Nicholas Angel finds it difficult to adapt to his new assignment in the sleepy British village of Sandford. Not only does he miss the excitement of the big city, but he also has a well-meaning oaf for a partner. However, when a series of grisly accidents rocks Sandford, Angel smells something rotten in the idyllic village.", "poster_path": "/5Jx6s6VXnunh8wCLgR0YgjwSgjh.jpg", "popularity": 22.387}, {"adult": false, "backdrop_path": "/39iGTAyo60mk3KcMay2yYcLsUyP.jpg", "genre_ids": [53], "id": 11644, "original_language": "en", "original_title": "Blow Out", "overview": "Jack Terry is a master sound recordist who works on grade-B horror movies. Late one evening, he is recording sounds for use in his movies when he hears something unexpected through his sound equipment and records it. Curiosity gets the better of him when the media become involved, and he begins to unravel the pieces of a nefarious conspiracy. As he struggles to survive against his shadowy enemies and expose the truth, he does not know whom he can trust.", "poster_path": "/vt5d1gGPgkAKoKp127WPHjSJF3P.jpg", "release_date": "1981-07-24", "title": "Blow Out", "video": false, "vote_average": 7.4, "vote_count": 579, "popularity": 12.416}, {"adult": false, "backdrop_path": "/rSf0RYkPiMo9TyjHs2vI8rHlmfF.jpg", "genre_ids": [28, 18, 53], "id": 241554, "original_language": "en", "original_title": "Run All Night", "overview": "Brooklyn mobster and prolific hit man Jimmy Conlon has seen better days. Longtime best friend of a mob boss, Jimmy is haunted by the sins of his past\u2014as well as a dogged police detective who\u2019s been one step behind Jimmy for 30 years. But when Jimmy\u2019s estranged son becomes a target, Jimmy must make a choice between the crime family he chose and the real family he abandoned long ago. Now, with nowhere safe to turn, Jimmy has just one night to figure out exactly where his loyalties lie and to see if he can finally make things right.", "poster_path": "/aqNJrAxudMRNo8jg3HOUQqdl2xr.jpg", "release_date": "2015-03-11", "title": "Run All Night", "video": false, "vote_average": 6.4, "vote_count": 1821, "popularity": 23.621}, {"id": 245891, "video": false, "vote_count": 11535, "vote_average": 7.2, "title": "John Wick", "release_date": "2014-10-22", "original_language": "en", "original_title": "John Wick", "genre_ids": [28, 53], "backdrop_path": "/iJlGxN0p1suzloBGvvBu3QSSlhT.jpg", "adult": false, "overview": "Ex-hitman John Wick comes out of retirement to track down the gangsters that took everything from him.", "poster_path": "/5vHssUeVe25bMrof1HyaPyWgaP.jpg", "popularity": 63.785}, {"id": 274855, "video": false, "vote_count": 2498, "vote_average": 5.8, "title": "Geostorm", "release_date": "2017-10-13", "original_language": "en", "original_title": "Geostorm", "genre_ids": [28, 878, 53], "backdrop_path": "/79X8JkGxzc1tJMi0KxUSaPLooVg.jpg", "adult": false, "overview": "After an unprecedented series of natural disasters threatened the planet, the world's leaders came together to create an intricate network of satellites to control the global climate and keep everyone safe. But now, something has gone wrong: the system built to protect Earth is attacking it, and it becomes a race against the clock to uncover the real threat before a worldwide geostorm wipes out everything and everyone along with it.", "poster_path": "/nrsx0jEaBgXq4PWo7SooSnYJTv.jpg", "popularity": 22.466}, {"id": 266396, "video": false, "vote_count": 629, "vote_average": 5.7, "title": "The Gunman", "release_date": "2015-02-16", "original_language": "en", "original_title": "The Gunman", "genre_ids": [28, 80, 18], "backdrop_path": "/jVU1bRNcXCfX9LC8pj9Hp9McN7x.jpg", "adult": false, "overview": "Eight years after fleeing the Congo following his assassination of that country's minister of mining, former assassin Jim Terrier is back, suffering from PTSD and digging wells to atone for his violent past. After an attempt is made on his life, Terrier flies to London to find out who wants him dead -- and why. Terrier's search leads him to a reunion with Annie, a woman he once loved, who is now married to an oily businessman with dealings in Africa.", "poster_path": "/lnUozDnDANTsDYEdsNsHC6b8IiS.jpg", "popularity": 9.884}, {"id": 72559, "video": false, "vote_count": 4091, "vote_average": 5.5, "title": "G.I. Joe: Retaliation", "release_date": "2013-03-26", "original_language": "en", "original_title": "G.I. Joe: Retaliation", "genre_ids": [28, 12, 878, 53], "backdrop_path": "/b9OVFl48ZV2oTLzACSwBpNrCUhJ.jpg", "adult": false, "overview": "Framed for crimes against the country, the G.I. Joe team is terminated by Presidential order. This forces the G.I. Joes into not only fighting their mortal enemy Cobra; they are forced to contend with threats from within the government that jeopardize their very existence.", "poster_path": "/iFWxbu2LLtfaWv6D1TSrY11huTe.jpg", "popularity": 23.132}, {"adult": false, "backdrop_path": "/6wBfey6EVR5qxYLB8pxoTVQYWkS.jpg", "genre_ids": [28, 80, 18, 53], "id": 1620, "original_language": "en", "original_title": "Hitman", "overview": "The best-selling videogame, Hitman, roars to life with both barrels blazing in this hardcore action-thriller starring Timothy Olyphant. A genetically engineered assassin with deadly aim, known only as \"Agent 47\" eliminates strategic targets for a top-secret organization. But when he's double-crossed, the hunter becomes the prey as 47 finds himself in a life-or-death game of international intrigue.", "poster_path": "/1U2FpMotSyaciATw5qfEsKdgpX4.jpg", "release_date": "2007-11-21", "title": "Hitman", "video": false, "vote_average": 5.9, "vote_count": 1868, "popularity": 16.204}, {"id": 156022, "video": false, "vote_count": 5468, "vote_average": 7.2, "title": "The Equalizer", "release_date": "2014-09-24", "original_language": "en", "original_title": "The Equalizer", "genre_ids": [28, 80, 53], "backdrop_path": "/vbl4ZVqelrrzJ16fdDOq9siWbpi.jpg", "adult": false, "overview": "McCall believes he has put his mysterious past behind him and dedicated himself to beginning a new, quiet life. But when he meets Teri, a young girl under the control of ultra-violent Russian gangsters, he can\u2019t stand idly by \u2013 he has to help her. Armed with hidden skills that allow him to serve vengeance against anyone who would brutalize the helpless, McCall comes out of his self-imposed retirement and finds his desire for justice reawakened. If someone has a problem, if the odds are stacked against them, if they have nowhere else to turn, McCall will help. He is The Equalizer.", "poster_path": "/2eQfjqlvPAxd9aLDs8DvsKLnfed.jpg", "popularity": 39.578}], "total_pages": 244, "total_results": 4865}, "recommendations": {"page": 1, "results": [], "total_pages": 1, "total_results": 0}, "credits": {"cast": [{"cast_id": 3, "character": "Jimmy Marcos", "credit_id": "52fe4db79251416c7513e339", "gender": 2, "id": 3197, "name": "Tom Sizemore", "order": 0, "profile_path": "/soINOuacuiThRb2LyPD4tTWve7C.jpg"}, {"cast_id": 4, "character": "Brill", "credit_id": "52fe4db79251416c7513e33d", "gender": 2, "id": 6576, "name": "Mark Rolston", "order": 1, "profile_path": "/hcrNRIptYMRXgkJ9k76BlQu6DQp.jpg"}, {"cast_id": 5, "character": "Abe Frohman", "credit_id": "52fe4db79251416c7513e341", "gender": 2, "id": 76005, "name": "Jeffrey Vincent Parise", "order": 2, "profile_path": "/zblNX1E05s7TDwDUtDuPBKOLsRF.jpg"}, {"cast_id": 6, "character": "Jack Verlaine", "credit_id": "52fe4db79251416c7513e345", "gender": 2, "id": 1133679, "name": "Robert Seay", "order": 3, "profile_path": "/vovjnUCHHr1kXkkRBzWV08ZF4oe.jpg"}], "crew": [{"credit_id": "52fe4db79251416c7513e32f", "department": "Directing", "gender": 0, "id": 1205859, "job": "Director", "name": "Nick Lentz", "profile_path": null}, {"credit_id": "52fe4db79251416c7513e335", "department": "Writing", "gender": 0, "id": 1205860, "job": "Writer", "name": "Nick Lentz", "profile_path": null}]}}