{"adult": false, "backdrop_path": "/1fQRPGNMelgXV77xU3FYwN4soCG.jpg", "belongs_to_collection": null, "budget": 0, "genres": [{"id": 12, "name": "Adventure"}, {"id": 10751, "name": "Family"}], "homepage": null, "id": 221241, "imdb_id": "tt0065666", "original_language": "hr", "original_title": "Dru\u017eba Pere Kvr\u017eice", "overview": "A group of village boys found a comradeship under the leadership of the most intelligent amongst them - Pero Krv\u017eica. They decide to renovate the old and abandoned watermill on the outskirts of the village. A discord amongst the villages cause the mill to thenceforth remain unused. The owner of the steam mill benefits most from this situation. To make sure it stays closed, the corrupted steam mill owner is ready to bribe customers. Pero's comradeship does not want to give in under the pressure of corrupt villagers...", "popularity": 1.176, "poster_path": "/pE51SDJRZndqc7AnJRgXEsrEml6.jpg", "production_companies": [{"id": 16785, "logo_path": null, "name": "Croatia Film", "origin_country": "HR"}], "production_countries": [{"iso_3166_1": "HR", "name": "Croatia"}], "release_date": "1970-11-26", "revenue": 0, "runtime": 98, "spoken_languages": [{"iso_639_1": "hr", "name": "Hrvatski"}], "status": "Released", "tagline": "", "title": "Pero Kvrzica's Comradeship", "video": false, "vote_average": 7.2, "vote_count": 9, "keywords": {"keywords": [{"id": 417, "name": "corruption"}, {"id": 449, "name": "yugoslavia"}, {"id": 1248, "name": "croatia"}, {"id": 4402, "name": "peasant"}]}, "similar": {"page": 1, "results": [{"adult": false, "backdrop_path": "/lx9eC0e98ZrdU0y55LrydS8CMMp.jpg", "genre_ids": [28, 12, 80, 18, 9648, 53], "id": 9631, "original_language": "en", "original_title": "The Negotiator", "overview": "The police try to arrest expert hostage negotiator Danny Roman, who insists he's being framed for his partner's murder in what he believes is an elaborate conspiracy. Thinking there's evidence in the Internal Affairs offices that might clear him, he takes everyone in the office hostage and demands that another well-known negotiator be brought in to handle the situation and secretly investigate the conspiracy.", "poster_path": "/u4LQDr6QB5i7dz3sMuP8u3EOd3D.jpg", "release_date": "1998-07-29", "title": "The Negotiator", "video": false, "vote_average": 7.0, "vote_count": 1082, "popularity": 18.49}, {"id": 49049, "video": false, "vote_count": 3047, "vote_average": 6.7, "title": "Dredd", "release_date": "2012-09-07", "original_language": "en", "original_title": "Dredd", "genre_ids": [28, 878], "backdrop_path": "/kqKcID44nGtIxhhzmziAX65abRx.jpg", "adult": false, "overview": "In the future, America is a dystopian wasteland. The latest scourge is Ma-Ma, a prostitute-turned-drug pusher with a dangerous new drug and aims to take over the city. The only possibility of stopping her is an elite group of urban police called Judges, who combine the duties of judge, jury and executioner to deliver a brutal brand of swift justice. But even the top-ranking Judge, Dredd, discovers that taking down Ma-Ma isn\u2019t as easy as it seems in this explosive adaptation of the hugely popular comic series.", "poster_path": "/71fkYuMVMtdbREh9Mp3gTFmI8Bv.jpg", "popularity": 25.293}, {"id": 193893, "video": false, "vote_count": 1816, "vote_average": 6.3, "title": "Let's Be Cops", "release_date": "2014-08-13", "original_language": "en", "original_title": "Let's Be Cops", "genre_ids": [35], "backdrop_path": "/43GrPpAeBUOvOCZ8L1A3MLuDnkc.jpg", "adult": false, "overview": "It's the ultimate buddy cop movie except for one thing: they're not cops.  When two struggling pals dress as police officers for a costume party, they become neighborhood sensations.  But when these newly-minted \u201cheroes\u201d get tangled in a real life web of mobsters and dirty detectives, they must put their fake badges on the line.", "poster_path": "/ayYibwWAA9NxJPaD9GSybPShtvL.jpg", "popularity": 21.654}, {"adult": false, "backdrop_path": "/t4DO37tO3mhMX4DCdnI1EPsRi26.jpg", "genre_ids": [80, 18, 9648], "id": 3580, "original_language": "en", "original_title": "Changeling", "overview": "Christine Collins is overjoyed when her kidnapped son is brought back home. But when Christine suspects that the boy returned to her isn't her child, the police captain has her committed to an asylum.", "poster_path": "/qtte2n6ygA1zVG5kLrjUGui28TJ.jpg", "release_date": "2008-01-30", "title": "Changeling", "video": false, "vote_average": 7.5, "vote_count": 2322, "popularity": 19.918}, {"adult": false, "backdrop_path": "/pyopmpNMW3mTBz0ZqInyGYDEgb6.jpg", "genre_ids": [18, 53], "id": 11062, "original_language": "en", "original_title": "City Hall", "overview": "The accidental shooting of a boy in New York leads to an investigation by the Deputy Mayor, and unexpectedly far-reaching consequences.", "poster_path": "/ttdjD9NpxXsTJidPT3o1Gk0oTkG.jpg", "release_date": "1996-02-16", "title": "City Hall", "video": false, "vote_average": 6.1, "vote_count": 123, "popularity": 8.487}, {"id": 4771, "video": false, "vote_count": 2134, "vote_average": 7.3, "title": "Gone Baby Gone", "release_date": "2007-09-18", "original_language": "en", "original_title": "Gone Baby Gone", "genre_ids": [80, 18, 9648], "backdrop_path": "/sogh5NXPbKFajjYKBlfIBfCWgbq.jpg", "adult": false, "overview": "When 4 year old Amanda McCready disappears from her home and the police make little headway in solving the case, the girl's aunt, Beatrice McCready hires two private detectives, Patrick Kenzie and Angie Gennaro. The detectives freely admit that they have little experience with this type of case, but the family wants them for two reasons - they're not cops and they know the tough neighborhood in which they all live. As the case progresses, Kenzie and Gennaro face drug dealers, gangs and pedophiles. When they are about to solve the case, they are faced with a moral dilemma that tears them apart.", "poster_path": "/dXXMPxGiRegd7NNCtE5uchAKRAG.jpg", "popularity": 16.498}, {"adult": false, "backdrop_path": "/uUYCUbgI5VxsUflTMI4Y9L2Y6vb.jpg", "genre_ids": [80, 18, 53], "id": 11423, "original_language": "ko", "original_title": "\uc0b4\uc778\uc758 \ucd94\uc5b5", "overview": "1986 Gyunggi Province. The body of a young woman is found brutally raped and murdered. Two months later, a series of rapes and murders commences under similar circumstances. And in a country that had never known such crimes, the dark whispers about a serial murderer grow louder. A special task force is set up in the area, with two local detectives Park Doo-Man and Jo Young-Goo joined by a detective from Seoul who requested to be assigned to the case.", "poster_path": "/gawnVe9cFowdoDLo9Pok12NTw39.jpg", "release_date": "2003-05-02", "title": "Memories of Murder", "video": false, "vote_average": 8.1, "vote_count": 1093, "popularity": 13.452}, {"id": 9040, "video": false, "vote_count": 914, "vote_average": 7.6, "title": "Serpico", "release_date": "1973-12-05", "original_language": "en", "original_title": "Serpico", "genre_ids": [80, 18, 36], "backdrop_path": "/6pHv9P9yNXvOAp6G9UU8W8wzeLR.jpg", "adult": false, "overview": "The real-life struggle of an honest New York City cop against a corrupt system.", "poster_path": "/dq3PTFp0lLlEa2TnJepEknU2Sys.jpg", "popularity": 16.71}, {"id": 500475, "video": false, "vote_count": 145, "vote_average": 6.4, "title": "SuperFly", "release_date": "2018-06-13", "original_language": "en", "original_title": "SuperFly", "genre_ids": [28, 80], "backdrop_path": "/jqoGbSNsl5aO3JzeoWEf6EDoncD.jpg", "adult": false, "overview": "Career criminal Youngblood Priest wants out of the Atlanta drug scene, but as he ramps up sales, one little slip up threatens to bring the whole operation down before he can make his exit.", "poster_path": "/gGk9H5PVpWzbsYkmnBeKevQkwwf.jpg", "popularity": 11.298}, {"adult": false, "backdrop_path": "/ltq1i8ienPm7OSdOXl3o8ROgmKc.jpg", "genre_ids": [28, 80, 18], "id": 2142, "original_language": "en", "original_title": "Cop Land", "overview": "Freddy Heflin is the sheriff of a place everyone calls \u201cCop Land\u201d \u2014 a small and seemingly peaceful town populated by the big city police officers he\u2019s long admired. Yet something ugly is taking place behind the town\u2019s peaceful facade. And when Freddy uncovers a massive, deadly conspiracy among these local residents, he is forced to take action and make a dangerous choice between protecting his idols and upholding the law.", "poster_path": "/th2UDVewgUAfIXFUaWGWWBxCM91.jpg", "release_date": "1997-08-15", "title": "Cop Land", "video": false, "vote_average": 6.7, "vote_count": 757, "popularity": 14.45}, {"id": 10877, "video": false, "vote_count": 221, "vote_average": 5.4, "title": "Exit Wounds", "release_date": "2001-03-13", "original_language": "en", "original_title": "Exit Wounds", "genre_ids": [28], "backdrop_path": "/s1ZQV9vuFiXG94UmT5KtJUtDCvW.jpg", "adult": false, "overview": "Maverick cop Orin Boyd always brings down the domestic terrorists he tracks, but he ruffles feathers with his unorthodox techniques -- and soon finds himself reassigned to the toughest district in Detroit. When he discovers a group of detectives secretly operating a drug ring, Boyd joins forces with an unlikely ally -- gangster Latrell Walker -- to bring down the rotten cops.", "poster_path": "/ioPpykV342e0zIuqbJxdOwcMZMS.jpg", "popularity": 8.909}, {"id": 1266, "video": false, "vote_count": 729, "vote_average": 6.5, "title": "Street Kings", "release_date": "2008-04-10", "original_language": "en", "original_title": "Street Kings", "genre_ids": [28, 80, 18, 53], "backdrop_path": "/vQL3dus5e8XtpAiJKFcI8YiITlV.jpg", "adult": false, "overview": "Tom Ludlow is a disillusioned L.A. Police Officer, rarely playing by the rules and haunted by the death of his wife. When evidence implicates him in the execution of a fellow officer, he is forced to go up against the cop culture he's been a part of his entire career, ultimately leading him to question the loyalties of everyone around him.", "poster_path": "/2h2mThLae2QZLprtovKXRBgMM1E.jpg", "popularity": 15.229}, {"adult": false, "backdrop_path": "/iNuvbrHGNtrUwlm48u4KnQhhMKp.jpg", "genre_ids": [80, 18, 53], "id": 26390, "original_language": "en", "original_title": "Brooklyn's Finest", "overview": "Enforcing the law within the notoriously rough Brownsville section of the city and especially within the Van Dyke housing projects is the NYPD's sixty-fifth precinct. Three police officers struggle with the sometimes fine line between right and wrong.", "poster_path": "/jKSBk0LtZgXxG56uvwiAtYf6ttF.jpg", "release_date": "2009-01-16", "title": "Brooklyn's Finest", "video": false, "vote_average": 6.4, "vote_count": 500, "popularity": 11.822}, {"adult": false, "backdrop_path": "/feZlULeOhSRLz23ZXUeDX3Dl2dS.jpg", "genre_ids": [80, 53, 9648], "id": 17494, "original_language": "en", "original_title": "Unlawful Entry", "overview": "After a break-in at their house, a couple gets help from one of the cops that answered their call. He helps them install the security system, and begins dropping by on short notice and unofficial patrol, and spends a lot of time discussing the couple's problems with the wife. The husband begins wondering if they're getting too much help.", "poster_path": "/sKUk1ca6gHaIopi8VqE8GoxJq6J.jpg", "release_date": "1992-06-26", "title": "Unlawful Entry", "video": false, "vote_average": 6.1, "vote_count": 121, "popularity": 10.241}, {"id": 12143, "video": false, "vote_count": 376, "vote_average": 7.2, "title": "Bad Lieutenant", "release_date": "1992-09-16", "original_language": "en", "original_title": "Bad Lieutenant", "genre_ids": [80], "backdrop_path": "/dzHZPetromOHkB2cNONgFjcuvuE.jpg", "adult": false, "overview": "While investigating a young nun's rape, a corrupt New York City police detective, with a serious drug and gambling addiction, tries to change his ways and find forgiveness.", "poster_path": "/oe8VjWCKXktqA19T1ZWtaSn8rc2.jpg", "popularity": 11.572}, {"id": 9873, "video": false, "vote_count": 166, "vote_average": 6.4, "title": "F/X", "release_date": "1986-02-07", "original_language": "en", "original_title": "F/X", "genre_ids": [28, 80, 53], "backdrop_path": "/t0u76RL3YlcfnWdRWgRudROqEkg.jpg", "adult": false, "overview": "A movies special effects man is hired by a government agency to help stage the assassination of a well known gangster. When the agency double cross him, he uses his special effects to trap the gangster and the corrupt agents.", "poster_path": "/6VAiIPBnIRPWXi70sxsHDn9rXA8.jpg", "popularity": 8.513}, {"adult": false, "backdrop_path": "/w46M9qW9KqOrhZPydTch6ta1RIH.jpg", "genre_ids": [28, 35], "id": 21521, "original_language": "cn", "original_title": "A\u8a08\u5283\u7e8c\u96c6", "overview": "Dragon is now transferred to be the police head of Sai Wan district, and has to contend with a gangster kingpin, anti-Manchu revolutionaries, some runaway pirates, Manchu Loyalists and a corrupt police superintendent.", "poster_path": "/36xWcRUXswUPnvm1tCO3IWO39Dz.jpg", "release_date": "1987-08-19", "title": "Project A 2", "video": false, "vote_average": 7.0, "vote_count": 97, "popularity": 10.453}, {"adult": false, "backdrop_path": "/qYMS388kesnlNJYqf7k37tHH2pZ.jpg", "genre_ids": [35, 80, 18], "id": 9085, "original_language": "en", "original_title": "Harlem Nights", "overview": "'Sugar' Ray is the owner of an illegal casino and must contend with the pressure of vicious gangsters and corrupt police who want to see him go out of business. In the world of organised crime and police corruption in the 1920s, any dastardly trick is fair.", "poster_path": "/PLr00Pv1DpQ3vMssBkjgAPS1Fy.jpg", "release_date": "1989-11-17", "title": "Harlem Nights", "video": false, "vote_average": 6.1, "vote_count": 165, "popularity": 11.122}, {"adult": false, "backdrop_path": "/u8YCDjufshSw6rpYOJNAchbzM1K.jpg", "genre_ids": [28, 18, 53], "id": 7007, "original_language": "en", "original_title": "Rising Sun", "overview": "When a prostitute is found dead in a Los Angeles skyscraper occupied by a large Japanese corporation, detectives John Conner and Web Smith are called in to investigate. Although Conner has previous experience working in Japan, cultural differences make their progress difficult until a security disc showing the murder turns up. Close scrutiny proves the disc has been doctored, and the detectives realize they're dealing with a cover-up as well.", "poster_path": "/d07rjd7e54ClVLoixmf6alTiDDj.jpg", "release_date": "1993-07-30", "title": "Rising Sun", "video": false, "vote_average": 6.1, "vote_count": 374, "popularity": 9.735}, {"id": 11028, "video": false, "vote_count": 92, "vote_average": 6.3, "title": "The Big Easy", "release_date": "1986-11-27", "original_language": "en", "original_title": "The Big Easy", "genre_ids": [28, 80, 18, 9648], "backdrop_path": "/8faVhusJPZqr5jvKc2K3M9sQgL3.jpg", "adult": false, "overview": "Remy McSwain is a New Orleans police lieutenant who investigates the murder of a local mobster. His investigation leads him to suspect that fellow members of the police force may be involved.", "poster_path": "/nD8sNuwcvd396E07uXAM2swi0Jo.jpg", "popularity": 7.081}], "total_pages": 5, "total_results": 92}, "recommendations": {"page": 1, "results": [{"adult": false, "backdrop_path": "/wFfHVwRVVtGr96eEsbgKhsVdwmt.jpg", "genre_ids": [12, 10751], "id": 38817, "original_language": "hr", "original_title": "Vlak u snijegu", "overview": "One class of school children from a small village make the trip to Zagreb. One of the boys gets sick and the class is forced to go home. During their journey the train gets stuck in a snowstorm.", "poster_path": "/y7VVn5oucGNCOseqodWd1dJFFds.jpg", "release_date": "1976-06-09", "title": "Train in the Snow", "video": false, "vote_average": 8.2, "vote_count": 9, "popularity": 1.743}, {"adult": false, "backdrop_path": "/bdewDVo8sI9AC3icROT8vY1Aaqu.jpg", "genre_ids": [18], "id": 226072, "original_language": "hr", "original_title": "Oprosti za kung fu", "overview": "Mirjana is returning to Croatia from Germany where she spent some time as a refugee. She is pregnant. Now, when the war in Croatia is over and her visa expired, Mirjana is coming back to her family in a remote and devastated village. Her family is trying to move on with their lives after the war. They rebuild their house and they are trying to find a new husband for their pregnant daughter. Being patriarchal and devoted to their tradition they believe a woman needs to have a husband and a child has to have a father. Of course, the child and the father have to be of the same nationality. Problems start when Mirjana gives a birth to a boy with Asian features. The family and the neighbors are shocked. Mirjana\u00a1\u00a6s rigid father refuses to accept a grandchild of a different nationality, not to mention the one of a different race! Mirjana and her son are forced to leave. She returns only when her father falls seriously ill and requests to see his grandson before he dies.", "poster_path": "/8YV2Pjf4mjXS5KNVBi1E0DPgAvw.jpg", "release_date": "2004-07-22", "title": "Sorry for Kung Fu", "video": false, "vote_average": 5.1, "vote_count": 4, "popularity": 1.55}, {"adult": false, "backdrop_path": "/dAibu5b95zu8N7aW670QbLRxUBV.jpg", "genre_ids": [878, 12, 10751], "id": 377385, "original_language": "hr", "original_title": "Tajna starog tavana", "overview": "During a summer holiday, two boys discover an anti-gravity cannon in an old attic.", "poster_path": "/y7WKgrQO83nTFDgmRBoEwktRLHp.jpg", "release_date": "1984-10-17", "title": "The Secret of an Old Attic", "video": false, "vote_average": 6.3, "vote_count": 3, "popularity": 1.295}, {"id": 259728, "video": false, "vote_count": 3, "vote_average": 7.3, "title": "Long Dark Night", "release_date": "2004-03-07", "original_language": "hr", "original_title": "Duga mra\u010dna no\u0107", "genre_ids": [18, 36, 10752], "backdrop_path": null, "adult": false, "overview": "\"Long Dark Night\" follows the life of the fictional character Iva Kolar: his experiences as a Croatian University student, his role as a Partisan fighting Hitler's troops during W.W. II, his involvement in his nation's post-war government, and his eventual downfall.", "poster_path": "/uyHbn00vhJtsqRRzU1YtGZFLEBP.jpg", "popularity": 1.252}, {"adult": false, "backdrop_path": null, "genre_ids": [35], "id": 125696, "original_language": "hr", "original_title": "Blagajnica ho\u0107e i\u0107i na more", "overview": "After being repeatedly denied her requests for a vacation by her sexist boss, a young woman finally explodes.", "poster_path": "/t5yZkO7BJ3BNwWprSmJfJuhIvYX.jpg", "release_date": "2001-11-13", "title": "The Cashier Wants to Go to the Seaside", "video": false, "vote_average": 5.3, "vote_count": 3, "popularity": 1.4}, {"adult": false, "backdrop_path": null, "genre_ids": [18, 35, 10749], "id": 319632, "original_language": "hr", "original_title": "\u0160to je mu\u0161karac bez brkova?", "overview": "A young widow, an aging widower-returnee, and a priest from a bankrupt parish are struggling to come to terms with the post-war environment, complete with its prejudices, illusions, and unpleasant mentality. What follows is a romantic comedy set in rough landscape, about a woman who falls in love with a local priest. He is not blind to her love, but is unable to choose between the church and her, until the circumstances force him to make his choice.", "poster_path": "/5ksFP3thsHbwTVxtp3xk8thhyd6.jpg", "release_date": "2005-07-23", "title": "What Is a Man without a Moustache?", "video": false, "vote_average": 7.2, "vote_count": 5, "popularity": 1.285}, {"adult": false, "backdrop_path": "/yAfKDSZsr6AibpWyCQPmxoUKNRy.jpg", "genre_ids": [35, 10752], "id": 40890, "original_language": "hr", "original_title": "Kako je po\u010deo rat na mom otoku", "overview": "At the beginning of 1991, Yugoslav army did not acknowledge Croatian's independence, and still holding few military barracks in Croatia. Gajski travels to an island to get his son out of the army. Locals have besieged the barracks and organized a festival to try with singing and recitals to get major Aleksa and his soldiers to surrender, but Aleksa has explosives thru the barracks and wants to blow up the island.", "poster_path": "/xkFyZ4G0bt4OGTrP2kJFM9QKnrz.jpg", "release_date": "1997-08-31", "title": "How the War Started on My Island", "video": false, "vote_average": 6.7, "vote_count": 9, "popularity": 1.4}, {"adult": false, "backdrop_path": "/1iqMNHPpuexa3xiFYffiQUuQkQM.jpg", "genre_ids": [35, 18, 10402], "id": 221244, "original_language": "hr", "original_title": "Tko pjeva zlo ne misli", "overview": "Set in pre-World War II Zagreb, the story is seen through the eyes of 6-year-old Perica \u0160afranek (played by Tomislav \u017dganec). A dandy from Zagreb, Mr Fulir (played by Relja Ba\u0161i\u0107), starts flirting with Perica's mother during a family picnic. At first, Perica's father doesn't notice anything, but wants to marry off Perica's aunt, so he invites the man to their residence. After multiple rendezvous, Perica's father becomes aware of Fulir's attempts to seduce his wife.", "poster_path": "/q3Z82275Wp1PjKMvwImlot6OYCl.jpg", "release_date": "1970-10-19", "title": "One Song a Day Takes Mischief Away", "video": false, "vote_average": 6.8, "vote_count": 8, "popularity": 2.128}, {"adult": false, "backdrop_path": "/7TeENrkwAOoNWCVVOuThgvR2Vcp.jpg", "genre_ids": [18], "id": 74994, "original_language": "hr", "original_title": "Armin", "overview": "The film follows Ibro (Emir Had\u017eihafizbegovi\u0107) and his son Armin (Armin Omerovi\u0107), who travel from a small town in Bosnia to a film audition in Zagreb, hoping to land a part for Armin in a German film about the war in Bosnia. On their way to fulfilling the boy's dream, they encounter a series of disappointing setbacks \u2014 their bus to Zagreb breaks down and they are late for the audition. After Ibro convinces the director to give the boy a second chance, they soon realize that Armin is too old for the part anyway. As it becomes obvious that Armin's dream of playing a part in the movie will never happen, he feels increasingly disheartened, while Ibro's determination to help his son grows. Finally they do get another chance, but Armin buckles under the pressure and experiences an epileptic seizure. As they get ready to head back to Bosnia, the film crew makes an unexpected offer, but when Ibro refuses, Armin at last realizes how much his father really loves him.", "poster_path": "/7EHC0Da7moY1dqWV47GHL5JiTxV.jpg", "release_date": "2007-02-09", "title": "Armin", "video": false, "vote_average": 7.5, "vote_count": 7, "popularity": 1.133}, {"adult": false, "backdrop_path": "/vOyzJ4XfEcnIWYARiWCcA0wG1Ds.jpg", "genre_ids": [99], "id": 200487, "original_language": "en", "original_title": "Web Junkie", "overview": "China is the first country in the world to classify Internet addiction as a clinical disorder. Caught in the Net features a Beijing treatment center where Chinese teenagers are being \"deprogrammed,\" and follows the story of three boys from the day they arrive at the center, to their three-month treatment period, and their long awaited return home. The film provides a microcosm of modern Chinese life and investigates one of the symptoms of the Internet age. It examines inter-generational pressures and the disregard of the human rights of minors who get caught in the net.", "poster_path": "/nrlwHcAKiBkSxUo6RAM0adkXUSI.jpg", "release_date": "2014-01-20", "title": "Web Junkie", "video": false, "vote_average": 6.6, "vote_count": 11, "popularity": 3.044}], "total_pages": 1, "total_results": 10}, "credits": {"cast": [{"cast_id": 1, "character": "Pero Kvr\u017eica", "credit_id": "52fe4dc29251416c7513fb8f", "gender": 0, "id": 1206335, "name": "Mladen Vasary", "order": 0, "profile_path": null}, {"cast_id": 2, "character": "\u0160ilo", "credit_id": "52fe4dc29251416c7513fb93", "gender": 0, "id": 1206338, "name": "Predrag Vukovi\u0107", "order": 1, "profile_path": null}, {"cast_id": 3, "character": "Divljak", "credit_id": "52fe4dc29251416c7513fb97", "gender": 0, "id": 1206339, "name": "Berislav Kokot", "order": 2, "profile_path": null}, {"cast_id": 4, "character": "Milo Dijete", "credit_id": "52fe4dc29251416c7513fb9b", "gender": 0, "id": 1206340, "name": "Boris Vujovi\u0107", "order": 3, "profile_path": null}, {"cast_id": 5, "character": "Medo", "credit_id": "52fe4dc29251416c7513fb9f", "gender": 0, "id": 1206341, "name": "Zoran Havrle", "order": 4, "profile_path": null}, {"cast_id": 6, "character": "Budala", "credit_id": "52fe4dc29251416c7513fba3", "gender": 0, "id": 1206342, "name": "Nikica Halu\u017ean", "order": 5, "profile_path": null}, {"cast_id": 7, "character": "Marija", "credit_id": "52fe4dc29251416c7513fba7", "gender": 0, "id": 1206343, "name": "Marina Nemet", "order": 6, "profile_path": null}, {"cast_id": 8, "character": "Janica", "credit_id": "52fe4dc29251416c7513fbab", "gender": 0, "id": 1206344, "name": "Dubravka Dolov\u010dak", "order": 7, "profile_path": null}, {"cast_id": 9, "character": "policajac Jozo", "credit_id": "52fe4dc29251416c7513fbaf", "gender": 2, "id": 1047281, "name": "Boris Dvornik", "order": 8, "profile_path": "/yVNi8nCRsvinC6bND2NkQT9oBQ.jpg"}, {"cast_id": 10, "character": "u\u010ditelj", "credit_id": "52fe4dc29251416c7513fbb3", "gender": 2, "id": 1206345, "name": "Antun Vrdoljak", "order": 9, "profile_path": null}, {"cast_id": 20, "character": "Vele\u010dasni", "credit_id": "53d78a0bc3a3683a2b0011ab", "gender": 2, "id": 1181117, "name": "Antun Nalis", "order": 10, "profile_path": "/8DuPNUCPg9X9itZQASnvZZ5VSY2.jpg"}, {"cast_id": 27, "character": "\u0160umar", "credit_id": "5a74262fc3a36859fc01d326", "gender": 0, "id": 1047168, "name": "Kruno Valenti\u0107", "order": 11, "profile_path": "/lFOuoWnw6sNRnuvNfY6O9xQ0LBb.jpg"}, {"cast_id": 13, "character": "na\u010delnikova \u017eena", "credit_id": "52fe4dc29251416c7513fbbf", "gender": 0, "id": 1206348, "name": "Vera Misita", "order": 12, "profile_path": null}, {"cast_id": 14, "character": "Perov otac", "credit_id": "52fe4dc29251416c7513fbc3", "gender": 0, "id": 1206349, "name": "Adem \u010cejvan", "order": 13, "profile_path": "/cimwnrQsgFttBg1a5VfJsRWaEru.jpg"}, {"cast_id": 15, "character": "Perova majka", "credit_id": "52fe4dc29251416c7513fbc7", "gender": 0, "id": 1206350, "name": "Inge Appelt", "order": 14, "profile_path": "/qcTgHEjQYZM589b4hbkjrAevlyC.jpg"}, {"cast_id": 16, "character": "Markan", "credit_id": "52fe4dc29251416c7513fbcb", "gender": 0, "id": 1206351, "name": "Mate Ergovi\u0107", "order": 15, "profile_path": "/ns0uI9L9f7MbPzKxKAJXie40FAS.jpg"}], "crew": [{"credit_id": "532a3cc69251410845000729", "department": "Directing", "gender": 2, "id": 1302598, "job": "Director", "name": "Vladimir Tadej", "profile_path": null}, {"credit_id": "532a3cd2925141083f0007a4", "department": "Writing", "gender": 0, "id": 1302599, "job": "Novel", "name": "Mato Lovrak", "profile_path": null}, {"credit_id": "567c05599251417ddf003326", "department": "Writing", "gender": 2, "id": 1302598, "job": "Screenplay", "name": "Vladimir Tadej", "profile_path": null}, {"credit_id": "5950b588c3a36809c600470a", "department": "Sound", "gender": 0, "id": 1821626, "job": "Original Music Composer", "name": "\u017divan Cvitkovi\u0107", "profile_path": null}, {"credit_id": "5950b58fc3a3681498004421", "department": "Camera", "gender": 2, "id": 1460735, "job": "Director of Photography", "name": "Frano Vodopivec", "profile_path": null}, {"credit_id": "5950b59e9251412a05004586", "department": "Editing", "gender": 1, "id": 1839256, "job": "Editor", "name": "Radojka Tanhofer", "profile_path": null}, {"credit_id": "5950b5a792514129c4004620", "department": "Art", "gender": 2, "id": 1302598, "job": "Production Design", "name": "Vladimir Tadej", "profile_path": null}, {"credit_id": "5950b5adc3a3681388004432", "department": "Costume & Make-Up", "gender": 0, "id": 1301994, "job": "Costume Design", "name": "Ika \u0160komrlj", "profile_path": null}]}}