{"adult": false, "backdrop_path": "/uCdHAMknWaR4PbSRlCqAcrN95f3.jpg", "belongs_to_collection": null, "budget": 0, "genres": [{"id": 80, "name": "Crime"}, {"id": 28, "name": "Action"}], "homepage": "", "id": 22156, "imdb_id": "tt0280990", "original_language": "fr", "original_title": "Nid de gu\u00eapes", "overview": "Laborie is a high-flying officer in the French special forces. Her mission is to escort Abedin Nexhep, a godfather of the Albanian mafia. Charged with heading a wide-reaching prostitution network, this formidable criminal is due to stand trial before a European court. During the transfer, killers hired by Nexhep set up an ambush to free their boss but Laborie and her men manage to escape...", "popularity": 4.95, "poster_path": "/kIsEf07J8EY2IAtg9Qa6M3527Om.jpg", "production_companies": [{"id": 3012, "logo_path": null, "name": "Path\u00e9 Distribution", "origin_country": "FR"}], "production_countries": [{"iso_3166_1": "FR", "name": "France"}], "release_date": "2002-01-01", "revenue": 0, "runtime": 107, "spoken_languages": [{"iso_639_1": "en", "name": "English"}, {"iso_639_1": "fr", "name": "Fran\u00e7ais"}, {"iso_639_1": "de", "name": "Deutsch"}, {"iso_639_1": "it", "name": "Italiano"}], "status": "Released", "tagline": "", "title": "The Nest", "video": false, "vote_average": 6.3, "vote_count": 64, "keywords": {"keywords": [{"id": 3149, "name": "gangster"}, {"id": 10391, "name": "mafia"}, {"id": 15009, "name": "criminal"}]}, "similar": {"page": 1, "results": [{"adult": false, "backdrop_path": "/v761yOHKO3p6Yr7LDCjud6tUL5G.jpg", "genre_ids": [28, 80, 53], "id": 10651, "original_language": "en", "original_title": "The Dead Pool", "overview": "Dirty Harry Callahan returns for his final film adventure. Together with his partner Al Quan, he must investigate the systematic murder of actors and musicians. By the time Harry learns that the murders are a part of a sick game to predict the deaths of celebrities before they happen, it may be too late...", "poster_path": "/9ZUSqox9lIxN4xaYBac2QXMFcZj.jpg", "release_date": "1988-07-12", "title": "The Dead Pool", "video": false, "vote_average": 6.4, "vote_count": 389, "popularity": 14.171}, {"adult": false, "backdrop_path": "/sw7mordbZxgITU877yTpZCud90M.jpg", "genre_ids": [18, 80], "id": 769, "original_language": "en", "original_title": "GoodFellas", "overview": "The true story of Henry Hill, a half-Irish, half-Sicilian Brooklyn kid who is adopted by neighbourhood gangsters at an early age and climbs the ranks of a Mafia family under the guidance of Jimmy Conway.", "poster_path": "/pwpGfTImTGifEGgLb3s6LRPd4I6.jpg", "release_date": "1990-09-12", "title": "GoodFellas", "video": false, "vote_average": 8.4, "vote_count": 6553, "popularity": 33.23}, {"id": 64689, "video": false, "vote_count": 1221, "vote_average": 6.0, "title": "Killing Them Softly", "release_date": "2012-07-30", "original_language": "en", "original_title": "Killing Them Softly", "genre_ids": [80, 53], "backdrop_path": "/jikIWGfMFq8YxYziXVFyqBI7e3o.jpg", "adult": false, "overview": "Jackie Cogan is an enforcer hired to restore order after three dumb guys rob a Mob protected card game, causing the local criminal economy to collapse.", "poster_path": "/b0BcZFItcgVdwJo0m2TgRDoOeu6.jpg", "popularity": 13.16}, {"adult": false, "backdrop_path": "/g1BfxcnplYEveGqS1ttfhdRBgbR.jpg", "genre_ids": [35, 53, 80], "id": 8012, "original_language": "en", "original_title": "Get Shorty", "overview": "Chili Palmer is a Miami mobster who gets sent by his boss, the psychopathic \"Bones\" Barboni, to collect a bad debt from Harry Zimm, a Hollywood producer who specializes in cheesy horror films. When Chili meets Harry's leading lady, the romantic sparks fly. After pitching his own life story as a movie idea, Chili learns that being a mobster and being a Hollywood producer really aren't all that different.", "poster_path": "/vWtDUUgQAsVyvRW4mE75LBgVm2e.jpg", "release_date": "1995-10-20", "title": "Get Shorty", "video": false, "vote_average": 6.5, "vote_count": 543, "popularity": 11.5}, {"id": 1538, "video": false, "vote_count": 2889, "vote_average": 7.2, "title": "Collateral", "release_date": "2004-08-04", "original_language": "en", "original_title": "Collateral", "genre_ids": [80, 18, 53], "backdrop_path": "/hFcXrnmciPfIg8ZcXb1V7BeguF.jpg", "adult": false, "overview": "Cab driver Max picks up a man who offers him $600 to drive him around. But the promise of easy money sours when Max realizes his fare is an assassin.", "poster_path": "/fmkv2eRuYCTq7A5jzMBNgoNe1vA.jpg", "popularity": 16.215}, {"adult": false, "backdrop_path": "/fop31RWFi9sVL0xK5hAJGh7Fwkz.jpg", "genre_ids": [18, 80], "id": 261023, "original_language": "en", "original_title": "Black Mass", "overview": "The true story of Whitey Bulger, the brother of a state senator and the most infamous violent criminal in the history of South Boston, who became an FBI informant to take down a Mafia family invading his turf.", "poster_path": "/nSbpuyd2UySuW7kaoXzYUfes1Bl.jpg", "release_date": "2015-09-04", "title": "Black Mass", "video": false, "vote_average": 6.4, "vote_count": 2190, "popularity": 14.581}, {"id": 877, "video": false, "vote_count": 222, "vote_average": 7.6, "title": "Scarface", "release_date": "1932-04-09", "original_language": "en", "original_title": "Scarface", "genre_ids": [28, 80, 18, 53], "backdrop_path": "/fX1DFPMZYsRG17BmMPJAKUaBZEz.jpg", "adult": false, "overview": "A murderous thug shoots his way to the top of the mobs while trying to protect his sister from the criminal life.", "poster_path": "/ai9WOjgNRXo42D0GJIIdi7toZ5x.jpg", "popularity": 14.434}, {"id": 400, "video": false, "vote_count": 185, "vote_average": 6.6, "title": "Things to Do in Denver When You're Dead", "release_date": "1995-12-01", "original_language": "en", "original_title": "Things to Do in Denver When You're Dead", "genre_ids": [80, 18], "backdrop_path": "/5iCxKe3zEPnrc1Y0R0m0YnFdaBO.jpg", "adult": false, "overview": "A mafia film in Tarantino style with a star-studded cast. Jimmy\u2019s \u201cThe Saint\u201d gangster career has finally ended. Yet now he finds him self doing favors for a wise godfather known as \u201cThe Man with the Plan.\u201d", "poster_path": "/ysKIolKO0376Nl5DV1fDAAPudEq.jpg", "popularity": 13.185}, {"id": 75780, "video": false, "vote_count": 4450, "vote_average": 6.4, "title": "Jack Reacher", "release_date": "2012-12-20", "original_language": "en", "original_title": "Jack Reacher", "genre_ids": [28, 80, 18, 53], "backdrop_path": "/ezXodpP429qK0Av89pVNlaXWJkQ.jpg", "adult": false, "overview": "When a gunman takes five lives with six shots, all evidence points to the suspect in custody. On interrogation, the suspect offers up a single note: \"Get Jack Reacher!\" So begins an extraordinary chase for the truth, pitting Jack Reacher against an unexpected enemy, with a skill for violence and a secret to keep.", "poster_path": "/mt0ELw83HIRgaKaDzhsDcIi0RnW.jpg", "popularity": 19.929}, {"adult": false, "backdrop_path": "/2f8fkWSWOVcTlWforoVpsuaCiwI.jpg", "genre_ids": [53, 28], "id": 449985, "original_language": "en", "original_title": "Triple Threat", "overview": "A crime syndicate places a hit on a billionaire's daughter, making her the target of an elite assassin squad. A small band of down-and-out mercenaries protects her, fighting tooth and nail to stop the assassins from reaching their target.", "poster_path": "/cSpM3QxmoSLp4O1WAMQpUDcaB7R.jpg", "release_date": "2019-03-19", "title": "Triple Threat", "video": false, "vote_average": 5.5, "vote_count": 146, "popularity": 17.856}, {"adult": false, "backdrop_path": "/rSf0RYkPiMo9TyjHs2vI8rHlmfF.jpg", "genre_ids": [28, 18, 53], "id": 241554, "original_language": "en", "original_title": "Run All Night", "overview": "Brooklyn mobster and prolific hit man Jimmy Conlon has seen better days. Longtime best friend of a mob boss, Jimmy is haunted by the sins of his past\u2014as well as a dogged police detective who\u2019s been one step behind Jimmy for 30 years. But when Jimmy\u2019s estranged son becomes a target, Jimmy must make a choice between the crime family he chose and the real family he abandoned long ago. Now, with nowhere safe to turn, Jimmy has just one night to figure out exactly where his loyalties lie and to see if he can finally make things right.", "poster_path": "/aqNJrAxudMRNo8jg3HOUQqdl2xr.jpg", "release_date": "2015-03-11", "title": "Run All Night", "video": false, "vote_average": 6.4, "vote_count": 1820, "popularity": 30.086}, {"id": 154400, "video": false, "vote_count": 1342, "vote_average": 6.7, "title": "The Drop", "release_date": "2014-09-12", "original_language": "en", "original_title": "The Drop", "genre_ids": [80, 18], "backdrop_path": "/lI7TD9Z9TsASnc3GxkLbBBpXCac.jpg", "adult": false, "overview": "Bob Saginowski finds himself at the center of a robbery gone awry and entwined in an investigation that digs deep into the neighborhood's past where friends, families, and foes all work together to make a living - no matter the cost.", "poster_path": "/lj8AMCjWx0jU93XajzUEOUUNKZF.jpg", "popularity": 22.374}, {"id": 49049, "video": false, "vote_count": 3046, "vote_average": 6.7, "title": "Dredd", "release_date": "2012-09-07", "original_language": "en", "original_title": "Dredd", "genre_ids": [28, 878], "backdrop_path": "/kqKcID44nGtIxhhzmziAX65abRx.jpg", "adult": false, "overview": "In the future, America is a dystopian wasteland. The latest scourge is Ma-Ma, a prostitute-turned-drug pusher with a dangerous new drug and aims to take over the city. The only possibility of stopping her is an elite group of urban police called Judges, who combine the duties of judge, jury and executioner to deliver a brutal brand of swift justice. But even the top-ranking Judge, Dredd, discovers that taking down Ma-Ma isn\u2019t as easy as it seems in this explosive adaptation of the hugely popular comic series.", "poster_path": "/71fkYuMVMtdbREh9Mp3gTFmI8Bv.jpg", "popularity": 22.587}, {"id": 245891, "video": false, "vote_count": 11528, "vote_average": 7.2, "title": "John Wick", "release_date": "2014-10-22", "original_language": "en", "original_title": "John Wick", "genre_ids": [28, 53], "backdrop_path": "/iJlGxN0p1suzloBGvvBu3QSSlhT.jpg", "adult": false, "overview": "Ex-hitman John Wick comes out of retirement to track down the gangsters that took everything from him.", "poster_path": "/5vHssUeVe25bMrof1HyaPyWgaP.jpg", "popularity": 71.02}, {"id": 339692, "video": false, "vote_count": 1163, "vote_average": 6.9, "title": "Shot Caller", "release_date": "2017-07-13", "original_language": "en", "original_title": "Shot Caller", "genre_ids": [80, 18, 53], "backdrop_path": "/hehboYLXB3m90x9ybiBsupwuifL.jpg", "adult": false, "overview": "A newly-released prison gangster is forced by the leaders of his gang to orchestrate a major crime with a brutal rival gang on the streets of Southern California.", "poster_path": "/qLmLz2wtyYvmW8Ult3l2ngOnW8v.jpg", "popularity": 25.016}, {"id": 156022, "video": false, "vote_count": 5466, "vote_average": 7.2, "title": "The Equalizer", "release_date": "2014-09-24", "original_language": "en", "original_title": "The Equalizer", "genre_ids": [28, 80, 53], "backdrop_path": "/vbl4ZVqelrrzJ16fdDOq9siWbpi.jpg", "adult": false, "overview": "McCall believes he has put his mysterious past behind him and dedicated himself to beginning a new, quiet life. But when he meets Teri, a young girl under the control of ultra-violent Russian gangsters, he can\u2019t stand idly by \u2013 he has to help her. Armed with hidden skills that allow him to serve vengeance against anyone who would brutalize the helpless, McCall comes out of his self-imposed retirement and finds his desire for justice reawakened. If someone has a problem, if the odds are stacked against them, if they have nowhere else to turn, McCall will help. He is The Equalizer.", "poster_path": "/2eQfjqlvPAxd9aLDs8DvsKLnfed.jpg", "popularity": 38.079}, {"adult": false, "backdrop_path": "/6xKCYgH16UuwEGAyroLU6p8HLIn.jpg", "genre_ids": [18, 80], "id": 238, "original_language": "en", "original_title": "The Godfather", "overview": "Spanning the years 1945 to 1955, a chronicle of the fictional Italian-American Corleone crime family. When organized crime family patriarch, Vito Corleone barely survives an attempt on his life, his youngest son, Michael steps in to take care of the would-be killers, launching a campaign of bloody revenge.", "poster_path": "/rPdtLWNsZmAtoZl9PK7S2wE3qiS.jpg", "release_date": "1972-03-14", "title": "The Godfather", "video": false, "vote_average": 8.6, "vote_count": 11267, "popularity": 44.902}, {"id": 1422, "video": false, "vote_count": 8811, "vote_average": 8.1, "title": "The Departed", "release_date": "2006-10-05", "original_language": "en", "original_title": "The Departed", "genre_ids": [80, 18, 53], "backdrop_path": "/8Od5zV7Q7zNOX0y9tyNgpTmoiGA.jpg", "adult": false, "overview": "To take down South Boston's Irish Mafia, the police send in one of their own to infiltrate the underworld, not realizing the syndicate has done likewise. While an undercover cop curries favor with the mob kingpin, a career criminal rises through the police ranks. But both sides soon discover there's a mole among them.", "poster_path": "/tGLO9zw5ZtCeyyEWgbYGgsFxC6i.jpg", "popularity": 27.511}, {"id": 59967, "video": false, "vote_count": 7203, "vote_average": 6.8, "title": "Looper", "release_date": "2012-09-26", "original_language": "en", "original_title": "Looper", "genre_ids": [28, 878, 53], "backdrop_path": "/vuHG8VlYnvw4gUKtS7GY5kZol69.jpg", "adult": false, "overview": "In the futuristic action thriller Looper, time travel will be invented but it will be illegal and only available on the black market. When the mob wants to get rid of someone, they will send their target 30 years into the past where a looper, a hired gun, like Joe is waiting to mop up. Joe is getting rich and life is good until the day the mob decides to close the loop, sending back Joe's future self for assassination.", "poster_path": "/sNjL6SqErDBE8OUZlrDLkexfsCj.jpg", "popularity": 21.833}, {"id": 41283, "video": false, "vote_count": 1022, "vote_average": 6.3, "title": "Faster", "release_date": "2010-11-23", "original_language": "en", "original_title": "Faster", "genre_ids": [28, 80, 18, 53], "backdrop_path": "/vg2VYTvBPQwvR6T7qrp8ZeuM0Uh.jpg", "adult": false, "overview": "After 10 years in prison, Driver is now a free man with a single focus - hunting down the people responsible for brutally murdering his brother.", "poster_path": "/xaHojTGfidOUfON6DGY14qUqATj.jpg", "popularity": 19.496}], "total_pages": 340, "total_results": 6783}, "recommendations": {"page": 1, "results": [{"adult": false, "backdrop_path": "/ypQKh4uK7GkLobIRXBbCYBFg6zX.jpg", "genre_ids": [18], "id": 80176, "original_language": "fr", "original_title": "Les espions", "overview": "The plot concerns a doctor at a run-down psychiatric hospital, who is offered a large sum of money to shelter a new patient. Soon the place is full of suspicious and secretive characters, all apparently international secret agents trying to find out who and what the patient is.", "poster_path": "/hqjJM5pJUX44ccw3PPr1A5GlGJI.jpg", "release_date": "1957-10-10", "title": "The Spies", "video": false, "vote_average": 6.4, "vote_count": 8, "popularity": 2.257}, {"adult": false, "backdrop_path": "/sK41vYTwCtQsozxhz21hn1OwDHv.jpg", "genre_ids": [35], "id": 60018, "original_language": "it", "original_title": "Ultimo minuto", "overview": "", "poster_path": "/gqEjxjwv36lQJ0wdXVgUX85cYIf.jpg", "release_date": "1988-01-01", "title": "The Last Minute", "video": false, "vote_average": 5.9, "vote_count": 9, "popularity": 2.832}, {"adult": false, "backdrop_path": "/kAfzBzFLEjWgHHu1tQXbHxfOHdW.jpg", "genre_ids": [], "id": 71732, "original_language": "fr", "original_title": "La raison du plus faible", "overview": "", "poster_path": "/JRwgYtupOfiO9QhhgvjUMVYR4G.jpg", "release_date": "2006-07-19", "title": "The Right of the Weakest", "video": false, "vote_average": 6.9, "vote_count": 7, "popularity": 1.96}, {"adult": false, "backdrop_path": "/d8Q1W5b4hWpYSOcBwk083ip97j2.jpg", "genre_ids": [18, 878], "id": 51866, "original_language": "fr", "original_title": "Les Derniers jours du monde", "overview": "Robinson, appropriately named as we will soon discover, is on vacation in Biarritz with his wife. What follows is the story behind the loss of his arm, a story that becomes increasingly bizarre and eventually apocalyptic, leading us down a narrative path of labyrinthine complexity. The resulting film is an extraordinary feat of imagination and daring, set against the backdrop of a world on the verge of destruction.", "poster_path": "/aKCB3bf3hVLjMl6nWP5RRR3Jr8F.jpg", "release_date": "2009-08-19", "title": "Happy End", "video": false, "vote_average": 5.6, "vote_count": 26, "popularity": 3.944}, {"adult": false, "backdrop_path": "/uU9hpoF8fDg6EHE5dVx53B3BuKW.jpg", "genre_ids": [28, 12, 18], "id": 80555, "original_language": "en", "original_title": "Wind Across the Everglades", "overview": "An ornithologist battles a family of bird poachers in the Florida Everglades.", "poster_path": "/aWHCwmYcFWxcGiCmQCMgcjiqaHO.jpg", "release_date": "1958-09-11", "title": "Wind Across the Everglades", "video": false, "vote_average": 7.0, "vote_count": 6, "popularity": 3.27}, {"adult": false, "backdrop_path": "/bJGCqVDsiLaVyzQ2voC63xXv4In.jpg", "genre_ids": [18, 28, 80], "id": 90351, "original_language": "ja", "original_title": "\u535a\u5f92\u5916\u4eba\u90e8\u968a", "overview": "A yakuza gang gets driven out of Yokohama by a big gang from Tokyo. They relocate to Okinawa to violently start over.", "poster_path": "/rMVleF0KfWxnGEPVcBSmteBTt1E.jpg", "release_date": "1971-01-12", "title": "Sympathy for the Underdog", "video": false, "vote_average": 6.9, "vote_count": 15, "popularity": 3.124}, {"id": 74820, "video": false, "vote_count": 8, "vote_average": 6.1, "title": "Antifa: Chasseurs de skins", "release_date": "2008-07-12", "original_language": "fr", "original_title": "Antifa: Chasseurs de skins", "genre_ids": [99], "backdrop_path": "/axd5QU26WeipsynhMRUKY9gsJC0.jpg", "adult": false, "overview": "A French documentary on how groups of youth in Paris generated a backlash against the NeoNazi skinhead subculture, and by doing so earned themselves the nickname Chasseurs de Skins or 'Skinhead Hunters'.", "poster_path": "/bo2xXZ96yS6RjcIvdF4JhW4owa0.jpg", "popularity": 1.646}, {"adult": false, "backdrop_path": "/uSpdU1mVy0JysHwRsfGGcI4pS0F.jpg", "genre_ids": [80, 18], "id": 11672, "original_language": "fr", "original_title": "Une fille et des fusils", "overview": "Four young people, tired of working life, decide that they can earn money from crime than they can from work. The film follows their training at the first \"crime school\", as well as their work.", "poster_path": "/pplaFj1ZL6LVzS2wgIKoEPoM6ma.jpg", "release_date": "1965-06-01", "title": "To Be a Crook", "video": false, "vote_average": 6.0, "vote_count": 3, "popularity": 1.234}, {"adult": false, "backdrop_path": "/smGESgnRXB9uyjoZ2LlTHn4ZzRU.jpg", "genre_ids": [35, 18], "id": 72563, "original_language": "fr", "original_title": "Sex-shop", "overview": "On the advice of a friend, Claude, married to the charming Isabelle and father of two, decided to transform his library, hardly flourishing, into a sex shop. This change of activity proves to be very lucrative and sharpens his desire to spice up his married life through various erotic experiences. Claude asks his wife to share with him the audacity he dreams of. Soon, the household meets a dentist and his wife and is engaged, without much success, to new discoveries. Isabelle, full of good will, tries to follow her husband ...", "poster_path": "/nCcJaGWsZfJROll6ITpNvlddNKP.jpg", "release_date": "1972-10-25", "title": "Sex Shop", "video": false, "vote_average": 5.6, "vote_count": 8, "popularity": 2.138}, {"id": 39965, "video": false, "vote_count": 18, "vote_average": 4.6, "title": "Emanuelle in Bangkok", "release_date": "1976-05-06", "original_language": "it", "original_title": "Emanuelle nera: Orient reportage", "genre_ids": [12, 18, 10749], "backdrop_path": "/6ZagdqTzkUnhCgFcnMyZpfJe7Cz.jpg", "adult": false, "overview": "Emanuelle is sent to Bangkok on a journalism assignment. While there, she embarks on her own exploration of the secrets of sensual pleasure. While learning much, she also reveals several secrets of her own.", "poster_path": "/7PRtzWLy2R6WNSrITGFvSTa39Ep.jpg", "popularity": 9.027}, {"adult": false, "backdrop_path": "/pj2p6HIOHEUi22RDCQ3rhqYAygl.jpg", "genre_ids": [18], "id": 17582, "original_language": "fr", "original_title": "Khamsa", "overview": "A 13 year old Gypsy boy escapes from foster home to continue a life of mischief and delinquency during a French summer.", "poster_path": "/5YsJS1hDmc0hTkM8pNLiSmhyxjE.jpg", "release_date": "2008-10-08", "title": "Khamsa", "video": false, "vote_average": 6.1, "vote_count": 15, "popularity": 2.528}, {"adult": false, "backdrop_path": "/eUsGtdIwoP1GMQM0T1YrxpOziIi.jpg", "genre_ids": [18, 80], "id": 70193, "original_language": "ja", "original_title": "HAZARD", "overview": "Shin is a Japanese university student living a boring and meaningless life. One day, he spots a book titled Dangerous Ways to Walk the World, in which he finds a page written about hazards in New-York. Eager to get out, he jets off to New-York to find this inspiration.", "poster_path": "/tzZGfAHp30nQo5dxDsrPSvRorJf.jpg", "release_date": "2005-11-05", "title": "Hazard", "video": false, "vote_average": 7.1, "vote_count": 9, "popularity": 2.396}, {"adult": false, "backdrop_path": "/ftqw7VWpOd9TcpUaKNbFgNuT6TS.jpg", "genre_ids": [99, 18], "id": 31517, "original_language": "en", "original_title": "Avoir 20 ans dans les Aur\u00e8s", "overview": "This French war film barely made it past the censors as it is not entirely complimentary about how the French handled themselves in the Algerian War. Four commandos are disciplined for failure to follow orders by being assigned to an especially dangerous and disagreeable mission. Their job is to capture enemy Algerian soldiers.", "poster_path": "/apeJnOkl1QMC9Yw6JLFu8NKFUq5.jpg", "release_date": "1972-05-12", "title": "To Be Twenty in the Aures", "video": false, "vote_average": 7.4, "vote_count": 5, "popularity": 1.59}, {"adult": false, "backdrop_path": "/1Sr6uRNXnASJ3qiTUYQ93nPy1Ho.jpg", "genre_ids": [18], "id": 65703, "original_language": "fr", "original_title": "Manon des sources", "overview": "Marcel Pagnol's adaptation of his own novel Manon des sources, the story of a shepherdess who exacts her revenge on the townsfolk she blames for killing her father, in two parts: Manon des sources and Ugolin.", "poster_path": "/xXtH6bbejvGCPuNXBemZLfj6eji.jpg", "release_date": "1952-12-16", "title": "Manon of the Spring", "video": false, "vote_average": 6.7, "vote_count": 11, "popularity": 2.33}, {"adult": false, "backdrop_path": "/n78lIMVBMhZT7nMvEwxUcgGaPkh.jpg", "genre_ids": [18, 80], "id": 37557, "original_language": "zh", "original_title": "\u6447\u554a\u6447\uff0c\u6447\u5230\u5916\u5a46\u6865", "overview": "Shanghai, China, 1930. When young Shuisheng arrives from the countryside, his uncle Liushu puts him at the service of Bijou, the mistress of Laoda, supreme boss of the Tang Triad, constantly threatened by his enemies, both those he knows and those lurking in the shadows.", "poster_path": "/qcoOCoN7viOhboGwhYXyApdDuiq.jpg", "release_date": "1995-09-14", "title": "Shanghai Triad", "video": false, "vote_average": 6.8, "vote_count": 34, "popularity": 6.864}, {"id": 21613, "video": false, "vote_count": 19, "vote_average": 7.1, "title": "Street Mobster", "release_date": "1972-05-06", "original_language": "ja", "original_title": "Gendai yakuza: hito-kiri yota", "genre_ids": [28, 80, 53], "backdrop_path": "/cklyTuRmfICmp9jhgszqLmOrVC5.jpg", "adult": false, "overview": "After serving time, a defiant street thug is incensed to find his town overrun by two yakuza factions. He gathers his crew and takes them on.", "poster_path": "/vEMbFkcg3NRwOAttDLGKLy2ZfOZ.jpg", "popularity": 2.359}, {"adult": false, "backdrop_path": "/kcUUTz864N0Njv1jhxhzJmAZveR.jpg", "genre_ids": [35, 18], "id": 47297, "original_language": "fr", "original_title": "Carr\u00e9ment \u00e0 l'ouest", "overview": "", "poster_path": "/7Dp3hduIFo3fIPKtcbCicjEfhO1.jpg", "release_date": "2001-05-23", "title": "Freaky Love!", "video": false, "vote_average": 6.3, "vote_count": 3, "popularity": 2.03}, {"adult": false, "backdrop_path": "/n2lhv73tD4cmpcpVDecfHsqZR7y.jpg", "genre_ids": [10770, 18, 36], "id": 31327, "original_language": "en", "original_title": "Nuit noire, 17 octobre 1961", "overview": "Parisian authorities clash with the Front de Lib\u00e9ration Nationale (FLN) in director Alain Tasma\u2019s recounting of one of the darkest moments of the Algerian War of Independence. As the war wound to a close and violence persisted in the streets of Paris, the FLN and its supporters adopted the tactic of murdering French policemen in hopes of forcing a withdrawal. When French law enforcement retaliated by brutalizing Algerians and imposing a strict curfew, the FLN organizes a peaceful demonstration that drew over 11,000 supporters, resulting in an order from the Paris police chief to take brutal countermeasures. Told through the eyes of both French policemen as well as Algerian protestors, Tasma\u2019s film attempts to get to the root of the tragedy by presenting both sides of the story.", "poster_path": "/rksUxoiYxJLJ53M2l25sD5pSaat.jpg", "release_date": "2005-06-07", "title": "Nuit noire, 17 octobre 1961", "video": false, "vote_average": 7.6, "vote_count": 6, "popularity": 2.231}, {"adult": false, "backdrop_path": null, "genre_ids": [18, 10752], "id": 41208, "original_language": "fr", "original_title": "La trahison", "overview": "This film about the Algerian war shown at the April-May 2006 San Francisco International Film Festival was also currently on view in theaters in France.", "poster_path": "/3IfFMKw4zMdaowBSh6yo9H9WZn4.jpg", "release_date": "2005-09-12", "title": "The Betrayal", "video": false, "vote_average": 4.6, "vote_count": 4, "popularity": 1.699}, {"adult": false, "backdrop_path": "/zFwZ5b2AAhUMWlDQY068hvvgd87.jpg", "genre_ids": [], "id": 78992, "original_language": "fr", "original_title": "Le passager", "overview": "When he learns of the death of his older brother Richard, Thomas sets out for Marseilles to identify the body. Having collected his brother\u2019s possessions, he returns to their home town, hoping to recall their earlier life together. Here, Thomas insinuates himself into the company of Richard\u2019s friends, whilst keeping his own identity a secret. As he does so, he begins to bring his brother back to life, although not all the memories are pleasant ones...", "poster_path": "/47HR9Trqk83hpIgFg7JXIDeTDRh.jpg", "release_date": "2006-03-22", "title": "The Passenger", "video": false, "vote_average": 5.8, "vote_count": 5, "popularity": 1.4}], "total_pages": 2, "total_results": 40}, "credits": {"cast": [{"cast_id": 3, "character": "Nasser", "credit_id": "52fe4436c3a368484e015f0f", "gender": 2, "id": 20666, "name": "Samy Naceri", "order": 2, "profile_path": "/x5bKrTBZZRP1kJXWjBzw212prgh.jpg"}, {"cast_id": 4, "character": "Santino", "credit_id": "52fe4436c3a368484e015f13", "gender": 2, "id": 5442, "name": "Beno\u00eet Magimel", "order": 3, "profile_path": "/aDNOzcFpleAbGiWie9LmwijedTT.jpg"}, {"cast_id": 10, "character": "Helene Laborie", "credit_id": "5d92a963168ea30012944fd4", "gender": 1, "id": 34627, "name": "Nadia Far\u00e8s", "order": 4, "profile_path": "/eyK4PnuDYcBH239LMvr1ewMdwEX.jpg"}, {"cast_id": 11, "character": "Louis", "credit_id": "5d92a972c0348b002c3f8348", "gender": 2, "id": 16923, "name": "Pascal Greggory", "order": 5, "profile_path": "/1J3QISHIZg6C1xkhvshtX2lEiDG.jpg"}, {"cast_id": 12, "character": "Nadia", "credit_id": "5d92a991c0348b001c3faffc", "gender": 0, "id": 1137558, "name": "Anisia Uzeyman", "order": 6, "profile_path": "/mrva48ERkyRmssyhL5O5tZ5j0Gn.jpg"}, {"cast_id": 13, "character": "Winfred", "credit_id": "5d92a9af168ea3001d941b76", "gender": 2, "id": 49487, "name": "Richard Sammel", "order": 7, "profile_path": "/91IPxy0IuHhIqcrJdI0hYBpJmOg.jpg"}, {"cast_id": 14, "character": "Giovanni", "credit_id": "5d92a9c47cffda002cfbaab6", "gender": 2, "id": 56843, "name": "Valerio Mastandrea", "order": 8, "profile_path": "/gkQroxYAutPTAT2oJnFs2nnlV1B.jpg"}, {"cast_id": 15, "character": "Martial", "credit_id": "5d92a9e6af2da8002b51b7af", "gender": 0, "id": 1158092, "name": "Martial Odone", "order": 9, "profile_path": "/ps9cV4GudPU4mGxIfEALM3yk6Ze.jpg"}, {"cast_id": 16, "character": "Spitz", "credit_id": "5d92aa20af2da8002b51b89a", "gender": 0, "id": 2422488, "name": "Martin Amic", "order": 10, "profile_path": null}, {"cast_id": 17, "character": "Tony", "credit_id": "5d92aa40168ea3001d941e5f", "gender": 0, "id": 1362307, "name": "Alexandre Hamidi", "order": 11, "profile_path": "/aMlWFpbDrigPcqKYjHNfn8bqgnP.jpg"}, {"cast_id": 18, "character": "Abedin Nexhep", "credit_id": "5d92aa51af2da8002351a206", "gender": 2, "id": 27647, "name": "Angelo Infanti", "order": 12, "profile_path": "/dkRVpiDj9YyiuM15XZKT11zZBIR.jpg"}, {"cast_id": 19, "character": "Selim", "credit_id": "5d92aa7e7cffda0024fba544", "gender": 2, "id": 20667, "name": "Sami Bouajila", "order": 13, "profile_path": "/yhO2glkC0jqzPAWjJePHdMByRP3.jpg"}], "crew": [{"credit_id": "52fe4436c3a368484e015f21", "department": "Directing", "gender": 0, "id": 1011158, "job": "Director", "name": "Florent-Emilio Siri", "profile_path": "/ub0u9aMCQwO43jpEFgxnkS6jpl6.jpg"}, {"credit_id": "52fe4436c3a368484e015f27", "department": "Writing", "gender": 0, "id": 1011158, "job": "Writer", "name": "Florent-Emilio Siri", "profile_path": "/ub0u9aMCQwO43jpEFgxnkS6jpl6.jpg"}]}}