{"adult": false, "backdrop_path": null, "belongs_to_collection": null, "budget": 0, "genres": [{"id": 28, "name": "Action"}], "homepage": "", "id": 222380, "imdb_id": "tt0111300", "original_language": "en", "original_title": "Stranglehold", "overview": "Deep inside the nation's top chemical weapons facility, a brilliant terrorist takes a Congresswoman hostage. The Navy can't stop him. The Air Force can't reach him. The Coast Guard can't kill him. Only one man can do the job: special agent Ryan Cooper. He's in a race against time to save the world, facing his greatest challenge yet!", "popularity": 2.341, "poster_path": "/trjsM3j8qGziXFFeljLGIZERrYK.jpg", "production_companies": [{"id": 4688, "logo_path": null, "name": "Concorde-New Horizons", "origin_country": "US"}], "production_countries": [{"iso_3166_1": "US", "name": "United States of America"}], "release_date": "1994-01-01", "revenue": 0, "runtime": 73, "spoken_languages": [{"iso_639_1": "en", "name": "English"}], "status": "Released", "tagline": "Bare Hands. Fast Feet. Short Temper. Ryan Cooper needs no weapon.", "title": "Stranglehold", "video": false, "vote_average": 7.5, "vote_count": 2, "keywords": {"keywords": [{"id": 949, "name": "terrorist"}, {"id": 18111, "name": "kickboxing"}]}, "similar": {"page": 1, "results": [{"id": 9829, "video": false, "vote_count": 732, "vote_average": 7.1, "title": "United 93", "release_date": "2006-04-28", "original_language": "en", "original_title": "United 93", "genre_ids": [28, 80, 18, 36, 53], "backdrop_path": "/qEadwHs8JtZnkQ63i4x2A6fHxbt.jpg", "adult": false, "overview": "A real time account of the events on United Flight 93, one of the planes hijacked on 9/11 that crashed near Shanksville, Pennsylvania when passengers foiled the terrorist plot.", "poster_path": "/pHp3DlbGDcLSKAahCwGR9bzhbZs.jpg", "popularity": 8.634}, {"adult": false, "backdrop_path": "/aog6vKNxw5USOGP4whH9V1YTR5K.jpg", "genre_ids": [80, 53, 28], "id": 201088, "original_language": "en", "original_title": "Blackhat", "overview": "A man is released from prison to help American and Chinese authorities pursue a mysterious cyber criminal. The dangerous search leads them from Chicago to Hong Kong.", "poster_path": "/sW3VEsulmxMlOmQwm0h7H7lZROi.jpg", "release_date": "2015-01-13", "title": "Blackhat", "video": false, "vote_average": 5.3, "vote_count": 1243, "popularity": 19.392}, {"adult": false, "backdrop_path": "/wcyLZBgMlUXi4CQ8IVAO31rqNih.jpg", "genre_ids": [18, 36, 53], "id": 1852, "original_language": "en", "original_title": "World Trade Center", "overview": "On September, 11th 2001, after the terrorist attack to the World Trade Center, the building collapses over the rescue team from the Port Authority Police Department. Will Jimeno and his sergeant John McLoughlin are found alive trapped under the wreckage while the rescue teams fight to save them.", "poster_path": "/hYbKIxMGqm0YaxGBYW52NbkYNAx.jpg", "release_date": "2006-08-09", "title": "World Trade Center", "video": false, "vote_average": 6.1, "vote_count": 883, "popularity": 19.632}, {"id": 453201, "video": false, "vote_count": 939, "vote_average": 5.4, "title": "The 15:17 to Paris", "release_date": "2018-02-02", "original_language": "en", "original_title": "The 15:17 to Paris", "genre_ids": [18, 36, 53], "backdrop_path": "/gkkBhctHPGg8hrmtWbO3ySZoj4z.jpg", "adult": false, "overview": "In August 2015, an ISIS terrorist boarded train #9364 from Brussels to Paris. Armed with an AK-47 and enough ammo to kill more than 500 people, the terrorist might have succeeded except for three American friends who refused to give in to fear. One was a college student, one was a martial arts enthusiast and airman first class in the U.S. Air Force, and the other was a member of the Oregon National Guard, and all three pals proved fearless as they charged and ultimately overpowered the gunman after he emerged from a bathroom armed and ready to kill.", "poster_path": "/qxJQ0VBCuJkJhJmuWzxI408ngwd.jpg", "popularity": 13.78}, {"adult": false, "backdrop_path": "/pc7a2qrIkIxzqWGqcexd3mHzIxy.jpg", "genre_ids": [28, 53, 12], "id": 56292, "original_language": "en", "original_title": "Mission: Impossible - Ghost Protocol", "overview": "Ethan Hunt and his team are racing against time to track down a dangerous terrorist named Hendricks, who has gained access to Russian nuclear launch codes and is planning a strike on the United States. An attempt to stop him ends in an explosion causing severe destruction to the Kremlin and the IMF to be implicated in the bombing, forcing the President to disavow them. No longer being aided by the government, Ethan and his team chase Hendricks around the globe, although they might still be too late to stop a disaster.", "poster_path": "/s58mMsgIVOFfoXPtwPWJ3hDYpXf.jpg", "release_date": "2011-12-07", "title": "Mission: Impossible - Ghost Protocol", "video": false, "vote_average": 7.0, "vote_count": 6591, "popularity": 29.242}, {"id": 68721, "video": false, "vote_count": 15348, "vote_average": 6.9, "title": "Iron Man 3", "release_date": "2013-04-18", "original_language": "en", "original_title": "Iron Man 3", "genre_ids": [28, 12, 878], "backdrop_path": "/n9X2DKItL3V0yq1q1jrk8z5UAki.jpg", "adult": false, "overview": "When Tony Stark's world is torn apart by a formidable terrorist called the Mandarin, he starts an odyssey of rebuilding and retribution.", "poster_path": "/7XiGqZE8meUv7L4720L0tIDd7gO.jpg", "popularity": 25.727}, {"id": 49026, "video": false, "vote_count": 15150, "vote_average": 7.7, "title": "The Dark Knight Rises", "release_date": "2012-07-16", "original_language": "en", "original_title": "The Dark Knight Rises", "genre_ids": [28, 80, 18, 53], "backdrop_path": "/f6ljQGv7WnJuwBPty017oPWfqjx.jpg", "adult": false, "overview": "Following the death of District Attorney Harvey Dent, Batman assumes responsibility for Dent's crimes to protect the late attorney's reputation and is subsequently hunted by the Gotham City Police Department. Eight years later, Batman encounters the mysterious Selina Kyle and the villainous Bane, a new terrorist leader who overwhelms Gotham's finest. The Dark Knight resurfaces to protect a city that has branded him an enemy.", "poster_path": "/dEYnvnUfXrqvqeRSqvIEtmzhoA8.jpg", "popularity": 43.144}, {"id": 36955, "video": false, "vote_count": 2202, "vote_average": 6.9, "title": "True Lies", "release_date": "1994-07-15", "original_language": "en", "original_title": "True Lies", "genre_ids": [28, 53], "backdrop_path": "/o2agns0LEqyEUCByMT8ViIOio7r.jpg", "adult": false, "overview": "A fearless, globe-trotting, terrorist-battling secret agent has his life turned upside down when he discovers his wife might be having an affair with a used car salesman while terrorists smuggle nuclear war heads into the United States.", "poster_path": "/mTAHr5h5i64hTLqo0cW2X2083Cx.jpg", "popularity": 25.06}, {"id": 2320, "video": false, "vote_count": 457, "vote_average": 6.2, "title": "Executive Decision", "release_date": "1996-03-15", "original_language": "en", "original_title": "Executive Decision", "genre_ids": [28, 12, 18, 53], "backdrop_path": "/bjVntRO9QkAwm1HzTfH1nn1nOpn.jpg", "adult": false, "overview": "Terrorists hijack a 747 inbound to Washington D.C., demanding the the release of their imprisoned leader. Intelligence expert David Grant (Kurt Russell) suspects another reason and he is soon the reluctant member of a special assault team that is assigned to intercept the plane and hijackers.", "poster_path": "/wmgkFuEr8bHRAgs1HS5U46Rzo0I.jpg", "popularity": 11.941}, {"id": 612, "video": false, "vote_count": 1395, "vote_average": 7.1, "title": "Munich", "release_date": "2005-12-23", "original_language": "en", "original_title": "Munich", "genre_ids": [28, 18, 36, 53], "backdrop_path": "/4P5yVNTA3RWXLgXWPAxCWRTJ4le.jpg", "adult": false, "overview": "During the 1972 Olympic Games in Munich, eleven Israeli athletes are taken hostage and murdered by a Palestinian terrorist group known as Black September. In retaliation, the Israeli government recruits a group of Mossad agents to track down and execute those responsible for the attack.", "poster_path": "/7vVNo6KNonhUYYcT40Zb6QnxmY5.jpg", "popularity": 23.303}, {"id": 484638, "video": false, "vote_count": 94, "vote_average": 6.8, "title": "15 Minutes of War", "release_date": "2019-01-30", "original_language": "fr", "original_title": "L'intervention", "genre_ids": [28, 18, 36, 10752], "backdrop_path": "/enA3kSP3IHHrn3QIDxukikMIU9X.jpg", "adult": false, "overview": "February 1976. Somalian rebels hijack a school bus carrying 21 French children and their teacher in Djibouti City. When the terrorists drive it to a no-man\u2019s-land on the border between Somalia and French territory, the French Government sends out a newly formed elite squad to rescue the hostages. Within a few hours, the highly trained team arrives to the crisis area, where the Somalian National Army has taken position behind the barbed wire on the border. The French unit is left with very few options to rescue the hostages. As the volatile situation unravels, the French men quickly come up with a daring plan: carry out a simultaneous 5 men sniper attack to get the children and the teacher out safely. A true story.", "poster_path": "/mHXzqCiAmgVhhJscGJIQH94vac0.jpg", "popularity": 11.93}, {"id": 97630, "video": false, "vote_count": 2786, "vote_average": 6.9, "title": "Zero Dark Thirty", "release_date": "2012-12-19", "original_language": "en", "original_title": "Zero Dark Thirty", "genre_ids": [18, 36, 53], "backdrop_path": "/zy5hyStEkQyjZgYtvKzJQBr7MpJ.jpg", "adult": false, "overview": "A chronicle of the decade-long hunt for al-Qaeda terrorist leader Osama bin Laden after the September 2001 attacks, and his death at the hands of the Navy S.E.A.L. Team 6 in May, 2011.", "poster_path": "/yg6IDNucLAEj7E5loTyTnUW2pgb.jpg", "popularity": 18.903}, {"id": 433627, "video": false, "vote_count": 220, "vote_average": 5.8, "title": "7 Days in Entebbe", "release_date": "2018-03-15", "original_language": "en", "original_title": "7 Days in Entebbe", "genre_ids": [80, 18, 53], "backdrop_path": "/er6vh4AXzkRiXfLXSvn2eHXuxbp.jpg", "adult": false, "overview": "In 1976, four hijackers take over an Air France airplane en route from Tel Aviv to Paris and force it to land in Entebbe, Uganda. With 248 passengers on board, one of the most daring rescue missions ever is set in motion.", "poster_path": "/nrC63ikbK4jDp3knvBqxPoWYEMM.jpg", "popularity": 15.577}, {"id": 334074, "video": false, "vote_count": 630, "vote_average": 5.5, "title": "Survivor", "release_date": "2015-05-21", "original_language": "en", "original_title": "Survivor", "genre_ids": [28, 80, 53], "backdrop_path": "/tGxBYYSKSmBUpjSHDpRelsbNeBy.jpg", "adult": false, "overview": "A Foreign Service Officer in London tries to prevent a terrorist attack set to hit New York, but is forced to go on the run when she is framed for crimes she did not commit.", "poster_path": "/XtvR1aSph7X3wqrE2PY66IPzVi.jpg", "popularity": 20.787}, {"adult": false, "backdrop_path": "/sDiGcjWhSu42dCw0jQmBInAkDZ9.jpg", "genre_ids": [28, 53], "id": 379149, "original_language": "en", "original_title": "The Foreigner", "overview": "Quan is a humble London businessman whose long-buried past erupts in a revenge-fueled vendetta when the only person left for him to love \u2013 his teenage daughter \u2013 dies in a senseless act of politically-motivated terrorism. His relentless search to find the terrorists leads to a cat-and-mouse conflict with a British government official whose own past may hold the clues to the identities of the elusive killers.", "poster_path": "/rwM4hzrmc5HiWfQD9ls9DL4QgGl.jpg", "release_date": "2017-09-28", "title": "The Foreigner", "video": false, "vote_average": 6.7, "vote_count": 1248, "popularity": 19.835}, {"id": 1493, "video": false, "vote_count": 2184, "vote_average": 6.4, "title": "Miss Congeniality", "release_date": "2000-12-14", "original_language": "en", "original_title": "Miss Congeniality", "genre_ids": [28, 35, 80], "backdrop_path": "/p25mxAO1ArY8bgZX6Y7B2r3vo0k.jpg", "adult": false, "overview": "When the local FBI office receives a letter from a terrorist known only as 'The Citizen', it's quickly determined that he's planning his next act at the Miss America beauty pageant. Because tough-as-nails Gracie Hart is the only female Agent at the office, she's chosen to go undercover as the contestant from New Jersey.", "poster_path": "/7ujgPH708pOGvl2Y5IYvXeAGPC2.jpg", "popularity": 20.787}, {"adult": false, "backdrop_path": "/hb8brf5uYGt2t1qy33I5fHvmPkM.jpg", "genre_ids": [28], "id": 333669, "original_language": "en", "original_title": "Bastille Day", "overview": "Michael Mason is an American pickpocket living in Paris who finds himself hunted by the CIA when he steals a bag that contains more than just a wallet. Sean Briar, the field agent on the case, soon realises that Michael is just a pawn in a much bigger game and is also his best asset to uncover a large-scale conspiracy.", "poster_path": "/8QcOMU8vFSInSJ1kE7Naor7L2vM.jpg", "release_date": "2016-04-22", "title": "Bastille Day", "video": false, "vote_average": 6.1, "vote_count": 740, "popularity": 11.532}, {"adult": false, "backdrop_path": "/ieJ5ImFoJILNULvnIpbulAln7Lr.jpg", "genre_ids": [12, 28, 53, 878], "id": 14869, "original_language": "en", "original_title": "G.I. Joe: The Rise of Cobra", "overview": "From the Egyptian desert to deep below the polar ice caps, the elite G.I. JOE team uses the latest in next-generation spy and military equipment to fight the corrupt arms dealer Destro and the growing threat of the mysterious Cobra organization to prevent them from plunging the world into chaos.", "poster_path": "/29eW5c5DaCFQejdt9V14RrA51yD.jpg", "release_date": "2009-08-04", "title": "G.I. Joe: The Rise of Cobra", "video": false, "vote_average": 5.7, "vote_count": 3082, "popularity": 22.639}, {"id": 98566, "video": false, "vote_count": 4596, "vote_average": 5.8, "title": "Teenage Mutant Ninja Turtles", "release_date": "2014-08-07", "original_language": "en", "original_title": "Teenage Mutant Ninja Turtles", "genre_ids": [28, 12, 35, 14, 878], "backdrop_path": "/OqCXGt5nl1cHPeotxCDvXLLe6p.jpg", "adult": false, "overview": "The city needs heroes. Darkness has settled over New York City as Shredder and his evil Foot Clan have an iron grip on everything from the police to the politicians. The future is grim until four unlikely outcast brothers rise from the sewers and discover their destiny as Teenage Mutant Ninja Turtles. The Turtles must work with fearless reporter April and her wise-cracking cameraman Vern Fenwick to save the city and unravel Shredder's diabolical plan.", "poster_path": "/oDL2ryJ0sV2bmjgshVgJb3qzvwp.jpg", "popularity": 33.698}, {"id": 36557, "video": false, "vote_count": 6603, "vote_average": 7.4, "title": "Casino Royale", "release_date": "2006-11-14", "original_language": "en", "original_title": "Casino Royale", "genre_ids": [28, 12, 53], "backdrop_path": "/xq6hXdBpDPIXWjtmvbFmtLvBFJt.jpg", "adult": false, "overview": "Le Chiffre, a banker to the world's terrorists, is scheduled to participate in a high-stakes poker game in Montenegro, where he intends to use his winnings to establish his financial grip on the terrorist market. M sends Bond\u2014on his maiden mission as a 00 Agent\u2014to attend this game and prevent Le Chiffre from winning. With the help of Vesper Lynd and Felix Leiter, Bond enters the most important poker game in his already dangerous career.", "poster_path": "/zlWBxz2pTA9p45kUTrI8AQiKrHm.jpg", "popularity": 29.699}], "total_pages": 27, "total_results": 524}, "recommendations": {"page": 1, "results": [], "total_pages": 1, "total_results": 0}, "credits": {"cast": [{"cast_id": 1, "character": "Ryan Cooper", "credit_id": "52fe4deb9251416c75145749", "gender": 2, "id": 86602, "name": "Jerry Trimble", "order": 0, "profile_path": "/oDK7NCnz2z2BFV8YquEpj8PBwed.jpg"}, {"cast_id": 2, "character": "Helen Filmore", "credit_id": "52fe4deb9251416c7514574d", "gender": 1, "id": 184459, "name": "Jillian McWhirter", "order": 1, "profile_path": "/k7GuUTxgA3np96cavUoZfZpzkOh.jpg"}, {"cast_id": 3, "character": "Gerald Richter", "credit_id": "52fe4deb9251416c75145751", "gender": 2, "id": 26491, "name": "Vernon Wells", "order": 2, "profile_path": "/hmHycaQbFT6FsXv2KddmZUkptPI.jpg"}, {"cast_id": 5, "character": "Executive #4", "credit_id": "537395860e0a267c62001da3", "gender": 2, "id": 82832, "name": "Jim Kelly", "order": 3, "profile_path": "/ko3M5sVTr4Al7GZmOeLM1DIga0l.jpg"}, {"cast_id": 9, "character": "William Atkins", "credit_id": "5473c9bc9251413aab0006dc", "gender": 2, "id": 103595, "name": "Bob McFarland", "order": 4, "profile_path": "/eWUWQER26gc5Q4UnGlJlMRP5gFN.jpg"}], "crew": [{"credit_id": "52fe4deb9251416c75145757", "department": "Directing", "gender": 2, "id": 105084, "job": "Director", "name": "Cirio H. Santiago", "profile_path": "/kFo7Iw9tSiZgZoJ6nhknyOCXhi6.jpg"}, {"credit_id": "5473c97cc3a36845e50015cc", "department": "Writing", "gender": 0, "id": 1341756, "job": "Writer", "name": "Brendan Broderick", "profile_path": null}, {"credit_id": "5473c987c3a36875de0000a9", "department": "Writing", "gender": 2, "id": 69661, "job": "Writer", "name": "Rob Kerchner", "profile_path": null}, {"credit_id": "5473c9949251413aab0006d1", "department": "Writing", "gender": 0, "id": 981160, "job": "Writer", "name": "Mark Evan Schwartz", "profile_path": null}, {"credit_id": "552a42399251410876002fce", "department": "Production", "gender": 2, "id": 102429, "job": "Executive Producer", "name": "Roger Corman", "profile_path": "/6rFtY1r1SolTbdhqGj3ZuTcjg8U.jpg"}]}}