{"adult": false, "backdrop_path": null, "belongs_to_collection": null, "budget": 0, "genres": [{"id": 18, "name": "Drama"}, {"id": 80, "name": "Crime"}, {"id": 53, "name": "Thriller"}, {"id": 12, "name": "Adventure"}], "homepage": null, "id": 222600, "imdb_id": "tt0076374", "original_language": "en", "original_title": "Matin\u00e9e", "overview": "Jorge and Aar\u00f3n, two young boys growing up in a quiet town often miss classes to go together to the cinema matinee. One day they are kidnapped by robbers while traveling in a truck. After the disintegration of the band, they begin to participate in the robberies until the adventure turns into something more sinister and dangerous.", "popularity": 1.3, "poster_path": "/bbM8NVfrXgraXx8H1tI8atr0pig.jpg", "production_companies": [], "production_countries": [], "release_date": "1977-09-18", "revenue": 0, "runtime": 98, "spoken_languages": [{"iso_639_1": "es", "name": "Espa\u00f1ol"}], "status": "Released", "tagline": "", "title": "Matin\u00e9e", "video": false, "vote_average": 5.2, "vote_count": 3, "keywords": {"keywords": [{"id": 642, "name": "robbery"}, {"id": 6139, "name": "innocence"}, {"id": 10180, "name": "homosexuality"}, {"id": 157955, "name": "childhood"}]}, "similar": {"page": 1, "results": [{"adult": false, "backdrop_path": "/qs4P8THxjbMZYc9QuZvzN95KzBM.jpg", "genre_ids": [18, 53, 9648], "id": 184352, "original_language": "fr", "original_title": "Tom \u00e0 la ferme", "overview": "A young man travels to an isolated farm for his lover's funeral where he's quickly drawn into a twisted, sexually charged game by his lover's aggressive brother.", "poster_path": "/wS4oYOHEKva9sMLOHSr7tW19SaQ.jpg", "release_date": "2013-09-02", "title": "Tom at the Farm", "video": false, "vote_average": 6.9, "vote_count": 408, "popularity": 7.517}, {"id": 449176, "video": false, "vote_count": 3690, "vote_average": 8.1, "title": "Love, Simon", "release_date": "2018-02-16", "original_language": "en", "original_title": "Love, Simon", "genre_ids": [35, 18, 10749], "backdrop_path": "/rqMEeajyzSF4PpJtdCB816Iz8Vr.jpg", "adult": false, "overview": "Everyone deserves a great love story. But for seventeen-year old Simon Spier it's a little more complicated: he's yet to tell his family or friends he's gay and he doesn't know the identity of the anonymous classmate he's fallen for online.", "poster_path": "/5YUYg5q7QfC4IoNwNUtiwdiYKPr.jpg", "popularity": 24.849}, {"id": 21634, "video": false, "vote_count": 250, "vote_average": 7.9, "title": "Prayers for Bobby", "release_date": "2009-02-27", "original_language": "en", "original_title": "Prayers for Bobby", "genre_ids": [18, 36, 10770], "backdrop_path": "/pSjGsbqyKUzF8rHzL0vtVWV1pS6.jpg", "adult": false, "overview": "Bobby Griffith was his mother's favorite son, the perfect all-American boy growing up under deeply religious influences in Walnut Creek, California. Bobby was also gay. Struggling with a conflict no one knew of much less understood Bobby finally came out to his family.", "poster_path": "/d9TGJxEMkLTEF5lWAx1PLNDNpA0.jpg", "popularity": 11.874}, {"adult": false, "backdrop_path": "/oni8CXvEg56JhrfVdVUrQYOuhP0.jpg", "genre_ids": [80, 28, 53], "id": 55846, "original_language": "en", "original_title": "Blitz", "overview": "A tough, renegade cop with a gay sidekick is dispatched to take down a serial killer who has been targeting police officers.", "poster_path": "/woY0qY4DR6bPOQ7cBwyblePsYky.jpg", "release_date": "2011-05-20", "title": "Blitz", "video": false, "vote_average": 6.0, "vote_count": 861, "popularity": 20.522}, {"adult": false, "backdrop_path": "/qbrmEfBEcdrzHSAHgazJWmz3TSU.jpg", "genre_ids": [18], "id": 616229, "original_language": "en", "original_title": "The Male Gaze: The Heat of the Night", "overview": "When darkness falls, temperatures rise in these six stories about late night confessions, intimacy for sale, high speed hookups and full moon frissons. But when the sun comes up and reality reveals itself, will it have all been worth it?", "poster_path": "/e1gNLO829rkE73sBJ3aClZJHNXd.jpg", "release_date": "2019-07-15", "title": "The Male Gaze: The Heat of the Night", "video": false, "vote_average": 3.3, "vote_count": 3, "popularity": 13.056}, {"adult": false, "backdrop_path": "/useuHJQ5HOoEWkAvEjL1FW1sUfe.jpg", "genre_ids": [18], "id": 376867, "original_language": "en", "original_title": "Moonlight", "overview": "The tender, heartbreaking story of a young man\u2019s struggle to find himself, told across three defining chapters in his life as he experiences the ecstasy, pain, and beauty of falling in love, while grappling with his own sexuality.", "poster_path": "/qAwFbszz0kRyTuXmMeKQZCX3Q2O.jpg", "release_date": "2016-10-21", "title": "Moonlight", "video": false, "vote_average": 7.4, "vote_count": 4406, "popularity": 27.348}, {"id": 424694, "video": false, "vote_count": 9721, "vote_average": 8.0, "title": "Bohemian Rhapsody", "release_date": "2018-10-24", "original_language": "en", "original_title": "Bohemian Rhapsody", "genre_ids": [18, 10402], "backdrop_path": "/93xA62uLd5CwMOAs37eQ7vPc1iV.jpg", "adult": false, "overview": "Singer Freddie Mercury, guitarist Brian May, drummer Roger Taylor and bass guitarist John Deacon take the music world by storm when they form the rock 'n' roll band Queen in 1970. Hit songs become instant classics. When Mercury's increasingly wild lifestyle starts to spiral out of control, Queen soon faces its greatest challenge yet \u2013 finding a way to keep the band together amid the success and excess.", "poster_path": "/lHu1wtNaczFPGFDTrjCSzeLPTKN.jpg", "popularity": 40.186}, {"adult": false, "backdrop_path": "/stSaFz5CtMXwIj3r4MDjqxqWRot.jpg", "genre_ids": [18, 12], "id": 468, "original_language": "en", "original_title": "My Own Private Idaho", "overview": "In this loose adaptation of Shakespeare's \"Henry IV,\" Mike Waters is a gay hustler afflicted with narcolepsy. Scott Favor is the rebellious son of a mayor. Together, the two travel from Portland, Oregon to Idaho and finally to the coast of Italy in a quest to find Mike's estranged mother. Along the way they turn tricks for money and drugs, eventually attracting the attention of a wealthy benefactor and sexual deviant.", "poster_path": "/xgWJPruxsL2TGVwhZDM8YiarbEY.jpg", "release_date": "1991-02-01", "title": "My Own Private Idaho", "video": false, "vote_average": 7.1, "vote_count": 524, "popularity": 14.387}, {"id": 205596, "video": false, "vote_count": 11343, "vote_average": 8.1, "title": "The Imitation Game", "release_date": "2014-11-14", "original_language": "en", "original_title": "The Imitation Game", "genre_ids": [18, 36, 53, 10752], "backdrop_path": "/qcb6z1HpokTOKdjqDTsnjJk0Xvg.jpg", "adult": false, "overview": "Based on the real life story of legendary cryptanalyst Alan Turing, the film portrays the nail-biting race against time by Turing and his brilliant team of code-breakers at Britain's top-secret Government Code and Cypher School at Bletchley Park, during the darkest days of World War II.", "poster_path": "/noUp0XOqIcmgefRnRZa1nhtRvWO.jpg", "popularity": 40.743}, {"adult": false, "backdrop_path": "/t3Oea7KbSpOvuqddMnlFtZ4WHn.jpg", "genre_ids": [18, 53, 36], "id": 314365, "original_language": "en", "original_title": "Spotlight", "overview": "In 2001, editor Marty Baron of The Boston Globe assigns a team of journalists to investigate allegations against John Geoghan, an unfrocked priest accused of molesting more than 80 boys. Led by editor Walter \"Robby\" Robinson, reporters Michael Rezendes, Matt Carroll and Sacha Pfeiffer interview victims and try to unseal sensitive documents. The reporters make it their mission to provide proof of a cover-up of sexual abuse within the Roman Catholic Church.", "poster_path": "/ngKxbvsn9Si5TYVJfi1EGAGwThU.jpg", "release_date": "2015-11-06", "title": "Spotlight", "video": false, "vote_average": 7.8, "vote_count": 5408, "popularity": 22.049}, {"adult": false, "backdrop_path": "/cLOekK7EmHB1beYUYEXIlcr6mpS.jpg", "genre_ids": [10752, 36, 28, 12, 18, 10749], "id": 1966, "original_language": "en", "original_title": "Alexander", "overview": "Alexander, the King of Macedonia, leads his legions against the giant Persian Empire. After defeating the Persians, he leads his army across the then known world, venturing farther than any westerner had ever gone, all the way to India.", "poster_path": "/cJrnmbsFm5cEt0pHZZ2a1ueH5aT.jpg", "release_date": "2004-11-21", "title": "Alexander", "video": false, "vote_average": 5.8, "vote_count": 1987, "popularity": 24.267}, {"adult": false, "backdrop_path": "/3Z0GbJ3NKBEbotdHxsllRBKRMmj.jpg", "genre_ids": [18], "id": 472451, "original_language": "en", "original_title": "Boy Erased", "overview": "Jared, the son of a Baptist pastor in a small American town, is outed to his parents at age 19. Jared is faced with an ultimatum: attend a gay conversion therapy program \u2013 or be permanently exiled and shunned by his family, friends, and faith.", "poster_path": "/oZbhTdi0ZQY7iiSQ0L7h3ya6NDF.jpg", "release_date": "2018-09-24", "title": "Boy Erased", "video": false, "vote_average": 7.2, "vote_count": 653, "popularity": 13.81}, {"id": 968, "video": false, "vote_count": 1443, "vote_average": 7.8, "title": "Dog Day Afternoon", "release_date": "1975-08-11", "original_language": "en", "original_title": "Dog Day Afternoon", "genre_ids": [80, 18, 53], "backdrop_path": "/gsnPjs2XTBhYDNFgnlsDgjuauDO.jpg", "adult": false, "overview": "Based on the true story of would-be Brooklyn bank robbers John Wojtowicz and Salvatore Naturale. Sonny and Sal attempt a bank heist which quickly turns sour and escalates into a hostage situation and stand-off with the police. As Sonny's motives for the robbery are slowly revealed and things become more complicated, the heist turns into a media circus.", "poster_path": "/qgWuZ2yNJrclU8EldQG4rLhwMoy.jpg", "popularity": 12.037}, {"adult": false, "backdrop_path": "/4BMel8xxSed1pCkPSGc9R3jsUtC.jpg", "genre_ids": [18, 10749], "id": 142, "original_language": "en", "original_title": "Brokeback Mountain", "overview": "Two modern-day cowboys meet on a shepherding job in the summer of '63, the two share a raw and powerful summer together that turns into a lifelong relationship conflicting with the lives they are supposed to live.", "poster_path": "/z2DqVxj17aW6xpimRlCLfhKSfUm.jpg", "release_date": "2005-09-10", "title": "Brokeback Mountain", "video": false, "vote_average": 7.8, "vote_count": 3787, "popularity": 19.947}, {"id": 84892, "video": false, "vote_count": 6548, "vote_average": 7.7, "title": "The Perks of Being a Wallflower", "release_date": "2012-09-20", "original_language": "en", "original_title": "The Perks of Being a Wallflower", "genre_ids": [18], "backdrop_path": "/uhLcaTPeBpUNgYhZXhDWkj7gMkp.jpg", "adult": false, "overview": "15-year-old freshman Charlie is a wallflower, always watching life from the sidelines, until two charismatic senior students become his mentors. Free-spirited Sam and her stepbrother Patrick help Charlie discover the joys of friendship, first love, music and more, while a teacher sparks Charlie's dreams of becoming a writer.", "poster_path": "/cyNQLnHnXZcTUDXVVSEYmquOTOI.jpg", "popularity": 19.873}, {"adult": false, "backdrop_path": "/xhstSJACJF7QiO4zAsqAPXE1PbQ.jpg", "genre_ids": [18], "id": 306819, "original_language": "en", "original_title": "The Danish Girl", "overview": "When Gerda Wegener asks her husband Einar to fill in as a portrait model, Einar discovers the person she's meant to be and begins living her life as Lili Elbe. Having realized her true self and with Gerda's love and support, Lili embarks on a groundbreaking journey as a transgender pioneer.", "poster_path": "/seWQ6UKCrhGH0eP7dFZvmIBQtKF.jpg", "release_date": "2015-11-27", "title": "The Danish Girl", "video": false, "vote_average": 7.7, "vote_count": 4034, "popularity": 14.603}, {"adult": false, "backdrop_path": "/gZeJziVigmRqbkEZwKAtSqlLQ6s.jpg", "genre_ids": [18, 10749], "id": 370663, "original_language": "en", "original_title": "Below Her Mouth", "overview": "An unexpected affair quickly escalates into a heart-stopping reality for two women whose passionate connection changes their lives forever.", "poster_path": "/nTGbq37hYLuNy7YgMg0gVLma0NS.jpg", "release_date": "2016-09-10", "title": "Below Her Mouth", "video": false, "vote_average": 6.2, "vote_count": 456, "popularity": 22.676}, {"id": 9800, "video": false, "vote_count": 2301, "vote_average": 7.7, "title": "Philadelphia", "release_date": "1993-12-22", "original_language": "en", "original_title": "Philadelphia", "genre_ids": [18], "backdrop_path": "/eRlkgrUeaX8LsVMjqN9f6YYw9Dw.jpg", "adult": false, "overview": "Two competing lawyers join forces to sue a prestigious law firm for AIDS discrimination. As their unlikely friendship develops their courage overcomes the prejudice and corruption of their powerful adversaries.", "poster_path": "/nE9DLSKHDmfG7FvYvDW437n8txq.jpg", "popularity": 14.464}, {"id": 490132, "video": false, "vote_count": 5172, "vote_average": 8.3, "title": "Green Book", "release_date": "2018-11-16", "original_language": "en", "original_title": "Green Book", "genre_ids": [35, 18], "backdrop_path": "/78PjwaykLY2QqhMfWRDvmfbC6EV.jpg", "adult": false, "overview": "Tony Lip, a bouncer in 1962, is hired to drive pianist Don Shirley on a tour through the Deep South in the days when African Americans, forced to find alternate accommodations and services due to segregation laws below the Mason-Dixon Line, relied on a guide called The Negro Motorist Green Book.", "poster_path": "/7BsvSuDQuoqhWmU2fL7W2GOcZHU.jpg", "popularity": 35.522}, {"id": 507076, "video": false, "vote_count": 629, "vote_average": 7.1, "title": "Climax", "release_date": "2018-09-19", "original_language": "fr", "original_title": "Climax", "genre_ids": [18, 27, 10402], "backdrop_path": "/v0sblc9A8eaE8EqDQ5Y6fELj4oB.jpg", "adult": false, "overview": "Young dancers gather in a remote and empty school building to rehearse on a cold and wintry night. The all-night celebration soon turns into a hallucinatory nightmare when they learn that their sangria is laced with LSD.", "poster_path": "/zQDqgzSdTGSDu4rDcQTq7TAttmy.jpg", "popularity": 15.582}], "total_pages": 193, "total_results": 3848}, "recommendations": {"page": 1, "results": [], "total_pages": 1, "total_results": 0}, "credits": {"cast": [{"cast_id": 2, "character": "Aquiles", "credit_id": "52fe4df49251416c751468f7", "gender": 2, "id": 139576, "name": "H\u00e9ctor Bonilla", "order": 0, "profile_path": "/hJLMHwbFgh25yvSw0IgqQAC2Nco.jpg"}, {"cast_id": 3, "character": "Francisco", "credit_id": "52fe4df49251416c751468fb", "gender": 2, "id": 236686, "name": "Manuel Ojeda", "order": 1, "profile_path": "/61VZnT98JcBK6zIKmRt63R9P8UJ.jpg"}, {"cast_id": 4, "character": "Aar\u00f3n", "credit_id": "52fe4df49251416c751468ff", "gender": 0, "id": 1208042, "name": "Rodolfo Ch\u00e1vez Mart\u00ednez", "order": 2, "profile_path": null}, {"cast_id": 5, "character": "Jorge", "credit_id": "52fe4df49251416c75146903", "gender": 0, "id": 1208043, "name": "Armando Mart\u00edn Mart\u00ednez", "order": 3, "profile_path": null}, {"cast_id": 6, "character": "Don Pablo", "credit_id": "52fe4df49251416c75146907", "gender": 2, "id": 975334, "name": "Narciso Busquets", "order": 4, "profile_path": "/4iRKiaBw3CB4cSapOvJj5CM9Vgd.jpg"}, {"cast_id": 7, "character": "Do\u00f1a Herlinda", "credit_id": "52fe4df49251416c7514690b", "gender": 0, "id": 1208044, "name": "Maril\u00fa El\u00edzaga", "order": 5, "profile_path": null}, {"cast_id": 8, "character": "Adolfo", "credit_id": "52fe4df49251416c7514690f", "gender": 0, "id": 104393, "name": "Farnesio de Bernal", "order": 6, "profile_path": null}, {"cast_id": 10, "character": "Rolando", "credit_id": "52fe4df49251416c75146917", "gender": 0, "id": 1208046, "name": "Ernesto Ba\u00f1uelos", "order": 8, "profile_path": null}, {"cast_id": 11, "character": "Do\u00f1a Carmen", "credit_id": "52fe4df49251416c7514691b", "gender": 1, "id": 1016475, "name": "Evangelina Mart\u00ednez", "order": 9, "profile_path": "/x3Dil04TkeLIxAkZIsHHE6dFWf0.jpg"}, {"cast_id": 12, "character": "Ana Rosa", "credit_id": "52fe4df49251416c7514691f", "gender": 0, "id": 1071749, "name": "Magnolia Rivas", "order": 10, "profile_path": null}, {"cast_id": 13, "character": "Virgilio", "credit_id": "58b76122c3a3685c1d0003eb", "gender": 2, "id": 948427, "name": "C\u00e9sar Bono", "order": 11, "profile_path": "/n40pq3oXAkGlfE0xjY795Pq0eRq.jpg"}], "crew": [{"credit_id": "52fe4df49251416c751468f3", "department": "Directing", "gender": 2, "id": 1044178, "job": "Director", "name": "Jaime Humberto Hermosillo", "profile_path": "/9QoDG7y2z74VGPfWalkdjZ6WQlt.jpg"}]}}