{"adult": false, "backdrop_path": null, "belongs_to_collection": null, "budget": 0, "genres": [{"id": 99, "name": "Documentary"}], "homepage": null, "id": 22289, "imdb_id": "tt0342804", "original_language": "en", "original_title": "My Flesh and Blood", "overview": "My Flesh and Blood is a 2003 documentary film by Jonathan Karsh chronicling a year in the life of the Tom family. The Tom family is notable as the mother, Susan, adopted eleven children, most of whom had serious disabilities or diseases. The film itself is notable for handling the sensitive subject matter in an unsentimental way that is more uplifting than one might expect.", "popularity": 3.955, "poster_path": "/roS6MY3qFOb3kMVyIFFoxhwptwC.jpg", "production_companies": [], "production_countries": [{"iso_3166_1": "US", "name": "United States of America"}], "release_date": "2003-01-17", "revenue": 0, "runtime": 83, "spoken_languages": [{"iso_639_1": "en", "name": "English"}], "status": "Released", "tagline": "", "title": "My Flesh and Blood", "video": false, "vote_average": 8.0, "vote_count": 9, "keywords": {"keywords": [{"id": 2393, "name": "adoption"}, {"id": 34079, "name": "death"}, {"id": 158558, "name": "disabled"}, {"id": 158567, "name": "burn victim"}]}, "similar": {"page": 1, "results": [{"id": 9373, "video": false, "vote_count": 1413, "vote_average": 6.1, "title": "The Texas Chainsaw Massacre", "release_date": "2003-05-21", "original_language": "en", "original_title": "The Texas Chainsaw Massacre", "genre_ids": [27], "backdrop_path": "/3rTsJ7tIC3LUSRr80PfeLbbCfBA.jpg", "adult": false, "overview": "After picking up a traumatized young hitchhiker, five friends find themselves stalked and hunted by a deformed chainsaw-wielding killer and his family of equally psychopathic killers.", "poster_path": "/gx7FCIOFGxqNyplF3t7qtmUv55g.jpg", "popularity": 17.769}, {"adult": false, "backdrop_path": "/o4psXh7IVD6GFKvBSHjHLzjL2lV.jpg", "genre_ids": [27, 53], "id": 10781, "original_language": "en", "original_title": "The Texas Chainsaw Massacre: The Beginning", "overview": "Chrissie and her friends set out on a road trip for a final fling before one is shipped off to Vietnam. Along the way, bikers harass the foursome and cause an accident that throws Chrissie from the vehicle. The lawman who arrives on the scene kills one of the bikers and brings Chrissie's friends to the Hewitt homestead, where young Leatherface is learning the tools of terror.", "poster_path": "/9elCJIG1TOJ0wew3JVx5ZMkHq5w.jpg", "release_date": "2006-10-06", "title": "The Texas Chainsaw Massacre: The Beginning", "video": false, "vote_average": 6.0, "vote_count": 935, "popularity": 18.392}, {"adult": false, "backdrop_path": "/zWGAnbxjjwY3xFGuOeR26LGbBlG.jpg", "genre_ids": [27, 53], "id": 238636, "original_language": "en", "original_title": "The Purge: Anarchy", "overview": "One night per year, the government sanctions a 12-hour period in which citizens can commit any crime they wish -- including murder -- without fear of punishment or imprisonment. Leo, a sergeant who lost his son, plans a vigilante mission of revenge during the mayhem. However, instead of a death-dealing avenger, he becomes the unexpected protector of four innocent strangers who desperately need his help if they are to survive the night.", "poster_path": "/l1DRl40x2OWUoPP42v8fjKdS1Z3.jpg", "release_date": "2014-07-17", "title": "The Purge: Anarchy", "video": false, "vote_average": 6.6, "vote_count": 4141, "popularity": 32.533}, {"id": 473149, "video": false, "vote_count": 194, "vote_average": 5.9, "title": "Traffik", "release_date": "2018-04-20", "original_language": "en", "original_title": "Traffik", "genre_ids": [27, 53], "backdrop_path": "/wbk9VvJ8lkUF0ElpfRm3dFIzMJf.jpg", "adult": false, "overview": "A couple off for a romantic weekend in the mountains are accosted by a biker gang. Alone in the mountains, Brea and John must defend themselves against the gang, who will stop at nothing to protect their secrets.", "poster_path": "/e2Z466e9402RFP6wxRMfXYYiJHA.jpg", "popularity": 22.593}, {"adult": false, "backdrop_path": "/rPfyX0pkmn8Ea4gh3DfsmzFUf05.jpg", "genre_ids": [18, 27, 80], "id": 74997, "original_language": "en", "original_title": "The Human Centipede 2 (Full Sequence)", "overview": "Inspired by the fictional Dr. Heiter, disturbed loner Martin dreams of creating a 12-person centipede and sets out to realize his sick fantasy.", "poster_path": "/kFtAdkCO0vXN2RWu2oMcR9GZ9Hi.jpg", "release_date": "2011-10-06", "title": "The Human Centipede 2 (Full Sequence)", "video": false, "vote_average": 4.5, "vote_count": 674, "popularity": 18.07}, {"adult": false, "backdrop_path": "/n7rXLeKo28a3Rxiyg9MQBoX7heX.jpg", "genre_ids": [27, 9648], "id": 22804, "original_language": "en", "original_title": "Saw VI", "overview": "Special Agent Strahm is dead, and Detective Hoffman has emerged as the unchallenged successor to Jigsaw's legacy. However, when the FBI draws closer to Hoffman, he is forced to set a game into motion, and Jigsaw's grand scheme is finally understood.", "poster_path": "/1gTXWIrtrnKJOkxxSXopknT92zz.jpg", "release_date": "2009-10-22", "title": "Saw VI", "video": false, "vote_average": 6.2, "vote_count": 1733, "popularity": 16.504}, {"id": 489064, "video": false, "vote_count": 102, "vote_average": 6.1, "title": "3 from Hell", "release_date": "2019-09-26", "original_language": "en", "original_title": "3 from Hell", "genre_ids": [80, 27, 53], "backdrop_path": "/18XnA53LlUcfMsOyuN4JeeXBKI9.jpg", "adult": false, "overview": "After barely surviving a furious shootout with the police, Baby Firefly, Otis Driftwood and Captain Spaulding are behind bars. But pure evil cannot be contained. Teaming up with Otis\u2019 half-brother Winslow, the demented Firefly clan escape to unleash a whole new wave of murder, madness and mayhem.", "poster_path": "/wWWjBJbORsB9xt17eXmYEYhinux.jpg", "popularity": 13.452}, {"adult": false, "backdrop_path": "/8DkJrxEyRN8gTseEhajybpC5smK.jpg", "genre_ids": [27], "id": 10585, "original_language": "en", "original_title": "Child's Play", "overview": "A single mother gives her son a beloved doll for his birthday, only to discover that it is possessed by the soul of a serial killer.", "poster_path": "/dSX9i2buibfyKFRpK2kOe6rtl5R.jpg", "release_date": "1988-11-08", "title": "Child's Play", "video": false, "vote_average": 6.5, "vote_count": 1415, "popularity": 17.31}, {"adult": false, "backdrop_path": "/kiWvoV78Cc3fUwkOHKzyBgVdrDD.jpg", "genre_ids": [37, 18, 12], "id": 281957, "original_language": "en", "original_title": "The Revenant", "overview": "In the 1820s, a frontiersman, Hugh Glass, sets out on a path of vengeance against those who left him for dead after a bear mauling.", "poster_path": "/oXUWEc5i3wYyFnL1Ycu8ppxxPvs.jpg", "release_date": "2015-12-25", "title": "The Revenant", "video": false, "vote_average": 7.5, "vote_count": 12122, "popularity": 30.491}, {"id": 391757, "video": false, "vote_count": 185, "vote_average": 6.5, "title": "Never Back Down: No Surrender", "release_date": "2016-06-07", "original_language": "en", "original_title": "Never Back Down: No Surrender", "genre_ids": [28, 18], "backdrop_path": "/pzjnObK3uiHcKwiir9OPPWzbW8f.jpg", "adult": false, "overview": "Picking up after the events of Never Back Down 2, former MMA champion Case Walker is on the comeback trail to become champion once again.", "poster_path": "/dYNS4o4Q4DDLiKRAAvZ9KcrhHuy.jpg", "popularity": 16.224}, {"adult": false, "backdrop_path": "/8ybSuxeEkFoMKMY9lkzzC4tBaI6.jpg", "genre_ids": [18], "id": 334541, "original_language": "en", "original_title": "Manchester by the Sea", "overview": "After his older brother passes away, Lee Chandler is forced to return home to care for his 16-year-old nephew. There he is compelled to deal with a tragic past that separated him from his family and the community where he was born and raised.", "poster_path": "/e8daDzP0vFOnGyKmve95Yv0D0io.jpg", "release_date": "2016-11-18", "title": "Manchester by the Sea", "video": false, "vote_average": 7.5, "vote_count": 3528, "popularity": 15.119}, {"id": 398181, "video": false, "vote_count": 1301, "vote_average": 6.6, "title": "You Were Never Really Here", "release_date": "2017-11-08", "original_language": "en", "original_title": "You Were Never Really Here", "genre_ids": [53], "backdrop_path": "/h4Lk8Cgfvlzz0hcnSJBTAOwNDia.jpg", "adult": false, "overview": "A traumatised veteran, unafraid of violence, tracks down missing girls for a living. When a job spins out of control, Joe's nightmares overtake him as a conspiracy is uncovered leading to what may be his death trip or his awakening.", "poster_path": "/ktPbjD6nYg5NxmeTt72Iqaw5GD0.jpg", "popularity": 19.651}, {"id": 458594, "video": false, "vote_count": 983, "vote_average": 6.5, "title": "Peppermint", "release_date": "2018-09-06", "original_language": "en", "original_title": "Peppermint", "genre_ids": [28, 53], "backdrop_path": "/9krZX6T4EEs5eFpXgSi8jZkN48O.jpg", "adult": false, "overview": "A grieving mother transforms herself into a vigilante following the murders of her husband and daughter, eluding the authorities to deliver her own personal brand of justice.", "poster_path": "/jrzxS0vcbzIIay1sdYm0rgI2QfJ.jpg", "popularity": 25.2}, {"id": 339692, "video": false, "vote_count": 1163, "vote_average": 6.9, "title": "Shot Caller", "release_date": "2017-07-13", "original_language": "en", "original_title": "Shot Caller", "genre_ids": [80, 18, 53], "backdrop_path": "/hehboYLXB3m90x9ybiBsupwuifL.jpg", "adult": false, "overview": "A newly-released prison gangster is forced by the leaders of his gang to orchestrate a major crime with a brutal rival gang on the streets of Southern California.", "poster_path": "/qLmLz2wtyYvmW8Ult3l2ngOnW8v.jpg", "popularity": 25.016}, {"adult": false, "backdrop_path": "/sDiGcjWhSu42dCw0jQmBInAkDZ9.jpg", "genre_ids": [28, 53], "id": 379149, "original_language": "en", "original_title": "The Foreigner", "overview": "Quan is a humble London businessman whose long-buried past erupts in a revenge-fueled vendetta when the only person left for him to love \u2013 his teenage daughter \u2013 dies in a senseless act of politically-motivated terrorism. His relentless search to find the terrorists leads to a cat-and-mouse conflict with a British government official whose own past may hold the clues to the identities of the elusive killers.", "poster_path": "/rwM4hzrmc5HiWfQD9ls9DL4QgGl.jpg", "release_date": "2017-09-28", "title": "The Foreigner", "video": false, "vote_average": 6.7, "vote_count": 1247, "popularity": 20.765}, {"id": 442249, "video": false, "vote_count": 2156, "vote_average": 5.8, "title": "The First Purge", "release_date": "2018-07-04", "original_language": "en", "original_title": "The First Purge", "genre_ids": [28, 27, 878, 53], "backdrop_path": "/r4clWIxKeWoqrHspQP0XunuUmB7.jpg", "adult": false, "overview": "To push the crime rate below one percent for the rest of the year, the New Founding Fathers of America test a sociological theory that vents aggression for one night in one isolated community. But when the violence of oppressors meets the rage of the others, the contagion will explode from the trial-city borders and spread across the nation.", "poster_path": "/litjsBoiydO6JlO70uOX4N3WnNL.jpg", "popularity": 27.168}, {"adult": false, "backdrop_path": "/19qAk3bQZ6ulspbwhPw1A0bNpii.jpg", "genre_ids": [80, 27, 53], "id": 73861, "original_language": "sr", "original_title": "Srpski film", "overview": "Milos, a retired porn star, leads a normal family life trying to make ends meet. Presented with the opportunity of a lifetime to financially support his family for the rest of their lives, Milos must participate in one last mysterious film. From then on, Milos is drawn into a maelstrom of unbelievable cruelty and mayhem.", "poster_path": "/iB3ynCghwG63MrViBC6YyPzUIAn.jpg", "release_date": "2010-06-16", "title": "A Serbian Film", "video": false, "vote_average": 5.5, "vote_count": 898, "popularity": 15.06}, {"id": 681, "video": false, "vote_count": 1040, "vote_average": 6.4, "title": "Diamonds Are Forever", "release_date": "1971-12-13", "original_language": "en", "original_title": "Diamonds Are Forever", "genre_ids": [28, 12, 53], "backdrop_path": "/gIGLXXvsljHK1jdDNaIXsjhZnnH.jpg", "adult": false, "overview": "Diamonds are stolen only to be sold again in the international market. James Bond infiltrates a smuggling mission to find out who\u2019s guilty. The mission takes him to Las Vegas where Bond meets his archenemy Blofeld.", "poster_path": "/viPjZ3JCOahcfNCcVhiPExusJoZ.jpg", "popularity": 20.883}, {"id": 23483, "video": false, "vote_count": 8160, "vote_average": 7.1, "title": "Kick-Ass", "release_date": "2010-03-22", "original_language": "en", "original_title": "Kick-Ass", "genre_ids": [28, 80], "backdrop_path": "/ngPkB9K8ZpIjv8HpIC8ExqAfG6H.jpg", "adult": false, "overview": "Dave Lizewski is an unnoticed high school student and comic book fan who one day decides to become a super-hero, even though he has no powers, training or meaningful reason to do so.", "poster_path": "/gtfggr5n3ED1neoTqVYmsVCoSS.jpg", "popularity": 17.344}, {"id": 82507, "video": false, "vote_count": 3231, "vote_average": 6.8, "title": "Sinister", "release_date": "2012-03-29", "original_language": "en", "original_title": "Sinister", "genre_ids": [27, 9648, 53], "backdrop_path": "/lAdRfK0Clun517bq5V0meoIx7SG.jpg", "adult": false, "overview": "Found footage helps a true-crime novelist realize how and why a family was murdered in his new home, though his discoveries put his entire family in the path of a supernatural entity.", "poster_path": "/hrRYY7FcRc46Ue7h9jcKiW1xqJ3.jpg", "popularity": 13.284}], "total_pages": 31, "total_results": 605}, "recommendations": {"page": 1, "results": [{"id": 164337, "video": false, "vote_count": 5, "vote_average": 6.0, "title": "Apaches", "release_date": "1977-01-01", "original_language": "en", "original_title": "Apaches", "genre_ids": [28, 12, 18, 27, 37], "backdrop_path": "/bYGNsqWxjQzOQ26RVrq9mbJoZJ6.jpg", "adult": false, "overview": "A group of children play at being \"Apaches\" on an English farm, ignoring all safety precautions. One by one they die a variety of gruesome deaths.", "poster_path": "/rE4qDutjIyk64PR3zKP4mEX1Aaa.jpg", "popularity": 1.929}, {"adult": false, "backdrop_path": null, "genre_ids": [99], "id": 240547, "original_language": "en", "original_title": "One Got Fat", "overview": "This bicycle-safety film shows children what can happen when bicycles are driven carelessly and recklessly.", "poster_path": "/fjNdwHwLpoM4ovyktAanO6HJ290.jpg", "release_date": "1963-12-01", "title": "One Got Fat", "video": false, "vote_average": 6.8, "vote_count": 8, "popularity": 1.671}, {"adult": false, "backdrop_path": "/qK1GzOI04GuwvNHBJO4pDZQFug3.jpg", "genre_ids": [16, 35], "id": 270929, "original_language": "en", "original_title": "Apocalypse Pooh", "overview": "A mash-up of scenes from Winnie-the-Pooh cartoons overlain with dialogue from Apocalypse Now.", "poster_path": "/inStL5PNMxBi8URb5w4XgB9QzVB.jpg", "release_date": "1987-03-09", "title": "Apocalypse Pooh", "video": false, "vote_average": 6.3, "vote_count": 3, "popularity": 1.558}, {"adult": false, "backdrop_path": "/nonHBqZWvJ9RPlrIb6E8KFAa3AL.jpg", "genre_ids": [16, 10751, 14], "id": 100684, "original_language": "en", "original_title": "Where the Wild Things Are", "overview": "A young boy named Max who, after dressing in his wolf costume, wreaks such havoc through his household that he is sent to bed without his supper. Max's bedroom undergoes a mysterious transformation into a jungle environment, and he winds up sailing to an island inhabited by malicious beasts known as the \"Wild Things.\" After successfully intimidating the creatures, Max is hailed as the king of the Wild Things and enjoys a playful romp with his subjects. However, he starts to feel lonely and decides to return home, to the Wild Things' dismay. Upon returning to his bedroom, Max discovers a hot supper waiting for him.", "poster_path": "/uhUsuwsmiHNk8u4DnRorq4BofxH.jpg", "release_date": "1975-10-01", "title": "Where the Wild Things Are", "video": false, "vote_average": 7.1, "vote_count": 7, "popularity": 2.304}, {"adult": false, "backdrop_path": null, "genre_ids": [99], "id": 194085, "original_language": "en", "original_title": "Akrobatisches Potpourri", "overview": "Eight circus performers known as the Grunato family perform their famous balancing act.", "poster_path": "/fojcvoRPjXa9P2PXSSYkuvyN6ge.jpg", "release_date": "1895-11-01", "title": "Akrobatisches Potpourri", "video": false, "vote_average": 4.5, "vote_count": 8, "popularity": 2.104}, {"adult": false, "backdrop_path": "/hHWWjk6vnATBBUrlzAZ8DttvUyH.jpg", "genre_ids": [99], "id": 249994, "original_language": "en", "original_title": "The Smell of Burning Ants", "overview": "A haunting documentary on the pains of growing up male. It explores the inner and outer cruelties that boys perpetrate and endure. The film provokes the viewer to reflect on how our society can deprive boys of wholeness.", "poster_path": "/sNzzUTgdxUaeP0fW4KYDAnidPjy.jpg", "release_date": "1994-03-15", "title": "The Smell of Burning Ants", "video": false, "vote_average": 5.5, "vote_count": 10, "popularity": 1.937}, {"adult": false, "backdrop_path": null, "genre_ids": [99], "id": 119210, "original_language": "en", "original_title": "Lonely Boy", "overview": "This short film portrays the story of singer Paul Anka, who rose from obscurity to become the idol of millions of adolescent fans around the world. Taking a candid look at both sides of the footlights, this film examines the marketing machine behind a generation of pop singers. Interviews with Anka and his manager reveal their perspective on the industry.", "poster_path": "/2DuqAlej6vofajtdwhqEjnVoEHx.jpg", "release_date": "1962-01-01", "title": "Lonely Boy", "video": false, "vote_average": 7.2, "vote_count": 5, "popularity": 1.635}, {"adult": false, "backdrop_path": null, "genre_ids": [], "id": 152921, "original_language": "en", "original_title": "Removed", "overview": "Starting with a piece of vintage porn, filmmaker Naomi Uman painstakingly removed each female figure from the footage using nail polish remover, leaving a striking absence where there's usually a fleshy presence. Uman's celebrated film is a smart retort to pornography's obsessive gaze at the female body.", "poster_path": "/agmej3jx6Rguot0tdhVfxzwd8Fi.jpg", "release_date": "1999-12-17", "title": "Removed", "video": false, "vote_average": 6.8, "vote_count": 8, "popularity": 0.884}, {"adult": false, "backdrop_path": null, "genre_ids": [18, 27], "id": 284393, "original_language": "en", "original_title": "The Spirit of Dark and Lonely Water", "overview": "Warning children not to play near 'dark and lonely' water, a horror film style look and voice-over is used in this film to highlight the dangers.", "poster_path": "/sP6t9c73EQqT3Dq6aXD70ZoFndp.jpg", "release_date": "1973-01-01", "title": "The Spirit of Dark and Lonely Water", "video": false, "vote_average": 5.7, "vote_count": 7, "popularity": 2.587}, {"adult": false, "backdrop_path": "/hxVZH8OksJ16LAR7jAx0wOMKXEV.jpg", "genre_ids": [28, 53], "id": 93082, "original_language": "en", "original_title": "The Finishing Line", "overview": "When a schoolboy's day-dream of a fantasy sports day includes events where acts of vandalism and trespass are required, dire consequences ensue. Originally created as an educational film, this somewhat surrealist short has a serious message at its core. This won't be a lesson you'll forget in a hurry.", "poster_path": "/5WhV7Xp0utvkvwMuvKzv1PxRH4W.jpg", "release_date": "1977-01-29", "title": "The Finishing Line", "video": false, "vote_average": 5.5, "vote_count": 6, "popularity": 3.351}, {"adult": false, "backdrop_path": "/iEDMg1OmFLk0ZGKeiHXK27RERpW.jpg", "genre_ids": [99], "id": 45115, "original_language": "en", "original_title": "A Certain Kind of Death", "overview": "Unblinking and unsettling, this documentary lays bare a mysterious process that goes on all around us - what happens to people who die with no next of kin.", "poster_path": "/6Jma3S2MiM1YYoGo3jNaFYVnlnD.jpg", "release_date": "2003-01-01", "title": "A Certain Kind of Death", "video": false, "vote_average": 7.3, "vote_count": 13, "popularity": 3.942}, {"adult": false, "backdrop_path": "/rX0xPkPvOwmSGaeNGn8HwpNwiiU.jpg", "genre_ids": [18], "id": 84328, "original_language": "en", "original_title": "Red Hook Summer", "overview": "When his mom deposits him at the Red Hook housing project in Brooklyn to spend the summer with the grandfather he\u2019s never met, young Flik may as well have landed on Mars. Fresh from his cushy life in Atlanta, he\u2019s bored and friendless, and his strict grandfather, Enoch, a firebrand preacher, is bent on getting him to accept Jesus Christ as his personal savior. Only Chazz, the feisty girl from church, provides a diversion from the drudgery. As hot summer simmers and Sunday mornings brim with Enoch\u2019s operatic sermons, things turn anything but dull as people\u2019s conflicting agendas collide.", "poster_path": "/eIPxN2if1LeafOKHiAWc9U4gU6R.jpg", "release_date": "2012-08-10", "title": "Red Hook Summer", "video": false, "vote_average": 6.9, "vote_count": 10, "popularity": 3.594}, {"adult": false, "backdrop_path": "/nr5befSvGAX2504s3X4JXy4gzwQ.jpg", "genre_ids": [99], "id": 62325, "original_language": "en", "original_title": "Bhutto", "overview": "BHUTTO is the definitive documentary that chronicles the life of one of the most complex and fascinating characters of our time. Hers is an epic tale of Shakespearean dimension. It\u2019s the story of the first woman in history to lead a Muslim nation: Pakistan. Newsweek called it the most dangerous place in the world, and the home of nuclear war heads and the Taliban.", "poster_path": "/ssy5veD8Axd5YmsID0CELA9XWdJ.jpg", "release_date": "2010-11-05", "title": "Bhutto", "video": false, "vote_average": 5.6, "vote_count": 7, "popularity": 2.098}, {"adult": false, "backdrop_path": "/wgDtH2xMovOPoArymRjJ09kdJ6v.jpg", "genre_ids": [99], "id": 37985, "original_language": "en", "original_title": "The Trials Of Darryl Hunt", "overview": "\"The Trials of Darryl Hunt\" is a feature documentary about a brutal rape/murder case and a wrongly convicted man, Darryl Hunt, who spent nearly twenty years in prison for a crime he did not commit. Both a social justice story and a personally driven narrative, the film chronicles this capital case from 1984 through 2004. With exclusive footage from two decades, the film frames the judicial and emotional response to a chilling crime - and the implications that reverberate from Hunt's conviction - against a backdrop of class and racial bias in the South and in the American criminal justice system.", "poster_path": "/xCzLoQaNWuFViAtcWY5BR5I5OzC.jpg", "release_date": "2007-06-15", "title": "The Trials Of Darryl Hunt", "video": false, "vote_average": 8.3, "vote_count": 9, "popularity": 2.25}, {"adult": false, "backdrop_path": "/9jQ1HfaioDfPqlGD52cpTEDi3Sq.jpg", "genre_ids": [99], "id": 29044, "original_language": "en", "original_title": "Street Fight", "overview": "This documentary follows the 2002 mayoral campaign in Newark, New Jersey, in which a City Councilman, Cory Booker, attempted to unseat longtime mayor Sharpe James.", "poster_path": "/1abhRslbpFUSCLD5S4cA3nvu4Kx.jpg", "release_date": "2005-01-01", "title": "Street Fight", "video": false, "vote_average": 7.8, "vote_count": 13, "popularity": 2.848}, {"adult": false, "backdrop_path": "/gLd4L49bg5MwUg1MEvbeu6GU0lU.jpg", "genre_ids": [99], "id": 54714, "original_language": "en", "original_title": "The Trials of Henry Kissinger", "overview": "This riveting documentary depicts former Secretary of State Henry Kissinger as a warmonger responsible for military cover-ups in Vietnam, Cambodia and East Timor, as well as the assassination of a Chilean leader in 1970. Based on a book by journalist Christopher Hitchens, the film includes interviews with historians, political analysts and such journalists as New York Times writer William Safire, a former Nixon speechwriter.", "poster_path": "/5jcedJWL0tR4nSCkIGuWMSKBloX.jpg", "release_date": "2002-09-29", "title": "The Trials of Henry Kissinger", "video": false, "vote_average": 7.4, "vote_count": 14, "popularity": 1.736}, {"adult": false, "backdrop_path": "/uYEyrtr8qhb4orbSx7a9Fpx54a0.jpg", "genre_ids": [9648, 28, 53], "id": 26836, "original_language": "sr", "original_title": "\u010cetvrti \u010dovek", "overview": "A man awakens from a two-month-long coma. Total amnesia. A bullet fired point blank. He doesn't remember anything. He's told that he had a wife and a son. They've been killed. He's revealed his past identity by the Colonel, who insists they are best friends. He's a Major of the Military Security Agency. An inspector from the State Security Agency appears affirming that he has information on people responsible for the massacre of his family. The Major is discharged from the hospital. He tries to patch together a normal life but is confronted with emptiness and despair. His only chance of discovering his identity and the assassin of his family is to accept the game that the Inspector has set up for him with the Businessman, the Mafioso and the Politician. He agrees... Discovers that he was a war criminal... Realizes who took a shot at him... Finds out who killed his family... Discovers the Fourth Man!", "poster_path": "/yOkfdOVi7QP3juBsBCr22s2LicP.jpg", "release_date": "2007-02-20", "title": "The Fourth Man", "video": false, "vote_average": 6.9, "vote_count": 11, "popularity": 3.225}, {"id": 49471, "video": false, "vote_count": 22, "vote_average": 7.5, "title": "Get on the Bus", "release_date": "1996-10-16", "original_language": "en", "original_title": "Get on the Bus", "genre_ids": [18], "backdrop_path": "/vG7EBc8csI95HCjh5GaOWTKpndq.jpg", "adult": false, "overview": "Several Black men take a cross-country bus trip to attend the Million Man March in Washington, DC in 1995. On the bus are an eclectic set of characters including a laid-off aircraft worker, a man whose at-risk son is handcuffed to him, a black Republican, a former gangsta, a Hollywood actor, a cop who is of mixed racial background, and a white bus driver. All make the trek discussing issues surrounding the march, including manhood, religion, politics, and race.", "poster_path": "/12DglJ2V73pcrPpsvIKkGycVGJM.jpg", "popularity": 4.999}, {"adult": false, "backdrop_path": "/911iHWnZKyfFtIMXzoQq9ub7MI8.jpg", "genre_ids": [99, 10749], "id": 26336, "original_language": "en", "original_title": "Crazy Love", "overview": "The bizarre true story of Linda Riss and Burt Pugach.", "poster_path": "/ipQ8SZe6aIFnTI8uoWRXfQH4eYT.jpg", "release_date": "2007-11-22", "title": "Crazy Love", "video": false, "vote_average": 6.8, "vote_count": 18, "popularity": 4.283}], "total_pages": 1, "total_results": 19}, "credits": {"cast": [{"cast_id": 1001, "character": "Herself", "credit_id": "52fe443bc3a368484e017193", "gender": 0, "id": 556516, "name": "Susan Tom", "order": 0, "profile_path": null}, {"cast_id": 1002, "character": "Himself", "credit_id": "52fe443bc3a368484e017197", "gender": 2, "id": 556517, "name": "Anthony Tom", "order": 1, "profile_path": null}, {"cast_id": 1003, "character": "Herself", "credit_id": "52fe443bc3a368484e01719b", "gender": 0, "id": 556518, "name": "Faith Tom", "order": 2, "profile_path": null}], "crew": [{"credit_id": "52fe443bc3a368484e01718f", "department": "Directing", "gender": 0, "id": 550044, "job": "Director", "name": "Jonathan Karsh", "profile_path": null}]}}