{"adult": false, "backdrop_path": null, "belongs_to_collection": null, "budget": 0, "genres": [{"id": 53, "name": "Thriller"}, {"id": 878, "name": "Science Fiction"}], "homepage": null, "id": 222872, "imdb_id": "tt0120200", "original_language": "en", "original_title": "Starquest II", "overview": "Sci-fi thriller directed by Fred Gallo.", "popularity": 2.057, "poster_path": "/kYRubwfzgCk9IM3MyJtslCGO1TH.jpg", "production_companies": [{"id": 30376, "logo_path": null, "name": "The Pacific Trust", "origin_country": ""}], "production_countries": [{"iso_3166_1": "US", "name": "United States of America"}], "release_date": "1996-01-01", "revenue": 0, "runtime": null, "spoken_languages": [], "status": "Released", "tagline": "", "title": "Starquest II", "video": false, "vote_average": 3.0, "vote_count": 3, "keywords": {"keywords": [{"id": 1612, "name": "spacecraft"}, {"id": 9951, "name": "alien"}]}, "similar": {"page": 1, "results": [{"adult": false, "backdrop_path": "/hZzwIHyVAZ5goljYRuq66CWc5GY.jpg", "genre_ids": [878, 53, 27], "id": 20424, "original_language": "en", "original_title": "Invaders from Mars", "overview": "In the early hours of the night, young David Maclean sees a flying saucer land and disappear into the sand dunes just beyond his house. Slowly, all of the adults, including his once loving parents, begin to act strangely.", "poster_path": "/tafnBTKqr5EFxDt8TTD9tHUx6YB.jpg", "release_date": "1953-04-22", "title": "Invaders from Mars", "video": false, "vote_average": 6.1, "vote_count": 84, "popularity": 9.943}, {"id": 602, "video": false, "vote_count": 6006, "vote_average": 6.8, "title": "Independence Day", "release_date": "1996-06-25", "original_language": "en", "original_title": "Independence Day", "genre_ids": [28, 12, 878], "backdrop_path": "/4E2xKGrU2qcqUE2S3Nl27hwZdqy.jpg", "adult": false, "overview": "On July 2, a giant alien mothership enters orbit around Earth and deploys several dozen saucer-shaped 'destroyer' spacecraft that quickly lay waste to major cities around the planet. On July 3, the United States conducts a coordinated counterattack that fails. On July 4, a plan is devised to gain access to the interior of the alien mothership in space, in order to plant a nuclear missile.", "poster_path": "/bqLlWZJdhrS0knfEJRkquW7L8z2.jpg", "popularity": 20.636}, {"id": 831, "video": false, "vote_count": 84, "vote_average": 6.0, "title": "This Island Earth", "release_date": "1955-06-01", "original_language": "en", "original_title": "This Island Earth", "genre_ids": [12, 27, 878], "backdrop_path": "/r9IybbpoLnCaiRkBVBEC7XU4mTN.jpg", "adult": false, "overview": "Aliens have landed and are hiding on Earth, but need Earth\u2019s scientists to help them fight an inter-planetary war.", "poster_path": "/dNNZSjrWWwgllcYtQCeo0M5FPdp.jpg", "popularity": 11.136}, {"id": 8077, "video": false, "vote_count": 3112, "vote_average": 6.3, "title": "Alien\u00b3", "release_date": "1992-05-22", "original_language": "en", "original_title": "Alien\u00b3", "genre_ids": [28, 27, 878], "backdrop_path": "/nDPuIjpJyGDOnNEby5ZgkRBxymS.jpg", "adult": false, "overview": "After escaping with Newt and Hicks from the alien planet, Ripley crash lands on Fiorina 161, a prison planet and host to a correctional facility. Unfortunately, although Newt and Hicks do not survive the crash, a more unwelcome visitor does. The prison does not allow weapons of any kind, and with aid being a long time away, the prisoners must simply survive in any way they can.", "poster_path": "/p7mUd9GpmCYV5qhkKGmiEerFK3i.jpg", "popularity": 25.873}, {"id": 126889, "video": false, "vote_count": 5389, "vote_average": 5.9, "title": "Alien: Covenant", "release_date": "2017-05-09", "original_language": "en", "original_title": "Alien: Covenant", "genre_ids": [27, 878, 53], "backdrop_path": "/6jajFcaY2YsfGQstJ5HaqZNVseX.jpg", "adult": false, "overview": "Bound for a remote planet on the far side of the galaxy, the crew of the colony ship 'Covenant' discovers what is thought to be an uncharted paradise, but is actually a dark, dangerous world\u2014which has a sole inhabitant: the 'synthetic', David, survivor of the doomed Prometheus expedition.", "poster_path": "/zecMELPbU5YMQpC81Z8ImaaXuf9.jpg", "popularity": 36.026}, {"adult": false, "backdrop_path": "/dfNrZ82poQ8blHWJreIv6JZQ9JA.jpg", "genre_ids": [27, 878], "id": 348, "original_language": "en", "original_title": "Alien", "overview": "During its return to the earth, commercial spaceship Nostromo intercepts a distress signal from a distant planet. When a three-member team of the crew discovers a chamber containing thousands of eggs on the planet, a creature inside one of the eggs attacks an explorer. The entire crew is unaware of the impending nightmare set to descend upon them when the alien parasite planted inside its unfortunate host is birthed.", "poster_path": "/2h00HrZs89SL3tXB4nbkiM7BKHs.jpg", "release_date": "1979-05-25", "title": "Alien", "video": false, "vote_average": 8.1, "vote_count": 8383, "popularity": 41.028}, {"id": 228161, "video": false, "vote_count": 2570, "vote_average": 6.7, "title": "Home", "release_date": "2015-03-18", "original_language": "en", "original_title": "Home", "genre_ids": [16, 35, 14, 878, 10751], "backdrop_path": "/6HoS2Hzcye4xGowSLTf0Pox43QW.jpg", "adult": false, "overview": "When Earth is taken over by the overly-confident Boov, an alien race in search of a new place to call home, all humans are promptly relocated, while all Boov get busy reorganizing the planet. But when one resourceful girl, Tip, manages to avoid capture, she finds herself the accidental accomplice of a banished Boov named Oh. The two fugitives realize there\u2019s a lot more at stake than intergalactic relations as they embark on the road trip of a lifetime.", "poster_path": "/b7czgMTk5txqLr2UczBb0Wez77E.jpg", "popularity": 18.709}, {"adult": false, "backdrop_path": "/y97xS60jrTzOmDb2jwB0IP57qig.jpg", "genre_ids": [878], "id": 2067, "original_language": "en", "original_title": "Mission to Mars", "overview": "When contact is lost with the crew of the first Mars expedition, a rescue mission is launched to discover their fate.", "poster_path": "/i0VuEfR5n1rPzlMX4eJdXaYWd5J.jpg", "release_date": "2000-03-10", "title": "Mission to Mars", "video": false, "vote_average": 5.9, "vote_count": 746, "popularity": 14.926}, {"adult": false, "backdrop_path": "/iA5RfBnIzzpvwDPy5LHPrUKRl71.jpg", "genre_ids": [12, 878, 10770], "id": 12914, "original_language": "en", "original_title": "Stargate: Continuum", "overview": "Ba'al travels back in time and prevents the Stargate program from being started. SG-1 must somehow restore history.", "poster_path": "/tk1jYOK6DRvBHAoHCueUVL3RSEe.jpg", "release_date": "2008-07-29", "title": "Stargate: Continuum", "video": false, "vote_average": 7.0, "vote_count": 238, "popularity": 10.628}, {"id": 49529, "video": false, "vote_count": 3606, "vote_average": 6.1, "title": "John Carter", "release_date": "2012-03-07", "original_language": "en", "original_title": "John Carter", "genre_ids": [28, 12, 878], "backdrop_path": "/2eDepJWMMBHmZ7pt9MSqzGQeoDc.jpg", "adult": false, "overview": "John Carter is a war-weary, former military captain who's inexplicably transported to the mysterious and exotic planet of Barsoom (Mars) and reluctantly becomes embroiled in an epic conflict. It's a world on the brink of collapse, and Carter rediscovers his humanity when he realizes the survival of Barsoom and its people rests in his hands.", "poster_path": "/4QDBNt9PmxqUH4Ab2R5xKWqzXiQ.jpg", "popularity": 20.92}, {"id": 828, "video": false, "vote_count": 557, "vote_average": 7.5, "title": "The Day the Earth Stood Still", "release_date": "1951-09-17", "original_language": "en", "original_title": "The Day the Earth Stood Still", "genre_ids": [878], "backdrop_path": "/uExEupzfV7Ffau0H98aefUU0zcG.jpg", "adult": false, "overview": "An alien and a robot land on earth after World War II and tell mankind to be peaceful or face destruction. A classic science fiction film from Robert Wise with an exceptional message.", "poster_path": "/x2DquTpLTq54aPFDnqlwY7apCC3.jpg", "popularity": 30.427}, {"id": 49849, "video": false, "vote_count": 3363, "vote_average": 5.5, "title": "Cowboys & Aliens", "release_date": "2011-07-29", "original_language": "en", "original_title": "Cowboys & Aliens", "genre_ids": [28, 878, 53, 37], "backdrop_path": "/gTDwoJBCu7scwYQoykIlLNpkCes.jpg", "adult": false, "overview": "A stranger stumbles into the desert town of Absolution with no memory of his past and a futuristic shackle around his wrist. With the help of mysterious beauty Ella and the iron-fisted Colonel Dolarhyde, he finds himself leading an unlikely posse of cowboys, outlaws, and Apache warriors against a common enemy from beyond this world in an epic showdown for survival.", "poster_path": "/9uZsGCP4rvOHVGCpMpYq5gNCuNI.jpg", "popularity": 21.609}, {"id": 54138, "video": false, "vote_count": 6599, "vote_average": 7.3, "title": "Star Trek Into Darkness", "release_date": "2013-05-05", "original_language": "en", "original_title": "Star Trek Into Darkness", "genre_ids": [28, 12, 878], "backdrop_path": "/ns0IojuqJe24AHTxe8RVcWJUCDM.jpg", "adult": false, "overview": "When the crew of the Enterprise is called back home, they find an unstoppable force of terror from within their own organization has detonated the fleet and everything it stands for, leaving our world in a state of crisis.  With a personal score to settle, Captain Kirk leads a manhunt to a war-zone world to capture a one man weapon of mass destruction. As our heroes are propelled into an epic chess game of life and death, love will be challenged, friendships will be torn apart, and sacrifices must be made for the only family Kirk has left: his crew.", "poster_path": "/41mhrXASAW3sdn7LBWF49uCX0xi.jpg", "popularity": 22.476}, {"adult": false, "backdrop_path": "/xATZyEpnZ0Z0iO9z5K8RZsraGKI.jpg", "genre_ids": [878, 18], "id": 840, "original_language": "en", "original_title": "Close Encounters of the Third Kind", "overview": "After an encounter with UFOs, a line worker feels undeniably drawn to an isolated area in the wilderness where something spectacular is about to happen.", "poster_path": "/3Av8ZPiMrxFq9XiOjZl0tkoq9Oo.jpg", "release_date": "1977-11-16", "title": "Close Encounters of the Third Kind", "video": false, "vote_average": 7.4, "vote_count": 2289, "popularity": 38.059}, {"id": 7453, "video": false, "vote_count": 2556, "vote_average": 6.7, "title": "The Hitchhiker's Guide to the Galaxy", "release_date": "2005-04-28", "original_language": "en", "original_title": "The Hitchhiker's Guide to the Galaxy", "genre_ids": [12, 35, 878, 10751], "backdrop_path": "/kMf3ewax3ZeiSESaPQxBAReQzDD.jpg", "adult": false, "overview": "Mere seconds before the Earth is to be demolished by an alien construction crew, Arthur Dent is swept off the planet by his friend Ford Prefect, a researcher penning a new edition of \"The Hitchhiker's Guide to the Galaxy.\"", "poster_path": "/fOb4cJMhnZ11BoHNUii3Vcfo3XU.jpg", "popularity": 23.951}, {"id": 157336, "video": false, "vote_count": 20609, "vote_average": 8.3, "title": "Interstellar", "release_date": "2014-11-05", "original_language": "en", "original_title": "Interstellar", "genre_ids": [12, 18, 878], "backdrop_path": "/xu9zaAevzQ5nnrsXN6JcahLnG4i.jpg", "adult": false, "overview": "Interstellar chronicles the adventures of a group of explorers who make use of a newly discovered wormhole to surpass the limitations on human space travel and conquer the vast distances involved in an interstellar voyage.", "poster_path": "/nBNZadXqJSdt05SHLqgT0HuC5Gm.jpg", "popularity": 53.312}, {"id": 339964, "video": false, "vote_count": 4615, "vote_average": 6.6, "title": "Valerian and the City of a Thousand Planets", "release_date": "2017-07-20", "original_language": "en", "original_title": "Valerian and the City of a Thousand Planets", "genre_ids": [28, 12, 878], "backdrop_path": "/5rYnygKCkmqWuMv1O5yAnzGF8gV.jpg", "adult": false, "overview": "In the 28th century, Valerian and Laureline are special operatives charged with keeping order throughout the human territories. On assignment from the Minister of Defense, the two undertake a mission to Alpha, an ever-expanding metropolis where species from across the universe have converged over centuries to share knowledge, intelligence, and cultures. At the center of Alpha is a mysterious dark force which threatens the peaceful existence of the City of a Thousand Planets, and Valerian and Laureline must race to identify the menace and safeguard not just Alpha, but the future of the universe.", "poster_path": "/jfIpMh79fGRqYJ6PwZLCntzgxlF.jpg", "popularity": 40.036}, {"id": 19995, "video": false, "vote_count": 20117, "vote_average": 7.4, "title": "Avatar", "release_date": "2009-12-10", "original_language": "en", "original_title": "Avatar", "genre_ids": [28, 12, 14, 878], "backdrop_path": "/aHcth2AXzZSjhX7JYh7ie73YVNc.jpg", "adult": false, "overview": "In the 22nd century, a paraplegic Marine is dispatched to the moon Pandora on a unique mission, but becomes torn between following orders and protecting an alien civilization.", "poster_path": "/kmcqlZGaSh20zpTbuoF0Cdn07dT.jpg", "popularity": 39.174}, {"adult": false, "backdrop_path": "/8Oh2vix3eqZkdgvkbK4Ya7pamxA.jpg", "genre_ids": [27, 878], "id": 27179, "original_language": "en", "original_title": "It! The Terror from Beyond Space", "overview": "In 1973, the first manned expedition to Mars is marooned; by the time a rescue mission arrives, there is only one survivor: the leader, Col. Edward Carruthers, who appears to have murdered the others! According to Carruthers, an unknown life form killed his comrades during a sandstorm. But the skeptical rescuers little suspect that \"it\" has stowed away for the voyage back to Earth...", "poster_path": "/noY7r59VAMiXiP6CreeR7IKHGOi.jpg", "release_date": "1958-07-31", "title": "It! The Terror from Beyond Space", "video": false, "vote_average": 6.0, "vote_count": 52, "popularity": 5.045}, {"adult": false, "backdrop_path": "/e7cpUuhjkzuzss1CJHqEKpTNQqW.jpg", "genre_ids": [878, 10751, 35, 12, 16], "id": 16866, "original_language": "en", "original_title": "Planet 51", "overview": "When Earth astronaut Capt. Chuck Baker arrives on Planet 51 -- a world reminiscent of American suburbia circa 1950 -- he tries to avoid capture, recover his spaceship and make it home safely, all with the help of an empathetic little green being.", "poster_path": "/x7Itcg3ZdExKwdKguy73WPEqosW.jpg", "release_date": "2009-11-19", "title": "Planet 51", "video": false, "vote_average": 5.7, "vote_count": 1222, "popularity": 14.917}], "total_pages": 71, "total_results": 1403}, "recommendations": {"page": 1, "results": [{"adult": false, "backdrop_path": "/f85NEZcZsHgffuXbofUeuJnxRBl.jpg", "genre_ids": [27, 878], "id": 119592, "original_language": "en", "original_title": "Nightmare Weekend", "overview": "A female scientist performs experiments on three college girls that turn them into drooling, murderous mutants.", "poster_path": "/z0gwiY1fE1zOTw7cvLEar0Ou87i.jpg", "release_date": "1986-01-01", "title": "Nightmare Weekend", "video": false, "vote_average": 2.5, "vote_count": 8, "popularity": 1.776}, {"id": 39889, "video": false, "vote_count": 17, "vote_average": 6.6, "title": "The Candy Snatchers", "release_date": "1973-06-01", "original_language": "en", "original_title": "The Candy Snatchers", "genre_ids": [80, 18, 53], "backdrop_path": "/wscBs1ytePjFSRsmULo2F7FkgFa.jpg", "adult": false, "overview": "An abused autistic boy is the sole witness to the kidnapping of a teenage heiress.", "poster_path": "/5fkVeonY3IDt4juvFpUjAY3m3qd.jpg", "popularity": 4.313}], "total_pages": 1, "total_results": 2}, "credits": {"cast": [{"cast_id": 1, "character": "Lee", "credit_id": "52fe4dff9251416c75147f0b", "gender": 2, "id": 2059, "name": "Adam Baldwin", "order": 0, "profile_path": "/vhZ8AD36h09mBLuyIXboglRLgIu.jpg"}, {"cast_id": 2, "character": "Father O'Neill", "credit_id": "52fe4dff9251416c75147f0f", "gender": 2, "id": 5139, "name": "Robert Englund", "order": 1, "profile_path": "/h4LEgXsvbfmIbwktkiGWNwwtr8q.jpg"}, {"cast_id": 3, "character": "Cpl. Charles Devon", "credit_id": "52fe4dff9251416c75147f13", "gender": 2, "id": 62032, "name": "Duane Davis", "order": 2, "profile_path": "/t9tcFEEbffaD64VZdsc0qwnPnr9.jpg"}, {"cast_id": 5, "character": "Trit", "credit_id": "53739611c3a36815200014e0", "gender": 2, "id": 86602, "name": "Jerry Trimble", "order": 3, "profile_path": "/oDK7NCnz2z2BFV8YquEpj8PBwed.jpg"}, {"cast_id": 9, "character": "Susan", "credit_id": "54888f5692514151fa001c70", "gender": 1, "id": 149542, "name": "Kate Rodger", "order": 4, "profile_path": "/nIzWa91b6dZLtKmeRrmE3MQbdbU.jpg"}, {"cast_id": 10, "character": "Carrie", "credit_id": "54888f66c3a368414b001b56", "gender": 1, "id": 119884, "name": "Gretchen Palmer", "order": 5, "profile_path": "/zrupLLjzcwAq7lG4APZtLvYKON8.jpg"}, {"cast_id": 11, "character": "Jenna", "credit_id": "57e6dbab925141413f00cb81", "gender": 1, "id": 102691, "name": "Jeannie Millar", "order": 6, "profile_path": "/A7CL63gKIaKgsAoA7VSENc6aCUo.jpg"}, {"cast_id": 12, "character": "Cpl. Kelly", "credit_id": "57e6dbbac3a368351e008ffe", "gender": 1, "id": 166965, "name": "Jolie Jackunas", "order": 7, "profile_path": null}, {"cast_id": 13, "character": "Flashback Dancer (uncredited)", "credit_id": "57e6dbc5925141413f00cb93", "gender": 1, "id": 97880, "name": "Maria Ford", "order": 8, "profile_path": "/gvdUFforg6OTJm8H22bHev1zFRU.jpg"}, {"cast_id": 14, "character": "Flashback Dancer (uncredited)", "credit_id": "57e6dbd2c3a3684743001932", "gender": 1, "id": 99759, "name": "Shauna O'Brien", "order": 9, "profile_path": "/4pMUyTCgbZPfT8WT9Pv7RbehoKC.jpg"}], "crew": [{"credit_id": "54888e7e92514151ff002364", "department": "Directing", "gender": 0, "id": 106750, "job": "Director", "name": "Fred Gallo", "profile_path": null}, {"credit_id": "54888e9192514151fd001c20", "department": "Writing", "gender": 0, "id": 106750, "job": "Screenplay", "name": "Fred Gallo", "profile_path": null}]}}