{"adult": false, "backdrop_path": null, "belongs_to_collection": null, "budget": 0, "genres": [{"id": 18, "name": "Drama"}], "homepage": null, "id": 223150, "imdb_id": "tt0067725", "original_language": "en", "original_title": "Secrets", "overview": "A woman's unfulfilling marriage leads her into a passionate affair with a wealthy extramarital lover.", "popularity": 1.795, "poster_path": "/8mIHLSsRKD7IeRIyEuMlKWbjYZG.jpg", "production_companies": [{"id": 43957, "logo_path": null, "name": "Satori Films", "origin_country": "FR"}], "production_countries": [{"iso_3166_1": "GB", "name": "United Kingdom"}], "release_date": "1971-09-21", "revenue": 0, "runtime": 92, "spoken_languages": [{"iso_639_1": "en", "name": "English"}], "status": "Released", "tagline": "Jacqueline Bisset As You've Never Seen Her Before!", "title": "Secrets", "video": false, "vote_average": 5.3, "vote_count": 6, "keywords": {"keywords": [{"id": 596, "name": "adultery"}, {"id": 2983, "name": "passion"}, {"id": 4320, "name": "lover"}, {"id": 6038, "name": "marriage"}, {"id": 190370, "name": "erotic movie"}]}, "similar": {"page": 1, "results": [{"adult": false, "backdrop_path": "/tMxCVvecIGr2mxpFt6XISKQTghD.jpg", "genre_ids": [18, 10749, 53], "id": 36630, "original_language": "en", "original_title": "Zandalee", "overview": "Bored with her marriage to burnt out poet turned corporate executive Thierry, Zandalee falls prey to an old friend of her husband, the manipulative and egotistical Johhny and becomes enmeshed in a sensual, passionate and destructive affair.", "poster_path": "/2htCUPJ6IsosO44lbN5XLfjDDhR.jpg", "release_date": "1991-05-09", "title": "Zandalee", "video": false, "vote_average": 4.2, "vote_count": 36, "popularity": 9.206}, {"adult": false, "backdrop_path": "/Ao2bnJMmcFepMVw1BUay25tt7TM.jpg", "genre_ids": [18, 10749], "id": 1259, "original_language": "en", "original_title": "Notes on a Scandal", "overview": "A veteran high school teacher befriends a younger art teacher, who is having an affair with one of her 15-year-old students. However, her intentions with this new \"friend\" also go well beyond platonic friendship.", "poster_path": "/lXZa1mHZ8eD0VOpNaLfvM9tSpAj.jpg", "release_date": "2006-12-25", "title": "Notes on a Scandal", "video": false, "vote_average": 7.1, "vote_count": 463, "popularity": 12.753}, {"adult": false, "backdrop_path": "/84kMxZoaw958LrBNqSQqxFJEDXI.jpg", "genre_ids": [18, 10749], "id": 27066, "original_language": "it", "original_title": "L'uomo che guarda", "overview": "At a college in Rome, a professor, nicknamed \"Dodo\" is in a deep depression. His stunningly beautiful wife has just left him for another man. Dodo wants her back very badly and has erotic daydreams about her. A beautiful young student in his class asks him for a ride home and seduces the lucky man, but still he wonders about his wife and her lover.", "poster_path": "/ndMErDbUC7lSiKoWeUfzdMs3OpV.jpg", "release_date": "1994-01-27", "title": "The Voyeur", "video": false, "vote_average": 4.4, "vote_count": 82, "popularity": 11.247}, {"adult": false, "backdrop_path": "/bYbnlh6VXFRtcSX82UMDsBDLB5j.jpg", "genre_ids": [18, 10749], "id": 28468, "original_language": "it", "original_title": "La chiave", "overview": "After twenty years of marriage, art professor Nino Rolfe attempts to break down his wife Teresa's conventional modesty. Noticing her affection for their daughter's fianc\u00e9, Nino instigates her sexual interest in him as well. This sets off a chain of unexpected events and emotional complications, as Nino and his unpredictable fascist daughter find that they both enjoy being jealous.", "poster_path": "/e6g2geNLgFzMbriH6EvSJZD78nx.jpg", "release_date": "1983-10-18", "title": "The Key", "video": false, "vote_average": 5.0, "vote_count": 128, "popularity": 15.363}, {"id": 12531, "video": false, "vote_count": 91, "vote_average": 6.9, "title": "The Apartment", "release_date": "1996-07-27", "original_language": "fr", "original_title": "L'Appartement", "genre_ids": [18, 9648, 10749], "backdrop_path": "/64qyT8m4JQ6YODvXxtbHgKmXBX7.jpg", "adult": false, "overview": "A stylish suspense thriller that confounds the audience while presenting them with an extraordinary and elusive mystery. Max is a former playboy who has decided to settle down by marrying his current love, Muriel. However, during a business trip, Max catches a glimpse of the great lost love of his life, reviving his wanderlust and sending him off on a chase of the elusive Lisa, whom he had overheard suggesting to a friend that her lover, Daniel, had killed someone for her. Soon, Max is trying to unravel the mystery behind the suspicious death of Daniel's wife, which he hopes will lead him closer to Lisa.", "poster_path": "/1sqrQdQTn8jKLhUcPKfRVj639zA.jpg", "popularity": 19.17}, {"adult": false, "backdrop_path": "/ecREZ3vYCqethftSDWK4we0X498.jpg", "genre_ids": [35, 18, 10749], "id": 4507, "original_language": "es", "original_title": "Jam\u00f3n, jam\u00f3n", "overview": "Jose Luis is an executive at his parents underwear factory where his girlfriend Sylvia works on the shop floor. When Sylvia becomes pregnant, Jose Luis promises her that he will marry her, most likely against the wishes of his parents. Jose Luis' mother is determined to break her son's engagement to a girl from a lower-class family, and hires Raul, a potential underwear model and would-be bullfighter to seduce Sylvia.", "poster_path": "/v5Fq01ZtYnA2Grxdd3g8CuGZARg.jpg", "release_date": "1992-09-03", "title": "Jamon Jamon", "video": false, "vote_average": 6.1, "vote_count": 143, "popularity": 13.381}, {"adult": false, "backdrop_path": "/tk6QB32plylH41eo2Pbv4sIVljO.jpg", "genre_ids": [18], "id": 50270, "original_language": "it", "original_title": "Paprika", "overview": "A young country girl comes to town and works in a brothel in order to help her fiance get the money to start his own business. \"Paprika\" is the name given to her by the madam.", "poster_path": "/6QthFTJvUheocw3fcKklnsMcGib.jpg", "release_date": "1991-02-13", "title": "Paprika", "video": false, "vote_average": 5.9, "vote_count": 81, "popularity": 19.933}, {"id": 394723, "video": false, "vote_count": 101, "vote_average": 6.4, "title": "The Red Thread", "release_date": "2016-05-19", "original_language": "es", "original_title": "El Hilo Rojo", "genre_ids": [18, 10749], "backdrop_path": "/6tLQvTzYhSBgS0xS9cjIu2SBTOs.jpg", "adult": false, "overview": "Seven years after their first infatuated encounter, Abril and Manuel meet again. Despite the fact that they are both married, it is soon apparent that their attraction has only grown.", "poster_path": "/bQfSIreXxSilnDJFOKhZzdN58ZK.jpg", "popularity": 10.707}, {"id": 4588, "video": false, "vote_count": 301, "vote_average": 7.1, "title": "Lust, Caution", "release_date": "2007-09-28", "original_language": "zh", "original_title": "\u8272\u2027\u6212", "genre_ids": [28, 18, 53, 10749], "backdrop_path": "/xpNWY9tLtsn5jNTqu4BITfMmeRy.jpg", "adult": false, "overview": "During World War II a secret agent must seduce, then assassinate an official who works for the Japanese puppet government in Shanghai. Her mission becomes clouded when she finds herself falling in love with the man she is assigned to kill.", "poster_path": "/1voAijiJYzN3pNyo90ffd6WOKik.jpg", "popularity": 14.917}, {"id": 263472, "video": false, "vote_count": 1669, "vote_average": 5.0, "title": "Knock Knock", "release_date": "2015-06-26", "original_language": "en", "original_title": "Knock Knock", "genre_ids": [18, 53], "backdrop_path": "/gJduaRau3X2oE3xkmjs1FufT2GE.jpg", "adult": false, "overview": "When a devoted husband and father is left home alone for the weekend, two stranded young women unexpectedly knock on his door for help. What starts out as a kind gesture results in a dangerous seduction and a deadly game of cat and mouse.", "poster_path": "/eynMtjBB1fXsB5vsQylVmsDLmvw.jpg", "popularity": 19.205}, {"id": 521, "video": false, "vote_count": 1257, "vote_average": 8.0, "title": "Dial M for Murder", "release_date": "1954-05-29", "original_language": "en", "original_title": "Dial M for Murder", "genre_ids": [80, 18, 9648, 53], "backdrop_path": "/jVMlfESb0TJ29w8CUDDofEprMmn.jpg", "adult": false, "overview": "An ex-tennis pro carries out a plot to have his wife murdered after discovering she is having an affair, and assumes she will soon leave him for the other man anyway. When things go wrong, he improvises a new plan\u2014to frame her for murder instead.", "poster_path": "/xrpK1PyckNWmRxU4kZURfaCyboS.jpg", "popularity": 28.336}, {"adult": false, "backdrop_path": "/xC9cG6Wy6QbH2hoAx11xPPD995R.jpg", "genre_ids": [18, 10749], "id": 86331, "original_language": "fr", "original_title": "Q", "overview": "In a social context deteriorated by a countrywide economic crisis, the life of several people will be turned upside down after they meet Cecile, a character who symbolizes desire.", "poster_path": "/9Jg9s4yTEndNmy1SSXRF9jdxY9D.jpg", "release_date": "2011-09-14", "title": "Desire", "video": false, "vote_average": 4.6, "vote_count": 204, "popularity": 25.756}, {"adult": false, "backdrop_path": "/98ahnrena4PwLth7HFYGLf9yssH.jpg", "genre_ids": [35, 18, 10749], "id": 22705, "original_language": "it", "original_title": "Tra(sgre)dire", "overview": "While scouting out apartments in London for her Venetian boyfriend, Carla rents an apartment that overlooks the Thames. There she meet the lesbian hyper-horny real estate agent Moira.", "poster_path": "/kZITrLEiTfzzJhtwtXhQUl3ImCQ.jpg", "release_date": "2000-01-28", "title": "Cheeky", "video": false, "vote_average": 5.7, "vote_count": 92, "popularity": 30.42}, {"adult": false, "backdrop_path": "/gZeJziVigmRqbkEZwKAtSqlLQ6s.jpg", "genre_ids": [18, 10749], "id": 370663, "original_language": "en", "original_title": "Below Her Mouth", "overview": "An unexpected affair quickly escalates into a heart-stopping reality for two women whose passionate connection changes their lives forever.", "poster_path": "/nTGbq37hYLuNy7YgMg0gVLma0NS.jpg", "release_date": "2016-09-10", "title": "Below Her Mouth", "video": false, "vote_average": 6.2, "vote_count": 456, "popularity": 22.676}, {"id": 10995, "video": false, "vote_count": 255, "vote_average": 6.6, "title": "The Lover", "release_date": "1992-02-22", "original_language": "fr", "original_title": "L'Amant", "genre_ids": [18, 10749], "backdrop_path": "/zRAgf1F0rRp0Tys8AnMWGBFJRZv.jpg", "adult": false, "overview": "A poor French teenage girl engages in an illicit affair with a wealthy Chinese heir in 1920s Saigon. For the first time in her young life she has control, and she wields it deftly over her besotted lover throughout a series of clandestine meetings and torrid encounters.", "poster_path": "/iey1UA4hav2cn60qGi1zgKxpPBl.jpg", "popularity": 13.161}, {"adult": false, "backdrop_path": "/4mW43spzqUaE2hx9t72SP1rLVGz.jpg", "genre_ids": [35, 18], "id": 32868, "original_language": "en", "original_title": "The Vicious Kind", "overview": "A man tries to warn his brother away from the new girlfriend he brings home during Thanksgiving, but ends up becoming infatuated with her in the process.", "poster_path": "/oJ2fX0JJ99dpyjkU0N1XRyw7XCE.jpg", "release_date": "2009-01-17", "title": "The Vicious Kind", "video": false, "vote_average": 6.3, "vote_count": 67, "popularity": 6.134}, {"adult": false, "backdrop_path": "/zA1Tv2C2wXeDSWfn3S8XdElqDFG.jpg", "genre_ids": [35, 18], "id": 37265, "original_language": "it", "original_title": "Cos\u00ec fan tutte", "overview": "Diana is a Roman wife happily married to sympathetic Paolo but she is keen on playing benign games of seduction with other men while resisting the advances of chic lingerie shop owner Silvio. She narrates her adventures to Paolo in order to stimulate their otherwise monotonous sexual life. However, under the influence of her lesbian friend Antonietta and raunchy sister Nadia, Diana starts to move the ongoings further while Paolo is still prone to believing that events narrated by her are merely fantasies.", "poster_path": "/h5xsSUCkXCd0696K5A9hkmgaERE.jpg", "release_date": "1992-02-21", "title": "All Ladies Do It", "video": false, "vote_average": 4.2, "vote_count": 207, "popularity": 9.964}, {"id": 35685, "video": false, "vote_count": 30, "vote_average": 5.3, "title": "Lady Chatterley's Lover", "release_date": "1981-06-29", "original_language": "en", "original_title": "Lady Chatterley's Lover", "genre_ids": [18, 10749], "backdrop_path": "/xVJ9VCXvRIwWWjt1x0GvMV0bV3e.jpg", "adult": false, "overview": "A film adaptation of D.H. Lawrence's novel. After a crippling injury leaves her husband impotent, Lady Chatterly is torn between her love for her husband and her physical desires. With her husband's consent, she seeks out other means of fulfilling her needs.", "poster_path": "/kUfYxFkRotm3frocEf0A25rXawV.jpg", "popularity": 9.336}, {"adult": false, "backdrop_path": "/w2KDvs7D0E6yDGESrAeJ0tzimSA.jpg", "genre_ids": [35, 18], "id": 44564, "original_language": "en", "original_title": "The Dilemma", "overview": "Longtime friends Ronny and Nick are partners in an auto-design firm. They are hard at work on a presentation for a dream project that would really launch their company. Then Ronny spots Nick's wife out with another man, and in the process of investigating the possible affair, he learns that Nick has a few secrets of his own. As the presentation nears, Ronny agonizes over what might happen if the truth gets out.", "poster_path": "/wMwKQBOrlz3KN3QLIFj65hyJw9B.jpg", "release_date": "2011-01-13", "title": "The Dilemma", "video": false, "vote_average": 5.4, "vote_count": 542, "popularity": 10.815}, {"adult": false, "backdrop_path": "/fODNcRUif6WCYpPCJeL3q3zo7lc.jpg", "genre_ids": [18, 53, 10749], "id": 4823, "original_language": "en", "original_title": "Final Analysis", "overview": "Barr is a psychiatrist who falls in love with the sister of one of his clients. She's beautiful and married to a gangster. She hates her husband but is unable to escape from him.", "poster_path": "/e8fXQhLhgSbPd9zKNQPiAS8O8qW.jpg", "release_date": "1992-02-07", "title": "Final Analysis", "video": false, "vote_average": 5.6, "vote_count": 123, "popularity": 11.463}], "total_pages": 282, "total_results": 5633}, "recommendations": {"page": 1, "results": [{"adult": false, "backdrop_path": "/2E8kdPvC5gSlS9rcIGHc57FE4C4.jpg", "genre_ids": [10749, 18], "id": 47646, "original_language": "en", "original_title": "The Grasshopper", "overview": "A British Columbia teenager dreams of show business but winds up as a call girl in Las Vegas.", "poster_path": "/zI10Iebo9VODQ9iWOG8uG7UQUj6.jpg", "release_date": "1970-05-27", "title": "The Grasshopper", "video": false, "vote_average": 5.3, "vote_count": 5, "popularity": 2.917}], "total_pages": 1, "total_results": 1}, "credits": {"cast": [{"cast_id": 1, "character": "Jennifer Wood", "credit_id": "52fe4e099251416c7514960d", "gender": 1, "id": 14061, "name": "Jacqueline Bisset", "order": 0, "profile_path": "/ys2YfG4d26jUiGvok0jplWgUhzP.jpg"}, {"cast_id": 6, "character": "Raoul Kramer", "credit_id": "52fe4e0a9251416c75149629", "gender": 2, "id": 3855, "name": "Per Oscarsson", "order": 1, "profile_path": "/cH6s5bCDNjFrUBoyDds9DS3kQZy.jpg"}, {"cast_id": 7, "character": "Beatrice", "credit_id": "52fe4e0a9251416c7514962d", "gender": 1, "id": 28778, "name": "Shirley Knight", "order": 2, "profile_path": "/ehtTPcvqq91Dxl7mtlzi0xJI6KP.jpg"}, {"cast_id": 8, "character": "Allan Wood", "credit_id": "52fe4e0a9251416c75149631", "gender": 2, "id": 24682, "name": "Robert Powell", "order": 3, "profile_path": "/bcrsDoMvtPc9YJ5O9nnQafjRqZw.jpg"}, {"cast_id": 9, "character": "Judy Wood", "credit_id": "52fe4e0a9251416c75149635", "gender": 0, "id": 1209414, "name": "Tarka Kings", "order": 4, "profile_path": null}, {"cast_id": 10, "character": "Raymond (as Martin C. Thurley)", "credit_id": "52fe4e0a9251416c75149639", "gender": 2, "id": 191448, "name": "Thomas Ellice", "order": 5, "profile_path": null}, {"cast_id": 11, "character": "Dominic", "credit_id": "52fe4e0a9251416c7514963d", "gender": 0, "id": 1209415, "name": "Stephen Martin", "order": 6, "profile_path": null}, {"cast_id": 12, "character": "Interviewer", "credit_id": "52fe4e0a9251416c75149641", "gender": 0, "id": 1209416, "name": "Peter Jeffries", "order": 7, "profile_path": null}], "crew": [{"credit_id": "52fe4e0a9251416c75149613", "department": "Directing", "gender": 2, "id": 107414, "job": "Director", "name": "Philip Saville", "profile_path": null}, {"credit_id": "52fe4e0a9251416c75149619", "department": "Writing", "gender": 2, "id": 107414, "job": "Story", "name": "Philip Saville", "profile_path": null}, {"credit_id": "52fe4e0a9251416c7514961f", "department": "Writing", "gender": 0, "id": 236304, "job": "Writer", "name": "Rosemary Davies", "profile_path": null}, {"credit_id": "52fe4e0a9251416c75149625", "department": "Sound", "gender": 2, "id": 70588, "job": "Original Music Composer", "name": "Michael Gibbs", "profile_path": null}]}}