{"adult": false, "backdrop_path": "/9qOUgBihBOYrD4lCbLKn4D8mwbW.jpg", "belongs_to_collection": null, "budget": 0, "genres": [{"id": 10402, "name": "Music"}, {"id": 18, "name": "Drama"}], "homepage": "", "id": 223361, "imdb_id": "tt0026418", "original_language": "en", "original_title": "Go Into Your Dance", "overview": "An irresponsible Broadway star gets mixed up with gambling and gangsters.", "popularity": 2.471, "poster_path": "/u01VYB8rQsfyfLGYpgDy3S9uFVV.jpg", "production_companies": [{"id": 174, "logo_path": "/IuAlhI9eVC9Z8UQWOIDdWRKSEJ.png", "name": "Warner Bros. Pictures", "origin_country": "US"}], "production_countries": [{"iso_3166_1": "US", "name": "United States of America"}], "release_date": "1935-04-20", "revenue": 0, "runtime": 89, "spoken_languages": [{"iso_639_1": "en", "name": "English"}], "status": "Released", "tagline": "", "title": "Go Into Your Dance", "video": false, "vote_average": 9.0, "vote_count": 1, "keywords": {"keywords": [{"id": 242, "name": "new york"}, {"id": 2334, "name": "nightclub"}, {"id": 3149, "name": "gangster"}, {"id": 10085, "name": "betrayal"}]}, "similar": {"page": 1, "results": [{"adult": false, "backdrop_path": "/sw7mordbZxgITU877yTpZCud90M.jpg", "genre_ids": [18, 80], "id": 769, "original_language": "en", "original_title": "GoodFellas", "overview": "The true story of Henry Hill, a half-Irish, half-Sicilian Brooklyn kid who is adopted by neighbourhood gangsters at an early age and climbs the ranks of a Mafia family under the guidance of Jimmy Conway.", "poster_path": "/pwpGfTImTGifEGgLb3s6LRPd4I6.jpg", "release_date": "1990-09-12", "title": "GoodFellas", "video": false, "vote_average": 8.4, "vote_count": 6553, "popularity": 33.23}, {"id": 877, "video": false, "vote_count": 222, "vote_average": 7.6, "title": "Scarface", "release_date": "1932-04-09", "original_language": "en", "original_title": "Scarface", "genre_ids": [28, 80, 18, 53], "backdrop_path": "/fX1DFPMZYsRG17BmMPJAKUaBZEz.jpg", "adult": false, "overview": "A murderous thug shoots his way to the top of the mobs while trying to protect his sister from the criminal life.", "poster_path": "/ai9WOjgNRXo42D0GJIIdi7toZ5x.jpg", "popularity": 14.434}, {"id": 10843, "video": false, "vote_count": 589, "vote_average": 7.5, "title": "After Hours", "release_date": "1985-09-13", "original_language": "en", "original_title": "After Hours", "genre_ids": [35, 18, 53], "backdrop_path": "/kygOSBC0V0uRE6zmIaOO50rG9eg.jpg", "adult": false, "overview": "An ordinary word processor has the worst night of his life after he agrees to visit a girl in Soho whom he met that evening at a coffee shop.", "poster_path": "/s5XkBqUMwE0wQv9NY0XERs64cgs.jpg", "popularity": 9.642}, {"adult": false, "backdrop_path": "/jYnjr6jNSo2CU9cmNbZZGvnrzjv.jpg", "genre_ids": [18, 80, 53], "id": 2001, "original_language": "en", "original_title": "We Own the Night", "overview": "A New York nightclub manager tries to save his brother and father from Russian mafia hitmen.", "poster_path": "/iUQdkZstEViwMgRjqrCu6uCfVjc.jpg", "release_date": "2007-05-25", "title": "We Own the Night", "video": false, "vote_average": 6.7, "vote_count": 684, "popularity": 12.424}, {"adult": false, "backdrop_path": "/8nvayG5l0urcjvvpszoECDqLWzD.jpg", "genre_ids": [18, 53, 80, 9648], "id": 186, "original_language": "en", "original_title": "Lucky Number Slevin", "overview": "Slevin is mistakenly put in the middle of a personal war between the city\u2019s biggest criminal bosses. Under constant watch, Slevin must try not to get killed by an infamous assassin and come up with an idea of how to get out of his current dilemma. A film with many twists and turns.", "poster_path": "/jtKq0EtothAzWlnRBBWGCA8uFuu.jpg", "release_date": "2006-02-24", "title": "Lucky Number Slevin", "video": false, "vote_average": 7.5, "vote_count": 2480, "popularity": 17.523}, {"id": 311, "video": false, "vote_count": 2593, "vote_average": 8.4, "title": "Once Upon a Time in America", "release_date": "1984-05-23", "original_language": "en", "original_title": "Once Upon a Time in America", "genre_ids": [80, 18], "backdrop_path": "/vnT6HzjLSDrAweHn9xWykb8Ii6T.jpg", "adult": false, "overview": "A former Prohibition-era Jewish gangster returns to the Lower East Side of Manhattan over thirty years later, where he once again must confront the ghosts and regrets of his old life.", "poster_path": "/x733R4ISI0RbKeHhVkXdTMFmTFr.jpg", "popularity": 23.555}, {"id": 169917, "video": false, "vote_count": 1811, "vote_average": 6.3, "title": "A Walk Among the Tombstones", "release_date": "2014-09-18", "original_language": "en", "original_title": "A Walk Among the Tombstones", "genre_ids": [80, 18, 9648, 53], "backdrop_path": "/e56QsaJy1weAUukiK2ZmIGVUALF.jpg", "adult": false, "overview": "Private investigator Matthew Scudder is hired by a drug kingpin to find out who kidnapped and murdered his wife.", "poster_path": "/xxe77USOk2tPnq7G4cL42gf1OxQ.jpg", "popularity": 26.185}, {"id": 1422, "video": false, "vote_count": 8811, "vote_average": 8.1, "title": "The Departed", "release_date": "2006-10-05", "original_language": "en", "original_title": "The Departed", "genre_ids": [80, 18, 53], "backdrop_path": "/8Od5zV7Q7zNOX0y9tyNgpTmoiGA.jpg", "adult": false, "overview": "To take down South Boston's Irish Mafia, the police send in one of their own to infiltrate the underworld, not realizing the syndicate has done likewise. While an undercover cop curries favor with the mob kingpin, a career criminal rises through the police ranks. But both sides soon discover there's a mole among them.", "poster_path": "/tGLO9zw5ZtCeyyEWgbYGgsFxC6i.jpg", "popularity": 27.511}, {"adult": false, "backdrop_path": "/5UhVmv70qTfy7YSf8r87kNXWxjK.jpg", "genre_ids": [18, 53, 9648], "id": 638, "original_language": "en", "original_title": "Lost Highway", "overview": "A tormented jazz musician finds himself lost in an enigmatic story involving murder, surveillance, gangsters, doppelgangers, and an impossible transformation inside a prison cell.", "poster_path": "/z6yhgEzGUJaBBgAxoyggRzwLnVM.jpg", "release_date": "1997-01-15", "title": "Lost Highway", "video": false, "vote_average": 7.6, "vote_count": 1277, "popularity": 16.545}, {"id": 193893, "video": false, "vote_count": 1813, "vote_average": 6.3, "title": "Let's Be Cops", "release_date": "2014-08-13", "original_language": "en", "original_title": "Let's Be Cops", "genre_ids": [35], "backdrop_path": "/43GrPpAeBUOvOCZ8L1A3MLuDnkc.jpg", "adult": false, "overview": "It's the ultimate buddy cop movie except for one thing: they're not cops.  When two struggling pals dress as police officers for a costume party, they become neighborhood sensations.  But when these newly-minted \u201cheroes\u201d get tangled in a real life web of mobsters and dirty detectives, they must put their fake badges on the line.", "poster_path": "/ayYibwWAA9NxJPaD9GSybPShtvL.jpg", "popularity": 20.729}, {"adult": false, "backdrop_path": "/gFqsAmzPrVhkNpxnuVkDVJ4ykuL.jpg", "genre_ids": [28, 12, 35, 80, 18, 53], "id": 9005, "original_language": "en", "original_title": "The Ice Harvest", "overview": "A shady lawyer attempts a Christmas Eve crime, hoping to swindle the local mob out of some money. But his partner, a strip club owner, might have different plans for the cash.", "poster_path": "/4bfSePHdku1tKKpreByQ2g0aSHb.jpg", "release_date": "2005-11-23", "title": "The Ice Harvest", "video": false, "vote_average": 6.1, "vote_count": 148, "popularity": 10.232}, {"adult": false, "backdrop_path": "/uSIbQYre9c1iqStWzm6MI2v2GyB.jpg", "genre_ids": [18, 35, 80], "id": 38842, "original_language": "en", "original_title": "Middle Men", "overview": "Chronicles Jack Harris, one of the pioneers of internet commerce, as he wrestles with his morals and struggles not to drown in a sea of conmen, mobsters, drug addicts, and pornstars.", "poster_path": "/vFiSz5iJ8ipcUlb4ZmY7Pl7rXcI.jpg", "release_date": "2009-05-17", "title": "Middle Men", "video": false, "vote_average": 6.5, "vote_count": 149, "popularity": 10.037}, {"adult": false, "backdrop_path": "/v761yOHKO3p6Yr7LDCjud6tUL5G.jpg", "genre_ids": [28, 80, 53], "id": 10651, "original_language": "en", "original_title": "The Dead Pool", "overview": "Dirty Harry Callahan returns for his final film adventure. Together with his partner Al Quan, he must investigate the systematic murder of actors and musicians. By the time Harry learns that the murders are a part of a sick game to predict the deaths of celebrities before they happen, it may be too late...", "poster_path": "/9ZUSqox9lIxN4xaYBac2QXMFcZj.jpg", "release_date": "1988-07-12", "title": "The Dead Pool", "video": false, "vote_average": 6.4, "vote_count": 389, "popularity": 14.171}, {"adult": false, "backdrop_path": "/3TCPWrxQkfon82xPNtmpweOSVJc.jpg", "genre_ids": [18, 80, 9648, 10749, 53], "id": 12150, "original_language": "en", "original_title": "Sea of Love", "overview": "Seen-it-all New York detective Frank Keller is unsettled - he has done twenty years on the force and could retire, and he hasn't come to terms with his wife leaving him for a colleague. Joining up with an officer from another part of town to investigate a series of murders linked by the lonely hearts columns he finds he is getting seriously and possibly dangerously involved with Helen, one of the main suspects.", "poster_path": "/7DkkTHIX3hUqvsRv5sDmJAkCfKK.jpg", "release_date": "1989-09-15", "title": "Sea of Love", "video": false, "vote_average": 6.7, "vote_count": 289, "popularity": 11.238}, {"adult": false, "backdrop_path": "/ltq1i8ienPm7OSdOXl3o8ROgmKc.jpg", "genre_ids": [28, 80, 18], "id": 2142, "original_language": "en", "original_title": "Cop Land", "overview": "Freddy Heflin is the sheriff of a place everyone calls \u201cCop Land\u201d \u2014 a small and seemingly peaceful town populated by the big city police officers he\u2019s long admired. Yet something ugly is taking place behind the town\u2019s peaceful facade. And when Freddy uncovers a massive, deadly conspiracy among these local residents, he is forced to take action and make a dangerous choice between protecting his idols and upholding the law.", "poster_path": "/th2UDVewgUAfIXFUaWGWWBxCM91.jpg", "release_date": "1997-08-15", "title": "Cop Land", "video": false, "vote_average": 6.7, "vote_count": 757, "popularity": 13.66}, {"adult": false, "backdrop_path": "/g1BfxcnplYEveGqS1ttfhdRBgbR.jpg", "genre_ids": [35, 53, 80], "id": 8012, "original_language": "en", "original_title": "Get Shorty", "overview": "Chili Palmer is a Miami mobster who gets sent by his boss, the psychopathic \"Bones\" Barboni, to collect a bad debt from Harry Zimm, a Hollywood producer who specializes in cheesy horror films. When Chili meets Harry's leading lady, the romantic sparks fly. After pitching his own life story as a movie idea, Chili learns that being a mobster and being a Hollywood producer really aren't all that different.", "poster_path": "/vWtDUUgQAsVyvRW4mE75LBgVm2e.jpg", "release_date": "1995-10-20", "title": "Get Shorty", "video": false, "vote_average": 6.5, "vote_count": 543, "popularity": 11.5}, {"adult": false, "backdrop_path": "/iNuvbrHGNtrUwlm48u4KnQhhMKp.jpg", "genre_ids": [80, 18, 53], "id": 26390, "original_language": "en", "original_title": "Brooklyn's Finest", "overview": "Enforcing the law within the notoriously rough Brownsville section of the city and especially within the Van Dyke housing projects is the NYPD's sixty-fifth precinct. Three police officers struggle with the sometimes fine line between right and wrong.", "poster_path": "/jKSBk0LtZgXxG56uvwiAtYf6ttF.jpg", "release_date": "2009-01-16", "title": "Brooklyn's Finest", "video": false, "vote_average": 6.4, "vote_count": 500, "popularity": 12.127}, {"adult": false, "backdrop_path": "/rSf0RYkPiMo9TyjHs2vI8rHlmfF.jpg", "genre_ids": [28, 18, 53], "id": 241554, "original_language": "en", "original_title": "Run All Night", "overview": "Brooklyn mobster and prolific hit man Jimmy Conlon has seen better days. Longtime best friend of a mob boss, Jimmy is haunted by the sins of his past\u2014as well as a dogged police detective who\u2019s been one step behind Jimmy for 30 years. But when Jimmy\u2019s estranged son becomes a target, Jimmy must make a choice between the crime family he chose and the real family he abandoned long ago. Now, with nowhere safe to turn, Jimmy has just one night to figure out exactly where his loyalties lie and to see if he can finally make things right.", "poster_path": "/aqNJrAxudMRNo8jg3HOUQqdl2xr.jpg", "release_date": "2015-03-11", "title": "Run All Night", "video": false, "vote_average": 6.4, "vote_count": 1820, "popularity": 30.086}, {"id": 1949, "video": false, "vote_count": 5158, "vote_average": 7.5, "title": "Zodiac", "release_date": "2007-03-02", "original_language": "en", "original_title": "Zodiac", "genre_ids": [80, 18, 9648, 53], "backdrop_path": "/jP2htGBHE7vKq4MLeC75UeC0sZH.jpg", "adult": false, "overview": "The true story of the investigation of the \"Zodiac Killer\", a serial killer who terrified the San Francisco Bay Area, taunting police with his ciphers and letters. The case becomes an obsession for three men as their lives and careers are built and destroyed by the endless trail of clues.", "poster_path": "/bgLyOROfFQI3FqYL7jQbiaV8lkN.jpg", "popularity": 21.354}, {"adult": false, "backdrop_path": "/7RRuRcGuWkZGuRyYugfXn0Fgrrr.jpg", "genre_ids": [28, 80, 18, 53], "id": 949, "original_language": "en", "original_title": "Heat", "overview": "Obsessive master thief, Neil McCauley leads a top-notch crew on various daring heists throughout Los Angeles while determined detective, Vincent Hanna pursues him without rest. Each man recognizes and respects the ability and the dedication of the other even though they are aware their cat-and-mouse game may end in violence.", "poster_path": "/6pmLVffM9jEYK7VqDJqPblMxfEY.jpg", "release_date": "1995-12-15", "title": "Heat", "video": false, "vote_average": 7.8, "vote_count": 3610, "popularity": 21.48}], "total_pages": 329, "total_results": 6572}, "recommendations": {"page": 1, "results": [], "total_pages": 1, "total_results": 0}, "credits": {"cast": [{"cast_id": 1, "character": "Al Howard", "credit_id": "52fe4e109251416c7514a387", "gender": 0, "id": 14286, "name": "Al Jolson", "order": 0, "profile_path": "/hhQBsy9c2gp1yW370cgqLTv2haZ.jpg"}, {"cast_id": 2, "character": "Dorothy 'Dot' Wayne", "credit_id": "52fe4e109251416c7514a38b", "gender": 1, "id": 30001, "name": "Ruby Keeler", "order": 1, "profile_path": "/2p9mJprBYL57XngyxTlUZshh9BF.jpg"}, {"cast_id": 3, "character": "Molly Howard", "credit_id": "52fe4e109251416c7514a38f", "gender": 1, "id": 29315, "name": "Glenda Farrell", "order": 2, "profile_path": "/xZVRc0gR5BdJ7J1TwusxTtgxD6o.jpg"}, {"cast_id": 4, "character": "Duke Hutchinson", "credit_id": "52fe4e109251416c7514a393", "gender": 2, "id": 14451, "name": "Barton MacLane", "order": 3, "profile_path": "/vmfmiGO6cusQn9B8jw9oLPnSYr6.jpg"}, {"cast_id": 5, "character": "Irma 'Toledo' Knight", "credit_id": "52fe4e109251416c7514a397", "gender": 1, "id": 12025, "name": "Patsy Kelly", "order": 4, "profile_path": "/jA95NCsoXw3iHFvJNRPegUZpnDh.jpg"}, {"cast_id": 6, "character": "Mexican in La Cucaracha Cantina", "credit_id": "52fe4e109251416c7514a39b", "gender": 2, "id": 30719, "name": "Akim Tamiroff", "order": 5, "profile_path": "/24khOVoHMGhYwSHnd3QpPcv6HSP.jpg"}, {"cast_id": 7, "character": "Luana Wells", "credit_id": "52fe4e109251416c7514a39f", "gender": 1, "id": 145959, "name": "Helen Morgan", "order": 6, "profile_path": "/j3py2vpwAHAmP6naErke5qORHDe.jpg"}, {"cast_id": 8, "character": "Nellie Lahey (Blonde Showgirl)", "credit_id": "52fe4e109251416c7514a3a3", "gender": 1, "id": 141062, "name": "Sharon Lynn", "order": 7, "profile_path": "/qLaKlCtgDgufLuyknZ4yd1GnAgm.jpg"}, {"cast_id": 16, "character": "Snowflake", "credit_id": "5cd73a399251417c3fcf07f5", "gender": 2, "id": 955809, "name": "Fred 'Snowflake' Toones", "order": 8, "profile_path": "/w2jl2Iuxg8tVctqx8I4hDM0W9wR.jpg"}, {"cast_id": 17, "character": "Eddie \"Teddy\" Rio", "credit_id": "5cd73a4e0e0a2636e8cc6daa", "gender": 2, "id": 567272, "name": "Phil Regan", "order": 9, "profile_path": "/pIBiRM1V1GwpAnELhXZ17Xp1ESW.jpg"}, {"cast_id": 18, "character": "Tom McGee", "credit_id": "5cd73a6b0e0a262df9cc9e59", "gender": 2, "id": 95729, "name": "William B. Davidson", "order": 10, "profile_path": "/6MmhkoDiuyoW7HxlJ6F42kPkm6J.jpg"}, {"cast_id": 19, "character": "H.P. Jackson", "credit_id": "5cd73a81c3a36817cec1fc42", "gender": 2, "id": 89729, "name": "Joseph Crehan", "order": 11, "profile_path": "/ax389ejoXYCtFONwwaGoz2FcVgy.jpg"}, {"cast_id": 20, "character": "Fred", "credit_id": "5cd73a900e0a262e03ccc830", "gender": 2, "id": 43866, "name": "Gordon Westcott", "order": 12, "profile_path": "/wtPQielKOhH9XBx6LE5DImqdiOV.jpg"}, {"cast_id": 21, "character": "Doctor", "credit_id": "5cd73aaa92514106f6cf44de", "gender": 2, "id": 80236, "name": "Henry Kolker", "order": 13, "profile_path": "/o1FLtKbhJEToYRpP7kMYNthdoLj.jpg"}, {"cast_id": 22, "character": "Eddie Logan", "credit_id": "5cd73ac092514106eecf4ca3", "gender": 2, "id": 3140, "name": "Marc Lawrence", "order": 14, "profile_path": "/l9BsvMMq9db1eSbnTGia0ymp1mv.jpg"}, {"cast_id": 23, "character": "Dressing Room Maid", "credit_id": "5cd73acf0e0a262df9cc9f2a", "gender": 1, "id": 97042, "name": "Theresa Harris", "order": 15, "profile_path": "/4WQcTE5lAhlq7uS04CDQ2l43scg.jpg"}, {"cast_id": 24, "character": "Herman Lahey", "credit_id": "5cd73ae30e0a262defccb9fe", "gender": 2, "id": 4303, "name": "Ward Bond", "order": 16, "profile_path": "/5HbDXDgFcpA07HjPpGpYRzGXnfN.jpg"}, {"cast_id": 25, "character": "Sam Rupert", "credit_id": "5cd73af39251410703cf5b04", "gender": 2, "id": 13969, "name": "Russell Hicks", "order": 17, "profile_path": "/hRRM5ni87mxjlDV2G9jr4GCxFew.jpg"}, {"cast_id": 26, "character": "Pete Brown", "credit_id": "5cd73b1092514106f6cf4546", "gender": 2, "id": 95299, "name": "Robert Gleckler", "order": 18, "profile_path": "/fzbwOrZB7E6VpvkBR1fbg4yQepf.jpg"}, {"cast_id": 27, "character": "Latimer", "credit_id": "5cd73b2c92514106f3cf4916", "gender": 2, "id": 5831, "name": "Arthur Treacher", "order": 19, "profile_path": "/kKHJIUgyUBL5R202XJKj3kXfzXe.jpg"}, {"cast_id": 28, "character": "Waiter at Shim Sham Cafe", "credit_id": "5cd73b580e0a263080cc7432", "gender": 2, "id": 117036, "name": "Milton Kibbee", "order": 20, "profile_path": "/jQpaekf2R1MMm7uqgMbP38dTrNh.jpg"}, {"cast_id": 29, "character": "Nightclub Patron at Casino de Paree", "credit_id": "5cd73b9cc3a36817c9c2007f", "gender": 1, "id": 121323, "name": "Bess Flowers", "order": 21, "profile_path": "/akbW8jJl8GSXFpixFaobMOqvNv4.jpg"}], "crew": [{"credit_id": "52fe4e109251416c7514a3a9", "department": "Directing", "gender": 2, "id": 81165, "job": "Director", "name": "Archie Mayo", "profile_path": "/qlMkKV4vwtawlBIY74c3sFXcNw.jpg"}, {"credit_id": "52fe4e109251416c7514a3af", "department": "Writing", "gender": 0, "id": 32994, "job": "Screenplay", "name": "Earl Baldwin", "profile_path": null}, {"credit_id": "58295d9dc3a368360f0368cf", "department": "Camera", "gender": 2, "id": 8714, "job": "Director of Photography", "name": "Sol Polito", "profile_path": null}, {"credit_id": "591f068b9251414add033242", "department": "Sound", "gender": 2, "id": 29810, "job": "Original Music Composer", "name": "Bernhard Kaun", "profile_path": null}, {"credit_id": "591f06949251414add03324a", "department": "Production", "gender": 2, "id": 109843, "job": "Producer", "name": "Samuel Bischoff", "profile_path": null}, {"credit_id": "591f069cc3a368774e03632c", "department": "Editing", "gender": 2, "id": 123008, "job": "Editor", "name": "Harold McLernon", "profile_path": null}, {"credit_id": "591f06adc3a368723d035e30", "department": "Costume & Make-Up", "gender": 2, "id": 4127, "job": "Costume Design", "name": "Orry-Kelly", "profile_path": "/zDyC5sYHLtS5Kb3A1QDyoVKXLiL.jpg"}]}}