{"adult": false, "backdrop_path": "/z4rSmcq87xhpXZzK6Vk3SJiKEUB.jpg", "belongs_to_collection": null, "budget": 0, "genres": [{"id": 10749, "name": "Romance"}, {"id": 18, "name": "Drama"}, {"id": 10752, "name": "War"}], "homepage": null, "id": 223816, "imdb_id": "tt0024100", "original_language": "en", "original_title": "Hell Below", "overview": "On leave in Italy, Lt. Tommy Knowlton falls in love with Jean Standish, who's not only married, but is the daughter of his submarine's commander. Friction between the two officers becomes intolerable once at sea and after Commander Toler is forced to abandon Tommy's best friend topside while the sub dives to escape enemy planes, Tommy is no longer able to contain his anger.", "popularity": 3.007, "poster_path": "/xvvicgzNcdkQOH16ZMBlRraMmyc.jpg", "production_companies": [{"id": 21, "logo_path": "/mjofSXiHpG5t6KYmU4l4FrUhT7m.png", "name": "Metro-Goldwyn-Mayer", "origin_country": "US"}], "production_countries": [{"iso_3166_1": "US", "name": "United States of America"}], "release_date": "1933-06-08", "revenue": 0, "runtime": 101, "spoken_languages": [{"iso_639_1": "en", "name": "English"}], "status": "Released", "tagline": "", "title": "Hell Below", "video": false, "vote_average": 6.6, "vote_count": 7, "keywords": {"keywords": [{"id": 339, "name": "submarine"}, {"id": 2504, "name": "world war i"}, {"id": 3588, "name": "navy"}, {"id": 156764, "name": "pre-code"}]}, "similar": {"page": 1, "results": [{"id": 530915, "video": false, "vote_count": 577, "vote_average": 8.2, "title": "1917", "release_date": "2019-12-10", "original_language": "en", "original_title": "1917", "genre_ids": [18, 36, 10752], "backdrop_path": "/tUWivz05fcY14K6RzicRm7IHkUD.jpg", "adult": false, "overview": "At the height of the First World War, two young British soldiers, Schofield and Blake are given a seemingly impossible mission. In a race against time, they must cross enemy territory and deliver a message that will stop a deadly attack on hundreds of soldiers\u2014Blake's own brother among them.", "poster_path": "/AuGiPiGMYMkSosOJ3BQjDEAiwtO.jpg", "popularity": 264.43}, {"id": 543580, "video": false, "vote_count": 188, "vote_average": 8.0, "title": "They Shall Not Grow Old", "release_date": "2018-12-17", "original_language": "en", "original_title": "They Shall Not Grow Old", "genre_ids": [99, 36, 10752], "backdrop_path": "/d1WK4WyqjX2WqtCOLD5pn4jxLQN.jpg", "adult": false, "overview": "A documentary about World War I with never-before-seen footage to commemorate the centennial of Armistice Day, and the end of the war.", "poster_path": "/yMGfJeTXUdIjOqjS0jJfjgYEuYC.jpg", "popularity": 14.569}, {"adult": false, "backdrop_path": "/qsN29Wb7sqw06I9TzEnJE3soxHM.jpg", "genre_ids": [18, 10752], "id": 438259, "original_language": "en", "original_title": "Journey's End", "overview": "Set in a dugout in Aisne in 1918, a group of British officers, led by the mentally disintegrating young officer Stanhope, variously await their fate.", "poster_path": "/5gGkt84bCPt7XRo35FcsrOeer78.jpg", "release_date": "2017-12-14", "title": "Journey's End", "video": false, "vote_average": 6.2, "vote_count": 109, "popularity": 14.114}, {"id": 11661, "video": false, "vote_count": 488, "vote_average": 7.4, "title": "Joyeux Noel", "release_date": "2005-11-09", "original_language": "fr", "original_title": "Joyeux No\u00ebl", "genre_ids": [18, 36, 10402, 10749, 10752], "backdrop_path": "/tcrrE9vjnenDxOZrbCcY4V7LdVw.jpg", "adult": false, "overview": "France, 1914, during World War I. On Christmas Eve, an extraordinary event takes place in the bloody no man's land that the French and the Scots dispute with the Germans\u2026", "poster_path": "/9Ka8lKCIiWjnZiMslPQeakS5UhW.jpg", "popularity": 14.131}, {"adult": false, "backdrop_path": "/vSDl3hqsxxNaj0tE5ZLsTQeL0dS.jpg", "genre_ids": [18, 10752], "id": 975, "original_language": "en", "original_title": "Paths of Glory", "overview": "A commanding officer defends three scapegoats on trial for a failed offensive that occurred within the French Army in 1916.", "poster_path": "/6lMXjI1O1N7XyZEjqIo5wkbrgxg.jpg", "release_date": "1957-09-18", "title": "Paths of Glory", "video": false, "vote_average": 8.3, "vote_count": 1348, "popularity": 14.512}, {"adult": false, "backdrop_path": "/msOjpu9wigi6n1Xa51MeLcBue88.jpg", "genre_ids": [18, 36, 10752, 10749], "id": 468224, "original_language": "en", "original_title": "Tolkien", "overview": "England, early 20th century. The future writer and philologist John Ronald Reuel Tolkien (1892-1973) and three of his schoolmates create a strong bond between them as they share the same passion for literature and art, a true fellowship that strengthens as they grow up, but the outbreak of World War I threatens to shatter it.", "poster_path": "/A7eYO3t7oZQdfJj5KlJBI7GhT9H.jpg", "release_date": "2019-05-03", "title": "Tolkien", "video": false, "vote_average": 6.8, "vote_count": 450, "popularity": 13.09}, {"id": 374720, "video": false, "vote_count": 10112, "vote_average": 7.4, "title": "Dunkirk", "release_date": "2017-07-19", "original_language": "en", "original_title": "Dunkirk", "genre_ids": [28, 18, 10752], "backdrop_path": "/fudEG1VUWuOqleXv6NwCExK0VLy.jpg", "adult": false, "overview": "The story of the miraculous evacuation of Allied soldiers from Belgium, Britain, Canada and France, who were cut off and surrounded by the German army from the beaches and harbour of Dunkirk between May 26th and June 4th 1940 during World War II.", "poster_path": "/bOXBV303Fgkzn2K4FeKDc0O31q4.jpg", "popularity": 33.798}, {"id": 143, "video": false, "vote_count": 337, "vote_average": 7.8, "title": "All Quiet on the Western Front", "release_date": "1930-04-29", "original_language": "en", "original_title": "All Quiet on the Western Front", "genre_ids": [18, 10752], "backdrop_path": "/cmAHUFBqg8VO0InX9QdDTZQSg9H.jpg", "adult": false, "overview": "A young soldier faces profound disillusionment in the soul-destroying horror of World War I. Together with several other young German soldiers, he experiences the horrors of war, such evil of which he had not conceived of when signing up to fight. They eventually become sad, tormented, and confused of their purpose.", "poster_path": "/yAU6jklJLUjZot3WyvyJrxVdLKb.jpg", "popularity": 14.739}, {"id": 297762, "video": false, "vote_count": 13717, "vote_average": 7.3, "title": "Wonder Woman", "release_date": "2017-05-30", "original_language": "en", "original_title": "Wonder Woman", "genre_ids": [28, 12, 14], "backdrop_path": "/6iUNJZymJBMXXriQyFZfLAKnjO6.jpg", "adult": false, "overview": "An Amazon princess comes to the world of Man in the grips of the First World War to confront the forces of evil and bring an end to human conflict.", "poster_path": "/gfJGlDaHuWimErCr5Ql0I8x9QSy.jpg", "popularity": 41.8}, {"id": 3035, "video": false, "vote_count": 715, "vote_average": 7.5, "title": "Frankenstein", "release_date": "1931-11-21", "original_language": "en", "original_title": "Frankenstein", "genre_ids": [18, 27, 878], "backdrop_path": "/nwmG8pQQ1xFAPZruYNnrnld2KMC.jpg", "adult": false, "overview": "Dr Henry Frankenstein is obsessed with assembling a living being from parts of several exhumed corpses.", "poster_path": "/wB58wlBAr6484Wm6VyFDqSD8VOJ.jpg", "popularity": 24.454}, {"id": 57212, "video": false, "vote_count": 2067, "vote_average": 7.2, "title": "War Horse", "release_date": "2011-12-25", "original_language": "en", "original_title": "War Horse", "genre_ids": [28, 18, 10752], "backdrop_path": "/iO4fslQ9CenAOcg3JfhN6o9va2.jpg", "adult": false, "overview": "Follows a young man named Albert and his horse, Joey, and how their bond is broken when Joey is sold to the cavalry and sent to the trenches of World War One. Despite being too young to enlist, Albert heads to France to save his friend.", "poster_path": "/6wMoQyJddEiLCzLUHiX7LNWhDol.jpg", "popularity": 16.723}, {"id": 4922, "video": false, "vote_count": 7498, "vote_average": 7.5, "title": "The Curious Case of Benjamin Button", "release_date": "2008-12-25", "original_language": "en", "original_title": "The Curious Case of Benjamin Button", "genre_ids": [18, 14, 9648, 53, 10749], "backdrop_path": "/u4izHlsHk8jwalt5m7E2uzP8q9E.jpg", "adult": false, "overview": "Born under unusual circumstances, Benjamin Button springs into being as an elderly man in a New Orleans nursing home and ages in reverse. Twelve years after his birth, he meets Daisy, a child who flits in and out of his life as she grows up to be a dancer. Though he has all sorts of unusual adventures over the course of his life, it is his relationship with Daisy, and the hope that they will come together at the right time, that drives Benjamin forward.", "poster_path": "/gjMR102u5hPdIAWX7O2rim8ZWgA.jpg", "popularity": 28.44}, {"id": 428399, "video": false, "vote_count": 240, "vote_average": 6.0, "title": "Cold Skin", "release_date": "2017-10-20", "original_language": "en", "original_title": "Cold Skin", "genre_ids": [18, 14, 27], "backdrop_path": "/sega8RtajHVT8JbbdoYBAbikaXj.jpg", "adult": false, "overview": "A young man who arrives at a remote island finds himself trapped in a battle for his life.", "poster_path": "/yYDNVAckvOHH9v6EGVB73cMyZgZ.jpg", "popularity": 15.613}, {"id": 8619, "video": false, "vote_count": 1674, "vote_average": 7.1, "title": "Master and Commander: The Far Side of the World", "release_date": "2003-11-14", "original_language": "en", "original_title": "Master and Commander: The Far Side of the World", "genre_ids": [12, 18, 10752], "backdrop_path": "/uuPbSNgk2dfhMH8l4cKSQUBBk6k.jpg", "adult": false, "overview": "After an abrupt and violent encounter with a French warship inflicts severe damage upon his ship, a captain of the British Royal Navy begins a chase over two oceans to capture or destroy the enemy, though he must weigh his commitment to duty and ferocious pursuit of glory against the safety of his devoted crew, including the ship's thoughtful surgeon, his best friend.", "poster_path": "/s1cVTQEZYn4nSjZLnFbzLP0j8y2.jpg", "popularity": 33.538}, {"id": 401200, "video": false, "vote_count": 200, "vote_average": 6.6, "title": "Kursk", "release_date": "2018-11-07", "original_language": "en", "original_title": "Kursk", "genre_ids": [28, 18, 36, 53], "backdrop_path": "/apjcuU7u2MsSVmJCMaIIQwnlvNl.jpg", "adult": false, "overview": "Barents Sea, August 12th, 2000. During a Russian naval exercise, and after suffering a serious accident, the K-141 Kursk submarine sinks with 118 crew members on board. While the few sailors who are still alive barely manage to survive, their families push for accurate information and a British officer struggles to obtain from the Russian government a permit to attempt a rescue before it is late. But general incompetence are against all their efforts.", "poster_path": "/1Y09MkMJ8CESSPW4fcbDm9s5cAS.jpg", "popularity": 20.089}, {"id": 947, "video": false, "vote_count": 1587, "vote_average": 8.0, "title": "Lawrence of Arabia", "release_date": "1962-12-10", "original_language": "en", "original_title": "Lawrence of Arabia", "genre_ids": [12, 18, 36, 10752], "backdrop_path": "/lENerYvUcfl9GlolqA1emj5gb4k.jpg", "adult": false, "overview": "The story of British officer T.E. Lawrence's mission to aid the Arab tribes in their revolt against the Ottoman Empire during the First World War. Lawrence becomes a flamboyant, messianic figure in the cause of Arab unity but his psychological instability threatens to undermine his achievements.", "poster_path": "/j21UXCOq0EbV8EPTtmPn1CGePfB.jpg", "popularity": 19.461}, {"id": 58431, "video": false, "vote_count": 1300, "vote_average": 5.8, "title": "Pride and Prejudice and Zombies", "release_date": "2016-02-04", "original_language": "en", "original_title": "Pride and Prejudice and Zombies", "genre_ids": [35, 27, 53, 10749], "backdrop_path": "/z6gSLTHsAgqlOwID8jMHfFgeufS.jpg", "adult": false, "overview": "A zombie outbreak has fallen upon the land in this reimagining of Jane Austen\u2019s classic tale of the tangled relationships between lovers from different social classes in 19th century England. Feisty heroine Elizabeth Bennet (Lily James) is a master of martial arts and weaponry and the handsome Mr. Darcy (Sam Riley) is a fierce zombie killer, yet the epitome of upper class prejudice. As the zombie outbreak intensifies, they must swallow their pride and join forces on the blood-soaked battlefield in order to conquer the undead once and for all.", "poster_path": "/jsJlOhVHiz1xXr36616EI8tJ4b2.jpg", "popularity": 15.305}, {"adult": false, "backdrop_path": "/9alS7FBSf8rvDLskpCRuKqAI2h5.jpg", "genre_ids": [18, 36], "id": 746, "original_language": "en", "original_title": "The Last Emperor", "overview": "A dramatic history of Pu Yi, the last of the Emperors of China, from his lofty birth and brief reign in the Forbidden City, the object of worship by half a billion people; through his abdication, his decline and dissolute lifestyle; his exploitation by the invading Japanese, and finally to his obscure existence as just another peasant worker in the People's Republic.", "poster_path": "/KTirnfG6FZLKWbm8Am3EEKmZDx.jpg", "release_date": "1987-10-21", "title": "The Last Emperor", "video": false, "vote_average": 7.6, "vote_count": 774, "popularity": 15.26}, {"id": 433356, "video": false, "vote_count": 145, "vote_average": 6.1, "title": "The Ottoman Lieutenant", "release_date": "2017-03-10", "original_language": "en", "original_title": "The Ottoman Lieutenant", "genre_ids": [18, 10749, 10752], "backdrop_path": "/5kmoreEiqaU0JoE8GZmLwLvAsJq.jpg", "adult": false, "overview": "Lillie, a determined American woman, ventures overseas to join Dr. Jude at a remote medical mission in the Ottoman Empire (now Turkey). However, Lillie soon finds herself at odds with Jude and the mission\u2019s founder, Woodruff, when she falls for the titular military man, Ismail, just as the war is about to erupt.", "poster_path": "/c5E8KTDuGNdF4Lmv3OhsQ0W1zPw.jpg", "popularity": 11.767}, {"id": 8665, "video": false, "vote_count": 501, "vote_average": 6.4, "title": "K-19: The Widowmaker", "release_date": "2002-07-19", "original_language": "en", "original_title": "K-19: The Widowmaker", "genre_ids": [18, 36, 9648, 53, 10752], "backdrop_path": "/tPhbQaiiFauAipdEuc9TQVgOmn6.jpg", "adult": false, "overview": "When Russia's first nuclear submarine malfunctions on its maiden voyage, the crew must race to save the ship and prevent a nuclear disaster.", "poster_path": "/sRLT9pkLnC9gjYnixxw99iLImzN.jpg", "popularity": 14.369}], "total_pages": 77, "total_results": 1531}, "recommendations": {"page": 1, "results": [{"adult": false, "backdrop_path": null, "genre_ids": [18], "id": 96170, "original_language": "en", "original_title": "Lilly Turner", "overview": "After unwittingly marrying a bigamist, a woman faces many trials on the road to romance.", "poster_path": "/tHjM3dQvE5qhcQyS7jHHVwYEVBe.jpg", "release_date": "1933-05-13", "title": "Lilly Turner", "video": false, "vote_average": 6.6, "vote_count": 4, "popularity": 2.302}, {"adult": false, "backdrop_path": "/uSMU5Tn70OULD7qjjsypnygAKkf.jpg", "genre_ids": [18], "id": 144469, "original_language": "en", "original_title": "Bedside", "overview": "Bob Brown uses his bedside manner to charm his patients while his partner makes the actual diagnoses.", "poster_path": "/hkTIHuMhckv7VP0ceioNK1QourJ.jpg", "release_date": "1934-01-31", "title": "Bedside", "video": false, "vote_average": 5.5, "vote_count": 6, "popularity": 2.065}, {"adult": false, "backdrop_path": null, "genre_ids": [18, 10752, 878], "id": 201477, "original_language": "en", "original_title": "Men Must Fight", "overview": "Prophetic tale of a mother in 1940 trying to keep her son out of war.", "poster_path": "/1uD1AkIgJtOB5lu7LW2rpJcBI0P.jpg", "release_date": "1933-02-17", "title": "Men Must Fight", "video": false, "vote_average": 6.0, "vote_count": 5, "popularity": 2.518}, {"adult": false, "backdrop_path": "/4NpKwKzIQQPXRFxXZ6ST5t0RrZL.jpg", "genre_ids": [9648], "id": 51565, "original_language": "en", "original_title": "The Dragon Murder Case", "overview": "Wonderful idea to give a party with people who dislike each other. Late at night, everyone decides to go into the pool, except Stamm, who is drunk. Montague dives in as does Greeff and Leland, but only Greeff and Leland come out. Montague is no where to be found so Leland suspects foul play and calls the cops. Luckily, Philo is with the D.A. and comes along, but they do not find Montague. When they drain the pool the next day, they find nothing except what looks like dragon prints. Philo has his suspicions and tries to piece the clues together to find out what has happened.", "poster_path": "/1M1mpCaJ6c7VvadKN7x61d04WFp.jpg", "release_date": "1934-08-25", "title": "The Dragon Murder Case", "video": false, "vote_average": 5.5, "vote_count": 8, "popularity": 1.58}, {"adult": false, "backdrop_path": "/aOnOBcuLOToimQ54aupaRjbObJi.jpg", "genre_ids": [10752, 18, 10749], "id": 159424, "original_language": "en", "original_title": "Ever in My Heart", "overview": "World War I brings tribulations to an American woman married to a German.", "poster_path": "/pIEgjp3Pc9c5s3RjvS0a8xyyNLT.jpg", "release_date": "1933-10-28", "title": "Ever in My Heart", "video": false, "vote_average": 5.8, "vote_count": 6, "popularity": 4.417}, {"adult": false, "backdrop_path": "/jl8DPgpoGTcmippOa388XUUf6EB.jpg", "genre_ids": [80, 18], "id": 28258, "original_language": "en", "original_title": "The Secret Six", "overview": "Bootlegger/cafe owner, Johnny Franks  recruits crude working man Scorpio to join his gang, masterminded by crooked criminal defense lawyer Newton. Scorpio eventually takes over Frank's operation, beats a rival gang, becomes wealthy and dominates the city for several years until a secret group of 6 masked businessmen have him prosecuted and sent to the electric chair.", "poster_path": "/7hweeQpIlghRx4O35DQbbBHuJG7.jpg", "release_date": "1931-04-18", "title": "The Secret Six", "video": false, "vote_average": 6.0, "vote_count": 6, "popularity": 2.541}, {"id": 45803, "video": false, "vote_count": 17, "vote_average": 6.1, "title": "Svengali", "release_date": "1931-05-22", "original_language": "en", "original_title": "Svengali", "genre_ids": [18, 14, 27, 10749], "backdrop_path": "/sSe0mxPhY4zQk7J4hrBTouO2xKh.jpg", "adult": false, "overview": "A music maestro uses hypnotism on a young model he meets in Paris to make her both his muse and wife.", "poster_path": "/h6Zopq87jkEXBOQ73nV6WxppU9s.jpg", "popularity": 3.07}], "total_pages": 1, "total_results": 7}, "credits": {"cast": [{"cast_id": 2, "character": "Lieut. Thomas Knowlton USN", "credit_id": "52fe4e239251416c7514c8ef", "gender": 2, "id": 19406, "name": "Robert Montgomery", "order": 0, "profile_path": "/o2H1yxVxbxlTWP1PZDFXv6oxiFj.jpg"}, {"cast_id": 3, "character": "Lieut. Comdr. T.J. Toler USN", "credit_id": "52fe4e239251416c7514c8f3", "gender": 2, "id": 19020, "name": "Walter Huston", "order": 1, "profile_path": "/17N08QrQ6Am3hQD5noz5zozGaFH.jpg"}, {"cast_id": 4, "character": "Joan", "credit_id": "52fe4e239251416c7514c8f7", "gender": 1, "id": 104728, "name": "Madge Evans", "order": 2, "profile_path": "/fz1OHlZrxXWOEck7Ltd4VkJLsss.jpg"}, {"cast_id": 5, "character": "Ptomaine' - Ships Cook", "credit_id": "52fe4e239251416c7514c8fb", "gender": 2, "id": 34745, "name": "Jimmy Durante", "order": 3, "profile_path": "/kMAqB3eugItJJfAqd1PVxBmsUDX.jpg"}, {"cast_id": 6, "character": "Mac Dougal - Chief Torpedo Man", "credit_id": "52fe4e239251416c7514c8ff", "gender": 2, "id": 8728, "name": "Eugene Pallette", "order": 4, "profile_path": "/jGPBb0D4Dcuf0HyPnmTXNs9ysxZ.jpg"}, {"cast_id": 7, "character": "Lieut. (JG) 'Brick' Walters", "credit_id": "52fe4e239251416c7514c903", "gender": 2, "id": 14868, "name": "Robert Young", "order": 5, "profile_path": "/zsUCL3cmKSyOE2xSjXDT8v7SOYi.jpg"}, {"cast_id": 8, "character": "Herbert Standish - Flight Comdr.", "credit_id": "52fe4e239251416c7514c907", "gender": 0, "id": 1004886, "name": "Edwin Styles", "order": 6, "profile_path": "/yBjVLR8PB2HqdEZKLkvrnn8X419.jpg"}, {"cast_id": 9, "character": "Lieut. (JG) 'Speed' Nelson", "credit_id": "52fe4e239251416c7514c90b", "gender": 2, "id": 29618, "name": "John Lee Mahin", "order": 7, "profile_path": null}, {"cast_id": 10, "character": "Lieut. (JG) Radford", "credit_id": "52fe4e239251416c7514c90f", "gender": 2, "id": 942165, "name": "David Newell", "order": 8, "profile_path": "/tO7w2vzG1eiiVD2NwIF7WfjAjuf.jpg"}, {"cast_id": 11, "character": "Seaman Jenks", "credit_id": "52fe4e239251416c7514c913", "gender": 2, "id": 34759, "name": "Sterling Holloway", "order": 9, "profile_path": "/njZObhSQmwSX2U7IrB6Gytuedm8.jpg"}, {"cast_id": 12, "character": "Buck Teeth Sergeant", "credit_id": "52fe4e239251416c7514c917", "gender": 2, "id": 131612, "name": "Charles Irwin", "order": 10, "profile_path": null}], "crew": [{"credit_id": "52fe4e239251416c7514c8eb", "department": "Directing", "gender": 2, "id": 82413, "job": "Director", "name": "Jack Conway", "profile_path": "/9XtA1YzzVibf1xl907PB9uQYdyi.jpg"}, {"credit_id": "579241009251410cbb0006bf", "department": "Writing", "gender": 0, "id": 149128, "job": "Writer", "name": "Laird Doyle", "profile_path": null}, {"credit_id": "5792410cc3a3684012001613", "department": "Writing", "gender": 2, "id": 111407, "job": "Writer", "name": "Raymond L. Schrock", "profile_path": null}, {"credit_id": "5792411a9251411f0d0034ce", "department": "Writing", "gender": 0, "id": 1654558, "job": "Book", "name": "Edward Ellsberg", "profile_path": null}]}}