{"adult": false, "backdrop_path": "/r6WkDMzCVr3nk1cKfCrKkVzi3jf.jpg", "belongs_to_collection": null, "budget": 0, "genres": [{"id": 53, "name": "Thriller"}], "homepage": null, "id": 224600, "imdb_id": "tt0065711", "original_language": "en", "original_title": "The Executioner", "overview": "A British intelligence agent must track down a fellow spy suspected of being a double agent.", "popularity": 2.675, "poster_path": "/nSz7KA4CWW5QFsOZTZdZ1rdGUJD.jpg", "production_companies": [], "production_countries": [{"iso_3166_1": "GB", "name": "United Kingdom"}], "release_date": "1970-09-06", "revenue": 0, "runtime": 107, "spoken_languages": [{"iso_639_1": "en", "name": "English"}], "status": "Released", "tagline": "", "title": "The Executioner", "video": false, "vote_average": 7.0, "vote_count": 2, "keywords": {"keywords": [{"id": 470, "name": "spy"}, {"id": 782, "name": "assassin"}, {"id": 180087, "name": "enemy agent"}]}, "similar": {"page": 1, "results": [{"id": 691, "video": false, "vote_count": 939, "vote_average": 6.7, "title": "The Spy Who Loved Me", "release_date": "1977-07-07", "original_language": "en", "original_title": "The Spy Who Loved Me", "genre_ids": [28, 12, 53], "backdrop_path": "/2tCAEhE2rPONBmUOs4W73AlBWYg.jpg", "adult": false, "overview": "Russian and British submarines with nuclear missiles on board both vanish from sight without a trace. England and Russia both blame each other as James Bond tries to solve the riddle of the disappearing ships. But the KGB also has an agent on the case.", "poster_path": "/vYMgDqQDpqHDhz3enGkwBmTs7p7.jpg", "popularity": 23.896}, {"id": 213, "video": false, "vote_count": 2125, "vote_average": 8.0, "title": "North by Northwest", "release_date": "1959-07-07", "original_language": "en", "original_title": "North by Northwest", "genre_ids": [9648, 53], "backdrop_path": "/AplR1QRswlXiM65GoifX8sDadME.jpg", "adult": false, "overview": "Advertising man Roger Thornhill is mistaken for a spy, triggering a deadly cross-country chase.", "poster_path": "/aNV789h3oHm2pTHK5Bdq5RuiumZ.jpg", "popularity": 17.976}, {"id": 657, "video": false, "vote_count": 1493, "vote_average": 7.1, "title": "From Russia with Love", "release_date": "1963-10-11", "original_language": "en", "original_title": "From Russia with Love", "genre_ids": [28, 12, 53], "backdrop_path": "/vemDErY5wkg2Yg5eTQ7ciPRuyqt.jpg", "adult": false, "overview": "Agent 007 is back in the second installment of the James Bond series, this time battling a secret crime organization known as SPECTRE. Russians Rosa Klebb and Kronsteen are out to snatch a decoding device known as the Lektor, using the ravishing Tatiana to lure Bond into helping them. Bond willingly travels to meet Tatiana in Istanbul, where he must rely on his wits to escape with his life in a series of deadly encounters with the enemy", "poster_path": "/fvIG285JwenrV1K6kVASi1TECJ0.jpg", "popularity": 34.436}, {"id": 36669, "video": false, "vote_count": 2043, "vote_average": 5.9, "title": "Die Another Day", "release_date": "2002-11-17", "original_language": "en", "original_title": "Die Another Day", "genre_ids": [28, 12, 53], "backdrop_path": "/3YQfmtpbiFCMHcXY3lJ7fGEcOL6.jpg", "adult": false, "overview": "Bond takes on a North Korean leader who undergoes DNA replacement procedures that allow him to assume different identities. American agent, Jinx Johnson assists Bond in his attempt to thwart the villain's plans to exploit a satellite that is powered by solar energy.", "poster_path": "/1iUZqUXS7x5FcGM5J0u01xuObWC.jpg", "popularity": 26.996}, {"adult": false, "backdrop_path": "/9QcYwm5af4JaUSOyuysVEYOyEXn.jpg", "genre_ids": [12, 28, 53], "id": 646, "original_language": "en", "original_title": "Dr. No", "overview": "In the film that launched the James Bond saga, Agent 007 battles mysterious Dr. No, a scientific genius bent on destroying the U.S. space program. As the countdown to disaster begins, Bond must go to Jamaica, where he encounters beautiful Honey Ryder, to confront a megalomaniacal villain in his massive island headquarters.", "poster_path": "/gRdfLVVf6FheOw6mw6wOsKhZG1l.jpg", "release_date": "1962-10-04", "title": "Dr. No", "video": false, "vote_average": 7.0, "vote_count": 1837, "popularity": 45.268}, {"id": 660, "video": false, "vote_count": 1117, "vote_average": 6.7, "title": "Thunderball", "release_date": "1965-12-15", "original_language": "en", "original_title": "Thunderball", "genre_ids": [28, 12, 53], "backdrop_path": "/qd0jrqxFLCKkNruPuJ7zXuQRpKG.jpg", "adult": false, "overview": "A criminal organization has obtained two nuclear bombs and are asking for a 100 million pound ransom in the form of diamonds in seven days or they will use the weapons. The secret service sends James Bond to the Bahamas to once again save the world.", "poster_path": "/sASN1VnJxWosdzp4mH40P47Xhhz.jpg", "popularity": 30.876}, {"id": 37724, "video": false, "vote_count": 11105, "vote_average": 7.1, "title": "Skyfall", "release_date": "2012-10-25", "original_language": "en", "original_title": "Skyfall", "genre_ids": [28, 12, 53], "backdrop_path": "/6bjRujKSnCVSrzC1qjmqfAyaiET.jpg", "adult": false, "overview": "When Bond's latest assignment goes gravely wrong and agents around the world are exposed, MI6 is attacked forcing M to relocate the agency. These events cause her authority and position to be challenged by Gareth Mallory, the new Chairman of the Intelligence and Security Committee. With MI6 now compromised from both inside and out, M is left with one ally she can trust: Bond. 007 takes to the shadows - aided only by field agent, Eve - following a trail to the mysterious Silva, whose lethal and hidden motives have yet to reveal themselves.", "poster_path": "/lQCkPLDxFONmgzrWLvq085v1g2d.jpg", "popularity": 31.384}, {"adult": false, "backdrop_path": "/tjQHn6xW5BiB1RJ3OZIPDzIOSkF.jpg", "genre_ids": [12, 28, 53], "id": 954, "original_language": "en", "original_title": "Mission: Impossible", "overview": "When Ethan Hunt, the leader of a crack espionage team whose perilous operation has gone awry with no explanation, discovers that a mole has penetrated the CIA, he's surprised to learn that he's the No. 1 suspect. To clear his name, Hunt now must ferret out the real double agent and, in the process, even the score.", "poster_path": "/1PVKS17pIBFsIhgFws2uagPDNLW.jpg", "release_date": "1996-05-22", "title": "Mission: Impossible", "video": false, "vote_average": 6.9, "vote_count": 5214, "popularity": 29.575}, {"adult": false, "backdrop_path": "/vHLsgsvLtFWDlhBigKDRsYIC1p6.jpg", "genre_ids": [28, 9648, 53], "id": 27576, "original_language": "en", "original_title": "Salt", "overview": "As a CIA officer, Evelyn Salt swore an oath to duty, honor and country. Her loyalty will be tested when a defector accuses her of being a Russian spy. Salt goes on the run, using all her skills and years of experience as a covert operative to elude capture. Salt's efforts to prove her innocence only serve to cast doubt on her motives, as the hunt to uncover the truth behind her identity continues and the question remains: \"Who is Salt?\"", "poster_path": "/956xMjH4sPoqimqoLOP6AI19mjm.jpg", "release_date": "2010-07-21", "title": "Salt", "video": false, "vote_average": 6.3, "vote_count": 3528, "popularity": 22.892}, {"id": 206647, "video": false, "vote_count": 7173, "vote_average": 6.4, "title": "Spectre", "release_date": "2015-10-26", "original_language": "en", "original_title": "Spectre", "genre_ids": [28, 12, 80], "backdrop_path": "/wVTYlkKPKrljJfugXN7UlLNjtuJ.jpg", "adult": false, "overview": "A cryptic message from Bond\u2019s past sends him on a trail to uncover a sinister organization. While M battles political forces to keep the secret service alive, Bond peels back the layers of deceit to reveal the terrible truth behind SPECTRE.", "poster_path": "/hE24GYddaxB9MVZl1CaiI86M3kp.jpg", "popularity": 36.838}, {"adult": false, "backdrop_path": "/kSTvteM3ekuoeO7u7GJtZQkZuom.jpg", "genre_ids": [28, 53, 80], "id": 1948, "original_language": "en", "original_title": "Crank", "overview": "Professional assassin Chev Chelios learns his rival has injected him with a poison that will kill him if his heart rate drops.", "poster_path": "/6RnD3Zfh0tO0cD2vroWyH0F98Ej.jpg", "release_date": "2006-08-31", "title": "Crank", "video": false, "vote_average": 6.6, "vote_count": 2119, "popularity": 24.741}, {"adult": false, "backdrop_path": "/fLMv873bBAvrCtzeAbRVjb4Mi9Y.jpg", "genre_ids": [28, 53, 80], "id": 27582, "original_language": "en", "original_title": "The Mechanic", "overview": "Arthur Bishop is a 'mechanic' - an elite assassin with a strict code and unique talent for cleanly eliminating targets. It's a job that requires professional perfection and total detachment, and Bishop is the best in the business. But when he is ordered to take out his mentor and close friend Harry, Bishop is anything but detached.", "poster_path": "/eScKoGnjaUvGD2OkK3DImyzfVkt.jpg", "release_date": "2011-01-13", "title": "The Mechanic", "video": false, "vote_average": 6.3, "vote_count": 1857, "popularity": 23.44}, {"adult": false, "backdrop_path": "/8nvayG5l0urcjvvpszoECDqLWzD.jpg", "genre_ids": [18, 53, 80, 9648], "id": 186, "original_language": "en", "original_title": "Lucky Number Slevin", "overview": "Slevin is mistakenly put in the middle of a personal war between the city\u2019s biggest criminal bosses. Under constant watch, Slevin must try not to get killed by an infamous assassin and come up with an idea of how to get out of his current dilemma. A film with many twists and turns.", "poster_path": "/jtKq0EtothAzWlnRBBWGCA8uFuu.jpg", "release_date": "2006-02-24", "title": "Lucky Number Slevin", "video": false, "vote_average": 7.5, "vote_count": 2480, "popularity": 17.523}, {"id": 156022, "video": false, "vote_count": 5466, "vote_average": 7.2, "title": "The Equalizer", "release_date": "2014-09-24", "original_language": "en", "original_title": "The Equalizer", "genre_ids": [28, 80, 53], "backdrop_path": "/vbl4ZVqelrrzJ16fdDOq9siWbpi.jpg", "adult": false, "overview": "McCall believes he has put his mysterious past behind him and dedicated himself to beginning a new, quiet life. But when he meets Teri, a young girl under the control of ultra-violent Russian gangsters, he can\u2019t stand idly by \u2013 he has to help her. Armed with hidden skills that allow him to serve vengeance against anyone who would brutalize the helpless, McCall comes out of his self-imposed retirement and finds his desire for justice reawakened. If someone has a problem, if the odds are stacked against them, if they have nowhere else to turn, McCall will help. He is The Equalizer.", "poster_path": "/2eQfjqlvPAxd9aLDs8DvsKLnfed.jpg", "popularity": 38.079}, {"adult": false, "backdrop_path": "/2f8fkWSWOVcTlWforoVpsuaCiwI.jpg", "genre_ids": [53, 28], "id": 449985, "original_language": "en", "original_title": "Triple Threat", "overview": "A crime syndicate places a hit on a billionaire's daughter, making her the target of an elite assassin squad. A small band of down-and-out mercenaries protects her, fighting tooth and nail to stop the assassins from reaching their target.", "poster_path": "/cSpM3QxmoSLp4O1WAMQpUDcaB7R.jpg", "release_date": "2019-03-19", "title": "Triple Threat", "video": false, "vote_average": 5.5, "vote_count": 146, "popularity": 17.856}, {"id": 49040, "video": false, "vote_count": 3879, "vote_average": 6.1, "title": "The Bourne Legacy", "release_date": "2012-08-08", "original_language": "en", "original_title": "The Bourne Legacy", "genre_ids": [28, 53], "backdrop_path": "/gCdJYpX1TXGEZrEJl0mMTTpinMh.jpg", "adult": false, "overview": "New CIA operative Aaron Cross experiences life-or-death stakes that have been triggered by the previous actions of Jason Bourne.", "poster_path": "/qIJonjlSzU6LCJklS6CH3p5vLcQ.jpg", "popularity": 25.918}, {"id": 36670, "video": false, "vote_count": 695, "vote_average": 6.1, "title": "Never Say Never Again", "release_date": "1983-10-07", "original_language": "en", "original_title": "Never Say Never Again", "genre_ids": [28, 12, 53], "backdrop_path": "/jYO08KXUKvJvzx3KcE7MoaDYvoM.jpg", "adult": false, "overview": "James Bond returns as the secret agent 007 one more time to battle the evil organization SPECTRE. Bond must defeat Largo, who has stolen two atomic warheads for nuclear blackmail. But Bond has an ally in Largo's girlfriend, the willowy Domino, who falls for Bond and seeks revenge. This is the last time for Sean Connery as Her Majesty's Secret Agent 007. Made outside of the traditional Broccoli production environment due to separate rights having been obtained for this specific Ian Fleming story.", "poster_path": "/s9tBlhTEW0OtYJdemVMPbRcD7wk.jpg", "popularity": 26.217}, {"id": 10764, "video": false, "vote_count": 4873, "vote_average": 6.2, "title": "Quantum of Solace", "release_date": "2008-10-30", "original_language": "en", "original_title": "Quantum of Solace", "genre_ids": [28, 12, 80, 53], "backdrop_path": "/hfZVY8lMiE7HH1cDc2qzSFF6Kbt.jpg", "adult": false, "overview": "Quantum of Solace continues the adventures of James Bond after Casino Royale. Betrayed by Vesper, the woman he loved, 007 fights the urge to make his latest mission personal. Pursuing his determination to uncover the truth, Bond and M interrogate Mr. White, who reveals that the organization that blackmailed Vesper is far more complex and dangerous than anyone had imagined.", "poster_path": "/6mlNx0Jiqhg3D7NlANT9pidsgPJ.jpg", "popularity": 29.622}, {"adult": false, "backdrop_path": "/bqpGceqQuHbtnjEqUG9acSYIVIh.jpg", "genre_ids": [18, 53, 9648], "id": 49517, "original_language": "en", "original_title": "Tinker Tailor Soldier Spy", "overview": "In the bleak days of the Cold War, espionage veteran George Smiley is forced from semi-retirement to uncover a Soviet mole within his former colleagues at the heart of MI6.", "poster_path": "/2N3P730TYXEcNL0BO8WBuMc6yJz.jpg", "release_date": "2011-09-16", "title": "Tinker Tailor Soldier Spy", "video": false, "vote_average": 6.7, "vote_count": 1545, "popularity": 17.584}, {"adult": false, "backdrop_path": "/6wBfey6EVR5qxYLB8pxoTVQYWkS.jpg", "genre_ids": [28, 80, 18, 53], "id": 1620, "original_language": "en", "original_title": "Hitman", "overview": "The best-selling videogame, Hitman, roars to life with both barrels blazing in this hardcore action-thriller starring Timothy Olyphant. A genetically engineered assassin with deadly aim, known only as \"Agent 47\" eliminates strategic targets for a top-secret organization. But when he's double-crossed, the hunter becomes the prey as 47 finds himself in a life-or-death game of international intrigue.", "poster_path": "/1U2FpMotSyaciATw5qfEsKdgpX4.jpg", "release_date": "2007-11-21", "title": "Hitman", "video": false, "vote_average": 5.9, "vote_count": 1866, "popularity": 17.671}], "total_pages": 70, "total_results": 1398}, "recommendations": {"page": 1, "results": [], "total_pages": 1, "total_results": 0}, "credits": {"cast": [{"cast_id": 4, "character": "John Shay", "credit_id": "52fe4e429251416c7515080d", "gender": 2, "id": 1933, "name": "George Peppard", "order": 0, "profile_path": "/i5kxTQ9GSGKY6CaI8F3cdwoF3KD.jpg"}, {"cast_id": 5, "character": "Sarah Booth", "credit_id": "52fe4e429251416c75150811", "gender": 1, "id": 13637, "name": "Joan Collins", "order": 1, "profile_path": "/8KKTDl6jaM6RTWuRpuuXOvMsvG.jpg"}, {"cast_id": 6, "character": "Polly Bendel", "credit_id": "52fe4e429251416c75150815", "gender": 1, "id": 41234, "name": "Judy Geeson", "order": 2, "profile_path": "/6HXwztsdjeK4QbgKd1sHlheDfx3.jpg"}, {"cast_id": 7, "character": "Racovsky", "credit_id": "52fe4e429251416c75150819", "gender": 2, "id": 29661, "name": "Oskar Homolka", "order": 3, "profile_path": "/jhKFc29QjUTfgqNMQqpAO79swQq.jpg"}, {"cast_id": 8, "character": "Vaughan Jones", "credit_id": "52fe4e429251416c7515081d", "gender": 2, "id": 10074, "name": "Charles Gray", "order": 4, "profile_path": "/ejgGEya19V1jUBqixTz9D8xIjlR.jpg"}, {"cast_id": 9, "character": "Colonel Scott", "credit_id": "52fe4e429251416c75150821", "gender": 2, "id": 121003, "name": "Nigel Patrick", "order": 5, "profile_path": "/gWVfCOH9V169yPZxROkI4RJoYvF.jpg"}, {"cast_id": 10, "character": "Adam Booth", "credit_id": "52fe4e429251416c75150825", "gender": 2, "id": 40159, "name": "Keith Michell", "order": 6, "profile_path": "/ooSt3msAL3TZwwOBtIif4YyLXWb.jpg"}, {"cast_id": 11, "character": "Philip Crawford", "credit_id": "52fe4e429251416c75150829", "gender": 2, "id": 10173, "name": "George Baker", "order": 7, "profile_path": "/roiBG5Mc0nAQ3nZLfcODwtHxqmF.jpg"}, {"cast_id": 12, "character": "Prof. Parker", "credit_id": "52fe4e429251416c7515082d", "gender": 2, "id": 96284, "name": "Alexander Scourby", "order": 8, "profile_path": "/nyUn9v8LR0cHNb32HTIudY86wYf.jpg"}, {"cast_id": 13, "character": "Butterfield", "credit_id": "52fe4e429251416c75150831", "gender": 2, "id": 6600, "name": "Peter Bull", "order": 9, "profile_path": "/iIh6WkuefTUVrEybz1CXdz86puI.jpg"}, {"cast_id": 14, "character": "Roper", "credit_id": "52fe4e429251416c75150835", "gender": 0, "id": 139765, "name": "Ernest Clark ", "order": 10, "profile_path": "/tx1AUMxuhZIUdzyzQ81Cf6ALz4m.jpg"}, {"cast_id": 15, "character": "Balkov", "credit_id": "52fe4e429251416c75150839", "gender": 2, "id": 121192, "name": "Peter Dyneley", "order": 11, "profile_path": "/9SMKBEc99zxfe5h159VmeyT4M4e.jpg"}, {"cast_id": 16, "character": "Anna", "credit_id": "52fe4e429251416c7515083d", "gender": 1, "id": 949451, "name": "Gisela Dali", "order": 12, "profile_path": "/2CCgLmP7l98a9Tzup2fTiygu3Rs.jpg"}, {"cast_id": 17, "character": "Shay Cell Group Surrvior", "credit_id": "52fe4e429251416c75150841", "gender": 0, "id": 79954, "name": "Stefan Gryff", "order": 13, "profile_path": "/azkSZCkTJIt3SYI8ZxKo7piu8Rp.jpg"}, {"cast_id": 18, "character": "Poilce Inspector", "credit_id": "52fe4e429251416c75150845", "gender": 2, "id": 140148, "name": "Steve Plytas", "order": 14, "profile_path": "/qFGSjfiC6qBEMCdpvZgI4YIUvE4.jpg"}], "crew": [{"credit_id": "52fe4e429251416c75150851", "department": "Sound", "gender": 2, "id": 7752, "job": "Original Music Composer", "name": "Ron Goodwin", "profile_path": null}, {"credit_id": "5949ac19c3a36861db000932", "department": "Production", "gender": 2, "id": 8932, "job": "Production Manager", "name": "John Comfort", "profile_path": null}, {"credit_id": "52fe4e429251416c75150863", "department": "Production", "gender": 1, "id": 14141, "job": "Casting", "name": "Miriam Brickman", "profile_path": null}, {"credit_id": "52fe4e429251416c7515085d", "department": "Editing", "gender": 2, "id": 19171, "job": "Editor", "name": "Roy Watts", "profile_path": null}, {"credit_id": "570a225dc3a3687796003bc6", "department": "Camera", "gender": 2, "id": 20105, "job": "Director of Photography", "name": "Denys N. Coop", "profile_path": null}, {"credit_id": "52fe4e429251416c751507fd", "department": "Directing", "gender": 2, "id": 21520, "job": "Director", "name": "Sam Wanamaker", "profile_path": "/fWHTMpVy7DSqkTO01V4fTCjM09M.jpg"}, {"credit_id": "52fe4e429251416c7515086f", "department": "Costume & Make-Up", "gender": 0, "id": 21604, "job": "Costume Design", "name": "Yvonne Caffin", "profile_path": null}, {"credit_id": "570a237dc3a368757000304d", "department": "Art", "gender": 2, "id": 30175, "job": "Art Direction", "name": "Edward Marshall", "profile_path": null}, {"credit_id": "52fe4e429251416c7515084b", "department": "Production", "gender": 2, "id": 66759, "job": "Producer", "name": "Charles H. Schneer", "profile_path": "/2HUfWC6uXFy7ed3eciHwORt6aVm.jpg"}, {"credit_id": "52fe4e429251416c75150803", "department": "Writing", "gender": 0, "id": 212903, "job": "Writer", "name": "Jack Pulman", "profile_path": null}, {"credit_id": "52fe4e429251416c75150809", "department": "Writing", "gender": 2, "id": 409198, "job": "Story", "name": "Gordon McDonell", "profile_path": null}, {"credit_id": "52fe4e429251416c75150875", "department": "Costume & Make-Up", "gender": 2, "id": 1210144, "job": "Makeup Artist", "name": "Trevor Crole-Rees", "profile_path": null}, {"credit_id": "52fe4e429251416c75150881", "department": "Production", "gender": 2, "id": 1210146, "job": "Production Manager", "name": "Peter Price", "profile_path": null}, {"credit_id": "5d5033be41eee136e60e1d8b", "department": "Camera", "gender": 2, "id": 2381056, "job": "Camera Operator", "name": "Alan Hall", "profile_path": null}]}}