{"adult": false, "backdrop_path": null, "belongs_to_collection": null, "budget": 0, "genres": [{"id": 18, "name": "Drama"}], "homepage": null, "id": 224813, "imdb_id": "tt0070941", "original_language": "fi", "original_title": "Yhden miehen sota", "overview": "Man leaves his factory job and sells everything to buy an earth mover and start his own business, travelling from place to place with his wife and child. There is not enough work and he is eventually forced to emigrate after many hardships.", "popularity": 0.93, "poster_path": "/ILEAzrMj538sn1ltzQPxZuk28T.jpg", "production_companies": [{"id": 18734, "logo_path": null, "name": "Filminor", "origin_country": "FI"}], "production_countries": [{"iso_3166_1": "FI", "name": "Finland"}], "release_date": "1974-01-18", "revenue": 0, "runtime": 108, "spoken_languages": [{"iso_639_1": "fi", "name": "suomi"}], "status": "Released", "tagline": "", "title": "One Man's War", "video": false, "vote_average": 5.2, "vote_count": 3, "keywords": {"keywords": [{"id": 6038, "name": "marriage"}, {"id": 7337, "name": "business ethics"}, {"id": 12987, "name": "poverty"}, {"id": 14586, "name": "construction site"}, {"id": 33496, "name": "construction"}, {"id": 156052, "name": "unemployment"}, {"id": 171068, "name": "entrepreneur"}, {"id": 193716, "name": "kitchen sink realism"}]}, "similar": {"page": 1, "results": [{"adult": false, "backdrop_path": "/rGWzox5V7dv6KE1gYlZAZ2sUvKJ.jpg", "genre_ids": [18, 10749], "id": 16642, "original_language": "en", "original_title": "Days of Heaven", "overview": "In 1910, a Chicago steel worker accidentally kills his supervisor and flees to the Texas panhandle with his girlfriend and little sister to work harvesting wheat in the fields of a stoic farmer. A love triangle, a swarm of locusts, a hellish fire\u2014Malick captures it all with dreamlike authenticity, creating at once a timeless American idyll and a gritty evocation of turn-of-the-century labor.", "poster_path": "/rjw7tQbiBnbIeufyEt02oVickDM.jpg", "release_date": "1978-09-13", "title": "Days of Heaven", "video": false, "vote_average": 7.6, "vote_count": 459, "popularity": 9.625}, {"id": 12531, "video": false, "vote_count": 91, "vote_average": 6.9, "title": "The Apartment", "release_date": "1996-07-27", "original_language": "fr", "original_title": "L'Appartement", "genre_ids": [18, 9648, 10749], "backdrop_path": "/64qyT8m4JQ6YODvXxtbHgKmXBX7.jpg", "adult": false, "overview": "A stylish suspense thriller that confounds the audience while presenting them with an extraordinary and elusive mystery. Max is a former playboy who has decided to settle down by marrying his current love, Muriel. However, during a business trip, Max catches a glimpse of the great lost love of his life, reviving his wanderlust and sending him off on a chase of the elusive Lisa, whom he had overheard suggesting to a friend that her lover, Daniel, had killed someone for her. Soon, Max is trying to unravel the mystery behind the suspicious death of Daniel's wife, which he hopes will lead him closer to Lisa.", "poster_path": "/1sqrQdQTn8jKLhUcPKfRVj639zA.jpg", "popularity": 19.17}, {"adult": false, "backdrop_path": "/bQW1TnxHlmkWof0vsALj4HBkoxj.jpg", "genre_ids": [18, 10749], "id": 51828, "original_language": "en", "original_title": "One Day", "overview": "A romantic comedy centered on Dexter and Emma, who first meet during their graduation in 1988 and proceed to keep in touch regularly. The film follows what they do on July 15 annually, usually doing something together.", "poster_path": "/xzOz17yC3K6SZWtWylXimcHUqpD.jpg", "release_date": "2011-03-02", "title": "One Day", "video": false, "vote_average": 7.2, "vote_count": 2343, "popularity": 16.744}, {"id": 521, "video": false, "vote_count": 1257, "vote_average": 8.0, "title": "Dial M for Murder", "release_date": "1954-05-29", "original_language": "en", "original_title": "Dial M for Murder", "genre_ids": [80, 18, 9648, 53], "backdrop_path": "/jVMlfESb0TJ29w8CUDDofEprMmn.jpg", "adult": false, "overview": "An ex-tennis pro carries out a plot to have his wife murdered after discovering she is having an affair, and assumes she will soon leave him for the other man anyway. When things go wrong, he improvises a new plan\u2014to frame her for murder instead.", "poster_path": "/xrpK1PyckNWmRxU4kZURfaCyboS.jpg", "popularity": 28.336}, {"id": 8998, "video": false, "vote_count": 315, "vote_average": 5.1, "title": "Friends with Money", "release_date": "2006-09-07", "original_language": "en", "original_title": "Friends with Money", "genre_ids": [35, 18, 10749], "backdrop_path": "/en0lEQ8neLgQ85sEZAC0hmsvyiW.jpg", "adult": false, "overview": "After she quits her lucrative job, Olivia finds herself unsure about her future and her relationships with her successful and wealthy friends.", "poster_path": "/138DFtHjGQcDK4vQavLJ51xEBjZ.jpg", "popularity": 11.295}, {"id": 12102, "video": false, "vote_count": 1128, "vote_average": 7.5, "title": "Kramer vs. Kramer", "release_date": "1979-12-18", "original_language": "en", "original_title": "Kramer vs. Kramer", "genre_ids": [18], "backdrop_path": "/aE33zDunu8FTj76IXqJmHVbcRWg.jpg", "adult": false, "overview": "Ted Kramer is a career man for whom his work comes before his family. His wife Joanna cannot take this anymore, so she decides to leave him. Ted is now faced with the tasks of housekeeping and taking care of himself and their young son Billy.", "poster_path": "/oyYtH37h8rLUxlERoD49losVvlg.jpg", "popularity": 10.452}, {"id": 50546, "video": false, "vote_count": 3335, "vote_average": 6.5, "title": "Just Go with It", "release_date": "2011-02-10", "original_language": "en", "original_title": "Just Go with It", "genre_ids": [35, 10749], "backdrop_path": "/7pa08RTp610h72pZnqqgkmsB76l.jpg", "adult": false, "overview": "A plastic surgeon, romancing a much younger schoolteacher, enlists his loyal assistant to pretend to be his soon to be ex-wife, in order to cover up a careless lie. When more lies backfire, the assistant's kids become involved, and everyone heads off for a weekend in Hawaii that will change all their lives.", "poster_path": "/4sJDqzBaqBprkEy0aLjIGl7TrHx.jpg", "popularity": 19.428}, {"id": 46705, "video": false, "vote_count": 1863, "vote_average": 6.9, "title": "Blue Valentine", "release_date": "2010-12-16", "original_language": "en", "original_title": "Blue Valentine", "genre_ids": [18, 10749], "backdrop_path": "/4FLZTeVWrp14vm5wMlSJzEghDrd.jpg", "adult": false, "overview": "Dean and Cindy live a quiet life in a modest neighborhood. They appear to have the world at their feet at the outset of the relationship. However, his lack of ambition and her retreat into self-absorption cause potentially irreversible cracks in their marriage.", "poster_path": "/r8l15gDSQMupjKXEyXkOMkRpcsn.jpg", "popularity": 12.852}, {"adult": false, "backdrop_path": "/70j4EAHwlbCPZgcKpW04RLtzyHD.jpg", "genre_ids": [35, 18, 10749], "id": 16085, "original_language": "en", "original_title": "Funny Girl", "overview": "The story of the life of comedienne Fanny Brice, from her early days in the Jewish slums of the Lower East Side, to the height of her career with the Ziegfeld Follies, including her marriage to and eventual divorce from her first husband, Nick Arnstein.", "poster_path": "/yaAx93dNbDCYkH9RfH2Rfn8KRWL.jpg", "release_date": "1968-09-19", "title": "Funny Girl", "video": false, "vote_average": 7.3, "vote_count": 185, "popularity": 9.355}, {"id": 9051, "video": false, "vote_count": 115, "vote_average": 5.6, "title": "10", "release_date": "1979-10-04", "original_language": "en", "original_title": "10", "genre_ids": [35, 10749], "backdrop_path": "/f0KcQlWKQfgJxIV365TFaFyXUVT.jpg", "adult": false, "overview": "A Hollywood songwriter goes through a mid-life crisis and becomes infatuated with a sexy blonde newlywed.", "poster_path": "/7GGpt49Q2c98zVz514mHlRjCpGy.jpg", "popularity": 14.392}, {"id": 32255, "video": false, "vote_count": 80, "vote_average": 7.5, "title": "The Palm Beach Story", "release_date": "1942-08-28", "original_language": "en", "original_title": "The Palm Beach Story", "genre_ids": [35, 10749], "backdrop_path": "/bvtXkrI1sstmoBP1QqXJLmcGOdk.jpg", "adult": false, "overview": "Gerry and Tom Jeffers are finding married life hard. Tom is an inventor/ architect and there is little money for them to live on. They are about to be thrown out of their apartment when Gerry meets rich businessman being shown around as a prospective tenant. He gives Gerry $700 to start life afresh but Tom refuses to believe her story and they quarrel. Gerry decides the marriage is over and heads to Palm Beach for a quick divorce but Tom has plans to stop her.", "poster_path": "/zif5rzeW1odL8KQKmVG8xMdo2co.jpg", "popularity": 9.601}, {"adult": false, "backdrop_path": "/qjm30F9hwJ6BNbsb7iOrrKwkY3n.jpg", "genre_ids": [35, 18, 10749], "id": 696, "original_language": "en", "original_title": "Manhattan", "overview": "Manhattan explores how the life of a middle-aged television writer dating a teenage girl is further complicated when he falls in love with his best friend's mistress.", "poster_path": "/k4eT3EvfxW1L9Wmt04UqJqCvCR6.jpg", "release_date": "1979-04-25", "title": "Manhattan", "video": false, "vote_average": 7.9, "vote_count": 1320, "popularity": 17.292}, {"adult": false, "backdrop_path": "/ruAIKg3WC66GPEFjqa4zk3yTYV8.jpg", "genre_ids": [18, 10749], "id": 70881, "original_language": "en", "original_title": "Anna Karenina", "overview": "In 19th century Russia a woman in a respectable marriage to a doctor must grapple with her love for a dashing soldier.", "poster_path": "/39bSsAvMGOgN8I5lt2rOQgAXsj7.jpg", "release_date": "1935-08-30", "title": "Anna Karenina", "video": false, "vote_average": 7.2, "vote_count": 39, "popularity": 7.111}, {"id": 332872, "video": false, "vote_count": 511, "vote_average": 7.1, "title": "Julieta", "release_date": "2016-04-08", "original_language": "es", "original_title": "Julieta", "genre_ids": [18, 10749], "backdrop_path": "/hx9gGAoCysvmIMkJBxstNH2Fobx.jpg", "adult": false, "overview": "The film spans 30 years in Julieta\u2019s life from a nostalgic 1985 where everything seems hopeful, to 2015 where her life appears to be beyond repair and she is on the verge of madness.", "poster_path": "/vvGuzaTGOFhJYL4MqfrR8Ib1WhA.jpg", "popularity": 8.853}, {"id": 38167, "video": false, "vote_count": 1395, "vote_average": 6.1, "title": "Eat Pray Love", "release_date": "2010-08-12", "original_language": "en", "original_title": "Eat Pray Love", "genre_ids": [18], "backdrop_path": "/2fwHVLvh6kdwCujsMwtNmwRJAf1.jpg", "adult": false, "overview": "Liz Gilbert had everything a modern woman is supposed to dream of having \u2013 a husband, a house and a successful career \u2013 yet like so many others, she found herself lost, confused and searching for what she really wanted in life. Newly divorced and at a crossroads, Gilbert steps out of her comfort zone, risking everything to change her life, embarking on a journey around the world that becomes a quest for self-discovery. In her travels, she discovers the true pleasure of nourishment by eating in Italy, the power of prayer in India and, finally and unexpectedly, the inner peace and balance of true love in Bali.", "poster_path": "/s57E4AfPIU1fxwpGGRahk6A0DUl.jpg", "popularity": 14.052}, {"adult": false, "backdrop_path": "/djifnv4QTD7JsFp4WFK6yLPPvXy.jpg", "genre_ids": [35, 10749], "id": 16553, "original_language": "en", "original_title": "Little Manhattan", "overview": "Ten-year-old Gabe was just a normal kid growing up in Manhattan until Rosemary Telesco walked into his life, actually into his karate class. But before Gabe can tell Rosemary how he feels, she tells him she will not be going to public school any more. Gabe has a lot more to learn about life, love, and girls.", "poster_path": "/1ptpZ9vA73urZykDxnYOnJjMAcS.jpg", "release_date": "2005-09-30", "title": "Little Manhattan", "video": false, "vote_average": 6.9, "vote_count": 416, "popularity": 10.603}, {"adult": false, "backdrop_path": "/s1k8V2Y30ivGqIwV9DhWfcMP6fN.jpg", "genre_ids": [35, 18], "id": 22152, "original_language": "en", "original_title": "Lymelife", "overview": "A coming of age dramedy where infidelity, real estate, and Lyme disease have two families falling apart on Long Island in the early eighties. Scott, 15, is at the point in his life when he finds out that the most important people around him, his father, his mother, and his brother, are not exactly who he thought they were. They are flawed and they are human.", "poster_path": "/iWojiiJyGeml9gEGe0ZChk6olZk.jpg", "release_date": "2008-09-08", "title": "Lymelife", "video": false, "vote_average": 6.3, "vote_count": 75, "popularity": 8.304}, {"adult": false, "backdrop_path": "/kQX0k2mVsiexLftIpiTVb5N6rZs.jpg", "genre_ids": [35, 18, 10749], "id": 339397, "original_language": "en", "original_title": "Caf\u00e9 Society", "overview": "The story of a young man who arrives in Hollywood during the 1930s hoping to work in the film industry, falls in love, and finds himself swept up in the vibrant caf\u00e9 society that defined the spirit of the age.", "poster_path": "/hRrF8R32WIldNEMLOhtNrz9OfAZ.jpg", "release_date": "2016-05-11", "title": "Caf\u00e9 Society", "video": false, "vote_average": 6.4, "vote_count": 1699, "popularity": 10.337}, {"id": 11121, "video": false, "vote_count": 146, "vote_average": 6.8, "title": "Tess", "release_date": "1979-10-06", "original_language": "en", "original_title": "Tess", "genre_ids": [18, 10749], "backdrop_path": "/rSaHcXMo4Mz6pXzE3y1PwwMDaqT.jpg", "adult": false, "overview": "A strong-willed peasant girl is sent by her father to the estate of some local aristocrats to capitalize on a rumor that their families are from the same line. This fateful visit commences an epic narrative of sex, class, betrayal, and revenge.", "poster_path": "/m2qx66UNTMg17CoFSGZWC7csG7M.jpg", "popularity": 12.517}, {"adult": false, "backdrop_path": "/chJKYldpfDY9F9sJPwGfeeuHdYc.jpg", "genre_ids": [18, 10749], "id": 1628, "original_language": "fr", "original_title": "Jules et Jim", "overview": "In the carefree days before World War I, introverted Austrian author Jules strikes up a friendship with the exuberant Frenchman Jim. Both men fall for the impulsive and beautiful Catherine, but it's Jules who wins her hand. After the war, Jim visits Jules, Catherine and their daughter in their Austrian home and discovers not only that his feelings for Catherine are unchanged, but also that they're reciprocated.", "poster_path": "/x4DeQiDAfPG3IMe1jKUcn8l9rUV.jpg", "release_date": "1962-01-23", "title": "Jules and Jim", "video": false, "vote_average": 7.8, "vote_count": 413, "popularity": 11.273}], "total_pages": 7, "total_results": 137}, "recommendations": {"page": 1, "results": [], "total_pages": 1, "total_results": 0}, "credits": {"cast": [{"cast_id": 9, "character": "Erik Suomies", "credit_id": "52fe4e479251416c7515141d", "gender": 0, "id": 1210340, "name": "Eero Rinne", "order": 0, "profile_path": null}, {"cast_id": 10, "character": "Liisa Suomies", "credit_id": "52fe4e479251416c75151421", "gender": 0, "id": 143131, "name": "Tuula Nyman", "order": 1, "profile_path": null}, {"cast_id": 11, "character": "Pete Vilpponen", "credit_id": "52fe4e479251416c75151425", "gender": 0, "id": 1210341, "name": "Tauno Hautaniemi", "order": 2, "profile_path": null}, {"cast_id": 12, "character": "Matti Kivilahti", "credit_id": "52fe4e479251416c75151429", "gender": 0, "id": 1210342, "name": "Martti Pennanen", "order": 3, "profile_path": null}, {"cast_id": 13, "character": "V\u00e4nni Piiparinen", "credit_id": "52fe4e479251416c7515142d", "gender": 0, "id": 1210343, "name": "Aimo Heino", "order": 4, "profile_path": null}, {"cast_id": 14, "character": "Susanna Suomies", "credit_id": "52fe4e479251416c75151431", "gender": 0, "id": 1210344, "name": "Maarit Rinne", "order": 5, "profile_path": null}, {"cast_id": 15, "character": "M\u00e4nnikk\u00f6", "credit_id": "52fe4e479251416c75151435", "gender": 0, "id": 1210345, "name": "Ruben Lehtonen", "order": 6, "profile_path": null}, {"cast_id": 16, "character": "Helander", "credit_id": "52fe4e479251416c75151439", "gender": 2, "id": 1207775, "name": "Jorma Pulkkinen", "order": 7, "profile_path": null}, {"cast_id": 17, "character": "Arvi Suomies", "credit_id": "52fe4e479251416c7515143d", "gender": 0, "id": 1210346, "name": "Matti Vienovirta", "order": 8, "profile_path": null}, {"cast_id": 18, "character": "Arvi's wife", "credit_id": "52fe4e479251416c75151441", "gender": 0, "id": 1210347, "name": "Marita Vienovirta", "order": 9, "profile_path": null}, {"cast_id": 19, "character": "Erik's mother", "credit_id": "52fe4e489251416c75151445", "gender": 0, "id": 1210349, "name": "Anna Hakala", "order": 10, "profile_path": null}, {"cast_id": 20, "character": "Viljo Suomies", "credit_id": "52fe4e489251416c75151449", "gender": 0, "id": 1210350, "name": "Hannes Veivo", "order": 11, "profile_path": null}, {"cast_id": 21, "character": "Interview / Man in restaurant", "credit_id": "52fe4e489251416c7515144d", "gender": 0, "id": 121781, "name": "Risto Jarva", "order": 12, "profile_path": null}, {"cast_id": 22, "character": "Tv-commentator (voice)", "credit_id": "52fe4e489251416c75151451", "gender": 2, "id": 1210338, "name": "Matti Kuortti", "order": 13, "profile_path": null}, {"cast_id": 23, "character": "News photographer", "credit_id": "52fe4e489251416c75151455", "gender": 2, "id": 1069989, "name": "Timo Linnasalo", "order": 14, "profile_path": null}, {"cast_id": 24, "character": "Man in the office", "credit_id": "52fe4e489251416c75151459", "gender": 0, "id": 1210336, "name": "Antti Peippo", "order": 15, "profile_path": null}, {"cast_id": 25, "character": "Technician", "credit_id": "52fe4e489251416c7515145d", "gender": 0, "id": 1210351, "name": "Erkki Peltomaa", "order": 16, "profile_path": null}, {"cast_id": 26, "character": "Woman in restaurant", "credit_id": "52fe4e489251416c75151461", "gender": 0, "id": 1210352, "name": "Orvokki Taivalsaari", "order": 17, "profile_path": null}], "crew": [{"credit_id": "52fe4e479251416c751513ef", "department": "Directing", "gender": 0, "id": 121781, "job": "Director", "name": "Risto Jarva", "profile_path": null}, {"credit_id": "52fe4e479251416c751513f5", "department": "Writing", "gender": 0, "id": 121781, "job": "Writer", "name": "Risto Jarva", "profile_path": null}, {"credit_id": "52fe4e479251416c751513fb", "department": "Writing", "gender": 0, "id": 1210334, "job": "Writer", "name": "Jussi Kyl\u00e4tasku", "profile_path": null}, {"credit_id": "52fe4e479251416c75151401", "department": "Production", "gender": 0, "id": 1210335, "job": "Producer", "name": "Kullervo Kukkasj\u00e4rvi", "profile_path": null}, {"credit_id": "52fe4e479251416c75151407", "department": "Crew", "gender": 0, "id": 1210336, "job": "Cinematography", "name": "Antti Peippo", "profile_path": null}, {"credit_id": "52fe4e479251416c7515140d", "department": "Editing", "gender": 0, "id": 121781, "job": "Editor", "name": "Risto Jarva", "profile_path": null}, {"credit_id": "52fe4e479251416c75151413", "department": "Art", "gender": 2, "id": 1210338, "job": "Art Direction", "name": "Matti Kuortti", "profile_path": null}, {"credit_id": "52fe4e479251416c75151419", "department": "Art", "gender": 0, "id": 1210336, "job": "Art Direction", "name": "Antti Peippo", "profile_path": null}]}}