{"adult": false, "backdrop_path": null, "belongs_to_collection": null, "budget": 0, "genres": [{"id": 10770, "name": "TV Movie"}, {"id": 36, "name": "History"}, {"id": 18, "name": "Drama"}], "homepage": null, "id": 227481, "imdb_id": "tt0386831", "original_language": "fr", "original_title": "La Tranch\u00e9e des espoirs", "overview": "While playing football, two children stumble across the grave of a French WWI infantryman who died in the trenches in 1918. His name was Pierre Delpeuch and in the last days of his life he and his comrades shared an extraordinary human adventure. Exhausted, cut off from the front, huddled in their trench, Pierre and four others bravely stood firm. Facing them was another trench containing five similar exhausted and determined Germans. Their only aim was to resist, whatever the cost, until reinforcements arrived.", "popularity": 1.272, "poster_path": "/67JKDcS68xbRTX36dxVyHbmvMPo.jpg", "production_companies": [], "production_countries": [{"iso_3166_1": "FR", "name": "France"}], "release_date": "2003-11-10", "revenue": 0, "runtime": 110, "spoken_languages": [{"iso_639_1": "fr", "name": "Fran\u00e7ais"}], "status": "Released", "tagline": "", "title": "Trench of Hope", "video": false, "vote_average": 8.0, "vote_count": 2, "keywords": {"keywords": [{"id": 2136, "name": "television"}]}, "similar": {"page": 1, "results": [{"id": 10774, "video": false, "vote_count": 816, "vote_average": 7.9, "title": "Network", "release_date": "1976-11-01", "original_language": "en", "original_title": "Network", "genre_ids": [18], "backdrop_path": "/pRMmLhZQncfvS44JelQyB078ZP2.jpg", "adult": false, "overview": "When veteran anchorman Howard Beale is forced to retire his 25-year post because of his age, he announces to viewers that he will kill himself during his farewell broadcast. Network executives rethink their decision when his fanatical tirade results in a spike in ratings.", "poster_path": "/qKcduPILUyZJsHWHGVwDF1CshUi.jpg", "popularity": 12.175}, {"adult": false, "backdrop_path": "/6Ae5hTEgmowsgKcotKTXvoiKlpt.jpg", "genre_ids": [36, 18], "id": 11450, "original_language": "en", "original_title": "Quiz Show", "overview": "Quiz Show is a 1994 American historical drama film which tells the true story of the Twenty One quiz show scandal of the 1950s.", "poster_path": "/yoGJo1h3Hl2exXPVcG9UXWDENtX.jpg", "release_date": "1994-08-25", "title": "Quiz Show", "video": false, "vote_average": 7.3, "vote_count": 477, "popularity": 13.508}, {"id": 9713, "video": false, "vote_count": 221, "vote_average": 5.0, "title": "Holy Man", "release_date": "1998-10-08", "original_language": "en", "original_title": "Holy Man", "genre_ids": [35, 18], "backdrop_path": "/ruJnCxmriVGFEz2fZScGDk2jVjr.jpg", "adult": false, "overview": "Eddie Murphy stars as an over-the-top television evangelist who finds a way to turn television home shopping into a religious experience, and takes America by storm.", "poster_path": "/11mINUUPFtqEBdsbayBenOaTWbP.jpg", "popularity": 9.875}, {"id": 208614, "video": false, "vote_count": 4, "vote_average": 6.5, "title": "The Ratings Game", "release_date": "1984-12-15", "original_language": "en", "original_title": "The Ratings Game", "genre_ids": [35, 10770], "backdrop_path": "/ouj3RvJa6gYidM08SAdjGS562Sw.jpg", "adult": false, "overview": "A New Jersey trucker creates a hit TV show with help from his girlfriend in the ratings business.", "poster_path": "/hTLtvVI4z7LZGitOKMQZW6FL2kC.jpg", "popularity": 3.736}, {"adult": false, "backdrop_path": "/u38489kflUhjQqj9Z4lhejGAYKb.jpg", "genre_ids": [99, 18], "id": 13917, "original_language": "en", "original_title": "The King", "overview": "The King is the story of Graham Kennedy, Australia's first and greatest home grown TV superstar. It traces his rise from working class Balaclava kid, through radio, TV, film, and back to TV again. It also tracks Kennedy's personal tragedies - the loneliness, the unrealised ambitions and the terrible pressures of being Australia's first homegrown superstar in the 1950s and 60s.", "poster_path": "/3UudwwytCwUkMgq9hTD3O1jteD0.jpg", "release_date": "2007-05-20", "title": "The King", "video": false, "vote_average": 0.0, "vote_count": 0, "popularity": 1.898}, {"id": 9647, "video": false, "vote_count": 786, "vote_average": 6.9, "title": "Scrooged", "release_date": "1988-11-22", "original_language": "en", "original_title": "Scrooged", "genre_ids": [35, 18, 14], "backdrop_path": "/6xezVJoUp0cZUBQeIDpW6lFuhcd.jpg", "adult": false, "overview": "In this modern take on Charles Dickens' \"A Christmas Carol,\" Frank Cross (Bill Murray) is a wildly successful television executive whose cold ambition and curmudgeonly nature has driven away the love of his life, Claire Phillips (Karen Allen). But after firing a staff member, Eliot Loudermilk (Bobcat Goldthwait), on Christmas Eve, Frank is visited by a series of ghosts who give him a chance to re-evaluate his actions and right the wrongs of his past.", "poster_path": "/uO0znfB2ZzTXA1IS7jkrjNbpkYK.jpg", "popularity": 17.767}, {"id": 2976, "video": false, "vote_count": 1691, "vote_average": 6.6, "title": "Hairspray", "release_date": "2007-07-13", "original_language": "en", "original_title": "Hairspray", "genre_ids": [35, 18, 10749], "backdrop_path": "/yafOInYuEuK6FOw1oK40Lggp0TV.jpg", "adult": false, "overview": "Pleasantly plump teenager Tracy Turnblad auditions to be on Baltimore's most popular dance show - The Corny Collins Show - and lands a prime spot. Through her newfound fame, she becomes determined to help her friends and end the racial segregation that has been a staple of the show.", "poster_path": "/ndOpIx4BXpFCRRIxgMoGHxZxlE9.jpg", "popularity": 30.447}, {"id": 11598, "video": false, "vote_count": 128, "vote_average": 6.2, "title": "The Kentucky Fried Movie", "release_date": "1977-08-10", "original_language": "en", "original_title": "The Kentucky Fried Movie", "genre_ids": [35], "backdrop_path": "/uRUCFHzusW3GONa2oieJgSDM7Qm.jpg", "adult": false, "overview": "A series of loosely connected skits that spoof news programs, commercials, porno films, kung-fu films, disaster films, blaxploitation films, spy films, mafia films, and the fear that somebody is watching you on the other side of the TV.", "poster_path": "/mKsEoJf6Anet52lsWPfQEYcX5xr.jpg", "popularity": 9.872}, {"id": 577, "video": false, "vote_count": 383, "vote_average": 6.6, "title": "To Die For", "release_date": "1995-09-22", "original_language": "en", "original_title": "To Die For", "genre_ids": [35, 80, 18], "backdrop_path": "/gx5X7KK3Uw2A81xuYxP4yXKHTkZ.jpg", "adult": false, "overview": "Suzanne Stone wants to be a world-famous news anchor and she is willing to do anything to get what she wants. What she lacks in intelligence, she makes up for in cold determination and diabolical wiles. As she pursues her goal with relentless focus, she is forced to destroy anything and anyone that may stand in her way, regardless of the ultimate cost or means necessary.", "poster_path": "/zCREx8trzejNieDLUsRuwLU0cS3.jpg", "popularity": 14.209}, {"id": 482004, "video": false, "vote_count": 38, "vote_average": 7.9, "title": "Too Funny to Fail: The Life & Death of The Dana Carvey Show", "release_date": "2017-10-20", "original_language": "en", "original_title": "Too Funny to Fail: The Life & Death of The Dana Carvey Show", "genre_ids": [35, 99], "backdrop_path": "/xnRDoZo0KVAiaHsTkmfBXKbpToH.jpg", "adult": false, "overview": "It had all the makings of a huge television success:  a white-hot comic at the helm, a coveted primetime slot, and a pantheon of future comedy legends in the cast and crew. So why did The Dana Carvey Show\u2014with a writers room and cast including then unknowns Steve Carell, Stephen Colbert, Louis C.K., Robert Smigel, Charlie Kaufman, and more\u2014 crash and burn so spectacularly? TOO FUNNY TO FAIL tells the hilarious true story of a crew of genius misfits who set out to make comedy history\u2026 and succeeded in a way they never intended.", "poster_path": "/daOljc1BMtILw8XYQRcVu0bHObj.jpg", "popularity": 4.788}, {"adult": false, "backdrop_path": "/sRJjliXA7ZqHCr7HCK0ZB83xxjr.jpg", "genre_ids": [12, 28, 878], "id": 101299, "original_language": "en", "original_title": "The Hunger Games: Catching Fire", "overview": "Katniss Everdeen has returned home safe after winning the 74th Annual Hunger Games along with fellow tribute Peeta Mellark. Winning means that they must turn around and leave their family and close friends, embarking on a \"Victor's Tour\" of the districts. Along the way Katniss senses that a rebellion is simmering, but the Capitol is still very much in control as President Snow prepares the 75th Annual Hunger Games (The Quarter Quell) - a competition that could change Panem forever.", "poster_path": "/Hn0KgefVEp0GkdTexS6gfKTMfi.jpg", "release_date": "2013-11-15", "title": "The Hunger Games: Catching Fire", "video": false, "vote_average": 7.4, "vote_count": 12031, "popularity": 22.164}, {"adult": false, "backdrop_path": "/lHZ5H1jd4zVJYr1wfLKBdXYtZ17.jpg", "genre_ids": [12, 28, 53], "id": 714, "original_language": "en", "original_title": "Tomorrow Never Dies", "overview": "A deranged media mogul is staging international incidents to pit the world\u2019s superpowers against each other. Now 007 must take on this evil mastermind in an adrenaline-charged battle to end his reign of terror and prevent global pandemonium.", "poster_path": "/k3eI9q7ISgpDEu2CMwR2s6inJVp.jpg", "release_date": "1997-12-11", "title": "Tomorrow Never Dies", "video": false, "vote_average": 6.2, "vote_count": 1728, "popularity": 28.522}, {"adult": false, "backdrop_path": "/kQOLgJGvFjQ7EwGfaPkW9dlGFXJ.jpg", "genre_ids": [27, 9648], "id": 565, "original_language": "en", "original_title": "The Ring", "overview": "It sounded like just another urban legend: A videotape filled with nightmarish images, leading to a phone call foretelling the viewer's death in exactly seven days. As a newspaper reporter, Rachel Keller was naturally skeptical of the story, until four teenagers all met with mysterious deaths exactly one week after watching just such a tape. Allowing her investigative curiosity to get the better of her, Rachel tracks down the video... and watches it. Now she has just seven days to unravel the mystery of the Ring.", "poster_path": "/zHJFdhqEXZJxG653oZvOM3PmNON.jpg", "release_date": "2002-10-18", "title": "The Ring", "video": false, "vote_average": 6.6, "vote_count": 3616, "popularity": 12.821}, {"id": 3176, "video": false, "vote_count": 1916, "vote_average": 7.3, "title": "Battle Royale", "release_date": "2000-12-16", "original_language": "ja", "original_title": "\u30d0\u30c8\u30eb\u30fb\u30ed\u30ef\u30a4\u30a2\u30eb", "genre_ids": [12, 18, 53], "backdrop_path": "/zIunndG2AYbZ7CIAwNb6SOkOb7A.jpg", "adult": false, "overview": "In the future, the Japanese government captures a class of ninth-grade students and forces them to kill each other under the revolutionary \"Battle Royale\" act.", "poster_path": "/4J5hW5wwT20hYSEPfxvfxNLjHcg.jpg", "popularity": 15.567}, {"id": 11499, "video": false, "vote_count": 657, "vote_average": 7.4, "title": "Frost/Nixon", "release_date": "2008-10-15", "original_language": "en", "original_title": "Frost/Nixon", "genre_ids": [18, 36], "backdrop_path": "/n7VX5nsHUiQargJKVCJ5dcsa39o.jpg", "adult": false, "overview": "For three years after being forced from office, Nixon remained silent. But in summer 1977, the steely, cunning former commander-in-chief agreed to sit for one all-inclusive interview to confront the questions of his time in office and the Watergate scandal that ended his presidency. Nixon surprised everyone in selecting Frost as his televised confessor, intending to easily outfox the breezy British showman and secure a place in the hearts and minds of Americans. Likewise, Frost's team harboured doubts about their boss's ability to hold his own. But as the cameras rolled, a charged battle of wits resulted.", "poster_path": "/qCs0Vc3QhyqRSDLCDinOai5CVT5.jpg", "popularity": 9.276}, {"adult": false, "backdrop_path": "/kRoNmqktn8bHKAVwNP79bNeRI0d.jpg", "genre_ids": [35, 18], "id": 6963, "original_language": "en", "original_title": "The Weather Man", "overview": "A Chicago weather man, separated from his wife and children, debates whether professional and personal success are mutually exclusive.", "poster_path": "/g36DKoIbvdhSpngVel9U8rAO3el.jpg", "release_date": "2005-10-20", "title": "The Weather Man", "video": false, "vote_average": 6.1, "vote_count": 536, "popularity": 15.065}, {"id": 7461, "video": false, "vote_count": 1226, "vote_average": 6.3, "title": "Vantage Point", "release_date": "2008-02-01", "original_language": "en", "original_title": "Vantage Point", "genre_ids": [28, 80, 18, 53], "backdrop_path": "/7DwOjEHdJ3dc3kBNaN7XQ0yE258.jpg", "adult": false, "overview": "The attempted assassination of the American president is told and re-told from several different perspectives.", "poster_path": "/2PnFsTzmFC3Ydhj0uBEYjPqHWHO.jpg", "popularity": 13.688}, {"adult": false, "backdrop_path": "/tICxGzjJit4yIRi0P8RvX8WPmVK.jpg", "genre_ids": [35, 18, 14, 10749], "id": 2107, "original_language": "en", "original_title": "L.A. Story", "overview": "With the help of a talking freeway billboard, a \"wacky weatherman\" tries to win the heart of an English newspaper reporter, who is struggling to make sense of the strange world of early-90s Los Angeles.", "poster_path": "/zYuSaKMM2Hls7erz0MNKh4cje25.jpg", "release_date": "1991-02-08", "title": "L.A. Story", "video": false, "vote_average": 6.6, "vote_count": 149, "popularity": 9.749}, {"id": 9546, "video": false, "vote_count": 143, "vote_average": 6.1, "title": "Ricochet", "release_date": "1991-10-04", "original_language": "en", "original_title": "Ricochet", "genre_ids": [80], "backdrop_path": "/crLnRz1Z1SZPlXkS3UUApJU6v07.jpg", "adult": false, "overview": "An attorney is terrorized by the criminal he put away years ago when he was a cop.", "poster_path": "/5isHYEcUY0nE90uMhkGrs1nnal.jpg", "popularity": 10.915}, {"id": 12994, "video": false, "vote_count": 242, "vote_average": 6.1, "title": "The Nines", "release_date": "2007-01-21", "original_language": "en", "original_title": "The Nines", "genre_ids": [18, 14, 9648, 878, 53], "backdrop_path": "/o6zox4CsqZxBsbuGSZYKbLxqUfG.jpg", "adult": false, "overview": "A troubled actor, a television show runner, and an acclaimed videogame designer find their lives intertwining in mysterious and unsettling ways.", "poster_path": "/aGHzwUrgUUmPvWIhuzvvQVDkRfk.jpg", "popularity": 12.491}], "total_pages": 11, "total_results": 212}, "recommendations": {"page": 1, "results": [], "total_pages": 1, "total_results": 0}, "credits": {"cast": [{"cast_id": 1, "character": "Pierre Delpeuch", "credit_id": "52fe4ea49251416c7515d633", "gender": 2, "id": 34259, "name": "Jean-Yves Berteloot", "order": 0, "profile_path": "/fJzUeNDhSZmKSmjaIW5dHhTwdYS.jpg"}, {"cast_id": 2, "character": "Sylvaine Morillon", "credit_id": "52fe4ea49251416c7515d637", "gender": 1, "id": 378552, "name": "Cristiana R\u00e9ali", "order": 1, "profile_path": "/bi3PnL5IqC6j1HIFa5KrBkTBDnj.jpg"}, {"cast_id": 3, "character": "Lieutenant Saint-Jean", "credit_id": "52fe4ea49251416c7515d63b", "gender": 2, "id": 120385, "name": "Bruno Putzulu", "order": 2, "profile_path": "/74KkRSQBm8DhukadLwM5ghIWJow.jpg"}, {"cast_id": 4, "character": "Gustave Hornoy", "credit_id": "52fe4ea49251416c7515d63f", "gender": 2, "id": 1261735, "name": "Luc-Antoine Diqu\u00e9ro", "order": 3, "profile_path": "/mdH9WQwon0LUeh4KpWHz3gWWop3.jpg"}, {"cast_id": 5, "character": "Z\u00e9phyrin 'Zeph' Biron", "credit_id": "52fe4ea49251416c7515d643", "gender": 0, "id": 1064454, "name": "Jean-J\u00e9r\u00f4me Esposito", "order": 4, "profile_path": "/mSMumoLGw55Jxi4EV8DYbYSgLKh.jpg"}, {"cast_id": 6, "character": "Ludwig Boehm", "credit_id": "52fe4ea49251416c7515d647", "gender": 2, "id": 71377, "name": "Bruno Lochet", "order": 5, "profile_path": "/SNuKtVcGejDrxmMrvHBksrTs5x.jpg"}, {"cast_id": 7, "character": "", "credit_id": "52fe4ea49251416c7515d64b", "gender": 0, "id": 1261736, "name": "Julien Baumgatner", "order": 6, "profile_path": null}, {"cast_id": 8, "character": "", "credit_id": "52fe4ea49251416c7515d64f", "gender": 2, "id": 20670, "name": "Beno\u00eet Giros", "order": 7, "profile_path": "/o95XwiAzip5X55VK1GbUSjDOsuZ.jpg"}, {"cast_id": 9, "character": "", "credit_id": "52fe4ea49251416c7515d653", "gender": 0, "id": 96968, "name": "Christian Vadim", "order": 8, "profile_path": "/cmMGUMb59bk678rlSGGNbE2Nngs.jpg"}, {"cast_id": 10, "character": "", "credit_id": "52fe4ea49251416c7515d657", "gender": 2, "id": 82187, "name": "Mathias Mlekuz", "order": 9, "profile_path": "/d7djRi9xLMSTd0yM52dBIQWQyQK.jpg"}], "crew": [{"credit_id": "52fe4ea49251416c7515d65d", "department": "Directing", "gender": 0, "id": 1182300, "job": "Director", "name": "Jean-Louis Lorenzi", "profile_path": null}]}}