{"adult": false, "backdrop_path": null, "belongs_to_collection": null, "budget": 0, "genres": [{"id": 35, "name": "Comedy"}], "homepage": null, "id": 227690, "imdb_id": "tt0074087", "original_language": "es", "original_title": "A la legi\u00f3n le gustan las mujeres... y a las mujeres, les gusta la legi\u00f3n", "overview": "A lieutenant and four others are having a little party before entering combat. Ensign has his girlfriend in a village occupied by the enemy, so it is essential a rescue mission", "popularity": 0.654, "poster_path": "/bjwBvzns2Ak644JPwfLH8u1aNYx.jpg", "production_companies": [{"id": 84484, "logo_path": null, "name": "Rafael Gil \u00c1lvarez", "origin_country": ""}, {"id": 21641, "logo_path": null, "name": "Coral Producciones Cinematogr\u00e1ficas", "origin_country": ""}], "production_countries": [{"iso_3166_1": "ES", "name": "Spain"}], "release_date": "1976-03-16", "revenue": 0, "runtime": 95, "spoken_languages": [{"iso_639_1": "es", "name": "Espa\u00f1ol"}], "status": "Released", "tagline": "", "title": "A la legi\u00f3n le gustan las mujeres... y a las mujeres, les gusta la legi\u00f3n", "video": false, "vote_average": 0.0, "vote_count": 0, "keywords": {"keywords": [{"id": 5509, "name": "spanish civil war"}, {"id": 6091, "name": "war"}]}, "similar": {"page": 1, "results": [{"id": 324786, "video": false, "vote_count": 7336, "vote_average": 8.1, "title": "Hacksaw Ridge", "release_date": "2016-10-07", "original_language": "en", "original_title": "Hacksaw Ridge", "genre_ids": [18, 36, 10752], "backdrop_path": "/zBK4QZONMQXhcgaJv1YYTdCW7q9.jpg", "adult": false, "overview": "WWII American Army Medic Desmond T. Doss, who served during the Battle of Okinawa, refuses to kill people and becomes the first Conscientious Objector in American history to receive the Congressional Medal of Honor.", "poster_path": "/bndiUFfJxNd2fYx8XO610L9a07m.jpg", "popularity": 23.616}, {"id": 8916, "video": false, "vote_count": 2873, "vote_average": 6.1, "title": "Antz", "release_date": "1998-10-02", "original_language": "en", "original_title": "Antz", "genre_ids": [12, 16, 35, 10751], "backdrop_path": "/kMfLkbVTsALj5eIu72jtwzDhVsV.jpg", "adult": false, "overview": "In this animated hit, a neurotic worker ant in love with a rebellious princess rises to unlikely stardom when he switches places with a soldier. Signing up to march in a parade, he ends up under the command of a bloodthirsty general. But he's actually been enlisted to fight against a termite army.", "poster_path": "/3biVcPu5hrfKUMC73sTFq17dmmS.jpg", "popularity": 19.964}, {"adult": false, "backdrop_path": "/pKawqrtCBMmxarft7o1LbEynys7.jpg", "genre_ids": [10752, 18, 28], "id": 228150, "original_language": "en", "original_title": "Fury", "overview": "In the last months of World War II, as the Allies make their final push in the European theatre, a battle-hardened U.S. Army sergeant named 'Wardaddy' commands a Sherman tank called 'Fury' and its five-man crew on a deadly mission behind enemy lines. Outnumbered and outgunned, Wardaddy and his men face overwhelming odds in their heroic attempts to strike at the heart of Nazi Germany.", "poster_path": "/fa4PxEPRKWRyjzYje1jM4m30qzd.jpg", "release_date": "2014-10-15", "title": "Fury", "video": false, "vote_average": 7.4, "vote_count": 7302, "popularity": 53.985}, {"id": 369885, "video": false, "vote_count": 3048, "vote_average": 6.7, "title": "Allied", "release_date": "2016-11-17", "original_language": "en", "original_title": "Allied", "genre_ids": [28, 18, 53, 10749, 10752], "backdrop_path": "/tC0tVH5KQhCwMlddnyA3iWOSuBA.jpg", "adult": false, "overview": "In 1942, an intelligence officer in North Africa encounters a female French Resistance fighter on a deadly mission behind enemy lines. When they reunite in London, their relationship is tested by the pressures of war.", "poster_path": "/nzXzLFTnd0Zb3ExfhOxlQgizgSu.jpg", "popularity": 32.359}, {"id": 11422, "video": false, "vote_count": 133, "vote_average": 6.5, "title": "Midway", "release_date": "1976-06-18", "original_language": "en", "original_title": "Midway", "genre_ids": [28, 18, 36, 10752], "backdrop_path": "/6jeTEV03QLsjkEomKM6XhjoVJch.jpg", "adult": false, "overview": "This war drama depicts the U.S. and Japanese forces in the naval Battle of Midway, which became a turning point for Americans during World War II.", "poster_path": "/dCUVG2po7DsBvnxfe7WGcJsUn9T.jpg", "popularity": 15.349}, {"id": 227306, "video": false, "vote_count": 2439, "vote_average": 7.4, "title": "Unbroken", "release_date": "2014-12-25", "original_language": "en", "original_title": "Unbroken", "genre_ids": [18, 10752], "backdrop_path": "/eSbKT3v3RKFRGeOmxJbZhIvrevR.jpg", "adult": false, "overview": "A chronicle of the life of Louis Zamperini, an Olympic runner who was taken prisoner by Japanese forces during World War II.", "poster_path": "/1un8i8UtCjSCnY3OfdxtB5kDRvF.jpg", "popularity": 18.995}, {"id": 676, "video": false, "vote_count": 3795, "vote_average": 6.8, "title": "Pearl Harbor", "release_date": "2001-05-21", "original_language": "en", "original_title": "Pearl Harbor", "genre_ids": [18, 36, 10749, 10752], "backdrop_path": "/cDctk61tUeQz4LX7tTFPknI28ea.jpg", "adult": false, "overview": "The lifelong friendship between Rafe McCawley and Danny Walker is put to the ultimate test when the two ace fighter pilots become entangled in a love triangle with beautiful Naval nurse Evelyn Johnson. But the rivalry between the friends-turned-foes is immediately put on hold when they find themselves at the center of Japan's devastating attack on Pearl Harbor on Dec. 7, 1941.", "poster_path": "/gzjMpcyV1RksWonaA87DZ8wQTH0.jpg", "popularity": 26.975}, {"id": 137113, "video": false, "vote_count": 8823, "vote_average": 7.6, "title": "Edge of Tomorrow", "release_date": "2014-05-27", "original_language": "en", "original_title": "Edge of Tomorrow", "genre_ids": [28, 878], "backdrop_path": "/7mgKeg18Qml5nJQa56RBZO7dIu0.jpg", "adult": false, "overview": "Major Bill Cage is an officer who has never seen a day of combat when he is unceremoniously demoted and dropped into combat. Cage is killed within minutes, managing to take an alpha alien down with him. He awakens back at the beginning of the same day and is forced to fight and die again... and again - as physical contact with the alien has thrown him into a time loop.", "poster_path": "/tpoVEYvm6qcXueZrQYJNRLXL88s.jpg", "popularity": 33.684}, {"id": 1369, "video": false, "vote_count": 1901, "vote_average": 6.5, "title": "Rambo: First Blood Part II", "release_date": "1985-05-21", "original_language": "en", "original_title": "Rambo: First Blood Part II", "genre_ids": [28, 12, 53, 10752], "backdrop_path": "/tqrN6ZVA2lXeyqSi58kWvNdnzzA.jpg", "adult": false, "overview": "John Rambo is released from prison by the government for a top-secret covert mission to the last place on Earth he'd want to return - the jungles of Vietnam.", "poster_path": "/l6zUaYqaQ5TFokesv3BPzBvSN0.jpg", "popularity": 24.903}, {"id": 374720, "video": false, "vote_count": 10112, "vote_average": 7.4, "title": "Dunkirk", "release_date": "2017-07-19", "original_language": "en", "original_title": "Dunkirk", "genre_ids": [28, 18, 10752], "backdrop_path": "/fudEG1VUWuOqleXv6NwCExK0VLy.jpg", "adult": false, "overview": "The story of the miraculous evacuation of Allied soldiers from Belgium, Britain, Canada and France, who were cut off and surrounded by the German army from the beaches and harbour of Dunkirk between May 26th and June 4th 1940 during World War II.", "poster_path": "/bOXBV303Fgkzn2K4FeKDc0O31q4.jpg", "popularity": 33.798}, {"id": 522162, "video": false, "vote_count": 206, "vote_average": 6.7, "title": "Midway", "release_date": "2019-11-06", "original_language": "en", "original_title": "Midway", "genre_ids": [28, 18, 36, 10752], "backdrop_path": "/xjP88DFPCQ81mbZHXFscyYtGskT.jpg", "adult": false, "overview": "MIDWAY centers on the Battle of Midway, a clash between the American fleet and the Imperial Japanese Navy which marked a pivotal turning point in the Pacific Theater during WWII. The film, based on the real-life events of this heroic feat, tells the story of the leaders and soldiers who used their instincts, fortitude and bravery to overcome the odds.", "poster_path": "/hj8pyoNnynGeJTAbl7jcLZO8Uhx.jpg", "popularity": 61.847}, {"adult": false, "backdrop_path": "/9alS7FBSf8rvDLskpCRuKqAI2h5.jpg", "genre_ids": [18, 36], "id": 746, "original_language": "en", "original_title": "The Last Emperor", "overview": "A dramatic history of Pu Yi, the last of the Emperors of China, from his lofty birth and brief reign in the Forbidden City, the object of worship by half a billion people; through his abdication, his decline and dissolute lifestyle; his exploitation by the invading Japanese, and finally to his obscure existence as just another peasant worker in the People's Republic.", "poster_path": "/KTirnfG6FZLKWbm8Am3EEKmZDx.jpg", "release_date": "1987-10-21", "title": "The Last Emperor", "video": false, "vote_average": 7.6, "vote_count": 774, "popularity": 13.039}, {"id": 11589, "video": false, "vote_count": 338, "vote_average": 7.4, "title": "Kelly's Heroes", "release_date": "1970-06-22", "original_language": "en", "original_title": "Kelly's Heroes", "genre_ids": [12, 35, 10752], "backdrop_path": "/js7WdYkmPDx8zHX0pgzhNuOTk77.jpg", "adult": false, "overview": "A misfit group of World War II American soldiers goes AWOL to rob a bank behind German lines.", "poster_path": "/lLFncrtTIz1hcteLbM9eKRflrMd.jpg", "popularity": 13.185}, {"id": 637, "video": false, "vote_count": 8083, "vote_average": 8.5, "title": "Life Is Beautiful", "release_date": "1997-12-20", "original_language": "it", "original_title": "La vita \u00e8 bella", "genre_ids": [35, 18], "backdrop_path": "/bORe0eI72D874TMawOOFvqWS6Xe.jpg", "adult": false, "overview": "A touching story of an Italian book seller of Jewish ancestry who lives in his own little fairy tale. His creative and happy life would come to an abrupt halt when his entire family is deported to a concentration camp during World War II. While locked up he tries to convince his son that the whole thing is just a game.", "poster_path": "/f7DImXDebOs148U4uPjI61iDvaK.jpg", "popularity": 23.166}, {"id": 181533, "video": false, "vote_count": 3912, "vote_average": 6.1, "title": "Night at the Museum: Secret of the Tomb", "release_date": "2014-12-17", "original_language": "en", "original_title": "Night at the Museum: Secret of the Tomb", "genre_ids": [12, 35, 14, 10751], "backdrop_path": "/8b9mOlxer8DVw4k368IXNG5HPBI.jpg", "adult": false, "overview": "When the magic powers of The Tablet of Ahkmenrah begin to die out, Larry Daley spans the globe, uniting favorite and new characters while embarking on an epic quest to save the magic before it is gone forever.", "poster_path": "/tWwASv4CU1Au1IukacdSUewDCV3.jpg", "popularity": 38.315}, {"id": 515001, "video": false, "vote_count": 547, "vote_average": 8.0, "title": "Jojo Rabbit", "release_date": "2019-10-18", "original_language": "en", "original_title": "Jojo Rabbit", "genre_ids": [35, 18, 10752], "backdrop_path": "/agoBZfL1q5G79SD0npArSlJn8BH.jpg", "adult": false, "overview": "A World War II satire that follows a lonely German boy whose world view is turned upside down when he discovers his single mother is hiding a young Jewish girl in their attic. Aided only by his idiotic imaginary friend, Adolf Hitler, Jojo must confront his blind nationalism.", "poster_path": "/7GsM4mtM0worCtIVeiQt28HieeN.jpg", "popularity": 94.062}, {"adult": false, "backdrop_path": "/bWoNwo04ZfZoEvEF8gliyB1EAyS.jpg", "genre_ids": [35, 18], "id": 586, "original_language": "en", "original_title": "Wag the Dog", "overview": "During the final weeks of a presidential race, the President is accused of sexual misconduct. To distract the public until the election, the President's adviser hires a Hollywood producer to help him stage a fake war.", "poster_path": "/cGatilylRyJiCoOu5T5sAB17HKR.jpg", "release_date": "1997-12-25", "title": "Wag the Dog", "video": false, "vote_average": 6.9, "vote_count": 490, "popularity": 13.041}, {"adult": false, "backdrop_path": "/sn0HQZthLpYamYb8VSPbEAWT4kF.jpg", "genre_ids": [18, 36, 10752], "id": 8741, "original_language": "en", "original_title": "The Thin Red Line", "overview": "Based on the graphic novel by James Jones, The Thin Red Line tells the story of a group of men, an Army Rifle company called C-for-Charlie, who change, suffer, and ultimately make essential discoveries about themselves during the fierce World War II battle of Guadalcanal. It follows their journey, from the surprise of an unopposed landing, through the bloody and exhausting battles that follow, to the ultimate departure of those who survived. A powerful frontline cast - including Sean Penn, Nick Nolte, Woody Harrelson and George Clooney - explodes into action in this hauntingly realistic view of military and moral chaos in the Pacific during World War II.", "poster_path": "/g4ApW90svay7veAPgxU8OsNMEOB.jpg", "release_date": "1998-12-25", "title": "The Thin Red Line", "video": false, "vote_average": 7.4, "vote_count": 1577, "popularity": 19.345}, {"adult": false, "backdrop_path": "/xStFRUQtjdQWiZEGN80rgkhN0Kh.jpg", "genre_ids": [18, 878], "id": 11864, "original_language": "en", "original_title": "Enemy Mine", "overview": "A soldier from Earth crashlands on an alien world after sustaining battle damage. Eventually he encounters another survivor, but from the enemy species he was fighting; they band together to survive on this hostile world. In the end the human finds himself caring for his enemy in a completely unexpected way.", "poster_path": "/rOGOW5BnkT0Ccg7XEDmdBUBuw0K.jpg", "release_date": "1985-12-12", "title": "Enemy Mine", "video": false, "vote_average": 6.8, "vote_count": 456, "popularity": 12.134}, {"id": 485811, "video": false, "vote_count": 52, "vote_average": 4.4, "title": "Redcon-1", "release_date": "2018-09-07", "original_language": "en", "original_title": "Redcon-1", "genre_ids": [28, 27], "backdrop_path": "/palbhPOSYf2g1p18vWd91dDhZLM.jpg", "adult": false, "overview": "After a zombie apocalypse spreads from a London prison, the UK is brought to its knees. The spread of the virus is temporarily contained but, without a cure, it\u2019s only a matter of time before it breaks its boundaries and the biggest problem of all\u2026 any zombies with combat skills are now enhanced. With the South East of England quarantined from the rest of the world using fortified borders, intelligence finds that the scientist responsible for the outbreak is alive and well in London. With his recovery being the only hope of a cure, a squad of eight Special Forces soldiers is sent on a suicide mission to the city, now ruled by the undead, with a single task: get him out alive within 72 hours by any means necessary. What emerges is an unlikely pairing on a course to save humanity against ever-rising odds.", "poster_path": "/vVPrWngVJ2cfYAncBedQty69Dlf.jpg", "popularity": 8.926}], "total_pages": 166, "total_results": 3312}, "recommendations": {"page": 1, "results": [], "total_pages": 1, "total_results": 0}, "credits": {"cast": [{"cast_id": 1, "character": "Poli", "credit_id": "52fe4ead9251416c7515e993", "gender": 2, "id": 237478, "name": "Manolo Codeso", "order": 0, "profile_path": "/o1Fo4yNeO200dEjG8r3O52HORFN.jpg"}, {"cast_id": 2, "character": "El P\u00e1ter", "credit_id": "52fe4ead9251416c7515e997", "gender": 2, "id": 57861, "name": "Luis Varela", "order": 1, "profile_path": null}, {"cast_id": 3, "character": "Masquedios", "credit_id": "52fe4ead9251416c7515e99b", "gender": 2, "id": 231038, "name": "Francisco Cecilio", "order": 2, "profile_path": "/f6X850VNP0tcSSCjcUBIGtsyHxd.jpg"}, {"cast_id": 4, "character": "El Pem\u00e1n", "credit_id": "52fe4ead9251416c7515e99f", "gender": 2, "id": 32130, "name": "Ricardo Palacios", "order": 3, "profile_path": "/vTmtpVjy19wClqtKBB3O8A5vICy.jpg"}, {"cast_id": 7, "character": "Chimbo", "credit_id": "57e92041c3a36835a201bde5", "gender": 2, "id": 1657347, "name": "Rafael Hern\u00e1ndez", "order": 4, "profile_path": "/yzEWDx5xsYC8N8LCFGV0JpYRhla.jpg"}, {"cast_id": 8, "character": "Tabernero", "credit_id": "5853fd3192514146c901e97b", "gender": 2, "id": 228498, "name": "Xan das Bolas", "order": 5, "profile_path": "/bQxPKnpD5iXUY1s1UnPI0lfd3dd.jpg"}, {"cast_id": 9, "character": "Andr\u00e9 Meroy", "credit_id": "5853fd4892514146c901e990", "gender": 2, "id": 53950, "name": "Fernando Sancho", "order": 6, "profile_path": "/iKmZsdkQGlYXLEnrdVKkaF1cpmP.jpg"}, {"cast_id": 10, "character": "Matilde", "credit_id": "5853fd55c3a3682dfe031096", "gender": 1, "id": 938406, "name": "Susana Mayo", "order": 7, "profile_path": "/bKJfCcZIvNxFkn3AWy7oUe3bs2y.jpg"}, {"cast_id": 11, "character": "Jacqueline (as Mirtha Miller)", "credit_id": "5853fd5fc3a3682f5802e50c", "gender": 1, "id": 46426, "name": "Mirta Miller", "order": 8, "profile_path": "/106eWlmNVkwrc0oCukvGJ8zQPXH.jpg"}, {"cast_id": 12, "character": "Trino", "credit_id": "5853fd6ac3a368258c025f78", "gender": 2, "id": 237470, "name": "Juanito Navarro", "order": 9, "profile_path": "/vjNOOOo5I5afpyRjNC2kyYFpj4V.jpg"}, {"cast_id": 13, "character": "Josele", "credit_id": "5853fdf992514146c901ea0d", "gender": 2, "id": 107284, "name": "Manuel Gil", "order": 10, "profile_path": "/8F6bwTUjl5vGHC5Xp1B4I1iPFAe.jpg"}, {"cast_id": 14, "character": "Pili", "credit_id": "5853fe159251416f10030c9c", "gender": 1, "id": 236407, "name": "Mar\u00eda Salerno", "order": 11, "profile_path": "/hdjry6G5K8qSTKxtqvYPpG8jXz7.jpg"}, {"cast_id": 15, "character": "Soplete", "credit_id": "5853fe2e9251416f63032623", "gender": 2, "id": 98760, "name": "Venancio Muro", "order": 12, "profile_path": "/d1g1ugGfvYbSrIZisinXiPXkNk2.jpg"}, {"cast_id": 16, "character": "Teresa", "credit_id": "5853fe3ac3a368258f0279d6", "gender": 0, "id": 102050, "name": "Mabel Esca\u00f1o", "order": 13, "profile_path": "/ullA1VfjAkd9TsBxGyKcejSxPKq.jpg"}, {"cast_id": 17, "character": "Coronel Dupont (as Blaky)", "credit_id": "5853fe4bc3a3682dfe03116b", "gender": 2, "id": 299658, "name": "Blaki", "order": 14, "profile_path": "/i6HbVvr8tDO5wnxrX3Pe4F0HGXT.jpg"}, {"cast_id": 18, "character": "Natacha", "credit_id": "5853fe5992514146c901ea56", "gender": 1, "id": 1382500, "name": "Patricia Granada", "order": 15, "profile_path": "/oobw0OFk6gRZePUV0Cv9Hc27lWS.jpg"}, {"cast_id": 19, "character": "Dupont", "credit_id": "5853fe659251416fad02f564", "gender": 2, "id": 14822, "name": "Jos\u00e9 Nieto", "order": 16, "profile_path": "/xSdEDsnzMyccEN4i3JSmaLpu3ZY.jpg"}, {"cast_id": 20, "character": "El Gurag\u00fa", "credit_id": "5853fef1c3a3682fb8037ef1", "gender": 0, "id": 1386738, "name": "Bebe Palmer", "order": 17, "profile_path": null}, {"cast_id": 21, "character": "Hans", "credit_id": "5853ff08c3a3682f5802e658", "gender": 2, "id": 102155, "name": "Beni Deus", "order": 18, "profile_path": "/lCnRGWIDThvMS88oief6c0aXTwE.jpg"}, {"cast_id": 22, "character": "Telefonista", "credit_id": "5853ff19925141724d005b85", "gender": 1, "id": 237472, "name": "Fernanda Hurtado", "order": 19, "profile_path": "/hHR0B6NNliR416XZ6s6hQ3o2c9i.jpg"}, {"cast_id": 23, "character": "Do\u00f1a Euduviges", "credit_id": "5853ff76c3a368258f027ac0", "gender": 1, "id": 99575, "name": "Tota Alba", "order": 20, "profile_path": "/13KldaQDcEkZU1aW5L1qvs27xU3.jpg"}, {"cast_id": 24, "character": "Penitente", "credit_id": "5853ff8dc3a368258f027ad0", "gender": 0, "id": 105212, "name": "Pepe Ruiz", "order": 21, "profile_path": "/oLgWN7sWVSxAOlgllV6C4yP66dC.jpg"}, {"cast_id": 25, "character": "Isabel", "credit_id": "5853ff9ac3a368258f027adb", "gender": 1, "id": 106278, "name": "Paloma Cela", "order": 22, "profile_path": "/18ibkJaSPyqIOGuGglYTUSNsnT4.jpg"}, {"cast_id": 26, "character": "Enfermero", "credit_id": "5853ffb19251411a460306d7", "gender": 0, "id": 103751, "name": "Sim\u00f3n Arriaga", "order": 23, "profile_path": null}, {"cast_id": 27, "character": "Cabrales", "credit_id": "5853ffc9c3a3682f5802e6eb", "gender": 0, "id": 1308009, "name": "Rafael Conesa", "order": 24, "profile_path": null}, {"cast_id": 28, "character": "Superiora", "credit_id": "5853ffdcc3a3682dfe03129a", "gender": 0, "id": 1723465, "name": "Mar\u00eda S\u00e1nchez Aroca", "order": 25, "profile_path": null}, {"cast_id": 29, "character": "Criada", "credit_id": "58540000c3a368258c026199", "gender": 0, "id": 1555019, "name": "Mar\u00eda de la Riva", "order": 26, "profile_path": null}, {"cast_id": 30, "character": "Guardia", "credit_id": "5854001cc3a368258f027b3d", "gender": 0, "id": 1116267, "name": "Miguel Armario", "order": 27, "profile_path": null}, {"cast_id": 31, "character": "", "credit_id": "58540027c3a36806a7022717", "gender": 2, "id": 87248, "name": "Antonio del Real", "order": 28, "profile_path": "/eZNWmoTJ9eSc3PGrOaJJYyrUn2y.jpg"}, {"cast_id": 32, "character": "", "credit_id": "58540031c3a36806a7022726", "gender": 0, "id": 1170073, "name": "Salvador Orjas", "order": 29, "profile_path": null}, {"cast_id": 33, "character": "Responsable", "credit_id": "5854003f92514146c901ebd9", "gender": 0, "id": 1359394, "name": "Vicente Ba\u00f1\u00f3", "order": 30, "profile_path": null}, {"cast_id": 34, "character": "", "credit_id": "5854004892514175ad024571", "gender": 1, "id": 1169765, "name": "Carmen Mart\u00ednez Sierra", "order": 31, "profile_path": "/hkEy3BTCp7NH0hcKLww7wKpCMWj.jpg"}, {"cast_id": 35, "character": "", "credit_id": "58540051925141724d005c72", "gender": 0, "id": 1696786, "name": "Pep\u00edn Salvador", "order": 32, "profile_path": null}, {"cast_id": 36, "character": "", "credit_id": "5854005ac3a368258c0261d4", "gender": 2, "id": 31753, "name": "Luis Induni", "order": 33, "profile_path": "/rNQrHRMJr6rRoj0IRig5itaLUw1.jpg"}, {"cast_id": 37, "character": "Oficial", "credit_id": "585400679251416fa102fa29", "gender": 0, "id": 1174833, "name": "Jacinto San Emeterio", "order": 34, "profile_path": null}, {"cast_id": 38, "character": "", "credit_id": "58540075c3a3682f5802e783", "gender": 0, "id": 1470894, "name": "Manuel Sierra", "order": 35, "profile_path": null}, {"cast_id": 39, "character": "Comandante", "credit_id": "58540083c3a368258c0261f6", "gender": 0, "id": 1044988, "name": "Manuel Torremocha", "order": 36, "profile_path": null}, {"cast_id": 40, "character": "Director de la banda (uncredited)", "credit_id": "58540091c3a368258c026207", "gender": 2, "id": 105771, "name": "Carlos Lucas", "order": 37, "profile_path": "/mnu3htUh8YfELbWOeuJU8noV2hh.jpg"}], "crew": [{"credit_id": "546b94f89251412f580002d3", "department": "Directing", "gender": 0, "id": 234630, "job": "Director", "name": "Rafael Gil", "profile_path": null}, {"credit_id": "585400b7c3a368315002cb7b", "department": "Writing", "gender": 0, "id": 98499, "job": "Writer", "name": "Rafael J. Salvia", "profile_path": "/nTy4J3rqhEBn6B1XRTEduGkOLaS.jpg"}, {"credit_id": "585400c5c3a3682fb80380a2", "department": "Writing", "gender": 0, "id": 1567233, "job": "Writer", "name": "Rafael Garc\u00eda Serrano", "profile_path": null}, {"credit_id": "585400d5c3a3682f5802e7dc", "department": "Sound", "gender": 2, "id": 30822, "job": "Music", "name": "Gregorio Garc\u00eda Segura", "profile_path": null}, {"credit_id": "585400e192514175ad0245fc", "department": "Crew", "gender": 2, "id": 40888, "job": "Cinematography", "name": "Francisco Sempere", "profile_path": null}, {"credit_id": "585400ebc3a368258c026249", "department": "Editing", "gender": 0, "id": 1174925, "job": "Editor", "name": "Jos\u00e9 Luis Matesanz", "profile_path": null}, {"credit_id": "585400f5c3a3682dfe03137e", "department": "Art", "gender": 2, "id": 1170735, "job": "Art Direction", "name": "Enrique Alarc\u00f3n", "profile_path": null}, {"credit_id": "58540103c3a3682fb8038106", "department": "Art", "gender": 2, "id": 1170735, "job": "Set Decoration", "name": "Enrique Alarc\u00f3n", "profile_path": null}, {"credit_id": "5854010e92514146c901ec7a", "department": "Costume & Make-Up", "gender": 0, "id": 1635619, "job": "Makeup Artist", "name": "Ricardo V\u00e1zquez", "profile_path": null}, {"credit_id": "5854011c9251416f6303284b", "department": "Production", "gender": 0, "id": 1693465, "job": "Production Manager", "name": "Mariano de Lope", "profile_path": null}, {"credit_id": "58540143c3a36827a502cb88", "department": "Directing", "gender": 2, "id": 1723474, "job": "Assistant Director", "name": "Jaime D'Ors", "profile_path": null}, {"credit_id": "58540160c3a3682fb8038169", "department": "Crew", "gender": 0, "id": 1723476, "job": "Property Master", "name": "Antonio Luna", "profile_path": null}, {"credit_id": "5854016e9251416fad02f7a7", "department": "Crew", "gender": 0, "id": 1693415, "job": "Property Master", "name": "Manuel Rinc\u00f3n", "profile_path": null}, {"credit_id": "585401ba9251416fa102fb53", "department": "Sound", "gender": 0, "id": 1559219, "job": "Sound Engineer", "name": "Antonio Alonso", "profile_path": null}, {"credit_id": "585401cac3a3682dfe03142c", "department": "Camera", "gender": 0, "id": 1153655, "job": "Camera Operator", "name": "Julio Madurga", "profile_path": null}, {"credit_id": "585401d692514175ad0246bf", "department": "Camera", "gender": 0, "id": 1377217, "job": "Still Photographer", "name": "Manuel Mart\u00ednez", "profile_path": null}, {"credit_id": "585401e4c3a36827a502cc04", "department": "Editing", "gender": 0, "id": 1723477, "job": "Assistant Editor", "name": "Claudio L\u00f3pez", "profile_path": null}, {"credit_id": "585401f192514146c901ed5d", "department": "Directing", "gender": 0, "id": 1723478, "job": "Script Supervisor", "name": "Pedro Labat", "profile_path": null}, {"credit_id": "59821694c3a3680cdc017b3c", "department": "Writing", "gender": 0, "id": 234630, "job": "Writer", "name": "Rafael Gil", "profile_path": null}]}}