{"adult": false, "backdrop_path": "/tCs6D37AGOWQw5qhQ66mGm9xhzg.jpg", "belongs_to_collection": null, "budget": 0, "genres": [{"id": 99, "name": "Documentary"}], "homepage": "http://www.valentinomovie.com/", "id": 22774, "imdb_id": "tt1176244", "original_language": "en", "original_title": "Valentino: The Last Emperor", "overview": "Film which travels inside the singular world of one of Italy's most famous fashion designers, Valentino Garavani, documenting the colourful and dramatic closing act of his celebrated career and capturing the end of an era in global fashion.  However, at the heart of the film is a love story - the unique relationship between Valentino and his business partner and companion of 50 years, Giancarlo Giammetti. Capturing intimate moments in the lives of two of Italy's richest and most famous men, the film lifts the curtain on the final act of a nearly 50-year reign at the top of the glamorous and fiercely competitive world of fashion. (Storyville)", "popularity": 4.617, "poster_path": "/aQP33BMBuRrDQwOTSdTVHvmOVnv.jpg", "production_companies": [{"id": 6338, "logo_path": null, "name": "Acolyte Films", "origin_country": ""}], "production_countries": [{"iso_3166_1": "US", "name": "United States of America"}], "release_date": "2008-09-07", "revenue": 0, "runtime": 96, "spoken_languages": [{"iso_639_1": "en", "name": "English"}, {"iso_639_1": "fr", "name": "Fran\u00e7ais"}, {"iso_639_1": "it", "name": "Italiano"}], "status": "Released", "tagline": "", "title": "Valentino: The Last Emperor", "video": false, "vote_average": 7.1, "vote_count": 25, "keywords": {"keywords": [{"id": 924, "name": "italian"}, {"id": 7024, "name": "fashion designer"}, {"id": 10183, "name": "independent film"}]}, "similar": {"page": 1, "results": [{"id": 298312, "video": false, "vote_count": 2921, "vote_average": 6.2, "title": "The Visit", "release_date": "2015-09-10", "original_language": "en", "original_title": "The Visit", "genre_ids": [27, 9648, 53], "backdrop_path": "/gbJlEeALVGo7kx8bC2q4EFWX1Xy.jpg", "adult": false, "overview": "The terrifying story of a brother and sister who are sent to their grandparents' remote Pennsylvania farm for a weeklong trip. Once the children discover that the elderly couple is involved in something deeply disturbing, they see their chances of getting back home are growing smaller every day.", "poster_path": "/32tNtTEQ1vIOLm1hEOSFkVwJT5D.jpg", "popularity": 20.148}, {"adult": false, "backdrop_path": "/20IgqkdFw5kuItqDCJtidSESP0t.jpg", "genre_ids": [27, 18], "id": 10066, "original_language": "en", "original_title": "House of Wax", "overview": "A group of unwitting teens are stranded near a strange wax museum and soon must fight to survive and keep from becoming the next exhibit.", "poster_path": "/uM1RebQywM5PPYsauayefpXGxVk.jpg", "release_date": "2005-04-30", "title": "House of Wax", "video": false, "vote_average": 5.7, "vote_count": 1531, "popularity": 21.972}, {"adult": false, "backdrop_path": "/8DkJrxEyRN8gTseEhajybpC5smK.jpg", "genre_ids": [27], "id": 10585, "original_language": "en", "original_title": "Child's Play", "overview": "A single mother gives her son a beloved doll for his birthday, only to discover that it is possessed by the soul of a serial killer.", "poster_path": "/dSX9i2buibfyKFRpK2kOe6rtl5R.jpg", "release_date": "1988-11-08", "title": "Child's Play", "video": false, "vote_average": 6.5, "vote_count": 1415, "popularity": 17.31}, {"adult": false, "backdrop_path": "/h45LDCoPWmFMTTb7taGhOPBIGKJ.jpg", "genre_ids": [878, 53], "id": 476926, "original_language": "en", "original_title": "The Titan", "overview": "On a bleak future Earth, a soldier endures a radical genetic transformation to save humanity. But his wife fears he's becoming more creature than man.", "poster_path": "/qRmQazyIBZR4pQIk9VruiZul0Au.jpg", "release_date": "2018-03-30", "title": "The Titan", "video": false, "vote_average": 5.3, "vote_count": 734, "popularity": 10.537}, {"adult": false, "backdrop_path": "/8nvayG5l0urcjvvpszoECDqLWzD.jpg", "genre_ids": [18, 53, 80, 9648], "id": 186, "original_language": "en", "original_title": "Lucky Number Slevin", "overview": "Slevin is mistakenly put in the middle of a personal war between the city\u2019s biggest criminal bosses. Under constant watch, Slevin must try not to get killed by an infamous assassin and come up with an idea of how to get out of his current dilemma. A film with many twists and turns.", "poster_path": "/jtKq0EtothAzWlnRBBWGCA8uFuu.jpg", "release_date": "2006-02-24", "title": "Lucky Number Slevin", "video": false, "vote_average": 7.5, "vote_count": 2480, "popularity": 17.523}, {"adult": false, "backdrop_path": "/zfs9QuKkZL6ZCluGvjo5Pk49aMv.jpg", "genre_ids": [27, 9648, 53], "id": 16938, "original_language": "en", "original_title": "Black Christmas", "overview": "A sorority house is terrorized by a stranger who makes frightening phone calls and then murders the sorority sisters during Christmas break.", "poster_path": "/qqO98sdPgptFgCua3Z4uZDuPcmP.jpg", "release_date": "1974-10-11", "title": "Black Christmas", "video": false, "vote_average": 6.9, "vote_count": 307, "popularity": 12.31}, {"id": 521, "video": false, "vote_count": 1257, "vote_average": 8.0, "title": "Dial M for Murder", "release_date": "1954-05-29", "original_language": "en", "original_title": "Dial M for Murder", "genre_ids": [80, 18, 9648, 53], "backdrop_path": "/jVMlfESb0TJ29w8CUDDofEprMmn.jpg", "adult": false, "overview": "An ex-tennis pro carries out a plot to have his wife murdered after discovering she is having an affair, and assumes she will soon leave him for the other man anyway. When things go wrong, he improvises a new plan\u2014to frame her for murder instead.", "poster_path": "/xrpK1PyckNWmRxU4kZURfaCyboS.jpg", "popularity": 34.566}, {"id": 341013, "video": false, "vote_count": 4061, "vote_average": 6.3, "title": "Atomic Blonde", "release_date": "2017-07-26", "original_language": "en", "original_title": "Atomic Blonde", "genre_ids": [28, 9648, 53], "backdrop_path": "/g3hni0i9iAQ13jDGOFWavJFlojc.jpg", "adult": false, "overview": "An undercover MI6 agent is sent to Berlin during the Cold War to investigate the murder of a fellow agent and recover a missing list of double agents.", "poster_path": "/kV9R5h0Yct1kR8Hf8sJ1nX0Vz4x.jpg", "popularity": 31.297}, {"id": 205596, "video": false, "vote_count": 11343, "vote_average": 8.1, "title": "The Imitation Game", "release_date": "2014-11-14", "original_language": "en", "original_title": "The Imitation Game", "genre_ids": [18, 36, 53, 10752], "backdrop_path": "/qcb6z1HpokTOKdjqDTsnjJk0Xvg.jpg", "adult": false, "overview": "Based on the real life story of legendary cryptanalyst Alan Turing, the film portrays the nail-biting race against time by Turing and his brilliant team of code-breakers at Britain's top-secret Government Code and Cypher School at Bletchley Park, during the darkest days of World War II.", "poster_path": "/noUp0XOqIcmgefRnRZa1nhtRvWO.jpg", "popularity": 40.743}, {"adult": false, "backdrop_path": "/ieJ5ImFoJILNULvnIpbulAln7Lr.jpg", "genre_ids": [12, 28, 53, 878], "id": 14869, "original_language": "en", "original_title": "G.I. Joe: The Rise of Cobra", "overview": "From the Egyptian desert to deep below the polar ice caps, the elite G.I. JOE team uses the latest in next-generation spy and military equipment to fight the corrupt arms dealer Destro and the growing threat of the mysterious Cobra organization to prevent them from plunging the world into chaos.", "poster_path": "/29eW5c5DaCFQejdt9V14RrA51yD.jpg", "release_date": "2009-08-04", "title": "G.I. Joe: The Rise of Cobra", "video": false, "vote_average": 5.7, "vote_count": 3081, "popularity": 24.573}, {"id": 260346, "video": false, "vote_count": 3700, "vote_average": 6.2, "title": "Taken 3", "release_date": "2014-12-16", "original_language": "en", "original_title": "Taken 3", "genre_ids": [28, 53], "backdrop_path": "/cU6R5EgOEmiIVKommjnU89hsvcD.jpg", "adult": false, "overview": "Ex-government operative Bryan Mills finds his life is shattered when he's falsely accused of a murder that hits close to home. As he's pursued by a savvy police inspector, Mills employs his particular set of skills to track the real killer and exact his unique brand of justice.", "poster_path": "/ikDwR3i2bczqnRf1urJTy77YTFf.jpg", "popularity": 36.883}, {"id": 75780, "video": false, "vote_count": 4450, "vote_average": 6.4, "title": "Jack Reacher", "release_date": "2012-12-20", "original_language": "en", "original_title": "Jack Reacher", "genre_ids": [28, 80, 18, 53], "backdrop_path": "/ezXodpP429qK0Av89pVNlaXWJkQ.jpg", "adult": false, "overview": "When a gunman takes five lives with six shots, all evidence points to the suspect in custody. On interrogation, the suspect offers up a single note: \"Get Jack Reacher!\" So begins an extraordinary chase for the truth, pitting Jack Reacher against an unexpected enemy, with a skill for violence and a secret to keep.", "poster_path": "/mt0ELw83HIRgaKaDzhsDcIi0RnW.jpg", "popularity": 19.929}, {"adult": false, "backdrop_path": "/98ahnrena4PwLth7HFYGLf9yssH.jpg", "genre_ids": [35, 18, 10749], "id": 22705, "original_language": "it", "original_title": "Tra(sgre)dire", "overview": "While scouting out apartments in London for her Venetian boyfriend, Carla rents an apartment that overlooks the Thames. There she meet the lesbian hyper-horny real estate agent Moira.", "poster_path": "/kZITrLEiTfzzJhtwtXhQUl3ImCQ.jpg", "release_date": "2000-01-28", "title": "Cheeky", "video": false, "vote_average": 5.7, "vote_count": 92, "popularity": 32.727}, {"adult": false, "backdrop_path": "/19qAk3bQZ6ulspbwhPw1A0bNpii.jpg", "genre_ids": [80, 27, 53], "id": 73861, "original_language": "sr", "original_title": "Srpski film", "overview": "Milos, a retired porn star, leads a normal family life trying to make ends meet. Presented with the opportunity of a lifetime to financially support his family for the rest of their lives, Milos must participate in one last mysterious film. From then on, Milos is drawn into a maelstrom of unbelievable cruelty and mayhem.", "poster_path": "/iB3ynCghwG63MrViBC6YyPzUIAn.jpg", "release_date": "2010-06-16", "title": "A Serbian Film", "video": false, "vote_average": 5.5, "vote_count": 898, "popularity": 15.06}, {"adult": false, "backdrop_path": "/kiWvoV78Cc3fUwkOHKzyBgVdrDD.jpg", "genre_ids": [37, 18, 12], "id": 281957, "original_language": "en", "original_title": "The Revenant", "overview": "In the 1820s, a frontiersman, Hugh Glass, sets out on a path of vengeance against those who left him for dead after a bear mauling.", "poster_path": "/oXUWEc5i3wYyFnL1Ycu8ppxxPvs.jpg", "release_date": "2015-12-25", "title": "The Revenant", "video": false, "vote_average": 7.5, "vote_count": 12122, "popularity": 30.491}, {"adult": false, "backdrop_path": "/4BMel8xxSed1pCkPSGc9R3jsUtC.jpg", "genre_ids": [18, 10749], "id": 142, "original_language": "en", "original_title": "Brokeback Mountain", "overview": "Two modern-day cowboys meet on a shepherding job in the summer of '63, the two share a raw and powerful summer together that turns into a lifelong relationship conflicting with the lives they are supposed to live.", "poster_path": "/z2DqVxj17aW6xpimRlCLfhKSfUm.jpg", "release_date": "2005-09-10", "title": "Brokeback Mountain", "video": false, "vote_average": 7.8, "vote_count": 3787, "popularity": 19.947}, {"adult": false, "backdrop_path": "/jQR6de9dwOjvx91wC4tqpTlMqCD.jpg", "genre_ids": [53, 80, 18], "id": 109421, "original_language": "en", "original_title": "Side Effects", "overview": "A woman turns to prescription medication as a way of handling her anxiety concerning her husband's upcoming release from prison.", "poster_path": "/ttD69Yhh2BV1WVqr27NRbF8ubOW.jpg", "release_date": "2013-02-07", "title": "Side Effects", "video": false, "vote_average": 6.5, "vote_count": 2035, "popularity": 11.74}, {"adult": false, "backdrop_path": "/hm4vpIhBW75bTIDTurq2d4rLZy1.jpg", "genre_ids": [53, 18, 27], "id": 3511, "original_language": "en", "original_title": "The Broken", "overview": "The life of a successful radiologist spirals out of control when she sees the spitting image of herself driving down a London street. While attempting to uncover who the imposter could be, she stumbles into a terrifying mystery that her family and closest friends are somehow involved in, leaving her with no one to trust.", "poster_path": "/nGTUsccLUZhF9Bb5fjvL7KrogvC.jpg", "release_date": "2008-01-18", "title": "The Broken", "video": false, "vote_average": 5.5, "vote_count": 113, "popularity": 9.129}, {"adult": false, "backdrop_path": "/qbrmEfBEcdrzHSAHgazJWmz3TSU.jpg", "genre_ids": [18], "id": 616229, "original_language": "en", "original_title": "The Male Gaze: The Heat of the Night", "overview": "When darkness falls, temperatures rise in these six stories about late night confessions, intimacy for sale, high speed hookups and full moon frissons. But when the sun comes up and reality reveals itself, will it have all been worth it?", "poster_path": "/e1gNLO829rkE73sBJ3aClZJHNXd.jpg", "release_date": "2019-07-15", "title": "The Male Gaze: The Heat of the Night", "video": false, "vote_average": 3.3, "vote_count": 3, "popularity": 13.056}, {"id": 311, "video": false, "vote_count": 2593, "vote_average": 8.4, "title": "Once Upon a Time in America", "release_date": "1984-05-23", "original_language": "en", "original_title": "Once Upon a Time in America", "genre_ids": [80, 18], "backdrop_path": "/vnT6HzjLSDrAweHn9xWykb8Ii6T.jpg", "adult": false, "overview": "A former Prohibition-era Jewish gangster returns to the Lower East Side of Manhattan over thirty years later, where he once again must confront the ghosts and regrets of his old life.", "poster_path": "/x733R4ISI0RbKeHhVkXdTMFmTFr.jpg", "popularity": 23.555}], "total_pages": 419, "total_results": 8378}, "recommendations": {"page": 1, "results": [{"adult": false, "backdrop_path": "/Ap5rg3aQGrppnETpWPsdgv2RRcm.jpg", "genre_ids": [53], "id": 31559, "original_language": "en", "original_title": "The Steel Trap", "overview": "Joseph Cotten plays a assistant bank manager who steals $500,000 from the safe late on a Friday. His plans to flee to Brazil are hampered after he does get away with the money as planned.", "poster_path": "/fD3CPZ18QFry5k6ZBI3KH22jB85.jpg", "release_date": "1952-11-12", "title": "The Steel Trap", "video": false, "vote_average": 6.3, "vote_count": 7, "popularity": 3.407}, {"id": 98301, "video": false, "vote_count": 5, "vote_average": 6.3, "title": "Adventure in Manhattan", "release_date": "1936-10-08", "original_language": "en", "original_title": "Adventure in Manhattan", "genre_ids": [35, 80, 18, 9648], "backdrop_path": "/k3Wb7NAH91XZZbQaW4la0u9m80n.jpg", "adult": false, "overview": "Fun little film about an egotistical crime writer who gets involved with the case of a notorious art thief (who is believed to be dead) while at the same time romancing a lovely young actress who's in a play that also happens to be the cover for massive jewel job.  Art connoisseur and criminologist George Melville (Joel McCrea) is hired to track down art thieves, assisted by perky Claire Peyton (Jean Arthur) and goaded by Phil Bane (Thomas Mitchell), the roaring newspaper editor who has employed him.  The mastermind poses as a theatrical impresario and stages a war drama, replete with loud explosions, to divert attention from his band of thieves, who are cracking safes in a bank adjacent to the theater.", "poster_path": "/cXcWgoFtdUao4yRrCYWTA8aauD3.jpg", "popularity": 3.313}, {"adult": false, "backdrop_path": "/WeDJNcoIJDC6FvcC19dEHz09XR.jpg", "genre_ids": [99, 10751], "id": 41276, "original_language": "en", "original_title": "The Life and Times of Hank Greenberg", "overview": "The story of Baseball Hall-of-Famer Hank Greenberg is told through archival film footage and interviews with Jewish and non-Jewish fans, his former teammates, his friends, and his family. As a great first baseman with the Detroit Tigers, Greenberg endured antisemitism and became a hero and source of inspiration throughout the Jewish community, not incidentally leading the Tigers to Major League dominance in the 1930s. Written by George S. Davis", "poster_path": "/q5L7XLJ4ylDAs0txMMREbwuoudD.jpg", "release_date": "2000-01-12", "title": "The Life and Times of Hank Greenberg", "video": false, "vote_average": 6.0, "vote_count": 6, "popularity": 1.405}, {"adult": false, "backdrop_path": "/8pogplCaHNOMtce3Vyvc0zmdUio.jpg", "genre_ids": [35, 99], "id": 73669, "original_language": "en", "original_title": "Shut Up Little Man! An Audio Misadventure", "overview": "In 1987, Eddie Lee Sausage and Mitch Deprey recorded the nightly squabbles of their over-the-top neighbors, homophobic Raymond Huffman and proudly gay Peter Haskett, and the chronicle of the pair's bizarre existence soon took on a life of its own. This darkly funny documentary checks in with former punks Eddie and Mitch, who detail their late-'80s Lower Haight surroundings, and surveys the tapes' influence on an array of underground artists.", "poster_path": "/dZhG1xwvBua9GJFTazk9OKP0zxi.jpg", "release_date": "2011-08-26", "title": "Shut Up Little Man! An Audio Misadventure", "video": false, "vote_average": 5.3, "vote_count": 17, "popularity": 2.979}, {"adult": false, "backdrop_path": "/4wg5br2VIoUHsTpqIUhDUt1Eksw.jpg", "genre_ids": [18, 9648, 10749, 53], "id": 43692, "original_language": "en", "original_title": "The Clairvoyant", "overview": "A fake psychic suddenly turns into the real thing when he meets a young beauty. (TCM)", "poster_path": "/zuJbyNH0aKYwbV3oW6V3NWPHLPi.jpg", "release_date": "1935-06-07", "title": "The Clairvoyant", "video": false, "vote_average": 5.8, "vote_count": 8, "popularity": 1.81}, {"adult": false, "backdrop_path": "/ghVKxnsXgzbO88zT28EMB94hZsr.jpg", "genre_ids": [99], "id": 86755, "original_language": "en", "original_title": "Come On Children", "overview": "Five boys and five girls ages 13 to 19 live on a farm for ten weeks, to be filmed, and to see what might emerge for each of them personally.", "poster_path": "/aGzpOxNDdOpHm8AlT27eq78Ygv3.jpg", "release_date": "1973-03-21", "title": "Come On Children", "video": false, "vote_average": 5.5, "vote_count": 4, "popularity": 2.521}, {"id": 32881, "video": false, "vote_count": 6, "vote_average": 6.0, "title": "The Hours and Times", "release_date": "1991-09-07", "original_language": "en", "original_title": "The Hours and Times", "genre_ids": [18], "backdrop_path": "/e6Aou8rs5ILXovenfPK67g7xTa6.jpg", "adult": false, "overview": "A fictionalized account of what may have happened when John Lennon and Brian Epstein went on holiday together to Spain in 1963.", "poster_path": "/kKy7ghERj1UWkjJJURd072OLhbX.jpg", "popularity": 2.348}, {"id": 104219, "video": false, "vote_count": 6, "vote_average": 6.6, "title": "Holiday", "release_date": "1930-07-03", "original_language": "en", "original_title": "Holiday", "genre_ids": [35, 10749], "backdrop_path": "/ueLbJpqw7Bn7JlQ3abCTVHCWm4J.jpg", "adult": false, "overview": "A romantic comedy film which tells the story of a young man who is torn between his free-thinking lifestyle and the tradition of his wealthy fianc\u00e9e's family.", "poster_path": "/ukZruHB7o20vIAuyRYkcpdQYoai.jpg", "popularity": 3.728}, {"id": 57448, "video": false, "vote_count": 16, "vote_average": 7.3, "title": "L'Amour Fou", "release_date": "2010-09-22", "original_language": "fr", "original_title": "L'Amour fou", "genre_ids": [99], "backdrop_path": "/bX95oMEIr687QZs5iP56QSNVeDZ.jpg", "adult": false, "overview": "This documentary examines the life and work of the late fashion designer Yves Saint-Laurent, recounting how a frail prodigy prone to bouts of depression became an icon of the fashion world. Initially appointed head of the House of Dior in 1957 before growing into a globally recognized designer in his own right, Saint-Laurent overcomes his struggles with substance abuse, accumulating a large art collection alongside his lifelong personal and professional partner, Pierre Berg\u00e9.", "poster_path": "/cyhHrsctbYqNDMIUCHVEYKQYR8t.jpg", "popularity": 2.406}, {"adult": false, "backdrop_path": "/n7hQcW1cJpu2boegIZHCZu2d3SJ.jpg", "genre_ids": [18], "id": 96702, "original_language": "en", "original_title": "The Power and the Glory", "overview": "A man's life is retold just after his funeral. Beginning as a track walker, Tom Garner rose through all sorts of railroad jobs to head the company. In the meantime he lost touch with his family. When he saw what was happening it was already too late.", "poster_path": "/jHZ0UnkcazQgDhXm57dmacl3lTr.jpg", "release_date": "1933-10-06", "title": "The Power and the Glory", "video": false, "vote_average": 7.0, "vote_count": 7, "popularity": 3.37}, {"adult": false, "backdrop_path": "/xZvnHhYmX4FdZ9wzHS12o2Jnuww.jpg", "genre_ids": [99], "id": 278837, "original_language": "en", "original_title": "I Am Steve McQueen", "overview": "\"I Am Steve McQueen\" tells the incredible life story of this legendary actor, racer, and cultural icon. Extensive interviews, movie clips, archival footage and sound bites chronicle his extraordinary career while focusing on the correlation between his on-screen and off-screen experiences. Narrated by Robert Downey Jr.", "poster_path": "/p3HmxEHOgQPiygBH8smsjk6iZHx.jpg", "release_date": "2014-06-24", "title": "I Am Steve McQueen", "video": false, "vote_average": 5.9, "vote_count": 17, "popularity": 5.558}], "total_pages": 1, "total_results": 11}, "credits": {"cast": [{"cast_id": 1, "character": "Himself", "credit_id": "52fe444ec3a368484e01baf5", "gender": 0, "id": 143061, "name": "Valentino Garavani", "order": 0, "profile_path": "/6chN0b3UXNrhP91kRDq34Xs842C.jpg"}, {"cast_id": 2, "character": "Himself", "credit_id": "52fe444ec3a368484e01baf9", "gender": 0, "id": 143062, "name": "Giancarlo Giammetti", "order": 1, "profile_path": null}, {"cast_id": 15, "character": "Herself", "credit_id": "587dcdf89251413f4602170d", "gender": 1, "id": 1009999, "name": "Doutzen Kroes", "order": 2, "profile_path": "/dAY10YAk55UeBzaxzMtru6Xkn59.jpg"}, {"cast_id": 16, "character": "", "credit_id": "58cbdcc3c3a36828f3012932", "gender": 0, "id": 68935, "name": "Nati Abascal", "order": 3, "profile_path": "/fV96vl7KShw0iUVzGnDVB3MK2ii.jpg"}, {"cast_id": 17, "character": "", "credit_id": "58cbdccb9251415e2f012d92", "gender": 2, "id": 103057, "name": "Giorgio Armani", "order": 4, "profile_path": "/2jIUqpeLj1Iyn6u8jiX2jkcm1pY.jpg"}, {"cast_id": 18, "character": "", "credit_id": "58cbdcd19251415e6f012e3d", "gender": 0, "id": 1778243, "name": "Jeannie Becker", "order": 5, "profile_path": null}, {"cast_id": 19, "character": "", "credit_id": "58cbdcf0c3a36828f3012953", "gender": 1, "id": 31071, "name": "Marisa Berenson", "order": 6, "profile_path": "/xZdnRbljl8ztvAc91U3oeyZBXKE.jpg"}, {"cast_id": 20, "character": "", "credit_id": "58cbdcf7c3a36828990111dc", "gender": 2, "id": 4756, "name": "Matthew Broderick", "order": 7, "profile_path": "/j9ETatVKFxYR5Ijk8l5tzKO4HPn.jpg"}, {"cast_id": 21, "character": "", "credit_id": "58cbdd009251415e44013245", "gender": 2, "id": 3895, "name": "Michael Caine", "order": 8, "profile_path": "/fx6vcV7iTo2SNywQRPfh6v62wRR.jpg"}, {"cast_id": 22, "character": "", "credit_id": "58cbdd079251415e570120c7", "gender": 1, "id": 13637, "name": "Joan Collins", "order": 9, "profile_path": "/8KKTDl6jaM6RTWuRpuuXOvMsvG.jpg"}, {"cast_id": 23, "character": "", "credit_id": "58cbdd119251415e280134e4", "gender": 0, "id": 1778244, "name": "Jacqueline de Ribes", "order": 10, "profile_path": null}, {"cast_id": 24, "character": "", "credit_id": "58cbdd239251415e6f012e8e", "gender": 0, "id": 1778245, "name": "Vicomtesse Jacqueline de Ribes", "order": 11, "profile_path": null}, {"cast_id": 25, "character": "", "credit_id": "58cbdd2ac3a3682889010a2a", "gender": 0, "id": 1778246, "name": "Alessandra Facchinetti", "order": 12, "profile_path": null}, {"cast_id": 26, "character": "", "credit_id": "58cbdd319251415e6f012e99", "gender": 2, "id": 2366, "name": "Dante Ferretti", "order": 13, "profile_path": "/nKAB8edn2JxVpnyfQAvfQnDJkVd.jpg"}, {"cast_id": 27, "character": "", "credit_id": "58cbdd3dc3a368285d01163b", "gender": 2, "id": 120615, "name": "Tom Ford", "order": 14, "profile_path": "/yyOaH6eVlraIqQFoNq5zYtswOmK.jpg"}, {"cast_id": 28, "character": "", "credit_id": "58cbdd419251415e69013092", "gender": 1, "id": 1813, "name": "Anne Hathaway", "order": 15, "profile_path": "/2VYVqs7n8Q3vpxHdXU8Q6PAI5vv.jpg"}, {"cast_id": 29, "character": "", "credit_id": "58cbdd5ac3a3682889010a42", "gender": 1, "id": 13918, "name": "Elizabeth Hurley", "order": 16, "profile_path": "/7BviNfI5rAZrYi7V8VtBVfMg3w2.jpg"}, {"cast_id": 30, "character": "", "credit_id": "58cbdd629251415e6f012eb0", "gender": 2, "id": 147057, "name": "Karl Lagerfeld", "order": 17, "profile_path": "/lm8l2zZBs7ZOqk1s4JJGvdXQSiG.jpg"}, {"cast_id": 31, "character": "", "credit_id": "58cbdd6ac3a36828e40127e6", "gender": 1, "id": 5590, "name": "Elle Macpherson", "order": 18, "profile_path": "/1XWYq795rjP2dQtH8PRC8GUI3aI.jpg"}, {"cast_id": 32, "character": "", "credit_id": "58cbdd73c3a36828aa011291", "gender": 1, "id": 1199514, "name": "Donatella Versace", "order": 19, "profile_path": null}, {"cast_id": 33, "character": "", "credit_id": "58cbdd7a9251415e2801353a", "gender": 0, "id": 1226423, "name": "Diane von F\u00fcrstenberg", "order": 20, "profile_path": "/taiaGhqDAjLVNUr34NF1BrNrW0L.jpg"}, {"cast_id": 34, "character": "", "credit_id": "58cbdd81c3a36828aa01129e", "gender": 0, "id": 1229590, "name": "Alek Wek", "order": 21, "profile_path": "/458t5004taXZJNTijUMuzut6Svz.jpg"}, {"cast_id": 35, "character": "", "credit_id": "58cbdd889251415e28013548", "gender": 0, "id": 89815, "name": "Anna Wintour", "order": 22, "profile_path": "/n14ZUjdjBkdFKDJsbvUubcYPA4i.jpg"}], "crew": [{"credit_id": "52fe444ec3a368484e01bb29", "department": "Production", "gender": 0, "id": 57872, "job": "Executive Producer", "name": "Adam Leff", "profile_path": null}, {"credit_id": "52fe444ec3a368484e01bb23", "department": "Production", "gender": 0, "id": 143063, "job": "Producer", "name": "Mark Tyrnauer", "profile_path": "/sqYVvSXHGoPTqkO143m7XH5mo6y.jpg"}, {"credit_id": "52fe444ec3a368484e01baff", "department": "Production", "gender": 0, "id": 143064, "job": "Producer", "name": "Matt Kapp", "profile_path": null}, {"credit_id": "52fe444ec3a368484e01bb05", "department": "Production", "gender": 0, "id": 143065, "job": "Executive Producer", "name": "Carter Burden", "profile_path": null}, {"credit_id": "52fe444ec3a368484e01bb0b", "department": "Camera", "gender": 2, "id": 143066, "job": "Director of Photography", "name": "Tom Hurwitz", "profile_path": "/x97ZEmots2W7ldrDvUMDkZTBATs.jpg"}, {"credit_id": "52fe444ec3a368484e01bb11", "department": "Editing", "gender": 2, "id": 143067, "job": "Editor", "name": "Bob Eisenhardt", "profile_path": null}, {"credit_id": "52fe444ec3a368484e01bb2f", "department": "Editing", "gender": 0, "id": 143069, "job": "Editor", "name": "Fr\u00e9d\u00e9ric Tcheng", "profile_path": null}, {"credit_id": "52fe444ec3a368484e01bb1d", "department": "Production", "gender": 0, "id": 143069, "job": "Producer", "name": "Fr\u00e9d\u00e9ric Tcheng", "profile_path": null}, {"credit_id": "52fe444ec3a368484e01bb35", "department": "Directing", "gender": 2, "id": 1116251, "job": "Director", "name": "Matt Tyrnauer", "profile_path": "/8R7WlYiiB5XaLsfvizmSsaGXLd0.jpg"}, {"credit_id": "57d425dfc3a368556a00545a", "department": "Sound", "gender": 2, "id": 1677126, "job": "Sound", "name": "Peter Miller", "profile_path": null}]}}