{"adult": false, "backdrop_path": "/oOoGHPKUGzehRXpIwPsJTBxzcdU.jpg", "belongs_to_collection": null, "budget": 0, "genres": [{"id": 99, "name": "Documentary"}], "homepage": "http://neuronstonirvana.com/", "id": 228813, "imdb_id": "tt2195566", "original_language": "en", "original_title": "Neurons to Nirvana", "overview": "Through interviews with leading psychologists and scientists, Neurons to Nirvana explores the history of four powerful psychedelic substances (LSD, Psilocybin, MDMA and Ayahuasca) and their previously established medicinal potential. Strictly focusing on the science and medicinal properties of these drugs, Neurons to Nirvana looks into why our society has created such a social and political bias against even allowing research to continue the exploration of any possible positive effects they can present in treating some of today's most challenging afflictions.", "popularity": 1.798, "poster_path": "/iWz85pWapNFcs1jr0d0iZYzjCqT.jpg", "production_companies": [{"id": 3728, "logo_path": null, "name": "Mangusta Productions", "origin_country": ""}], "production_countries": [], "release_date": "2013-10-19", "revenue": 0, "runtime": 69, "spoken_languages": [{"iso_639_1": "en", "name": "English"}], "status": "Released", "tagline": "", "title": "Neurons to Nirvana", "video": false, "vote_average": 7.9, "vote_count": 7, "keywords": {"keywords": [{"id": 1279, "name": "medicine"}, {"id": 1601, "name": "war on drugs"}, {"id": 5498, "name": "lsd"}, {"id": 7903, "name": "ayahuasca"}, {"id": 157908, "name": "psychedelics"}, {"id": 161201, "name": "alternative medicine"}, {"id": 194867, "name": "psilocybin"}, {"id": 194868, "name": "mdma"}]}, "similar": {"page": 1, "results": [{"adult": false, "backdrop_path": "/jWkfFRR1u6KuxmKXnwrM2r6usDX.jpg", "genre_ids": [99], "id": 24506, "original_language": "en", "original_title": "The Enemies of Reason", "overview": "Documentary written and presented by scientist Richard Dawkins, in which he seeks to expose \"those areas of belief that exist without scientific proof, yet manage to hold the nation under their spell\", including mediumship, psychokinesis, acupuncture, and other forms of alternative medicine.", "poster_path": "/nWAOXgRRSM4n6XkUZ1WPYX1NJqf.jpg", "release_date": "2007-01-01", "title": "The Enemies of Reason", "video": false, "vote_average": 7.4, "vote_count": 19, "popularity": 4.854}, {"adult": false, "backdrop_path": "/9YHXNQ8BD9edBk1Lp2Z23h98KRI.jpg", "genre_ids": [99], "id": 103195, "original_language": "de", "original_title": "The Substance: Albert Hofmann's LSD", "overview": "By coincidence rather than by design, the Swiss chemist Albert Hofmann makes a sensational discovery in the spring of 1943. He realizes that he is dealing with a powerful molecule that will have an impact that reaches far beyond the scientific world. THE SUBSTANCE is an investigation into our troubled relationship with LSD, told from its beginnings to today.", "poster_path": "/jpXGGmLfY5q8t8c5nkqZjuHNtQ1.jpg", "release_date": "2011-11-17", "title": "The Substance: Albert Hofmann's LSD", "video": false, "vote_average": 6.9, "vote_count": 11, "popularity": 2.582}, {"adult": false, "backdrop_path": null, "genre_ids": [99], "id": 75980, "original_language": "en", "original_title": "Shamans of the Amazon", "overview": "SHAMANS OF THE AMAZON is a personal account of filmmaker Dean Jefferys as he returns to the Amazon with his partner and one year old daughter. They journey deep into the Ecuadorian rainforest to learn about and experience the ancient ayahuasca healing ceremony. The film brings to the viewer an intimate and fascinating look at the shamans of the Amazon, and the life that is threatened by ecological destruction.", "poster_path": "/j0Au3Kjpcs4PSL75j9cHb7JuBKI.jpg", "release_date": "2001-01-01", "title": "Shamans of the Amazon", "video": false, "vote_average": 0.0, "vote_count": 0, "popularity": 1.4}, {"adult": false, "backdrop_path": null, "genre_ids": [99], "id": 298782, "original_language": "en", "original_title": "Aya: Awakenings", "overview": "Aya: Awakenings' is an experiential journey by journalist Rak Razam into the world and visions of ayahuasca, a powerful hallucinogenic plant medicine from the Amazon, capturing the experience and the western dynamic around it in unprecedented detail.", "poster_path": "/hs6oDDlQveMoS5Bhv1JjjdgDpkU.jpg", "release_date": "2013-04-01", "title": "Aya: Awakenings", "video": false, "vote_average": 3.0, "vote_count": 1, "popularity": 0.873}, {"adult": false, "backdrop_path": null, "genre_ids": [99], "id": 301548, "original_language": "de", "original_title": "Das Wissen vom Heilen", "overview": "A documentary film about Tibetan traditional medicine.", "poster_path": "/3a5mYn5peQdYNZBgqH68gfKbzsu.jpg", "release_date": "1997-05-22", "title": "The Knowledge of Healing", "video": false, "vote_average": 0.0, "vote_count": 0, "popularity": 1.091}, {"adult": false, "backdrop_path": "/lXC8JCsNkNVCiQYyHdwrEP4kWgc.jpg", "genre_ids": [99], "id": 104718, "original_language": "fr", "original_title": "D'autres mondes", "overview": "The secrets about unlocking the mysteries of consciousness by plant-drugs. The related chances and risks involved in this shamanism.", "poster_path": "/ySsN3QZ7bHhNxTApciD3Fazfwuj.jpg", "release_date": "2004-06-30", "title": "Other Worlds", "video": false, "vote_average": 6.4, "vote_count": 6, "popularity": 2.359}, {"adult": false, "backdrop_path": "/3qOJjeXAXvn8L1YYc5ygN60BnQQ.jpg", "genre_ids": [99], "id": 302964, "original_language": "en", "original_title": "Cielo tierra", "overview": "This documentary examines ayahuasca shamanism near Iquitos (a metropolis in the Peruvian Amazon), and the tourism it has attracted. The filmmakers talk with two ayahuasqueros, Percy Garcia and Ron Wheelock, as well as ayuahuasca tourists and local people connected with the ayahuasca industry.", "poster_path": "/3zJqNsgH3leIrxIcDrIGGjw1SHr.jpg", "release_date": "2008-09-21", "title": "Heaven Earth", "video": false, "vote_average": 0.0, "vote_count": 0, "popularity": 0.924}, {"adult": false, "backdrop_path": null, "genre_ids": [99], "id": 596544, "original_language": "es", "original_title": "La medicina del perd\u00f3n", "overview": "Benito Ar\u00e9valo is an onaya: a traditional healer in a Shipibo-Konibo community in Peruvian Amazonia. He explains something of the onaya tradition, and how he came to drink the plant medicine ayahuasca under his father's tutelage. Ar\u00e9valo leads an ayahuasca ceremony for Westerners, and shares with us something of his understanding of the plants and the onaya tradition.", "poster_path": null, "release_date": "2001-01-01", "title": "The Medicine of Forgiveness", "video": false, "vote_average": 0.0, "vote_count": 0, "popularity": 0.6}, {"adult": false, "backdrop_path": null, "genre_ids": [99], "id": 617945, "original_language": "de", "original_title": "Auf der Suche nach Heilern oder Ich bin ein Hypochonder", "overview": "", "poster_path": null, "release_date": "2014-05-09", "title": "Auf der Suche nach Heilern oder Ich bin ein Hypochonder", "video": false, "vote_average": 0.0, "vote_count": 0, "popularity": 1.097}, {"adult": false, "backdrop_path": null, "genre_ids": [99], "id": 299629, "original_language": "en", "original_title": "Metamorphosis", "overview": "Hamilton Souther is the founder of Blue Morpho Tours, a company that caters to ayahuasca tourists in the Peruvian Amazon. Souther talks about the events that led him to Amazonian shamanism. Five first-time ayahuasca drinkers on a nine-day retreat with Blue Morpho relate their experiences.", "poster_path": "/pNNz120y3HQE7RlyLBXRDjaUCzN.jpg", "release_date": "2009-06-12", "title": "Metamorphosis", "video": false, "vote_average": 0.0, "vote_count": 0, "popularity": 0.6}, {"adult": false, "backdrop_path": null, "genre_ids": [99], "id": 320179, "original_language": "en", "original_title": "Resistance", "overview": "Are the medicines and every day products we use putting us at risk RESISTANCE sheds light on the global crisis of antibiotic resistance and uncovers how our extensive use of bacteria-killing antibiotics has created a new kind of disease, resistant to the medicines created to destroy it.", "poster_path": "/aKOxnQssaAfS7gtXLG8ggwDSCk5.jpg", "release_date": "2015-01-01", "title": "Resistance", "video": false, "vote_average": 6.7, "vote_count": 10, "popularity": 3.612}, {"adult": false, "backdrop_path": null, "genre_ids": [99], "id": 127813, "original_language": "en", "original_title": "Case Study: LSD", "overview": "A young girl relates what happened during her first LSD trip, when \u2013 among other things \u2013 her food began talking to her.", "poster_path": "/AbeOlN6VMK4Jei69lOhXWEJN4nK.jpg", "release_date": "1969-12-31", "title": "Case Study: LSD", "video": false, "vote_average": 4.9, "vote_count": 8, "popularity": 1.704}, {"adult": false, "backdrop_path": "/csJRtCakw3iK9eDEXwOjwsQoLgB.jpg", "genre_ids": [], "id": 280819, "original_language": "es", "original_title": "Ayahuasca", "overview": "Three people fly from Chile and Spain to Iquitos, Peru to experience the magic of the sacred plant ayahuasca.", "poster_path": "/e0Xe7YtoKZ5DuJq8GdZKJe3gCWk.jpg", "release_date": "2014-05-01", "title": "Ayahuasca", "video": false, "vote_average": 0.0, "vote_count": 0, "popularity": 0.6}, {"adult": false, "backdrop_path": null, "genre_ids": [99], "id": 51131, "original_language": "en", "original_title": "Emperor of Hemp", "overview": "This documentary chronicles the life of Jack Herer and his struggle for awareness and enlightenment of cannabis sativa, a.k.a. marijuana or hemp. His research into this plant culminates in his writing The Emperor Wears No Clothes: The Official Hemp Bible. He has dedicated his life to educating people about the history and many utilizations of hemp, the conspiracy against it, and ending marijuana prohibition.", "poster_path": "/sxoo16DVWz448NyJD5cNtatXiZ8.jpg", "release_date": "1999-06-15", "title": "Emperor of Hemp", "video": false, "vote_average": 4.3, "vote_count": 2, "popularity": 1.521}, {"adult": false, "backdrop_path": "/eiZda1VIRLBcq0VwlNGSY987qx7.jpg", "genre_ids": [99], "id": 535851, "original_language": "en", "original_title": "The Nature of Things: The Antibiotic Hunters", "overview": "Dr. David Suzuki explains how antibiotics have been over prescribed for decades and it has led to the fact that now there are bacterial infections that are resistant to them, and people are dying by the thousands.", "poster_path": "/uavrC6rjNGi1Boe5lQGAd9uWTqa.jpg", "release_date": "2015-03-05", "title": "The Nature of Things: The Antibiotic Hunters", "video": false, "vote_average": 7.0, "vote_count": 1, "popularity": 0.708}, {"adult": false, "backdrop_path": null, "genre_ids": [99], "id": 596525, "original_language": "en", "original_title": "The Man Who Drank the Universe", "overview": "It is late 2004, and 34-year-old Englishman Alistair Appleton is about to fly from London to the Brazilian coast, where he will drink ayahuasca for the first time. There he meets and chats interesting people who have come for growth and healing. With wit, insight, and sensitivity, Alistair shares this experience with us, and chats with some fellow participants before and after the ayahuasca ceremonies.  For the past few years, Alistair had been working as a television presenter. In 2000, he started making trips to the Centre for World Peace and Health in Scotland to learn how to meditate. When clinical psychologist Silvia Polivoy opened an ayahuasca healing center in Bahia in 2004, Alistair faced his fears and seized the opportunity.", "poster_path": null, "release_date": "2005-01-01", "title": "The Man Who Drank the Universe", "video": false, "vote_average": 0.0, "vote_count": 0, "popularity": 0.6}, {"adult": false, "backdrop_path": null, "genre_ids": [99], "id": 505458, "original_language": "en", "original_title": "Time Is Art: Synchronicity and the Collective Dream", "overview": "\"Time is Art\" is ultimately the story of an artist's search for inspiration in a money-driven society that shuns creativity, and of the human search for meaning in a seemingly meaningless world.", "poster_path": "/91AVcFVQqao3lJAINz8YZ9DvbEu.jpg", "release_date": "2015-11-11", "title": "Time Is Art: Synchronicity and the Collective Dream", "video": false, "vote_average": 0.0, "vote_count": 0, "popularity": 1.96}, {"adult": false, "backdrop_path": null, "genre_ids": [99], "id": 596035, "original_language": "en", "original_title": "Amazonia: Healing with Sacred Plants", "overview": "Psychologist and anthropologist Alberto Villoldo talks with traditional healers of Madre de Dios, a  department within in Peruvian Amazonia. They and Dr. Villoldo explain aspects of ayahuasca, a powerful, plant-based medicine of crucial importance.", "poster_path": "/q3pc1VkPbxvGw3FYI6MqtRIkcPv.jpg", "release_date": "2015-07-01", "title": "Amazonia: Healing with Sacred Plants", "video": false, "vote_average": 0.0, "vote_count": 0, "popularity": 0.6}, {"adult": false, "backdrop_path": "/3Trex51rAJScookY2ODSw3AUN94.jpg", "genre_ids": [99], "id": 596551, "original_language": "en", "original_title": "Ayahuasca Diary", "overview": "Four Westerners with various ailments travel to Peruvian Amazonia to drink ayahuasca, a traditional medicine renowned for its healing powers.", "poster_path": null, "release_date": "2009-01-01", "title": "Ayahuasca Diary", "video": false, "vote_average": 0.0, "vote_count": 0, "popularity": 0.6}, {"adult": false, "backdrop_path": "/yRsVtj6Oa7PucW8VcJZOFx5vYQe.jpg", "genre_ids": [99], "id": 62665, "original_language": "en", "original_title": "Cancer: The forbidden cures", "overview": "Cancer is the only disease that has been defeated dozens of times without anyone knowing it. In the last 100 years, doctors, scientists, and researchers have developed diverse and effective solutions against cancer only to be thwarted by the political and propaganda power of the drug-dominated medical profession. This is the story of Essiac, Hoxsey, Laetrile, Shark Cartilage, Mistletoe, and Bicarbonate of Soda all put together in a stunning overview that leaves no doubt that inexpensive cures for cancer do exist but are systematically blocked by Big Pharma because they come from nature and cannot be patented. Highly informative.", "poster_path": "/fdB7s9jvcI0M8YZJY3JgUoOSlqq.jpg", "release_date": "2010-06-20", "title": "Cancer: The forbidden cures", "video": false, "vote_average": 9.7, "vote_count": 3, "popularity": 1.114}], "total_pages": 2, "total_results": 30}, "recommendations": {"page": 1, "results": [{"adult": false, "backdrop_path": "/6gDVAQi9F66BWn4UseDpP7mCkP9.jpg", "genre_ids": [99], "id": 92506, "original_language": "en", "original_title": "Four Horsemen", "overview": "Documentary about the modern apocalypse caused by a rapacious banking system.  23 leading thinkers \u2013 frustrated at the failure of their respective disciplines \u2013 break their silence to explain how the world really works.", "poster_path": "/blLGyh8bLZEZNgeTF2a101jKqJz.jpg", "release_date": "2012-03-14", "title": "Four Horsemen", "video": false, "vote_average": 7.3, "vote_count": 23, "popularity": 3.912}, {"adult": false, "backdrop_path": "/lSGtXEXMKhJJh5T5wcbQz3s9ZGh.jpg", "genre_ids": [99], "id": 349086, "original_language": "en", "original_title": "Bitcoin: The End of Money as We Know It", "overview": "A documentary exploring how money and the trading of value has evolved, culminating in Bitcoin.", "poster_path": "/c1CXHJuyDCcPsxJq6V7EiYoNxpH.jpg", "release_date": "2015-07-18", "title": "Bitcoin: The End of Money as We Know It", "video": false, "vote_average": 7.1, "vote_count": 22, "popularity": 5.093}], "total_pages": 1, "total_results": 2}, "credits": {"cast": [{"cast_id": 1, "character": "Himself", "credit_id": "52fe4ed99251416c751647e9", "gender": 0, "id": 930969, "name": "Gabor Mate", "order": 0, "profile_path": null}, {"cast_id": 2, "character": "Herself", "credit_id": "52fe4ed99251416c751647ed", "gender": 0, "id": 1263339, "name": "Julie Holland", "order": 1, "profile_path": null}, {"cast_id": 3, "character": "Himself", "credit_id": "52fe4ed99251416c751647f1", "gender": 0, "id": 1263340, "name": "Rick Doblin", "order": 2, "profile_path": null}, {"cast_id": 4, "character": "Himself", "credit_id": "52fe4ed99251416c751647f5", "gender": 0, "id": 932496, "name": "Ralph Metzner", "order": 3, "profile_path": null}, {"cast_id": 8, "character": "Himself", "credit_id": "52fe4ed99251416c75164809", "gender": 0, "id": 1263361, "name": "Charles S. Grob", "order": 5, "profile_path": null}, {"cast_id": 10, "character": "Himself", "credit_id": "52fe4ed99251416c75164811", "gender": 2, "id": 1263363, "name": "David Healy", "order": 7, "profile_path": null}, {"cast_id": 11, "character": "Himself", "credit_id": "52fe4ed99251416c75164815", "gender": 0, "id": 1263364, "name": "David E. Nichols", "order": 8, "profile_path": null}, {"cast_id": 12, "character": "Himself", "credit_id": "52fe4ed99251416c75164819", "gender": 0, "id": 1263365, "name": "David Nutt", "order": 9, "profile_path": null}, {"cast_id": 13, "character": "Himself", "credit_id": "52fe4ed99251416c7516481d", "gender": 2, "id": 930970, "name": "Dennis J. McKenna", "order": 10, "profile_path": "/r9oRRTHZxIyEWUf50Kcu654HAJO.jpg"}, {"cast_id": 14, "character": "Himself", "credit_id": "52fe4ed99251416c75164821", "gender": 0, "id": 1263366, "name": "Gillian Maxwell", "order": 11, "profile_path": null}, {"cast_id": 15, "character": "Herself", "credit_id": "52fe4ed99251416c75164825", "gender": 0, "id": 1263367, "name": "Ingrid Pacey", "order": 12, "profile_path": null}, {"cast_id": 16, "character": "Himself", "credit_id": "52fe4ed99251416c75164829", "gender": 0, "id": 1263368, "name": "Jeremy Narby", "order": 13, "profile_path": null}, {"cast_id": 17, "character": "Herself", "credit_id": "52fe4ed99251416c7516482d", "gender": 0, "id": 544422, "name": "Kathleen Harrison", "order": 14, "profile_path": null}, {"cast_id": 18, "character": "Himself", "credit_id": "52fe4ed99251416c75164831", "gender": 0, "id": 1263369, "name": "Manuel Schoch", "order": 15, "profile_path": null}, {"cast_id": 19, "character": "Himself", "credit_id": "52fe4ed99251416c75164835", "gender": 2, "id": 1263370, "name": "Michael James Winkelman", "order": 16, "profile_path": "/st50WbbeHszPwfVjYGZ4BDwFdKb.jpg"}, {"cast_id": 20, "character": "Himself", "credit_id": "52fe4ed99251416c75164839", "gender": 0, "id": 1263371, "name": "Michael Mithoefer", "order": 17, "profile_path": null}, {"cast_id": 21, "character": "Himself", "credit_id": "52fe4ed99251416c7516483d", "gender": 0, "id": 544420, "name": "Roland Griffiths", "order": 18, "profile_path": "/rNP50UqRniTZwMDORAGyfSv1Hva.jpg"}, {"cast_id": 22, "character": "Himself", "credit_id": "52fe4ed99251416c75164841", "gender": 0, "id": 1263373, "name": "Stanislav Grof", "order": 19, "profile_path": null}, {"cast_id": 23, "character": "Himself", "credit_id": "52fe4ed99251416c75164845", "gender": 0, "id": 1263374, "name": "Stephen Ross", "order": 20, "profile_path": null}, {"cast_id": 24, "character": "Himself", "credit_id": "52fe4ed99251416c75164849", "gender": 0, "id": 1263376, "name": "Wade Davis", "order": 21, "profile_path": null}, {"cast_id": 25, "character": "Himself", "credit_id": "52fe4ed99251416c7516484d", "gender": 0, "id": 1263377, "name": "William Richards", "order": 22, "profile_path": null}, {"cast_id": 26, "character": "Herself", "credit_id": "5421d3bb0e0a260a1c000501", "gender": 0, "id": 1366950, "name": "Amanda Feilding", "order": 23, "profile_path": "/iKCovcefFLBSThzaiY225WkzVpR.jpg"}, {"cast_id": 27, "character": "Himself", "credit_id": "57c6d074c3a3680b29000b37", "gender": 0, "id": 1672627, "name": "Chris Bennett", "order": 24, "profile_path": "/dO8A3tqXgRh6l57YSG50e3MjiFW.jpg"}], "crew": [{"credit_id": "52fe4ed99251416c751647fb", "department": "Directing", "gender": 0, "id": 1263342, "job": "Director", "name": "Oliver Hockenhull", "profile_path": null}, {"credit_id": "52fe4ed99251416c75164801", "department": "Directing", "gender": 0, "id": 1263359, "job": "Director", "name": "Mikki Willis", "profile_path": null}, {"credit_id": "5961e2f1c3a36828fc0be0b2", "department": "Production", "gender": 2, "id": 69359, "job": "Executive Producer", "name": "Mark Achbar", "profile_path": null}, {"credit_id": "5961e2f992514122510b2080", "department": "Production", "gender": 0, "id": 1402024, "job": "Associate Producer", "name": "Travis Call", "profile_path": null}, {"credit_id": "5961e304c3a368265d0cb942", "department": "Production", "gender": 0, "id": 1717752, "job": "Producer", "name": "Giancarlo Canavesio", "profile_path": null}, {"credit_id": "5961e30c9251415a400a1ba8", "department": "Production", "gender": 0, "id": 1484639, "job": "Executive Producer", "name": "Betsy Carson", "profile_path": null}, {"credit_id": "5961e3189251417904037c45", "department": "Production", "gender": 0, "id": 1847769, "job": "Co-Producer", "name": "Akira Chan", "profile_path": null}, {"credit_id": "5961e31ec3a368293b0d9229", "department": "Production", "gender": 0, "id": 1112973, "job": "Co-Producer", "name": "Shannon Cohn", "profile_path": null}, {"credit_id": "5961e3329251410bfa0d65fa", "department": "Production", "gender": 0, "id": 1263342, "job": "Producer", "name": "Oliver Hockenhull", "profile_path": null}, {"credit_id": "5961e42f9251410a590cff03", "department": "Production", "gender": 0, "id": 1847770, "job": "Executive Producer", "name": "Jon Schultz", "profile_path": null}, {"credit_id": "5961e4369251410bfa0d672b", "department": "Production", "gender": 0, "id": 93022, "job": "Producer", "name": "Sol Tryon", "profile_path": null}, {"credit_id": "5961e43e92514121f00b539b", "department": "Production", "gender": 0, "id": 1263359, "job": "Producer", "name": "Mikki Willis", "profile_path": null}, {"credit_id": "5961e4469251415a400a1d05", "department": "Sound", "gender": 2, "id": 1029850, "job": "Music", "name": "Dennis Burke", "profile_path": null}, {"credit_id": "5961e44dc3a3680dec0a939f", "department": "Sound", "gender": 0, "id": 58263, "job": "Music", "name": "Steven Gutheinz", "profile_path": null}, {"credit_id": "5961e455c3a3680dec0a93ab", "department": "Editing", "gender": 0, "id": 139537, "job": "Editor", "name": "William Gazecki", "profile_path": null}, {"credit_id": "5961e45d9251410bfa0d6760", "department": "Editing", "gender": 0, "id": 1263342, "job": "Editor", "name": "Oliver Hockenhull", "profile_path": null}, {"credit_id": "5961e479c3a3680d590a85c4", "department": "Editing", "gender": 0, "id": 1847771, "job": "Editor", "name": "Adam Taylor", "profile_path": null}, {"credit_id": "5961e4839251417904037dde", "department": "Editing", "gender": 0, "id": 1263359, "job": "Editor", "name": "Mikki Willis", "profile_path": null}, {"credit_id": "5961e48fc3a3680dec0a93fa", "department": "Sound", "gender": 2, "id": 1029850, "job": "Sound Editor", "name": "Dennis Burke", "profile_path": null}, {"credit_id": "5961e495c3a36828a10e6fa0", "department": "Sound", "gender": 2, "id": 1029850, "job": "Sound Mixer", "name": "Dennis Burke", "profile_path": null}, {"credit_id": "5961e49d9251410a590cff75", "department": "Sound", "gender": 0, "id": 1300800, "job": "Sound Re-Recording Mixer", "name": "Drew Martinez", "profile_path": null}]}}