{"adult": false, "backdrop_path": null, "belongs_to_collection": null, "budget": 0, "genres": [{"id": 18, "name": "Drama"}], "homepage": null, "id": 229254, "imdb_id": "tt0120880", "original_language": "sv", "original_title": "Veranda f\u00f6r en tenor", "overview": "The author Thomas meets his childhood friend Hoffman on an autumn night in 1997. They decide to let a dream come true: to make a film of a play by Thomas, Veranda for a Tenor, with Hoffman in the lead role. The story takes us back to the summer of 1961, which changed their lives. The writing of the script awakens memories and forbidden questions are answered. Their friendship is put to the test a final time. Veranda for a tenor is a film about male friendship, but also about love. Their love for the same woman...", "popularity": 0.84, "poster_path": "/xu8egvNF98B9hukopFuzEinplmw.jpg", "production_companies": [{"id": 3159, "logo_path": null, "name": "Migma Film", "origin_country": "SE"}, {"id": 6181, "logo_path": "/wLSdapPKqkBgrRVOKcUx83hCR3Y.png", "name": "Svensk Filmindustri", "origin_country": "SE"}], "production_countries": [{"iso_3166_1": "SE", "name": "Sweden"}], "release_date": "1998-09-10", "revenue": 0, "runtime": 97, "spoken_languages": [{"iso_639_1": "sv", "name": "svenska"}], "status": "Released", "tagline": "", "title": "Waiting for the Tenor", "video": false, "vote_average": 6.0, "vote_count": 1, "keywords": {"keywords": [{"id": 3230, "name": "male friendship"}, {"id": 187056, "name": "woman director"}]}, "similar": {"page": 1, "results": [{"adult": false, "backdrop_path": "/cADbqsIoiDW7X3Myg9nz8eAuno5.jpg", "genre_ids": [18, 10749], "id": 10818, "original_language": "fr", "original_title": "Naissance des pieuvres", "overview": "Set during a sultry summer in a French suburb, Marie is desperate to join the local pool's synchronized swimming team, but is her interest solely for the sake of sport or for a chance to get close to Floriane, the bad girl of the team? Sciamma, and the two leads, capture the uncertainty of teenage sexuality with a sympathetic eye in this delicate drama of the angst of coming-of-age.", "poster_path": "/4jajELYrR4Xmv3CVoKnukRnALa2.jpg", "release_date": "2007-05-17", "title": "Water Lilies", "video": false, "vote_average": 6.1, "vote_count": 119, "popularity": 9.614}, {"adult": false, "backdrop_path": "/gZeJziVigmRqbkEZwKAtSqlLQ6s.jpg", "genre_ids": [18, 10749], "id": 370663, "original_language": "en", "original_title": "Below Her Mouth", "overview": "An unexpected affair quickly escalates into a heart-stopping reality for two women whose passionate connection changes their lives forever.", "poster_path": "/nTGbq37hYLuNy7YgMg0gVLma0NS.jpg", "release_date": "2016-09-10", "title": "Below Her Mouth", "video": false, "vote_average": 6.2, "vote_count": 456, "popularity": 18.664}, {"adult": false, "backdrop_path": "/dvQDRfv3qvfHNnVAR57ouVsuErf.jpg", "genre_ids": [10749, 18], "id": 28031, "original_language": "en", "original_title": "If These Walls Could Talk 2", "overview": "The stories of three lesbian couples -- who live in the same house at different periods of time -- who are at a crossroads in their lives. In 1961, Edith loses her lover, Abby, to a stroke. Linda and Amy struggle with feminist issues in 1972. And, in 2000, Kal and Fran try to have a baby with the help of sperm donor.", "poster_path": "/xs7ODbmYQXCDhvXNvz5tF17T59H.jpg", "release_date": "2000-03-05", "title": "If These Walls Could Talk 2", "video": false, "vote_average": 7.1, "vote_count": 55, "popularity": 8.86}, {"adult": false, "backdrop_path": "/knczzNAjBXzSYkeWxoT1u9VNmjR.jpg", "genre_ids": [10749, 18], "id": 258480, "original_language": "en", "original_title": "Carol", "overview": "In 1950s New York, a department-store clerk who dreams of a better life falls for an older, married woman.", "poster_path": "/AbKa7ANxmui0Jmhh7gV7OSELKIL.jpg", "release_date": "2015-11-20", "title": "Carol", "video": false, "vote_average": 7.4, "vote_count": 2184, "popularity": 13.539}, {"adult": false, "backdrop_path": "/fZ8oFcREAr6wgWcXISGql0xyxjB.jpg", "genre_ids": [35, 18], "id": 39781, "original_language": "en", "original_title": "The Kids Are All Right", "overview": "Two women, Nic and Jules, brought a son and daughter into the world through artificial insemination. When one of their children reaches age, both kids go behind their mothers' backs to meet with the donor. Life becomes so much more interesting when the father, two mothers and children start to become attached to each other.", "poster_path": "/fPDeK4MmoGfi2X0oWZev7LrbMqM.jpg", "release_date": "2010-07-09", "title": "The Kids Are All Right", "video": false, "vote_average": 6.6, "vote_count": 923, "popularity": 12.159}, {"adult": false, "backdrop_path": "/rf6G51j0SZL0tP57I8gnqHTRFEr.jpg", "genre_ids": [35, 18, 10749], "id": 273153, "original_language": "fr", "original_title": "La belle saison", "overview": "In 1971, Carole and Delphine meet and fall in love in Paris. When Carole follows Delphine back to her family farm in Limousin, the two find lesbianism and feminism are not as easy in the countryside.", "poster_path": "/evvAkNMO5VJiy5qIo1Hu7fUfvVI.jpg", "release_date": "2015-08-19", "title": "Summertime", "video": false, "vote_average": 6.6, "vote_count": 162, "popularity": 11.575}, {"id": 9813, "video": false, "vote_count": 128, "vote_average": 6.1, "title": "The Quiet", "release_date": "2005-09-12", "original_language": "en", "original_title": "The Quiet", "genre_ids": [18, 53], "backdrop_path": "/6eyWAZA4CEidZW1xXnQ4vlYBXTP.jpg", "adult": false, "overview": "After her widowed father dies, deaf teenager Dot moves in with her godparents, Olivia and Paul Deer. The Deers' daughter, Nina, is openly hostile to Dot, but that does not prevent her from telling her secrets to her silent stepsister, including the fact that she wants to kill her lecherous father.", "poster_path": "/GEqIE9YlmygHVUfS64LW2cwAAM.jpg", "popularity": 14.844}, {"adult": false, "backdrop_path": "/6tern9vOEwwmkDYC1vRCuO64z0C.jpg", "genre_ids": [10749, 18], "id": 475888, "original_language": "en", "original_title": "Tell It to the Bees", "overview": "Dr. Jean Markham returns to the town she left as a teenager to take over her late father's medical practice. When a school-yard scuffle lands Charlie in her surgery, she invites him to visit the hives in her garden and tell his secrets to the bees, as she once did. The new friendship between the boy and the bee keeper brings his mother Lydia into Jean's world.", "poster_path": "/Rj6zpHhMU1zFW3v28U4PSRSRgP.jpg", "release_date": "2019-05-03", "title": "Tell It to the Bees", "video": false, "vote_average": 6.4, "vote_count": 53, "popularity": 13.175}, {"adult": false, "backdrop_path": "/baYbbMtKRDoDWYJeVWkbygAvAj8.jpg", "genre_ids": [18, 10749], "id": 31216, "original_language": "en", "original_title": "I Can't Think Straight", "overview": "I CAN'T THINK STRAIGHT is a 2007 romance movie about a London-based Jordanian of Palestinian descent, Tala, who is preparing for an elaborate wedding. A turn of events causes her to have an affair and subsequently fall in love with another woman, Leyla, a British Indian.", "poster_path": "/1kapga6rkM5wNuQBYw7sdE42CrA.jpg", "release_date": "2008-06-01", "title": "I Can't Think Straight", "video": false, "vote_average": 7.6, "vote_count": 109, "popularity": 7.815}, {"adult": false, "backdrop_path": "/lI5h8KaoeObu4NMTwzeRuUHzRwD.jpg", "genre_ids": [18, 9648, 53], "id": 401898, "original_language": "no", "original_title": "Thelma", "overview": "A college student starts to experience extreme seizures. She soon learns that the violent episodes are a symptom of inexplicable abilities.", "poster_path": "/yzSfG8TLAqw7nMQh2lxirQkQpgs.jpg", "release_date": "2017-09-15", "title": "Thelma", "video": false, "vote_average": 7.1, "vote_count": 418, "popularity": 13.105}, {"adult": false, "backdrop_path": "/tIFRPjIXQ3sYrmxbIeOu9K1JkUz.jpg", "genre_ids": [18, 10749], "id": 294, "original_language": "en", "original_title": "Desert Hearts", "overview": "The story of straight-edge literature professor Vivian who travels to Reno to get away from a relationship breakup when she falls in love with an attractive and unconventional girl named Cay.", "poster_path": "/b8JSmQSpYYJhctMtxNgqh0elENg.jpg", "release_date": "1985-10-01", "title": "Desert Hearts", "video": false, "vote_average": 7.3, "vote_count": 58, "popularity": 6.976}, {"adult": false, "backdrop_path": "/g3LYarEY9LjB28Ct2trwFN72gqZ.jpg", "genre_ids": [35], "id": 437557, "original_language": "en", "original_title": "Blockers", "overview": "When three parents discover their daughters\u2019 pact to lose their virginity at prom, they launch a covert one-night operation to stop the teens from sealing the deal.", "poster_path": "/uvlUQXg0AlpGzKukO11K7QtW3Yu.jpg", "release_date": "2018-03-14", "title": "Blockers", "video": false, "vote_average": 6.2, "vote_count": 1155, "popularity": 17.886}, {"adult": false, "backdrop_path": "/stSaFz5CtMXwIj3r4MDjqxqWRot.jpg", "genre_ids": [18, 12], "id": 468, "original_language": "en", "original_title": "My Own Private Idaho", "overview": "In this loose adaptation of Shakespeare's \"Henry IV,\" Mike Waters is a gay hustler afflicted with narcolepsy. Scott Favor is the rebellious son of a mayor. Together, the two travel from Portland, Oregon to Idaho and finally to the coast of Italy in a quest to find Mike's estranged mother. Along the way they turn tricks for money and drugs, eventually attracting the attention of a wealthy benefactor and sexual deviant.", "poster_path": "/xgWJPruxsL2TGVwhZDM8YiarbEY.jpg", "release_date": "1991-02-01", "title": "My Own Private Idaho", "video": false, "vote_average": 7.1, "vote_count": 524, "popularity": 14.658}, {"adult": false, "backdrop_path": "/zBB1mzmqnUuSrlTuf0SFFlI1EoJ.jpg", "genre_ids": [18], "id": 244772, "original_language": "en", "original_title": "The Skeleton Twins", "overview": "Estranged twins Maggie and Milo coincidentally cheat death on the same day, prompting them to reunite and confront the reasons their lives went so wrong. As the twins' reunion reinvigorates them, they realize the key to fixing their lives may just lie in repairing their relationship.", "poster_path": "/vvmv1R2jDXJeeeyYcGg0ypXc2XK.jpg", "release_date": "2014-09-12", "title": "The Skeleton Twins", "video": false, "vote_average": 6.7, "vote_count": 416, "popularity": 10.481}, {"adult": false, "backdrop_path": "/3YGy88nTV2e0wxZcKI1goiEN9oy.jpg", "genre_ids": [18, 10749], "id": 37636, "original_language": "en", "original_title": "High Art", "overview": "A young female intern at a small magazine company becomes involved with a drug-addicted lesbian photographer, both of whom seek to exploit each other for their respective careers, while slowly falling in love with each other.", "poster_path": "/qTg05RNJIvb9w4Z7XIcAZxuZmTn.jpg", "release_date": "1998-06-12", "title": "High Art", "video": false, "vote_average": 6.6, "vote_count": 61, "popularity": 7.422}, {"adult": false, "backdrop_path": "/caLMOD3ZJ3V7qjlxDXrzlJfBLgD.jpg", "genre_ids": [18, 10749], "id": 20, "original_language": "en", "original_title": "My Life Without Me", "overview": "A Pedro Almodovar production in which a fatally ill mother with only two months to live creates a list of things she wants to do before she dies with out telling her family of her illness.", "poster_path": "/vVj92VBFUBzjqzLvBiPVVlJDp78.jpg", "release_date": "2003-03-07", "title": "My Life Without Me", "video": false, "vote_average": 6.1, "vote_count": 220, "popularity": 10.382}, {"adult": false, "backdrop_path": "/useuHJQ5HOoEWkAvEjL1FW1sUfe.jpg", "genre_ids": [18], "id": 376867, "original_language": "en", "original_title": "Moonlight", "overview": "The tender, heartbreaking story of a young man\u2019s struggle to find himself, told across three defining chapters in his life as he experiences the ecstasy, pain, and beauty of falling in love, while grappling with his own sexuality.", "poster_path": "/qAwFbszz0kRyTuXmMeKQZCX3Q2O.jpg", "release_date": "2016-10-21", "title": "Moonlight", "video": false, "vote_average": 7.4, "vote_count": 4410, "popularity": 21.716}, {"id": 434714, "video": false, "vote_count": 32, "vote_average": 7.5, "title": "My Days of Mercy", "release_date": "2019-07-11", "original_language": "en", "original_title": "My Days of Mercy", "genre_ids": [18, 10749], "backdrop_path": "/7Lbzq33nMMIQtAfZAmSqG6ibLSg.jpg", "adult": false, "overview": "The daughter of a man on death row falls in love with a woman on the opposing side of her family's political cause.", "poster_path": "/adIPKAoKnKL9vCTkvfF4J9ZA7Ln.jpg", "popularity": 9.342}, {"adult": false, "backdrop_path": "/ph5fElfh4U7O3jwhFljxz2LDp1l.jpg", "genre_ids": [18, 36], "id": 375262, "original_language": "en", "original_title": "The Favourite", "overview": "England, early 18th century. The close relationship between Queen Anne and Sarah Churchill is threatened by the arrival of Sarah's cousin, Abigail Hill, resulting in a bitter rivalry between the two cousins to be the Queen's favourite.", "poster_path": "/cwBq0onfmeilU5xgqNNjJAMPfpw.jpg", "release_date": "2018-11-23", "title": "The Favourite", "video": false, "vote_average": 7.6, "vote_count": 2823, "popularity": 28.019}, {"adult": false, "backdrop_path": "/k8H7ye6Sab7OrDJoo8Qp5WFGHGk.jpg", "genre_ids": [35, 10749, 18], "id": 244264, "original_language": "en", "original_title": "Laggies", "overview": "Overeducated and underemployed, 28 year old Megan is in the throes of a quarterlife crisis. Squarely into adulthood with no career prospects, no particular motivation to think about her future and no one to relate to, Megan is comfortable lagging a few steps behind - while her friends check off milestones and celebrate their new grown-up status. When her high-school sweetheart proposes, Megan panics and- given an unexpected opportunity to escape for a week - hides out in the home of her new friend, 16-year old Annika and Annika's world-weary single dad Craig.", "poster_path": "/dNcoXoRC7JHiqbe7k5Ufo6syiPP.jpg", "release_date": "2014-09-25", "title": "Laggies", "video": false, "vote_average": 6.1, "vote_count": 788, "popularity": 13.836}], "total_pages": 1336, "total_results": 26702}, "recommendations": {"page": 1, "results": [], "total_pages": 1, "total_results": 0}, "credits": {"cast": [{"cast_id": 1, "character": "Tomas", "credit_id": "52fe4ee99251416c75166869", "gender": 2, "id": 1068313, "name": "Johan H:son Kjellgren", "order": 0, "profile_path": "/qJgyS8EkA9w4YtdV9sqy0WZ9ZMF.jpg"}, {"cast_id": 2, "character": "Hoffman / Henning", "credit_id": "52fe4ee99251416c7516686d", "gender": 2, "id": 85807, "name": "Krister Henriksson", "order": 1, "profile_path": "/eB5tDActIL8ICvR9zdtjNy4kNGf.jpg"}, {"cast_id": 3, "character": "Bobbo", "credit_id": "52fe4ee99251416c75166871", "gender": 0, "id": 1263878, "name": "Martin Melin", "order": 2, "profile_path": null}, {"cast_id": 4, "character": "The Director", "credit_id": "52fe4ee99251416c75166875", "gender": 2, "id": 6283, "name": "Michael Nyqvist", "order": 3, "profile_path": "/bDjPDDiSna8FN5rqHdheg2wIYYo.jpg"}, {"cast_id": 5, "character": "The Custume Designer", "credit_id": "52fe4ee99251416c75166879", "gender": 0, "id": 232474, "name": "Berglj\u00f3t Arnad\u00f3ttir", "order": 4, "profile_path": "/eRCZi36lshYznkSlRMckI2osmEk.jpg"}, {"cast_id": 6, "character": "The Production Assistant", "credit_id": "52fe4ee99251416c7516687d", "gender": 2, "id": 74927, "name": "Joakim N\u00e4tterqvist", "order": 5, "profile_path": "/zMKiZYT8343o3M7NbUnB07E9EG2.jpg"}, {"cast_id": 8, "character": "Henrik", "credit_id": "563632f2c3a3681b4d01ceeb", "gender": 0, "id": 1530272, "name": "Petter Darin", "order": 6, "profile_path": null}, {"cast_id": 9, "character": "Conny", "credit_id": "56363306925141284c01aafa", "gender": 0, "id": 1530273, "name": "Ruben Lundstr\u00f6m", "order": 7, "profile_path": null}], "crew": [{"credit_id": "563633419251413b4600cb8a", "department": "Production", "gender": 2, "id": 3868, "job": "Executive Producer", "name": "Waldemar Bergendahl", "profile_path": null}, {"credit_id": "5636334dc3a3681b5e019be6", "department": "Production", "gender": 0, "id": 5984, "job": "Executive Producer", "name": "Kerstin Bonnier", "profile_path": null}, {"credit_id": "5636335d925141285701abbc", "department": "Production", "gender": 1, "id": 63747, "job": "Producer", "name": "Anna Croneman", "profile_path": null}, {"credit_id": "56363329c3a3681b4b018f5c", "department": "Writing", "gender": 1, "id": 232123, "job": "Screenplay", "name": "Lisa Ohlin", "profile_path": "/inu28iHP94NZKvxFMRDnhiGeS7h.jpg"}, {"credit_id": "52fe4ee99251416c75166883", "department": "Directing", "gender": 1, "id": 232123, "job": "Director", "name": "Lisa Ohlin", "profile_path": "/inu28iHP94NZKvxFMRDnhiGeS7h.jpg"}, {"credit_id": "5636337592514129fe00cda0", "department": "Crew", "gender": 2, "id": 569330, "job": "Cinematography", "name": "Anders Bohman", "profile_path": null}, {"credit_id": "5636338c925141616700c7ac", "department": "Editing", "gender": 0, "id": 1114918, "job": "Editor", "name": "\u00c5sa Mossberg", "profile_path": null}, {"credit_id": "5636331c925141285701aba5", "department": "Writing", "gender": 0, "id": 1166988, "job": "Screenplay", "name": "Klas \u00d6stergren", "profile_path": null}, {"credit_id": "563633359251416d5200c815", "department": "Writing", "gender": 0, "id": 1166988, "job": "Short Story", "name": "Klas \u00d6stergren", "profile_path": null}, {"credit_id": "5636336a9251414ab7018a90", "department": "Sound", "gender": 0, "id": 1530274, "job": "Music", "name": "Bendik Hofseth", "profile_path": null}]}}