{"adult": false, "backdrop_path": null, "belongs_to_collection": null, "budget": 0, "genres": [{"id": 10770, "name": "TV Movie"}, {"id": 18, "name": "Drama"}], "homepage": "http://www.mylifetime.com/movies/escape-from-polygamy", "id": 229703, "imdb_id": "tt2934272", "original_language": "en", "original_title": "Escape from Polygamy", "overview": "Recently-widowed Leann and her 17-year-old daughter Julina move into an isolated polygamous compound, where the freethinking Julina meets like-minded Ryder, son of the religious compound\u2019s charismatic Prophet, Ervil.", "popularity": 5.95, "poster_path": "/hjI7FsPIUnwOmqnkXMWPdMMGCrI.jpg", "production_companies": [{"id": 6679, "logo_path": null, "name": "MarVista Entertainment", "origin_country": "US"}, {"id": 41945, "logo_path": null, "name": "Indy Entertainment", "origin_country": ""}], "production_countries": [], "release_date": "2013-08-24", "revenue": 0, "runtime": null, "spoken_languages": [], "status": "Released", "tagline": "", "title": "Escape from Polygamy", "video": false, "vote_average": 6.6, "vote_count": 21, "keywords": {"keywords": [{"id": 187056, "name": "woman director"}]}, "similar": {"page": 1, "results": [{"adult": false, "backdrop_path": "/dvQDRfv3qvfHNnVAR57ouVsuErf.jpg", "genre_ids": [10749, 18], "id": 28031, "original_language": "en", "original_title": "If These Walls Could Talk 2", "overview": "The stories of three lesbian couples -- who live in the same house at different periods of time -- who are at a crossroads in their lives. In 1961, Edith loses her lover, Abby, to a stroke. Linda and Amy struggle with feminist issues in 1972. And, in 2000, Kal and Fran try to have a baby with the help of sperm donor.", "poster_path": "/xs7ODbmYQXCDhvXNvz5tF17T59H.jpg", "release_date": "2000-03-05", "title": "If These Walls Could Talk 2", "video": false, "vote_average": 7.1, "vote_count": 55, "popularity": 8.86}, {"adult": false, "backdrop_path": "/rf6G51j0SZL0tP57I8gnqHTRFEr.jpg", "genre_ids": [35, 18, 10749], "id": 273153, "original_language": "fr", "original_title": "La belle saison", "overview": "In 1971, Carole and Delphine meet and fall in love in Paris. When Carole follows Delphine back to her family farm in Limousin, the two find lesbianism and feminism are not as easy in the countryside.", "poster_path": "/evvAkNMO5VJiy5qIo1Hu7fUfvVI.jpg", "release_date": "2015-08-19", "title": "Summertime", "video": false, "vote_average": 6.6, "vote_count": 162, "popularity": 11.575}, {"id": 9813, "video": false, "vote_count": 128, "vote_average": 6.1, "title": "The Quiet", "release_date": "2005-09-12", "original_language": "en", "original_title": "The Quiet", "genre_ids": [18, 53], "backdrop_path": "/6eyWAZA4CEidZW1xXnQ4vlYBXTP.jpg", "adult": false, "overview": "After her widowed father dies, deaf teenager Dot moves in with her godparents, Olivia and Paul Deer. The Deers' daughter, Nina, is openly hostile to Dot, but that does not prevent her from telling her secrets to her silent stepsister, including the fact that she wants to kill her lecherous father.", "poster_path": "/GEqIE9YlmygHVUfS64LW2cwAAM.jpg", "popularity": 14.844}, {"adult": false, "backdrop_path": "/gZeJziVigmRqbkEZwKAtSqlLQ6s.jpg", "genre_ids": [18, 10749], "id": 370663, "original_language": "en", "original_title": "Below Her Mouth", "overview": "An unexpected affair quickly escalates into a heart-stopping reality for two women whose passionate connection changes their lives forever.", "poster_path": "/nTGbq37hYLuNy7YgMg0gVLma0NS.jpg", "release_date": "2016-09-10", "title": "Below Her Mouth", "video": false, "vote_average": 6.2, "vote_count": 456, "popularity": 18.664}, {"adult": false, "backdrop_path": "/6tern9vOEwwmkDYC1vRCuO64z0C.jpg", "genre_ids": [10749, 18], "id": 475888, "original_language": "en", "original_title": "Tell It to the Bees", "overview": "Dr. Jean Markham returns to the town she left as a teenager to take over her late father's medical practice. When a school-yard scuffle lands Charlie in her surgery, she invites him to visit the hives in her garden and tell his secrets to the bees, as she once did. The new friendship between the boy and the bee keeper brings his mother Lydia into Jean's world.", "poster_path": "/Rj6zpHhMU1zFW3v28U4PSRSRgP.jpg", "release_date": "2019-05-03", "title": "Tell It to the Bees", "video": false, "vote_average": 6.4, "vote_count": 53, "popularity": 13.175}, {"adult": false, "backdrop_path": "/knczzNAjBXzSYkeWxoT1u9VNmjR.jpg", "genre_ids": [10749, 18], "id": 258480, "original_language": "en", "original_title": "Carol", "overview": "In 1950s New York, a department-store clerk who dreams of a better life falls for an older, married woman.", "poster_path": "/AbKa7ANxmui0Jmhh7gV7OSELKIL.jpg", "release_date": "2015-11-20", "title": "Carol", "video": false, "vote_average": 7.4, "vote_count": 2184, "popularity": 13.539}, {"adult": false, "backdrop_path": "/cADbqsIoiDW7X3Myg9nz8eAuno5.jpg", "genre_ids": [18, 10749], "id": 10818, "original_language": "fr", "original_title": "Naissance des pieuvres", "overview": "Set during a sultry summer in a French suburb, Marie is desperate to join the local pool's synchronized swimming team, but is her interest solely for the sake of sport or for a chance to get close to Floriane, the bad girl of the team? Sciamma, and the two leads, capture the uncertainty of teenage sexuality with a sympathetic eye in this delicate drama of the angst of coming-of-age.", "poster_path": "/4jajELYrR4Xmv3CVoKnukRnALa2.jpg", "release_date": "2007-05-17", "title": "Water Lilies", "video": false, "vote_average": 6.1, "vote_count": 119, "popularity": 9.614}, {"adult": false, "backdrop_path": "/fZ8oFcREAr6wgWcXISGql0xyxjB.jpg", "genre_ids": [35, 18], "id": 39781, "original_language": "en", "original_title": "The Kids Are All Right", "overview": "Two women, Nic and Jules, brought a son and daughter into the world through artificial insemination. When one of their children reaches age, both kids go behind their mothers' backs to meet with the donor. Life becomes so much more interesting when the father, two mothers and children start to become attached to each other.", "poster_path": "/fPDeK4MmoGfi2X0oWZev7LrbMqM.jpg", "release_date": "2010-07-09", "title": "The Kids Are All Right", "video": false, "vote_average": 6.6, "vote_count": 923, "popularity": 12.159}, {"adult": false, "backdrop_path": "/caLMOD3ZJ3V7qjlxDXrzlJfBLgD.jpg", "genre_ids": [18, 10749], "id": 20, "original_language": "en", "original_title": "My Life Without Me", "overview": "A Pedro Almodovar production in which a fatally ill mother with only two months to live creates a list of things she wants to do before she dies with out telling her family of her illness.", "poster_path": "/vVj92VBFUBzjqzLvBiPVVlJDp78.jpg", "release_date": "2003-03-07", "title": "My Life Without Me", "video": false, "vote_average": 6.1, "vote_count": 220, "popularity": 10.382}, {"adult": false, "backdrop_path": "/useuHJQ5HOoEWkAvEjL1FW1sUfe.jpg", "genre_ids": [18], "id": 376867, "original_language": "en", "original_title": "Moonlight", "overview": "The tender, heartbreaking story of a young man\u2019s struggle to find himself, told across three defining chapters in his life as he experiences the ecstasy, pain, and beauty of falling in love, while grappling with his own sexuality.", "poster_path": "/qAwFbszz0kRyTuXmMeKQZCX3Q2O.jpg", "release_date": "2016-10-21", "title": "Moonlight", "video": false, "vote_average": 7.4, "vote_count": 4410, "popularity": 21.716}, {"id": 434714, "video": false, "vote_count": 32, "vote_average": 7.5, "title": "My Days of Mercy", "release_date": "2019-07-11", "original_language": "en", "original_title": "My Days of Mercy", "genre_ids": [18, 10749], "backdrop_path": "/7Lbzq33nMMIQtAfZAmSqG6ibLSg.jpg", "adult": false, "overview": "The daughter of a man on death row falls in love with a woman on the opposing side of her family's political cause.", "poster_path": "/adIPKAoKnKL9vCTkvfF4J9ZA7Ln.jpg", "popularity": 9.342}, {"adult": false, "backdrop_path": "/k8H7ye6Sab7OrDJoo8Qp5WFGHGk.jpg", "genre_ids": [35, 10749, 18], "id": 244264, "original_language": "en", "original_title": "Laggies", "overview": "Overeducated and underemployed, 28 year old Megan is in the throes of a quarterlife crisis. Squarely into adulthood with no career prospects, no particular motivation to think about her future and no one to relate to, Megan is comfortable lagging a few steps behind - while her friends check off milestones and celebrate their new grown-up status. When her high-school sweetheart proposes, Megan panics and- given an unexpected opportunity to escape for a week - hides out in the home of her new friend, 16-year old Annika and Annika's world-weary single dad Craig.", "poster_path": "/dNcoXoRC7JHiqbe7k5Ufo6syiPP.jpg", "release_date": "2014-09-25", "title": "Laggies", "video": false, "vote_average": 6.1, "vote_count": 788, "popularity": 13.836}, {"adult": false, "backdrop_path": "/npClMhFGn4XUkwu6coq5oKAEu6L.jpg", "genre_ids": [35, 10749, 18], "id": 634, "original_language": "en", "original_title": "Bridget Jones's Diary", "overview": "A chaotic Bridget Jones meets a snobbish lawyer, and he soon enters her world of imperfections.", "poster_path": "/ym6kjFFZg6boC0QHBVw6hqJLbxv.jpg", "release_date": "2001-04-13", "title": "Bridget Jones's Diary", "video": false, "vote_average": 6.7, "vote_count": 3080, "popularity": 19.453}, {"adult": false, "backdrop_path": "/ojn7IYKmMt8HXRd6oLwY5pLGLVc.jpg", "genre_ids": [18, 10749], "id": 9587, "original_language": "en", "original_title": "Little Women", "overview": "With their father away as a chaplain in the Civil War, Jo, Meg, Beth and Amy grow up with their mother in somewhat reduced circumstances. They are a close family who inevitably have their squabbles and tragedies. But the bond holds even when, later, male friends start to become a part of the household.", "poster_path": "/tD9YDE8pjtSvvKUpkmooE6YDSm8.jpg", "release_date": "1994-12-21", "title": "Little Women", "video": false, "vote_average": 7.2, "vote_count": 574, "popularity": 18.707}, {"adult": false, "backdrop_path": "/by0WtpJ5UNxOy6ytIfPPTasbRoB.jpg", "genre_ids": [28, 12, 35, 18, 10751, 10402, 10749], "id": 17130, "original_language": "en", "original_title": "Crossroads", "overview": "Three friends get together and bury a box making a pact to open it at midnight at their high school graduation. In the little town in Georgia that they live in, things soon change. One is little miss perfect, one is an engaged prom queen, and the other is a pregnant outcast. The night of graduation, they open the box and they strike up a conversation. All of a sudden, one brings up the topic of her going to Los Angeles for a record contract audition. They all decide to go together and they leave. With a little money, they set out on the road with a guy named Ben. When one of them tells the other a rumor that he might be a homicidal maniac they are all scared of him. When they reach LA, Lucy falls in love with Ben and against her father's wishes, she stays and she goes to the audition.", "poster_path": "/egIs4cWxn0iBErFKrQ7STckjj49.jpg", "release_date": "2002-02-15", "title": "Crossroads", "video": false, "vote_average": 5.0, "vote_count": 334, "popularity": 14.197}, {"id": 8913, "video": false, "vote_count": 1055, "vote_average": 6.6, "title": "Pet Sematary", "release_date": "1989-04-21", "original_language": "en", "original_title": "Pet Sematary", "genre_ids": [18, 27], "backdrop_path": "/sbm4pRbGNaqaHjx6fPXh1aQGTJO.jpg", "adult": false, "overview": "Dr. Louis Creed's family moves into the country house of their dreams and discover a pet cemetery at the back of their property. The cursed burial ground deep in the woods brings the dead back to life -- with \"minor\" problems. At first, only the family's cat makes the return trip, but an accident forces a heartbroken father to contemplate the unthinkable.", "poster_path": "/9zUax4pjRgoPIJla9CQejqNJofB.jpg", "popularity": 14.532}, {"id": 83542, "video": false, "vote_count": 4861, "vote_average": 6.8, "title": "Cloud Atlas", "release_date": "2012-10-26", "original_language": "en", "original_title": "Cloud Atlas", "genre_ids": [18, 878], "backdrop_path": "/2ZA03KiD4jePTNBTJjGGFTNQPMA.jpg", "adult": false, "overview": "A set of six nested stories spanning time between the 19th century and a distant post-apocalyptic future. Cloud Atlas explores how the actions and consequences of individual lives impact one another throughout the past, the present and the future. Action, mystery and romance weave through the story as one soul is shaped from a killer into a hero and a single act of kindness ripples across centuries to inspire a revolution in the distant future.  Based on the award winning novel by David Mitchell. Directed by Tom Tykwer and the Wachowskis.", "poster_path": "/8VNiyIp67ZxhpNgdrwACW0jgvP2.jpg", "popularity": 19.113}, {"adult": false, "backdrop_path": "/eSs0CkWB5ASQgcx8Dr0uai3IRjT.jpg", "genre_ids": [18], "id": 339984, "original_language": "en", "original_title": "Miracles from Heaven", "overview": "When Christy discovers her 10-year-old daughter Anna has a rare, incurable disease, she becomes a ferocious advocate for her daughter\u2019s healing as she searches for a solution. After Anna has a freak accident and falls three stories, a miracle unfolds in the wake of her dramatic rescue that leaves medical specialists mystified, her family restored and their community inspired.", "poster_path": "/hz9VF1TfaM0D04pYneSXUkNeOZv.jpg", "release_date": "2016-03-17", "title": "Miracles from Heaven", "video": false, "vote_average": 7.2, "vote_count": 568, "popularity": 10.907}, {"id": 616584, "video": false, "vote_count": 92, "vote_average": 7.5, "title": "K-12", "release_date": "2019-09-05", "original_language": "en", "original_title": "K-12", "genre_ids": [14, 27, 10402], "backdrop_path": "/fSlfaF0Ydfr2SK6hOYHvDsb7a9Z.jpg", "adult": false, "overview": "Cry Baby, a strong and sensitive girl, is sent off to a disturbing sleepaway school that\u2019s hidden underneath a grandiose fa\u00e7ade. Luckily, she has a sweet and unapologetic best friend who sticks up for her when she gets bullied by the other students whose brains are under control by the Principal and his wicked staff. With the help of the magical friends they meet along the way, as well as an Angelic Spirit Guide, they are able to gain the strength they need to fight off the school\u2019s belligerent patriarchal conditioning.", "poster_path": "/nVi0yBBPj5Z96JgGWVIg94kv7bR.jpg", "popularity": 15.107}, {"adult": false, "backdrop_path": "/vfvVuu1JdnEGcyZUj7VHrhhbeMj.jpg", "genre_ids": [12, 28], "id": 89, "original_language": "en", "original_title": "Indiana Jones and the Last Crusade", "overview": "When Dr. Henry Jones Sr. suddenly goes missing while pursuing the Holy Grail, eminent archaeologist Indiana must team up with Marcus Brody, Sallah and Elsa Schneider to follow in his father's footsteps and stop the Nazis from recovering the power of eternal life.", "poster_path": "/4p1N2Qrt8j0H8xMHMHvtRxv9weZ.jpg", "release_date": "1989-05-24", "title": "Indiana Jones and the Last Crusade", "video": false, "vote_average": 7.8, "vote_count": 5985, "popularity": 27.988}], "total_pages": 1339, "total_results": 26775}, "recommendations": {"page": 1, "results": [{"adult": false, "backdrop_path": "/iwAxyMAVLB3oW33sRcyNLgWm4Fb.jpg", "genre_ids": [10749, 35, 10751], "id": 127061, "original_language": "en", "original_title": "Lake Effects", "overview": "Sara and Lily grew up at Smith Mountain Lake. Sara became estranged from the family and without explanation moved to Los Angeles to study law. Her sister Lily, an artist, teaches locally and lives with their parents, Ray and Vivian, until Dad dies in an accident. Sara returns to help settle his estate, and all our ladies cross paths with an eclectic group of local oddballs, as they search for a Loch Ness-style monster they believe lurks in the lake's depths. A few real Smith Mountain Lake characters make appearances. The next week at the lake is filled with adventure, tears, and laughter as Vivian and her two daughters finally understand, through the guidance of Dad's spirit, if they still belong on the lake, even though Ray is gone. All paths converge at the Smith Mountain Lake Wine Festival, on course for a heart-warming and hilarious collision. Written by Mike McKay", "poster_path": "/1oXdL8DR6ptScLunOl8gW0zbbQh.jpg", "release_date": "2012-05-06", "title": "Lake Effects", "video": false, "vote_average": 4.3, "vote_count": 10, "popularity": 6.073}, {"adult": false, "backdrop_path": "/fzDxoU6uznackV3OeoeYXVuwhR8.jpg", "genre_ids": [18, 10749], "id": 20564, "original_language": "en", "original_title": "Nearing Grace", "overview": "Did you ever wish you could get the hottest girl in school? This is the story of how non-jock Henry (Gregory Smith) indeed gets the girl, Grace (Jordana Brewster), but not without complications.", "poster_path": "/f9rVhI1m4ChVvJmTXdfl4YgA2N8.jpg", "release_date": "2005-06-18", "title": "Nearing Grace", "video": false, "vote_average": 6.1, "vote_count": 11, "popularity": 4.633}, {"adult": false, "backdrop_path": "/6mKbFwK9x3YfMVXMF4EGEs599YM.jpg", "genre_ids": [35, 10749], "id": 50198, "original_language": "en", "original_title": "See You in September", "overview": "Feeling abandoned by her therapist who's gone on an extended vacation, beautiful Lindsay gets help with her fear of commitment from an ad hoc support group formed by other New Yorkers also left high and dry by their shrinks. But when her pals dare her to date fellow group member A.J., Lindsay begins to wonder if she's finally found her match.", "poster_path": "/nlL2qgqMkshVyN0gLjBKGjAPkqL.jpg", "release_date": "2010-01-01", "title": "See You in September", "video": false, "vote_average": 5.0, "vote_count": 13, "popularity": 3.981}, {"id": 212762, "video": false, "vote_count": 13, "vote_average": 5.8, "title": "Second Chances", "release_date": "2013-07-27", "original_language": "en", "original_title": "Second Chances", "genre_ids": [18, 10770], "backdrop_path": "/wnPDpBQHQpJUbYGZUxQ3jYCLkNn.jpg", "adult": false, "overview": "Jenny McLean is a single mom working at a 911-call center struggling to make ends meet and raise her two kids, Elsie and Luke. Although still reeling from her divorce, Jenny can\u2019t help but flirt when she gets emergency calls from Jeff, a local firefighter she nicknames \u201cCowboy\u201d for his handsome voice. When Jeff is hurt in the line of duty, he finds himself unable to climb stairs and needing to rent a first floor room from Jenny. It isn't long before the sparks are flying but can Jenny allow herself to take the risk?", "poster_path": "/qfx47Y2sxSAemiVocxlUQA9icbd.jpg", "popularity": 3.43}, {"adult": false, "backdrop_path": "/mTOjTvKcPEZ6wwViY8rZlASbgPa.jpg", "genre_ids": [10770, 18], "id": 274007, "original_language": "en", "original_title": "The Color of Rain", "overview": "After cancer claims Matt Kell's life on Christmas Day 2005, his widow, Gina and two young boys are left to cope with the pain of his loss while their close church community gathers around them for support.", "poster_path": "/jPM4wc3KLVYYi9uOG0EowwwaWZ6.jpg", "release_date": "2014-05-31", "title": "The Color of Rain", "video": false, "vote_average": 6.3, "vote_count": 29, "popularity": 3.722}], "total_pages": 1, "total_results": 5}, "credits": {"cast": [{"cast_id": 2, "character": "Julina", "credit_id": "52fe4efd9251416c7516961f", "gender": 1, "id": 1286328, "name": "Haley Lu Richardson", "order": 0, "profile_path": "/tSoX3nWJxzZP1IK5W2s4UVy7HUw.jpg"}, {"cast_id": 3, "character": "Ryder", "credit_id": "52fe4efd9251416c75169623", "gender": 2, "id": 1286329, "name": "Jack Falahee", "order": 1, "profile_path": "/fIPFC5xPHhwT0FlMRWtte2B191D.jpg"}, {"cast_id": 4, "character": "Leann", "credit_id": "52fe4efd9251416c75169627", "gender": 1, "id": 1980, "name": "Mary McCormack", "order": 2, "profile_path": "/e2brLtFCfgLdOp356bcEyRzQkoJ.jpg"}, {"cast_id": 5, "character": "Ervil", "credit_id": "52fe4efd9251416c7516962b", "gender": 2, "id": 15338, "name": "William Mapother", "order": 3, "profile_path": "/dEfuqLZOo5YfPcOJUftPq1q3hFL.jpg"}, {"cast_id": 6, "character": "Merril", "credit_id": "52fe4efd9251416c7516962f", "gender": 2, "id": 164630, "name": "Sam Hennings", "order": 4, "profile_path": "/39926mUrU5jqCUFhLdHEdNMHWl9.jpg"}, {"cast_id": 7, "character": "Kayla", "credit_id": "52fe4efd9251416c75169633", "gender": 1, "id": 453, "name": "Riki Lindhome", "order": 5, "profile_path": "/kJAGFp0ZW5sY0NoysFZcfSRykZa.jpg"}, {"cast_id": 9, "character": "Julina's Dad", "credit_id": "5e18f8d8b3f6f50012d35380", "gender": 0, "id": 2426860, "name": "Damon Tod Hill", "order": 6, "profile_path": null}, {"cast_id": 10, "character": "Bonnielee", "credit_id": "5e18f906b3f6f50012d3541f", "gender": 1, "id": 1869253, "name": "Perry Mattfeld", "order": 7, "profile_path": "/7oM81wmfkM185bivpMx95HMWeQ7.jpg"}], "crew": [{"credit_id": "52fe4efd9251416c7516961b", "department": "Directing", "gender": 1, "id": 110876, "job": "Director", "name": "Rachel Goldenberg", "profile_path": null}, {"credit_id": "5e18f89ba0be280018ff2d09", "department": "Writing", "gender": 0, "id": 2426860, "job": "Writer", "name": "Damon Tod Hill", "profile_path": null}]}}