{"adult": false, "backdrop_path": null, "belongs_to_collection": null, "budget": 0, "genres": [{"id": 35, "name": "Comedy"}], "homepage": null, "id": 231304, "imdb_id": "tt0144197", "original_language": "it", "original_title": "Faustina", "overview": "Faustina, the offspring of a black G.I. and a Roman woman who met during the conflict of World War II, must choose between two Italian men who desperately vie for her attention.", "popularity": 0.723, "poster_path": "/n85DH44YhrKCIE54XBznar4JXkk.jpg", "production_companies": [{"id": 83382, "logo_path": null, "name": "Teseo", "origin_country": ""}, {"id": 9387, "logo_path": null, "name": "Cineriz", "origin_country": ""}], "production_countries": [{"iso_3166_1": "IT", "name": "Italy"}], "release_date": "1968-10-10", "revenue": 0, "runtime": 106, "spoken_languages": [{"iso_639_1": "it", "name": "Italiano"}], "status": "Released", "tagline": "", "title": "Faustina", "video": false, "vote_average": 4.7, "vote_count": 3, "keywords": {"keywords": [{"id": 128, "name": "love triangle"}, {"id": 10194, "name": "interracial romance"}]}, "similar": {"page": 1, "results": [{"id": 1903, "video": false, "vote_count": 2237, "vote_average": 6.8, "title": "Vanilla Sky", "release_date": "2001-12-10", "original_language": "en", "original_title": "Vanilla Sky", "genre_ids": [18, 14, 878, 53, 10749], "backdrop_path": "/6XwX3HzKhlBUbTy2qZx0THQOu2T.jpg", "adult": false, "overview": "David Aames has it all: wealth, good looks and gorgeous women on his arm. But just as he begins falling for the warmhearted Sofia, his face is horribly disfigured in a car accident. That's just the beginning of his troubles as the lines between illusion and reality, between life and death, are blurred.", "poster_path": "/ujMy9P4VczTW9YSpAM31uqdOMpz.jpg", "popularity": 16.046}, {"adult": false, "backdrop_path": "/8ZIZJbPXCtnIG1rJpR57iFRyPTt.jpg", "genre_ids": [10749, 35], "id": 544, "original_language": "en", "original_title": "There's Something About Mary", "overview": "For Ted, prom night went about as bad as it\u2019s possible for any night to go. Thirteen years later, he finally gets another chance with his old prom date, only to run up against other suitors including the sleazy detective he hired to find her.", "poster_path": "/zD4ACYImREkDRk8PPiIXHDx4nZa.jpg", "release_date": "1998-07-15", "title": "There's Something About Mary", "video": false, "vote_average": 6.5, "vote_count": 3196, "popularity": 23.945}, {"id": 95610, "video": false, "vote_count": 2004, "vote_average": 6.4, "title": "Bridget Jones's Baby", "release_date": "2016-09-14", "original_language": "en", "original_title": "Bridget Jones's Baby", "genre_ids": [35, 10749], "backdrop_path": "/w9VNDcQet0TUoLRWHg8JbT4QjpW.jpg", "adult": false, "overview": "Breaking up with Mark Darcy leaves Bridget Jones over 40 and single again. Feeling that she has everything under control, Jones decides to focus on her career as a top news producer. Suddenly, her love life comes back from the dead when she meets a dashing and handsome American named Jack. Things couldn't be better, until Bridget discovers that she is pregnant. Now, the befuddled mom-to-be must figure out if the proud papa is Mark or Jack.", "poster_path": "/j8di6S3mUuFe5Yz8etRG8yG5EeE.jpg", "popularity": 14.026}, {"id": 19913, "video": false, "vote_count": 6208, "vote_average": 7.2, "title": "(500) Days of Summer", "release_date": "2009-07-17", "original_language": "en", "original_title": "(500) Days of Summer", "genre_ids": [35, 18, 10749], "backdrop_path": "/yYw9cVdRJ4zzwxM2cTDXfT6JI6E.jpg", "adult": false, "overview": "Tom, greeting-card writer and hopeless romantic, is caught completely off-guard when his girlfriend, Summer, suddenly dumps him. He reflects on their 500 days together to try to figure out where their love affair went sour, and in doing so, Tom rediscovers his true passions in life.", "poster_path": "/5SjtNPD1bb182vzQccvEUpXHFjN.jpg", "popularity": 20.487}, {"id": 2758, "video": false, "vote_count": 1439, "vote_average": 6.7, "title": "Addams Family Values", "release_date": "1993-11-19", "original_language": "en", "original_title": "Addams Family Values", "genre_ids": [35, 14, 10751], "backdrop_path": "/dMSC5jU9gsw2VmaVHlFqXk6w3j7.jpg", "adult": false, "overview": "Siblings Wednesday and Pugsley Addams will stop at nothing to get rid of Pubert, the new baby boy adored by parents Gomez and Morticia. Things go from bad to worse when the new \"black widow\" nanny, Debbie Jellinsky, launches her plan to add Fester to her collection of dead husbands.", "poster_path": "/8znyj20O3EYLD2EzWnZQMnkE4zH.jpg", "popularity": 23.261}, {"id": 3525, "video": false, "vote_count": 480, "vote_average": 6.6, "title": "Working Girl", "release_date": "1988-12-20", "original_language": "en", "original_title": "Working Girl", "genre_ids": [35, 10749], "backdrop_path": "/9DRh30FG1Pe1u9c3N0pXyPyO9XS.jpg", "adult": false, "overview": "Tess McGill is an ambitious secretary with a unique approach for climbing the ladder to success. When her classy, but villainous boss breaks a leg skiing, Tess takes over her office, her apartment and even her wardrobe. She creates a deal with a handsome investment banker that will either take her to the top, or finish her off for good.", "poster_path": "/bzPuHOl8DjfZDzwGDCIHonnHUT6.jpg", "popularity": 10.434}, {"id": 10527, "video": false, "vote_count": 4220, "vote_average": 6.4, "title": "Madagascar: Escape 2 Africa", "release_date": "2008-10-30", "original_language": "en", "original_title": "Madagascar: Escape 2 Africa", "genre_ids": [16, 35, 10751], "backdrop_path": "/anxiz37Z9FPKeuCsJcxViSWmPxg.jpg", "adult": false, "overview": "Alex, Marty, and other zoo animals find a way to escape from Madagascar when the penguins reassemble a wrecked airplane. The precariously repaired craft stays airborne just long enough to make it to the African continent. There the New Yorkers encounter members of their own species for the first time. Africa proves to be a wild place, but Alex and company wonder if it is better than their Central Park home.", "poster_path": "/9mohxwknsHcwFBSAAhoQXwFV5zn.jpg", "popularity": 23.58}, {"adult": false, "backdrop_path": "/dji4Fm0gCDVb9DQQMRvAI8YNnTz.jpg", "genre_ids": [16, 35, 10751], "id": 862, "original_language": "en", "original_title": "Toy Story", "overview": "Led by Woody, Andy's toys live happily in his room until Andy's birthday brings Buzz Lightyear onto the scene. Afraid of losing his place in Andy's heart, Woody plots against Buzz. But when circumstances separate Buzz and Woody from their owner, the duo eventually learns to put aside their differences.", "poster_path": "/rhIRbceoE9lR4veEXuwCC2wARtG.jpg", "release_date": "1995-10-30", "title": "Toy Story", "video": false, "vote_average": 7.9, "vote_count": 11534, "popularity": 27.319}, {"id": 194, "video": false, "vote_count": 6960, "vote_average": 7.9, "title": "Am\u00e9lie", "release_date": "2001-04-25", "original_language": "fr", "original_title": "Le Fabuleux Destin d'Am\u00e9lie Poulain", "genre_ids": [35, 10749], "backdrop_path": "/nxhfenC1jb5EcTI5GYxqnjYZMId.jpg", "adult": false, "overview": "At a tiny Parisian caf\u00e9, the adorable yet painfully shy Am\u00e9lie (Audrey Tautou) accidentally discovers a gift for helping others. Soon Amelie is spending her days as a matchmaker, guardian angel, and all-around do-gooder. But when she bumps into a handsome stranger, will she find the courage to become the star of her very own love story?", "poster_path": "/f0uorE7K7ggHfr8r7pUTOHWkOlE.jpg", "popularity": 26.531}, {"adult": false, "backdrop_path": "/ecREZ3vYCqethftSDWK4we0X498.jpg", "genre_ids": [35, 18, 10749], "id": 4507, "original_language": "es", "original_title": "Jam\u00f3n, jam\u00f3n", "overview": "Jose Luis is an executive at his parents underwear factory where his girlfriend Sylvia works on the shop floor. When Sylvia becomes pregnant, Jose Luis promises her that he will marry her, most likely against the wishes of his parents. Jose Luis' mother is determined to break her son's engagement to a girl from a lower-class family, and hires Raul, a potential underwear model and would-be bullfighter to seduce Sylvia.", "poster_path": "/v5Fq01ZtYnA2Grxdd3g8CuGZARg.jpg", "release_date": "1992-09-03", "title": "Jamon Jamon", "video": false, "vote_average": 6.1, "vote_count": 143, "popularity": 13.381}, {"id": 287, "video": false, "vote_count": 291, "vote_average": 6.8, "title": "Bull Durham", "release_date": "1988-06-15", "original_language": "en", "original_title": "Bull Durham", "genre_ids": [35, 10749], "backdrop_path": "/ovLXNT8egeJtTOlhfg2nbJXJGcq.jpg", "adult": false, "overview": "Veteran catcher Crash Davis is brought to the minor league Durham Bulls to help their up and coming pitching prospect, \"Nuke\" Laloosh. Their relationship gets off to a rocky start and is further complicated when baseball groupie Annie Savoy sets her sights on the two men.", "poster_path": "/wZwXLiR1cisTXaJiuBLvgkS5HWw.jpg", "popularity": 13.132}, {"adult": false, "backdrop_path": "/kQX0k2mVsiexLftIpiTVb5N6rZs.jpg", "genre_ids": [35, 18, 10749], "id": 339397, "original_language": "en", "original_title": "Caf\u00e9 Society", "overview": "The story of a young man who arrives in Hollywood during the 1930s hoping to work in the film industry, falls in love, and finds himself swept up in the vibrant caf\u00e9 society that defined the spirit of the age.", "poster_path": "/hRrF8R32WIldNEMLOhtNrz9OfAZ.jpg", "release_date": "2016-05-11", "title": "Caf\u00e9 Society", "video": false, "vote_average": 6.4, "vote_count": 1699, "popularity": 10.337}, {"id": 1648, "video": false, "vote_count": 854, "vote_average": 6.8, "title": "Bill & Ted's Excellent Adventure", "release_date": "1989-02-17", "original_language": "en", "original_title": "Bill & Ted's Excellent Adventure", "genre_ids": [12, 35, 878], "backdrop_path": "/ca925HbhdgTdjEs3VGg3SX0k86a.jpg", "adult": false, "overview": "A pair of failing high school students\u2014Bill S. Preston, Esquire and Ted \"Theodore\" Logan\u2014are visited by a time traveler from the future, who takes them on an adventure through time to gather up actual historical figures to help them with a history report.", "poster_path": "/b2yKJ1STPklVSRtso2Tg4TPXK7u.jpg", "popularity": 15.545}, {"id": 44009, "video": false, "vote_count": 173, "vote_average": 7.0, "title": "Another Year", "release_date": "2010-11-05", "original_language": "en", "original_title": "Another Year", "genre_ids": [35, 18], "backdrop_path": "/u7kLVuufRizoKjfcAObvrE1YNJZ.jpg", "adult": false, "overview": "Mike Leigh\u2019s much praised 2010 tragicomical drama. During a year, a very content couple approaching retirement are visited by friends and family less happy with their lives.", "poster_path": "/72xKJ0KwTnC6AeXDbmNoyfn1gL6.jpg", "popularity": 9.118}, {"adult": false, "backdrop_path": "/bYbnlh6VXFRtcSX82UMDsBDLB5j.jpg", "genre_ids": [18, 10749], "id": 28468, "original_language": "it", "original_title": "La chiave", "overview": "After twenty years of marriage, art professor Nino Rolfe attempts to break down his wife Teresa's conventional modesty. Noticing her affection for their daughter's fianc\u00e9, Nino instigates her sexual interest in him as well. This sets off a chain of unexpected events and emotional complications, as Nino and his unpredictable fascist daughter find that they both enjoy being jealous.", "poster_path": "/e6g2geNLgFzMbriH6EvSJZD78nx.jpg", "release_date": "1983-10-18", "title": "The Key", "video": false, "vote_average": 5.0, "vote_count": 128, "popularity": 15.363}, {"adult": false, "backdrop_path": "/a8xpxCnvqKyshdrDNFGs6oy4r8N.jpg", "genre_ids": [18, 10749], "id": 1278, "original_language": "en", "original_title": "The Dreamers", "overview": "A young American studying in Paris in 1968 strikes up a friendship with a French brother and sister. Set against the background of the '68 Paris student riots.", "poster_path": "/7ABcfmXQZeCXl5sNrDuLS1URMPN.jpg", "release_date": "2003-09-01", "title": "The Dreamers", "video": false, "vote_average": 7.2, "vote_count": 1671, "popularity": 15.849}, {"id": 38, "video": false, "vote_count": 8445, "vote_average": 8.1, "title": "Eternal Sunshine of the Spotless Mind", "release_date": "2004-03-19", "original_language": "en", "original_title": "Eternal Sunshine of the Spotless Mind", "genre_ids": [18, 878, 10749], "backdrop_path": "/1dXTsaFxHoF9cas08UjAqE8NqOW.jpg", "adult": false, "overview": "Joel Barish, heartbroken that his girlfriend underwent a procedure to erase him from her memory, decides to do the same. However, as he watches his memories of her fade away, he realises that he still loves her, and may be too late to correct his mistake.", "poster_path": "/7y3eYvTsGjxPYDtSnumCLIMDkrV.jpg", "popularity": 22.427}, {"id": 521, "video": false, "vote_count": 1257, "vote_average": 8.0, "title": "Dial M for Murder", "release_date": "1954-05-29", "original_language": "en", "original_title": "Dial M for Murder", "genre_ids": [80, 18, 9648, 53], "backdrop_path": "/jVMlfESb0TJ29w8CUDDofEprMmn.jpg", "adult": false, "overview": "An ex-tennis pro carries out a plot to have his wife murdered after discovering she is having an affair, and assumes she will soon leave him for the other man anyway. When things go wrong, he improvises a new plan\u2014to frame her for murder instead.", "poster_path": "/xrpK1PyckNWmRxU4kZURfaCyboS.jpg", "popularity": 28.336}, {"id": 46853, "video": false, "vote_count": 34, "vote_average": 5.1, "title": "Playing with Love", "release_date": "1977-05-17", "original_language": "it", "original_title": "Maladolescenza", "genre_ids": [18], "backdrop_path": "/vTQsFtOSZpG16bLFeZHD0i9Bjr6.jpg", "adult": false, "overview": "Laura and Fabrizio have been meeting every summer in the forest by her parent's summer home. Fabrizio is a solitary boy with only his dog for company; Laura a sweet but unconfident child. This summer new aspects enter into their story as both are growing up. Laura is falling in love with Fabrizio, while he displays a new sexual awareness of her masked by his malice. Things develop further when they meet Sylvia who, unlike the innocent Laura, is confident and assertive. Fabrizio develops a fascination with her, eventually bribing Laura to fetch her to the forest to join them in play.", "poster_path": "/pRU8nEGBXMOuIhKB8ZgFWuZBf5G.jpg", "popularity": 36.143}, {"id": 223485, "video": false, "vote_count": 586, "vote_average": 6.6, "title": "Slow West", "release_date": "2015-04-16", "original_language": "en", "original_title": "Slow West", "genre_ids": [28, 18, 53, 37, 10749], "backdrop_path": "/9qF6lhj6X0ImH4iWGZs1uspXJI0.jpg", "adult": false, "overview": "In the Old West, a 17-year-old Scottish boy teams up with a mysterious gunman to find the woman with whom he is infatuated.", "poster_path": "/uZ9dBBn0GaEw0YIBvQd01Io3pho.jpg", "popularity": 10.467}], "total_pages": 50, "total_results": 990}, "recommendations": {"page": 1, "results": [], "total_pages": 1, "total_results": 0}, "credits": {"cast": [{"cast_id": 5, "character": "Faustina Ceccarelli", "credit_id": "52fe4debc3a36847f8274a4d", "gender": 1, "id": 6780, "name": "Vonetta McGee", "order": 0, "profile_path": "/uz9JHawFEhIRiyNVFmABQ5l1C8S.jpg"}, {"cast_id": 6, "character": "Enea Troiani", "credit_id": "52fe4debc3a36847f8274a51", "gender": 2, "id": 83146, "name": "Enzo Cerusico", "order": 1, "profile_path": "/q0UEWq70eatVBUmbpsVVd1RjbKl.jpg"}, {"cast_id": 7, "character": "Quirino", "credit_id": "52fe4debc3a36847f8274a55", "gender": 2, "id": 11190, "name": "Renzo Montagnani", "order": 2, "profile_path": "/vVfmwDjo0p9KZekncu160WWtO1m.jpg"}, {"cast_id": 8, "character": "Ezio - Quirino's accomplice", "credit_id": "52fe4debc3a36847f8274a59", "gender": 0, "id": 1163625, "name": "Franco Acampora", "order": 3, "profile_path": null}, {"cast_id": 9, "character": "Faustina's Mother", "credit_id": "52fe4debc3a36847f8274a5d", "gender": 0, "id": 229261, "name": "Clara Bindi", "order": 4, "profile_path": "/lLEMQT79ExO5JNzeBR38sEp3mGt.jpg"}, {"cast_id": 10, "character": "", "credit_id": "52fe4debc3a36847f8274a61", "gender": 0, "id": 1149183, "name": "Diana De Curtis", "order": 5, "profile_path": null}, {"cast_id": 11, "character": "", "credit_id": "52fe4debc3a36847f8274a65", "gender": 0, "id": 1266487, "name": "Vanni Castellani", "order": 6, "profile_path": null}, {"cast_id": 12, "character": "Vespasiano - Lover of Faustina's mother", "credit_id": "52fe4debc3a36847f8274a69", "gender": 2, "id": 103106, "name": "Ernesto Colli", "order": 7, "profile_path": "/AnfceBCkJGzSZcNKQ5jriSkE7Z7.jpg"}, {"cast_id": 13, "character": "", "credit_id": "52fe4debc3a36847f8274a6d", "gender": 0, "id": 1266488, "name": "Franca Haas", "order": 8, "profile_path": null}, {"cast_id": 14, "character": "Carabiniere", "credit_id": "52fe4debc3a36847f8274a71", "gender": 2, "id": 587456, "name": "Valentino Macchi", "order": 9, "profile_path": "/biRVb5tk02H05Selwee4A6ne2dL.jpg"}, {"cast_id": 15, "character": "Young Peasant", "credit_id": "52fe4debc3a36847f8274a75", "gender": 1, "id": 15138, "name": "Ottavia Piccolo", "order": 10, "profile_path": "/aEafqApAcHVrtiSEx09qj7kCW6z.jpg"}], "crew": [{"credit_id": "53e20d780e0a262b7d000c0c", "department": "Camera", "gender": 0, "id": 21233, "job": "Director of Photography", "name": "Roberto Gerardi", "profile_path": null}, {"credit_id": "52fe4debc3a36847f8274a43", "department": "Sound", "gender": 2, "id": 30634, "job": "Original Music Composer", "name": "Armando Trovaioli", "profile_path": "/b4lJkDOR1K63eireNVixZh3rUY4.jpg"}, {"credit_id": "52fe4debc3a36847f8274a3d", "department": "Writing", "gender": 2, "id": 70562, "job": "Screenplay", "name": "Luigi Magni", "profile_path": null}, {"credit_id": "52fe4debc3a36847f8274a37", "department": "Directing", "gender": 2, "id": 70562, "job": "Director", "name": "Luigi Magni", "profile_path": null}, {"credit_id": "582a2c529251417b2103bf83", "department": "Art", "gender": 0, "id": 1177545, "job": "Production Design", "name": "Lucia Mirisola", "profile_path": null}, {"credit_id": "582a2c5cc3a3683601037f9e", "department": "Costume & Make-Up", "gender": 0, "id": 1177545, "job": "Costume Design", "name": "Lucia Mirisola", "profile_path": null}]}}