{"adult": false, "backdrop_path": "/gcXS1nWiWR5WmZeNGedU0OjnaRe.jpg", "belongs_to_collection": null, "budget": 0, "genres": [{"id": 35, "name": "Comedy"}, {"id": 18, "name": "Drama"}, {"id": 10402, "name": "Music"}], "homepage": null, "id": 232625, "imdb_id": "tt0032829", "original_language": "en", "original_title": "My Love Came Back", "overview": "Amelia is a gifted violinist who is in danger of quitting the Brissac Academy of Music. Julius arranges to have a scholarship given to her through his employee Tony so that Julius can escort Amelia to every musical event in the city. The trouble begins when he cannot meet her one night and Tony goes in his place. Tony believes that Julius and Amelia are a couple and then son Paul thinks that Tony and Amelia are a couple as he is sending her the money. The worst part is that Amelia might leave classical music for swing music with classmates Dusty, Joy and the band.", "popularity": 3.514, "poster_path": "/mRbYYTxU4mfDhYRZm9ebnAn4rr6.jpg", "production_companies": [{"id": 174, "logo_path": "/IuAlhI9eVC9Z8UQWOIDdWRKSEJ.png", "name": "Warner Bros. Pictures", "origin_country": "US"}], "production_countries": [{"iso_3166_1": "US", "name": "United States of America"}], "release_date": "1940-07-13", "revenue": 0, "runtime": 85, "spoken_languages": [{"iso_639_1": "en", "name": "English"}], "status": "Released", "tagline": "", "title": "My Love Came Back", "video": false, "vote_average": 6.0, "vote_count": 4, "keywords": {"keywords": [{"id": 6278, "name": "scholarship"}, {"id": 8608, "name": "violinist"}, {"id": 210076, "name": "check"}, {"id": 215731, "name": "waltz"}]}, "similar": {"page": 1, "results": [{"adult": false, "backdrop_path": "/xOGEw8iywxcFMolV6SF6YdTdJTb.jpg", "genre_ids": [10402, 10749], "id": 52371, "original_language": "nl", "original_title": "LelleBelle", "overview": "19-year old Belle practices playing the violin diligently, but is unable to impart her music with a sensitive undertone. Her life changes when she discovers that sexual desire stimulates passion in her music.", "poster_path": "/nJVPgIq3icZMQ26p5uWIFdUZJfL.jpg", "release_date": "2010-10-08", "title": "LelleBelle", "video": false, "vote_average": 4.7, "vote_count": 41, "popularity": 13.747}, {"adult": false, "backdrop_path": "/snqU4BpNiaTKZ0HSMGVnoMffomf.jpg", "genre_ids": [28, 12, 35], "id": 9417, "original_language": "en", "original_title": "Wrongfully Accused", "overview": "Ryan Harrison, a violin god, superstar and sex symbol does not want to cheat on sexy Lauren Goodhue's husband with her. Mr. Goodhue is found murdered and Ryan suddenly finds himself being the main suspect. After being sentenced to death he manages to flee while being transferred to his execution site. Now, all the world is after him as he stumbles from one unfortunate incident to the next in order to prove himself innocent - by finding a mysterious one-eyed, one-armed, one-legged man...", "poster_path": "/rf9wKcXwItrtG4CSvUgEmuY6XAh.jpg", "release_date": "1998-07-23", "title": "Wrongfully Accused", "video": false, "vote_average": 5.9, "vote_count": 172, "popularity": 10.521}, {"id": 8328, "video": false, "vote_count": 1486, "vote_average": 6.6, "title": "Step Up 2: The Streets", "release_date": "2008-02-14", "original_language": "en", "original_title": "Step Up 2: The Streets", "genre_ids": [18, 10402, 10749], "backdrop_path": "/fGq48GZp2PLVgx9IwW5lBf4DBYJ.jpg", "adult": false, "overview": "When rebellious street dancer Andie lands at the elite Maryland School of the Arts, she finds herself fighting to fit in while also trying to hold onto her old life. When she joins forces with the schools hottest dancer, Chase, to form a crew of classmate outcasts to compete in Baltimore s underground dance battle The Streets.", "poster_path": "/5SwoeOUyfkS8s6aGB2bLYAL5jKR.jpg", "popularity": 18.121}, {"id": 71, "video": false, "vote_count": 2231, "vote_average": 7.6, "title": "Billy Elliot", "release_date": "2000-05-18", "original_language": "en", "original_title": "Billy Elliot", "genre_ids": [35, 18, 10402], "backdrop_path": "/vlnhKUvu335ZM8wSD27MaFHpNu2.jpg", "adult": false, "overview": "Set against the background of the 1984 Miners' Strike, 11-year-old Billy Elliot stumbles out of the boxing ring and onto the ballet floor. He faces many trials and triumphs as he strives to conquer his family's set ways, inner conflict, and standing on his toes.", "poster_path": "/6VaP1H3MOW5jdkWqS5Q1NapCOS6.jpg", "popularity": 19.875}, {"id": 31868, "video": false, "vote_count": 14, "vote_average": 7.2, "title": "Intermezzo: A Love Story", "release_date": "1939-10-06", "original_language": "en", "original_title": "Intermezzo: A Love Story", "genre_ids": [18, 10749], "backdrop_path": "/mRF2iaY5nAvFKJOH14M1kmMH6Ii.jpg", "adult": false, "overview": "A concert violinist becomes charmed with his daughter's talented piano teacher. When he invites her to go on tour with him, they make beautiful music away from the concert hall as well. He soon leaves his wife so the two can go off together.", "poster_path": "/zROfCgIvpH3XOSU8dfc9CGlOXuk.jpg", "popularity": 6.156}, {"id": 382399, "video": false, "vote_count": 707, "vote_average": 7.1, "title": "High Strung", "release_date": "2016-04-08", "original_language": "en", "original_title": "High Strung", "genre_ids": [18, 10402, 10749], "backdrop_path": "/elSS1VQHKZF1j2ZxOnVdA2VhZzU.jpg", "adult": false, "overview": "When a hip hop violinist busking in the New York subway encounters a classical dancer on scholarship at the Manhattan Conservatory of the Arts, sparks fly. With the help of a hip hop dance crew they must find a common ground while preparing for a competition that could change their lives forever.", "poster_path": "/vBpiQ4urEIlSOntCaNNMkb1SBNR.jpg", "popularity": 14.016}, {"adult": false, "backdrop_path": "/yaF4JUgdNy3NKXVtptTkKawZtlB.jpg", "genre_ids": [18, 53, 27], "id": 48171, "original_language": "en", "original_title": "The Rite", "overview": "Seminary student Michael Kovak reluctantly attends exorcism school at the Vatican. While he\u2019s in Rome, Michael meets an unorthodox priest who introduces him to the darker side of his faith, uncovering the devil\u2019s reach even to one of the holiest places on Earth.", "poster_path": "/94jKSKAOfM3EU4bPsOPkVB9AOHT.jpg", "release_date": "2011-01-28", "title": "The Rite", "video": false, "vote_average": 6.0, "vote_count": 1112, "popularity": 11.214}, {"id": 13707, "video": false, "vote_count": 63, "vote_average": 6.8, "title": "The Vagabond", "release_date": "1916-07-10", "original_language": "en", "original_title": "The Vagabond", "genre_ids": [35], "backdrop_path": "/7TjAXT67ubvI0RInvX1WnnJ5m8v.jpg", "adult": false, "overview": "After passing the hat and taking the donations intended for German street musicians Charlie heads for the country. Here he finds and rescues a girl from a band of gypsies. The girl falls in love with an artist whose portrait is later seen in a shop by the girl's real mother. The mother and the artist arrive in a chauffeured auto and offer Charlie money for his services, money which he rejects.", "poster_path": "/cubLspKyy5tnwoWbUWmTsIkzypm.jpg", "popularity": 4.31}, {"id": 78206, "video": false, "vote_count": 92, "vote_average": 7.2, "title": "Chicken with Plums", "release_date": "2011-10-26", "original_language": "fr", "original_title": "Poulet aux Prunes", "genre_ids": [35, 18], "backdrop_path": "/tMw7G84edm33vbSIETiobZM4t5B.jpg", "adult": false, "overview": "Nasser-Ali, a talented musician, loses the will to live after his wife breaks his beloved violin during an argument. He searches for a replacement, and finding none that sounds quite the same, he vows to die. Eight days later, he does. This is the story of his last week of life, where we see flashbacks and flash forwards of his previous life and his children's futures. We also see appearances of a nude Sophia Loren as well as the angel of death, Azarel. As we see his life, we realize exactly why he chose to end it and the profundity of this choice.", "poster_path": "/1Krxk9xPwWTlJlt9faNKJUJxbmx.jpg", "popularity": 6.698}, {"id": 11665, "video": false, "vote_count": 2092, "vote_average": 6.1, "title": "Get Smart", "release_date": "2008-06-19", "original_language": "en", "original_title": "Get Smart", "genre_ids": [28, 35, 53], "backdrop_path": "/jrWrNLPeeB4d7II30EJRSYX7Sbr.jpg", "adult": false, "overview": "When the identities of secret agents from Control are compromised, the Chief promotes hapless but eager analyst Maxwell Smart and teams him with stylish, capable Agent 99, the only spy whose cover remains intact. Can they work together to thwart the evil plans of KAOS and its crafty operative?", "poster_path": "/zS3UhYJvy6oLTBgNckpoyAa0qNs.jpg", "popularity": 16.483}, {"adult": false, "backdrop_path": "/qgmcpz4ZyDxtAOTvqN6oIpBez7d.jpg", "genre_ids": [18], "id": 7214, "original_language": "en", "original_title": "Coach Carter", "overview": "Based on a true story, in which Richmond High School head basketball coach Ken Carter made headlines in 1999 for benching his undefeated team due to poor academic results.", "poster_path": "/8c6BeOIrDStz2aiPceYdI5sd9pL.jpg", "release_date": "2005-01-14", "title": "Coach Carter", "video": false, "vote_average": 7.5, "vote_count": 1200, "popularity": 14.214}, {"adult": false, "backdrop_path": "/lHkOFi2LA9aPfffYN6mr1j7Jb3w.jpg", "genre_ids": [35, 80], "id": 10342, "original_language": "en", "original_title": "Teaching Mrs. Tingle", "overview": "Leanne is salutatorian when she needs to be valedictorian to get her scholarship to Harvard. The only class she is worse than the leader in is history, taught by Mrs. Tingle, and the teacher hates her. When an attempt to get ahead in Mrs. Tingle's class goes awry, mayhem ensues and friendships, loyalties and trust are tested by the teacher's intricate mind-games.", "poster_path": "/s3avbgkNEc2nyfH7L1PXexpzlYe.jpg", "release_date": "1999-08-11", "title": "Teaching Mrs. Tingle", "video": false, "vote_average": 5.5, "vote_count": 185, "popularity": 10.125}, {"adult": false, "backdrop_path": "/4TZ7Vkozv9p4HSqcxXwvfSwObVa.jpg", "genre_ids": [28, 35], "id": 10905, "original_language": "en", "original_title": "The Man with One Red Shoe", "overview": "A man is mistaken as a spy by the CIA when he arrives at the airport with one red shoe.", "poster_path": "/nU2edOxptmFU78ie310rnDmfXfx.jpg", "release_date": "1985-07-18", "title": "The Man with One Red Shoe", "video": false, "vote_average": 5.7, "vote_count": 125, "popularity": 9.955}, {"adult": false, "backdrop_path": "/s5X7ry3pDwAhUkvUmGUTXTXXoD2.jpg", "genre_ids": [16, 18, 10751], "id": 37797, "original_language": "ja", "original_title": "\u8033\u3092\u3059\u307e\u305b\u3070", "overview": "Shizuku lives a simple life, dominated by her love for stories and writing. One day she notices that all the library books she has have been previously checked out by the same person: 'Seiji Amasawa'. Curious as to who he is, Shizuku meets a boy her age whom she finds infuriating, but discovers to her shock that he is her 'Prince of Books'. As she grows closer to him, she realises that he merely read all those books to bring himself closer to her. The boy Seiji aspires to be a violin maker in Italy, and it is his dreams that make Shizuku realise that she has no clear path for her life. Knowing that her strength lies in writing, she tests her talents by writing a story about Baron, a cat statuette belonging to Seiji's grandfather", "poster_path": "/2R1Ffu4V7azxXkRcBKtVCW8AXA7.jpg", "release_date": "1995-07-15", "title": "Whisper of the Heart", "video": false, "vote_average": 7.9, "vote_count": 748, "popularity": 16.938}, {"id": 711, "video": false, "vote_count": 595, "vote_average": 7.1, "title": "Finding Forrester", "release_date": "2000-12-21", "original_language": "en", "original_title": "Finding Forrester", "genre_ids": [18], "backdrop_path": "/ihEhIKWqVUCWvtvGf7u7IKUMdfm.jpg", "adult": false, "overview": "Gus Van Sant tells the story of a young African American man named Jamal who confronts his talents while living on the streets of the Bronx. He accidentally runs into an old writer named Forrester who discovers his passion for writing. With help from his new mentor Jamal receives a scholarship to a private school.", "poster_path": "/heHi6n68fDiQoUc7SMletM9Adjz.jpg", "popularity": 12.235}, {"id": 14283, "video": false, "vote_count": 185, "vote_average": 7.7, "title": "The Red Violin", "release_date": "1998-09-10", "original_language": "fr", "original_title": "The Red Violin", "genre_ids": [18, 10402, 9648, 53, 10749], "backdrop_path": "/atlwDP7j2yuhYEduyvp3vlH5Ojr.jpg", "adult": false, "overview": "Spans 300 years in the life of one famed musical instrument that winds up in present-day Montreal on the auction block. Crafted by the Italian master Bussotti (Cecchi) in 1681, the red violin derives its unusual color from the human blood mixed into the finish. With this legacy, the violin travels to Austria, England, China, and Canada, leaving both beauty and tragedy in its wake.", "poster_path": "/lh6EZuSSmGzaRgYuJeO7uSynQR4.jpg", "popularity": 8.455}, {"adult": false, "backdrop_path": "/fh3FYAYSM0cZr648ooN033UlxvN.jpg", "genre_ids": [28, 35, 18, 10751], "id": 10680, "original_language": "en", "original_title": "D3: The Mighty Ducks", "overview": "The Ducks are offered scholarships at Eden Hall Academy but struggle with their new coach's methods and come under pressure from the board to retain their scholarships before their big game against the Varsity team.", "poster_path": "/umoEeNQqhvUg7jnpdGZnvNHCRFS.jpg", "release_date": "1996-10-04", "title": "D3: The Mighty Ducks", "video": false, "vote_average": 5.5, "vote_count": 205, "popularity": 8.897}, {"adult": false, "backdrop_path": "/kHOawTYL4tRc8uo0EHN375XmcRX.jpg", "genre_ids": [18], "id": 29866, "original_language": "en", "original_title": "Canone inverso", "overview": "Costanza is drinking a beer in a Prague pub, a summer night in 1968, while a violinist enters and starts playing a \"canone inverso\" for her. It is not a case, that music and that violin have a story behind that could concern her. It is the love story between Jeno Varga and the music, between Jeno and Sophie.", "poster_path": "/2l8wiy3rFNwMQbV4Lf55FrxnkJl.jpg", "release_date": "2000-02-11", "title": "Making Love", "video": false, "vote_average": 6.7, "vote_count": 32, "popularity": 4.185}, {"id": 65218, "video": false, "vote_count": 588, "vote_average": 7.3, "title": "Lemonade Mouth", "release_date": "2011-04-15", "original_language": "en", "original_title": "Lemonade Mouth", "genre_ids": [35, 18], "backdrop_path": "/aFBXhRlAy3JrZEQeQoa9CaRutOF.jpg", "adult": false, "overview": "The story follows five disparate high school students - Olivia, Mo, Charlie, Stella, and Wen who meet in detention. They realize they are destined to rock, and ultimately form a band that becomes a champion for students sidelined by the high school elite.", "poster_path": "/nrGiOFh7wk2x726tiN8kQ6nhF5b.jpg", "popularity": 9.755}, {"id": 12924, "video": false, "vote_count": 270, "vote_average": 6.8, "title": "The Place Promised in Our Early Days", "release_date": "2004-11-20", "original_language": "ja", "original_title": "\u96f2\u306e\u3080\u3053\u3046\u3001\u7d04\u675f\u306e\u5834\u6240", "genre_ids": [12, 16, 18, 878, 10749], "backdrop_path": "/hfsTcAenYaeKVE8nzYyGsEHWB1a.jpg", "adult": false, "overview": "In a post-war alternative timeline, Japan is divided into the North, controlled by the Union, and the South, controlled by the United States. A mysterious high tower rises within the borders of the Union. Three high school students promise to cross the border with a self-built airplane and unravel the secret of the tower.", "poster_path": "/ctwUzdQ5w7UIPx9wGhhNgVL40k9.jpg", "popularity": 10.524}], "total_pages": 6, "total_results": 104}, "recommendations": {"page": 1, "results": [{"adult": false, "backdrop_path": "/mUziJjXtx6XbAxE7dyULmentJjV.jpg", "genre_ids": [18], "id": 90093, "original_language": "en", "original_title": "Devotion", "overview": "In Victorian England, literary siblings Emily and Charlotte Bront vie for the affection of the Reverend Arthur Nichols. Along with their sister Anne, Emily and Charlotte also try to help their tormented brother Branwell, a gifted artist whose life is being destroyed by alcohol.", "poster_path": "/4ch1mqMpE6LKZORyNxToNUT0f7i.jpg", "release_date": "1946-04-20", "title": "Devotion", "video": false, "vote_average": 6.3, "vote_count": 5, "popularity": 2.631}, {"adult": false, "backdrop_path": "/lMht3ORXo4flrEsgbOH0UymFqsz.jpg", "genre_ids": [18, 9648], "id": 95124, "original_language": "en", "original_title": "Nine Lives Are Not Enough", "overview": "A reporter is constantly in trouble for jumping to conclusions.", "poster_path": "/aCTEt8UubcTYopIWkG82EiGcof.jpg", "release_date": "1941-09-20", "title": "Nine Lives Are Not Enough", "video": false, "vote_average": 5.3, "vote_count": 3, "popularity": 1.828}, {"adult": false, "backdrop_path": null, "genre_ids": [18], "id": 45112, "original_language": "en", "original_title": "Tail Spin", "overview": "Flyer enters a cross-country aerial derby, becomes rival to a wealthy society flyer, competes in parachute jumps and has love affairs.", "poster_path": "/nKUvdtdMDT5eyp0LqcmZ8VhPwCj.jpg", "release_date": "1939-02-19", "title": "Tail Spin", "video": false, "vote_average": 6.3, "vote_count": 3, "popularity": 2.541}, {"adult": false, "backdrop_path": "/sEXv5zo1upyojUYyJWIlkasntg0.jpg", "genre_ids": [18], "id": 75797, "original_language": "en", "original_title": "Too Much, Too Soon", "overview": "The daughter of iconic actor John Barrymore becomes reunited with her father after a ten year estrangement and engages in his self-destructive lifestyle.", "poster_path": "/fH13y1e0ZErETHqTGhCccIpmf3d.jpg", "release_date": "1958-04-17", "title": "Too Much, Too Soon", "video": false, "vote_average": 6.5, "vote_count": 3, "popularity": 2.827}, {"id": 45801, "video": false, "vote_count": 4, "vote_average": 6.9, "title": "Joan of Paris", "release_date": "1942-01-20", "original_language": "en", "original_title": "Joan of Paris", "genre_ids": [18, 10749, 10752], "backdrop_path": "/p3lrCWfqOHPXqaqy0E4mkN6YCI2.jpg", "adult": false, "overview": "An RAF squadron is brought down over occupied France. The flyers get to Paris in spite of the fact that the youngest, Baby, is injured. He must be hidden and his wounds cared for. The Gestapo has already issued orders for their arrest.", "poster_path": "/yMlTppnUeKYBM8dLL2OgKMYAuGd.jpg", "popularity": 2.284}], "total_pages": 1, "total_results": 5}, "credits": {"cast": [{"cast_id": 2, "character": "Amelia Cornell", "credit_id": "52fe4e07c3a36847f8279fe3", "gender": 1, "id": 8725, "name": "Olivia de Havilland", "order": 0, "profile_path": "/rnMSdk6OZvRdimYbFHjiaYOtIlt.jpg"}, {"cast_id": 3, "character": "Tony Baldwin", "credit_id": "52fe4e07c3a36847f8279fe7", "gender": 2, "id": 90517, "name": "Jeffrey Lynn", "order": 1, "profile_path": "/yzQoizit3ro4qoz5fZW0KI4USUz.jpg"}, {"cast_id": 4, "character": "Dusty Rhodes", "credit_id": "52fe4e07c3a36847f8279feb", "gender": 2, "id": 11998, "name": "Eddie Albert", "order": 2, "profile_path": "/tScju2xZ42MpXqx5WSYKFtwzH8r.jpg"}, {"cast_id": 5, "character": "Joy O'Keefe", "credit_id": "52fe4e07c3a36847f8279fef", "gender": 1, "id": 20391, "name": "Jane Wyman", "order": 3, "profile_path": "/e7mRq5fOsVZ2dnTFfuQScDDs2ON.jpg"}, {"cast_id": 6, "character": "Julius Malette", "credit_id": "52fe4e07c3a36847f8279ff3", "gender": 2, "id": 83474, "name": "Charles Winninger", "order": 4, "profile_path": "/fmbfytXqjpM1RNieEPAIGNFnydC.jpg"}, {"cast_id": 7, "character": "Clara Malette", "credit_id": "52fe4e07c3a36847f8279ff7", "gender": 1, "id": 20369, "name": "Spring Byington", "order": 5, "profile_path": "/n2bZwVguxiNEdtSgZkvXPrHfatO.jpg"}, {"cast_id": 9, "character": "Dr. Kobbe", "credit_id": "52fe4e07c3a36847f8279fff", "gender": 2, "id": 30215, "name": "Grant Mitchell", "order": 6, "profile_path": "/cDZpWgH0qOF4L5nmZJzGIHE5xo3.jpg"}, {"cast_id": 10, "character": "Paul Malette", "credit_id": "52fe4e07c3a36847f827a003", "gender": 2, "id": 14872, "name": "William T. Orr", "order": 7, "profile_path": "/jKlNUwisOKI25tXzzHe18B6liqF.jpg"}, {"cast_id": 11, "character": "Valerie Malette", "credit_id": "52fe4e07c3a36847f827a007", "gender": 1, "id": 107445, "name": "Ann Gillis", "order": 8, "profile_path": "/pj9tiEfMxDe4vedKtmlGu5oMB9m.jpg"}, {"cast_id": 8, "character": "Geza Peyer", "credit_id": "52fe4e07c3a36847f8279ffb", "gender": 2, "id": 94110, "name": "S.Z. Sakall", "order": 9, "profile_path": "/jBp6orDZiX5ay9tyaHQOpcFJAqd.jpg"}, {"cast_id": 12, "character": "Dr. Downey", "credit_id": "52fe4e07c3a36847f827a00b", "gender": 2, "id": 96721, "name": "Charles Trowbridge", "order": 10, "profile_path": "/70CRYTOSQWiIgGQsOqN8JKItssK.jpg"}, {"cast_id": 21, "character": "Dowager", "credit_id": "5797086b9251413a7c0010e9", "gender": 0, "id": 1656698, "name": "Mabel Taliaferro", "order": 11, "profile_path": null}, {"cast_id": 13, "character": "Agent", "credit_id": "52fe4e07c3a36847f827a00f", "gender": 2, "id": 95729, "name": "William B. Davidson", "order": 12, "profile_path": "/6MmhkoDiuyoW7HxlJ6F42kPkm6J.jpg"}, {"cast_id": 22, "character": "Sophie", "credit_id": "579708b49251413994001033", "gender": 0, "id": 1204470, "name": "Nanette Vallon", "order": 13, "profile_path": null}, {"cast_id": 14, "character": "Butler", "credit_id": "52fe4e07c3a36847f827a013", "gender": 2, "id": 80546, "name": "Sidney Bracey", "order": 14, "profile_path": "/o72gF6HWbCBrm4wBZWgWiP6RYAK.jpg"}, {"cast_id": 15, "character": "Woman Mistaken for Amelia by Tony (uncredited)", "credit_id": "54584b71c3a36839a7000d79", "gender": 1, "id": 93896, "name": "Mary Anderson", "order": 15, "profile_path": "/2Qf7Fiy64RYJgW098lKlTyFEwXO.jpg"}, {"cast_id": 27, "character": "Lookout Boy (uncredited)", "credit_id": "57cb2b299251413514004ce7", "gender": 0, "id": 1342200, "name": "Tommy Baker", "order": 16, "profile_path": null}, {"cast_id": 28, "character": "Valerie's Escort (uncredited)", "credit_id": "57cb2b38c3a3686747001b70", "gender": 0, "id": 1447952, "name": "Richard Clayton", "order": 17, "profile_path": null}, {"cast_id": 29, "character": "Party Guest (uncredited)", "credit_id": "57cb2b47c3a3685c2500554c", "gender": 2, "id": 1208020, "name": "James Conaty", "order": 18, "profile_path": null}, {"cast_id": 23, "character": "Accountant (uncredited)", "credit_id": "579709609251413adf00108b", "gender": 2, "id": 265594, "name": "John Dilson", "order": 19, "profile_path": "/95uTOZlqtxp8rhNBQ2ngPpEkt0G.jpg"}, {"cast_id": 30, "character": "Party Guest (uncredited)", "credit_id": "57cb2b54c3a3686747001b80", "gender": 2, "id": 1329667, "name": "Jay Eaton", "order": 20, "profile_path": "/uf9GvUbp3QInCO6hQ5RPxh0tBOG.jpg"}, {"cast_id": 31, "character": "Little Boy (uncredited)", "credit_id": "57cb2b62c3a3686744001bd5", "gender": 0, "id": 583304, "name": "Jack Egger", "order": 21, "profile_path": null}, {"cast_id": 16, "character": "Thompson - Music Co. Clerk (uncredited)", "credit_id": "54584b860e0a26116f000cdc", "gender": 2, "id": 97981, "name": "Creighton Hale", "order": 22, "profile_path": "/uqovtbUG2EYskIQjkLO95j6KdiK.jpg"}, {"cast_id": 32, "character": "Anderson - Music Co. Clerk (uncredited)", "credit_id": "57cb2b7292514163d0001b19", "gender": 2, "id": 1492162, "name": "George Haywood", "order": 23, "profile_path": null}, {"cast_id": 33, "character": "Party Guest (uncredited)", "credit_id": "57cb2b82925141643e001c26", "gender": 0, "id": 3678, "name": "Elizabeth Inglis", "order": 24, "profile_path": "/lng35XV4rtgsl9en2Q76NIey0sz.jpg"}, {"cast_id": 34, "character": "Music Co. Executive (uncredited)", "credit_id": "57cb2b91c3a3686744001bf7", "gender": 0, "id": 1188829, "name": "Richard Kipling", "order": 25, "profile_path": null}, {"cast_id": 35, "character": "Party Guest (uncredited)", "credit_id": "57cb2ba3c3a3685c25005587", "gender": 2, "id": 1422893, "name": "Al Lloyd", "order": 26, "profile_path": null}, {"cast_id": 24, "character": "Party Guest (uncredited)", "credit_id": "579709a39251413adf0010b3", "gender": 2, "id": 148419, "name": "Eric Mayne", "order": 27, "profile_path": "/3JpQliE6d59qxh3QGZmgdJ4E9Ue.jpg"}, {"cast_id": 36, "character": "Party Guest (uncredited)", "credit_id": "57cb2bb5925141359c004b46", "gender": 2, "id": 98047, "name": "Edmund Mortimer", "order": 28, "profile_path": null}, {"cast_id": 25, "character": "Music Co. Executive (uncredited)", "credit_id": "579709bfc3a368059f000eda", "gender": 2, "id": 980330, "name": "Jack Mower", "order": 29, "profile_path": "/40SznvE0dvL39Fg2Q0pbAPx6V0o.jpg"}, {"cast_id": 37, "character": "Party Guest (uncredited)", "credit_id": "57cb2bd992514163cd001def", "gender": 0, "id": 1422117, "name": "George Noisom", "order": 30, "profile_path": null}, {"cast_id": 38, "character": "Johnson - Music Co. Treasurer (uncredited)", "credit_id": "57cb2bebc3a3687273004d38", "gender": 0, "id": 1284767, "name": "Wedgwood Nowell", "order": 31, "profile_path": "/x6BH1s8L1Sbpf0ugVBmwqb2qAMi.jpg"}, {"cast_id": 39, "character": "Party Guest (uncredited)", "credit_id": "57cb2bf9925141359c004b69", "gender": 2, "id": 34818, "name": "Cyril Ring", "order": 32, "profile_path": "/uvRIQmdFTRZwWL34dtgAIqLOnwp.jpg"}, {"cast_id": 43, "character": "Eddie - the Office Boy (uncredited)", "credit_id": "58fe6189c3a3687f4f000015", "gender": 2, "id": 1803073, "name": "William Roberts", "order": 33, "profile_path": "/cg1L76bxvk7Ijb5ITLwGk0ETq1K.jpg"}, {"cast_id": 41, "character": "Party Guest (uncredited)", "credit_id": "57cb2c1e92514163dd001c77", "gender": 1, "id": 1269196, "name": "Ellinor Vanderveer", "order": 34, "profile_path": null}, {"cast_id": 26, "character": "Party Guest (uncredited)", "credit_id": "579709dd9251413994001103", "gender": 2, "id": 106104, "name": "Russell Wade", "order": 35, "profile_path": "/7z4KfH8mQCnjkH28MfYxlPHSbxE.jpg"}], "crew": [{"credit_id": "582932d69251417b1d032607", "department": "Camera", "gender": 2, "id": 9080, "job": "Director of Photography", "name": "Charles Rosher", "profile_path": null}, {"credit_id": "57924971c3a3687c73000497", "department": "Writing", "gender": 2, "id": 12362, "job": "Story", "name": "Walter Reisch", "profile_path": null}, {"credit_id": "5792494bc3a3687ce600059d", "department": "Writing", "gender": 2, "id": 20371, "job": "Screenplay", "name": "Robert Buckner", "profile_path": null}, {"credit_id": "5792495e9251416dad001b14", "department": "Writing", "gender": 0, "id": 32994, "job": "Screenplay", "name": "Earl Baldwin", "profile_path": null}, {"credit_id": "52fe4e07c3a36847f8279fdf", "department": "Directing", "gender": 2, "id": 33062, "job": "Director", "name": "Curtis Bernhardt", "profile_path": "/6eVNSKjZvbcqMLYygHA6ejs8zYh.jpg"}, {"credit_id": "5792493c9251411cde00058b", "department": "Writing", "gender": 2, "id": 57624, "job": "Screenplay", "name": "Ivan Goff", "profile_path": null}]}}