{"adult": false, "backdrop_path": "/lex3jzZYChFwUtJvilvYZNSyuhm.jpg", "belongs_to_collection": null, "budget": 0, "genres": [{"id": 35, "name": "Comedy"}], "homepage": null, "id": 232947, "imdb_id": "tt0030732", "original_language": "en", "original_title": "Service de Luxe", "overview": "Glamorous and efficient Helen Murphy runs a service that will provide any type of assistance to wealthy customers, but what she's really looking for is a man who can take care of himself.", "popularity": 1.176, "poster_path": "/bpDTo7FefgfZE17z6PKPXzllwIM.jpg", "production_companies": [], "production_countries": [], "release_date": "1938-10-12", "revenue": 0, "runtime": 85, "spoken_languages": [], "status": "Released", "tagline": "", "title": "Service de Luxe", "video": false, "vote_average": 6.0, "vote_count": 3, "keywords": {"keywords": [{"id": 9840, "name": "romance"}, {"id": 10325, "name": "mistaken identity"}]}, "similar": {"page": 1, "results": [{"id": 52345, "video": false, "vote_count": 221, "vote_average": 7.8, "title": "Lisbela and the Prisoner", "release_date": "2003-08-22", "original_language": "pt", "original_title": "Lisbela e o Prisioneiro", "genre_ids": [35, 10749], "backdrop_path": "/4KDlC0cZvR5LtszqjFhZcMzdiUD.jpg", "adult": false, "overview": "Lisbela is a young woman who loves going to the movies. Lel\u00e9u is a con man, going from town to town selling all sort of things and performing as master of ceremonies for some cheesy numbers, such as the woman who gets transformed into a gorilla. He gets involved with Linaura, a sexy and beautiful woman who happens to be the wife of the most frightening hitman of the place. The hitman finds out his wife's affair and goes after Lel\u00e9u, who has to leave in a hurry. In another town, he meets and falls instantly in love with Lisbela, who is engaged to Douglas, a hillbilly who tries hard to pass for a cosmopolitan Rio de Janeiro dweller.", "poster_path": "/9nlaRxQeYaMrVVANMppagFohCRP.jpg", "popularity": 1.042}, {"id": 76492, "video": false, "vote_count": 5547, "vote_average": 6.9, "title": "Hotel Transylvania", "release_date": "2012-09-20", "original_language": "en", "original_title": "Hotel Transylvania", "genre_ids": [16, 35, 14, 10751], "backdrop_path": "/sETTal2HPPkUC3lWc27HL1AFu9C.jpg", "adult": false, "overview": "Welcome to Hotel Transylvania, Dracula's lavish five-stake resort, where monsters and their families can live it up and no humans are allowed. One special weekend, Dracula has invited all his best friends to celebrate his beloved daughter Mavis's 118th birthday. For Dracula catering to all of these legendary monsters is no problem but the party really starts when one ordinary guy stumbles into the hotel and changes everything!", "poster_path": "/9qugesYpAWHUpdrw2w8URSGkAPt.jpg", "popularity": 31.161}, {"id": 703, "video": false, "vote_count": 2272, "vote_average": 7.8, "title": "Annie Hall", "release_date": "1977-04-19", "original_language": "en", "original_title": "Annie Hall", "genre_ids": [35, 18, 10749], "backdrop_path": "/8iNt5LGxpX9XeNWJgjx17xfTT7u.jpg", "adult": false, "overview": "New York comedian Alvy Singer falls in love with the ditsy Annie Hall.", "poster_path": "/bK9bLXwxWuXX5mbq75PZqjvAtfG.jpg", "popularity": 14.556}, {"adult": false, "backdrop_path": "/w9Zeo9D6kpdizGKPgFHdrOLYkFE.jpg", "genre_ids": [35, 10749], "id": 20943, "original_language": "en", "original_title": "The Ugly Truth", "overview": "A romantically challenged morning show producer is reluctantly embroiled in a series of outrageous tests by her chauvinistic correspondent to prove his theories on relationships and help her find love. His clever ploys, however, lead to an unexpected result.", "poster_path": "/xbIEfRy1qLYyChHc3cqaYLIWdVS.jpg", "release_date": "2009-07-24", "title": "The Ugly Truth", "video": false, "vote_average": 6.5, "vote_count": 2217, "popularity": 16.083}, {"adult": false, "backdrop_path": "/yT0dZm5EicwHZIWTJZvK2MvjDqO.jpg", "genre_ids": [35, 14, 10749], "id": 13477, "original_language": "en", "original_title": "When in Rome", "overview": "After fishing out coins from a water fountain in Italy, cynical New Yorker Beth Harper finds herself being wooed by several ardent suitors. As she deals with the attention, Beth tries to figure out whether a charming reporter really loves her.", "poster_path": "/lsq9k09TGKXMbAqNr5lNj8EInQf.jpg", "release_date": "2010-01-29", "title": "When in Rome", "video": false, "vote_average": 5.9, "vote_count": 791, "popularity": 13.872}, {"adult": false, "backdrop_path": "/7ApilgVwA0rjhl92GFTzW0FLGBG.jpg", "genre_ids": [10749, 10770], "id": 427045, "original_language": "en", "original_title": "A December Bride", "overview": "Aspiring interior designer Layla is dreading the Christmastime wedding of her cousin who\u2019s marrying Layla\u2019s ex-fianc\u00e9. Although Seth is the one responsible for introducing the bride and groom, she begrudgingly accepts his offer to be her date as she\u2019s out of options. Seth gets carried away at the reception and announces they\u2019re engaged, forcing a mortified Layla to keep up the pretense.", "poster_path": "/o1jAel6EasQkLPUj0TcDOJB2btE.jpg", "release_date": "2016-11-20", "title": "A December Bride", "video": false, "vote_average": 6.5, "vote_count": 66, "popularity": 9.01}, {"id": 213, "video": false, "vote_count": 2129, "vote_average": 8.0, "title": "North by Northwest", "release_date": "1959-07-07", "original_language": "en", "original_title": "North by Northwest", "genre_ids": [9648, 53], "backdrop_path": "/AplR1QRswlXiM65GoifX8sDadME.jpg", "adult": false, "overview": "Advertising man Roger Thornhill is mistaken for a spy, triggering a deadly cross-country chase.", "poster_path": "/aNV789h3oHm2pTHK5Bdq5RuiumZ.jpg", "popularity": 20.897}, {"adult": false, "backdrop_path": "/5OeY4U2rzePxWq2rkqMajUx2gz7.jpg", "genre_ids": [16, 10751, 12, 14, 10749], "id": 812, "original_language": "en", "original_title": "Aladdin", "overview": "Princess Jasmine grows tired of being forced to remain in the palace, so she sneaks out into the marketplace, in disguise, where she meets street-urchin Aladdin.  The couple falls in love, although Jasmine may only marry a prince.  After being thrown in jail, Aladdin becomes embroiled in a plot to find a mysterious lamp, with which the evil Jafar hopes to rule the land.", "poster_path": "/mjKozYRuHc9j7SmiXmbVmCiAM0A.jpg", "release_date": "1992-11-25", "title": "Aladdin", "video": false, "vote_average": 7.6, "vote_count": 7289, "popularity": 35.494}, {"id": 9051, "video": false, "vote_count": 115, "vote_average": 5.6, "title": "10", "release_date": "1979-10-04", "original_language": "en", "original_title": "10", "genre_ids": [35, 10749], "backdrop_path": "/f0KcQlWKQfgJxIV365TFaFyXUVT.jpg", "adult": false, "overview": "A Hollywood songwriter goes through a mid-life crisis and becomes infatuated with a sexy blonde newlywed.", "poster_path": "/7GGpt49Q2c98zVz514mHlRjCpGy.jpg", "popularity": 14.392}, {"id": 384677, "video": false, "vote_count": 1692, "vote_average": 7.0, "title": "Set It Up", "release_date": "2018-06-12", "original_language": "en", "original_title": "Set It Up", "genre_ids": [35, 10749], "backdrop_path": "/wYHaQzfzv5vOGaV6uPhatFWG338.jpg", "adult": false, "overview": "Two overworked and underpaid assistants come up with a plan to get their bosses off their backs by setting them up with each other.", "poster_path": "/XF5jV0UxKnYNPAimem0hbwPfCR.jpg", "popularity": 17.802}, {"id": 11172, "video": false, "vote_count": 1032, "vote_average": 6.3, "title": "Music and Lyrics", "release_date": "2007-02-09", "original_language": "en", "original_title": "Music and Lyrics", "genre_ids": [35, 10402, 10749], "backdrop_path": "/cLZsdMMC3hoVQy9xwn3YJ4CR9Pd.jpg", "adult": false, "overview": "A washed up singer is given a couple days to compose a chart-topping hit for an aspiring teen sensation. Though he's never written a decent lyric in his life, he sparks with an offbeat younger woman with a flair for words.", "poster_path": "/jhv9qSAuwGkzVj1pSnu3HQBb8Qe.jpg", "popularity": 12.796}, {"id": 27022, "video": false, "vote_count": 3219, "vote_average": 6.0, "title": "The Sorcerer's Apprentice", "release_date": "2010-07-13", "original_language": "en", "original_title": "The Sorcerer's Apprentice", "genre_ids": [28, 12, 35, 18, 14], "backdrop_path": "/v0o9M1us65w1kDQp8Q6KnB5a11s.jpg", "adult": false, "overview": "Balthazar Blake is a master sorcerer in modern-day Manhattan trying to defend the city from his arch-nemesis, Maxim Horvath. Balthazar can't do it alone, so he recruits Dave Stutler, a seemingly average guy who demonstrates hidden potential, as his reluctant prot\u00e9g\u00e9. The sorcerer gives his unwilling accomplice a crash course in the art and science of magic, and together, these unlikely partners work to stop the forces of darkness.", "poster_path": "/ZNSrRpdJ6FjMy4Iu6JpRTJ5Q87.jpg", "popularity": 24.096}, {"adult": false, "backdrop_path": "/74Jh5SIWnKDwtusPfDP51EeCFHt.jpg", "genre_ids": [35, 10749], "id": 9576, "original_language": "en", "original_title": "Tootsie", "overview": "When struggling, out of work actor Michael Dorsey secretly adopts a female alter ego - Dorothy Michaels - in order to land a part in a daytime drama, he unwittingly becomes a feminist icon and ends up in a romantic pickle.", "poster_path": "/ngyCzZwb9y5sMUCig5JQT4Y33Q.jpg", "release_date": "1982-12-16", "title": "Tootsie", "video": false, "vote_average": 7.2, "vote_count": 915, "popularity": 9.882}, {"adult": false, "backdrop_path": "/8ZIZJbPXCtnIG1rJpR57iFRyPTt.jpg", "genre_ids": [10749, 35], "id": 544, "original_language": "en", "original_title": "There's Something About Mary", "overview": "For Ted, prom night went about as bad as it\u2019s possible for any night to go. Thirteen years later, he finally gets another chance with his old prom date, only to run up against other suitors including the sleazy detective he hired to find her.", "poster_path": "/zD4ACYImREkDRk8PPiIXHDx4nZa.jpg", "release_date": "1998-07-15", "title": "There's Something About Mary", "video": false, "vote_average": 6.5, "vote_count": 3196, "popularity": 23.945}, {"id": 49013, "video": false, "vote_count": 4530, "vote_average": 5.9, "title": "Cars 2", "release_date": "2011-06-11", "original_language": "en", "original_title": "Cars 2", "genre_ids": [12, 16, 35, 10751], "backdrop_path": "/jEcmZhtJkZQc6ta2vzBd9CU7GIx.jpg", "adult": false, "overview": "Star race car Lightning McQueen and his pal Mater head overseas to compete in the World Grand Prix race. But the road to the championship becomes rocky as Mater gets caught up in an intriguing adventure of his own: international espionage.", "poster_path": "/AblhtULOVtrkSnFxRPQ8gBemxw9.jpg", "popularity": 25.278}, {"adult": false, "backdrop_path": "/fBYnaVOcc2Ghfkv473z0xdBRQ0m.jpg", "genre_ids": [10751, 16, 12, 35], "id": 270946, "original_language": "en", "original_title": "Penguins of Madagascar", "overview": "Skipper, Kowalski, Rico and Private join forces with undercover organization The North Wind to stop the villainous Dr. Octavius Brine from destroying the world as we know it.", "poster_path": "/pRer59eyY4rjkLPeKXKo7fPxCHH.jpg", "release_date": "2014-11-22", "title": "Penguins of Madagascar", "video": false, "vote_average": 6.4, "vote_count": 2485, "popularity": 27.36}, {"id": 10719, "video": false, "vote_count": 2252, "vote_average": 6.6, "title": "Elf", "release_date": "2003-10-09", "original_language": "en", "original_title": "Elf", "genre_ids": [35, 14, 10751], "backdrop_path": "/jRzrQ7Thcjpetr0n8B6w980eZet.jpg", "adult": false, "overview": "When young Buddy falls into Santa's gift sack on Christmas Eve, he's transported back to the North Pole and raised as a toy-making elf by Santa's helpers. But as he grows into adulthood, he can't shake the nagging feeling that he doesn't belong. Buddy vows to visit Manhattan and find his real dad, a workaholic publisher.", "poster_path": "/9jChHqqcpe0zHNTqkNqWZkwkgil.jpg", "popularity": 14.355}, {"id": 295151, "video": false, "vote_count": 540, "vote_average": 6.2, "title": "Let It Snow", "release_date": "2019-11-08", "original_language": "en", "original_title": "Let It Snow", "genre_ids": [35, 10749], "backdrop_path": "/4oSRQ03nJjl8sZAPgIXgi51XZva.jpg", "adult": false, "overview": "When a huge blizzard (that doesn't show signs of stopping) hits, Gracetown is completely snowed in. But even though it's cold outside, things are heating up inside, proving that Christmas is magical when it comes to love.", "poster_path": "/rEVu3E1OhMPJeCAn9a6QLyVhZDj.jpg", "popularity": 16.181}, {"id": 9647, "video": false, "vote_count": 786, "vote_average": 6.9, "title": "Scrooged", "release_date": "1988-11-22", "original_language": "en", "original_title": "Scrooged", "genre_ids": [35, 18, 14], "backdrop_path": "/6xezVJoUp0cZUBQeIDpW6lFuhcd.jpg", "adult": false, "overview": "In this modern take on Charles Dickens' \"A Christmas Carol,\" Frank Cross (Bill Murray) is a wildly successful television executive whose cold ambition and curmudgeonly nature has driven away the love of his life, Claire Phillips (Karen Allen). But after firing a staff member, Eliot Loudermilk (Bobcat Goldthwait), on Christmas Eve, Frank is visited by a series of ghosts who give him a chance to re-evaluate his actions and right the wrongs of his past.", "poster_path": "/uO0znfB2ZzTXA1IS7jkrjNbpkYK.jpg", "popularity": 17.767}, {"id": 449176, "video": false, "vote_count": 3691, "vote_average": 8.1, "title": "Love, Simon", "release_date": "2018-02-16", "original_language": "en", "original_title": "Love, Simon", "genre_ids": [35, 18, 10749], "backdrop_path": "/rqMEeajyzSF4PpJtdCB816Iz8Vr.jpg", "adult": false, "overview": "Everyone deserves a great love story. But for seventeen-year old Simon Spier it's a little more complicated: he's yet to tell his family or friends he's gay and he doesn't know the identity of the anonymous classmate he's fallen for online.", "poster_path": "/5YUYg5q7QfC4IoNwNUtiwdiYKPr.jpg", "popularity": 17.201}], "total_pages": 247, "total_results": 4934}, "recommendations": {"page": 1, "results": [], "total_pages": 1, "total_results": 0}, "credits": {"cast": [{"cast_id": 1, "character": "Robert Wade", "credit_id": "52fe4e0dc3a36847f827b42d", "gender": 2, "id": 1905, "name": "Vincent Price", "order": 0, "profile_path": "/1B5qC9TdVc20e6pA5zpFsuoCXUg.jpg"}, {"cast_id": 2, "character": "Helen Murphy", "credit_id": "52fe4e0dc3a36847f827b431", "gender": 1, "id": 89731, "name": "Constance Bennett", "order": 1, "profile_path": "/yDoaKl8CxeIeeLbClFMBvTVe71q.jpg"}, {"cast_id": 3, "character": "Robinson", "credit_id": "52fe4e0dc3a36847f827b435", "gender": 2, "id": 2436, "name": "Charles Ruggles", "order": 2, "profile_path": "/mYzf9Vq3rFizQwk5cXJBFSYAcJI.jpg"}, {"cast_id": 4, "character": "Pearl", "credit_id": "52fe4e0dc3a36847f827b439", "gender": 1, "id": 30185, "name": "Helen Broderick", "order": 3, "profile_path": "/ivLLiHElyLFtRlYxj46f4Rc91Li.jpg"}, {"cast_id": 5, "character": "Bibenko", "credit_id": "52fe4e0dc3a36847f827b43d", "gender": 2, "id": 39801, "name": "Mischa Auer", "order": 4, "profile_path": "/qeOEHGEThuu7y9spmH60GdkdTUF.jpg"}, {"cast_id": 11, "character": "Audrey", "credit_id": "531427c3c3a36829ef004c0e", "gender": 0, "id": 1198298, "name": "Joy Hodges", "order": 5, "profile_path": "/9L5d3hBsrKHXdtKkkuxb7GQ0u6r.jpg"}, {"cast_id": 12, "character": "Secretary", "credit_id": "531427cec3a36829d3004c47", "gender": 1, "id": 109831, "name": "Frances Robinson", "order": 6, "profile_path": "/pucksuFmDahlyxREGYV6a7bXt9P.jpg"}, {"cast_id": 13, "character": "Butler", "credit_id": "531427dbc3a36829a9004a44", "gender": 2, "id": 29601, "name": "Halliwell Hobbes", "order": 7, "profile_path": "/9fEw0wUURXnROPxnbvDTBKKPp73.jpg"}, {"cast_id": 14, "character": "Bellhop", "credit_id": "531427e5c3a36829e2004c7c", "gender": 0, "id": 1298178, "name": "Raymond Parker", "order": 8, "profile_path": null}, {"cast_id": 15, "character": "Bellhop", "credit_id": "531427efc3a36821d30008b3", "gender": 2, "id": 120822, "name": "Frank Coghlan Jr.", "order": 9, "profile_path": "/3oXHUQDk3rpvWnJpWfWNDD5hesl.jpg"}, {"cast_id": 16, "character": "Voroshinsky", "credit_id": "531427fdc3a36829b8004c36", "gender": 2, "id": 13343, "name": "Lawrence Grant", "order": 10, "profile_path": "/vdyBF6rov0AszuggwHNPDj62jiO.jpg"}, {"cast_id": 17, "character": "Mrs. Devereaux", "credit_id": "53142807c3a3682a02004c36", "gender": 0, "id": 1181953, "name": "Nina Gilberti", "order": 11, "profile_path": null}, {"cast_id": 18, "character": "Mr. Devereaux", "credit_id": "53142811c3a3682a220048d6", "gender": 2, "id": 940628, "name": "Crauford Kent", "order": 12, "profile_path": "/c3uZ2ekRe34IdfYdzxpnSwYvRlc.jpg"}, {"cast_id": 19, "character": "Wade", "credit_id": "5314281ac3a36829b8004c39", "gender": 2, "id": 29817, "name": "Lionel Belmore", "order": 13, "profile_path": "/rLdourbL5LOLXNwkRSyIT6iTOti.jpg"}, {"cast_id": 20, "character": "Bridegroom", "credit_id": "53142823c3a3682a220048d9", "gender": 2, "id": 30280, "name": "Chester Clute", "order": 14, "profile_path": "/9ZlAACiCnepfZS0dTAqqkdqWGse.jpg"}], "crew": [{"credit_id": "52fe4e0dc3a36847f827b443", "department": "Directing", "gender": 2, "id": 30146, "job": "Director", "name": "Rowland V. Lee", "profile_path": null}, {"credit_id": "52fe4e0dc3a36847f827b449", "department": "Writing", "gender": 2, "id": 20122, "job": "Writer", "name": "Vera Caspary", "profile_path": "/4IDukN98IC8pTgdlwGub2Nbe3wN.jpg"}, {"credit_id": "52fe4e0dc3a36847f827b44f", "department": "Writing", "gender": 2, "id": 95034, "job": "Writer", "name": "Bruce Manning", "profile_path": null}, {"credit_id": "52fe4e0dc3a36847f827b455", "department": "Writing", "gender": 1, "id": 148850, "job": "Writer", "name": "Gertrude Purcell", "profile_path": null}, {"credit_id": "52fe4e0dc3a36847f827b45b", "department": "Writing", "gender": 2, "id": 84235, "job": "Writer", "name": "Leonard Spigelgass", "profile_path": null}, {"credit_id": "5820ce09925141206100092b", "department": "Camera", "gender": 2, "id": 29635, "job": "Director of Photography", "name": "George Robinson", "profile_path": null}]}}