{"adult": false, "backdrop_path": "/v2LPukITNcsdRFGlZ37YDaaJe92.jpg", "belongs_to_collection": null, "budget": 0, "genres": [{"id": 80, "name": "Crime"}], "homepage": null, "id": 23334, "imdb_id": "tt0041761", "original_language": "en", "original_title": "Port of New York", "overview": "This film tells the story of a customs and treasury agent out to stop the distribution of opium, that came in on a ship in the Port of New York but was smuggled off by drug dealers.", "popularity": 3.089, "poster_path": "/odfgSpwHejPeOJr3aCesPrBMRh0.jpg", "production_companies": [{"id": 55023, "logo_path": null, "name": "Samba Films", "origin_country": ""}, {"id": 1347, "logo_path": null, "name": "Aubrey Schenck Productions", "origin_country": ""}], "production_countries": [{"iso_3166_1": "US", "name": "United States of America"}], "release_date": "1949-11-28", "revenue": 0, "runtime": 82, "spoken_languages": [{"iso_639_1": "en", "name": "English"}], "status": "Released", "tagline": "NO CRIME TOO VICIOUS...NO SIN TOO VILE...peddlers of poison to helpless prey!", "title": "Port of New York", "video": false, "vote_average": 4.8, "vote_count": 12, "keywords": {"keywords": [{"id": 2231, "name": "drug dealer"}, {"id": 11034, "name": "b movie"}, {"id": 195402, "name": "film noir"}]}, "similar": {"page": 1, "results": [{"adult": false, "backdrop_path": "/1l77Gk2OK9hjRFze08El8Do3pT1.jpg", "genre_ids": [80, 9648, 53], "id": 996, "original_language": "en", "original_title": "Double Indemnity", "overview": "A rich woman and a calculating insurance agent plot to kill her unsuspecting husband after he signs a double indemnity policy.  Against a backdrop of distinctly Californian settings, the partners in crime plan the perfect murder to collect the insurance, which pays  double if the death is accidental.", "poster_path": "/nW0cCpfuGcR1JG7EinDbdL2Ijf2.jpg", "release_date": "1944-07-03", "title": "Double Indemnity", "video": false, "vote_average": 8.2, "vote_count": 858, "popularity": 14.326}, {"id": 1051, "video": false, "vote_count": 854, "vote_average": 7.6, "title": "The French Connection", "release_date": "1971-10-09", "original_language": "en", "original_title": "The French Connection", "genre_ids": [28, 80, 53], "backdrop_path": "/hPlzjKzbO8KuCerm1lOxDtUjlHD.jpg", "adult": false, "overview": "Tough narcotics detective 'Popeye' Doyle is in hot pursuit of a suave French drug dealer who may be the key to a huge heroin-smuggling operation.", "poster_path": "/5XSGvIKl2yPvOkieFjc3rzLw7x0.jpg", "popularity": 13.205}, {"id": 103, "video": false, "vote_count": 6109, "vote_average": 8.2, "title": "Taxi Driver", "release_date": "1976-02-07", "original_language": "en", "original_title": "Taxi Driver", "genre_ids": [80, 18], "backdrop_path": "/hjmJKAVoZ3n2KWbKgasbfdugwhu.jpg", "adult": false, "overview": "A mentally unstable Vietnam War veteran works as a night-time taxi driver in New York City where the perceived decadence and sleaze feed his urge for violent action, attempting to save a preadolescent prostitute in the process.", "poster_path": "/ekstpH614fwDX8DUln1a2Opz0N8.jpg", "popularity": 30.132}, {"id": 1900, "video": false, "vote_count": 1101, "vote_average": 7.1, "title": "Traffic", "release_date": "2000-12-27", "original_language": "en", "original_title": "Traffic", "genre_ids": [80, 18, 53], "backdrop_path": "/ivAC8eZkzKoTf8EWQh7pkFD0AGS.jpg", "adult": false, "overview": "An exploration of the United States of America's war on drugs from multiple perspectives. For the new head of the Office of National Drug Control Policy, the war becomes personal when he discovers his well-educated daughter is abusing cocaine within their comfortable suburban home. In Mexico, a flawed, but noble policeman agrees to testify against a powerful general in league with a cartel, and in San Diego, a drug kingpin's sheltered trophy wife must learn her husband's ruthless business after he is arrested, endangering her luxurious lifestyle.", "poster_path": "/9qPLd5hdXIlrAyknVWK38eZyUMo.jpg", "popularity": 15.415}, {"id": 9604, "video": false, "vote_count": 723, "vote_average": 6.0, "title": "Red Heat", "release_date": "1988-06-17", "original_language": "en", "original_title": "Red Heat", "genre_ids": [28, 80], "backdrop_path": "/rqqaRqNMvnx3W5lnh4dFXqotMgO.jpg", "adult": false, "overview": "A tough Russian policeman is forced to partner up with a cocky Chicago police detective when he is sent to Chicago to apprehend a Georgian drug lord who killed his partner and fled the country.", "poster_path": "/tCBns5Uxpy82dvs0pztDtD2CeL8.jpg", "popularity": 14.576}, {"id": 627, "video": false, "vote_count": 6006, "vote_average": 8.0, "title": "Trainspotting", "release_date": "1996-02-23", "original_language": "en", "original_title": "Trainspotting", "genre_ids": [80, 18], "backdrop_path": "/Aw0z8bUhGljT0ots6udf1MTLEMi.jpg", "adult": false, "overview": "Mark Renton, deeply immersed in the Edinburgh drug scene, tries to clean up and get out, despite the allure of the drugs and influence of friends.", "poster_path": "/p1O3eFsdb0GEIYu87xlwV7P4jM1.jpg", "popularity": 35.793}, {"adult": false, "backdrop_path": "/a24i4Qw6qFTtkFLQsncv8WPwevj.jpg", "genre_ids": [53, 28, 80], "id": 345887, "original_language": "en", "original_title": "The Equalizer 2", "overview": "Robert McCall, who serves an unflinching justice for the exploited and oppressed, embarks on a relentless, globe-trotting quest for vengeance when a long-time girl friend is murdered.", "poster_path": "/cQvc9N6JiMVKqol3wcYrGshsIdZ.jpg", "release_date": "2018-07-19", "title": "The Equalizer 2", "video": false, "vote_average": 6.5, "vote_count": 2482, "popularity": 24.261}, {"id": 680, "video": false, "vote_count": 17227, "vote_average": 8.5, "title": "Pulp Fiction", "release_date": "1994-09-10", "original_language": "en", "original_title": "Pulp Fiction", "genre_ids": [80, 53], "backdrop_path": "/suaEOtk1N1sgg2MTM7oZd2cfVp3.jpg", "adult": false, "overview": "A burger-loving hit man, his philosophical partner, a drug-addled gangster's moll and a washed-up boxer converge in this sprawling, comedic crime caper. Their adventures unfurl in three stories that ingeniously trip back and forth in time.", "poster_path": "/d5iIlFn5s0ImszYzBPb8JPIfbXD.jpg", "popularity": 43.597}, {"id": 23168, "video": false, "vote_count": 2676, "vote_average": 7.2, "title": "The Town", "release_date": "2010-09-15", "original_language": "en", "original_title": "The Town", "genre_ids": [80, 18, 53], "backdrop_path": "/asMylckPVBXViRqxjDTzik0TpOh.jpg", "adult": false, "overview": "Doug MacRay is a longtime thief, who, smarter than the rest of his crew, is looking for his chance to exit the game. When a bank job leads to the group kidnapping an attractive branch manager, he takes on the role of monitoring her \u2013 but their burgeoning relationship threatens to unveil the identities of Doug and his crew to the FBI Agent who is on their case.", "poster_path": "/zX4fKmDXKGt4hlzhAJirdlRKFgO.jpg", "popularity": 22.874}, {"id": 807, "video": false, "vote_count": 11937, "vote_average": 8.3, "title": "Se7en", "release_date": "1995-09-22", "original_language": "en", "original_title": "Se7en", "genre_ids": [80, 9648, 53], "backdrop_path": "/A0WKbRIojF9DUWG4XLCmg5JK6I5.jpg", "adult": false, "overview": "Two homicide detectives are on a desperate hunt for a serial killer whose crimes are based on the \"seven deadly sins\" in this dark and haunting film that takes viewers from the tortured remains of one victim to the next. The seasoned Det. Sommerset researches each sin in an effort to get inside the killer's mind, while his novice partner, Mills, scoffs at his efforts to unravel the case.", "poster_path": "/8zw8IL4zEPjkh8Aysdcd0FwGMb0.jpg", "popularity": 34.018}, {"id": 2034, "video": false, "vote_count": 3169, "vote_average": 7.4, "title": "Training Day", "release_date": "2001-10-05", "original_language": "en", "original_title": "Training Day", "genre_ids": [28, 80, 18, 53], "backdrop_path": "/A1S9fBzc4Wepc6onnCd9eVR2FLp.jpg", "adult": false, "overview": "On his first day on the job as a narcotics officer, a rookie cop works with a rogue detective who isn't what he appears.", "poster_path": "/sDT2biSB7wzBJdXq9o3ldr7VfvY.jpg", "popularity": 12.719}, {"adult": false, "backdrop_path": "/3dWSyYEdcmvNjzwIPy4sPHjdJpw.jpg", "genre_ids": [878, 27, 28], "id": 9348, "original_language": "en", "original_title": "Species", "overview": "In 1993, the Search for Extra Terrestrial Intelligence Project receives a transmission detailing an alien DNA structure, along with instructions on how to splice it with human DNA. The result is Sil, a sensual but deadly creature who can change from a beautiful woman to an armour-plated killing machine in the blink of an eye.", "poster_path": "/94P6kzKH8aPmQmPr9yZjgy7BtQQ.jpg", "release_date": "1995-07-07", "title": "Species", "video": false, "vote_average": 5.7, "vote_count": 799, "popularity": 27.177}, {"id": 1092, "video": false, "vote_count": 891, "vote_average": 8.0, "title": "The Third Man", "release_date": "1949-08-31", "original_language": "en", "original_title": "The Third Man", "genre_ids": [9648, 53], "backdrop_path": "/lrIuSWdC1LfKJZUnBX6axJxzZGe.jpg", "adult": false, "overview": "In postwar Vienna, Austria, Holly Martins, a writer of pulp Westerns, arrives penniless as a guest of his childhood chum Harry Lime, only to learn he has died. Martins develops a conspiracy theory after learning of a \"third man\" present at the time of Harry's death, running into interference from British officer Major Calloway, and falling head-over-heels for Harry's grief-stricken lover, Anna.", "poster_path": "/rO2Fq0AZZx9obs52KJdx4mRE8p5.jpg", "popularity": 14.387}, {"id": 9725, "video": false, "vote_count": 771, "vote_average": 6.0, "title": "Friday the 13th Part 2", "release_date": "1981-05-01", "original_language": "en", "original_title": "Friday the 13th Part 2", "genre_ids": [27, 53], "backdrop_path": "/wDmw9Nacka0oWj7hEIIEInP94Lx.jpg", "adult": false, "overview": "Five years after the horrible bloodbath at Camp Crystal Lake, it seems Jason Voorhees and his demented mother are in the past. Paul opens up a new camp close to the infamous site, ignoring warnings to stay away, and a sexually-charged group of counselors follow -- including child psychologist major Ginny. But Jason has been hiding out all this time, and now he's ready for revenge.", "poster_path": "/3c6uMXqFXO9G5RVdiPB76IK3FYM.jpg", "popularity": 14.489}, {"adult": false, "backdrop_path": "/useuHJQ5HOoEWkAvEjL1FW1sUfe.jpg", "genre_ids": [18], "id": 376867, "original_language": "en", "original_title": "Moonlight", "overview": "The tender, heartbreaking story of a young man\u2019s struggle to find himself, told across three defining chapters in his life as he experiences the ecstasy, pain, and beauty of falling in love, while grappling with his own sexuality.", "poster_path": "/qAwFbszz0kRyTuXmMeKQZCX3Q2O.jpg", "release_date": "2016-10-21", "title": "Moonlight", "video": false, "vote_average": 7.4, "vote_count": 4406, "popularity": 27.348}, {"adult": false, "backdrop_path": "/aiM3XxYE2JvW1vJ4AC6cI1RjAoT.jpg", "genre_ids": [28], "id": 438650, "original_language": "en", "original_title": "Cold Pursuit", "overview": "The quiet family life of Nels Coxman, a snowplow driver, is upended after his son's murder. Nels begins a vengeful hunt for Viking, the drug lord he holds responsible for the killing, eliminating Viking's associates one by one. As Nels draws closer to Viking, his actions bring even more unexpected and violent consequences, as he proves that revenge is all in the execution.", "poster_path": "/hXgmWPd1SuujRZ4QnKLzrj79PAw.jpg", "release_date": "2019-02-07", "title": "Cold Pursuit", "video": false, "vote_average": 5.4, "vote_count": 1203, "popularity": 26.948}, {"adult": false, "backdrop_path": "/c7iSbhSffDkM2yf5cg3D91FuVga.jpg", "genre_ids": [9648, 10749, 53], "id": 426, "original_language": "en", "original_title": "Vertigo", "overview": "A retired San Francisco detective suffering from acrophobia investigates the strange activities of an old friend's wife, all the while becoming dangerously obsessed with her.", "poster_path": "/obhM86qyv8RsE69XSMTtT9FdE0b.jpg", "release_date": "1958-05-09", "title": "Vertigo", "video": false, "vote_average": 8.2, "vote_count": 2889, "popularity": 21.778}, {"id": 339846, "video": false, "vote_count": 5299, "vote_average": 6.1, "title": "Baywatch", "release_date": "2017-05-12", "original_language": "en", "original_title": "Baywatch", "genre_ids": [28, 35], "backdrop_path": "/6QmX2BDVr1hIOIPHqnxvp1C1ZZp.jpg", "adult": false, "overview": "Devoted lifeguard Mitch Buchannon butts heads with a brash new recruit. Together, they uncover a local criminal plot that threatens the future of the Bay.", "poster_path": "/6HE4xd8zloDqmjMZuhUCCw2UcY1.jpg", "popularity": 28.478}, {"id": 402, "video": false, "vote_count": 1776, "vote_average": 6.7, "title": "Basic Instinct", "release_date": "1992-03-20", "original_language": "en", "original_title": "Basic Instinct", "genre_ids": [9648, 53], "backdrop_path": "/bKdxJMqvr4wltzAQaieA6CTkaa9.jpg", "adult": false, "overview": "A police detective is in charge of the investigation of a brutal murder, in which a beautiful and seductive woman could be involved.", "poster_path": "/p1DHOfLFZmM567ePKfFNMV4mY92.jpg", "popularity": 23.513}, {"id": 2453, "video": false, "vote_count": 176, "vote_average": 6.2, "title": "Harley Davidson and the Marlboro Man", "release_date": "1991-08-23", "original_language": "en", "original_title": "Harley Davidson and the Marlboro Man", "genre_ids": [28, 53], "backdrop_path": "/1E8opVXbqzYe1GjPxIWZ8OxRTG6.jpg", "adult": false, "overview": "It's the lawless future, and renegade biker Harley Davidson and his surly cowboy buddy, Marlboro, learn that a corrupt bank is about to foreclose on their friend's bar to further an expanding empire. Harley and Marlboro decide to help by robbing the crooked bank. But when they accidentally filch a drug shipment, they find themselves on the run from criminal financiers and the mob in this rugged action adventure.", "poster_path": "/u2wmXRegggH2o2AtRm0HXKtJqHY.jpg", "popularity": 13.841}], "total_pages": 73, "total_results": 1457}, "recommendations": {"page": 1, "results": [{"adult": false, "backdrop_path": "/dqmaQFURXSoImahpgVT7PCCla0H.jpg", "genre_ids": [18, 53], "id": 74753, "original_language": "en", "original_title": "The Sleeping Tiger", "overview": "A petty thief breaks into the home of a psychiatrist and gets caught in a web of a doctor who wishes to experiment on him and a doctor's wife who wishes to seduce him.", "poster_path": "/9694oLURdjQmzqqr5KVmk4g0jvY.jpg", "release_date": "1954-06-21", "title": "The Sleeping Tiger", "video": false, "vote_average": 6.1, "vote_count": 10, "popularity": 2.979}, {"adult": false, "backdrop_path": "/pyLylN1bC4JQtkvauoWA3vWoAIZ.jpg", "genre_ids": [9648, 53], "id": 47922, "original_language": "en", "original_title": "Inner Sanctum", "overview": "A killer hides out in a small-town boarding house.", "poster_path": "/dW4mgkvgTMki7b4PwauqsgMgn6W.jpg", "release_date": "1948-10-15", "title": "Inner Sanctum", "video": false, "vote_average": 5.0, "vote_count": 14, "popularity": 3.749}, {"id": 40858, "video": false, "vote_count": 8, "vote_average": 6.1, "title": "The Underworld Story", "release_date": "1950-07-26", "original_language": "en", "original_title": "The Underworld Story", "genre_ids": [80, 18], "backdrop_path": "/7kZDBZ0ZoALQWsYLrbjuHfYZztY.jpg", "adult": false, "overview": "A blacklisted reporter brings his shady ways to a small-town newspaper after being fired from a big city daily.", "poster_path": "/tUXn13sPLlZA0Pi4FJ0MHTQLM9c.jpg", "popularity": 5.1}, {"adult": false, "backdrop_path": "/cM0kOJVF5hSNsBlRW5ZrXeQ9bu0.jpg", "genre_ids": [18], "id": 44042, "original_language": "en", "original_title": "Shadow of a Woman", "overview": "Brooke's marital life with Eric takes a downturn when she starts suspecting that her husband, Eric, is starving his son from a prior marriage to death in order to claim his inheritance.", "poster_path": "/fGa5OtReCIhYurYb7r5cqMBRwwY.jpg", "release_date": "1946-09-14", "title": "Shadow of a Woman", "video": false, "vote_average": 4.6, "vote_count": 6, "popularity": 3.34}, {"adult": false, "backdrop_path": "/vCMl4A8yIiCyTnfsIQ5353MAXFC.jpg", "genre_ids": [18, 9648, 53], "id": 48286, "original_language": "en", "original_title": "The Lady Confesses", "overview": "An estranged wife shows up after a nearly 7 years of disappearance -- thought to be dead, to prevent her husband from marrying his new love until someone kills her.", "poster_path": "/7I5MH8CWduEyaL5Ln6MxGGL9v8g.jpg", "release_date": "1945-05-16", "title": "The Lady Confesses", "video": false, "vote_average": 4.5, "vote_count": 9, "popularity": 2.64}, {"adult": false, "backdrop_path": "/7yVBJXqD5p68G5GPzMK9Sl7FHhJ.jpg", "genre_ids": [80, 18], "id": 29236, "original_language": "en", "original_title": "The Arnelo Affair", "overview": "A neglected wife gets mixed up with an hypnotic charmer and murder.", "poster_path": "/sU77FKKZpi4SiQvKsr3uiXWjS4C.jpg", "release_date": "1947-02-13", "title": "The Arnelo Affair", "video": false, "vote_average": 5.9, "vote_count": 7, "popularity": 2.182}, {"adult": false, "backdrop_path": "/SSFRdpPZ8uvX0uQ1SBGlulis2I.jpg", "genre_ids": [80], "id": 35547, "original_language": "en", "original_title": "Gunman in the Streets", "overview": "An American is on the run in the streets and back alleys of France.", "poster_path": "/vzesUoVObs1OShIqsfbmMxcaaSv.jpg", "release_date": "1950-12-13", "title": "Gunman in the Streets", "video": false, "vote_average": 6.6, "vote_count": 6, "popularity": 2.014}, {"adult": false, "backdrop_path": null, "genre_ids": [12], "id": 284765, "original_language": "en", "original_title": "Sea Fury", "overview": "The captain of a tugboat harboured off a Spanish village is lured into a romantic involvement with a young girl at the behest of her father, in the hope of getting his hands on the vessel. Meanwhile, a handsome English sailor, signs on to the boat and before long he and the girl fall for one another. Meanwhile a sinking freighter carrying explosive cargo has to be salvaged....", "poster_path": "/lqL5xk5WRcuY4A6i8sgnNFmg7Ky.jpg", "release_date": "1958-08-26", "title": "Sea Fury", "video": false, "vote_average": 6.3, "vote_count": 4, "popularity": 1.821}, {"adult": false, "backdrop_path": "/6xA0TudVjVDe7GxC8v2RyoiZ8nL.jpg", "genre_ids": [18, 28, 37], "id": 62084, "original_language": "en", "original_title": "The Capture", "overview": "A badly injured fugitive explains to a priest how he came to be in his present predicament.", "poster_path": "/1kpvCHgagi7KjvovyUVGF80XakK.jpg", "release_date": "1950-04-08", "title": "The Capture", "video": false, "vote_average": 5.5, "vote_count": 8, "popularity": 2.396}, {"id": 26169, "video": false, "vote_count": 11, "vote_average": 5.8, "title": "When Strangers Marry", "release_date": "1944-08-21", "original_language": "en", "original_title": "When Strangers Marry", "genre_ids": [18, 9648], "backdrop_path": "/vOlDoPiBjzVM4AHjhUMHFACUeHn.jpg", "adult": false, "overview": "A naive small-town girl comes to New York City to meet her husband, and discovers that he may be a murderer.", "poster_path": "/c2X80QdGRyqxwTTCQNXBNGwRZJC.jpg", "popularity": 5.136}, {"adult": false, "backdrop_path": "/aYtTzAdRAzkTfuO4c1lMYsV6p2K.jpg", "genre_ids": [80, 18], "id": 33437, "original_language": "en", "original_title": "Pickup", "overview": "Low-budget, tabloid-lurid story with high camp value of older man falling for much younger beauty who's busy figuring out how she can kill him now that they're married. Nasty verbal encounters and above all, Beverly Michaels, spike up this flick.", "poster_path": "/4SKCvilcxzT0LZkW3c0W848lUP5.jpg", "release_date": "1951-07-21", "title": "Pickup", "video": false, "vote_average": 5.8, "vote_count": 7, "popularity": 3.413}, {"adult": false, "backdrop_path": "/zewTeHl5XbkjJggg7BZUsx9EzAN.jpg", "genre_ids": [80], "id": 49508, "original_language": "en", "original_title": "I Was a Communist for the FBI", "overview": "A fact-based story about a man who posed as an American Communist for years as part of a secret plan to infiltrate their organization.", "poster_path": "/8sm75ZftZceUJBL4pCOYVsgGsGt.jpg", "release_date": "1951-05-05", "title": "I Was a Communist for the FBI", "video": false, "vote_average": 4.7, "vote_count": 5, "popularity": 2.639}, {"adult": false, "backdrop_path": "/cDYRSzlvlFERWTIqv39FHlmABYa.jpg", "genre_ids": [80, 18], "id": 43608, "original_language": "en", "original_title": "The Night Holds Terror", "overview": "A group of escaped convicts holds a household prisoner as the police close in.", "poster_path": "/6sIK8wFzkFyrQWOYJMY1LikTr84.jpg", "release_date": "1955-07-13", "title": "The Night Holds Terror", "video": false, "vote_average": 4.9, "vote_count": 6, "popularity": 2.216}, {"adult": false, "backdrop_path": "/vWa2HeXvnlZrKdgHSZ6XoKEBytp.jpg", "genre_ids": [10752, 18], "id": 96255, "original_language": "en", "original_title": "Three Came Home", "overview": "During Word War II, American author Agnes Newton Keith is imprisoned by the Japanese in various POW camps in North Borneo and Sarawak.", "poster_path": "/yLeLbBa1JRIwhL2Iz3nBQRxP3IS.jpg", "release_date": "1950-02-20", "title": "Three Came Home", "video": false, "vote_average": 7.4, "vote_count": 8, "popularity": 3.916}, {"adult": false, "backdrop_path": "/5PLIcmP84AMCWlJgczRPZ7gUBs8.jpg", "genre_ids": [80, 18], "id": 36634, "original_language": "en", "original_title": "The People Against O'Hara", "overview": "A defense attorney jeopardizes his career to save his client.", "poster_path": "/ljjHON28dyyV3BTQP7FMdwfumW7.jpg", "release_date": "1951-09-01", "title": "The People Against O'Hara", "video": false, "vote_average": 5.3, "vote_count": 8, "popularity": 5.016}, {"adult": false, "backdrop_path": "/3xEY4gjguohrK9A6caCcTxGHOyK.jpg", "genre_ids": [53], "id": 65211, "original_language": "en", "original_title": "Flaxy Martin", "overview": "Messing with a mobster's girlfriend gets a lawyer framed for murder.", "poster_path": "/4iXCNvcTfXsuh6ZCMxRG2jVUDMp.jpg", "release_date": "1949-02-15", "title": "Flaxy Martin", "video": false, "vote_average": 4.9, "vote_count": 5, "popularity": 2.091}, {"adult": false, "backdrop_path": "/ljJ1fdxOhLT8XyHxtX1j1jG5ic3.jpg", "genre_ids": [18], "id": 65213, "original_language": "en", "original_title": "Smart Girls Don't Talk", "overview": "A society woman gets involved with a gangster only to find he has hidden plans.", "poster_path": "/7BDNXnMAJPyegBZ6QBhe14pybAx.jpg", "release_date": "1948-10-09", "title": "Smart Girls Don't Talk", "video": false, "vote_average": 5.3, "vote_count": 6, "popularity": 3.49}, {"id": 59822, "video": false, "vote_count": 4, "vote_average": 6.3, "title": "The Big Wheel", "release_date": "1949-11-04", "original_language": "en", "original_title": "The Big Wheel", "genre_ids": [28, 18, 10749], "backdrop_path": "/ihKlAsFhGBvBvEQLSesDjadoju7.jpg", "adult": false, "overview": "The ambitious son of an accomplished race driver struggles to outrun his father's legacy and achieve his own successes.", "poster_path": "/fgY298kceQgmVOPoxYYXPiWBHxy.jpg", "popularity": 3.647}, {"adult": false, "backdrop_path": "/cKogWxb1mpfFy5UJaSDpnZWPQiz.jpg", "genre_ids": [80], "id": 33224, "original_language": "en", "original_title": "Black Tuesday", "overview": "Vicious gangster Vincent Canelli pulls off a daring prison escape just moments before going to the electric chair, taking with him Peter Manning \u2013 a bank robber and cop killer who was to die right after him. Taking several hostages along, they try to get their hands on the loot from Manning\u2019s robbery to finance their escape from the country.", "poster_path": "/vk3tc148InjJgufyb7qIvYrSv6A.jpg", "release_date": "1954-12-31", "title": "Black Tuesday", "video": false, "vote_average": 5.6, "vote_count": 9, "popularity": 3.919}, {"adult": false, "backdrop_path": "/wTmS4vYcOtqABWVjPtTisgR4cZo.jpg", "genre_ids": [80, 18, 9648, 53], "id": 29260, "original_language": "en", "original_title": "Trapped", "overview": "U.S. Treasury Department agents go after a ring of counterfeiters.", "poster_path": "/kcJcjDS7nDHBbGIvePELD8P5fPF.jpg", "release_date": "1949-10-01", "title": "Trapped", "video": false, "vote_average": 4.8, "vote_count": 10, "popularity": 3.912}], "total_pages": 2, "total_results": 40}, "credits": {"cast": [{"cast_id": 3, "character": "Michael 'Mickey' Waters", "credit_id": "52fe4466c3a368484e020dc1", "gender": 2, "id": 14847, "name": "Scott Brady", "order": 0, "profile_path": "/2JlQcMIbISvcQjtO4iIB1yZSqwW.jpg"}, {"cast_id": 4, "character": "Jim Flannery", "credit_id": "52fe4466c3a368484e020dc5", "gender": 2, "id": 89982, "name": "Richard Rober", "order": 1, "profile_path": "/sr0ub4oSa4EQYrcH7psPCiDzhpd.jpg"}, {"cast_id": 5, "character": "Toni Cardell", "credit_id": "52fe4466c3a368484e020dc9", "gender": 1, "id": 89983, "name": "K. T. Stevens", "order": 2, "profile_path": "/fV0QHUYSbHIsIML5j6H2PA0SwOR.jpg"}, {"cast_id": 6, "character": "Paul Vicola", "credit_id": "52fe4466c3a368484e020dcd", "gender": 2, "id": 14528, "name": "Yul Brynner", "order": 3, "profile_path": "/bRA6b94H7Aak8PESLbtJ5LzHATU.jpg"}, {"cast_id": 7, "character": "Lili Long", "credit_id": "52fe4466c3a368484e020dd1", "gender": 0, "id": 102602, "name": "Lynne Carter", "order": 4, "profile_path": null}, {"cast_id": 8, "character": "Dolly Carney", "credit_id": "52fe4466c3a368484e020dd5", "gender": 0, "id": 38252, "name": "Arthur Blake", "order": 5, "profile_path": null}, {"cast_id": 9, "character": "Leo Stasser", "credit_id": "52fe4466c3a368484e020dd9", "gender": 2, "id": 115086, "name": "William Challee", "order": 6, "profile_path": "/EGjPAqwx4qqfK8R6yyr5nLbNU7.jpg"}, {"cast_id": 10, "character": "Lenny", "credit_id": "52fe4466c3a368484e020ddd", "gender": 2, "id": 78305, "name": "John Kellogg", "order": 7, "profile_path": "/h1BAZssNIdeKnNGpltnDU312UAd.jpg"}, {"cast_id": 11, "character": "Thug", "credit_id": "52fe4466c3a368484e020de1", "gender": 2, "id": 9112, "name": "Neville Brand", "order": 8, "profile_path": "/pjdg8caE6wBStYDjMyMHD7bf2Gx.jpg"}], "crew": [{"credit_id": "583f6fe89251417f7d000eb6", "department": "Sound", "gender": 2, "id": 30922, "job": "Original Music Composer", "name": "Sol Kaplan", "profile_path": null}, {"credit_id": "52fe4466c3a368484e020dbd", "department": "Production", "gender": 2, "id": 30968, "job": "Producer", "name": "Aubrey Schenck", "profile_path": null}, {"credit_id": "5573a1979251413fde000431", "department": "Writing", "gender": 2, "id": 67687, "job": "Story", "name": "Arthur A. Ross", "profile_path": null}, {"credit_id": "52fe4466c3a368484e020db7", "department": "Directing", "gender": 2, "id": 89981, "job": "Director", "name": "L\u00e1szl\u00f3 Benedek", "profile_path": null}, {"credit_id": "5573a189c3a36823b900040d", "department": "Writing", "gender": 0, "id": 94510, "job": "Screenplay", "name": "Eugene Ling", "profile_path": null}, {"credit_id": "5573a1b59251413dda000420", "department": "Camera", "gender": 2, "id": 108274, "job": "Director of Photography", "name": "George E. Diskant", "profile_path": null}, {"credit_id": "5573a1c69251413dda000425", "department": "Art", "gender": 0, "id": 1124118, "job": "Art Direction", "name": "Edward L. Ilou", "profile_path": null}, {"credit_id": "5573a1a49251413fd20003c2", "department": "Writing", "gender": 0, "id": 1474804, "job": "Story", "name": "Bert Murray", "profile_path": null}]}}