{"adult": false, "backdrop_path": null, "belongs_to_collection": null, "budget": 0, "genres": [{"id": 18, "name": "Drama"}], "homepage": null, "id": 233547, "imdb_id": "tt0118405", "original_language": "en", "original_title": "The Moth", "overview": "This 1940s drama presents a story of class conflict and its influence on romance. Robert Bradley leaves the shipyards to work in his uncle's furniture business but soon finds himself at odds with the old man. So he becomes a servant for the destructive Thormans, and falls for the lady of the house, Sarah. But in 1913 this upstairs/downstairs romance can only lead to disaster.", "popularity": 1.289, "poster_path": "/krg8z01dPjzJndyXXYQcAWAZ9ve.jpg", "production_companies": [{"id": 7170, "logo_path": null, "name": "Festival Films", "origin_country": ""}], "production_countries": [{"iso_3166_1": "GB", "name": "United Kingdom"}], "release_date": "1997-01-01", "revenue": 0, "runtime": 152, "spoken_languages": [], "status": "Released", "tagline": "", "title": "The Moth", "video": false, "vote_average": 6.0, "vote_count": 1, "keywords": {"keywords": [{"id": 818, "name": "based on novel or book"}, {"id": 2504, "name": "world war i"}, {"id": 3725, "name": "pregnancy"}, {"id": 4954, "name": "paternity"}, {"id": 186804, "name": "shipyard"}, {"id": 222074, "name": "british class system"}, {"id": 223786, "name": "northumbria"}]}, "similar": {"page": 1, "results": [{"adult": false, "backdrop_path": "/kiWvoV78Cc3fUwkOHKzyBgVdrDD.jpg", "genre_ids": [37, 18, 12], "id": 281957, "original_language": "en", "original_title": "The Revenant", "overview": "In the 1820s, a frontiersman, Hugh Glass, sets out on a path of vengeance against those who left him for dead after a bear mauling.", "poster_path": "/oXUWEc5i3wYyFnL1Ycu8ppxxPvs.jpg", "release_date": "2015-12-25", "title": "The Revenant", "video": false, "vote_average": 7.5, "vote_count": 12127, "popularity": 24.135}, {"adult": false, "backdrop_path": "/vSDl3hqsxxNaj0tE5ZLsTQeL0dS.jpg", "genre_ids": [18, 10752], "id": 975, "original_language": "en", "original_title": "Paths of Glory", "overview": "A commanding officer defends three scapegoats on trial for a failed offensive that occurred within the French Army in 1916.", "poster_path": "/6lMXjI1O1N7XyZEjqIo5wkbrgxg.jpg", "release_date": "1957-09-18", "title": "Paths of Glory", "video": false, "vote_average": 8.3, "vote_count": 1350, "popularity": 16.678}, {"adult": false, "backdrop_path": "/msOjpu9wigi6n1Xa51MeLcBue88.jpg", "genre_ids": [18, 36, 10752, 10749], "id": 468224, "original_language": "en", "original_title": "Tolkien", "overview": "England, early 20th century. The future writer and philologist John Ronald Reuel Tolkien (1892-1973) and three of his schoolmates create a strong bond between them as they share the same passion for literature and art, a true fellowship that strengthens as they grow up, but the outbreak of World War I threatens to shatter it.", "poster_path": "/A7eYO3t7oZQdfJj5KlJBI7GhT9H.jpg", "release_date": "2019-05-03", "title": "Tolkien", "video": false, "vote_average": 6.8, "vote_count": 453, "popularity": 15.582}, {"id": 374720, "video": false, "vote_count": 10120, "vote_average": 7.4, "title": "Dunkirk", "release_date": "2017-07-19", "original_language": "en", "original_title": "Dunkirk", "genre_ids": [28, 18, 10752], "backdrop_path": "/fudEG1VUWuOqleXv6NwCExK0VLy.jpg", "adult": false, "overview": "The story of the miraculous evacuation of Allied soldiers from Belgium, Britain, Canada and France, who were cut off and surrounded by the German army from the beaches and harbour of Dunkirk between May 26th and June 4th 1940 during World War II.", "poster_path": "/bOXBV303Fgkzn2K4FeKDc0O31q4.jpg", "popularity": 28.538}, {"adult": false, "backdrop_path": "/sw7mordbZxgITU877yTpZCud90M.jpg", "genre_ids": [18, 80], "id": 769, "original_language": "en", "original_title": "GoodFellas", "overview": "The true story of Henry Hill, a half-Irish, half-Sicilian Brooklyn kid who is adopted by neighbourhood gangsters at an early age and climbs the ranks of a Mafia family under the guidance of Jimmy Conway.", "poster_path": "/pwpGfTImTGifEGgLb3s6LRPd4I6.jpg", "release_date": "1990-09-12", "title": "GoodFellas", "video": false, "vote_average": 8.4, "vote_count": 6559, "popularity": 36.135}, {"id": 500919, "video": false, "vote_count": 203, "vote_average": 5.1, "title": "211", "release_date": "2018-06-01", "original_language": "en", "original_title": "211", "genre_ids": [28, 80, 18], "backdrop_path": "/7eTWQb475pM9H3NEOiUzGYASEx0.jpg", "adult": false, "overview": "Inspired by one of the longest and bloodiest real-life events in police history, Officer Mike Chandler and a young civilian passenger find themselves under-prepared and outgunned when fate puts them squarely in the crosshairs of a daring bank heist in progress by a fearless team of highly-trained and heavily-armed men.", "poster_path": "/81RColr4rau6DZ7z9eMsksokcfk.jpg", "popularity": 10.755}, {"adult": false, "backdrop_path": "/fewP7EsMEnfqqcx4qYHKSKebwkF.jpg", "genre_ids": [28, 18, 36], "id": 2669, "original_language": "en", "original_title": "The Bounty", "overview": "The familiar story of Lieutenant Bligh, whose cruelty leads to a mutiny on his ship. This version follows both the efforts of Fletcher Christian to get his men beyond the reach of British retribution, and the epic voyage of Lieutenant Bligh to get his loyalists safely to East Timor in a tiny lifeboat.", "poster_path": "/hXFXIc6F4NXI5emWCKcUwqEPjIZ.jpg", "release_date": "1984-05-04", "title": "The Bounty", "video": false, "vote_average": 6.7, "vote_count": 246, "popularity": 10.539}, {"adult": false, "backdrop_path": "/jArl1j9sL2mYjRW23EaZKWAr2E8.jpg", "genre_ids": [18, 36], "id": 399121, "original_language": "fr", "original_title": "J\u2019accuse", "overview": "In 1894, French Captain Alfred Dreyfus is wrongfully convicted of treason and sentenced to life imprisonment at Devil's Island.", "poster_path": "/xMCJhioKlEBoWAJM9aCBKR8J3BT.jpg", "release_date": "2019-09-30", "title": "An Officer and a Spy", "video": false, "vote_average": 7.4, "vote_count": 278, "popularity": 12.331}, {"id": 11661, "video": false, "vote_count": 488, "vote_average": 7.4, "title": "Joyeux Noel", "release_date": "2005-11-09", "original_language": "fr", "original_title": "Joyeux No\u00ebl", "genre_ids": [18, 36, 10402, 10749, 10752], "backdrop_path": "/tcrrE9vjnenDxOZrbCcY4V7LdVw.jpg", "adult": false, "overview": "France, 1914, during World War I. On Christmas Eve, an extraordinary event takes place in the bloody no man's land that the French and the Scots dispute with the Germans\u2026", "poster_path": "/9Ka8lKCIiWjnZiMslPQeakS5UhW.jpg", "popularity": 17.122}, {"adult": false, "backdrop_path": "/sRJjliXA7ZqHCr7HCK0ZB83xxjr.jpg", "genre_ids": [12, 28, 878], "id": 101299, "original_language": "en", "original_title": "The Hunger Games: Catching Fire", "overview": "Katniss Everdeen has returned home safe after winning the 74th Annual Hunger Games along with fellow tribute Peeta Mellark. Winning means that they must turn around and leave their family and close friends, embarking on a \"Victor's Tour\" of the districts. Along the way Katniss senses that a rebellion is simmering, but the Capitol is still very much in control as President Snow prepares the 75th Annual Hunger Games (The Quarter Quell) - a competition that could change Panem forever.", "poster_path": "/Hn0KgefVEp0GkdTexS6gfKTMfi.jpg", "release_date": "2013-11-15", "title": "The Hunger Games: Catching Fire", "video": false, "vote_average": 7.4, "vote_count": 12031, "popularity": 22.164}, {"adult": false, "backdrop_path": "/bvbyidkMaBls1LTaIWYY6UmYTaL.jpg", "genre_ids": [28, 878], "id": 336843, "original_language": "en", "original_title": "Maze Runner: The Death Cure", "overview": "Thomas leads his group of escaped Gladers on their final and most dangerous mission yet. To save their friends, they must break into the legendary Last City, a WCKD-controlled labyrinth that may turn out to be the deadliest maze of all. Anyone who makes it out alive will get answers to the questions the Gladers have been asking since they first arrived in the maze.", "poster_path": "/2zYfzA3TBwrMC8tfFbpiTLODde0.jpg", "release_date": "2018-01-10", "title": "Maze Runner: The Death Cure", "video": false, "vote_average": 7.0, "vote_count": 4396, "popularity": 25.259}, {"adult": false, "backdrop_path": "/dLAPTvBwEdP4h7a14isNc0HwmOj.jpg", "genre_ids": [18, 10749], "id": 250734, "original_language": "en", "original_title": "Far from the Madding Crowd", "overview": "Based on the literary classic by Thomas Hardy. Bathsheba Everdene, attracts three very different suitors: Gabriel Oak, a sheep farmer, captivated by her fetching willfulness; Frank Troy, a handsome and reckless Sergeant; and William Boldwood, a prosperous and mature bachelor. This timeless story of Bathsheba's choices and passions explores the nature of relationships and love \u2013 as well as the human ability to overcome hardships through resilience and perseverance.", "poster_path": "/6v1DEaO2TZzrqcaGohUf1K7BXkU.jpg", "release_date": "2015-04-23", "title": "Far from the Madding Crowd", "video": false, "vote_average": 7.0, "vote_count": 643, "popularity": 13.429}, {"id": 205775, "video": false, "vote_count": 2362, "vote_average": 6.6, "title": "In the Heart of the Sea", "release_date": "2015-11-20", "original_language": "en", "original_title": "In the Heart of the Sea", "genre_ids": [28, 12, 18, 36, 53], "backdrop_path": "/aZoZ0NglXgiBMToem9HhTAYYamw.jpg", "adult": false, "overview": "In the winter of 1820, the New England whaling ship Essex is assaulted by something no one could believe\u2014a whale of mammoth size and will, and an almost human sense of vengeance.", "poster_path": "/zVmWh0Zfg4UhbvdGI8LQrn1lQZJ.jpg", "popularity": 18.435}, {"id": 75780, "video": false, "vote_count": 4451, "vote_average": 6.4, "title": "Jack Reacher", "release_date": "2012-12-20", "original_language": "en", "original_title": "Jack Reacher", "genre_ids": [28, 80, 18, 53], "backdrop_path": "/ezXodpP429qK0Av89pVNlaXWJkQ.jpg", "adult": false, "overview": "When a gunman takes five lives with six shots, all evidence points to the suspect in custody. On interrogation, the suspect offers up a single note: \"Get Jack Reacher!\" So begins an extraordinary chase for the truth, pitting Jack Reacher against an unexpected enemy, with a skill for violence and a secret to keep.", "poster_path": "/mt0ELw83HIRgaKaDzhsDcIi0RnW.jpg", "popularity": 15.945}, {"id": 457799, "video": false, "vote_count": 1572, "vote_average": 7.0, "title": "Extremely Wicked, Shockingly Evil and Vile", "release_date": "2019-05-02", "original_language": "en", "original_title": "Extremely Wicked, Shockingly Evil and Vile", "genre_ids": [80, 18, 53], "backdrop_path": "/uRoA67sM5vvCI4cplxhl67BTPly.jpg", "adult": false, "overview": "A chronicle of the crimes of Ted Bundy, from the perspective of his longtime girlfriend, Elizabeth Kloepfer, who refused to believe the truth about him for years.", "poster_path": "/zSuJ3r5zr5T26tTxyygHhgkUAIM.jpg", "popularity": 22.062}, {"id": 169917, "video": false, "vote_count": 1812, "vote_average": 6.3, "title": "A Walk Among the Tombstones", "release_date": "2014-09-18", "original_language": "en", "original_title": "A Walk Among the Tombstones", "genre_ids": [80, 18, 9648, 53], "backdrop_path": "/e56QsaJy1weAUukiK2ZmIGVUALF.jpg", "adult": false, "overview": "Private investigator Matthew Scudder is hired by a drug kingpin to find out who kidnapped and murdered his wife.", "poster_path": "/xxe77USOk2tPnq7G4cL42gf1OxQ.jpg", "popularity": 19.65}, {"id": 123553, "video": false, "vote_count": 3198, "vote_average": 6.3, "title": "The Mortal Instruments: City of Bones", "release_date": "2013-08-21", "original_language": "en", "original_title": "The Mortal Instruments: City of Bones", "genre_ids": [28, 12, 18, 14, 9648, 10749], "backdrop_path": "/xIisiN3GxiOMpYQOYarzWlgpDNT.jpg", "adult": false, "overview": "In New York City, Clary Fray, a seemingly ordinary teenager, learns that she is descended from a line of Shadowhunters \u2014 half-angel warriors who protect humanity from evil forces. After her mother disappears, Clary joins forces with a group of Shadowhunters and enters Downworld, an alternate realm filled with demons, vampires, and a host of other creatures. Clary and her companions must find and protect an ancient cup that holds the key to her mother's future.", "poster_path": "/xOBuyMuqc5lDNfxz6ipFjrxd38X.jpg", "popularity": 20.181}, {"id": 4964, "video": false, "vote_count": 2405, "vote_average": 6.2, "title": "Knocked Up", "release_date": "2007-06-01", "original_language": "en", "original_title": "Knocked Up", "genre_ids": [35, 18, 10749], "backdrop_path": "/cmEojt7Ykuk6p2argyu0hEDoo0d.jpg", "adult": false, "overview": "For fun loving party animal Ben Stone, the last thing he ever expected was for his one night stand to show up on his doorstep eight weeks later to tell him she's pregnant.", "poster_path": "/b4OaXw2MW97VvIiZE0Sbn1NfxSh.jpg", "popularity": 19.715}, {"id": 84892, "video": false, "vote_count": 6553, "vote_average": 7.7, "title": "The Perks of Being a Wallflower", "release_date": "2012-09-20", "original_language": "en", "original_title": "The Perks of Being a Wallflower", "genre_ids": [18], "backdrop_path": "/uhLcaTPeBpUNgYhZXhDWkj7gMkp.jpg", "adult": false, "overview": "15-year-old freshman Charlie is a wallflower, always watching life from the sidelines, until two charismatic senior students become his mentors. Free-spirited Sam and her stepbrother Patrick help Charlie discover the joys of friendship, first love, music and more, while a teacher sparks Charlie's dreams of becoming a writer.", "poster_path": "/cyNQLnHnXZcTUDXVVSEYmquOTOI.jpg", "popularity": 19.486}, {"adult": false, "backdrop_path": "/nEdBHjvRkKwEPD1Ps5A3rRiiLVN.jpg", "genre_ids": [14, 18, 10749], "id": 8966, "original_language": "en", "original_title": "Twilight", "overview": "When Bella Swan moves to a small town in the Pacific Northwest to live with her father, she meets the reclusive Edward Cullen, a mysterious classmate who reveals himself to be a 108-year-old vampire. Despite Edward's repeated cautions, Bella can't help but fall in love with him, a fatal move that endangers her own life when a coven of bloodsuckers try to challenge the Cullen clan.", "poster_path": "/lcMp3AONdNhjYE9MmTtMMTOiRDP.jpg", "release_date": "2008-11-20", "title": "Twilight", "video": false, "vote_average": 6.0, "vote_count": 8149, "popularity": 30.9}], "total_pages": 35, "total_results": 691}, "recommendations": {"page": 1, "results": [], "total_pages": 1, "total_results": 0}, "credits": {"cast": [{"cast_id": 2, "character": "Sarah Thorman", "credit_id": "52fe4e1ec3a36847f827ed43", "gender": 1, "id": 18066, "name": "Juliet Aubrey", "order": 0, "profile_path": "/9u4syZHts5WLugbZI6coxNGIOD1.jpg"}, {"cast_id": 6, "character": "Stanley Thorman", "credit_id": "5697b46b92514154cf00269a", "gender": 2, "id": 42276, "name": "Rupert Penry-Jones", "order": 1, "profile_path": "/8WoMM6UnqbZuSV46uCDBqJK3Hd7.jpg"}, {"cast_id": 3, "character": "Robert Bradley", "credit_id": "52fe4e1ec3a36847f827ed47", "gender": 2, "id": 1709, "name": "Jack Davenport", "order": 2, "profile_path": "/qxM6XdLmZ6pKkQV7uVwgu7MLcfV.jpg"}, {"cast_id": 5, "character": "Dave Waters", "credit_id": "5697b45092514154d500267b", "gender": 2, "id": 11180, "name": "David Bradley", "order": 3, "profile_path": "/5BPFRv4io7U1zxkYHtKaE9a8FDD.jpg"}, {"cast_id": 8, "character": "Kate Thorman", "credit_id": "56f1ff5e9251412feb0000e4", "gender": 0, "id": 37892, "name": "Judy Loe", "order": 4, "profile_path": "/vIkPdsxBGLS6qf7FOp7x52ylDIW.jpg"}, {"cast_id": 9, "character": "John Bradley", "credit_id": "56f1ff72c3a36856f80000eb", "gender": 0, "id": 186019, "name": "David Howey", "order": 5, "profile_path": null}, {"cast_id": 10, "character": "Alice Bradley", "credit_id": "56f1ff809251412fe90000f7", "gender": 1, "id": 99180, "name": "Janet Dale", "order": 6, "profile_path": null}, {"cast_id": 11, "character": "Nancy Parkin", "credit_id": "56f1ff96c3a36856f3000118", "gender": 1, "id": 938822, "name": "Angela Lonsdale", "order": 7, "profile_path": null}, {"cast_id": 12, "character": "Billy Taggart", "credit_id": "56f1ffa79251412ff2000117", "gender": 2, "id": 79489, "name": "Leslie Schofield", "order": 8, "profile_path": "/r1WQsrbi1XkbfpORgrWTDNGQCKD.jpg"}, {"cast_id": 13, "character": "Millie Thorman", "credit_id": "56f1ffbb9251412ff200011d", "gender": 1, "id": 42705, "name": "Justine Waddell", "order": 9, "profile_path": "/gVPTeUJW1Doq19LTPZfsfNqC06N.jpg"}, {"cast_id": 14, "character": "Maggie", "credit_id": "56f1ffd29251412fef0000fc", "gender": 0, "id": 125663, "name": "Aedin Moloney", "order": 10, "profile_path": null}], "crew": [{"credit_id": "545a7d23c3a368260600083d", "department": "Directing", "gender": 2, "id": 139027, "job": "Director", "name": "Roy Battersby", "profile_path": "/sB3F4oMaZkkeYeno3xkQmggaYAG.jpg"}, {"credit_id": "56f1fd5d9251412feb000069", "department": "Writing", "gender": 1, "id": 239585, "job": "Writer", "name": "Catherine Cookson", "profile_path": null}]}}