{"adult": false, "backdrop_path": "/5gLBAZeKzNhenTBMvvbjPfRy2Lh.jpg", "belongs_to_collection": null, "budget": 0, "genres": [{"id": 35, "name": "Comedy"}], "homepage": null, "id": 2348, "imdb_id": "tt0110044", "original_language": "en", "original_title": "Holy Matrimony", "overview": "A young Hutterite boy must marry his late brother's wife who comes from outside the community.", "popularity": 6.533, "poster_path": "/pf0uJbtooTeWbWZIZm2F70VefvS.jpg", "production_companies": [{"id": 1087, "logo_path": null, "name": "Aurora Productions", "origin_country": ""}, {"id": 915, "logo_path": "/4neXXpjSJDZPBGBnfWtqysB5htV.png", "name": "Hollywood Pictures", "origin_country": "US"}, {"id": 10201, "logo_path": null, "name": "Interscope Communications", "origin_country": ""}, {"id": 1382, "logo_path": "/sOg7LGESPH5vCTOIdbMhLuypoLL.png", "name": "PolyGram Filmed Entertainment", "origin_country": "US"}], "production_countries": [{"iso_3166_1": "US", "name": "United States of America"}], "release_date": "1994-04-08", "revenue": 616938, "runtime": 93, "spoken_languages": [{"iso_639_1": "en", "name": "English"}], "status": "Released", "tagline": "The hilariously sexy comedy!", "title": "Holy Matrimony", "video": false, "vote_average": 5.3, "vote_count": 23, "keywords": {"keywords": [{"id": 642, "name": "robbery"}, {"id": 965, "name": "age difference"}, {"id": 1329, "name": "canada"}, {"id": 5083, "name": "hysteria"}, {"id": 6328, "name": "crook couple"}, {"id": 6576, "name": "hutterer"}, {"id": 13027, "name": "wedding"}, {"id": 155582, "name": "amusement park"}]}, "similar": {"page": 1, "results": [{"adult": false, "backdrop_path": "/f7pTesNnPjOVAq7QqhgnSHaK9Cc.jpg", "genre_ids": [35, 10749], "id": 10521, "original_language": "en", "original_title": "Bride Wars", "overview": "Two best friends become rivals when their respective weddings are accidentally booked for the same day.", "poster_path": "/y5O46J9i98MkcExaPIeZaRImF4C.jpg", "release_date": "2009-01-09", "title": "Bride Wars", "video": false, "vote_average": 6.1, "vote_count": 1900, "popularity": 18.827}, {"adult": false, "backdrop_path": "/wyvHy4ElaiNamrpS6fjquYQqxhQ.jpg", "genre_ids": [35, 18, 10749], "id": 712, "original_language": "en", "original_title": "Four Weddings and a Funeral", "overview": "Over the course of five social occasions, a committed bachelor must consider the notion that he may have discovered love.", "poster_path": "/md9kMKnLG8LG4pMDM98gy5x4K5L.jpg", "release_date": "1994-03-09", "title": "Four Weddings and a Funeral", "video": false, "vote_average": 6.7, "vote_count": 1456, "popularity": 16.541}, {"adult": false, "backdrop_path": "/gRY30dvyLhydkblpE0v3NiXt0Nj.jpg", "genre_ids": [35, 10749], "id": 6557, "original_language": "en", "original_title": "27 Dresses", "overview": "Altruistic Jane finds herself facing her worst nightmare as her younger sister announces her engagement to the man Jane secretly adores.", "poster_path": "/zzJtHNzi1D4CPwRlPHV1TRQNXD2.jpg", "release_date": "2008-01-10", "title": "27 Dresses", "video": false, "vote_average": 6.3, "vote_count": 2136, "popularity": 10.851}, {"id": 24, "video": false, "vote_count": 10671, "vote_average": 7.9, "title": "Kill Bill: Vol. 1", "release_date": "2003-10-10", "original_language": "en", "original_title": "Kill Bill: Vol. 1", "genre_ids": [28, 80], "backdrop_path": "/kkS8PKa8c134vXsj2fQkNqOaCXU.jpg", "adult": false, "overview": "An assassin is shot by her ruthless employer, Bill, and other members of their assassination circle \u2013 but she lives to plot her vengeance.", "poster_path": "/v7TaX8kXMXs5yFFGR41guUDNcnB.jpg", "popularity": 37.008}, {"adult": false, "backdrop_path": "/w6TR7kTsKmlBYps2i5hzoukBLCn.jpg", "genre_ids": [35, 14], "id": 10330, "original_language": "en", "original_title": "Freaky Friday", "overview": "Mother and daughter bicker over everything -- what Anna wears, whom she likes and what she wants to do when she's older. In turn, Anna detests Tess's fianc\u00e9. When a magical fortune cookie switches their personalities, they each get a peek at how the other person feels, thinks and lives.", "poster_path": "/fBtYKVgpGNoUsmRGy7rLjIQsmpf.jpg", "release_date": "2003-08-03", "title": "Freaky Friday", "video": false, "vote_average": 6.2, "vote_count": 2252, "popularity": 14.938}, {"adult": false, "backdrop_path": "/yNBcIGxAjvtsf4dQaVgyNy27qnp.jpg", "genre_ids": [35, 18, 37, 10402], "id": 16563, "original_language": "en", "original_title": "Seven Brides for Seven Brothers", "overview": "In 1850 Oregon, when a backwoodsman brings a wife home to his farm, his six brothers decide that they want to get married too.", "poster_path": "/42uIMPDWlJLexVGhj7zXYP1fchQ.jpg", "release_date": "1954-07-22", "title": "Seven Brides for Seven Brothers", "video": false, "vote_average": 7.3, "vote_count": 289, "popularity": 11.187}, {"adult": false, "backdrop_path": "/tkHlTVLylEIBpUypq0z3ZbtxUKc.jpg", "genre_ids": [35, 18, 10749], "id": 11931, "original_language": "en", "original_title": "In Her Shoes", "overview": "Irresponsible party girl, Maggie is kicked out of her father's and stepmother's home\u2014where she lives for free\u2014and is taken in by her hard-working sister, Philadelphia lawyer, Rose. After Maggie's disruptive ways ruin her sister's love life, Rose turns her out as well. But when their grandmother, who they never knew existed, comes into their lives, the sisters face some complicated truths about themselves and their family.", "poster_path": "/4jqnazZX2bh8UMUS8rl4nHWWtyb.jpg", "release_date": "2005-10-07", "title": "In Her Shoes", "video": false, "vote_average": 6.0, "vote_count": 785, "popularity": 12.653}, {"id": 223, "video": false, "vote_count": 761, "vote_average": 7.9, "title": "Rebecca", "release_date": "1940-03-23", "original_language": "en", "original_title": "Rebecca", "genre_ids": [18, 9648], "backdrop_path": "/ao0OWpQPMy3lagLwksWyciO6Iaj.jpg", "adult": false, "overview": "Story of a young woman who marries a fascinating widower only to find out that she must live in the shadow of his former wife, Rebecca, who died mysteriously several years earlier. The young wife must come to grips with the terrible secret of her handsome, cold husband, Max De Winter. She must also deal with the jealous, obsessed Mrs. Danvers, the housekeeper, who will not accept her as the mistress of the house.", "poster_path": "/3Gla0nxHboX3nxQzaU4SoqOtTjh.jpg", "popularity": 12.129}, {"id": 2959, "video": false, "vote_count": 567, "vote_average": 5.6, "title": "License to Wed", "release_date": "2007-07-04", "original_language": "en", "original_title": "License to Wed", "genre_ids": [35], "backdrop_path": "/tdWTbuP08jRS08XuNkBBCgKNR1B.jpg", "adult": false, "overview": "Newly engaged, Ben and Sadie can't wait to start their life together and live happily ever after. However Sadie's family church's Reverend Frank won't bless their union until they pass his patented, \"foolproof\" marriage prep course consisting of outrageous classes, outlandish homework assignments and some outright invasion of privacy.", "poster_path": "/9I8NiY5cfFmwgI8Y5NKQqsuDawS.jpg", "popularity": 11.138}, {"adult": false, "backdrop_path": "/m83O9TqAiZo3F2YgxMpuA5kxGZP.jpg", "genre_ids": [35, 10749], "id": 50124, "original_language": "it", "original_title": "Monella", "overview": "The story takes place in northern Italy in the 1950's. Lola and Masetto are about to get married. Masetto wants to keep Lola as a virgin until they are married. But Lola is impatient to remain in chastity until the wedding night. She wants to be sure that Masetto is a good lover, before she commits herself into marriage. She does everything to trick Masetto into breaking the moral tradition.", "poster_path": "/2mlv1R8MlhlGw4dZ0tXy0K6u7ew.jpg", "release_date": "1998-01-21", "title": "Frivolous Lola", "video": false, "vote_average": 4.3, "vote_count": 85, "popularity": 10.989}, {"id": 15590, "video": false, "vote_count": 156, "vote_average": 5.4, "title": "The Prince & Me 2: The Royal Wedding", "release_date": "2006-02-21", "original_language": "en", "original_title": "The Prince & Me 2: The Royal Wedding", "genre_ids": [35, 10749, 10751], "backdrop_path": "/20BWZYs7qEAzcv7p86RsDUYGZye.jpg", "adult": false, "overview": "With just weeks before their royal wedding, Paige and Edvard find their relationship and the Danish monarchy in jeopardy when an old law is brought to light, stating that an unmarried heir to the throne may marry only a woman of noble blood or else he must relinquish his crown.", "poster_path": "/bH3PvzD6PYXzHrldnv0H975TvJX.jpg", "popularity": 12.832}, {"id": 10030, "video": false, "vote_count": 829, "vote_average": 5.7, "title": "Good Luck Chuck", "release_date": "2007-09-21", "original_language": "en", "original_title": "Good Luck Chuck", "genre_ids": [35], "backdrop_path": "/79nRnl5Qbkwfz0Wdw8dVwF4wZEC.jpg", "adult": false, "overview": "Cursed since childhood, dentist Charlie Kagan cannot find the right woman. Even worse, he learns that each of his ex-girlfriends finds true love with the man she meets after her relationship with him ends. Hearing of Charlie's reputation as a good-luck charm, women from all over line up for a quick tryst. But when Charlie meets the woman of his dreams, he must find a way to break the curse or risk losing her to the next man she meets.", "poster_path": "/kmVYfdfjL9RqzAJHJziX7boVZrL.jpg", "popularity": 14.924}, {"id": 11363, "video": false, "vote_count": 121, "vote_average": 5.5, "title": "She's the One", "release_date": "1996-08-26", "original_language": "en", "original_title": "She's the One", "genre_ids": [35, 10749], "backdrop_path": "/n2o4yRQ4chOpgk2bHaxlrFakOxG.jpg", "adult": false, "overview": "Mickey, a free-spirited New York cabbie, and Francis, a materialistic Wall Street stockbroker, are extremely competitive and confused about women as a result of their father's influence. Though they disagree about everything, they have one thing in common: Mickey's ex-fiance Heather is Francis's secret love. Though both brothers have beautiful wives, Heather triggers their longtime sibling rivalry", "poster_path": "/qGOpJLWCncOt5EIz39N8q7O45X.jpg", "popularity": 9.469}, {"id": 82695, "video": false, "vote_count": 3596, "vote_average": 7.4, "title": "Les Mis\u00e9rables", "release_date": "2012-12-18", "original_language": "en", "original_title": "Les Mis\u00e9rables", "genre_ids": [18, 36], "backdrop_path": "/eamQcB7VLhCt7h5WZ3ldlXKf9Sm.jpg", "adult": false, "overview": "An adaptation of the successful stage musical based on Victor Hugo's classic novel set in 19th-century France, in which a paroled prisoner named Jean Valjean seeks redemption.", "poster_path": "/qEsrAHoxj746FRb7OLGYjrx1AI3.jpg", "popularity": 23.376}, {"adult": false, "backdrop_path": "/m7OyQ5NREEzEemOcLjhvLSShZQH.jpg", "genre_ids": [28, 37, 12], "id": 26444, "original_language": "en", "original_title": "Death Hunt", "overview": "Yukon Territory, Canada, November 1931. Albert Johnson, a trapper who lives alone in the mountains, buys a dog almost dead after a brutal dogfight, a good deed that will put him in trouble.", "poster_path": "/j9nVLvOv2Sz3KekD7elwGZII8F9.jpg", "release_date": "1981-04-15", "title": "Death Hunt", "video": false, "vote_average": 6.6, "vote_count": 62, "popularity": 10.01}, {"adult": false, "backdrop_path": "/riQgPiRckq62yGBp02oaFTPtOIg.jpg", "genre_ids": [18, 10749], "id": 6022, "original_language": "en", "original_title": "Evening", "overview": "As Constance (Natasha Richardson) and Nina (Toni Collette) gather at the deathbed of their mother, Ann (Vanessa Redgrave), they learn for the first time that their mother lived an entire other lifetime during one evening 50 years ago. In vivid flashbacks, the young Ann (Claire Daines) spends one night with a man named Harris (Patrick Wilson), who was the love of her life.", "poster_path": "/mcngdCHQ27DK9f3XXLngkJYC8Rt.jpg", "release_date": "2007-06-09", "title": "Evening", "video": false, "vote_average": 5.8, "vote_count": 99, "popularity": 7.172}, {"id": 229749, "video": false, "vote_count": 32, "vote_average": 6.9, "title": "When Calls the Heart", "release_date": "2013-10-05", "original_language": "en", "original_title": "When Calls the Heart", "genre_ids": [35, 18, 10749, 10770], "backdrop_path": "/yG6EJYrUysssYHigqHcOCivpt68.jpg", "adult": false, "overview": "Elizabeth Thatcher, a cultured young teacher in 1910, fears leaving her comfortable world in the city. But when she accepts a teaching position in a frontier town, she finds new purpose and love with a handsome Royal Canadian Mountie.", "poster_path": "/hjRewjx1YuqBX3TDj0JMjKe6kbn.jpg", "popularity": 6.753}, {"adult": false, "backdrop_path": "/y77zrB4xXNF1klo3inOahxYkN5x.jpg", "genre_ids": [37], "id": 171019, "original_language": "en", "original_title": "Pony Soldier", "overview": "Duncan MacDonald, a 19th-century Royal Canadian Mountie, has to escort a group of Cree Indians back to their above-the-border reservation. His guide in this endeavor is the not-too-trustworthy half-breed Natayo.", "poster_path": "/y43YMkjmRn8cb6uZ7VW1gWBLcgB.jpg", "release_date": "1952-04-01", "title": "Pony Soldier", "video": false, "vote_average": 4.8, "vote_count": 6, "popularity": 3.819}, {"adult": false, "backdrop_path": "/bjD49EVQHHeWb2Hwidbf9QxOhey.jpg", "genre_ids": [35, 18, 10749], "id": 19460, "original_language": "es", "original_title": "El hijo de la novia", "overview": "At age 42, Rafael Belvedere is having a crisis. He lives in the shadow of his father, he feels guilty about rarely visiting his aging mother, his ex-wife says he doesn't spend enough time with their daughter and he has yet to make a commitment to his girlfriend. At his lowest point, a minor heart attack reunites him with Juan Carlos, a childhood friend, who helps Rafael to reconstruct his past.", "poster_path": "/rOe5PKYh4RCRXSHSCqzFlpecZHT.jpg", "release_date": "2001-08-16", "title": "Son of the Bride", "video": false, "vote_average": 7.6, "vote_count": 92, "popularity": 5.949}, {"id": 63945, "video": false, "vote_count": 13, "vote_average": 5.8, "title": "Bliss", "release_date": "1997-04-14", "original_language": "en", "original_title": "Bliss", "genre_ids": [18, 10749], "backdrop_path": "/5LKtRtDcPxx7Pp7309E8v7w4uDF.jpg", "adult": false, "overview": "Joseph and Maria are married for six months and Maria still has never had an orgasm with her husband. They begin to visit mysterious doctor Baltazar who teaches them how to reach ecstasy in sex.", "poster_path": "/jNlOtRzKZaA2pprSNyeVntP1eSJ.jpg", "popularity": 4.669}], "total_pages": 3, "total_results": 46}, "recommendations": {"page": 1, "results": [{"adult": false, "backdrop_path": null, "genre_ids": [10751, 16], "id": 106931, "original_language": "en", "original_title": "Hare-Breadth Hurry", "overview": "When Bugs takes Wile E. Coyote's place in a cartoon, the Bugs/Coyote roles and rules become confused.", "poster_path": "/5YzjKCMwLw2tfA2jYSQUuYinYCz.jpg", "release_date": "1963-06-08", "title": "Hare-Breadth Hurry", "video": false, "vote_average": 5.9, "vote_count": 8, "popularity": 2.629}, {"adult": false, "backdrop_path": "/aDtjfUp5Z9lDdvD7o455zgy5B9O.jpg", "genre_ids": [18], "id": 292044, "original_language": "en", "original_title": "Sticks & Stones", "overview": "For three high school friends, growing up takes a dangerous turn when the local bully targets them with his aggression. With no one to turn to but each other, they muster the courage to take a shot at settling the score.", "poster_path": "/whP82OMYdw9i4PjleJ4VvWWg6vu.jpg", "release_date": "1996-09-01", "title": "Sticks & Stones", "video": false, "vote_average": 6.0, "vote_count": 7, "popularity": 3.671}, {"adult": false, "backdrop_path": "/q4PBo4CZM3a8fGNBwJUXtzjPWlE.jpg", "genre_ids": [35, 18], "id": 117553, "original_language": "en", "original_title": "Calendar Girl", "overview": "Like many adolescent boys, Roy Darpinian had the hots for movie divas, and one in particular was his wet dream as half of America's in the 1950s: Marilyn Monroe. The difference is, one summer holiday he actually decided to enlist his spineless buddies, Scott Foreman and Ned Bleuer, to actually drive all the way to Hollywood and make as many desperate attempts as it takes to meet her or get arrested trying, and no setback or embarrassment (even publicly bare-ass) can stop or distract him. Against all odds, he finally even got a chance to help her...", "poster_path": "/ljSqZTl5oophHsH1Qtyv7AF2BW6.jpg", "release_date": "1993-09-03", "title": "Calendar Girl", "video": false, "vote_average": 5.0, "vote_count": 31, "popularity": 5.351}, {"id": 68501, "video": false, "vote_count": 15, "vote_average": 6.1, "title": "Pluto Junior", "release_date": "1942-02-28", "original_language": "en", "original_title": "Pluto Junior", "genre_ids": [16], "backdrop_path": "/74gsAGUvt92ItPC8Na5H3N22c8l.jpg", "adult": false, "overview": "While Pluto naps, his son gets into scrapes with various other animals and other hazards. Pluto eventually wakes up and comes to his rescue.", "poster_path": "/sfOm2CW3pFS8fPOjp7SdtAQs3Bs.jpg", "popularity": 4.796}, {"adult": false, "backdrop_path": null, "genre_ids": [10751, 16], "id": 234762, "original_language": "en", "original_title": "Fastest with the Mostest", "overview": "Wile E. Coyote tries to drop a rocket bomb on the Road Runner from a balloon but inflates himself instead.", "poster_path": "/aQkYIwab9BxyUttwHwF8K8XNkDo.jpg", "release_date": "1960-01-19", "title": "Fastest with the Mostest", "video": false, "vote_average": 6.1, "vote_count": 7, "popularity": 2.627}, {"adult": false, "backdrop_path": null, "genre_ids": [16], "id": 234981, "original_language": "en", "original_title": "Hip Hip-Hurry!", "overview": "Wile E. Coyote is once again after the Road Runner, this time resorting to hand grenades, dynamite, falling rocks and a speed potion (which contains vitamins R, P and M).", "poster_path": "/nghWcQ4w4yQKih3BS4hO92kgFDH.jpg", "release_date": "1958-11-05", "title": "Hip Hip-Hurry!", "video": false, "vote_average": 6.1, "vote_count": 7, "popularity": 1.96}, {"adult": false, "backdrop_path": null, "genre_ids": [16], "id": 234785, "original_language": "en", "original_title": "Hare-Abian Nights", "overview": "Bugs entertains the Sultan with tales from his cartoons: \"Bully for Bugs\", \"Sahara Hare\" and \"Water, Water Every Hare\".", "poster_path": "/64TPg28b5V2yjcUlgKco6B4F2ne.jpg", "release_date": "1959-02-27", "title": "Hare-Abian Nights", "video": false, "vote_average": 6.0, "vote_count": 7, "popularity": 3.069}, {"adult": false, "backdrop_path": "/4iNgTgv2yrpV1SJA51xTN5t9kDH.jpg", "genre_ids": [35, 16], "id": 154023, "original_language": "en", "original_title": "Bugs Bunny's Lunar Tunes", "overview": "Bugs has to defend the Earth's right to exist in an intergalactic court.", "poster_path": "/oItk1p3MIiHDEX9yTWnRhyKaBC0.jpg", "release_date": "1991-01-01", "title": "Bugs Bunny's Lunar Tunes", "video": false, "vote_average": 6.0, "vote_count": 9, "popularity": 3.613}, {"adult": false, "backdrop_path": null, "genre_ids": [35, 16, 10751], "id": 234751, "original_language": "en", "original_title": "Ready, Woolen and Able", "overview": "A hungry Ralph Wolf wants to swipe and eat some of the sheep in Sam Sheepdog's flock. Not only does Sam foil all of Ralph's schemes.", "poster_path": "/rNiU9rICtAQcOIx0syHQ4m5O0Du.jpg", "release_date": "1960-07-30", "title": "Ready, Woolen and Able", "video": false, "vote_average": 6.3, "vote_count": 7, "popularity": 2.516}, {"adult": false, "backdrop_path": null, "genre_ids": [16], "id": 353062, "original_language": "en", "original_title": "The Bugs Bunny Mystery Special", "overview": "F.B.I. and C.I.A. agent Elmer Fudd is after a tall, dark, stranger who robbed a bank. He gets him confused with Bugs Bunny...the chase is on.", "poster_path": "/jCXlQDvCbJre658sdS80Qyq9k8N.jpg", "release_date": "1980-10-26", "title": "The Bugs Bunny Mystery Special", "video": false, "vote_average": 6.0, "vote_count": 6, "popularity": 1.763}, {"adult": false, "backdrop_path": null, "genre_ids": [16], "id": 215502, "original_language": "en", "original_title": "Carnival of the Animals", "overview": "Bugs and Daffy perform and act out their own version of the classic \"Carnival of the Animals.\"", "poster_path": "/q8dPCQOYCjngi8blYRd13KlSFUz.jpg", "release_date": "1976-11-22", "title": "Carnival of the Animals", "video": false, "vote_average": 5.9, "vote_count": 7, "popularity": 2.001}, {"adult": false, "backdrop_path": null, "genre_ids": [10751, 16], "id": 106929, "original_language": "en", "original_title": "Compressed Hare", "overview": "Bugs battles Wile E. Coyote. A ten trillion volt electric magnet draws everything imaginable.", "poster_path": "/qHcuwiw4qiwxna1vfJbrTzCQ6hn.jpg", "release_date": "1961-07-28", "title": "Compressed Hare", "video": false, "vote_average": 6.1, "vote_count": 9, "popularity": 2.596}, {"adult": false, "backdrop_path": null, "genre_ids": [16], "id": 433387, "original_language": "en", "original_title": "The Wacky Adventures of Ronald McDonald: Scared Silly", "overview": "Ronald and his friends going on a camping trip in the Far-Flung Forest where Ronald discovers an old house which he assumes is haunted by a ghost called the Far-Flung Phantom. The campers are forced to stay in the old house due to the stormy weather where a holographic head named Franklin leads them through a challenging game which will eventually help them to escape.", "poster_path": "/eJoZmlLOs18cjh5QcpPtJpiAtsi.jpg", "release_date": "1998-10-08", "title": "The Wacky Adventures of Ronald McDonald: Scared Silly", "video": false, "vote_average": 6.0, "vote_count": 10, "popularity": 4.594}, {"adult": false, "backdrop_path": null, "genre_ids": [35, 10751, 16], "id": 231411, "original_language": "en", "original_title": "Hopalong Casualty", "overview": "Wile E. Coyote tries to catch the Road Runner using a dynamite stick on a fishing pole, a Christmas present wrapping machine, and ACME Earthquake pills, which the Coyote discovers don't affect Road Runners, but only after he himself has angrily downed a whole bottle of the pills! The Coyote quakes and shivers away boulders and whole mountains before the pills wear off.", "poster_path": "/t43bCtnjf7jEzx7pIEgsl8qkaaa.jpg", "release_date": "1960-10-08", "title": "Hopalong Casualty", "video": false, "vote_average": 6.5, "vote_count": 10, "popularity": 2.985}, {"adult": false, "backdrop_path": null, "genre_ids": [35, 16, 10751], "id": 234708, "original_language": "en", "original_title": "Zip 'n Snort", "overview": "Wile E. Coyote tries to catch the Road Runner using a sling shot, a grenade in a toy airplane whose propeller detaches and leaves the plane behind.", "poster_path": "/1gYZCrIlJtnQqgQffyy6hIenxry.jpg", "release_date": "1961-01-21", "title": "Zip 'n Snort", "video": false, "vote_average": 6.6, "vote_count": 10, "popularity": 2.988}, {"adult": false, "backdrop_path": null, "genre_ids": [16], "id": 234528, "original_language": "en", "original_title": "Zoom at the Top", "overview": "Wile E. Coyote tries and fails to catch the Road Runner using a bear trap with a bird seed bait, a jet rocket, an ice-making machine, and a boomerang.", "poster_path": "/m1dOWkufk6tRhW1AxAaZeC5kl8z.jpg", "release_date": "1962-06-29", "title": "Zoom at the Top", "video": false, "vote_average": 6.6, "vote_count": 9, "popularity": 1.495}, {"adult": false, "backdrop_path": null, "genre_ids": [10402, 10751, 16, 14], "id": 359921, "original_language": "en", "original_title": "Snow White", "overview": "Enter the spellbinding realm of a pretty young princess, a scheming queen and seven funny little fellows with very big hearts in this brilliantly animated retelling of the timeless fairy take classic.", "poster_path": "/dhX6xVqDpzD73xNDs8qNG11VJLo.jpg", "release_date": "1990-09-14", "title": "Snow White", "video": false, "vote_average": 5.8, "vote_count": 12, "popularity": 2.288}, {"adult": false, "backdrop_path": "/j2lGUiGgBRYpiJ9JhxMGwk2bp04.jpg", "genre_ids": [16, 10751], "id": 101538, "original_language": "en", "original_title": "The Gnomes' Great Adventure", "overview": "David the Gnome and Swift the Fox embark on a search to find a gold treasure stolen by trolls.", "poster_path": "/930WDD9F2PEJ2kScWAx9LB0Azz8.jpg", "release_date": "1987-01-01", "title": "The Gnomes' Great Adventure", "video": false, "vote_average": 5.7, "vote_count": 6, "popularity": 4.538}, {"id": 148687, "video": false, "vote_count": 14, "vote_average": 6.4, "title": "Pent-House Mouse", "release_date": "1963-07-27", "original_language": "en", "original_title": "Pent-House Mouse", "genre_ids": [16, 35], "backdrop_path": "/aH3dXCgzRJvwh2Z026pAjvrpP6z.jpg", "adult": false, "overview": "Tom is living the life of luxury, high atop a fancy apartment building. Jerry is starving way down below when he spots a lunchbox on a girder at a construction site. Jerry goes in, the girder goes up, and the lunchbox falls off, landing on Tom, and the chase is on.", "poster_path": "/ljpUopFHo5oVvsaLnWrTUDlWDM0.jpg", "popularity": 4.561}, {"adult": false, "backdrop_path": null, "genre_ids": [16], "id": 234694, "original_language": "en", "original_title": "A Scent of the Matterhorn", "overview": "In the French Alps, an out-of-control street-painter's wagon sprays white paint onto a female cat's back.", "poster_path": "/AqKNK8TUClelZhCPw64jyGwTage.jpg", "release_date": "1961-06-23", "title": "A Scent of the Matterhorn", "video": false, "vote_average": 6.3, "vote_count": 12, "popularity": 2.765}], "total_pages": 2, "total_results": 40}, "credits": {"cast": [{"cast_id": 1, "character": "Havana", "credit_id": "52fe4350c3a36847f804ad73", "gender": 1, "id": 4687, "name": "Patricia Arquette", "order": 0, "profile_path": "/2ZIZ2xIdWKZNKRcdIe60AH25c82.jpg"}, {"cast_id": 2, "character": "Zeke", "credit_id": "52fe4350c3a36847f804ad77", "gender": 2, "id": 24045, "name": "Joseph Gordon-Levitt", "order": 1, "profile_path": "/erBJEphmpaSz5Ro3i9TX5ATVDea.jpg"}, {"cast_id": 3, "character": "Uncle Wilhelm", "credit_id": "52fe4350c3a36847f804ad7b", "gender": 2, "id": 12647, "name": "Armin Mueller-Stahl", "order": 2, "profile_path": "/cKdfUl7EuUpBncwvJo2t3hYJPNi.jpg"}, {"cast_id": 4, "character": "Peter", "credit_id": "52fe4350c3a36847f804ad7f", "gender": 2, "id": 15455, "name": "Tate Donovan", "order": 3, "profile_path": "/ioIZ55gaw9u7NIwmHYqIIIT7ksw.jpg"}, {"cast_id": 5, "character": "Markowski", "credit_id": "52fe4350c3a36847f804ad83", "gender": 2, "id": 24046, "name": "John Schuck", "order": 4, "profile_path": "/8HJXSRTewFRic6wYmgJTMPNatUf.jpg"}, {"cast_id": 6, "character": "Orna", "credit_id": "52fe4350c3a36847f804ad87", "gender": 1, "id": 2207, "name": "Lois Smith", "order": 5, "profile_path": "/hYZx3vQ1KICO3Db5Cm89yT3pxZo.jpg"}, {"cast_id": 7, "character": "Cooper", "credit_id": "52fe4350c3a36847f804ad8b", "gender": 2, "id": 24047, "name": "Courtney B. Vance", "order": 6, "profile_path": "/fscE874yHp4aeLLhMFD66OwYQt0.jpg"}, {"cast_id": 8, "character": "Link", "credit_id": "52fe4350c3a36847f804ad8f", "gender": 2, "id": 24048, "name": "Jeffrey Nordling", "order": 7, "profile_path": "/qLEiNpTGAoizKW9nzINSlrg9d2h.jpg"}], "crew": [{"credit_id": "52fe4350c3a36847f804ad95", "department": "Directing", "gender": 2, "id": 1749, "job": "Director", "name": "Leonard Nimoy", "profile_path": "/rTQulQ5WMehA3SSBnGTmayTsF0m.jpg"}, {"credit_id": "52fe4350c3a36847f804adb3", "department": "Editing", "gender": 2, "id": 2033, "job": "Editor", "name": "Peter E. Berger", "profile_path": null}, {"credit_id": "52fe4350c3a36847f804adb9", "department": "Sound", "gender": 2, "id": 20897, "job": "Original Music Composer", "name": "Bruce Broughton", "profile_path": "/3AKoSkgWDbtbBPyva4cZ8GD5Fr6.jpg"}, {"credit_id": "52fe4350c3a36847f804ad9b", "department": "Writing", "gender": 2, "id": 24049, "job": "Screenplay", "name": "David Weisberg", "profile_path": null}, {"credit_id": "52fe4350c3a36847f804ada1", "department": "Production", "gender": 2, "id": 24050, "job": "Producer", "name": "William Stuart", "profile_path": null}, {"credit_id": "52fe4350c3a36847f804ada7", "department": "Production", "gender": 2, "id": 24051, "job": "Producer", "name": "David Madden", "profile_path": null}, {"credit_id": "52fe4350c3a36847f804adad", "department": "Production", "gender": 1, "id": 24052, "job": "Producer", "name": "Diane Nabatoff", "profile_path": null}]}}