{"adult": false, "backdrop_path": "/cvj6yvLi4NskCmhMKEAVgDsFydr.jpg", "belongs_to_collection": null, "budget": 0, "genres": [{"id": 14, "name": "Fantasy"}, {"id": 16, "name": "Animation"}, {"id": 28, "name": "Action"}, {"id": 878, "name": "Science Fiction"}], "homepage": "http://www.first-squad.com", "id": 23527, "imdb_id": "tt1343712", "original_language": "ru", "original_title": "\u041f\u0435\u0440\u0432\u044b\u0439 \u043e\u0442\u0440\u044f\u0434", "overview": "Set during the opening days of World War II on the Eastern Front. Its main cast are a group of Soviet teenagers with extraordinary abilities; the teenagers have been drafted to form a special unit to fight the invading German army. They are opposed by a Schutzstaffel officer who is attempting to raise from the dead a supernatural army of crusaders from the 12th-century Order of the Sacred Cross.", "popularity": 4.499, "poster_path": "/cF0ZM7aJkacUs50llJMtkaDhVJA.jpg", "production_companies": [{"id": 4229, "logo_path": null, "name": "Molot Entertainment", "origin_country": ""}, {"id": 11671, "logo_path": "/iRdYQdn1eunwV3qAs6RK5Mqwn8Z.png", "name": "Studio 4\u00b0C", "origin_country": "JP"}], "production_countries": [{"iso_3166_1": "JP", "name": "Japan"}, {"iso_3166_1": "RU", "name": "Russia"}, {"iso_3166_1": "CA", "name": "Canada"}], "release_date": "2009-05-13", "revenue": 0, "runtime": 73, "spoken_languages": [{"iso_639_1": "de", "name": "Deutsch"}, {"iso_639_1": "ja", "name": "\u65e5\u672c\u8a9e"}, {"iso_639_1": "ru", "name": "P\u0443\u0441\u0441\u043a\u0438\u0439"}], "status": "Released", "tagline": "", "title": "First Squad: The Moment of Truth", "video": false, "vote_average": 5.5, "vote_count": 34, "keywords": {"keywords": [{"id": 6152, "name": "supernatural"}, {"id": 10834, "name": "super soldier"}, {"id": 166454, "name": "russian army"}]}, "similar": {"page": 1, "results": [{"id": 493922, "video": false, "vote_count": 3300, "vote_average": 7.1, "title": "Hereditary", "release_date": "2018-06-07", "original_language": "en", "original_title": "Hereditary", "genre_ids": [27, 9648, 53], "backdrop_path": "/4DUoPZOHdPuROP4nyEIsPaMIiQl.jpg", "adult": false, "overview": "When Ellen, the matriarch of the Graham family, passes away, her daughter\u2019s family begins to unravel cryptic and increasingly terrifying secrets about their ancestry.", "poster_path": "/lHV8HHlhwNup2VbpiACtlKzaGIQ.jpg", "popularity": 26.313}, {"adult": false, "backdrop_path": "/kQOLgJGvFjQ7EwGfaPkW9dlGFXJ.jpg", "genre_ids": [27, 9648], "id": 565, "original_language": "en", "original_title": "The Ring", "overview": "It sounded like just another urban legend: A videotape filled with nightmarish images, leading to a phone call foretelling the viewer's death in exactly seven days. As a newspaper reporter, Rachel Keller was naturally skeptical of the story, until four teenagers all met with mysterious deaths exactly one week after watching just such a tape. Allowing her investigative curiosity to get the better of her, Rachel tracks down the video... and watches it. Now she has just seven days to unravel the mystery of the Ring.", "poster_path": "/zHJFdhqEXZJxG653oZvOM3PmNON.jpg", "release_date": "2002-10-18", "title": "The Ring", "video": false, "vote_average": 6.6, "vote_count": 3614, "popularity": 18.465}, {"adult": false, "backdrop_path": "/y6UDPkSAcO08O9dmijgZ7tYw4HK.jpg", "genre_ids": [18, 14, 27], "id": 561, "original_language": "en", "original_title": "Constantine", "overview": "John Constantine has literally been to Hell and back. When he teams up with a policewoman to solve the mysterious suicide of her twin sister, their investigation takes them through the world of demons and angels that exists beneath the landscape of contemporary Los Angeles.", "poster_path": "/qYTerimWp1t1zSEKknn9mByhwbX.jpg", "release_date": "2005-02-08", "title": "Constantine", "video": false, "vote_average": 6.8, "vote_count": 3672, "popularity": 29.404}, {"id": 4011, "video": false, "vote_count": 3504, "vote_average": 7.3, "title": "Beetlejuice", "release_date": "1988-02-29", "original_language": "en", "original_title": "Beetlejuice", "genre_ids": [35, 14], "backdrop_path": "/upAwc1kPQJU1ZWeMgEWV8Lp6CWb.jpg", "adult": false, "overview": "Thanks to an untimely demise via drowning, a young couple end up as poltergeists in their New England farmhouse, where they fail to meet the challenge of scaring away the insufferable new owners, who want to make drastic changes. In desperation, the undead newlyweds turn to an expert frightmeister, but he's got a diabolical agenda of his own.", "poster_path": "/gWnW7vxm8yr01TVLQhL4aI02orp.jpg", "popularity": 34.388}, {"id": 1487, "video": false, "vote_count": 4488, "vote_average": 6.6, "title": "Hellboy", "release_date": "2004-04-02", "original_language": "en", "original_title": "Hellboy", "genre_ids": [28, 14], "backdrop_path": "/13DIK3beAoroeJSdrcYm66s6hal.jpg", "adult": false, "overview": "In the final days of World War II, the Nazis attempt to use black magic to aid their dying cause. The Allies raid the camp where the ceremony is taking place, but not before a demon\u2014Hellboy\u2014has already been conjured. Joining the Allied forces, Hellboy eventually grows to adulthood, serving the cause of good rather than evil.", "poster_path": "/buAYSdNVKMgNhdcuKHIwelSQxPe.jpg", "popularity": 21.315}, {"adult": false, "backdrop_path": "/59baGxEztxeXW1oFjs8EBgXxTXk.jpg", "genre_ids": [27, 53], "id": 91586, "original_language": "en", "original_title": "Insidious: Chapter 2", "overview": "The haunted Lambert family seeks to uncover the mysterious childhood secret that has left them dangerously connected to the spirit world.", "poster_path": "/vmWgw1Lsc6bHThA6S2k8fPsROaI.jpg", "release_date": "2013-09-12", "title": "Insidious: Chapter 2", "video": false, "vote_average": 6.6, "vote_count": 2512, "popularity": 24.9}, {"id": 409297, "video": false, "vote_count": 218, "vote_average": 6.1, "title": "A Dark Song", "release_date": "2016-10-14", "original_language": "en", "original_title": "A Dark Song", "genre_ids": [18, 14, 27, 9648], "backdrop_path": "/nOHFOxK8oFUHGoXNFHnaebuo74c.jpg", "adult": false, "overview": "A determined young woman and a damaged occultist risk their lives and souls to perform a dangerous ritual that will grant them what they want.", "poster_path": "/fguce8M1bZnWjVkRWCFh9P3kt6A.jpg", "popularity": 10.629}, {"id": 588, "video": false, "vote_count": 2406, "vote_average": 6.4, "title": "Silent Hill", "release_date": "2006-04-21", "original_language": "en", "original_title": "Silent Hill", "genre_ids": [27, 9648], "backdrop_path": "/6tfW4BjdgwuYSD7gaEMEEPoDcpH.jpg", "adult": false, "overview": "The eerie and deserted ghost town of Silent Hill draws a young mother desperate to find a cure for her only child's illness. Unable to accept the doctor's diagnosis that her daughter should be permanently institutionalized for psychiatric care, Rose flees with her child, heading for the abandoned town in search of answers \u2013 and ignoring the protests of her husband. It's soon clear this place is unlike anywhere she's ever been. It's smothered by fog, inhabited by a variety of strange beings and periodically overcome by a living 'darkness' that literally transforms everything it touches. As Rose searches for her little girl, she begins to learn the history of the strange town and realizes that her daughter is just a pawn in a larger game.", "poster_path": "/4Zz9cF8S4E7DITosNYh3spybYJb.jpg", "popularity": 17.785}, {"adult": false, "backdrop_path": "/w8jINuXklxghTAHNxt0NQYaAN1C.jpg", "genre_ids": [27], "id": 242512, "original_language": "en", "original_title": "Ouija", "overview": "A group of friends must confront their most terrifying fears when they awaken the dark powers of an ancient spirit board.", "poster_path": "/vHTXN00kJktCbSLV50Vbk9siNiX.jpg", "release_date": "2014-10-24", "title": "Ouija", "video": false, "vote_average": 5.1, "vote_count": 1834, "popularity": 21.962}, {"id": 361292, "video": false, "vote_count": 1094, "vote_average": 6.9, "title": "Suspiria", "release_date": "2018-10-11", "original_language": "en", "original_title": "Suspiria", "genre_ids": [14, 27], "backdrop_path": "/AmO8I38bkHwKhgxPNrd6djBQyPU.jpg", "adult": false, "overview": "A darkness swirls at the center of a world-renowned dance company, one that will engulf the troupe's artistic director, an ambitious young dancer and a grieving psychotherapist. Some will succumb to the nightmare, others will finally wake up.", "poster_path": "/qntguRoupnAASFdld8kTDe68fEn.jpg", "popularity": 19.86}, {"adult": false, "backdrop_path": "/xcjJ5khg2yzOa282mza39Lbrm7j.jpg", "genre_ids": [27], "id": 9552, "original_language": "en", "original_title": "The Exorcist", "overview": "12-year-old Regan MacNeil begins to adapt an explicit new personality as strange events befall the local area of Georgetown. Her mother becomes torn between science and superstition in a desperate bid to save her daughter, and ultimately turns to her last hope: Father Damien Karras, a troubled priest who is struggling with his own faith.", "poster_path": "/4ucLGcXVVSVnsfkGtbLY4XAius8.jpg", "release_date": "1973-12-26", "title": "The Exorcist", "video": false, "vote_average": 7.6, "vote_count": 4355, "popularity": 21.648}, {"id": 10014, "video": false, "vote_count": 873, "vote_average": 5.8, "title": "A Nightmare on Elm Street Part 2: Freddy's Revenge", "release_date": "1985-10-31", "original_language": "en", "original_title": "A Nightmare on Elm Street Part 2: Freddy's Revenge", "genre_ids": [27], "backdrop_path": "/tJTrNDt1242xe4zlatlZfDMvWjg.jpg", "adult": false, "overview": "A new family moves into the house on Elm Street, and before long, the kids are again having nightmares about deceased child murderer Freddy Krueger. This time, Freddy attempts to possess a teenage boy to cause havoc in the real world, and can only be overcome if the boy's sweetheart can master her fear.", "poster_path": "/seEMZxo6bhHWbWPNcBQfsMAk39F.jpg", "popularity": 19.738}, {"id": 622, "video": false, "vote_count": 1604, "vote_average": 6.4, "title": "The Ninth Gate", "release_date": "1999-08-25", "original_language": "en", "original_title": "The Ninth Gate", "genre_ids": [27, 9648, 53], "backdrop_path": "/7ikpBrx2YZyVZxFS5YTZUZoyIJu.jpg", "adult": false, "overview": "An all-expenses-paid international search for a rare copy of the book, 'The Nine Gates of the Shadow Kingdom' brings an unscrupulous book dealer deep into a world of murder, double-dealing and satanic worship.", "poster_path": "/uamhDQBebdW3UQqOaVmma3yW8pm.jpg", "popularity": 24.171}, {"id": 439079, "video": false, "vote_count": 3337, "vote_average": 5.6, "title": "The Nun", "release_date": "2018-09-05", "original_language": "en", "original_title": "The Nun", "genre_ids": [27, 9648, 53], "backdrop_path": "/fgsHxz21B27hOOqQBiw9L6yWcM7.jpg", "adult": false, "overview": "When a young nun at a cloistered abbey in Romania takes her own life, a priest with a haunted past and a novitiate on the threshold of her final vows are sent by the Vatican to investigate. Together they uncover the order\u2019s unholy secret. Risking not only their lives but their faith and their very souls, they confront a malevolent force in the form of the same demonic nun that first terrorized audiences in \u201cThe Conjuring 2\u201d as the abbey becomes a horrific battleground between the living and the damned.", "poster_path": "/sFC1ElvoKGdHJIWRpNB3xWJ9lJA.jpg", "popularity": 29.576}, {"id": 620, "video": false, "vote_count": 5181, "vote_average": 7.4, "title": "Ghostbusters", "release_date": "1984-06-08", "original_language": "en", "original_title": "Ghostbusters", "genre_ids": [35, 14], "backdrop_path": "/qmDy6Rdom8d8UFj9GeAAtVIjTRT.jpg", "adult": false, "overview": "After losing their academic posts at a prestigious university, a team of parapsychologists goes into business as proton-pack-toting \"ghostbusters\" who exterminate ghouls, hobgoblins and supernatural pests of all stripes. An ad campaign pays off when a knockout cellist hires the squad to purge her swanky digs of demons that appear to be living in her refrigerator.", "poster_path": "/3FS3oBdorgczgfCkFi2u8ZTFfpS.jpg", "popularity": 25.965}, {"id": 675, "video": false, "vote_count": 11919, "vote_average": 7.6, "title": "Harry Potter and the Order of the Phoenix", "release_date": "2007-06-28", "original_language": "en", "original_title": "Harry Potter and the Order of the Phoenix", "genre_ids": [12, 14, 9648], "backdrop_path": "/gGt4ePOhD8ilxd3FYhKB06L2CyG.jpg", "adult": false, "overview": "Returning for his fifth year of study at Hogwarts, Harry is stunned to find that his warnings about the return of Lord Voldemort have been ignored. Left with no choice, Harry takes matters into his own hands, training a small group of students \u2013 dubbed 'Dumbledore's Army' \u2013 to defend themselves against the dark arts.", "poster_path": "/4YnLxYLHhT4UQ8i9jxAXWy46Xuw.jpg", "popularity": 37.566}, {"adult": false, "backdrop_path": "/o8u0NyEigCEaZHBdCYTRfXR8U4i.jpg", "genre_ids": [27, 9648, 53], "id": 396422, "original_language": "en", "original_title": "Annabelle: Creation", "overview": "Several years after the tragic death of their little girl, a doll maker and his wife welcome a nun and several girls from a shuttered orphanage into their home, soon becoming the target of the doll maker's possessed creation\u2014Annabelle.", "poster_path": "/f7pn0VD3QpEXH8sETFNUow4o7hz.jpg", "release_date": "2017-08-03", "title": "Annabelle: Creation", "video": false, "vote_average": 6.5, "vote_count": 3551, "popularity": 25.077}, {"adult": false, "backdrop_path": "/slpgZisYNapLoN9FWXqDOC1ExbU.jpg", "genre_ids": [27, 9648, 53], "id": 259693, "original_language": "en", "original_title": "The Conjuring 2", "overview": "Lorraine and Ed Warren travel to north London to help a single mother raising four children alone in a house plagued by malicious spirits.", "poster_path": "/7GUzvvrb6hbOWl8l8YkaS4fgTDT.jpg", "release_date": "2016-05-13", "title": "The Conjuring 2", "video": false, "vote_average": 7.2, "vote_count": 4646, "popularity": 25.309}, {"adult": false, "backdrop_path": "/w4w8CTEe4isWO2TzDSQ3MV3br9l.jpg", "genre_ids": [14, 35, 10751], "id": 8839, "original_language": "en", "original_title": "Casper", "overview": "Furious that her late father only willed her his gloomy-looking mansion rather than his millions, Carrigan Crittenden is ready to burn the place to the ground when she discovers a map to a treasure hidden in the house. But when she enters the rickety mansion to seek her claim, she is frightened away by a wicked wave of ghosts. Determined to get her hands on this hidden fortune, she hires afterlife therapist Dr. James Harvey to exorcise the ghosts from the mansion. Harvey and his daughter Kat move in, and soon Kat meets Casper, the ghost of a young boy who's \"the friendliest ghost you know.\" But not so friendly are Casper's uncles--Stretch, Fatso and Stinkie--who are determined to drive all \"fleshies\" away.", "poster_path": "/1WeumvndgPE3hopKQqXbCKO26oH.jpg", "release_date": "1995-05-26", "title": "Casper", "video": false, "vote_average": 6.2, "vote_count": 2787, "popularity": 25.964}, {"id": 448095, "video": false, "vote_count": 308, "vote_average": 6.8, "title": "I Still See You", "release_date": "2018-09-27", "original_language": "en", "original_title": "I Still See You", "genre_ids": [14, 53], "backdrop_path": "/7rqpB7coXaNvTVMWb5vL8qU0pBp.jpg", "adult": false, "overview": "A spellbinding and romantic supernatural thriller. Ten years after an apocalyptic event left the world haunted by ghosts, Roni receives a threatening message from beyond the grave. Joining forces with a mysterious classmate, Kirk, Roni descends into a shadow world that blurs the bounds of the living and the dead-and begins a desperate race against time to stop a cunning killer.", "poster_path": "/9fqzZs922V8OmwgO11Eqclof2mQ.jpg", "popularity": 18.83}], "total_pages": 98, "total_results": 1951}, "recommendations": {"page": 1, "results": [{"adult": false, "backdrop_path": null, "genre_ids": [], "id": 180554, "original_language": "en", "original_title": "Sur le passage de quelques personnes \u00e0 travers une assez courte unit\u00e9 de temps", "overview": "This short film can be considered as notes on the origins of the situationist movement; notes which thus naturally include a reflection on their own language.", "poster_path": "/gZOGgY36v5z9Lsa06lowUUYPxiT.jpg", "release_date": "1959-03-25", "title": "On the Passage of a Few People through a Relatively Short Period of Time", "video": false, "vote_average": 8.3, "vote_count": 3, "popularity": 1.91}, {"adult": false, "backdrop_path": "/aSgT63H4Brz0IabfDIjFq61cjCc.jpg", "genre_ids": [18, 10749], "id": 71093, "original_language": "ko", "original_title": "\ube44\ubc00", "overview": "A man becomes involved in some extra-sensory experiences after hitting a woman while driving drunk and bringing her home. She has amnesia and cannot speak, but that doesn't prevent her from communicating with him in other ways...", "poster_path": "/f5fOAZWPJ8ZkKZGdA76xxp0kWns.jpg", "release_date": "2000-06-03", "title": "Secret Tears", "video": false, "vote_average": 5.0, "vote_count": 5, "popularity": 1.615}, {"adult": false, "backdrop_path": "/mR5FREtw4dNety1aLQvPxzgt1ru.jpg", "genre_ids": [], "id": 126202, "original_language": "en", "original_title": "Untitled (For Marilyn)", "overview": "The film is officially untitled, but is referred to by the dedication that appears in place of a title card. It is dedicated to Marilyn Brakhage, the filmmaker's wife. Out of all the 350+ films that Stan Brakhage made, this was his personal favorite.", "poster_path": "/s6TXI7E7BhT4CN9k869j8t87K9w.jpg", "release_date": "1992-01-01", "title": "Untitled (For Marilyn)", "video": false, "vote_average": 5.1, "vote_count": 11, "popularity": 3.785}, {"id": 27671, "video": false, "vote_count": 7, "vote_average": 4.0, "title": "Pop Skull", "release_date": "2007-07-06", "original_language": "en", "original_title": "Pop Skull", "genre_ids": [27, 53], "backdrop_path": null, "adult": false, "overview": "Addled prescription drug addict Daniel finds himself unraveling further under the stress of a recent breakup. Worse yet, he lives in a house haunted by nightmarish events from the past, images of which torment him in terrifying dreams. This hallucinatory horror film leaps off the screen with its disturbingly vivid visuals.", "poster_path": "/t3pksjsHJAherUhrVO6mSkIcJtZ.jpg", "popularity": 3.714}, {"adult": false, "backdrop_path": null, "genre_ids": [18], "id": 148040, "original_language": "en", "original_title": "Blue Moses", "overview": "A meat enigma spoken in eternal language of director, con man, and magician. It\u2019s about the sham flesh that men create to dam the streaming of truth from their muscles and senses\u2026 a molecule of revelation in the shape of drama thrown off by the artist between Anticipation and Dog Star Man.", "poster_path": "/ytNyOcxZ2nR9tmE0E14TvIkwBcD.jpg", "release_date": "1962-12-31", "title": "Blue Moses", "video": false, "vote_average": 4.9, "vote_count": 10, "popularity": 2.069}, {"adult": false, "backdrop_path": "/oxY2JGO4enxtZJLDSgttfFSFcUW.jpg", "genre_ids": [27], "id": 54493, "original_language": "ja", "original_title": "X g\u00eamu", "overview": "After a childhood friend's suicide, Hideaki and his former classmates reunite to pay their respects. Soon after, a DVD, marked X arrives revealing a man being tortured, triggering a flashback in Hideaki, reminding him of witnessing a schoolmate being subjected to humiliating batsu (punishment) games. One evening, Hideaki is kidnapped and when he awakens the next day, he discovers he is in a recreation of his old school-room, along with his fellow classmates. Trapped and held captive by mysterious hooded figures, each of them must now play a brutally violent, version of the punishment game, in order to survive.", "poster_path": "/z40k42bMOwaOlqB2cBrhL2KbD8b.jpg", "release_date": "2010-09-18", "title": "X Game", "video": false, "vote_average": 4.9, "vote_count": 8, "popularity": 2.014}, {"id": 126215, "video": false, "vote_count": 18, "vote_average": 5.7, "title": "The Dark Tower", "release_date": "1999-01-01", "original_language": "en", "original_title": "The Dark Tower", "genre_ids": [], "backdrop_path": null, "adult": false, "overview": "This hand-painted step-printed film begins with streaks of glare light and vibrantly colored forms apparently in the sky forinasmuch as there appears, frame center, the tapered shape of a tower, a silhouette as it were against the backdrop of the flaring sky. As this shape of tower disappears, the conflagration of scratches and paints seems grounded and takes on the semblance of a battle of knights, their lances, horses, et al, often against a scattering of star-like flecks until finally the silhouette of the tower reappears as if much closer, certainly thicker and straight-sided. The film finishes as textures which tend to suggest an entrance into the textured walls of the tower, textures and stars intermingled with what may well seem chain-mail as well.", "poster_path": "/x03f5ZRe563wy43rGGTFoJzEE7c.jpg", "popularity": 2.702}, {"adult": false, "backdrop_path": null, "genre_ids": [18], "id": 64223, "original_language": "ko", "original_title": "\uac00\uc871\uc758 \ud0c4\uc0dd", "overview": "Family Ties is an ensemble drama from Kim Tae-yong, the co-director of chiller Memento Mori. The film tells three seemingly unconnected stories in a trilogy of distinct segments. The first part is the story of a woman (Moon So-ri - Oasis, A Good Lawyer's Wife) who has to deal with her long-lost brother's surprise visit. After having been missing for several years, the brother (played by Um Tae-ung - Revenge) appears and moves in, with his new wife in tow - a much older woman, Mu Shin (Ko Doo-sim - More Beautiful Than A Flower). The second story features a searing performance from Gong Hyo-jin (Memento Mori) as a short-tempered young woman, who discovers that her estranged mother (Kim Hye-ok), with whom she has had a falling out, is terminally ill. Part three examines the relationship problems faced by a young couple (Bong Tae-gyu from See You After School and Jeong Yu-mi from Blossom Again).", "poster_path": "/gIjYHaP98yGEPpJd7KsPX4uifom.jpg", "release_date": "2006-05-18", "title": "Family Ties", "video": false, "vote_average": 5.8, "vote_count": 8, "popularity": 1.525}, {"adult": false, "backdrop_path": "/viBqsZGPEbq8fn3r4Apzy8NABab.jpg", "genre_ids": [18], "id": 94716, "original_language": "en", "original_title": "A Cottage on Dartmoor", "overview": "Flashback story of an escape from the lonely, high-security Dartmoor Prison. A jealous barber's assistant is enraged by the attentions that his manicurist girlfriend pays to a customer. He threatens the customer with an open razor and lands in jail.", "poster_path": "/gaOagw83fxHcML5xGflG0rHKHVW.jpg", "release_date": "1929-10-01", "title": "A Cottage on Dartmoor", "video": false, "vote_average": 7.3, "vote_count": 13, "popularity": 2.302}], "total_pages": 1, "total_results": 9}, "credits": {"cast": [{"cast_id": 14, "character": "Baron Von Wolff (voice)", "credit_id": "52fe446cc3a368484e022467", "gender": 0, "id": 122182, "name": "Sergei Aisman", "order": 0, "profile_path": null}, {"cast_id": 15, "character": "Hunchback (voice)", "credit_id": "52fe446cc3a368484e02246b", "gender": 0, "id": 122183, "name": "Michael Beskorovainy", "order": 1, "profile_path": null}, {"cast_id": 16, "character": "Nadaya Ruslanova (voice)", "credit_id": "52fe446cc3a368484e02246f", "gender": 0, "id": 122184, "name": "Elena Chebaturkina", "order": 2, "profile_path": "/rjLw7NV84NpJLliQFED90e0p40q.jpg"}, {"cast_id": 17, "character": "Marat (voice)", "credit_id": "52fe446cc3a368484e022473", "gender": 0, "id": 122185, "name": "Damir Eldarov", "order": 3, "profile_path": null}, {"cast_id": 29, "character": "Nadya's Mother / Twins (voice)", "credit_id": "52fe446cc3a368484e0224b9", "gender": 0, "id": 1122041, "name": "Olga Golovanova", "order": 4, "profile_path": "/tzYRc2m6QAnt5MrTnA0rkafT8EY.jpg"}, {"cast_id": 30, "character": "General Below (voice)", "credit_id": "52fe446cc3a368484e0224bd", "gender": 2, "id": 1122042, "name": "Alexandr Gruzdev", "order": 5, "profile_path": "/7Lvc2OcyDObGjyNTiNjc6aZEQGX.jpg"}, {"cast_id": 31, "character": "Doctor (voice)", "credit_id": "52fe446cc3a368484e0224c1", "gender": 0, "id": 1122043, "name": "Artem Kipnis", "order": 6, "profile_path": null}, {"cast_id": 32, "character": "Monk (voice)", "credit_id": "52fe446cc3a368484e0224c5", "gender": 0, "id": 1122044, "name": "Rudolf Pankov", "order": 7, "profile_path": "/kx3YQlNTw7UJBDtPLcIefJHlX6o.jpg"}, {"cast_id": 33, "character": "Leo (Voice)", "credit_id": "530a4e12925141111a003a6c", "gender": 0, "id": 1295816, "name": "Michael Tikhonov", "order": 8, "profile_path": "/tKVZpqyWd26wb8Bj6OQJ2wAsyAV.jpg"}, {"cast_id": 34, "character": "Obergruppenfuhrer SS Linz", "credit_id": "530a4ed6925141110e003ed2", "gender": 2, "id": 1295817, "name": "Nikita Prozorovsky", "order": 9, "profile_path": "/ceiCWhDP9Xld2qXi8LeldOposnW.jpg"}, {"cast_id": 35, "character": "Valya", "credit_id": "530a5061925141785e001c9a", "gender": 0, "id": 1190708, "name": "Irina Savina", "order": 10, "profile_path": "/kOZRq28LcvBmvX1LSM72WXZy6Bg.jpg"}, {"cast_id": 36, "character": "Zena", "credit_id": "530a50a8925141111a003a92", "gender": 0, "id": 1295818, "name": "Ludmila Shuvalova", "order": 11, "profile_path": "/rwowAw50jGWTXs418L4XzYPO3Mm.jpg"}], "crew": [{"credit_id": "52fe446cc3a368484e022421", "department": "Writing", "gender": 0, "id": 90251, "job": "Writer", "name": "Aljosha Klimov", "profile_path": null}, {"credit_id": "52fe446cc3a368484e022427", "department": "Writing", "gender": 0, "id": 90252, "job": "Writer", "name": "Misha Shprits", "profile_path": null}, {"credit_id": "52fe446cc3a368484e02242d", "department": "Production", "gender": 0, "id": 90162, "job": "Producer", "name": "Eiko Tanaka", "profile_path": null}, {"credit_id": "52fe446cc3a368484e022433", "department": "Production", "gender": 0, "id": 90251, "job": "Producer", "name": "Aljosha Klimov", "profile_path": null}, {"credit_id": "52fe446cc3a368484e022439", "department": "Crew", "gender": 0, "id": 90255, "job": "Cinematography", "name": "Sergey Akimov", "profile_path": null}, {"credit_id": "52fe446cc3a368484e02243f", "department": "Sound", "gender": 0, "id": 90256, "job": "Music", "name": "DJ Krush", "profile_path": null}, {"credit_id": "52fe446cc3a368484e022445", "department": "Crew", "gender": 0, "id": 90257, "job": "Cinematography", "name": "Jo\u00e3o Da Costa Pinto", "profile_path": null}, {"credit_id": "52fe446cc3a368484e022451", "department": "Directing", "gender": 0, "id": 90259, "job": "Director", "name": "Yoshiharu Ashino", "profile_path": null}, {"credit_id": "52fe446cc3a368484e022457", "department": "Production", "gender": 0, "id": 90260, "job": "Production Manager", "name": "Vladimir Zhelezniakov", "profile_path": null}, {"credit_id": "52fe446cc3a368484e02245d", "department": "Directing", "gender": 0, "id": 90261, "job": "Director", "name": "Vladimir Zhelezniakov", "profile_path": null}, {"credit_id": "52fe446cc3a368484e022463", "department": "Writing", "gender": 0, "id": 90262, "job": "Characters", "name": "Hirofumi Nakata", "profile_path": "/gqBmyG59OHnIAMwT6wZ7C1StnzD.jpg"}, {"credit_id": "52fe446cc3a368484e022479", "department": "Production", "gender": 0, "id": 90252, "job": "Producer", "name": "Misha Shprits", "profile_path": null}, {"credit_id": "52fe446cc3a368484e02247f", "department": "Directing", "gender": 0, "id": 90251, "job": "Director", "name": "Aljosha Klimov", "profile_path": null}, {"credit_id": "52fe446cc3a368484e022485", "department": "Writing", "gender": 0, "id": 90251, "job": "Screenplay", "name": "Aljosha Klimov", "profile_path": null}, {"credit_id": "52fe446cc3a368484e02248b", "department": "Writing", "gender": 0, "id": 90252, "job": "Screenplay", "name": "Misha Shprits", "profile_path": null}, {"credit_id": "52fe446cc3a368484e022491", "department": "Production", "gender": 0, "id": 1122037, "job": "Executive Producer", "name": "Kaeko Sakamoto", "profile_path": null}, {"credit_id": "52fe446cc3a368484e022497", "department": "Production", "gender": 2, "id": 1122038, "job": "Executive Producer", "name": "Eric P. Sherman", "profile_path": null}, {"credit_id": "52fe446cc3a368484e02249d", "department": "Production", "gender": 0, "id": 1122039, "job": "Line Producer", "name": "Kazuhiro Takei", "profile_path": null}, {"credit_id": "52fe446cc3a368484e0224a3", "department": "Crew", "gender": 0, "id": 1122040, "job": "Cinematography", "name": "Aleksandr Aleshnikov", "profile_path": null}, {"credit_id": "52fe446cc3a368484e0224a9", "department": "Editing", "gender": 0, "id": 90255, "job": "Editor", "name": "Sergey Akimov", "profile_path": null}, {"credit_id": "52fe446cc3a368484e0224af", "department": "Editing", "gender": 0, "id": 90257, "job": "Editor", "name": "Jo\u00e3o Da Costa Pinto", "profile_path": null}, {"credit_id": "52fe446cc3a368484e0224b5", "department": "Editing", "gender": 1, "id": 90258, "job": "Editor", "name": "Kumiko Sakamoto", "profile_path": null}]}}