{"adult": false, "backdrop_path": "/8sNPEt2ouUxJlSQzh9tkvYUY2QM.jpg", "belongs_to_collection": null, "budget": 0, "genres": [{"id": 35, "name": "Comedy"}], "homepage": null, "id": 235416, "imdb_id": "tt0043728", "original_language": "en", "original_title": "The Law and the Lady", "overview": "A former housemaid (Garson) now works as a confidence trickster, but her plans for a big job in California go awry.", "popularity": 1.508, "poster_path": "/bU09OIuC7mqN5J6qp2ymJDLrmzK.jpg", "production_companies": [{"id": 21, "logo_path": "/mjofSXiHpG5t6KYmU4l4FrUhT7m.png", "name": "Metro-Goldwyn-Mayer", "origin_country": "US"}], "production_countries": [{"iso_3166_1": "US", "name": "United States of America"}], "release_date": "1951-07-20", "revenue": 0, "runtime": 104, "spoken_languages": [{"iso_639_1": "en", "name": "English"}], "status": "Released", "tagline": "", "title": "The Law and the Lady", "video": false, "vote_average": 6.3, "vote_count": 2, "keywords": {"keywords": [{"id": 9727, "name": "thief"}, {"id": 10453, "name": "con artist"}, {"id": 159469, "name": "jewel theft"}]}, "similar": {"page": 1, "results": [{"id": 161, "video": false, "vote_count": 7295, "vote_average": 7.4, "title": "Ocean's Eleven", "release_date": "2001-12-07", "original_language": "en", "original_title": "Ocean's Eleven", "genre_ids": [80, 53], "backdrop_path": "/z2fiN0tgkgOcAFl5gxvQlYXCn3l.jpg", "adult": false, "overview": "Less than 24 hours into his parole, charismatic thief Danny Ocean is already rolling out his next plan: In one night, Danny's hand-picked crew of specialists will attempt to steal more than $150 million from three Las Vegas casinos. But to score the cash, Danny risks his chances of reconciling with ex-wife, Tess.", "poster_path": "/o0h76DVXvk5OKjmNez5YY0GODC2.jpg", "popularity": 23.922}, {"adult": false, "backdrop_path": "/7qt9TOS8UNRiVlAvs5kkSPMUeRf.jpg", "genre_ids": [28, 35, 80], "id": 277432, "original_language": "hi", "original_title": "Happy New Year", "overview": "Six would-be thieves enter a prestigious dance competition as a cover for their larger goal of pulling off a major heist", "poster_path": "/1wHbuMUjjfoGrTo7YMNjhkgWksg.jpg", "release_date": "2014-10-23", "title": "Happy New Year", "video": false, "vote_average": 6.0, "vote_count": 128, "popularity": 7.427}, {"id": 106646, "video": false, "vote_count": 13908, "vote_average": 8.0, "title": "The Wolf of Wall Street", "release_date": "2013-12-25", "original_language": "en", "original_title": "The Wolf of Wall Street", "genre_ids": [35, 80, 18], "backdrop_path": "/rP36Rx5RQh0rmH2ynEIaG8DxbV2.jpg", "adult": false, "overview": "A New York stockbroker refuses to cooperate in a large securities fraud case involving corruption on Wall Street, corporate banking world and mob infiltration. Based on Jordan Belfort's autobiography.", "poster_path": "/vK1o5rZGqxyovfIhZyMELhk03wO.jpg", "popularity": 35.327}, {"adult": false, "backdrop_path": "/eI1awbf14cA2ds7gtQHZLdLTxrY.jpg", "genre_ids": [35], "id": 10426, "original_language": "en", "original_title": "Friday After Next", "overview": "Craig and Day Day have finally moved out of their parents houses and into their own crib. The cousins work nights at a local mall as security guards. When their house is robbed on Christmas Eve they team up to track him down.", "poster_path": "/pB49Sg3v247oHFPNvQLJDiX4OgA.jpg", "release_date": "2002-11-22", "title": "Friday After Next", "video": false, "vote_average": 6.1, "vote_count": 194, "popularity": 13.118}, {"id": 269149, "video": false, "vote_count": 10912, "vote_average": 7.7, "title": "Zootopia", "release_date": "2016-02-11", "original_language": "en", "original_title": "Zootopia", "genre_ids": [12, 16, 35, 10751], "backdrop_path": "/mhdeE1yShHTaDbJVdWyTlzFvNkr.jpg", "adult": false, "overview": "Determined to prove herself, Officer Judy Hopps, the first bunny on Zootopia's police force, jumps at the chance to crack her first case - even if it means partnering with scam-artist fox Nick Wilde to solve the mystery.", "poster_path": "/sM33SANp9z6rXW8Itn7NnG1GOEs.jpg", "popularity": 51.293}, {"adult": false, "backdrop_path": "/plnmzCMPAb3suBAUJ4Yi2NC1APA.jpg", "genre_ids": [35], "id": 35056, "original_language": "en", "original_title": "Date Night", "overview": "Phil and Claire Foster fear that their mild-mannered relationship may be falling into a stale rut. During their weekly date night, their dinner reservation leads to their being mistaken for a couple of thieves\u2014and now a number of unsavoury characters want Phil and Claire killed.", "poster_path": "/fzzPht9KId6Ollow30jYtABhDY3.jpg", "release_date": "2010-04-08", "title": "Date Night", "video": false, "vote_average": 6.0, "vote_count": 1888, "popularity": 14.813}, {"id": 449562, "video": false, "vote_count": 946, "vote_average": 6.1, "title": "The Hustle", "release_date": "2019-05-09", "original_language": "en", "original_title": "The Hustle", "genre_ids": [35], "backdrop_path": "/jNGddgRNErIMVsawEV2CVZ66dS3.jpg", "adult": false, "overview": "Two female scam artists, one low rent and the other high class, compete to swindle a na\u00efve tech prodigy out of his fortune. A remake of the 1988 comedy \"Dirty Rotten Scoundrels.\"", "poster_path": "/hHAD7cx1j2RAyjwREVgJeLcLVoi.jpg", "popularity": 24.207}, {"id": 509874, "video": false, "vote_count": 65, "vote_average": 5.8, "title": "Lying and Stealing", "release_date": "2019-07-12", "original_language": "en", "original_title": "Lying and Stealing", "genre_ids": [35, 80], "backdrop_path": "/eY9Fv5KcqC5gg9vhkjLSbG77JHA.jpg", "adult": false, "overview": "Hoping to leave his criminal lifestyle behind him, a successful art thief teams up with a sexy con woman to pull off the ultimate heist and set himself free.", "poster_path": "/1kghaV5pWdrv9MDusDlizYTPFAc.jpg", "popularity": 20.028}, {"id": 205584, "video": false, "vote_count": 2544, "vote_average": 5.4, "title": "Gods of Egypt", "release_date": "2016-02-25", "original_language": "en", "original_title": "Gods of Egypt", "genre_ids": [28, 12, 14], "backdrop_path": "/xy74anT8ZGhUIGVoalnHrmRDHbQ.jpg", "adult": false, "overview": "A common thief joins a mythical god on a quest through Egypt.", "poster_path": "/uPqAW07bGoljf3cmT5gecdOvVol.jpg", "popularity": 18.688}, {"adult": false, "backdrop_path": "/7RRuRcGuWkZGuRyYugfXn0Fgrrr.jpg", "genre_ids": [28, 80, 18, 53], "id": 949, "original_language": "en", "original_title": "Heat", "overview": "Obsessive master thief, Neil McCauley leads a top-notch crew on various daring heists throughout Los Angeles while determined detective, Vincent Hanna pursues him without rest. Each man recognizes and respects the ability and the dedication of the other even though they are aware their cat-and-mouse game may end in violence.", "poster_path": "/6pmLVffM9jEYK7VqDJqPblMxfEY.jpg", "release_date": "1995-12-15", "title": "Heat", "video": false, "vote_average": 7.8, "vote_count": 3615, "popularity": 21.973}, {"id": 168672, "video": false, "vote_count": 4861, "vote_average": 6.8, "title": "American Hustle", "release_date": "2013-12-12", "original_language": "en", "original_title": "American Hustle", "genre_ids": [80, 18], "backdrop_path": "/dpGGeiTPDzqrcbK7h8if2YHHBXN.jpg", "adult": false, "overview": "A conman and his seductive partner are forced to work for a wild FBI agent, who pushes them into a world of Jersey power-brokers and the Mafia.", "poster_path": "/mhB7C62lSMpGO2HYNaW6d7W3TVH.jpg", "popularity": 17.259}, {"id": 298, "video": false, "vote_count": 3875, "vote_average": 6.7, "title": "Ocean's Thirteen", "release_date": "2007-06-06", "original_language": "en", "original_title": "Ocean's Thirteen", "genre_ids": [80, 53], "backdrop_path": "/7ytb78OyijteFpFKKoZsYSvPw2u.jpg", "adult": false, "overview": "Danny Ocean's team of criminals are back and composing a plan more personal than ever. When ruthless casino owner Willy Bank doublecrosses Reuben Tishkoff, causing a heart attack, Danny Ocean vows that he and his team will do anything to bring down Willy Bank along with everything he's got. Even if it means asking for help from an enemy.", "poster_path": "/uDUebdX0SFqpjBrdC4ANxub3zjy.jpg", "popularity": 17.375}, {"id": 375588, "video": false, "vote_count": 1642, "vote_average": 5.8, "title": "Robin Hood", "release_date": "2018-11-21", "original_language": "en", "original_title": "Robin Hood", "genre_ids": [28, 12, 53], "backdrop_path": "/axjFiijtxdfK3CD9dMwrdgLwblD.jpg", "adult": false, "overview": "A war-hardened Crusader and his Moorish commander mount an audacious revolt against the corrupt English crown.", "poster_path": "/AiRfixFcfTkNbn2A73qVJPlpkUo.jpg", "popularity": 30.809}, {"id": 11886, "video": false, "vote_count": 2672, "vote_average": 7.2, "title": "Robin Hood", "release_date": "1973-11-08", "original_language": "en", "original_title": "Robin Hood", "genre_ids": [16, 10751], "backdrop_path": "/gidtawc8Mne3Dc5UrkvXhoIZqCZ.jpg", "adult": false, "overview": "With King Richard off to the Crusades, Prince John and his slithering minion, Sir Hiss, set about taxing Nottingham's citizens with support from the corrupt sheriff - and staunch opposition by the wily Robin Hood and his band of merry men.", "poster_path": "/84Sa0NvaMLIWpK4zscMhzOiTG78.jpg", "popularity": 25.96}, {"id": 300669, "video": false, "vote_count": 4121, "vote_average": 6.9, "title": "Don't Breathe", "release_date": "2016-06-08", "original_language": "en", "original_title": "Don't Breathe", "genre_ids": [80, 27, 53], "backdrop_path": "/bCThHXQ3aLLDU3KFST0rC8mTan5.jpg", "adult": false, "overview": "A group of teens break into a blind man's home thinking they'll get away with the perfect crime. They're wrong.", "poster_path": "/lw0IqOSMsQcy1QnVIEIDppLmNwk.jpg", "popularity": 15.933}, {"id": 500, "video": false, "vote_count": 8373, "vote_average": 8.2, "title": "Reservoir Dogs", "release_date": "1992-09-02", "original_language": "en", "original_title": "Reservoir Dogs", "genre_ids": [80, 53], "backdrop_path": "/fupyzBwFAn1PoeCXhp54bYVM2ER.jpg", "adult": false, "overview": "A botched robbery indicates a police informant, and the pressure mounts in the aftermath at a warehouse. Crime begets violence as the survivors -- veteran Mr. White, newcomer Mr. Orange, psychopathic parolee Mr. Blonde, bickering weasel Mr. Pink and Nice Guy Eddie -- unravel.", "poster_path": "/g7spS2Y4SZoQoC6Hn7zoqEqdYqR.jpg", "popularity": 33.825}, {"id": 8367, "video": false, "vote_count": 1845, "vote_average": 6.8, "title": "Robin Hood: Prince of Thieves", "release_date": "1991-06-14", "original_language": "en", "original_title": "Robin Hood: Prince of Thieves", "genre_ids": [28, 12, 18, 10749], "backdrop_path": "/jQ6whDbJWVKh82WYTeqxjm9Q5O6.jpg", "adult": false, "overview": "When the dastardly Sheriff of Nottingham murders Robin's father, the legendary archer vows vengeance. To accomplish his mission, Robin joins forces with a band of exiled villagers (and comely Maid Marian), and together they battle to end the evil sheriff's reign of terror.", "poster_path": "/bDqqiu3yi7V5idgdei61XBairBZ.jpg", "popularity": 19.739}, {"id": 4442, "video": false, "vote_count": 1690, "vote_average": 5.7, "title": "The Brothers Grimm", "release_date": "2005-08-26", "original_language": "en", "original_title": "The Brothers Grimm", "genre_ids": [28, 12, 35, 14, 53], "backdrop_path": "/tn7EGGDPYqDn6T1boyfwhizyHkZ.jpg", "adult": false, "overview": "Folklore collectors and con artists, Jake and Will Grimm, travel from village to village pretending to protect townsfolk from enchanted creatures and performing exorcisms. However, they are put to the test  when they encounter a real magical curse in a haunted forest with real magical beings, requiring genuine courage.", "poster_path": "/g6EgJUwwQre5RsvFj2hDsLzXUsH.jpg", "popularity": 15.627}, {"id": 8005, "video": false, "vote_count": 1143, "vote_average": 6.6, "title": "Robin Hood: Men in Tights", "release_date": "1993-07-28", "original_language": "en", "original_title": "Robin Hood: Men in Tights", "genre_ids": [35], "backdrop_path": "/u9qAKiXdBeK7oWzaG3XRK53Ozbt.jpg", "adult": false, "overview": "Robin Hood comes home after fighting in the Crusades to learn that the noble King Richard is in exile and that the despotic King John now rules England, with the help of the Sheriff of Rottingham. Robin Hood assembles a band of fellow patriots to do battle with King John and the Sheriff.", "poster_path": "/3pd3sdot0HfQTFzqgTUzaF4kcxP.jpg", "popularity": 15.113}, {"adult": false, "backdrop_path": "/6TBwBULY7nDt4ozkwkeEhbDXuIz.jpg", "genre_ids": [28, 16, 80], "id": 456611, "original_language": "ja", "original_title": "LUPIN THE IIIRD \u8840\u7159\u306e\u77f3\u5ddd\u4e94\u30a7\u9580", "overview": "Centered on the character of Goemon, this film is a sequel to the spin-off TV series, \"The Woman Called Fujiko Mine\" and its sequel film, \"Daisuke Jigen's Gravestone.\"", "poster_path": "/AeF2oitbvWfsuyz2FUs9Ohlqx6N.jpg", "release_date": "2017-02-04", "title": "Lupin the Third: Goemon Ishikawa's Spray of Blood", "video": false, "vote_average": 7.6, "vote_count": 18, "popularity": 12.588}], "total_pages": 16, "total_results": 309}, "recommendations": {"page": 1, "results": [], "total_pages": 1, "total_results": 0}, "credits": {"cast": [{"cast_id": 5, "character": "Jane Hoskins", "credit_id": "52fe4e47c3a36847f828792f", "gender": 1, "id": 93805, "name": "Greer Garson", "order": 0, "profile_path": "/dU4VxUO0DXoiaH5RsbzeHS1ZeGG.jpg"}, {"cast_id": 6, "character": "Nigel Duxbury", "credit_id": "52fe4e47c3a36847f8287933", "gender": 2, "id": 20392, "name": "Michael Wilding", "order": 1, "profile_path": "/xZ2EIXq0pAW2tbgIhVdBi1l1uUm.jpg"}, {"cast_id": 7, "character": "Juan Dinas", "credit_id": "52fe4e47c3a36847f8287937", "gender": 2, "id": 29282, "name": "Fernando Lamas", "order": 2, "profile_path": "/1zXs8XWxFgsGVqlt5cmUsxwqYII.jpg"}, {"cast_id": 8, "character": "Julia Wortin", "credit_id": "52fe4e47c3a36847f828793b", "gender": 1, "id": 13996, "name": "Marjorie Main", "order": 3, "profile_path": "/dB0fpVSeUbKMbyGHU1q1MmICT1N.jpg"}, {"cast_id": 9, "character": "Tracy Collans", "credit_id": "52fe4e47c3a36847f828793f", "gender": 2, "id": 40623, "name": "Hayden Rorke", "order": 4, "profile_path": "/mTeOA8C0j4ha8MF1CSfQjdLSni0.jpg"}, {"cast_id": 10, "character": "Cora Caighn", "credit_id": "52fe4e47c3a36847f8287943", "gender": 1, "id": 105019, "name": "Margalo Gillmore", "order": 5, "profile_path": "/hASi3PoeBPeZeHJn3H3LYRk9lYi.jpg"}, {"cast_id": 11, "character": "James Horace Caighn", "credit_id": "52fe4e47c3a36847f8287947", "gender": 2, "id": 83801, "name": "Ralph Dumke", "order": 6, "profile_path": "/e8P3P0M9n2brv2zdg7jsGNixmtP.jpg"}, {"cast_id": 12, "character": "Inspector McGraw", "credit_id": "52fe4e47c3a36847f828794b", "gender": 2, "id": 82835, "name": "Rhys Williams", "order": 7, "profile_path": "/jaD2gAkx9AhNABqDobe9D23oexT.jpg"}, {"cast_id": 13, "character": "Lady Sybil Minden", "credit_id": "52fe4e47c3a36847f828794f", "gender": 1, "id": 100795, "name": "Phyllis Stanley", "order": 8, "profile_path": "/iyZsj6fsdiCVbmy8tIFBExODHw4.jpg"}, {"cast_id": 14, "character": "Pamela Pemberson", "credit_id": "52fe4e47c3a36847f8287953", "gender": 1, "id": 7643, "name": "Natalie Schafer", "order": 9, "profile_path": "/8wZNn4Mp7hnB9QCjmnt0hBE3vkU.jpg"}, {"cast_id": 15, "character": "Sheriff (uncredited)", "credit_id": "52fe4e47c3a36847f8287957", "gender": 2, "id": 16055, "name": "Richard Hale", "order": 10, "profile_path": "/13t7VJms8C78TOYzqCdsCDmX4AJ.jpg"}, {"cast_id": 16, "character": "Party Guest (uncredited)", "credit_id": "5307aacfc3a36863b10003fb", "gender": 1, "id": 121323, "name": "Bess Flowers", "order": 11, "profile_path": "/akbW8jJl8GSXFpixFaobMOqvNv4.jpg"}], "crew": [{"credit_id": "52fe4e47c3a36847f8287919", "department": "Directing", "gender": 2, "id": 89906, "job": "Director", "name": "Edwin H. Knopf", "profile_path": null}, {"credit_id": "52fe4e47c3a36847f8287925", "department": "Writing", "gender": 2, "id": 84235, "job": "Writer", "name": "Leonard Spigelgass", "profile_path": null}, {"credit_id": "52fe4e47c3a36847f828792b", "department": "Writing", "gender": 2, "id": 10003, "job": "Writer", "name": "Karl Tunberg", "profile_path": null}, {"credit_id": "5c637fa7c3a36843c6d53c7c", "department": "Writing", "gender": 0, "id": 1041606, "job": "Theatre Play", "name": "Frederick Lonsdale", "profile_path": null}]}}