{"adult": false, "backdrop_path": "/mMKahLSpwb9Yj2B0tB6vku3tkGy.jpg", "belongs_to_collection": null, "budget": 0, "genres": [{"id": 99, "name": "Documentary"}], "homepage": "http://www.amctv.com/shows/breaking-bad", "id": 239459, "imdb_id": "tt3088036", "original_language": "en", "original_title": "No Half Measures: Creating the Final Season of Breaking Bad", "overview": "A documentary about the making of season five of the acclaimed AMC series Breaking Bad.", "popularity": 5.691, "poster_path": "/8OixSR45U5dbqv8F0tlspmTbXxN.jpg", "production_companies": [{"id": 34, "logo_path": "/GagSvqWlyPdkFHMfQ3pNq6ix9P.png", "name": "Sony Pictures", "origin_country": "US"}], "production_countries": [{"iso_3166_1": "US", "name": "United States of America"}], "release_date": "2013-11-26", "revenue": 0, "runtime": 135, "spoken_languages": [{"iso_639_1": "en", "name": "English"}], "status": "Released", "tagline": "", "title": "No Half Measures: Creating the Final Season of Breaking Bad", "video": false, "vote_average": 8.6, "vote_count": 77, "keywords": {"keywords": [{"id": 50244, "name": "making of"}]}, "similar": {"page": 1, "results": [{"adult": false, "backdrop_path": "/mAXgaPxxUQg6U446yz8KPRYSUT.jpg", "genre_ids": [12, 18, 10751], "id": 44826, "original_language": "en", "original_title": "Hugo", "overview": "Orphaned and alone except for an uncle, Hugo Cabret lives in the walls of a train station in 1930s Paris. Hugo's job is to oil and maintain the station's clocks, but to him, his more important task is to protect a broken automaton and notebook left to him by his late father. Accompanied by the goddaughter of an embittered toy merchant, Hugo embarks on a quest to solve the mystery of the automaton and find a place he can call home.", "poster_path": "/rSmmVKeW3nsP86V2S6R7ePs4CFw.jpg", "release_date": "2011-11-22", "title": "Hugo", "video": false, "vote_average": 7.1, "vote_count": 4578, "popularity": 20.1}, {"adult": false, "backdrop_path": "/pgqMuy1J2ektdMBDjD06NM3wCmi.jpg", "genre_ids": [99, 36], "id": 631308, "original_language": "en", "original_title": "Image Makers: The Adventures of America\u2019s Pioneer Cinematographers", "overview": "Daniel Raim's documentary following the history of America's first cinematographers.", "poster_path": "/5Ct4FM96C70osZoyJvxvI8cupDh.jpg", "release_date": "2019-11-06", "title": "Image Makers: The Adventures of America\u2019s Pioneer Cinematographers", "video": false, "vote_average": 7.7, "vote_count": 3, "popularity": 3.799}, {"id": 653567, "video": false, "vote_count": 0, "vote_average": 0.0, "title": "Miss Americana", "release_date": "2020-01-23", "original_language": "en", "original_title": "Miss Americana", "genre_ids": [99], "backdrop_path": "/x2P9usnTYSd1pTKDIW83cXhKYUo.jpg", "adult": false, "overview": "A raw and emotionally revealing look at one of the most iconic artists of our time during a transformational period in her life as she learns to embrace her role not only as a songwriter and performer, but as a woman harnessing the full power of her voice.", "poster_path": "/fmHMmBl3VftWdLTy8E1mvWCgLe7.jpg", "popularity": 19.526}, {"id": 4539, "video": false, "vote_count": 149, "vote_average": 8.0, "title": "Hearts of Darkness: A Filmmaker's Apocalypse", "release_date": "1991-09-06", "original_language": "en", "original_title": "Hearts of Darkness: A Filmmaker's Apocalypse", "genre_ids": [99], "backdrop_path": "/mQ6GJtc5xZpNQpVhAfoeZZbrzJO.jpg", "adult": false, "overview": "A chronicle of the production problems \u2014 including bad weather, actors' health, war near the filming locations, and more \u2014 which plagued the filming of Apocalypse Now, increasing costs and nearly destroying the life and career of Francis Ford Coppola.", "poster_path": "/iQLXcATpUxrRdEzxoDqzCgYllnT.jpg", "popularity": 8.496}, {"adult": false, "backdrop_path": "/1SjsVcGO2T2cCrhlhXi8gxQl7jx.jpg", "genre_ids": [16, 28, 35, 878], "id": 474395, "original_language": "en", "original_title": "Teen Titans Go! To the Movies", "overview": "All the major DC superheroes are starring in their own films, all but the Teen Titans, so Robin is determined to remedy this situation by getting over his role as a sidekick and becoming a movie star. Thus, with a few madcap ideas and an inspirational song in their hearts, the Teen Titans head to Hollywood to fulfill their dreams.", "poster_path": "/mFHihhE9hlvJEk2f1AqdLRaYHd6.jpg", "release_date": "2018-07-27", "title": "Teen Titans Go! To the Movies", "video": false, "vote_average": 7.0, "vote_count": 415, "popularity": 18.084}, {"id": 7446, "video": false, "vote_count": 3479, "vote_average": 6.5, "title": "Tropic Thunder", "release_date": "2008-08-09", "original_language": "en", "original_title": "Tropic Thunder", "genre_ids": [28, 12, 35, 10752], "backdrop_path": "/pr8sj9FozsiT45TMtkwFRWONNII.jpg", "adult": false, "overview": "Vietnam veteran 'Four Leaf' Tayback's memoir, Tropic Thunder, is being made into a film, but Director Damien Cockburn can\u2019t control the cast of prima donnas. Behind schedule and over budget, Cockburn is ordered by a studio executive to get filming back on track, or risk its cancellation. On Tayback's advice, Cockburn drops the actors into the middle of the jungle to film the remaining scenes but, unbeknownst to the actors and production, the group have been dropped in the middle of the Golden Triangle, the home of heroin-producing gangs.", "poster_path": "/ue9QdvhpcNPvKQyLY5a5Pd0tagS.jpg", "popularity": 28.425}, {"id": 856, "video": false, "vote_count": 3249, "vote_average": 7.4, "title": "Who Framed Roger Rabbit", "release_date": "1988-06-21", "original_language": "en", "original_title": "Who Framed Roger Rabbit", "genre_ids": [16, 35, 80, 14, 10751], "backdrop_path": "/9podqGmd36AJHO13HQIQHQZRTJC.jpg", "adult": false, "overview": "'Toon star Roger is worried that his wife Jessica is playing pattycake with someone else, so the studio hires detective Eddie Valiant to snoop on her. But the stakes are quickly raised when Marvin Acme is found dead and Roger is the prime suspect.", "poster_path": "/lYfRc57Kx9VgLZ48iulu0HKnM15.jpg", "popularity": 20.755}, {"id": 14, "video": false, "vote_count": 7295, "vote_average": 8.0, "title": "American Beauty", "release_date": "1999-09-15", "original_language": "en", "original_title": "American Beauty", "genre_ids": [18], "backdrop_path": "/z5J18ByLeOZ68iORfMXmxeFuwyL.jpg", "adult": false, "overview": "Lester Burnham, a depressed suburban father in a mid-life crisis, decides to turn his hectic life around after developing an infatuation with his daughter's attractive friend.", "poster_path": "/or1MP8BZIAjqWYxPdPX724ydKar.jpg", "popularity": 28.789}, {"id": 1581, "video": false, "vote_count": 2900, "vote_average": 7.0, "title": "The Holiday", "release_date": "2006-12-08", "original_language": "en", "original_title": "The Holiday", "genre_ids": [35, 10749], "backdrop_path": "/9TP7FGdo9ppnuXX3DbB9RtzYKkh.jpg", "adult": false, "overview": "Two women, one from the United States and one from the United Kingdom, swap homes at Christmastime after bad breakups with their boyfriends. Each woman finds romance with a local man but realizes that the imminent return home may end the relationship.", "poster_path": "/ixNtpuq8OVp4IckgzkSJIflFDkw.jpg", "popularity": 18.889}, {"adult": false, "backdrop_path": "/tr6OExnBfjLADi9OyZoW308mPAp.jpg", "genre_ids": [18, 35, 10749], "id": 74643, "original_language": "en", "original_title": "The Artist", "overview": "Hollywood, 1927: As silent movie star George Valentin wonders if the arrival of talking pictures will cause him to fade into oblivion, he sparks with Peppy Miller, a young dancer set for a big break.", "poster_path": "/i0mpvMIIjyubXsVKug9vX0lYpnd.jpg", "release_date": "2011-06-26", "title": "The Artist", "video": false, "vote_average": 7.4, "vote_count": 1977, "popularity": 10.661}, {"adult": false, "backdrop_path": "/r8pjTYuz3fDOFAhHNrhrsrh9lNa.jpg", "genre_ids": [18], "id": 294016, "original_language": "en", "original_title": "Trumbo", "overview": "The career of screenwriter Dalton Trumbo is halted by a witch hunt in the late 1940s when he defies the anti-communist HUAC committee and is blacklisted.", "poster_path": "/zShoKppVxFtRP8pIVeVQ4j2DEkz.jpg", "release_date": "2015-10-27", "title": "Trumbo", "video": false, "vote_average": 7.2, "vote_count": 971, "popularity": 11.721}, {"adult": false, "backdrop_path": "/tVi83ttAeyMJinYpy6xfgJSpzvP.jpg", "genre_ids": [18, 10749], "id": 11216, "original_language": "it", "original_title": "Nuovo Cinema Paradiso", "overview": "A filmmaker recalls his childhood, when he fell in love with the movies at his village's theater and formed a deep friendship with the theater's projectionist.", "poster_path": "/hYzCLju3W74nLhhRXfPkwDi1Tun.jpg", "release_date": "1988-11-17", "title": "Cinema Paradiso", "video": false, "vote_average": 8.4, "vote_count": 2031, "popularity": 17.915}, {"id": 1493, "video": false, "vote_count": 2184, "vote_average": 6.4, "title": "Miss Congeniality", "release_date": "2000-12-14", "original_language": "en", "original_title": "Miss Congeniality", "genre_ids": [28, 35, 80], "backdrop_path": "/p25mxAO1ArY8bgZX6Y7B2r3vo0k.jpg", "adult": false, "overview": "When the local FBI office receives a letter from a terrorist known only as 'The Citizen', it's quickly determined that he's planning his next act at the Miss America beauty pageant. Because tough-as-nails Gracie Hart is the only female Agent at the office, she's chosen to go undercover as the contestant from New Jersey.", "poster_path": "/7ujgPH708pOGvl2Y5IYvXeAGPC2.jpg", "popularity": 20.787}, {"id": 466272, "video": false, "vote_count": 4110, "vote_average": 7.5, "title": "Once Upon a Time\u2026 in Hollywood", "release_date": "2019-07-25", "original_language": "en", "original_title": "Once Upon a Time\u2026 in Hollywood", "genre_ids": [35, 18, 53], "backdrop_path": "/yB2hTgz9CTVYjlMWPSl3LPx5nWj.jpg", "adult": false, "overview": "Los Angeles, 1969. TV star Rick Dalton, a struggling actor specializing in westerns, and stuntman Cliff Booth, his best friend, try to survive in a constantly changing movie industry. Dalton is the neighbor of the young and promising actress and model Sharon Tate, who has just married the prestigious Polish director Roman Polanski\u2026", "poster_path": "/8j58iEBw9pOXFD2L0nt0ZXeHviB.jpg", "popularity": 95.043}, {"adult": false, "backdrop_path": "/1Y3ThCgBgGy0woQTUgjGxQmEByS.jpg", "genre_ids": [35], "id": 2294, "original_language": "en", "original_title": "Jay and Silent Bob Strike Back", "overview": "When Jay and Silent Bob learn that their comic-book alter egos, Bluntman and Chronic, have been sold to Hollywood as part of a big-screen movie that leaves them out of any royalties, the pair travels to Tinseltown to sabotage the production.", "poster_path": "/8xI9g6su8aKwg3Nk5qUnS025NyA.jpg", "release_date": "2001-08-22", "title": "Jay and Silent Bob Strike Back", "video": false, "vote_average": 6.4, "vote_count": 869, "popularity": 17.229}, {"id": 9360, "video": false, "vote_count": 1328, "vote_average": 4.9, "title": "Anaconda", "release_date": "1997-04-11", "original_language": "en", "original_title": "Anaconda", "genre_ids": [12, 27, 53], "backdrop_path": "/uAnJipu2hzZ04fY68d2UoB9eAa6.jpg", "adult": false, "overview": "A \"National Geographic\" film crew is taken hostage by an insane hunter, who takes them along on his quest to capture the world's largest - and deadliest - snake.", "poster_path": "/yGku6UoX3MKbjnVbcUtrJcyghyi.jpg", "popularity": 18.682}, {"id": 519010, "video": false, "vote_count": 617, "vote_average": 7.6, "title": "Pain and Glory", "release_date": "2019-03-22", "original_language": "es", "original_title": "Dolor y gloria", "genre_ids": [18], "backdrop_path": "/yCwcSCzcVKdI5Y9tA2T1s5Fr7jY.jpg", "adult": false, "overview": "Salvador Mallo, a filmmaker in the twilight of his career, remembers his life: his mother, his lovers, the actors he worked with. The sixties in a small village in Valencia, the eighties in Madrid, the present, when he feels an immeasurable emptiness, facing his mortality, the incapability of continuing filming, the impossibility of separating creation from his own life. The need of narrating his past can be his salvation.", "poster_path": "/rXv4tqt0UZsqyjCD3Kxjcs6OnHT.jpg", "popularity": 30.638}, {"id": 528888, "video": false, "vote_count": 353, "vote_average": 7.1, "title": "Dolemite Is My Name", "release_date": "2019-10-04", "original_language": "en", "original_title": "Dolemite Is My Name", "genre_ids": [35, 18, 36], "backdrop_path": "/8FuiFasbeFQj24Vqx6JqSCqj5lO.jpg", "adult": false, "overview": "The story of Rudy Ray Moore, who created the iconic big screen pimp character Dolemite in the 1970s.", "poster_path": "/uoAqJg7ZSmftnBGOkupU1ySZQU0.jpg", "popularity": 37.46}, {"adult": false, "backdrop_path": "/jDFuIr055fm4NA5UhQ9sgxfLbar.jpg", "genre_ids": [99], "id": 15302, "original_language": "en", "original_title": "The Pixar Story", "overview": "A look at the first years of Pixar Animation Studios - from the success of \"Toy Story\" and Pixar's promotion of talented people, to the building of its East Bay campus, the company's relationship with Disney, and its remarkable initial string of eight hits. The contributions of John Lasseter, Ed Catmull and Steve Jobs are profiled. The decline of two-dimensional animation is chronicled as three-dimensional animation rises. Hard work and creativity seem to share the screen in equal proportions.", "poster_path": "/zML03Zd84aqsZmi2sAq1FqLth7T.jpg", "release_date": "2007-08-28", "title": "The Pixar Story", "video": false, "vote_average": 7.6, "vote_count": 115, "popularity": 8.036}, {"adult": false, "backdrop_path": "/cdccKL6nLs21Ak27BWpryPrxqie.jpg", "genre_ids": [14, 18], "id": 422, "original_language": "it", "original_title": "8\u00bd", "overview": "Guido Anselmi, a film director, finds himself creatively barren at the peak of his career. Urged by his doctors to rest, Anselmi heads for a luxurious resort, but a sorry group gathers\u2014his producer, staff, actors, wife, mistress, and relatives\u2014each one begging him to get on with the show. In retreat from their dependency, he fantasizes about past women and dreams of his childhood.", "poster_path": "/5pQlc8dp5dXzWg1yM70DZrsDpOl.jpg", "release_date": "1963-02-14", "title": "8\u00bd", "video": false, "vote_average": 8.2, "vote_count": 1028, "popularity": 20.33}], "total_pages": 59, "total_results": 1178}, "recommendations": {"page": 1, "results": [{"adult": false, "backdrop_path": "/aR0JhOfNHD0i6wWDkVA8kHsUNO0.jpg", "genre_ids": [12, 37, 9648, 35], "id": 43310, "original_language": "en", "original_title": "The King and Four Queens", "overview": "Opportunistic con man Dan Kehoe ingratiates himself with the cantankerous mother of four outlaws and their beautiful widows in order to find their hidden gold.", "poster_path": "/w6lTWootXbnAH0HwPcEkShId9jH.jpg", "release_date": "1956-12-21", "title": "The King and Four Queens", "video": false, "vote_average": 4.2, "vote_count": 11, "popularity": 5.44}, {"adult": false, "backdrop_path": "/emZaYTYQb9w9Jt8fct10OHErbcz.jpg", "genre_ids": [99], "id": 268159, "original_language": "en", "original_title": "We Could Be King", "overview": "Germantown and Martin Luther King High Schools were bitter rivals for over 40 years. This past year, a budget crisis caused Philadelphia to lay off over 4000 employees and close 37 schools, including Germantown High. Now Germantown must merge with their former rival, King. Against overwhelming odds, a 27-year old first time head coach and a new principal fight to inspire young men from difficult circumstances to come together and lift each other toward a better future.", "poster_path": "/d4NHYIlpO6UQVCiDVTwZnwLIWNt.jpg", "release_date": "2014-04-23", "title": "We Could Be King", "video": false, "vote_average": 6.3, "vote_count": 9, "popularity": 2.331}, {"adult": false, "backdrop_path": "/rMlTVBqMHxDzmrBV20nAY5DYzdb.jpg", "genre_ids": [18], "id": 136146, "original_language": "en", "original_title": "Inside", "overview": "A mentally ill patient is questioned to see if he is fit for release.", "poster_path": "/l3hFA8rDQjoJWx8uN6YEyzOf748.jpg", "release_date": "2002-06-01", "title": "Inside", "video": false, "vote_average": 6.9, "vote_count": 16, "popularity": 2.879}, {"adult": false, "backdrop_path": "/4swdjvWkMuD1ZQQcYoOWQ6ovh0Q.jpg", "genre_ids": [99], "id": 285592, "original_language": "en", "original_title": "Ladies and Gentlemen, My Name Is Paul Heyman", "overview": "This wrestling documentary covers one of the most controversial managers and figures in WCW, ECW and WWE history! For the first time ever, fans get the full story of the life and career of Paul Heyman. From his beginnings as a ringside photographer at Madison Square Gardens, to becoming a manager at WCW, then heading up the infamous ECW, Paul has his own unique brand of over-the-top, in your face entertainment that has developed him a cult-like following across the globe.  Since joining WWE, Paul has gone on to great heights, including managing Brock Lesnar when he finally broke The Undertaker's WrestleMania Streak in 2014.", "poster_path": "/dySYRwKNAJasqTMA2y1l1y7o0D1.jpg", "release_date": "2014-08-05", "title": "WWE: Ladies and Gentlemen, My Name Is Paul Heyman", "video": false, "vote_average": 7.2, "vote_count": 9, "popularity": 2.876}, {"id": 19008, "video": false, "vote_count": 12, "vote_average": 7.0, "title": "The Garden", "release_date": "1995-06-09", "original_language": "sk", "original_title": "Z\u00e1hrada", "genre_ids": [35], "backdrop_path": "/gPkG2RosQgAUovmgw6ChMuitfk8.jpg", "adult": false, "overview": "Jakub's life arrived at a dead-end. He leaves his job, and gets into conflict with his father. The trouble just grows by his relation with a married woman. Breaking out, Jakub realizes the pleasures of the countryside in the old garden of his grandfather. He finds true love with an angel, and encounters various exciting moments of his new free life. Strange visitors arrive, and he wont get back to town anymore", "poster_path": "/sNvbEFXQejBpmI80m2LXZ5FL6SU.jpg", "popularity": 1.611}], "total_pages": 1, "total_results": 5}, "credits": {"cast": [{"cast_id": 4, "character": "Himself", "credit_id": "52fe4e93c3a36847f8299def", "gender": 2, "id": 2234, "name": "Michael Bowen", "order": 0, "profile_path": "/xGNcy5uCe0Ke5vqC7oZlOV3GGDx.jpg"}, {"cast_id": 5, "character": "Herself", "credit_id": "52fe4e93c3a36847f8299df3", "gender": 1, "id": 1217934, "name": "Betsy Brandt", "order": 1, "profile_path": "/zpmsca1HCVqYrtWXV9xdmsECDTI.jpg"}, {"cast_id": 6, "character": "Himself", "credit_id": "52fe4e93c3a36847f8299df7", "gender": 2, "id": 1223194, "name": "Sam Catlin", "order": 2, "profile_path": "/5Xt7ONeJpF3x2XZ9JwQO9vGDuJ1.jpg"}, {"cast_id": 7, "character": "Himself", "credit_id": "52fe4e93c3a36847f8299dfb", "gender": 2, "id": 17419, "name": "Bryan Cranston", "order": 3, "profile_path": "/fnglrIFnI5cK4OAh66AZN86mkFq.jpg"}, {"cast_id": 8, "character": "Himself", "credit_id": "52fe4e93c3a36847f8299dff", "gender": 2, "id": 66633, "name": "Vince Gilligan", "order": 4, "profile_path": "/rLSUjr725ez1cK7SKVxC9udO03Y.jpg"}, {"cast_id": 9, "character": "Herself", "credit_id": "52fe4e93c3a36847f8299e03", "gender": 1, "id": 134531, "name": "Anna Gunn", "order": 5, "profile_path": "/6yLKtfYFWbJp5HAjvCecQCYlmqk.jpg"}, {"cast_id": 10, "character": "Himself", "credit_id": "52fe4e93c3a36847f8299e07", "gender": 2, "id": 67367, "name": "Rian Johnson", "order": 6, "profile_path": "/uPWwvdppeZVKPbYcjXKU8zyuAVh.jpg"}, {"cast_id": 11, "character": "Himself", "credit_id": "52fe4e93c3a36847f8299e0b", "gender": 0, "id": 1223200, "name": "Stewart Lyons", "order": 7, "profile_path": null}, {"cast_id": 12, "character": "Herself", "credit_id": "52fe4e93c3a36847f8299e0f", "gender": 1, "id": 29779, "name": "Michelle MacLaren", "order": 8, "profile_path": "/7pSOTNnQB5GJXm5HylTY04Y2QAB.jpg"}, {"cast_id": 13, "character": "Himself", "credit_id": "52fe4e93c3a36847f8299e13", "gender": 2, "id": 14329, "name": "Dean Norris", "order": 9, "profile_path": "/owIr4b4VIlJu0m6Drofd3P0qDl5.jpg"}, {"cast_id": 14, "character": "Himself", "credit_id": "52fe4e93c3a36847f8299e17", "gender": 2, "id": 84497, "name": "Aaron Paul", "order": 10, "profile_path": "/u8UdsB9yenM4uHEjmce4nkBn48X.jpg"}, {"cast_id": 15, "character": "Herself", "credit_id": "52fe4e93c3a36847f8299e1b", "gender": 1, "id": 1223198, "name": "Moira Walley-Beckett", "order": 11, "profile_path": "/no9Qs6FPlMH0242d1hW8BOMn5zU.jpg"}], "crew": [{"credit_id": "52fe4e93c3a36847f8299ddf", "department": "Directing", "gender": 0, "id": 1210260, "job": "Director", "name": "Stuart Richardson", "profile_path": null}, {"credit_id": "52fe4e93c3a36847f8299de5", "department": "Crew", "gender": 0, "id": 1275035, "job": "Cinematography", "name": "Tyler Rumph", "profile_path": null}, {"credit_id": "52fe4e93c3a36847f8299deb", "department": "Editing", "gender": 0, "id": 1275036, "job": "Editor", "name": "Hugo Diaz", "profile_path": null}]}}