{"adult": false, "backdrop_path": "/7zsxs30MKd35mzHZw9KpVhQmPo8.jpg", "belongs_to_collection": null, "budget": 0, "genres": [{"id": 35, "name": "Comedy"}, {"id": 18, "name": "Drama"}, {"id": 10770, "name": "TV Movie"}], "homepage": null, "id": 23999, "imdb_id": "tt0075622", "original_language": "en", "original_title": "Abigail's Party", "overview": "Beverly Moss invites her new neighbours, Angela and Tony, over for drinks. She has also asked her divorced neighbour Susan, whose fifteen-year-old daughter Abigail is holding a party back in their house. Beverly's husband Laurence comes home late from work, just before the guests arrive. The gathering starts off in a stiff, insensitive, British-middle-class way as the virtual strangers tentatively gather, until Beverly and Laurence start sniping at each other. As Beverly serves more drinks and the alcohol takes effect, Beverly flirts more and more overtly with Tony, as Laurence sits impotently by.", "popularity": 4.112, "poster_path": "/lyO5WrxFJP1dsMXbbKk3z0jWUv.jpg", "production_companies": [{"id": 3324, "logo_path": "/16fY7pucCzn7WSOYxOGRHlAayL3.png", "name": "BBC", "origin_country": "GB"}], "production_countries": [{"iso_3166_1": "GB", "name": "United Kingdom"}], "release_date": "1977-11-01", "revenue": 0, "runtime": 101, "spoken_languages": [{"iso_639_1": "en", "name": "English"}], "status": "Released", "tagline": "", "title": "Abigail's Party", "video": false, "vote_average": 7.4, "vote_count": 19, "keywords": {"keywords": [{"id": 10061, "name": "dysfunctional marriage"}, {"id": 10275, "name": "house party"}, {"id": 10481, "name": "tension"}, {"id": 158431, "name": "united kingdom"}]}, "similar": {"page": 1, "results": [{"id": 197, "video": false, "vote_count": 6042, "vote_average": 7.9, "title": "Braveheart", "release_date": "1995-05-24", "original_language": "en", "original_title": "Braveheart", "genre_ids": [28, 18, 36, 10752], "backdrop_path": "/7A3uAcB6KAScHcFw0giptE1mhAZ.jpg", "adult": false, "overview": "Enraged at the slaughter of Murron, his new bride and childhood love, Scottish warrior William Wallace slays a platoon of the local English lord's soldiers. This leads the village to revolt and, eventually, the entire country to rise up against English rule.", "poster_path": "/or1gBugydmjToAEq7OZY0owwFk.jpg", "popularity": 28.111}, {"adult": false, "backdrop_path": "/g3LYarEY9LjB28Ct2trwFN72gqZ.jpg", "genre_ids": [35], "id": 437557, "original_language": "en", "original_title": "Blockers", "overview": "When three parents discover their daughters\u2019 pact to lose their virginity at prom, they launch a covert one-night operation to stop the teens from sealing the deal.", "poster_path": "/uvlUQXg0AlpGzKukO11K7QtW3Yu.jpg", "release_date": "2018-03-14", "title": "Blockers", "video": false, "vote_average": 6.2, "vote_count": 1153, "popularity": 18.075}, {"id": 787, "video": false, "vote_count": 6328, "vote_average": 6.6, "title": "Mr. & Mrs. Smith", "release_date": "2005-06-07", "original_language": "en", "original_title": "Mr. & Mrs. Smith", "genre_ids": [28, 35, 18, 53], "backdrop_path": "/fAwYX0Fha35CaYYUJ06VTN3bEeh.jpg", "adult": false, "overview": "After five (or six) years of vanilla-wedded bliss, ordinary suburbanites John and Jane Smith are stuck in a huge rut. Unbeknownst to each other, they are both coolly lethal, highly-paid assassins working for rival organisations. When they discover they're each other's next target, their secret lives collide in a spicy, explosive mix of wicked comedy, pent-up passion, nonstop action and high-tech weaponry.", "poster_path": "/dqs5BmwSULtB28Kls3IB6khTQwp.jpg", "popularity": 37.567}, {"id": 207703, "video": false, "vote_count": 11138, "vote_average": 7.6, "title": "Kingsman: The Secret Service", "release_date": "2014-12-13", "original_language": "en", "original_title": "Kingsman: The Secret Service", "genre_ids": [28, 12, 35, 80], "backdrop_path": "/7McaexSsSTLD8V17UgaZAfI0Cu9.jpg", "adult": false, "overview": "The story of a super-secret spy organization that recruits an unrefined but promising street kid into the agency's ultra-competitive training program just as a global threat emerges from a twisted tech genius.", "poster_path": "/8x7ej0LnHdKUqilNNJXYOeyB6L9.jpg", "popularity": 24.161}, {"id": 12162, "video": false, "vote_count": 3372, "vote_average": 7.3, "title": "The Hurt Locker", "release_date": "2008-10-10", "original_language": "en", "original_title": "The Hurt Locker", "genre_ids": [18, 53, 10752], "backdrop_path": "/3iPnZOXR9mpcK8RwvAW7b7Axr8v.jpg", "adult": false, "overview": "Forced to play a dangerous game of cat-and-mouse in the chaos of war, an elite Army bomb squad unit must come together in a city where everyone is a potential enemy and every object could be a deadly bomb.", "poster_path": "/3ZEqU9Ykmn8zGDUwWnmTfHaaWRB.jpg", "popularity": 20.71}, {"id": 35, "video": false, "vote_count": 5022, "vote_average": 6.9, "title": "The Simpsons Movie", "release_date": "2007-07-26", "original_language": "en", "original_title": "The Simpsons Movie", "genre_ids": [16, 35, 10751], "backdrop_path": "/tNpqx8PcFdgKgheUWmNqNF9RNGm.jpg", "adult": false, "overview": "After Homer accidentally pollutes the town's water supply, Springfield is encased in a gigantic dome by the EPA and the Simpsons are declared fugitives.", "poster_path": "/eCytnEriVur3rT47NWfkgPXD9qs.jpg", "popularity": 19.148}, {"adult": false, "backdrop_path": "/eGxubizUGFOTHlywjizEmHSjoSO.jpg", "genre_ids": [36, 10770, 18], "id": 536176, "original_language": "en", "original_title": "Brexit: The Uncivil War", "overview": "Political strategist Dominic Cummings leads a popular but controversial campaign to convince British voters to leave the European Union from 2015 up until the present day.", "poster_path": "/fKfYKQQMNARXOgyf5ieVeGWlNQU.jpg", "release_date": "2019-01-19", "title": "Brexit: The Uncivil War", "video": false, "vote_average": 6.6, "vote_count": 116, "popularity": 11.148}, {"id": 41446, "video": false, "vote_count": 1791, "vote_average": 6.2, "title": "Scream 4", "release_date": "2011-04-11", "original_language": "en", "original_title": "Scream 4", "genre_ids": [27, 9648], "backdrop_path": "/5VqyrIpMbnwXdZFcISmtKr3n75A.jpg", "adult": false, "overview": "Sidney Prescott, now the author of a self-help book, returns home to Woodsboro on the last stop of her book tour. There she reconnects with Sheriff Dewey and Gale, who are now married, as well as her cousin Jill and her Aunt Kate. Unfortunately, Sidney's appearance also brings about the return of Ghostface, putting Sidney, Gale, and Dewey, along with Jill, her friends, and the whole town of Woodsboro in danger.", "poster_path": "/g0YcSd5QpgGXOjg9tl0if0soOkE.jpg", "popularity": 19.075}, {"adult": false, "backdrop_path": "/sDiGcjWhSu42dCw0jQmBInAkDZ9.jpg", "genre_ids": [28, 53], "id": 379149, "original_language": "en", "original_title": "The Foreigner", "overview": "Quan is a humble London businessman whose long-buried past erupts in a revenge-fueled vendetta when the only person left for him to love \u2013 his teenage daughter \u2013 dies in a senseless act of politically-motivated terrorism. His relentless search to find the terrorists leads to a cat-and-mouse conflict with a British government official whose own past may hold the clues to the identities of the elusive killers.", "poster_path": "/rwM4hzrmc5HiWfQD9ls9DL4QgGl.jpg", "release_date": "2017-09-28", "title": "The Foreigner", "video": false, "vote_average": 6.7, "vote_count": 1247, "popularity": 20.765}, {"id": 12444, "video": false, "vote_count": 11880, "vote_average": 7.8, "title": "Harry Potter and the Deathly Hallows: Part 1", "release_date": "2010-10-17", "original_language": "en", "original_title": "Harry Potter and the Deathly Hallows: Part 1", "genre_ids": [12, 14], "backdrop_path": "/8YA36faYlkpfp6aozcGsqq68pZ9.jpg", "adult": false, "overview": "Harry, Ron and Hermione walk away from their last year at Hogwarts to find and destroy the remaining Horcruxes, putting an end to Voldemort's bid for immortality. But with Harry's beloved Dumbledore dead and Voldemort's unscrupulous Death Eaters on the loose, the world is more dangerous than ever.", "poster_path": "/bk1EWfRW0U76sWZiLDL1T7J0XV9.jpg", "popularity": 39.163}, {"id": 206647, "video": false, "vote_count": 7173, "vote_average": 6.4, "title": "Spectre", "release_date": "2015-10-26", "original_language": "en", "original_title": "Spectre", "genre_ids": [28, 12, 80], "backdrop_path": "/wVTYlkKPKrljJfugXN7UlLNjtuJ.jpg", "adult": false, "overview": "A cryptic message from Bond\u2019s past sends him on a trail to uncover a sinister organization. While M battles political forces to keep the secret service alive, Bond peels back the layers of deceit to reveal the terrible truth behind SPECTRE.", "poster_path": "/hE24GYddaxB9MVZl1CaiI86M3kp.jpg", "popularity": 36.838}, {"adult": false, "backdrop_path": "/tdcb0RHusaQxScWORevtKQ0u9NG.jpg", "genre_ids": [80, 27, 9648], "id": 4232, "original_language": "en", "original_title": "Scream", "overview": "A killer known as Ghostface begins killing off teenagers, and as the body count begins rising, one girl and her friends find themselves contemplating the 'rules' of horror films as they find themselves living in a real-life one.", "poster_path": "/ewi7gYW22t8T3piRvrXO73GlzuL.jpg", "release_date": "1996-12-20", "title": "Scream", "video": false, "vote_average": 7.2, "vote_count": 3295, "popularity": 24.703}, {"id": 509730, "video": false, "vote_count": 131, "vote_average": 5.7, "title": "The Queen's Corgi", "release_date": "2019-02-13", "original_language": "en", "original_title": "The Queen's Corgi", "genre_ids": [16, 10751], "backdrop_path": "/h1IhhdKIq56cFO8RuZZoU21a4Zu.jpg", "adult": false, "overview": "Since his arrival at Buckingham palace, Rex lives a life of luxury. Top dog, he has superseded his three fellow Corgis in Her Majesty\u2019s heart. His arrogance can be quite irritating. When he causes a diplomatic incident during an official dinner with the President of the United States, he falls into disgrace. Betrayed by one of his peers, Rex becomes a stray dog in the streets of London. How can he redeem himself? In love, he will find the resources to surpass himself in the face of great danger\u2026", "poster_path": "/xcl4vYTqqzwn3ihUpjCQz0jqhV3.jpg", "popularity": 19.432}, {"id": 29572, "video": false, "vote_count": 122, "vote_average": 5.8, "title": "The Man Who Cried", "release_date": "2000-08-29", "original_language": "en", "original_title": "The Man Who Cried", "genre_ids": [18, 10402, 10749, 10752], "backdrop_path": "/rKVEQ9OkOA3kCCpKdywefulhTih.jpg", "adult": false, "overview": "A young refugee travels from Russia to America in search of her lost father and falls in love with a gypsy horseman.", "poster_path": "/hMtC9N4h5kpyObfjAbOXilVnjHg.jpg", "popularity": 10.989}, {"id": 97367, "video": false, "vote_count": 3024, "vote_average": 6.9, "title": "The Place Beyond the Pines", "release_date": "2013-03-14", "original_language": "en", "original_title": "The Place Beyond the Pines", "genre_ids": [80, 18], "backdrop_path": "/kamIvkwKZUdUgxtudMThuY8EiJ4.jpg", "adult": false, "overview": "A motorcycle stunt rider considers committing a crime in order to provide for his wife and child, an act that puts him on a collision course with a cop-turned-politician.", "poster_path": "/cdsRBoAditFXVhSr8SgnJ2WTBkX.jpg", "popularity": 13.775}, {"adult": false, "backdrop_path": "/4AXlsl0azR9d9xjX9tDdfAeM8lt.jpg", "genre_ids": [80, 18, 9648, 10749], "id": 25376, "original_language": "es", "original_title": "El secreto de sus ojos", "overview": "A retired legal counselor writes a novel hoping to find closure for one of his past unresolved homicide cases and for his unreciprocated love with his superior - both of which still haunt him decades later.", "poster_path": "/z2mUzEqDi7DtA1E4mYzVjbzXnqE.jpg", "release_date": "2009-08-13", "title": "The Secret in Their Eyes", "video": false, "vote_average": 7.9, "vote_count": 1288, "popularity": 12.274}, {"id": 9319, "video": false, "vote_count": 935, "vote_average": 6.7, "title": "The Last Boy Scout", "release_date": "1991-12-11", "original_language": "en", "original_title": "The Last Boy Scout", "genre_ids": [28, 53], "backdrop_path": "/7crRVZFSGSrDk0wR3Lahxr1Fb7P.jpg", "adult": false, "overview": "When the girl that detective Joe Hallenback is protecting gets murdered, the boyfriend of the murdered girl attempts to investigate and solve the case. What they discover is that there is deep seated corruption going on between a crooked politician and the owner of a pro football team.", "poster_path": "/cTl2WqsERuZ5vYmAmtfsPIJBLr0.jpg", "popularity": 16.211}, {"id": 566222, "video": false, "vote_count": 186, "vote_average": 7.0, "title": "The Great Hack", "release_date": "2019-01-26", "original_language": "en", "original_title": "The Great Hack", "genre_ids": [99], "backdrop_path": "/mGyMkoip5CpfcfNNQFIiuoIQkKb.jpg", "adult": false, "overview": "Data\u2014arguably the world\u2019s most valuable asset\u2014is being weaponized to wage cultural and political wars. The dark world of data exploitation is uncovered through the unpredictable, personal journeys of players on different sides of the explosive Cambridge Analytica/Facebook data story.", "poster_path": "/uIrGgUzasEUA7v8uChRhUUFzLwE.jpg", "popularity": 14.33}, {"id": 768, "video": false, "vote_count": 1604, "vote_average": 6.7, "title": "From Hell", "release_date": "2001-10-19", "original_language": "en", "original_title": "From Hell", "genre_ids": [27, 9648, 53], "backdrop_path": "/2aLBewiag47U7Ef8rMZSlYQhi0P.jpg", "adult": false, "overview": "Frederick Abberline is an opium-huffing inspector from Scotland Yard who falls for one of Jack the Ripper's prostitute targets in this Hughes brothers adaption of a graphic novel that posits the Ripper's true identity.", "poster_path": "/f3J77Cy3pRSeeN52Pk8oIvgi6IN.jpg", "popularity": 13.222}, {"id": 512, "video": false, "vote_count": 895, "vote_average": 6.6, "title": "Scoop", "release_date": "2006-07-27", "original_language": "en", "original_title": "Scoop", "genre_ids": [35, 9648], "backdrop_path": "/uAq7xPyAFQVjYsZ3Q0CvPc7qzYy.jpg", "adult": false, "overview": "An American journalism student in London scoops a big story, and begins an affair with an aristocrat as the incident unfurls.", "poster_path": "/mRRSxsCnJriz3geocV4i6Lm0nox.jpg", "popularity": 12.582}], "total_pages": 9, "total_results": 180}, "recommendations": {"page": 1, "results": [{"adult": false, "backdrop_path": "/oU2ZzVjqEA3KMxnDQehg1chkHcW.jpg", "genre_ids": [18], "id": 167235, "original_language": "de", "original_title": "Hitlerjunge Quex", "overview": "A Nazi propaganda film based upon the life and death of Hitler Youth Heini Volker, killed while distributing flyers in a Communist neighborhood.", "poster_path": "/6mdG71sZSttD1FUBaJZYHK6JsWy.jpg", "release_date": "1933-09-10", "title": "Hitlerjunge Quex", "video": false, "vote_average": 5.2, "vote_count": 6, "popularity": 2.902}, {"adult": false, "backdrop_path": null, "genre_ids": [99], "id": 259995, "original_language": "en", "original_title": "Angano... Angano... nouvelles de Madagascar", "overview": "Venerable storytellers recount for the camera and their listeners the founding myths of Malagasy culture.", "poster_path": "/ddHjpoB0HxLii0r0QrHyL0j2hWn.jpg", "release_date": "1989-03-04", "title": "Angano... Angano... Tales from Madagascar", "video": false, "vote_average": 5.2, "vote_count": 6, "popularity": 2.763}, {"adult": false, "backdrop_path": "/9Fxk5xEW3hgkFRtEMW8849d4KmK.jpg", "genre_ids": [35, 14], "id": 47981, "original_language": "en", "original_title": "Franz Kafka's It's a Wonderful Life", "overview": "Franz Kafka has been stricken with a serious case of writer's block on Christmas Eve. He's trying to get started on his latest short story, \"The Metamorphosis\", but he isn't sure what his protagonist Gregor Samsa should become. As Kafka struggles with indecision, he has to contend with a loud holiday party downstairs, several unexpected guests, and a sinister knife salesman who has a bone to pick with him.", "poster_path": "/fiCdxDZEoiVelVc3dmF4KkY20ZD.jpg", "release_date": "1993-01-01", "title": "Franz Kafka's It's a Wonderful Life", "video": false, "vote_average": 6.5, "vote_count": 14, "popularity": 3.612}, {"adult": false, "backdrop_path": "/tysRoWjQOuTwQ7DLag0pPS9eIPI.jpg", "genre_ids": [10402, 99], "id": 60399, "original_language": "en", "original_title": "Radiohead: In Rainbows \u2013 From the Basement", "overview": "A live performance by Radiohead of their 2007 album In Rainbows. This was their first of two full-episode performances, filmed at Maida Vale Studios in London, as part of the \u2018From the Basement\u2019 television series produced by Nigel Godrich, Dilly Gent, James Chads and John Woollcombe.", "poster_path": "/hBlKx7NhAvpgFJLDux7IqxB4Olb.jpg", "release_date": "2008-05-04", "title": "Radiohead: In Rainbows \u2013 From the Basement", "video": false, "vote_average": 7.3, "vote_count": 8, "popularity": 3.898}, {"id": 48234, "video": false, "vote_count": 6, "vote_average": 4.1, "title": "Key Witness", "release_date": "1947-10-09", "original_language": "en", "original_title": "Key Witness", "genre_ids": [80], "backdrop_path": "/oYpX42Em4NIfZvuPVCpChJ3D3Xk.jpg", "adult": false, "overview": "A man takes over the identity of a dead man while on the lam from a crime he didn't commit.", "poster_path": "/tkBgRUD9MHVJCmybIlOOqII7huP.jpg", "popularity": 3.459}, {"adult": false, "backdrop_path": "/toVwF8BF911ci0CCsGzmDrOrSpn.jpg", "genre_ids": [99], "id": 90511, "original_language": "en", "original_title": "Welfare", "overview": "WELFARE shows the nature and complexity of the welfare system in sequences illustrating the staggering diversity of problems that constitute welfare: housing, unemployment, divorce, medical and psychiatric problems, abandoned and abused children, and the elderly. These issues are presented in a context where welfare workers as well as clients struggle to cope with and interpret the laws and regulations that govern their work and life.", "poster_path": "/ubZeIyelsH0CV2o6NA46p5xQNea.jpg", "release_date": "1975-09-23", "title": "Welfare", "video": false, "vote_average": 7.1, "vote_count": 12, "popularity": 2.767}, {"adult": false, "backdrop_path": "/yPeFlbvDQsGqImNk5j0qwTGQAIi.jpg", "genre_ids": [80, 99], "id": 89191, "original_language": "en", "original_title": "Saving Face", "overview": "Every year hundreds of people - mostly women - are attacked with acid in Pakistan. Follow several of these survivors, their fight for justice, and a Pakistani plastic surgeon who has returned to his homeland to help them restore their faces and their lives.", "poster_path": "/qNEbiQZwNeBvRtMsTEGa1g4JhoM.jpg", "release_date": "2012-03-08", "title": "Saving Face", "video": false, "vote_average": 7.2, "vote_count": 11, "popularity": 3.73}, {"id": 41948, "video": false, "vote_count": 12, "vote_average": 7.3, "title": "Freeze Die Come to Life", "release_date": "1990-08-01", "original_language": "ru", "original_title": "\u0417\u0430\u043c\u0440\u0438-\u0443\u043c\u0440\u0438-\u0432\u043e\u0441\u043a\u0440\u0435\u0441\u043d\u0438!", "genre_ids": [18], "backdrop_path": "/oTjGk4s2qgoGPkid5i5VjSn0Z4X.jpg", "adult": false, "overview": "Stuck in a mining town near Vladivostok in 1947 amongst Soviet exiles and Japanese POWs (Japanese prisoners remained in Siberia for years after the war had ended), the kids have to come up with something to keep them busy. Two friends, Valerka and Galia, play some peculiar, very dangerous games of their own amid the man-made wasteland of Suchan.", "poster_path": "/gelazFMTgmYkOlnXn4h3qAl45ct.jpg", "popularity": 1.876}, {"adult": false, "backdrop_path": null, "genre_ids": [99], "id": 19054, "original_language": "en", "original_title": "The London Nobody Knows", "overview": "Based on Geoffrey Fletcher\u2019s book, this captivating documentary exposes the real London of the swinging sixties. Turning its back on familiar sights, the film explores the hidden details of a crumbling metropolis. With James Mason as our Guide, we are led on an tour of the weird and wonderful pockets of London from abandoned music-halls to egg breaking factories.", "poster_path": "/lSCMCXMx8oIviIAzkMkGhtefOxC.jpg", "release_date": "1967-01-01", "title": "The London Nobody Knows", "video": false, "vote_average": 5.9, "vote_count": 6, "popularity": 0.84}, {"adult": false, "backdrop_path": "/bodYok5t86WXqLjvNUXLqK20n1t.jpg", "genre_ids": [18], "id": 82027, "original_language": "pl", "original_title": "Wrony", "overview": "A thin child of about 10, nicknamed \"Crow\" because she mimics the bird, has no friends and rejects a teacher's hug. At home, she is left on her own, her mom locks her out while entertaining a lover or is asleep. One morning, Crow sees a chubby, cherubic child hugged by both parents as the father leaves for work. When the toddler is left alone, Crow lifts her through the fence and kidnaps her. That day, Crow tries to mother the child, alternately playing with and scolding her, taking her to the beach, leaving shore in a boat, pushing her into the sea in a pique, and eventually carrying the sleeping child back home. Crow returns to her own mother and asks for affection.", "poster_path": "/MgznJeJRhlPodKS45YM2uFSbcE.jpg", "release_date": "1994-09-12", "title": "Crows", "video": false, "vote_average": 6.2, "vote_count": 13, "popularity": 1.877}, {"adult": false, "backdrop_path": null, "genre_ids": [16, 14, 27], "id": 136601, "original_language": "ja", "original_title": "Chumon no ooi ryori-ten", "overview": "A short film based on a story by Japanese writer Kenji Miyazawa in which two young British hunters get lost in the woods and discover a strange restaurant. Are the hunters about to discover how it feels to be hunted?", "poster_path": "/zOO4sfqOkBqNxVYgogkTVuMsksl.jpg", "release_date": "1991-08-03", "title": "The Restaurant of Many Orders", "video": false, "vote_average": 6.9, "vote_count": 9, "popularity": 1.169}, {"adult": false, "backdrop_path": null, "genre_ids": [99], "id": 195012, "original_language": "en", "original_title": "To Fly!", "overview": "Early IMAX documentary about the development of human flight.", "poster_path": "/tuuKSaUTg8MBwxPWI3vM8LlKOAC.jpg", "release_date": "1976-07-01", "title": "To Fly!", "video": false, "vote_average": 6.3, "vote_count": 5, "popularity": 0.771}, {"id": 81611, "video": false, "vote_count": 13, "vote_average": 4.2, "title": "The German Chainsaw Massacre", "release_date": "1990-11-29", "original_language": "de", "original_title": "Das deutsche Kettens\u00e4genmassaker", "genre_ids": [35, 27, 53], "backdrop_path": "/xQ3L5vNbL3hSEkxKZa4opefcnkK.jpg", "adult": false, "overview": "", "poster_path": "/dGLvpYeh7nmJBSikNiZvEQmnGkl.jpg", "popularity": 1.859}, {"adult": false, "backdrop_path": null, "genre_ids": [99], "id": 282870, "original_language": "ar", "original_title": "\u0627\u0644\u062d\u064a\u0627\u0629 \u0627\u0644\u064a\u0648\u0645\u064a\u0629 \u0641\u064a \u0642\u0631\u064a\u0629 \u0633\u0648\u0631\u064a\u0629", "overview": "The first documentary to present an unabashed critique of the impact of the Syrian government\u2019s agricultural and land reforms, Everyday Life in a Syrian Village delivers a powerful jab at the state\u2019s conceit of redressing social and economic inequities.", "poster_path": "/tKguFwRFYu9NMpLVlXOLoRwmYWZ.jpg", "release_date": "1974-01-02", "title": "Everyday Life in a Syrian Village", "video": false, "vote_average": 8.0, "vote_count": 4, "popularity": 0.742}, {"adult": false, "backdrop_path": "/oLXVSSvaghazH48eaXsca5FYgbM.jpg", "genre_ids": [99, 10402], "id": 35922, "original_language": "en", "original_title": "The Rolling Stones: Cocksucker Blues", "overview": "This fly-on-the-wall documentary follows the Rolling Stones on their 1972 North American Tour, their first return to the States since the tragedy at Altamont.", "poster_path": "/ohkYXuOmvMRg77ucUODcxeqAwCL.jpg", "release_date": "1972-01-01", "title": "The Rolling Stones: Cocksucker Blues", "video": false, "vote_average": 6.1, "vote_count": 7, "popularity": 3.495}, {"adult": false, "backdrop_path": null, "genre_ids": [35, 10749], "id": 88448, "original_language": "en", "original_title": "In the Mood", "overview": "When 15-year-old Sonny Wisecarver has an affair with his older neighbor Francine and then runs off to marry her, a stern judge has the union annulled. Then, when Sonny finds himself before the same judge after getting involved with another woman in her 20s, the publicity from this case makes him the object of affection for millions of young women", "poster_path": "/dBDnamKg62epmA9AvMmeXRGyKQB.jpg", "release_date": "1987-09-16", "title": "In the Mood", "video": false, "vote_average": 6.2, "vote_count": 10, "popularity": 4.547}, {"adult": false, "backdrop_path": "/h8moBSsv82lMDF3EZpOSVTVpuhN.jpg", "genre_ids": [12, 80, 18], "id": 81529, "original_language": "es", "original_title": "Linda", "overview": "Betsy Norman is a happy assistant at a luxurious Spanish hotel. Shiela, the hotel owner, caters for all wishes of her clientele with another lucrative business, the brothel \"Rio Amore\" where clients from all over the world come to relax with the girls and watch the sado-masochistic shows. Linda, Betsy's sister, is drugged and forced to work as a prostitute there.", "poster_path": "/f2R9qZoeee8N6CH90FCxTJ9J49I.jpg", "release_date": "1981-05-29", "title": "The Story of Linda", "video": false, "vote_average": 5.8, "vote_count": 5, "popularity": 5.94}, {"adult": false, "backdrop_path": "/gfhPICLb5SSzdKob9sm1CQeASEB.jpg", "genre_ids": [99], "id": 57722, "original_language": "en", "original_title": "Kings of Pastry", "overview": "The collar awarded to the winners of the Meilleur Ouvrier de France (Best Craftsman in France) is more than the ultimate recognition for every pastry chef - it is a dream and an obsession. The 3-day competition includes everything from delicate chocolates to precarious six foot sugar sculptures and requires that the chefs have extraordinary skill, nerves of steel and luck. The film follows Jacquy Pfeiffer, founder of The French Pastry School in Chicago, as he returns to France to compete against 15 of France's leading pastry chefs. The filmmakers were given first time/exclusive access to this high-stakes drama of passion, sacrifice, disappointment and joy in the quest to have President Sarkozy declare them one of the best in France.", "poster_path": "/v4uqhHO7Zgnga4Cw8Uqxx1TC4vm.jpg", "release_date": "2009-11-06", "title": "Kings of Pastry", "video": false, "vote_average": 6.8, "vote_count": 16, "popularity": 4.26}, {"adult": false, "backdrop_path": null, "genre_ids": [18, 10770], "id": 124485, "original_language": "fr", "original_title": "Portrait d'une jeune fille de la fin des ann\u00e9es 60 \u00e0 Bruxelles", "overview": "The main character, Michele, spends the hour discussing her views of life with some old and new friends, and tries to understand her own feelings about her place in the world and her sexuality, while a camera follows along at close range.", "poster_path": "/tRAU2GJcjMy2GqT3tcD7YZGSkBv.jpg", "release_date": "1994-11-04", "title": "Portrait of a Young Girl at the End of the '60s in Brussels", "video": false, "vote_average": 7.1, "vote_count": 8, "popularity": 1.177}, {"adult": false, "backdrop_path": "/5tGcnPKtWLL9hcJvelpMeUyMs7r.jpg", "genre_ids": [35], "id": 265640, "original_language": "en", "original_title": "Nuts in May", "overview": "A middle-class couple go camping in Dorset, but peace and quiet elude them.", "poster_path": "/hEJpK2pRk65fGo3grlAyVxH1TcN.jpg", "release_date": "1976-01-13", "title": "Nuts in May", "video": false, "vote_average": 8.0, "vote_count": 12, "popularity": 2.514}], "total_pages": 2, "total_results": 22}, "credits": {"cast": [{"cast_id": 1, "character": "Beverley", "credit_id": "52fe447bc3a368484e02589d", "gender": 1, "id": 47699, "name": "Alison Steadman", "order": 0, "profile_path": "/lPthoSzhSr8KDgFKOmILAYUkJ2l.jpg"}, {"cast_id": 2, "character": "Laurence", "credit_id": "52fe447bc3a368484e0258a1", "gender": 0, "id": 57146, "name": "Tim Stern", "order": 1, "profile_path": null}, {"cast_id": 3, "character": "Angela", "credit_id": "52fe447bc3a368484e0258a5", "gender": 1, "id": 90740, "name": "Janine Duvitski", "order": 2, "profile_path": "/tjJLr3R2taDLUhW63IJ89kw3R8k.jpg"}, {"cast_id": 4, "character": "Tony", "credit_id": "52fe447bc3a368484e0258a9", "gender": 2, "id": 90741, "name": "John Salthouse", "order": 3, "profile_path": "/1iSdAOISq0OXhnX0Q3kiiRlEpO3.jpg"}, {"cast_id": 6, "character": "Susan", "credit_id": "52fe447bc3a368484e0258b3", "gender": 0, "id": 90742, "name": "Harriet Reynolds", "order": 4, "profile_path": null}], "crew": [{"credit_id": "52fe447bc3a368484e0258af", "department": "Directing", "gender": 2, "id": 65452, "job": "Director", "name": "Mike Leigh", "profile_path": "/8XRn5NVroFeqVyRtk0aiuVoe6Ff.jpg"}, {"credit_id": "54f87057c3a36833dc003d3d", "department": "Writing", "gender": 2, "id": 65452, "job": "Writer", "name": "Mike Leigh", "profile_path": "/8XRn5NVroFeqVyRtk0aiuVoe6Ff.jpg"}]}}