{"adult": false, "backdrop_path": "/jEGkH4sTyBiToSysMAUAvADdwJX.jpg", "belongs_to_collection": null, "budget": 0, "genres": [{"id": 12, "name": "Adventure"}], "homepage": null, "id": 240584, "imdb_id": "tt0048314", "original_language": "en", "original_title": "Lord of the Jungle", "overview": "The jungle boy tries to stop a herd of rogue elephants.", "popularity": 1.594, "poster_path": "/AdhHfCvxEqboo8LPc3ZGAYRec9t.jpg", "production_companies": [{"id": 517, "logo_path": null, "name": "Allied Artists", "origin_country": ""}], "production_countries": [{"iso_3166_1": "US", "name": "United States of America"}], "release_date": "1955-06-12", "revenue": 0, "runtime": 69, "spoken_languages": [{"iso_639_1": "en", "name": "English"}], "status": "Released", "tagline": "BOMBA'S TRAIL of TERROR...THE TRAMPLING DEATH!", "title": "Lord of the Jungle", "video": false, "vote_average": 6.0, "vote_count": 2, "keywords": {"keywords": [{"id": 2857, "name": "elephant"}, {"id": 10787, "name": "jungle"}]}, "similar": {"page": 1, "results": [{"adult": false, "backdrop_path": "/i2TPTgROdJVfxvjIdcTevrHKJFJ.jpg", "genre_ids": [18, 12, 28], "id": 18994, "original_language": "id", "original_title": "Tarzan and His Mate", "overview": "Harry Holt returns to Africa to head up a large ivory expedition. This time he brings his womanizing friend Marlin Arlington. Holt also harbors ideas about convincing Jane to return to London. When Holt and Arlington show Jane some of the modern clothes and perfumes they brought from civilization, she is impressed but not enough to return.", "poster_path": "/avvTuFDk89DLiVR8mnDoCaH4jHw.jpg", "release_date": "1934-04-20", "title": "Tarzan and His Mate", "video": false, "vote_average": 6.5, "vote_count": 65, "popularity": 7.689}, {"adult": false, "backdrop_path": "/4T2EpBzG4VyqDijObJFjWse8RaH.jpg", "genre_ids": [12, 35, 10751, 10749], "id": 10603, "original_language": "en", "original_title": "George of the Jungle", "overview": "After Baby George survives a plane crash in the jungle, he is rescued and then adopted by a wise ape. Years later, grown-up George saves a US noble woman, Ursula Stanhope while she is on a safari\u2014and takes her to the jungle to live with him. While Ursula's lover continues his search for Ursula and the one who took her, George slowly learns the rules of human relationships.", "poster_path": "/wTvuMi6YlO6bVe2Ax5mEL1dbVYv.jpg", "release_date": "1997-07-15", "title": "George of the Jungle", "video": false, "vote_average": 5.4, "vote_count": 1151, "popularity": 14.358}, {"id": 37135, "video": false, "vote_count": 4092, "vote_average": 7.4, "title": "Tarzan", "release_date": "1999-06-18", "original_language": "en", "original_title": "Tarzan", "genre_ids": [12, 16, 18, 10751], "backdrop_path": "/hCpRqibOM0ouOiqL0HMqZOF8bYe.jpg", "adult": false, "overview": "Tarzan was a small orphan who was raised by an ape named Kala since he was a child. He believed that this was his family, but on an expedition Jane Porter is rescued by Tarzan. He then finds out that he's human. Now Tarzan must make the decision as to which family he should belong to...", "poster_path": "/y6k0qn4tcDfbnrjJ2BUnoZYmMBk.jpg", "popularity": 22.572}, {"id": 258489, "video": false, "vote_count": 4393, "vote_average": 5.8, "title": "The Legend of Tarzan", "release_date": "2016-06-29", "original_language": "en", "original_title": "The Legend of Tarzan", "genre_ids": [28, 12], "backdrop_path": "/d9H2nXfKslf6B1cm7UtPBKhtUgA.jpg", "adult": false, "overview": "Tarzan, having acclimated to life in London, is called back to his former home in the jungle to investigate the activities at a mining encampment.", "poster_path": "/6FxOPJ9Ysilpq0IgkrMJ7PubFhq.jpg", "popularity": 21.616}, {"adult": false, "backdrop_path": "/w0S04Q3qiQxLfUtf5AcqxQU4xUJ.jpg", "genre_ids": [12, 53], "id": 2989, "original_language": "en", "original_title": "Roar", "overview": "Roar follows a family who are attacked by various African animals at the secluded home of their keeper.", "poster_path": "/3v5T5ahdzSg8EzPddprTaEeAmrM.jpg", "release_date": "1981-11-12", "title": "Roar", "video": false, "vote_average": 6.1, "vote_count": 45, "popularity": 5.185}, {"id": 269149, "video": false, "vote_count": 10912, "vote_average": 7.7, "title": "Zootopia", "release_date": "2016-02-11", "original_language": "en", "original_title": "Zootopia", "genre_ids": [12, 16, 35, 10751], "backdrop_path": "/mhdeE1yShHTaDbJVdWyTlzFvNkr.jpg", "adult": false, "overview": "Determined to prove herself, Officer Judy Hopps, the first bunny on Zootopia's police force, jumps at the chance to crack her first case - even if it means partnering with scam-artist fox Nick Wilde to solve the mystery.", "poster_path": "/sM33SANp9z6rXW8Itn7NnG1GOEs.jpg", "popularity": 51.293}, {"id": 9732, "video": false, "vote_count": 2663, "vote_average": 6.9, "title": "The Lion King II: Simba's Pride", "release_date": "1998-10-24", "original_language": "en", "original_title": "The Lion King II: Simba's Pride", "genre_ids": [12, 16, 10751], "backdrop_path": "/4LHPAe8CWFEz3jp4V3yKOQ7QXBz.jpg", "adult": false, "overview": "The circle of life continues for Simba, now fully grown and in his rightful place as the king of Pride Rock. Simba and Nala have given birth to a daughter, Kiara who's as rebellious as her father was. But Kiara drives her parents to distraction when she catches the eye of Kovu, the son of the evil lioness, Zira. Will Kovu steal Kiara's heart?", "poster_path": "/6YOBZYEkVxNzX7Sod7yChotUp5g.jpg", "popularity": 37.261}, {"id": 278927, "video": false, "vote_count": 5705, "vote_average": 6.8, "title": "The Jungle Book", "release_date": "2016-04-07", "original_language": "en", "original_title": "The Jungle Book", "genre_ids": [12, 18, 14, 10751], "backdrop_path": "/eIOTsGg9FCVrBc4r2nXaV61JF4F.jpg", "adult": false, "overview": "A man-cub named Mowgli fostered by wolves. After a threat from the tiger Shere Khan, Mowgli is forced to flee the jungle, by which he embarks on a journey of self discovery with the help of the panther, Bagheera and the free-spirited bear, Baloo.", "poster_path": "/vOipe2myi26UDwP978hsYOrnUWC.jpg", "popularity": 36.281}, {"id": 420818, "video": false, "vote_count": 4263, "vote_average": 7.1, "title": "The Lion King", "release_date": "2019-07-12", "original_language": "en", "original_title": "The Lion King", "genre_ids": [12, 10751], "backdrop_path": "/nRXO2SnOA75OsWhNhXstHB8ZmI3.jpg", "adult": false, "overview": "Simba idolizes his father, King Mufasa, and takes to heart his own royal destiny. But not everyone in the kingdom celebrates the new cub's arrival. Scar, Mufasa's brother\u2014and former heir to the throne\u2014has plans of his own. The battle for Pride Rock is ravaged with betrayal, tragedy and drama, ultimately resulting in Simba's exile. With help from a curious pair of newfound friends, Simba will have to figure out how to grow up and take back what is rightfully his.", "poster_path": "/2bXbqYdUdNVa8VIWXVfclP2ICtT.jpg", "popularity": 63.363}, {"id": 9360, "video": false, "vote_count": 1328, "vote_average": 4.9, "title": "Anaconda", "release_date": "1997-04-11", "original_language": "en", "original_title": "Anaconda", "genre_ids": [12, 27, 53], "backdrop_path": "/uAnJipu2hzZ04fY68d2UoB9eAa6.jpg", "adult": false, "overview": "A \"National Geographic\" film crew is taken hostage by an insane hunter, who takes them along on his quest to capture the world's largest - and deadliest - snake.", "poster_path": "/yGku6UoX3MKbjnVbcUtrJcyghyi.jpg", "popularity": 18.682}, {"id": 9904, "video": false, "vote_count": 562, "vote_average": 5.3, "title": "The Wild", "release_date": "2006-03-06", "original_language": "en", "original_title": "The Wild", "genre_ids": [16, 10751], "backdrop_path": "/z8bCwHtKypfDoqChf41pKWR41Xb.jpg", "adult": false, "overview": "An adolescent lion is accidentally shipped from the New York Zoo to Africa. Now running free, his zoo pals must put aside their differences to help bring him back.", "poster_path": "/uxTtgh4tpSWVulXLCDqKU10cWXo.jpg", "popularity": 16.611}, {"id": 10527, "video": false, "vote_count": 4220, "vote_average": 6.4, "title": "Madagascar: Escape 2 Africa", "release_date": "2008-10-30", "original_language": "en", "original_title": "Madagascar: Escape 2 Africa", "genre_ids": [16, 35, 10751], "backdrop_path": "/anxiz37Z9FPKeuCsJcxViSWmPxg.jpg", "adult": false, "overview": "Alex, Marty, and other zoo animals find a way to escape from Madagascar when the penguins reassemble a wrecked airplane. The precariously repaired craft stays airborne just long enough to make it to the African continent. There the New Yorkers encounter members of their own species for the first time. Africa proves to be a wild place, but Alex and company wonder if it is better than their Central Park home.", "poster_path": "/9mohxwknsHcwFBSAAhoQXwFV5zn.jpg", "popularity": 23.58}, {"id": 11430, "video": false, "vote_count": 1850, "vote_average": 6.5, "title": "The Lion King 1\u00bd", "release_date": "2004-02-06", "original_language": "en", "original_title": "The Lion King 1\u00bd", "genre_ids": [16, 35, 10751], "backdrop_path": "/ycw3fFPYFDMTvSV0240WHQL8Vik.jpg", "adult": false, "overview": "Timon the meerkat and Pumbaa the warthog are best pals and the unsung heroes of the African savanna. This prequel to the smash Disney animated adventure takes you back -- way back -- before Simba's adventure began. You'll find out all about Timon and Pumbaa and tag along as they search for the perfect home and attempt to raise a rambunctious lion cub.", "poster_path": "/vDfaIoXTaQLUD5HVAv2hLIFKAcq.jpg", "popularity": 24.449}, {"id": 57586, "video": false, "vote_count": 128, "vote_average": 7.1, "title": "African Cats", "release_date": "2011-04-22", "original_language": "en", "original_title": "African Cats", "genre_ids": [12, 99], "backdrop_path": "/mFTlNXsPzny0geJLxdo3ddzFR1Q.jpg", "adult": false, "overview": "African Cats captures the real-life love, humor and determination of the majestic kings of the savanna. The story features Mara, an endearing lion cub who strives to grow up with her mother\u2019s strength, spirit and wisdom; Sita, a fearless cheetah and single mother of five mischievous newborns; and Fang, a proud leader of the pride who must defend his family from a once banished lion.", "poster_path": "/3exZKtP0r88MhP12HeTgp4uiVRu.jpg", "popularity": 10.372}, {"id": 2454, "video": false, "vote_count": 3954, "vote_average": 6.5, "title": "The Chronicles of Narnia: Prince Caspian", "release_date": "2008-05-15", "original_language": "en", "original_title": "The Chronicles of Narnia: Prince Caspian", "genre_ids": [12, 14, 10751], "backdrop_path": "/eiET76GO3xECOic1rL8VcTLuy3L.jpg", "adult": false, "overview": "One year after their incredible adventures in the Lion, the Witch and the Wardrobe, Peter, Edmund, Lucy and Susan Pevensie return to Narnia to aid a young prince whose life has been threatened by the evil King Miraz. Now, with the help of a colorful cast of new characters, including Trufflehunter the badger and Nikabrik the dwarf, the Pevensie clan embarks on an incredible quest to ensure that Narnia is returned to its rightful heir.", "poster_path": "/kSSyzqw9C4wUggicG4D81XmptR1.jpg", "popularity": 23.366}, {"id": 7446, "video": false, "vote_count": 3479, "vote_average": 6.5, "title": "Tropic Thunder", "release_date": "2008-08-09", "original_language": "en", "original_title": "Tropic Thunder", "genre_ids": [28, 12, 35, 10752], "backdrop_path": "/pr8sj9FozsiT45TMtkwFRWONNII.jpg", "adult": false, "overview": "Vietnam veteran 'Four Leaf' Tayback's memoir, Tropic Thunder, is being made into a film, but Director Damien Cockburn can\u2019t control the cast of prima donnas. Behind schedule and over budget, Cockburn is ordered by a studio executive to get filming back on track, or risk its cancellation. On Tayback's advice, Cockburn drops the actors into the middle of the jungle to film the remaining scenes but, unbeknownst to the actors and production, the group have been dropped in the middle of the Golden Triangle, the home of heroin-producing gangs.", "poster_path": "/ue9QdvhpcNPvKQyLY5a5Pd0tagS.jpg", "popularity": 28.425}, {"adult": false, "backdrop_path": "/2ZkYXWejAwpkFkNnOY6nQYcJSPn.jpg", "genre_ids": [16, 35, 10751, 12], "id": 8355, "original_language": "en", "original_title": "Ice Age: Dawn of the Dinosaurs", "overview": "Times are changing for Manny the moody mammoth, Sid the motor mouthed sloth and Diego the crafty saber-toothed tiger. Life heats up for our heroes when they meet some new and none-too-friendly neighbors \u2013 the mighty dinosaurs.", "poster_path": "/crAf8b9gFpcdvY7majL8xWzTbem.jpg", "release_date": "2009-06-29", "title": "Ice Age: Dawn of the Dinosaurs", "video": false, "vote_average": 6.6, "vote_count": 5061, "popularity": 21.293}, {"id": 411, "video": false, "vote_count": 6421, "vote_average": 7.0, "title": "The Chronicles of Narnia: The Lion, the Witch and the Wardrobe", "release_date": "2005-12-07", "original_language": "en", "original_title": "The Chronicles of Narnia: The Lion, the Witch and the Wardrobe", "genre_ids": [12, 14, 10751], "backdrop_path": "/fOeoL1Oa5D9VKTKMGeLmUhA7qK5.jpg", "adult": false, "overview": "Siblings Lucy, Edmund, Susan and Peter step through a magical wardrobe and find the land of Narnia. There, the they discover a charming, once peaceful kingdom that has been plunged into eternal winter by the evil White Witch, Jadis. Aided by the wise and magnificent lion, Aslan, the children lead Narnia into a spectacular, climactic battle to be free of the Witch's glacial powers forever.", "poster_path": "/l8RKDgjl9co0IgFZblxhtIOi5Uj.jpg", "popularity": 33.103}, {"id": 329996, "video": false, "vote_count": 2326, "vote_average": 6.6, "title": "Dumbo", "release_date": "2019-03-27", "original_language": "en", "original_title": "Dumbo", "genre_ids": [12, 14, 10751], "backdrop_path": "/5tFt6iuGnKapHl5tw0X0cKcnuVo.jpg", "adult": false, "overview": "A young elephant, whose oversized ears enable him to fly, helps save a struggling circus, but when the circus plans a new venture, Dumbo and his friends discover dark secrets beneath its shiny veneer.", "poster_path": "/A7XkpLfNH0El2yyDLc4b0KLAKvE.jpg", "popularity": 26.274}, {"id": 353486, "video": false, "vote_count": 8369, "vote_average": 6.7, "title": "Jumanji: Welcome to the Jungle", "release_date": "2017-12-09", "original_language": "en", "original_title": "Jumanji: Welcome to the Jungle", "genre_ids": [28, 12, 35, 14], "backdrop_path": "/rz3TAyd5kmiJmozp3GUbYeB5Kep.jpg", "adult": false, "overview": "The tables are turned as four teenagers are sucked into Jumanji's world - pitted against rhinos, black mambas and an endless variety of jungle traps and puzzles. To survive, they'll play as characters from the game.", "poster_path": "/22hqf97LadMvkd4zDi3Bq25xSqD.jpg", "popularity": 32.707}], "total_pages": 54, "total_results": 1079}, "recommendations": {"page": 1, "results": [], "total_pages": 1, "total_results": 0}, "credits": {"cast": [{"cast_id": 6, "character": "Bomba", "credit_id": "52fe4ea7c3a36847f829f535", "gender": 2, "id": 101740, "name": "Johnny Sheffield", "order": 0, "profile_path": "/zyvkA03pHdxgsn06LsK93c4m5ra.jpg"}, {"cast_id": 7, "character": "Jeff Wood", "credit_id": "52fe4ea7c3a36847f829f539", "gender": 2, "id": 14565, "name": "Wayne Morris", "order": 1, "profile_path": "/hVs9Lzc9dApQtPgQuyRsV5smRDA.jpg"}, {"cast_id": 8, "character": "Mona Andrews", "credit_id": "52fe4ea7c3a36847f829f53d", "gender": 0, "id": 168577, "name": "Nancy Hale", "order": 2, "profile_path": "/uYUmqN4whT6m1njEgdcDBucSjpX.jpg"}, {"cast_id": 9, "character": "Paul Gavin", "credit_id": "52fe4ea7c3a36847f829f541", "gender": 2, "id": 78309, "name": "Paul Picerni", "order": 3, "profile_path": "/gKafN24wJ5zfdmxhud0fe9GVcTI.jpg"}, {"cast_id": 10, "character": "Kenny Balou", "credit_id": "52fe4ea7c3a36847f829f545", "gender": 0, "id": 1275669, "name": "Bill Phipps", "order": 4, "profile_path": null}, {"cast_id": 11, "character": "Commissioner Andy Barnes", "credit_id": "5af4cf680e0a265e490027d4", "gender": 2, "id": 101742, "name": "Leonard Mudie", "order": 5, "profile_path": "/4CxqJ3QP34J48L71lGXmR0H7ccW.jpg"}, {"cast_id": 12, "character": "Eli", "credit_id": "5af4cf770e0a265e5900243d", "gender": 2, "id": 126835, "name": "Smoki Whitfield", "order": 6, "profile_path": null}, {"cast_id": 13, "character": "Elisha", "credit_id": "5af4cf86c3a368470f00225b", "gender": 0, "id": 130487, "name": "James Adamson", "order": 7, "profile_path": null}, {"cast_id": 14, "character": "Molu", "credit_id": "5af4cf9a0e0a265e490027ed", "gender": 2, "id": 86370, "name": "Joel Fluellen", "order": 8, "profile_path": "/r8Vno7WxBENXDzbZMCkKX290ftb.jpg"}, {"cast_id": 15, "character": "Molu's Wife", "credit_id": "5af4cfb10e0a265e4b0025ff", "gender": 1, "id": 35658, "name": "Juanita Moore", "order": 9, "profile_path": "/xJrcIDUsk3VxZzJkop3C9HNkYFe.jpg"}, {"cast_id": 16, "character": "Pilot", "credit_id": "5af4cfbec3a368470300401c", "gender": 2, "id": 40577, "name": "Harry Lauter", "order": 10, "profile_path": "/w5KvkNYqp7bmihoITnKgxPvfIYB.jpg"}], "crew": [{"credit_id": "52fe4ea7c3a36847f829f519", "department": "Directing", "gender": 2, "id": 11431, "job": "Director", "name": "Ford Beebe", "profile_path": "/hYyHEnluu3sg9mCm5ZSl3oR8Jor.jpg"}, {"credit_id": "52fe4ea7c3a36847f829f51f", "department": "Writing", "gender": 2, "id": 11431, "job": "Writer", "name": "Ford Beebe", "profile_path": "/hYyHEnluu3sg9mCm5ZSl3oR8Jor.jpg"}, {"credit_id": "52fe4ea7c3a36847f829f525", "department": "Camera", "gender": 2, "id": 98161, "job": "Director of Photography", "name": "Harry Neumann", "profile_path": null}, {"credit_id": "52fe4ea7c3a36847f829f52b", "department": "Production", "gender": 2, "id": 11431, "job": "Producer", "name": "Ford Beebe", "profile_path": "/hYyHEnluu3sg9mCm5ZSl3oR8Jor.jpg"}, {"credit_id": "52fe4ea7c3a36847f829f531", "department": "Editing", "gender": 0, "id": 136178, "job": "Editor", "name": "Neil Brunnenkant", "profile_path": null}, {"credit_id": "5d2214fcf495ee1d8e36c8a7", "department": "Costume & Make-Up", "gender": 0, "id": 2353396, "job": "Wardrobe Designer", "name": "Sid Mintz", "profile_path": null}]}}