{"adult": false, "backdrop_path": "/cVQdOJbI1vpbSwkWJJRgcrsTijQ.jpg", "belongs_to_collection": null, "budget": 0, "genres": [{"id": 35, "name": "Comedy"}], "homepage": null, "id": 241804, "imdb_id": "tt0044608", "original_language": "en", "original_title": "Fearless Fagan", "overview": "A young man brings his pet lion with him when he's drafted into the army. Comedy.", "popularity": 2.704, "poster_path": "/qiN9oFwJiOSCvPtpI9PbYwtFFiN.jpg", "production_companies": [{"id": 21, "logo_path": "/mjofSXiHpG5t6KYmU4l4FrUhT7m.png", "name": "Metro-Goldwyn-Mayer", "origin_country": "US"}], "production_countries": [{"iso_3166_1": "US", "name": "United States of America"}], "release_date": "1952-08-15", "revenue": 0, "runtime": 79, "spoken_languages": [{"iso_639_1": "en", "name": "English"}], "status": "Released", "tagline": "", "title": "Fearless Fagan", "video": false, "vote_average": 6.3, "vote_count": 3, "keywords": {"keywords": [{"id": 2043, "name": "lion"}, {"id": 156815, "name": "corporal"}, {"id": 173458, "name": "army life"}, {"id": 186924, "name": "lion tamer"}]}, "similar": {"page": 1, "results": [{"id": 10527, "video": false, "vote_count": 4217, "vote_average": 6.4, "title": "Madagascar: Escape 2 Africa", "release_date": "2008-10-30", "original_language": "en", "original_title": "Madagascar: Escape 2 Africa", "genre_ids": [16, 35, 10751], "backdrop_path": "/anxiz37Z9FPKeuCsJcxViSWmPxg.jpg", "adult": false, "overview": "Alex, Marty, and other zoo animals find a way to escape from Madagascar when the penguins reassemble a wrecked airplane. The precariously repaired craft stays airborne just long enough to make it to the African continent. There the New Yorkers encounter members of their own species for the first time. Africa proves to be a wild place, but Alex and company wonder if it is better than their Central Park home.", "poster_path": "/9mohxwknsHcwFBSAAhoQXwFV5zn.jpg", "popularity": 21.514}, {"id": 57586, "video": false, "vote_count": 128, "vote_average": 7.1, "title": "African Cats", "release_date": "2011-04-22", "original_language": "en", "original_title": "African Cats", "genre_ids": [12, 99], "backdrop_path": "/mFTlNXsPzny0geJLxdo3ddzFR1Q.jpg", "adult": false, "overview": "African Cats captures the real-life love, humor and determination of the majestic kings of the savanna. The story features Mara, an endearing lion cub who strives to grow up with her mother\u2019s strength, spirit and wisdom; Sita, a fearless cheetah and single mother of five mischievous newborns; and Fang, a proud leader of the pride who must defend his family from a once banished lion.", "poster_path": "/3exZKtP0r88MhP12HeTgp4uiVRu.jpg", "popularity": 14.12}, {"adult": false, "backdrop_path": "/fTBhQtwxqi7skX5hQ6fvjl8H1H6.jpg", "genre_ids": [16, 35, 10751], "id": 161143, "original_language": "en", "original_title": "Madly Madagascar", "overview": "Your favorite Madagascar pals are back in an all-new adventure! Alex's favorite holiday, Valentine's Day, brings hilarious surprises and excitement for the entire gang. Melman plans a big surprise for Gloria, Marty tries to impress a new friend and everyone wants to get their hands on King Julien's love potion. You'll fall in LOVE with Madly Madagascar!", "poster_path": "/2BryHTAzdSPi7KR9B9UnkDLCkm8.jpg", "release_date": "2013-01-29", "title": "Madly Madagascar", "video": false, "vote_average": 6.0, "vote_count": 82, "popularity": 10.977}, {"id": 953, "video": false, "vote_count": 6883, "vote_average": 6.8, "title": "Madagascar", "release_date": "2005-05-25", "original_language": "en", "original_title": "Madagascar", "genre_ids": [16, 10751], "backdrop_path": "/wUetiqu2EFhHW94yTP0pWABfyUG.jpg", "adult": false, "overview": "Alex the lion is the king of the urban jungle, the main attraction at New York\u2019s Central Park Zoo. He and his best friends\u2014Marty the zebra, Melman the giraffe and Gloria the hippo\u2014have spent their whole lives in blissful captivity before an admiring public and with regular meals provided for them. Not content to leave well enough alone, Marty lets his curiosity get the better of him and makes his escape\u2014with the help of some prodigious penguins\u2014to explore the world.", "poster_path": "/2YiESGB68BGQSAFvfJxBi774sc4.jpg", "popularity": 30.512}, {"id": 9904, "video": false, "vote_count": 559, "vote_average": 5.3, "title": "The Wild", "release_date": "2006-03-06", "original_language": "en", "original_title": "The Wild", "genre_ids": [16, 10751], "backdrop_path": "/z8bCwHtKypfDoqChf41pKWR41Xb.jpg", "adult": false, "overview": "An adolescent lion is accidentally shipped from the New York Zoo to Africa. Now running free, his zoo pals must put aside their differences to help bring him back.", "poster_path": "/uxTtgh4tpSWVulXLCDqKU10cWXo.jpg", "popularity": 19.726}, {"id": 269149, "video": false, "vote_count": 10906, "vote_average": 7.7, "title": "Zootopia", "release_date": "2016-02-11", "original_language": "en", "original_title": "Zootopia", "genre_ids": [12, 16, 35, 10751], "backdrop_path": "/mhdeE1yShHTaDbJVdWyTlzFvNkr.jpg", "adult": false, "overview": "Determined to prove herself, Officer Judy Hopps, the first bunny on Zootopia's police force, jumps at the chance to crack her first case - even if it means partnering with scam-artist fox Nick Wilde to solve the mystery.", "poster_path": "/sM33SANp9z6rXW8Itn7NnG1GOEs.jpg", "popularity": 63.21}, {"adult": false, "backdrop_path": "/4T2EpBzG4VyqDijObJFjWse8RaH.jpg", "genre_ids": [12, 35, 10751, 10749], "id": 10603, "original_language": "en", "original_title": "George of the Jungle", "overview": "After Baby George survives a plane crash in the jungle, he is rescued and then adopted by a wise ape. Years later, grown-up George saves a US noble woman, Ursula Stanhope while she is on a safari\u2014and takes her to the jungle to live with him. While Ursula's lover continues his search for Ursula and the one who took her, George slowly learns the rules of human relationships.", "poster_path": "/wTvuMi6YlO6bVe2Ax5mEL1dbVYv.jpg", "release_date": "1997-07-15", "title": "George of the Jungle", "video": false, "vote_average": 5.4, "vote_count": 1149, "popularity": 15.381}, {"id": 11430, "video": false, "vote_count": 1850, "vote_average": 6.5, "title": "The Lion King 1\u00bd", "release_date": "2004-02-06", "original_language": "en", "original_title": "The Lion King 1\u00bd", "genre_ids": [16, 35, 10751], "backdrop_path": "/ycw3fFPYFDMTvSV0240WHQL8Vik.jpg", "adult": false, "overview": "Timon the meerkat and Pumbaa the warthog are best pals and the unsung heroes of the African savanna. This prequel to the smash Disney animated adventure takes you back -- way back -- before Simba's adventure began. You'll find out all about Timon and Pumbaa and tag along as they search for the perfect home and attempt to raise a rambunctious lion cub.", "poster_path": "/vDfaIoXTaQLUD5HVAv2hLIFKAcq.jpg", "popularity": 32.978}, {"id": 87827, "video": false, "vote_count": 9356, "vote_average": 7.3, "title": "Life of Pi", "release_date": "2012-11-20", "original_language": "en", "original_title": "Life of Pi", "genre_ids": [28, 12, 18], "backdrop_path": "/tk159LPfy69zSHw4dabehfAaJXi.jpg", "adult": false, "overview": "The story of an Indian boy named Pi, a zookeeper's son who finds himself in the company of a hyena, zebra, orangutan, and a Bengal tiger after a shipwreck sets them adrift in the Pacific Ocean.", "poster_path": "/sLYdcz7easaS7CmJGwQcVVYZqiF.jpg", "popularity": 23.211}, {"id": 9732, "video": false, "vote_count": 2662, "vote_average": 6.9, "title": "The Lion King II: Simba's Pride", "release_date": "1998-10-24", "original_language": "en", "original_title": "The Lion King II: Simba's Pride", "genre_ids": [12, 16, 10751], "backdrop_path": "/4LHPAe8CWFEz3jp4V3yKOQ7QXBz.jpg", "adult": false, "overview": "The circle of life continues for Simba, now fully grown and in his rightful place as the king of Pride Rock. Simba and Nala have given birth to a daughter, Kiara who's as rebellious as her father was. But Kiara drives her parents to distraction when she catches the eye of Kovu, the son of the evil lioness, Zira. Will Kovu steal Kiara's heart?", "poster_path": "/6YOBZYEkVxNzX7Sod7yChotUp5g.jpg", "popularity": 30.734}, {"id": 420818, "video": false, "vote_count": 4263, "vote_average": 7.1, "title": "The Lion King", "release_date": "2019-07-12", "original_language": "en", "original_title": "The Lion King", "genre_ids": [12, 10751], "backdrop_path": "/nRXO2SnOA75OsWhNhXstHB8ZmI3.jpg", "adult": false, "overview": "Simba idolizes his father, King Mufasa, and takes to heart his own royal destiny. But not everyone in the kingdom celebrates the new cub's arrival. Scar, Mufasa's brother\u2014and former heir to the throne\u2014has plans of his own. The battle for Pride Rock is ravaged with betrayal, tragedy and drama, ultimately resulting in Simba's exile. With help from a curious pair of newfound friends, Simba will have to figure out how to grow up and take back what is rightfully his.", "poster_path": "/2bXbqYdUdNVa8VIWXVfclP2ICtT.jpg", "popularity": 63.363}, {"id": 8393, "video": false, "vote_count": 509, "vote_average": 7.1, "title": "The Gods Must Be Crazy", "release_date": "1980-09-10", "original_language": "en", "original_title": "The Gods Must Be Crazy", "genre_ids": [28, 35], "backdrop_path": "/iVxo0Qy4FMIEF9LhBJtJwwvsuIU.jpg", "adult": false, "overview": "A Coca-Cola bottle dropped from an airplane raises havoc among a normally peaceful tribe of African bushmen who believe it to be a utensil of the gods.", "poster_path": "/yvD2BWOEM5N4S4f6Yj8IVVjoKQO.jpg", "popularity": 29.937}, {"id": 10258, "video": false, "vote_count": 148, "vote_average": 6.6, "title": "The Madagascar Penguins in a Christmas Caper", "release_date": "2005-09-23", "original_language": "en", "original_title": "The Madagascar Penguins in a Christmas Caper", "genre_ids": [16, 35, 10751], "backdrop_path": "/gdJ6j1hmt6dQgObWxDJAHUb58o6.jpg", "adult": false, "overview": "During the holiday season, when the animals of the Central Park Zoo are preparing for Christmas, Private, the youngest of the penguins notices that the Polar Bear is all alone. Assured that nobody should have to spend Christmas alone, Private goes into the city for some last-minute Christmas shopping. Along the way, he gets stuffed into a stocking", "poster_path": "/r8QtfGSjDaY6vICRVyYvZvTkjxc.jpg", "popularity": 15.199}, {"id": 575718, "video": false, "vote_count": 0, "vote_average": 0.0, "title": "Secret Zoo", "release_date": "2020-01-15", "original_language": "ko", "original_title": "\ud574\uce58\uc9c0\uc54a\uc544", "genre_ids": [35], "backdrop_path": "/hc8Y3Xz9YS3DQxVem61qrhkHxtn.jpg", "adult": false, "overview": "A lawyer is given the mission of revitalising a bankrupt zoo that has no animals. When he and a group of zookeepers come up with the idea to dress like animals and his fake polar bear goes viral, the zoo becomes a hit, before his law firm\u2019s real intentions are revealed.", "poster_path": "/2yBRl13BrHXhK7KpMTMZ9YfSvRW.jpg", "popularity": 7.975}, {"id": 38317, "video": false, "vote_count": 1004, "vote_average": 5.4, "title": "Zookeeper", "release_date": "2011-07-06", "original_language": "en", "original_title": "Zookeeper", "genre_ids": [35, 10749, 10751], "backdrop_path": "/2au5IQO5AuQwSGmn0eIOTLZ0Nop.jpg", "adult": false, "overview": "Kindhearted Griffin Keyes is one of the best-loved caretakers at the Franklin Park Zoo, but since he is more comfortable with the animals than with females of his own species, his love life is lacking. When Griffin decides that the only way to get a girlfriend is to find a more-glamorous career, the animals panic. To keep him from leaving, they reveal their secret ability to talk and offer to teach him the rules of courtship, animal-style.", "poster_path": "/qVsaDvFLnGSH6WdTgatzc2nXt7e.jpg", "popularity": 17.86}, {"adult": false, "backdrop_path": "/qFYwztFX1gx9PZLnTEokQw5q04G.jpg", "genre_ids": [80, 35, 12], "id": 9273, "original_language": "en", "original_title": "Ace Ventura: When Nature Calls", "overview": "Summoned from an ashram in Tibet, Ace finds himself on a perilous journey into the jungles of Africa to find Shikaka, the missing sacred animal of the friendly Wachati tribe. He must accomplish this before the wedding of the Wachati's Princess to the prince of the warrior Wachootoos. If Ace fails, the result will be a vicious tribal war.", "poster_path": "/wRlGnJhEzcxBjvWtvbjhDSU1cIY.jpg", "release_date": "1995-11-10", "title": "Ace Ventura: When Nature Calls", "video": false, "vote_average": 6.2, "vote_count": 2396, "popularity": 15.327}, {"id": 2454, "video": false, "vote_count": 3951, "vote_average": 6.5, "title": "The Chronicles of Narnia: Prince Caspian", "release_date": "2008-05-15", "original_language": "en", "original_title": "The Chronicles of Narnia: Prince Caspian", "genre_ids": [12, 14, 10751], "backdrop_path": "/eiET76GO3xECOic1rL8VcTLuy3L.jpg", "adult": false, "overview": "One year after their incredible adventures in the Lion, the Witch and the Wardrobe, Peter, Edmund, Lucy and Susan Pevensie return to Narnia to aid a young prince whose life has been threatened by the evil King Miraz. Now, with the help of a colorful cast of new characters, including Trufflehunter the badger and Nikabrik the dwarf, the Pevensie clan embarks on an incredible quest to ensure that Narnia is returned to its rightful heir.", "poster_path": "/kSSyzqw9C4wUggicG4D81XmptR1.jpg", "popularity": 20.084}, {"id": 8587, "video": false, "vote_count": 11488, "vote_average": 8.2, "title": "The Lion King", "release_date": "1994-05-07", "original_language": "en", "original_title": "The Lion King", "genre_ids": [16, 18, 10751], "backdrop_path": "/2wW1hyNxpU36aNtNSHVhIOJccde.jpg", "adult": false, "overview": "A young lion prince is cast out of his pride by his cruel uncle, who claims he killed his father. While the uncle rules with an iron paw, the prince grows up beyond the Savannah, living by a philosophy: No worries for the rest of your days. But when his past comes to haunt him, the young prince must decide his fate: Will he remain an outcast or face his demons and become what he needs to be?", "poster_path": "/sKCr78MXSLixwmZ8DyJLrpMsd15.jpg", "popularity": 35.175}, {"id": 287904, "video": false, "vote_count": 117, "vote_average": 5.7, "title": "The Last Face", "release_date": "2016-05-20", "original_language": "en", "original_title": "The Last Face", "genre_ids": [18], "backdrop_path": "/5HoPEjUhVIqf1x4xMTdjwnAKSuV.jpg", "adult": false, "overview": "Miguel, a heroic Spanish doctor, puts himself in harm's way to deliver medical treatment to the victims of military uprisings in Africa.", "poster_path": "/kx4qydBEPFbVvxbEXUm0jNX0vU4.jpg", "popularity": 18.976}, {"id": 411, "video": false, "vote_count": 6420, "vote_average": 7.0, "title": "The Chronicles of Narnia: The Lion, the Witch and the Wardrobe", "release_date": "2005-12-07", "original_language": "en", "original_title": "The Chronicles of Narnia: The Lion, the Witch and the Wardrobe", "genre_ids": [12, 14, 10751], "backdrop_path": "/fOeoL1Oa5D9VKTKMGeLmUhA7qK5.jpg", "adult": false, "overview": "Siblings Lucy, Edmund, Susan and Peter step through a magical wardrobe and find the land of Narnia. There, the they discover a charming, once peaceful kingdom that has been plunged into eternal winter by the evil White Witch, Jadis. Aided by the wise and magnificent lion, Aslan, the children lead Narnia into a spectacular, climactic battle to be free of the Witch's glacial powers forever.", "poster_path": "/l8RKDgjl9co0IgFZblxhtIOi5Uj.jpg", "popularity": 36.008}], "total_pages": 35, "total_results": 691}, "recommendations": {"page": 1, "results": [], "total_pages": 1, "total_results": 0}, "credits": {"cast": [{"cast_id": 2, "character": "Pvt. Floyd Hilston", "credit_id": "52fe4ebec3a36847f82a560f", "gender": 2, "id": 130585, "name": "Carleton Carpenter", "order": 0, "profile_path": "/lalNnOLvy2Id8p0YgFpL5U8ehCk.jpg"}, {"cast_id": 3, "character": "Abby Ames", "credit_id": "52fe4ebec3a36847f82a5613", "gender": 1, "id": 7302, "name": "Janet Leigh", "order": 1, "profile_path": "/3FWYSCJUOuYVDPG9UoMjtqNMdyb.jpg"}, {"cast_id": 4, "character": "Sgt. Kellwin", "credit_id": "52fe4ebec3a36847f82a5617", "gender": 2, "id": 4966, "name": "Keenan Wynn", "order": 2, "profile_path": "/vKRcpt50Eh9AQ6yi9umy1YFZWyf.jpg"}, {"cast_id": 5, "character": "Mrs. Ardley", "credit_id": "52fe4ebec3a36847f82a561b", "gender": 1, "id": 5738, "name": "Ellen Corby", "order": 3, "profile_path": "/sgVSpnL4dJ8d0Y273lonNM4GuHK.jpg"}, {"cast_id": 6, "character": "Capt. Daniels", "credit_id": "52fe4ebec3a36847f82a561f", "gender": 2, "id": 12312, "name": "Richard Anderson", "order": 4, "profile_path": "/Uau1zsZZgWV9Ld1Yi5X2FnDfJe.jpg"}, {"cast_id": 7, "character": "Nurse", "credit_id": "52fe4ebec3a36847f82a5623", "gender": 1, "id": 128000, "name": "Barbara Ruick", "order": 5, "profile_path": "/6ipCjt72DoNBqCZNl1eYZZiyw5b.jpg"}, {"cast_id": 8, "character": "Col. Horne", "credit_id": "52fe4ebec3a36847f82a5627", "gender": 2, "id": 34504, "name": "Wilton Graff", "order": 6, "profile_path": "/suvXw09Wz5vKwsZbxuwu1iCfnxk.jpg"}, {"cast_id": 9, "character": "Mr. Ardley", "credit_id": "52fe4ebec3a36847f82a562b", "gender": 2, "id": 109211, "name": "John Call", "order": 7, "profile_path": "/9jzWvngKByRcdChPM83TNnWFRmv.jpg"}, {"cast_id": 10, "character": "Owen Gillman", "credit_id": "52fe4ebec3a36847f82a562f", "gender": 2, "id": 31260, "name": "Robert Burton", "order": 8, "profile_path": "/kmmkntCe9ovlOdda68mCrFSNZ75.jpg"}, {"cast_id": 11, "character": "Emil Tauchnitz", "credit_id": "52fe4ebec3a36847f82a5633", "gender": 2, "id": 86369, "name": "Parley Baer", "order": 9, "profile_path": "/dvy5JSM9F2lQZVBGuJvS1L1IcQi.jpg"}, {"cast_id": 12, "character": "Guard", "credit_id": "52fe4ebec3a36847f82a5637", "gender": 2, "id": 32494, "name": "Robert Easton", "order": 10, "profile_path": "/b9FqX4K0DKtRBjsRhIbDKZj0DL6.jpg"}, {"cast_id": 13, "character": "Thomson", "credit_id": "52fe4ebec3a36847f82a563b", "gender": 2, "id": 40001, "name": "Alvy Moore", "order": 11, "profile_path": "/9tRo3inSMsBBgk8t7UwZElxqXjP.jpg"}], "crew": [{"credit_id": "52fe4ebec3a36847f82a560b", "department": "Directing", "gender": 2, "id": 13284, "job": "Director", "name": "Stanley Donen", "profile_path": "/8r91mtKkWdYri739IilAvTVzr1E.jpg"}, {"credit_id": "543e801fc3a3682513002393", "department": "Writing", "gender": 0, "id": 69121, "job": "Screenplay", "name": "Frederick Hazlitt Brennan", "profile_path": null}, {"credit_id": "543e802ac3a3682513002396", "department": "Writing", "gender": 2, "id": 4358, "job": "Screenplay", "name": "Charles Lederer", "profile_path": null}, {"credit_id": "5c3364c00e0a2666043dd25f", "department": "Costume & Make-Up", "gender": 1, "id": 2205790, "job": "Hairstylist", "name": "Elaine Ramsey", "profile_path": null}, {"credit_id": "5cea28b70e0a265cded40814", "department": "Sound", "gender": 2, "id": 2316450, "job": "Original Music Composer", "name": "Irving Aaronson", "profile_path": null}]}}