{"adult": false, "backdrop_path": null, "belongs_to_collection": null, "budget": 0, "genres": [{"id": 99, "name": "Documentary"}, {"id": 18, "name": "Drama"}], "homepage": null, "id": 241928, "imdb_id": "tt3520318", "original_language": "ko", "original_title": "\ub9cc\uc2e0", "overview": "A life documentary of a woman who was shunned for being possessed by spirits as a girl, oppressed for following superstitions as an adult, how she grows to be a great shaman who embraces the pain of all people, and how she comes to be honored as a national treasure of Korea with her outstanding artistic talents throughout Korea's tumultuous history.", "popularity": 0.84, "poster_path": "/tIlShgWIJ6NY9zNjwrtTnW4t1y7.jpg", "production_companies": [{"id": 111908, "logo_path": null, "name": "Atnine Film", "origin_country": "KR"}], "production_countries": [{"iso_3166_1": "KR", "name": "South Korea"}], "release_date": "2014-03-06", "revenue": 0, "runtime": 110, "spoken_languages": [{"iso_639_1": "ko", "name": "\ud55c\uad6d\uc5b4/\uc870\uc120\ub9d0"}], "status": "Released", "tagline": "", "title": "Manshin: Ten Thousand Spirits", "video": false, "vote_average": 6.0, "vote_count": 2, "keywords": {"keywords": [{"id": 11326, "name": "shaman"}]}, "similar": {"page": 1, "results": [{"adult": false, "backdrop_path": "/3qOJjeXAXvn8L1YYc5ygN60BnQQ.jpg", "genre_ids": [99], "id": 302964, "original_language": "en", "original_title": "Cielo tierra", "overview": "This documentary examines ayahuasca shamanism near Iquitos (a metropolis in the Peruvian Amazon), and the tourism it has attracted. The filmmakers talk with two ayahuasqueros, Percy Garcia and Ron Wheelock, as well as ayuahuasca tourists and local people connected with the ayahuasca industry.", "poster_path": "/3zJqNsgH3leIrxIcDrIGGjw1SHr.jpg", "release_date": "2008-09-21", "title": "Heaven Earth", "video": false, "vote_average": 0.0, "vote_count": 0, "popularity": 0.642}, {"adult": false, "backdrop_path": "/sWch75evj8o91xgnLoEFylMD2AI.jpg", "genre_ids": [99], "id": 84562, "original_language": "en", "original_title": "Vine of the Soul: Encounters with Ayahuasca", "overview": "On a quest for emotional healing and spiritual awakening, a naturopathic doctor and an accountant join others in the Peruvian Amazon to drink a psychedelic brew called ayahuasca.", "poster_path": "/gExyhvstQ2yV9sFLFzp0bJd7ZgA.jpg", "release_date": "2010-07-23", "title": "Vine of the Soul: Encounters with Ayahuasca", "video": false, "vote_average": 4.8, "vote_count": 4, "popularity": 2.037}, {"adult": false, "backdrop_path": null, "genre_ids": [99], "id": 596544, "original_language": "es", "original_title": "La medicina del perd\u00f3n", "overview": "Benito Ar\u00e9valo is an onaya: a traditional healer in a Shipibo-Konibo community in Peruvian Amazonia. He explains something of the onaya tradition, and how he came to drink the plant medicine ayahuasca under his father's tutelage. Ar\u00e9valo leads an ayahuasca ceremony for Westerners, and shares with us something of his understanding of the plants and the onaya tradition.", "poster_path": null, "release_date": "2001-01-01", "title": "The Medicine of Forgiveness", "video": false, "vote_average": 0.0, "vote_count": 0, "popularity": 0.6}, {"adult": false, "backdrop_path": null, "genre_ids": [99], "id": 75980, "original_language": "en", "original_title": "Shamans of the Amazon", "overview": "SHAMANS OF THE AMAZON is a personal account of filmmaker Dean Jefferys as he returns to the Amazon with his partner and one year old daughter. They journey deep into the Ecuadorian rainforest to learn about and experience the ancient ayahuasca healing ceremony. The film brings to the viewer an intimate and fascinating look at the shamans of the Amazon, and the life that is threatened by ecological destruction.", "poster_path": "/j0Au3Kjpcs4PSL75j9cHb7JuBKI.jpg", "release_date": "2001-01-01", "title": "Shamans of the Amazon", "video": false, "vote_average": 0.0, "vote_count": 0, "popularity": 0.84}, {"id": 8587, "video": false, "vote_count": 11494, "vote_average": 8.3, "title": "The Lion King", "release_date": "1994-05-07", "original_language": "en", "original_title": "The Lion King", "genre_ids": [16, 18, 10751], "backdrop_path": "/2wW1hyNxpU36aNtNSHVhIOJccde.jpg", "adult": false, "overview": "A young lion prince is cast out of his pride by his cruel uncle, who claims he killed his father. While the uncle rules with an iron paw, the prince grows up beyond the Savannah, living by a philosophy: No worries for the rest of your days. But when his past comes to haunt him, the young prince must decide his fate: Will he remain an outcast or face his demons and become what he needs to be?", "poster_path": "/sKCr78MXSLixwmZ8DyJLrpMsd15.jpg", "popularity": 38.326}, {"id": 11072, "video": false, "vote_count": 1036, "vote_average": 7.3, "title": "Blazing Saddles", "release_date": "1974-02-07", "original_language": "en", "original_title": "Blazing Saddles", "genre_ids": [35, 37], "backdrop_path": "/tCitxLKMzCxexGlSg4g4IDVC3RM.jpg", "adult": false, "overview": "A town\u2014where everyone seems to be named Johnson\u2014stands in the way of the railroad. In order to grab their land, robber baron Hedley Lemar sends his henchmen to make life in the town unbearable. After the sheriff is killed, the town demands a new sheriff from the Governor, so Hedley convinces him to send the town the first black sheriff in the west.", "poster_path": "/yccgwPNVaqtgS1d0U5jjM6Mnza8.jpg", "popularity": 16.616}, {"adult": false, "backdrop_path": "/9YAVIwBcBrLXeukg2dgMGfYB1uu.jpg", "genre_ids": [12, 16, 10751, 10749], "id": 10530, "original_language": "en", "original_title": "Pocahontas", "overview": "Pocahontas, daughter of a Native American tribe chief, falls in love with an English soldier as colonists invade 17th century Virginia.", "poster_path": "/kZ1ft0QZ4e3zDUPMBftEkwI9ftd.jpg", "release_date": "1995-06-14", "title": "Pocahontas", "video": false, "vote_average": 6.9, "vote_count": 3587, "popularity": 26.574}, {"id": 172385, "video": false, "vote_count": 1999, "vote_average": 6.4, "title": "Rio 2", "release_date": "2014-03-19", "original_language": "en", "original_title": "Rio 2", "genre_ids": [12, 16, 35, 10751], "backdrop_path": "/bRQPOVpvBmvep9WYnGcKguxjlg2.jpg", "adult": false, "overview": "It's a jungle out there for Blu, Jewel and their three kids after they're hurtled from Rio de Janeiro to the wilds of the Amazon. As Blu tries to fit in, he goes beak-to-beak with the vengeful Nigel, and meets the most fearsome adversary of all: his father-in-law.", "poster_path": "/jZcF7xZVvrX2A4qNOqeHpmtbdBT.jpg", "popularity": 19.292}, {"id": 11133, "video": false, "vote_count": 311, "vote_average": 5.8, "title": "Poltergeist II: The Other Side", "release_date": "1986-05-23", "original_language": "en", "original_title": "Poltergeist II: The Other Side", "genre_ids": [27, 53], "backdrop_path": "/b0I6M2Ws1KnFit7xCJeYpK2NV4s.jpg", "adult": false, "overview": "The Freeling family move in with Diane's mother in an effort to escape the trauma and aftermath of Carol Anne's abduction by the Beast. But the Beast is not to be put off so easily and appears in a ghostly apparition as the Reverend Kane, a religeous zealot responsible for the deaths of his many followers. His goal is simple - he wants the angelic Carol Anne.", "poster_path": "/wp8IkFabtxJohz8ivfwNWt4Bcse.jpg", "popularity": 9.946}, {"adult": false, "backdrop_path": "/nxVu1rlqOQcR3lNrdzYdwhXCGap.jpg", "genre_ids": [27, 9648], "id": 25983, "original_language": "en", "original_title": "The House of the Devil", "overview": "In the 1980s, college student Samantha Hughes takes a strange babysitting job that coincides with a full lunar eclipse. She slowly realizes her clients harbor a terrifying secret.", "poster_path": "/covH6buvTjzrjQLNNA23obaLPXl.jpg", "release_date": "2009-04-25", "title": "The House of the Devil", "video": false, "vote_average": 6.1, "vote_count": 369, "popularity": 7.142}, {"id": 171424, "video": false, "vote_count": 694, "vote_average": 5.3, "title": "The Green Inferno", "release_date": "2014-09-04", "original_language": "en", "original_title": "The Green Inferno", "genre_ids": [28, 12, 27, 53], "backdrop_path": "/gX2nkTe2RI2RCM9BsNe1yyNWKFa.jpg", "adult": false, "overview": "A group of student activists travel from New York City to the Amazon to save the rainforest.  However, once they arrive in this vast green landscape, they soon discover that they are not alone\u2026 and that no good deed goes unpunished.", "poster_path": "/prG32jWEgiZ2N8BpBPu1G0jMiv2.jpg", "popularity": 12.287}, {"adult": false, "backdrop_path": "/wIP9NCL6x1fc5pmADRcCQMNzGjA.jpg", "genre_ids": [12, 27, 878], "id": 10973, "original_language": "en", "original_title": "Creature from the Black Lagoon", "overview": "A scientific expedition searching for fossils along the Amazon River discover a prehistoric Gill-Man in the legendary Black Lagoon. The explorers capture the mysterious creature, but it breaks free. The Gill-Man returns to kidnap the lovely Kay, fianc\u00e9e of one of the expedition, with whom it has fallen in love.", "poster_path": "/hQ3k0gAh2Hv2uqrMff0gqxZDJKy.jpg", "release_date": "1954-03-05", "title": "Creature from the Black Lagoon", "video": false, "vote_average": 6.8, "vote_count": 343, "popularity": 12.023}, {"id": 390062, "video": false, "vote_count": 930, "vote_average": 6.3, "title": "Jungle", "release_date": "2017-06-27", "original_language": "en", "original_title": "Jungle", "genre_ids": [12, 18, 53], "backdrop_path": "/tav8VVa6H6KooK5rFhAG2jT5ZNx.jpg", "adult": false, "overview": "In 1981, an enthusiastic young adventurer follows his dreams into the Bolivian Amazon jungle with two friends and a guide with a mysterious past. Their journey quickly turns into a terrifying ordeal as the darkest elements of human nature and the deadliest threats of the wilderness lead to an all-out fight for survival.", "poster_path": "/tDgxknTVwrScxpCYyGUjXSn5NRk.jpg", "popularity": 20.718}, {"adult": false, "backdrop_path": "/ugTOWovCYRe99FPGmN1Bk9o2cEy.jpg", "genre_ids": [27, 53, 80], "id": 74725, "original_language": "en", "original_title": "Kill List", "overview": "Nearly a year after a botched job, a hitman takes a new assignment with the promise of a big payoff for three killings. What starts off as an easy task soon unravels, sending the killer into the heart of darkness.", "poster_path": "/y0mJcIW1qFtFhAFjzPmxI9zLqjj.jpg", "release_date": "2011-09-02", "title": "Kill List", "video": false, "vote_average": 6.1, "vote_count": 376, "popularity": 7.903}, {"adult": false, "backdrop_path": "/nmZrtjeP3j7lTDKlNv4ayhq6AYR.jpg", "genre_ids": [27], "id": 8689, "original_language": "it", "original_title": "Cannibal Holocaust", "overview": "A New York University professor returns from a rescue mission to the Amazon rainforest with the footage shot by a lost team of documentarians who were making a film about the area's local cannibal tribes.", "poster_path": "/r0VmAFHWAqlaraVg0krIEhDCPWH.jpg", "release_date": "1980-02-07", "title": "Cannibal Holocaust", "video": false, "vote_average": 6.1, "vote_count": 703, "popularity": 14.527}, {"adult": false, "backdrop_path": "/z7w3uHWAH3XbUbyJDKUsEb1j61C.jpg", "genre_ids": [28, 12, 18], "id": 9343, "original_language": "de", "original_title": "Fitzcarraldo", "overview": "Fitzcarraldo is a dreamer who plans to build an opera house in Iquitos, in the Peruvian Amazon, so, in order to finance his project, he embarks on an epic adventure to collect rubber, a very profitable product, in a remote and unexplored region of the rainforest.", "poster_path": "/uovgR063sBxGHQWD8YzQm4WJX4.jpg", "release_date": "1982-03-04", "title": "Fitzcarraldo", "video": false, "vote_average": 7.7, "vote_count": 322, "popularity": 9.039}, {"id": 293670, "video": false, "vote_count": 669, "vote_average": 7.2, "title": "The Wailing", "release_date": "2016-05-12", "original_language": "ko", "original_title": "\uace1\uc131", "genre_ids": [27, 9648, 53], "backdrop_path": "/pthuMQIXSRDdGGS8p6n6IG21ZRJ.jpg", "adult": false, "overview": "A stranger arrives in a little village and soon after a mysterious sickness starts spreading. A policeman is drawn into the incident and is forced to solve the mystery in order to save his daughter.", "poster_path": "/aijmq2I4O8zZrJtqAZm6o4tOM6g.jpg", "popularity": 13.585}, {"id": 2000, "video": false, "vote_count": 492, "vote_average": 7.6, "title": "Aguirre, the Wrath of God", "release_date": "1972-12-29", "original_language": "de", "original_title": "Aguirre, der Zorn Gottes", "genre_ids": [12, 18, 36], "backdrop_path": "/q9hBNsodUfQHhlJLImE9hqZJJxZ.jpg", "adult": false, "overview": "A few decades after the destruction of the Inca empire, a Spanish expedition leaves the mountains of Peru and goes down the Amazon river in search of gold and wealth. Soon, they come across great difficulties and Don Aguirre, a ruthless man who cares only about riches, becomes their leader. But will his quest lead them to \"the golden city\", or to certain destruction?", "poster_path": "/uHP3AtAnudp5w8d3jx2el1AtV6a.jpg", "popularity": 14.037}, {"id": 72207, "video": false, "vote_count": 833, "vote_average": 5.8, "title": "The Five-Year Engagement", "release_date": "2012-04-27", "original_language": "en", "original_title": "The Five-Year Engagement", "genre_ids": [35, 10749], "backdrop_path": "/NV9FSiCEcnzuJFeSTm3JycufyD.jpg", "adult": false, "overview": "Exactly one year after Tom meets Violet, he surprises her with a wedding ring. By all accounts, Tom and Violet are destined for their happily ever after. However, this engaged couple just keep getting tripped up on the long walk down the aisle.", "poster_path": "/mnUhavveXHR2SH1OZD7bVWJpGcy.jpg", "popularity": 10.263}, {"id": 11532, "video": false, "vote_count": 116, "vote_average": 6.9, "title": "The Emerald Forest", "release_date": "1985-06-26", "original_language": "en", "original_title": "The Emerald Forest", "genre_ids": [28, 12, 18], "backdrop_path": "/7TXuc6kYEVN3h8tWXBdhFc7dqKy.jpg", "adult": false, "overview": "For ten years, engineer Bill Markham has searched tirelessly for his son Tommy who disappeared from the edge of the Brazilian rainforest. Miraculously, he finds the boy living among the reclusive Amazon tribe who adopted him. And that's when Bill's adventure truly begins. For his son is now a grown tribesman who moves skillfully through this beautiful-but-dangerous terrain, fearful only of those who would exploit it. And as Bill attempts to \"rescue\" him from the savagery of the untamed jungle, Tommy challenges Bill's idea of true civilization and his notions about who needs rescuing.", "poster_path": "/aiO9s3kuhrViz9s78wS1bsesdmW.jpg", "popularity": 11.863}], "total_pages": 5, "total_results": 99}, "recommendations": {"page": 1, "results": [], "total_pages": 1, "total_results": 0}, "credits": {"cast": [{"cast_id": 13, "character": "herself", "credit_id": "5a81a1090e0a262aa20345e7", "gender": 1, "id": 1276948, "name": "Kim Keum-hwa", "order": 0, "profile_path": null}, {"cast_id": 7, "character": "KIM Keum-hwa in the 1970\u2019s.", "credit_id": "5333c2acc3a3682ab5001680", "gender": 1, "id": 83122, "name": "Moon So-ri", "order": 1, "profile_path": "/euXxjcE5JDNsz6EN0hhIKgxhPKT.jpg"}, {"cast_id": 6, "character": "KIM Keum-hwa in the 1950\u2019s.", "credit_id": "5333c201925141444e001258", "gender": 1, "id": 143541, "name": "Ryu Hyun-kyung", "order": 2, "profile_path": "/zjTmifBciXT265lDJ3lkUAAJRTn.jpg"}, {"cast_id": 5, "character": "Neomsae KIM Keum-hwa", "credit_id": "5333c1cac3a3682a870016e5", "gender": 1, "id": 144591, "name": "Kim Sae-ron", "order": 3, "profile_path": "/8lV5HPb6M8gvbYLQ03nRMBTipwQ.jpg"}, {"cast_id": 14, "character": "", "credit_id": "5a81a1f30e0a262ab50343c1", "gender": 2, "id": 1330450, "name": "Kim Joong-ki", "order": 4, "profile_path": "/tsrsg5Kws3LeYVvlj0JmusOgXEk.jpg"}, {"cast_id": 8, "character": "", "credit_id": "587bafa79251413f4601054c", "gender": 1, "id": 1386540, "name": "Ryu Hye-young", "order": 5, "profile_path": "/obTSjq6ZDtt7Cpk5HX0iNGR3Jy.jpg"}, {"cast_id": 9, "character": "", "credit_id": "587bafad9251413f46010552", "gender": 1, "id": 1374555, "name": "Kim Sae-byuk", "order": 6, "profile_path": "/1tIYuq32UAKLehp3ZpVKoGVzFRo.jpg"}, {"cast_id": 10, "character": "Daughter-in-law", "credit_id": "587bafe0c3a36849ff00fab0", "gender": 1, "id": 1374543, "name": "Lee Sang-hee", "order": 7, "profile_path": "/qzZrZ6izweisaUfZtCGou273Q1J.jpg"}], "crew": [{"credit_id": "587bb0a79251413f1b011930", "department": "Writing", "gender": 2, "id": 586938, "job": "Screenplay", "name": "Park Chan-kyong", "profile_path": null}, {"credit_id": "52fe4ec0c3a36847f82a5edb", "department": "Directing", "gender": 2, "id": 586938, "job": "Director", "name": "Park Chan-kyong", "profile_path": null}, {"credit_id": "5a81a0fd0e0a262ab50342bf", "department": "Writing", "gender": 1, "id": 1276948, "job": "Original Story", "name": "Kim Keum-hwa", "profile_path": null}, {"credit_id": "5e0c32d09974ee0012a2aaf3", "department": "Editing", "gender": 0, "id": 1850968, "job": "Editor", "name": "Um Yoon-zu", "profile_path": null}, {"credit_id": "5c0b42f5c3a3682520066e5b", "department": "Sound", "gender": 0, "id": 2098691, "job": "Music", "name": "Lee Tae-won", "profile_path": null}, {"credit_id": "5cd449d7c3a36869cafbfe4b", "department": "Costume & Make-Up", "gender": 0, "id": 2198557, "job": "Makeup & Hair", "name": "Kim Hyun-jung", "profile_path": null}, {"credit_id": "5ce0e1670e0a26278ec9caf6", "department": "Camera", "gender": 0, "id": 2316139, "job": "Director of Photography", "name": "Yu Ji-sun", "profile_path": null}]}}