{"adult": false, "backdrop_path": "/hWFBRYR8Nb6fqgJkkSOJCsFDIY3.jpg", "belongs_to_collection": null, "budget": 1700000, "genres": [{"id": 53, "name": "Thriller"}], "homepage": null, "id": 242033, "imdb_id": "tt2293750", "original_language": "en", "original_title": "Scorned", "overview": "Sadie and Kevin have decided to spend a romantic weekend together at his lake house.  But when an unexpected- and unfortunate- text from her best friend Jennifer to Kevin reveals a lurid love affair between the two, Sadie spirals a into a hunger for revenge.", "popularity": 7.554, "poster_path": "/mbIrFTLNRhSHBinxqM8pcdWewEz.jpg", "production_companies": [{"id": 26344, "logo_path": null, "name": "Horse Head Pictures", "origin_country": "US"}, {"id": 5860, "logo_path": null, "name": "Anchor Bay Films", "origin_country": "US"}], "production_countries": [{"iso_3166_1": "US", "name": "United States of America"}], "release_date": "2013-11-14", "revenue": 0, "runtime": 86, "spoken_languages": [{"iso_639_1": "en", "name": "English"}], "status": "Released", "tagline": "Hell Hath No Fury", "title": "Scorned", "video": false, "vote_average": 4.7, "vote_count": 26, "keywords": {"keywords": [{"id": 9748, "name": "revenge"}]}, "similar": {"page": 1, "results": [{"adult": false, "backdrop_path": "/a24i4Qw6qFTtkFLQsncv8WPwevj.jpg", "genre_ids": [53, 28, 80], "id": 345887, "original_language": "en", "original_title": "The Equalizer 2", "overview": "Robert McCall, who serves an unflinching justice for the exploited and oppressed, embarks on a relentless, globe-trotting quest for vengeance when a long-time girl friend is murdered.", "poster_path": "/cQvc9N6JiMVKqol3wcYrGshsIdZ.jpg", "release_date": "2018-07-19", "title": "The Equalizer 2", "video": false, "vote_average": 6.5, "vote_count": 2482, "popularity": 24.261}, {"id": 37835, "video": false, "vote_count": 54, "vote_average": 5.7, "title": "The Exterminator", "release_date": "1980-09-10", "original_language": "en", "original_title": "The Exterminator", "genre_ids": [28, 80, 18, 53], "backdrop_path": "/7WlZBIMGjpWAiTKs6DAfuZtYots.jpg", "adult": false, "overview": "A man's best friend is killed on the streets of New York. The man (Robert Ginty) then transforms into a violent killer, turning New York into a great war zone and Christopher George is the only one to stop him.", "poster_path": "/5fPvIpNmZ71XiLNxZ2072b8wdqg.jpg", "popularity": 6.879}, {"adult": false, "backdrop_path": "/pA64Ov7lDpwXBu33yq0KpmAOYJL.jpg", "genre_ids": [27, 53], "id": 357096, "original_language": "en", "original_title": "I Spit on Your Grave III: Vengeance is Mine", "overview": "Jennifer Hills is still tormented by the brutal sexual assault she endured years ago. She\u2019s changed identities and cities, reluctantly joining a support group where she begins to piece together a new life. But when her new friend\u2019s murderer goes free and the tales of serial rapists haunt her, Jennifer will hunt down the men responsible and do what the system won\u2019t \u2013 make them pay for their crimes in the most horrific ways imaginable. Only this time, no jury may be able to save her.", "poster_path": "/6SnOlgrUoC5jqmgcYIM5lde5zYq.jpg", "release_date": "2015-10-01", "title": "I Spit on Your Grave III: Vengeance is Mine", "video": false, "vote_average": 5.3, "vote_count": 437, "popularity": 20.366}, {"id": 458594, "video": false, "vote_count": 983, "vote_average": 6.5, "title": "Peppermint", "release_date": "2018-09-06", "original_language": "en", "original_title": "Peppermint", "genre_ids": [28, 53], "backdrop_path": "/9krZX6T4EEs5eFpXgSi8jZkN48O.jpg", "adult": false, "overview": "A grieving mother transforms herself into a vigilante following the murders of her husband and daughter, eluding the authorities to deliver her own personal brand of justice.", "poster_path": "/jrzxS0vcbzIIay1sdYm0rgI2QfJ.jpg", "popularity": 25.2}, {"id": 156022, "video": false, "vote_count": 5466, "vote_average": 7.2, "title": "The Equalizer", "release_date": "2014-09-24", "original_language": "en", "original_title": "The Equalizer", "genre_ids": [28, 80, 53], "backdrop_path": "/vbl4ZVqelrrzJ16fdDOq9siWbpi.jpg", "adult": false, "overview": "McCall believes he has put his mysterious past behind him and dedicated himself to beginning a new, quiet life. But when he meets Teri, a young girl under the control of ultra-violent Russian gangsters, he can\u2019t stand idly by \u2013 he has to help her. Armed with hidden skills that allow him to serve vengeance against anyone who would brutalize the helpless, McCall comes out of his self-imposed retirement and finds his desire for justice reawakened. If someone has a problem, if the odds are stacked against them, if they have nowhere else to turn, McCall will help. He is The Equalizer.", "poster_path": "/2eQfjqlvPAxd9aLDs8DvsKLnfed.jpg", "popularity": 38.079}, {"adult": false, "backdrop_path": "/fy1C5tM9L39i7JF0iw6DIycOO1j.jpg", "genre_ids": [18, 28, 53], "id": 11713, "original_language": "zh", "original_title": "\u7cbe\u6b66\u9580", "overview": "Chen Zhen returns to the international compound of China only to learn of his beloved teacher's death. This is compounded by the continual racist harassment by the Japanese population in the area. Unlike his friends, he confronts it head on with his mastery of martial arts while investigating his teacher's murder.", "poster_path": "/ld1kAfLJTgpZVm3jwT58bTxmXl7.jpg", "release_date": "1972-03-22", "title": "Fist of Fury", "video": false, "vote_average": 7.4, "vote_count": 406, "popularity": 22.024}, {"adult": false, "backdrop_path": "/iZOgAvUt6q356da1sfYz1UalNO.jpg", "genre_ids": [80, 18, 10749, 53], "id": 3134, "original_language": "fr", "original_title": "Baise-moi", "overview": "Manu has lived a difficult life. Abused and violently raped, she sets off to find herself only to meet Nadine, a prostitute who has encountered one too many injustices in the world. Angry at the world, they embark on a twisted, rage-filled road trip. They choose to have sex when they please and kill when they need. Leaving a trail of mischief and dead bodies in their wake. Generating a media blitz and manhunt, soon everyone is out to capture the young fugitives.", "poster_path": "/sLvsIgWMH9bV1IZnZOzY5dXKUHe.jpg", "release_date": "2000-06-28", "title": "Baise-moi", "video": false, "vote_average": 4.3, "vote_count": 173, "popularity": 20.226}, {"adult": false, "backdrop_path": "/2BLk25CMNl22IHqVJSAu3nkWoUj.jpg", "genre_ids": [28, 80, 53], "id": 26789, "original_language": "en", "original_title": "No Mercy", "overview": "An unconventional undercover Chicago cop and his partner are recruited to commit the murder of a New Orleans criminal kingpin.", "poster_path": "/iQozlPXgadwTvymHWH1mPWzM80a.jpg", "release_date": "1986-12-19", "title": "No Mercy", "video": false, "vote_average": 5.8, "vote_count": 71, "popularity": 9.053}, {"id": 245891, "video": false, "vote_count": 11528, "vote_average": 7.2, "title": "John Wick", "release_date": "2014-10-22", "original_language": "en", "original_title": "John Wick", "genre_ids": [28, 53], "backdrop_path": "/iJlGxN0p1suzloBGvvBu3QSSlhT.jpg", "adult": false, "overview": "Ex-hitman John Wick comes out of retirement to track down the gangsters that took everything from him.", "poster_path": "/5vHssUeVe25bMrof1HyaPyWgaP.jpg", "popularity": 71.02}, {"adult": false, "backdrop_path": "/19qAk3bQZ6ulspbwhPw1A0bNpii.jpg", "genre_ids": [80, 27, 53], "id": 73861, "original_language": "sr", "original_title": "Srpski film", "overview": "Milos, a retired porn star, leads a normal family life trying to make ends meet. Presented with the opportunity of a lifetime to financially support his family for the rest of their lives, Milos must participate in one last mysterious film. From then on, Milos is drawn into a maelstrom of unbelievable cruelty and mayhem.", "poster_path": "/iB3ynCghwG63MrViBC6YyPzUIAn.jpg", "release_date": "2010-06-16", "title": "A Serbian Film", "video": false, "vote_average": 5.5, "vote_count": 898, "popularity": 15.06}, {"adult": false, "backdrop_path": "/o4psXh7IVD6GFKvBSHjHLzjL2lV.jpg", "genre_ids": [27, 53], "id": 10781, "original_language": "en", "original_title": "The Texas Chainsaw Massacre: The Beginning", "overview": "Chrissie and her friends set out on a road trip for a final fling before one is shipped off to Vietnam. Along the way, bikers harass the foursome and cause an accident that throws Chrissie from the vehicle. The lawman who arrives on the scene kills one of the bikers and brings Chrissie's friends to the Hewitt homestead, where young Leatherface is learning the tools of terror.", "poster_path": "/9elCJIG1TOJ0wew3JVx5ZMkHq5w.jpg", "release_date": "2006-10-06", "title": "The Texas Chainsaw Massacre: The Beginning", "video": false, "vote_average": 6.0, "vote_count": 935, "popularity": 18.392}, {"adult": false, "backdrop_path": "/zWGAnbxjjwY3xFGuOeR26LGbBlG.jpg", "genre_ids": [27, 53], "id": 238636, "original_language": "en", "original_title": "The Purge: Anarchy", "overview": "One night per year, the government sanctions a 12-hour period in which citizens can commit any crime they wish -- including murder -- without fear of punishment or imprisonment. Leo, a sergeant who lost his son, plans a vigilante mission of revenge during the mayhem. However, instead of a death-dealing avenger, he becomes the unexpected protector of four innocent strangers who desperately need his help if they are to survive the night.", "poster_path": "/l1DRl40x2OWUoPP42v8fjKdS1Z3.jpg", "release_date": "2014-07-17", "title": "The Purge: Anarchy", "video": false, "vote_average": 6.6, "vote_count": 4141, "popularity": 32.533}, {"id": 395834, "video": false, "vote_count": 2754, "vote_average": 7.4, "title": "Wind River", "release_date": "2017-08-03", "original_language": "en", "original_title": "Wind River", "genre_ids": [80, 18, 9648, 53], "backdrop_path": "/6B8e784decj9vtKuNjbl9Fes2aZ.jpg", "adult": false, "overview": "An FBI agent teams with the town's veteran game tracker to investigate a murder that occurred on a Native American reservation.", "poster_path": "/pySivdR845Hom4u4T2WNkJxe6Ad.jpg", "popularity": 21.415}, {"adult": false, "backdrop_path": "/tBWZkKMcrWdrpkOAA84FBlzE2XK.jpg", "genre_ids": [12, 28, 53], "id": 9053, "original_language": "en", "original_title": "DOA: Dead or Alive", "overview": "Four beautiful rivals at an invitation-only martial-arts tournament join forces against a sinister threat. Princess Kasumi is an aristocratic warrior trained by martial-arts masters. Tina Armstrong is a wrestling superstar. Helena Douglas is an athlete with a tragic past. Christie Allen earns her keep as a thief and an assassin-for-hire.", "poster_path": "/lZ6vZka2M0jtH1khYWa8j73E275.jpg", "release_date": "2006-09-07", "title": "DOA: Dead or Alive", "video": false, "vote_average": 4.9, "vote_count": 414, "popularity": 16.537}, {"adult": false, "backdrop_path": "/lhQFkzpuGmCbFrLhloYdqwHIOK.jpg", "genre_ids": [28, 12, 80, 53], "id": 53426, "original_language": "en", "original_title": "The Evil That Men Do", "overview": "Professional killer Holland is forced out of retirement to break a Central American government's political torture ring when one of his friends, a Latin American journalist, is killed. The murderer, Doctor Clement Molloch, is the master sadist behind the political torture of innocent victims. Posing as a journalist, Holland lures Molloch out of his fortress-like headquarters by using his murdered friend's wife and daughter as bait. When Holland kidnaps Molloch's sister, the doctor is led on a wild chase that takes him to an abandoned opal mine where he finally comes face to face with Holland.", "poster_path": "/A9xpPlb46mgHNpETfFyDAFa3SlR.jpg", "release_date": "1984-03-14", "title": "The Evil That Men Do", "video": false, "vote_average": 6.3, "vote_count": 29, "popularity": 5.44}, {"adult": false, "backdrop_path": "/sDSwD63e0qfNE1YvH8aczFoSGTt.jpg", "genre_ids": [80, 18, 53], "id": 11826, "original_language": "en", "original_title": "Sexy Beast", "overview": "The idyllic life of retired safecracker Gal is put at risk when a psychotic gangster from his past arrives at his villa in southern Spain, intent on bringing him out of retirement for one last job.", "poster_path": "/rpo9njGpJVLPqRrdM6R7wIqiQ7K.jpg", "release_date": "2001-01-12", "title": "Sexy Beast", "video": false, "vote_average": 7.0, "vote_count": 391, "popularity": 10.199}, {"adult": false, "backdrop_path": "/kiWvoV78Cc3fUwkOHKzyBgVdrDD.jpg", "genre_ids": [37, 18, 12], "id": 281957, "original_language": "en", "original_title": "The Revenant", "overview": "In the 1820s, a frontiersman, Hugh Glass, sets out on a path of vengeance against those who left him for dead after a bear mauling.", "poster_path": "/oXUWEc5i3wYyFnL1Ycu8ppxxPvs.jpg", "release_date": "2015-12-25", "title": "The Revenant", "video": false, "vote_average": 7.5, "vote_count": 12122, "popularity": 30.491}, {"id": 311, "video": false, "vote_count": 2593, "vote_average": 8.4, "title": "Once Upon a Time in America", "release_date": "1984-05-23", "original_language": "en", "original_title": "Once Upon a Time in America", "genre_ids": [80, 18], "backdrop_path": "/vnT6HzjLSDrAweHn9xWykb8Ii6T.jpg", "adult": false, "overview": "A former Prohibition-era Jewish gangster returns to the Lower East Side of Manhattan over thirty years later, where he once again must confront the ghosts and regrets of his old life.", "poster_path": "/x733R4ISI0RbKeHhVkXdTMFmTFr.jpg", "popularity": 23.555}, {"adult": false, "backdrop_path": "/ct2r3CqnA0KtMfib4AvfBU1W9M2.jpg", "genre_ids": [28, 80, 53], "id": 398175, "original_language": "en", "original_title": "Brawl in Cell Block 99", "overview": "After working as a drug courier and getting into a brutal shootout with police, a former boxer finds himself at the mercy of his enemies as they force him to instigate violent acts that turn the prison he resides in into a battleground.", "poster_path": "/lGgIQ10NJ3d0X0uFbbUN4pRrMFZ.jpg", "release_date": "2017-09-23", "title": "Brawl in Cell Block 99", "video": false, "vote_average": 6.8, "vote_count": 605, "popularity": 14.943}, {"id": 994, "video": false, "vote_count": 444, "vote_average": 7.2, "title": "Straw Dogs", "release_date": "1971-12-23", "original_language": "en", "original_title": "Straw Dogs", "genre_ids": [80, 18, 53], "backdrop_path": "/yL7uVOyvwZeP2U0zKIE3WQqoilA.jpg", "adult": false, "overview": "David Sumner, a mild-mannered academic from the United States, marries Amy, an Englishwoman. In order to escape a hectic stateside lifestyle, David and his wife relocate to the small town in rural Cornwall where Amy was raised. There, David is ostracized by the brutish men of the village, including Amy's old flame, Charlie. Eventually the taunts escalate, and two of the locals rape Amy. This sexual assault awakes a shockingly violent side of David.", "poster_path": "/yigkfHE1OhkxPPrjrV78Y9ibGEk.jpg", "popularity": 17.045}], "total_pages": 419, "total_results": 8361}, "recommendations": {"page": 1, "results": [{"adult": false, "backdrop_path": "/2lfscesgmwdS8JvnD96UxkcUj6w.jpg", "genre_ids": [53, 18], "id": 183433, "original_language": "en", "original_title": "Forgetting the Girl", "overview": "Kevin is obsessed with finding a girl who can help him forget his unpleasant past. However, all his encounters with the opposite sex inevitably go afoul. As the rejections mount, Kevin's futile search for happiness and love becomes overwhelmingly turbulent, forcing him to take desperate measures.", "poster_path": "/udM2fve48ZS6GREgWGRr89cMx6n.jpg", "release_date": "2012-10-11", "title": "Forgetting the Girl", "video": false, "vote_average": 6.0, "vote_count": 16, "popularity": 3.593}, {"adult": false, "backdrop_path": "/3BmbWPdohaildOX5NnbIZA52UZR.jpg", "genre_ids": [27, 53, 35], "id": 264227, "original_language": "en", "original_title": "Stripped", "overview": "Four friends head to Vegas for a 21st birthday in hopes of finding adventure, debauchery and memories that will last them a lifetime.", "poster_path": "/bKbl6yjhUG41fYGjKDFgwgbuKNu.jpg", "release_date": "2013-05-14", "title": "Stripped", "video": false, "vote_average": 4.2, "vote_count": 19, "popularity": 4.47}, {"adult": false, "backdrop_path": "/vgnVgUqutYH7Db2X0LJg1UgoR3j.jpg", "genre_ids": [9648, 27, 53], "id": 336167, "original_language": "en", "original_title": "Private Number", "overview": "A series of cryptic phone messages and visions haunt a writer while he struggles to finish a novel. As they increase in intensity, he loses his grip on reality, eventually obsessing over an old mystery that will lead to horrific revelations about both him and his loyal wife.", "poster_path": "/2vn1nJ8sNzMUYQCQMf2sNX7OiXy.jpg", "release_date": "2015-05-01", "title": "Private Number", "video": false, "vote_average": 4.1, "vote_count": 25, "popularity": 2.79}, {"adult": false, "backdrop_path": "/k6iyRsofVkP4GEEY7FrPtUJwRQO.jpg", "genre_ids": [27], "id": 90291, "original_language": "en", "original_title": "Stalker", "overview": "When novelist Paula Martin retreats to the seclusion of her family home Crows Hall she hopes to clear her mind and focus on her new book. The arrival of an assistant, Linda, should take the pressure off... but as the bodies pile up, Paula finds herself trapped in a terrifying nightmare of murder and madness.", "poster_path": "/yuyfCrfY5R1QMzvzLs20Fzbm2AS.jpg", "release_date": "2010-10-17", "title": "Stalker", "video": false, "vote_average": 4.1, "vote_count": 11, "popularity": 5.34}, {"adult": false, "backdrop_path": "/dWxkseQ8fN8cQVavpfkcEJSVPNW.jpg", "genre_ids": [27], "id": 166161, "original_language": "en", "original_title": "Jacob", "overview": "Lonely and disturbed Jacob Kell loved his little sister more than anything on earth. When tragedy strikes, Jacob retaliates the only way he knows how - and anyone who crosses his path will know there is no limit to his brutal vengeance.", "poster_path": "/nG1WdvRSc9JRT8OyraGBUgocOMN.jpg", "release_date": "2011-09-30", "title": "Jacob", "video": false, "vote_average": 4.0, "vote_count": 11, "popularity": 4.454}, {"adult": false, "backdrop_path": "/gf8qjwWlITvT9Z3922ZMVNAkEE6.jpg", "genre_ids": [27, 53], "id": 183661, "original_language": "en", "original_title": "Animus", "overview": "Hoping to find proof of the paranormal, five film students set out to document the legendary Copper Queen Hospital. But as the sun goes down, they experience something far worse than they ever could have imagined and they find themselves pursued by a blood thirsty maniac", "poster_path": "/qEumZTbnPPkXRzFPtRyGhNn4iG2.jpg", "release_date": "2013-03-25", "title": "Animus", "video": false, "vote_average": 4.3, "vote_count": 14, "popularity": 4.189}, {"id": 74016, "video": false, "vote_count": 18, "vote_average": 3.7, "title": "Someone's Knocking at the Door", "release_date": "2009-08-21", "original_language": "en", "original_title": "Someone's Knocking at the Door", "genre_ids": [35, 27], "backdrop_path": "/54dzWn1Xp9EyY5EJ1q3h8Nx7wA9.jpg", "adult": false, "overview": "Returning to the same medical school where they were test subjects years before, two twisted serial killers use brutal sex acts to kill off a group of med students.", "poster_path": "/onUmjP4YKK7HzbbFH0zc52NwUoH.jpg", "popularity": 3.575}, {"adult": false, "backdrop_path": "/1f9FNauewvywbRMw4YRN6ysLdBW.jpg", "genre_ids": [27], "id": 74006, "original_language": "en", "original_title": "6 Degrees of Hell", "overview": "Six individuals are caught up in a supernatural perfect storm as an evil lays claim to one of them while threatening to tear apart the soul of a small Pennsylvania town.", "poster_path": "/jm1mjj3dFY0wEBIG2S3jbi7Me2k.jpg", "release_date": "2012-11-26", "title": "6 Degrees of Hell", "video": false, "vote_average": 3.5, "vote_count": 8, "popularity": 4.11}, {"adult": false, "backdrop_path": "/eypVpNNtjonrlSYJO6VRdAW6O0n.jpg", "genre_ids": [53, 27, 9648], "id": 54511, "original_language": "en", "original_title": "The Collingswood Story", "overview": "My name is Rebecca. When I left for college my ex John thought web cams would help us keep in touch. It does however it also leads us to a dark secret when we meet and cam with Vera Madeline, an on-line psychic, who initiates a deadly reign of terror.", "poster_path": "/1REYW47p7wOItL3kSl0FeWY39ah.jpg", "release_date": "2002-01-01", "title": "The Collingswood Story", "video": false, "vote_average": 4.6, "vote_count": 19, "popularity": 4.316}, {"adult": false, "backdrop_path": "/ioTXXfn9MdLS0NoNdmsE3PxdaIo.jpg", "genre_ids": [27], "id": 406582, "original_language": "en", "original_title": "Delirium", "overview": "Emily has mysteriously returned home to her mother and stepfather, after being missing for over a year - and something came with her.", "poster_path": "/pJlmBBHSdIGQtMlpPgnEhPnOWUR.jpg", "release_date": "2015-05-26", "title": "Delirium", "video": false, "vote_average": 3.5, "vote_count": 10, "popularity": 4.308}, {"adult": false, "backdrop_path": "/cyC1smDqRC3bwruhrxj23Mjl8fX.jpg", "genre_ids": [27, 14], "id": 211914, "original_language": "en", "original_title": "Unlucky Charms", "overview": "Five beautiful girls vie for a chance to become the spokesmodel for diva DeeDee DeVille's new high-end line of lingerie. The claws come out when the competition gets fierce, but when they begin to disappear one by one, they soon find that they are competing for their lives...", "poster_path": "/5re17EYIyw221thueD1lk97FpKQ.jpg", "release_date": "2013-06-05", "title": "Unlucky Charms", "video": false, "vote_average": 3.0, "vote_count": 7, "popularity": 3.94}, {"adult": false, "backdrop_path": "/sLt5tTP7SNx9GFiIpPpkoWhVYM.jpg", "genre_ids": [27, 35], "id": 27743, "original_language": "en", "original_title": "Serial Killing 4 Dummys", "overview": "Casey Noland, a high school kid with no direction in life, decides to pursue the serial killing profession. Only problem...he can't bring himself to kill anybody. Will the help of a gothic chick named Sasha, he attempts to learn the ways of a mass murderer. Meanwhile, a real serial killer is at work in their town and Casey thinks he might know who the maniac is.", "poster_path": "/um9riTrJCQblb38r6uAgzNsjYy6.jpg", "release_date": "2004-01-01", "title": "Serial Killing 101", "video": false, "vote_average": 5.8, "vote_count": 9, "popularity": 1.65}, {"adult": false, "backdrop_path": "/mhwMA0ezJQWfyL3rzoaIH1zVQCD.jpg", "genre_ids": [27], "id": 306307, "original_language": "en", "original_title": "Gnome Alone", "overview": "When a dying old woman gives Zoe a cursed amulet, all of her enemies begin dying tragic deaths at the hands of a GNOME. Now, she must try to stop it before he kills those she loves", "poster_path": "/8K3plogvSUpz5ncwvK3pyNXUMGm.jpg", "release_date": "2015-01-20", "title": "Gnome Alone", "video": false, "vote_average": 2.8, "vote_count": 8, "popularity": 4.845}, {"adult": false, "backdrop_path": "/wyKI4M2HBdyxOf18OXV65JL9jM5.jpg", "genre_ids": [878, 18], "id": 312131, "original_language": "en", "original_title": "The Phoenix Project", "overview": "Four scientists craft a machine to reanimate deceased organisms.", "poster_path": "/5PNaK7VezxDISstdduoFdDFYOzN.jpg", "release_date": "2015-01-16", "title": "The Phoenix Project", "video": false, "vote_average": 4.0, "vote_count": 18, "popularity": 3.922}, {"adult": false, "backdrop_path": "/5h0dGlRmF24Ysjtc27WFWhSzfSb.jpg", "genre_ids": [53, 27], "id": 73943, "original_language": "en", "original_title": "388 Arletta Avenue", "overview": "A young couple find themselves in an unnerving situation with a mysterious stalker.", "poster_path": "/pFi4UJ7eorEKdewWyFFAOizzi84.jpg", "release_date": "2011-09-11", "title": "388 Arletta Avenue", "video": false, "vote_average": 4.8, "vote_count": 26, "popularity": 4.116}, {"adult": false, "backdrop_path": "/uSSxLX7FhJJm8K4iFdP2AY7FcP2.jpg", "genre_ids": [12, 27, 53], "id": 34231, "original_language": "en", "original_title": "The Graves", "overview": "Two inseparable sister's visit to a remote mine town turns into a mind-bending fight for survival against menaces both human and supernatural.", "poster_path": "/eywUSXX7PKLFd87paSRJtmgOrNv.jpg", "release_date": "2010-01-29", "title": "The Graves", "video": false, "vote_average": 3.6, "vote_count": 26, "popularity": 5.298}, {"id": 183412, "video": false, "vote_count": 33, "vote_average": 4.1, "title": "Dead Souls", "release_date": "2012-10-11", "original_language": "en", "original_title": "Dead Souls", "genre_ids": [27], "backdrop_path": "/pXkdAOkxrUnGlS5WxLy0s1pVef9.jpg", "adult": false, "overview": "On his 18th birthday, Johnny finds out that he's come into an inheritance - and his family were a lot stranger than he ever knew...", "poster_path": "/nYvhRhhsE6lwVZwR6FOqsPYsCYd.jpg", "popularity": 4.85}, {"id": 283327, "video": false, "vote_count": 16, "vote_average": 2.6, "title": "Seed 2", "release_date": "2014-07-25", "original_language": "en", "original_title": "Seed 2: The New Breed", "genre_ids": [27, 53], "backdrop_path": "/l0hl4uo6TkgKhLBIkqKHrITYw2W.jpg", "adult": false, "overview": "Coming back from her bachelor party in Las Vegas, Christine and her friends are driving through the hot desert of Nevada. But they are not alone - serial killer Max Seed is back and he brought the whole family.", "poster_path": "/qBP44cQsJxwDQOogJANQr4jDrmF.jpg", "popularity": 3.576}, {"id": 203186, "video": false, "vote_count": 17, "vote_average": 3.7, "title": "The Mine", "release_date": "2013-08-15", "original_language": "en", "original_title": "The Mine", "genre_ids": [12, 27, 9648, 53], "backdrop_path": "/2GLQ4nPyCzMGLAjS044JDOlIQuN.jpg", "adult": false, "overview": "Five school friends seek adventure on Halloween night in an abandoned, haunted mine, only to find to their horror that the ghostly rumors may be true as they fight for survival.", "poster_path": "/rHhTN8U02puLXp40ikUMym5RP9m.jpg", "popularity": 4.63}, {"adult": false, "backdrop_path": "/6t1kov89cXKwZg6xt2RmURNK41f.jpg", "genre_ids": [53], "id": 249109, "original_language": "en", "original_title": "Fractured", "overview": "The film follows \"Dylan White\" who works as a cook in Baton Rouge. He is also in a solid relationship with his girlfriend \"Brandy\". Things are great until strange events prompt him to seek out the truth about himself -- following clues, Dylan discovers a dark past in New Orleans. Can he right his past wrongs and find redemption for his sins?", "poster_path": "/1LV4YehagxFhjKWrOM7EMGEQuim.jpg", "release_date": "2013-04-14", "title": "Fractured", "video": false, "vote_average": 4.7, "vote_count": 7, "popularity": 3.777}], "total_pages": 2, "total_results": 40}, "credits": {"cast": [{"cast_id": 12, "character": "Jennifer", "credit_id": "54029006c3a3684363003f92", "gender": 0, "id": 224180, "name": "Viva Bianca", "order": 0, "profile_path": "/tvNLLhS1fIti3m4uCY01f0I9B8e.jpg"}, {"cast_id": 2, "character": "Sadie", "credit_id": "52fe4ec2c3a36847f82a6553", "gender": 1, "id": 82662, "name": "AnnaLynne McCord", "order": 1, "profile_path": "/9YwWXerGltqjqSDpXBuaik4mYWi.jpg"}, {"cast_id": 3, "character": "Kevin", "credit_id": "52fe4ec2c3a36847f82a6557", "gender": 2, "id": 1954, "name": "Billy Zane", "order": 2, "profile_path": "/lkwvmo7vVL8TpMCDLRoHjZIkJQ4.jpg"}, {"cast_id": 4, "character": "2nd Cop", "credit_id": "52fe4ec2c3a36847f82a655b", "gender": 0, "id": 1277014, "name": "Juan Pablo Veza", "order": 3, "profile_path": "/8U8zXCIZkHVicqSBhg9AUeKFig5.jpg"}, {"cast_id": 5, "character": "Waitress", "credit_id": "52fe4ec2c3a36847f82a655f", "gender": 0, "id": 1131215, "name": "Sadie Katz", "order": 4, "profile_path": "/tUCUOfTP5b1VDylXpiLeTL0bwgl.jpg"}, {"cast_id": 6, "character": "Dead Guy in Alley", "credit_id": "52fe4ec2c3a36847f82a6563", "gender": 2, "id": 1277015, "name": "Rich Grosso", "order": 5, "profile_path": "/uuddqPtFV9NxgIGTs8pkuLN0UdH.jpg"}, {"cast_id": 7, "character": "Cute waitress", "credit_id": "52fe4ec2c3a36847f82a6567", "gender": 0, "id": 1277016, "name": "Denise Glass", "order": 6, "profile_path": null}, {"cast_id": 8, "character": "Scary Guy", "credit_id": "52fe4ec2c3a36847f82a656b", "gender": 0, "id": 1277017, "name": "Doug Drucker", "order": 7, "profile_path": "/ryEyM8gwaOvbUUFKIDTQrVvO5oT.jpg"}], "crew": [{"credit_id": "52fe4ec2c3a36847f82a6571", "department": "Directing", "gender": 2, "id": 70558, "job": "Director", "name": "Mark Jones", "profile_path": null}, {"credit_id": "52fe4ec2c3a36847f82a6577", "department": "Writing", "gender": 2, "id": 70558, "job": "Writer", "name": "Mark Jones", "profile_path": null}, {"credit_id": "52fe4ec2c3a36847f82a657d", "department": "Writing", "gender": 0, "id": 1131215, "job": "Writer", "name": "Sadie Katz", "profile_path": "/tUCUOfTP5b1VDylXpiLeTL0bwgl.jpg"}, {"credit_id": "579d37ecc3a36837ea0020cd", "department": "Production", "gender": 0, "id": 1037909, "job": "Executive Producer", "name": "Kevin Kasha", "profile_path": null}]}}