{"adult": false, "backdrop_path": "/lxcnpNbAtF53pUFiGbj56MN81i3.jpg", "belongs_to_collection": null, "budget": 0, "genres": [{"id": 37, "name": "Western"}], "homepage": null, "id": 242629, "imdb_id": "tt0050547", "original_language": "en", "original_title": "The Iron Sheriff", "overview": "Frontier peacekeeper Sheriff Galt (Sterling Hayden) faces a crisis of conscience in The Iron Sheriff. In the aftermath of a robbery-murder, Galt follows the trail of evidence directly to his own son, Benjie (Darryl Hickman). Sworn to uphold the law at all costs, Galt is grimly determined to see that Benjie will receive a fair trial without any coercion on his part. But the townsfolk have already decided that the sheriff will try to spring the boy, and a lynch-mob mentality slows festers its way through the community. As the trial proceeds, it becomes obvious that Benjie is going to hang for his alleged crime, but there's still one or two surprises in store.", "popularity": 2.4, "poster_path": "/xmo8p4BtEpQx0o7MqAaoP0pBYnD.jpg", "production_companies": [{"id": 53729, "logo_path": null, "name": "Grand Productions (I)", "origin_country": ""}], "production_countries": [{"iso_3166_1": "US", "name": "United States of America"}], "release_date": "1957-04-01", "revenue": 0, "runtime": 73, "spoken_languages": [{"iso_639_1": "en", "name": "English"}], "status": "Released", "tagline": "The whole town crawled under his gun...", "title": "The Iron Sheriff", "video": false, "vote_average": 6.0, "vote_count": 2, "keywords": {"keywords": [{"id": 798, "name": "sheriff"}, {"id": 10950, "name": "shootout"}]}, "similar": {"page": 1, "results": [{"id": 49849, "video": false, "vote_count": 3363, "vote_average": 5.5, "title": "Cowboys & Aliens", "release_date": "2011-07-29", "original_language": "en", "original_title": "Cowboys & Aliens", "genre_ids": [28, 878, 53, 37], "backdrop_path": "/gTDwoJBCu7scwYQoykIlLNpkCes.jpg", "adult": false, "overview": "A stranger stumbles into the desert town of Absolution with no memory of his past and a futuristic shackle around his wrist. With the help of mysterious beauty Ella and the iron-fisted Colonel Dolarhyde, he finds himself leading an unlikely posse of cowboys, outlaws, and Apache warriors against a common enemy from beyond this world in an epic showdown for survival.", "poster_path": "/9uZsGCP4rvOHVGCpMpYq5gNCuNI.jpg", "popularity": 21.609}, {"id": 223485, "video": false, "vote_count": 586, "vote_average": 6.6, "title": "Slow West", "release_date": "2015-04-16", "original_language": "en", "original_title": "Slow West", "genre_ids": [28, 18, 53, 37, 10749], "backdrop_path": "/9qF6lhj6X0ImH4iWGZs1uspXJI0.jpg", "adult": false, "overview": "In the Old West, a 17-year-old Scottish boy teams up with a mysterious gunman to find the woman with whom he is infatuated.", "poster_path": "/uZ9dBBn0GaEw0YIBvQd01Io3pho.jpg", "popularity": 10.467}, {"id": 196, "video": false, "vote_count": 6115, "vote_average": 7.4, "title": "Back to the Future Part III", "release_date": "1990-05-25", "original_language": "en", "original_title": "Back to the Future Part III", "genre_ids": [12, 35, 878], "backdrop_path": "/pP2a4MBQbIeZMbErBWMjxTT5Npb.jpg", "adult": false, "overview": "The final installment of the Back to the Future trilogy finds Marty digging the trusty DeLorean out of a mineshaft and looking for Doc in the Wild West of 1885. But when their time machine breaks down, the travelers are stranded in a land of spurs. More problems arise when Doc falls for pretty schoolteacher Clara Clayton, and Marty tangles with Buford Tannen.", "poster_path": "/6DmgPTZYaug7QNDjOhUDWyjOQDl.jpg", "popularity": 17.871}, {"id": 8961, "video": false, "vote_count": 2968, "vote_average": 6.5, "title": "Bad Boys II", "release_date": "2003-07-18", "original_language": "en", "original_title": "Bad Boys II", "genre_ids": [28, 12, 35, 80, 53], "backdrop_path": "/5xQVApmdUbBlCi1QzS8NwbCF0Ne.jpg", "adult": false, "overview": "Out-of-control, trash-talking buddy cops Marcus Burnett and Mike Lowrey of the Miami Narcotics Task Force reunite, and bullets fly, cars crash and laughs explode as they pursue a whacked-out drug lord from the streets of Miami to the barrios of Cuba. But the real fireworks result when Marcus discovers that playboy Mike is secretly romancing Marcus\u2019 sexy sister.", "poster_path": "/680X9apSqmAcebLg8evnnUeQNeI.jpg", "popularity": 37.123}, {"adult": false, "backdrop_path": "/pzPaaVzfSX3RuGAhrFy4JoGpv53.jpg", "genre_ids": [28, 80, 18, 37], "id": 11509, "original_language": "en", "original_title": "Silverado", "overview": "Four unwitting heroes cross paths on their journey to the sleepy town of Silverado. Little do they know the town where their family and friends reside has been taken over by a corrupt sheriff and a murderous posse. It's up to the sharp-shooting foursome to save the day, but first they have to break each other out of jail, and learn who their real friends are.", "poster_path": "/71nP6NbVPM0tqSM20ZvBfHGIHXm.jpg", "release_date": "1985-07-10", "title": "Silverado", "video": false, "vote_average": 7.1, "vote_count": 307, "popularity": 10.122}, {"id": 11967, "video": false, "vote_count": 471, "vote_average": 6.7, "title": "Young Guns", "release_date": "1988-08-12", "original_language": "en", "original_title": "Young Guns", "genre_ids": [28, 12, 80, 18, 37], "backdrop_path": "/llVClV0i94ELiR9dO47fJkPwbq6.jpg", "adult": false, "overview": "A group of young gunmen, led by Billy the Kid, become deputies to avenge the murder of the rancher who became their benefactor. But when Billy takes their authority too far, they become the hunted.", "poster_path": "/wkGbwWHIM23BkmMBm7GQHaCZan8.jpg", "popularity": 12.556}, {"adult": false, "backdrop_path": "/xBhRhY8KimSrPx6AMJXigpzlGQ2.jpg", "genre_ids": [28, 35, 80], "id": 96, "original_language": "en", "original_title": "Beverly Hills Cop II", "overview": "Axel heads for the land of sunshine and palm trees to find out who shot police Captain Andrew Bogomil. Thanks to a couple of old friends, Axel's investigation uncovers a series of robberies masterminded by a heartless weapons kingpin\u2014and the chase is on.", "poster_path": "/2y1z1baxKT0coTTRlnkI6McnR9f.jpg", "release_date": "1987-05-18", "title": "Beverly Hills Cop II", "video": false, "vote_average": 6.4, "vote_count": 1235, "popularity": 13.336}, {"id": 9679, "video": false, "vote_count": 2590, "vote_average": 6.3, "title": "Gone in Sixty Seconds", "release_date": "2000-06-09", "original_language": "en", "original_title": "Gone in Sixty Seconds", "genre_ids": [28, 80, 53], "backdrop_path": "/uqd4cqpp6gbs6zG6izBUaCorgjv.jpg", "adult": false, "overview": "Upon learning that he has to come out of retirement to steal 50 cars in one night to save his brother Kip's life, former car thief Randall \"Memphis\" Raines enlists help from a few \"boost happy\" pals to accomplish a seemingly impossible feat. From countless car chases to relentless cops, the high-octane excitement builds as Randall swerves around more than a few roadblocks to keep Kip alive.", "poster_path": "/77TxKvRiX0c5JR6l4fxcN19prOy.jpg", "popularity": 20.394}, {"adult": false, "backdrop_path": "/2p5rA1NRoyyAFfzdHl1Ab1RN3qr.jpg", "genre_ids": [80, 28, 878], "id": 9739, "original_language": "en", "original_title": "Demolition Man", "overview": "Simon Phoenix, a violent criminal cryogenically frozen in 1996, escapes during a parole hearing in 2032 in the utopia of San Angeles. Police are incapable of dealing with his violent ways and turn to his captor, who had also been cryogenically frozen after being wrongfully accused of killing 30 innocent people while apprehending Phoenix.", "poster_path": "/k0PN3Ho12cGGIVJW7SCS7apLYaP.jpg", "release_date": "1993-10-08", "title": "Demolition Man", "video": false, "vote_average": 6.5, "vote_count": 1913, "popularity": 16.803}, {"adult": false, "backdrop_path": "/aJCEQFFXNcfg5YneJzTG15qzxF7.jpg", "genre_ids": [28, 53], "id": 1572, "original_language": "en", "original_title": "Die Hard: With a Vengeance", "overview": "New York detective John McClane is back and kicking bad-guy butt in the third installment of this action-packed series, which finds him teaming with civilian Zeus Carver to prevent the loss of innocent lives. McClane thought he'd seen it all, until a genius named Simon engages McClane, his new \"partner\" -- and his beloved city -- in a deadly game that demands their concentration.", "poster_path": "/ivpXGcsPZglyYrN65THWSD7JM3q.jpg", "release_date": "1995-05-19", "title": "Die Hard: With a Vengeance", "video": false, "vote_average": 7.1, "vote_count": 3603, "popularity": 27.341}, {"adult": false, "backdrop_path": "/e1svWjxTXMOmdgkVLSPHSfWv90R.jpg", "genre_ids": [28, 18, 53], "id": 2502, "original_language": "en", "original_title": "The Bourne Supremacy", "overview": "When a CIA operation to purchase classified Russian documents is blown by a rival agent, who then shows up in the sleepy seaside village where Bourne and Marie have been living. The pair run for their lives and Bourne, who promised retaliation should anyone from his former life attempt contact, is forced to once again take up his life as a trained assassin to survive.", "poster_path": "/jXwZgmqOtsqsXuB9oGhocOAegCM.jpg", "release_date": "2004-07-23", "title": "The Bourne Supremacy", "video": false, "vote_average": 7.3, "vote_count": 4750, "popularity": 17.814}, {"id": 306, "video": false, "vote_count": 909, "vote_average": 5.8, "title": "Beverly Hills Cop III", "release_date": "1994-05-24", "original_language": "en", "original_title": "Beverly Hills Cop III", "genre_ids": [28, 35, 80], "backdrop_path": "/9En9020IPIGzVW4cgaqmSMCNNiw.jpg", "adult": false, "overview": "Back in sunny southern California and on the trail of two murderers, Axel Foley again teams up with LA cop Billy Rosewood. Soon, they discover that an amusement park is being used as a front for a massive counterfeiting ring \u2013 and it's run by the same gang that shot Billy's boss.", "poster_path": "/tw9gAhqQcBFX0X0XfVbWqUsmzoU.jpg", "popularity": 12.544}, {"id": 5176, "video": false, "vote_count": 2040, "vote_average": 7.1, "title": "3:10 to Yuma", "release_date": "2007-09-06", "original_language": "en", "original_title": "3:10 to Yuma", "genre_ids": [37], "backdrop_path": "/fOuig5rhqkrVVD1VsoL1jPz15hR.jpg", "adult": false, "overview": "In Arizona in the late 1800s, infamous outlaw Ben Wade and his vicious gang of thieves and murderers have plagued the Southern Railroad. When Wade is captured, Civil War veteran Dan Evans, struggling to survive on his drought-plagued ranch, volunteers to deliver him alive to the \"3:10 to Yuma\", a train that will take the killer to trial.", "poster_path": "/9Nwkh0eQmkymEOR0ovAALtjSIZW.jpg", "popularity": 21.226}, {"adult": false, "backdrop_path": "/fX6o5DCdGVEEZ1OT1IourOUkQMb.jpg", "genre_ids": [16, 35, 10751, 37, 12], "id": 44896, "original_language": "en", "original_title": "Rango", "overview": "When Rango, a lost family pet, accidentally winds up in the gritty, gun-slinging town of Dirt, the less-than-courageous lizard suddenly finds he stands out. Welcomed as the last hope the town has been waiting for, new Sheriff Rango is forced to play his new role to the hilt.", "poster_path": "/afxRbCwwKjrWgGJtsVNs1BW1Dk5.jpg", "release_date": "2011-03-02", "title": "Rango", "video": false, "vote_average": 6.6, "vote_count": 3768, "popularity": 20.053}, {"adult": false, "backdrop_path": "/xGC2fY5KFmtuXnsuQwYQKFOLZFy.jpg", "genre_ids": [37], "id": 429, "original_language": "it", "original_title": "Il buono, il brutto, il cattivo", "overview": "While the Civil War rages between the Union and the Confederacy, three men \u2013 a quiet loner, a ruthless hit man and a Mexican bandit \u2013 comb the American Southwest in search of a strongbox containing $200,000 in stolen gold.", "poster_path": "/wfPHdfofBD5PN96dV96a51B3Ja2.jpg", "release_date": "1966-12-23", "title": "The Good, the Bad and the Ugly", "video": false, "vote_average": 8.4, "vote_count": 4582, "popularity": 33.627}, {"adult": false, "backdrop_path": "/7AUPQeq5hITjaTahU8zbHpfWeev.jpg", "genre_ids": [18, 28, 37, 12], "id": 12160, "original_language": "en", "original_title": "Wyatt Earp", "overview": "Covering the life and times of one of the West's most iconic heroes Wyatt Earp weaves an intricate tale of Earp and his friends and family. With a star studded cast, sweeping cinematography and authentic costumes Wyatt Earp led the way during the Western revival in the 90's.", "poster_path": "/zSGDgcWHqmQxmX4mLJZgT5UgLjj.jpg", "release_date": "1994-06-24", "title": "Wyatt Earp", "video": false, "vote_average": 6.6, "vote_count": 386, "popularity": 12.818}, {"id": 1632, "video": false, "vote_count": 770, "vote_average": 7.6, "title": "Mississippi Burning", "release_date": "1988-12-08", "original_language": "en", "original_title": "Mississippi Burning", "genre_ids": [80, 18, 53], "backdrop_path": "/4ypwob4uxh0q1osOFq2Wh7zdopT.jpg", "adult": false, "overview": "Two FBI agents investigating the murder of civil rights workers during the 60s seek to breach the conspiracy of silence in a small Southern town where segregation divides black and white. The younger agent trained in FBI school runs up against the small town ways of his partner, a former sheriff.", "poster_path": "/uSukdUQwx0l4rRuMXNqugR1tu4n.jpg", "popularity": 16.862}, {"id": 288, "video": false, "vote_count": 710, "vote_average": 7.7, "title": "High Noon", "release_date": "1952-03-27", "original_language": "en", "original_title": "High Noon", "genre_ids": [37], "backdrop_path": "/6AH0BpiEaLz3NMTaBhqgHdA4YJ6.jpg", "adult": false, "overview": "Will Kane, the sheriff of a small town in New Mexico, learns a notorious outlaw he put in jail has been freed, and will be arriving on the noon train. Knowing the outlaw and his gang are coming to kill him, Kane is determined to stand his ground, so he gathers a posse from among the local townspeople.", "poster_path": "/nUSLv12qQWhHB60PqXDBRP1wmJa.jpg", "popularity": 13.26}, {"id": 2055, "video": false, "vote_count": 516, "vote_average": 7.2, "title": "Open Range", "release_date": "2003-08-29", "original_language": "en", "original_title": "Open Range", "genre_ids": [37], "backdrop_path": "/6AMxmRkwk2pZuf8GkRYeGvc20yN.jpg", "adult": false, "overview": "A former gunslinger is forced to take up arms again when he and his cattle crew are threatened by a corrupt lawman.", "poster_path": "/ykW80VDB24lg4m5QkIPsXtWkWTr.jpg", "popularity": 11.898}, {"id": 9394, "video": false, "vote_count": 657, "vote_average": 7.6, "title": "They Call Me Trinity", "release_date": "1970-12-22", "original_language": "it", "original_title": "Lo chiamavano Trinit\u00e0...", "genre_ids": [28, 35, 37], "backdrop_path": "/iE2Y2s15xQcNTG3x7gU2gZVvZ9x.jpg", "adult": false, "overview": "The simple story has the pair coming to the rescue of peace-loving Mormons when land-hungry Major Harriman sends his bullies to harass them into giving up their fertile valley. Trinity and Bambino manage to save the Mormons and send the bad guys packing with slapstick humor instead of excessive violence, saving the day.", "poster_path": "/5b38dfzKqUmTY2HRYrdKJ8vFWAR.jpg", "popularity": 14.663}], "total_pages": 111, "total_results": 2204}, "recommendations": {"page": 1, "results": [], "total_pages": 1, "total_results": 0}, "credits": {"cast": [{"cast_id": 2, "character": "Sheriff Samuel Galt", "credit_id": "52fe4ed2c3a36847f82aa033", "gender": 2, "id": 3088, "name": "Sterling Hayden", "order": 0, "profile_path": "/zFntWs4OdfXszzEauHrMURQJkRD.jpg"}, {"cast_id": 3, "character": "Benjie Galt", "credit_id": "52fe4ed2c3a36847f82aa037", "gender": 0, "id": 81481, "name": "Darryl Hickman", "order": 1, "profile_path": "/bRMxUW00nvYWJZf2X0k09i2tjyz.jpg"}, {"cast_id": 4, "character": "Claire", "credit_id": "52fe4ed2c3a36847f82aa03b", "gender": 0, "id": 1221520, "name": "Constance Ford", "order": 2, "profile_path": "/rLDLMSMHuajkoI3jeiZEq1Fp3n3.jpg"}, {"cast_id": 5, "character": "Roger Pollack", "credit_id": "52fe4ed2c3a36847f82aa03f", "gender": 2, "id": 82863, "name": "John Dehner", "order": 3, "profile_path": "/2maCnzFC38ACrrAtFOCMj0GoQ8V.jpg"}, {"cast_id": 6, "character": "Phil Quincy", "credit_id": "52fe4ed2c3a36847f82aa043", "gender": 0, "id": 96250, "name": "Kent Taylor", "order": 4, "profile_path": "/7AcD1e7fPv1aCZtscLZhqZt2eVz.jpg"}, {"cast_id": 7, "character": "Judge", "credit_id": "52fe4ed2c3a36847f82aa047", "gender": 2, "id": 34279, "name": "Will Wright", "order": 5, "profile_path": "/zUdSY3q6vUd8hyuhX25fvnZTVdg.jpg"}, {"cast_id": 8, "character": "Marshal Ellison", "credit_id": "52fe4ed2c3a36847f82aa04b", "gender": 2, "id": 94293, "name": "Walter Sande", "order": 6, "profile_path": "/f00AxGufQUX1EaO8gKswFUQPyDG.jpg"}, {"cast_id": 9, "character": "Holloway", "credit_id": "52fe4ed2c3a36847f82aa04f", "gender": 2, "id": 30115, "name": "Frank Ferguson", "order": 7, "profile_path": "/9CgQ5j8YU3TAux6aUOgXvABLHJB.jpg"}, {"cast_id": 10, "character": "Leveret", "credit_id": "52fe4ed2c3a36847f82aa053", "gender": 2, "id": 69811, "name": "King Donovan", "order": 8, "profile_path": "/mREKj50gHPnaoBgJ3e0m4mFbLGF.jpg"}, {"cast_id": 11, "character": "Sutherland", "credit_id": "52fe4ed2c3a36847f82aa057", "gender": 2, "id": 45525, "name": "Mort Mills", "order": 9, "profile_path": "/1KmPkFX992nBkDBPzg5QoWB8v4K.jpg"}, {"cast_id": 12, "character": "Kathi Walden", "credit_id": "52fe4ed2c3a36847f82aa05b", "gender": 1, "id": 55724, "name": "Kathleen Nolan", "order": 10, "profile_path": "/3cCtGy91by2VR0iUq4XkUEeHXeO.jpg"}, {"cast_id": 13, "character": "Gene Walden", "credit_id": "52fe4ed2c3a36847f82aa05f", "gender": 2, "id": 120739, "name": "I. Stanford Jolley", "order": 11, "profile_path": "/f52QrybfGyAgm9pH9BnY95MBd7C.jpg"}, {"cast_id": 14, "character": "Nettie Holcomb", "credit_id": "52fe4ed2c3a36847f82aa063", "gender": 1, "id": 97257, "name": "Marjorie Bennett", "order": 12, "profile_path": "/cyY0ltPueaqENXEBnd0KWE5VHRd.jpg"}, {"cast_id": 31, "character": "Jackson Gallagher", "credit_id": "57d42c2392514160ab005326", "gender": 2, "id": 179592, "name": "Peter Miller", "order": 13, "profile_path": null}, {"cast_id": 16, "character": "Bilson", "credit_id": "52fe4ed2c3a36847f82aa06b", "gender": 2, "id": 34423, "name": "Ray Walker", "order": 14, "profile_path": "/8cOCfrJ5zbf1QvrJhPZFSuTDKXD.jpg"}, {"cast_id": 18, "character": "Jed", "credit_id": "52fe4ed2c3a36847f82aa073", "gender": 2, "id": 96722, "name": "Byron Foulger", "order": 15, "profile_path": "/iMr3cELQ3pNBcUfnrcH6FP9SIZO.jpg"}, {"cast_id": 19, "character": "Sorenson", "credit_id": "52fe4ed2c3a36847f82aa077", "gender": 2, "id": 34211, "name": "Roy Gordon", "order": 16, "profile_path": "/wAnt4yusdtFLvCPrT0rq8j3gnmH.jpg"}, {"cast_id": 20, "character": "Sheriff Joe Tilyou", "credit_id": "52fe4ed2c3a36847f82aa07b", "gender": 0, "id": 120070, "name": "Robert Williams", "order": 17, "profile_path": "/lFO6YQPH0byE6A7X5eF5FErc61V.jpg"}, {"cast_id": 22, "character": "Dr. Amos Leyland", "credit_id": "55d71f58925141670c00218a", "gender": 2, "id": 932308, "name": "Ferris Taylor", "order": 18, "profile_path": null}], "crew": [{"credit_id": "56e00b409251412b1b002c60", "department": "Camera", "gender": 2, "id": 3253, "job": "Director of Photography", "name": "Kenneth Peach", "profile_path": null}, {"credit_id": "56e00c7dc3a3687489004366", "department": "Art", "gender": 0, "id": 34412, "job": "Set Decoration", "name": "Herman N. Schoenbrun", "profile_path": null}, {"credit_id": "52fe4ed2c3a36847f82aa02f", "department": "Directing", "gender": 2, "id": 91789, "job": "Director", "name": "Sidney Salkow", "profile_path": "/fWUNePRsd1STYmjuucTvjK0xcqz.jpg"}, {"credit_id": "56e00b5692514125cd002931", "department": "Editing", "gender": 2, "id": 100578, "job": "Editor", "name": "Grant Whytock", "profile_path": null}, {"credit_id": "56e00b319251412b1b002c5d", "department": "Sound", "gender": 2, "id": 100580, "job": "Music", "name": "Emil Newman", "profile_path": null}, {"credit_id": "56e00c91c3a368748900436b", "department": "Crew", "gender": 0, "id": 118295, "job": "Property Master", "name": "Max Frankel", "profile_path": null}, {"credit_id": "56e00bdfc3a36874820035e8", "department": "Art", "gender": 2, "id": 1102751, "job": "Art Direction", "name": "Bill Ross", "profile_path": null}, {"credit_id": "555b521292514163b5000318", "department": "Writing", "gender": 0, "id": 1226784, "job": "Writer", "name": "Seeleg Lester", "profile_path": null}, {"credit_id": "56e00b00c3a36874820035c9", "department": "Production", "gender": 0, "id": 1588172, "job": "Producer", "name": "Jerome C. Robinson", "profile_path": null}, {"credit_id": "56e00ca392514125cd00295d", "department": "Directing", "gender": 2, "id": 1588181, "job": "Script Supervisor", "name": "George Rutter", "profile_path": null}]}}