{"adult": false, "backdrop_path": "/nUd4VHLMwvfFg27EiqKiKYZzROJ.jpg", "belongs_to_collection": null, "budget": 0, "genres": [{"id": 35, "name": "Comedy"}, {"id": 10749, "name": "Romance"}], "homepage": "http://www.splinterheadsthemovie.com/", "id": 24385, "imdb_id": "tt1254696", "original_language": "en", "original_title": "Splinterheads", "overview": "SPLINTERHEADS introduces Thomas Middleditch as Justin Frost, a twenty-something slacker whose \u201cthing\u201d is that he has no \u201cthing\u201d at all. When a small-time carnival rolls into town, he meets Galaxy (Rachael Taylor), a gorgeous con artist, or \u201csplinterhead,\u201d who has more \u201cthings\u201d going for her than anyone he has ever met.", "popularity": 4.215, "poster_path": "/pjkmtv2RGpEzOzPjwOktKlzR7Dq.jpg", "production_companies": [{"id": 5387, "logo_path": "/3klEFhjGxV1hC2Ai71L4PpjGiBz.png", "name": "Atlantic Pictures", "origin_country": "US"}], "production_countries": [{"iso_3166_1": "US", "name": "United States of America"}], "release_date": "2009-11-06", "revenue": 0, "runtime": 94, "spoken_languages": [], "status": "Released", "tagline": "Life is full of attractions.", "title": "Splinterheads", "video": false, "vote_average": 6.3, "vote_count": 12, "keywords": {"keywords": [{"id": 3473, "name": "carnival"}, {"id": 8631, "name": "slacker"}, {"id": 10183, "name": "independent film"}]}, "similar": {"page": 1, "results": [{"id": 298312, "video": false, "vote_count": 2921, "vote_average": 6.2, "title": "The Visit", "release_date": "2015-09-10", "original_language": "en", "original_title": "The Visit", "genre_ids": [27, 9648, 53], "backdrop_path": "/gbJlEeALVGo7kx8bC2q4EFWX1Xy.jpg", "adult": false, "overview": "The terrifying story of a brother and sister who are sent to their grandparents' remote Pennsylvania farm for a weeklong trip. Once the children discover that the elderly couple is involved in something deeply disturbing, they see their chances of getting back home are growing smaller every day.", "poster_path": "/32tNtTEQ1vIOLm1hEOSFkVwJT5D.jpg", "popularity": 20.148}, {"adult": false, "backdrop_path": "/4BMel8xxSed1pCkPSGc9R3jsUtC.jpg", "genre_ids": [18, 10749], "id": 142, "original_language": "en", "original_title": "Brokeback Mountain", "overview": "Two modern-day cowboys meet on a shepherding job in the summer of '63, the two share a raw and powerful summer together that turns into a lifelong relationship conflicting with the lives they are supposed to live.", "poster_path": "/z2DqVxj17aW6xpimRlCLfhKSfUm.jpg", "release_date": "2005-09-10", "title": "Brokeback Mountain", "video": false, "vote_average": 7.8, "vote_count": 3787, "popularity": 19.947}, {"adult": false, "backdrop_path": "/eHhtUoazdml8CMvzWtpunIyqrZS.jpg", "genre_ids": [18, 53, 10749], "id": 884, "original_language": "en", "original_title": "Crash", "overview": "After getting into a serious car accident, a TV director discovers an underground sub-culture of scarred, omnisexual car-crash victims who use car accidents and the raw sexual energy they produce to try to rejuvenate his sex life with his wife.", "poster_path": "/4PDLGJsS5uVBQlYjLMZ7t85dU0P.jpg", "release_date": "1996-07-17", "title": "Crash", "video": false, "vote_average": 6.5, "vote_count": 438, "popularity": 15.592}, {"id": 4638, "video": false, "vote_count": 4426, "vote_average": 7.5, "title": "Hot Fuzz", "release_date": "2007-02-14", "original_language": "en", "original_title": "Hot Fuzz", "genre_ids": [28, 35, 80], "backdrop_path": "/zuskekrfW3gj9ttXNVhfdHe5n22.jpg", "adult": false, "overview": "As a former London constable, Nicholas Angel finds it difficult to adapt to his new assignment in the sleepy British village of Sandford. Not only does he miss the excitement of the big city, but he also has a well-meaning oaf for a partner. However, when a series of grisly accidents rocks Sandford, Angel smells something rotten in the idyllic village.", "poster_path": "/5Jx6s6VXnunh8wCLgR0YgjwSgjh.jpg", "popularity": 25.234}, {"id": 193893, "video": false, "vote_count": 1813, "vote_average": 6.3, "title": "Let's Be Cops", "release_date": "2014-08-13", "original_language": "en", "original_title": "Let's Be Cops", "genre_ids": [35], "backdrop_path": "/43GrPpAeBUOvOCZ8L1A3MLuDnkc.jpg", "adult": false, "overview": "It's the ultimate buddy cop movie except for one thing: they're not cops.  When two struggling pals dress as police officers for a costume party, they become neighborhood sensations.  But when these newly-minted \u201cheroes\u201d get tangled in a real life web of mobsters and dirty detectives, they must put their fake badges on the line.", "poster_path": "/ayYibwWAA9NxJPaD9GSybPShtvL.jpg", "popularity": 20.729}, {"id": 449176, "video": false, "vote_count": 3690, "vote_average": 8.1, "title": "Love, Simon", "release_date": "2018-02-16", "original_language": "en", "original_title": "Love, Simon", "genre_ids": [35, 18, 10749], "backdrop_path": "/rqMEeajyzSF4PpJtdCB816Iz8Vr.jpg", "adult": false, "overview": "Everyone deserves a great love story. But for seventeen-year old Simon Spier it's a little more complicated: he's yet to tell his family or friends he's gay and he doesn't know the identity of the anonymous classmate he's fallen for online.", "poster_path": "/5YUYg5q7QfC4IoNwNUtiwdiYKPr.jpg", "popularity": 24.849}, {"id": 334533, "video": false, "vote_count": 3916, "vote_average": 8.0, "title": "Captain Fantastic", "release_date": "2016-07-02", "original_language": "en", "original_title": "Captain Fantastic", "genre_ids": [12, 35, 18], "backdrop_path": "/hzp6irYITiJc5JUA1GZhmbE10pD.jpg", "adult": false, "overview": "A father living in the forests of the Pacific Northwest with his six young kids tries to assimilate back into society.", "poster_path": "/fnaGmGCWgGOQjCpM0TqKPZJ5x85.jpg", "popularity": 22.432}, {"id": 11811, "video": false, "vote_count": 284, "vote_average": 5.2, "title": "Leprechaun", "release_date": "1993-01-08", "original_language": "en", "original_title": "Leprechaun", "genre_ids": [35, 27, 53], "backdrop_path": "/32Oy8gCg6gBGMMkZvdAq4xjZ0Qj.jpg", "adult": false, "overview": "A horrific Leprechaun goes on a rampage after his precious bag of gold coins is stolen. He uses all of his magical destructive powers to trick, terrorize and kill anyone who is unlucky enough to hinder his relentless search. In a frantic attempt to survive the wrath of the Leprechaun, Tori and her friends scramble to find the only weapon known to kill this Irish monster...a four-leaf clover.", "poster_path": "/2dsUS77eZIjWduahxqYtp3U0zS2.jpg", "popularity": 12.88}, {"id": 747, "video": false, "vote_count": 5107, "vote_average": 7.5, "title": "Shaun of the Dead", "release_date": "2004-04-09", "original_language": "en", "original_title": "Shaun of the Dead", "genre_ids": [35, 27], "backdrop_path": "/50mMiR0R1QclaAODTutwXBrReLJ.jpg", "adult": false, "overview": "Shaun lives a supremely uneventful life, which revolves around his girlfriend, his mother, and, above all, his local pub. This gentle routine is threatened when the dead return to life and make strenuous attempts to snack on ordinary Londoners.", "poster_path": "/2evlcGnsfdFWLb7geNlIjIewc0Q.jpg", "popularity": 26.09}, {"id": 490132, "video": false, "vote_count": 5172, "vote_average": 8.3, "title": "Green Book", "release_date": "2018-11-16", "original_language": "en", "original_title": "Green Book", "genre_ids": [35, 18], "backdrop_path": "/78PjwaykLY2QqhMfWRDvmfbC6EV.jpg", "adult": false, "overview": "Tony Lip, a bouncer in 1962, is hired to drive pianist Don Shirley on a tour through the Deep South in the days when African Americans, forced to find alternate accommodations and services due to segregation laws below the Mason-Dixon Line, relied on a guide called The Negro Motorist Green Book.", "poster_path": "/7BsvSuDQuoqhWmU2fL7W2GOcZHU.jpg", "popularity": 35.522}, {"adult": false, "backdrop_path": "/cLOekK7EmHB1beYUYEXIlcr6mpS.jpg", "genre_ids": [10752, 36, 28, 12, 18, 10749], "id": 1966, "original_language": "en", "original_title": "Alexander", "overview": "Alexander, the King of Macedonia, leads his legions against the giant Persian Empire. After defeating the Persians, he leads his army across the then known world, venturing farther than any westerner had ever gone, all the way to India.", "poster_path": "/cJrnmbsFm5cEt0pHZZ2a1ueH5aT.jpg", "release_date": "2004-11-21", "title": "Alexander", "video": false, "vote_average": 5.8, "vote_count": 1987, "popularity": 24.267}, {"id": 512196, "video": false, "vote_count": 1562, "vote_average": 6.2, "title": "Happy Death Day 2U", "release_date": "2019-02-13", "original_language": "en", "original_title": "Happy Death Day 2U", "genre_ids": [35, 27, 878], "backdrop_path": "/3KdQh3EsjXBSojVydtBQEh5TdAG.jpg", "adult": false, "overview": "Collegian Tree Gelbman wakes up in horror to learn that she's stuck in a parallel universe. Her boyfriend Carter is now with someone else, and her friends and fellow students seem to be completely different versions of themselves. When Tree discovers that Carter's roommate has been altering time, she finds herself once again the target of a masked killer. When the psychopath starts to go after her inner circle, Tree soon realizes that she must die over and over again to save everyone.", "poster_path": "/4tdnePOkOOzwuGPEOAHp8UA4vqx.jpg", "popularity": 24.702}, {"id": 567609, "video": false, "vote_count": 855, "vote_average": 6.8, "title": "Ready or Not", "release_date": "2019-08-21", "original_language": "en", "original_title": "Ready or Not", "genre_ids": [35, 27, 9648, 53], "backdrop_path": "/ubqaGfwYxZMaTEVfhPghF87tzYm.jpg", "adult": false, "overview": "A bride's wedding night takes a sinister turn when her eccentric new in-laws force her to take part in a terrifying game.", "poster_path": "/vOl6shtL0wknjaIs6JdKCpcHvg8.jpg", "popularity": 58.557}, {"id": 514999, "video": false, "vote_count": 1780, "vote_average": 6.3, "title": "Murder Mystery", "release_date": "2019-05-25", "original_language": "en", "original_title": "Murder Mystery", "genre_ids": [28, 35, 80, 9648], "backdrop_path": "/qeFO3u2IqbAeIT1Xgo6POqYbCaQ.jpg", "adult": false, "overview": "After attending a gathering on a billionaire's yacht during a European vacation, a New York cop and his wife become prime suspects when he's murdered.", "poster_path": "/bSMSO9xupd4R4vwTPqigHn2quLN.jpg", "popularity": 21.778}, {"adult": false, "backdrop_path": "/7QjoyyGdBV32x1sEh64dAnNjwg2.jpg", "genre_ids": [53, 35, 27], "id": 12521, "original_language": "en", "original_title": "Shocker", "overview": "After being sent to the electric chair, a serial killer uses electricity to come back from the dead and carry out his vengeance on the football player who turned him in to the police.", "poster_path": "/xEDmOhNGCKlWlS3mCiqLCVzBXVA.jpg", "release_date": "1989-10-27", "title": "Shocker", "video": false, "vote_average": 5.5, "vote_count": 176, "popularity": 9.966}, {"adult": false, "backdrop_path": "/qFLDF62VbWyyxkwco9lwZqkGoMB.jpg", "genre_ids": [16, 10751], "id": 10895, "original_language": "en", "original_title": "Pinocchio", "overview": "Lonely toymaker Geppetto has his wishes answered when the Blue Fairy arrives to bring his wooden puppet Pinocchio to life. Before becoming a real boy, however, Pinocchio must prove he's worthy as he sets off on an adventure with his whistling sidekick and conscience, Jiminy Cricket.", "poster_path": "/gN1dQBHi4557cFduIu9njOr6knW.jpg", "release_date": "1940-02-23", "title": "Pinocchio", "video": false, "vote_average": 7.0, "vote_count": 3429, "popularity": 24.532}, {"adult": false, "backdrop_path": "/20IgqkdFw5kuItqDCJtidSESP0t.jpg", "genre_ids": [27, 18], "id": 10066, "original_language": "en", "original_title": "House of Wax", "overview": "A group of unwitting teens are stranded near a strange wax museum and soon must fight to survive and keep from becoming the next exhibit.", "poster_path": "/uM1RebQywM5PPYsauayefpXGxVk.jpg", "release_date": "2005-04-30", "title": "House of Wax", "video": false, "vote_average": 5.7, "vote_count": 1531, "popularity": 21.972}, {"adult": false, "backdrop_path": "/8DkJrxEyRN8gTseEhajybpC5smK.jpg", "genre_ids": [27], "id": 10585, "original_language": "en", "original_title": "Child's Play", "overview": "A single mother gives her son a beloved doll for his birthday, only to discover that it is possessed by the soul of a serial killer.", "poster_path": "/dSX9i2buibfyKFRpK2kOe6rtl5R.jpg", "release_date": "1988-11-08", "title": "Child's Play", "video": false, "vote_average": 6.5, "vote_count": 1415, "popularity": 17.31}, {"adult": false, "backdrop_path": "/h45LDCoPWmFMTTb7taGhOPBIGKJ.jpg", "genre_ids": [878, 53], "id": 476926, "original_language": "en", "original_title": "The Titan", "overview": "On a bleak future Earth, a soldier endures a radical genetic transformation to save humanity. But his wife fears he's becoming more creature than man.", "poster_path": "/qRmQazyIBZR4pQIk9VruiZul0Au.jpg", "release_date": "2018-03-30", "title": "The Titan", "video": false, "vote_average": 5.3, "vote_count": 734, "popularity": 10.537}, {"adult": false, "backdrop_path": "/8nvayG5l0urcjvvpszoECDqLWzD.jpg", "genre_ids": [18, 53, 80, 9648], "id": 186, "original_language": "en", "original_title": "Lucky Number Slevin", "overview": "Slevin is mistakenly put in the middle of a personal war between the city\u2019s biggest criminal bosses. Under constant watch, Slevin must try not to get killed by an infamous assassin and come up with an idea of how to get out of his current dilemma. A film with many twists and turns.", "poster_path": "/jtKq0EtothAzWlnRBBWGCA8uFuu.jpg", "release_date": "2006-02-24", "title": "Lucky Number Slevin", "video": false, "vote_average": 7.5, "vote_count": 2480, "popularity": 17.523}], "total_pages": 418, "total_results": 8347}, "recommendations": {"page": 1, "results": [{"adult": false, "backdrop_path": "/bH2sdmeQO4Bt3MJARJ3SLOIMuKH.jpg", "genre_ids": [35, 10749], "id": 52560, "original_language": "en", "original_title": "Book of Love", "overview": "John Twiller takes down his high school yearbook and begins to reminiscence about that time he first moved into the neighborhood in 1956. His teenage self, Jack is obsessed with Lily one of the more popular girls around. The sole obstacle is Angelo, her bullying boyfriend. With the help of his pals Crutch, Floyd, and Spider, he makes every attempt possible to change her mind.", "poster_path": "/wqnhkSlBWfZoQ03wzjIdy0nMeGh.jpg", "release_date": "1990-08-03", "title": "Book of Love", "video": false, "vote_average": 6.0, "vote_count": 12, "popularity": 3.704}], "total_pages": 1, "total_results": 1}, "credits": {"cast": [{"cast_id": 2, "character": "Justin Frost", "credit_id": "52fe4493c3a368484e02a987", "gender": 2, "id": 111678, "name": "Thomas Middleditch", "order": 0, "profile_path": "/e6rjipqOp5iPjMMdU9YgGy8ueI.jpg"}, {"cast_id": 3, "character": "Galaxy", "credit_id": "52fe4493c3a368484e02a98b", "gender": 1, "id": 19538, "name": "Rachael Taylor", "order": 1, "profile_path": "/a9suIdd593xjYYmGDNFTwUWLVbv.jpg"}, {"cast_id": 4, "character": "Sargeant Bruce Mancuso", "credit_id": "52fe4493c3a368484e02a98f", "gender": 2, "id": 4443, "name": "Christopher McDonald", "order": 2, "profile_path": "/gK1XhbfD9Xd8s3VXRPpgDCluyZp.jpg"}, {"cast_id": 5, "character": "Susan Frost", "credit_id": "52fe4493c3a368484e02a993", "gender": 1, "id": 1063, "name": "Lea Thompson", "order": 3, "profile_path": "/gaZhgJdLmWkEdqkkfomnBQn16uo.jpg"}, {"cast_id": 6, "character": "Reggie", "credit_id": "52fe4493c3a368484e02a997", "gender": 2, "id": 68763, "name": "Dean Winters", "order": 4, "profile_path": "/1BUNhhGs5drp5plGstAE8WKmfyq.jpg"}, {"cast_id": 7, "character": "Pope", "credit_id": "52fe4493c3a368484e02a99b", "gender": 2, "id": 13936, "name": "Frankie Faison", "order": 5, "profile_path": "/3717JOXK2Z8qelfyvScDGimfFBf.jpg"}, {"cast_id": 8, "character": "Albert", "credit_id": "52fe4493c3a368484e02a99f", "gender": 2, "id": 111679, "name": "Edmund Lyndeck", "order": 6, "profile_path": "/llzcjnIiJRKS2WcrlaRhb03OKMN.jpg"}, {"cast_id": 9, "character": "Betty", "credit_id": "52fe4493c3a368484e02a9a3", "gender": 1, "id": 111680, "name": "Pamela Shaw", "order": 7, "profile_path": "/jLpfsMKLLWUCAVkkaPYxkipAJpu.jpg"}, {"cast_id": 10, "character": "Wayne", "credit_id": "52fe4493c3a368484e02a9a7", "gender": 2, "id": 111681, "name": "Jason Rogel", "order": 8, "profile_path": "/ovEb11Bf7mOep29LdhRlDR63Z7f.jpg"}, {"cast_id": 11, "character": "Thad", "credit_id": "52fe4493c3a368484e02a9ab", "gender": 2, "id": 111682, "name": "Brendan Burke", "order": 9, "profile_path": null}, {"cast_id": 12, "character": "The Amazing Steve", "credit_id": "52fe4493c3a368484e02a9af", "gender": 2, "id": 111683, "name": "Jason Mantzoukas", "order": 10, "profile_path": "/lVoosYoixfjULVdvKp2N1twKisH.jpg"}, {"cast_id": 13, "character": "Wyoming", "credit_id": "52fe4493c3a368484e02a9b3", "gender": 1, "id": 111684, "name": "Lennon Parham", "order": 11, "profile_path": "/lBTFsIfAVdEi5XFK8MXW9zCDnZy.jpg"}], "crew": [{"credit_id": "52fe4493c3a368484e02a983", "department": "Directing", "gender": 0, "id": 94354, "job": "Director", "name": "Brant Sersen", "profile_path": null}, {"credit_id": "52fe4493c3a368484e02a9b9", "department": "Writing", "gender": 0, "id": 94354, "job": "Writer", "name": "Brant Sersen", "profile_path": null}]}}