{"adult": false, "backdrop_path": "/iLjQriWKbSP8Ezh6mkiXwxiD1QV.jpg", "belongs_to_collection": null, "budget": 0, "genres": [{"id": 35, "name": "Comedy"}, {"id": 18, "name": "Drama"}, {"id": 10749, "name": "Romance"}], "homepage": null, "id": 24397, "imdb_id": "tt0436460", "original_language": "en", "original_title": "Kiss Me Again", "overview": "A married couple decides to test the boundaries of their relationship with a seductive Spanish woman. When an unlikely relationship ensues, all three are forced to rethink their definition of love.", "popularity": 7.624, "poster_path": "/iQ3UIU1yLrvhNCQFnz26vlekNHQ.jpg", "production_companies": [{"id": 15104, "logo_path": null, "name": "Foundation Entertainment", "origin_country": ""}, {"id": 15105, "logo_path": null, "name": "M.E.G.A. Films", "origin_country": ""}], "production_countries": [{"iso_3166_1": "US", "name": "United States of America"}], "release_date": "2006-04-28", "revenue": 0, "runtime": 103, "spoken_languages": [{"iso_639_1": "en", "name": "English"}, {"iso_639_1": "es", "name": "Espa\u00f1ol"}, {"iso_639_1": "he", "name": "\u05e2\u05b4\u05d1\u05b0\u05e8\u05b4\u05d9\u05ea"}], "status": "Released", "tagline": "", "title": "Kiss Me Again", "video": false, "vote_average": 4.9, "vote_count": 8, "keywords": {"keywords": [{"id": 10183, "name": "independent film"}, {"id": 155262, "name": "threesome"}]}, "similar": {"page": 1, "results": [{"adult": false, "backdrop_path": "/kQyeXce1ozYryHichnEserMAByN.jpg", "genre_ids": [28, 80, 18, 53], "id": 11564, "original_language": "en", "original_title": "Class of 1984", "overview": "Andy is a new teacher at a inner city high school that is like nothing he has ever seen before. There is metal detectors at the front door and everything is basically run by a tough kid named Peter Stegman. Soon, Andy and Stegman become enemies and Stegman will stop at nothing to protect his turf and drug dealing business.", "poster_path": "/whDnqSYg4yYgVzbVhLSjzC5piUR.jpg", "release_date": "1982-08-20", "title": "Class of 1984", "video": false, "vote_average": 6.2, "vote_count": 121, "popularity": 9.407}, {"id": 4638, "video": false, "vote_count": 4426, "vote_average": 7.5, "title": "Hot Fuzz", "release_date": "2007-02-14", "original_language": "en", "original_title": "Hot Fuzz", "genre_ids": [28, 35, 80], "backdrop_path": "/zuskekrfW3gj9ttXNVhfdHe5n22.jpg", "adult": false, "overview": "As a former London constable, Nicholas Angel finds it difficult to adapt to his new assignment in the sleepy British village of Sandford. Not only does he miss the excitement of the big city, but he also has a well-meaning oaf for a partner. However, when a series of grisly accidents rocks Sandford, Angel smells something rotten in the idyllic village.", "poster_path": "/5Jx6s6VXnunh8wCLgR0YgjwSgjh.jpg", "popularity": 25.234}, {"adult": false, "backdrop_path": "/7RRuRcGuWkZGuRyYugfXn0Fgrrr.jpg", "genre_ids": [28, 80, 18, 53], "id": 949, "original_language": "en", "original_title": "Heat", "overview": "Obsessive master thief, Neil McCauley leads a top-notch crew on various daring heists throughout Los Angeles while determined detective, Vincent Hanna pursues him without rest. Each man recognizes and respects the ability and the dedication of the other even though they are aware their cat-and-mouse game may end in violence.", "poster_path": "/6pmLVffM9jEYK7VqDJqPblMxfEY.jpg", "release_date": "1995-12-15", "title": "Heat", "video": false, "vote_average": 7.8, "vote_count": 3610, "popularity": 21.48}, {"id": 101, "video": false, "vote_count": 8645, "vote_average": 8.3, "title": "L\u00e9on: The Professional", "release_date": "1994-09-14", "original_language": "en", "original_title": "L\u00e9on: The Professional", "genre_ids": [28, 80, 18], "backdrop_path": "/dXQ7HILRK1Tg33RT64JwbQI7Osh.jpg", "adult": false, "overview": "L\u00e9on, the top hit man in New York, has earned a rep as an effective \"cleaner\". But when his next-door neighbors are wiped out by a loose-cannon DEA agent, he becomes the unwilling custodian of 12-year-old Mathilda. Before long, Mathilda's thoughts turn to revenge, and she considers following in L\u00e9on's footsteps.", "poster_path": "/gE8S02QUOhVnAmYu4tcrBlMTujz.jpg", "popularity": 42.005}, {"id": 298312, "video": false, "vote_count": 2921, "vote_average": 6.2, "title": "The Visit", "release_date": "2015-09-10", "original_language": "en", "original_title": "The Visit", "genre_ids": [27, 9648, 53], "backdrop_path": "/gbJlEeALVGo7kx8bC2q4EFWX1Xy.jpg", "adult": false, "overview": "The terrifying story of a brother and sister who are sent to their grandparents' remote Pennsylvania farm for a weeklong trip. Once the children discover that the elderly couple is involved in something deeply disturbing, they see their chances of getting back home are growing smaller every day.", "poster_path": "/32tNtTEQ1vIOLm1hEOSFkVwJT5D.jpg", "popularity": 20.148}, {"adult": false, "backdrop_path": "/9e5e7dJTMxQeF7zNx0CiJmxXE1I.jpg", "genre_ids": [27, 878, 53], "id": 11309, "original_language": "en", "original_title": "Hardware", "overview": "Mark 13 is a government-built killing machine programmed with artificial intelligence, able to repair and recharge itself from any energy source. Through a series of coincidences, the cyborg's head ends up in the home of a sculptress as a bizarre Christmas present from her boyfriend. Once inside its new home, the cyborg promptly reconstructs the rest of its body using a variety of household utensils and proceeds to go on a murderous rampage.", "poster_path": "/nsFm5xniViTVr1oVUpKmgvlAOEA.jpg", "release_date": "1990-09-14", "title": "Hardware", "video": false, "vote_average": 5.7, "vote_count": 145, "popularity": 11.259}, {"adult": false, "backdrop_path": "/tvTyRu9eKfymkje8d9VoWJEoyUv.jpg", "genre_ids": [18], "id": 53932, "original_language": "es", "original_title": "Las edades de Lul\u00fa", "overview": "Fifteen-year-old Lulu has never known any affection from her family. But when she goes to a rock concert with Pablo, a friend of the family, he introduces Lulu to her first sexual experience. Years later, Pablo and Lulu have married; Pablo has created a sheltered, private world for Lulu, into which nothing intrudes. However, Lulu tires of her cloistered existence, and begins hanging out in shady bars, looking for vicarious thrills and danger.", "poster_path": "/5PK5MAN84o0ESgzeW9euozOLIEe.jpg", "release_date": "1990-12-13", "title": "The Ages of Lulu", "video": false, "vote_average": 5.7, "vote_count": 64, "popularity": 23.137}, {"id": 185, "video": false, "vote_count": 7609, "vote_average": 8.2, "title": "A Clockwork Orange", "release_date": "1971-12-18", "original_language": "en", "original_title": "A Clockwork Orange", "genre_ids": [18, 878], "backdrop_path": "/unMc1jEyqCnzba976GviSFKGagt.jpg", "adult": false, "overview": "In a near-future Britain, young Alexander DeLarge and his pals get their kicks beating and raping anyone they please. When not destroying the lives of others, Alex swoons to the music of Beethoven. The state, eager to crack down on juvenile crime, gives an incarcerated Alex the option to undergo an invasive procedure that'll rob him of all personal agency. In a time when conscience is a commodity, can Alex change his tune?", "poster_path": "/4sHeTAp65WrSSuc05nRBKddhBxO.jpg", "popularity": 24.413}, {"adult": false, "backdrop_path": "/20IgqkdFw5kuItqDCJtidSESP0t.jpg", "genre_ids": [27, 18], "id": 10066, "original_language": "en", "original_title": "House of Wax", "overview": "A group of unwitting teens are stranded near a strange wax museum and soon must fight to survive and keep from becoming the next exhibit.", "poster_path": "/uM1RebQywM5PPYsauayefpXGxVk.jpg", "release_date": "2005-04-30", "title": "House of Wax", "video": false, "vote_average": 5.7, "vote_count": 1531, "popularity": 21.972}, {"adult": false, "backdrop_path": "/8nvayG5l0urcjvvpszoECDqLWzD.jpg", "genre_ids": [18, 53, 80, 9648], "id": 186, "original_language": "en", "original_title": "Lucky Number Slevin", "overview": "Slevin is mistakenly put in the middle of a personal war between the city\u2019s biggest criminal bosses. Under constant watch, Slevin must try not to get killed by an infamous assassin and come up with an idea of how to get out of his current dilemma. A film with many twists and turns.", "poster_path": "/jtKq0EtothAzWlnRBBWGCA8uFuu.jpg", "release_date": "2006-02-24", "title": "Lucky Number Slevin", "video": false, "vote_average": 7.5, "vote_count": 2480, "popularity": 17.523}, {"id": 521, "video": false, "vote_count": 1257, "vote_average": 8.0, "title": "Dial M for Murder", "release_date": "1954-05-29", "original_language": "en", "original_title": "Dial M for Murder", "genre_ids": [80, 18, 9648, 53], "backdrop_path": "/jVMlfESb0TJ29w8CUDDofEprMmn.jpg", "adult": false, "overview": "An ex-tennis pro carries out a plot to have his wife murdered after discovering she is having an affair, and assumes she will soon leave him for the other man anyway. When things go wrong, he improvises a new plan\u2014to frame her for murder instead.", "poster_path": "/xrpK1PyckNWmRxU4kZURfaCyboS.jpg", "popularity": 34.566}, {"id": 205596, "video": false, "vote_count": 11343, "vote_average": 8.1, "title": "The Imitation Game", "release_date": "2014-11-14", "original_language": "en", "original_title": "The Imitation Game", "genre_ids": [18, 36, 53, 10752], "backdrop_path": "/qcb6z1HpokTOKdjqDTsnjJk0Xvg.jpg", "adult": false, "overview": "Based on the real life story of legendary cryptanalyst Alan Turing, the film portrays the nail-biting race against time by Turing and his brilliant team of code-breakers at Britain's top-secret Government Code and Cypher School at Bletchley Park, during the darkest days of World War II.", "poster_path": "/noUp0XOqIcmgefRnRZa1nhtRvWO.jpg", "popularity": 40.743}, {"id": 75780, "video": false, "vote_count": 4450, "vote_average": 6.4, "title": "Jack Reacher", "release_date": "2012-12-20", "original_language": "en", "original_title": "Jack Reacher", "genre_ids": [28, 80, 18, 53], "backdrop_path": "/ezXodpP429qK0Av89pVNlaXWJkQ.jpg", "adult": false, "overview": "When a gunman takes five lives with six shots, all evidence points to the suspect in custody. On interrogation, the suspect offers up a single note: \"Get Jack Reacher!\" So begins an extraordinary chase for the truth, pitting Jack Reacher against an unexpected enemy, with a skill for violence and a secret to keep.", "poster_path": "/mt0ELw83HIRgaKaDzhsDcIi0RnW.jpg", "popularity": 19.929}, {"adult": false, "backdrop_path": "/kiWvoV78Cc3fUwkOHKzyBgVdrDD.jpg", "genre_ids": [37, 18, 12], "id": 281957, "original_language": "en", "original_title": "The Revenant", "overview": "In the 1820s, a frontiersman, Hugh Glass, sets out on a path of vengeance against those who left him for dead after a bear mauling.", "poster_path": "/oXUWEc5i3wYyFnL1Ycu8ppxxPvs.jpg", "release_date": "2015-12-25", "title": "The Revenant", "video": false, "vote_average": 7.5, "vote_count": 12122, "popularity": 30.491}, {"id": 263472, "video": false, "vote_count": 1668, "vote_average": 5.0, "title": "Knock Knock", "release_date": "2015-06-26", "original_language": "en", "original_title": "Knock Knock", "genre_ids": [18, 53], "backdrop_path": "/gJduaRau3X2oE3xkmjs1FufT2GE.jpg", "adult": false, "overview": "When a devoted husband and father is left home alone for the weekend, two stranded young women unexpectedly knock on his door for help. What starts out as a kind gesture results in a dangerous seduction and a deadly game of cat and mouse.", "poster_path": "/eynMtjBB1fXsB5vsQylVmsDLmvw.jpg", "popularity": 21.643}, {"adult": false, "backdrop_path": "/4BMel8xxSed1pCkPSGc9R3jsUtC.jpg", "genre_ids": [18, 10749], "id": 142, "original_language": "en", "original_title": "Brokeback Mountain", "overview": "Two modern-day cowboys meet on a shepherding job in the summer of '63, the two share a raw and powerful summer together that turns into a lifelong relationship conflicting with the lives they are supposed to live.", "poster_path": "/z2DqVxj17aW6xpimRlCLfhKSfUm.jpg", "release_date": "2005-09-10", "title": "Brokeback Mountain", "video": false, "vote_average": 7.8, "vote_count": 3787, "popularity": 19.947}, {"adult": false, "backdrop_path": "/jQR6de9dwOjvx91wC4tqpTlMqCD.jpg", "genre_ids": [53, 80, 18], "id": 109421, "original_language": "en", "original_title": "Side Effects", "overview": "A woman turns to prescription medication as a way of handling her anxiety concerning her husband's upcoming release from prison.", "poster_path": "/ttD69Yhh2BV1WVqr27NRbF8ubOW.jpg", "release_date": "2013-02-07", "title": "Side Effects", "video": false, "vote_average": 6.5, "vote_count": 2035, "popularity": 11.74}, {"adult": false, "backdrop_path": "/hm4vpIhBW75bTIDTurq2d4rLZy1.jpg", "genre_ids": [53, 18, 27], "id": 3511, "original_language": "en", "original_title": "The Broken", "overview": "The life of a successful radiologist spirals out of control when she sees the spitting image of herself driving down a London street. While attempting to uncover who the imposter could be, she stumbles into a terrifying mystery that her family and closest friends are somehow involved in, leaving her with no one to trust.", "poster_path": "/nGTUsccLUZhF9Bb5fjvL7KrogvC.jpg", "release_date": "2008-01-18", "title": "The Broken", "video": false, "vote_average": 5.5, "vote_count": 113, "popularity": 9.129}, {"adult": false, "backdrop_path": "/qbrmEfBEcdrzHSAHgazJWmz3TSU.jpg", "genre_ids": [18], "id": 616229, "original_language": "en", "original_title": "The Male Gaze: The Heat of the Night", "overview": "When darkness falls, temperatures rise in these six stories about late night confessions, intimacy for sale, high speed hookups and full moon frissons. But when the sun comes up and reality reveals itself, will it have all been worth it?", "poster_path": "/e1gNLO829rkE73sBJ3aClZJHNXd.jpg", "release_date": "2019-07-15", "title": "The Male Gaze: The Heat of the Night", "video": false, "vote_average": 3.3, "vote_count": 3, "popularity": 13.056}, {"id": 311, "video": false, "vote_count": 2593, "vote_average": 8.4, "title": "Once Upon a Time in America", "release_date": "1984-05-23", "original_language": "en", "original_title": "Once Upon a Time in America", "genre_ids": [80, 18], "backdrop_path": "/vnT6HzjLSDrAweHn9xWykb8Ii6T.jpg", "adult": false, "overview": "A former Prohibition-era Jewish gangster returns to the Lower East Side of Manhattan over thirty years later, where he once again must confront the ghosts and regrets of his old life.", "poster_path": "/x733R4ISI0RbKeHhVkXdTMFmTFr.jpg", "popularity": 23.555}], "total_pages": 433, "total_results": 8645}, "recommendations": {"page": 1, "results": [{"adult": false, "backdrop_path": "/5vk1jue98S3iKy3gEJgFhQSdvxg.jpg", "genre_ids": [18, 10749], "id": 55895, "original_language": "en", "original_title": "Monogamy", "overview": "Exhibitionism, voyeurism, jealousy, lust. Brooklyn wedding photographer Theo\u2019s  side business shooting surveillance-style photos of clients on the sly takes an unexpected turn\u2014and creates a rift with his fianc\u00e9e \u2014when he\u2019s hired by a provocative mystery woman.", "poster_path": "/tyrxCMlwszOzZpRUhToP4zQuBhB.jpg", "release_date": "2010-04-24", "title": "Monogamy", "video": false, "vote_average": 3.6, "vote_count": 5, "popularity": 2.039}, {"id": 359767, "video": false, "vote_count": 10, "vote_average": 5.1, "title": "Girl Gets Girl", "release_date": "2015-09-25", "original_language": "es", "original_title": "De chica en chica", "genre_ids": [35], "backdrop_path": "/zPSWZcQQuRvJ2y02d64yckOCvA9.jpg", "adult": false, "overview": "A deliciously lighthearted comedy from the team of the successful web series Girl Seeks Girl. A hot and hilarious LGBT comedy that shows the different ways to understand love & family.", "poster_path": "/vMyidJDz7yl8s9QyrC1RdNnJM54.jpg", "popularity": 3.367}], "total_pages": 1, "total_results": 2}, "credits": {"cast": [{"cast_id": 2, "character": "Julian", "credit_id": "52fe4493c3a368484e02ab57", "gender": 2, "id": 23646, "name": "Jeremy London", "order": 0, "profile_path": "/mPrdf7ypTQ4MBc9YcUgYlfopA0T.jpg"}, {"cast_id": 3, "character": "Chalice", "credit_id": "52fe4493c3a368484e02ab5b", "gender": 1, "id": 26723, "name": "Katheryn Winnick", "order": 1, "profile_path": "/qt458ga1sQFZ4SZUBxaknJa8fpg.jpg"}, {"cast_id": 7, "character": "Tara", "credit_id": "52fe4493c3a368484e02ab5f", "gender": 1, "id": 99814, "name": "Siri Baruc", "order": 5, "profile_path": "/pmoVMTTNWmTn3kruim7axyKjE1g.jpg"}, {"cast_id": 8, "character": "Malika", "credit_id": "52fe4493c3a368484e02ab63", "gender": 1, "id": 58151, "name": "Elisa Donovan", "order": 6, "profile_path": "/aIm3lSLC7XlqGudvyPZ1WxBJ4Ud.jpg"}, {"cast_id": 9, "character": "Michael", "credit_id": "52fe4493c3a368484e02ab67", "gender": 2, "id": 58954, "name": "Darrell Hammond", "order": 7, "profile_path": "/6yzLojcNxWcb2AYFYo2D0aXm6Ks.jpg"}, {"cast_id": 10, "character": "Elena", "credit_id": "52fe4493c3a368484e02ab6b", "gender": 0, "id": 97470, "name": "Mirelly Taylor", "order": 8, "profile_path": "/4HuqXWZGq3zfawpZaHceed0xLnV.jpg"}, {"cast_id": 11, "character": "Professor Szabo", "credit_id": "52fe4493c3a368484e02ab6f", "gender": 2, "id": 61110, "name": "Fred Armisen", "order": 9, "profile_path": "/nLMCRlt0MV2uu4KPbDPDNsPWfBG.jpg"}, {"cast_id": 12, "character": "Starx", "credit_id": "52fe4493c3a368484e02ab73", "gender": 0, "id": 220704, "name": "Evan Seinfeld", "order": 10, "profile_path": "/1TNjjevej2vLzQMQZP1I1Y7lkwM.jpg"}, {"cast_id": 31, "character": "David", "credit_id": "5468b9eaeaeb816b46000d06", "gender": 2, "id": 174313, "name": "Adam Nee", "order": 11, "profile_path": "/uJVy2pZ0pKWuji6rlkWELFCdvJI.jpg"}, {"cast_id": 32, "character": "Denise", "credit_id": "5468ba04eaeb816b58000b6f", "gender": 0, "id": 977334, "name": "Alexis Iacono", "order": 12, "profile_path": "/9z0RlM3MhsACkwnWwIQ9NGS0fCm.jpg"}], "crew": [{"credit_id": "5468b900eaeb816b52000d9c", "department": "Production", "gender": 1, "id": 35145, "job": "Casting", "name": "Adrienne Stern", "profile_path": "/kyAYcuy7NVLSaXWJELbsyW87EY0.jpg"}, {"credit_id": "52fe4493c3a368484e02ab53", "department": "Directing", "gender": 2, "id": 130817, "job": "Director", "name": "William Tyler Smith", "profile_path": null}, {"credit_id": "5468b83deaeb816b58000b42", "department": "Writing", "gender": 2, "id": 130817, "job": "Writer", "name": "William Tyler Smith", "profile_path": null}, {"credit_id": "5468b881eaeb816b52000d91", "department": "Production", "gender": 0, "id": 227218, "job": "Producer", "name": "Jeff Mazzola", "profile_path": null}, {"credit_id": "5468b918eaeb816b46000cee", "department": "Art", "gender": 2, "id": 1000467, "job": "Production Design", "name": "Theo Sena", "profile_path": null}, {"credit_id": "5468b830eaeb816b46000cd4", "department": "Writing", "gender": 0, "id": 1385919, "job": "Writer", "name": "Julian Hoxter", "profile_path": null}, {"credit_id": "5468b85422136e68d2000c5a", "department": "Writing", "gender": 0, "id": 1385920, "job": "Story", "name": "Bhargavi C. Mandava", "profile_path": null}, {"credit_id": "5468b86722136e68c7000c60", "department": "Writing", "gender": 0, "id": 1385921, "job": "Story", "name": "Leonard Moreton", "profile_path": null}, {"credit_id": "5468b89722136e68c7000c69", "department": "Production", "gender": 0, "id": 1385922, "job": "Producer", "name": "John Scaccia", "profile_path": null}, {"credit_id": "5468b8ad22136e68d2000c64", "department": "Sound", "gender": 0, "id": 1385923, "job": "Music", "name": "Isabel Dawson", "profile_path": null}, {"credit_id": "5468b8c322136e68c7000c70", "department": "Sound", "gender": 0, "id": 1385924, "job": "Original Music Composer", "name": "Justin Samaha", "profile_path": null}, {"credit_id": "5468b8d6eaeb816b4f000c50", "department": "Camera", "gender": 0, "id": 1385925, "job": "Director of Photography", "name": "Christopher LaVasseur", "profile_path": null}, {"credit_id": "5468b8f022136e68cc000bb3", "department": "Editing", "gender": 0, "id": 1385926, "job": "Editor", "name": "Sam Wilson", "profile_path": null}, {"credit_id": "5468b92e22136e68c7000c7e", "department": "Art", "gender": 0, "id": 1385927, "job": "Art Direction", "name": "Joel Custer", "profile_path": null}, {"credit_id": "5468b94022136e68c9000ebe", "department": "Costume & Make-Up", "gender": 0, "id": 1385928, "job": "Costume Design", "name": "Amy Ritchings", "profile_path": null}, {"credit_id": "5468b96522136e68da000ba1", "department": "Directing", "gender": 0, "id": 1385930, "job": "Script Supervisor", "name": "Kirsten Kearse", "profile_path": null}, {"credit_id": "5468b98622136e68da000ba9", "department": "Camera", "gender": 0, "id": 1385931, "job": "Still Photographer", "name": "Lorraine Turi", "profile_path": null}, {"credit_id": "5468b9a2eaeb816b4b000cdb", "department": "Sound", "gender": 0, "id": 1385933, "job": "Supervising Sound Editor", "name": "Paul Vasquez", "profile_path": null}, {"credit_id": "5468b9b522136e68c7000c97", "department": "Crew", "gender": 0, "id": 1385935, "job": "Property Master", "name": "Neil Driscoll Jr.", "profile_path": null}]}}