{"adult": false, "backdrop_path": null, "belongs_to_collection": null, "budget": 0, "genres": [{"id": 9648, "name": "Mystery"}, {"id": 18, "name": "Drama"}], "homepage": null, "id": 244165, "imdb_id": "tt0025998", "original_language": "en", "original_title": "The Witching Hour", "overview": "Jack Brookfield, a gambler with clairvoyant and hypnotic powers, is able to win at cards through his unique gift. But when he inadvertently hypnotizes young Clay Thorne, Thorne kills an enemy of Brookfield's while under a trance. No one believes Brookfield's protestations that Thorne is innocent of any murderous intent, so Brookfield teams up with retired lawyer Martin Prentice in hopes of saving the young man from the gallows.", "popularity": 1.052, "poster_path": "/zvkOvu6KC9kjngcMbmdmqsWVcUU.jpg", "production_companies": [{"id": 4, "logo_path": "/fycMZt242LVjagMByZOLUGbCvv3.png", "name": "Paramount", "origin_country": "US"}], "production_countries": [{"iso_3166_1": "US", "name": "United States of America"}], "release_date": "1934-04-26", "revenue": 0, "runtime": 69, "spoken_languages": [{"iso_639_1": "en", "name": "English"}], "status": "Released", "tagline": "", "title": "The Witching Hour", "video": false, "vote_average": 5.0, "vote_count": 2, "keywords": {"keywords": [{"id": 9826, "name": "murder"}, {"id": 205852, "name": "mind transfer"}]}, "similar": {"page": 1, "results": [{"id": 15069, "video": false, "vote_count": 75, "vote_average": 5.4, "title": "W\u0394Z", "release_date": "2007-05-19", "original_language": "en", "original_title": "W\u0394Z", "genre_ids": [80, 18, 27, 53], "backdrop_path": "/nVwdXjnbfulc6cymFgOQJctpspr.jpg", "adult": false, "overview": "There is something horribly wrong with the bodies found in the dark city streets. Some are mutilated while others have the Price equation (w\u0394z = Cov (w,z) = \u03b2wzVz) carved into their flesh. Detective Eddie Argo and his new partner Helen Westcott unearth the meaning of the odd equation and realise each victim is being offered a gruesome choice: kill your loved ones, or be killed. Before long it becomes clear that the perpetrator has suffered a similar fate and is now coping by seeking a way to solve this philosophical dilemma.", "poster_path": "/8lPZ59iQRqUELprKuB0myy7u6Zm.jpg", "popularity": 7.935}, {"adult": false, "backdrop_path": "/uUYCUbgI5VxsUflTMI4Y9L2Y6vb.jpg", "genre_ids": [80, 18, 53], "id": 11423, "original_language": "ko", "original_title": "\uc0b4\uc778\uc758 \ucd94\uc5b5", "overview": "1986 Gyunggi Province. The body of a young woman is found brutally raped and murdered. Two months later, a series of rapes and murders commences under similar circumstances. And in a country that had never known such crimes, the dark whispers about a serial murderer grow louder. A special task force is set up in the area, with two local detectives Park Doo-Man and Jo Young-Goo joined by a detective from Seoul who requested to be assigned to the case.", "poster_path": "/gawnVe9cFowdoDLo9Pok12NTw39.jpg", "release_date": "2003-05-02", "title": "Memories of Murder", "video": false, "vote_average": 8.1, "vote_count": 1093, "popularity": 13.452}, {"id": 8090, "video": false, "vote_count": 448, "vote_average": 6.1, "title": "Untraceable", "release_date": "2008-01-22", "original_language": "en", "original_title": "Untraceable", "genre_ids": [9648, 53], "backdrop_path": "/eXuIPt9I1xuaVddlgzEQRC2EMnJ.jpg", "adult": false, "overview": "Special Agent Jennifer Marsh (Diane Lane) works in an elite division of the FBI dedicated to fighting cybercrime. She thinks she has seen it all, until a particularly sadistic criminal arises on the Internet. This tech-savvy killer posts live feeds of his crimes on his website; the more hits the site gets, the faster the victim dies. Marsh and her team must find the elusive killer before time runs out.", "poster_path": "/ySUwDRDEn01lKIMPQorpFCMLWqE.jpg", "popularity": 14.431}, {"adult": false, "backdrop_path": "/pA64Ov7lDpwXBu33yq0KpmAOYJL.jpg", "genre_ids": [27, 53], "id": 357096, "original_language": "en", "original_title": "I Spit on Your Grave III: Vengeance is Mine", "overview": "Jennifer Hills is still tormented by the brutal sexual assault she endured years ago. She\u2019s changed identities and cities, reluctantly joining a support group where she begins to piece together a new life. But when her new friend\u2019s murderer goes free and the tales of serial rapists haunt her, Jennifer will hunt down the men responsible and do what the system won\u2019t \u2013 make them pay for their crimes in the most horrific ways imaginable. Only this time, no jury may be able to save her.", "poster_path": "/6SnOlgrUoC5jqmgcYIM5lde5zYq.jpg", "release_date": "2015-10-01", "title": "I Spit on Your Grave III: Vengeance is Mine", "video": false, "vote_average": 5.3, "vote_count": 437, "popularity": 20.815}, {"adult": false, "backdrop_path": "/kiWvoV78Cc3fUwkOHKzyBgVdrDD.jpg", "genre_ids": [37, 18, 12], "id": 281957, "original_language": "en", "original_title": "The Revenant", "overview": "In the 1820s, a frontiersman, Hugh Glass, sets out on a path of vengeance against those who left him for dead after a bear mauling.", "poster_path": "/oXUWEc5i3wYyFnL1Ycu8ppxxPvs.jpg", "release_date": "2015-12-25", "title": "The Revenant", "video": false, "vote_average": 7.5, "vote_count": 12127, "popularity": 24.135}, {"adult": false, "backdrop_path": "/2J283YNxKhxAqHeVegUJ5mzLfGb.jpg", "genre_ids": [80, 18, 9648], "id": 392044, "original_language": "en", "original_title": "Murder on the Orient Express", "overview": "Genius Belgian detective Hercule Poirot investigates the murder of an American tycoon aboard the Orient Express train.", "poster_path": "/iBlfxlw8qwtUS0R8YjIU7JtM6LM.jpg", "release_date": "2017-11-03", "title": "Murder on the Orient Express", "video": false, "vote_average": 6.7, "vote_count": 6050, "popularity": 27.701}, {"id": 75780, "video": false, "vote_count": 4451, "vote_average": 6.4, "title": "Jack Reacher", "release_date": "2012-12-20", "original_language": "en", "original_title": "Jack Reacher", "genre_ids": [28, 80, 18, 53], "backdrop_path": "/ezXodpP429qK0Av89pVNlaXWJkQ.jpg", "adult": false, "overview": "When a gunman takes five lives with six shots, all evidence points to the suspect in custody. On interrogation, the suspect offers up a single note: \"Get Jack Reacher!\" So begins an extraordinary chase for the truth, pitting Jack Reacher against an unexpected enemy, with a skill for violence and a secret to keep.", "poster_path": "/mt0ELw83HIRgaKaDzhsDcIi0RnW.jpg", "popularity": 15.945}, {"id": 395834, "video": false, "vote_count": 2755, "vote_average": 7.4, "title": "Wind River", "release_date": "2017-08-03", "original_language": "en", "original_title": "Wind River", "genre_ids": [80, 18, 9648, 53], "backdrop_path": "/6B8e784decj9vtKuNjbl9Fes2aZ.jpg", "adult": false, "overview": "An FBI agent teams with the town's veteran game tracker to investigate a murder that occurred on a Native American reservation.", "poster_path": "/pySivdR845Hom4u4T2WNkJxe6Ad.jpg", "popularity": 16.931}, {"id": 807, "video": false, "vote_count": 11937, "vote_average": 8.3, "title": "Se7en", "release_date": "1995-09-22", "original_language": "en", "original_title": "Se7en", "genre_ids": [80, 9648, 53], "backdrop_path": "/A0WKbRIojF9DUWG4XLCmg5JK6I5.jpg", "adult": false, "overview": "Two homicide detectives are on a desperate hunt for a serial killer whose crimes are based on the \"seven deadly sins\" in this dark and haunting film that takes viewers from the tortured remains of one victim to the next. The seasoned Det. Sommerset researches each sin in an effort to get inside the killer's mind, while his novice partner, Mills, scoffs at his efforts to unravel the case.", "poster_path": "/8zw8IL4zEPjkh8Aysdcd0FwGMb0.jpg", "popularity": 34.018}, {"adult": false, "backdrop_path": "/8UkJSL5hlwGh3uSC5tyoaqhHQh7.jpg", "genre_ids": [80, 18, 53], "id": 18587, "original_language": "en", "original_title": "10 to Midnight", "overview": "Based on the real-life Richard Speck murders. After his bizarre behavior results in rejection from countless women, Warren Stacy begins murdering women, always while he is naked, which minimizes any physical evidence left behind. Detective Leo Kessler is convinced of Stacy\u2019s guilt and, over the objections of his partner, plants evidence to get him behind bars. When Stacy is released on a technicality, he threatens to go after Kessler and his family, leaving Kessler to defend himself with little help from the police.", "poster_path": "/bJiLyz6g8vsFgJ5oAdMWlQAWY4T.jpg", "release_date": "1983-03-11", "title": "10 to Midnight", "video": false, "vote_average": 6.0, "vote_count": 73, "popularity": 9.514}, {"id": 4771, "video": false, "vote_count": 2134, "vote_average": 7.3, "title": "Gone Baby Gone", "release_date": "2007-09-18", "original_language": "en", "original_title": "Gone Baby Gone", "genre_ids": [80, 18, 9648], "backdrop_path": "/sogh5NXPbKFajjYKBlfIBfCWgbq.jpg", "adult": false, "overview": "When 4 year old Amanda McCready disappears from her home and the police make little headway in solving the case, the girl's aunt, Beatrice McCready hires two private detectives, Patrick Kenzie and Angie Gennaro. The detectives freely admit that they have little experience with this type of case, but the family wants them for two reasons - they're not cops and they know the tough neighborhood in which they all live. As the case progresses, Kenzie and Gennaro face drug dealers, gangs and pedophiles. When they are about to solve the case, they are faced with a moral dilemma that tears them apart.", "poster_path": "/dXXMPxGiRegd7NNCtE5uchAKRAG.jpg", "popularity": 16.498}, {"id": 369300, "video": false, "vote_count": 317, "vote_average": 6.0, "title": "The Limehouse Golem", "release_date": "2016-10-18", "original_language": "en", "original_title": "The Limehouse Golem", "genre_ids": [27, 9648, 53], "backdrop_path": "/jOsELWItMJOwqEXpUewV8zFH3eX.jpg", "adult": false, "overview": "A series of murders has shaken the community to the point where people believe that only a legendary creature from dark times \u2013 the mythical Golem \u2013 must be responsible.", "poster_path": "/u9NnEq4Be7hhwSvkNf6dOAD8ppi.jpg", "popularity": 13.502}, {"adult": false, "backdrop_path": "/4AXlsl0azR9d9xjX9tDdfAeM8lt.jpg", "genre_ids": [80, 18, 9648, 10749], "id": 25376, "original_language": "es", "original_title": "El secreto de sus ojos", "overview": "A retired legal counselor writes a novel hoping to find closure for one of his past unresolved homicide cases and for his unreciprocated love with his superior - both of which still haunt him decades later.", "poster_path": "/z2mUzEqDi7DtA1E4mYzVjbzXnqE.jpg", "release_date": "2009-08-13", "title": "The Secret in Their Eyes", "video": false, "vote_average": 7.9, "vote_count": 1288, "popularity": 11.544}, {"adult": false, "backdrop_path": "/a0UYovVNPVfWILYT7TzD10xBX3q.jpg", "genre_ids": [18, 53, 80, 9648], "id": 979, "original_language": "fr", "original_title": "Irr\u00e9versible", "overview": "Events over the course of one traumatic night in Paris unfold in reverse-chronological order as the beautiful Alex is brutally raped and beaten by a stranger in the underpass. Her boyfriend and ex-lover take matters into their own hands by hiring two criminals to help them find the rapist so that they can exact revenge. A simultaneously beautiful and terrible examination of the destructive nature of cause and effect, and how time destroys everything.", "poster_path": "/rxeDxo8FvZpLu6iplNpxdtAVnfu.jpg", "release_date": "2002-05-22", "title": "Irreversible", "video": false, "vote_average": 7.1, "vote_count": 1216, "popularity": 20.416}, {"adult": false, "backdrop_path": "/t3OZS8yMs0NL4YgWWc04eXHTn1X.jpg", "genre_ids": [28, 80, 53], "id": 984, "original_language": "en", "original_title": "Dirty Harry", "overview": "When a madman dubbed 'Scorpio' terrorizes San Francisco, hard-nosed cop, Harry Callahan \u2013 famous for his take-no-prisoners approach to law enforcement \u2013 is tasked with hunting down the psychopath. Harry eventually collars Scorpio in the process of rescuing a kidnap victim, only to see him walk on technicalities. Now, the maverick detective is determined to nail the maniac himself.", "poster_path": "/2TADKc4GMMPdMrLXj0xJVgTvZJM.jpg", "release_date": "1971-12-21", "title": "Dirty Harry", "video": false, "vote_average": 7.5, "vote_count": 1173, "popularity": 18.839}, {"adult": false, "backdrop_path": "/3TCPWrxQkfon82xPNtmpweOSVJc.jpg", "genre_ids": [18, 80, 9648, 10749, 53], "id": 12150, "original_language": "en", "original_title": "Sea of Love", "overview": "Seen-it-all New York detective Frank Keller is unsettled - he has done twenty years on the force and could retire, and he hasn't come to terms with his wife leaving him for a colleague. Joining up with an officer from another part of town to investigate a series of murders linked by the lonely hearts columns he finds he is getting seriously and possibly dangerously involved with Helen, one of the main suspects.", "poster_path": "/7DkkTHIX3hUqvsRv5sDmJAkCfKK.jpg", "release_date": "1989-09-15", "title": "Sea of Love", "video": false, "vote_average": 6.7, "vote_count": 290, "popularity": 10.636}, {"id": 60670, "video": false, "vote_count": 765, "vote_average": 6.9, "title": "The Crimson Rivers", "release_date": "2000-09-26", "original_language": "fr", "original_title": "Les Rivi\u00e8res pourpres", "genre_ids": [80, 9648, 53], "backdrop_path": "/pXmMiqordTEbRTDNlKPnyielNVA.jpg", "adult": false, "overview": "Two French policemen, one investigating a grisly murder at a remote mountain college, the other working on the desecration of a young girl's grave by skinheads, are brought together by the clues from their respective cases. Soon after they start working together, more murders are committed, and the pair begin to discover just what dark secrets are behind the killings.", "poster_path": "/kkRgQST0bEdEgqpPZMGaUB1twsQ.jpg", "popularity": 11.569}, {"adult": false, "backdrop_path": "/rPfyX0pkmn8Ea4gh3DfsmzFUf05.jpg", "genre_ids": [18, 27, 80], "id": 74997, "original_language": "en", "original_title": "The Human Centipede 2 (Full Sequence)", "overview": "Inspired by the fictional Dr. Heiter, disturbed loner Martin dreams of creating a 12-person centipede and sets out to realize his sick fantasy.", "poster_path": "/kFtAdkCO0vXN2RWu2oMcR9GZ9Hi.jpg", "release_date": "2011-10-06", "title": "The Human Centipede 2 (Full Sequence)", "video": false, "vote_average": 4.5, "vote_count": 674, "popularity": 14.216}, {"adult": false, "backdrop_path": "/scRw6gAoO3CfgQnZjHCh2ZgU4Z1.jpg", "genre_ids": [80, 18, 878, 53], "id": 281, "original_language": "en", "original_title": "Strange Days", "overview": "Set in the year 1999 during the last days of the old millennium, the movie tells the story of Lenny Nero, an ex-cop who now deals with data-discs containing recorded memories and emotions. One day he receives a disc which contains the memories of a murderer killing a prostitute. Lenny investigates and is pulled deeper and deeper in a whirl of blackmail, murder and rape. Will he survive and solve the case?", "poster_path": "/rXvy5hG9OeVmgnv9w4IhQxhqEKD.jpg", "release_date": "1995-10-13", "title": "Strange Days", "video": false, "vote_average": 7.0, "vote_count": 663, "popularity": 17.431}, {"adult": false, "backdrop_path": "/iNuvbrHGNtrUwlm48u4KnQhhMKp.jpg", "genre_ids": [80, 18, 53], "id": 26390, "original_language": "en", "original_title": "Brooklyn's Finest", "overview": "Enforcing the law within the notoriously rough Brownsville section of the city and especially within the Van Dyke housing projects is the NYPD's sixty-fifth precinct. Three police officers struggle with the sometimes fine line between right and wrong.", "poster_path": "/jKSBk0LtZgXxG56uvwiAtYf6ttF.jpg", "release_date": "2009-01-16", "title": "Brooklyn's Finest", "video": false, "vote_average": 6.4, "vote_count": 500, "popularity": 11.822}], "total_pages": 421, "total_results": 8411}, "recommendations": {"page": 1, "results": [], "total_pages": 1, "total_results": 0}, "credits": {"cast": [{"cast_id": 2, "character": "Judge Martin Prentice", "credit_id": "52fe4eedc3a36847f82b1215", "gender": 2, "id": 117074, "name": "Guy Standing", "order": 0, "profile_path": "/hNa93BOohdXJpFhlHROh71PSK1w.jpg"}, {"cast_id": 3, "character": "Jack Brookfield", "credit_id": "52fe4eedc3a36847f82b1219", "gender": 2, "id": 14688, "name": "John Halliday", "order": 1, "profile_path": "/soyfwUQtgcxahcylFig4lG9RvRs.jpg"}, {"cast_id": 4, "character": "Jury Foreman", "credit_id": "52fe4eedc3a36847f82b121d", "gender": 2, "id": 34285, "name": "William Frawley", "order": 2, "profile_path": "/nG2PEowEAQEB7yiaJ6kvoFHNuNU.jpg"}, {"cast_id": 5, "character": "Nancy Brookfield", "credit_id": "52fe4eedc3a36847f82b1221", "gender": 1, "id": 143670, "name": "Judith Allen", "order": 3, "profile_path": "/luV7nEiZnNHodpd00ocMSH3ndsd.jpg"}, {"cast_id": 6, "character": "Clay Thorne", "credit_id": "52fe4eedc3a36847f82b1225", "gender": 2, "id": 89687, "name": "Tom Brown", "order": 4, "profile_path": "/gHteMYdsKoKLKGgY9cA65WjPEjg.jpg"}, {"cast_id": 7, "character": "Mrs. Helen Thorne", "credit_id": "52fe4eedc3a36847f82b1229", "gender": 1, "id": 1070625, "name": "Olive Tell", "order": 5, "profile_path": "/iBqiyZ7nXnnLfFgXtMfwwazBx8X.jpg"}, {"cast_id": 8, "character": "Lew Ellinger", "credit_id": "52fe4eedc3a36847f82b122d", "gender": 2, "id": 19553, "name": "Richard Carle", "order": 6, "profile_path": "/vw8of7fmAsdOfpgWWs0pqdlMVPw.jpg"}, {"cast_id": 9, "character": "Frank Hardmuth", "credit_id": "52fe4eedc3a36847f82b1231", "gender": 2, "id": 101886, "name": "Ralf Harolde", "order": 7, "profile_path": "/9N0iTOicpCdka7ItICoyiJyIOLb.jpg"}, {"cast_id": 10, "character": "District Attorney Robinson", "credit_id": "52fe4eedc3a36847f82b1235", "gender": 2, "id": 13358, "name": "Purnell Pratt", "order": 8, "profile_path": "/alHik9wlgSTUcugUmit6mMxj7Vm.jpg"}, {"cast_id": 11, "character": "Police Chief", "credit_id": "52fe4eedc3a36847f82b1239", "gender": 2, "id": 557594, "name": "Frank Sheridan", "order": 9, "profile_path": "/632UaFTNdA0UwneCLz3vtqTEDUu.jpg"}, {"cast_id": 12, "character": "Margaret Price", "credit_id": "52fe4eedc3a36847f82b123d", "gender": 1, "id": 103681, "name": "Gertrude Michael", "order": 10, "profile_path": "/zmUVIRqCs5GdeI6hQUaSoaB4RXs.jpg"}, {"cast_id": 13, "character": "Dr. von Strohn", "credit_id": "52fe4eedc3a36847f82b1241", "gender": 2, "id": 89744, "name": "Ferdinand Gottschalk", "order": 11, "profile_path": "/az4OS4Ulj08n54LyP5xvswWZfMT.jpg"}], "crew": [{"credit_id": "559eda51c3a3680810002470", "department": "Crew", "gender": 2, "id": 35502, "job": "Cinematography", "name": "Ben F. Reynolds", "profile_path": null}, {"credit_id": "559eda449251412dac002399", "department": "Sound", "gender": 2, "id": 30256, "job": "Original Music Composer", "name": "John Leipold", "profile_path": "/cPgas8DKKw42OjS9Bbrr6uDCT4m.jpg"}, {"credit_id": "52fe4eedc3a36847f82b1211", "department": "Directing", "gender": 0, "id": 37360, "job": "Director", "name": "Henry Hathaway", "profile_path": "/aHXD9EFWbtftnaBzPYfO2dkLLKd.jpg"}, {"credit_id": "559eda329251412daf002289", "department": "Production", "gender": 2, "id": 67447, "job": "Producer", "name": "Anthony Veiller", "profile_path": null}, {"credit_id": "559eda06c3a368080e002288", "department": "Writing", "gender": 2, "id": 67447, "job": "Writer", "name": "Anthony Veiller", "profile_path": null}, {"credit_id": "559eda189251412da9002396", "department": "Writing", "gender": 0, "id": 1015917, "job": "Author", "name": "Augustus E. Thomas", "profile_path": null}, {"credit_id": "559ed9ed9251412dc0002297", "department": "Writing", "gender": 0, "id": 1307412, "job": "Writer", "name": "Salisbury Field", "profile_path": null}]}}