{"adult": false, "backdrop_path": "/AddD13uu9BEUUuWNlPKhW8PLNiT.jpg", "belongs_to_collection": null, "budget": 0, "genres": [{"id": 35, "name": "Comedy"}], "homepage": "http://www.prettyuglypeople.com", "id": 24450, "imdb_id": "tt0874425", "original_language": "en", "original_title": "Pretty Ugly People", "overview": "The grass might not be as green as one might think on the other side of obesity. Pretty Ugly People takes a wickedly comedic look at body image, self-loathing and sex within a group of estranged friends in their mid-30s. Lucy was obese her entire life and had always longed to be a thin so she could finally lose her virginity.", "popularity": 3.361, "poster_path": "/7cpJo2UrjTBaUVhM4SOOyzPYqoJ.jpg", "production_companies": [], "production_countries": [{"iso_3166_1": "US", "name": "United States of America"}], "release_date": "2009-09-18", "revenue": 0, "runtime": 99, "spoken_languages": [], "status": "Released", "tagline": "Is losing the weight worth losing your friends?", "title": "Pretty Ugly People", "video": false, "vote_average": 4.1, "vote_count": 27, "keywords": {"keywords": [{"id": 10183, "name": "independent film"}]}, "similar": {"page": 1, "results": [{"id": 52345, "video": false, "vote_count": 221, "vote_average": 7.8, "title": "Lisbela and the Prisoner", "release_date": "2003-08-22", "original_language": "pt", "original_title": "Lisbela e o Prisioneiro", "genre_ids": [35, 10749], "backdrop_path": "/4KDlC0cZvR5LtszqjFhZcMzdiUD.jpg", "adult": false, "overview": "Lisbela is a young woman who loves going to the movies. Lel\u00e9u is a con man, going from town to town selling all sort of things and performing as master of ceremonies for some cheesy numbers, such as the woman who gets transformed into a gorilla. He gets involved with Linaura, a sexy and beautiful woman who happens to be the wife of the most frightening hitman of the place. The hitman finds out his wife's affair and goes after Lel\u00e9u, who has to leave in a hurry. In another town, he meets and falls instantly in love with Lisbela, who is engaged to Douglas, a hillbilly who tries hard to pass for a cosmopolitan Rio de Janeiro dweller.", "poster_path": "/9nlaRxQeYaMrVVANMppagFohCRP.jpg", "popularity": 1.042}, {"adult": false, "backdrop_path": "/c42tFwWNHc8jJ49Zb0yqSAqr5TM.jpg", "genre_ids": [12, 35, 10751, 14, 16], "id": 228165, "original_language": "en", "original_title": "The SpongeBob Movie: Sponge Out of Water", "overview": "Burger Beard is a pirate who is in search of the final page of a magical book that makes any evil plan he writes in it come true, which happens to be the Krabby Patty secret formula. When the entire city of Bikini Bottom is put in danger, SpongeBob, Patrick, Mr. Krabs, Squidward, Sandy, and Plankton need to go on a quest that takes them to the surface. In order to get back the recipe and save their city, the gang must retrieve the book and transform themselves into superheroes.", "poster_path": "/9wChSuUoQDiBKUnGTcYMkzRha60.jpg", "release_date": "2015-01-28", "title": "The SpongeBob Movie: Sponge Out of Water", "video": false, "vote_average": 5.8, "vote_count": 1273, "popularity": 28.626}, {"id": 325346, "video": false, "vote_count": 160, "vote_average": 6.4, "title": "The Hollars", "release_date": "2016-08-25", "original_language": "en", "original_title": "The Hollars", "genre_ids": [35, 18, 10749], "backdrop_path": "/uHKD274QYWX4GORyADqHIbQ9Qwx.jpg", "adult": false, "overview": "Aspiring New York City artist, John Hollar returns to his Middle America hometown on the eve of his mother\u2019s brain surgery. Joined by his girlfriend, eight months pregnant with their first child, John is forced to navigate the crazy world he left behind.", "poster_path": "/9ybRAn6AoSuyMjfqbhgosdye2R5.jpg", "popularity": 8.707}, {"adult": false, "backdrop_path": null, "genre_ids": [35], "id": 637573, "original_language": "en", "original_title": "Daniel Sloss: X", "overview": "A new comedy special performed by Daniel Sloss.", "poster_path": "/b3DxLUvcp5hRXtTa4pv2wRAuY4P.jpg", "release_date": "2019-11-02", "title": "Daniel Sloss: X", "video": false, "vote_average": 10.0, "vote_count": 1, "popularity": 2.906}, {"id": 49013, "video": false, "vote_count": 4530, "vote_average": 5.9, "title": "Cars 2", "release_date": "2011-06-11", "original_language": "en", "original_title": "Cars 2", "genre_ids": [12, 16, 35, 10751], "backdrop_path": "/jEcmZhtJkZQc6ta2vzBd9CU7GIx.jpg", "adult": false, "overview": "Star race car Lightning McQueen and his pal Mater head overseas to compete in the World Grand Prix race. But the road to the championship becomes rocky as Mater gets caught up in an intriguing adventure of his own: international espionage.", "poster_path": "/AblhtULOVtrkSnFxRPQ8gBemxw9.jpg", "popularity": 25.278}, {"id": 10719, "video": false, "vote_count": 2252, "vote_average": 6.6, "title": "Elf", "release_date": "2003-10-09", "original_language": "en", "original_title": "Elf", "genre_ids": [35, 14, 10751], "backdrop_path": "/jRzrQ7Thcjpetr0n8B6w980eZet.jpg", "adult": false, "overview": "When young Buddy falls into Santa's gift sack on Christmas Eve, he's transported back to the North Pole and raised as a toy-making elf by Santa's helpers. But as he grows into adulthood, he can't shake the nagging feeling that he doesn't belong. Buddy vows to visit Manhattan and find his real dad, a workaholic publisher.", "poster_path": "/9jChHqqcpe0zHNTqkNqWZkwkgil.jpg", "popularity": 14.355}, {"id": 703, "video": false, "vote_count": 2272, "vote_average": 7.8, "title": "Annie Hall", "release_date": "1977-04-19", "original_language": "en", "original_title": "Annie Hall", "genre_ids": [35, 18, 10749], "backdrop_path": "/8iNt5LGxpX9XeNWJgjx17xfTT7u.jpg", "adult": false, "overview": "New York comedian Alvy Singer falls in love with the ditsy Annie Hall.", "poster_path": "/bK9bLXwxWuXX5mbq75PZqjvAtfG.jpg", "popularity": 14.556}, {"id": 11072, "video": false, "vote_count": 1036, "vote_average": 7.3, "title": "Blazing Saddles", "release_date": "1974-02-07", "original_language": "en", "original_title": "Blazing Saddles", "genre_ids": [35, 37], "backdrop_path": "/tCitxLKMzCxexGlSg4g4IDVC3RM.jpg", "adult": false, "overview": "A town\u2014where everyone seems to be named Johnson\u2014stands in the way of the railroad. In order to grab their land, robber baron Hedley Lemar sends his henchmen to make life in the town unbearable. After the sheriff is killed, the town demands a new sheriff from the Governor, so Hedley convinces him to send the town the first black sheriff in the west.", "poster_path": "/yccgwPNVaqtgS1d0U5jjM6Mnza8.jpg", "popularity": 16.616}, {"id": 334533, "video": false, "vote_count": 3919, "vote_average": 8.0, "title": "Captain Fantastic", "release_date": "2016-07-02", "original_language": "en", "original_title": "Captain Fantastic", "genre_ids": [12, 35, 18], "backdrop_path": "/hzp6irYITiJc5JUA1GZhmbE10pD.jpg", "adult": false, "overview": "A father living in the forests of the Pacific Northwest with his six young kids tries to assimilate back into society.", "poster_path": "/fnaGmGCWgGOQjCpM0TqKPZJ5x85.jpg", "popularity": 18.228}, {"id": 76492, "video": false, "vote_count": 5547, "vote_average": 6.9, "title": "Hotel Transylvania", "release_date": "2012-09-20", "original_language": "en", "original_title": "Hotel Transylvania", "genre_ids": [16, 35, 14, 10751], "backdrop_path": "/sETTal2HPPkUC3lWc27HL1AFu9C.jpg", "adult": false, "overview": "Welcome to Hotel Transylvania, Dracula's lavish five-stake resort, where monsters and their families can live it up and no humans are allowed. One special weekend, Dracula has invited all his best friends to celebrate his beloved daughter Mavis's 118th birthday. For Dracula catering to all of these legendary monsters is no problem but the party really starts when one ordinary guy stumbles into the hotel and changes everything!", "poster_path": "/9qugesYpAWHUpdrw2w8URSGkAPt.jpg", "popularity": 31.161}, {"id": 9647, "video": false, "vote_count": 786, "vote_average": 6.9, "title": "Scrooged", "release_date": "1988-11-22", "original_language": "en", "original_title": "Scrooged", "genre_ids": [35, 18, 14], "backdrop_path": "/6xezVJoUp0cZUBQeIDpW6lFuhcd.jpg", "adult": false, "overview": "In this modern take on Charles Dickens' \"A Christmas Carol,\" Frank Cross (Bill Murray) is a wildly successful television executive whose cold ambition and curmudgeonly nature has driven away the love of his life, Claire Phillips (Karen Allen). But after firing a staff member, Eliot Loudermilk (Bobcat Goldthwait), on Christmas Eve, Frank is visited by a series of ghosts who give him a chance to re-evaluate his actions and right the wrongs of his past.", "poster_path": "/uO0znfB2ZzTXA1IS7jkrjNbpkYK.jpg", "popularity": 17.767}, {"id": 295151, "video": false, "vote_count": 540, "vote_average": 6.2, "title": "Let It Snow", "release_date": "2019-11-08", "original_language": "en", "original_title": "Let It Snow", "genre_ids": [35, 10749], "backdrop_path": "/4oSRQ03nJjl8sZAPgIXgi51XZva.jpg", "adult": false, "overview": "When a huge blizzard (that doesn't show signs of stopping) hits, Gracetown is completely snowed in. But even though it's cold outside, things are heating up inside, proving that Christmas is magical when it comes to love.", "poster_path": "/rEVu3E1OhMPJeCAn9a6QLyVhZDj.jpg", "popularity": 16.181}, {"adult": false, "backdrop_path": "/fBYnaVOcc2Ghfkv473z0xdBRQ0m.jpg", "genre_ids": [10751, 16, 12, 35], "id": 270946, "original_language": "en", "original_title": "Penguins of Madagascar", "overview": "Skipper, Kowalski, Rico and Private join forces with undercover organization The North Wind to stop the villainous Dr. Octavius Brine from destroying the world as we know it.", "poster_path": "/pRer59eyY4rjkLPeKXKo7fPxCHH.jpg", "release_date": "2014-11-22", "title": "Penguins of Madagascar", "video": false, "vote_average": 6.4, "vote_count": 2485, "popularity": 27.36}, {"id": 37247, "video": false, "vote_count": 1749, "vote_average": 7.7, "title": "The Graduate", "release_date": "1967-12-21", "original_language": "en", "original_title": "The Graduate", "genre_ids": [35, 18], "backdrop_path": "/sEWKMIlgUCCb2n5mT0Mf71DRKLR.jpg", "adult": false, "overview": "Benjamin, a recent college graduate very worried about his future, finds himself in a love triangle with an older woman and her daughter.", "poster_path": "/qtVvdSsm2hvau6ItLe4gWdFKe2M.jpg", "popularity": 15.847}, {"id": 528888, "video": false, "vote_count": 353, "vote_average": 7.1, "title": "Dolemite Is My Name", "release_date": "2019-10-04", "original_language": "en", "original_title": "Dolemite Is My Name", "genre_ids": [35, 18, 36], "backdrop_path": "/8FuiFasbeFQj24Vqx6JqSCqj5lO.jpg", "adult": false, "overview": "The story of Rudy Ray Moore, who created the iconic big screen pimp character Dolemite in the 1970s.", "poster_path": "/uoAqJg7ZSmftnBGOkupU1ySZQU0.jpg", "popularity": 37.46}, {"adult": false, "backdrop_path": "/6ogNP2NPN7C1LccE8PhjGaNMvdM.jpg", "genre_ids": [35], "id": 620725, "original_language": "en", "original_title": "Jexi", "overview": "Phil's new phone comes with an unexpected feature, Jexi...an A.I. determined to keep him all to herself in a comedy about what can happen when you love your phone more than all else.", "poster_path": "/pdYhXJPoV0Kvwdih74lejHPTyWL.jpg", "release_date": "2019-10-10", "title": "Jexi", "video": false, "vote_average": 6.3, "vote_count": 85, "popularity": 31.626}, {"id": 394741, "video": false, "vote_count": 498, "vote_average": 7.0, "title": "Stan & Ollie", "release_date": "2018-12-28", "original_language": "en", "original_title": "Stan & Ollie", "genre_ids": [35, 18], "backdrop_path": "/bH7ax3A4Pxlh5ddG4d3HNDMlhK4.jpg", "adult": false, "overview": "With their golden era long behind them, comedy duo Stan Laurel and Oliver Hardy embark on a variety hall tour of Britain and Ireland. Despite the pressures of a hectic schedule, and with the support of their wives Lucille and Ida \u2013 a formidable double act in their own right \u2013 the pair's love of performing, as well as for each other, endures as they secure their place in the hearts of their adoring public", "poster_path": "/8qDBDXA8Od8gc4IQMnoXUKyj8Pf.jpg", "popularity": 14.809}, {"adult": false, "backdrop_path": "/yl0siKWmGjnBcuCEacKyW0vHsWq.jpg", "genre_ids": [10749, 18], "id": 409387, "original_language": "ko", "original_title": "\uc815\uc0ac : \uacb0\ud63c \ub9d0\uace0 \uc5f0\uc560", "overview": "\"Getting married is crazy! I only want to be in relationships!\" The life story of a woman who doesn't want to settle for one man. Her mom nags at her to get married, her superior grills her to bring results and her boyfriend turns out to be married. Soo-kyeong comforts herself with some spicy food. One lonely birthday, she ends up having sex with the chef of the spicy food restaurant. They fit well mentally and physically so they get closer but Soo-kyeong rejects the chef's marriage proposal. The chef gets married with someone else and asks her, \"I got married with someone else like you said. Now will you have a relationship with me?\"", "poster_path": "/4hiv07Quj8A7J8onCIAjNCy62Er.jpg", "release_date": "2016-04-19", "title": "Sex: A Relationship and Not Marriage", "video": false, "vote_average": 7.7, "vote_count": 3, "popularity": 11.678}, {"id": 50620, "video": false, "vote_count": 5631, "vote_average": 6.3, "title": "The Twilight Saga: Breaking Dawn - Part 2", "release_date": "2012-11-13", "original_language": "en", "original_title": "The Twilight Saga: Breaking Dawn - Part 2", "genre_ids": [12, 18, 14, 10749], "backdrop_path": "/xDWphxQqBfZJVlTrg6C0GQBSeUc.jpg", "adult": false, "overview": "After the birth of Renesmee, the Cullens gather other vampire clans in order to protect the child from a false allegation that puts the family in front of the Volturi.", "poster_path": "/kJQPygYB8aNEevZZHRifyYrAdU9.jpg", "popularity": 21.925}, {"adult": false, "backdrop_path": "/bQW1TnxHlmkWof0vsALj4HBkoxj.jpg", "genre_ids": [18, 10749], "id": 51828, "original_language": "en", "original_title": "One Day", "overview": "A romantic comedy centered on Dexter and Emma, who first meet during their graduation in 1988 and proceed to keep in touch regularly. The film follows what they do on July 15 annually, usually doing something together.", "poster_path": "/xzOz17yC3K6SZWtWylXimcHUqpD.jpg", "release_date": "2011-03-02", "title": "One Day", "video": false, "vote_average": 7.2, "vote_count": 2343, "popularity": 16.744}], "total_pages": 373, "total_results": 7456}, "recommendations": {"page": 1, "results": [{"adult": false, "backdrop_path": null, "genre_ids": [35], "id": 410965, "original_language": "en", "original_title": "Jeff Foxworthy & Larry the Cable Guy: We've Been Thinking", "overview": "Comedians Jeff Foxworthy and Larry the Cable Guy bring their distinctive brand of humor to a packed crowd in Minneapolis.", "poster_path": "/resbtICTW6SAQ9N16gn8k8jeajU.jpg", "release_date": "2016-08-26", "title": "Jeff Foxworthy & Larry the Cable Guy: We've Been Thinking", "video": false, "vote_average": 5.3, "vote_count": 4, "popularity": 2.848}, {"id": 345170, "video": false, "vote_count": 13, "vote_average": 5.9, "title": "Frank and Cindy", "release_date": "2015-06-16", "original_language": "en", "original_title": "Frank and Cindy", "genre_ids": [35, 18], "backdrop_path": "/qveVTaYgequFogbrHkksPmhonTr.jpg", "adult": false, "overview": "G.J. Echternkamp tells the story of his relationship with his parents, his mother Cindy and his step-father, Frank. Frank used to be a member of OXO, a band from the '80s whose one hit wonder scored with the song \"Whirly Girl\". Cindy was the ultimate groupie who married Frank and thought life would be glamorous and award shows, but it's not how it turned out.", "poster_path": "/eieyGLk6m2q6TFvMvABuN2fMehV.jpg", "popularity": 4.46}, {"id": 277687, "video": false, "vote_count": 17, "vote_average": 4.9, "title": "The Midnight Swim", "release_date": "2015-06-26", "original_language": "en", "original_title": "The Midnight Swim", "genre_ids": [18, 9648], "backdrop_path": "/t3UIa7eAqkKvoHTygq9o3YR7AmB.jpg", "adult": false, "overview": "Spirit Lake is unusually deep. No diver has ever managed to find the bottom. When Dr. Amelia Brooks disappears during a deep-water dive, her three daughters travel home. They find themselves unable to let go and become drawn into the mysteries of the lake.", "poster_path": "/iUTioBVHXkogASkS7uV8Gh04laW.jpg", "popularity": 4.531}, {"adult": false, "backdrop_path": "/9Qgv5zRcovRwpc4bmFQIc4aFI0L.jpg", "genre_ids": [10751, 35, 18], "id": 392898, "original_language": "en", "original_title": "Sun Belt Express", "overview": "A down-on-his-luck ethics professor ends up on a completely unhinged run across the Mexican border with his teenage daughter in tow - and four undocumented immigrants in the trunk.", "poster_path": "/hp5EDBHtQTud97p8tQFgxQqSluY.jpg", "release_date": "2015-06-06", "title": "Sun Belt Express", "video": false, "vote_average": 6.0, "vote_count": 5, "popularity": 2.803}, {"adult": false, "backdrop_path": "/ieVdPvE6etM8nsME4vlMdmt6G4U.jpg", "genre_ids": [27, 9648], "id": 78411, "original_language": "en", "original_title": "Dark Intruder", "overview": "Police call in occult expert to help solve series of murders.", "poster_path": "/petzxxDop6hmOzoArFfgyRhZzXO.jpg", "release_date": "1965-07-25", "title": "Dark Intruder", "video": false, "vote_average": 5.9, "vote_count": 6, "popularity": 3.366}, {"adult": false, "backdrop_path": null, "genre_ids": [99], "id": 185515, "original_language": "en", "original_title": "John & Jane", "overview": "A fresh new blend of observational documentary and tropical science-fiction, JOHN &amp; JANE follows the stories of six call agents that answer American 1-800 numbers in a Mumbai call center. After a heady mix of American culture training and 14 hour night shifts, the job soon starts to take its toll. Counter pointing the fluorescent interiors of late night offices and hyper-malls with the uneasy currents swirling around the characters, JOHN &amp; JANE discovers a young generation of urban Indians that are beginning to live between the real and the virtual. However, this futuristic world of American aliases and simulated reality is not science fiction, these are the times in which we live. JOHN &amp; JANE raises disturbing questions about the nature of personal identity in a 21st century globalised world.", "poster_path": "/bk2rOFpTMlICumGBgD5waGLGBK.jpg", "release_date": "2005-09-13", "title": "John & Jane", "video": false, "vote_average": 6.4, "vote_count": 5, "popularity": 1.487}, {"adult": false, "backdrop_path": "/yz82csAKOFy1Y9LkoB6xsdM9FhH.jpg", "genre_ids": [35], "id": 333358, "original_language": "en", "original_title": "Better Off Single", "overview": "A comedy that follows a man on a mission of self-discovery that results in hallucinations, flashbacks and fantasies in his quest to find new love and himself.", "poster_path": "/sjNkyJ6ZpeHcJO1PL2D2CdRYXOM.jpg", "release_date": "2016-10-07", "title": "Better Off Single", "video": false, "vote_average": 5.2, "vote_count": 21, "popularity": 4.523}, {"id": 306626, "video": false, "vote_count": 12, "vote_average": 3.5, "title": "Holiday Miracle", "release_date": "2014-12-01", "original_language": "en", "original_title": "Holiday Miracle", "genre_ids": [35], "backdrop_path": null, "adult": false, "overview": "On the eve of Christmas, Sheriff Rick Langston has lost his holiday spirit. But when he arrests a home intruder claiming to be Santa Claus, his world gets turned upside-down ! With the help of Lucy, the new girl in town, Santa helps show Rick that even when you feel that all is lost, love is all around you.", "poster_path": "/q2oztnntFTDn1HPi8WzNCe2YZpA.jpg", "popularity": 4.999}, {"adult": false, "backdrop_path": "/4k8IoSUOgqhOvu3uIEhPET8KW5K.jpg", "genre_ids": [35, 27], "id": 404073, "original_language": "en", "original_title": "Ghost Team", "overview": "A paranormal-obsessed man mounts his own investigation into the beyond with his depressed best friend, misfit nephew, a cable access medium and an overeager security guard.", "poster_path": "/8RfbZSRgzoa6r3JO4R9F29nKSGq.jpg", "release_date": "2016-07-21", "title": "Ghost Team", "video": false, "vote_average": 4.4, "vote_count": 34, "popularity": 4.465}, {"adult": false, "backdrop_path": "/iOsvhOimYlKhUWIxMugxn83JlWZ.jpg", "genre_ids": [35], "id": 58886, "original_language": "nl", "original_title": "Iedereen Beroemd!", "overview": "", "poster_path": "/uzJ4WF2X39xJLXpnMkPZp1iE8BD.jpg", "release_date": "2000-04-12", "title": "Everybody's Famous!", "video": false, "vote_average": 6.2, "vote_count": 16, "popularity": 2.244}, {"adult": false, "backdrop_path": null, "genre_ids": [16, 35], "id": 161862, "original_language": "en", "original_title": "Bosko's Picture Show", "overview": "Bosko runs a movie theater that shows a wacky newsreel with Jack Dumpsey, a slapstick short from Haurel and Lardy, and a turn-of-the-century melodrama starring Honey.", "poster_path": "/90OyGQiZclODFGK2yckvYhPFmcb.jpg", "release_date": "1933-08-26", "title": "Bosko's Picture Show", "video": false, "vote_average": 5.6, "vote_count": 5, "popularity": 2.475}, {"adult": false, "backdrop_path": null, "genre_ids": [], "id": 205504, "original_language": "en", "original_title": "Tr\u00e4dg\u00e5rdsm\u00e4staren", "overview": "A gardener runs a nursery. His son has fallen in love with the daughter of one of the workers at the nursery. The gardener, who has a good eye for daughter, runs furiously his son out of the house.", "poster_path": "/tEkSqtJZcan3gTMBzOP9cFj0wwp.jpg", "release_date": "1912-10-16", "title": "The Gardener", "video": false, "vote_average": 6.2, "vote_count": 7, "popularity": 1.213}, {"id": 87472, "video": false, "vote_count": 5, "vote_average": 3.7, "title": "Cauldron of Blood", "release_date": "1970-02-16", "original_language": "en", "original_title": "El coleccionista de cad\u00e1veres", "genre_ids": [27], "backdrop_path": "/vecbTnhaDhn7b18YpAG6RcqdYlo.jpg", "adult": false, "overview": "A blind sculptor works on his magnum opus unaware that the skeletons he has been using for armatures are the remains of the victims of his evil wife and that he is the next target.", "poster_path": "/tLxuetr9F7deCElhA97dlCyFhRo.jpg", "popularity": 2.239}, {"adult": false, "backdrop_path": "/eWG3NUh1MWYl4nykjlMHJfGiBlw.jpg", "genre_ids": [27, 53, 10770], "id": 27546, "original_language": "en", "original_title": "The Wasp Woman", "overview": "Janice Starlin is an aging model who owns a cosmetics company. When a researcher experimenting with wasps brings her a serum that will turn back the aging process, she decides to first try it on herself. The serum works, but it also turns her into a killer wasp woman.", "poster_path": "/f4icCm9htUvXMs7TV8WPitl7asU.jpg", "release_date": "1996-08-01", "title": "The Wasp Woman", "video": false, "vote_average": 2.7, "vote_count": 5, "popularity": 4.173}, {"adult": false, "backdrop_path": "/sLt5tTP7SNx9GFiIpPpkoWhVYM.jpg", "genre_ids": [27, 35], "id": 27743, "original_language": "en", "original_title": "Serial Killing 4 Dummys", "overview": "Casey Noland, a high school kid with no direction in life, decides to pursue the serial killing profession. Only problem...he can't bring himself to kill anybody. Will the help of a gothic chick named Sasha, he attempts to learn the ways of a mass murderer. Meanwhile, a real serial killer is at work in their town and Casey thinks he might know who the maniac is.", "poster_path": "/um9riTrJCQblb38r6uAgzNsjYy6.jpg", "release_date": "2004-01-01", "title": "Serial Killing 101", "video": false, "vote_average": 5.8, "vote_count": 9, "popularity": 2.31}, {"adult": false, "backdrop_path": "/oBdIe2fRj0wRFogc3X1CHfHhkgm.jpg", "genre_ids": [35, 18], "id": 9977, "original_language": "en", "original_title": "Children of the Revolution", "overview": "A man (Richard Roxburgh) the Australian government blames for 1990s political woes blames his mother (Judy Davis), a communist Stalin seduced in 1951.", "poster_path": "/kLvxgCAcOBFh6kYBxqg0pXhoAZ8.jpg", "release_date": "1996-06-14", "title": "Children of the Revolution", "video": false, "vote_average": 5.5, "vote_count": 12, "popularity": 3.968}, {"adult": false, "backdrop_path": null, "genre_ids": [14, 35], "id": 107268, "original_language": "fr", "original_title": "Chez la sorci\u00e8re", "overview": "A sorceress conjures up a bevy of beauties for a bachelor to peruse.", "poster_path": "/uazGyWWDnmVSVMvPM3vRWxmfkVx.jpg", "release_date": "1901-01-01", "title": "The Bachelor's Paradise", "video": false, "vote_average": 4.8, "vote_count": 10, "popularity": 0.84}, {"adult": false, "backdrop_path": null, "genre_ids": [35, 14], "id": 107258, "original_language": "fr", "original_title": "Dislocation myst\u00e9rieuse", "overview": "A clown performs various feats of magic based on his ability to detach and reattach different parts of his body.", "poster_path": "/qFQnvjce84Or9GshmWW7TPFW8wY.jpg", "release_date": "1901-01-01", "title": "An Extraordinary Dislocation", "video": false, "vote_average": 5.8, "vote_count": 12, "popularity": 1.075}, {"adult": false, "backdrop_path": null, "genre_ids": [99], "id": 208084, "original_language": "en", "original_title": "Fire & Rain", "overview": "How do you make something last just a minute that actually takes ten times as long? You boil it down. \"I took the steel rolling process that takes about 10 minutes\", James Benning writes about Fire &amp; Rain, \"and condensed it down to one minute by cutting out portions and hiding the ellipses in time with dissolves\".", "poster_path": "/s7wKC30nL3Hh8UAuk1vnJ2Lj29B.jpg", "release_date": "2009-09-16", "title": "Fire & Rain", "video": false, "vote_average": 6.1, "vote_count": 7, "popularity": 1.171}, {"adult": false, "backdrop_path": null, "genre_ids": [], "id": 277218, "original_language": "en", "original_title": "A", "overview": "A writer is persecuted by an enormous and abusive letter 'A'.", "poster_path": "/j82lGCWzCggXvbFjIKnVWJPC1aL.jpg", "release_date": "1965-01-02", "title": "A", "video": false, "vote_average": 6.0, "vote_count": 8, "popularity": 1.4}], "total_pages": 2, "total_results": 40}, "credits": {"cast": [{"cast_id": 1, "character": "Lucy", "credit_id": "52fe4496c3a368484e02b601", "gender": 1, "id": 1294, "name": "Missi Pyle", "order": 0, "profile_path": "/gjJiT50eCgPMRsIKl03v64CJOPf.jpg"}, {"cast_id": 2, "character": "Becky", "credit_id": "52fe4496c3a368484e02b605", "gender": 1, "id": 55536, "name": "Melissa McCarthy", "order": 1, "profile_path": "/nRNMJlqR33j84cGdB0RxstV3NYm.jpg"}, {"cast_id": 3, "character": "George", "credit_id": "52fe4496c3a368484e02b609", "gender": 2, "id": 31532, "name": "Josh Hopkins", "order": 2, "profile_path": "/4FF6p6G6SAUDJcfOx6GSFQrfTfq.jpg"}, {"cast_id": 4, "character": "Mary", "credit_id": "52fe4496c3a368484e02b60d", "gender": 1, "id": 6944, "name": "Octavia Spencer", "order": 3, "profile_path": "/aii7wrNglEH07xjQvtRBEGSUEvT.jpg"}, {"cast_id": 5, "character": "Trevor", "credit_id": "52fe4496c3a368484e02b611", "gender": 2, "id": 22133, "name": "Jack Noseworthy", "order": 4, "profile_path": "/g30R5ax6RSN8OSdsWZnG2IhLDFT.jpg"}, {"cast_id": 6, "character": "Austin", "credit_id": "52fe4496c3a368484e02b615", "gender": 0, "id": 117087, "name": "Larry Sullivan", "order": 5, "profile_path": "/9OMEE8PBsMsxJ9KM2oosZ7mejCl.jpg"}, {"cast_id": 10, "character": "Suzanna", "credit_id": "52fe4496c3a368484e02b625", "gender": 1, "id": 19, "name": "Allison Janney", "order": 7, "profile_path": "/cDcB8mKP1GiIeoM3Qe7GIucs0iv.jpg"}, {"cast_id": 11, "character": "Raye", "credit_id": "52fe4496c3a368484e02b629", "gender": 2, "id": 33490, "name": "Phill Lewis", "order": 8, "profile_path": "/9BNNDcZ9xLTZXjSLyusBhTCc6AL.jpg"}], "crew": [{"credit_id": "52fe4496c3a368484e02b621", "department": "Directing", "gender": 2, "id": 55789, "job": "Director", "name": "Tate Taylor", "profile_path": "/7xXp4TsBl6OB4v2kNqvKAG5uOnh.jpg"}, {"credit_id": "52fe4496c3a368484e02b61b", "department": "Writing", "gender": 2, "id": 55789, "job": "Writer", "name": "Tate Taylor", "profile_path": "/7xXp4TsBl6OB4v2kNqvKAG5uOnh.jpg"}]}}