{"adult": false, "backdrop_path": "/watWw1Z7Q5OTgWBp6jps0bBNNdH.jpg", "belongs_to_collection": null, "budget": 0, "genres": [{"id": 99, "name": "Documentary"}], "homepage": "", "id": 24479, "imdb_id": "tt0499516", "original_language": "en", "original_title": "Look, Up in the Sky: The Amazing Story of Superman", "overview": "The history of the comic book superhero, Superman in his various media incarnations.", "popularity": 5.985, "poster_path": "/8XijyO0xluvisKHdQfIoDUkOvmW.jpg", "production_companies": [{"id": 9993, "logo_path": "/2Tc1P3Ac8M479naPp1kYT3izLS5.png", "name": "DC Entertainment", "origin_country": "US"}, {"id": 429, "logo_path": "/2Tc1P3Ac8M479naPp1kYT3izLS5.png", "name": "DC Comics", "origin_country": "US"}], "production_countries": [{"iso_3166_1": "US", "name": "United States of America"}], "release_date": "2006-06-12", "revenue": 0, "runtime": 115, "spoken_languages": [{"iso_639_1": "en", "name": "English"}], "status": "Released", "tagline": "", "title": "Look, Up in the Sky: The Amazing Story of Superman", "video": false, "vote_average": 6.9, "vote_count": 9, "keywords": {"keywords": [{"id": 9715, "name": "superhero"}, {"id": 33637, "name": "super power"}, {"id": 179102, "name": "superhuman strength"}]}, "similar": {"page": 1, "results": [{"id": 246655, "video": false, "vote_count": 8991, "vote_average": 6.5, "title": "X-Men: Apocalypse", "release_date": "2016-05-18", "original_language": "en", "original_title": "X-Men: Apocalypse", "genre_ids": [28, 12, 14, 878], "backdrop_path": "/oQWWth5AOtbWG9o8SCAviGcADed.jpg", "adult": false, "overview": "After the re-emergence of the world's first mutant, world-destroyer Apocalypse, the X-Men must unite to defeat his extinction level plan.", "poster_path": "/zSouWWrySXshPCT4t3UKCQGayyo.jpg", "popularity": 37.341}, {"id": 9738, "video": false, "vote_count": 6166, "vote_average": 5.7, "title": "Fantastic Four", "release_date": "2005-06-29", "original_language": "en", "original_title": "Fantastic Four", "genre_ids": [28, 12, 14, 878], "backdrop_path": "/6RaH2Znu7dUQq7c8surf7hRp44f.jpg", "adult": false, "overview": "During a space voyage, four scientists are altered by cosmic rays: Reed Richards gains the ability to stretch his body; Sue Storm can become invisible; Johnny Storm controls fire; and Ben Grimm is turned into a super-strong \u2026 thing. Together, these \"Fantastic Four\" must now thwart the evil plans of Dr. Doom and save the world from certain destruction.", "poster_path": "/sYNOCHiWA9UDUHlPvRWztSo5hZV.jpg", "popularity": 24.557}, {"adult": false, "backdrop_path": "/nq60mZOlrD4mZJg1T4hHUtWTIkN.jpg", "genre_ids": [12, 14, 28, 53], "id": 1979, "original_language": "en", "original_title": "Fantastic Four: Rise of the Silver Surfer", "overview": "The Fantastic Four return to the big screen as a new and all powerful enemy threatens the Earth. The seemingly unstoppable 'Silver Surfer', but all is not what it seems and there are old and new enemies that pose a greater threat than the intrepid superheroes realize.", "poster_path": "/fXpziQgnBnB4bLgjKhjTbLQumE5.jpg", "release_date": "2007-06-13", "title": "Fantastic Four: Rise of the Silver Surfer", "video": false, "vote_average": 5.5, "vote_count": 5275, "popularity": 33.44}, {"id": 166424, "video": false, "vote_count": 4096, "vote_average": 4.4, "title": "Fantastic Four", "release_date": "2015-08-05", "original_language": "en", "original_title": "Fantastic Four", "genre_ids": [28, 12, 878], "backdrop_path": "/3Kgu3ys6W6UZWWFty7rlTWgST63.jpg", "adult": false, "overview": "Four young outsiders teleport to a dangerous universe, which alters their physical form in shocking ways. Their lives irrevocably upended, the team must learn to harness their daunting new abilities and work together to save Earth from a former friend turned enemy.", "poster_path": "/g23cs30dCMiG4ldaoVNP1ucjs6.jpg", "popularity": 27.283}, {"id": 1452, "video": false, "vote_count": 2593, "vote_average": 5.6, "title": "Superman Returns", "release_date": "2006-06-28", "original_language": "en", "original_title": "Superman Returns", "genre_ids": [28, 12, 878], "backdrop_path": "/uAVdwu4vEx0TwuC4ewp9RqplKEV.jpg", "adult": false, "overview": "Superman returns to discover his 5-year absence has allowed Lex Luthor to walk free, and that those he was closest to felt abandoned and have moved on. Luthor plots his ultimate revenge that could see millions killed and change the face of the planet forever, as well as ridding himself of the Man of Steel.", "poster_path": "/e3aLTaD5ppxo3en0GAGceekEPAe.jpg", "popularity": 23.064}, {"id": 1924, "video": false, "vote_count": 2083, "vote_average": 7.0, "title": "Superman", "release_date": "1978-12-13", "original_language": "en", "original_title": "Superman", "genre_ids": [28, 12, 878], "backdrop_path": "/nS0rEXPbkHI449SF6R4WUQvTVxE.jpg", "adult": false, "overview": "Mild-mannered Clark Kent works as a reporter at the Daily Planet alongside his crush, Lois Lane. Clark must summon his superhero alter-ego when the nefarious Lex Luthor launches a plan to take over the world.", "poster_path": "/rLTdj7oB9oxsYwuweeglWRzRng7.jpg", "popularity": 22.316}, {"adult": false, "backdrop_path": "/ysLIi9nzMbUqi4dQh3tqblUb27o.jpg", "genre_ids": [878, 28, 27, 53, 12, 14], "id": 36648, "original_language": "en", "original_title": "Blade: Trinity", "overview": "For years, Blade has fought against the vampires in the cover of the night. But now, after falling into the crosshairs of the FBI, he is forced out into the daylight, where he is driven to join forces with a clan of human vampire hunters he never knew existed\u2014The Nightstalkers. Together with Abigail and Hannibal, two deftly trained Nightstalkers, Blade follows a trail of blood to the ancient creature that is also hunting him\u2014the original vampire, Dracula.", "poster_path": "/4WinsdHQBdh5aTt7Bd7T7dbUXbb.jpg", "release_date": "2004-12-08", "title": "Blade: Trinity", "video": false, "vote_average": 5.8, "vote_count": 2277, "popularity": 21.038}, {"id": 10138, "video": false, "vote_count": 13571, "vote_average": 6.8, "title": "Iron Man 2", "release_date": "2010-04-28", "original_language": "en", "original_title": "Iron Man 2", "genre_ids": [28, 12, 878], "backdrop_path": "/jxdSxqAFrdioKgXwgTs5Qfbazjq.jpg", "adult": false, "overview": "With the world now aware of his dual life as the armored superhero Iron Man, billionaire inventor Tony Stark faces pressure from the government, the press and the public to share his technology with the military. Unwilling to let go of his invention, Stark, with Pepper Potts and James 'Rhodey' Rhodes at his side, must forge new alliances \u2013 and confront powerful enemies.", "poster_path": "/1LoT5WsN4Lc1aR7A18ciSA1LoMy.jpg", "popularity": 27.36}, {"adult": false, "backdrop_path": "/cjRUhKyt2Jo3V1KNzc5tpPNfccG.jpg", "genre_ids": [878, 28, 12], "id": 320288, "original_language": "en", "original_title": "Dark Phoenix", "overview": "The X-Men face their most formidable and powerful foe when one of their own, Jean Grey, starts to spiral out of control. During a rescue mission in outer space, Jean is nearly killed when she's hit by a mysterious cosmic force. Once she returns home, this force not only makes her infinitely more powerful, but far more unstable. The X-Men must now band together to save her soul and battle aliens that want to use Grey's new abilities to rule the galaxy.", "poster_path": "/cCTJPelKGLhALq3r51A9uMonxKj.jpg", "release_date": "2019-06-05", "title": "Dark Phoenix", "video": false, "vote_average": 6.0, "vote_count": 2753, "popularity": 51.685}, {"id": 1771, "video": false, "vote_count": 14031, "vote_average": 6.9, "title": "Captain America: The First Avenger", "release_date": "2011-07-22", "original_language": "en", "original_title": "Captain America: The First Avenger", "genre_ids": [28, 12, 878], "backdrop_path": "/pmZtj1FKvQqISS6iQbkiLg5TAsr.jpg", "adult": false, "overview": "During World War II, Steve Rogers is a sickly man from Brooklyn who's transformed into super-soldier Captain America to aid in the war effort. Rogers must stop the Red Skull \u2013 Adolf Hitler's ruthless head of weaponry, and the leader of an organization that intends to use a mysterious device of untold powers for world domination.", "poster_path": "/vSNxAJTlD0r02V9sPYpOjqDZXUK.jpg", "popularity": 22.016}, {"id": 68721, "video": false, "vote_count": 15342, "vote_average": 6.9, "title": "Iron Man 3", "release_date": "2013-04-18", "original_language": "en", "original_title": "Iron Man 3", "genre_ids": [28, 12, 878], "backdrop_path": "/n9X2DKItL3V0yq1q1jrk8z5UAki.jpg", "adult": false, "overview": "When Tony Stark's world is torn apart by a formidable terrorist called the Mandarin, he starts an odyssey of rebuilding and retribution.", "poster_path": "/7XiGqZE8meUv7L4720L0tIDd7gO.jpg", "popularity": 29.473}, {"id": 10195, "video": false, "vote_count": 13986, "vote_average": 6.7, "title": "Thor", "release_date": "2011-04-21", "original_language": "en", "original_title": "Thor", "genre_ids": [28, 12, 14], "backdrop_path": "/LvmmDZxkTDqp0DX7mUo621ahdX.jpg", "adult": false, "overview": "Against his father Odin's will, The Mighty Thor - a powerful but arrogant warrior god - recklessly reignites an ancient war. Thor is cast down to Earth and forced to live among humans as punishment. Once here, Thor learns what it takes to be a true hero when the most dangerous villain of his world sends the darkest forces of Asgard to invade Earth.", "poster_path": "/9zDwvsISU8bR15R2yN3kh1lfqve.jpg", "popularity": 38.177}, {"id": 155, "video": false, "vote_count": 20752, "vote_average": 8.4, "title": "The Dark Knight", "release_date": "2008-07-16", "original_language": "en", "original_title": "The Dark Knight", "genre_ids": [28, 80, 18, 53], "backdrop_path": "/hqkIcbrOHL86UncnHIsHVcVmzue.jpg", "adult": false, "overview": "Batman raises the stakes in his war on crime. With the help of Lt. Jim Gordon and District Attorney Harvey Dent, Batman sets out to dismantle the remaining criminal organizations that plague the streets. The partnership proves to be effective, but they soon find themselves prey to a reign of chaos unleashed by a rising criminal mastermind known to the terrified citizens of Gotham as the Joker.", "poster_path": "/pKKvCaL1TPTVtbI6EeliyND3api.jpg", "popularity": 54.288}, {"id": 1927, "video": false, "vote_count": 3504, "vote_average": 5.4, "title": "Hulk", "release_date": "2003-06-19", "original_language": "en", "original_title": "Hulk", "genre_ids": [28, 878], "backdrop_path": "/kVxquPLBzAIq2NmlbWjTsfZBFh5.jpg", "adult": false, "overview": "Bruce Banner, a genetics researcher with a tragic past, suffers massive radiation exposure in his laboratory that causes him to transform into a raging green monster when he gets angry.", "poster_path": "/ogCQV6mnLtCJuiiHtMB83jvSRfY.jpg", "popularity": 29.829}, {"id": 271110, "video": false, "vote_count": 15266, "vote_average": 7.4, "title": "Captain America: Civil War", "release_date": "2016-04-27", "original_language": "en", "original_title": "Captain America: Civil War", "genre_ids": [28, 12, 878], "backdrop_path": "/m5O3SZvQ6EgD5XXXLPIP1wLppeW.jpg", "adult": false, "overview": "Following the events of Age of Ultron, the collective governments of the world pass an act designed to regulate all superhuman activity. This polarizes opinion amongst the Avengers, causing two factions to side with Iron Man or Captain America, which causes an epic battle between former allies.", "poster_path": "/kSBXou5Ac7vEqKd97wotJumyJvU.jpg", "popularity": 53.9}, {"adult": false, "backdrop_path": "/ZQixhAZx6fH1VNafFXsqa1B8QI.jpg", "genre_ids": [28, 878, 12], "id": 1726, "original_language": "en", "original_title": "Iron Man", "overview": "After being held captive in an Afghan cave, billionaire engineer Tony Stark creates a unique weaponized suit of armor to fight evil.", "poster_path": "/78lPtwv72eTNqFW9COBYI0dWDJa.jpg", "release_date": "2008-04-30", "title": "Iron Man", "video": false, "vote_average": 7.6, "vote_count": 17241, "popularity": 38.66}, {"adult": false, "backdrop_path": "/o5T8rZxoWSBMYwjsUFUqTt6uMQB.jpg", "genre_ids": [28, 12, 14, 878], "id": 141052, "original_language": "en", "original_title": "Justice League", "overview": "Fuelled by his restored faith in humanity and inspired by Superman's selfless act, Bruce Wayne and Diana Prince assemble a team of metahumans consisting of Barry Allen, Arthur Curry and Victor Stone to face the catastrophic threat of Steppenwolf and the Parademons who are on the hunt for three Mother Boxes on Earth.", "poster_path": "/eifGNCSDuxJeS1loAXil5bIGgvC.jpg", "release_date": "2017-11-15", "title": "Justice League", "video": false, "vote_average": 6.2, "vote_count": 8349, "popularity": 44.513}, {"id": 99861, "video": false, "vote_count": 14863, "vote_average": 7.3, "title": "Avengers: Age of Ultron", "release_date": "2015-04-22", "original_language": "en", "original_title": "Avengers: Age of Ultron", "genre_ids": [28, 12, 878], "backdrop_path": "/rFtsE7Lhlc2jRWF7SRAU0fvrveQ.jpg", "adult": false, "overview": "When Tony Stark tries to jumpstart a dormant peacekeeping program, things go awry and Earth\u2019s Mightiest Heroes are put to the ultimate test as the fate of the planet hangs in the balance. As the villainous Ultron emerges, it is up to The Avengers to stop him from enacting his terrible plans, and soon uneasy alliances and unexpected action pave the way for an epic and unique global adventure.", "poster_path": "/t90Y3G8UGQp0f0DrP60wRu9gfrH.jpg", "popularity": 37.274}, {"id": 299537, "video": false, "vote_count": 8119, "vote_average": 7.0, "title": "Captain Marvel", "release_date": "2019-03-06", "original_language": "en", "original_title": "Captain Marvel", "genre_ids": [28, 12, 878], "backdrop_path": "/w2PMyoyLU22YvrGK3smVM9fW1jj.jpg", "adult": false, "overview": "The story follows Carol Danvers as she becomes one of the universe\u2019s most powerful heroes when Earth is caught in the middle of a galactic war between two alien races. Set in the 1990s, Captain Marvel is an all-new adventure from a previously unseen period in the history of the Marvel Cinematic Universe.", "poster_path": "/AtsgWhDnHTq68L0lLsUrCnM7TjG.jpg", "popularity": 54.705}, {"id": 36647, "video": false, "vote_count": 3458, "vote_average": 6.6, "title": "Blade", "release_date": "1998-08-21", "original_language": "en", "original_title": "Blade", "genre_ids": [28, 27], "backdrop_path": "/dGnDGHD5vmaRow4BzAiuJaGwIz3.jpg", "adult": false, "overview": "When Blade's mother was bitten by a vampire during pregnancy, she did not know that she gave her son a special gift while dying\u2014all the good vampire attributes in combination with the best human skills. Blade and his mentor battle an evil vampire rebel who plans to take over the outdated vampire council, capture Blade and resurrect a voracious blood god.", "poster_path": "/hEXJCBVZYWT8qBMwGJoSsvtnVhr.jpg", "popularity": 26.828}], "total_pages": 52, "total_results": 1031}, "recommendations": {"page": 1, "results": [], "total_pages": 1, "total_results": 0}, "credits": {"cast": [{"cast_id": 4, "character": "Narrator", "credit_id": "52fe4498c3a368484e02bb3f", "gender": 2, "id": 1979, "name": "Kevin Spacey", "order": 0, "profile_path": "/dlVRkUYKyZdJ39AN55cY1LoyXAP.jpg"}, {"cast_id": 5, "character": "himself", "credit_id": "52fe4498c3a368484e02bb43", "gender": 2, "id": 7187, "name": "Richard Donner", "order": 1, "profile_path": "/2G0gyLVJzLmRl4W3sFyaVfxppJJ.jpg"}, {"cast_id": 6, "character": "himself", "credit_id": "52fe4498c3a368484e02bb47", "gender": 2, "id": 9032, "name": "Bryan Singer", "order": 2, "profile_path": "/ts06thbCv9Ug2mNpcbcrmLGRL4Q.jpg"}, {"cast_id": 7, "character": "himself", "credit_id": "52fe4498c3a368484e02bb4b", "gender": 2, "id": 7624, "name": "Stan Lee", "order": 3, "profile_path": "/dTr2gJPL7jELKVkcjtoNx80uVKR.jpg"}, {"cast_id": 8, "character": "Himself (archive footage)", "credit_id": "52fe4498c3a368484e02bb4f", "gender": 2, "id": 20006, "name": "Christopher Reeve", "order": 4, "profile_path": "/9D4L3XeklsMc4r8FybZSTKON3HR.jpg"}, {"cast_id": 9, "character": "himself", "credit_id": "52fe4498c3a368484e02bb53", "gender": 2, "id": 17271, "name": "Brandon Routh", "order": 5, "profile_path": "/iPonANuyk3eOHjADqd4h9sBwvX1.jpg"}, {"cast_id": 10, "character": "Herself", "credit_id": "5affa45bc3a3687c56001bbc", "gender": 1, "id": 20011, "name": "Margot Kidder", "order": 6, "profile_path": "/98HrmSMx8FhMCeoKEODs3OSGYyv.jpg"}, {"cast_id": 11, "character": "Herself", "credit_id": "5affa482925141363c0021aa", "gender": 1, "id": 21818, "name": "Lesley Ann Warren", "order": 7, "profile_path": "/4I5VPyumsxYGKST9b0FL2harYRK.jpg"}, {"cast_id": 12, "character": "Himself", "credit_id": "5b3e60dd925141145b0090b7", "gender": 2, "id": 2, "name": "Mark Hamill", "order": 8, "profile_path": "/fk8OfdReNltKZqOk2TZgkofCUFq.jpg"}, {"cast_id": 13, "character": "Himself", "credit_id": "5b3e612d0e0a26168200c488", "gender": 0, "id": 985161, "name": "Mark Waid", "order": 9, "profile_path": null}, {"cast_id": 14, "character": "Himself", "credit_id": "5b3e614c0e0a26168f00b087", "gender": 2, "id": 57756, "name": "Gene Simmons", "order": 10, "profile_path": "/otJ1GRErxC0mZsLRB1ZS41dMeq9.jpg"}, {"cast_id": 15, "character": "Himself", "credit_id": "5b3e61c60e0a26168200c4e3", "gender": 2, "id": 88450, "name": "Chuck McCann", "order": 11, "profile_path": "/vRsH2ZDfrrXe8ldfsUpd5qqTx2t.jpg"}, {"cast_id": 16, "character": "Herself", "credit_id": "5b3e62e40e0a267572009c80", "gender": 0, "id": 113902, "name": "Gail Simone", "order": 12, "profile_path": null}, {"cast_id": 17, "character": "Himself", "credit_id": "5b3e63460e0a26168b00bbdd", "gender": 2, "id": 1246237, "name": "Paul Levitz", "order": 13, "profile_path": "/7MXx9XkMhvobs2IPm3JfOkCwCUd.jpg"}, {"cast_id": 18, "character": "Herself", "credit_id": "5b3e63eac3a368507200cf2d", "gender": 1, "id": 243805, "name": "Noel Neill", "order": 14, "profile_path": "/x7utCeuCrKLjU6OndLln3225r4e.jpg"}, {"cast_id": 19, "character": "Himself", "credit_id": "5b3e650cc3a368671f0000d0", "gender": 2, "id": 193763, "name": "Jack Larson", "order": 15, "profile_path": "/11UOpxJnhX2JZ7dAjy7G735pUbo.jpg"}, {"cast_id": 20, "character": "Himself (archive footage)", "credit_id": "5b3e6520925141291d00010e", "gender": 2, "id": 11496, "name": "George Reeves", "order": 16, "profile_path": "/98aYzkJmmsMHPmY77IUHVc2sbgy.jpg"}, {"cast_id": 21, "character": "Himself", "credit_id": "5b3e6576c3a368671000019c", "gender": 2, "id": 49357, "name": "Bill Mumy", "order": 17, "profile_path": "/ciFUMYHa9tmGdz52vedmoTOfJde.jpg"}, {"cast_id": 22, "character": "Himself", "credit_id": "5b3e6a35c3a368671c000623", "gender": 2, "id": 938689, "name": "Dennis O'Neil", "order": 18, "profile_path": "/vMiax1YkpJWkcmtMjfioOVW3V8P.jpg"}, {"cast_id": 23, "character": "Herself", "credit_id": "5b3e6a400e0a2626d70005f1", "gender": 1, "id": 1734, "name": "Annette O'Toole", "order": 19, "profile_path": "/vUsmxRy3CeyYEDNi8fgfAAzsmgH.jpg"}, {"cast_id": 24, "character": "Superman", "credit_id": "5b3e6a4d9251412935000508", "gender": 2, "id": 26847, "name": "Adam West", "order": 20, "profile_path": "/xAB8LWfiyi9oIClMXFkvUwUoBYo.jpg"}, {"cast_id": 25, "character": "Himself", "credit_id": "5b3e6ad50e0a2626ea000616", "gender": 0, "id": 20009, "name": "Ilya Salkind", "order": 21, "profile_path": null}, {"cast_id": 26, "character": "Himself", "credit_id": "5b3e6bcdc3a368671c00079d", "gender": 2, "id": 7190, "name": "Tom Mankiewicz", "order": 22, "profile_path": "/ldYH2f8UPevGExyCzwN7Mn3ZPjZ.jpg"}, {"cast_id": 27, "character": "Himself", "credit_id": "5b3e6d920e0a2626d200089a", "gender": 2, "id": 55278, "name": "Jackie Cooper", "order": 23, "profile_path": "/3uutX8roJ9nNXwh5nxfnuTPLPGe.jpg"}, {"cast_id": 28, "character": "Himself", "credit_id": "5b3e705a9251412933000acf", "gender": 0, "id": 2036736, "name": "Mike Carlin", "order": 24, "profile_path": null}, {"cast_id": 29, "character": "Himself", "credit_id": "5b3e70d4c3a3686708000b1e", "gender": 2, "id": 22435, "name": "Gerard Christopher", "order": 25, "profile_path": "/nrD3xFrHatpFL1GTVCrtaJHStA3.jpg"}, {"cast_id": 30, "character": "Himself", "credit_id": "5b3e71e89251412935000b35", "gender": 2, "id": 21721, "name": "Dean Cain", "order": 26, "profile_path": "/cICjOmo5KZWdfJLBvIExDE6Ma5f.jpg"}, {"cast_id": 31, "character": "Himself", "credit_id": "5b3e7365c3a3686708000cfd", "gender": 2, "id": 18924, "name": "Alfred Gough", "order": 27, "profile_path": null}, {"cast_id": 32, "character": "Himself", "credit_id": "5b3e7379c3a3686702000d93", "gender": 2, "id": 18923, "name": "Miles Millar", "order": 28, "profile_path": null}, {"cast_id": 33, "character": "Himself", "credit_id": "5b3e74139251412930000cb0", "gender": 2, "id": 938688, "name": "Dan Didio", "order": 29, "profile_path": "/bNd06xJllk11mKrxxQdIjEUsNZy.jpg"}, {"cast_id": 34, "character": "Himself", "credit_id": "5b3e749e0e0a2626ed000f81", "gender": 2, "id": 1220920, "name": "Elliot S. Maggin", "order": 30, "profile_path": null}, {"cast_id": 35, "character": "Himself", "credit_id": "5b3e75c99251412935000d75", "gender": 2, "id": 3805, "name": "Jon Peters", "order": 31, "profile_path": "/g7QUavX05hDboodZulsFF65AVjN.jpg"}, {"cast_id": 36, "character": "Himself", "credit_id": "5b3e7657c3a3686708000ede", "gender": 2, "id": 11012, "name": "Michael Dougherty", "order": 32, "profile_path": "/spyEbbR2ySIfYY6onH0E4a26Dpo.jpg"}, {"cast_id": 37, "character": "Himself", "credit_id": "5b3e7664c3a36866f300143d", "gender": 2, "id": 11013, "name": "Dan Harris", "order": 33, "profile_path": "/AhigC7XZe0ZskYaVkN0IV4Q8PN7.jpg"}, {"cast_id": 38, "character": "Herself", "credit_id": "5b3e76f9c3a368671f001098", "gender": 1, "id": 7517, "name": "Kate Bosworth", "order": 34, "profile_path": "/xyiihuw11SUNbK81eLYVNIcI06Z.jpg"}, {"cast_id": 39, "character": "Himself", "credit_id": "5b3e7739c3a36866ff001258", "gender": 2, "id": 53492, "name": "Sam Huntington", "order": 35, "profile_path": "/nq7pwic6Xe6XTRzOfXjMCuUqbjt.jpg"}], "crew": [{"credit_id": "52fe4498c3a368484e02bb2f", "department": "Directing", "gender": 2, "id": 6868, "job": "Director", "name": "Kevin Burns", "profile_path": "/xGGMVmWHYzEiThXPWfC0EZI42H8.jpg"}, {"credit_id": "52fe4498c3a368484e02bb35", "department": "Writing", "gender": 0, "id": 530868, "job": "Screenplay", "name": "Steven Smith", "profile_path": null}, {"credit_id": "52fe4498c3a368484e02bb3b", "department": "Writing", "gender": 2, "id": 939274, "job": "Screenplay", "name": "James Grant Goldin", "profile_path": null}]}}