{"adult": false, "backdrop_path": "/q1umoxNOnFdW0m3WWWCb9fwwFfH.jpg", "belongs_to_collection": null, "budget": 0, "genres": [{"id": 878, "name": "Science Fiction"}], "homepage": null, "id": 24563, "imdb_id": "tt0060672", "original_language": "en", "original_title": "Mars Needs Women", "overview": "Tommy Kirk leads his fellow Martians to Earth on an interplanetary quest for females. Kirk proves that Martians have impeccable taste when one of his first conquests turns out to be sexy scientist Yvonne Craig.", "popularity": 3.863, "poster_path": "/dnTHZUgEJZiFtHZGUXBiRCWze6d.jpg", "production_companies": [{"id": 4335, "logo_path": null, "name": "Azalea Pictures", "origin_country": ""}], "production_countries": [{"iso_3166_1": "US", "name": "United States of America"}], "release_date": "1967-01-01", "revenue": 0, "runtime": 83, "spoken_languages": [{"iso_639_1": "en", "name": "English"}], "status": "Released", "tagline": "", "title": "Mars Needs Women", "video": false, "vote_average": 3.3, "vote_count": 10, "keywords": {"keywords": [{"id": 1663, "name": "go-go dancer"}, {"id": 1969, "name": "map"}, {"id": 3801, "name": "space travel"}, {"id": 5420, "name": "fisherman"}, {"id": 9951, "name": "alien"}, {"id": 10183, "name": "independent film"}, {"id": 10481, "name": "tension"}, {"id": 10539, "name": "martian"}, {"id": 11034, "name": "b movie"}, {"id": 12553, "name": "alien abduction"}, {"id": 155493, "name": "campy"}, {"id": 171757, "name": "planetarium"}]}, "similar": {"page": 1, "results": [{"id": 339964, "video": false, "vote_count": 4615, "vote_average": 6.6, "title": "Valerian and the City of a Thousand Planets", "release_date": "2017-07-20", "original_language": "en", "original_title": "Valerian and the City of a Thousand Planets", "genre_ids": [28, 12, 878], "backdrop_path": "/5rYnygKCkmqWuMv1O5yAnzGF8gV.jpg", "adult": false, "overview": "In the 28th century, Valerian and Laureline are special operatives charged with keeping order throughout the human territories. On assignment from the Minister of Defense, the two undertake a mission to Alpha, an ever-expanding metropolis where species from across the universe have converged over centuries to share knowledge, intelligence, and cultures. At the center of Alpha is a mysterious dark force which threatens the peaceful existence of the City of a Thousand Planets, and Valerian and Laureline must race to identify the menace and safeguard not just Alpha, but the future of the universe.", "poster_path": "/jfIpMh79fGRqYJ6PwZLCntzgxlF.jpg", "popularity": 40.036}, {"id": 602, "video": false, "vote_count": 6006, "vote_average": 6.8, "title": "Independence Day", "release_date": "1996-06-25", "original_language": "en", "original_title": "Independence Day", "genre_ids": [28, 12, 878], "backdrop_path": "/4E2xKGrU2qcqUE2S3Nl27hwZdqy.jpg", "adult": false, "overview": "On July 2, a giant alien mothership enters orbit around Earth and deploys several dozen saucer-shaped 'destroyer' spacecraft that quickly lay waste to major cities around the planet. On July 3, the United States conducts a coordinated counterattack that fails. On July 4, a plan is devised to gain access to the interior of the alien mothership in space, in order to plant a nuclear missile.", "poster_path": "/bqLlWZJdhrS0knfEJRkquW7L8z2.jpg", "popularity": 20.636}, {"id": 49849, "video": false, "vote_count": 3363, "vote_average": 5.5, "title": "Cowboys & Aliens", "release_date": "2011-07-29", "original_language": "en", "original_title": "Cowboys & Aliens", "genre_ids": [28, 878, 53, 37], "backdrop_path": "/gTDwoJBCu7scwYQoykIlLNpkCes.jpg", "adult": false, "overview": "A stranger stumbles into the desert town of Absolution with no memory of his past and a futuristic shackle around his wrist. With the help of mysterious beauty Ella and the iron-fisted Colonel Dolarhyde, he finds himself leading an unlikely posse of cowboys, outlaws, and Apache warriors against a common enemy from beyond this world in an epic showdown for survival.", "poster_path": "/9uZsGCP4rvOHVGCpMpYq5gNCuNI.jpg", "popularity": 21.609}, {"id": 8077, "video": false, "vote_count": 3112, "vote_average": 6.3, "title": "Alien\u00b3", "release_date": "1992-05-22", "original_language": "en", "original_title": "Alien\u00b3", "genre_ids": [28, 27, 878], "backdrop_path": "/nDPuIjpJyGDOnNEby5ZgkRBxymS.jpg", "adult": false, "overview": "After escaping with Newt and Hicks from the alien planet, Ripley crash lands on Fiorina 161, a prison planet and host to a correctional facility. Unfortunately, although Newt and Hicks do not survive the crash, a more unwelcome visitor does. The prison does not allow weapons of any kind, and with aid being a long time away, the prisoners must simply survive in any way they can.", "poster_path": "/p7mUd9GpmCYV5qhkKGmiEerFK3i.jpg", "popularity": 25.873}, {"id": 49529, "video": false, "vote_count": 3606, "vote_average": 6.1, "title": "John Carter", "release_date": "2012-03-07", "original_language": "en", "original_title": "John Carter", "genre_ids": [28, 12, 878], "backdrop_path": "/2eDepJWMMBHmZ7pt9MSqzGQeoDc.jpg", "adult": false, "overview": "John Carter is a war-weary, former military captain who's inexplicably transported to the mysterious and exotic planet of Barsoom (Mars) and reluctantly becomes embroiled in an epic conflict. It's a world on the brink of collapse, and Carter rediscovers his humanity when he realizes the survival of Barsoom and its people rests in his hands.", "poster_path": "/4QDBNt9PmxqUH4Ab2R5xKWqzXiQ.jpg", "popularity": 20.92}, {"id": 18, "video": false, "vote_count": 6836, "vote_average": 7.5, "title": "The Fifth Element", "release_date": "1997-05-02", "original_language": "en", "original_title": "The Fifth Element", "genre_ids": [28, 12, 14, 878, 53], "backdrop_path": "/qlGoGQSVMzIjGbpvXzZUOH1FjNu.jpg", "adult": false, "overview": "In 2257, a taxi driver is unintentionally given the task of saving a young girl who is part of the key that will ensure the survival of humanity.", "poster_path": "/zaFa1NRZEnFgRTv5OVXkNIZO78O.jpg", "popularity": 46.446}, {"adult": false, "backdrop_path": "/xATZyEpnZ0Z0iO9z5K8RZsraGKI.jpg", "genre_ids": [878, 18], "id": 840, "original_language": "en", "original_title": "Close Encounters of the Third Kind", "overview": "After an encounter with UFOs, a line worker feels undeniably drawn to an isolated area in the wilderness where something spectacular is about to happen.", "poster_path": "/3Av8ZPiMrxFq9XiOjZl0tkoq9Oo.jpg", "release_date": "1977-11-16", "title": "Close Encounters of the Third Kind", "video": false, "vote_average": 7.4, "vote_count": 2289, "popularity": 38.059}, {"adult": false, "backdrop_path": "/gXUdQLbo6eqaTby2cEjFQW1jyVV.jpg", "genre_ids": [28, 53, 878], "id": 679, "original_language": "en", "original_title": "Aliens", "overview": "When Ripley's lifepod is found by a salvage crew over 50 years later, she finds that terra-formers are on the very planet they found the alien species. When the company sends a family of colonists out to investigate her story\u2014all contact is lost with the planet and colonists. They enlist Ripley and the colonial marines to return and search for answers.", "poster_path": "/nORMXEkYEbzkU5WkMWMgRDJwjSZ.jpg", "release_date": "1986-07-18", "title": "Aliens", "video": false, "vote_average": 7.9, "vote_count": 5590, "popularity": 31.82}, {"id": 7453, "video": false, "vote_count": 2556, "vote_average": 6.7, "title": "The Hitchhiker's Guide to the Galaxy", "release_date": "2005-04-28", "original_language": "en", "original_title": "The Hitchhiker's Guide to the Galaxy", "genre_ids": [12, 35, 878, 10751], "backdrop_path": "/kMf3ewax3ZeiSESaPQxBAReQzDD.jpg", "adult": false, "overview": "Mere seconds before the Earth is to be demolished by an alien construction crew, Arthur Dent is swept off the planet by his friend Ford Prefect, a researcher penning a new edition of \"The Hitchhiker's Guide to the Galaxy.\"", "poster_path": "/fOb4cJMhnZ11BoHNUii3Vcfo3XU.jpg", "popularity": 23.951}, {"id": 19995, "video": false, "vote_count": 20117, "vote_average": 7.4, "title": "Avatar", "release_date": "2009-12-10", "original_language": "en", "original_title": "Avatar", "genre_ids": [28, 12, 14, 878], "backdrop_path": "/aHcth2AXzZSjhX7JYh7ie73YVNc.jpg", "adult": false, "overview": "In the 22nd century, a paraplegic Marine is dispatched to the moon Pandora on a unique mission, but becomes torn between following orders and protecting an alien civilization.", "poster_path": "/kmcqlZGaSh20zpTbuoF0Cdn07dT.jpg", "popularity": 39.174}, {"id": 126889, "video": false, "vote_count": 5389, "vote_average": 5.9, "title": "Alien: Covenant", "release_date": "2017-05-09", "original_language": "en", "original_title": "Alien: Covenant", "genre_ids": [27, 878, 53], "backdrop_path": "/6jajFcaY2YsfGQstJ5HaqZNVseX.jpg", "adult": false, "overview": "Bound for a remote planet on the far side of the galaxy, the crew of the colony ship 'Covenant' discovers what is thought to be an uncharted paradise, but is actually a dark, dangerous world\u2014which has a sole inhabitant: the 'synthetic', David, survivor of the doomed Prometheus expedition.", "poster_path": "/zecMELPbU5YMQpC81Z8ImaaXuf9.jpg", "popularity": 36.026}, {"adult": false, "backdrop_path": "/dfNrZ82poQ8blHWJreIv6JZQ9JA.jpg", "genre_ids": [27, 878], "id": 348, "original_language": "en", "original_title": "Alien", "overview": "During its return to the earth, commercial spaceship Nostromo intercepts a distress signal from a distant planet. When a three-member team of the crew discovers a chamber containing thousands of eggs on the planet, a creature inside one of the eggs attacks an explorer. The entire crew is unaware of the impending nightmare set to descend upon them when the alien parasite planted inside its unfortunate host is birthed.", "poster_path": "/2h00HrZs89SL3tXB4nbkiM7BKHs.jpg", "release_date": "1979-05-25", "title": "Alien", "video": false, "vote_average": 8.1, "vote_count": 8383, "popularity": 41.028}, {"adult": false, "backdrop_path": "/w8vYt11yKM8FTFJ1NlM1HSCcpmJ.jpg", "genre_ids": [18, 27, 878, 53], "id": 28774, "original_language": "en", "original_title": "Communion", "overview": "A novelist's wife and son see him changed by an apparent encounter with aliens in the mountains.", "poster_path": "/wfbasvm4cgbNuctLMW9u2kox3Os.jpg", "release_date": "1989-11-10", "title": "Communion", "video": false, "vote_average": 5.3, "vote_count": 74, "popularity": 7.813}, {"id": 401513, "video": false, "vote_count": 242, "vote_average": 5.9, "title": "Attraction", "release_date": "2017-01-26", "original_language": "ru", "original_title": "\u041f\u0440\u0438\u0442\u044f\u0436\u0435\u043d\u0438\u0435", "genre_ids": [12, 18, 878, 10749], "backdrop_path": "/c7biqtoJoizlrDtTYu3389P9PEL.jpg", "adult": false, "overview": "After an alien ship crash lands in a Russian city, many who see the inside and the occupants start to question their own existence while others demand the aliens leave Earth.", "poster_path": "/uMr2lXCh8PuGBhCIosjknQRv1iT.jpg", "popularity": 9.041}, {"adult": false, "backdrop_path": "/hZzwIHyVAZ5goljYRuq66CWc5GY.jpg", "genre_ids": [878, 53, 27], "id": 20424, "original_language": "en", "original_title": "Invaders from Mars", "overview": "In the early hours of the night, young David Maclean sees a flying saucer land and disappear into the sand dunes just beyond his house. Slowly, all of the adults, including his once loving parents, begin to act strangely.", "poster_path": "/tafnBTKqr5EFxDt8TTD9tHUx6YB.jpg", "release_date": "1953-04-22", "title": "Invaders from Mars", "video": false, "vote_average": 6.1, "vote_count": 84, "popularity": 9.943}, {"adult": false, "backdrop_path": "/y97xS60jrTzOmDb2jwB0IP57qig.jpg", "genre_ids": [878], "id": 2067, "original_language": "en", "original_title": "Mission to Mars", "overview": "When contact is lost with the crew of the first Mars expedition, a rescue mission is launched to discover their fate.", "poster_path": "/i0VuEfR5n1rPzlMX4eJdXaYWd5J.jpg", "release_date": "2000-03-10", "title": "Mission to Mars", "video": false, "vote_average": 5.9, "vote_count": 746, "popularity": 14.926}, {"id": 13001, "video": false, "vote_count": 231, "vote_average": 7.1, "title": "Stargate: The Ark of Truth", "release_date": "2008-03-11", "original_language": "en", "original_title": "Stargate: The Ark of Truth", "genre_ids": [12, 878, 10770], "backdrop_path": "/bT7wr22WUcHhj2Etw61qVVjra9f.jpg", "adult": false, "overview": "SG-1 searches for an ancient weapon which could help them defeat the Ori, and discover it may be in the Ori's own home galaxy. As the Ori prepare to send ships through to the Milky Way to attack Earth, SG-1 travels to the Ori galaxy aboard the Odyssey. The International Oversight committee have their own plans and SG-1 finds themselves in a distant galaxy fighting two powerful enemies.", "poster_path": "/nOKvsS77gOFEtmEVUBcqgpmlxIV.jpg", "popularity": 9.208}, {"adult": false, "backdrop_path": "/iA5RfBnIzzpvwDPy5LHPrUKRl71.jpg", "genre_ids": [12, 878, 10770], "id": 12914, "original_language": "en", "original_title": "Stargate: Continuum", "overview": "Ba'al travels back in time and prevents the Stargate program from being started. SG-1 must somehow restore history.", "poster_path": "/tk1jYOK6DRvBHAoHCueUVL3RSEe.jpg", "release_date": "2008-07-29", "title": "Stargate: Continuum", "video": false, "vote_average": 7.0, "vote_count": 238, "popularity": 10.628}, {"id": 12525, "video": false, "vote_count": 118, "vote_average": 4.6, "title": "Critters 4", "release_date": "1992-08-20", "original_language": "en", "original_title": "Critters 4", "genre_ids": [35, 27, 878, 53], "backdrop_path": "/7GHXvhvildJxOnoK6EkufJa7LSl.jpg", "adult": false, "overview": "Just before bounty hunter Charile triggers his gun to destroy the last two Critter-eggs, he gets a message that it would be illegal to extinguish the race from the galaxy. He's sent a transporter where he puts the eggs - unfortunately the transporter takes him with it and then gets lost in space.", "poster_path": "/qUR8DJEOASIZtIzC8Civ6lSagPi.jpg", "popularity": 11.163}, {"id": 10200, "video": false, "vote_count": 1947, "vote_average": 5.4, "title": "The Day the Earth Stood Still", "release_date": "2008-12-10", "original_language": "en", "original_title": "The Day the Earth Stood Still", "genre_ids": [18, 878, 53], "backdrop_path": "/bfRgom0djZB8z7qbtjM542j3xrT.jpg", "adult": false, "overview": "A representative of an alien race that went through drastic evolution to survive its own climate change, Klaatu comes to Earth to assess whether humanity can prevent the environmental damage they have inflicted on their own planet. When barred from speaking to the United Nations, he decides humankind shall be exterminated so the planet can survive.", "poster_path": "/7fNFk4EAGbuRFqrSJprgXEIX5Za.jpg", "popularity": 22.588}], "total_pages": 10, "total_results": 187}, "recommendations": {"page": 1, "results": [{"adult": false, "backdrop_path": "/jaOdpkkPk4gmFj7k4sGGkFiaIkh.jpg", "genre_ids": [27, 878, 10770], "id": 74837, "original_language": "en", "original_title": "In the Year 2889", "overview": "The last seven survivors of a nuclear war barricade themselves against an attack by a mutant cannibal.", "poster_path": "/wjaMGrW0n4qLjafBrZlNNbgVSsU.jpg", "release_date": "1967-01-01", "title": "In the Year 2889", "video": false, "vote_average": 2.2, "vote_count": 11, "popularity": 2.505}, {"adult": false, "backdrop_path": null, "genre_ids": [27, 878], "id": 83409, "original_language": "en", "original_title": "Feeders", "overview": "Two friends on a road trip pass through a town where aliens are landing and feeding upon the some of the civilians.", "poster_path": "/r2d0ka2w4DlBkWn3mewHntAHHAW.jpg", "release_date": "1996-05-27", "title": "Feeders", "video": false, "vote_average": 3.7, "vote_count": 10, "popularity": 2.576}, {"adult": false, "backdrop_path": "/4QQ8XyOyQdNjSCworDEuayj8j9B.jpg", "genre_ids": [12, 878], "id": 97784, "original_language": "en", "original_title": "Teenage Caveman", "overview": "Roger Corman's post-holocaust quickie about an adolescent tribesman who dares to explore the feared \"forbidden zone.\"", "poster_path": "/v20vcCMt5z777ySdRywL9xHDBIi.jpg", "release_date": "1958-07-01", "title": "Teenage Caveman", "video": false, "vote_average": 4.1, "vote_count": 11, "popularity": 3.836}, {"adult": false, "backdrop_path": "/duzf2jexXHQWKu6xa46FpMFroFZ.jpg", "genre_ids": [27, 878], "id": 43105, "original_language": "en", "original_title": "The Alligator People", "overview": "A newly wed couple are sitting on a train when the husband receives an urgent telegram. When he gets off at a station to make a phone call the train pulls away without him. After years of searching his wife finally tracks him down on his family's southern estate, where she discovers that a failed medical treatment has had a horrible effect upon him.", "poster_path": "/kD0YWYL5kej1d7Bf5jy1X9Vw0cS.jpg", "release_date": "1959-07-01", "title": "The Alligator People", "video": false, "vote_average": 5.7, "vote_count": 19, "popularity": 3.487}, {"adult": false, "backdrop_path": "/u2Ds1dgokW9khy6JalqwAt2ZlLu.jpg", "genre_ids": [878, 27], "id": 42992, "original_language": "es", "original_title": "El bar\u00f3n del terror", "overview": "In 1661 Mexico, the Baron Vitelius of Astara is sentenced to be burned alive by the Holy Inquisition of Mexico for witchcraft, necromancy, and other crimes. As he dies, the Baron swears vengeance against the descendants of the Inquisitors. 300 years later, a comet that was passing overhead on the night of the Baron's execution returns to earth, bringing with it the Baron in the form of a horrible, brain-eating monster that terrorizes the Inquisitor's descendants", "poster_path": "/sIL7saGmZuI2xfhUYQx1sSqvhxv.jpg", "release_date": "1962-11-09", "title": "The Brainiac", "video": false, "vote_average": 5.1, "vote_count": 15, "popularity": 2.225}, {"adult": false, "backdrop_path": "/t6WhJoiKMXNBpgQ597E0w4cHWwr.jpg", "genre_ids": [27], "id": 59802, "original_language": "eo", "original_title": "Incubus", "overview": "On a strange island inhabited by demons and spirits, a man battles the forces of evil.", "poster_path": "/pjVjqwqgXQyvv75tIc0i05639CS.jpg", "release_date": "1966-10-26", "title": "Incubus", "video": false, "vote_average": 5.9, "vote_count": 15, "popularity": 3.06}, {"id": 29243, "video": false, "vote_count": 23, "vote_average": 6.4, "title": "The Mummy's Ghost", "release_date": "1944-07-01", "original_language": "en", "original_title": "The Mummy's Ghost", "genre_ids": [27], "backdrop_path": "/ziseMamBjuhJNCbeDzdipWXuvKo.jpg", "adult": false, "overview": "An Egyptian high priest travels to America to reclaim the bodies of ancient Egyptian princess Ananka and her living guardian mummy Kharis. Learning that Ananka's spirit has been reincarnated into another body, he kidnaps a young woman of Egyptian descent with a mysterious resemblance to the princess. However, the high priest's greedy desires cause him to lose control of the mummy...", "poster_path": "/csSLT2aUSZk2o6HStIKdRhGckGP.jpg", "popularity": 5.168}, {"id": 52196, "video": false, "vote_count": 23, "vote_average": 6.6, "title": "The Monolith Monsters", "release_date": "1957-12-01", "original_language": "en", "original_title": "The Monolith Monsters", "genre_ids": [27, 878], "backdrop_path": "/nzH7pkjFOKFyyAxRBMPMZNT93OF.jpg", "adult": false, "overview": "Rocks from a meteor which grow when in contact with water threaten a sleepy Southwestern desert community.", "poster_path": "/7ndvSReYdM02MB1xSZjVeo8iUC1.jpg", "popularity": 3.115}, {"id": 66881, "video": false, "vote_count": 23, "vote_average": 3.3, "title": "Nightbeast", "release_date": "1982-11-01", "original_language": "en", "original_title": "Nightbeast", "genre_ids": [27, 878], "backdrop_path": "/uAjSKdHNu8BHCCZU4rdEYEkWabd.jpg", "adult": false, "overview": "A creature from outer space crash lands in a small town and starts killing people.", "poster_path": "/mMb82Qxhpf0BYx2AMH2QlbKA8iN.jpg", "popularity": 3.546}, {"adult": false, "backdrop_path": "/smkDKhLTjNzpI9xdutjr8Ftgot3.jpg", "genre_ids": [27], "id": 31498, "original_language": "en", "original_title": "The Mummy's Hand", "overview": "A couple of young, out-of-work archaeologists in Egypt discover evidence of the burial place of the ancient Egyptian princess Ananka. After receiving funding from an eccentric magician and his beautiful daughter, they set out into the desert only to be terrorized by a sinister high priest and the living mummy Kharis who are the guardians of Ananka\u2019s tomb.", "poster_path": "/xk3tHwDCV1wtu2sgsPIUQtMuV3K.jpg", "release_date": "1940-09-20", "title": "The Mummy's Hand", "video": false, "vote_average": 6.4, "vote_count": 31, "popularity": 4.564}], "total_pages": 1, "total_results": 10}, "credits": {"cast": [{"cast_id": 1, "character": "Dop - Martian Fellow #1 / Mr. Fast - Seattle Sun Reporter", "credit_id": "52fe449dc3a368484e02cf23", "gender": 2, "id": 83130, "name": "Tommy Kirk", "order": 0, "profile_path": "/30E79Tjibru53EWmXNmAddZSKlx.jpg"}, {"cast_id": 2, "character": "Dr. Bolen", "credit_id": "52fe449dc3a368484e02cf27", "gender": 1, "id": 16102, "name": "Yvonne Craig", "order": 1, "profile_path": "/ydzFD9tJ2ovBsqHxWteeMt78dwg.jpg"}, {"cast_id": 3, "character": "Martian Doctor / Fellow #2", "credit_id": "52fe449dc3a368484e02cf2b", "gender": 0, "id": 91949, "name": "Warren Hammack", "order": 2, "profile_path": "/ftubSDTbIJfJlA2vGWOTw6Z0x30.jpg"}, {"cast_id": 4, "character": "Martian Fellow #3", "credit_id": "52fe449dc3a368484e02cf2f", "gender": 0, "id": 91950, "name": "Tony Huston", "order": 3, "profile_path": "/5xzJnvCVoxroqCgEGAzxVRjaTTX.jpg"}, {"cast_id": 5, "character": "Martian Fellow #4", "credit_id": "52fe449dc3a368484e02cf33", "gender": 0, "id": 91951, "name": "Larry Tanner", "order": 4, "profile_path": null}, {"cast_id": 6, "character": "Martian Fellow #5", "credit_id": "52fe449dc3a368484e02cf37", "gender": 0, "id": 91952, "name": "Cal Duggan", "order": 5, "profile_path": null}, {"cast_id": 7, "character": "Artist Abducted by Martians", "credit_id": "52fe449dc3a368484e02cf3b", "gender": 1, "id": 91953, "name": "Pat Delaney", "order": 6, "profile_path": "/fnk3jS9uOa8nIhCQ2xbUDQvpfLp.jpg"}, {"cast_id": 8, "character": "Brenda Knowlan, Abductee", "credit_id": "52fe449dc3a368484e02cf3f", "gender": 0, "id": 91954, "name": "Sherry Roberts", "order": 7, "profile_path": null}, {"cast_id": 9, "character": "Stewardess Abducted by Martians", "credit_id": "52fe449dc3a368484e02cf43", "gender": 0, "id": 91955, "name": "Donna Lindberg", "order": 8, "profile_path": null}, {"cast_id": 10, "character": "Stripper Abducted by Martians", "credit_id": "52fe449dc3a368484e02cf47", "gender": 0, "id": 91957, "name": "Bubbles Cash", "order": 9, "profile_path": null}, {"cast_id": 11, "character": "Col. Bob Page, U.S.D.S.", "credit_id": "52fe449dc3a368484e02cf4b", "gender": 0, "id": 91959, "name": "Byron Lord", "order": 10, "profile_path": null}, {"cast_id": 12, "character": "Stimmons", "credit_id": "52fe449dc3a368484e02cf4f", "gender": 0, "id": 91960, "name": "Roger Ready", "order": 11, "profile_path": null}, {"cast_id": 13, "character": "Man at Military Conference", "credit_id": "52fe449dc3a368484e02cf53", "gender": 0, "id": 91961, "name": "Barnett Shaw", "order": 12, "profile_path": null}, {"cast_id": 14, "character": "Secretary of Defense", "credit_id": "52fe449dc3a368484e02cf57", "gender": 2, "id": 91963, "name": "Neil Fletcher", "order": 13, "profile_path": "/sTEfuAbqNxtACo60UWyJCn0a4YK.jpg"}, {"cast_id": 15, "character": "Network News Man", "credit_id": "52fe449dc3a368484e02cf5b", "gender": 0, "id": 91965, "name": "Chet Davis", "order": 14, "profile_path": null}, {"cast_id": 16, "character": "Extra", "credit_id": "52fe449dc3a368484e02cf5f", "gender": 0, "id": 91967, "name": "Ron Scott", "order": 15, "profile_path": null}, {"cast_id": 17, "character": "Planetarium Director", "credit_id": "52fe449dc3a368484e02cf63", "gender": 0, "id": 91969, "name": "George Edgley", "order": 16, "profile_path": null}, {"cast_id": 18, "character": "Extra", "credit_id": "52fe449dc3a368484e02cf67", "gender": 0, "id": 91976, "name": "Dick Simpson", "order": 17, "profile_path": null}, {"cast_id": 19, "character": "Extra", "credit_id": "52fe449dc3a368484e02cf6b", "gender": 0, "id": 91983, "name": "Don Campbell", "order": 18, "profile_path": null}, {"cast_id": 20, "character": "James, Gas Station Attendant", "credit_id": "52fe449dc3a368484e02cf6f", "gender": 0, "id": 91984, "name": "Bob Hazlett", "order": 19, "profile_path": null}, {"cast_id": 21, "character": "U.S.D.S. Tech", "credit_id": "52fe449dc3a368484e02cf73", "gender": 0, "id": 91988, "name": "Ann Palmer", "order": 20, "profile_path": null}, {"cast_id": 22, "character": "Extra", "credit_id": "52fe449dc3a368484e02cf77", "gender": 0, "id": 91990, "name": "Gordon Bulow", "order": 21, "profile_path": null}, {"cast_id": 23, "character": "Drunk on Pier", "credit_id": "52fe449dc3a368484e02cf7b", "gender": 2, "id": 39774, "name": "Bill Thurman", "order": 22, "profile_path": "/fCfFzegrlinYJEBBM980HtTLnvg.jpg"}, {"cast_id": 24, "character": "Extra", "credit_id": "52fe449dc3a368484e02cf7f", "gender": 2, "id": 58513, "name": "Patrick Cranshaw", "order": 23, "profile_path": "/onUKpczej5fMG84mLs3aLgQAnDJ.jpg"}, {"cast_id": 25, "character": "Extra", "credit_id": "52fe449dc3a368484e02cf83", "gender": 0, "id": 91991, "name": "Claude Earls", "order": 24, "profile_path": null}, {"cast_id": 26, "character": "Extra", "credit_id": "52fe449dc3a368484e02cf87", "gender": 0, "id": 91993, "name": "Sally Casey", "order": 25, "profile_path": null}, {"cast_id": 27, "character": "Extra", "credit_id": "52fe449dc3a368484e02cf8b", "gender": 0, "id": 91994, "name": "Bob Lorenz", "order": 26, "profile_path": null}, {"cast_id": 28, "character": "Extra", "credit_id": "52fe449dc3a368484e02cf8f", "gender": 0, "id": 91995, "name": "Sylvia Rundell", "order": 27, "profile_path": null}, {"cast_id": 29, "character": "Planetarium Manager", "credit_id": "52fe449dc3a368484e02cf93", "gender": 0, "id": 91996, "name": "David England", "order": 28, "profile_path": null}, {"cast_id": 30, "character": "Extra", "credit_id": "52fe449dc3a368484e02cf97", "gender": 0, "id": 91997, "name": "Terry Davis", "order": 29, "profile_path": null}, {"cast_id": 31, "character": "Narrator of Planetarium Film", "credit_id": "52fe449dc3a368484e02cf9b", "gender": 2, "id": 39765, "name": "Larry Buchanan", "order": 30, "profile_path": "/uUItkZJ8GQ3t5j9jhjCidQj3BL.jpg"}], "crew": [{"credit_id": "52fe449dc3a368484e02cfa1", "department": "Directing", "gender": 2, "id": 39765, "job": "Director", "name": "Larry Buchanan", "profile_path": "/uUItkZJ8GQ3t5j9jhjCidQj3BL.jpg"}, {"credit_id": "52fe449dc3a368484e02cfa7", "department": "Writing", "gender": 2, "id": 39765, "job": "Writer", "name": "Larry Buchanan", "profile_path": "/uUItkZJ8GQ3t5j9jhjCidQj3BL.jpg"}, {"credit_id": "52fe449dc3a368484e02cfad", "department": "Production", "gender": 2, "id": 39765, "job": "Producer", "name": "Larry Buchanan", "profile_path": "/uUItkZJ8GQ3t5j9jhjCidQj3BL.jpg"}, {"credit_id": "52fe449dc3a368484e02cfb3", "department": "Production", "gender": 0, "id": 91998, "job": "Producer", "name": "Edwin Tobolowsky", "profile_path": null}, {"credit_id": "52fe449dc3a368484e02cfb9", "department": "Sound", "gender": 2, "id": 91999, "job": "Music", "name": "Ronald Stein", "profile_path": null}, {"credit_id": "52fe449dc3a368484e02cfc5", "department": "Editing", "gender": 2, "id": 39765, "job": "Editor", "name": "Larry Buchanan", "profile_path": "/uUItkZJ8GQ3t5j9jhjCidQj3BL.jpg"}, {"credit_id": "52fe449dc3a368484e02cfcb", "department": "Costume & Make-Up", "gender": 1, "id": 39775, "job": "Makeup Artist", "name": "Annabelle Weenick", "profile_path": "/qSABaVNVZUwv51UTM5m3oVV2lew.jpg"}, {"credit_id": "52fe449dc3a368484e02cfd1", "department": "Crew", "gender": 0, "id": 92000, "job": "Sound Recordist", "name": "Rex Cromwell", "profile_path": null}, {"credit_id": "52fe449dc3a368484e02cfd7", "department": "Sound", "gender": 0, "id": 92001, "job": "Sound Editor", "name": "Don Ross", "profile_path": null}, {"credit_id": "52fe449dc3a368484e02cfdd", "department": "Crew", "gender": 2, "id": 90831, "job": "Special Effects", "name": "Jack Bennett", "profile_path": null}, {"credit_id": "52fe449dc3a368484e02cfe9", "department": "Lighting", "gender": 2, "id": 90834, "job": "Gaffer", "name": "Robert Dracup", "profile_path": null}, {"credit_id": "52fe449dc3a368484e02cfef", "department": "Camera", "gender": 0, "id": 92003, "job": "Grip", "name": "Jim Finley", "profile_path": null}, {"credit_id": "52fe449dc3a368484e02cff5", "department": "Production", "gender": 1, "id": 92004, "job": "Production Manager", "name": "Joreta C. Cherry", "profile_path": null}, {"credit_id": "536f584c0e0a2647d4011f34", "department": "Camera", "gender": 0, "id": 50240, "job": "Director of Photography", "name": "Robert C. Jessup", "profile_path": null}]}}