{"adult": false, "backdrop_path": "/aseZuwyrxxfu2jaee62ASVNfSO4.jpg", "belongs_to_collection": null, "budget": 4600000, "genres": [{"id": 18, "name": "Drama"}], "homepage": "https://www.facebook.com/Miraculumlefilm", "id": 248231, "imdb_id": "tt2717528", "original_language": "fr", "original_title": "Miraculum", "overview": "Sometimes, we're just waiting for a miracle. A nurse who is a Jehovah's Witness, grows fond of the miracle survivor of a plane crash. Two sexagenarians, a bartender and a parking lot attendant want to explore their forbidden passions. A conservative, well-off couple drown their disappointments in booze and gambling. And a man does his utmost to make amends for an irredeemable action, bringing us to a plane bound for Cuba. An ensemble film where every character affects the lives of others.", "popularity": 3.428, "poster_path": "/4Ldn0jpXa7MSBIWgZTph1p1M8qE.jpg", "production_companies": [{"id": 7177, "logo_path": null, "name": "Item 7", "origin_country": "CA"}], "production_countries": [{"iso_3166_1": "CA", "name": "Canada"}], "release_date": "2014-02-28", "revenue": 0, "runtime": 104, "spoken_languages": [{"iso_639_1": "fr", "name": "Fran\u00e7ais"}], "status": "Released", "tagline": "", "title": "Miraculum", "video": false, "vote_average": 5.1, "vote_count": 14, "keywords": {"keywords": [{"id": 6150, "name": "faith"}, {"id": 11001, "name": "religion"}, {"id": 40850, "name": "destiny"}]}, "similar": {"page": 1, "results": [{"adult": false, "backdrop_path": "/eWelH0cHonTsdP6ImrgilpbqdTK.jpg", "genre_ids": [18, 36], "id": 335778, "original_language": "en", "original_title": "Risen", "overview": "Clavius, a powerful Roman military tribune, and his aide, Lucius, are tasked with solving the mystery of what happened to Jesus in the weeks following the crucifixion, in order to disprove the rumors of a risen Messiah and prevent an uprising in Jerusalem.", "poster_path": "/uGZ1easTLqkNfDNHRLm5kvkfRw7.jpg", "release_date": "2016-02-18", "title": "Risen", "video": false, "vote_average": 5.9, "vote_count": 452, "popularity": 16.622}, {"id": 615, "video": false, "vote_count": 1934, "vote_average": 7.1, "title": "The Passion of the Christ", "release_date": "2004-02-25", "original_language": "en", "original_title": "The Passion of the Christ", "genre_ids": [18], "backdrop_path": "/clVnEHURb8Ot3twaLmf7N1lNym1.jpg", "adult": false, "overview": "A graphic portrayal of the last twelve hours of Jesus of Nazareth's life.", "poster_path": "/oFuLM1EaKhi1WNWiTjQ1HKIZ1Eg.jpg", "popularity": 21.645}, {"adult": false, "backdrop_path": "/g8G91vbvyUqnyFSlVruwiaZsUrn.jpg", "genre_ids": [18], "id": 458737, "original_language": "en", "original_title": "First Reformed", "overview": "A pastor of a small church in upstate New York starts to spiral out of control after a soul-shaking encounter with an unstable environmental activist and his pregnant wife.", "poster_path": "/p2UylV0hPefEuWPFMo1r56vu2nb.jpg", "release_date": "2018-05-18", "title": "First Reformed", "video": false, "vote_average": 7.0, "vote_count": 577, "popularity": 11.112}, {"id": 16366, "video": false, "vote_count": 496, "vote_average": 6.4, "title": "Joseph: King of Dreams", "release_date": "2000-11-07", "original_language": "en", "original_title": "Joseph: King of Dreams", "genre_ids": [16, 10402, 10751], "backdrop_path": "/p5WF1vmFwTrdNlx6Z7mt5ksnG7W.jpg", "adult": false, "overview": "In this animated retelling of the story from the Bible's Book of Genesis, Joseph's gift of dream interpretation and his brilliantly colored coat inspires jealousy in his brothers.", "poster_path": "/dsL5nngGY8qTmXxtAamMUYVQDY3.jpg", "popularity": 18.451}, {"id": 9946, "video": false, "vote_count": 932, "vote_average": 5.7, "title": "End of Days", "release_date": "1999-11-24", "original_language": "en", "original_title": "End of Days", "genre_ids": [28, 14, 27, 9648], "backdrop_path": "/q5KcZBMc4Vs5SQelnSdY3ICm56M.jpg", "adult": false, "overview": "On 28 December 1999, the citizens of New York City are getting ready for the turn of the millennium. However, the Devil decides to crash the party by coming to the city, inhabiting a man's body, and searching for his chosen bride\u2014a 20-year-old woman named Christine York. The world will end, and the only hope lies within an atheist named Jericho Cane.", "poster_path": "/bEIjH6GroeWaBkn6o7MVpMNbuyw.jpg", "popularity": 15.853}, {"id": 324786, "video": false, "vote_count": 7334, "vote_average": 8.1, "title": "Hacksaw Ridge", "release_date": "2016-10-07", "original_language": "en", "original_title": "Hacksaw Ridge", "genre_ids": [18, 36, 10752], "backdrop_path": "/zBK4QZONMQXhcgaJv1YYTdCW7q9.jpg", "adult": false, "overview": "WWII American Army Medic Desmond T. Doss, who served during the Battle of Okinawa, refuses to kill people and becomes the first Conscientious Objector in American history to receive the Congressional Medal of Honor.", "poster_path": "/bndiUFfJxNd2fYx8XO610L9a07m.jpg", "popularity": 26.345}, {"adult": false, "backdrop_path": "/dAK3Sql45m1xyMzCm5LDa4Bmucx.jpg", "genre_ids": [878, 18], "id": 13363, "original_language": "en", "original_title": "The Man from Earth", "overview": "An impromptu goodbye party for Professor John Oldman becomes a mysterious interrogation after the retiring scholar reveals to his colleagues he never ages and has walked the earth for 14,000 years.", "poster_path": "/zYP2lBJ5GRV1HaIi4USqRl3phe.jpg", "release_date": "2007-06-10", "title": "The Man from Earth", "video": false, "vote_average": 7.7, "vote_count": 1237, "popularity": 15.764}, {"adult": false, "backdrop_path": "/vxsR4pjm8VNFrywz9TQLj3loxNB.jpg", "genre_ids": [12, 18, 36], "id": 26428, "original_language": "es", "original_title": "Agora", "overview": "A historical drama set in Roman Egypt, concerning philosopher Hypatia of Alexandria and her relationship with her slave Davus, who is torn between his love for her and the possibility of gaining his freedom by joining the rising tide of Christianity.", "poster_path": "/hZcl4TuZYTNWztIP8Zpvr6YLxiY.jpg", "release_date": "2009-05-17", "title": "Agora", "video": false, "vote_average": 6.9, "vote_count": 825, "popularity": 14.461}, {"id": 2331, "video": false, "vote_count": 16, "vote_average": 5.9, "title": "Jesus", "release_date": "1999-12-25", "original_language": "en", "original_title": "Jesus", "genre_ids": [18, 36], "backdrop_path": "/4wQLjg2gehczRA081fjrlKny4uV.jpg", "adult": false, "overview": "The film is notable for presenting a more human Jesus, compared to more solemn portrayals in earlier films; here Jesus laughs and cries like anyone else. Among other things, he weeps at Joseph\u2019s funeral, throws stones in Lake Galilee when meeting Simon Peter and James son of Zebedee for the first time, dances at the wedding at Cana, and starts a water-splashing fight with his disciples as well. Satan is portrayed as a man in modern dress (and as a woman in red). During his temptation of Jesus, he shows him the Earth from the vantage point of space. Satan also shows Jesus images of wars and destruction carried out in his name. The film adds an apocryphal Roman historian named \u201cLivio\u201d who watches and comments as events unfold; he is presumably named after Livy.", "poster_path": "/jkyll5jAzT6UT8gFp40e0iWzdYA.jpg", "popularity": 5.909}, {"adult": false, "backdrop_path": "/sO6AnUEirDnaxjy8dxaqYEKDxGi.jpg", "genre_ids": [18, 36], "id": 6844, "original_language": "en", "original_title": "The Ten Commandments", "overview": "Escaping death, a Hebrew infant is raised in a royal household to become a prince. Upon discovery of his true heritage, Moses embarks on a personal quest to reclaim his destiny as the leader and liberator of the Hebrew people.", "poster_path": "/loLrO3SfhHkN3o3fTHdx1vf9ZYf.jpg", "release_date": "1956-10-05", "title": "The Ten Commandments", "video": false, "vote_average": 7.6, "vote_count": 659, "popularity": 17.954}, {"id": 318850, "video": false, "vote_count": 57, "vote_average": 6.1, "title": "The Young Messiah", "release_date": "2016-03-10", "original_language": "en", "original_title": "The Young Messiah", "genre_ids": [18, 36], "backdrop_path": "/6gjlF4ja56UvTxLQc4ZqPAXd95p.jpg", "adult": false, "overview": "Tells the story of Jesus Christ at age seven as he and his family depart Egypt to return home to Nazareth. Told from his childhood perspective, it follows young Jesus as he grows into his religious identity.", "poster_path": "/lPlcxAdLzXJCMibZ1iUqXHRZFJa.jpg", "popularity": 8.589}, {"id": 310, "video": false, "vote_count": 6935, "vote_average": 6.6, "title": "Bruce Almighty", "release_date": "2003-05-23", "original_language": "en", "original_title": "Bruce Almighty", "genre_ids": [35, 14], "backdrop_path": "/bhEudqWbWsiEBdnl0kCIwFp5Hay.jpg", "adult": false, "overview": "Bruce Nolan toils as a 'human interest' television reporter in Buffalo, N.Y., but despite his high ratings and the love of his beautiful girlfriend, Bruce remains unfulfilled. At the end of the worst day in his life, he angrily ridicules God\u2014and the Almighty responds, endowing Bruce with all of His divine powers.", "poster_path": "/lgYKHifMMLT8OxYObMKa8b4STsr.jpg", "popularity": 33.956}, {"id": 5876, "video": false, "vote_count": 2784, "vote_average": 6.8, "title": "The Mist", "release_date": "2007-11-21", "original_language": "en", "original_title": "The Mist", "genre_ids": [27, 878, 53], "backdrop_path": "/slQnhKRIPkA2Cm5x6VvrOPXt4Qu.jpg", "adult": false, "overview": "After a violent storm, a dense cloud of mist envelops a small Maine town, trapping artist David Drayton and his five-year-old son in a local grocery store with other people. They soon discover that the mist conceals deadly horrors that threaten their lives, and worse, their sanity.", "poster_path": "/uYVheUBf8ITaocUP4Og9GXxOMIH.jpg", "popularity": 15.94}, {"adult": false, "backdrop_path": "/euAMcJLG26pW1kv4kPEtVEwwroQ.jpg", "genre_ids": [36], "id": 476968, "original_language": "en", "original_title": "Paul, Apostle of Christ", "overview": "Risking his life, Luke ventures to Rome to visit Paul -- the apostle who's bound in chains and held captive in Nero's darkest and bleakest prison cell. Haunted by the shadows of his past misdeeds, Paul wonders if he's been forgotten as he awaits his grisly execution. Before Paul's death, Luke resolves to write another book that details the birth of what will come to be known as the church.", "poster_path": "/2NUXG94dGMKYgJL1BkJGKynMb3l.jpg", "release_date": "2018-03-23", "title": "Paul, Apostle of Christ", "video": false, "vote_average": 7.0, "vote_count": 106, "popularity": 18.432}, {"id": 2525, "video": false, "vote_count": 55, "vote_average": 6.4, "title": "The Bible: In the Beginning...", "release_date": "1966-09-28", "original_language": "en", "original_title": "The Bible: In the Beginning...", "genre_ids": [18], "backdrop_path": "/kNYhdeLZPeeVLmwtw1iqSCO1zxe.jpg", "adult": false, "overview": "Extravagant production of the first part of the book of Genesis. Covers Adam and Eve, Noah and the Flood and Abraham and Isaac.", "poster_path": "/5Lp3sMtwMxcc2Azm4DDVyxWpHvr.jpg", "popularity": 13.278}, {"id": 2447, "video": false, "vote_count": 81, "vote_average": 6.4, "title": "The Nativity Story", "release_date": "2006-12-01", "original_language": "en", "original_title": "The Nativity Story", "genre_ids": [18, 36], "backdrop_path": "/AmAPG05GcUXD9zWXctQAiTfUNKG.jpg", "adult": false, "overview": "Mary and Joseph make the hard journey to Bethlehem for a blessed event in this retelling of the Nativity story. This meticulously researched and visually lush adaptation of the biblical tale follows the pair on their arduous path to their arrival in a small village, where they find shelter in a quiet manger and Jesus is born.", "poster_path": "/ahAuUNYkXf8MjSeXZrs7D5GGdU0.jpg", "popularity": 10.052}, {"id": 235260, "video": false, "vote_count": 137, "vote_average": 6.4, "title": "Son of God", "release_date": "2014-02-28", "original_language": "en", "original_title": "Son of God", "genre_ids": [18], "backdrop_path": "/fabLQCBndX9Zfd3mX0RS1OjyqEX.jpg", "adult": false, "overview": "The life story of Jesus is told from his humble birth through his teachings, crucifixion and ultimate resurrection.", "poster_path": "/xyFaNh1IGdHEJbuLdba6a7GxLzP.jpg", "popularity": 16.198}, {"id": 87827, "video": false, "vote_count": 9356, "vote_average": 7.3, "title": "Life of Pi", "release_date": "2012-11-20", "original_language": "en", "original_title": "Life of Pi", "genre_ids": [28, 12, 18], "backdrop_path": "/tk159LPfy69zSHw4dabehfAaJXi.jpg", "adult": false, "overview": "The story of an Indian boy named Pi, a zookeeper's son who finds himself in the company of a hyena, zebra, orangutan, and a Bengal tiger after a shipwreck sets them adrift in the Pacific Ocean.", "poster_path": "/sLYdcz7easaS7CmJGwQcVVYZqiF.jpg", "popularity": 23.211}, {"id": 10545, "video": false, "vote_count": 3018, "vote_average": 7.0, "title": "The Hunchback of Notre Dame", "release_date": "1996-06-21", "original_language": "en", "original_title": "The Hunchback of Notre Dame", "genre_ids": [16, 18, 10751], "backdrop_path": "/oslaee3VX9kJAjVezbjZKlEJDzn.jpg", "adult": false, "overview": "When Quasimodo defies the evil Frollo and ventures out to the Festival of Fools, the cruel crowd jeers him. Rescued by fellow outcast the gypsy Esmeralda, Quasi soon finds himself battling to save the people and the city he loves.", "poster_path": "/r7V92gY3AMO6li17MmGTixAnFcv.jpg", "popularity": 28.041}, {"id": 686, "video": false, "vote_count": 2422, "vote_average": 7.3, "title": "Contact", "release_date": "1997-07-11", "original_language": "en", "original_title": "Contact", "genre_ids": [18, 9648, 878], "backdrop_path": "/dBK75oCKuHVuJ9rSUnusIFbhocH.jpg", "adult": false, "overview": "Contact is a science fiction film about an encounter with alien intelligence. Based on the novel by Carl Sagan the film starred Jodie Foster as the one chosen scientist who must make some difficult decisions between her beliefs, the truth, and reality.", "poster_path": "/bCpMIywuNZeWt3i5UMLEIc0VSwM.jpg", "popularity": 21.581}], "total_pages": 71, "total_results": 1402}, "recommendations": {"page": 1, "results": [{"adult": false, "backdrop_path": "/lMZ2CAzv4ywFsP9PyZEKWUi4PxF.jpg", "genre_ids": [18], "id": 212750, "original_language": "fr", "original_title": "Une jeune fille", "overview": "Two solitary people meet each other and form a bond in the back country of the Gaspe peninsula.", "poster_path": "/xTQOIEdredVeXtPSaLCGA8ekVKr.jpg", "release_date": "2013-09-07", "title": "A Journey", "video": false, "vote_average": 5.8, "vote_count": 4, "popularity": 1.886}, {"id": 303214, "video": false, "vote_count": 5, "vote_average": 6.2, "title": "Henri Henri", "release_date": "2014-11-07", "original_language": "fr", "original_title": "Henri Henri", "genre_ids": [35, 18], "backdrop_path": "/upcMWr1PFZDHkvKibXX3iWbeXA7.jpg", "adult": false, "overview": "Henri was raised by religious in a convent and lived with them until the women, now elders, moved, leaving him alone. Henri fixes lamps. Since his young age, he's been replacing burned light bulbs and illuminates people's lives. After following signs, he finds himself working in a lamp company. Through his new work, he meets an old man trying to never forget his glory days and a blind woman, teller in an adult cinema, with whom he falls in love.", "poster_path": "/y1y8X42bQJE36ggNclgTSDzhRRq.jpg", "popularity": 1.695}, {"adult": false, "backdrop_path": "/6Z3BKDV3s0QOf6iWHGfyYdeLbnk.jpg", "genre_ids": [80, 18, 53], "id": 160160, "original_language": "fr", "original_title": "Vic+Flo ont vu un ours", "overview": "This is the portrait of two recently released prisoners (Pierrette Robitaille and Romane Bohringer) who learn to live in a sugar shack deep in the forest.", "poster_path": "/bBU3PPEAOsPa1Zk9qOJOZ5nILLP.jpg", "release_date": "2013-09-04", "title": "Vic+Flo Saw a Bear", "video": false, "vote_average": 6.4, "vote_count": 9, "popularity": 1.505}, {"id": 215031, "video": false, "vote_count": 19, "vote_average": 6.4, "title": "Gabrielle", "release_date": "2013-09-20", "original_language": "fr", "original_title": "Gabrielle", "genre_ids": [18, 10749], "backdrop_path": "/mf0Db1BaUlgzllzFGbrL0hqCshI.jpg", "adult": false, "overview": "Gabrielle is a young woman with Williams syndrome who has a contagious joie de vivre and an exceptional musical gift. Since she met her boyfriend Martin, at the recreation centre where they are choir members, they have been inseparable. However, because they are \"different,\" their loved ones are fearful of their relationship. As the choir prepare for an important music festival, Gabrielle does everything she can to gain her independence. As determined as she is, Gabrielle must still confront other people's prejudices as well as her own limitations in the hope of experiencing a love far from the \"ordinary\".", "poster_path": "/dD34YOUocIqsSvkAOSgr0UDEEks.jpg", "popularity": 2.442}, {"id": 285841, "video": false, "vote_count": 91, "vote_average": 7.5, "title": "Elephant Song", "release_date": "2014-09-04", "original_language": "en", "original_title": "Elephant Song", "genre_ids": [18, 9648], "backdrop_path": "/h7y5tVwWG6nxlFphzSPCNl4YlDF.jpg", "adult": false, "overview": "A psychiatrist is drawn into a complex mind game when he questions a disturbed patient about the disappearance of a colleague.", "poster_path": "/dBNqjzpesMO7QfK1zRERoXUzJKw.jpg", "popularity": 8.4}], "total_pages": 1, "total_results": 5}, "credits": {"cast": [{"cast_id": 2, "character": "\u00c9tienne Simard", "credit_id": "52fe4f30c3a36847f82c3dcf", "gender": 2, "id": 143593, "name": "Xavier Dolan", "order": 0, "profile_path": "/ohlR0okNYx0lg4NFqQJoys8c4Zp.jpg"}, {"cast_id": 7, "character": "\u00c9velyne", "credit_id": "52fe4f30c3a36847f82c3de3", "gender": 1, "id": 86612, "name": "Anne Dorval", "order": 1, "profile_path": "/4iU4Cjkgq2ekIDK0IlOcDNcEdnC.jpg"}, {"cast_id": 20, "character": "Chauffeur de Taxi", "credit_id": "539e327f0e0a267068000429", "gender": 2, "id": 207881, "name": "Kwasi Songui", "order": 2, "profile_path": "/ijoVqv6LUD0dwY5C5NO3QDkjCLx.jpg"}, {"cast_id": 21, "character": "Flight Attendant", "credit_id": "539e329b0e0a26132f00647f", "gender": 0, "id": 1331005, "name": "Nina Lauren", "order": 3, "profile_path": "/hhD5Qb60ZHDsxXLCE4ZbpXvv8F8.jpg"}, {"cast_id": 22, "character": "Flight company representative", "credit_id": "539e32a40e0a26133900617b", "gender": 1, "id": 1331006, "name": "Lili Wexu", "order": 4, "profile_path": "/vrCmUFX3YSJPJlcA255gohlQiCz.jpg"}, {"cast_id": 3, "character": "Martin", "credit_id": "52fe4f30c3a36847f82c3dd3", "gender": 2, "id": 234199, "name": "Robin Aubert", "order": 5, "profile_path": "/nCoHeKMgZz531mJw90PfmUgyBdZ.jpg"}, {"cast_id": 19, "character": "Louise's Husband", "credit_id": "5301a6abc3a3680a2e2133f4", "gender": 2, "id": 68311, "name": "Gilbert Sicotte", "order": 6, "profile_path": "/8FYV8YaOEvzjuBwS5PTtmIbVF6U.jpg"}, {"cast_id": 10, "character": "Simon", "credit_id": "52fe4f30c3a36847f82c3def", "gender": 2, "id": 1207135, "name": "Gabriel Sabourin", "order": 7, "profile_path": "/cXR0ivbDM7O8SN6yz7MiT1coREn.jpg"}, {"cast_id": 4, "character": "Julie Beaudry", "credit_id": "52fe4f30c3a36847f82c3dd7", "gender": 1, "id": 1096277, "name": "Marilyn Castonguay", "order": 8, "profile_path": "/k7X3ojSMfmhgwGIpCSthuzNzVbA.jpg"}, {"cast_id": 8, "character": "Michel Beaudry", "credit_id": "52fe4f30c3a36847f82c3de7", "gender": 2, "id": 142776, "name": "Sylvain Marcel", "order": 9, "profile_path": "/pRBfxJlrkDFBKjcDCtTnA5ge3Gi.jpg"}, {"cast_id": 14, "character": "Maxime", "credit_id": "52fe4f30c3a36847f82c3dff", "gender": 2, "id": 557284, "name": "Jean-Nicolas Verreault", "order": 10, "profile_path": "/5J0SMGyNXPR7f4t1i9Mf861UA8L.jpg"}, {"cast_id": 23, "character": "Joueur", "credit_id": "539e331a0e0a267068000444", "gender": 2, "id": 1207372, "name": "Benoit Priest", "order": 11, "profile_path": "/kUcBhyMexLcGbHtMEJPLsNBSDwu.jpg"}, {"cast_id": 9, "character": "Raymond", "credit_id": "52fe4f30c3a36847f82c3deb", "gender": 2, "id": 545079, "name": "Julien Poulin", "order": 12, "profile_path": "/lobFgyOXYrVvyAsThRgzxSm6Guz.jpg"}, {"cast_id": 24, "character": "Tom", "credit_id": "539e332d0e0a26132f00649b", "gender": 2, "id": 1165248, "name": "Hubert Proulx", "order": 14, "profile_path": "/iWuY4HC7SitXXg1lrP67dXSCgbq.jpg"}, {"cast_id": 5, "character": "Madeleine Simard", "credit_id": "52fe4f30c3a36847f82c3ddb", "gender": 0, "id": 1291964, "name": "Violette Chauveau", "order": 15, "profile_path": "/61VxZmLRRe9i5Uf005bzFZjegNu.jpg"}, {"cast_id": 6, "character": "Kim", "credit_id": "52fe4f30c3a36847f82c3ddf", "gender": 1, "id": 1096278, "name": "Sarianne Cormier", "order": 16, "profile_path": "/xJx3QtQm7hqrcslYiZdGljXUpzm.jpg"}, {"cast_id": 12, "character": "Mary", "credit_id": "52fe4f30c3a36847f82c3df7", "gender": 1, "id": 1291966, "name": "Cynthia Trudel", "order": 17, "profile_path": "/x59ueGUZ4lW7TkYF4nWQEkV5vn4.jpg"}, {"cast_id": 25, "character": "Louise", "credit_id": "578c7f4d92514108b6002dae", "gender": 1, "id": 1011924, "name": "Louise Turcot", "order": 18, "profile_path": "/wk81Xilv9l6WGzi4KffE4CX1Le0.jpg"}], "crew": [{"credit_id": "52fe4f30c3a36847f82c3e0b", "department": "Production", "gender": 0, "id": 69374, "job": "Producer", "name": "Pierre Even", "profile_path": null}, {"credit_id": "52fe4f2fc3a36847f82c3dcb", "department": "Directing", "gender": 2, "id": 123186, "job": "Director", "name": "Daniel Grou", "profile_path": null}, {"credit_id": "52fe4f30c3a36847f82c3e11", "department": "Production", "gender": 0, "id": 1138934, "job": "Producer", "name": "Marie-Claude Poulin", "profile_path": null}, {"credit_id": "52fe4f30c3a36847f82c3e17", "department": "Production", "gender": 1, "id": 1192791, "job": "Executive Producer", "name": "Nicole Hilar\u00e9guy", "profile_path": null}, {"credit_id": "52fe4f30c3a36847f82c3e05", "department": "Writing", "gender": 2, "id": 1207135, "job": "Writer", "name": "Gabriel Sabourin", "profile_path": "/cXR0ivbDM7O8SN6yz7MiT1coREn.jpg"}]}}