{"adult": false, "backdrop_path": "/obNg6cuXCOGvYzUxGox6ZxJsL82.jpg", "belongs_to_collection": null, "budget": 0, "genres": [{"id": 9648, "name": "Mystery"}, {"id": 878, "name": "Science Fiction"}, {"id": 35, "name": "Comedy"}, {"id": 37, "name": "Western"}, {"id": 27, "name": "Horror"}], "homepage": null, "id": 248595, "imdb_id": "tt0190229", "original_language": "en", "original_title": "Alien Outlaw", "overview": "Only One Woman Had the Guts to Fight Back", "popularity": 1.491, "poster_path": "/BIKNfVSa7Sn8tTmRyAt1TblynY.jpg", "production_companies": [], "production_countries": [{"iso_3166_1": "US", "name": "United States of America"}], "release_date": "1985-01-01", "revenue": 0, "runtime": 90, "spoken_languages": [{"iso_639_1": "en", "name": "English"}], "status": "Released", "tagline": "Only One Woman Had the Guts to Fight Back", "title": "Alien Outlaw", "video": false, "vote_average": 3.8, "vote_count": 5, "keywords": {"keywords": [{"id": 9951, "name": "alien"}]}, "similar": {"page": 1, "results": [{"adult": false, "backdrop_path": "/hZzwIHyVAZ5goljYRuq66CWc5GY.jpg", "genre_ids": [878, 53, 27], "id": 20424, "original_language": "en", "original_title": "Invaders from Mars", "overview": "In the early hours of the night, young David Maclean sees a flying saucer land and disappear into the sand dunes just beyond his house. Slowly, all of the adults, including his once loving parents, begin to act strangely.", "poster_path": "/tafnBTKqr5EFxDt8TTD9tHUx6YB.jpg", "release_date": "1953-04-22", "title": "Invaders from Mars", "video": false, "vote_average": 6.1, "vote_count": 84, "popularity": 9.943}, {"id": 228161, "video": false, "vote_count": 2570, "vote_average": 6.7, "title": "Home", "release_date": "2015-03-18", "original_language": "en", "original_title": "Home", "genre_ids": [16, 35, 14, 878, 10751], "backdrop_path": "/6HoS2Hzcye4xGowSLTf0Pox43QW.jpg", "adult": false, "overview": "When Earth is taken over by the overly-confident Boov, an alien race in search of a new place to call home, all humans are promptly relocated, while all Boov get busy reorganizing the planet. But when one resourceful girl, Tip, manages to avoid capture, she finds herself the accidental accomplice of a banished Boov named Oh. The two fugitives realize there\u2019s a lot more at stake than intergalactic relations as they embark on the road trip of a lifetime.", "poster_path": "/b7czgMTk5txqLr2UczBb0Wez77E.jpg", "popularity": 18.709}, {"id": 602, "video": false, "vote_count": 6006, "vote_average": 6.8, "title": "Independence Day", "release_date": "1996-06-25", "original_language": "en", "original_title": "Independence Day", "genre_ids": [28, 12, 878], "backdrop_path": "/4E2xKGrU2qcqUE2S3Nl27hwZdqy.jpg", "adult": false, "overview": "On July 2, a giant alien mothership enters orbit around Earth and deploys several dozen saucer-shaped 'destroyer' spacecraft that quickly lay waste to major cities around the planet. On July 3, the United States conducts a coordinated counterattack that fails. On July 4, a plan is devised to gain access to the interior of the alien mothership in space, in order to plant a nuclear missile.", "poster_path": "/bqLlWZJdhrS0knfEJRkquW7L8z2.jpg", "popularity": 20.636}, {"id": 49849, "video": false, "vote_count": 3363, "vote_average": 5.5, "title": "Cowboys & Aliens", "release_date": "2011-07-29", "original_language": "en", "original_title": "Cowboys & Aliens", "genre_ids": [28, 878, 53, 37], "backdrop_path": "/gTDwoJBCu7scwYQoykIlLNpkCes.jpg", "adult": false, "overview": "A stranger stumbles into the desert town of Absolution with no memory of his past and a futuristic shackle around his wrist. With the help of mysterious beauty Ella and the iron-fisted Colonel Dolarhyde, he finds himself leading an unlikely posse of cowboys, outlaws, and Apache warriors against a common enemy from beyond this world in an epic showdown for survival.", "poster_path": "/9uZsGCP4rvOHVGCpMpYq5gNCuNI.jpg", "popularity": 21.609}, {"id": 8077, "video": false, "vote_count": 3112, "vote_average": 6.3, "title": "Alien\u00b3", "release_date": "1992-05-22", "original_language": "en", "original_title": "Alien\u00b3", "genre_ids": [28, 27, 878], "backdrop_path": "/nDPuIjpJyGDOnNEby5ZgkRBxymS.jpg", "adult": false, "overview": "After escaping with Newt and Hicks from the alien planet, Ripley crash lands on Fiorina 161, a prison planet and host to a correctional facility. Unfortunately, although Newt and Hicks do not survive the crash, a more unwelcome visitor does. The prison does not allow weapons of any kind, and with aid being a long time away, the prisoners must simply survive in any way they can.", "poster_path": "/p7mUd9GpmCYV5qhkKGmiEerFK3i.jpg", "popularity": 25.873}, {"id": 126889, "video": false, "vote_count": 5389, "vote_average": 5.9, "title": "Alien: Covenant", "release_date": "2017-05-09", "original_language": "en", "original_title": "Alien: Covenant", "genre_ids": [27, 878, 53], "backdrop_path": "/6jajFcaY2YsfGQstJ5HaqZNVseX.jpg", "adult": false, "overview": "Bound for a remote planet on the far side of the galaxy, the crew of the colony ship 'Covenant' discovers what is thought to be an uncharted paradise, but is actually a dark, dangerous world\u2014which has a sole inhabitant: the 'synthetic', David, survivor of the doomed Prometheus expedition.", "poster_path": "/zecMELPbU5YMQpC81Z8ImaaXuf9.jpg", "popularity": 36.026}, {"adult": false, "backdrop_path": "/dfNrZ82poQ8blHWJreIv6JZQ9JA.jpg", "genre_ids": [27, 878], "id": 348, "original_language": "en", "original_title": "Alien", "overview": "During its return to the earth, commercial spaceship Nostromo intercepts a distress signal from a distant planet. When a three-member team of the crew discovers a chamber containing thousands of eggs on the planet, a creature inside one of the eggs attacks an explorer. The entire crew is unaware of the impending nightmare set to descend upon them when the alien parasite planted inside its unfortunate host is birthed.", "poster_path": "/2h00HrZs89SL3tXB4nbkiM7BKHs.jpg", "release_date": "1979-05-25", "title": "Alien", "video": false, "vote_average": 8.1, "vote_count": 8383, "popularity": 41.028}, {"id": 831, "video": false, "vote_count": 84, "vote_average": 6.0, "title": "This Island Earth", "release_date": "1955-06-01", "original_language": "en", "original_title": "This Island Earth", "genre_ids": [12, 27, 878], "backdrop_path": "/r9IybbpoLnCaiRkBVBEC7XU4mTN.jpg", "adult": false, "overview": "Aliens have landed and are hiding on Earth, but need Earth\u2019s scientists to help them fight an inter-planetary war.", "poster_path": "/dNNZSjrWWwgllcYtQCeo0M5FPdp.jpg", "popularity": 11.136}, {"adult": false, "backdrop_path": "/eTxgy8eROB5Ly7ZXKLukQoF6tKl.jpg", "genre_ids": [27, 878], "id": 11549, "original_language": "en", "original_title": "Invasion of the Body Snatchers", "overview": "A small-town doctor learns that the population of his community is being replaced by emotionless alien duplicates.", "poster_path": "/4oj0G2Zr6tQKBDOzKaLuefdeBsG.jpg", "release_date": "1956-02-05", "title": "Invasion of the Body Snatchers", "video": false, "vote_average": 7.5, "vote_count": 472, "popularity": 24.989}, {"id": 1091, "video": false, "vote_count": 3506, "vote_average": 8.0, "title": "The Thing", "release_date": "1982-06-25", "original_language": "en", "original_title": "The Thing", "genre_ids": [27, 9648, 878], "backdrop_path": "/7mdGrxp3ZL2OqNSrQ5LoYySi5MH.jpg", "adult": false, "overview": "Scientists in the Antarctic are confronted by a shape-shifting alien that assumes the appearance of the people it kills.", "poster_path": "/tzGY49kseSE9QAKk47uuDGwnSCu.jpg", "popularity": 23.828}, {"id": 4858, "video": false, "vote_count": 779, "vote_average": 5.9, "title": "The Invasion", "release_date": "2007-08-17", "original_language": "en", "original_title": "The Invasion", "genre_ids": [18, 27, 878, 53], "backdrop_path": "/7YQWfORqPM3XEdeH8yUK28p2w5E.jpg", "adult": false, "overview": "Washington, D.C. psychologist Carol Bennell and her colleague Dr. Ben Driscoll are the only two people on Earth who are aware of an epidemic running rampant through the city. They discover an alien virus aboard a crashed space shuttle that transforms anyone who comes into contact with it into unfeeling drones while they sleep. Carol realizes her son holds the key to stopping the spread of the plague and she races to find him before it is too late.", "poster_path": "/bhuG1ijKGuoEM3rwBijy2ZH83q1.jpg", "popularity": 14.978}, {"adult": false, "backdrop_path": "/e7cpUuhjkzuzss1CJHqEKpTNQqW.jpg", "genre_ids": [878, 10751, 35, 12, 16], "id": 16866, "original_language": "en", "original_title": "Planet 51", "overview": "When Earth astronaut Capt. Chuck Baker arrives on Planet 51 -- a world reminiscent of American suburbia circa 1950 -- he tries to avoid capture, recover his spaceship and make it home safely, all with the help of an empathetic little green being.", "poster_path": "/x7Itcg3ZdExKwdKguy73WPEqosW.jpg", "release_date": "2009-11-19", "title": "Planet 51", "video": false, "vote_average": 5.7, "vote_count": 1222, "popularity": 14.917}, {"id": 828, "video": false, "vote_count": 557, "vote_average": 7.5, "title": "The Day the Earth Stood Still", "release_date": "1951-09-17", "original_language": "en", "original_title": "The Day the Earth Stood Still", "genre_ids": [878], "backdrop_path": "/uExEupzfV7Ffau0H98aefUU0zcG.jpg", "adult": false, "overview": "An alien and a robot land on earth after World War II and tell mankind to be peaceful or face destruction. A classic science fiction film from Robert Wise with an exceptional message.", "poster_path": "/x2DquTpLTq54aPFDnqlwY7apCC3.jpg", "popularity": 30.427}, {"id": 54138, "video": false, "vote_count": 6599, "vote_average": 7.3, "title": "Star Trek Into Darkness", "release_date": "2013-05-05", "original_language": "en", "original_title": "Star Trek Into Darkness", "genre_ids": [28, 12, 878], "backdrop_path": "/ns0IojuqJe24AHTxe8RVcWJUCDM.jpg", "adult": false, "overview": "When the crew of the Enterprise is called back home, they find an unstoppable force of terror from within their own organization has detonated the fleet and everything it stands for, leaving our world in a state of crisis.  With a personal score to settle, Captain Kirk leads a manhunt to a war-zone world to capture a one man weapon of mass destruction. As our heroes are propelled into an epic chess game of life and death, love will be challenged, friendships will be torn apart, and sacrifices must be made for the only family Kirk has left: his crew.", "poster_path": "/41mhrXASAW3sdn7LBWF49uCX0xi.jpg", "popularity": 22.476}, {"adult": false, "backdrop_path": "/xATZyEpnZ0Z0iO9z5K8RZsraGKI.jpg", "genre_ids": [878, 18], "id": 840, "original_language": "en", "original_title": "Close Encounters of the Third Kind", "overview": "After an encounter with UFOs, a line worker feels undeniably drawn to an isolated area in the wilderness where something spectacular is about to happen.", "poster_path": "/3Av8ZPiMrxFq9XiOjZl0tkoq9Oo.jpg", "release_date": "1977-11-16", "title": "Close Encounters of the Third Kind", "video": false, "vote_average": 7.4, "vote_count": 2289, "popularity": 38.059}, {"id": 75612, "video": false, "vote_count": 7401, "vote_average": 6.5, "title": "Oblivion", "release_date": "2013-04-10", "original_language": "en", "original_title": "Oblivion", "genre_ids": [28, 12, 9648, 878], "backdrop_path": "/8TE77jL2e4zdERpv8hnBAHUmFRx.jpg", "adult": false, "overview": "Jack Harper is one of the last few drone repairmen stationed on Earth.  Part of a massive operation to extract vital resources after decades of war with a terrifying threat known as the Scavs, Jack\u2019s mission is nearly complete.  His existence is brought crashing down when he rescues a beautiful  stranger from a downed spacecraft.  Her arrival triggers a chain of events that  forces him to question everything he knows and puts the fate of humanity in his hands.", "poster_path": "/hmOzkHlkGvi8x24fYpFSnXvjklv.jpg", "popularity": 34.598}, {"adult": false, "backdrop_path": "/kormVYncbZMrToXaOV58o74LNIz.jpg", "genre_ids": [18, 53, 878, 9648], "id": 2675, "original_language": "en", "original_title": "Signs", "overview": "A family living on a farm finds mysterious crop circles in their fields which suggests something more frightening to come.", "poster_path": "/bY9lCUVUajpkKWlfjWF1mtXaSUp.jpg", "release_date": "2002-08-02", "title": "Signs", "video": false, "vote_average": 6.6, "vote_count": 3222, "popularity": 16.898}, {"id": 7453, "video": false, "vote_count": 2556, "vote_average": 6.7, "title": "The Hitchhiker's Guide to the Galaxy", "release_date": "2005-04-28", "original_language": "en", "original_title": "The Hitchhiker's Guide to the Galaxy", "genre_ids": [12, 35, 878, 10751], "backdrop_path": "/kMf3ewax3ZeiSESaPQxBAReQzDD.jpg", "adult": false, "overview": "Mere seconds before the Earth is to be demolished by an alien construction crew, Arthur Dent is swept off the planet by his friend Ford Prefect, a researcher penning a new edition of \"The Hitchhiker's Guide to the Galaxy.\"", "poster_path": "/fOb4cJMhnZ11BoHNUii3Vcfo3XU.jpg", "popularity": 23.951}, {"id": 346910, "video": false, "vote_count": 2440, "vote_average": 5.3, "title": "The Predator", "release_date": "2018-09-05", "original_language": "en", "original_title": "The Predator", "genre_ids": [28, 12, 27, 878, 53], "backdrop_path": "/f4E0ocYeToEuXvczZv6QArrMDJ.jpg", "adult": false, "overview": "When a kid accidentally triggers the universe's most lethal hunters' return to Earth, only a ragtag crew of ex-soldiers and a disgruntled female scientist can prevent the end of the human race.", "poster_path": "/wMq9kQXTeQCHUZOG4fAe5cAxyUA.jpg", "popularity": 26.19}, {"id": 607, "video": false, "vote_count": 8859, "vote_average": 7.1, "title": "Men in Black", "release_date": "1997-07-02", "original_language": "en", "original_title": "Men in Black", "genre_ids": [28, 12, 35, 878], "backdrop_path": "/agCihVGrXk3hmmwMIgsn2ao1eEa.jpg", "adult": false, "overview": "After a police chase with an otherworldly being, a New York City cop is recruited as an agent in a top-secret organization established to monitor and police alien activity on Earth: the Men in Black. Agent Kay and new recruit Agent Jay find themselves in the middle of a deadly plot by an intergalactic terrorist who has arrived on Earth to assassinate two ambassadors from opposing galaxies.", "poster_path": "/t66nzsDMHLzzUe4rImT9qsgFk0B.jpg", "popularity": 44.371}], "total_pages": 67, "total_results": 1340}, "recommendations": {"page": 1, "results": [], "total_pages": 1, "total_results": 0}, "credits": {"cast": [{"cast_id": 3, "character": "Wes", "credit_id": "5334709392514144540021fe", "gender": 0, "id": 1305129, "name": "Stephen Winegard", "order": 1, "profile_path": null}, {"cast_id": 4, "character": "Girlfriend", "credit_id": "533470a49251414454002204", "gender": 0, "id": 1305130, "name": "Kimberly Mauldin", "order": 2, "profile_path": null}, {"cast_id": 5, "character": "Leader Alien", "credit_id": "533470b39251414460002244", "gender": 0, "id": 1305131, "name": "Stuart Watson", "order": 3, "profile_path": null}, {"cast_id": 6, "character": "Sunset", "credit_id": "533470c792514144630021a5", "gender": 2, "id": 256047, "name": "Sunset Carson", "order": 4, "profile_path": "/6dapXOKFxbCme3yqBvEoeYLb0uk.jpg"}, {"cast_id": 7, "character": "Jesse Jamison", "credit_id": "533470d4925141444e0021e9", "gender": 0, "id": 1305132, "name": "Kari Anderson", "order": 5, "profile_path": null}, {"cast_id": 8, "character": "Alex Thompson", "credit_id": "5485d5489251416a66003118", "gender": 2, "id": 218467, "name": "Lash La Rue", "order": 6, "profile_path": "/vEF80EibceiFseY5Zbbsf0Ydgp7.jpg"}, {"cast_id": 9, "character": "Peter", "credit_id": "58f820549251415c27001bb6", "gender": 0, "id": 1799710, "name": "Gil Newsom", "order": 7, "profile_path": "/tMqSbw9lAYpxygXNQczzNjQ0trT.jpg"}, {"cast_id": 10, "character": "Frank / 3rd Alien", "credit_id": "5bcac97a9251415f3c00175a", "gender": 0, "id": 2155119, "name": "Eric Berg", "order": 8, "profile_path": null}, {"cast_id": 11, "character": "Frank's Date", "credit_id": "5bcac98ac3a3683547001a55", "gender": 0, "id": 2155120, "name": "Susan E. Greene", "order": 9, "profile_path": null}, {"cast_id": 12, "character": "Operator", "credit_id": "5bcac9989251415f43001c0c", "gender": 0, "id": 2155123, "name": "Beth Ann McBride", "order": 10, "profile_path": null}, {"cast_id": 13, "character": "Man on Bench", "credit_id": "5bcac9b7c3a3683547001a7c", "gender": 0, "id": 2155124, "name": "Wild Bill Cody", "order": 11, "profile_path": null}, {"cast_id": 14, "character": "Motel Manager", "credit_id": "5bcaca0f0e0a266a3b001b49", "gender": 0, "id": 2155125, "name": "Judith B. Ardis", "order": 12, "profile_path": null}, {"cast_id": 15, "character": "Motal Porter", "credit_id": "5bcaca3dc3a368353a001b2f", "gender": 0, "id": 1141054, "name": "Alan Marx", "order": 13, "profile_path": null}, {"cast_id": 16, "character": "Wrangler", "credit_id": "5bcaca4ec3a3683552001d4e", "gender": 0, "id": 2155126, "name": "Jerry Montgomery", "order": 14, "profile_path": null}, {"cast_id": 17, "character": "2nd Alien", "credit_id": "5bcaca5d9251415f3c001837", "gender": 2, "id": 2002785, "name": "Dan Preston", "order": 15, "profile_path": null}, {"cast_id": 18, "character": "Jane", "credit_id": "5bcaca91c3a3683547001b65", "gender": 0, "id": 2155127, "name": "Liz Warrington", "order": 16, "profile_path": null}, {"cast_id": 19, "character": "Luger", "credit_id": "5bcacac2c3a368353a001b71", "gender": 0, "id": 549048, "name": "Paul Holman", "order": 17, "profile_path": null}, {"cast_id": 20, "character": "Ms. Diamond", "credit_id": "5bcacaef9251415f51001aa5", "gender": 0, "id": 2155128, "name": "Deborah Brady", "order": 18, "profile_path": null}, {"cast_id": 21, "character": "Robert", "credit_id": "5bcacafd9251415f4a001ef8", "gender": 0, "id": 2155129, "name": "Lyndon Fuller", "order": 19, "profile_path": null}, {"cast_id": 22, "character": "Amanda", "credit_id": "5bcacb080e0a266a4c001da1", "gender": 0, "id": 2155130, "name": "Mary Beth Thacker", "order": 20, "profile_path": null}, {"cast_id": 23, "character": "Officer Bob", "credit_id": "5bcacbba9251415f4a001fa7", "gender": 0, "id": 2155132, "name": "James Grubbs Martin, Jr.", "order": 21, "profile_path": null}, {"cast_id": 24, "character": "Radio Newsman / Police Trafficker", "credit_id": "5bcacc4a9251415f41001cd9", "gender": 0, "id": 62214, "name": "Sherwood Jones", "order": 22, "profile_path": null}, {"cast_id": 25, "character": "Man in Store", "credit_id": "5bcacc58c3a3683540001fce", "gender": 0, "id": 2155133, "name": "Steve Dalton", "order": 23, "profile_path": null}, {"cast_id": 26, "character": "3rd Officer", "credit_id": "5bcacc980e0a266a3b001d50", "gender": 0, "id": 552144, "name": "Rod Davis", "order": 24, "profile_path": null}, {"cast_id": 27, "character": "Camper", "credit_id": "5bcaccbb9251415f3c001a00", "gender": 0, "id": 2155134, "name": "Roy Lee Gittens, Jr.", "order": 25, "profile_path": null}], "crew": [{"credit_id": "52fe4f35c3a36847f82c55e5", "department": "Directing", "gender": 0, "id": 103797, "job": "Director", "name": "Phil Smoot", "profile_path": null}, {"credit_id": "52fe4f35c3a36847f82c55eb", "department": "Writing", "gender": 0, "id": 103797, "job": "Writer", "name": "Phil Smoot", "profile_path": null}]}}