{"adult": false, "backdrop_path": "/pWIFdwa20VKeE3etgTzN5FiBzSF.jpg", "belongs_to_collection": null, "budget": 0, "genres": [{"id": 99, "name": "Documentary"}], "homepage": "http://www.hbo.com/documentaries/an-apology-to-elephants", "id": 248870, "imdb_id": "tt2836524", "original_language": "en", "original_title": "An Apology to Elephants", "overview": "Elephants are among the most majestic and intelligent creatures on Earth--but for hundreds of years, they have suffered at the hands of humans. Narrated by Lily Tomlin, this documentary short traces our long history with elephants and explores the many problems that arise when they are brought to live in captivity in zoos and circuses.", "popularity": 3.683, "poster_path": "/6btaFHYu1dM9cN5IFU5Mrytor9R.jpg", "production_companies": [{"id": 3268, "logo_path": "/tuomPhY2UtuPTqqFnKMVHvSb724.png", "name": "HBO", "origin_country": "US"}], "production_countries": [{"iso_3166_1": "US", "name": "United States of America"}], "release_date": "2013-04-13", "revenue": 0, "runtime": 40, "spoken_languages": [{"iso_639_1": "en", "name": "English"}], "status": "Released", "tagline": "", "title": "An Apology to Elephants", "video": false, "vote_average": 8.0, "vote_count": 3, "keywords": {"keywords": [{"id": 291, "name": "circus"}, {"id": 2172, "name": "zoo"}, {"id": 2857, "name": "elephant"}, {"id": 9898, "name": "animal rights"}, {"id": 11338, "name": "wild animal"}]}, "similar": {"page": 1, "results": [{"id": 11360, "video": false, "vote_count": 3005, "vote_average": 6.9, "title": "Dumbo", "release_date": "1941-10-22", "original_language": "en", "original_title": "Dumbo", "genre_ids": [16, 10751], "backdrop_path": "/sa5vHfu5n4NFqZbVf2hzqGr6bim.jpg", "adult": false, "overview": "Dumbo is a baby elephant born with over-sized ears and a supreme lack of confidence. But thanks to his even more diminutive buddy Timothy the Mouse,  the pint-sized pachyderm learns to surmount all obstacles.", "poster_path": "/hKDdllslMtsU9JixAv5HR9biXlp.jpg", "popularity": 26.622}, {"id": 953, "video": false, "vote_count": 6883, "vote_average": 6.8, "title": "Madagascar", "release_date": "2005-05-25", "original_language": "en", "original_title": "Madagascar", "genre_ids": [16, 10751], "backdrop_path": "/wUetiqu2EFhHW94yTP0pWABfyUG.jpg", "adult": false, "overview": "Alex the lion is the king of the urban jungle, the main attraction at New York\u2019s Central Park Zoo. He and his best friends\u2014Marty the zebra, Melman the giraffe and Gloria the hippo\u2014have spent their whole lives in blissful captivity before an admiring public and with regular meals provided for them. Not content to leave well enough alone, Marty lets his curiosity get the better of him and makes his escape\u2014with the help of some prodigious penguins\u2014to explore the world.", "poster_path": "/2YiESGB68BGQSAFvfJxBi774sc4.jpg", "popularity": 30.512}, {"id": 10527, "video": false, "vote_count": 4217, "vote_average": 6.4, "title": "Madagascar: Escape 2 Africa", "release_date": "2008-10-30", "original_language": "en", "original_title": "Madagascar: Escape 2 Africa", "genre_ids": [16, 35, 10751], "backdrop_path": "/anxiz37Z9FPKeuCsJcxViSWmPxg.jpg", "adult": false, "overview": "Alex, Marty, and other zoo animals find a way to escape from Madagascar when the penguins reassemble a wrecked airplane. The precariously repaired craft stays airborne just long enough to make it to the African continent. There the New Yorkers encounter members of their own species for the first time. Africa proves to be a wild place, but Alex and company wonder if it is better than their Central Park home.", "poster_path": "/9mohxwknsHcwFBSAAhoQXwFV5zn.jpg", "popularity": 21.514}, {"id": 9904, "video": false, "vote_count": 559, "vote_average": 5.3, "title": "The Wild", "release_date": "2006-03-06", "original_language": "en", "original_title": "The Wild", "genre_ids": [16, 10751], "backdrop_path": "/z8bCwHtKypfDoqChf41pKWR41Xb.jpg", "adult": false, "overview": "An adolescent lion is accidentally shipped from the New York Zoo to Africa. Now running free, his zoo pals must put aside their differences to help bring him back.", "poster_path": "/uxTtgh4tpSWVulXLCDqKU10cWXo.jpg", "popularity": 19.726}, {"id": 329996, "video": false, "vote_count": 2324, "vote_average": 6.6, "title": "Dumbo", "release_date": "2019-03-27", "original_language": "en", "original_title": "Dumbo", "genre_ids": [12, 14, 10751], "backdrop_path": "/5tFt6iuGnKapHl5tw0X0cKcnuVo.jpg", "adult": false, "overview": "A young elephant, whose oversized ears enable him to fly, helps save a struggling circus, but when the circus plans a new venture, Dumbo and his friends discover dark secrets beneath its shiny veneer.", "poster_path": "/A7XkpLfNH0El2yyDLc4b0KLAKvE.jpg", "popularity": 32.102}, {"id": 269149, "video": false, "vote_count": 10906, "vote_average": 7.7, "title": "Zootopia", "release_date": "2016-02-11", "original_language": "en", "original_title": "Zootopia", "genre_ids": [12, 16, 35, 10751], "backdrop_path": "/mhdeE1yShHTaDbJVdWyTlzFvNkr.jpg", "adult": false, "overview": "Determined to prove herself, Officer Judy Hopps, the first bunny on Zootopia's police force, jumps at the chance to crack her first case - even if it means partnering with scam-artist fox Nick Wilde to solve the mystery.", "poster_path": "/sM33SANp9z6rXW8Itn7NnG1GOEs.jpg", "popularity": 63.21}, {"id": 700, "video": false, "vote_count": 991, "vote_average": 6.3, "title": "Octopussy", "release_date": "1983-06-05", "original_language": "en", "original_title": "Octopussy", "genre_ids": [28, 12, 53], "backdrop_path": "/nOp4RM4AYlW8Ux0XHBTqXbPlSgY.jpg", "adult": false, "overview": "James Bond is sent to investigate after a fellow \u201c00\u201d agent is found dead with a priceless Faberg\u00e9 egg. James Bond follows the mystery and uncovers a smuggling scandal and a Russian General who wants to provoke a new World War.", "poster_path": "/s1GeJcwTclopbed1Bo2hjunSika.jpg", "popularity": 21.346}, {"id": 87827, "video": false, "vote_count": 9356, "vote_average": 7.3, "title": "Life of Pi", "release_date": "2012-11-20", "original_language": "en", "original_title": "Life of Pi", "genre_ids": [28, 12, 18], "backdrop_path": "/tk159LPfy69zSHw4dabehfAaJXi.jpg", "adult": false, "overview": "The story of an Indian boy named Pi, a zookeeper's son who finds himself in the company of a hyena, zebra, orangutan, and a Bengal tiger after a shipwreck sets them adrift in the Pacific Ocean.", "poster_path": "/sLYdcz7easaS7CmJGwQcVVYZqiF.jpg", "popularity": 23.211}, {"id": 2454, "video": false, "vote_count": 3951, "vote_average": 6.5, "title": "The Chronicles of Narnia: Prince Caspian", "release_date": "2008-05-15", "original_language": "en", "original_title": "The Chronicles of Narnia: Prince Caspian", "genre_ids": [12, 14, 10751], "backdrop_path": "/eiET76GO3xECOic1rL8VcTLuy3L.jpg", "adult": false, "overview": "One year after their incredible adventures in the Lion, the Witch and the Wardrobe, Peter, Edmund, Lucy and Susan Pevensie return to Narnia to aid a young prince whose life has been threatened by the evil King Miraz. Now, with the help of a colorful cast of new characters, including Trufflehunter the badger and Nikabrik the dwarf, the Pevensie clan embarks on an incredible quest to ensure that Narnia is returned to its rightful heir.", "poster_path": "/kSSyzqw9C4wUggicG4D81XmptR1.jpg", "popularity": 20.084}, {"id": 351286, "video": false, "vote_count": 6785, "vote_average": 6.5, "title": "Jurassic World: Fallen Kingdom", "release_date": "2018-06-06", "original_language": "en", "original_title": "Jurassic World: Fallen Kingdom", "genre_ids": [28, 12, 878], "backdrop_path": "/3s9O5af2xWKWR5JzP2iJZpZeQQg.jpg", "adult": false, "overview": "Three years after the demise of Jurassic World, a volcanic eruption threatens the remaining dinosaurs on the isla Nublar, so Claire Dearing, the former park manager, recruits Owen Grady to help prevent the extinction of the dinosaurs once again.", "poster_path": "/c9XxwwhPHdaImA2f1WEfEsbhaFB.jpg", "popularity": 40.527}, {"adult": false, "backdrop_path": "/eIOTsGg9FCVrBc4r2nXaV61JF4F.jpg", "genre_ids": [12, 18, 10751, 14], "id": 278927, "original_language": "en", "original_title": "The Jungle Book", "overview": "A man-cub named Mowgli fostered by wolves. After a threat from the tiger Shere Khan, Mowgli is forced to flee the jungle, by which he embarks on a journey of self discovery with the help of the panther, Bagheera and the free-spirited bear, Baloo.", "poster_path": "/vOipe2myi26UDwP978hsYOrnUWC.jpg", "release_date": "2016-04-07", "title": "The Jungle Book", "video": false, "vote_average": 6.8, "vote_count": 5704, "popularity": 40.457}, {"id": 10258, "video": false, "vote_count": 148, "vote_average": 6.6, "title": "The Madagascar Penguins in a Christmas Caper", "release_date": "2005-09-23", "original_language": "en", "original_title": "The Madagascar Penguins in a Christmas Caper", "genre_ids": [16, 35, 10751], "backdrop_path": "/gdJ6j1hmt6dQgObWxDJAHUb58o6.jpg", "adult": false, "overview": "During the holiday season, when the animals of the Central Park Zoo are preparing for Christmas, Private, the youngest of the penguins notices that the Polar Bear is all alone. Assured that nobody should have to spend Christmas alone, Private goes into the city for some last-minute Christmas shopping. Along the way, he gets stuffed into a stocking", "poster_path": "/r8QtfGSjDaY6vICRVyYvZvTkjxc.jpg", "popularity": 15.199}, {"id": 87, "video": false, "vote_count": 5410, "vote_average": 7.2, "title": "Indiana Jones and the Temple of Doom", "release_date": "1984-05-23", "original_language": "en", "original_title": "Indiana Jones and the Temple of Doom", "genre_ids": [28, 12], "backdrop_path": "/mWuFDpOxXJpPxLM3p8f3w02pBb2.jpg", "adult": false, "overview": "After arriving in India, Indiana Jones is asked by a desperate village to find a mystical stone. He agrees \u2013 and stumbles upon a secret cult plotting a terrible plan in the catacombs of an ancient palace.", "poster_path": "/f2nTRKk2zGdUTE7tLJ5EGGSuKA6.jpg", "popularity": 34.473}, {"id": 80321, "video": false, "vote_count": 3743, "vote_average": 6.5, "title": "Madagascar 3: Europe's Most Wanted", "release_date": "2012-06-06", "original_language": "en", "original_title": "Madagascar 3: Europe's Most Wanted", "genre_ids": [16, 35, 10751], "backdrop_path": "/alkQ9DQJdZutBCKdEHXUVCZnuAF.jpg", "adult": false, "overview": "Animal pals Alex, Marty, Melman, and Gloria are still trying to make it back to New York's Central Park Zoo. They are forced to take a detour to Europe to find the penguins and chimps who broke the bank at a Monte Carlo casino. When French animal-control officer Capitaine Chantel DuBois picks up their scent, Alex and company are forced to hide out in a traveling circus.", "poster_path": "/wd7NcMifnuf66gD2Fm7Tzz3yJ54.jpg", "popularity": 21.834}, {"id": 9732, "video": false, "vote_count": 2662, "vote_average": 6.9, "title": "The Lion King II: Simba's Pride", "release_date": "1998-10-24", "original_language": "en", "original_title": "The Lion King II: Simba's Pride", "genre_ids": [12, 16, 10751], "backdrop_path": "/4LHPAe8CWFEz3jp4V3yKOQ7QXBz.jpg", "adult": false, "overview": "The circle of life continues for Simba, now fully grown and in his rightful place as the king of Pride Rock. Simba and Nala have given birth to a daughter, Kiara who's as rebellious as her father was. But Kiara drives her parents to distraction when she catches the eye of Kovu, the son of the evil lioness, Zira. Will Kovu steal Kiara's heart?", "poster_path": "/6YOBZYEkVxNzX7Sod7yChotUp5g.jpg", "popularity": 30.734}, {"id": 68728, "video": false, "vote_count": 5070, "vote_average": 5.8, "title": "Oz the Great and Powerful", "release_date": "2013-03-07", "original_language": "en", "original_title": "Oz the Great and Powerful", "genre_ids": [12, 14, 10751], "backdrop_path": "/4cCQkOv4GfQoTtDzHl54KS3S39N.jpg", "adult": false, "overview": "Oscar Diggs, a small-time circus illusionist and con-artist, is whisked from Kansas to the Land of Oz where the inhabitants assume he's the great wizard of prophecy, there to save Oz from the clutches of evil.", "poster_path": "/7qzLIcYR7ev7iXngY8NKHBZHwwT.jpg", "popularity": 15.537}, {"id": 8587, "video": false, "vote_count": 11488, "vote_average": 8.2, "title": "The Lion King", "release_date": "1994-05-07", "original_language": "en", "original_title": "The Lion King", "genre_ids": [16, 18, 10751], "backdrop_path": "/2wW1hyNxpU36aNtNSHVhIOJccde.jpg", "adult": false, "overview": "A young lion prince is cast out of his pride by his cruel uncle, who claims he killed his father. While the uncle rules with an iron paw, the prince grows up beyond the Savannah, living by a philosophy: No worries for the rest of your days. But when his past comes to haunt him, the young prince must decide his fate: Will he remain an outcast or face his demons and become what he needs to be?", "poster_path": "/sKCr78MXSLixwmZ8DyJLrpMsd15.jpg", "popularity": 35.175}, {"id": 411, "video": false, "vote_count": 6420, "vote_average": 7.0, "title": "The Chronicles of Narnia: The Lion, the Witch and the Wardrobe", "release_date": "2005-12-07", "original_language": "en", "original_title": "The Chronicles of Narnia: The Lion, the Witch and the Wardrobe", "genre_ids": [12, 14, 10751], "backdrop_path": "/fOeoL1Oa5D9VKTKMGeLmUhA7qK5.jpg", "adult": false, "overview": "Siblings Lucy, Edmund, Susan and Peter step through a magical wardrobe and find the land of Narnia. There, the they discover a charming, once peaceful kingdom that has been plunged into eternal winter by the evil White Witch, Jadis. Aided by the wise and magnificent lion, Aslan, the children lead Narnia into a spectacular, climactic battle to be free of the Witch's glacial powers forever.", "poster_path": "/l8RKDgjl9co0IgFZblxhtIOi5Uj.jpg", "popularity": 36.008}, {"id": 316029, "video": false, "vote_count": 5849, "vote_average": 8.0, "title": "The Greatest Showman", "release_date": "2017-12-20", "original_language": "en", "original_title": "The Greatest Showman", "genre_ids": [18], "backdrop_path": "/zpq404Sk7qQ7N4x3xOeNgp74GtU.jpg", "adult": false, "overview": "The story of American showman P.T. Barnum, founder of the circus that became the famous traveling Ringling Bros. and Barnum & Bailey Circus.", "poster_path": "/b9CeobiihCx1uG1tpw8hXmpi7nm.jpg", "popularity": 33.03}, {"adult": false, "backdrop_path": "/wcT7srQ4GeeMqlszMFEtPZ7v8T7.jpg", "genre_ids": [35, 10749], "id": 28978, "original_language": "en", "original_title": "The Circus", "overview": "Charlie, a wandering tramp, becomes a circus handyman and falls in love with the circus owner's daughter. Unaware of Charlie's affection, the girl falls in love with a handsome young performer. Charlie's versatility makes him star of the show when he substitutes for an ailing tightwire walker. He is discharged from the company when he protects the girl from her father's abuse, but he returns and appeals to the handsome performer to marry the girl. After the wedding the father prevails upon them to rejoin the circus. Charlie is hired again, but he stays behind when the caravan moves on.", "poster_path": "/awTf4Y6TGvgi3VYtGNINyyJJy9Q.jpg", "release_date": "1928-01-06", "title": "The Circus", "video": false, "vote_average": 8.2, "vote_count": 330, "popularity": 12.253}], "total_pages": 34, "total_results": 668}, "recommendations": {"page": 1, "results": [], "total_pages": 1, "total_results": 0}, "credits": {"cast": [{"cast_id": 1, "character": "Narrator", "credit_id": "52fe4f39c3a36847f82c6b15", "gender": 1, "id": 10437, "name": "Lily Tomlin", "order": 0, "profile_path": "/z6aNkslg49DWz66XcLKYc78n7Ra.jpg"}], "crew": [{"credit_id": "52fe4f39c3a36847f82c6b1b", "department": "Production", "gender": 1, "id": 10437, "job": "Executive Producer", "name": "Lily Tomlin", "profile_path": "/z6aNkslg49DWz66XcLKYc78n7Ra.jpg"}, {"credit_id": "563b3283c3a3681b4b021e84", "department": "Sound", "gender": 1, "id": 17863, "job": "Music Supervisor", "name": "Linda Cohen", "profile_path": null}, {"credit_id": "52fe4f39c3a36847f82c6b2d", "department": "Sound", "gender": 0, "id": 38802, "job": "Music", "name": "Joby Talbot", "profile_path": null}, {"credit_id": "52fe4f39c3a36847f82c6b21", "department": "Production", "gender": 0, "id": 72402, "job": "Executive Producer", "name": "Jane Wagner", "profile_path": null}, {"credit_id": "52fe4f39c3a36847f82c6b51", "department": "Writing", "gender": 0, "id": 72402, "job": "Writer", "name": "Jane Wagner", "profile_path": null}, {"credit_id": "5a542cfb0e0a2607e00063c3", "department": "Directing", "gender": 1, "id": 966633, "job": "Director", "name": "Amy Schatz", "profile_path": null}, {"credit_id": "52fe4f39c3a36847f82c6b57", "department": "Editing", "gender": 2, "id": 968084, "job": "Editor", "name": "Tom Patterson", "profile_path": null}, {"credit_id": "52fe4f39c3a36847f82c6b5d", "department": "Editing", "gender": 0, "id": 1015484, "job": "Dialogue Editor", "name": "Neil Cedar", "profile_path": null}, {"credit_id": "52fe4f39c3a36847f82c6b33", "department": "Camera", "gender": 0, "id": 1108493, "job": "Camera Supervisor", "name": "Alex Rappoport", "profile_path": null}, {"credit_id": "52fe4f39c3a36847f82c6b69", "department": "Crew", "gender": 0, "id": 1108493, "job": "Cinematography", "name": "Alex Rappoport", "profile_path": null}, {"credit_id": "52fe4f39c3a36847f82c6b39", "department": "Camera", "gender": 2, "id": 1147251, "job": "Camera Supervisor", "name": "Scott Sinkler", "profile_path": null}, {"credit_id": "52fe4f39c3a36847f82c6b6f", "department": "Crew", "gender": 2, "id": 1147251, "job": "Cinematography", "name": "Scott Sinkler", "profile_path": null}, {"credit_id": "52fe4f39c3a36847f82c6b27", "department": "Production", "gender": 1, "id": 1238136, "job": "Executive Producer", "name": "Sheila Nevins", "profile_path": "/sRjSyPc4gMFw8VzKjSmWGFM6HZx.jpg"}, {"credit_id": "52fe4f39c3a36847f82c6b75", "department": "Production", "gender": 0, "id": 1257723, "job": "Producer", "name": "Beth Aala", "profile_path": null}, {"credit_id": "52fe4f39c3a36847f82c6b45", "department": "Lighting", "gender": 0, "id": 1284263, "job": "Gaffer", "name": "Philip Sorenson", "profile_path": null}, {"credit_id": "52fe4f39c3a36847f82c6b63", "department": "Crew", "gender": 0, "id": 1284276, "job": "Sound Recordist", "name": "Adriano Bravo", "profile_path": null}]}}