{"adult": false, "backdrop_path": "/34FqHRBH9Z4VuEzgXiQZg5uvzp0.jpg", "belongs_to_collection": null, "budget": 0, "genres": [{"id": 99, "name": "Documentary"}], "homepage": "http://www.nonoadockumentary.com/", "id": 250665, "imdb_id": "tt3399112", "original_language": "en", "original_title": "No No: A Dockumentary", "overview": "Dock Ellis pitched a no-hitter on LSD, then worked for decades counseling drug abusers. Dock's soulful style defined 1970s baseball as he kept hitters honest and embarrassed the establishment. An ensemble cast of teammates, friends, and family investigate his life on the field, in the media, and out of the spotlight.", "popularity": 2.699, "poster_path": "/5M5h3DNwErHqtz64BbwyV2byHa6.jpg", "production_companies": [], "production_countries": [], "release_date": "2014-01-20", "revenue": 0, "runtime": 100, "spoken_languages": [{"iso_639_1": "en", "name": "English"}, {"iso_639_1": "es", "name": "Espa\u00f1ol"}], "status": "Released", "tagline": "", "title": "No No: A Dockumentary", "video": false, "vote_average": 6.9, "vote_count": 25, "keywords": {"keywords": [{"id": 1480, "name": "baseball"}, {"id": 10649, "name": "drug rehabilitation"}]}, "similar": {"page": 1, "results": [{"adult": false, "backdrop_path": "/eD8PxfDsmWyUcj2LzQ9Ha2O7UvB.jpg", "genre_ids": [99], "id": 614423, "original_language": "en", "original_title": "Collingwood: From The Inside Out", "overview": "An  intimate look at Collingwood Football Club as it rebuilds itself and aims for glory over the course of the 2018 season.", "poster_path": "/dsJMvBJ7M2HvGkJdhW4nKNHEgDs.jpg", "release_date": "2019-08-15", "title": "Collingwood: From The Inside Out", "video": false, "vote_average": 1.0, "vote_count": 1, "popularity": 1.602}, {"id": 331781, "video": false, "vote_count": 768, "vote_average": 7.6, "title": "Amy", "release_date": "2015-07-03", "original_language": "en", "original_title": "Amy", "genre_ids": [99, 10402], "backdrop_path": "/ktivqGIKG8hk9nwwX2G2FgsBgaD.jpg", "adult": false, "overview": "A documentary on the life of Amy Winehouse, the immensely talented yet doomed songstress. We see her from her teen years, where she already showed her singing abilities, to her finding success and then her downward spiral into alcoholism and drugs.", "poster_path": "/hr0laiK7CVmsT87iQml153xs3Up.jpg", "popularity": 15.38}, {"adult": false, "backdrop_path": "/mYKP6qcDUimVMAHQWLOuDHjO19S.jpg", "genre_ids": [35], "id": 445629, "original_language": "en", "original_title": "Fighting with My Family", "overview": "Born into a tight-knit wrestling family, Paige and her brother Zak are ecstatic when they get the once-in-a-lifetime opportunity to try out for the WWE. But when only Paige earns a spot in the competitive training program, she must leave her loved ones behind and face this new cutthroat world alone. Paige's journey pushes her to dig deep and ultimately prove to the world that what makes her different is the very thing that can make her a star.", "poster_path": "/cVhe15rJLRjolunSWLBN6xQLyGU.jpg", "release_date": "2019-02-14", "title": "Fighting with My Family", "video": false, "vote_average": 6.7, "vote_count": 642, "popularity": 23.641}, {"adult": false, "backdrop_path": "/qVjKZMB0IdOc2JlwiiGsuKTvTJs.jpg", "genre_ids": [18], "id": 22881, "original_language": "en", "original_title": "The Blind Side", "overview": "The story of Michael Oher, a homeless and traumatized boy who became an All American football player and first round NFL draft pick with the help of a caring woman and her family", "poster_path": "/wEGFSgPebLk6g1ngKsJ6a46PYLV.jpg", "release_date": "2009-11-20", "title": "The Blind Side", "video": false, "vote_average": 7.5, "vote_count": 3212, "popularity": 42.202}, {"id": 107, "video": false, "vote_count": 5247, "vote_average": 7.8, "title": "Snatch", "release_date": "2000-09-01", "original_language": "en", "original_title": "Snatch", "genre_ids": [80, 53], "backdrop_path": "/cNLZ7YGRikb4IsLblrzu86ndZPw.jpg", "adult": false, "overview": "The second film from British director Guy Ritchie. Snatch tells an obscure story similar to his first fast-paced crazy character-colliding filled film \u201cLock, Stock and Two Smoking Barrels.\u201d There are two overlapping stories here \u2013 one is the search for a stolen diamond, and the other about a boxing promoter who\u2019s having trouble with a psychotic gangster.", "poster_path": "/on9JlbGEccLsYkjeEph2Whm1DIp.jpg", "popularity": 25.36}, {"id": 307081, "video": false, "vote_count": 3699, "vote_average": 7.4, "title": "Southpaw", "release_date": "2015-03-24", "original_language": "en", "original_title": "Southpaw", "genre_ids": [28, 18], "backdrop_path": "/tTt1cdEEkKMJ1R4VBTe5vbE3bWO.jpg", "adult": false, "overview": "Billy \"The Great\" Hope, the reigning junior middleweight boxing champion, has an impressive career, a loving wife and daughter, and a lavish lifestyle. However, when tragedy strikes, Billy hits rock bottom, losing his family, his house and his manager. He soon finds an unlikely savior in Tick Willis, a former fighter who trains the city's toughest amateur boxers. With his future on the line, Hope fights to reclaim the trust of those he loves the most.", "poster_path": "/50d0XQQETSyg3bwBXhC7K33pKgc.jpg", "popularity": 24.057}, {"id": 37136, "video": false, "vote_count": 1997, "vote_average": 7.2, "title": "The Naked Gun: From the Files of Police Squad!", "release_date": "1988-12-02", "original_language": "en", "original_title": "The Naked Gun: From the Files of Police Squad!", "genre_ids": [35, 80], "backdrop_path": "/vBvfE7oUpJggU1Cf4UXgeeXocsg.jpg", "adult": false, "overview": "When the incompetent Officer Frank Drebin seeks the ruthless killer of his partner, he stumbles upon an attempt to assassinate Queen Elizabeth.", "poster_path": "/gajZQkZjVXPuLJUMoEk1eVeZz61.jpg", "popularity": 16.388}, {"id": 348893, "video": false, "vote_count": 521, "vote_average": 6.2, "title": "Boyka: Undisputed IV", "release_date": "2016-08-01", "original_language": "en", "original_title": "Boyka: Undisputed IV", "genre_ids": [28, 80, 53], "backdrop_path": "/5dLLiR8IUT7T0r5HVcvRlItNWTn.jpg", "adult": false, "overview": "In the fourth installment of the fighting franchise, Boyka is shooting for the big leagues when an accidental death in the ring makes him question everything he stands for. When he finds out the wife of the man he accidentally killed is in trouble, Boyka offers to fight in a series of impossible battles to free her from a life of servitude", "poster_path": "/mWiqc87iTs1qujxm2Q0NRzGvWSN.jpg", "popularity": 32.403}, {"id": 70006, "video": false, "vote_count": 288, "vote_average": 6.1, "title": "Never Back Down 2: The Beatdown", "release_date": "2011-09-13", "original_language": "en", "original_title": "Never Back Down 2: The Beatdown", "genre_ids": [28, 18], "backdrop_path": "/lSFqtjxMfAHa58TBDDBELKeq2DH.jpg", "adult": false, "overview": "Four fighters different backgrounds come together to train under an ex MMA rising star and then ultimately have to fight each other and the traitor in heir midst.", "poster_path": "/qeISu4rUk9l9sQTMs86fAoxSx8p.jpg", "popularity": 15.641}, {"id": 391757, "video": false, "vote_count": 185, "vote_average": 6.5, "title": "Never Back Down: No Surrender", "release_date": "2016-06-07", "original_language": "en", "original_title": "Never Back Down: No Surrender", "genre_ids": [28, 18], "backdrop_path": "/pzjnObK3uiHcKwiir9OPPWzbW8f.jpg", "adult": false, "overview": "Picking up after the events of Never Back Down 2, former MMA champion Case Walker is on the comeback trail to become champion once again.", "poster_path": "/dYNS4o4Q4DDLiKRAAvZ9KcrhHuy.jpg", "popularity": 16.224}, {"adult": false, "backdrop_path": "/w41zFKYTsq4wf5QnQJWMXuzWl2F.jpg", "genre_ids": [18, 28], "id": 96721, "original_language": "en", "original_title": "Rush", "overview": "A biographical drama centered on the rivalry between Formula 1 drivers James Hunt and Niki Lauda during the 1976 Formula One motor-racing season.", "poster_path": "/cjEepHZOZAwmK6nAj5jis6HV75E.jpg", "release_date": "2013-09-02", "title": "Rush", "video": false, "vote_average": 7.7, "vote_count": 4276, "popularity": 17.673}, {"id": 1375, "video": false, "vote_count": 1670, "vote_average": 5.6, "title": "Rocky V", "release_date": "1990-10-18", "original_language": "en", "original_title": "Rocky V", "genre_ids": [18], "backdrop_path": "/dr5pdEDOdCvelCQqP32UZubiSgE.jpg", "adult": false, "overview": "A lifetime of taking shots has ended Rocky\u2019s career, and a crooked accountant has left him broke. Inspired by the memory of his trainer, however, Rocky finds glory in training and takes on an up-and-coming boxer.", "poster_path": "/5P2RiuLt31mWyb6duww8qlAhs6G.jpg", "popularity": 22.518}, {"id": 312221, "video": false, "vote_count": 4400, "vote_average": 7.4, "title": "Creed", "release_date": "2015-11-25", "original_language": "en", "original_title": "Creed", "genre_ids": [18], "backdrop_path": "/fs2yhdSCzMVlNECrN84WuCkgXov.jpg", "adult": false, "overview": "The former World Heavyweight Champion Rocky Balboa serves as a trainer and mentor to Adonis Johnson, the son of his late friend and former rival Apollo Creed.", "poster_path": "/hKzhV274pkZBSpXfCjUyzbyYKLl.jpg", "popularity": 17.551}, {"id": 480530, "video": false, "vote_count": 2746, "vote_average": 6.8, "title": "Creed II", "release_date": "2018-11-21", "original_language": "en", "original_title": "Creed II", "genre_ids": [18], "backdrop_path": "/hZqx2JcZVjHSY2lMEMDC0XlObiw.jpg", "adult": false, "overview": "Between personal obligations and training for his next big fight against an opponent with ties to his family's past, Adonis Creed is up against the challenge of his life.", "poster_path": "/v3QyboWRoA4O9RbcsqH8tJMe8EB.jpg", "popularity": 22.97}, {"adult": false, "backdrop_path": "/jK3EAFk3GdOaQfUDCOiTujzMpwH.jpg", "genre_ids": [18], "id": 389015, "original_language": "en", "original_title": "I, Tonya", "overview": "Competitive ice skater Tonya Harding rises amongst the ranks at the U. S. Figure Skating Championships, but her future in the sport is thrown into doubt when her ex-husband intervenes.", "poster_path": "/6gNXwSHxaksR1PjVZRqNapmkgj3.jpg", "release_date": "2017-12-08", "title": "I, Tonya", "video": false, "vote_average": 7.5, "vote_count": 3327, "popularity": 19.513}, {"adult": false, "backdrop_path": "/nb70B4EXuoegiQ0C5N1fNVHIaYc.jpg", "genre_ids": [12, 18, 36, 53, 10752], "id": 5925, "original_language": "en", "original_title": "The Great Escape", "overview": "The Nazis, exasperated at the number of escapes from their prison camps by a relatively small number of Allied prisoners, relocates them to a high-security 'escape-proof' camp to sit out the remainder of the war. Undaunted, the prisoners plan one of the most ambitious escape attempts of World War II. Based on a true story.", "poster_path": "/qhy4HgUqhEbwQ1ekKTv7yEB3b0e.jpg", "release_date": "1963-06-20", "title": "The Great Escape", "video": false, "vote_average": 8.0, "vote_count": 1359, "popularity": 19.093}, {"adult": false, "backdrop_path": "/43fnzmOMO5zOUFH3EzyuwSh87IS.jpg", "genre_ids": [18], "id": 45317, "original_language": "en", "original_title": "The Fighter", "overview": "The Fighter, is a drama about boxer \"Irish\" Micky Ward's unlikely road to the world light welterweight title. His Rocky-like rise was shepherded by half-brother Dicky, a boxer-turned-trainer who rebounded in life after nearly being KO'd by drugs and crime.", "poster_path": "/ytGIpdxYyvXwch5QILfquSTMA9f.jpg", "release_date": "2010-12-17", "title": "The Fighter", "video": false, "vote_average": 7.3, "vote_count": 2572, "popularity": 19.636}, {"adult": false, "backdrop_path": "/bRGtZsVj2Qq8r5CCsNYmQUPF4z4.jpg", "genre_ids": [80, 18, 878, 53], "id": 10559, "original_language": "en", "original_title": "Frequency", "overview": "When a rare phenomenon gives police officer John Sullivan the chance to speak to his father, 30 years in the past, he takes the opportunity to prevent his dad's tragic death.  After his actions inadvertently give rise to a series of brutal murders he and his father must find a way to fix the consequences of altering time.", "poster_path": "/n0QAAZmIaPPIShVkk8eiKwfGV9.jpg", "release_date": "2000-04-28", "title": "Frequency", "video": false, "vote_average": 7.1, "vote_count": 897, "popularity": 14.026}, {"id": 227306, "video": false, "vote_count": 2439, "vote_average": 7.4, "title": "Unbroken", "release_date": "2014-12-25", "original_language": "en", "original_title": "Unbroken", "genre_ids": [18, 10752], "backdrop_path": "/eSbKT3v3RKFRGeOmxJbZhIvrevR.jpg", "adult": false, "overview": "A chronicle of the life of Louis Zamperini, an Olympic runner who was taken prisoner by Japanese forces during World War II.", "poster_path": "/1un8i8UtCjSCnY3OfdxtB5kDRvF.jpg", "popularity": 18.995}, {"id": 522924, "video": false, "vote_count": 150, "vote_average": 8.1, "title": "The Art of Racing in the Rain", "release_date": "2019-08-08", "original_language": "en", "original_title": "The Art of Racing in the Rain", "genre_ids": [35, 18, 10749], "backdrop_path": "/6esNUoXh4xQvucB7o7e3TCfjI65.jpg", "adult": false, "overview": "A family dog\u2014with a near-human soul and a philosopher's mind\u2014evaluates his life through the lessons learned by his human owner, a race-car driver.", "poster_path": "/mi5VN4ww0JZgRFJIaPxxTGKjUg7.jpg", "popularity": 17.008}], "total_pages": 138, "total_results": 2757}, "recommendations": {"page": 1, "results": [{"adult": false, "backdrop_path": "/gs12ixull35vrgmxAR9uTLmfHkF.jpg", "genre_ids": [36, 12, 18], "id": 6966, "original_language": "en", "original_title": "The White Dawn", "overview": "Three stranded 1890s whalers (Warren Oates, Timothy Bottoms, Louis Gossett Jr.) corrupt the culture of their Eskimo saviors.", "poster_path": "/6UuHidWZ9v88mpwGvTs2uPS51hP.jpg", "release_date": "1974-07-21", "title": "The White Dawn", "video": false, "vote_average": 6.4, "vote_count": 7, "popularity": 2.783}, {"adult": false, "backdrop_path": "/8MtwhHy1EhB3RpR51kgjVS4YERj.jpg", "genre_ids": [99], "id": 332748, "original_language": "en", "original_title": "Very Semi-Serious", "overview": "The New Yorker is the benchmark for the single-panel cartoon. This light-hearted and sometimes poignant look at the art and humor of the iconic drawings shows why they have inspired and even baffled us for decades. Very Semi-Serious is a window into the minds of cartooning legends and hopefuls, including editor Bob Mankoff, shedding light onto how their humor evolves.", "poster_path": "/1HO8H2Gs9AiuxaJrz8Lym2cAybf.jpg", "release_date": "2015-04-19", "title": "Very Semi-Serious", "video": false, "vote_average": 6.7, "vote_count": 7, "popularity": 3.121}, {"adult": false, "backdrop_path": "/78og3GR3ieRZ3vrnG4o83dfWm8H.jpg", "genre_ids": [99], "id": 57337, "original_language": "en", "original_title": "Game Over: Kasparov and the Machine", "overview": "Garry Kasparov is possibly the greatest chess player who has ever lived. In 1997, he played a match against the greatest chess computer: IBM's Deep Blue. He lost. This film depicts the drama that happened away from the chess board from Kasparov's perspective. It explores the psychological aspects of the game and the paranoia surrounding IBM's ultimate chess machine.", "poster_path": "/wisqqJr1tBfoHugYibwOgfktgMT.jpg", "release_date": "2003-09-05", "title": "Game Over: Kasparov and the Machine", "video": false, "vote_average": 6.6, "vote_count": 16, "popularity": 2.561}, {"adult": false, "backdrop_path": "/nFZ3fgEZusPrfXPdtZKdVu700da.jpg", "genre_ids": [99], "id": 24738, "original_language": "en", "original_title": "A State of Mind", "overview": "Two young North Korean gymnasts prepare for an unprecedented competition in this documentary that offers a rare look into the communist society and the daily lives of North Korean families. For more than eight months, film crews follow 13-year-old Pak Hyon Sun and 11-year-old Kim Song Yun and their families as the girls train for the Mass Games, a spectacular nationalist celebration.", "poster_path": "/agfp0wFUCexS9cPXxrj95vKGBW1.jpg", "release_date": "2004-01-01", "title": "A State of Mind", "video": false, "vote_average": 7.8, "vote_count": 11, "popularity": 3.122}, {"id": 250700, "video": false, "vote_count": 43, "vote_average": 7.7, "title": "The Battered Bastards of Baseball", "release_date": "2014-01-20", "original_language": "en", "original_title": "The Battered Bastards of Baseball", "genre_ids": [99], "backdrop_path": "/n69X9lYlTRb31VHyELa3skQeDra.jpg", "adult": false, "overview": "Hollywood veteran Bing Russell creates the only independent baseball team in the country\u2014alarming the baseball establishment and sparking the meteoric rise of the 1970s Portland Mavericks.", "poster_path": "/rldgkiFaY4mC7gLNahUGngCMQH3.jpg", "popularity": 6.604}, {"adult": false, "backdrop_path": "/vgfW2Twz7556pgOjcW1OSdTd3Q0.jpg", "genre_ids": [35], "id": 454438, "original_language": "en", "original_title": "A Thousand Junkies", "overview": "Things grow more and more desperate, and ridiculous, as three heroin addicts drive all over Los Angeles in search of what they need.", "poster_path": "/3CDeoq64dNzgtJu8Rd1WTXq0lDm.jpg", "release_date": "2017-07-24", "title": "A Thousand Junkies", "video": false, "vote_average": 8.2, "vote_count": 6, "popularity": 2.008}, {"adult": false, "backdrop_path": "/nknsxtjKp7uMlPBIaxpLXSetd3X.jpg", "genre_ids": [99], "id": 253262, "original_language": "en", "original_title": "The Great Invisible", "overview": "Penetrating the oil industry's secretive world, The Great Invisible examines the Deepwater Horizon disaster through the eyes of oil executives, explosion survivors and Gulf Coast residents who were left to pick up the pieces when the world moved on.", "poster_path": "/qHRyY70lgJFO7fQ1YzlaiMTqwkn.jpg", "release_date": "2014-03-09", "title": "The Great Invisible", "video": false, "vote_average": 6.9, "vote_count": 10, "popularity": 4.063}], "total_pages": 1, "total_results": 7}, "credits": {"cast": [], "crew": [{"credit_id": "52fe4df99251416c911224d3", "department": "Directing", "gender": 0, "id": 1285810, "job": "Director", "name": "Jeffrey Radice", "profile_path": null}, {"credit_id": "52fe4df99251416c911224d9", "department": "Camera", "gender": 0, "id": 1285811, "job": "Director of Photography", "name": "John Fiege", "profile_path": "/nNwoo13npxhzhoqihMjBwyL7wd5.jpg"}, {"credit_id": "5589d6eac3a368290f000218", "department": "Sound", "gender": 2, "id": 124824, "job": "Music", "name": "Adam Horovitz", "profile_path": "/qBlg01YC7c31cVvxcrgXOKUqwXH.jpg"}]}}