{"adult": false, "backdrop_path": null, "belongs_to_collection": null, "budget": 0, "genres": [{"id": 99, "name": "Documentary"}, {"id": 35, "name": "Comedy"}], "homepage": null, "id": 252406, "imdb_id": "tt0040639", "original_language": "nl", "original_title": "Nederlands in 7 lessen", "overview": "A film-within-the-film scenario involving a cameraman who's given a week to photograph the aerial highlights of Holland for a travelogue.", "popularity": 2.394, "poster_path": "/d7bs6MqKz6JPawzKk55Fs7xjhJQ.jpg", "production_companies": [{"id": 19642, "logo_path": null, "name": "Dutch Independent", "origin_country": ""}], "production_countries": [{"iso_3166_1": "NL", "name": "Netherlands"}], "release_date": "1948-05-07", "revenue": 0, "runtime": 79, "spoken_languages": [{"iso_639_1": "nl", "name": "Nederlands"}, {"iso_639_1": "en", "name": "English"}], "status": "Released", "tagline": "", "title": "Dutch in Seven Lessons", "video": false, "vote_average": 0.0, "vote_count": 0, "keywords": {"keywords": [{"id": 9935, "name": "travel"}]}, "similar": {"page": 1, "results": [{"id": 260514, "video": false, "vote_count": 2944, "vote_average": 6.7, "title": "Cars 3", "release_date": "2017-06-15", "original_language": "en", "original_title": "Cars 3", "genre_ids": [12, 16, 35, 10751], "backdrop_path": "/rND0GSv8X2Zzs7VhyFAs9BCEmYE.jpg", "adult": false, "overview": "Blindsided by a new generation of blazing-fast racers, the legendary Lightning McQueen is suddenly pushed out of the sport he loves. To get back in the game, he will need the help of an eager young race technician with her own plan to win, inspiration from the late Fabulous Hudson Hornet, and a few unexpected turns. Proving that #95 isn't through yet will test the heart of a champion on Piston Cup Racing\u2019s biggest stage!", "poster_path": "/fyy1nDC8wm553FCiBDojkJmKLCs.jpg", "popularity": 27.277}, {"id": 390043, "video": false, "vote_count": 3455, "vote_average": 6.8, "title": "The Hitman's Bodyguard", "release_date": "2017-08-16", "original_language": "en", "original_title": "The Hitman's Bodyguard", "genre_ids": [28, 35], "backdrop_path": "/7KsqfXDECZMryX1Rv4RKsT7SIjQ.jpg", "adult": false, "overview": "The world top bodyguard gets a new client, a hit man who must testify at the International Court of Justice. They must put their differences aside and work together to make it to the trial on time.", "poster_path": "/5CGjlz2vyBhW5xHW4eNOZIdgzYq.jpg", "popularity": 34.388}, {"adult": false, "backdrop_path": "/yRXzrwLfB5tDTIA3lSU9S3N9RUK.jpg", "genre_ids": [35, 18], "id": 455980, "original_language": "en", "original_title": "Tag", "overview": "For one month every year, five highly competitive friends hit the ground running in a no-holds-barred game of tag they\u2019ve been playing since the first grade. This year, the game coincides with the wedding of their only undefeated player, which should finally make him an easy target. But he knows they\u2019re coming...and he\u2019s ready.", "poster_path": "/eXXpuW2xaq5Aen9N5prFlARVIvr.jpg", "release_date": "2018-05-30", "title": "Tag", "video": false, "vote_average": 6.7, "vote_count": 1565, "popularity": 25.32}, {"adult": false, "backdrop_path": null, "genre_ids": [99], "id": 493704, "original_language": "en", "original_title": "Papua and Kalabahai, Weird Haunts of Strange People", "overview": "An entry into James A. Fitzpatrick's Traveltalks series of one reel travelogues.", "poster_path": "/gHIjkXXy7oxxVvOq3i7wfoJlIWu.jpg", "release_date": "1933-09-09", "title": "Papua and Kalabahai, Weird Haunts of Strange People", "video": false, "vote_average": 0.0, "vote_count": 0, "popularity": 0.6}, {"id": 172385, "video": false, "vote_count": 1999, "vote_average": 6.4, "title": "Rio 2", "release_date": "2014-03-19", "original_language": "en", "original_title": "Rio 2", "genre_ids": [12, 16, 35, 10751], "backdrop_path": "/bRQPOVpvBmvep9WYnGcKguxjlg2.jpg", "adult": false, "overview": "It's a jungle out there for Blu, Jewel and their three kids after they're hurtled from Rio de Janeiro to the wilds of the Amazon. As Blu tries to fit in, he goes beak-to-beak with the vengeful Nigel, and meets the most fearsome adversary of all: his father-in-law.", "poster_path": "/jZcF7xZVvrX2A4qNOqeHpmtbdBT.jpg", "popularity": 19.292}, {"id": 9352, "video": false, "vote_count": 1362, "vote_average": 6.5, "title": "EuroTrip", "release_date": "2004-02-20", "original_language": "en", "original_title": "EuroTrip", "genre_ids": [35], "backdrop_path": "/9pR6mkJrWYCrewjWV1HgaXwL7pB.jpg", "adult": false, "overview": "When Scott learns that his longtime cyber-buddy from Berlin is a gorgeous young woman, he and his friends embark on a trip across Europe.", "poster_path": "/pes2HCVX60MNZZdUrKtgVNlv1ig.jpg", "popularity": 23.429}, {"adult": false, "backdrop_path": null, "genre_ids": [99], "id": 427540, "original_language": "en", "original_title": "Grand Canyon, Pride of Creation", "overview": "This Traveltalks entry begins with a short look at Arizona's Painted Desert. We then get two views of the Grand Canyon's majesty. The first is from the rim, looking down from an automobile. The second view is from within the canyon, where mules take tourists along the various trails.", "poster_path": null, "release_date": "1943-11-27", "title": "Grand Canyon, Pride of Creation", "video": false, "vote_average": 6.0, "vote_count": 1, "popularity": 1.491}, {"adult": false, "backdrop_path": null, "genre_ids": [10402, 99], "id": 298784, "original_language": "en", "original_title": "Safari Ya Gari", "overview": "This early travelogue film, made in a Kenyan train station, captures an impromptu musical performance. Some passengers eagerly join in while others sleep\u2014blissfully unaware of the performance taking place around them.", "poster_path": "/adLORYCAHzP54Bn1j50lF8z3eNU.jpg", "release_date": "1961-01-01", "title": "Safari Ya Gari", "video": false, "vote_average": 0.0, "vote_count": 0, "popularity": 1.091}, {"adult": false, "backdrop_path": null, "genre_ids": [99], "id": 614184, "original_language": "en", "original_title": "Sakura Petals: The Samurai", "overview": "In 'Sakura Petals: The Samurai' we leave to the South and we stop in Kurashiki, one of the few cities in Japan that was not bombed during the WW2, preserving its original architecture. Further we visit Okayama, with its reconstructed Crow Castle and the beautiful garden, one of the top three gardens in Japan. We go later to Nagasaki and visit the Memorial Park and its beautiful row of Buddhist temples, and to Hagi where is the best preserved samurai quarter and traditional houses. We end up the tour in the holy island of Miya Jima full of roaming deers, where is one of the most important Shinto shrines in Japan, watching in the night the tide covering the famous floating Tori.", "poster_path": "/l4qUMnYNFqdTjetIZc9EROIGLIf.jpg", "release_date": "2002-04-06", "title": "Sakura Petals: The Samurai", "video": false, "vote_average": 6.0, "vote_count": 1, "popularity": 0.6}, {"adult": false, "backdrop_path": null, "genre_ids": [99], "id": 614188, "original_language": "en", "original_title": "Tokyo City Guide", "overview": "Tokyo is a fascinating city of extremes, blending the old traditions with visions of the future and an extraordinary pace of life. A shock of skyscrapers and neon, it's a gleaming example of Japan's post World War II success. Traveller Ian Wright begins his stay by experiencing the spiritual side of Tokyo at the peace loving Senso-ji temple. After a gentle introduction he throws himself into the pace of the city and discovers some incredible technology and fashion! He then heads to Mount Fuji for a crowded climb to the summit, before ending his trip experiencing the infamous Tokyo nightlife.", "poster_path": "/vaNn2anaAc3bwA1OERRWnto9nPw.jpg", "release_date": "2005-11-01", "title": "Tokyo City Guide", "video": false, "vote_average": 7.0, "vote_count": 1, "popularity": 0.6}, {"adult": false, "backdrop_path": null, "genre_ids": [99], "id": 615953, "original_language": "en", "original_title": "Planet Food: Malaysia", "overview": "Malaysia's multiculturalism is unrivaled throughout Southeast Asia and is reflected in its cuisine. Roving foodie Merrilees Parker begins her journey on the Malaysian peninsula with the native Orang Asli people of Kelantan She then heads off to the stunning Islamic East coast to cook a rich curry using freshly caught mackerel. In the ancient spice capital of Melaka, Merrilees cooks up a storm with fiery Laksa soup in the style of the Nyonya. In the Cameron Highlands, 5,000 feet above sea level, there is a notable English influence. The island of Penang is Merilees' next stop then she visits the capital, Kuala Lumpur, one of the fastest growing cities in Southeast Asia.", "poster_path": "/g8R9F4XV09aZFDOBpIUaWVBdTVm.jpg", "release_date": "2012-02-20", "title": "Planet Food: Malaysia", "video": false, "vote_average": 7.0, "vote_count": 1, "popularity": 0.6}, {"adult": false, "backdrop_path": null, "genre_ids": [99, 36], "id": 615955, "original_language": "en", "original_title": "Globe Trekker: Chinatown", "overview": "In this special edition of Globe Trekker Chinatown, Lavinia Tan, Justine Shapiro and Megan McCormick travel worldwide to explore the magic and mystery of Chinatowns across the globe. Lavinia Tan begins the journey in Malaysia and Singapore where overseas traders led the earliest migrations of Chinese people. The journey continues from there to the United States, where Justine Shapiro visits San Francisco. Megan McCormick explores New York s Lower East Side, home to the largest Chinatown in the Western Hemisphere. After a short trip to London s Soho district, Lavinia Tan ends this journey with a visit to Hong Kong exploring the world famous film industry and the 21st century migration of Chinese back to their homeland.", "poster_path": "/xKpWnGwqq6YZlx0K91GsvGXRLY5.jpg", "release_date": "2007-04-02", "title": "Globe Trekker: Chinatown", "video": false, "vote_average": 7.0, "vote_count": 1, "popularity": 0.622}, {"adult": false, "backdrop_path": null, "genre_ids": [99], "id": 613277, "original_language": "en", "original_title": "Rudy Maxa's World: Hong Kong & Bangkok", "overview": "Beginning with a private, rolling party on board one of Hong Kong's iconic streetcars, travel journalist Rudy Maxa and former chef and now Washington, D.C. restaurateur Daisuke Utagawa lead viewers through on of the worlds most exciting cities. Hong Kong takes cuisine from around the world and makes it its own. Explore the cuisine as well as the mostly unknown, lush side of Hong Kong where hiking trails and beaches rule. Bangkok - In a city where the weather is always hot, it is natural that residents spend so much time eating outside. Street food rules the capital of Thailand, and no visitor should miss the opportunity to follow local custom. Utagawa and Maxa taste their way through the city while exploring the Klongs (canals) and temples that make Bangkok a visitors paradise.", "poster_path": "/mPzl63h7Nw174CIOL3nuJ1bwR3p.jpg", "release_date": "2018-08-19", "title": "Rudy Maxa's World: Hong Kong & Bangkok", "video": false, "vote_average": 7.0, "vote_count": 1, "popularity": 0.6}, {"adult": false, "backdrop_path": null, "genre_ids": [99], "id": 613934, "original_language": "en", "original_title": "Central Japan", "overview": "Join Megan McCormick on a journey of discovery across Japan's spectacular heartland starting in Japan's beautiful former capital Kyoto. She explores Buddhist temples, World Heritage Sites, and bargains at the city's best flea market. She then travels to Osaka, and Iga-Ueno, a former ninja stronghold, where she learns the secrets of these famously skilled assailants. She also visits the remote Sado Island and Himeji.", "poster_path": "/c5zgRQ0D7k7GwPn20BC6hPJ4CxQ.jpg", "release_date": "2014-07-30", "title": "Central Japan", "video": false, "vote_average": 7.0, "vote_count": 1, "popularity": 0.6}, {"adult": false, "backdrop_path": null, "genre_ids": [99], "id": 611883, "original_language": "en", "original_title": "Rudy Maxa's World Exotic Places: Japan", "overview": "Travel journalist Rudy Maxa and Washington, D.C. restaurateur Daisuke Utagawa present three distinct regions of Japan, focusing on the nation's food and food producers. From the ramen of the northern island of Hokkaido, to the sushi of Tokyo, to the Wagyu beef raised on the southern island of Kyushu, food is a window on the soul of Japan.", "poster_path": "/pNzjgpw5xzVOixuw4XiUewF5HvA.jpg", "release_date": "2017-10-05", "title": "Rudy Maxa's World Exotic Places: Japan", "video": false, "vote_average": 7.0, "vote_count": 1, "popularity": 0.6}, {"adult": false, "backdrop_path": null, "genre_ids": [99], "id": 613061, "original_language": "en", "original_title": "Rudy Maxa's World Exotic Places: Tokyo, Japan", "overview": "Rudy can't get enough of the sheer vitality of Tokyo. Exciting, edgy, and full of life, Tokyo is shopping madness by day and a carnival at night. Join the throngs at one of the world's most exciting street intersections to witness its blazing neon and JumboTron shows. Greet the new day at the Tsukiji fish market, where a staggering 2,000 tons of seafood pass through each day. Get caught up in cherry blossom mania, visit distant neighborhoods via the subway, and wander the streets in search of new restaurants, a Tokyo obsession!", "poster_path": "/pW6GtFXB814DiT2MSCVw2s3x7II.jpg", "release_date": "2009-08-25", "title": "Rudy Maxa's World Exotic Places: Tokyo, Japan", "video": false, "vote_average": 7.0, "vote_count": 1, "popularity": 0.6}, {"adult": false, "backdrop_path": null, "genre_ids": [99], "id": 613697, "original_language": "en", "original_title": "Alternate Routes Tokyo", "overview": "Tokyo International travelers brave constant rain and still have a great experience in one of the world's largest cities. The backpackers learn about Japan's fascinating history at the Edo and war memorial museums before heading to the world's largest fish market. Partying in several of the incredible nightlife areas of Tokyo opens their eyes to the unique Japanese youth culture. Experience the rush of traveling the world for the first time with a crew of international back-packers, ages 16 - 22 on their quest for adventure, romance and the perfect moment.", "poster_path": "/hUqEb0PkKEunnJEv5EUbxiAb6ou.jpg", "release_date": "2010-04-06", "title": "Alternate Routes Tokyo", "video": false, "vote_average": 6.0, "vote_count": 1, "popularity": 0.624}, {"adult": false, "backdrop_path": null, "genre_ids": [99], "id": 613699, "original_language": "en", "original_title": "Planet Food: Japan", "overview": "Merrilees Parker travels to Japan to learn about its unique food culture. She begins her journey in Tokyo, at Tsukiji, the world's biggest fish market. Master chef, Romeo teaches her how to make the ultimate sushi, an art that takes years to master. Then it's off to a ramen museum, where you can try various regional styles of the noodle soup. Escaping the city, Merrilees takes the bullet train to Matsusaka where she visits a farm that produces the most expensive beef in the world. She also visits Kyoto and Mount Fuji for the annual Summer Fire Festival to gorge herself on wonderful street food.", "poster_path": "/ub9OnFsPo5cBZ0zejX3r9wzsHJw.jpg", "release_date": "2012-02-20", "title": "Planet Food: Japan", "video": false, "vote_average": 7.0, "vote_count": 1, "popularity": 0.6}, {"adult": false, "backdrop_path": null, "genre_ids": [99], "id": 614377, "original_language": "en", "original_title": "Globe Trekker: Hong Kong and Taiwan", "overview": "Hong Kong and Taiwan are 2 islands inextricably linked by their huge neighbour. Modern metropolises full of eastern traditions, they're forging forward in the 21st century as China's little dragons. Traveller Megan McCormick begins her journey in Hong Kong, looking out at the incredible skyline from Victoria Peak. She then takes in the contrasts of the city before taking the ferry visit Tap Mum Chau and Lantau Island. After a flight to Taiwan she explores the capital Taipei, ending her trip with a visit to its most remote outpost - Orchid Island.", "poster_path": "/1oa3RB1fY398bcgeUKKGtmJurwT.jpg", "release_date": "2005-11-01", "title": "Globe Trekker: Hong Kong and Taiwan", "video": false, "vote_average": 7.0, "vote_count": 1, "popularity": 0.6}, {"adult": false, "backdrop_path": "/3LoAMMb2r4caXry5wwHKxXuatHF.jpg", "genre_ids": [99], "id": 618217, "original_language": "en", "original_title": "Beirut City Guide", "overview": "Beirut, Lebanon's capital has a long history of political and social unrest that still makes headlines today. Globe Trekker's Beirut City Guide captures the city in more optimistic days, two weeks before the latest outbreak of hostilities in Lebanon between Israeli and Hezbollah forces in July 2006. Globe Trekker Megan McCormick explores the neighborhoods of Basta, Solidere, Gemayze and the Hezbollah District and finds a city in the midst of regeneration. She gets a glimpse at Beirut's future when meeting up with a group of young Arabic hip hop artists, who are eager to live in peace and put the country's political troubles in the past.", "poster_path": "/pEd020W77ACZDINqVCXy7wDaRpW.jpg", "release_date": "2007-05-01", "title": "Beirut City Guide", "video": false, "vote_average": 7.0, "vote_count": 1, "popularity": 0.6}], "total_pages": 19, "total_results": 370}, "recommendations": {"page": 1, "results": [], "total_pages": 1, "total_results": 0}, "credits": {"cast": [{"cast_id": 1, "character": "KLM stewardess", "credit_id": "52fe4e3d9251416c9112afb1", "gender": 1, "id": 1932, "name": "Audrey Hepburn", "order": 0, "profile_path": "/hwPHPRz7YqmcRAlvhag5VPeoaoC.jpg"}, {"cast_id": 5, "character": "Koos Koen", "credit_id": "52fe4e3d9251416c9112afc7", "gender": 0, "id": 1290013, "name": "Wam Heskes", "order": 1, "profile_path": null}, {"cast_id": 6, "character": "", "credit_id": "52fe4e3d9251416c9112afcb", "gender": 0, "id": 1290015, "name": "Han Bentz van den Berg", "order": 2, "profile_path": null}, {"cast_id": 7, "character": "", "credit_id": "52fe4e3d9251416c9112afcf", "gender": 0, "id": 1290016, "name": "Magda Janssens", "order": 3, "profile_path": null}, {"cast_id": 8, "character": "", "credit_id": "52fe4e3d9251416c9112afd3", "gender": 0, "id": 1290017, "name": "Els Boon", "order": 4, "profile_path": null}, {"cast_id": 9, "character": "", "credit_id": "52fe4e3d9251416c9112afd7", "gender": 0, "id": 1290018, "name": "Jan Glastra van Loon", "order": 5, "profile_path": null}, {"cast_id": 10, "character": "KLM pilot", "credit_id": "52fe4e3d9251416c9112afdb", "gender": 0, "id": 1290019, "name": "A. Viruly", "order": 6, "profile_path": null}, {"cast_id": 11, "character": "", "credit_id": "52fe4e3d9251416c9112afdf", "gender": 0, "id": 1290020, "name": "Frances May", "order": 7, "profile_path": null}, {"cast_id": 12, "character": "George", "credit_id": "52fe4e3d9251416c9112afe3", "gender": 0, "id": 1290021, "name": "Koos Koon", "order": 8, "profile_path": null}], "crew": [{"credit_id": "52fe4e3d9251416c9112afc3", "department": "Editing", "gender": 0, "id": 1020770, "job": "Editor", "name": "Rita Roland", "profile_path": null}, {"credit_id": "52fe4e3d9251416c9112afb7", "department": "Directing", "gender": 0, "id": 1278333, "job": "Director", "name": "Charles Huguenot van der Linden", "profile_path": null}, {"credit_id": "52fe4e3d9251416c9112b00d", "department": "Production", "gender": 0, "id": 1278333, "job": "Producer", "name": "Charles Huguenot van der Linden", "profile_path": null}, {"credit_id": "52fe4e3d9251416c9112afbd", "department": "Writing", "gender": 0, "id": 1278333, "job": "Writer", "name": "Charles Huguenot van der Linden", "profile_path": null}, {"credit_id": "52fe4e3d9251416c9112afe9", "department": "Directing", "gender": 0, "id": 1290022, "job": "Director", "name": "Heinz Josephson", "profile_path": null}, {"credit_id": "52fe4e3d9251416c9112b013", "department": "Production", "gender": 0, "id": 1290022, "job": "Producer", "name": "Heinz Josephson", "profile_path": null}, {"credit_id": "52fe4e3d9251416c9112afef", "department": "Writing", "gender": 0, "id": 1290022, "job": "Writer", "name": "Heinz Josephson", "profile_path": null}, {"credit_id": "52fe4e3d9251416c9112aff5", "department": "Crew", "gender": 0, "id": 1290023, "job": "Cinematography", "name": "Piet Schrikker", "profile_path": null}, {"credit_id": "52fe4e3d9251416c9112affb", "department": "Crew", "gender": 0, "id": 1290024, "job": "Cinematography", "name": "Peter Staugaard", "profile_path": null}, {"credit_id": "52fe4e3d9251416c9112b001", "department": "Production", "gender": 0, "id": 1290025, "job": "Producer", "name": "Jack Dudok van Heel", "profile_path": null}, {"credit_id": "52fe4e3d9251416c9112b007", "department": "Production", "gender": 0, "id": 1290026, "job": "Producer", "name": "Harold Goodwin", "profile_path": null}, {"credit_id": "52fe4e3d9251416c9112b019", "department": "Production", "gender": 0, "id": 1290027, "job": "Producer", "name": "George Julsing", "profile_path": null}]}}