{"adult": false, "backdrop_path": "/nWbASG2iOWnyj40QGrfDDDpLrHb.jpg", "belongs_to_collection": {"id": 522048, "name": "Sherlock Holmes (Matt Frewer) Collection", "poster_path": "/3aurO1N7hywYlRXJJKIZtPyBHnN.jpg", "backdrop_path": "/mQaN0BrITQIwQHGYoEmASvXA7jS.jpg"}, "budget": 0, "genres": [{"id": 80, "name": "Crime"}, {"id": 18, "name": "Drama"}, {"id": 9648, "name": "Mystery"}, {"id": 53, "name": "Thriller"}], "homepage": null, "id": 25293, "imdb_id": "tt0264695", "original_language": "en", "original_title": "The Hound of the Baskervilles", "overview": "The mysterious death of Sir Charles Baskerville is blamed on a longstanding curse that has followed the Baskerville family for two hundred years. Enigmatic sleuth Sherlock Holmes is on the case to uncover the truth about a monstrous, supernatural hound who roams the moors, waiting to attack the latest heir to the Baskerville estate. Written by Echo Bridge Home Entertainment", "popularity": 6.718, "poster_path": "/ywM6951OsC1RfkWhfj6LMbGvSCt.jpg", "production_companies": [], "production_countries": [{"iso_3166_1": "CA", "name": "Canada"}], "release_date": "2000-10-28", "revenue": 0, "runtime": 90, "spoken_languages": [{"iso_639_1": "en", "name": "English"}], "status": "Released", "tagline": "", "title": "The Hound of the Baskervilles", "video": false, "vote_average": 6.4, "vote_count": 17, "keywords": {"keywords": [{"id": 703, "name": "detective"}, {"id": 9401, "name": "sherlock holmes"}, {"id": 10541, "name": "curse"}]}, "similar": {"page": 1, "results": [{"adult": false, "backdrop_path": "/3TCPWrxQkfon82xPNtmpweOSVJc.jpg", "genre_ids": [18, 80, 9648, 10749, 53], "id": 12150, "original_language": "en", "original_title": "Sea of Love", "overview": "Seen-it-all New York detective Frank Keller is unsettled - he has done twenty years on the force and could retire, and he hasn't come to terms with his wife leaving him for a colleague. Joining up with an officer from another part of town to investigate a series of murders linked by the lonely hearts columns he finds he is getting seriously and possibly dangerously involved with Helen, one of the main suspects.", "poster_path": "/7DkkTHIX3hUqvsRv5sDmJAkCfKK.jpg", "release_date": "1989-09-15", "title": "Sea of Love", "video": false, "vote_average": 6.7, "vote_count": 289, "popularity": 11.238}, {"adult": false, "backdrop_path": "/t3OZS8yMs0NL4YgWWc04eXHTn1X.jpg", "genre_ids": [28, 80, 53], "id": 984, "original_language": "en", "original_title": "Dirty Harry", "overview": "When a madman dubbed 'Scorpio' terrorizes San Francisco, hard-nosed cop, Harry Callahan \u2013 famous for his take-no-prisoners approach to law enforcement \u2013 is tasked with hunting down the psychopath. Harry eventually collars Scorpio in the process of rescuing a kidnap victim, only to see him walk on technicalities. Now, the maverick detective is determined to nail the maniac himself.", "poster_path": "/2TADKc4GMMPdMrLXj0xJVgTvZJM.jpg", "release_date": "1971-12-21", "title": "Dirty Harry", "video": false, "vote_average": 7.5, "vote_count": 1172, "popularity": 15.928}, {"id": 807, "video": false, "vote_count": 11928, "vote_average": 8.3, "title": "Se7en", "release_date": "1995-09-22", "original_language": "en", "original_title": "Se7en", "genre_ids": [80, 9648, 53], "backdrop_path": "/A0WKbRIojF9DUWG4XLCmg5JK6I5.jpg", "adult": false, "overview": "Two homicide detectives are on a desperate hunt for a serial killer whose crimes are based on the \"seven deadly sins\" in this dark and haunting film that takes viewers from the tortured remains of one victim to the next. The seasoned Det. Sommerset researches each sin in an effort to get inside the killer's mind, while his novice partner, Mills, scoffs at his efforts to unravel the case.", "poster_path": "/8zw8IL4zEPjkh8Aysdcd0FwGMb0.jpg", "popularity": 39.113}, {"id": 1847, "video": false, "vote_count": 259, "vote_average": 7.4, "title": "The Long Goodbye", "release_date": "1973-03-07", "original_language": "en", "original_title": "The Long Goodbye", "genre_ids": [80, 18, 9648, 53], "backdrop_path": "/brm75bRffmi2SlsUmsHUxUVI1Hg.jpg", "adult": false, "overview": "Detective Philip Marlowe tries to help a friend who is accused of murdering his wife.", "poster_path": "/oBhUK54yBJ0aH6u9zCzSV5iV7OP.jpg", "popularity": 10.68}, {"id": 1939, "video": false, "vote_count": 362, "vote_average": 7.7, "title": "Laura", "release_date": "1944-10-11", "original_language": "en", "original_title": "Laura", "genre_ids": [18, 9648], "backdrop_path": "/rZJ20gFLsztneVJPRn2ockZO3uP.jpg", "adult": false, "overview": "A police detective falls in love with the woman whose murder he's investigating.", "poster_path": "/utpUn9TdBIx6x2QX91YhYzFZxg1.jpg", "popularity": 13.086}, {"adult": false, "backdrop_path": "/2zh06EWekQWzlxa4jpFKRuXEtgf.jpg", "genre_ids": [80, 18, 28, 53], "id": 9411, "original_language": "en", "original_title": "Fallen", "overview": "Homicide detective John Hobbes witnesses the execution of serial killer Edgar Reese. Soon after the execution the killings start again, and they are very similar to Reese's style.", "poster_path": "/v66GrbKcl1babq8BebUff0MI3m4.jpg", "release_date": "1998-01-16", "title": "Fallen", "video": false, "vote_average": 6.8, "vote_count": 674, "popularity": 18.647}, {"id": 75780, "video": false, "vote_count": 4450, "vote_average": 6.4, "title": "Jack Reacher", "release_date": "2012-12-20", "original_language": "en", "original_title": "Jack Reacher", "genre_ids": [28, 80, 18, 53], "backdrop_path": "/ezXodpP429qK0Av89pVNlaXWJkQ.jpg", "adult": false, "overview": "When a gunman takes five lives with six shots, all evidence points to the suspect in custody. On interrogation, the suspect offers up a single note: \"Get Jack Reacher!\" So begins an extraordinary chase for the truth, pitting Jack Reacher against an unexpected enemy, with a skill for violence and a secret to keep.", "poster_path": "/mt0ELw83HIRgaKaDzhsDcIi0RnW.jpg", "popularity": 19.929}, {"adult": false, "backdrop_path": "/7RRuRcGuWkZGuRyYugfXn0Fgrrr.jpg", "genre_ids": [28, 80, 18, 53], "id": 949, "original_language": "en", "original_title": "Heat", "overview": "Obsessive master thief, Neil McCauley leads a top-notch crew on various daring heists throughout Los Angeles while determined detective, Vincent Hanna pursues him without rest. Each man recognizes and respects the ability and the dedication of the other even though they are aware their cat-and-mouse game may end in violence.", "poster_path": "/6pmLVffM9jEYK7VqDJqPblMxfEY.jpg", "release_date": "1995-12-15", "title": "Heat", "video": false, "vote_average": 7.8, "vote_count": 3610, "popularity": 21.48}, {"adult": false, "backdrop_path": "/khzRw7ZDE3NIrYpe0RYyB864FPT.jpg", "genre_ids": [80, 28, 53], "id": 189, "original_language": "en", "original_title": "Sin City: A Dame to Kill For", "overview": "Some of Sin City's most hard-boiled citizens cross paths with a few of its more reviled inhabitants.", "poster_path": "/k80qKrJ0qQ6ocVo5N932stNSg6j.jpg", "release_date": "2014-08-20", "title": "Sin City: A Dame to Kill For", "video": false, "vote_average": 6.3, "vote_count": 2422, "popularity": 26.881}, {"id": 4771, "video": false, "vote_count": 2133, "vote_average": 7.3, "title": "Gone Baby Gone", "release_date": "2007-09-18", "original_language": "en", "original_title": "Gone Baby Gone", "genre_ids": [80, 18, 9648], "backdrop_path": "/sogh5NXPbKFajjYKBlfIBfCWgbq.jpg", "adult": false, "overview": "When 4 year old Amanda McCready disappears from her home and the police make little headway in solving the case, the girl's aunt, Beatrice McCready hires two private detectives, Patrick Kenzie and Angie Gennaro. The detectives freely admit that they have little experience with this type of case, but the family wants them for two reasons - they're not cops and they know the tough neighborhood in which they all live. As the case progresses, Kenzie and Gennaro face drug dealers, gangs and pedophiles. When they are about to solve the case, they are faced with a moral dilemma that tears them apart.", "poster_path": "/dXXMPxGiRegd7NNCtE5uchAKRAG.jpg", "popularity": 15.301}, {"adult": false, "backdrop_path": "/uUYCUbgI5VxsUflTMI4Y9L2Y6vb.jpg", "genre_ids": [80, 18, 53], "id": 11423, "original_language": "ko", "original_title": "\uc0b4\uc778\uc758 \ucd94\uc5b5", "overview": "1986 Gyunggi Province. The body of a young woman is found brutally raped and murdered. Two months later, a series of rapes and murders commences under similar circumstances. And in a country that had never known such crimes, the dark whispers about a serial murderer grow louder. A special task force is set up in the area, with two local detectives Park Doo-Man and Jo Young-Goo joined by a detective from Seoul who requested to be assigned to the case.", "poster_path": "/gawnVe9cFowdoDLo9Pok12NTw39.jpg", "release_date": "2003-05-02", "title": "Memories of Murder", "video": false, "vote_average": 8.1, "vote_count": 1093, "popularity": 16.342}, {"adult": false, "backdrop_path": "/v761yOHKO3p6Yr7LDCjud6tUL5G.jpg", "genre_ids": [28, 80, 53], "id": 10651, "original_language": "en", "original_title": "The Dead Pool", "overview": "Dirty Harry Callahan returns for his final film adventure. Together with his partner Al Quan, he must investigate the systematic murder of actors and musicians. By the time Harry learns that the murders are a part of a sick game to predict the deaths of celebrities before they happen, it may be too late...", "poster_path": "/9ZUSqox9lIxN4xaYBac2QXMFcZj.jpg", "release_date": "1988-07-12", "title": "The Dead Pool", "video": false, "vote_average": 6.4, "vote_count": 389, "popularity": 14.171}, {"id": 8090, "video": false, "vote_count": 446, "vote_average": 6.0, "title": "Untraceable", "release_date": "2008-01-22", "original_language": "en", "original_title": "Untraceable", "genre_ids": [9648, 53], "backdrop_path": "/eXuIPt9I1xuaVddlgzEQRC2EMnJ.jpg", "adult": false, "overview": "Special Agent Jennifer Marsh (Diane Lane) works in an elite division of the FBI dedicated to fighting cybercrime. She thinks she has seen it all, until a particularly sadistic criminal arises on the Internet. This tech-savvy killer posts live feeds of his crimes on his website; the more hits the site gets, the faster the victim dies. Marsh and her team must find the elusive killer before time runs out.", "poster_path": "/ySUwDRDEn01lKIMPQorpFCMLWqE.jpg", "popularity": 14.186}, {"id": 1923, "video": false, "vote_count": 970, "vote_average": 7.3, "title": "Twin Peaks: Fire Walk with Me", "release_date": "1992-06-03", "original_language": "en", "original_title": "Twin Peaks: Fire Walk with Me", "genre_ids": [18, 9648], "backdrop_path": "/bGyusx5LtsTLbyAq0ow1DrdE7K6.jpg", "adult": false, "overview": "In the questionable town of Deer Meadow, Washington, FBI Agent Desmond inexplicably disappears while hunting for the man who murdered a teen girl. The killer is never apprehended, and, after experiencing dark visions and supernatural encounters, Agent Dale Cooper chillingly predicts that the culprit will claim another life. Meanwhile, in the more cozy town of Twin Peaks, hedonistic beauty Laura Palmer hangs with lowlifes and seems destined for a grisly fate.", "poster_path": "/tOQekTHJmVCgfUYXTb6dLAu6l8W.jpg", "popularity": 16.782}, {"id": 60670, "video": false, "vote_count": 764, "vote_average": 6.9, "title": "The Crimson Rivers", "release_date": "2000-09-26", "original_language": "fr", "original_title": "Les Rivi\u00e8res pourpres", "genre_ids": [80, 9648, 53], "backdrop_path": "/pXmMiqordTEbRTDNlKPnyielNVA.jpg", "adult": false, "overview": "Two French policemen, one investigating a grisly murder at a remote mountain college, the other working on the desecration of a young girl's grave by skinheads, are brought together by the clues from their respective cases. Soon after they start working together, more murders are committed, and the pair begin to discover just what dark secrets are behind the killings.", "poster_path": "/kkRgQST0bEdEgqpPZMGaUB1twsQ.jpg", "popularity": 13.121}, {"id": 293670, "video": false, "vote_count": 668, "vote_average": 7.2, "title": "The Wailing", "release_date": "2016-05-12", "original_language": "ko", "original_title": "\uace1\uc131", "genre_ids": [27, 9648, 53], "backdrop_path": "/pthuMQIXSRDdGGS8p6n6IG21ZRJ.jpg", "adult": false, "overview": "A stranger arrives in a little village and soon after a mysterious sickness starts spreading. A policeman is drawn into the incident and is forced to solve the mystery in order to save his daughter.", "poster_path": "/aijmq2I4O8zZrJtqAZm6o4tOM6g.jpg", "popularity": 12.489}, {"id": 573, "video": false, "vote_count": 364, "vote_average": 7.1, "title": "Frenzy", "release_date": "1972-05-25", "original_language": "en", "original_title": "Frenzy", "genre_ids": [80, 27, 53], "backdrop_path": "/szCaGTZQEHlgrNdPryLAIg9WGFS.jpg", "adult": false, "overview": "After a serial killer strangles several women with a necktie, London police identify a suspect\u2014but he's the wrong man.", "poster_path": "/4SFvqrlSigAt9tnhXFSMyKeJWQk.jpg", "popularity": 13.227}, {"adult": false, "backdrop_path": "/feZlULeOhSRLz23ZXUeDX3Dl2dS.jpg", "genre_ids": [80, 53, 9648], "id": 17494, "original_language": "en", "original_title": "Unlawful Entry", "overview": "After a break-in at their house, a couple gets help from one of the cops that answered their call. He helps them install the security system, and begins dropping by on short notice and unofficial patrol, and spends a lot of time discussing the couple's problems with the wife. The husband begins wondering if they're getting too much help.", "poster_path": "/sKUk1ca6gHaIopi8VqE8GoxJq6J.jpg", "release_date": "1992-06-26", "title": "Unlawful Entry", "video": false, "vote_average": 6.1, "vote_count": 121, "popularity": 9.938}, {"adult": false, "backdrop_path": "/arcpWGGnUkGkakOwZo7xfPsaz7h.jpg", "genre_ids": [9648, 53], "id": 2832, "original_language": "en", "original_title": "Identity", "overview": "Complete strangers stranded at a remote desert motel during a raging storm soon find themselves the target of a deranged murderer. As their numbers thin out, the travelers begin to turn on each other, as each tries to figure out who the killer is.", "poster_path": "/xSNSp2wmCUwFavxdkMF417hBc39.jpg", "release_date": "2003-04-25", "title": "Identity", "video": false, "vote_average": 7.2, "vote_count": 2089, "popularity": 15.517}, {"id": 1949, "video": false, "vote_count": 5158, "vote_average": 7.5, "title": "Zodiac", "release_date": "2007-03-02", "original_language": "en", "original_title": "Zodiac", "genre_ids": [80, 18, 9648, 53], "backdrop_path": "/jP2htGBHE7vKq4MLeC75UeC0sZH.jpg", "adult": false, "overview": "The true story of the investigation of the \"Zodiac Killer\", a serial killer who terrified the San Francisco Bay Area, taunting police with his ciphers and letters. The case becomes an obsession for three men as their lives and careers are built and destroyed by the endless trail of clues.", "poster_path": "/bgLyOROfFQI3FqYL7jQbiaV8lkN.jpg", "popularity": 21.354}], "total_pages": 370, "total_results": 7391}, "recommendations": {"page": 1, "results": [], "total_pages": 1, "total_results": 0}, "credits": {"cast": [{"cast_id": 1, "character": "Sherlock Holmes", "credit_id": "52fe44c1c3a368484e03504d", "gender": 2, "id": 40009, "name": "Matt Frewer", "order": 0, "profile_path": "/5yQeoDfwsSOnO8H2g8UjPLg6buG.jpg"}, {"cast_id": 2, "character": "Dr. Watson", "credit_id": "52fe44c1c3a368484e035051", "gender": 2, "id": 6074, "name": "Kenneth Welsh", "order": 1, "profile_path": "/q44fb9FLrA9ZWzP8xGv6PcX24V6.jpg"}, {"cast_id": 3, "character": "Sir Henry", "credit_id": "52fe44c1c3a368484e035055", "gender": 2, "id": 52474, "name": "Jason London", "order": 2, "profile_path": "/bFkC2ZRcurTQzbjBuuMljFCKfEv.jpg"}, {"cast_id": 4, "character": "Beryl", "credit_id": "52fe44c1c3a368484e035059", "gender": 1, "id": 51538, "name": "Emma Campbell", "order": 3, "profile_path": "/jvjXhnjuIfPEiPM7lNB7ATJH9Kn.jpg"}, {"cast_id": 14, "character": "Dr. Mortimer", "credit_id": "5905c8d0c3a3684a6801c520", "gender": 2, "id": 179421, "name": "Gordon Masten", "order": 4, "profile_path": "/oeVhRruDyodXDJPsJSpmpNLbTqh.jpg"}, {"cast_id": 15, "character": "Stapleton", "credit_id": "5905c8e1c3a3684af001a672", "gender": 0, "id": 1142866, "name": "Robin Wilcock", "order": 5, "profile_path": "/uQVUewxDrNQF2M1TvbZlJeGDwv5.jpg"}, {"cast_id": 16, "character": "Mr. Barrymore", "credit_id": "5905c8f192514169d801c9b7", "gender": 0, "id": 115596, "name": "Arthur Holden", "order": 6, "profile_path": "/y0aCeMJKAzVJO3pydEiVCV2Ca4k.jpg"}, {"cast_id": 17, "character": "Mrs. Barrymore", "credit_id": "5905c90492514169e101cc2e", "gender": 1, "id": 90461, "name": "Leni Parker", "order": 7, "profile_path": "/4fjzruUJHV5EvTwOipQZ92qg7Td.jpg"}, {"cast_id": 18, "character": "Sir Hugo (as Benoit Gauthier)", "credit_id": "5905c91892514169b801c373", "gender": 0, "id": 1785110, "name": "Ben Gauthier", "order": 8, "profile_path": null}, {"cast_id": 19, "character": "Frankland", "credit_id": "5905c92a9251416a1401d167", "gender": 2, "id": 218899, "name": "John Dunn-Hill", "order": 9, "profile_path": "/bP61W9unS9EzRPAFXtXsensJOMi.jpg"}, {"cast_id": 20, "character": "Perkins", "credit_id": "5905c93bc3a3684ad701c940", "gender": 2, "id": 51389, "name": "Joe Cobden", "order": 10, "profile_path": "/kTf7OtOY1qBPmEbc4Kky9uMN58K.jpg"}, {"cast_id": 21, "character": "Seldon", "credit_id": "5905c94dc3a3684a7601b028", "gender": 2, "id": 30617, "name": "Jason Cavalier", "order": 11, "profile_path": "/vziXaR1oew6TwRMqc8G1oNH2IxS.jpg"}, {"cast_id": 22, "character": "Mrs. Laura Lyons", "credit_id": "5905c960c3a3684af001a6d7", "gender": 1, "id": 198630, "name": "Linda E. Smith", "order": 12, "profile_path": "/q1I8x4LNp3LYblqEgRecWECi5HO.jpg"}, {"cast_id": 23, "character": "Sir Charles (as Barrie Baldaro)", "credit_id": "5905c97a92514169c001caf9", "gender": 0, "id": 98480, "name": "Barry Baldaro", "order": 13, "profile_path": null}, {"cast_id": 24, "character": "Maiden", "credit_id": "5905c98e92514169fb01d5b5", "gender": 1, "id": 207880, "name": "Nathalie Girard", "order": 14, "profile_path": null}, {"cast_id": 25, "character": "Grimpen Man #1", "credit_id": "5905c9a1c3a3684af001a70f", "gender": 2, "id": 306574, "name": "Greg Kramer", "order": 15, "profile_path": "/oyqzMZ5cpsAEOGihB9aj3GXhJrj.jpg"}], "crew": [{"credit_id": "52fe44c1c3a368484e03505f", "department": "Directing", "gender": 2, "id": 56983, "job": "Director", "name": "Rodney Gibbons", "profile_path": null}, {"credit_id": "5905c829c3a3684ad701c865", "department": "Writing", "gender": 2, "id": 29055, "job": "Author", "name": "Joe Wiesenfeld", "profile_path": null}, {"credit_id": "5905c839c3a3684af001a5eb", "department": "Production", "gender": 0, "id": 82506, "job": "Producer", "name": "Irene Litinsky", "profile_path": null}, {"credit_id": "5905c84a92514169d801c937", "department": "Production", "gender": 0, "id": 1611808, "job": "Producer", "name": "Pedro Gandol", "profile_path": null}, {"credit_id": "5905c876c3a3684ab401d48c", "department": "Sound", "gender": 0, "id": 938280, "job": "Music Editor", "name": "Marc Ouellette", "profile_path": null}, {"credit_id": "5905c81a92514169fb01d478", "department": "Writing", "gender": 2, "id": 25167, "job": "Author", "name": "Arthur Conan Doyle", "profile_path": "/c5A6KV9sxIT40aveuz9T40vPvHw.jpg"}, {"credit_id": "5905c859c3a3684a7601af61", "department": "Production", "gender": 2, "id": 58175, "job": "Producer", "name": "Michael Prupas", "profile_path": null}, {"credit_id": "5905c88c92514169d801c966", "department": "Camera", "gender": 2, "id": 110926, "job": "Director of Photography", "name": "Eric Cayla", "profile_path": null}, {"credit_id": "5905c89d92514169d001c3fc", "department": "Editing", "gender": 0, "id": 1515637, "job": "Editor", "name": "Vidal B\u00e9\u00efque", "profile_path": null}]}}