{"adult": false, "backdrop_path": "/5L1gibiVoCl4gU3r1czOmkK0zie.jpg", "belongs_to_collection": null, "budget": 0, "genres": [{"id": 18, "name": "Drama"}], "homepage": "http://sheslostcontrolmovie.com/", "id": 253282, "imdb_id": "tt3130776", "original_language": "en", "original_title": "She's Lost Control", "overview": "Ronah's life unravels when she starts working with a new client, Johnny.", "popularity": 4.393, "poster_path": "/tzikHOQrR4mefWaKsDiG0vP1WsQ.jpg", "production_companies": [{"id": 53573, "logo_path": null, "name": "Rotor Film Babelsberg", "origin_country": ""}, {"id": 53574, "logo_path": null, "name": "SLC Film", "origin_country": ""}], "production_countries": [{"iso_3166_1": "US", "name": "United States of America"}], "release_date": "2014-02-09", "revenue": 0, "runtime": 90, "spoken_languages": [{"iso_639_1": "en", "name": "English"}], "status": "Released", "tagline": "", "title": "She's Lost Control", "video": false, "vote_average": 5.4, "vote_count": 18, "keywords": {"keywords": [{"id": 187056, "name": "woman director"}]}, "similar": {"page": 1, "results": [{"adult": false, "backdrop_path": "/cADbqsIoiDW7X3Myg9nz8eAuno5.jpg", "genre_ids": [18, 10749], "id": 10818, "original_language": "fr", "original_title": "Naissance des pieuvres", "overview": "Set during a sultry summer in a French suburb, Marie is desperate to join the local pool's synchronized swimming team, but is her interest solely for the sake of sport or for a chance to get close to Floriane, the bad girl of the team? Sciamma, and the two leads, capture the uncertainty of teenage sexuality with a sympathetic eye in this delicate drama of the angst of coming-of-age.", "poster_path": "/4jajELYrR4Xmv3CVoKnukRnALa2.jpg", "release_date": "2007-05-17", "title": "Water Lilies", "video": false, "vote_average": 6.1, "vote_count": 119, "popularity": 9.614}, {"adult": false, "backdrop_path": "/gZeJziVigmRqbkEZwKAtSqlLQ6s.jpg", "genre_ids": [18, 10749], "id": 370663, "original_language": "en", "original_title": "Below Her Mouth", "overview": "An unexpected affair quickly escalates into a heart-stopping reality for two women whose passionate connection changes their lives forever.", "poster_path": "/nTGbq37hYLuNy7YgMg0gVLma0NS.jpg", "release_date": "2016-09-10", "title": "Below Her Mouth", "video": false, "vote_average": 6.2, "vote_count": 456, "popularity": 18.664}, {"adult": false, "backdrop_path": "/dvQDRfv3qvfHNnVAR57ouVsuErf.jpg", "genre_ids": [10749, 18], "id": 28031, "original_language": "en", "original_title": "If These Walls Could Talk 2", "overview": "The stories of three lesbian couples -- who live in the same house at different periods of time -- who are at a crossroads in their lives. In 1961, Edith loses her lover, Abby, to a stroke. Linda and Amy struggle with feminist issues in 1972. And, in 2000, Kal and Fran try to have a baby with the help of sperm donor.", "poster_path": "/xs7ODbmYQXCDhvXNvz5tF17T59H.jpg", "release_date": "2000-03-05", "title": "If These Walls Could Talk 2", "video": false, "vote_average": 7.1, "vote_count": 55, "popularity": 8.86}, {"adult": false, "backdrop_path": "/knczzNAjBXzSYkeWxoT1u9VNmjR.jpg", "genre_ids": [10749, 18], "id": 258480, "original_language": "en", "original_title": "Carol", "overview": "In 1950s New York, a department-store clerk who dreams of a better life falls for an older, married woman.", "poster_path": "/AbKa7ANxmui0Jmhh7gV7OSELKIL.jpg", "release_date": "2015-11-20", "title": "Carol", "video": false, "vote_average": 7.4, "vote_count": 2184, "popularity": 13.539}, {"adult": false, "backdrop_path": "/fZ8oFcREAr6wgWcXISGql0xyxjB.jpg", "genre_ids": [35, 18], "id": 39781, "original_language": "en", "original_title": "The Kids Are All Right", "overview": "Two women, Nic and Jules, brought a son and daughter into the world through artificial insemination. When one of their children reaches age, both kids go behind their mothers' backs to meet with the donor. Life becomes so much more interesting when the father, two mothers and children start to become attached to each other.", "poster_path": "/fPDeK4MmoGfi2X0oWZev7LrbMqM.jpg", "release_date": "2010-07-09", "title": "The Kids Are All Right", "video": false, "vote_average": 6.6, "vote_count": 923, "popularity": 12.159}, {"adult": false, "backdrop_path": "/rf6G51j0SZL0tP57I8gnqHTRFEr.jpg", "genre_ids": [35, 18, 10749], "id": 273153, "original_language": "fr", "original_title": "La belle saison", "overview": "In 1971, Carole and Delphine meet and fall in love in Paris. When Carole follows Delphine back to her family farm in Limousin, the two find lesbianism and feminism are not as easy in the countryside.", "poster_path": "/evvAkNMO5VJiy5qIo1Hu7fUfvVI.jpg", "release_date": "2015-08-19", "title": "Summertime", "video": false, "vote_average": 6.6, "vote_count": 162, "popularity": 11.575}, {"adult": false, "backdrop_path": "/s12HEmmkJfI2mjltI61hGm5kubD.jpg", "genre_ids": [35, 18, 10749], "id": 20770, "original_language": "en", "original_title": "But I'm a Cheerleader", "overview": "Megan is an all-American girl. A cheerleader. She has a boyfriend. But Megan doesn't like kissing her boyfriend very much. And she's pretty touchy with her cheerleader friends. Her conservative parents worry that she must be a lesbian and send her off to \"sexual redirection\" school, where she must, with other lesbians and gays learn how to be straight.", "poster_path": "/eDGH7CHSdkrYcuUJV1e0WS9DlQL.jpg", "release_date": "1999-12-09", "title": "But I'm a Cheerleader", "video": false, "vote_average": 6.8, "vote_count": 246, "popularity": 9.011}, {"id": 9813, "video": false, "vote_count": 128, "vote_average": 6.1, "title": "The Quiet", "release_date": "2005-09-12", "original_language": "en", "original_title": "The Quiet", "genre_ids": [18, 53], "backdrop_path": "/6eyWAZA4CEidZW1xXnQ4vlYBXTP.jpg", "adult": false, "overview": "After her widowed father dies, deaf teenager Dot moves in with her godparents, Olivia and Paul Deer. The Deers' daughter, Nina, is openly hostile to Dot, but that does not prevent her from telling her secrets to her silent stepsister, including the fact that she wants to kill her lecherous father.", "poster_path": "/GEqIE9YlmygHVUfS64LW2cwAAM.jpg", "popularity": 14.844}, {"adult": false, "backdrop_path": "/tzqeuHWMFihFbiLGHdalPgAcSf6.jpg", "genre_ids": [18, 10749], "id": 18620, "original_language": "en", "original_title": "Go Fish", "overview": "Max is a trendy, pretty, young lesbian, who is having trouble finding love. A friend sets her up with Ely, whom Max likes, but Ely is frumpy, homely, and older. Nor do they have much in common. Can Max learn to look past the packaging?", "poster_path": "/qrEFYrwykaGsY8NULYuYLLI7zrM.jpg", "release_date": "1994-06-10", "title": "Go Fish", "video": false, "vote_average": 5.0, "vote_count": 11, "popularity": 3.676}, {"adult": false, "backdrop_path": "/6tern9vOEwwmkDYC1vRCuO64z0C.jpg", "genre_ids": [10749, 18], "id": 475888, "original_language": "en", "original_title": "Tell It to the Bees", "overview": "Dr. Jean Markham returns to the town she left as a teenager to take over her late father's medical practice. When a school-yard scuffle lands Charlie in her surgery, she invites him to visit the hives in her garden and tell his secrets to the bees, as she once did. The new friendship between the boy and the bee keeper brings his mother Lydia into Jean's world.", "poster_path": "/Rj6zpHhMU1zFW3v28U4PSRSRgP.jpg", "release_date": "2019-05-03", "title": "Tell It to the Bees", "video": false, "vote_average": 6.4, "vote_count": 53, "popularity": 13.175}, {"adult": false, "backdrop_path": "/baYbbMtKRDoDWYJeVWkbygAvAj8.jpg", "genre_ids": [18, 10749], "id": 31216, "original_language": "en", "original_title": "I Can't Think Straight", "overview": "I CAN'T THINK STRAIGHT is a 2007 romance movie about a London-based Jordanian of Palestinian descent, Tala, who is preparing for an elaborate wedding. A turn of events causes her to have an affair and subsequently fall in love with another woman, Leyla, a British Indian.", "poster_path": "/1kapga6rkM5wNuQBYw7sdE42CrA.jpg", "release_date": "2008-06-01", "title": "I Can't Think Straight", "video": false, "vote_average": 7.6, "vote_count": 109, "popularity": 7.815}, {"adult": false, "backdrop_path": "/lI5h8KaoeObu4NMTwzeRuUHzRwD.jpg", "genre_ids": [18, 9648, 53], "id": 401898, "original_language": "no", "original_title": "Thelma", "overview": "A college student starts to experience extreme seizures. She soon learns that the violent episodes are a symptom of inexplicable abilities.", "poster_path": "/yzSfG8TLAqw7nMQh2lxirQkQpgs.jpg", "release_date": "2017-09-15", "title": "Thelma", "video": false, "vote_average": 7.1, "vote_count": 418, "popularity": 13.105}, {"adult": false, "backdrop_path": "/tIFRPjIXQ3sYrmxbIeOu9K1JkUz.jpg", "genre_ids": [18, 10749], "id": 294, "original_language": "en", "original_title": "Desert Hearts", "overview": "The story of straight-edge literature professor Vivian who travels to Reno to get away from a relationship breakup when she falls in love with an attractive and unconventional girl named Cay.", "poster_path": "/b8JSmQSpYYJhctMtxNgqh0elENg.jpg", "release_date": "1985-10-01", "title": "Desert Hearts", "video": false, "vote_average": 7.3, "vote_count": 58, "popularity": 6.976}, {"id": 2255, "video": false, "vote_count": 772, "vote_average": 6.8, "title": "Chasing Amy", "release_date": "1997-04-04", "original_language": "en", "original_title": "Chasing Amy", "genre_ids": [35, 18, 10749], "backdrop_path": "/doKYVK61Vb8J1KUjlb9dNWkQNp6.jpg", "adult": false, "overview": "Holden and Banky are comic book artists. Everything is going good for them until they meet Alyssa, also a comic book artist. Holden falls for her, but his hopes are crushed when he finds out she's a lesbian.", "poster_path": "/4vFJileWrCGaBeobCmF0tXpQCUb.jpg", "popularity": 13.95}, {"adult": false, "backdrop_path": "/hD8DQM72Xacg1d3mFqS0eN8vKYw.jpg", "genre_ids": [18], "id": 8272, "original_language": "en", "original_title": "The Savages", "overview": "A sister and brother face the realities of familial responsibility as they begin to care for their ailing father.", "poster_path": "/nY54gSmTOmSXlQpWDB7DWp4u8a7.jpg", "release_date": "2007-01-19", "title": "The Savages", "video": false, "vote_average": 6.9, "vote_count": 192, "popularity": 9.466}, {"adult": false, "backdrop_path": "/g3LYarEY9LjB28Ct2trwFN72gqZ.jpg", "genre_ids": [35], "id": 437557, "original_language": "en", "original_title": "Blockers", "overview": "When three parents discover their daughters\u2019 pact to lose their virginity at prom, they launch a covert one-night operation to stop the teens from sealing the deal.", "poster_path": "/uvlUQXg0AlpGzKukO11K7QtW3Yu.jpg", "release_date": "2018-03-14", "title": "Blockers", "video": false, "vote_average": 6.2, "vote_count": 1155, "popularity": 17.886}, {"adult": false, "backdrop_path": "/zBB1mzmqnUuSrlTuf0SFFlI1EoJ.jpg", "genre_ids": [18], "id": 244772, "original_language": "en", "original_title": "The Skeleton Twins", "overview": "Estranged twins Maggie and Milo coincidentally cheat death on the same day, prompting them to reunite and confront the reasons their lives went so wrong. As the twins' reunion reinvigorates them, they realize the key to fixing their lives may just lie in repairing their relationship.", "poster_path": "/vvmv1R2jDXJeeeyYcGg0ypXc2XK.jpg", "release_date": "2014-09-12", "title": "The Skeleton Twins", "video": false, "vote_average": 6.7, "vote_count": 416, "popularity": 10.481}, {"adult": false, "backdrop_path": "/3YGy88nTV2e0wxZcKI1goiEN9oy.jpg", "genre_ids": [18, 10749], "id": 37636, "original_language": "en", "original_title": "High Art", "overview": "A young female intern at a small magazine company becomes involved with a drug-addicted lesbian photographer, both of whom seek to exploit each other for their respective careers, while slowly falling in love with each other.", "poster_path": "/qTg05RNJIvb9w4Z7XIcAZxuZmTn.jpg", "release_date": "1998-06-12", "title": "High Art", "video": false, "vote_average": 6.6, "vote_count": 61, "popularity": 7.422}, {"adult": false, "backdrop_path": "/caLMOD3ZJ3V7qjlxDXrzlJfBLgD.jpg", "genre_ids": [18, 10749], "id": 20, "original_language": "en", "original_title": "My Life Without Me", "overview": "A Pedro Almodovar production in which a fatally ill mother with only two months to live creates a list of things she wants to do before she dies with out telling her family of her illness.", "poster_path": "/vVj92VBFUBzjqzLvBiPVVlJDp78.jpg", "release_date": "2003-03-07", "title": "My Life Without Me", "video": false, "vote_average": 6.1, "vote_count": 220, "popularity": 10.382}, {"adult": false, "backdrop_path": "/useuHJQ5HOoEWkAvEjL1FW1sUfe.jpg", "genre_ids": [18], "id": 376867, "original_language": "en", "original_title": "Moonlight", "overview": "The tender, heartbreaking story of a young man\u2019s struggle to find himself, told across three defining chapters in his life as he experiences the ecstasy, pain, and beauty of falling in love, while grappling with his own sexuality.", "poster_path": "/qAwFbszz0kRyTuXmMeKQZCX3Q2O.jpg", "release_date": "2016-10-21", "title": "Moonlight", "video": false, "vote_average": 7.4, "vote_count": 4410, "popularity": 21.716}], "total_pages": 1446, "total_results": 28909}, "recommendations": {"page": 1, "results": [{"adult": false, "backdrop_path": "/97Ij9ui9nrjXQbpGTkuOILcWMEm.jpg", "genre_ids": [18], "id": 133828, "original_language": "en", "original_title": "A Harlot's Progress", "overview": "Drama looking at artist William Hogarth and his relationship with the prostitute that inspired his most famous piece.", "poster_path": "/eaymDiUw7ote7LV5OpsiKTnZ04r.jpg", "release_date": "2006-11-02", "title": "A Harlot's Progress", "video": false, "vote_average": 5.3, "vote_count": 3, "popularity": 3.134}, {"adult": false, "backdrop_path": "/uQ3Kqte1nShbhmKHOSKmK9u2ltV.jpg", "genre_ids": [18], "id": 323431, "original_language": "en", "original_title": "Petting Zoo", "overview": "A story of love, sex and teen pregnancy in San Antonio, Texas. Petting Zoo is the portrait of a young woman coming into her own, in an environment that does not always present ideal circumstances.", "poster_path": "/gUtbuzQSkzG4Y5IKINEcBiJNokI.jpg", "release_date": "2015-02-10", "title": "Petting Zoo", "video": false, "vote_average": 6.7, "vote_count": 7, "popularity": 4.476}, {"adult": false, "backdrop_path": "/wK7o6Sf5ZDiOxPsf6MU2Q2WhjjO.jpg", "genre_ids": [18], "id": 18514, "original_language": "ko", "original_title": "\ub450\ubc88\uc9f8 \uc0ac\ub791", "overview": "When an American woman begins a dangerous relationship with an attractive immigrant worker, in order to save her marriage, she finds her true self.", "poster_path": "/x5SXEQhfVOm3VsFCEVtZVVlEve9.jpg", "release_date": "2007-01-18", "title": "Never Forever", "video": false, "vote_average": 5.6, "vote_count": 9, "popularity": 2.62}, {"adult": false, "backdrop_path": "/eR3rRx8eC3yznDSSxkvyPoCvdnU.jpg", "genre_ids": [18], "id": 319167, "original_language": "en", "original_title": "Station to Station", "overview": "Sending a burning arrow into the stunting effects that the compartmentalization of culture has on how creativity manifests, visual artist Doug Aitken embarked on an experiment exploring a less materialistic and more nomadic direction of art creation, exhibition, and participation. Station to Station involved a train that crossed North America housing a constantly changing creative community including artists, musicians, and curators, who collaborated in the creation of recordings, artworks, films, and 10 unique happenings, across the country.", "poster_path": "/rmxEWTolfgWgmiAVLDbiE30kj2k.jpg", "release_date": "2014-12-31", "title": "Station to Station", "video": false, "vote_average": 7.6, "vote_count": 5, "popularity": 1.372}, {"adult": false, "backdrop_path": "/3qCmKZ229fPTHyVlm1IPlxOkR6U.jpg", "genre_ids": [18], "id": 308640, "original_language": "en", "original_title": "Songs My Brothers Taught Me", "overview": "This complex portrait of modern-day life on the Pine Ridge Indian Reservation explores the bond between a brother and his younger sister, who find themselves on separate paths to rediscovering the meaning of home.", "poster_path": "/zwEkiPGk62lfaTim2hFlFuxQVdJ.jpg", "release_date": "2015-01-27", "title": "Songs My Brothers Taught Me", "video": false, "vote_average": 6.9, "vote_count": 17, "popularity": 3.5}, {"adult": false, "backdrop_path": "/pJv1QQlKGJvnqnHPziNx5BD1uXU.jpg", "genre_ids": [18], "id": 69040, "original_language": "en", "original_title": "Shy People", "overview": "A New York journalist visits her distant cousin for the first time to write an article about her hard life in the bayous of Louisiana. The journalist's wild, drug-addicted daughter adds tensions between the two relatives' cultures.", "poster_path": "/gLNWyERVGGcTT35MhdeH0QrIy3d.jpg", "release_date": "1987-05-01", "title": "Shy People", "video": false, "vote_average": 7.0, "vote_count": 9, "popularity": 4.256}, {"adult": false, "backdrop_path": null, "genre_ids": [18], "id": 325428, "original_language": "en", "original_title": "Out of My Hand", "overview": "\u2018What do you want?\u2019 asks the trade union leader, to which the men respond as if with one voice: change! Life is hard work on Liberia\u2019s rubber plantations and wages are meagre. Nothing has changed for generations, but now the workers are calling for a strike and instead of grafting, the men are playing football or fishing.", "poster_path": "/jFBFtZ7njg3PZEErSBkIM0E56zF.jpg", "release_date": "2015-02-14", "title": "Out of My Hand", "video": false, "vote_average": 7.0, "vote_count": 7, "popularity": 1.99}, {"adult": false, "backdrop_path": null, "genre_ids": [18], "id": 80294, "original_language": "en", "original_title": "Suspicious River", "overview": "A young married woman (Parker) sells her body, not just for money, to guests at the motel where she works as a receptionist.", "poster_path": "/bhMq80ANl686zyHehY2nRH9F55o.jpg", "release_date": "2000-09-09", "title": "Suspicious River", "video": false, "vote_average": 6.2, "vote_count": 6, "popularity": 2.449}, {"adult": false, "backdrop_path": "/vJLkdjJdwbIdJnyhpkjSnPoEZBN.jpg", "genre_ids": [35, 18], "id": 142106, "original_language": "en", "original_title": "Petunia", "overview": "The story of a family whose growth is stunted... a family that learns how to love themselves while loving each other (a little too much).", "poster_path": "/xUTFovFw9TG6VtZndXCaWwY0DMx.jpg", "release_date": "2013-06-28", "title": "Petunia", "video": false, "vote_average": 5.5, "vote_count": 6, "popularity": 3.691}, {"adult": false, "backdrop_path": "/pQ4LXarpSO7dy14E7h9xCpqG56Y.jpg", "genre_ids": [18], "id": 174314, "original_language": "en", "original_title": "Bottled Up", "overview": "A solitary woman (Melissa Leo) earning her living by delivering mail and body piercing, makes every attempt to help her volatile adult daughter (Marin Ireland) get on her feet, and in-so-doing neglects herself, channeling all of her womanly desires into her houseplants...even when a charismatic and industrious environmentalist (Josh Hamilton) moves in with them.", "poster_path": "/8oRXjDRUOnBLtgMxKBBuHtqrgLV.jpg", "release_date": "2013-04-19", "title": "Bottled Up", "video": false, "vote_average": 5.5, "vote_count": 5, "popularity": 2.462}, {"adult": false, "backdrop_path": "/8iEpVgBa67UHGXaiMs40g9jAUpn.jpg", "genre_ids": [99], "id": 104732, "original_language": "en", "original_title": "Sexy Baby", "overview": "Sexy Baby is the first documentary film to put faces to a seismic cultural shift: the cyber age is creating a new sexual landscape. While doing research for the film, we had intimate and candid conversations with kids in middle school classrooms, suburban shopping malls, nightclubs, college dorms, and even conducted an informal roundtable during a high school house party. While chronicling trends among small town and big city kids, we discovered this: Having pubic hair is considered unattractive and \u201cgross.\u201d Most youngsters know someone who has emailed or texted a naked photo of themselves. Many kids have accidentally or intentionally had their first introduction to sex be via hardcore online porn. Facebook has created an arena where kids compete to be \u201cliked\u201d and constantly worry about what image to portray \u2013 much of what was once private is now made public. And the list goes on.", "poster_path": "/mno7Im3vPKWlp8XN9kVsubxFWvQ.jpg", "release_date": "2012-04-20", "title": "Sexy Baby", "video": false, "vote_average": 6.4, "vote_count": 7, "popularity": 3.983}, {"adult": false, "backdrop_path": "/7Sg9U6waQmRYgPSBoHYPSyRqyGL.jpg", "genre_ids": [99], "id": 381399, "original_language": "en", "original_title": "Class Divide", "overview": "A look at NYC\u2019s gentrification and growing inequality in a microcosm, Class Divide explores two distinct worlds that share the same Chelsea intersection \u2013 10th Avenue and 26th Street. On one side of the avenue, the Chelsea-Elliot Houses have provided low-income public housing to residents for decades. Their neighbor across the avenue since 2012 is Avenues: The World School, a costly private school. What happens when kids from both of these worlds attempt to cross the divide?", "poster_path": "/d4xz16H6i0upyNjoutdTuoipwyu.jpg", "release_date": "2016-04-18", "title": "Class Divide", "video": false, "vote_average": 6.5, "vote_count": 4, "popularity": 3.075}], "total_pages": 1, "total_results": 12}, "credits": {"cast": [{"cast_id": 3, "character": "Ronah", "credit_id": "52fe4e789251416c91132a4d", "gender": 1, "id": 56685, "name": "Brooke Bloom", "order": 0, "profile_path": "/1MQEhhWgEfJ2Fqgw7uSGu0OA9Bj.jpg"}, {"cast_id": 4, "character": "Johnny", "credit_id": "52fe4e789251416c91132a51", "gender": 2, "id": 212776, "name": "Marc Menchaca", "order": 1, "profile_path": "/bpEkGyfrOmSdWI2jaG0aZkgERrO.jpg"}, {"cast_id": 8, "character": "Dr. Alan Cassidy", "credit_id": "52fe4e789251416c91132a63", "gender": 2, "id": 118937, "name": "Dennis Boutsikaris", "order": 2, "profile_path": "/2CzntEpJZ4azYIGS6rstIqhxfPT.jpg"}, {"cast_id": 7, "character": "Irene", "credit_id": "52fe4e789251416c91132a5f", "gender": 1, "id": 27260, "name": "Laila Robins", "order": 3, "profile_path": "/3QChgzUKpoqcK1WD5mLb5eBpMju.jpg"}, {"cast_id": 9, "character": "Christopher", "credit_id": "52fe4e789251416c91132a67", "gender": 0, "id": 187919, "name": "Tobias Segal", "order": 4, "profile_path": "/kn1zn5VdjhRWcanQgSWPFs8dolE.jpg"}, {"cast_id": 5, "character": "C.T.", "credit_id": "52fe4e789251416c91132a55", "gender": 2, "id": 79416, "name": "Robert Longstreet", "order": 5, "profile_path": "/kOPNnIzXzE2VbGlDBXLzOf2juwu.jpg"}, {"cast_id": 10, "character": "Claire", "credit_id": "52fe4e789251416c91132a6b", "gender": 1, "id": 82339, "name": "Roxanne Day", "order": 6, "profile_path": "/xyi8QF2k4auOQXai8tz9pOGuYgQ.jpg"}, {"cast_id": 11, "character": "Andro", "credit_id": "52fe4e789251416c91132a6f", "gender": 2, "id": 171742, "name": "Ryan Homchick", "order": 7, "profile_path": "/gwsA9Wd5CiIQX0cJ99CaW5fCvaQ.jpg"}, {"cast_id": 12, "character": "Janusz Kubicek", "credit_id": "52fe4e789251416c91132a73", "gender": 0, "id": 1292449, "name": "Gregory Korostishevsky", "order": 8, "profile_path": "/lcORQBy8L8fkeMW552pvM7jHUMZ.jpg"}, {"cast_id": 26, "character": "Marty Falk", "credit_id": "55582f2a92514133f4001046", "gender": 2, "id": 1455797, "name": "Henry Stram", "order": 9, "profile_path": "/zExmWfPfuQWFDJSSKEAQ3bDhPEQ.jpg"}, {"cast_id": 27, "character": "Detective Zeleke", "credit_id": "55582f37c3a368777e0078fe", "gender": 1, "id": 20318, "name": "Myra Lucretia Taylor", "order": 10, "profile_path": "/cpEX5nv0GjOmFFuv2a3791UzCPp.jpg"}, {"cast_id": 28, "character": "Officer Smith", "credit_id": "55582f43c3a368776c007466", "gender": 0, "id": 160849, "name": "Michael Medeiros", "order": 11, "profile_path": "/uTUSlzkYGjGA9GKjGHL2qYP5uUF.jpg"}, {"cast_id": 29, "character": "Gerry", "credit_id": "55582f51c3a3687772008161", "gender": 0, "id": 37439, "name": "Pierre Epstein", "order": 12, "profile_path": "/oTFfbJdoZXHBJZYZteNnJAQGFkL.jpg"}, {"cast_id": 30, "character": "Dr. Moran", "credit_id": "55582f5e92514133f400104f", "gender": 2, "id": 1064294, "name": "Danny Boushebel", "order": 13, "profile_path": "/r2ZPCOQdjzoMIPJNNMtrciwuEOr.jpg"}], "crew": [{"credit_id": "52fe4e789251416c91132a49", "department": "Directing", "gender": 0, "id": 1288762, "job": "Director", "name": "Anja Marquardt", "profile_path": null}, {"credit_id": "52fe4e789251416c91132a5b", "department": "Writing", "gender": 0, "id": 1288762, "job": "Writer", "name": "Anja Marquardt", "profile_path": null}, {"credit_id": "55582db59251411e5b007859", "department": "Production", "gender": 0, "id": 1292104, "job": "Producer", "name": "Mollye Asher", "profile_path": null}, {"credit_id": "55582dedc3a368776f008c73", "department": "Production", "gender": 1, "id": 1467926, "job": "Associate Producer", "name": "Jennifer Fox", "profile_path": "/d1z8dsmC3L5QcNPvloY6DcbNXYp.jpg"}, {"credit_id": "55582dfb9251411e5b007862", "department": "Production", "gender": 0, "id": 1467927, "job": "Producer", "name": "Kiara Jones", "profile_path": null}, {"credit_id": "55582e069251412afe00110a", "department": "Production", "gender": 0, "id": 1288762, "job": "Producer", "name": "Anja Marquardt", "profile_path": null}, {"credit_id": "55582e14c3a368776a007585", "department": "Production", "gender": 2, "id": 34110, "job": "Executive Producer", "name": "Oren Moverman", "profile_path": "/y4OayuIe83geJRdsqzmWQOPj5YH.jpg"}, {"credit_id": "55582e219251411e5b007869", "department": "Production", "gender": 0, "id": 1436395, "job": "Executive Producer", "name": "Dax Phelan", "profile_path": null}, {"credit_id": "55582e3f9251411e4d007cf3", "department": "Production", "gender": 0, "id": 1467929, "job": "Executive Producer", "name": "Scott Ryan", "profile_path": null}, {"credit_id": "55582e559251412a2a001051", "department": "Production", "gender": 0, "id": 1467930, "job": "Executive Producer", "name": "James Su", "profile_path": null}, {"credit_id": "55582e619251412a2a001058", "department": "Production", "gender": 0, "id": 1467931, "job": "Co-Producer", "name": "Simon Taufique", "profile_path": null}, {"credit_id": "55582e88c3a3687782008825", "department": "Editing", "gender": 0, "id": 1467933, "job": "Editor", "name": "Nick Carew", "profile_path": null}, {"credit_id": "55582e92c3a368776c007456", "department": "Editing", "gender": 0, "id": 1288762, "job": "Editor", "name": "Anja Marquardt", "profile_path": null}, {"credit_id": "5d4deb6ef9475b00154fd44d", "department": "Camera", "gender": 2, "id": 1394672, "job": "Director of Photography", "name": "Zachary Galler", "profile_path": null}]}}