{"adult": false, "backdrop_path": "/x4Bq4skMghx7LmggF5USQO1XNMQ.jpg", "belongs_to_collection": null, "budget": 0, "genres": [{"id": 80, "name": "Crime"}, {"id": 9648, "name": "Mystery"}, {"id": 10749, "name": "Romance"}], "homepage": null, "id": 253616, "imdb_id": "tt0037130", "original_language": "en", "original_title": "A Night of Adventure", "overview": "A lawyer tries to clear his wife's lover of murder charges.", "popularity": 2.859, "poster_path": "/iWjiiVnIk2F3lbbRCQfihC3lkSq.jpg", "production_companies": [{"id": 6, "logo_path": "/n53F7K9scQWFXYbrCablqLKqJdp.png", "name": "RKO Radio Pictures", "origin_country": "US"}], "production_countries": [{"iso_3166_1": "US", "name": "United States of America"}], "release_date": "1944-06-02", "revenue": 0, "runtime": 65, "spoken_languages": [{"iso_639_1": "en", "name": "English"}], "status": "Released", "tagline": "AMAZING NEW KIND OF MURDER-THRILLER!...And you're there when the fatal shot is fired!", "title": "A Night of Adventure", "video": false, "vote_average": 6.8, "vote_count": 2, "keywords": {"keywords": [{"id": 4320, "name": "lover"}, {"id": 9826, "name": "murder"}, {"id": 156037, "name": "socialite"}]}, "similar": {"page": 1, "results": [{"adult": false, "backdrop_path": "/t3OZS8yMs0NL4YgWWc04eXHTn1X.jpg", "genre_ids": [28, 80, 53], "id": 984, "original_language": "en", "original_title": "Dirty Harry", "overview": "When a madman dubbed 'Scorpio' terrorizes San Francisco, hard-nosed cop, Harry Callahan \u2013 famous for his take-no-prisoners approach to law enforcement \u2013 is tasked with hunting down the psychopath. Harry eventually collars Scorpio in the process of rescuing a kidnap victim, only to see him walk on technicalities. Now, the maverick detective is determined to nail the maniac himself.", "poster_path": "/2TADKc4GMMPdMrLXj0xJVgTvZJM.jpg", "release_date": "1971-12-21", "title": "Dirty Harry", "video": false, "vote_average": 7.5, "vote_count": 1172, "popularity": 15.928}, {"id": 8090, "video": false, "vote_count": 446, "vote_average": 6.0, "title": "Untraceable", "release_date": "2008-01-22", "original_language": "en", "original_title": "Untraceable", "genre_ids": [9648, 53], "backdrop_path": "/eXuIPt9I1xuaVddlgzEQRC2EMnJ.jpg", "adult": false, "overview": "Special Agent Jennifer Marsh (Diane Lane) works in an elite division of the FBI dedicated to fighting cybercrime. She thinks she has seen it all, until a particularly sadistic criminal arises on the Internet. This tech-savvy killer posts live feeds of his crimes on his website; the more hits the site gets, the faster the victim dies. Marsh and her team must find the elusive killer before time runs out.", "poster_path": "/ySUwDRDEn01lKIMPQorpFCMLWqE.jpg", "popularity": 14.186}, {"id": 75780, "video": false, "vote_count": 4450, "vote_average": 6.4, "title": "Jack Reacher", "release_date": "2012-12-20", "original_language": "en", "original_title": "Jack Reacher", "genre_ids": [28, 80, 18, 53], "backdrop_path": "/ezXodpP429qK0Av89pVNlaXWJkQ.jpg", "adult": false, "overview": "When a gunman takes five lives with six shots, all evidence points to the suspect in custody. On interrogation, the suspect offers up a single note: \"Get Jack Reacher!\" So begins an extraordinary chase for the truth, pitting Jack Reacher against an unexpected enemy, with a skill for violence and a secret to keep.", "poster_path": "/mt0ELw83HIRgaKaDzhsDcIi0RnW.jpg", "popularity": 19.929}, {"adult": false, "backdrop_path": "/2J283YNxKhxAqHeVegUJ5mzLfGb.jpg", "genre_ids": [80, 18, 9648], "id": 392044, "original_language": "en", "original_title": "Murder on the Orient Express", "overview": "Genius Belgian detective Hercule Poirot investigates the murder of an American tycoon aboard the Orient Express train.", "poster_path": "/iBlfxlw8qwtUS0R8YjIU7JtM6LM.jpg", "release_date": "2017-11-03", "title": "Murder on the Orient Express", "video": false, "vote_average": 6.7, "vote_count": 6044, "popularity": 24.868}, {"id": 807, "video": false, "vote_count": 11928, "vote_average": 8.3, "title": "Se7en", "release_date": "1995-09-22", "original_language": "en", "original_title": "Se7en", "genre_ids": [80, 9648, 53], "backdrop_path": "/A0WKbRIojF9DUWG4XLCmg5JK6I5.jpg", "adult": false, "overview": "Two homicide detectives are on a desperate hunt for a serial killer whose crimes are based on the \"seven deadly sins\" in this dark and haunting film that takes viewers from the tortured remains of one victim to the next. The seasoned Det. Sommerset researches each sin in an effort to get inside the killer's mind, while his novice partner, Mills, scoffs at his efforts to unravel the case.", "poster_path": "/8zw8IL4zEPjkh8Aysdcd0FwGMb0.jpg", "popularity": 39.113}, {"adult": false, "backdrop_path": "/8UkJSL5hlwGh3uSC5tyoaqhHQh7.jpg", "genre_ids": [80, 18, 53], "id": 18587, "original_language": "en", "original_title": "10 to Midnight", "overview": "Based on the real-life Richard Speck murders. After his bizarre behavior results in rejection from countless women, Warren Stacy begins murdering women, always while he is naked, which minimizes any physical evidence left behind. Detective Leo Kessler is convinced of Stacy\u2019s guilt and, over the objections of his partner, plants evidence to get him behind bars. When Stacy is released on a technicality, he threatens to go after Kessler and his family, leaving Kessler to defend himself with little help from the police.", "poster_path": "/bJiLyz6g8vsFgJ5oAdMWlQAWY4T.jpg", "release_date": "1983-03-11", "title": "10 to Midnight", "video": false, "vote_average": 6.0, "vote_count": 72, "popularity": 9.493}, {"id": 4771, "video": false, "vote_count": 2133, "vote_average": 7.3, "title": "Gone Baby Gone", "release_date": "2007-09-18", "original_language": "en", "original_title": "Gone Baby Gone", "genre_ids": [80, 18, 9648], "backdrop_path": "/sogh5NXPbKFajjYKBlfIBfCWgbq.jpg", "adult": false, "overview": "When 4 year old Amanda McCready disappears from her home and the police make little headway in solving the case, the girl's aunt, Beatrice McCready hires two private detectives, Patrick Kenzie and Angie Gennaro. The detectives freely admit that they have little experience with this type of case, but the family wants them for two reasons - they're not cops and they know the tough neighborhood in which they all live. As the case progresses, Kenzie and Gennaro face drug dealers, gangs and pedophiles. When they are about to solve the case, they are faced with a moral dilemma that tears them apart.", "poster_path": "/dXXMPxGiRegd7NNCtE5uchAKRAG.jpg", "popularity": 15.301}, {"adult": false, "backdrop_path": "/uUYCUbgI5VxsUflTMI4Y9L2Y6vb.jpg", "genre_ids": [80, 18, 53], "id": 11423, "original_language": "ko", "original_title": "\uc0b4\uc778\uc758 \ucd94\uc5b5", "overview": "1986 Gyunggi Province. The body of a young woman is found brutally raped and murdered. Two months later, a series of rapes and murders commences under similar circumstances. And in a country that had never known such crimes, the dark whispers about a serial murderer grow louder. A special task force is set up in the area, with two local detectives Park Doo-Man and Jo Young-Goo joined by a detective from Seoul who requested to be assigned to the case.", "poster_path": "/gawnVe9cFowdoDLo9Pok12NTw39.jpg", "release_date": "2003-05-02", "title": "Memories of Murder", "video": false, "vote_average": 8.1, "vote_count": 1093, "popularity": 16.342}, {"adult": false, "backdrop_path": "/v761yOHKO3p6Yr7LDCjud6tUL5G.jpg", "genre_ids": [28, 80, 53], "id": 10651, "original_language": "en", "original_title": "The Dead Pool", "overview": "Dirty Harry Callahan returns for his final film adventure. Together with his partner Al Quan, he must investigate the systematic murder of actors and musicians. By the time Harry learns that the murders are a part of a sick game to predict the deaths of celebrities before they happen, it may be too late...", "poster_path": "/9ZUSqox9lIxN4xaYBac2QXMFcZj.jpg", "release_date": "1988-07-12", "title": "The Dead Pool", "video": false, "vote_average": 6.4, "vote_count": 389, "popularity": 14.171}, {"adult": false, "backdrop_path": "/pA64Ov7lDpwXBu33yq0KpmAOYJL.jpg", "genre_ids": [27, 53], "id": 357096, "original_language": "en", "original_title": "I Spit on Your Grave III: Vengeance is Mine", "overview": "Jennifer Hills is still tormented by the brutal sexual assault she endured years ago. She\u2019s changed identities and cities, reluctantly joining a support group where she begins to piece together a new life. But when her new friend\u2019s murderer goes free and the tales of serial rapists haunt her, Jennifer will hunt down the men responsible and do what the system won\u2019t \u2013 make them pay for their crimes in the most horrific ways imaginable. Only this time, no jury may be able to save her.", "poster_path": "/6SnOlgrUoC5jqmgcYIM5lde5zYq.jpg", "release_date": "2015-10-01", "title": "I Spit on Your Grave III: Vengeance is Mine", "video": false, "vote_average": 5.3, "vote_count": 437, "popularity": 20.366}, {"id": 37645, "video": false, "vote_count": 575, "vote_average": 6.5, "title": "22 Bullets", "release_date": "2010-03-23", "original_language": "fr", "original_title": "L'Immortel", "genre_ids": [28, 80, 53], "backdrop_path": "/mU8zfCOTbahNGH0ZBTCuNdX16gj.jpg", "adult": false, "overview": "Charly Mattei\u0308 has turned his back on his life as an outlaw. For the last three years, he's led a peaceful life devoting himself to his wife and two children. Then, one winter morning, he's left for dead in the parking garage in Marseille's Old Port, with 22 bullets in his body. Against all the odds, he doesn't die...", "poster_path": "/wTYZjPq4YA2wC99MdHZTFQuxFpd.jpg", "popularity": 11.87}, {"adult": false, "backdrop_path": "/xBhRhY8KimSrPx6AMJXigpzlGQ2.jpg", "genre_ids": [28, 35, 80], "id": 96, "original_language": "en", "original_title": "Beverly Hills Cop II", "overview": "Axel heads for the land of sunshine and palm trees to find out who shot police Captain Andrew Bogomil. Thanks to a couple of old friends, Axel's investigation uncovers a series of robberies masterminded by a heartless weapons kingpin\u2014and the chase is on.", "poster_path": "/2y1z1baxKT0coTTRlnkI6McnR9f.jpg", "release_date": "1987-05-18", "title": "Beverly Hills Cop II", "video": false, "vote_average": 6.4, "vote_count": 1235, "popularity": 17.242}, {"adult": false, "backdrop_path": "/3TCPWrxQkfon82xPNtmpweOSVJc.jpg", "genre_ids": [18, 80, 9648, 10749, 53], "id": 12150, "original_language": "en", "original_title": "Sea of Love", "overview": "Seen-it-all New York detective Frank Keller is unsettled - he has done twenty years on the force and could retire, and he hasn't come to terms with his wife leaving him for a colleague. Joining up with an officer from another part of town to investigate a series of murders linked by the lonely hearts columns he finds he is getting seriously and possibly dangerously involved with Helen, one of the main suspects.", "poster_path": "/7DkkTHIX3hUqvsRv5sDmJAkCfKK.jpg", "release_date": "1989-09-15", "title": "Sea of Love", "video": false, "vote_average": 6.7, "vote_count": 289, "popularity": 11.238}, {"id": 15069, "video": false, "vote_count": 75, "vote_average": 5.4, "title": "W\u0394Z", "release_date": "2007-05-19", "original_language": "en", "original_title": "W\u0394Z", "genre_ids": [80, 18, 27, 53], "backdrop_path": "/nVwdXjnbfulc6cymFgOQJctpspr.jpg", "adult": false, "overview": "There is something horribly wrong with the bodies found in the dark city streets. Some are mutilated while others have the Price equation (w\u0394z = Cov (w,z) = \u03b2wzVz) carved into their flesh. Detective Eddie Argo and his new partner Helen Westcott unearth the meaning of the odd equation and realise each victim is being offered a gruesome choice: kill your loved ones, or be killed. Before long it becomes clear that the perpetrator has suffered a similar fate and is now coping by seeking a way to solve this philosophical dilemma.", "poster_path": "/8lPZ59iQRqUELprKuB0myy7u6Zm.jpg", "popularity": 11.217}, {"adult": false, "backdrop_path": "/xdha8DvElblfBbNnkpGsF42lAyv.jpg", "genre_ids": [28, 80, 53], "id": 2749, "original_language": "en", "original_title": "15 Minutes", "overview": "When Eastern European criminals Oleg and Emil come to New York City to pick up their share of a heist score, Oleg steals a video camera and starts filming their activities, both legal and illegal. When they learn how the American media circus can make a remorseless killer look like the victim and make them rich, they target media-savvy NYPD Homicide Detective Eddie Flemming and media-naive FDNY Fire Marshal Jordy Warsaw, the cops investigating their murder and torching of their former criminal partner, filming everything to sell to the local tabloid TV show \"Top Story.\"", "poster_path": "/qqqleHV8y7NLKt7isSZAvOwVPH6.jpg", "release_date": "2001-03-01", "title": "15 Minutes", "video": false, "vote_average": 5.8, "vote_count": 372, "popularity": 11.569}, {"id": 60670, "video": false, "vote_count": 764, "vote_average": 6.9, "title": "The Crimson Rivers", "release_date": "2000-09-26", "original_language": "fr", "original_title": "Les Rivi\u00e8res pourpres", "genre_ids": [80, 9648, 53], "backdrop_path": "/pXmMiqordTEbRTDNlKPnyielNVA.jpg", "adult": false, "overview": "Two French policemen, one investigating a grisly murder at a remote mountain college, the other working on the desecration of a young girl's grave by skinheads, are brought together by the clues from their respective cases. Soon after they start working together, more murders are committed, and the pair begin to discover just what dark secrets are behind the killings.", "poster_path": "/kkRgQST0bEdEgqpPZMGaUB1twsQ.jpg", "popularity": 13.121}, {"adult": false, "backdrop_path": "/iNuvbrHGNtrUwlm48u4KnQhhMKp.jpg", "genre_ids": [80, 18, 53], "id": 26390, "original_language": "en", "original_title": "Brooklyn's Finest", "overview": "Enforcing the law within the notoriously rough Brownsville section of the city and especially within the Van Dyke housing projects is the NYPD's sixty-fifth precinct. Three police officers struggle with the sometimes fine line between right and wrong.", "poster_path": "/jKSBk0LtZgXxG56uvwiAtYf6ttF.jpg", "release_date": "2009-01-16", "title": "Brooklyn's Finest", "video": false, "vote_average": 6.4, "vote_count": 500, "popularity": 12.127}, {"id": 4638, "video": false, "vote_count": 4426, "vote_average": 7.5, "title": "Hot Fuzz", "release_date": "2007-02-14", "original_language": "en", "original_title": "Hot Fuzz", "genre_ids": [28, 35, 80], "backdrop_path": "/zuskekrfW3gj9ttXNVhfdHe5n22.jpg", "adult": false, "overview": "As a former London constable, Nicholas Angel finds it difficult to adapt to his new assignment in the sleepy British village of Sandford. Not only does he miss the excitement of the big city, but he also has a well-meaning oaf for a partner. However, when a series of grisly accidents rocks Sandford, Angel smells something rotten in the idyllic village.", "poster_path": "/5Jx6s6VXnunh8wCLgR0YgjwSgjh.jpg", "popularity": 25.234}, {"id": 1949, "video": false, "vote_count": 5158, "vote_average": 7.5, "title": "Zodiac", "release_date": "2007-03-02", "original_language": "en", "original_title": "Zodiac", "genre_ids": [80, 18, 9648, 53], "backdrop_path": "/jP2htGBHE7vKq4MLeC75UeC0sZH.jpg", "adult": false, "overview": "The true story of the investigation of the \"Zodiac Killer\", a serial killer who terrified the San Francisco Bay Area, taunting police with his ciphers and letters. The case becomes an obsession for three men as their lives and careers are built and destroyed by the endless trail of clues.", "poster_path": "/bgLyOROfFQI3FqYL7jQbiaV8lkN.jpg", "popularity": 21.354}, {"adult": false, "backdrop_path": "/ojsY0XyCSsJvm0n7YTwumQcvBqT.jpg", "genre_ids": [9648, 53], "id": 1586, "original_language": "en", "original_title": "Secret Window", "overview": "Mort Rainey, a writer just emerging from a painful divorce with his ex-wife, is stalked at his remote lake house by a psychotic stranger and would-be scribe who claims Rainey swiped his best story idea. But as Rainey endeavors to prove his innocence, he begins to question his own sanity.", "poster_path": "/f5t7Df50xjniLlE80ty2dYsZBqI.jpg", "release_date": "2004-03-12", "title": "Secret Window", "video": false, "vote_average": 6.5, "vote_count": 2124, "popularity": 16.571}], "total_pages": 393, "total_results": 7849}, "recommendations": {"page": 1, "results": [], "total_pages": 1, "total_results": 0}, "credits": {"cast": [{"cast_id": 10, "character": "Mark Latham", "credit_id": "52fe4e889251416c91134df3", "gender": 2, "id": 48962, "name": "Tom Conway", "order": 0, "profile_path": "/u2Kn7hRdOVSZTBoAokZz01YcyU4.jpg"}, {"cast_id": 11, "character": "Erica Drake Latham", "credit_id": "52fe4e889251416c91134df7", "gender": 1, "id": 111431, "name": "Audrey Long", "order": 1, "profile_path": "/oEohGuChKCbAUIMdcZmBH5re6jB.jpg"}, {"cast_id": 12, "character": "Steve", "credit_id": "52fe4e889251416c91134dfb", "gender": 2, "id": 32437, "name": "Edward Brophy", "order": 2, "profile_path": "/e1XFRVHEUF09t42vARu1KOuHDyF.jpg"}, {"cast_id": 15, "character": "Julie Arden", "credit_id": "52fe4e889251416c91134e07", "gender": 0, "id": 86824, "name": "Jean Brooks", "order": 3, "profile_path": "/dtZbfVYhh4TXXxBOBE3zEr8gEm.jpg"}, {"cast_id": 13, "character": "Tony Clair", "credit_id": "52fe4e889251416c91134dff", "gender": 2, "id": 1141518, "name": "Louis Borell", "order": 4, "profile_path": null}, {"cast_id": 14, "character": "District Attorney Branson", "credit_id": "52fe4e889251416c91134e03", "gender": 2, "id": 97007, "name": "Addison Richards", "order": 5, "profile_path": "/ztihdDQTNfW1ASDKkMUBGDlRonc.jpg"}, {"cast_id": 16, "character": "Connie Matthews", "credit_id": "52fe4e889251416c91134e0b", "gender": 1, "id": 18582, "name": "Nancy Gates", "order": 6, "profile_path": "/ghmuDzVPwRPraSgKBSNqQHHXbmB.jpg"}, {"cast_id": 17, "character": "Benny Sarto", "credit_id": "52fe4e889251416c91134e0f", "gender": 2, "id": 99350, "name": "Russell Hopton", "order": 7, "profile_path": "/nbKgd9UMzAJBmyiH9eiJoY3A4QC.jpg"}, {"cast_id": 18, "character": "Ruby LaRue", "credit_id": "52fe4e889251416c91134e13", "gender": 1, "id": 91655, "name": "Claire Carleton", "order": 8, "profile_path": "/bmEkzqOKIO1qSWrFBgCFpwyglFs.jpg"}, {"cast_id": 19, "character": "Judge", "credit_id": "52fe4e889251416c91134e17", "gender": 2, "id": 124875, "name": "Emory Parnell", "order": 9, "profile_path": "/sS6qfDabEwf1bLNpLi8EcRlVrmb.jpg"}, {"cast_id": 20, "character": "Andrews", "credit_id": "52fe4e889251416c91134e1b", "gender": 2, "id": 124551, "name": "Edmund Glover", "order": 10, "profile_path": "/q7aIsLMJK8qu2aHMTw51SAzZDko.jpg"}, {"cast_id": 28, "character": "Gilbert J. Regan", "credit_id": "56171046c3a3680fba000d57", "gender": 2, "id": 95729, "name": "William B. Davidson", "order": 11, "profile_path": "/6MmhkoDiuyoW7HxlJ6F42kPkm6J.jpg"}, {"cast_id": 29, "character": "Glove Expert", "credit_id": "561710659251412ae3000cab", "gender": 2, "id": 96722, "name": "Byron Foulger", "order": 12, "profile_path": "/iMr3cELQ3pNBcUfnrcH6FP9SIZO.jpg"}], "crew": [{"credit_id": "52fe4e889251416c91134dbf", "department": "Directing", "gender": 2, "id": 51677, "job": "Director", "name": "Gordon Douglas", "profile_path": "/r6UZt0lLqgXHAG8GoN3NiWrnH5d.jpg"}, {"credit_id": "52fe4e889251416c91134dc5", "department": "Writing", "gender": 2, "id": 84940, "job": "Screenplay", "name": "Crane Wilbur", "profile_path": "/ou3qil42C78krnQtobNwGZfjho9.jpg"}, {"credit_id": "52fe4e889251416c91134dcb", "department": "Writing", "gender": 0, "id": 1289260, "job": "Theatre Play", "name": "Wilhelm Speyer", "profile_path": null}, {"credit_id": "52fe4e889251416c91134dd1", "department": "Production", "gender": 2, "id": 103915, "job": "Producer", "name": "Herman Schlom", "profile_path": null}, {"credit_id": "52fe4e889251416c91134de3", "department": "Editing", "gender": 0, "id": 127577, "job": "Editor", "name": "Les Millbrook", "profile_path": null}, {"credit_id": "52fe4e889251416c91134de9", "department": "Art", "gender": 2, "id": 978515, "job": "Art Direction", "name": "Ralph Berger", "profile_path": null}, {"credit_id": "52fe4e889251416c91134def", "department": "Art", "gender": 2, "id": 4349, "job": "Art Direction", "name": "Albert S. D'Agostino", "profile_path": "/nYJgsC5n7j2XZRgqVlct6Zy0U3V.jpg"}, {"credit_id": "53b5c6dd0e0a2676cf003bf3", "department": "Costume & Make-Up", "gender": 1, "id": 38229, "job": "Costume Design", "name": "Reni\u00e9", "profile_path": "/76N2CTu6h9sZZ8CfkexRlhFiVly.jpg"}, {"credit_id": "53cb9947c3a368777a00107e", "department": "Art", "gender": 2, "id": 7338, "job": "Set Decoration", "name": "Darrell Silvera", "profile_path": null}, {"credit_id": "53cb9959c3a3687764001139", "department": "Art", "gender": 2, "id": 33227, "job": "Set Decoration", "name": "William Stevens", "profile_path": null}, {"credit_id": "53cb996cc3a3687775001196", "department": "Costume & Make-Up", "gender": 2, "id": 4352, "job": "Makeup Artist", "name": "Mel Berns", "profile_path": "/OGT3K2ekiitrITzytByC3JSxf2.jpg"}, {"credit_id": "53cb99b3c3a36877710010f0", "department": "Directing", "gender": 0, "id": 1021385, "job": "Assistant Director", "name": "James E. Casey", "profile_path": null}, {"credit_id": "53f7ccc9c3a368734c0000c8", "department": "Camera", "gender": 2, "id": 132535, "job": "Director of Photography", "name": "Frank Redman", "profile_path": null}, {"credit_id": "571d8db1c3a3685ed50019ee", "department": "Sound", "gender": 2, "id": 5467, "job": "Original Music Composer", "name": "Leigh Harline", "profile_path": "/cE6Wt8ZoGfDfXjVcUgsi4TRb8ls.jpg"}, {"credit_id": "5ccd8a72925141044e297ed0", "department": "Sound", "gender": 2, "id": 27731, "job": "Sound Recordist", "name": "Roy Meadows", "profile_path": null}]}}