{"adult": false, "backdrop_path": null, "belongs_to_collection": null, "budget": 0, "genres": [{"id": 12, "name": "Adventure"}], "homepage": null, "id": 253859, "imdb_id": "tt0054883", "original_language": "en", "original_title": "Flight of the Lost Balloon", "overview": "Period adventure tale about an expedition using a hot-air balloon to rescue an explorer lost in Africa.", "popularity": 1.065, "poster_path": "/oZC8Xqz6xqnBT0gI3EPwFa3Nq73.jpg", "production_companies": [{"id": 9233, "logo_path": null, "name": "Woolner Brothers Pictures Inc.", "origin_country": ""}, {"id": 85951, "logo_path": null, "name": "W.J.M. Productions", "origin_country": ""}], "production_countries": [{"iso_3166_1": "US", "name": "United States of America"}], "release_date": "1961-12-28", "revenue": 0, "runtime": 91, "spoken_languages": [{"iso_639_1": "en", "name": "English"}], "status": "Released", "tagline": "", "title": "Flight of the Lost Balloon", "video": false, "vote_average": 5.0, "vote_count": 1, "keywords": {"keywords": [{"id": 409, "name": "africa"}, {"id": 1930, "name": "kidnapping"}, {"id": 3497, "name": "hot air balloon"}, {"id": 8964, "name": "lake victoria"}, {"id": 10084, "name": "rescue"}, {"id": 10787, "name": "jungle"}]}, "similar": {"page": 1, "results": [{"adult": false, "backdrop_path": "/4T2EpBzG4VyqDijObJFjWse8RaH.jpg", "genre_ids": [12, 35, 10751, 10749], "id": 10603, "original_language": "en", "original_title": "George of the Jungle", "overview": "After Baby George survives a plane crash in the jungle, he is rescued and then adopted by a wise ape. Years later, grown-up George saves a US noble woman, Ursula Stanhope while she is on a safari\u2014and takes her to the jungle to live with him. While Ursula's lover continues his search for Ursula and the one who took her, George slowly learns the rules of human relationships.", "poster_path": "/wTvuMi6YlO6bVe2Ax5mEL1dbVYv.jpg", "release_date": "1997-07-15", "title": "George of the Jungle", "video": false, "vote_average": 5.4, "vote_count": 1151, "popularity": 14.358}, {"id": 37135, "video": false, "vote_count": 4092, "vote_average": 7.4, "title": "Tarzan", "release_date": "1999-06-18", "original_language": "en", "original_title": "Tarzan", "genre_ids": [12, 16, 18, 10751], "backdrop_path": "/hCpRqibOM0ouOiqL0HMqZOF8bYe.jpg", "adult": false, "overview": "Tarzan was a small orphan who was raised by an ape named Kala since he was a child. He believed that this was his family, but on an expedition Jane Porter is rescued by Tarzan. He then finds out that he's human. Now Tarzan must make the decision as to which family he should belong to...", "poster_path": "/y6k0qn4tcDfbnrjJ2BUnoZYmMBk.jpg", "popularity": 22.572}, {"id": 258489, "video": false, "vote_count": 4393, "vote_average": 5.8, "title": "The Legend of Tarzan", "release_date": "2016-06-29", "original_language": "en", "original_title": "The Legend of Tarzan", "genre_ids": [28, 12], "backdrop_path": "/d9H2nXfKslf6B1cm7UtPBKhtUgA.jpg", "adult": false, "overview": "Tarzan, having acclimated to life in London, is called back to his former home in the jungle to investigate the activities at a mining encampment.", "poster_path": "/6FxOPJ9Ysilpq0IgkrMJ7PubFhq.jpg", "popularity": 21.616}, {"adult": false, "backdrop_path": "/i2TPTgROdJVfxvjIdcTevrHKJFJ.jpg", "genre_ids": [18, 12, 28], "id": 18994, "original_language": "id", "original_title": "Tarzan and His Mate", "overview": "Harry Holt returns to Africa to head up a large ivory expedition. This time he brings his womanizing friend Marlin Arlington. Holt also harbors ideas about convincing Jane to return to London. When Holt and Arlington show Jane some of the modern clothes and perfumes they brought from civilization, she is impressed but not enough to return.", "poster_path": "/avvTuFDk89DLiVR8mnDoCaH4jHw.jpg", "release_date": "1934-04-20", "title": "Tarzan and His Mate", "video": false, "vote_average": 6.5, "vote_count": 65, "popularity": 7.689}, {"id": 879, "video": false, "vote_count": 3284, "vote_average": 6.9, "title": "Hook", "release_date": "1991-12-11", "original_language": "en", "original_title": "Hook", "genre_ids": [12, 35, 14, 10751], "backdrop_path": "/rAb7vx2UauhHUmrYhZVoQxXuz37.jpg", "adult": false, "overview": "The boy who wasn't supposed grow up\u2014Peter Pan\u2014does just that, becoming a soulless corporate lawyer whose workaholism could cost him his wife and kids. During his trip to see Granny Wendy in London, the vengeful Capt. Hook kidnaps Peter's kids and forces Peter to return to Neverland.", "poster_path": "/6plGuz8L3fvkuENB0G2ZpBz6kej.jpg", "popularity": 18.327}, {"id": 9732, "video": false, "vote_count": 2663, "vote_average": 6.9, "title": "The Lion King II: Simba's Pride", "release_date": "1998-10-24", "original_language": "en", "original_title": "The Lion King II: Simba's Pride", "genre_ids": [12, 16, 10751], "backdrop_path": "/4LHPAe8CWFEz3jp4V3yKOQ7QXBz.jpg", "adult": false, "overview": "The circle of life continues for Simba, now fully grown and in his rightful place as the king of Pride Rock. Simba and Nala have given birth to a daughter, Kiara who's as rebellious as her father was. But Kiara drives her parents to distraction when she catches the eye of Kovu, the son of the evil lioness, Zira. Will Kovu steal Kiara's heart?", "poster_path": "/6YOBZYEkVxNzX7Sod7yChotUp5g.jpg", "popularity": 37.261}, {"id": 420818, "video": false, "vote_count": 4270, "vote_average": 7.1, "title": "The Lion King", "release_date": "2019-07-12", "original_language": "en", "original_title": "The Lion King", "genre_ids": [12, 10751], "backdrop_path": "/nRXO2SnOA75OsWhNhXstHB8ZmI3.jpg", "adult": false, "overview": "Simba idolizes his father, King Mufasa, and takes to heart his own royal destiny. But not everyone in the kingdom celebrates the new cub's arrival. Scar, Mufasa's brother\u2014and former heir to the throne\u2014has plans of his own. The battle for Pride Rock is ravaged with betrayal, tragedy and drama, ultimately resulting in Simba's exile. With help from a curious pair of newfound friends, Simba will have to figure out how to grow up and take back what is rightfully his.", "poster_path": "/2bXbqYdUdNVa8VIWXVfclP2ICtT.jpg", "popularity": 59.947}, {"id": 1884, "video": false, "vote_count": 112, "vote_average": 5.6, "title": "The Ewok Adventure", "release_date": "1984-11-25", "original_language": "en", "original_title": "The Ewok Adventure", "genre_ids": [12, 14, 878, 10751, 10770], "backdrop_path": "/mcFPTYm90593alFemhEMZIaiMa6.jpg", "adult": false, "overview": "The Towani family civilian shuttlecraft crashes on the forest moon of Endor. The four Towani's are separated. Jermitt and Catarine, the mother and father are captured by the giant Gorax, and Mace and Cindel, the son and daughter, are missing when they are captured. The next day, the Ewok Deej is looking for his two sons when they find Cindel all alone in the shuttle (Mace and Cindel were looking for the transmitter to send a distress call), when Mace appears with his emergency blaster. Eventually, the four-year old Cindel is able to convince the teenage Mace that the Ewoks are nice. Then, the Ewoks and the Towani's go on an adventure to find the elder Towanis.", "poster_path": "/nBj50ywoyBPHlXXIByIxzgjPWPZ.jpg", "popularity": 13.643}, {"id": 2320, "video": false, "vote_count": 457, "vote_average": 6.2, "title": "Executive Decision", "release_date": "1996-03-15", "original_language": "en", "original_title": "Executive Decision", "genre_ids": [28, 12, 18, 53], "backdrop_path": "/bjVntRO9QkAwm1HzTfH1nn1nOpn.jpg", "adult": false, "overview": "Terrorists hijack a 747 inbound to Washington D.C., demanding the the release of their imprisoned leader. Intelligence expert David Grant (Kurt Russell) suspects another reason and he is soon the reluctant member of a special assault team that is assigned to intercept the plane and hijackers.", "poster_path": "/wmgkFuEr8bHRAgs1HS5U46Rzo0I.jpg", "popularity": 11.941}, {"id": 2284, "video": false, "vote_count": 767, "vote_average": 6.2, "title": "Mr. Magorium's Wonder Emporium", "release_date": "2007-11-14", "original_language": "en", "original_title": "Mr. Magorium's Wonder Emporium", "genre_ids": [35, 14, 10751], "backdrop_path": "/icq8EO55IEvDo7OGCQfFXZ8l3Sv.jpg", "adult": false, "overview": "Molly Mahoney is the awkward and insecure manager of Mr. Magorium's Wonder Emporium\u2014the strangest, most fantastic and most wonderful toy store in the world. After Mr. Magorium bequeaths the store to her, a dark and ominous change begins to take over the once-remarkable Emporium.", "poster_path": "/75m4IBZE6gUrltcDgTSBTFg68QT.jpg", "popularity": 11.549}, {"adult": false, "backdrop_path": "/t3OZS8yMs0NL4YgWWc04eXHTn1X.jpg", "genre_ids": [28, 80, 53], "id": 984, "original_language": "en", "original_title": "Dirty Harry", "overview": "When a madman dubbed 'Scorpio' terrorizes San Francisco, hard-nosed cop, Harry Callahan \u2013 famous for his take-no-prisoners approach to law enforcement \u2013 is tasked with hunting down the psychopath. Harry eventually collars Scorpio in the process of rescuing a kidnap victim, only to see him walk on technicalities. Now, the maverick detective is determined to nail the maniac himself.", "poster_path": "/2TADKc4GMMPdMrLXj0xJVgTvZJM.jpg", "release_date": "1971-12-21", "title": "Dirty Harry", "video": false, "vote_average": 7.5, "vote_count": 1173, "popularity": 18.839}, {"adult": false, "backdrop_path": "/nfm6JCKUaM6dT0mATmShLY6cpmc.jpg", "genre_ids": [18, 10752], "id": 600, "original_language": "en", "original_title": "Full Metal Jacket", "overview": "A pragmatic U.S. Marine observes the dehumanizing effects the U.S.-Vietnam War has on his fellow recruits from their brutal boot camp training to the bloody street fighting in Hue.", "poster_path": "/29veIwD38rVL2qY74emXQw4y25H.jpg", "release_date": "1987-06-26", "title": "Full Metal Jacket", "video": false, "vote_average": 8.1, "vote_count": 5897, "popularity": 25.207}, {"id": 8681, "video": false, "vote_count": 7350, "vote_average": 7.3, "title": "Taken", "release_date": "2008-02-18", "original_language": "en", "original_title": "Taken", "genre_ids": [28, 53], "backdrop_path": "/lcqVBBirzzX520AyOK3k7kXBDJ6.jpg", "adult": false, "overview": "While vacationing with a friend in Paris, an American girl is kidnapped by a gang of human traffickers intent on selling her into forced prostitution. Working against the clock, her ex-spy father must pull out all the stops to save her. But with his best years possibly behind him, the job may be more than he can handle.", "poster_path": "/3zlffXmo7QpVBc17QIJWrRfasVr.jpg", "popularity": 24.243}, {"id": 9904, "video": false, "vote_count": 562, "vote_average": 5.3, "title": "The Wild", "release_date": "2006-03-06", "original_language": "en", "original_title": "The Wild", "genre_ids": [16, 10751], "backdrop_path": "/z8bCwHtKypfDoqChf41pKWR41Xb.jpg", "adult": false, "overview": "An adolescent lion is accidentally shipped from the New York Zoo to Africa. Now running free, his zoo pals must put aside their differences to help bring him back.", "poster_path": "/uxTtgh4tpSWVulXLCDqKU10cWXo.jpg", "popularity": 16.611}, {"id": 10527, "video": false, "vote_count": 4220, "vote_average": 6.4, "title": "Madagascar: Escape 2 Africa", "release_date": "2008-10-30", "original_language": "en", "original_title": "Madagascar: Escape 2 Africa", "genre_ids": [16, 35, 10751], "backdrop_path": "/anxiz37Z9FPKeuCsJcxViSWmPxg.jpg", "adult": false, "overview": "Alex, Marty, and other zoo animals find a way to escape from Madagascar when the penguins reassemble a wrecked airplane. The precariously repaired craft stays airborne just long enough to make it to the African continent. There the New Yorkers encounter members of their own species for the first time. Africa proves to be a wild place, but Alex and company wonder if it is better than their Central Park home.", "poster_path": "/9mohxwknsHcwFBSAAhoQXwFV5zn.jpg", "popularity": 23.58}, {"id": 11430, "video": false, "vote_count": 1850, "vote_average": 6.5, "title": "The Lion King 1\u00bd", "release_date": "2004-02-06", "original_language": "en", "original_title": "The Lion King 1\u00bd", "genre_ids": [16, 35, 10751], "backdrop_path": "/ycw3fFPYFDMTvSV0240WHQL8Vik.jpg", "adult": false, "overview": "Timon the meerkat and Pumbaa the warthog are best pals and the unsung heroes of the African savanna. This prequel to the smash Disney animated adventure takes you back -- way back -- before Simba's adventure began. You'll find out all about Timon and Pumbaa and tag along as they search for the perfect home and attempt to raise a rambunctious lion cub.", "poster_path": "/vDfaIoXTaQLUD5HVAv2hLIFKAcq.jpg", "popularity": 24.449}, {"id": 57586, "video": false, "vote_count": 128, "vote_average": 7.1, "title": "African Cats", "release_date": "2011-04-22", "original_language": "en", "original_title": "African Cats", "genre_ids": [12, 99], "backdrop_path": "/mFTlNXsPzny0geJLxdo3ddzFR1Q.jpg", "adult": false, "overview": "African Cats captures the real-life love, humor and determination of the majestic kings of the savanna. The story features Mara, an endearing lion cub who strives to grow up with her mother\u2019s strength, spirit and wisdom; Sita, a fearless cheetah and single mother of five mischievous newborns; and Fang, a proud leader of the pride who must defend his family from a once banished lion.", "poster_path": "/3exZKtP0r88MhP12HeTgp4uiVRu.jpg", "popularity": 10.372}, {"adult": false, "backdrop_path": "/pdIoY6ZOqwbwPlTuDh83TbJ64xw.jpg", "genre_ids": [35, 18, 9648], "id": 270487, "original_language": "en", "original_title": "Hail, Caesar!", "overview": "When a Hollywood star mysteriously disappears in the middle of filming, the studio sends their \"fixer\" to get him back. Set in the 1950s, the story was inspired by the career of Eddie Mannix (1891\u20131963).", "poster_path": "/rzMYZYphL9qrbBClQq1Jc0zPMmY.jpg", "release_date": "2016-02-05", "title": "Hail, Caesar!", "video": false, "vote_average": 5.9, "vote_count": 2550, "popularity": 15.402}, {"id": 460885, "video": false, "vote_count": 794, "vote_average": 6.2, "title": "Mandy", "release_date": "2018-09-13", "original_language": "en", "original_title": "Mandy", "genre_ids": [28, 14, 27, 9648, 53], "backdrop_path": "/mqbAmIiToU2R4VwZGgCqsfy6Yh4.jpg", "adult": false, "overview": "The Shadow Mountains, 1983. Red and Mandy lead a loving and peaceful existence; but when their pine-scented haven is savagely destroyed, Red is catapulted into a phantasmagoric journey filled with bloody vengeance and laced with fire.", "poster_path": "/m0yf7J7HsKeK6E81SMRcX8vx6mH.jpg", "popularity": 12.535}, {"id": 11319, "video": false, "vote_count": 1491, "vote_average": 6.8, "title": "The Rescuers", "release_date": "1977-06-22", "original_language": "en", "original_title": "The Rescuers", "genre_ids": [12, 16, 14, 10751], "backdrop_path": "/bHRboVSfqYzILQSm4o7lPG031HT.jpg", "adult": false, "overview": "What can two little mice possibly do to save an orphan girl who's fallen into evil hands? With a little cooperation and faith in oneself, anything is possible! As members of the mouse-run International Rescue Aid Society, Bernard and Miss Bianca respond to orphan Penny's call for help. The two mice search for clues with the help of an old cat named Rufus.", "poster_path": "/49rGpB2x6AFB83SC4IBl9foRIGp.jpg", "popularity": 17.734}], "total_pages": 11, "total_results": 201}, "recommendations": {"page": 1, "results": [], "total_pages": 1, "total_results": 0}, "credits": {"cast": [{"cast_id": 2, "character": "Dr.Joseph Farady", "credit_id": "52fe4e979251416c91136d9d", "gender": 2, "id": 84233, "name": "Marshall Thompson", "order": 0, "profile_path": "/yfAVbAwVQdJxxqt7ee99wbVezzH.jpg"}, {"cast_id": 3, "character": "Ellen Burton", "credit_id": "52fe4e979251416c91136da1", "gender": 1, "id": 88975, "name": "Mala Powers", "order": 1, "profile_path": "/tAoeHopIcwGZ7zYgztpqSbJ4Zi4.jpg"}, {"cast_id": 5, "character": "Sir Hubert Warrington", "credit_id": "52fe4e979251416c91136da9", "gender": 2, "id": 95734, "name": "Douglas Kennedy", "order": 2, "profile_path": "/8fCM2tVhpziKRRZ2xY9WGdbBSOB.jpg"}, {"cast_id": 4, "character": "Hindu", "credit_id": "52fe4e979251416c91136da5", "gender": 2, "id": 14265, "name": "James Lanphier", "order": 3, "profile_path": null}, {"cast_id": 6, "character": "Sir Adam Burton", "credit_id": "588e4e7bc3a368749a00db7d", "gender": 0, "id": 1747346, "name": "Robert W. Gillette", "order": 4, "profile_path": null}, {"cast_id": 7, "character": "Golem", "credit_id": "588e4ea2925141184800ed6d", "gender": 0, "id": 1747347, "name": "Felippe Birriel", "order": 5, "profile_path": null}, {"cast_id": 8, "character": "Giles", "credit_id": "588e4ecc925141183f00efc1", "gender": 0, "id": 1747348, "name": "A. J. Valentine", "order": 6, "profile_path": null}, {"cast_id": 9, "character": "The Malkia", "credit_id": "588e4efac3a368749400da86", "gender": 0, "id": 150945, "name": "Blanquita Romero", "order": 7, "profile_path": null}], "crew": [{"credit_id": "52fe4e979251416c91136d99", "department": "Directing", "gender": 0, "id": 44878, "job": "Director", "name": "Nathan H. Juran", "profile_path": null}]}}