{"adult": false, "backdrop_path": null, "belongs_to_collection": null, "budget": 0, "genres": [{"id": 27, "name": "Horror"}], "homepage": "http://www.filmutea.com/panzerchocolate/", "id": 254010, "imdb_id": "tt2869762", "original_language": "en", "original_title": "Panzer Chocolate", "overview": "When an Archaeology student and her friends discover a Nazi bunker called 'Valhalla', their search for stolen pieces of art becomes a nightmare. The place is guarded by a hideous beast, and they find themselves running for their lives.", "popularity": 2.847, "poster_path": "/9VqC0X3CBuID6OAVgdcWufi7Zpk.jpg", "production_companies": [{"id": 19817, "logo_path": null, "name": "Filmutea", "origin_country": ""}, {"id": 7566, "logo_path": null, "name": "Silencio Rodamos Producciones", "origin_country": ""}], "production_countries": [{"iso_3166_1": "ES", "name": "Spain"}], "release_date": "2013-11-22", "revenue": 0, "runtime": 84, "spoken_languages": [{"iso_639_1": "de", "name": "Deutsch"}, {"iso_639_1": "en", "name": "English"}], "status": "Released", "tagline": "The darkest Nazi secret... is about to be revealed!", "title": "Panzer Chocolate", "video": false, "vote_average": 4.0, "vote_count": 3, "keywords": {"keywords": [{"id": 1299, "name": "monster"}, {"id": 2652, "name": "nazi"}, {"id": 2908, "name": "secret society"}, {"id": 5774, "name": "forest"}, {"id": 14964, "name": "drugs"}]}, "similar": {"page": 1, "results": [{"id": 433808, "video": false, "vote_count": 1307, "vote_average": 6.0, "title": "The Ritual", "release_date": "2017-10-11", "original_language": "en", "original_title": "The Ritual", "genre_ids": [27], "backdrop_path": "/vaArQHq1lHFNppoJlMlv30Gs2fQ.jpg", "adult": false, "overview": "A group of college friends reunite for a trip to the forest, but encounter a menacing presence in the woods that's stalking them.", "poster_path": "/9022CYEGqYETCeXN1oE3uwYJWub.jpg", "popularity": 16.285}, {"id": 588, "video": false, "vote_count": 2408, "vote_average": 6.4, "title": "Silent Hill", "release_date": "2006-04-21", "original_language": "en", "original_title": "Silent Hill", "genre_ids": [27, 9648], "backdrop_path": "/6tfW4BjdgwuYSD7gaEMEEPoDcpH.jpg", "adult": false, "overview": "The eerie and deserted ghost town of Silent Hill draws a young mother desperate to find a cure for her only child's illness. Unable to accept the doctor's diagnosis that her daughter should be permanently institutionalized for psychiatric care, Rose flees with her child, heading for the abandoned town in search of answers \u2013 and ignoring the protests of her husband. It's soon clear this place is unlike anywhere she's ever been. It's smothered by fog, inhabited by a variety of strange beings and periodically overcome by a living 'darkness' that literally transforms everything it touches. As Rose searches for her little girl, she begins to learn the history of the strange town and realizes that her daughter is just a pawn in a larger game.", "poster_path": "/4Zz9cF8S4E7DITosNYh3spybYJb.jpg", "popularity": 20.72}, {"adult": false, "backdrop_path": "/iLvqbCanH1liQ5VERCyCR31GkkL.jpg", "genre_ids": [35, 27, 878], "id": 15762, "original_language": "en", "original_title": "Night of the Creeps", "overview": "In 1959, an alien experiment crashes to earth and infects a fraternity member. They freeze the body, but in the modern day, two geeks pledging a fraternity accidentally thaw the corpse, which proceeds to infect the campus with parasites that transform their hosts into killer zombies.", "poster_path": "/A3s2tQGNb6mhlr1hPZeE5F8IUwp.jpg", "release_date": "1986-08-21", "title": "Night of the Creeps", "video": false, "vote_average": 6.6, "vote_count": 219, "popularity": 10.383}, {"id": 301846, "video": false, "vote_count": 238, "vote_average": 5.2, "title": "Howl", "release_date": "2015-10-01", "original_language": "en", "original_title": "Howl", "genre_ids": [27], "backdrop_path": "/f6zcd6ZVviZnCdjqdtZtWKTNDDM.jpg", "adult": false, "overview": "When passengers on a train are attacked by a creature, they must band together in order to survive until morning.", "poster_path": "/sGEOC8x0lXSlIV4hoIZjnOnze9e.jpg", "popularity": 11.373}, {"id": 9538, "video": false, "vote_count": 522, "vote_average": 6.8, "title": "Scanners", "release_date": "1981-01-14", "original_language": "en", "original_title": "Scanners", "genre_ids": [27, 878], "backdrop_path": "/7kAXrqKDAt8vnVTJs3JIwfWYeGy.jpg", "adult": false, "overview": "After a man with extraordinary\u2014and frighteningly destructive\u2014telepathic abilities is nabbed by agents from a mysterious rogue corporation, he discovers he is far from the only possessor of such strange powers, and that some of the other \u201cscanners\u201d have their minds set on world domination, while others are trying to stop them.", "poster_path": "/zTfR7eZR7johzHzRpkr7cWCkLrm.jpg", "popularity": 14.134}, {"id": 6312, "video": false, "vote_count": 767, "vote_average": 6.6, "title": "Brotherhood of the Wolf", "release_date": "2001-01-31", "original_language": "fr", "original_title": "Le Pacte des loups", "genre_ids": [28, 12, 36, 27], "backdrop_path": "/l0GhQUGBjNxCA1kdDWaTPgsgNxF.jpg", "adult": false, "overview": "In 18th century France, the Chevalier de Fronsac and his Native American friend Mani are sent by the King to the Gevaudan province to investigate the killings of hundreds by a mysterious beast.", "poster_path": "/4jDtKADOlvE2HyqKAFvzvYFwKdy.jpg", "popularity": 12.846}, {"adult": false, "backdrop_path": "/kiWvoV78Cc3fUwkOHKzyBgVdrDD.jpg", "genre_ids": [37, 18, 12], "id": 281957, "original_language": "en", "original_title": "The Revenant", "overview": "In the 1820s, a frontiersman, Hugh Glass, sets out on a path of vengeance against those who left him for dead after a bear mauling.", "poster_path": "/oXUWEc5i3wYyFnL1Ycu8ppxxPvs.jpg", "release_date": "2015-12-25", "title": "The Revenant", "video": false, "vote_average": 7.5, "vote_count": 12127, "popularity": 24.135}, {"id": 398181, "video": false, "vote_count": 1302, "vote_average": 6.6, "title": "You Were Never Really Here", "release_date": "2017-11-08", "original_language": "en", "original_title": "You Were Never Really Here", "genre_ids": [53], "backdrop_path": "/h4Lk8Cgfvlzz0hcnSJBTAOwNDia.jpg", "adult": false, "overview": "A traumatised veteran, unafraid of violence, tracks down missing girls for a living. When a job spins out of control, Joe's nightmares overtake him as a conspiracy is uncovered leading to what may be his death trip or his awakening.", "poster_path": "/ktPbjD6nYg5NxmeTt72Iqaw5GD0.jpg", "popularity": 16.619}, {"id": 339692, "video": false, "vote_count": 1166, "vote_average": 6.9, "title": "Shot Caller", "release_date": "2017-07-13", "original_language": "en", "original_title": "Shot Caller", "genre_ids": [80, 18, 53], "backdrop_path": "/hehboYLXB3m90x9ybiBsupwuifL.jpg", "adult": false, "overview": "A newly-released prison gangster is forced by the leaders of his gang to orchestrate a major crime with a brutal rival gang on the streets of Southern California.", "poster_path": "/qLmLz2wtyYvmW8Ult3l2ngOnW8v.jpg", "popularity": 22.37}, {"id": 16869, "video": false, "vote_count": 13525, "vote_average": 8.1, "title": "Inglourious Basterds", "release_date": "2009-08-18", "original_language": "en", "original_title": "Inglourious Basterds", "genre_ids": [28, 18, 53, 10752], "backdrop_path": "/50VD6QU0NX0aRB6ftKCVWun80bm.jpg", "adult": false, "overview": "In Nazi-occupied France during World War II, a group of Jewish-American soldiers known as \"The Basterds\" are chosen specifically to spread fear throughout the Third Reich by scalping and brutally killing Nazis. The Basterds, lead by Lt. Aldo Raine soon cross paths with a French-Jewish teenage girl who runs a movie theater in Paris which is targeted by the soldiers.", "poster_path": "/ai0LXkzVM3hMjDhvFdKMUemoBe.jpg", "popularity": 32.532}, {"id": 395834, "video": false, "vote_count": 2755, "vote_average": 7.4, "title": "Wind River", "release_date": "2017-08-03", "original_language": "en", "original_title": "Wind River", "genre_ids": [80, 18, 9648, 53], "backdrop_path": "/6B8e784decj9vtKuNjbl9Fes2aZ.jpg", "adult": false, "overview": "An FBI agent teams with the town's veteran game tracker to investigate a murder that occurred on a Native American reservation.", "poster_path": "/pySivdR845Hom4u4T2WNkJxe6Ad.jpg", "popularity": 16.931}, {"id": 442249, "video": false, "vote_count": 2159, "vote_average": 5.8, "title": "The First Purge", "release_date": "2018-07-04", "original_language": "en", "original_title": "The First Purge", "genre_ids": [28, 27, 878, 53], "backdrop_path": "/r4clWIxKeWoqrHspQP0XunuUmB7.jpg", "adult": false, "overview": "To push the crime rate below one percent for the rest of the year, the New Founding Fathers of America test a sociological theory that vents aggression for one night in one isolated community. But when the violence of oppressors meets the rage of the others, the contagion will explode from the trial-city borders and spread across the nation.", "poster_path": "/litjsBoiydO6JlO70uOX4N3WnNL.jpg", "popularity": 27.656}, {"adult": false, "backdrop_path": "/19qAk3bQZ6ulspbwhPw1A0bNpii.jpg", "genre_ids": [80, 27, 53], "id": 73861, "original_language": "sr", "original_title": "Srpski film", "overview": "Milos, a retired porn star, leads a normal family life trying to make ends meet. Presented with the opportunity of a lifetime to financially support his family for the rest of their lives, Milos must participate in one last mysterious film. From then on, Milos is drawn into a maelstrom of unbelievable cruelty and mayhem.", "poster_path": "/iB3ynCghwG63MrViBC6YyPzUIAn.jpg", "release_date": "2010-06-16", "title": "A Serbian Film", "video": false, "vote_average": 5.5, "vote_count": 898, "popularity": 16.013}, {"id": 438799, "video": false, "vote_count": 1395, "vote_average": 6.6, "title": "Overlord", "release_date": "2018-11-01", "original_language": "en", "original_title": "Overlord", "genre_ids": [27, 878, 10752], "backdrop_path": "/sHNC8hjAu4ZKXYhG3cp8ghRZ02B.jpg", "adult": false, "overview": "France, June 1944. On the eve of D-Day, some American paratroopers fall behind enemy lines after their aircraft crashes while on a mission to destroy a radio tower in a small village near the beaches of Normandy. After reaching their target, the surviving paratroopers realise that, in addition to fighting the Nazi troops that patrol the village, they also must fight against something else.", "poster_path": "/l76Rgp32z2UxjULApxGXAPpYdAP.jpg", "popularity": 21.552}, {"id": 9373, "video": false, "vote_count": 1414, "vote_average": 6.1, "title": "The Texas Chainsaw Massacre", "release_date": "2003-05-21", "original_language": "en", "original_title": "The Texas Chainsaw Massacre", "genre_ids": [27], "backdrop_path": "/3rTsJ7tIC3LUSRr80PfeLbbCfBA.jpg", "adult": false, "overview": "After picking up a traumatized young hitchhiker, five friends find themselves stalked and hunted by a deformed chainsaw-wielding killer and his family of equally psychopathic killers.", "poster_path": "/gx7FCIOFGxqNyplF3t7qtmUv55g.jpg", "popularity": 19.117}, {"adult": false, "backdrop_path": "/o4psXh7IVD6GFKvBSHjHLzjL2lV.jpg", "genre_ids": [27, 53], "id": 10781, "original_language": "en", "original_title": "The Texas Chainsaw Massacre: The Beginning", "overview": "Chrissie and her friends set out on a road trip for a final fling before one is shipped off to Vietnam. Along the way, bikers harass the foursome and cause an accident that throws Chrissie from the vehicle. The lawman who arrives on the scene kills one of the bikers and brings Chrissie's friends to the Hewitt homestead, where young Leatherface is learning the tools of terror.", "poster_path": "/9elCJIG1TOJ0wew3JVx5ZMkHq5w.jpg", "release_date": "2006-10-06", "title": "The Texas Chainsaw Massacre: The Beginning", "video": false, "vote_average": 6.0, "vote_count": 936, "popularity": 19.211}, {"adult": false, "backdrop_path": "/zWGAnbxjjwY3xFGuOeR26LGbBlG.jpg", "genre_ids": [27, 53], "id": 238636, "original_language": "en", "original_title": "The Purge: Anarchy", "overview": "One night per year, the government sanctions a 12-hour period in which citizens can commit any crime they wish -- including murder -- without fear of punishment or imprisonment. Leo, a sergeant who lost his son, plans a vigilante mission of revenge during the mayhem. However, instead of a death-dealing avenger, he becomes the unexpected protector of four innocent strangers who desperately need his help if they are to survive the night.", "poster_path": "/l1DRl40x2OWUoPP42v8fjKdS1Z3.jpg", "release_date": "2014-07-17", "title": "The Purge: Anarchy", "video": false, "vote_average": 6.6, "vote_count": 4145, "popularity": 36.766}, {"id": 9902, "video": false, "vote_count": 1298, "vote_average": 6.2, "title": "Wrong Turn", "release_date": "2003-05-30", "original_language": "en", "original_title": "Wrong Turn", "genre_ids": [27, 53], "backdrop_path": "/creyffSSB77AsPHclQlVc2Iu2BR.jpg", "adult": false, "overview": "Chris crashes into a carload of other young people, and the group of stranded motorists is soon lost in the woods of West Virginia, where they're hunted by three cannibalistic mountain men who are grossly disfigured by generations of inbreeding.", "poster_path": "/kyn0ZC8tvLWuKN85mhlG1lwB1WQ.jpg", "popularity": 25.918}, {"adult": false, "backdrop_path": "/7pMlmyqitl0nqpEGOL3v8dEbu2K.jpg", "genre_ids": [28, 53, 27], "id": 341006, "original_language": "en", "original_title": "The Belko Experiment", "overview": "A group of eighty American workers are locked in their office and ordered by an unknown voice to participate in a twisted game.", "poster_path": "/faJK0dP3S92kQoKtO4LZMjy41kf.jpg", "release_date": "2016-03-17", "title": "The Belko Experiment", "video": false, "vote_average": 6.1, "vote_count": 852, "popularity": 13.193}, {"id": 473149, "video": false, "vote_count": 195, "vote_average": 5.9, "title": "Traffik", "release_date": "2018-04-20", "original_language": "en", "original_title": "Traffik", "genre_ids": [27, 53], "backdrop_path": "/wbk9VvJ8lkUF0ElpfRm3dFIzMJf.jpg", "adult": false, "overview": "A couple off for a romantic weekend in the mountains are accosted by a biker gang. Alone in the mountains, Brea and John must defend themselves against the gang, who will stop at nothing to protect their secrets.", "poster_path": "/e2Z466e9402RFP6wxRMfXYYiJHA.jpg", "popularity": 31.63}], "total_pages": 396, "total_results": 7918}, "recommendations": {"page": 1, "results": [{"adult": false, "backdrop_path": null, "genre_ids": [], "id": 386621, "original_language": "en", "original_title": "The Hum", "overview": "Follows one man's potential descent into mind-numbing madness from a low humming noise. George is a man who seemingly has it all, including a loving wife, a large home and a solid career, but these societal status symbols fail to bring him happiness. Is the hum real?", "poster_path": "/tYL6yx3gKJWuVwQOS2Ajs5mPgWm.jpg", "release_date": "2015-03-02", "title": "The Hum", "video": false, "vote_average": 4.7, "vote_count": 3, "popularity": 1.536}], "total_pages": 1, "total_results": 1}, "credits": {"cast": [{"cast_id": 1, "character": "Frau Frida", "credit_id": "52fe4e9f9251416c91137f8d", "gender": 1, "id": 400, "name": "Geraldine Chaplin", "order": 0, "profile_path": "/mnPoiJrhJjJArySW8wMpf84pCxu.jpg"}, {"cast_id": 2, "character": "Julie Levinson", "credit_id": "52fe4e9f9251416c91137f91", "gender": 1, "id": 1289925, "name": "Melina Matthews", "order": 1, "profile_path": "/o1wGecgtb9YUzGLW6NF8X4Hnp5J.jpg"}, {"cast_id": 3, "character": "Rask Nogu\u00e9", "credit_id": "52fe4e9f9251416c91137f95", "gender": 1, "id": 30352, "name": "Ariadna Cabrol", "order": 2, "profile_path": "/nalZ1qAFLdIiBvQ2VDL5W4nW6C.jpg"}, {"cast_id": 4, "character": "Joe Brown", "credit_id": "52fe4e9f9251416c91137f99", "gender": 0, "id": 1047252, "name": "Tony Corvillo", "order": 3, "profile_path": null}, {"cast_id": 5, "character": "Micky Allen", "credit_id": "52fe4e9f9251416c91137f9d", "gender": 2, "id": 1257573, "name": "Mark Schardan", "order": 4, "profile_path": "/kmfUpG8YkPeh23FeRkEra6yzJm6.jpg"}], "crew": [{"credit_id": "52fe4e9f9251416c91137fa3", "department": "Directing", "gender": 0, "id": 1289926, "job": "Director", "name": "Robert Figueras", "profile_path": null}, {"credit_id": "52fe4e9f9251416c91137fa9", "department": "Sound", "gender": 0, "id": 1289927, "job": "Music", "name": "Pep Sala", "profile_path": null}, {"credit_id": "52fe4e9f9251416c91137faf", "department": "Crew", "gender": 0, "id": 1289928, "job": "Cinematography", "name": "\u00cd\u00f1igo Zubicaray", "profile_path": null}, {"credit_id": "52fe4e9f9251416c91137fb5", "department": "Editing", "gender": 0, "id": 1289929, "job": "Editor", "name": "Regino Hern\u00e1ndez", "profile_path": null}, {"credit_id": "52fe4e9f9251416c91137fbb", "department": "Art", "gender": 0, "id": 1289930, "job": "Production Design", "name": "Andrea Ancibar", "profile_path": null}, {"credit_id": "52fe4e9f9251416c91137fc1", "department": "Art", "gender": 0, "id": 1289931, "job": "Production Design", "name": "Luis Rugarcia", "profile_path": null}, {"credit_id": "52fe4e9f9251416c91137fc7", "department": "Writing", "gender": 0, "id": 1289933, "job": "Writer", "name": "Gemma Dunj\u00f3", "profile_path": null}, {"credit_id": "52fe4e9f9251416c91137fcd", "department": "Writing", "gender": 0, "id": 1289926, "job": "Writer", "name": "Robert Figueras", "profile_path": null}, {"credit_id": "52fe4e9f9251416c91137fd3", "department": "Writing", "gender": 0, "id": 1016265, "job": "Writer", "name": "Pep Garrido", "profile_path": null}, {"credit_id": "52fe4e9f9251416c91137fd9", "department": "Production", "gender": 0, "id": 1289926, "job": "Producer", "name": "Robert Figueras", "profile_path": null}, {"credit_id": "586e6429925141295c008100", "department": "Production", "gender": 0, "id": 1733157, "job": "Producer", "name": "Luis Cordal", "profile_path": null}, {"credit_id": "586e6442c3a3683b6900752a", "department": "Production", "gender": 0, "id": 1289933, "job": "Producer", "name": "Gemma Dunj\u00f3", "profile_path": null}, {"credit_id": "586e647fc3a3683b71008202", "department": "Production", "gender": 0, "id": 1733158, "job": "Producer", "name": "Diego Rodriguez", "profile_path": null}, {"credit_id": "586e6492925141295f007fea", "department": "Production", "gender": 2, "id": 1108387, "job": "Producer", "name": "David Sanz", "profile_path": null}, {"credit_id": "586e64b6c3a3683b7e008a9f", "department": "Costume & Make-Up", "gender": 0, "id": 1733159, "job": "Costume Design", "name": "Vinyet Escobar", "profile_path": null}, {"credit_id": "586e64c792514129530081e4", "department": "Costume & Make-Up", "gender": 0, "id": 1733160, "job": "Costume Design", "name": "Maria Tuset", "profile_path": null}, {"credit_id": "586e64e1c3a3683b780076a1", "department": "Art", "gender": 0, "id": 1733161, "job": "Assistant Art Director", "name": "Rebecca Gil", "profile_path": null}, {"credit_id": "586e64f3925141295f00803d", "department": "Art", "gender": 2, "id": 1733162, "job": "Assistant Art Director", "name": "Abd\u00f3n Alca\u00f1iz", "profile_path": null}, {"credit_id": "586e650bc3a3683b780076c6", "department": "Crew", "gender": 0, "id": 1733163, "job": "Property Master", "name": "Cristina Foradada", "profile_path": null}, {"credit_id": "586e6520925141294e0080bb", "department": "Directing", "gender": 0, "id": 1579566, "job": "Script Supervisor", "name": "Juan Antonio Agull\u00f3", "profile_path": null}, {"credit_id": "586e6537c3a3683b64008f72", "department": "Lighting", "gender": 0, "id": 1733164, "job": "Gaffer", "name": "Josep Maria Balagu\u00e9", "profile_path": null}, {"credit_id": "586e6551925141295100836c", "department": "Camera", "gender": 0, "id": 1381241, "job": "First Assistant Camera", "name": "Mireia Serrano", "profile_path": null}, {"credit_id": "586e65749251412956008111", "department": "Camera", "gender": 0, "id": 1733165, "job": "Steadicam Operator", "name": "Octavi Foj", "profile_path": null}, {"credit_id": "586e658e925141294e00810b", "department": "Visual Effects", "gender": 0, "id": 1367435, "job": "Visual Effects Supervisor", "name": "Luis Tinoco", "profile_path": null}, {"credit_id": "586e65bf925141295c00820e", "department": "Editing", "gender": 0, "id": 1405360, "job": "Dialogue Editor", "name": "Laura D\u00edez Mora", "profile_path": null}, {"credit_id": "586e65dcc3a3683b690075ff", "department": "Sound", "gender": 0, "id": 1381236, "job": "Foley", "name": "Kiku Vidal", "profile_path": null}, {"credit_id": "586e6601c3a3683b69007612", "department": "Sound", "gender": 0, "id": 1405361, "job": "Sound Designer", "name": "Marc Bech", "profile_path": null}, {"credit_id": "586e661692514129530082d9", "department": "Sound", "gender": 0, "id": 1572874, "job": "Sound Effects Editor", "name": "Albert Ribas", "profile_path": null}, {"credit_id": "586e662dc3a3683b7100832e", "department": "Sound", "gender": 0, "id": 1400474, "job": "Sound Re-Recording Mixer", "name": "Marc Orts", "profile_path": null}, {"credit_id": "586e665f925141294e008168", "department": "Visual Effects", "gender": 2, "id": 1653096, "job": "Character Designer", "name": "Daniel Carrasco", "profile_path": null}, {"credit_id": "586e66759251412963008469", "department": "Visual Effects", "gender": 0, "id": 1733169, "job": "Character Designer", "name": "Diego Vera", "profile_path": null}, {"credit_id": "586e668ac3a3683b69007650", "department": "Costume & Make-Up", "gender": 0, "id": 1733171, "job": "Makeup Artist", "name": "Marta de los R\u00edos", "profile_path": null}]}}