{"adult": false, "backdrop_path": "/6XF93dLCCM321hL4YbofCpKtq14.jpg", "belongs_to_collection": null, "budget": 0, "genres": [{"id": 35, "name": "Comedy"}, {"id": 10749, "name": "Romance"}], "homepage": null, "id": 254866, "imdb_id": "tt3547428", "original_language": "en", "original_title": "ABNKKBSNPLAKo?!", "overview": "ABNKKBSNPLako?! The Movie follows the timeline of writer Bob Ong's school days, the main concept is to reminiscent the unforgettable memories of the old high school life.", "popularity": 1.804, "poster_path": "/t0TUxme1mDEbYOWrHyGVyOdpGcH.jpg", "production_companies": [{"id": 8356, "logo_path": null, "name": "Viva Films", "origin_country": "PH"}, {"id": 16614, "logo_path": null, "name": "MVP Pictures", "origin_country": "ID"}], "production_countries": [{"iso_3166_1": "PH", "name": "Philippines"}], "release_date": "2014-02-05", "revenue": 0, "runtime": 110, "spoken_languages": [{"iso_639_1": "tl", "name": ""}], "status": "Released", "tagline": "Bob Ong", "title": "ABNKKBSNPLAKo?!", "video": false, "vote_average": 6.0, "vote_count": 2, "keywords": {"keywords": [{"id": 6895, "name": "philippines"}]}, "similar": {"page": 1, "results": [{"id": 576235, "video": false, "vote_count": 0, "vote_average": 0.0, "title": "Elise", "release_date": "2019-02-06", "original_language": "tl", "original_title": "Elise", "genre_ids": [35, 10749], "backdrop_path": "/5yNJKAAV4Ab4DnjRXCVEqalROrC.jpg", "adult": false, "overview": "As their paths cross again several years later, Bert has a hard time acknowledging that he is still in love with Elise.", "poster_path": "/msKjsFkcc7qLJhekzWzpsgQjG8g.jpg", "popularity": 9.948}, {"id": 553100, "video": false, "vote_count": 13, "vote_average": 6.2, "title": "Wild and Free", "release_date": "2018-10-10", "original_language": "tl", "original_title": "Wild and Free", "genre_ids": [18], "backdrop_path": "/9v4nPAyVvtGONV5NtPkDHA9bczS.jpg", "adult": false, "overview": "Ellie and Jake fall in love, but struggle with their relationship when they discover an unexpected connection between their pasts.", "poster_path": "/AhDZQkocc4DQpkSY5dTOmqesqXn.jpg", "popularity": 28.337}, {"adult": false, "backdrop_path": null, "genre_ids": [27, 14], "id": 620413, "original_language": "tl", "original_title": "Sa Gabing Tanging Liwanag Ay Paniniwala", "overview": "The continuous disappearance of townsmen ignited the town captain to search the woods in order to find out who is behind the disappearances and where are the people being brought to. Upon his search, the town captain and his son came across a mysterious answer.", "poster_path": "/jngkUyvbdD5bxNKqoKuj1bVyFha.jpg", "release_date": "2019-08-03", "title": "Sa Gabing Tanging Liwanag Ay Paniniwala", "video": false, "vote_average": 0.0, "vote_count": 0, "popularity": 0.945}, {"id": 49040, "video": false, "vote_count": 3881, "vote_average": 6.1, "title": "The Bourne Legacy", "release_date": "2012-08-08", "original_language": "en", "original_title": "The Bourne Legacy", "genre_ids": [28, 53], "backdrop_path": "/gCdJYpX1TXGEZrEJl0mMTTpinMh.jpg", "adult": false, "overview": "New CIA operative Aaron Cross experiences life-or-death stakes that have been triggered by the previous actions of Jason Bourne.", "poster_path": "/qIJonjlSzU6LCJklS6CH3p5vLcQ.jpg", "popularity": 20.243}, {"adult": false, "backdrop_path": null, "genre_ids": [35, 80], "id": 565156, "original_language": "tl", "original_title": "Ang Pangarap Kong Holdap", "overview": "A group of friends set out a plan for a perfect crime.", "poster_path": "/iLubK0GqnQPq74OztLN3C0Pp9R0.jpg", "release_date": "2018-11-28", "title": "Ang Pangarap Kong Holdap", "video": false, "vote_average": 2.0, "vote_count": 1, "popularity": 6.741}, {"adult": false, "backdrop_path": "/gT8pjzyprU8zwwJan8Y9enSUmyo.jpg", "genre_ids": [35, 10749], "id": 548789, "original_language": "tl", "original_title": "The Hopeful Romantic", "overview": "Jess, a bellboy working at The Manila Hotel, is gifted an all-expenses paid stay at the hotel's most expensive suite. And during his stay, he encounters Veronica, a professional golddigger. Jess keeps up the illusion of being a rich guest of the hotel, hoping to get Veronica to fall in love with him before he has to tell her the truth.", "poster_path": "/23WBe0eWfARtbsZIUmVbgA0CGg7.jpg", "release_date": "2018-09-12", "title": "The Hopeful Romantic", "video": false, "vote_average": 3.0, "vote_count": 4, "popularity": 10.058}, {"adult": false, "backdrop_path": "/34xYArXhdaFiYp0zppC7Dk7m5zW.jpg", "genre_ids": [53, 80, 18, 9648], "id": 183026, "original_language": "en", "original_title": "Rigodon", "overview": "A heartbroken young woman begins a sexual relationship with a struggling artista, not knowing that her new beau is already married. As the truth comes out, obsession and jealousy bring pain into all their lives.", "poster_path": "/kwPyz2Oa7IcjRsm6bJlOQSgsh63.jpg", "release_date": "2012-11-21", "title": "Rigodon", "video": false, "vote_average": 6.7, "vote_count": 8, "popularity": 11.962}, {"adult": false, "backdrop_path": "/5oFqUQDyUxHarGKBITc3l8upu6F.jpg", "genre_ids": [18, 10749], "id": 369927, "original_language": "en", "original_title": "A Second Chance", "overview": "In the continuation of Popoy and Basha\u2019s love story from \u201cOne More Chance,\u201d we find the couple walking down the aisle and vowing to love each other \u201cforever and ever.\u201d \u201cA Second Chance\u201d explores realities and intricacies and Popoy and Basha\u2019s married life. We find Popoy as a failed achiever, struggling to keep his business and self-esteem intact, while Basha has given up so much in her life to keep their marriage together.", "poster_path": "/2q20s3mfjjkTCEwKIbxm8m4pGeM.jpg", "release_date": "2015-11-25", "title": "A Second Chance", "video": false, "vote_average": 7.2, "vote_count": 8, "popularity": 3.423}, {"adult": false, "backdrop_path": "/jYZ415g5qBx0ea4ZgriNeWH0Tl7.jpg", "genre_ids": [28, 35, 10749], "id": 9660, "original_language": "en", "original_title": "Operation Petticoat", "overview": "A World War II submarine commander finds himself stuck with a decrepit sub, a con-man executive officer, and a group of army nurses.", "poster_path": "/emhiXStVB3HoE2MtYVRzTNOgOMn.jpg", "release_date": "1959-12-05", "title": "Operation Petticoat", "video": false, "vote_average": 7.1, "vote_count": 142, "popularity": 8.116}, {"id": 4539, "video": false, "vote_count": 149, "vote_average": 8.0, "title": "Hearts of Darkness: A Filmmaker's Apocalypse", "release_date": "1991-09-06", "original_language": "en", "original_title": "Hearts of Darkness: A Filmmaker's Apocalypse", "genre_ids": [99], "backdrop_path": "/mQ6GJtc5xZpNQpVhAfoeZZbrzJO.jpg", "adult": false, "overview": "A chronicle of the production problems \u2014 including bad weather, actors' health, war near the filming locations, and more \u2014 which plagued the filming of Apocalypse Now, increasing costs and nearly destroying the life and career of Francis Ford Coppola.", "poster_path": "/iQLXcATpUxrRdEzxoDqzCgYllnT.jpg", "popularity": 8.496}, {"adult": false, "backdrop_path": "/2HYvAhyrIaYG2AcdyAZX4FWIZo2.jpg", "genre_ids": [10749, 18], "id": 134380, "original_language": "en", "original_title": "The Mistress", "overview": "A young woman is torn between the affections of her two lovers. One is a young bachelor who brings passion into her life. The other is a married man who has kept her as his mistress for years. Architect JD has a chip on his shoulder about his father Rico never really accepting him as his son. Seamstress Sari struggles to take care of her family. The two meet by chance, and JD aggressively pursues Saris affections. Though the two are clearly a good match, there is a problem standing in the way of their bliss: Sari is the mistress of JDs father. Against his better judgment, JD continues to court Sari even after finding out this difficult fact. He hides his true identity as Ricos son, and fights to win Saris heart.", "poster_path": "/1tB0ClfLmo9kAijLvHzSCR65DUh.jpg", "release_date": "2012-09-21", "title": "The Mistress", "video": false, "vote_average": 6.4, "vote_count": 7, "popularity": 5.286}, {"adult": false, "backdrop_path": "/oxfN2hOLhMPCuDdG68f3wAV7uIu.jpg", "genre_ids": [80, 18, 10749], "id": 18311, "original_language": "cn", "original_title": "\u963f\u98db\u6b63\u50b3", "overview": "Yuddy, a Hong Kong playboy known for breaking girls' hearts, tries to find solace and the truth after discovering the woman who raised him isn't his mother.", "poster_path": "/8GxQZTt3WNke0TqKGCBuTmTxMu8.jpg", "release_date": "1990-12-15", "title": "Days of Being Wild", "video": false, "vote_average": 7.4, "vote_count": 172, "popularity": 11.268}, {"adult": false, "backdrop_path": "/n4yqgEw0uUu8erfouZ1ORSpBTAH.jpg", "genre_ids": [10752, 18, 36], "id": 403357, "original_language": "es", "original_title": "1898: los \u00faltimos de Filipinas", "overview": "The Philippines, 1898. Fifty Spanish soldiers arrive in the small village of Baler to rebuild an outpost. Although the war against the Filipinos and their American allies is almost lost, as is the Spanish Empire, the garrison will endure a cruel siege for eleven months. They will be the last to surrender.", "poster_path": "/q2CbFRigH5qz8v68Q5GbadSMcOz.jpg", "release_date": "2016-12-02", "title": "1898: Our Last Men in the Philippines", "video": false, "vote_average": 6.5, "vote_count": 80, "popularity": 7.653}, {"adult": false, "backdrop_path": null, "genre_ids": [99, 10402], "id": 635872, "original_language": "tl", "original_title": "ICYMI: I See Me", "overview": "A music documentary on MNL48, a franchise of the highly successful Japanese idol group, AKB48. The film looks into the girls as they perform within a music subculture that tries to get a foothold in a market of an overtly critical audience.", "poster_path": "/dDx99h6KtrGMjAV2pskUJigBbEY.jpg", "release_date": "2019-10-21", "title": "ICYMI: I See Me", "video": false, "vote_average": 0.0, "vote_count": 0, "popularity": 1.083}, {"id": 19096, "video": false, "vote_count": 26, "vote_average": 6.1, "title": "Back to Bataan", "release_date": "1945-05-30", "original_language": "en", "original_title": "Back to Bataan", "genre_ids": [28, 18, 10752], "backdrop_path": "/6FRB0D9SJ2vZitrXuRuwCJMWT2W.jpg", "adult": false, "overview": "An Army colonel leads a guerrilla campaign against the Japanese in the Philippines.", "poster_path": "/nfoHUCIXIzKX1AhkWOXEmCKmHzI.jpg", "popularity": 7.138}, {"adult": false, "backdrop_path": "/8FtzdLyAL7P1y2S1HnmOlNr9bUX.jpg", "genre_ids": [35, 10749], "id": 461438, "original_language": "tl", "original_title": "Can We Still Be Friends?", "overview": "Digs a no fuss, no frills kind of guy and idealistic achiever Sam who are friends turned lovers turned exes. Their relationship as a couple lasted for almost eight years until they both decided on an amicable breakup.", "poster_path": "/rUlMsLiL1iUvqE8YYwog0KPz6sV.jpg", "release_date": "2017-06-14", "title": "Can We Still Be Friends?", "video": false, "vote_average": 6.2, "vote_count": 175, "popularity": 5.45}, {"adult": false, "backdrop_path": "/9yytl7scc1qxDWKtJmdVK2FS4nq.jpg", "genre_ids": [18, 35, 10749], "id": 52800, "original_language": "tl", "original_title": "A Very Special Love", "overview": "Laida Magtalas is a modern-day Belle who works hard to provide for her family while hoping that someday she will meet her prince charming and that they will live happily ever after together. That would-be prince charming is none other than \"Miggy\", the youngest member of the Montenegro clan \u2014 a well established family in the business world. Moony Laida's desire to finally meet Miggy leads her to apply as an Editorial Assistant at his newly launched men\u2019s magazine, \"Bachelor\". In spite of the fact that a relationship with Miggy may prove to be a long shot, Laida revels working in such close proximity with the man of her dreams.", "poster_path": "/eggMe506MiKRzDKuY1yAO71sUGY.jpg", "release_date": "2008-08-03", "title": "A Very Special Love", "video": false, "vote_average": 7.3, "vote_count": 3, "popularity": 3.929}, {"adult": false, "backdrop_path": "/3pVJIuV4xPDNIMIv5ZsJPtTV67x.jpg", "genre_ids": [18, 28, 10752], "id": 31935, "original_language": "en", "original_title": "Too Late the Hero", "overview": "A WWII film set on a Pacific island. Japanese and allied forces occupy different parts of the island. When a group of British soldiers are sent on a mission behind enemy lines, things don't go exactly to plan. This film differs in that some of the 'heroes' are very reluctant, but they come good when they are pursued by the Japanese who are determined to prevent them returning to base.", "poster_path": "/gshAXlNmSpgJwll5Zi65N5TnGpO.jpg", "release_date": "1970-05-20", "title": "Too Late the Hero", "video": false, "vote_average": 6.4, "vote_count": 37, "popularity": 6.594}, {"adult": false, "backdrop_path": "/hsEm5oI9y1ImrVrSnjhjINlXjqy.jpg", "genre_ids": [80, 53, 27, 28], "id": 373786, "original_language": "en", "original_title": "Nilalang", "overview": "Nilalang tackles the underbelly of corrupt Philippine cops with the Japanese 'Yakuza' and its links to a centuries\u2019 old curse that may be responsible for the spate of serial killings happening in Manila.", "poster_path": "/hEfxu9VHXpSWipolwTgTLVAgBIt.jpg", "release_date": "2015-12-25", "title": "Creatures", "video": false, "vote_average": 8.0, "vote_count": 2, "popularity": 3.363}, {"adult": false, "backdrop_path": "/pdrv8rP6mUTZ6T1mK2VGxka4YYA.jpg", "genre_ids": [10749, 18], "id": 111412, "original_language": "tl", "original_title": "Sana Maulit Muli", "overview": "Two lovers, who are oceans apart, discover that distance can either make the heart grow fonder or render it numb with grief.", "poster_path": "/nzTtXPjUtzocAAXajgBhrhJMq04.jpg", "release_date": "1995-08-09", "title": "I Wish It Happens Again", "video": false, "vote_average": 6.0, "vote_count": 1, "popularity": 0.84}], "total_pages": 81, "total_results": 1620}, "recommendations": {"page": 1, "results": [], "total_pages": 1, "total_results": 0}, "credits": {"cast": [{"cast_id": 6, "character": "Roberto Ong", "credit_id": "537efe280e0a2624c30040d6", "gender": 0, "id": 227189, "name": "Jericho Rosales", "order": 0, "profile_path": "/t7Hwbl8W3PTGZ8uLiFjfcp0dl6.jpg"}, {"cast_id": 2, "character": "Special Someone", "credit_id": "52fe4ed49251416c9113f3a9", "gender": 1, "id": 1070049, "name": "Andi Eigenmann", "order": 1, "profile_path": "/epCVanQCaw5ohyhEiQxSk7HL4BJ.jpg"}, {"cast_id": 4, "character": "Portia", "credit_id": "530b615792514168dc000f4f", "gender": 1, "id": 1278226, "name": "Meg Imperial", "order": 2, "profile_path": "/l4sPKBP33bEjNqf2Tu90600Z6IG.jpg"}, {"cast_id": 7, "character": "Ulo", "credit_id": "55b51f269251411e0f014c64", "gender": 2, "id": 585889, "name": "Vandolph", "order": 3, "profile_path": "/8KqSaPgMFuUm1EUKce8YTTfNGqX.jpg"}, {"cast_id": 8, "character": "Nanay Lucing", "credit_id": "55b51f909251411e0b01472f", "gender": 0, "id": 223852, "name": "Bing Pimentel", "order": 4, "profile_path": "/6qNJlFnbYQv6MNKr26wCJ9eWm9E.jpg"}, {"cast_id": 9, "character": "Ms. Uyehara", "credit_id": "55b51fa39251410457004d8d", "gender": 0, "id": 1036367, "name": "Giselle Sanchez", "order": 5, "profile_path": "/xmAHd9pnOvb69ETf96GVXaEucE6.jpg"}, {"cast_id": 10, "character": "Ma'am Babes", "credit_id": "55b51fb59251411e14014e9d", "gender": 0, "id": 1202436, "name": "Evelyn Vargas", "order": 6, "profile_path": "/7JmTU4cWbnRhEpLWNwaRwyZ4CSV.jpg"}, {"cast_id": 11, "character": "Ken", "credit_id": "55b51fc79251411e14014ea0", "gender": 0, "id": 1360829, "name": "Paul Jake Castillo", "order": 7, "profile_path": null}, {"cast_id": 24, "character": "Roberto's Tatay", "credit_id": "55be0c349251413e4f004844", "gender": 2, "id": 934088, "name": "Julio Diaz", "order": 8, "profile_path": "/hys0GPXj3tLrI4kHc30LK1ouTpq.jpg"}, {"cast_id": 13, "character": "Vocational Teacher", "credit_id": "55b51ffc9251411e14014ea6", "gender": 0, "id": 1481735, "name": "Lander Vera-Perez", "order": 9, "profile_path": "/811GAgsSWMtGigYX5OwH1ZVTy0j.jpg"}, {"cast_id": 14, "character": "Teacher Tigang", "credit_id": "55b52008c3a3683002014705", "gender": 0, "id": 1269277, "name": "Marnie Lapuz", "order": 10, "profile_path": null}, {"cast_id": 15, "character": "Dalagita Student", "credit_id": "55b52014c3a3682190006c17", "gender": 0, "id": 225414, "name": "Gee-Ann Abrahan", "order": 11, "profile_path": null}, {"cast_id": 16, "character": "Young Roberto", "credit_id": "55b52027c3a3682ff4017a18", "gender": 0, "id": 1206294, "name": "Adrian Cabido", "order": 12, "profile_path": null}, {"cast_id": 17, "character": "Young Ulo", "credit_id": "55b52034c3a368297e0027a8", "gender": 0, "id": 1382748, "name": "Solomon Mark De Guzman", "order": 13, "profile_path": null}, {"cast_id": 18, "character": "Hammy", "credit_id": "55b520659251411e0f014c88", "gender": 0, "id": 1490616, "name": "Julia Klarisse Base", "order": 14, "profile_path": null}, {"cast_id": 19, "character": "Kissing Girl in Reunion", "credit_id": "55b52074925141788b007071", "gender": 0, "id": 1490609, "name": "Kharla Ramos", "order": 15, "profile_path": "/7kxEwYn4bVSAXmdaUT5lRXtjGo0.jpg"}, {"cast_id": 20, "character": "Student of Roberto", "credit_id": "55b52084925141788b007073", "gender": 0, "id": 1358194, "name": "Aj Muhlach", "order": 16, "profile_path": "/gqH8lak4YHu4fJzSA2nNyHVowLu.jpg"}, {"cast_id": 21, "character": "Highschool Classmate of Roberto", "credit_id": "55b5209b9251417364006a1a", "gender": 0, "id": 1481743, "name": "Joanna Mae Morales", "order": 17, "profile_path": null}, {"cast_id": 22, "character": "Security Guard in Mall", "credit_id": "55b520b69251411e0f014c8f", "gender": 0, "id": 1457791, "name": "Pio Balbuena", "order": 18, "profile_path": null}, {"cast_id": 23, "character": "Highschool Girlfriend of Portia", "credit_id": "55b520c4925141788b00707b", "gender": 0, "id": 1481740, "name": "Rose Van Ginkel", "order": 19, "profile_path": "/aEqPKtJ78rFPlLRe21JpZxmFjcb.jpg"}], "crew": [{"credit_id": "530b613f9251411108004eab", "department": "Directing", "gender": 0, "id": 227187, "job": "Director", "name": "Mark Meily", "profile_path": "/mva7eAzZbrp0g56hQavaTGkQvgf.jpg"}, {"credit_id": "587242249251413569017228", "department": "Writing", "gender": 0, "id": 1363281, "job": "Screenplay", "name": "Ned Trespeces", "profile_path": null}, {"credit_id": "5872422d9251413564016553", "department": "Writing", "gender": 0, "id": 1363281, "job": "Story", "name": "Ned Trespeces", "profile_path": null}, {"credit_id": "58724238c3a3684f1d018777", "department": "Writing", "gender": 0, "id": 1562767, "job": "Book", "name": "Bob Ong", "profile_path": null}, {"credit_id": "5872425c925141355b015fd5", "department": "Directing", "gender": 0, "id": 1735158, "job": "Assistant Director", "name": "Carlo Alvarez", "profile_path": null}]}}