{"adult": false, "backdrop_path": "/aNzCzG7fpoJv9GMien7KYDRuhAk.jpg", "belongs_to_collection": null, "budget": 0, "genres": [{"id": 27, "name": "Horror"}, {"id": 53, "name": "Thriller"}], "homepage": null, "id": 255674, "imdb_id": "tt2276258", "original_language": "en", "original_title": "The Visitant", "overview": "Samantha plays the role of \"Fortune Teller,\" but she is a thorough skeptic about \"paranormal activities\" and all things supernatural - she certainly doesn't believe in ghosts.", "popularity": 1.695, "poster_path": "/loiKkWUxubTtXZVzMbtH0TNoWch.jpg", "production_companies": [], "production_countries": [], "release_date": "2014-04-15", "revenue": 0, "runtime": 90, "spoken_languages": [{"iso_639_1": "en", "name": "English"}, {"iso_639_1": "de", "name": "Deutsch"}], "status": "Released", "tagline": "", "title": "The Visitant", "video": false, "vote_average": 4.7, "vote_count": 7, "keywords": {"keywords": [{"id": 8087, "name": "horror"}, {"id": 9950, "name": "thriller"}]}, "similar": {"page": 1, "results": [{"id": 619265, "video": false, "vote_count": 0, "vote_average": 0.0, "title": "The Cabin House", "release_date": "2019-10-31", "original_language": "en", "original_title": "The Cabin House", "genre_ids": [27, 53], "backdrop_path": null, "adult": false, "overview": "A group of college friends rent a cabin in a remote part of town for a weekend getaway. A weekend getaway that quickly turns from a weekend of fun to a weekend of pure terror.", "poster_path": "/yJBg7i9qciw9gKknt97vrxZyYUS.jpg", "popularity": 1.994}, {"id": 542224, "video": false, "vote_count": 0, "vote_average": 0.0, "title": "Gretel & Hansel", "release_date": "2020-01-30", "original_language": "en", "original_title": "Gretel & Hansel", "genre_ids": [14, 27, 53], "backdrop_path": "/en1XAePgWqNSXb82luUMmo5u3cF.jpg", "adult": false, "overview": "A long time ago in a distant fairy tale countryside, a young girl leads her little brother into a dark wood in desperate search of food and work, only to stumble upon a nexus of terrifying evil.", "poster_path": "/5C8dpkagBhYyQpNCAVLgHOesgLM.jpg", "popularity": 21.036}, {"adult": false, "backdrop_path": null, "genre_ids": [27, 878, 53, 18], "id": 619527, "original_language": "pt", "original_title": "este n\u00e3o \u00e9 o fim", "overview": "Two police brothers enter a forest region looking for missing persons after a mysterious accident. Thereafter realizing they are lost and seemingly walking in circles, astonishing phenomenons and unexpected encounters take place.", "poster_path": "/uHgYsRWf14GyF4AuchiIqhGoGzB.jpg", "release_date": "2019-08-05", "title": "this is not the end", "video": false, "vote_average": 0.0, "vote_count": 0, "popularity": 0.6}, {"adult": false, "backdrop_path": "/9uIDootcXHNeF3pjVsEjlnX4n9S.jpg", "genre_ids": [28, 53, 80], "id": 412862, "original_language": "ta", "original_title": "\u0bb0\u0bbe\u0b9f\u0bcd\u0b9a\u0b9a\u0ba9\u0bcd", "overview": "A serial killer is murdering school girls, and a newbie cop has to track him down before the victim count increases.", "poster_path": "/mruUFlrVKiL994y3vvQBT8R2Vnf.jpg", "release_date": "2018-10-05", "title": "Ratsasan", "video": false, "vote_average": 8.1, "vote_count": 41, "popularity": 9.15}, {"id": 587138, "video": false, "vote_count": 0, "vote_average": 0.0, "title": "Driven", "release_date": "2019-02-09", "original_language": "en", "original_title": "Driven", "genre_ids": [35, 27, 53], "backdrop_path": null, "adult": false, "overview": "Emerson Graham's nights as a cab driver are filled with annoyances and inconveniences, but until tonight, never attacks and disappearances. After picking up a mysterious passenger her evening goes from working a job to performing a quest as they must race against the clock to defeat a force of evil. The meter is running.", "poster_path": "/ca0URmLciw4rZgjWU6y2nOapyGU.jpg", "popularity": 2.366}, {"id": 49530, "video": false, "vote_count": 6907, "vote_average": 6.9, "title": "In Time", "release_date": "2011-10-27", "original_language": "en", "original_title": "In Time", "genre_ids": [28, 878, 53], "backdrop_path": "/cnGPiAd7D50YFcpt6HK7CwTUCew.jpg", "adult": false, "overview": "In the not-too-distant future the aging gene has been switched off. To avoid overpopulation, time has become the currency and the way people pay for luxuries and necessities. The rich can live forever, while the rest try to negotiate for their immortality. A poor young man who comes into a fortune of time, though too late to help his mother from dying. He ends up on the run from a corrupt police force known as 'time keepers'.", "poster_path": "/lnYuAr3QOPzvuEFlzpsRUq41IEy.jpg", "popularity": 24.14}, {"id": 107846, "video": false, "vote_count": 3131, "vote_average": 6.7, "title": "Escape Plan", "release_date": "2013-10-09", "original_language": "en", "original_title": "Escape Plan", "genre_ids": [28, 53], "backdrop_path": "/lDmAQexExnvfKAG8fvx04ro6Ly4.jpg", "adult": false, "overview": "Ray Breslin is the world's foremost authority on structural security. After analyzing every high security prison and learning a vast array of survival skills so he can design escape-proof prisons, his skills are put to the test. He's framed and incarcerated in a master prison he designed himself. He needs to escape and find the person who put him behind bars.", "poster_path": "/j3XZwBeWgoAbVmkW3JyOme79I2e.jpg", "popularity": 19.433}, {"id": 282035, "video": false, "vote_count": 4849, "vote_average": 5.5, "title": "The Mummy", "release_date": "2017-06-06", "original_language": "en", "original_title": "The Mummy", "genre_ids": [28, 12, 14, 27, 53], "backdrop_path": "/5TC6gKrmtnoGE3c3lHeNPevkn4Z.jpg", "adult": false, "overview": "Though safely entombed in a crypt deep beneath the unforgiving desert, an ancient queen whose destiny was unjustly taken from her is awakened in our current day, bringing with her malevolence grown over millennia, and terrors that defy human comprehension.", "poster_path": "/zxkY8byBnCsXodEYpK8tmwEGXBI.jpg", "popularity": 22.059}, {"id": 500, "video": false, "vote_count": 8373, "vote_average": 8.2, "title": "Reservoir Dogs", "release_date": "1992-09-02", "original_language": "en", "original_title": "Reservoir Dogs", "genre_ids": [80, 53], "backdrop_path": "/fupyzBwFAn1PoeCXhp54bYVM2ER.jpg", "adult": false, "overview": "A botched robbery indicates a police informant, and the pressure mounts in the aftermath at a warehouse. Crime begets violence as the survivors -- veteran Mr. White, newcomer Mr. Orange, psychopathic parolee Mr. Blonde, bickering weasel Mr. Pink and Nice Guy Eddie -- unravel.", "poster_path": "/g7spS2Y4SZoQoC6Hn7zoqEqdYqR.jpg", "popularity": 33.825}, {"id": 15196, "video": false, "vote_count": 739, "vote_average": 7.3, "title": "Clue", "release_date": "1985-12-13", "original_language": "en", "original_title": "Clue", "genre_ids": [35, 80, 9648, 53], "backdrop_path": "/q1zYM7YsEIUeA6Yjxcb1zC3fM2.jpg", "adult": false, "overview": "Clue finds six colorful dinner guests gathered at the mansion of their host, Mr. Boddy -- who turns up dead after his secret is exposed: He was blackmailing all of them. With the killer among them, the guests and Boddy's chatty butler must suss out the culprit before the body count rises.", "poster_path": "/suzDcrxpuNPDnBwOOy8vBLsygwp.jpg", "popularity": 15.687}, {"id": 339527, "video": false, "vote_count": 1390, "vote_average": 6.3, "title": "Solace", "release_date": "2015-09-03", "original_language": "en", "original_title": "Solace", "genre_ids": [80, 9648, 53], "backdrop_path": "/gv1vnLPKRuAnpql7A0g4APvRaR9.jpg", "adult": false, "overview": "A psychic doctor, John Clancy, works with an FBI special agent in search of a serial killer.", "poster_path": "/pbcXpZgem8kgr90RwIUNAbC2ite.jpg", "popularity": 14.353}, {"adult": false, "backdrop_path": "/4UMzMJss5r192EZipzKEqzwXWxF.jpg", "genre_ids": [53], "id": 207933, "original_language": "en", "original_title": "Stonehearst Asylum", "overview": "A Harvard Medical School graduate takes a position at a mental institution and soon becomes obsessed with a female mental patient, but he has no idea of a recent and horrifying staffing change.", "poster_path": "/fZxGCCQ0NAtraevqULJ84wSSjo0.jpg", "release_date": "2014-09-11", "title": "Stonehearst Asylum", "video": false, "vote_average": 6.8, "vote_count": 785, "popularity": 19.604}, {"id": 599975, "video": false, "vote_count": 196, "vote_average": 6.5, "title": "Countdown", "release_date": "2019-10-24", "original_language": "en", "original_title": "Countdown", "genre_ids": [27, 53], "backdrop_path": "/zETkzgle7c6wAeW11snnVUBp67S.jpg", "adult": false, "overview": "A young nurse downloads an app that tells her she only has three days to live. With time ticking away and a mysterious figure haunting her, she must find a way to save her life before time runs out.", "poster_path": "/qCDPKUMX5xrxxQY8XhGVCKO3fks.jpg", "popularity": 62.809}, {"adult": false, "backdrop_path": "/2Tawvc0JMmR9nBXD3nhBThTQP2X.jpg", "genre_ids": [53, 18, 80, 27], "id": 1359, "original_language": "en", "original_title": "American Psycho", "overview": "A wealthy New York investment banking executive hides his alternate psychopathic ego from his co-workers and friends as he escalates deeper into his illogical, gratuitous fantasies.", "poster_path": "/qXsylPM4Lr5397R3eHrfqHhTUNc.jpg", "release_date": "2000-04-13", "title": "American Psycho", "video": false, "vote_average": 7.4, "vote_count": 4915, "popularity": 21.511}, {"adult": false, "backdrop_path": "/bd6NQDFpUoqNWWJ8eBBip3SR2kP.jpg", "genre_ids": [53], "id": 574376, "original_language": "es", "original_title": "Quien a hierro mata", "overview": "Mario, an exemplary man, lives in a village on the Galician coast. In the old people\u2019s home, where he works as a nurse, everyone appreciates him. When the best known narco in the area, Antonio Pad\u00edn, recently released from prison, enters the residence, Mario tries to make Antonio feel at home.\r Now, Pad\u00edn\u00b4s two sons, Kike and To\u00f1o, are in charge of the family business. The failure of an operation will put Kike in jail and cause them to owe a large debt to a Colombian supplier. To\u00f1o will turn to the nurse to try to convince his father to assume the debt. But Mario has his own plans.", "poster_path": "/xG27BPvHm96YF78iVUcqVbj1BHH.jpg", "release_date": "2019-08-30", "title": "Eye for an Eye", "video": false, "vote_average": 6.7, "vote_count": 35, "popularity": 17.406}, {"id": 8840, "video": false, "vote_count": 1169, "vote_average": 6.5, "title": "DragonHeart", "release_date": "1996-05-31", "original_language": "en", "original_title": "DragonHeart", "genre_ids": [28, 12, 14], "backdrop_path": "/1VWsgfwm3cJ4vZnKEWxOj9cv7q.jpg", "adult": false, "overview": "In an ancient time when majestic fire-breathers soared through the skies, a knight named Bowen comes face to face and heart to heart with the last dragon on Earth, Draco. Taking up arms to suppress a tyrant king, Bowen soon realizes his task will be harder than he'd imagined: If he kills the king, Draco will die as well.", "poster_path": "/5bqI54aIyPDzPKkScwJprzbAsIi.jpg", "popularity": 17.182}, {"id": 87, "video": false, "vote_count": 5411, "vote_average": 7.2, "title": "Indiana Jones and the Temple of Doom", "release_date": "1984-05-23", "original_language": "en", "original_title": "Indiana Jones and the Temple of Doom", "genre_ids": [28, 12], "backdrop_path": "/mWuFDpOxXJpPxLM3p8f3w02pBb2.jpg", "adult": false, "overview": "After arriving in India, Indiana Jones is asked by a desperate village to find a mystical stone. He agrees \u2013 and stumbles upon a secret cult plotting a terrible plan in the catacombs of an ancient palace.", "poster_path": "/f2nTRKk2zGdUTE7tLJ5EGGSuKA6.jpg", "popularity": 25.521}, {"adult": false, "backdrop_path": "/tcJIy7V4H8v9accnFAKyuKwAtQR.jpg", "genre_ids": [10749, 35, 80], "id": 1389, "original_language": "en", "original_title": "Out of Sight", "overview": "Meet Jack Foley, a smooth criminal who bends the law and is determined to make one last heist. Karen Sisco is a federal marshal who chooses all the right moves \u2026 and all the wrong guys. Now they're willing to risk it all to find out if there's more between them than just the law.", "poster_path": "/hSL2Ta4ErgAxPEOlkkxZmrTSAET.jpg", "release_date": "1998-06-26", "title": "Out of Sight", "video": false, "vote_average": 6.6, "vote_count": 611, "popularity": 16.444}, {"id": 141, "video": false, "vote_count": 7540, "vote_average": 7.8, "title": "Donnie Darko", "release_date": "2001-01-18", "original_language": "en", "original_title": "Donnie Darko", "genre_ids": [18, 14, 9648], "backdrop_path": "/ld7huGVoyXAY6EsdAUeLh9QxAl6.jpg", "adult": false, "overview": "After narrowly escaping a bizarre accident, a troubled teenager is plagued by visions of a large bunny rabbit that manipulates him to commit a series of crimes.", "poster_path": "/dGcIsUfeatHYqgp9gX6KOcYT427.jpg", "popularity": 24.429}, {"id": 1487, "video": false, "vote_count": 4489, "vote_average": 6.6, "title": "Hellboy", "release_date": "2004-04-02", "original_language": "en", "original_title": "Hellboy", "genre_ids": [28, 14], "backdrop_path": "/13DIK3beAoroeJSdrcYm66s6hal.jpg", "adult": false, "overview": "In the final days of World War II, the Nazis attempt to use black magic to aid their dying cause. The Allies raid the camp where the ceremony is taking place, but not before a demon\u2014Hellboy\u2014has already been conjured. Joining the Allied forces, Hellboy eventually grows to adulthood, serving the cause of good rather than evil.", "poster_path": "/buAYSdNVKMgNhdcuKHIwelSQxPe.jpg", "popularity": 29.399}], "total_pages": 72, "total_results": 1429}, "recommendations": {"page": 1, "results": [{"adult": false, "backdrop_path": "/iSYuUEvdTgAImPOA2t7ATluUwE2.jpg", "genre_ids": [53], "id": 182349, "original_language": "en", "original_title": "Love Sick Love", "overview": "Dori and Norman, two stunning and sophisticated serial daters, are destined to endure a terrifying journey through perfect couple-hood: Valentine's, Easter, Halloween, Christmas and New Year. Except with psychopath Dori, it all needs to take place over one weekend deep in the isolated countryside far from help. \"Love Sick Love\" is a complex and suspenseful journey into the darker side of love.", "poster_path": "/1kGKF9fLYZD0bAMD71sxWO6XvFR.jpg", "release_date": "2012-11-15", "title": "Love Sick Love", "video": false, "vote_average": 4.7, "vote_count": 9, "popularity": 0.6}, {"adult": false, "backdrop_path": "/gf8qjwWlITvT9Z3922ZMVNAkEE6.jpg", "genre_ids": [27, 53], "id": 183661, "original_language": "en", "original_title": "Animus", "overview": "Hoping to find proof of the paranormal, five film students set out to document the legendary Copper Queen Hospital. But as the sun goes down, they experience something far worse than they ever could have imagined and they find themselves pursued by a blood thirsty maniac", "poster_path": "/qEumZTbnPPkXRzFPtRyGhNn4iG2.jpg", "release_date": "2013-03-25", "title": "Animus", "video": false, "vote_average": 4.3, "vote_count": 14, "popularity": 4.304}, {"adult": false, "backdrop_path": "/l6GR0cKmQxaIr3cx7NBYqBDKdCJ.jpg", "genre_ids": [18, 27, 53], "id": 65322, "original_language": "en", "original_title": "Sensored", "overview": "A children's book illustrator inhabits a twilight world of shifting reality and illusion, where cruelty and rampant evil do battle with his better instincts, and sanity is a question of perception.", "poster_path": "/9hgyHbB1DMywyzetE9u9LJfEiz.jpg", "release_date": "2009-12-04", "title": "Sensored", "video": false, "vote_average": 4.6, "vote_count": 8, "popularity": 3.073}, {"adult": false, "backdrop_path": null, "genre_ids": [27], "id": 83833, "original_language": "en", "original_title": "Nostrum", "overview": "A group of friends head out to an abandon farmhouse to kick a nasty habit. Little do they know that they are in for the night of their lives.", "poster_path": "/wZ0a4sfhVlo0Ues0RwLMuGmUCAT.jpg", "release_date": "2010-05-14", "title": "Nostrum", "video": false, "vote_average": 3.0, "vote_count": 4, "popularity": 1.077}, {"adult": false, "backdrop_path": null, "genre_ids": [27], "id": 115451, "original_language": "en", "original_title": "Spirit Stalkers", "overview": "The Spirit Stalkers reality show, once a big hit, faces cancellation without a ratings boost, which leads the investigative team to Gloria Talman, whose house is rampant with unexplained ghostly activity.", "poster_path": "/u7UV1sODEEjgKivVDBBHrtGgvWM.jpg", "release_date": "2012-06-16", "title": "Spirit Stalkers", "video": false, "vote_average": 3.2, "vote_count": 5, "popularity": 2.025}, {"id": 286371, "video": false, "vote_count": 9, "vote_average": 3.7, "title": "Feed the Gods", "release_date": "2014-11-25", "original_language": "en", "original_title": "Feed the Gods", "genre_ids": [12, 27, 53], "backdrop_path": "/gU386xG4sGlTHKkGMvLzxlNmij8.jpg", "adult": false, "overview": "Two brothers return to a small mountain town in search of their long lost parents only to discover that the place has a monstrous taste for tourists.", "poster_path": "/qAPHkb1Z91e34ylIwLqZbtxxRta.jpg", "popularity": 2.176}, {"adult": false, "backdrop_path": "/t8phv4rKg3i9u4a9TL0E4JyONdJ.jpg", "genre_ids": [27], "id": 92322, "original_language": "en", "original_title": "George: A Zombie Intervention", "overview": "George's friends have all gathered for an intervention... George's intervention. You see, George is a zombie and George's friends are attempting to convince George to stop eating people and to enter 'zombie rehab'. But the intervention doesn't go quite as planned.", "poster_path": "/1yVkYB8oCpW2F02TrxqObnHlfLP.jpg", "release_date": "2009-09-06", "title": "George: A Zombie Intervention", "video": false, "vote_average": 5.0, "vote_count": 3, "popularity": 1.54}, {"adult": false, "backdrop_path": "/osLjtRH9HdoDYOTlO1ivq7YdzAq.jpg", "genre_ids": [27], "id": 149148, "original_language": "en", "original_title": "Dead Inside", "overview": "Sarah, a mentally-disturbed teen, has a jarring premonition of her friends' impending deaths one night at a sleepover. As her house guests begin to turn murderously against each other, Sarah must determine whether her visions represent the preventable or the inevitable... or something entirely more sinister.", "poster_path": "/6R2lc1qKL5YtCIASxCJFLjOjlel.jpg", "release_date": "2011-11-10", "title": "Dead Inside", "video": false, "vote_average": 3.8, "vote_count": 8, "popularity": 2.728}, {"adult": false, "backdrop_path": "/1uXKxociMyTQAp4ry4iK2CQyBvZ.jpg", "genre_ids": [27], "id": 135973, "original_language": "en", "original_title": "Pennhurst", "overview": "Pennhurst is an abandoned State School and Mental Hospital well known to Ghost hunters all over the world for its paranormal activity.  For decades, Pennhurst psychiatric hospital has been haunted by turbulent supernatural forces. When a local TV show embarks on a mission to capture this paranormal activity, they discover something completely unexpected.  As restless souls from their past torment the crew members, they fear for their lives as one by one they are gruesomely murdered. In a surprising revelation, they discover something more terrifying than ghosts is responsible.", "poster_path": "/68i29TvXvpZwud4qIJjWVcEz278.jpg", "release_date": "2012-10-08", "title": "Pennhurst", "video": false, "vote_average": 2.7, "vote_count": 6, "popularity": 2.494}, {"adult": false, "backdrop_path": "/xbhoUJjm2n7WEkcvzVigwE5OJ4t.jpg", "genre_ids": [27], "id": 130802, "original_language": "en", "original_title": "A Night In the Woods", "overview": "Brody, his girlfriend Kerry and their friend Leo go hiking in Dartmoor's Wistman's Woods, so named because of its legendary haunted past. That night jealousies, sexual tensions and strained relationships come to a head turning what should have been a peaceful camping adventure into a trip to terror. As collective paranoia reaches fever pitch it becomes clear that there is a much darker force at work in the ancient eerie surroundings. Who or what is after them? And can any one of them survive a night in the woods?", "poster_path": "/soF7QNbDYUgTUwPrElRDoiuIiEJ.jpg", "release_date": "2011-08-29", "title": "A Night In the Woods", "video": false, "vote_average": 3.0, "vote_count": 8, "popularity": 3.523}, {"adult": false, "backdrop_path": "/gzdBi4XoJolYu7vCELYiAiNDGR0.jpg", "genre_ids": [27, 53, 10770], "id": 45875, "original_language": "en", "original_title": "Trilogy of Terror II", "overview": "Three tales of terror: in \"The Graveyard Rats\" lovers murder the woman's older husband and encounter horror when they attempt to rob his grave; \"Bobby\" is the story of a woman who summons her son back from the dead; and in \"He Who Kills\" an African doll goes on a murderous rampage.", "poster_path": "/5QFPqKCyYMIKvujRIJzFJ5LlwNs.jpg", "release_date": "1996-10-30", "title": "Trilogy of Terror II", "video": false, "vote_average": 5.0, "vote_count": 17, "popularity": 4.673}, {"adult": false, "backdrop_path": "/ivIluRwrqdqRQDmBBX2sa9SNcZR.jpg", "genre_ids": [53], "id": 111170, "original_language": "en", "original_title": "Rubberneck", "overview": "Paul Harris works at a small research facility on the outskirts of Boston. After a weekend tryst with a co-worker leaves him wanting more, his unreciprocated desires gradually mold into an acute infatuation. When Danielle takes interest in a new scientist at the laboratory, Paul's suppressed resentments and perverse delusions finally become unhinged, triggering a horrific course of events that mercilessly engulf a tortured past and fugitive present.", "poster_path": "/9C4Drbnxc7y4KljaanQU4ghWsmJ.jpg", "release_date": "2013-02-22", "title": "Rubberneck", "video": false, "vote_average": 5.6, "vote_count": 7, "popularity": 2.476}, {"adult": false, "backdrop_path": "/5VdSkbGpUjYgEcTXJdcHAss8DSr.jpg", "genre_ids": [], "id": 246096, "original_language": "en", "original_title": "7E", "overview": "A young man struggles with unexplained events inside a New York apartment where tenants are not who they appear to be.", "poster_path": "/9GuBcSb1xx5R9QCztDzj1OyohyL.jpg", "release_date": "2013-12-10", "title": "7E", "video": false, "vote_average": 4.2, "vote_count": 6, "popularity": 1.673}, {"adult": false, "backdrop_path": "/ur79jsqXRB8GrPVHpwraTNPuoeH.jpg", "genre_ids": [27, 53], "id": 87226, "original_language": "en", "original_title": "Christopher Roth", "overview": "A horror novelist begins to fear his stories may have a life of their own.", "poster_path": "/uQr1YnrD8g5VMhu0SSLLYihezxu.jpg", "release_date": "2010-04-10", "title": "Christopher Roth", "video": false, "vote_average": 4.8, "vote_count": 4, "popularity": 2.567}, {"adult": false, "backdrop_path": null, "genre_ids": [27], "id": 27677, "original_language": "en", "original_title": "Gut-Pile", "overview": "No overview found.", "poster_path": "/fm9sDKnITTUC9gQNSDt8ENOpDk0.jpg", "release_date": "1997-01-01", "title": "Gut-Pile", "video": false, "vote_average": 3.8, "vote_count": 5, "popularity": 0.96}, {"adult": false, "backdrop_path": null, "genre_ids": [27], "id": 52631, "original_language": "en", "original_title": "The Open Door", "overview": "A pirate radio station is granting callers their hearts' desires. But as some teenagers find out, be careful what you wish for.", "poster_path": "/dkJ7xTod62JPAfWHenxCPW51iIn.jpg", "release_date": "2008-10-04", "title": "The Open Door", "video": false, "vote_average": 3.2, "vote_count": 5, "popularity": 2.208}, {"adult": false, "backdrop_path": "/7jLeiBc0jq79xUDCMhNwA2KLSav.jpg", "genre_ids": [27, 53], "id": 115374, "original_language": "en", "original_title": "All Dark Places", "overview": "Jamie and Christian are giving their marriage one last shot for the sake of love and their young son, Dylan. But when Christian proves unable to hold up his end, forces both within and outside their relationship will decide their future (IMDb.com).", "poster_path": "/4PLh4nwhRieKd6uri0ZtLvcEDh7.jpg", "release_date": "2011-01-01", "title": "All Dark Places", "video": false, "vote_average": 3.5, "vote_count": 5, "popularity": 2.944}, {"adult": false, "backdrop_path": "/ruvSmXYD3N1grDLQRYGwE5ydGvi.jpg", "genre_ids": [18, 878, 53], "id": 219288, "original_language": "en", "original_title": "Dragon Day", "overview": "When Duke Evans, out of work NSA analyst, is evicted from his home he moves his family to his grandfather's old cabin. However here they are also threatened when a hellish cyber-attack is unleashed on the US rendering anything with a computer chip useless. He must now keep his family alive, fight off would be thieves and a newly corrupted government and ultimately make the hardest decision of his life- to survive. Written by Patterson, Matt (V)", "poster_path": "/uQtyLOinI8DpmYrUfOnWw0qQ3Ve.jpg", "release_date": "2013-01-10", "title": "Dragon Day", "video": false, "vote_average": 3.4, "vote_count": 7, "popularity": 3.145}, {"adult": false, "backdrop_path": "/3CKHleOFwGekwQS1PktkTfkMQmP.jpg", "genre_ids": [53, 878], "id": 260107, "original_language": "en", "original_title": "Everywhen", "overview": "A boy must fight his way from an alternate reality, back to his own, to save his suicidal 5-year old brother; when 3 billion people are reported missing.", "poster_path": "/vhSIroWL0RiCHvpyfI5GmMe8n5F.jpg", "release_date": "2013-01-28", "title": "Everywhen", "video": false, "vote_average": 3.1, "vote_count": 10, "popularity": 2.344}, {"adult": false, "backdrop_path": null, "genre_ids": [18, 53], "id": 259945, "original_language": "en", "original_title": "The Grim Sleeper", "overview": "Journalist Christine Pelisek helps law enforcement investigate the alleged serial killer known as the Grim Sleeper.", "poster_path": "/2F7gjPWj1Pi7qjwxA4NHa0OT07U.jpg", "release_date": "2014-03-15", "title": "The Grim Sleeper", "video": false, "vote_average": 4.5, "vote_count": 8, "popularity": 2.973}], "total_pages": 2, "total_results": 39}, "credits": {"cast": [{"cast_id": 5, "character": "Dr. O'Sullivan", "credit_id": "55da06b292514143e900522a", "gender": 0, "id": 1499760, "name": "Stephen DeWoody", "order": 5, "profile_path": null}, {"cast_id": 6, "character": "Joe", "credit_id": "55da06e892514143e400556b", "gender": 0, "id": 1499761, "name": "Chris Dinger", "order": 6, "profile_path": null}, {"cast_id": 7, "character": "Samantha", "credit_id": "55da07b4c3a3680dd50044af", "gender": 0, "id": 1499762, "name": "Janie Michele Simms", "order": 7, "profile_path": null}], "crew": [{"credit_id": "531e3b3192514177ab00779d", "department": "Directing", "gender": 0, "id": 1288496, "job": "Director", "name": "Jon Binkowski", "profile_path": null}]}}