{"adult": false, "backdrop_path": "/1Bi9Ga5aRaTwyF3vbOI33q6EZGz.jpg", "belongs_to_collection": null, "budget": 0, "genres": [{"id": 99, "name": "Documentary"}, {"id": 16, "name": "Animation"}], "homepage": "http://www.dccomics.com/", "id": 256421, "imdb_id": "tt3254454", "original_language": "en", "original_title": "Superman 75th Anniversary", "overview": "An animated short about the 75 years of Superman", "popularity": 2.713, "poster_path": "/fvOtZGpSd3I0pqiv2shzB4OztCx.jpg", "production_companies": [{"id": 2785, "logo_path": "/l5zW8jjmQOCx2dFmvnmbYmqoBmL.png", "name": "Warner Bros. Animation", "origin_country": "US"}], "production_countries": [{"iso_3166_1": "US", "name": "United States of America"}], "release_date": "2013-10-13", "revenue": 0, "runtime": 2, "spoken_languages": [{"iso_639_1": "xx", "name": "No Language"}], "status": "Released", "tagline": "", "title": "Superman 75th Anniversary", "video": false, "vote_average": 7.6, "vote_count": 34, "keywords": {"keywords": [{"id": 849, "name": "dc comics"}, {"id": 33637, "name": "super power"}, {"id": 190816, "name": "anniversary"}]}, "similar": {"page": 1, "results": [{"adult": false, "backdrop_path": "/1SjsVcGO2T2cCrhlhXi8gxQl7jx.jpg", "genre_ids": [16, 28, 35, 878], "id": 474395, "original_language": "en", "original_title": "Teen Titans Go! To the Movies", "overview": "All the major DC superheroes are starring in their own films, all but the Teen Titans, so Robin is determined to remedy this situation by getting over his role as a sidekick and becoming a movie star. Thus, with a few madcap ideas and an inspirational song in their hearts, the Teen Titans head to Hollywood to fulfill their dreams.", "poster_path": "/mFHihhE9hlvJEk2f1AqdLRaYHd6.jpg", "release_date": "2018-07-27", "title": "Teen Titans Go! To the Movies", "video": false, "vote_average": 7.0, "vote_count": 415, "popularity": 18.084}, {"id": 40662, "video": false, "vote_count": 842, "vote_average": 7.7, "title": "Batman: Under the Red Hood", "release_date": "2010-07-27", "original_language": "en", "original_title": "Batman: Under the Red Hood", "genre_ids": [28, 16, 9648], "backdrop_path": "/hkguTOGQ4MkjHyd5g4rR6i4MDck.jpg", "adult": false, "overview": "Batman faces his ultimate challenge as the mysterious Red Hood takes Gotham City by firestorm. One part vigilante, one part criminal kingpin, Red Hood begins cleaning up Gotham with the efficiency of Batman, but without following the same ethical code.", "poster_path": "/78kjgspmLLOm2Glgpzqo9cS4GpI.jpg", "popularity": 11.176}, {"id": 155, "video": false, "vote_count": 20760, "vote_average": 8.4, "title": "The Dark Knight", "release_date": "2008-07-16", "original_language": "en", "original_title": "The Dark Knight", "genre_ids": [28, 80, 18, 53], "backdrop_path": "/hqkIcbrOHL86UncnHIsHVcVmzue.jpg", "adult": false, "overview": "Batman raises the stakes in his war on crime. With the help of Lt. Jim Gordon and District Attorney Harvey Dent, Batman sets out to dismantle the remaining criminal organizations that plague the streets. The partnership proves to be effective, but they soon find themselves prey to a reign of chaos unleashed by a rising criminal mastermind known to the terrified citizens of Gotham as the Joker.", "poster_path": "/pKKvCaL1TPTVtbI6EeliyND3api.jpg", "popularity": 43.746}, {"adult": false, "backdrop_path": "/pZCuxgUsDICPDKIFH8s5nQGeL4r.jpg", "genre_ids": [16, 10751, 28, 878], "id": 16234, "original_language": "en", "original_title": "Batman Beyond: Return of the Joker", "overview": "The Joker is back with a vengeance, and Gotham's newest Dark Knight needs answers as he stands alone to face Gotham's most infamous Clown Prince of Crime.", "poster_path": "/vIRHN4AXaQM6mMVj8CozhtelYmF.jpg", "release_date": "2000-12-12", "title": "Batman Beyond: Return of the Joker", "video": false, "vote_average": 7.6, "vote_count": 350, "popularity": 12.541}, {"id": 44912, "video": false, "vote_count": 4726, "vote_average": 5.1, "title": "Green Lantern", "release_date": "2011-06-16", "original_language": "en", "original_title": "Green Lantern", "genre_ids": [28, 12, 878, 53], "backdrop_path": "/gulyiqtyuzFRJCnvNwD6Z786kQi.jpg", "adult": false, "overview": "For centuries, a small but powerful force of warriors called the Green Lantern Corps has sworn to keep intergalactic order. Each Green Lantern wears a ring that grants him superpowers. But when a new enemy called Parallax threatens to destroy the balance of power in the Universe, their fate and the fate of Earth lie in the hands of the first human ever recruited.", "poster_path": "/zUSEYp9G7Hk9GZIfbPoOiSHvwHV.jpg", "popularity": 15.073}, {"id": 1452, "video": false, "vote_count": 2594, "vote_average": 5.6, "title": "Superman Returns", "release_date": "2006-06-28", "original_language": "en", "original_title": "Superman Returns", "genre_ids": [28, 12, 878], "backdrop_path": "/uAVdwu4vEx0TwuC4ewp9RqplKEV.jpg", "adult": false, "overview": "Superman returns to discover his 5-year absence has allowed Lex Luthor to walk free, and that those he was closest to felt abandoned and have moved on. Luthor plots his ultimate revenge that could see millions killed and change the face of the planet forever, as well as ridding himself of the Man of Steel.", "poster_path": "/e3aLTaD5ppxo3en0GAGceekEPAe.jpg", "popularity": 20.912}, {"id": 1924, "video": false, "vote_count": 2085, "vote_average": 7.0, "title": "Superman", "release_date": "1978-12-13", "original_language": "en", "original_title": "Superman", "genre_ids": [28, 12, 878], "backdrop_path": "/nS0rEXPbkHI449SF6R4WUQvTVxE.jpg", "adult": false, "overview": "Mild-mannered Clark Kent works as a reporter at the Daily Planet alongside his crush, Lois Lane. Clark must summon his superhero alter-ego when the nefarious Lex Luthor launches a plan to take over the world.", "poster_path": "/rLTdj7oB9oxsYwuweeglWRzRng7.jpg", "popularity": 26.497}, {"adult": false, "backdrop_path": "/reQewz6KndV7Js2mfLfaaX8Rj0T.jpg", "genre_ids": [28, 14], "id": 364, "original_language": "en", "original_title": "Batman Returns", "overview": "Having defeated the Joker, Batman now faces the Penguin\u2014a warped and deformed individual who is intent on being accepted into Gotham society, with the help of Max Schreck, a crooked businessman, whom he coerces into helping him run for the position of Mayor of Gotham, while they both attempt to frame Batman in a different light. Batman must attempt to clear his name, all while also deciding just what must be done with the mysterious Catwoman slinking about.", "poster_path": "/jKBjeXM7iBBV9UkUcOXx3m7FSHY.jpg", "release_date": "1992-06-19", "title": "Batman Returns", "video": false, "vote_average": 6.8, "vote_count": 3615, "popularity": 26.315}, {"id": 297762, "video": false, "vote_count": 13722, "vote_average": 7.3, "title": "Wonder Woman", "release_date": "2017-05-30", "original_language": "en", "original_title": "Wonder Woman", "genre_ids": [28, 12, 14], "backdrop_path": "/6iUNJZymJBMXXriQyFZfLAKnjO6.jpg", "adult": false, "overview": "An Amazon princess comes to the world of Man in the grips of the First World War to confront the forces of evil and bring an end to human conflict.", "poster_path": "/gfJGlDaHuWimErCr5Ql0I8x9QSy.jpg", "popularity": 44.687}, {"id": 268, "video": false, "vote_count": 4351, "vote_average": 7.1, "title": "Batman", "release_date": "1989-06-23", "original_language": "en", "original_title": "Batman", "genre_ids": [28, 14], "backdrop_path": "/2blmxp2pr4BhwQr74AdCfwgfMOb.jpg", "adult": false, "overview": "The Dark Knight of Gotham City begins his war on crime with his first major enemy being the clownishly homicidal Joker, who has seized control of Gotham's underworld.", "poster_path": "/kBf3g9crrADGMc2AMAMlLBgSm2h.jpg", "popularity": 24.217}, {"adult": false, "backdrop_path": "/gVTTtYgKIBurNvkGiGC6735b8y.jpg", "genre_ids": [28, 80, 14], "id": 414, "original_language": "en", "original_title": "Batman Forever", "overview": "The Dark Knight of Gotham City confronts a dastardly duo: Two-Face and the Riddler. Formerly District Attorney Harvey Dent, Two-Face believes Batman caused the courtroom accident which left him disfigured on one side. And Edward Nygma, computer-genius and former employee of millionaire Bruce Wayne, is out to get the philanthropist; as The Riddler. Former circus acrobat Dick Grayson, his family killed by Two-Face, becomes Wayne's ward and Batman's new partner Robin.", "poster_path": "/eTMrHEhlFPHNxpqGwpGGTdAa0xV.jpg", "release_date": "1995-06-16", "title": "Batman Forever", "video": false, "vote_average": 5.3, "vote_count": 3093, "popularity": 23.475}, {"id": 209112, "video": false, "vote_count": 12706, "vote_average": 5.8, "title": "Batman v Superman: Dawn of Justice", "release_date": "2016-03-23", "original_language": "en", "original_title": "Batman v Superman: Dawn of Justice", "genre_ids": [28, 12, 14], "backdrop_path": "/vsjBeMPZtyB7yNsYY56XYxifaQZ.jpg", "adult": false, "overview": "Fearing the actions of a god-like Super Hero left unchecked, Gotham City\u2019s own formidable, forceful vigilante takes on Metropolis\u2019s most revered, modern-day savior, while the world wrestles with what sort of hero it really needs. And with Batman and Superman at war with one another, a new threat quickly arises, putting mankind in greater danger than it\u2019s ever known before.", "poster_path": "/cGOPbv9wA5gEejkUN892JrveARt.jpg", "popularity": 40.938}, {"adult": false, "backdrop_path": "/o5T8rZxoWSBMYwjsUFUqTt6uMQB.jpg", "genre_ids": [28, 12, 14, 878], "id": 141052, "original_language": "en", "original_title": "Justice League", "overview": "Fuelled by his restored faith in humanity and inspired by Superman's selfless act, Bruce Wayne and Diana Prince assemble a team of metahumans consisting of Barry Allen, Arthur Curry and Victor Stone to face the catastrophic threat of Steppenwolf and the Parademons who are on the hunt for three Mother Boxes on Earth.", "poster_path": "/eifGNCSDuxJeS1loAXil5bIGgvC.jpg", "release_date": "2017-11-15", "title": "Justice League", "video": false, "vote_average": 6.2, "vote_count": 8353, "popularity": 37.398}, {"id": 272, "video": false, "vote_count": 13437, "vote_average": 7.6, "title": "Batman Begins", "release_date": "2005-06-10", "original_language": "en", "original_title": "Batman Begins", "genre_ids": [28, 80, 18], "backdrop_path": "/9myrRcegWGGp24mpVfkD4zhUfhi.jpg", "adult": false, "overview": "Driven by tragedy, billionaire Bruce Wayne dedicates his life to uncovering and defeating the corruption that plagues his home, Gotham City.  Unable to work within the system, he instead creates a new identity, a symbol of fear for the criminal underworld - The Batman.", "poster_path": "/dr6x4GyyegBWtinPBzipY02J2lV.jpg", "popularity": 54.458}, {"id": 49026, "video": false, "vote_count": 15150, "vote_average": 7.7, "title": "The Dark Knight Rises", "release_date": "2012-07-16", "original_language": "en", "original_title": "The Dark Knight Rises", "genre_ids": [28, 80, 18, 53], "backdrop_path": "/f6ljQGv7WnJuwBPty017oPWfqjx.jpg", "adult": false, "overview": "Following the death of District Attorney Harvey Dent, Batman assumes responsibility for Dent's crimes to protect the late attorney's reputation and is subsequently hunted by the Gotham City Police Department. Eight years later, Batman encounters the mysterious Selina Kyle and the villainous Bane, a new terrorist leader who overwhelms Gotham's finest. The Dark Knight resurfaces to protect a city that has branded him an enemy.", "poster_path": "/dEYnvnUfXrqvqeRSqvIEtmzhoA8.jpg", "popularity": 43.144}, {"id": 49521, "video": false, "vote_count": 10455, "vote_average": 6.5, "title": "Man of Steel", "release_date": "2013-06-12", "original_language": "en", "original_title": "Man of Steel", "genre_ids": [28, 12, 14, 878], "backdrop_path": "/jYLh4mdOqkt30i7LTFs3o02UcGF.jpg", "adult": false, "overview": "A young boy learns that he has extraordinary powers and is not of this earth. As a young man, he journeys to discover where he came from and what he was sent here to do. But the hero in him must emerge if he is to save the world from annihilation and become the symbol of hope for all mankind.", "poster_path": "/xWlaTLnD8NJMTT9PGOD9z5re1SL.jpg", "popularity": 35.911}, {"id": 415, "video": false, "vote_count": 2998, "vote_average": 4.2, "title": "Batman & Robin", "release_date": "1997-06-20", "original_language": "en", "original_title": "Batman & Robin", "genre_ids": [28, 35, 14, 878], "backdrop_path": "/tgPFZxhDuxWd4VXYaz8eAUznGTF.jpg", "adult": false, "overview": "Along with crime-fighting partner Robin and new recruit Batgirl, Batman battles the dual threat of frosty genius Mr. Freeze and homicidal horticulturalist Poison Ivy. Freeze plans to put Gotham City on ice, while Ivy tries to drive a wedge between the dynamic duo.", "poster_path": "/79AYCcxw3kSKbhGpx1LiqaCAbwo.jpg", "popularity": 19.894}, {"id": 537056, "video": false, "vote_count": 211, "vote_average": 6.9, "title": "Batman: Hush", "release_date": "2019-07-19", "original_language": "en", "original_title": "Batman: Hush", "genre_ids": [28, 16, 80, 9648], "backdrop_path": "/eevJuYAitUe6VwFN29aFwzeyeTr.jpg", "adult": false, "overview": "A mysterious new villain known only as Hush uses a gallery of villains to destroy Batman's crime-fighting career as well as Bruce Wayne's personal life, which has been further complicated by a  relationship with Selina Kyle/Catwoman.", "poster_path": "/eiVQORVyVuNNZHPAELuWtlXoQsD.jpg", "popularity": 14.146}, {"id": 123025, "video": false, "vote_count": 805, "vote_average": 7.7, "title": "Batman: The Dark Knight Returns, Part 1", "release_date": "2012-09-06", "original_language": "en", "original_title": "Batman: The Dark Knight Returns, Part 1", "genre_ids": [28, 16, 9648], "backdrop_path": "/a6pB1w4lwp0WeTRQk9Q2K1F9W34.jpg", "adult": false, "overview": "Batman has not been seen for ten years. A new breed of criminal ravages Gotham City, forcing 55-year-old Bruce Wayne back into the cape and cowl. But, does he still have what it takes to fight crime in a new era?", "poster_path": "/kkjTbwV1Xnj8wBL52PjOcXzTbnb.jpg", "popularity": 20.662}, {"id": 9806, "video": false, "vote_count": 11650, "vote_average": 7.7, "title": "The Incredibles", "release_date": "2004-11-05", "original_language": "en", "original_title": "The Incredibles", "genre_ids": [28, 12, 16, 10751], "backdrop_path": "/wiDGnsn9RtNglgKQy4J1jZQBG5v.jpg", "adult": false, "overview": "Bob Parr has given up his superhero days to log in time as an insurance adjuster and raise his three children with his formerly heroic wife in suburbia. But when he receives a mysterious assignment, it's time to get back into costume.", "poster_path": "/2LqaLgk4Z226KkgPJuiOQ58wvrm.jpg", "popularity": 29.407}], "total_pages": 361, "total_results": 7217}, "recommendations": {"page": 1, "results": [{"id": 264170, "video": false, "vote_count": 58, "vote_average": 7.3, "title": "Batman: Strange Days", "release_date": "2014-04-09", "original_language": "en", "original_title": "Batman: Strange Days", "genre_ids": [28, 16, 10770], "backdrop_path": "/yJZKSOEcENnu604lKnZUvHPcyae.jpg", "adult": false, "overview": "Celebrating Batman\u2019s 75th anniversary, DC Entertainment and Warner Bros. Animation have debuted this new animated short for the cultural icon.", "poster_path": "/hWo8528gjis91OUAJIsLbMYVGe0.jpg", "popularity": 4.62}, {"adult": false, "backdrop_path": "/68IYiyvvC9wy651xqp9tELNrW1k.jpg", "genre_ids": [28], "id": 379371, "original_language": "en", "original_title": "Pre Vis Action", "overview": "In a time of civil war, a young warrior is given the task of delivering a treaty between two rival lords. During her journey through the woods however, she finds herself hunted by two assassins intent on intercepting her message of peace in a bid to maintain the fear, instability and violent rule of their leader.", "poster_path": "/AruWIotfMeZo444kU2KW1506onr.jpg", "release_date": "2016-01-25", "title": "Pre Vis Action", "video": false, "vote_average": 5.8, "vote_count": 11, "popularity": 1.849}, {"adult": false, "backdrop_path": "/skTgBimGnIAIO59FjUWhFgYNQZ8.jpg", "genre_ids": [], "id": 143573, "original_language": "en", "original_title": "Send Me to the 'Lectric Chair", "overview": "A woman sent is sent to an electric chair that reads the images of her mind.", "poster_path": "/ZxuJCOpLWKnA2tUMSXPu5nVQdD.jpg", "release_date": "2009-01-01", "title": "Send Me to the 'Lectric Chair", "video": false, "vote_average": 6.3, "vote_count": 7, "popularity": 1.2}, {"adult": false, "backdrop_path": "/bMK1DhvZ4K9kv7TgzCSqfsMdWZj.jpg", "genre_ids": [], "id": 143759, "original_language": "en", "original_title": "Spanky: To the Pier and Back", "overview": "Guy Maddin takes his dog Spanky out for his last walk with him at the lake.", "poster_path": "/oYYgnaQXiApiU3RVEZRpJGjytvR.jpg", "release_date": "2008-01-01", "title": "Spanky: To the Pier and Back", "video": false, "vote_average": 5.0, "vote_count": 6, "popularity": 1.599}, {"adult": false, "backdrop_path": null, "genre_ids": [28, 37, 16], "id": 259800, "original_language": "en", "original_title": "Little Tombstone", "overview": "In a small town in the Far-West, the Good and the Bad challenge each other to a show-down. The Undertaker takes some interest in the show-down between the opponents, and the story takes a classic turn of events.", "poster_path": "/qhCPCqiBwnQWIGcDM4DyuIJ702O.jpg", "release_date": "2011-06-01", "title": "Little Tombstone", "video": false, "vote_average": 5.3, "vote_count": 4, "popularity": 1.312}, {"adult": false, "backdrop_path": null, "genre_ids": [35], "id": 350737, "original_language": "en", "original_title": "The Expert", "overview": "A funny business meeting illustrating how hard it is for an engineer to fit into the corporate world.", "poster_path": "/3eZifBXLvPXP6LhlKWDWV8bgdh5.jpg", "release_date": "2014-03-23", "title": "The Expert", "video": false, "vote_average": 7.5, "vote_count": 4, "popularity": 1.375}, {"adult": false, "backdrop_path": "/zWcySMtcbRABsVLoixW8vuInH0j.jpg", "genre_ids": [16, 35], "id": 294622, "original_language": "ja", "original_title": "\u30dd\u30ec\u30c3\u30c8\u306e\u30a4\u30b9", "overview": "Paulette plays in the back yard, in the shade of a tall tree, with her doll, somewhere out in the countryside. Secretly watching other children have fun without her makes her sad. Then suddenly the wooden chair she is sitting on begins to move, and throws her off. She bravely gets on the chair again, which starts to buck like a wild horse, making her very happy. Racing through the countryside, the chair then throws her off, right into the middle of the group of playing children, helping her overcome her shyness.", "poster_path": "/1jQjlnLFy33S6mg704ICnVfO1qy.jpg", "release_date": "2014-03-21", "title": "Poulette's Chair", "video": false, "vote_average": 7.1, "vote_count": 9, "popularity": 0.989}, {"adult": false, "backdrop_path": null, "genre_ids": [27, 14], "id": 173863, "original_language": "en", "original_title": "Absurd Encounter with Fear", "overview": "One of David Lynch's first short films.", "poster_path": "/9b0yVVfcOaA9YKHVr8yQBCROYxF.jpg", "release_date": "1967-03-05", "title": "Absurd Encounter with Fear", "video": false, "vote_average": 5.5, "vote_count": 30, "popularity": 2.326}, {"adult": false, "backdrop_path": "/rMlTVBqMHxDzmrBV20nAY5DYzdb.jpg", "genre_ids": [18], "id": 136146, "original_language": "en", "original_title": "Inside", "overview": "A mentally ill patient is questioned to see if he is fit for release.", "poster_path": "/l3hFA8rDQjoJWx8uN6YEyzOf748.jpg", "release_date": "2002-06-01", "title": "Inside", "video": false, "vote_average": 6.9, "vote_count": 16, "popularity": 2.879}, {"adult": false, "backdrop_path": "/e9xhUxq7TMcsbGK5BzSlzdi0t8h.jpg", "genre_ids": [28, 53, 878], "id": 48865, "original_language": "en", "original_title": "Mission Zero", "overview": "Pirelli Film's second promotional short, starring Uma Thurman and directed by Kathryn Bigelow.", "poster_path": "/qVgw8A3uKpMa0agMci0IOrsfxGv.jpg", "release_date": "2007-01-01", "title": "Mission Zero", "video": false, "vote_average": 5.8, "vote_count": 14, "popularity": 2.776}, {"id": 55374, "video": false, "vote_count": 9, "vote_average": 6.2, "title": "Riding Bean", "release_date": "1989-02-22", "original_language": "ja", "original_title": "\u30e9\u30a4\u30c7\u30a3\u30f3\u30b0\u30fb\u30d3\u30fc\u30f3", "genre_ids": [28, 16, 35, 80], "backdrop_path": "/ywo3RTs1s93aKoGvKd8WzWlsR5W.jpg", "adult": false, "overview": "A superhuman outlaw courier and his female partner/manager are framed for the kidnapping of a millionaire's daughter.", "poster_path": "/y5CeM4nExWNFk0gEdrNvSgIFMsH.jpg", "popularity": 2.606}, {"adult": false, "backdrop_path": "/kAIaJSQ2ikMtVGK3bsXdAIqYWjN.jpg", "genre_ids": [18], "id": 36826, "original_language": "en", "original_title": "The Loveless", "overview": "Trouble ensues when a motorcycle gang stops in a small southern town while heading to the races at Daytona.", "poster_path": "/EWNNvfyDUIYGwrI470wh5Sh2Sf.jpg", "release_date": "1981-08-07", "title": "The Loveless", "video": false, "vote_average": 6.3, "vote_count": 12, "popularity": 4.207}, {"adult": false, "backdrop_path": null, "genre_ids": [99, 35], "id": 259568, "original_language": "en", "original_title": "Top 40 Shitty Shark Movies", "overview": "In time for Shark week, Cinemassacre literally dives into a pile of B-movies to bring up the best of the worst shark movies ever made.", "poster_path": "/lPyOXzisN4X9ESe9fPJCUh0H7Gd.jpg", "release_date": "2013-08-06", "title": "Top 40 Shitty Shark Movies", "video": true, "vote_average": 7.9, "vote_count": 7, "popularity": 0.849}, {"id": 145159, "video": false, "vote_count": 6, "vote_average": 7.7, "title": "Soarin' Over California", "release_date": "2001-02-08", "original_language": "en", "original_title": "Soarin' Over California", "genre_ids": [12], "backdrop_path": "/zGDYTrRz2DOVkwooO4fVxA169Jm.jpg", "adult": false, "overview": "Feel the wind race across your face during a breezy airborne adventure above California\u2019s natural and manmade wonders.", "poster_path": "/p3YQsT45He10YEwrgKIG8zVu8vc.jpg", "popularity": 1.765}, {"adult": false, "backdrop_path": null, "genre_ids": [14], "id": 119979, "original_language": "fr", "original_title": "Sage-femme de premi\u00e8re classe", "overview": "A wonderful midwife helps a rich couple pick out a baby from her cabbage patch.", "poster_path": "/tD30yoGjGEjbTDvgyePNOSlSLh8.jpg", "release_date": "1902-01-01", "title": "Midwife to the Upper Class", "video": false, "vote_average": 3.8, "vote_count": 6, "popularity": 0.627}, {"adult": false, "backdrop_path": "/qPqIMpXAZLENkXatferv5wPCvAj.jpg", "genre_ids": [18], "id": 388223, "original_language": "en", "original_title": "Home", "overview": "As thousands of men, women and children attempt to get into Europe, a comfortable English family sets out on what appears to be a holiday.", "poster_path": "/3Y7ecpR297uwguVASxdoblRfO6r.jpg", "release_date": "2016-03-17", "title": "Home", "video": false, "vote_average": 6.0, "vote_count": 4, "popularity": 1.4}, {"adult": false, "backdrop_path": null, "genre_ids": [], "id": 119976, "original_language": "fr", "original_title": "Au Bal de flore", "overview": "A turn-of-the-last-century hand-tinted short, which features two women, Miss Lally and Miss Julyett, dancing at a ball. By the legendary French filmmaker Alice Guy.", "poster_path": "/cLnLYLFc1nIr7zUCKYP50rTSiQb.jpg", "release_date": "1900-01-01", "title": "At the Floral Ball", "video": false, "vote_average": 4.7, "vote_count": 8, "popularity": 0.84}, {"adult": false, "backdrop_path": null, "genre_ids": [35], "id": 408711, "original_language": "en", "original_title": "Dr. Jekyll and Mr. Hyde: The Game - The Movie", "overview": "The most dreaded NES game has come to life as a major motion picture. See Jekyll fight off an angry mob of villagers, animals, birds, and insects as he slowly walks to the church where his bride to be is. See Mr. Hyde fighting various demons in the alternate world of the village Jekyll resides in.", "poster_path": "/nrTIP5ymJs13lLzbUjILwZGHodf.jpg", "release_date": "2015-11-24", "title": "Dr. Jekyll and Mr. Hyde: The Game - The Movie", "video": false, "vote_average": 8.4, "vote_count": 6, "popularity": 1.724}, {"adult": false, "backdrop_path": null, "genre_ids": [878, 27, 35], "id": 119974, "original_language": "fr", "original_title": "Chirurgie fin de si\u00e8cle", "overview": "George M\u00e9lies made a version of this a few years later, often titled Une Indigestion, but Guy-Blach\u00e9\u2019s earlier film Chirurgie Fin de Siecle (1900) is more widely available. And it\u2019s not one to watch the night before an operation. In this clinic, a sign pleads \u201cOn est prie de ne pas crier/Please do not cry\u201d, and the doctors set about the patient with saws, cheerily hacking off limbs, and then slopping them into a bucket, all the while arguing ferociously with each other. They then reattach arms and legs from a bucket of \u201cexchange pieces\u201d (using glue) before re-animating their victim, I mean patient, with bellows. (from http://silentlondon.co.uk/2015/01/23/10-disgusting-moments-in-silent-cinema/)", "poster_path": "/bRjPEEjWXH7KriiqYbLeLupNL52.jpg", "release_date": "1900-01-01", "title": "Turn-of-the-Century Surgery", "video": false, "vote_average": 4.8, "vote_count": 6, "popularity": 0.905}, {"adult": false, "backdrop_path": "/xpjfrECIvlB5bdQwy7VkhCuB9Fu.jpg", "genre_ids": [12, 16], "id": 245536, "original_language": "hu", "original_title": "Nyuszi \u00e9s \u00f6z", "overview": "Rabbit and Deer are living happily and careless until their friendship is put to the test by Deer's new obsession to find the formula for the 3rd dimension. After an unexpected accident Deer finds himself in a new world, unknown to him. Separated by dimensions the two characters have to find the way back to each other.", "poster_path": "/psd6hQ7BfKbeNRdBCpHd0AtJ2f4.jpg", "release_date": "2013-12-25", "title": "Rabbit and Deer", "video": false, "vote_average": 7.3, "vote_count": 16, "popularity": 2.097}], "total_pages": 2, "total_results": 40}, "credits": {"cast": [], "crew": [{"credit_id": "53cd3db5c3a3687764002bdb", "department": "Directing", "gender": 2, "id": 15217, "job": "Director", "name": "Zack Snyder", "profile_path": "/iD0GDqkvJXDXiNEZej198hjt3Tt.jpg"}, {"credit_id": "56a93d9c9251417dbc001dd9", "department": "Production", "gender": 2, "id": 105643, "job": "Producer", "name": "Jay Oliva", "profile_path": "/y7EbnuoKFMvU7uZ4aD50jThyNoF.jpg"}, {"credit_id": "56a93da7925141547500055e", "department": "Production", "gender": 2, "id": 34934, "job": "Producer", "name": "Bruce Timm", "profile_path": "/2MaucKEFexM0MMcpsHHbDtDVZbk.jpg"}, {"credit_id": "56a93dc39251410e2d001ad0", "department": "Writing", "gender": 2, "id": 105643, "job": "Storyboard", "name": "Jay Oliva", "profile_path": "/y7EbnuoKFMvU7uZ4aD50jThyNoF.jpg"}, {"credit_id": "58d5a1af92514103d201bb8a", "department": "Editing", "gender": 0, "id": 1033619, "job": "Editor", "name": "Christopher D. Lozinski", "profile_path": null}, {"credit_id": "58e4b93f925141281902a52d", "department": "Directing", "gender": 2, "id": 34934, "job": "Director", "name": "Bruce Timm", "profile_path": "/2MaucKEFexM0MMcpsHHbDtDVZbk.jpg"}]}}