{"adult": false, "backdrop_path": "/sXKUmsVmogH28QFiJkM0lMwcwhY.jpg", "belongs_to_collection": null, "budget": 0, "genres": [{"id": 18, "name": "Drama"}, {"id": 10749, "name": "Romance"}], "homepage": null, "id": 25674, "imdb_id": "tt0102913", "original_language": "en", "original_title": "Shout", "overview": "A new music teacher in a 1955 West Texas home for wayward boys brings new vision and hope for many of the interned boys.", "popularity": 4.222, "poster_path": "/eTpP6vCsWm2Y2qVz4fleVb6c5Mf.jpg", "production_companies": [{"id": 3929, "logo_path": null, "name": "Robert Simonds Productions", "origin_country": ""}, {"id": 33, "logo_path": "/8lvHyhjr8oUKOOy2dKXoALWKdp0.png", "name": "Universal Pictures", "origin_country": "US"}], "production_countries": [{"iso_3166_1": "US", "name": "United States of America"}], "release_date": "1991-10-04", "revenue": 3547684, "runtime": 89, "spoken_languages": [{"iso_639_1": "en", "name": "English"}], "status": "Released", "tagline": "Rock & Romance Explode In A Texas Town.", "title": "Shout", "video": false, "vote_average": 5.8, "vote_count": 15, "keywords": {"keywords": [{"id": 578, "name": "rock 'n' roll"}, {"id": 1556, "name": "texas"}, {"id": 2176, "name": "music teacher"}, {"id": 6027, "name": "music"}, {"id": 9840, "name": "romance"}, {"id": 185413, "name": "boys' school"}, {"id": 208611, "name": "1950s"}]}, "similar": {"page": 1, "results": [{"id": 6575, "video": false, "vote_count": 364, "vote_average": 6.6, "title": "Walk Hard: The Dewey Cox Story", "release_date": "2007-12-21", "original_language": "en", "original_title": "Walk Hard: The Dewey Cox Story", "genre_ids": [35, 18, 10402], "backdrop_path": "/y7EElGAn1tFE0Npmls7uvg4HPVj.jpg", "adult": false, "overview": "Following a childhood tragedy, Dewey Cox follows a long and winding road to music stardom. Dewey perseveres through changing musical styles, an addiction to nearly every drug known and bouts of uncontrollable rage.", "poster_path": "/2sc7qoLTqZC0nB2k1crwuVoKP6H.jpg", "popularity": 12.774}, {"id": 786, "video": false, "vote_count": 1483, "vote_average": 7.5, "title": "Almost Famous", "release_date": "2000-09-15", "original_language": "en", "original_title": "Almost Famous", "genre_ids": [18, 10402], "backdrop_path": "/zfucY8mxcrNeopFneyvyERZQah1.jpg", "adult": false, "overview": "In 1973, 15-year-old William Miller's unabashed love of music and aspiration to become a rock journalist lands him an assignment from Rolling Stone magazine to interview and tour with the up-and-coming band Stillwater\u2014fronted by lead guitar Russell Hammond, and lead singer Jeff Bebe.", "poster_path": "/9pNo92j6zSEAUB8pNmcJTkpnkBF.jpg", "popularity": 14.998}, {"id": 27, "video": false, "vote_count": 200, "vote_average": 5.0, "title": "9 Songs", "release_date": "2004-07-16", "original_language": "en", "original_title": "9 Songs", "genre_ids": [18, 10402, 10749], "backdrop_path": "/tie8vA3q3Q9BB5RlMlexRvv9xoh.jpg", "adult": false, "overview": "Matt, a young glaciologist, soars across the vast, silent, icebound immensities of the South Pole as he recalls his love affair with Lisa. They meet at a mobbed rock concert in a vast music hall - London's Brixton Academy. They are in bed at night's end. Together, over a period of several months, they pursue a mutual sexual passion whose inevitable stages unfold in counterpoint to nine live-concert songs.", "poster_path": "/91O7z0vo7MiNWd5xD2BoivwbQsb.jpg", "popularity": 17.461}, {"adult": false, "backdrop_path": "/tBs9alJ2weUkOW83RkuBlz8Nlw6.jpg", "genre_ids": [18, 14], "id": 8967, "original_language": "en", "original_title": "The Tree of Life", "overview": "The impressionistic story of a Texas family in the 1950s. The film follows the life journey of the eldest son, Jack, through the innocence of childhood to his disillusioned adult years as he tries to reconcile a complicated relationship with his father. Jack finds himself a lost soul in the modern world, seeking answers to the origins and meaning of life while questioning the existence of faith.", "poster_path": "/ptDOdfOg0srtk4TGdeYbLqxv2nd.jpg", "release_date": "2011-05-18", "title": "The Tree of Life", "video": false, "vote_average": 6.6, "vote_count": 1905, "popularity": 14.646}, {"adult": false, "backdrop_path": "/q3eNcig4YFEsUTnmIYDA90FdndO.jpg", "genre_ids": [10402, 35, 28, 80], "id": 525, "original_language": "en", "original_title": "The Blues Brothers", "overview": "Jake Blues is just out of jail, and teams up with his brother, Elwood on a 'mission from God' to raise funds for the orphanage in which they grew up. The only thing they can do is do what they do best: play music. So they get their old band together, and set out on their way\u2014while getting in a bit of trouble here and there.", "poster_path": "/6hesUNBkpVRqBTBw2HlTg0h8b56.jpg", "release_date": "1980-06-17", "title": "The Blues Brothers", "video": false, "vote_average": 7.7, "vote_count": 2298, "popularity": 17.917}, {"id": 339403, "video": false, "vote_count": 9210, "vote_average": 7.4, "title": "Baby Driver", "release_date": "2017-06-28", "original_language": "en", "original_title": "Baby Driver", "genre_ids": [28, 80], "backdrop_path": "/goCvLSUFz0p7k8R10Hv4CVh3EQv.jpg", "adult": false, "overview": "After being coerced into working for a crime boss, a young getaway driver finds himself taking part in a heist doomed to fail.", "poster_path": "/dN9LbVNNZFITwfaRjl4tmwGWkRg.jpg", "popularity": 27.195}, {"adult": false, "backdrop_path": "/ljjr1LTE6Xsg8bQxcymXhcaQyLw.jpg", "genre_ids": [35, 10751, 14, 16], "id": 6477, "original_language": "en", "original_title": "Alvin and the Chipmunks", "overview": "A struggling songwriter named Dave Seville finds success when he comes across a trio of singing chipmunks: mischievous leader Alvin, brainy Simon, and chubby, impressionable Theodore.", "poster_path": "/sAt2yb4dgrpkHjbB9dQaKD9Caor.jpg", "release_date": "2007-12-13", "title": "Alvin and the Chipmunks", "video": false, "vote_average": 5.7, "vote_count": 2743, "popularity": 15.153}, {"id": 1791, "video": false, "vote_count": 468, "vote_average": 7.4, "title": "The Piano Teacher", "release_date": "2001-07-21", "original_language": "fr", "original_title": "La Pianiste", "genre_ids": [18, 10749], "backdrop_path": "/mNXNFlZXeJYSqTGIiweEaMxGYfO.jpg", "adult": false, "overview": "Erika Kohut, a sexually repressed piano teacher living with her domineering mother, meets a young man who starts romantically pursuing her.", "poster_path": "/ln8Ip9Etw4jxzxSuXSTwFqsfsSY.jpg", "popularity": 18.684}, {"id": 13576, "video": false, "vote_count": 509, "vote_average": 6.9, "title": "This Is It", "release_date": "2009-10-28", "original_language": "en", "original_title": "This Is It", "genre_ids": [99, 10402], "backdrop_path": "/w7yzaQ7P2UBtSyMqMOx0zNxc3wB.jpg", "adult": false, "overview": "A compilation of interviews, rehearsals and backstage footage of Michael Jackson as he prepared for his series of sold-out shows in London.", "poster_path": "/4ZgT8FRJxxpG0mgOIPeCgjzAsBR.jpg", "popularity": 13.488}, {"adult": false, "backdrop_path": "/pQOs5bwFpaimeaK5PA2XXteU1Ly.jpg", "genre_ids": [10402, 99], "id": 20575, "original_language": "en", "original_title": "Queen: Live at Wembley Stadium", "overview": "One of the world's biggest bands return to the scene of their Live Aid (1985) triumph a year earlier to play all their greatest hits in front of a packed Wembley Stadium.", "poster_path": "/qztOmfZ8uLPN3MUNHJd8GaJST2V.jpg", "release_date": "1986-07-12", "title": "Live at Wembley Stadium", "video": false, "vote_average": 8.7, "vote_count": 49, "popularity": 8.248}, {"id": 25188, "video": false, "vote_count": 285, "vote_average": 7.8, "title": "The Last Picture Show", "release_date": "1971-10-02", "original_language": "en", "original_title": "The Last Picture Show", "genre_ids": [18], "backdrop_path": "/53VyjeSqjBGQXsSPIrgE57jjH3o.jpg", "adult": false, "overview": "High school seniors and best friends, Sonny and Duane, live in a dying Texas town. The handsome Duane is dating local beauty, Jacy, while Sonny is having an affair with the coach's wife, Ruth. As graduation nears, both boys contemplate their futures. While Duane eyes the army and Sonny takes over a local business, each boy struggles to figure out if he can escape this dead-end town and build a better life somewhere else.", "poster_path": "/sq2HpOW7PLWmOcofQrA9NoEyZI0.jpg", "popularity": 8.181}, {"adult": false, "backdrop_path": "/2aHM8lYzcaO4MfN7VNvo1QFU0ft.jpg", "genre_ids": [99, 10402], "id": 373558, "original_language": "en", "original_title": "Taylor Swift: The 1989 World Tour - Live", "overview": "Taylor delivers the concert event of the year. Filmed at Sydney's ANZ Stadium in front of 76,000 fans, The 1989 World Tour - Live captures the excitement and energy of the hottest pop star in the world. Filled with great music, an electrifying stage show, and superstar guest appearances, the concert film is only on Apple Music.", "poster_path": "/kzXe8kscKo83BwGvIofWg6SCR7n.jpg", "release_date": "2015-12-20", "title": "Taylor Swift: The 1989 World Tour - Live", "video": false, "vote_average": 8.3, "vote_count": 65, "popularity": 11.567}, {"adult": false, "backdrop_path": "/kJlPpQy2Zx3s8ETyIpkp4Rkzzng.jpg", "genre_ids": [18, 10402], "id": 3902, "original_language": "en", "original_title": "I'm Not There.", "overview": "Six actors portray six personas of music legend Bob Dylan in scenes depicting various stages of his life, chronicling his rise from unknown folksinger to international icon and revealing how Dylan constantly reinvented himself.", "poster_path": "/gwMjlA6R86hgPkUInaxXalPJKkw.jpg", "release_date": "2007-10-01", "title": "I'm Not There.", "video": false, "vote_average": 6.7, "vote_count": 383, "popularity": 14.043}, {"id": 5723, "video": false, "vote_count": 767, "vote_average": 7.5, "title": "Once", "release_date": "2007-03-23", "original_language": "en", "original_title": "Once", "genre_ids": [18, 10402, 10749], "backdrop_path": "/5e9rYIQzaSy3v6ntyFuA3N4QN6b.jpg", "adult": false, "overview": "A vacuum repairman moonlights as a street musician and hopes for his big break. One day a Czech immigrant, who earns a living selling flowers, approaches him with the news that she is also an aspiring singer-songwriter. The pair decide to collaborate, and the songs that they compose reflect the story of their blossoming love.", "poster_path": "/fEjwJfeDxgsRBlYgEWMgvrKQ6VB.jpg", "popularity": 9.787}, {"id": 612738, "video": false, "vote_count": 0, "vote_average": 0.0, "title": "People In A Film", "release_date": "2019-12-20", "original_language": "en", "original_title": "People In A Film", "genre_ids": [99], "backdrop_path": null, "adult": false, "overview": "Chronicles the musical career of British post-punk art rockers Wire.", "poster_path": "/l9uceh7mGbgGxs6ycfTRsjDeak5.jpg", "popularity": 1.251}, {"id": 86837, "video": false, "vote_count": 845, "vote_average": 7.8, "title": "Amour", "release_date": "2012-07-01", "original_language": "fr", "original_title": "Amour", "genre_ids": [18, 10749], "backdrop_path": "/w7Z4BVMin49voNN61IUWyN9DopV.jpg", "adult": false, "overview": "Georges and Anne are in their eighties. They are cultivated, retired music teachers. Their daughter, who is also a musician, lives abroad with her family. One day, Anne has a stroke, and the couple's bond of love is severely tested.", "poster_path": "/tvy6ogpgIDCZlxAletXNZg8xFi8.jpg", "popularity": 12.662}, {"adult": false, "backdrop_path": "/uqLUeQR6wg80RMlcIbQQHIv8EDW.jpg", "genre_ids": [10402, 35], "id": 8873, "original_language": "en", "original_title": "Wayne's World 2", "overview": "A message from Jim Morrison in a dream prompts cable access TV stars Wayne and Garth to put on a rock concert, \"Waynestock,\" with Aerosmith as headliners. But amid the preparations, Wayne frets that a record producer is putting the moves on his girlfriend, Cassandra, while Garth handles the advances of mega-babe Honey Hornee.", "poster_path": "/pBs9DuzWhqWX7vPjzB6AvAXKXzM.jpg", "release_date": "1993-12-10", "title": "Wayne's World 2", "video": false, "vote_average": 6.0, "vote_count": 558, "popularity": 12.373}, {"id": 16620, "video": false, "vote_count": 277, "vote_average": 6.9, "title": "La Bamba", "release_date": "1987-07-24", "original_language": "en", "original_title": "La Bamba", "genre_ids": [18, 10402], "backdrop_path": "/pz5VnRmUeGO6jJ1WxEtZoUq3Qth.jpg", "adult": false, "overview": "Biographical story of the rise from nowhere of singer Ritchie Valens whose life was cut short by a plane crash.", "poster_path": "/4SRdpF1O7AusNA3eLWkhO3D2VDE.jpg", "popularity": 12.327}, {"id": 37414, "video": false, "vote_count": 338, "vote_average": 5.9, "title": "The Killer Inside Me", "release_date": "2010-02-19", "original_language": "en", "original_title": "The Killer Inside Me", "genre_ids": [80, 18, 53], "backdrop_path": "/vsU6Onl9aTrDGRP5vZZbce9LS6N.jpg", "adult": false, "overview": "Deputy Sheriff Lou Ford is a pillar of the community in his small west Texas town, patient and apparently thoughtful. Some people think he is a little slow and maybe boring, but that is the worst they say about him. But then nobody knows about what Lou calls his \"sickness\": He is a brilliant, but disturbed sociopathic sadist.", "poster_path": "/9iaV9bNNFBxEWLjnMGvSmnNY4Uj.jpg", "popularity": 10.093}, {"id": 10186, "video": false, "vote_count": 324, "vote_average": 5.8, "title": "The Rocker", "release_date": "2008-08-20", "original_language": "en", "original_title": "The Rocker", "genre_ids": [35, 10402], "backdrop_path": "/wyAJgNSphpSI2NYWg4VIxN2w8i9.jpg", "adult": false, "overview": "Rob \"Fish\" Fishman is the drummer in '80s hair metal band Vesuvius. He's unceremoniously booted as the group signs a big record deal, is out of the music world for 20 years - and then receives a second chance with his nephew's band.", "poster_path": "/yQfng0iKQVuGDdI5JeoKPINlXuH.jpg", "popularity": 10.893}], "total_pages": 47, "total_results": 922}, "recommendations": {"page": 1, "results": [{"id": 228539, "video": false, "vote_count": 6, "vote_average": 6.0, "title": "Thumbelina", "release_date": "1993-06-09", "original_language": "en", "original_title": "Thumbelina", "genre_ids": [12, 16, 10751], "backdrop_path": null, "adult": false, "overview": "The dam where Thumbelina and her father live is breaking due to the rising waters in the nearby pond. Father worries that when spring comes, the melting snows will rise the water higher than ever causing the dam to crack and water to flow over the meadow, thus drowning the little people who live there. Father believes he is too old to take on the journey to find the prince and warn him and his people, so he asks his daughter to go instead. Thumbelina agrees, but in her journey she mets a great deal of characters, both good and evil. To someone not bigger than a human's thumb, dealing with the evil intentions of Mona, a greedy mouse, will prove to be a big challenge.", "poster_path": "/pdNu4KSfpwGuABLHb7NpkxYihff.jpg", "popularity": 3.026}, {"adult": false, "backdrop_path": "/svJuGYnRkwFOZ0pmZZurhFFKVAU.jpg", "genre_ids": [35, 10749], "id": 86913, "original_language": "en", "original_title": "Wishful Thinking", "overview": "A story told from three angles. Max meets Elizabeth; they live together, but when she talks of marriage, he balks. He becomes extremely jealous, probably without cause, and thinks she's taken up with a friend of his, Jack. Elizabeth, stung by Max's refusal to marry, catches Jack's eye, but the friendship seems innocent. Lena, who works with Max, likes him and realizes she can manipulate his jealousy and maybe engineer his split from Elizabeth. When she's sure Elizabeth is with a man, she calls Max at work, sending him home to confront the lovers. Then, Lena feels guilty and takes off for Max's apartment. What's really going on? Who's with Elizabeth?", "poster_path": "/3MsbOTmpm0gC8dQYlZzaFvz0Qy.jpg", "release_date": "1996-12-09", "title": "Wishful Thinking", "video": false, "vote_average": 5.3, "vote_count": 11, "popularity": 2.446}, {"id": 17806, "video": false, "vote_count": 15, "vote_average": 5.5, "title": "Forever Lulu", "release_date": "2000-01-01", "original_language": "en", "original_title": "Forever Lulu", "genre_ids": [35, 18, 10749], "backdrop_path": "/iQhUMw9U68WBDNI05sEOYX2f0re.jpg", "adult": false, "overview": "A schizophrenic romantic tracks down her college sweetheart to help her find their son she gave up for adoption sixteen years ago to the dismay of his new wife.", "poster_path": "/ssiLwE1HHKUiou5N6WDtG6nL7PD.jpg", "popularity": 4.018}], "total_pages": 1, "total_results": 3}, "credits": {"cast": [{"cast_id": 1, "character": "Jack Cabe", "credit_id": "52fe44d6c3a368484e039a2d", "gender": 2, "id": 8891, "name": "John Travolta", "order": 0, "profile_path": "/JSt3skdZpGPJYJixCZqH599WdI.jpg"}, {"cast_id": 2, "character": "Jesse Tucker", "credit_id": "52fe44d6c3a368484e039a31", "gender": 2, "id": 94074, "name": "Jamie Walters", "order": 1, "profile_path": "/AlsVHl92CPCrB1DFvIuQlVsVkPK.jpg"}, {"cast_id": 3, "character": "Sara Benedict", "credit_id": "52fe44d6c3a368484e039a35", "gender": 1, "id": 69122, "name": "Heather Graham", "order": 2, "profile_path": "/rHIEhPAnZQn8BTbB1EVQ5ggEOX7.jpg"}, {"cast_id": 4, "character": "Eugene Benedict", "credit_id": "52fe44d6c3a368484e039a39", "gender": 2, "id": 12518, "name": "Richard Jordan", "order": 3, "profile_path": "/9Wv303Zx9yU8zp2sEG1cZbpYRre.jpg"}, {"cast_id": 5, "character": "Molly", "credit_id": "52fe44d6c3a368484e039a3d", "gender": 1, "id": 9625, "name": "Linda Fiorentino", "order": 4, "profile_path": "/aKadq5uC9CjCKtkMYPYECNcGz3s.jpg"}, {"cast_id": 6, "character": "Bradley", "credit_id": "52fe44d6c3a368484e039a41", "gender": 2, "id": 9306, "name": "Scott Coffey", "order": 5, "profile_path": "/kRA20iJ4hBeHSUlYduRTXEhQyku.jpg"}, {"cast_id": 7, "character": "Alan", "credit_id": "52fe44d6c3a368484e039a45", "gender": 2, "id": 80292, "name": "Glenn Quinn", "order": 6, "profile_path": "/l3W8kAHfO5sDcSMqjAXAaOpELZT.jpg"}, {"cast_id": 8, "character": "Rebecca", "credit_id": "52fe44d6c3a368484e039a49", "gender": 1, "id": 12052, "name": "Gwyneth Paltrow", "order": 7, "profile_path": "/uSidH77gLyon3Zpg6y1GxpKJMdZ.jpg"}, {"cast_id": 18, "character": "Toby", "credit_id": "52fe44d6c3a368484e039a83", "gender": 0, "id": 1127498, "name": "Francis von Zerneck", "order": 8, "profile_path": null}, {"cast_id": 19, "character": "Big Boy", "credit_id": "52fe44d6c3a368484e039a87", "gender": 2, "id": 58744, "name": "Michael Bacall", "order": 9, "profile_path": "/vAqUOjmjY1ALiTRlYu7BI3yWmuK.jpg"}, {"cast_id": 20, "character": "Travis Parker", "credit_id": "52fe44d6c3a368484e039a8b", "gender": 2, "id": 164630, "name": "Sam Hennings", "order": 10, "profile_path": "/39926mUrU5jqCUFhLdHEdNMHWl9.jpg"}, {"cast_id": 21, "character": "Rachel", "credit_id": "52fe44d6c3a368484e039a8f", "gender": 0, "id": 1127499, "name": "Kristina Simonds", "order": 11, "profile_path": null}, {"cast_id": 22, "character": "Deputy", "credit_id": "52fe44d6c3a368484e039a93", "gender": 2, "id": 199143, "name": "Charles Taylor", "order": 12, "profile_path": null}, {"cast_id": 24, "character": "Additional Voices (voice)", "credit_id": "5c5038da92514116fc4f1be9", "gender": 2, "id": 78317, "name": "Bob Bergen", "order": 13, "profile_path": "/nWFte3YPKGKEmj7n9embVttrxJ9.jpg"}, {"cast_id": 25, "character": "Additional Voices (voice)", "credit_id": "5c5038e092514151a95a9b1f", "gender": 0, "id": 16151, "name": "Tom Fahn", "order": 14, "profile_path": "/6wrHp9ZoePEJBnmVIZjF4Tm4hfv.jpg"}, {"cast_id": 26, "character": "Additional Voices (voice)", "credit_id": "5c5038e692514116fc4f1bee", "gender": 1, "id": 173428, "name": "Bridget Hoffman", "order": 15, "profile_path": "/jlPhkFXDUAgy2y9BMkf6RvHLhqV.jpg"}, {"cast_id": 27, "character": "Loretta", "credit_id": "5d702476e22d286f6eb52311", "gender": 1, "id": 155483, "name": "Michelle Johnston", "order": 16, "profile_path": "/tBW5YIcWNx1ihVcm7nOUiZ9WPOZ.jpg"}], "crew": [{"credit_id": "52fe44d6c3a368484e039a79", "department": "Production", "gender": 1, "id": 13585, "job": "Casting", "name": "Nancy Nayor", "profile_path": "/43LHN7kjcpvsSBBoshm4C1GUouP.jpg"}, {"credit_id": "52fe44d6c3a368484e039a67", "department": "Sound", "gender": 2, "id": 14712, "job": "Original Music Composer", "name": "Randy Edelman", "profile_path": "/fGS6OjvQpivFVajkmjTRgRiC9BN.jpg"}, {"credit_id": "52fe44d6c3a368484e039a73", "department": "Editing", "gender": 2, "id": 21794, "job": "Editor", "name": "Seth Flaum", "profile_path": null}, {"credit_id": "52fe44d6c3a368484e039a5b", "department": "Production", "gender": 2, "id": 29015, "job": "Producer", "name": "Robert Simonds", "profile_path": null}, {"credit_id": "52fe44d6c3a368484e039a55", "department": "Writing", "gender": 2, "id": 56281, "job": "Writer", "name": "Joe Gayton", "profile_path": "/bm5kJJxaXYvBDeE5HjHXnxsFgnd.jpg"}, {"credit_id": "56964a6c9251413f7600324a", "department": "Camera", "gender": 2, "id": 56988, "job": "Director of Photography", "name": "Robert Brinkmann", "profile_path": null}, {"credit_id": "52fe44d6c3a368484e039a4f", "department": "Directing", "gender": 2, "id": 150207, "job": "Director", "name": "Jeffrey Hornaday", "profile_path": null}, {"credit_id": "52fe44d6c3a368484e039a61", "department": "Production", "gender": 0, "id": 961264, "job": "Executive Producer", "name": "Lindsley Parsons Jr.", "profile_path": null}, {"credit_id": "52fe44d6c3a368484e039a7f", "department": "Art", "gender": 2, "id": 1127497, "job": "Production Design", "name": "William F. Matthews", "profile_path": null}]}}