{"adult": false, "backdrop_path": null, "belongs_to_collection": null, "budget": 0, "genres": [{"id": 28, "name": "Action"}], "homepage": null, "id": 257198, "imdb_id": "tt0265475", "original_language": "en", "original_title": "Outlaw Riders", "overview": "An  outlaw motorcycle gang is headed by two couples (Bambi Allan, Jennifer Bishop, Bill Bonner and Bryan West). The gang is badly hurt by a botched robbery and the four stars, the only survivors, eventually head to Mexico, where they have to combat a gang run by a sadistic Mexican (Rafael Campos).", "popularity": 0.871, "poster_path": "/rGE6gV7gJHs3bycRW626WJ1H93A.jpg", "production_companies": [], "production_countries": [{"iso_3166_1": "US", "name": "United States of America"}], "release_date": "1971-09-03", "revenue": 0, "runtime": 86, "spoken_languages": [{"iso_639_1": "en", "name": "English"}], "status": "Released", "tagline": "Tough as Leather...Harder Than Steel!", "title": "Outlaw Riders", "video": false, "vote_average": 0.0, "vote_count": 0, "keywords": {"keywords": [{"id": 14736, "name": "motorcycle gang"}, {"id": 168132, "name": "biker movie"}]}, "similar": {"page": 1, "results": [{"adult": false, "backdrop_path": "/7ZyiMee2s7kARJ0IvJOIgTyvmdp.jpg", "genre_ids": [12, 28, 53, 878], "id": 9659, "original_language": "en", "original_title": "Mad Max", "overview": "In a postapocalyptic future, jaded cop Max Rockatansky (Mel Gibson) is ready to retire. But his world is shattered when a malicious gang murders his family as an act of retaliation, forcing a devastated Max to hit the open road seeking vengeance. As he travels the Australian outback's empty stretches of highway, he tours the bloodstained battlegrounds ruled by marauding bikers who feed on violence.", "poster_path": "/5LrI4GiCSrChgkdskVZiwv643Kg.jpg", "release_date": "1979-04-12", "title": "Mad Max", "video": false, "vote_average": 6.7, "vote_count": 2363, "popularity": 25.432}, {"id": 71676, "video": false, "vote_count": 2238, "vote_average": 4.8, "title": "Ghost Rider: Spirit of Vengeance", "release_date": "2011-12-10", "original_language": "en", "original_title": "Ghost Rider: Spirit of Vengeance", "genre_ids": [28, 14, 53], "backdrop_path": "/9w9UtpeRPK797GzT7xQXuVRSUSj.jpg", "adult": false, "overview": "When the devil resurfaces with aims to take over the world in human form, Johnny Blaze reluctantly comes out of hiding to transform into the flame-spewing supernatural hero Ghost Rider -- and rescue a 10-year-old boy from an unsavory end.", "poster_path": "/tqwWzmp5ISh64SJbNKQ9fyItnDj.jpg", "popularity": 18.398}, {"id": 11199, "video": false, "vote_count": 1336, "vote_average": 5.8, "title": "Wild Hogs", "release_date": "2007-03-02", "original_language": "en", "original_title": "Wild Hogs", "genre_ids": [28, 12, 35], "backdrop_path": "/9tayGegNltU7dIwa6ZGFuEFofbP.jpg", "adult": false, "overview": "Restless and ready for adventure, four suburban bikers leave the safety of their subdivision and head out on the open road. But complications ensue when they cross paths with an intimidating band of New Mexico bikers known as the Del Fuegos.", "poster_path": "/7uxAapp2ZITmQmjdyodFgCAINAG.jpg", "popularity": 16.63}, {"adult": false, "backdrop_path": null, "genre_ids": [18, 28, 53], "id": 189260, "original_language": "en", "original_title": "Savages from Hell", "overview": "When the leader of a vicious motorcycle gang finds a farmworker's son flirting with his woman, he beats the boy senseless, then kidnaps the farmworker's daughter.", "poster_path": "/l5hloLDfqz0k3jJ1yZ6tIsBcmbq.jpg", "release_date": "1968-04-01", "title": "Savages from Hell", "video": false, "vote_average": 5.0, "vote_count": 2, "popularity": 1.021}, {"adult": false, "backdrop_path": "/A0gP8vufy0qj4XoyDCznykKGVRu.jpg", "genre_ids": [28, 12, 35], "id": 17169, "original_language": "en", "original_title": "Any Which Way You Can", "overview": "Philo takes part in a bare knuckle fight - as he does - to make some more money than he can earn from his car repair business. He decides to retire from fighting, but when the Mafia come along and arrange another fight, he is pushed into it. A motorcycle gang and an orangutan called Clyde all add to the 'fun'.", "poster_path": "/fGP1rB0MapjDyR0lCjYa6AhjQ1i.jpg", "release_date": "1980-12-17", "title": "Any Which Way You Can", "video": false, "vote_average": 6.0, "vote_count": 161, "popularity": 12.421}, {"id": 17689, "video": false, "vote_count": 227, "vote_average": 6.7, "title": "The Gauntlet", "release_date": "1977-12-21", "original_language": "en", "original_title": "The Gauntlet", "genre_ids": [28, 80, 18, 53], "backdrop_path": "/AqLSm9sl2Oe46XvqhoRBhKI3wXi.jpg", "adult": false, "overview": "Phoenix cop Ben Shockley is well on his way to becoming a derelict when he is assigned to transport a witness named Gus Mally from Vegas. Mally turns out to be a belligerent prostitute with mob ties and incriminating information regarding a high-placed figure.", "poster_path": "/vojzvKay2QT2eGwvfGBkFfJQlcj.jpg", "popularity": 10.101}, {"id": 14746, "video": false, "vote_count": 193, "vote_average": 6.7, "title": "Streets of Fire", "release_date": "1984-06-01", "original_language": "en", "original_title": "Streets of Fire", "genre_ids": [28], "backdrop_path": "/q1rKQK4Jyu8KPXrkiUjcAgv2rwM.jpg", "adult": false, "overview": "Raven Shaddock and his gang of merciless biker friends kidnap rock singer Ellen Aim. Ellen's former lover, soldier-for-hire Tom Cody, happens to be passing through town on a visit. In an attempt to save his star act, Ellen's manager hires Tom to rescue her. Along with a former soldier, they battle through dangerous cityscapes, determined to get Ellen back.", "poster_path": "/cbd7haj22LgogH8PycigSVmCNY7.jpg", "popularity": 8.663}, {"adult": false, "backdrop_path": "/kSTvteM3ekuoeO7u7GJtZQkZuom.jpg", "genre_ids": [28, 53, 80], "id": 1948, "original_language": "en", "original_title": "Crank", "overview": "Professional assassin Chev Chelios learns his rival has injected him with a poison that will kill him if his heart rate drops.", "poster_path": "/6RnD3Zfh0tO0cD2vroWyH0F98Ej.jpg", "release_date": "2006-08-31", "title": "Crank", "video": false, "vote_average": 6.6, "vote_count": 2121, "popularity": 21.613}, {"adult": false, "backdrop_path": "/ysLIi9nzMbUqi4dQh3tqblUb27o.jpg", "genre_ids": [878, 28, 27, 53, 12, 14], "id": 36648, "original_language": "en", "original_title": "Blade: Trinity", "overview": "For years, Blade has fought against the vampires in the cover of the night. But now, after falling into the crosshairs of the FBI, he is forced out into the daylight, where he is driven to join forces with a clan of human vampire hunters he never knew existed\u2014The Nightstalkers. Together with Abigail and Hannibal, two deftly trained Nightstalkers, Blade follows a trail of blood to the ancient creature that is also hunting him\u2014the original vampire, Dracula.", "poster_path": "/4WinsdHQBdh5aTt7Bd7T7dbUXbb.jpg", "release_date": "2004-12-08", "title": "Blade: Trinity", "video": false, "vote_average": 5.8, "vote_count": 2278, "popularity": 19.358}, {"id": 353081, "video": false, "vote_count": 4536, "vote_average": 7.3, "title": "Mission: Impossible - Fallout", "release_date": "2018-07-13", "original_language": "en", "original_title": "Mission: Impossible - Fallout", "genre_ids": [28, 12], "backdrop_path": "/aw4FOsWr2FY373nKSxbpNi3fz4F.jpg", "adult": false, "overview": "When an IMF mission ends badly, the world is faced with dire consequences. As Ethan Hunt takes it upon himself to fulfill his original briefing, the CIA begin to question his loyalty and his motives. The IMF team find themselves in a race against time, hunted by assassins while trying to prevent a global catastrophe.", "poster_path": "/AkJQpZp9WoNdj7pLYSj1L0RcMMN.jpg", "popularity": 47.921}, {"adult": false, "backdrop_path": "/lHZ5H1jd4zVJYr1wfLKBdXYtZ17.jpg", "genre_ids": [12, 28, 53], "id": 714, "original_language": "en", "original_title": "Tomorrow Never Dies", "overview": "A deranged media mogul is staging international incidents to pit the world\u2019s superpowers against each other. Now 007 must take on this evil mastermind in an adrenaline-charged battle to end his reign of terror and prevent global pandemonium.", "poster_path": "/k3eI9q7ISgpDEu2CMwR2s6inJVp.jpg", "release_date": "1997-12-11", "title": "Tomorrow Never Dies", "video": false, "vote_average": 6.2, "vote_count": 1728, "popularity": 28.522}, {"id": 2503, "video": false, "vote_count": 4835, "vote_average": 7.4, "title": "The Bourne Ultimatum", "release_date": "2007-08-03", "original_language": "en", "original_title": "The Bourne Ultimatum", "genre_ids": [28, 18, 9648, 53], "backdrop_path": "/6WpDOqkZFmhNJ0rwuLJiZVKlZi1.jpg", "adult": false, "overview": "Bourne is brought out of hiding once again by reporter Simon Ross who is trying to unveil Operation Blackbriar, an upgrade to Project Treadstone, in a series of newspaper columns. Information from the reporter stirs a new set of memories, and Bourne must finally uncover his dark past while dodging The Company's best efforts to eradicate him.", "poster_path": "/fHho6JYYY0nRcETWSoeI19iZsNF.jpg", "popularity": 16.034}, {"id": 699, "video": false, "vote_count": 908, "vote_average": 6.5, "title": "For Your Eyes Only", "release_date": "1981-06-23", "original_language": "en", "original_title": "For Your Eyes Only", "genre_ids": [28, 12, 53], "backdrop_path": "/hg8ecg8LrR8ChvZh4aMETNUraGA.jpg", "adult": false, "overview": "A British spy ship has sunk and on board was a hi-tech encryption device. James Bond is sent to find the device that holds British launching instructions before the enemy Soviets get to it first.", "poster_path": "/vpZZZ2eq8z4I6PSeGxR2UWNciGG.jpg", "popularity": 18.605}, {"id": 923, "video": false, "vote_count": 1067, "vote_average": 7.5, "title": "Dawn of the Dead", "release_date": "1978-09-02", "original_language": "en", "original_title": "Dawn of the Dead", "genre_ids": [27], "backdrop_path": "/vCD9mRgSY4HuoSowm8JO4tm2mhj.jpg", "adult": false, "overview": "During an ever-growing epidemic of zombies that have risen from the dead, two Philadelphia SWAT team members, a traffic reporter, and his television-executive girlfriend seek refuge in a secluded shopping mall.", "poster_path": "/yK8BmYEvd0IPpDXL6zzlTA2geDf.jpg", "popularity": 11.925}, {"id": 460885, "video": false, "vote_count": 794, "vote_average": 6.2, "title": "Mandy", "release_date": "2018-09-13", "original_language": "en", "original_title": "Mandy", "genre_ids": [28, 14, 27, 9648, 53], "backdrop_path": "/mqbAmIiToU2R4VwZGgCqsfy6Yh4.jpg", "adult": false, "overview": "The Shadow Mountains, 1983. Red and Mandy lead a loving and peaceful existence; but when their pine-scented haven is savagely destroyed, Red is catapulted into a phantasmagoric journey filled with bloody vengeance and laced with fire.", "poster_path": "/m0yf7J7HsKeK6E81SMRcX8vx6mH.jpg", "popularity": 12.535}, {"id": 20526, "video": false, "vote_count": 4743, "vote_average": 6.4, "title": "TRON: Legacy", "release_date": "2010-12-10", "original_language": "en", "original_title": "TRON: Legacy", "genre_ids": [28, 12, 878], "backdrop_path": "/6hquJfTEM97bqMekCOPO50SLbzr.jpg", "adult": false, "overview": "Sam Flynn, the tech-savvy and daring son of Kevin Flynn, investigates his father's disappearance and is pulled into The Grid. With the help of a mysterious program named Quorra, Sam quests to stop evil dictator Clu from crossing into the real world.", "poster_path": "/vllvystwQjmXzy5OvBKnGl1JREF.jpg", "popularity": 25.716}, {"adult": false, "backdrop_path": "/nb70B4EXuoegiQ0C5N1fNVHIaYc.jpg", "genre_ids": [12, 18, 36, 53, 10752], "id": 5925, "original_language": "en", "original_title": "The Great Escape", "overview": "The Nazis, exasperated at the number of escapes from their prison camps by a relatively small number of Allied prisoners, relocates them to a high-security 'escape-proof' camp to sit out the remainder of the war. Undaunted, the prisoners plan one of the most ambitious escape attempts of World War II. Based on a true story.", "poster_path": "/qhy4HgUqhEbwQ1ekKTv7yEB3b0e.jpg", "release_date": "1963-06-20", "title": "The Great Escape", "video": false, "vote_average": 8.0, "vote_count": 1359, "popularity": 19.093}, {"adult": false, "backdrop_path": "/zWGAnbxjjwY3xFGuOeR26LGbBlG.jpg", "genre_ids": [27, 53], "id": 238636, "original_language": "en", "original_title": "The Purge: Anarchy", "overview": "One night per year, the government sanctions a 12-hour period in which citizens can commit any crime they wish -- including murder -- without fear of punishment or imprisonment. Leo, a sergeant who lost his son, plans a vigilante mission of revenge during the mayhem. However, instead of a death-dealing avenger, he becomes the unexpected protector of four innocent strangers who desperately need his help if they are to survive the night.", "poster_path": "/l1DRl40x2OWUoPP42v8fjKdS1Z3.jpg", "release_date": "2014-07-17", "title": "The Purge: Anarchy", "video": false, "vote_average": 6.6, "vote_count": 4145, "popularity": 36.766}, {"id": 473149, "video": false, "vote_count": 195, "vote_average": 5.9, "title": "Traffik", "release_date": "2018-04-20", "original_language": "en", "original_title": "Traffik", "genre_ids": [27, 53], "backdrop_path": "/wbk9VvJ8lkUF0ElpfRm3dFIzMJf.jpg", "adult": false, "overview": "A couple off for a romantic weekend in the mountains are accosted by a biker gang. Alone in the mountains, Brea and John must defend themselves against the gang, who will stop at nothing to protect their secrets.", "poster_path": "/e2Z466e9402RFP6wxRMfXYYiJHA.jpg", "popularity": 31.63}, {"id": 21338, "video": false, "vote_count": 68, "vote_average": 5.9, "title": "Stone Cold", "release_date": "1991-05-17", "original_language": "en", "original_title": "Stone Cold", "genre_ids": [28, 80, 53], "backdrop_path": "/4nV0kSGGLDOUTRaGjhAbF8gU2Ze.jpg", "adult": false, "overview": "Joe Huff (Brian Bosworth) is a tough, loner cop with a flair for infiltrating dangerous biker gangs. The FBI blackmail Joe into an undercover operation that entails infiltrating \"The Brotherhood\" - a powerful Mississippi biker gang linked in the murder of government officials as well as dealing drugs with the mafia.", "poster_path": "/tcD8X3iAbKYlXT7e0oQTJPWNbZ7.jpg", "popularity": 9.579}], "total_pages": 22, "total_results": 434}, "recommendations": {"page": 1, "results": [], "total_pages": 1, "total_results": 0}, "credits": {"cast": [{"cast_id": 8, "character": "Waco", "credit_id": "582ab596c3a368360f0428b0", "gender": 0, "id": 1708985, "name": "Bryan West", "order": 0, "profile_path": null}, {"cast_id": 6, "character": "Sharon", "credit_id": "551881a4c3a36863020049a5", "gender": 0, "id": 1447273, "name": "Darlene Duralia", "order": 1, "profile_path": null}, {"cast_id": 4, "character": "Chuck", "credit_id": "5518818d9251412c1e003412", "gender": 0, "id": 100294, "name": "William Bonner", "order": 2, "profile_path": null}, {"cast_id": 2, "character": "Linda", "credit_id": "5518817ac3a368630200499b", "gender": 1, "id": 103787, "name": "Bambi Allen", "order": 3, "profile_path": "/r7t7mXyj0e5pyBZ246RjjAKICGh.jpg"}, {"cast_id": 3, "character": "Maria", "credit_id": "551881829251412b6d0031ab", "gender": 1, "id": 102966, "name": "Jennifer Bishop", "order": 4, "profile_path": "/8fqpsEmjOj8w2ymrcmzFBydZKIO.jpg"}, {"cast_id": 9, "character": "Lee", "credit_id": "582ab5bec3a368623f01c402", "gender": 2, "id": 84654, "name": "Lindsay Crosby", "order": 5, "profile_path": null}, {"cast_id": 5, "character": "Pedro", "credit_id": "55188195925141731c000311", "gender": 2, "id": 129492, "name": "Rafael Campos", "order": 6, "profile_path": "/vlts5viUFKCHHlxwvRoPmXfMluj.jpg"}, {"cast_id": 10, "character": "Manuel", "credit_id": "582ab5c79251417b29040692", "gender": 0, "id": 1466317, "name": "Ray Cantrell", "order": 7, "profile_path": null}, {"cast_id": 11, "character": "Beans", "credit_id": "582ab5d29251417b2103ff67", "gender": 0, "id": 76065, "name": "Robert Tessier", "order": 8, "profile_path": "/bkfxcqDN0d927EWWJplISwxHsPg.jpg"}, {"cast_id": 12, "character": "Sister Ann", "credit_id": "582ab5df9251417b18040c9c", "gender": 0, "id": 1110579, "name": "Valda Hansen", "order": 9, "profile_path": null}, {"cast_id": 13, "character": "Mill Clerk", "credit_id": "582ab5f19251417b260427b9", "gender": 0, "id": 91949, "name": "Warren Hammack", "order": 10, "profile_path": "/ftubSDTbIJfJlA2vGWOTw6Z0x30.jpg"}], "crew": [{"credit_id": "551881489251412b6d003193", "department": "Writing", "gender": 0, "id": 1447272, "job": "Screenplay", "name": "John Zila", "profile_path": null}, {"credit_id": "56912209c3a3686b490026bb", "department": "Directing", "gender": 0, "id": 91950, "job": "Director", "name": "Tony Huston", "profile_path": "/5xzJnvCVoxroqCgEGAzxVRjaTTX.jpg"}]}}