{"adult": false, "backdrop_path": "/mClnuDn9uYrdOmVXDThMHZWFmkh.jpg", "belongs_to_collection": null, "budget": 0, "genres": [{"id": 99, "name": "Documentary"}], "homepage": "http://www.bitesizemovie.com/", "id": 257109, "imdb_id": "tt2567000", "original_language": "en", "original_title": "Bite Size", "overview": "\"Bite Size\" follows the year long journey of four children struggling with obesity.", "popularity": 1.299, "poster_path": "/x2rKN1FLZ5EOzMMKjJy3EQbkGEG.jpg", "production_companies": [], "production_countries": [], "release_date": "2014-03-07", "revenue": 0, "runtime": 80, "spoken_languages": [{"iso_639_1": "en", "name": "English"}], "status": "Released", "tagline": "Change happens one bite at a time", "title": "Bite Size", "video": false, "vote_average": 5.5, "vote_count": 2, "keywords": {"keywords": [{"id": 3429, "name": "diet"}, {"id": 9974, "name": "obesity"}]}, "similar": {"page": 1, "results": [{"adult": false, "backdrop_path": "/kiWIFa3Ij48rCjxiG2FmQxvEvJa.jpg", "genre_ids": [99, 35, 18], "id": 9372, "original_language": "en", "original_title": "Super Size Me", "overview": "Morgan Spurlock subjects himself to a diet based only on McDonald's fast food three times a day for thirty days without exercising to try to prove why so many Americans are fat or obese. He submits himself to a complete check-up by three doctors, comparing his weight along the way, resulting in a scary conclusion.", "poster_path": "/9J2cYFtYRplFnHgn8V5ntCZEHut.jpg", "release_date": "2004-01-17", "title": "Super Size Me", "video": false, "vote_average": 6.7, "vote_count": 965, "popularity": 11.778}, {"adult": false, "backdrop_path": "/8VyW7cJxsdnIfptbPjGCIX1StUe.jpg", "genre_ids": [10749, 18], "id": 1587, "original_language": "en", "original_title": "What's Eating Gilbert Grape", "overview": "Gilbert Grape is a small-town young man with a lot of responsibility. Chief among his concerns are his mother, who is so overweight that she can't leave the house, and his mentally impaired younger brother, Arnie, who has a knack for finding trouble. Settled into a job at a grocery store and an ongoing affair with local woman Betty Carver, Gilbert finally has his life shaken up by the free-spirited Becky.", "poster_path": "/jQLoOPwNxyILwDbdhn9DsfQz0Sg.jpg", "release_date": "1993-12-17", "title": "What's Eating Gilbert Grape", "video": false, "vote_average": 7.7, "vote_count": 2113, "popularity": 20.762}, {"adult": false, "backdrop_path": "/A7ovlrws4B7lXvkcC9iSRkypX02.jpg", "genre_ids": [27, 9648, 878, 53], "id": 340837, "original_language": "en", "original_title": "A Cure for Wellness", "overview": "An ambitious young executive is sent to retrieve his company's CEO from an idyllic but mysterious \"wellness center\" at a remote location in the Swiss Alps but soon suspects that the spa's miraculous treatments are not what they seem.", "poster_path": "/d4fXuJS3zZcAZfz2HYDtnwqtnwn.jpg", "release_date": "2017-02-15", "title": "A Cure for Wellness", "video": false, "vote_average": 6.2, "vote_count": 2310, "popularity": 16.556}, {"id": 9472, "video": false, "vote_count": 2070, "vote_average": 6.2, "title": "DodgeBall: A True Underdog Story", "release_date": "2004-06-18", "original_language": "en", "original_title": "DodgeBall: A True Underdog Story", "genre_ids": [35], "backdrop_path": "/yM4k71Y6bEuVl7EX46OJ2fvyFHV.jpg", "adult": false, "overview": "When megalomaniacal White Goodman, the owner of a trendy, high-end fitness center, makes a move to take over the struggling local gym run by happy-go-lucky Pete La Fleur, there's only one way for La Fleur to fight back: dodgeball. Aided by a dodgeball guru and Goodman's attorney, La Fleur and his rag-tag team of underdogs launch a knock-down, drag-out battle in which the winner takes all.", "poster_path": "/c7biFO9cEl5hOSvZRMuuJohH5f3.jpg", "popularity": 21.78}, {"id": 9889, "video": false, "vote_count": 1676, "vote_average": 6.0, "title": "Shallow Hal", "release_date": "2001-11-01", "original_language": "en", "original_title": "Shallow Hal", "genre_ids": [35, 10749], "backdrop_path": "/k9fMBC1MMgrt4w6IVuB7kTX3yqz.jpg", "adult": false, "overview": "A shallow man falls in love with a 300 pound woman because of her \"inner beauty\".", "poster_path": "/xhdJKfDp7TihFcO5CF6BFY1xImE.jpg", "popularity": 17.032}, {"id": 415086, "video": false, "vote_count": 190, "vote_average": 7.3, "title": "What the Health", "release_date": "2017-03-16", "original_language": "en", "original_title": "What the Health", "genre_ids": [99], "backdrop_path": "/uoNpFDFQOdaMvyqD8zxP3yezzCJ.jpg", "adult": false, "overview": "Filmmaker Kip Andersen uncovers the secret to preventing and even reversing chronic diseases, and he investigates why the nation's leading health organizations doesn't want people to know about it.", "poster_path": "/sz9cPeSmiGLA1EDUPszlrWfSrId.jpg", "popularity": 10.08}, {"adult": false, "backdrop_path": "/9nPM0bDtVnNJF9ZfZS1fFz5ocMZ.jpg", "genre_ids": [99], "id": 250657, "original_language": "en", "original_title": "Fed Up", "overview": "Fed Up blows the lid off everything we thought we knew about food and weight loss, revealing a 30-year campaign by the food industry, aided by the U.S. government, to mislead and confuse the American public, resulting in one of the largest health epidemics in history.", "poster_path": "/jKVENCajbPNs5woa92oqUFHKBR9.jpg", "release_date": "2014-05-09", "title": "Fed Up", "video": false, "vote_average": 7.5, "vote_count": 163, "popularity": 7.391}, {"id": 2292, "video": false, "vote_count": 1408, "vote_average": 7.4, "title": "Clerks", "release_date": "1994-09-13", "original_language": "en", "original_title": "Clerks", "genre_ids": [35], "backdrop_path": "/a3sogs3NLDj3d2ITPd6TTBR0Eax.jpg", "adult": false, "overview": "Convenience and video store clerks Dante and Randal are sharp-witted, potty-mouthed and bored out of their minds. So in between needling customers, the counter jockeys play hockey on the roof, visit a funeral home and deal with their love lives.", "poster_path": "/dmNytzvQTjylI83qrgDoS1KQ0ev.jpg", "popularity": 14.394}, {"id": 9388, "video": false, "vote_count": 1252, "vote_average": 7.2, "title": "Thank You for Smoking", "release_date": "2005-03-17", "original_language": "en", "original_title": "Thank You for Smoking", "genre_ids": [35, 18], "backdrop_path": "/D1VqMoYT4K2aFcywu3kGnycD6n.jpg", "adult": false, "overview": "Nick Naylor is a charismatic spin-doctor for Big Tobacco who'll fight to protect America's right to smoke -- even if it kills him -- while still remaining a role model for his 12-year old son. When he incurs the wrath of a senator bent on snuffing out cigarettes, Nick's powers of \"filtering the truth\" will be put to the test.", "poster_path": "/v8PKsbAGIvAhKbbRUjdQ3jgFD2S.jpg", "popularity": 14.661}, {"id": 463088, "video": false, "vote_count": 66, "vote_average": 7.3, "title": "The Game Changers", "release_date": "2019-09-16", "original_language": "en", "original_title": "The Game Changers", "genre_ids": [99], "backdrop_path": "/1qvFSpY0cFfhfuJza4hDzcGxypz.jpg", "adult": false, "overview": "From the UFC Octagon in Las Vegas and the anthropology lab at Dartmouth, to a strongman gym in Berlin and the bushlands of Zimbabwe, the world is introduced to elite athletes, special ops soldiers, visionary scientists, cultural icons, and everyday heroes\u2014each on a mission to create a seismic shift in the way we eat and live.", "poster_path": "/eufF3xEif5EZ1gTjdubw3KWh9xU.jpg", "popularity": 10.177}, {"id": 641, "video": false, "vote_count": 5690, "vote_average": 8.0, "title": "Requiem for a Dream", "release_date": "2000-10-06", "original_language": "en", "original_title": "Requiem for a Dream", "genre_ids": [80, 18], "backdrop_path": "/c5g1Dn1tF22CS2oOvHDNKr1Ve2U.jpg", "adult": false, "overview": "The hopes and dreams of four ambitious people are shattered when their drug addictions begin spiraling out of control. A look into addiction and how it overcomes the mind and body.", "poster_path": "/nOd6vjEmzCT0k4VYqsA2hwyi87C.jpg", "popularity": 6.401}, {"adult": false, "backdrop_path": null, "genre_ids": [18], "id": 621022, "original_language": "en", "original_title": "Girl and Body", "overview": "After collapsing during rehearsal, Yuri struggles to understand her mysterious medical condition and her even more enigmatic hospital-ward neighbour. Both patients are forced to confront the link between mind and body in vastly different ways.", "poster_path": "/ik6CDzoAystibe7GwMcGrGSXrSP.jpg", "release_date": "2019-08-10", "title": "Girl and Body", "video": false, "vote_average": 0.0, "vote_count": 0, "popularity": 0.6}, {"id": 8748, "video": false, "vote_count": 152, "vote_average": 6.6, "title": "Eagle vs Shark", "release_date": "2007-07-15", "original_language": "en", "original_title": "Eagle vs Shark", "genre_ids": [35, 10749], "backdrop_path": "/a6GzCp5lZW9lkfw4YkwEHdMetmQ.jpg", "adult": false, "overview": "The New Zealand made \"Eagle vs Shark\" is the tale of two socially awkward misfits and the strange ways they try to find love; through revenge on high-school bullies, burgers, and video games.  Love blossoms for Lily over double Meaty Boy burgers at mid-day when uber-computer nerd Jarrod comes in and leaves with free extra large fries.  After gatecrashing Jarrod's party and proving her skills on the game console, Lily goes down to Jarrod's home town with him so he can settle an old score with a past school bully.", "poster_path": "/ybKgtpmn54tENqG1mbPiyXpPXVW.jpg", "popularity": 7.205}, {"adult": false, "backdrop_path": "/wY7goQmGfKUJAiXMEnGg0QC38JG.jpg", "genre_ids": [99], "id": 305091, "original_language": "en", "original_title": "That Sugar Film", "overview": "One man's journey to discover the bitter truth about sugar. Damon Gameau embarks on a unique experiment to document the effects of a high sugar diet on a healthy body, consuming only foods that are commonly perceived as 'healthy'. Through this entertaining and informative journey, Damon highlights some of the issues that plague the sugar industry, and where sugar lurks on supermarket shelves.", "poster_path": "/qF1fDtJ1vU3hrLDNJCgRoQekFmM.jpg", "release_date": "2014-07-31", "title": "That Sugar Film", "video": false, "vote_average": 6.7, "vote_count": 116, "popularity": 7.336}, {"adult": false, "backdrop_path": "/rtxkcRaD43piUrr9dQpwLiA6byh.jpg", "genre_ids": [27], "id": 26914, "original_language": "en", "original_title": "Troll 2", "overview": "A young child is terrified to discover that a planned family trip is to be haunted by vile plant-eating monsters out of his worst nightmare...", "poster_path": "/h03Huw7ZoyDrgBDc7GteshoJsnx.jpg", "release_date": "1990-10-12", "title": "Troll 2", "video": false, "vote_average": 3.6, "vote_count": 209, "popularity": 8.657}, {"adult": false, "backdrop_path": "/yAyeCwacTSv5E1FoOQpklEe7R9C.jpg", "genre_ids": [99], "id": 37312, "original_language": "en", "original_title": "Killer at Large", "overview": "Obesity rates in the United States have reached epidemic proportions in recent years. Killer at Large shows how little is being done and more importantly, what can be done to reverse it. Killer at Large also explores the human element of the problem with portions of the film that follow a 12-year old girl who has a controversial liposuction procedure to fix her weight gain and a number of others suffering from obesity, including filmmaker Neil Labute.", "poster_path": "/apZCyDgg4sVI1PLEjSfrv7xB9AS.jpg", "release_date": "2008-11-21", "title": "Killer at Large", "video": false, "vote_average": 6.3, "vote_count": 9, "popularity": 1.208}, {"id": 18570, "video": false, "vote_count": 355, "vote_average": 7.4, "title": "Food, Inc.", "release_date": "2008-09-07", "original_language": "en", "original_title": "Food, Inc.", "genre_ids": [99], "backdrop_path": "/npq6sSmWFWulvKNdQaTkpxbSWW4.jpg", "adult": false, "overview": "Documentary filmmaker Robert Kenner examines how mammoth corporations have taken over all aspects of the food chain in the United States, from the farms where our food is grown to the chain restaurants and supermarkets where it's sold. Narrated by author and activist Eric Schlosser, the film features interviews with average Americans about their dietary habits, commentary from food experts like Michael Pollan and unsettling footage shot inside large-scale animal processing plants.", "poster_path": "/gWYCM3YVYwZQcpfye6biAlPy9Xt.jpg", "popularity": 10.704}, {"id": 607693, "video": false, "vote_count": 4, "vote_average": 5.3, "title": "Aruvam", "release_date": "2019-10-10", "original_language": "ta", "original_title": "\u0b85\u0bb0\u0bc1\u0bb5\u0bae\u0bcd", "genre_ids": [27, 53], "backdrop_path": "/wv937LuVhQRHchUFz73TCZNaOVE.jpg", "adult": false, "overview": "A food safety officer and a teacher who has no sense of smell come together to fight the practice of food adulteration and its devastating effect on people.", "poster_path": "/i6wx0LlqYbFO8qb2CuZcfj7dfW9.jpg", "popularity": 3.272}, {"adult": false, "backdrop_path": "/pNrbEENU6jQPNbDuomuU9bT00L7.jpg", "genre_ids": [99], "id": 393961, "original_language": "en", "original_title": "Food Choices", "overview": "This documentary explores the impact that food choices have on people's health, the health of our planet and on the lives of other living species. And also discusses several misconceptions about food and diet.", "poster_path": "/veaZGd9H7s75oaoMb7vURQRSX7G.jpg", "release_date": "2016-04-21", "title": "Food Choices", "video": false, "vote_average": 7.5, "vote_count": 46, "popularity": 5.811}, {"adult": false, "backdrop_path": "/luR7WswB2EOTD6QY7nhNitEejLu.jpg", "genre_ids": [35], "id": 70076, "original_language": "en", "original_title": "Lying to Be Perfect", "overview": "By day, Nola Devlin (Poppy Montgomery) is an unassuming, frumpy magazine editor who is overlooked and teased by her coworkers. When the sun sets, though, and she is behind the glow and anonymity of her computer screen, she becomes the famous and \u201creclusive\u201d advice columnist Belinda Apple. Nola\u2019s friends, tired of being overworked and overweight, band together to create the \u201cCinderella Pact,\u201d vowing to lose pounds by following the advice of their \u201cfairy godmother,\u201d Apple. When her secret identity is threatened, Nola is forced to take her own alter ego\u2019s advice. But, as the group of friends drops dress sizes, their real issues are exposed, and better-than-expected life changes begin to blossom.", "poster_path": "/oePGHEFRHD4E8WPWhWYk9ydqTcS.jpg", "release_date": "2010-01-30", "title": "Lying to Be Perfect", "video": false, "vote_average": 6.1, "vote_count": 92, "popularity": 8.127}], "total_pages": 10, "total_results": 193}, "recommendations": {"page": 1, "results": [], "total_pages": 1, "total_results": 0}, "credits": {"cast": [], "crew": [{"credit_id": "530cf36e925141142e001544", "department": "Directing", "gender": 0, "id": 1296534, "job": "Director", "name": "Corbin Billings", "profile_path": null}]}}