{"adult": false, "backdrop_path": "/4OV3q2CENE9xU8sy1TTFluSpQBz.jpg", "belongs_to_collection": null, "budget": 0, "genres": [{"id": 53, "name": "Thriller"}], "homepage": "", "id": 257302, "imdb_id": "tt0065378", "original_language": "en", "original_title": "Alba pagana", "overview": "In a changing world a young Italian enrols at Oxford and finds i is him they are out to change.", "popularity": 0.741, "poster_path": "/c1oZkOW25NedDyayGxjvYDxat9G.jpg", "production_companies": [{"id": 10523, "logo_path": null, "name": "Mondial Televisione Film", "origin_country": "IT"}], "production_countries": [{"iso_3166_1": "IT", "name": "Italy"}], "release_date": "1970-08-02", "revenue": 0, "runtime": 101, "spoken_languages": [{"iso_639_1": "en", "name": "English"}], "status": "Released", "tagline": "", "title": "May Morning", "video": false, "vote_average": 6.5, "vote_count": 2, "keywords": {"keywords": [{"id": 3616, "name": "college"}, {"id": 8095, "name": "oxford"}, {"id": 195402, "name": "film noir"}]}, "similar": {"page": 1, "results": [{"id": 325133, "video": false, "vote_count": 3097, "vote_average": 5.7, "title": "Neighbors 2: Sorority Rising", "release_date": "2016-05-04", "original_language": "en", "original_title": "Neighbors 2: Sorority Rising", "genre_ids": [35], "backdrop_path": "/8HuO1RMDI3prfWDkF7t1y8EhLVO.jpg", "adult": false, "overview": "A sorority moves in next door to the home of Mac and Kelly Radner who have a young child. The Radner's enlist their former nemeses from the fraternity to help battle the raucous sisters.", "poster_path": "/bWUeJHbKIyT306WtJFRHoSzX9nk.jpg", "popularity": 17.21}, {"adult": false, "backdrop_path": "/txR74Uy6sYbUv4HQURQXNF8LXTf.jpg", "genre_ids": [35], "id": 8277, "original_language": "en", "original_title": "American Pie Presents: Beta House", "overview": "Erik, Ryan, and Cooze start college and pledge the Beta House fraternity, presided over by none other than legendary Dwight Stifler. But chaos ensues when a fraternity of geeks threatens to stop the debauchery and the Betas have to make a stand for their right to party.", "poster_path": "/xJeYprcFqBfov6dUpjJIxDeaZJr.jpg", "release_date": "2007-12-10", "title": "American Pie Presents: Beta House", "video": false, "vote_average": 5.5, "vote_count": 1087, "popularity": 16.688}, {"adult": false, "backdrop_path": "/1l77Gk2OK9hjRFze08El8Do3pT1.jpg", "genre_ids": [80, 9648, 53], "id": 996, "original_language": "en", "original_title": "Double Indemnity", "overview": "A rich woman and a calculating insurance agent plot to kill her unsuspecting husband after he signs a double indemnity policy.  Against a backdrop of distinctly Californian settings, the partners in crime plan the perfect murder to collect the insurance, which pays  double if the death is accidental.", "poster_path": "/nW0cCpfuGcR1JG7EinDbdL2Ijf2.jpg", "release_date": "1944-07-03", "title": "Double Indemnity", "video": false, "vote_average": 8.2, "vote_count": 858, "popularity": 14.326}, {"id": 1092, "video": false, "vote_count": 891, "vote_average": 8.0, "title": "The Third Man", "release_date": "1949-08-31", "original_language": "en", "original_title": "The Third Man", "genre_ids": [9648, 53], "backdrop_path": "/lrIuSWdC1LfKJZUnBX6axJxzZGe.jpg", "adult": false, "overview": "In postwar Vienna, Austria, Holly Martins, a writer of pulp Westerns, arrives penniless as a guest of his childhood chum Harry Lime, only to learn he has died. Martins develops a conspiracy theory after learning of a \"third man\" present at the time of Harry's death, running into interference from British officer Major Calloway, and falling head-over-heels for Harry's grief-stricken lover, Anna.", "poster_path": "/rO2Fq0AZZx9obs52KJdx4mRE8p5.jpg", "popularity": 14.387}, {"id": 9725, "video": false, "vote_count": 771, "vote_average": 6.0, "title": "Friday the 13th Part 2", "release_date": "1981-05-01", "original_language": "en", "original_title": "Friday the 13th Part 2", "genre_ids": [27, 53], "backdrop_path": "/wDmw9Nacka0oWj7hEIIEInP94Lx.jpg", "adult": false, "overview": "Five years after the horrible bloodbath at Camp Crystal Lake, it seems Jason Voorhees and his demented mother are in the past. Paul opens up a new camp close to the infamous site, ignoring warnings to stay away, and a sexually-charged group of counselors follow -- including child psychologist major Ginny. But Jason has been hiding out all this time, and now he's ready for revenge.", "poster_path": "/3c6uMXqFXO9G5RVdiPB76IK3FYM.jpg", "popularity": 14.489}, {"id": 440021, "video": false, "vote_count": 3799, "vote_average": 6.6, "title": "Happy Death Day", "release_date": "2017-10-12", "original_language": "en", "original_title": "Happy Death Day", "genre_ids": [27, 9648, 53], "backdrop_path": "/9bjHAkyi3aRRnfrIGhHPu7RATPR.jpg", "adult": false, "overview": "Caught in a bizarre and terrifying time warp, college student Tree finds herself repeatedly reliving the day of her murder, ultimately realizing that she must identify the killer and the reason for her death before her chances of survival run out.", "poster_path": "/cTaEIUYTt52ooq9quVbAQ7NpGwo.jpg", "popularity": 23.642}, {"adult": false, "backdrop_path": "/c7iSbhSffDkM2yf5cg3D91FuVga.jpg", "genre_ids": [9648, 10749, 53], "id": 426, "original_language": "en", "original_title": "Vertigo", "overview": "A retired San Francisco detective suffering from acrophobia investigates the strange activities of an old friend's wife, all the while becoming dangerously obsessed with her.", "poster_path": "/obhM86qyv8RsE69XSMTtT9FdE0b.jpg", "release_date": "1958-05-09", "title": "Vertigo", "video": false, "vote_average": 8.2, "vote_count": 2889, "popularity": 21.778}, {"id": 402, "video": false, "vote_count": 1776, "vote_average": 6.7, "title": "Basic Instinct", "release_date": "1992-03-20", "original_language": "en", "original_title": "Basic Instinct", "genre_ids": [9648, 53], "backdrop_path": "/bKdxJMqvr4wltzAQaieA6CTkaa9.jpg", "adult": false, "overview": "A police detective is in charge of the investigation of a brutal murder, in which a beautiful and seductive woman could be involved.", "poster_path": "/p1DHOfLFZmM567ePKfFNMV4mY92.jpg", "popularity": 23.513}, {"adult": false, "backdrop_path": "/3dWSyYEdcmvNjzwIPy4sPHjdJpw.jpg", "genre_ids": [878, 27, 28], "id": 9348, "original_language": "en", "original_title": "Species", "overview": "In 1993, the Search for Extra Terrestrial Intelligence Project receives a transmission detailing an alien DNA structure, along with instructions on how to splice it with human DNA. The result is Sil, a sensual but deadly creature who can change from a beautiful woman to an armour-plated killing machine in the blink of an eye.", "poster_path": "/94P6kzKH8aPmQmPr9yZjgy7BtQQ.jpg", "release_date": "1995-07-07", "title": "Species", "video": false, "vote_average": 5.7, "vote_count": 799, "popularity": 27.177}, {"id": 5559, "video": false, "vote_count": 2866, "vote_average": 5.9, "title": "Bee Movie", "release_date": "2007-10-28", "original_language": "en", "original_title": "Bee Movie", "genre_ids": [12, 16, 35, 10751], "backdrop_path": "/2lBpQZevIJdL4vPrZ7Nnm7mrVlm.jpg", "adult": false, "overview": "Barry B. Benson, a bee who has just graduated from college, is disillusioned at his lone career choice: making honey. On a special trip outside the hive, Barry's life is saved by Vanessa, a florist in New York City. As their relationship blossoms, he discovers humans actually eat honey, and subsequently decides to sue us.", "poster_path": "/QhbOzpYfBOwrRiuTu9otPk919R.jpg", "popularity": 25.39}, {"adult": false, "backdrop_path": "/ePqwTIoJeKJwShMABMst5duBcw9.jpg", "genre_ids": [35, 10402, 10749], "id": 114150, "original_language": "en", "original_title": "Pitch Perfect", "overview": "College student Beca knows she does not want to be part of a clique, but that's exactly where she finds herself after arriving at her new school. Thrust in among mean gals, nice gals and just plain weird gals, Beca finds that the only thing they have in common is how well they sing together. She takes the women of the group out of their comfort zone of traditional arrangements and into a world of amazing harmonic combinations in a fight to the top of college music competitions.", "poster_path": "/cLUMPdwCV0Dxd3P1ZkCXe7bVImI.jpg", "release_date": "2012-09-28", "title": "Pitch Perfect", "video": false, "vote_average": 7.3, "vote_count": 4622, "popularity": 16.878}, {"adult": false, "backdrop_path": "/anApKvoqZgMIdsVtadQvylcGrkf.jpg", "genre_ids": [35], "id": 195589, "original_language": "en", "original_title": "Neighbors", "overview": "A couple with a newborn baby face unexpected difficulties after they are forced to live next to a fraternity house.", "poster_path": "/bpj8myebvnTw5HDmzTSI8N6WFYr.jpg", "release_date": "2014-05-08", "title": "Neighbors", "video": false, "vote_average": 6.2, "vote_count": 4903, "popularity": 13.378}, {"id": 37247, "video": false, "vote_count": 1749, "vote_average": 7.7, "title": "The Graduate", "release_date": "1967-12-21", "original_language": "en", "original_title": "The Graduate", "genre_ids": [35, 18], "backdrop_path": "/sEWKMIlgUCCb2n5mT0Mf71DRKLR.jpg", "adult": false, "overview": "Benjamin, a recent college graduate very worried about his future, finds himself in a love triangle with an older woman and her daughter.", "poster_path": "/qtVvdSsm2hvau6ItLe4gWdFKe2M.jpg", "popularity": 15.847}, {"id": 8275, "video": false, "vote_count": 1172, "vote_average": 5.4, "title": "American Pie Presents: The Naked Mile", "release_date": "2006-12-07", "original_language": "en", "original_title": "American Pie Presents: The Naked Mile", "genre_ids": [35], "backdrop_path": "/pOGdj63Szvtyf1nYa5h8hZ1vDFm.jpg", "adult": false, "overview": "The movie will shift its focus on Erik Stifler, the cousin of Matt and Steve, a youngster who is nothing like his wild relations. Peer pressure starts to turn him to live up to the legacy of the other Stiflers when he attends the Naked Mile, a naked run across the college campus. Things get worse when he finds that his cousin Dwight is the life of the party down at the campus", "poster_path": "/uIqZ7Pt0xMAcQAXUc2nziZc4T47.jpg", "popularity": 21.299}, {"id": 10193, "video": false, "vote_count": 9507, "vote_average": 7.8, "title": "Toy Story 3", "release_date": "2010-06-16", "original_language": "en", "original_title": "Toy Story 3", "genre_ids": [16, 35, 10751], "backdrop_path": "/y2qAjM37QgatWeG84DDtwsZuMW.jpg", "adult": false, "overview": "Woody, Buzz, and the rest of Andy's toys haven't been played with in years. With Andy about to go to college, the gang find themselves accidentally left at a nefarious day care center. The toys must band together to escape and return home to Andy.", "poster_path": "/mMltbSxwEdNE4Cv8QYLpzkHWTDo.jpg", "popularity": 28.033}, {"id": 512196, "video": false, "vote_count": 1565, "vote_average": 6.2, "title": "Happy Death Day 2U", "release_date": "2019-02-13", "original_language": "en", "original_title": "Happy Death Day 2U", "genre_ids": [35, 27, 878], "backdrop_path": "/3KdQh3EsjXBSojVydtBQEh5TdAG.jpg", "adult": false, "overview": "Collegian Tree Gelbman wakes up in horror to learn that she's stuck in a parallel universe. Her boyfriend Carter is now with someone else, and her friends and fellow students seem to be completely different versions of themselves. When Tree discovers that Carter's roommate has been altering time, she finds herself once again the target of a masked killer. When the psychopath starts to go after her inner circle, Tree soon realizes that she must die over and over again to save everyone.", "poster_path": "/4tdnePOkOOzwuGPEOAHp8UA4vqx.jpg", "popularity": 23.857}, {"id": 535581, "video": false, "vote_count": 869, "vote_average": 5.4, "title": "The Dead Don't Die", "release_date": "2019-05-15", "original_language": "en", "original_title": "The Dead Don't Die", "genre_ids": [35, 14, 27], "backdrop_path": "/cXyfAViYly0Lk2CVpEKgYbt9wKQ.jpg", "adult": false, "overview": "In a small peaceful town, zombies suddenly rise to terrorize the town. Now three bespectacled police officers and a strange Scottish morgue expert must band together to defeat the undead.", "poster_path": "/ndvOjo7Nfk8ULnFLMXthPzhI62L.jpg", "popularity": 18.817}, {"id": 8065, "video": false, "vote_count": 2683, "vote_average": 6.6, "title": "21", "release_date": "2008-03-27", "original_language": "en", "original_title": "21", "genre_ids": [80, 18], "backdrop_path": "/3quapHSlorOsbkh0b6IgyCGIBni.jpg", "adult": false, "overview": "Ben Campbell is a young, highly intelligent, student at M.I.T. in Boston who strives to succeed. Wanting a scholarship to transfer to Harvard School of Medicine with the desire to become a doctor, Ben learns that he cannot afford the $300,000 for the four to five years of schooling as he comes from a poor, working-class background. But one evening, Ben is introduced by his unorthodox math professor Micky Rosa into a small but secretive club of five. Students Jill, Choi, Kianna, and Fisher, who are being trained by Professor Rosa of the skill of card counting at blackjack.", "poster_path": "/4zKAgycQDJD2zIkmPYV3aMR8tEy.jpg", "popularity": 17.687}, {"id": 289, "video": false, "vote_count": 2866, "vote_average": 8.1, "title": "Casablanca", "release_date": "1942-01-23", "original_language": "en", "original_title": "Casablanca", "genre_ids": [18, 10749], "backdrop_path": "/5tE7iKSpBrc4z6LqF5kHutMm6KQ.jpg", "adult": false, "overview": "In Casablanca, Morocco in December 1941, a cynical American expatriate meets a former lover, with unforeseen complications.", "poster_path": "/wOBKAoUJZb5qTsWv5XXvVV2vUzz.jpg", "popularity": 21.116}, {"adult": false, "backdrop_path": "/yEqrCU3hAvoiwC0y4CuJq3v4KoG.jpg", "genre_ids": [27, 53], "id": 368031, "original_language": "en", "original_title": "Unfriend", "overview": "Enjoying college life as a popular student, Laura shares everything with her more  than 800 friends on Facebook. But one day, after accepting a friend request from a  social outcast named Marina, Laura\u2019s life is cursed...", "poster_path": "/8sc2FXCczMd4lb8j5YiT0S6aQiO.jpg", "release_date": "2016-01-07", "title": "Friend Request", "video": false, "vote_average": 5.5, "vote_count": 861, "popularity": 13.469}], "total_pages": 86, "total_results": 1713}, "recommendations": {"page": 1, "results": [], "total_pages": 1, "total_results": 0}, "credits": {"cast": [{"cast_id": 1, "character": "Flora Finlake", "credit_id": "530efe35c3a368749100088e", "gender": 1, "id": 15200, "name": "Jane Birkin", "order": 1, "profile_path": "/snSO3HmSdV38MVCfkVLOuXsh0C8.jpg"}, {"cast_id": 2, "character": "Valerio Montelli", "credit_id": "530efe4ec3a368744e000885", "gender": 2, "id": 44972, "name": "Alessio Orano", "order": 2, "profile_path": "/i1T0K9dJ2JLaDPI0wtiVTh8VrWz.jpg"}, {"cast_id": 9, "character": "Roderick Rodney Stanton", "credit_id": "5345c66b0e0a265ff500025c", "gender": 2, "id": 26700, "name": "John Steiner", "order": 3, "profile_path": "/9F6hrAh4EBD05CQSPRvFMEYIZPb.jpg"}, {"cast_id": 10, "character": "Mrs. Finley", "credit_id": "5345c67d0e0a265ffa00027d", "gender": 1, "id": 5684, "name": "Rossella Falk", "order": 4, "profile_path": "/acyIHzPCYELbC9coAXYzgsoNRYN.jpg"}, {"cast_id": 14, "character": "Amanda", "credit_id": "5345c69e0e0a265fe90002bf", "gender": 1, "id": 123967, "name": "Micaela Pignatelli", "order": 8, "profile_path": "/knL0ohn3fth09n4TR2khYUHYmMT.jpg"}, {"cast_id": 15, "character": "", "credit_id": "5345c6be0e0a265ff5000272", "gender": 0, "id": 1129974, "name": "Edda Di Benedetto", "order": 9, "profile_path": null}, {"cast_id": 17, "character": "Professor Finlake", "credit_id": "5838967d9251414236002285", "gender": 2, "id": 1048179, "name": "Ian Sinclair", "order": 10, "profile_path": "/wbNpapBSignaU4NNgDGRvIxhA0P.jpg"}, {"cast_id": 18, "character": "", "credit_id": "58389689c3a368493800261c", "gender": 0, "id": 1714060, "name": "Bianca Maria Corbella", "order": 11, "profile_path": null}, {"cast_id": 19, "character": "", "credit_id": "58389693925141423600228c", "gender": 0, "id": 1140027, "name": "Carlo Spadoni", "order": 12, "profile_path": null}, {"cast_id": 20, "character": "", "credit_id": "5838969a925141424900246f", "gender": 0, "id": 140138, "name": "John Gayford", "order": 13, "profile_path": null}, {"cast_id": 21, "character": "", "credit_id": "583896b3925141424200233f", "gender": 1, "id": 1470687, "name": "Susan Jones", "order": 14, "profile_path": null}, {"cast_id": 22, "character": "", "credit_id": "583896c5c3a368493c002330", "gender": 0, "id": 1714062, "name": "Ben Etoria", "order": 15, "profile_path": null}], "crew": [{"credit_id": "530efe1cc3a36874ca0007e4", "department": "Directing", "gender": 2, "id": 31982, "job": "Director", "name": "Ugo Liberatore", "profile_path": null}, {"credit_id": "5345c61e0e0a265ffa000270", "department": "Writing", "gender": 0, "id": 1308453, "job": "Story", "name": "George Crowther", "profile_path": null}, {"credit_id": "5345c6340e0a265fe90002a7", "department": "Production", "gender": 0, "id": 1308454, "job": "Producer", "name": "Giancarlo Marchetti", "profile_path": null}, {"credit_id": "5345c6420e0a265fe90002ac", "department": "Sound", "gender": 0, "id": 1308455, "job": "Music", "name": "Alan Blakley", "profile_path": null}, {"credit_id": "5345c64e0e0a265ff800026c", "department": "Sound", "gender": 0, "id": 1308456, "job": "Music", "name": "Len Hawkes", "profile_path": null}, {"credit_id": "5345c65c0e0a265ff8000270", "department": "Sound", "gender": 2, "id": 30634, "job": "Music", "name": "Armando Trovaioli", "profile_path": "/b4lJkDOR1K63eireNVixZh3rUY4.jpg"}, {"credit_id": "53f3bcffc3a368230c0003cb", "department": "Writing", "gender": 2, "id": 31982, "job": "Story", "name": "Ugo Liberatore", "profile_path": null}, {"credit_id": "583896df9251414242002363", "department": "Camera", "gender": 0, "id": 22471, "job": "Director of Photography", "name": "Angelo Lotti", "profile_path": null}, {"credit_id": "583896ec92514142360022ba", "department": "Editing", "gender": 0, "id": 52258, "job": "Editor", "name": "Franco Fraticelli", "profile_path": null}, {"credit_id": "583896f79251414233002332", "department": "Art", "gender": 0, "id": 1714063, "job": "Production Design", "name": "Giordano Scolari", "profile_path": null}, {"credit_id": "58389702c3a36849400021ab", "department": "Costume & Make-Up", "gender": 0, "id": 1081036, "job": "Costume Design", "name": "Rosanna Andreoni", "profile_path": null}, {"credit_id": "583897149251414239002345", "department": "Directing", "gender": 0, "id": 1714064, "job": "Script Supervisor", "name": "Maria Teresa Carli", "profile_path": null}]}}