{"adult": false, "backdrop_path": "/vtpXhAw4pctZ0F6GJ3FUE9wAGPP.jpg", "belongs_to_collection": null, "budget": 0, "genres": [{"id": 18, "name": "Drama"}], "homepage": null, "id": 257623, "imdb_id": "tt0135534", "original_language": "el", "original_title": "\u039c\u03b1\u03b3\u03b9\u03ba\u03ae \u03a0\u03cc\u03bb\u03b7", "overview": "A look at poverty in post-war Athens. Kosmas, a young man living in the slums, constantly tries to make ends meet, hoping for a better day. Because of debts, he gets tangled up in smuggling. His morals are tested and he tries to find a way out.", "popularity": 0.78, "poster_path": "/lpKgQttzr1mtWgLZ3TBjOunXFit.jpg", "production_companies": [{"id": 93665, "logo_path": null, "name": "Despoina Skalotheou & Sia", "origin_country": ""}, {"id": 22154, "logo_path": null, "name": "Athens Film Company", "origin_country": ""}], "production_countries": [{"iso_3166_1": "GR", "name": "Greece"}], "release_date": "1954-08-31", "revenue": 0, "runtime": 80, "spoken_languages": [{"iso_639_1": "el", "name": "\u03b5\u03bb\u03bb\u03b7\u03bd\u03b9\u03ba\u03ac"}], "status": "Released", "tagline": "", "title": "The Magic City", "video": false, "vote_average": 7.2, "vote_count": 5, "keywords": {"keywords": [{"id": 8011, "name": "greek"}, {"id": 14828, "name": "city"}]}, "similar": {"page": 1, "results": [{"adult": false, "backdrop_path": "/8FfD5WXHrJLx0r4expl9IIBMsOW.jpg", "genre_ids": [18, 9648], "id": 280960, "original_language": "pt", "original_title": "Catarina e os Outros", "overview": "Outside, the first sun rays break the dawn.  Sixteen years old Catarina can't fall asleep.  Inconsequently, in the big city adults are moved by desire...  Catarina found she is HIV positive. She wants to drag everyone else along.", "poster_path": "/swSEhrje6NDIqtxAqjBziCkXWU8.jpg", "release_date": "2011-03-01", "title": "Catarina and the others", "video": false, "vote_average": 4.5, "vote_count": 70, "popularity": 11.145}, {"id": 8346, "video": false, "vote_count": 1269, "vote_average": 6.4, "title": "My Big Fat Greek Wedding", "release_date": "2002-02-22", "original_language": "en", "original_title": "My Big Fat Greek Wedding", "genre_ids": [35, 18, 10749], "backdrop_path": "/miFwBsaWZER118kg0AAuHcy1YOa.jpg", "adult": false, "overview": "A young Greek woman falls in love with a non-Greek and struggles to get her family to accept him while she comes to terms with her heritage and cultural identity.", "poster_path": "/vqGs8K6MdMHVPMTgMhzKHBVgu0t.jpg", "popularity": 17.695}, {"id": 122906, "video": false, "vote_count": 4560, "vote_average": 7.9, "title": "About Time", "release_date": "2013-08-16", "original_language": "en", "original_title": "About Time", "genre_ids": [35, 18, 14, 10749], "backdrop_path": "/oNBv90rLY76ifEExrFHdJgLzBQG.jpg", "adult": false, "overview": "The night after another unsatisfactory New Year party, Tim's father tells his son that the men in his family have always had the ability to travel through time. Tim can't change history, but he can change what happens and has happened in his own life \u2013 so he decides to make his world a better place... by getting a girlfriend. Sadly, that turns out not to be as easy as he thinks.", "poster_path": "/zSuh8dGwqpsWR7ccvYbfxbSZ37o.jpg", "popularity": 20.125}, {"adult": false, "backdrop_path": "/jdmVcIV1k1oqMTEoZrfIfJKa5sM.jpg", "genre_ids": [18], "id": 8649, "original_language": "en", "original_title": "Bringing Out the Dead", "overview": "48 hours in the life of a burnt-out paramedic. Once called Father Frank for his efforts to rescue lives, Frank sees the ghosts of those he failed to save around every turn. He has tried everything he can to get fired, calling in sick, delaying taking calls where he might have to face one more victim he couldn't help, yet cannot quit the job on his own.", "poster_path": "/fDmGEPedGnTgSvAtocZyLGYi8fq.jpg", "release_date": "1999-10-22", "title": "Bringing Out the Dead", "video": false, "vote_average": 6.7, "vote_count": 474, "popularity": 9.709}, {"adult": false, "backdrop_path": "/pCGZ8707SsPvbgaqy78eahOX4e0.jpg", "genre_ids": [35, 80, 10749, 18], "id": 10433, "original_language": "en", "original_title": "Mad Dog and Glory", "overview": "Wayne Dobie is a shy cop whose low-key demeanor has earned him the affectionate nickname \"Mad Dog.\" After Mad Dog saves the life of Frank Milo, a crime boss and aspiring stand-up comedian, he's offered the company of an attractive young waitress named Glory for a week. At first both are uneasy about the arrangement, but they eventually fall in love. However, the situation becomes complicated when Milo demands Glory back.", "poster_path": "/xZlVITyuTxI3Olu9h64xYPdpZyP.jpg", "release_date": "1993-03-05", "title": "Mad Dog and Glory", "video": false, "vote_average": 5.8, "vote_count": 155, "popularity": 9.123}, {"adult": false, "backdrop_path": "/m0Bnz5crKnP0EWM5WvNUE3nnI2z.jpg", "genre_ids": [28, 80, 18], "id": 6935, "original_language": "en", "original_title": "Yamakasi - Les samoura\u00efs des temps modernes", "overview": "Yamakasi - Les samoura\u00efs des temps modernes is a 2001 French movie written by Luc Besson. It demonstrates the skills of the Yamakasi, a group of traceurs who battle against injustice in the Paris ghetto. They use parkour to steal from the rich in order to pay off medical bills for a kid injured copying their techniques.", "poster_path": "/vFOYe0lThvjeKMn69DaVZDeaFSF.jpg", "release_date": "2001-04-04", "title": "Yamakasi", "video": false, "vote_average": 5.9, "vote_count": 306, "popularity": 9.918}, {"adult": false, "backdrop_path": "/tHuWYBNfsVOc99PBmQtEBryG2Hd.jpg", "genre_ids": [35, 10751, 878, 18], "id": 11966, "original_language": "en", "original_title": "Short Circuit 2", "overview": "Robot Johnny Five comes to the city and gets manipulated by criminals who want him for their own purposes.", "poster_path": "/18yjQQMK6mtB3L3os1kmT7MwXdf.jpg", "release_date": "1988-07-06", "title": "Short Circuit 2", "video": false, "vote_average": 5.9, "vote_count": 303, "popularity": 12.097}, {"id": 485811, "video": false, "vote_count": 52, "vote_average": 4.4, "title": "Redcon-1", "release_date": "2018-09-07", "original_language": "en", "original_title": "Redcon-1", "genre_ids": [28, 27], "backdrop_path": "/palbhPOSYf2g1p18vWd91dDhZLM.jpg", "adult": false, "overview": "After a zombie apocalypse spreads from a London prison, the UK is brought to its knees. The spread of the virus is temporarily contained but, without a cure, it\u2019s only a matter of time before it breaks its boundaries and the biggest problem of all\u2026 any zombies with combat skills are now enhanced. With the South East of England quarantined from the rest of the world using fortified borders, intelligence finds that the scientist responsible for the outbreak is alive and well in London. With his recovery being the only hope of a cure, a squad of eight Special Forces soldiers is sent on a suicide mission to the city, now ruled by the undead, with a single task: get him out alive within 72 hours by any means necessary. What emerges is an unlikely pairing on a course to save humanity against ever-rising odds.", "poster_path": "/vVPrWngVJ2cfYAncBedQty69Dlf.jpg", "popularity": 10.184}, {"adult": false, "backdrop_path": "/bvbyidkMaBls1LTaIWYY6UmYTaL.jpg", "genre_ids": [28, 878], "id": 336843, "original_language": "en", "original_title": "Maze Runner: The Death Cure", "overview": "Thomas leads his group of escaped Gladers on their final and most dangerous mission yet. To save their friends, they must break into the legendary Last City, a WCKD-controlled labyrinth that may turn out to be the deadliest maze of all. Anyone who makes it out alive will get answers to the questions the Gladers have been asking since they first arrived in the maze.", "poster_path": "/2zYfzA3TBwrMC8tfFbpiTLODde0.jpg", "release_date": "2018-01-10", "title": "Maze Runner: The Death Cure", "video": false, "vote_average": 7.0, "vote_count": 4396, "popularity": 25.259}, {"id": 13486, "video": false, "vote_count": 327, "vote_average": 4.3, "title": "The Scorpion King 2: Rise of a Warrior", "release_date": "2008-07-19", "original_language": "en", "original_title": "The Scorpion King 2: Rise of a Warrior", "genre_ids": [28, 12, 14, 878], "backdrop_path": "/3K2e6Rn4B00T6VV3tl8BaQYJ3q0.jpg", "adult": false, "overview": "The heroic tale of young Mathayus and his relentless quest for justice against an evil and powerful villain, King Sargon. Mathayus faces heart-stopping tribulations during his adventurous, odds-defying trajectory toward his ultimate destiny: becoming the formidable warrior king of an ancient desert empire.", "poster_path": "/quqsgaoLSct4DzsKb6I7S5wmapw.jpg", "popularity": 14.356}, {"id": 46195, "video": false, "vote_count": 4081, "vote_average": 6.6, "title": "Rio", "release_date": "2011-04-03", "original_language": "en", "original_title": "Rio", "genre_ids": [12, 16, 35, 10751], "backdrop_path": "/odbEuhGUgSkeWWD1sPoylXTZMUa.jpg", "adult": false, "overview": "Captured by smugglers when he was just a hatchling, a macaw named Blu never learned to fly and lives a happily domesticated life in Minnesota with his human friend, Linda. Blu is thought to be the last of his kind, but when word comes that Jewel, a lone female, lives in Rio de Janeiro, Blu and Linda go to meet her. Animal smugglers kidnap Blu and Jewel, but the pair soon escape and begin a perilous adventure back to freedom -- and Linda.", "poster_path": "/isQ9BSjdF8IrSm2g4WPHSJYN5s9.jpg", "popularity": 23.49}, {"adult": false, "backdrop_path": "/qjm30F9hwJ6BNbsb7iOrrKwkY3n.jpg", "genre_ids": [35, 18, 10749], "id": 696, "original_language": "en", "original_title": "Manhattan", "overview": "Manhattan explores how the life of a middle-aged television writer dating a teenage girl is further complicated when he falls in love with his best friend's mistress.", "poster_path": "/k4eT3EvfxW1L9Wmt04UqJqCvCR6.jpg", "release_date": "1979-04-25", "title": "Manhattan", "video": false, "vote_average": 7.9, "vote_count": 1320, "popularity": 17.292}, {"id": 15916, "video": false, "vote_count": 145, "vote_average": 7.9, "title": "Angel's Egg", "release_date": "1985-12-22", "original_language": "ja", "original_title": "\u5929\u4f7f\u306e\u305f\u307e\u3054", "genre_ids": [16, 18, 14, 27, 9648, 878], "backdrop_path": "/lDdZcFq33DVTS2tsf7v2XqEbnwG.jpg", "adult": false, "overview": "A mysterious young girl wanders a desolate, otherworldly landscape, carrying a large egg.", "poster_path": "/dRUB7sDcedqatDfyuRqyQulmW97.jpg", "popularity": 8.374}, {"id": 10604, "video": false, "vote_count": 142, "vote_average": 7.4, "title": "Zorba the Greek", "release_date": "1964-12-14", "original_language": "el", "original_title": "\u0391\u03bb\u03ad\u03be\u03b7\u03c2 \u0396\u03bf\u03c1\u03bc\u03c0\u03ac\u03c2", "genre_ids": [12, 18], "backdrop_path": "/vNzUbvQtGxRUY1tUaJjdu0Cpy3E.jpg", "adult": false, "overview": "An uptight English writer traveling to Crete on a matter of business finds his life changed forever when he meets the gregarious Alexis Zorba.", "poster_path": "/jAYOY38TRDprIgu7vgES0FFJJSl.jpg", "popularity": 10.402}, {"id": 132344, "video": false, "vote_count": 1205, "vote_average": 7.5, "title": "Before Midnight", "release_date": "2013-04-05", "original_language": "en", "original_title": "Before Midnight", "genre_ids": [18, 10749], "backdrop_path": "/6dRor6UgPVDUKTaxh0fsYCTP5VQ.jpg", "adult": false, "overview": "We meet Jesse and Celine nine years on in Greece. Almost two decades have passed since their first meeting on that train bound for Vienna.", "poster_path": "/uDdobcCBfPObD2pqDSTjXxELt3c.jpg", "popularity": 14.193}, {"id": 631, "video": false, "vote_count": 368, "vote_average": 8.0, "title": "Sunrise: A Song of Two Humans", "release_date": "1927-11-04", "original_language": "en", "original_title": "Sunrise: A Song of Two Humans", "genre_ids": [18, 10749], "backdrop_path": "/jAhfMoV8TCIHuTiGz49nA04v6bp.jpg", "adult": false, "overview": "A married farmer falls under the spell of a slatternly woman from the city, who tries to convince him to drown his wife.", "poster_path": "/tyxjxpwr9NiVtSeITtVXuhp84Zl.jpg", "popularity": 11.674}, {"id": 339, "video": false, "vote_count": 395, "vote_average": 7.6, "title": "Night on Earth", "release_date": "1991-12-12", "original_language": "en", "original_title": "Night on Earth", "genre_ids": [35, 18], "backdrop_path": "/hLMx2lfGDrjHTPadn5vAfZjwIar.jpg", "adult": false, "overview": "An anthology of 5 different cab drivers in 5 American and European cities and their remarkable fares on the same eventful night.", "poster_path": "/aREHjLD3kwQFcL1ncNOx8ggDGxA.jpg", "popularity": 12.829}, {"adult": false, "backdrop_path": "/61M78jSCrNrb2cAE583ZL5AzQ0V.jpg", "genre_ids": [12, 35], "id": 9671, "original_language": "en", "original_title": "Crocodile Dundee", "overview": "When a New York reporter plucks crocodile hunter Dundee from the Australian Outback for a visit to the Big Apple, it's a clash of cultures and a recipe for good-natured comedy as na\u00efve Dundee negotiates the concrete jungle. Dundee proves that his instincts are quite useful in the city and adeptly handles everything from wily muggers to high-society snoots without breaking a sweat.", "poster_path": "/uQyFHP0BBQcOVAbfpmiTnj5rKDm.jpg", "release_date": "1986-09-26", "title": "Crocodile Dundee", "video": false, "vote_average": 6.3, "vote_count": 1037, "popularity": 14.421}, {"adult": false, "backdrop_path": "/jdGHRopcOEPDRQVfvuIv4BkxUgw.jpg", "genre_ids": [10751, 16, 35, 12], "id": 263109, "original_language": "en", "original_title": "Shaun the Sheep Movie", "overview": "When Shaun decides to take the day off and have some fun, he gets a little more action than he bargained for. A mix up with the Farmer, a caravan and a very steep hill lead them all to the Big City and it's up to Shaun and the flock to return everyone safely to the green grass of home.", "poster_path": "/aOHsNN1p2nuiF9WaMaCNXy0T80J.jpg", "release_date": "2015-02-05", "title": "Shaun the Sheep Movie", "video": false, "vote_average": 6.9, "vote_count": 792, "popularity": 14.405}, {"id": 362185, "video": false, "vote_count": 54, "vote_average": 5.2, "title": "Operator", "release_date": "2015-08-21", "original_language": "en", "original_title": "Operator", "genre_ids": [28, 18, 53], "backdrop_path": "/4ylskDQhylV5Blg2FgmmZHcPYVx.jpg", "adult": false, "overview": "When the daughter of veteran 911 call center operator Pamela, and her estranged husband Jeremy, a Senior Police Officer, is kidnapped and held hostage, they are left desperate, with no choice but to follow the kidnapper's rules: send messages through dispatch for all police and fire units to scatter to remote locations throughout the city where they are met with chaos. Not knowing who or why, the one thing they do know is if they fail to discreetly collaborate with one another - they will be solely responsible for facilitating the biggest crime in the city's history. Now they must race against the clock to make the choice of their lives - save the city - or save their daughter.", "poster_path": "/3IPhLHyluVuMhojWTaVUmJVysqE.jpg", "popularity": 7.041}], "total_pages": 9, "total_results": 172}, "recommendations": {"page": 1, "results": [], "total_pages": 1, "total_results": 0}, "credits": {"cast": [{"cast_id": 17, "character": "Kosmas Betsos", "credit_id": "59b2626ac3a3681fcc043c73", "gender": 2, "id": 65897, "name": "George Foundas", "order": 0, "profile_path": "/jPhjo1UhhfRDJZCFPKA6PT4MGIA.jpg"}, {"cast_id": 5, "character": "Maria", "credit_id": "59923fba9251417c380016e9", "gender": 1, "id": 1031163, "name": "Margarita Papageorgiou", "order": 1, "profile_path": "/7SdDNiz438o2BkpNSm278YHoS5f.jpg"}, {"cast_id": 6, "character": "", "credit_id": "59923fc5c3a368412d001841", "gender": 2, "id": 1016207, "name": "Stephanos Stratigos", "order": 2, "profile_path": "/7EnvtexdCw7525lLEU0NKi5hKPZ.jpg"}, {"cast_id": 3, "character": "observer - narrator", "credit_id": "544d5b570e0a2608cd002b83", "gender": 2, "id": 932886, "name": "Manos Katrakis", "order": 3, "profile_path": "/gYzAIlsEVYRd1XblDR6rnKl1CmJ.jpg"}, {"cast_id": 2, "character": "Thanasis", "credit_id": "544d5b45c3a36872cc0027c0", "gender": 2, "id": 1031166, "name": "Thanasis Vengos", "order": 4, "profile_path": "/7tyQOni08ZUt3RhLL9l8ZrLAprq.jpg"}, {"cast_id": 14, "character": "", "credit_id": "599240159251417bf60016e1", "gender": 2, "id": 1260072, "name": "Mimis Fotopoulos", "order": 5, "profile_path": "/6nwfvwA37c5KlYcLg1UiW2wMvdb.jpg"}, {"cast_id": 9, "character": "Argiris", "credit_id": "59923fe79251417c110016ce", "gender": 2, "id": 1031172, "name": "Andreas Douzos", "order": 6, "profile_path": "/yhIgxNflOBVeFLtHDbqnBoTXhoE.jpg"}, {"cast_id": 7, "character": "", "credit_id": "59923fcc9251417c2600176d", "gender": 1, "id": 1869839, "name": "Eva Brika", "order": 7, "profile_path": null}, {"cast_id": 10, "character": "", "credit_id": "59923fec9251417be300173b", "gender": 1, "id": 1869842, "name": "Eftyhia Pavlogianni", "order": 9, "profile_path": null}, {"cast_id": 11, "character": "", "credit_id": "59923ff4c3a36840d40015f0", "gender": 2, "id": 1869843, "name": "Tassos Katrapas", "order": 10, "profile_path": "/7vetT2QLVDdqz1qzcnSORu2Qrfd.jpg"}, {"cast_id": 12, "character": "", "credit_id": "59923ffc9251417be70017e7", "gender": 2, "id": 1869844, "name": "Fanis Kabanis", "order": 11, "profile_path": null}, {"cast_id": 23, "character": "", "credit_id": "5b50a6a70e0a26413201071a", "gender": 2, "id": 1031167, "name": "Anestis Vlahos", "order": 13, "profile_path": "/o0RaqVPUx1wsuVzcwXYeSAH4ARs.jpg"}, {"cast_id": 24, "character": "", "credit_id": "5b50a6b09251413be3010150", "gender": 2, "id": 1284987, "name": "Nikos Tsachiridis", "order": 14, "profile_path": "/8fpm8qiQaBVlQeEPu9703GhFBs9.jpg"}], "crew": [{"credit_id": "5313d918c3a36829c40048c6", "department": "Directing", "gender": 2, "id": 590896, "job": "Director", "name": "Nikos Koundouros", "profile_path": "/nAsX4dZ9nrGaPeiex6HDlaI3ThK.jpg"}, {"credit_id": "59923f85c3a36840f2001571", "department": "Writing", "gender": 0, "id": 1400184, "job": "Writer", "name": "Margarita Lymberaki", "profile_path": null}, {"credit_id": "5b50a3f0c3a3682858011df4", "department": "Crew", "gender": 0, "id": 1312748, "job": "Cinematography", "name": "Kostas Theodoridis", "profile_path": null}, {"credit_id": "5b50a3fd0e0a26412d010b7e", "department": "Sound", "gender": 2, "id": 17558, "job": "Music", "name": "Manos Hatzidakis", "profile_path": "/EMYAHxVI7IWn43KZmLfeol7Lwa.jpg"}, {"credit_id": "5b50a40a9251413bda00fbf9", "department": "Editing", "gender": 0, "id": 1031160, "job": "Editor", "name": "Giorgos Tsaoulis", "profile_path": null}, {"credit_id": "5b50a4190e0a26413601104a", "department": "Production", "gender": 2, "id": 590896, "job": "Producer", "name": "Nikos Koundouros", "profile_path": "/nAsX4dZ9nrGaPeiex6HDlaI3ThK.jpg"}, {"credit_id": "5b50a4350e0a26412701163e", "department": "Directing", "gender": 2, "id": 1119959, "job": "Assistant Director", "name": "Vasilis Georgiadis", "profile_path": "/7hDr8LDlfgwBBZtlqD5uLsWGIBq.jpg"}]}}