{"adult": false, "backdrop_path": "/1p8vNgmklcDMxwZzevKB7qmCgWT.jpg", "belongs_to_collection": null, "budget": 0, "genres": [{"id": 18, "name": "Drama"}], "homepage": null, "id": 25773, "imdb_id": "tt0082175", "original_language": "en", "original_title": "The Chosen", "overview": "The Chosen follows the story of two teenage boys determined to remain friends despite the deep differences between their two families. Set in New York during the 1940s, this provocative film follows the son of an orthodox rabbi and the son of a secular father, raised to question everything around him, including his religion. A moving coming of age story.", "popularity": 5.828, "poster_path": "/xP0dvNzcL8krJkY2EAeE0rl88k.jpg", "production_companies": [{"id": 31465, "logo_path": null, "name": "Chosen Film Company", "origin_country": ""}], "production_countries": [{"iso_3166_1": "US", "name": "United States of America"}], "release_date": "1981-08-20", "revenue": 0, "runtime": 105, "spoken_languages": [{"iso_639_1": "en", "name": "English"}], "status": "Released", "tagline": "", "title": "The Chosen", "video": false, "vote_average": 7.2, "vote_count": 8, "keywords": {"keywords": [{"id": 6054, "name": "friendship"}]}, "similar": {"page": 1, "results": [{"id": 449176, "video": false, "vote_count": 3690, "vote_average": 8.1, "title": "Love, Simon", "release_date": "2018-02-16", "original_language": "en", "original_title": "Love, Simon", "genre_ids": [35, 18, 10749], "backdrop_path": "/rqMEeajyzSF4PpJtdCB816Iz8Vr.jpg", "adult": false, "overview": "Everyone deserves a great love story. But for seventeen-year old Simon Spier it's a little more complicated: he's yet to tell his family or friends he's gay and he doesn't know the identity of the anonymous classmate he's fallen for online.", "poster_path": "/5YUYg5q7QfC4IoNwNUtiwdiYKPr.jpg", "popularity": 24.849}, {"id": 61979, "video": false, "vote_count": 1061, "vote_average": 7.4, "title": "Three Steps Above Heaven", "release_date": "2010-12-03", "original_language": "es", "original_title": "Tres metros sobre el cielo", "genre_ids": [18, 10749], "backdrop_path": "/tBIUBCP6x5rOSyvytX2oVSp1gQ9.jpg", "adult": false, "overview": "Story of two young people who belong to different worlds. It is the chronicle of a love improbable, almost impossible but inevitable dragging in a frantic journey they discover the first great love. Babi (Maria Valverde) is a girl from upper-middle class that is educated in goodness and innocence . Hache (Mario Casas) is a rebellious boy, impulsive, unconscious, has a appetite for risk and danger embodied in endless fights and illegal motorbike races, the limit of common sense", "poster_path": "/57D3h8wb3LMURTyG0dv2VtHfvCM.jpg", "popularity": 22.361}, {"adult": false, "backdrop_path": "/7B3I7S9a4bLonbYw6XVcoDzW8RT.jpg", "genre_ids": [18, 10749], "id": 109689, "original_language": "es", "original_title": "Tengo ganas de ti", "overview": "Sequel to \"Three Steps Above Heaven\". The sexy Gin is the new love of Hache, but this can not forget his former girlfriend, so the love triangle is inevitable.", "poster_path": "/z13I3sWzOoKBDAEpJ7iK9bSznQn.jpg", "release_date": "2012-06-22", "title": "I Want You", "video": false, "vote_average": 6.7, "vote_count": 692, "popularity": 15.177}, {"adult": false, "backdrop_path": "/2oG0ggdMliMDjenw00eSwZFypUp.jpg", "genre_ids": [35, 18], "id": 376660, "original_language": "en", "original_title": "The Edge of Seventeen", "overview": "Two high school girls are best friends until one dates the other's older brother, who is totally his sister's nemesis.", "poster_path": "/gxK80WUwkQePpXpzRdpob0i7DD5.jpg", "release_date": "2016-11-18", "title": "The Edge of Seventeen", "video": false, "vote_average": 7.2, "vote_count": 2515, "popularity": 12.687}, {"adult": false, "backdrop_path": "/w2KDvs7D0E6yDGESrAeJ0tzimSA.jpg", "genre_ids": [35, 18], "id": 44564, "original_language": "en", "original_title": "The Dilemma", "overview": "Longtime friends Ronny and Nick are partners in an auto-design firm. They are hard at work on a presentation for a dream project that would really launch their company. Then Ronny spots Nick's wife out with another man, and in the process of investigating the possible affair, he learns that Nick has a few secrets of his own. As the presentation nears, Ronny agonizes over what might happen if the truth gets out.", "poster_path": "/wMwKQBOrlz3KN3QLIFj65hyJw9B.jpg", "release_date": "2011-01-13", "title": "The Dilemma", "video": false, "vote_average": 5.4, "vote_count": 540, "popularity": 12.409}, {"id": 77338, "video": false, "vote_count": 10876, "vote_average": 8.2, "title": "The Intouchables", "release_date": "2011-11-02", "original_language": "fr", "original_title": "Intouchables", "genre_ids": [35, 18], "backdrop_path": "/ihWaJZCUIon2dXcosjQG2JHJAPN.jpg", "adult": false, "overview": "A true story of two men who should never have met \u2013 a quadriplegic aristocrat who was injured in a paragliding accident and a young man from the projects.", "poster_path": "/4mFsNQwbD0F237Tx7gAPotd0nbJ.jpg", "popularity": 23.919}, {"id": 68718, "video": false, "vote_count": 17247, "vote_average": 8.1, "title": "Django Unchained", "release_date": "2012-12-25", "original_language": "en", "original_title": "Django Unchained", "genre_ids": [18, 37], "backdrop_path": "/qUcmEqnzIwlwZxSyTf3WliSfAjJ.jpg", "adult": false, "overview": "With the help of a German bounty hunter, a freed slave sets out to rescue his wife from a brutal Mississippi plantation owner.", "poster_path": "/eCt596Z4zkqxW5AHz1HEhGm1eif.jpg", "popularity": 47.791}, {"adult": false, "backdrop_path": "/k8H7ye6Sab7OrDJoo8Qp5WFGHGk.jpg", "genre_ids": [35, 10749, 18], "id": 244264, "original_language": "en", "original_title": "Laggies", "overview": "Overeducated and underemployed, 28 year old Megan is in the throes of a quarterlife crisis. Squarely into adulthood with no career prospects, no particular motivation to think about her future and no one to relate to, Megan is comfortable lagging a few steps behind - while her friends check off milestones and celebrate their new grown-up status. When her high-school sweetheart proposes, Megan panics and- given an unexpected opportunity to escape for a week - hides out in the home of her new friend, 16-year old Annika and Annika's world-weary single dad Craig.", "poster_path": "/dNcoXoRC7JHiqbe7k5Ufo6syiPP.jpg", "release_date": "2014-09-25", "title": "Laggies", "video": false, "vote_average": 6.1, "vote_count": 787, "popularity": 9.883}, {"id": 19913, "video": false, "vote_count": 6205, "vote_average": 7.2, "title": "(500) Days of Summer", "release_date": "2009-07-17", "original_language": "en", "original_title": "(500) Days of Summer", "genre_ids": [35, 18, 10749], "backdrop_path": "/yYw9cVdRJ4zzwxM2cTDXfT6JI6E.jpg", "adult": false, "overview": "Tom, greeting-card writer and hopeless romantic, is caught completely off-guard when his girlfriend, Summer, suddenly dumps him. He reflects on their 500 days together to try to figure out where their love affair went sour, and in doing so, Tom rediscovers his true passions in life.", "poster_path": "/5SjtNPD1bb182vzQccvEUpXHFjN.jpg", "popularity": 20.229}, {"id": 40807, "video": false, "vote_count": 2336, "vote_average": 7.1, "title": "50/50", "release_date": "2011-09-30", "original_language": "en", "original_title": "50/50", "genre_ids": [35, 18], "backdrop_path": "/kGac26bIqfwm8eqbP1RjKP70brE.jpg", "adult": false, "overview": "Inspired by a true story, a comedy centered on a 27-year-old guy who learns of his cancer diagnosis, and his subsequent struggle to beat the disease.", "poster_path": "/uDKmnFHqE3rQ9r6ErQsOZWuzXN8.jpg", "popularity": 19.878}, {"id": 76726, "video": false, "vote_count": 3330, "vote_average": 6.7, "title": "Chronicle", "release_date": "2012-02-01", "original_language": "en", "original_title": "Chronicle", "genre_ids": [18, 878, 53], "backdrop_path": "/f54d3tpzdRW02IDIIVRuwiY2N3K.jpg", "adult": false, "overview": "Three high school students make an incredible discovery, leading to their developing uncanny powers beyond their understanding. As they learn to control their abilities and use them to their advantage, their lives start to spin out of control, and their darker sides begin to take over.", "poster_path": "/kdyrdFIt29FUmLIKvedAc2j4rpo.jpg", "popularity": 14.213}, {"id": 23168, "video": false, "vote_count": 2674, "vote_average": 7.2, "title": "The Town", "release_date": "2010-09-15", "original_language": "en", "original_title": "The Town", "genre_ids": [80, 18, 53], "backdrop_path": "/asMylckPVBXViRqxjDTzik0TpOh.jpg", "adult": false, "overview": "Doug MacRay is a longtime thief, who, smarter than the rest of his crew, is looking for his chance to exit the game. When a bank job leads to the group kidnapping an attractive branch manager, he takes on the role of monitoring her \u2013 but their burgeoning relationship threatens to unveil the identities of Doug and his crew to the FBI Agent who is on their case.", "poster_path": "/zX4fKmDXKGt4hlzhAJirdlRKFgO.jpg", "popularity": 19.797}, {"adult": false, "backdrop_path": "/gZeJziVigmRqbkEZwKAtSqlLQ6s.jpg", "genre_ids": [18, 10749], "id": 370663, "original_language": "en", "original_title": "Below Her Mouth", "overview": "An unexpected affair quickly escalates into a heart-stopping reality for two women whose passionate connection changes their lives forever.", "poster_path": "/nTGbq37hYLuNy7YgMg0gVLma0NS.jpg", "release_date": "2016-09-10", "title": "Below Her Mouth", "video": false, "vote_average": 6.2, "vote_count": 456, "popularity": 22.676}, {"adult": false, "backdrop_path": "/msOjpu9wigi6n1Xa51MeLcBue88.jpg", "genre_ids": [18, 36, 10752, 10749], "id": 468224, "original_language": "en", "original_title": "Tolkien", "overview": "England, early 20th century. The future writer and philologist John Ronald Reuel Tolkien (1892-1973) and three of his schoolmates create a strong bond between them as they share the same passion for literature and art, a true fellowship that strengthens as they grow up, but the outbreak of World War I threatens to shatter it.", "poster_path": "/A7eYO3t7oZQdfJj5KlJBI7GhT9H.jpg", "release_date": "2019-05-03", "title": "Tolkien", "video": false, "vote_average": 6.8, "vote_count": 450, "popularity": 13.09}, {"id": 391713, "video": false, "vote_count": 4441, "vote_average": 7.3, "title": "Lady Bird", "release_date": "2017-09-08", "original_language": "en", "original_title": "Lady Bird", "genre_ids": [35, 18], "backdrop_path": "/ocsCa41WtMqlsEnmewedmxpuCpF.jpg", "adult": false, "overview": "A California high school student plans to escape from her family and small town by going to college in New York, much to the disapproval of wildly loving, deeply opinionated and strong-willed mother.", "poster_path": "/iySFtKLrWvVzXzlFj7x1zalxi5G.jpg", "popularity": 23.697}, {"adult": false, "backdrop_path": "/8ndqvvwDVe9oDUQF1Jt6NCjAn7z.jpg", "genre_ids": [10749, 18], "id": 398818, "original_language": "en", "original_title": "Call Me by Your Name", "overview": "In 1980s Italy, a relationship begins between seventeen-year-old teenage Elio and the older adult man hired as his father's research assistant.", "poster_path": "/tcNniniS4rfqrLH0oORikJfnIwY.jpg", "release_date": "2017-09-01", "title": "Call Me by Your Name", "video": false, "vote_average": 8.3, "vote_count": 5875, "popularity": 30.709}, {"id": 13, "video": false, "vote_count": 16601, "vote_average": 8.4, "title": "Forrest Gump", "release_date": "1994-07-06", "original_language": "en", "original_title": "Forrest Gump", "genre_ids": [35, 18, 10749], "backdrop_path": "/wMgbnUVS9wbRGAdki8fqxKU1O0N.jpg", "adult": false, "overview": "A man with a low IQ has accomplished great things in his life and been present during significant historic events\u2014in each case, far exceeding what anyone imagined he could do. But despite all he has achieved, his one true love eludes him.", "poster_path": "/yE5d3BUhE8hCnkMUJOo1QDoOGNz.jpg", "popularity": 46.241}, {"id": 3170, "video": false, "vote_count": 3378, "vote_average": 7.0, "title": "Bambi", "release_date": "1942-08-14", "original_language": "en", "original_title": "Bambi", "genre_ids": [16, 18, 10751], "backdrop_path": "/zM2Rdsh4kiTEXPkkO9lWBzZpwAH.jpg", "adult": false, "overview": "Bambi's tale unfolds from season to season as the young prince of the forest learns about life, love, and friends.", "poster_path": "/wV9e2y4myJ4KMFsyFfWYcUOawyK.jpg", "popularity": 23.35}, {"id": 28178, "video": false, "vote_count": 3995, "vote_average": 8.0, "title": "Hachi: A Dog's Tale", "release_date": "2009-06-13", "original_language": "en", "original_title": "Hachi: A Dog's Tale", "genre_ids": [18, 10751], "backdrop_path": "/m87xptCZD6J15HcioOOX4kfEdeD.jpg", "adult": false, "overview": "A drama based on the true story of a college professor's bond with the abandoned dog he takes into his home.", "poster_path": "/3MpVmIg6CgOCUrZ2TZ2P0yitCbM.jpg", "popularity": 27.836}, {"id": 1391, "video": false, "vote_count": 688, "vote_average": 7.4, "title": "Y Tu Mam\u00e1 Tambi\u00e9n", "release_date": "2001-06-08", "original_language": "es", "original_title": "Y tu mam\u00e1 tambi\u00e9n", "genre_ids": [18, 10749], "backdrop_path": "/5jXzf6VCxmRAbQYYOuoPgGZRbRp.jpg", "adult": false, "overview": "In Mexico, two teenage boys and an attractive older woman embark on a road trip and learn a thing or two about life, friendship, sex, and each other.", "poster_path": "/4n6lnr7q3Ysz4rKz3raxkltbHgr.jpg", "popularity": 14.148}], "total_pages": 202, "total_results": 4025}, "recommendations": {"page": 1, "results": [{"adult": false, "backdrop_path": "/hgTXyowOnfplAYMsQCqDRPR658w.jpg", "genre_ids": [18, 35], "id": 91607, "original_language": "en", "original_title": "Who Is Harry Kellerman and Why Is He Saying Those Terrible Things About Me?", "overview": "Georgie Soloway, a pop hit love song writer who cannot love, himself, or others. He spends his days with various women flying his plane, and dropping in to the world around him.", "poster_path": "/aB5VRyCd18aOHKC8YAP8VKWZ7S8.jpg", "release_date": "1971-06-15", "title": "Who Is Harry Kellerman and Why Is He Saying Those Terrible Things About Me?", "video": false, "vote_average": 4.4, "vote_count": 6, "popularity": 3.223}, {"adult": false, "backdrop_path": "/pMpo2lAr2RJj8oezhBZEj9KyC2j.jpg", "genre_ids": [35, 18, 10749], "id": 54795, "original_language": "en", "original_title": "Keep the Aspidistra Flying", "overview": "Gordon Comstock is a copywriter at an ad agency, and his girlfriend Rosemary is a designer. Gordon believes he is a genius, a marvelous poet and quits the ad agency, trying to live on his poems, but poverty soon comes to him.", "poster_path": "/exLDuRDE2Lsh1kgfnhk4lFiBPFD.jpg", "release_date": "1997-11-20", "title": "Keep the Aspidistra Flying", "video": false, "vote_average": 6.3, "vote_count": 4, "popularity": 2.118}, {"adult": false, "backdrop_path": "/nd5WhA0BzylVBbXldnxs0Xx21Vp.jpg", "genre_ids": [18], "id": 43812, "original_language": "en", "original_title": "Knute Rockne All American", "overview": "The story of legendary Notre Dame football player and coach Knute Rockne.", "poster_path": "/7xUaOkH5f8hKyFmXELlsooKvgIk.jpg", "release_date": "1940-10-05", "title": "Knute Rockne All American", "video": false, "vote_average": 6.3, "vote_count": 12, "popularity": 4.982}], "total_pages": 1, "total_results": 3}, "credits": {"cast": [{"cast_id": 1, "character": "Danny Saunders", "credit_id": "52fe44ddc3a368484e03b45f", "gender": 2, "id": 15048, "name": "Robby Benson", "order": 0, "profile_path": "/wUqGufwQwXn3Y6rFdtZ80HqLDPm.jpg"}, {"cast_id": 2, "character": "Reuven", "credit_id": "52fe44ddc3a368484e03b463", "gender": 2, "id": 62014, "name": "Barry Miller", "order": 1, "profile_path": "/tYZZCu2YvgUPqtqUeAj4StZrhGO.jpg"}, {"cast_id": 4, "character": "Professor David Malter", "credit_id": "52fe44ddc3a368484e03b46d", "gender": 2, "id": 12150, "name": "Maximilian Schell", "order": 2, "profile_path": "/1KqKnArTDYz6L6M8h9nN4RLP8YE.jpg"}, {"cast_id": 5, "character": "Reb Saunders", "credit_id": "52fe44ddc3a368484e03b471", "gender": 2, "id": 522, "name": "Rod Steiger", "order": 3, "profile_path": "/cc96tXM1O0PAoyog9hzo1GgSwB5.jpg"}, {"cast_id": 6, "character": "Mrs. Saunders", "credit_id": "52fe44ddc3a368484e03b475", "gender": 1, "id": 126547, "name": "Hildy Brooks", "order": 4, "profile_path": "/mjThzJkflhpEAVGwbRTVjTryxcL.jpg"}, {"cast_id": 7, "character": "Shaindel Saunders", "credit_id": "52fe44ddc3a368484e03b479", "gender": 0, "id": 1179310, "name": "Kaethe Fine", "order": 5, "profile_path": null}, {"cast_id": 8, "character": "Baseball Coach", "credit_id": "52fe44ddc3a368484e03b47d", "gender": 2, "id": 12122, "name": "Ron Rifkin", "order": 6, "profile_path": "/hukx9wydqjFEu3xXToQWln1PMxN.jpg"}, {"cast_id": 25, "character": "Levi Saunders", "credit_id": "57afcc25c3a3682cb700029e", "gender": 2, "id": 31512, "name": "Robert John Burke", "order": 7, "profile_path": "/ctVRWqY0KfSBIpaGulJMbhyE3jy.jpg"}, {"cast_id": 26, "character": "Davey", "credit_id": "57afcc30925141238b000a94", "gender": 2, "id": 729, "name": "Lonny Price", "order": 8, "profile_path": "/lC6huJbgseVOA35LNeXy2e2cgOY.jpg"}, {"cast_id": 27, "character": "Sidney Goldberg", "credit_id": "57afcc38c3a36803ac006a62", "gender": 2, "id": 3212, "name": "Evan Handler", "order": 9, "profile_path": "/oiu7zC085auAl1XDZruvrj9srY4.jpg"}, {"cast_id": 28, "character": "Sam", "credit_id": "57afcc3fc3a36803ac006a6e", "gender": 0, "id": 1545187, "name": "Douglas Warhit", "order": 10, "profile_path": "/kMiOy82ue01w3nKytK7UkZwg8Bj.jpg"}, {"cast_id": 29, "character": "Schwartzi", "credit_id": "57afcc47c3a36814f60029b0", "gender": 2, "id": 1340662, "name": "Jeffrey Marcus", "order": 11, "profile_path": "/s4eLYSdP9RhuURZWqMG203NhKtE.jpg"}, {"cast_id": 30, "character": "1st Baseman", "credit_id": "57afcc50c3a36814f60029bb", "gender": 2, "id": 55931, "name": "Stuart Charno", "order": 12, "profile_path": "/67yRU3WNiHUNwm4dfYc7EKI86TC.jpg"}, {"cast_id": 31, "character": "Hassidic Coach", "credit_id": "57afcc59c3a3682ccc00027a", "gender": 0, "id": 1665777, "name": "Richard Lifschutz", "order": 13, "profile_path": null}], "crew": [{"credit_id": "57afcbd39251413a91000264", "department": "Costume & Make-Up", "gender": 1, "id": 1051, "job": "Costume Design", "name": "Ruth Morley", "profile_path": null}, {"credit_id": "57afcbe5c3a36814f6002977", "department": "Production", "gender": 1, "id": 7170, "job": "Unit Manager", "name": "Barbara De Fina", "profile_path": "/gBKdvzHKLjqatJ4Im6WrpdaptrP.jpg"}, {"credit_id": "57afcba6c3a36803ac006a32", "department": "Sound", "gender": 2, "id": 7182, "job": "Original Music Composer", "name": "Elmer Bernstein", "profile_path": "/fvFh7cgoR1ArwWo3t3DIRgbMjxT.jpg"}, {"credit_id": "57afcbcc92514172c9006fd6", "department": "Art", "gender": 0, "id": 21379, "job": "Production Design", "name": "Stuart Wurtzel", "profile_path": null}, {"credit_id": "57afcbacc3a36814f600295d", "department": "Camera", "gender": 2, "id": 31501, "job": "Director of Photography", "name": "Arthur J. Ornitz", "profile_path": null}, {"credit_id": "57afcbbcc3a3682d33000216", "department": "Editing", "gender": 2, "id": 31463, "job": "Editor", "name": "David Garfield", "profile_path": "/zeuDNdv2SDnfmSURjICCYb1Ev5G.jpg"}, {"credit_id": "57afcb7ac3a3682c73000233", "department": "Production", "gender": 2, "id": 62056, "job": "Executive Producer", "name": "Jonathan Bernstein", "profile_path": null}, {"credit_id": "52fe44ddc3a368484e03b469", "department": "Directing", "gender": 2, "id": 128947, "job": "Director", "name": "Jeremy Kagan", "profile_path": "/jny7KFWxvc9xYn0q6201OaLC4g4.jpg"}, {"credit_id": "57afcb68c3a3680f7e000a46", "department": "Writing", "gender": 0, "id": 1359164, "job": "Novel", "name": "Chaim Potok", "profile_path": null}, {"credit_id": "57afcb71925141238b000a54", "department": "Writing", "gender": 0, "id": 1359165, "job": "Screenplay", "name": "Edwin Gordon", "profile_path": null}, {"credit_id": "57afcbde92514172c9006fdc", "department": "Production", "gender": 0, "id": 1435051, "job": "Unit Production Manager", "name": "Mel Howard", "profile_path": null}, {"credit_id": "57afcb8492514145a4002830", "department": "Production", "gender": 0, "id": 1665773, "job": "Co-Producer", "name": "Steven Douglas Brown", "profile_path": null}, {"credit_id": "57afcb8b92514172c9006fc4", "department": "Production", "gender": 0, "id": 1665774, "job": "Associate Producer", "name": "Roger Harrison", "profile_path": null}, {"credit_id": "57afcb939251413b010001ed", "department": "Production", "gender": 0, "id": 1665775, "job": "Producer", "name": "Edie Landau", "profile_path": null}, {"credit_id": "57afcb9d92514145a400283b", "department": "Production", "gender": 0, "id": 1665776, "job": "Producer", "name": "Ely A. Landau", "profile_path": null}]}}