{"adult": false, "backdrop_path": "/6i29AyCu1aKAbzbmQITTmOF2cVb.jpg", "belongs_to_collection": {"id": 464125, "name": "Dragon Nest Collection", "poster_path": "/fSHDj84jJiagO4XDvGTLngxiqly.jpg", "backdrop_path": "/5LX5LigezI0Ja13hExz12YByrJU.jpg"}, "budget": 40000000, "genres": [{"id": 14, "name": "Fantasy"}, {"id": 16, "name": "Animation"}], "homepage": "", "id": 257932, "imdb_id": "tt2911342", "original_language": "zh", "original_title": "\u9f99\u4e4b\u8c37\uff1a\u7834\u6653\u5947\u5175", "overview": "For years, the land of Altera has observed an uneasy peace between the humans, the elves, and the beasts who are loyal to the legendary Black Dragon. But when the dragon wakes from its hibernation, mobilizing a force of beasts to make war, a small band of humans and elves unite in a search for the secret road to the dragon\u2019s lair.", "popularity": 10.38, "poster_path": "/4gtrcEfXkMuVmQTUbELnfrA4Jqk.jpg", "production_companies": [{"id": 60714, "logo_path": null, "name": "Mili Pictures", "origin_country": ""}], "production_countries": [{"iso_3166_1": "CN", "name": "China"}, {"iso_3166_1": "FR", "name": "France"}, {"iso_3166_1": "US", "name": "United States of America"}], "release_date": "2014-05-20", "revenue": 0, "runtime": 88, "spoken_languages": [{"iso_639_1": "cn", "name": "\u5e7f\u5dde\u8bdd / \u5ee3\u5dde\u8a71"}, {"iso_639_1": "en", "name": "English"}, {"iso_639_1": "zh", "name": "\u666e\u901a\u8bdd"}, {"iso_639_1": "mo", "name": ""}, {"iso_639_1": "ru", "name": "P\u0443\u0441\u0441\u043a\u0438\u0439"}], "status": "Released", "tagline": "", "title": "Dragon Nest: Warriors' Dawn", "video": false, "vote_average": 7.3, "vote_count": 36, "keywords": {"keywords": [{"id": 603, "name": "elves"}, {"id": 12554, "name": "dragon"}, {"id": 170362, "name": "fantasy world"}, {"id": 231403, "name": "elf"}]}, "similar": {"page": 1, "results": [{"id": 57158, "video": false, "vote_count": 8375, "vote_average": 7.6, "title": "The Hobbit: The Desolation of Smaug", "release_date": "2013-12-11", "original_language": "en", "original_title": "The Hobbit: The Desolation of Smaug", "genre_ids": [28, 12, 14], "backdrop_path": "/hyR7Fs6Tepgu3yCQGtgO4Ilz9tY.jpg", "adult": false, "overview": "The Dwarves, Bilbo and Gandalf have successfully escaped the Misty Mountains, and Bilbo has gained the One Ring. They all continue their journey to get their gold back from the Dragon, Smaug.", "poster_path": "/gQCiuxGsfiXH1su6lp9n0nd0UeH.jpg", "popularity": 29.574}, {"id": 122917, "video": false, "vote_count": 9175, "vote_average": 7.3, "title": "The Hobbit: The Battle of the Five Armies", "release_date": "2014-12-10", "original_language": "en", "original_title": "The Hobbit: The Battle of the Five Armies", "genre_ids": [28, 12, 14], "backdrop_path": "/qhH3GyIfAnGv1pjdV3mw03qAilg.jpg", "adult": false, "overview": "Immediately after the events of The Desolation of Smaug, Bilbo and the dwarves try to defend Erebor's mountain of treasure from others who claim it: the men of the ruined Laketown and the elves of Mirkwood. Meanwhile an army of Orcs led by Azog the Defiler is marching on Erebor, fueled by the rise of the dark lord Sauron. Dwarves, elves and men must unite, and the hope for Middle-Earth falls into Bilbo's hands.", "poster_path": "/9zRzFJuaj0CHIOhAkcCcFTvyu2X.jpg", "popularity": 52.191}, {"id": 121, "video": false, "vote_count": 13686, "vote_average": 8.3, "title": "The Lord of the Rings: The Two Towers", "release_date": "2002-12-18", "original_language": "en", "original_title": "The Lord of the Rings: The Two Towers", "genre_ids": [28, 12, 14], "backdrop_path": "/dG4BmM32XJmKiwopLDQmvXEhuHB.jpg", "adult": false, "overview": "Frodo and Sam are trekking to Mordor to destroy the One Ring of Power while Gimli, Legolas and Aragorn search for the orc-captured Merry and Pippin. All along, nefarious wizard Saruman awaits the Fellowship members at the Orthanc Tower in Isengard.", "poster_path": "/5VTN0pR8gcqV3EPUHHfMGnJYN9L.jpg", "popularity": 37.179}, {"adult": false, "backdrop_path": "/LXNMeisGBRDMERehjNQDnz9qKI.jpg", "genre_ids": [12, 14, 28], "id": 49051, "original_language": "en", "original_title": "The Hobbit: An Unexpected Journey", "overview": "Bilbo Baggins, a hobbit enjoying his quiet life, is swept into an epic quest by Gandalf the Grey and thirteen dwarves who seek to reclaim their mountain home from Smaug, the dragon.", "poster_path": "/h1XjBJoWdOh8aegBoVYKgABQZSL.jpg", "release_date": "2012-11-26", "title": "The Hobbit: An Unexpected Journey", "video": false, "vote_average": 7.2, "vote_count": 12886, "popularity": 36.93}, {"id": 122, "video": false, "vote_count": 14485, "vote_average": 8.4, "title": "The Lord of the Rings: The Return of the King", "release_date": "2003-12-01", "original_language": "en", "original_title": "The Lord of the Rings: The Return of the King", "genre_ids": [28, 12, 14], "backdrop_path": "/8BPZO0Bf8TeAy8znF43z8soK3ys.jpg", "adult": false, "overview": "Aragorn is revealed as the heir to the ancient kings as he, Gandalf and the other members of the broken fellowship struggle to save Gondor from Sauron's forces. Meanwhile, Frodo and Sam take the ring closer to the heart of Mordor, the dark lord's realm.", "poster_path": "/rCzpDGLbOoPwLjy3OAm5NUPOTrC.jpg", "popularity": 47.099}, {"id": 120, "video": false, "vote_count": 15878, "vote_average": 8.3, "title": "The Lord of the Rings: The Fellowship of the Ring", "release_date": "2001-12-18", "original_language": "en", "original_title": "The Lord of the Rings: The Fellowship of the Ring", "genre_ids": [28, 12, 14], "backdrop_path": "/pIUvQ9Ed35wlWhY2oU6OmwEsmzG.jpg", "adult": false, "overview": "Young hobbit Frodo Baggins, after inheriting a mysterious ring from his uncle Bilbo, must leave his home in order to keep it from falling into the hands of its evil creator. Along the way, a fellowship is formed to protect the ringbearer and make sure that the ring arrives at its final destination: Mt. Doom, the only place where it can be destroyed.", "poster_path": "/56zTpe2xvaA4alU51sRWPoKPYZy.jpg", "popularity": 46.673}, {"id": 1362, "video": false, "vote_count": 137, "vote_average": 6.1, "title": "The Hobbit", "release_date": "1977-11-27", "original_language": "en", "original_title": "The Hobbit", "genre_ids": [12, 16, 14, 10751], "backdrop_path": "/fcZDxvCD4Pg7lO2RwHNS0DC1B3m.jpg", "adult": false, "overview": "Bilbo Baggins the Hobbit was just minding his own business, when his occasional visitor Gandalf the Wizard drops in one night. One by one, a whole group of dwarves drop in, and before he knows it, Bilbo has joined their quest to reclaim their kingdom, taken from them by the evil dragon Smaug. The only problem is that Gandalf has told the dwarves that Bilbo is an expert burglar, but he isn't...", "poster_path": "/xP93GoIe8MI23n5ZQ7aZLTzLE0g.jpg", "popularity": 12.87}, {"id": 14442, "video": false, "vote_count": 1101, "vote_average": 6.2, "title": "Ella Enchanted", "release_date": "2004-04-09", "original_language": "en", "original_title": "Ella Enchanted", "genre_ids": [35, 14, 10751], "backdrop_path": "/6LuSrsnMPhF2fNSKFKtEhVxm5Eb.jpg", "adult": false, "overview": "Ella lives in a magical world in which each child, at the moment of their birth, is given a virtuous \"gift\" from a fairy godmother. Ella's so-called gift, however, is obedience. This birthright proves itself to be quite the curse once Ella finds herself in the hands of several unscrupulous characters whom she quite literally cannot disobey. Determined to gain control of her life and decisions, Ella sets off on a journey to find her fairy godmother who she hopes will lift the curse. The path, however, isn't easy -- Ella must outwit a slew of unpleasant obstacles including ogres, giants, wicked stepsisters, elves and Prince Charmont's evil uncle, who wants to take over the crown and rule the kingdom.", "poster_path": "/5xURlqmsrbMZJiTQmu3TOEIfHFT.jpg", "popularity": 13.753}, {"id": 123, "video": false, "vote_count": 395, "vote_average": 6.5, "title": "The Lord of the Rings", "release_date": "1978-11-15", "original_language": "en", "original_title": "The Lord of the Rings", "genre_ids": [12, 16, 18, 14, 10751], "backdrop_path": "/8HqSxB9VLJkbRXRdlocbLq9wxwY.jpg", "adult": false, "overview": "The Fellowship of the Ring embark on a journey to destroy the One Ring and end Sauron's reign over Middle-earth.", "poster_path": "/1l3WpoF7TX9pOprX4XepCXjQXUV.jpg", "popularity": 17.039}, {"id": 8840, "video": false, "vote_count": 1169, "vote_average": 6.5, "title": "DragonHeart", "release_date": "1996-05-31", "original_language": "en", "original_title": "DragonHeart", "genre_ids": [28, 12, 14], "backdrop_path": "/1VWsgfwm3cJ4vZnKEWxOj9cv7q.jpg", "adult": false, "overview": "In an ancient time when majestic fire-breathers soared through the skies, a knight named Bowen comes face to face and heart to heart with the last dragon on Earth, Draco. Taking up arms to suppress a tyrant king, Bowen soon realizes his task will be harder than he'd imagined: If he kills the king, Draco will die as well.", "poster_path": "/5bqI54aIyPDzPKkScwJprzbAsIi.jpg", "popularity": 17.182}, {"id": 27793, "video": false, "vote_count": 212, "vote_average": 4.3, "title": "The NeverEnding Story III", "release_date": "1994-10-26", "original_language": "en", "original_title": "The NeverEnding Story III", "genre_ids": [14, 10751], "backdrop_path": "/qJSluTZn0roCJ6EaxFo52w8OUVO.jpg", "adult": false, "overview": "A young boy must restore order when a group of bullies steal the magical book that acts as a portal between Earth and the imaginary world of Fantasia.", "poster_path": "/qWvj3Ls7PQtz5L1eZpfoj5058Yz.jpg", "popularity": 13.735}, {"id": 10140, "video": false, "vote_count": 3561, "vote_average": 6.3, "title": "The Chronicles of Narnia: The Voyage of the Dawn Treader", "release_date": "2010-08-13", "original_language": "en", "original_title": "The Chronicles of Narnia: The Voyage of the Dawn Treader", "genre_ids": [12, 14, 10751], "backdrop_path": "/rB5SbbBEkMZYAS6MgoFp2CTxazo.jpg", "adult": false, "overview": "This time around Edmund and Lucy Pevensie, along with their pesky cousin Eustace Scrubb find themselves swallowed into a painting and on to a fantastic Narnian ship headed for the very edges of the world.", "poster_path": "/pRzEyrMSyvpHf92EhsVSg9Yr81t.jpg", "popularity": 22.994}, {"adult": false, "backdrop_path": "/5SX2rgKXZ7NVmAJR5z5LprqSXKa.jpg", "genre_ids": [28, 12, 14], "id": 68735, "original_language": "en", "original_title": "Warcraft", "overview": "The peaceful realm of Azeroth stands on the brink of war as its civilization faces a fearsome race of invaders: orc warriors fleeing their dying home to colonize another. As a portal opens to connect the two worlds, one army faces destruction and the other faces extinction. From opposing sides, two heroes are set on a collision course that will decide the fate of their family, their people, and their home.", "poster_path": "/ckrTPz6FZ35L5ybjqvkLWzzSLO7.jpg", "release_date": "2016-05-25", "title": "Warcraft", "video": false, "vote_average": 6.3, "vote_count": 4439, "popularity": 18.932}, {"id": 10882, "video": false, "vote_count": 3219, "vote_average": 6.9, "title": "Sleeping Beauty", "release_date": "1959-01-28", "original_language": "en", "original_title": "Sleeping Beauty", "genre_ids": [16, 14, 10749, 10751], "backdrop_path": "/oHZIobyIG0YzWntyPCTSJDOk9qB.jpg", "adult": false, "overview": "A beautiful princess born in a faraway kingdom is destined by a terrible curse to prick her finger on the spindle of a spinning wheel and fall into a deep sleep that can only be awakened by true love's first kiss. Determined to protect her, her parents ask three fairies to raise her in hiding. But the evil Maleficent is just as determined to seal the princess's fate.", "poster_path": "/j4YBuAe8D1jDSiitpq69og9x3Yl.jpg", "popularity": 29.356}, {"adult": false, "backdrop_path": "/1S2y4Tj8UwH4g4kIj29liL2XwxM.jpg", "genre_ids": [28, 12, 14], "id": 300803, "original_language": "en", "original_title": "Dragonheart 3: The Sorcerer's Curse", "overview": "When aspiring knight Gareth goes in search of a fallen comet rumored to contain gold, he is shocked to instead find the dragon Drago. After Drago saves Gareth's life the two become intricately bonded, and must work together to defeat an evil sorcerer and stop his reign of terror. Along the way, Gareth learns the true meaning of being a knight in this fantasy action-adventure for the ages.", "poster_path": "/weZV8fBcCMDvU5PIQ19w4gPOChD.jpg", "release_date": "2015-02-24", "title": "Dragonheart 3: The Sorcerer's Curse", "video": false, "vote_average": 5.0, "vote_count": 133, "popularity": 13.897}, {"id": 27022, "video": false, "vote_count": 3219, "vote_average": 6.0, "title": "The Sorcerer's Apprentice", "release_date": "2010-07-13", "original_language": "en", "original_title": "The Sorcerer's Apprentice", "genre_ids": [28, 12, 35, 18, 14], "backdrop_path": "/v0o9M1us65w1kDQp8Q6KnB5a11s.jpg", "adult": false, "overview": "Balthazar Blake is a master sorcerer in modern-day Manhattan trying to defend the city from his arch-nemesis, Maxim Horvath. Balthazar can't do it alone, so he recruits Dave Stutler, a seemingly average guy who demonstrates hidden potential, as his reluctant prot\u00e9g\u00e9. The sorcerer gives his unwilling accomplice a crash course in the art and science of magic, and together, these unlikely partners work to stop the forces of darkness.", "poster_path": "/ZNSrRpdJ6FjMy4Iu6JpRTJ5Q87.jpg", "popularity": 24.096}, {"id": 266647, "video": false, "vote_count": 1878, "vote_average": 5.9, "title": "Pan", "release_date": "2015-09-24", "original_language": "en", "original_title": "Pan", "genre_ids": [12, 14, 10751], "backdrop_path": "/6Ym6bgfhvpgQS5Sg8kKnfW1hX7P.jpg", "adult": false, "overview": "Living a bleak existence at a London orphanage, 12-year-old Peter finds himself whisked away to the fantastical world of Neverland. Adventure awaits as he meets new friend James Hook and the warrior Tiger Lily. They must band together to save Neverland from the ruthless pirate Blackbeard. Along the way, the rebellious and mischievous boy discovers his true destiny, becoming the hero forever known as Peter Pan.", "poster_path": "/uflLJBg5iVWaPpzc4Qm54HNoGYd.jpg", "popularity": 18.414}, {"id": 10719, "video": false, "vote_count": 2252, "vote_average": 6.6, "title": "Elf", "release_date": "2003-10-09", "original_language": "en", "original_title": "Elf", "genre_ids": [35, 14, 10751], "backdrop_path": "/jRzrQ7Thcjpetr0n8B6w980eZet.jpg", "adult": false, "overview": "When young Buddy falls into Santa's gift sack on Christmas Eve, he's transported back to the North Pole and raised as a toy-making elf by Santa's helpers. But as he grows into adulthood, he can't shake the nagging feeling that he doesn't belong. Buddy vows to visit Manhattan and find his real dad, a workaholic publisher.", "poster_path": "/9jChHqqcpe0zHNTqkNqWZkwkgil.jpg", "popularity": 14.355}, {"adult": false, "backdrop_path": "/sG3Du3Ha6rGeSzFfXme1nh8S2Jl.jpg", "genre_ids": [18, 10751, 14, 12], "id": 34584, "original_language": "en", "original_title": "Die unendliche Geschichte", "overview": "While hiding from bullies in his school's attic, a young boy discovers the extraordinary land of Fantasia, through a magical book called The Neverending Story. The book tells the tale of Atreyu, a young warrior who, with the help of a luck dragon named Falkor, must save Fantasia from the destruction of The Nothing.", "poster_path": "/ddYCa91iDXfJCxaqSYzwi2fjfnl.jpg", "release_date": "1984-04-05", "title": "The NeverEnding Story", "video": false, "vote_average": 7.1, "vote_count": 2201, "popularity": 19.789}, {"id": 671, "video": false, "vote_count": 15480, "vote_average": 7.8, "title": "Harry Potter and the Philosopher's Stone", "release_date": "2001-11-16", "original_language": "en", "original_title": "Harry Potter and the Philosopher's Stone", "genre_ids": [12, 14, 10751], "backdrop_path": "/hziiv14OpD73u9gAak4XDDfBKa2.jpg", "adult": false, "overview": "Harry Potter has lived under the stairs at his aunt and uncle's house his whole life. But on his 11th birthday, he learns he's a powerful wizard -- with a place waiting for him at the Hogwarts School of Witchcraft and Wizardry. As he learns to harness his newfound powers with the help of the school's kindly headmaster, Harry uncovers the truth about his parents' deaths -- and about the villain who's to blame.", "poster_path": "/gHPtCmMeDqjaGqnMrWGDmD3nKd2.jpg", "popularity": 58.781}], "total_pages": 42, "total_results": 827}, "recommendations": {"page": 1, "results": [{"adult": false, "backdrop_path": "/ebHGlvThk8q9skj8qNOVSYNOEWb.jpg", "genre_ids": [28, 16, 12], "id": 378102, "original_language": "ms", "original_title": "BoBoiBoy The Movie", "overview": "BoBoiBoy embarks on a theatrical adventure with his first feature film BoBoiBoy: The Movie. The movie brings BoBoiBoy and his friends on an adventure on a mysterious island that houses an ancient Sfera Kuasa older than Ochobot with untold powers. BoBoiBoy will meet his toughest foe yet, an alien treasure hunter who is looking to harness the power from this Sfera Kuasa for his own greedy needs. It's now a race between BoBoiBoy and the aliens to reach this Sfera Kuasa and unlock the new powers. Experience an exotic new place, never before seen villains and a new power from BoBoiBoy.", "poster_path": "/zMngj6ffiPxh8tywk5uFjhbCqZQ.jpg", "release_date": "2016-03-03", "title": "BoBoiBoy The Movie", "video": false, "vote_average": 8.2, "vote_count": 5, "popularity": 2.173}, {"id": 154207, "video": false, "vote_count": 12, "vote_average": 6.4, "title": "Hellboy Animated: Iron Shoes", "release_date": "2007-06-12", "original_language": "en", "original_title": "Hellboy Animated: Iron Shoes", "genre_ids": [], "backdrop_path": "/slObV28W8HyEYd55keH0QtOgSLh.jpg", "adult": false, "overview": "In Ireland in 1961, Hellboy enters a ruined tower and is attacked by Iron Shoes.", "poster_path": "/LhrfZWjdeI44t2sLg1bUZtYCAb.jpg", "popularity": 2.777}, {"adult": false, "backdrop_path": "/oTuY7ZDln3TgiUEUEUGD8OM9RE1.jpg", "genre_ids": [28, 16, 878], "id": 66045, "original_language": "ja", "original_title": "\u30d6\u30e9\u30c3\u30af\u30de\u30b8\u30c3\u30afM(\u30de\u30ea\u30aa)-66", "overview": "A freelance reporter stumbles on a desperate military operation. An army chopper has crashed and its cargo has been activated. Now there are two killer androids running loose in the wilderness and have the daughter of their inventor as their target. Can the army stop them or can the reporter reach the little girl before the droids do?", "poster_path": "/1vweq4uteR4DaLV7T3MSh6Ecr6J.jpg", "release_date": "1987-06-28", "title": "Black Magic M-66", "video": false, "vote_average": 7.0, "vote_count": 9, "popularity": 2.842}, {"adult": false, "backdrop_path": "/udd05n4dtURSQF1AL8zlssuRg1j.jpg", "genre_ids": [10751, 16, 12], "id": 207516, "original_language": "en", "original_title": "How to Train Your Dragon - Legends", "overview": "Prepare for high-flying adventures with Hiccup, Toothless and the rest of the Dragon Trainers. Meet new dragons, learn the secrets of the legendary Boneknapper and see what is in store for the holidays on the festive island of Berk.", "poster_path": "/9VD9ORndDoryrRwC7KjvegLiQl5.jpg", "release_date": "2010-11-15", "title": "How to Train Your Dragon - Legends", "video": true, "vote_average": 7.0, "vote_count": 26, "popularity": 3.515}, {"adult": false, "backdrop_path": "/k2szJnUyjjisKNpuHt0AXN7Bui6.jpg", "genre_ids": [12, 16, 10751], "id": 89825, "original_language": "ja", "original_title": "\u304a\u307e\u3048\u3046\u307e\u305d\u3046\u3060\u306a", "overview": "A Tyrannosaurus called Heart was raised by a herbivorous dinosaur. As he grew up, he was scared by other dinosaurs. One day, Heart meets a baby Ankylosaurus and he names the baby \"Umasou (looks delicious)\". Umasou started to be attached to Heart and a strange family love develops between the two.", "poster_path": "/wnEtkFx3ULJxq0v4nq5mo3q9HSN.jpg", "release_date": "2010-10-16", "title": "You are Umasou", "video": false, "vote_average": 7.0, "vote_count": 18, "popularity": 5.567}, {"id": 44885, "video": false, "vote_count": 13, "vote_average": 5.6, "title": "Kite Liberator", "release_date": "2008-03-21", "original_language": "en", "original_title": "\u30ab\u30a4\u30c8 \u30ea\u30d9\u30ec\u30a4\u30bf", "genre_ids": [28, 16, 53], "backdrop_path": "/kLY2bgcsZh8dArxwah4xokPLSzh.jpg", "adult": false, "overview": "Years after the events that transpired in Kite, Sawa's whereabouts are a mystery. During this time, rumors of a new killer have begun to circulate the city. They call her the Angel of Death, an unfeeling assassin who eliminates her targets with grace and precision, leaving only a flurry of feathers as her calling card. What the public is unaware of is the fact that this notorious hitman is a actually a polite young lady named Monaka. Like her spiritual predecessor, Monaka has lost most of her family, and her father's duty as an astronaut keeps hims practically worlds apart. However, they are close despite the physical distances and Orudo promised his daughter that he would return. Until then, daily life for the timid and somewhat clumsy Monaka involves mostly school and her part time job as a waitress, but her nature completely changes once she receives an assignment.", "poster_path": "/wWyA4L05h1Tftqo5My2pC0jayZ6.jpg", "popularity": 5.025}, {"adult": false, "backdrop_path": "/zVpffH961JjQDW1TMSgNfhcacgt.jpg", "genre_ids": [99], "id": 325263, "original_language": "en", "original_title": "Journey to Space", "overview": "A sweeping overview of humanity\u2019s accomplishments in space, as well as our ongoing activities and future plans.", "poster_path": "/mW6v3MYsbjQkbjUWl5pYeoStKJq.jpg", "release_date": "2015-02-13", "title": "Journey to Space", "video": false, "vote_average": 6.8, "vote_count": 14, "popularity": 6.445}], "total_pages": 1, "total_results": 7}, "credits": {"cast": [{"cast_id": 2, "character": "Elena (voice)", "credit_id": "55cc5479925141763c00236b", "gender": 1, "id": 530, "name": "Carrie-Anne Moss", "order": 1, "profile_path": "/8iATAc5z5XOKFFARLsvaawa8MTY.jpg"}, {"cast_id": 4, "character": "Gerrant (voice)", "credit_id": "55cc5501925141763e0023b9", "gender": 2, "id": 67601, "name": "Lucas Grabeel", "order": 3, "profile_path": "/b4eJ1HLaJFNftdgF7z0rrVvTQLI.jpg"}, {"cast_id": 5, "character": "Liya and Kasarana (voice)", "credit_id": "55cc5536c3a36856f9002597", "gender": 1, "id": 78139, "name": "Blythe Auffarth", "order": 4, "profile_path": "/hZCqIH1rQoCmIdKfBCh90w0JurO.jpg"}, {"cast_id": 6, "character": "Lambert (voice)", "credit_id": "55cc556e925141764500233c", "gender": 2, "id": 77293, "name": "Charlie Schlatter", "order": 5, "profile_path": "/nNS9U9Yp4im9i0pb0NbDomkDwH7.jpg"}, {"cast_id": 7, "character": "Terram (voice)", "credit_id": "55cc55b1c3a3685a88001ec8", "gender": 0, "id": 1496415, "name": "Simon Jaglom", "order": 6, "profile_path": null}, {"cast_id": 8, "character": "Bat (voice)", "credit_id": "55cc55f19251417642002420", "gender": 2, "id": 1192144, "name": "Matthew Temple", "order": 7, "profile_path": "/5HKsCrua3YH8URySPiUrgKrVdny.jpg"}, {"cast_id": 9, "character": "Elena (voice) CN", "credit_id": "55cc567e9251417645002364", "gender": 0, "id": 1496419, "name": "Ying Huang", "order": 8, "profile_path": null}, {"cast_id": 10, "character": "Gerrant (voice) CN", "credit_id": "55cc56e2c3a36856f90025e1", "gender": 0, "id": 1496423, "name": "Ye Sun", "order": 9, "profile_path": null}, {"cast_id": 11, "character": "Argenta (voice)", "credit_id": "55cc59f8c3a368570100259a", "gender": 0, "id": 144973, "name": "Bianca Collins", "order": 10, "profile_path": null}, {"cast_id": 12, "character": "voice", "credit_id": "5c64371bc3a368349fd53915", "gender": 1, "id": 109813, "name": "Xu Jiao", "order": 11, "profile_path": null}, {"cast_id": 13, "character": "voice", "credit_id": "5c64373a0e0a267dfd99f570", "gender": 0, "id": 1674211, "name": "Ji Guanlin", "order": 12, "profile_path": "/l0gh3dtxCloqdKZZ9NZnrm3kums.jpg"}], "crew": [{"credit_id": "55cc5439c3a36855640007b4", "department": "Writing", "gender": 2, "id": 57614, "job": "Writer", "name": "Bill Borden", "profile_path": null}, {"credit_id": "55cc5405c3a3685a88001e76", "department": "Directing", "gender": 0, "id": 1496406, "job": "Director", "name": "Yuefeng Song", "profile_path": null}]}}