{"adult": false, "backdrop_path": "/tTr8Hb0Z5K4yq2FKJ5YVbRtlUE1.jpg", "belongs_to_collection": null, "budget": 0, "genres": [{"id": 18, "name": "Drama"}, {"id": 36, "name": "History"}], "homepage": null, "id": 257925, "imdb_id": "tt0198371", "original_language": "ja", "original_title": "\u5fe0\u81e3\u8535", "overview": "Japan, 1701. A group of samurai become r\u00f4nin after their lord is forced to commit seppuku for assaulting a court official, who will become the target of a merciless revenge.", "popularity": 2.594, "poster_path": "/sWaioJH3hZatJdoh2Sfh6dHvyEm.jpg", "production_companies": [{"id": 880, "logo_path": null, "name": "Daiei Motion Picture Co., Ltd.", "origin_country": "JP"}], "production_countries": [{"iso_3166_1": "JP", "name": "Japan"}], "release_date": "1958-04-01", "revenue": 0, "runtime": 164, "spoken_languages": [{"iso_639_1": "ja", "name": "\u65e5\u672c\u8a9e"}], "status": "Released", "tagline": "", "title": "The Loyal 47 Ronin", "video": false, "vote_average": 6.3, "vote_count": 4, "keywords": {"keywords": [{"id": 1462, "name": "samurai"}, {"id": 9714, "name": "remake"}, {"id": 15060, "name": "period drama"}, {"id": 155198, "name": "ronin"}, {"id": 160279, "name": "18th century"}, {"id": 235830, "name": "47 ronin"}]}, "similar": {"page": 1, "results": [{"adult": false, "backdrop_path": "/7geWAyhcmjcMQWcZA5lrS7Le8cG.jpg", "genre_ids": [18, 53], "id": 11878, "original_language": "ja", "original_title": "\u7528\u5fc3\u68d2", "overview": "A nameless ronin, or samurai with no master, enters a small village in feudal Japan where two rival businessmen are struggling for control of the local gambling trade. Taking the name Sanjuro Kuwabatake, the ronin convinces both silk merchant Tazaemon and sake merchant Tokuemon to hire him as a personal bodyguard, then artfully sets in motion a full-scale gang war between the two ambitious and unscrupulous men.", "poster_path": "/tN7kYPjRhDolpui9sc9Eq9n5b2O.jpg", "release_date": "1961-04-25", "title": "Yojimbo", "video": false, "vote_average": 8.2, "vote_count": 646, "popularity": 11.25}, {"id": 11953, "video": false, "vote_count": 294, "vote_average": 7.9, "title": "Kagemusha", "release_date": "1980-04-26", "original_language": "ja", "original_title": "\u5f71\u6b66\u8005", "genre_ids": [28, 18, 36, 10752], "backdrop_path": "/3LVGjFPk8dxoGRHe9YSCRvjLSJ8.jpg", "adult": false, "overview": "Akira Kurosawa's lauded feudal epic presents the tale of a petty thief who is recruited to impersonate Shingen, an aging warlord, in order to avoid attacks by competing clans. When Shingen dies, his generals reluctantly agree to have the impostor take over as the powerful ruler. He soon begins to appreciate life as Shingen, but his commitment to the role is tested when he must lead his troops into battle against the forces of a rival warlord.", "poster_path": "/5ZfxTO5IWuefPrUALF0GFKql4O0.jpg", "popularity": 15.686}, {"id": 14537, "video": false, "vote_count": 304, "vote_average": 8.3, "title": "Harakiri", "release_date": "1962-09-15", "original_language": "ja", "original_title": "\u5207\u8179", "genre_ids": [28, 18, 36], "backdrop_path": "/pz9fxHyGiiNLZ21bccAtwrMAH7f.jpg", "adult": false, "overview": "Aging samurai Hanshiro Tsugumo arrives at the home of Kageyu Saito and asks to commit a ritual suicide on the property, which Saito thinks is a ploy to gain pity and a job. Saito tells Tsugumo of another samurai, Motome Chijiiwa, who threatened suicide as a stratagem, only to be forced to follow through on the task. When Tsugumo reveals that Chijiiwa was his son-in-law, the disclosure sets off a fierce conflict.", "poster_path": "/k2SE5P8expiI4Pt9qzIX0xJn94E.jpg", "popularity": 15.525}, {"id": 20525, "video": false, "vote_count": 25, "vote_average": 6.7, "title": "Hana", "release_date": "2006-06-03", "original_language": "ja", "original_title": "\u82b1\u3088\u308a\u3082\u306a\u307b", "genre_ids": [28, 18, 36], "backdrop_path": "/yq3svh4nIz6JGm76B3rKamkdgMt.jpg", "adult": false, "overview": "In a poor district of Edo lives a young samurai named Soza. He has been sent by his clan to avenge the death of his father. He isn't an accomplished swordsman however, and he prefers sharing the life of the residents, teaching the kids how to write etc. When he finally finds the man he is looking for, he will have to decide whether he follows the way of the samurai or chooses peace and reconciliation.", "poster_path": "/AiJc6rbau0KNqhcp8GeGdIla6il.jpg", "popularity": 3.503}, {"id": 64686, "video": false, "vote_count": 2273, "vote_average": 6.0, "title": "47 Ronin", "release_date": "2013-12-06", "original_language": "en", "original_title": "47 Ronin", "genre_ids": [28, 12, 18, 14], "backdrop_path": "/slQkkaBHH1K915HtuN89iu0xqOv.jpg", "adult": false, "overview": "Kai\u2014an outcast\u2014joins Oishi, the leader of 47 outcast samurai.  Together they seek vengeance upon the treacherous overlord who killed their master and banished their kind.  To restore honour to their homeland, the warriors embark upon a quest that challenges them with a series of trials that would destroy ordinary warriors.", "poster_path": "/pUH46wa0n4zXZytpriSaoNUXai4.jpg", "popularity": 15.342}, {"id": 27031, "video": false, "vote_count": 72, "vote_average": 8.3, "title": "Samurai Rebellion", "release_date": "1967-05-27", "original_language": "ja", "original_title": "\u4e0a\u610f\u8a0e\u3061 \u62dd\u9818\u59bb\u59cb\u672b", "genre_ids": [18], "backdrop_path": "/eE6ysigsKowJfJHgoaSR4GOYJw6.jpg", "adult": false, "overview": "Toshiro Mifune stars as Isaburo Sasahara, an aging swordsman living a quiet life until his clan lord orders that his son marry the lord's mistress, who has recently displeased the ruler. Reluctantly, father and son take in the woman, and, to the family\u2019s surprise, the young couple fall in love. But the lord soon reverses his decision and demands the mistress\u2019s return. Against all expectations, Isaburo and his son refuse, risking the destruction of their entire family. Director Masaki Kobayashi's Samurai Rebellion is the gripping story of a peaceful man who finally decides to take a stand against injustice.", "poster_path": "/6l4Lc0dnuo195S4Lvu6NXMvROp4.jpg", "popularity": 9.166}, {"id": 313297, "video": false, "vote_count": 2276, "vote_average": 7.7, "title": "Kubo and the Two Strings", "release_date": "2016-08-18", "original_language": "en", "original_title": "Kubo and the Two Strings", "genre_ids": [12, 16, 10751], "backdrop_path": "/aF4TrSc1IbNNtsWdwixMQNku3Dv.jpg", "adult": false, "overview": "Kubo mesmerizes the people in his village with his magical gift for spinning wild tales with origami. When he accidentally summons an evil spirit seeking vengeance, Kubo is forced to go on a quest to solve the mystery of his fallen samurai father and his mystical weaponry, as well as discover his own magical powers.", "poster_path": "/3Kr9CIIMcXTPlm6cdZ9y3QTe4Y7.jpg", "popularity": 29.328}, {"id": 221731, "video": false, "vote_count": 187, "vote_average": 7.6, "title": "Rurouni Kenshin: Kyoto Inferno", "release_date": "2014-08-01", "original_language": "ja", "original_title": "\u308b\u308d\u3046\u306b\u5263\u5fc3 \u4eac\u90fd\u5927\u706b\u7de8", "genre_ids": [28, 12, 18], "backdrop_path": "/4Rjl7vhjgzkAYrisGH5DQtGMrxh.jpg", "adult": false, "overview": "Kenshin has settled into his new life with Kaoru and his other friends when he is approached with a request from the Meiji government. Makoto Shishio, a former assassin like Kenshin, was betrayed, set on fire and left for dead. He survived, and is now in Kyoto, plotting with his gathered warriors to overthrow the new government. Against Kaoru's wishes, Kenshin reluctantly agrees to go to Kyoto and help keep his country from falling back into civil war.", "poster_path": "/3UHvMtp6OaWMqHgpsWGhNhUR0wg.jpg", "popularity": 17.019}, {"id": 122126, "video": false, "vote_count": 35, "vote_average": 6.0, "title": "The Concubine", "release_date": "2012-06-06", "original_language": "ko", "original_title": "\ud6c4\uad81: \uc81c\uc655\uc758 \ucca9", "genre_ids": [18], "backdrop_path": "/zgx6bBaVLAsFO5ip7gwndOjhE7U.jpg", "adult": false, "overview": "Living a torturous life of poverty and barely able to survive, Hwa-yeon decides to offer herself as one of the king\u2019s concubines. Once inside the royal palace, two men are immediately seized by the woman -- the Grand Prince Seong-won, a megalomaniacal ruler drunk with power and lust, and Kwon-yoo, who has everything to lose if his desire for Hwa-yeon is exposed.", "poster_path": "/2qkaLzpsC0X3zYwjhh1GPsjny2.jpg", "popularity": 26.537}, {"id": 11416, "video": false, "vote_count": 688, "vote_average": 7.4, "title": "The Mission", "release_date": "1986-09-29", "original_language": "en", "original_title": "The Mission", "genre_ids": [28, 12, 18, 36], "backdrop_path": "/22GLW4Qgs7NycHLjsp8whRCuky4.jpg", "adult": false, "overview": "When a Spanish Jesuit goes into the South American wilderness to build a mission in the hope of converting the Indians of the region, a slave hunter is converted and joins his mission. When Spain sells the colony to Portugal, they are forced to defend all they have built against the Portugese aggressors.", "poster_path": "/oTU13XXz4WHisDWKX3X6dFWEjC0.jpg", "popularity": 16.2}, {"adult": false, "backdrop_path": "/9IfO3W1MUzDdpBqY1Ru6dzdJJld.jpg", "genre_ids": [18, 36, 10752, 28], "id": 2024, "original_language": "en", "original_title": "The Patriot", "overview": "After proving himself on the field of battle in the French and Indian War, Benjamin Martin wants nothing more to do with such things, preferring the simple life of a farmer. But when his son Gabriel enlists in the army to defend their new nation, America, against the British, Benjamin reluctantly returns to his old life to protect his son.", "poster_path": "/tgXOraQmKatqrVs2KMgnNn6QpO.jpg", "release_date": "2000-06-28", "title": "The Patriot", "video": false, "vote_average": 7.1, "vote_count": 2185, "popularity": 21.897}, {"adult": false, "backdrop_path": "/ph5fElfh4U7O3jwhFljxz2LDp1l.jpg", "genre_ids": [18, 36], "id": 375262, "original_language": "en", "original_title": "The Favourite", "overview": "England, early 18th century. The close relationship between Queen Anne and Sarah Churchill is threatened by the arrival of Sarah's cousin, Abigail Hill, resulting in a bitter rivalry between the two cousins to be the Queen's favourite.", "poster_path": "/cwBq0onfmeilU5xgqNNjJAMPfpw.jpg", "release_date": "2018-11-23", "title": "The Favourite", "video": false, "vote_average": 7.6, "vote_count": 2823, "popularity": 26.511}, {"id": 146, "video": false, "vote_count": 1770, "vote_average": 7.3, "title": "Crouching Tiger, Hidden Dragon", "release_date": "2000-07-06", "original_language": "zh", "original_title": "\u5367\u864e\u85cf\u9f99", "genre_ids": [28, 12, 18, 10749], "backdrop_path": "/dKenGLffFC9HwuxG4Sq7fJRkiFb.jpg", "adult": false, "overview": "Two warriors in pursuit of a stolen sword and a notorious fugitive are led to an impetuous, physically-skilled, teenage nobleman's daughter, who is at a crossroads in her life.", "poster_path": "/3yYPhffQRuy45HlNabFxNLyP9mg.jpg", "popularity": 17.675}, {"adult": false, "backdrop_path": "/lpyBAL1BgH9TScrIHVWkmw8zhzJ.jpg", "genre_ids": [18, 28, 36], "id": 454227, "original_language": "en", "original_title": "Outlaw King", "overview": "Forced into exile by the English after being crowned King of Scotland, legendary warrior Robert the Bruce fights to reclaim the throne.", "poster_path": "/rT49ousKUWN3dV7UlhaC9onTNdl.jpg", "release_date": "2018-11-09", "title": "Outlaw King", "video": false, "vote_average": 6.9, "vote_count": 769, "popularity": 14.475}, {"id": 346, "video": false, "vote_count": 1683, "vote_average": 8.4, "title": "Seven Samurai", "release_date": "1954-04-26", "original_language": "ja", "original_title": "\u4e03\u4eba\u306e\u4f8d", "genre_ids": [28, 18], "backdrop_path": "/61vLiK96sbXeHpQiMxI4CuqBA3z.jpg", "adult": false, "overview": "A samurai answers a village's request for protection after he falls on hard times. The town needs protection from bandits, so the samurai gathers six others to help him teach the people how to defend themselves, and the villagers provide the soldiers with food. A giant battle occurs when 40 bandits attack the village.", "poster_path": "/v6xrz4fr92KY1oNC3HsEvrsvR1n.jpg", "popularity": 25.105}, {"adult": false, "backdrop_path": "/GRyynLqafMrLFMHqvfGdUweavA.jpg", "genre_ids": [27, 18, 14], "id": 628, "original_language": "en", "original_title": "Interview with the Vampire", "overview": "A vampire relates his epic life story of love, betrayal, loneliness, and dark hunger to an over-curious reporter.", "poster_path": "/hldXwwViSfHJS0kIJr07KBGmHJI.jpg", "release_date": "1994-11-11", "title": "Interview with the Vampire", "video": false, "vote_average": 7.3, "vote_count": 3229, "popularity": 20.093}, {"id": 656968, "video": false, "vote_count": 23, "vote_average": 7.0, "title": "A Christmas Carol", "release_date": "2019-12-19", "original_language": "en", "original_title": "A Christmas Carol", "genre_ids": [18, 14], "backdrop_path": "/ubLsCmv36zUUt2zxhFSowYFe5uF.jpg", "adult": false, "overview": "London, 1843. Ebenezer Scrooge, a bitter old man, despises the Christmas holiday. Over the course of Christmas Eve night he is visited by three ghosts to show him his past, present and future.", "poster_path": "/tKW48tnZKaHLBIxxgoAf9BIpyRv.jpg", "popularity": 10.458}, {"id": 548, "video": false, "vote_count": 990, "vote_average": 8.2, "title": "Rashomon", "release_date": "1950-08-25", "original_language": "ja", "original_title": "\u7f85\u751f\u9580", "genre_ids": [80, 18, 9648], "backdrop_path": "/eGWc9KHURMRghR1bEj25hZNztNX.jpg", "adult": false, "overview": "Brimming with action while incisively examining the nature of truth, \"Rashomon\" is perhaps the finest film ever to investigate the philosophy of justice. Through an ingenious use of camera and flashbacks, Kurosawa reveals the complexities of human nature as four people recount different versions of the story of a man's murder and the rape of his wife.", "poster_path": "/mwWJuktWk8z5OY4og0z48Jg4u3n.jpg", "popularity": 14.25}, {"id": 531428, "video": false, "vote_count": 209, "vote_average": 8.4, "title": "Portrait of a Lady on Fire", "release_date": "2019-06-17", "original_language": "fr", "original_title": "Portrait de la jeune fille en feu", "genre_ids": [18, 10749], "backdrop_path": "/joXf2ToDZjVMBxWrzijQ3V9cC8p.jpg", "adult": false, "overview": "On an isolated island in Brittany at the end of the eighteenth century, a female painter is obliged to paint a wedding portrait of a young woman.", "poster_path": "/3NTEMlG5mQdIAlKDl3AJG0rX29Z.jpg", "popularity": 40.27}, {"id": 4348, "video": false, "vote_count": 3767, "vote_average": 7.9, "title": "Pride & Prejudice", "release_date": "2005-09-16", "original_language": "en", "original_title": "Pride & Prejudice", "genre_ids": [18, 10749], "backdrop_path": "/jusbnq1mqU80jW7xjTrAnN8lNGO.jpg", "adult": false, "overview": "A story of love and life among the landed English gentry during the Georgian era. Mr. Bennet is a gentleman living in Hertfordshire with his overbearing wife and five daughters, but if he dies their house will be inherited by a distant cousin whom they have never met, so the family's future happiness and security is dependent on the daughters making good marriages.", "poster_path": "/dAC0hkYmz5ZOCHURZCyj9isPMPd.jpg", "popularity": 19.308}], "total_pages": 30, "total_results": 597}, "recommendations": {"page": 1, "results": [], "total_pages": 1, "total_results": 0}, "credits": {"cast": [{"cast_id": 5, "character": "Kuranosuke \u00d4ishi", "credit_id": "58259c7a9251417b26008195", "gender": 2, "id": 97207, "name": "Kazuo Hasegawa", "order": 0, "profile_path": "/wrz22v0Yyy2FKIFusino9v5eeSH.jpg"}, {"cast_id": 21, "character": "Denpachir\u00f4 Tamon", "credit_id": "593c9167925141058f01527f", "gender": 2, "id": 1173583, "name": "Yataro Kurokawa", "order": 1, "profile_path": "/xUgqGiHX6g3nRDFNIEJcBsyamx.jpg"}, {"cast_id": 11, "character": "Day\u00fb Ukihashi", "credit_id": "58259cb29251417b260081ce", "gender": 1, "id": 108025, "name": "Michiyo Kogure", "order": 2, "profile_path": "/note2I9UhHyoakYOXPVW3WwZ01X.jpg"}, {"cast_id": 6, "character": "Genz\u00f4 Akagaki", "credit_id": "58259c839251417b2600819f", "gender": 2, "id": 80704, "name": "Shintar\u014d Katsu", "order": 3, "profile_path": "/ziw06aCqJi0UG4S6xiAadAkljor.jpg"}, {"cast_id": 18, "character": "Hy\u00f4bu Chisaka", "credit_id": "58259cf89251417b1d0080be", "gender": 2, "id": 97203, "name": "Eitar\u00f4 Ozawa", "order": 4, "profile_path": "/xWAn0r6pD2nbw3h7gcue9lmWvUI.jpg"}, {"cast_id": 19, "character": "J\u00fbbei \u00d4take", "credit_id": "58259d029251417b2100813a", "gender": 2, "id": 7453, "name": "Takashi Shimura", "order": 5, "profile_path": "/k8Ff4Nq2peKfiUpd8IILrSBM0ts.jpg"}, {"cast_id": 20, "character": "Kin'emon Okano", "credit_id": "58a5c8519251413cb6006b69", "gender": 2, "id": 108024, "name": "Koji Tsuruta", "order": 6, "profile_path": "/pbXRrMMu2OTnUuUWSLpLBx4hgzp.jpg"}, {"cast_id": 14, "character": "K\u00f4zukenosuke Kira", "credit_id": "58259cd29251417b2100811d", "gender": 2, "id": 131923, "name": "Osamu Takizawa", "order": 7, "profile_path": "/zFKK5v1WhdkxH7RWL07pNvaeDRB.jpg"}, {"cast_id": 13, "character": "Orin, Carpenter's Daughter", "credit_id": "58259cc89251417b260081df", "gender": 1, "id": 97210, "name": "Ayako Wakao", "order": 8, "profile_path": "/kwMVldJd2m4uy7L2rhmYGAQYden.jpg"}, {"cast_id": 9, "character": "Orui, Spy", "credit_id": "58259c9fc3a3680381002689", "gender": 1, "id": 7451, "name": "Machiko Ky\u014d", "order": 9, "profile_path": "/rWpsDPm87CQ3ekRuvDAqHBLf18a.jpg"}, {"cast_id": 12, "character": "Riku \u00d4ishi", "credit_id": "58259cbdc3a3683614007e89", "gender": 1, "id": 213495, "name": "Chikage Awashima", "order": 10, "profile_path": "/wEx5TrA1a2NibEPhiRXM8g6CGme.jpg"}, {"cast_id": 17, "character": "Shinzaemon Katsuta", "credit_id": "58259cef9251417b1a008105", "gender": 2, "id": 1056768, "name": "Keiz\u00f4 Kawasaki", "order": 11, "profile_path": "/ynXUoNoWmjNayEjri5d7ubt35k4.jpg"}, {"cast_id": 8, "character": "Takuminokami Asano", "credit_id": "58259c97c3a3683614007e67", "gender": 2, "id": 128022, "name": "Raiz\u014d Ichikawa", "order": 12, "profile_path": "/bIvf6ZJ5MQAMwQD7TPySBruTfMc.jpg"}, {"cast_id": 16, "character": "Tsunanori Uesugi", "credit_id": "58259ce69251417b1a0080fc", "gender": 2, "id": 89177, "name": "Eiji Funakoshi", "order": 13, "profile_path": "/vxYHK7vr0cLqq32YIhtewOMmRfe.jpg"}, {"cast_id": 10, "character": "Y\u00f4sen'in", "credit_id": "58259ca99251417b260081c1", "gender": 1, "id": 97209, "name": "Fujiko Yamamoto", "order": 14, "profile_path": "/9Yibp5YmxA84ZQNKC8jznKjQTdG.jpg"}], "crew": [{"credit_id": "5b6fbf53925141406a16c53f", "department": "Production", "gender": 2, "id": 7459, "job": "Producer", "name": "Masaichi Nagata", "profile_path": "/dPuhe47WZSUIu4IzFtrg8olqF9K.jpg"}, {"credit_id": "5b6fbf62925141406816bddf", "department": "Sound", "gender": 0, "id": 125001, "job": "Music", "name": "Ichir\u00f4 Sait\u00f4", "profile_path": null}, {"credit_id": "53159ade92514158a000025e", "department": "Writing", "gender": 0, "id": 227078, "job": "Screenplay", "name": "Fuji Yahiro", "profile_path": null}, {"credit_id": "53159b2292514158c5000258", "department": "Writing", "gender": 0, "id": 1073229, "job": "Screenplay", "name": "Kunio Watanabe", "profile_path": "/3DkkIK6frrIuLlo5KReCCx8e7TP.jpg"}, {"credit_id": "53159ac592514158c5000252", "department": "Directing", "gender": 0, "id": 1073229, "job": "Director", "name": "Kunio Watanabe", "profile_path": "/3DkkIK6frrIuLlo5KReCCx8e7TP.jpg"}, {"credit_id": "53159af5925141587700023e", "department": "Writing", "gender": 0, "id": 1298473, "job": "Screenplay", "name": "Toshio Tamikado", "profile_path": null}, {"credit_id": "53159b14925141586c000270", "department": "Writing", "gender": 0, "id": 1298474, "job": "Screenplay", "name": "Masaharu Matsumura", "profile_path": null}, {"credit_id": "5da9fb4db2681f001690c3c3", "department": "Costume & Make-Up", "gender": 1, "id": 1551749, "job": "Costume Design", "name": "Shima Yoshizane", "profile_path": null}, {"credit_id": "5b6fbff8c3a36818861b4976", "department": "Sound", "gender": 0, "id": 1552092, "job": "Sound Recordist", "name": "Masao \u00d4sumi", "profile_path": null}, {"credit_id": "5b6fbfa192514168b60dc67e", "department": "Crew", "gender": 0, "id": 1587950, "job": "Cinematography", "name": "Takashi Watanabe", "profile_path": null}]}}