{"adult": false, "backdrop_path": null, "belongs_to_collection": null, "budget": 0, "genres": [{"id": 10749, "name": "Romance"}, {"id": 18, "name": "Drama"}], "homepage": null, "id": 258360, "imdb_id": "tt0036490", "original_language": "fi", "original_title": "Valkoiset ruusut", "overview": "The uncredited adaptation of Stefan Zweig's novel (1922), made five years before Max Oph\u00fcls' more widely recognized Letter from an Unknown Woman (1948).", "popularity": 0.6, "poster_path": "/7g1XlTkfiDkU0dGeJItiwpLrlx5.jpg", "production_companies": [{"id": 12982, "logo_path": "/uxMOBCbDYQesyTz1TmR6OCqz8XH.png", "name": "Suomen Filmiteollisuus", "origin_country": "FI"}], "production_countries": [{"iso_3166_1": "FI", "name": "Finland"}], "release_date": "1943-09-12", "revenue": 0, "runtime": 102, "spoken_languages": [{"iso_639_1": "fi", "name": "suomi"}], "status": "Released", "tagline": "", "title": "White Roses", "video": false, "vote_average": 7.7, "vote_count": 3, "keywords": {"keywords": [{"id": 9840, "name": "romance"}]}, "similar": {"page": 1, "results": [{"id": 52345, "video": false, "vote_count": 221, "vote_average": 7.8, "title": "Lisbela and the Prisoner", "release_date": "2003-08-22", "original_language": "pt", "original_title": "Lisbela e o Prisioneiro", "genre_ids": [35, 10749], "backdrop_path": "/4KDlC0cZvR5LtszqjFhZcMzdiUD.jpg", "adult": false, "overview": "Lisbela is a young woman who loves going to the movies. Lel\u00e9u is a con man, going from town to town selling all sort of things and performing as master of ceremonies for some cheesy numbers, such as the woman who gets transformed into a gorilla. He gets involved with Linaura, a sexy and beautiful woman who happens to be the wife of the most frightening hitman of the place. The hitman finds out his wife's affair and goes after Lel\u00e9u, who has to leave in a hurry. In another town, he meets and falls instantly in love with Lisbela, who is engaged to Douglas, a hillbilly who tries hard to pass for a cosmopolitan Rio de Janeiro dweller.", "poster_path": "/9nlaRxQeYaMrVVANMppagFohCRP.jpg", "popularity": 1.042}, {"id": 521, "video": false, "vote_count": 1257, "vote_average": 8.0, "title": "Dial M for Murder", "release_date": "1954-05-29", "original_language": "en", "original_title": "Dial M for Murder", "genre_ids": [80, 18, 9648, 53], "backdrop_path": "/jVMlfESb0TJ29w8CUDDofEprMmn.jpg", "adult": false, "overview": "An ex-tennis pro carries out a plot to have his wife murdered after discovering she is having an affair, and assumes she will soon leave him for the other man anyway. When things go wrong, he improvises a new plan\u2014to frame her for murder instead.", "poster_path": "/xrpK1PyckNWmRxU4kZURfaCyboS.jpg", "popularity": 28.336}, {"adult": false, "backdrop_path": "/5OeY4U2rzePxWq2rkqMajUx2gz7.jpg", "genre_ids": [16, 10751, 12, 14, 10749], "id": 812, "original_language": "en", "original_title": "Aladdin", "overview": "Princess Jasmine grows tired of being forced to remain in the palace, so she sneaks out into the marketplace, in disguise, where she meets street-urchin Aladdin.  The couple falls in love, although Jasmine may only marry a prince.  After being thrown in jail, Aladdin becomes embroiled in a plot to find a mysterious lamp, with which the evil Jafar hopes to rule the land.", "poster_path": "/mjKozYRuHc9j7SmiXmbVmCiAM0A.jpg", "release_date": "1992-11-25", "title": "Aladdin", "video": false, "vote_average": 7.6, "vote_count": 7289, "popularity": 35.494}, {"id": 76492, "video": false, "vote_count": 5547, "vote_average": 6.9, "title": "Hotel Transylvania", "release_date": "2012-09-20", "original_language": "en", "original_title": "Hotel Transylvania", "genre_ids": [16, 35, 14, 10751], "backdrop_path": "/sETTal2HPPkUC3lWc27HL1AFu9C.jpg", "adult": false, "overview": "Welcome to Hotel Transylvania, Dracula's lavish five-stake resort, where monsters and their families can live it up and no humans are allowed. One special weekend, Dracula has invited all his best friends to celebrate his beloved daughter Mavis's 118th birthday. For Dracula catering to all of these legendary monsters is no problem but the party really starts when one ordinary guy stumbles into the hotel and changes everything!", "poster_path": "/9qugesYpAWHUpdrw2w8URSGkAPt.jpg", "popularity": 31.161}, {"id": 9051, "video": false, "vote_count": 115, "vote_average": 5.6, "title": "10", "release_date": "1979-10-04", "original_language": "en", "original_title": "10", "genre_ids": [35, 10749], "backdrop_path": "/f0KcQlWKQfgJxIV365TFaFyXUVT.jpg", "adult": false, "overview": "A Hollywood songwriter goes through a mid-life crisis and becomes infatuated with a sexy blonde newlywed.", "poster_path": "/7GGpt49Q2c98zVz514mHlRjCpGy.jpg", "popularity": 14.392}, {"adult": false, "backdrop_path": "/yl0siKWmGjnBcuCEacKyW0vHsWq.jpg", "genre_ids": [10749, 18], "id": 409387, "original_language": "ko", "original_title": "\uc815\uc0ac : \uacb0\ud63c \ub9d0\uace0 \uc5f0\uc560", "overview": "\"Getting married is crazy! I only want to be in relationships!\" The life story of a woman who doesn't want to settle for one man. Her mom nags at her to get married, her superior grills her to bring results and her boyfriend turns out to be married. Soo-kyeong comforts herself with some spicy food. One lonely birthday, she ends up having sex with the chef of the spicy food restaurant. They fit well mentally and physically so they get closer but Soo-kyeong rejects the chef's marriage proposal. The chef gets married with someone else and asks her, \"I got married with someone else like you said. Now will you have a relationship with me?\"", "poster_path": "/4hiv07Quj8A7J8onCIAjNCy62Er.jpg", "release_date": "2016-04-19", "title": "Sex: A Relationship and Not Marriage", "video": false, "vote_average": 7.7, "vote_count": 3, "popularity": 11.678}, {"id": 12531, "video": false, "vote_count": 91, "vote_average": 6.9, "title": "The Apartment", "release_date": "1996-07-27", "original_language": "fr", "original_title": "L'Appartement", "genre_ids": [18, 9648, 10749], "backdrop_path": "/64qyT8m4JQ6YODvXxtbHgKmXBX7.jpg", "adult": false, "overview": "A stylish suspense thriller that confounds the audience while presenting them with an extraordinary and elusive mystery. Max is a former playboy who has decided to settle down by marrying his current love, Muriel. However, during a business trip, Max catches a glimpse of the great lost love of his life, reviving his wanderlust and sending him off on a chase of the elusive Lisa, whom he had overheard suggesting to a friend that her lover, Daniel, had killed someone for her. Soon, Max is trying to unravel the mystery behind the suspicious death of Daniel's wife, which he hopes will lead him closer to Lisa.", "poster_path": "/1sqrQdQTn8jKLhUcPKfRVj639zA.jpg", "popularity": 19.17}, {"id": 50620, "video": false, "vote_count": 5631, "vote_average": 6.3, "title": "The Twilight Saga: Breaking Dawn - Part 2", "release_date": "2012-11-13", "original_language": "en", "original_title": "The Twilight Saga: Breaking Dawn - Part 2", "genre_ids": [12, 18, 14, 10749], "backdrop_path": "/xDWphxQqBfZJVlTrg6C0GQBSeUc.jpg", "adult": false, "overview": "After the birth of Renesmee, the Cullens gather other vampire clans in order to protect the child from a false allegation that puts the family in front of the Volturi.", "poster_path": "/kJQPygYB8aNEevZZHRifyYrAdU9.jpg", "popularity": 21.925}, {"id": 38, "video": false, "vote_count": 8445, "vote_average": 8.1, "title": "Eternal Sunshine of the Spotless Mind", "release_date": "2004-03-19", "original_language": "en", "original_title": "Eternal Sunshine of the Spotless Mind", "genre_ids": [18, 878, 10749], "backdrop_path": "/1dXTsaFxHoF9cas08UjAqE8NqOW.jpg", "adult": false, "overview": "Joel Barish, heartbroken that his girlfriend underwent a procedure to erase him from her memory, decides to do the same. However, as he watches his memories of her fade away, he realises that he still loves her, and may be too late to correct his mistake.", "poster_path": "/7y3eYvTsGjxPYDtSnumCLIMDkrV.jpg", "popularity": 22.427}, {"id": 1417, "video": false, "vote_count": 6621, "vote_average": 7.7, "title": "Pan's Labyrinth", "release_date": "2006-08-25", "original_language": "es", "original_title": "El laberinto del fauno", "genre_ids": [18, 14, 10752], "backdrop_path": "/4XP5kp70Pw01qpD6Gr0PQwy43Mr.jpg", "adult": false, "overview": "Living with her tyrannical stepfather in a new home with her pregnant mother, 10-year-old Ofelia feels alone until she explores a decaying labyrinth guarded by a mysterious faun who claims to know her destiny. If she wishes to return to her real father, Ofelia must complete three terrifying tasks.", "poster_path": "/t0TDsqbCTgSi0AL7k4baZrOYYhi.jpg", "popularity": 22.977}, {"id": 27022, "video": false, "vote_count": 3219, "vote_average": 6.0, "title": "The Sorcerer's Apprentice", "release_date": "2010-07-13", "original_language": "en", "original_title": "The Sorcerer's Apprentice", "genre_ids": [28, 12, 35, 18, 14], "backdrop_path": "/v0o9M1us65w1kDQp8Q6KnB5a11s.jpg", "adult": false, "overview": "Balthazar Blake is a master sorcerer in modern-day Manhattan trying to defend the city from his arch-nemesis, Maxim Horvath. Balthazar can't do it alone, so he recruits Dave Stutler, a seemingly average guy who demonstrates hidden potential, as his reluctant prot\u00e9g\u00e9. The sorcerer gives his unwilling accomplice a crash course in the art and science of magic, and together, these unlikely partners work to stop the forces of darkness.", "poster_path": "/ZNSrRpdJ6FjMy4Iu6JpRTJ5Q87.jpg", "popularity": 24.096}, {"id": 75780, "video": false, "vote_count": 4451, "vote_average": 6.4, "title": "Jack Reacher", "release_date": "2012-12-20", "original_language": "en", "original_title": "Jack Reacher", "genre_ids": [28, 80, 18, 53], "backdrop_path": "/ezXodpP429qK0Av89pVNlaXWJkQ.jpg", "adult": false, "overview": "When a gunman takes five lives with six shots, all evidence points to the suspect in custody. On interrogation, the suspect offers up a single note: \"Get Jack Reacher!\" So begins an extraordinary chase for the truth, pitting Jack Reacher against an unexpected enemy, with a skill for violence and a secret to keep.", "poster_path": "/mt0ELw83HIRgaKaDzhsDcIi0RnW.jpg", "popularity": 15.945}, {"id": 537915, "video": false, "vote_count": 2376, "vote_average": 6.0, "title": "After", "release_date": "2019-04-11", "original_language": "en", "original_title": "After", "genre_ids": [18, 10749], "backdrop_path": "/997ToEZvF2Obp9zNZbY5ELVnmrW.jpg", "adult": false, "overview": "Tessa Young is a dedicated student, dutiful daughter and loyal girlfriend to her high school sweetheart. Entering her first semester of college, Tessa's guarded world opens up when she meets Hardin Scott, a mysterious and brooding rebel who makes her question all she thought she knew about herself -- and what she wants out of life.", "poster_path": "/u3B2YKUjWABcxXZ6Nm9h10hLUbh.jpg", "popularity": 25.23}, {"adult": false, "backdrop_path": "/74Jh5SIWnKDwtusPfDP51EeCFHt.jpg", "genre_ids": [35, 10749], "id": 9576, "original_language": "en", "original_title": "Tootsie", "overview": "When struggling, out of work actor Michael Dorsey secretly adopts a female alter ego - Dorothy Michaels - in order to land a part in a daytime drama, he unwittingly becomes a feminist icon and ends up in a romantic pickle.", "poster_path": "/ngyCzZwb9y5sMUCig5JQT4Y33Q.jpg", "release_date": "1982-12-16", "title": "Tootsie", "video": false, "vote_average": 7.2, "vote_count": 915, "popularity": 9.882}, {"id": 293863, "video": false, "vote_count": 4195, "vote_average": 7.4, "title": "The Age of Adaline", "release_date": "2015-04-16", "original_language": "en", "original_title": "The Age of Adaline", "genre_ids": [18, 14, 10749], "backdrop_path": "/dgOosqHUPTrs9hDijYTnBNHYYib.jpg", "adult": false, "overview": "After 29-year-old Adaline recovers from a nearly lethal accident, she inexplicably stops growing older. As the years stretch on and on, Adaline keeps her secret to herself  until she meets a man who changes her life.", "poster_path": "/gEDGROZ4NQDlRjUPPSSyIf0hKvD.jpg", "popularity": 18.342}, {"adult": false, "backdrop_path": "/bQW1TnxHlmkWof0vsALj4HBkoxj.jpg", "genre_ids": [18, 10749], "id": 51828, "original_language": "en", "original_title": "One Day", "overview": "A romantic comedy centered on Dexter and Emma, who first meet during their graduation in 1988 and proceed to keep in touch regularly. The film follows what they do on July 15 annually, usually doing something together.", "poster_path": "/xzOz17yC3K6SZWtWylXimcHUqpD.jpg", "release_date": "2011-03-02", "title": "One Day", "video": false, "vote_average": 7.2, "vote_count": 2343, "popularity": 16.744}, {"adult": false, "backdrop_path": "/xC9cG6Wy6QbH2hoAx11xPPD995R.jpg", "genre_ids": [18, 10749], "id": 86331, "original_language": "fr", "original_title": "Q", "overview": "In a social context deteriorated by a countrywide economic crisis, the life of several people will be turned upside down after they meet Cecile, a character who symbolizes desire.", "poster_path": "/9Jg9s4yTEndNmy1SSXRF9jdxY9D.jpg", "release_date": "2011-09-14", "title": "Desire", "video": false, "vote_average": 4.6, "vote_count": 204, "popularity": 25.756}, {"adult": false, "backdrop_path": "/AqocxdL9luA7ALU0gGSHDzDy254.jpg", "genre_ids": [14, 16, 18, 878], "id": 14069, "original_language": "ja", "original_title": "\u6642\u3092\u304b\u3051\u308b\u5c11\u5973", "overview": "When 17-year-old Makoto Konno gains the ability to, quite literally, \"leap\" backwards through time, she immediately sets about improving her grades and preventing personal mishaps. However, she soon realises that changing the past isn't as simple as it seems, and eventually, will have to rely on her new powers to shape the future of herself and her friends.", "poster_path": "/7oNeWrsaiMGxCrvkWjQ56y6JN85.jpg", "release_date": "2006-07-15", "title": "The Girl Who Leapt Through Time", "video": false, "vote_average": 7.8, "vote_count": 1043, "popularity": 22.298}, {"id": 369885, "video": false, "vote_count": 3048, "vote_average": 6.7, "title": "Allied", "release_date": "2016-11-17", "original_language": "en", "original_title": "Allied", "genre_ids": [28, 18, 53, 10749, 10752], "backdrop_path": "/tC0tVH5KQhCwMlddnyA3iWOSuBA.jpg", "adult": false, "overview": "In 1942, an intelligence officer in North Africa encounters a female French Resistance fighter on a deadly mission behind enemy lines. When they reunite in London, their relationship is tested by the pressures of war.", "poster_path": "/nzXzLFTnd0Zb3ExfhOxlQgizgSu.jpg", "popularity": 29.818}, {"id": 295151, "video": false, "vote_count": 540, "vote_average": 6.2, "title": "Let It Snow", "release_date": "2019-11-08", "original_language": "en", "original_title": "Let It Snow", "genre_ids": [35, 10749], "backdrop_path": "/4oSRQ03nJjl8sZAPgIXgi51XZva.jpg", "adult": false, "overview": "When a huge blizzard (that doesn't show signs of stopping) hits, Gracetown is completely snowed in. But even though it's cold outside, things are heating up inside, proving that Christmas is magical when it comes to love.", "poster_path": "/rEVu3E1OhMPJeCAn9a6QLyVhZDj.jpg", "popularity": 16.181}], "total_pages": 264, "total_results": 5265}, "recommendations": {"page": 1, "results": [], "total_pages": 1, "total_results": 0}, "credits": {"cast": [{"cast_id": 0, "character": "Arvo Helavalta", "credit_id": "5319f53192514177b7002a8e", "gender": 2, "id": 1112524, "name": "Tauno Palo", "order": 1, "profile_path": "/hLePt8TcexDptLh2ZyaAKWXpsFt.jpg"}, {"cast_id": 1, "character": "Auli Ranta", "credit_id": "5319f53e92514177b1002ada", "gender": 1, "id": 1146493, "name": "Helena Kara", "order": 2, "profile_path": "/ghwBGaWVMZWi9ORfWqHLNvOSiw9.jpg"}, {"cast_id": 5, "character": "Severi, Helavalta's servant", "credit_id": "5a084bbc9251414bfa016fbb", "gender": 2, "id": 1517366, "name": "Aku Korhonen", "order": 3, "profile_path": "/pL9Ib6tSaIsbxLbUMAo1MruDmwk.jpg"}, {"cast_id": 6, "character": "Alma Ranta, Auli's mother", "credit_id": "5a084bc59251414c23017ae0", "gender": 0, "id": 1303536, "name": "Aino Lohikoski", "order": 4, "profile_path": null}, {"cast_id": 7, "character": "Janitor Enne", "credit_id": "5a084bd3c3a368341c0179bb", "gender": 0, "id": 1352106, "name": "Hugo Hyt\u00f6nen", "order": 5, "profile_path": null}, {"cast_id": 8, "character": "Ilona Enne", "credit_id": "5a084bde9251414bc2017e10", "gender": 0, "id": 1914732, "name": "Mervi J\u00e4rventaus", "order": 6, "profile_path": null}, {"cast_id": 9, "character": "Shopkeeper Antti Koskela", "credit_id": "5a084bebc3a36833ac0187b4", "gender": 0, "id": 1769827, "name": "Toppo Elonper\u00e4", "order": 7, "profile_path": null}, {"cast_id": 10, "character": "Irma, Arvo's mistress", "credit_id": "5a084bf69251414bd20173bc", "gender": 0, "id": 1922451, "name": "Ester Toivonen", "order": 8, "profile_path": null}, {"cast_id": 11, "character": "Mauno Kallio", "credit_id": "5a084c019251414c2d017563", "gender": 0, "id": 1066910, "name": "Ture Ara", "order": 9, "profile_path": null}], "crew": [{"credit_id": "5319f55292514177b1002add", "department": "Directing", "gender": 0, "id": 1119857, "job": "Director", "name": "Hannu Leminen", "profile_path": null}, {"credit_id": "5a084ba1c3a36833bf0199a2", "department": "Writing", "gender": 0, "id": 1119857, "job": "Writer", "name": "Hannu Leminen", "profile_path": null}, {"credit_id": "5a084ba99251414c2d0174fb", "department": "Writing", "gender": 0, "id": 1504333, "job": "Writer", "name": "Ilmari Unho", "profile_path": null}]}}