{"adult": false, "backdrop_path": "/pzLfXozJjgGpE7UoRg6BaAl1gl8.jpg", "belongs_to_collection": null, "budget": 0, "genres": [{"id": 99, "name": "Documentary"}], "homepage": "http://dogwoof.com/films/advanced-style", "id": 258358, "imdb_id": "tt3268030", "original_language": "en", "original_title": "Advanced Style", "overview": "Advanced Style examines the lives of seven unique New Yorkers whose eclectic personal style and vital spirit have guided their approach to aging. Based on Ari Seth Cohen\u2019s famed blog of the same name, this film paints intimate and colorful portraits of independent, stylish women aged 62 to 95 who are challenging conventional ideas about beauty, aging, and Western\u2019s culture\u2019s increasing obsession with youth.", "popularity": 4.757, "poster_path": "/uBLSNixo1wXKaJJJkTz0HJy0495.jpg", "production_companies": [], "production_countries": [{"iso_3166_1": "US", "name": "United States of America"}], "release_date": "2014-05-09", "revenue": 0, "runtime": 75, "spoken_languages": [{"iso_639_1": "en", "name": "English"}], "status": "Released", "tagline": "", "title": "Advanced Style", "video": false, "vote_average": 6.9, "vote_count": 15, "keywords": {"keywords": [{"id": 187056, "name": "woman director"}]}, "similar": {"page": 1, "results": [{"adult": false, "backdrop_path": "/cADbqsIoiDW7X3Myg9nz8eAuno5.jpg", "genre_ids": [18, 10749], "id": 10818, "original_language": "fr", "original_title": "Naissance des pieuvres", "overview": "Set during a sultry summer in a French suburb, Marie is desperate to join the local pool's synchronized swimming team, but is her interest solely for the sake of sport or for a chance to get close to Floriane, the bad girl of the team? Sciamma, and the two leads, capture the uncertainty of teenage sexuality with a sympathetic eye in this delicate drama of the angst of coming-of-age.", "poster_path": "/4jajELYrR4Xmv3CVoKnukRnALa2.jpg", "release_date": "2007-05-17", "title": "Water Lilies", "video": false, "vote_average": 6.1, "vote_count": 119, "popularity": 10.744}, {"adult": false, "backdrop_path": "/gZeJziVigmRqbkEZwKAtSqlLQ6s.jpg", "genre_ids": [18, 10749], "id": 370663, "original_language": "en", "original_title": "Below Her Mouth", "overview": "An unexpected affair quickly escalates into a heart-stopping reality for two women whose passionate connection changes their lives forever.", "poster_path": "/nTGbq37hYLuNy7YgMg0gVLma0NS.jpg", "release_date": "2016-09-10", "title": "Below Her Mouth", "video": false, "vote_average": 6.2, "vote_count": 456, "popularity": 22.676}, {"adult": false, "backdrop_path": "/knczzNAjBXzSYkeWxoT1u9VNmjR.jpg", "genre_ids": [10749, 18], "id": 258480, "original_language": "en", "original_title": "Carol", "overview": "In 1950s New York, a department-store clerk who dreams of a better life falls for an older, married woman.", "poster_path": "/AbKa7ANxmui0Jmhh7gV7OSELKIL.jpg", "release_date": "2015-11-20", "title": "Carol", "video": false, "vote_average": 7.4, "vote_count": 2182, "popularity": 14.185}, {"id": 9813, "video": false, "vote_count": 128, "vote_average": 6.1, "title": "The Quiet", "release_date": "2005-09-12", "original_language": "en", "original_title": "The Quiet", "genre_ids": [18, 53], "backdrop_path": "/6eyWAZA4CEidZW1xXnQ4vlYBXTP.jpg", "adult": false, "overview": "After her widowed father dies, deaf teenager Dot moves in with her godparents, Olivia and Paul Deer. The Deers' daughter, Nina, is openly hostile to Dot, but that does not prevent her from telling her secrets to her silent stepsister, including the fact that she wants to kill her lecherous father.", "poster_path": "/GEqIE9YlmygHVUfS64LW2cwAAM.jpg", "popularity": 13.948}, {"adult": false, "backdrop_path": "/g3LYarEY9LjB28Ct2trwFN72gqZ.jpg", "genre_ids": [35], "id": 437557, "original_language": "en", "original_title": "Blockers", "overview": "When three parents discover their daughters\u2019 pact to lose their virginity at prom, they launch a covert one-night operation to stop the teens from sealing the deal.", "poster_path": "/uvlUQXg0AlpGzKukO11K7QtW3Yu.jpg", "release_date": "2018-03-14", "title": "Blockers", "video": false, "vote_average": 6.2, "vote_count": 1153, "popularity": 18.075}, {"adult": false, "backdrop_path": "/fZ8oFcREAr6wgWcXISGql0xyxjB.jpg", "genre_ids": [35, 18], "id": 39781, "original_language": "en", "original_title": "The Kids Are All Right", "overview": "Two women, Nic and Jules, brought a son and daughter into the world through artificial insemination. When one of their children reaches age, both kids go behind their mothers' backs to meet with the donor. Life becomes so much more interesting when the father, two mothers and children start to become attached to each other.", "poster_path": "/fPDeK4MmoGfi2X0oWZev7LrbMqM.jpg", "release_date": "2010-07-09", "title": "The Kids Are All Right", "video": false, "vote_average": 6.6, "vote_count": 923, "popularity": 12.703}, {"adult": false, "backdrop_path": "/6tern9vOEwwmkDYC1vRCuO64z0C.jpg", "genre_ids": [10749, 18], "id": 475888, "original_language": "en", "original_title": "Tell It to the Bees", "overview": "Dr. Jean Markham returns to the town she left as a teenager to take over her late father's medical practice. When a school-yard scuffle lands Charlie in her surgery, she invites him to visit the hives in her garden and tell his secrets to the bees, as she once did. The new friendship between the boy and the bee keeper brings his mother Lydia into Jean's world.", "poster_path": "/Rj6zpHhMU1zFW3v28U4PSRSRgP.jpg", "release_date": "2019-05-03", "title": "Tell It to the Bees", "video": false, "vote_average": 6.4, "vote_count": 53, "popularity": 15.113}, {"adult": false, "backdrop_path": "/xOGEw8iywxcFMolV6SF6YdTdJTb.jpg", "genre_ids": [10402, 10749], "id": 52371, "original_language": "nl", "original_title": "LelleBelle", "overview": "19-year old Belle practices playing the violin diligently, but is unable to impart her music with a sensitive undertone. Her life changes when she discovers that sexual desire stimulates passion in her music.", "poster_path": "/nJVPgIq3icZMQ26p5uWIFdUZJfL.jpg", "release_date": "2010-10-08", "title": "LelleBelle", "video": false, "vote_average": 4.7, "vote_count": 41, "popularity": 13.931}, {"adult": false, "backdrop_path": "/dvQDRfv3qvfHNnVAR57ouVsuErf.jpg", "genre_ids": [10749, 18], "id": 28031, "original_language": "en", "original_title": "If These Walls Could Talk 2", "overview": "The stories of three lesbian couples -- who live in the same house at different periods of time -- who are at a crossroads in their lives. In 1961, Edith loses her lover, Abby, to a stroke. Linda and Amy struggle with feminist issues in 1972. And, in 2000, Kal and Fran try to have a baby with the help of sperm donor.", "poster_path": "/xs7ODbmYQXCDhvXNvz5tF17T59H.jpg", "release_date": "2000-03-05", "title": "If These Walls Could Talk 2", "video": false, "vote_average": 7.1, "vote_count": 55, "popularity": 8.062}, {"adult": false, "backdrop_path": "/rf6G51j0SZL0tP57I8gnqHTRFEr.jpg", "genre_ids": [35, 18, 10749], "id": 273153, "original_language": "fr", "original_title": "La belle saison", "overview": "In 1971, Carole and Delphine meet and fall in love in Paris. When Carole follows Delphine back to her family farm in Limousin, the two find lesbianism and feminism are not as easy in the countryside.", "poster_path": "/evvAkNMO5VJiy5qIo1Hu7fUfvVI.jpg", "release_date": "2015-08-19", "title": "Summertime", "video": false, "vote_average": 6.6, "vote_count": 162, "popularity": 15.434}, {"id": 616584, "video": false, "vote_count": 92, "vote_average": 7.5, "title": "K-12", "release_date": "2019-09-05", "original_language": "en", "original_title": "K-12", "genre_ids": [14, 27, 10402], "backdrop_path": "/fSlfaF0Ydfr2SK6hOYHvDsb7a9Z.jpg", "adult": false, "overview": "Cry Baby, a strong and sensitive girl, is sent off to a disturbing sleepaway school that\u2019s hidden underneath a grandiose fa\u00e7ade. Luckily, she has a sweet and unapologetic best friend who sticks up for her when she gets bullied by the other students whose brains are under control by the Principal and his wicked staff. With the help of the magical friends they meet along the way, as well as an Angelic Spirit Guide, they are able to gain the strength they need to fight off the school\u2019s belligerent patriarchal conditioning.", "poster_path": "/nVi0yBBPj5Z96JgGWVIg94kv7bR.jpg", "popularity": 18.105}, {"adult": false, "backdrop_path": "/caLMOD3ZJ3V7qjlxDXrzlJfBLgD.jpg", "genre_ids": [18, 10749], "id": 20, "original_language": "en", "original_title": "My Life Without Me", "overview": "A Pedro Almodovar production in which a fatally ill mother with only two months to live creates a list of things she wants to do before she dies with out telling her family of her illness.", "poster_path": "/vVj92VBFUBzjqzLvBiPVVlJDp78.jpg", "release_date": "2003-03-07", "title": "My Life Without Me", "video": false, "vote_average": 6.1, "vote_count": 220, "popularity": 9.208}, {"adult": false, "backdrop_path": "/useuHJQ5HOoEWkAvEjL1FW1sUfe.jpg", "genre_ids": [18], "id": 376867, "original_language": "en", "original_title": "Moonlight", "overview": "The tender, heartbreaking story of a young man\u2019s struggle to find himself, told across three defining chapters in his life as he experiences the ecstasy, pain, and beauty of falling in love, while grappling with his own sexuality.", "poster_path": "/qAwFbszz0kRyTuXmMeKQZCX3Q2O.jpg", "release_date": "2016-10-21", "title": "Moonlight", "video": false, "vote_average": 7.4, "vote_count": 4406, "popularity": 27.348}, {"id": 326359, "video": false, "vote_count": 1179, "vote_average": 6.8, "title": "Frozen Fever", "release_date": "2015-03-09", "original_language": "en", "original_title": "Frozen Fever", "genre_ids": [12, 16, 10751], "backdrop_path": "/ubioPGniCfDiASmYYpeJs5RRNaC.jpg", "adult": false, "overview": "On Anna's birthday, Elsa and Kristoff are determined to give her the best celebration ever, but Elsa's icy powers may put more than just the party at risk.", "poster_path": "/lKJiVPzsAO9IJ4LKWXZ8vkR2bg4.jpg", "popularity": 17.061}, {"adult": false, "backdrop_path": "/k8H7ye6Sab7OrDJoo8Qp5WFGHGk.jpg", "genre_ids": [35, 10749, 18], "id": 244264, "original_language": "en", "original_title": "Laggies", "overview": "Overeducated and underemployed, 28 year old Megan is in the throes of a quarterlife crisis. Squarely into adulthood with no career prospects, no particular motivation to think about her future and no one to relate to, Megan is comfortable lagging a few steps behind - while her friends check off milestones and celebrate their new grown-up status. When her high-school sweetheart proposes, Megan panics and- given an unexpected opportunity to escape for a week - hides out in the home of her new friend, 16-year old Annika and Annika's world-weary single dad Craig.", "poster_path": "/dNcoXoRC7JHiqbe7k5Ufo6syiPP.jpg", "release_date": "2014-09-25", "title": "Laggies", "video": false, "vote_average": 6.1, "vote_count": 787, "popularity": 9.883}, {"adult": false, "backdrop_path": "/ph5fElfh4U7O3jwhFljxz2LDp1l.jpg", "genre_ids": [18, 36], "id": 375262, "original_language": "en", "original_title": "The Favourite", "overview": "England, early 18th century. The close relationship between Queen Anne and Sarah Churchill is threatened by the arrival of Sarah's cousin, Abigail Hill, resulting in a bitter rivalry between the two cousins to be the Queen's favourite.", "poster_path": "/cwBq0onfmeilU5xgqNNjJAMPfpw.jpg", "release_date": "2018-11-23", "title": "The Favourite", "video": false, "vote_average": 7.6, "vote_count": 2823, "popularity": 26.511}, {"id": 297762, "video": false, "vote_count": 13717, "vote_average": 7.3, "title": "Wonder Woman", "release_date": "2017-05-30", "original_language": "en", "original_title": "Wonder Woman", "genre_ids": [28, 12, 14], "backdrop_path": "/6iUNJZymJBMXXriQyFZfLAKnjO6.jpg", "adult": false, "overview": "An Amazon princess comes to the world of Man in the grips of the First World War to confront the forces of evil and bring an end to human conflict.", "poster_path": "/gfJGlDaHuWimErCr5Ql0I8x9QSy.jpg", "popularity": 41.8}, {"id": 434714, "video": false, "vote_count": 32, "vote_average": 7.5, "title": "My Days of Mercy", "release_date": "2019-07-11", "original_language": "en", "original_title": "My Days of Mercy", "genre_ids": [18, 10749], "backdrop_path": "/7Lbzq33nMMIQtAfZAmSqG6ibLSg.jpg", "adult": false, "overview": "The daughter of a man on death row falls in love with a woman on the opposing side of her family's political cause.", "poster_path": "/adIPKAoKnKL9vCTkvfF4J9ZA7Ln.jpg", "popularity": 6.928}, {"adult": false, "backdrop_path": "/npClMhFGn4XUkwu6coq5oKAEu6L.jpg", "genre_ids": [35, 10749, 18], "id": 634, "original_language": "en", "original_title": "Bridget Jones's Diary", "overview": "A chaotic Bridget Jones meets a snobbish lawyer, and he soon enters her world of imperfections.", "poster_path": "/ym6kjFFZg6boC0QHBVw6hqJLbxv.jpg", "release_date": "2001-04-13", "title": "Bridget Jones's Diary", "video": false, "vote_average": 6.7, "vote_count": 3079, "popularity": 16.678}, {"adult": false, "backdrop_path": "/ojn7IYKmMt8HXRd6oLwY5pLGLVc.jpg", "genre_ids": [18, 10749], "id": 9587, "original_language": "en", "original_title": "Little Women", "overview": "With their father away as a chaplain in the Civil War, Jo, Meg, Beth and Amy grow up with their mother in somewhat reduced circumstances. They are a close family who inevitably have their squabbles and tragedies. But the bond holds even when, later, male friends start to become a part of the household.", "poster_path": "/tD9YDE8pjtSvvKUpkmooE6YDSm8.jpg", "release_date": "1994-12-21", "title": "Little Women", "video": false, "vote_average": 7.2, "vote_count": 574, "popularity": 24.712}], "total_pages": 1446, "total_results": 28908}, "recommendations": {"page": 1, "results": [{"adult": false, "backdrop_path": null, "genre_ids": [10749, 35, 18], "id": 333319, "original_language": "en", "original_title": "Ben's at Home", "overview": "Sex, love, break ups, turning 30, and staying in.", "poster_path": "/cAJVvwsegR5vAMtmlGLA5TcXPKb.jpg", "release_date": "2014-08-09", "title": "Ben's at Home", "video": false, "vote_average": 8.0, "vote_count": 3, "popularity": 2.263}, {"adult": false, "backdrop_path": "/e53dhmXy4IgtvTq7sc2uJBlskyQ.jpg", "genre_ids": [], "id": 349164, "original_language": "en", "original_title": "Neon", "overview": "A film celebrating the beauty and romance, the art and science of neon: visually stunning, one of the most environmentally friendly forms of lighting ever made, and endangered \u2013 LED is slowly but surely taking its place around the globe. Vivid, beautiful and insightful, Neon is the story of this noble element that has so profoundly coloured the modern world.", "poster_path": "/s2W1Ntdmv0xNDg7rgIyuumlUeYo.jpg", "release_date": "2016-06-02", "title": "Neon", "video": false, "vote_average": 7.6, "vote_count": 4, "popularity": 0.837}, {"adult": false, "backdrop_path": null, "genre_ids": [], "id": 118491, "original_language": "en", "original_title": "Annie's Coming Out", "overview": "It tells the story of a young female social worker who begins work at a hospital for retarded children, and discovers that some of the psychological problems attributed to these children are incorrectly diagnosed. Proving this to be the case is difficult, however, as it is generally accepted that as those who are 'profoundly retarded' cannot communicate, therefore they cannot think.  In the case of Annie O'Farrell (Tina Arhondis), finding a way for her to 'talk', other than speaking or writing, finally shows that she is not only able to think, but is highly intelligent. The battle against the hospital to acknowledge this in a legal sense goes to court, as the psychiatrists try to hide their misdiagnosis.", "poster_path": "/m5IcMHQOuoyz1RYaouGj3zti2mr.jpg", "release_date": "1984-09-27", "title": "Annie's Coming Out", "video": false, "vote_average": 6.6, "vote_count": 7, "popularity": 1.983}, {"adult": false, "backdrop_path": "/6kfPspqA8bxp7Znw5fyOFBj0Agr.jpg", "genre_ids": [16], "id": 217057, "original_language": "en", "original_title": "The Hero of Color City", "overview": "An imaginative tale chronicling the adventures of a diverse band of crayons as they strive to protect not only their magical multihued homeland but the imagination of children everywhere from a terrifying monster.", "poster_path": "/vanV7K0yPaBIFTWBdDIdy9bd1Qy.jpg", "release_date": "2014-10-03", "title": "The Hero of Color City", "video": false, "vote_average": 5.8, "vote_count": 10, "popularity": 5.954}, {"adult": false, "backdrop_path": null, "genre_ids": [99], "id": 224992, "original_language": "en", "original_title": "Chasing Beauty", "overview": "CHASING BEAUTY provides a rare glimpse into the intriguing and complex world of modeling. Behind the glossy covers of Vogue and Glamour lie the rarely talked about, uncensored stories of what models endure and sacrifice to become a top model. CHASING BEAUTY examines body image and the psychological effects of the beauty business on young women and men.", "poster_path": "/yeVN6rljLOipz38o2dM8mU86Uzk.jpg", "release_date": "2013-04-02", "title": "Chasing Beauty", "video": false, "vote_average": 6.3, "vote_count": 7, "popularity": 0.856}, {"adult": false, "backdrop_path": "/yuFGG9vW9ZTlvuVSyWDyIn4RJkE.jpg", "genre_ids": [99], "id": 262390, "original_language": "en", "original_title": "112 Weddings", "overview": "After two decades of filming weddings Doug had long wondered what became of those couples.. Are they still together? Is married life what they thought it would be? How have they navigated the inevitable ups and downs of marriage over the long haul? Driven by deep curiosity to answer these questions, he begins to track down and interview his wedding couples, juxtaposing wedding day flashbacks with present-day reality as he explores themes of love and marital commitment and to ask them all the same question: After years of being married, what would be your advice be for a young couple soon to be married?", "poster_path": "/eFVA9pldRBLvV1KGzsWgLbfEpLK.jpg", "release_date": "2014-06-13", "title": "112 Weddings", "video": false, "vote_average": 6.7, "vote_count": 6, "popularity": 2.955}, {"id": 455359, "video": false, "vote_count": 6, "vote_average": 7.2, "title": "Julian Schnabel: A Private Portrait", "release_date": "2017-05-05", "original_language": "en", "original_title": "Julian Schnabel: A Private Portrait", "genre_ids": [99], "backdrop_path": "/vXzsirg8KP3E7uCyAKSAxS2ZAJY.jpg", "adult": false, "overview": "A chronicle of the personal life and public career of the celebrated artist and filmmaker Julian Schnabel.", "poster_path": "/qU1OmOBz2GzZh2BQ9k0A8RZP4Sz.jpg", "popularity": 2.631}, {"adult": false, "backdrop_path": "/nCB7NLI0GN39wCkCzCQTOnvaTsS.jpg", "genre_ids": [], "id": 198318, "original_language": "en", "original_title": "Stress Position", "overview": "A psychological experiment between two friends spirals out of control. How bad could it be?", "poster_path": "/hdZJHcjnjXB8jeneLIasf55Wy91.jpg", "release_date": "2013-05-03", "title": "Stress Position", "video": false, "vote_average": 6.2, "vote_count": 5, "popularity": 2.21}, {"id": 358923, "video": false, "vote_count": 8, "vote_average": 7.1, "title": "The Music of Strangers: Yo-Yo Ma and the Silk Road Ensemble", "release_date": "2016-06-10", "original_language": "en", "original_title": "The Music of Strangers: Yo-Yo Ma and the Silk Road Ensemble", "genre_ids": [99, 10402], "backdrop_path": "/oJGTHBsXQHpXvi5UWDT5HjTojEb.jpg", "adult": false, "overview": "Follow several talented members of the ensemble as they gather in locations across the world, exploring the ways art can both preserve traditions and shape cultural evolution.", "poster_path": "/8YT7b6x2Sad9acCeWSzQXl0KymF.jpg", "popularity": 3.159}, {"adult": false, "backdrop_path": null, "genre_ids": [99], "id": 344753, "original_language": "en", "original_title": "King Georges", "overview": "French chef Georges Perrier tries to keep his internationally renowned restaurant relevant in the new culinary world.", "poster_path": "/3ugkKB5dgy3wMT2vObxyOEjOOp0.jpg", "release_date": "2015-04-11", "title": "King Georges", "video": false, "vote_average": 5.5, "vote_count": 9, "popularity": 4.254}, {"adult": false, "backdrop_path": "/zr2exAnBZOi5YqaDPKDR7P4bFEX.jpg", "genre_ids": [99], "id": 159166, "original_language": "en", "original_title": "Which Way Is The Front Line From Here? The Life and Time of Tim Hetherington", "overview": "A portrait of photographer Tim Hetherington's work in war zones around the world.", "poster_path": "/ycaS1Lz1TECS5f77Lh2IVKUakJD.jpg", "release_date": "2013-01-20", "title": "Which Way Is The Front Line From Here? The Life and Time of Tim Hetherington", "video": false, "vote_average": 7.9, "vote_count": 8, "popularity": 4.828}, {"adult": false, "backdrop_path": "/efxbnGNW43U3TyYqvMUwEW1c8cF.jpg", "genre_ids": [99], "id": 211085, "original_language": "en", "original_title": "Filthy Gorgeous: The Bob Guccione Story", "overview": "A look at the extraordinary world of Penthouse founder, visionary and provocateur Bob Guccione.", "poster_path": "/n6iMyjwM0mSkOKHZzPyy72TaHCV.jpg", "release_date": "2013-04-25", "title": "Filthy Gorgeous: The Bob Guccione Story", "video": false, "vote_average": 5.9, "vote_count": 7, "popularity": 3.344}, {"adult": false, "backdrop_path": "/w67d4saVd5CezcHDehx5K1m5DMo.jpg", "genre_ids": [99], "id": 147923, "original_language": "en", "original_title": "(A)sexual", "overview": "Facing a sex obsessed culture, a mountain of stereotypes and misconceptions, and a lack of social or scientific research, asexuals - people who experience no sexual attraction - struggle to claim their identity.", "poster_path": "/eSZjsHSPfGmjDyIOTrBckc2seM2.jpg", "release_date": "2011-01-01", "title": "(A)sexual", "video": false, "vote_average": 5.3, "vote_count": 13, "popularity": 3.095}, {"adult": false, "backdrop_path": "/osPI4Td5PXg7dRPQJi4rQBQRoNP.jpg", "genre_ids": [10749, 35], "id": 333287, "original_language": "en", "original_title": "Slow Learners", "overview": "High school guidance counselor Jeff, and his platonic friend and co-worker Anne are responsible, well intentioned, kind\u2026 and boring. They frustratingly watch on as their peers find love and companionship, while they continue to fail in spectacular fashion when it comes to romance. As they reach their loneliness breaking point they make a pact to forgo their familiar, vanilla personas in exchange for their unexplored, confident alter egos. They wave goodbye to Jeff\u2019s awkward all-male book club and Anne\u2019s flailing attempts to catch the eye of Jeff\u2019s sexy neighbor Max, and say hello to raucous summer nights filled with booze, dancing, and sex. Naturally things don\u2019t exactly go according to plan.", "poster_path": "/8TOkvnUg1RaUIUqOCuQrAen0cSh.jpg", "release_date": "2015-08-19", "title": "Slow Learners", "video": false, "vote_average": 5.8, "vote_count": 41, "popularity": 3.849}, {"adult": false, "backdrop_path": "/BXiiA9oHISgeMYtLCBv2zQjew3.jpg", "genre_ids": [99], "id": 424992, "original_language": "es", "original_title": "To Be a Miss", "overview": "In a country famous for its success in international beauty pageants, three young women are fighting to participate in their nation's most celebrated cultural institution. But obtaining a place in the Miss Venezuela contest is no easy task. Women must endure grueling diets, consent to intensive plastic surgery, and find the resources necessary to transform themselves from ordinary citizens into famous and illustrious Misses. To Be a Miss is a character-driven documentary that takes the viewer through the inner workings of Venezuela's renowned beauty factory, revealing the risks and rewards associated with this multi-billion dollar industry while exposing what nationalism, personal ambition, and the influence of mass media has meant for women in the country.", "poster_path": "/9ZTfAm53AYmC1pwFf9he0UTkVvL.jpg", "release_date": "2016-11-20", "title": "To Be a Miss", "video": false, "vote_average": 6.1, "vote_count": 8, "popularity": 0.956}, {"adult": false, "backdrop_path": null, "genre_ids": [18], "id": 337398, "original_language": "es", "original_title": "Todos se van", "overview": "In Cienfuegos in the 1980s, a poetic young girl tries to make sense of her parents' volatile separation while keenly observing the reality of Cuba's dilemmas.", "poster_path": "/uOQVPZpJG5HxJxMlhTTqMrzjEDc.jpg", "release_date": "2015-04-25", "title": "Everybody Leaves", "video": false, "vote_average": 6.7, "vote_count": 10, "popularity": 2.572}, {"adult": false, "backdrop_path": "/bovKZGy48BcQrbS8CkD600O7Rcw.jpg", "genre_ids": [99], "id": 257249, "original_language": "en", "original_title": "The Human Experiment", "overview": "A documentary that explores the potential dangers of toxic chemicals in consumer products and the recent spike in unexplained health phenomena.", "poster_path": "/uJv33iSMlVso2eNMS57p39C1kFj.jpg", "release_date": "2013-11-23", "title": "The Human Experiment", "video": false, "vote_average": 6.6, "vote_count": 10, "popularity": 4.886}, {"id": 352960, "video": false, "vote_count": 11, "vote_average": 5.3, "title": "Lace Crater", "release_date": "2015-09-10", "original_language": "en", "original_title": "Lace Crater", "genre_ids": [35, 18, 14, 27], "backdrop_path": "/5XIFYbLRucwcrEmM6voi2h3mLXN.jpg", "adult": false, "overview": "A woman encounters a strange presence in a guest house.", "poster_path": "/dQfXjgKYayelAJvZBo3r3we1Qjf.jpg", "popularity": 4.964}, {"adult": false, "backdrop_path": "/bA6yTgS6riALSssFSQ7SohZoXbR.jpg", "genre_ids": [35], "id": 347627, "original_language": "en", "original_title": "I Love You Both", "overview": "Krystal and her twin brother/roommate confront twenty-eight years of their codependency when they start dating the same guy.", "poster_path": "/lqfXCKIvQ1I9FBKL7sfOD9NsOv6.jpg", "release_date": "2017-06-09", "title": "I Love You Both", "video": false, "vote_average": 4.5, "vote_count": 6, "popularity": 3.448}, {"adult": false, "backdrop_path": "/bh8pD7cyZ5W4KVMzJMNm4iDlcw6.jpg", "genre_ids": [99], "id": 176182, "original_language": "en", "original_title": "The Human Scale", "overview": "50 % of the world\u2019s population lives in urban areas. By 2050 this will increase to 80%. Life in a mega city is both enchanting and problematic. Today we face peak oil, climate change, loneliness and severe health issues due to our way of life. But why? The Danish architect and professor Jan Gehl has studied human behavior in cities through 40 years. He has documented how modern cities repel human interaction, and argues that we can build cities in a way, which takes human needs for inclusion and intimacy into account.", "poster_path": "/aRcrMjCefLXjYidGyXnPWvZsRMy.jpg", "release_date": "2013-02-20", "title": "The Human Scale", "video": false, "vote_average": 6.5, "vote_count": 12, "popularity": 2.542}], "total_pages": 2, "total_results": 23}, "credits": {"cast": [{"cast_id": 3, "character": "", "credit_id": "5319f634c3a3685c37003315", "gender": 0, "id": 1299375, "name": "Tziporah Salamon", "order": 1, "profile_path": null}, {"cast_id": 4, "character": "", "credit_id": "5319f63fc3a3685c56003316", "gender": 0, "id": 1299376, "name": "Jacquie Murdock", "order": 2, "profile_path": null}, {"cast_id": 5, "character": "", "credit_id": "5319f649c3a3685c5d0032dd", "gender": 0, "id": 1299377, "name": "Joyce Carpati", "order": 3, "profile_path": null}, {"cast_id": 7, "character": "", "credit_id": "5319f663c3a3685c4a00347c", "gender": 0, "id": 1299378, "name": "Ilona Smithkin", "order": 5, "profile_path": null}, {"cast_id": 8, "character": "", "credit_id": "5319f66ec3a3685c3700331e", "gender": 0, "id": 1299379, "name": "Debra Rapoport", "order": 6, "profile_path": null}, {"cast_id": 13, "character": "", "credit_id": "57b1fc6dc3a36869e50009be", "gender": 0, "id": 1666683, "name": "Ari Seth Cohen", "order": 7, "profile_path": null}], "crew": [{"credit_id": "57b1fb75c3a36874790060d4", "department": "Directing", "gender": 0, "id": 1666682, "job": "Director", "name": "Lina Plioplyte", "profile_path": null}, {"credit_id": "57b1fbfa9251414790002da2", "department": "Writing", "gender": 0, "id": 1666683, "job": "Writer", "name": "Ari Seth Cohen", "profile_path": null}, {"credit_id": "57b1fc1fc3a36835340049b2", "department": "Production", "gender": 0, "id": 1666683, "job": "Producer", "name": "Ari Seth Cohen", "profile_path": null}, {"credit_id": "57b1fc059251414784002e12", "department": "Writing", "gender": 0, "id": 1666682, "job": "Writer", "name": "Lina Plioplyte", "profile_path": null}]}}