{"adult": false, "backdrop_path": "/ewzgEbDgEhq53Yz0WsejcS7T50.jpg", "belongs_to_collection": null, "budget": 0, "genres": [{"id": 99, "name": "Documentary"}], "homepage": null, "id": 259180, "imdb_id": "tt0378936", "original_language": "en", "original_title": "Den umulige time", "overview": "The Impossible Hour is a concentrated study of Ole Ritter's attempt in Mexico City in 1974 to set a new record for the hour - described in the film as \"the noblest, most difficult record that can be set on a bicycle\". A brief retrospective in black and white sets the historical framework, with shots of Ritter and Eddy Merckx' successful record attempts in 1968 and 1972 respectively, and a few words about former record holders such as Fausto Coppi.The film follows Ritter's three record attempts chronologically, which, accompanied by a Mexican marching band on the bandstand, all fail.", "popularity": 0.74, "poster_path": "/6vxM3Shr1iR6CirwR8p9GqQTWoI.jpg", "production_companies": [], "production_countries": [{"iso_3166_1": "DK", "name": "Denmark"}, {"iso_3166_1": "MX", "name": "Mexico"}], "release_date": "1974-03-08", "revenue": 0, "runtime": 45, "spoken_languages": [{"iso_639_1": "en", "name": "English"}], "status": "Released", "tagline": "", "title": "The Impossible Hour", "video": false, "vote_average": 6.0, "vote_count": 3, "keywords": {"keywords": [{"id": 159290, "name": "sports history"}, {"id": 180491, "name": "cycling"}]}, "similar": {"page": 1, "results": [{"id": 49526, "video": false, "vote_count": 1336, "vote_average": 6.3, "title": "Premium Rush", "release_date": "2012-08-24", "original_language": "en", "original_title": "Premium Rush", "genre_ids": [28, 80, 53], "backdrop_path": "/Yavh2wmlZKFcqT4VIr2i4OZ4lZ.jpg", "adult": false, "overview": "In Manhattan, a bike messenger picks up an envelope that attracts the interest of a dirty cop, who pursues the cyclist throughout the city.", "poster_path": "/khfyc8Yeub0JvD9kk29vqYsPsIi.jpg", "popularity": 11.224}, {"id": 595931, "video": false, "vote_count": 0, "vote_average": 0.0, "title": "The Climb", "release_date": "2020-03-20", "original_language": "en", "original_title": "The Climb", "genre_ids": [35, 18], "backdrop_path": null, "adult": false, "overview": "A look at the friendship between two guys that spans over many years.", "poster_path": "/3gTC706L95UfJ7MCl7yryIiOer1.jpg", "popularity": 2.96}, {"id": 9662, "video": false, "vote_count": 503, "vote_average": 7.4, "title": "The Triplets of Belleville", "release_date": "2003-06-11", "original_language": "fr", "original_title": "Les Triplettes de Belleville", "genre_ids": [16, 35, 18], "backdrop_path": "/qBRwRxhUszKvcHQxMiimuax6U2e.jpg", "adult": false, "overview": "When her grandson is kidnapped during the Tour de France, Madame Souza and her beloved pooch Bruno team up with the Belleville Sisters--an aged song-and-dance team from the days of Fred Astaire--to rescue him.", "poster_path": "/A8aSp63Xi4cnip3wAhk7Jml1uWG.jpg", "popularity": 9.672}, {"id": 20283, "video": false, "vote_count": 131, "vote_average": 7.3, "title": "Breaking Away", "release_date": "1979-05-24", "original_language": "en", "original_title": "Breaking Away", "genre_ids": [35, 18], "backdrop_path": "/t1Grxk1h11H2yuDMSFief7J5ZFd.jpg", "adult": false, "overview": "Dave, nineteen, has just graduated high school, with his 3 friends, The comical Cyril, the warm hearted but short-tempered Moocher, and the athletic, spiteful but good-hearted Mike. Now, Dave enjoys racing bikes and hopes to race the Italians one day, and even takes up the Italian culture, much to his friends and parents annoyance.", "poster_path": "/6fyhA7Imqxm7SftTqd4RGcayWfn.jpg", "popularity": 10.38}, {"id": 271736, "video": false, "vote_count": 316, "vote_average": 6.4, "title": "The Program", "release_date": "2015-09-16", "original_language": "en", "original_title": "The Program", "genre_ids": [18], "backdrop_path": "/8lH87ItT54PD3SINsGR78lxJNw8.jpg", "adult": false, "overview": "An Irish sports journalist becomes convinced that Lance Armstrong's performances during the Tour de France victories are fueled by banned substances. With this conviction, he starts hunting for evidence that will expose Armstrong.", "poster_path": "/w8sBqGSko8OBsKbK6z7gPvRfp7F.jpg", "popularity": 8.491}, {"id": 10548, "video": false, "vote_count": 113, "vote_average": 7.7, "title": "When We Were Kings", "release_date": "1996-10-25", "original_language": "en", "original_title": "When We Were Kings", "genre_ids": [99], "backdrop_path": "/f6SSam3qrMz5y8Yrc0SqvWCpsQY.jpg", "adult": false, "overview": "It's 1974. Muhammad Ali is 32 and thought by many to be past his prime. George Foreman is ten years younger and the heavyweight champion of the world. Promoter Don King wants to make a name for himself and offers both fighters five million dollars apiece to fight one another, and when they accept, King has only to come up with the money. He finds a willing backer in Mobutu Sese Suko, the dictator of Zaire, and the \"Rumble in the Jungle\" is set, including a musical festival featuring some of America's top black performers, like James Brown and B.B. King.", "poster_path": "/wAw3KIEuQGIwhCBWtvWFQRItz0d.jpg", "popularity": 7.265}, {"id": 117974, "video": false, "vote_count": 288, "vote_average": 6.4, "title": "Sightseers", "release_date": "2012-11-30", "original_language": "en", "original_title": "Sightseers", "genre_ids": [12, 35, 80], "backdrop_path": "/xSW4TN3AnzlFBtNGF7XQrTTRjdO.jpg", "adult": false, "overview": "Chris wants to show girlfriend Tina his world, but events soon conspire against the couple and their dream caravan holiday takes a very wrong turn.", "poster_path": "/zyXbeDmxPMbEhoOtzyIBPmGMe8x.jpg", "popularity": 8.16}, {"id": 62441, "video": false, "vote_count": 77, "vote_average": 7.1, "title": "United", "release_date": "2011-01-02", "original_language": "en", "original_title": "United", "genre_ids": [18, 36], "backdrop_path": "/eGGupRhdg24ja7ElQ25m5SbVcV3.jpg", "adult": false, "overview": "United is based on the true story of Manchester United's legendary \"Busby Babes\", the youngest side ever to win the Football League and the 1958 Munich Air Crash that claimed eight of the their number. The film draws on first-hand interviews with the survivors and their families to tell the inspirational story of a team and community overcoming terrible tragedy.", "poster_path": "/frL0MnO0v0VxvtNCFup8MaRoAmC.jpg", "popularity": 7.277}, {"id": 15008, "video": false, "vote_count": 26, "vote_average": 6.8, "title": "The Flying Scotsman", "release_date": "2006-08-16", "original_language": "en", "original_title": "The Flying Scotsman", "genre_ids": [18], "backdrop_path": "/trslR2V7kdSwZ76L2bRxO5ilMqJ.jpg", "adult": false, "overview": "Based on the incredible true story of amateur cyclist Graeme Obree, who breaks the world one-hour record on a bike he made out of washing machine parts.", "poster_path": "/wyfs641iqLAXObNZvYR2dSMkVhr.jpg", "popularity": 4.299}, {"id": 81228, "video": false, "vote_count": 2, "vote_average": 7.5, "title": "From the Inside Out", "release_date": "2011-12-01", "original_language": "en", "original_title": "From the Inside Out", "genre_ids": [99], "backdrop_path": "/mn4kIiyyH2O5hPyCTI2Dsp88GTc.jpg", "adult": false, "overview": "We live for the pursuit of the unknown. The anticipation of what the future holds. The untapped potential of what lies ahead. The finish line is only a starting point for a new adventure. What happens in between is where the real action is. Our mission is to document the future of mountain biking as it unfolds in real time. We capture the true lifestyle that intersects our lives as professional mountain bikers, builders and filmmakers, concocting a unique chemistry of filmic goodness. Many past films, riders, and locations have inspired us. Some of those locations are now our backyards, and some of those riders are now our friends. From the Inside Out is our adventure to the places we've always wanted to ride, and our expression of the lines and styles that have influenced us. This is freeride mountain biking. This film is from us \u2013 the riders.", "poster_path": "/vWQU7HaKBNfxC4VP6TErCvxwV7v.jpg", "popularity": 1.277}, {"adult": false, "backdrop_path": "/6LGlXuwUNX7YNwgUyzxfvU7nECC.jpg", "genre_ids": [12, 80, 18], "id": 17381, "original_language": "en", "original_title": "BMX Bandits", "overview": "Teens P.J. and Goose get their thrills on BMX bikes, performing hair-raising tricks all across Sydney, Australia. Along with their new friend Judy, they discover a box of walkie-talkies -- and find out that a gang of criminals intends to use them to monitor police signals during a bank robbery. When the young trio snatches the devices, it propels them on a hair-raising adventure in which their pedaling skills might just save their necks.", "poster_path": "/8cw5DA1rhiEnal1e2Kb8PxZOLER.jpg", "release_date": "1983-12-29", "title": "BMX Bandits", "video": false, "vote_average": 5.7, "vote_count": 60, "popularity": 7.622}, {"adult": false, "backdrop_path": "/zEpOLEUDFiJqXznNAb6Lwa7iJP.jpg", "genre_ids": [36, 28, 18], "id": 206324, "original_language": "hi", "original_title": "\u092d\u093e\u0917 \u092e\u093f\u0932\u094d\u0916\u093e \u092d\u093e\u0917", "overview": "The true story of the \"Flying Sikh\" world champion runner and Olympian Milkha Singh who overcame the massacre of his family, civil war during the India-Pakistan partition, and homelessness to become one of India's most iconic athletes.", "poster_path": "/nlshypM4QQfTqGcKHSMP2AAoMHC.jpg", "release_date": "2013-07-12", "title": "Bhaag Milkha Bhaag", "video": false, "vote_average": 7.6, "vote_count": 121, "popularity": 7.288}, {"id": 161594, "video": false, "vote_count": 15, "vote_average": 5.2, "title": "Buffalo Dreams", "release_date": "2005-09-12", "original_language": "en", "original_title": "Buffalo Dreams", "genre_ids": [18, 10751, 10770], "backdrop_path": "/tF8qRpjpkUzdw4GSrXSTgy5Qs7F.jpg", "adult": false, "overview": "Josh Townsend finds himself living in New Mexico after his father's new job requires the family to move from their home in Utah. While acclimating to his new surroundings, Josh becomes involved with a group of teens attempting to preserve the buffalo and Navajo traditions. Along the way he makes friends and learns important lessons about life in this Disney Channel Original movie.", "poster_path": "/2JHHAruNoAGc0iaM5GHNtIA5i3g.jpg", "popularity": 4.533}, {"id": 21332, "video": false, "vote_count": 46, "vote_average": 5.7, "title": "Quicksilver", "release_date": "1986-02-14", "original_language": "en", "original_title": "Quicksilver", "genre_ids": [28, 12, 18], "backdrop_path": "/fgp1ol2U0fVDr908iF0ls4zTfzn.jpg", "adult": false, "overview": "Jack Casey ('Kevin Bacon' )used to be a hot-shot stock market whiz kid. After a disastrous professional decision, his life in the fast lane is over. He loses his nerve and joins a speed delivery firm which relies on bicycles to avoid traffic jams of San Francisco, is attracted to a fellow bicycler, Terri, and befriends Hector, a budding entrepreneur. Can Jack regain his nerve and his self-respect, and rebuild his life on a more sound basis?", "poster_path": "/hr07rhBaNlNqcpHbMZZ81T7J5yv.jpg", "popularity": 4.819}, {"id": 51992, "video": false, "vote_count": 42, "vote_average": 6.9, "title": "And Soon the Darkness", "release_date": "1970-09-10", "original_language": "en", "original_title": "And Soon the Darkness", "genre_ids": [27, 9648, 53], "backdrop_path": "/o2veMC5GcFcJwpM7hXIvYDmizo2.jpg", "adult": false, "overview": "Two young English women go on a cycling tour of the French countryside. When one of them goes missing, the other begins to search for her. But who can she trust?", "poster_path": "/r2ztVT5hUCM2okTH9CxwKYLvYJr.jpg", "popularity": 5.193}, {"adult": false, "backdrop_path": "/1zDvDOZSUw1nWLggz4G3VmC3PRm.jpg", "genre_ids": [18], "id": 14040, "original_language": "en", "original_title": "American Flyers", "overview": "When Dr. Marcus Sommers realizes that he and his troubled, estranged brother David may be prone a fatal brain disease that runs in their family, he decides to make peace with his sibling, and invites him on a trip to the Rockies. There, the brothers bond over their shared enthusiasm for cycling and decide to enter a grueling bike race through the mountains. However, Marcus' health soon begins to fail, and David must compete without his brother at his side.", "poster_path": "/cK2W0rjWXTC07IckhSB06GCVUVt.jpg", "release_date": "1985-08-16", "title": "American Flyers", "video": false, "vote_average": 6.2, "vote_count": 49, "popularity": 5.409}, {"adult": false, "backdrop_path": "/oi5odx9W1EctHer1q4fb1kGQsCI.jpg", "genre_ids": [99], "id": 616679, "original_language": "en", "original_title": "Return to Earth", "overview": "A cinematic mountain-bike film. Featuring some of the sports biggest athletes. The ninth feature from award-winning adventure filmmakers Anthill Films. Return to Earth proves that when we lose track of time, we can make the most of it.", "poster_path": "/6WoBnMNilU25oHFcrRLxKLg7OiK.jpg", "release_date": "2019-07-16", "title": "Return to Earth", "video": false, "vote_average": 8.0, "vote_count": 1, "popularity": 3.759}, {"adult": false, "backdrop_path": "/e1MhYuYHgoJq8yhom9IRxVVjIPt.jpg", "genre_ids": [99], "id": 51299, "original_language": "en", "original_title": "Life Cycles", "overview": "Life Cycles tells a spectacular story of the bike, from its creation to its eventual demise. A visually stunning journey, with thought provoking narration, Life Cycles uses Ultra HD to document the many stories surrounding the mountain bike and its culture. Ride along into breath taking natural settings, as we battle the elements, showcase the progression of riding, take a road trip, fix the bike, and show the destruction and eventual creation of trails. Semenuk, Hopkins, Schwartz, McIntosh, McCaul Agassiz, Hunter and Vanderham guide you through this wonderful story. Life Cycles is a celebration of the bicycle, and is sure to entertain anyone who has ever ridden one.", "poster_path": "/6t9CDzKL4uw1qWLroMxF3Hlfw0L.jpg", "release_date": "2010-10-02", "title": "Life Cycles", "video": false, "vote_average": 8.6, "vote_count": 33, "popularity": 4.328}, {"id": 63893, "video": false, "vote_count": 10, "vote_average": 6.4, "title": "Vive Le Tour!", "release_date": "1962-01-01", "original_language": "fr", "original_title": "Vive Le Tour!", "genre_ids": [], "backdrop_path": "/ydFrP9BhCMZwVUbvmSDeSTxMtzB.jpg", "adult": false, "overview": "A short documentary about the 1962 Tour-de-France. Topics covered include: crowds of people and motorcycles, drinking raids and feeding, pileups, doping, \"the charge,\" and the mountain stages.", "poster_path": "/iNbxpynL6jp5Vsdm6eiu5AT9ANJ.jpg", "popularity": 2.878}, {"adult": false, "backdrop_path": null, "genre_ids": [99], "id": 436211, "original_language": "en", "original_title": "Super8 Illusionary Lines", "overview": "Every World Cup, Every winner.The next in the Super8 series, only bigger and better. Illusionary Lines has been with the World Cup circus for the entire journey capturing every winner of a World Cup ripping in an isolated and unique part of the globe.  Travel to Africa, Australia, Austria, Brazil, Canada, Finland (Arctic circle), Germany, New Zealand, Scotland, Spain and Switzerland in a never ending journey to find the Illusionary Line.", "poster_path": "/8BTFpH0o8RSEaOz8WiGKU5w6oAJ.jpg", "release_date": "2007-04-26", "title": "Super8 Illusionary Lines", "video": false, "vote_average": 0.0, "vote_count": 0, "popularity": 0.6}], "total_pages": 10, "total_results": 190}, "recommendations": {"page": 1, "results": [], "total_pages": 1, "total_results": 0}, "credits": {"cast": [{"cast_id": 0, "character": "Himself", "credit_id": "5322fca1c3a3685754004f32", "gender": 0, "id": 575723, "name": "Ole Ritter", "order": 1, "profile_path": "/rcssf3H4q51hxzl99eQShCrPSDG.jpg"}], "crew": [{"credit_id": "5322fcf9c3a368574d005310", "department": "Directing", "gender": 2, "id": 72343, "job": "Director", "name": "J\u00f8rgen Leth", "profile_path": "/qNYYt61o85vf6Zhoa5OSTwZU9bw.jpg"}, {"credit_id": "5322fd3dc3a36828ba003912", "department": "Production", "gender": 2, "id": 72343, "job": "Producer", "name": "J\u00f8rgen Leth", "profile_path": "/qNYYt61o85vf6Zhoa5OSTwZU9bw.jpg"}, {"credit_id": "5322fde1c3a36824b5003ecf", "department": "Sound", "gender": 0, "id": 1300929, "job": "Sound Engineer", "name": "Ezcar Traven", "profile_path": null}, {"credit_id": "54ec666ac3a3680be60014e1", "department": "Editing", "gender": 0, "id": 1634, "job": "Editor", "name": "Anders Refn", "profile_path": null}, {"credit_id": "54ec667792514112d80013c1", "department": "Camera", "gender": 0, "id": 1300927, "job": "Director of Photography", "name": "J.M. Berasaluce", "profile_path": null}]}}