{"adult": false, "backdrop_path": null, "belongs_to_collection": null, "budget": 0, "genres": [{"id": 18, "name": "Drama"}, {"id": 10749, "name": "Romance"}], "homepage": null, "id": 259550, "imdb_id": "tt0065133", "original_language": "en", "original_title": "Two Gentlemen Sharing", "overview": "An insecure Briton and a Briton of Jamaican descent share a London apartment together.", "popularity": 0.954, "poster_path": "/lxWfEq7AoWvUZaqxMPQUX0rHfNm.jpg", "production_companies": [{"id": 71751, "logo_path": null, "name": "J. Barry Kulick Production", "origin_country": ""}], "production_countries": [{"iso_3166_1": "GB", "name": "United Kingdom"}], "release_date": "1969-09-17", "revenue": 0, "runtime": 112, "spoken_languages": [{"iso_639_1": "en", "name": "English"}], "status": "Released", "tagline": "A Curious Love Story! They were as different as BLACK and WHITE... but they had one thing in common!", "title": "Two Gentlemen Sharing", "video": false, "vote_average": 4.0, "vote_count": 1, "keywords": {"keywords": [{"id": 12425, "name": "racism"}, {"id": 14514, "name": "class differences"}]}, "similar": {"page": 1, "results": [{"id": 29478, "video": false, "vote_count": 46, "vote_average": 7.5, "title": "A Raisin in the Sun", "release_date": "1961-05-28", "original_language": "en", "original_title": "A Raisin in the Sun", "genre_ids": [18, 10749], "backdrop_path": "/wiCuQXP8vJBfQuXl7kTSgfFcs8F.jpg", "adult": false, "overview": "Walter Lee Younger is a young man struggling with his station in life. Sharing a tiny apartment with his wife, son, sister and mother, he seems like an imprisoned man. Until, that is, the family gets an unexpected financial windfall.", "poster_path": "/g0dQDvuUgHtdtZK5Zb4440ISF0V.jpg", "popularity": 5.995}, {"adult": false, "backdrop_path": "/aRP8QAOhnthglsTUzeLWwoPVV1T.jpg", "genre_ids": [18, 36], "id": 381284, "original_language": "en", "original_title": "Hidden Figures", "overview": "The untold story of Katherine G. Johnson, Dorothy Vaughan and Mary Jackson \u2013 brilliant African-American women working at NASA and serving as the brains behind one of the greatest operations in history \u2013 the launch of astronaut John Glenn into orbit. The visionary trio crossed all gender and race lines to inspire generations to dream big.", "poster_path": "/6cbIDZLfwUTmttXTmNi8Mp3Rnmg.jpg", "release_date": "2016-12-10", "title": "Hidden Figures", "video": false, "vote_average": 8.0, "vote_count": 5347, "popularity": 32.394}, {"id": 1645, "video": false, "vote_count": 1050, "vote_average": 7.2, "title": "A Time to Kill", "release_date": "1996-07-24", "original_language": "en", "original_title": "A Time to Kill", "genre_ids": [80, 18, 53], "backdrop_path": "/b1cfBhhorGYNPbMVT6C9cHwxRr8.jpg", "adult": false, "overview": "A young lawyer defends a black man accused of murdering two men who raped his 10-year-old daughter, sparking a rebirth of the KKK.", "poster_path": "/1q2kU8NMGO446b0QAvVdY2v778x.jpg", "popularity": 16.279}, {"id": 393457, "video": false, "vote_count": 1617, "vote_average": 6.8, "title": "Fences", "release_date": "2016-12-16", "original_language": "en", "original_title": "Fences", "genre_ids": [18], "backdrop_path": "/jNlCIAcheh0iOuL3kz9x1Wq9WLG.jpg", "adult": false, "overview": "In 1950s Pittsburgh, a frustrated African-American father struggles with the constraints of poverty, racism, and his own inner demons as he tries to raise a family.", "poster_path": "/yZFBqealET1TunuVvu4YzcM1orT.jpg", "popularity": 15.297}, {"id": 10633, "video": false, "vote_count": 460, "vote_average": 7.8, "title": "In the Heat of the Night", "release_date": "1967-08-02", "original_language": "en", "original_title": "In the Heat of the Night", "genre_ids": [80, 18, 9648, 53], "backdrop_path": "/xY5sgU09cOsvEAgJZaYo2aOZEFi.jpg", "adult": false, "overview": "An African American detective is asked to investigate a murder in a racist southern town.", "poster_path": "/cC3kyApHMNSfvsF67421L5IiTbc.jpg", "popularity": 11.911}, {"id": 1632, "video": false, "vote_count": 770, "vote_average": 7.6, "title": "Mississippi Burning", "release_date": "1988-12-08", "original_language": "en", "original_title": "Mississippi Burning", "genre_ids": [80, 18, 53], "backdrop_path": "/4ypwob4uxh0q1osOFq2Wh7zdopT.jpg", "adult": false, "overview": "Two FBI agents investigating the murder of civil rights workers during the 60s seek to breach the conspiracy of silence in a small Southern town where segregation divides black and white. The younger agent trained in FBI school runs up against the small town ways of his partner, a former sheriff.", "poster_path": "/uSukdUQwx0l4rRuMXNqugR1tu4n.jpg", "popularity": 16.862}, {"id": 487558, "video": false, "vote_count": 4017, "vote_average": 7.6, "title": "BlacKkKlansman", "release_date": "2018-07-30", "original_language": "en", "original_title": "BlacKkKlansman", "genre_ids": [80], "backdrop_path": "/wKRrldOtg6HVeGqGLls6iT9XO7I.jpg", "adult": false, "overview": "Colorado Springs, late 1970s. Ron Stallworth, an African American police officer, and Flip Zimmerman, his Jewish colleague, run an undercover operation to infiltrate the Ku Klux Klan.", "poster_path": "/8jxqAvSDoneSKRczaK8v9X5gqBp.jpg", "popularity": 30.098}, {"adult": false, "backdrop_path": "/vZ7EVk7FaNEWYqlVWbFLHP8Z0LU.jpg", "genre_ids": [9648, 53, 27], "id": 419430, "original_language": "en", "original_title": "Get Out", "overview": "Chris and his girlfriend Rose go upstate to visit her parents for the weekend. At first, Chris reads the family's overly accommodating behavior as nervous attempts to deal with their daughter's interracial relationship, but as the weekend progresses, a series of increasingly disturbing discoveries lead him to a truth that he never could have imagined.", "poster_path": "/rdPGUJhadPg7FGFNzavib0iwTor.jpg", "release_date": "2017-02-24", "title": "Get Out", "video": false, "vote_average": 7.5, "vote_count": 10002, "popularity": 37.864}, {"adult": false, "backdrop_path": "/2c5rkSPvdLfB0uzuHUtJiZ1sIC8.jpg", "genre_ids": [18], "id": 10637, "original_language": "en", "original_title": "Remember the Titans", "overview": "After leading his football team to 15 winning seasons, coach Bill Yoast is demoted and replaced by Herman Boone \u2013 tough, opinionated and as different from the beloved Yoast as he could be. The two men learn to overcome their differences and turn a group of hostile young men into champions.", "poster_path": "/iI12IRzif2VjTkQJRDQw3WyWKdS.jpg", "release_date": "2000-09-29", "title": "Remember the Titans", "video": false, "vote_average": 7.6, "vote_count": 1462, "popularity": 10.74}, {"adult": false, "backdrop_path": "/3fcBsj9JMQQ27Wuk3LVrEwVZ2VT.jpg", "genre_ids": [28, 18], "id": 323677, "original_language": "en", "original_title": "Race", "overview": "Based on the story of Jesse Owens, the athlete whose quest to become the greatest track and field athlete in history thrusts him onto the world stage of the 1936 Olympics, where he faces off against Adolf Hitler's vision of Aryan supremacy.", "poster_path": "/szLfTQ2vLFQkNbP3dc0pnco1rje.jpg", "release_date": "2016-02-19", "title": "Race", "video": false, "vote_average": 7.3, "vote_count": 989, "popularity": 11.176}, {"adult": false, "backdrop_path": "/xStFRUQtjdQWiZEGN80rgkhN0Kh.jpg", "genre_ids": [18, 878], "id": 11864, "original_language": "en", "original_title": "Enemy Mine", "overview": "A soldier from Earth crashlands on an alien world after sustaining battle damage. Eventually he encounters another survivor, but from the enemy species he was fighting; they band together to survive on this hostile world. In the end the human finds himself caring for his enemy in a completely unexpected way.", "poster_path": "/rOGOW5BnkT0Ccg7XEDmdBUBuw0K.jpg", "release_date": "1985-12-12", "title": "Enemy Mine", "video": false, "vote_average": 6.8, "vote_count": 456, "popularity": 12.134}, {"adult": false, "backdrop_path": "/useuHJQ5HOoEWkAvEjL1FW1sUfe.jpg", "genre_ids": [18], "id": 376867, "original_language": "en", "original_title": "Moonlight", "overview": "The tender, heartbreaking story of a young man\u2019s struggle to find himself, told across three defining chapters in his life as he experiences the ecstasy, pain, and beauty of falling in love, while grappling with his own sexuality.", "poster_path": "/qAwFbszz0kRyTuXmMeKQZCX3Q2O.jpg", "release_date": "2016-10-21", "title": "Moonlight", "video": false, "vote_average": 7.4, "vote_count": 4406, "popularity": 27.348}, {"adult": false, "backdrop_path": "/nfm6JCKUaM6dT0mATmShLY6cpmc.jpg", "genre_ids": [18, 10752], "id": 600, "original_language": "en", "original_title": "Full Metal Jacket", "overview": "A pragmatic U.S. Marine observes the dehumanizing effects the U.S.-Vietnam War has on his fellow recruits from their brutal boot camp training to the bloody street fighting in Hue.", "poster_path": "/29veIwD38rVL2qY74emXQw4y25H.jpg", "release_date": "1987-06-26", "title": "Full Metal Jacket", "video": false, "vote_average": 8.1, "vote_count": 5897, "popularity": 25.207}, {"adult": false, "backdrop_path": "/rW5gI8SEO1qYbXGwRANYrKtMiQB.jpg", "genre_ids": [18], "id": 413362, "original_language": "en", "original_title": "Roman J. Israel, Esq.", "overview": "Hard-nosed liberal lawyer Roman J. Israel has been fighting the good fight forever while others take the credit. When his partner \u2013 the firm\u2019s frontman \u2013 has a heart attack, Israel suddenly takes on that role. He soon discovers some unsettling truths about the firm \u2013 truths that conflict with his values of helping the poor and dispossessed \u2013 and finds himself in an existential crisis that leads to extreme actions.", "poster_path": "/epTCHVcyLkT8Aqt08Ki3PWC2sUh.jpg", "release_date": "2017-11-17", "title": "Roman J. Israel, Esq.", "video": false, "vote_average": 6.3, "vote_count": 583, "popularity": 11.775}, {"adult": false, "backdrop_path": "/xqQztbT6KlPLQLlRtNHoXivEMZA.jpg", "genre_ids": [18, 10749, 53], "id": 597, "original_language": "en", "original_title": "Titanic", "overview": "101-year-old Rose DeWitt Bukater tells the story of her life aboard the Titanic, 84 years later. A young Rose boards the ship with her mother and fianc\u00e9. Meanwhile, Jack Dawson and Fabrizio De Rossi win third-class tickets aboard the ship. Rose tells the whole story from Titanic's departure through to its death\u2014on its first and last voyage\u2014on April 15, 1912.", "poster_path": "/kHXEpyfl6zqn8a6YuozZUujufXf.jpg", "release_date": "1997-11-18", "title": "Titanic", "video": false, "vote_average": 7.8, "vote_count": 15731, "popularity": 44.898}, {"id": 68718, "video": false, "vote_count": 17255, "vote_average": 8.1, "title": "Django Unchained", "release_date": "2012-12-25", "original_language": "en", "original_title": "Django Unchained", "genre_ids": [18, 37], "backdrop_path": "/qUcmEqnzIwlwZxSyTf3WliSfAjJ.jpg", "adult": false, "overview": "With the help of a German bounty hunter, a freed slave sets out to rescue his wife from a brutal Mississippi plantation owner.", "poster_path": "/eCt596Z4zkqxW5AHz1HEhGm1eif.jpg", "popularity": 39.475}, {"id": 147441, "video": false, "vote_count": 3122, "vote_average": 5.8, "title": "Exodus: Gods and Kings", "release_date": "2014-12-03", "original_language": "en", "original_title": "Exodus: Gods and Kings", "genre_ids": [28, 12, 18], "backdrop_path": "/hOOgtrByGgWfqGTTn5VL7jkLYXJ.jpg", "adult": false, "overview": "The defiant leader Moses rises up against the Egyptian Pharaoh Ramses, setting 400,000 slaves on a monumental journey of escape from Egypt and its terrifying cycle of deadly plagues.", "poster_path": "/ycDcPCpWM7hSdIR6tFkOzQPkve2.jpg", "popularity": 23.138}, {"id": 88, "video": false, "vote_count": 3464, "vote_average": 7.3, "title": "Dirty Dancing", "release_date": "1987-08-21", "original_language": "en", "original_title": "Dirty Dancing", "genre_ids": [18, 10402, 10749], "backdrop_path": "/ngDmpFRzNGr9XMtKchhBZjt4DLH.jpg", "adult": false, "overview": "Expecting the usual tedium that accompanies a summer in the Catskills with her family, 17-year-old Frances 'Baby' Houseman is surprised to find herself stepping into the shoes of a professional hoofer\u2014and unexpectedly falling in love.", "poster_path": "/jFoktPxTtabZfh9JeDy3F78g9w7.jpg", "popularity": 23.93}, {"adult": false, "backdrop_path": "/msOjpu9wigi6n1Xa51MeLcBue88.jpg", "genre_ids": [18, 36, 10752, 10749], "id": 468224, "original_language": "en", "original_title": "Tolkien", "overview": "England, early 20th century. The future writer and philologist John Ronald Reuel Tolkien (1892-1973) and three of his schoolmates create a strong bond between them as they share the same passion for literature and art, a true fellowship that strengthens as they grow up, but the outbreak of World War I threatens to shatter it.", "poster_path": "/A7eYO3t7oZQdfJj5KlJBI7GhT9H.jpg", "release_date": "2019-05-03", "title": "Tolkien", "video": false, "vote_average": 6.8, "vote_count": 450, "popularity": 13.09}, {"id": 490132, "video": false, "vote_count": 5172, "vote_average": 8.3, "title": "Green Book", "release_date": "2018-11-16", "original_language": "en", "original_title": "Green Book", "genre_ids": [35, 18], "backdrop_path": "/78PjwaykLY2QqhMfWRDvmfbC6EV.jpg", "adult": false, "overview": "Tony Lip, a bouncer in 1962, is hired to drive pianist Don Shirley on a tour through the Deep South in the days when African Americans, forced to find alternate accommodations and services due to segregation laws below the Mason-Dixon Line, relied on a guide called The Negro Motorist Green Book.", "poster_path": "/7BsvSuDQuoqhWmU2fL7W2GOcZHU.jpg", "popularity": 35.522}], "total_pages": 36, "total_results": 708}, "recommendations": {"page": 1, "results": [], "total_pages": 1, "total_results": 0}, "credits": {"cast": [{"cast_id": 3, "character": "Roddy Pater", "credit_id": "5326cc0bc3a36824b500a78c", "gender": 0, "id": 121685, "name": "Robin Phillips", "order": 1, "profile_path": "/4doAstUD3dAas2Ud0mNQvuPIMxd.jpg"}, {"cast_id": 4, "character": "Jane Archer", "credit_id": "5326cc1bc3a368572500b3e0", "gender": 1, "id": 41234, "name": "Judy Geeson", "order": 2, "profile_path": "/6HXwztsdjeK4QbgKd1sHlheDfx3.jpg"}, {"cast_id": 5, "character": "Caroline Harcourt", "credit_id": "5326cc30c3a36841330042c8", "gender": 1, "id": 1206261, "name": "Ester Anderson", "order": 3, "profile_path": "/axgfuPXTSWMIiM1QT4PYXwtZbTP.jpg"}, {"cast_id": 6, "character": "Andrew McKenzie", "credit_id": "5326cc45c3a368572500b3e2", "gender": 2, "id": 151416, "name": "Hal Frederick", "order": 4, "profile_path": null}, {"cast_id": 7, "character": "Phil Carter", "credit_id": "5326cc58c3a3683f04003f7d", "gender": 2, "id": 10596, "name": "Norman Rossington", "order": 5, "profile_path": "/x0PIm3YWHGBimxmXMuvCuOn0LG2.jpg"}, {"cast_id": 8, "character": "Mrs. Ashby-Kydd", "credit_id": "5326cc6ac3a36824b500a793", "gender": 1, "id": 10653, "name": "Rachel Kempson", "order": 6, "profile_path": "/h207OnJ61osIiPUisvLqmn0zsck.jpg"}, {"cast_id": 17, "character": "Marcus", "credit_id": "59a16e0c9251417781029394", "gender": 2, "id": 63006, "name": "Ram John Holder", "order": 7, "profile_path": "/mayvTtXyda769cDBVSriTLzPBZX.jpg"}, {"cast_id": 19, "character": "Amanda", "credit_id": "59a16e55c3a36847e50282ee", "gender": 0, "id": 1877366, "name": "Daisy Mae Williams", "order": 9, "profile_path": null}, {"cast_id": 20, "character": "Mrs Burrows", "credit_id": "59a16e66c3a36847c502bd9b", "gender": 0, "id": 273906, "name": "Elspeth March", "order": 10, "profile_path": "/naWq5JkWGqwnTHK6NGscyE7ipk4.jpg"}, {"cast_id": 21, "character": "Mr Burrows", "credit_id": "59a16e71c3a36847d4027ee8", "gender": 2, "id": 694, "name": "Philip Stone", "order": 11, "profile_path": "/qtaBPJZC7MpoyWfcyXJ1zdEfYwU.jpg"}, {"cast_id": 22, "character": "Mrs Pater", "credit_id": "59a16e8b925141778102940d", "gender": 0, "id": 96191, "name": "Avice Landone", "order": 12, "profile_path": "/wKSvLJRIQukYzJ9Hj8sFhMeSIqi.jpg"}, {"cast_id": 23, "character": "Mr Pater", "credit_id": "59a16e99925141779f029830", "gender": 2, "id": 18769, "name": "David Markham", "order": 13, "profile_path": null}, {"cast_id": 24, "character": "Charles Marriott", "credit_id": "59a16eabc3a368480e027ec1", "gender": 2, "id": 2246, "name": "Earl Cameron", "order": 14, "profile_path": "/4bDKeRU96RxpJ2Uv8x2yrjCmGks.jpg"}, {"cast_id": 25, "character": "Helen Narriott", "credit_id": "59a16ed4c3a368481e029a25", "gender": 1, "id": 131625, "name": "Shelagh Fraser", "order": 15, "profile_path": "/xNfiibBvknHztEnL0g7dcdrxOKq.jpg"}, {"cast_id": 26, "character": "Helen Marriott", "credit_id": "59a16edc925141779302a382", "gender": 1, "id": 131625, "name": "Shelagh Fraser", "order": 16, "profile_path": "/xNfiibBvknHztEnL0g7dcdrxOKq.jpg"}, {"cast_id": 27, "character": "Policeman", "credit_id": "59a16ee8c3a368480e027ef8", "gender": 2, "id": 30582, "name": "Norman Mitchell", "order": 17, "profile_path": "/ovQPZe275HaBuVGOV1QwbMk67UB.jpg"}, {"cast_id": 28, "character": "Ethne Burrows", "credit_id": "59ca29e492514123c1008565", "gender": 1, "id": 108641, "name": "Hilary Dwyer", "order": 18, "profile_path": "/2K6ptsGJjDzKqHzrB96WaWly2Ze.jpg"}], "crew": [{"credit_id": "537751790e0a261425001f04", "department": "Camera", "gender": 2, "id": 11848, "job": "Director of Photography", "name": "Billy Williams", "profile_path": null}, {"credit_id": "537752ab0e0a26141c001fa7", "department": "Art", "gender": 0, "id": 14946, "job": "Art Direction", "name": "Ken Bridgeman", "profile_path": null}, {"credit_id": "5326cbb8c3a36824b500a787", "department": "Directing", "gender": 2, "id": 16544, "job": "Director", "name": "Ted Kotcheff", "profile_path": "/r4rMwZeClwJR2VCgvYsNjLOTXpB.jpg"}, {"credit_id": "537751870e0a26141c001f4f", "department": "Editing", "gender": 0, "id": 31524, "job": "Editor", "name": "Derek York", "profile_path": null}, {"credit_id": "537751dc0e0a261428001def", "department": "Sound", "gender": 2, "id": 40150, "job": "Original Music Composer", "name": "Stanley Myers", "profile_path": null}, {"credit_id": "53774e150e0a261425001e8e", "department": "Writing", "gender": 0, "id": 131506, "job": "Screenplay", "name": "Evan Jones", "profile_path": null}, {"credit_id": "5326cbefc3a36813c2003e21", "department": "Production", "gender": 0, "id": 1106019, "job": "Producer", "name": "Barry J. Kulick", "profile_path": null}, {"credit_id": "537752610e0a261419001e4c", "department": "Production", "gender": 2, "id": 1138068, "job": "Associate Producer", "name": "Douglas Peirce", "profile_path": null}, {"credit_id": "5377490dc3a368553a00150b", "department": "Writing", "gender": 0, "id": 1320577, "job": "Novel", "name": "David Stuart Leslie", "profile_path": null}, {"credit_id": "537752910e0a26141c001f9e", "department": "Costume & Make-Up", "gender": 1, "id": 1320585, "job": "Costume Design", "name": "Gabriella Falk", "profile_path": null}, {"credit_id": "5c9232ca0e0a2612ed5d0d94", "department": "Production", "gender": 0, "id": 2231106, "job": "Production Secretary", "name": "Vicki Deason", "profile_path": null}]}}