{"adult": false, "backdrop_path": "/5kyubn6w7kvXbCActaGa3cjnDcP.jpg", "belongs_to_collection": null, "budget": 0, "genres": [{"id": 28, "name": "Action"}, {"id": 12, "name": "Adventure"}], "homepage": null, "id": 259835, "imdb_id": "tt0060590", "original_language": "it", "original_title": "Kindar, l'invulnerabile", "overview": "An evil bandit kidnaps a sultan's son and raises him but finds the son has magic powers.", "popularity": 2.078, "poster_path": "/yEbi7XUCmkB1isYIjcVTL3n3VN1.jpg", "production_companies": [{"id": 20951, "logo_path": null, "name": "wonder films", "origin_country": ""}, {"id": 11892, "logo_path": null, "name": "Copro Films", "origin_country": ""}], "production_countries": [{"iso_3166_1": "EG", "name": "Egypt"}, {"iso_3166_1": "IT", "name": "Italy"}, {"iso_3166_1": "TN", "name": "Tunisia"}], "release_date": "1965-03-05", "revenue": 0, "runtime": 96, "spoken_languages": [{"iso_639_1": "it", "name": "Italiano"}], "status": "Released", "tagline": "", "title": "Kindar the Invulnerable", "video": false, "vote_average": 5.0, "vote_count": 2, "keywords": {"keywords": [{"id": 15060, "name": "period drama"}, {"id": 181213, "name": "sword and sandal"}, {"id": 187305, "name": "peplum"}]}, "similar": {"page": 1, "results": [{"id": 184315, "video": false, "vote_count": 2804, "vote_average": 5.7, "title": "Hercules", "release_date": "2014-07-23", "original_language": "en", "original_title": "Hercules", "genre_ids": [28, 12], "backdrop_path": "/pNPdcgHT1FpCmauzFWepyfDvDo9.jpg", "adult": false, "overview": "Fourteen hundred years ago, a tormented soul walked the earth that was neither man nor god. Hercules was the powerful son of the god king Zeus, for this he received nothing but suffering his entire life. After twelve arduous labors and the loss of his family, this dark, world-weary soul turned his back on the gods finding his only solace in bloody battle. Over the years he warmed to the company of six similar souls, their only bond being their love of fighting and presence of death. These men and woman never question where they go to fight or why or whom, just how much they will be paid. Now the King of Thrace has hired these mercenaries to train his men to become the greatest army of all time. It is time for this bunch of lost souls to finally have their eyes opened to how far they have fallen when they must train an army to become as ruthless and blood thirsty as their reputation has become.", "poster_path": "/wGAWxOnVjwXqvoiKX7Pf6XOWnPJ.jpg", "popularity": 31.25}, {"adult": false, "backdrop_path": "/3nG6BBIxgqbIM5p1iO61RyKzUkZ.jpg", "genre_ids": [16, 10751, 14, 12, 35, 10749], "id": 11970, "original_language": "en", "original_title": "Hercules", "overview": "Bestowed with superhuman strength, a young mortal named Hercules sets out to prove himself a hero in the eyes of his father, the great god Zeus. Along with his friends Pegasus, a flying horse, and Phil, a personal trainer, Hercules is tricked by the hilarious, hotheaded villain Hades, who's plotting to take over Mount Olympus!", "poster_path": "/eFlBFMAifj436QctX3akDkUnhlk.jpg", "release_date": "1997-06-20", "title": "Hercules", "video": false, "vote_average": 7.5, "vote_count": 4318, "popularity": 23.839}, {"id": 1771, "video": false, "vote_count": 14038, "vote_average": 6.9, "title": "Captain America: The First Avenger", "release_date": "2011-07-22", "original_language": "en", "original_title": "Captain America: The First Avenger", "genre_ids": [28, 12, 878], "backdrop_path": "/pmZtj1FKvQqISS6iQbkiLg5TAsr.jpg", "adult": false, "overview": "During World War II, Steve Rogers is a sickly man from Brooklyn who's transformed into super-soldier Captain America to aid in the war effort. Rogers must stop the Red Skull \u2013 Adolf Hitler's ruthless head of weaponry, and the leader of an organization that intends to use a mysterious device of untold powers for world domination.", "poster_path": "/vSNxAJTlD0r02V9sPYpOjqDZXUK.jpg", "popularity": 20.824}, {"adult": false, "backdrop_path": "/5vZw7ltCKI0JiOYTtRxaIC3DX0e.jpg", "genre_ids": [28, 18, 12], "id": 98, "original_language": "en", "original_title": "Gladiator", "overview": "In the year 180, the death of emperor Marcus Aurelius throws the Roman Empire into chaos.  Maximus is one of the Roman army's most capable and trusted generals and a key advisor to the emperor.  As Marcus' devious son Commodus ascends to the throne, Maximus is set to be executed.  He escapes, but is captured by slave traders.  Renamed Spaniard and forced to become a gladiator, Maximus must battle to the death with other men for the amusement of paying audiences.", "poster_path": "/6WBIzCgmDCYrqh64yDREGeDk9d3.jpg", "release_date": "2000-05-01", "title": "Gladiator", "video": false, "vote_average": 8.1, "vote_count": 10798, "popularity": 31.354}, {"id": 297762, "video": false, "vote_count": 13722, "vote_average": 7.3, "title": "Wonder Woman", "release_date": "2017-05-30", "original_language": "en", "original_title": "Wonder Woman", "genre_ids": [28, 12, 14], "backdrop_path": "/6iUNJZymJBMXXriQyFZfLAKnjO6.jpg", "adult": false, "overview": "An Amazon princess comes to the world of Man in the grips of the First World War to confront the forces of evil and bring an end to human conflict.", "poster_path": "/gfJGlDaHuWimErCr5Ql0I8x9QSy.jpg", "popularity": 44.687}, {"adult": false, "backdrop_path": "/lpyBAL1BgH9TScrIHVWkmw8zhzJ.jpg", "genre_ids": [18, 28, 36], "id": 454227, "original_language": "en", "original_title": "Outlaw King", "overview": "Forced into exile by the English after being crowned King of Scotland, legendary warrior Robert the Bruce fights to reclaim the throne.", "poster_path": "/rT49ousKUWN3dV7UlhaC9onTNdl.jpg", "release_date": "2018-11-09", "title": "Outlaw King", "video": false, "vote_average": 6.9, "vote_count": 770, "popularity": 14.911}, {"id": 166426, "video": false, "vote_count": 7553, "vote_average": 6.6, "title": "Pirates of the Caribbean: Dead Men Tell No Tales", "release_date": "2017-05-23", "original_language": "en", "original_title": "Pirates of the Caribbean: Dead Men Tell No Tales", "genre_ids": [28, 12, 35, 14], "backdrop_path": "/7C921eWK06n12c1miRXnYoEu5Yv.jpg", "adult": false, "overview": "Thrust into an all-new adventure, a down-on-his-luck Capt. Jack Sparrow feels the winds of ill-fortune blowing even more strongly when deadly ghost sailors led by his old nemesis, the evil Capt. Salazar, escape from the Devil's Triangle. Jack's only hope of survival lies in seeking out the legendary Trident of Poseidon, but to find it, he must forge an uneasy alliance with a brilliant and beautiful astronomer and a headstrong young man in the British navy.", "poster_path": "/xbpSDU3p7YUGlu9Mr6Egg2Vweto.jpg", "popularity": 31.346}, {"id": 311324, "video": false, "vote_count": 3068, "vote_average": 5.8, "title": "The Great Wall", "release_date": "2016-12-16", "original_language": "en", "original_title": "The Great Wall", "genre_ids": [28, 12, 14], "backdrop_path": "/xeHe0f7RdsZzjW76si6fGUmu2Qq.jpg", "adult": false, "overview": "European mercenaries searching for black powder become embroiled in the defense of the Great Wall of China against a horde of monstrous creatures.", "poster_path": "/p70dq1YxabemdZDm5K6Q8G10wSn.jpg", "popularity": 20.369}, {"id": 9387, "video": false, "vote_count": 1295, "vote_average": 6.7, "title": "Conan the Barbarian", "release_date": "1982-04-02", "original_language": "en", "original_title": "Conan the Barbarian", "genre_ids": [28, 12, 14], "backdrop_path": "/nvMjK1uiIN5PDHwA6BF7ij8SUFB.jpg", "adult": false, "overview": "A film adaptation of the classic sword and sorcery hero, Conan the Barbarian. A horde of rampaging warriors massacre the parents of young Conan and enslave the young child for years on The Wheel of Pain. As the sole survivor of the childhood massacre, Conan is released from slavery and taught the ancient arts of fighting. Transforming himself into a killing machine, Conan travels into the wilderness to seek vengeance on Thulsa Doom, the man responsible for killing his family. In the wilderness, Conan takes up with the thieves Valeria and Subotai. The group comes upon King Osric, who wants the trio of warriors to help rescue his daughter who has joined Doom in the hills.", "poster_path": "/9siMCK6u0TtgDVtCJQGKRQAnAqA.jpg", "popularity": 21.786}, {"id": 28058, "video": false, "vote_count": 20, "vote_average": 6.0, "title": "Hercules in the Haunted World", "release_date": "1961-11-16", "original_language": "it", "original_title": "Ercole al centro della terra", "genre_ids": [12, 14, 27], "backdrop_path": "/oJSTcaNY4MP19JMimV6aXa0urNR.jpg", "adult": false, "overview": "Upon his return from battle in the previous film, the great warrior Hercules learns that his lover, Daianara, has lost her senses. Acording of the oracle Medea, Dianara's only hope is the Stone of Forgetfulness which lies deep in the realm of Hades. Hercules, with two companions, Theseus and Telemachus, embarks on a dangerous quest for the stone, while he is unaware that Dianara's guardian, King Lico, is the one responsible for her condition and plots to have the girl for himself as his bride upon her revival.", "poster_path": "/fHf92LFvxEvYYIHgaDOpay08VEH.jpg", "popularity": 4.271}, {"id": 122126, "video": false, "vote_count": 35, "vote_average": 6.0, "title": "The Concubine", "release_date": "2012-06-06", "original_language": "ko", "original_title": "\ud6c4\uad81: \uc81c\uc655\uc758 \ucca9", "genre_ids": [18], "backdrop_path": "/zgx6bBaVLAsFO5ip7gwndOjhE7U.jpg", "adult": false, "overview": "Living a torturous life of poverty and barely able to survive, Hwa-yeon decides to offer herself as one of the king\u2019s concubines. Once inside the royal palace, two men are immediately seized by the woman -- the Grand Prince Seong-won, a megalomaniacal ruler drunk with power and lust, and Kwon-yoo, who has everything to lose if his desire for Hwa-yeon is exposed.", "poster_path": "/2qkaLzpsC0X3zYwjhh1GPsjny2.jpg", "popularity": 19.786}, {"id": 656968, "video": false, "vote_count": 23, "vote_average": 7.0, "title": "A Christmas Carol", "release_date": "2019-12-19", "original_language": "en", "original_title": "A Christmas Carol", "genre_ids": [18, 14], "backdrop_path": "/ubLsCmv36zUUt2zxhFSowYFe5uF.jpg", "adult": false, "overview": "London, 1843. Ebenezer Scrooge, a bitter old man, despises the Christmas holiday. Over the course of Christmas Eve night he is visited by three ghosts to show him his past, present and future.", "poster_path": "/tKW48tnZKaHLBIxxgoAf9BIpyRv.jpg", "popularity": 7.061}, {"adult": false, "backdrop_path": "/pdIoY6ZOqwbwPlTuDh83TbJ64xw.jpg", "genre_ids": [35, 18, 9648], "id": 270487, "original_language": "en", "original_title": "Hail, Caesar!", "overview": "When a Hollywood star mysteriously disappears in the middle of filming, the studio sends their \"fixer\" to get him back. Set in the 1950s, the story was inspired by the career of Eddie Mannix (1891\u20131963).", "poster_path": "/rzMYZYphL9qrbBClQq1Jc0zPMmY.jpg", "release_date": "2016-02-05", "title": "Hail, Caesar!", "video": false, "vote_average": 5.9, "vote_count": 2550, "popularity": 15.402}, {"adult": false, "backdrop_path": "/noE6vg035lEXJl3sCHAgLkWZK1D.jpg", "genre_ids": [28, 12, 36, 10749, 18], "id": 76649, "original_language": "en", "original_title": "Pompeii", "overview": "In 79 A.D., Milo, a slave turned gladiator, finds himself in a race against time to save his true love Cassia, the beautiful daughter of a wealthy merchant who has been unwillingly betrothed to a corrupt Roman Senator. As Mount Vesuvius erupts in a torrent of blazing lava, Milo must fight his way out of the arena in order to save his beloved as the once magnificent Pompeii crumbles around him.", "poster_path": "/idiv0IxVhVSDW8cWxfprYyY5Yev.jpg", "release_date": "2014-02-18", "title": "Pompeii", "video": false, "vote_average": 5.4, "vote_count": 2254, "popularity": 15.999}, {"id": 4584, "video": false, "vote_count": 799, "vote_average": 7.4, "title": "Sense and Sensibility", "release_date": "1995-12-13", "original_language": "en", "original_title": "Sense and Sensibility", "genre_ids": [18, 10749], "backdrop_path": "/ocn3pLKJjYmXIP2331pUNC33f5M.jpg", "adult": false, "overview": "Rich Mr. Dashwood dies, leaving his second wife and her daughters poor by the rules of inheritance. Two daughters are the titular opposites.", "poster_path": "/1ryNXjmwdCTqLXxXCG9BGvZyMOH.jpg", "popularity": 15.496}, {"id": 257785, "video": false, "vote_count": 355, "vote_average": 6.5, "title": "Tulip Fever", "release_date": "2017-07-13", "original_language": "en", "original_title": "Tulip Fever", "genre_ids": [18, 10749], "backdrop_path": "/4cuMgrl1TVGjMaRQ3bKWTu61nem.jpg", "adult": false, "overview": "An artist falls for a married young woman while he's commissioned to paint her portrait. The two invest in the risky tulip market in hopes to build a future together.", "poster_path": "/qoOWoobioQckgbk4B9Dqn2mBMSJ.jpg", "popularity": 11.564}, {"id": 399019, "video": false, "vote_count": 1322, "vote_average": 5.7, "title": "The Beguiled", "release_date": "2017-06-23", "original_language": "en", "original_title": "The Beguiled", "genre_ids": [18, 37], "backdrop_path": "/5jq7TjRzmvkJsa8bF3zWqxbPtmw.jpg", "adult": false, "overview": "During the Civil War, at a Southern girls\u2019 boarding school, young women take in an injured enemy soldier. As they provide refuge and tend to his wounds, the house is taken over with sexual tension and dangerous rivalries, and taboos are broken in an unexpected turn of events.", "poster_path": "/uQxfqFAqAvNK5b1wD11b2ycDAVg.jpg", "popularity": 12.812}, {"id": 967, "video": false, "vote_count": 1077, "vote_average": 7.6, "title": "Spartacus", "release_date": "1960-10-06", "original_language": "en", "original_title": "Spartacus", "genre_ids": [28, 12, 18, 36], "backdrop_path": "/aheSIG4h3JNxWeDvdb1NxKzgjaM.jpg", "adult": false, "overview": "The rebellious Thracian Spartacus, born and raised a slave, is sold to Gladiator trainer Batiatus. After weeks of being trained to kill for the arena, Spartacus turns on his owners and leads the other slaves in rebellion. As the rebels move from town to town, their numbers swell as escaped slaves join their ranks. Under the leadership of Spartacus, they make their way to southern Italy, where they will cross the sea and return to their homes.", "poster_path": "/hpICDCTdMIpcqEeNa0k3rcedw2B.jpg", "popularity": 20.688}, {"id": 4348, "video": false, "vote_count": 3770, "vote_average": 7.9, "title": "Pride & Prejudice", "release_date": "2005-09-16", "original_language": "en", "original_title": "Pride & Prejudice", "genre_ids": [18, 10749], "backdrop_path": "/jusbnq1mqU80jW7xjTrAnN8lNGO.jpg", "adult": false, "overview": "A story of love and life among the landed English gentry during the Georgian era. Mr. Bennet is a gentleman living in Hertfordshire with his overbearing wife and five daughters, but if he dies their house will be inherited by a distant cousin whom they have never met, so the family's future happiness and security is dependent on the daughters making good marriages.", "poster_path": "/dAC0hkYmz5ZOCHURZCyj9isPMPd.jpg", "popularity": 19.198}, {"adult": false, "backdrop_path": "/dzUJVoaXpaVIzTXbCheBf2xJ4C6.jpg", "genre_ids": [12, 14], "id": 56147, "original_language": "it", "original_title": "Gli amori di Ercole", "overview": "Hercules must save his true love from an evil queen.", "poster_path": "/x55q03wgHUMJtOe3HXqCyGfw8af.jpg", "release_date": "1960-08-19", "title": "The Loves of Hercules", "video": false, "vote_average": 3.4, "vote_count": 25, "popularity": 3.175}], "total_pages": 16, "total_results": 314}, "recommendations": {"page": 1, "results": [], "total_pages": 1, "total_results": 0}, "credits": {"cast": [{"cast_id": 0, "character": "Kindar", "credit_id": "5328dc199251413d760005b2", "gender": 0, "id": 980234, "name": "Mark Forest", "order": 1, "profile_path": "/a50AVKCORtb9WxCwyxrep6tiOHz.jpg"}, {"cast_id": 1, "character": "saymuth", "credit_id": "5328dc2b9251413d830005b3", "gender": 2, "id": 22477, "name": "Mimmo Palmara", "order": 2, "profile_path": null}, {"cast_id": 2, "character": "Kira", "credit_id": "5328dc3f9251413d80000581", "gender": 1, "id": 30664, "name": "Rosalba Neri", "order": 3, "profile_path": "/h4THCfbFyxcdMQcWEmnCWLqbYZ1.jpg"}, {"cast_id": 3, "character": "Nefer", "credit_id": "5328dc4c9251413d70000937", "gender": 0, "id": 1302195, "name": "Dea Flowers", "order": 4, "profile_path": null}, {"cast_id": 4, "character": "Siro", "credit_id": "5328dc5a9251413d79000591", "gender": 2, "id": 27383, "name": "Renato Rossini", "order": 5, "profile_path": "/Agmwp7mqL1Z5lc75nypnuqX6cHA.jpg"}, {"cast_id": 5, "character": "Eman, King of Utor", "credit_id": "5328dc6e9251413d830005b6", "gender": 0, "id": 1095720, "name": "Giulio Tomasini", "order": 6, "profile_path": null}, {"cast_id": 6, "character": "Humi", "credit_id": "5328dc809251413d7c000556", "gender": 0, "id": 1302196, "name": "Hussein Kandil", "order": 7, "profile_path": null}], "crew": [{"credit_id": "5328dc9f9251413d79000595", "department": "Directing", "gender": 2, "id": 259027, "job": "Director", "name": "Osvaldo Civirani", "profile_path": null}, {"credit_id": "5328dcbc9251413d7c00055b", "department": "Writing", "gender": 0, "id": 46349, "job": "Writer", "name": "Alessandro Ferra\u00f9", "profile_path": null}, {"credit_id": "5328dcce9251413d760005bb", "department": "Writing", "gender": 0, "id": 98776, "job": "Writer", "name": "Roberto Gianviti", "profile_path": null}, {"credit_id": "5328dce69251413d7c00055e", "department": "Writing", "gender": 2, "id": 45671, "job": "Writer", "name": "Luciano Trasatti", "profile_path": null}]}}