{"adult": false, "backdrop_path": null, "belongs_to_collection": null, "budget": 0, "genres": [{"id": 35, "name": "Comedy"}, {"id": 9648, "name": "Mystery"}], "homepage": "http://suchgoodpeoplemovie.com/", "id": 259997, "imdb_id": "tt2486880", "original_language": "en", "original_title": "Such Good People", "overview": "A young couple discovers a secret room filled with cash while house-sitting for rich friends who die while out of the country.", "popularity": 3.071, "poster_path": "/oXBjwhGZVftek8jg2zxFWUTs4Fd.jpg", "production_companies": [{"id": 20976, "logo_path": null, "name": "Such Good Productions", "origin_country": ""}], "production_countries": [{"iso_3166_1": "US", "name": "United States of America"}], "release_date": "2014-05-09", "revenue": 0, "runtime": 97, "spoken_languages": [{"iso_639_1": "en", "name": "English"}], "status": "Released", "tagline": "", "title": "Such Good People", "video": false, "vote_average": 6.2, "vote_count": 8, "keywords": {"keywords": [{"id": 697, "name": "loss of loved one"}, {"id": 10594, "name": "money"}, {"id": 33494, "name": "couple"}, {"id": 158718, "name": "lgbt"}, {"id": 199264, "name": "house-sitting"}]}, "similar": {"page": 1, "results": [{"id": 449176, "video": false, "vote_count": 3690, "vote_average": 8.1, "title": "Love, Simon", "release_date": "2018-02-16", "original_language": "en", "original_title": "Love, Simon", "genre_ids": [35, 18, 10749], "backdrop_path": "/rqMEeajyzSF4PpJtdCB816Iz8Vr.jpg", "adult": false, "overview": "Everyone deserves a great love story. But for seventeen-year old Simon Spier it's a little more complicated: he's yet to tell his family or friends he's gay and he doesn't know the identity of the anonymous classmate he's fallen for online.", "poster_path": "/5YUYg5q7QfC4IoNwNUtiwdiYKPr.jpg", "popularity": 24.849}, {"adult": false, "backdrop_path": "/qs4P8THxjbMZYc9QuZvzN95KzBM.jpg", "genre_ids": [18, 53, 9648], "id": 184352, "original_language": "fr", "original_title": "Tom \u00e0 la ferme", "overview": "A young man travels to an isolated farm for his lover's funeral where he's quickly drawn into a twisted, sexually charged game by his lover's aggressive brother.", "poster_path": "/wS4oYOHEKva9sMLOHSr7tW19SaQ.jpg", "release_date": "2013-09-02", "title": "Tom at the Farm", "video": false, "vote_average": 6.9, "vote_count": 408, "popularity": 7.884}, {"adult": false, "backdrop_path": "/4NJplkljN06NQLMLSUNmrIsBjBZ.jpg", "genre_ids": [35, 18], "id": 400547, "original_language": "en", "original_title": "Hurricane Bianca", "overview": "Hurricane Bianca is a revenge comedy about a New York teacher who moves to a small town in Texas, gets fired for being gay, and returns disguised in drag to get revenge on the people who were nasty to him.", "poster_path": "/w1QM09R1TqwHTb5UA8X8jR2yh4x.jpg", "release_date": "2016-06-03", "title": "Hurricane Bianca", "video": false, "vote_average": 6.2, "vote_count": 212, "popularity": 10.051}, {"adult": false, "backdrop_path": "/6VhtzImP1UvYkIAHS4L8yfmceOM.jpg", "genre_ids": [18], "id": 26280, "original_language": "fr", "original_title": "J'ai tu\u00e9 ma m\u00e8re", "overview": "Hubert, a brash 17-year-old, is confused and torn by a love-hate relationship with his mother that consumes him more and more each day. After distressing ordeals and tragic episodes, Hubert will find his mother on the banks of Saint Lawrence river, where he grew up, and where a murder will be committed: the murder of childhood.", "poster_path": "/cxb02CLALt9He1Dt0BIDKj9fdvM.jpg", "release_date": "2009-06-05", "title": "I Killed My Mother", "video": false, "vote_average": 7.7, "vote_count": 655, "popularity": 11.451}, {"adult": false, "backdrop_path": "/qbrmEfBEcdrzHSAHgazJWmz3TSU.jpg", "genre_ids": [18], "id": 616229, "original_language": "en", "original_title": "The Male Gaze: The Heat of the Night", "overview": "When darkness falls, temperatures rise in these six stories about late night confessions, intimacy for sale, high speed hookups and full moon frissons. But when the sun comes up and reality reveals itself, will it have all been worth it?", "poster_path": "/e1gNLO829rkE73sBJ3aClZJHNXd.jpg", "release_date": "2019-07-15", "title": "The Male Gaze: The Heat of the Night", "video": false, "vote_average": 3.3, "vote_count": 3, "popularity": 13.056}, {"adult": false, "backdrop_path": "/wVgXZkzJoKs0MMfhAlHdK3XdY71.jpg", "genre_ids": [35, 18], "id": 303991, "original_language": "en", "original_title": "Demolition", "overview": "An emotionally desperate investment banker finds hope through a woman he meets in Chicago.", "poster_path": "/mPIHDFbwpDAEnyW4yM75ZV2Z2oQ.jpg", "release_date": "2016-04-06", "title": "Demolition", "video": false, "vote_average": 6.7, "vote_count": 1200, "popularity": 12.649}, {"adult": false, "backdrop_path": "/3Mn05BZJvD0vrKpMAkHoZYYgHA1.jpg", "genre_ids": [18, 35], "id": 1420, "original_language": "en", "original_title": "Breakfast on Pluto", "overview": "In the 1970s, a foundling lad, Patrick \"Kitten\" Braden, comes of age by leaving his Irish town for London, in part to look for his mother and in part because his transgender nature is beyond the town's understanding.", "poster_path": "/14tmdb1PiLNDZf3VD29S2nUKVV0.jpg", "release_date": "2005-09-03", "title": "Breakfast on Pluto", "video": false, "vote_average": 7.3, "vote_count": 164, "popularity": 10.857}, {"adult": false, "backdrop_path": "/qWZSYN2tBoZdUY9NDdvSKQ6OH4u.jpg", "genre_ids": [18], "id": 377154, "original_language": "fr", "original_title": "Quand on a 17 Ans", "overview": "Set in the beautiful high Pyrenees in south-west France, Damien lives with his mother Marianne, a doctor, while his father, a pilot, is on a tour of duty abroad with the French military. At school, Damien is bullied by Thomas,  who lives in the farming community up in the mountains, nut learns to fight back. The boys find themselves living together when Marianne invites Thomas to come and stay with them while his mother is ill in hospital. Damien must learn to live with the boy who terrorised him.", "poster_path": "/ogfzBX1iNzgaCBTmRRf6c69L19k.jpg", "release_date": "2016-02-27", "title": "Being 17", "video": false, "vote_average": 6.9, "vote_count": 210, "popularity": 8.661}, {"adult": false, "backdrop_path": "/3Z0GbJ3NKBEbotdHxsllRBKRMmj.jpg", "genre_ids": [18], "id": 472451, "original_language": "en", "original_title": "Boy Erased", "overview": "Jared, the son of a Baptist pastor in a small American town, is outed to his parents at age 19. Jared is faced with an ultimatum: attend a gay conversion therapy program \u2013 or be permanently exiled and shunned by his family, friends, and faith.", "poster_path": "/oZbhTdi0ZQY7iiSQ0L7h3ya6NDF.jpg", "release_date": "2018-09-24", "title": "Boy Erased", "video": false, "vote_average": 7.2, "vote_count": 653, "popularity": 13.81}, {"id": 21634, "video": false, "vote_count": 250, "vote_average": 7.9, "title": "Prayers for Bobby", "release_date": "2009-02-27", "original_language": "en", "original_title": "Prayers for Bobby", "genre_ids": [18, 36, 10770], "backdrop_path": "/pSjGsbqyKUzF8rHzL0vtVWV1pS6.jpg", "adult": false, "overview": "Bobby Griffith was his mother's favorite son, the perfect all-American boy growing up under deeply religious influences in Walnut Creek, California. Bobby was also gay. Struggling with a conflict no one knew of much less understood Bobby finally came out to his family.", "poster_path": "/d9TGJxEMkLTEF5lWAx1PLNDNpA0.jpg", "popularity": 9.034}, {"adult": false, "backdrop_path": "/da8Kj1bgPvL8Tf1PgkA70UwmYzh.jpg", "genre_ids": [35, 18, 10749], "id": 10938, "original_language": "en", "original_title": "Beautiful Thing", "overview": "Set during a long, hot summer on the Thamesmead Estate in Southeast London, three teenagers edge towards adulthood.", "poster_path": "/8z1ZkZoznIGLyx4xHEaQNZqG63D.jpg", "release_date": "1996-06-21", "title": "Beautiful Thing", "video": false, "vote_average": 7.5, "vote_count": 154, "popularity": 9.835}, {"id": 84892, "video": false, "vote_count": 6553, "vote_average": 7.7, "title": "The Perks of Being a Wallflower", "release_date": "2012-09-20", "original_language": "en", "original_title": "The Perks of Being a Wallflower", "genre_ids": [18], "backdrop_path": "/uhLcaTPeBpUNgYhZXhDWkj7gMkp.jpg", "adult": false, "overview": "15-year-old freshman Charlie is a wallflower, always watching life from the sidelines, until two charismatic senior students become his mentors. Free-spirited Sam and her stepbrother Patrick help Charlie discover the joys of friendship, first love, music and more, while a teacher sparks Charlie's dreams of becoming a writer.", "poster_path": "/cyNQLnHnXZcTUDXVVSEYmquOTOI.jpg", "popularity": 19.486}, {"adult": false, "backdrop_path": "/useuHJQ5HOoEWkAvEjL1FW1sUfe.jpg", "genre_ids": [18], "id": 376867, "original_language": "en", "original_title": "Moonlight", "overview": "The tender, heartbreaking story of a young man\u2019s struggle to find himself, told across three defining chapters in his life as he experiences the ecstasy, pain, and beauty of falling in love, while grappling with his own sexuality.", "poster_path": "/qAwFbszz0kRyTuXmMeKQZCX3Q2O.jpg", "release_date": "2016-10-21", "title": "Moonlight", "video": false, "vote_average": 7.4, "vote_count": 4406, "popularity": 27.348}, {"id": 424694, "video": false, "vote_count": 9721, "vote_average": 8.0, "title": "Bohemian Rhapsody", "release_date": "2018-10-24", "original_language": "en", "original_title": "Bohemian Rhapsody", "genre_ids": [18, 10402], "backdrop_path": "/93xA62uLd5CwMOAs37eQ7vPc1iV.jpg", "adult": false, "overview": "Singer Freddie Mercury, guitarist Brian May, drummer Roger Taylor and bass guitarist John Deacon take the music world by storm when they form the rock 'n' roll band Queen in 1970. Hit songs become instant classics. When Mercury's increasingly wild lifestyle starts to spiral out of control, Queen soon faces its greatest challenge yet \u2013 finding a way to keep the band together amid the success and excess.", "poster_path": "/lHu1wtNaczFPGFDTrjCSzeLPTKN.jpg", "popularity": 40.186}, {"adult": false, "backdrop_path": "/cLOekK7EmHB1beYUYEXIlcr6mpS.jpg", "genre_ids": [10752, 36, 28, 12, 18, 10749], "id": 1966, "original_language": "en", "original_title": "Alexander", "overview": "Alexander, the King of Macedonia, leads his legions against the giant Persian Empire. After defeating the Persians, he leads his army across the then known world, venturing farther than any westerner had ever gone, all the way to India.", "poster_path": "/cJrnmbsFm5cEt0pHZZ2a1ueH5aT.jpg", "release_date": "2004-11-21", "title": "Alexander", "video": false, "vote_average": 5.8, "vote_count": 1989, "popularity": 29.042}, {"id": 490132, "video": false, "vote_count": 5172, "vote_average": 8.3, "title": "Green Book", "release_date": "2018-11-16", "original_language": "en", "original_title": "Green Book", "genre_ids": [35, 18], "backdrop_path": "/78PjwaykLY2QqhMfWRDvmfbC6EV.jpg", "adult": false, "overview": "Tony Lip, a bouncer in 1962, is hired to drive pianist Don Shirley on a tour through the Deep South in the days when African Americans, forced to find alternate accommodations and services due to segregation laws below the Mason-Dixon Line, relied on a guide called The Negro Motorist Green Book.", "poster_path": "/7BsvSuDQuoqhWmU2fL7W2GOcZHU.jpg", "popularity": 35.522}, {"adult": false, "backdrop_path": "/hRcSGSW0CZvvUqmDabGLYJygkgO.jpg", "genre_ids": [35], "id": 532938, "original_language": "fr", "original_title": "Les Crevettes Paillet\u00e9es", "overview": "Matthias Le Goff, an Olympic champion at the end of his career, makes a homophobic statement on TV. His punishment: coach the Shiny Shrimps, a flamboyant and amateur gay water-polo team. They have only one thing in mind: to qualify for the Gay Games in Croatia where the hottest international LGBT athletes compete. It's the start of a bumpy and joyful ride - Faster, Higher, Stronger.", "poster_path": "/3OShlu6Aii3RqRg6cYCFApppXw4.jpg", "release_date": "2019-05-08", "title": "The Shiny Shrimps", "video": false, "vote_average": 6.8, "vote_count": 157, "popularity": 13.574}, {"adult": false, "backdrop_path": "/4BMel8xxSed1pCkPSGc9R3jsUtC.jpg", "genre_ids": [18, 10749], "id": 142, "original_language": "en", "original_title": "Brokeback Mountain", "overview": "Two modern-day cowboys meet on a shepherding job in the summer of '63, the two share a raw and powerful summer together that turns into a lifelong relationship conflicting with the lives they are supposed to live.", "poster_path": "/z2DqVxj17aW6xpimRlCLfhKSfUm.jpg", "release_date": "2005-09-10", "title": "Brokeback Mountain", "video": false, "vote_average": 7.8, "vote_count": 3790, "popularity": 20.344}, {"adult": false, "backdrop_path": "/xhstSJACJF7QiO4zAsqAPXE1PbQ.jpg", "genre_ids": [18], "id": 306819, "original_language": "en", "original_title": "The Danish Girl", "overview": "When Gerda Wegener asks her husband Einar to fill in as a portrait model, Einar discovers the person she's meant to be and begins living her life as Lili Elbe. Having realized her true self and with Gerda's love and support, Lili embarks on a groundbreaking journey as a transgender pioneer.", "poster_path": "/seWQ6UKCrhGH0eP7dFZvmIBQtKF.jpg", "release_date": "2015-11-27", "title": "The Danish Girl", "video": false, "vote_average": 7.7, "vote_count": 4035, "popularity": 18.351}, {"id": 9016, "video": false, "vote_count": 2231, "vote_average": 7.4, "title": "Treasure Planet", "release_date": "2002-11-26", "original_language": "en", "original_title": "Treasure Planet", "genre_ids": [12, 16, 14, 878, 10751], "backdrop_path": "/3HVvtFm9NvOfn1u3yfeEugh2ZWj.jpg", "adult": false, "overview": "When space galleon cabin boy Jim Hawkins discovers a map to an intergalactic \"loot of a thousand worlds,\" a cyborg cook named John Silver teaches him to battle supernovas and space storms. But, soon, Jim realizes Silver is a pirate intent on mutiny!", "poster_path": "/gFfZVblQoExIVK4PVCJ9xZZJJKy.jpg", "popularity": 23.423}], "total_pages": 216, "total_results": 4308}, "recommendations": {"page": 1, "results": [{"adult": false, "backdrop_path": "/lURaN9UO4S9lF6DRb0BgDclIdkK.jpg", "genre_ids": [18, 35, 10749], "id": 116272, "original_language": "en", "original_title": "What Happens Next", "overview": "After rich businessman Paul Greco (popular daytime star Jon Lindstrom) retires early, his imperious sister Elise (two-time Emmy Award\u00ae nominee Wendie Malick) tries to get him to settle down with the woman of her choosing. But Paul seems more interested in developing his friendship with Andy (cutie Chris Murrah), a charming gay man he meets at a dog park.", "poster_path": "/g6shL9RfdWpJHy7KRhAPwI3w0uu.jpg", "release_date": "2011-08-27", "title": "What Happens Next", "video": false, "vote_average": 5.6, "vote_count": 12, "popularity": 3.818}, {"adult": false, "backdrop_path": "/A3aTSpk9ElYrsb05kSegAcmOsWz.jpg", "genre_ids": [18, 10749], "id": 56310, "original_language": "en", "original_title": "Tan Lines", "overview": "Cute teen Midget Hollow wanders through life riding big waves and partying with surfer boys. When Midget's best friend's gay brother Cass arrives on the scene, the two quickly dive head first into a clandestine sea of sexual awakening.", "poster_path": "/wBULASGt7xPrsBuRPZrr66QXdRd.jpg", "release_date": "2005-03-21", "title": "Tan Lines", "video": false, "vote_average": 5.7, "vote_count": 9, "popularity": 3.248}, {"adult": false, "backdrop_path": "/9kKcwoJTwXQ9XnIuCF4Zy0ob9u6.jpg", "genre_ids": [35], "id": 85348, "original_language": "en", "original_title": "Walk a Mile in My Pradas", "overview": "A little Christmas magic causes two coworkers with contrasting lifestyles to switch sexual orientations.", "poster_path": "/6r7l0xIBVjFYNUXFd10IZo8zSfB.jpg", "release_date": "2011-11-15", "title": "Walk a Mile in My Pradas", "video": false, "vote_average": 4.9, "vote_count": 8, "popularity": 4.355}], "total_pages": 1, "total_results": 3}, "credits": {"cast": [{"cast_id": 25, "character": "Richard Nearly", "credit_id": "5329fea192514108390002f6", "gender": 2, "id": 123795, "name": "Michael Urie", "order": 1, "profile_path": "/jnht4uEQEM9d8YXAKckD1aWamPN.jpg"}, {"cast_id": 26, "character": "Alex Reardon", "credit_id": "5329feaf925141083f0002e7", "gender": 2, "id": 80965, "name": "Randy Harrison", "order": 2, "profile_path": "/19dxv2pGU4za1c6DDKNrU5J02cR.jpg"}, {"cast_id": 27, "character": "Jake", "credit_id": "5329feb8925141084d0002e8", "gender": 2, "id": 24965, "name": "Scott Wolf", "order": 3, "profile_path": "/irmODdvrL16lTumtDRN3z99QO1c.jpg"}, {"cast_id": 28, "character": "Detective Diane Kershman", "credit_id": "5329fec7925141083f0002e9", "gender": 1, "id": 38333, "name": "Ana Ortiz", "order": 4, "profile_path": "/wMwPs5CVcmW6PjriAqUpr5O1AcS.jpg"}, {"cast_id": 29, "character": "Dr. Cooper Whitehead, Ph.D.", "credit_id": "5329fee292514108450002ff", "gender": 2, "id": 58528, "name": "James Urbaniak", "order": 5, "profile_path": "/13cOcBh08yfhJQGvrnZ6ZteWfzw.jpg"}, {"cast_id": 30, "character": "Dr. Page Whitehead, Ph.D.", "credit_id": "5329fef6925141084a000336", "gender": 1, "id": 967540, "name": "Carrie Wiita", "order": 6, "profile_path": "/2QavBKpi3pgvU1OktSN0lM3HAEk.jpg"}, {"cast_id": 31, "character": "Sidney Talmadge", "credit_id": "5329ff04925141084a000338", "gender": 2, "id": 1539, "name": "Rick Overton", "order": 7, "profile_path": "/584g2eLl6ZmZ71ikvGw5tyqEv1p.jpg"}, {"cast_id": 32, "character": "Logan", "credit_id": "5329ff0d92514108390002fa", "gender": 2, "id": 62849, "name": "Tom Lenk", "order": 8, "profile_path": "/nXCTMTV3pTgpMlpIKwQrZk6stQ6.jpg"}, {"cast_id": 33, "character": "Chloe", "credit_id": "5329ff1a925141083f0002f3", "gender": 1, "id": 1224218, "name": "Kate Reinders", "order": 9, "profile_path": "/n0sK8X3lNVnUiMzNk3y3bIbjtlD.jpg"}, {"cast_id": 34, "character": "Stuart Hedron", "credit_id": "5329ff2d925141083c0002f2", "gender": 2, "id": 77073, "name": "Lance Bass", "order": 10, "profile_path": "/ivajUE06k6Ac4RKv8OOAciZIxAK.jpg"}, {"cast_id": 36, "character": "Olivier", "credit_id": "5329ff4c92514108390002fd", "gender": 0, "id": 1219590, "name": "Mitch Silpa", "order": 12, "profile_path": "/1TECsY8WPkRsSaeNhWzWC2A5COU.jpg"}, {"cast_id": 37, "character": "Clay Hampton", "credit_id": "5329ff5a9251410845000308", "gender": 0, "id": 116467, "name": "Drew Droege", "order": 13, "profile_path": "/aruBWdOuSEmb0jUMZgpXKOJCik.jpg"}, {"cast_id": 38, "character": "Priti Khadga", "credit_id": "5329ff6c925141084d0002f2", "gender": 1, "id": 139065, "name": "Tania Gunadi", "order": 14, "profile_path": "/7cSICEw4PFC8dxxkmEoIfTarNjA.jpg"}, {"cast_id": 39, "character": "Chana Dorje", "credit_id": "5329ff7a9251410842000374", "gender": 2, "id": 15342, "name": "Kee Chan", "order": 15, "profile_path": "/daRXLJaABxXgHK65IKlsqvyrG12.jpg"}, {"cast_id": 40, "character": "Juan", "credit_id": "5329ff83925141084d0002f4", "gender": 0, "id": 665167, "name": "Mario Diaz", "order": 16, "profile_path": "/ytOusJHb2UKvICaR3gdaXLDAolJ.jpg"}, {"cast_id": 41, "character": "Officer Cross", "credit_id": "5329ff9092514108390002ff", "gender": 2, "id": 131252, "name": "Adam Huss", "order": 17, "profile_path": "/xUlJTtS5Lv5qwwrVAxEhyqsNjk.jpg"}, {"cast_id": 42, "character": "Johnny", "credit_id": "5329ff9b925141084a000341", "gender": 2, "id": 98658, "name": "Jason-Shane Scott", "order": 18, "profile_path": "/fBtD5iQabf08YTg1fXlGHE1dCiZ.jpg"}, {"cast_id": 43, "character": "Fritz", "credit_id": "5329ffa59251410845000316", "gender": 2, "id": 120591, "name": "Ryan Spahn", "order": 19, "profile_path": null}, {"cast_id": 44, "character": "Jillian", "credit_id": "5329ffb59251410839000301", "gender": 0, "id": 964772, "name": "Allison Lane", "order": 20, "profile_path": "/Q2IAAKWj0Ghr7gu7UhwrEFn8WC.jpg"}, {"cast_id": 45, "character": "Dallas", "credit_id": "5329ffc29251410836000347", "gender": 0, "id": 1302534, "name": "John Halbach", "order": 21, "profile_path": null}, {"cast_id": 46, "character": "Cricket Sumner", "credit_id": "5329ffd3925141083c0002fc", "gender": 1, "id": 171847, "name": "Jennifer Riker", "order": 22, "profile_path": "/xj67I2nI27PlbHzPWulsLZiOFPT.jpg"}, {"cast_id": 47, "character": "Little Kuenlay/ Little Kuenphay", "credit_id": "5329fff2925141083900030a", "gender": 0, "id": 1302535, "name": "Forrest Wheeler", "order": 23, "profile_path": "/lksFw8L5ZU69FpTlUvmvimhV5Hs.jpg"}, {"cast_id": 48, "character": "Dr. Gerta Von Vertesberg", "credit_id": "532a00119251410842000379", "gender": 0, "id": 1302536, "name": "Sabine Eickmann", "order": 24, "profile_path": null}, {"cast_id": 49, "character": "Ward Rodriguez-Levine", "credit_id": "532a002a925141084200037d", "gender": 2, "id": 1198438, "name": "Jeff Marchelletta", "order": 25, "profile_path": "/AmeszINXEPp5MbAXw9HUX4XwImi.jpg"}, {"cast_id": 50, "character": "Officer Moore", "credit_id": "532a003a9251410842000381", "gender": 0, "id": 1302537, "name": "Adam Bucci", "order": 26, "profile_path": "/w7uIugwzZtFmdwvceKg3LcN39At.jpg"}, {"cast_id": 51, "character": "Bethanny", "credit_id": "532a004e9251410839000317", "gender": 0, "id": 1302538, "name": "Panama Red", "order": 27, "profile_path": null}, {"cast_id": 52, "character": "Sketchy Man", "credit_id": "532a0059925141083900031b", "gender": 2, "id": 1302509, "name": "David Avallone", "order": 28, "profile_path": null}, {"cast_id": 53, "character": "Little Jigme", "credit_id": "532a0066925141083c000309", "gender": 0, "id": 1302540, "name": "Hugo Ishida", "order": 29, "profile_path": null}, {"cast_id": 54, "character": "Little Jamyang", "credit_id": "532a0075925141084d000302", "gender": 0, "id": 1302541, "name": "William Tao", "order": 30, "profile_path": null}, {"cast_id": 55, "character": "Officer Johnson", "credit_id": "532a00869251410836000355", "gender": 0, "id": 1302542, "name": "Harry Williams Jr.", "order": 31, "profile_path": null}, {"cast_id": 56, "character": "Party Guest", "credit_id": "532a0094925141084a00034e", "gender": 0, "id": 148268, "name": "Ed Horwitz", "order": 32, "profile_path": null}, {"cast_id": 57, "character": "Rigzang Wangchuk", "credit_id": "54edd8c4c3a3686d5e003a2f", "gender": 2, "id": 12224, "name": "Alec Mapa", "order": 33, "profile_path": "/e6Lj0IihgcmBw6FuzU5y8toEREq.jpg"}], "crew": [{"credit_id": "5329fce092514108360002fc", "department": "Production", "gender": 2, "id": 75705, "job": "Producer", "name": "Beau J. Genot", "profile_path": null}, {"credit_id": "5329fc5992514108360002ef", "department": "Directing", "gender": 2, "id": 105729, "job": "Director", "name": "Stewart Wade", "profile_path": null}, {"credit_id": "5329fd4592514108450002bd", "department": "Sound", "gender": 2, "id": 969258, "job": "Music", "name": "Jonathan Dinerstein", "profile_path": null}, {"credit_id": "5329fc77925141084d0002b3", "department": "Writing", "gender": 0, "id": 1006148, "job": "Screenplay", "name": "David Michael Barrett", "profile_path": "/tmiQvNIKt54lWsN4wq4RmUweBDj.jpg"}, {"credit_id": "5329fcbe925141083c0002b2", "department": "Production", "gender": 0, "id": 1006148, "job": "Producer", "name": "David Michael Barrett", "profile_path": "/tmiQvNIKt54lWsN4wq4RmUweBDj.jpg"}, {"credit_id": "5329fd1a925141084a000307", "department": "Production", "gender": 2, "id": 1063685, "job": "Executive Producer", "name": "Ruben Ramos", "profile_path": null}, {"credit_id": "5329fd2e92514108390002cb", "department": "Production", "gender": 0, "id": 1302508, "job": "Executive Producer", "name": "Greg Sterling", "profile_path": null}, {"credit_id": "5329fc8d925141084a0002ed", "department": "Writing", "gender": 0, "id": 1302508, "job": "Story", "name": "Greg Sterling", "profile_path": null}, {"credit_id": "5329fcab925141084a0002f3", "department": "Production", "gender": 2, "id": 1302509, "job": "Producer", "name": "David Avallone", "profile_path": null}, {"credit_id": "5329fcce92514108420002a2", "department": "Production", "gender": 0, "id": 1302510, "job": "Producer", "name": "Richard C. Deason", "profile_path": null}, {"credit_id": "5329fcf492514108420002aa", "department": "Production", "gender": 0, "id": 1302511, "job": "Executive Producer", "name": "Dena Harman", "profile_path": null}, {"credit_id": "5329fd0a925141084d0002c7", "department": "Production", "gender": 0, "id": 1302513, "job": "Executive Producer", "name": "K.M. Kaze", "profile_path": null}, {"credit_id": "5329fd5e9251410836000309", "department": "Art", "gender": 0, "id": 1302514, "job": "Production Design", "name": "Roman Udalov", "profile_path": null}, {"credit_id": "5329fd6f925141083600030e", "department": "Art", "gender": 0, "id": 1302515, "job": "Art Direction", "name": "Darren Williams", "profile_path": null}, {"credit_id": "5329fd7f9251410836000313", "department": "Costume & Make-Up", "gender": 0, "id": 1302516, "job": "Costume Design", "name": "Cari Avila", "profile_path": null}, {"credit_id": "5329fd9892514108390002d5", "department": "Costume & Make-Up", "gender": 0, "id": 1302517, "job": "Makeup Department Head", "name": "Kat Laskey", "profile_path": null}, {"credit_id": "5329fdab92514108390002dc", "department": "Sound", "gender": 0, "id": 1302518, "job": "Boom Operator", "name": "Frederico Jimenez", "profile_path": null}, {"credit_id": "5329fdbf92514108420002c7", "department": "Sound", "gender": 0, "id": 1302521, "job": "Foley", "name": "Tony Marguiles", "profile_path": null}, {"credit_id": "5329fdd4925141084d0002d7", "department": "Sound", "gender": 0, "id": 1302522, "job": "Sound Director", "name": "Daniel S. McCoy", "profile_path": null}, {"credit_id": "5329fde992514108390002e6", "department": "Sound", "gender": 2, "id": 1302523, "job": "Supervising Sound Editor", "name": "Greg Vossberg", "profile_path": null}, {"credit_id": "5329fe04925141083c0002cf", "department": "Lighting", "gender": 0, "id": 1302524, "job": "Gaffer", "name": "N. Connor Eberhart", "profile_path": null}, {"credit_id": "5329fe2f92514108450002e8", "department": "Directing", "gender": 1, "id": 1302527, "job": "Script Supervisor", "name": "Kimberley Roper", "profile_path": null}, {"credit_id": "5329fe3e92514108420002d2", "department": "Directing", "gender": 0, "id": 1302528, "job": "Script Supervisor", "name": "Tiffany Tavares", "profile_path": null}, {"credit_id": "5329fe649251410836000326", "department": "Crew", "gender": 0, "id": 1302529, "job": "Cinematography", "name": "Pierluigi Malavasi", "profile_path": null}, {"credit_id": "5329fe7f92514108450002f1", "department": "Crew", "gender": 0, "id": 1302530, "job": "Cinematography", "name": "Dominique M\u00fcller", "profile_path": null}]}}