{"adult": false, "backdrop_path": "/k91si3A9xAyDN2OL0dvtJHHqqvG.jpg", "belongs_to_collection": null, "budget": 0, "genres": [{"id": 35, "name": "Comedy"}], "homepage": null, "id": 260681, "imdb_id": "tt0041341", "original_language": "en", "original_title": "Everybody Does It", "overview": "Leonard Borland loves his monied wife, but with his wrecking business looking shaky he treasures her all the more. So when she decides to try again to become an opera singer he indulges her. While organising a concert for her he meets glamorous Cecil Carver. She in turn discovers Leonard has a splendid voice, and encourages him to use it for reasons very much her own.", "popularity": 1.552, "poster_path": "/Ag73KkgaG3byRBB4cD7mzYhfTpx.jpg", "production_companies": [{"id": 25, "logo_path": "/qZCc1lty5FzX30aOCVRBLzaVmcp.png", "name": "20th Century Fox", "origin_country": "US"}], "production_countries": [{"iso_3166_1": "US", "name": "United States of America"}], "release_date": "1949-10-24", "revenue": 0, "runtime": 98, "spoken_languages": [{"iso_639_1": "en", "name": "English"}, {"iso_639_1": "it", "name": "Italiano"}], "status": "Released", "tagline": "Paul Douglas Sings!", "title": "Everybody Does It", "video": false, "vote_average": 8.5, "vote_count": 1, "keywords": {"keywords": [{"id": 931, "name": "jealousy"}, {"id": 2992, "name": "diva"}, {"id": 164920, "name": "opera singer"}]}, "similar": {"page": 1, "results": [{"adult": false, "backdrop_path": "/ecREZ3vYCqethftSDWK4we0X498.jpg", "genre_ids": [35, 18, 10749], "id": 4507, "original_language": "es", "original_title": "Jam\u00f3n, jam\u00f3n", "overview": "Jose Luis is an executive at his parents underwear factory where his girlfriend Sylvia works on the shop floor. When Sylvia becomes pregnant, Jose Luis promises her that he will marry her, most likely against the wishes of his parents. Jose Luis' mother is determined to break her son's engagement to a girl from a lower-class family, and hires Raul, a potential underwear model and would-be bullfighter to seduce Sylvia.", "poster_path": "/v5Fq01ZtYnA2Grxdd3g8CuGZARg.jpg", "release_date": "1992-09-03", "title": "Jamon Jamon", "video": false, "vote_average": 6.1, "vote_count": 143, "popularity": 13.381}, {"adult": false, "backdrop_path": "/bYbnlh6VXFRtcSX82UMDsBDLB5j.jpg", "genre_ids": [18, 10749], "id": 28468, "original_language": "it", "original_title": "La chiave", "overview": "After twenty years of marriage, art professor Nino Rolfe attempts to break down his wife Teresa's conventional modesty. Noticing her affection for their daughter's fianc\u00e9, Nino instigates her sexual interest in him as well. This sets off a chain of unexpected events and emotional complications, as Nino and his unpredictable fascist daughter find that they both enjoy being jealous.", "poster_path": "/e6g2geNLgFzMbriH6EvSJZD78nx.jpg", "release_date": "1983-10-18", "title": "The Key", "video": false, "vote_average": 5.0, "vote_count": 128, "popularity": 15.363}, {"id": 521, "video": false, "vote_count": 1257, "vote_average": 8.0, "title": "Dial M for Murder", "release_date": "1954-05-29", "original_language": "en", "original_title": "Dial M for Murder", "genre_ids": [80, 18, 9648, 53], "backdrop_path": "/jVMlfESb0TJ29w8CUDDofEprMmn.jpg", "adult": false, "overview": "An ex-tennis pro carries out a plot to have his wife murdered after discovering she is having an affair, and assumes she will soon leave him for the other man anyway. When things go wrong, he improvises a new plan\u2014to frame her for murder instead.", "poster_path": "/xrpK1PyckNWmRxU4kZURfaCyboS.jpg", "popularity": 28.336}, {"adult": false, "backdrop_path": "/ojsY0XyCSsJvm0n7YTwumQcvBqT.jpg", "genre_ids": [9648, 53], "id": 1586, "original_language": "en", "original_title": "Secret Window", "overview": "Mort Rainey, a writer just emerging from a painful divorce with his ex-wife, is stalked at his remote lake house by a psychotic stranger and would-be scribe who claims Rainey swiped his best story idea. But as Rainey endeavors to prove his innocence, he begins to question his own sanity.", "poster_path": "/f5t7Df50xjniLlE80ty2dYsZBqI.jpg", "release_date": "2004-03-12", "title": "Secret Window", "video": false, "vote_average": 6.5, "vote_count": 2126, "popularity": 19.288}, {"id": 116, "video": false, "vote_count": 2413, "vote_average": 7.3, "title": "Match Point", "release_date": "2005-10-26", "original_language": "en", "original_title": "Match Point", "genre_ids": [80, 18, 53, 10749], "backdrop_path": "/40gCaXoyT75wuLbz1t5BwpLm0w4.jpg", "adult": false, "overview": "Match Point is Woody Allen\u2019s satire of the British High Society and the ambition of a young tennis instructor to enter into it. Yet when he must decide between two women - one assuring him his place in high society, and the other that would take him far from it - palms start to sweat and a dark psychological match in his head begins.", "poster_path": "/zuSFZEbSs7hj9lfeu2k7a4bPxdE.jpg", "popularity": 15.699}, {"id": 577, "video": false, "vote_count": 383, "vote_average": 6.6, "title": "To Die For", "release_date": "1995-09-22", "original_language": "en", "original_title": "To Die For", "genre_ids": [35, 80, 18], "backdrop_path": "/gx5X7KK3Uw2A81xuYxP4yXKHTkZ.jpg", "adult": false, "overview": "Suzanne Stone wants to be a world-famous news anchor and she is willing to do anything to get what she wants. What she lacks in intelligence, she makes up for in cold determination and diabolical wiles. As she pursues her goal with relentless focus, she is forced to destroy anything and anyone that may stand in her way, regardless of the ultimate cost or means necessary.", "poster_path": "/zCREx8trzejNieDLUsRuwLU0cS3.jpg", "popularity": 14.209}, {"id": 599, "video": false, "vote_count": 1215, "vote_average": 8.4, "title": "Sunset Boulevard", "release_date": "1950-08-10", "original_language": "en", "original_title": "Sunset Boulevard", "genre_ids": [18], "backdrop_path": "/u44VbUuoP6OZYEBv2DRd7ShPTMp.jpg", "adult": false, "overview": "A hack screenwriter writes a screenplay for a former silent film star who has faded into Hollywood obscurity.", "poster_path": "/oFwzvRgfxJc0FUr2mwYTi10dk3G.jpg", "popularity": 15.201}, {"adult": false, "backdrop_path": "/dVDdABRCmQglgXod01GMHgtkS8k.jpg", "genre_ids": [18, 10749], "id": 713, "original_language": "en", "original_title": "The Piano", "overview": "After a long voyage from Scotland, pianist Ada McGrath and her young daughter, Flora, are left with all their belongings, including a piano, on a New Zealand beach. Ada, who has been mute since childhood, has been sold into marriage to a local man named Alisdair Stewart. Making little attempt to warm up to Alisdair, Ada soon becomes intrigued by his Maori-friendly acquaintance, George Baines, leading to tense, life-altering conflicts.", "poster_path": "/rx8RKXn8OtuS6lqloYsjyrGOUp4.jpg", "release_date": "1993-05-19", "title": "The Piano", "video": false, "vote_average": 7.4, "vote_count": 652, "popularity": 15.318}, {"id": 2758, "video": false, "vote_count": 1439, "vote_average": 6.7, "title": "Addams Family Values", "release_date": "1993-11-19", "original_language": "en", "original_title": "Addams Family Values", "genre_ids": [35, 14, 10751], "backdrop_path": "/dMSC5jU9gsw2VmaVHlFqXk6w3j7.jpg", "adult": false, "overview": "Siblings Wednesday and Pugsley Addams will stop at nothing to get rid of Pubert, the new baby boy adored by parents Gomez and Morticia. Things go from bad to worse when the new \"black widow\" nanny, Debbie Jellinsky, launches her plan to add Fester to her collection of dead husbands.", "poster_path": "/8znyj20O3EYLD2EzWnZQMnkE4zH.jpg", "popularity": 23.261}, {"id": 95610, "video": false, "vote_count": 2004, "vote_average": 6.4, "title": "Bridget Jones's Baby", "release_date": "2016-09-14", "original_language": "en", "original_title": "Bridget Jones's Baby", "genre_ids": [35, 10749], "backdrop_path": "/w9VNDcQet0TUoLRWHg8JbT4QjpW.jpg", "adult": false, "overview": "Breaking up with Mark Darcy leaves Bridget Jones over 40 and single again. Feeling that she has everything under control, Jones decides to focus on her career as a top news producer. Suddenly, her love life comes back from the dead when she meets a dashing and handsome American named Jack. Things couldn't be better, until Bridget discovers that she is pregnant. Now, the befuddled mom-to-be must figure out if the proud papa is Mark or Jack.", "poster_path": "/j8di6S3mUuFe5Yz8etRG8yG5EeE.jpg", "popularity": 14.026}, {"adult": false, "backdrop_path": "/98ahnrena4PwLth7HFYGLf9yssH.jpg", "genre_ids": [35, 18, 10749], "id": 22705, "original_language": "it", "original_title": "Tra(sgre)dire", "overview": "While scouting out apartments in London for her Venetian boyfriend, Carla rents an apartment that overlooks the Thames. There she meet the lesbian hyper-horny real estate agent Moira.", "poster_path": "/kZITrLEiTfzzJhtwtXhQUl3ImCQ.jpg", "release_date": "2000-01-28", "title": "Cheeky", "video": false, "vote_average": 5.7, "vote_count": 92, "popularity": 30.42}, {"id": 10527, "video": false, "vote_count": 4220, "vote_average": 6.4, "title": "Madagascar: Escape 2 Africa", "release_date": "2008-10-30", "original_language": "en", "original_title": "Madagascar: Escape 2 Africa", "genre_ids": [16, 35, 10751], "backdrop_path": "/anxiz37Z9FPKeuCsJcxViSWmPxg.jpg", "adult": false, "overview": "Alex, Marty, and other zoo animals find a way to escape from Madagascar when the penguins reassemble a wrecked airplane. The precariously repaired craft stays airborne just long enough to make it to the African continent. There the New Yorkers encounter members of their own species for the first time. Africa proves to be a wild place, but Alex and company wonder if it is better than their Central Park home.", "poster_path": "/9mohxwknsHcwFBSAAhoQXwFV5zn.jpg", "popularity": 23.58}, {"id": 3525, "video": false, "vote_count": 480, "vote_average": 6.6, "title": "Working Girl", "release_date": "1988-12-20", "original_language": "en", "original_title": "Working Girl", "genre_ids": [35, 10749], "backdrop_path": "/9DRh30FG1Pe1u9c3N0pXyPyO9XS.jpg", "adult": false, "overview": "Tess McGill is an ambitious secretary with a unique approach for climbing the ladder to success. When her classy, but villainous boss breaks a leg skiing, Tess takes over her office, her apartment and even her wardrobe. She creates a deal with a handsome investment banker that will either take her to the top, or finish her off for good.", "poster_path": "/bzPuHOl8DjfZDzwGDCIHonnHUT6.jpg", "popularity": 10.434}, {"id": 19913, "video": false, "vote_count": 6208, "vote_average": 7.2, "title": "(500) Days of Summer", "release_date": "2009-07-17", "original_language": "en", "original_title": "(500) Days of Summer", "genre_ids": [35, 18, 10749], "backdrop_path": "/yYw9cVdRJ4zzwxM2cTDXfT6JI6E.jpg", "adult": false, "overview": "Tom, greeting-card writer and hopeless romantic, is caught completely off-guard when his girlfriend, Summer, suddenly dumps him. He reflects on their 500 days together to try to figure out where their love affair went sour, and in doing so, Tom rediscovers his true passions in life.", "poster_path": "/5SjtNPD1bb182vzQccvEUpXHFjN.jpg", "popularity": 20.487}, {"id": 194, "video": false, "vote_count": 6960, "vote_average": 7.9, "title": "Am\u00e9lie", "release_date": "2001-04-25", "original_language": "fr", "original_title": "Le Fabuleux Destin d'Am\u00e9lie Poulain", "genre_ids": [35, 10749], "backdrop_path": "/nxhfenC1jb5EcTI5GYxqnjYZMId.jpg", "adult": false, "overview": "At a tiny Parisian caf\u00e9, the adorable yet painfully shy Am\u00e9lie (Audrey Tautou) accidentally discovers a gift for helping others. Soon Amelie is spending her days as a matchmaker, guardian angel, and all-around do-gooder. But when she bumps into a handsome stranger, will she find the courage to become the star of her very own love story?", "poster_path": "/f0uorE7K7ggHfr8r7pUTOHWkOlE.jpg", "popularity": 26.531}, {"id": 153, "video": false, "vote_count": 3922, "vote_average": 7.4, "title": "Lost in Translation", "release_date": "2003-08-31", "original_language": "en", "original_title": "Lost in Translation", "genre_ids": [35, 18, 10749], "backdrop_path": "/iJP2ogeM5YpZyUOkmCiZ5UXWyBf.jpg", "adult": false, "overview": "Two lost souls visiting Tokyo -- the young, neglected wife of a photographer and a washed-up movie star shooting a TV commercial -- find an odd solace and pensive freedom to be real in each other's company, away from their lives in America.", "poster_path": "/wkSzJs7oMf8MIr9CQVICsvRfwA7.jpg", "popularity": 17.289}, {"adult": false, "backdrop_path": "/dji4Fm0gCDVb9DQQMRvAI8YNnTz.jpg", "genre_ids": [16, 35, 10751], "id": 862, "original_language": "en", "original_title": "Toy Story", "overview": "Led by Woody, Andy's toys live happily in his room until Andy's birthday brings Buzz Lightyear onto the scene. Afraid of losing his place in Andy's heart, Woody plots against Buzz. But when circumstances separate Buzz and Woody from their owner, the duo eventually learns to put aside their differences.", "poster_path": "/rhIRbceoE9lR4veEXuwCC2wARtG.jpg", "release_date": "1995-10-30", "title": "Toy Story", "video": false, "vote_average": 7.9, "vote_count": 11534, "popularity": 27.319}, {"id": 1903, "video": false, "vote_count": 2237, "vote_average": 6.8, "title": "Vanilla Sky", "release_date": "2001-12-10", "original_language": "en", "original_title": "Vanilla Sky", "genre_ids": [18, 14, 878, 53, 10749], "backdrop_path": "/6XwX3HzKhlBUbTy2qZx0THQOu2T.jpg", "adult": false, "overview": "David Aames has it all: wealth, good looks and gorgeous women on his arm. But just as he begins falling for the warmhearted Sofia, his face is horribly disfigured in a car accident. That's just the beginning of his troubles as the lines between illusion and reality, between life and death, are blurred.", "poster_path": "/ujMy9P4VczTW9YSpAM31uqdOMpz.jpg", "popularity": 16.046}, {"id": 301365, "video": false, "vote_count": 2292, "vote_average": 6.5, "title": "The Neon Demon", "release_date": "2016-06-08", "original_language": "en", "original_title": "The Neon Demon", "genre_ids": [27, 9648, 53], "backdrop_path": "/wwFP2C8zVRHWhtG9HRGhFImIcHm.jpg", "adult": false, "overview": "When aspiring model Jesse moves to Los Angeles, her youth and vitality are devoured by a group of beauty-obsessed women who will take any means necessary to get what she has.", "poster_path": "/pksGBk7yJqSuQ2F47S9eoqbtjWt.jpg", "popularity": 14.949}, {"id": 12531, "video": false, "vote_count": 91, "vote_average": 6.9, "title": "The Apartment", "release_date": "1996-07-27", "original_language": "fr", "original_title": "L'Appartement", "genre_ids": [18, 9648, 10749], "backdrop_path": "/64qyT8m4JQ6YODvXxtbHgKmXBX7.jpg", "adult": false, "overview": "A stylish suspense thriller that confounds the audience while presenting them with an extraordinary and elusive mystery. Max is a former playboy who has decided to settle down by marrying his current love, Muriel. However, during a business trip, Max catches a glimpse of the great lost love of his life, reviving his wanderlust and sending him off on a chase of the elusive Lisa, whom he had overheard suggesting to a friend that her lover, Daniel, had killed someone for her. Soon, Max is trying to unravel the mystery behind the suspicious death of Daniel's wife, which he hopes will lead him closer to Lisa.", "poster_path": "/1sqrQdQTn8jKLhUcPKfRVj639zA.jpg", "popularity": 19.17}], "total_pages": 73, "total_results": 1459}, "recommendations": {"page": 1, "results": [], "total_pages": 1, "total_results": 0}, "credits": {"cast": [{"cast_id": 0, "character": "Leonard Borland aka Logan Bennett", "credit_id": "532e800e9251413a72002c85", "gender": 2, "id": 111578, "name": "Paul Douglas", "order": 1, "profile_path": "/vXikiygQljU0at92pLe84ptTqaJ.jpg"}, {"cast_id": 1, "character": "Cecil Carver", "credit_id": "532e80259251413a6f002dbb", "gender": 1, "id": 30289, "name": "Linda Darnell", "order": 2, "profile_path": "/oyu5yhXOY0wz8OHjl4jSMmfpnIw.jpg"}, {"cast_id": 2, "character": "Doris Blair Borland", "credit_id": "532e803d9251413a7e002b3d", "gender": 1, "id": 10607, "name": "Celeste Holm", "order": 3, "profile_path": "/3TWctkWuPrtiwjqkfSDjDFcMcx.jpg"}, {"cast_id": 3, "character": "Major Blair", "credit_id": "532e80549251413a7e002b42", "gender": 2, "id": 11169, "name": "Charles Coburn", "order": 4, "profile_path": "/vuQEpr6ae3vcvpDxw2V9iKB1wUT.jpg"}, {"cast_id": 12, "character": "Mike Craig", "credit_id": "53eaf5cac3a368688e000836", "gender": 2, "id": 13297, "name": "Millard Mitchell", "order": 5, "profile_path": "/sYqhWsTBHtAJWqr6vhbIx65zUMc.jpg"}, {"cast_id": 13, "character": "Mrs. Blair", "credit_id": "53eaf5d9c3a36868940007b9", "gender": 1, "id": 83260, "name": "Lucile Watson", "order": 6, "profile_path": "/lph8cxn8qWFyt39tG68mfO2AyY8.jpg"}, {"cast_id": 14, "character": "Wilkins", "credit_id": "53eaf5e9c3a3687e970004bf", "gender": 2, "id": 14508, "name": "John Hoyt", "order": 7, "profile_path": "/m3NuX4YDtvvUSxUsR632SnSA1M5.jpg"}, {"cast_id": 15, "character": "Rossi", "credit_id": "53eaf5f8c3a36868a00007d4", "gender": 2, "id": 30272, "name": "George Tobias", "order": 8, "profile_path": "/bD6dAPyuZd3QSyst8b0CtEFe7Dp.jpg"}, {"cast_id": 16, "character": "Hugo", "credit_id": "53eaf615c3a36868940007bd", "gender": 2, "id": 95054, "name": "Leon Belasco", "order": 9, "profile_path": "/f5zHwIwjSqsyWuia82cDUcocd6N.jpg"}, {"cast_id": 17, "character": "Makeup Man", "credit_id": "53eaf628c3a36868940007bf", "gender": 2, "id": 3345, "name": "Tito Vuolo", "order": 10, "profile_path": "/9LI0wjSWG2ZEYyhMWaWuidapuaW.jpg"}, {"cast_id": 18, "character": "Rudolph Hertz", "credit_id": "57f7097dc3a3687c7a0013f1", "gender": 2, "id": 85937, "name": "Aubrey Mather", "order": 11, "profile_path": "/88rnj2zGd6DwvZ5rUGiiwg9M8bG.jpg"}, {"cast_id": 19, "character": "Harris", "credit_id": "57f70991c3a3687c6e00122f", "gender": 1, "id": 8829, "name": "Mae Marsh", "order": 12, "profile_path": "/wEHHFF2Tq2Z1BlRRr27SOcUW3pu.jpg"}, {"cast_id": 20, "character": "Cleary", "credit_id": "57f709a4c3a3687c810012e3", "gender": 0, "id": 82861, "name": "Edwin Max", "order": 13, "profile_path": "/kkVIWJj2cP0vAytRknFBLEqmbkg.jpg"}], "crew": [{"credit_id": "53eaf4bd0e0a265f5a000863", "department": "Directing", "gender": 0, "id": 34740, "job": "Director", "name": "Edmund Goulding", "profile_path": "/sestYtYBKchdGhDq9Ho3BToLKvR.jpg"}, {"credit_id": "53eaf50bc3a36868910007c5", "department": "Writing", "gender": 2, "id": 8501, "job": "Writer", "name": "Nunnally Johnson", "profile_path": "/uhPu5P41qMxzybWzerWik8H2wVI.jpg"}, {"credit_id": "53eaf52bc3a368688e00082b", "department": "Writing", "gender": 2, "id": 14971, "job": "Story", "name": "James M. Cain", "profile_path": "/eWGl2VrCqwZ84F48qKBsbAaglvQ.jpg"}, {"credit_id": "53eaf54ac3a368689a000813", "department": "Camera", "gender": 2, "id": 4101, "job": "Director of Photography", "name": "Joseph LaShelle", "profile_path": "/3j8m5eDzhinBJeUscfNZWhJn9ch.jpg"}, {"credit_id": "53eaf55bc3a36868a00007cb", "department": "Editing", "gender": 0, "id": 423011, "job": "Editor", "name": "Robert Fritch", "profile_path": null}, {"credit_id": "53eaf56fc3a368689d000791", "department": "Costume & Make-Up", "gender": 0, "id": 1352668, "job": "Costume Design", "name": "Kay Nelson", "profile_path": null}, {"credit_id": "53eaf580c3a368689d000796", "department": "Production", "gender": 2, "id": 8501, "job": "Producer", "name": "Nunnally Johnson", "profile_path": "/uhPu5P41qMxzybWzerWik8H2wVI.jpg"}, {"credit_id": "53eaf597c3a368689700082b", "department": "Production", "gender": 2, "id": 8502, "job": "Executive Producer", "name": "Darryl F. Zanuck", "profile_path": "/zItDFAPN2NgwXAPCjtGNQwVJoej.jpg"}]}}