{"adult": false, "backdrop_path": "/wgm40EWbNUfkw6rnpntTWyPcpLl.jpg", "belongs_to_collection": null, "budget": 0, "genres": [{"id": 35, "name": "Comedy"}, {"id": 37, "name": "Western"}], "homepage": null, "id": 260794, "imdb_id": "tt0195133", "original_language": "it", "original_title": "Per un dollaro a Tucson si muore", "overview": "A gang of bandits takes control of Tucson in preparation for the arrival of a consignment of gold, with only a band of voluntary soldiers trying to outwit them and save the town.", "popularity": 1.711, "poster_path": "/yO1Mri9shNTGveE8S4vstqo8TRR.jpg", "production_companies": [{"id": 12783, "logo_path": null, "name": "Bercol Films", "origin_country": ""}, {"id": 27706, "logo_path": null, "name": "Triglav Film", "origin_country": "SI"}, {"id": 76465, "logo_path": null, "name": "Variety Communications", "origin_country": ""}, {"id": 86337, "logo_path": null, "name": "Cineurop", "origin_country": ""}, {"id": 86338, "logo_path": null, "name": "Nuovo Mondo Cinematografico", "origin_country": ""}], "production_countries": [{"iso_3166_1": "IT", "name": "Italy"}, {"iso_3166_1": "FR", "name": "France"}, {"iso_3166_1": "SI", "name": "Slovenia"}], "release_date": "1964-01-01", "revenue": 0, "runtime": 85, "spoken_languages": [{"iso_639_1": "it", "name": "Italiano"}], "status": "Released", "tagline": "", "title": "Die for a Dollar in Tucson", "video": false, "vote_average": 0.0, "vote_count": 0, "keywords": {"keywords": [{"id": 1321, "name": "gold"}, {"id": 33600, "name": "stagecoach"}]}, "similar": {"page": 1, "results": [{"id": 3090, "video": false, "vote_count": 557, "vote_average": 8.1, "title": "The Treasure of the Sierra Madre", "release_date": "1948-01-24", "original_language": "en", "original_title": "The Treasure of the Sierra Madre", "genre_ids": [12, 18, 37], "backdrop_path": "/dDuNQNUdVMSKeEOwvuicc7m83IL.jpg", "adult": false, "overview": "Fred C. Dobbs and Bob Curtin, both down on their luck in Tampico, Mexico in 1925, meet up with a grizzled prospector named Howard and decide to join with him in search of gold in the wilds of central Mexico. Through enormous difficulties, they eventually succeed in finding gold, but bandits, the elements, and most especially greed threaten to turn their success into disaster.", "poster_path": "/e3lYTRwiDVPQv07xKldwlLAXikN.jpg", "popularity": 17.812}, {"id": 962, "video": false, "vote_count": 721, "vote_average": 8.0, "title": "The Gold Rush", "release_date": "1925-06-25", "original_language": "en", "original_title": "The Gold Rush", "genre_ids": [12, 35, 18], "backdrop_path": "/m5eYy0SY33hLnxWAdrILJddTi49.jpg", "adult": false, "overview": "A lone prospector ventures into Alaska looking for gold. He gets mixed up with some burly characters and falls in love with the beautiful Georgia. He tries to win her heart with his singular charm.", "poster_path": "/eQRFo1qwRREYwj47Yoe1PisgOle.jpg", "popularity": 10.642}, {"adult": false, "backdrop_path": "/iGAQZPnHLeXTaxZdKVUjLegWDom.jpg", "genre_ids": [35, 37], "id": 440161, "original_language": "en", "original_title": "The Sisters Brothers", "overview": "Oregon, 1851. Hermann Kermit Warm, a chemist and aspiring gold prospector, keeps a profitable secret that the Commodore wants to know, so he sends the Sisters brothers, two notorious assassins, to capture him on his way to California.", "poster_path": "/7Tl2nZ6uvmxwK14Skbf9VFHEHpX.jpg", "release_date": "2018-09-19", "title": "The Sisters Brothers", "video": false, "vote_average": 6.9, "vote_count": 894, "popularity": 15.148}, {"id": 20237, "video": false, "vote_count": 6, "vote_average": 6.8, "title": "The Adventures of Bullwhip Griffin", "release_date": "1967-03-08", "original_language": "en", "original_title": "The Adventures of Bullwhip Griffin", "genre_ids": [28, 35, 18, 37, 10751], "backdrop_path": "/bk0FRvHr36nmp0E8IO1h9MLkNIb.jpg", "adult": false, "overview": "Boston proper meets the Wild West as Roddy McDowall, Suzanne Pleshette, and Karl Malden star in a fish-out-of-water comedy for everyone! To restore his family's lost wealth, a young Boston lad stows away on a ship bound for the California Gold Rush. When their very proper butler gives chase, all roads lead to nonstop adventure, wild and woolly characters, and a lucky punch that leads to a bonanza of belly laughs!", "poster_path": "/cmCHhK8g7sOOTkqOVTbMqRdtrbI.jpg", "popularity": 18.424}, {"id": 12227, "video": false, "vote_count": 301, "vote_average": 6.6, "title": "White Fang", "release_date": "1991-01-18", "original_language": "en", "original_title": "White Fang", "genre_ids": [28, 12, 18, 10751], "backdrop_path": "/7dXf5hAExjnVbdmmWvrcDWX8EE8.jpg", "adult": false, "overview": "Jack London's classic adventure story about the friendship developed between a Yukon gold hunter and the mixed dog-wolf he rescues from the hands of a man who mistreats him.", "poster_path": "/27wg0rVZW8hX7nWeHCwTf9DygGc.jpg", "popularity": 11.997}, {"id": 11589, "video": false, "vote_count": 338, "vote_average": 7.4, "title": "Kelly's Heroes", "release_date": "1970-06-22", "original_language": "en", "original_title": "Kelly's Heroes", "genre_ids": [12, 35, 10752], "backdrop_path": "/js7WdYkmPDx8zHX0pgzhNuOTk77.jpg", "adult": false, "overview": "A misfit group of World War II American soldiers goes AWOL to rob a bank behind German lines.", "poster_path": "/lLFncrtTIz1hcteLbM9eKRflrMd.jpg", "popularity": 13.185}, {"id": 273248, "video": false, "vote_count": 9034, "vote_average": 7.7, "title": "The Hateful Eight", "release_date": "2015-12-25", "original_language": "en", "original_title": "The Hateful Eight", "genre_ids": [80, 18, 9648, 37], "backdrop_path": "/2DCU7Ou54JiBwTIarzKywtHPbAe.jpg", "adult": false, "overview": "Bounty hunters seek shelter from a raging blizzard and get caught up in a plot of betrayal and deception.", "poster_path": "/yDxsfIkbAJp5LrIsGCXRE8MwAZg.jpg", "popularity": 29.906}, {"adult": false, "backdrop_path": "/90kmxuSwU28dVy1ghVSHI4x1wb8.jpg", "genre_ids": [35, 18, 37], "id": 537996, "original_language": "en", "original_title": "The Ballad of Buster Scruggs", "overview": "Vignettes weaving together the stories of six individuals in the old West at the end of the Civil War. Following the tales of a sharp-shooting songster, a wannabe bank robber, two weary traveling performers, a lone gold prospector, a woman traveling the West to an uncertain future, and a motley crew of strangers undertaking a carriage ride.", "poster_path": "/voxl654m7p36y8FLu8oQD7dfwwK.jpg", "release_date": "2018-11-09", "title": "The Ballad of Buster Scruggs", "video": false, "vote_average": 7.2, "vote_count": 2072, "popularity": 15.524}, {"adult": false, "backdrop_path": "/xGC2fY5KFmtuXnsuQwYQKFOLZFy.jpg", "genre_ids": [37], "id": 429, "original_language": "it", "original_title": "Il buono, il brutto, il cattivo", "overview": "While the Civil War rages between the Union and the Confederacy, three men \u2013 a quiet loner, a ruthless hit man and a Mexican bandit \u2013 comb the American Southwest in search of a strongbox containing $200,000 in stolen gold.", "poster_path": "/wfPHdfofBD5PN96dV96a51B3Ja2.jpg", "release_date": "1966-12-23", "title": "The Good, the Bad and the Ugly", "video": false, "vote_average": 8.4, "vote_count": 4582, "popularity": 33.627}, {"id": 818, "video": false, "vote_count": 1920, "vote_average": 5.9, "title": "Austin Powers in Goldmember", "release_date": "2002-07-26", "original_language": "en", "original_title": "Austin Powers in Goldmember", "genre_ids": [35, 80, 878], "backdrop_path": "/mzZraP6PV34eVjB8giKbKIMXVeW.jpg", "adult": false, "overview": "The world's most shagadelic spy continues his fight against Dr. Evil. This time, the diabolical doctor and his clone, Mini-Me, team up with a new foe -- '70s kingpin Goldmember. While pursuing the team of villains to stop them from world domination, Austin gets help from his dad and an old girlfriend.", "poster_path": "/tFR7dTbX5BsmoUwKHfa2cWoZbwK.jpg", "popularity": 23.167}, {"id": 18118, "video": false, "vote_count": 76, "vote_average": 6.7, "title": "Mackenna's Gold", "release_date": "1969-03-18", "original_language": "en", "original_title": "Mackenna's Gold", "genre_ids": [28, 12, 37], "backdrop_path": "/eaI46zSrGHxPNGfBGmL1uVwlfaX.jpg", "adult": false, "overview": "The gangster Colorado kidnaps Marshal McKenna. He believes that McKenna has seen a map which leads to a rich vein of gold in the mountains and forces him to show him the way. But they're not the only ones who're after the gold; soon they meet a group of \"honorable\" citizens and the cavalry crosses their way too - and that is even before they enter Indian territory.", "poster_path": "/gujukqnKbYkh0DpNpb91PZmovym.jpg", "popularity": 11.665}, {"adult": false, "backdrop_path": "/ufqPsRItWyFzdFz3MevDkxRF8pT.jpg", "genre_ids": [18, 10752, 28], "id": 792, "original_language": "en", "original_title": "Platoon", "overview": "As a young and naive recruit in Vietnam, Chris Taylor faces a moral crisis when confronted with the horrors of war and the duality of man.", "poster_path": "/8hDlxJZYCJJLRHbSk7hsRQ9SNp7.jpg", "release_date": "1986-12-19", "title": "Platoon", "video": false, "vote_average": 7.7, "vote_count": 2387, "popularity": 19.539}, {"id": 10515, "video": false, "vote_count": 1875, "vote_average": 8.0, "title": "Castle in the Sky", "release_date": "1986-08-02", "original_language": "ja", "original_title": "\u5929\u7a7a\u306e\u57ce\u30e9\u30d4\u30e5\u30bf", "genre_ids": [28, 12, 16, 14, 10749, 10751], "backdrop_path": "/hf4CRxGMi8zmLjkudyTWfVtnuXr.jpg", "adult": false, "overview": "A young boy and a girl with a magic crystal must race against pirates and foreign agents in a search for a legendary floating castle.", "poster_path": "/4RTG2AaqZ9eleL51ryWwv78WwDu.jpg", "popularity": 34.176}, {"adult": false, "backdrop_path": "/9YAVIwBcBrLXeukg2dgMGfYB1uu.jpg", "genre_ids": [12, 16, 10751, 10749], "id": 10530, "original_language": "en", "original_title": "Pocahontas", "overview": "Pocahontas, daughter of a Native American tribe chief, falls in love with an English soldier as colonists invade 17th century Virginia.", "poster_path": "/kZ1ft0QZ4e3zDUPMBftEkwI9ftd.jpg", "release_date": "1995-06-14", "title": "Pocahontas", "video": false, "vote_average": 6.9, "vote_count": 3587, "popularity": 26.574}, {"adult": false, "backdrop_path": "/aJCEQFFXNcfg5YneJzTG15qzxF7.jpg", "genre_ids": [28, 53], "id": 1572, "original_language": "en", "original_title": "Die Hard: With a Vengeance", "overview": "New York detective John McClane is back and kicking bad-guy butt in the third installment of this action-packed series, which finds him teaming with civilian Zeus Carver to prevent the loss of innocent lives. McClane thought he'd seen it all, until a genius named Simon engages McClane, his new \"partner\" -- and his beloved city -- in a deadly game that demands their concentration.", "poster_path": "/ivpXGcsPZglyYrN65THWSD7JM3q.jpg", "release_date": "1995-05-19", "title": "Die Hard: With a Vengeance", "video": false, "vote_average": 7.1, "vote_count": 3603, "popularity": 27.341}, {"adult": false, "backdrop_path": "/913sS08HhcTQTwz7X567iR6DLHn.jpg", "genre_ids": [12, 28, 53], "id": 682, "original_language": "en", "original_title": "The Man with the Golden Gun", "overview": "A golden bullet has 007 engraved on it as it smashes into the secret service headquarters. The bullet came from the professional killer Scaramanga who has yet to miss a target and James Bond begins a mission to try and stop him.", "poster_path": "/7VSVgxAvA7IdTf8T6Oon1eaReeJ.jpg", "release_date": "1974-12-01", "title": "The Man with the Golden Gun", "video": false, "vote_average": 6.5, "vote_count": 996, "popularity": 17.905}, {"id": 22, "video": false, "vote_count": 13524, "vote_average": 7.7, "title": "Pirates of the Caribbean: The Curse of the Black Pearl", "release_date": "2003-07-09", "original_language": "en", "original_title": "Pirates of the Caribbean: The Curse of the Black Pearl", "genre_ids": [28, 12, 14], "backdrop_path": "/8AUQ7YlJJA9C8kWk8P4YNHIcFDE.jpg", "adult": false, "overview": "Jack Sparrow, a freewheeling 18th-century pirate, quarrels with a rival pirate bent on pillaging Port Royal. When the governor's daughter is kidnapped, Sparrow decides to help the girl's love save her.", "poster_path": "/tkt9xR1kNX5R9rCebASKck44si2.jpg", "popularity": 49.826}, {"id": 120, "video": false, "vote_count": 15878, "vote_average": 8.3, "title": "The Lord of the Rings: The Fellowship of the Ring", "release_date": "2001-12-18", "original_language": "en", "original_title": "The Lord of the Rings: The Fellowship of the Ring", "genre_ids": [28, 12, 14], "backdrop_path": "/pIUvQ9Ed35wlWhY2oU6OmwEsmzG.jpg", "adult": false, "overview": "Young hobbit Frodo Baggins, after inheriting a mysterious ring from his uncle Bilbo, must leave his home in order to keep it from falling into the hands of its evil creator. Along the way, a fellowship is formed to protect the ringbearer and make sure that the ring arrives at its final destination: Mt. Doom, the only place where it can be destroyed.", "poster_path": "/56zTpe2xvaA4alU51sRWPoKPYZy.jpg", "popularity": 46.673}, {"id": 6637, "video": false, "vote_count": 3261, "vote_average": 6.2, "title": "National Treasure: Book of Secrets", "release_date": "2007-12-13", "original_language": "en", "original_title": "National Treasure: Book of Secrets", "genre_ids": [28, 12, 9648, 53], "backdrop_path": "/ivrtuhSZnkEqzkdCyFXcH8UbPVp.jpg", "adult": false, "overview": "Benjamin Franklin Gates and Dr. Abigail Chase re-team with Riley Poole and, now armed with a stack of long-lost pages from John Wilkes Booth\u2019s diary, Ben must follow a clue left there to prove his ancestor\u2019s innocence in the assassination of Abraham Lincoln.", "poster_path": "/sHr05tz70r7y8A6XrdCBsHPK7tF.jpg", "popularity": 25.219}, {"adult": false, "backdrop_path": "/amzPM0vmM5iIRhHaxIo3fLBCMp3.jpg", "genre_ids": [18, 10749, 37], "id": 18721, "original_language": "en", "original_title": "The Far Country", "overview": "In 1896, Jeff Webster sees the start of the Klondike gold rush as a golden opportunity to make a fortune in beef...and woe betide anyone standing in his way! He drives a cattle herd from Wyoming to Seattle, by ship to Skagway, and (after a delay caused by larcenous town boss Gannon) through the mountains to Dawson. There, he and his partner Ben Tatum get into the gold business themselves. Two lovely women fall for misanthropic Jeff, but he believes in every-man-for-himself, turning his back on growing lawlessness...until it finally strikes home.", "poster_path": "/y6bwqu61d1HEhi6psgrd5qazc0e.jpg", "release_date": "1954-02-12", "title": "The Far Country", "video": false, "vote_average": 6.8, "vote_count": 57, "popularity": 7.007}], "total_pages": 23, "total_results": 451}, "recommendations": {"page": 1, "results": [], "total_pages": 1, "total_results": 0}, "credits": {"cast": [{"cast_id": 2, "character": "Dan", "credit_id": "57b0dd1692514131800001ef", "gender": 0, "id": 1666247, "name": "Ronny de Marc", "order": 1, "profile_path": null}, {"cast_id": 3, "character": "Melody, Saloon Singer", "credit_id": "57b0dd2792514131750001ec", "gender": 0, "id": 39527, "name": "Gis\u00e8le Sandr\u00e9", "order": 2, "profile_path": null}, {"cast_id": 4, "character": "Joe", "credit_id": "57b0dd36925141318d00021a", "gender": 0, "id": 1506220, "name": "Danilo Turk", "order": 3, "profile_path": null}, {"cast_id": 5, "character": "Patricia", "credit_id": "57b0dd4492514131800001fb", "gender": 0, "id": 1414423, "name": "Maria Grazia Marescalchi", "order": 4, "profile_path": null}, {"cast_id": 6, "character": "Bill Lexter", "credit_id": "589cb068c3a368115c000adf", "gender": 2, "id": 554087, "name": "Georges Lycan", "order": 5, "profile_path": null}, {"cast_id": 7, "character": "Charlie", "credit_id": "589cb07e9251410886000b28", "gender": 2, "id": 4661, "name": "Benito Stefanelli", "order": 6, "profile_path": "/5c5ek7iXeJMdx1bEM2mw195zmPD.jpg"}, {"cast_id": 8, "character": "", "credit_id": "589cb093925141088c000ae6", "gender": 0, "id": 101191, "name": "Cesare Canevari", "order": 7, "profile_path": null}, {"cast_id": 10, "character": "", "credit_id": "589cb0cac3a368115c000b1a", "gender": 0, "id": 113900, "name": "Petar Bunti\u0107", "order": 9, "profile_path": null}, {"cast_id": 15, "character": "", "credit_id": "5b840b03c3a3686558052630", "gender": 0, "id": 2116334, "name": "E. Ram\u00f3n", "order": 10, "profile_path": null}], "crew": [{"credit_id": "53efdd7fc3a3685aed0017d3", "department": "Directing", "gender": 0, "id": 101191, "job": "Director", "name": "Cesare Canevari", "profile_path": null}, {"credit_id": "589cb105c3a3681165000a2a", "department": "Production", "gender": 0, "id": 101191, "job": "Producer", "name": "Cesare Canevari", "profile_path": null}, {"credit_id": "53efdd86c3a3685ae20017d5", "department": "Writing", "gender": 0, "id": 101191, "job": "Writer", "name": "Cesare Canevari", "profile_path": null}, {"credit_id": "589cb135c3a368116b000a3e", "department": "Sound", "gender": 0, "id": 1353308, "job": "Music", "name": "Armando Sciascia", "profile_path": null}, {"credit_id": "589cb1139251410895000b18", "department": "Production", "gender": 0, "id": 1754291, "job": "Co-Producer", "name": "Jacques-Paul Bertrand", "profile_path": null}, {"credit_id": "589cb16d925141088f000b47", "department": "Crew", "gender": 0, "id": 1754292, "job": "Cinematography", "name": "Adriano Bernacchi", "profile_path": null}]}}