{"adult": false, "backdrop_path": "/faT6wv0T1OmhUG0f7rnn1Wj4U6s.jpg", "belongs_to_collection": null, "budget": 0, "genres": [{"id": 18, "name": "Drama"}, {"id": 80, "name": "Crime"}], "homepage": null, "id": 260914, "imdb_id": "tt0073744", "original_language": "it", "original_title": "L'ultima chance", "overview": "After robbing a jewellery shop in Canada, two Americans arrange a meeting near the US borders in order to split the loot. One of them has an accident with his car on his way there and gets stuck in an isolated motel until his car is fixed. The owner of the motel, a sexy woman in her thirties, falls in love with him, but her suspicions about him begin to multiply, as the police arrive at the motel...", "popularity": 1.027, "poster_path": "/r8VGQkYDub95p5TLVUf7jN9jKkH.jpg", "production_companies": [{"id": 76169, "logo_path": null, "name": "FRAL Cinematografica", "origin_country": ""}, {"id": 76170, "logo_path": null, "name": "Alpherat S.p.a.", "origin_country": ""}], "production_countries": [{"iso_3166_1": "IT", "name": "Italy"}], "release_date": "1973-09-14", "revenue": 0, "runtime": 106, "spoken_languages": [{"iso_639_1": "it", "name": "Italiano"}], "status": "Released", "tagline": "Trust Nobody ... Not Even Yourself!", "title": "Stateline Motel", "video": false, "vote_average": 5.3, "vote_count": 3, "keywords": {"keywords": [{"id": 2430, "name": "hiding place"}, {"id": 9673, "name": "love"}]}, "similar": {"page": 1, "results": [{"adult": false, "backdrop_path": "/7DwSXdN28VA5wQYw49PKpxhR1Lq.jpg", "genre_ids": [18, 14], "id": 1024, "original_language": "en", "original_title": "Heavenly Creatures", "overview": "Wealthy and precocious teenager Juliet transfers from England to New Zealand with her family, and soon befriends the quiet, brooding Pauline through their shared love of fantasy and literature. When their parents begin to suspect that their increasingly intense and obsessive bond is becoming unhealthy, the girls hatch a dark plan for those who threaten to keep them apart.", "poster_path": "/5ek49TUeqStPmKwNdxrCSUAdXNe.jpg", "release_date": "1994-09-12", "title": "Heavenly Creatures", "video": false, "vote_average": 7.1, "vote_count": 519, "popularity": 10.27}, {"adult": false, "backdrop_path": "/nriBinb7Y3Bm6LdbmOC0mFxSm8d.jpg", "genre_ids": [80, 18], "id": 226, "original_language": "en", "original_title": "Boys Don't Cry", "overview": "Female born, Teena Brandon adopts his male identity of Brandon Teena and attempts to find himself and love in Nebraska.", "poster_path": "/6bqIZTEuJnUrgnxcymciszvOz8J.jpg", "release_date": "1999-09-02", "title": "Boys Don't Cry", "video": false, "vote_average": 7.5, "vote_count": 718, "popularity": 10.072}, {"adult": false, "backdrop_path": "/Ao2bnJMmcFepMVw1BUay25tt7TM.jpg", "genre_ids": [18, 10749], "id": 1259, "original_language": "en", "original_title": "Notes on a Scandal", "overview": "A veteran high school teacher befriends a younger art teacher, who is having an affair with one of her 15-year-old students. However, her intentions with this new \"friend\" also go well beyond platonic friendship.", "poster_path": "/lXZa1mHZ8eD0VOpNaLfvM9tSpAj.jpg", "release_date": "2006-12-25", "title": "Notes on a Scandal", "video": false, "vote_average": 7.1, "vote_count": 463, "popularity": 12.753}, {"id": 12531, "video": false, "vote_count": 91, "vote_average": 6.9, "title": "The Apartment", "release_date": "1996-07-27", "original_language": "fr", "original_title": "L'Appartement", "genre_ids": [18, 9648, 10749], "backdrop_path": "/64qyT8m4JQ6YODvXxtbHgKmXBX7.jpg", "adult": false, "overview": "A stylish suspense thriller that confounds the audience while presenting them with an extraordinary and elusive mystery. Max is a former playboy who has decided to settle down by marrying his current love, Muriel. However, during a business trip, Max catches a glimpse of the great lost love of his life, reviving his wanderlust and sending him off on a chase of the elusive Lisa, whom he had overheard suggesting to a friend that her lover, Daniel, had killed someone for her. Soon, Max is trying to unravel the mystery behind the suspicious death of Daniel's wife, which he hopes will lead him closer to Lisa.", "poster_path": "/1sqrQdQTn8jKLhUcPKfRVj639zA.jpg", "popularity": 19.17}, {"adult": false, "backdrop_path": "/w2KDvs7D0E6yDGESrAeJ0tzimSA.jpg", "genre_ids": [35, 18], "id": 44564, "original_language": "en", "original_title": "The Dilemma", "overview": "Longtime friends Ronny and Nick are partners in an auto-design firm. They are hard at work on a presentation for a dream project that would really launch their company. Then Ronny spots Nick's wife out with another man, and in the process of investigating the possible affair, he learns that Nick has a few secrets of his own. As the presentation nears, Ronny agonizes over what might happen if the truth gets out.", "poster_path": "/wMwKQBOrlz3KN3QLIFj65hyJw9B.jpg", "release_date": "2011-01-13", "title": "The Dilemma", "video": false, "vote_average": 5.4, "vote_count": 542, "popularity": 10.815}, {"adult": false, "backdrop_path": "/rVivKkJD4HV31zAd9oW3abbGjAu.jpg", "genre_ids": [18, 35], "id": 276, "original_language": "de", "original_title": "Die fetten Jahre sind vorbei", "overview": "Three activists cobble together a kidnapping plot after they encounter a businessman in his home.", "poster_path": "/jmjX2tV91uU6GBKUAx3otsYgMBG.jpg", "release_date": "2004-10-25", "title": "The Edukators", "video": false, "vote_average": 7.3, "vote_count": 172, "popularity": 6.952}, {"id": 20024, "video": false, "vote_count": 116, "vote_average": 6.7, "title": "The End of the Affair", "release_date": "1999-12-03", "original_language": "en", "original_title": "The End of the Affair", "genre_ids": [18], "backdrop_path": "/sUPWjskNXip394SxoknaBuyLuUL.jpg", "adult": false, "overview": "On a rainy London night in 1946, novelist Maurice Bendrix has a chance meeting with Henry Miles, husband of his ex-mistress Sarah, who abruptly ended their affair two years before. Bendrix's obsession with Sarah is rekindled; he succumbs to his own jealousy and arranges to have her followed.", "poster_path": "/a0FPMCXTtQSMsTtq7JvQQXHPNPi.jpg", "popularity": 10.425}, {"id": 38, "video": false, "vote_count": 8445, "vote_average": 8.1, "title": "Eternal Sunshine of the Spotless Mind", "release_date": "2004-03-19", "original_language": "en", "original_title": "Eternal Sunshine of the Spotless Mind", "genre_ids": [18, 878, 10749], "backdrop_path": "/1dXTsaFxHoF9cas08UjAqE8NqOW.jpg", "adult": false, "overview": "Joel Barish, heartbroken that his girlfriend underwent a procedure to erase him from her memory, decides to do the same. However, as he watches his memories of her fade away, he realises that he still loves her, and may be too late to correct his mistake.", "poster_path": "/7y3eYvTsGjxPYDtSnumCLIMDkrV.jpg", "popularity": 22.427}, {"id": 521, "video": false, "vote_count": 1257, "vote_average": 8.0, "title": "Dial M for Murder", "release_date": "1954-05-29", "original_language": "en", "original_title": "Dial M for Murder", "genre_ids": [80, 18, 9648, 53], "backdrop_path": "/jVMlfESb0TJ29w8CUDDofEprMmn.jpg", "adult": false, "overview": "An ex-tennis pro carries out a plot to have his wife murdered after discovering she is having an affair, and assumes she will soon leave him for the other man anyway. When things go wrong, he improvises a new plan\u2014to frame her for murder instead.", "poster_path": "/xrpK1PyckNWmRxU4kZURfaCyboS.jpg", "popularity": 28.336}, {"adult": false, "backdrop_path": "/xC9cG6Wy6QbH2hoAx11xPPD995R.jpg", "genre_ids": [18, 10749], "id": 86331, "original_language": "fr", "original_title": "Q", "overview": "In a social context deteriorated by a countrywide economic crisis, the life of several people will be turned upside down after they meet Cecile, a character who symbolizes desire.", "poster_path": "/9Jg9s4yTEndNmy1SSXRF9jdxY9D.jpg", "release_date": "2011-09-14", "title": "Desire", "video": false, "vote_average": 4.6, "vote_count": 204, "popularity": 25.756}, {"id": 10995, "video": false, "vote_count": 255, "vote_average": 6.6, "title": "The Lover", "release_date": "1992-02-22", "original_language": "fr", "original_title": "L'Amant", "genre_ids": [18, 10749], "backdrop_path": "/zRAgf1F0rRp0Tys8AnMWGBFJRZv.jpg", "adult": false, "overview": "A poor French teenage girl engages in an illicit affair with a wealthy Chinese heir in 1920s Saigon. For the first time in her young life she has control, and she wields it deftly over her besotted lover throughout a series of clandestine meetings and torrid encounters.", "poster_path": "/iey1UA4hav2cn60qGi1zgKxpPBl.jpg", "popularity": 13.161}, {"id": 68718, "video": false, "vote_count": 17255, "vote_average": 8.1, "title": "Django Unchained", "release_date": "2012-12-25", "original_language": "en", "original_title": "Django Unchained", "genre_ids": [18, 37], "backdrop_path": "/qUcmEqnzIwlwZxSyTf3WliSfAjJ.jpg", "adult": false, "overview": "With the help of a German bounty hunter, a freed slave sets out to rescue his wife from a brutal Mississippi plantation owner.", "poster_path": "/eCt596Z4zkqxW5AHz1HEhGm1eif.jpg", "popularity": 39.475}, {"id": 19913, "video": false, "vote_count": 6208, "vote_average": 7.2, "title": "(500) Days of Summer", "release_date": "2009-07-17", "original_language": "en", "original_title": "(500) Days of Summer", "genre_ids": [35, 18, 10749], "backdrop_path": "/yYw9cVdRJ4zzwxM2cTDXfT6JI6E.jpg", "adult": false, "overview": "Tom, greeting-card writer and hopeless romantic, is caught completely off-guard when his girlfriend, Summer, suddenly dumps him. He reflects on their 500 days together to try to figure out where their love affair went sour, and in doing so, Tom rediscovers his true passions in life.", "poster_path": "/5SjtNPD1bb182vzQccvEUpXHFjN.jpg", "popularity": 20.487}, {"id": 13, "video": false, "vote_count": 16610, "vote_average": 8.4, "title": "Forrest Gump", "release_date": "1994-07-06", "original_language": "en", "original_title": "Forrest Gump", "genre_ids": [35, 18, 10749], "backdrop_path": "/wMgbnUVS9wbRGAdki8fqxKU1O0N.jpg", "adult": false, "overview": "A man with a low IQ has accomplished great things in his life and been present during significant historic events\u2014in each case, far exceeding what anyone imagined he could do. But despite all he has achieved, his one true love eludes him.", "poster_path": "/yE5d3BUhE8hCnkMUJOo1QDoOGNz.jpg", "popularity": 41.886}, {"id": 28178, "video": false, "vote_count": 3997, "vote_average": 8.0, "title": "Hachi: A Dog's Tale", "release_date": "2009-06-13", "original_language": "en", "original_title": "Hachi: A Dog's Tale", "genre_ids": [18, 10751], "backdrop_path": "/m87xptCZD6J15HcioOOX4kfEdeD.jpg", "adult": false, "overview": "A drama based on the true story of a college professor's bond with the abandoned dog he takes into his home.", "poster_path": "/3MpVmIg6CgOCUrZ2TZ2P0yitCbM.jpg", "popularity": 38.97}, {"adult": false, "backdrop_path": "/by0WtpJ5UNxOy6ytIfPPTasbRoB.jpg", "genre_ids": [28, 12, 35, 18, 10751, 10402, 10749], "id": 17130, "original_language": "en", "original_title": "Crossroads", "overview": "Three friends get together and bury a box making a pact to open it at midnight at their high school graduation. In the little town in Georgia that they live in, things soon change. One is little miss perfect, one is an engaged prom queen, and the other is a pregnant outcast. The night of graduation, they open the box and they strike up a conversation. All of a sudden, one brings up the topic of her going to Los Angeles for a record contract audition. They all decide to go together and they leave. With a little money, they set out on the road with a guy named Ben. When one of them tells the other a rumor that he might be a homicidal maniac they are all scared of him. When they reach LA, Lucy falls in love with Ben and against her father's wishes, she stays and she goes to the audition.", "poster_path": "/egIs4cWxn0iBErFKrQ7STckjj49.jpg", "release_date": "2002-02-15", "title": "Crossroads", "video": false, "vote_average": 5.0, "vote_count": 334, "popularity": 14.197}, {"adult": false, "backdrop_path": "/i2h4lbb7r1zyHJjIEPviW7RZnty.jpg", "genre_ids": [18, 10749], "id": 14313, "original_language": "en", "original_title": "Feast of Love", "overview": "A meditation on love and its various incarnations, set within a community of friends in Oregon. It is described as an exploration of the magical, mysterious and sometimes painful incarnations of love.", "poster_path": "/5mKRVEghvoFpFRYZ0GT0uTovXZo.jpg", "release_date": "2007-09-28", "title": "Feast of Love", "video": false, "vote_average": 6.1, "vote_count": 116, "popularity": 8.0}, {"id": 50544, "video": false, "vote_count": 5179, "vote_average": 6.6, "title": "Friends with Benefits", "release_date": "2011-07-21", "original_language": "en", "original_title": "Friends with Benefits", "genre_ids": [35, 10749], "backdrop_path": "/liq5ljqURqLiBUgMkNiR388ZuSH.jpg", "adult": false, "overview": "Dylan and Jamie think it's going to be easy to add the simple act of sex to their friendship, despite what Hollywood romantic comedies would have them believe. They soon discover however that getting physical really does always lead to complications.", "poster_path": "/nKhhDFCdzxeJ3GUunQ570LDpUkz.jpg", "popularity": 19.488}, {"adult": false, "backdrop_path": "/qjm30F9hwJ6BNbsb7iOrrKwkY3n.jpg", "genre_ids": [35, 18, 10749], "id": 696, "original_language": "en", "original_title": "Manhattan", "overview": "Manhattan explores how the life of a middle-aged television writer dating a teenage girl is further complicated when he falls in love with his best friend's mistress.", "poster_path": "/k4eT3EvfxW1L9Wmt04UqJqCvCR6.jpg", "release_date": "1979-04-25", "title": "Manhattan", "video": false, "vote_average": 7.9, "vote_count": 1320, "popularity": 17.292}, {"id": 489, "video": false, "vote_count": 6675, "vote_average": 8.1, "title": "Good Will Hunting", "release_date": "1997-12-05", "original_language": "en", "original_title": "Good Will Hunting", "genre_ids": [18], "backdrop_path": "/8vA6dxBzRqSajvqdmTLtoguAa3T.jpg", "adult": false, "overview": "Will Hunting has a genius-level IQ but chooses to work as a janitor at MIT. When he solves a difficult graduate-level math problem, his talents are discovered by Professor Gerald Lambeau, who decides to help the misguided youth reach his potential. When Will is arrested for attacking a police officer, Professor Lambeau makes a deal to get leniency for him if he will get treatment from therapist Sean Maguire.", "poster_path": "/jq8LjngZ7XZEQge5JFTdOGMrHyZ.jpg", "popularity": 16.686}], "total_pages": 307, "total_results": 6126}, "recommendations": {"page": 1, "results": [], "total_pages": 1, "total_results": 0}, "credits": {"cast": [{"cast_id": 1, "character": "Joe", "credit_id": "53c40962c3a3686ccf000bae", "gender": 2, "id": 3265, "name": "Eli Wallach", "order": 0, "profile_path": "/cjOzKNXOrwc8ZgGWmJEM8A3HZ19.jpg"}, {"cast_id": 2, "character": "Michelle Nolton", "credit_id": "53c4096cc3a3684ce900a1a4", "gender": 1, "id": 9871, "name": "Ursula Andress", "order": 1, "profile_path": "/3qBAJvBdEysBmj0FeNflAu3bpuA.jpg"}, {"cast_id": 3, "character": "Floyd", "credit_id": "53c40976c3a3684cef00a0ba", "gender": 2, "id": 21181, "name": "Fabio Testi", "order": 2, "profile_path": "/qqE1Vh8guRCoIGkfNRuE0mXx0vL.jpg"}, {"cast_id": 5, "character": "Emily", "credit_id": "53c4098cc3a3684cef00a0bc", "gender": 1, "id": 10458, "name": "Barbara Bach", "order": 3, "profile_path": "/2LRkPfRCjf52pmbJTEe5lGjndj1.jpg"}, {"cast_id": 4, "character": "Fred Norton", "credit_id": "53c40981c3a3684cdf00a2f5", "gender": 0, "id": 18340, "name": "Massimo Girotti", "order": 4, "profile_path": "/bz4jZxPSe00wKze4vF6aGpIcKn6.jpg"}, {"cast_id": 6, "character": "Albert", "credit_id": "53c40999c3a3684cef00a0bf", "gender": 2, "id": 101331, "name": "Carlo De Mejo", "order": 5, "profile_path": "/jOEO4oEBLiteYiuG5PDjoWHgJTa.jpg"}, {"cast_id": 7, "character": "Jack, the Mechanic (as Howard Ross)", "credit_id": "53c409a6c3a3686ccf000bb7", "gender": 2, "id": 27383, "name": "Renato Rossini", "order": 6, "profile_path": "/Agmwp7mqL1Z5lc75nypnuqX6cHA.jpg"}, {"cast_id": 21, "character": "Waitress", "credit_id": "58051a8ec3a3681dac0010d8", "gender": 0, "id": 93567, "name": "C\u00e9line Lomez", "order": 7, "profile_path": "/iqve1bYjCsiwDowdxPcRzEB8ekk.jpg"}, {"cast_id": 22, "character": "Myriam", "credit_id": "58051a9fc3a3681da8001245", "gender": 0, "id": 1696030, "name": "Susanna Onofri", "order": 8, "profile_path": null}, {"cast_id": 23, "character": "", "credit_id": "58051aa7c3a3681db6001243", "gender": 2, "id": 239666, "name": "Luigi Antonio Guerra", "order": 9, "profile_path": "/2MH1gI5p2Zy0YUfjzeyYlexLj6U.jpg"}, {"cast_id": 24, "character": "Jack (voice) (uncredited)", "credit_id": "58051ac392514170ba0011e0", "gender": 0, "id": 1696031, "name": "Frank von Kuegelgen", "order": 10, "profile_path": null}], "crew": [{"credit_id": "5723e1d7c3a3682d24003976", "department": "Writing", "gender": 0, "id": 228335, "job": "Adaptation", "name": "Giovanni Fago", "profile_path": null}, {"credit_id": "5723e1edc3a368759c0034cb", "department": "Writing", "gender": 0, "id": 1086954, "job": "Adaptation", "name": "Francesco Giorgi", "profile_path": null}, {"credit_id": "53f7060d0e0a267f890073d7", "department": "Production", "gender": 0, "id": 1081408, "job": "Producer", "name": "Nicholas Demetroules", "profile_path": null}, {"credit_id": "5723e1e49251417c000006ef", "department": "Writing", "gender": 0, "id": 22469, "job": "Screenplay", "name": "Fulvio Gicca Palli", "profile_path": null}, {"credit_id": "5723e20ac3a368222d000417", "department": "Writing", "gender": 0, "id": 1612806, "job": "Screenplay", "name": "Vittoria Vigorelli", "profile_path": null}, {"credit_id": "53c4094cc3a3684cec009cac", "department": "Directing", "gender": 2, "id": 100054, "job": "Director", "name": "Maurizio Lucidi", "profile_path": null}, {"credit_id": "53f705e80e0a267f830072b6", "department": "Sound", "gender": 2, "id": 66675, "job": "Original Music Composer", "name": "Luis Bacalov", "profile_path": "/d9hYl7eX4KxIz4wZ9psdKjxmaSF.jpg"}, {"credit_id": "53f705f40e0a267f7a007468", "department": "Editing", "gender": 0, "id": 1008500, "job": "Editor", "name": "Renzo Lucidi", "profile_path": null}, {"credit_id": "53f705ff0e0a267f77007333", "department": "Art", "gender": 0, "id": 33814, "job": "Production Design", "name": "Giulia Mafai", "profile_path": null}, {"credit_id": "53f706190e0a267f7a00746d", "department": "Camera", "gender": 0, "id": 29906, "job": "Director of Photography", "name": "G\u00e1bor Pog\u00e1ny", "profile_path": null}, {"credit_id": "53f7067d0e0a26419b005f16", "department": "Writing", "gender": 0, "id": 33858, "job": "Novel", "name": "Franco Enna", "profile_path": null}, {"credit_id": "5723e1fcc3a3682d3f003a5d", "department": "Writing", "gender": 2, "id": 100054, "job": "Screenplay", "name": "Maurizio Lucidi", "profile_path": null}, {"credit_id": "5723e206c3a368222d000413", "department": "Writing", "gender": 0, "id": 1612806, "job": "Adaptation", "name": "Vittoria Vigorelli", "profile_path": null}, {"credit_id": "5723e1f19251416cf700082b", "department": "Writing", "gender": 0, "id": 1086954, "job": "Screenplay", "name": "Francesco Giorgi", "profile_path": null}]}}