{"adult": false, "backdrop_path": "/efWkS5qf8B0jNc6iRifjGIgAG7Y.jpg", "belongs_to_collection": null, "budget": 0, "genres": [{"id": 18, "name": "Drama"}, {"id": 28, "name": "Action"}], "homepage": "", "id": 261129, "imdb_id": "tt0176200", "original_language": "en", "original_title": "Sudden Death", "overview": "When Ed Neilson's entire family is viciously murdered, he pleads with retired CIA operative Duke Smith (Robert Conrad) to investigate. He refuses, but relents after Neilson too meets an explosive death. Deception, international intrigue and a ruthless \"syndicate of businessmen\" intent on raping a South Pacific Islands nation of its resources keep the pace fast.", "popularity": 0.883, "poster_path": "/dUa1kSWp0QLDWrb3qHGH05tVHsh.jpg", "production_companies": [], "production_countries": [{"iso_3166_1": "US", "name": "United States of America"}], "release_date": "1977-05-01", "revenue": 0, "runtime": 84, "spoken_languages": [{"iso_639_1": "en", "name": "English"}], "status": "Released", "tagline": "Robert Conrad is better than Dirty Harry!", "title": "Sudden Death", "video": false, "vote_average": 0.0, "vote_count": 0, "keywords": {"keywords": [{"id": 720, "name": "helicopter"}, {"id": 14601, "name": "explosion"}]}, "similar": {"page": 1, "results": [{"adult": false, "backdrop_path": "/2p5rA1NRoyyAFfzdHl1Ab1RN3qr.jpg", "genre_ids": [80, 28, 878], "id": 9739, "original_language": "en", "original_title": "Demolition Man", "overview": "Simon Phoenix, a violent criminal cryogenically frozen in 1996, escapes during a parole hearing in 2032 in the utopia of San Angeles. Police are incapable of dealing with his violent ways and turn to his captor, who had also been cryogenically frozen after being wrongfully accused of killing 30 innocent people while apprehending Phoenix.", "poster_path": "/k0PN3Ho12cGGIVJW7SCS7apLYaP.jpg", "release_date": "1993-10-08", "title": "Demolition Man", "video": false, "vote_average": 6.5, "vote_count": 1913, "popularity": 16.803}, {"adult": false, "backdrop_path": "/aJCEQFFXNcfg5YneJzTG15qzxF7.jpg", "genre_ids": [28, 53], "id": 1572, "original_language": "en", "original_title": "Die Hard: With a Vengeance", "overview": "New York detective John McClane is back and kicking bad-guy butt in the third installment of this action-packed series, which finds him teaming with civilian Zeus Carver to prevent the loss of innocent lives. McClane thought he'd seen it all, until a genius named Simon engages McClane, his new \"partner\" -- and his beloved city -- in a deadly game that demands their concentration.", "poster_path": "/ivpXGcsPZglyYrN65THWSD7JM3q.jpg", "release_date": "1995-05-19", "title": "Die Hard: With a Vengeance", "video": false, "vote_average": 7.1, "vote_count": 3603, "popularity": 27.341}, {"adult": false, "backdrop_path": "/pi0Z4gmbvwl6j7tKbwMj8elSzzT.jpg", "genre_ids": [28], "id": 9208, "original_language": "en", "original_title": "Broken Arrow", "overview": "When rogue stealth-fighter pilot Vic Deakins deliberately drops off the radar while on maneuvers, the Air Force ends up with two stolen nuclear warheads -- and Deakins's co-pilot, Riley Hale, is the military's only hope for getting them back. Traversing the deserted canyons of Utah, Hale teams with park ranger Terry Carmichael to put Deakins back in his box.", "poster_path": "/avqUG5RYB93rwSUNL5r16Vtbc9g.jpg", "release_date": "1996-02-09", "title": "Broken Arrow", "video": false, "vote_average": 5.9, "vote_count": 793, "popularity": 12.211}, {"adult": false, "backdrop_path": "/kSTvteM3ekuoeO7u7GJtZQkZuom.jpg", "genre_ids": [28, 53, 80], "id": 1948, "original_language": "en", "original_title": "Crank", "overview": "Professional assassin Chev Chelios learns his rival has injected him with a poison that will kill him if his heart rate drops.", "poster_path": "/6RnD3Zfh0tO0cD2vroWyH0F98Ej.jpg", "release_date": "2006-08-31", "title": "Crank", "video": false, "vote_average": 6.6, "vote_count": 2121, "popularity": 21.613}, {"id": 1701, "video": false, "vote_count": 2370, "vote_average": 6.7, "title": "Con Air", "release_date": "1997-06-01", "original_language": "en", "original_title": "Con Air", "genre_ids": [28, 80, 53], "backdrop_path": "/aX2mwtawBe2TD1csPBYvm03sx3a.jpg", "adult": false, "overview": "When the government puts all its rotten criminal eggs in one airborne basket, it's asking for trouble. Before you can say, \"Pass the barf bag,\" the crooks control the plane, led by creepy Cyrus \"The Virus\" Grissom. Watching his every move is the just-released Cameron Poe, who'd rather reunite with his family.", "poster_path": "/yhaOQ7xXw0PLHLvg1w0M9zlPdg6.jpg", "popularity": 27.211}, {"adult": false, "backdrop_path": "/siLeWQthKbUef4PKhR57BbReGnC.jpg", "genre_ids": [28, 80, 878, 53], "id": 754, "original_language": "en", "original_title": "Face/Off", "overview": "An antiterrorism agent goes under the knife to acquire the likeness of a terrorist and gather details about a bombing plot. When the terrorist escapes custody, he undergoes surgery to look like the agent so he can get close to the agent's family.", "poster_path": "/q1i8QHiHZ1cukG5iOxai8pydmoa.jpg", "release_date": "1997-06-27", "title": "Face/Off", "video": false, "vote_average": 6.9, "vote_count": 2963, "popularity": 22.412}, {"id": 8961, "video": false, "vote_count": 2968, "vote_average": 6.5, "title": "Bad Boys II", "release_date": "2003-07-18", "original_language": "en", "original_title": "Bad Boys II", "genre_ids": [28, 12, 35, 80, 53], "backdrop_path": "/5xQVApmdUbBlCi1QzS8NwbCF0Ne.jpg", "adult": false, "overview": "Out-of-control, trash-talking buddy cops Marcus Burnett and Mike Lowrey of the Miami Narcotics Task Force reunite, and bullets fly, cars crash and laughs explode as they pursue a whacked-out drug lord from the streets of Miami to the barrios of Cuba. But the real fireworks result when Marcus discovers that playboy Mike is secretly romancing Marcus\u2019 sexy sister.", "poster_path": "/680X9apSqmAcebLg8evnnUeQNeI.jpg", "popularity": 37.123}, {"adult": false, "backdrop_path": "/2jNSXfITbGYxxWLJOLTh9eAx3y8.jpg", "genre_ids": [28, 35, 80, 53], "id": 9737, "original_language": "en", "original_title": "Bad Boys", "overview": "Marcus Burnett is a hen-pecked family man. Mike Lowry is a foot-loose and fancy free ladies' man. Both are Miami policemen, and both have 72 hours to reclaim a consignment of drugs stolen from under their station's nose. To complicate matters, in order to get the assistance of the sole witness to a murder, they have to pretend to be each other.", "poster_path": "/x1ygBecKHfXX4M2kRhmFKWfWbJc.jpg", "release_date": "1995-04-07", "title": "Bad Boys", "video": false, "vote_average": 6.6, "vote_count": 3338, "popularity": 46.139}, {"adult": false, "backdrop_path": "/fgkgab4Rel0nOI3B3scHeNB4Mn6.jpg", "genre_ids": [28, 53], "id": 1573, "original_language": "en", "original_title": "Die Hard 2", "overview": "Off-duty cop John McClane is gripped with a feeling of d\u00e9j\u00e0 vu when, on a snowy Christmas Eve in the nation\u2019s capital, terrorists seize a major international airport, holding thousands of holiday travelers hostage. Renegade military commandos led by a murderous rogue officer plot to rescue a drug lord from justice and are prepared for every contingency except one: McClane\u2019s smart-mouthed heroics.", "poster_path": "/zSgL998DXaljsCmwQuwDM8Ak4rV.jpg", "release_date": "1990-07-02", "title": "Die Hard 2", "video": false, "vote_average": 6.8, "vote_count": 3296, "popularity": 23.858}, {"adult": false, "backdrop_path": "/xBhRhY8KimSrPx6AMJXigpzlGQ2.jpg", "genre_ids": [28, 35, 80], "id": 96, "original_language": "en", "original_title": "Beverly Hills Cop II", "overview": "Axel heads for the land of sunshine and palm trees to find out who shot police Captain Andrew Bogomil. Thanks to a couple of old friends, Axel's investigation uncovers a series of robberies masterminded by a heartless weapons kingpin\u2014and the chase is on.", "poster_path": "/2y1z1baxKT0coTTRlnkI6McnR9f.jpg", "release_date": "1987-05-18", "title": "Beverly Hills Cop II", "video": false, "vote_average": 6.4, "vote_count": 1235, "popularity": 13.336}, {"id": 306, "video": false, "vote_count": 909, "vote_average": 5.8, "title": "Beverly Hills Cop III", "release_date": "1994-05-24", "original_language": "en", "original_title": "Beverly Hills Cop III", "genre_ids": [28, 35, 80], "backdrop_path": "/9En9020IPIGzVW4cgaqmSMCNNiw.jpg", "adult": false, "overview": "Back in sunny southern California and on the trail of two murderers, Axel Foley again teams up with LA cop Billy Rosewood. Soon, they discover that an amusement park is being used as a front for a massive counterfeiting ring \u2013 and it's run by the same gang that shot Billy's boss.", "poster_path": "/tw9gAhqQcBFX0X0XfVbWqUsmzoU.jpg", "popularity": 12.544}, {"id": 9679, "video": false, "vote_count": 2590, "vote_average": 6.3, "title": "Gone in Sixty Seconds", "release_date": "2000-06-09", "original_language": "en", "original_title": "Gone in Sixty Seconds", "genre_ids": [28, 80, 53], "backdrop_path": "/uqd4cqpp6gbs6zG6izBUaCorgjv.jpg", "adult": false, "overview": "Upon learning that he has to come out of retirement to steal 50 cars in one night to save his brother Kip's life, former car thief Randall \"Memphis\" Raines enlists help from a few \"boost happy\" pals to accomplish a seemingly impossible feat. From countless car chases to relentless cops, the high-octane excitement builds as Randall swerves around more than a few roadblocks to keep Kip alive.", "poster_path": "/77TxKvRiX0c5JR6l4fxcN19prOy.jpg", "popularity": 20.394}, {"id": 9654, "video": false, "vote_count": 3400, "vote_average": 6.7, "title": "The Italian Job", "release_date": "2003-05-30", "original_language": "en", "original_title": "The Italian Job", "genre_ids": [28, 80], "backdrop_path": "/JyoJwSfcLvfLxCGHUQYlCxvU77.jpg", "adult": false, "overview": "Charlie Croker pulled off the crime of a lifetime. The one thing that he didn't plan on was being double-crossed. Along with a drop-dead gorgeous safecracker, Croker and his team take off to re-steal the loot and end up in a pulse-pounding, pedal-to-the-metal chase that careens up, down, above and below the streets of Los Angeles.", "poster_path": "/jNRCNX1uDiUf6mteFxOBn30wL8Q.jpg", "popularity": 21.009}, {"id": 1654, "video": false, "vote_count": 574, "vote_average": 7.7, "title": "The Dirty Dozen", "release_date": "1967-06-15", "original_language": "en", "original_title": "The Dirty Dozen", "genre_ids": [28, 12, 10752], "backdrop_path": "/ccegwWa7I2vxxaoXrGB8Wl1g5nl.jpg", "adult": false, "overview": "12 American military prisoners in World War II are ordered to infiltrate a well-guarded enemy ch\u00e2teau and kill the Nazi officers vacationing there. The soldiers, most of whom are facing death sentences for a variety of violent crimes, agree to the mission and the possible commuting of their sentences.", "poster_path": "/2PKazVY2F2GhRfQyErq8QWiq0Au.jpg", "popularity": 16.266}, {"id": 9727, "video": false, "vote_count": 43, "vote_average": 5.5, "title": "End Game", "release_date": "2006-03-22", "original_language": "en", "original_title": "End Game", "genre_ids": [28, 53], "backdrop_path": "/wpjJluxI2jq2GUnrYfgiz5wyjiI.jpg", "adult": false, "overview": "Alex Thomas was the man in charge of protecting the president but, when the time came to fulfill his duties, everything just went wrong. His conscience haunted by a bullet, and his devotion to his country stronger than ever, Alex teams with a seasoned reporter to navigate a treacherous web of lies, unlocking a dangerous conspiracy, and enter a deadly world in which skilled assassins and highly-trained ex-special ops lurk in every shadow.", "poster_path": "/gKNJic2GQxbLYvO07V5trjuxeBS.jpg", "popularity": 8.34}, {"id": 11859, "video": false, "vote_count": 111, "vote_average": 4.2, "title": "Fair Game", "release_date": "1995-11-03", "original_language": "en", "original_title": "Fair Game", "genre_ids": [28, 53, 10749], "backdrop_path": "/x7olteFm31lU0Bfh24gnYfMnxsU.jpg", "adult": false, "overview": "Max Kirkpatrick is a cop who protects Kate McQuean, a civil law attorney, from a renegade KGB team out to terminate her", "poster_path": "/ew0LrIN5fpxdimrErEy9Yry3Nn2.jpg", "popularity": 14.941}, {"id": 17689, "video": false, "vote_count": 227, "vote_average": 6.7, "title": "The Gauntlet", "release_date": "1977-12-21", "original_language": "en", "original_title": "The Gauntlet", "genre_ids": [28, 80, 18, 53], "backdrop_path": "/AqLSm9sl2Oe46XvqhoRBhKI3wXi.jpg", "adult": false, "overview": "Phoenix cop Ben Shockley is well on his way to becoming a derelict when he is assigned to transport a witness named Gus Mally from Vegas. Mally turns out to be a belligerent prostitute with mob ties and incriminating information regarding a high-placed figure.", "poster_path": "/vojzvKay2QT2eGwvfGBkFfJQlcj.jpg", "popularity": 10.101}, {"id": 44697, "video": false, "vote_count": 17, "vote_average": 5.5, "title": "Take a Hard Ride", "release_date": "1975-10-29", "original_language": "en", "original_title": "Take a Hard Ride", "genre_ids": [28, 37], "backdrop_path": "/bKFtlJPPsV0RALwpMIyPdOWQJxW.jpg", "adult": false, "overview": "After his cattle rancher boss dies, right-hand man Pike is given the job of returning $86,000 to some families who live across the border in Senora, Mexico. Honest Pike is joined on the trip through the wilderness by a dishonest gambler named Tyree", "poster_path": "/cQ812UyaYwk3exHQI3a8XOISar0.jpg", "popularity": 4.291}, {"id": 916, "video": false, "vote_count": 513, "vote_average": 7.2, "title": "Bullitt", "release_date": "1968-10-17", "original_language": "en", "original_title": "Bullitt", "genre_ids": [28, 80, 18, 53], "backdrop_path": "/wu0Ad30NciUbR5c5Q1AglHZbRWJ.jpg", "adult": false, "overview": "Senator Walter Chalmers is aiming to take down mob boss Pete Ross with the help of testimony from the criminal's hothead brother Johnny, who is in protective custody in San Francisco under the watch of police lieutenant Frank Bullitt. When a pair of mob hitmen enter the scene, Bullitt follows their trail through a maze of complications and double-crosses. This thriller includes one of the most famous car chases ever filmed.", "poster_path": "/oyhnoFu2oKQfAIdu9YU8I8Ne0pX.jpg", "popularity": 14.081}, {"adult": false, "backdrop_path": "/nq60mZOlrD4mZJg1T4hHUtWTIkN.jpg", "genre_ids": [12, 14, 28, 53], "id": 1979, "original_language": "en", "original_title": "Fantastic Four: Rise of the Silver Surfer", "overview": "The Fantastic Four return to the big screen as a new and all powerful enemy threatens the Earth. The seemingly unstoppable 'Silver Surfer', but all is not what it seems and there are old and new enemies that pose a greater threat than the intrepid superheroes realize.", "poster_path": "/fXpziQgnBnB4bLgjKhjTbLQumE5.jpg", "release_date": "2007-06-13", "title": "Fantastic Four: Rise of the Silver Surfer", "video": false, "vote_average": 5.5, "vote_count": 5280, "popularity": 38.268}], "total_pages": 41, "total_results": 805}, "recommendations": {"page": 1, "results": [], "total_pages": 1, "total_results": 0}, "credits": {"cast": [{"cast_id": 1, "character": "Duke Smith", "credit_id": "53319f6ac3a3686a7f001dd5", "gender": 2, "id": 129317, "name": "Robert Conrad", "order": 1, "profile_path": "/jzfd5g0csSb08DdurvDvjeq7OUC.jpg"}, {"cast_id": 2, "character": "Dominic Dilgado", "credit_id": "53319f7fc3a3686a86001d6e", "gender": 2, "id": 69494, "name": "Don Stroud", "order": 2, "profile_path": "/7jT8523HL3myVWDXPpNOqf9Ubp0.jpg"}, {"cast_id": 3, "character": "", "credit_id": "5384bbb10e0a2624b70103c2", "gender": 1, "id": 99949, "name": "Connie Mason", "order": 3, "profile_path": "/4USOvJxeZHQyuVjdGxQJYWabXdJ.jpg"}, {"cast_id": 4, "character": "", "credit_id": "5384bbc50e0a2624c701020c", "gender": 2, "id": 44042, "name": "Felton Perry", "order": 4, "profile_path": "/ax2YtmbicXvsjayLtK5VUxQh8fC.jpg"}, {"cast_id": 5, "character": "", "credit_id": "5384bbd70e0a2624cb00fa10", "gender": 2, "id": 8331, "name": "John Ashley", "order": 5, "profile_path": "/zICZ6S10MdwPtgrhD8A2M2MZja4.jpg"}, {"cast_id": 6, "character": "", "credit_id": "5384bbe80e0a2624bd00fef0", "gender": 0, "id": 1324935, "name": "Nancy Conrad", "order": 6, "profile_path": null}, {"cast_id": 7, "character": "", "credit_id": "5384bbf80e0a2624bd00fef8", "gender": 2, "id": 16524, "name": "Thayer David", "order": 7, "profile_path": "/6FJMDJHeRaQq0wvgmL0lAQ3GC2d.jpg"}, {"cast_id": 9, "character": "", "credit_id": "5384bc260e0a2624c7010221", "gender": 2, "id": 159648, "name": "Larry Manetti", "order": 9, "profile_path": "/ogRlrTSTxkSLdabX1i6K8xwfGx2.jpg"}], "crew": [{"credit_id": "53316df39251410b5d0012af", "department": "Directing", "gender": 2, "id": 8333, "job": "Director", "name": "Eddie Romero", "profile_path": "/vA2pxMuZO6BnOS4IhZCRLnI5i6H.jpg"}, {"credit_id": "546113dec3a3686f35000430", "department": "Writing", "gender": 0, "id": 141258, "job": "Screenplay", "name": "Oscar Williams", "profile_path": null}]}}