{"adult": false, "backdrop_path": "/2jVOVbLncgMFc4rL4X3Ay9IUEmT.jpg", "belongs_to_collection": null, "budget": 0, "genres": [{"id": 99, "name": "Documentary"}, {"id": 10402, "name": "Music"}], "homepage": "http://www.biophiliathefilm.com", "id": 261830, "imdb_id": "tt3626442", "original_language": "en", "original_title": "Bj\u00f6rk: Biophilia Live", "overview": "From a mind unlike any other, Biophilia Live chronicles the multidimensional concert centered on the eighth studio album of avant-garde Icelandic artist Bj\u00f6rk. Nick Fenton and Peter Strickland, unique voices in their own right, film Bj\u00f6rk live in performance and punctuate her music with evocative animation and science and nature footage. The infinitely creative journey presents a culmination of work that represents one of the most original musical endeavors of a generation.", "popularity": 3.102, "poster_path": "/yk23JNV3DbzCs2uBLG3BdD6qzpw.jpg", "production_companies": [], "production_countries": [], "release_date": "2014-10-10", "revenue": 0, "runtime": 97, "spoken_languages": [], "status": "Released", "tagline": "", "title": "Bj\u00f6rk: Biophilia Live", "video": false, "vote_average": 7.9, "vote_count": 13, "keywords": {"keywords": [{"id": 4048, "name": "musician"}, {"id": 5287, "name": "tour"}]}, "similar": {"page": 1, "results": [{"adult": false, "backdrop_path": "/9iSyvAy6a68L4v6WIQt4eG9NyAW.jpg", "genre_ids": [99, 10402], "id": 80009, "original_language": "en", "original_title": "Taylor Swift: Speak Now World Tour Live", "overview": "Recorded during her Speak Now World Tour in 2011, this live recording collects 18 performances from the country-pop starlet, including all songs from her 2010 studio outing Speak Now. It also features home movies and rehearsal footage for the show, which was an elaborate affair that utilized dancers, aerialists, numerous costume changes, and a mammoth, multi-stage setup that more closely resembled a high-profile Broadway musical than it did a country music concert.", "poster_path": "/nheOI6FRfK9yKDcRyhTCzDfRoEl.jpg", "release_date": "2011-11-21", "title": "Taylor Swift: Speak Now World Tour Live", "video": true, "vote_average": 8.5, "vote_count": 26, "popularity": 7.785}, {"adult": false, "backdrop_path": "/2aHM8lYzcaO4MfN7VNvo1QFU0ft.jpg", "genre_ids": [99, 10402], "id": 373558, "original_language": "en", "original_title": "Taylor Swift: The 1989 World Tour - Live", "overview": "Taylor delivers the concert event of the year. Filmed at Sydney's ANZ Stadium in front of 76,000 fans, The 1989 World Tour - Live captures the excitement and energy of the hottest pop star in the world. Filled with great music, an electrifying stage show, and superstar guest appearances, the concert film is only on Apple Music.", "poster_path": "/kzXe8kscKo83BwGvIofWg6SCR7n.jpg", "release_date": "2015-12-20", "title": "Taylor Swift: The 1989 World Tour - Live", "video": false, "vote_average": 8.3, "vote_count": 65, "popularity": 11.567}, {"adult": false, "backdrop_path": "/q3eNcig4YFEsUTnmIYDA90FdndO.jpg", "genre_ids": [10402, 35, 28, 80], "id": 525, "original_language": "en", "original_title": "The Blues Brothers", "overview": "Jake Blues is just out of jail, and teams up with his brother, Elwood on a 'mission from God' to raise funds for the orphanage in which they grew up. The only thing they can do is do what they do best: play music. So they get their old band together, and set out on their way\u2014while getting in a bit of trouble here and there.", "poster_path": "/6hesUNBkpVRqBTBw2HlTg0h8b56.jpg", "release_date": "1980-06-17", "title": "The Blues Brothers", "video": false, "vote_average": 7.7, "vote_count": 2299, "popularity": 21.638}, {"adult": false, "backdrop_path": "/6bnI08rrGXRkngRqJWCMXDZuJ1j.jpg", "genre_ids": [35, 10402], "id": 254470, "original_language": "en", "original_title": "Pitch Perfect 2", "overview": "The Bellas are back, and they are better than ever. After being humiliated in front of none other than the President of the United States of America, the Bellas are taken out of the Aca-Circuit. In order to clear their name, and regain their status, the Bellas take on a seemingly impossible task: winning an international competition no American team has ever won. In order to accomplish this monumental task, they need to strengthen the bonds of friendship and sisterhood and blow away the competition with their amazing aca-magic! With all new friends and old rivals tagging along for the trip, the Bellas can hopefully accomplish their dreams.", "poster_path": "/qSjruLiFB4uqRtz2xheQPxG8uaB.jpg", "release_date": "2015-05-07", "title": "Pitch Perfect 2", "video": false, "vote_average": 6.8, "vote_count": 3898, "popularity": 27.354}, {"adult": false, "backdrop_path": "/ePqwTIoJeKJwShMABMst5duBcw9.jpg", "genre_ids": [35, 10402, 10749], "id": 114150, "original_language": "en", "original_title": "Pitch Perfect", "overview": "College student Beca knows she does not want to be part of a clique, but that's exactly where she finds herself after arriving at her new school. Thrust in among mean gals, nice gals and just plain weird gals, Beca finds that the only thing they have in common is how well they sing together. She takes the women of the group out of their comfort zone of traditional arrangements and into a world of amazing harmonic combinations in a fight to the top of college music competitions.", "poster_path": "/cLUMPdwCV0Dxd3P1ZkCXe7bVImI.jpg", "release_date": "2012-09-28", "title": "Pitch Perfect", "video": false, "vote_average": 7.3, "vote_count": 4621, "popularity": 21.153}, {"adult": false, "backdrop_path": "/hssIPFFMwOG2eDcQtfn39yzjXJ3.jpg", "genre_ids": [35, 10402], "id": 341012, "original_language": "en", "original_title": "Popstar: Never Stop Never Stopping", "overview": "When his new album fails to sell records, pop/rap superstar Conner4real goes into a major tailspin and watches his celebrity high life begin to collapse. He'll try anything to bounce back, anything except reuniting with his old rap group The Style Boyz.", "poster_path": "/m9k2MCvZJWkV5DfJY9fueeeqNxb.jpg", "release_date": "2016-06-03", "title": "Popstar: Never Stop Never Stopping", "video": false, "vote_average": 6.6, "vote_count": 756, "popularity": 16.114}, {"id": 13576, "video": false, "vote_count": 509, "vote_average": 6.9, "title": "This Is It", "release_date": "2009-10-28", "original_language": "en", "original_title": "This Is It", "genre_ids": [99, 10402], "backdrop_path": "/w7yzaQ7P2UBtSyMqMOx0zNxc3wB.jpg", "adult": false, "overview": "A compilation of interviews, rehearsals and backstage footage of Michael Jackson as he prepared for his series of sold-out shows in London.", "poster_path": "/4ZgT8FRJxxpG0mgOIPeCgjzAsBR.jpg", "popularity": 11.776}, {"id": 354912, "video": false, "vote_count": 10126, "vote_average": 8.2, "title": "Coco", "release_date": "2017-10-27", "original_language": "en", "original_title": "Coco", "genre_ids": [12, 16, 35, 14, 10751], "backdrop_path": "/askg3SMvhqEl4OL52YuvdtY40Yb.jpg", "adult": false, "overview": "Despite his family\u2019s baffling generations-old ban on music, Miguel dreams of becoming an accomplished musician like his idol, Ernesto de la Cruz. Desperate to prove his talent, Miguel finds himself in the stunning and colorful Land of the Dead following a mysterious chain of events. Along the way, he meets charming trickster Hector, and together, they set off on an extraordinary journey to unlock the real story behind Miguel's family history.", "poster_path": "/eKi8dIrr8voobbaGzDpe8w0PVbC.jpg", "popularity": 46.131}, {"adult": false, "backdrop_path": "/ljjr1LTE6Xsg8bQxcymXhcaQyLw.jpg", "genre_ids": [35, 10751, 14, 16], "id": 6477, "original_language": "en", "original_title": "Alvin and the Chipmunks", "overview": "A struggling songwriter named Dave Seville finds success when he comes across a trio of singing chipmunks: mischievous leader Alvin, brainy Simon, and chubby, impressionable Theodore.", "poster_path": "/sAt2yb4dgrpkHjbB9dQaKD9Caor.jpg", "release_date": "2007-12-13", "title": "Alvin and the Chipmunks", "video": false, "vote_average": 5.7, "vote_count": 2746, "popularity": 14.626}, {"id": 332562, "video": false, "vote_count": 7176, "vote_average": 7.5, "title": "A Star Is Born", "release_date": "2018-10-03", "original_language": "en", "original_title": "A Star Is Born", "genre_ids": [18, 10402, 10749], "backdrop_path": "/mnDvPokXpvsdPcWSjNRPhiiLOKu.jpg", "adult": false, "overview": "Seasoned musician Jackson Maine discovers \u2014 and falls in love with \u2014 struggling artist Ally. She has just about given up on her dream to make it big as a singer \u2014 until Jack coaxes her into the spotlight. But even as Ally's career takes off, the personal side of their relationship is breaking down, as Jack fights an ongoing battle with his own internal demons.", "poster_path": "/wrFpXMNBRj2PBiN4Z5kix51XaIZ.jpg", "popularity": 32.943}, {"adult": false, "backdrop_path": "/oT79THuFrcBzrhlf4fiCddwZBCQ.jpg", "genre_ids": [18, 10402, 10749], "id": 69, "original_language": "en", "original_title": "Walk the Line", "overview": "A chronicle of country music legend Johnny Cash's life, from his early days on an Arkansas cotton farm to his rise to fame with Sun Records in Memphis, where he recorded alongside Elvis Presley, Jerry Lee Lewis and Carl Perkins.", "poster_path": "/wdxL3Zyh3O5MIbmsSiZEevJAjtQ.jpg", "release_date": "2005-09-13", "title": "Walk the Line", "video": false, "vote_average": 7.5, "vote_count": 1545, "popularity": 15.437}, {"id": 313369, "video": false, "vote_count": 11057, "vote_average": 7.9, "title": "La La Land", "release_date": "2016-11-29", "original_language": "en", "original_title": "La La Land", "genre_ids": [35, 18, 10402, 10749], "backdrop_path": "/fp6X6yhgcxzxCpmM0EVC6V9B8XB.jpg", "adult": false, "overview": "Mia, an aspiring actress, serves lattes to movie stars in between auditions and Sebastian, a jazz musician, scrapes by playing cocktail party gigs in dingy bars, but as success mounts they are faced with decisions that begin to fray the fragile fabric of their love affair, and the dreams they worked so hard to maintain in each other threaten to rip them apart.", "poster_path": "/ylXCdC106IKiarftHkcacasaAcb.jpg", "popularity": 30.693}, {"id": 11887, "video": false, "vote_count": 2347, "vote_average": 6.5, "title": "High School Musical 3: Senior Year", "release_date": "2008-10-11", "original_language": "en", "original_title": "High School Musical 3: Senior Year", "genre_ids": [35, 18, 10402, 10749, 10751], "backdrop_path": "/daSGxGZL2nNjGZKkAF5ain3lmOx.jpg", "adult": false, "overview": "It's almost graduation day for high school seniors Troy, Gabriella, Sharpay, Chad, Ryan and Taylor \u2015 and the thought of heading off in separate directions after leaving East High has these Wildcats thinking they need to do something they'll remember forever. Together with the rest of the Wildcats, they stage a spring musical reflecting their hopes and fears about the future and their unforgettable experiences growing up together. But with graduation approaching and college plans in question, what will become of the dreams, romances, and friendships of East High's senior Wildcats?", "poster_path": "/ewZpH2QIfPQ0VIn9lPf7MHbLbl4.jpg", "popularity": 14.748}, {"id": 6575, "video": false, "vote_count": 364, "vote_average": 6.6, "title": "Walk Hard: The Dewey Cox Story", "release_date": "2007-12-21", "original_language": "en", "original_title": "Walk Hard: The Dewey Cox Story", "genre_ids": [35, 18, 10402], "backdrop_path": "/y7EElGAn1tFE0Npmls7uvg4HPVj.jpg", "adult": false, "overview": "Following a childhood tragedy, Dewey Cox follows a long and winding road to music stardom. Dewey perseveres through changing musical styles, an addiction to nearly every drug known and bouts of uncontrollable rage.", "poster_path": "/2sc7qoLTqZC0nB2k1crwuVoKP6H.jpg", "popularity": 15.669}, {"id": 424694, "video": false, "vote_count": 9721, "vote_average": 8.0, "title": "Bohemian Rhapsody", "release_date": "2018-10-24", "original_language": "en", "original_title": "Bohemian Rhapsody", "genre_ids": [18, 10402], "backdrop_path": "/93xA62uLd5CwMOAs37eQ7vPc1iV.jpg", "adult": false, "overview": "Singer Freddie Mercury, guitarist Brian May, drummer Roger Taylor and bass guitarist John Deacon take the music world by storm when they form the rock 'n' roll band Queen in 1970. Hit songs become instant classics. When Mercury's increasingly wild lifestyle starts to spiral out of control, Queen soon faces its greatest challenge yet \u2013 finding a way to keep the band together amid the success and excess.", "poster_path": "/lHu1wtNaczFPGFDTrjCSzeLPTKN.jpg", "popularity": 40.186}, {"adult": false, "backdrop_path": "/bxPw6s61bG5Of19lp1E00n0dDWW.jpg", "genre_ids": [35, 18, 10751, 10402, 10770], "id": 10947, "original_language": "en", "original_title": "High School Musical", "overview": "Troy, the popular captain of the basketball team, and Gabriella, the brainy and beautiful member of the academic club, break all the rules of East High society when they secretly audition for the leads in the school's musical. As they reach for the stars and follow their dreams, everyone learns about acceptance, teamwork, and being yourself.", "poster_path": "/xMRBlTMMKDRJuK4IhwG5idrGHaS.jpg", "release_date": "2006-01-20", "title": "High School Musical", "video": false, "vote_average": 6.5, "vote_count": 2983, "popularity": 14.165}, {"id": 653567, "video": false, "vote_count": 0, "vote_average": 0.0, "title": "Miss Americana", "release_date": "2020-01-23", "original_language": "en", "original_title": "Miss Americana", "genre_ids": [99], "backdrop_path": "/sKBaoiGW5JdPazIlwQlZeXeITXq.jpg", "adult": false, "overview": "A raw and emotionally revealing look at one of the most iconic artists of our time during a transformational period in her life as she learns to embrace her role not only as a songwriter and performer, but as a woman harnessing the full power of her voice.", "poster_path": "/fmHMmBl3VftWdLTy8E1mvWCgLe7.jpg", "popularity": 17.56}, {"id": 412519, "video": false, "vote_count": 122, "vote_average": 6.2, "title": "Honey 3: Dare to Dance", "release_date": "2016-11-30", "original_language": "en", "original_title": "Honey 3: Dare to Dance", "genre_ids": [18, 10402, 10749, 10751], "backdrop_path": "/lU2ddmKM6wtnFFxiCm5rDDD7JUa.jpg", "adult": false, "overview": "While attending college in Cape Town, Melea Martin feels constrained by the school's strict policies, and decides to set out on her own. Searching for a way to use her talents as a dancer and inspire the community around her, Melea rents a failing theater in order to put on a Hip-Hop Romeo and Juliet performance. But much like the Capulets and Montagues, conflicts between cast members threaten to bring the whole performance to a halt...", "poster_path": "/uWnBO4E1vkWy8nQ3KwZ4SVE19Qt.jpg", "popularity": 12.752}, {"id": 568332, "video": false, "vote_count": 147, "vote_average": 8.1, "title": "Taylor Swift: Reputation Stadium Tour", "release_date": "2018-12-31", "original_language": "en", "original_title": "Taylor Swift: Reputation Stadium Tour", "genre_ids": [99, 10402], "backdrop_path": "/4uMrZS7XEHRNKwHr5wSOxROanPF.jpg", "adult": false, "overview": "Taylor Swift takes the stage in Dallas for the Reputation Stadium Tour and celebrates a monumental night of music, memories and visual magic.", "poster_path": "/5H1w9gl7BJ4lFkvwoBvXAmKrKrR.jpg", "popularity": 14.355}, {"adult": false, "backdrop_path": "/tvTyRu9eKfymkje8d9VoWJEoyUv.jpg", "genre_ids": [18], "id": 53932, "original_language": "es", "original_title": "Las edades de Lul\u00fa", "overview": "Fifteen-year-old Lulu has never known any affection from her family. But when she goes to a rock concert with Pablo, a friend of the family, he introduces Lulu to her first sexual experience. Years later, Pablo and Lulu have married; Pablo has created a sheltered, private world for Lulu, into which nothing intrudes. However, Lulu tires of her cloistered existence, and begins hanging out in shady bars, looking for vicarious thrills and danger.", "poster_path": "/5PK5MAN84o0ESgzeW9euozOLIEe.jpg", "release_date": "1990-12-13", "title": "The Ages of Lulu", "video": false, "vote_average": 5.7, "vote_count": 64, "popularity": 23.137}], "total_pages": 205, "total_results": 4082}, "recommendations": {"page": 1, "results": [{"adult": false, "backdrop_path": "/8HGqhPRcOgAxPqrCGLVgUKWuozM.jpg", "genre_ids": [35, 28, 12, 14, 878, 27, 10402], "id": 324436, "original_language": "sv", "original_title": "Dyke Hard", "overview": "Bitte Andersson\u2019s debut feature \u00bbDyke Hard\u00ab is a wild John Waters-inspired queer comedy following a lesbian rock band\u2019s violent adventures back in 1986. Dyke Hard is a failed rock group travelling to a battle of the bands competition in the big city. The journey is further filled with bizarre, fierce and passionate encounters with cyborgs, ghosts, a thai boxer, roller derby gals, ninjas, motorcycle gangs and a mysterious billionaire all of whom will do everything to stop the band from making it in time to the battle.", "poster_path": "/sqtbicADqm2YQixg7j86452ZOM6.jpg", "release_date": "2015-02-08", "title": "Dyke Hard", "video": false, "vote_average": 4.5, "vote_count": 4, "popularity": 0.6}], "total_pages": 1, "total_results": 1}, "credits": {"cast": [{"cast_id": 2, "character": "Herself", "credit_id": "5335c3d2c3a3682a940054d7", "gender": 1, "id": 47, "name": "Bj\u00f6rk", "order": 1, "profile_path": "/oV39BcGG2Cm7bozEgAHtalx9GfM.jpg"}, {"cast_id": 5, "character": "Himself - Opening sequence voice", "credit_id": "5c7e93490e0a2643145a73dd", "gender": 2, "id": 86543, "name": "David Attenborough", "order": 2, "profile_path": "/tt3LW3XftcvxOZtMXmIaJSWFN7y.jpg"}], "crew": [{"credit_id": "5448d2850e0a26748000156b", "department": "Production", "gender": 1, "id": 84542, "job": "Producer", "name": "Jacqui Edenbrow", "profile_path": null}, {"credit_id": "5448d291c3a3680fc3001320", "department": "Camera", "gender": 2, "id": 84804, "job": "Director of Photography", "name": "Brett Turnbull", "profile_path": null}, {"credit_id": "5335c3acc3a3682ab5005324", "department": "Directing", "gender": 2, "id": 583857, "job": "Director", "name": "Peter Strickland", "profile_path": "/ptkIln1n0p7A987W3q2hxtzxdfp.jpg"}, {"credit_id": "5335c3bac3a3682a8e005540", "department": "Directing", "gender": 2, "id": 967482, "job": "Director", "name": "Nick Fenton", "profile_path": null}]}}