{"adult": false, "backdrop_path": "/gfdWh3ThVPZBbC4bFlBRDRiTHoj.jpg", "belongs_to_collection": null, "budget": 0, "genres": [{"id": 35, "name": "Comedy"}, {"id": 10749, "name": "Romance"}], "homepage": null, "id": 261871, "imdb_id": "tt3338382", "original_language": "ru", "original_title": "\u041f\u043e\u043b\u044f\u0440\u043d\u044b\u0439 \u0440\u0435\u0439\u0441", "overview": "Sometimes New Year eve can bring a lot of surprises...", "popularity": 1.559, "poster_path": "/bXaoodAqE20vpQFUtypgP6ktHVf.jpg", "production_companies": [{"id": 21279, "logo_path": null, "name": "Wise Vision", "origin_country": ""}], "production_countries": [{"iso_3166_1": "UA", "name": "Ukraine"}], "release_date": "2013-12-12", "revenue": 0, "runtime": 90, "spoken_languages": [{"iso_639_1": "ru", "name": "P\u0443\u0441\u0441\u043a\u0438\u0439"}], "status": "Released", "tagline": "", "title": "Polar Flight", "video": false, "vote_average": 1.0, "vote_count": 1, "keywords": {"keywords": [{"id": 1442, "name": "winter"}, {"id": 2139, "name": "russia"}, {"id": 5198, "name": "cold"}, {"id": 8044, "name": "flight"}, {"id": 15111, "name": "drinking"}]}, "similar": {"page": 1, "results": [{"id": 853, "video": false, "vote_count": 1914, "vote_average": 7.3, "title": "Enemy at the Gates", "release_date": "2001-03-14", "original_language": "en", "original_title": "Enemy at the Gates", "genre_ids": [28, 18, 36, 10749, 10752], "backdrop_path": "/70G2k5LYyvatd87Rai7DJM0DcYj.jpg", "adult": false, "overview": "A Russian and a German sniper play a game of cat-and-mouse during the Battle of Stalingrad in WWII.", "poster_path": "/9cSoNnB31hGY2mL78VT8mAbz6nR.jpg", "popularity": 25.616}, {"id": 287903, "video": false, "vote_count": 1172, "vote_average": 6.0, "title": "Krampus", "release_date": "2015-11-26", "original_language": "en", "original_title": "Krampus", "genre_ids": [35, 14, 27], "backdrop_path": "/5GsJuYZuG1bkuSI8FeWol5nvR9S.jpg", "adult": false, "overview": "A horror comedy based on the ancient legend about a pagan creature who punishes children on Christmas.", "poster_path": "/27SiV4EBHcTBMz4IKANjhX5iIoX.jpg", "popularity": 11.495}, {"adult": false, "backdrop_path": "/kiWvoV78Cc3fUwkOHKzyBgVdrDD.jpg", "genre_ids": [37, 18, 12], "id": 281957, "original_language": "en", "original_title": "The Revenant", "overview": "In the 1820s, a frontiersman, Hugh Glass, sets out on a path of vengeance against those who left him for dead after a bear mauling.", "poster_path": "/oXUWEc5i3wYyFnL1Ycu8ppxxPvs.jpg", "release_date": "2015-12-25", "title": "The Revenant", "video": false, "vote_average": 7.5, "vote_count": 12127, "popularity": 24.135}, {"adult": false, "backdrop_path": "/pc7a2qrIkIxzqWGqcexd3mHzIxy.jpg", "genre_ids": [28, 53, 12], "id": 56292, "original_language": "en", "original_title": "Mission: Impossible - Ghost Protocol", "overview": "Ethan Hunt and his team are racing against time to track down a dangerous terrorist named Hendricks, who has gained access to Russian nuclear launch codes and is planning a strike on the United States. An attempt to stop him ends in an explosion causing severe destruction to the Kremlin and the IMF to be implicated in the bombing, forcing the President to disavow them. No longer being aided by the government, Ethan and his team chase Hendricks around the globe, although they might still be too late to stop a disaster.", "poster_path": "/s58mMsgIVOFfoXPtwPWJ3hDYpXf.jpg", "release_date": "2011-12-07", "title": "Mission: Impossible - Ghost Protocol", "video": false, "vote_average": 7.0, "vote_count": 6591, "popularity": 29.242}, {"id": 708, "video": false, "vote_count": 845, "vote_average": 6.4, "title": "The Living Daylights", "release_date": "1987-06-29", "original_language": "en", "original_title": "The Living Daylights", "genre_ids": [28, 12, 53], "backdrop_path": "/gt0TafbcheJeT9SFewDLqYWk3Sd.jpg", "adult": false, "overview": "James Bond helps a Russian General escape into the west. He soon finds out that the KGB wants to kill him for helping the General. A little while later the General is kidnapped from the Secret Service leading 007 to be suspicious.", "poster_path": "/yEryMe58dx7zm1QBhQFeuYcv2aH.jpg", "popularity": 17.272}, {"adult": false, "backdrop_path": "/6wBfey6EVR5qxYLB8pxoTVQYWkS.jpg", "genre_ids": [28, 80, 18, 53], "id": 1620, "original_language": "en", "original_title": "Hitman", "overview": "The best-selling videogame, Hitman, roars to life with both barrels blazing in this hardcore action-thriller starring Timothy Olyphant. A genetically engineered assassin with deadly aim, known only as \"Agent 47\" eliminates strategic targets for a top-secret organization. But when he's double-crossed, the hunter becomes the prey as 47 finds himself in a life-or-death game of international intrigue.", "poster_path": "/1U2FpMotSyaciATw5qfEsKdgpX4.jpg", "release_date": "2007-11-21", "title": "Hitman", "video": false, "vote_average": 5.9, "vote_count": 1868, "popularity": 16.204}, {"id": 75258, "video": false, "vote_count": 642, "vote_average": 6.9, "title": "Secret of the Wings", "release_date": "2012-08-17", "original_language": "en", "original_title": "Secret of the Wings", "genre_ids": [12, 16, 14, 10751], "backdrop_path": "/wMpL6qA67gTupcwXV8w6VIJzLxa.jpg", "adult": false, "overview": "Tinkerbell wanders into the forbidden Winter woods and meets Periwinkle. Together they learn the secret of their wings and try to unite the warm fairies and the winter fairies to help Pixie Hollow.", "poster_path": "/4oBoAsIGEw9z4R5XqhtuVmpznGk.jpg", "popularity": 21.277}, {"id": 9604, "video": false, "vote_count": 723, "vote_average": 6.0, "title": "Red Heat", "release_date": "1988-06-17", "original_language": "en", "original_title": "Red Heat", "genre_ids": [28, 80], "backdrop_path": "/rqqaRqNMvnx3W5lnh4dFXqotMgO.jpg", "adult": false, "overview": "A tough Russian policeman is forced to partner up with a cocky Chicago police detective when he is sent to Chicago to apprehend a Georgian drug lord who killed his partner and fled the country.", "poster_path": "/tCBns5Uxpy82dvs0pztDtD2CeL8.jpg", "popularity": 14.576}, {"id": 47964, "video": false, "vote_count": 4657, "vote_average": 5.2, "title": "A Good Day to Die Hard", "release_date": "2013-02-06", "original_language": "en", "original_title": "A Good Day to Die Hard", "genre_ids": [28, 53], "backdrop_path": "/17zArExB7ztm6fjUXZwQWgGMC9f.jpg", "adult": false, "overview": "Iconoclastic, take-no-prisoners cop John McClane, finds himself for the first time on foreign soil after traveling to Moscow to help his wayward son Jack - unaware that Jack is really a highly-trained CIA operative out to stop a nuclear weapons heist. With the Russian underworld in pursuit, and battling a countdown to war, the two McClanes discover that their opposing methods make them unstoppable heroes.", "poster_path": "/c2SQMd00CCGTiDxGXVqA2J9lmzF.jpg", "popularity": 25.051}, {"adult": false, "backdrop_path": "/tG7ydFmDr2Y1kecUCM6foFxmJjP.jpg", "genre_ids": [27, 37, 35], "id": 10212, "original_language": "en", "original_title": "Ravenous", "overview": "Upon receiving reports of missing persons at Fort Spencer, a remote Army outpost on the Western frontier, Capt. John Boyd investigates. After arriving at his new post, Boyd and his regiment aid a wounded frontiersman who recounts a horrifying tale of a wagon train murdered by its supposed guide -- a vicious U.S. Army colonel gone rogue. Fearing the worst, the regiment heads out into the wilderness to verify the gruesome claims.", "poster_path": "/spwvStEA4CraTXPOcONrDzncXOZ.jpg", "release_date": "1999-03-16", "title": "Ravenous", "video": false, "vote_average": 6.8, "vote_count": 271, "popularity": 10.22}, {"id": 223485, "video": false, "vote_count": 586, "vote_average": 6.6, "title": "Slow West", "release_date": "2015-04-16", "original_language": "en", "original_title": "Slow West", "genre_ids": [28, 18, 53, 37, 10749], "backdrop_path": "/9qF6lhj6X0ImH4iWGZs1uspXJI0.jpg", "adult": false, "overview": "In the Old West, a 17-year-old Scottish boy teams up with a mysterious gunman to find the woman with whom he is infatuated.", "poster_path": "/uZ9dBBn0GaEw0YIBvQd01Io3pho.jpg", "popularity": 10.467}, {"id": 850, "video": false, "vote_count": 677, "vote_average": 7.4, "title": "A Christmas Story", "release_date": "1983-11-18", "original_language": "en", "original_title": "A Christmas Story", "genre_ids": [35, 10751], "backdrop_path": "/wok0YepwQfBAPsrttFq0W6HXT2g.jpg", "adult": false, "overview": "The comic mishaps and adventures of a young boy named Ralph, trying to convince his parents, teachers, and Santa that a Red Ryder B.B. gun really is the perfect Christmas gift for the 1940s.", "poster_path": "/u348XMdz7g2Eu54yntt1qshUixk.jpg", "popularity": 9.472}, {"id": 5375, "video": false, "vote_count": 486, "vote_average": 5.6, "title": "Fred Claus", "release_date": "2007-11-03", "original_language": "en", "original_title": "Fred Claus", "genre_ids": [28, 35, 18], "backdrop_path": "/r0jEOEzIJFdyaxVa7bsFocUuQ1t.jpg", "adult": false, "overview": "Fred Claus and Santa Claus have been estranged brothers for many years. Now Fred must reconcile his differences with his brother whom he believes overshadows him. When an efficiency expert assesses the workings at the North Pole and threatens to shut Santa down, Fred must help his brother to save Christmas.", "poster_path": "/vFniWmciRi4tAjAYGp2wrK0P8dJ.jpg", "popularity": 12.098}, {"id": 9714, "video": false, "vote_count": 1688, "vote_average": 5.2, "title": "Home Alone 3", "release_date": "1997-12-12", "original_language": "en", "original_title": "Home Alone 3", "genre_ids": [35, 10751], "backdrop_path": "/gt8Pe0H2kdm99yuHYDs8goKbTkn.jpg", "adult": false, "overview": "9-year-old Alex Pruitt is home alone with the chicken pox. Turns out, due to a mix-up among nefarious spies, Alex was given a toy car concealing a top-secret microchip. Now Alex must fend off the spies as they try break into his house to get it back.", "poster_path": "/z6ugEdjGuY4qcX1ymdV2CTVSvKN.jpg", "popularity": 20.25}, {"id": 146216, "video": false, "vote_count": 2566, "vote_average": 6.5, "title": "RED 2", "release_date": "2013-07-18", "original_language": "en", "original_title": "RED 2", "genre_ids": [28, 35, 80, 53], "backdrop_path": "/iOkkgY4byK8MBoF3Mexybu22J1I.jpg", "adult": false, "overview": "Retired C.I.A. agent Frank Moses reunites his unlikely team of elite operatives for a global quest to track down a missing portable nuclear device.", "poster_path": "/dvWITvEzlq8IaUbxUuBVKvXqfo6.jpg", "popularity": 23.213}, {"id": 9487, "video": false, "vote_count": 5566, "vote_average": 6.9, "title": "A Bug's Life", "release_date": "1998-11-25", "original_language": "en", "original_title": "A Bug's Life", "genre_ids": [12, 16, 35, 10751], "backdrop_path": "/bHMHpXNjeKRxcjWcpbIAD5f0aIK.jpg", "adult": false, "overview": "On behalf of \"oppressed bugs everywhere,\" an inventive ant named Flik hires a troupe of warrior bugs to defend his bustling colony from a horde of freeloading grasshoppers led by the evil-minded Hopper.", "poster_path": "/u9qGMRwcPwP0WETxulS5hKUsEum.jpg", "popularity": 27.854}, {"id": 505914, "video": false, "vote_count": 76, "vote_average": 4.4, "title": "A.I. Rising", "release_date": "2018-02-25", "original_language": "en", "original_title": "A.I. Rising", "genre_ids": [18, 878, 10749], "backdrop_path": "/ddQ11EC7tiXJVNNHjGCMMQgJYNz.jpg", "adult": false, "overview": "On a lonely mission to Alpha Centauri, Milutin is teamed up with Nimani 1345, a female cyborg designed to fulfill his every need. At first thrilled to be able to control her, Sebastian grows tired of having his desires fulfilled so easily. Longing for human intimacy, Sebastian alters Nimani's programmed responses, but in doing so he risks the mission's security \u2014 and his own life.", "poster_path": "/aXosp6MFBxYi4m6ZmE4u1auReHc.jpg", "popularity": 19.05}, {"adult": false, "backdrop_path": "/jutetQGSU0ttiskMNKvQUSd0PSB.jpg", "genre_ids": [35, 80], "id": 11546, "original_language": "en", "original_title": "Police Academy: Mission to Moscow", "overview": "The Russians need help in dealing with the Mafia and so they seek help with the veterans of the Police Academy. They head off to Moscow, in order to find evidence against Konstantin Konali, who marketed a computer game that everyone in the world is playing.", "poster_path": "/mpUOqZcs7VVg9LrVPRZKAGPiTT2.jpg", "release_date": "1994-06-09", "title": "Police Academy: Mission to Moscow", "video": false, "vote_average": 4.4, "vote_count": 434, "popularity": 11.692}, {"id": 137, "video": false, "vote_count": 4446, "vote_average": 7.5, "title": "Groundhog Day", "release_date": "1993-02-11", "original_language": "en", "original_title": "Groundhog Day", "genre_ids": [35, 18, 14, 10749], "backdrop_path": "/dTUH9xO3w6vQjcN2ictxgpnAhKm.jpg", "adult": false, "overview": "A narcissistic T.V. weatherman, along with his attractive-but-distant producer and mawkish cameraman, is sent to report on Groundhog Day in the small town of Punxsutawney, where he finds himself repeating the same day over and over.", "poster_path": "/vXjVd0Vu0MXRZnga7wEnHIIhO5B.jpg", "popularity": 21.602}, {"id": 431580, "video": false, "vote_count": 409, "vote_average": 7.0, "title": "Abominable", "release_date": "2019-09-19", "original_language": "en", "original_title": "Abominable", "genre_ids": [12, 16, 35, 10751], "backdrop_path": "/tLCDKsXo6D84IVFanoElosSEKdp.jpg", "adult": false, "overview": "A group of misfits encounter a young Yeti named Everest, and they set off to reunite the magical creature with his family on the mountain of his namesake.", "poster_path": "/20djTLqppfBx5WYA67Y300S6aPD.jpg", "popularity": 33.12}], "total_pages": 49, "total_results": 969}, "recommendations": {"page": 1, "results": [], "total_pages": 1, "total_results": 0}, "credits": {"cast": [{"cast_id": 4, "character": "", "credit_id": "5335f18a9251417dad00001f", "gender": 0, "id": 109058, "name": "Egor Beroev", "order": 1, "profile_path": "/q2IfIhFIXZD9Rah63ChdEe8o3iN.jpg"}, {"cast_id": 5, "character": "", "credit_id": "5335f1939251417db4000026", "gender": 2, "id": 583453, "name": "Dmitriy Nagiev", "order": 2, "profile_path": "/l3qrgxwqtrph4qt8BpNC8fUNahc.jpg"}, {"cast_id": 6, "character": "", "credit_id": "5335f1a49251417daa000021", "gender": 1, "id": 80998, "name": "Yuliya Snigir", "order": 3, "profile_path": "/98fVPlaJaZoB06gzZoBZxj4I6ME.jpg"}, {"cast_id": 7, "character": "", "credit_id": "5335f1bf9251417daa000025", "gender": 1, "id": 235999, "name": "Anna Semenovich", "order": 4, "profile_path": "/3U4O5r48qL49GkiaSP3GAiHixCX.jpg"}, {"cast_id": 8, "character": "", "credit_id": "5335f1cd9251417d9e000029", "gender": 0, "id": 1257179, "name": "Tatyana Orlova", "order": 5, "profile_path": "/iCQWgHQQcBi5V3ad2C6Bq1BCu1S.jpg"}, {"cast_id": 9, "character": "", "credit_id": "5335f2049251417d9b00002d", "gender": 2, "id": 238204, "name": "Mikhail Bogdasarov", "order": 6, "profile_path": "/3YY4LrSvO5ISXx2aWFaNDHNojED.jpg"}, {"cast_id": 10, "character": "", "credit_id": "5335f20f9251417da4000028", "gender": 2, "id": 225174, "name": "Semyon Furman", "order": 7, "profile_path": "/jMke3AVa3ttFGMQ4FBaInfNneoj.jpg"}, {"cast_id": 11, "character": "", "credit_id": "5335f21c9251417da1000028", "gender": 0, "id": 562640, "name": "Ekaterina Kopanova", "order": 8, "profile_path": "/1XcBNJ1zHcRBxawOpTqaXyDtJga.jpg"}, {"cast_id": 12, "character": "", "credit_id": "5335f22d9251417daa000029", "gender": 0, "id": 225670, "name": "Mikhail Tarabukin", "order": 9, "profile_path": "/cAZjakPZ3BMuPCoSuw6PMlracnH.jpg"}], "crew": [{"credit_id": "5335f14c9251417da100001c", "department": "Writing", "gender": 0, "id": 83547, "job": "Writer", "name": "Aleksandr Kachan", "profile_path": null}, {"credit_id": "5335f1379251417d9e00001d", "department": "Directing", "gender": 0, "id": 1151356, "job": "Director", "name": "Sergey Chekalov", "profile_path": null}, {"credit_id": "5335f15a9251417db400001f", "department": "Writing", "gender": 0, "id": 1305383, "job": "Writer", "name": "Tatyana Bessarab", "profile_path": null}, {"credit_id": "5335f1659251417daa000019", "department": "Writing", "gender": 0, "id": 1305384, "job": "Writer", "name": "Aleksandr Kvak", "profile_path": null}, {"credit_id": "5ab39fd49251417b020074a1", "department": "Crew", "gender": 2, "id": 1784466, "job": "Cinematography", "name": "Alisher Khamidkhodzhaev", "profile_path": null}, {"credit_id": "5db9bf1ca1d3320014e9bfc3", "department": "Crew", "gender": 2, "id": 2444716, "job": "Stunt Driver", "name": "Maksym Volynets", "profile_path": null}]}}