{"adult": false, "backdrop_path": null, "belongs_to_collection": null, "budget": 0, "genres": [{"id": 18, "name": "Drama"}], "homepage": null, "id": 262176, "imdb_id": "tt0016938", "original_language": "en", "original_title": "The Great Gatsby", "overview": "Nick Carraway, a young Midwesterner now living on Long Island, finds himself fascinated by the mysterious past and lavish lifestyle of his neighbor, the nouveau riche Jay Gatsby. He is drawn into Gatsby's circle, becoming a witness to obsession and tragedy.", "popularity": 2.394, "poster_path": "/3YBcjvU88Q990Ow1fbya29Ph5kb.jpg", "production_companies": [{"id": 16914, "logo_path": null, "name": "Famous Players Limited", "origin_country": ""}], "production_countries": [{"iso_3166_1": "US", "name": "United States of America"}], "release_date": "1926-11-21", "revenue": 0, "runtime": 80, "spoken_languages": [], "status": "Released", "tagline": "The PICTURE is the Dramatic Thunderbolt of the Season!", "title": "The Great Gatsby", "video": false, "vote_average": 0.0, "vote_count": 0, "keywords": {"keywords": [{"id": 10703, "name": "tragic love"}, {"id": 181429, "name": "lost film"}]}, "similar": {"page": 1, "results": [{"adult": false, "backdrop_path": "/xqQztbT6KlPLQLlRtNHoXivEMZA.jpg", "genre_ids": [18, 10749, 53], "id": 597, "original_language": "en", "original_title": "Titanic", "overview": "101-year-old Rose DeWitt Bukater tells the story of her life aboard the Titanic, 84 years later. A young Rose boards the ship with her mother and fianc\u00e9. Meanwhile, Jack Dawson and Fabrizio De Rossi win third-class tickets aboard the ship. Rose tells the whole story from Titanic's departure through to its death\u2014on its first and last voyage\u2014on April 15, 1912.", "poster_path": "/kHXEpyfl6zqn8a6YuozZUujufXf.jpg", "release_date": "1997-11-18", "title": "Titanic", "video": false, "vote_average": 7.8, "vote_count": 15727, "popularity": 42.978}, {"id": 901, "video": false, "vote_count": 1026, "vote_average": 8.4, "title": "City Lights", "release_date": "1931-02-01", "original_language": "xx", "original_title": "City Lights", "genre_ids": [35, 18, 10749], "backdrop_path": "/vT6ux2rdyg2kexuLisO5Ygz7pHg.jpg", "adult": false, "overview": "City Lights is the first silent film that Charlie Chaplin directed after he established himself with sound accompanied films. The film is about a penniless man who falls in love with a flower girl.", "poster_path": "/bXNvzjULc9jrOVhGfjcc64uKZmZ.jpg", "popularity": 14.294}, {"adult": false, "backdrop_path": "/tr6OExnBfjLADi9OyZoW308mPAp.jpg", "genre_ids": [18, 35, 10749], "id": 74643, "original_language": "en", "original_title": "The Artist", "overview": "Hollywood, 1927: As silent movie star George Valentin wonders if the arrival of talking pictures will cause him to fade into oblivion, he sparks with Peppy Miller, a young dancer set for a big break.", "poster_path": "/i0mpvMIIjyubXsVKug9vX0lYpnd.jpg", "release_date": "2011-06-26", "title": "The Artist", "video": false, "vote_average": 7.4, "vote_count": 1977, "popularity": 12.71}, {"id": 19, "video": false, "vote_count": 1340, "vote_average": 8.2, "title": "Metropolis", "release_date": "1927-01-10", "original_language": "de", "original_title": "Metropolis", "genre_ids": [18, 878], "backdrop_path": "/gmH0N0bdlYGN1EUr8U2cMQYyg78.jpg", "adult": false, "overview": "In a futuristic city sharply divided between the working class and the city planners, the son of the city's mastermind falls in love with a working class prophet who predicts the coming of a savior to mediate their differences.", "poster_path": "/qriaeUUwdmlgethK3aSAx68mG05.jpg", "popularity": 20.574}, {"id": 101, "video": false, "vote_count": 8645, "vote_average": 8.3, "title": "L\u00e9on: The Professional", "release_date": "1994-09-14", "original_language": "en", "original_title": "L\u00e9on: The Professional", "genre_ids": [28, 80, 18], "backdrop_path": "/dXQ7HILRK1Tg33RT64JwbQI7Osh.jpg", "adult": false, "overview": "L\u00e9on, the top hit man in New York, has earned a rep as an effective \"cleaner\". But when his next-door neighbors are wiped out by a loose-cannon DEA agent, he becomes the unwilling custodian of 12-year-old Mathilda. Before long, Mathilda's thoughts turn to revenge, and she considers following in L\u00e9on's footsteps.", "poster_path": "/gE8S02QUOhVnAmYu4tcrBlMTujz.jpg", "popularity": 42.005}, {"adult": false, "backdrop_path": "/wcT7srQ4GeeMqlszMFEtPZ7v8T7.jpg", "genre_ids": [35, 10749], "id": 28978, "original_language": "en", "original_title": "The Circus", "overview": "Charlie, a wandering tramp, becomes a circus handyman and falls in love with the circus owner's daughter. Unaware of Charlie's affection, the girl falls in love with a handsome young performer. Charlie's versatility makes him star of the show when he substitutes for an ailing tightwire walker. He is discharged from the company when he protects the girl from her father's abuse, but he returns and appeals to the handsome performer to marry the girl. After the wedding the father prevails upon them to rejoin the circus. Charlie is hired again, but he stays behind when the caravan moves on.", "poster_path": "/awTf4Y6TGvgi3VYtGNINyyJJy9Q.jpg", "release_date": "1928-01-06", "title": "The Circus", "video": false, "vote_average": 8.2, "vote_count": 330, "popularity": 12.253}, {"id": 1903, "video": false, "vote_count": 2234, "vote_average": 6.8, "title": "Vanilla Sky", "release_date": "2001-12-10", "original_language": "en", "original_title": "Vanilla Sky", "genre_ids": [18, 14, 878, 53, 10749], "backdrop_path": "/6XwX3HzKhlBUbTy2qZx0THQOu2T.jpg", "adult": false, "overview": "David Aames has it all: wealth, good looks and gorgeous women on his arm. But just as he begins falling for the warmhearted Sofia, his face is horribly disfigured in a car accident. That's just the beginning of his troubles as the lines between illusion and reality, between life and death, are blurred.", "poster_path": "/ujMy9P4VczTW9YSpAM31uqdOMpz.jpg", "popularity": 14.632}, {"id": 440298, "video": false, "vote_count": 712, "vote_average": 7.6, "title": "Cold War", "release_date": "2018-06-08", "original_language": "pl", "original_title": "Zimna wojna", "genre_ids": [18, 10402, 10749], "backdrop_path": "/n7vcKtvScHPJREEaLIuRk41mMot.jpg", "adult": false, "overview": "A man and a woman meet in the ruins of post-war Poland. With vastly different backgrounds and temperaments, they are fatally mismatched and yet drawn to each other.", "poster_path": "/6rbS8oPIgUMhQgIX8oGVTtlNgLR.jpg", "popularity": 12.078}, {"id": 3059, "video": false, "vote_count": 141, "vote_average": 7.4, "title": "Intolerance: Love's Struggle Throughout the Ages", "release_date": "1916-09-04", "original_language": "en", "original_title": "Intolerance: Love's Struggle Throughout the Ages", "genre_ids": [18], "backdrop_path": "/9XksyoSydGAiMjDx7bVp0JdPsIl.jpg", "adult": false, "overview": "The story of a poor young woman, separated by prejudice from her husband and baby, is interwoven with tales of intolerance from throughout history.", "poster_path": "/mnjifw19X094HvG80CN7nyMSRsD.jpg", "popularity": 10.135}, {"adult": false, "backdrop_path": "/wEo4UtBAWdB4aOmQ9wRjI1aS7Dt.jpg", "genre_ids": [35, 18], "id": 10098, "original_language": "en", "original_title": "The Kid", "overview": "A tramp cares for a boy after he's abandoned as a newborn by his mother. Later the mother has a change of heart and aches to be reunited with her son.", "poster_path": "/drgMcyTsySQBnUPGaBThCHGdlWT.jpg", "release_date": "1921-02-06", "title": "The Kid", "video": false, "vote_average": 8.3, "vote_count": 976, "popularity": 12.296}, {"id": 653, "video": false, "vote_count": 905, "vote_average": 7.7, "title": "Nosferatu", "release_date": "1922-02-17", "original_language": "de", "original_title": "Nosferatu, eine Symphonie des Grauens", "genre_ids": [18, 14, 27], "backdrop_path": "/B4SauS3u6akDAzufZsauFHTBwz.jpg", "adult": false, "overview": "Vampire Count Orlok is interested in a new residence and in his real estate agent\u2019s young wife. F.\u202fW. Murnau\u2019s unauthorized adaptation of Bram Stoker\u2019s \u201cDracula.\u201d", "poster_path": "/cD61HX8e80CtzHIq4BFGFg5TR0A.jpg", "popularity": 14.061}, {"id": 643, "video": false, "vote_count": 539, "vote_average": 7.6, "title": "Battleship Potemkin", "release_date": "1925-12-21", "original_language": "ru", "original_title": "\u0411\u0440\u043e\u043d\u0435\u043d\u043e\u0441\u0435\u0446 \u041f\u043e\u0442\u0451\u043c\u043a\u0438\u043d", "genre_ids": [18, 36], "backdrop_path": "/nS2tyCL7unTVhNJBFgBdg2Ii5Yr.jpg", "adult": false, "overview": "A dramatized account of a great Russian naval mutiny and a resultant public demonstration, showing support, which brought on a police massacre. The film had an incredible impact on the development of cinema and is a masterful example of montage editing.", "poster_path": "/tjnaRiHUsxBADaOwrQpnTnjHVwi.jpg", "popularity": 13.846}, {"adult": false, "backdrop_path": "/nKHwNmUGe002ayPlfwG9CVTIXC2.jpg", "genre_ids": [18, 10749], "id": 10229, "original_language": "en", "original_title": "A Walk to Remember", "overview": "When the popular, restless Landon Carter is forced to participate in the school drama production he falls in love with Jamie Sullivan, the daughter of the town's minister. Jamie has a \"to-do\" list for her life and also a very big secret she must keep from Landon.", "poster_path": "/kso0otMalKy9qSEdrzYP7Bc3Rjg.jpg", "release_date": "2002-01-25", "title": "A Walk to Remember", "video": false, "vote_average": 7.6, "vote_count": 2399, "popularity": 16.816}, {"id": 234, "video": false, "vote_count": 652, "vote_average": 7.9, "title": "The Cabinet of Dr. Caligari", "release_date": "1920-02-25", "original_language": "de", "original_title": "Das Cabinet des Dr. Caligari", "genre_ids": [80, 18, 27, 53], "backdrop_path": "/6Xt1Iq0sct6LQcGF4WA5I4VqQmP.jpg", "adult": false, "overview": "Francis, a young man, recalls in his memory the horrible experiences he and his fianc\u00e9e Jane recently went through. It is the annual fair in Holstenwall. Francis and his friend Alan visit The Cabinet of Dr. Caligari, an exhibit where the mysterious doctor shows the somnambulist Cesare, and awakens him for some moments from his death-like sleep. When Alan asks Cesare about his future, Cesare answers that he will die before dawn. The next morning Alan is found dead. Francis suspects Cesare of being the murderer, and starts spying on him and Dr. Caligari.", "poster_path": "/myK9DeIsXWGKgUTZyGXg2IfFk0W.jpg", "popularity": 15.573}, {"adult": false, "backdrop_path": "/zc5vjonSbXUUazuQSi0R2bUfWNP.jpg", "genre_ids": [18], "id": 1405, "original_language": "en", "original_title": "Greed", "overview": "A lottery win of $5,000 forever changes the lives of a miner turned dentist and his wife.", "poster_path": "/eur2vc2BGiOocBuBLVPXySO7lRh.jpg", "release_date": "1925-01-26", "title": "Greed", "video": false, "vote_average": 7.6, "vote_count": 71, "popularity": 6.57}, {"id": 26317, "video": false, "vote_count": 283, "vote_average": 8.0, "title": "Man with a Movie Camera", "release_date": "1929-01-08", "original_language": "ru", "original_title": "\u0427\u0435\u043b\u043e\u0432\u0435\u043a \u0441 \u043a\u0438\u043d\u043e\u0430\u043f\u043f\u0430\u0440\u0430\u0442\u043e\u043c", "genre_ids": [99], "backdrop_path": "/8mg8GZePag5LZVhveBTL92Ufh5W.jpg", "adult": false, "overview": "A cameraman wanders around Moscow, Kharkov, Kiev and Odessa with a camera slung over his shoulder, documenting urban life with dazzling invention.", "poster_path": "/Ded5Kl7MDZQTbFpoNI62tLVWUN.jpg", "popularity": 11.059}, {"adult": false, "backdrop_path": "/dmtvvDJPBLLkjHgA4Oj7WBa27s2.jpg", "genre_ids": [12, 28, 35], "id": 961, "original_language": "en", "original_title": "The General", "overview": "During America\u2019s Civil War Union spies steal engineer Johnnie Gray's beloved locomotive The General - his lady love, Annabelle Lee, aboard an attached boxcar - and he single-handedly must do all in his power to both get The General back and to rescue Annabelle. Released throughout most of the world in 1927, this Silent comedy-action film flopped when originally released, but now is regarded as one of the great American motion pictures. The story is based on actual historic events.", "poster_path": "/hjK9y09NjHOqAaz6PfOmzxU1qCT.jpg", "release_date": "1926-12-31", "title": "The General", "video": false, "vote_average": 8.1, "vote_count": 525, "popularity": 15.424}, {"id": 992, "video": false, "vote_count": 362, "vote_average": 8.2, "title": "Sherlock, Jr.", "release_date": "1924-04-19", "original_language": "en", "original_title": "Sherlock, Jr.", "genre_ids": [28, 35, 9648], "backdrop_path": "/l3RiIjaN1peXQ2lAwnpF33Xb5R0.jpg", "adult": false, "overview": "A film projectionist longs to be a detective, and puts his meagre skills to work when he is framed by a rival for stealing his girlfriend's father's pocketwatch.", "poster_path": "/1G9r3rqtbFAQuyWKOZm4Y5J5s7Q.jpg", "popularity": 10.459}, {"adult": false, "backdrop_path": "/2CR4OT6Ou4axUfThbJ6sbnMGWWm.jpg", "genre_ids": [12, 14, 878], "id": 775, "original_language": "fr", "original_title": "Le Voyage dans la Lune", "overview": "Professor Barbenfouillis and five of his colleagues from the Academy of Astronomy travel to the Moon aboard a rocket propelled by a giant cannon. Once on the lunar surface, the bold explorers face the many perils hidden in the caves of the mysterious satellite.", "poster_path": "/zztHYAfSecYuaDyIjQudjKaOLLY.jpg", "release_date": "1902-09-01", "title": "A Trip to the Moon", "video": false, "vote_average": 8.0, "vote_count": 820, "popularity": 14.653}, {"id": 5698, "video": false, "vote_count": 268, "vote_average": 7.1, "title": "The Great Train Robbery", "release_date": "1903-12-01", "original_language": "en", "original_title": "The Great Train Robbery", "genre_ids": [28, 12, 80, 37], "backdrop_path": "/9GO8h44nckngDtdJ6R1QfIsl43j.jpg", "adult": false, "overview": "The clerk at the train station is assaulted and left tied by four men, then they rob the train threatening the operator. (They) take all the money and shoot a passenger when trying to run away. A little girl discovers the clerk tied and gives notice to the sheriff, who at once goes along with his men hunting the bandits.", "poster_path": "/uf7Hr1wuUh4T83Ifg5pVpwTqRdI.jpg", "popularity": 9.865}], "total_pages": 178, "total_results": 3559}, "recommendations": {"page": 1, "results": [], "total_pages": 1, "total_results": 0}, "credits": {"cast": [{"cast_id": 0, "character": "Jay Gatsby", "credit_id": "533877afc3a3680e7600407f", "gender": 2, "id": 29999, "name": "Warner Baxter", "order": 1, "profile_path": "/bsM0YTzy9EIRdk71eoOw4s9qKQV.jpg"}, {"cast_id": 1, "character": "Daisy Buchanan", "credit_id": "533877d1c3a3680e76004085", "gender": 1, "id": 148836, "name": "Lois Wilson", "order": 2, "profile_path": "/sXsIktXqbTkms1AaNyVIOKZutIv.jpg"}, {"cast_id": 2, "character": "Nick Carraway", "credit_id": "53387815c3a3680e7f004069", "gender": 2, "id": 27733, "name": "Neil Hamilton", "order": 3, "profile_path": "/7IhZdUa1LUHbg805K7XVHJopKSt.jpg"}, {"cast_id": 3, "character": "Myrtle Wilson", "credit_id": "53387835c3a3680e70003f3f", "gender": 1, "id": 14434, "name": "Georgia Hale", "order": 4, "profile_path": "/q3kgXyasz4pRy4bi51kDHbEMu2n.jpg"}, {"cast_id": 4, "character": "George Wilson", "credit_id": "5338784dc3a3680e7f00406f", "gender": 2, "id": 32428, "name": "William Powell", "order": 5, "profile_path": "/p9RKEHo2m3VPoYPejwFkI7PwqZY.jpg"}, {"cast_id": 5, "character": "Tom Buchanan", "credit_id": "53387862c3a3680e8f0041e1", "gender": 2, "id": 233118, "name": "Hale Hamilton", "order": 6, "profile_path": null}, {"cast_id": 7, "character": "Jordan Baker", "credit_id": "533878a7c3a3680e96003f12", "gender": 1, "id": 538924, "name": "Carmelita Geraghty", "order": 8, "profile_path": "/i69f5OZK21UxgKB4N60ioCUsGVg.jpg"}, {"cast_id": 9, "character": "Catherine", "credit_id": "533878ecc3a3680e70003f4d", "gender": 1, "id": 992910, "name": "Claire Whitney", "order": 10, "profile_path": null}, {"cast_id": 17, "character": "Lord Digby", "credit_id": "5ac2c6710e0a260c4d029155", "gender": 0, "id": 30184, "name": "Eric Blore", "order": 11, "profile_path": "/t4W3lDUxEkrfFG9AEFHhmAhjPFy.jpg"}, {"cast_id": 18, "character": "Charles Wolf", "credit_id": "5ac2c6a00e0a260c14027725", "gender": 2, "id": 975750, "name": "George Nash", "order": 12, "profile_path": null}], "crew": [{"credit_id": "53387942c3a3680e760040a4", "department": "Production", "gender": 2, "id": 13335, "job": "Producer", "name": "Adolph Zukor", "profile_path": "/h4gkeIGlb8fybIxrPokalu23oFX.jpg"}, {"credit_id": "53387984c3a3680e690040dd", "department": "Writing", "gender": 2, "id": 40035, "job": "Novel", "name": "F. Scott Fitzgerald", "profile_path": null}, {"credit_id": "5e05225b9566580011e9f670", "department": "Writing", "gender": 1, "id": 98014, "job": "Screenplay", "name": "Elizabeth Meehan", "profile_path": null}, {"credit_id": "533879b1c3a3680e8f004202", "department": "Writing", "gender": 1, "id": 98014, "job": "Adaptation", "name": "Elizabeth Meehan", "profile_path": null}, {"credit_id": "533879e1c3a3680e96003f31", "department": "Crew", "gender": 1, "id": 98014, "job": "Cinematography", "name": "Elizabeth Meehan", "profile_path": null}, {"credit_id": "5338790ec3a3680e70003f54", "department": "Directing", "gender": 2, "id": 930791, "job": "Director", "name": "Herbert Brenon", "profile_path": "/jXJfkeCpqKXgUfFmFYCXnunTsqE.jpg"}, {"credit_id": "5338792fc3a36819c4001ecf", "department": "Production", "gender": 0, "id": 1004059, "job": "Producer", "name": "Jesse L. Lasky", "profile_path": "/6DLsPzEZUJX9Yz8zqeB6rwk9uqW.jpg"}, {"credit_id": "5e0522649566580017e9e996", "department": "Writing", "gender": 1, "id": 1068004, "job": "Screenplay", "name": "Becky Gardiner", "profile_path": null}]}}