{"adult": false, "backdrop_path": null, "belongs_to_collection": null, "budget": 0, "genres": [{"id": 18, "name": "Drama"}], "homepage": null, "id": 262645, "imdb_id": "tt0056802", "original_language": "en", "original_title": "80,000 Suspects", "overview": "A doctor's already-shaky marriage is tested to an even greater extent when he has to contend with a smallpox epidemic.", "popularity": 0.959, "poster_path": "/8O2zld3rYoVsirMTrysFnaamuWP.jpg", "production_companies": [{"id": 45128, "logo_path": null, "name": "Val Guest Productions", "origin_country": ""}], "production_countries": [{"iso_3166_1": "GB", "name": "United Kingdom"}], "release_date": "1963-08-15", "revenue": 0, "runtime": 113, "spoken_languages": [{"iso_639_1": "en", "name": "English"}], "status": "Released", "tagline": "", "title": "80,000 Suspects", "video": false, "vote_average": 7.0, "vote_count": 2, "keywords": {"keywords": [{"id": 17995, "name": "epidemic"}, {"id": 187244, "name": "smallpox"}, {"id": 188973, "name": "pandemic"}]}, "similar": {"page": 1, "results": [{"id": 6479, "video": false, "vote_count": 9817, "vote_average": 7.1, "title": "I Am Legend", "release_date": "2007-12-14", "original_language": "en", "original_title": "I Am Legend", "genre_ids": [28, 18, 27, 878, 53], "backdrop_path": "/u6Qg7TH7Oh1IFWCQSRr4htFFt0A.jpg", "adult": false, "overview": "Robert Neville is a scientist who was unable to stop the spread of the terrible virus that was incurable and man-made. Immune, Neville is now the last human survivor in what is left of New York City and perhaps the world. For three years, Neville has faithfully sent out daily radio messages, desperate to find any other survivors who might be out there. But he is not alone.", "poster_path": "/9skUuHTFtsJznuFPwmB17ZZvq09.jpg", "popularity": 29.22}, {"id": 25769, "video": false, "vote_count": 521, "vote_average": 5.8, "title": "Carriers", "release_date": "2009-09-04", "original_language": "en", "original_title": "Carriers", "genre_ids": [28, 18, 27, 878, 53], "backdrop_path": "/2351A6j2YJjuKstEyZl9uObpMrm.jpg", "adult": false, "overview": "Four friends fleeing a viral pandemic soon learn they are more dangerous than any virus. A deadly virus has spread across the globe. Contagion is everywhere, no one is safe and no one can be trusted. Four young attractive people race through the back roads of the American West to the pounding beat of a vacation soundtrack. Their aim is to retreat to secluded utopian beach in the Gulf of Mexico, where they could peacefully wait out the pandemic and survive the apocalyptic disease. Their plans take a grim turn when their car breaks down on an isolated road starting a chain of events that will seal the fate of each of them in an inexorable and horrifying voyage of hell through a western landscape populated by only the hideous dead or the twisted living.", "poster_path": "/6DM0qexULlnAIteeApZiChneuvL.jpg", "popularity": 13.716}, {"id": 346651, "video": false, "vote_count": 156, "vote_average": 4.5, "title": "Pandemic", "release_date": "2016-02-26", "original_language": "en", "original_title": "Pandemic", "genre_ids": [28, 27, 878, 53], "backdrop_path": "/h7eRhbSdrIUf7X570vtwu0XDp89.jpg", "adult": false, "overview": "After a virus of epic proportions overwhelms the planet\u2014with more infected than uninfected\u2014humanity is losing its grip on survival and its only hope is finding a cure and keeping the infected contained. Lauren, a doctor, arrives in Los Angeles with her crack team to lead the hunt for uncontaminated civilian survivors, but nothing can prepare them for the blood-soaked mayhem they witness as they head into the Californian streets where everything is considered a trap.", "poster_path": "/kzmY5TD17UYwSajMziiKs72uZKx.jpg", "popularity": 8.999}, {"id": 418078, "video": false, "vote_count": 1301, "vote_average": 5.8, "title": "It Comes at Night", "release_date": "2017-06-09", "original_language": "en", "original_title": "It Comes at Night", "genre_ids": [18, 27, 9648], "backdrop_path": "/6h9pjTsWzaUWuUszHHbeI1JWE1.jpg", "adult": false, "overview": "Secure within a desolate home as an unnatural threat terrorizes the world, a man has established a tenuous domestic order with his wife and son, but this will soon be put to test when a desperate young family arrives seeking refuge.", "poster_path": "/h9VOirT4dKXzVyVzZZxPfAghmRV.jpg", "popularity": 12.385}, {"id": 39538, "video": false, "vote_count": 2334, "vote_average": 6.3, "title": "Contagion", "release_date": "2011-09-08", "original_language": "en", "original_title": "Contagion", "genre_ids": [18, 878, 53], "backdrop_path": "/57kqAPdVJTAJ4rnDTSVDx0f1JBu.jpg", "adult": false, "overview": "As an epidemic of a lethal airborne virus - that kills within days - rapidly grows, the worldwide medical community races to find a cure and control the panic that spreads faster than the virus itself.", "poster_path": "/kbC6I0AOSLTHFA2dieyat9h8QHP.jpg", "popularity": 14.0}, {"id": 294254, "video": false, "vote_count": 6849, "vote_average": 6.6, "title": "Maze Runner: The Scorch Trials", "release_date": "2015-09-09", "original_language": "en", "original_title": "Maze Runner: The Scorch Trials", "genre_ids": [28, 878, 53], "backdrop_path": "/iapRFMGKvN9tsjqPlN7MIDTCezG.jpg", "adult": false, "overview": "Thomas and his fellow Gladers face their greatest challenge yet: searching for clues about the mysterious and powerful organization known as WCKD. Their journey takes them to the Scorch, a desolate landscape filled with unimaginable obstacles. Teaming up with resistance fighters, the Gladers take on WCKD\u2019s vastly superior forces and uncover its shocking plans for them all.", "poster_path": "/vlTPQANjLYTebzFJM1G4KeON0cb.jpg", "popularity": 28.283}, {"adult": false, "backdrop_path": "/nESF8Tw4BYnDy8PUDkF5SLIlzTJ.jpg", "genre_ids": [27, 53, 878], "id": 170, "original_language": "en", "original_title": "28 Days Later", "overview": "Twenty-eight days after a killer virus was accidentally unleashed from a British research facility, a small group of London survivors are caught in a desperate struggle to protect themselves from the infected. Carried by animals and humans, the virus turns those it infects into homicidal maniacs -- and it's absolutely impossible to contain.", "poster_path": "/xaYdxi1PBEAYvqknvAmMPK5Eff3.jpg", "release_date": "2002-10-31", "title": "28 Days Later", "video": false, "vote_average": 7.2, "vote_count": 3665, "popularity": 19.311}, {"adult": false, "backdrop_path": "/gNdbzXwf3StDHDmo7q54ICQJ9tU.jpg", "genre_ids": [14, 27, 53, 878], "id": 4961, "original_language": "en", "original_title": "Mimic", "overview": "A disease carried by common cockroaches is killing Manhattan children. In an effort to stop the epidemic an entomologist, Susan Tyler, creates a mutant breed of insect that secretes a fluid to kill the roaches. This mutant breed was engineered to die after one generation, but three years later Susan finds out that the species has survived and evolved into a large, gruesome monster that can mimic human form.", "poster_path": "/tkmSgkekKleTx46a1ERny967Ws5.jpg", "release_date": "1997-08-22", "title": "Mimic", "video": false, "vote_average": 5.9, "vote_count": 486, "popularity": 13.374}, {"id": 19901, "video": false, "vote_count": 1112, "vote_average": 6.2, "title": "Daybreakers", "release_date": "2009-09-11", "original_language": "en", "original_title": "Daybreakers", "genre_ids": [28, 14, 27, 878], "backdrop_path": "/jjTK7kQS0LBU8GNZlUvlRK0dR1h.jpg", "adult": false, "overview": "In the year 2019, a plague has transformed almost every human into vampires. Faced with a dwindling blood supply, the fractured dominant race plots their survival; meanwhile, a researcher works with a covert band of vampires on a way to save humankind.", "poster_path": "/ilicCtkHIBb90PvTfXMeSeJ7b0o.jpg", "popularity": 16.844}, {"id": 1930, "video": false, "vote_count": 11260, "vote_average": 6.5, "title": "The Amazing Spider-Man", "release_date": "2012-06-27", "original_language": "en", "original_title": "The Amazing Spider-Man", "genre_ids": [28, 12, 14], "backdrop_path": "/ujAY1ad7yS2TfV0GDNGUZ7DK0mo.jpg", "adult": false, "overview": "Peter Parker is an outcast high schooler abandoned by his parents as a boy, leaving him to be raised by his Uncle Ben and Aunt May. Like most teenagers, Peter is trying to figure out who he is and how he got to be the person he is today. As Peter discovers a mysterious briefcase that belonged to his father, he begins a quest to understand his parents' disappearance \u2013 leading him directly to Oscorp and the lab of Dr. Curt Connors, his father's former partner. As Spider-Man is set on a collision course with Connors' alter ego, The Lizard, Peter will make life-altering choices to use his powers and shape his destiny to become a hero.", "poster_path": "/eA2D86Y6VPWuUzZyatiLBwpTilQ.jpg", "popularity": 36.173}, {"id": 126889, "video": false, "vote_count": 5389, "vote_average": 5.9, "title": "Alien: Covenant", "release_date": "2017-05-09", "original_language": "en", "original_title": "Alien: Covenant", "genre_ids": [27, 878, 53], "backdrop_path": "/6jajFcaY2YsfGQstJ5HaqZNVseX.jpg", "adult": false, "overview": "Bound for a remote planet on the far side of the galaxy, the crew of the colony ship 'Covenant' discovers what is thought to be an uncharted paradise, but is actually a dark, dangerous world\u2014which has a sole inhabitant: the 'synthetic', David, survivor of the doomed Prometheus expedition.", "poster_path": "/zecMELPbU5YMQpC81Z8ImaaXuf9.jpg", "popularity": 36.026}, {"id": 295011, "video": false, "vote_count": 149, "vote_average": 4.7, "title": "Patient Zero", "release_date": "2018-09-14", "original_language": "en", "original_title": "Patient Zero", "genre_ids": [28, 18, 27, 53], "backdrop_path": "/kpjp9Wqj6U4wdv4oSEe9FLkNhaQ.jpg", "adult": false, "overview": "After an unprecedented global pandemic has turned the majority of humankind into violent infected beings, Morgan, a man gifted with the ability to speak the infected's new language, leads the last survivors on a hunt for patient zero and a cure.", "poster_path": "/5jOqatpfh0aKYhl6fN83RK69UtC.jpg", "popularity": 13.719}, {"adult": false, "backdrop_path": "/yRrPRCCEGKt8drF37K4o8Mk8Gpq.jpg", "genre_ids": [28, 18], "id": 200085, "original_language": "ko", "original_title": "\uac10\uae30", "overview": "A case of the flu quickly morphs into a pandemic. As the death toll mounts and the living panic, the government plans extreme measures to contain it.", "poster_path": "/6umLdWyHyeu7J9KDQVmjFHUb3KZ.jpg", "release_date": "2013-08-14", "title": "Virus", "video": false, "vote_average": 7.0, "vote_count": 191, "popularity": 10.578}, {"id": 425972, "video": false, "vote_count": 845, "vote_average": 6.2, "title": "Cargo", "release_date": "2017-10-06", "original_language": "en", "original_title": "Cargo", "genre_ids": [12, 18, 27, 53], "backdrop_path": "/tiIpajUBpLMNWMEzpjRBxo0jCbD.jpg", "adult": false, "overview": "After being infected in the wake of a violent pandemic and with only 48 hours to live, a father struggles to find a new home for his baby daughter.", "poster_path": "/cdPSUck4tBRvRu6DFk6XciDrssn.jpg", "popularity": 16.714}, {"id": 13812, "video": false, "vote_count": 662, "vote_average": 5.7, "title": "Quarantine", "release_date": "2008-10-10", "original_language": "en", "original_title": "Quarantine", "genre_ids": [27, 878], "backdrop_path": "/mQXCYqGUPt4Ld6UX6uljM5azbGb.jpg", "adult": false, "overview": "A television reporter and her cameraman are trapped inside a building quarantined by the CDC after the outbreak of a mysterious virus which turns humans into bloodthirsty killers.", "poster_path": "/diJgLy6vSGbNYNW5jZ1YpX7PHJ4.jpg", "popularity": 14.424}, {"id": 1562, "video": false, "vote_count": 2400, "vote_average": 6.5, "title": "28 Weeks Later", "release_date": "2007-04-26", "original_language": "en", "original_title": "28 Weeks Later", "genre_ids": [27, 878, 53], "backdrop_path": "/q4GEKbi4ZO2lhZJg0Zr6kYNKQgm.jpg", "adult": false, "overview": "The inhabitants of the British Isles have lost their battle against the onslaught of disease, as the deadly rage virus has killed every citizen there. Six months later, a group of Americans dare to set foot on the isles, convinced the danger has come and gone. But it soon becomes all too clear that the scourge continues to live, waiting to pounce on its next victims.", "poster_path": "/bElOpwpp45BGMWrMBdZAy9j3Vx7.jpg", "popularity": 23.387}, {"id": 375366, "video": false, "vote_count": 1082, "vote_average": 6.4, "title": "The Girl with All the Gifts", "release_date": "2016-09-23", "original_language": "en", "original_title": "The Girl with All the Gifts", "genre_ids": [18, 27, 878, 53], "backdrop_path": "/1ovpL0Oc1mqy8fllLR511UJkKsj.jpg", "adult": false, "overview": "In the future, a strange fungus has changed nearly everyone into a thoughtless, flesh-eating monster. When a scientist and a teacher find a girl who seems to be immune to the fungus, they all begin a journey to save humanity.", "poster_path": "/33IDooA29ctGHNE7gQW6cwbmRP3.jpg", "popularity": 13.005}, {"id": 50357, "video": false, "vote_count": 539, "vote_average": 5.0, "title": "Apollo 18", "release_date": "2011-07-20", "original_language": "en", "original_title": "Apollo 18", "genre_ids": [27, 878, 53], "backdrop_path": "/aHE8y4A4mlRCQbJ5oLbPkr5iznx.jpg", "adult": false, "overview": "Officially, Apollo 17 was the last manned mission to the moon. But a year later in 1973, three American astronauts were sent on a secret mission to the moon funded by the US Department of Defense. What you are about to see is the actual footage which the astronauts captured on that mission. While NASA denies it's authenticity, others say it's the real reason we've never gone back to the moon.", "poster_path": "/xmvkYqK28ds9JM4gyBJCSoYpm9T.jpg", "popularity": 13.079}, {"id": 351211, "video": false, "vote_count": 1210, "vote_average": 5.0, "title": "Blair Witch", "release_date": "2016-09-15", "original_language": "en", "original_title": "Blair Witch", "genre_ids": [27, 53], "backdrop_path": "/vgnhCfwo4VmDcDocSJ1tBPO3tX9.jpg", "adult": false, "overview": "Students on a camping trip discover something sinister is lurking beyond the trees.", "poster_path": "/kqmGs9q5WZkxKub60K6pU37GdvU.jpg", "popularity": 19.859}, {"id": 10216, "video": false, "vote_count": 306, "vote_average": 4.7, "title": "Species II", "release_date": "1998-04-10", "original_language": "en", "original_title": "Species II", "genre_ids": [28, 27, 878], "backdrop_path": "/gu5vJjupYwA4VTgtVrJKOoLYAbD.jpg", "adult": false, "overview": "Having just returned from a mission to Mars, Commander Ross isn't exactly himself. He's slowly becoming a terrifying alien entity with one goal -- to procreate with human women! When countless women suffer gruesome deaths after bearing half-alien offspring, scientist Laura Baker and hired assassin Press Lennox use Eve, a more tempered alien clone, to find Ross and his brood. Before long Eve escapes to mate with Ross.", "poster_path": "/g4a3v7vodgrYLWvYbREjC0VD0mm.jpg", "popularity": 18.131}], "total_pages": 11, "total_results": 205}, "recommendations": {"page": 1, "results": [], "total_pages": 1, "total_results": 0}, "credits": {"cast": [{"cast_id": 1, "character": "Julie Monks", "credit_id": "533bbebcc3a36844c8000f52", "gender": 1, "id": 29545, "name": "Claire Bloom", "order": 1, "profile_path": "/4x0Cfh1g8apqOPio8AJx9oUV9mK.jpg"}, {"cast_id": 5, "character": "Dr. Steven Monks", "credit_id": "533bbf14c3a3684500000f8c", "gender": 2, "id": 20510, "name": "Richard Johnson", "order": 5, "profile_path": "/miDA5sN3ijfED6M4oRZ0NTdBfBR.jpg"}, {"cast_id": 6, "character": "Ruth Preston", "credit_id": "533bbf4bc3a36844f4000ec5", "gender": 1, "id": 133229, "name": "Yolande Donlan", "order": 6, "profile_path": "/mszcwqdv1B4qi6uYLuHRl8VNTTb.jpg"}, {"cast_id": 7, "character": "Father Maguire", "credit_id": "533bbf69c3a36844dd000ebb", "gender": 2, "id": 4973, "name": "Cyril Cusack", "order": 7, "profile_path": "/5d6OeKNqpRSMhwXd1FHV9KeX4WS.jpg"}, {"cast_id": 8, "character": "Matron", "credit_id": "533bbf77c3a36844dd000ebe", "gender": 1, "id": 67615, "name": "Kay Walsh", "order": 8, "profile_path": "/4CmjZwzMKyAXgjxb7w12jt8Osgv.jpg"}, {"cast_id": 9, "character": "Clifford Preston", "credit_id": "533bbf8dc3a36844cf000f60", "gender": 2, "id": 78940, "name": "Michael Goodliffe", "order": 9, "profile_path": "/mVLnHVX3VvDAk3UNBrBtxxPsVje.jpg"}, {"cast_id": 10, "character": "Buckridge", "credit_id": "533bbf9ec3a36844cf000f66", "gender": 2, "id": 90643, "name": "Mervyn Johns", "order": 10, "profile_path": "/yzLrLZXfQYjiWFlyjqPCadP15q.jpg"}, {"cast_id": 11, "character": "Joanna Duten", "credit_id": "533bbfbec3a36844dd000ed3", "gender": 1, "id": 122922, "name": "Ursula Howells", "order": 11, "profile_path": "/9VLMu146uWRcY1KkDTOGMhsWfOF.jpg"}, {"cast_id": 12, "character": "Agnes Davis", "credit_id": "533bbfd3c3a36844d6000f83", "gender": 1, "id": 101722, "name": "Vanda Godsell", "order": 12, "profile_path": "/AbSDtU5S1jg8ilWuKvAu0sFSSy2.jpg"}, {"cast_id": 13, "character": "Harold Davis", "credit_id": "533bbfe3c3a36844ed000ebc", "gender": 2, "id": 16275, "name": "Norman Bird", "order": 13, "profile_path": "/lHj58cWdvdkleI7lDTpRHnwqKP4.jpg"}], "crew": [{"credit_id": "55eb6a289251413e4500bd95", "department": "Camera", "gender": 2, "id": 30138, "job": "Director of Photography", "name": "Arthur Grant", "profile_path": null}, {"credit_id": "55eb69b6c3a3682c6200c549", "department": "Writing", "gender": 2, "id": 39853, "job": "Screenplay", "name": "Val Guest", "profile_path": "/99rZHWC9WKCyVgFLpBy1fKDkyLB.jpg"}, {"credit_id": "533bbe9dc3a36844c8000f4c", "department": "Directing", "gender": 2, "id": 39853, "job": "Director", "name": "Val Guest", "profile_path": "/99rZHWC9WKCyVgFLpBy1fKDkyLB.jpg"}, {"credit_id": "55eb6c1092514106d6004f5b", "department": "Production", "gender": 2, "id": 39853, "job": "Producer", "name": "Val Guest", "profile_path": "/99rZHWC9WKCyVgFLpBy1fKDkyLB.jpg"}, {"credit_id": "55eb6b93c3a3682c6200c5c7", "department": "Editing", "gender": 2, "id": 40355, "job": "Editor", "name": "Bill Lenny", "profile_path": null}, {"credit_id": "55eb6a0ac3a3682c6200c564", "department": "Writing", "gender": 2, "id": 67777, "job": "Novel", "name": "Trevor Dudley Smith", "profile_path": "/bZm2EYjKjoRDxyr2iUEqLgMjPn2.jpg"}, {"credit_id": "55eb6bfcc3a3682c7600b56b", "department": "Sound", "gender": 2, "id": 101984, "job": "Original Music Composer", "name": "Stanley Black", "profile_path": null}, {"credit_id": "55eb6c2ac3a3687d3b004d7a", "department": "Art", "gender": 0, "id": 1505814, "job": "Art Direction", "name": "Geoffrey Tozer", "profile_path": null}]}}