{"adult": false, "backdrop_path": null, "belongs_to_collection": null, "budget": 0, "genres": [{"id": 53, "name": "Thriller"}, {"id": 27, "name": "Horror"}], "homepage": null, "id": 262839, "imdb_id": "tt0078508", "original_language": "en", "original_title": "Wolf Lake", "overview": "War veterans visit a lakeside cabin for a week of shooting, drinking, etc. but find the cabin being looked after by a young caretaker named David. When David's status as a war deserter is revealed, all hell breaks loose.", "popularity": 2.253, "poster_path": "/s9ObynGHuXVl5qFoO8ToFaV8tVg.jpg", "production_companies": [{"id": 2124, "logo_path": null, "name": "Melvin Simon Productions", "origin_country": ""}], "production_countries": [{"iso_3166_1": "US", "name": "United States of America"}], "release_date": "1980-02-08", "revenue": 0, "runtime": 88, "spoken_languages": [{"iso_639_1": "en", "name": "English"}], "status": "Released", "tagline": "", "title": "Wolf Lake", "video": false, "vote_average": 6.1, "vote_count": 5, "keywords": {"keywords": [{"id": 570, "name": "rape"}, {"id": 9748, "name": "revenge"}, {"id": 9826, "name": "murder"}, {"id": 197088, "name": "revenge plot"}]}, "similar": {"page": 1, "results": [{"adult": false, "backdrop_path": "/pA64Ov7lDpwXBu33yq0KpmAOYJL.jpg", "genre_ids": [27, 53], "id": 357096, "original_language": "en", "original_title": "I Spit on Your Grave III: Vengeance is Mine", "overview": "Jennifer Hills is still tormented by the brutal sexual assault she endured years ago. She\u2019s changed identities and cities, reluctantly joining a support group where she begins to piece together a new life. But when her new friend\u2019s murderer goes free and the tales of serial rapists haunt her, Jennifer will hunt down the men responsible and do what the system won\u2019t \u2013 make them pay for their crimes in the most horrific ways imaginable. Only this time, no jury may be able to save her.", "poster_path": "/6SnOlgrUoC5jqmgcYIM5lde5zYq.jpg", "release_date": "2015-10-01", "title": "I Spit on Your Grave III: Vengeance is Mine", "video": false, "vote_average": 5.3, "vote_count": 437, "popularity": 20.815}, {"id": 15069, "video": false, "vote_count": 75, "vote_average": 5.4, "title": "W\u0394Z", "release_date": "2007-05-19", "original_language": "en", "original_title": "W\u0394Z", "genre_ids": [80, 18, 27, 53], "backdrop_path": "/nVwdXjnbfulc6cymFgOQJctpspr.jpg", "adult": false, "overview": "There is something horribly wrong with the bodies found in the dark city streets. Some are mutilated while others have the Price equation (w\u0394z = Cov (w,z) = \u03b2wzVz) carved into their flesh. Detective Eddie Argo and his new partner Helen Westcott unearth the meaning of the odd equation and realise each victim is being offered a gruesome choice: kill your loved ones, or be killed. Before long it becomes clear that the perpetrator has suffered a similar fate and is now coping by seeking a way to solve this philosophical dilemma.", "poster_path": "/8lPZ59iQRqUELprKuB0myy7u6Zm.jpg", "popularity": 7.935}, {"adult": false, "backdrop_path": "/uUYCUbgI5VxsUflTMI4Y9L2Y6vb.jpg", "genre_ids": [80, 18, 53], "id": 11423, "original_language": "ko", "original_title": "\uc0b4\uc778\uc758 \ucd94\uc5b5", "overview": "1986 Gyunggi Province. The body of a young woman is found brutally raped and murdered. Two months later, a series of rapes and murders commences under similar circumstances. And in a country that had never known such crimes, the dark whispers about a serial murderer grow louder. A special task force is set up in the area, with two local detectives Park Doo-Man and Jo Young-Goo joined by a detective from Seoul who requested to be assigned to the case.", "poster_path": "/gawnVe9cFowdoDLo9Pok12NTw39.jpg", "release_date": "2003-05-02", "title": "Memories of Murder", "video": false, "vote_average": 8.1, "vote_count": 1093, "popularity": 13.452}, {"id": 8090, "video": false, "vote_count": 448, "vote_average": 6.1, "title": "Untraceable", "release_date": "2008-01-22", "original_language": "en", "original_title": "Untraceable", "genre_ids": [9648, 53], "backdrop_path": "/eXuIPt9I1xuaVddlgzEQRC2EMnJ.jpg", "adult": false, "overview": "Special Agent Jennifer Marsh (Diane Lane) works in an elite division of the FBI dedicated to fighting cybercrime. She thinks she has seen it all, until a particularly sadistic criminal arises on the Internet. This tech-savvy killer posts live feeds of his crimes on his website; the more hits the site gets, the faster the victim dies. Marsh and her team must find the elusive killer before time runs out.", "poster_path": "/ySUwDRDEn01lKIMPQorpFCMLWqE.jpg", "popularity": 14.431}, {"adult": false, "backdrop_path": "/t3OZS8yMs0NL4YgWWc04eXHTn1X.jpg", "genre_ids": [28, 80, 53], "id": 984, "original_language": "en", "original_title": "Dirty Harry", "overview": "When a madman dubbed 'Scorpio' terrorizes San Francisco, hard-nosed cop, Harry Callahan \u2013 famous for his take-no-prisoners approach to law enforcement \u2013 is tasked with hunting down the psychopath. Harry eventually collars Scorpio in the process of rescuing a kidnap victim, only to see him walk on technicalities. Now, the maverick detective is determined to nail the maniac himself.", "poster_path": "/2TADKc4GMMPdMrLXj0xJVgTvZJM.jpg", "release_date": "1971-12-21", "title": "Dirty Harry", "video": false, "vote_average": 7.5, "vote_count": 1173, "popularity": 18.839}, {"adult": false, "backdrop_path": "/o4psXh7IVD6GFKvBSHjHLzjL2lV.jpg", "genre_ids": [27, 53], "id": 10781, "original_language": "en", "original_title": "The Texas Chainsaw Massacre: The Beginning", "overview": "Chrissie and her friends set out on a road trip for a final fling before one is shipped off to Vietnam. Along the way, bikers harass the foursome and cause an accident that throws Chrissie from the vehicle. The lawman who arrives on the scene kills one of the bikers and brings Chrissie's friends to the Hewitt homestead, where young Leatherface is learning the tools of terror.", "poster_path": "/9elCJIG1TOJ0wew3JVx5ZMkHq5w.jpg", "release_date": "2006-10-06", "title": "The Texas Chainsaw Massacre: The Beginning", "video": false, "vote_average": 6.0, "vote_count": 936, "popularity": 19.211}, {"adult": false, "backdrop_path": "/rPfyX0pkmn8Ea4gh3DfsmzFUf05.jpg", "genre_ids": [18, 27, 80], "id": 74997, "original_language": "en", "original_title": "The Human Centipede 2 (Full Sequence)", "overview": "Inspired by the fictional Dr. Heiter, disturbed loner Martin dreams of creating a 12-person centipede and sets out to realize his sick fantasy.", "poster_path": "/kFtAdkCO0vXN2RWu2oMcR9GZ9Hi.jpg", "release_date": "2011-10-06", "title": "The Human Centipede 2 (Full Sequence)", "video": false, "vote_average": 4.5, "vote_count": 674, "popularity": 14.216}, {"id": 75780, "video": false, "vote_count": 4451, "vote_average": 6.4, "title": "Jack Reacher", "release_date": "2012-12-20", "original_language": "en", "original_title": "Jack Reacher", "genre_ids": [28, 80, 18, 53], "backdrop_path": "/ezXodpP429qK0Av89pVNlaXWJkQ.jpg", "adult": false, "overview": "When a gunman takes five lives with six shots, all evidence points to the suspect in custody. On interrogation, the suspect offers up a single note: \"Get Jack Reacher!\" So begins an extraordinary chase for the truth, pitting Jack Reacher against an unexpected enemy, with a skill for violence and a secret to keep.", "poster_path": "/mt0ELw83HIRgaKaDzhsDcIi0RnW.jpg", "popularity": 15.945}, {"adult": false, "backdrop_path": "/a24i4Qw6qFTtkFLQsncv8WPwevj.jpg", "genre_ids": [53, 28, 80], "id": 345887, "original_language": "en", "original_title": "The Equalizer 2", "overview": "Robert McCall, who serves an unflinching justice for the exploited and oppressed, embarks on a relentless, globe-trotting quest for vengeance when a long-time girl friend is murdered.", "poster_path": "/cQvc9N6JiMVKqol3wcYrGshsIdZ.jpg", "release_date": "2018-07-19", "title": "The Equalizer 2", "video": false, "vote_average": 6.5, "vote_count": 2483, "popularity": 21.271}, {"id": 9373, "video": false, "vote_count": 1414, "vote_average": 6.1, "title": "The Texas Chainsaw Massacre", "release_date": "2003-05-21", "original_language": "en", "original_title": "The Texas Chainsaw Massacre", "genre_ids": [27], "backdrop_path": "/3rTsJ7tIC3LUSRr80PfeLbbCfBA.jpg", "adult": false, "overview": "After picking up a traumatized young hitchhiker, five friends find themselves stalked and hunted by a deformed chainsaw-wielding killer and his family of equally psychopathic killers.", "poster_path": "/gx7FCIOFGxqNyplF3t7qtmUv55g.jpg", "popularity": 19.117}, {"id": 458594, "video": false, "vote_count": 983, "vote_average": 6.5, "title": "Peppermint", "release_date": "2018-09-06", "original_language": "en", "original_title": "Peppermint", "genre_ids": [28, 53], "backdrop_path": "/9krZX6T4EEs5eFpXgSi8jZkN48O.jpg", "adult": false, "overview": "A grieving mother transforms herself into a vigilante following the murders of her husband and daughter, eluding the authorities to deliver her own personal brand of justice.", "poster_path": "/jrzxS0vcbzIIay1sdYm0rgI2QfJ.jpg", "popularity": 18.265}, {"id": 807, "video": false, "vote_count": 11937, "vote_average": 8.3, "title": "Se7en", "release_date": "1995-09-22", "original_language": "en", "original_title": "Se7en", "genre_ids": [80, 9648, 53], "backdrop_path": "/A0WKbRIojF9DUWG4XLCmg5JK6I5.jpg", "adult": false, "overview": "Two homicide detectives are on a desperate hunt for a serial killer whose crimes are based on the \"seven deadly sins\" in this dark and haunting film that takes viewers from the tortured remains of one victim to the next. The seasoned Det. Sommerset researches each sin in an effort to get inside the killer's mind, while his novice partner, Mills, scoffs at his efforts to unravel the case.", "poster_path": "/8zw8IL4zEPjkh8Aysdcd0FwGMb0.jpg", "popularity": 34.018}, {"id": 395834, "video": false, "vote_count": 2755, "vote_average": 7.4, "title": "Wind River", "release_date": "2017-08-03", "original_language": "en", "original_title": "Wind River", "genre_ids": [80, 18, 9648, 53], "backdrop_path": "/6B8e784decj9vtKuNjbl9Fes2aZ.jpg", "adult": false, "overview": "An FBI agent teams with the town's veteran game tracker to investigate a murder that occurred on a Native American reservation.", "poster_path": "/pySivdR845Hom4u4T2WNkJxe6Ad.jpg", "popularity": 16.931}, {"adult": false, "backdrop_path": "/8UkJSL5hlwGh3uSC5tyoaqhHQh7.jpg", "genre_ids": [80, 18, 53], "id": 18587, "original_language": "en", "original_title": "10 to Midnight", "overview": "Based on the real-life Richard Speck murders. After his bizarre behavior results in rejection from countless women, Warren Stacy begins murdering women, always while he is naked, which minimizes any physical evidence left behind. Detective Leo Kessler is convinced of Stacy\u2019s guilt and, over the objections of his partner, plants evidence to get him behind bars. When Stacy is released on a technicality, he threatens to go after Kessler and his family, leaving Kessler to defend himself with little help from the police.", "poster_path": "/bJiLyz6g8vsFgJ5oAdMWlQAWY4T.jpg", "release_date": "1983-03-11", "title": "10 to Midnight", "video": false, "vote_average": 6.0, "vote_count": 73, "popularity": 9.514}, {"adult": false, "backdrop_path": "/3Gq51vyGQM3xhLb0AUweaEPOk9J.jpg", "genre_ids": [27, 53], "id": 123109, "original_language": "en", "original_title": "No One Lives", "overview": "A gang of ruthless highway killers kidnap a wealthy couple traveling cross country only to shockingly discover that things are not what they seem.", "poster_path": "/fQarG0ddQM5XddKz0BXd7qTGK9j.jpg", "release_date": "2013-03-09", "title": "No One Lives", "video": false, "vote_average": 5.7, "vote_count": 289, "popularity": 8.838}, {"adult": false, "backdrop_path": "/v761yOHKO3p6Yr7LDCjud6tUL5G.jpg", "genre_ids": [28, 80, 53], "id": 10651, "original_language": "en", "original_title": "The Dead Pool", "overview": "Dirty Harry Callahan returns for his final film adventure. Together with his partner Al Quan, he must investigate the systematic murder of actors and musicians. By the time Harry learns that the murders are a part of a sick game to predict the deaths of celebrities before they happen, it may be too late...", "poster_path": "/9ZUSqox9lIxN4xaYBac2QXMFcZj.jpg", "release_date": "1988-07-12", "title": "The Dead Pool", "video": false, "vote_average": 6.4, "vote_count": 389, "popularity": 10.626}, {"id": 588, "video": false, "vote_count": 2408, "vote_average": 6.4, "title": "Silent Hill", "release_date": "2006-04-21", "original_language": "en", "original_title": "Silent Hill", "genre_ids": [27, 9648], "backdrop_path": "/6tfW4BjdgwuYSD7gaEMEEPoDcpH.jpg", "adult": false, "overview": "The eerie and deserted ghost town of Silent Hill draws a young mother desperate to find a cure for her only child's illness. Unable to accept the doctor's diagnosis that her daughter should be permanently institutionalized for psychiatric care, Rose flees with her child, heading for the abandoned town in search of answers \u2013 and ignoring the protests of her husband. It's soon clear this place is unlike anywhere she's ever been. It's smothered by fog, inhabited by a variety of strange beings and periodically overcome by a living 'darkness' that literally transforms everything it touches. As Rose searches for her little girl, she begins to learn the history of the strange town and realizes that her daughter is just a pawn in a larger game.", "poster_path": "/4Zz9cF8S4E7DITosNYh3spybYJb.jpg", "popularity": 20.72}, {"id": 37645, "video": false, "vote_count": 575, "vote_average": 6.5, "title": "22 Bullets", "release_date": "2010-03-23", "original_language": "fr", "original_title": "L'Immortel", "genre_ids": [28, 80, 53], "backdrop_path": "/mU8zfCOTbahNGH0ZBTCuNdX16gj.jpg", "adult": false, "overview": "Charly Mattei\u0308 has turned his back on his life as an outlaw. For the last three years, he's led a peaceful life devoting himself to his wife and two children. Then, one winter morning, he's left for dead in the parking garage in Marseille's Old Port, with 22 bullets in his body. Against all the odds, he doesn't die...", "poster_path": "/wTYZjPq4YA2wC99MdHZTFQuxFpd.jpg", "popularity": 12.785}, {"id": 39988, "video": false, "vote_count": 35, "vote_average": 6.0, "title": "Late Night Trains", "release_date": "1975-04-09", "original_language": "it", "original_title": "L'ultimo treno della notte", "genre_ids": [27], "backdrop_path": "/wDIh791uYbxKjpXAZwu3ry6zS2w.jpg", "adult": false, "overview": "A pair of psychotic hoodlums and an equally demented nymphomaniac woman terrorize two young girls on a train trip from Germany to Italy.", "poster_path": "/nOdLx58FiN0UxFrQoubeM5ghBWT.jpg", "popularity": 4.409}, {"id": 369300, "video": false, "vote_count": 317, "vote_average": 6.0, "title": "The Limehouse Golem", "release_date": "2016-10-18", "original_language": "en", "original_title": "The Limehouse Golem", "genre_ids": [27, 9648, 53], "backdrop_path": "/jOsELWItMJOwqEXpUewV8zFH3eX.jpg", "adult": false, "overview": "A series of murders has shaken the community to the point where people believe that only a legendary creature from dark times \u2013 the mythical Golem \u2013 must be responsible.", "poster_path": "/u9NnEq4Be7hhwSvkNf6dOAD8ppi.jpg", "popularity": 13.502}], "total_pages": 427, "total_results": 8526}, "recommendations": {"page": 1, "results": [], "total_pages": 1, "total_results": 0}, "credits": {"cast": [{"cast_id": 1, "character": "Charlie", "credit_id": "57f4ef2f9251411c7b00424e", "gender": 2, "id": 522, "name": "Rod Steiger", "order": 1, "profile_path": "/cc96tXM1O0PAoyog9hzo1GgSwB5.jpg"}, {"cast_id": 2, "character": "David", "credit_id": "59ae8272925141077e053c2e", "gender": 2, "id": 66811, "name": "David Huffman", "order": 2, "profile_path": "/o8RdTLIEhoyT5l7uhiMk65cnrSh.jpg"}, {"cast_id": 3, "character": "Linda", "credit_id": "59ae828092514107650553fa", "gender": 1, "id": 106762, "name": "Robin Mattson", "order": 3, "profile_path": "/xtzG9lCLAFkOqkC6RveQAgBePRD.jpg"}, {"cast_id": 4, "character": "George", "credit_id": "59ae82c59251410765055424", "gender": 2, "id": 13732, "name": "Richard Herd", "order": 4, "profile_path": "/1wsn9V7kkrvD2Qr3bD1vSH2OjpK.jpg"}, {"cast_id": 6, "character": "Wilbur", "credit_id": "5b10a235c3a368622a011b7f", "gender": 2, "id": 89141, "name": "Jerry Hardin", "order": 5, "profile_path": "/vMXJijoMhBktN2rWmwAjT59jP9B.jpg"}, {"cast_id": 7, "character": "Sweeney", "credit_id": "5b10a2400e0a26307600e18e", "gender": 2, "id": 52590, "name": "Paul Mantee", "order": 6, "profile_path": "/oVVmYw6vcP1XWWIiAx1ONWbz63E.jpg"}, {"cast_id": 8, "character": "The Pilot", "credit_id": "5b10a24bc3a368623c0133a7", "gender": 0, "id": 57153, "name": "Conrad Hool", "order": 7, "profile_path": null}], "crew": [{"credit_id": "57f4ef07c3a3684560001841", "department": "Directing", "gender": 2, "id": 18579, "job": "Director", "name": "Burt Kennedy", "profile_path": "/yGiQBjT14SqKVEcVEF7WURWKfug.jpg"}, {"credit_id": "5b10a25cc3a3686230012a32", "department": "Writing", "gender": 2, "id": 18579, "job": "Writer", "name": "Burt Kennedy", "profile_path": "/yGiQBjT14SqKVEcVEF7WURWKfug.jpg"}, {"credit_id": "5b11e3190e0a265832004727", "department": "Sound", "gender": 2, "id": 57892, "job": "Original Music Composer", "name": "Ken Thorne", "profile_path": "/yIycYGjhiYeXu6DMpY9Bbf4GjwN.jpg"}, {"credit_id": "5b11e3589251417b59004913", "department": "Production", "gender": 0, "id": 57153, "job": "Associate Producer", "name": "Conrad Hool", "profile_path": null}, {"credit_id": "5b10a26fc3a368623300b27d", "department": "Production", "gender": 2, "id": 57154, "job": "Producer", "name": "Lance Hool", "profile_path": null}, {"credit_id": "5b11e340c3a3687b2c00547a", "department": "Production", "gender": 0, "id": 66711, "job": "Executive Producer", "name": "Melvin Simon", "profile_path": null}, {"credit_id": "5b11e3320e0a26584c004937", "department": "Production", "gender": 2, "id": 71093, "job": "Executive Producer", "name": "Paul Joseph", "profile_path": null}, {"credit_id": "5b11e37fc3a3687b08003429", "department": "Editing", "gender": 0, "id": 80201, "job": "Editor", "name": "Warner E. Leighton", "profile_path": null}, {"credit_id": "5b11e375c3a3687b08003423", "department": "Camera", "gender": 2, "id": 1020068, "job": "Director of Photography", "name": "\u00c1lex Phillips Jr.", "profile_path": null}, {"credit_id": "5b11e36a0e0a265843004539", "department": "Camera", "gender": 2, "id": 1338886, "job": "Director of Photography", "name": "Carlos Monta\u00f1o", "profile_path": null}, {"credit_id": "5b11e34d0e0a2658500044c6", "department": "Production", "gender": 0, "id": 1852693, "job": "Associate Producer", "name": "Malcolm Levinthal", "profile_path": null}, {"credit_id": "5b11e38c9251417af2002fa2", "department": "Art", "gender": 0, "id": 2055582, "job": "Art Direction", "name": "Agustin Huartz", "profile_path": null}, {"credit_id": "5b11e39a9251417b47004a4d", "department": "Costume & Make-Up", "gender": 0, "id": 2055583, "job": "Makeup Artist", "name": "Ester Oropeza", "profile_path": null}, {"credit_id": "5c9a2866c3a3680dbc3c2d1a", "department": "Production", "gender": 2, "id": 2242316, "job": "Unit Production Manager", "name": "John Morrison", "profile_path": null}]}}