{"adult": false, "backdrop_path": "/eLvsjpjFTLzA5sZrXi8AGJVRuXs.jpg", "belongs_to_collection": null, "budget": 0, "genres": [{"id": 18, "name": "Drama"}, {"id": 10749, "name": "Romance"}, {"id": 10402, "name": "Music"}], "homepage": null, "id": 263259, "imdb_id": "tt0023813", "original_language": "en", "original_title": "Bitter Sweet", "overview": "A young girl falls in love with a young conductor in Vienna, and they marry. However, their marriage is threatened by a wealthy man.....", "popularity": 0.6, "poster_path": "/tywAgiXBJMefReq0dtaZaiiHXVj.jpg", "production_companies": [{"id": 19810, "logo_path": null, "name": "British & Dominions Film Corporation", "origin_country": ""}, {"id": 10240, "logo_path": null, "name": "Herbert Wilcox Productions", "origin_country": ""}], "production_countries": [{"iso_3166_1": "GB", "name": "United Kingdom"}], "release_date": "1933-08-21", "revenue": 0, "runtime": 93, "spoken_languages": [{"iso_639_1": "en", "name": "English"}], "status": "Released", "tagline": "", "title": "Bitter Sweet", "video": false, "vote_average": 0.0, "vote_count": 0, "keywords": {"keywords": [{"id": 2317, "name": "conductor"}, {"id": 18267, "name": "vienna austria"}]}, "similar": {"page": 1, "results": [{"id": 76, "video": false, "vote_count": 2024, "vote_average": 7.9, "title": "Before Sunrise", "release_date": "1995-01-27", "original_language": "en", "original_title": "Before Sunrise", "genre_ids": [18, 10749], "backdrop_path": "/qA2TyqPldTtoTVY3LKrNIG5g6bH.jpg", "adult": false, "overview": "On his way to Vienna, American Jesse meets C\u00e9line, a student returning to Paris. After long conversations forge a surprising connection between them, Jesse convinces Celine to get off the train with him in Vienna. Since his flight to the U.S. departs the next morning and he has no money for lodging, they wander the city together, taking in the experiences of Vienna and each other.", "poster_path": "/khKJwHxgXSpDl3iKGJ5S15I8ABI.jpg", "popularity": 20.927}, {"id": 279, "video": false, "vote_count": 2314, "vote_average": 8.0, "title": "Amadeus", "release_date": "1984-09-06", "original_language": "en", "original_title": "Amadeus", "genre_ids": [18, 36, 10402], "backdrop_path": "/6GMcKubg3KmrE8snLOCNAtsZWW2.jpg", "adult": false, "overview": "The incredible story of genius musician Wolfgang Amadeus Mozart, told in flashback by his peer and secret rival, Antonio Salieri\u2014now confined to an insane asylum.", "poster_path": "/flnoqdC38mbaulAeptjynOFO7yi.jpg", "popularity": 25.139}, {"id": 1092, "video": false, "vote_count": 891, "vote_average": 8.0, "title": "The Third Man", "release_date": "1949-08-31", "original_language": "en", "original_title": "The Third Man", "genre_ids": [9648, 53], "backdrop_path": "/lrIuSWdC1LfKJZUnBX6axJxzZGe.jpg", "adult": false, "overview": "In postwar Vienna, Austria, Holly Martins, a writer of pulp Westerns, arrives penniless as a guest of his childhood chum Harry Lime, only to learn he has died. Martins develops a conspiracy theory after learning of a \"third man\" present at the time of Harry's death, running into interference from British officer Major Calloway, and falling head-over-heels for Harry's grief-stricken lover, Anna.", "poster_path": "/rO2Fq0AZZx9obs52KJdx4mRE8p5.jpg", "popularity": 14.387}, {"id": 177677, "video": false, "vote_count": 5677, "vote_average": 7.1, "title": "Mission: Impossible - Rogue Nation", "release_date": "2015-07-23", "original_language": "en", "original_title": "Mission: Impossible - Rogue Nation", "genre_ids": [28, 12], "backdrop_path": "/8XeLfNQrDmFQmPTqxapfWUnKiLf.jpg", "adult": false, "overview": "Ethan and team take on their most impossible mission yet\u2014eradicating 'The Syndicate', an International and highly-skilled rogue organisation committed to destroying the IMF.", "poster_path": "/z2sJd1OvAGZLxgjBdSnQoLCfn3M.jpg", "popularity": 29.233}, {"adult": false, "backdrop_path": "/6HjYM1vgqWpFTr01tOBrskfvxcu.jpg", "genre_ids": [12, 18, 36], "id": 978, "original_language": "en", "original_title": "Seven Years in Tibet", "overview": "Austrian mountaineer, Heinrich Harrer journeys to the Himalayas without his family to head an expedition in 1939. But when World War II breaks out, the arrogant Harrer falls into Allied forces' hands as a prisoner of war. He escapes with a fellow detainee and makes his way to Llaso, Tibet, where he meets the 14-year-old Dalai Lama, whose friendship ultimately transforms his outlook on life.", "poster_path": "/oFNAbCPeleK4XpH6VYOovHbB7vW.jpg", "release_date": "1997-09-12", "title": "Seven Years in Tibet", "video": false, "vote_average": 7.1, "vote_count": 1386, "popularity": 14.306}, {"id": 15121, "video": false, "vote_count": 1853, "vote_average": 7.6, "title": "The Sound of Music", "release_date": "1965-03-02", "original_language": "en", "original_title": "The Sound of Music", "genre_ids": [18, 10402, 10749, 10751], "backdrop_path": "/iklnzA0qoNQbkusQAU90H99D6Ya.jpg", "adult": false, "overview": "A tomboyish postulant at an Austrian abbey becomes a governess in the home of a widowed naval captain with seven children, and brings a new love of life and music into the home.", "poster_path": "/abrreLo3zL2mvQEMbVIJJKZ2SxX.jpg", "popularity": 23.493}, {"id": 708, "video": false, "vote_count": 845, "vote_average": 6.4, "title": "The Living Daylights", "release_date": "1987-06-29", "original_language": "en", "original_title": "The Living Daylights", "genre_ids": [28, 12, 53], "backdrop_path": "/gt0TafbcheJeT9SFewDLqYWk3Sd.jpg", "adult": false, "overview": "James Bond helps a Russian General escape into the west. He soon finds out that the KGB wants to kill him for helping the General. A little while later the General is kidnapped from the Secret Service leading 007 to be suspicious.", "poster_path": "/yEryMe58dx7zm1QBhQFeuYcv2aH.jpg", "popularity": 17.272}, {"adult": false, "backdrop_path": "/kWa4iUaC7SU2DHDlknlVvw5x9nP.jpg", "genre_ids": [18, 53], "id": 1999, "original_language": "en", "original_title": "In the Bedroom", "overview": "Summertime on the coast of Maine, \"In the Bedroom\" centers on the inner dynamics of a family in transition. Matt Fowler is a doctor practicing in his native Maine and is married to New York born Ruth Fowler, a music teacher. His son is involved in a love affair with a local single mother. As the beauty of Maine's brief and fleeting summer comes to an end, these characters find themselves in the midst of unimaginable tragedy.", "poster_path": "/3UzsHGayLvoInQrgIKd4u2y9BeA.jpg", "release_date": "2001-11-23", "title": "In the Bedroom", "video": false, "vote_average": 6.8, "vote_count": 167, "popularity": 12.202}, {"id": 26648, "video": false, "vote_count": 114, "vote_average": 7.0, "title": "The Night Porter", "release_date": "1974-04-03", "original_language": "it", "original_title": "Il portiere di notte", "genre_ids": [18, 10749], "backdrop_path": "/xbQPQQ4VbzNM4GYSDiYzsVPX2LH.jpg", "adult": false, "overview": "A concentration camp survivor discovers her former torturer and lover working as a porter at a hotel in postwar Vienna. When the couple attempt to re-create their sadomasochistic relationship, his former SS comrades begin to stalk them.", "poster_path": "/qrUtVZB0yTCzfz4DdmsKRdmjtFQ.jpg", "popularity": 10.054}, {"id": 1491, "video": false, "vote_count": 3008, "vote_average": 7.3, "title": "The Illusionist", "release_date": "2006-08-18", "original_language": "en", "original_title": "The Illusionist", "genre_ids": [18, 14, 53, 10749], "backdrop_path": "/dJl5xLVNoIUOyeQdrrc2W9cl88m.jpg", "adult": false, "overview": "With his eye on a lovely aristocrat, a gifted illusionist named Eisenheim uses his powers to win her away from her betrothed, a crown prince. But Eisenheim's scheme creates tumult within the monarchy and ignites the suspicion of a dogged inspector.", "poster_path": "/sRYw9oAiporMpq1GWcYHqmpdeAO.jpg", "popularity": 15.148}, {"id": 9654, "video": false, "vote_count": 3400, "vote_average": 6.7, "title": "The Italian Job", "release_date": "2003-05-30", "original_language": "en", "original_title": "The Italian Job", "genre_ids": [28, 80], "backdrop_path": "/JyoJwSfcLvfLxCGHUQYlCxvU77.jpg", "adult": false, "overview": "Charlie Croker pulled off the crime of a lifetime. The one thing that he didn't plan on was being double-crossed. Along with a drop-dead gorgeous safecracker, Croker and his team take off to re-steal the loot and end up in a pulse-pounding, pedal-to-the-metal chase that careens up, down, above and below the streets of Los Angeles.", "poster_path": "/jNRCNX1uDiUf6mteFxOBn30wL8Q.jpg", "popularity": 21.009}, {"id": 58232, "video": false, "vote_count": 429, "vote_average": 6.4, "title": "Chalet Girl", "release_date": "2011-02-02", "original_language": "en", "original_title": "Chalet Girl", "genre_ids": [35, 10749], "backdrop_path": "/2rFdargv1GI7U8e43KfgOZQnNgq.jpg", "adult": false, "overview": "While working a job at an exclusive ski resort to support her Dad, Kim learns to snowboard and is so good at it that she enters a competition with a huge cash prize. She has to dig deep to overcome her fears, but her life gets more complicated through her spoken-for boss, Jonny.", "poster_path": "/64AQrBEKJVSIRaocOCtkMqExToz.jpg", "popularity": 7.104}, {"id": 301846, "video": false, "vote_count": 238, "vote_average": 5.2, "title": "Howl", "release_date": "2015-10-01", "original_language": "en", "original_title": "Howl", "genre_ids": [27], "backdrop_path": "/f6zcd6ZVviZnCdjqdtZtWKTNDDM.jpg", "adult": false, "overview": "When passengers on a train are attacked by a creature, they must band together in order to survive until morning.", "poster_path": "/sGEOC8x0lXSlIV4hoIZjnOnze9e.jpg", "popularity": 11.373}, {"id": 310593, "video": false, "vote_count": 1230, "vote_average": 6.9, "title": "Youth", "release_date": "2015-05-20", "original_language": "it", "original_title": "Youth", "genre_ids": [35, 18], "backdrop_path": "/2IBIAiLuzrLgzohCebd6oQVBYe7.jpg", "adult": false, "overview": "YOUTH explores the lifelong bond between two friends vacationing in a luxury Swiss Alps lodge as they ponder retirement. While Fred has no plans to resume his musical career despite the urging of his loving daughter Lena, Mick is intent on finishing the screenplay for what may be his last important film for his muse Brenda. And where will inspiration lead their younger friend Jimmy, an actor grasping to make sense of his next performance?", "poster_path": "/9vFNTKVhFDAMrAGOVmPBMT9XDee.jpg", "popularity": 9.935}, {"adult": false, "backdrop_path": "/fwsKOJXLl2TWUN7oI3WYcmtB05h.jpg", "genre_ids": [18, 27, 53], "id": 284303, "original_language": "de", "original_title": "Ich seh, Ich seh", "overview": "In the heat of the summer lays a lonesome house in the countryside where nine year old twin brothers await their mother\u2019s return.  When she comes home, bandaged after cosmetic surgery, nothing is like before and the children start to doubt whether this woman is actually who she says she is.", "poster_path": "/1IXU1O05LVe2B1ivg2mkFVVbb53.jpg", "release_date": "2014-08-29", "title": "Goodnight Mommy", "video": false, "vote_average": 6.6, "vote_count": 670, "popularity": 6.821}, {"id": 457, "video": false, "vote_count": 278, "vote_average": 7.4, "title": "Sissi", "release_date": "1955-12-22", "original_language": "de", "original_title": "Sissi", "genre_ids": [35, 18, 10749], "backdrop_path": "/o5QtsxQpiubbrMuLCttj4afzZJr.jpg", "adult": false, "overview": "The young Bavarian princess Elisabeth, who all call Sissi, goes with her mother and older sister N\u00e9n\u00e9 to Austria where N\u00e9n\u00e9 will be wed to an emperor named Franz Joseph, Yet unexpectedly Franz runs into Sissi while out fishing and they fall in love.", "poster_path": "/zTAyOq9FTaw3vurMJcura0OEBn9.jpg", "popularity": 10.788}, {"adult": false, "backdrop_path": "/ek3pk5ftIbavO9lpHqpCY89p49d.jpg", "genre_ids": [18, 10749], "id": 946, "original_language": "en", "original_title": "Letter from an Unknown Woman", "overview": "A pianist about to flee from a duel receives a letter from a woman he cannot remember. As she tells the story of her lifelong love for him, he is forced to reinterpret his own past.", "poster_path": "/vseTA4tAg3am75CCuAJGTPNWsM.jpg", "release_date": "1948-04-28", "title": "Letter from an Unknown Woman", "video": false, "vote_average": 8.2, "vote_count": 128, "popularity": 9.069}, {"adult": false, "backdrop_path": null, "genre_ids": [18], "id": 576585, "original_language": "de", "original_title": "Freigang", "overview": "Single mother Kathi receives day release from prison and finds her three-year-old son, who is living with her unstable mother, in bad circumstances. She is forced to find a way to enable a better future for him, while time is against her, she has to be back in prison at six pm.", "poster_path": "/iRwrrLGYzp9xayiXUrMGtYk45gE.jpg", "release_date": "2019-01-15", "title": "Freigang", "video": false, "vote_average": 0.0, "vote_count": 0, "popularity": 2.0}, {"adult": false, "backdrop_path": "/3vzDJTcdGZ3L5rym1EbaxZl57X6.jpg", "genre_ids": [35, 80], "id": 10469, "original_language": "de", "original_title": "Komm, s\u00fc\u00dfer Tod", "overview": "Former detective Brenner has become an ambulance driver and finds himself, much to his dismay, caught up in a war between two rival first aid organizations.", "poster_path": "/p7nhYIjTIHEY80hVqFzoQDwIn7V.jpg", "release_date": "2000-12-22", "title": "Come, Sweet Death", "video": false, "vote_average": 7.6, "vote_count": 31, "popularity": 3.288}, {"id": 6619, "video": false, "vote_count": 184, "vote_average": 7.3, "title": "Death in Venice", "release_date": "1971-03-01", "original_language": "it", "original_title": "Morte a Venezia", "genre_ids": [18], "backdrop_path": "/b0WDCEous38lLeeEsAMhOC8U4cd.jpg", "adult": false, "overview": "Composer Gustav von Aschenbach, travels to Venice for health reasons. There, he becomes obsessed with the stunning beauty of an adolescent Polish boy named Tadzio who is staying with his family at the same Grand H\u00f4tel des Bains on the Lido as Aschenbach.", "poster_path": "/uaCO0YWhpVjppk3IgLwmHSDtrrT.jpg", "popularity": 9.858}], "total_pages": 8, "total_results": 160}, "recommendations": {"page": 1, "results": [], "total_pages": 1, "total_results": 0}, "credits": {"cast": [{"cast_id": 1, "character": "Sari Linden", "credit_id": "53413e5f0e0a2679aa001f23", "gender": 1, "id": 201534, "name": "Anna Neagle", "order": 1, "profile_path": "/qo3XCsA1xwZ2jAUWr2Ii1a86YI4.jpg"}, {"cast_id": 2, "character": "Carl Linden", "credit_id": "53413e720e0a2679b1001dd2", "gender": 2, "id": 30774, "name": "Fernand Gravey", "order": 2, "profile_path": "/vhqP79ZpBziHd1N0wbAAK1M0h0H.jpg"}, {"cast_id": 12, "character": "Captain Auguste Lutte", "credit_id": "574802b29251415452000199", "gender": 2, "id": 19329, "name": "Miles Mander", "order": 3, "profile_path": "/bdpwtvVZjOgkaOXXA38tfYuiBT5.jpg"}, {"cast_id": 13, "character": "Herr Schlick", "credit_id": "574802c9925141635600118f", "gender": 0, "id": 1195924, "name": "Clifford Heatherley", "order": 4, "profile_path": null}, {"cast_id": 14, "character": "Hugh Devon", "credit_id": "574802e3c3a3686bba001a01", "gender": 0, "id": 47668, "name": "Esme Percy", "order": 5, "profile_path": null}, {"cast_id": 15, "character": "Manon la Crevette", "credit_id": "574802fc9251415f41001490", "gender": 0, "id": 1626863, "name": "Ivy St. Helier", "order": 6, "profile_path": null}, {"cast_id": 16, "character": "Dolly", "credit_id": "581a484cc3a36853aa001d3f", "gender": 1, "id": 120770, "name": "Pat Paterson", "order": 7, "profile_path": "/rT1s86wx2f5Z7KFM8SFgBayWhur.jpg"}], "crew": [{"credit_id": "5748021b9251414c4b0001ff", "department": "Camera", "gender": 2, "id": 10079, "job": "Director of Photography", "name": "Freddie Young", "profile_path": "/zRQlkuze95cvNOm3MFqxEocvzwg.jpg"}, {"credit_id": "574801c2c3a3683d10000192", "department": "Writing", "gender": 2, "id": 12718, "job": "Novel", "name": "No\u00ebl Coward", "profile_path": "/MgPU3ByatARQZDAqpQAMVKrfwN.jpg"}, {"credit_id": "574802499251415452000186", "department": "Art", "gender": 0, "id": 12722, "job": "Art Direction", "name": "Lawrence P. Williams", "profile_path": null}, {"credit_id": "53413e4a0e0a26799e001f31", "department": "Directing", "gender": 2, "id": 148559, "job": "Director", "name": "Herbert Wilcox", "profile_path": "/8kz2pzkO8RapW7KVbjkJmDa3UpS.jpg"}, {"credit_id": "574801f1925141545200017b", "department": "Production", "gender": 2, "id": 148559, "job": "Producer", "name": "Herbert Wilcox", "profile_path": "/8kz2pzkO8RapW7KVbjkJmDa3UpS.jpg"}, {"credit_id": "574801dcc3a3683cd8000159", "department": "Crew", "gender": 0, "id": 556501, "job": "Additional Dialogue", "name": "Monckton Hoffe", "profile_path": null}, {"credit_id": "574802329251416356001181", "department": "Editing", "gender": 0, "id": 1290872, "job": "Editor", "name": "Michael Hankinson", "profile_path": null}, {"credit_id": "5cf3a1c09251416948b92cf0", "department": "Sound", "gender": 0, "id": 1446434, "job": "Sound Recordist", "name": "C.C. Stevens", "profile_path": null}, {"credit_id": "5748025cc3a368329a000241", "department": "Costume & Make-Up", "gender": 1, "id": 1611761, "job": "Costume Design", "name": "Doris Zinkeisen", "profile_path": null}, {"credit_id": "5748028892514135cb0019bc", "department": "Sound", "gender": 0, "id": 1626862, "job": "Music Director", "name": "Roy Robertson", "profile_path": null}]}}