{"adult": false, "backdrop_path": "/9X3j9awAcNykWnpU9hu4EweJLBE.jpg", "belongs_to_collection": null, "budget": 0, "genres": [{"id": 35, "name": "Comedy"}], "homepage": null, "id": 263913, "imdb_id": "tt2937254", "original_language": "en", "original_title": "Balls Out", "overview": "With marriage, graduation, and the real world looming on the horizon, fifth year senior Caleb Fuller reassembles the ol' team of misfits for one last epic run in Intramural football.", "popularity": 3.676, "poster_path": "/2aOHMBYHvURCfQ0cnDNGW1ZYKUM.jpg", "production_companies": [{"id": 52394, "logo_path": null, "name": "Red Productions", "origin_country": ""}, {"id": 52393, "logo_path": null, "name": "Ralph Smyth Entertainment", "origin_country": ""}, {"id": 23607, "logo_path": null, "name": "Raindance Entertainment", "origin_country": "US"}], "production_countries": [{"iso_3166_1": "US", "name": "United States of America"}], "release_date": "2014-04-19", "revenue": 0, "runtime": 100, "spoken_languages": [{"iso_639_1": "en", "name": "English"}], "status": "Released", "tagline": "", "title": "Balls Out", "video": false, "vote_average": 4.2, "vote_count": 21, "keywords": {"keywords": [{"id": 3616, "name": "college"}]}, "similar": {"page": 1, "results": [{"id": 325133, "video": false, "vote_count": 3097, "vote_average": 5.7, "title": "Neighbors 2: Sorority Rising", "release_date": "2016-05-04", "original_language": "en", "original_title": "Neighbors 2: Sorority Rising", "genre_ids": [35], "backdrop_path": "/8HuO1RMDI3prfWDkF7t1y8EhLVO.jpg", "adult": false, "overview": "A sorority moves in next door to the home of Mac and Kelly Radner who have a young child. The Radner's enlist their former nemeses from the fraternity to help battle the raucous sisters.", "poster_path": "/bWUeJHbKIyT306WtJFRHoSzX9nk.jpg", "popularity": 17.21}, {"adult": false, "backdrop_path": "/ePqwTIoJeKJwShMABMst5duBcw9.jpg", "genre_ids": [35, 10402, 10749], "id": 114150, "original_language": "en", "original_title": "Pitch Perfect", "overview": "College student Beca knows she does not want to be part of a clique, but that's exactly where she finds herself after arriving at her new school. Thrust in among mean gals, nice gals and just plain weird gals, Beca finds that the only thing they have in common is how well they sing together. She takes the women of the group out of their comfort zone of traditional arrangements and into a world of amazing harmonic combinations in a fight to the top of college music competitions.", "poster_path": "/cLUMPdwCV0Dxd3P1ZkCXe7bVImI.jpg", "release_date": "2012-09-28", "title": "Pitch Perfect", "video": false, "vote_average": 7.3, "vote_count": 4622, "popularity": 16.878}, {"adult": false, "backdrop_path": "/txR74Uy6sYbUv4HQURQXNF8LXTf.jpg", "genre_ids": [35], "id": 8277, "original_language": "en", "original_title": "American Pie Presents: Beta House", "overview": "Erik, Ryan, and Cooze start college and pledge the Beta House fraternity, presided over by none other than legendary Dwight Stifler. But chaos ensues when a fraternity of geeks threatens to stop the debauchery and the Betas have to make a stand for their right to party.", "poster_path": "/xJeYprcFqBfov6dUpjJIxDeaZJr.jpg", "release_date": "2007-12-10", "title": "American Pie Presents: Beta House", "video": false, "vote_average": 5.5, "vote_count": 1087, "popularity": 16.688}, {"adult": false, "backdrop_path": "/xquSCWl15uduooAisftm3FyfwGZ.jpg", "genre_ids": [35], "id": 10760, "original_language": "en", "original_title": "Sydney White", "overview": "A modern retelling of Snow White set against students in their freshman year of college in the greek system.", "poster_path": "/7gWssDrFkEekZidyu82u0OWaoyq.jpg", "release_date": "2007-09-21", "title": "Sydney White", "video": false, "vote_average": 6.4, "vote_count": 687, "popularity": 18.56}, {"adult": false, "backdrop_path": "/d2pbvJkNAunv2NI7RYU1ejqZN7Z.jpg", "genre_ids": [10749, 35], "id": 12620, "original_language": "en", "original_title": "The House Bunny", "overview": "Shelley is living a carefree life until a rival gets her tossed out of the Playboy Mansion. With nowhere to go, fate delivers her to the sorority girls from Zeta Alpha Zeta. Unless they can sign a new pledge class, the seven socially clueless women will lose their house to the scheming girls of Phi Iota Mu. In order to accomplish their goal, they need Shelley to teach them the ways of makeup and men; at the same time, Shelley needs some of what the Zetas have - a sense of individuality. The combination leads all the girls to learn how to stop pretending and start being themselves.", "poster_path": "/r4QlWdvduWGJdiGlYiwIsDC1kPu.jpg", "release_date": "2008-08-22", "title": "The House Bunny", "video": false, "vote_average": 5.6, "vote_count": 1227, "popularity": 15.609}, {"id": 8469, "video": false, "vote_count": 846, "vote_average": 7.1, "title": "Animal House", "release_date": "1978-07-27", "original_language": "en", "original_title": "Animal House", "genre_ids": [35], "backdrop_path": "/3A4xKsa3EYk9ohlkTRlrcNZGXg2.jpg", "adult": false, "overview": "At a 1962 College, Dean Vernon Wormer is determined to expel the entire Delta Tau Chi Fraternity, but those troublemakers have other plans for him.", "poster_path": "/AuJkgAh7zAGsm7Oo3CGyDtYvzg0.jpg", "popularity": 12.117}, {"id": 46127, "video": false, "vote_count": 146, "vote_average": 6.0, "title": "Sorority Wars", "release_date": "2009-01-02", "original_language": "en", "original_title": "Sorority Wars", "genre_ids": [35, 18, 10751, 10770], "backdrop_path": "/7fpz7UHmFCDS0HsaQCTWfhXx9hv.jpg", "adult": false, "overview": "Katie, a college freshman, has been groomed from birth to continue her mother\u2019s legacy with the Deltas. When Katie decides to pledge another house instead, an all-out sorority war commences.", "poster_path": "/AqK8pfdNgN6VwhgbaNYT6tl7hwG.jpg", "popularity": 9.386}, {"adult": false, "backdrop_path": "/vXT5Gw09k99o9XXqqxBPz9NKgsa.jpg", "genre_ids": [35, 12], "id": 9285, "original_language": "en", "original_title": "Road Trip", "overview": "Four friends take off on an 1800 mile road trip to retrieve an illicit tape mistakenly mailed to a girl friend.", "poster_path": "/DCoZVnHVvtKTYwfM00dfVRbfUQ.jpg", "release_date": "2000-05-19", "title": "Road Trip", "video": false, "vote_average": 6.0, "vote_count": 1018, "popularity": 20.323}, {"id": 11137, "video": false, "vote_count": 621, "vote_average": 6.1, "title": "The Prince & Me", "release_date": "2004-03-28", "original_language": "en", "original_title": "The Prince & Me", "genre_ids": [35, 10749], "backdrop_path": "/6GxmYUfaDXMlSlFiCf5WoNSf0zm.jpg", "adult": false, "overview": "A fairy tale love-story about pre-med student Paige who falls in love with a Danish Prince \"Eddie\" who refused to follow the traditions of his parents and has come to the US to quench his thirst for rebellion. Paige and Edward come from two different worlds, but there is an undeniable attraction between them.", "poster_path": "/nB75Ht9rppAVMj0lZWZQ51PPYUe.jpg", "popularity": 8.938}, {"id": 8923, "video": false, "vote_count": 1359, "vote_average": 7.2, "title": "Green Street Hooligans", "release_date": "2005-09-09", "original_language": "en", "original_title": "Green Street Hooligans", "genre_ids": [80, 18], "backdrop_path": "/oasVTD3UpTEjhTAVx9ZCy1k19Qv.jpg", "adult": false, "overview": "After being wrongfully expelled from Harvard University, American Matt Buckner flees to his sister's home in England. Once there, he is befriended by her charming and dangerous brother-in-law, Pete Dunham, and introduced to the underworld of British football hooliganism. Matt learns to stand his ground through a friendship that develops against the backdrop of this secret and often violent world. 'Green Street Hooligans' is a story of loyalty, trust and the sometimes brutal consequences of living close to the edge.", "poster_path": "/z3LC4kI8azbeuHRGgDdWo6VBCdX.jpg", "popularity": 20.194}, {"id": 37799, "video": false, "vote_count": 6888, "vote_average": 7.3, "title": "The Social Network", "release_date": "2010-10-01", "original_language": "en", "original_title": "The Social Network", "genre_ids": [18], "backdrop_path": "/8AazWuNBQV7QFjb9XNzJLox0Zey.jpg", "adult": false, "overview": "On a fall night in 2003, Harvard undergrad and computer programming genius Mark Zuckerberg sits down at his computer and heatedly begins working on a new idea. In a fury of blogging and programming, what begins in his dorm room as a small site among friends soon becomes a global social network and a revolution in communication. A mere six years and 500 million friends later, Mark Zuckerberg is the youngest billionaire in history... but for this entrepreneur, success leads to both personal and legal complications.", "poster_path": "/ok5Wh8385Kgblq9MSU4VGvazeMH.jpg", "popularity": 25.532}, {"id": 440021, "video": false, "vote_count": 3796, "vote_average": 6.6, "title": "Happy Death Day", "release_date": "2017-10-12", "original_language": "en", "original_title": "Happy Death Day", "genre_ids": [27, 9648, 53], "backdrop_path": "/9bjHAkyi3aRRnfrIGhHPu7RATPR.jpg", "adult": false, "overview": "Caught in a bizarre and terrifying time warp, college student Tree finds herself repeatedly reliving the day of her murder, ultimately realizing that she must identify the killer and the reason for her death before her chances of survival run out.", "poster_path": "/cTaEIUYTt52ooq9quVbAQ7NpGwo.jpg", "popularity": 18.479}, {"id": 8065, "video": false, "vote_count": 2683, "vote_average": 6.6, "title": "21", "release_date": "2008-03-27", "original_language": "en", "original_title": "21", "genre_ids": [80, 18], "backdrop_path": "/3quapHSlorOsbkh0b6IgyCGIBni.jpg", "adult": false, "overview": "Ben Campbell is a young, highly intelligent, student at M.I.T. in Boston who strives to succeed. Wanting a scholarship to transfer to Harvard School of Medicine with the desire to become a doctor, Ben learns that he cannot afford the $300,000 for the four to five years of schooling as he comes from a poor, working-class background. But one evening, Ben is introduced by his unorthodox math professor Micky Rosa into a small but secretive club of five. Students Jill, Choi, Kianna, and Fisher, who are being trained by Professor Rosa of the skill of card counting at blackjack.", "poster_path": "/4zKAgycQDJD2zIkmPYV3aMR8tEy.jpg", "popularity": 17.687}, {"adult": false, "backdrop_path": "/6LnwpadKFRrqam7IfBAi3lNTz6Y.jpg", "genre_ids": [18, 35, 10749], "id": 20453, "original_language": "hi", "original_title": "3 Idiots", "overview": "In the tradition of \u201cFerris Bueller\u2019s Day Off\u201d comes this refreshing comedy about a rebellious prankster with a crafty mind and a heart of gold. Rascal. Joker. Dreamer. Genius... You've never met a college student quite like \"Rancho.\" From the moment he arrives at India's most prestigious university, Rancho's outlandish schemes turn the campus upside down\u2014along with the lives of his two newfound best friends. Together, they make life miserable for \"Virus,\" the school\u2019s uptight and heartless dean. But when Rancho catches the eye of the dean's sexy daughter, Virus sets his sights on flunking out the \"3 idiots\" once and for all.", "poster_path": "/x85szIjlgdyipBv0v5IE3Gv6z4b.jpg", "release_date": "2009-12-23", "title": "3 Idiots", "video": false, "vote_average": 7.9, "vote_count": 1295, "popularity": 12.853}, {"id": 10642, "video": false, "vote_count": 233, "vote_average": 5.2, "title": "Loser", "release_date": "2000-07-21", "original_language": "en", "original_title": "Loser", "genre_ids": [35, 18, 10749], "backdrop_path": "/qTvcR6F5HM0IbFlahZH2zuRqZNK.jpg", "adult": false, "overview": "On a university scholarship, a good natured student from the midwest gets a crash course in city life while dealing with three evil roommates. He befriends a virtually homeless college student whom he falls for, but she's dating a nasty professor.", "poster_path": "/b3aYI05e1iAc7ouFeBpSUQADxsi.jpg", "popularity": 15.101}, {"adult": false, "backdrop_path": "/5mDCKKS7M8aUZKdShnCa7lLbzmH.jpg", "genre_ids": [16, 10751], "id": 62211, "original_language": "en", "original_title": "Monsters University", "overview": "A look at the relationship between Mike and Sulley during their days at Monsters University \u2014 when they weren't necessarily the best of friends.", "poster_path": "/a05xQU9huY3P5uurLcGGHmsf2Vh.jpg", "release_date": "2013-06-20", "title": "Monsters University", "video": false, "vote_average": 7.0, "vote_count": 6945, "popularity": 23.536}, {"adult": false, "backdrop_path": "/yEqrCU3hAvoiwC0y4CuJq3v4KoG.jpg", "genre_ids": [27, 53], "id": 368031, "original_language": "en", "original_title": "Unfriend", "overview": "Enjoying college life as a popular student, Laura shares everything with her more  than 800 friends on Facebook. But one day, after accepting a friend request from a  social outcast named Marina, Laura\u2019s life is cursed...", "poster_path": "/8sc2FXCczMd4lb8j5YiT0S6aQiO.jpg", "release_date": "2016-01-07", "title": "Friend Request", "video": false, "vote_average": 5.5, "vote_count": 860, "popularity": 15.056}, {"id": 489, "video": false, "vote_count": 6675, "vote_average": 8.1, "title": "Good Will Hunting", "release_date": "1997-12-05", "original_language": "en", "original_title": "Good Will Hunting", "genre_ids": [18], "backdrop_path": "/8vA6dxBzRqSajvqdmTLtoguAa3T.jpg", "adult": false, "overview": "Will Hunting has a genius-level IQ but chooses to work as a janitor at MIT. When he solves a difficult graduate-level math problem, his talents are discovered by Professor Gerald Lambeau, who decides to help the misguided youth reach his potential. When Will is arrested for attacking a police officer, Professor Lambeau makes a deal to get leniency for him if he will get treatment from therapist Sean Maguire.", "poster_path": "/jq8LjngZ7XZEQge5JFTdOGMrHyZ.jpg", "popularity": 16.686}, {"id": 22970, "video": false, "vote_count": 4727, "vote_average": 6.5, "title": "The Cabin in the Woods", "release_date": "2012-04-12", "original_language": "en", "original_title": "The Cabin in the Woods", "genre_ids": [35, 27, 53], "backdrop_path": "/214TKe8WBBbFXVrBRV9RECeE4oW.jpg", "adult": false, "overview": "Five college friends spend the weekend at a remote cabin in the woods, where they get more than they bargained for. Together, they must discover the truth behind the cabin in the woods.", "poster_path": "/utfJuX6DfR28Mv2FMfnPFAYOmTU.jpg", "popularity": 20.491}, {"id": 8835, "video": false, "vote_count": 2036, "vote_average": 6.4, "title": "Legally Blonde", "release_date": "2001-07-13", "original_language": "en", "original_title": "Legally Blonde", "genre_ids": [35], "backdrop_path": "/rusiQnUaorH0Z71hYMsrR8Ortrf.jpg", "adult": false, "overview": "Elle Woods has it all. She's the president of her sorority, a Hawaiian Tropic girl, Miss June in her campus calendar, and, above all, a natural blonde. She dates the cutest fraternity boy on campus and wants nothing more than to be Mrs. Warner Huntington III. But, there's just one thing stopping Warner from popping the question: Elle is too blonde.", "poster_path": "/1gAnkZNAd3HqgWL7aqSOQFwt7D1.jpg", "popularity": 16.783}], "total_pages": 48, "total_results": 955}, "recommendations": {"page": 1, "results": [{"id": 213927, "video": false, "vote_count": 38, "vote_average": 5.8, "title": "Born to Race: Fast Track", "release_date": "2014-03-20", "original_language": "en", "original_title": "Born to Race: Fast Track", "genre_ids": [28], "backdrop_path": "/mHvoHA5P6eMccdSOqGWYymp1ipd.jpg", "adult": false, "overview": "Danny Krueger is a twenty-year old drag racer who plays by his own rules. After winning a scholarship to the prestigious Fast Lane Racing Academy, Danny finds himself competing against some of the fiercest young drivers in the world. Tension soars on and off the track, and a terrible incident leaves Danny without a racing partner. Facing dismissal from the academy, Danny is forced to team up with an old rival. The pair must learn to set aside their differences as they vie for rookie spots on a professional racing team.", "poster_path": "/vGUY5CjK3Prwo62gML99Qk4Wyen.jpg", "popularity": 8.306}], "total_pages": 1, "total_results": 1}, "credits": {"cast": [{"cast_id": 0, "character": "Caleb", "credit_id": "5345727d0e0a267bd1001d74", "gender": 2, "id": 496470, "name": "Jake Lacy", "order": 0, "profile_path": "/qU6n9EaesBGqhNLlj5BecUrb5LW.jpg"}, {"cast_id": 1, "character": "Meredith", "credit_id": "534572850e0a267bc6001dd5", "gender": 1, "id": 59252, "name": "Nikki Reed", "order": 1, "profile_path": "/mIxezXEbSlr6OiS8JnyZQtphYH0.jpg"}, {"cast_id": 2, "character": "Vicky", "credit_id": "5345728e0e0a267bc6001dd7", "gender": 1, "id": 1240487, "name": "Kate McKinnon", "order": 2, "profile_path": "/jzgiKHmkhxhvELnq9ccDkFc8Ynn.jpg"}, {"cast_id": 24, "character": "Dick", "credit_id": "5675502ec3a368168000276c", "gender": 2, "id": 1180696, "name": "Beck Bennett", "order": 3, "profile_path": "/xbcVvJ1a7qUIdyYb4PJewFlNFu4.jpg"}, {"cast_id": 4, "character": "Grant", "credit_id": "534572a20e0a267bd7001e52", "gender": 0, "id": 132311, "name": "Nick Kocher", "order": 4, "profile_path": null}, {"cast_id": 5, "character": "Chance", "credit_id": "534572ad0e0a267bc6001dd9", "gender": 2, "id": 132310, "name": "Brian McElhaney", "order": 5, "profile_path": "/nkv0u13BeLNl3oaV3SPXMySNjOd.jpg"}, {"cast_id": 6, "character": "Vinnie", "credit_id": "534572b80e0a267bd4001ee5", "gender": 2, "id": 111016, "name": "Gabriel Luna", "order": 6, "profile_path": "/mYVDObiZuw7DmsBHsLfZIAn37Tw.jpg"}, {"cast_id": 7, "character": "George", "credit_id": "534572cd0e0a267bd1001d7b", "gender": 2, "id": 1049925, "name": "Will Elliott", "order": 7, "profile_path": null}, {"cast_id": 8, "character": "Ace", "credit_id": "534572d80e0a267bd4001eea", "gender": 0, "id": 1049928, "name": "Kirk C. Johnson", "order": 8, "profile_path": "/i5dk3FqsGGUznsQGppuNwZ8pleD.jpg"}, {"cast_id": 9, "character": "Jimmy", "credit_id": "534572e20e0a267bc6001ddd", "gender": 2, "id": 1155590, "name": "Sam Eidson", "order": 9, "profile_path": "/kHVBJSQOzZ1KLDuRZWdLWzd8Wxz.jpg"}, {"cast_id": 12, "character": "Rafa", "credit_id": "54466b3ec3a3683e0500acab", "gender": 2, "id": 968889, "name": "Billy Blair", "order": 10, "profile_path": "/7DI7VBgFjRA0AnrV9jEFt3GfwgE.jpg"}], "crew": [{"credit_id": "554222769251414aee003cf2", "department": "Production", "gender": 1, "id": 13585, "job": "Casting", "name": "Nancy Nayor", "profile_path": "/43LHN7kjcpvsSBBoshm4C1GUouP.jpg"}, {"credit_id": "554221e39251413d6d00388f", "department": "Production", "gender": 0, "id": 1049931, "job": "Producer", "name": "Russell Wayne Groves", "profile_path": null}, {"credit_id": "55422247c3a3682a74003616", "department": "Production", "gender": 0, "id": 1065122, "job": "Producer", "name": "Red Sanders", "profile_path": null}, {"credit_id": "534572f30e0a267bc3001dbc", "department": "Directing", "gender": 0, "id": 1085513, "job": "Director", "name": "Andrew Disney", "profile_path": null}, {"credit_id": "554222a2c3a3681da0003bfc", "department": "Sound", "gender": 0, "id": 1085522, "job": "Music", "name": "Alice Wood", "profile_path": null}, {"credit_id": "554222bd9251414aee003cfc", "department": "Camera", "gender": 0, "id": 1085524, "job": "Director of Photography", "name": "Jeffrey Waldron", "profile_path": null}, {"credit_id": "5542228a9251414aee003cf5", "department": "Production", "gender": 1, "id": 1190100, "job": "Casting", "name": "Lindsey Weissmueller", "profile_path": "/wA7ck8vuYFMcIGNWCYz7R9pSXpD.jpg"}, {"credit_id": "55422201c3a36839d90018d3", "department": "Production", "gender": 0, "id": 1205951, "job": "Producer", "name": "Bradley Jackson", "profile_path": null}, {"credit_id": "534572fe0e0a267bd7001e57", "department": "Writing", "gender": 0, "id": 1205951, "job": "Writer", "name": "Bradley Jackson", "profile_path": null}, {"credit_id": "55422264c3a36839d90018e5", "department": "Production", "gender": 0, "id": 1358938, "job": "Producer", "name": "David James Ward", "profile_path": null}, {"credit_id": "55422331c3a36877ee0037a1", "department": "Directing", "gender": 0, "id": 1386329, "job": "Script Supervisor", "name": "Brett Hamann", "profile_path": null}, {"credit_id": "55422232c3a3681da0003be8", "department": "Production", "gender": 0, "id": 1461130, "job": "Producer", "name": "Andrew Shinjang Lee", "profile_path": null}, {"credit_id": "554222d7c3a3681d98003d0a", "department": "Editing", "gender": 0, "id": 1461132, "job": "Editor", "name": "Kody Gibson", "profile_path": null}]}}