{"adult": false, "backdrop_path": null, "belongs_to_collection": null, "budget": 0, "genres": [{"id": 80, "name": "Crime"}, {"id": 18, "name": "Drama"}], "homepage": "", "id": 264098, "imdb_id": "tt0078345", "original_language": "en", "original_title": "Superdome", "overview": "It's Superbowl. And there's a lot of drama, one of the players, Dave Wolecki, has been so preoccupied with the game and if his bum knee will hold out until the game, has been completely ignoring his wife. And McCauley, the team's star quarterback, is being courted by a management firm, and the man the firm has assigned to get him into the firm has been told that if he doesn't get him, he will be out. But that's nothing compared to the real drama. There's a killer running around. It seems that the syndicate doesn't want the highly favored Cougars to win. They tried to get the team's trainer to drug or incapacitate some players, and when he refuses he is killed. So, the team's manager has to try and find out who the killer is, before he does some real damage.", "popularity": 2.474, "poster_path": "/7dMfFSjDfrC3ZF1WLOK5Vbgeh3o.jpg", "production_companies": [{"id": 2166, "logo_path": null, "name": "ABC Circle Films", "origin_country": ""}], "production_countries": [{"iso_3166_1": "US", "name": "United States of America"}], "release_date": "1978-01-09", "revenue": 0, "runtime": 100, "spoken_languages": [{"iso_639_1": "en", "name": "English"}], "status": "Released", "tagline": "It's The Biggest Event Of The Year - The Superbowl! Thousands of Men and Women Seeking Excitement, Glamour and Romance ... But A Desperate Killer Threatens To Turn It Into A Nightmare.", "title": "Superdome", "video": false, "vote_average": 3.5, "vote_count": 4, "keywords": {"keywords": [{"id": 579, "name": "american football"}, {"id": 6075, "name": "sport"}]}, "similar": {"page": 1, "results": [{"id": 245913, "video": false, "vote_count": 511, "vote_average": 7.3, "title": "Pel\u00e9: Birth of a Legend", "release_date": "2016-05-06", "original_language": "en", "original_title": "Pel\u00e9: Birth of a Legend", "genre_ids": [18, 36], "backdrop_path": "/mmKn7ECMiCUGFhIhoX2t9SYrTQn.jpg", "adult": false, "overview": "The life story of Brazilian football legend, Pele.", "poster_path": "/7AQFHlPohPiAYKTd1C35Q61z0eD.jpg", "popularity": 15.163}, {"adult": false, "backdrop_path": "/qVjKZMB0IdOc2JlwiiGsuKTvTJs.jpg", "genre_ids": [18], "id": 22881, "original_language": "en", "original_title": "The Blind Side", "overview": "The story of Michael Oher, a homeless and traumatized boy who became an All American football player and first round NFL draft pick with the help of a caring woman and her family", "poster_path": "/wEGFSgPebLk6g1ngKsJ6a46PYLV.jpg", "release_date": "2009-11-20", "title": "The Blind Side", "video": false, "vote_average": 7.5, "vote_count": 3212, "popularity": 42.202}, {"adult": false, "backdrop_path": "/jK3EAFk3GdOaQfUDCOiTujzMpwH.jpg", "genre_ids": [18], "id": 389015, "original_language": "en", "original_title": "I, Tonya", "overview": "Competitive ice skater Tonya Harding rises amongst the ranks at the U. S. Figure Skating Championships, but her future in the sport is thrown into doubt when her ex-husband intervenes.", "poster_path": "/6gNXwSHxaksR1PjVZRqNapmkgj3.jpg", "release_date": "2017-12-08", "title": "I, Tonya", "video": false, "vote_average": 7.5, "vote_count": 3327, "popularity": 19.513}, {"id": 8923, "video": false, "vote_count": 1359, "vote_average": 7.2, "title": "Green Street Hooligans", "release_date": "2005-09-09", "original_language": "en", "original_title": "Green Street Hooligans", "genre_ids": [80, 18], "backdrop_path": "/oasVTD3UpTEjhTAVx9ZCy1k19Qv.jpg", "adult": false, "overview": "After being wrongfully expelled from Harvard University, American Matt Buckner flees to his sister's home in England. Once there, he is befriended by her charming and dangerous brother-in-law, Pete Dunham, and introduced to the underworld of British football hooliganism. Matt learns to stand his ground through a friendship that develops against the backdrop of this secret and often violent world. 'Green Street Hooligans' is a story of loyalty, trust and the sometimes brutal consequences of living close to the edge.", "poster_path": "/z3LC4kI8azbeuHRGgDdWo6VBCdX.jpg", "popularity": 20.194}, {"adult": false, "backdrop_path": "/n1Gh3MJAVvXmkgSDf3SOLlPCjag.jpg", "genre_ids": [35, 18, 10749], "id": 9390, "original_language": "en", "original_title": "Jerry Maguire", "overview": "Jerry Maguire used to be a typical sports agent: willing to do just about anything he could to get the biggest possible contracts for his clients, plus a nice commission for himself. Then, one day, he suddenly has second thoughts about what he's really doing. When he voices these doubts, he ends up losing his job and all of his clients, save Rod Tidwell, an egomaniacal football player.", "poster_path": "/99YTEdKOKDRClsscOpJfdkbaTrQ.jpg", "release_date": "1996-12-13", "title": "Jerry Maguire", "video": false, "vote_average": 6.9, "vote_count": 1796, "popularity": 20.431}, {"id": 14292, "video": false, "vote_count": 319, "vote_average": 7.1, "title": "Miracle", "release_date": "2004-02-06", "original_language": "en", "original_title": "Miracle", "genre_ids": [18, 36], "backdrop_path": "/vvOT6lEBmhbs3uohk9BO2bPpdEj.jpg", "adult": false, "overview": "When college coach Herb Brooks is hired to helm the 1980 U.S. men's Olympic hockey team, he brings a unique and brash style to the ice. After assembling a team of hot-headed college all-stars, who are humiliated in an early match, Brooks unites his squad against a common foe: the heavily-favored Soviet team.", "poster_path": "/82ls9NVXnoE5ZQM5yCZNmpbSVQN.jpg", "popularity": 11.205}, {"adult": false, "backdrop_path": "/kmrSb8Gu0s6fGkm3zHJnHh25F4J.jpg", "genre_ids": [18, 10752], "id": 17360, "original_language": "en", "original_title": "Escape to Victory", "overview": "A group of POWs in a German prison camp during World War II play the German National Soccer Team in this powerful film depicting the role of prisoners during wartime.", "poster_path": "/tKFWYW9vDVKrBupSQydptyYVkXi.jpg", "release_date": "1981-06-17", "title": "Escape to Victory", "video": false, "vote_average": 6.8, "vote_count": 419, "popularity": 11.037}, {"adult": false, "backdrop_path": "/9lrM0o89ASyHmDgMLfCbU5qdsAm.jpg", "genre_ids": [35, 18], "id": 9291, "original_language": "en", "original_title": "The Longest Yard", "overview": "Pro quarter-back, Paul Crewe and former college champion and coach, Nate Scarboro are doing time in the same prison. Asked to put together a team of inmates to take on the guards, Crewe enlists the help of Scarboro to coach the inmates to victory in a football game 'fixed' to turn out quite another way.", "poster_path": "/ag6q9euZABqbHtbDhoRT9xEYltP.jpg", "release_date": "2005-05-27", "title": "The Longest Yard", "video": false, "vote_average": 6.4, "vote_count": 1766, "popularity": 16.3}, {"adult": false, "backdrop_path": "/kBTdPNTAzagAY6UiwY957KCDGuu.jpg", "genre_ids": [16, 35, 10751], "id": 2300, "original_language": "en", "original_title": "Space Jam", "overview": "Swackhammer, an evil alien theme park owner, needs a new attraction at Moron Mountain. When his gang, the Nerdlucks, heads to Earth to kidnap Bugs Bunny and the Looney Tunes, Bugs challenges them to a basketball game to determine their fate. The aliens agree, but they steal the powers of NBA basketball players, including Larry Bird and Charles Barkley -- so Bugs gets some help from superstar Michael Jordan.", "poster_path": "/xI9AwhOWtsbFlS8tYD2PXa80p7u.jpg", "release_date": "1996-11-15", "title": "Space Jam", "video": false, "vote_average": 6.7, "vote_count": 3180, "popularity": 17.288}, {"adult": false, "backdrop_path": "/zu3zLkJeRtGJq4I6D7ONMWmFOLh.jpg", "genre_ids": [28, 18], "id": 9766, "original_language": "en", "original_title": "Gridiron Gang", "overview": "Teenagers at a juvenile detention center, under the leadership of their counselor, gain self-esteem by playing football together.", "poster_path": "/8UlDsCPjAfg15L5Sgkcmy8rv1rg.jpg", "release_date": "2006-09-15", "title": "Gridiron Gang", "video": false, "vote_average": 6.7, "vote_count": 431, "popularity": 10.994}, {"id": 60308, "video": false, "vote_count": 2517, "vote_average": 7.2, "title": "Moneyball", "release_date": "2011-09-22", "original_language": "en", "original_title": "Moneyball", "genre_ids": [18], "backdrop_path": "/T9a9Q6Pin6Pra7dNMwWzAibxkk.jpg", "adult": false, "overview": "The story of Oakland Athletics general manager Billy Beane's successful attempt to put together a baseball team on a budget, by employing computer-generated analysis to draft his players.", "poster_path": "/3oAa8mJJ97CH9AeGEY6vjAxqcvZ.jpg", "popularity": 16.975}, {"adult": false, "backdrop_path": "/3fcBsj9JMQQ27Wuk3LVrEwVZ2VT.jpg", "genre_ids": [28, 18], "id": 323677, "original_language": "en", "original_title": "Race", "overview": "Based on the story of Jesse Owens, the athlete whose quest to become the greatest track and field athlete in history thrusts him onto the world stage of the 1936 Olympics, where he faces off against Adolf Hitler's vision of Aryan supremacy.", "poster_path": "/szLfTQ2vLFQkNbP3dc0pnco1rje.jpg", "release_date": "2016-02-19", "title": "Race", "video": false, "vote_average": 7.3, "vote_count": 989, "popularity": 11.176}, {"adult": false, "backdrop_path": "/20IgqkdFw5kuItqDCJtidSESP0t.jpg", "genre_ids": [27, 18], "id": 10066, "original_language": "en", "original_title": "House of Wax", "overview": "A group of unwitting teens are stranded near a strange wax museum and soon must fight to survive and keep from becoming the next exhibit.", "poster_path": "/uM1RebQywM5PPYsauayefpXGxVk.jpg", "release_date": "2005-04-30", "title": "House of Wax", "video": false, "vote_average": 5.7, "vote_count": 1532, "popularity": 16.398}, {"adult": false, "backdrop_path": "/w41zFKYTsq4wf5QnQJWMXuzWl2F.jpg", "genre_ids": [18, 28], "id": 96721, "original_language": "en", "original_title": "Rush", "overview": "A biographical drama centered on the rivalry between Formula 1 drivers James Hunt and Niki Lauda during the 1976 Formula One motor-racing season.", "poster_path": "/cjEepHZOZAwmK6nAj5jis6HV75E.jpg", "release_date": "2013-09-02", "title": "Rush", "video": false, "vote_average": 7.7, "vote_count": 4276, "popularity": 17.673}, {"id": 1375, "video": false, "vote_count": 1670, "vote_average": 5.6, "title": "Rocky V", "release_date": "1990-10-18", "original_language": "en", "original_title": "Rocky V", "genre_ids": [18], "backdrop_path": "/dr5pdEDOdCvelCQqP32UZubiSgE.jpg", "adult": false, "overview": "A lifetime of taking shots has ended Rocky\u2019s career, and a crooked accountant has left him broke. Inspired by the memory of his trainer, however, Rocky finds glory in training and takes on an up-and-coming boxer.", "poster_path": "/5P2RiuLt31mWyb6duww8qlAhs6G.jpg", "popularity": 22.518}, {"id": 70006, "video": false, "vote_count": 288, "vote_average": 6.1, "title": "Never Back Down 2: The Beatdown", "release_date": "2011-09-13", "original_language": "en", "original_title": "Never Back Down 2: The Beatdown", "genre_ids": [28, 18], "backdrop_path": "/lSFqtjxMfAHa58TBDDBELKeq2DH.jpg", "adult": false, "overview": "Four fighters different backgrounds come together to train under an ex MMA rising star and then ultimately have to fight each other and the traitor in heir midst.", "poster_path": "/qeISu4rUk9l9sQTMs86fAoxSx8p.jpg", "popularity": 15.641}, {"id": 391757, "video": false, "vote_count": 185, "vote_average": 6.5, "title": "Never Back Down: No Surrender", "release_date": "2016-06-07", "original_language": "en", "original_title": "Never Back Down: No Surrender", "genre_ids": [28, 18], "backdrop_path": "/pzjnObK3uiHcKwiir9OPPWzbW8f.jpg", "adult": false, "overview": "Picking up after the events of Never Back Down 2, former MMA champion Case Walker is on the comeback trail to become champion once again.", "poster_path": "/dYNS4o4Q4DDLiKRAAvZ9KcrhHuy.jpg", "popularity": 16.224}, {"id": 396371, "video": false, "vote_count": 1968, "vote_average": 7.1, "title": "Molly's Game", "release_date": "2017-12-25", "original_language": "en", "original_title": "Molly's Game", "genre_ids": [80, 18], "backdrop_path": "/rHcBZ6ZKCe4FalWHyvBGsyMsh0k.jpg", "adult": false, "overview": "Molly Bloom, a young skier and former Olympic hopeful becomes a successful entrepreneur (and a target of an FBI investigation) when she establishes a high-stakes, international poker game.", "poster_path": "/in43bQ7k0ttr666IPP94IlbQbTR.jpg", "popularity": 18.118}, {"id": 107, "video": false, "vote_count": 5247, "vote_average": 7.8, "title": "Snatch", "release_date": "2000-09-01", "original_language": "en", "original_title": "Snatch", "genre_ids": [80, 53], "backdrop_path": "/cNLZ7YGRikb4IsLblrzu86ndZPw.jpg", "adult": false, "overview": "The second film from British director Guy Ritchie. Snatch tells an obscure story similar to his first fast-paced crazy character-colliding filled film \u201cLock, Stock and Two Smoking Barrels.\u201d There are two overlapping stories here \u2013 one is the search for a stolen diamond, and the other about a boxing promoter who\u2019s having trouble with a psychotic gangster.", "poster_path": "/on9JlbGEccLsYkjeEph2Whm1DIp.jpg", "popularity": 25.36}, {"id": 312221, "video": false, "vote_count": 4400, "vote_average": 7.4, "title": "Creed", "release_date": "2015-11-25", "original_language": "en", "original_title": "Creed", "genre_ids": [18], "backdrop_path": "/fs2yhdSCzMVlNECrN84WuCkgXov.jpg", "adult": false, "overview": "The former World Heavyweight Champion Rocky Balboa serves as a trainer and mentor to Adonis Johnson, the son of his late friend and former rival Apollo Creed.", "poster_path": "/hKzhV274pkZBSpXfCjUyzbyYKLl.jpg", "popularity": 17.551}], "total_pages": 182, "total_results": 3632}, "recommendations": {"page": 1, "results": [], "total_pages": 1, "total_results": 0}, "credits": {"cast": [{"cast_id": 4, "character": "Mike Shelley", "credit_id": "53478d0bc3a368672b000bbd", "gender": 2, "id": 51377, "name": "David Janssen", "order": 0, "profile_path": "/xJTcnw9X76FWkfB596qR2dIUOp7.jpg"}, {"cast_id": 5, "character": "Joyce", "credit_id": "53478d17c3a3686723000b86", "gender": 1, "id": 4098, "name": "Edie Adams", "order": 1, "profile_path": "/nR9nzWhHMZeRrk5EeJhOVhxILbk.jpg"}, {"cast_id": 6, "character": "P.K. Jackson", "credit_id": "53478d2ec3a3686723000b89", "gender": 2, "id": 155465, "name": "Clifton Davis", "order": 2, "profile_path": "/4MGjuTMpRmHPJUDzX81ycKxQzNn.jpg"}, {"cast_id": 7, "character": "Doug Collins", "credit_id": "53478d46c3a368672b000bc3", "gender": 2, "id": 152647, "name": "Peter Haskell", "order": 3, "profile_path": "/3RNGnjaZyxbt3kIgHrxekjw4G3c.jpg"}, {"cast_id": 8, "character": "Dave Walecki", "credit_id": "53478d58c3a368670b000af0", "gender": 2, "id": 18328, "name": "Ken Howard", "order": 4, "profile_path": "/uS0ad3oElzhCBBseeY7i6lR0K1q.jpg"}, {"cast_id": 10, "character": "Nancy Walecki", "credit_id": "53ab67afc3a3684bb9000798", "gender": 1, "id": 160524, "name": "Susan Howard", "order": 5, "profile_path": "/qk2pYrsVajYOcPPsevxiF4L3MI3.jpg"}, {"cast_id": 11, "character": "Chip Green", "credit_id": "53ab67d6c3a3684bc8000721", "gender": 2, "id": 37446, "name": "Van Johnson", "order": 6, "profile_path": "/fVhWeeytSzeasZzOWG0KXOhMsiF.jpg"}, {"cast_id": 12, "character": "Sonny", "credit_id": "53ab67edc3a3684bbf0007b6", "gender": 1, "id": 6780, "name": "Vonetta McGee", "order": 7, "profile_path": "/uz9JHawFEhIRiyNVFmABQ5l1C8S.jpg"}, {"cast_id": 13, "character": "Lainie Wiley", "credit_id": "53ab687bc3a3684bb90007b0", "gender": 1, "id": 50234, "name": "Donna Mills", "order": 8, "profile_path": "/iG7dS1PrYnO7bOpaakG2NBcinWQ.jpg"}, {"cast_id": 14, "character": "George Beldridge", "credit_id": "53ab68b6c3a3684bcf0007a4", "gender": 2, "id": 89040, "name": "Ed Nelson", "order": 9, "profile_path": "/RxxXeybdcHGQ6iZRrsXeqVapr7.jpg"}, {"cast_id": 15, "character": "Fay Bonelli", "credit_id": "53ab68cbc3a3684bbc000796", "gender": 1, "id": 2021, "name": "Jane Wyatt", "order": 10, "profile_path": "/blYpLJKupFFi6QKqfMWJvN2hkpn.jpg"}, {"cast_id": 9, "character": "Jim McCauley", "credit_id": "53478d73c3a368672d000bc7", "gender": 2, "id": 15112, "name": "Tom Selleck", "order": 11, "profile_path": "/jCnmP0qYpCwWdVlZM4j9VNugmTj.jpg"}, {"cast_id": 16, "character": "Gail Green", "credit_id": "53ab6923c3a3684bc50007d8", "gender": 1, "id": 106762, "name": "Robin Mattson", "order": 12, "profile_path": "/xtzG9lCLAFkOqkC6RveQAgBePRD.jpg"}, {"cast_id": 17, "character": "Peter Brooks", "credit_id": "53ab69b9c3a3684bc20007a2", "gender": 1, "id": 161366, "name": "Shelly Novack", "order": 13, "profile_path": null}, {"cast_id": 18, "character": "Moses Gordine", "credit_id": "53ab69cfc3a3684bc20007a6", "gender": 2, "id": 57349, "name": "Bubba Smith", "order": 14, "profile_path": "/2T5nQh0xQZfpJOcQGN9PKqCJgK.jpg"}, {"cast_id": 19, "character": "Scott Hennerson", "credit_id": "53ab69dfc3a3684bc800076b", "gender": 2, "id": 94783, "name": "Dick Butkus", "order": 15, "profile_path": "/eF8Bg3YPzJw9DH1B3QlAJfdsZgH.jpg"}, {"cast_id": 20, "character": "Tony Sicota", "credit_id": "53ab69f4c3a3684bbf0007f6", "gender": 2, "id": 15993, "name": "Michael Pataki", "order": 16, "profile_path": "/bwkT9HQr1HkGBToA1Mz4ej2F6Ra.jpg"}, {"cast_id": 21, "character": "Whitley", "credit_id": "53ab6a07c3a3684bbf0007fc", "gender": 2, "id": 588, "name": "M. Emmet Walsh", "order": 17, "profile_path": "/dLf79xlsmE40rog0gryjxsZJzml.jpg"}], "crew": [{"credit_id": "53478c76c3a368671c000b00", "department": "Directing", "gender": 2, "id": 52094, "job": "Director", "name": "Jerry Jameson", "profile_path": null}, {"credit_id": "53478c89c3a368672d000bae", "department": "Writing", "gender": 2, "id": 153743, "job": "Writer", "name": "Barry Oringer", "profile_path": null}, {"credit_id": "53478c95c3a3686704000b46", "department": "Writing", "gender": 2, "id": 153743, "job": "Story", "name": "Barry Oringer", "profile_path": null}, {"credit_id": "53478ca8c3a368670b000ae3", "department": "Writing", "gender": 0, "id": 195858, "job": "Story", "name": "Bill Svanoe", "profile_path": null}, {"credit_id": "53ab6b27c3a3684bb9000823", "department": "Production", "gender": 0, "id": 52100, "job": "Producer", "name": "William Frye", "profile_path": null}]}}