{"adult": false, "backdrop_path": "/BsJM9jTU0MPiNdQ0FZUwcEYtPz.jpg", "belongs_to_collection": null, "budget": 0, "genres": [{"id": 27, "name": "Horror"}, {"id": 53, "name": "Thriller"}, {"id": 9648, "name": "Mystery"}], "homepage": null, "id": 264269, "imdb_id": "tt2400314", "original_language": "ru", "original_title": "Vladeniye 18", "overview": "Sveta and Maxim, a happy newlyweds, are moving to their hew apartment only to discover that there is something mysterious and wrong about their new building.", "popularity": 1.028, "poster_path": "/aU51pWVHtLVsFOJA88Gp7F5l1CY.jpg", "production_companies": [{"id": 21946, "logo_path": null, "name": "Lyuksor", "origin_country": ""}], "production_countries": [{"iso_3166_1": "RU", "name": "Russia"}], "release_date": "2014-03-13", "revenue": 320395, "runtime": 90, "spoken_languages": [{"iso_639_1": "ru", "name": "P\u0443\u0441\u0441\u043a\u0438\u0439"}], "status": "Released", "tagline": "", "title": "Apartment 18", "video": false, "vote_average": 5.0, "vote_count": 11, "keywords": {"keywords": [{"id": 162846, "name": "ghost"}]}, "similar": {"page": 1, "results": [{"adult": false, "backdrop_path": "/zZAJke7HMmQfc52L1AzvQkmMR3e.jpg", "genre_ids": [53, 27, 18], "id": 288158, "original_language": "en", "original_title": "The Woman in Black 2: Angel of Death", "overview": "40 years after the first haunting at Eel Marsh House, a group of children evacuated from WWII London arrive, awakening the house's darkest inhabitant.", "poster_path": "/kzWRtyMtazWA22LJXA64KKZ3slY.jpg", "release_date": "2014-12-30", "title": "The Woman in Black 2: Angel of Death", "video": false, "vote_average": 5.1, "vote_count": 681, "popularity": 9.114}, {"adult": false, "backdrop_path": "/kQOLgJGvFjQ7EwGfaPkW9dlGFXJ.jpg", "genre_ids": [27, 9648], "id": 565, "original_language": "en", "original_title": "The Ring", "overview": "It sounded like just another urban legend: A videotape filled with nightmarish images, leading to a phone call foretelling the viewer's death in exactly seven days. As a newspaper reporter, Rachel Keller was naturally skeptical of the story, until four teenagers all met with mysterious deaths exactly one week after watching just such a tape. Allowing her investigative curiosity to get the better of her, Rachel tracks down the video... and watches it. Now she has just seven days to unravel the mystery of the Ring.", "poster_path": "/zHJFdhqEXZJxG653oZvOM3PmNON.jpg", "release_date": "2002-10-18", "title": "The Ring", "video": false, "vote_average": 6.6, "vote_count": 3616, "popularity": 12.821}, {"id": 493922, "video": false, "vote_count": 3302, "vote_average": 7.1, "title": "Hereditary", "release_date": "2018-06-07", "original_language": "en", "original_title": "Hereditary", "genre_ids": [27, 9648, 53], "backdrop_path": "/4DUoPZOHdPuROP4nyEIsPaMIiQl.jpg", "adult": false, "overview": "When Ellen, the matriarch of the Graham family, passes away, her daughter\u2019s family begins to unravel cryptic and increasingly terrifying secrets about their ancestry.", "poster_path": "/lHV8HHlhwNup2VbpiACtlKzaGIQ.jpg", "popularity": 26.426}, {"id": 10014, "video": false, "vote_count": 874, "vote_average": 5.8, "title": "A Nightmare on Elm Street Part 2: Freddy's Revenge", "release_date": "1985-10-31", "original_language": "en", "original_title": "A Nightmare on Elm Street Part 2: Freddy's Revenge", "genre_ids": [27], "backdrop_path": "/tJTrNDt1242xe4zlatlZfDMvWjg.jpg", "adult": false, "overview": "A new family moves into the house on Elm Street, and before long, the kids are again having nightmares about deceased child murderer Freddy Krueger. This time, Freddy attempts to possess a teenage boy to cause havoc in the real world, and can only be overcome if the boy's sweetheart can master her fear.", "poster_path": "/seEMZxo6bhHWbWPNcBQfsMAk39F.jpg", "popularity": 16.661}, {"adult": false, "backdrop_path": "/59baGxEztxeXW1oFjs8EBgXxTXk.jpg", "genre_ids": [27, 53], "id": 91586, "original_language": "en", "original_title": "Insidious: Chapter 2", "overview": "The haunted Lambert family seeks to uncover the mysterious childhood secret that has left them dangerously connected to the spirit world.", "poster_path": "/vmWgw1Lsc6bHThA6S2k8fPsROaI.jpg", "release_date": "2013-09-12", "title": "Insidious: Chapter 2", "video": false, "vote_average": 6.6, "vote_count": 2515, "popularity": 21.591}, {"adult": false, "backdrop_path": "/yjorFsCy0DsSiK0HwABu0SHQv1P.jpg", "genre_ids": [27], "id": 157547, "original_language": "en", "original_title": "Oculus", "overview": "A woman tries to exonerate her brother's murder conviction by proving that the crime was committed by a supernatural phenomenon.", "poster_path": "/ic8C94ylSfcoLkXqPOKzL6DqPcH.jpg", "release_date": "2014-04-03", "title": "Oculus", "video": false, "vote_average": 6.4, "vote_count": 1917, "popularity": 11.973}, {"id": 11449, "video": false, "vote_count": 379, "vote_average": 6.3, "title": "The Amityville Horror", "release_date": "1979-07-26", "original_language": "en", "original_title": "The Amityville Horror", "genre_ids": [27], "backdrop_path": "/s2z4t3y5gvFKId09smKOUq8I8gK.jpg", "adult": false, "overview": "George Lutz and his wife Kathleen, move into their Long Island dream house with their children only for their lives to be turned into a hellish nightmare. The legacy of a murder committed in the house gradually affects the family and a priest is brought in to try and exorcise the demonic presence from their home.", "poster_path": "/40qxeGWf39Ho2lkWZjqZpz9XgKm.jpg", "popularity": 11.77}, {"id": 620, "video": false, "vote_count": 5187, "vote_average": 7.4, "title": "Ghostbusters", "release_date": "1984-06-08", "original_language": "en", "original_title": "Ghostbusters", "genre_ids": [35, 14], "backdrop_path": "/qmDy6Rdom8d8UFj9GeAAtVIjTRT.jpg", "adult": false, "overview": "After losing their academic posts at a prestigious university, a team of parapsychologists goes into business as proton-pack-toting \"ghostbusters\" who exterminate ghouls, hobgoblins and supernatural pests of all stripes. An ad campaign pays off when a knockout cellist hires the squad to purge her swanky digs of demons that appear to be living in her refrigerator.", "poster_path": "/3FS3oBdorgczgfCkFi2u8ZTFfpS.jpg", "popularity": 24.995}, {"id": 4011, "video": false, "vote_count": 3507, "vote_average": 7.3, "title": "Beetlejuice", "release_date": "1988-02-29", "original_language": "en", "original_title": "Beetlejuice", "genre_ids": [35, 14], "backdrop_path": "/upAwc1kPQJU1ZWeMgEWV8Lp6CWb.jpg", "adult": false, "overview": "Thanks to an untimely demise via drowning, a young couple end up as poltergeists in their New England farmhouse, where they fail to meet the challenge of scaring away the insufferable new owners, who want to make drastic changes. In desperation, the undead newlyweds turn to an expert frightmeister, but he's got a diabolical agenda of his own.", "poster_path": "/gWnW7vxm8yr01TVLQhL4aI02orp.jpg", "popularity": 34.958}, {"adult": false, "backdrop_path": "/97vocRyj35cdKwCpK4ZEfb7oFZm.jpg", "genre_ids": [27, 53], "id": 77949, "original_language": "en", "original_title": "The Awakening", "overview": "1921 England is overwhelmed by the loss and grief of World War I. Hoax exposer Florence Cathcart (Hall) visits a boarding school to explain sightings of a child ghost.", "poster_path": "/1iIB1eR9pFxoOdAp4FhPCYwQ1TA.jpg", "release_date": "2011-08-17", "title": "The Awakening", "video": false, "vote_average": 6.4, "vote_count": 868, "popularity": 15.354}, {"id": 234212, "video": false, "vote_count": 288, "vote_average": 5.2, "title": "Demonic", "release_date": "2015-02-12", "original_language": "en", "original_title": "Demonic", "genre_ids": [27, 53], "backdrop_path": "/mgGQbf8trfPw7VVI2WmD8svPO7Y.jpg", "adult": false, "overview": "A police officer and a psychologist investigate the deaths of five people who were killed while trying to summon ghosts.", "poster_path": "/9pzzhnrLuPJXX2JpqSTZHrrbIhd.jpg", "popularity": 10.16}, {"adult": false, "backdrop_path": "/qWNFwjDJOMDOnx5JRQSA6xqiTQP.jpg", "genre_ids": [27, 53], "id": 335796, "original_language": "en", "original_title": "Ouija: Origin of Evil", "overview": "In 1965 Los Angeles, a widowed mother and her two daughters add a new stunt to bolster their s\u00e9ance scam business and unwittingly invite authentic evil into their home. When the youngest daughter is overtaken by the merciless spirit, this small family confronts unthinkable fears to save her and send her possessor back to the other side.", "poster_path": "/pzhGcMGuOxxnq9ePtQPY80Wp0BG.jpg", "release_date": "2016-10-20", "title": "Ouija: Origin of Evil", "video": false, "vote_average": 6.0, "vote_count": 1566, "popularity": 15.879}, {"adult": false, "backdrop_path": "/46q5jQbgEOUXsxheIx1KM4hlGO8.jpg", "genre_ids": [27, 53], "id": 79694, "original_language": "en", "original_title": "The Apparition", "overview": "Plagued by frightening occurrences in their home, Kelly and Ben learn that a university's parapsychology experiment produced an entity that is now haunting them. The malevolent spirit feeds on fear and torments the couple no matter where they run. Desperate, Kelly and Ben turn to a paranormal researcher, but even with his aid, it may already be too late to save themselves from the terrifying presence.", "poster_path": "/qEHx7H3Gvt1zYM1AyitTA8c2XOH.jpg", "release_date": "2012-08-23", "title": "The Apparition", "video": false, "vote_average": 4.3, "vote_count": 249, "popularity": 9.062}, {"id": 416234, "video": false, "vote_count": 1007, "vote_average": 5.8, "title": "Winchester", "release_date": "2018-02-02", "original_language": "en", "original_title": "Winchester", "genre_ids": [14, 27, 9648, 53], "backdrop_path": "/d4wnMDSrQonB9iArMzd90WqaoJ4.jpg", "adult": false, "overview": "San Jose, California, 1906. Isolated in her labyrinthine mansion, eccentric firearm heiress Sarah Winchester believes that she is being haunted by the souls of those killed by the guns manufactured by her company.", "poster_path": "/tHDtskokZeO9B3JBdR1dSH0uqad.jpg", "popularity": 13.27}, {"adult": false, "backdrop_path": "/w8jINuXklxghTAHNxt0NQYaAN1C.jpg", "genre_ids": [27], "id": 242512, "original_language": "en", "original_title": "Ouija", "overview": "A group of friends must confront their most terrifying fears when they awaken the dark powers of an ancient spirit board.", "poster_path": "/vHTXN00kJktCbSLV50Vbk9siNiX.jpg", "release_date": "2014-10-24", "title": "Ouija", "video": false, "vote_average": 5.1, "vote_count": 1835, "popularity": 21.913}, {"adult": false, "backdrop_path": "/3uwyXMZN93PRkShUxvLrufwVAc2.jpg", "genre_ids": [80, 18, 27, 9648, 53], "id": 452507, "original_language": "en", "original_title": "1922", "overview": "A simple yet proud rancher conspires to murder his wife for financial gain, convincing his teenage son to participate.", "poster_path": "/q4FQOiSRhTLWulHl5Vpg37FMArH.jpg", "release_date": "2017-10-20", "title": "1922", "video": false, "vote_average": 5.9, "vote_count": 1491, "popularity": 14.757}, {"id": 625719, "video": false, "vote_count": 1, "vote_average": 3.0, "title": "Martin's Close", "release_date": "2019-12-24", "original_language": "en", "original_title": "Martin's Close", "genre_ids": [27, 10770], "backdrop_path": "/gcccicGB2eKpE8K50wGXa9GJY3M.jpg", "adult": false, "overview": "Part of the long running tradition of 'A Ghost Story For Christmas' on BBC Four in the UK, and the third instalment presented by Mark Gatiss. A young squire accused of murdering a young girl that did not return his feelings of love reveals a supernatural secret at his trial.", "poster_path": "/ArhYVKnfILuWERuUyuvWJd1jqRm.jpg", "popularity": 6.706}, {"id": 448095, "video": false, "vote_count": 308, "vote_average": 6.8, "title": "I Still See You", "release_date": "2018-09-27", "original_language": "en", "original_title": "I Still See You", "genre_ids": [14, 53], "backdrop_path": "/7rqpB7coXaNvTVMWb5vL8qU0pBp.jpg", "adult": false, "overview": "A spellbinding and romantic supernatural thriller. Ten years after an apocalyptic event left the world haunted by ghosts, Roni receives a threatening message from beyond the grave. Joining forces with a mysterious classmate, Kirk, Roni descends into a shadow world that blurs the bounds of the living and the dead-and begins a desperate race against time to stop a cunning killer.", "poster_path": "/9fqzZs922V8OmwgO11Eqclof2mQ.jpg", "popularity": 16.612}, {"adult": false, "backdrop_path": "/2F8cwDiU43qYYmRVCyv2Lx5E36C.jpg", "genre_ids": [14, 18], "id": 13188, "original_language": "en", "original_title": "Scrooge", "overview": "Ebenezer Scrooge (Alastair Sim) malcontentedly shuffles through life as a cruel miserly businessman until one fateful Christmas Eve when he is visited by three spirits, sent show him how his unhappy childhood and maladaptive adult behavior over has let him a selfish, lonely, bitter old man.  Released in the USA as \"A Christmas Carol\".", "poster_path": "/vIgQuTnJljMIwzdM94D3rnIgzlx.jpg", "release_date": "1951-11-28", "title": "Scrooge", "video": false, "vote_average": 7.5, "vote_count": 139, "popularity": 10.803}, {"adult": false, "backdrop_path": "/hgn5SrO9lRh6yRkoubBH9x1NqHm.jpg", "genre_ids": [27, 53], "id": 416160, "original_language": "en", "original_title": "The Vault", "overview": "Two estranged sisters are forced to rob a bank in order to save their brother. But this is no ordinary bank.", "poster_path": "/ycK6nMAEjViBT4b3scuKpNRnilB.jpg", "release_date": "2017-09-01", "title": "The Vault", "video": false, "vote_average": 4.8, "vote_count": 221, "popularity": 13.994}], "total_pages": 91, "total_results": 1801}, "recommendations": {"page": 1, "results": [{"adult": false, "backdrop_path": "/uGoDrBILZcQLd3Owe2Z7ByDFlvM.jpg", "genre_ids": [53, 18], "id": 363846, "original_language": "ru", "original_title": "\u0420\u043e\u0434\u0438\u043d\u0430", "overview": "Igor, a Russian oligarch gets into a heated argument with Eva, his estranged daughter whilst traveling on his private jet. Igor orders the plane to land. As the plane touches down Eva disappears into the Goan jungle. Thus begins Igor's desperate search for his only daughter. A search that will bring him and Eva into contact with various characters who in turn are trying to find their own paths through life. Makar, a guy from Novosibirsk, who is desperately searching for enlightenment. Alexey and Kristina are ending their marriage here, while Dimon and Lenya are raising hell and pushing Goa to its partying limits. Kosmos the Guru (\"just don't call him that\") dispenses the chemicals that in a bat of an eyelid will take you to an alternate reality. There are different destinies here. There are a myriad of people. But all of them have one Motherland, which is easy not to love as long it is close to you", "poster_path": "/8xJzAv8w3vj1HQLJQW66419wqsL.jpg", "release_date": "2015-10-15", "title": "Motherland", "video": false, "vote_average": 4.0, "vote_count": 4, "popularity": 1.995}, {"adult": false, "backdrop_path": "/1I7Z8kux3bhWy5AzN5zenPNeehI.jpg", "genre_ids": [18], "id": 262733, "original_language": "en", "original_title": "Dubrovskiy", "overview": "A modern take on the classic novel by Alexander Pushkin. Vladimir is a successful banker and a regular at trendy night clubs. Masha is a diligent graduate of a British college and a loving daughter. It looks like they have bright future ahead. However, an unexpected quarrel between two eccentric fathers forces their offspring to live through the conflict of Pushkin's novel.", "poster_path": "/uGnYPQbm5U4KMh9lPnZepJ5NDHy.jpg", "release_date": "2014-03-06", "title": "Dubrovskiy", "video": false, "vote_average": 5.3, "vote_count": 10, "popularity": 2.883}, {"adult": false, "backdrop_path": "/i2UNpvhf9hEgB1Hfv3EUk2SX4p2.jpg", "genre_ids": [35, 10749], "id": 28709, "original_language": "en", "original_title": "Nevesta Lyuboy Tsenoy", "overview": "Businessman Staskin need to provide to himself an alibi which should be a bride - and at any cost.", "poster_path": "/1Bc2OJHQJKFbetIAbcV1PXNlbCS.jpg", "release_date": "2009-09-17", "title": "Bride at any Cost", "video": false, "vote_average": 4.5, "vote_count": 7, "popularity": 2.639}, {"adult": false, "backdrop_path": "/riBj1sxizmuoQRn6bknNtyTkrHu.jpg", "genre_ids": [35], "id": 179690, "original_language": "ru", "original_title": "\u0427\u0442\u043e \u0442\u0432\u043e\u0440\u044f\u0442 \u043c\u0443\u0436\u0447\u0438\u043d\u044b!", "overview": "Four friends decide to participate in the game organized by extravagant billionaire. The winner will be the one who seduces most girls during the competition.", "poster_path": "/y0Px1at20olsHqv28g1jpUJcPLw.jpg", "release_date": "2013-02-27", "title": "What Men Do!", "video": false, "vote_average": 3.4, "vote_count": 9, "popularity": 3.519}, {"adult": false, "backdrop_path": "/vLa106fLVj87OJVahCmkbjWfxQ7.jpg", "genre_ids": [28, 878], "id": 37656, "original_language": "ru", "original_title": "\u041d\u0430 \u0438\u0433\u0440\u0435", "overview": "After a stunning victory at a cyber sport tournament, the winning gamers are awarded CDs with a brand new game. After playing this game, each of them is affected with some force, turning their gaming abilities into real ones. They each become the best fighters, shooters and racers in real life. However, this does not go unnoticed. Through blackmail, cheating and bribes, authorities offer the gamers a \"job\". But as soon as the lies are revealed it becomes clear that they are not heroes saving their country but nothing more than paid assassins. Moreover, the producer of the game is keeping many more of the same CDs, so many more \"heroes\" like themselves could also be produced. Now the gamers have to find the CDs and either destroy them or create an army of gamers and rule over all. The team becomes divided into two, each pitted against the other", "poster_path": "/lmOlhTvQIcaT6XAb4MNIasb0B9K.jpg", "release_date": "2009-11-26", "title": "Hooked on the Game", "video": false, "vote_average": 6.3, "vote_count": 28, "popularity": 3.513}], "total_pages": 1, "total_results": 5}, "credits": {"cast": [{"cast_id": 0, "character": "", "credit_id": "5348f9410e0a266b3b001013", "gender": 1, "id": 1309267, "name": "Mariya Fomina", "order": 1, "profile_path": "/hQ4YM40kFTE1Spclz7teSyRR1dD.jpg"}, {"cast_id": 1, "character": "", "credit_id": "5348fafec3a3684bbb000f56", "gender": 0, "id": 1309268, "name": "Dmitri Yendaltsev", "order": 2, "profile_path": "/s0dI4KFgMwjtbiErVGkVAKhYSAO.jpg"}, {"cast_id": 4, "character": "", "credit_id": "53516ba20e0a2656060015b7", "gender": 0, "id": 1311033, "name": "Boris Polunin", "order": 3, "profile_path": null}, {"cast_id": 5, "character": "", "credit_id": "53516bad0e0a2656030016fc", "gender": 0, "id": 1311034, "name": "Viktoriya Raykova", "order": 4, "profile_path": null}], "crew": [{"credit_id": "53516b7d0e0a2656030016f5", "department": "Directing", "gender": 2, "id": 1311031, "job": "Director", "name": "Svyatoslav Podgaevsky", "profile_path": "/lFJyhIp5960Urn1MmJ7eW8G7p4k.jpg"}, {"credit_id": "5ac9d89f0e0a264965058ed5", "department": "Editing", "gender": 2, "id": 1311031, "job": "Editor", "name": "Svyatoslav Podgaevsky", "profile_path": "/lFJyhIp5960Urn1MmJ7eW8G7p4k.jpg"}, {"credit_id": "53516b890e0a2655fe001604", "department": "Writing", "gender": 0, "id": 1311032, "job": "Writer", "name": "Dmitriy Besin", "profile_path": null}, {"credit_id": "5ac9e0d992514162b40547dd", "department": "Production", "gender": 2, "id": 2018532, "job": "Producer", "name": "Stanislav Grachev", "profile_path": "/pSA2CB0bSz0doACn7ZDZ52sneSU.jpg"}]}}