{"adult": false, "backdrop_path": "/6Xd2pTIkoQj5en6lciOFibCmmEh.jpg", "belongs_to_collection": null, "budget": 0, "genres": [{"id": 53, "name": "Thriller"}, {"id": 10770, "name": "TV Movie"}], "homepage": null, "id": 264760, "imdb_id": "tt3234196", "original_language": "es", "original_title": "Deadly Revenge", "overview": "Charming LA architect Harrison, also a great cook and lover, gets engaged to Cate, a San Francisco landscape architect he meets while collaborating on a major project, after they get locked in by a malfunctioning elevator. She moves to LA for him and volunteers, while he's on mission in Tokyo, to mind his widowed mother Evelyn, still a major force in his life. However Cate gets paranoid when feeling weak and hearing rumors that his former girlfriend disappeared mysteriously years earlier, even cancels the engagement. Then the truth gets out, clearing Harrison and uncovering a lurking danger.", "popularity": 1.86, "poster_path": "/9ZTEwjiyWcWkZenPyWW9tqZViif.jpg", "production_companies": [{"id": 10377, "logo_path": null, "name": "Feifer Worldwide", "origin_country": "US"}], "production_countries": [{"iso_3166_1": "US", "name": "United States of America"}], "release_date": "2013-12-15", "revenue": 0, "runtime": null, "spoken_languages": [{"iso_639_1": "en", "name": "English"}], "status": "Released", "tagline": "", "title": "Deadly Revenge", "video": false, "vote_average": 2.5, "vote_count": 4, "keywords": {"keywords": [{"id": 351, "name": "poison"}, {"id": 8181, "name": "swimming pool"}, {"id": 9989, "name": "gift"}, {"id": 40917, "name": "in-laws"}, {"id": 190433, "name": "medical examination"}]}, "similar": {"page": 1, "results": [{"adult": false, "backdrop_path": "/kSTvteM3ekuoeO7u7GJtZQkZuom.jpg", "genre_ids": [28, 53, 80], "id": 1948, "original_language": "en", "original_title": "Crank", "overview": "Professional assassin Chev Chelios learns his rival has injected him with a poison that will kill him if his heart rate drops.", "poster_path": "/6RnD3Zfh0tO0cD2vroWyH0F98Ej.jpg", "release_date": "2006-08-31", "title": "Crank", "video": false, "vote_average": 6.6, "vote_count": 2121, "popularity": 21.613}, {"adult": false, "backdrop_path": "/fLMv873bBAvrCtzeAbRVjb4Mi9Y.jpg", "genre_ids": [28, 53, 80], "id": 27582, "original_language": "en", "original_title": "The Mechanic", "overview": "Arthur Bishop is a 'mechanic' - an elite assassin with a strict code and unique talent for cleanly eliminating targets. It's a job that requires professional perfection and total detachment, and Bishop is the best in the business. But when he is ordered to take out his mentor and close friend Harry, Bishop is anything but detached.", "poster_path": "/eScKoGnjaUvGD2OkK3DImyzfVkt.jpg", "release_date": "2011-01-13", "title": "The Mechanic", "video": false, "vote_average": 6.3, "vote_count": 1857, "popularity": 20.52}, {"adult": false, "backdrop_path": "/h45LDCoPWmFMTTb7taGhOPBIGKJ.jpg", "genre_ids": [878, 53], "id": 476926, "original_language": "en", "original_title": "The Titan", "overview": "On a bleak future Earth, a soldier endures a radical genetic transformation to save humanity. But his wife fears he's becoming more creature than man.", "poster_path": "/qRmQazyIBZR4pQIk9VruiZul0Au.jpg", "release_date": "2018-03-30", "title": "The Titan", "video": false, "vote_average": 5.3, "vote_count": 735, "popularity": 12.307}, {"adult": false, "backdrop_path": "/t3OZS8yMs0NL4YgWWc04eXHTn1X.jpg", "genre_ids": [28, 80, 53], "id": 984, "original_language": "en", "original_title": "Dirty Harry", "overview": "When a madman dubbed 'Scorpio' terrorizes San Francisco, hard-nosed cop, Harry Callahan \u2013 famous for his take-no-prisoners approach to law enforcement \u2013 is tasked with hunting down the psychopath. Harry eventually collars Scorpio in the process of rescuing a kidnap victim, only to see him walk on technicalities. Now, the maverick detective is determined to nail the maniac himself.", "poster_path": "/2TADKc4GMMPdMrLXj0xJVgTvZJM.jpg", "release_date": "1971-12-21", "title": "Dirty Harry", "video": false, "vote_average": 7.5, "vote_count": 1173, "popularity": 18.839}, {"adult": false, "backdrop_path": "/pOjPWFIBlHtyNsivnzg2X6bC8JB.jpg", "genre_ids": [53, 9648, 18], "id": 328425, "original_language": "en", "original_title": "The Gift", "overview": "A husband and wife try to reinvigorate their relationship but their lives are threatened by a \"friend\" from the husband's past who holds a horrifying secret about him, sending their world into a tailspin.", "poster_path": "/chrYVlwpBjlYM80w4bQDZzfNQZf.jpg", "release_date": "2015-07-30", "title": "The Gift", "video": false, "vote_average": 6.7, "vote_count": 1973, "popularity": 16.474}, {"adult": false, "backdrop_path": "/w8jINuXklxghTAHNxt0NQYaAN1C.jpg", "genre_ids": [27], "id": 242512, "original_language": "en", "original_title": "Ouija", "overview": "A group of friends must confront their most terrifying fears when they awaken the dark powers of an ancient spirit board.", "poster_path": "/vHTXN00kJktCbSLV50Vbk9siNiX.jpg", "release_date": "2014-10-24", "title": "Ouija", "video": false, "vote_average": 5.1, "vote_count": 1835, "popularity": 21.913}, {"id": 76285, "video": false, "vote_count": 3422, "vote_average": 5.9, "title": "Percy Jackson: Sea of Monsters", "release_date": "2013-08-07", "original_language": "en", "original_title": "Percy Jackson: Sea of Monsters", "genre_ids": [12, 14, 10751], "backdrop_path": "/3NK02PLJSs01SY1hsXUAcqbG3WP.jpg", "adult": false, "overview": "In their quest to confront the ultimate evil, Percy and his friends battle swarms of mythical creatures to find the mythical Golden Fleece and to stop an ancient evil from rising.", "poster_path": "/k1bhUW7XM5X0yD3iewAEvloFBEo.jpg", "popularity": 17.468}, {"adult": false, "backdrop_path": "/9l5Nzo1qbEslfCu2NYWimpZ1Vkc.jpg", "genre_ids": [35, 10751, 14, 10749], "id": 4523, "original_language": "en", "original_title": "Enchanted", "overview": "The beautiful princess Giselle is banished by an evil queen from her magical, musical animated land and finds herself in the gritty reality of the streets of modern-day Manhattan. Shocked by this strange new environment that doesn't operate on a \"happily ever after\" basis, Giselle is now adrift in a chaotic world badly in need of enchantment. But when Giselle begins to fall in love with a charmingly flawed divorce lawyer who has come to her aid - even though she is already promised to a perfect fairy tale prince back home - she has to wonder: Can a storybook view of romance survive in the real world?", "poster_path": "/65EfHNQ6NCeAoRPNLRhTyLqNZmU.jpg", "release_date": "2007-11-20", "title": "Enchanted", "video": false, "vote_average": 6.7, "vote_count": 3505, "popularity": 22.541}, {"id": 5255, "video": false, "vote_count": 3619, "vote_average": 6.6, "title": "The Polar Express", "release_date": "2004-11-10", "original_language": "en", "original_title": "The Polar Express", "genre_ids": [12, 16, 14, 10751], "backdrop_path": "/AcXCaPRB037DZoZZ2cJzRSxrNBP.jpg", "adult": false, "overview": "When a doubting young boy takes an extraordinary train ride to the North Pole, he embarks on a journey of self-discovery that shows him that the wonder of life never fades for those who believe.", "poster_path": "/2NETsNUxcfBdKtq3W5YbT9O03Ak.jpg", "popularity": 21.109}, {"id": 47971, "video": false, "vote_count": 2661, "vote_average": 5.6, "title": "xXx: Return of Xander Cage", "release_date": "2017-01-13", "original_language": "en", "original_title": "xXx: Return of Xander Cage", "genre_ids": [28, 12, 80], "backdrop_path": "/zv4acOMTPoplVLKo4FaoqAseSDx.jpg", "adult": false, "overview": "Extreme athlete turned government operative Xander Cage comes out of self-imposed exile, thought to be long dead, and is set on a collision course with deadly alpha warrior Xiang and his team in a race to recover a sinister and seemingly unstoppable weapon known as Pandora's Box. Recruiting an all-new group of thrill-seeking cohorts, Xander finds himself enmeshed in a deadly conspiracy that points to collusion at the highest levels of world governments.", "poster_path": "/yNsdyNbQqaKN0TQxkHMws2KLTJ6.jpg", "popularity": 34.363}, {"id": 5375, "video": false, "vote_count": 486, "vote_average": 5.6, "title": "Fred Claus", "release_date": "2007-11-03", "original_language": "en", "original_title": "Fred Claus", "genre_ids": [28, 35, 18], "backdrop_path": "/r0jEOEzIJFdyaxVa7bsFocUuQ1t.jpg", "adult": false, "overview": "Fred Claus and Santa Claus have been estranged brothers for many years. Now Fred must reconcile his differences with his brother whom he believes overshadows him. When an efficiency expert assesses the workings at the North Pole and threatens to shut Santa down, Fred must help his brother to save Christmas.", "poster_path": "/vFniWmciRi4tAjAYGp2wrK0P8dJ.jpg", "popularity": 12.098}, {"adult": false, "backdrop_path": "/c66otZnSdri67kR7ps92kRX849o.jpg", "genre_ids": [14, 16, 10751], "id": 408, "original_language": "en", "original_title": "Snow White and the Seven Dwarfs", "overview": "A beautiful girl, Snow White, takes refuge in the forest in the house of seven dwarfs to hide from her stepmother, the wicked Queen. The Queen is jealous because she wants to be known as \"the fairest in the land,\" and Snow White's beauty surpasses her own.", "poster_path": "/mnZi4RJXDTkXzcnXyzGu1fFfRJJ.jpg", "release_date": "1937-12-20", "title": "Snow White and the Seven Dwarfs", "video": false, "vote_average": 7.0, "vote_count": 4661, "popularity": 29.171}, {"id": 339846, "video": false, "vote_count": 5306, "vote_average": 6.1, "title": "Baywatch", "release_date": "2017-05-12", "original_language": "en", "original_title": "Baywatch", "genre_ids": [28, 35], "backdrop_path": "/6QmX2BDVr1hIOIPHqnxvp1C1ZZp.jpg", "adult": false, "overview": "Devoted lifeguard Mitch Buchannon butts heads with a brash new recruit. Together, they uncover a local criminal plot that threatens the future of the Bay.", "poster_path": "/6HE4xd8zloDqmjMZuhUCCw2UcY1.jpg", "popularity": 39.869}, {"adult": false, "backdrop_path": "/8ndqvvwDVe9oDUQF1Jt6NCjAn7z.jpg", "genre_ids": [10749, 18], "id": 398818, "original_language": "en", "original_title": "Call Me by Your Name", "overview": "In 1980s Italy, a relationship begins between seventeen-year-old teenage Elio and the older adult man hired as his father's research assistant.", "poster_path": "/tcNniniS4rfqrLH0oORikJfnIwY.jpg", "release_date": "2017-09-01", "title": "Call Me by Your Name", "video": false, "vote_average": 8.3, "vote_count": 5876, "popularity": 26.075}, {"id": 37958, "video": false, "vote_count": 1548, "vote_average": 5.8, "title": "Immortals", "release_date": "2011-11-10", "original_language": "en", "original_title": "Immortals", "genre_ids": [28, 18, 14], "backdrop_path": "/pNw0c7aiUZHhu8WuolfOA8xube9.jpg", "adult": false, "overview": "Theseus is a mortal man chosen by Zeus to lead the fight against the ruthless King Hyperion, who is on a rampage across Greece to obtain a weapon that can destroy humanity.", "poster_path": "/efyXTVK7oqQdQlI2YGWOkJVpbqZ.jpg", "popularity": 16.83}, {"id": 303, "video": false, "vote_count": 759, "vote_average": 7.9, "title": "Notorious", "release_date": "1946-08-15", "original_language": "en", "original_title": "Notorious", "genre_ids": [18, 53, 10749], "backdrop_path": "/b8WFk5jSQNju3SGptSOREo51qmE.jpg", "adult": false, "overview": "In order to help bring Nazis to justice, U.S. government agent T.R. Devlin recruits Alicia Huberman, the American daughter of a convicted German war criminal, as a spy. As they begin to fall for one another, Alicia is instructed to win the affections of Alexander Sebastian, a Nazi hiding out in Brazil. When Sebastian becomes serious about his relationship with Alicia, the stakes get higher, and Devlin must watch her slip further undercover.", "poster_path": "/vcdSvOr5NcY6alt0kBqDQlFC3Nk.jpg", "popularity": 12.953}, {"adult": false, "backdrop_path": "/qqdVRlVCvVWdmSBYrEHwQuC3GBd.jpg", "genre_ids": [27, 53], "id": 371608, "original_language": "en", "original_title": "The Strangers: Prey at Night", "overview": "A family\u2019s road trip takes a dangerous turn when they arrive at a secluded mobile home park to stay with some relatives and find it mysteriously deserted. Under the cover of darkness, three masked psychopaths pay them a visit to test the family\u2019s every limit as they struggle to survive.", "poster_path": "/vdxLpPsZkPZdFrREp7eSeSzcimj.jpg", "release_date": "2018-03-07", "title": "The Strangers: Prey at Night", "video": false, "vote_average": 5.4, "vote_count": 758, "popularity": 16.815}, {"adult": false, "backdrop_path": "/h0jlcOISKcrVG4IE4p5IyZGrMhn.jpg", "genre_ids": [35, 80], "id": 212, "original_language": "en", "original_title": "Arsenic and Old Lace", "overview": "Mortimer Brewster, a newspaper drama critic, playwright and author known for his diatribes against marriage, suddenly falls in love and gets married;  but when he makes a quick trip home to tell his two maiden aunts, he finds out his aunts' hobby - killing lonely old men and burying them in the cellar!", "poster_path": "/sqfuyh9N0K8xHQFh5Lfj6W0rODs.jpg", "release_date": "1944-09-01", "title": "Arsenic and Old Lace", "video": false, "vote_average": 7.6, "vote_count": 442, "popularity": 15.626}, {"id": 301365, "video": false, "vote_count": 2292, "vote_average": 6.5, "title": "The Neon Demon", "release_date": "2016-06-08", "original_language": "en", "original_title": "The Neon Demon", "genre_ids": [27, 9648, 53], "backdrop_path": "/wwFP2C8zVRHWhtG9HRGhFImIcHm.jpg", "adult": false, "overview": "When aspiring model Jesse moves to Los Angeles, her youth and vitality are devoured by a group of beauty-obsessed women who will take any means necessary to get what she has.", "poster_path": "/pksGBk7yJqSuQ2F47S9eoqbtjWt.jpg", "popularity": 14.949}, {"id": 1494, "video": false, "vote_count": 390, "vote_average": 6.7, "title": "Curse of the Golden Flower", "release_date": "2006-12-21", "original_language": "zh", "original_title": "\u6eff\u57ce\u76e1\u5e36\u9ec3\u91d1\u7532", "genre_ids": [28, 18, 14], "backdrop_path": "/4RUDmfAojukZ3QmKsoXnVHa6wmQ.jpg", "adult": false, "overview": "During China's Tang dynasty the emperor has taken the princess of a neighboring province as his wife. She has borne him two sons and raised his eldest. Now his control over his dominion is complete, including the royal family itself.", "poster_path": "/8JGOTkKOCqSfAwIMPQKF0K44lUW.jpg", "popularity": 13.536}], "total_pages": 17, "total_results": 339}, "recommendations": {"page": 1, "results": [], "total_pages": 1, "total_results": 0}, "credits": {"cast": [{"cast_id": 0, "character": "Cate", "credit_id": "534d0b26c3a36860a3000bbd", "gender": 1, "id": 183384, "name": "Alicia Ziegler", "order": 1, "profile_path": "/u3z4lYNTSwfwboA6G98Z4HgmH2n.jpg"}, {"cast_id": 1, "character": "Harrison", "credit_id": "534d0b2cc3a3686075000bc1", "gender": 2, "id": 207509, "name": "Mark Hapka", "order": 2, "profile_path": "/vYtceyK4VtmJfohvYfNbLWJLTT4.jpg"}, {"cast_id": 2, "character": "Evelyn", "credit_id": "534d0b3cc3a3686083000b74", "gender": 1, "id": 50234, "name": "Donna Mills", "order": 3, "profile_path": "/iG7dS1PrYnO7bOpaakG2NBcinWQ.jpg"}, {"cast_id": 3, "character": "Kym", "credit_id": "534d0b41c3a368608f000b39", "gender": 1, "id": 206444, "name": "Constance Wu", "order": 4, "profile_path": "/7nT6QsetU2RCUwopPmq2NFSnLDL.jpg"}, {"cast_id": 6, "character": "Jack", "credit_id": "54e93b84c3a36836d6002ae3", "gender": 2, "id": 41687, "name": "Patrick Muldoon", "order": 5, "profile_path": "/bQXk6dGI2zjRY2rvfwmpdHpyh9F.jpg"}, {"cast_id": 7, "character": "Mrs. Rice", "credit_id": "54e93bb7c3a36836ea003066", "gender": 1, "id": 1216971, "name": "Brynn Thayer", "order": 6, "profile_path": "/yzhOOltoLStU7qs2E1JbrMo4Glq.jpg"}, {"cast_id": 10, "character": "Sophia", "credit_id": "55260c79c3a3687e0300309d", "gender": 0, "id": 1037301, "name": "Teni Panosian", "order": 7, "profile_path": null}, {"cast_id": 11, "character": "Gardener", "credit_id": "55260c8492514171cb00a579", "gender": 2, "id": 139746, "name": "Justin Huen", "order": 8, "profile_path": "/wTBElUYODzwhEidMjRV7kBoWAJb.jpg"}, {"cast_id": 12, "character": "Security Guard", "credit_id": "55260c919251415c7c00d9bb", "gender": 2, "id": 210582, "name": "Bob Gebert", "order": 9, "profile_path": "/TTYPlmyLEFKmgUPHD6aAQrdEoI.jpg"}], "crew": [{"credit_id": "534d0b4ec3a3686075000bc3", "department": "Directing", "gender": 2, "id": 64278, "job": "Director", "name": "Michael Feifer", "profile_path": "/cuvms83KMWKAVAkdiPze1gENP6F.jpg"}, {"credit_id": "54e93b53c3a36836ed0030d9", "department": "Writing", "gender": 0, "id": 1253246, "job": "Writer", "name": "Jenna Mattison", "profile_path": null}, {"credit_id": "54e93c17c3a36836ed0030f3", "department": "Production", "gender": 2, "id": 64278, "job": "Producer", "name": "Michael Feifer", "profile_path": "/cuvms83KMWKAVAkdiPze1gENP6F.jpg"}, {"credit_id": "54e93c32c3a36836d9002d0c", "department": "Production", "gender": 0, "id": 193301, "job": "Line Producer", "name": "Corbin Timbrook", "profile_path": "/bDREyewk5uckIgMjYSL0QIYgPuU.jpg"}, {"credit_id": "55260caa92514172480035f6", "department": "Sound", "gender": 0, "id": 1451794, "job": "Music", "name": "Sandro Morales Santoro", "profile_path": null}, {"credit_id": "55260cb4c3a3687df80030cf", "department": "Editing", "gender": 0, "id": 1291340, "job": "Editor", "name": "Ely Mennin", "profile_path": null}, {"credit_id": "55260cbec3a3687e110036cc", "department": "Production", "gender": 0, "id": 1102488, "job": "Casting", "name": "Paul Ruddy", "profile_path": "/yUdFi18pUpyQoRghKdWGQzdsmfH.jpg"}, {"credit_id": "55260cd692514172760034ba", "department": "Crew", "gender": 0, "id": 193301, "job": "Second Unit", "name": "Corbin Timbrook", "profile_path": "/bDREyewk5uckIgMjYSL0QIYgPuU.jpg"}, {"credit_id": "55260ce692514171b4000f0e", "department": "Sound", "gender": 0, "id": 1451795, "job": "Sound mixer", "name": "Chase Yeremian", "profile_path": null}, {"credit_id": "59ae9907925141079d052136", "department": "Crew", "gender": 2, "id": 90041, "job": "Stunt Coordinator", "name": "Con Schell", "profile_path": "/rClTzcnUhKXLZy13CfVitrpddWK.jpg"}, {"credit_id": "59ae99d79251410765056701", "department": "Lighting", "gender": 0, "id": 1696944, "job": "Gaffer", "name": "Paulo Arriola", "profile_path": null}, {"credit_id": "59ae9aa2925141079d052262", "department": "Production", "gender": 0, "id": 1860633, "job": "Production Coordinator", "name": "Shelby Janes", "profile_path": null}, {"credit_id": "59ae9b0ec3a3682c620563bc", "department": "Directing", "gender": 0, "id": 1568375, "job": "Script Supervisor", "name": "Elizabeth Linell", "profile_path": null}]}}