{"adult": false, "backdrop_path": "/xPE1d3ootc4hO8Pd25459srPvkY.jpg", "belongs_to_collection": null, "budget": 0, "genres": [{"id": 18, "name": "Drama"}, {"id": 10749, "name": "Romance"}], "homepage": null, "id": 26506, "imdb_id": "tt0870195", "original_language": "en", "original_title": "Before the Rains", "overview": "Set in southern India in the late 1930s, this provocative tale traces the story of three people caught in an inexorable web of forbidden romance and dangerous secrets. After a British spice planter falls in love with his alluring servant, an idealistic young man finds himself torn between his ambitions and his family, his village and his past.", "popularity": 4.738, "poster_path": "/ucM4aS8hPxO6XLSXiGgx8vqm1kB.jpg", "production_companies": [{"id": 37299, "logo_path": null, "name": "Excalibur Pictures", "origin_country": ""}, {"id": 60357, "logo_path": null, "name": "Adirondack Pictures", "origin_country": "US"}, {"id": 2370, "logo_path": null, "name": "Merchant Ivory Productions", "origin_country": "US"}], "production_countries": [{"iso_3166_1": "GB", "name": "United Kingdom"}, {"iso_3166_1": "US", "name": "United States of America"}, {"iso_3166_1": "IN", "name": "India"}], "release_date": "2007-09-07", "revenue": 0, "runtime": 98, "spoken_languages": [{"iso_639_1": "en", "name": "English"}, {"iso_639_1": "ml", "name": ""}], "status": "Released", "tagline": "", "title": "Before the Rains", "video": false, "vote_average": 4.6, "vote_count": 5, "keywords": {"keywords": [{"id": 3691, "name": "forbidden love"}, {"id": 15060, "name": "period drama"}, {"id": 34094, "name": "extramarital affair"}, {"id": 193686, "name": "kerala"}, {"id": 214548, "name": "1930s"}]}, "similar": {"page": 1, "results": [{"id": 311, "video": false, "vote_count": 2593, "vote_average": 8.4, "title": "Once Upon a Time in America", "release_date": "1984-05-23", "original_language": "en", "original_title": "Once Upon a Time in America", "genre_ids": [80, 18], "backdrop_path": "/vnT6HzjLSDrAweHn9xWykb8Ii6T.jpg", "adult": false, "overview": "A former Prohibition-era Jewish gangster returns to the Lower East Side of Manhattan over thirty years later, where he once again must confront the ghosts and regrets of his old life.", "poster_path": "/x733R4ISI0RbKeHhVkXdTMFmTFr.jpg", "popularity": 23.555}, {"adult": false, "backdrop_path": "/fAA0S3rM3o5Sp8TIdS0MvWOGsCQ.jpg", "genre_ids": [18, 10749], "id": 843, "original_language": "cn", "original_title": "\u82b1\u6a23\u5e74\u83ef", "overview": "Taking place in Hong Kong of 1962, a melancholy story about the love between a woman and a man who live in the same building and one day find out that their husband and wife had an affair with each other.", "poster_path": "/unOW3SxFxBdd7LMWjmRONdHWKPb.jpg", "release_date": "2000-05-22", "title": "In the Mood for Love", "video": false, "vote_average": 8.1, "vote_count": 962, "popularity": 15.474}, {"adult": false, "backdrop_path": "/9alS7FBSf8rvDLskpCRuKqAI2h5.jpg", "genre_ids": [18, 36], "id": 746, "original_language": "en", "original_title": "The Last Emperor", "overview": "A dramatic history of Pu Yi, the last of the Emperors of China, from his lofty birth and brief reign in the Forbidden City, the object of worship by half a billion people; through his abdication, his decline and dissolute lifestyle; his exploitation by the invading Japanese, and finally to his obscure existence as just another peasant worker in the People's Republic.", "poster_path": "/KTirnfG6FZLKWbm8Am3EEKmZDx.jpg", "release_date": "1987-10-21", "title": "The Last Emperor", "video": false, "vote_average": 7.6, "vote_count": 774, "popularity": 15.26}, {"adult": false, "backdrop_path": "/bYbnlh6VXFRtcSX82UMDsBDLB5j.jpg", "genre_ids": [18, 10749], "id": 28468, "original_language": "it", "original_title": "La chiave", "overview": "After twenty years of marriage, art professor Nino Rolfe attempts to break down his wife Teresa's conventional modesty. Noticing her affection for their daughter's fianc\u00e9, Nino instigates her sexual interest in him as well. This sets off a chain of unexpected events and emotional complications, as Nino and his unpredictable fascist daughter find that they both enjoy being jealous.", "poster_path": "/e6g2geNLgFzMbriH6EvSJZD78nx.jpg", "release_date": "1983-10-18", "title": "The Key", "video": false, "vote_average": 5.0, "vote_count": 128, "popularity": 19.088}, {"id": 263472, "video": false, "vote_count": 1668, "vote_average": 5.0, "title": "Knock Knock", "release_date": "2015-06-26", "original_language": "en", "original_title": "Knock Knock", "genre_ids": [18, 53], "backdrop_path": "/gJduaRau3X2oE3xkmjs1FufT2GE.jpg", "adult": false, "overview": "When a devoted husband and father is left home alone for the weekend, two stranded young women unexpectedly knock on his door for help. What starts out as a kind gesture results in a dangerous seduction and a deadly game of cat and mouse.", "poster_path": "/eynMtjBB1fXsB5vsQylVmsDLmvw.jpg", "popularity": 21.643}, {"id": 64682, "video": false, "vote_count": 7858, "vote_average": 7.4, "title": "The Great Gatsby", "release_date": "2013-05-10", "original_language": "en", "original_title": "The Great Gatsby", "genre_ids": [18, 10749], "backdrop_path": "/2mdDPszIVJEGZweDzwGyL36ZDC2.jpg", "adult": false, "overview": "An adaptation of F. Scott Fitzgerald's Long Island-set novel, where Midwesterner Nick Carraway is lured into the lavish world of his neighbor, Jay Gatsby. Soon enough, however, Carraway will see through the cracks of Gatsby's nouveau riche existence, where obsession, madness, and tragedy await.", "poster_path": "/oJpOYPpVWyPeunGbbDGH1KFvea0.jpg", "popularity": 22.054}, {"id": 10995, "video": false, "vote_count": 255, "vote_average": 6.6, "title": "The Lover", "release_date": "1992-02-22", "original_language": "fr", "original_title": "L'Amant", "genre_ids": [18, 10749], "backdrop_path": "/zRAgf1F0rRp0Tys8AnMWGBFJRZv.jpg", "adult": false, "overview": "A poor French teenage girl engages in an illicit affair with a wealthy Chinese heir in 1920s Saigon. For the first time in her young life she has control, and she wields it deftly over her besotted lover throughout a series of clandestine meetings and torrid encounters.", "poster_path": "/iey1UA4hav2cn60qGi1zgKxpPBl.jpg", "popularity": 12.739}, {"adult": false, "backdrop_path": "/npClMhFGn4XUkwu6coq5oKAEu6L.jpg", "genre_ids": [35, 10749, 18], "id": 634, "original_language": "en", "original_title": "Bridget Jones's Diary", "overview": "A chaotic Bridget Jones meets a snobbish lawyer, and he soon enters her world of imperfections.", "poster_path": "/ym6kjFFZg6boC0QHBVw6hqJLbxv.jpg", "release_date": "2001-04-13", "title": "Bridget Jones's Diary", "video": false, "vote_average": 6.7, "vote_count": 3079, "popularity": 16.678}, {"id": 497, "video": false, "vote_count": 9313, "vote_average": 8.5, "title": "The Green Mile", "release_date": "1999-12-10", "original_language": "en", "original_title": "The Green Mile", "genre_ids": [80, 18, 14], "backdrop_path": "/Rlt20sEbOQKPVjia7lUilFm49W.jpg", "adult": false, "overview": "A supernatural tale set on death row in a Southern prison, where gentle giant John Coffey possesses the mysterious power to heal people's ailments. When the cell block's head guard, Paul Edgecomb, recognizes Coffey's miraculous gift, he tries desperately to help stave off the condemned man's execution.", "poster_path": "/sOHqdY1RnSn6kcfAHKu28jvTebE.jpg", "popularity": 41.99}, {"adult": false, "backdrop_path": "/ecREZ3vYCqethftSDWK4we0X498.jpg", "genre_ids": [35, 18, 10749], "id": 4507, "original_language": "es", "original_title": "Jam\u00f3n, jam\u00f3n", "overview": "Jose Luis is an executive at his parents underwear factory where his girlfriend Sylvia works on the shop floor. When Sylvia becomes pregnant, Jose Luis promises her that he will marry her, most likely against the wishes of his parents. Jose Luis' mother is determined to break her son's engagement to a girl from a lower-class family, and hires Raul, a potential underwear model and would-be bullfighter to seduce Sylvia.", "poster_path": "/v5Fq01ZtYnA2Grxdd3g8CuGZARg.jpg", "release_date": "1992-09-03", "title": "Jamon Jamon", "video": false, "vote_average": 6.1, "vote_count": 143, "popularity": 14.21}, {"adult": false, "backdrop_path": "/t4DO37tO3mhMX4DCdnI1EPsRi26.jpg", "genre_ids": [80, 18, 9648], "id": 3580, "original_language": "en", "original_title": "Changeling", "overview": "Christine Collins is overjoyed when her kidnapped son is brought back home. But when Christine suspects that the boy returned to her isn't her child, the police captain has her committed to an asylum.", "poster_path": "/qtte2n6ygA1zVG5kLrjUGui28TJ.jpg", "release_date": "2008-01-30", "title": "Changeling", "video": false, "vote_average": 7.5, "vote_count": 2321, "popularity": 16.435}, {"id": 254, "video": false, "vote_count": 4693, "vote_average": 6.7, "title": "King Kong", "release_date": "2005-12-12", "original_language": "en", "original_title": "King Kong", "genre_ids": [28, 12, 18], "backdrop_path": "/lWnPz1EvXUWMvXK1plZMA1I2XMV.jpg", "adult": false, "overview": "In 1933 New York, an overly ambitious movie producer coerces his cast and hired ship crew to travel to mysterious Skull Island, where they encounter Kong, a giant ape who is immediately smitten with the leading lady.", "poster_path": "/iQYMVoI9QE2wQCOSrxhiBYd4v0w.jpg", "popularity": 22.992}, {"adult": false, "backdrop_path": "/pHWPhvJDuIU97O0zJKdDlGr6tFV.jpg", "genre_ids": [18, 10749], "id": 283227, "original_language": "en", "original_title": "A Little Chaos", "overview": "A landscape gardener is hired by famous architect Le N\u00f4tre to construct the grand gardens at the palace of Versailles. As the two work on the palace, they find themselves drawn to each other and are thrown into rivalries within the court of King Louis XIV.", "poster_path": "/8Q8q0oBI99tfw3x5ozoKEtHKvO0.jpg", "release_date": "2015-03-26", "title": "A Little Chaos", "video": false, "vote_average": 6.3, "vote_count": 439, "popularity": 10.791}, {"id": 193610, "video": false, "vote_count": 2466, "vote_average": 6.3, "title": "The Other Woman", "release_date": "2014-04-16", "original_language": "en", "original_title": "The Other Woman", "genre_ids": [35, 10749], "backdrop_path": "/vWiwrW8OArlBcdEK4RzhPCIYi4r.jpg", "adult": false, "overview": "After discovering her boyfriend is married, Carly soon meets the wife he's been cheating on. And when yet another affair is discovered, all three women team up to plot mutual revenge on the three-timing SOB.", "poster_path": "/fu7K3rPwJcScizlXbxWAR7ZoUxt.jpg", "popularity": 17.594}, {"id": 284, "video": false, "vote_count": 1038, "vote_average": 8.2, "title": "The Apartment", "release_date": "1960-06-15", "original_language": "en", "original_title": "The Apartment", "genre_ids": [35, 18, 10749], "backdrop_path": "/vF4d4hAKMcrDE4Y6zLwUSijp32g.jpg", "adult": false, "overview": "Bud Baxter is a minor clerk in a huge New York insurance company, until he discovers a quick way to climb the corporate ladder. He lends out his apartment to the executives as a place to take their mistresses. Although he often has to deal with the aftermath of their visits, one night he's left with a major problem to solve.", "poster_path": "/8nrQKQjD6z0SJouKHQapXzmjFc6.jpg", "popularity": 15.832}, {"id": 12531, "video": false, "vote_count": 91, "vote_average": 6.9, "title": "The Apartment", "release_date": "1996-07-27", "original_language": "fr", "original_title": "L'Appartement", "genre_ids": [18, 9648, 10749], "backdrop_path": "/64qyT8m4JQ6YODvXxtbHgKmXBX7.jpg", "adult": false, "overview": "A stylish suspense thriller that confounds the audience while presenting them with an extraordinary and elusive mystery. Max is a former playboy who has decided to settle down by marrying his current love, Muriel. However, during a business trip, Max catches a glimpse of the great lost love of his life, reviving his wanderlust and sending him off on a chase of the elusive Lisa, whom he had overheard suggesting to a friend that her lover, Daniel, had killed someone for her. Soon, Max is trying to unravel the mystery behind the suspicious death of Daniel's wife, which he hopes will lead him closer to Lisa.", "poster_path": "/1sqrQdQTn8jKLhUcPKfRVj639zA.jpg", "popularity": 21.259}, {"id": 120467, "video": false, "vote_count": 8928, "vote_average": 8.0, "title": "The Grand Budapest Hotel", "release_date": "2014-02-26", "original_language": "en", "original_title": "The Grand Budapest Hotel", "genre_ids": [35, 18], "backdrop_path": "/5FPUoQtnNC0C0YZ7sUeTLq6eZqa.jpg", "adult": false, "overview": "The Grand Budapest Hotel tells of a legendary concierge at a famous European hotel between the wars and his friendship with a young employee who becomes his trusted prot\u00e9g\u00e9. The story involves the theft and recovery of a priceless Renaissance painting, the battle for an enormous family fortune and the slow and then sudden upheavals that transformed Europe during the first half of the 20th century.", "poster_path": "/nX5XotM9yprCKarRH4fzOq1VM1J.jpg", "popularity": 24.684}, {"id": 122126, "video": false, "vote_count": 35, "vote_average": 6.0, "title": "The Concubine", "release_date": "2012-06-06", "original_language": "ko", "original_title": "\ud6c4\uad81: \uc81c\uc655\uc758 \ucca9", "genre_ids": [18], "backdrop_path": "/zgx6bBaVLAsFO5ip7gwndOjhE7U.jpg", "adult": false, "overview": "Living a torturous life of poverty and barely able to survive, Hwa-yeon decides to offer herself as one of the king\u2019s concubines. Once inside the royal palace, two men are immediately seized by the woman -- the Grand Prince Seong-won, a megalomaniacal ruler drunk with power and lust, and Kwon-yoo, who has everything to lose if his desire for Hwa-yeon is exposed.", "poster_path": "/2qkaLzpsC0X3zYwjhh1GPsjny2.jpg", "popularity": 26.537}, {"id": 14, "video": false, "vote_count": 7289, "vote_average": 8.0, "title": "American Beauty", "release_date": "1999-09-15", "original_language": "en", "original_title": "American Beauty", "genre_ids": [18], "backdrop_path": "/z5J18ByLeOZ68iORfMXmxeFuwyL.jpg", "adult": false, "overview": "Lester Burnham, a depressed suburban father in a mid-life crisis, decides to turn his hectic life around after developing an infatuation with his daughter's attractive friend.", "poster_path": "/or1MP8BZIAjqWYxPdPX724ydKar.jpg", "popularity": 34.256}, {"adult": false, "backdrop_path": "/74Jh5SIWnKDwtusPfDP51EeCFHt.jpg", "genre_ids": [35, 10749], "id": 9576, "original_language": "en", "original_title": "Tootsie", "overview": "When struggling, out of work actor Michael Dorsey secretly adopts a female alter ego - Dorothy Michaels - in order to land a part in a daytime drama, he unwittingly becomes a feminist icon and ends up in a romantic pickle.", "poster_path": "/ngyCzZwb9y5sMUCig5JQT4Y33Q.jpg", "release_date": "1982-12-16", "title": "Tootsie", "video": false, "vote_average": 7.2, "vote_count": 915, "popularity": 10.882}], "total_pages": 77, "total_results": 1523}, "recommendations": {"page": 1, "results": [{"adult": false, "backdrop_path": "/5S4Ub8y2SSgFF7zrR6AOLzUOQ7H.jpg", "genre_ids": [18, 28, 80], "id": 57848, "original_language": "en", "original_title": "No Contest", "overview": "A beauty contest turns into a hostage situation, when the Miss Galaxy competition is taken over by a gang, demanding a ransom of diamonds. Sharon, a kick-boxing actress, is the host of the show, and the thorn in the terrorists side.", "poster_path": "/o1MJ03Zmtx9TbA4OM3RyGI29boD.jpg", "release_date": "1995-03-02", "title": "No Contest", "video": false, "vote_average": 4.2, "vote_count": 8, "popularity": 4.408}], "total_pages": 1, "total_results": 1}, "credits": {"cast": [{"cast_id": 1, "character": "Henry Moores", "credit_id": "52fe4507c3a368484e04459b", "gender": 2, "id": 3900, "name": "Linus Roache", "order": 0, "profile_path": "/u98VM2S9mbUMCMPvCpk2OUn4Eg2.jpg"}, {"cast_id": 4, "character": "Sajaani", "credit_id": "55bd0c289251413e580029a6", "gender": 1, "id": 53372, "name": "Nandita Das", "order": 1, "profile_path": "/bE8sr4YF4SQHHx67lgsSiqBYCRX.jpg"}, {"cast_id": 5, "character": "T. K. Neelan", "credit_id": "55bd0c339251413e51002bc1", "gender": 2, "id": 86212, "name": "Rahul Bose", "order": 2, "profile_path": "/dHYEkFSrAYs9dn2ymlEVInTNELO.jpg"}, {"cast_id": 2, "character": "Laura Moores", "credit_id": "52fe4507c3a368484e04459f", "gender": 1, "id": 49971, "name": "Jennifer Ehle", "order": 3, "profile_path": "/rmHaDj5xQu3ZPoI5XWgA5BZj3zH.jpg"}, {"cast_id": 6, "character": "Manas", "credit_id": "55bd0c4a9251413bdc0012a3", "gender": 2, "id": 448468, "name": "Indrajith Sukumaran", "order": 4, "profile_path": "/86DGflSqeOsNmr2SzfqvxLjZxF4.jpg"}, {"cast_id": 7, "character": "Rajat", "credit_id": "55bd0c53c3a3686534002e55", "gender": 2, "id": 182174, "name": "Lal", "order": 5, "profile_path": "/uhx6GhmuLde9KDGwCnck0xOo77e.jpg"}, {"cast_id": 8, "character": "T.K.'s father", "credit_id": "55bd0c609251413e55002bbe", "gender": 2, "id": 584638, "name": "Thilakan", "order": 6, "profile_path": "/17dQM2ASkag6nzpyd4x1aKz6mDD.jpg"}, {"cast_id": 31, "character": "", "credit_id": "5906281a9251416a14021d29", "gender": 2, "id": 1665411, "name": "Ganapathi S Poduval", "order": 7, "profile_path": "/8fLLWHRJ2pLYSgGuczT4xQooTfs.jpg"}], "crew": [{"credit_id": "567c169f9251417def00360f", "department": "Production", "gender": 2, "id": 3501, "job": "Casting", "name": "Daniel Hubbard", "profile_path": null}, {"credit_id": "568a5b279251411334020f24", "department": "Sound", "gender": 0, "id": 9409, "job": "Sound Re-Recording Mixer", "name": "John Ross", "profile_path": null}, {"credit_id": "567c1636c3a3684be90032cb", "department": "Sound", "gender": 2, "id": 13083, "job": "Music", "name": "Mark Kilian", "profile_path": null}, {"credit_id": "567c167a92514131df000d48", "department": "Editing", "gender": 2, "id": 19452, "job": "Editor", "name": "Steven Cohen", "profile_path": null}, {"credit_id": "568a5aca9251411334020f12", "department": "Sound", "gender": 2, "id": 20229, "job": "Foley", "name": "Andy Malcolm", "profile_path": null}, {"credit_id": "568a5b5e9251411334020f2e", "department": "Sound", "gender": 2, "id": 56765, "job": "Supervising Sound Editor", "name": "Leslie Shatz", "profile_path": null}, {"credit_id": "52fe4507c3a368484e0445a5", "department": "Directing", "gender": 2, "id": 37236, "job": "Director", "name": "Santosh Sivan", "profile_path": "/b5gkbpuPfSjV1iXHcXtbRO44O38.jpg"}, {"credit_id": "567c1658c3a3686075000da6", "department": "Camera", "gender": 2, "id": 37236, "job": "Director of Photography", "name": "Santosh Sivan", "profile_path": "/b5gkbpuPfSjV1iXHcXtbRO44O38.jpg"}, {"credit_id": "567c168d92514131df000d4c", "department": "Editing", "gender": 2, "id": 37242, "job": "Editor", "name": "A. Sreekar Prasad", "profile_path": "/lufbH3noDEFbIL00tHv6BLS3r4t.jpg"}, {"credit_id": "567c160ac3a36860e9000dbc", "department": "Production", "gender": 2, "id": 53967, "job": "Producer", "name": "Doug Mankoff", "profile_path": null}, {"credit_id": "567c1621c3a3684bc9003c4f", "department": "Production", "gender": 2, "id": 53968, "job": "Producer", "name": "Andrew Spaulding", "profile_path": null}, {"credit_id": "567c15d9c3a3684bcc0037e9", "department": "Production", "gender": 2, "id": 92737, "job": "Producer", "name": "Paul Hardart", "profile_path": null}, {"credit_id": "567c15f3c3a3684bd00031f0", "department": "Production", "gender": 0, "id": 92738, "job": "Producer", "name": "Tom Hardart", "profile_path": null}, {"credit_id": "567c15c2c3a36860e9000dad", "department": "Production", "gender": 2, "id": 259595, "job": "Producer", "name": "Mark Burton", "profile_path": null}, {"credit_id": "567c16b3c3a3686075000dba", "department": "Production", "gender": 0, "id": 1014915, "job": "Casting Associate", "name": "Kelly Valentine Hendry", "profile_path": null}, {"credit_id": "568a5a69c3a36828f50213db", "department": "Sound", "gender": 0, "id": 1345616, "job": "Music Editor", "name": "Matt Shelton", "profile_path": null}, {"credit_id": "568a5b429251417e63012514", "department": "Sound", "gender": 1, "id": 1378755, "job": "Sound Re-Recording Mixer", "name": "Melissa Sherwood Hofmann", "profile_path": null}, {"credit_id": "568a5b74c3a3680e01004651", "department": "Sound", "gender": 2, "id": 1412699, "job": "Supervising Sound Effects Editor", "name": "David Esparza", "profile_path": null}, {"credit_id": "568a5ab59251411334020f0f", "department": "Sound", "gender": 0, "id": 1425588, "job": "Foley", "name": "Caoimhe Doyle", "profile_path": null}, {"credit_id": "55bd0c6fc3a368652600278e", "department": "Writing", "gender": 0, "id": 1492685, "job": "Writer", "name": "Cathy Rabin", "profile_path": null}, {"credit_id": "567c1710c3a3684bc9003c86", "department": "Art", "gender": 0, "id": 1553250, "job": "Production Design", "name": "Sunil Babu", "profile_path": null}, {"credit_id": "567c18409251417de300354f", "department": "Costume & Make-Up", "gender": 0, "id": 1553256, "job": "Costume Design", "name": "Satheesh S.B.", "profile_path": null}, {"credit_id": "568a5a99c3a3683628013239", "department": "Camera", "gender": 0, "id": 1558025, "job": "First Assistant Camera", "name": "Anjuli Shukla", "profile_path": null}]}}