{"adult": false, "backdrop_path": "/uo2fkf2UuwWcy4wyUcikmqjdMXH.jpg", "belongs_to_collection": null, "budget": 0, "genres": [{"id": 27, "name": "Horror"}, {"id": 53, "name": "Thriller"}], "homepage": null, "id": 26631, "imdb_id": "tt0817911", "original_language": "en", "original_title": "In the Blood", "overview": "Cassidy is a senior at a NYC college and he's trying to balance the demands of school, his role as big brother to Jessica, a freshman at the same school and his role as best buddy to horn-dog Mike with his emerging feelings of attraction to men. This is further complicated by a string of co-ed murders on campus for which his sister fits the victim profile.", "popularity": 2.918, "poster_path": "/wyqZJVuWE9ifvHmS4gtlMg1ZHbP.jpg", "production_companies": [{"id": 4546, "logo_path": null, "name": "Superstitious Entertainment (II)", "origin_country": ""}], "production_countries": [{"iso_3166_1": "US", "name": "United States of America"}], "release_date": "2006-01-01", "revenue": 0, "runtime": 82, "spoken_languages": [{"iso_639_1": "en", "name": "English"}], "status": "Released", "tagline": "", "title": "In the Blood", "video": false, "vote_average": 5.0, "vote_count": 1, "keywords": {"keywords": [{"id": 237, "name": "gay"}, {"id": 9815, "name": "psychic power"}, {"id": 10183, "name": "independent film"}]}, "similar": {"page": 1, "results": [{"adult": false, "backdrop_path": "/qs4P8THxjbMZYc9QuZvzN95KzBM.jpg", "genre_ids": [18, 53, 9648], "id": 184352, "original_language": "fr", "original_title": "Tom \u00e0 la ferme", "overview": "A young man travels to an isolated farm for his lover's funeral where he's quickly drawn into a twisted, sexually charged game by his lover's aggressive brother.", "poster_path": "/wS4oYOHEKva9sMLOHSr7tW19SaQ.jpg", "release_date": "2013-09-02", "title": "Tom at the Farm", "video": false, "vote_average": 6.9, "vote_count": 408, "popularity": 7.517}, {"id": 449176, "video": false, "vote_count": 3690, "vote_average": 8.1, "title": "Love, Simon", "release_date": "2018-02-16", "original_language": "en", "original_title": "Love, Simon", "genre_ids": [35, 18, 10749], "backdrop_path": "/rqMEeajyzSF4PpJtdCB816Iz8Vr.jpg", "adult": false, "overview": "Everyone deserves a great love story. But for seventeen-year old Simon Spier it's a little more complicated: he's yet to tell his family or friends he's gay and he doesn't know the identity of the anonymous classmate he's fallen for online.", "poster_path": "/5YUYg5q7QfC4IoNwNUtiwdiYKPr.jpg", "popularity": 24.849}, {"adult": false, "backdrop_path": "/qbrmEfBEcdrzHSAHgazJWmz3TSU.jpg", "genre_ids": [18], "id": 616229, "original_language": "en", "original_title": "The Male Gaze: The Heat of the Night", "overview": "When darkness falls, temperatures rise in these six stories about late night confessions, intimacy for sale, high speed hookups and full moon frissons. But when the sun comes up and reality reveals itself, will it have all been worth it?", "poster_path": "/e1gNLO829rkE73sBJ3aClZJHNXd.jpg", "release_date": "2019-07-15", "title": "The Male Gaze: The Heat of the Night", "video": false, "vote_average": 3.3, "vote_count": 3, "popularity": 13.056}, {"id": 21634, "video": false, "vote_count": 250, "vote_average": 7.9, "title": "Prayers for Bobby", "release_date": "2009-02-27", "original_language": "en", "original_title": "Prayers for Bobby", "genre_ids": [18, 36, 10770], "backdrop_path": "/pSjGsbqyKUzF8rHzL0vtVWV1pS6.jpg", "adult": false, "overview": "Bobby Griffith was his mother's favorite son, the perfect all-American boy growing up under deeply religious influences in Walnut Creek, California. Bobby was also gay. Struggling with a conflict no one knew of much less understood Bobby finally came out to his family.", "poster_path": "/d9TGJxEMkLTEF5lWAx1PLNDNpA0.jpg", "popularity": 11.874}, {"adult": false, "backdrop_path": "/qWZSYN2tBoZdUY9NDdvSKQ6OH4u.jpg", "genre_ids": [18], "id": 377154, "original_language": "fr", "original_title": "Quand on a 17 Ans", "overview": "Set in the beautiful high Pyrenees in south-west France, Damien lives with his mother Marianne, a doctor, while his father, a pilot, is on a tour of duty abroad with the French military. At school, Damien is bullied by Thomas,  who lives in the farming community up in the mountains, nut learns to fight back. The boys find themselves living together when Marianne invites Thomas to come and stay with them while his mother is ill in hospital. Damien must learn to live with the boy who terrorised him.", "poster_path": "/ogfzBX1iNzgaCBTmRRf6c69L19k.jpg", "release_date": "2016-02-27", "title": "Being 17", "video": false, "vote_average": 6.9, "vote_count": 210, "popularity": 8.661}, {"adult": false, "backdrop_path": "/6VhtzImP1UvYkIAHS4L8yfmceOM.jpg", "genre_ids": [18], "id": 26280, "original_language": "fr", "original_title": "J'ai tu\u00e9 ma m\u00e8re", "overview": "Hubert, a brash 17-year-old, is confused and torn by a love-hate relationship with his mother that consumes him more and more each day. After distressing ordeals and tragic episodes, Hubert will find his mother on the banks of Saint Lawrence river, where he grew up, and where a murder will be committed: the murder of childhood.", "poster_path": "/cxb02CLALt9He1Dt0BIDKj9fdvM.jpg", "release_date": "2009-06-05", "title": "I Killed My Mother", "video": false, "vote_average": 7.7, "vote_count": 655, "popularity": 9.653}, {"adult": false, "backdrop_path": "/oni8CXvEg56JhrfVdVUrQYOuhP0.jpg", "genre_ids": [80, 28, 53], "id": 55846, "original_language": "en", "original_title": "Blitz", "overview": "A tough, renegade cop with a gay sidekick is dispatched to take down a serial killer who has been targeting police officers.", "poster_path": "/woY0qY4DR6bPOQ7cBwyblePsYky.jpg", "release_date": "2011-05-20", "title": "Blitz", "video": false, "vote_average": 6.0, "vote_count": 861, "popularity": 20.522}, {"adult": false, "backdrop_path": "/useuHJQ5HOoEWkAvEjL1FW1sUfe.jpg", "genre_ids": [18], "id": 376867, "original_language": "en", "original_title": "Moonlight", "overview": "The tender, heartbreaking story of a young man\u2019s struggle to find himself, told across three defining chapters in his life as he experiences the ecstasy, pain, and beauty of falling in love, while grappling with his own sexuality.", "poster_path": "/qAwFbszz0kRyTuXmMeKQZCX3Q2O.jpg", "release_date": "2016-10-21", "title": "Moonlight", "video": false, "vote_average": 7.4, "vote_count": 4406, "popularity": 27.348}, {"id": 424694, "video": false, "vote_count": 9721, "vote_average": 8.0, "title": "Bohemian Rhapsody", "release_date": "2018-10-24", "original_language": "en", "original_title": "Bohemian Rhapsody", "genre_ids": [18, 10402], "backdrop_path": "/93xA62uLd5CwMOAs37eQ7vPc1iV.jpg", "adult": false, "overview": "Singer Freddie Mercury, guitarist Brian May, drummer Roger Taylor and bass guitarist John Deacon take the music world by storm when they form the rock 'n' roll band Queen in 1970. Hit songs become instant classics. When Mercury's increasingly wild lifestyle starts to spiral out of control, Queen soon faces its greatest challenge yet \u2013 finding a way to keep the band together amid the success and excess.", "poster_path": "/lHu1wtNaczFPGFDTrjCSzeLPTKN.jpg", "popularity": 40.186}, {"adult": false, "backdrop_path": "/cLOekK7EmHB1beYUYEXIlcr6mpS.jpg", "genre_ids": [10752, 36, 28, 12, 18, 10749], "id": 1966, "original_language": "en", "original_title": "Alexander", "overview": "Alexander, the King of Macedonia, leads his legions against the giant Persian Empire. After defeating the Persians, he leads his army across the then known world, venturing farther than any westerner had ever gone, all the way to India.", "poster_path": "/cJrnmbsFm5cEt0pHZZ2a1ueH5aT.jpg", "release_date": "2004-11-21", "title": "Alexander", "video": false, "vote_average": 5.8, "vote_count": 1987, "popularity": 24.267}, {"id": 205596, "video": false, "vote_count": 11343, "vote_average": 8.1, "title": "The Imitation Game", "release_date": "2014-11-14", "original_language": "en", "original_title": "The Imitation Game", "genre_ids": [18, 36, 53, 10752], "backdrop_path": "/qcb6z1HpokTOKdjqDTsnjJk0Xvg.jpg", "adult": false, "overview": "Based on the real life story of legendary cryptanalyst Alan Turing, the film portrays the nail-biting race against time by Turing and his brilliant team of code-breakers at Britain's top-secret Government Code and Cypher School at Bletchley Park, during the darkest days of World War II.", "poster_path": "/noUp0XOqIcmgefRnRZa1nhtRvWO.jpg", "popularity": 40.743}, {"adult": false, "backdrop_path": "/t3Oea7KbSpOvuqddMnlFtZ4WHn.jpg", "genre_ids": [18, 53, 36], "id": 314365, "original_language": "en", "original_title": "Spotlight", "overview": "In 2001, editor Marty Baron of The Boston Globe assigns a team of journalists to investigate allegations against John Geoghan, an unfrocked priest accused of molesting more than 80 boys. Led by editor Walter \"Robby\" Robinson, reporters Michael Rezendes, Matt Carroll and Sacha Pfeiffer interview victims and try to unseal sensitive documents. The reporters make it their mission to provide proof of a cover-up of sexual abuse within the Roman Catholic Church.", "poster_path": "/ngKxbvsn9Si5TYVJfi1EGAGwThU.jpg", "release_date": "2015-11-06", "title": "Spotlight", "video": false, "vote_average": 7.8, "vote_count": 5408, "popularity": 22.049}, {"id": 507076, "video": false, "vote_count": 629, "vote_average": 7.1, "title": "Climax", "release_date": "2018-09-19", "original_language": "fr", "original_title": "Climax", "genre_ids": [18, 27, 10402], "backdrop_path": "/v0sblc9A8eaE8EqDQ5Y6fELj4oB.jpg", "adult": false, "overview": "Young dancers gather in a remote and empty school building to rehearse on a cold and wintry night. The all-night celebration soon turns into a hallucinatory nightmare when they learn that their sangria is laced with LSD.", "poster_path": "/zQDqgzSdTGSDu4rDcQTq7TAttmy.jpg", "popularity": 15.582}, {"adult": false, "backdrop_path": "/3Z0GbJ3NKBEbotdHxsllRBKRMmj.jpg", "genre_ids": [18], "id": 472451, "original_language": "en", "original_title": "Boy Erased", "overview": "Jared, the son of a Baptist pastor in a small American town, is outed to his parents at age 19. Jared is faced with an ultimatum: attend a gay conversion therapy program \u2013 or be permanently exiled and shunned by his family, friends, and faith.", "poster_path": "/oZbhTdi0ZQY7iiSQ0L7h3ya6NDF.jpg", "release_date": "2018-09-24", "title": "Boy Erased", "video": false, "vote_average": 7.2, "vote_count": 653, "popularity": 13.81}, {"id": 968, "video": false, "vote_count": 1443, "vote_average": 7.8, "title": "Dog Day Afternoon", "release_date": "1975-08-11", "original_language": "en", "original_title": "Dog Day Afternoon", "genre_ids": [80, 18, 53], "backdrop_path": "/gsnPjs2XTBhYDNFgnlsDgjuauDO.jpg", "adult": false, "overview": "Based on the true story of would-be Brooklyn bank robbers John Wojtowicz and Salvatore Naturale. Sonny and Sal attempt a bank heist which quickly turns sour and escalates into a hostage situation and stand-off with the police. As Sonny's motives for the robbery are slowly revealed and things become more complicated, the heist turns into a media circus.", "poster_path": "/qgWuZ2yNJrclU8EldQG4rLhwMoy.jpg", "popularity": 12.037}, {"adult": false, "backdrop_path": "/r3DKR4VybkjYP2w4wYFIf2cEPc.jpg", "genre_ids": [10749, 18], "id": 322127, "original_language": "de", "original_title": "You & I", "overview": "Summer in Berlin. Jonas is planning a trip through the little known area of the Uckermark in preparation for a photography project. He invites his best friend, Phillip, to come along. When they pick up a hitchhiker named Boris, the friendship of the two starts to fray. Maybe three\u2019s a crowd after all? By the end of the summer, things between Jonas and Phillip won\u2019t ever be the same again.", "poster_path": "/59OmxhLZVh3ZXLAu6iaywYYx01S.jpg", "release_date": "2015-09-16", "title": "You & I", "video": false, "vote_average": 7.4, "vote_count": 22, "popularity": 3.807}, {"adult": false, "backdrop_path": "/4NJplkljN06NQLMLSUNmrIsBjBZ.jpg", "genre_ids": [35, 18], "id": 400547, "original_language": "en", "original_title": "Hurricane Bianca", "overview": "Hurricane Bianca is a revenge comedy about a New York teacher who moves to a small town in Texas, gets fired for being gay, and returns disguised in drag to get revenge on the people who were nasty to him.", "poster_path": "/w1QM09R1TqwHTb5UA8X8jR2yh4x.jpg", "release_date": "2016-06-03", "title": "Hurricane Bianca", "video": false, "vote_average": 6.2, "vote_count": 212, "popularity": 10.051}, {"adult": false, "backdrop_path": "/4BMel8xxSed1pCkPSGc9R3jsUtC.jpg", "genre_ids": [18, 10749], "id": 142, "original_language": "en", "original_title": "Brokeback Mountain", "overview": "Two modern-day cowboys meet on a shepherding job in the summer of '63, the two share a raw and powerful summer together that turns into a lifelong relationship conflicting with the lives they are supposed to live.", "poster_path": "/z2DqVxj17aW6xpimRlCLfhKSfUm.jpg", "release_date": "2005-09-10", "title": "Brokeback Mountain", "video": false, "vote_average": 7.8, "vote_count": 3787, "popularity": 19.947}, {"id": 84892, "video": false, "vote_count": 6548, "vote_average": 7.7, "title": "The Perks of Being a Wallflower", "release_date": "2012-09-20", "original_language": "en", "original_title": "The Perks of Being a Wallflower", "genre_ids": [18], "backdrop_path": "/uhLcaTPeBpUNgYhZXhDWkj7gMkp.jpg", "adult": false, "overview": "15-year-old freshman Charlie is a wallflower, always watching life from the sidelines, until two charismatic senior students become his mentors. Free-spirited Sam and her stepbrother Patrick help Charlie discover the joys of friendship, first love, music and more, while a teacher sparks Charlie's dreams of becoming a writer.", "poster_path": "/cyNQLnHnXZcTUDXVVSEYmquOTOI.jpg", "popularity": 19.873}, {"adult": false, "backdrop_path": "/xhstSJACJF7QiO4zAsqAPXE1PbQ.jpg", "genre_ids": [18], "id": 306819, "original_language": "en", "original_title": "The Danish Girl", "overview": "When Gerda Wegener asks her husband Einar to fill in as a portrait model, Einar discovers the person she's meant to be and begins living her life as Lili Elbe. Having realized her true self and with Gerda's love and support, Lili embarks on a groundbreaking journey as a transgender pioneer.", "poster_path": "/seWQ6UKCrhGH0eP7dFZvmIBQtKF.jpg", "release_date": "2015-11-27", "title": "The Danish Girl", "video": false, "vote_average": 7.7, "vote_count": 4034, "popularity": 14.603}], "total_pages": 298, "total_results": 5944}, "recommendations": {"page": 1, "results": [], "total_pages": 1, "total_results": 0}, "credits": {"cast": [{"cast_id": 1, "character": "Cassidy Clarke", "credit_id": "52fe4510c3a368484e04656f", "gender": 0, "id": 95885, "name": "Tyler Hanes", "order": 0, "profile_path": null}, {"cast_id": 2, "character": "Jessica Clarke", "credit_id": "52fe4510c3a368484e046573", "gender": 0, "id": 95886, "name": "James Katharine Flynn", "order": 1, "profile_path": null}, {"cast_id": 3, "character": "Michael", "credit_id": "52fe4510c3a368484e046577", "gender": 0, "id": 95887, "name": "Robert Dionne", "order": 2, "profile_path": null}, {"cast_id": 4, "character": "Victor", "credit_id": "52fe4510c3a368484e04657b", "gender": 0, "id": 95888, "name": "Carlos Alberto Valencia", "order": 3, "profile_path": null}, {"cast_id": 5, "character": "Helen", "credit_id": "52fe4510c3a368484e04657f", "gender": 0, "id": 95889, "name": "Alison Fraser", "order": 4, "profile_path": null}, {"cast_id": 6, "character": "Dean", "credit_id": "52fe4510c3a368484e046583", "gender": 2, "id": 56386, "name": "Graeme Malcolm", "order": 5, "profile_path": "/mWMVqIe4mlJ1vgkbEHAJZgdWiJO.jpg"}], "crew": [{"credit_id": "52fe4510c3a368484e046589", "department": "Directing", "gender": 0, "id": 95890, "job": "Director", "name": "Lou Peterson", "profile_path": null}, {"credit_id": "52fe4510c3a368484e04658f", "department": "Writing", "gender": 0, "id": 95891, "job": "Writer", "name": "Lou Peterson", "profile_path": null}]}}