{"adult": false, "backdrop_path": "/oEZsMdyBOQVSRwgb7XAdOM9Kqx4.jpg", "belongs_to_collection": null, "budget": 0, "genres": [{"id": 18, "name": "Drama"}, {"id": 35, "name": "Comedy"}], "homepage": null, "id": 26665, "imdb_id": "tt0168446", "original_language": "en", "original_title": "Aberdeen", "overview": "Kaisa is a Scot, a successful London lawyer, who snorts coke and has one-night stands with strangers. Her mother calls from Aberdeen with some story begging her to fly to Norway and collect her alcoholic dad whom she hasn't seen in years.", "popularity": 5.342, "poster_path": "/vh6GDApPDkNfCUpiJA4lJ18g2Wk.jpg", "production_companies": [{"id": 4552, "logo_path": null, "name": "Filmfabriken Baltic Sea AB", "origin_country": ""}], "production_countries": [{"iso_3166_1": "GB", "name": "United Kingdom"}, {"iso_3166_1": "NO", "name": "Norway"}, {"iso_3166_1": "SE", "name": "Sweden"}], "release_date": "2000-07-05", "revenue": 0, "runtime": 113, "spoken_languages": [{"iso_639_1": "en", "name": "English"}], "status": "Released", "tagline": "", "title": "Aberdeen", "video": false, "vote_average": 7.0, "vote_count": 12, "keywords": {"keywords": [{"id": 567, "name": "alcohol"}, {"id": 2150, "name": "cocaine"}, {"id": 5600, "name": "daughter"}, {"id": 7312, "name": "road trip"}, {"id": 10183, "name": "independent film"}, {"id": 10909, "name": "lawyer"}]}, "similar": {"page": 1, "results": [{"adult": false, "backdrop_path": "/hEoThfZZpQAyU9HlpEaSO4Ofnbz.jpg", "genre_ids": [28, 35, 27], "id": 429733, "original_language": "en", "original_title": "Mayhem", "overview": "A virus spreads through an office complex causing white collar workers to act out their worst impulses.", "poster_path": "/fF5ULrCAQ8TULXyFGlPlQ2s3Jie.jpg", "release_date": "2017-03-13", "title": "Mayhem", "video": false, "vote_average": 6.3, "vote_count": 271, "popularity": 11.704}, {"id": 1878, "video": false, "vote_count": 2623, "vote_average": 7.2, "title": "Fear and Loathing in Las Vegas", "release_date": "1998-05-22", "original_language": "en", "original_title": "Fear and Loathing in Las Vegas", "genre_ids": [12, 35, 18], "backdrop_path": "/vtEKE4OFsnuIh37oo1arOMM2ELv.jpg", "adult": false, "overview": "Raoul Duke and his attorney Dr. Gonzo drive a red convertible across the Mojave desert to Las Vegas with a suitcase full of drugs to cover a motorcycle race. As their consumption of drugs increases at an alarming rate, the stoned duo trash their hotel room and fear legal repercussions. Duke begins to drive back to L.A., but after an odd run-in with a cop, he returns to Sin City and continues his wild drug binge.", "poster_path": "/u9ffgobMADj6GCafeImbov566j9.jpg", "popularity": 24.539}, {"adult": false, "backdrop_path": "/yIszPJawrrp6zcb62d7XJnaxAmw.jpg", "genre_ids": [18], "id": 13078, "original_language": "en", "original_title": "The Babysitters", "overview": "Seventeen-year-old Shirley is a good student who works as a babysitter in order to make money for college. One night Michael, a father Shirley works for, confesses he's unhappy with married life. Shirley has a crush on Michael, and seizes this moment to kiss him. Michael is so happy he presents Shirley with a big tip, which gives her an idea. Shirley plans to make extra money by setting up her teenage friends with other unhappy fathers.", "poster_path": "/nsrNUqGXI95unRKZEu8BJ584xWn.jpg", "release_date": "2007-09-11", "title": "The Babysitters", "video": false, "vote_average": 5.3, "vote_count": 153, "popularity": 16.136}, {"id": 339692, "video": false, "vote_count": 1163, "vote_average": 6.9, "title": "Shot Caller", "release_date": "2017-07-13", "original_language": "en", "original_title": "Shot Caller", "genre_ids": [80, 18, 53], "backdrop_path": "/hehboYLXB3m90x9ybiBsupwuifL.jpg", "adult": false, "overview": "A newly-released prison gangster is forced by the leaders of his gang to orchestrate a major crime with a brutal rival gang on the streets of Southern California.", "poster_path": "/qLmLz2wtyYvmW8Ult3l2ngOnW8v.jpg", "popularity": 25.016}, {"adult": false, "backdrop_path": "/npClMhFGn4XUkwu6coq5oKAEu6L.jpg", "genre_ids": [35, 10749, 18], "id": 634, "original_language": "en", "original_title": "Bridget Jones's Diary", "overview": "A chaotic Bridget Jones meets a snobbish lawyer, and he soon enters her world of imperfections.", "poster_path": "/ym6kjFFZg6boC0QHBVw6hqJLbxv.jpg", "release_date": "2001-04-13", "title": "Bridget Jones's Diary", "video": false, "vote_average": 6.7, "vote_count": 3079, "popularity": 16.678}, {"id": 39927, "video": false, "vote_count": 23, "vote_average": 6.1, "title": "Freeway II: Confessions of a Trickbaby", "release_date": "1999-09-10", "original_language": "en", "original_title": "Freeway II: Confessions of a Trickbaby", "genre_ids": [35, 80, 18, 53], "backdrop_path": "/6cgMfo7dhLkBQOc91O0tddkc2s9.jpg", "adult": false, "overview": "After escaping from jail, two teens flee to Tijuana and stay with one's childhood protector, a man masquerading as a nun.", "poster_path": "/5GDjVq3WhQRc7OlKb6QDQzxKdk7.jpg", "popularity": 5.999}, {"id": 4771, "video": false, "vote_count": 2133, "vote_average": 7.3, "title": "Gone Baby Gone", "release_date": "2007-09-18", "original_language": "en", "original_title": "Gone Baby Gone", "genre_ids": [80, 18, 9648], "backdrop_path": "/sogh5NXPbKFajjYKBlfIBfCWgbq.jpg", "adult": false, "overview": "When 4 year old Amanda McCready disappears from her home and the police make little headway in solving the case, the girl's aunt, Beatrice McCready hires two private detectives, Patrick Kenzie and Angie Gennaro. The detectives freely admit that they have little experience with this type of case, but the family wants them for two reasons - they're not cops and they know the tough neighborhood in which they all live. As the case progresses, Kenzie and Gennaro face drug dealers, gangs and pedophiles. When they are about to solve the case, they are faced with a moral dilemma that tears them apart.", "poster_path": "/dXXMPxGiRegd7NNCtE5uchAKRAG.jpg", "popularity": 15.301}, {"adult": false, "backdrop_path": "/714WM8GntrZIiJsXUUfeYFCWWhe.jpg", "genre_ids": [28, 80, 18, 53], "id": 507, "original_language": "en", "original_title": "Killing Zoe", "overview": "Zed (Eric Stoltz) is an American vault-cracker who travels to Paris to meet up with his old friend Eric (Jean-Hugues Anglade). Eric and his gang have planned to raid the only bank in the city which is open on Bastille day. After offering his services, Zed soon finds himself trapped in a situation beyond his control when heroin abuse, poor planning and a call-girl named Zoe all conspire to turn the robbery into a very bloody siege.", "poster_path": "/xhGpPx5o4ngIbXKUs8ogn24hrBL.jpg", "release_date": "1993-10-01", "title": "Killing Zoe", "video": false, "vote_average": 6.2, "vote_count": 182, "popularity": 9.199}, {"id": 23954, "video": false, "vote_count": 99, "vote_average": 7.0, "title": "Atlantic City", "release_date": "1980-09-02", "original_language": "en", "original_title": "Atlantic City", "genre_ids": [80, 18, 10749], "backdrop_path": "/arPzR7bc4VuRNaROGHslaWFgxRV.jpg", "adult": false, "overview": "In a corrupt city, a small-time gangster and the estranged wife of a pot dealer find themselves thrown together in an escapade of love, money, drugs and danger.", "poster_path": "/awqnReDddvVCAjRHFRtBxh2CCfh.jpg", "popularity": 8.1}, {"adult": false, "backdrop_path": "/7QjoyyGdBV32x1sEh64dAnNjwg2.jpg", "genre_ids": [53, 35, 27], "id": 12521, "original_language": "en", "original_title": "Shocker", "overview": "After being sent to the electric chair, a serial killer uses electricity to come back from the dead and carry out his vengeance on the football player who turned him in to the police.", "poster_path": "/xEDmOhNGCKlWlS3mCiqLCVzBXVA.jpg", "release_date": "1989-10-27", "title": "Shocker", "video": false, "vote_average": 5.5, "vote_count": 176, "popularity": 9.966}, {"adult": false, "backdrop_path": "/g1BfxcnplYEveGqS1ttfhdRBgbR.jpg", "genre_ids": [35, 53, 80], "id": 8012, "original_language": "en", "original_title": "Get Shorty", "overview": "Chili Palmer is a Miami mobster who gets sent by his boss, the psychopathic \"Bones\" Barboni, to collect a bad debt from Harry Zimm, a Hollywood producer who specializes in cheesy horror films. When Chili meets Harry's leading lady, the romantic sparks fly. After pitching his own life story as a movie idea, Chili learns that being a mobster and being a Hollywood producer really aren't all that different.", "poster_path": "/vWtDUUgQAsVyvRW4mE75LBgVm2e.jpg", "release_date": "1995-10-20", "title": "Get Shorty", "video": false, "vote_average": 6.5, "vote_count": 543, "popularity": 11.5}, {"adult": false, "backdrop_path": "/ltq1i8ienPm7OSdOXl3o8ROgmKc.jpg", "genre_ids": [28, 80, 18], "id": 2142, "original_language": "en", "original_title": "Cop Land", "overview": "Freddy Heflin is the sheriff of a place everyone calls \u201cCop Land\u201d \u2014 a small and seemingly peaceful town populated by the big city police officers he\u2019s long admired. Yet something ugly is taking place behind the town\u2019s peaceful facade. And when Freddy uncovers a massive, deadly conspiracy among these local residents, he is forced to take action and make a dangerous choice between protecting his idols and upholding the law.", "poster_path": "/th2UDVewgUAfIXFUaWGWWBxCM91.jpg", "release_date": "1997-08-15", "title": "Cop Land", "video": false, "vote_average": 6.7, "vote_count": 757, "popularity": 13.66}, {"adult": false, "backdrop_path": "/neSLpxwG5TWNzCPDUIZ9kbl2bOL.jpg", "genre_ids": [18, 53, 80], "id": 4836, "original_language": "en", "original_title": "Layer Cake", "overview": "When a seemingly straight-forward drug deal goes awry, XXXX has to break his die-hard rules and turn up the heat, not only to outwit the old regime and come out on top, but to save his own skin...", "poster_path": "/y6BzUkrx789OhVMDXZiBBVHu6OQ.jpg", "release_date": "2004-09-30", "title": "Layer Cake", "video": false, "vote_average": 7.0, "vote_count": 1028, "popularity": 15.863}, {"id": 398181, "video": false, "vote_count": 1301, "vote_average": 6.6, "title": "You Were Never Really Here", "release_date": "2017-11-08", "original_language": "en", "original_title": "You Were Never Really Here", "genre_ids": [53], "backdrop_path": "/h4Lk8Cgfvlzz0hcnSJBTAOwNDia.jpg", "adult": false, "overview": "A traumatised veteran, unafraid of violence, tracks down missing girls for a living. When a job spins out of control, Joe's nightmares overtake him as a conspiracy is uncovered leading to what may be his death trip or his awakening.", "poster_path": "/ktPbjD6nYg5NxmeTt72Iqaw5GD0.jpg", "popularity": 19.651}, {"id": 298312, "video": false, "vote_count": 2921, "vote_average": 6.2, "title": "The Visit", "release_date": "2015-09-10", "original_language": "en", "original_title": "The Visit", "genre_ids": [27, 9648, 53], "backdrop_path": "/gbJlEeALVGo7kx8bC2q4EFWX1Xy.jpg", "adult": false, "overview": "The terrifying story of a brother and sister who are sent to their grandparents' remote Pennsylvania farm for a weeklong trip. Once the children discover that the elderly couple is involved in something deeply disturbing, they see their chances of getting back home are growing smaller every day.", "poster_path": "/32tNtTEQ1vIOLm1hEOSFkVwJT5D.jpg", "popularity": 20.148}, {"adult": false, "backdrop_path": "/kiWvoV78Cc3fUwkOHKzyBgVdrDD.jpg", "genre_ids": [37, 18, 12], "id": 281957, "original_language": "en", "original_title": "The Revenant", "overview": "In the 1820s, a frontiersman, Hugh Glass, sets out on a path of vengeance against those who left him for dead after a bear mauling.", "poster_path": "/oXUWEc5i3wYyFnL1Ycu8ppxxPvs.jpg", "release_date": "2015-12-25", "title": "The Revenant", "video": false, "vote_average": 7.5, "vote_count": 12122, "popularity": 30.491}, {"adult": false, "backdrop_path": "/jQR6de9dwOjvx91wC4tqpTlMqCD.jpg", "genre_ids": [53, 80, 18], "id": 109421, "original_language": "en", "original_title": "Side Effects", "overview": "A woman turns to prescription medication as a way of handling her anxiety concerning her husband's upcoming release from prison.", "poster_path": "/ttD69Yhh2BV1WVqr27NRbF8ubOW.jpg", "release_date": "2013-02-07", "title": "Side Effects", "video": false, "vote_average": 6.5, "vote_count": 2035, "popularity": 11.74}, {"id": 400535, "video": false, "vote_count": 1615, "vote_average": 6.7, "title": "Sicario: Day of the Soldado", "release_date": "2018-06-27", "original_language": "en", "original_title": "Sicario: Day of the Soldado", "genre_ids": [28, 80, 18, 53], "backdrop_path": "/13VjjUeJ6mcDUB36XRu4YFpYNSm.jpg", "adult": false, "overview": "Agent Matt Graver teams up with operative Alejandro Gillick to prevent Mexican drug cartels from smuggling terrorists across the United States border.", "poster_path": "/msqWSQkU403cQKjQHnWLnugv7EY.jpg", "popularity": 29.236}, {"id": 11811, "video": false, "vote_count": 284, "vote_average": 5.2, "title": "Leprechaun", "release_date": "1993-01-08", "original_language": "en", "original_title": "Leprechaun", "genre_ids": [35, 27, 53], "backdrop_path": "/32Oy8gCg6gBGMMkZvdAq4xjZ0Qj.jpg", "adult": false, "overview": "A horrific Leprechaun goes on a rampage after his precious bag of gold coins is stolen. He uses all of his magical destructive powers to trick, terrorize and kill anyone who is unlucky enough to hinder his relentless search. In a frantic attempt to survive the wrath of the Leprechaun, Tori and her friends scramble to find the only weapon known to kill this Irish monster...a four-leaf clover.", "poster_path": "/2dsUS77eZIjWduahxqYtp3U0zS2.jpg", "popularity": 12.88}, {"adult": false, "backdrop_path": "/rW5gI8SEO1qYbXGwRANYrKtMiQB.jpg", "genre_ids": [18], "id": 413362, "original_language": "en", "original_title": "Roman J. Israel, Esq.", "overview": "Hard-nosed liberal lawyer Roman J. Israel has been fighting the good fight forever while others take the credit. When his partner \u2013 the firm\u2019s frontman \u2013 has a heart attack, Israel suddenly takes on that role. He soon discovers some unsettling truths about the firm \u2013 truths that conflict with his values of helping the poor and dispossessed \u2013 and finds himself in an existential crisis that leads to extreme actions.", "poster_path": "/epTCHVcyLkT8Aqt08Ki3PWC2sUh.jpg", "release_date": "2017-11-17", "title": "Roman J. Israel, Esq.", "video": false, "vote_average": 6.3, "vote_count": 583, "popularity": 11.775}], "total_pages": 44, "total_results": 870}, "recommendations": {"page": 1, "results": [{"adult": false, "backdrop_path": null, "genre_ids": [18, 99], "id": 270521, "original_language": "en", "original_title": "Shake Hands with Danger", "overview": "A cautionary training film for those who operate and repair heavy equipment. We watch vignettes of men taking short cuts in their work, doing things they aren't trained for, neglecting to warn a less experienced worker, using the wrong tool or a tool that's in disrepair, ignoring proper safety practices, trying to appear macho in front of fellow workers, thinking their reflexes are quicker than they are, working while distracted, and generally putting themselves and others at risk. The film is punctuated by the song, \"Shakes Hands with Danger,\" the story of Three-Finger Joe. Filmed using Caterpillar equipment. \u2013IMdB", "poster_path": "/tYOkqXA8lRZAuzoQA60MJmZKZGO.jpg", "release_date": "1980-06-03", "title": "Shake Hands with Danger", "video": false, "vote_average": 3.7, "vote_count": 3, "popularity": 2.134}, {"adult": false, "backdrop_path": "/qKkTSfie0dQVBigyezMD90kQxfQ.jpg", "genre_ids": [10770, 18, 36], "id": 41127, "original_language": "en", "original_title": "Norma Jean & Marilyn", "overview": "This film follows Norma Jean from her simple, ambitious youth to her sex star pinnacle and back down. She moves from lover to lover in order to further her career. She finds fame but never happiness, only knowing seduction but not love.", "poster_path": "/2JrVAx0ZfY6ueScGxZZMqjaATzv.jpg", "release_date": "1996-05-18", "title": "Norma Jean & Marilyn", "video": false, "vote_average": 5.7, "vote_count": 11, "popularity": 5.543}, {"adult": false, "backdrop_path": null, "genre_ids": [28, 9648, 53], "id": 48170, "original_language": "en", "original_title": "Black Cat Run", "overview": "A girl is in love with a gas station attendant and sees him against her father's wishes. The father is the sheriff and shortly after a confrontation with the boy friend, he is killed by escaped convicts and the daughter is kidnapped. Everyone, including the deputy, is convinced that the boy friend committed the murder and ran away with the girl. This sets up a chase of the convicts by the boy friend and of the boy friend by the police.", "poster_path": "/mwc5GRwZCgbH3dEa4LDMMOnnUVa.jpg", "release_date": "1998-09-18", "title": "Black Cat Run", "video": false, "vote_average": 4.6, "vote_count": 6, "popularity": 3.895}, {"adult": false, "backdrop_path": null, "genre_ids": [16, 99], "id": 324247, "original_language": "en", "original_title": "A Case of Spring Fever", "overview": "Advertising short for Chevrolet combining live action and animation. The film relates the story of Gilbert Willoughby, who, exasperated by his stubborn boxspring mattress, imprudently wishes for the disappearance of springs. Coily, the animated spring sprite, grants his wish, and Gilbert is bedeviled by once-familar appliances that no longer function. Apolo\u00adgizing to Coily, Gilbert acknowledges the contribution of springs to daily life, especially in the Chevrolet.", "poster_path": "/7zLShPpxy9WZhvEaSMPMFkXINoF.jpg", "release_date": "1940-02-03", "title": "A Case of Spring Fever", "video": false, "vote_average": 2.8, "vote_count": 5, "popularity": 1.93}, {"adult": false, "backdrop_path": "/mlLVpchYo1duKOkXHxcUYktR84H.jpg", "genre_ids": [18, 10749], "id": 47676, "original_language": "en", "original_title": "Bodies, Rest & Motion", "overview": "Rebelling against his dreary life in a small Arizona town, salesman Nick abandons his girlfriend, Beth, and strikes out onto the highway in search of... something else. Encouraged by her best friend, Carol, Beth reluctantly accepts the romantic attentions of Sid, a local housepainter.", "poster_path": "/spBRv0p3cpwyaxIff8d9LrpDk8W.jpg", "release_date": "1993-01-10", "title": "Bodies, Rest & Motion", "video": false, "vote_average": 5.6, "vote_count": 9, "popularity": 3.556}, {"adult": false, "backdrop_path": "/fAqh4UDGxtaXrOTgBqegPKCgn68.jpg", "genre_ids": [35, 18, 10749], "id": 45174, "original_language": "en", "original_title": "Easy", "overview": "Quirky Jamie Harris (Marguerite Moreau) has a big problem: She's a magnet for less-than-kind men as she hops beds. But things start to look up when she becomes the object of affection of two seemingly normal guys, Mick (Brian O'Byrne) and John (Naveen Andrews). Unfortunately, there's the immense problem of her self-imposed 90-day moratorium on sex. Emily Deschanel co-stars as Jamie's sister, Laura.", "poster_path": "/8EWsDn4tgeP2X3OxbyJUFmXYEME.jpg", "release_date": "2003-09-10", "title": "Easy", "video": false, "vote_average": 5.9, "vote_count": 14, "popularity": 6.101}, {"adult": false, "backdrop_path": null, "genre_ids": [99, 10751], "id": 300502, "original_language": "en", "original_title": "Drugs Are Like That", "overview": "[\u2026] Though the highs and lows of human experience are all here, it's often the gimcrack set design and fashion chops in these vintage clunkers that really wow \u2013 the pot-holder sweater vests, ponytails decorated with yarn, hippies with crumb-catching moustaches, banana-seat bikes and a hard rain of Quaaludes and amphetamines to illustrate the dangers of drug addiction. It is hard to believe anyone would buy the goofball cause-and-effect of that pill-popper's weather pattern in \"Drugs Are Like That\". Co-produced by the Miami Junior League and narrated by Anita Bryant in this cheery little hand-slapper, a kid stealing cookies from a cookie jar is implied to be headed down a bad road to Bowery bum rolls and LSD parties. (from: http://clatl.com/atlanta/av-geeks-greatest-hits-lessons-learned/Content?oid=1268313)", "poster_path": "/x1tJNroD9vBQ0I6tMTeIcfTpUtP.jpg", "release_date": "1969-01-01", "title": "Drugs Are Like That", "video": false, "vote_average": 2.0, "vote_count": 6, "popularity": 1.4}, {"adult": false, "backdrop_path": "/83hByEoe4uDhQpAU3jOcrcROTbV.jpg", "genre_ids": [53, 10749], "id": 59481, "original_language": "en", "original_title": "A House In The Hills", "overview": "An aspiring actress gets a housesitting job and finds herself in a cat-and-mouse game with a deadly ex-con.", "poster_path": "/6XgyINtuJ8MzUqFcx09p9dpnbN.jpg", "release_date": "1993-01-20", "title": "A House In The Hills", "video": false, "vote_average": 6.3, "vote_count": 6, "popularity": 5.27}, {"id": 162042, "video": false, "vote_count": 11, "vote_average": 2.3, "title": "Riding with Death", "release_date": "1976-01-01", "original_language": "en", "original_title": "Riding with Death", "genre_ids": [28, 878, 53, 10770], "backdrop_path": null, "adult": false, "overview": "Dimwitted, meaty guy foils criminals by turning invisible.", "poster_path": "/AeIrTwVdTNA6Y4kYQ9QMA1Goahe.jpg", "popularity": 3.173}, {"adult": false, "backdrop_path": "/hmmibZNCgYqHYKLOvcCMSza3WVT.jpg", "genre_ids": [18, 53, 10749], "id": 33135, "original_language": "en", "original_title": "Fun", "overview": "Bonnie and Hillary are two young lost souls who meet one day and discover that they get along. They talk about their lives and run around and and keep getting really excited. Their day escalates into an eruption of violence and rage that can only be understood by the two girls.", "poster_path": "/qqZIu0bt2MAGgt21FOuMmgOZ4R2.jpg", "release_date": "1994-01-01", "title": "Fun", "video": false, "vote_average": 5.4, "vote_count": 11, "popularity": 4.06}, {"adult": false, "backdrop_path": "/o5GPsgYeqtjql5lKTAIspXiYD0C.jpg", "genre_ids": [18, 14, 27, 53], "id": 60158, "original_language": "en", "original_title": "Afraid of the Dark", "overview": "A little boy, obsessed with blindness and violence, slowly gets trapped in his own delusions.", "poster_path": "/x9K3jsl7ypxqMGI7p9gzRb3BsV3.jpg", "release_date": "1991-10-10", "title": "Afraid of the Dark", "video": false, "vote_average": 5.7, "vote_count": 17, "popularity": 4.452}], "total_pages": 1, "total_results": 11}, "credits": {"cast": [{"cast_id": 1, "character": "Tomas", "credit_id": "52fe4512c3a368484e046c5f", "gender": 2, "id": 1640, "name": "Stellan Skarsg\u00e5rd", "order": 0, "profile_path": "/wCpWjalD8d4MNuAdYupYf3viT1I.jpg"}, {"cast_id": 3, "character": "Kaisa", "credit_id": "52fe4512c3a368484e046c67", "gender": 1, "id": 17286, "name": "Lena Headey", "order": 1, "profile_path": "/wcpy6J7KLzmVt0METboX3CZ0Jp.jpg"}, {"cast_id": 4, "character": "Helen", "credit_id": "52fe4512c3a368484e046c6b", "gender": 1, "id": 44079, "name": "Charlotte Rampling", "order": 2, "profile_path": "/5U35yScoao1hf6SibbMZcld2CJd.jpg"}, {"cast_id": 11, "character": "Clive", "credit_id": "52fe4512c3a368484e046c89", "gender": 2, "id": 10985, "name": "Ian Hart", "order": 3, "profile_path": "/tAsLBMEaRv3S7AefSQwd1JlO71H.jpg"}, {"cast_id": 5, "character": "Sara", "credit_id": "52fe4512c3a368484e046c6f", "gender": 1, "id": 21978, "name": "Louise Goodall", "order": 4, "profile_path": "/k4YGC99QtEVpCMQezJnPUewQmEj.jpg"}, {"cast_id": 6, "character": "Perkins", "credit_id": "52fe4512c3a368484e046c73", "gender": 0, "id": 95969, "name": "Jason Hetherington", "order": 5, "profile_path": null}, {"cast_id": 7, "character": "Emily", "credit_id": "52fe4512c3a368484e046c77", "gender": 0, "id": 21344, "name": "Kate Lynn Evans", "order": 6, "profile_path": "/u4QOu7yLTWk88SDSlWogEmH6C38.jpg"}, {"cast_id": 8, "character": "Blake", "credit_id": "52fe4512c3a368484e046c7b", "gender": 0, "id": 95970, "name": "John Killoran", "order": 7, "profile_path": null}, {"cast_id": 9, "character": "Huddleson", "credit_id": "52fe4512c3a368484e046c7f", "gender": 2, "id": 95971, "name": "John Harwood", "order": 8, "profile_path": null}, {"cast_id": 22, "character": "Kaisa as a child", "credit_id": "58dbc037925141338100ca97", "gender": 0, "id": 1785926, "name": "Jean Anderson", "order": 9, "profile_path": null}, {"cast_id": 23, "character": "Young Man", "credit_id": "5a23a7cb0e0a264cc40bdc4e", "gender": 2, "id": 76968, "name": "Leo Gregory", "order": 10, "profile_path": "/77LXk6gzXbEUJ180WDFnoJLOjR2.jpg"}, {"cast_id": 24, "character": "Moose", "credit_id": "5a23a7d6c3a3680b880c55b0", "gender": 0, "id": 1216098, "name": "Marshall Lancaster", "order": 11, "profile_path": "/r9iGfXBJuketnIskFrdlh56BQp5.jpg"}], "crew": [{"credit_id": "5326dd2fc3a368572500b561", "department": "Sound", "gender": 2, "id": 1135, "job": "Music", "name": "Zbigniew Preisner", "profile_path": "/bBebcS5dznOr7l9lBZqzISgeYYC.jpg"}, {"credit_id": "5782ce3dc3a3685e08002448", "department": "Production", "gender": 2, "id": 8313, "job": "Casting", "name": "Jeremy Zimmermann", "profile_path": null}, {"credit_id": "5cdd738e9251416e32d0a7d1", "department": "Production", "gender": 2, "id": 39812, "job": "Co-Producer", "name": "John McGrath", "profile_path": "/a5ErRlpJD67HcLyorIX06T7QTsX.jpg"}, {"credit_id": "5326dd3ec3a36813c2003f84", "department": "Crew", "gender": 2, "id": 46122, "job": "Cinematography", "name": "Philip \u00d8gaard", "profile_path": null}, {"credit_id": "5326dd9bc3a36813c2003f93", "department": "Costume & Make-Up", "gender": 0, "id": 63752, "job": "Costume Design", "name": "Anne Pedersen", "profile_path": null}, {"credit_id": "52fe4512c3a368484e046c85", "department": "Directing", "gender": 2, "id": 95972, "job": "Director", "name": "Hans Petter Moland", "profile_path": "/xPUm6zfCrmDZb8fkby2zzF6sp8z.jpg"}, {"credit_id": "5326dd0cc3a36813c2003f76", "department": "Writing", "gender": 2, "id": 95972, "job": "Writer", "name": "Hans Petter Moland", "profile_path": "/xPUm6zfCrmDZb8fkby2zzF6sp8z.jpg"}, {"credit_id": "5326dd8dc3a368572500b577", "department": "Art", "gender": 2, "id": 1011613, "job": "Art Direction", "name": "Mike Gunn", "profile_path": null}, {"credit_id": "5326dd69c3a3684133004445", "department": "Art", "gender": 0, "id": 1112711, "job": "Production Design", "name": "Janusz Sosnowski", "profile_path": null}, {"credit_id": "5326dd1bc3a36813c2003f7b", "department": "Writing", "gender": 0, "id": 1301630, "job": "Writer", "name": "Kristin Amundsen", "profile_path": null}, {"credit_id": "5326dd4cc3a36824af003c4a", "department": "Editing", "gender": 0, "id": 1301631, "job": "Editor", "name": "Sophie Hesselberg", "profile_path": null}]}}