{"adult": false, "backdrop_path": "/t49drj79cVwxbK6gOBBCIWBgAxP.jpg", "belongs_to_collection": null, "budget": 0, "genres": [{"id": 18, "name": "Drama"}, {"id": 36, "name": "History"}, {"id": 10749, "name": "Romance"}], "homepage": "http://www.rikyu-movie.jp/", "id": 266985, "imdb_id": "tt2500392", "original_language": "en", "original_title": "\u5229\u4f11\u306b\u305f\u305a\u306d\u3088", "overview": "Sen no Rikyu (Ebizo Ichikawa) is the son of a fish shop owner. Sen no Rikyu then studies tea and eventually becomes one of the primary influences upon the Japanese tea ceremony. With his elegant esthetics, Sen no Rikyu is favored by the most powerful man in Japan Toyotomi Hideyoshi (Nao Omori) and becomes one of his closest advisors. Due to conflicts, Toyotomi Hideyoshi then orders Sen no Rikyu to commit seppuku (suicide).  Notes", "popularity": 2.596, "poster_path": "/xRNadIoMyfA5UQ8UnYhlAGVyVta.jpg", "production_companies": [{"id": 5822, "logo_path": "/qyTbRgCyU9NLKvKaiQVbadtr7RY.png", "name": "Toei Company, Ltd.", "origin_country": "JP"}], "production_countries": [{"iso_3166_1": "JP", "name": "Japan"}], "release_date": "2013-09-01", "revenue": 0, "runtime": 124, "spoken_languages": [{"iso_639_1": "ja", "name": "\u65e5\u672c\u8a9e"}], "status": "Released", "tagline": "", "title": "Ask This of Rikyu", "video": false, "vote_average": 5.0, "vote_count": 1, "keywords": {"keywords": [{"id": 3258, "name": "beauty"}, {"id": 4262, "name": "tea"}, {"id": 18100, "name": "seppuku"}]}, "similar": {"page": 1, "results": [{"adult": false, "backdrop_path": "/9DlrsXH9LOgPeuF6Hljmx8GQNlM.jpg", "genre_ids": [18, 28], "id": 7549, "original_language": "zh", "original_title": "\u970d\u5143\u7532", "overview": "Huo Yuan Jia became the most famous martial arts fighter in all of China at the turn of the 20th Century. Huo faced personal tragedy but ultimately fought his way out of darkness, defining the true spirit of martial arts and also inspiring his nation. The son of a great fighter who didn't wish for his child to follow in his footsteps, Huo resolves to teach himself how to fight - and win.", "poster_path": "/nPku02hVAFPsAd1pJr81OkdBidw.jpg", "release_date": "2006-01-26", "title": "Fearless", "video": false, "vote_average": 7.4, "vote_count": 648, "popularity": 12.897}, {"id": 652, "video": false, "vote_count": 6024, "vote_average": 7.0, "title": "Troy", "release_date": "2004-05-03", "original_language": "en", "original_title": "Troy", "genre_ids": [12, 36], "backdrop_path": "/lIyNUZbIeEwWpaWXAO5gnciB8Dq.jpg", "adult": false, "overview": "In year 1250 B.C. during the late Bronze age, two emerging nations begin to clash. Paris, the Trojan prince, convinces Helen, Queen of Sparta, to leave her husband Menelaus, and sail with him back to Troy. After Menelaus finds out that his wife was taken by the Trojans, he asks his brother Agamemnom to help him get her back. Agamemnon sees this as an opportunity for power. So they set off with 1,000 ships holding 50,000 Greeks to Troy. With the help of Achilles, the Greeks are able to fight the never before defeated Trojans.", "poster_path": "/edMlij7nw2NMla32xskDnzMCFBM.jpg", "popularity": 27.723}, {"id": 4922, "video": false, "vote_count": 7506, "vote_average": 7.5, "title": "The Curious Case of Benjamin Button", "release_date": "2008-12-25", "original_language": "en", "original_title": "The Curious Case of Benjamin Button", "genre_ids": [18, 14, 9648, 53, 10749], "backdrop_path": "/u4izHlsHk8jwalt5m7E2uzP8q9E.jpg", "adult": false, "overview": "Born under unusual circumstances, Benjamin Button springs into being as an elderly man in a New Orleans nursing home and ages in reverse. Twelve years after his birth, he meets Daisy, a child who flits in and out of his life as she grows up to be a dancer. Though he has all sorts of unusual adventures over the course of his life, it is his relationship with Daisy, and the hope that they will come together at the right time, that drives Benjamin forward.", "poster_path": "/gjMR102u5hPdIAWX7O2rim8ZWgA.jpg", "popularity": 29.019}, {"adult": false, "backdrop_path": "/zrGPZc07huy9ApZs7GCrWj05Cy8.jpg", "genre_ids": [12, 14, 10749, 10751], "id": 2270, "original_language": "en", "original_title": "Stardust", "overview": "In a countryside town bordering on a magical land, a young man makes a promise to his beloved that he'll retrieve a fallen star by venturing into the magical realm. His journey takes him into a world beyond his wildest dreams and reveals his true identity.", "poster_path": "/A9gXvPOnMu961E36x5p3RT4FQ5E.jpg", "release_date": "2007-08-09", "title": "Stardust", "video": false, "vote_average": 7.2, "vote_count": 2402, "popularity": 20.44}, {"id": 14537, "video": false, "vote_count": 304, "vote_average": 8.3, "title": "Harakiri", "release_date": "1962-09-15", "original_language": "ja", "original_title": "\u5207\u8179", "genre_ids": [28, 18, 36], "backdrop_path": "/pz9fxHyGiiNLZ21bccAtwrMAH7f.jpg", "adult": false, "overview": "Aging samurai Hanshiro Tsugumo arrives at the home of Kageyu Saito and asks to commit a ritual suicide on the property, which Saito thinks is a ploy to gain pity and a job. Saito tells Tsugumo of another samurai, Motome Chijiiwa, who threatened suicide as a stratagem, only to be forced to follow through on the task. When Tsugumo reveals that Chijiiwa was his son-in-law, the disclosure sets off a fierce conflict.", "poster_path": "/k2SE5P8expiI4Pt9qzIX0xJn94E.jpg", "popularity": 15.33}, {"id": 58857, "video": false, "vote_count": 575, "vote_average": 7.3, "title": "13 Assassins", "release_date": "2010-09-09", "original_language": "ja", "original_title": "\u5341\u4e09\u4eba\u306e\u523a\u5ba2", "genre_ids": [28, 12, 18], "backdrop_path": "/3XNpANIIv8O49oTD31suUdhINHH.jpg", "adult": false, "overview": "A bravado period action film set at the end of Japan's feudal era in which a group of unemployed samurai are enlisted to bring down a sadistic lord and prevent him from ascending to the throne and plunging the country into a war-torn future.", "poster_path": "/7Vr1c98X9JaKW6K95Xm6KBqiqDg.jpg", "popularity": 12.165}, {"id": 314, "video": false, "vote_count": 2004, "vote_average": 4.4, "title": "Catwoman", "release_date": "2004-07-22", "original_language": "en", "original_title": "Catwoman", "genre_ids": [28, 14, 9648], "backdrop_path": "/3ErftAMzVP4btJhbrd5H8FvIHRb.jpg", "adult": false, "overview": "Liquidated after discovering a corporate conspiracy, mild-mannered graphic artist Patience Phillips washes up on an island, where she's resurrected and endowed with the prowess of a cat -- and she's eager to use her new skills ... as a vigilante. Before you can say \"cat and mouse,\" handsome gumshoe Tom Lone is on her tail.", "poster_path": "/3E1XPZ2lZmL4lJV1KSUi1jaSx3w.jpg", "popularity": 22.262}, {"id": 179144, "video": false, "vote_count": 1725, "vote_average": 7.5, "title": "The Great Beauty", "release_date": "2013-05-21", "original_language": "it", "original_title": "La grande bellezza", "genre_ids": [18], "backdrop_path": "/BvJAJuAnIooQQGzRdFTY9Oy6Wj.jpg", "adult": false, "overview": "Jep Gambardella has seduced his way through the lavish nightlife of Rome for decades, but after his 65th birthday and a shock from the past, Jep looks past the nightclubs and parties to find a timeless landscape of absurd, exquisite beauty.", "poster_path": "/nDBRRkZgaGhJw91wdcUFYwWIbFF.jpg", "popularity": 15.136}, {"id": 9870, "video": false, "vote_count": 2145, "vote_average": 6.5, "title": "Forgetting Sarah Marshall", "release_date": "2008-04-17", "original_language": "en", "original_title": "Forgetting Sarah Marshall", "genre_ids": [35, 18, 10749], "backdrop_path": "/bMKM38kagsyTPXkilIcZJZsgRH6.jpg", "adult": false, "overview": "When Sarah Marshall dumps aspiring musician Peter Bretter for rock star Aldous Snow, Peter's world comes crashing down. His best friend suggests that Peter should get away from everything and to fly off to Hawaii to escape all his problems. After arriving in Hawaii and meeting the beautiful Rachel Jansen, Peter is shocked to see not only Aldous Snow in Hawaii, but also Sarah Marshall.", "poster_path": "/rAXlZmQ3gg4mScySg1kvs0ZLdCb.jpg", "popularity": 17.075}, {"id": 9889, "video": false, "vote_count": 1676, "vote_average": 6.0, "title": "Shallow Hal", "release_date": "2001-11-01", "original_language": "en", "original_title": "Shallow Hal", "genre_ids": [35, 10749], "backdrop_path": "/k9fMBC1MMgrt4w6IVuB7kTX3yqz.jpg", "adult": false, "overview": "A shallow man falls in love with a 300 pound woman because of her \"inner beauty\".", "poster_path": "/xhdJKfDp7TihFcO5CF6BFY1xImE.jpg", "popularity": 17.032}, {"adult": false, "backdrop_path": "/jLq0ol1f0ZKXni9R9GsPBcyPrNN.jpg", "genre_ids": [18], "id": 18148, "original_language": "ja", "original_title": "\u6771\u4eac\u7269\u8a9e", "overview": "The elderly Shukishi and his wife, Tomi, take the long journey from their small seaside village to visit their adult children in Tokyo. Their elder son, Koichi, a doctor, and their daughter, Shige, a hairdresser, don't have much time to spend with their aged parents, and so it falls to Noriko, the widow of their younger son who was killed in the war, to keep her in-laws company.", "poster_path": "/g2YbTYKpY7N2yDSk7BfXZ18I5QV.jpg", "release_date": "1953-11-03", "title": "Tokyo Story", "video": false, "vote_average": 8.4, "vote_count": 423, "popularity": 12.262}, {"adult": false, "backdrop_path": "/5kpOAyvOmU8OE3xA9JPMXmsRLWe.jpg", "genre_ids": [35, 18, 10749], "id": 10860, "original_language": "en", "original_title": "Steel Magnolias", "overview": "This heart wrenching drama is about a beauty shop, in Louisana owned by Truvy, and the tragedies of all of her clients.", "poster_path": "/dxuEXH91o2sau7V8auiour1nEvv.jpg", "release_date": "1989-11-15", "title": "Steel Magnolias", "video": false, "vote_average": 7.3, "vote_count": 329, "popularity": 9.69}, {"id": 648, "video": false, "vote_count": 300, "vote_average": 7.6, "title": "Beauty and the Beast", "release_date": "1946-10-29", "original_language": "fr", "original_title": "La belle et la b\u00eate", "genre_ids": [18, 14, 10749], "backdrop_path": "/rcRaonawClUiBjPHjVy4lEMuT3q.jpg", "adult": false, "overview": "The story of a gentle-hearted beast in love with a simple and beautiful girl. She is drawn to the repellent but strangely fascinating Beast, who tests her fidelity by giving her a key, telling her that if she doesn't return it to him by a specific time, he will die of grief. She is unable to return the key on time, but it is revealed that the Beast is the genuinely handsome one. A simple tale of tragic love that turns into a surreal vision of death, desire, and beauty.", "poster_path": "/qi4V20bYyclriiOXzsfbejypy8u.jpg", "popularity": 11.941}, {"id": 15384, "video": false, "vote_count": 211, "vote_average": 7.4, "title": "Red Cliff Part II", "release_date": "2009-01-07", "original_language": "zh", "original_title": "\u8d64\u58c12\uff1a\u6c7a\u6230\u5929\u4e0b", "genre_ids": [28, 18, 36, 10752], "backdrop_path": "/xss9UWu8q9WrJx7TwAVMPxzrldl.jpg", "adult": false, "overview": "The battle of Red Cliff continues and the alliance between Xu and East Wu is fracturing.  With Cao Cao's massive forces on their doorstep, will the kingdoms of Xu and East Wu survive?", "poster_path": "/h4WZHa5K941lAthsa29g0RFJJtV.jpg", "popularity": 14.234}, {"adult": false, "backdrop_path": "/fxi6HNlCqRd2JAfinpSsEgUblZJ.jpg", "genre_ids": [18, 10749], "id": 2288, "original_language": "en", "original_title": "Closer", "overview": "Two couples disintegrate when they begin destructive adulterous affairs with each other.", "poster_path": "/fGGaokx4k00S0J603VG53Qlr9jz.jpg", "release_date": "2004-12-01", "title": "Closer", "video": false, "vote_average": 6.8, "vote_count": 1879, "popularity": 18.235}, {"id": 11645, "video": false, "vote_count": 683, "vote_average": 8.1, "title": "Ran", "release_date": "1985-06-01", "original_language": "ja", "original_title": "\u4e71", "genre_ids": [28, 18, 36], "backdrop_path": "/3QWR9tyxLtCz7xANh7nyIxYPISp.jpg", "adult": false, "overview": "With Ran, legendary director Akira Kurosawa reimagines Shakespeare's King Lear as a singular historical epic set in sixteenth-century Japan. Majestic in scope, the film is Kurosawa's late-life masterpiece, a profound examination of the folly of war and the crumbling of one family under the weight of betrayal, greed, and the insatiable thirst for power.", "poster_path": "/dwYUbrcQAyshW22yoUTzWwwC67b.jpg", "popularity": 13.332}, {"id": 8583, "video": false, "vote_count": 105, "vote_average": 7.1, "title": "Dangerous Beauty", "release_date": "1998-02-20", "original_language": "en", "original_title": "Dangerous Beauty", "genre_ids": [18, 10749], "backdrop_path": "/52bqRYbzzV32SnYcxmJUILbbv6L.jpg", "adult": false, "overview": "Veronica is brilliant, gifted and beautiful, but the handsome aristocrat she loves, Marco Venier, cannot marry her because she is penniless and of questionable family. So Veronica's mother, Paola, teaches her to become a courtesan, one of the exotic companions favored by the richest and most powerful Venetian men. Veronica courageously uses her charms to change destiny -- and to give herself a chance at true love.", "poster_path": "/vSGDmTsjaD2yZrS73nUJ4ikPqjQ.jpg", "popularity": 9.725}, {"id": 9374, "video": false, "vote_count": 1358, "vote_average": 6.7, "title": "Death Becomes Her", "release_date": "1992-07-30", "original_language": "en", "original_title": "Death Becomes Her", "genre_ids": [35, 14, 27], "backdrop_path": "/8djDTR7aOFHiHGDD5YN2RwYg4dK.jpg", "adult": false, "overview": "Madeline is married to Ernest, who was once arch-rival Helen's fiance. After recovering from a mental breakdown, Helen vows to kill Madeline and steal back Ernest. Unfortunately for everyone, the introduction of a magic potion causes things to be a great deal more complicated than a mere murder plot.", "poster_path": "/qNIkecw9i44ljTJaMfkdeyLc4vB.jpg", "popularity": 16.618}, {"adult": false, "backdrop_path": "/u8YCDjufshSw6rpYOJNAchbzM1K.jpg", "genre_ids": [28, 18, 53], "id": 7007, "original_language": "en", "original_title": "Rising Sun", "overview": "When a prostitute is found dead in a Los Angeles skyscraper occupied by a large Japanese corporation, detectives John Conner and Web Smith are called in to investigate. Although Conner has previous experience working in Japan, cultural differences make their progress difficult until a security disc showing the murder turns up. Close scrutiny proves the disc has been doctored, and the detectives realize they're dealing with a cover-up as well.", "poster_path": "/d07rjd7e54ClVLoixmf6alTiDDj.jpg", "release_date": "1993-07-30", "title": "Rising Sun", "video": false, "vote_average": 6.1, "vote_count": 374, "popularity": 9.735}, {"id": 9022, "video": false, "vote_count": 355, "vote_average": 5.5, "title": "All the Boys Love Mandy Lane", "release_date": "2008-02-15", "original_language": "en", "original_title": "All the Boys Love Mandy Lane", "genre_ids": [27, 9648, 53], "backdrop_path": "/3HEE058xHDkb3MrcfbpXzOdPPCr.jpg", "adult": false, "overview": "Beautiful Mandy Lane isn't a party girl but, when classmate Chloe invites the Texas high school student to a bash in the countryside, she reluctantly accepts. After hitching a ride with a vaguely scary older man, the teens arrive at their destination. Partying ensues, and Mandy's close pal, Emmet, keeps a watchful eye on the young males making a play for Mandy. Then two of the students are murdered.", "poster_path": "/2ENAfp2NhaeXSPNB4makF0In4YY.jpg", "popularity": 6.969}], "total_pages": 5, "total_results": 81}, "recommendations": {"page": 1, "results": [], "total_pages": 1, "total_results": 0}, "credits": {"cast": [{"cast_id": 0, "character": "Sen no Rikyu", "credit_id": "535d2380c3a36830b9004203", "gender": 2, "id": 1070347, "name": "Ebizo Ichikawa", "order": 1, "profile_path": "/gajzJrep1czTKZUTFMJstcyfjts.jpg"}, {"cast_id": 1, "character": "Son", "credit_id": "535d2394c3a368308400412d", "gender": 1, "id": 27778, "name": "Miki Nakatani", "order": 2, "profile_path": "/qaRpv9GOkUX2ClscEGNJ9wdqwCZ.jpg"}, {"cast_id": 2, "character": "Hideyoshi Toyotomi", "credit_id": "535d23abc3a368309900415b", "gender": 2, "id": 58604, "name": "Nao Omori", "order": 3, "profile_path": "/diWmt4sCQSMeBcZg2sQXqb1d7kd.jpg"}, {"cast_id": 6, "character": "Joseon noblewoman", "credit_id": "53ec8f480e0a2605e300124b", "gender": 1, "id": 1149923, "name": "Clara Lee", "order": 4, "profile_path": "/6Nm2uohq4KzIOGlmYztlQ5abTnu.jpg"}, {"cast_id": 7, "character": "", "credit_id": "5476ab36c3a3685f910004ce", "gender": 2, "id": 70209, "name": "Yusuke Iseya", "order": 5, "profile_path": "/5GhcLQLicLe8xdJlnV7ic7Dtjr5.jpg"}], "crew": [{"credit_id": "535d242cc3a3683091003fa3", "department": "Writing", "gender": 0, "id": 89334, "job": "Novel", "name": "Kenichi Yamamoto", "profile_path": null}, {"credit_id": "535d240dc3a3683099004161", "department": "Directing", "gender": 2, "id": 1139814, "job": "Director", "name": "Mitsutoshi Tanaka", "profile_path": "/ty5zLi8XoBz6Fzq1sHS0ChZT261.jpg"}]}}