{"adult": false, "backdrop_path": "/kgWUKnvLWMkSO67MTVvDwO5Bxai.jpg", "belongs_to_collection": null, "budget": 0, "genres": [{"id": 18, "name": "Drama"}], "homepage": null, "id": 26810, "imdb_id": "tt0387892", "original_language": "fr", "original_title": "Brodeuses", "overview": "French drama, the debut film from writer-director El\u00e9onore Faucher. Teenager Claire (Lola Naymark) discovers she is pregnant and decides to keep it a secret. Abandoning her dead-end supermarket job, she is taken on as an apprentice by couturiere Madame M\u00e9likian (Ariane Ascaride), who is grieving over the death of her own child. As the two women work together, they soon develop a supportive and fam", "popularity": 3.117, "poster_path": "/pWCfT7bJeUzGsnDgVnIiiMwtef.jpg", "production_companies": [], "production_countries": [{"iso_3166_1": "FR", "name": "France"}], "release_date": "2004-05-14", "revenue": 0, "runtime": 89, "spoken_languages": [{"iso_639_1": "fr", "name": "Fran\u00e7ais"}], "status": "Released", "tagline": "", "title": "A Common Thread", "video": false, "vote_average": 6.8, "vote_count": 8, "keywords": {"keywords": [{"id": 187056, "name": "woman director"}]}, "similar": {"page": 1, "results": [{"adult": false, "backdrop_path": "/cADbqsIoiDW7X3Myg9nz8eAuno5.jpg", "genre_ids": [18, 10749], "id": 10818, "original_language": "fr", "original_title": "Naissance des pieuvres", "overview": "Set during a sultry summer in a French suburb, Marie is desperate to join the local pool's synchronized swimming team, but is her interest solely for the sake of sport or for a chance to get close to Floriane, the bad girl of the team? Sciamma, and the two leads, capture the uncertainty of teenage sexuality with a sympathetic eye in this delicate drama of the angst of coming-of-age.", "poster_path": "/4jajELYrR4Xmv3CVoKnukRnALa2.jpg", "release_date": "2007-05-17", "title": "Water Lilies", "video": false, "vote_average": 6.1, "vote_count": 119, "popularity": 10.744}, {"adult": false, "backdrop_path": "/gZeJziVigmRqbkEZwKAtSqlLQ6s.jpg", "genre_ids": [18, 10749], "id": 370663, "original_language": "en", "original_title": "Below Her Mouth", "overview": "An unexpected affair quickly escalates into a heart-stopping reality for two women whose passionate connection changes their lives forever.", "poster_path": "/nTGbq37hYLuNy7YgMg0gVLma0NS.jpg", "release_date": "2016-09-10", "title": "Below Her Mouth", "video": false, "vote_average": 6.2, "vote_count": 456, "popularity": 22.676}, {"adult": false, "backdrop_path": "/dvQDRfv3qvfHNnVAR57ouVsuErf.jpg", "genre_ids": [10749, 18], "id": 28031, "original_language": "en", "original_title": "If These Walls Could Talk 2", "overview": "The stories of three lesbian couples -- who live in the same house at different periods of time -- who are at a crossroads in their lives. In 1961, Edith loses her lover, Abby, to a stroke. Linda and Amy struggle with feminist issues in 1972. And, in 2000, Kal and Fran try to have a baby with the help of sperm donor.", "poster_path": "/xs7ODbmYQXCDhvXNvz5tF17T59H.jpg", "release_date": "2000-03-05", "title": "If These Walls Could Talk 2", "video": false, "vote_average": 7.1, "vote_count": 55, "popularity": 8.062}, {"adult": false, "backdrop_path": "/knczzNAjBXzSYkeWxoT1u9VNmjR.jpg", "genre_ids": [10749, 18], "id": 258480, "original_language": "en", "original_title": "Carol", "overview": "In 1950s New York, a department-store clerk who dreams of a better life falls for an older, married woman.", "poster_path": "/AbKa7ANxmui0Jmhh7gV7OSELKIL.jpg", "release_date": "2015-11-20", "title": "Carol", "video": false, "vote_average": 7.4, "vote_count": 2182, "popularity": 14.185}, {"adult": false, "backdrop_path": "/fZ8oFcREAr6wgWcXISGql0xyxjB.jpg", "genre_ids": [35, 18], "id": 39781, "original_language": "en", "original_title": "The Kids Are All Right", "overview": "Two women, Nic and Jules, brought a son and daughter into the world through artificial insemination. When one of their children reaches age, both kids go behind their mothers' backs to meet with the donor. Life becomes so much more interesting when the father, two mothers and children start to become attached to each other.", "poster_path": "/fPDeK4MmoGfi2X0oWZev7LrbMqM.jpg", "release_date": "2010-07-09", "title": "The Kids Are All Right", "video": false, "vote_average": 6.6, "vote_count": 923, "popularity": 12.703}, {"adult": false, "backdrop_path": "/rf6G51j0SZL0tP57I8gnqHTRFEr.jpg", "genre_ids": [35, 18, 10749], "id": 273153, "original_language": "fr", "original_title": "La belle saison", "overview": "In 1971, Carole and Delphine meet and fall in love in Paris. When Carole follows Delphine back to her family farm in Limousin, the two find lesbianism and feminism are not as easy in the countryside.", "poster_path": "/evvAkNMO5VJiy5qIo1Hu7fUfvVI.jpg", "release_date": "2015-08-19", "title": "Summertime", "video": false, "vote_average": 6.6, "vote_count": 162, "popularity": 15.434}, {"adult": false, "backdrop_path": "/s12HEmmkJfI2mjltI61hGm5kubD.jpg", "genre_ids": [35, 18, 10749], "id": 20770, "original_language": "en", "original_title": "But I'm a Cheerleader", "overview": "Megan is an all-American girl. A cheerleader. She has a boyfriend. But Megan doesn't like kissing her boyfriend very much. And she's pretty touchy with her cheerleader friends. Her conservative parents worry that she must be a lesbian and send her off to \"sexual redirection\" school, where she must, with other lesbians and gays learn how to be straight.", "poster_path": "/eDGH7CHSdkrYcuUJV1e0WS9DlQL.jpg", "release_date": "1999-12-09", "title": "But I'm a Cheerleader", "video": false, "vote_average": 6.8, "vote_count": 246, "popularity": 10.067}, {"id": 9813, "video": false, "vote_count": 128, "vote_average": 6.1, "title": "The Quiet", "release_date": "2005-09-12", "original_language": "en", "original_title": "The Quiet", "genre_ids": [18, 53], "backdrop_path": "/6eyWAZA4CEidZW1xXnQ4vlYBXTP.jpg", "adult": false, "overview": "After her widowed father dies, deaf teenager Dot moves in with her godparents, Olivia and Paul Deer. The Deers' daughter, Nina, is openly hostile to Dot, but that does not prevent her from telling her secrets to her silent stepsister, including the fact that she wants to kill her lecherous father.", "poster_path": "/GEqIE9YlmygHVUfS64LW2cwAAM.jpg", "popularity": 13.948}, {"adult": false, "backdrop_path": "/tzqeuHWMFihFbiLGHdalPgAcSf6.jpg", "genre_ids": [18, 10749], "id": 18620, "original_language": "en", "original_title": "Go Fish", "overview": "Max is a trendy, pretty, young lesbian, who is having trouble finding love. A friend sets her up with Ely, whom Max likes, but Ely is frumpy, homely, and older. Nor do they have much in common. Can Max learn to look past the packaging?", "poster_path": "/qrEFYrwykaGsY8NULYuYLLI7zrM.jpg", "release_date": "1994-06-10", "title": "Go Fish", "video": false, "vote_average": 5.0, "vote_count": 11, "popularity": 2.626}, {"adult": false, "backdrop_path": "/6tern9vOEwwmkDYC1vRCuO64z0C.jpg", "genre_ids": [10749, 18], "id": 475888, "original_language": "en", "original_title": "Tell It to the Bees", "overview": "Dr. Jean Markham returns to the town she left as a teenager to take over her late father's medical practice. When a school-yard scuffle lands Charlie in her surgery, she invites him to visit the hives in her garden and tell his secrets to the bees, as she once did. The new friendship between the boy and the bee keeper brings his mother Lydia into Jean's world.", "poster_path": "/Rj6zpHhMU1zFW3v28U4PSRSRgP.jpg", "release_date": "2019-05-03", "title": "Tell It to the Bees", "video": false, "vote_average": 6.4, "vote_count": 53, "popularity": 15.113}, {"adult": false, "backdrop_path": "/baYbbMtKRDoDWYJeVWkbygAvAj8.jpg", "genre_ids": [18, 10749], "id": 31216, "original_language": "en", "original_title": "I Can't Think Straight", "overview": "I CAN'T THINK STRAIGHT is a 2007 romance movie about a London-based Jordanian of Palestinian descent, Tala, who is preparing for an elaborate wedding. A turn of events causes her to have an affair and subsequently fall in love with another woman, Leyla, a British Indian.", "poster_path": "/1kapga6rkM5wNuQBYw7sdE42CrA.jpg", "release_date": "2008-06-01", "title": "I Can't Think Straight", "video": false, "vote_average": 7.6, "vote_count": 109, "popularity": 8.749}, {"adult": false, "backdrop_path": "/lI5h8KaoeObu4NMTwzeRuUHzRwD.jpg", "genre_ids": [18, 9648, 53], "id": 401898, "original_language": "no", "original_title": "Thelma", "overview": "A college student starts to experience extreme seizures. She soon learns that the violent episodes are a symptom of inexplicable abilities.", "poster_path": "/yzSfG8TLAqw7nMQh2lxirQkQpgs.jpg", "release_date": "2017-09-15", "title": "Thelma", "video": false, "vote_average": 7.1, "vote_count": 418, "popularity": 12.235}, {"adult": false, "backdrop_path": "/tIFRPjIXQ3sYrmxbIeOu9K1JkUz.jpg", "genre_ids": [18, 10749], "id": 294, "original_language": "en", "original_title": "Desert Hearts", "overview": "The story of straight-edge literature professor Vivian who travels to Reno to get away from a relationship breakup when she falls in love with an attractive and unconventional girl named Cay.", "poster_path": "/b8JSmQSpYYJhctMtxNgqh0elENg.jpg", "release_date": "1985-10-01", "title": "Desert Hearts", "video": false, "vote_average": 7.3, "vote_count": 58, "popularity": 8.237}, {"id": 2255, "video": false, "vote_count": 772, "vote_average": 6.8, "title": "Chasing Amy", "release_date": "1997-04-04", "original_language": "en", "original_title": "Chasing Amy", "genre_ids": [35, 18, 10749], "backdrop_path": "/doKYVK61Vb8J1KUjlb9dNWkQNp6.jpg", "adult": false, "overview": "Holden and Banky are comic book artists. Everything is going good for them until they meet Alyssa, also a comic book artist. Holden falls for her, but his hopes are crushed when he finds out she's a lesbian.", "poster_path": "/4vFJileWrCGaBeobCmF0tXpQCUb.jpg", "popularity": 11.325}, {"adult": false, "backdrop_path": "/hD8DQM72Xacg1d3mFqS0eN8vKYw.jpg", "genre_ids": [18], "id": 8272, "original_language": "en", "original_title": "The Savages", "overview": "A sister and brother face the realities of familial responsibility as they begin to care for their ailing father.", "poster_path": "/nY54gSmTOmSXlQpWDB7DWp4u8a7.jpg", "release_date": "2007-01-19", "title": "The Savages", "video": false, "vote_average": 6.9, "vote_count": 192, "popularity": 13.094}, {"adult": false, "backdrop_path": "/g3LYarEY9LjB28Ct2trwFN72gqZ.jpg", "genre_ids": [35], "id": 437557, "original_language": "en", "original_title": "Blockers", "overview": "When three parents discover their daughters\u2019 pact to lose their virginity at prom, they launch a covert one-night operation to stop the teens from sealing the deal.", "poster_path": "/uvlUQXg0AlpGzKukO11K7QtW3Yu.jpg", "release_date": "2018-03-14", "title": "Blockers", "video": false, "vote_average": 6.2, "vote_count": 1153, "popularity": 18.075}, {"adult": false, "backdrop_path": "/zBB1mzmqnUuSrlTuf0SFFlI1EoJ.jpg", "genre_ids": [18], "id": 244772, "original_language": "en", "original_title": "The Skeleton Twins", "overview": "Estranged twins Maggie and Milo coincidentally cheat death on the same day, prompting them to reunite and confront the reasons their lives went so wrong. As the twins' reunion reinvigorates them, they realize the key to fixing their lives may just lie in repairing their relationship.", "poster_path": "/vvmv1R2jDXJeeeyYcGg0ypXc2XK.jpg", "release_date": "2014-09-12", "title": "The Skeleton Twins", "video": false, "vote_average": 6.7, "vote_count": 416, "popularity": 9.821}, {"adult": false, "backdrop_path": "/3YGy88nTV2e0wxZcKI1goiEN9oy.jpg", "genre_ids": [18, 10749], "id": 37636, "original_language": "en", "original_title": "High Art", "overview": "A young female intern at a small magazine company becomes involved with a drug-addicted lesbian photographer, both of whom seek to exploit each other for their respective careers, while slowly falling in love with each other.", "poster_path": "/qTg05RNJIvb9w4Z7XIcAZxuZmTn.jpg", "release_date": "1998-06-12", "title": "High Art", "video": false, "vote_average": 6.6, "vote_count": 61, "popularity": 7.27}, {"adult": false, "backdrop_path": "/caLMOD3ZJ3V7qjlxDXrzlJfBLgD.jpg", "genre_ids": [18, 10749], "id": 20, "original_language": "en", "original_title": "My Life Without Me", "overview": "A Pedro Almodovar production in which a fatally ill mother with only two months to live creates a list of things she wants to do before she dies with out telling her family of her illness.", "poster_path": "/vVj92VBFUBzjqzLvBiPVVlJDp78.jpg", "release_date": "2003-03-07", "title": "My Life Without Me", "video": false, "vote_average": 6.1, "vote_count": 220, "popularity": 9.208}, {"id": 434714, "video": false, "vote_count": 32, "vote_average": 7.5, "title": "My Days of Mercy", "release_date": "2019-07-11", "original_language": "en", "original_title": "My Days of Mercy", "genre_ids": [18, 10749], "backdrop_path": "/7Lbzq33nMMIQtAfZAmSqG6ibLSg.jpg", "adult": false, "overview": "The daughter of a man on death row falls in love with a woman on the opposing side of her family's political cause.", "poster_path": "/adIPKAoKnKL9vCTkvfF4J9ZA7Ln.jpg", "popularity": 6.928}], "total_pages": 1446, "total_results": 28907}, "recommendations": {"page": 1, "results": [{"adult": false, "backdrop_path": "/h5JItvZMR8q4GBxUSaC2tLeKTfh.jpg", "genre_ids": [18], "id": 105448, "original_language": "fr", "original_title": "La Lettre", "overview": "A well-bred, lovely, spiritual, sad young woman marries an attentive physician who loves her. She feels affection but no love. Soon after, without design, she falls in love with Pedro Abrunhosa, a poet and performance artist. He also loves her. She keeps her distance from him, confessing her love to a friend who is a nun and, later, to her husband. Hunger for her love and jealousy consume him; she attends him as he wastes away. With his death, she can marry and express her passion, but what she does and how she explains herself, particularly to her cloistered friend, is at the heart of the film. Glimpses of convent life and of Abrunhosa on stage give contrast and mute comment.", "poster_path": "/nmzZOERadXnf1AHNCdsv8PkmmKK.jpg", "release_date": "1999-09-22", "title": "The Letter", "video": false, "vote_average": 6.0, "vote_count": 3, "popularity": 2.659}, {"adult": false, "backdrop_path": "/9KJ0M95ZHT0ufPaxg7rje5JYhf0.jpg", "genre_ids": [18], "id": 46770, "original_language": "es", "original_title": "Sur", "overview": "After the end of the military dictatorship in Argentina in 1983, Floreal is released from prison. Instead of returning to his wife, he wanders through the night of Buenos Aires. He meets some people from his past\u2013most of which are only imaginary\u2013and remembers the events of his imprisonment.", "poster_path": "/f7DCG0TeXXdnjhdMR3qfyganLEF.jpg", "release_date": "1988-03-05", "title": "The South", "video": false, "vote_average": 6.7, "vote_count": 3, "popularity": 0.717}], "total_pages": 1, "total_results": 2}, "credits": {"cast": [{"cast_id": 2, "character": "Claire Moutiers", "credit_id": "52fe451ac3a368484e0489af", "gender": 1, "id": 6549, "name": "Lola Naymark", "order": 0, "profile_path": "/qHznmfB5xD9M3Gi3mu2Ki0UW9pV.jpg"}, {"cast_id": 4, "character": "Lucile", "credit_id": "52fe451ac3a368484e0489b3", "gender": 0, "id": 124976, "name": "Marie F\u00e9lix", "order": 1, "profile_path": null}, {"cast_id": 5, "character": "Guillaume", "credit_id": "52fe451ac3a368484e0489b7", "gender": 0, "id": 124977, "name": "Thomas Laroppe", "order": 2, "profile_path": null}, {"cast_id": 6, "character": "Thomas", "credit_id": "52fe451ac3a368484e0489bb", "gender": 0, "id": 124978, "name": "Arthur Quehen", "order": 3, "profile_path": null}, {"cast_id": 10, "character": "Mme. Moutiers", "credit_id": "52fe451ac3a368484e0489bf", "gender": 0, "id": 5318, "name": "Elisabeth Commelin", "order": 7, "profile_path": "/kJYHlilPKDctDRbDjetlm1kuxoQ.jpg"}, {"cast_id": 11, "character": "Butcher", "credit_id": "52fe451ac3a368484e0489c3", "gender": 0, "id": 124982, "name": "Christophe Hatey", "order": 8, "profile_path": null}, {"cast_id": 12, "character": "Bike Guy", "credit_id": "52fe451ac3a368484e0489c7", "gender": 0, "id": 124983, "name": "Fran\u00e7ois No\u00ebl", "order": 9, "profile_path": null}, {"cast_id": 13, "character": "Nurse", "credit_id": "52fe451ac3a368484e0489cb", "gender": 0, "id": 124984, "name": "Yasmine Modestine", "order": 10, "profile_path": null}, {"cast_id": 14, "character": "Baker", "credit_id": "52fe451ac3a368484e0489cf", "gender": 0, "id": 124985, "name": "Annie-Claude Sauton", "order": 11, "profile_path": null}, {"cast_id": 15, "character": "Round Woman", "credit_id": "52fe451ac3a368484e0489d3", "gender": 0, "id": 124986, "name": "Nathalie Kirzin", "order": 12, "profile_path": null}, {"cast_id": 16, "character": "Clotilde", "credit_id": "52fe451ac3a368484e0489d7", "gender": 0, "id": 124987, "name": "Ludivine Morissonaud", "order": 13, "profile_path": null}, {"cast_id": 17, "character": "Jose Dela Cruz", "credit_id": "52fe451ac3a368484e0489db", "gender": 0, "id": 124988, "name": "Mark Valladolid", "order": 14, "profile_path": null}, {"cast_id": 18, "character": "Mme. M\u00e9likian", "credit_id": "52fe451ac3a368484e0489df", "gender": 1, "id": 72590, "name": "Ariane Ascaride", "order": 15, "profile_path": "/iOWGLDxKUzVx77ZOkXaohBa7NdW.jpg"}, {"cast_id": 19, "character": "M Lescuyer", "credit_id": "52fe451ac3a368484e0489e3", "gender": 2, "id": 82288, "name": "Jackie Berroyer", "order": 16, "profile_path": "/4Lx1HLV25BZaUeHtcI78KL4ExHm.jpg"}, {"cast_id": 20, "character": "Mme. Lescuyer", "credit_id": "52fe451ac3a368484e0489e7", "gender": 1, "id": 33160, "name": "Anne Canovas", "order": 17, "profile_path": "/oMkJDF84WeuCWidZHDxhxVortz9.jpg"}, {"cast_id": 21, "character": "Gynecologist", "credit_id": "52fe451ac3a368484e0489eb", "gender": 0, "id": 113604, "name": "Marina Tom\u00e9", "order": 18, "profile_path": "/fGbblDMnL9L306ZIIUQuJ4fNi7G.jpg"}], "crew": [{"credit_id": "5dbbfb6fd388ae0010d7790c", "department": "Editing", "gender": 1, "id": 23348, "job": "Editor", "name": "Jo\u00eble Van Effenterre", "profile_path": "/7t7ewTPSFEF6kF3PhM4cLnYQfj6.jpg"}, {"credit_id": "5dbbfb650f2fbd0014797afb", "department": "Camera", "gender": 0, "id": 54197, "job": "Director of Photography", "name": "Pierre Cottereau", "profile_path": null}, {"credit_id": "52fe451ac3a368484e0489ab", "department": "Directing", "gender": 0, "id": 124971, "job": "Director", "name": "\u00c9l\u00e9onore Faucher", "profile_path": null}, {"credit_id": "5dbbfb520f2fbd00117a3e04", "department": "Writing", "gender": 0, "id": 124971, "job": "Writer", "name": "\u00c9l\u00e9onore Faucher", "profile_path": null}, {"credit_id": "5dbbfb59d388ae0010d778c8", "department": "Writing", "gender": 0, "id": 129760, "job": "Writer", "name": "Ga\u00eblle Mac\u00e9", "profile_path": null}]}}