{"adult": false, "backdrop_path": "/4B0EaaBUoD61iwWDjkfsQb7EEtI.jpg", "belongs_to_collection": null, "budget": 0, "genres": [{"id": 99, "name": "Documentary"}, {"id": 10402, "name": "Music"}], "homepage": "http://www.sonyclassics.com/soulpower/", "id": 26888, "imdb_id": "tt1277736", "original_language": "en", "original_title": "Soul Power", "overview": "Soul Power is a 2008 documentary film about the Zaire 74 music festival in Kinshasa which accompanied the Rumble in the Jungle heavyweight boxing championship match between Muhammad Ali and George Foreman in October 1974. The film was made from archival footage; other footage shot at the time focusing on the fight was edited to form the film When We Were Kings.", "popularity": 3.221, "poster_path": "/wZmNJsfk8zgQNctWScf4a1oo7pv.jpg", "production_companies": [{"id": 23912, "logo_path": null, "name": "Antidote Films (I)", "origin_country": ""}], "production_countries": [{"iso_3166_1": "US", "name": "United States of America"}], "release_date": "2008-09-04", "revenue": 0, "runtime": 93, "spoken_languages": [{"iso_639_1": "fr", "name": "Fran\u00e7ais"}, {"iso_639_1": "en", "name": "English"}], "status": "Released", "tagline": "The greatest music festival that you have never seen.", "title": "Soul Power", "video": false, "vote_average": 5.9, "vote_count": 8, "keywords": {"keywords": [{"id": 396, "name": "transporter"}, {"id": 6579, "name": "music festival"}, {"id": 8909, "name": "zaire"}]}, "similar": {"page": 1, "results": [{"id": 1375, "video": false, "vote_count": 1670, "vote_average": 5.6, "title": "Rocky V", "release_date": "1990-10-18", "original_language": "en", "original_title": "Rocky V", "genre_ids": [18], "backdrop_path": "/dr5pdEDOdCvelCQqP32UZubiSgE.jpg", "adult": false, "overview": "A lifetime of taking shots has ended Rocky\u2019s career, and a crooked accountant has left him broke. Inspired by the memory of his trainer, however, Rocky finds glory in training and takes on an up-and-coming boxer.", "poster_path": "/5P2RiuLt31mWyb6duww8qlAhs6G.jpg", "popularity": 22.518}, {"id": 1366, "video": false, "vote_count": 4244, "vote_average": 7.7, "title": "Rocky", "release_date": "1976-11-21", "original_language": "en", "original_title": "Rocky", "genre_ids": [18], "backdrop_path": "/2kkyt0FLROrXt41IgSdE7goCFNQ.jpg", "adult": false, "overview": "When world heavyweight boxing champion, Apollo Creed wants to give an unknown fighter a shot at the title as a publicity stunt, his handlers choose palooka Rocky Balboa, an uneducated collector for a Philadelphia loan shark. Rocky teams up with trainer  Mickey Goldmill to make the most of this once in a lifetime break.", "poster_path": "/9TUR3s1PMJHwDRbpm7PWQ0S7IRy.jpg", "popularity": 31.646}, {"adult": false, "backdrop_path": "/6qYptQG2ynJANbyjjYOt4fpHfxF.jpg", "genre_ids": [18], "id": 1371, "original_language": "en", "original_title": "Rocky III", "overview": "Now the world champion, Rocky Balboa is living in luxury and only fighting opponents who pose no threat to him in the ring, until Clubber Lang challenges him to a bout. After taking a pounding from Lang, the humbled champ turns to former bitter rival Apollo Creed for a rematch with Lang.", "poster_path": "/ns55NGqTDEEjcI9z2a9htA2cFtG.jpg", "release_date": "1982-05-28", "title": "Rocky III", "video": false, "vote_average": 6.8, "vote_count": 2156, "popularity": 25.559}, {"id": 1374, "video": false, "vote_count": 2312, "vote_average": 6.9, "title": "Rocky IV", "release_date": "1985-11-21", "original_language": "en", "original_title": "Rocky IV", "genre_ids": [18], "backdrop_path": "/uvbjTLZSxGehXWDo1ENyVuBrYie.jpg", "adult": false, "overview": "After iron man Drago, a highly intimidating 6-foot-5, 261-pound Soviet athlete, kills Apollo Creed in an exhibition match, Rocky comes to the heart of Russia for 15 pile-driving boxing rounds of revenge.", "poster_path": "/jmvpwgW5M2kduR9zB0q8qGFC4zM.jpg", "popularity": 23.829}, {"id": 1246, "video": false, "vote_count": 1925, "vote_average": 6.7, "title": "Rocky Balboa", "release_date": "2006-12-20", "original_language": "en", "original_title": "Rocky Balboa", "genre_ids": [18], "backdrop_path": "/gcFhaI5IrKxvMs4TtvlHbYE4b0.jpg", "adult": false, "overview": "When he loses a highly publicized virtual boxing match to ex-champ Rocky Balboa, reigning heavyweight titleholder, Mason Dixon retaliates by challenging Rocky to a nationally televised, 10-round exhibition bout. To the surprise of his son and friends, Rocky agrees to come out of retirement and face an opponent who's faster, stronger and thirty years his junior.", "poster_path": "/n82AAPWnAafDAZjxkYK2rAPwk4A.jpg", "popularity": 19.171}, {"id": 16993, "video": false, "vote_count": 58, "vote_average": 7.2, "title": "Fat City", "release_date": "1972-07-26", "original_language": "en", "original_title": "Fat City", "genre_ids": [18], "backdrop_path": "/zGHWjvk0GL50OQQV76dJE31a3LU.jpg", "adult": false, "overview": "Two men, working as professional boxers, come to blows when their careers each begin to take opposite momentum.", "poster_path": "/43wzIQppbnNlJceD7SS0qF0H4ZX.jpg", "popularity": 7.724}, {"adult": false, "backdrop_path": "/xx9DyVNmehDJPrYGsy9AJgYzAtd.jpg", "genre_ids": [18], "id": 1367, "original_language": "en", "original_title": "Rocky II", "overview": "After Rocky goes the distance with champ Apollo Creed, both try to put the fight behind them and move on. Rocky settles down with Adrian but can't put his life together outside the ring, while Creed seeks a rematch to restore his reputation. Soon enough, the \"Master of Disaster\" and the \"Italian Stallion\" are set on a collision course for a climactic battle that is brutal and unforgettable.", "poster_path": "/fqJH7mI4dFANRay8qdJoGa7fK1k.jpg", "release_date": "1979-06-15", "title": "Rocky II", "video": false, "vote_average": 7.1, "vote_count": 2345, "popularity": 27.206}, {"id": 70, "video": false, "vote_count": 5415, "vote_average": 7.9, "title": "Million Dollar Baby", "release_date": "2004-12-15", "original_language": "en", "original_title": "Million Dollar Baby", "genre_ids": [18], "backdrop_path": "/7nGW4MhYQ7sJfp482XkrgqPYQ2S.jpg", "adult": false, "overview": "Despondent over a painful estrangement from his daughter, trainer Frankie Dunn isn't prepared for boxer Maggie Fitzgerald to enter his life. But Maggie's determined to go pro and to convince Dunn and his cohort to help her.", "poster_path": "/h4VZKi2Jt4VoBYJmtC4c3bO8KqM.jpg", "popularity": 22.24}, {"id": 680, "video": false, "vote_count": 17227, "vote_average": 8.5, "title": "Pulp Fiction", "release_date": "1994-09-10", "original_language": "en", "original_title": "Pulp Fiction", "genre_ids": [80, 53], "backdrop_path": "/suaEOtk1N1sgg2MTM7oZd2cfVp3.jpg", "adult": false, "overview": "A burger-loving hit man, his philosophical partner, a drug-addled gangster's moll and a washed-up boxer converge in this sprawling, comedic crime caper. Their adventures unfurl in three stories that ingeniously trip back and forth in time.", "poster_path": "/d5iIlFn5s0ImszYzBPb8JPIfbXD.jpg", "popularity": 43.597}, {"id": 1578, "video": false, "vote_count": 2158, "vote_average": 8.0, "title": "Raging Bull", "release_date": "1980-11-14", "original_language": "en", "original_title": "Raging Bull", "genre_ids": [18], "backdrop_path": "/yt88nEyDJLN8gOg1FTvCcXCM672.jpg", "adult": false, "overview": "When Jake LaMotta steps into a boxing ring and obliterates his opponent, he's a prizefighter. But when he treats his family and friends the same way, he's a ticking time bomb, ready to go off at any moment. Though LaMotta wants his family's love, something always seems to come between them. Perhaps it's his violent bouts of paranoia and jealousy. This kind of rage helped make him a champ, but in real life, he winds up in the ring alone.", "poster_path": "/3cgzzWsUOBlNjmA5m4qs9BGkezC.jpg", "popularity": 15.977}, {"id": 1677, "video": false, "vote_count": 961, "vote_average": 7.4, "title": "Ray", "release_date": "2004-10-29", "original_language": "en", "original_title": "Ray", "genre_ids": [18, 10402], "backdrop_path": "/lcVQocaLf4wf5Inmwj7TtrPRnPp.jpg", "adult": false, "overview": "Born on a sharecropping plantation in Northern Florida, Ray Charles went blind at seven. Inspired by a fiercely independent mom who insisted he make his own way, He found his calling and his gift behind a piano keyboard. Touring across the Southern musical circuit, the soulful singer gained a reputation and then exploded with worldwide fame when he pioneered couping gospel and country together.", "poster_path": "/fPDsBL0MdegEvyPhim9b5srHOqG.jpg", "popularity": 16.505}, {"id": 107, "video": false, "vote_count": 5247, "vote_average": 7.8, "title": "Snatch", "release_date": "2000-09-01", "original_language": "en", "original_title": "Snatch", "genre_ids": [80, 53], "backdrop_path": "/cNLZ7YGRikb4IsLblrzu86ndZPw.jpg", "adult": false, "overview": "The second film from British director Guy Ritchie. Snatch tells an obscure story similar to his first fast-paced crazy character-colliding filled film \u201cLock, Stock and Two Smoking Barrels.\u201d There are two overlapping stories here \u2013 one is the search for a stolen diamond, and the other about a boxing promoter who\u2019s having trouble with a psychotic gangster.", "poster_path": "/on9JlbGEccLsYkjeEph2Whm1DIp.jpg", "popularity": 25.36}, {"adult": false, "backdrop_path": "/43fnzmOMO5zOUFH3EzyuwSh87IS.jpg", "genre_ids": [18], "id": 45317, "original_language": "en", "original_title": "The Fighter", "overview": "The Fighter, is a drama about boxer \"Irish\" Micky Ward's unlikely road to the world light welterweight title. His Rocky-like rise was shepherded by half-brother Dicky, a boxer-turned-trainer who rebounded in life after nearly being KO'd by drugs and crime.", "poster_path": "/ytGIpdxYyvXwch5QILfquSTMA9f.jpg", "release_date": "2010-12-17", "title": "The Fighter", "video": false, "vote_average": 7.3, "vote_count": 2572, "popularity": 19.636}, {"id": 385448, "video": false, "vote_count": 575, "vote_average": 4.9, "title": "The Little Mermaid", "release_date": "2018-08-02", "original_language": "en", "original_title": "The Little Mermaid", "genre_ids": [12, 18, 14, 10749, 10751], "backdrop_path": "/1VA29YsS3JqEfmUr9QolY3La7xi.jpg", "adult": false, "overview": "A young reporter and his niece discover a beautiful and enchanting creature they believe to be the real little mermaid.", "poster_path": "/7Ax9O1wlFL0Cjl8YLwuXDGthovf.jpg", "popularity": 18.628}, {"adult": false, "backdrop_path": "/e1QVZfHmKlqxlaTNLTP9ATshLqU.jpg", "genre_ids": [53, 28, 80, 9648], "id": 287948, "original_language": "en", "original_title": "The Transporter Refueled", "overview": "The fast-paced action movie is again set in the criminal underworld in France, where Frank Martin is known as The Transporter, because he is the best driver and mercenary money can buy. In this installment, he meets Anna and they attempt to take down a group of ruthless Russian human traffickers who also have kidnapped Frank\u2019s father.", "poster_path": "/zW7oC3tucYLzu77xNbPbYjXUN4o.jpg", "release_date": "2015-09-03", "title": "The Transporter Refueled", "video": false, "vote_average": 5.5, "vote_count": 903, "popularity": 16.643}, {"id": 2666, "video": false, "vote_count": 1511, "vote_average": 7.4, "title": "Dark City", "release_date": "1998-02-27", "original_language": "en", "original_title": "Dark City", "genre_ids": [9648, 878], "backdrop_path": "/rIWui0S2ugwTWlhna6CTS3RYW9q.jpg", "adult": false, "overview": "A man struggles with memories of his past, including a wife he cannot remember, in a nightmarish world with no sun and run by beings with telekinetic powers who seek the souls of humans.", "poster_path": "/yR7rapBFxBoBT0vkZQIXhLBr726.jpg", "popularity": 17.646}, {"id": 921, "video": false, "vote_count": 1245, "vote_average": 7.5, "title": "Cinderella Man", "release_date": "2005-06-02", "original_language": "en", "original_title": "Cinderella Man", "genre_ids": [18, 36, 10749], "backdrop_path": "/ozvvHdadtBYpExCwAjsNPSjV6hT.jpg", "adult": false, "overview": "The true story of boxer, Jim Braddock who, in the 1920\u2019s after his retirement, has a surprise comeback in order to get him and his family out of a socially poor state.", "poster_path": "/xZhumK43Z6jmwCWglh7uHcpkqdb.jpg", "popularity": 14.603}, {"id": 100241, "video": false, "vote_count": 1194, "vote_average": 5.2, "title": "I, Frankenstein", "release_date": "2014-01-22", "original_language": "en", "original_title": "I, Frankenstein", "genre_ids": [27, 53], "backdrop_path": "/rzzabQ2HNUDil53Zfueu0iyasgB.jpg", "adult": false, "overview": "200 years after his shocking creation, Dr. Frankenstein's creature, Adam, still walks the earth. But when he finds himself in the middle of a war over the fate of humanity, Adam discovers he holds the key that could destroy humankind.", "poster_path": "/amJHZ4eOMpqyKo1GK33HFV55zue.jpg", "popularity": 14.531}, {"adult": false, "backdrop_path": "/dyK4NOS0zIUpEHFBQWzBveBpQwF.jpg", "genre_ids": [18, 10402, 35], "id": 3121, "original_language": "en", "original_title": "Nashville", "overview": "The intersecting stories of twenty-four characters\u2014from country star to wannabe to reporter to waitress\u2014 connect to the music business in Nashville, Tennessee.", "poster_path": "/bGnArVmtOqBqU5TDGi5DewcDKQd.jpg", "release_date": "1975-06-11", "title": "Nashville", "video": false, "vote_average": 7.4, "vote_count": 174, "popularity": 15.31}, {"adult": false, "backdrop_path": "/ct2r3CqnA0KtMfib4AvfBU1W9M2.jpg", "genre_ids": [28, 80, 53], "id": 398175, "original_language": "en", "original_title": "Brawl in Cell Block 99", "overview": "After working as a drug courier and getting into a brutal shootout with police, a former boxer finds himself at the mercy of his enemies as they force him to instigate violent acts that turn the prison he resides in into a battleground.", "poster_path": "/lGgIQ10NJ3d0X0uFbbUN4pRrMFZ.jpg", "release_date": "2017-09-23", "title": "Brawl in Cell Block 99", "video": false, "vote_average": 6.8, "vote_count": 605, "popularity": 14.943}], "total_pages": 19, "total_results": 370}, "recommendations": {"page": 1, "results": [], "total_pages": 1, "total_results": 0}, "credits": {"cast": [{"cast_id": 5, "character": "Himself (archive footage)", "credit_id": "52fe451fc3a368484e049c4b", "gender": 2, "id": 7172, "name": "James Brown", "order": 0, "profile_path": "/opGiGzOwSRmhnUtWZcFjlyyK8Zx.jpg"}, {"cast_id": 6, "character": "Himself (archive footage)", "credit_id": "52fe451fc3a368484e049c4f", "gender": 2, "id": 96540, "name": "Bill Withers", "order": 1, "profile_path": "/iCGPeFN4fWi0jS4UsSxwKyO3Rbm.jpg"}, {"cast_id": 7, "character": "Himself (archive footage)", "credit_id": "52fe451fc3a368484e049c53", "gender": 2, "id": 44999, "name": "B.B. King", "order": 2, "profile_path": "/gdGaX5j620BczzspinHLmdoKPFd.jpg"}, {"cast_id": 8, "character": "Himself (archive footage)", "credit_id": "52fe451fc3a368484e049c57", "gender": 2, "id": 65605, "name": "Muhammad Ali", "order": 3, "profile_path": "/l9RnFUghCHQviM9deKlvdGOvrpZ.jpg"}, {"cast_id": 9, "character": "Himself (archive footage)", "credit_id": "52fe451fc3a368484e049c5b", "gender": 2, "id": 65607, "name": "Don King", "order": 4, "profile_path": "/sdkBSSPGMP3rtOUHKRxCIOQWdE3.jpg"}, {"cast_id": 10, "character": "Himself", "credit_id": "57b988e4c3a3680e68000ce1", "gender": 0, "id": 937639, "name": "Manu Dibango", "order": 5, "profile_path": null}, {"cast_id": 11, "character": "Herself", "credit_id": "57b988ee9251413f060051d1", "gender": 1, "id": 1668732, "name": "Lola Love", "order": 6, "profile_path": null}, {"cast_id": 12, "character": "Himself", "credit_id": "57b988fa9251413f060051d9", "gender": 0, "id": 1668733, "name": "Franco Luombo", "order": 7, "profile_path": null}, {"cast_id": 13, "character": "", "credit_id": "57b9890492514141e3005575", "gender": 1, "id": 89299, "name": "Miriam Makeba", "order": 8, "profile_path": "/b60qlVK0YIWQGkXX7g6GFxTplca.jpg"}, {"cast_id": 14, "character": "", "credit_id": "57b9891492514129c5000bff", "gender": 1, "id": 124744, "name": "Celia Cruz", "order": 9, "profile_path": "/c4SqVMYB8idXzrFMK4ZZn3MedQk.jpg"}, {"cast_id": 15, "character": "", "credit_id": "57b9891f92514141ae005261", "gender": 0, "id": 89302, "name": "Hugh Masekela", "order": 10, "profile_path": null}, {"cast_id": 16, "character": "", "credit_id": "57b9892792514141ae005264", "gender": 0, "id": 583810, "name": "Johnny Pacheco", "order": 11, "profile_path": null}, {"cast_id": 17, "character": "", "credit_id": "57b9892e92514129f0000aea", "gender": 2, "id": 95741, "name": "George Plimpton", "order": 12, "profile_path": "/3FIC6GkFzf08XMvM3xREwINmwG5.jpg"}, {"cast_id": 18, "character": "", "credit_id": "57b98935c3a3680e68000d07", "gender": 0, "id": 1668734, "name": "Sweet Charles Sherrill", "order": 13, "profile_path": null}, {"cast_id": 19, "character": "", "credit_id": "57b9893cc3a368607e005057", "gender": 0, "id": 1426467, "name": "Sister Sledge", "order": 14, "profile_path": null}, {"cast_id": 20, "character": "", "credit_id": "57b98943c3a3680ddf000c1a", "gender": 0, "id": 1426468, "name": "Debbie Sledge", "order": 15, "profile_path": null}, {"cast_id": 21, "character": "", "credit_id": "57b9894cc3a3680e68000d19", "gender": 0, "id": 1426469, "name": "Joni Sledge", "order": 16, "profile_path": null}, {"cast_id": 22, "character": "", "credit_id": "57b98956925141299f000c11", "gender": 0, "id": 1668735, "name": "Kim Sledge", "order": 17, "profile_path": null}, {"cast_id": 23, "character": "", "credit_id": "57b9896292514129c5000c21", "gender": 0, "id": 1668736, "name": "Kathy Sledge", "order": 18, "profile_path": null}, {"cast_id": 24, "character": "", "credit_id": "57b9896cc3a3680e68000d32", "gender": 0, "id": 1577030, "name": "The Spinners", "order": 19, "profile_path": "/kWAa4IKUmkb9m2Z0FnOMFhyQF8s.jpg"}, {"cast_id": 25, "character": "", "credit_id": "57b98970c3a368607e005071", "gender": 0, "id": 1668737, "name": "Tomo Toro", "order": 20, "profile_path": null}], "crew": [{"credit_id": "52fe451fc3a368484e049c3b", "department": "Production", "gender": 2, "id": 65608, "job": "Producer", "name": "Leon Gast", "profile_path": "/oaz2nf6wIhJeoGgqx3fkYv517Ms.jpg"}, {"credit_id": "52fe451fc3a368484e049c41", "department": "Production", "gender": 2, "id": 65609, "job": "Producer", "name": "David Sonenberg", "profile_path": null}, {"credit_id": "52fe451fc3a368484e049c35", "department": "Directing", "gender": 2, "id": 65613, "job": "Director", "name": "Jeffrey Kusama-Hinte", "profile_path": null}, {"credit_id": "52fe451fc3a368484e049c47", "department": "Production", "gender": 2, "id": 65613, "job": "Producer", "name": "Jeffrey Kusama-Hinte", "profile_path": null}]}}