{"adult": false, "backdrop_path": null, "belongs_to_collection": null, "budget": 0, "genres": [{"id": 80, "name": "Crime"}, {"id": 53, "name": "Thriller"}], "homepage": null, "id": 269135, "imdb_id": "tt0130208", "original_language": "en", "original_title": "Random Encounter", "overview": "In Doug Jackson's Random Encounter, Elizabeth Berkley plays Alicia Brayman, a public relations executive on the rise. At a celebratory party, Alicia meets a handsome man named Kyle (Joel Wyner) who takes her home for sex. Madeleine (Mary Bradley), a crazed brunette with a knife, interrupts them. Alicia fatally bludgeons Madeline with a statue before she can stab Kyle. Kyle tells Alicia that he'll help her cover up the crime, but she is recognized during the getaway. As the heat is turned up and details start pouring out, Alicia learns that Kyle is a dangerous ex-con wanted for parole violations who set Madeleine up for murder and now has Alicia trapped in a web of deceit from which there seems to be no escape.", "popularity": 1.38, "poster_path": "/twVBIGyOfscXc2hZXnkuVVb81pr.jpg", "production_companies": [{"id": 17877, "logo_path": null, "name": "Libra Films", "origin_country": ""}, {"id": 17712, "logo_path": null, "name": "Allegro Productions", "origin_country": ""}, {"id": 3268, "logo_path": "/tuomPhY2UtuPTqqFnKMVHvSb724.png", "name": "HBO", "origin_country": "US"}], "production_countries": [{"iso_3166_1": "US", "name": "United States of America"}, {"iso_3166_1": "CA", "name": "Canada"}], "release_date": "1998-01-01", "revenue": 0, "runtime": 90, "spoken_languages": [{"iso_639_1": "en", "name": "English"}], "status": "Released", "tagline": "You meet a man...You take him home...you get set up", "title": "Random Encounter", "video": false, "vote_average": 0.0, "vote_count": 0, "keywords": {"keywords": [{"id": 33507, "name": "multiple identities"}, {"id": 173277, "name": "public relations"}, {"id": 180075, "name": "female executive"}, {"id": 180172, "name": "framed for murder"}]}, "similar": {"page": 1, "results": [{"id": 260346, "video": false, "vote_count": 3704, "vote_average": 6.2, "title": "Taken 3", "release_date": "2014-12-16", "original_language": "en", "original_title": "Taken 3", "genre_ids": [28, 53], "backdrop_path": "/cU6R5EgOEmiIVKommjnU89hsvcD.jpg", "adult": false, "overview": "Ex-government operative Bryan Mills finds his life is shattered when he's falsely accused of a murder that hits close to home. As he's pursued by a savvy police inspector, Mills employs his particular set of skills to track the real killer and exact his unique brand of justice.", "poster_path": "/ikDwR3i2bczqnRf1urJTy77YTFf.jpg", "popularity": 34.357}, {"id": 278, "video": false, "vote_count": 14752, "vote_average": 8.7, "title": "The Shawshank Redemption", "release_date": "1994-09-23", "original_language": "en", "original_title": "The Shawshank Redemption", "genre_ids": [80, 18], "backdrop_path": "/j9XKiZrVeViAixVRzCta7h1VU9W.jpg", "adult": false, "overview": "Framed in the 1940s for the double murder of his wife and her lover, upstanding banker Andy Dufresne begins a new life at the Shawshank prison, where he puts his accounting skills to work for an amoral warden. During his long stretch in prison, Dufresne comes to be admired by the other inmates -- including an older prisoner named Red -- for his integrity and unquenchable sense of hope.", "poster_path": "/9O7gLzmreU0nGkIB6K3BsJbzvNv.jpg", "popularity": 42.206}, {"adult": false, "backdrop_path": "/nhLNyUCyyrTaTNOqwJ2Xlp9qYb4.jpg", "genre_ids": [12, 28, 53, 80, 9648], "id": 5503, "original_language": "en", "original_title": "The Fugitive", "overview": "Wrongfully convicted of murdering his wife and sentenced to death, Richard Kimble escapes from the law in an attempt to find her killer and clear his name. Pursuing him is a team of U.S. marshals led by Deputy Samuel Gerard, a determined detective who will not rest until Richard is captured. As Kimble leads the marshals through a series of intricate chases, he uncovers the secret behind his wife's death and struggles to expose the killer before he is recaptured, or killed.", "poster_path": "/3gzLGFBoJM1xlNk0Ulzp0cJ6uPp.jpg", "release_date": "1993-08-06", "title": "The Fugitive", "video": false, "vote_average": 7.4, "vote_count": 2315, "popularity": 19.326}, {"id": 2501, "video": false, "vote_count": 5867, "vote_average": 7.4, "title": "The Bourne Identity", "release_date": "2002-06-14", "original_language": "en", "original_title": "The Bourne Identity", "genre_ids": [28, 18, 9648, 53], "backdrop_path": "/2Fr1vqBiDn8xRJM9elcplzHctTN.jpg", "adult": false, "overview": "Wounded to the brink of death and suffering from amnesia, Jason Bourne is rescued at sea by a fisherman. With nothing to go on but a Swiss bank account number, he starts to reconstruct his life, but finds that many people he encounters want him dead. However, Bourne realizes that he has the combat and mental skills of a world-class spy\u2014but who does he work for?", "poster_path": "/bXQIL36VQdzJ69lcjQR1WQzJqQR.jpg", "popularity": 20.935}, {"adult": false, "backdrop_path": "/mSZADd1N0wWkkNJmwcpYAq93bke.jpg", "genre_ids": [878], "id": 9482, "original_language": "en", "original_title": "Judge Dredd", "overview": "In a dystopian future, Dredd, the most famous judge (a cop with instant field judiciary powers) is convicted for a crime he did not commit while his murderous counterpart escapes.", "poster_path": "/r17S4XlQ3Jq5U1KRovFUwU8P4aG.jpg", "release_date": "1995-06-30", "title": "Judge Dredd", "video": false, "vote_average": 5.6, "vote_count": 1317, "popularity": 18.237}, {"id": 678, "video": false, "vote_count": 234, "vote_average": 7.7, "title": "Out of the Past", "release_date": "1947-11-13", "original_language": "en", "original_title": "Out of the Past", "genre_ids": [9648, 53], "backdrop_path": "/7JFsV4qEQ6WVj3SJAC2ktnAyCMm.jpg", "adult": false, "overview": "Jeff Bailey seems to be a mundane gas station owner in remote Bridgeport, CA. He is dating local girl Ann Miller and lives a quiet life. But Jeff has a secret past, and when a mysterious stranger arrives in town, Jeff is forced to return to the dark world he had tried to escape.", "poster_path": "/6M1Qeuq0K5THG95S9nzvEIRHsyt.jpg", "popularity": 12.132}, {"id": 7303, "video": false, "vote_count": 1110, "vote_average": 5.8, "title": "Maid in Manhattan", "release_date": "2002-12-13", "original_language": "en", "original_title": "Maid in Manhattan", "genre_ids": [35, 18, 10749], "backdrop_path": "/enycOzeSeV4BXbCSQ0ZZN8PXI0n.jpg", "adult": false, "overview": "Marisa Ventura is a struggling single mom who works at a posh Manhattan hotel and dreams of a better life for her and her young son. One fateful day, hotel guest and senatorial candidate Christopher Marshall meets Marisa and mistakes her for a wealthy socialite. After an enchanting evening together, the two fall madly in love. But when Marisa's true identity is revealed, issues of class and social status threaten to separate them. Can two people from very different worlds overcome their differences and live happily ever after?", "poster_path": "/3LQ4wKp4lF41yTTRSd6QdgD6eXO.jpg", "popularity": 11.1}, {"adult": false, "backdrop_path": "/kZMZ3PqcKmtBifHjfoI8JnURHJj.jpg", "genre_ids": [28, 80, 53], "id": 2140, "original_language": "en", "original_title": "Kiss of the Dragon", "overview": "Liu Jian, an elite Chinese police officer, comes to Paris to arrest a Chinese drug lord. When Jian is betrayed by a French officer and framed for murder, he must go into hiding and find new allies.", "poster_path": "/A1GrGdX4AgCRDweg9X3x8JsZrEc.jpg", "release_date": "2001-07-06", "title": "Kiss of the Dragon", "video": false, "vote_average": 6.6, "vote_count": 547, "popularity": 10.704}, {"adult": false, "backdrop_path": "/4NnYQ4hOWxzqJz2DMUYZLEGKvFc.jpg", "genre_ids": [18, 10749, 35], "id": 81025, "original_language": "en", "original_title": "Salmon Fishing in the Yemen", "overview": "A fisheries expert is approached by a consultant to help realize a sheik's vision of bringing the sport of fly-fishing to the desert and embarks on an upstream journey of faith and fish to prove the impossible possible.", "poster_path": "/bzLlr1RhZYQ2uLvNjR9hb5A5kZ9.jpg", "release_date": "2012-03-09", "title": "Salmon Fishing in the Yemen", "video": false, "vote_average": 6.4, "vote_count": 546, "popularity": 8.387}, {"adult": false, "backdrop_path": "/3wM5Tver2VwLqZC41k0Dfy304y3.jpg", "genre_ids": [28, 12, 35, 80, 18], "id": 10117, "original_language": "en", "original_title": "Action Jackson", "overview": "Vengence drives a tough Detroit cop to stay on the trail of a power hungry auto magnate who's systematically eliminating his competition.", "poster_path": "/rg5WY1SiyPDuTYZs2vgTV0csVbz.jpg", "release_date": "1988-02-12", "title": "Action Jackson", "video": false, "vote_average": 5.4, "vote_count": 92, "popularity": 9.358}, {"id": 372411, "video": false, "vote_count": 148, "vote_average": 5.5, "title": "Absolutely Fabulous: The Movie", "release_date": "2016-07-01", "original_language": "en", "original_title": "Absolutely Fabulous: The Movie", "genre_ids": [35], "backdrop_path": "/4CqHy05TKdFitsPtwJE6MFTQ7GU.jpg", "adult": false, "overview": "Edina and Patsy are still oozing glitz and glamor, living the high life they are accustomed to; shopping, drinking and clubbing their way around London's trendiest hot-spots. Blamed for a major incident at an uber fashionable launch party, they become entangled in a media storm and are relentlessly pursued by the paparazzi. Fleeing penniless to the glamorous playground of the super-rich, the French Riviera, they hatch a plan to make their escape permanent and live the high life forever more!", "poster_path": "/hSfirud6vvO0vAOSBMm3FGmRFBW.jpg", "popularity": 9.54}, {"id": 103328, "video": false, "vote_count": 511, "vote_average": 7.1, "title": "Holy Motors", "release_date": "2012-07-02", "original_language": "fr", "original_title": "Holy Motors", "genre_ids": [18, 14], "backdrop_path": "/5EQUQ6nqjgfGowfho31TlF0EAiY.jpg", "adult": false, "overview": "We follow 24 hours in the life of a being moving from life to life like a cold and solitary assassin moving from hit to hit. In each of these interwoven lives, the being possesses an entirely distinct identity: sometimes a man, sometimes a woman, sometimes youthful, sometimes old. By turns murderer, beggar, company chairman, monstrous creature, worker, family man.", "poster_path": "/d5amUFExQCqLkRpWQ6QspBtyWUe.jpg", "popularity": 9.975}, {"adult": false, "backdrop_path": "/lMpSxEci1FyaMGtBDWtY9Jd2TAp.jpg", "genre_ids": [80, 18], "id": 16090, "original_language": "en", "original_title": "The Blue Dahlia", "overview": "Soon after a veteran's return from war his cheating wife is found dead. He evades police in an attempt to find the real murderer.", "poster_path": "/p3QeTTnsoxTCuXH7pEQkDREGAB8.jpg", "release_date": "1946-04-16", "title": "The Blue Dahlia", "video": false, "vote_average": 6.7, "vote_count": 59, "popularity": 5.37}, {"id": 32488, "video": false, "vote_count": 73, "vote_average": 7.6, "title": "Days of Wine and Roses", "release_date": "1962-12-26", "original_language": "en", "original_title": "Days of Wine and Roses", "genre_ids": [18, 10749], "backdrop_path": "/7DC2p16p5Y5lr2fpMD2IVLoPa4w.jpg", "adult": false, "overview": "An alcoholic falls in love with and gets married to a young woman, whom he systematically addicts to booze so they can share his \"passion\" together.", "poster_path": "/cRVl1BR3x3P2NqUv61eveJNJ0ip.jpg", "popularity": 7.073}, {"adult": false, "backdrop_path": "/rS5bgCi4puj9vAgOyIm5oAaevJ2.jpg", "genre_ids": [80, 27, 878], "id": 27115, "original_language": "en", "original_title": "The Walking Dead", "overview": "Down-on-his-luck John Ellman is framed for a judge's murder. After he's convicted and sentenced to death, witnesses come forth and prove his innocence. But it was too late for a stay to be granted and Ellman is executed. A doctor uses an experimental procedure to restore him to life, though the full outcome is other than expected.", "poster_path": "/vRZ0NNqaQewNuN6yvw2HXowFCiu.jpg", "release_date": "1936-03-01", "title": "The Walking Dead", "video": false, "vote_average": 6.6, "vote_count": 29, "popularity": 3.859}, {"id": 27003, "video": false, "vote_count": 27, "vote_average": 6.4, "title": "The Black Room", "release_date": "1935-07-15", "original_language": "en", "original_title": "The Black Room", "genre_ids": [80, 18], "backdrop_path": "/5e7bGAXC4gtKC524s1r27kGffRG.jpg", "adult": false, "overview": "In a 16th-century European town, the ruling family has been given a prophecy that, should there ever be twin boys born, the younger will murder the older; so is dismayed when twins are born to the popular baron.  The older grows to be a selfish, slovenly man, who inherits the castle at his father's death and becomes ruler over the formerly happy villagers.  He enjoys his power until he learns his younger brother is returning from abroad and, afraid of the prophecy, he determines to murder his sibling, hide his body in the \"black room\" - an old torture chamber sealed away behind the fireplace - and then impersonate him, right down to his withered arm.  In this way he hopes to not only avoid the prophecy, but also escape consequences of his other criminal deeds and obtain marriage to a local girl of the nobility...", "poster_path": "/aXxtO9Ny5dLtDEvgwnhAMDdzcOH.jpg", "popularity": 6.309}, {"adult": false, "backdrop_path": null, "genre_ids": [27, 878, 9648], "id": 593655, "original_language": "en", "original_title": "Castle Freak", "overview": "A remake of the 1995 Stuart Gordon film, as well as a direct adaptation of HP Lovecraft's \"The Outsider\". A recently blinded young girl, Rebecca, travels with her boyfriend and a group of friends to rural Albania after she inherited an age-old castle from her long-lost mother. However, upon arriving at the castle, it becomes clear that Rebecca's extended family may have kept dark, cosmic secrets locked away below their family homestead, secrets which have just been awakened by the arrival of the teenaged visitors.", "poster_path": null, "release_date": "", "title": "Castle Freak", "video": false, "vote_average": 0.0, "vote_count": 0, "popularity": 0.846}, {"adult": false, "backdrop_path": "/f7bgdzJqTWQ2YsPBLKPp0VJ3Ovs.jpg", "genre_ids": [80, 10749, 53, 28], "id": 135199, "original_language": "hi", "original_title": "\u090f\u0915 \u0939\u0938\u0940\u0928\u093e \u0925\u0940", "overview": "A woman falls for a charming and mysterious businessman. The whirlwind romance turns sour when she is framed for his underworld crimes. Now, finally out of prison she is ready for sweet revenge.", "poster_path": "/5pwOhZM9iYbQyxEX67ja4K1Cyof.jpg", "release_date": "2004-01-16", "title": "Ek Hasina Thi", "video": false, "vote_average": 5.8, "vote_count": 19, "popularity": 2.105}, {"id": 28264, "video": false, "vote_count": 58, "vote_average": 5.7, "title": "Blood Rage", "release_date": "1987-06-01", "original_language": "en", "original_title": "Blood Rage", "genre_ids": [27], "backdrop_path": "/bNpUoJD7HgzPBzuvt1ubL8WKmRG.jpg", "adult": false, "overview": "In 1974, Terry commits a murder and pins it on his twin brother, Todd. Ten years later, Todd escapes from a mental institution on the same day as Terry\u2019s murderous instincts resurface.", "poster_path": "/gd2hiaYh5VkbXpxyibZLea0u3bj.jpg", "popularity": 6.433}, {"adult": false, "backdrop_path": "/mVDPZymNgFpy2iUV4gV4Lm9o0m5.jpg", "genre_ids": [80, 18, 53], "id": 25548, "original_language": "en", "original_title": "Shadow on the Wall", "overview": "Angered that her sister Celia has stolen her fiance, Dell Faring kills her and allows Celia's husband David, knocked out in an argument with Celia, to take the blame and end up on death row. Later Dell, finding out that David's young daughter Susan was witness to the crime and is undergoing psychiatric treatment, plans to eliminate her before her memory returns.", "poster_path": "/uKyomcRCi9ZmUqWaPvohHK3y9rE.jpg", "release_date": "1950-05-19", "title": "Shadow on the Wall", "video": false, "vote_average": 7.0, "vote_count": 6, "popularity": 3.47}], "total_pages": 3, "total_results": 42}, "recommendations": {"page": 1, "results": [], "total_pages": 1, "total_results": 0}, "credits": {"cast": [{"cast_id": 2, "character": "Alicia 'Allie' Brayman", "credit_id": "54819f7c9251416e6c00551a", "gender": 1, "id": 19189, "name": "Elizabeth Berkley", "order": 1, "profile_path": "/gYz3ZeNWPI7aP21eB2OWrILE1KM.jpg"}, {"cast_id": 3, "character": "Kyle Jones (as Joel Wyner)", "credit_id": "54819f88c3a3684afd0014fa", "gender": 2, "id": 49825, "name": "J.H. Wyman", "order": 2, "profile_path": "/tbV0yLk327Aap3AgaMEDzJXy7bG.jpg"}, {"cast_id": 4, "character": "Det. Ed Royko", "credit_id": "54819f959251414efa006265", "gender": 2, "id": 135993, "name": "Frank Schorpion", "order": 3, "profile_path": "/aYHpKplVgIeuN8VoJq5R1Im9QKi.jpg"}, {"cast_id": 5, "character": "Blake Preston", "credit_id": "54819fa2c3a36829a7005dba", "gender": 2, "id": 43429, "name": "Barry Flatman", "order": 4, "profile_path": "/jFilSZK7Th9qTQFQ3ZToU53ieAY.jpg"}], "crew": [{"credit_id": "54819f65c3a36829a7005db0", "department": "Directing", "gender": 2, "id": 90363, "job": "Director", "name": "Douglas Jackson", "profile_path": null}, {"credit_id": "54819f6f9251416e74006019", "department": "Writing", "gender": 2, "id": 127917, "job": "Screenplay", "name": "Matt Dorff", "profile_path": null}]}}