{"adult": false, "backdrop_path": "/3tQ8zca7HFCUiwvm4XEtRXTQeOa.jpg", "belongs_to_collection": null, "budget": 0, "genres": [{"id": 35, "name": "Comedy"}], "homepage": null, "id": 26969, "imdb_id": "tt1172974", "original_language": "es", "original_title": "8 Citas", "overview": "", "popularity": 0.925, "poster_path": "/fb6bdSIvejW6nYZvs4vWJ0Mb7Mw.jpg", "production_companies": [{"id": 63713, "logo_path": null, "name": "Tesela P.C.", "origin_country": "ES"}, {"id": 1183, "logo_path": null, "name": "Impala", "origin_country": "ES"}], "production_countries": [{"iso_3166_1": "ES", "name": "Spain"}], "release_date": "2008-04-18", "revenue": 0, "runtime": 95, "spoken_languages": [{"iso_639_1": "es", "name": "Espa\u00f1ol"}], "status": "Released", "tagline": "", "title": "8 Dates", "video": false, "vote_average": 4.3, "vote_count": 4, "keywords": {"keywords": [{"id": 9840, "name": "romance"}]}, "similar": {"page": 1, "results": [{"id": 52345, "video": false, "vote_count": 221, "vote_average": 7.8, "title": "Lisbela and the Prisoner", "release_date": "2003-08-22", "original_language": "pt", "original_title": "Lisbela e o Prisioneiro", "genre_ids": [35, 10749], "backdrop_path": "/4KDlC0cZvR5LtszqjFhZcMzdiUD.jpg", "adult": false, "overview": "Lisbela is a young woman who loves going to the movies. Lel\u00e9u is a con man, going from town to town selling all sort of things and performing as master of ceremonies for some cheesy numbers, such as the woman who gets transformed into a gorilla. He gets involved with Linaura, a sexy and beautiful woman who happens to be the wife of the most frightening hitman of the place. The hitman finds out his wife's affair and goes after Lel\u00e9u, who has to leave in a hurry. In another town, he meets and falls instantly in love with Lisbela, who is engaged to Douglas, a hillbilly who tries hard to pass for a cosmopolitan Rio de Janeiro dweller.", "poster_path": "/9nlaRxQeYaMrVVANMppagFohCRP.jpg", "popularity": 1.042}, {"id": 76492, "video": false, "vote_count": 5547, "vote_average": 6.9, "title": "Hotel Transylvania", "release_date": "2012-09-20", "original_language": "en", "original_title": "Hotel Transylvania", "genre_ids": [16, 35, 14, 10751], "backdrop_path": "/sETTal2HPPkUC3lWc27HL1AFu9C.jpg", "adult": false, "overview": "Welcome to Hotel Transylvania, Dracula's lavish five-stake resort, where monsters and their families can live it up and no humans are allowed. One special weekend, Dracula has invited all his best friends to celebrate his beloved daughter Mavis's 118th birthday. For Dracula catering to all of these legendary monsters is no problem but the party really starts when one ordinary guy stumbles into the hotel and changes everything!", "poster_path": "/9qugesYpAWHUpdrw2w8URSGkAPt.jpg", "popularity": 31.161}, {"adult": false, "backdrop_path": "/vDtwfI1d60LbIJV41xPIX06w6Vt.jpg", "genre_ids": [35], "id": 24571, "original_language": "en", "original_title": "Carry On Matron", "overview": "A gang of thieves plan to make their fortune by stealing a shipment of contraceptive pills from Finisham maternity hospital. They assume disguises and infiltrate the hospital, but everything doesn't go according to plan. The hypochondriac consultant Sir Bernard Cutting, Matron and the doctors and nurses at Finisham have a habit of getting in the way.", "poster_path": "/bDcRkkDqyaMvePQFmHx5J3n1v4H.jpg", "release_date": "1972-05-05", "title": "Carry On Matron", "video": false, "vote_average": 6.5, "vote_count": 36, "popularity": 3.947}, {"id": 9051, "video": false, "vote_count": 115, "vote_average": 5.6, "title": "10", "release_date": "1979-10-04", "original_language": "en", "original_title": "10", "genre_ids": [35, 10749], "backdrop_path": "/f0KcQlWKQfgJxIV365TFaFyXUVT.jpg", "adult": false, "overview": "A Hollywood songwriter goes through a mid-life crisis and becomes infatuated with a sexy blonde newlywed.", "poster_path": "/7GGpt49Q2c98zVz514mHlRjCpGy.jpg", "popularity": 14.392}, {"adult": false, "backdrop_path": "/5OeY4U2rzePxWq2rkqMajUx2gz7.jpg", "genre_ids": [16, 10751, 12, 14, 10749], "id": 812, "original_language": "en", "original_title": "Aladdin", "overview": "Princess Jasmine grows tired of being forced to remain in the palace, so she sneaks out into the marketplace, in disguise, where she meets street-urchin Aladdin.  The couple falls in love, although Jasmine may only marry a prince.  After being thrown in jail, Aladdin becomes embroiled in a plot to find a mysterious lamp, with which the evil Jafar hopes to rule the land.", "poster_path": "/mjKozYRuHc9j7SmiXmbVmCiAM0A.jpg", "release_date": "1992-11-25", "title": "Aladdin", "video": false, "vote_average": 7.6, "vote_count": 7289, "popularity": 35.494}, {"adult": false, "backdrop_path": "/dDxwX9quYcQRaLb8Q5g3owrok9e.jpg", "genre_ids": [35, 10749], "id": 277547, "original_language": "en", "original_title": "Playing It Cool", "overview": "The story of a young man disillusioned by love who meets a breathtaking young woman at a charity dinner by pretending to be a philanthropist. Turns out that she\u2019s engaged to a guy who doesn\u2019t like her going on dates. Challenged by the chase, and egged on by his eclectic friends, he feigns a platonic relationship in order to keep seeing her as he tries to conquer her heart", "poster_path": "/mBzSxaPOcq8XwXq4qkkyy8Ev9Go.jpg", "release_date": "2014-09-26", "title": "Playing It Cool", "video": false, "vote_average": 5.9, "vote_count": 465, "popularity": 20.158}, {"id": 27022, "video": false, "vote_count": 3219, "vote_average": 6.0, "title": "The Sorcerer's Apprentice", "release_date": "2010-07-13", "original_language": "en", "original_title": "The Sorcerer's Apprentice", "genre_ids": [28, 12, 35, 18, 14], "backdrop_path": "/v0o9M1us65w1kDQp8Q6KnB5a11s.jpg", "adult": false, "overview": "Balthazar Blake is a master sorcerer in modern-day Manhattan trying to defend the city from his arch-nemesis, Maxim Horvath. Balthazar can't do it alone, so he recruits Dave Stutler, a seemingly average guy who demonstrates hidden potential, as his reluctant prot\u00e9g\u00e9. The sorcerer gives his unwilling accomplice a crash course in the art and science of magic, and together, these unlikely partners work to stop the forces of darkness.", "poster_path": "/ZNSrRpdJ6FjMy4Iu6JpRTJ5Q87.jpg", "popularity": 24.096}, {"adult": false, "backdrop_path": "/74Jh5SIWnKDwtusPfDP51EeCFHt.jpg", "genre_ids": [35, 10749], "id": 9576, "original_language": "en", "original_title": "Tootsie", "overview": "When struggling, out of work actor Michael Dorsey secretly adopts a female alter ego - Dorothy Michaels - in order to land a part in a daytime drama, he unwittingly becomes a feminist icon and ends up in a romantic pickle.", "poster_path": "/ngyCzZwb9y5sMUCig5JQT4Y33Q.jpg", "release_date": "1982-12-16", "title": "Tootsie", "video": false, "vote_average": 7.2, "vote_count": 915, "popularity": 9.882}, {"id": 10719, "video": false, "vote_count": 2252, "vote_average": 6.6, "title": "Elf", "release_date": "2003-10-09", "original_language": "en", "original_title": "Elf", "genre_ids": [35, 14, 10751], "backdrop_path": "/jRzrQ7Thcjpetr0n8B6w980eZet.jpg", "adult": false, "overview": "When young Buddy falls into Santa's gift sack on Christmas Eve, he's transported back to the North Pole and raised as a toy-making elf by Santa's helpers. But as he grows into adulthood, he can't shake the nagging feeling that he doesn't belong. Buddy vows to visit Manhattan and find his real dad, a workaholic publisher.", "poster_path": "/9jChHqqcpe0zHNTqkNqWZkwkgil.jpg", "popularity": 14.355}, {"id": 11072, "video": false, "vote_count": 1036, "vote_average": 7.3, "title": "Blazing Saddles", "release_date": "1974-02-07", "original_language": "en", "original_title": "Blazing Saddles", "genre_ids": [35, 37], "backdrop_path": "/tCitxLKMzCxexGlSg4g4IDVC3RM.jpg", "adult": false, "overview": "A town\u2014where everyone seems to be named Johnson\u2014stands in the way of the railroad. In order to grab their land, robber baron Hedley Lemar sends his henchmen to make life in the town unbearable. After the sheriff is killed, the town demands a new sheriff from the Governor, so Hedley convinces him to send the town the first black sheriff in the west.", "poster_path": "/yccgwPNVaqtgS1d0U5jjM6Mnza8.jpg", "popularity": 16.616}, {"id": 49013, "video": false, "vote_count": 4530, "vote_average": 5.9, "title": "Cars 2", "release_date": "2011-06-11", "original_language": "en", "original_title": "Cars 2", "genre_ids": [12, 16, 35, 10751], "backdrop_path": "/jEcmZhtJkZQc6ta2vzBd9CU7GIx.jpg", "adult": false, "overview": "Star race car Lightning McQueen and his pal Mater head overseas to compete in the World Grand Prix race. But the road to the championship becomes rocky as Mater gets caught up in an intriguing adventure of his own: international espionage.", "poster_path": "/AblhtULOVtrkSnFxRPQ8gBemxw9.jpg", "popularity": 25.278}, {"id": 449176, "video": false, "vote_count": 3691, "vote_average": 8.1, "title": "Love, Simon", "release_date": "2018-02-16", "original_language": "en", "original_title": "Love, Simon", "genre_ids": [35, 18, 10749], "backdrop_path": "/rqMEeajyzSF4PpJtdCB816Iz8Vr.jpg", "adult": false, "overview": "Everyone deserves a great love story. But for seventeen-year old Simon Spier it's a little more complicated: he's yet to tell his family or friends he's gay and he doesn't know the identity of the anonymous classmate he's fallen for online.", "poster_path": "/5YUYg5q7QfC4IoNwNUtiwdiYKPr.jpg", "popularity": 17.201}, {"adult": false, "backdrop_path": "/fBYnaVOcc2Ghfkv473z0xdBRQ0m.jpg", "genre_ids": [10751, 16, 12, 35], "id": 270946, "original_language": "en", "original_title": "Penguins of Madagascar", "overview": "Skipper, Kowalski, Rico and Private join forces with undercover organization The North Wind to stop the villainous Dr. Octavius Brine from destroying the world as we know it.", "poster_path": "/pRer59eyY4rjkLPeKXKo7fPxCHH.jpg", "release_date": "2014-11-22", "title": "Penguins of Madagascar", "video": false, "vote_average": 6.4, "vote_count": 2485, "popularity": 27.36}, {"id": 295151, "video": false, "vote_count": 540, "vote_average": 6.2, "title": "Let It Snow", "release_date": "2019-11-08", "original_language": "en", "original_title": "Let It Snow", "genre_ids": [35, 10749], "backdrop_path": "/4oSRQ03nJjl8sZAPgIXgi51XZva.jpg", "adult": false, "overview": "When a huge blizzard (that doesn't show signs of stopping) hits, Gracetown is completely snowed in. But even though it's cold outside, things are heating up inside, proving that Christmas is magical when it comes to love.", "poster_path": "/rEVu3E1OhMPJeCAn9a6QLyVhZDj.jpg", "popularity": 16.181}, {"id": 9647, "video": false, "vote_count": 786, "vote_average": 6.9, "title": "Scrooged", "release_date": "1988-11-22", "original_language": "en", "original_title": "Scrooged", "genre_ids": [35, 18, 14], "backdrop_path": "/6xezVJoUp0cZUBQeIDpW6lFuhcd.jpg", "adult": false, "overview": "In this modern take on Charles Dickens' \"A Christmas Carol,\" Frank Cross (Bill Murray) is a wildly successful television executive whose cold ambition and curmudgeonly nature has driven away the love of his life, Claire Phillips (Karen Allen). But after firing a staff member, Eliot Loudermilk (Bobcat Goldthwait), on Christmas Eve, Frank is visited by a series of ghosts who give him a chance to re-evaluate his actions and right the wrongs of his past.", "poster_path": "/uO0znfB2ZzTXA1IS7jkrjNbpkYK.jpg", "popularity": 17.767}, {"adult": false, "backdrop_path": "/c42tFwWNHc8jJ49Zb0yqSAqr5TM.jpg", "genre_ids": [12, 35, 10751, 14, 16], "id": 228165, "original_language": "en", "original_title": "The SpongeBob Movie: Sponge Out of Water", "overview": "Burger Beard is a pirate who is in search of the final page of a magical book that makes any evil plan he writes in it come true, which happens to be the Krabby Patty secret formula. When the entire city of Bikini Bottom is put in danger, SpongeBob, Patrick, Mr. Krabs, Squidward, Sandy, and Plankton need to go on a quest that takes them to the surface. In order to get back the recipe and save their city, the gang must retrieve the book and transform themselves into superheroes.", "poster_path": "/9wChSuUoQDiBKUnGTcYMkzRha60.jpg", "release_date": "2015-01-28", "title": "The SpongeBob Movie: Sponge Out of Water", "video": false, "vote_average": 5.8, "vote_count": 1273, "popularity": 28.626}, {"id": 901, "video": false, "vote_count": 1026, "vote_average": 8.4, "title": "City Lights", "release_date": "1931-02-01", "original_language": "xx", "original_title": "City Lights", "genre_ids": [35, 18, 10749], "backdrop_path": "/vT6ux2rdyg2kexuLisO5Ygz7pHg.jpg", "adult": false, "overview": "City Lights is the first silent film that Charlie Chaplin directed after he established himself with sound accompanied films. The film is about a penniless man who falls in love with a flower girl.", "poster_path": "/bXNvzjULc9jrOVhGfjcc64uKZmZ.jpg", "popularity": 14.645}, {"id": 6435, "video": false, "vote_count": 754, "vote_average": 6.5, "title": "Practical Magic", "release_date": "1998-10-16", "original_language": "en", "original_title": "Practical Magic", "genre_ids": [35, 14, 10749], "backdrop_path": "/2csru6TjDXExFgx5OXxJmRHujVs.jpg", "adult": false, "overview": "Sally and Gillian Owens, born into a magical family, have mostly avoided witchcraft themselves. But when Gillian's vicious boyfriend, Jimmy Angelov, dies unexpectedly, the Owens sisters give themselves a crash course in hard magic. With policeman Gary Hallet growing suspicious, the girls struggle to resurrect Angelov -- and unwittingly inject his corpse with an evil spirit that threatens to end their family line.", "poster_path": "/AwmToSgf2IL3aHv0QRVsR5KvChv.jpg", "popularity": 11.491}, {"id": 703, "video": false, "vote_count": 2272, "vote_average": 7.8, "title": "Annie Hall", "release_date": "1977-04-19", "original_language": "en", "original_title": "Annie Hall", "genre_ids": [35, 18, 10749], "backdrop_path": "/8iNt5LGxpX9XeNWJgjx17xfTT7u.jpg", "adult": false, "overview": "New York comedian Alvy Singer falls in love with the ditsy Annie Hall.", "poster_path": "/bK9bLXwxWuXX5mbq75PZqjvAtfG.jpg", "popularity": 14.556}, {"id": 19913, "video": false, "vote_count": 6208, "vote_average": 7.2, "title": "(500) Days of Summer", "release_date": "2009-07-17", "original_language": "en", "original_title": "(500) Days of Summer", "genre_ids": [35, 18, 10749], "backdrop_path": "/yYw9cVdRJ4zzwxM2cTDXfT6JI6E.jpg", "adult": false, "overview": "Tom, greeting-card writer and hopeless romantic, is caught completely off-guard when his girlfriend, Summer, suddenly dumps him. He reflects on their 500 days together to try to figure out where their love affair went sour, and in doing so, Tom rediscovers his true passions in life.", "poster_path": "/5SjtNPD1bb182vzQccvEUpXHFjN.jpg", "popularity": 20.487}], "total_pages": 227, "total_results": 4526}, "recommendations": {"page": 1, "results": [{"adult": false, "backdrop_path": "/ip3udLHGWmOjUrb0ikWf1U7c3cC.jpg", "genre_ids": [35], "id": 15953, "original_language": "es", "original_title": "Fuera de carta", "overview": "Maxi thinks is life is perfect. He is a famous cook who own a top hype restaurant in Chueca. He is living his homosexual life without complex. But when his son Edu and his daughter Alba appears, and comes a new neighbor which is an attractive ex famous Argentinian soccer player, they will punch his regular life and change his valors.", "poster_path": "/kpDxrZD4L84UmA8foham5DWdmf1.jpg", "release_date": "2008-04-11", "title": "Chef's Special", "video": false, "vote_average": 5.7, "vote_count": 44, "popularity": 5.4}, {"id": 54148, "video": false, "vote_count": 33, "vote_average": 6.3, "title": "Soccer Days", "release_date": "2003-09-19", "original_language": "es", "original_title": "D\u00edas de f\u00fatbol", "genre_ids": [35], "backdrop_path": "/nXw7PSsO9sSVdW47o9dh04vkRV0.jpg", "adult": false, "overview": "A comedic romp that celebrates the power of friendship to turn your life around, Dias de Futbol introduces us to Antonio, an ex-convict and amateur shrink who convinces his pals that the best way to overcome their midlife crises and lack of success with women is to reassemble their old soccer team and win something in life, even if only a local championship. Directed by David Serrano. Starring Alberto San Juan, Natalia Verbeke (Dot the I, Son of the Bride), Pere Ponce, and Fernando Tejero.", "poster_path": "/tGHWKsf43q1CXHsfZhIVwAldC72.jpg", "popularity": 3.746}, {"adult": false, "backdrop_path": "/5ZLbxLVqS4j1KTFek0DZK5UDYcg.jpg", "genre_ids": [18, 35], "id": 28478, "original_language": "es", "original_title": "Gordos", "overview": "\"GORDOS\" is a comedy about life's excesses and deficiencies; about our insecurities, phobias, obsessions, traumas, mistakes, fears, blame, desires, hopes, challenges, concessions, goals, relationships, love, sex, health, family... about survival in the widest and \"largest\" sense of the word.", "poster_path": "/zgTjNilyAqzj6PZQVDWwIGFSP0U.jpg", "release_date": "2009-09-11", "title": "Fat People", "video": false, "vote_average": 6.2, "vote_count": 36, "popularity": 3.874}, {"id": 21700, "video": false, "vote_count": 50, "vote_average": 6.5, "title": "Airbag", "release_date": "1997-06-20", "original_language": "es", "original_title": "Airbag", "genre_ids": [28, 35, 80], "backdrop_path": "/teesnRqY5iHVrLiXSu3BNlDV3T2.jpg", "adult": false, "overview": "Mommy's boy Juantxo is engaged. Dragged to the party by his friends Konradin and Paco, he loses his expensive wedding ring inside the body of a prostitute. Mafioso whorehouse owner Villambrosa finds the ring. Meanwhile Villambrosa's rival gangster Souza sends \"femme fatale\" Fatima to check things out. Juantxo and his friends are trying to get the ring back and in the process get involved in the war between gangs..", "poster_path": "/h4bA27LbBTUs20nwyWN0kNXEf11.jpg", "popularity": 4.482}, {"adult": false, "backdrop_path": "/rKz7qLYknII178YkfYt1E4gRo3U.jpg", "genre_ids": [53], "id": 76013, "original_language": "es", "original_title": "No habr\u00e1 paz para los malvados", "overview": "Madrid, the beginning of the century. One day, the police inspector Santos Trinidad coming home very drunk, is involved in a triple murder. But there is a witness who managed to escape and that could incriminate him. Santos undertakes an investigation to locate and eliminate the witness. Meanwhile, Chac\u00f3n a judge in charge of investigating the triple murder, meticulously advances in the search for the murderer. Santos and Chacon soon discover that what seemed a simple case of drug trafficking is actually something far more dangerous.", "poster_path": "/xoSj21KAOx0VINt00rtrK6k1l3G.jpg", "release_date": "2011-09-21", "title": "No Rest for the Wicked", "video": false, "vote_average": 5.8, "vote_count": 70, "popularity": 4.608}, {"adult": false, "backdrop_path": "/n4yqgEw0uUu8erfouZ1ORSpBTAH.jpg", "genre_ids": [10752, 18, 36], "id": 403357, "original_language": "es", "original_title": "1898: los \u00faltimos de Filipinas", "overview": "The Philippines, 1898. Fifty Spanish soldiers arrive in the small village of Baler to rebuild an outpost. Although the war against the Filipinos and their American allies is almost lost, as is the Spanish Empire, the garrison will endure a cruel siege for eleven months. They will be the last to surrender.", "poster_path": "/q2CbFRigH5qz8v68Q5GbadSMcOz.jpg", "release_date": "2016-12-02", "title": "1898: Our Last Men in the Philippines", "video": false, "vote_average": 6.5, "vote_count": 80, "popularity": 7.653}, {"id": 56647, "video": false, "vote_count": 89, "vote_average": 6.9, "title": "Cousinhood", "release_date": "2011-02-04", "original_language": "es", "original_title": "Primos", "genre_ids": [35], "backdrop_path": "/3Ss6olnuBnrvCirseFebIsnsiG5.jpg", "adult": false, "overview": "Three cousins travel to the village where they spent summer vacations as kids.", "poster_path": "/9t9TYMviEj3d7FSqDTn9CH9YTQH.jpg", "popularity": 5.304}, {"adult": false, "backdrop_path": "/fqNiPVsTrtbVuLICfCIjL3IBldT.jpg", "genre_ids": [18, 28], "id": 98582, "original_language": "es", "original_title": "Grupo 7", "overview": "Angel, a young intelligent and kind, aims to be a police inspector. Rafael  instead  is an expeditious, forceful and arrogant policeman. Meanwhile, Miguel and Mateo are part of Group 7, a group of rogue cops ready to do anything to achieve their goals.", "poster_path": "/j6YLnLaX1jPCw62ICVI5GdkXDkB.jpg", "release_date": "2012-04-03", "title": "Unit 7", "video": false, "vote_average": 6.1, "vote_count": 89, "popularity": 9.206}], "total_pages": 1, "total_results": 8}, "credits": {"cast": [{"cast_id": 1, "character": "Antonio", "credit_id": "52fe4525c3a368484e04b07d", "gender": 2, "id": 43321, "name": "Fernando Tejero", "order": 0, "profile_path": "/ha6cl73O5H7D54YPTsT2WTT7nIE.jpg"}, {"cast_id": 2, "character": "Rafa", "credit_id": "52fe4525c3a368484e04b081", "gender": 2, "id": 43323, "name": "Jos\u00e9 Luis Garc\u00eda P\u00e9rez", "order": 1, "profile_path": "/4FQuXgtCvEkulGGcUQklKSBBGdD.jpg"}, {"cast_id": 3, "character": "Sof\u00eda", "credit_id": "52fe4525c3a368484e04b085", "gender": 1, "id": 96686, "name": "Bel\u00e9n L\u00f3pez", "order": 2, "profile_path": "/xbcVOML0e4dwZTC7XqwXbC4cLVX.jpg"}, {"cast_id": 4, "character": "N\u00faria", "credit_id": "52fe4525c3a368484e04b089", "gender": 1, "id": 96687, "name": "Cecilia Freire", "order": 3, "profile_path": "/nJNFdN8f0xuNOfVc7L6llFO0NCB.jpg"}, {"cast_id": 5, "character": "Jes\u00fas", "credit_id": "52fe4525c3a368484e04b08d", "gender": 2, "id": 34021, "name": "Ra\u00fal Ar\u00e9valo", "order": 4, "profile_path": "/eFy3FCRCprRsCsaVQ63yrZJsy5W.jpg"}, {"cast_id": 6, "character": "Pablo", "credit_id": "52fe4525c3a368484e04b091", "gender": 2, "id": 96688, "name": "Javier Rey", "order": 5, "profile_path": "/7a7OMjANkNPJmACXh1Gwwewvcxw.jpg"}, {"cast_id": 11, "character": "David", "credit_id": "55677502c3a3681c7e0003e4", "gender": 2, "id": 1248277, "name": "Maxi Iglesias", "order": 6, "profile_path": "/sX0fOdN7Urawav29j24nVAjNgaC.jpg"}], "crew": [{"credit_id": "52fe4525c3a368484e04b097", "department": "Directing", "gender": 2, "id": 96689, "job": "Director", "name": "Peris Romano", "profile_path": "/4UbaIrfkCUN26eIPJ3QwoaWZmTC.jpg"}, {"credit_id": "52fe4525c3a368484e04b0a3", "department": "Writing", "gender": 2, "id": 96690, "job": "Writer", "name": "Rodrigo Sorogoyen", "profile_path": null}, {"credit_id": "52fe4525c3a368484e04b0a9", "department": "Writing", "gender": 2, "id": 96689, "job": "Writer", "name": "Peris Romano", "profile_path": "/4UbaIrfkCUN26eIPJ3QwoaWZmTC.jpg"}, {"credit_id": "58baeeadc3a368668f0204cf", "department": "Directing", "gender": 2, "id": 96690, "job": "Director", "name": "Rodrigo Sorogoyen", "profile_path": null}]}}