{"adult": false, "backdrop_path": null, "belongs_to_collection": null, "budget": 1700000, "genres": [{"id": 18, "name": "Drama"}], "homepage": null, "id": 271561, "imdb_id": "tt0052638", "original_language": "en", "original_title": "The Blue Angel", "overview": "Remake of Josef von Sternberg's 1930 classic.", "popularity": 2.171, "poster_path": "/saTxgnzoCZ2GBb5FhatekwCD3Pu.jpg", "production_companies": [{"id": 25, "logo_path": "/qZCc1lty5FzX30aOCVRBLzaVmcp.png", "name": "20th Century Fox", "origin_country": "US"}], "production_countries": [{"iso_3166_1": "US", "name": "United States of America"}], "release_date": "1959-09-04", "revenue": 0, "runtime": 107, "spoken_languages": [{"iso_639_1": "en", "name": "English"}], "status": "Released", "tagline": "What God made beautiful... temptation made irresistible!", "title": "The Blue Angel", "video": false, "vote_average": 6.0, "vote_count": 3, "keywords": {"keywords": [{"id": 818, "name": "based on novel or book"}, {"id": 9714, "name": "remake"}, {"id": 158628, "name": "foreign language adaptation"}]}, "similar": {"page": 1, "results": [{"adult": false, "backdrop_path": "/kiWvoV78Cc3fUwkOHKzyBgVdrDD.jpg", "genre_ids": [37, 18, 12], "id": 281957, "original_language": "en", "original_title": "The Revenant", "overview": "In the 1820s, a frontiersman, Hugh Glass, sets out on a path of vengeance against those who left him for dead after a bear mauling.", "poster_path": "/oXUWEc5i3wYyFnL1Ycu8ppxxPvs.jpg", "release_date": "2015-12-25", "title": "The Revenant", "video": false, "vote_average": 7.5, "vote_count": 12127, "popularity": 24.135}, {"adult": false, "backdrop_path": "/2J283YNxKhxAqHeVegUJ5mzLfGb.jpg", "genre_ids": [80, 18, 9648], "id": 392044, "original_language": "en", "original_title": "Murder on the Orient Express", "overview": "Genius Belgian detective Hercule Poirot investigates the murder of an American tycoon aboard the Orient Express train.", "poster_path": "/iBlfxlw8qwtUS0R8YjIU7JtM6LM.jpg", "release_date": "2017-11-03", "title": "Murder on the Orient Express", "video": false, "vote_average": 6.7, "vote_count": 6044, "popularity": 24.868}, {"adult": false, "backdrop_path": "/GRyynLqafMrLFMHqvfGdUweavA.jpg", "genre_ids": [27, 18, 14], "id": 628, "original_language": "en", "original_title": "Interview with the Vampire", "overview": "A vampire relates his epic life story of love, betrayal, loneliness, and dark hunger to an over-curious reporter.", "poster_path": "/hldXwwViSfHJS0kIJr07KBGmHJI.jpg", "release_date": "1994-11-11", "title": "Interview with the Vampire", "video": false, "vote_average": 7.3, "vote_count": 3231, "popularity": 21.064}, {"adult": false, "backdrop_path": "/hm8Gux0946IfeJ1PZwztOo6lVHH.jpg", "genre_ids": [18, 36, 35], "id": 450322, "original_language": "en", "original_title": "The Man Who Invented Christmas", "overview": "In 1843, despite the fact that Dickens is a successful writer, the failure of his latest book puts his career at a crossroads, until the moment when, struggling with inspiration and confronting reality with his childhood memories, a new character is born in the depths of his troubled mind; an old, lonely, embittered man, so vivid, so human, that a whole world grows around him, a story so inspiring that changed the meaning of Christmas forever.", "poster_path": "/xYCuRgEKynGurSEooxDa9pQPF7n.jpg", "release_date": "2017-10-12", "title": "The Man Who Invented Christmas", "video": false, "vote_average": 6.7, "vote_count": 395, "popularity": 13.295}, {"id": 656968, "video": false, "vote_count": 23, "vote_average": 7.0, "title": "A Christmas Carol", "release_date": "2019-12-19", "original_language": "en", "original_title": "A Christmas Carol", "genre_ids": [18, 14], "backdrop_path": "/ubLsCmv36zUUt2zxhFSowYFe5uF.jpg", "adult": false, "overview": "London, 1843. Ebenezer Scrooge, a bitter old man, despises the Christmas holiday. Over the course of Christmas Eve night he is visited by three ghosts to show him his past, present and future.", "poster_path": "/tKW48tnZKaHLBIxxgoAf9BIpyRv.jpg", "popularity": 10.458}, {"adult": false, "backdrop_path": "/sw7mordbZxgITU877yTpZCud90M.jpg", "genre_ids": [18, 80], "id": 769, "original_language": "en", "original_title": "GoodFellas", "overview": "The true story of Henry Hill, a half-Irish, half-Sicilian Brooklyn kid who is adopted by neighbourhood gangsters at an early age and climbs the ranks of a Mafia family under the guidance of Jimmy Conway.", "poster_path": "/pwpGfTImTGifEGgLb3s6LRPd4I6.jpg", "release_date": "1990-09-12", "title": "GoodFellas", "video": false, "vote_average": 8.4, "vote_count": 6559, "popularity": 36.135}, {"adult": false, "backdrop_path": "/fewP7EsMEnfqqcx4qYHKSKebwkF.jpg", "genre_ids": [28, 18, 36], "id": 2669, "original_language": "en", "original_title": "The Bounty", "overview": "The familiar story of Lieutenant Bligh, whose cruelty leads to a mutiny on his ship. This version follows both the efforts of Fletcher Christian to get his men beyond the reach of British retribution, and the epic voyage of Lieutenant Bligh to get his loyalists safely to East Timor in a tiny lifeboat.", "poster_path": "/hXFXIc6F4NXI5emWCKcUwqEPjIZ.jpg", "release_date": "1984-05-04", "title": "The Bounty", "video": false, "vote_average": 6.7, "vote_count": 246, "popularity": 10.539}, {"id": 399019, "video": false, "vote_count": 1322, "vote_average": 5.7, "title": "The Beguiled", "release_date": "2017-06-23", "original_language": "en", "original_title": "The Beguiled", "genre_ids": [18, 37], "backdrop_path": "/5jq7TjRzmvkJsa8bF3zWqxbPtmw.jpg", "adult": false, "overview": "During the Civil War, at a Southern girls\u2019 boarding school, young women take in an injured enemy soldier. As they provide refuge and tend to his wounds, the house is taken over with sexual tension and dangerous rivalries, and taboos are broken in an unexpected turn of events.", "poster_path": "/uQxfqFAqAvNK5b1wD11b2ycDAVg.jpg", "popularity": 13.626}, {"adult": false, "backdrop_path": "/jArl1j9sL2mYjRW23EaZKWAr2E8.jpg", "genre_ids": [18, 36], "id": 399121, "original_language": "fr", "original_title": "J\u2019accuse", "overview": "In 1894, French Captain Alfred Dreyfus is wrongfully convicted of treason and sentenced to life imprisonment at Devil's Island.", "poster_path": "/xMCJhioKlEBoWAJM9aCBKR8J3BT.jpg", "release_date": "2019-09-30", "title": "An Officer and a Spy", "video": false, "vote_average": 7.4, "vote_count": 275, "popularity": 12.138}, {"adult": false, "backdrop_path": "/8cVSUI36ORfCJ6d4TP71wIrdD7h.jpg", "genre_ids": [18, 27], "id": 133805, "original_language": "en", "original_title": "Carrie", "overview": "A reimagining of the classic horror tale about Carrie White, a shy girl outcast by her peers and sheltered by her deeply religious mother, who unleashes telekinetic terror on her small town after being pushed too far at her senior prom.", "poster_path": "/j0999NYddCGcishJlxluDRQIn6k.jpg", "release_date": "2013-10-16", "title": "Carrie", "video": false, "vote_average": 5.9, "vote_count": 2914, "popularity": 15.756}, {"adult": false, "backdrop_path": "/neSLpxwG5TWNzCPDUIZ9kbl2bOL.jpg", "genre_ids": [18, 53, 80], "id": 4836, "original_language": "en", "original_title": "Layer Cake", "overview": "When a seemingly straight-forward drug deal goes awry, XXXX has to break his die-hard rules and turn up the heat, not only to outwit the old regime and come out on top, but to save his own skin...", "poster_path": "/y6BzUkrx789OhVMDXZiBBVHu6OQ.jpg", "release_date": "2004-09-30", "title": "Layer Cake", "video": false, "vote_average": 7.0, "vote_count": 1028, "popularity": 19.131}, {"adult": false, "backdrop_path": "/sRJjliXA7ZqHCr7HCK0ZB83xxjr.jpg", "genre_ids": [12, 28, 878], "id": 101299, "original_language": "en", "original_title": "The Hunger Games: Catching Fire", "overview": "Katniss Everdeen has returned home safe after winning the 74th Annual Hunger Games along with fellow tribute Peeta Mellark. Winning means that they must turn around and leave their family and close friends, embarking on a \"Victor's Tour\" of the districts. Along the way Katniss senses that a rebellion is simmering, but the Capitol is still very much in control as President Snow prepares the 75th Annual Hunger Games (The Quarter Quell) - a competition that could change Panem forever.", "poster_path": "/Hn0KgefVEp0GkdTexS6gfKTMfi.jpg", "release_date": "2013-11-15", "title": "The Hunger Games: Catching Fire", "video": false, "vote_average": 7.4, "vote_count": 12031, "popularity": 22.164}, {"adult": false, "backdrop_path": "/bvbyidkMaBls1LTaIWYY6UmYTaL.jpg", "genre_ids": [28, 878], "id": 336843, "original_language": "en", "original_title": "Maze Runner: The Death Cure", "overview": "Thomas leads his group of escaped Gladers on their final and most dangerous mission yet. To save their friends, they must break into the legendary Last City, a WCKD-controlled labyrinth that may turn out to be the deadliest maze of all. Anyone who makes it out alive will get answers to the questions the Gladers have been asking since they first arrived in the maze.", "poster_path": "/2zYfzA3TBwrMC8tfFbpiTLODde0.jpg", "release_date": "2018-01-10", "title": "Maze Runner: The Death Cure", "video": false, "vote_average": 7.0, "vote_count": 4393, "popularity": 24.242}, {"id": 6114, "video": false, "vote_count": 2611, "vote_average": 7.4, "title": "Dracula", "release_date": "1992-11-13", "original_language": "en", "original_title": "Dracula", "genre_ids": [27, 10749], "backdrop_path": "/hm2stwkNFAaXMEeetJS2RZ77zC1.jpg", "adult": false, "overview": "When Dracula leaves the captive Jonathan Harker and Transylvania for London in search of Mina Harker\u2014the reincarnation of Dracula's long-dead wife, Elisabeta\u2014obsessed vampire hunter Dr. Van Helsing sets out to end the madness.", "poster_path": "/ioHxm3D3JdSXR61LRhcVb8KdZOz.jpg", "popularity": 21.922}, {"adult": false, "backdrop_path": "/20IgqkdFw5kuItqDCJtidSESP0t.jpg", "genre_ids": [27, 18], "id": 10066, "original_language": "en", "original_title": "House of Wax", "overview": "A group of unwitting teens are stranded near a strange wax museum and soon must fight to survive and keep from becoming the next exhibit.", "poster_path": "/uM1RebQywM5PPYsauayefpXGxVk.jpg", "release_date": "2005-04-30", "title": "House of Wax", "video": false, "vote_average": 5.7, "vote_count": 1532, "popularity": 16.398}, {"adult": false, "backdrop_path": "/dLAPTvBwEdP4h7a14isNc0HwmOj.jpg", "genre_ids": [18, 10749], "id": 250734, "original_language": "en", "original_title": "Far from the Madding Crowd", "overview": "Based on the literary classic by Thomas Hardy. Bathsheba Everdene, attracts three very different suitors: Gabriel Oak, a sheep farmer, captivated by her fetching willfulness; Frank Troy, a handsome and reckless Sergeant; and William Boldwood, a prosperous and mature bachelor. This timeless story of Bathsheba's choices and passions explores the nature of relationships and love \u2013 as well as the human ability to overcome hardships through resilience and perseverance.", "poster_path": "/6v1DEaO2TZzrqcaGohUf1K7BXkU.jpg", "release_date": "2015-04-23", "title": "Far from the Madding Crowd", "video": false, "vote_average": 7.0, "vote_count": 643, "popularity": 13.429}, {"id": 205775, "video": false, "vote_count": 2362, "vote_average": 6.6, "title": "In the Heart of the Sea", "release_date": "2015-11-20", "original_language": "en", "original_title": "In the Heart of the Sea", "genre_ids": [28, 12, 18, 36, 53], "backdrop_path": "/aZoZ0NglXgiBMToem9HhTAYYamw.jpg", "adult": false, "overview": "In the winter of 1820, the New England whaling ship Essex is assaulted by something no one could believe\u2014a whale of mammoth size and will, and an almost human sense of vengeance.", "poster_path": "/zVmWh0Zfg4UhbvdGI8LQrn1lQZJ.jpg", "popularity": 18.435}, {"id": 521, "video": false, "vote_count": 1257, "vote_average": 8.0, "title": "Dial M for Murder", "release_date": "1954-05-29", "original_language": "en", "original_title": "Dial M for Murder", "genre_ids": [80, 18, 9648, 53], "backdrop_path": "/jVMlfESb0TJ29w8CUDDofEprMmn.jpg", "adult": false, "overview": "An ex-tennis pro carries out a plot to have his wife murdered after discovering she is having an affair, and assumes she will soon leave him for the other man anyway. When things go wrong, he improvises a new plan\u2014to frame her for murder instead.", "poster_path": "/xrpK1PyckNWmRxU4kZURfaCyboS.jpg", "popularity": 28.336}, {"id": 457799, "video": false, "vote_count": 1569, "vote_average": 7.0, "title": "Extremely Wicked, Shockingly Evil and Vile", "release_date": "2019-05-02", "original_language": "en", "original_title": "Extremely Wicked, Shockingly Evil and Vile", "genre_ids": [80, 18, 53], "backdrop_path": "/uRoA67sM5vvCI4cplxhl67BTPly.jpg", "adult": false, "overview": "A chronicle of the crimes of Ted Bundy, from the perspective of his longtime girlfriend, Elizabeth Kloepfer, who refused to believe the truth about him for years.", "poster_path": "/zSuJ3r5zr5T26tTxyygHhgkUAIM.jpg", "popularity": 20.961}, {"id": 75780, "video": false, "vote_count": 4451, "vote_average": 6.4, "title": "Jack Reacher", "release_date": "2012-12-20", "original_language": "en", "original_title": "Jack Reacher", "genre_ids": [28, 80, 18, 53], "backdrop_path": "/ezXodpP429qK0Av89pVNlaXWJkQ.jpg", "adult": false, "overview": "When a gunman takes five lives with six shots, all evidence points to the suspect in custody. On interrogation, the suspect offers up a single note: \"Get Jack Reacher!\" So begins an extraordinary chase for the truth, pitting Jack Reacher against an unexpected enemy, with a skill for violence and a secret to keep.", "poster_path": "/mt0ELw83HIRgaKaDzhsDcIi0RnW.jpg", "popularity": 15.945}], "total_pages": 446, "total_results": 8912}, "recommendations": {"page": 1, "results": [{"adult": false, "backdrop_path": "/695Yni2ofyGGy8yS6W75XYEMjGm.jpg", "genre_ids": [80, 18], "id": 85356, "original_language": "en", "original_title": "River Beat", "overview": "British diamond smugglers use the radiowoman (Phyllis Kirk) from a freighter docked on the Thames to unwittingly \"mule\" their swag, hidden in cigarettes,  past customs, not knowing that she has befriended an Inspector for the Thames River Patrol.", "poster_path": "/nZBkzTyUWPR8KBUscXqblgZrfKH.jpg", "release_date": "1954-07-16", "title": "River Beat", "video": false, "vote_average": 6.2, "vote_count": 3, "popularity": 1.566}, {"adult": false, "backdrop_path": "/nQK8RXu6DaCcEU14KV9tR76Ji7w.jpg", "genre_ids": [35, 10749], "id": 79524, "original_language": "en", "original_title": "Three Husbands", "overview": "When a recently deceased playboy gets to heaven and is granted one wish--granted to all newcomers--he requests that he be able to see the reactions of three husbands, with whom he regularly played poker, to a letter he left each of them claiming to have had an affair with each's wife.", "poster_path": "/udmCmc0oJh5yZNO4OkWmGRfC9Fs.jpg", "release_date": "1951-03-08", "title": "Three Husbands", "video": false, "vote_average": 5.5, "vote_count": 4, "popularity": 2.426}, {"adult": false, "backdrop_path": "/bQDIJqQ4R7jfmMU3PA58MDP6SGM.jpg", "genre_ids": [18], "id": 232333, "original_language": "en", "original_title": "The Silver Darlings", "overview": "A harsh if ultimately optimistic depiction of life in the unforgiving Hebrides, that includes documentary footage to add to the sense of realism. A woman weathers the conscription of her husband, destructive storms, a son who yearns to leave the family home and an outbreak of cholera before winning the man she truly loves.", "poster_path": "/zMXAKLIM4QLQHnqRPT9ysmOWOsb.jpg", "release_date": "1947-09-03", "title": "The Silver Darlings", "video": false, "vote_average": 6.0, "vote_count": 3, "popularity": 1.801}, {"id": 109376, "video": false, "vote_count": 6, "vote_average": 4.8, "title": "Stranger on Horseback", "release_date": "1955-03-22", "original_language": "en", "original_title": "Stranger on Horseback", "genre_ids": [37, 10749], "backdrop_path": "/3Tr0uzJkPhyJzGKrXpPotQJbrpj.jpg", "adult": false, "overview": "A circuit judge in the old west attempts to bring a suspected killer to justice. The judge runs afoul of the killer's rich cattle baron father in the process.", "poster_path": "/iGAoa3WRi0ZPEYBqeclV9zSR7My.jpg", "popularity": 3.445}, {"adult": false, "backdrop_path": "/wIXniBJSI4HWnhoCEZCiRq4KiRW.jpg", "genre_ids": [53, 18], "id": 81878, "original_language": "en", "original_title": "Forbidden", "overview": "Set on Blackpool\u2019s Golden Mile, Jim (Douglass Montgomery), a once promising scientist, sets up in business as a patent medicine man selling hair tonic at the fair with his ex-army colleague Dan (Ronald Shiner). Following a fight with local hoods over pitch spaces, Jim falls for Jane (Hazel Court), the girl on a nearby candy floss stall. The two begin dating but Jim fails to mention he is already married.", "poster_path": "/2OX5tblBpgGimKgiIg9FJh8O37a.jpg", "release_date": "1949-02-28", "title": "Forbidden", "video": false, "vote_average": 7.3, "vote_count": 4, "popularity": 2.339}, {"id": 118255, "video": false, "vote_count": 5, "vote_average": 7.1, "title": "Life at the Top", "release_date": "1965-12-14", "original_language": "en", "original_title": "Life at the Top", "genre_ids": [18], "backdrop_path": "/rNbiGoyt0UJ5Gh9UX8pKRvDZuRn.jpg", "adult": false, "overview": "Successful businessman Joe Lampton is married to the wealthy Susan, has two children and lives in the mill town of Warley in northern England. But his career seems to have plateaued, leaving him disillusioned. This feeling is only exacerbated when he discovers his wife's infidelity with local man Mark. So he takes up with attractive TV host Norah and moves with her to London, aiming to reignite the fire that drove him to the top.", "poster_path": "/mFiw7OzNxiOQdeufFmvZe5Ojc5u.jpg", "popularity": 3.153}, {"adult": false, "backdrop_path": "/s1d8bDT0oR4I91vi4Iv7GXEqvr6.jpg", "genre_ids": [18, 10752], "id": 92492, "original_language": "en", "original_title": "Frieda", "overview": "A young German girl marries an Englishman and moves into his family's household during the last days of World War II. The family and community have conflicting feelings about her presence in the community, and as a result, the family is forced to face their own moral code as they deal with their own prejudices and fears about the seemingly innocent German girl. The war ends, and she finally seems to be accepted into the family and community when her Nazi brother shows up to create havoc.", "poster_path": "/zjHIZnuYWOGCnIo3CuMcZqkXHcw.jpg", "release_date": "1947-06-19", "title": "Frieda", "video": false, "vote_average": 5.6, "vote_count": 6, "popularity": 2.353}, {"adult": false, "backdrop_path": "/7yDOuQx9r9XU4Hb6UUFsyGVn7zM.jpg", "genre_ids": [12], "id": 76144, "original_language": "en", "original_title": "Death Drums Along the River", "overview": "A British colonial policeman in Africa investigates a murder in a hospital up river.", "poster_path": "/yzrYW56cSpAErUc21Ssydffs3xG.jpg", "release_date": "1963-12-20", "title": "Death Drums Along the River", "video": false, "vote_average": 4.5, "vote_count": 5, "popularity": 2.065}, {"adult": false, "backdrop_path": "/ao4sbZ5jiWS1j87xd3tQ40LLGDF.jpg", "genre_ids": [18], "id": 225834, "original_language": "en", "original_title": "Operation Diplomat", "overview": "A physician is forced to operate on a mystery figure under shady circumstances.", "poster_path": "/1lQGFPCsBaZcgykMH7OwU2nOU2U.jpg", "release_date": "1953-12-01", "title": "Operation Diplomat", "video": false, "vote_average": 5.5, "vote_count": 4, "popularity": 2.107}, {"adult": false, "backdrop_path": "/s7oW7jrZoFMCfWtbVaWj7fpvSc.jpg", "genre_ids": [35, 18], "id": 181353, "original_language": "en", "original_title": "Kipps", "overview": "A young tradesman learns that money doesn't necessarily bring happiness. Drama.", "poster_path": "/27rKdoVGnM1DNw3ngIPUsY18lIa.jpg", "release_date": "1941-06-28", "title": "The Remarkable Mr. Kipps", "video": false, "vote_average": 6.0, "vote_count": 3, "popularity": 4.053}, {"adult": false, "backdrop_path": "/AbfXLaKxVZhmcY0pKXAeHdaL8fF.jpg", "genre_ids": [18, 10749], "id": 193321, "original_language": "en", "original_title": "The Deep Blue Sea", "overview": "A woman is unhappy in her marriage to a boring, stiff judge, so she takes up with a wild-living RAF pilot, who ends up being more than she can handle. (TCM.com)", "poster_path": "/98TFnJ8GZlbBnbCZ6v8IIcdCPsP.jpg", "release_date": "1955-11-01", "title": "The Deep Blue Sea", "video": false, "vote_average": 5.6, "vote_count": 5, "popularity": 1.187}, {"adult": false, "backdrop_path": "/vITVEBOn8ArLBLNggMQiL6qabxh.jpg", "genre_ids": [18], "id": 43822, "original_language": "en", "original_title": "The Stars Look Down", "overview": "The Stars Look Down is based on A. J. Cronin's 1935 novel of the same name, about injustices in a mining community in North East England.  While the novel follows the development of three young men in the small mining town, the film focuses on just one of them; the smart David Fenwick who gets a scholarship to university, meets a girl who only marries him because her former boyfriend has abandoned her, and eventually returns to the mine town as a teacher and takes part in a futile rescue effort when the mine is flooded, trapping both his father and his younger brother.", "poster_path": "/jkzB5Fe8CCqfm5vaucxCCMdB8pr.jpg", "release_date": "1940-01-22", "title": "The Stars Look Down", "video": false, "vote_average": 6.4, "vote_count": 7, "popularity": 2.759}, {"adult": false, "backdrop_path": null, "genre_ids": [35], "id": 166122, "original_language": "en", "original_title": "Here Comes Trouble", "overview": "A blundering rookie reporter runs into some unexpected difficulty when he is assigned to cover the police beat.", "poster_path": "/ejJdM75ZdQWqFL8HAUbfQ5p6Rzi.jpg", "release_date": "1948-03-15", "title": "Here Comes Trouble", "video": false, "vote_average": 5.2, "vote_count": 3, "popularity": 1.359}, {"id": 214559, "video": false, "vote_count": 3, "vote_average": 5.2, "title": "The Torch", "release_date": "1950-06-02", "original_language": "en", "original_title": "The Torch", "genre_ids": [28, 12, 18, 10752], "backdrop_path": "/m8Dfvh0Vk9N8RX49kOsO9ZtdZDw.jpg", "adult": false, "overview": "The story of a fear-inspiring revolutionary general who develops a passion for the daughter of a wealthy villager. It's hate at first sight so far as the girl is concerned, but this will soon change.", "poster_path": "/aT76kbrGn8n3wKqOEm4uFjq2aX6.jpg", "popularity": 2.224}, {"id": 209308, "video": false, "vote_count": 3, "vote_average": 7.0, "title": "The Divided Heart", "release_date": "1954-11-09", "original_language": "en", "original_title": "The Divided Heart", "genre_ids": [18], "backdrop_path": "/f1TpcCRrEc7iHTuIWL4ZOxgNqfg.jpg", "adult": false, "overview": "During World War II, a German woman, Inga, goes missing and is presumed dead. Her infant son is placed in an orphanage where, years later, he's adopted by a childless couple. The adoptive parents' happiness is shattered when Inga reappears and insists on custody of her son.", "poster_path": "/xtT9KFGFhmCm4kHK7Ck6emBFbI3.jpg", "popularity": 2.359}, {"adult": false, "backdrop_path": "/vVMVI6dr2iB9NyXoB4qGYJ0GHxC.jpg", "genre_ids": [80], "id": 41553, "original_language": "en", "original_title": "Time Table", "overview": "An insurance detective encounters numerous surprises when he is assigned to investigate a meticulously-planned train robbery in Arizona.", "poster_path": "/z1t1STbnyahTBqXgrDGGvebLXaa.jpg", "release_date": "1956-02-08", "title": "Time Table", "video": false, "vote_average": 5.8, "vote_count": 8, "popularity": 3.311}, {"adult": false, "backdrop_path": "/4Mb4o9PR6didcPF1OP79ytOrdEy.jpg", "genre_ids": [80, 18], "id": 46421, "original_language": "en", "original_title": "Please Murder Me", "overview": "A lawyer tries to exact justice on a woman he defended in court -- a woman whom he found out was guilty after getting her off.", "poster_path": "/bqx6ftYNQ7eftvR6Cs6ztnG7ZAW.jpg", "release_date": "1956-03-01", "title": "Please Murder Me", "video": false, "vote_average": 6.6, "vote_count": 8, "popularity": 4.719}, {"adult": false, "backdrop_path": null, "genre_ids": [35, 10749], "id": 270224, "original_language": "en", "original_title": "Love Island", "overview": "US-Navy pilot Lt. Richard Tabor crash-lands on a south Pacific isle called Love Island in English. Richard befriends the Balinese beauty Sarna. The bad and jealous Jaraka doesn't like their friendship, so he has Sarna's father Aryuna arrested on a vague charge. Jaraka tells Aryuna that he only will be released when his daughter marries him.", "poster_path": null, "release_date": "1953-03-15", "title": "Love Island", "video": false, "vote_average": 3.0, "vote_count": 3, "popularity": 1.051}, {"adult": false, "backdrop_path": "/kmjPcrQWFwvuFjbwPFeH0eGTC8p.jpg", "genre_ids": [12, 80, 878], "id": 61138, "original_language": "en", "original_title": "The Whip Hand", "overview": "A small-town reporter investigates a mysterious group holed up in a country lodge.", "poster_path": "/cJJAT6zp8i4EduwyYrKmTePXpRa.jpg", "release_date": "1951-10-01", "title": "The Whip Hand", "video": false, "vote_average": 5.9, "vote_count": 6, "popularity": 2.353}, {"adult": false, "backdrop_path": "/wRMJ4CEvH68SqAXCGo9QfSHlv5O.jpg", "genre_ids": [80, 18], "id": 217196, "original_language": "en", "original_title": "Alimony", "overview": "A promising young composer is tempted away from his devoted wife by a fortune-seeking woman who cares more for his prospects than for him.", "poster_path": "/lpwJSs5q5O3zUIustHyWPA4fGvw.jpg", "release_date": "1949-06-11", "title": "Alimony", "video": false, "vote_average": 6.0, "vote_count": 4, "popularity": 2.256}], "total_pages": 2, "total_results": 40}, "credits": {"cast": [{"cast_id": 0, "character": "Professor Immanuel Rath", "credit_id": "537fb298c3a368059b003c1c", "gender": 2, "id": 10459, "name": "Curd J\u00fcrgens", "order": 1, "profile_path": "/psFeEFYhy1tUn9y4vLxF9eSKMK9.jpg"}, {"cast_id": 1, "character": "Lola-Lola", "credit_id": "537fb2afc3a36805a4003af1", "gender": 1, "id": 78181, "name": "May Britt", "order": 2, "profile_path": "/nDRijLj3po5vcDJJd1IDIPRqkGH.jpg"}, {"cast_id": 2, "character": "Klepert", "credit_id": "537fb2c2c3a36805a80039d5", "gender": 2, "id": 6609, "name": "Theodore Bikel", "order": 3, "profile_path": "/haW3rcL6VM0EtwF7kZFSLgWfdys.jpg"}, {"cast_id": 3, "character": "Principal Harter", "credit_id": "537fb2dcc3a3681a02000597", "gender": 2, "id": 50764, "name": "John Banner", "order": 4, "profile_path": "/obSl3NYEYu1vc7ysce1ApqGe4M3.jpg"}, {"cast_id": 9, "character": "Dr. Fritz Heine", "credit_id": "5524c3159251417be2009ab5", "gender": 2, "id": 31209, "name": "Ludwig St\u00f6ssel", "order": 5, "profile_path": "/7qFEZlL8vkrm4E3aJZy1rVWVK9m.jpg"}, {"cast_id": 10, "character": "Rolf", "credit_id": "5524c3369251417248000c01", "gender": 0, "id": 178402, "name": "Fabrizio Mioni", "order": 6, "profile_path": "/iyYru8ls0Hw8AgpH8LDC3KUbPgd.jpg"}, {"cast_id": 11, "character": "Rath's maid", "credit_id": "5524c356c3a3687df80008e0", "gender": 0, "id": 95053, "name": "Edit Angold", "order": 7, "profile_path": null}, {"cast_id": 12, "character": "Drunk Nightclub Patron with Pineapple", "credit_id": "5524c36e92514166c1004673", "gender": 2, "id": 101232, "name": "Gene Roth", "order": 8, "profile_path": "/8rH6ysyAEvkjDmjxdNNF4vora00.jpg"}, {"cast_id": 13, "character": "Showgirl", "credit_id": "5524c37b9251417248000c0b", "gender": 1, "id": 7631, "name": "Stella Stevens", "order": 9, "profile_path": "/hsNwoHrAe6ZWaBl4f62YiP2iJqo.jpg"}, {"cast_id": 14, "character": "Showgirl", "credit_id": "5524c38792514166c1004676", "gender": 1, "id": 15950, "name": "BarBara Luna", "order": 10, "profile_path": "/draNixN33Zqsqab6ZxMpshqM2eD.jpg"}, {"cast_id": 15, "character": "Specialty Dancer", "credit_id": "597b6884c3a3686007006edb", "gender": 1, "id": 1859762, "name": "Winona Smith", "order": 11, "profile_path": null}], "crew": [{"credit_id": "5a32f698925141547e01d6af", "department": "Writing", "gender": 2, "id": 2892, "job": "Novel", "name": "Heinrich Mann", "profile_path": null}, {"credit_id": "537fb374c3a3681a0200059e", "department": "Camera", "gender": 2, "id": 13270, "job": "Director of Photography", "name": "Leon Shamroy", "profile_path": "/gyUisg4ciVyXPy0tCMyt5XOqewF.jpg"}, {"credit_id": "537fb359c3a368059e003cab", "department": "Sound", "gender": 2, "id": 13571, "job": "Music", "name": "Hugo Friedhofer", "profile_path": null}, {"credit_id": "537fb33fc3a368059b003c23", "department": "Production", "gender": 2, "id": 21507, "job": "Producer", "name": "Jack Cummings", "profile_path": "/IH75VPhlYFfQr0CzSbVkZjuBIB.jpg"}, {"credit_id": "537fb314c3a368059b003c20", "department": "Directing", "gender": 2, "id": 64114, "job": "Director", "name": "Edward Dmytryk", "profile_path": "/rEW1tLWUsWpSikOoY3WIzeEhVN9.jpg"}, {"credit_id": "537fb327c3a3680598003bf5", "department": "Writing", "gender": 2, "id": 137973, "job": "Writer", "name": "Nigel Balchin", "profile_path": "/wer8Aj7cIyqhN0dbA0FvhGGvKcV.jpg"}, {"credit_id": "5c2776040e0a26790d3505fb", "department": "Crew", "gender": 2, "id": 142625, "job": "Choreographer", "name": "Hermes Pan", "profile_path": "/vzMhrCLaKC7LycGeGS64fDaOM4j.jpg"}]}}