{"adult": false, "backdrop_path": "/hH5ACDDz7Is0xgIMjvXsDsznA9q.jpg", "belongs_to_collection": null, "budget": 0, "genres": [{"id": 27, "name": "Horror"}], "homepage": null, "id": 27267, "imdb_id": "tt0404031", "original_language": "en", "original_title": "Evil Eyes", "overview": "A screenwriter is plagued by nightmares as he writes a script about a family that was slaughtered years before. Soon, the grisly murders he's writing about starts to actually happen.", "popularity": 4.831, "poster_path": "/cKIcsHKYFjZJHww2AJF6jL57Lpe.jpg", "production_companies": [{"id": 1311, "logo_path": "/ic2bTizdzRLDVzAvN7MXdUg3WQV.png", "name": "The Asylum", "origin_country": "US"}, {"id": 3990, "logo_path": null, "name": "Anthill Productions", "origin_country": "US"}], "production_countries": [{"iso_3166_1": "US", "name": "United States of America"}], "release_date": "2004-08-04", "revenue": 0, "runtime": 80, "spoken_languages": [{"iso_639_1": "en", "name": "English"}], "status": "Released", "tagline": "It's watching you", "title": "Evil Eyes", "video": false, "vote_average": 3.0, "vote_count": 8, "keywords": {"keywords": [{"id": 888, "name": "screenwriter"}, {"id": 5914, "name": "writer's block"}, {"id": 10170, "name": "premonition"}]}, "similar": {"page": 1, "results": [{"id": 10014, "video": false, "vote_count": 873, "vote_average": 5.8, "title": "A Nightmare on Elm Street Part 2: Freddy's Revenge", "release_date": "1985-10-31", "original_language": "en", "original_title": "A Nightmare on Elm Street Part 2: Freddy's Revenge", "genre_ids": [27], "backdrop_path": "/tJTrNDt1242xe4zlatlZfDMvWjg.jpg", "adult": false, "overview": "A new family moves into the house on Elm Street, and before long, the kids are again having nightmares about deceased child murderer Freddy Krueger. This time, Freddy attempts to possess a teenage boy to cause havoc in the real world, and can only be overcome if the boy's sweetheart can master her fear.", "poster_path": "/seEMZxo6bhHWbWPNcBQfsMAk39F.jpg", "popularity": 19.738}, {"id": 19912, "video": false, "vote_count": 1802, "vote_average": 5.6, "title": "The Final Destination", "release_date": "2009-08-26", "original_language": "en", "original_title": "The Final Destination", "genre_ids": [27, 9648], "backdrop_path": "/166hLHfpVEvXpMQWqvFiqzUgZ6W.jpg", "adult": false, "overview": "After a young man's premonition of a deadly race-car crash helps saves the lives of his peers, Death sets out to collect those who evaded their end.", "poster_path": "/5vxXrr1MqGsT4NNeRITpfDnl4Rq.jpg", "popularity": 21.559}, {"id": 9358, "video": false, "vote_count": 2235, "vote_average": 6.1, "title": "Final Destination 2", "release_date": "2003-01-31", "original_language": "en", "original_title": "Final Destination 2", "genre_ids": [27, 9648], "backdrop_path": "/59xu0cANg5kIv0wqOIIr0990iBC.jpg", "adult": false, "overview": "When Kimberly has a violent premonition of a highway pileup she blocks the freeway, keeping a few others meant to die, safe...Or are they? The survivors mysteriously start dying and it's up to Kimberly to stop it before she's next.", "poster_path": "/2Tj8YJJuahzwUbdYDgydYX4Yj4Y.jpg", "popularity": 14.463}, {"adult": false, "backdrop_path": "/r8pjTYuz3fDOFAhHNrhrsrh9lNa.jpg", "genre_ids": [18], "id": 294016, "original_language": "en", "original_title": "Trumbo", "overview": "The career of screenwriter Dalton Trumbo is halted by a witch hunt in the late 1940s when he defies the anti-communist HUAC committee and is blacklisted.", "poster_path": "/zShoKppVxFtRP8pIVeVQ4j2DEkz.jpg", "release_date": "2015-10-27", "title": "Trumbo", "video": false, "vote_average": 7.2, "vote_count": 971, "popularity": 9.737}, {"id": 824, "video": false, "vote_count": 2858, "vote_average": 7.6, "title": "Moulin Rouge!", "release_date": "2001-03-09", "original_language": "en", "original_title": "Moulin Rouge!", "genre_ids": [18, 10749], "backdrop_path": "/ibXhTCxthtwhMj84XJq8W4KtQDt.jpg", "adult": false, "overview": "A celebration of love and creative inspiration takes place in the infamous, gaudy and glamorous Parisian nightclub, at the cusp of the 20th century. A young poet, who is plunged into the heady world of Moulin Rouge, begins a passionate affair with the club's most notorious and beautiful star.", "poster_path": "/xhuQz2yKPlWvMvvnf2u9RVkAQx6.jpg", "popularity": 19.418}, {"id": 59436, "video": false, "vote_count": 4448, "vote_average": 7.5, "title": "Midnight in Paris", "release_date": "2011-05-11", "original_language": "en", "original_title": "Midnight in Paris", "genre_ids": [35, 14, 10749], "backdrop_path": "/7sIDEHnw51k7Him2fEtA70I1OBw.jpg", "adult": false, "overview": "A romantic comedy about a family traveling to the French capital for business. The party includes a young engaged couple forced to confront the illusion that a life different from their own is better.", "poster_path": "/xxSopLYATHXSepXcEaBh9Gazv6p.jpg", "popularity": 19.832}, {"id": 55779, "video": false, "vote_count": 1888, "vote_average": 6.0, "title": "Final Destination 5", "release_date": "2011-08-12", "original_language": "en", "original_title": "Final Destination 5", "genre_ids": [27, 9648], "backdrop_path": "/3ngwmwSSSymtg7XXw2rgjnML2yT.jpg", "adult": false, "overview": "In this fifth installment, Death is just as omnipresent as ever, and is unleashed after one man\u2019s premonition saves a group of coworkers from a terrifying suspension bridge collapse. But this group of unsuspecting souls was never supposed to survive, and, in a terrifying race against time, the ill-fated group frantically tries to discover a way to escape Death\u2019s sinister agenda.", "poster_path": "/m4xhyjrybUGGY2p6bjrF4AO5Osl.jpg", "popularity": 14.02}, {"id": 11336, "video": false, "vote_count": 695, "vote_average": 7.1, "title": "The Dead Zone", "release_date": "1983-10-21", "original_language": "en", "original_title": "The Dead Zone", "genre_ids": [27, 878, 53], "backdrop_path": "/7LRuImFC4NKxutT3yvdqxinEXjo.jpg", "adult": false, "overview": "Johnny Smith is a schoolteacher with his whole life ahead of him but, after leaving his fiancee's home one night, is involved in a car crash which leaves him in a coma for 5 years. When he wakes, he discovers he has an ability to see into the past, present and future life of anyone with whom he comes into physical contact.", "poster_path": "/bKpc5xO3o3DHDqaUJWMoVxgpJRM.jpg", "popularity": 9.348}, {"id": 599, "video": false, "vote_count": 1215, "vote_average": 8.4, "title": "Sunset Boulevard", "release_date": "1950-08-10", "original_language": "en", "original_title": "Sunset Boulevard", "genre_ids": [18], "backdrop_path": "/u44VbUuoP6OZYEBv2DRd7ShPTMp.jpg", "adult": false, "overview": "A hack screenwriter writes a screenplay for a former silent film star who has faded into Hollywood obscurity.", "poster_path": "/oFwzvRgfxJc0FUr2mwYTi10dk3G.jpg", "popularity": 13.003}, {"id": 2637, "video": false, "vote_count": 604, "vote_average": 6.1, "title": "The Mothman Prophecies", "release_date": "2002-01-25", "original_language": "en", "original_title": "The Mothman Prophecies", "genre_ids": [18, 27, 9648], "backdrop_path": "/1m5i8hzRYVuKW4MLtXjZDrj6ZAr.jpg", "adult": false, "overview": "Reporter John Klein is plunged into a world of impossible terror and unthinkable chaos when fate draws him to a sleepy West Virginia town whose residents are being visited by a great winged shape that sows hideous nightmares and fevered visions.", "poster_path": "/746O4Rn8TKRp2UZoenD4dgwmKMj.jpg", "popularity": 12.815}, {"adult": false, "backdrop_path": "/2gJDuPxrZBns5ab47HQbyU2l6Im.jpg", "genre_ids": [18, 10749], "id": 451, "original_language": "en", "original_title": "Leaving Las Vegas", "overview": "Ben Sanderson, an alcoholic Hollywood screenwriter who lost everything because of his drinking, arrives in Las Vegas to drink himself to death. There, he meets and forms an uneasy friendship and non-interference pact with prostitute Sera.", "poster_path": "/37qHRJxnSh5YkuaN9FgfNnMl3Tj.jpg", "release_date": "1995-10-27", "title": "Leaving Las Vegas", "video": false, "vote_average": 7.2, "vote_count": 676, "popularity": 13.746}, {"id": 86838, "video": false, "vote_count": 2334, "vote_average": 6.8, "title": "Seven Psychopaths", "release_date": "2012-09-07", "original_language": "en", "original_title": "Seven Psychopaths", "genre_ids": [35, 80], "backdrop_path": "/4H6vE7fvB0gvaaSRJyguUu67FvF.jpg", "adult": false, "overview": "A struggling screenwriter inadvertently becomes entangled in the Los Angeles criminal underworld after his oddball friends kidnap a gangster's beloved Shih Tzu.", "poster_path": "/3Zs6Ne6QAEOzQRz85VToH8ml6ab.jpg", "popularity": 13.468}, {"id": 2046, "video": false, "vote_count": 612, "vote_average": 6.5, "title": "The Gift", "release_date": "2000-12-22", "original_language": "en", "original_title": "The Gift", "genre_ids": [18, 27, 9648, 53], "backdrop_path": "/17DPnjwKCVZKWwHAtGUt6XeO1MB.jpg", "adult": false, "overview": "When a local woman disappears and the police can't seem to find any leads, her father turns to a poor young woman with psychic powers. Slowly she starts having visions of the woman chained and in a pond. Her visions lead to the body and the arrest of an abusive husband, but did he really do it?", "poster_path": "/mC66QbJk1PbUrVMu3kh14adLpQl.jpg", "popularity": 17.1}, {"adult": false, "backdrop_path": "/dDxwX9quYcQRaLb8Q5g3owrok9e.jpg", "genre_ids": [35, 10749], "id": 277547, "original_language": "en", "original_title": "Playing It Cool", "overview": "The story of a young man disillusioned by love who meets a breathtaking young woman at a charity dinner by pretending to be a philanthropist. Turns out that she\u2019s engaged to a guy who doesn\u2019t like her going on dates. Challenged by the chase, and egged on by his eclectic friends, he feigns a platonic relationship in order to keep seeing her as he tries to conquer her heart", "poster_path": "/mBzSxaPOcq8XwXq4qkkyy8Ev9Go.jpg", "release_date": "2014-09-26", "title": "Playing It Cool", "video": false, "vote_average": 5.9, "vote_count": 464, "popularity": 19.604}, {"id": 931, "video": false, "vote_count": 408, "vote_average": 7.0, "title": "Don't Look Now", "release_date": "1973-12-03", "original_language": "en", "original_title": "Don't Look Now", "genre_ids": [18, 27, 53], "backdrop_path": "/r8mKZ6RWpRR4uDPqc9HM7lR4A2m.jpg", "adult": false, "overview": "Laura and John, grieved by a terrible loss, meet in Venice, where John is in charge of the restoration of a church, two mysterious sisters, one of whom gives them a message sent from the afterlife.", "poster_path": "/mK1SxllUiyAjtugZg3M64e2CTu3.jpg", "popularity": 9.973}, {"id": 269795, "video": false, "vote_count": 923, "vote_average": 5.8, "title": "2:22", "release_date": "2017-06-29", "original_language": "en", "original_title": "2:22", "genre_ids": [18, 9648, 878, 53, 10749], "backdrop_path": "/3zVBKPprJ9PeFBQbpT9uDiHGm61.jpg", "adult": false, "overview": "A man's life is derailed when an ominous pattern of events repeats itself in exactly the same manner every day, ending at precisely 2:22 p.m.", "poster_path": "/aQkXOiMi7yBR3XwDbGBzDI2Tqnq.jpg", "popularity": 18.638}, {"id": 2309, "video": false, "vote_count": 1336, "vote_average": 6.2, "title": "Inkheart", "release_date": "2008-12-11", "original_language": "en", "original_title": "Inkheart", "genre_ids": [12, 14, 10751], "backdrop_path": "/8oD8m3W9BRU1lPNMTMXCYEZRueP.jpg", "adult": false, "overview": "The adventures of a father and his young daughter, in their search for a long lost book that will help reunite a missing, close relative.", "poster_path": "/3yIVMwPDrWLeZ8fJ5HLbGWnCz9f.jpg", "popularity": 16.665}, {"id": 290, "video": false, "vote_count": 885, "vote_average": 7.5, "title": "Barton Fink", "release_date": "1991-08-01", "original_language": "en", "original_title": "Barton Fink", "genre_ids": [35, 18], "backdrop_path": "/kptmPB0rwfLqf1yQPCWewCoyiiq.jpg", "adult": false, "overview": "A renowned New York playwright is enticed to California to write for the movies and discovers the hellish truth of Hollywood.", "poster_path": "/846d8FclibtOIoUW7PxpT0nCG4C.jpg", "popularity": 12.58}, {"adult": false, "backdrop_path": "/c0m38SivpqtLGefmf8CDZlvOBti.jpg", "genre_ids": [35, 80, 18], "id": 2757, "original_language": "en", "original_title": "Adaptation.", "overview": "A love-lorn script writer grows increasingly desperate in his quest to adapt the book 'The Orchid Thief'.", "poster_path": "/5trb1V5f3IsjpZx2GiuUylowl3W.jpg", "release_date": "2002-12-06", "title": "Adaptation.", "video": false, "vote_average": 7.4, "vote_count": 1315, "popularity": 11.321}, {"adult": false, "backdrop_path": "/8KToZKp0ptiLpdT6ChJlsiJTIPg.jpg", "genre_ids": [9648, 53], "id": 17057, "original_language": "en", "original_title": "In a Lonely Place", "overview": "An aspiring actress begins to suspect that her temperamental boyfriend is a murderer.", "poster_path": "/mR72XsO7EQu3uH8TeqPxMd9V8mW.jpg", "release_date": "1950-05-17", "title": "In a Lonely Place", "video": false, "vote_average": 7.7, "vote_count": 224, "popularity": 10.909}], "total_pages": 5, "total_results": 84}, "recommendations": {"page": 1, "results": [], "total_pages": 1, "total_results": 0}, "credits": {"cast": [{"cast_id": 1, "character": "Jeff Stenn", "credit_id": "52fe4538c3a368484e04ecb1", "gender": 2, "id": 2059, "name": "Adam Baldwin", "order": 0, "profile_path": "/vhZ8AD36h09mBLuyIXboglRLgIu.jpg"}, {"cast_id": 2, "character": "George", "credit_id": "52fe4538c3a368484e04ecb5", "gender": 2, "id": 1646, "name": "Udo Kier", "order": 1, "profile_path": "/oWlpxMncanN9MmO8etmU3LldKt3.jpg"}, {"cast_id": 3, "character": "Tree Stenn", "credit_id": "549d264bc3a3682f230055e7", "gender": 0, "id": 1404151, "name": "Jennifer Gates", "order": 2, "profile_path": null}, {"cast_id": 10, "character": "Peter", "credit_id": "5e08fe6126dac1001274af59", "gender": 2, "id": 53516, "name": "Mark Sheppard", "order": 3, "profile_path": "/xtbD7ZOkyhBd16al9iKRWLvGZEz.jpg"}, {"cast_id": 11, "character": "Nina", "credit_id": "5e08fe82a1c59d001baa767d", "gender": 0, "id": 1191958, "name": "Kristin Lorenz", "order": 4, "profile_path": null}], "crew": [{"credit_id": "549d266ac3a368764f001117", "department": "Directing", "gender": 2, "id": 81297, "job": "Director", "name": "Mark Atkins", "profile_path": "/nlZHOcD2nzLLWBigmQncLWfy0AG.jpg"}, {"credit_id": "549d2692c3a3682f1e00546a", "department": "Camera", "gender": 2, "id": 81297, "job": "Director of Photography", "name": "Mark Atkins", "profile_path": "/nlZHOcD2nzLLWBigmQncLWfy0AG.jpg"}, {"credit_id": "549d26759251414d27000da7", "department": "Writing", "gender": 1, "id": 146005, "job": "Writer", "name": "Naomi L. Selfman", "profile_path": null}, {"credit_id": "549d26a79251413132005344", "department": "Editing", "gender": 2, "id": 1326560, "job": "Editor", "name": "Dustin Voigt", "profile_path": null}, {"credit_id": "549d2687c3a3682f16005466", "department": "Sound", "gender": 0, "id": 1404152, "job": "Music", "name": "Eric Carter", "profile_path": null}, {"credit_id": "549d269ec3a3682f230055f5", "department": "Editing", "gender": 0, "id": 1404153, "job": "Editor", "name": "J.D. Ligier", "profile_path": null}]}}