{"adult": false, "backdrop_path": null, "belongs_to_collection": null, "budget": 0, "genres": [{"id": 18, "name": "Drama"}, {"id": 27, "name": "Horror"}], "homepage": null, "id": 273204, "imdb_id": "tt0206227", "original_language": "fr", "original_title": "Le puits et le pendule", "overview": "A haunting short version of Edgar Allan Poe's famous story about a cruel and unusual punishment inflicted on a victim of the Spanish Inquisition...", "popularity": 0.786, "poster_path": "/bPSy2XWkHAJSt7cbLYokv7YaFQv.jpg", "production_companies": [{"id": 24119, "logo_path": "/iNcPopycyTGDgWy6dDl5cnlfS3n.png", "name": "Radio-T\u00e9l\u00e9vision Fran\u00e7aise", "origin_country": "FR"}], "production_countries": [{"iso_3166_1": "FR", "name": "France"}], "release_date": "1964-01-09", "revenue": 0, "runtime": 37, "spoken_languages": [{"iso_639_1": "fr", "name": "Fran\u00e7ais"}], "status": "Released", "tagline": "", "title": "The Pit and the Pendulum", "video": false, "vote_average": 6.3, "vote_count": 3, "keywords": {"keywords": [{"id": 344, "name": "inquisition"}, {"id": 1563, "name": "prisoner"}, {"id": 10772, "name": "torture chamber"}]}, "similar": {"page": 1, "results": [{"adult": false, "backdrop_path": "/9lrM0o89ASyHmDgMLfCbU5qdsAm.jpg", "genre_ids": [35, 18], "id": 9291, "original_language": "en", "original_title": "The Longest Yard", "overview": "Pro quarter-back, Paul Crewe and former college champion and coach, Nate Scarboro are doing time in the same prison. Asked to put together a team of inmates to take on the guards, Crewe enlists the help of Scarboro to coach the inmates to victory in a football game 'fixed' to turn out quite another way.", "poster_path": "/ag6q9euZABqbHtbDhoRT9xEYltP.jpg", "release_date": "2005-05-27", "title": "The Longest Yard", "video": false, "vote_average": 6.4, "vote_count": 1766, "popularity": 16.3}, {"id": 10447, "video": false, "vote_count": 195, "vote_average": 6.1, "title": "No Escape", "release_date": "1994-04-29", "original_language": "en", "original_title": "No Escape", "genre_ids": [28, 18, 878, 53], "backdrop_path": "/nUjmO5MP8ATkLF8Pmhlg6l7a8im.jpg", "adult": false, "overview": "In the year 2022, a ruthless prison warden has created the ultimate solution for his most troublesome and violent inmates: Absolom, a secret jungle island where prisoners are abandoned and left to die. But Marine Captain John Robbins, convicted of murdering a commanding officer, is determined to escape the island in order to reveal the truth behind his murderous actions and clear his name.", "poster_path": "/d2Q8jXe4dW4YKlemRb7oVlY6Msj.jpg", "popularity": 12.484}, {"id": 8438, "video": false, "vote_count": 272, "vote_average": 7.1, "title": "Murder in the First", "release_date": "1995-01-20", "original_language": "en", "original_title": "Murder in the First", "genre_ids": [80, 18], "backdrop_path": "/uX0PJMkCI5rN2cWbIGsfjlomBuT.jpg", "adult": false, "overview": "Inspired by a true story. A petty criminal sent to Alcatraz in the 1930s is caught attempting to make an escape. As punishment he is put in solitary confinement. The maximum stay is supposed to be 19 days, but Henri spends years alone, cold and in complete darkness, only to emerge a madman and soon to be a murderer. The story follows a rookie lawyer attempting to prove that Alcatraz was to blame.", "poster_path": "/jPbBDALAjTQFzCl21ZKmhjSjEmD.jpg", "popularity": 11.143}, {"id": 10360, "video": false, "vote_count": 623, "vote_average": 7.3, "title": "Hunger", "release_date": "2008-05-15", "original_language": "en", "original_title": "Hunger", "genre_ids": [18, 36], "backdrop_path": "/viln9CzkYWLf6wjtuNlRgSfyCgG.jpg", "adult": false, "overview": "The story of Bobby Sands, the IRA member who led the 1981 hunger strike in which Republican prisoners tried to win political status. It dramatises events in the Maze prison in the six weeks prior to Sands\u2019 death.", "poster_path": "/397BUdT1bIt9tICgq7wSbF05Dsy.jpg", "popularity": 10.966}, {"id": 107846, "video": false, "vote_count": 3131, "vote_average": 6.7, "title": "Escape Plan", "release_date": "2013-10-09", "original_language": "en", "original_title": "Escape Plan", "genre_ids": [28, 53], "backdrop_path": "/lDmAQexExnvfKAG8fvx04ro6Ly4.jpg", "adult": false, "overview": "Ray Breslin is the world's foremost authority on structural security. After analyzing every high security prison and learning a vast array of survival skills so he can design escape-proof prisons, his skills are put to the test. He's framed and incarcerated in a master prison he designed himself. He needs to escape and find the person who put him behind bars.", "poster_path": "/j3XZwBeWgoAbVmkW3JyOme79I2e.jpg", "popularity": 19.433}, {"id": 448776, "video": false, "vote_count": 220, "vote_average": 6.8, "title": "A Prayer Before Dawn", "release_date": "2018-05-24", "original_language": "en", "original_title": "A Prayer Before Dawn", "genre_ids": [28, 80, 18], "backdrop_path": "/tyaVwOLIpAzZFP0qmXm2VZhYkxZ.jpg", "adult": false, "overview": "The true story of Billy Moore, an English boxer incarcerated in Thailand's most notorious prison. Thrown into a world of drugs and violence, he finds his best chance to escape is to fight his way out in Muay Thai tournaments.", "poster_path": "/73KrcLh1DpnBP3HwGpqoUUwKWF4.jpg", "popularity": 13.265}, {"adult": false, "backdrop_path": "/oT79THuFrcBzrhlf4fiCddwZBCQ.jpg", "genre_ids": [18, 10402, 10749], "id": 69, "original_language": "en", "original_title": "Walk the Line", "overview": "A chronicle of country music legend Johnny Cash's life, from his early days on an Arkansas cotton farm to his rise to fame with Sun Records in Memphis, where he recorded alongside Elvis Presley, Jerry Lee Lewis and Carl Perkins.", "poster_path": "/wdxL3Zyh3O5MIbmsSiZEevJAjtQ.jpg", "release_date": "2005-09-13", "title": "Walk the Line", "video": false, "vote_average": 7.5, "vote_count": 1545, "popularity": 15.437}, {"id": 10734, "video": false, "vote_count": 1344, "vote_average": 7.5, "title": "Escape from Alcatraz", "release_date": "1979-06-22", "original_language": "en", "original_title": "Escape from Alcatraz", "genre_ids": [80, 18], "backdrop_path": "/doJGjcWPpuGuDPJwCpCNnYUG9x4.jpg", "adult": false, "overview": "Escape from Alcatraz tells the story of the only three men ever to escape from the infamous maximum security prison at Alcatraz. In 29 years, the seemingly impenetrable federal penitentiary, which housed Al Capone and \"Birdman\" Robert Stroud, was only broken once - by three men never heard of again.", "poster_path": "/lBAxIEywz3KfzXimn9qHBArLHU8.jpg", "popularity": 32.525}, {"id": 5924, "video": false, "vote_count": 947, "vote_average": 8.0, "title": "Papillon", "release_date": "1973-12-13", "original_language": "en", "original_title": "Papillon", "genre_ids": [80, 18], "backdrop_path": "/w6XYdZIXZlMNL2efDXdXI6q4lhm.jpg", "adult": false, "overview": "A man befriends a fellow criminal as the two of them begin serving their sentence on a dreadful prison island, which inspires the man to plot his escape.", "poster_path": "/cPKfxaWXNkVkHLSV2nb06RfvrSM.jpg", "popularity": 12.566}, {"adult": false, "backdrop_path": "/nb70B4EXuoegiQ0C5N1fNVHIaYc.jpg", "genre_ids": [12, 18, 36, 53, 10752], "id": 5925, "original_language": "en", "original_title": "The Great Escape", "overview": "The Nazis, exasperated at the number of escapes from their prison camps by a relatively small number of Allied prisoners, relocates them to a high-security 'escape-proof' camp to sit out the remainder of the war. Undaunted, the prisoners plan one of the most ambitious escape attempts of World War II. Based on a true story.", "poster_path": "/qhy4HgUqhEbwQ1ekKTv7yEB3b0e.jpg", "release_date": "1963-06-20", "title": "The Great Escape", "video": false, "vote_average": 8.0, "vote_count": 1359, "popularity": 19.093}, {"id": 278, "video": false, "vote_count": 14752, "vote_average": 8.7, "title": "The Shawshank Redemption", "release_date": "1994-09-23", "original_language": "en", "original_title": "The Shawshank Redemption", "genre_ids": [80, 18], "backdrop_path": "/j9XKiZrVeViAixVRzCta7h1VU9W.jpg", "adult": false, "overview": "Framed in the 1940s for the double murder of his wife and her lover, upstanding banker Andy Dufresne begins a new life at the Shawshank prison, where he puts his accounting skills to work for an amoral warden. During his long stretch in prison, Dufresne comes to be admired by the other inmates -- including an older prisoner named Red -- for his integrity and unquenchable sense of hope.", "poster_path": "/9O7gLzmreU0nGkIB6K3BsJbzvNv.jpg", "popularity": 42.206}, {"id": 8077, "video": false, "vote_count": 3112, "vote_average": 6.3, "title": "Alien\u00b3", "release_date": "1992-05-22", "original_language": "en", "original_title": "Alien\u00b3", "genre_ids": [28, 27, 878], "backdrop_path": "/nDPuIjpJyGDOnNEby5ZgkRBxymS.jpg", "adult": false, "overview": "After escaping with Newt and Hicks from the alien planet, Ripley crash lands on Fiorina 161, a prison planet and host to a correctional facility. Unfortunately, although Newt and Hicks do not survive the crash, a more unwelcome visitor does. The prison does not allow weapons of any kind, and with aid being a long time away, the prisoners must simply survive in any way they can.", "poster_path": "/p7mUd9GpmCYV5qhkKGmiEerFK3i.jpg", "popularity": 25.873}, {"id": 73, "video": false, "vote_count": 6718, "vote_average": 8.4, "title": "American History X", "release_date": "1998-10-30", "original_language": "en", "original_title": "American History X", "genre_ids": [18], "backdrop_path": "/i9A0UMFg1hI2kLyCCwnmSbpT2cd.jpg", "adult": false, "overview": "Derek Vineyard is paroled after serving 3 years in prison for killing two thugs who tried to break into/steal his truck. Through his brother, Danny Vineyard's narration, we learn that before going to prison, Derek was a skinhead and the leader of a violent white supremacist gang that committed acts of racial crime throughout L.A. and his actions greatly influenced Danny. Reformed and fresh out of prison, Derek severs contact with the gang and becomes determined to keep Danny from going down the same violent path as he did.", "poster_path": "/fXepRAYOx1qC3wju7XdDGx60775.jpg", "popularity": 25.921}, {"id": 339692, "video": false, "vote_count": 1166, "vote_average": 6.9, "title": "Shot Caller", "release_date": "2017-07-13", "original_language": "en", "original_title": "Shot Caller", "genre_ids": [80, 18, 53], "backdrop_path": "/hehboYLXB3m90x9ybiBsupwuifL.jpg", "adult": false, "overview": "A newly-released prison gangster is forced by the leaders of his gang to orchestrate a major crime with a brutal rival gang on the streets of Southern California.", "poster_path": "/qLmLz2wtyYvmW8Ult3l2ngOnW8v.jpg", "popularity": 22.37}, {"adult": false, "backdrop_path": "/sw7mordbZxgITU877yTpZCud90M.jpg", "genre_ids": [18, 80], "id": 769, "original_language": "en", "original_title": "GoodFellas", "overview": "The true story of Henry Hill, a half-Irish, half-Sicilian Brooklyn kid who is adopted by neighbourhood gangsters at an early age and climbs the ranks of a Mafia family under the guidance of Jimmy Conway.", "poster_path": "/pwpGfTImTGifEGgLb3s6LRPd4I6.jpg", "release_date": "1990-09-12", "title": "GoodFellas", "video": false, "vote_average": 8.4, "vote_count": 6559, "popularity": 36.135}, {"id": 466081, "video": false, "vote_count": 68, "vote_average": 6.4, "title": "The Informer", "release_date": "2019-08-30", "original_language": "en", "original_title": "The Informer", "genre_ids": [80, 18, 53], "backdrop_path": "/98sIdYdvnh68Va1JLjcyAuFGZO5.jpg", "adult": false, "overview": "In New York, former convict Pete Koslow, related to the Polish mafia, must deal with both Klimek the General, his ruthless boss, and the twisted ambitions of two federal agents, as he tries to survive and protect the lives of his loved ones\u2026", "poster_path": "/pbGveUC8mk0QRkdXpERPLbMFnrg.jpg", "popularity": 22.567}, {"adult": false, "backdrop_path": "/5UhVmv70qTfy7YSf8r87kNXWxjK.jpg", "genre_ids": [18, 53, 9648], "id": 638, "original_language": "en", "original_title": "Lost Highway", "overview": "A tormented jazz musician finds himself lost in an enigmatic story involving murder, surveillance, gangsters, doppelgangers, and an impossible transformation inside a prison cell.", "poster_path": "/z6yhgEzGUJaBBgAxoyggRzwLnVM.jpg", "release_date": "1997-01-15", "title": "Lost Highway", "video": false, "vote_average": 7.6, "vote_count": 1279, "popularity": 17.633}, {"adult": false, "backdrop_path": "/tK2ElPDTp0pM8w5BZbuaEHbzaHs.jpg", "genre_ids": [53, 28, 35, 80, 18], "id": 150, "original_language": "en", "original_title": "48 Hrs.", "overview": "A hard-nosed cop reluctantly teams up with a wise-cracking criminal temporarily paroled to him, in order to track down a killer.", "poster_path": "/rq8NvwC5tC2E8SNU1CF8iJJErNQ.jpg", "release_date": "1982-12-07", "title": "48 Hrs.", "video": false, "vote_average": 6.6, "vote_count": 735, "popularity": 13.24}, {"id": 41283, "video": false, "vote_count": 1022, "vote_average": 6.3, "title": "Faster", "release_date": "2010-11-23", "original_language": "en", "original_title": "Faster", "genre_ids": [28, 80, 18, 53], "backdrop_path": "/vg2VYTvBPQwvR6T7qrp8ZeuM0Uh.jpg", "adult": false, "overview": "After 10 years in prison, Driver is now a free man with a single focus - hunting down the people responsible for brutally murdering his brother.", "poster_path": "/xaHojTGfidOUfON6DGY14qUqATj.jpg", "popularity": 14.928}, {"id": 97630, "video": false, "vote_count": 2786, "vote_average": 6.9, "title": "Zero Dark Thirty", "release_date": "2012-12-19", "original_language": "en", "original_title": "Zero Dark Thirty", "genre_ids": [18, 36, 53], "backdrop_path": "/zy5hyStEkQyjZgYtvKzJQBr7MpJ.jpg", "adult": false, "overview": "A chronicle of the decade-long hunt for al-Qaeda terrorist leader Osama bin Laden after the September 2001 attacks, and his death at the hands of the Navy S.E.A.L. Team 6 in May, 2011.", "poster_path": "/yg6IDNucLAEj7E5loTyTnUW2pgb.jpg", "popularity": 18.903}], "total_pages": 65, "total_results": 1293}, "recommendations": {"page": 1, "results": [], "total_pages": 1, "total_results": 0}, "credits": {"cast": [{"cast_id": 5, "character": "Le condamn\u00e9 \u00e0 mort", "credit_id": "538a5023c3a3686fc9000723", "gender": 2, "id": 15395, "name": "Maurice Ronet", "order": 1, "profile_path": "/89AUkh5mjmWPDQYaWNLZdsa4cV5.jpg"}], "crew": [{"credit_id": "538a4f8ac3a3686fd10006c8", "department": "Directing", "gender": 2, "id": 543947, "job": "Director", "name": "Alexandre Astruc", "profile_path": "/1TGUEbuE7Xs2YPNIVOFtwFXy23p.jpg"}, {"credit_id": "538a4f99c3a3686fc300069d", "department": "Writing", "gender": 2, "id": 543947, "job": "Writer", "name": "Alexandre Astruc", "profile_path": "/1TGUEbuE7Xs2YPNIVOFtwFXy23p.jpg"}, {"credit_id": "538a4fafc3a3686fc60006ea", "department": "Writing", "gender": 2, "id": 48415, "job": "Writer", "name": "Edgar Allan Poe", "profile_path": "/akmuLsbMrtcVrmiiaYqDK3QNdwC.jpg"}, {"credit_id": "57d08417c3a368162e0028a8", "department": "Camera", "gender": 2, "id": 37988, "job": "Director of Photography", "name": "Nicolas Hayer", "profile_path": null}, {"credit_id": "57d08423c3a368161d00245d", "department": "Sound", "gender": 2, "id": 3529, "job": "Original Music Composer", "name": "Antoine Duhamel", "profile_path": "/hvVxYwaaU0TxUCzqh1O3X0HMT3g.jpg"}]}}