{"adult": false, "backdrop_path": "/yfaR0qGnZw0OuZFZGMw5uAsc9tx.jpg", "belongs_to_collection": null, "budget": 0, "genres": [{"id": 10751, "name": "Family"}, {"id": 16, "name": "Animation"}, {"id": 35, "name": "Comedy"}, {"id": 12, "name": "Adventure"}], "homepage": "http://store.veggietales.com/tomato-sawyer-huckleberry-larry-s-big-river-rescue-veggietales-dvd.html", "id": 273205, "imdb_id": "tt1321845", "original_language": "en", "original_title": "VeggieTales: Tomato Sawyer & Huckleberry Larry's Big River Rescue", "overview": "Huckleberry Larry wants to help his new friend, Big Jim, a huge yellow gourd on the lam. Tomato Sawyer doesn't want to get involved, which strains his friendship with Larry.", "popularity": 2.479, "poster_path": "/3akgrHDe5eJjpZpjOZglBzPf11n.jpg", "production_companies": [{"id": 15419, "logo_path": null, "name": "Big Idea Entertainment", "origin_country": ""}], "production_countries": [{"iso_3166_1": "US", "name": "United States of America"}], "release_date": "2008-03-06", "revenue": 0, "runtime": 49, "spoken_languages": [{"iso_639_1": "en", "name": "English"}], "status": "Released", "tagline": "A Lesson in Helping Others", "title": "VeggieTales: Tomato Sawyer & Huckleberry Larry's Big River Rescue", "video": true, "vote_average": 2.7, "vote_count": 3, "keywords": {"keywords": [{"id": 199356, "name": "veggietales"}]}, "similar": {"page": 1, "results": [{"adult": false, "backdrop_path": "/vTM52y1yV5MzAQjls0Wd1wAqHoj.jpg", "genre_ids": [16, 10751], "id": 273307, "original_language": "en", "original_title": "VeggieTales: Larry-Boy and the Rumor Weed", "overview": "Any rumors caught your ear lately? Junior Asparagus and Laura Carrot learn just how easily rumors get started when they accidently launch a whopper about Larry-Boy's butler, Alfred! Before they know it, their little story is spreading all over Bumblyburg like a weed! Can Larry-Boy stop the rumor before Alfred gets hurt? Can anyone stop the rumor before Larry-Boy gets hurt?!? In the end, the kids learn that God doesn't want us to tell stories that can hurt. He wants us to spread nice words! Don't miss the action in ... Larry-Boy and the Rumor Weed!", "poster_path": "/nZ8nzaWIoNTiM9VwnC7sPN3DV7O.jpg", "release_date": "1999-07-24", "title": "VeggieTales: Larry-Boy and the Rumor Weed", "video": false, "vote_average": 5.3, "vote_count": 10, "popularity": 3.16}, {"id": 275066, "video": true, "vote_count": 3, "vote_average": 8.7, "title": "VeggieTales: The League of Incredible Vegetables", "release_date": "2012-10-13", "original_language": "en", "original_title": "VeggieTales: The League of Incredible Vegetables", "genre_ids": [16, 10751], "backdrop_path": "/SVvSz0MNK1fWRrErzRVDYDa9Ns.jpg", "adult": false, "overview": "When Dr. Flurry wants to freeze the town of Bumblyburg in fear the problem's too big for LarryBoy alone. Enter The League of Incredible Vegetables!", "poster_path": "/kTkc6cgwzRPgBtYSGrDkGpo5MMM.jpg", "popularity": 0.957}, {"adult": false, "backdrop_path": "/eHOTAoB20hS5kIpcsTv4DcjLqcu.jpg", "genre_ids": [16, 10751], "id": 252669, "original_language": "en", "original_title": "VeggieTales: Merry Larry and the True Light of Christmas", "overview": "Bob and Larry are going all out to make it the best Christmas ever at the Spring Valley Mall. With music, decorations and a light show like no other, it's an all-out spectacle to outshine the competition! But a little girl with a big heart changes everything when she shows them all what Christmas is really about.", "poster_path": "/eJXnTQ1d6lgbryl0HZlwMrd1III.jpg", "release_date": "2013-10-19", "title": "VeggieTales: Merry Larry and the True Light of Christmas", "video": true, "vote_average": 0.0, "vote_count": 0, "popularity": 2.455}, {"id": 289545, "video": true, "vote_count": 3, "vote_average": 3.5, "title": "VeggieTales: The Little Drummer Boy", "release_date": "2011-10-04", "original_language": "en", "original_title": "VeggieTales: The Little Drummer Boy", "genre_ids": [16, 10751], "backdrop_path": "/7BfAHszUbsz6oGJo7PM4XPaeuSi.jpg", "adult": false, "overview": "In this Veggie-version of a holiday classic, Junior Asparagus stars as The Little Drummer Boy, a lonely child who finds the true meaning of Christmas when he stumbles upon the birth of the baby Jesus. A story of hope, love and forgiveness, this timeless tale will warm the hearts of children everywhere!", "poster_path": "/bgZX2sU4dyOxfSsTKdYAHmOqdig.jpg", "popularity": 1.564}, {"id": 326278, "video": true, "vote_count": 1, "vote_average": 8.0, "title": "VeggieTales: Noah's Ark", "release_date": "2015-02-28", "original_language": "en", "original_title": "VeggieTales: Noah's Ark", "genre_ids": [16, 10751], "backdrop_path": "/wBoZesIbCjvGvdZ6oYkeDbAHjDo.jpg", "adult": false, "overview": "Noah and his family along with a zoo full of animals take an adventure aboard an orange slice ark. After 40 days and nights of rain, everyone's faith has been tested, and they're ready to jump ship. Will they chart a new course, or will they remember to trust God's promises? Grad your umbrellas and find out in this VeggieTales re-telling of the beloved Bible story!", "poster_path": "/7XRkbJXaWE1Epq6Y0AfGCY2eR7l.jpg", "popularity": 1.779}, {"adult": false, "backdrop_path": "/nAxzngFrjsBusFwQDK1YAqzThcg.jpg", "genre_ids": [10751, 16, 12], "id": 273315, "original_language": "en", "original_title": "VeggieTales: Minnesota Cuke and the Search for Samson's Hairbrush", "overview": "Larry the Cucumber stars as Minnesota Cuke, adventurer extraordinary. Follow Cuke around the world as he searches for the legendary Hairbrush of Samson on a race to keep it from his arch nemeses, Professor Rattan!", "poster_path": "/irXQ6BnGRGlVyxuP4hsgDLjKump.jpg", "release_date": "2005-06-25", "title": "VeggieTales: Minnesota Cuke and the Search for Samson's Hairbrush", "video": true, "vote_average": 4.0, "vote_count": 11, "popularity": 2.211}, {"id": 16366, "video": false, "vote_count": 496, "vote_average": 6.4, "title": "Joseph: King of Dreams", "release_date": "2000-11-07", "original_language": "en", "original_title": "Joseph: King of Dreams", "genre_ids": [16, 10402, 10751], "backdrop_path": "/p5WF1vmFwTrdNlx6Z7mt5ksnG7W.jpg", "adult": false, "overview": "In this animated retelling of the story from the Bible's Book of Genesis, Joseph's gift of dream interpretation and his brilliantly colored coat inspires jealousy in his brothers.", "poster_path": "/dsL5nngGY8qTmXxtAamMUYVQDY3.jpg", "popularity": 18.451}, {"id": 260513, "video": false, "vote_count": 7538, "vote_average": 7.5, "title": "Incredibles 2", "release_date": "2018-06-14", "original_language": "en", "original_title": "Incredibles 2", "genre_ids": [28, 12, 16, 10751], "backdrop_path": "/mabuNsGJgRuCTuGqjFkWe1xdu19.jpg", "adult": false, "overview": "Elastigirl springs into action to save the day, while Mr. Incredible faces his greatest challenge yet \u2013 taking care of the problems of his three children.", "poster_path": "/9lFKBtaVIhP7E2Pk0IY1CwTKTMZ.jpg", "popularity": 44.731}, {"id": 686, "video": false, "vote_count": 2422, "vote_average": 7.3, "title": "Contact", "release_date": "1997-07-11", "original_language": "en", "original_title": "Contact", "genre_ids": [18, 9648, 878], "backdrop_path": "/dBK75oCKuHVuJ9rSUnusIFbhocH.jpg", "adult": false, "overview": "Contact is a science fiction film about an encounter with alien intelligence. Based on the novel by Carl Sagan the film starred Jodie Foster as the one chosen scientist who must make some difficult decisions between her beliefs, the truth, and reality.", "poster_path": "/bCpMIywuNZeWt3i5UMLEIc0VSwM.jpg", "popularity": 21.581}, {"id": 310, "video": false, "vote_count": 6935, "vote_average": 6.6, "title": "Bruce Almighty", "release_date": "2003-05-23", "original_language": "en", "original_title": "Bruce Almighty", "genre_ids": [35, 14], "backdrop_path": "/bhEudqWbWsiEBdnl0kCIwFp5Hay.jpg", "adult": false, "overview": "Bruce Nolan toils as a 'human interest' television reporter in Buffalo, N.Y., but despite his high ratings and the love of his beautiful girlfriend, Bruce remains unfulfilled. At the end of the worst day in his life, he angrily ridicules God\u2014and the Almighty responds, endowing Bruce with all of His divine powers.", "poster_path": "/lgYKHifMMLT8OxYObMKa8b4STsr.jpg", "popularity": 33.956}, {"id": 591, "video": false, "vote_count": 5720, "vote_average": 6.7, "title": "The Da Vinci Code", "release_date": "2006-05-17", "original_language": "en", "original_title": "The Da Vinci Code", "genre_ids": [9648, 53], "backdrop_path": "/hcAMO4LF6G2hvsTpNgmY1kFj3jJ.jpg", "adult": false, "overview": "A murder in Paris\u2019 Louvre Museum and cryptic clues in some of Leonardo da Vinci\u2019s most famous paintings lead to the discovery of a religious mystery. For 2,000 years a secret society closely guards information that \u2014 should it come to light \u2014 could rock the very foundations of Christianity.", "poster_path": "/5IqaT3fza0Y9vKazjGwDGsNuuS8.jpg", "popularity": 28.373}, {"id": 615, "video": false, "vote_count": 1934, "vote_average": 7.1, "title": "The Passion of the Christ", "release_date": "2004-02-25", "original_language": "en", "original_title": "The Passion of the Christ", "genre_ids": [18], "backdrop_path": "/clVnEHURb8Ot3twaLmf7N1lNym1.jpg", "adult": false, "overview": "A graphic portrayal of the last twelve hours of Jesus of Nazareth's life.", "poster_path": "/oFuLM1EaKhi1WNWiTjQ1HKIZ1Eg.jpg", "popularity": 21.645}, {"id": 11416, "video": false, "vote_count": 688, "vote_average": 7.4, "title": "The Mission", "release_date": "1986-09-29", "original_language": "en", "original_title": "The Mission", "genre_ids": [28, 12, 18, 36], "backdrop_path": "/22GLW4Qgs7NycHLjsp8whRCuky4.jpg", "adult": false, "overview": "When a Spanish Jesuit goes into the South American wilderness to build a mission in the hope of converting the Indians of the region, a slave hunter is converted and joins his mission. When Spain sells the colony to Portugal, they are forced to defend all they have built against the Portugese aggressors.", "poster_path": "/oTU13XXz4WHisDWKX3X6dFWEjC0.jpg", "popularity": 11.33}, {"id": 13448, "video": false, "vote_count": 4319, "vote_average": 6.6, "title": "Angels & Demons", "release_date": "2009-05-13", "original_language": "en", "original_title": "Angels & Demons", "genre_ids": [9648, 53], "backdrop_path": "/wjrTJhDQEqmmaEfbM2Qo8ibzvSS.jpg", "adult": false, "overview": "Harvard symbologist Robert Langdon is recruited by the Vatican to investigate the apparent return of the Illuminati - a secret, underground organization - after four cardinals are kidnapped on the night of the papal conclave.", "poster_path": "/grN4lETrHNejatQZFP2F2DAWMU4.jpg", "popularity": 16.017}, {"id": 9946, "video": false, "vote_count": 932, "vote_average": 5.7, "title": "End of Days", "release_date": "1999-11-24", "original_language": "en", "original_title": "End of Days", "genre_ids": [28, 14, 27, 9648], "backdrop_path": "/q5KcZBMc4Vs5SQelnSdY3ICm56M.jpg", "adult": false, "overview": "On 28 December 1999, the citizens of New York City are getting ready for the turn of the millennium. However, the Devil decides to crash the party by coming to the city, inhabiting a man's body, and searching for his chosen bride\u2014a 20-year-old woman named Christine York. The world will end, and the only hope lies within an atheist named Jericho Cane.", "poster_path": "/bEIjH6GroeWaBkn6o7MVpMNbuyw.jpg", "popularity": 15.853}, {"id": 242, "video": false, "vote_count": 3308, "vote_average": 7.4, "title": "The Godfather: Part III", "release_date": "1990-12-24", "original_language": "en", "original_title": "The Godfather: Part III", "genre_ids": [80, 18, 53], "backdrop_path": "/dEuqTwwhfvk66jUKQa7bMqM5Cf7.jpg", "adult": false, "overview": "In the midst of trying to legitimize his business dealings in 1979 New York and Italy, aging mafia don, Michael Corleone seeks forgiveness for his sins while taking a young protege under his wing.", "poster_path": "/1hdm3Axw9LjITbApvAXBbqO58zE.jpg", "popularity": 27.213}, {"adult": false, "backdrop_path": "/euAMcJLG26pW1kv4kPEtVEwwroQ.jpg", "genre_ids": [36], "id": 476968, "original_language": "en", "original_title": "Paul, Apostle of Christ", "overview": "Risking his life, Luke ventures to Rome to visit Paul -- the apostle who's bound in chains and held captive in Nero's darkest and bleakest prison cell. Haunted by the shadows of his past misdeeds, Paul wonders if he's been forgotten as he awaits his grisly execution. Before Paul's death, Luke resolves to write another book that details the birth of what will come to be known as the church.", "poster_path": "/2NUXG94dGMKYgJL1BkJGKynMb3l.jpg", "release_date": "2018-03-23", "title": "Paul, Apostle of Christ", "video": false, "vote_average": 7.0, "vote_count": 106, "popularity": 16.541}, {"id": 613080, "video": false, "vote_count": 136, "vote_average": 6.3, "title": "Il primo Natale", "release_date": "2019-12-12", "original_language": "it", "original_title": "Il primo Natale", "genre_ids": [35, 14], "backdrop_path": "/peLcUFheR5SFwCDoPMjkmjFuPuj.jpg", "adult": false, "overview": "", "poster_path": "/l7Oc34f8qIv3LvX6QxxtIX4Czcu.jpg", "popularity": 11.349}, {"id": 273119, "video": true, "vote_count": 6, "vote_average": 5.6, "title": "VeggieTales: A Snoodle's Tale", "release_date": "2004-05-18", "original_language": "en", "original_title": "VeggieTales: A Snoodle's Tale", "genre_ids": [12, 16, 10751], "backdrop_path": "/z6IXA1GOC5jEUkkGC8woqMOQJ7f.jpg", "adult": false, "overview": "After returning home from what was supposed to be a Danish-immersion camp, Larry the Cucumber meets up with Bob the Tomato for a series of sketches dealing with self-esteem, along with a Silly Song segment. In the first, \"The Strange Case of Dr. Jiggle and Mr. Sly,\" Scooter the Carrot and Larry investigate the appearances of a flashy, disco-dancing gourd in the dark streets of London. Then Larry and a female friend team up for the Silly Song \"Sport Utility Vehicle,\" which pokes fun at preppy SUV owners who dream of using their rugged vehicles for more than just trips to the donut shop. After the song, the title segment follows (in Dr. Seuss-style rhyming verse) the morality tale of a winged creature called a Snoodle, who learns his true self-worth during a mountaintop journey.", "poster_path": "/dxljL9I0WyrkZHotKoN5AYqPml3.jpg", "popularity": 1.684}, {"adult": false, "backdrop_path": "/eSs0CkWB5ASQgcx8Dr0uai3IRjT.jpg", "genre_ids": [18], "id": 339984, "original_language": "en", "original_title": "Miracles from Heaven", "overview": "When Christy discovers her 10-year-old daughter Anna has a rare, incurable disease, she becomes a ferocious advocate for her daughter\u2019s healing as she searches for a solution. After Anna has a freak accident and falls three stories, a miracle unfolds in the wake of her dramatic rescue that leaves medical specialists mystified, her family restored and their community inspired.", "poster_path": "/hz9VF1TfaM0D04pYneSXUkNeOZv.jpg", "release_date": "2016-03-17", "title": "Miracles from Heaven", "video": false, "vote_average": 7.2, "vote_count": 568, "popularity": 10.907}], "total_pages": 34, "total_results": 670}, "recommendations": {"page": 1, "results": [{"adult": false, "backdrop_path": "/nAxzngFrjsBusFwQDK1YAqzThcg.jpg", "genre_ids": [10751, 16, 12], "id": 273315, "original_language": "en", "original_title": "VeggieTales: Minnesota Cuke and the Search for Samson's Hairbrush", "overview": "Larry the Cucumber stars as Minnesota Cuke, adventurer extraordinary. Follow Cuke around the world as he searches for the legendary Hairbrush of Samson on a race to keep it from his arch nemeses, Professor Rattan!", "poster_path": "/irXQ6BnGRGlVyxuP4hsgDLjKump.jpg", "release_date": "2005-06-25", "title": "VeggieTales: Minnesota Cuke and the Search for Samson's Hairbrush", "video": true, "vote_average": 4.0, "vote_count": 11, "popularity": 2.211}], "total_pages": 1, "total_results": 1}, "credits": {"cast": [{"cast_id": 0, "character": "Clark Wayne (George) / Tomato Sawyer (Bob the Tomato) / Big Jim (Little Jimmy) (Apollo Gourd) / Mr. Dooley (Mr. Nezzer) / King (Jimmy Gourd) / Ticket Agent (Mr. Lunt) / Phillipe Pea / Archibald Asparagus / Pa Grape / Silly Song Announcer (voice)", "credit_id": "53ea418b0e0a2660250019e8", "gender": 2, "id": 78297, "name": "Phil Vischer", "order": 1, "profile_path": "/tqQLl2HRYOkMETPqgO6v4zJwEZ3.jpg"}, {"cast_id": 1, "character": "Huckleberry Larry (Larry the Cucumber) / Duke (Jerry Gourd) / Baker (Oscar) / Chato (Jean Claude Pea) / French Peas / Lumberjack Silverstein (voice)", "credit_id": "53ea41a40e0a26602e001abd", "gender": 2, "id": 78298, "name": "Mike Nawrocki", "order": 2, "profile_path": "/1rSsWpWeKAd03AvULIr4UkBCyL6.jpg"}, {"cast_id": 2, "character": "Mama Belle (voice)", "credit_id": "53ea41b90e0a2660350019ad", "gender": 2, "id": 78298, "name": "Mike Nawrocki", "order": 3, "profile_path": "/1rSsWpWeKAd03AvULIr4UkBCyL6.jpg"}, {"cast_id": 3, "character": "Otto (Scooter the Carrot) (voice)", "credit_id": "53ea41cc0e0a2660380019af", "gender": 0, "id": 110804, "name": "Jim Poole", "order": 4, "profile_path": null}, {"cast_id": 4, "character": "Lumberjack Frank (voice)", "credit_id": "53ea41f10e0a266031001964", "gender": 0, "id": 110804, "name": "Jim Poole", "order": 5, "profile_path": null}, {"cast_id": 5, "character": "Barking Steve / Lumberjack / Extra (voice)", "credit_id": "53ea421b0e0a26603100196b", "gender": 0, "id": 110804, "name": "Jim Poole", "order": 6, "profile_path": null}, {"cast_id": 6, "character": "Lumberjack / Extra (voice)", "credit_id": "53ea42350e0a2660280018e2", "gender": 0, "id": 1330510, "name": "Kurt Heinecke", "order": 7, "profile_path": null}, {"cast_id": 7, "character": "Lumberjack / Extra (voice)", "credit_id": "53ea42460e0a2660250019fc", "gender": 0, "id": 80678, "name": "Tim Hodge", "order": 8, "profile_path": null}, {"cast_id": 8, "character": "Lumberjack / Extra (voice) (as Brian K. Roberts)", "credit_id": "53ea42820e0a2660280018eb", "gender": 0, "id": 80678, "name": "Tim Hodge", "order": 9, "profile_path": null}, {"cast_id": 9, "character": "Lumberjack / Extra (voice)", "credit_id": "53ea429a0e0a2660350019b9", "gender": 0, "id": 1238385, "name": "John Wahba", "order": 10, "profile_path": null}, {"cast_id": 10, "character": "Lumberjack / Extra (voice)", "credit_id": "53ea42ac0e0a266025001a01", "gender": 0, "id": 562905, "name": "J. Chris Wall", "order": 11, "profile_path": null}, {"cast_id": 11, "character": "Cheerleader (voice)", "credit_id": "53ea42c50e0a26602200199f", "gender": 0, "id": 562905, "name": "J. Chris Wall", "order": 12, "profile_path": null}, {"cast_id": 12, "character": "Cheerleader (voice) (as Colleen 'CC' Curtis)", "credit_id": "53ea42d60e0a26603100197e", "gender": 0, "id": 562905, "name": "J. Chris Wall", "order": 13, "profile_path": null}], "crew": [{"credit_id": "5b07c0ff925141724a0039a1", "department": "Directing", "gender": 2, "id": 153950, "job": "Director", "name": "Brian K. Roberts", "profile_path": null}]}}