{"adult": false, "backdrop_path": null, "belongs_to_collection": null, "budget": 0, "genres": [{"id": 99, "name": "Documentary"}], "homepage": null, "id": 273883, "imdb_id": "tt0269342", "original_language": "is", "original_title": "Hringurinn", "overview": "Experimental film of a trip around Iceland, filmed on the circular highway with a wide angle lens camera registering one frame every 12 seconds.", "popularity": 0.6, "poster_path": "/rQasxVqhF3scgjWLU15nnsVDld9.jpg", "production_companies": [], "production_countries": [{"iso_3166_1": "IS", "name": "Iceland"}], "release_date": "1985-03-02", "revenue": 0, "runtime": 78, "spoken_languages": [], "status": "Released", "tagline": "", "title": "The Ring Road", "video": false, "vote_average": 5.5, "vote_count": 2, "keywords": {"keywords": [{"id": 5746, "name": "iceland"}]}, "similar": {"page": 1, "results": [{"adult": false, "backdrop_path": "/pcGmsudsYgRGa16w7k6ozxkY0D6.jpg", "genre_ids": [99, 35], "id": 290438, "original_language": "is", "original_title": "Mj\u00f3ddin sl\u00e1 \u00ed gegn", "overview": "A Eurovision singer, Iceland's strongest woman, a male model, a plumber who wants to direct movies. They all work in the shopping mall that this documentary focuses on ... most of them want to get out, even just to the bigger mall down the road.", "poster_path": "/6RFTDDTrqsyrcFO3KlyqEaJK4S7.jpg", "release_date": "2004-03-06", "title": "Small Mall", "video": false, "vote_average": 10.0, "vote_count": 1, "popularity": 0.876}, {"id": 65754, "video": false, "vote_count": 4330, "vote_average": 7.3, "title": "The Girl with the Dragon Tattoo", "release_date": "2011-12-14", "original_language": "en", "original_title": "The Girl with the Dragon Tattoo", "genre_ids": [80, 18, 9648, 53], "backdrop_path": "/1fk2xS5hRkblBuag5JXZkmE8pg6.jpg", "adult": false, "overview": "This English-language adaptation of the Swedish novel by Stieg Larsson follows a disgraced journalist, Mikael Blomkvist, as he investigates the disappearance of a weary patriarch's niece from 40 years ago. He is aided by the pierced, tattooed, punk computer hacker named Lisbeth Salander. As they work together in the investigation, Blomkvist and Salander uncover immense corruption beyond anything they have ever imagined.", "poster_path": "/voxRWFTtagLiqnJQs9tWQLB0MN.jpg", "popularity": 27.09}, {"adult": false, "backdrop_path": "/mrvlpJFAzKwZZkLm9VD7Rh2VECi.jpg", "genre_ids": [12, 35, 18, 14], "id": 116745, "original_language": "en", "original_title": "The Secret Life of Walter Mitty", "overview": "A timid magazine photo manager who lives life vicariously through daydreams embarks on a true-life adventure when a negative goes missing.", "poster_path": "/b0nIj7dr2bcLAn3erYhql7f6aUm.jpg", "release_date": "2013-12-18", "title": "The Secret Life of Walter Mitty", "video": false, "vote_average": 7.1, "vote_count": 5241, "popularity": 14.477}, {"adult": false, "backdrop_path": "/epmzVTsBT8etWp9NeHJnGGoTw08.jpg", "genre_ids": [99], "id": 352208, "original_language": "en", "original_title": "Where to Invade Next", "overview": "To understand firsthand what the United States of America can learn from other nations, Michael Moore playfully \u201cinvades\u201d some to see what they have to offer.", "poster_path": "/fu3yXLoYtMxbv3NLquCDVLNK35p.jpg", "release_date": "2015-12-23", "title": "Where to Invade Next", "video": false, "vote_average": 7.4, "vote_count": 276, "popularity": 10.628}, {"id": 88751, "video": false, "vote_count": 2985, "vote_average": 5.9, "title": "Journey to the Center of the Earth", "release_date": "2008-07-10", "original_language": "en", "original_title": "Journey to the Center of the Earth", "genre_ids": [28, 12, 35, 878, 10751], "backdrop_path": "/tBMh4ig85nU6EC57pXhWfosSGlW.jpg", "adult": false, "overview": "On a quest to find out what happened to his missing brother, a scientist, his nephew and their mountain guide discover a fantastic and dangerous lost world in the center of the earth.", "poster_path": "/nlYk34gpPfM6KFujxB9HTHZyeiL.jpg", "popularity": 17.907}, {"adult": false, "backdrop_path": "/djrr3n1XTnVNf6F3ZqvTtYWXgjm.jpg", "genre_ids": [12, 14, 10751], "id": 11571, "original_language": "en", "original_title": "Journey to the Center of the Earth", "overview": "An Edinburgh professor and assorted colleagues follow an explorer's trail down an extinct Icelandic volcano to the earth's center.", "poster_path": "/4rSP91Gonskgq29AuJ1Xn3RIQAK.jpg", "release_date": "1959-12-14", "title": "Journey to the Center of the Earth", "video": false, "vote_average": 6.9, "vote_count": 202, "popularity": 10.344}, {"adult": false, "backdrop_path": "/eLUah3hMQ708x7tDkqSyycJvdRE.jpg", "genre_ids": [18], "id": 336222, "original_language": "is", "original_title": "Hr\u00fatar", "overview": "In a secluded valley in Iceland, Gummi and Kiddi live side by side, tending to their sheep. Their ancestral sheep-stock is considered one of the country\u2019s best and the two brothers are repeatedly awarded for their prized rams who carry an ancient lineage. Although they share the land and a way of life, Gummi and Kiddi have not spoken to each other in four decades. When a lethal disease suddenly infects Kiddi\u2019s sheep, the entire valley comes under threat. The authorities decide to cull all the animals in the area to contain the outbreak. But Gummi and Kiddi don\u2019t give up so easily \u2013 and each brother tries to stave off the disaster in his own fashion: Kiddi by using his rifle and Gummi by using his wits.", "poster_path": "/raOBs0LDaMix0g8sGFtYxwYx6JQ.jpg", "release_date": "2015-05-28", "title": "Rams", "video": false, "vote_average": 7.2, "vote_count": 135, "popularity": 9.013}, {"adult": false, "backdrop_path": "/AaApMjRShqv8cPsopnR1Q1XXH9b.jpg", "genre_ids": [35, 10749], "id": 157114, "original_language": "en", "original_title": "Ma\u00f0ur eins og \u00e9g", "overview": "A postal worker falls in love with the Chinese waitress at a Chinese restaurant. They start dating and quickly fall in and out of love, the waitress returning to China. The young man looks for comfort in his father but he's too preoccupied with winning the Eurovision song contest. After listening to loser friends talk about what Sylvester Stallone would do in his situation, the postal worker decides to buy a ticket to China and follow his love to her home.", "poster_path": "/eoQYCR6YBLGjcYX8i7DgluuhHPP.jpg", "release_date": "2002-08-16", "title": "A Man Like Me", "video": false, "vote_average": 7.8, "vote_count": 4, "popularity": 1.937}, {"adult": false, "backdrop_path": "/s7U6UG12M5K3XPuMCybt7cMRDzm.jpg", "genre_ids": [12, 18, 14], "id": 31506, "original_language": "de", "original_title": "Die Nibelungen: Siegfried", "overview": "Siegfried, son of King Siegmund of Xanten, travels to Worms, capital of the Burgundian kingdom, to ask King Gunther for the hand of his sister, the beautiful Kriemhild.", "poster_path": "/eyUsCYUpJcWYWhbzlwzPYgHVeuD.jpg", "release_date": "1924-02-14", "title": "Die Nibelungen: Siegfried", "video": false, "vote_average": 7.9, "vote_count": 54, "popularity": 8.309}, {"adult": false, "backdrop_path": "/8hHKZf57Ddk8yinZoIdnnpbbdDJ.jpg", "genre_ids": [10749, 18], "id": 350060, "original_language": "is", "original_title": "Hjartasteinn", "overview": "A remote fishing village in Iceland. Teenage boys Thor and Christian experience a turbulent summer as one tries to win the heart of a girl while the other discovers new feelings toward his best friend. When summer ends and the harsh nature of Iceland takes back its rights, it's time to leave the playground and face adulthood.", "poster_path": "/ecBEkb4RvsP8O0GAlRrQoUzMz9W.jpg", "release_date": "2016-12-28", "title": "Heartstone", "video": false, "vote_average": 7.7, "vote_count": 62, "popularity": 5.922}, {"id": 469108, "video": false, "vote_count": 27, "vote_average": 7.7, "title": "Under an Arctic Sky", "release_date": "2017-04-23", "original_language": "en", "original_title": "Under an Arctic Sky", "genre_ids": [12, 99], "backdrop_path": "/reLFjEihWIJGhYsBTK6mDFjUU2y.jpg", "adult": false, "overview": "Six fearless surfers travel to the north coast of Iceland to ride waves unlike anything they've ever experienced, captured with high-tech cameras.", "poster_path": "/oGMxSC0Rj32dJ9qSjGi97HUFKwF.jpg", "popularity": 3.542}, {"adult": false, "backdrop_path": "/mDsdSZZfxnd9RpEt0JNz6hVtLD2.jpg", "genre_ids": [28, 878], "id": 182228, "original_language": "en", "original_title": "100 Degrees Below Zero", "overview": "After freak climate and weather events destroy the world around them, a group of rogue scientists attempt to reverse the deadly new ice age.", "poster_path": "/98xEqfsOHvTyKqh7Hb4a5USmEPz.jpg", "release_date": "2013-03-29", "title": "100 Degrees Below Zero", "video": false, "vote_average": 3.4, "vote_count": 49, "popularity": 8.831}, {"adult": false, "backdrop_path": "/lHDhVeoTmxaAfUpQP6odiUDl8k7.jpg", "genre_ids": [9648, 18], "id": 407390, "original_language": "en", "original_title": "Autumn Lights", "overview": "An American photographer adrift in a remote Icelandic community becomes entangled in the lives of a mysterious European couple.", "poster_path": "/8UjQenLA7lhDVtaTEVGx7AdtrRJ.jpg", "release_date": "2016-10-21", "title": "Autumn Lights", "video": false, "vote_average": 6.2, "vote_count": 11, "popularity": 3.582}, {"adult": false, "backdrop_path": null, "genre_ids": [35, 14], "id": 327783, "original_language": "is", "original_title": "Kristnihald undir J\u00f6kli", "overview": "A hapless guy from the city visits an isolated Icelandic seaside settlement. He gradually realizes that the seals are not what they seem, and that two of the inhabitants are magicians, vieing for the favour of a mysterious woman. Liberated from a spell, she proves to be a magician too. Then he falls in love....", "poster_path": "/A9CIv7ppOPpUnqQcJmIBcz4zUx1.jpg", "release_date": "1989-02-25", "title": "Under the Glacier", "video": false, "vote_average": 5.5, "vote_count": 2, "popularity": 1.284}, {"id": 1720, "video": false, "vote_count": 49, "vote_average": 6.8, "title": "Noi the Albino", "release_date": "2003-02-28", "original_language": "is", "original_title": "N\u00f3i alb\u00edn\u00f3i", "genre_ids": [18], "backdrop_path": "/q1UG7bz3M0KTw6y1V4gdhcLOIm.jpg", "adult": false, "overview": "17 year old Noi drifts through life on a remote fjord in Iceland. In winter, the fjord is cut off from the outside world, surrounded by ominous mountains and buried under a shroud of snow. Noi dreams of escaping from this white-walled prison with Iris, a city girl who works in a local gas staion. But his clumsy attempts at escape spiral out of control.", "poster_path": "/9k0SBZ0wus0xyh4qdlDdwtIeiJ0.jpg", "popularity": 4.499}, {"adult": false, "backdrop_path": "/ftKyRpi1FX7UIGjNwDsQ19xqQxw.jpg", "genre_ids": [35, 12], "id": 252102, "original_language": "en", "original_title": "Land Ho!", "overview": "A pair of former brothers-in-law embark on a road trip through Iceland.", "poster_path": "/yWXHFq41n52I2IxVGUxwJC7bxPa.jpg", "release_date": "2014-07-11", "title": "Land Ho!", "video": false, "vote_average": 5.7, "vote_count": 36, "popularity": 4.777}, {"adult": false, "backdrop_path": "/x9FcWKKuMvU9ibxyO7LHz1iuxaI.jpg", "genre_ids": [35, 18], "id": 4880, "original_language": "de", "original_title": "Nichts als Gespenster", "overview": "Episodes about different stages of relationships: from flirtation to falling out of love.", "poster_path": "/vG94OrHJudnpKhZAN12B503GkmJ.jpg", "release_date": "2006-11-29", "title": "Nichts als Gespenster", "video": false, "vote_average": 6.4, "vote_count": 5, "popularity": 2.558}, {"adult": false, "backdrop_path": "/li10WQIcWjolkzCKq4p6X1vyntK.jpg", "genre_ids": [27, 9648, 18], "id": 439979, "original_language": "is", "original_title": "R\u00f6kkur", "overview": "Months after they broke up, Gunnar receives a strange phone call from his ex-boyfriend, Einar. He sounds distraught, like he's about to do something terrible to himself. Gunnar drives up to the secluded cabin where Einar is holed up and soon discovers that there's more going on than he imagined. As the two men come to terms with their broken relationship, some other person seems to be lurking outside the cabin, wanting to get in.", "poster_path": "/A649qXcx6oArqXdqK5Map8mnLjg.jpg", "release_date": "2017-02-04", "title": "Rift", "video": false, "vote_average": 5.6, "vote_count": 10, "popularity": 2.775}, {"adult": false, "backdrop_path": null, "genre_ids": [99, 10402], "id": 113355, "original_language": "is", "original_title": "Rokk \u00ed Reykjav\u00edk", "overview": "Rokk \u00ed Reykjav\u00edk (Rock in Reykjavik) gives a thorough overview of the powerful and expanding rock scene in Iceland. Most of the film consists of performances by a wide variety of rock-groups in various clubs in Reykjavik in 1981-82. There are also interviews with members of the groups representing different views on such features of the rock scene as sex, drugs and politics. 19 groups appear in the film.", "poster_path": "/6y8nOipq2Atcinyt28eWCkzZdBC.jpg", "release_date": "1982-04-17", "title": "Rokk \u00ed Reykjav\u00edk", "video": false, "vote_average": 7.0, "vote_count": 3, "popularity": 1.4}, {"id": 90544, "video": false, "vote_count": 5, "vote_average": 5.6, "title": "Summerland", "release_date": "2010-09-17", "original_language": "is", "original_title": "Sumarlandi\u00f0", "genre_ids": [35, 18], "backdrop_path": null, "adult": false, "overview": "An art-house comedy about an ordinary family running the unusual business of elf tourism and spiritual sessions. Their house is built around an elf stone, which is sacred to the wife Lara, who is blessed with a sixth sense. When they get an offer to sell the stone at a high price, her husband \u00d3skar is really tempted.", "poster_path": "/9AOwCgzMsmRQSk2PcVq4lT8e8Fd.jpg", "popularity": 1.176}], "total_pages": 5, "total_results": 87}, "recommendations": {"page": 1, "results": [], "total_pages": 1, "total_results": 0}, "credits": {"cast": [], "crew": [{"credit_id": "538f3769c3a3680d6e0000a9", "department": "Directing", "gender": 2, "id": 6759, "job": "Director", "name": "Fridrik Thor Fridriksson", "profile_path": null}, {"credit_id": "55bee581c3a368652800507f", "department": "Writing", "gender": 2, "id": 6759, "job": "Writer", "name": "Fridrik Thor Fridriksson", "profile_path": null}]}}