{"adult": false, "backdrop_path": "/gKpkM5BJrJbzTWj0xnmVE8PX4IW.jpg", "belongs_to_collection": {"id": 343733, "name": "Lotta Collection", "poster_path": null, "backdrop_path": null}, "budget": 0, "genres": [{"id": 10751, "name": "Family"}], "homepage": null, "id": 27599, "imdb_id": "tt0107444", "original_language": "sv", "original_title": "Lotta 2: Lotta flyttar hemifr\u00e5n", "overview": "A feisty five-year-old girl Lotta decides to move away from home. And no, she doesn't want to put on the stupid sweater.", "popularity": 1.97, "poster_path": "/nYXzfVRjgLtwlORBIVrlI21IEzi.jpg", "production_companies": [{"id": 6181, "logo_path": "/wLSdapPKqkBgrRVOKcUx83hCR3Y.png", "name": "Svensk Filmindustri", "origin_country": "SE"}, {"id": 7678, "logo_path": null, "name": "Astrid Lindgrens V\u00e4rld", "origin_country": "SE"}, {"id": 2999, "logo_path": "/zGSqFee9aDgDuLD6vcs2mcJUem4.png", "name": "SVT", "origin_country": "SE"}], "production_countries": [{"iso_3166_1": "SE", "name": "Sweden"}], "release_date": "1993-09-18", "revenue": 0, "runtime": 79, "spoken_languages": [{"iso_639_1": "sv", "name": "svenska"}], "status": "Released", "tagline": "", "title": "Lotta Leaves Home", "video": false, "vote_average": 5.7, "vote_count": 9, "keywords": {"keywords": [{"id": 10103, "name": "children"}, {"id": 187056, "name": "woman director"}]}, "similar": {"page": 1, "results": [{"id": 9813, "video": false, "vote_count": 128, "vote_average": 6.1, "title": "The Quiet", "release_date": "2005-09-12", "original_language": "en", "original_title": "The Quiet", "genre_ids": [18, 53], "backdrop_path": "/6eyWAZA4CEidZW1xXnQ4vlYBXTP.jpg", "adult": false, "overview": "After her widowed father dies, deaf teenager Dot moves in with her godparents, Olivia and Paul Deer. The Deers' daughter, Nina, is openly hostile to Dot, but that does not prevent her from telling her secrets to her silent stepsister, including the fact that she wants to kill her lecherous father.", "poster_path": "/GEqIE9YlmygHVUfS64LW2cwAAM.jpg", "popularity": 14.844}, {"adult": false, "backdrop_path": "/gZeJziVigmRqbkEZwKAtSqlLQ6s.jpg", "genre_ids": [18, 10749], "id": 370663, "original_language": "en", "original_title": "Below Her Mouth", "overview": "An unexpected affair quickly escalates into a heart-stopping reality for two women whose passionate connection changes their lives forever.", "poster_path": "/nTGbq37hYLuNy7YgMg0gVLma0NS.jpg", "release_date": "2016-09-10", "title": "Below Her Mouth", "video": false, "vote_average": 6.2, "vote_count": 456, "popularity": 22.676}, {"adult": false, "backdrop_path": "/g3LYarEY9LjB28Ct2trwFN72gqZ.jpg", "genre_ids": [35], "id": 437557, "original_language": "en", "original_title": "Blockers", "overview": "When three parents discover their daughters\u2019 pact to lose their virginity at prom, they launch a covert one-night operation to stop the teens from sealing the deal.", "poster_path": "/uvlUQXg0AlpGzKukO11K7QtW3Yu.jpg", "release_date": "2018-03-14", "title": "Blockers", "video": false, "vote_average": 6.2, "vote_count": 1153, "popularity": 18.075}, {"adult": false, "backdrop_path": "/cADbqsIoiDW7X3Myg9nz8eAuno5.jpg", "genre_ids": [18, 10749], "id": 10818, "original_language": "fr", "original_title": "Naissance des pieuvres", "overview": "Set during a sultry summer in a French suburb, Marie is desperate to join the local pool's synchronized swimming team, but is her interest solely for the sake of sport or for a chance to get close to Floriane, the bad girl of the team? Sciamma, and the two leads, capture the uncertainty of teenage sexuality with a sympathetic eye in this delicate drama of the angst of coming-of-age.", "poster_path": "/4jajELYrR4Xmv3CVoKnukRnALa2.jpg", "release_date": "2007-05-17", "title": "Water Lilies", "video": false, "vote_average": 6.1, "vote_count": 119, "popularity": 9.614}, {"adult": false, "backdrop_path": "/kJwJfSQht3QwpWka8JBnQ18IyDT.jpg", "genre_ids": [18, 16, 10751, 35], "id": 51052, "original_language": "en", "original_title": "Arthur Christmas", "overview": "Each Christmas, Santa and his vast army of highly trained elves produce gifts and distribute them around the world in one night. However, when one of 600 million children to receive a gift from Santa on Christmas Eve is missed, it is deemed \u2018acceptable\u2019 to all but one \u2013 Arthur. Arthur Claus is Santa\u2019s misfit son who executes an unauthorized rookie mission to get the last present half way around the globe before dawn on Christmas morning.", "poster_path": "/crjzhg2T1sPL9yE7bFHkYp0OfXG.jpg", "release_date": "2011-11-10", "title": "Arthur Christmas", "video": false, "vote_average": 6.7, "vote_count": 800, "popularity": 20.268}, {"id": 326359, "video": false, "vote_count": 1179, "vote_average": 6.8, "title": "Frozen Fever", "release_date": "2015-03-09", "original_language": "en", "original_title": "Frozen Fever", "genre_ids": [12, 16, 10751], "backdrop_path": "/ubioPGniCfDiASmYYpeJs5RRNaC.jpg", "adult": false, "overview": "On Anna's birthday, Elsa and Kristoff are determined to give her the best celebration ever, but Elsa's icy powers may put more than just the party at risk.", "poster_path": "/lKJiVPzsAO9IJ4LKWXZ8vkR2bg4.jpg", "popularity": 17.061}, {"id": 260513, "video": false, "vote_count": 7531, "vote_average": 7.5, "title": "Incredibles 2", "release_date": "2018-06-14", "original_language": "en", "original_title": "Incredibles 2", "genre_ids": [28, 12, 16, 10751], "backdrop_path": "/mabuNsGJgRuCTuGqjFkWe1xdu19.jpg", "adult": false, "overview": "Elastigirl springs into action to save the day, while Mr. Incredible faces his greatest challenge yet \u2013 taking care of the problems of his three children.", "poster_path": "/9lFKBtaVIhP7E2Pk0IY1CwTKTMZ.jpg", "popularity": 48.341}, {"id": 93456, "video": false, "vote_count": 7881, "vote_average": 6.9, "title": "Despicable Me 2", "release_date": "2013-06-25", "original_language": "en", "original_title": "Despicable Me 2", "genre_ids": [16, 35, 10751], "backdrop_path": "/rmgxcw8tGTmdhsWqdjGBS9uI1tO.jpg", "adult": false, "overview": "Gru is recruited by the Anti-Villain League to help deal with a powerful new super criminal.", "poster_path": "/kQrYyZQHkwkUg2KlUDyvymj9FAp.jpg", "popularity": 40.379}, {"id": 49519, "video": false, "vote_count": 4248, "vote_average": 6.8, "title": "The Croods", "release_date": "2013-03-20", "original_language": "en", "original_title": "The Croods", "genre_ids": [28, 12, 16, 35, 14, 10751], "backdrop_path": "/vg2hf8eAZhULxtQRS87CbrH2WMQ.jpg", "adult": false, "overview": "The Croods is a prehistoric comedy adventure that follows the world's first family as they embark on a journey of a lifetime when the cave that has always shielded them from danger is destroyed. Traveling across a spectacular landscape, the Croods discover an incredible new world filled with fantastic creatures -- and their outlook is changed forever.", "poster_path": "/eHi3Nbgh6Cs2KiIyEMF4Ig4CdjX.jpg", "popularity": 29.513}, {"adult": false, "backdrop_path": "/by0WtpJ5UNxOy6ytIfPPTasbRoB.jpg", "genre_ids": [28, 12, 35, 18, 10751, 10402, 10749], "id": 17130, "original_language": "en", "original_title": "Crossroads", "overview": "Three friends get together and bury a box making a pact to open it at midnight at their high school graduation. In the little town in Georgia that they live in, things soon change. One is little miss perfect, one is an engaged prom queen, and the other is a pregnant outcast. The night of graduation, they open the box and they strike up a conversation. All of a sudden, one brings up the topic of her going to Los Angeles for a record contract audition. They all decide to go together and they leave. With a little money, they set out on the road with a guy named Ben. When one of them tells the other a rumor that he might be a homicidal maniac they are all scared of him. When they reach LA, Lucy falls in love with Ben and against her father's wishes, she stays and she goes to the audition.", "poster_path": "/egIs4cWxn0iBErFKrQ7STckjj49.jpg", "release_date": "2002-02-15", "title": "Crossroads", "video": false, "vote_average": 5.0, "vote_count": 334, "popularity": 14.197}, {"adult": false, "backdrop_path": "/6tern9vOEwwmkDYC1vRCuO64z0C.jpg", "genre_ids": [10749, 18], "id": 475888, "original_language": "en", "original_title": "Tell It to the Bees", "overview": "Dr. Jean Markham returns to the town she left as a teenager to take over her late father's medical practice. When a school-yard scuffle lands Charlie in her surgery, she invites him to visit the hives in her garden and tell his secrets to the bees, as she once did. The new friendship between the boy and the bee keeper brings his mother Lydia into Jean's world.", "poster_path": "/Rj6zpHhMU1zFW3v28U4PSRSRgP.jpg", "release_date": "2019-05-03", "title": "Tell It to the Bees", "video": false, "vote_average": 6.4, "vote_count": 53, "popularity": 15.113}, {"adult": false, "backdrop_path": "/knczzNAjBXzSYkeWxoT1u9VNmjR.jpg", "genre_ids": [10749, 18], "id": 258480, "original_language": "en", "original_title": "Carol", "overview": "In 1950s New York, a department-store clerk who dreams of a better life falls for an older, married woman.", "poster_path": "/AbKa7ANxmui0Jmhh7gV7OSELKIL.jpg", "release_date": "2015-11-20", "title": "Carol", "video": false, "vote_average": 7.4, "vote_count": 2182, "popularity": 14.185}, {"id": 334354, "video": false, "vote_count": 113, "vote_average": 7.4, "title": "Windstorm 2", "release_date": "2015-05-14", "original_language": "de", "original_title": "Ostwind 2", "genre_ids": [12, 18, 10749, 10751], "backdrop_path": "/l6atARsPq42Jz3Ls9fHqeGnahoy.jpg", "adult": false, "overview": "Summer vacation. Mika is overjoyed to see Windstorm again. But then she discovers strange wounds on the belly of Windstorm, for which no one has an explanation. Yet this is Kaltenbach verge of bankruptcy! With a heavy heart Mika decides to participate in a variety tournament in which beckons a high prize money. But during training affects Windstorm distracted, often he runs away easily. Mika pursued the black stallion until deep into the forest and is quite surprised: From the thicket a seemingly magical gray mare appears and the two horses dance around lovingly. Suddenly, a strange boy named Milan appears, who says the mare had escaped him. He claimed that he could Help Mika to win the tournament. But is there still time to save Kaltenbach?", "poster_path": "/4MAtc4Lz8Ds2AyZid0XrsKmMEby.jpg", "popularity": 12.28}, {"id": 24684, "video": false, "vote_count": 795, "vote_average": 6.9, "title": "An Education", "release_date": "2009-10-29", "original_language": "en", "original_title": "An Education", "genre_ids": [18, 10749], "backdrop_path": "/4PD0Kc4BGYrYrziCwUPHnESSabZ.jpg", "adult": false, "overview": "Despite her sheltered upbringing, Jenny is a teen with a bright future; she's smart, pretty, and has aspirations of attending Oxford University. When David, a charming but much older suitor, motors into her life in a shiny automobile, Jenny gets a taste of adult life that she won't soon forget.", "poster_path": "/n0mH5BgPjlMWJLWKhjtf5MDRrm9.jpg", "popularity": 14.729}, {"adult": false, "backdrop_path": "/rf6G51j0SZL0tP57I8gnqHTRFEr.jpg", "genre_ids": [35, 18, 10749], "id": 273153, "original_language": "fr", "original_title": "La belle saison", "overview": "In 1971, Carole and Delphine meet and fall in love in Paris. When Carole follows Delphine back to her family farm in Limousin, the two find lesbianism and feminism are not as easy in the countryside.", "poster_path": "/evvAkNMO5VJiy5qIo1Hu7fUfvVI.jpg", "release_date": "2015-08-19", "title": "Summertime", "video": false, "vote_average": 6.6, "vote_count": 162, "popularity": 15.434}, {"adult": false, "backdrop_path": "/hpIUiHIyNKWsid3Tz4adtYsUqo1.jpg", "genre_ids": [16, 12, 10751], "id": 82703, "original_language": "en", "original_title": "Mr. Peabody & Sherman", "overview": "A young boy and his dog, who happens to have a genius-level IQ, spring into action when their time-machine is stolen and moments in history begin to be changed.", "poster_path": "/q4FQXK4a4HSb4pajZL4ZFKHVsjC.jpg", "release_date": "2014-02-07", "title": "Mr. Peabody & Sherman", "video": false, "vote_average": 6.6, "vote_count": 1489, "popularity": 16.57}, {"id": 616584, "video": false, "vote_count": 92, "vote_average": 7.5, "title": "K-12", "release_date": "2019-09-05", "original_language": "en", "original_title": "K-12", "genre_ids": [14, 27, 10402], "backdrop_path": "/fSlfaF0Ydfr2SK6hOYHvDsb7a9Z.jpg", "adult": false, "overview": "Cry Baby, a strong and sensitive girl, is sent off to a disturbing sleepaway school that\u2019s hidden underneath a grandiose fa\u00e7ade. Luckily, she has a sweet and unapologetic best friend who sticks up for her when she gets bullied by the other students whose brains are under control by the Principal and his wicked staff. With the help of the magical friends they meet along the way, as well as an Angelic Spirit Guide, they are able to gain the strength they need to fight off the school\u2019s belligerent patriarchal conditioning.", "poster_path": "/nVi0yBBPj5Z96JgGWVIg94kv7bR.jpg", "popularity": 18.105}, {"adult": false, "backdrop_path": "/caLMOD3ZJ3V7qjlxDXrzlJfBLgD.jpg", "genre_ids": [18, 10749], "id": 20, "original_language": "en", "original_title": "My Life Without Me", "overview": "A Pedro Almodovar production in which a fatally ill mother with only two months to live creates a list of things she wants to do before she dies with out telling her family of her illness.", "poster_path": "/vVj92VBFUBzjqzLvBiPVVlJDp78.jpg", "release_date": "2003-03-07", "title": "My Life Without Me", "video": false, "vote_average": 6.1, "vote_count": 220, "popularity": 10.382}, {"adult": false, "backdrop_path": "/useuHJQ5HOoEWkAvEjL1FW1sUfe.jpg", "genre_ids": [18], "id": 376867, "original_language": "en", "original_title": "Moonlight", "overview": "The tender, heartbreaking story of a young man\u2019s struggle to find himself, told across three defining chapters in his life as he experiences the ecstasy, pain, and beauty of falling in love, while grappling with his own sexuality.", "poster_path": "/qAwFbszz0kRyTuXmMeKQZCX3Q2O.jpg", "release_date": "2016-10-21", "title": "Moonlight", "video": false, "vote_average": 7.4, "vote_count": 4406, "popularity": 27.348}, {"id": 8346, "video": false, "vote_count": 1269, "vote_average": 6.4, "title": "My Big Fat Greek Wedding", "release_date": "2002-02-22", "original_language": "en", "original_title": "My Big Fat Greek Wedding", "genre_ids": [35, 18, 10749], "backdrop_path": "/miFwBsaWZER118kg0AAuHcy1YOa.jpg", "adult": false, "overview": "A young Greek woman falls in love with a non-Greek and struggles to get her family to accept him while she comes to terms with her heritage and cultural identity.", "poster_path": "/vqGs8K6MdMHVPMTgMhzKHBVgu0t.jpg", "popularity": 17.695}], "total_pages": 1386, "total_results": 27707}, "recommendations": {"page": 1, "results": [{"adult": false, "backdrop_path": "/yYvS72CfKDIKvY7bR8o9ErdJRg0.jpg", "genre_ids": [35, 10751], "id": 27600, "original_language": "sv", "original_title": "Lotta p\u00e5 Br\u00e5kmakargatan", "overview": "Lotta is a five old girl living in Sweden with her mother, father, brother and sister. She is living the very normal life of all children of her age...", "poster_path": "/dIW4FYSIE2MJTzrf1rrNsQRtYEn.jpg", "release_date": "1992-09-26", "title": "Lotta on Rascal Street", "video": false, "vote_average": 6.0, "vote_count": 9, "popularity": 3.791}, {"id": 27598, "video": false, "vote_count": 10, "vote_average": 6.5, "title": "You're Out of Your Mind, Madicken", "release_date": "1979-12-13", "original_language": "sv", "original_title": "Du \u00e4r inte klok, Madicken", "genre_ids": [10751], "backdrop_path": "/wOPKd5UUCzvrC8g77qVmcEDda7o.jpg", "adult": false, "overview": "Madicken is a Swedish girl from the upper level family, growing up during the time of first world war which did not include Sweden. She lives happily with her family, experiencing the world and making brave and crazy things.", "poster_path": "/koYaZZAEY8idSlb97JOx14uH1Mr.jpg", "popularity": 4.716}, {"adult": false, "backdrop_path": "/bigJyLbQvIqLnNvcJjvmyjToWAl.jpg", "genre_ids": [10751, 35, 10749], "id": 36674, "original_language": "sv", "original_title": "Bert - den siste oskulden", "overview": "The film is based on a series of immensely popular Swedish children's books, about the boy Bert, who is just hitting puberty and having the usual problems with it. But that's where the usual ends abruptly.", "poster_path": "/8TfYeSwC5MYfmqpoSFKJo7ZFsYa.jpg", "release_date": "1995-12-25", "title": "Bert: The Last Virgin", "video": false, "vote_average": 4.5, "vote_count": 13, "popularity": 3.849}, {"adult": false, "backdrop_path": "/sybrp2pAgCnOlS7ryW3aMWVWQE8.jpg", "genre_ids": [35, 10751], "id": 433600, "original_language": "sv", "original_title": "Tjorven, B\u00e5tsman och Moses", "overview": "Vesterman has found a young seal in his fishing nets in the outskirts of the archipelago. When he comes back to the Saltkr\u00e5kan island he gives the seal to Tjorven, who names it Moses. Peter Malm, a visitor who works at the Zoological Institute in Uppsala, wants to buy the seal, but Tjorven says it's not for sale. Vesterman is in need of money and tries to get the seal back, to sell it to Peter. The children have to hide the seal, so he won't find it. Pelle's rabbit Jocke and one of S\u00f6derman's lambs are found bitten to death. The dog B\u00e5tsman is accused of those evil deeds, which means that Tjorven's father has to shoot her dog. In the last minute S\u00f6derman finds out that a fox is the perpetrator. Peter Malm says he won't buy the seal. Vesterman is disappointed and the seal stays with the children.", "poster_path": "/fP8xZXp2nTh7UsgUgfa5dgem9k3.jpg", "release_date": "1964-10-24", "title": "Tjorven, Batsman, and Moses", "video": false, "vote_average": 6.6, "vote_count": 9, "popularity": 4.236}, {"adult": false, "backdrop_path": "/oewOhT6fY7eiC9HffCI6Jk8bReF.jpg", "genre_ids": [35, 10751], "id": 30149, "original_language": "sv", "original_title": "Sunes sommar", "overview": "It's summer and Sune Andersson's family is planning a holiday in Greece. Sune's father, Rudolf is sulking because then he won't be able to go on his beloved fishing trip. But after seeing how much the Greek trip is going to cost, he comes up with a great idea: Let's go on a camping trip instead. A lot is happens during this trip and after a while Rudolf discovers that the camping trip might not be as cheat as he thought.", "poster_path": "/34qxStaKifGRhRsyjNpIrl2Il7r.jpg", "release_date": "1993-12-25", "title": "Sune's Summer", "video": false, "vote_average": 6.1, "vote_count": 29, "popularity": 1.906}], "total_pages": 1, "total_results": 5}, "credits": {"cast": [{"cast_id": 1, "character": "Lotta", "credit_id": "52fe4559c3a368484e054b6f", "gender": 1, "id": 82326, "name": "Grete Havnesk\u00f6ld", "order": 0, "profile_path": "/dzm1Ie2RHN0v5UL65gwPritc9Z.jpg"}, {"cast_id": 2, "character": "Mia", "credit_id": "52fe4559c3a368484e054b73", "gender": 0, "id": 98315, "name": "Linn Gloppestad", "order": 1, "profile_path": null}, {"cast_id": 3, "character": "Mother", "credit_id": "52fe4559c3a368484e054b77", "gender": 1, "id": 98318, "name": "Beatrice J\u00e4r\u00e5s", "order": 2, "profile_path": "/2E1Y4rx3qfw7TssnhWKDHPR8dgL.jpg"}, {"cast_id": 4, "character": "Father", "credit_id": "52fe4559c3a368484e054b7b", "gender": 2, "id": 79260, "name": "Claes Malmberg", "order": 3, "profile_path": "/3BlOdunrJE8TRApsyDbdpJRADX.jpg"}, {"cast_id": 19, "character": "Jonas", "credit_id": "52fe4559c3a368484e054bcd", "gender": 0, "id": 98328, "name": "Martin Andersson", "order": 4, "profile_path": null}, {"cast_id": 20, "character": "Tant Berg", "credit_id": "52fe4559c3a368484e054bd1", "gender": 0, "id": 116510, "name": "Margreth Weivers", "order": 5, "profile_path": null}, {"cast_id": 21, "character": "Fru Blomgren", "credit_id": "52fe4559c3a368484e054bd5", "gender": 0, "id": 544706, "name": "Gunvor Pont\u00e9n", "order": 6, "profile_path": "/lF5KtoLBg8B1RJd7a7LtMYXRk56.jpg"}, {"cast_id": 22, "character": "Farbror Blomgren", "credit_id": "52fe4559c3a368484e054bd9", "gender": 2, "id": 6004, "name": "Sten Ljunggren", "order": 7, "profile_path": "/mCPu6daaNMmD8R34NOQ0aF9Jy8r.jpg"}, {"cast_id": 23, "character": "Kalle Fransson", "credit_id": "52fe4559c3a368484e054bdd", "gender": 2, "id": 81214, "name": "Pierre Lindstedt", "order": 8, "profile_path": "/k15kZwvFewErny5EBWCy8UeEvft.jpg"}, {"cast_id": 24, "character": "Lastbilschauff\u00f6ren", "credit_id": "52fe4559c3a368484e054be1", "gender": 2, "id": 22331, "name": "Johan Rabaeus", "order": 9, "profile_path": "/zuFmPuzNjRRGk2zal3R1ZhamsaH.jpg"}, {"cast_id": 25, "character": "Vasilis", "credit_id": "52fe4559c3a368484e054be5", "gender": 0, "id": 568071, "name": "Renzo Spinetti", "order": 10, "profile_path": null}], "crew": [{"credit_id": "52fe4559c3a368484e054b81", "department": "Directing", "gender": 0, "id": 98319, "job": "Director", "name": "Johanna Hald", "profile_path": null}, {"credit_id": "52fe4559c3a368484e054b87", "department": "Writing", "gender": 1, "id": 3850, "job": "Novel", "name": "Astrid Lindgren", "profile_path": "/dArfGXX1aZnH1ZKXInDkWFLC7db.jpg"}, {"credit_id": "52fe4559c3a368484e054b8d", "department": "Writing", "gender": 0, "id": 98319, "job": "Screenplay", "name": "Johanna Hald", "profile_path": null}, {"credit_id": "52fe4559c3a368484e054b93", "department": "Production", "gender": 2, "id": 3868, "job": "Producer", "name": "Waldemar Bergendahl", "profile_path": null}, {"credit_id": "52fe4559c3a368484e054b9f", "department": "Sound", "gender": 2, "id": 6335, "job": "Original Music Composer", "name": "Stefan Nilsson", "profile_path": null}, {"credit_id": "52fe4559c3a368484e054ba5", "department": "Editing", "gender": 2, "id": 3866, "job": "Editor", "name": "Jan Persson", "profile_path": null}, {"credit_id": "52fe4559c3a368484e054bab", "department": "Editing", "gender": 2, "id": 56398, "job": "Editor", "name": "Christer Furubrand", "profile_path": null}, {"credit_id": "52fe4559c3a368484e054bb1", "department": "Editing", "gender": 0, "id": 568068, "job": "Editor", "name": "Jean-Fr\u00e9d\u00e9ric Axelsson", "profile_path": null}, {"credit_id": "52fe4559c3a368484e054bb7", "department": "Sound", "gender": 2, "id": 58304, "job": "Sound Engineer", "name": "Eddie Axberg", "profile_path": "/iATAVnD6eTuvsenUYmIFW87dodc.jpg"}, {"credit_id": "52fe4559c3a368484e054bbd", "department": "Sound", "gender": 0, "id": 568059, "job": "Sound Engineer", "name": "Klas Dykhoff", "profile_path": null}, {"credit_id": "52fe4559c3a368484e054bc3", "department": "Sound", "gender": 0, "id": 568069, "job": "Sound Engineer", "name": "Bengt Andersson", "profile_path": null}, {"credit_id": "52fe4559c3a368484e054bc9", "department": "Sound", "gender": 2, "id": 568070, "job": "Sound Engineer", "name": "Anders H\u00f6rling", "profile_path": null}, {"credit_id": "54e50842c3a3682b0b0002f2", "department": "Camera", "gender": 2, "id": 22326, "job": "Director of Photography", "name": "Olof Johnson", "profile_path": null}, {"credit_id": "559bdbb9c3a36871760019fd", "department": "Writing", "gender": 0, "id": 98319, "job": "Writer", "name": "Johanna Hald", "profile_path": null}, {"credit_id": "5779becd9251416d490033ed", "department": "Art", "gender": 0, "id": 1644997, "job": "Production Design", "name": "Eva Ivarsson", "profile_path": null}, {"credit_id": "5779bed4c3a368200200397a", "department": "Art", "gender": 0, "id": 1080951, "job": "Production Design", "name": "Lasse Westfelt", "profile_path": null}, {"credit_id": "5779bedb9251416c8000301d", "department": "Costume & Make-Up", "gender": 0, "id": 150839, "job": "Costume Design", "name": "Inger Pehrsson", "profile_path": null}, {"credit_id": "5779bee29251415fbe003483", "department": "Costume & Make-Up", "gender": 1, "id": 568060, "job": "Makeup Artist", "name": "Karin Fahl\u00e9n", "profile_path": "/ejiBdGhoGDcWiFoWCZ3tuKlq3WT.jpg"}, {"credit_id": "5779beeec3a3680cfb003d26", "department": "Production", "gender": 0, "id": 64963, "job": "Production Manager", "name": "Thomas Allercrantz", "profile_path": null}, {"credit_id": "5779bef5c3a3680e2100319f", "department": "Production", "gender": 0, "id": 927977, "job": "Production Manager", "name": "Serina Bj\u00f6rnbom", "profile_path": null}, {"credit_id": "5779c0b2c3a368766f0039e4", "department": "Production", "gender": 0, "id": 1644997, "job": "Production Manager", "name": "Eva Ivarsson", "profile_path": null}]}}