{"adult": false, "backdrop_path": "/gAvIdjW4z3vKwzotOdOZy7D5TXM.jpg", "belongs_to_collection": null, "budget": 0, "genres": [{"id": 18, "name": "Drama"}, {"id": 35, "name": "Comedy"}], "homepage": null, "id": 278122, "imdb_id": "tt0033648", "original_language": "it", "original_title": "Un garibaldino al convento", "overview": "An old woman's poignant reminiscence of her youth in a convent school, the happy moments and the sad, and her tragic love for a Garibaldian.", "popularity": 0.84, "poster_path": "/sjZcxpavpIQuf95juExPYyj213z.jpg", "production_companies": [{"id": 82833, "logo_path": null, "name": "Industria Cinematografica Italiana (INCINE)", "origin_country": ""}, {"id": 82834, "logo_path": null, "name": "Cristallo Film", "origin_country": ""}], "production_countries": [{"iso_3166_1": "IT", "name": "Italy"}], "release_date": "1942-03-10", "revenue": 0, "runtime": 83, "spoken_languages": [{"iso_639_1": "it", "name": "Italiano"}], "status": "Released", "tagline": "", "title": "A Garibaldian in the Convent", "video": false, "vote_average": 6.3, "vote_count": 4, "keywords": {"keywords": [{"id": 34126, "name": "convent school"}]}, "similar": {"page": 1, "results": [{"adult": false, "backdrop_path": "/3BxZPVMWDI9SK7rxuW27OghWXS3.jpg", "genre_ids": [18], "id": 8094, "original_language": "en", "original_title": "The Magdalene Sisters", "overview": "Four women are given into the custody of the Magdalene sisterhood asylum to correct their sinful behavior: Crispina and Rose have given birth to a premarital child, Margaret got raped by her cousin and the orphan Bernadette had been repeatedly caught flirting with the boys. All have to work in a laundry under the strict supervision of the nuns, who break their wills through sadistic punishment.", "poster_path": "/bMoI2hSAbbHEKLv9ZaAkOOsPZdt.jpg", "release_date": "2002-09-12", "title": "The Magdalene Sisters", "video": false, "vote_average": 7.5, "vote_count": 195, "popularity": 8.877}, {"adult": false, "backdrop_path": "/qj2Od4ux4c7QDmicIYpAWPXCGNn.jpg", "genre_ids": [27, 18], "id": 61683, "original_language": "fr", "original_title": "Mais ne nous delivrez pas du mal", "overview": "Anne and Lore, neighbors and best friends, barely into their teens, board at a convent school where they have taken a vow to sin and to serve Satan. Anne keeps a secret diary, they read a salacious novel, they get a classmate in trouble, they spy on the nuns, they set aside their communion wafers; they make a pact of devotion.", "poster_path": "/vNSvpZuUKXsU3JgJgjR9d8Nx6rW.jpg", "release_date": "1971-04-05", "title": "Don't Deliver Us from Evil", "video": false, "vote_average": 6.8, "vote_count": 36, "popularity": 12.031}, {"adult": false, "backdrop_path": "/q3eNcig4YFEsUTnmIYDA90FdndO.jpg", "genre_ids": [10402, 35, 28, 80], "id": 525, "original_language": "en", "original_title": "The Blues Brothers", "overview": "Jake Blues is just out of jail, and teams up with his brother, Elwood on a 'mission from God' to raise funds for the orphanage in which they grew up. The only thing they can do is do what they do best: play music. So they get their old band together, and set out on their way\u2014while getting in a bit of trouble here and there.", "poster_path": "/6hesUNBkpVRqBTBw2HlTg0h8b56.jpg", "release_date": "1980-06-17", "title": "The Blues Brothers", "video": false, "vote_average": 7.7, "vote_count": 2299, "popularity": 21.638}, {"id": 2005, "video": false, "vote_count": 1806, "vote_average": 6.7, "title": "Sister Act", "release_date": "1992-05-28", "original_language": "en", "original_title": "Sister Act", "genre_ids": [35, 10402], "backdrop_path": "/oaLqlJxt8TJSjsdfMpSkLexZ4l5.jpg", "adult": false, "overview": "A Reno singer witnesses a mob murder and the cops stash her in a nunnery to protect her from the mob's hitmen. The mother superior does not trust her, and takes steps to limit her influence on the other nuns. Eventually the singer rescues the failing choir and begins helping with community projects, which gets her an interview on TV\u2014and identification by the mob.", "poster_path": "/7wQxLtybiUbtC6tsJh9htFEmqq3.jpg", "popularity": 16.674}, {"id": 104, "video": false, "vote_count": 1196, "vote_average": 7.3, "title": "Run Lola Run", "release_date": "1998-08-20", "original_language": "de", "original_title": "Lola rennt", "genre_ids": [28, 18, 53], "backdrop_path": "/on7RwevEYFO9Q3U1augjdIRU1ur.jpg", "adult": false, "overview": "Lola receives a phone call from her boyfriend Manni. He lost 100,000 DM in a subway train that belongs to a very bad guy. She has 20 minutes to raise this amount and meet Manni. Otherwise, he will rob a store to get the money. Three different alternatives may happen depending on some minor event along Lola's run.", "poster_path": "/3L8QhF5IkZOnEnBFdpj6GVkkp7d.jpg", "popularity": 18.804}, {"adult": false, "backdrop_path": "/9fsbonn2L1xcGxex32VjhRP3DN6.jpg", "genre_ids": [35], "id": 264861, "original_language": "de", "original_title": "Frau Wirtin's tolle T\u00f6chterlein", "overview": "A man goes to a convent with exciting news, one of the nuns is an heir to a fortune! The man causes the nuns to become obsessed with him as he tries to find the right heir.", "poster_path": "/aKg1AlmuSuoB7aVcvBrpkCbzXdG.jpg", "release_date": "1973-04-11", "title": "The Countess Died of Laughter", "video": false, "vote_average": 0.0, "vote_count": 0, "popularity": 1.577}, {"adult": false, "backdrop_path": null, "genre_ids": [35], "id": 282905, "original_language": "it", "original_title": "Le monachine", "overview": "Two nuns come to Rome to protest to an airline about its jet planes which have been flying over their convent school, disrupting teaching of the little orphans who study there and damaging the ancient fresco of their patron saint through sound vibrations.", "poster_path": "/n3rPI9RI49KYfCR90OEjW7ntplq.jpg", "release_date": "1963-08-29", "title": "The Little Nuns", "video": false, "vote_average": 0.0, "vote_count": 0, "popularity": 0.961}, {"adult": false, "backdrop_path": null, "genre_ids": [18], "id": 204217, "original_language": "en", "original_title": "Suor Letizia", "overview": "Directed by the incredibly prolific Mario Camerini, Suor Letizia was released in English-speaking regions as When Angels Don't Fly and The Awakening. In her first film appearance since The Rose Tattoo, Anna Magnani plays a feisty nun named Sister Letizia. Believing herself above such earthly trivialities as a maternal instinct, Sr. Letizia changes her way of thinking when an abandoned child is placed in her care. Unofficially adopting the boy, the good sister eventually comes to realize that even she cannot provide the care and guidance of a biological mother. Carefully constructed to accommodate all the surefire box-office elements inherent in Camerini's earlier films, Suor Letizia was almost guaranteed to be a hit.", "poster_path": "/6mE8ultdS9MMnn5DGZPKqQCJDnq.jpg", "release_date": "1956-10-17", "title": "The Awakening", "video": false, "vote_average": 0.0, "vote_count": 0, "popularity": 0.84}, {"adult": false, "backdrop_path": "/fFAdS9rKuy582B2bE5Zq6ep1wsy.jpg", "genre_ids": [18], "id": 508238, "original_language": "ml", "original_title": "\u0d15\u0d28\u0d4d\u0d2f\u0d15", "overview": "In the 90\u2019s in a convent in Kerala, Sister Philomena is seriously ill while all the others are preparing for the anniversary of the convent school. Sister Nirmala who looks after sister Philomina is assigned to be with the actress Urvasi, the chief guest for the function. Sister Nirmala\u2019s happiness has no bounds as it the same actress she has a deep fascination for, which the rest of the convent is not aware of. Things take a decisive turn when, on the day of the anniversary sister Nirmala is asked to stay back and look after Sister Philomina whose condition has unexpectedly deteriorated.", "poster_path": "/vXzy4WUC3drv3sbp4u78YRMgZlM.jpg", "release_date": "2014-01-01", "title": "Virgin", "video": false, "vote_average": 7.0, "vote_count": 1, "popularity": 1.4}, {"adult": false, "backdrop_path": "/1RTiQXeHoEMXkZNWaB8W5uaEZ2.jpg", "genre_ids": [18], "id": 205220, "original_language": "en", "original_title": "Philomena", "overview": "A woman searches for her adult son, who was taken away from her decades ago when she was forced to live in a convent.", "poster_path": "/6BTXHupSPkrwsoz4Br6qwwSVmhj.jpg", "release_date": "2013-11-01", "title": "Philomena", "video": false, "vote_average": 7.4, "vote_count": 1043, "popularity": 12.553}, {"id": 10320, "video": false, "vote_count": 1373, "vote_average": 5.6, "title": "The Ring Two", "release_date": "2005-03-17", "original_language": "en", "original_title": "The Ring Two", "genre_ids": [18, 27, 53], "backdrop_path": "/3UPGMO3KqxpBHkAinXr4fknjDV0.jpg", "adult": false, "overview": "Rachel Keller must prevent evil Samara from taking possession of her son's soul.", "poster_path": "/mYZdcd5XeZkye72oQejkLuAGI7q.jpg", "popularity": 12.698}, {"id": 687, "video": false, "vote_count": 729, "vote_average": 7.4, "title": "Dead Man Walking", "release_date": "1995-12-29", "original_language": "en", "original_title": "Dead Man Walking", "genre_ids": [18], "backdrop_path": "/f6WMgACY6VQnGpz9L4eQ3hkfcJE.jpg", "adult": false, "overview": "A justice drama based on a true story about a man on death row who in his last days forms a strong relationship with a nun who teaches him forgiveness and gives him spirituality as she accompanies him to his execution.", "poster_path": "/jAuo0Buh8wSOrAnUoiwrJIuOs0q.jpg", "popularity": 10.74}, {"id": 6279, "video": false, "vote_count": 970, "vote_average": 6.3, "title": "Sister Act 2: Back in the Habit", "release_date": "1993-12-09", "original_language": "en", "original_title": "Sister Act 2: Back in the Habit", "genre_ids": [35, 10402], "backdrop_path": "/tCAvkUjZqUVWBo2zHIuNKnSTsdU.jpg", "adult": false, "overview": "Deloris Van Cartier is again asked to don the nun's habit to help a run-down Catholic school, presided over by Mother Superior. And if trying to reach out to a class full of uninterested students wasn't bad enough, the sisters discover that the school is due to be closed by the unscrupulous chief of a local authority.", "poster_path": "/tLbvfUYw8Pr7DMI5TGL5DX1bx5S.jpg", "popularity": 15.997}, {"id": 9353, "video": false, "vote_count": 704, "vote_average": 5.6, "title": "Nacho Libre", "release_date": "2006-06-16", "original_language": "en", "original_title": "Nacho Libre", "genre_ids": [35, 10751], "backdrop_path": "/cb73g9x8mUyxkW0G13wkGo4UoMG.jpg", "adult": false, "overview": "Nacho Libre is loosely based on the story of Fray Tormenta (\"Friar Storm\"), aka Rev. Sergio Gutierrez Benitez, a real-life Mexican Catholic priest who had a 23-year career as a masked luchador. He competed in order to support the orphanage he directed.", "poster_path": "/lNue9evMBzqjWE4tJmUegkep8Qs.jpg", "popularity": 14.828}, {"adult": false, "backdrop_path": "/r6oKQpYLQEGLqCsUmKqGZbWovOB.jpg", "genre_ids": [18], "id": 209274, "original_language": "pl", "original_title": "Ida", "overview": "Anna, a young novitiate in 1960s Poland, is on the verge of taking her vows when she discovers a family secret dating back to the years of the German occupation.", "poster_path": "/aO8dgaxaY1tcAdtFkLuz1WSxgdd.jpg", "release_date": "2013-10-25", "title": "Ida", "video": false, "vote_average": 7.3, "vote_count": 514, "popularity": 9.956}, {"id": 411873, "video": false, "vote_count": 231, "vote_average": 5.6, "title": "The Little Hours", "release_date": "2017-06-30", "original_language": "en", "original_title": "The Little Hours", "genre_ids": [35], "backdrop_path": "/y46tBWteRfg5I3gkjNGqhy6qXmx.jpg", "adult": false, "overview": "A young servant fleeing from his master takes refuge at a convent full of emotionally unstable nuns in the middle ages.", "poster_path": "/wS69OOwBJzimoLIcmYMSVkmhCZM.jpg", "popularity": 11.953}, {"adult": false, "backdrop_path": "/9MniRAXnacFcARalrfqpEAFWYPP.jpg", "genre_ids": [18, 28, 35, 53, 80], "id": 26715, "original_language": "en", "original_title": "Bitch Slap", "overview": "Three bad girls (a down-and-out stripper, a drug-running killer and a corporate powerbroker) arrive at a remote desert hideaway to extort and steal $200 million in diamonds from a ruthless underworld kingpin.", "poster_path": "/s6bvosVfeLUBMgFz0GCxqZAUz3i.jpg", "release_date": "2009-05-16", "title": "Bitch Slap", "video": false, "vote_average": 4.8, "vote_count": 162, "popularity": 17.768}, {"id": 33583, "video": false, "vote_count": 131, "vote_average": 7.1, "title": "The Decameron", "release_date": "1971-01-01", "original_language": "it", "original_title": "Il Decameron", "genre_ids": [35, 18, 36], "backdrop_path": "/c1K4xKl5s9RPItQ6DY9Pxoym12Q.jpg", "adult": false, "overview": "An adaptation of nine stories from Bocaccio's \"Decameron\": A young Sicilian is swindled twice, but ends up rich; a man poses as a deaf-mute in a convent of curious nuns; a woman must hide her lover when her husband comes home early; a scoundrel fools a priest on his deathbed; three brothers take revenge on their sister's lover; a young girl sleeps on the roof to meet her boyfriend at night; a group of painters wait for inspiration; a crafty priest attempts to seduce his friend's wife; and two friends make a pact to find out what happens after death. Pasolini is up to his old tricks satirizing the Church, and throwing in liberal doses of life and love", "poster_path": "/iL5mmuIL6fqFSWJeHE417WWrocz.jpg", "popularity": 10.764}, {"adult": false, "backdrop_path": "/z3s3TdRvEWC1TFrwtk0qhB7OdHh.jpg", "genre_ids": [27, 53], "id": 12662, "original_language": "en", "original_title": "Psycho III", "overview": "Norman Bates is still running his little motel, and he has kept the dressed skeleton he calls 'mother'. One day a nosey journalist comes to see him to ask questions about his past.", "poster_path": "/etiLhEebRnFExeb70COwqqeO8Kd.jpg", "release_date": "1986-04-02", "title": "Psycho III", "video": false, "vote_average": 5.6, "vote_count": 173, "popularity": 9.895}, {"id": 546251, "video": false, "vote_count": 1, "vote_average": 0.0, "title": "A Rose in Winter", "release_date": "2019-09-07", "original_language": "en", "original_title": "A Rose in Winter", "genre_ids": [18], "backdrop_path": null, "adult": false, "overview": "", "poster_path": "/wuerACGckmNNNCdKnc0rQ4MAdJG.jpg", "popularity": 0.788}], "total_pages": 9, "total_results": 179}, "recommendations": {"page": 1, "results": [{"adult": false, "backdrop_path": "/bYtG9W83NcjCTUhzGAA5RIg5HR1.jpg", "genre_ids": [], "id": 303405, "original_language": "it", "original_title": "Buongiorno, elefante!", "overview": "Vittorio De Sica is a teacher struggling to take care of his family and always dreaming that Parliament will increase the salaries for teachers and life will become easier for his wife, Maria Mereander, and kids. An Indian prince (Sabu) visits Italy, is assisted by the teacher and gives De Sica a baby elephant as a reward. This upsets the landlord, Nando Bruno, the other tenants, and the neighborhood. He takes the elephant away but, like Lassie, it comes home.", "poster_path": "/raxON4Q71S7hHEaRXhjRXBzQIrd.jpg", "release_date": "1953-02-23", "title": "Hello Elephant", "video": false, "vote_average": 5.3, "vote_count": 3, "popularity": 0.947}, {"adult": false, "backdrop_path": "/iWEs8X5gm5QNa5AJilTRFZPoVbj.jpg", "genre_ids": [18], "id": 164124, "original_language": "it", "original_title": "Sangue - La morte non esiste", "overview": "Iuri and Stella are two brothers with a strange relationship.", "poster_path": "/vhI6Y9mTXdjZl1M9q0wYywXxHqz.jpg", "release_date": "2005-08-01", "title": "Sangue - La morte non esiste", "video": false, "vote_average": 5.8, "vote_count": 8, "popularity": 0.831}, {"adult": false, "backdrop_path": "/169QS2NXPg5iT4QrmVnr44qgmEY.jpg", "genre_ids": [], "id": 59264, "original_language": "it", "original_title": "Silvio Forever", "overview": "", "poster_path": "/dVGlNQuiHJTmfdyMYtPjAqUDCqG.jpg", "release_date": "2011-03-25", "title": "Silvio Forever", "video": false, "vote_average": 6.1, "vote_count": 9, "popularity": 1.318}, {"adult": false, "backdrop_path": "/wfu2AYL2nJOlJe3nNsQztcmeG2C.jpg", "genre_ids": [35], "id": 282888, "original_language": "it", "original_title": "Dar\u00f2 un milione", "overview": "A comedy about a hobo and a millionaire who swap roles after the millionaire rescues the hobo from a suicide attempt.", "poster_path": "/rTi55zAWTsdkNxxlnT3hknxJGsM.jpg", "release_date": "1935-01-02", "title": "I'll Give a Million", "video": false, "vote_average": 6.9, "vote_count": 9, "popularity": 1.565}, {"adult": false, "backdrop_path": "/gozDBTt4RsbBsq9pxM6gaH0qDCg.jpg", "genre_ids": [35, 10749], "id": 63182, "original_language": "it", "original_title": "Gli uomini, che mascalzoni!", "overview": "Bruno, a chauffeur having some problem in keeping a job, meets one morning Mariuccia, a taxi driver\u2019s daughter working as a perfumery\u2019s shop assistant, and trying to impress her, pretending to be rich, uses his employer\u2019s car to took her on a trip to the lakes, but things don\u2019t work as planned and to conquer Mariuccia\u2019s hearth won\u2019t be so easy\u2026", "poster_path": "/VlNkSV2ZEK7hzyNhGSGx12EzK5.jpg", "release_date": "1932-10-14", "title": "What Scoundrels Men Are!", "video": false, "vote_average": 6.9, "vote_count": 9, "popularity": 1.4}, {"id": 58185, "video": false, "vote_count": 13, "vote_average": 6.7, "title": "The Last Judgment", "release_date": "1961-10-26", "original_language": "it", "original_title": "Il giudizio universale", "genre_ids": [35], "backdrop_path": "/w8xNCtDq5U774EEErZOTA9FElgT.jpg", "adult": false, "overview": "The Last Judgement (Italian: Il giudizio universale) is a 1961 commedia all'italiana film by Italian director Vittorio De Sica. It was coproduced with France.  It has an all-star Italian and international cast, including Americans Jack Palance, Ernest Borgnine; Greek Melina Mercouri and French Fernandel, Anouk Aim\u00e9e and Lino Ventura.  The film was a huge flop, massacred by critics and audiences when it was released. It was filmed in black and white, but the last sequence, the dance at theatre, is in color.", "poster_path": "/7sDomuB4o5IgrhLxfwkqT6UIbXN.jpg", "popularity": 2.114}, {"adult": false, "backdrop_path": "/7Oc32k3fDyyIB8GDpga3dwzpa5s.jpg", "genre_ids": [28, 35, 80], "id": 82805, "original_language": "it", "original_title": "Piano 17", "overview": "Mancini has to place a bomb inside a large bank to destroy some important documents inconvenient for a shady client.", "poster_path": "/xTrGu6V486bDG7Gz6hKxHm74bPV.jpg", "release_date": "2006-03-16", "title": "Floor 17", "video": false, "vote_average": 6.1, "vote_count": 13, "popularity": 2.078}], "total_pages": 1, "total_results": 7}, "credits": {"cast": [{"cast_id": 8, "character": "Count Franco Amidei", "credit_id": "53a6e09fc3a3687a340034da", "gender": 0, "id": 523670, "name": "Leonardo Cortese", "order": 1, "profile_path": null}, {"cast_id": 9, "character": "Mariella Dominiani", "credit_id": "53a6e0b3c3a3687a31003544", "gender": 1, "id": 1158360, "name": "Mar\u00eda Mercader", "order": 2, "profile_path": "/dwJugZQExnFb5QCsStvzX9WvCPW.jpg"}, {"cast_id": 10, "character": "Caterinetta Bellelli", "credit_id": "53a6e0c5c3a368707a002919", "gender": 0, "id": 233183, "name": "Carla Del Poggio", "order": 3, "profile_path": null}, {"cast_id": 11, "character": "Tiepolo, the guardian of the convent", "credit_id": "53a6e0dcc3a3687a2e0034f4", "gender": 0, "id": 1116071, "name": "Fausto Guerzoni", "order": 4, "profile_path": "/4EAxlTo3elngDE9Uq3mHzhyEArQ.jpg"}, {"cast_id": 12, "character": "the Marquise Dominiani", "credit_id": "53a6e0f4c3a3687a2e0034fa", "gender": 0, "id": 1333205, "name": "Olga Vittoria Gentilli", "order": 5, "profile_path": null}, {"cast_id": 13, "character": "Giacinto Bellelli", "credit_id": "53a6e108c3a3687495002a3f", "gender": 0, "id": 1135563, "name": "Federico Collino", "order": 6, "profile_path": null}, {"cast_id": 14, "character": "Geltrude Corbetti", "credit_id": "53a6e11dc3a3687a340034df", "gender": 0, "id": 1189934, "name": "Clara Auteri Pepe", "order": 7, "profile_path": "/cpHE7DpQXxGT9drvwNZg9Ly6D90.jpg"}, {"cast_id": 15, "character": "Nino Bixio", "credit_id": "53a6e147c3a3687a340034e4", "gender": 2, "id": 12329, "name": "Vittorio De Sica", "order": 8, "profile_path": "/spF2PL5J6ahWLCu8SyIGhwtLrkV.jpg"}], "crew": [{"credit_id": "5812df92c3a368798a01f735", "department": "Sound", "gender": 2, "id": 4416, "job": "Original Music Composer", "name": "Renzo Rossellini", "profile_path": null}, {"credit_id": "53a6e01ac3a3687a4300342c", "department": "Writing", "gender": 2, "id": 12329, "job": "Screenplay", "name": "Vittorio De Sica", "profile_path": "/spF2PL5J6ahWLCu8SyIGhwtLrkV.jpg"}, {"credit_id": "53a6e010c3a3687a340034cc", "department": "Directing", "gender": 2, "id": 12329, "job": "Director", "name": "Vittorio De Sica", "profile_path": "/spF2PL5J6ahWLCu8SyIGhwtLrkV.jpg"}, {"credit_id": "5812e06cc3a368747701be1f", "department": "Directing", "gender": 0, "id": 543084, "job": "Assistant Director", "name": "Alberto Vecchietti", "profile_path": null}, {"credit_id": "53a6e029c3a3687a2e0034e3", "department": "Writing", "gender": 0, "id": 550289, "job": "Screenplay", "name": "Giuseppe Zucca", "profile_path": null}, {"credit_id": "5812e032c3a368795501f0d0", "department": "Art", "gender": 0, "id": 989154, "job": "Production Design", "name": "Veniero Colasanti", "profile_path": null}, {"credit_id": "5812e03ec3a368795501f0d5", "department": "Costume & Make-Up", "gender": 0, "id": 989154, "job": "Costume Design", "name": "Veniero Colasanti", "profile_path": null}, {"credit_id": "5812e038c3a3687b1801d712", "department": "Art", "gender": 0, "id": 989154, "job": "Art Direction", "name": "Veniero Colasanti", "profile_path": null}, {"credit_id": "53a6e04dc3a3687a43003431", "department": "Writing", "gender": 0, "id": 1009150, "job": "Screenplay", "name": "Adolfo Franci", "profile_path": null}, {"credit_id": "5812df98c3a3687b1801d6ca", "department": "Camera", "gender": 0, "id": 1086999, "job": "Director of Photography", "name": "Alberto Fusi", "profile_path": null}, {"credit_id": "53a6e03ec3a3687a31003533", "department": "Writing", "gender": 0, "id": 1186405, "job": "Screenplay", "name": "Margherita Maglione", "profile_path": null}, {"credit_id": "5812e05dc3a368798d01cb16", "department": "Production", "gender": 0, "id": 1321494, "job": "Production Manager", "name": "Baldassarre Negroni", "profile_path": null}, {"credit_id": "5812df9fc3a3687aa0020ff3", "department": "Editing", "gender": 0, "id": 1323271, "job": "Editor", "name": "Mario Bonotti", "profile_path": null}, {"credit_id": "5812e04d925141579b01f4e6", "department": "Production", "gender": 0, "id": 1333202, "job": "Production Supervisor", "name": "Renato Angiolillo", "profile_path": null}, {"credit_id": "53a6e05dc3a3687a2e0034ea", "department": "Writing", "gender": 0, "id": 1333202, "job": "Story", "name": "Renato Angiolillo", "profile_path": null}, {"credit_id": "53a6e071c3a3687495002a33", "department": "Production", "gender": 0, "id": 1333203, "job": "Producer", "name": "Mario Borghi", "profile_path": null}, {"credit_id": "5812e046925141543e021396", "department": "Costume & Make-Up", "gender": 0, "id": 1700674, "job": "Makeup Artist", "name": "Mario Giuseppe Paoletti", "profile_path": null}, {"credit_id": "5812e054c3a3687a8d01ee20", "department": "Production", "gender": 0, "id": 1700675, "job": "Unit Manager", "name": "Mario Morante", "profile_path": null}, {"credit_id": "5812e065925141579e01f337", "department": "Production", "gender": 0, "id": 1700676, "job": "Unit Manager", "name": "Gianni Trapanese", "profile_path": null}, {"credit_id": "5812e073c3a3687a9d020470", "department": "Directing", "gender": 0, "id": 1700677, "job": "Assistant Director", "name": "Michele Gandin", "profile_path": null}]}}