{"adult": false, "backdrop_path": "/ug3igTwkJUAgfYdJJ9ggtt9cFK6.jpg", "belongs_to_collection": null, "budget": 0, "genres": [{"id": 27, "name": "Horror"}], "homepage": null, "id": 27881, "imdb_id": "tt0088454", "original_language": "en", "original_title": "Zombie Island Massacre", "overview": "Americans on vacation in the Caribbean take a tour of a nearby island at night and watch a local voodoo ritual. Soon after, they find themselves stranded on the island and under attack by unseen foes. One by one they meet violent ends.", "popularity": 2.891, "poster_path": "/kF4kYPL0KtfW4DJBRIcmeKDqSiy.jpg", "production_companies": [{"id": 3052, "logo_path": null, "name": "Troma Entertainment", "origin_country": ""}], "production_countries": [{"iso_3166_1": "US", "name": "United States of America"}], "release_date": "1984-11-20", "revenue": 0, "runtime": 95, "spoken_languages": [{"iso_639_1": "de", "name": "Deutsch"}, {"iso_639_1": "en", "name": "English"}], "status": "Released", "tagline": "HAVE A FUN-FILLED VACATION! Toe-Tapping Machete Head Dances! Glamourous Zombie-Style Cosmetic Surgery! Fabulous Air-Conditioned Tiger Pits!", "title": "Zombie Island Massacre", "video": false, "vote_average": 3.0, "vote_count": 13, "keywords": {"keywords": [{"id": 2041, "name": "island"}, {"id": 3392, "name": "voodoo"}, {"id": 12377, "name": "zombie"}]}, "similar": {"page": 1, "results": [{"id": 10925, "video": false, "vote_count": 551, "vote_average": 7.3, "title": "The Return of the Living Dead", "release_date": "1985-04-25", "original_language": "en", "original_title": "The Return of the Living Dead", "genre_ids": [35, 27], "backdrop_path": "/jA34vdJCxOZUoi4khkfhq1pX3WG.jpg", "adult": false, "overview": "When a bumbling pair of employees at a medical supply warehouse accidentally release a deadly gas into the air, the vapors cause the dead to re-animate as they go on a rampage seeking their favorite food: brains!", "poster_path": "/1vydUitzC8W8W5oNevEArCltydJ.jpg", "popularity": 12.17}, {"id": 8408, "video": false, "vote_count": 568, "vote_average": 7.0, "title": "Day of the Dead", "release_date": "1985-07-19", "original_language": "en", "original_title": "Day of the Dead", "genre_ids": [27, 878], "backdrop_path": "/pWaXoU1aqD2KpMVLt4E9ZmKQXIk.jpg", "adult": false, "overview": "Trapped in a missile silo, a small team of scientists, civilians and trigger-happy soldiers battle desperately to ensure the survival of the human race. However, the tension inside the base is reaching a breaking point, and the zombies are gathering outside.", "poster_path": "/yJ2emwXWwQc6VHW3fO4GZr0hXBt.jpg", "popularity": 11.747}, {"adult": false, "backdrop_path": "/eHaGbnX2kukzcYGOpNF3YLPmOG5.jpg", "genre_ids": [27, 35], "id": 16281, "original_language": "en", "original_title": "Creepshow", "overview": "Inspired by the E.C. comics of the 1950s, George A. Romero and Stephen King bring five tales of terror to the screen.", "poster_path": "/hgKeTL416BPzLZntcsD1k7mNFRN.jpg", "release_date": "1982-11-12", "title": "Creepshow", "video": false, "vote_average": 6.8, "vote_count": 458, "popularity": 15.192}, {"id": 6479, "video": false, "vote_count": 9810, "vote_average": 7.1, "title": "I Am Legend", "release_date": "2007-12-14", "original_language": "en", "original_title": "I Am Legend", "genre_ids": [28, 18, 27, 878, 53], "backdrop_path": "/u6Qg7TH7Oh1IFWCQSRr4htFFt0A.jpg", "adult": false, "overview": "Robert Neville is a scientist who was unable to stop the spread of the terrible virus that was incurable and man-made. Immune, Neville is now the last human survivor in what is left of New York City and perhaps the world. For three years, Neville has faithfully sent out daily radio messages, desperate to find any other survivors who might be out there. But he is not alone.", "poster_path": "/9skUuHTFtsJznuFPwmB17ZZvq09.jpg", "popularity": 24.782}, {"id": 72190, "video": false, "vote_count": 9915, "vote_average": 6.7, "title": "World War Z", "release_date": "2013-06-20", "original_language": "en", "original_title": "World War Z", "genre_ids": [28, 18, 27, 878, 53], "backdrop_path": "/xMOQVYLeIKBXenJ9KMeasj7S64y.jpg", "adult": false, "overview": "Life for former United Nations investigator Gerry Lane and his family seems content. Suddenly, the world is plagued by a mysterious infection turning whole human populations into rampaging mindless zombies. After barely escaping the chaos, Lane is persuaded to go on a mission to investigate this disease. What follows is a perilous trek around the world where Lane must brave horrific dangers and long odds to find answers before human civilization falls.", "poster_path": "/Ha5t0J21eyiq6Az1EXzx0iwsGH.jpg", "popularity": 29.165}, {"id": 747, "video": false, "vote_count": 5107, "vote_average": 7.5, "title": "Shaun of the Dead", "release_date": "2004-04-09", "original_language": "en", "original_title": "Shaun of the Dead", "genre_ids": [35, 27], "backdrop_path": "/50mMiR0R1QclaAODTutwXBrReLJ.jpg", "adult": false, "overview": "Shaun lives a supremely uneventful life, which revolves around his girlfriend, his mother, and, above all, his local pub. This gentle routine is threatened when the dead return to life and make strenuous attempts to snack on ordinary Londoners.", "poster_path": "/2evlcGnsfdFWLb7geNlIjIewc0Q.jpg", "popularity": 26.09}, {"adult": false, "backdrop_path": "/5RPXs9g0sZ9Woo4pNLxdXdge7tc.jpg", "genre_ids": [14, 27, 35], "id": 766, "original_language": "en", "original_title": "Army of Darkness", "overview": "A man is accidentally transported to 1300 A.D., where he must battle an army of the dead and retrieve the Necronomicon so he can return home.", "poster_path": "/2eZKDIwLNnySbwqQtAaUz0kYDIL.jpg", "release_date": "1992-10-09", "title": "Army of Darkness", "video": false, "vote_average": 7.3, "vote_count": 1661, "popularity": 18.482}, {"id": 338967, "video": false, "vote_count": 1153, "vote_average": 7.0, "title": "Zombieland: Double Tap", "release_date": "2019-10-09", "original_language": "en", "original_title": "Zombieland: Double Tap", "genre_ids": [28, 35, 27], "backdrop_path": "/3ghImmHdp4RnC3UkL6hpLayclnb.jpg", "adult": false, "overview": "Columbus, Tallahassee, Wichita, and Little Rock move to the American heartland as they face off against evolved zombies, fellow survivors, and the growing pains of the snarky makeshift family.", "poster_path": "/dtRbVsUb5O12WWO54SRpiMtHKC0.jpg", "popularity": 75.447}, {"id": 19908, "video": false, "vote_count": 7597, "vote_average": 7.2, "title": "Zombieland", "release_date": "2009-10-07", "original_language": "en", "original_title": "Zombieland", "genre_ids": [35, 27], "backdrop_path": "/lLgLFzSZduH9kBxrk6BvoHc1gg0.jpg", "adult": false, "overview": "Columbus has made a habit of running from what scares him. Tallahassee doesn't have fears. If he did, he'd kick their ever-living ass. In a world overrun by zombies, these two are perfectly evolved survivors. But now, they're about to stare down the most terrifying prospect of all: each other.", "poster_path": "/vUzzDpVrab1BOG3ogxhRGfLN94d.jpg", "popularity": 33.317}, {"adult": false, "backdrop_path": "/nESF8Tw4BYnDy8PUDkF5SLIlzTJ.jpg", "genre_ids": [27, 53, 878], "id": 170, "original_language": "en", "original_title": "28 Days Later", "overview": "Twenty-eight days after a killer virus was accidentally unleashed from a British research facility, a small group of London survivors are caught in a desperate struggle to protect themselves from the infected. Carried by animals and humans, the virus turns those it infects into homicidal maniacs -- and it's absolutely impossible to contain.", "poster_path": "/xaYdxi1PBEAYvqknvAmMPK5Eff3.jpg", "release_date": "2002-10-31", "title": "28 Days Later", "video": false, "vote_average": 7.2, "vote_count": 3664, "popularity": 21.73}, {"id": 485415, "video": false, "vote_count": 276, "vote_average": 4.1, "title": "Day of the Dead: Bloodline", "release_date": "2018-01-04", "original_language": "en", "original_title": "Day of the Dead: Bloodline", "genre_ids": [28, 27], "backdrop_path": "/1CKntz5l7oblq2RYligHHvY64sh.jpg", "adult": false, "overview": "In a world overrun by zombies, military personnel and survivalists live in an underground bunker while they seek a cure.", "poster_path": "/3jM4C1wJxHLWlF4tcSyyv6fnJPR.jpg", "popularity": 16.408}, {"adult": false, "backdrop_path": "/5CPIk2eE3Nk4UPwx5HCHKDdIiJs.jpg", "genre_ids": [35, 27, 878], "id": 11429, "original_language": "en", "original_title": "Beyond Re-Animator", "overview": "Once again tampering with mother nature to disastrous results, Dr. Herbert West continues his research while serving time in a maximum security prison for his previous exploits. West's limited prison-cell experiments are suddenly interrupted by the arrival of a new prison doctor and the brother of the girl who suffered from West's experiments 13 years earlier.", "poster_path": "/7K8odajc1QUaeOtD5XvlBiWzypQ.jpg", "release_date": "2003-04-04", "title": "Beyond Re-Animator", "video": false, "vote_average": 5.5, "vote_count": 123, "popularity": 9.466}, {"adult": false, "backdrop_path": "/pAD4FAkCERB3sDprJM4f5YaKL3v.jpg", "genre_ids": [27, 35], "id": 24935, "original_language": "en", "original_title": "Return of the Living Dead: Necropolis", "overview": "A group of teenagers who, in an attempt to rescue their friend from an evil corporation, end up releasing a horde of blood thirsty zombies.", "poster_path": "/wez633rPnd9x4xObQwRHmOOM5sE.jpg", "release_date": "2005-10-15", "title": "Return of the Living Dead: Necropolis", "video": false, "vote_average": 3.6, "vote_count": 56, "popularity": 9.475}, {"id": 1562, "video": false, "vote_count": 2398, "vote_average": 6.5, "title": "28 Weeks Later", "release_date": "2007-04-26", "original_language": "en", "original_title": "28 Weeks Later", "genre_ids": [27, 878, 53], "backdrop_path": "/q4GEKbi4ZO2lhZJg0Zr6kYNKQgm.jpg", "adult": false, "overview": "The inhabitants of the British Isles have lost their battle against the onslaught of disease, as the deadly rage virus has killed every citizen there. Six months later, a group of Americans dare to set foot on the isles, convinced the danger has come and gone. But it soon becomes all too clear that the scourge continues to live, waiting to pounce on its next victims.", "poster_path": "/bElOpwpp45BGMWrMBdZAy9j3Vx7.jpg", "popularity": 28.235}, {"id": 9312, "video": false, "vote_count": 1039, "vote_average": 5.7, "title": "Mortal Kombat", "release_date": "1995-08-18", "original_language": "en", "original_title": "Mortal Kombat", "genre_ids": [28, 14], "backdrop_path": "/mOIvM0pQA7J9I0Caai0zTPxnE3f.jpg", "adult": false, "overview": "For nine generations an evil sorcerer has been victorious in hand-to-hand battle against his mortal enemies. If he wins a tenth Mortal Kombat tournament, desolation and evil will reign over the multiverse forever. To save Earth, three warriors must overcome seemingly insurmountable odds, their own inner demons, and superhuman foes in this action/adventure movie based on one of the most popular video games of all time.", "poster_path": "/aQarGLCGr9ueYuwh9EXz3DfeEd9.jpg", "popularity": 13.207}, {"id": 294254, "video": false, "vote_count": 6847, "vote_average": 6.6, "title": "Maze Runner: The Scorch Trials", "release_date": "2015-09-09", "original_language": "en", "original_title": "Maze Runner: The Scorch Trials", "genre_ids": [28, 878, 53], "backdrop_path": "/iapRFMGKvN9tsjqPlN7MIDTCezG.jpg", "adult": false, "overview": "Thomas and his fellow Gladers face their greatest challenge yet: searching for clues about the mysterious and powerful organization known as WCKD. Their journey takes them to the Scorch, a desolate landscape filled with unimaginable obstacles. Teaming up with resistance fighters, the Gladers take on WCKD\u2019s vastly superior forces and uncover its shocking plans for them all.", "poster_path": "/vlTPQANjLYTebzFJM1G4KeON0cb.jpg", "popularity": 24.153}, {"adult": false, "backdrop_path": "/bvbyidkMaBls1LTaIWYY6UmYTaL.jpg", "genre_ids": [28, 878], "id": 336843, "original_language": "en", "original_title": "Maze Runner: The Death Cure", "overview": "Thomas leads his group of escaped Gladers on their final and most dangerous mission yet. To save their friends, they must break into the legendary Last City, a WCKD-controlled labyrinth that may turn out to be the deadliest maze of all. Anyone who makes it out alive will get answers to the questions the Gladers have been asking since they first arrived in the maze.", "poster_path": "/2zYfzA3TBwrMC8tfFbpiTLODde0.jpg", "release_date": "2018-01-10", "title": "Maze Runner: The Death Cure", "video": false, "vote_average": 7.0, "vote_count": 4393, "popularity": 24.242}, {"id": 27130, "video": false, "vote_count": 112, "vote_average": 6.9, "title": "I Walked with a Zombie", "release_date": "1943-04-21", "original_language": "en", "original_title": "I Walked with a Zombie", "genre_ids": [18, 14, 27], "backdrop_path": "/gNLoch27EP2w1ezFQQCcqQnZivq.jpg", "adult": false, "overview": "A nurse in the Caribbean turns to voodoo in hopes of curing her patient, an unusual woman whose husband she's fallen in love with.", "poster_path": "/uoyBR8XNxPQRojujtczfG1qJezY.jpg", "popularity": 8.853}, {"adult": false, "backdrop_path": "/7GR03LqwB7ePPPhaK5BAYNzt3Vm.jpg", "genre_ids": [27, 35, 14, 10402], "id": 461928, "original_language": "en", "original_title": "Anna and the Apocalypse", "overview": "A zombie apocalypse threatens the sleepy town of Little Haven \u2013 at Christmas \u2013 forcing Anna and her friends to fight, slash and sing their way to survival, facing the undead in a desperate race to reach their loved ones. But they soon discover that no one is safe in this new world, and with civilization falling apart around them, the only people they can truly rely on are each other.", "poster_path": "/36HmDXMzeLpTPEhjEbpzI3Kv4Vk.jpg", "release_date": "2018-11-30", "title": "Anna and the Apocalypse", "video": false, "vote_average": 6.2, "vote_count": 104, "popularity": 8.877}, {"adult": false, "backdrop_path": "/uZVs1cX00LBKcLMWrmCsZznCuGu.jpg", "genre_ids": [18, 27, 878], "id": 338676, "original_language": "en", "original_title": "Extinction", "overview": "And suddenly, overnight, the world came to a halt. Two men, two survivors, one kid, and hatred that separates them. A place forgotten by everyone, including the creatures that inhabit the Earth... until now.", "poster_path": "/xEoleA3nm71cE7wiu4IXfk7yH8K.jpg", "release_date": "2015-08-07", "title": "Extinction", "video": false, "vote_average": 5.7, "vote_count": 342, "popularity": 8.786}], "total_pages": 98, "total_results": 1957}, "recommendations": {"page": 1, "results": [{"adult": false, "backdrop_path": null, "genre_ids": [], "id": 143223, "original_language": "en", "original_title": "Fatty Drives the Bus", "overview": "Oh no! It appears as if Satan isn't going to fill his soul quota this month! So of course, he turns himself into a tour guide and takes a bus-load of unsuspecting tourists on a ride down the highway to hell.", "poster_path": "/bQXfsWcpybm8KP12XPqSFkqS2Vs.jpg", "release_date": "1999-03-14", "title": "Fatty Drives the Bus", "video": false, "vote_average": 3.3, "vote_count": 3, "popularity": 1.4}, {"adult": false, "backdrop_path": "/35Dg69ZYggNSNbd3T9on08cYU3W.jpg", "genre_ids": [53, 9648], "id": 48251, "original_language": "en", "original_title": "The Triumph of Sherlock Holmes", "overview": "Holmes, retired to Sussex, is drawn into a last case when.arch enemy Moriarty arranges with an American gang to kill one John Douglas, a country gentleman with a mysterious past. Holmes' methods baffle Watson and Lestrade, but his results astonish them. In a long flashback, the victim's wife tells the story of the sinister Vermissa Valley.", "poster_path": "/l56AbHJ6ZW6RJA69yfIjeaTpvWQ.jpg", "release_date": "1935-03-24", "title": "The Triumph of Sherlock Holmes", "video": false, "vote_average": 4.8, "vote_count": 4, "popularity": 1.955}, {"adult": false, "backdrop_path": null, "genre_ids": [28, 53], "id": 122888, "original_language": "en", "original_title": "Moving Target", "overview": "Don \"The Dragon\" Wilson stars in this action drama as a tourist who, through no fault of his own, finds himself on the run from a gang of terrorists, international espionage agents, and the police. Accused of a murder he didn't commit, the man struggles to keep himself alive as he tries to clear his name and find the identity of the real killer. Moving Target also features Bill Murphy, Hilary Kavanagh, and Terry McMahon. ~ Mark Deming, Rovi", "poster_path": "/3TbIYZTP8Ycyu8JmbOZ3vouUsA5.jpg", "release_date": "2000-05-30", "title": "Moving Target", "video": false, "vote_average": 4.8, "vote_count": 4, "popularity": 2.156}, {"adult": false, "backdrop_path": "/8PRLYl5PRD5sAqTsPXuerKWfVZB.jpg", "genre_ids": [27], "id": 132802, "original_language": "en", "original_title": "Hellblock 13", "overview": "In a haunted death row cellblock, a deranged female serial killer reads a trio of twisted tales to her executioner.", "poster_path": "/bR8c21jRGSGpQiu2wfxI7MnSdJz.jpg", "release_date": "1999-11-24", "title": "Hellblock 13", "video": false, "vote_average": 3.8, "vote_count": 4, "popularity": 1.7}, {"id": 78250, "video": false, "vote_count": 7, "vote_average": 2.1, "title": "Blood Shack", "release_date": "1971-01-01", "original_language": "en", "original_title": "Blood Shack", "genre_ids": [27], "backdrop_path": "/qzOw3bkZ0S8tVeX8jSDHtlWor5O.jpg", "adult": false, "overview": "A woman inherits an abandoned ranch whose estate is said to be haunted by \"the Chooper,\" the sword-wielding ghost of a vengeance-seeking Indian, in this Ray Dennis Steckler shocker.", "poster_path": "/1opwzxVPBtzvnh1RL3Hqmq1dGlh.jpg", "popularity": 3.69}, {"adult": false, "backdrop_path": null, "genre_ids": [27, 35], "id": 235746, "original_language": "en", "original_title": "Sucker: The Vampire", "overview": "Working as henchman to the lead singer of the vampire rock group \"Plasma\", Reed Buccholz's [Mex Erkiletian] job has definite high points, like finding sexy girls to bring home for Anthony [Yan Birch] and being able to photograph and have sex with their blood-drained bodies prior to disposing of them in the morgue of the hospital where Reed holds a daytime job as a nurse. Vampire hunter Vanessa Helsing [Monica Baber] has dedicated her life to destroying vampires, in particular Anthony, the vampire who killed her famous father. So far, she has managed to destroy Seth and Tobin, the band's lead guitarist and drummer, but she hasn't gotten to Anthony yet.", "poster_path": "/qMjsZwSvxVAN8hYgDdE71saOcLf.jpg", "release_date": "1998-01-22", "title": "Sucker: The Vampire", "video": false, "vote_average": 3.2, "vote_count": 6, "popularity": 1.232}, {"adult": false, "backdrop_path": "/uaeTTATDSyVGpWbiogCFsfKS9Ee.jpg", "genre_ids": [27], "id": 84372, "original_language": "fr", "original_title": "Terreur cannibale", "overview": "After botching a kidnapping, two criminals hide with their victim in a friends house in the jungle. After one of them rapes the friend's wife, they're left to be eaten by a nearby cannibal tribe.", "poster_path": "/1EP2htfupfHTVDfj7ovL6W5tek4.jpg", "release_date": "1980-10-21", "title": "Cannibal Terror", "video": false, "vote_average": 2.7, "vote_count": 11, "popularity": 2.729}, {"adult": false, "backdrop_path": "/uCd96bm97YMQSdVYaRjv5OIX7kR.jpg", "genre_ids": [28, 27, 878], "id": 144696, "original_language": "en", "original_title": "Invisible: The Chronicles of Benjamin Knight", "overview": "When a lab experiment goes wrong, Benjamin Knight is left invisible while his scientist friends trying to find a formula that will restore his visibility to last the rest of his life.", "poster_path": "/8kuitAo1GuHf7GrQocIaWbj5oI1.jpg", "release_date": "1993-06-01", "title": "Invisible: The Chronicles of Benjamin Knight", "video": false, "vote_average": 3.7, "vote_count": 3, "popularity": 3.815}, {"adult": false, "backdrop_path": "/6h5G0owYWDztF0cz9p62M1t8A0b.jpg", "genre_ids": [27], "id": 93890, "original_language": "en", "original_title": "I Eat Your Skin", "overview": "A cancer researcher on a remote Caribbean island discovers that by treating the natives with snake venom he can turn them into bug-eyed zombies. Uninterested in this information, the unfortunate man is forced by his evil employer to create an army of the creatures in order to conquer the world.", "poster_path": "/mbBgHCs9gR6ba3oQ24FH0TZ2vbl.jpg", "release_date": "1971-10-29", "title": "I Eat Your Skin", "video": false, "vote_average": 3.2, "vote_count": 6, "popularity": 2.888}, {"adult": false, "backdrop_path": null, "genre_ids": [18, 28, 53, 878], "id": 79467, "original_language": "en", "original_title": "Gangland", "overview": "In post-apocalyptic Los Angeles, an evil pack of outlaws is systematically turning civilians into prisoners and slaves. Worse yet, the spread of a terrifying deadly flesh-eating virus threatens to destroy all of humanity. As good and evil ferociously battle for power and control, three heroes race against time to find the cure for the virus... before it's too late.", "poster_path": "/kBnhpbT3BmADGfocS9iCZTPP5cu.jpg", "release_date": "2001-01-01", "title": "Gangland", "video": false, "vote_average": 5.0, "vote_count": 4, "popularity": 4.355}, {"adult": false, "backdrop_path": null, "genre_ids": [27, 878], "id": 92320, "original_language": "en", "original_title": "Garden of the Dead", "overview": "Convicts on a chain gang sniff expermental formaldehyde fumes to get high. They attempt a prison break and are shot down by the guards. Buried in the prison garden, they rise from the dead, killing all in thier path with shovels and hoes who get in thier way for thier quest to get high once more off the formaldehyde", "poster_path": "/aqDINP8sAU77BOnzd4E5lPVKe6w.jpg", "release_date": "1972-09-13", "title": "Garden of the Dead", "video": false, "vote_average": 2.9, "vote_count": 10, "popularity": 3.0}, {"adult": false, "backdrop_path": "/8JWe4C1e2bhZkyFf3T0tLzA7hbE.jpg", "genre_ids": [18, 27, 53], "id": 83913, "original_language": "en", "original_title": "The Carrier", "overview": "The main character is stricken with a horrible disease, but it doesn't affect him. It spreads to every inamimate object that he touches, and then if another person touches the object, they are dissolved into it. No one knows that Jake is the carrier except him. This brings about the \"red objects\" that specify every object that he has touched, as discovered by the community with cats. They use cats to test inanimate objects for the disease. And they cover themselves in garbage bags to protect themselves. Then they discover that Jake is the carrier and they chase him around...", "poster_path": "/mqutNNIE7RCyVFD9UK8nXcnRm6p.jpg", "release_date": "1988-01-01", "title": "The Carrier", "video": false, "vote_average": 5.8, "vote_count": 9, "popularity": 3.269}, {"adult": false, "backdrop_path": null, "genre_ids": [27], "id": 54127, "original_language": "en", "original_title": "Boogeyman II", "overview": "Part two takes place in Hollywood, where survivor Lacey is staying with friends to recover from her trauma. Through long and extremely detailed flashbacks, Lacey tells the story about the murderous spirit in the little piece of mirror to befriended actress and her husband director (played by Ulli Lommel himself, with his atrocious German accent). Naturally they want to exploit Lacey's bizarre thriller story and turn it into a horror movie, but then the Boogeyman returns to kill them all during a typical Hollywood pool party. \"Boogeyman II\" is 50 minutes of stock footage and 25 minutes of non-stop new murders.", "poster_path": "/oms2rGJ1PCAioZAEJdGQOljU0jU.jpg", "release_date": "1983-08-24", "title": "Boogeyman II", "video": false, "vote_average": 2.2, "vote_count": 13, "popularity": 3.27}, {"adult": false, "backdrop_path": null, "genre_ids": [10402, 18], "id": 47946, "original_language": "en", "original_title": "Body Rock", "overview": "Chilly is just a guy from the streets with a talent for break-dancing. When his wicked moves catch the eye of an industry pro, Chilly finds his dreams of fame and fortune coming true, for better or for worse.", "poster_path": "/gC61IjhEET4QDTwRRaN3OvEdN7J.jpg", "release_date": "1984-09-28", "title": "Body Rock", "video": false, "vote_average": 3.2, "vote_count": 7, "popularity": 2.558}, {"adult": false, "backdrop_path": null, "genre_ids": [16], "id": 164593, "original_language": "en", "original_title": "Murder Psalm", "overview": "A short film by Stan Brakhage.", "poster_path": "/ccHqmoRenFq0cZSnfyVNtMc8iWm.jpg", "release_date": "1980-01-01", "title": "Murder Psalm", "video": false, "vote_average": 6.3, "vote_count": 11, "popularity": 2.647}, {"adult": false, "backdrop_path": null, "genre_ids": [27], "id": 84253, "original_language": "en", "original_title": "Blood Lake", "overview": "Six teenagers decide to party one weekend, but before the partying begins one couple disappears. Only to be fount brutally murdered. A blood thirsty killer is stalking their summer playground. One by one bodies begin to show up, as they become prey to the venomous vengeance-seeking maniac.", "poster_path": "/3t3JrzUswZFPMFrVz5WuLWsDPCj.jpg", "release_date": "1987-01-01", "title": "Blood Lake", "video": false, "vote_average": 2.6, "vote_count": 7, "popularity": 2.672}, {"adult": false, "backdrop_path": "/uzWFFSso838ZLoKG5Er3qcZj2eJ.jpg", "genre_ids": [27, 878, 10770], "id": 41302, "original_language": "en", "original_title": "Zontar: The Thing from Venus", "overview": "A misguided scientist enables an alien from Venus named Zontar to come to earth in order to help solve man's problems...", "poster_path": "/9wmefPqTPqhYJjvE4ACOwMPRqq5.jpg", "release_date": "1966-01-01", "title": "Zontar: The Thing from Venus", "video": false, "vote_average": 3.4, "vote_count": 7, "popularity": 5.32}, {"adult": false, "backdrop_path": null, "genre_ids": [35, 27, 14], "id": 67691, "original_language": "en", "original_title": "The Dark Power", "overview": "The spirits of dead Indians are haunting a couple's house, and they call in an exorcist, whose trademark is a black whip, to get rid of them.", "poster_path": "/9S1HpFqN2ptLZWaYZ9komnRy8JQ.jpg", "release_date": "1985-06-01", "title": "The Dark Power", "video": false, "vote_average": 4.0, "vote_count": 7, "popularity": 2.126}, {"adult": false, "backdrop_path": "/sCrwEaM0m8RYDWhwnUggc7s73VR.jpg", "genre_ids": [35, 878], "id": 64342, "original_language": "en", "original_title": "Lobster Man from Mars", "overview": "Young film student tries to sell his weird movie to a desperate film producer who is in need of a tax write-off. The producer screens the film \"Lobster Man From Mars\". What follows is one of the most bizarre and funny film within-a-film send-ups: Mars suffers from an air leakage, and send the dreaded Lobster Man to Earth to steal its air. The plot is foiled by a mad scientist, a girl, and an army colonel. The producer buys the movie, but it makes a huge profit and the producer is sent to jail, with the film student taking his place as the studio hot shot.", "poster_path": "/spvcL8xXZ0BWIqumbmOlHpOcAmE.jpg", "release_date": "1989-01-01", "title": "Lobster Man from Mars", "video": false, "vote_average": 5.7, "vote_count": 9, "popularity": 2.971}, {"id": 27630, "video": false, "vote_count": 6, "vote_average": 4.0, "title": "The Black Room", "release_date": "1982-12-09", "original_language": "en", "original_title": "The Black Room", "genre_ids": [27, 53], "backdrop_path": null, "adult": false, "overview": "A room gets put up for rent following the mysterious murder of its previous tenant. When an apartment-hunting man sees the deal the brother and sister landlords are offering, he immediately puts down the first month's rent and starts spending his days there, even though he has a home to spend his nights at with his wife. When he comes home, he tells his wife about the fantasies he has of having sex with various women each day in his new apartment. His wife goes along with it for a while, but when she discovers that her husband's stories are much more than just fantasies, she starts to do some investigating.", "poster_path": "/qUI1j4ptx079N64cAU1WjrJTZno.jpg", "popularity": 3.104}], "total_pages": 2, "total_results": 40}, "credits": {"cast": [{"cast_id": 2, "character": "Paul", "credit_id": "52fe456bc3a368484e059c25", "gender": 2, "id": 1147002, "name": "David Broadnax", "order": 0, "profile_path": null}, {"cast_id": 3, "character": "Sandy", "credit_id": "52fe456bc3a368484e059c29", "gender": 0, "id": 105995, "name": "Rita Jenrette", "order": 1, "profile_path": null}, {"cast_id": 4, "character": "Whitney", "credit_id": "52fe456bc3a368484e059c2d", "gender": 0, "id": 1147003, "name": "George Peters", "order": 2, "profile_path": null}, {"cast_id": 5, "character": "Helen", "credit_id": "52fe456bc3a368484e059c31", "gender": 0, "id": 1147004, "name": "Debbie Ewing", "order": 3, "profile_path": null}, {"cast_id": 6, "character": "Jerry", "credit_id": "52fe456bc3a368484e059c35", "gender": 0, "id": 156741, "name": "Ralph Monaco", "order": 4, "profile_path": "/6FkczvJnlLUWuNLDuB6Lmt0PQxW.jpg"}, {"cast_id": 7, "character": "Ed", "credit_id": "52fe456bc3a368484e059c39", "gender": 0, "id": 174643, "name": "Tom Fitzsimmons", "order": 5, "profile_path": "/nBDh9hmltvK5HatdWca0hZd7U2M.jpg"}], "crew": [{"credit_id": "52fe456bc3a368484e059c21", "department": "Directing", "gender": 0, "id": 1147000, "job": "Director", "name": "John N. Carter", "profile_path": null}]}}