{"adult": false, "backdrop_path": "/dlPUeuayUSrA6qYlTf95EW9nZeP.jpg", "belongs_to_collection": null, "budget": 0, "genres": [{"id": 53, "name": "Thriller"}], "homepage": null, "id": 27897, "imdb_id": "tt0035582", "original_language": "en", "original_title": "You Can't Escape Forever", "overview": "A demoted reporter (George Brent) and his girlfriend (Brenda Marshall) seek to expose a crime kingpin.", "popularity": 2.368, "poster_path": "/1h5IyFSIkbA8KDZKZhTYJOy1wCC.jpg", "production_companies": [{"id": 174, "logo_path": "/IuAlhI9eVC9Z8UQWOIDdWRKSEJ.png", "name": "Warner Bros. Pictures", "origin_country": "US"}], "production_countries": [{"iso_3166_1": "US", "name": "United States of America"}], "release_date": "1942-10-10", "revenue": 0, "runtime": 77, "spoken_languages": [{"iso_639_1": "en", "name": "English"}], "status": "Released", "tagline": "", "title": "You Can't Escape Forever", "video": false, "vote_average": 5.3, "vote_count": 4, "keywords": {"keywords": [{"id": 918, "name": "newspaper"}, {"id": 12193, "name": "reporter"}]}, "similar": {"page": 1, "results": [{"id": 1949, "video": false, "vote_count": 5165, "vote_average": 7.5, "title": "Zodiac", "release_date": "2007-03-02", "original_language": "en", "original_title": "Zodiac", "genre_ids": [80, 18, 9648, 53], "backdrop_path": "/jP2htGBHE7vKq4MLeC75UeC0sZH.jpg", "adult": false, "overview": "The true story of the investigation of the \"Zodiac Killer\", a serial killer who terrified the San Francisco Bay Area, taunting police with his ciphers and letters. The case becomes an obsession for three men as their lives and careers are built and destroyed by the endless trail of clues.", "poster_path": "/bgLyOROfFQI3FqYL7jQbiaV8lkN.jpg", "popularity": 24.455}, {"id": 9008, "video": false, "vote_count": 953, "vote_average": 7.4, "title": "The Insider", "release_date": "1999-10-28", "original_language": "en", "original_title": "The Insider", "genre_ids": [18, 53], "backdrop_path": "/7oq51chQ7MW7RVKqhL4ivxhrwGf.jpg", "adult": false, "overview": "Tells the true story of a 60 Minutes television series expos\u00e9 of the tobacco industry, as seen through the eyes of a real tobacco executive, Jeffrey Wigand.", "poster_path": "/sYQsmMl4oG56NtFaNkDxuJhhODa.jpg", "popularity": 16.427}, {"adult": false, "backdrop_path": "/gGApniZQyEnUTSPzCqqheYhB18f.jpg", "genre_ids": [53, 18], "id": 16995, "original_language": "en", "original_title": "State of Play", "overview": "Handsome, unflappable U.S. Congressman Stephen Collins is the future of his political party: an honorable appointee who serves as the chairman of a committee overseeing defense spending. All eyes are upon the rising star to be his party's contender for the upcoming presidential race. Until his research assistant/mistress is brutally murdered and buried secrets come tumbling out.", "poster_path": "/lH5rHsUM7Umo9xyyjPguK5kTXKd.jpg", "release_date": "2009-04-17", "title": "State of Play", "video": false, "vote_average": 6.8, "vote_count": 956, "popularity": 17.093}, {"adult": false, "backdrop_path": "/zffzhr30v7nCHRcyfnVr8PmNLbM.jpg", "genre_ids": [10749, 35, 18], "id": 11355, "original_language": "en", "original_title": "Never Been Kissed", "overview": "Josie Geller, a baby-faced junior copywriter at the Chicago Sun-Times, must pose as a student at her former high school to research contemporary teenage culture. With the help of her brother, Rob, Josie infiltrates the inner circle of the most popular clique on campus. But she hits a major snag in her investigation -- not to mention her own failed love life -- when she falls for her dreamy English teacher, Sam Coulson.", "poster_path": "/1F9EAhEQxa0I5Pa5Z10hWIBFS3r.jpg", "release_date": "1999-04-09", "title": "Never Been Kissed", "video": false, "vote_average": 6.0, "vote_count": 855, "popularity": 15.613}, {"adult": false, "backdrop_path": "/t3Oea7KbSpOvuqddMnlFtZ4WHn.jpg", "genre_ids": [18, 53, 36], "id": 314365, "original_language": "en", "original_title": "Spotlight", "overview": "In 2001, editor Marty Baron of The Boston Globe assigns a team of journalists to investigate allegations against John Geoghan, an unfrocked priest accused of molesting more than 80 boys. Led by editor Walter \"Robby\" Robinson, reporters Michael Rezendes, Matt Carroll and Sacha Pfeiffer interview victims and try to unseal sensitive documents. The reporters make it their mission to provide proof of a cover-up of sexual abuse within the Roman Catholic Church.", "poster_path": "/ngKxbvsn9Si5TYVJfi1EGAGwThU.jpg", "release_date": "2015-11-06", "title": "Spotlight", "video": false, "vote_average": 7.8, "vote_count": 5410, "popularity": 19.217}, {"id": 65754, "video": false, "vote_count": 4330, "vote_average": 7.3, "title": "The Girl with the Dragon Tattoo", "release_date": "2011-12-14", "original_language": "en", "original_title": "The Girl with the Dragon Tattoo", "genre_ids": [80, 18, 9648, 53], "backdrop_path": "/1fk2xS5hRkblBuag5JXZkmE8pg6.jpg", "adult": false, "overview": "This English-language adaptation of the Swedish novel by Stieg Larsson follows a disgraced journalist, Mikael Blomkvist, as he investigates the disappearance of a weary patriarch's niece from 40 years ago. He is aided by the pierced, tattooed, punk computer hacker named Lisbeth Salander. As they work together in the investigation, Blomkvist and Salander uncover immense corruption beyond anything they have ever imagined.", "poster_path": "/voxRWFTtagLiqnJQs9tWQLB0MN.jpg", "popularity": 27.09}, {"id": 891, "video": false, "vote_count": 889, "vote_average": 7.8, "title": "All the President's Men", "release_date": "1976-04-04", "original_language": "en", "original_title": "All the President's Men", "genre_ids": [18, 36, 9648, 53], "backdrop_path": "/rqM0Uq57NNOpEx7BBk7FqBfGqzc.jpg", "adult": false, "overview": "In the run-up to the 1972 elections, Washington Post reporter Bob Woodward covers what seems to be a minor break-in at the Democratic Party National Headquarters. He is surprised to find top lawyers already on the defense case, and the discovery of names and addresses of Republican fund organizers on the accused further arouses his suspicions. After the editor of the Post runs with the story and assigns Woodward and Carl Bernstein to it, they find the trail leading higher and higher in the Republican Party\u2014and eventually into the White House itself.", "poster_path": "/jvXiGgWyBYDfQb44spH9JPTOmAZ.jpg", "popularity": 28.872}, {"adult": false, "backdrop_path": "/46y6EvnDveRFwtztyHVS0y2DipU.jpg", "genre_ids": [18, 53, 28], "id": 1372, "original_language": "en", "original_title": "Blood Diamond", "overview": "An ex-mercenary turned smuggler. A Mende fisherman. Amid the explosive civil war overtaking 1999 Sierra Leone, these men join for two desperate missions: recovering a rare pink diamond of immense value and rescuing the fisherman's son conscripted as a child soldier into the brutal rebel forces ripping a swath of torture and bloodshed countrywide.", "poster_path": "/wRamTzV6udKaMXrspxqOuo02zk0.jpg", "release_date": "2006-12-07", "title": "Blood Diamond", "video": false, "vote_average": 7.5, "vote_count": 4327, "popularity": 16.586}, {"id": 10909, "video": false, "vote_count": 406, "vote_average": 6.7, "title": "Kalifornia", "release_date": "1993-09-01", "original_language": "en", "original_title": "Kalifornia", "genre_ids": [80, 53], "backdrop_path": "/ucfWS1l0mVHKOtgL8ew5Y10IZMM.jpg", "adult": false, "overview": "A journalist duo go on a tour of serial killer murder sites with two companions, unaware that one of them is a serial killer himself.", "poster_path": "/5MM64T2y1qrBchByhB4I8Vr7HY.jpg", "popularity": 11.623}, {"adult": false, "backdrop_path": "/adGGzfXNmu0iLgiPAW9Ghd138f7.jpg", "genre_ids": [35, 18, 10749], "id": 350, "original_language": "en", "original_title": "The Devil Wears Prada", "overview": "Andy moves to New York to work in the fashion industry. Her boss is extremely demanding, cruel and won't let her succeed if she doesn't fit into the high class elegant look of their magazine.", "poster_path": "/8unCRm0LeiO0fM6skWAZy3ZfXR1.jpg", "release_date": "2006-06-30", "title": "The Devil Wears Prada", "video": false, "vote_average": 7.3, "vote_count": 7278, "popularity": 38.017}, {"adult": false, "backdrop_path": "/zGutQCLUIQ5LakubDZtfM8s22eA.jpg", "genre_ids": [9648, 18], "id": 15, "original_language": "en", "original_title": "Citizen Kane", "overview": "Newspaper magnate, Charles Foster Kane is taken from his mother as a boy and made the ward of a rich industrialist. As a result, every well-meaning, tyrannical or self-destructive move he makes for the rest of his life appears in some way to be a reaction to that deeply wounding event.", "poster_path": "/sav0jxhqiH0bPr2vZFU0Kjt2nZL.jpg", "release_date": "1941-04-30", "title": "Citizen Kane", "video": false, "vote_average": 8.1, "vote_count": 2765, "popularity": 22.836}, {"adult": false, "backdrop_path": "/79p6lNdZX7XAKGZ8rxlDC8TU0C7.jpg", "genre_ids": [18, 80], "id": 269, "original_language": "fr", "original_title": "\u00c0 bout de souffle", "overview": "A young car thief kills a policeman and tries to persuade a girl to hide in Italy with him.", "poster_path": "/mBZ6BE7V9MCC7FzhAQPJl6K0634.jpg", "release_date": "1960-03-16", "title": "Breathless", "video": false, "vote_average": 7.8, "vote_count": 791, "popularity": 18.242}, {"id": 446354, "video": false, "vote_count": 2839, "vote_average": 7.0, "title": "The Post", "release_date": "2017-12-22", "original_language": "en", "original_title": "The Post", "genre_ids": [18, 36], "backdrop_path": "/8sb4aBST28vN3rBz704XJczS0Ld.jpg", "adult": false, "overview": "A cover-up that spanned four U.S. Presidents pushed the country's first female newspaper publisher and a hard-driving editor to join an unprecedented battle between journalist and government. Inspired by true events.", "poster_path": "/h4XG3g6uMMPIBPjAoQhC2QIMdkl.jpg", "popularity": 19.347}, {"id": 242582, "video": false, "vote_count": 6508, "vote_average": 7.7, "title": "Nightcrawler", "release_date": "2014-10-23", "original_language": "en", "original_title": "Nightcrawler", "genre_ids": [80, 18, 53], "backdrop_path": "/gktL2rfE7d1xrwPSSTohxLOjLSs.jpg", "adult": false, "overview": "When Lou Bloom, desperate for work, muscles into the world of L.A. crime journalism, he blurs the line between observer and participant to become the star of his own story. Aiding him in his effort is Nina, a TV-news veteran.", "poster_path": "/8oPY6ULFOTbAEskySNhgsUIN4fW.jpg", "popularity": 30.383}, {"adult": false, "backdrop_path": "/fgkgab4Rel0nOI3B3scHeNB4Mn6.jpg", "genre_ids": [28, 53], "id": 1573, "original_language": "en", "original_title": "Die Hard 2", "overview": "Off-duty cop John McClane is gripped with a feeling of d\u00e9j\u00e0 vu when, on a snowy Christmas Eve in the nation\u2019s capital, terrorists seize a major international airport, holding thousands of holiday travelers hostage. Renegade military commandos led by a murderous rogue officer plot to rescue a drug lord from justice and are prepared for every contingency except one: McClane\u2019s smart-mouthed heroics.", "poster_path": "/zSgL998DXaljsCmwQuwDM8Ak4rV.jpg", "release_date": "1990-07-02", "title": "Die Hard 2", "video": false, "vote_average": 6.8, "vote_count": 3296, "popularity": 23.858}, {"id": 12113, "video": false, "vote_count": 1674, "vote_average": 6.6, "title": "Body of Lies", "release_date": "2008-10-10", "original_language": "en", "original_title": "Body of Lies", "genre_ids": [28, 18, 53], "backdrop_path": "/8NKlqvUJ5IHk58KhM3Vwqp588jU.jpg", "adult": false, "overview": "The CIA\u2019s hunt is on for the mastermind of a wave of terrorist attacks. Roger Ferris is the agency\u2019s man on the ground, moving from place to place, scrambling to stay ahead of ever-shifting events. An eye in the sky \u2013 a satellite link \u2013 watches Ferris.  At the other end of that real-time link is the CIA\u2019s Ed Hoffman, strategizing events from thousands of miles away. And as Ferris nears the target, he discovers trust can be just as dangerous as it is necessary for survival.", "poster_path": "/ngQAEKZVpT0SD9i98ApEgsQKC52.jpg", "popularity": 18.11}, {"id": 33408, "video": false, "vote_count": 183, "vote_average": 5.9, "title": "The Crush", "release_date": "1993-04-02", "original_language": "en", "original_title": "The Crush", "genre_ids": [18, 53], "backdrop_path": "/2zc2iwf1MWFZcF26dim2r2p82uz.jpg", "adult": false, "overview": "A precocious and obsessive teenager develops a crush on a naive writer with harrowing consequences.", "poster_path": "/7DGYohz2tyo0mpkVxsccqBTf9vl.jpg", "popularity": 17.403}, {"id": 241, "video": false, "vote_count": 1845, "vote_average": 7.1, "title": "Natural Born Killers", "release_date": "1994-08-25", "original_language": "en", "original_title": "Natural Born Killers", "genre_ids": [80, 18, 53], "backdrop_path": "/l6pleT9BWjOOcFzpL2G1j5ApBTr.jpg", "adult": false, "overview": "Two victims of traumatized childhoods become lovers and psychopathic serial murderers irresponsibly glorified by the mass media.", "poster_path": "/w5sruoTQ87PFAGRJQyyaCOM1C4A.jpg", "popularity": 20.062}, {"adult": false, "backdrop_path": "/gRY30dvyLhydkblpE0v3NiXt0Nj.jpg", "genre_ids": [35, 10749], "id": 6557, "original_language": "en", "original_title": "27 Dresses", "overview": "Altruistic Jane finds herself facing her worst nightmare as her younger sister announces her engagement to the man Jane secretly adores.", "poster_path": "/zzJtHNzi1D4CPwRlPHV1TRQNXD2.jpg", "release_date": "2008-01-10", "title": "27 Dresses", "video": false, "vote_average": 6.3, "vote_count": 2137, "popularity": 14.081}, {"adult": false, "backdrop_path": "/pJ6v9gMB2OCtnkLrtk0pl2otUE4.jpg", "genre_ids": [28, 53], "id": 9772, "original_language": "en", "original_title": "Air Force One", "overview": "Russian terrorists conspire to hijack the aircraft with the president and his family on board. The commander in chief finds himself facing an impossible predicament: give in to the terrorists and sacrifice his family, or risk everything to uphold his principles - and the integrity of the nation.", "poster_path": "/zgg8psC8jvNEx5RC4NJ4c9J0KtE.jpg", "release_date": "1997-07-25", "title": "Air Force One", "video": false, "vote_average": 6.4, "vote_count": 1566, "popularity": 17.096}], "total_pages": 39, "total_results": 767}, "recommendations": {"page": 1, "results": [{"id": 48794, "video": false, "vote_count": 3, "vote_average": 5.7, "title": "I Love a Mystery", "release_date": "1945-01-25", "original_language": "en", "original_title": "I Love a Mystery", "genre_ids": [27, 9648, 53], "backdrop_path": "/xAIXx3f3gv1e9jjaD9l0dIDpk89.jpg", "adult": false, "overview": "This first film in the Columbia series was based on the radio serial, \"The Decapitation of Jefferson Monk.\" A detective tries to protect a man who has predicted his murder will take place in three days.", "poster_path": "/dESsLeQnxdLA372W4Lw3CKjMXA.jpg", "popularity": 3.099}, {"adult": false, "backdrop_path": null, "genre_ids": [18], "id": 45112, "original_language": "en", "original_title": "Tail Spin", "overview": "Flyer enters a cross-country aerial derby, becomes rival to a wealthy society flyer, competes in parachute jumps and has love affairs.", "poster_path": "/nKUvdtdMDT5eyp0LqcmZ8VhPwCj.jpg", "release_date": "1939-02-19", "title": "Tail Spin", "video": false, "vote_average": 6.3, "vote_count": 3, "popularity": 2.541}, {"adult": false, "backdrop_path": "/lMht3ORXo4flrEsgbOH0UymFqsz.jpg", "genre_ids": [18, 9648], "id": 95124, "original_language": "en", "original_title": "Nine Lives Are Not Enough", "overview": "A reporter is constantly in trouble for jumping to conclusions.", "poster_path": "/aCTEt8UubcTYopIWkG82EiGcof.jpg", "release_date": "1941-09-20", "title": "Nine Lives Are Not Enough", "video": false, "vote_average": 5.3, "vote_count": 3, "popularity": 1.828}, {"adult": false, "backdrop_path": "/sEXv5zo1upyojUYyJWIlkasntg0.jpg", "genre_ids": [18], "id": 75797, "original_language": "en", "original_title": "Too Much, Too Soon", "overview": "The daughter of iconic actor John Barrymore becomes reunited with her father after a ten year estrangement and engages in his self-destructive lifestyle.", "poster_path": "/fH13y1e0ZErETHqTGhCccIpmf3d.jpg", "release_date": "1958-04-17", "title": "Too Much, Too Soon", "video": false, "vote_average": 6.5, "vote_count": 3, "popularity": 2.827}, {"id": 45801, "video": false, "vote_count": 4, "vote_average": 6.9, "title": "Joan of Paris", "release_date": "1942-01-20", "original_language": "en", "original_title": "Joan of Paris", "genre_ids": [18, 10749, 10752], "backdrop_path": "/p3lrCWfqOHPXqaqy0E4mkN6YCI2.jpg", "adult": false, "overview": "An RAF squadron is brought down over occupied France. The flyers get to Paris in spite of the fact that the youngest, Baby, is injured. He must be hidden and his wounds cared for. The Gestapo has already issued orders for their arrest.", "poster_path": "/yMlTppnUeKYBM8dLL2OgKMYAuGd.jpg", "popularity": 2.284}, {"adult": false, "backdrop_path": "/kIlK9jxvhSaFgUyviZMWDko2r5q.jpg", "genre_ids": [35, 18], "id": 82169, "original_language": "en", "original_title": "Night After Night", "overview": "A former boxer purchases a classy speakeasy and falls in love with a wealthy society girl.", "poster_path": "/6inArfeANunvk6YIvWEu4fmS5Po.jpg", "release_date": "1932-10-30", "title": "Night After Night", "video": false, "vote_average": 7.0, "vote_count": 4, "popularity": 2.254}, {"id": 61498, "video": false, "vote_count": 4, "vote_average": 5.8, "title": "Betrayal from the East", "release_date": "1945-04-24", "original_language": "en", "original_title": "Betrayal from the East", "genre_ids": [53], "backdrop_path": "/fr8dPZ02FWvFo4BV5ixeu3ZZng.jpg", "adult": false, "overview": "A carnival showman tries to keep Japanese spies from sabotaging the Panama Canal.", "poster_path": "/j0huiKAfwHoox7lcXwSESrgpByX.jpg", "popularity": 2.03}], "total_pages": 1, "total_results": 7}, "credits": {"cast": [{"cast_id": 2, "character": "Steve Mitchell", "credit_id": "52fe456cc3a368484e059fe5", "gender": 2, "id": 20364, "name": "George Brent", "order": 0, "profile_path": "/6l5oztFIchgDrmwo5kfWJh0rWwQ.jpg"}, {"cast_id": 3, "character": "Laurie Abbott", "credit_id": "52fe456cc3a368484e059fe9", "gender": 1, "id": 94850, "name": "Brenda Marshall", "order": 1, "profile_path": "/aKPDtfZJvkNU4Z9BBWKZiKvRJgB.jpg"}, {"cast_id": 4, "character": "Carl Robelink", "credit_id": "52fe456cc3a368484e059fed", "gender": 2, "id": 30234, "name": "Gene Lockhart", "order": 2, "profile_path": "/7IL5fx1mfhCiMAvYXSiY1Dj7yky.jpg"}, {"cast_id": 5, "character": "'Mac' McTurk", "credit_id": "52fe456cc3a368484e059ff1", "gender": 2, "id": 30157, "name": "Roscoe Karns", "order": 3, "profile_path": "/8K65O6N0qtgus9cdvBIdfmAEKJ2.jpg"}, {"cast_id": 6, "character": "Boss Greer", "credit_id": "52fe456cc3a368484e059ff5", "gender": 2, "id": 16761, "name": "Eduardo Ciannelli", "order": 4, "profile_path": "/fkfG6BRh3VqU4AmrTI2GPfxpEQM.jpg"}, {"cast_id": 7, "character": "Major Turner", "credit_id": "52fe456cc3a368484e059ff9", "gender": 2, "id": 34320, "name": "Paul Harvey", "order": 5, "profile_path": "/xDk9GgK3ykYIiXeM5ybhoJUwlzg.jpg"}, {"cast_id": 8, "character": "Madame Lucille", "credit_id": "52fe456cc3a368484e059ffd", "gender": 1, "id": 97039, "name": "Edith Barrett", "order": 6, "profile_path": "/3CoeVHl4nTkl1lMTkpV95YrGdQJ.jpg"}, {"cast_id": 9, "character": "No-Neck, Greer's Henchman", "credit_id": "5cbb5f640e0a2615fded02d9", "gender": 2, "id": 120215, "name": "Jack Carr", "order": 7, "profile_path": null}], "crew": [{"credit_id": "52fe456cc3a368484e059fe1", "department": "Directing", "gender": 0, "id": 99239, "job": "Director", "name": "Jo Graham", "profile_path": null}]}}