{"adult": false, "backdrop_path": null, "belongs_to_collection": null, "budget": 0, "genres": [], "homepage": null, "id": 281122, "imdb_id": "tt0164564", "original_language": "es", "original_title": "...ere erera baleibu izik subua aruaren...", "overview": "\u2026ere erera baleibu izik subua aruaren\u2026, a set of words without any meaning, forms the title of the first and only feature film in the history of Spanish cinema made entirely by hand-painting directly on celluloid.", "popularity": 1.934, "poster_path": "/vDGHvDo7MvzpPvKP7kSjkypElZe.jpg", "production_companies": [], "production_countries": [{"iso_3166_1": "ES", "name": "Spain"}], "release_date": "1970-09-16", "revenue": 0, "runtime": 75, "spoken_languages": [{"iso_639_1": "xx", "name": "No Language"}], "status": "Released", "tagline": "", "title": "...ere erera baleibu izik subua aruaren...", "video": false, "vote_average": 8.2, "vote_count": 6, "keywords": {"keywords": [{"id": 15216, "name": "avant-garde"}]}, "similar": {"page": 1, "results": [{"id": 621733, "video": false, "vote_count": 0, "vote_average": 0.0, "title": "A Trip to the Seaside", "release_date": "2019-08-30", "original_language": "en", "original_title": "A Trip to the Seaside", "genre_ids": [99], "backdrop_path": null, "adult": false, "overview": "Experimental short film on the excitement and rush of a day trip", "poster_path": "/AuZVhpoJ4jm2LWDhoJKfxQfhDAi.jpg", "popularity": 1.324}, {"id": 650755, "video": false, "vote_count": 0, "vote_average": 0.0, "title": "Atordoado, Eu Permane\u00e7o Atento", "release_date": "2020-01-15", "original_language": "pt", "original_title": "Atordoado, Eu Permane\u00e7o Atento", "genre_ids": [99], "backdrop_path": null, "adult": false, "overview": "", "poster_path": "/exbM8qk6f6T44olJXcM8ix1sunL.jpg", "popularity": 5.092}, {"adult": false, "backdrop_path": null, "genre_ids": [], "id": 616262, "original_language": "ar", "original_title": "All Come From Dust", "overview": "A loop of edgeless bend. You were its doom, he was its bloom. You were its tomb, he was its womb. You were its gloom, he was its loom. For Heaven and Hell, were words made of fume.", "poster_path": null, "release_date": "2019-08-13", "title": "All Come From Dust", "video": false, "vote_average": 5.0, "vote_count": 1, "popularity": 0.6}, {"id": 10258, "video": false, "vote_count": 148, "vote_average": 6.6, "title": "The Madagascar Penguins in a Christmas Caper", "release_date": "2005-09-23", "original_language": "en", "original_title": "The Madagascar Penguins in a Christmas Caper", "genre_ids": [16, 35, 10751], "backdrop_path": "/gdJ6j1hmt6dQgObWxDJAHUb58o6.jpg", "adult": false, "overview": "During the holiday season, when the animals of the Central Park Zoo are preparing for Christmas, Private, the youngest of the penguins notices that the Polar Bear is all alone. Assured that nobody should have to spend Christmas alone, Private goes into the city for some last-minute Christmas shopping. Along the way, he gets stuffed into a stocking", "poster_path": "/r8QtfGSjDaY6vICRVyYvZvTkjxc.jpg", "popularity": 13.032}, {"id": 326359, "video": false, "vote_count": 1180, "vote_average": 6.8, "title": "Frozen Fever", "release_date": "2015-03-09", "original_language": "en", "original_title": "Frozen Fever", "genre_ids": [12, 16, 10751], "backdrop_path": "/ubioPGniCfDiASmYYpeJs5RRNaC.jpg", "adult": false, "overview": "On Anna's birthday, Elsa and Kristoff are determined to give her the best celebration ever, but Elsa's icy powers may put more than just the party at risk.", "poster_path": "/lKJiVPzsAO9IJ4LKWXZ8vkR2bg4.jpg", "popularity": 17.218}, {"id": 460793, "video": false, "vote_count": 933, "vote_average": 6.2, "title": "Olaf's Frozen Adventure", "release_date": "2017-10-27", "original_language": "en", "original_title": "Olaf's Frozen Adventure", "genre_ids": [12, 16, 35, 14, 10402, 10751], "backdrop_path": "/9K4QqQZg4TVXcxBGDiVY4Aey3Rn.jpg", "adult": false, "overview": "Olaf is on a mission to harness the best holiday traditions for Anna, Elsa, and Kristoff.", "poster_path": "/As8WTtxXs9e3cBit3ztTf7zoRmm.jpg", "popularity": 21.98}, {"id": 654980, "video": false, "vote_count": 0, "vote_average": 0.0, "title": "Former Cult Member Hears Music For The First Time", "release_date": "2020-01-23", "original_language": "en", "original_title": "Former Cult Member Hears Music For The First Time", "genre_ids": [], "backdrop_path": null, "adult": false, "overview": "After a woman escapes the captivity of her abusive family, a magazine invites her to a journalistic experiment: to hear music for the first time.", "poster_path": "/85K8ODZp51Cl5OAivRyjN1MKTdy.jpg", "popularity": 18.403}, {"adult": false, "backdrop_path": null, "genre_ids": [], "id": 623058, "original_language": "en", "original_title": "We Still Have to Close Our Eyes", "overview": "John Torres repurposes documentary footage captured from the sets of various Filipino productions (including the likes of Lav Diaz and Erik Matti) into an eerie, elliptical sci-fi narrative about human avatars controlled by apps.", "poster_path": "/jY7znoWWH3BJCK25w6QBOSfIFPs.jpg", "release_date": "2019-09-06", "title": "We Still Have to Close Our Eyes", "video": false, "vote_average": 0.0, "vote_count": 0, "popularity": 1.278}, {"id": 621485, "video": false, "vote_count": 2, "vote_average": 5.5, "title": "Guest of Honor", "release_date": "2019-08-14", "original_language": "en", "original_title": "Guest of Honor", "genre_ids": [18], "backdrop_path": "/qo3f05mAqiGG5yDyVhURwwhR1oh.jpg", "adult": false, "overview": "A devout Nazi oversees a group of taste testers for Hitler.", "poster_path": "/g02YorY0sAVDJuXdL42Vpmqtv0g.jpg", "popularity": 3.407}, {"adult": false, "backdrop_path": "/5qy4PGnEzZajJNzPZ2jxiqUIBON.jpg", "genre_ids": [35], "id": 6166, "original_language": "en", "original_title": "Dinner for One", "overview": "A very old woman wants to have dinner with her friends. As they are all dead, the butler has to play the role of every guest.", "poster_path": "/2uzk4IIwOrRQHn816IsEngYn8mp.jpg", "release_date": "1963-06-08", "title": "Dinner for One", "video": false, "vote_average": 7.4, "vote_count": 73, "popularity": 6.375}, {"id": 76122, "video": false, "vote_count": 232, "vote_average": 6.5, "title": "Marvel One-Shot: The Consultant", "release_date": "2011-09-12", "original_language": "en", "original_title": "Marvel One-Shot: The Consultant", "genre_ids": [28, 12, 14, 878], "backdrop_path": "/tHthULHaBaWLS1z2UfYhvHphJSb.jpg", "adult": false, "overview": "Agent Coulson informs Agent Sitwell that the World Security Council wishes Emil Blonsky to be released from prison to join the Avengers Initiative. As Nick Fury doesn't want to release Blonsky, the two agents decide to send a patsy to sabotage the meeting...", "poster_path": "/75AsB4NRKaYanuCeKYgIh2hfsR1.jpg", "popularity": 14.466}, {"adult": false, "backdrop_path": "/twGxeStlGooWV3gP6ZIcSNuQ6jf.jpg", "genre_ids": [12, 16, 10751, 14], "id": 81684, "original_language": "en", "original_title": "The Gruffalo's Child", "overview": "A follow up to the 2009 animated feature and adapted from the childrens' book by Julia Donaldson and Alex Scheffler.  The Gruffalo's child explores the deep dark wood in search of the big bad mouse and meets the Snake, Owl and Fox in the process.  She eventually finds the mouse, who manages to outwit her like the Gruffalo before!", "poster_path": "/qaGH2AoaLvoGXURQtNzj1nw6oZd.jpg", "release_date": "2011-12-25", "title": "The Gruffalo's Child", "video": false, "vote_average": 6.9, "vote_count": 73, "popularity": 9.51}, {"id": 596890, "video": false, "vote_count": 0, "vote_average": 0.0, "title": "Tenzo", "release_date": "2019-11-27", "original_language": "ja", "original_title": "\u5178\u5ea7 -TENZO-", "genre_ids": [99], "backdrop_path": "/hI3TYhcjM1CXOkLxY0q5qjiFu9u.jpg", "adult": false, "overview": "To address the social crisis, Chiken - a buddhist monk - throws himself into various tasks such as a suicide helpline, in his temple in Yamanashi. In Fukushima, his old mate Ry\u00fbgy\u00f4 - whose temple was wrecked by the tsunami - lives in a portacabin and works on construction sites.", "poster_path": "/dMWUVF3v5Yfg68LBA0RNxKJyuVI.jpg", "popularity": 0.942}, {"adult": false, "backdrop_path": null, "genre_ids": [], "id": 617079, "original_language": "fr", "original_title": "Color-Blind", "overview": "A synaesthetic portrait made between French Polynesia and Brittany, Color-blind follows the restless ghost of Gauguin in excavating the colonial legacy of a post-postcolonial present.", "poster_path": "/1JzdZbPfjoIcIavrdS0dsU4sid.jpg", "release_date": "2019-08-14", "title": "Color-Blind", "video": false, "vote_average": 0.0, "vote_count": 0, "popularity": 0.733}, {"adult": false, "backdrop_path": "/lCDV61WEp0V5rwUl4TzfJcCBTHH.jpg", "genre_ids": [18, 10749], "id": 330947, "original_language": "en", "original_title": "Song to Song", "overview": "In this modern love story set against the Austin, Texas music scene, two entangled couples \u2014 struggling songwriters Faye and BV, and music mogul Cook and the waitress whom he ensnares \u2014 chase success through a rock \u2018n\u2019 roll landscape of seduction and betrayal.", "poster_path": "/rEvtGhNY2DQ4L8Ma6rpMhL6IbKM.jpg", "release_date": "2017-03-17", "title": "Song to Song", "video": false, "vote_average": 5.3, "vote_count": 520, "popularity": 8.906}, {"id": 13932, "video": false, "vote_count": 467, "vote_average": 7.4, "title": "Jack-Jack Attack", "release_date": "2005-03-15", "original_language": "en", "original_title": "Jack-Jack Attack", "genre_ids": [12, 16, 10751], "backdrop_path": "/mUcfavkzBSlJbhS6cXZyInM9jix.jpg", "adult": false, "overview": "The Parrs' baby Jack-Jack is thought to be normal, not having any super-powers like his parents or siblings. But when an outsider is hired to watch him, Jack-Jack shows his true potential.", "poster_path": "/btnyGcvjMbN4MpwLE7A6J7gNV01.jpg", "popularity": 10.718}, {"id": 632544, "video": false, "vote_count": 3, "vote_average": 6.7, "title": "There Comes a Knocking", "release_date": "2019-10-28", "original_language": "en", "original_title": "There Comes a Knocking", "genre_ids": [18, 27], "backdrop_path": "/QWikq7EqdXO8VDC53YPK0XRqdV.jpg", "adult": false, "overview": "A widow moves into a new home and discovers an old door that won't open.", "poster_path": "/mrrPK6OvNResUn4lori2XepxYnW.jpg", "popularity": 1.985}, {"id": 399106, "video": false, "vote_count": 935, "vote_average": 8.2, "title": "Piper", "release_date": "2016-06-16", "original_language": "en", "original_title": "Piper", "genre_ids": [16, 10751], "backdrop_path": "/w1WqcS6hT0PUWC3adG37NSUOGX5.jpg", "adult": false, "overview": "A mother bird tries to teach her little one how to find food by herself. In the process, she encounters a traumatic experience that she must overcome in order to survive.", "poster_path": "/jLRllZsubY8UWpeMyDLVXdRyEWi.jpg", "popularity": 11.432}, {"id": 77887, "video": false, "vote_count": 315, "vote_average": 6.9, "title": "Hawaiian Vacation", "release_date": "2011-06-16", "original_language": "en", "original_title": "Hawaiian Vacation", "genre_ids": [16, 35, 10751, 10770], "backdrop_path": "/kqeqmUWMb0gG2QsGSBgWHvvzR5B.jpg", "adult": false, "overview": "The toys throw Ken and Barbie a Hawaiian vacation in Bonnie's room.", "poster_path": "/c0K2qAo0UlFMEqrVNgu0Ls9EYdx.jpg", "popularity": 14.339}, {"id": 654959, "video": false, "vote_count": 0, "vote_average": 0.0, "title": "Dirty", "release_date": "2020-01-23", "original_language": "en", "original_title": "Dirty", "genre_ids": [], "backdrop_path": null, "adult": false, "overview": "Marco cuts class to spend the afternoon with his boyfriend, Graham. Things do not go as planned.", "poster_path": "/xbPHXMn0msU9Jv2MVjH6aQ5PiZd.jpg", "popularity": 14.692}], "total_pages": 610, "total_results": 12200}, "recommendations": {"page": 1, "results": [{"adult": false, "backdrop_path": null, "genre_ids": [], "id": 86280, "original_language": "en", "original_title": "Star Spangled to Death", "overview": "An examination of the history of the U.S. through archival footage and contrasting views of society. Incorporating audiovisual material ranging from political campaign films to animated cartoons to children\u2019s phonograph records, featuring Al Jolson, Mickey Mouse, the young Jack Smith, and a half-dozen American presidents, this vast, ironic pageant of 20th-century American history is a unique and mind-boggling contraption, the ultimate underground movie.", "poster_path": "/1SshlLXCfFgqX9iJLtwPuAYh4Bx.jpg", "release_date": "2004-05-21", "title": "Star Spangled to Death", "video": false, "vote_average": 8.2, "vote_count": 5, "popularity": 1.894}, {"adult": false, "backdrop_path": null, "genre_ids": [], "id": 190293, "original_language": "de", "original_title": "Impressionen vom alten Marseiller Hafen (Vieux Port)", "overview": "\"Impressionen vom alten marseiller Hafen,\" captures the steady hum of commerce of one of europe's biggest and most populous port cities.", "poster_path": "/65y7gQzYrTywDwMk54SIA6Ti8RS.jpg", "release_date": "1929-04-30", "title": "Impressions of the Old Marseille Harbor", "video": false, "vote_average": 6.6, "vote_count": 5, "popularity": 1.634}, {"adult": false, "backdrop_path": "/8iCwliz1Sq11USlbtPlnMU3JsTp.jpg", "genre_ids": [35], "id": 44350, "original_language": "en", "original_title": "Hor B'Levana", "overview": "A comic and episodic satire, the film uses improvisation to illustrate the clash between fantasy and reality in real life. Although conceived in the style of Mekas\u2019 \u201cHallelujah the hills\u201d (1962), it\u2019s an authentically Israeli satire, an openly rebellious and individualistic expression that poked fun at the sacred myths of earlier zionist films. The technique of film within the film is used to portray cinema as reflection of the imagination, a miracle based on dreams and fantasies that take on concrete characteristics \u2013 parallel to the miracle of Israel, the dream that has become reality. Although not a commercial success, its importance is beyond any measure, though it remains a unique experiment, boldly uncommercial and subversive, out of any context in that patriotic, ideological epoch.", "poster_path": "/wV6NLo6i7xWIKkMpSVkz9evupfd.jpg", "release_date": "1964-01-01", "title": "Hole in the Moon", "video": false, "vote_average": 6.3, "vote_count": 5, "popularity": 1.258}, {"adult": false, "backdrop_path": null, "genre_ids": [], "id": 263197, "original_language": "de", "original_title": "3/60: B\u00e4ume im Herbst", "overview": "The first embodiment of (a) concept of structural activity in cinema comes in Kren's B\u00e4ume im Herbst, where the camera as a subjective observer is constrained within a systematic or structural procedure, incidentally the precursors of the most structuralist aspect of Michael Snow's later work. In this film, perception of material relationships in the world is seen to be no more than a product of the structural activity in the work. Art forms experience.", "poster_path": "/nwSocsAJjiRduEtVz1puwTyb4mx.jpg", "release_date": "1960-01-01", "title": "3/60: Trees in Autumn", "video": false, "vote_average": 8.0, "vote_count": 5, "popularity": 0.766}, {"adult": false, "backdrop_path": null, "genre_ids": [10752, 14], "id": 376710, "original_language": "en", "original_title": "2nd War Hats", "overview": "", "poster_path": "/pcr2Vrxh15RFj3eHWfFX62jadZH.jpg", "release_date": "1986-01-01", "title": "2nd War Hats", "video": false, "vote_average": 6.3, "vote_count": 4, "popularity": 0.6}, {"adult": false, "backdrop_path": null, "genre_ids": [99], "id": 163230, "original_language": "en", "original_title": "Bridges-Go-Round", "overview": "York City's various bridges transform into an urban jungle (jazz version) or an alien landscape (electro-acoustic version).", "poster_path": "/e8yQRfDG94rmH9fBLL4XBKMwbfC.jpg", "release_date": "1958-04-25", "title": "Bridges-Go-Round", "video": false, "vote_average": 7.1, "vote_count": 9, "popularity": 1.4}, {"adult": false, "backdrop_path": "/nSY95fTNnIbg2H6SYSgizJu2Gfy.jpg", "genre_ids": [18], "id": 169652, "original_language": "it", "original_title": "Salom\u00e8", "overview": "A psychedelic re-telling of the biblical story. Salome is the daughter of the second wife of King Herod. The King is infatuated with her and after she fails to seduce the prophet John (The Baptist) she dances for the King in order to ask for his execution. The story is told in a bizarre way of fast cuts, repetitive dialogue and extreme satire.", "poster_path": "/uC3x0S3VgTmgMGxIrcYEv1VGu9g.jpg", "release_date": "1972-10-20", "title": "Salom\u00e9", "video": false, "vote_average": 7.7, "vote_count": 6, "popularity": 1.756}, {"adult": false, "backdrop_path": null, "genre_ids": [], "id": 107209, "original_language": "en", "original_title": "The Invasion of Thunderbolt Pagoda", "overview": "At the court of the Yellow Emperor, the Majoon Traveler &amp; Lady Firefly appear in the Hall of Unconscious Magnetism.", "poster_path": "/AmIMYMPlps0YHqVFu3Yx2YKvBIr.jpg", "release_date": "1968-01-07", "title": "The Invasion of Thunderbolt Pagoda", "video": false, "vote_average": 7.8, "vote_count": 6, "popularity": 2.304}, {"adult": false, "backdrop_path": null, "genre_ids": [], "id": 151336, "original_language": "fr", "original_title": "Impatience", "overview": "Experimental film evoking the notion of impatience through a man riding his motorbike on the roads of a mountainous landscape while the naked body of a woman appears in parallel.", "poster_path": "/9nqbItHGeereP4eYNjVg67N0XtJ.jpg", "release_date": "1928-01-01", "title": "Impatience", "video": false, "vote_average": 7.2, "vote_count": 5, "popularity": 1.361}, {"adult": false, "backdrop_path": null, "genre_ids": [99, 35], "id": 136762, "original_language": "en", "original_title": "So Is This", "overview": "The film is a text in which each shot is a single word, tightly-framed white letters against a black background.", "poster_path": "/3H8wySqNFhOYgUvbBM6CaF8T74l.jpg", "release_date": "1983-12-31", "title": "So Is This", "video": false, "vote_average": 7.8, "vote_count": 8, "popularity": 2.352}], "total_pages": 1, "total_results": 10}, "credits": {"cast": [], "crew": [{"credit_id": "53be96360e0a261579004056", "department": "Directing", "gender": 0, "id": 1210704, "job": "Director", "name": "Jos\u00e9 Antonio Sistiaga", "profile_path": null}]}}