{"adult": false, "backdrop_path": "/6SLJFUXjTPpmFh3X0zF53LBQVUd.jpg", "belongs_to_collection": {"id": 25542, "name": "An American Girl Collection", "poster_path": "/5JpcRXXuFSgYUgtSKvcdQE9LaMS.jpg", "backdrop_path": "/1jt2T8oHR1NlzXr7TmSp0Ly9m9D.jpg"}, "budget": 0, "genres": [{"id": 10751, "name": "Family"}, {"id": 18, "name": "Drama"}], "homepage": null, "id": 281506, "imdb_id": "tt3064620", "original_language": "en", "original_title": "An American Girl: Isabelle Dances Into the Spotlight", "overview": "Isabelle is an inspired dancer, but when her sister and a classmate make her doubt herself, she's motivated by a ballerina to find her own way to shine. Stars Erin Pitt & Grace Davidson.", "popularity": 16.623, "poster_path": "/wMie9YLc8q8XkJjECbZViDPkkGU.jpg", "production_companies": [{"id": 33, "logo_path": "/8lvHyhjr8oUKOOy2dKXoALWKdp0.png", "name": "Universal Pictures", "origin_country": "US"}], "production_countries": [{"iso_3166_1": "CA", "name": "Canada"}], "release_date": "2014-01-01", "revenue": 0, "runtime": 99, "spoken_languages": [{"iso_639_1": "en", "name": "English"}], "status": "Released", "tagline": "", "title": "An American Girl: Isabelle Dances Into the Spotlight", "video": false, "vote_average": 5.6, "vote_count": 6, "keywords": {"keywords": [{"id": 1691, "name": "dance"}, {"id": 10551, "name": "ballet"}]}, "similar": {"page": 1, "results": [{"adult": false, "backdrop_path": "/4rHlXwRldJZDfdQhaOfNbWwwG11.jpg", "genre_ids": [18, 10402], "id": 10560, "original_language": "en", "original_title": "Center Stage", "overview": "A group of 12 teenagers from various backgrounds enroll at the American Ballet Academy in New York to make it as ballet dancers and each one deals with the problems and stress of training and getting ahead in the world of dance.", "poster_path": "/hCR9r2hE0woymx62pymQ0Bs4mk7.jpg", "release_date": "2000-05-12", "title": "Center Stage", "video": false, "vote_average": 6.9, "vote_count": 195, "popularity": 11.477}, {"id": 44214, "video": false, "vote_count": 9192, "vote_average": 7.6, "title": "Black Swan", "release_date": "2010-12-03", "original_language": "en", "original_title": "Black Swan", "genre_ids": [18, 27, 53], "backdrop_path": "/t8jFs6cOl1YVSfXXZivWtEb14tF.jpg", "adult": false, "overview": "A journey through the psyche of a young ballerina whose starring role as the duplicitous swan queen turns out to be a part for which she becomes frighteningly perfect.", "poster_path": "/dQ7uxvsVTspVIsqjfgQj8usJpwX.jpg", "popularity": 24.558}, {"id": 407655, "video": false, "vote_count": 421, "vote_average": 6.8, "title": "A Cinderella Story: If the Shoe Fits", "release_date": "2016-08-02", "original_language": "en", "original_title": "A Cinderella Story: If the Shoe Fits", "genre_ids": [35, 14, 10402, 10751], "backdrop_path": "/svYzELCLW0NGVEuvNraA4W7Hmm9.jpg", "adult": false, "overview": "A contemporary musical version of the classic Cinderella story in which the servant step daughter hope to compete in a musical competition for a famous pop star.", "poster_path": "/prZSNnK5dkYcflsbdOsVVvqasZ5.jpg", "popularity": 19.825}, {"id": 342473, "video": false, "vote_count": 1169, "vote_average": 7.1, "title": "Ballerina", "release_date": "2016-12-14", "original_language": "en", "original_title": "Ballerina", "genre_ids": [12, 16, 35, 10751], "backdrop_path": "/wlLdcK3Sm7zp0w1ZuVvnFlmcchM.jpg", "adult": false, "overview": "Set in 1879 Paris. An orphan girl dreams of becoming a ballerina and flees her rural Brittany for Paris, where she passes for someone else and accedes to the position of pupil at the Grand Opera house.", "poster_path": "/qBxMhcmNnFniuDAZTKEHcSgKtsn.jpg", "popularity": 24.47}, {"id": 421623, "video": false, "vote_count": 29, "vote_average": 6.2, "title": "A Nutcracker Christmas", "release_date": "2016-12-10", "original_language": "en", "original_title": "A Nutcracker Christmas", "genre_ids": [18, 10749, 10751, 10770], "backdrop_path": "/k2e7Cm0iTmceTUsHfbyrh2zD378.jpg", "adult": false, "overview": "When her niece is cast in The Philadelphia Ballet\u2019s production of the Nutcracker, a jaded ex-ballerina is forced to come to terms with the life and love she left behind.", "poster_path": "/oF1Dvn1cNo75lFo4TeDCkuLobAq.jpg", "popularity": 4.1}, {"id": 19542, "video": false, "vote_count": 262, "vote_average": 8.2, "title": "The Red Shoes", "release_date": "1948-07-20", "original_language": "en", "original_title": "The Red Shoes", "genre_ids": [18, 10749], "backdrop_path": "/cSbBSHHiy849SUhyTW6FX4Dbj43.jpg", "adult": false, "overview": "In this classic drama, Vicky Page is an aspiring ballerina torn between her dedication to dance and her desire to love. While her imperious instructor, Boris Lermontov, urges to her to forget anything but ballet, Vicky begins to fall for the charming young composer Julian Craster. Eventually Vicky, under great emotional stress, must choose to pursue either her art or her romance, a decision that carries serious consequences.", "poster_path": "/oyOtIdNJJO8zVwPyCtxVRxPLuHO.jpg", "popularity": 11.31}, {"id": 382399, "video": false, "vote_count": 707, "vote_average": 7.1, "title": "High Strung", "release_date": "2016-04-08", "original_language": "en", "original_title": "High Strung", "genre_ids": [18, 10402, 10749], "backdrop_path": "/elSS1VQHKZF1j2ZxOnVdA2VhZzU.jpg", "adult": false, "overview": "When a hip hop violinist busking in the New York subway encounters a classical dancer on scholarship at the Manhattan Conservatory of the Arts, sparks fly. With the help of a hip hop dance crew they must find a common ground while preparing for a competition that could change their lives forever.", "poster_path": "/vBpiQ4urEIlSOntCaNNMkb1SBNR.jpg", "popularity": 14.016}, {"adult": false, "backdrop_path": "/6Ns8a4V5e69f3srxlre33yWNyQO.jpg", "genre_ids": [35, 18, 10749], "id": 10409, "original_language": "en", "original_title": "Strictly Ballroom", "overview": "Brave new steps put Scott's career in jeopardy. With a new partner and determination, can he still succeed?", "poster_path": "/ulA2RUGNvrwxbLDVUwxyB2eBl6P.jpg", "release_date": "1992-08-20", "title": "Strictly Ballroom", "video": false, "vote_average": 6.4, "vote_count": 164, "popularity": 11.315}, {"adult": false, "backdrop_path": "/5x0VEeFCnWzRBwU23KycKQRqEhN.jpg", "genre_ids": [10402, 35], "id": 15157, "original_language": "en", "original_title": "Another Cinderella Story", "overview": "A guy who danced with what could be the girl of his dreams at a costume ball only has one hint at her identity: the Zune she left behind as she rushed home in order to make her curfew. And with a once-in-a-lifetime opportunity in front of him, he sets out to find his masked beauty.", "poster_path": "/fLdCKCfHT8A6bnWybBsQFjC4fCo.jpg", "release_date": "2008-09-16", "title": "Another Cinderella Story", "video": false, "vote_average": 6.6, "vote_count": 1120, "popularity": 16.339}, {"id": 10545, "video": false, "vote_count": 3018, "vote_average": 7.0, "title": "The Hunchback of Notre Dame", "release_date": "1996-06-21", "original_language": "en", "original_title": "The Hunchback of Notre Dame", "genre_ids": [16, 18, 10751], "backdrop_path": "/oslaee3VX9kJAjVezbjZKlEJDzn.jpg", "adult": false, "overview": "When Quasimodo defies the evil Frollo and ventures out to the Festival of Fools, the cruel crowd jeers him. Rescued by fellow outcast the gypsy Esmeralda, Quasi soon finds himself battling to save the people and the city he loves.", "poster_path": "/r7V92gY3AMO6li17MmGTixAnFcv.jpg", "popularity": 28.041}, {"id": 9762, "video": false, "vote_count": 2460, "vote_average": 6.8, "title": "Step Up", "release_date": "2006-08-11", "original_language": "en", "original_title": "Step Up", "genre_ids": [80, 18, 10402, 10749], "backdrop_path": "/sKD3PfyP1u4tcoVQkpiAZqnx4H8.jpg", "adult": false, "overview": "Everyone deserves a chance to follow their dreams, but some people only get one shot. Tyler Gage is a rebel from the wrong side of Baltimore's tracks and the only thing that stands between him and an unfulfilled life are his dreams of one day making it out of there. Nora is a privileged ballet dancer attending Baltimore's ultra-elite Maryland School of the Arts", "poster_path": "/gyLww7ZlcwuzqvIwM1osR9Ioqtm.jpg", "popularity": 22.316}, {"id": 2976, "video": false, "vote_count": 1691, "vote_average": 6.6, "title": "Hairspray", "release_date": "2007-07-13", "original_language": "en", "original_title": "Hairspray", "genre_ids": [35, 18, 10749], "backdrop_path": "/yafOInYuEuK6FOw1oK40Lggp0TV.jpg", "adult": false, "overview": "Pleasantly plump teenager Tracy Turnblad auditions to be on Baltimore's most popular dance show - The Corny Collins Show - and lands a prime spot. Through her newfound fame, she becomes determined to help her friends and end the racial segregation that has been a staple of the show.", "poster_path": "/ndOpIx4BXpFCRRIxgMoGHxZxlE9.jpg", "popularity": 30.447}, {"id": 313369, "video": false, "vote_count": 11063, "vote_average": 7.9, "title": "La La Land", "release_date": "2016-11-29", "original_language": "en", "original_title": "La La Land", "genre_ids": [35, 18, 10402, 10749], "backdrop_path": "/fp6X6yhgcxzxCpmM0EVC6V9B8XB.jpg", "adult": false, "overview": "Mia, an aspiring actress, serves lattes to movie stars in between auditions and Sebastian, a jazz musician, scrapes by playing cocktail party gigs in dingy bars, but as success mounts they are faced with decisions that begin to fray the fragile fabric of their love affair, and the dreams they worked so hard to maintain in each other threaten to rip them apart.", "poster_path": "/ylXCdC106IKiarftHkcacasaAcb.jpg", "popularity": 39.654}, {"id": 10527, "video": false, "vote_count": 4220, "vote_average": 6.4, "title": "Madagascar: Escape 2 Africa", "release_date": "2008-10-30", "original_language": "en", "original_title": "Madagascar: Escape 2 Africa", "genre_ids": [16, 35, 10751], "backdrop_path": "/anxiz37Z9FPKeuCsJcxViSWmPxg.jpg", "adult": false, "overview": "Alex, Marty, and other zoo animals find a way to escape from Madagascar when the penguins reassemble a wrecked airplane. The precariously repaired craft stays airborne just long enough to make it to the African continent. There the New Yorkers encounter members of their own species for the first time. Africa proves to be a wild place, but Alex and company wonder if it is better than their Central Park home.", "poster_path": "/9mohxwknsHcwFBSAAhoQXwFV5zn.jpg", "popularity": 23.58}, {"id": 20352, "video": false, "vote_count": 10785, "vote_average": 7.2, "title": "Despicable Me", "release_date": "2010-07-08", "original_language": "en", "original_title": "Despicable Me", "genre_ids": [16, 35, 10751], "backdrop_path": "/yo1ef57MEPkEE4BDZKTZGH9uDcX.jpg", "adult": false, "overview": "Villainous Gru lives up to his reputation as a despicable, deplorable and downright unlikable guy when he hatches a plan to steal the moon from the sky. But he has a tough time staying on task after three orphans land in his care.", "poster_path": "/4zHJhBSY4kNZXfhTlmy2TzXD51M.jpg", "popularity": 35.41}, {"id": 8328, "video": false, "vote_count": 1486, "vote_average": 6.6, "title": "Step Up 2: The Streets", "release_date": "2008-02-14", "original_language": "en", "original_title": "Step Up 2: The Streets", "genre_ids": [18, 10402, 10749], "backdrop_path": "/fGq48GZp2PLVgx9IwW5lBf4DBYJ.jpg", "adult": false, "overview": "When rebellious street dancer Andie lands at the elite Maryland School of the Arts, she finds herself fighting to fit in while also trying to hold onto her old life. When she joins forces with the schools hottest dancer, Chase, to form a crew of classmate outcasts to compete in Baltimore s underground dance battle The Streets.", "poster_path": "/5SwoeOUyfkS8s6aGB2bLYAL5jKR.jpg", "popularity": 18.121}, {"id": 507076, "video": false, "vote_count": 632, "vote_average": 7.1, "title": "Climax", "release_date": "2018-09-19", "original_language": "fr", "original_title": "Climax", "genre_ids": [18, 27, 10402], "backdrop_path": "/v0sblc9A8eaE8EqDQ5Y6fELj4oB.jpg", "adult": false, "overview": "Young dancers gather in a remote and empty school building to rehearse on a cold and wintry night. The all-night celebration soon turns into a hallucinatory nightmare when they learn that their sangria is laced with LSD.", "poster_path": "/zQDqgzSdTGSDu4rDcQTq7TAttmy.jpg", "popularity": 17.873}, {"id": 71, "video": false, "vote_count": 2231, "vote_average": 7.6, "title": "Billy Elliot", "release_date": "2000-05-18", "original_language": "en", "original_title": "Billy Elliot", "genre_ids": [35, 18, 10402], "backdrop_path": "/vlnhKUvu335ZM8wSD27MaFHpNu2.jpg", "adult": false, "overview": "Set against the background of the 1984 Miners' Strike, 11-year-old Billy Elliot stumbles out of the boxing ring and onto the ballet floor. He faces many trials and triumphs as he strives to conquer his family's set ways, inner conflict, and standing on his toes.", "poster_path": "/6VaP1H3MOW5jdkWqS5Q1NapCOS6.jpg", "popularity": 19.875}, {"id": 361292, "video": false, "vote_count": 1096, "vote_average": 6.9, "title": "Suspiria", "release_date": "2018-10-11", "original_language": "en", "original_title": "Suspiria", "genre_ids": [14, 27], "backdrop_path": "/AmO8I38bkHwKhgxPNrd6djBQyPU.jpg", "adult": false, "overview": "A darkness swirls at the center of a world-renowned dance company, one that will engulf the troupe's artistic director, an ambitious young dancer and a grieving psychotherapist. Some will succumb to the nightmare, others will finally wake up.", "poster_path": "/qntguRoupnAASFdld8kTDe68fEn.jpg", "popularity": 16.617}, {"adult": false, "backdrop_path": "/nlwzLx5WVZPZDwXvexGGfaktts7.jpg", "genre_ids": [878, 53, 10749], "id": 38050, "original_language": "en", "original_title": "The Adjustment Bureau", "overview": "A man glimpses the future Fate has planned for him \u2013 and chooses to fight for his own destiny. Battling the powerful Adjustment Bureau across, under and through the streets of New York, he risks his destined greatness to be with the only woman he's ever loved.", "poster_path": "/g87PqGH9Oo3d3Tbczcfk7ZMAIEk.jpg", "release_date": "2011-03-03", "title": "The Adjustment Bureau", "video": false, "vote_average": 6.7, "vote_count": 2861, "popularity": 15.293}], "total_pages": 43, "total_results": 858}, "recommendations": {"page": 1, "results": [], "total_pages": 1, "total_results": 0}, "credits": {"cast": [{"cast_id": 5, "character": "Isabelle", "credit_id": "53ec2a120e0a2605e000098e", "gender": 1, "id": 1189293, "name": "Erin Pitt", "order": 0, "profile_path": "/pVFNjyuSdHQbpejlqfibGk2z1GX.jpg"}, {"cast_id": 7, "character": "Renata", "credit_id": "53ec2ab80e0a2605e90009b5", "gender": 1, "id": 1352920, "name": "Genneya Walton", "order": 1, "profile_path": "/asViWuDBgDl7TrlGeLfhrIH0rgN.jpg"}, {"cast_id": 8, "character": "Luisa", "credit_id": "53ec2ad90e0a2605e90009ba", "gender": 0, "id": 1352921, "name": "Devyn Nekoda", "order": 2, "profile_path": "/rCODfNA6cRIkSKNPnkkk9ewDwQU.jpg"}, {"cast_id": 19, "character": "Leo Palmer", "credit_id": "59f0301592514148be00360f", "gender": 0, "id": 200619, "name": "Jake Simons", "order": 3, "profile_path": "/j6CG2dyOcl1IQiEMt7d7OK19Alw.jpg"}, {"cast_id": 10, "character": "Drosselmeyer", "credit_id": "53ec2b2d0e0a2605e6000999", "gender": 0, "id": 1352922, "name": "Rex Harrington", "order": 4, "profile_path": "/djgP1GTzLDmfGYs6tGoLVsKTqQU.jpg"}, {"cast_id": 13, "character": "Ms Hawken", "credit_id": "53ec2b900e0a2605f10009a6", "gender": 0, "id": 1352925, "name": "Sarah Murphy-Dyson", "order": 5, "profile_path": "/ztGNk57UXBjrSiz8IqOQ0dfwEFr.jpg"}, {"cast_id": 14, "character": "Mrs. Palmer", "credit_id": "53ec2bb50e0a2605dd000968", "gender": 1, "id": 404, "name": "Melora Hardin", "order": 6, "profile_path": "/uecs9JKOqgYj3PrSGECaFzc3E2r.jpg"}, {"cast_id": 15, "character": "Jade", "credit_id": "53ec2c560e0a2605e90009f6", "gender": 0, "id": 1352928, "name": "Grace Davidson", "order": 7, "profile_path": null}, {"cast_id": 16, "character": "Mr.Koslow", "credit_id": "547a52c0c3a3685c42002f69", "gender": 2, "id": 133327, "name": "Daniel Fathers", "order": 8, "profile_path": "/mNYqUQ5a7yMug9hX2FYKeZO0oLw.jpg"}, {"cast_id": 17, "character": "Jackie Sanchez", "credit_id": "56026d8892514104a2000fc1", "gender": 0, "id": 1513794, "name": "Tanya Howard", "order": 9, "profile_path": null}, {"cast_id": 18, "character": "Lead Singer", "credit_id": "59587d48c3a36828fc0173ce", "gender": 2, "id": 1094134, "name": "Kolton Stewart", "order": 10, "profile_path": "/7Q5zboTy8OozcJdYFwWbDrKCR1.jpg"}], "crew": [{"credit_id": "53ec29410e0a2605dd000923", "department": "Writing", "gender": 1, "id": 63711, "job": "Writer", "name": "Amy Rardin", "profile_path": null}, {"credit_id": "53ec29120e0a2605dd00091d", "department": "Writing", "gender": 1, "id": 63710, "job": "Writer", "name": "Jessica O'Toole", "profile_path": null}, {"credit_id": "5dc415508d22fc00143dffd8", "department": "Camera", "gender": 2, "id": 112370, "job": "Director of Photography", "name": "Jon Joffin", "profile_path": null}, {"credit_id": "53ec29580e0a2605dd000928", "department": "Sound", "gender": 2, "id": 1006691, "job": "Music", "name": "Patrick Kirst", "profile_path": "/9B0sK1b6BdHZVrflsYj6lkRbRcP.jpg"}, {"credit_id": "53ec28fb0e0a2605dd00091b", "department": "Directing", "gender": 0, "id": 1066705, "job": "Director", "name": "Vince Marcello", "profile_path": null}]}}