{"adult": false, "backdrop_path": "/9BCY6Mn6862M1yxUMMm8bUtkXXu.jpg", "belongs_to_collection": null, "budget": 0, "genres": [{"id": 16, "name": "Animation"}, {"id": 36, "name": "History"}], "homepage": null, "id": 283146, "imdb_id": "tt3107228", "original_language": "en", "original_title": "This Land Is Mine", "overview": "An animated history of the conflict between Palestinians and Israelis", "popularity": 1.582, "poster_path": "/koHJDXA5OTGdPtwbif3Lceraf1X.jpg", "production_companies": [{"id": 76628, "logo_path": null, "name": "Nina Paley", "origin_country": ""}], "production_countries": [{"iso_3166_1": "US", "name": "United States of America"}], "release_date": "2012-07-22", "revenue": 0, "runtime": 4, "spoken_languages": [{"iso_639_1": "en", "name": "English"}], "status": "Released", "tagline": "Death is the real winner", "title": "This Land Is Mine", "video": false, "vote_average": 6.7, "vote_count": 8, "keywords": {"keywords": [{"id": 536, "name": "israel"}, {"id": 789, "name": "muslim"}, {"id": 2606, "name": "jew / jewish"}, {"id": 6091, "name": "war"}, {"id": 9392, "name": "orient"}, {"id": 9682, "name": "history"}, {"id": 18286, "name": "israeli palestinian conflict"}, {"id": 156378, "name": "land"}, {"id": 173259, "name": "arab"}, {"id": 187056, "name": "woman director"}]}, "similar": {"page": 1, "results": [{"id": 326359, "video": false, "vote_count": 1180, "vote_average": 6.8, "title": "Frozen Fever", "release_date": "2015-03-09", "original_language": "en", "original_title": "Frozen Fever", "genre_ids": [12, 16, 10751], "backdrop_path": "/ubioPGniCfDiASmYYpeJs5RRNaC.jpg", "adult": false, "overview": "On Anna's birthday, Elsa and Kristoff are determined to give her the best celebration ever, but Elsa's icy powers may put more than just the party at risk.", "poster_path": "/lKJiVPzsAO9IJ4LKWXZ8vkR2bg4.jpg", "popularity": 17.218}, {"id": 947, "video": false, "vote_count": 1588, "vote_average": 8.0, "title": "Lawrence of Arabia", "release_date": "1962-12-10", "original_language": "en", "original_title": "Lawrence of Arabia", "genre_ids": [12, 18, 36, 10752], "backdrop_path": "/lENerYvUcfl9GlolqA1emj5gb4k.jpg", "adult": false, "overview": "The story of British officer T.E. Lawrence's mission to aid the Arab tribes in their revolt against the Ottoman Empire during the First World War. Lawrence becomes a flamboyant, messianic figure in the cause of Arab unity but his psychological instability threatens to undermine his achievements.", "poster_path": "/j21UXCOq0EbV8EPTtmPn1CGePfB.jpg", "popularity": 17.37}, {"adult": false, "backdrop_path": "/2nLOJ8gtattGzYzwlYM8PrcgknH.jpg", "genre_ids": [28, 53, 18], "id": 399248, "original_language": "en", "original_title": "Beirut", "overview": "In 1980s Beirut, Mason Skiles is a former U.S. diplomat who is called back into service to save a colleague from the group that is possibly responsible for his own family's death. Meanwhile, a CIA field agent who is working under cover at the American embassy is tasked with keeping Mason alive and ensuring that the mission is a success.", "poster_path": "/s2qIeFsI9TskZr1LkSwljQDh5nl.jpg", "release_date": "2018-04-11", "title": "Beirut", "video": false, "vote_average": 6.2, "vote_count": 250, "popularity": 11.344}, {"id": 9813, "video": false, "vote_count": 128, "vote_average": 6.1, "title": "The Quiet", "release_date": "2005-09-12", "original_language": "en", "original_title": "The Quiet", "genre_ids": [18, 53], "backdrop_path": "/6eyWAZA4CEidZW1xXnQ4vlYBXTP.jpg", "adult": false, "overview": "After her widowed father dies, deaf teenager Dot moves in with her godparents, Olivia and Paul Deer. The Deers' daughter, Nina, is openly hostile to Dot, but that does not prevent her from telling her secrets to her silent stepsister, including the fact that she wants to kill her lecherous father.", "poster_path": "/GEqIE9YlmygHVUfS64LW2cwAAM.jpg", "popularity": 14.844}, {"id": 346672, "video": false, "vote_count": 2460, "vote_average": 5.5, "title": "Underworld: Blood Wars", "release_date": "2016-11-24", "original_language": "en", "original_title": "Underworld: Blood Wars", "genre_ids": [28, 18, 14, 27], "backdrop_path": "/fXqGBlz4xtLZzo878sHUxtsVzpU.jpg", "adult": false, "overview": "Vampire death dealer Selene fends off brutal attacks from both the Lycan clan and the Vampire faction that betrayed her. With her only allies, David and his father Thomas, she must stop the eternal war between Lycans and Vampires, even if it means she has to make the ultimate sacrifice.", "poster_path": "/nHXiMnWUAUba2LZ0dFkNDVdvJ1o.jpg", "popularity": 23.524}, {"id": 227306, "video": false, "vote_count": 2439, "vote_average": 7.4, "title": "Unbroken", "release_date": "2014-12-25", "original_language": "en", "original_title": "Unbroken", "genre_ids": [18, 10752], "backdrop_path": "/eSbKT3v3RKFRGeOmxJbZhIvrevR.jpg", "adult": false, "overview": "A chronicle of the life of Louis Zamperini, an Olympic runner who was taken prisoner by Japanese forces during World War II.", "poster_path": "/1un8i8UtCjSCnY3OfdxtB5kDRvF.jpg", "popularity": 18.995}, {"id": 2576, "video": false, "vote_count": 158, "vote_average": 7.2, "title": "The Diary of Anne Frank", "release_date": "1959-03-18", "original_language": "en", "original_title": "The Diary of Anne Frank", "genre_ids": [18, 36], "backdrop_path": "/x7yCQSWXSczdHUMKEMk5qyoUazO.jpg", "adult": false, "overview": "The true, harrowing story of a young Jewish girl who, with her family and their friends, is forced into hiding in an attic in Nazi-occupied Amsterdam.", "poster_path": "/i7kUdUAF9eTxQG7GdR6lKUK96En.jpg", "popularity": 13.374}, {"id": 26842, "video": false, "vote_count": 151, "vote_average": 7.3, "title": "The Message", "release_date": "1976-03-09", "original_language": "en", "original_title": "The Message", "genre_ids": [28, 12, 18, 36], "backdrop_path": "/nTKLYX1yDUUj5XNAaI8KGHWRBiB.jpg", "adult": false, "overview": "Handsomely-mounted historical epic concerns the birth of the Islamic faith and the story of the prophet Mohammed.", "poster_path": "/qVCBMg4ZuLPnWhIWJHD9IP4nIuY.jpg", "popularity": 9.671}, {"adult": false, "backdrop_path": "/mptra1sEhfCCP22R1B0TyOjmHIT.jpg", "genre_ids": [16, 18], "id": 2011, "original_language": "fr", "original_title": "Persepolis", "overview": "In 1970s Iran, Marjane 'Marji' Statrapi watches events through her young eyes and her idealistic family of a long dream being fulfilled of the hated Shah's defeat in the Iranian Revolution of 1979. However as Marji grows up, she witnesses first hand how the new Iran, now ruled by Islamic fundamentalists, has become a repressive tyranny on its own.", "poster_path": "/dYvyF1RlNokAd1N7Nek0vDpYsV6.jpg", "release_date": "2007-06-27", "title": "Persepolis", "video": false, "vote_average": 7.9, "vote_count": 1034, "popularity": 10.929}, {"id": 29572, "video": false, "vote_count": 122, "vote_average": 5.8, "title": "The Man Who Cried", "release_date": "2000-08-29", "original_language": "en", "original_title": "The Man Who Cried", "genre_ids": [18, 10402, 10749, 10752], "backdrop_path": "/rKVEQ9OkOA3kCCpKdywefulhTih.jpg", "adult": false, "overview": "A young refugee travels from Russia to America in search of her lost father and falls in love with a gypsy horseman.", "poster_path": "/hMtC9N4h5kpyObfjAbOXilVnjHg.jpg", "popularity": 10.149}, {"adult": false, "backdrop_path": "/pBgGl3GfVxs84T7ZniUAz5FMMNx.jpg", "genre_ids": [35, 10751, 12, 14, 10749], "id": 11451, "original_language": "en", "original_title": "Herbie Fully Loaded", "overview": "Maggie Peyton, the new owner of Number 53 - the free-wheelin' Volkswagen bug with a mind of its own - puts the car through its paces on the road to becoming a NASCAR competitor.", "poster_path": "/7lTfTZ8CDfXw09eAv3OOvsbCVgs.jpg", "release_date": "2005-06-22", "title": "Herbie Fully Loaded", "video": false, "vote_average": 5.3, "vote_count": 1347, "popularity": 14.041}, {"id": 71688, "video": false, "vote_count": 1019, "vote_average": 6.4, "title": "The Iron Lady", "release_date": "2011-12-30", "original_language": "en", "original_title": "The Iron Lady", "genre_ids": [18, 36], "backdrop_path": "/dfM5XwQcw36HAnKhowEh5776MJl.jpg", "adult": false, "overview": "A look at the life of Margaret Thatcher, the former Prime Minister of the United Kingdom, with a focus on the price she paid for power.", "poster_path": "/e67tal4u66eFz8yGnJGTO5FYRxY.jpg", "popularity": 10.839}, {"adult": false, "backdrop_path": "/vxsR4pjm8VNFrywz9TQLj3loxNB.jpg", "genre_ids": [12, 18, 36], "id": 26428, "original_language": "es", "original_title": "Agora", "overview": "A historical drama set in Roman Egypt, concerning philosopher Hypatia of Alexandria and her relationship with her slave Davus, who is torn between his love for her and the possibility of gaining his freedom by joining the rising tide of Christianity.", "poster_path": "/hZcl4TuZYTNWztIP8Zpvr6YLxiY.jpg", "release_date": "2009-05-17", "title": "Agora", "video": false, "vote_average": 6.9, "vote_count": 825, "popularity": 14.461}, {"id": 433627, "video": false, "vote_count": 220, "vote_average": 5.8, "title": "7 Days in Entebbe", "release_date": "2018-03-15", "original_language": "en", "original_title": "7 Days in Entebbe", "genre_ids": [80, 18, 53], "backdrop_path": "/er6vh4AXzkRiXfLXSvn2eHXuxbp.jpg", "adult": false, "overview": "In 1976, four hijackers take over an Air France airplane en route from Tel Aviv to Paris and force it to land in Entebbe, Uganda. With 248 passengers on board, one of the most daring rescue missions ever is set in motion.", "poster_path": "/nrC63ikbK4jDp3knvBqxPoWYEMM.jpg", "popularity": 15.577}, {"adult": false, "backdrop_path": "/slQFR2iCSH83BDClYwZPieI4oTF.jpg", "genre_ids": [18, 10751, 36], "id": 37453, "original_language": "en", "original_title": "Molly: An American Girl on the Home Front", "overview": "Molly is a girl living in the year 1944 and WWII has brought many changes to Molly's life. An English girl comes to live with Molly's family to escape the bombings. They slowly become good friends.", "poster_path": "/2pnnRadfln0sIRUM8LlEg2aBfe7.jpg", "release_date": "2006-11-26", "title": "Molly: An American Girl on the Home Front", "video": false, "vote_average": 5.9, "vote_count": 8, "popularity": 17.373}, {"adult": false, "backdrop_path": "/cADbqsIoiDW7X3Myg9nz8eAuno5.jpg", "genre_ids": [18, 10749], "id": 10818, "original_language": "fr", "original_title": "Naissance des pieuvres", "overview": "Set during a sultry summer in a French suburb, Marie is desperate to join the local pool's synchronized swimming team, but is her interest solely for the sake of sport or for a chance to get close to Floriane, the bad girl of the team? Sciamma, and the two leads, capture the uncertainty of teenage sexuality with a sympathetic eye in this delicate drama of the angst of coming-of-age.", "poster_path": "/4jajELYrR4Xmv3CVoKnukRnALa2.jpg", "release_date": "2007-05-17", "title": "Water Lilies", "video": false, "vote_average": 6.1, "vote_count": 119, "popularity": 9.614}, {"adult": false, "backdrop_path": "/fZ8oFcREAr6wgWcXISGql0xyxjB.jpg", "genre_ids": [35, 18], "id": 39781, "original_language": "en", "original_title": "The Kids Are All Right", "overview": "Two women, Nic and Jules, brought a son and daughter into the world through artificial insemination. When one of their children reaches age, both kids go behind their mothers' backs to meet with the donor. Life becomes so much more interesting when the father, two mothers and children start to become attached to each other.", "poster_path": "/fPDeK4MmoGfi2X0oWZev7LrbMqM.jpg", "release_date": "2010-07-09", "title": "The Kids Are All Right", "video": false, "vote_average": 6.6, "vote_count": 923, "popularity": 12.159}, {"adult": false, "backdrop_path": "/hp20DE7UHCr36yiuu0toqX3vjj8.jpg", "genre_ids": [99], "id": 38880, "original_language": "en", "original_title": "Promises", "overview": "Documentarians Justine Shapiro and B.Z. Goldberg traveled to Israel to interview Palestinian and Israeli kids ages 11 to 13, assembling their views on living in a society afflicted with violence, separatism and religious and political extremism. This 2002 Oscar nominee for Best Feature Documentary culminates in an astonishing day in which two Israeli children meet Palestinian youngsters at a refugee camp.", "poster_path": "/sNGY4nb8QwuYUiGt0NpEkhnKk3h.jpg", "release_date": "2001-01-01", "title": "Promises", "video": false, "vote_average": 7.9, "vote_count": 23, "popularity": 3.96}, {"adult": false, "backdrop_path": "/nriBinb7Y3Bm6LdbmOC0mFxSm8d.jpg", "genre_ids": [80, 18], "id": 226, "original_language": "en", "original_title": "Boys Don't Cry", "overview": "Female born, Teena Brandon adopts his male identity of Brandon Teena and attempts to find himself and love in Nebraska.", "poster_path": "/6bqIZTEuJnUrgnxcymciszvOz8J.jpg", "release_date": "1999-09-02", "title": "Boys Don't Cry", "video": false, "vote_average": 7.5, "vote_count": 718, "popularity": 10.072}, {"adult": false, "backdrop_path": "/24JDK9dRRRzkBjHBsKQIGs7sBkj.jpg", "genre_ids": [53, 18], "id": 303858, "original_language": "en", "original_title": "Money Monster", "overview": "Financial TV host Lee Gates and his producer Patty are put in an extreme situation when an irate investor takes over their studio.", "poster_path": "/p7KDmC2beuKCCMO49L767OgwLQr.jpg", "release_date": "2016-05-12", "title": "Money Monster", "video": false, "vote_average": 6.4, "vote_count": 2031, "popularity": 11.472}], "total_pages": 45, "total_results": 895}, "recommendations": {"page": 1, "results": [{"id": 67593, "video": false, "vote_count": 10, "vote_average": 5.8, "title": "The New Neighbor", "release_date": "1953-08-01", "original_language": "en", "original_title": "The New Neighbor", "genre_ids": [16], "backdrop_path": "/92xwFg5UAB5DJQCYrDHuSMOxdrM.jpg", "adult": false, "overview": "Donald moves into a new home, and discovers his new neighbor is a slob, a mooch, and has a dog that comes crashing through the fence and digging in Donald's garden. Eventually it escalates into a full-scale war, with crowds cheering and TV coverage.", "poster_path": "/v6GbC4k3111L02YtYifyP4GrKP6.jpg", "popularity": 2.17}, {"adult": false, "backdrop_path": "/q2ITuOm8ZPg8OI2GaUPLbl79XSy.jpg", "genre_ids": [18, 10749], "id": 193388, "original_language": "ar", "original_title": "\u062f\u0639\u0627\u0621 \u0627\u0644\u0643\u0631\u0648\u0627\u0646\u200e", "overview": "This compelling tale of love and betrayal, set in the upper Egyptian countryside, follows the story of Amna \"Faten Hamama\" as she plots her revenge on the engineer who destroyed her family's honor.", "poster_path": "/oqtFVtiVOON3DK85QcLJWsKWKGf.jpg", "release_date": "1959-10-07", "title": "The Nightingale's Prayer", "video": false, "vote_average": 7.5, "vote_count": 14, "popularity": 1.911}, {"adult": false, "backdrop_path": null, "genre_ids": [18, 27, 9648], "id": 272423, "original_language": "en", "original_title": "The Mistletoe Bough", "overview": "During a game of hide and seek, a new bride hides in a chest and remains undiscovered until a strange visitation thirty years later.", "poster_path": "/7oGmJ7hKoknRujYZgXqZaxG1PrR.jpg", "release_date": "1904-11-01", "title": "The Mistletoe Bough", "video": false, "vote_average": 5.1, "vote_count": 8, "popularity": 0.904}, {"adult": false, "backdrop_path": "/g88deWzRZX6ynXx671ujViR8z2U.jpg", "genre_ids": [16, 35], "id": 96458, "original_language": "da", "original_title": "The Saga of Biorn", "overview": "An old Viking is determined to reach Valhalla, the warrior's afterlife full of excessive drinking and debauchery. To gain entry he has to die honorably in battle, but he discovers that the right death isn't so easy.", "poster_path": "/pEsJOYURnMgeaASRlIOLVDqtMdC.jpg", "release_date": "2011-02-18", "title": "The Saga of Biorn", "video": false, "vote_average": 6.9, "vote_count": 13, "popularity": 0.959}, {"adult": false, "backdrop_path": "/6Fd1wetMxmGf3FkiywMah0ASKMh.jpg", "genre_ids": [16], "id": 54200, "original_language": "en", "original_title": "The Little House", "overview": "A small house has to try to compete with progress and the encroaching press of the big city.", "poster_path": "/7ZgkDwZX3F4Mqb3JakkQ9WzY7Jy.jpg", "release_date": "1952-08-08", "title": "The Little House", "video": false, "vote_average": 6.4, "vote_count": 15, "popularity": 2.059}, {"adult": false, "backdrop_path": "/rUsdWuXyuYF3DbQoWOtXiNw5Ny0.jpg", "genre_ids": [16], "id": 72679, "original_language": "en", "original_title": "Little School Mouse", "overview": "Professor Jerry teaches a course in how to outwit cats, but his pupil seems to know more than Jerry.", "poster_path": "/vIHH1BbhEyXu8QvjHiMQuXBe7VX.jpg", "release_date": "1954-05-29", "title": "Little School Mouse", "video": false, "vote_average": 6.3, "vote_count": 14, "popularity": 2.554}, {"adult": false, "backdrop_path": null, "genre_ids": [9648, 16], "id": 110760, "original_language": "en", "original_title": "Stille Nacht I", "overview": "A magnet moves on a floor. A moth beats against a window. A doll child watches the magnet; threads of metal filings gather around the magnet.", "poster_path": "/i3Rce571O2B6wNLmJwgYgrkmP29.jpg", "release_date": "1988-01-01", "title": "Stille Nacht I", "video": false, "vote_average": 6.4, "vote_count": 14, "popularity": 2.348}, {"adult": false, "backdrop_path": "/i5STOZvyXzuyFEjHokWmX3wkd0F.jpg", "genre_ids": [35, 16], "id": 73139, "original_language": "en", "original_title": "Love That Pup", "overview": "When a bulldog threatens Tom to keep away from his puppy, Jerry realizes that sticking close to the boy is the best way to keep away his feline tormentor. But Tom is not about to let the mouse evade him so easily.", "poster_path": "/fZWFSdlJdbGmfgFJNb3UMpRKeba.jpg", "release_date": "1949-10-01", "title": "Love That Pup", "video": false, "vote_average": 6.7, "vote_count": 12, "popularity": 2.781}, {"id": 40024, "video": false, "vote_count": 15, "vote_average": 6.5, "title": "Mouse Cleaning", "release_date": "1948-12-11", "original_language": "en", "original_title": "Mouse Cleaning", "genre_ids": [16], "backdrop_path": "/n1eFvhwnboAW6dl5Yffyb2WYw82.jpg", "adult": false, "overview": "Mammy Two-Shoes threatens to throw Tom out of the house if he makes a mess. Jerry sees an opportunity to rid himself of his feline nemesis.", "poster_path": "/o6OaCeUhCwE04wDDdGFsNDtdBXT.jpg", "popularity": 2.499}, {"adult": false, "backdrop_path": "/t85YU0VVnu7GLcx4wlWbUEl7UGH.jpg", "genre_ids": [18], "id": 46492, "original_language": "ja", "original_title": "\u5c71\u306e\u97f3", "overview": "An ingratiating bride develops warm ties to her father-in-law while her cold husband blithely slights her for another woman.", "poster_path": "/mzdKn2Eo5rZCV3fzBjVdxAI0KM8.jpg", "release_date": "1954-01-15", "title": "Sound of the Mountain", "video": false, "vote_average": 7.6, "vote_count": 26, "popularity": 5.084}, {"id": 79256, "video": false, "vote_count": 17, "vote_average": 6.5, "title": "Slicked-up Pup", "release_date": "1951-09-08", "original_language": "en", "original_title": "Slicked-up Pup", "genre_ids": [16], "backdrop_path": "/oQ6uv82WjezhpWPLTFf4z3rzJKH.jpg", "adult": false, "overview": "Spike has just washed his pup. Tom and Jerry's chase knocks him into a mud puddle. Spike makes Tom clean him up again and promise to keep him clean which of course is Jerry's opening to get Tom in trouble.", "poster_path": "/kQ3cl6xXM1oygMmOnFlf8BdJaMo.jpg", "popularity": 2.741}, {"adult": false, "backdrop_path": "/fg9Q2Mp9CaXHjHCeTZ84rC1QccB.jpg", "genre_ids": [16], "id": 39887, "original_language": "en", "original_title": "Solid Serenade", "overview": "Near a house is a doghouse labeled \"Killer\" with a dog (Spike) in it. Tom pokes his head over the wall and spots a female cat (Toodles Galore) in the window. Tom brings along his double bass, then wakes up Spike and neutralizes him by whacking him in the head with a mallet and tying him up. Tom uses his bass as a pogo stick to hop over to the window, stopping to taunt Spike along the way.", "poster_path": "/5BEcPLwXFLas95p4vXDhbPeBALV.jpg", "release_date": "1946-08-31", "title": "Solid Serenade", "video": false, "vote_average": 6.5, "vote_count": 14, "popularity": 2.94}, {"adult": false, "backdrop_path": null, "genre_ids": [35], "id": 52276, "original_language": "en", "original_title": "Pool Sharks", "overview": "Two romantic rivals play a game of pool for the hand of their lady love. This is Fields first film.", "poster_path": "/mdPEEEJcz7jAabi84SlNm0MU98P.jpg", "release_date": "1915-09-19", "title": "Pool Sharks", "video": false, "vote_average": 5.2, "vote_count": 18, "popularity": 2.492}, {"adult": false, "backdrop_path": "/fVtMKyE04kCBUYb3MEsyeADJbvW.jpg", "genre_ids": [16, 10751, 35], "id": 83775, "original_language": "en", "original_title": "From A to Z-Z-Z-Z", "overview": "Ralph is a daydreamer... and he is quick to adapt his current surroundings into new, adventurous dreams.", "poster_path": "/ro3aeny3NTXhbFOSSfRpboFf3KY.jpg", "release_date": "1954-10-16", "title": "From A to Z-Z-Z-Z", "video": false, "vote_average": 6.1, "vote_count": 12, "popularity": 3.753}, {"adult": false, "backdrop_path": "/wRrJUyd8v8sozRdPw2xDRsLkHFo.jpg", "genre_ids": [28, 18], "id": 114333, "original_language": "es", "original_title": "La caza", "overview": "Three men go hunting rabbits during a hot day. Heat and talking about events happened in the past make them angry, until they go totally crazy.", "poster_path": "/ij9Ad3Pk2Fd0zfkkBhQmBa7iDVD.jpg", "release_date": "1966-11-07", "title": "The Hunt", "video": false, "vote_average": 7.1, "vote_count": 16, "popularity": 2.57}, {"adult": false, "backdrop_path": "/7csjm2xnOe6eQYUL4paJqb89DLe.jpg", "genre_ids": [35], "id": 51727, "original_language": "en", "original_title": "Consent", "overview": "Things are going great on Penny and Judah's first date. They're lounging on her bed and they lean in for a kiss. Then he stops and asks her if she minds going over a sexual consent form. She has no objections, but asks if he minds if her lawyer looks it over. Soon, over each of their shoulders, their lawyers are in full negotiation.", "poster_path": "/5y6I3T8JzHfZYKDVVcfuIZ26mVb.jpg", "release_date": "2004-04-02", "title": "Consent", "video": false, "vote_average": 6.0, "vote_count": 10, "popularity": 1.512}, {"id": 94419, "video": false, "vote_count": 12, "vote_average": 6.3, "title": "The Dog House", "release_date": "1952-11-29", "original_language": "en", "original_title": "The Dog House", "genre_ids": [16, 35, 10751], "backdrop_path": "/gx7SrsIdB5CG30ebGcyA93qjoZt.jpg", "adult": false, "overview": "Spike is building the doghouse of his dreams. However, Tom chases Jerry through the chassis of the house and also pulls a board off it to attack the mouse with. When Jerry perches on Spike's head, even lying on top of his dream house does not stop it from being smashed. Tom bolts, but Spike stomps on his tail, then dusts himself off and wrenches the cat facing in his direction. He issues Tom an ultimatum: leave his dream house alone or suffer the consequences (\"Wait a minute pussycat! Ever since I was a pup I've wanted a place of my own and I still want it! But if one thing happens to my little dreamhouse...there's goin' to be moider!\").", "poster_path": "/iyZWtXWis10Sr4ePyRrNT4pO1ET.jpg", "popularity": 2.193}, {"adult": false, "backdrop_path": "/nImHXYrYC7matxSdfKNQSGLqfbN.jpg", "genre_ids": [18], "id": 110090, "original_language": "en", "original_title": "My Way Home", "overview": "Jamie leaves the children's home to live with his paternal grandmother. After working in a mine and in a tailor's shop, he is conscripted into the RAF, and goes to Egypt, where he is befriended by Robert, whose undemanding companionship releases Jamie from self-pity.", "poster_path": "/3ySi5RPsemAgTjGjDFo3XABYgo8.jpg", "release_date": "1978-11-01", "title": "My Way Home", "video": false, "vote_average": 6.6, "vote_count": 17, "popularity": 3.605}, {"adult": false, "backdrop_path": null, "genre_ids": [], "id": 195073, "original_language": "fr", "original_title": "Transport d'une tourelle par un attelage de 60 chevaux", "overview": "Transport of a turret by a team of 60 horses.", "poster_path": "/fWdcKeIJMUOtAuQLRgDPm5Pjv06.jpg", "release_date": "1897-01-01", "title": "Transport d'une tourelle par un attelage de 60 chevaux", "video": false, "vote_average": 5.8, "vote_count": 12, "popularity": 1.4}, {"adult": false, "backdrop_path": null, "genre_ids": [99], "id": 195074, "original_language": "fr", "original_title": "Paris, le Pont-Neuf", "overview": "Small glimpse of Paris city life.", "poster_path": "/be6vWEHqld8VHkQxHqKEuA559mn.jpg", "release_date": "1897-05-20", "title": "Paris, le Pont-Neuf", "video": false, "vote_average": 5.1, "vote_count": 12, "popularity": 0.855}], "total_pages": 2, "total_results": 35}, "credits": {"cast": [], "crew": [{"credit_id": "53ce07e3c3a36877750040f0", "department": "Directing", "gender": 1, "id": 86523, "job": "Director", "name": "Nina Paley", "profile_path": null}, {"credit_id": "5732800692514165780007f0", "department": "Writing", "gender": 1, "id": 86523, "job": "Writer", "name": "Nina Paley", "profile_path": null}, {"credit_id": "5732801392514165750007d0", "department": "Editing", "gender": 1, "id": 86523, "job": "Editor", "name": "Nina Paley", "profile_path": null}, {"credit_id": "5732802a925141656f0007d2", "department": "Sound", "gender": 2, "id": 24810, "job": "Original Music Composer", "name": "Pat Boone", "profile_path": "/cJrvLDdFnQHjHxO0DxDVDQ1Oa5K.jpg"}]}}