{"adult": false, "backdrop_path": "/obe0wM4apBJZ4dfL8YcMtAAeksq.jpg", "belongs_to_collection": null, "budget": 0, "genres": [{"id": 18, "name": "Drama"}, {"id": 10752, "name": "War"}], "homepage": null, "id": 283329, "imdb_id": "tt0045941", "original_language": "en", "original_title": "The Juggler", "overview": "A Holocaust survivor moves to Israel and experiences difficulty adjusting to life.", "popularity": 2.286, "poster_path": "/tUbDKYTeyicrAL0lnVmedRTx3h5.jpg", "production_companies": [{"id": 893, "logo_path": null, "name": "Stanley Kramer Productions", "origin_country": "US"}], "production_countries": [{"iso_3166_1": "US", "name": "United States of America"}], "release_date": "1953-05-11", "revenue": 0, "runtime": 84, "spoken_languages": [{"iso_639_1": "en", "name": "English"}], "status": "Released", "tagline": "", "title": "The Juggler", "video": false, "vote_average": 7.0, "vote_count": 3, "keywords": {"keywords": [{"id": 536, "name": "israel"}, {"id": 2652, "name": "nazi"}, {"id": 15090, "name": "police officer"}, {"id": 206923, "name": "jewish refugee"}]}, "similar": {"page": 1, "results": [{"id": 424, "video": false, "vote_count": 8988, "vote_average": 8.6, "title": "Schindler's List", "release_date": "1993-11-30", "original_language": "en", "original_title": "Schindler's List", "genre_ids": [18, 36, 10752], "backdrop_path": "/cTNYRUTXkBgPH3wP3kmPUB5U6dA.jpg", "adult": false, "overview": "The true story of how businessman Oskar Schindler saved over a thousand Jewish lives from the Nazis while they worked as slaves in his factory during World War II.", "poster_path": "/yPisjyLweCl1tbgwgtzBCNCBle.jpg", "popularity": 25.457}, {"adult": false, "backdrop_path": "/pKawqrtCBMmxarft7o1LbEynys7.jpg", "genre_ids": [10752, 18, 28], "id": 228150, "original_language": "en", "original_title": "Fury", "overview": "In the last months of World War II, as the Allies make their final push in the European theatre, a battle-hardened U.S. Army sergeant named 'Wardaddy' commands a Sherman tank called 'Fury' and its five-man crew on a deadly mission behind enemy lines. Outnumbered and outgunned, Wardaddy and his men face overwhelming odds in their heroic attempts to strike at the heart of Nazi Germany.", "poster_path": "/fa4PxEPRKWRyjzYje1jM4m30qzd.jpg", "release_date": "2014-10-15", "title": "Fury", "video": false, "vote_average": 7.4, "vote_count": 7301, "popularity": 56.882}, {"id": 16869, "video": false, "vote_count": 13525, "vote_average": 8.1, "title": "Inglourious Basterds", "release_date": "2009-08-18", "original_language": "en", "original_title": "Inglourious Basterds", "genre_ids": [28, 18, 53, 10752], "backdrop_path": "/50VD6QU0NX0aRB6ftKCVWun80bm.jpg", "adult": false, "overview": "In Nazi-occupied France during World War II, a group of Jewish-American soldiers known as \"The Basterds\" are chosen specifically to spread fear throughout the Third Reich by scalping and brutally killing Nazis. The Basterds, lead by Lt. Aldo Raine soon cross paths with a French-Jewish teenage girl who runs a movie theater in Paris which is targeted by the soldiers.", "poster_path": "/ai0LXkzVM3hMjDhvFdKMUemoBe.jpg", "popularity": 32.532}, {"id": 637, "video": false, "vote_count": 8083, "vote_average": 8.5, "title": "Life Is Beautiful", "release_date": "1997-12-20", "original_language": "it", "original_title": "La vita \u00e8 bella", "genre_ids": [35, 18], "backdrop_path": "/bORe0eI72D874TMawOOFvqWS6Xe.jpg", "adult": false, "overview": "A touching story of an Italian book seller of Jewish ancestry who lives in his own little fairy tale. His creative and happy life would come to an abrupt halt when his entire family is deported to a concentration camp during World War II. While locked up he tries to convince his son that the whole thing is just a game.", "poster_path": "/f7DImXDebOs148U4uPjI61iDvaK.jpg", "popularity": 23.166}, {"id": 14574, "video": false, "vote_count": 3974, "vote_average": 7.8, "title": "The Boy in the Striped Pyjamas", "release_date": "2008-05-07", "original_language": "en", "original_title": "The Boy in the Striped Pyjamas", "genre_ids": [18, 10752], "backdrop_path": "/tFyhGkJgV6M5zZAjS8SBVqOjzH4.jpg", "adult": false, "overview": "When his family moves from their home in Berlin to a strange new house in Poland, young Bruno befriends Shmuel, a boy who lives on the other side of the fence where everyone seems to be wearing striped pajamas. Unaware of Shmuel's fate as a Jewish prisoner or the role his own Nazi father plays in his imprisonment, Bruno embarks on a dangerous journey inside the camp's walls.", "poster_path": "/f40R9to84FGF7T5bp3KGB84Lklb.jpg", "popularity": 19.131}, {"adult": false, "backdrop_path": "/7QDnuj2T6CCY5wOSnKfYH7cIb6M.jpg", "genre_ids": [18, 35, 10752], "id": 8056, "original_language": "fr", "original_title": "Train de vie", "overview": "In 1941, the inhabitants of a small Jewish village in Central Europe organize a fake deportation train so that they can escape the Nazis and flee to Palestine.", "poster_path": "/anUwgyVrC7kUwN5OliazbC5qBfr.jpg", "release_date": "1998-09-16", "title": "Train of Life", "video": false, "vote_average": 7.5, "vote_count": 150, "popularity": 7.165}, {"id": 821, "video": false, "vote_count": 348, "vote_average": 8.1, "title": "Judgment at Nuremberg", "release_date": "1961-12-01", "original_language": "en", "original_title": "Judgment at Nuremberg", "genre_ids": [18, 36], "backdrop_path": "/g8yVrnJ72eOt1Xw4uyYBIsBBE2g.jpg", "adult": false, "overview": "In 1947, four German judges who served on the bench during the Nazi regime face a military tribunal to answer charges of crimes against humanity. Chief Justice Haywood hears evidence and testimony not only from lead defendant Ernst Janning and his defense attorney Hans Rolfe, but also from the widow of a Nazi general, an idealistic U.S. Army captain and reluctant witness Irene Wallner.", "poster_path": "/iu7VMhBma5S94M3wh0fR8cmwgUf.jpg", "popularity": 10.015}, {"id": 289222, "video": false, "vote_count": 835, "vote_average": 7.4, "title": "The Zookeeper's Wife", "release_date": "2017-03-31", "original_language": "en", "original_title": "The Zookeeper's Wife", "genre_ids": [18, 36], "backdrop_path": "/rE6W3KHdIuTdgRDLOOOMR3gfGgc.jpg", "adult": false, "overview": "The account of keepers of the Warsaw Zoo, Jan and Antonina Zabinski, who helped save hundreds of people and animals during the Nazi invasion.", "poster_path": "/50KGpMiIvSkF4WHOgp0gM6r6sMU.jpg", "popularity": 14.144}, {"adult": false, "backdrop_path": "/yGBa4cj6GBu4426Phj2voxfz1nz.jpg", "genre_ids": [18], "id": 203833, "original_language": "en", "original_title": "The Book Thief", "overview": "While subjected to the horrors of WWII Germany, young Liesel finds solace by stealing books and sharing them with others. Under the stairs in her home, a Jewish refuge is being sheltered by her adoptive parents.", "poster_path": "/rUJbwJkJNjwEcFYzEktOrgm5YUd.jpg", "release_date": "2013-11-08", "title": "The Book Thief", "video": false, "vote_average": 7.5, "vote_count": 3017, "popularity": 17.725}, {"adult": false, "backdrop_path": "/plINQ1WJvnhjlxS5GUGCGKqZrMz.jpg", "genre_ids": [36, 99, 10752], "id": 803, "original_language": "fr", "original_title": "Nuit et brouillard", "overview": "Filmmaker Alain Resnais documents the atrocities behind the walls of Hitler's concentration camps.", "poster_path": "/xJc21xCemQirc1rHOJ8QLpUj1jA.jpg", "release_date": "1960-10-20", "title": "Night and Fog", "video": false, "vote_average": 8.3, "vote_count": 209, "popularity": 10.011}, {"id": 1771, "video": false, "vote_count": 14038, "vote_average": 6.9, "title": "Captain America: The First Avenger", "release_date": "2011-07-22", "original_language": "en", "original_title": "Captain America: The First Avenger", "genre_ids": [28, 12, 878], "backdrop_path": "/pmZtj1FKvQqISS6iQbkiLg5TAsr.jpg", "adult": false, "overview": "During World War II, Steve Rogers is a sickly man from Brooklyn who's transformed into super-soldier Captain America to aid in the war effort. Rogers must stop the Red Skull \u2013 Adolf Hitler's ruthless head of weaponry, and the leader of an organization that intends to use a mysterious device of untold powers for world domination.", "poster_path": "/vSNxAJTlD0r02V9sPYpOjqDZXUK.jpg", "popularity": 20.824}, {"adult": false, "backdrop_path": "/1RKpaOeY60gCNbkW2xGBrXYkZUg.jpg", "genre_ids": [18, 36, 10752], "id": 25237, "original_language": "ru", "original_title": "\u0418\u0434\u0438 \u0438 \u0441\u043c\u043e\u0442\u0440\u0438", "overview": "The invasion of a village in Byelorussia by German forces sends young Florya into the forest to join the weary Resistance fighters, against his family's wishes. There he meets a girl, Glasha, who accompanies him back to his village. On returning home, Florya finds his family and fellow peasants massacred. His continued survival amidst the brutal debris of war becomes increasingly nightmarish, a battle between despair and hope.", "poster_path": "/8MYIwgpXnc5x98dmidmJFD68MY6.jpg", "release_date": "1985-07-01", "title": "Come and See", "video": false, "vote_average": 8.3, "vote_count": 396, "popularity": 17.996}, {"id": 369885, "video": false, "vote_count": 3048, "vote_average": 6.7, "title": "Allied", "release_date": "2016-11-17", "original_language": "en", "original_title": "Allied", "genre_ids": [28, 18, 53, 10749, 10752], "backdrop_path": "/tC0tVH5KQhCwMlddnyA3iWOSuBA.jpg", "adult": false, "overview": "In 1942, an intelligence officer in North Africa encounters a female French Resistance fighter on a deadly mission behind enemy lines. When they reunite in London, their relationship is tested by the pressures of war.", "poster_path": "/nzXzLFTnd0Zb3ExfhOxlQgizgSu.jpg", "popularity": 32.359}, {"id": 11046, "video": false, "vote_count": 434, "vote_average": 7.6, "title": "Where Eagles Dare", "release_date": "1968-12-04", "original_language": "en", "original_title": "Where Eagles Dare", "genre_ids": [28, 12, 18, 36, 10752], "backdrop_path": "/aAFq5jVHV6RZpLcRXATskNBuEbM.jpg", "adult": false, "overview": "World War II is raging, and an American general has been captured and is being held hostage in the Schloss Adler, a Bavarian castle that's nearly impossible to breach. It's up to a group of skilled Allied soldiers to liberate the general before it's too late.", "poster_path": "/991u0tSWGTVXCYkgC6ftaGE4bkQ.jpg", "popularity": 15.171}, {"id": 438799, "video": false, "vote_count": 1393, "vote_average": 6.6, "title": "Overlord", "release_date": "2018-11-01", "original_language": "en", "original_title": "Overlord", "genre_ids": [27, 878, 10752], "backdrop_path": "/sHNC8hjAu4ZKXYhG3cp8ghRZ02B.jpg", "adult": false, "overview": "France, June 1944. On the eve of D-Day, some American paratroopers fall behind enemy lines after their aircraft crashes while on a mission to destroy a radio tower in a small village near the beaches of Normandy. After reaching their target, the surviving paratroopers realise that, in addition to fighting the Nazi troops that patrol the village, they also must fight against something else.", "poster_path": "/l76Rgp32z2UxjULApxGXAPpYdAP.jpg", "popularity": 21.089}, {"adult": false, "backdrop_path": "/nb70B4EXuoegiQ0C5N1fNVHIaYc.jpg", "genre_ids": [12, 18, 36, 53, 10752], "id": 5925, "original_language": "en", "original_title": "The Great Escape", "overview": "The Nazis, exasperated at the number of escapes from their prison camps by a relatively small number of Allied prisoners, relocates them to a high-security 'escape-proof' camp to sit out the remainder of the war. Undaunted, the prisoners plan one of the most ambitious escape attempts of World War II. Based on a true story.", "poster_path": "/qhy4HgUqhEbwQ1ekKTv7yEB3b0e.jpg", "release_date": "1963-06-20", "title": "The Great Escape", "video": false, "vote_average": 8.0, "vote_count": 1359, "popularity": 19.093}, {"id": 505954, "video": false, "vote_count": 211, "vote_average": 5.5, "title": "T-34", "release_date": "2018-12-27", "original_language": "ru", "original_title": "T-34", "genre_ids": [28, 10752], "backdrop_path": "/59qyrVGLLtrcuFtJGdixzn7H4OI.jpg", "adult": false, "overview": "In 1944, a courageous group of Russian soldiers managed to escape from German captivity in a half-destroyed legendary T-34 tank. Those were the times of unforgettable bravery, fierce fighting, unbreakable love, and legendary miracles.", "poster_path": "/3nag9eCEMIo4yVZD7sKLodEPe8T.jpg", "popularity": 40.247}, {"id": 423, "video": false, "vote_count": 4650, "vote_average": 8.3, "title": "The Pianist", "release_date": "2002-09-17", "original_language": "en", "original_title": "The Pianist", "genre_ids": [18, 10752], "backdrop_path": "/xUR95VFV1UTyzS1C8Lj06hi2n2M.jpg", "adult": false, "overview": "The true story of pianist W\u0142adys\u0142aw Szpilman's experiences in Warsaw during the Nazi occupation. When the Jews of the city find themselves forced into a ghetto, Szpilman finds work playing in a caf\u00e9; and when his family is deported in 1942, he stays behind, works for a while as a laborer, and eventually goes into hiding in the ruins of the war-torn city.", "poster_path": "/hfMeo073RxKKjZZV4gSGema1yog.jpg", "popularity": 25.546}, {"id": 289, "video": false, "vote_count": 2866, "vote_average": 8.1, "title": "Casablanca", "release_date": "1942-01-23", "original_language": "en", "original_title": "Casablanca", "genre_ids": [18, 10749], "backdrop_path": "/5tE7iKSpBrc4z6LqF5kHutMm6KQ.jpg", "adult": false, "overview": "In Casablanca, Morocco in December 1941, a cynical American expatriate meets a former lover, with unforeseen complications.", "poster_path": "/wOBKAoUJZb5qTsWv5XXvVV2vUzz.jpg", "popularity": 21.116}, {"id": 403300, "video": false, "vote_count": 43, "vote_average": 6.7, "title": "A Hidden Life", "release_date": "2019-12-11", "original_language": "en", "original_title": "A Hidden Life", "genre_ids": [18, 36, 10752], "backdrop_path": "/7OcLrFT8VkrMTUUwLQISJOwzz0n.jpg", "adult": false, "overview": "Based on real events, A HIDDEN LIFE is the story of an unsung hero, Franz J\u00e4gerst\u00e4tter, who refused to fight for the Nazis in World War II.", "poster_path": "/rdG4jfH0rxkB2FgkYmjj9V4Q31M.jpg", "popularity": 25.05}], "total_pages": 121, "total_results": 2414}, "recommendations": {"page": 1, "results": [], "total_pages": 1, "total_results": 0}, "credits": {"cast": [{"cast_id": 1, "character": "Hans Muller", "credit_id": "53cfa016c3a368776a007684", "gender": 2, "id": 2090, "name": "Kirk Douglas", "order": 1, "profile_path": "/vIZgu07gJtS2j460jgBlI1IvkAO.jpg"}, {"cast_id": 2, "character": "Detective Karni", "credit_id": "53cfa02fc3a3687775007540", "gender": 2, "id": 11033, "name": "Paul Stewart", "order": 2, "profile_path": "/8tKdcrxfykUgevbWTz8kuK7neQZ.jpg"}, {"cast_id": 3, "character": "Ya'El", "credit_id": "53cfa03ac3a368776d007505", "gender": 1, "id": 94314, "name": "Milly Vitale", "order": 3, "profile_path": "/lIxHDP7yJ4oJ8s7uPWfDYbjbQw9.jpg"}, {"cast_id": 4, "character": "Yehoshua Bresler", "credit_id": "53cfa04cc3a36877640075da", "gender": 2, "id": 22035, "name": "Joseph Walsh", "order": 4, "profile_path": "/hJ9toyNtYVmqXZYs8GVcCpllICV.jpg"}, {"cast_id": 5, "character": "Daniel", "credit_id": "53cfa055c3a368776d00750c", "gender": 2, "id": 131067, "name": "Alf Kjellin", "order": 5, "profile_path": "/zA9dfgKkQRYyYBUVL9XnXgEMBtX.jpg"}, {"cast_id": 6, "character": "Rosenberg", "credit_id": "53cfa06cc3a368776a007697", "gender": 2, "id": 29579, "name": "Charles Lane", "order": 6, "profile_path": "/wu5fTupk5atyJlCsHhXPGcdf8Mg.jpg"}, {"cast_id": 7, "character": "Susy", "credit_id": "53cfa07bc3a368776d007512", "gender": 1, "id": 15983, "name": "Beverly Washburn", "order": 7, "profile_path": "/z4mrxE78UFYUB0PsyKapjU3s7rm.jpg"}, {"cast_id": 8, "character": "Emile Halevy", "credit_id": "53cfa08bc3a36877710074de", "gender": 2, "id": 50764, "name": "John Banner", "order": 8, "profile_path": "/obSl3NYEYu1vc7ysce1ApqGe4M3.jpg"}, {"cast_id": 11, "character": "Willy Schmidt", "credit_id": "56f5c78e92514125d60002ac", "gender": 2, "id": 13894, "name": "Oskar Karlweis", "order": 9, "profile_path": "/pAEaTOK7Bbjdm052w4APIZH73j4.jpg"}], "crew": [{"credit_id": "53cf9ff5c3a3687775007534", "department": "Directing", "gender": 2, "id": 64114, "job": "Director", "name": "Edward Dmytryk", "profile_path": "/rEW1tLWUsWpSikOoY3WIzeEhVN9.jpg"}, {"credit_id": "540f30c5c3a3686e400000bd", "department": "Writing", "gender": 2, "id": 64117, "job": "Screenplay", "name": "Michael Blankfort", "profile_path": null}, {"credit_id": "540f30c0c3a3686e4c000098", "department": "Writing", "gender": 2, "id": 64117, "job": "Novel", "name": "Michael Blankfort", "profile_path": null}, {"credit_id": "57f84e87925141698e0016ca", "department": "Camera", "gender": 2, "id": 97048, "job": "Director of Photography", "name": "J. Roy Hunt", "profile_path": null}, {"credit_id": "5ca335ddc3a3682b3010c49a", "department": "Art", "gender": 0, "id": 2278990, "job": "Props", "name": "Clarence Peet", "profile_path": null}]}}