{"adult": false, "backdrop_path": "/ikdn99QgFYg5WaZjNTnhkhbdWgW.jpg", "belongs_to_collection": null, "budget": 0, "genres": [{"id": 80, "name": "Crime"}, {"id": 99, "name": "Documentary"}], "homepage": null, "id": 283302, "imdb_id": "tt2866660", "original_language": "en", "original_title": "Lost for Life", "overview": "A documentary about juveniles who are serving life in prison without parole and their victims' families.", "popularity": 1.955, "poster_path": "/7mBCL6382J4jYdvgSl2weNtj4cs.jpg", "production_companies": [], "production_countries": [], "release_date": "2013-06-22", "revenue": 0, "runtime": 75, "spoken_languages": [{"iso_639_1": "en", "name": "English"}], "status": "Released", "tagline": "Could you forgive?", "title": "Lost for Life", "video": false, "vote_average": 6.7, "vote_count": 10, "keywords": {"keywords": [{"id": 378, "name": "prison"}, {"id": 9826, "name": "murder"}, {"id": 9890, "name": "jail"}, {"id": 13130, "name": "teenager"}, {"id": 15127, "name": "killer"}, {"id": 15232, "name": "parole"}]}, "similar": {"page": 1, "results": [{"adult": false, "backdrop_path": "/8UkJSL5hlwGh3uSC5tyoaqhHQh7.jpg", "genre_ids": [80, 18, 53], "id": 18587, "original_language": "en", "original_title": "10 to Midnight", "overview": "Based on the real-life Richard Speck murders. After his bizarre behavior results in rejection from countless women, Warren Stacy begins murdering women, always while he is naked, which minimizes any physical evidence left behind. Detective Leo Kessler is convinced of Stacy\u2019s guilt and, over the objections of his partner, plants evidence to get him behind bars. When Stacy is released on a technicality, he threatens to go after Kessler and his family, leaving Kessler to defend himself with little help from the police.", "poster_path": "/bJiLyz6g8vsFgJ5oAdMWlQAWY4T.jpg", "release_date": "1983-03-11", "title": "10 to Midnight", "video": false, "vote_average": 6.0, "vote_count": 73, "popularity": 9.514}, {"adult": false, "backdrop_path": "/v761yOHKO3p6Yr7LDCjud6tUL5G.jpg", "genre_ids": [28, 80, 53], "id": 10651, "original_language": "en", "original_title": "The Dead Pool", "overview": "Dirty Harry Callahan returns for his final film adventure. Together with his partner Al Quan, he must investigate the systematic murder of actors and musicians. By the time Harry learns that the murders are a part of a sick game to predict the deaths of celebrities before they happen, it may be too late...", "poster_path": "/9ZUSqox9lIxN4xaYBac2QXMFcZj.jpg", "release_date": "1988-07-12", "title": "The Dead Pool", "video": false, "vote_average": 6.4, "vote_count": 389, "popularity": 10.626}, {"adult": false, "backdrop_path": "/xdha8DvElblfBbNnkpGsF42lAyv.jpg", "genre_ids": [28, 80, 53], "id": 2749, "original_language": "en", "original_title": "15 Minutes", "overview": "When Eastern European criminals Oleg and Emil come to New York City to pick up their share of a heist score, Oleg steals a video camera and starts filming their activities, both legal and illegal. When they learn how the American media circus can make a remorseless killer look like the victim and make them rich, they target media-savvy NYPD Homicide Detective Eddie Flemming and media-naive FDNY Fire Marshal Jordy Warsaw, the cops investigating their murder and torching of their former criminal partner, filming everything to sell to the local tabloid TV show \"Top Story.\"", "poster_path": "/qqqleHV8y7NLKt7isSZAvOwVPH6.jpg", "release_date": "2001-03-01", "title": "15 Minutes", "video": false, "vote_average": 5.8, "vote_count": 372, "popularity": 14.636}, {"adult": false, "backdrop_path": "/t3OZS8yMs0NL4YgWWc04eXHTn1X.jpg", "genre_ids": [28, 80, 53], "id": 984, "original_language": "en", "original_title": "Dirty Harry", "overview": "When a madman dubbed 'Scorpio' terrorizes San Francisco, hard-nosed cop, Harry Callahan \u2013 famous for his take-no-prisoners approach to law enforcement \u2013 is tasked with hunting down the psychopath. Harry eventually collars Scorpio in the process of rescuing a kidnap victim, only to see him walk on technicalities. Now, the maverick detective is determined to nail the maniac himself.", "poster_path": "/2TADKc4GMMPdMrLXj0xJVgTvZJM.jpg", "release_date": "1971-12-21", "title": "Dirty Harry", "video": false, "vote_average": 7.5, "vote_count": 1173, "popularity": 18.839}, {"id": 4771, "video": false, "vote_count": 2134, "vote_average": 7.3, "title": "Gone Baby Gone", "release_date": "2007-09-18", "original_language": "en", "original_title": "Gone Baby Gone", "genre_ids": [80, 18, 9648], "backdrop_path": "/sogh5NXPbKFajjYKBlfIBfCWgbq.jpg", "adult": false, "overview": "When 4 year old Amanda McCready disappears from her home and the police make little headway in solving the case, the girl's aunt, Beatrice McCready hires two private detectives, Patrick Kenzie and Angie Gennaro. The detectives freely admit that they have little experience with this type of case, but the family wants them for two reasons - they're not cops and they know the tough neighborhood in which they all live. As the case progresses, Kenzie and Gennaro face drug dealers, gangs and pedophiles. When they are about to solve the case, they are faced with a moral dilemma that tears them apart.", "poster_path": "/dXXMPxGiRegd7NNCtE5uchAKRAG.jpg", "popularity": 16.498}, {"adult": false, "backdrop_path": "/ct2r3CqnA0KtMfib4AvfBU1W9M2.jpg", "genre_ids": [28, 80, 53], "id": 398175, "original_language": "en", "original_title": "Brawl in Cell Block 99", "overview": "After working as a drug courier and getting into a brutal shootout with police, a former boxer finds himself at the mercy of his enemies as they force him to instigate violent acts that turn the prison he resides in into a battleground.", "poster_path": "/lGgIQ10NJ3d0X0uFbbUN4pRrMFZ.jpg", "release_date": "2017-09-23", "title": "Brawl in Cell Block 99", "video": false, "vote_average": 6.8, "vote_count": 605, "popularity": 14.943}, {"adult": false, "backdrop_path": "/uUYCUbgI5VxsUflTMI4Y9L2Y6vb.jpg", "genre_ids": [80, 18, 53], "id": 11423, "original_language": "ko", "original_title": "\uc0b4\uc778\uc758 \ucd94\uc5b5", "overview": "1986 Gyunggi Province. The body of a young woman is found brutally raped and murdered. Two months later, a series of rapes and murders commences under similar circumstances. And in a country that had never known such crimes, the dark whispers about a serial murderer grow louder. A special task force is set up in the area, with two local detectives Park Doo-Man and Jo Young-Goo joined by a detective from Seoul who requested to be assigned to the case.", "poster_path": "/gawnVe9cFowdoDLo9Pok12NTw39.jpg", "release_date": "2003-05-02", "title": "Memories of Murder", "video": false, "vote_average": 8.1, "vote_count": 1093, "popularity": 13.452}, {"id": 1803, "video": false, "vote_count": 26, "vote_average": 6.3, "title": "Angel", "release_date": "1984-04-19", "original_language": "en", "original_title": "Angel", "genre_ids": [28, 80, 53], "backdrop_path": "/5m7zi5ndJludQeRAKK6j1FoZVUK.jpg", "adult": false, "overview": "15 year-old Molly is top of her high school class. But nobody suspects that the model pupil earns her money at night: as a prostitute on Sunset Blvd. The well-organized separation of her two lives is shattered when two of her friends are slain by a serial killer. She's the only eye witness and becomes a target herself.", "poster_path": "/3O7VwsGQdgqjChRxSZwPjjYND6m.jpg", "popularity": 8.543}, {"adult": false, "backdrop_path": "/3TCPWrxQkfon82xPNtmpweOSVJc.jpg", "genre_ids": [18, 80, 9648, 10749, 53], "id": 12150, "original_language": "en", "original_title": "Sea of Love", "overview": "Seen-it-all New York detective Frank Keller is unsettled - he has done twenty years on the force and could retire, and he hasn't come to terms with his wife leaving him for a colleague. Joining up with an officer from another part of town to investigate a series of murders linked by the lonely hearts columns he finds he is getting seriously and possibly dangerously involved with Helen, one of the main suspects.", "poster_path": "/7DkkTHIX3hUqvsRv5sDmJAkCfKK.jpg", "release_date": "1989-09-15", "title": "Sea of Love", "video": false, "vote_average": 6.7, "vote_count": 290, "popularity": 10.636}, {"adult": false, "backdrop_path": "/oB8oMhq8GIQdkrmUtuHnOgJwQyP.jpg", "genre_ids": [35, 80, 53], "id": 483, "original_language": "en", "original_title": "Wild at Heart", "overview": "Young lovers Sailor and Lula run from the variety of weirdos that Lula's mom has hired to kill Sailor.", "poster_path": "/d4fbQjSSBd4FPyAROln1skafChr.jpg", "release_date": "1990-08-17", "title": "Wild at Heart", "video": false, "vote_average": 7.1, "vote_count": 746, "popularity": 12.224}, {"adult": false, "backdrop_path": "/iNuvbrHGNtrUwlm48u4KnQhhMKp.jpg", "genre_ids": [80, 18, 53], "id": 26390, "original_language": "en", "original_title": "Brooklyn's Finest", "overview": "Enforcing the law within the notoriously rough Brownsville section of the city and especially within the Van Dyke housing projects is the NYPD's sixty-fifth precinct. Three police officers struggle with the sometimes fine line between right and wrong.", "poster_path": "/jKSBk0LtZgXxG56uvwiAtYf6ttF.jpg", "release_date": "2009-01-16", "title": "Brooklyn's Finest", "video": false, "vote_average": 6.4, "vote_count": 500, "popularity": 11.822}, {"id": 291356, "video": false, "vote_count": 261, "vote_average": 5.9, "title": "In a Valley of Violence", "release_date": "2016-10-21", "original_language": "en", "original_title": "In a Valley of Violence", "genre_ids": [28, 80, 53, 37], "backdrop_path": "/bnw8E9Jrj0mvmktXka9L1Kvq3ji.jpg", "adult": false, "overview": "The story of a drifter named Paul who arrives in a small town seeking revenge on the thugs who murdered his friend. Sisters Mary Anne and Ellen, who run the town's hotel, help Paul in his quest for vengeance.", "poster_path": "/vt6PRYO81BUKxPFhmzg0CzOq8oo.jpg", "popularity": 9.086}, {"adult": false, "backdrop_path": "/iLvqbCanH1liQ5VERCyCR31GkkL.jpg", "genre_ids": [35, 27, 878], "id": 15762, "original_language": "en", "original_title": "Night of the Creeps", "overview": "In 1959, an alien experiment crashes to earth and infects a fraternity member. They freeze the body, but in the modern day, two geeks pledging a fraternity accidentally thaw the corpse, which proceeds to infect the campus with parasites that transform their hosts into killer zombies.", "poster_path": "/A3s2tQGNb6mhlr1hPZeE5F8IUwp.jpg", "release_date": "1986-08-21", "title": "Night of the Creeps", "video": false, "vote_average": 6.6, "vote_count": 219, "popularity": 10.383}, {"id": 75780, "video": false, "vote_count": 4451, "vote_average": 6.4, "title": "Jack Reacher", "release_date": "2012-12-20", "original_language": "en", "original_title": "Jack Reacher", "genre_ids": [28, 80, 18, 53], "backdrop_path": "/ezXodpP429qK0Av89pVNlaXWJkQ.jpg", "adult": false, "overview": "When a gunman takes five lives with six shots, all evidence points to the suspect in custody. On interrogation, the suspect offers up a single note: \"Get Jack Reacher!\" So begins an extraordinary chase for the truth, pitting Jack Reacher against an unexpected enemy, with a skill for violence and a secret to keep.", "poster_path": "/mt0ELw83HIRgaKaDzhsDcIi0RnW.jpg", "popularity": 15.945}, {"id": 4638, "video": false, "vote_count": 4429, "vote_average": 7.5, "title": "Hot Fuzz", "release_date": "2007-02-14", "original_language": "en", "original_title": "Hot Fuzz", "genre_ids": [28, 35, 80], "backdrop_path": "/zuskekrfW3gj9ttXNVhfdHe5n22.jpg", "adult": false, "overview": "As a former London constable, Nicholas Angel finds it difficult to adapt to his new assignment in the sleepy British village of Sandford. Not only does he miss the excitement of the big city, but he also has a well-meaning oaf for a partner. However, when a series of grisly accidents rocks Sandford, Angel smells something rotten in the idyllic village.", "poster_path": "/5Jx6s6VXnunh8wCLgR0YgjwSgjh.jpg", "popularity": 22.387}, {"id": 1949, "video": false, "vote_count": 5165, "vote_average": 7.5, "title": "Zodiac", "release_date": "2007-03-02", "original_language": "en", "original_title": "Zodiac", "genre_ids": [80, 18, 9648, 53], "backdrop_path": "/jP2htGBHE7vKq4MLeC75UeC0sZH.jpg", "adult": false, "overview": "The true story of the investigation of the \"Zodiac Killer\", a serial killer who terrified the San Francisco Bay Area, taunting police with his ciphers and letters. The case becomes an obsession for three men as their lives and careers are built and destroyed by the endless trail of clues.", "poster_path": "/bgLyOROfFQI3FqYL7jQbiaV8lkN.jpg", "popularity": 24.455}, {"adult": false, "backdrop_path": "/a24i4Qw6qFTtkFLQsncv8WPwevj.jpg", "genre_ids": [53, 28, 80], "id": 345887, "original_language": "en", "original_title": "The Equalizer 2", "overview": "Robert McCall, who serves an unflinching justice for the exploited and oppressed, embarks on a relentless, globe-trotting quest for vengeance when a long-time girl friend is murdered.", "poster_path": "/cQvc9N6JiMVKqol3wcYrGshsIdZ.jpg", "release_date": "2018-07-19", "title": "The Equalizer 2", "video": false, "vote_average": 6.5, "vote_count": 2482, "popularity": 24.261}, {"id": 23483, "video": false, "vote_count": 8165, "vote_average": 7.1, "title": "Kick-Ass", "release_date": "2010-03-22", "original_language": "en", "original_title": "Kick-Ass", "genre_ids": [28, 80], "backdrop_path": "/ngPkB9K8ZpIjv8HpIC8ExqAfG6H.jpg", "adult": false, "overview": "Dave Lizewski is an unnoticed high school student and comic book fan who one day decides to become a super-hero, even though he has no powers, training or meaningful reason to do so.", "poster_path": "/gtfggr5n3ED1neoTqVYmsVCoSS.jpg", "popularity": 24.282}, {"id": 339692, "video": false, "vote_count": 1163, "vote_average": 6.9, "title": "Shot Caller", "release_date": "2017-07-13", "original_language": "en", "original_title": "Shot Caller", "genre_ids": [80, 18, 53], "backdrop_path": "/hehboYLXB3m90x9ybiBsupwuifL.jpg", "adult": false, "overview": "A newly-released prison gangster is forced by the leaders of his gang to orchestrate a major crime with a brutal rival gang on the streets of Southern California.", "poster_path": "/qLmLz2wtyYvmW8Ult3l2ngOnW8v.jpg", "popularity": 25.016}, {"id": 807, "video": false, "vote_count": 11937, "vote_average": 8.3, "title": "Se7en", "release_date": "1995-09-22", "original_language": "en", "original_title": "Se7en", "genre_ids": [80, 9648, 53], "backdrop_path": "/A0WKbRIojF9DUWG4XLCmg5JK6I5.jpg", "adult": false, "overview": "Two homicide detectives are on a desperate hunt for a serial killer whose crimes are based on the \"seven deadly sins\" in this dark and haunting film that takes viewers from the tortured remains of one victim to the next. The seasoned Det. Sommerset researches each sin in an effort to get inside the killer's mind, while his novice partner, Mills, scoffs at his efforts to unravel the case.", "poster_path": "/8zw8IL4zEPjkh8Aysdcd0FwGMb0.jpg", "popularity": 34.018}], "total_pages": 79, "total_results": 1563}, "recommendations": {"page": 1, "results": [{"adult": false, "backdrop_path": null, "genre_ids": [99, 18], "id": 168771, "original_language": "en", "original_title": "Soccer City", "overview": "Race. Class. Poverty. Faith. Hope. Soccer. Welcome to Alex\u2013\u2013the largest and most notorious township in South Africa where soccer is lived, not played. With the first ever FIFA World Cup in Africa as a backdrop, witness the cultural importance of soccer in township South Africa through the lives of five individuals born and raised in the oldest and toughest of South Africa\u2019s townships, Alexandra, locally known as \u2018Alex.\u2019 Seventeen-year-old dribbling sensation Nancy \u2018Maradona\u2019 Majola, former national team player Isaac \u2018Shakes\u2019 Kungwane, current professional Patrick \u2018Raiden\u2019 Phungwayo, 69-year-old Jacob \u2018Babes\u2019 Bopape one of the first professional soccer players in South Africa, and scholarship-winner Ricardo \u2018Rico\u2019 Kutumela will all take you into a culture dominated by soccer and into a storied township still largely unknown and misunderstood even among South Africans.", "poster_path": "/wCqFUmWhyOffGgE8tmeSNt1XdMx.jpg", "release_date": "2011-11-04", "title": "Soccer City", "video": false, "vote_average": 7.0, "vote_count": 3, "popularity": 1.132}, {"id": 261038, "video": false, "vote_count": 7, "vote_average": 7.7, "title": "The Newburgh Sting", "release_date": "2014-04-20", "original_language": "en", "original_title": "The Newburgh Sting", "genre_ids": [99], "backdrop_path": null, "adult": false, "overview": "Just 60 miles north of New York City sits the poverty-stricken town of Newburgh, where, in 2009, four men were arrested for a plan to bomb two Jewish centers in the Bronx. But their leader, a suspicious Pakistani businessman planted by the government as an informant, led these men straight into the hands of the authorities. With endless footage gathered from hidden cameras, directors David Heilbroner and Kate Davis investigate just what homegrown terrorism truly means in this shocking and galvanizing expos\u00e9.", "poster_path": "/4RAdVcv0rJtBKNldGNC1cZXc1ZO.jpg", "popularity": 3.534}, {"adult": false, "backdrop_path": "/a1HE7JiF9Aj9GOXuGovEBBOJ9qW.jpg", "genre_ids": [99], "id": 398287, "original_language": "en", "original_title": "They Call Us Monsters", "overview": "Behind the walls of the Compound, LA\u2019s most violent juvenile offenders await their trials. To their advocates, they\u2019re kids. To the system, they\u2019re adults. To their victims, they\u2019re monsters. Who are they to you?", "poster_path": "/hWF6HuOApWQlo3gyIVW7oZ5062G.jpg", "release_date": "2016-06-06", "title": "They Call Us Monsters", "video": false, "vote_average": 7.1, "vote_count": 12, "popularity": 4.732}, {"adult": false, "backdrop_path": "/9UCxN7Cu5GosUmnPkv998a6fgCc.jpg", "genre_ids": [18], "id": 339258, "original_language": "en", "original_title": "Golden Kingdom", "overview": "Story of four young monks left alone in their remote monastery in Myanmar. Shot entirely in newly-opened Myanmar with non-actors, the film bridges spirit, cinema, and traditional Burmese storytelling to open a view onto an unseen world.", "poster_path": "/ezbgDToL6Gnjv2anm7g2TPpYVo2.jpg", "release_date": "2015-02-09", "title": "Golden Kingdom", "video": false, "vote_average": 7.0, "vote_count": 5, "popularity": 2.031}, {"adult": false, "backdrop_path": "/bWpQ9Ux4OqC9vGz5TwBI9uQFoI4.jpg", "genre_ids": [99], "id": 252143, "original_language": "en", "original_title": "Mortified Nation", "overview": "Adults share their most embarrassing teenage writings and art in front of total strangers at Mortified stage shows across the country, as the filmmakers explore what the show's popularity says about all of us.", "poster_path": "/bYtmC4aQr1Dwy6YMtsw4igt4mew.jpg", "release_date": "2013-11-05", "title": "Mortified Nation", "video": false, "vote_average": 6.8, "vote_count": 13, "popularity": 2.713}, {"adult": false, "backdrop_path": "/dIYULY854s2K3qNT9RdgTKFLQpV.jpg", "genre_ids": [99], "id": 429289, "original_language": "en", "original_title": "One in a Billion", "overview": "In a country of 1.2 billion people and in a sport with billions of fans worldwide, there has yet to be a single Indian-born player drafted in the NBA. One in a Billion follows the global journey of Satnam Singh Bhamara from his home of Ballo Ke, a farming village in rural India, to the bright lights of New York City as he attempts to change history. Building up to a climactic draft night after years of hard work, Satnam hopes to finally create the long-awaited connection between India and the NBA.", "poster_path": "/zwhMfMpCS5aWlqUdknCaCebGTw7.jpg", "release_date": "2016-11-02", "title": "One in a Billion", "video": false, "vote_average": 7.2, "vote_count": 10, "popularity": 1.055}, {"adult": false, "backdrop_path": "/nv72vAjOMUCazl0izzUowZK9vJr.jpg", "genre_ids": [35, 18], "id": 344039, "original_language": "en", "original_title": "Len and Company", "overview": "A successful music producer quits the industry and exiles himself in upstate New York, but the solitude he seeks is shattered when his estranged son and the pop star he's created come looking for answers.", "poster_path": "/inmn7KmhAMg7tXikugRKICUFWy1.jpg", "release_date": "2015-09-11", "title": "Len and Company", "video": false, "vote_average": 6.3, "vote_count": 6, "popularity": 3.911}, {"adult": false, "backdrop_path": "/jIrlyDQEqJGMRI29Ji4i6BVMCPB.jpg", "genre_ids": [99, 36], "id": 451974, "original_language": "en", "original_title": "Let It Fall: Los Angeles 1982-1992", "overview": "An in-depth look at the culture of Los Angeles in the ten years leading up to the 1992 uprising that erupted after the verdict of police officers cleared of beating Rodney King.", "poster_path": "/sfMHsRoO64j6yfZCPosfQWi5y5y.jpg", "release_date": "2017-04-21", "title": "Let It Fall: Los Angeles 1982-1992", "video": false, "vote_average": 7.8, "vote_count": 14, "popularity": 3.739}, {"adult": false, "backdrop_path": "/91wEWlcqK8ESVU4ArdFk5o1GM5E.jpg", "genre_ids": [99], "id": 343880, "original_language": "en", "original_title": "A Murder in the Park", "overview": "Documentary filmmakers assert that Anthony Porter - a former death-row inmate who was spared the death penalty thanks to the efforts of a college journalism program - was actually guilty, and an innocent man was sent to prison.", "poster_path": "/g0wME5TyTTdvUXtp2Qsp4kF7XCC.jpg", "release_date": "2015-06-26", "title": "A Murder in the Park", "video": false, "vote_average": 7.4, "vote_count": 10, "popularity": 5.016}], "total_pages": 1, "total_results": 9}, "credits": {"cast": [], "crew": [{"credit_id": "5c54f45b9251410e1d4d13e8", "department": "Directing", "gender": 2, "id": 1314043, "job": "Director", "name": "Joshua Rof\u00e9", "profile_path": null}, {"credit_id": "5c54f3acc3a368478c9db931", "department": "Production", "gender": 0, "id": 1314044, "job": "Producer", "name": "Ted Leonsis", "profile_path": null}, {"credit_id": "5c54f38cc3a36826a6819206", "department": "Production", "gender": 0, "id": 1314045, "job": "Producer", "name": "Rick Allen", "profile_path": null}]}}