{"adult": false, "backdrop_path": "/odYHylfshxtRtGGzWT9rPGPhVhC.jpg", "belongs_to_collection": null, "budget": 0, "genres": [{"id": 10402, "name": "Music"}, {"id": 18, "name": "Drama"}], "homepage": null, "id": 285011, "imdb_id": "tt0135173", "original_language": "en", "original_title": "Broken Strings", "overview": "After noted violinist Arthur Williams suffers a hand injury which ends his playing career, his hopes are transferred to his son, who prefers swing music to classical.", "popularity": 1.402, "poster_path": "/7bRwYGNYN3uSpJRZEw3O5ZK90Bw.jpg", "production_companies": [{"id": 29010, "logo_path": null, "name": "L.C. Borden Productions", "origin_country": ""}, {"id": 29011, "logo_path": null, "name": "Goldport Productions", "origin_country": ""}], "production_countries": [{"iso_3166_1": "US", "name": "United States of America"}], "release_date": "1940-01-01", "revenue": 0, "runtime": 60, "spoken_languages": [{"iso_639_1": "en", "name": "English"}], "status": "Released", "tagline": "", "title": "Broken Strings", "video": false, "vote_average": 4.5, "vote_count": 4, "keywords": {"keywords": [{"id": 6027, "name": "music"}, {"id": 8608, "name": "violinist"}]}, "similar": {"page": 1, "results": [{"adult": false, "backdrop_path": "/q3eNcig4YFEsUTnmIYDA90FdndO.jpg", "genre_ids": [10402, 35, 28, 80], "id": 525, "original_language": "en", "original_title": "The Blues Brothers", "overview": "Jake Blues is just out of jail, and teams up with his brother, Elwood on a 'mission from God' to raise funds for the orphanage in which they grew up. The only thing they can do is do what they do best: play music. So they get their old band together, and set out on their way\u2014while getting in a bit of trouble here and there.", "poster_path": "/6hesUNBkpVRqBTBw2HlTg0h8b56.jpg", "release_date": "1980-06-17", "title": "The Blues Brothers", "video": false, "vote_average": 7.7, "vote_count": 2299, "popularity": 21.638}, {"id": 6575, "video": false, "vote_count": 364, "vote_average": 6.6, "title": "Walk Hard: The Dewey Cox Story", "release_date": "2007-12-21", "original_language": "en", "original_title": "Walk Hard: The Dewey Cox Story", "genre_ids": [35, 18, 10402], "backdrop_path": "/y7EElGAn1tFE0Npmls7uvg4HPVj.jpg", "adult": false, "overview": "Following a childhood tragedy, Dewey Cox follows a long and winding road to music stardom. Dewey perseveres through changing musical styles, an addiction to nearly every drug known and bouts of uncontrollable rage.", "poster_path": "/2sc7qoLTqZC0nB2k1crwuVoKP6H.jpg", "popularity": 15.669}, {"adult": false, "backdrop_path": "/pQOs5bwFpaimeaK5PA2XXteU1Ly.jpg", "genre_ids": [10402, 99], "id": 20575, "original_language": "en", "original_title": "Queen: Live at Wembley Stadium", "overview": "One of the world's biggest bands return to the scene of their Live Aid (1985) triumph a year earlier to play all their greatest hits in front of a packed Wembley Stadium.", "poster_path": "/qztOmfZ8uLPN3MUNHJd8GaJST2V.jpg", "release_date": "1986-07-12", "title": "Live at Wembley Stadium", "video": false, "vote_average": 8.7, "vote_count": 49, "popularity": 8.207}, {"id": 786, "video": false, "vote_count": 1485, "vote_average": 7.5, "title": "Almost Famous", "release_date": "2000-09-15", "original_language": "en", "original_title": "Almost Famous", "genre_ids": [18, 10402], "backdrop_path": "/zfucY8mxcrNeopFneyvyERZQah1.jpg", "adult": false, "overview": "In 1973, 15-year-old William Miller's unabashed love of music and aspiration to become a rock journalist lands him an assignment from Rolling Stone magazine to interview and tour with the up-and-coming band Stillwater\u2014fronted by lead guitar Russell Hammond, and lead singer Jeff Bebe.", "poster_path": "/9pNo92j6zSEAUB8pNmcJTkpnkBF.jpg", "popularity": 17.801}, {"id": 5723, "video": false, "vote_count": 768, "vote_average": 7.5, "title": "Once", "release_date": "2007-03-23", "original_language": "en", "original_title": "Once", "genre_ids": [18, 10402, 10749], "backdrop_path": "/5e9rYIQzaSy3v6ntyFuA3N4QN6b.jpg", "adult": false, "overview": "A vacuum repairman moonlights as a street musician and hopes for his big break. One day a Czech immigrant, who earns a living selling flowers, approaches him with the news that she is also an aspiring singer-songwriter. The pair decide to collaborate, and the songs that they compose reflect the story of their blossoming love.", "poster_path": "/fEjwJfeDxgsRBlYgEWMgvrKQ6VB.jpg", "popularity": 11.17}, {"id": 198277, "video": false, "vote_count": 2275, "vote_average": 7.2, "title": "Begin Again", "release_date": "2013-09-07", "original_language": "en", "original_title": "Begin Again", "genre_ids": [35, 18, 10402, 10749], "backdrop_path": "/r36B5xC2KT9KuxPlTfQJHFwi2EA.jpg", "adult": false, "overview": "A long-lost music producer finds a singer-songwriter right about the moment he has given up all hope on life.", "poster_path": "/qx4HXHXt528hS4rwePZbZo20xqZ.jpg", "popularity": 13.171}, {"id": 13576, "video": false, "vote_count": 509, "vote_average": 6.9, "title": "This Is It", "release_date": "2009-10-28", "original_language": "en", "original_title": "This Is It", "genre_ids": [99, 10402], "backdrop_path": "/w7yzaQ7P2UBtSyMqMOx0zNxc3wB.jpg", "adult": false, "overview": "A compilation of interviews, rehearsals and backstage footage of Michael Jackson as he prepared for his series of sold-out shows in London.", "poster_path": "/4ZgT8FRJxxpG0mgOIPeCgjzAsBR.jpg", "popularity": 11.776}, {"adult": false, "backdrop_path": "/qOMWTdCoaiVtZMJL044D0ZRkpu1.jpg", "genre_ids": [10402], "id": 63973, "original_language": "en", "original_title": "AC/DC:  Live at River Plate", "overview": "AC/DC Live At River Plate, a definitive live concert film documenting AC/DC\u2019s massive Black Ice World Tour. Shot in December of 2009, AC/DC Live At River Plate marks AC/DC\u2019s triumphant return to Buenos Aires where nearly 200,000 fans, and 3 sold-out shows, welcomed the band back after a 13 year absence from Argentina. This stunning live footage of AC/DC underscores what Argentina\u2019s Pagina 12 newspaper reported by saying \u201cno one is on the same level when it comes to pure and clear Rock \u2018n Roll.\u201d Live At River Plate was shot with 32 cameras entirely in HD and features 19 songs as well as \u2018behind the scenes\u2019 footage of this massive production coming together among the excitement of anxious fans.", "poster_path": "/8KzHL6lmbtDPH6VZZjF6w65Inmg.jpg", "release_date": "2009-12-11", "title": "AC/DC:  Live at River Plate", "video": true, "vote_average": 6.9, "vote_count": 25, "popularity": 8.432}, {"id": 27, "video": false, "vote_count": 200, "vote_average": 5.0, "title": "9 Songs", "release_date": "2004-07-16", "original_language": "en", "original_title": "9 Songs", "genre_ids": [18, 10402, 10749], "backdrop_path": "/tie8vA3q3Q9BB5RlMlexRvv9xoh.jpg", "adult": false, "overview": "Matt, a young glaciologist, soars across the vast, silent, icebound immensities of the South Pole as he recalls his love affair with Lisa. They meet at a mobbed rock concert in a vast music hall - London's Brixton Academy. They are in bed at night's end. Together, over a period of several months, they pursue a mutual sexual passion whose inevitable stages unfold in counterpoint to nine live-concert songs.", "poster_path": "/91O7z0vo7MiNWd5xD2BoivwbQsb.jpg", "popularity": 17.371}, {"adult": false, "backdrop_path": "/pM1CnP0ZN2VxmrTAbBZOS3PNoNE.jpg", "genre_ids": [35, 10402], "id": 1584, "original_language": "en", "original_title": "School of Rock", "overview": "Fired from his band and hard up for cash, guitarist and vocalist Dewey Finn finagles his way into a job as a fifth-grade substitute teacher at a private school, where he secretly begins teaching his students the finer points of rock 'n' roll. The school's hard-nosed principal is rightly suspicious of Finn's activities. But Finn's roommate remains in the dark about what he's doing.", "poster_path": "/cREN222Yw78zvSQ9bg17Y9QZS0c.jpg", "release_date": "2003-10-03", "title": "School of Rock", "video": false, "vote_average": 7.0, "vote_count": 3292, "popularity": 23.266}, {"id": 10537, "video": false, "vote_count": 603, "vote_average": 6.9, "title": "The Doors", "release_date": "1991-03-01", "original_language": "en", "original_title": "The Doors", "genre_ids": [18, 10402], "backdrop_path": "/1rv5sW6Qs2YK2iOzIgwH3SJPIl1.jpg", "adult": false, "overview": "The story of the famous and influential 1960s rock band and its lead singer and composer, Jim Morrison.", "poster_path": "/9CkFrWAkg23YynYd2uJLyWznMZZ.jpg", "popularity": 14.573}, {"id": 20313, "video": true, "vote_count": 20, "vote_average": 8.7, "title": "Where the Light Is: John Mayer Live in Los Angeles", "release_date": "2008-07-01", "original_language": "en", "original_title": "Where the Light Is: John Mayer Live in Los Angeles", "genre_ids": [10402], "backdrop_path": "/3hRjAtEvLGdRpznktxZRnVmdilz.jpg", "adult": false, "overview": "Where The Light Is: John Mayer Live in Los Angeles captures the multi-Grammy\u00ae Award-winning, Platinum-selling singer/songwriter in the element where fans love him the most: live on stage. This special concert includes three sets: an acoustic performance, a rare set with John Mayer Trio (John Mayer, Steve Jordan and Pino Palladino), as well as a set featuring Mayer's full band.", "poster_path": "/laZt8OKutRXptSbwbMLWlWGoIPM.jpg", "popularity": 4.422}, {"adult": false, "backdrop_path": "/2aHM8lYzcaO4MfN7VNvo1QFU0ft.jpg", "genre_ids": [99, 10402], "id": 373558, "original_language": "en", "original_title": "Taylor Swift: The 1989 World Tour - Live", "overview": "Taylor delivers the concert event of the year. Filmed at Sydney's ANZ Stadium in front of 76,000 fans, The 1989 World Tour - Live captures the excitement and energy of the hottest pop star in the world. Filled with great music, an electrifying stage show, and superstar guest appearances, the concert film is only on Apple Music.", "poster_path": "/kzXe8kscKo83BwGvIofWg6SCR7n.jpg", "release_date": "2015-12-20", "title": "Taylor Swift: The 1989 World Tour - Live", "video": false, "vote_average": 8.3, "vote_count": 65, "popularity": 10.446}, {"adult": false, "backdrop_path": "/tvTyRu9eKfymkje8d9VoWJEoyUv.jpg", "genre_ids": [18], "id": 53932, "original_language": "es", "original_title": "Las edades de Lul\u00fa", "overview": "Fifteen-year-old Lulu has never known any affection from her family. But when she goes to a rock concert with Pablo, a friend of the family, he introduces Lulu to her first sexual experience. Years later, Pablo and Lulu have married; Pablo has created a sheltered, private world for Lulu, into which nothing intrudes. However, Lulu tires of her cloistered existence, and begins hanging out in shady bars, looking for vicarious thrills and danger.", "poster_path": "/5PK5MAN84o0ESgzeW9euozOLIEe.jpg", "release_date": "1990-12-13", "title": "The Ages of Lulu", "video": false, "vote_average": 5.7, "vote_count": 64, "popularity": 24.141}, {"adult": false, "backdrop_path": "/iOGODt9Z92SHVEyuEQiN8wYidmQ.jpg", "genre_ids": [16, 878, 12, 14, 10402], "id": 11827, "original_language": "en", "original_title": "Heavy Metal", "overview": "A glowing orb terrorizes a young girl with a collection of stories of dark fantasy, eroticism and horror.", "poster_path": "/atUtWrDlLzT1yeVK2EoYtvbS963.jpg", "release_date": "1981-08-07", "title": "Heavy Metal", "video": false, "vote_average": 6.3, "vote_count": 316, "popularity": 19.299}, {"id": 332562, "video": false, "vote_count": 7182, "vote_average": 7.5, "title": "A Star Is Born", "release_date": "2018-10-03", "original_language": "en", "original_title": "A Star Is Born", "genre_ids": [18, 10402, 10749], "backdrop_path": "/mnDvPokXpvsdPcWSjNRPhiiLOKu.jpg", "adult": false, "overview": "Seasoned musician Jackson Maine discovers \u2014 and falls in love with \u2014 struggling artist Ally. She has just about given up on her dream to make it big as a singer \u2014 until Jack coaxes her into the spotlight. But even as Ally's career takes off, the personal side of their relationship is breaking down, as Jack fights an ongoing battle with his own internal demons.", "poster_path": "/wrFpXMNBRj2PBiN4Z5kix51XaIZ.jpg", "popularity": 37.528}, {"adult": false, "backdrop_path": "/oT79THuFrcBzrhlf4fiCddwZBCQ.jpg", "genre_ids": [18, 10402, 10749], "id": 69, "original_language": "en", "original_title": "Walk the Line", "overview": "A chronicle of country music legend Johnny Cash's life, from his early days on an Arkansas cotton farm to his rise to fame with Sun Records in Memphis, where he recorded alongside Elvis Presley, Jerry Lee Lewis and Carl Perkins.", "poster_path": "/wdxL3Zyh3O5MIbmsSiZEevJAjtQ.jpg", "release_date": "2005-09-13", "title": "Walk the Line", "video": false, "vote_average": 7.5, "vote_count": 1545, "popularity": 15.437}, {"id": 2976, "video": false, "vote_count": 1691, "vote_average": 6.6, "title": "Hairspray", "release_date": "2007-07-13", "original_language": "en", "original_title": "Hairspray", "genre_ids": [35, 18, 10749], "backdrop_path": "/yafOInYuEuK6FOw1oK40Lggp0TV.jpg", "adult": false, "overview": "Pleasantly plump teenager Tracy Turnblad auditions to be on Baltimore's most popular dance show - The Corny Collins Show - and lands a prime spot. Through her newfound fame, she becomes determined to help her friends and end the racial segregation that has been a staple of the show.", "poster_path": "/ndOpIx4BXpFCRRIxgMoGHxZxlE9.jpg", "popularity": 30.447}, {"id": 313369, "video": false, "vote_count": 11063, "vote_average": 7.9, "title": "La La Land", "release_date": "2016-11-29", "original_language": "en", "original_title": "La La Land", "genre_ids": [35, 18, 10402, 10749], "backdrop_path": "/fp6X6yhgcxzxCpmM0EVC6V9B8XB.jpg", "adult": false, "overview": "Mia, an aspiring actress, serves lattes to movie stars in between auditions and Sebastian, a jazz musician, scrapes by playing cocktail party gigs in dingy bars, but as success mounts they are faced with decisions that begin to fray the fragile fabric of their love affair, and the dreams they worked so hard to maintain in each other threaten to rip them apart.", "poster_path": "/ylXCdC106IKiarftHkcacasaAcb.jpg", "popularity": 39.654}, {"id": 458104, "video": false, "vote_count": 0, "vote_average": 0.0, "title": "Hold On", "release_date": "2019-12-06", "original_language": "en", "original_title": "Hold On", "genre_ids": [18], "backdrop_path": null, "adult": false, "overview": "Fighting to save her brother from a life of addiction on Los Angeles' Skid Row, an overlooked singing prodigy embarks on an unlikely journey with the son of a famed music manager.", "poster_path": "/7mxhUUoNkcA5eQdCTwHnWldriSl.jpg", "popularity": 2.616}], "total_pages": 222, "total_results": 4431}, "recommendations": {"page": 1, "results": [], "total_pages": 1, "total_results": 0}, "credits": {"cast": [{"cast_id": 14, "character": "Arthur Williams", "credit_id": "53de545fc3a3686c56001320", "gender": 2, "id": 87825, "name": "Clarence Muse", "order": 0, "profile_path": "/2An9XGreUaKKT7lNw2qEmx7NKPt.jpg"}, {"cast_id": 15, "character": "Grace Williams", "credit_id": "53de547bc3a3686c5a00134f", "gender": 0, "id": 1005390, "name": "Sybil Lewis", "order": 1, "profile_path": "/lXkU6zeg3dovmMwb4CkHMf11lmc.jpg"}, {"cast_id": 18, "character": "Mary", "credit_id": "53de54adc3a3686c4d00144f", "gender": 0, "id": 1069763, "name": "Tommie Moore", "order": 2, "profile_path": null}, {"cast_id": 30, "character": "John Williams", "credit_id": "54bbbf4bc3a36840460035ea", "gender": 0, "id": 1415089, "name": "William Washington", "order": 3, "profile_path": null}, {"cast_id": 19, "character": "Dickey Morley", "credit_id": "53de54c3c3a3686c56001340", "gender": 2, "id": 589812, "name": "Matthew 'Stymie' Beard", "order": 4, "profile_path": "/c71QqhK5THQpuXJItNqWStRjlUJ.jpg"}, {"cast_id": 20, "character": "Gus Stevens", "credit_id": "53de54d7c3a3686c4500138e", "gender": 0, "id": 1349201, "name": "Pete Webster", "order": 5, "profile_path": null}, {"cast_id": 21, "character": "Sam Stilton", "credit_id": "53de5500c3a3686c510013bc", "gender": 2, "id": 939687, "name": "Edward Thompson", "order": 6, "profile_path": null}, {"cast_id": 22, "character": "Fred Stilton", "credit_id": "53de5511c3a3686c5d00144f", "gender": 0, "id": 586470, "name": "Ira \"Buck\" Woods", "order": 7, "profile_path": null}, {"cast_id": 23, "character": "Stringbeans", "credit_id": "53de555b0e0a265a8a00232f", "gender": 0, "id": 97045, "name": "Darby Jones", "order": 8, "profile_path": "/4LkhuKsk0lzOfiZuh93n3fNE02E.jpg"}, {"cast_id": 24, "character": "Dr. Matson", "credit_id": "53de55760e0a265a90002511", "gender": 0, "id": 130485, "name": "Jess Lee Brooks", "order": 9, "profile_path": null}, {"cast_id": 25, "character": "Earl Wells", "credit_id": "53de55890e0a265a83002545", "gender": 0, "id": 1349202, "name": "Earl Morris", "order": 10, "profile_path": null}, {"cast_id": 28, "character": "Herself", "credit_id": "53de56540e0a265a960024ec", "gender": 0, "id": 1349205, "name": "Cecile Stevens", "order": 11, "profile_path": null}, {"cast_id": 27, "character": "Herself", "credit_id": "53de56480e0a265a8d0024f1", "gender": 0, "id": 1349204, "name": "Charmaine Stevens", "order": 12, "profile_path": null}, {"cast_id": 26, "character": "Herself", "credit_id": "53de56370e0a265a960024e3", "gender": 0, "id": 1349203, "name": "Leonetti Stevens", "order": 13, "profile_path": null}, {"cast_id": 29, "character": "Himself", "credit_id": "53de56610e0a265a83002564", "gender": 0, "id": 1349198, "name": "Elliott Carpenter", "order": 14, "profile_path": null}, {"cast_id": 33, "character": "First Doctor", "credit_id": "55bbd596c3a36865340005de", "gender": 2, "id": 593759, "name": "Clarence Brooks", "order": 15, "profile_path": null}, {"cast_id": 34, "character": "Dancer", "credit_id": "55bbd59f9251413e55000617", "gender": 1, "id": 103369, "name": "Ruby Dandridge", "order": 16, "profile_path": "/lD3RVeGtyUtXK8Dc0XkuKEkUGUP.jpg"}, {"cast_id": 35, "character": "Nightclub Patron who gets a camera close-up", "credit_id": "55bbd5ad9251413e5b0005a0", "gender": 0, "id": 1176362, "name": "Louise Franklin", "order": 17, "profile_path": null}, {"cast_id": 36, "character": "Nightclub Owner", "credit_id": "55bbd5b9c3a36865340005e4", "gender": 2, "id": 1367614, "name": "John Lester Johnson", "order": 18, "profile_path": null}, {"cast_id": 37, "character": "Nurse", "credit_id": "55bbd5c99251413e5500061f", "gender": 0, "id": 1298429, "name": "Rosalie Lincoln", "order": 19, "profile_path": null}, {"cast_id": 38, "character": "Nightclub Patron", "credit_id": "55bbd5d79251413e510005b0", "gender": 1, "id": 35658, "name": "Juanita Moore", "order": 20, "profile_path": "/xJrcIDUsk3VxZzJkop3C9HNkYFe.jpg"}], "crew": [{"credit_id": "53de540bc3a3686c510013a9", "department": "Writing", "gender": 0, "id": 117573, "job": "Story", "name": "Bernard B. Ray", "profile_path": null}, {"credit_id": "53de5201c3a3686c5100135a", "department": "Directing", "gender": 0, "id": 117573, "job": "Director", "name": "Bernard B. Ray", "profile_path": null}, {"credit_id": "53de5219c3a3686c5100136b", "department": "Production", "gender": 0, "id": 1349195, "job": "Producer", "name": "Lewie C. Borden", "profile_path": null}, {"credit_id": "53de5267c3a3686c56001302", "department": "Crew", "gender": 2, "id": 87825, "job": "Additional Dialogue", "name": "Clarence Muse", "profile_path": "/2An9XGreUaKKT7lNw2qEmx7NKPt.jpg"}, {"credit_id": "53de5274c3a3686c4d00141c", "department": "Crew", "gender": 0, "id": 1349197, "job": "Additional Dialogue", "name": "David Arlen", "profile_path": null}, {"credit_id": "53de5286c3a3686c45001362", "department": "Production", "gender": 2, "id": 933259, "job": "Production Manager", "name": "Bobby Ray", "profile_path": "/25PgkuWCXYhjsKdx1mA2pwK4yxv.jpg"}, {"credit_id": "53de52c8c3a3686c51001391", "department": "Production", "gender": 0, "id": 117573, "job": "Production Manager", "name": "Bernard B. Ray", "profile_path": null}, {"credit_id": "53de531dc3a3686c600012a4", "department": "Art", "gender": 2, "id": 120205, "job": "Art Direction", "name": "Fred Preble", "profile_path": null}, {"credit_id": "53de53c7c3a3686c49001400", "department": "Sound", "gender": 2, "id": 117579, "job": "Sound Engineer", "name": "Hans Weeren", "profile_path": null}, {"credit_id": "53de53dac3a3686c56001318", "department": "Costume & Make-Up", "gender": 2, "id": 1343517, "job": "Makeup Artist", "name": "Harry Ross", "profile_path": null}, {"credit_id": "5576d3b3c3a3680e310018c5", "department": "Writing", "gender": 0, "id": 88772, "job": "Dialogue", "name": "Carl Krusada", "profile_path": null}, {"credit_id": "55916060c3a36807f60017c5", "department": "Editing", "gender": 0, "id": 117578, "job": "Editor", "name": "Frederick Bain", "profile_path": null}, {"credit_id": "57559658c3a3686a28001b26", "department": "Camera", "gender": 2, "id": 120192, "job": "Director of Photography", "name": "Mack Stengler", "profile_path": null}, {"credit_id": "57559662c3a3686a28001b29", "department": "Sound", "gender": 0, "id": 1349198, "job": "Original Music Composer", "name": "Elliott Carpenter", "profile_path": null}]}}