{"adult": false, "backdrop_path": "/aLT8NERrGYXrIWglJRuXyN7apQG.jpg", "belongs_to_collection": null, "budget": 0, "genres": [{"id": 18, "name": "Drama"}, {"id": 53, "name": "Thriller"}, {"id": 28, "name": "Action"}, {"id": 80, "name": "Crime"}], "homepage": null, "id": 285387, "imdb_id": "tt2113636", "original_language": "fr", "original_title": "Colt 45", "overview": "Vincent Miles, a gunsmith and shooting instructor at the National Police, is an expert in combat shooting who stubbornly refuses to join a field brigade, a choice which their colleagues do not understand. When he meets Milo Cardena, a mysterious and skilled cop, his life changes in such way that he cannot ignore his true nature anymore.", "popularity": 9.943, "poster_path": "/5DXgJMsTETLNNO5xSQeMGa8tQCx.jpg", "production_companies": [{"id": 1992, "logo_path": "/tGYQyvkKTqAEXidVisQ5FDipKAP.png", "name": "La Petite Reine", "origin_country": "FR"}, {"id": 15433, "logo_path": "/9nnaDAbuHwbikxAV1t1BC2Z60GC.png", "name": "Orange Studio", "origin_country": "FR"}, {"id": 2490, "logo_path": null, "name": "LGM Productions", "origin_country": ""}, {"id": 792, "logo_path": "/cRhBQP1FFNugNxKkO1pUgeD2Rkr.png", "name": "RTBF", "origin_country": "BE"}, {"id": 8009, "logo_path": "/jMXTbZ35gAiHCjIfdDq1B7On9fv.png", "name": "Belgacom", "origin_country": "BE"}, {"id": 18326, "logo_path": "/p7b7j4Or3MRPnPEBEsiSlfeZCpx.png", "name": "A Plus Image 4", "origin_country": "FR"}, {"id": 15895, "logo_path": "/osAoeVoRKOnUjWUi1eY1SAuFfBO.png", "name": "Cin\u00e9mage 7", "origin_country": "FR"}, {"id": 22206, "logo_path": null, "name": "Palatine \u00c9toile 10", "origin_country": ""}, {"id": 3984, "logo_path": "/pvOBu9K0zTRuwJW7WII34x17kdz.png", "name": "Entre Chien et Loup", "origin_country": "BE"}], "production_countries": [{"iso_3166_1": "BE", "name": "Belgium"}, {"iso_3166_1": "FR", "name": "France"}], "release_date": "2014-08-06", "revenue": 0, "runtime": 85, "spoken_languages": [{"iso_639_1": "en", "name": "English"}, {"iso_639_1": "fr", "name": "Fran\u00e7ais"}], "status": "Released", "tagline": "If your nature is fire, it is the law, you will burn", "title": "Colt 45", "video": false, "vote_average": 5.6, "vote_count": 86, "keywords": {"keywords": [{"id": 254, "name": "france"}, {"id": 11734, "name": "police corruption"}, {"id": 12433, "name": "gunsmith"}, {"id": 155346, "name": "colt"}, {"id": 167309, "name": "shooting practice"}, {"id": 168468, "name": "dead father"}, {"id": 209240, "name": "shooting gallery"}, {"id": 226429, "name": "shooting range"}, {"id": 228545, "name": "french police"}, {"id": 250191, "name": "ammunition"}, {"id": 250192, "name": "armory"}]}, "similar": {"page": 1, "results": [{"adult": false, "backdrop_path": "/9SudvdR6HYtgTqMz17RYXdWuTUl.jpg", "genre_ids": [12, 28, 53], "id": 707, "original_language": "en", "original_title": "A View to a Kill", "overview": "A newly developed microchip designed by Zorin Industries for the British Government that can survive the electromagnetic radiation caused by a nuclear explosion has landed in the hands of the KGB. James Bond must find out how and why. His suspicions soon lead him to big industry leader Max Zorin.", "poster_path": "/veDMW7eX6tat86EapsvGEICJ8Tq.jpg", "release_date": "1985-05-24", "title": "A View to a Kill", "video": false, "vote_average": 6.2, "vote_count": 957, "popularity": 24.223}, {"adult": false, "backdrop_path": "/c6Z0E5IYNXSslBxSWX7Q1xUvthJ.jpg", "genre_ids": [12, 28, 35], "id": 3989, "original_language": "en", "original_title": "Team America: World Police", "overview": "Team America World Police follows an international police force dedicated to maintaining global stability. Learning that dictator Kim Jong il is out to destroy the world, the team recruits Broadway star Gary Johnston to go undercover. With the help of Team America, Gary manages to uncover the plan to destroy the world. Will Team America be able to save it in time? It stars\u2026 Samuel L Jackson, Tim Robbins, Sean Penn, Michael Moore, Helen Hunt, Matt Damon, Susan Sarandon, George Clooney, Danny Glover, Ethan Hawke, Alec Baldwin\u2026 or does it?", "poster_path": "/crkPGNm0M19LHp8I5mhs75EqhSH.jpg", "release_date": "2004-10-10", "title": "Team America: World Police", "video": false, "vote_average": 6.7, "vote_count": 1108, "popularity": 15.898}, {"adult": false, "backdrop_path": "/2Tksu4YRofpEk8uw3bB5TCKLflw.jpg", "genre_ids": [28, 12, 35, 18], "id": 2926, "original_language": "en", "original_title": "The Three Musketeers", "overview": "The young D'Artagnan arrives in Paris with dreams of becoming a king's musketeer. He meets and quarrels with three men, Athos, Porthos, and Aramis, each of whom challenges him to a duel. D'Artagnan finds out they are musketeers and is invited to join them in their efforts to oppose Cardinal Richelieu, who wishes to increase his already considerable power over the king. D'Artagnan must also juggle affairs with the charming Constance Bonancieux and the passionate Lady De Winter, a secret agent for the cardinal.", "poster_path": "/6qjW1e31k2XhcWpzGz6lgHcRt5W.jpg", "release_date": "1973-12-11", "title": "The Three Musketeers", "video": false, "vote_average": 7.0, "vote_count": 139, "popularity": 11.35}, {"id": 8195, "video": false, "vote_count": 1229, "vote_average": 6.9, "title": "Ronin", "release_date": "1998-09-25", "original_language": "en", "original_title": "Ronin", "genre_ids": [28, 12, 80, 53], "backdrop_path": "/l1OwGq9f2ZzlFJ35tP6mhhDqkMw.jpg", "adult": false, "overview": "A briefcase with undisclosed contents \u2013 sought by Irish terrorists and the Russian mob \u2013 makes its way into criminals' hands. An Irish liaison assembles a squad of mercenaries, or 'ronin', and gives them the thorny task of recovering the case.", "poster_path": "/UoFUXemMYGKuCN01Y111JlPjjr.jpg", "popularity": 18.899}, {"id": 9313, "video": false, "vote_count": 2304, "vote_average": 6.5, "title": "The Man in the Iron Mask", "release_date": "1998-03-12", "original_language": "en", "original_title": "The Man in the Iron Mask", "genre_ids": [28, 12, 18, 36], "backdrop_path": "/cByOkC6oQWMEKrNUtWPdpKMKnzT.jpg", "adult": false, "overview": "Years have passed since the Three Musketeers, Aramis, Athos and Porthos, have fought together with their friend, D'Artagnan. But with the tyrannical King Louis using his power to wreak havoc in the kingdom while his twin brother, Philippe, remains imprisoned, the Musketeers reunite to abduct Louis and replace him with Philippe.", "poster_path": "/tSLWIX3NzqFPWNMNX7FfeExHCRk.jpg", "popularity": 14.465}, {"adult": false, "backdrop_path": "/m0Bnz5crKnP0EWM5WvNUE3nnI2z.jpg", "genre_ids": [28, 80, 18], "id": 6935, "original_language": "en", "original_title": "Yamakasi - Les samoura\u00efs des temps modernes", "overview": "Yamakasi - Les samoura\u00efs des temps modernes is a 2001 French movie written by Luc Besson. It demonstrates the skills of the Yamakasi, a group of traceurs who battle against injustice in the Paris ghetto. They use parkour to steal from the rich in order to pay off medical bills for a kid injured copying their techniques.", "poster_path": "/vFOYe0lThvjeKMn69DaVZDeaFSF.jpg", "release_date": "2001-04-04", "title": "Yamakasi", "video": false, "vote_average": 5.9, "vote_count": 306, "popularity": 9.918}, {"adult": false, "backdrop_path": "/ke6TyvJjfQYdIyONF1ICu6EdLMo.jpg", "genre_ids": [28, 53], "id": 4909, "original_language": "en", "original_title": "The Day of the Jackal", "overview": "An international assassin known as \u2018The Jackal\u2019 is employed by disgruntled French generals to kill President Charles de Gaulle, with a dedicated gendarme on the assassin\u2019s trail.", "poster_path": "/lsu99G9rqGmZUhrN2DIN18pKVyZ.jpg", "release_date": "1973-05-15", "title": "The Day of the Jackal", "video": false, "vote_average": 7.6, "vote_count": 262, "popularity": 11.085}, {"adult": false, "backdrop_path": "/kZMZ3PqcKmtBifHjfoI8JnURHJj.jpg", "genre_ids": [28, 80, 53], "id": 2140, "original_language": "en", "original_title": "Kiss of the Dragon", "overview": "Liu Jian, an elite Chinese police officer, comes to Paris to arrest a Chinese drug lord. When Jian is betrayed by a French officer and framed for murder, he must go into hiding and find new allies.", "poster_path": "/A1GrGdX4AgCRDweg9X3x8JsZrEc.jpg", "release_date": "2001-07-06", "title": "Kiss of the Dragon", "video": false, "vote_average": 6.6, "vote_count": 547, "popularity": 10.704}, {"adult": false, "backdrop_path": "/yXjduDjZdoYo58eMG0yr19mhRiA.jpg", "genre_ids": [28, 16, 27], "id": 161337, "original_language": "en", "original_title": "Underworld: Endless War", "overview": "Underworld: Endless War is a collection of three short, anime-style tie-in stories-\u2014whose creation was supervised by Len Wiseman, director of the first 2 Underworld movies and producer of Underworld 3 &amp; 4--each tell a different story, and at different periods of history to highlight new events of the Underworld mythology. These stories also tell of what happened before the events in Underworld: Awakening", "poster_path": "/85NPnGHxkt1Ebz9uuU5blZW4KZE.jpg", "release_date": "2011-10-19", "title": "Underworld: Endless War", "video": true, "vote_average": 6.2, "vote_count": 58, "popularity": 10.358}, {"id": 9280, "video": false, "vote_count": 284, "vote_average": 6.2, "title": "Femme Fatale", "release_date": "2002-08-29", "original_language": "en", "original_title": "Femme Fatale", "genre_ids": [80, 53, 10749], "backdrop_path": "/esp04dRDJcej55yrljgQGeG0uiK.jpg", "adult": false, "overview": "A woman tries to straighten out her life, even as her past as a con-woman comes back to haunt her.", "poster_path": "/cCSFOZh20p1p6qEdiHazFW9sdOh.jpg", "popularity": 13.105}, {"id": 10057, "video": false, "vote_count": 467, "vote_average": 6.3, "title": "The Three Musketeers", "release_date": "1993-11-11", "original_language": "en", "original_title": "The Three Musketeers", "genre_ids": [28, 12, 35], "backdrop_path": "/gu81IQeBK2t6VO4WD1dXjpC3YgF.jpg", "adult": false, "overview": "D'Artagnan travels to Paris hoping to become a musketeer, one of the French king's elite bodyguards, only to discover that the corps has been disbanded by conniving Cardinal Richelieu, who secretly hopes to usurp the throne. Fortunately, Athos, Porthos and Aramis have refused to lay down their weapons and continue to protect their king. D'Artagnan joins with the rogues to expose Richelieu's plot against the crown.", "poster_path": "/mk8UH7JRmK8adcqJJpB1ygP7B1C.jpg", "popularity": 20.621}, {"adult": false, "backdrop_path": "/pHWPhvJDuIU97O0zJKdDlGr6tFV.jpg", "genre_ids": [18, 10749], "id": 283227, "original_language": "en", "original_title": "A Little Chaos", "overview": "A landscape gardener is hired by famous architect Le N\u00f4tre to construct the grand gardens at the palace of Versailles. As the two work on the palace, they find themselves drawn to each other and are thrown into rivalries within the court of King Louis XIV.", "poster_path": "/8Q8q0oBI99tfw3x5ozoKEtHKvO0.jpg", "release_date": "2015-03-26", "title": "A Little Chaos", "video": false, "vote_average": 6.3, "vote_count": 439, "popularity": 9.378}, {"id": 415132, "video": false, "vote_count": 168, "vote_average": 6.2, "title": "Ares", "release_date": "2016-11-23", "original_language": "fr", "original_title": "Ar\u00e8s", "genre_ids": [18, 878, 53], "backdrop_path": "/rFjeGAA4cW8PEuVbzayDGLg07l6.jpg", "adult": false, "overview": "In a near future, the world order has changed. With its 10 millions of unemployed citizens, France has now become a poor country. Its people wavers between rebellion and resignation and find an outlet in the shape of TV broadcast ultra brutal fights in which the players are legally doped and unscrupulous.", "poster_path": "/TXUa7CWwRDYLj0xfWrkdc4zmuq.jpg", "popularity": 7.758}, {"id": 375867, "video": false, "vote_count": 113, "vote_average": 5.5, "title": "Paris Can Wait", "release_date": "2016-09-12", "original_language": "en", "original_title": "Paris Can Wait", "genre_ids": [10749], "backdrop_path": "/emuVrdAFyplr4URY0bXXGgK7lF3.jpg", "adult": false, "overview": "A woman at a crossroads traveling to Cannes along with her successful film producer husband, finds herself on a two-day road trip with his business associate. What follows is a carefree journey replete with diversions involving picturesque sites, fine food and wine, humor, wisdom and romance - reawakening Anne's senses and a new lust for life.", "poster_path": "/jLzfHNU1JldQpC5TNEvQMnWQxx6.jpg", "popularity": 9.684}, {"id": 12310, "video": false, "vote_count": 86, "vote_average": 6.5, "title": "The Four Musketeers", "release_date": "1974-10-31", "original_language": "en", "original_title": "The Four Musketeers", "genre_ids": [28, 12, 35, 18], "backdrop_path": "/3Hozf9B94vwMj67tZ97LhV3AoJT.jpg", "adult": false, "overview": "The Four Musketeers defend the queen and her dressmaker from Cardinal Richelieu and Milady de Winter.", "poster_path": "/n0KE7EMqLK7WpxxuLFEo2k3fMRR.jpg", "popularity": 9.777}, {"id": 29084, "video": false, "vote_count": 92, "vote_average": 7.4, "title": "Le Corbeau", "release_date": "1943-09-28", "original_language": "fr", "original_title": "Le Corbeau", "genre_ids": [80, 18, 9648, 53], "backdrop_path": "/whRCciwcZlblfh2dlm9vA1wvCW1.jpg", "adult": false, "overview": "Remy Germain is a doctor in a French town who becomes the focus of a vicious smear campaign, as letters accusing him of having an affair and performing unlawful abortions are mailed to village leaders. The mysterious writer, who signs each letter as \"Le Corbeau\" (The Raven) soon targets the whole town, exposing everyone's dark secrets. This allegorical film was highly controversial at the time of its release, and was banned in France after the Liberation.", "poster_path": "/wM87JtxQqD0bq8xyAvlmuNbI66B.jpg", "popularity": 6.638}, {"id": 3482, "video": false, "vote_count": 131, "vote_average": 7.6, "title": "The Train", "release_date": "1964-09-21", "original_language": "en", "original_title": "The Train", "genre_ids": [28, 18, 53, 10752], "backdrop_path": "/gTwOl4c2AUggG6Dx5VI6GJNBb4N.jpg", "adult": false, "overview": "As the Allied forces approach Paris in August 1944, German Colonel Von Waldheim is desperate to take all of France's greatest paintings to Germany. He manages to secure a train to transport the valuable art works even as the chaos of retreat descends upon them. The French resistance however wants to stop them from stealing their national treasures but have received orders from London that they are not to be destroyed. The station master, Labiche, is tasked with scheduling the train and making it all happen smoothly but he is also part of a dwindling group of resistance fighters tasked with preventing the theft. He and others stage an elaborate ruse to keep the train from ever leaving French territory.", "poster_path": "/9hCN2wgZaszUjEgLp65OK4uwfRT.jpg", "popularity": 12.123}, {"adult": false, "backdrop_path": "/nOMlvNcXumUWTBGlp3jAIDNoeuZ.jpg", "genre_ids": [18, 80, 53], "id": 358881, "original_language": "fr", "original_title": "Made in France", "overview": "Sam, a freelance journalist, decides to investigate the growing phenomenon of disaffected youth joining extremist groups. He infiltrates a group of four young people who have been tasked with the creation of a jihadist cell and whose mission is to destabilise the city centre of Paris.", "poster_path": "/2pSeC64zaukt08QrDIUld0v5Wj.jpg", "release_date": "2015-10-27", "title": "Made in France", "video": false, "vote_average": 6.5, "vote_count": 103, "popularity": 8.218}, {"adult": false, "backdrop_path": "/5WX9zlk35cemSlppd5t0isNfMha.jpg", "genre_ids": [12], "id": 41609, "original_language": "en", "original_title": "The Three Musketeers", "overview": "Athletic adaptation of Alexandre Dumas' classic adventure about the king's musketeers and their mission to protect France.", "poster_path": "/yCnwkmKJZ5PUO0BWh4hhXVqM982.jpg", "release_date": "1948-10-10", "title": "The Three Musketeers", "video": false, "vote_average": 6.5, "vote_count": 60, "popularity": 6.86}, {"id": 4708, "video": false, "vote_count": 82, "vote_average": 7.3, "title": "Is Paris Burning?", "release_date": "1966-10-26", "original_language": "fr", "original_title": "Paris br\u00fble-t-il?", "genre_ids": [18, 36, 10752], "backdrop_path": "/djVLkAFUodizfUc9HnNxnl9fWoG.jpg", "adult": false, "overview": "The title is Adolf Hitler's question to his chief of staff Alfred Jodl on the eve of the liberation of Paris (August 25): the military governor of Paris, General Dietrich von Choltitz, had been ordered to destroy Paris rather than let it fall undamaged into the hands of the Allies, but von Choltitz disobeyed.The film follows historical events as U.S. General Dwight D. Eisenhower, head of the Allied invasion, refuses to divert troops to liberate Paris. His hand is forced by the French military leader, Philippe Leclerc, and by a Resistance uprising in the city. Von Choltitz keeps details of the uprising from the German high command in an effort to save the city being destroyed in retaliation. The film follows his turmoil as a soldier and as the man who doesn't wish to be seen by history as the cause of a beautiful city's destruction.", "poster_path": "/2zTZ8yx47XFO5dD1733LX4LUzRe.jpg", "popularity": 9.752}], "total_pages": 4, "total_results": 62}, "recommendations": {"page": 1, "results": [{"id": 96781, "video": false, "vote_count": 4, "vote_average": 4.0, "title": "Soul's Midnight", "release_date": "2006-06-30", "original_language": "en", "original_title": "Soul's Midnight", "genre_ids": [27], "backdrop_path": "/vQw6oS2fNKF3UEkBKnAwfTmZgZA.jpg", "adult": false, "overview": "Soul's Midnight is a present day vampire horror based on a historic cult who delves into ancient rituals revolving around the legend of St. George. The Eve of St. George is upon them and they must find the perfect sacrifice, a child with an untainted ancestry to St George, to resurrect their ancient leader.", "poster_path": "/z2oQJkvLIdfWOPibvWLNXUmYJm3.jpg", "popularity": 1.656}, {"adult": false, "backdrop_path": "/gSl0T6aTuEFx3rMOlrYTUlZd1LS.jpg", "genre_ids": [28, 80, 53], "id": 335154, "original_language": "fr", "original_title": "Dealer", "overview": "After giving up a life of cocaine trafficking, Dan is offered a chance to achieve his dream : moving to Australia with his daughter. He accepts the deal and starts a downward spiral sucking him back into 24 hours of hell.", "poster_path": "/8OkLBuXT6BPbsc7s1pPXuGcptXv.jpg", "release_date": "2014-09-04", "title": "Dealer", "video": false, "vote_average": 6.5, "vote_count": 14, "popularity": 2.797}, {"adult": false, "backdrop_path": "/znSouElPcxZJBCfVaHCIQ9ayUga.jpg", "genre_ids": [53], "id": 265964, "original_language": "fr", "original_title": "96 heures", "overview": "Carr\u00e9 is the boss of the BRB (Brigade for the Repression of Banditry). 3 years earlier, he arrested a big mobster, Kancel. Today, thanks to an extraction, Kancel kidnaps the cop. He has 96 hours to elicit a single information: know who gave him.", "poster_path": "/6q4JrXjQHvNAsdxto8QLcBummfw.jpg", "release_date": "2014-04-23", "title": "96 heures", "video": false, "vote_average": 5.4, "vote_count": 34, "popularity": 2.632}, {"adult": false, "backdrop_path": "/yB0M2pFKioCtK1PfDlzvYvs62pg.jpg", "genre_ids": [53], "id": 226788, "original_language": "fr", "original_title": "La confr\u00e9rie des larmes", "overview": "Gabriel Chevalier, 45 years old, is an ex-policeman. Unemployed, lonely and depressed,he lives like a ghost and hardly takes care of his only teenage child Juliette. One day, by pure chance, he finds a suspicious but extremely well paid job: his daily mission consists of delivering a briefcase exactly where he is told. The only rule being to never open it. These deliveries will bring him to meet weird people in strange places. Gradually, his cop instinct resurfaces...", "poster_path": "/nPMo8ac3SG956Fjh3CRui33PcgH.jpg", "release_date": "2013-10-09", "title": "Brotherhood of Tears", "video": false, "vote_average": 5.7, "vote_count": 24, "popularity": 3.5}], "total_pages": 1, "total_results": 4}, "credits": {"cast": [{"cast_id": 1, "character": "Commander Christian Chavez", "credit_id": "53e7c5120e0a266f970023e0", "gender": 2, "id": 70165, "name": "G\u00e9rard Lanvin", "order": 0, "profile_path": "/a0HfHnQSPCZ3AYutq0oAdkBROsl.jpg"}, {"cast_id": 2, "character": "Milo Cardena", "credit_id": "53e7c5270e0a266f9d002477", "gender": 2, "id": 51508, "name": "Joey Starr", "order": 1, "profile_path": "/dI6M8ibHVq78gC753BTSmdwNPZo.jpg"}, {"cast_id": 5, "character": "Captain Isabelle Lefranc", "credit_id": "53e7c5730e0a266fa10024e6", "gender": 1, "id": 38863, "name": "Alice Taglioni", "order": 2, "profile_path": "/mQjbA9EYcM61vhuRBZoGcU5J9zs.jpg"}, {"cast_id": 3, "character": "Vincent Miles", "credit_id": "53e7c53e0e0a266fa10024df", "gender": 0, "id": 1100731, "name": "Ymanol Perset", "order": 3, "profile_path": "/3UP1MHW5PPxGvyj2XOUzDKjWnb7.jpg"}, {"cast_id": 4, "character": "Commander Luc Denard", "credit_id": "53e7c55d0e0a266fa10024e4", "gender": 2, "id": 10917, "name": "Simon Abkarian", "order": 4, "profile_path": "/oR1F42rVMY8QsmjK0R8ST4RBBe0.jpg"}, {"cast_id": 9, "character": "Lieutenant Joseph Fleischmann", "credit_id": "55376dc7c3a36831dd00439b", "gender": 2, "id": 35965, "name": "Antoine Basler", "order": 5, "profile_path": "/4VT9tZrVmiq3a27w0i0wyDju2jB.jpg"}, {"cast_id": 8, "character": "Marco", "credit_id": "53e7c5ca0e0a266f9a0023ea", "gender": 2, "id": 14610, "name": "Jo Prestia", "order": 6, "profile_path": "/7ZF93XBMOF5Mr6F22YKGnzM4QMp.jpg"}, {"cast_id": 10, "character": "Mehdi", "credit_id": "55377047c3a36831dd004414", "gender": 0, "id": 1165770, "name": "Salem Kali", "order": 7, "profile_path": "/AtD2AybgYjokQLvAAhHn0LdpXrw.jpg"}, {"cast_id": 11, "character": "Michel", "credit_id": "5537727a9251414ab9001a91", "gender": 0, "id": 1347982, "name": "Michel Ferracci", "order": 8, "profile_path": "/6okrcVsRTdyA9xi45bDP0xKlukb.jpg"}, {"cast_id": 12, "character": "Commander Martial Ricaud", "credit_id": "5537742a9251416518005d06", "gender": 2, "id": 304463, "name": "Alexandre Brasseur", "order": 9, "profile_path": "/4mDbwNXCtzGmj7Cza9DaObxpHHQ.jpg"}, {"cast_id": 7, "character": "Police Prefect Pradier", "credit_id": "53e7c5af0e0a266f9100254a", "gender": 2, "id": 5444, "name": "Philippe Nahon", "order": 10, "profile_path": "/1ZrnApxh9qZz1EdEB1vKWwoFd5B.jpg"}, {"cast_id": 13, "character": "Ange Carmini", "credit_id": "553775ecc3a36831dd004514", "gender": 0, "id": 19118, "name": "Anton Yakovlev", "order": 11, "profile_path": "/oKZKOyH7Ffy8xTx6cBNm69TXIWL.jpg"}, {"cast_id": 14, "character": "Baron", "credit_id": "55377680c3a3687845002f82", "gender": 2, "id": 2960, "name": "Amr Waked", "order": 12, "profile_path": "/am80pES7tfN6RgWqmuQg6e7pkiD.jpg"}, {"cast_id": 15, "character": "Malek", "credit_id": "55377712c3a36878fd0020d9", "gender": 0, "id": 1457697, "name": "Malek Oudjail", "order": 13, "profile_path": null}, {"cast_id": 16, "character": "Tarek Derkaoui", "credit_id": "553778909251412d91001f42", "gender": 0, "id": 1288037, "name": "Redouane Behache", "order": 14, "profile_path": "/100LKwUY5cb0299d2l2vNaYVO0T.jpg"}, {"cast_id": 17, "character": "Kais Derkaoui", "credit_id": "5537791dc3a36815ac005ada", "gender": 2, "id": 41881, "name": "Aymen Sa\u00efdi", "order": 15, "profile_path": "/8zMcWe42BypPxa9RRF02oZmElpj.jpg"}, {"cast_id": 18, "character": "Nicola\u00ef", "credit_id": "553779b49251414ab9001bca", "gender": 2, "id": 271623, "name": "Denis Braccini", "order": 16, "profile_path": "/tsyErtX1vcOtuTnDG7lr3UlUDfN.jpg"}, {"cast_id": 19, "character": "Mo\u00efse", "credit_id": "55377b19c3a36842ae004397", "gender": 0, "id": 118512, "name": "Micha\u00ebl Vander-Meiren", "order": 17, "profile_path": "/6yGfEl8SnDAC9Sy4QQFN6Wnhva3.jpg"}, {"cast_id": 38, "character": "Pierre", "credit_id": "55389c7f9251411256004e49", "gender": 0, "id": 81425, "name": "Philippe Petit", "order": 18, "profile_path": "/yOcLNryb2L1m2yhdGuAdP6wjhF1.jpg"}, {"cast_id": 21, "character": "The Contact", "credit_id": "55377dd192514140b100047a", "gender": 0, "id": 1457706, "name": "Christophe Ntakabanyura", "order": 19, "profile_path": "/vIQYrz2Wi10ob0x4HcoWaJjxWeA.jpg"}, {"cast_id": 22, "character": "Young Man", "credit_id": "55377e4cc3a368784500305d", "gender": 2, "id": 1457707, "name": "Moussa Mansaly", "order": 20, "profile_path": "/8jK140Q15Atlz6flOzEIQMWG9rL.jpg"}, {"cast_id": 23, "character": "Calhoun", "credit_id": "55377f6192514142010039e1", "gender": 2, "id": 49947, "name": "G\u00e9rard Watkins", "order": 21, "profile_path": "/xlaackO08hHPRq7m3vX5i6f2FxR.jpg"}, {"cast_id": 24, "character": "Staff Sergeant Duke", "credit_id": "553780b792514166aa00687b", "gender": 0, "id": 1457709, "name": "Mick Gould", "order": 22, "profile_path": "/6BcVGV4fUITs2jaThbOq4GHlAFU.jpg"}, {"cast_id": 25, "character": "Major", "credit_id": "55378234c3a3683443008ab3", "gender": 2, "id": 49487, "name": "Richard Sammel", "order": 23, "profile_path": "/91IPxy0IuHhIqcrJdI0hYBpJmOg.jpg"}, {"cast_id": 6, "character": "Mika", "credit_id": "53e7c58f0e0a266f9400247f", "gender": 1, "id": 1032074, "name": "Mikaela Fisher", "order": 24, "profile_path": "/9tNtPW4KOFFaUOBnznNiike1GeT.jpg"}], "crew": [{"credit_id": "53e0f2cd0e0a265a99006de5", "department": "Directing", "gender": 2, "id": 72611, "job": "Director", "name": "Fabrice Du Welz", "profile_path": "/lgCfLX9JDgVNtaO5mt9SUfBdZqO.jpg"}, {"credit_id": "5537850ec3a36831dd0046fc", "department": "Writing", "gender": 2, "id": 72611, "job": "Adaptation", "name": "Fabrice Du Welz", "profile_path": "/lgCfLX9JDgVNtaO5mt9SUfBdZqO.jpg"}, {"credit_id": "553785219251412d9100210f", "department": "Writing", "gender": 2, "id": 72611, "job": "Dialogue", "name": "Fabrice Du Welz", "profile_path": "/lgCfLX9JDgVNtaO5mt9SUfBdZqO.jpg"}, {"credit_id": "55378573925141125600239c", "department": "Writing", "gender": 0, "id": 1457734, "job": "Scenario Writer", "name": "Fathi Beddiar", "profile_path": null}, {"credit_id": "553785d0c3a36842ae004544", "department": "Production", "gender": 0, "id": 1457735, "job": "Producer", "name": "Julien Arnoux", "profile_path": null}, {"credit_id": "553785e9c3a36842ae004549", "department": "Production", "gender": 2, "id": 100748, "job": "Producer", "name": "S\u00e9bastien Delloye", "profile_path": null}, {"credit_id": "5537860a92514112560023c0", "department": "Production", "gender": 2, "id": 80470, "job": "Executive Producer", "name": "Daniel Delume", "profile_path": null}, {"credit_id": "55378621c3a36831dd004716", "department": "Production", "gender": 2, "id": 20674, "job": "Producer", "name": "Thomas Langmann", "profile_path": "/g4TVuLFiCsNfA6RU2km5B9dXtWG.jpg"}, {"credit_id": "55378636c3a36815ac005c50", "department": "Production", "gender": 0, "id": 113612, "job": "Producer", "name": "Emmanuel Montamat", "profile_path": null}, {"credit_id": "5537867e9251414ab9001d8c", "department": "Production", "gender": 0, "id": 1457737, "job": "Casting", "name": "Herv\u00e9 Jakubowicz", "profile_path": null}, {"credit_id": "5c2401f2c3a3683782eb1f69", "department": "Camera", "gender": 0, "id": 14599, "job": "Director of Photography", "name": "Beno\u00eet Debie", "profile_path": "/6lMhfHVpq2PsvROZ4nCsQgrFyhN.jpg"}, {"credit_id": "5c240213c3a368700bf0fa08", "department": "Sound", "gender": 0, "id": 1457736, "job": "Original Music Composer", "name": "Benjamin Shielden", "profile_path": null}, {"credit_id": "5c24022ac3a368044aee1243", "department": "Writing", "gender": 0, "id": 1457734, "job": "Screenplay", "name": "Fathi Beddiar", "profile_path": null}, {"credit_id": "5c2402850e0a264de6f235f4", "department": "Art", "gender": 0, "id": 1987706, "job": "Art Direction", "name": "Sandrine Jarron", "profile_path": null}, {"credit_id": "5c2402a69251416801c58325", "department": "Sound", "gender": 0, "id": 1823882, "job": "Sound Designer", "name": "Alexis Place", "profile_path": null}]}}