{"adult": false, "backdrop_path": "/kjOOCt19Lso3dogI4kj8AudRnnv.jpg", "belongs_to_collection": null, "budget": 0, "genres": [{"id": 10749, "name": "Romance"}, {"id": 35, "name": "Comedy"}], "homepage": null, "id": 285532, "imdb_id": "tt0122998", "original_language": "it", "original_title": "Bolidi sull'asfalto a tutta birra!", "overview": "", "popularity": 1.37, "poster_path": "/ejM6Ytgj4AHU0tc0beXe8AM15CD.jpg", "production_companies": [], "production_countries": [], "release_date": "1970-08-08", "revenue": 0, "runtime": 92, "spoken_languages": [], "status": "Released", "tagline": "", "title": "Bolidi sull'asfalto a tutta birra!", "video": false, "vote_average": 5.0, "vote_count": 1, "keywords": {"keywords": [{"id": 6075, "name": "sport"}]}, "similar": {"page": 1, "results": [{"adult": false, "backdrop_path": "/n1Gh3MJAVvXmkgSDf3SOLlPCjag.jpg", "genre_ids": [35, 18, 10749], "id": 9390, "original_language": "en", "original_title": "Jerry Maguire", "overview": "Jerry Maguire used to be a typical sports agent: willing to do just about anything he could to get the biggest possible contracts for his clients, plus a nice commission for himself. Then, one day, he suddenly has second thoughts about what he's really doing. When he voices these doubts, he ends up losing his job and all of his clients, save Rod Tidwell, an egomaniacal football player.", "poster_path": "/99YTEdKOKDRClsscOpJfdkbaTrQ.jpg", "release_date": "1996-12-13", "title": "Jerry Maguire", "video": false, "vote_average": 6.9, "vote_count": 1794, "popularity": 16.867}, {"adult": false, "backdrop_path": "/kBTdPNTAzagAY6UiwY957KCDGuu.jpg", "genre_ids": [16, 35, 10751], "id": 2300, "original_language": "en", "original_title": "Space Jam", "overview": "Swackhammer, an evil alien theme park owner, needs a new attraction at Moron Mountain. When his gang, the Nerdlucks, heads to Earth to kidnap Bugs Bunny and the Looney Tunes, Bugs challenges them to a basketball game to determine their fate. The aliens agree, but they steal the powers of NBA basketball players, including Larry Bird and Charles Barkley -- so Bugs gets some help from superstar Michael Jordan.", "poster_path": "/xI9AwhOWtsbFlS8tYD2PXa80p7u.jpg", "release_date": "1996-11-15", "title": "Space Jam", "video": false, "vote_average": 6.7, "vote_count": 3179, "popularity": 15.582}, {"adult": false, "backdrop_path": "/qVjKZMB0IdOc2JlwiiGsuKTvTJs.jpg", "genre_ids": [18], "id": 22881, "original_language": "en", "original_title": "The Blind Side", "overview": "The story of Michael Oher, a homeless and traumatized boy who became an All American football player and first round NFL draft pick with the help of a caring woman and her family", "poster_path": "/wEGFSgPebLk6g1ngKsJ6a46PYLV.jpg", "release_date": "2009-11-20", "title": "The Blind Side", "video": false, "vote_average": 7.5, "vote_count": 3212, "popularity": 30.144}, {"adult": false, "backdrop_path": "/jK3EAFk3GdOaQfUDCOiTujzMpwH.jpg", "genre_ids": [18], "id": 389015, "original_language": "en", "original_title": "I, Tonya", "overview": "Competitive ice skater Tonya Harding rises amongst the ranks at the U. S. Figure Skating Championships, but her future in the sport is thrown into doubt when her ex-husband intervenes.", "poster_path": "/6gNXwSHxaksR1PjVZRqNapmkgj3.jpg", "release_date": "2017-12-08", "title": "I, Tonya", "video": false, "vote_average": 7.5, "vote_count": 3327, "popularity": 19.513}, {"id": 8923, "video": false, "vote_count": 1358, "vote_average": 7.2, "title": "Green Street Hooligans", "release_date": "2005-09-09", "original_language": "en", "original_title": "Green Street Hooligans", "genre_ids": [80, 18], "backdrop_path": "/oasVTD3UpTEjhTAVx9ZCy1k19Qv.jpg", "adult": false, "overview": "After being wrongfully expelled from Harvard University, American Matt Buckner flees to his sister's home in England. Once there, he is befriended by her charming and dangerous brother-in-law, Pete Dunham, and introduced to the underworld of British football hooliganism. Matt learns to stand his ground through a friendship that develops against the backdrop of this secret and often violent world. 'Green Street Hooligans' is a story of loyalty, trust and the sometimes brutal consequences of living close to the edge.", "poster_path": "/z3LC4kI8azbeuHRGgDdWo6VBCdX.jpg", "popularity": 14.424}, {"adult": false, "backdrop_path": "/9lrM0o89ASyHmDgMLfCbU5qdsAm.jpg", "genre_ids": [35, 18], "id": 9291, "original_language": "en", "original_title": "The Longest Yard", "overview": "Pro quarter-back, Paul Crewe and former college champion and coach, Nate Scarboro are doing time in the same prison. Asked to put together a team of inmates to take on the guards, Crewe enlists the help of Scarboro to coach the inmates to victory in a football game 'fixed' to turn out quite another way.", "poster_path": "/ag6q9euZABqbHtbDhoRT9xEYltP.jpg", "release_date": "2005-05-27", "title": "The Longest Yard", "video": false, "vote_average": 6.4, "vote_count": 1764, "popularity": 17.65}, {"adult": false, "backdrop_path": "/mYKP6qcDUimVMAHQWLOuDHjO19S.jpg", "genre_ids": [35], "id": 445629, "original_language": "en", "original_title": "Fighting with My Family", "overview": "Born into a tight-knit wrestling family, Paige and her brother Zak are ecstatic when they get the once-in-a-lifetime opportunity to try out for the WWE. But when only Paige earns a spot in the competitive training program, she must leave her loved ones behind and face this new cutthroat world alone. Paige's journey pushes her to dig deep and ultimately prove to the world that what makes her different is the very thing that can make her a star.", "poster_path": "/cVhe15rJLRjolunSWLBN6xQLyGU.jpg", "release_date": "2019-02-14", "title": "Fighting with My Family", "video": false, "vote_average": 6.7, "vote_count": 642, "popularity": 23.641}, {"adult": false, "backdrop_path": "/qnWGw3n1R0OhPkoB1cYTTax5LMU.jpg", "genre_ids": [35, 10751, 14], "id": 23023, "original_language": "en", "original_title": "Tooth Fairy", "overview": "When minor-league hockey player Derek Thompson -- who has a penchant for knocking out his opponents' teeth every time he plays -- disillusions a fan, he is sentenced to a stint for one week as a bona fide, tutu-clad, real-life tooth fairy. Soon, Derek is inspired to rekindle his youthful dreams.", "poster_path": "/gNQA76kl251IuJVKMHfrRE12p7j.jpg", "release_date": "2010-01-14", "title": "Tooth Fairy", "video": false, "vote_average": 5.4, "vote_count": 1226, "popularity": 31.96}, {"id": 37136, "video": false, "vote_count": 1996, "vote_average": 7.2, "title": "The Naked Gun: From the Files of Police Squad!", "release_date": "1988-12-02", "original_language": "en", "original_title": "The Naked Gun: From the Files of Police Squad!", "genre_ids": [35, 80], "backdrop_path": "/vBvfE7oUpJggU1Cf4UXgeeXocsg.jpg", "adult": false, "overview": "When the incompetent Officer Frank Drebin seeks the ruthless killer of his partner, he stumbles upon an attempt to assassinate Queen Elizabeth.", "poster_path": "/gajZQkZjVXPuLJUMoEk1eVeZz61.jpg", "popularity": 18.585}, {"id": 522924, "video": false, "vote_count": 150, "vote_average": 8.1, "title": "The Art of Racing in the Rain", "release_date": "2019-08-08", "original_language": "en", "original_title": "The Art of Racing in the Rain", "genre_ids": [35, 18, 10749], "backdrop_path": "/6esNUoXh4xQvucB7o7e3TCfjI65.jpg", "adult": false, "overview": "A family dog\u2014with a near-human soul and a philosopher's mind\u2014evaluates his life through the lessons learned by his human owner, a race-car driver.", "poster_path": "/mi5VN4ww0JZgRFJIaPxxTGKjUg7.jpg", "popularity": 17.008}, {"id": 703, "video": false, "vote_count": 2268, "vote_average": 7.8, "title": "Annie Hall", "release_date": "1977-04-19", "original_language": "en", "original_title": "Annie Hall", "genre_ids": [35, 18, 10749], "backdrop_path": "/8iNt5LGxpX9XeNWJgjx17xfTT7u.jpg", "adult": false, "overview": "New York comedian Alvy Singer falls in love with the ditsy Annie Hall.", "poster_path": "/bK9bLXwxWuXX5mbq75PZqjvAtfG.jpg", "popularity": 15.038}, {"id": 651, "video": false, "vote_count": 478, "vote_average": 7.1, "title": "M*A*S*H", "release_date": "1970-01-24", "original_language": "en", "original_title": "M*A*S*H", "genre_ids": [35, 18, 10752], "backdrop_path": "/l5YH6TCYi2mgZwXbDjF71iA9UBP.jpg", "adult": false, "overview": "The staff of a Korean War field hospital use humor and high jinks to keep their sanity in the face of the horror of war.", "poster_path": "/cscyvJ4nDgbqewrttPXZ5EYOdwa.jpg", "popularity": 11.845}, {"id": 387592, "video": false, "vote_count": 393, "vote_average": 6.0, "title": "Early Man", "release_date": "2018-01-26", "original_language": "en", "original_title": "Early Man", "genre_ids": [12, 16, 35, 10751], "backdrop_path": "/9m71RMP45mg599xtKPyjicyHn1a.jpg", "adult": false, "overview": "Dug, along with his sidekick Hognob, unite a cavemen tribe to save their hidden valley from being spoiled and, all together as a team, to face the menace of a mysterious and mighty enemy, on the turf of an ancient and sacred sport.", "poster_path": "/5iW2rntwLZoGlFCYYy8TjHyblbw.jpg", "popularity": 15.752}, {"adult": false, "backdrop_path": "/eD8PxfDsmWyUcj2LzQ9Ha2O7UvB.jpg", "genre_ids": [99], "id": 614423, "original_language": "en", "original_title": "Collingwood: From The Inside Out", "overview": "An  intimate look at Collingwood Football Club as it rebuilds itself and aims for glory over the course of the 2018 season.", "poster_path": "/dsJMvBJ7M2HvGkJdhW4nKNHEgDs.jpg", "release_date": "2019-08-15", "title": "Collingwood: From The Inside Out", "video": false, "vote_average": 1.0, "vote_count": 1, "popularity": 1.602}, {"adult": false, "backdrop_path": "/20IgqkdFw5kuItqDCJtidSESP0t.jpg", "genre_ids": [27, 18], "id": 10066, "original_language": "en", "original_title": "House of Wax", "overview": "A group of unwitting teens are stranded near a strange wax museum and soon must fight to survive and keep from becoming the next exhibit.", "poster_path": "/uM1RebQywM5PPYsauayefpXGxVk.jpg", "release_date": "2005-04-30", "title": "House of Wax", "video": false, "vote_average": 5.7, "vote_count": 1531, "popularity": 21.972}, {"id": 630633, "video": false, "vote_count": 0, "vote_average": 0.0, "title": "Varane : Destin de Champion", "release_date": "2019-09-23", "original_language": "fr", "original_title": "Varane : Destin de Champion", "genre_ids": [99], "backdrop_path": null, "adult": false, "overview": "", "poster_path": "/ecUI8DO8lfk5FUca0IF2SNgsgtn.jpg", "popularity": 1.106}, {"id": 107, "video": false, "vote_count": 5245, "vote_average": 7.8, "title": "Snatch", "release_date": "2000-09-01", "original_language": "en", "original_title": "Snatch", "genre_ids": [80, 53], "backdrop_path": "/cNLZ7YGRikb4IsLblrzu86ndZPw.jpg", "adult": false, "overview": "The second film from British director Guy Ritchie. Snatch tells an obscure story similar to his first fast-paced crazy character-colliding filled film \u201cLock, Stock and Two Smoking Barrels.\u201d There are two overlapping stories here \u2013 one is the search for a stolen diamond, and the other about a boxing promoter who\u2019s having trouble with a psychotic gangster.", "poster_path": "/on9JlbGEccLsYkjeEph2Whm1DIp.jpg", "popularity": 25.391}, {"id": 391757, "video": false, "vote_count": 185, "vote_average": 6.5, "title": "Never Back Down: No Surrender", "release_date": "2016-06-07", "original_language": "en", "original_title": "Never Back Down: No Surrender", "genre_ids": [28, 18], "backdrop_path": "/pzjnObK3uiHcKwiir9OPPWzbW8f.jpg", "adult": false, "overview": "Picking up after the events of Never Back Down 2, former MMA champion Case Walker is on the comeback trail to become champion once again.", "poster_path": "/dYNS4o4Q4DDLiKRAAvZ9KcrhHuy.jpg", "popularity": 16.224}, {"id": 396371, "video": false, "vote_count": 1968, "vote_average": 7.1, "title": "Molly's Game", "release_date": "2017-12-25", "original_language": "en", "original_title": "Molly's Game", "genre_ids": [80, 18], "backdrop_path": "/rHcBZ6ZKCe4FalWHyvBGsyMsh0k.jpg", "adult": false, "overview": "Molly Bloom, a young skier and former Olympic hopeful becomes a successful entrepreneur (and a target of an FBI investigation) when she establishes a high-stakes, international poker game.", "poster_path": "/in43bQ7k0ttr666IPP94IlbQbTR.jpg", "popularity": 18.118}, {"id": 44833, "video": false, "vote_count": 3510, "vote_average": 5.6, "title": "Battleship", "release_date": "2012-04-11", "original_language": "en", "original_title": "Battleship", "genre_ids": [28, 12, 878, 53], "backdrop_path": "/rLhO767vwqRfUBmJOqvEmt5myIF.jpg", "adult": false, "overview": "When mankind beams a radio signal into space, a reply comes from \u2018Planet G\u2019, in the form of several alien crafts that splash down in the waters off Hawaii. Lieutenant Alex Hopper is a weapons officer assigned to the USS John Paul Jones, part of an international naval coalition which becomes the world's last hope for survival as they engage the hostile alien force of unimaginable strength. While taking on the invaders, Hopper must also try to live up to the potential that his brother, and his fianc\u00e9e's father, Admiral Shane, expect of him.", "poster_path": "/7hN6WtMepoMZyeHZU2DM21cEj3z.jpg", "popularity": 23.786}], "total_pages": 182, "total_results": 3632}, "recommendations": {"page": 1, "results": [], "total_pages": 1, "total_results": 0}, "credits": {"cast": [{"cast_id": 7, "character": "", "credit_id": "53e2317e0e0a262b83001134", "gender": 0, "id": 1043944, "name": "Giacomo Agostini", "order": 1, "profile_path": "/wjDcyzRJ1WU4YvudxjwCA2VNGsK.jpg"}, {"cast_id": 8, "character": "", "credit_id": "53e231850e0a262b89001171", "gender": 2, "id": 119514, "name": "Sergio Leonardi", "order": 2, "profile_path": null}, {"cast_id": 9, "character": "", "credit_id": "53e2318c0e0a262b8000118b", "gender": 1, "id": 44976, "name": "Daniela Giordano", "order": 3, "profile_path": "/2LnZSFGuAhljAsXEh9yvOklK0Vm.jpg"}, {"cast_id": 10, "character": "", "credit_id": "53e2319a0e0a262b8c0010d8", "gender": 0, "id": 83147, "name": "Giampiero Albertini", "order": 4, "profile_path": "/d915kIdNpILhuoJucHxvkSJ48wp.jpg"}, {"cast_id": 11, "character": "", "credit_id": "53e231a10e0a262b80001190", "gender": 1, "id": 232887, "name": "Isabella Savona", "order": 5, "profile_path": "/zFriXxPSxAAHYcDgrMGKLPcPLWK.jpg"}, {"cast_id": 12, "character": "", "credit_id": "53e231a90e0a262b91001102", "gender": 0, "id": 1350320, "name": "Adriana de Roberto", "order": 6, "profile_path": null}, {"cast_id": 13, "character": "", "credit_id": "53e231b10e0a262b89001174", "gender": 0, "id": 142134, "name": "Andrea Aureli", "order": 7, "profile_path": "/rixD8ta8NHNizffika568l1jWFg.jpg"}, {"cast_id": 14, "character": "", "credit_id": "53e231b90e0a262b7d0010be", "gender": 2, "id": 232884, "name": "Gianfranco D'Angelo", "order": 8, "profile_path": "/kH9clfOasOmdBGdoSPhO3PYfaQW.jpg"}], "crew": [{"credit_id": "53e231710e0a262b80001184", "department": "Camera", "gender": 0, "id": 53190, "job": "Director of Photography", "name": "Fausto Zuccoli", "profile_path": null}, {"credit_id": "53e2312e0e0a262b8c0010cf", "department": "Directing", "gender": 2, "id": 56742, "job": "Director", "name": "Bruno Corbucci", "profile_path": "/hUJijrOG0zlP2c77O5yadxJUrdJ.jpg"}, {"credit_id": "53e231450e0a262b7d0010a9", "department": "Writing", "gender": 2, "id": 99440, "job": "Screenplay", "name": "Mino Guerrini", "profile_path": null}, {"credit_id": "53e231530e0a262b860011a7", "department": "Writing", "gender": 0, "id": 499710, "job": "Screenplay", "name": "Marino Onorati", "profile_path": null}, {"credit_id": "53e2313b0e0a262b80001179", "department": "Writing", "gender": 0, "id": 1127089, "job": "Screenplay", "name": "Luigi De Santis", "profile_path": null}, {"credit_id": "53e2315f0e0a262b8000117f", "department": "Production", "gender": 0, "id": 1350318, "job": "Producer", "name": "Gabriele Silvestri", "profile_path": null}, {"credit_id": "53e231680e0a262b860011ac", "department": "Sound", "gender": 0, "id": 1350319, "job": "Original Music Composer", "name": "Enrico Polito", "profile_path": null}, {"credit_id": "5beec7ee0e0a2626610178be", "department": "Editing", "gender": 2, "id": 2176691, "job": "Assistant Editor", "name": "Bruno Micheli", "profile_path": null}]}}