{"adult": false, "backdrop_path": null, "belongs_to_collection": null, "budget": 0, "genres": [{"id": 18, "name": "Drama"}], "homepage": null, "id": 285696, "imdb_id": "tt3797214", "original_language": "ko", "original_title": "\uc0b0\ub2e4", "overview": "You earn as much as you work, and you live off that money. This simple proposition has always been a problem for Jung-cheol. At the soybean paste factory he went to work for in the bitter winter, he dreams of travelling to warm Philippines in spring - as long as he survives the winter making his portion of the soybean paste that he promised the boss. But the more he struggles to live, the worse it gets. And soon, the fermentation room turns musty with the black mold spreading from the thousands of ferment boiled soybean lumps.", "popularity": 0.642, "poster_path": "/7tSUiudJCKks8nG37k0o451FXZd.jpg", "production_companies": [{"id": 7270, "logo_path": null, "name": "Opus Pictures", "origin_country": "KR"}, {"id": 34217, "logo_path": null, "name": "Jeonju International Film Festival", "origin_country": "KR"}, {"id": 71853, "logo_path": "/lrKwhhkjtqtl2o0A8DmQZHSk7vP.png", "name": "Little Big Pictures", "origin_country": "KR"}, {"id": 123653, "logo_path": null, "name": "Secondwind Film", "origin_country": "KR"}], "production_countries": [{"iso_3166_1": "KR", "name": "South Korea"}], "release_date": "2015-05-21", "revenue": 0, "runtime": 175, "spoken_languages": [{"iso_639_1": "ko", "name": "\ud55c\uad6d\uc5b4/\uc870\uc120\ub9d0"}], "status": "Released", "tagline": "", "title": "Alive", "video": false, "vote_average": 6.0, "vote_count": 1, "keywords": {"keywords": [{"id": 194430, "name": "small village"}]}, "similar": {"page": 1, "results": [{"id": 496243, "video": false, "vote_count": 2663, "vote_average": 8.6, "title": "Parasite", "release_date": "2019-05-30", "original_language": "ko", "original_title": "\uae30\uc0dd\ucda9", "genre_ids": [35, 18, 53], "backdrop_path": "/TU9NIjwzjoKPwQHoHshkFcQUCG.jpg", "adult": false, "overview": "All unemployed, Ki-taek's family takes peculiar interest in the wealthy and glamorous Parks for their livelihood until they get entangled in an unexpected incident.", "poster_path": "/7IiTTgloJzvGI1TAYymCfbfl3vT.jpg", "popularity": 129.815}, {"adult": false, "backdrop_path": "/3eEtOooEzdpIA9hf0V4b5DFqyjd.jpg", "genre_ids": [28, 18], "id": 435841, "original_language": "ko", "original_title": "\uac15\ucca0\ube44", "overview": "Amid a coup, a North Korean agent escapes south with the country's injured leader in an attempt to keep him alive and prevent a Korean war.", "poster_path": "/zu2xUGtd8C53spvBOND0Q9Z28oE.jpg", "release_date": "2017-12-14", "title": "Steel Rain", "video": false, "vote_average": 7.4, "vote_count": 51, "popularity": 7.419}, {"id": 566397, "video": false, "vote_count": 0, "vote_average": 0.0, "title": "The Man Standing Next", "release_date": "2020-01-22", "original_language": "ko", "original_title": "\ub0a8\uc0b0\uc758 \ubd80\uc7a5\ub4e4", "genre_ids": [28, 18], "backdrop_path": "/m0Zp6dlmjfpolhMWx6KHJvmFlOk.jpg", "adult": false, "overview": "In the 1970s, Korea is under the absolute control of the President Park who controls the KCIA, the organization with an edge over any branch of government. The director of KCIA, KIM Gyu-pyeong, is the seemingly most prospective second-in-command. In the midst of reign of fear, a former KCIA director, PARK Yong-gak who knows all about the government\u2019s obscure operations, exiles to the U.S. where the investigation of \u2018Koreagate\u2019 is underway. As the tension escalates, the stifling political maneuvering by the all second-in-command\u2019s unfolds.", "poster_path": "/irC14m9de5imarTX6br5op1xfqU.jpg", "popularity": 20.801}, {"id": 437068, "video": false, "vote_count": 200, "vote_average": 8.2, "title": "A Taxi Driver", "release_date": "2017-08-02", "original_language": "ko", "original_title": "\ud0dd\uc2dc\uc6b4\uc804\uc0ac", "genre_ids": [28, 18, 36], "backdrop_path": "/dbXjTu5J00kCggPnQlDpVZmDBil.jpg", "adult": false, "overview": "May, 1980. Man-seob is a taxi driver in Seoul who lives from hand to mouth, raising his young daughter alone. One day, he hears that there is a foreigner who will pay big money for a drive down to Gwangju city. Not knowing that he\u2019s a German journalist with a hidden agenda, Man-seob takes the job.", "poster_path": "/iXVaWbxmyPk4KZGZk5GGDGFieMX.jpg", "popularity": 12.229}, {"id": 1255, "video": false, "vote_count": 1118, "vote_average": 6.8, "title": "The Host", "release_date": "2006-07-27", "original_language": "ko", "original_title": "\uad34\ubb3c", "genre_ids": [18, 27, 878], "backdrop_path": "/9diyJ180qJP4PHlHYPvwEMrrqI8.jpg", "adult": false, "overview": "Gang-du is a dim-witted man working at his father's tiny snack bar near the Han River. Following the dumping of gallons of toxic waste in the river, a giant mutated squid-like appears and begins attacking the populace.  Gang-du's daughter Hyun-seo is snatched up by the creature and he and his family are taken into custody by the military, who fear a virus spread by the creature..  In detention, Gang-du receives a phone call from Hyun-seo, who is not dead, merely trapped in a sewer.  With his family to assist him, he sets off to find Hyun-seo.", "poster_path": "/wLe2XnBHv5jJWIv5URin7vyCHbd.jpg", "popularity": 15.728}, {"id": 581387, "video": false, "vote_count": 6, "vote_average": 8.2, "title": "Ashfall", "release_date": "2019-12-19", "original_language": "ko", "original_title": "\ubc31\ub450\uc0b0", "genre_ids": [12, 18], "backdrop_path": "/4wKjEd6hDvZvkGCXKw6KjSmJwb1.jpg", "adult": false, "overview": "Stagnant since 1903, at an elevation of 9000', a volcano erupts on the mythical and majestic Baekdu Mountain.", "poster_path": "/cLSj1Brd2kQWtzj3JHUE4eGtPXx.jpg", "popularity": 5.058}, {"id": 72190, "video": false, "vote_count": 9917, "vote_average": 6.7, "title": "World War Z", "release_date": "2013-06-20", "original_language": "en", "original_title": "World War Z", "genre_ids": [28, 18, 27, 878, 53], "backdrop_path": "/xMOQVYLeIKBXenJ9KMeasj7S64y.jpg", "adult": false, "overview": "Life for former United Nations investigator Gerry Lane and his family seems content. Suddenly, the world is plagued by a mysterious infection turning whole human populations into rampaging mindless zombies. After barely escaping the chaos, Lane is persuaded to go on a mission to investigate this disease. What follows is a perilous trek around the world where Lane must brave horrific dangers and long odds to find answers before human civilization falls.", "poster_path": "/Ha5t0J21eyiq6Az1EXzx0iwsGH.jpg", "popularity": 27.681}, {"id": 199584, "video": false, "vote_count": 85, "vote_average": 7.2, "title": "Secretly, Greatly", "release_date": "2013-06-05", "original_language": "ko", "original_title": "\uc740\ubc00\ud558\uac8c \uc704\ub300\ud558\uac8c", "genre_ids": [28, 35, 18], "backdrop_path": "/i7WGMPb7DLPvxPWOaDnAhzJAooI.jpg", "adult": false, "overview": "As a North Korean sleeper cell agent, Ryu-han infiltrates the South and assumes the role of a village idiot in a rural town. He observes the townsfolk and waits patiently for his mission. One day, after 2 years of playing the role of the village idiot, fellow elite spies Hae-rang, posed as a rock star and Hae-jin, posed as an ordinary student, are dispatched to the same town as Ryu-han. He helps the other two spies settle in and teach them how to adjust in the South. There is a sudden drastic political power shift in the North and all three spies receive an urgent and ultimate mission.", "poster_path": "/n5ESZzOGxnmugkLvyd45wOsn0mg.jpg", "popularity": 6.434}, {"id": 2440, "video": false, "vote_count": 260, "vote_average": 7.8, "title": "Joint Security Area", "release_date": "2000-09-09", "original_language": "ko", "original_title": "\uacf5\ub3d9\uacbd\ube44\uad6c\uc5ed JSA", "genre_ids": [28, 18, 53, 10752], "backdrop_path": "/dNx1OcIPrdPCbSZRjcvzyXUnSRS.jpg", "adult": false, "overview": "In the DMZ separating North and South Korea, two North Korean soldiers have been killed, supposedly by one South Korean soldier. But the 11 bullets found in the bodies, together with the 5 remaining bullets in the assassin's magazine clip, amount to 16 bullets for a gun that should normally hold 15 bullets. The investigating Swiss/Swedish team from the neutral countries overseeing the DMZ suspects that another, unknown party was involved - all of which points to some sort of cover up. The truth is much simpler and much more tragic.", "poster_path": "/iTB01AX6We1h8CAJql55dUyvSWq.jpg", "popularity": 10.349}, {"id": 11658, "video": false, "vote_count": 251, "vote_average": 7.7, "title": "Tae Guk Gi: The Brotherhood of War", "release_date": "2004-02-05", "original_language": "ko", "original_title": "\ud0dc\uadf9\uae30 \ud718\ub0a0\ub9ac\uba70", "genre_ids": [28, 12, 18, 36, 10752], "backdrop_path": "/66qO1fhZZsRE9qGCVSoeC8lGl0F.jpg", "adult": false, "overview": "When two brothers are forced to fight in the Korean War, the elder decides to take the riskiest missions if it will help shield the younger from battle.", "poster_path": "/1SEDI2qeNZgBK5XiJfKwWTmhZqC.jpg", "popularity": 11.039}, {"id": 517991, "video": false, "vote_count": 53, "vote_average": 7.5, "title": "The Spy Gone North", "release_date": "2018-08-08", "original_language": "ko", "original_title": "\uacf5\uc791", "genre_ids": [18, 36, 53], "backdrop_path": "/oRb0h5FNFsDGmDcSHYGI7ax02NP.jpg", "adult": false, "overview": "South Korea, 1993. An agent of the National Intelligence Service is sent to Beijing with the assignment of infiltrating a group of North Korean officials with the ultimate goal of obtaining information about the North Korean nuclear program.", "poster_path": "/zejf48OKFJNB8C114qPiDSB41eq.jpg", "popularity": 6.957}, {"adult": false, "backdrop_path": "/9EetaShpwcbSfrcvDmaFaNMtVyK.jpg", "genre_ids": [28, 27, 53], "id": 396535, "original_language": "ko", "original_title": "\ubd80\uc0b0\ud589", "overview": "Martial law is declared when a mysterious viral outbreak pushes Korea into a state of emergency. Those on an express train to Busan, a city that has successfully fended off the viral outbreak, must fight for their own survival\u2026", "poster_path": "/qWOkfCgioLEf3Km9OWva93RYWAc.jpg", "release_date": "2016-07-20", "title": "Train to Busan", "video": false, "vote_average": 7.7, "vote_count": 3022, "popularity": 21.935}, {"adult": false, "backdrop_path": "/uUYCUbgI5VxsUflTMI4Y9L2Y6vb.jpg", "genre_ids": [80, 18, 53], "id": 11423, "original_language": "ko", "original_title": "\uc0b4\uc778\uc758 \ucd94\uc5b5", "overview": "1986 Gyunggi Province. The body of a young woman is found brutally raped and murdered. Two months later, a series of rapes and murders commences under similar circumstances. And in a country that had never known such crimes, the dark whispers about a serial murderer grow louder. A special task force is set up in the area, with two local detectives Park Doo-Man and Jo Young-Goo joined by a detective from Seoul who requested to be assigned to the case.", "poster_path": "/gawnVe9cFowdoDLo9Pok12NTw39.jpg", "release_date": "2003-05-02", "title": "Memories of Murder", "video": false, "vote_average": 8.1, "vote_count": 1093, "popularity": 13.452}, {"id": 4550, "video": false, "vote_count": 752, "vote_average": 7.5, "title": "Sympathy for Lady Vengeance", "release_date": "2005-07-29", "original_language": "ko", "original_title": "\uce5c\uc808\ud55c \uae08\uc790\uc528", "genre_ids": [18, 53], "backdrop_path": "/bpQiLzFVXfoEOJ2pLFeslSBhR6j.jpg", "adult": false, "overview": "After a 13-year imprisonment for the kidnap and murder of a 6 year old boy, beautiful Lee Guem-ja starts seeking revenge on the man that was really responsible for the boy's death. With the help of fellow inmates and reunited with her daughter, she gets closer and closer to her goal. But will her actions lead to the relief she seeks?", "poster_path": "/vymGV0lscCGpaLjGyQhxkjq0jeg.jpg", "popularity": 13.102}, {"id": 651, "video": false, "vote_count": 478, "vote_average": 7.1, "title": "M*A*S*H", "release_date": "1970-01-24", "original_language": "en", "original_title": "M*A*S*H", "genre_ids": [35, 18, 10752], "backdrop_path": "/l5YH6TCYi2mgZwXbDjF71iA9UBP.jpg", "adult": false, "overview": "The staff of a Korean War field hospital use humor and high jinks to keep their sanity in the face of the horror of war.", "poster_path": "/cscyvJ4nDgbqewrttPXZ5EYOdwa.jpg", "popularity": 12.777}, {"id": 228967, "video": false, "vote_count": 3857, "vote_average": 6.2, "title": "The Interview", "release_date": "2014-12-25", "original_language": "en", "original_title": "The Interview", "genre_ids": [28, 35], "backdrop_path": "/p5n7VTC6qmFIuBFjACWURYCAlKP.jpg", "adult": false, "overview": "Dave Skylark and his producer Aaron Rapaport run the celebrity tabloid show \"Skylark Tonight\". When they land an interview with a surprise fan, North Korean dictator Kim Jong-un, they are recruited by the CIA to turn their trip to Pyongyang into an assassination mission.", "poster_path": "/2uWb0aSm5cFmRCHP95OdA6hvTEs.jpg", "popularity": 23.561}, {"id": 49040, "video": false, "vote_count": 3881, "vote_average": 6.1, "title": "The Bourne Legacy", "release_date": "2012-08-08", "original_language": "en", "original_title": "The Bourne Legacy", "genre_ids": [28, 53], "backdrop_path": "/gCdJYpX1TXGEZrEJl0mMTTpinMh.jpg", "adult": false, "overview": "New CIA operative Aaron Cross experiences life-or-death stakes that have been triggered by the previous actions of Jason Bourne.", "poster_path": "/qIJonjlSzU6LCJklS6CH3p5vLcQ.jpg", "popularity": 20.243}, {"id": 99861, "video": false, "vote_count": 14870, "vote_average": 7.3, "title": "Avengers: Age of Ultron", "release_date": "2015-04-22", "original_language": "en", "original_title": "Avengers: Age of Ultron", "genre_ids": [28, 12, 878], "backdrop_path": "/rFtsE7Lhlc2jRWF7SRAU0fvrveQ.jpg", "adult": false, "overview": "When Tony Stark tries to jumpstart a dormant peacekeeping program, things go awry and Earth\u2019s Mightiest Heroes are put to the ultimate test as the fate of the planet hangs in the balance. As the villainous Ultron emerges, it is up to The Avengers to stop him from enacting his terrible plans, and soon uneasy alliances and unexpected action pave the way for an epic and unique global adventure.", "poster_path": "/t90Y3G8UGQp0f0DrP60wRu9gfrH.jpg", "popularity": 38.75}, {"id": 36669, "video": false, "vote_count": 2045, "vote_average": 5.9, "title": "Die Another Day", "release_date": "2002-11-17", "original_language": "en", "original_title": "Die Another Day", "genre_ids": [28, 12, 53], "backdrop_path": "/3YQfmtpbiFCMHcXY3lJ7fGEcOL6.jpg", "adult": false, "overview": "Bond takes on a North Korean leader who undergoes DNA replacement procedures that allow him to assume different identities. American agent, Jinx Johnson assists Bond in his attempt to thwart the villain's plans to exploit a satellite that is powered by solar energy.", "poster_path": "/1iUZqUXS7x5FcGM5J0u01xuObWC.jpg", "popularity": 24.2}, {"id": 117263, "video": false, "vote_count": 4463, "vote_average": 6.3, "title": "Olympus Has Fallen", "release_date": "2013-03-20", "original_language": "en", "original_title": "Olympus Has Fallen", "genre_ids": [28, 53], "backdrop_path": "/lxbMXD12UCj7kMgfqjaZq5irGAu.jpg", "adult": false, "overview": "When the White House (Secret Service Code: \"Olympus\") is captured by a terrorist mastermind and the President is kidnapped, disgraced former Presidential guard Mike Banning finds himself trapped within the building. As the national security team scrambles to respond, they are forced to rely on Banning's inside knowledge to help retake the White House, save the President and avert an even bigger disaster.", "poster_path": "/l542hLtKhsmOWEBFoC7Aajk0nKt.jpg", "popularity": 21.841}], "total_pages": 25, "total_results": 481}, "recommendations": {"page": 1, "results": [], "total_pages": 1, "total_results": 0}, "credits": {"cast": [{"cast_id": 1, "character": "Jung-cheol", "credit_id": "5476b749c3a3684db0000d28", "gender": 2, "id": 1080194, "name": "Park Jung-bum", "order": 0, "profile_path": null}, {"cast_id": 3, "character": "Su-yeon", "credit_id": "58171a2ec3a36874b7016df3", "gender": 1, "id": 1552971, "name": "Lee Seung-yeon", "order": 1, "profile_path": "/4wnzLnOpZ5l4FEStZ3vXkMJuPfi.jpg"}, {"cast_id": 2, "character": "Myeong-hoon", "credit_id": "581718239251415a7f018c23", "gender": 2, "id": 1694435, "name": "Park Myung-hoon", "order": 2, "profile_path": "/8IgD7YBQKi2K94RSCwXCCrKcQrA.jpg"}, {"cast_id": 5, "character": "", "credit_id": "5b0f1263c3a368799600143f", "gender": 1, "id": 1177278, "name": "Park Hee-von", "order": 3, "profile_path": "/auiVQg7pG1B0uXTaQ7nWLgrw0eA.jpg"}, {"cast_id": 6, "character": "", "credit_id": "5b0f12690e0a26460a0010f5", "gender": 1, "id": 1200395, "name": "Lee Na-ra", "order": 4, "profile_path": "/p2iB33iGUZYs86bJks72l09UBWo.jpg"}], "crew": [{"credit_id": "53e3b0b7c3a3684860002223", "department": "Directing", "gender": 2, "id": 1080194, "job": "Director", "name": "Park Jung-bum", "profile_path": null}, {"credit_id": "58171b0e9251415a7f018da0", "department": "Writing", "gender": 2, "id": 1080194, "job": "Writer", "name": "Park Jung-bum", "profile_path": null}, {"credit_id": "5da46168cb30840013940f8c", "department": "Sound", "gender": 0, "id": 1162597, "job": "Original Music Composer", "name": "Park In-young", "profile_path": null}, {"credit_id": "5d53f6ffe18b970018d268d2", "department": "Costume & Make-Up", "gender": 0, "id": 2386919, "job": "Makeup & Hair", "name": "Kwon Ji-eun", "profile_path": null}, {"credit_id": "5e04fae026dac100146e4d47", "department": "Sound", "gender": 0, "id": 2491085, "job": "Sound Supervisor", "name": "Yang Jeong-won", "profile_path": null}]}}