{"adult": false, "backdrop_path": null, "belongs_to_collection": null, "budget": 0, "genres": [{"id": 10402, "name": "Music"}, {"id": 35, "name": "Comedy"}], "homepage": null, "id": 285787, "imdb_id": "tt0022202", "original_language": "de", "original_title": "Nie wieder Liebe", "overview": "An American millionaire, who had always bad luck with women, bets that he can live without them for five years. But after four and a half years traveling around on his yacht, he rescues a lady from drowning in the English Channel.", "popularity": 0.6, "poster_path": "/7reOte2YqPXEizBxhcgyZHTBKh3.jpg", "production_companies": [{"id": 12372, "logo_path": null, "name": "Universum Film (UFA)", "origin_country": ""}], "production_countries": [{"iso_3166_1": "DE", "name": "Germany"}], "release_date": "1931-07-26", "revenue": 0, "runtime": 88, "spoken_languages": [{"iso_639_1": "de", "name": "Deutsch"}], "status": "Released", "tagline": "", "title": "No More Love", "video": false, "vote_average": 0.0, "vote_count": 0, "keywords": {"keywords": [{"id": 4344, "name": "musical"}]}, "similar": {"page": 1, "results": [{"id": 224141, "video": false, "vote_count": 3144, "vote_average": 5.7, "title": "Into the Woods", "release_date": "2014-12-24", "original_language": "en", "original_title": "Into the Woods", "genre_ids": [35, 14], "backdrop_path": "/lzJzB0QfkjpGCm9qUC4XpEIB6pm.jpg", "adult": false, "overview": "In a woods filled with magic and fairy tale characters, a baker and his wife set out to end the curse put on them by their neighbor, a spiteful witch.", "poster_path": "/5h91odPFNlBuJbRBj5N4MEBfXDE.jpg", "popularity": 29.368}, {"id": 872, "video": false, "vote_count": 1617, "vote_average": 8.2, "title": "Singin' in the Rain", "release_date": "1952-04-10", "original_language": "en", "original_title": "Singin' in the Rain", "genre_ids": [35, 10402, 10749], "backdrop_path": "/amW1YWQvcP8slDyDp1R652aVQZ7.jpg", "adult": false, "overview": "In 1927 Hollywood, a silent film production company and cast make a difficult transition to sound.", "poster_path": "/s39odBPtyutGBnEfBIpdm0fpRwv.jpg", "popularity": 17.295}, {"id": 504608, "video": false, "vote_count": 1666, "vote_average": 7.4, "title": "Rocketman", "release_date": "2019-05-22", "original_language": "en", "original_title": "Rocketman", "genre_ids": [18, 10402], "backdrop_path": "/sZZJ42GrWKxSOfcrpI2TSFQa0AQ.jpg", "adult": false, "overview": "The story of Elton John's life, from his years as a prodigy at the Royal Academy of Music through his influential and enduring musical partnership with Bernie Taupin.", "poster_path": "/f4FF18ia7yTvHf2izNrHqBmgH8U.jpg", "popularity": 27.709}, {"id": 18126, "video": false, "vote_count": 1217, "vote_average": 6.4, "title": "Hannah Montana: The Movie", "release_date": "2009-04-10", "original_language": "en", "original_title": "Hannah Montana: The Movie", "genre_ids": [35, 18, 10402, 10749, 10751], "backdrop_path": "/ezx3NkXNqf2KnJCP6Nfj1bfCFut.jpg", "adult": false, "overview": "As Hannah Montana's popularity begins to take over her life, Miley Stewart, on the urging from her father takes a trip to her hometown of Crowley Corners, Tennessee to get some perspective on what matters in life the most.", "poster_path": "/8pwbnmvshHj2yYPYlyJ8K8Yzecy.jpg", "popularity": 12.479}, {"id": 2005, "video": false, "vote_count": 1806, "vote_average": 6.7, "title": "Sister Act", "release_date": "1992-05-28", "original_language": "en", "original_title": "Sister Act", "genre_ids": [35, 10402], "backdrop_path": "/oaLqlJxt8TJSjsdfMpSkLexZ4l5.jpg", "adult": false, "overview": "A Reno singer witnesses a mob murder and the cops stash her in a nunnery to protect her from the mob's hitmen. The mother superior does not trust her, and takes steps to limit her influence on the other nuns. Eventually the singer rescues the failing choir and begins helping with community projects, which gets her an interview on TV\u2014and identification by the mob.", "poster_path": "/7wQxLtybiUbtC6tsJh9htFEmqq3.jpg", "popularity": 16.674}, {"adult": false, "backdrop_path": "/69NfvNrpPI6bjj3Txp2cDsRZ5se.jpg", "genre_ids": [18, 10402, 10749], "id": 65203, "original_language": "en", "original_title": "The Broadway Melody", "overview": "Harriet and Queenie Mahoney, a vaudeville act, come to Broadway, where their friend Eddie Kerns needs them for his number in one of Francis Zanfield's shows. Eddie was in love with Harriet, but when he meets Queenie, he falls in love to her, but she is courted by Jock Warriner, a member of the New Yorker high society. It takes a while till Queenie recognizes, that she is for Jock nothing more than a toy, and it also takes a while till Harriet recognizes, that Eddie is in love with Queenie", "poster_path": "/dJxFUKiO7JTDBSUr4Nzct4iJikX.jpg", "release_date": "1929-02-08", "title": "The Broadway Melody", "video": false, "vote_average": 5.5, "vote_count": 51, "popularity": 5.006}, {"id": 10537, "video": false, "vote_count": 603, "vote_average": 6.9, "title": "The Doors", "release_date": "1991-03-01", "original_language": "en", "original_title": "The Doors", "genre_ids": [18, 10402], "backdrop_path": "/1rv5sW6Qs2YK2iOzIgwH3SJPIl1.jpg", "adult": false, "overview": "The story of the famous and influential 1960s rock band and its lead singer and composer, Jim Morrison.", "poster_path": "/9CkFrWAkg23YynYd2uJLyWznMZZ.jpg", "popularity": 14.573}, {"adult": false, "backdrop_path": "/58BOLbf2ShjhVVtT7twnUEeangh.jpg", "genre_ids": [18, 10402], "id": 3087, "original_language": "en", "original_title": "Yankee Doodle Dandy", "overview": "A film of the life of the renowned musical composer, playwright, actor, dancer and singer George M. Cohan.", "poster_path": "/cqLLIyJFjLr6jGOxWVEHG11WGzB.jpg", "release_date": "1942-05-29", "title": "Yankee Doodle Dandy", "video": false, "vote_average": 7.1, "vote_count": 99, "popularity": 11.616}, {"id": 194662, "video": false, "vote_count": 8621, "vote_average": 7.5, "title": "Birdman", "release_date": "2014-08-27", "original_language": "en", "original_title": "Birdman", "genre_ids": [35, 18], "backdrop_path": "/AsJVim0Hk3KbQPbfjyijfjqmaoZ.jpg", "adult": false, "overview": "A fading actor best known for his portrayal of a popular superhero attempts to mount a comeback by appearing in a Broadway play. As opening night approaches, his attempts to become more altruistic, rebuild his career, and reconnect with friends and family prove more difficult than expected.", "poster_path": "/rSZs93P0LLxqlVEbI001UKoeCQC.jpg", "popularity": 40.415}, {"adult": false, "backdrop_path": "/ppDnBvf0f7vCZHRLtDjazpYHdTF.jpg", "genre_ids": [35, 10402, 10749], "id": 13368, "original_language": "en", "original_title": "White Christmas", "overview": "Two talented song-and-dance men team up after the war to become one of the hottest acts in show business. In time they befriend and become romantically involved with the beautiful Haynes sisters who comprise a sister act.", "poster_path": "/A5kBQsHKbIptxJyELEpHQJROCRj.jpg", "release_date": "1954-10-14", "title": "White Christmas", "video": false, "vote_average": 7.4, "vote_count": 250, "popularity": 10.494}, {"id": 332562, "video": false, "vote_count": 7182, "vote_average": 7.5, "title": "A Star Is Born", "release_date": "2018-10-03", "original_language": "en", "original_title": "A Star Is Born", "genre_ids": [18, 10402, 10749], "backdrop_path": "/mnDvPokXpvsdPcWSjNRPhiiLOKu.jpg", "adult": false, "overview": "Seasoned musician Jackson Maine discovers \u2014 and falls in love with \u2014 struggling artist Ally. She has just about given up on her dream to make it big as a singer \u2014 until Jack coaxes her into the spotlight. But even as Ally's career takes off, the personal side of their relationship is breaking down, as Jack fights an ongoing battle with his own internal demons.", "poster_path": "/wrFpXMNBRj2PBiN4Z5kix51XaIZ.jpg", "popularity": 37.528}, {"id": 252, "video": false, "vote_count": 1838, "vote_average": 7.5, "title": "Willy Wonka & the Chocolate Factory", "release_date": "1971-06-29", "original_language": "en", "original_title": "Willy Wonka & the Chocolate Factory", "genre_ids": [35, 14, 10751], "backdrop_path": "/nyqiCFF3pjcdwG2KmOwvM6CCLKA.jpg", "adult": false, "overview": "Eccentric candy man Willy Wonka prompts a worldwide frenzy when he announces that golden tickets hidden inside five of his delicious candy bars will admit their lucky holders into his top-secret confectionary. But does Wonka have an agenda hidden amid a world of Oompa Loompas and chocolate rivers?", "poster_path": "/b94qXd1FcIwgzv0NYMUe2bjrzJR.jpg", "popularity": 19.101}, {"id": 313369, "video": false, "vote_count": 11063, "vote_average": 7.9, "title": "La La Land", "release_date": "2016-11-29", "original_language": "en", "original_title": "La La Land", "genre_ids": [35, 18, 10402, 10749], "backdrop_path": "/fp6X6yhgcxzxCpmM0EVC6V9B8XB.jpg", "adult": false, "overview": "Mia, an aspiring actress, serves lattes to movie stars in between auditions and Sebastian, a jazz musician, scrapes by playing cocktail party gigs in dingy bars, but as success mounts they are faced with decisions that begin to fray the fragile fabric of their love affair, and the dreams they worked so hard to maintain in each other threaten to rip them apart.", "poster_path": "/ylXCdC106IKiarftHkcacasaAcb.jpg", "popularity": 39.654}, {"id": 606117, "video": false, "vote_count": 257, "vote_average": 6.8, "title": "A Cinderella Story: Christmas Wish", "release_date": "2019-10-15", "original_language": "en", "original_title": "A Cinderella Story: Christmas Wish", "genre_ids": [35, 14, 10402, 10749], "backdrop_path": "/h3kzgUaUOamInX7nsALsFmlw4qX.jpg", "adult": false, "overview": "Kat is an aspiring singer-songwriter who dreams of making it big. However, her dreams are stalled by her reality: a conniving and cruel stepfamily  and a demoralizing job working as a singing elf at billionaire Terrence Wintergarden\u2019s Santa Land.", "poster_path": "/ozBX0u5caaJFli9AssqJmARb5R.jpg", "popularity": 22.941}, {"adult": false, "backdrop_path": "/6bnI08rrGXRkngRqJWCMXDZuJ1j.jpg", "genre_ids": [35, 10402], "id": 254470, "original_language": "en", "original_title": "Pitch Perfect 2", "overview": "The Bellas are back, and they are better than ever. After being humiliated in front of none other than the President of the United States of America, the Bellas are taken out of the Aca-Circuit. In order to clear their name, and regain their status, the Bellas take on a seemingly impossible task: winning an international competition no American team has ever won. In order to accomplish this monumental task, they need to strengthen the bonds of friendship and sisterhood and blow away the competition with their amazing aca-magic! With all new friends and old rivals tagging along for the trip, the Bellas can hopefully accomplish their dreams.", "poster_path": "/qSjruLiFB4uqRtz2xheQPxG8uaB.jpg", "release_date": "2015-05-07", "title": "Pitch Perfect 2", "video": false, "vote_average": 6.8, "vote_count": 3901, "popularity": 29.697}, {"adult": false, "backdrop_path": "/5x0VEeFCnWzRBwU23KycKQRqEhN.jpg", "genre_ids": [10402, 35], "id": 15157, "original_language": "en", "original_title": "Another Cinderella Story", "overview": "A guy who danced with what could be the girl of his dreams at a costume ball only has one hint at her identity: the Zune she left behind as she rushed home in order to make her curfew. And with a once-in-a-lifetime opportunity in front of him, he sets out to find his masked beauty.", "poster_path": "/fLdCKCfHT8A6bnWybBsQFjC4fCo.jpg", "release_date": "2008-09-16", "title": "Another Cinderella Story", "video": false, "vote_average": 6.6, "vote_count": 1120, "popularity": 16.339}, {"adult": false, "backdrop_path": "/3eAudH9hkkr451VoAZPLEQVy5wX.jpg", "genre_ids": [35, 18, 10402, 10749], "id": 6282, "original_language": "en", "original_title": "Coyote Ugly", "overview": "Graced with a velvet voice, 21-year-old Violet Sanford heads to New York to pursue her dream of becoming a songwriter only to find her aspirations sidelined by the accolades and notoriety she receives at her \"day\" job as a barmaid at Coyote Ugly. The \"Coyotes\" as they are affectionately called tantalize customers and the media alike with their outrageous antics, making Coyote Ugly the watering hole for guys on the prowl.", "poster_path": "/p3nIrS9rkdVmMmgKAWtGsmAnhGV.jpg", "release_date": "2000-07-30", "title": "Coyote Ugly", "video": false, "vote_average": 6.1, "vote_count": 1167, "popularity": 19.287}, {"id": 11887, "video": false, "vote_count": 2347, "vote_average": 6.5, "title": "High School Musical 3: Senior Year", "release_date": "2008-10-11", "original_language": "en", "original_title": "High School Musical 3: Senior Year", "genre_ids": [35, 18, 10402, 10749, 10751], "backdrop_path": "/daSGxGZL2nNjGZKkAF5ain3lmOx.jpg", "adult": false, "overview": "It's almost graduation day for high school seniors Troy, Gabriella, Sharpay, Chad, Ryan and Taylor \u2015 and the thought of heading off in separate directions after leaving East High has these Wildcats thinking they need to do something they'll remember forever. Together with the rest of the Wildcats, they stage a spring musical reflecting their hopes and fears about the future and their unforgettable experiences growing up together. But with graduation approaching and college plans in question, what will become of the dreams, romances, and friendships of East High's senior Wildcats?", "poster_path": "/ewZpH2QIfPQ0VIn9lPf7MHbLbl4.jpg", "popularity": 14.748}, {"id": 407655, "video": false, "vote_count": 421, "vote_average": 6.8, "title": "A Cinderella Story: If the Shoe Fits", "release_date": "2016-08-02", "original_language": "en", "original_title": "A Cinderella Story: If the Shoe Fits", "genre_ids": [35, 14, 10402, 10751], "backdrop_path": "/svYzELCLW0NGVEuvNraA4W7Hmm9.jpg", "adult": false, "overview": "A contemporary musical version of the classic Cinderella story in which the servant step daughter hope to compete in a musical competition for a famous pop star.", "poster_path": "/prZSNnK5dkYcflsbdOsVVvqasZ5.jpg", "popularity": 19.825}, {"adult": false, "backdrop_path": "/9l5Nzo1qbEslfCu2NYWimpZ1Vkc.jpg", "genre_ids": [35, 10751, 14, 10749], "id": 4523, "original_language": "en", "original_title": "Enchanted", "overview": "The beautiful princess Giselle is banished by an evil queen from her magical, musical animated land and finds herself in the gritty reality of the streets of modern-day Manhattan. Shocked by this strange new environment that doesn't operate on a \"happily ever after\" basis, Giselle is now adrift in a chaotic world badly in need of enchantment. But when Giselle begins to fall in love with a charmingly flawed divorce lawyer who has come to her aid - even though she is already promised to a perfect fairy tale prince back home - she has to wonder: Can a storybook view of romance survive in the real world?", "poster_path": "/65EfHNQ6NCeAoRPNLRhTyLqNZmU.jpg", "release_date": "2007-11-20", "title": "Enchanted", "video": false, "vote_average": 6.7, "vote_count": 3505, "popularity": 22.541}], "total_pages": 159, "total_results": 3180}, "recommendations": {"page": 1, "results": [], "total_pages": 1, "total_results": 0}, "credits": {"cast": [{"cast_id": 1, "character": "Gladys O'Halloran", "credit_id": "53e4ac940e0a262b91006515", "gender": 1, "id": 13892, "name": "Lilian Harvey", "order": 1, "profile_path": "/gBqqe2z1FuqPGHxtpPaf9d4WhlY.jpg"}, {"cast_id": 2, "character": "Sandercroft", "credit_id": "53e4acc10e0a262b80006a3f", "gender": 2, "id": 48038, "name": "Harry Liedtke", "order": 2, "profile_path": "/1wqen2rkfQFcZAuMH3obEIsb3qH.jpg"}, {"cast_id": 3, "character": "Jean", "credit_id": "53e4acd20e0a262b830068e6", "gender": 2, "id": 2494, "name": "Felix Bressart", "order": 3, "profile_path": "/x3NDEBpQavuhcV2yFNgm3JK0d5J.jpg"}, {"cast_id": 4, "character": "Eine Stimmungss\u00e4ngerin", "credit_id": "53e4aceb0e0a262b8900687b", "gender": 1, "id": 35879, "name": "Margo Lion", "order": 4, "profile_path": "/63c3JlYDtodZLzHRulaRpprWS1I.jpg"}, {"cast_id": 5, "character": "Dr. Baskett", "credit_id": "53e4acfd0e0a262b8f0066ac", "gender": 2, "id": 28130, "name": "Julius Falkenstein", "order": 5, "profile_path": "/A1azESkliYGXRNLJqzh7isKL1Zz.jpg"}, {"cast_id": 6, "character": "Rhinelander", "credit_id": "53e4ad100e0a262b8c006829", "gender": 2, "id": 28066, "name": "Theo Lingen", "order": 6, "profile_path": "/naux2m8ukbKBFH822ILOGnq3q54.jpg"}, {"cast_id": 7, "character": "Charlie", "credit_id": "53e4ad200e0a262b8900687e", "gender": 0, "id": 1340390, "name": "Hans Behal", "order": 7, "profile_path": null}, {"cast_id": 25, "character": "Piano Man", "credit_id": "59e3c25cc3a3684668019cc4", "gender": 0, "id": 592417, "name": "Mischa Spoliansky", "order": 8, "profile_path": null}, {"cast_id": 26, "character": "Jack (as Oskar Marion)", "credit_id": "59e3c300c3a3684654019ac5", "gender": 2, "id": 1034356, "name": "Oskar Marion", "order": 9, "profile_path": "/z6QJn7101jkShjP4zdweWWWRyJf.jpg"}, {"cast_id": 27, "character": "Tom", "credit_id": "59e3c32e925141084b01919b", "gender": 2, "id": 12375, "name": "Hermann Speelmans", "order": 10, "profile_path": "/bM5XEJAIsYjjnAs0n5LFXsgnO0L.jpg"}, {"cast_id": 28, "character": "Der Spanier (as Raoul Langen)", "credit_id": "59e3c3b4925141084f0199b5", "gender": 0, "id": 1357555, "name": "Raoul Lange", "order": 11, "profile_path": null}, {"cast_id": 29, "character": "Der Koch", "credit_id": "59e3c3c0c3a3684654019b7d", "gender": 2, "id": 1531767, "name": "Louis Brody", "order": 12, "profile_path": "/u2z7YSbJEDZniqyKrvfLqvvgmKd.jpg"}, {"cast_id": 30, "character": "Claire", "credit_id": "59e3c3ce9251410824019da0", "gender": 1, "id": 1156649, "name": "Rina Marsa", "order": 13, "profile_path": null}, {"cast_id": 31, "character": "Der Schiffsjunge", "credit_id": "59e3c3dac3a3684668019e78", "gender": 0, "id": 1906324, "name": "Konstantin Kalser", "order": 14, "profile_path": null}], "crew": [{"credit_id": "59e3c227c3a3684668019c72", "department": "Camera", "gender": 2, "id": 1940, "job": "Director of Photography", "name": "Franz Planer", "profile_path": null}, {"credit_id": "59e3c22d92514107f5019be5", "department": "Camera", "gender": 2, "id": 2794, "job": "Director of Photography", "name": "Robert Baberske", "profile_path": null}, {"credit_id": "56b7b56192514116b4000422", "department": "Directing", "gender": 2, "id": 14353, "job": "Assistant Director", "name": "Max Oph\u00fcls", "profile_path": "/5U9Rr6uuNmKYsFtg8NLtr1HLGnN.jpg"}, {"credit_id": "59e3c24fc3a368461e019a0e", "department": "Costume & Make-Up", "gender": 2, "id": 27922, "job": "Costume Design", "name": "Joe Strassner", "profile_path": null}, {"credit_id": "56b7b50092514107550025e6", "department": "Production", "gender": 2, "id": 33172, "job": "Producer", "name": "Arnold Pressburger", "profile_path": null}, {"credit_id": "56b7b4bb9251415b4b000b0c", "department": "Writing", "gender": 2, "id": 37361, "job": "Screenplay", "name": "Anatole Litvak", "profile_path": "/pgd4ixBODEMwwzyf705Ki7sOOlG.jpg"}, {"credit_id": "53e4ac790e0a262b80006a35", "department": "Directing", "gender": 2, "id": 37361, "job": "Director", "name": "Anatole Litvak", "profile_path": "/pgd4ixBODEMwwzyf705Ki7sOOlG.jpg"}, {"credit_id": "56b7b54692514116b4000420", "department": "Art", "gender": 0, "id": 37848, "job": "Art Direction", "name": "Werner Schlichting", "profile_path": null}, {"credit_id": "56b7b4e5c3a36806f100ccea", "department": "Writing", "gender": 0, "id": 48208, "job": "Screenplay", "name": "Curt J. Braun", "profile_path": null}, {"credit_id": "56b7b4d992514107550025dc", "department": "Writing", "gender": 2, "id": 105570, "job": "Screenplay", "name": "Felix Jackson", "profile_path": null}, {"credit_id": "56b7b4cdc3a36806fc00cc07", "department": "Writing", "gender": 1, "id": 234675, "job": "Screenplay", "name": "Irma von Cube", "profile_path": null}, {"credit_id": "59e3c240925141082b0192cd", "department": "Sound", "gender": 0, "id": 592417, "job": "Original Music Composer", "name": "Mischa Spoliansky", "profile_path": null}, {"credit_id": "56b7b57892514166150077d6", "department": "Editing", "gender": 0, "id": 1172544, "job": "Editor", "name": "Aleksandr Uralsky", "profile_path": null}, {"credit_id": "56b7b4f0c3a36806f100ccef", "department": "Writing", "gender": 0, "id": 1302260, "job": "Screenplay", "name": "Fritz Falkenstein", "profile_path": null}, {"credit_id": "56b7b51892514166150077c5", "department": "Production", "gender": 0, "id": 1516631, "job": "Producer", "name": "Gregor Rabinovitch", "profile_path": null}, {"credit_id": "56b7b50dc3a36806f800c5c7", "department": "Production", "gender": 0, "id": 1574244, "job": "Producer", "name": "No\u00eb Bloch", "profile_path": null}]}}