{"adult": false, "backdrop_path": "/oAIejcGK7GBibNMgXAOVlJcXXp0.jpg", "belongs_to_collection": null, "budget": 0, "genres": [{"id": 9648, "name": "Mystery"}, {"id": 18, "name": "Drama"}], "homepage": null, "id": 28662, "imdb_id": "tt0049961", "original_language": "en", "original_title": "A Woman's Devotion", "overview": "An artist suffering from mental problems from his experiences during the war goes to Acapulco on his honeymoon. Soon young women are turning up dead in the area, and the ex-GI comes to believe he might be responsible, as he has long stretches where he can't remember anything.", "popularity": 2.286, "poster_path": "/2xGUYMQ1LrxkdCAkkQPklTF0g2j.jpg", "production_companies": [{"id": 1432, "logo_path": "/8AcaWEWQ8MFUBGlt9WxGGBAMpMG.png", "name": "Republic Pictures", "origin_country": "US"}], "production_countries": [{"iso_3166_1": "US", "name": "United States of America"}], "release_date": "1956-11-16", "revenue": 0, "runtime": 88, "spoken_languages": [{"iso_639_1": "en", "name": "English"}], "status": "Released", "tagline": "The lovers of PICNIC together again", "title": "A Woman's Devotion", "video": false, "vote_average": 3.9, "vote_count": 4, "keywords": {"keywords": [{"id": 41329, "name": "mental illness"}, {"id": 195402, "name": "film noir"}]}, "similar": {"page": 1, "results": [{"adult": false, "backdrop_path": "/1l77Gk2OK9hjRFze08El8Do3pT1.jpg", "genre_ids": [80, 9648, 53], "id": 996, "original_language": "en", "original_title": "Double Indemnity", "overview": "A rich woman and a calculating insurance agent plot to kill her unsuspecting husband after he signs a double indemnity policy.  Against a backdrop of distinctly Californian settings, the partners in crime plan the perfect murder to collect the insurance, which pays  double if the death is accidental.", "poster_path": "/nW0cCpfuGcR1JG7EinDbdL2Ijf2.jpg", "release_date": "1944-07-03", "title": "Double Indemnity", "video": false, "vote_average": 8.2, "vote_count": 858, "popularity": 14.326}, {"adult": false, "backdrop_path": "/gF7v48JI9Vf6bBVU5aykiPtcCub.jpg", "genre_ids": [80, 9648, 53], "id": 14638, "original_language": "en", "original_title": "The Killers", "overview": "Two hit men walk into a diner asking for a man called \"the Swede\". When the killers find the Swede, he's expecting them and doesn't put up a fight. Since the Swede had a life insurance policy, an investigator, on a hunch, decides to look into the murder. As the Swede's past is laid bare, it comes to light that he was in love with a beautiful woman who may have lured him into pulling off a bank robbery overseen by another man.", "poster_path": "/uXnuc6pW01s1MDwb6QwBWg2JQeX.jpg", "release_date": "1946-08-28", "title": "The Killers", "video": false, "vote_average": 7.4, "vote_count": 167, "popularity": 11.012}, {"id": 475557, "video": false, "vote_count": 8109, "vote_average": 8.3, "title": "Joker", "release_date": "2019-10-02", "original_language": "en", "original_title": "Joker", "genre_ids": [80, 18, 53], "backdrop_path": "/n6bUvigpRFqSwmPp1m2YADdbRBc.jpg", "adult": false, "overview": "During the 1980s, a failed stand-up comedian is driven insane and turns to a life of crime and chaos in Gotham City while becoming an infamous psychopathic crime figure.", "poster_path": "/udDclJoHjfjb8Ekgsd4FDteOkCU.jpg", "popularity": 231.13}, {"adult": false, "backdrop_path": "/5UhVmv70qTfy7YSf8r87kNXWxjK.jpg", "genre_ids": [18, 53, 9648], "id": 638, "original_language": "en", "original_title": "Lost Highway", "overview": "A tormented jazz musician finds himself lost in an enigmatic story involving murder, surveillance, gangsters, doppelgangers, and an impossible transformation inside a prison cell.", "poster_path": "/z6yhgEzGUJaBBgAxoyggRzwLnVM.jpg", "release_date": "1997-01-15", "title": "Lost Highway", "video": false, "vote_average": 7.6, "vote_count": 1279, "popularity": 17.633}, {"adult": false, "backdrop_path": "/tR1RXbnkSvZq0sgx0Gyh3GmgYoB.jpg", "genre_ids": [80, 18, 53], "id": 21734, "original_language": "en", "original_title": "Shadow of a Doubt", "overview": "A bored teen living in Santa Rosa, California, Charlotte \"Charlie\" Newton, is frustrated because nothing seems to be happening in her life and that of her family. Then, she receives wonderful news: her uncle (for whom she was named), Charlie Oakley, is arriving for a visit. But Uncle Charlie may not be the man he seems to be.", "poster_path": "/ptyWagbWE8jSGyV2tGEzAdVbRCj.jpg", "release_date": "1943-01-15", "title": "Shadow of a Doubt", "video": false, "vote_average": 7.7, "vote_count": 448, "popularity": 12.942}, {"adult": false, "backdrop_path": "/jRNqzZZwYIpiukkblMQ4G2Vc5p7.jpg", "genre_ids": [9648, 80, 53], "id": 963, "original_language": "en", "original_title": "The Maltese Falcon", "overview": "A private detective takes on a case that involves him with three eccentric criminals, a beautiful liar, and their quest for a priceless statuette.", "poster_path": "/jQilmbgbKtpbHM9hw9hgmqomJ9.jpg", "release_date": "1941-10-18", "title": "The Maltese Falcon", "video": false, "vote_average": 7.8, "vote_count": 840, "popularity": 16.587}, {"id": 502416, "video": false, "vote_count": 737, "vote_average": 5.6, "title": "Ma", "release_date": "2019-05-29", "original_language": "en", "original_title": "Ma", "genre_ids": [27], "backdrop_path": "/mBOv5YrX5QGr5CusK0PKSHuxOt9.jpg", "adult": false, "overview": "Sue Ann is a loner who keeps to herself in her quiet Ohio town. One day, she is asked by Maggie, a new teenager in town, to buy some booze for her and her friends, and Sue Ann sees the chance to make some unsuspecting, if younger, friends of her own.", "poster_path": "/6n7ASmQ1wY2cxTubFFGlcvPpyk7.jpg", "popularity": 14.313}, {"adult": false, "backdrop_path": "/vZySKb0bWGUVOYpcdIIIi60FsZ7.jpg", "genre_ids": [18, 10749, 53], "id": 17645, "original_language": "en", "original_title": "Leave Her to Heaven", "overview": "A young novelist, Richard Harland, meets beautiful Ellen Berent on a train where they fall in love and are soon married. When tragedies take first his handicapped young brother, then his unborn son from him, Harland gradually realises that his wife's insane jealousy may be the cause of the tragedies in his life. Yet another shock awaits them all, as Ellen's emotions become uncontrollable.", "poster_path": "/6D2ujwUC4GHV0rnES4nnarZryT8.jpg", "release_date": "1945-12-25", "title": "Leave Her to Heaven", "video": false, "vote_average": 7.4, "vote_count": 92, "popularity": 8.538}, {"adult": false, "backdrop_path": "/20IgqkdFw5kuItqDCJtidSESP0t.jpg", "genre_ids": [27, 18], "id": 10066, "original_language": "en", "original_title": "House of Wax", "overview": "A group of unwitting teens are stranded near a strange wax museum and soon must fight to survive and keep from becoming the next exhibit.", "poster_path": "/uM1RebQywM5PPYsauayefpXGxVk.jpg", "release_date": "2005-04-30", "title": "House of Wax", "video": false, "vote_average": 5.7, "vote_count": 1532, "popularity": 16.398}, {"adult": false, "backdrop_path": "/8nvayG5l0urcjvvpszoECDqLWzD.jpg", "genre_ids": [18, 53, 80, 9648], "id": 186, "original_language": "en", "original_title": "Lucky Number Slevin", "overview": "Slevin is mistakenly put in the middle of a personal war between the city\u2019s biggest criminal bosses. Under constant watch, Slevin must try not to get killed by an infamous assassin and come up with an idea of how to get out of his current dilemma. A film with many twists and turns.", "poster_path": "/jtKq0EtothAzWlnRBBWGCA8uFuu.jpg", "release_date": "2006-02-24", "title": "Lucky Number Slevin", "video": false, "vote_average": 7.5, "vote_count": 2480, "popularity": 14.28}, {"adult": false, "backdrop_path": "/zfs9QuKkZL6ZCluGvjo5Pk49aMv.jpg", "genre_ids": [27, 9648, 53], "id": 16938, "original_language": "en", "original_title": "Black Christmas", "overview": "A sorority house is terrorized by a stranger who makes frightening phone calls and then murders the sorority sisters during Christmas break.", "poster_path": "/qqO98sdPgptFgCua3Z4uZDuPcmP.jpg", "release_date": "1974-10-11", "title": "Black Christmas", "video": false, "vote_average": 6.9, "vote_count": 307, "popularity": 10.097}, {"id": 521, "video": false, "vote_count": 1257, "vote_average": 8.0, "title": "Dial M for Murder", "release_date": "1954-05-29", "original_language": "en", "original_title": "Dial M for Murder", "genre_ids": [80, 18, 9648, 53], "backdrop_path": "/jVMlfESb0TJ29w8CUDDofEprMmn.jpg", "adult": false, "overview": "An ex-tennis pro carries out a plot to have his wife murdered after discovering she is having an affair, and assumes she will soon leave him for the other man anyway. When things go wrong, he improvises a new plan\u2014to frame her for murder instead.", "poster_path": "/xrpK1PyckNWmRxU4kZURfaCyboS.jpg", "popularity": 28.336}, {"id": 341013, "video": false, "vote_count": 4063, "vote_average": 6.3, "title": "Atomic Blonde", "release_date": "2017-07-26", "original_language": "en", "original_title": "Atomic Blonde", "genre_ids": [28, 9648, 53], "backdrop_path": "/g3hni0i9iAQ13jDGOFWavJFlojc.jpg", "adult": false, "overview": "An undercover MI6 agent is sent to Berlin during the Cold War to investigate the murder of a fellow agent and recover a missing list of double agents.", "poster_path": "/kV9R5h0Yct1kR8Hf8sJ1nX0Vz4x.jpg", "popularity": 28.364}, {"id": 44214, "video": false, "vote_count": 9192, "vote_average": 7.6, "title": "Black Swan", "release_date": "2010-12-03", "original_language": "en", "original_title": "Black Swan", "genre_ids": [18, 27, 53], "backdrop_path": "/t8jFs6cOl1YVSfXXZivWtEb14tF.jpg", "adult": false, "overview": "A journey through the psyche of a young ballerina whose starring role as the duplicitous swan queen turns out to be a part for which she becomes frighteningly perfect.", "poster_path": "/dQ7uxvsVTspVIsqjfgQj8usJpwX.jpg", "popularity": 24.558}, {"id": 75780, "video": false, "vote_count": 4451, "vote_average": 6.4, "title": "Jack Reacher", "release_date": "2012-12-20", "original_language": "en", "original_title": "Jack Reacher", "genre_ids": [28, 80, 18, 53], "backdrop_path": "/ezXodpP429qK0Av89pVNlaXWJkQ.jpg", "adult": false, "overview": "When a gunman takes five lives with six shots, all evidence points to the suspect in custody. On interrogation, the suspect offers up a single note: \"Get Jack Reacher!\" So begins an extraordinary chase for the truth, pitting Jack Reacher against an unexpected enemy, with a skill for violence and a secret to keep.", "poster_path": "/mt0ELw83HIRgaKaDzhsDcIi0RnW.jpg", "popularity": 15.945}, {"adult": false, "backdrop_path": "/kiWvoV78Cc3fUwkOHKzyBgVdrDD.jpg", "genre_ids": [37, 18, 12], "id": 281957, "original_language": "en", "original_title": "The Revenant", "overview": "In the 1820s, a frontiersman, Hugh Glass, sets out on a path of vengeance against those who left him for dead after a bear mauling.", "poster_path": "/oXUWEc5i3wYyFnL1Ycu8ppxxPvs.jpg", "release_date": "2015-12-25", "title": "The Revenant", "video": false, "vote_average": 7.5, "vote_count": 12127, "popularity": 24.135}, {"adult": false, "backdrop_path": "/jQR6de9dwOjvx91wC4tqpTlMqCD.jpg", "genre_ids": [53, 80, 18], "id": 109421, "original_language": "en", "original_title": "Side Effects", "overview": "A woman turns to prescription medication as a way of handling her anxiety concerning her husband's upcoming release from prison.", "poster_path": "/ttD69Yhh2BV1WVqr27NRbF8ubOW.jpg", "release_date": "2013-02-07", "title": "Side Effects", "video": false, "vote_average": 6.5, "vote_count": 2035, "popularity": 12.767}, {"adult": false, "backdrop_path": "/hm4vpIhBW75bTIDTurq2d4rLZy1.jpg", "genre_ids": [53, 18, 27], "id": 3511, "original_language": "en", "original_title": "The Broken", "overview": "The life of a successful radiologist spirals out of control when she sees the spitting image of herself driving down a London street. While attempting to uncover who the imposter could be, she stumbles into a terrifying mystery that her family and closest friends are somehow involved in, leaving her with no one to trust.", "poster_path": "/nGTUsccLUZhF9Bb5fjvL7KrogvC.jpg", "release_date": "2008-01-18", "title": "The Broken", "video": false, "vote_average": 5.5, "vote_count": 113, "popularity": 10.122}, {"id": 311, "video": false, "vote_count": 2595, "vote_average": 8.4, "title": "Once Upon a Time in America", "release_date": "1984-05-23", "original_language": "en", "original_title": "Once Upon a Time in America", "genre_ids": [80, 18], "backdrop_path": "/vnT6HzjLSDrAweHn9xWykb8Ii6T.jpg", "adult": false, "overview": "A former Prohibition-era Jewish gangster returns to the Lower East Side of Manhattan over thirty years later, where he once again must confront the ghosts and regrets of his old life.", "poster_path": "/x733R4ISI0RbKeHhVkXdTMFmTFr.jpg", "popularity": 22.233}, {"adult": false, "backdrop_path": "/9PwUQZDHGPKsgbnoBl1Ah9zXWjk.jpg", "genre_ids": [18, 10749], "id": 453, "original_language": "en", "original_title": "A Beautiful Mind", "overview": "John Nash is a brilliant but asocial mathematician fighting schizophrenia. After he accepts secret work in cryptography, his life takes a turn for the nightmarish.", "poster_path": "/4SFqHDZ1NvWdysucWbgnYlobdxC.jpg", "release_date": "2001-12-11", "title": "A Beautiful Mind", "video": false, "vote_average": 7.8, "vote_count": 6096, "popularity": 20.049}], "total_pages": 246, "total_results": 4910}, "recommendations": {"page": 1, "results": [{"id": 48987, "video": false, "vote_count": 6, "vote_average": 5.9, "title": "Kid Glove Killer", "release_date": "1942-04-17", "original_language": "en", "original_title": "Kid Glove Killer", "genre_ids": [80], "backdrop_path": "/b8kaGfs0t6kHT3r4F2OJd9DH2nW.jpg", "adult": false, "overview": "Van Heflin stars as the head of a city crime lab who tries to solve the murder of the town mayor by scientifically analyzing evidence.", "poster_path": "/6v6aw8NdFAKBw9Z4QWXzLdhzJhi.jpg", "popularity": 3.468}, {"adult": false, "backdrop_path": "/ljJ1fdxOhLT8XyHxtX1j1jG5ic3.jpg", "genre_ids": [18], "id": 65213, "original_language": "en", "original_title": "Smart Girls Don't Talk", "overview": "A society woman gets involved with a gangster only to find he has hidden plans.", "poster_path": "/7BDNXnMAJPyegBZ6QBhe14pybAx.jpg", "release_date": "1948-10-09", "title": "Smart Girls Don't Talk", "video": false, "vote_average": 5.3, "vote_count": 6, "popularity": 3.49}, {"adult": false, "backdrop_path": "/k2bCANa7JQgWNq4OtZKKTUSp3IY.jpg", "genre_ids": [80], "id": 42321, "original_language": "en", "original_title": "Circumstantial Evidence", "overview": "A man waits on death row while his son and friend try to prove that he did not kill a grocer with an ax.", "poster_path": "/uRIJbsWv2u18AXAV1vMe12bEpT0.jpg", "release_date": "1945-04-22", "title": "Circumstantial Evidence", "video": false, "vote_average": 4.9, "vote_count": 6, "popularity": 3.744}], "total_pages": 1, "total_results": 3}, "credits": {"cast": [{"cast_id": 2, "character": "Trevor Stevenson", "credit_id": "52fe45a8c3a368484e0678bb", "gender": 2, "id": 14562, "name": "Ralph Meeker", "order": 0, "profile_path": "/qJ6ELh0jYHaCB0lITnAOo7owylz.jpg"}, {"cast_id": 3, "character": "Stella Stevenson", "credit_id": "52fe45a8c3a368484e0678bf", "gender": 1, "id": 20604, "name": "Janice Rule", "order": 1, "profile_path": "/k0CFuy47ZPuoBchIOU0T2KoA80x.jpg"}, {"cast_id": 4, "character": "Capt. Henrique Monteros", "credit_id": "52fe45a8c3a368484e0678c3", "gender": 2, "id": 4112, "name": "Paul Henreid", "order": 2, "profile_path": "/mW3WfoX4JDZ6oRQqVA6hO5LSRUi.jpg"}, {"cast_id": 5, "character": "Maria", "credit_id": "52fe45a8c3a368484e0678c7", "gender": 1, "id": 14534, "name": "Rosenda Monteros", "order": 3, "profile_path": "/zQOnJ5UABbl6PsmxwzuharI7ovn.jpg"}, {"cast_id": 6, "character": "Se\u00f1ora Reidl", "credit_id": "52fe45a8c3a368484e0678cb", "gender": 1, "id": 101505, "name": "Fanny Schiller", "order": 4, "profile_path": "/zz9kGmVwX53h2rNLb3tzuOHaNWx.jpg"}, {"cast_id": 7, "character": "Gomez", "credit_id": "52fe45a8c3a368484e0678cf", "gender": 0, "id": 30307, "name": "Jos\u00e9 Torvay", "order": 5, "profile_path": "/A5s0VGXCnVQsym4QaZkwyh3psvc.jpg"}, {"cast_id": 8, "character": "Amigo Herrera", "credit_id": "52fe45a8c3a368484e0678d3", "gender": 2, "id": 101507, "name": "Yerye Beirute", "order": 6, "profile_path": "/ftR2oZb4RLX0Xxvrac9FiVvdM3P.jpg"}, {"cast_id": 9, "character": "Sergeant", "credit_id": "52fe45a8c3a368484e0678d7", "gender": 0, "id": 101508, "name": "Tony Carbajal", "order": 7, "profile_path": null}, {"cast_id": 10, "character": "Roberto (as Jaime Gonz\u00e1lez)", "credit_id": "52fe45a8c3a368484e0678db", "gender": 0, "id": 101509, "name": "Jaime Gonz\u00e1lez Qui\u00f1ones", "order": 8, "profile_path": null}, {"cast_id": 11, "character": "Chief of Police", "credit_id": "52fe45a8c3a368484e0678df", "gender": 2, "id": 31882, "name": "Carlos Riquelme", "order": 9, "profile_path": null}], "crew": [{"credit_id": "52fe45a8c3a368484e0678b7", "department": "Directing", "gender": 2, "id": 4112, "job": "Director", "name": "Paul Henreid", "profile_path": "/mW3WfoX4JDZ6oRQqVA6hO5LSRUi.jpg"}, {"credit_id": "52fe45a8c3a368484e0678e5", "department": "Sound", "gender": 0, "id": 99452, "job": "Music", "name": "Les Baxter", "profile_path": "/Al8Y7Wqykey2ne2QcbLCUC2wjcZ.jpg"}, {"credit_id": "52fe45a8c3a368484e0678eb", "department": "Writing", "gender": 0, "id": 137470, "job": "Screenplay", "name": "Robert Hill", "profile_path": null}]}}