{"adult": false, "backdrop_path": "/qsIsl5RZQFXiGEULUoiGrR2eXq4.jpg", "belongs_to_collection": null, "budget": 0, "genres": [{"id": 80, "name": "Crime"}, {"id": 18, "name": "Drama"}, {"id": 53, "name": "Thriller"}], "homepage": null, "id": 28712, "imdb_id": "tt0029118", "original_language": "en", "original_title": "The Last Gangster", "overview": "Edward G. Robinson stars as a crime boss who goes searching for his ex-wife and son after a 10 year prison stint. Robinson's old gang has other plans though, and use the child to try and make him disclose the location of the loot he hid before going to the slammer. A young James Stewart, early in his career, plays a sizable role as a newspaper reporter who marries the gangster's wife.", "popularity": 3.794, "poster_path": "/3P0p3FasymTMlYyQAgKrUhiuGpZ.jpg", "production_companies": [{"id": 21, "logo_path": "/mjofSXiHpG5t6KYmU4l4FrUhT7m.png", "name": "Metro-Goldwyn-Mayer", "origin_country": "US"}], "production_countries": [{"iso_3166_1": "US", "name": "United States of America"}], "release_date": "1937-11-12", "revenue": 0, "runtime": 81, "spoken_languages": [{"iso_639_1": "en", "name": "English"}], "status": "Released", "tagline": "The First Gangster and The Last Gangster.", "title": "The Last Gangster", "video": false, "vote_average": 6.8, "vote_count": 6, "keywords": {"keywords": [{"id": 378, "name": "prison"}, {"id": 3149, "name": "gangster"}, {"id": 3859, "name": "alcatraz"}]}, "similar": {"page": 1, "results": [{"id": 107846, "video": false, "vote_count": 3130, "vote_average": 6.7, "title": "Escape Plan", "release_date": "2013-10-09", "original_language": "en", "original_title": "Escape Plan", "genre_ids": [28, 53], "backdrop_path": "/lDmAQexExnvfKAG8fvx04ro6Ly4.jpg", "adult": false, "overview": "Ray Breslin is the world's foremost authority on structural security. After analyzing every high security prison and learning a vast array of survival skills so he can design escape-proof prisons, his skills are put to the test. He's framed and incarcerated in a master prison he designed himself. He needs to escape and find the person who put him behind bars.", "poster_path": "/j3XZwBeWgoAbVmkW3JyOme79I2e.jpg", "popularity": 18.182}, {"id": 10734, "video": false, "vote_count": 1343, "vote_average": 7.5, "title": "Escape from Alcatraz", "release_date": "1979-06-22", "original_language": "en", "original_title": "Escape from Alcatraz", "genre_ids": [80, 18], "backdrop_path": "/doJGjcWPpuGuDPJwCpCNnYUG9x4.jpg", "adult": false, "overview": "Escape from Alcatraz tells the story of the only three men ever to escape from the infamous maximum security prison at Alcatraz. In 29 years, the seemingly impenetrable federal penitentiary, which housed Al Capone and \"Birdman\" Robert Stroud, was only broken once - by three men never heard of again.", "poster_path": "/lBAxIEywz3KfzXimn9qHBArLHU8.jpg", "popularity": 43.833}, {"adult": false, "backdrop_path": "/sw7mordbZxgITU877yTpZCud90M.jpg", "genre_ids": [18, 80], "id": 769, "original_language": "en", "original_title": "GoodFellas", "overview": "The true story of Henry Hill, a half-Irish, half-Sicilian Brooklyn kid who is adopted by neighbourhood gangsters at an early age and climbs the ranks of a Mafia family under the guidance of Jimmy Conway.", "poster_path": "/pwpGfTImTGifEGgLb3s6LRPd4I6.jpg", "release_date": "1990-09-12", "title": "GoodFellas", "video": false, "vote_average": 8.4, "vote_count": 6553, "popularity": 33.23}, {"adult": false, "backdrop_path": "/5UhVmv70qTfy7YSf8r87kNXWxjK.jpg", "genre_ids": [18, 53, 9648], "id": 638, "original_language": "en", "original_title": "Lost Highway", "overview": "A tormented jazz musician finds himself lost in an enigmatic story involving murder, surveillance, gangsters, doppelgangers, and an impossible transformation inside a prison cell.", "poster_path": "/z6yhgEzGUJaBBgAxoyggRzwLnVM.jpg", "release_date": "1997-01-15", "title": "Lost Highway", "video": false, "vote_average": 7.6, "vote_count": 1277, "popularity": 16.545}, {"adult": false, "backdrop_path": "/v761yOHKO3p6Yr7LDCjud6tUL5G.jpg", "genre_ids": [28, 80, 53], "id": 10651, "original_language": "en", "original_title": "The Dead Pool", "overview": "Dirty Harry Callahan returns for his final film adventure. Together with his partner Al Quan, he must investigate the systematic murder of actors and musicians. By the time Harry learns that the murders are a part of a sick game to predict the deaths of celebrities before they happen, it may be too late...", "poster_path": "/9ZUSqox9lIxN4xaYBac2QXMFcZj.jpg", "release_date": "1988-07-12", "title": "The Dead Pool", "video": false, "vote_average": 6.4, "vote_count": 389, "popularity": 14.171}, {"id": 10447, "video": false, "vote_count": 195, "vote_average": 6.1, "title": "No Escape", "release_date": "1994-04-29", "original_language": "en", "original_title": "No Escape", "genre_ids": [28, 18, 878, 53], "backdrop_path": "/nUjmO5MP8ATkLF8Pmhlg6l7a8im.jpg", "adult": false, "overview": "In the year 2022, a ruthless prison warden has created the ultimate solution for his most troublesome and violent inmates: Absolom, a secret jungle island where prisoners are abandoned and left to die. But Marine Captain John Robbins, convicted of murdering a commanding officer, is determined to escape the island in order to reveal the truth behind his murderous actions and clear his name.", "poster_path": "/d2Q8jXe4dW4YKlemRb7oVlY6Msj.jpg", "popularity": 11.558}, {"id": 8438, "video": false, "vote_count": 272, "vote_average": 7.1, "title": "Murder in the First", "release_date": "1995-01-20", "original_language": "en", "original_title": "Murder in the First", "genre_ids": [80, 18], "backdrop_path": "/uX0PJMkCI5rN2cWbIGsfjlomBuT.jpg", "adult": false, "overview": "Inspired by a true story. A petty criminal sent to Alcatraz in the 1930s is caught attempting to make an escape. As punishment he is put in solitary confinement. The maximum stay is supposed to be 19 days, but Henri spends years alone, cold and in complete darkness, only to emerge a madman and soon to be a murderer. The story follows a rookie lawyer attempting to prove that Alcatraz was to blame.", "poster_path": "/jPbBDALAjTQFzCl21ZKmhjSjEmD.jpg", "popularity": 10.945}, {"adult": false, "backdrop_path": "/oB8oMhq8GIQdkrmUtuHnOgJwQyP.jpg", "genre_ids": [35, 80, 53], "id": 483, "original_language": "en", "original_title": "Wild at Heart", "overview": "Young lovers Sailor and Lula run from the variety of weirdos that Lula's mom has hired to kill Sailor.", "poster_path": "/d4fbQjSSBd4FPyAROln1skafChr.jpg", "release_date": "1990-08-17", "title": "Wild at Heart", "video": false, "vote_average": 7.1, "vote_count": 746, "popularity": 19.824}, {"adult": false, "backdrop_path": "/8nvayG5l0urcjvvpszoECDqLWzD.jpg", "genre_ids": [18, 53, 80, 9648], "id": 186, "original_language": "en", "original_title": "Lucky Number Slevin", "overview": "Slevin is mistakenly put in the middle of a personal war between the city\u2019s biggest criminal bosses. Under constant watch, Slevin must try not to get killed by an infamous assassin and come up with an idea of how to get out of his current dilemma. A film with many twists and turns.", "poster_path": "/jtKq0EtothAzWlnRBBWGCA8uFuu.jpg", "release_date": "2006-02-24", "title": "Lucky Number Slevin", "video": false, "vote_average": 7.5, "vote_count": 2480, "popularity": 17.523}, {"id": 1701, "video": false, "vote_count": 2366, "vote_average": 6.7, "title": "Con Air", "release_date": "1997-06-01", "original_language": "en", "original_title": "Con Air", "genre_ids": [28, 80, 53], "backdrop_path": "/aX2mwtawBe2TD1csPBYvm03sx3a.jpg", "adult": false, "overview": "When the government puts all its rotten criminal eggs in one airborne basket, it's asking for trouble. Before you can say, \"Pass the barf bag,\" the crooks control the plane, led by creepy Cyrus \"The Virus\" Grissom. Watching his every move is the just-released Cameron Poe, who'd rather reunite with his family.", "poster_path": "/yhaOQ7xXw0PLHLvg1w0M9zlPdg6.jpg", "popularity": 27.732}, {"id": 311, "video": false, "vote_count": 2593, "vote_average": 8.4, "title": "Once Upon a Time in America", "release_date": "1984-05-23", "original_language": "en", "original_title": "Once Upon a Time in America", "genre_ids": [80, 18], "backdrop_path": "/vnT6HzjLSDrAweHn9xWykb8Ii6T.jpg", "adult": false, "overview": "A former Prohibition-era Jewish gangster returns to the Lower East Side of Manhattan over thirty years later, where he once again must confront the ghosts and regrets of his old life.", "poster_path": "/x733R4ISI0RbKeHhVkXdTMFmTFr.jpg", "popularity": 23.555}, {"id": 245891, "video": false, "vote_count": 11528, "vote_average": 7.2, "title": "John Wick", "release_date": "2014-10-22", "original_language": "en", "original_title": "John Wick", "genre_ids": [28, 53], "backdrop_path": "/iJlGxN0p1suzloBGvvBu3QSSlhT.jpg", "adult": false, "overview": "Ex-hitman John Wick comes out of retirement to track down the gangsters that took everything from him.", "poster_path": "/5vHssUeVe25bMrof1HyaPyWgaP.jpg", "popularity": 71.02}, {"id": 5924, "video": false, "vote_count": 947, "vote_average": 8.0, "title": "Papillon", "release_date": "1973-12-13", "original_language": "en", "original_title": "Papillon", "genre_ids": [80, 18], "backdrop_path": "/w6XYdZIXZlMNL2efDXdXI6q4lhm.jpg", "adult": false, "overview": "A man befriends a fellow criminal as the two of them begin serving their sentence on a dreadful prison island, which inspires the man to plot his escape.", "poster_path": "/cPKfxaWXNkVkHLSV2nb06RfvrSM.jpg", "popularity": 15.437}, {"adult": false, "backdrop_path": "/nb70B4EXuoegiQ0C5N1fNVHIaYc.jpg", "genre_ids": [12, 18, 36, 53, 10752], "id": 5925, "original_language": "en", "original_title": "The Great Escape", "overview": "The Nazis, exasperated at the number of escapes from their prison camps by a relatively small number of Allied prisoners, relocates them to a high-security 'escape-proof' camp to sit out the remainder of the war. Undaunted, the prisoners plan one of the most ambitious escape attempts of World War II. Based on a true story.", "poster_path": "/qhy4HgUqhEbwQ1ekKTv7yEB3b0e.jpg", "release_date": "1963-06-20", "title": "The Great Escape", "video": false, "vote_average": 8.0, "vote_count": 1358, "popularity": 17.61}, {"id": 278, "video": false, "vote_count": 14743, "vote_average": 8.7, "title": "The Shawshank Redemption", "release_date": "1994-09-23", "original_language": "en", "original_title": "The Shawshank Redemption", "genre_ids": [80, 18], "backdrop_path": "/j9XKiZrVeViAixVRzCta7h1VU9W.jpg", "adult": false, "overview": "Framed in the 1940s for the double murder of his wife and her lover, upstanding banker Andy Dufresne begins a new life at the Shawshank prison, where he puts his accounting skills to work for an amoral warden. During his long stretch in prison, Dufresne comes to be admired by the other inmates -- including an older prisoner named Red -- for his integrity and unquenchable sense of hope.", "poster_path": "/9O7gLzmreU0nGkIB6K3BsJbzvNv.jpg", "popularity": 43.371}, {"id": 708, "video": false, "vote_count": 845, "vote_average": 6.4, "title": "The Living Daylights", "release_date": "1987-06-29", "original_language": "en", "original_title": "The Living Daylights", "genre_ids": [28, 12, 53], "backdrop_path": "/gt0TafbcheJeT9SFewDLqYWk3Sd.jpg", "adult": false, "overview": "James Bond helps a Russian General escape into the west. He soon finds out that the KGB wants to kill him for helping the General. A little while later the General is kidnapped from the Secret Service leading 007 to be suspicious.", "poster_path": "/yEryMe58dx7zm1QBhQFeuYcv2aH.jpg", "popularity": 28.787}, {"id": 12088, "video": false, "vote_count": 316, "vote_average": 5.9, "title": "Fortress", "release_date": "1992-09-30", "original_language": "en", "original_title": "Fortress", "genre_ids": [28, 878, 53], "backdrop_path": "/csGyWqK4dTAtSPpreU26TzoY9ua.jpg", "adult": false, "overview": "A futuristic prison movie. Protagonist and wife are nabbed at a future US emigration point with an illegal baby during population control. The resulting prison experience is the subject of the movie. The prison is a futuristic one run by a private corporation bent on mind control in various ways", "poster_path": "/evjpqWPUY4VpOdyLpeRfkGU8DiR.jpg", "popularity": 20.621}, {"adult": false, "backdrop_path": "/bRGtZsVj2Qq8r5CCsNYmQUPF4z4.jpg", "genre_ids": [80, 18, 878, 53], "id": 10559, "original_language": "en", "original_title": "Frequency", "overview": "When a rare phenomenon gives police officer John Sullivan the chance to speak to his father, 30 years in the past, he takes the opportunity to prevent his dad's tragic death.  After his actions inadvertently give rise to a series of brutal murders he and his father must find a way to fix the consequences of altering time.", "poster_path": "/n0QAAZmIaPPIShVkk8eiKwfGV9.jpg", "release_date": "2000-04-28", "title": "Frequency", "video": false, "vote_average": 7.1, "vote_count": 894, "popularity": 14.503}, {"adult": false, "backdrop_path": "/arcpWGGnUkGkakOwZo7xfPsaz7h.jpg", "genre_ids": [9648, 53], "id": 2832, "original_language": "en", "original_title": "Identity", "overview": "Complete strangers stranded at a remote desert motel during a raging storm soon find themselves the target of a deranged murderer. As their numbers thin out, the travelers begin to turn on each other, as each tries to figure out who the killer is.", "poster_path": "/xSNSp2wmCUwFavxdkMF417hBc39.jpg", "release_date": "2003-04-25", "title": "Identity", "video": false, "vote_average": 7.2, "vote_count": 2089, "popularity": 15.517}, {"id": 339692, "video": false, "vote_count": 1163, "vote_average": 6.9, "title": "Shot Caller", "release_date": "2017-07-13", "original_language": "en", "original_title": "Shot Caller", "genre_ids": [80, 18, 53], "backdrop_path": "/hehboYLXB3m90x9ybiBsupwuifL.jpg", "adult": false, "overview": "A newly-released prison gangster is forced by the leaders of his gang to orchestrate a major crime with a brutal rival gang on the streets of Southern California.", "poster_path": "/qLmLz2wtyYvmW8Ult3l2ngOnW8v.jpg", "popularity": 25.016}], "total_pages": 273, "total_results": 5457}, "recommendations": {"page": 1, "results": [{"adult": false, "backdrop_path": "/jiuOPKma9eCPFayh1Recu8qZaz0.jpg", "genre_ids": [10402, 35], "id": 165659, "original_language": "en", "original_title": "Beer and Pretzels", "overview": "Ted Healy and The 3 Stooges are fired and evicted from a theatre because Ted is annoying women working there. They then get jobs as waiters at a nightclub. Chaos ensues.", "poster_path": "/tjy8wmeUSRT9GAOGgL1Yp5VgfyZ.jpg", "release_date": "1933-08-26", "title": "Beer and Pretzels", "video": false, "vote_average": 5.7, "vote_count": 3, "popularity": 3.253}, {"adult": false, "backdrop_path": "/cUXzdhmlKsP6NeZiw9eXXZTHlit.jpg", "genre_ids": [35, 10749], "id": 50307, "original_language": "en", "original_title": "Soup to Nuts", "overview": "Mr. Schmidt's costume store is bankrupt because he spends his time on Rube Goldberg-style inventions; the creditors send a young manager who falls for Schmidt's niece Louise, but she'll have none of him. Schmidt's friends Ted, Queenie, and some goofy firemen try to help out; things come to a slapstick head when Louise needs rescuing from a fire.", "poster_path": "/8PQpzTrIWM15VXYtqpznFlNgYZu.jpg", "release_date": "1930-09-28", "title": "Soup to Nuts", "video": false, "vote_average": 6.2, "vote_count": 5, "popularity": 2.269}, {"adult": false, "backdrop_path": null, "genre_ids": [35], "id": 161981, "original_language": "en", "original_title": "Nertsery Rhymes", "overview": "In this early Three Stooges short (in color), the boys play the children of Ted Healy and Bonnie Bonell, who hear some \"bedtime stories\" from their parents.", "poster_path": "/1xdbWXu3izWM5JaabXqquTFhdDv.jpg", "release_date": "1933-07-05", "title": "Nertsery Rhymes", "video": false, "vote_average": 5.8, "vote_count": 5, "popularity": 1.995}], "total_pages": 1, "total_results": 3}, "credits": {"cast": [{"cast_id": 1, "character": "Joe Krozac", "credit_id": "52fe45acc3a368484e068655", "gender": 2, "id": 13566, "name": "Edward G. Robinson", "order": 0, "profile_path": "/af1aBRi4UccaxtmDPWEtlfy1vXE.jpg"}, {"cast_id": 2, "character": "Paul North Sr.", "credit_id": "52fe45acc3a368484e068659", "gender": 2, "id": 854, "name": "James Stewart", "order": 1, "profile_path": "/8Obb4uScBA1IvgkX4S90HCT9W1B.jpg"}, {"cast_id": 3, "character": "Talya Krozac", "credit_id": "52fe45acc3a368484e06865d", "gender": 0, "id": 101704, "name": "Rose Stradner", "order": 2, "profile_path": "/7oZdvJPtwj6kIbDUdN83gDRxR3p.jpg"}, {"cast_id": 4, "character": "Curly", "credit_id": "52fe45acc3a368484e068661", "gender": 2, "id": 4969, "name": "Lionel Stander", "order": 3, "profile_path": "/gDbj1eKxhXraVY36m1q4ypAdegJ.jpg"}, {"cast_id": 5, "character": "Paul North Jr. / Joe Krozac Jr.", "credit_id": "52fe45acc3a368484e068665", "gender": 2, "id": 30231, "name": "Douglas Scott", "order": 4, "profile_path": "/83PjJZ2pEoBod1HrOLoUoJqeg8g.jpg"}, {"cast_id": 6, "character": "Casper", "credit_id": "52fe45acc3a368484e068669", "gender": 2, "id": 8516, "name": "John Carradine", "order": 5, "profile_path": "/cUlQO0vGGFoF3VZjzok8U276exY.jpg"}, {"cast_id": 10, "character": "San Francisco Editor", "credit_id": "52fe45acc3a368484e06867f", "gender": 2, "id": 12022, "name": "Sidney Blackmer", "order": 6, "profile_path": "/4chnpfUW4ZcfBkXHLNvvrkYH7ZZ.jpg"}, {"cast_id": 11, "character": "Warden", "credit_id": "52fe45acc3a368484e068683", "gender": 2, "id": 30215, "name": "Grant Mitchell", "order": 7, "profile_path": "/cDZpWgH0qOF4L5nmZJzGIHE5xo3.jpg"}, {"cast_id": 12, "character": "Fats Garvey (as Edward S. Brody)", "credit_id": "52fe45acc3a368484e068687", "gender": 2, "id": 32437, "name": "Edward Brophy", "order": 8, "profile_path": "/e1XFRVHEUF09t42vARu1KOuHDyF.jpg"}, {"cast_id": 13, "character": "Frankie 'Acey' Kile", "credit_id": "52fe45acc3a368484e06868b", "gender": 2, "id": 12156, "name": "Alan Baxter", "order": 9, "profile_path": "/jAOOlDsyI3eZTu19oeW2at36JM9.jpg"}, {"cast_id": 14, "character": "Sid Gorman", "credit_id": "52fe45acc3a368484e06868f", "gender": 2, "id": 14658, "name": "Frank Conroy", "order": 10, "profile_path": "/qaRzzjKlMHBOUB5QGp6Tib0Y7Ad.jpg"}, {"cast_id": 15, "character": "Gloria, Talya's Maid", "credit_id": "52fe45acc3a368484e068693", "gender": 1, "id": 89101, "name": "Louise Beavers", "order": 11, "profile_path": "/m0b2RGOMTa8yUhremaQMlpc72uc.jpg"}], "crew": [{"credit_id": "52fe45acc3a368484e06867b", "department": "Camera", "gender": 2, "id": 3637, "job": "Director of Photography", "name": "William H. Daniels", "profile_path": null}, {"credit_id": "56a908539251417dd400041b", "department": "Art", "gender": 2, "id": 9062, "job": "Art Direction", "name": "Cedric Gibbons", "profile_path": "/w8tc9iVH87Iu1KKFDZ9B99NhnBc.jpg"}, {"credit_id": "548de05bc3a36820c5004dcb", "department": "Costume & Make-Up", "gender": 2, "id": 9064, "job": "Costume Design", "name": "Adrian", "profile_path": "/fnsEX7RnTRGuh32x8WmHrtz25D5.jpg"}, {"credit_id": "52fe45acc3a368484e06869f", "department": "Writing", "gender": 2, "id": 14643, "job": "Story", "name": "William A. Wellman", "profile_path": "/rHkFOPzdJGimnC4yRqophK9tvEO.jpg"}, {"credit_id": "56a908b9c3a36872e90004fd", "department": "Editing", "gender": 2, "id": 22599, "job": "Editor", "name": "Ben Lewis", "profile_path": null}, {"credit_id": "52fe45acc3a368484e068699", "department": "Writing", "gender": 2, "id": 29618, "job": "Screenplay", "name": "John Lee Mahin", "profile_path": null}, {"credit_id": "52fe45acc3a368484e0686a5", "department": "Writing", "gender": 2, "id": 30522, "job": "Story", "name": "Robert Carson", "profile_path": null}, {"credit_id": "52fe45acc3a368484e06866f", "department": "Directing", "gender": 2, "id": 101709, "job": "Director", "name": "Edward Ludwig", "profile_path": "/n4Ujze9PZTJsfW7RpvZrc4ucImz.jpg"}, {"credit_id": "56a90839c3a36872e90004e0", "department": "Sound", "gender": 2, "id": 101711, "job": "Original Music Composer", "name": "Edward Ward", "profile_path": null}]}}