{"adult": false, "backdrop_path": "/iwrVaUtDiZA12pIpWt3ySxscm8a.jpg", "belongs_to_collection": null, "budget": 0, "genres": [{"id": 12, "name": "Adventure"}, {"id": 53, "name": "Thriller"}, {"id": 28, "name": "Action"}], "homepage": null, "id": 28778, "imdb_id": "tt0058011", "original_language": "en", "original_title": "The Devil-Ship Pirates", "overview": "A pirate ship, fighting in 1588 on the side of the Spanish Armada, suffers damage and must put into a village on the British coast for repairs. The village is small and isolated and the Spanish convince the villagers that the English fleet has been defeated and that they, the Spanish, are now their masters. This results in the villagers' sullen cooperation, but rumors and unrest begin to spread and soon the Spanish pirates find themselves facing a revolt.", "popularity": 6.203, "poster_path": "/dnxoGkrxfKARTUfw6HktzKeFdWR.jpg", "production_companies": [{"id": 1314, "logo_path": "/gQBluDqe6dc2ZdzfJbabEHoSGoG.png", "name": "Hammer Film Productions", "origin_country": "GB"}], "production_countries": [{"iso_3166_1": "GB", "name": "United Kingdom"}], "release_date": "1964-05-15", "revenue": 0, "runtime": 86, "spoken_languages": [{"iso_639_1": "en", "name": "English"}], "status": "Released", "tagline": "A Hot-Blooded Crew of Cut-Throats!", "title": "The Devil-Ship Pirates", "video": false, "vote_average": 5.6, "vote_count": 7, "keywords": {"keywords": [{"id": 3799, "name": "ship"}, {"id": 9725, "name": "sword fight"}, {"id": 12988, "name": "pirate"}, {"id": 157186, "name": "swashbuckler"}, {"id": 160856, "name": "armada"}, {"id": 185200, "name": "pirate ship"}, {"id": 208244, "name": "16th century"}]}, "similar": {"page": 1, "results": [{"adult": false, "backdrop_path": "/l7zANdjgTvYqwZUx76Vk0EKpCH5.jpg", "genre_ids": [12, 28, 14], "id": 1865, "original_language": "en", "original_title": "Pirates of the Caribbean: On Stranger Tides", "overview": "Captain Jack Sparrow crosses paths with a woman from his past, and he's not sure if it's love -- or if she's a ruthless con artist who's using him to find the fabled Fountain of Youth. When she forces him aboard the Queen Anne's Revenge, the ship of the formidable pirate Blackbeard, Jack finds himself on an unexpected adventure in which he doesn't know who to fear more: Blackbeard or the woman from his past.", "poster_path": "/wNUDAq5OUMOtxMlz64YaCp7gZma.jpg", "release_date": "2011-05-14", "title": "Pirates of the Caribbean: On Stranger Tides", "video": false, "vote_average": 6.4, "vote_count": 9294, "popularity": 27.764}, {"id": 166426, "video": false, "vote_count": 7551, "vote_average": 6.6, "title": "Pirates of the Caribbean: Dead Men Tell No Tales", "release_date": "2017-05-23", "original_language": "en", "original_title": "Pirates of the Caribbean: Dead Men Tell No Tales", "genre_ids": [28, 12, 35, 14], "backdrop_path": "/7C921eWK06n12c1miRXnYoEu5Yv.jpg", "adult": false, "overview": "Thrust into an all-new adventure, a down-on-his-luck Capt. Jack Sparrow feels the winds of ill-fortune blowing even more strongly when deadly ghost sailors led by his old nemesis, the evil Capt. Salazar, escape from the Devil's Triangle. Jack's only hope of survival lies in seeking out the legendary Trident of Poseidon, but to find it, he must forge an uneasy alliance with a brilliant and beautiful astronomer and a headstrong young man in the British navy.", "poster_path": "/xbpSDU3p7YUGlu9Mr6Egg2Vweto.jpg", "popularity": 35.104}, {"id": 26201, "video": false, "vote_count": 54, "vote_average": 7.4, "title": "The Sea Hawk", "release_date": "1940-07-01", "original_language": "en", "original_title": "The Sea Hawk", "genre_ids": [28, 12, 36, 10749], "backdrop_path": "/ohE8sllS0q8qZDHyHu7pHLItyJM.jpg", "adult": false, "overview": "Dashing pirate Geoffrey Thorpe plunders Spanish ships for Queen Elizabeth I and falls in love with Dona Maria, a beautiful Spanish royal he captures.", "poster_path": "/R6wDetIU25scL0WTNmfWjSRF3.jpg", "popularity": 7.701}, {"adult": false, "backdrop_path": "/yD3gXOtGmXnbJBPLgqluZU2QF5c.jpg", "genre_ids": [12, 14, 28], "id": 58, "original_language": "en", "original_title": "Pirates of the Caribbean: Dead Man's Chest", "overview": "Captain Jack Sparrow works his way out of a blood debt with the ghostly Davey Jones, he also attempts to avoid eternal damnation.", "poster_path": "/9pSUIBqkr89PdlJ6fNrXwNNbgp.jpg", "release_date": "2006-06-20", "title": "Pirates of the Caribbean: Dead Man's Chest", "video": false, "vote_average": 7.2, "vote_count": 10261, "popularity": 33.154}, {"id": 22, "video": false, "vote_count": 13521, "vote_average": 7.7, "title": "Pirates of the Caribbean: The Curse of the Black Pearl", "release_date": "2003-07-09", "original_language": "en", "original_title": "Pirates of the Caribbean: The Curse of the Black Pearl", "genre_ids": [28, 12, 14], "backdrop_path": "/8AUQ7YlJJA9C8kWk8P4YNHIcFDE.jpg", "adult": false, "overview": "Jack Sparrow, a freewheeling 18th-century pirate, quarrels with a rival pirate bent on pillaging Port Royal. When the governor's daughter is kidnapped, Sparrow decides to help the girl's love save her.", "poster_path": "/tkt9xR1kNX5R9rCebASKck44si2.jpg", "popularity": 40.826}, {"id": 16905, "video": false, "vote_count": 105, "vote_average": 7.3, "title": "Captain Blood", "release_date": "1935-12-28", "original_language": "en", "original_title": "Captain Blood", "genre_ids": [12, 10749], "backdrop_path": "/tr2RZyZxb2PnjN9mH8mitj6g3Zv.jpg", "adult": false, "overview": "Dr. Peter Blood, unjustly convicted of treason and exiled from England, becomes a notorious pirate.", "poster_path": "/iuYA1w7iIk1XKiwbCIFFKVQlLOt.jpg", "popularity": 9.962}, {"id": 205775, "video": false, "vote_count": 2361, "vote_average": 6.6, "title": "In the Heart of the Sea", "release_date": "2015-11-20", "original_language": "en", "original_title": "In the Heart of the Sea", "genre_ids": [28, 12, 18, 36, 53], "backdrop_path": "/aZoZ0NglXgiBMToem9HhTAYYamw.jpg", "adult": false, "overview": "In the winter of 1820, the New England whaling ship Essex is assaulted by something no one could believe\u2014a whale of mammoth size and will, and an almost human sense of vengeance.", "poster_path": "/zVmWh0Zfg4UhbvdGI8LQrn1lQZJ.jpg", "popularity": 19.825}, {"id": 71805, "video": false, "vote_count": 24, "vote_average": 6.7, "title": "Shipwrecked", "release_date": "1990-10-03", "original_language": "no", "original_title": "H\u00e5kon H\u00e5konsen", "genre_ids": [12, 10751], "backdrop_path": "/rp5dh6D0MLOIIVHkugv6Z8gBLwg.jpg", "adult": false, "overview": "A young Norwegian boy in 1850s England goes to work as a cabin boy and discovers some of his shipmates are actually pirates.", "poster_path": "/jf2PkR0Yt0ZRMKqtJzwja7JV2Hk.jpg", "popularity": 45.277}, {"id": 285, "video": false, "vote_count": 9135, "vote_average": 7.1, "title": "Pirates of the Caribbean: At World's End", "release_date": "2007-05-19", "original_language": "en", "original_title": "Pirates of the Caribbean: At World's End", "genre_ids": [28, 12, 14], "backdrop_path": "/EDloimImeTz1rFM7YIJ5Dw1mzU.jpg", "adult": false, "overview": "Captain Barbossa, long believed to be dead, has come back to life and is headed to the edge of the Earth with Will Turner and Elizabeth Swann. But nothing is quite as it seems.", "poster_path": "/bXb00CkHqx7TPchTGG131sWV59y.jpg", "popularity": 30.261}, {"id": 11362, "video": false, "vote_count": 888, "vote_average": 7.5, "title": "The Count of Monte Cristo", "release_date": "2002-01-23", "original_language": "en", "original_title": "The Count of Monte Cristo", "genre_ids": [28, 12, 18, 53], "backdrop_path": "/pgreancDSQbXbOIeMWuJclnm03C.jpg", "adult": false, "overview": "Edmond Dant\u00e9s's life and plans to marry the beautiful Mercedes are shattered when his best friend, Fernand, deceives him. After spending 13 miserable years in prison, Dant\u00e9s escapes with the help of a fellow inmate and plots his revenge, cleverly insinuating himself into the French nobility.", "poster_path": "/1JbBZex0EUcTj9FCD8oYEFbVH3j.jpg", "popularity": 17.682}, {"id": 72197, "video": false, "vote_count": 630, "vote_average": 6.4, "title": "The Pirates! In an Adventure with Scientists!", "release_date": "2012-03-12", "original_language": "en", "original_title": "The Pirates! In an Adventure with Scientists!", "genre_ids": [12, 16, 35, 10751], "backdrop_path": "/yJT2JCdjtuH5K202bC4YL0wOYD2.jpg", "adult": false, "overview": "The luxuriantly bearded Pirate Captain is a boundlessly enthusiastic, if somewhat less-than-successful, terror of the High Seas. With a rag-tag crew at his side, and seemingly blind to the impossible odds stacked against him, the Captain has one dream: to beat his bitter rivals Black Bellamy and Cutlass Liz to the much coveted Pirate of the Year Award. It\u2019s a quest that takes our heroes from the shores of exotic Blood Island to the foggy streets of Victorian London. Along the way they battle a diabolical queen and team up with a haplessly smitten young scientist, but never lose sight of what a pirate loves best: adventure!", "poster_path": "/w5NquAU73QRayUB4ZfF6F6eyY2e.jpg", "popularity": 11.799}, {"id": 21519, "video": false, "vote_count": 172, "vote_average": 7.2, "title": "Project A", "release_date": "1983-12-22", "original_language": "cn", "original_title": "A\u8a08\u5283", "genre_ids": [28, 12, 35], "backdrop_path": "/tuAMryZ4tZZ4LOMvXSANCcLEoWM.jpg", "adult": false, "overview": "In late 19th Century Hong Kong the British may rule the land, but the pirates rule the waters. One Coast Guard officer is Dragon Ma, who is determined that his beloved Coast Guard will not be made a fool of.", "poster_path": "/aiEtQitm0pbRC93ABsrHhw9HhMR.jpg", "popularity": 18.917}, {"id": 109424, "video": false, "vote_count": 4231, "vote_average": 7.6, "title": "Captain Phillips", "release_date": "2013-10-10", "original_language": "en", "original_title": "Captain Phillips", "genre_ids": [28, 18, 53], "backdrop_path": "/vsniZLsR7qt175WOvaqnr5r4AKc.jpg", "adult": false, "overview": "The true story of Captain Richard Phillips and the 2009 hijacking by Somali pirates of the US-flagged MV Maersk Alabama, the first American cargo ship to be hijacked in two hundred years.", "poster_path": "/AnMTMPTUzeWNbYxzp29WqYf1br1.jpg", "popularity": 15.609}, {"adult": false, "backdrop_path": "/zyWbOvKCdA9V9P5xuUG2eiPYsUo.jpg", "genre_ids": [12, 14, 10751], "id": 10601, "original_language": "en", "original_title": "Peter Pan", "overview": "In stifling Edwardian London, Wendy Darling mesmerizes her brothers every night with bedtime tales of swordplay, swashbuckling and the fearsome Captain Hook. But the children become the heroes of an even greater story, when Peter Pan flies into their nursery one night and leads them over moonlit rooftops through a galaxy of stars and to the lush jungles of Neverland.", "poster_path": "/kN9nWy36vyCJyMTRjQPgolxEr8l.jpg", "release_date": "2003-12-25", "title": "Peter Pan", "video": false, "vote_average": 7.1, "vote_count": 1571, "popularity": 16.027}, {"adult": false, "backdrop_path": "/fewP7EsMEnfqqcx4qYHKSKebwkF.jpg", "genre_ids": [28, 18, 36], "id": 2669, "original_language": "en", "original_title": "The Bounty", "overview": "The familiar story of Lieutenant Bligh, whose cruelty leads to a mutiny on his ship. This version follows both the efforts of Fletcher Christian to get his men beyond the reach of British retribution, and the epic voyage of Lieutenant Bligh to get his loyalists safely to East Timor in a tiny lifeboat.", "poster_path": "/hXFXIc6F4NXI5emWCKcUwqEPjIZ.jpg", "release_date": "1984-05-04", "title": "The Bounty", "video": false, "vote_average": 6.7, "vote_count": 246, "popularity": 11.928}, {"id": 4518, "video": false, "vote_count": 785, "vote_average": 7.2, "title": "Elizabeth", "release_date": "1998-09-13", "original_language": "en", "original_title": "Elizabeth", "genre_ids": [18, 36], "backdrop_path": "/cCzvJ95pEB1I5cUX7Zjfl606noN.jpg", "adult": false, "overview": "The story of the ascension to the throne and the early reign of Queen Elizabeth the First, the endless attempts by her council to marry her off, the Catholic hatred of her and her romance with Lord Robert Dudley.", "poster_path": "/y4ynYOy205LorkOIN6hs6DgJ1xa.jpg", "popularity": 11.875}, {"id": 791, "video": false, "vote_count": 376, "vote_average": 4.1, "title": "The Fog", "release_date": "2005-10-14", "original_language": "en", "original_title": "The Fog", "genre_ids": [27, 53], "backdrop_path": "/r9UetZlMpkr0DvEHNdk7hVclEA0.jpg", "adult": false, "overview": "Trapped within an eerie mist, the residents of Antonio Bay have become the unwitting victims of a horrifying vengeance. One hundred years earlier, a ship carrying lepers was purposely lured onto the rocky coastline and sank, drowning all aboard. Now they're back \u2013 long-dead mariners who've waited a century for their revenge.", "poster_path": "/qZ3Prt6jBvCWI08MsS9cPMM5lMi.jpg", "popularity": 10.133}, {"id": 457136, "video": false, "vote_count": 887, "vote_average": 6.6, "title": "Mary Queen of Scots", "release_date": "2018-12-07", "original_language": "en", "original_title": "Mary Queen of Scots", "genre_ids": [18, 36], "backdrop_path": "/iv5N169nQIzrS0pZ8MBEiemTtVt.jpg", "adult": false, "overview": "In 1561, Mary Stuart, widow of the King of France, returns to Scotland, reclaims her rightful throne and menaces the future of Queen Elizabeth I as ruler of England, because she has a legitimate claim to the English throne. Betrayals, rebellions, conspiracies and their own life choices imperil both Queens. They experience the bitter cost of power, until their tragic fate is finally fulfilled.", "poster_path": "/b5RMzLAyq5QW6GtN9sIeAEMLlBI.jpg", "popularity": 19.588}, {"id": 10501, "video": false, "vote_count": 2160, "vote_average": 7.1, "title": "The Road to El Dorado", "release_date": "2000-03-31", "original_language": "en", "original_title": "The Road to El Dorado", "genre_ids": [12, 16, 35, 10751], "backdrop_path": "/vHWoapGhI3thn3TyBu4qtH8W15f.jpg", "adult": false, "overview": "After a failed swindle, two con-men end up with a map to El Dorado, the fabled \"city of gold,\" and an unintended trip to the New World.  Much to their surprise, the map does lead the pair to the mythical city, where the startled inhabitants promptly begin to worship them as gods.  The only question is, do they take the worshipful natives for all they're worth, or is there a bit more to El Dorado than riches?", "poster_path": "/lQnNNjT4yW3i2rmQhGibiPBnc6e.jpg", "popularity": 24.115}, {"adult": false, "backdrop_path": "/sX3cVBlvzsfpARLk6t1EZgVQD5m.jpg", "genre_ids": [18, 36, 10749], "id": 4517, "original_language": "en", "original_title": "Elizabeth: The Golden Age", "overview": "When Queen Elizabeth's reign is threatened by ruthless familial betrayal and Spain's invading army, she and her shrewd adviser must act to safeguard to the lives of her people.", "poster_path": "/8ruvP0vObJUPPraCPjJ2b6iFiUN.jpg", "release_date": "2007-09-09", "title": "Elizabeth: The Golden Age", "video": false, "vote_average": 6.7, "vote_count": 709, "popularity": 13.278}], "total_pages": 6, "total_results": 118}, "recommendations": {"page": 1, "results": [{"adult": false, "backdrop_path": "/s4K6fcgJP73ETfZGNPrGpiVL41I.jpg", "genre_ids": [80, 9648], "id": 28750, "original_language": "en", "original_title": "The Terror of the Tongs", "overview": "In 1910, Hong Kong, under the rule of the British Empire, is a prosperous and bustling city, but, hidden in the shadows of its many narrow streets, the hideous members of the Red Dragon gang, a branch of the evil Chinese secret society of the Tongs, lurk and murder those who oppose to their tyranny, which thrives on vice, crime and the fear of the weakest.", "poster_path": "/em2iWvALhRnCo5b9ZxancCrjp77.jpg", "release_date": "1961-03-15", "title": "The Terror of the Tongs", "video": false, "vote_average": 4.5, "vote_count": 11, "popularity": 6.955}, {"adult": false, "backdrop_path": "/uVwc1gKoTGcbamsuJ5593Hwfsei.jpg", "genre_ids": [80, 35], "id": 92798, "original_language": "en", "original_title": "Duffy", "overview": "Half-brothers Stefane and Antony despise their biological father, callous millionaire Charles Calvert. Because Charles refuses to share his wealth with his sons, Stefane and Antony ask hip American thrill-seeker Duffy to help steal the money they believe is their birthright. When Charles decides to move a large portion of his savings from Morocco to France, Duffy has an opportunity to stage a daring burglary attempt at sea.", "poster_path": "/cOFD8jpYZjO0B75kucqJJiC20ze.jpg", "release_date": "1968-09-16", "title": "Duffy", "video": false, "vote_average": 7.4, "vote_count": 5, "popularity": 4.948}, {"adult": false, "backdrop_path": "/ahZQXl2A1tJZiQa1S6JXVjrlQK.jpg", "genre_ids": [28, 18, 36], "id": 40643, "original_language": "en", "original_title": "X-15", "overview": "X-15 is a 1961 movie that tells a fictionalized account of the X-15 research rocket plane, the men who flew it and the women who loved them.", "poster_path": "/x62r1erq0aBhD87EHm5Ka3duUJs.jpg", "release_date": "1961-12-22", "title": "X-15", "video": false, "vote_average": 5.8, "vote_count": 4, "popularity": 3.775}, {"id": 30442, "video": false, "vote_count": 8, "vote_average": 5.0, "title": "Angel and the Badman", "release_date": "2009-07-05", "original_language": "en", "original_title": "Angel and the Badman", "genre_ids": [28, 37, 10770], "backdrop_path": "/8YasmYTvV5vB1S2RTXy6NLhlJqg.jpg", "adult": false, "overview": "A remake of the classic 1947 John Wayne western about an injured gunslinger who falls in with good company in the form of some Quakers.", "poster_path": "/l15eJXLudVw03ncgVBSLBR8fXJD.jpg", "popularity": 3.472}, {"adult": false, "backdrop_path": "/sJBLbYkxfV9OZjyjd5uFtIH6XS9.jpg", "genre_ids": [28, 12], "id": 28737, "original_language": "en", "original_title": "Iron Eagle IV", "overview": "While Chappy Sinclair is saddled with a bunch of misfits and delinquents for his flight school, he turns to his prot\u00e9g\u00e9 Doug Masters to assist him in rounding them into shape for an important competition. During their training, they stumble upon a group of subversive air force officers who are dealing in toxic waste as a sideline.", "poster_path": "/6z5GC92OoaXT1EOdVb1rwSGtusC.jpg", "release_date": "1995-01-01", "title": "Iron Eagle IV", "video": false, "vote_average": 3.1, "vote_count": 13, "popularity": 4.866}, {"adult": false, "backdrop_path": "/uihStxanPYYEfutEUIIAvL3ppUw.jpg", "genre_ids": [18, 80], "id": 27399, "original_language": "en", "original_title": "Forbidden", "overview": "Forbidden bears traces of several earlier film noirs, with Tony Curtis filling the shoes vacated by the likes of Alan Ladd, Dick Powell and Robert Mitchum. Curtis acquits himself very nicely as a small-time hood sent to Macao by gangster Lyle Bettger to locate Joanne Dru, the widow of another gangster.", "poster_path": "/rNAqcCtBQO2UmvWx9DkRQGTwM8J.jpg", "release_date": "1953-12-02", "title": "Forbidden", "video": false, "vote_average": 6.3, "vote_count": 4, "popularity": 4.606}, {"id": 28263, "video": false, "vote_count": 5, "vote_average": 6.4, "title": "Fifty/Fifty", "release_date": "1993-02-26", "original_language": "en", "original_title": "Fifty/Fifty", "genre_ids": [28, 35], "backdrop_path": "/rpY6PSSBPcT40CI2wOjIG7EUkOG.jpg", "adult": false, "overview": "Two bickering mercenaries are hired by the CIA to overthrow a South East Asian dictator.", "poster_path": "/1rc9YDJ3bW6b6DJzNFSTqRe0ine.jpg", "popularity": 4.014}, {"adult": false, "backdrop_path": "/hE95nNCfxGPAomrLS1h67GHyXGA.jpg", "genre_ids": [37], "id": 94533, "original_language": "en", "original_title": "The Badlanders", "overview": "Two men are released from the Arizona Territorial Prison at Yuma in 1898. One, the Dutchman, is out to get both gold and revenge from the people of a small mining town who had him imprisoned unjustly. The other, McBain, is just trying to go straight, but that is easier said than done once the Dutchman involves him in his gold theft scheme.", "poster_path": "/cIXV43gscAvk2ytiCG3nmFnv4B7.jpg", "release_date": "1958-09-03", "title": "The Badlanders", "video": false, "vote_average": 6.4, "vote_count": 13, "popularity": 5.145}, {"adult": false, "backdrop_path": "/p3N3x2TWn2s5ZehmnNXjQoMNsKN.jpg", "genre_ids": [878], "id": 17135, "original_language": "en", "original_title": "Omega Doom", "overview": "After earth is taken over by an army of robots, the small number of humans left are forced into hiding. In the nuclear winter, only droids walk the face of the earth, in fear of the rumored human resurgence, and in search of a hidden cache of weapons. One robot, his evil circuits destroyed, enters a small town where a robot civil war is taking place.", "poster_path": "/qv1pcO0reE85Doet0erBsOQEWPC.jpg", "release_date": "1996-01-01", "title": "Omega Doom", "video": false, "vote_average": 5.0, "vote_count": 30, "popularity": 5.317}, {"adult": false, "backdrop_path": "/br8aI8aJfptXpB6oTKl6DTzKIeS.jpg", "genre_ids": [28, 80, 27, 878], "id": 30972, "original_language": "en", "original_title": "The Brides of Fu Manchu", "overview": "This time Fu Manchu and his army of henchmen are kidnaping the daughters of prominent scientists and taking them to his remote island headquarters. Instead of asking for ransom, Fu demands that the fathers help him to build a death ray, which he intends to use to take over the world. But Fu's archenemy, Nayland Smith of Scotland Yard, is determined not to let that happen.", "poster_path": "/xILxZqWpRwK1lzp5AwvjZ2Jyvhi.jpg", "release_date": "1966-12-16", "title": "The Brides of Fu Manchu", "video": false, "vote_average": 6.0, "vote_count": 11, "popularity": 3.452}, {"id": 32050, "video": false, "vote_count": 27, "vote_average": 6.2, "title": "The Black Windmill", "release_date": "1974-05-17", "original_language": "en", "original_title": "The Black Windmill", "genre_ids": [28, 80, 53], "backdrop_path": "/A7OTV99NPNYklZG6YDLWn3YZ5Y9.jpg", "adult": false, "overview": "A British agent's son is kidnapped and held for a ransom of diamonds. The agent finds out that he can't even count on the people he thought were on his side to help him, so he decides to track down the kidnappers himself.", "poster_path": "/A0B6MdCbxPbotliIJwotFb8dINH.jpg", "popularity": 5.252}], "total_pages": 1, "total_results": 11}, "credits": {"cast": [{"cast_id": 12, "character": "Captain Robeles", "credit_id": "52fe45b1c3a368484e069a4b", "gender": 2, "id": 113, "name": "Christopher Lee", "order": 0, "profile_path": "/yzE2U4sS46sVRyCUKpgs3lYZaMy.jpg"}, {"cast_id": 22, "character": "Tom", "credit_id": "52fe45b1c3a368484e069a73", "gender": 2, "id": 53815, "name": "Andrew Keir", "order": 1, "profile_path": "/gqxY1NokQGEQtT2O5Rwud44FqO2.jpg"}, {"cast_id": 14, "character": "Harry", "credit_id": "52fe45b1c3a368484e069a53", "gender": 0, "id": 96759, "name": "John Cairney", "order": 2, "profile_path": "/fonQV1ObzBtFiAIwVgyUVJx9hkA.jpg"}, {"cast_id": 17, "character": "The Bosun", "credit_id": "52fe45b1c3a368484e069a5f", "gender": 2, "id": 29659, "name": "Duncan Lamont", "order": 3, "profile_path": "/xIGr7HDfHlZoIB4K0amQO3uimoK.jpg"}, {"cast_id": 15, "character": "Angela Smeeton", "credit_id": "52fe45b1c3a368484e069a57", "gender": 1, "id": 81246, "name": "Suzan Farmer", "order": 4, "profile_path": "/qq0jLhJWYWkbBVhRbI61nrE4tWt.jpg"}, {"cast_id": 23, "character": "Don Jose Margella", "credit_id": "52fe45b1c3a368484e069a77", "gender": 2, "id": 88894, "name": "Joseph O'Conor", "order": 5, "profile_path": "/xdfiiYtYABddyJnZiSllIB8o3yB.jpg"}, {"cast_id": 13, "character": "Don Manuel Rodriguez de Savilla", "credit_id": "52fe45b1c3a368484e069a4f", "gender": 2, "id": 30421, "name": "Barry Warren", "order": 6, "profile_path": null}, {"cast_id": 16, "character": "Pepe", "credit_id": "52fe45b1c3a368484e069a5b", "gender": 2, "id": 24340, "name": "Michael Ripper", "order": 7, "profile_path": "/oEFxIrp1uYlkYsbwtnKZu9SJK22.jpg"}, {"cast_id": 19, "character": "Jane", "credit_id": "52fe45b1c3a368484e069a67", "gender": 1, "id": 93966, "name": "Natasha Pyne", "order": 8, "profile_path": null}, {"cast_id": 20, "character": "Miller", "credit_id": "52fe45b1c3a368484e069a6b", "gender": 2, "id": 81247, "name": "Philip Latham", "order": 9, "profile_path": null}, {"cast_id": 21, "character": "Bragg", "credit_id": "52fe45b1c3a368484e069a6f", "gender": 2, "id": 101963, "name": "Harry Locke", "order": 10, "profile_path": "/hA4wSvsN41lS31bQJtTaTgZpn51.jpg"}, {"cast_id": 24, "character": "Sir Basil Smeeton", "credit_id": "57fba35cc3a3687563000566", "gender": 0, "id": 139765, "name": "Ernest Clark ", "order": 11, "profile_path": "/tx1AUMxuhZIUdzyzQ81Cf6ALz4m.jpg"}], "crew": [{"credit_id": "52fe45b1c3a368484e069a0b", "department": "Directing", "gender": 2, "id": 101528, "job": "Director", "name": "Don Sharp", "profile_path": null}, {"credit_id": "52fe45b1c3a368484e069a17", "department": "Production", "gender": 2, "id": 29665, "job": "Producer", "name": "Anthony Nelson Keys", "profile_path": null}, {"credit_id": "52fe45b1c3a368484e069a1d", "department": "Sound", "gender": 0, "id": 101962, "job": "Original Music Composer", "name": "Gary Hughes", "profile_path": null}, {"credit_id": "52fe45b1c3a368484e069a23", "department": "Camera", "gender": 2, "id": 10178, "job": "Director of Photography", "name": "Michael Reed", "profile_path": null}, {"credit_id": "52fe45b1c3a368484e069a29", "department": "Editing", "gender": 2, "id": 30172, "job": "Editor", "name": "James Needs", "profile_path": null}, {"credit_id": "52fe45b1c3a368484e069a2f", "department": "Art", "gender": 2, "id": 30139, "job": "Production Design", "name": "Bernard Robinson", "profile_path": null}, {"credit_id": "52fe45b1c3a368484e069a35", "department": "Art", "gender": 0, "id": 29669, "job": "Art Direction", "name": "Don Mingaye", "profile_path": null}, {"credit_id": "52fe45b1c3a368484e069a3b", "department": "Costume & Make-Up", "gender": 0, "id": 29671, "job": "Makeup Artist", "name": "Roy Ashton", "profile_path": null}, {"credit_id": "52fe45b1c3a368484e069a41", "department": "Crew", "gender": 0, "id": 18758, "job": "Special Effects", "name": "Les Bowie", "profile_path": null}, {"credit_id": "52fe45b1c3a368484e069a47", "department": "Costume & Make-Up", "gender": 0, "id": 101523, "job": "Costume Supervisor", "name": "Rosemary Burrows", "profile_path": null}, {"credit_id": "59665741c3a368293b1369cc", "department": "Production", "gender": 2, "id": 1207591, "job": "Production Manager", "name": "Don Weeks", "profile_path": null}, {"credit_id": "596657559251410c561209f8", "department": "Costume & Make-Up", "gender": 0, "id": 30671, "job": "Hairstylist", "name": "Frieda Steiger", "profile_path": null}, {"credit_id": "59665762c3a36828fc111088", "department": "Writing", "gender": 2, "id": 30700, "job": "Screenplay", "name": "Jimmy Sangster", "profile_path": null}, {"credit_id": "5d503136079a972f44ad2487", "department": "Camera", "gender": 2, "id": 2381056, "job": "Camera Operator", "name": "Alan Hall", "profile_path": null}]}}