{"adult": false, "backdrop_path": "/uXEzTGrAmGqkWmHHVY6Hl7cJIes.jpg", "belongs_to_collection": null, "budget": 0, "genres": [{"id": 18, "name": "Drama"}, {"id": 53, "name": "Thriller"}], "homepage": null, "id": 288778, "imdb_id": "tt2094034", "original_language": "en", "original_title": "Runoff", "overview": "The beauty of the land cannot mask the brutality of a farm town. As harvest draws near, Betty confronts a terrifying new reality and will go to desperate lengths to save her family when they are threatened with being forced from their land.", "popularity": 2.683, "poster_path": "/hB1CV0ubdgH1Vw9XJ5UtyKtDJ1s.jpg", "production_companies": [{"id": 65582, "logo_path": null, "name": "White Whale Pictures", "origin_country": ""}, {"id": 65583, "logo_path": null, "name": "Cantuckee Pictures", "origin_country": ""}], "production_countries": [{"iso_3166_1": "US", "name": "United States of America"}], "release_date": "2015-06-26", "revenue": 0, "runtime": 90, "spoken_languages": [{"iso_639_1": "en", "name": "English"}], "status": "Released", "tagline": "", "title": "Runoff", "video": false, "vote_average": 5.9, "vote_count": 6, "keywords": {"keywords": [{"id": 1328, "name": "secret"}, {"id": 4932, "name": "farm"}, {"id": 8086, "name": "crop duster"}, {"id": 10481, "name": "tension"}, {"id": 11322, "name": "female protagonist"}, {"id": 185740, "name": "ethical dilemma"}, {"id": 187056, "name": "woman director"}]}, "similar": {"page": 1, "results": [{"adult": false, "backdrop_path": "/rf6G51j0SZL0tP57I8gnqHTRFEr.jpg", "genre_ids": [35, 18, 10749], "id": 273153, "original_language": "fr", "original_title": "La belle saison", "overview": "In 1971, Carole and Delphine meet and fall in love in Paris. When Carole follows Delphine back to her family farm in Limousin, the two find lesbianism and feminism are not as easy in the countryside.", "poster_path": "/evvAkNMO5VJiy5qIo1Hu7fUfvVI.jpg", "release_date": "2015-08-19", "title": "Summertime", "video": false, "vote_average": 6.6, "vote_count": 162, "popularity": 11.575}, {"id": 9813, "video": false, "vote_count": 128, "vote_average": 6.1, "title": "The Quiet", "release_date": "2005-09-12", "original_language": "en", "original_title": "The Quiet", "genre_ids": [18, 53], "backdrop_path": "/6eyWAZA4CEidZW1xXnQ4vlYBXTP.jpg", "adult": false, "overview": "After her widowed father dies, deaf teenager Dot moves in with her godparents, Olivia and Paul Deer. The Deers' daughter, Nina, is openly hostile to Dot, but that does not prevent her from telling her secrets to her silent stepsister, including the fact that she wants to kill her lecherous father.", "poster_path": "/GEqIE9YlmygHVUfS64LW2cwAAM.jpg", "popularity": 14.844}, {"adult": false, "backdrop_path": "/gZeJziVigmRqbkEZwKAtSqlLQ6s.jpg", "genre_ids": [18, 10749], "id": 370663, "original_language": "en", "original_title": "Below Her Mouth", "overview": "An unexpected affair quickly escalates into a heart-stopping reality for two women whose passionate connection changes their lives forever.", "poster_path": "/nTGbq37hYLuNy7YgMg0gVLma0NS.jpg", "release_date": "2016-09-10", "title": "Below Her Mouth", "video": false, "vote_average": 6.2, "vote_count": 456, "popularity": 18.664}, {"adult": false, "backdrop_path": "/k8H7ye6Sab7OrDJoo8Qp5WFGHGk.jpg", "genre_ids": [35, 10749, 18], "id": 244264, "original_language": "en", "original_title": "Laggies", "overview": "Overeducated and underemployed, 28 year old Megan is in the throes of a quarterlife crisis. Squarely into adulthood with no career prospects, no particular motivation to think about her future and no one to relate to, Megan is comfortable lagging a few steps behind - while her friends check off milestones and celebrate their new grown-up status. When her high-school sweetheart proposes, Megan panics and- given an unexpected opportunity to escape for a week - hides out in the home of her new friend, 16-year old Annika and Annika's world-weary single dad Craig.", "poster_path": "/dNcoXoRC7JHiqbe7k5Ufo6syiPP.jpg", "release_date": "2014-09-25", "title": "Laggies", "video": false, "vote_average": 6.1, "vote_count": 788, "popularity": 13.836}, {"adult": false, "backdrop_path": "/fZ8oFcREAr6wgWcXISGql0xyxjB.jpg", "genre_ids": [35, 18], "id": 39781, "original_language": "en", "original_title": "The Kids Are All Right", "overview": "Two women, Nic and Jules, brought a son and daughter into the world through artificial insemination. When one of their children reaches age, both kids go behind their mothers' backs to meet with the donor. Life becomes so much more interesting when the father, two mothers and children start to become attached to each other.", "poster_path": "/fPDeK4MmoGfi2X0oWZev7LrbMqM.jpg", "release_date": "2010-07-09", "title": "The Kids Are All Right", "video": false, "vote_average": 6.6, "vote_count": 923, "popularity": 12.159}, {"id": 297762, "video": false, "vote_count": 13722, "vote_average": 7.3, "title": "Wonder Woman", "release_date": "2017-05-30", "original_language": "en", "original_title": "Wonder Woman", "genre_ids": [28, 12, 14], "backdrop_path": "/6iUNJZymJBMXXriQyFZfLAKnjO6.jpg", "adult": false, "overview": "An Amazon princess comes to the world of Man in the grips of the First World War to confront the forces of evil and bring an end to human conflict.", "poster_path": "/gfJGlDaHuWimErCr5Ql0I8x9QSy.jpg", "popularity": 44.687}, {"adult": false, "backdrop_path": "/caLMOD3ZJ3V7qjlxDXrzlJfBLgD.jpg", "genre_ids": [18, 10749], "id": 20, "original_language": "en", "original_title": "My Life Without Me", "overview": "A Pedro Almodovar production in which a fatally ill mother with only two months to live creates a list of things she wants to do before she dies with out telling her family of her illness.", "poster_path": "/vVj92VBFUBzjqzLvBiPVVlJDp78.jpg", "release_date": "2003-03-07", "title": "My Life Without Me", "video": false, "vote_average": 6.1, "vote_count": 220, "popularity": 10.382}, {"adult": false, "backdrop_path": "/3uwyXMZN93PRkShUxvLrufwVAc2.jpg", "genre_ids": [80, 18, 27, 9648, 53], "id": 452507, "original_language": "en", "original_title": "1922", "overview": "A simple yet proud rancher conspires to murder his wife for financial gain, convincing his teenage son to participate.", "poster_path": "/q4FQOiSRhTLWulHl5Vpg37FMArH.jpg", "release_date": "2017-10-20", "title": "1922", "video": false, "vote_average": 5.9, "vote_count": 1491, "popularity": 14.757}, {"adult": false, "backdrop_path": "/npClMhFGn4XUkwu6coq5oKAEu6L.jpg", "genre_ids": [35, 10749, 18], "id": 634, "original_language": "en", "original_title": "Bridget Jones's Diary", "overview": "A chaotic Bridget Jones meets a snobbish lawyer, and he soon enters her world of imperfections.", "poster_path": "/ym6kjFFZg6boC0QHBVw6hqJLbxv.jpg", "release_date": "2001-04-13", "title": "Bridget Jones's Diary", "video": false, "vote_average": 6.7, "vote_count": 3080, "popularity": 19.453}, {"adult": false, "backdrop_path": "/ojn7IYKmMt8HXRd6oLwY5pLGLVc.jpg", "genre_ids": [18, 10749], "id": 9587, "original_language": "en", "original_title": "Little Women", "overview": "With their father away as a chaplain in the Civil War, Jo, Meg, Beth and Amy grow up with their mother in somewhat reduced circumstances. They are a close family who inevitably have their squabbles and tragedies. But the bond holds even when, later, male friends start to become a part of the household.", "poster_path": "/tD9YDE8pjtSvvKUpkmooE6YDSm8.jpg", "release_date": "1994-12-21", "title": "Little Women", "video": false, "vote_average": 7.2, "vote_count": 574, "popularity": 18.707}, {"id": 6637, "video": false, "vote_count": 3261, "vote_average": 6.2, "title": "National Treasure: Book of Secrets", "release_date": "2007-12-13", "original_language": "en", "original_title": "National Treasure: Book of Secrets", "genre_ids": [28, 12, 9648, 53], "backdrop_path": "/ivrtuhSZnkEqzkdCyFXcH8UbPVp.jpg", "adult": false, "overview": "Benjamin Franklin Gates and Dr. Abigail Chase re-team with Riley Poole and, now armed with a stack of long-lost pages from John Wilkes Booth\u2019s diary, Ben must follow a clue left there to prove his ancestor\u2019s innocence in the assassination of Abraham Lincoln.", "poster_path": "/sHr05tz70r7y8A6XrdCBsHPK7tF.jpg", "popularity": 25.219}, {"adult": false, "backdrop_path": "/by0WtpJ5UNxOy6ytIfPPTasbRoB.jpg", "genre_ids": [28, 12, 35, 18, 10751, 10402, 10749], "id": 17130, "original_language": "en", "original_title": "Crossroads", "overview": "Three friends get together and bury a box making a pact to open it at midnight at their high school graduation. In the little town in Georgia that they live in, things soon change. One is little miss perfect, one is an engaged prom queen, and the other is a pregnant outcast. The night of graduation, they open the box and they strike up a conversation. All of a sudden, one brings up the topic of her going to Los Angeles for a record contract audition. They all decide to go together and they leave. With a little money, they set out on the road with a guy named Ben. When one of them tells the other a rumor that he might be a homicidal maniac they are all scared of him. When they reach LA, Lucy falls in love with Ben and against her father's wishes, she stays and she goes to the audition.", "poster_path": "/egIs4cWxn0iBErFKrQ7STckjj49.jpg", "release_date": "2002-02-15", "title": "Crossroads", "video": false, "vote_average": 5.0, "vote_count": 334, "popularity": 14.197}, {"id": 8913, "video": false, "vote_count": 1055, "vote_average": 6.6, "title": "Pet Sematary", "release_date": "1989-04-21", "original_language": "en", "original_title": "Pet Sematary", "genre_ids": [18, 27], "backdrop_path": "/sbm4pRbGNaqaHjx6fPXh1aQGTJO.jpg", "adult": false, "overview": "Dr. Louis Creed's family moves into the country house of their dreams and discover a pet cemetery at the back of their property. The cursed burial ground deep in the woods brings the dead back to life -- with \"minor\" problems. At first, only the family's cat makes the return trip, but an accident forces a heartbroken father to contemplate the unthinkable.", "poster_path": "/9zUax4pjRgoPIJla9CQejqNJofB.jpg", "popularity": 14.532}, {"adult": false, "backdrop_path": "/6tern9vOEwwmkDYC1vRCuO64z0C.jpg", "genre_ids": [10749, 18], "id": 475888, "original_language": "en", "original_title": "Tell It to the Bees", "overview": "Dr. Jean Markham returns to the town she left as a teenager to take over her late father's medical practice. When a school-yard scuffle lands Charlie in her surgery, she invites him to visit the hives in her garden and tell his secrets to the bees, as she once did. The new friendship between the boy and the bee keeper brings his mother Lydia into Jean's world.", "poster_path": "/Rj6zpHhMU1zFW3v28U4PSRSRgP.jpg", "release_date": "2019-05-03", "title": "Tell It to the Bees", "video": false, "vote_average": 6.4, "vote_count": 53, "popularity": 13.175}, {"id": 12162, "video": false, "vote_count": 3373, "vote_average": 7.3, "title": "The Hurt Locker", "release_date": "2008-10-10", "original_language": "en", "original_title": "The Hurt Locker", "genre_ids": [18, 53, 10752], "backdrop_path": "/3iPnZOXR9mpcK8RwvAW7b7Axr8v.jpg", "adult": false, "overview": "Forced to play a dangerous game of cat-and-mouse in the chaos of war, an elite Army bomb squad unit must come together in a city where everyone is a potential enemy and every object could be a deadly bomb.", "poster_path": "/3ZEqU9Ykmn8zGDUwWnmTfHaaWRB.jpg", "popularity": 19.01}, {"id": 97630, "video": false, "vote_count": 2786, "vote_average": 6.9, "title": "Zero Dark Thirty", "release_date": "2012-12-19", "original_language": "en", "original_title": "Zero Dark Thirty", "genre_ids": [18, 36, 53], "backdrop_path": "/zy5hyStEkQyjZgYtvKzJQBr7MpJ.jpg", "adult": false, "overview": "A chronicle of the decade-long hunt for al-Qaeda terrorist leader Osama bin Laden after the September 2001 attacks, and his death at the hands of the Navy S.E.A.L. Team 6 in May, 2011.", "poster_path": "/yg6IDNucLAEj7E5loTyTnUW2pgb.jpg", "popularity": 18.903}, {"adult": false, "backdrop_path": "/knczzNAjBXzSYkeWxoT1u9VNmjR.jpg", "genre_ids": [10749, 18], "id": 258480, "original_language": "en", "original_title": "Carol", "overview": "In 1950s New York, a department-store clerk who dreams of a better life falls for an older, married woman.", "poster_path": "/AbKa7ANxmui0Jmhh7gV7OSELKIL.jpg", "release_date": "2015-11-20", "title": "Carol", "video": false, "vote_average": 7.4, "vote_count": 2184, "popularity": 13.539}, {"adult": false, "backdrop_path": "/eSs0CkWB5ASQgcx8Dr0uai3IRjT.jpg", "genre_ids": [18], "id": 339984, "original_language": "en", "original_title": "Miracles from Heaven", "overview": "When Christy discovers her 10-year-old daughter Anna has a rare, incurable disease, she becomes a ferocious advocate for her daughter\u2019s healing as she searches for a solution. After Anna has a freak accident and falls three stories, a miracle unfolds in the wake of her dramatic rescue that leaves medical specialists mystified, her family restored and their community inspired.", "poster_path": "/hz9VF1TfaM0D04pYneSXUkNeOZv.jpg", "release_date": "2016-03-17", "title": "Miracles from Heaven", "video": false, "vote_average": 7.2, "vote_count": 568, "popularity": 10.907}, {"id": 616584, "video": false, "vote_count": 92, "vote_average": 7.5, "title": "K-12", "release_date": "2019-09-05", "original_language": "en", "original_title": "K-12", "genre_ids": [14, 27, 10402], "backdrop_path": "/fSlfaF0Ydfr2SK6hOYHvDsb7a9Z.jpg", "adult": false, "overview": "Cry Baby, a strong and sensitive girl, is sent off to a disturbing sleepaway school that\u2019s hidden underneath a grandiose fa\u00e7ade. Luckily, she has a sweet and unapologetic best friend who sticks up for her when she gets bullied by the other students whose brains are under control by the Principal and his wicked staff. With the help of the magical friends they meet along the way, as well as an Angelic Spirit Guide, they are able to gain the strength they need to fight off the school\u2019s belligerent patriarchal conditioning.", "poster_path": "/nVi0yBBPj5Z96JgGWVIg94kv7bR.jpg", "popularity": 15.107}, {"adult": false, "backdrop_path": "/sRJjliXA7ZqHCr7HCK0ZB83xxjr.jpg", "genre_ids": [12, 28, 878], "id": 101299, "original_language": "en", "original_title": "The Hunger Games: Catching Fire", "overview": "Katniss Everdeen has returned home safe after winning the 74th Annual Hunger Games along with fellow tribute Peeta Mellark. Winning means that they must turn around and leave their family and close friends, embarking on a \"Victor's Tour\" of the districts. Along the way Katniss senses that a rebellion is simmering, but the Capitol is still very much in control as President Snow prepares the 75th Annual Hunger Games (The Quarter Quell) - a competition that could change Panem forever.", "poster_path": "/Hn0KgefVEp0GkdTexS6gfKTMfi.jpg", "release_date": "2013-11-15", "title": "The Hunger Games: Catching Fire", "video": false, "vote_average": 7.4, "vote_count": 12031, "popularity": 22.164}], "total_pages": 50, "total_results": 986}, "recommendations": {"page": 1, "results": [{"adult": false, "backdrop_path": null, "genre_ids": [10402, 18], "id": 197127, "original_language": "en", "original_title": "Symphony in Black: A Rhapsody of Negro Life", "overview": "Duke Ellington plays his symphonic jazz piece ('A Rhapsody of Negro Life') with his orchestra against slice-of-life background scenes. The four movements: 1) The Laborers, 2) A Triangle: Dance, Jealousy, Blues, 3) A Hymn of Sorrow, 4) Harlem Rhythm.", "poster_path": "/soq88ra0UAYHwQQCD9BbJQx1bZ1.jpg", "release_date": "1935-09-12", "title": "Symphony in Black: A Rhapsody of Negro Life", "video": false, "vote_average": 6.8, "vote_count": 4, "popularity": 1.287}, {"adult": false, "backdrop_path": "/25XEGxFsuSuOO9zk0Ayp2Fy1Sm7.jpg", "genre_ids": [10402, 18], "id": 148941, "original_language": "en", "original_title": "St. Louis Blues", "overview": "In this all-black cast short, legendary blues singer Bessie Smith finds her gambler lover Jimmy messin' with a pretty, younger woman; he leaves and she sings the blues, with chorus and dancers.", "poster_path": "/dv39xfGaBeuy8hZRDovTfS2fgwT.jpg", "release_date": "1929-09-07", "title": "St. Louis Blues", "video": false, "vote_average": 4.9, "vote_count": 7, "popularity": 1.993}, {"adult": false, "backdrop_path": null, "genre_ids": [10402, 18], "id": 144615, "original_language": "en", "original_title": "Black and Tan", "overview": "Short film featuring  Duke Ellington and His Orchestra.", "poster_path": "/n4rn9mIF0PmrMCCLo4isYVpFNTh.jpg", "release_date": "1929-12-08", "title": "Black and Tan", "video": false, "vote_average": 6.1, "vote_count": 11, "popularity": 1.874}, {"adult": false, "backdrop_path": "/flhrlqUgbXkPYKzad7on9DeOdp2.jpg", "genre_ids": [18, 53], "id": 174344, "original_language": "en", "original_title": "Whitewash", "overview": "In the harsh, wintry woods of rural Quebec, Bruce (Thomas Haden Church), a down-on-his-luck snowplow operator, accidentally kills a man during a drunken night joyride. Stricken with panic, he hides the body and takes to the deep wilderness in hopes of outrunning both the authorities and his own conscience. But as both begin to close in, Bruce falls apart mentally and morally and mysteries unravel to reveal who he was before the accident, the truth behind his victim, and the circumstances that brought them together in a single moment.", "poster_path": "/aHMpTV0mX6zkjYr3HpdO2lK6vXD.jpg", "release_date": "2013-04-19", "title": "Whitewash", "video": false, "vote_average": 6.4, "vote_count": 14, "popularity": 4.441}], "total_pages": 1, "total_results": 4}, "credits": {"cast": [{"cast_id": 4, "character": "Betty", "credit_id": "562102f5c3a3680e1d008831", "gender": 1, "id": 43277, "name": "Joanne Kelly", "order": 0, "profile_path": "/nbORulL9NzY7uWRIisDuH6TwBKC.jpg"}, {"cast_id": 6, "character": "Frank", "credit_id": "56210318c3a3680e20008bd5", "gender": 2, "id": 58544, "name": "Neal Huff", "order": 1, "profile_path": "/iNvUcnFm4O3tESbemiMFdMJH2zp.jpg"}, {"cast_id": 5, "character": "Finley", "credit_id": "5621030992514171d40082d0", "gender": 2, "id": 564583, "name": "Alex Shaffer", "order": 2, "profile_path": "/Ap8uW9B4HceVZbL1RlC7skrC7ni.jpg"}, {"cast_id": 3, "character": "Scratch", "credit_id": "558762b792514155b70003ac", "gender": 2, "id": 19453, "name": "Tom Bower", "order": 3, "profile_path": "/jINoIyKUhX01jflM68nZaJZlWMW.jpg"}, {"cast_id": 7, "character": "Paco", "credit_id": "5621034792514171cb007da0", "gender": 2, "id": 1014572, "name": "Joseph Melendez", "order": 4, "profile_path": "/l0bsVQaWCpowRhqI2h0aO7aIaL6.jpg"}, {"cast_id": 8, "character": "Paula", "credit_id": "562103579251413a74002f58", "gender": 1, "id": 21005, "name": "Darlene Hunt", "order": 5, "profile_path": "/4AU9IpiwBvoVbe8XPR9z4vVpgOS.jpg"}, {"cast_id": 9, "character": "Stephen", "credit_id": "56210366c3a3680e16007a0e", "gender": 0, "id": 1425462, "name": "Brad Koed", "order": 6, "profile_path": null}, {"cast_id": 2, "character": "Elena", "credit_id": "558762a7c3a368273b0065f4", "gender": 0, "id": 1479991, "name": "Rashel Bestard", "order": 7, "profile_path": null}], "crew": [{"credit_id": "558762959251417f6f0065e3", "department": "Directing", "gender": 1, "id": 1479990, "job": "Director", "name": "Kimberly Levin", "profile_path": null}, {"credit_id": "5587629ac3a368385300550a", "department": "Writing", "gender": 1, "id": 1479990, "job": "Writer", "name": "Kimberly Levin", "profile_path": null}]}}