{"adult": false, "backdrop_path": "/thMcfurfLvRP5MJ93O5aYt3vXA4.jpg", "belongs_to_collection": null, "budget": 0, "genres": [{"id": 53, "name": "Thriller"}, {"id": 99, "name": "Documentary"}], "homepage": null, "id": 289207, "imdb_id": "tt0075818", "original_language": "en", "original_title": "Catastrophe", "overview": "A film cataloguing some of the world's largest catastrophes.", "popularity": 1.251, "poster_path": "/vK19mtTUU6tgQEgAgGyxvHiTG14.jpg", "production_companies": [{"id": 38485, "logo_path": null, "name": "Larry Savadove Productions", "origin_country": ""}, {"id": 31242, "logo_path": null, "name": "Joaquin Associates", "origin_country": ""}], "production_countries": [{"iso_3166_1": "US", "name": "United States of America"}], "release_date": "1978-02-07", "revenue": 0, "runtime": 91, "spoken_languages": [{"iso_639_1": "en", "name": "English"}], "status": "Released", "tagline": "The Ultimate Disaster Film !", "title": "Catastrophe", "video": false, "vote_average": 6.0, "vote_count": 1, "keywords": {"keywords": [{"id": 10617, "name": "disaster"}]}, "similar": {"page": 1, "results": [{"adult": false, "backdrop_path": "/61RDA1ZIRRxYrDkV51ErctwUzsb.jpg", "genre_ids": [28, 18, 53], "id": 11123, "original_language": "en", "original_title": "Earthquake", "overview": "Earthquake is a 1974 American disaster film that achieved huge box-office success, continuing the disaster film genre of the 1970s where recognizable all-star casts attempt to survive life or death situations. The plot concerns the struggle for survival after a catastrophic earthquake destroys most of the city of Los Angeles, California.", "poster_path": "/oQU4ibX2ROGZcl5dUzC08fDCnuW.jpg", "release_date": "1974-11-15", "title": "Earthquake", "video": false, "vote_average": 5.8, "vote_count": 139, "popularity": 9.938}, {"id": 5919, "video": false, "vote_count": 452, "vote_average": 7.1, "title": "The Towering Inferno", "release_date": "1974-12-14", "original_language": "en", "original_title": "The Towering Inferno", "genre_ids": [28, 53], "backdrop_path": "/wE5m9AAgmNEYXIHpzmu6ltxFLsZ.jpg", "adult": false, "overview": "At the opening party of a colossal\u2014but poorly constructed\u2014office building, a massive fire breaks out, threatening to destroy the tower and everyone in it.", "poster_path": "/atGCmFz8L5KmmVmP4kFcrS1vCyd.jpg", "popularity": 12.326}, {"id": 8656, "video": false, "vote_count": 1621, "vote_average": 6.1, "title": "Deep Impact", "release_date": "1998-05-08", "original_language": "en", "original_title": "Deep Impact", "genre_ids": [28, 18, 878], "backdrop_path": "/zdPHv4OkhjUNTCO0KkhoowfJmH0.jpg", "adult": false, "overview": "A seven-mile-wide space rock is hurtling toward Earth, threatening to obliterate the planet. Now, it's up to the president of the United States to save the world. He appoints a tough-as-nails veteran astronaut to lead a joint American-Russian crew into space to destroy the comet before impact. Meanwhile, an enterprising reporter uses her smarts to uncover the scoop of the century.", "poster_path": "/nbF4Tuj4OY8btrjoOHtk64hkKbJ.jpg", "popularity": 27.398}, {"adult": false, "backdrop_path": "/9zAAR78OTNBZxQYVojDj4pLHOWz.jpg", "genre_ids": [28, 12, 18], "id": 664, "original_language": "en", "original_title": "Twister", "overview": "TV weatherman Bill Harding is trying to get his tornado-hunter wife, Jo, to sign divorce papers so he can marry his girlfriend Melissa. But Mother Nature, in the form of a series of intense storms sweeping across Oklahoma, has other plans. Soon the three have joined the team of stormchasers as they attempt to insert a revolutionary measuring device into the very heart of several extremely violent tornados.", "poster_path": "/tKdDCkmb6obEhWEMLgGUUz5nDNs.jpg", "release_date": "1996-05-10", "title": "Twister", "video": false, "vote_average": 6.3, "vote_count": 1761, "popularity": 20.529}, {"id": 14161, "video": false, "vote_count": 8238, "vote_average": 5.7, "title": "2012", "release_date": "2009-10-10", "original_language": "en", "original_title": "2012", "genre_ids": [28, 12, 878], "backdrop_path": "/ywxrdkfbr8Dg3SBW2gi4kC59qOb.jpg", "adult": false, "overview": "Dr. Adrian Helmsley, part of a worldwide geophysical team investigating the effect on the earth of radiation from unprecedented solar storms, learns that the earth's core is heating up. He warns U.S. President Thomas Wilson that the crust of the earth is becoming unstable and that without proper preparations for saving a fraction of the world's population, the entire race is doomed. Meanwhile, writer Jackson Curtis stumbles on the same information. While the world's leaders race to build \"arks\" to escape the impending cataclysm, Curtis struggles to find a way to save his family. Meanwhile, volcanic eruptions and earthquakes of unprecedented strength wreak havoc around the world.", "poster_path": "/zf1idF1ys8zuaAzEEzghre5A4m3.jpg", "popularity": 26.474}, {"id": 336882, "video": false, "vote_count": 657, "vote_average": 6.6, "title": "The Wave", "release_date": "2015-08-28", "original_language": "no", "original_title": "B\u00f8lgen", "genre_ids": [28, 18, 53], "backdrop_path": "/ciGvbbeeSXN6rciPaXYDrKh9mEp.jpg", "adult": false, "overview": "Although theorised, no one is really ready when a mountain pass above the scenic and narrow Geiranger fjord in Norway collapses and creates a tsunami over 300 feet high. A geologist is one of those caught in the middle of it.", "poster_path": "/AnPHblkG8rcFeQVDa0BZXfNrhGs.jpg", "popularity": 10.834}, {"adult": false, "backdrop_path": "/1R2wRq5aZJHMmg3gUlqw2uSdj2t.jpg", "genre_ids": [18, 28], "id": 296524, "original_language": "en", "original_title": "Deepwater Horizon", "overview": "A story set on the offshore drilling rig Deepwater Horizon, which exploded during April 2010 and created the worst oil spill in U.S. history.", "poster_path": "/7D6hM7IR0TbQmNvSZVtEiPM3H5h.jpg", "release_date": "2016-09-29", "title": "Deepwater Horizon", "video": false, "vote_average": 6.7, "vote_count": 2808, "popularity": 16.868}, {"adult": false, "backdrop_path": "/noE6vg035lEXJl3sCHAgLkWZK1D.jpg", "genre_ids": [28, 12, 36, 10749, 18], "id": 76649, "original_language": "en", "original_title": "Pompeii", "overview": "In 79 A.D., Milo, a slave turned gladiator, finds himself in a race against time to save his true love Cassia, the beautiful daughter of a wealthy merchant who has been unwillingly betrothed to a corrupt Roman Senator. As Mount Vesuvius erupts in a torrent of blazing lava, Milo must fight his way out of the arena in order to save his beloved as the once magnificent Pompeii crumbles around him.", "poster_path": "/idiv0IxVhVSDW8cWxfprYyY5Yev.jpg", "release_date": "2014-02-18", "title": "Pompeii", "video": false, "vote_average": 5.4, "vote_count": 2254, "popularity": 15.999}, {"id": 7227, "video": false, "vote_count": 123, "vote_average": 5.7, "title": "Airport '77", "release_date": "1977-03-11", "original_language": "en", "original_title": "Airport '77", "genre_ids": [28, 12, 18, 53], "backdrop_path": "/wioNLmjqP9T6KoyLpg4A8M5gywm.jpg", "adult": false, "overview": "Flight 23 has crashed in the Bermuda Triangle while taking VIPs and valuable art to Philip Stevens new museum. But when hijackers take off the plane and knock everyone out with sleeping gas the plane crashes in the sea. The passengers survive but a small hole at the front is flooding the plane and 2 daring rescues must be put into action because everyone is trapped 200 feet underwater.", "poster_path": "/m9b3frZR0Wu8I3ayN3QPrxfZMvC.jpg", "popularity": 10.567}, {"id": 416194, "video": false, "vote_count": 152, "vote_average": 6.5, "title": "The Quake", "release_date": "2018-08-31", "original_language": "no", "original_title": "Skjelvet", "genre_ids": [28, 53], "backdrop_path": "/oqBTd53lYKJ63vbQpAxjDS6Pxvt.jpg", "adult": false, "overview": "A geologist races against time to save his estranged wife and two children when a devastating earthquake strikes Oslo, Norway.", "poster_path": "/jht2FrJLaRH1lpsRHCownjIcgcO.jpg", "popularity": 15.115}, {"adult": false, "backdrop_path": "/xqQztbT6KlPLQLlRtNHoXivEMZA.jpg", "genre_ids": [18, 10749, 53], "id": 597, "original_language": "en", "original_title": "Titanic", "overview": "101-year-old Rose DeWitt Bukater tells the story of her life aboard the Titanic, 84 years later. A young Rose boards the ship with her mother and fianc\u00e9. Meanwhile, Jack Dawson and Fabrizio De Rossi win third-class tickets aboard the ship. Rose tells the whole story from Titanic's departure through to its death\u2014on its first and last voyage\u2014on April 15, 1912.", "poster_path": "/kHXEpyfl6zqn8a6YuozZUujufXf.jpg", "release_date": "1997-11-18", "title": "Titanic", "video": false, "vote_average": 7.8, "vote_count": 15731, "popularity": 44.898}, {"id": 135397, "video": false, "vote_count": 14920, "vote_average": 6.6, "title": "Jurassic World", "release_date": "2015-06-06", "original_language": "en", "original_title": "Jurassic World", "genre_ids": [28, 12, 878, 53], "backdrop_path": "/t5KONotASgVKq4N19RyhIthWOPG.jpg", "adult": false, "overview": "Twenty-two years after the events of Jurassic Park, Isla Nublar now features a fully functioning dinosaur theme park, Jurassic World, as originally envisioned by John Hammond.", "poster_path": "/jjBgi2r5cRt36xF6iNUEhzscEcb.jpg", "popularity": 31.038}, {"adult": false, "backdrop_path": "/6kVVfNT0auG6fU5SFQ1zbayNWUC.jpg", "genre_ids": [28, 53, 878], "id": 7191, "original_language": "en", "original_title": "Cloverfield", "overview": "Five young New Yorkers throw their friend a going-away party the night that a monster the size of a skyscraper descends upon the city. Told from the point of view of their video camera, the film is a document of their attempt to survive the most surreal, horrifying event of their lives.", "poster_path": "/qIegUGJqyMMCRjkKV1s7A9MqdJ8.jpg", "release_date": "2008-01-15", "title": "Cloverfield", "video": false, "vote_average": 6.5, "vote_count": 4429, "popularity": 18.322}, {"adult": false, "backdrop_path": "/syALjBwUyG9wq0JZrzTVtkiuvdn.jpg", "genre_ids": [28, 12, 53], "id": 1639, "original_language": "en", "original_title": "Speed 2: Cruise Control", "overview": "Sandra Bullock and Jason Patric star as a young couple whose dream cruise turns to terror when a lunatic computer genius (Willem Dafoe) sets a new course for destruction.", "poster_path": "/biK8HM38OxMPih2VjjZkJ9gbRpO.jpg", "release_date": "1997-06-13", "title": "Speed 2: Cruise Control", "video": false, "vote_average": 4.3, "vote_count": 887, "popularity": 16.103}, {"adult": false, "backdrop_path": "/lI3qV4kiSg0BvE6gelzV0tPAoFK.jpg", "genre_ids": [28, 53, 878, 12], "id": 95, "original_language": "en", "original_title": "Armageddon", "overview": "When an asteroid threatens to collide with Earth, NASA honcho Dan Truman determines the only way to stop it is to drill into its surface and detonate a nuclear bomb. This leads him to renowned driller Harry Stamper, who agrees to helm the dangerous space mission provided he can bring along his own hotshot crew. Among them is the cocksure A.J. who Harry thinks isn't good enough for his daughter, until the mission proves otherwise.", "poster_path": "/coINnuCzcw5FMHBty8hcudMOBnO.jpg", "release_date": "1998-07-01", "title": "Armageddon", "video": false, "vote_average": 6.7, "vote_count": 4739, "popularity": 28.416}, {"id": 254128, "video": false, "vote_count": 5542, "vote_average": 6.1, "title": "San Andreas", "release_date": "2015-05-27", "original_language": "en", "original_title": "San Andreas", "genre_ids": [28, 18, 53], "backdrop_path": "/ioEozbN5RJouaIWTSe8zNHkC1yY.jpg", "adult": false, "overview": "In the aftermath of a massive earthquake in California, a rescue-chopper pilot makes a dangerous journey across the state in order to rescue his estranged daughter.", "poster_path": "/qey0tdcOp9kCDdEZuJ87yE3crSe.jpg", "popularity": 37.713}, {"id": 430153, "video": false, "vote_count": 8, "vote_average": 4.4, "title": "Earthquake in New York", "release_date": "1998-10-11", "original_language": "en", "original_title": "Earthquake in New York", "genre_ids": [28, 12, 80, 18, 53, 10770], "backdrop_path": null, "adult": false, "overview": "A cop is after a nasty serial killer. Cop's wife and kids are somewhere in the city too. Then a disastrous earthquake hits the city.", "poster_path": "/lroli2vQfvgtHj6YCuBqGrJqZRS.jpg", "popularity": 2.572}, {"id": 216282, "video": false, "vote_count": 1270, "vote_average": 5.9, "title": "Into the Storm", "release_date": "2014-08-06", "original_language": "en", "original_title": "Into the Storm", "genre_ids": [28, 53], "backdrop_path": "/i0umpdqVURR1VZFX67QGJEXKvLe.jpg", "adult": false, "overview": "As a new day begins in the town of Silverton, its residents have little reason to believe it will be anything other than ordinary. Mother Nature, however has other plans. In the span of just a few hours, an unprecedented onslaught of powerful tornadoes ravages Silverton. Storm trackers predict that the worst is still to come, as terrified residents seek shelter, and professional storm-chasers run toward the danger, hoping to study the phenomenon close up and get a once-in-a-lifetime shot.", "poster_path": "/dtuyhlOtqj8zPPFgTgWJ0bF3s2h.jpg", "popularity": 12.064}, {"id": 17599, "video": false, "vote_count": 52, "vote_average": 6.3, "title": "The Hindenburg", "release_date": "1975-12-25", "original_language": "en", "original_title": "The Hindenburg", "genre_ids": [36, 53], "backdrop_path": "/3c0Yt2KnRQQl2e6iuUDJQxdp2IE.jpg", "adult": false, "overview": "In this highly speculative historical thriller, Colonel Franz Ritter (George C. Scott), a former hero pilot now working for military intelligence, is assigned to the great Hindenburg airship as its chief of security. As he races against the clock to uncover a possible saboteur aboard the doomed zeppelin he finds that any of the passengers and crew could be the culprit.", "poster_path": "/3HQyhJFs5171W2gDtY3Rdx0KPjd.jpg", "popularity": 7.389}, {"adult": false, "backdrop_path": "/npvThSG35fNrjCBOP0godnC5dJH.jpg", "genre_ids": [28, 878, 10770], "id": 479475, "original_language": "en", "original_title": "Geo-Disaster", "overview": "A chunk of dark matter shoots right through earth, causing various worldwide disasters. A family in Los Angeles struggles to survive the ordeal.", "poster_path": "/5PpLCJk8cBYRqKCOBnJ6Ml8J5Yp.jpg", "release_date": "2017-10-03", "title": "Geo-Disaster", "video": false, "vote_average": 3.5, "vote_count": 30, "popularity": 6.427}], "total_pages": 15, "total_results": 294}, "recommendations": {"page": 1, "results": [], "total_pages": 1, "total_results": 0}, "credits": {"cast": [{"cast_id": 0, "character": "Narrator (voice)", "credit_id": "53ff7adbc3a36806030001fe", "gender": 2, "id": 16412, "name": "William Conrad", "order": 1, "profile_path": "/7tMF2QMwu5nFja1BZcGEDmYze5X.jpg"}], "crew": [{"credit_id": "53ff7b00c3a36843630002e4", "department": "Directing", "gender": 0, "id": 1357800, "job": "Director", "name": "Larry Savadove", "profile_path": null}, {"credit_id": "5468468b22136e68cc000065", "department": "Writing", "gender": 0, "id": 1357800, "job": "Writer", "name": "Larry Savadove", "profile_path": null}]}}