{"adult": false, "backdrop_path": "/wcT7srQ4GeeMqlszMFEtPZ7v8T7.jpg", "belongs_to_collection": null, "budget": 9000000, "genres": [{"id": 35, "name": "Comedy"}, {"id": 10749, "name": "Romance"}], "homepage": null, "id": 28978, "imdb_id": "tt0018773", "original_language": "en", "original_title": "The Circus", "overview": "Charlie, a wandering tramp, becomes a circus handyman and falls in love with the circus owner's daughter. Unaware of Charlie's affection, the girl falls in love with a handsome young performer. Charlie's versatility makes him star of the show when he substitutes for an ailing tightwire walker. He is discharged from the company when he protects the girl from her father's abuse, but he returns and appeals to the handsome performer to marry the girl. After the wedding the father prevails upon them to rejoin the circus. Charlie is hired again, but he stays behind when the caravan moves on.", "popularity": 12.253, "poster_path": "/awTf4Y6TGvgi3VYtGNINyyJJy9Q.jpg", "production_companies": [{"id": 1315, "logo_path": null, "name": "Charles Chaplin Productions", "origin_country": ""}], "production_countries": [{"iso_3166_1": "US", "name": "United States of America"}], "release_date": "1928-01-06", "revenue": 0, "runtime": 72, "spoken_languages": [{"iso_639_1": "en", "name": "English"}, {"iso_639_1": "xx", "name": "No Language"}], "status": "Released", "tagline": "", "title": "The Circus", "video": false, "vote_average": 8.2, "vote_count": 330, "keywords": {"keywords": [{"id": 291, "name": "circus"}, {"id": 12999, "name": "black and white"}, {"id": 154802, "name": "silent film"}, {"id": 167925, "name": "employer employee relationship"}, {"id": 182824, "name": "charlie chaplin"}]}, "similar": {"page": 1, "results": [{"id": 901, "video": false, "vote_count": 1026, "vote_average": 8.4, "title": "City Lights", "release_date": "1931-02-01", "original_language": "xx", "original_title": "City Lights", "genre_ids": [35, 18, 10749], "backdrop_path": "/vT6ux2rdyg2kexuLisO5Ygz7pHg.jpg", "adult": false, "overview": "City Lights is the first silent film that Charlie Chaplin directed after he established himself with sound accompanied films. The film is about a penniless man who falls in love with a flower girl.", "poster_path": "/bXNvzjULc9jrOVhGfjcc64uKZmZ.jpg", "popularity": 14.294}, {"id": 454992, "video": false, "vote_count": 1254, "vote_average": 6.4, "title": "The Spy Who Dumped Me", "release_date": "2018-08-02", "original_language": "en", "original_title": "The Spy Who Dumped Me", "genre_ids": [28, 35], "backdrop_path": "/3Ptt97kQLuJS37zwA4lkJAkr02m.jpg", "adult": false, "overview": "Audrey and Morgan, two thirty-year-old best friends in Los Angeles, are thrust unexpectedly into an international conspiracy when Audrey\u2019s ex-boyfriend shows up at their apartment with a team of deadly assassins on his trail.", "poster_path": "/tpPERI5i6yjT73jYWyZ9iWltQ9L.jpg", "popularity": 33.779}, {"id": 10258, "video": false, "vote_count": 148, "vote_average": 6.6, "title": "The Madagascar Penguins in a Christmas Caper", "release_date": "2005-09-23", "original_language": "en", "original_title": "The Madagascar Penguins in a Christmas Caper", "genre_ids": [16, 35, 10751], "backdrop_path": "/gdJ6j1hmt6dQgObWxDJAHUb58o6.jpg", "adult": false, "overview": "During the holiday season, when the animals of the Central Park Zoo are preparing for Christmas, Private, the youngest of the penguins notices that the Polar Bear is all alone. Assured that nobody should have to spend Christmas alone, Private goes into the city for some last-minute Christmas shopping. Along the way, he gets stuffed into a stocking", "poster_path": "/r8QtfGSjDaY6vICRVyYvZvTkjxc.jpg", "popularity": 15.199}, {"adult": false, "backdrop_path": "/tr6OExnBfjLADi9OyZoW308mPAp.jpg", "genre_ids": [18, 35, 10749], "id": 74643, "original_language": "en", "original_title": "The Artist", "overview": "Hollywood, 1927: As silent movie star George Valentin wonders if the arrival of talking pictures will cause him to fade into oblivion, he sparks with Peppy Miller, a young dancer set for a big break.", "poster_path": "/i0mpvMIIjyubXsVKug9vX0lYpnd.jpg", "release_date": "2011-06-26", "title": "The Artist", "video": false, "vote_average": 7.4, "vote_count": 1977, "popularity": 12.71}, {"id": 7453, "video": false, "vote_count": 2554, "vote_average": 6.7, "title": "The Hitchhiker's Guide to the Galaxy", "release_date": "2005-04-28", "original_language": "en", "original_title": "The Hitchhiker's Guide to the Galaxy", "genre_ids": [12, 35, 878, 10751], "backdrop_path": "/kMf3ewax3ZeiSESaPQxBAReQzDD.jpg", "adult": false, "overview": "Mere seconds before the Earth is to be demolished by an alien construction crew, Arthur Dent is swept off the planet by his friend Ford Prefect, a researcher penning a new edition of \"The Hitchhiker's Guide to the Galaxy.\"", "poster_path": "/fOb4cJMhnZ11BoHNUii3Vcfo3XU.jpg", "popularity": 17.108}, {"id": 80321, "video": false, "vote_count": 3743, "vote_average": 6.5, "title": "Madagascar 3: Europe's Most Wanted", "release_date": "2012-06-06", "original_language": "en", "original_title": "Madagascar 3: Europe's Most Wanted", "genre_ids": [16, 35, 10751], "backdrop_path": "/alkQ9DQJdZutBCKdEHXUVCZnuAF.jpg", "adult": false, "overview": "Animal pals Alex, Marty, Melman, and Gloria are still trying to make it back to New York's Central Park Zoo. They are forced to take a detour to Europe to find the penguins and chimps who broke the bank at a Monte Carlo casino. When French animal-control officer Capitaine Chantel DuBois picks up their scent, Alex and company are forced to hide out in a traveling circus.", "poster_path": "/wd7NcMifnuf66gD2Fm7Tzz3yJ54.jpg", "popularity": 21.834}, {"id": 460793, "video": false, "vote_count": 933, "vote_average": 6.2, "title": "Olaf's Frozen Adventure", "release_date": "2017-10-27", "original_language": "en", "original_title": "Olaf's Frozen Adventure", "genre_ids": [12, 16, 35, 14, 10402, 10751], "backdrop_path": "/9K4QqQZg4TVXcxBGDiVY4Aey3Rn.jpg", "adult": false, "overview": "Olaf is on a mission to harness the best holiday traditions for Anna, Elsa, and Kristoff.", "poster_path": "/As8WTtxXs9e3cBit3ztTf7zoRmm.jpg", "popularity": 26.393}, {"adult": false, "backdrop_path": "/twGxeStlGooWV3gP6ZIcSNuQ6jf.jpg", "genre_ids": [12, 16, 10751, 14], "id": 81684, "original_language": "en", "original_title": "The Gruffalo's Child", "overview": "A follow up to the 2009 animated feature and adapted from the childrens' book by Julia Donaldson and Alex Scheffler.  The Gruffalo's child explores the deep dark wood in search of the big bad mouse and meets the Snake, Owl and Fox in the process.  She eventually finds the mouse, who manages to outwit her like the Gruffalo before!", "poster_path": "/qaGH2AoaLvoGXURQtNzj1nw6oZd.jpg", "release_date": "2011-12-25", "title": "The Gruffalo's Child", "video": false, "vote_average": 6.9, "vote_count": 73, "popularity": 13.766}, {"adult": false, "backdrop_path": null, "genre_ids": [], "id": 616262, "original_language": "ar", "original_title": "All Come From Dust", "overview": "A loop of edgeless bend. You were its doom, he was its bloom. You were its tomb, he was its womb. You were its gloom, he was its loom. For Heaven and Hell, were words made of fume.", "poster_path": null, "release_date": "2019-08-13", "title": "All Come From Dust", "video": false, "vote_average": 5.0, "vote_count": 1, "popularity": 0.6}, {"id": 621733, "video": false, "vote_count": 0, "vote_average": 0.0, "title": "A Trip to the Seaside", "release_date": "2019-08-30", "original_language": "en", "original_title": "A Trip to the Seaside", "genre_ids": [99], "backdrop_path": null, "adult": false, "overview": "Experimental short film on the excitement and rush of a day trip", "poster_path": "/AuZVhpoJ4jm2LWDhoJKfxQfhDAi.jpg", "popularity": 1.324}, {"id": 828, "video": false, "vote_count": 556, "vote_average": 7.5, "title": "The Day the Earth Stood Still", "release_date": "1951-09-17", "original_language": "en", "original_title": "The Day the Earth Stood Still", "genre_ids": [878], "backdrop_path": "/uExEupzfV7Ffau0H98aefUU0zcG.jpg", "adult": false, "overview": "An alien and a robot land on earth after World War II and tell mankind to be peaceful or face destruction. A classic science fiction film from Robert Wise with an exceptional message.", "poster_path": "/x2DquTpLTq54aPFDnqlwY7apCC3.jpg", "popularity": 28.171}, {"id": 329996, "video": false, "vote_count": 2324, "vote_average": 6.6, "title": "Dumbo", "release_date": "2019-03-27", "original_language": "en", "original_title": "Dumbo", "genre_ids": [12, 14, 10751], "backdrop_path": "/5tFt6iuGnKapHl5tw0X0cKcnuVo.jpg", "adult": false, "overview": "A young elephant, whose oversized ears enable him to fly, helps save a struggling circus, but when the circus plans a new venture, Dumbo and his friends discover dark secrets beneath its shiny veneer.", "poster_path": "/A7XkpLfNH0El2yyDLc4b0KLAKvE.jpg", "popularity": 32.102}, {"id": 68728, "video": false, "vote_count": 5070, "vote_average": 5.8, "title": "Oz the Great and Powerful", "release_date": "2013-03-07", "original_language": "en", "original_title": "Oz the Great and Powerful", "genre_ids": [12, 14, 10751], "backdrop_path": "/4cCQkOv4GfQoTtDzHl54KS3S39N.jpg", "adult": false, "overview": "Oscar Diggs, a small-time circus illusionist and con-artist, is whisked from Kansas to the Land of Oz where the inhabitants assume he's the great wizard of prophecy, there to save Oz from the clutches of evil.", "poster_path": "/7qzLIcYR7ev7iXngY8NKHBZHwwT.jpg", "popularity": 15.537}, {"id": 316029, "video": false, "vote_count": 5849, "vote_average": 8.0, "title": "The Greatest Showman", "release_date": "2017-12-20", "original_language": "en", "original_title": "The Greatest Showman", "genre_ids": [18], "backdrop_path": "/zpq404Sk7qQ7N4x3xOeNgp74GtU.jpg", "adult": false, "overview": "The story of American showman P.T. Barnum, founder of the circus that became the famous traveling Ringling Bros. and Barnum & Bailey Circus.", "poster_path": "/b9CeobiihCx1uG1tpw8hXmpi7nm.jpg", "popularity": 33.03}, {"id": 326359, "video": false, "vote_count": 1179, "vote_average": 6.8, "title": "Frozen Fever", "release_date": "2015-03-09", "original_language": "en", "original_title": "Frozen Fever", "genre_ids": [12, 16, 10751], "backdrop_path": "/ubioPGniCfDiASmYYpeJs5RRNaC.jpg", "adult": false, "overview": "On Anna's birthday, Elsa and Kristoff are determined to give her the best celebration ever, but Elsa's icy powers may put more than just the party at risk.", "poster_path": "/lKJiVPzsAO9IJ4LKWXZ8vkR2bg4.jpg", "popularity": 17.061}, {"id": 1585, "video": false, "vote_count": 2258, "vote_average": 8.2, "title": "It's a Wonderful Life", "release_date": "1946-12-20", "original_language": "en", "original_title": "It's a Wonderful Life", "genre_ids": [18, 14, 10751], "backdrop_path": "/nMomMy1sD3SN2QsKop3zBXCJfDJ.jpg", "adult": false, "overview": "A holiday favourite for generations...  George Bailey has spent his entire life giving to the people of Bedford Falls.  All that prevents rich skinflint Mr. Potter from taking over the entire town is George's modest building and loan company.  But on Christmas Eve the business's $8,000 is lost and George's troubles begin.", "poster_path": "/bSqt9rhDZx1Q7UZ86dBPKdNomp2.jpg", "popularity": 28.472}, {"id": 700, "video": false, "vote_count": 991, "vote_average": 6.3, "title": "Octopussy", "release_date": "1983-06-05", "original_language": "en", "original_title": "Octopussy", "genre_ids": [28, 12, 53], "backdrop_path": "/nOp4RM4AYlW8Ux0XHBTqXbPlSgY.jpg", "adult": false, "overview": "James Bond is sent to investigate after a fellow \u201c00\u201d agent is found dead with a priceless Faberg\u00e9 egg. James Bond follows the mystery and uncovers a smuggling scandal and a Russian General who wants to provoke a new World War.", "poster_path": "/s1GeJcwTclopbed1Bo2hjunSika.jpg", "popularity": 21.346}, {"id": 14813, "video": false, "vote_count": 456, "vote_average": 7.6, "title": "Mickey's Christmas Carol", "release_date": "1983-10-19", "original_language": "en", "original_title": "Mickey's Christmas Carol", "genre_ids": [16, 10751], "backdrop_path": "/fDK3xeAcQfQ40ZUULgZshElkspa.jpg", "adult": false, "overview": "It is an adaptation of the Charles Dickens classic A Christmas Carol, featuring Scrooge McDuck as his namesake and inspiration Ebenezer Scrooge and Mickey Mouse as Bob Cratchit. This film was based on a 1972 audio musical entitled Disney's A Christmas Carol. It is a twenty-four minute animated short film produced by Walt Disney Productions as an accompaniment to a re-release of The Rescuers.", "poster_path": "/29iF1IiC3ZyJQ1kmTf4LD8p8oro.jpg", "popularity": 18.001}, {"id": 19, "video": false, "vote_count": 1340, "vote_average": 8.2, "title": "Metropolis", "release_date": "1927-01-10", "original_language": "de", "original_title": "Metropolis", "genre_ids": [18, 878], "backdrop_path": "/gmH0N0bdlYGN1EUr8U2cMQYyg78.jpg", "adult": false, "overview": "In a futuristic city sharply divided between the working class and the city planners, the son of the city's mastermind falls in love with a working class prophet who predicts the coming of a savior to mediate their differences.", "poster_path": "/qriaeUUwdmlgethK3aSAx68mG05.jpg", "popularity": 20.574}, {"adult": false, "backdrop_path": "/gt7HbwIA5xS1s8jrjy18t3Pfnvz.jpg", "genre_ids": [18], "id": 705, "original_language": "en", "original_title": "All About Eve", "overview": "From the moment she glimpses her idol at the stage door, Eve Harrington is determined to take the reins of power away from the great actress Margo Channing. Eve maneuvers her way into Margo's Broadway role, becomes a sensation and even causes turmoil in the lives of Margo's director boyfriend, her playwright and his wife. Only the cynical drama critic sees through Eve, admiring her audacity and perfect pattern of deceit.", "poster_path": "/6numIZH6uR3NlJgY9m7nGH0jhs.jpg", "release_date": "1950-10-06", "title": "All About Eve", "video": false, "vote_average": 8.2, "vote_count": 783, "popularity": 14.777}], "total_pages": 837, "total_results": 16727}, "recommendations": {"page": 1, "results": [{"id": 962, "video": false, "vote_count": 721, "vote_average": 8.0, "title": "The Gold Rush", "release_date": "1925-06-25", "original_language": "en", "original_title": "The Gold Rush", "genre_ids": [12, 35, 18], "backdrop_path": "/m5eYy0SY33hLnxWAdrILJddTi49.jpg", "adult": false, "overview": "A lone prospector ventures into Alaska looking for gold. He gets mixed up with some burly characters and falls in love with the beautiful Georgia. He tries to win her heart with his singular charm.", "poster_path": "/eQRFo1qwRREYwj47Yoe1PisgOle.jpg", "popularity": 12.609}, {"id": 28971, "video": false, "vote_count": 233, "vote_average": 8.0, "title": "Limelight", "release_date": "1952-10-31", "original_language": "en", "original_title": "Limelight", "genre_ids": [35, 18, 10749], "backdrop_path": "/pVPv0VEavA2aVk9ZFrBw9XIUNL9.jpg", "adult": false, "overview": "A fading music hall comedian tries to help a despondent ballet dancer learn to walk and to again feel confident about life.", "poster_path": "/xOA7iatMwNAS82XUCPTZVY4Y90R.jpg", "popularity": 9.484}, {"adult": false, "backdrop_path": "/sDVzAg9Ofq6MIXYFJee6OGwWIhQ.jpg", "genre_ids": [35, 80, 18], "id": 30588, "original_language": "en", "original_title": "Monsieur Verdoux", "overview": "The film is about an unemployed banker, Henri Verdoux, and his sociopathic methods of attaining income. While being both loyal and competent in his work, Verdoux has been laid-off. To make money for his wife and child, he marries wealthy widows and then murders them. His crime spree eventually works against him when two particular widows break his normal routine.", "poster_path": "/6LcFw7KyghfBo2vqk3cpdqPu4PW.jpg", "release_date": "1947-04-11", "title": "Monsieur Verdoux", "video": false, "vote_average": 8.0, "vote_count": 172, "popularity": 9.572}, {"adult": false, "backdrop_path": "/wEo4UtBAWdB4aOmQ9wRjI1aS7Dt.jpg", "genre_ids": [35, 18], "id": 10098, "original_language": "en", "original_title": "The Kid", "overview": "A tramp cares for a boy after he's abandoned as a newborn by his mother. Later the mother has a change of heart and aches to be reunited with her son.", "poster_path": "/drgMcyTsySQBnUPGaBThCHGdlWT.jpg", "release_date": "1921-02-06", "title": "The Kid", "video": false, "vote_average": 8.3, "vote_count": 976, "popularity": 12.296}, {"id": 901, "video": false, "vote_count": 1026, "vote_average": 8.4, "title": "City Lights", "release_date": "1931-02-01", "original_language": "xx", "original_title": "City Lights", "genre_ids": [35, 18, 10749], "backdrop_path": "/vT6ux2rdyg2kexuLisO5Ygz7pHg.jpg", "adult": false, "overview": "City Lights is the first silent film that Charlie Chaplin directed after he established himself with sound accompanied films. The film is about a penniless man who falls in love with a flower girl.", "poster_path": "/bXNvzjULc9jrOVhGfjcc64uKZmZ.jpg", "popularity": 14.294}, {"adult": false, "backdrop_path": "/sDTYmqNOxIwB4efn7FwYSa0hK0s.jpg", "genre_ids": [28, 35], "id": 25768, "original_language": "en", "original_title": "Steamboat Bill, Jr.", "overview": "The just out of college effete son of a no-nonsense steamboat captain comes to visit his father whom he's not seen since he was little.", "poster_path": "/soiHOVFz0LiuZEbbj7Aom7wDCJ4.jpg", "release_date": "1928-02-14", "title": "Steamboat Bill, Jr.", "video": false, "vote_average": 7.8, "vote_count": 142, "popularity": 12.715}, {"id": 992, "video": false, "vote_count": 362, "vote_average": 8.2, "title": "Sherlock, Jr.", "release_date": "1924-04-19", "original_language": "en", "original_title": "Sherlock, Jr.", "genre_ids": [28, 35, 9648], "backdrop_path": "/l3RiIjaN1peXQ2lAwnpF33Xb5R0.jpg", "adult": false, "overview": "A film projectionist longs to be a detective, and puts his meagre skills to work when he is framed by a rival for stealing his girlfriend's father's pocketwatch.", "poster_path": "/1G9r3rqtbFAQuyWKOZm4Y5J5s7Q.jpg", "popularity": 10.459}, {"id": 22596, "video": false, "vote_count": 182, "vote_average": 7.9, "title": "Safety Last!", "release_date": "1923-04-01", "original_language": "en", "original_title": "Safety Last!", "genre_ids": [28, 35, 10749], "backdrop_path": "/i3RzSYQt5kj2n39Gv16xv9v9wkc.jpg", "adult": false, "overview": "When a store clerk organizes a contest to climb the outside of a tall building, circumstances force him to make the perilous climb himself.", "poster_path": "/U8FVAaJvYJwjGZe34hIjj8AqvX.jpg", "popularity": 10.933}, {"id": 36208, "video": false, "vote_count": 144, "vote_average": 7.5, "title": "A Dog's Life", "release_date": "1918-04-14", "original_language": "en", "original_title": "A Dog's Life", "genre_ids": [35, 18], "backdrop_path": "/nhdKUNC6diqOAMtZdudttvguBb1.jpg", "adult": false, "overview": "The Tramp and his dog companion struggle to survive in the inner city.", "poster_path": "/fCjliYnnHFGqw9roMINAfADf0cv.jpg", "popularity": 6.638}, {"id": 32600, "video": false, "vote_count": 112, "vote_average": 7.6, "title": "Seven Chances", "release_date": "1925-03-11", "original_language": "en", "original_title": "Seven Chances", "genre_ids": [35, 10749], "backdrop_path": "/lAs4jD1XzsHnU4bkJcO2U2UkUFa.jpg", "adult": false, "overview": "Struggling stockbroker Jimmie Shannon learns that, if he gets married by 7 p.m. on his 27th birthday -- which is today -- he'll inherit $7 million from an eccentric relative.", "poster_path": "/a1dHRDzibP33nnIk48UkXVjZdWs.jpg", "popularity": 8.058}, {"id": 28973, "video": false, "vote_count": 79, "vote_average": 7.0, "title": "A King in New York", "release_date": "1957-09-12", "original_language": "en", "original_title": "A King in New York", "genre_ids": [35, 18], "backdrop_path": "/k69jSaKy2KtMMM7PfPUBf0RrDIz.jpg", "adult": false, "overview": "Due to a revolution in his country, King Shahdov comes to New York\u2014almost broke. To get some money he goes to TV, making commercials and meets the child from communist parents. Due to this he is suddenly a suspected as a communist himself and has to face one of McCarthy's hearings.", "poster_path": "/b3z82K4UCHSJR2w8uoBmhl1tOVw.jpg", "popularity": 8.981}, {"adult": false, "backdrop_path": "/pvLWhA71bklYkTtUdWjDvtFj6RH.jpg", "genre_ids": [28, 35], "id": 32318, "original_language": "en", "original_title": "The Navigator", "overview": "The wealthy and impulsive Rollo Treadway decides to propose to his beautiful socialite neighbor, Betsy O'Brien. Alhough Betsy turns Rollo down, he still opts go on the cruise that he intended as their honeymoon. When circumstances find both Rollo and Betsy on the wrong ship, they end up having adventures on the high seas.", "poster_path": "/Av9JzUEpVw7N1HWrBd2s84oxcS2.jpg", "release_date": "1924-10-13", "title": "The Navigator", "video": false, "vote_average": 7.4, "vote_count": 88, "popularity": 7.909}, {"id": 31411, "video": false, "vote_count": 146, "vote_average": 8.1, "title": "The Cameraman", "release_date": "1928-09-10", "original_language": "en", "original_title": "The Cameraman", "genre_ids": [35, 18, 10749, 10751], "backdrop_path": "/kDkgVm79pJ98dLvWWJnlJSFjBpj.jpg", "adult": false, "overview": "A photographer takes up newsreel shooting to impress a secretary.", "poster_path": "/cLVJMJNW3VavnB1CZqbEC9GwSkR.jpg", "popularity": 7.261}, {"id": 631, "video": false, "vote_count": 368, "vote_average": 8.0, "title": "Sunrise: A Song of Two Humans", "release_date": "1927-11-04", "original_language": "en", "original_title": "Sunrise: A Song of Two Humans", "genre_ids": [18, 10749], "backdrop_path": "/jAhfMoV8TCIHuTiGz49nA04v6bp.jpg", "adult": false, "overview": "A married farmer falls under the spell of a slatternly woman from the city, who tries to convince him to drown his wife.", "poster_path": "/tyxjxpwr9NiVtSeITtVXuhp84Zl.jpg", "popularity": 9.485}, {"adult": false, "backdrop_path": "/4tbUsrndxsHcHsJE3jGNxVtlZj3.jpg", "genre_ids": [35, 10749], "id": 701, "original_language": "en", "original_title": "Our Hospitality", "overview": "A man returns to his Appalachian homestead. On the trip, he falls for a young woman. The only problem is her family has vowed to kill every member of his family.", "poster_path": "/wgqSMFkFQEdwFFAdbhCRi91iwXT.jpg", "release_date": "1923-11-19", "title": "Our Hospitality", "video": false, "vote_average": 7.6, "vote_count": 116, "popularity": 7.43}, {"adult": false, "backdrop_path": "/dmtvvDJPBLLkjHgA4Oj7WBa27s2.jpg", "genre_ids": [12, 28, 35], "id": 961, "original_language": "en", "original_title": "The General", "overview": "During America\u2019s Civil War Union spies steal engineer Johnnie Gray's beloved locomotive The General - his lady love, Annabelle Lee, aboard an attached boxcar - and he single-handedly must do all in his power to both get The General back and to rescue Annabelle. Released throughout most of the world in 1927, this Silent comedy-action film flopped when originally released, but now is regarded as one of the great American motion pictures. The story is based on actual historic events.", "poster_path": "/hjK9y09NjHOqAaz6PfOmzxU1qCT.jpg", "release_date": "1926-12-31", "title": "The General", "video": false, "vote_average": 8.1, "vote_count": 525, "popularity": 15.424}, {"adult": false, "backdrop_path": "/kz2VjnTOcbqBLc6Q5o7xlH9w0PM.jpg", "genre_ids": [35], "id": 47653, "original_language": "en", "original_title": "The Immigrant", "overview": "An European immigrant endures a challenging voyage only to get into trouble as soon as he arrives in New York.", "poster_path": "/eQokuAbdbmx1KICBtvQdm4V7SeC.jpg", "release_date": "1917-06-17", "title": "The Immigrant", "video": false, "vote_average": 7.4, "vote_count": 134, "popularity": 7.14}, {"adult": false, "backdrop_path": "/xbTxvQ9dC7ci2tXM4EVj1qPufsY.jpg", "genre_ids": [18, 14, 27], "id": 10728, "original_language": "de", "original_title": "Faust \u2013 Eine deutsche Volkssage", "overview": "God and Satan war over earth; to settle things, they wager on the soul of Faust, a learned and prayerful alchemist.", "poster_path": "/qVm0rfvoT72pabRR87AE36kxmR0.jpg", "release_date": "1926-10-13", "title": "Faust", "video": false, "vote_average": 8.0, "vote_count": 136, "popularity": 7.357}, {"id": 28974, "video": false, "vote_count": 52, "vote_average": 6.8, "title": "A Woman of Paris", "release_date": "1923-10-01", "original_language": "en", "original_title": "A Woman of Paris: A Drama of Fate", "genre_ids": [18, 10749], "backdrop_path": "/fWrMXTxLz4DGjXjpYfwdXMEor1h.jpg", "adult": false, "overview": "When Marie St. Clair believes she has been jilted by her artist fiance Jean, she decides to leave for Paris on her own. After spending a year in the city as a mistress of the wealthy Pierre Revel, she is reunited with Jean by chance. This leaves her with the choice between a glamorous life in Paris, and the true love she left behind.", "poster_path": "/56ggoO27MS0GXsPx0gpri7K4ixC.jpg", "popularity": 6.962}, {"adult": false, "backdrop_path": "/3MzBojkWRQAAGHnEFhQyTssu7hQ.jpg", "genre_ids": [35], "id": 47650, "original_language": "en", "original_title": "Easy Street", "overview": "A derelict, huddled under the steps of a missionary church, feels enlightened by the sermon of a passionate preacher and infatuated by the beauty of the congregation's pianist, in such a way that he tries to improve his life of poverty by becoming a policeman. His first assignment will be to patrol along Easy Street, the turf of a vicious bully and his criminal gang.", "poster_path": "/iwC1esWImnV0CvAB7j3KQ9nXxG4.jpg", "release_date": "1917-01-22", "title": "Easy Street", "video": false, "vote_average": 7.1, "vote_count": 80, "popularity": 5.808}], "total_pages": 2, "total_results": 40}, "credits": {"cast": [{"cast_id": 4, "character": "A Tramp", "credit_id": "52fe45bfc3a368484e06cae5", "gender": 2, "id": 13848, "name": "Charlie Chaplin", "order": 0, "profile_path": "/oEcTfMUIGSaAq2fN8O2nCMzcPhj.jpg"}, {"cast_id": 1, "character": "The Circus Proprietor and Ring Master", "credit_id": "52fe45bfc3a368484e06cad5", "gender": 2, "id": 13855, "name": "Al Ernest Garcia", "order": 1, "profile_path": "/98wGaV0ibbtuvucy2wNLMXhdgqo.jpg"}, {"cast_id": 5, "character": "His Step-daughter, A Circus Rider", "credit_id": "52fe45bfc3a368484e06cae9", "gender": 1, "id": 147962, "name": "Merna Kennedy", "order": 2, "profile_path": "/z7a2thEyzbz2eFcwYEiDVH92Pxr.jpg"}, {"cast_id": 6, "character": "Rex, A Tight Rope Walker / Disgruntled Property Man / Clown", "credit_id": "52fe45bfc3a368484e06caed", "gender": 2, "id": 147963, "name": "Harry Crocker", "order": 3, "profile_path": "/zU1gFnjgJpBO1Blek4s7FI9iHBj.jpg"}, {"cast_id": 7, "character": "A Magician", "credit_id": "52fe45bfc3a368484e06caf1", "gender": 2, "id": 120701, "name": "George Davis", "order": 4, "profile_path": "/bYZ6eVY8RTYZHuWORH2mKrtQ5RK.jpg"}, {"cast_id": 8, "character": "An Old Clown", "credit_id": "52fe45bfc3a368484e06caf5", "gender": 2, "id": 14438, "name": "Henry Bergman", "order": 5, "profile_path": "/lXhkLU19RhgFD95zx84jjXhhyE.jpg"}, {"cast_id": 9, "character": "The Head Property Man", "credit_id": "52fe45bfc3a368484e06caf9", "gender": 2, "id": 30194, "name": "Tiny Sandford", "order": 6, "profile_path": "/kTIvxCBa3Z168aIZoFKvuPIAQYb.jpg"}, {"cast_id": 10, "character": "An Assistant Property Man / Clown", "credit_id": "52fe45bfc3a368484e06cafd", "gender": 2, "id": 21310, "name": "John Rand", "order": 7, "profile_path": "/hVv5NHtoCvIPX7V4eYTj78cEzdF.jpg"}, {"cast_id": 11, "character": "A Pickpocket", "credit_id": "52fe45bfc3a368484e06cb01", "gender": 2, "id": 147964, "name": "Steve Murphy", "order": 8, "profile_path": null}], "crew": [{"credit_id": "52fe45bfc3a368484e06cadb", "department": "Directing", "gender": 2, "id": 13848, "job": "Director", "name": "Charlie Chaplin", "profile_path": "/oEcTfMUIGSaAq2fN8O2nCMzcPhj.jpg"}, {"credit_id": "5cf3e9310e0a261186cb70c5", "department": "Editing", "gender": 2, "id": 13848, "job": "Editor", "name": "Charlie Chaplin", "profile_path": "/oEcTfMUIGSaAq2fN8O2nCMzcPhj.jpg"}, {"credit_id": "5be728d4c3a3681746014359", "department": "Production", "gender": 2, "id": 13848, "job": "Producer", "name": "Charlie Chaplin", "profile_path": "/oEcTfMUIGSaAq2fN8O2nCMzcPhj.jpg"}, {"credit_id": "52fe45bfc3a368484e06cae1", "department": "Writing", "gender": 2, "id": 13848, "job": "Writer", "name": "Charlie Chaplin", "profile_path": "/oEcTfMUIGSaAq2fN8O2nCMzcPhj.jpg"}, {"credit_id": "5cf3e94ec3a368735b260c65", "department": "Sound", "gender": 2, "id": 13848, "job": "Songs", "name": "Charlie Chaplin", "profile_path": "/oEcTfMUIGSaAq2fN8O2nCMzcPhj.jpg"}, {"credit_id": "5cf3e93fc3a36818da1fadfd", "department": "Sound", "gender": 2, "id": 13848, "job": "Music", "name": "Charlie Chaplin", "profile_path": "/oEcTfMUIGSaAq2fN8O2nCMzcPhj.jpg"}, {"credit_id": "5b92f1049251416568007bef", "department": "Camera", "gender": 2, "id": 14020, "job": "Director of Photography", "name": "Roland Totheroh", "profile_path": null}]}}