{"adult": false, "backdrop_path": null, "belongs_to_collection": null, "budget": 0, "genres": [{"id": 10402, "name": "Music"}, {"id": 18, "name": "Drama"}], "homepage": null, "id": 290083, "imdb_id": "tt0809918", "original_language": "ja", "original_title": "\u30c1\u30a7\u30b1\u30e9\u30c3\u30c1\u30e7!!", "overview": "Tomboy Yui (Mao Inoue) brings her 3 male friends along with her to see a live performance of local Okinawan rap group, \u201cWorkaholic\u201d. Upon witnessing the crowd reaction, the boys decide to start a rap group of their own to impress chicks\u2014while Toru (Hayato Ichihara) has the added motivation of impressing his older, more sophisticated love interest Nagisa (Ayumi Ito). With only 2 weeks to learn how to play instruments and prepare for their first show, the performance is predictably humiliating. In order to save pride they decide to give it another shot, but this time they ditch the instruments for a sampler and stay truer to themselves. Will Toru be able to capture Nagisa\u2019s heart? Will Yui ever confess her love to Toru or will she just keep practicing her advanced pro wrestling techniques on him instead?", "popularity": 0.6, "poster_path": "/8AsAjfEswJx1SaEHpFpnMr5l5Nq.jpg", "production_companies": [{"id": 3341, "logo_path": "/dTG5dXE1kU2mpmL9BNnraffckLU.png", "name": "Fuji Television Network", "origin_country": "JP"}], "production_countries": [{"iso_3166_1": "JP", "name": "Japan"}], "release_date": "2006-04-22", "revenue": 0, "runtime": 117, "spoken_languages": [{"iso_639_1": "ja", "name": "\u65e5\u672c\u8a9e"}], "status": "Released", "tagline": "", "title": "Check It Out, Yo!", "video": false, "vote_average": 4.5, "vote_count": 2, "keywords": {"keywords": [{"id": 898, "name": "hip-hop"}, {"id": 8676, "name": "okinawa"}]}, "similar": {"page": 1, "results": [{"id": 277216, "video": false, "vote_count": 2190, "vote_average": 7.7, "title": "Straight Outta Compton", "release_date": "2015-08-13", "original_language": "en", "original_title": "Straight Outta Compton", "genre_ids": [18, 10402], "backdrop_path": "/fdDTA06o5e7MRXnTGAf4EygL2MJ.jpg", "adult": false, "overview": "In 1987, five young men, using brutally honest rhymes and hardcore beats, put their frustration and anger about life in the most dangerous place in America into the most powerful weapon they had: their music.  Taking us back to where it all began, Straight Outta Compton tells the true story of how these cultural rebels\u2014armed only with their lyrics, swagger, bravado and raw talent\u2014stood up to the authorities that meant to keep them down and formed the world\u2019s most dangerous group, N.W.A.  And as they spoke the truth that no one had before and exposed life in the hood, their voice ignited a social revolution that is still reverberating today.", "poster_path": "/X7S1RtotXOZNV7OlgCfh5VKZSB.jpg", "popularity": 19.816}, {"id": 650, "video": false, "vote_count": 788, "vote_average": 7.5, "title": "Boyz n the Hood", "release_date": "1991-07-12", "original_language": "en", "original_title": "Boyz n the Hood", "genre_ids": [80, 18], "backdrop_path": "/yhlwtLj4VJ9xs4ISbOqMFz3yB6.jpg", "adult": false, "overview": "Boyz n the Hood is the popular and successful film and social criticism from John Singleton about the conditions in South Central Los Angeles where teenagers are involved in gun fights and drug dealing on a daily basis.", "poster_path": "/9qQdpidN33pTEaxAP5gaTmCPGFq.jpg", "popularity": 9.661}, {"id": 6575, "video": false, "vote_count": 364, "vote_average": 6.6, "title": "Walk Hard: The Dewey Cox Story", "release_date": "2007-12-21", "original_language": "en", "original_title": "Walk Hard: The Dewey Cox Story", "genre_ids": [35, 18, 10402], "backdrop_path": "/y7EElGAn1tFE0Npmls7uvg4HPVj.jpg", "adult": false, "overview": "Following a childhood tragedy, Dewey Cox follows a long and winding road to music stardom. Dewey perseveres through changing musical styles, an addiction to nearly every drug known and bouts of uncontrollable rage.", "poster_path": "/2sc7qoLTqZC0nB2k1crwuVoKP6H.jpg", "popularity": 15.669}, {"id": 8328, "video": false, "vote_count": 1486, "vote_average": 6.6, "title": "Step Up 2: The Streets", "release_date": "2008-02-14", "original_language": "en", "original_title": "Step Up 2: The Streets", "genre_ids": [18, 10402, 10749], "backdrop_path": "/fGq48GZp2PLVgx9IwW5lBf4DBYJ.jpg", "adult": false, "overview": "When rebellious street dancer Andie lands at the elite Maryland School of the Arts, she finds herself fighting to fit in while also trying to hold onto her old life. When she joins forces with the schools hottest dancer, Chase, to form a crew of classmate outcasts to compete in Baltimore s underground dance battle The Streets.", "poster_path": "/5SwoeOUyfkS8s6aGB2bLYAL5jKR.jpg", "popularity": 18.121}, {"adult": false, "backdrop_path": "/t52ImvH020yOvoEhH6sRzC6XoCj.jpg", "genre_ids": [18], "id": 406, "original_language": "fr", "original_title": "La Haine", "overview": "Aimlessly whiling away their days in the concrete environs of their dead-end suburbia, Vinz, Hubert, and Said - a Jew, African, and an Arab - give human faces to France's immigrant populations, their bristling resentment at their social marginalization slowly simmering until it reaches a climactic boiling point.", "poster_path": "/jTzBED0leGPwWDqNewye11qzJgd.jpg", "release_date": "1995-05-31", "title": "La Haine", "video": false, "vote_average": 8.0, "vote_count": 1734, "popularity": 16.874}, {"id": 10476, "video": false, "vote_count": 178, "vote_average": 7.0, "title": "Hustle & Flow", "release_date": "2005-07-22", "original_language": "en", "original_title": "Hustle & Flow", "genre_ids": [18], "backdrop_path": "/7B05PWjXIW7uiO3x5ZpmuTQJsIO.jpg", "adult": false, "overview": "With help from his friends, a Memphis pimp in a mid-life crisis attempts to become a successful hip-hop emcee.", "poster_path": "/2LCm2B02i7dNDWqoOBDmiZTEuyl.jpg", "popularity": 9.962}, {"adult": false, "backdrop_path": "/jq4dyVYsCGQRTXKDLoqZwg4tbIr.jpg", "genre_ids": [18, 10402], "id": 65, "original_language": "en", "original_title": "8 Mile", "overview": "The setting is Detroit in 1995. The city is divided by 8 Mile, a road that splits the town in half along racial lines. A young white rapper, Jimmy \"B-Rabbit\" Smith Jr. summons strength within himself to cross over these arbitrary boundaries to fulfill his dream of success in hip hop. With his pal Future and the three one third in place, all he has to do is not choke.", "poster_path": "/dXzTrKwpbLpCqn8O70FUUhNbYQT.jpg", "release_date": "2002-11-08", "title": "8 Mile", "video": false, "vote_average": 7.0, "vote_count": 3870, "popularity": 18.577}, {"id": 114955, "video": false, "vote_count": 142, "vote_average": 6.4, "title": "Let It Shine", "release_date": "2012-06-15", "original_language": "en", "original_title": "Let It Shine", "genre_ids": [10402, 10751, 10770], "backdrop_path": "/bWQ5lqwgS9mrmmwfV6CJmW8Tucp.jpg", "adult": false, "overview": "The film follows a shy, talented musician who pens romantic hip-hop verses only to stand idly by as they're delivered to the girl of his dreams by a proxy, his best friend. Disney Channel original movie.", "poster_path": "/kuVKuMxyDLBYKsqMgOCf0zNtzV6.jpg", "popularity": 9.482}, {"adult": false, "backdrop_path": "/9YwwUNJKUsJ4mOERvUK9ITP0Qou.jpg", "genre_ids": [18, 35, 10749], "id": 245, "original_language": "en", "original_title": "About a Boy", "overview": "Will Freeman is a hip Londoner who one day realizes that his friends are all involved with the responsibilities of married life and that leaves him alone in the cold. Passing himself off as a single father, he starts to meet a string of single mums, confident in his ability to leave them behind when they start to ask for a commitment. But Will's hope of a continued bachelorhood is interrupted when he meets 12-year old Marcus, in many ways his complete opposite.", "poster_path": "/1kz4Q2v7cxwNnTfkjrujzWAVCne.jpg", "release_date": "2002-04-26", "title": "About a Boy", "video": false, "vote_average": 6.6, "vote_count": 1385, "popularity": 12.962}, {"id": 324786, "video": false, "vote_count": 7336, "vote_average": 8.1, "title": "Hacksaw Ridge", "release_date": "2016-10-07", "original_language": "en", "original_title": "Hacksaw Ridge", "genre_ids": [18, 36, 10752], "backdrop_path": "/zBK4QZONMQXhcgaJv1YYTdCW7q9.jpg", "adult": false, "overview": "WWII American Army Medic Desmond T. Doss, who served during the Battle of Okinawa, refuses to kill people and becomes the first Conscientious Objector in American history to receive the Congressional Medal of Honor.", "poster_path": "/bndiUFfJxNd2fYx8XO610L9a07m.jpg", "popularity": 23.616}, {"adult": false, "backdrop_path": "/51N8GQvpWKOxmq53UdkNRpBtXvg.jpg", "genre_ids": [28, 80, 53], "id": 2085, "original_language": "en", "original_title": "Romeo Must Die", "overview": "Two warring gang families (one African-American, the other Chinese) maneuver for bragging rights to the Oakland, California, docks. Hang Sing and Trish O'Day uncover a trail of deceit that leaves most of the warring factions dead \u2026 or worse!", "poster_path": "/pZuGxXuAFMIKilwMaDAHucCEaNt.jpg", "release_date": "2000-03-20", "title": "Romeo Must Die", "video": false, "vote_average": 6.0, "vote_count": 614, "popularity": 13.902}, {"adult": false, "backdrop_path": "/qYIag7ACS9todyiWyYQVG2PL0Iv.jpg", "genre_ids": [35], "id": 10607, "original_language": "en", "original_title": "Don't Be a Menace to South Central While Drinking Your Juice in the Hood", "overview": "When Ashtray (Shawn Wayans) moves to South Central L.A. to live with his father (who appears to be the same age he is) and grandmother (who likes to talk tough and smoke reefer), he falls in with his gang-banging cousin Loc Dog (Marlon Wayans), who along with the requisite pistols and Uzi carries a thermo-nuclear warhead for self-defense. Will Ashtray be able to keep living the straight life?", "poster_path": "/l6D9f9WbxdI4tyCmJGs56y8tQla.jpg", "release_date": "1996-01-12", "title": "Don't Be a Menace to South Central While Drinking Your Juice in the Hood", "video": false, "vote_average": 6.2, "vote_count": 412, "popularity": 19.933}, {"id": 298312, "video": false, "vote_count": 2924, "vote_average": 6.2, "title": "The Visit", "release_date": "2015-09-10", "original_language": "en", "original_title": "The Visit", "genre_ids": [27, 9648, 53], "backdrop_path": "/gbJlEeALVGo7kx8bC2q4EFWX1Xy.jpg", "adult": false, "overview": "The terrifying story of a brother and sister who are sent to their grandparents' remote Pennsylvania farm for a weeklong trip. Once the children discover that the elderly couple is involved in something deeply disturbing, they see their chances of getting back home are growing smaller every day.", "poster_path": "/32tNtTEQ1vIOLm1hEOSFkVwJT5D.jpg", "popularity": 24.632}, {"id": 614488, "video": false, "vote_count": 150, "vote_average": 7.3, "title": "Street Flow", "release_date": "2019-10-12", "original_language": "fr", "original_title": "Banlieusards", "genre_ids": [80, 18], "backdrop_path": "/jH1f7VaYtMCyqgJRoG7lCg8krxO.jpg", "adult": false, "overview": "Noumouk\u00e9, from the suburb of Paris, is about to decide which brother's foot steps to follow - the lawyer student Soulaymaan or the gangster Demba.", "poster_path": "/fOx4CTq9OM1CvcN3INfoDK0cw7l.jpg", "popularity": 12.424}, {"adult": false, "backdrop_path": "/5ZvUWVrdhRZwQsRlmR6a7KaUf8n.jpg", "genre_ids": [28, 80, 18, 53], "id": 16136, "original_language": "en", "original_title": "Juice", "overview": "Four Harlem friends -- Bishop, Q, Steel and Raheem -- dabble in petty crime, but they decide to go big by knocking off a convenience store. Bishop, the magnetic leader of the group, has the gun. But Q has different aspirations. He wants to be a DJ and happens to have a gig the night of the robbery. Unfortunately for him, Bishop isn't willing to take no for answer in a game where everything's for keeps.", "poster_path": "/qBPi6CwrdVwdhYFURRkEmAcsRtv.jpg", "release_date": "1992-01-17", "title": "Juice", "video": false, "vote_average": 7.1, "vote_count": 188, "popularity": 9.93}, {"id": 10028, "video": false, "vote_count": 699, "vote_average": 6.2, "title": "Honey", "release_date": "2003-11-24", "original_language": "en", "original_title": "Honey", "genre_ids": [10402, 10749, 10751], "backdrop_path": "/5EIo0RhsNbi7FkFkcf34nL2Z8Ch.jpg", "adult": false, "overview": "Honey Daniels dreams of making a name for herself as a hip-hop choreographer. When she's not busy hitting downtown clubs with her friends, she teaches dance classes at a nearby community center in Harlem, N.Y., as a way to keep kids off the streets. Honey thinks she's hit the jackpot when she meets a hotshot director casts her in one of his music videos. But, when he starts demanding sexual favors from her, Honey makes a decision that will change her life.", "poster_path": "/nC4W7JYMoqFxRBx2HR2MYDYq8Lr.jpg", "popularity": 16.362}, {"id": 603519, "video": false, "vote_count": 89, "vote_average": 6.4, "title": "Beats", "release_date": "2019-06-19", "original_language": "en", "original_title": "Beats", "genre_ids": [18, 10402], "backdrop_path": "/gdb1kP1O4DeORvYCD3sElP76dpT.jpg", "adult": false, "overview": "An agoraphobic hip-hop prodigy and a disgraced former music manager cross paths in Chicago\u2019s South Side and help each other face demons of their pasts.", "poster_path": "/b8P13nIvkkizVBzd2RpegsRt5zP.jpg", "popularity": 10.336}, {"id": 10634, "video": false, "vote_count": 907, "vote_average": 7.1, "title": "Friday", "release_date": "1995-04-26", "original_language": "en", "original_title": "Friday", "genre_ids": [35], "backdrop_path": "/isWyP4jWmcCHjUcanVwGBDwVSsA.jpg", "adult": false, "overview": "Craig and Smokey are two guys in Los Angeles hanging out on their porch on a Friday afternoon, smoking and drinking, looking for something to do.", "poster_path": "/z76scMklBnEC91CFqHcvqrS5coO.jpg", "popularity": 14.265}, {"adult": false, "backdrop_path": "/scRw6gAoO3CfgQnZjHCh2ZgU4Z1.jpg", "genre_ids": [80, 18, 878, 53], "id": 281, "original_language": "en", "original_title": "Strange Days", "overview": "Set in the year 1999 during the last days of the old millennium, the movie tells the story of Lenny Nero, an ex-cop who now deals with data-discs containing recorded memories and emotions. One day he receives a disc which contains the memories of a murderer killing a prostitute. Lenny investigates and is pulled deeper and deeper in a whirl of blackmail, murder and rape. Will he survive and solve the case?", "poster_path": "/rXvy5hG9OeVmgnv9w4IhQxhqEKD.jpg", "release_date": "1995-10-13", "title": "Strange Days", "video": false, "vote_average": 7.0, "vote_count": 663, "popularity": 17.431}, {"id": 8856, "video": false, "vote_count": 994, "vote_average": 6.1, "title": "The Karate Kid Part II", "release_date": "1986-06-18", "original_language": "en", "original_title": "The Karate Kid Part II", "genre_ids": [28, 12, 18, 10749, 10751], "backdrop_path": "/dRoRqvQahkeGsOKuCNdx4nPGfF.jpg", "adult": false, "overview": "Mr. Miyagi and Daniel take a trip to Okinawa to visit Mr. Miyagi's dying father. After arriving Mr. Miyagi finds he still has feelings for an old love. This stirs up trouble with an old rival who he originally left Okinawa to avoid. In the mean time, Daniel encounters a new love and also makes some enemies.", "poster_path": "/4zmEPGKrD3sgjHZUs99tknEBaJy.jpg", "popularity": 13.914}], "total_pages": 18, "total_results": 360}, "recommendations": {"page": 1, "results": [], "total_pages": 1, "total_results": 0}, "credits": {"cast": [{"cast_id": 1, "character": "Toru Isaka", "credit_id": "5405506d0e0a2658de00c1d2", "gender": 2, "id": 96472, "name": "Hayato Ichihara", "order": 1, "profile_path": "/fNA59YTFPQsk6tvANOh5gEZCunI.jpg"}, {"cast_id": 2, "character": "Yui Haebaru", "credit_id": "540550780e0a264d83000ddc", "gender": 1, "id": 124401, "name": "Mao Inoue", "order": 2, "profile_path": "/6PearnCbFJnQx0diGqjRFbIDcYD.jpg"}, {"cast_id": 3, "character": "Tetsuo Tamashiro", "credit_id": "540550840e0a2658db00bec6", "gender": 2, "id": 115648, "name": "Yuta Hiraoka", "order": 3, "profile_path": "/wo9QPp3tjVdjFvtKMCYMvjnBYpC.jpg"}, {"cast_id": 4, "character": "Akira Motobe", "credit_id": "5405509a0e0a2658ee00bd49", "gender": 0, "id": 111639, "name": "Tasuku Emoto", "order": 4, "profile_path": "/1cGfekGjCLp0LpZxzXeY7Lon6bU.jpg"}, {"cast_id": 5, "character": "Ryota Tarama", "credit_id": "540550ae0e0a264b09000df1", "gender": 2, "id": 133049, "name": "Tetsuji Tamayama", "order": 5, "profile_path": "/m8MMLMMB8SSjWWqSezxPiiinMh4.jpg"}, {"cast_id": 6, "character": "Nagisa Nakamura", "credit_id": "540550fb0e0a2658f100bdf0", "gender": 1, "id": 9707, "name": "Ayumi Ito", "order": 6, "profile_path": "/eqbLqppPaH5PuCZ02gXlhlLszse.jpg"}], "crew": [{"credit_id": "540550550e0a2658f100bdd8", "department": "Directing", "gender": 0, "id": 1359683, "job": "Director", "name": "Rieko Miyamoto", "profile_path": null}]}}