{"adult": false, "backdrop_path": null, "belongs_to_collection": null, "budget": 0, "genres": [{"id": 35, "name": "Comedy"}, {"id": 27, "name": "Horror"}, {"id": 878, "name": "Science Fiction"}], "homepage": null, "id": 290696, "imdb_id": "tt2363481", "original_language": "en", "original_title": "Dysmorphia", "overview": "Siblings find their dead uncle's secret stash VHS tapes. The tapes feature sick solicitors, gruesome dares, patricide, demonic technology, monstrous fruit and many more horrors. As they eagerly watch each of these shocking, bizarre, comedic and bloody movies, little do they know that they are conjuring something very ghoulish and gruesome. In the tradition of horror anthologies like V/H/S.", "popularity": 1.705, "poster_path": "/gnQoQRYmGRynpZG9sP14AWDAizE.jpg", "production_companies": [{"id": 41664, "logo_path": null, "name": "Psykik Junky Pictures", "origin_country": ""}], "production_countries": [{"iso_3166_1": "US", "name": "United States of America"}], "release_date": "2014-08-26", "revenue": 0, "runtime": 88, "spoken_languages": [{"iso_639_1": "en", "name": "English"}], "status": "Released", "tagline": "", "title": "Dysmorphia", "video": false, "vote_average": 1.5, "vote_count": 3, "keywords": {"keywords": [{"id": 163053, "name": "found footage"}, {"id": 209522, "name": "rip-off"}, {"id": 220508, "name": "short stories"}]}, "similar": {"page": 1, "results": [{"id": 50357, "video": false, "vote_count": 539, "vote_average": 5.0, "title": "Apollo 18", "release_date": "2011-07-20", "original_language": "en", "original_title": "Apollo 18", "genre_ids": [27, 878, 53], "backdrop_path": "/aHE8y4A4mlRCQbJ5oLbPkr5iznx.jpg", "adult": false, "overview": "Officially, Apollo 17 was the last manned mission to the moon. But a year later in 1973, three American astronauts were sent on a secret mission to the moon funded by the US Department of Defense. What you are about to see is the actual footage which the astronauts captured on that mission. While NASA denies it's authenticity, others say it's the real reason we've never gone back to the moon.", "poster_path": "/xmvkYqK28ds9JM4gyBJCSoYpm9T.jpg", "popularity": 13.079}, {"adult": false, "backdrop_path": "/swXcukNqS52UffiBSrG0M1pm3t6.jpg", "genre_ids": [27, 18, 53], "id": 38358, "original_language": "en", "original_title": "The Last Exorcism", "overview": "After years of performing \u201cexorcisms\u201d and taking believers\u2019 money, Reverend Marcus travels to rural Louisiana with a film crew so he can dispel what he believes is the myth of demonic possession. The dynamic reverend is certain that this will be another routine \u201cexorcism\u201d on a disturbed religious fanatic but instead comes upon the blood-soaked farm of the Sweetzer family and a true evil he would have never thought imaginable.", "poster_path": "/iWPm2Xlc5arD0oRb18k6MurmqHD.jpg", "release_date": "2010-08-27", "title": "The Last Exorcism", "video": false, "vote_average": 5.5, "vote_count": 573, "popularity": 8.943}, {"adult": false, "backdrop_path": "/jTA2BLjQuX9OUZVs0EFtMvksTCy.jpg", "genre_ids": [27, 53], "id": 38410, "original_language": "en", "original_title": "The Poughkeepsie Tapes", "overview": "When hundreds of videotapes showing torture, murder and dismemberment are found in an abandoned house, they reveal a serial killer's decade-long reign of terror and become the most disturbing collection of evidence homicide detectives have ever seen.", "poster_path": "/8ppkhu3pO3fnXr05YeE7ryKloVd.jpg", "release_date": "2007-04-27", "title": "The Poughkeepsie Tapes", "video": false, "vote_average": 5.9, "vote_count": 154, "popularity": 7.128}, {"id": 153738, "video": false, "vote_count": 115, "vote_average": 5.7, "title": "Frankenstein's Army", "release_date": "2013-01-24", "original_language": "en", "original_title": "Frankenstein's Army", "genre_ids": [28, 27], "backdrop_path": "/nVt3ND2yyqhdTGRVzbnC74kQZui.jpg", "adult": false, "overview": "Toward the end of World War II, Russian soldiers pushing into eastern Germany stumble across a secret Nazi lab, one that has unearthed and begun experimenting with the journal of one Dr. Victor Frankenstein. The scientists have used the legendary Frankenstein's work to assemble an army of super-soldiers stitched together from the body parts of their fallen comrades -- a desperate Hitler's last ghastly ploy to escape defeat", "poster_path": "/AvTrBNQMwpl10I9eIbZ3GomuUC8.jpg", "popularity": 7.64}, {"adult": false, "backdrop_path": "/6kVVfNT0auG6fU5SFQ1zbayNWUC.jpg", "genre_ids": [28, 53, 878], "id": 7191, "original_language": "en", "original_title": "Cloverfield", "overview": "Five young New Yorkers throw their friend a going-away party the night that a monster the size of a skyscraper descends upon the city. Told from the point of view of their video camera, the film is a document of their attempt to survive the most surreal, horrifying event of their lives.", "poster_path": "/qIegUGJqyMMCRjkKV1s7A9MqdJ8.jpg", "release_date": "2008-01-15", "title": "Cloverfield", "video": false, "vote_average": 6.5, "vote_count": 4429, "popularity": 18.322}, {"id": 641366, "video": false, "vote_count": 0, "vote_average": 0.0, "title": "El hombre Perfecto", "release_date": "2019-12-22", "original_language": "es", "original_title": "El hombre Perfecto", "genre_ids": [27, 53], "backdrop_path": "/q7qvb2IGvFvA86QPin04D4zh8Wv.jpg", "adult": false, "overview": "", "poster_path": "/5ypbGdZrUUwYVpnBR1gFJ8JCO4h.jpg", "popularity": 1.107}, {"id": 76726, "video": false, "vote_count": 3331, "vote_average": 6.7, "title": "Chronicle", "release_date": "2012-02-01", "original_language": "en", "original_title": "Chronicle", "genre_ids": [18, 878, 53], "backdrop_path": "/f54d3tpzdRW02IDIIVRuwiY2N3K.jpg", "adult": false, "overview": "Three high school students make an incredible discovery, leading to their developing uncanny powers beyond their understanding. As they learn to control their abilities and use them to their advantage, their lives start to spin out of control, and their darker sides begin to take over.", "poster_path": "/kdyrdFIt29FUmLIKvedAc2j4rpo.jpg", "popularity": 16.937}, {"id": 298312, "video": false, "vote_count": 2924, "vote_average": 6.2, "title": "The Visit", "release_date": "2015-09-10", "original_language": "en", "original_title": "The Visit", "genre_ids": [27, 9648, 53], "backdrop_path": "/gbJlEeALVGo7kx8bC2q4EFWX1Xy.jpg", "adult": false, "overview": "The terrifying story of a brother and sister who are sent to their grandparents' remote Pennsylvania farm for a weeklong trip. Once the children discover that the elderly couple is involved in something deeply disturbing, they see their chances of getting back home are growing smaller every day.", "poster_path": "/32tNtTEQ1vIOLm1hEOSFkVwJT5D.jpg", "popularity": 24.632}, {"adult": false, "backdrop_path": "/yosGyMJ2CkavMSGx6PhcZO6kCAV.jpg", "genre_ids": [878], "id": 17654, "original_language": "en", "original_title": "District 9", "overview": "Thirty years ago, aliens arrive on Earth. Not to conquer or give aid, but to find refuge from their dying planet. Separated from humans in a South African area called District 9, the aliens are managed by Multi-National United, which is unconcerned with the aliens' welfare but will do anything to master their advanced technology. When a company field agent contracts a mysterious virus that begins to alter his DNA, there is only one place he can hide: District 9.", "poster_path": "/axFmCRNQsW6Bto8XuJKo08MPPV5.jpg", "release_date": "2009-08-05", "title": "District 9", "video": false, "vote_average": 7.3, "vote_count": 5940, "popularity": 17.44}, {"id": 23827, "video": false, "vote_count": 3072, "vote_average": 5.9, "title": "Paranormal Activity", "release_date": "2009-09-25", "original_language": "en", "original_title": "Paranormal Activity", "genre_ids": [27, 9648], "backdrop_path": "/sPaDUSuVQy1SL7ybnxilgWzLDAQ.jpg", "adult": false, "overview": "A young couple begins to film the strange activities occurring in their house nightly, and find that there's something lurking in the darkness.", "poster_path": "/ns7J1iMSDs5UkEVjMXLPiss7Lrt.jpg", "popularity": 16.504}, {"adult": false, "backdrop_path": "/hssIPFFMwOG2eDcQtfn39yzjXJ3.jpg", "genre_ids": [35, 10402], "id": 341012, "original_language": "en", "original_title": "Popstar: Never Stop Never Stopping", "overview": "When his new album fails to sell records, pop/rap superstar Conner4real goes into a major tailspin and watches his celebrity high life begin to collapse. He'll try anything to bounce back, anything except reuniting with his old rap group The Style Boyz.", "poster_path": "/m9k2MCvZJWkV5DfJY9fueeeqNxb.jpg", "release_date": "2016-06-03", "title": "Popstar: Never Stop Never Stopping", "video": false, "vote_average": 6.6, "vote_count": 756, "popularity": 14.929}, {"id": 8329, "video": false, "vote_count": 2246, "vote_average": 7.1, "title": "[REC]", "release_date": "2007-04-10", "original_language": "es", "original_title": "[REC]", "genre_ids": [27, 9648], "backdrop_path": "/qJjGPJSXtCMOvBLJwusTGkiboYZ.jpg", "adult": false, "overview": "A television reporter and cameraman follow emergency workers into a dark apartment building and are quickly locked inside with something terrifying.", "poster_path": "/hJx9gqUJgWXRkFpIbCcNYrkqAQX.jpg", "popularity": 15.123}, {"id": 13812, "video": false, "vote_count": 662, "vote_average": 5.7, "title": "Quarantine", "release_date": "2008-10-10", "original_language": "en", "original_title": "Quarantine", "genre_ids": [27, 878], "backdrop_path": "/mQXCYqGUPt4Ld6UX6uljM5azbGb.jpg", "adult": false, "overview": "A television reporter and her cameraman are trapped inside a building quarantined by the CDC after the outbreak of a mysterious virus which turns humans into bloodthirsty killers.", "poster_path": "/diJgLy6vSGbNYNW5jZ1YpX7PHJ4.jpg", "popularity": 14.424}, {"id": 216282, "video": false, "vote_count": 1270, "vote_average": 5.9, "title": "Into the Storm", "release_date": "2014-08-06", "original_language": "en", "original_title": "Into the Storm", "genre_ids": [28, 53], "backdrop_path": "/i0umpdqVURR1VZFX67QGJEXKvLe.jpg", "adult": false, "overview": "As a new day begins in the town of Silverton, its residents have little reason to believe it will be anything other than ordinary. Mother Nature, however has other plans. In the span of just a few hours, an unprecedented onslaught of powerful tornadoes ravages Silverton. Storm trackers predict that the worst is still to come, as terrified residents seek shelter, and professional storm-chasers run toward the danger, hoping to study the phenomenon close up and get a once-in-a-lifetime shot.", "poster_path": "/dtuyhlOtqj8zPPFgTgWJ0bF3s2h.jpg", "popularity": 12.064}, {"id": 11031, "video": false, "vote_count": 792, "vote_average": 7.6, "title": "This Is Spinal Tap", "release_date": "1984-05-04", "original_language": "en", "original_title": "This Is Spinal Tap", "genre_ids": [35, 10402], "backdrop_path": "/o21qmruJenPD9YunYFUxHnojKac.jpg", "adult": false, "overview": "\"This Is Spinal Tap\" shines a light on the self-contained universe of a metal band struggling to get back on the charts, including everything from its complicated history of ups and downs, gold albums, name changes and undersold concert dates, along with the full host of requisite groupies, promoters, hangers-on and historians, sessions, release events and those special behind-the-scenes moments that keep it all real.", "poster_path": "/2VDPeoPJ2bKdmfuJxxCktx1hr5g.jpg", "popularity": 14.483}, {"id": 256274, "video": false, "vote_count": 1452, "vote_average": 6.2, "title": "As Above, So Below", "release_date": "2014-08-14", "original_language": "en", "original_title": "As Above, So Below", "genre_ids": [27, 53], "backdrop_path": "/fXkTpGqBdznxDtwIusSTwDfG5qp.jpg", "adult": false, "overview": "When a team of explorers ventures into the catacombs that lie beneath the streets of Paris, they uncover the dark secret that lies within this city of the dead.", "poster_path": "/rXhroOVTfR4Dde7Vci2L3FVGAZh.jpg", "popularity": 15.584}, {"id": 139038, "video": false, "vote_count": 966, "vote_average": 5.5, "title": "A Haunted House", "release_date": "2013-01-11", "original_language": "en", "original_title": "A Haunted House", "genre_ids": [35, 27], "backdrop_path": "/AbgdeWvmTv3UI2zknDWzKiuFwrU.jpg", "adult": false, "overview": "A spoof of all the \"found-footage/documentary style\" films released in recent years.", "poster_path": "/e2PehlDPj2WEeEuMVJZTOyTnZZZ.jpg", "popularity": 15.991}, {"adult": false, "backdrop_path": "/v6cvZfSAiUjvFVCCiaPNaZLA7gk.jpg", "genre_ids": [16, 35, 10751], "id": 9408, "original_language": "en", "original_title": "Surf's Up", "overview": "Cody is a surfing penguin from Shiverpool who dreams of making it big and being like his idol Big Z. On his journey, he discovers his talents are not all he thinks they are, and he must learn to accept that their is more to surfing than fame and fortune.", "poster_path": "/2Car4vWVDenBIMhfCjBvAHzameI.jpg", "release_date": "2007-06-08", "title": "Surf's Up", "video": false, "vote_average": 6.2, "vote_count": 1411, "popularity": 17.575}, {"id": 299245, "video": false, "vote_count": 650, "vote_average": 4.8, "title": "The Gallows", "release_date": "2015-07-10", "original_language": "en", "original_title": "The Gallows", "genre_ids": [27, 53], "backdrop_path": "/vt1eeVkxrpCWHeSFWl5GXGNghAJ.jpg", "adult": false, "overview": "20 years after a horrific accident during a small town school play, students at the school resurrect the failed show in a misguided attempt to honor the anniversary of the tragedy - but soon discover that some things are better left alone.", "poster_path": "/4oBk2DsYRO0VuloOX52ROmz2QhU.jpg", "popularity": 10.253}, {"id": 41436, "video": false, "vote_count": 1495, "vote_average": 5.7, "title": "Paranormal Activity 2", "release_date": "2010-10-20", "original_language": "en", "original_title": "Paranormal Activity 2", "genre_ids": [27, 53], "backdrop_path": "/ePa0OVXb4HargT4r1vxSe7AB96b.jpg", "adult": false, "overview": "Days after welcoming a newborn baby, Dan and Kristi Rey return home one day to find their house ransacked with seemingly no explanation. Their fear forces them to put in security cameras, which begin to capture strange activity around the house.", "poster_path": "/hFMMrqDR16yNRf77plyvbkxohg6.jpg", "popularity": 12.242}], "total_pages": 37, "total_results": 733}, "recommendations": {"page": 1, "results": [{"adult": false, "backdrop_path": null, "genre_ids": [53, 27], "id": 304706, "original_language": "en", "original_title": "Lost a Girl", "overview": "Having moved to the city for work, a stressed-out young professional begins to fear that a jealous colleague is framing her as incompetent - but the truth is even more terrifying.", "poster_path": "/2wapYPrDLpzntMGMmcwTEudqF2v.jpg", "release_date": "2015-10-28", "title": "Lost a Girl", "video": false, "vote_average": 2.5, "vote_count": 2, "popularity": 1.77}, {"adult": false, "backdrop_path": "/kn9jygp5gPnVaUzf8MUp5tLaTlh.jpg", "genre_ids": [28, 27], "id": 119640, "original_language": "en", "original_title": "Sleeper", "overview": "Enigmatically silent, and driven by love, the man known as Resnik was imprisoned for butchering another man and kidnapping the young girl at the heart of his obsession, Kelly. For the safety of his fellow inmates, Resnik was only ever allowed to wake, eat and exercise alone, after dark, he learned to like it. Now having escaped during a midnight transfer, Resnik is headed back to Moonlight Bay, and Detectives Raynor and Molloy have only 12 hours to stop him before the sun goes down, and the carnage begins, again. Written by Anonymous (IMDb.com).", "poster_path": "/4XQv3cbXSmW0lQ8C6pwkltfhecM.jpg", "release_date": "2012-10-03", "title": "Sleeper", "video": false, "vote_average": 5.0, "vote_count": 1, "popularity": 1.415}, {"adult": false, "backdrop_path": null, "genre_ids": [27], "id": 271050, "original_language": "en", "original_title": "Gallery Of Fear", "overview": "A malicious art critic is transported into four tales of murder, monsters and mayhem.", "poster_path": "/upJhzTMEjGJ9nheNRdkoJvCQGse.jpg", "release_date": "2012-06-23", "title": "Gallery Of Fear", "video": false, "vote_average": 2.3, "vote_count": 3, "popularity": 0.6}, {"adult": false, "backdrop_path": null, "genre_ids": [10749, 27, 35], "id": 274001, "original_language": "en", "original_title": "Die and Let Live", "overview": "Comedy - Benny throws a party to help woo his crush Stephanie. But when bloodthirsty zombies crash the party, Benny and his friends find themselves fighting for their lives! -  Josh Lively, Zane Crosby, Sarah Bauer", "poster_path": "/4AgFUC4zut2iaC56mPEluhJGosD.jpg", "release_date": "2006-01-01", "title": "Die and Let Live", "video": false, "vote_average": 2.0, "vote_count": 3, "popularity": 1.567}, {"adult": false, "backdrop_path": "/zkCPIJ57gHNsx9zpxxglQpM5wXM.jpg", "genre_ids": [878, 27], "id": 273805, "original_language": "en", "original_title": "The Zombinator", "overview": "College students from Youngstown, Ohio were planning a simple fashion blogging documentary before a zombie invasion changed their film, and their lives.  Teaming up with an ex-soldier turned zombie-hunter, the co-eds face threats from the undead and their corporate overlords.", "poster_path": "/fQGDA6CAwHuBlgnJ1fkxKMf3EgE.jpg", "release_date": "2012-09-15", "title": "The Zombinator", "video": false, "vote_average": 1.8, "vote_count": 4, "popularity": 2.083}], "total_pages": 1, "total_results": 5}, "credits": {"cast": [{"cast_id": 0, "character": "Nick", "credit_id": "562cce959251412853007d9c", "gender": 0, "id": 1526898, "name": "JD Fairman", "order": 1, "profile_path": null}, {"cast_id": 1, "character": "Jill", "credit_id": "562cce9dc3a3681b4b007195", "gender": 0, "id": 1526899, "name": "Kelsey Smoot", "order": 2, "profile_path": null}, {"cast_id": 2, "character": "Shawn", "credit_id": "562ccea8c3a3681b5c007753", "gender": 2, "id": 1102159, "name": "Shawn C. Phillips", "order": 3, "profile_path": "/xblGNQUemCa2nSY1mJNKLZQewwf.jpg"}, {"cast_id": 3, "character": "Himself", "credit_id": "562cceb492514128570075a7", "gender": 2, "id": 19190, "name": "Dennis Haskins", "order": 4, "profile_path": "/hcC0zWG5iyl6rJBCEbP98mn5HTu.jpg"}, {"cast_id": 4, "character": "Himself", "credit_id": "562ccedec3a3681b590076fd", "gender": 0, "id": 1406937, "name": "Dante", "order": 5, "profile_path": null}, {"cast_id": 5, "character": "Mormon 1", "credit_id": "562ccef192514128570075b4", "gender": 0, "id": 1526900, "name": "T.J. Akins", "order": 6, "profile_path": null}, {"cast_id": 6, "character": "Bert", "credit_id": "562ccef79251412853007daa", "gender": 0, "id": 1526901, "name": "Kurt Bloom", "order": 7, "profile_path": null}, {"cast_id": 7, "character": "Big Man", "credit_id": "562cceffc3a3681b52007660", "gender": 0, "id": 1526902, "name": "Rex Cobalt", "order": 8, "profile_path": null}, {"cast_id": 8, "character": "Phil", "credit_id": "562ccf08c3a3681b54007b09", "gender": 0, "id": 1465340, "name": "James J Coker", "order": 9, "profile_path": null}, {"cast_id": 9, "character": "Goulish Video Watcher", "credit_id": "562ccf1092514128450070c8", "gender": 0, "id": 1526903, "name": "Nathan Elliott Coker", "order": 10, "profile_path": null}, {"cast_id": 10, "character": "TV Demon", "credit_id": "562ccf18c3a3681b4b0071af", "gender": 0, "id": 1526904, "name": "Wesley Charles Coker", "order": 11, "profile_path": null}, {"cast_id": 11, "character": "Earl the Redneck", "credit_id": "562ccf21c3a3681b59007708", "gender": 0, "id": 1526905, "name": "Chris DePretis", "order": 12, "profile_path": null}, {"cast_id": 12, "character": "Katy", "credit_id": "562ccf2bc3a3681b54007b1d", "gender": 0, "id": 1526906, "name": "Tara Emerson", "order": 13, "profile_path": null}, {"cast_id": 13, "character": "Male Victim", "credit_id": "562ccf33c3a3681b59007711", "gender": 0, "id": 1526907, "name": "Ryan Gilis", "order": 14, "profile_path": null}, {"cast_id": 14, "character": "Mormon 2", "credit_id": "562ccf3dc3a3681b5e0074b0", "gender": 0, "id": 1526908, "name": "Aaron Granillo", "order": 15, "profile_path": null}], "crew": [{"credit_id": "562ccf55c3a3681b5e0074b7", "department": "Directing", "gender": 0, "id": 1526909, "job": "Director", "name": "Robert Biehn", "profile_path": null}, {"credit_id": "562ccf5c92514128570075ce", "department": "Directing", "gender": 0, "id": 1526910, "job": "Director", "name": "The Cousin Bros", "profile_path": null}, {"credit_id": "562ccf63c3a3681b5e0074bc", "department": "Directing", "gender": 0, "id": 1465340, "job": "Director", "name": "James J Coker", "profile_path": null}, {"credit_id": "562ccf6cc3a3681b61007af0", "department": "Directing", "gender": 0, "id": 1358913, "job": "Director", "name": "Brendan Mitchell", "profile_path": null}, {"credit_id": "562ccf74c3a3681b4b0071bb", "department": "Directing", "gender": 2, "id": 1102159, "job": "Director", "name": "Shawn C. Phillips", "profile_path": "/xblGNQUemCa2nSY1mJNKLZQewwf.jpg"}, {"credit_id": "562ccf93c3a3681b5c007777", "department": "Directing", "gender": 2, "id": 144496, "job": "Director", "name": "Shane Ryan", "profile_path": null}, {"credit_id": "562ccf9c925141284c007969", "department": "Directing", "gender": 0, "id": 1465336, "job": "Director", "name": "Doug Waugh", "profile_path": null}, {"credit_id": "562ccfb6c3a3681b5200767a", "department": "Production", "gender": 2, "id": 1211636, "job": "Executive Producer", "name": "James Cullen Bressack", "profile_path": "/1s89cGaLByNuIyEyZG7rmFmSv0J.jpg"}, {"credit_id": "562ccfc2c3a3681b4b0071c5", "department": "Sound", "gender": 0, "id": 1526911, "job": "Music", "name": "Boneshin", "profile_path": null}, {"credit_id": "562ccfca92514128570075dc", "department": "Sound", "gender": 2, "id": 1526912, "job": "Music", "name": "Ian Francis Smith", "profile_path": null}, {"credit_id": "562ccfd492514128570075e1", "department": "Crew", "gender": 0, "id": 1526913, "job": "Cinematography", "name": "Jim Akman", "profile_path": null}, {"credit_id": "562ccfe19251410a2200351c", "department": "Crew", "gender": 0, "id": 1526914, "job": "Cinematography", "name": "Derek Brown", "profile_path": null}, {"credit_id": "562ccff09251414ad8005c54", "department": "Crew", "gender": 0, "id": 1526915, "job": "Cinematography", "name": "Scot Carter", "profile_path": null}, {"credit_id": "562ccffac3a3681b5c007783", "department": "Crew", "gender": 0, "id": 1465340, "job": "Cinematography", "name": "James J Coker", "profile_path": null}, {"credit_id": "562cd0069251412853007dd3", "department": "Editing", "gender": 0, "id": 1526913, "job": "Editor", "name": "Jim Akman", "profile_path": null}, {"credit_id": "562cd00fc3a3681b5e0074d3", "department": "Editing", "gender": 0, "id": 1465340, "job": "Editor", "name": "James J Coker", "profile_path": null}, {"credit_id": "562cd0199251414ab7005987", "department": "Editing", "gender": 2, "id": 1102159, "job": "Editor", "name": "Shawn C. Phillips", "profile_path": "/xblGNQUemCa2nSY1mJNKLZQewwf.jpg"}, {"credit_id": "562cd0219251414ad8005c5b", "department": "Editing", "gender": 0, "id": 1465336, "job": "Editor", "name": "Doug Waugh", "profile_path": null}]}}