{"adult": false, "backdrop_path": null, "belongs_to_collection": null, "budget": 0, "genres": [{"id": 53, "name": "Thriller"}], "homepage": null, "id": 290715, "imdb_id": "tt0106837", "original_language": "en", "original_title": "Every Breath", "overview": "An unemployed actor gets involved with a strange woman who hangs out in lesbian nightclubs and her rich arms dealer husband.", "popularity": 1.531, "poster_path": "/64W3vfwvAviAjETFidI0XFiN1JL.jpg", "production_companies": [{"id": 2090, "logo_path": "/jYlUttNqcN5u1pzMQrh5AEhZ27t.png", "name": "Motion Picture Corporation of America", "origin_country": "US"}], "production_countries": [{"iso_3166_1": "US", "name": "United States of America"}], "release_date": "1994-03-30", "revenue": 0, "runtime": 88, "spoken_languages": [{"iso_639_1": "en", "name": "English"}], "status": "Released", "tagline": "a seduction no man could refuse. a set up no man could survive.", "title": "Every Breath", "video": false, "vote_average": 0.0, "vote_count": 0, "keywords": {"keywords": [{"id": 9826, "name": "murder"}, {"id": 10712, "name": "night club"}]}, "similar": {"page": 1, "results": [{"adult": false, "backdrop_path": "/pA64Ov7lDpwXBu33yq0KpmAOYJL.jpg", "genre_ids": [27, 53], "id": 357096, "original_language": "en", "original_title": "I Spit on Your Grave III: Vengeance is Mine", "overview": "Jennifer Hills is still tormented by the brutal sexual assault she endured years ago. She\u2019s changed identities and cities, reluctantly joining a support group where she begins to piece together a new life. But when her new friend\u2019s murderer goes free and the tales of serial rapists haunt her, Jennifer will hunt down the men responsible and do what the system won\u2019t \u2013 make them pay for their crimes in the most horrific ways imaginable. Only this time, no jury may be able to save her.", "poster_path": "/6SnOlgrUoC5jqmgcYIM5lde5zYq.jpg", "release_date": "2015-10-01", "title": "I Spit on Your Grave III: Vengeance is Mine", "video": false, "vote_average": 5.3, "vote_count": 437, "popularity": 20.366}, {"adult": false, "backdrop_path": "/t3OZS8yMs0NL4YgWWc04eXHTn1X.jpg", "genre_ids": [28, 80, 53], "id": 984, "original_language": "en", "original_title": "Dirty Harry", "overview": "When a madman dubbed 'Scorpio' terrorizes San Francisco, hard-nosed cop, Harry Callahan \u2013 famous for his take-no-prisoners approach to law enforcement \u2013 is tasked with hunting down the psychopath. Harry eventually collars Scorpio in the process of rescuing a kidnap victim, only to see him walk on technicalities. Now, the maverick detective is determined to nail the maniac himself.", "poster_path": "/2TADKc4GMMPdMrLXj0xJVgTvZJM.jpg", "release_date": "1971-12-21", "title": "Dirty Harry", "video": false, "vote_average": 7.5, "vote_count": 1173, "popularity": 18.839}, {"adult": false, "backdrop_path": "/uUYCUbgI5VxsUflTMI4Y9L2Y6vb.jpg", "genre_ids": [80, 18, 53], "id": 11423, "original_language": "ko", "original_title": "\uc0b4\uc778\uc758 \ucd94\uc5b5", "overview": "1986 Gyunggi Province. The body of a young woman is found brutally raped and murdered. Two months later, a series of rapes and murders commences under similar circumstances. And in a country that had never known such crimes, the dark whispers about a serial murderer grow louder. A special task force is set up in the area, with two local detectives Park Doo-Man and Jo Young-Goo joined by a detective from Seoul who requested to be assigned to the case.", "poster_path": "/gawnVe9cFowdoDLo9Pok12NTw39.jpg", "release_date": "2003-05-02", "title": "Memories of Murder", "video": false, "vote_average": 8.1, "vote_count": 1093, "popularity": 13.452}, {"id": 8090, "video": false, "vote_count": 448, "vote_average": 6.1, "title": "Untraceable", "release_date": "2008-01-22", "original_language": "en", "original_title": "Untraceable", "genre_ids": [9648, 53], "backdrop_path": "/eXuIPt9I1xuaVddlgzEQRC2EMnJ.jpg", "adult": false, "overview": "Special Agent Jennifer Marsh (Diane Lane) works in an elite division of the FBI dedicated to fighting cybercrime. She thinks she has seen it all, until a particularly sadistic criminal arises on the Internet. This tech-savvy killer posts live feeds of his crimes on his website; the more hits the site gets, the faster the victim dies. Marsh and her team must find the elusive killer before time runs out.", "poster_path": "/ySUwDRDEn01lKIMPQorpFCMLWqE.jpg", "popularity": 14.431}, {"id": 75780, "video": false, "vote_count": 4451, "vote_average": 6.4, "title": "Jack Reacher", "release_date": "2012-12-20", "original_language": "en", "original_title": "Jack Reacher", "genre_ids": [28, 80, 18, 53], "backdrop_path": "/ezXodpP429qK0Av89pVNlaXWJkQ.jpg", "adult": false, "overview": "When a gunman takes five lives with six shots, all evidence points to the suspect in custody. On interrogation, the suspect offers up a single note: \"Get Jack Reacher!\" So begins an extraordinary chase for the truth, pitting Jack Reacher against an unexpected enemy, with a skill for violence and a secret to keep.", "poster_path": "/mt0ELw83HIRgaKaDzhsDcIi0RnW.jpg", "popularity": 15.945}, {"adult": false, "backdrop_path": "/a24i4Qw6qFTtkFLQsncv8WPwevj.jpg", "genre_ids": [53, 28, 80], "id": 345887, "original_language": "en", "original_title": "The Equalizer 2", "overview": "Robert McCall, who serves an unflinching justice for the exploited and oppressed, embarks on a relentless, globe-trotting quest for vengeance when a long-time girl friend is murdered.", "poster_path": "/cQvc9N6JiMVKqol3wcYrGshsIdZ.jpg", "release_date": "2018-07-19", "title": "The Equalizer 2", "video": false, "vote_average": 6.5, "vote_count": 2482, "popularity": 24.261}, {"id": 807, "video": false, "vote_count": 11937, "vote_average": 8.3, "title": "Se7en", "release_date": "1995-09-22", "original_language": "en", "original_title": "Se7en", "genre_ids": [80, 9648, 53], "backdrop_path": "/A0WKbRIojF9DUWG4XLCmg5JK6I5.jpg", "adult": false, "overview": "Two homicide detectives are on a desperate hunt for a serial killer whose crimes are based on the \"seven deadly sins\" in this dark and haunting film that takes viewers from the tortured remains of one victim to the next. The seasoned Det. Sommerset researches each sin in an effort to get inside the killer's mind, while his novice partner, Mills, scoffs at his efforts to unravel the case.", "poster_path": "/8zw8IL4zEPjkh8Aysdcd0FwGMb0.jpg", "popularity": 34.018}, {"id": 395834, "video": false, "vote_count": 2754, "vote_average": 7.4, "title": "Wind River", "release_date": "2017-08-03", "original_language": "en", "original_title": "Wind River", "genre_ids": [80, 18, 9648, 53], "backdrop_path": "/6B8e784decj9vtKuNjbl9Fes2aZ.jpg", "adult": false, "overview": "An FBI agent teams with the town's veteran game tracker to investigate a murder that occurred on a Native American reservation.", "poster_path": "/pySivdR845Hom4u4T2WNkJxe6Ad.jpg", "popularity": 21.415}, {"adult": false, "backdrop_path": "/8UkJSL5hlwGh3uSC5tyoaqhHQh7.jpg", "genre_ids": [80, 18, 53], "id": 18587, "original_language": "en", "original_title": "10 to Midnight", "overview": "Based on the real-life Richard Speck murders. After his bizarre behavior results in rejection from countless women, Warren Stacy begins murdering women, always while he is naked, which minimizes any physical evidence left behind. Detective Leo Kessler is convinced of Stacy\u2019s guilt and, over the objections of his partner, plants evidence to get him behind bars. When Stacy is released on a technicality, he threatens to go after Kessler and his family, leaving Kessler to defend himself with little help from the police.", "poster_path": "/bJiLyz6g8vsFgJ5oAdMWlQAWY4T.jpg", "release_date": "1983-03-11", "title": "10 to Midnight", "video": false, "vote_average": 6.0, "vote_count": 73, "popularity": 9.514}, {"adult": false, "backdrop_path": "/v761yOHKO3p6Yr7LDCjud6tUL5G.jpg", "genre_ids": [28, 80, 53], "id": 10651, "original_language": "en", "original_title": "The Dead Pool", "overview": "Dirty Harry Callahan returns for his final film adventure. Together with his partner Al Quan, he must investigate the systematic murder of actors and musicians. By the time Harry learns that the murders are a part of a sick game to predict the deaths of celebrities before they happen, it may be too late...", "poster_path": "/9ZUSqox9lIxN4xaYBac2QXMFcZj.jpg", "release_date": "1988-07-12", "title": "The Dead Pool", "video": false, "vote_average": 6.4, "vote_count": 389, "popularity": 10.626}, {"id": 37645, "video": false, "vote_count": 575, "vote_average": 6.5, "title": "22 Bullets", "release_date": "2010-03-23", "original_language": "fr", "original_title": "L'Immortel", "genre_ids": [28, 80, 53], "backdrop_path": "/mU8zfCOTbahNGH0ZBTCuNdX16gj.jpg", "adult": false, "overview": "Charly Mattei\u0308 has turned his back on his life as an outlaw. For the last three years, he's led a peaceful life devoting himself to his wife and two children. Then, one winter morning, he's left for dead in the parking garage in Marseille's Old Port, with 22 bullets in his body. Against all the odds, he doesn't die...", "poster_path": "/wTYZjPq4YA2wC99MdHZTFQuxFpd.jpg", "popularity": 12.785}, {"adult": false, "backdrop_path": "/a0UYovVNPVfWILYT7TzD10xBX3q.jpg", "genre_ids": [18, 53, 80, 9648], "id": 979, "original_language": "fr", "original_title": "Irr\u00e9versible", "overview": "Events over the course of one traumatic night in Paris unfold in reverse-chronological order as the beautiful Alex is brutally raped and beaten by a stranger in the underpass. Her boyfriend and ex-lover take matters into their own hands by hiring two criminals to help them find the rapist so that they can exact revenge. A simultaneously beautiful and terrible examination of the destructive nature of cause and effect, and how time destroys everything.", "poster_path": "/rxeDxo8FvZpLu6iplNpxdtAVnfu.jpg", "release_date": "2002-05-22", "title": "Irreversible", "video": false, "vote_average": 7.1, "vote_count": 1216, "popularity": 20.416}, {"adult": false, "backdrop_path": "/3TCPWrxQkfon82xPNtmpweOSVJc.jpg", "genre_ids": [18, 80, 9648, 10749, 53], "id": 12150, "original_language": "en", "original_title": "Sea of Love", "overview": "Seen-it-all New York detective Frank Keller is unsettled - he has done twenty years on the force and could retire, and he hasn't come to terms with his wife leaving him for a colleague. Joining up with an officer from another part of town to investigate a series of murders linked by the lonely hearts columns he finds he is getting seriously and possibly dangerously involved with Helen, one of the main suspects.", "poster_path": "/7DkkTHIX3hUqvsRv5sDmJAkCfKK.jpg", "release_date": "1989-09-15", "title": "Sea of Love", "video": false, "vote_average": 6.7, "vote_count": 290, "popularity": 10.636}, {"id": 15069, "video": false, "vote_count": 75, "vote_average": 5.4, "title": "W\u0394Z", "release_date": "2007-05-19", "original_language": "en", "original_title": "W\u0394Z", "genre_ids": [80, 18, 27, 53], "backdrop_path": "/nVwdXjnbfulc6cymFgOQJctpspr.jpg", "adult": false, "overview": "There is something horribly wrong with the bodies found in the dark city streets. Some are mutilated while others have the Price equation (w\u0394z = Cov (w,z) = \u03b2wzVz) carved into their flesh. Detective Eddie Argo and his new partner Helen Westcott unearth the meaning of the odd equation and realise each victim is being offered a gruesome choice: kill your loved ones, or be killed. Before long it becomes clear that the perpetrator has suffered a similar fate and is now coping by seeking a way to solve this philosophical dilemma.", "poster_path": "/8lPZ59iQRqUELprKuB0myy7u6Zm.jpg", "popularity": 7.935}, {"adult": false, "backdrop_path": "/xdha8DvElblfBbNnkpGsF42lAyv.jpg", "genre_ids": [28, 80, 53], "id": 2749, "original_language": "en", "original_title": "15 Minutes", "overview": "When Eastern European criminals Oleg and Emil come to New York City to pick up their share of a heist score, Oleg steals a video camera and starts filming their activities, both legal and illegal. When they learn how the American media circus can make a remorseless killer look like the victim and make them rich, they target media-savvy NYPD Homicide Detective Eddie Flemming and media-naive FDNY Fire Marshal Jordy Warsaw, the cops investigating their murder and torching of their former criminal partner, filming everything to sell to the local tabloid TV show \"Top Story.\"", "poster_path": "/qqqleHV8y7NLKt7isSZAvOwVPH6.jpg", "release_date": "2001-03-01", "title": "15 Minutes", "video": false, "vote_average": 5.8, "vote_count": 372, "popularity": 14.636}, {"id": 60670, "video": false, "vote_count": 765, "vote_average": 6.9, "title": "The Crimson Rivers", "release_date": "2000-09-26", "original_language": "fr", "original_title": "Les Rivi\u00e8res pourpres", "genre_ids": [80, 9648, 53], "backdrop_path": "/pXmMiqordTEbRTDNlKPnyielNVA.jpg", "adult": false, "overview": "Two French policemen, one investigating a grisly murder at a remote mountain college, the other working on the desecration of a young girl's grave by skinheads, are brought together by the clues from their respective cases. Soon after they start working together, more murders are committed, and the pair begin to discover just what dark secrets are behind the killings.", "poster_path": "/kkRgQST0bEdEgqpPZMGaUB1twsQ.jpg", "popularity": 11.569}, {"adult": false, "backdrop_path": "/scRw6gAoO3CfgQnZjHCh2ZgU4Z1.jpg", "genre_ids": [80, 18, 878, 53], "id": 281, "original_language": "en", "original_title": "Strange Days", "overview": "Set in the year 1999 during the last days of the old millennium, the movie tells the story of Lenny Nero, an ex-cop who now deals with data-discs containing recorded memories and emotions. One day he receives a disc which contains the memories of a murderer killing a prostitute. Lenny investigates and is pulled deeper and deeper in a whirl of blackmail, murder and rape. Will he survive and solve the case?", "poster_path": "/rXvy5hG9OeVmgnv9w4IhQxhqEKD.jpg", "release_date": "1995-10-13", "title": "Strange Days", "video": false, "vote_average": 7.0, "vote_count": 663, "popularity": 17.431}, {"adult": false, "backdrop_path": "/iNuvbrHGNtrUwlm48u4KnQhhMKp.jpg", "genre_ids": [80, 18, 53], "id": 26390, "original_language": "en", "original_title": "Brooklyn's Finest", "overview": "Enforcing the law within the notoriously rough Brownsville section of the city and especially within the Van Dyke housing projects is the NYPD's sixty-fifth precinct. Three police officers struggle with the sometimes fine line between right and wrong.", "poster_path": "/jKSBk0LtZgXxG56uvwiAtYf6ttF.jpg", "release_date": "2009-01-16", "title": "Brooklyn's Finest", "video": false, "vote_average": 6.4, "vote_count": 500, "popularity": 11.822}, {"id": 573, "video": false, "vote_count": 364, "vote_average": 7.1, "title": "Frenzy", "release_date": "1972-05-25", "original_language": "en", "original_title": "Frenzy", "genre_ids": [80, 27, 53], "backdrop_path": "/szCaGTZQEHlgrNdPryLAIg9WGFS.jpg", "adult": false, "overview": "After a serial killer strangles several women with a necktie, London police identify a suspect\u2014but he's the wrong man.", "poster_path": "/4SFvqrlSigAt9tnhXFSMyKeJWQk.jpg", "popularity": 11.634}, {"adult": false, "backdrop_path": "/iZOgAvUt6q356da1sfYz1UalNO.jpg", "genre_ids": [80, 18, 10749, 53], "id": 3134, "original_language": "fr", "original_title": "Baise-moi", "overview": "Manu has lived a difficult life. Abused and violently raped, she sets off to find herself only to meet Nadine, a prostitute who has encountered one too many injustices in the world. Angry at the world, they embark on a twisted, rage-filled road trip. They choose to have sex when they please and kill when they need. Leaving a trail of mischief and dead bodies in their wake. Generating a media blitz and manhunt, soon everyone is out to capture the young fugitives.", "poster_path": "/sLvsIgWMH9bV1IZnZOzY5dXKUHe.jpg", "release_date": "2000-06-28", "title": "Baise-moi", "video": false, "vote_average": 4.3, "vote_count": 173, "popularity": 14.535}], "total_pages": 413, "total_results": 8245}, "recommendations": {"page": 1, "results": [], "total_pages": 1, "total_results": 0}, "credits": {"cast": [{"cast_id": 5, "character": "Jimmy", "credit_id": "544fe6d4c3a3680242002745", "gender": 2, "id": 21624, "name": "Judd Nelson", "order": 1, "profile_path": "/9H1TSnBEDYl59tFC1EQHccrINsp.jpg"}, {"cast_id": 6, "character": "Lauren", "credit_id": "544fe6df0e0a263a0a002520", "gender": 1, "id": 36059, "name": "Joanna Pacula", "order": 2, "profile_path": "/697EWuER2k3lQ4oNZdYdkU6cvvd.jpg"}, {"cast_id": 7, "character": "Richard", "credit_id": "544fe6ec0e0a263a10002664", "gender": 0, "id": 5274, "name": "Patrick Bauchau", "order": 3, "profile_path": "/eAlTfdwkw4xCU8UIxVCkL4LWYO5.jpg"}, {"cast_id": 8, "character": "Bob", "credit_id": "544fe6f50e0a263a18002510", "gender": 2, "id": 1542, "name": "Willie Garson", "order": 4, "profile_path": "/xZ09uKkIMIRWDNqmyhb1AeEOo71.jpg"}, {"cast_id": 9, "character": "Mimi", "credit_id": "544fe704c3a368023300234c", "gender": 0, "id": 165938, "name": "Rebeca Arthur", "order": 5, "profile_path": "/cjkIIdn9RmbQOxvhM2w0SG9gPph.jpg"}], "crew": [{"credit_id": "544fe69ec3a368024200273e", "department": "Directing", "gender": 2, "id": 53394, "job": "Director", "name": "Steve Bing", "profile_path": null}, {"credit_id": "544fe6b6c3a3680245002460", "department": "Writing", "gender": 2, "id": 41549, "job": "Story", "name": "Andrew Fleming", "profile_path": "/fgqJC8aCiH00Y1g3cfzYpBUBCD3.jpg"}, {"credit_id": "544fe6bb0e0a263a0a002519", "department": "Writing", "gender": 2, "id": 41549, "job": "Screenplay", "name": "Andrew Fleming", "profile_path": "/fgqJC8aCiH00Y1g3cfzYpBUBCD3.jpg"}, {"credit_id": "544fe6c6c3a36802360024ba", "department": "Writing", "gender": 2, "id": 21624, "job": "Writer", "name": "Judd Nelson", "profile_path": "/9H1TSnBEDYl59tFC1EQHccrINsp.jpg"}, {"credit_id": "544fe7a7c3a368024200275f", "department": "Writing", "gender": 2, "id": 53394, "job": "Writer", "name": "Steve Bing", "profile_path": null}]}}