{"adult": false, "backdrop_path": "/nG5sFOZ4cuLMbtTxxMWsWUZMWrg.jpg", "belongs_to_collection": null, "budget": 0, "genres": [{"id": 99, "name": "Documentary"}], "homepage": "http://www.theconnection.tv", "id": 290773, "imdb_id": "tt3856972", "original_language": "en", "original_title": "The Connection", "overview": "The Connection is a film about how frontier research is proving that there is a direct connection between your mind and your health.", "popularity": 2.483, "poster_path": "/nXC7lio84kKCxFukcWwcmkhatP8.jpg", "production_companies": [{"id": 32306, "logo_path": null, "name": "Elemental Media", "origin_country": "AU"}], "production_countries": [{"iso_3166_1": "US", "name": "United States of America"}, {"iso_3166_1": "AU", "name": "Australia"}], "release_date": "2014-09-01", "revenue": 0, "runtime": 72, "spoken_languages": [], "status": "Released", "tagline": "Mind your body.", "title": "The Connection", "video": false, "vote_average": 5.8, "vote_count": 3, "keywords": {"keywords": [{"id": 1279, "name": "medicine"}, {"id": 3721, "name": "health"}, {"id": 206853, "name": "well-being"}]}, "similar": {"page": 1, "results": [{"id": 51876, "video": false, "vote_count": 6911, "vote_average": 7.2, "title": "Limitless", "release_date": "2011-03-08", "original_language": "en", "original_title": "Limitless", "genre_ids": [9648, 878, 53], "backdrop_path": "/9ISArgiVBdNLASKmvflRDMOYYMj.jpg", "adult": false, "overview": "A paranoia-fueled action thriller about an unsuccessful writer whose life is transformed by a top-secret \"smart drug\" that allows him to use 100% of his brain and become a perfect version of himself. His enhanced abilities soon attract shadowy forces that threaten his new life in this darkly comic and provocative film.", "poster_path": "/bQfOFEeXxi51ijQrbQY9qvMtYhZ.jpg", "popularity": 22.32}, {"adult": false, "backdrop_path": "/8VyW7cJxsdnIfptbPjGCIX1StUe.jpg", "genre_ids": [10749, 18], "id": 1587, "original_language": "en", "original_title": "What's Eating Gilbert Grape", "overview": "Gilbert Grape is a small-town young man with a lot of responsibility. Chief among his concerns are his mother, who is so overweight that she can't leave the house, and his mentally impaired younger brother, Arnie, who has a knack for finding trouble. Settled into a job at a grocery store and an ongoing affair with local woman Betty Carver, Gilbert finally has his life shaken up by the free-spirited Becky.", "poster_path": "/jQLoOPwNxyILwDbdhn9DsfQz0Sg.jpg", "release_date": "1993-12-17", "title": "What's Eating Gilbert Grape", "video": false, "vote_average": 7.7, "vote_count": 2113, "popularity": 20.762}, {"adult": false, "backdrop_path": "/tFPvOmz0uNmfp1sq2ebYAeUCLQ4.jpg", "genre_ids": [35], "id": 813, "original_language": "en", "original_title": "Airplane!", "overview": "Alcoholic pilot, Ted Striker has developed a fear of flying due to wartime trauma, but nevertheless boards a passenger jet in an attempt to woo back his stewardess girlfriend. Food poisoning decimates the passengers and crew, leaving it up to Striker to land the plane with the help of a glue-sniffing air traffic controller and Striker's vengeful former Air Force captain, who must both talk him down.", "poster_path": "/b4sAWNIbfXw4WTdc1wiVRBk2Vko.jpg", "release_date": "1980-07-02", "title": "Airplane!", "video": false, "vote_average": 7.3, "vote_count": 2348, "popularity": 32.398}, {"adult": false, "backdrop_path": "/A7ovlrws4B7lXvkcC9iSRkypX02.jpg", "genre_ids": [27, 9648, 878, 53], "id": 340837, "original_language": "en", "original_title": "A Cure for Wellness", "overview": "An ambitious young executive is sent to retrieve his company's CEO from an idyllic but mysterious \"wellness center\" at a remote location in the Swiss Alps but soon suspects that the spa's miraculous treatments are not what they seem.", "poster_path": "/d4fXuJS3zZcAZfz2HYDtnwqtnwn.jpg", "release_date": "2017-02-15", "title": "A Cure for Wellness", "video": false, "vote_average": 6.2, "vote_count": 2312, "popularity": 23.178}, {"id": 9472, "video": false, "vote_count": 2070, "vote_average": 6.2, "title": "DodgeBall: A True Underdog Story", "release_date": "2004-06-18", "original_language": "en", "original_title": "DodgeBall: A True Underdog Story", "genre_ids": [35], "backdrop_path": "/yM4k71Y6bEuVl7EX46OJ2fvyFHV.jpg", "adult": false, "overview": "When megalomaniacal White Goodman, the owner of a trendy, high-end fitness center, makes a move to take over the struggling local gym run by happy-go-lucky Pete La Fleur, there's only one way for La Fleur to fight back: dodgeball. Aided by a dodgeball guru and Goodman's attorney, La Fleur and his rag-tag team of underdogs launch a knock-down, drag-out battle in which the winner takes all.", "poster_path": "/c7biFO9cEl5hOSvZRMuuJohH5f3.jpg", "popularity": 21.78}, {"id": 9889, "video": false, "vote_count": 1676, "vote_average": 6.0, "title": "Shallow Hal", "release_date": "2001-11-01", "original_language": "en", "original_title": "Shallow Hal", "genre_ids": [35, 10749], "backdrop_path": "/k9fMBC1MMgrt4w6IVuB7kTX3yqz.jpg", "adult": false, "overview": "A shallow man falls in love with a 300 pound woman because of her \"inner beauty\".", "poster_path": "/xhdJKfDp7TihFcO5CF6BFY1xImE.jpg", "popularity": 17.032}, {"id": 415086, "video": false, "vote_count": 192, "vote_average": 7.3, "title": "What the Health", "release_date": "2017-03-16", "original_language": "en", "original_title": "What the Health", "genre_ids": [99], "backdrop_path": "/uoNpFDFQOdaMvyqD8zxP3yezzCJ.jpg", "adult": false, "overview": "Filmmaker Kip Andersen uncovers the secret to preventing and even reversing chronic diseases, and he investigates why the nation's leading health organizations doesn't want people to know about it.", "poster_path": "/sz9cPeSmiGLA1EDUPszlrWfSrId.jpg", "popularity": 11.128}, {"id": 411999, "video": false, "vote_count": 217, "vote_average": 6.5, "title": "OtherLife", "release_date": "2017-06-16", "original_language": "en", "original_title": "OtherLife", "genre_ids": [80, 9648, 878], "backdrop_path": "/fhDzf6AGyytro5cFIxzSacPW6AB.jpg", "adult": false, "overview": "Ren Amari is the driven inventor of a revolutionary new drug. OtherLIfe expands the brain's sense of time and creates virtual reality directly in the user's mind. With OtherLife, mere seconds in real life feel like hours or days of exciting adventures. As Ren and her colleagues race around the clock to launch OtherLife, the government muscles in to use the drugs as a radical solution to prison overcrowding. They will create virtual cells where criminals serve long sentences in just minutes of real time. When Ren resists, she finds herself an unwilling guinea pig trapped in a prison cell in her mind. She must escape before she descends into madness, and then regain control of OtherLife before others suffer the same fate.", "poster_path": "/stSDsKsb4fS6NPzuHwfAWD2jim8.jpg", "popularity": 11.775}, {"adult": false, "backdrop_path": "/kmcnv73Wn0nkPQ5zQH7amJh4rEJ.jpg", "genre_ids": [12, 18], "id": 9096, "original_language": "en", "original_title": "Medicine Man", "overview": "An eccentric scientist working for a large drug company is working on a research project in the Amazon jungle. He sends for a research assistant and a gas chromatograph because he's close to a cure for cancer. When the assistant turns out to be a \"mere woman,\" he rejects her help. Meanwhile the bulldozers get closer to the area in which they are conducting research, and they eventually learn to work together, and begin falling in love.", "poster_path": "/lQAvyFcppZhqbz5coICwfbgcylY.jpg", "release_date": "1992-02-07", "title": "Medicine Man", "video": false, "vote_average": 6.0, "vote_count": 198, "popularity": 9.206}, {"id": 9667, "video": false, "vote_count": 836, "vote_average": 6.9, "title": "The Jacket", "release_date": "2005-03-04", "original_language": "en", "original_title": "The Jacket", "genre_ids": [18, 9648, 53], "backdrop_path": "/4y4jpkHGh10QPNWy1iClCUgF8rX.jpg", "adult": false, "overview": "A military veteran goes on a journey into the future, where he can foresee his death and is left with questions that could save his life and those he loves.", "poster_path": "/ts5hSSpgHEcPFpdfk6gmLLgx5k4.jpg", "popularity": 14.204}, {"adult": false, "backdrop_path": "/kiWIFa3Ij48rCjxiG2FmQxvEvJa.jpg", "genre_ids": [99, 35, 18], "id": 9372, "original_language": "en", "original_title": "Super Size Me", "overview": "Morgan Spurlock subjects himself to a diet based only on McDonald's fast food three times a day for thirty days without exercising to try to prove why so many Americans are fat or obese. He submits himself to a complete check-up by three doctors, comparing his weight along the way, resulting in a scary conclusion.", "poster_path": "/9J2cYFtYRplFnHgn8V5ntCZEHut.jpg", "release_date": "2004-01-17", "title": "Super Size Me", "video": false, "vote_average": 6.7, "vote_count": 965, "popularity": 11.778}, {"id": 9388, "video": false, "vote_count": 1252, "vote_average": 7.2, "title": "Thank You for Smoking", "release_date": "2005-03-17", "original_language": "en", "original_title": "Thank You for Smoking", "genre_ids": [35, 18], "backdrop_path": "/D1VqMoYT4K2aFcywu3kGnycD6n.jpg", "adult": false, "overview": "Nick Naylor is a charismatic spin-doctor for Big Tobacco who'll fight to protect America's right to smoke -- even if it kills him -- while still remaining a role model for his 12-year old son. When he incurs the wrath of a senator bent on snuffing out cigarettes, Nick's powers of \"filtering the truth\" will be put to the test.", "poster_path": "/v8PKsbAGIvAhKbbRUjdQ3jgFD2S.jpg", "popularity": 14.661}, {"id": 32646, "video": false, "vote_count": 122, "vote_average": 7.1, "title": "Safe", "release_date": "1995-06-23", "original_language": "en", "original_title": "Safe", "genre_ids": [18], "backdrop_path": "/1h5bmySkJUxNK0LuTnSIQJe03R8.jpg", "adult": false, "overview": "Carol, a typical upper middle-class housewife, begins to complain of vague symptoms of illness. She \"doesn't feel right,\" has unexplained headaches, congestion, a dry cough, nosebleeds, vomiting, and trouble breathing. Her family doctor treats her concerns dismissively and suggests a psychiatrist. Eventually, an allergist tells her that she has Environmental Illness.", "poster_path": "/ihX2udk636JMAAaWDIMj6n5ejhb.jpg", "popularity": 9.495}, {"id": 463088, "video": false, "vote_count": 68, "vote_average": 7.4, "title": "The Game Changers", "release_date": "2019-09-16", "original_language": "en", "original_title": "The Game Changers", "genre_ids": [99], "backdrop_path": "/1qvFSpY0cFfhfuJza4hDzcGxypz.jpg", "adult": false, "overview": "From the UFC Octagon in Las Vegas and the anthropology lab at Dartmouth, to a strongman gym in Berlin and the bushlands of Zimbabwe, the world is introduced to elite athletes, special ops soldiers, visionary scientists, cultural icons, and everyday heroes\u2014each on a mission to create a seismic shift in the way we eat and live.", "poster_path": "/eufF3xEif5EZ1gTjdubw3KWh9xU.jpg", "popularity": 10.609}, {"id": 6280, "video": false, "vote_count": 801, "vote_average": 4.9, "title": "Junior", "release_date": "1994-11-22", "original_language": "en", "original_title": "Junior", "genre_ids": [35, 10749, 10751], "backdrop_path": "/flDZQoz3u0DynAPuhu26pg4zqud.jpg", "adult": false, "overview": "As part of a fertility research project, a male scientist agrees to carry a pregnancy in his own body.", "poster_path": "/bwt2hkLGKo5KAVMCw4u1umUPhax.jpg", "popularity": 11.118}, {"id": 641, "video": false, "vote_count": 5690, "vote_average": 8.0, "title": "Requiem for a Dream", "release_date": "2000-10-06", "original_language": "en", "original_title": "Requiem for a Dream", "genre_ids": [80, 18], "backdrop_path": "/c5g1Dn1tF22CS2oOvHDNKr1Ve2U.jpg", "adult": false, "overview": "The hopes and dreams of four ambitious people are shattered when their drug addictions begin spiraling out of control. A look into addiction and how it overcomes the mind and body.", "poster_path": "/nOd6vjEmzCT0k4VYqsA2hwyi87C.jpg", "popularity": 6.401}, {"adult": false, "backdrop_path": null, "genre_ids": [18], "id": 621022, "original_language": "en", "original_title": "Girl and Body", "overview": "After collapsing during rehearsal, Yuri struggles to understand her mysterious medical condition and her even more enigmatic hospital-ward neighbour. Both patients are forced to confront the link between mind and body in vastly different ways.", "poster_path": "/ik6CDzoAystibe7GwMcGrGSXrSP.jpg", "release_date": "2019-08-10", "title": "Girl and Body", "video": false, "vote_average": 0.0, "vote_count": 0, "popularity": 0.7}, {"id": 2007, "video": false, "vote_count": 266, "vote_average": 7.0, "title": "Lorenzo's Oil", "release_date": "1992-12-30", "original_language": "en", "original_title": "Lorenzo's Oil", "genre_ids": [18], "backdrop_path": "/wnhNoFa2vxGFfxndVxm7uzZWj5o.jpg", "adult": false, "overview": "Lorenzo Odone was a normal child until the age of 7, until he started experiencing blackouts, memory lapses and other strange mental phenomena. Eventually diagnosed as suffering from ALD\u2014an extremely rare and incurable degenerative brain disorders\u2014his parents, frustrated at the failings of conventional medicine, start their quest for an unothadox treatment.", "poster_path": "/fd9sqSlkUZuG7iMBZiuRjlK3cN4.jpg", "popularity": 9.41}, {"adult": false, "backdrop_path": "/kqgT8bUa8Nkyg6EDpkn0tcOXlpq.jpg", "genre_ids": [99], "id": 2359, "original_language": "en", "original_title": "Sicko", "overview": "Sicko is a Michael Moore documentary about the corrupt health care system in The United States who's main goal is to make profit even if it means losing peoples lives. \"The more people you deny health insurance the more money we make\" is the business model for health care providers in America.", "poster_path": "/tAEhAVqnleu3wEC2LuXvWzRvsEG.jpg", "release_date": "2007-05-18", "title": "Sicko", "video": false, "vote_average": 7.4, "vote_count": 419, "popularity": 11.672}, {"id": 8669, "video": false, "vote_count": 398, "vote_average": 6.7, "title": "Charlie Bartlett", "release_date": "2007-05-01", "original_language": "en", "original_title": "Charlie Bartlett", "genre_ids": [35, 18], "backdrop_path": "/11QHzPsn17ZHeZfC3pARD4Hu6ke.jpg", "adult": false, "overview": "Awkward teenager Charlie Bartlett has trouble fitting in at a new high school. Charlie needs some friends fast, and decides that the best way to find them is to appoint himself the resident psychiatrist. He becomes one of the most popular guys in school by doling out advice and, occasionally, medication, to the student body.", "poster_path": "/xCirDLSaQwuPhKyQ2kP9AGLidQ0.jpg", "popularity": 11.896}], "total_pages": 13, "total_results": 252}, "recommendations": {"page": 1, "results": [], "total_pages": 1, "total_results": 0}, "credits": {"cast": [], "crew": [{"credit_id": "540a84750e0a262b4c001697", "department": "Directing", "gender": 0, "id": 1361113, "job": "Director", "name": "Shannon Harvey", "profile_path": null}]}}