{"adult": false, "backdrop_path": "/xSLCcmJHNtCI9lqSfLak06fps4j.jpg", "belongs_to_collection": null, "budget": 0, "genres": [{"id": 27, "name": "Horror"}], "homepage": null, "id": 29126, "imdb_id": "tt0024895", "original_language": "en", "original_title": "Black Moon", "overview": "A woman returning to her island birthplace finds herself drawn to a voodoo cult.", "popularity": 2.617, "poster_path": "/s9tWqX7G3w3PCCaN8JkDkNo9sXj.jpg", "production_companies": [{"id": 5, "logo_path": "/71BqEFAF4V3qjjMPCpLuyJFB9A.png", "name": "Columbia Pictures", "origin_country": "US"}], "production_countries": [{"iso_3166_1": "US", "name": "United States of America"}], "release_date": "1934-06-15", "revenue": 0, "runtime": 68, "spoken_languages": [{"iso_639_1": "en", "name": "English"}], "status": "Released", "tagline": "Love battling against the sorcery of the jungle!", "title": "Black Moon", "video": false, "vote_average": 5.5, "vote_count": 11, "keywords": {"keywords": [{"id": 3392, "name": "voodoo"}, {"id": 9826, "name": "murder"}, {"id": 10787, "name": "jungle"}, {"id": 11677, "name": "secretary"}, {"id": 156764, "name": "pre-code"}, {"id": 157524, "name": "tropical island"}, {"id": 162845, "name": "revolt"}]}, "similar": {"page": 1, "results": [{"adult": false, "backdrop_path": "/pA64Ov7lDpwXBu33yq0KpmAOYJL.jpg", "genre_ids": [27, 53], "id": 357096, "original_language": "en", "original_title": "I Spit on Your Grave III: Vengeance is Mine", "overview": "Jennifer Hills is still tormented by the brutal sexual assault she endured years ago. She\u2019s changed identities and cities, reluctantly joining a support group where she begins to piece together a new life. But when her new friend\u2019s murderer goes free and the tales of serial rapists haunt her, Jennifer will hunt down the men responsible and do what the system won\u2019t \u2013 make them pay for their crimes in the most horrific ways imaginable. Only this time, no jury may be able to save her.", "poster_path": "/6SnOlgrUoC5jqmgcYIM5lde5zYq.jpg", "release_date": "2015-10-01", "title": "I Spit on Your Grave III: Vengeance is Mine", "video": false, "vote_average": 5.3, "vote_count": 437, "popularity": 20.366}, {"adult": false, "backdrop_path": "/zWGAnbxjjwY3xFGuOeR26LGbBlG.jpg", "genre_ids": [27, 53], "id": 238636, "original_language": "en", "original_title": "The Purge: Anarchy", "overview": "One night per year, the government sanctions a 12-hour period in which citizens can commit any crime they wish -- including murder -- without fear of punishment or imprisonment. Leo, a sergeant who lost his son, plans a vigilante mission of revenge during the mayhem. However, instead of a death-dealing avenger, he becomes the unexpected protector of four innocent strangers who desperately need his help if they are to survive the night.", "poster_path": "/l1DRl40x2OWUoPP42v8fjKdS1Z3.jpg", "release_date": "2014-07-17", "title": "The Purge: Anarchy", "video": false, "vote_average": 6.6, "vote_count": 4141, "popularity": 32.533}, {"adult": false, "backdrop_path": "/o4psXh7IVD6GFKvBSHjHLzjL2lV.jpg", "genre_ids": [27, 53], "id": 10781, "original_language": "en", "original_title": "The Texas Chainsaw Massacre: The Beginning", "overview": "Chrissie and her friends set out on a road trip for a final fling before one is shipped off to Vietnam. Along the way, bikers harass the foursome and cause an accident that throws Chrissie from the vehicle. The lawman who arrives on the scene kills one of the bikers and brings Chrissie's friends to the Hewitt homestead, where young Leatherface is learning the tools of terror.", "poster_path": "/9elCJIG1TOJ0wew3JVx5ZMkHq5w.jpg", "release_date": "2006-10-06", "title": "The Texas Chainsaw Massacre: The Beginning", "video": false, "vote_average": 6.0, "vote_count": 935, "popularity": 18.392}, {"id": 28355, "video": false, "vote_count": 1284, "vote_average": 6.2, "title": "Case 39", "release_date": "2009-08-13", "original_language": "en", "original_title": "Case 39", "genre_ids": [27, 9648, 53], "backdrop_path": "/luTLwjU4WpQR2zBxJAKdK1D7C8T.jpg", "adult": false, "overview": "In her many years as a social worker, Emily Jenkins believes she has seen it all, until she meets 10-year-old Lilith and the girl's cruel parents. Emily's worst fears are confirmed when the parents try to harm the child, and so Emily assumes custody of Lilith while she looks for a foster family. However, Emily soon finds that dark forces surround the seemingly innocent girl, and the more she tries to protect Lilith, the more horrors she encounters.", "poster_path": "/xSyj4F1UVtAXhqSGpNCZRaBsKAJ.jpg", "popularity": 21.471}, {"id": 10285, "video": false, "vote_count": 431, "vote_average": 4.2, "title": "Jason Goes to Hell: The Final Friday", "release_date": "1993-08-13", "original_language": "en", "original_title": "Jason Goes to Hell: The Final Friday", "genre_ids": [27], "backdrop_path": "/2n6awnTBWiMREWijGQ0vbxSC8qY.jpg", "adult": false, "overview": "Jason Voorhees, the living, breathing essence of evil, is back for one fierce, final fling! Tracked down and blown to bits by a special FBI task force, everyone now assumes that he's finally dead. But everybody assumes wrong. Jason has been reborn with the bone-chilling ability to assume the identity of anyone he touches. The terrifying truth is that he could be anywhere, or anybody. In this shocking, blood-soaked finale to Jason's carnage-ridden reign of terror, the horrible secret of his unstoppable killing instinct is finally revealed.", "poster_path": "/8yLdCrD1Eh6eoGTIIQ4jNBFLkUb.jpg", "popularity": 19.883}, {"adult": false, "backdrop_path": "/7QjoyyGdBV32x1sEh64dAnNjwg2.jpg", "genre_ids": [53, 35, 27], "id": 12521, "original_language": "en", "original_title": "Shocker", "overview": "After being sent to the electric chair, a serial killer uses electricity to come back from the dead and carry out his vengeance on the football player who turned him in to the police.", "poster_path": "/xEDmOhNGCKlWlS3mCiqLCVzBXVA.jpg", "release_date": "1989-10-27", "title": "Shocker", "video": false, "vote_average": 5.5, "vote_count": 176, "popularity": 9.966}, {"adult": false, "backdrop_path": "/iLvqbCanH1liQ5VERCyCR31GkkL.jpg", "genre_ids": [35, 27, 878], "id": 15762, "original_language": "en", "original_title": "Night of the Creeps", "overview": "In 1959, an alien experiment crashes to earth and infects a fraternity member. They freeze the body, but in the modern day, two geeks pledging a fraternity accidentally thaw the corpse, which proceeds to infect the campus with parasites that transform their hosts into killer zombies.", "poster_path": "/A3s2tQGNb6mhlr1hPZeE5F8IUwp.jpg", "release_date": "1986-08-21", "title": "Night of the Creeps", "video": false, "vote_average": 6.6, "vote_count": 219, "popularity": 10.886}, {"adult": false, "backdrop_path": "/8cVSUI36ORfCJ6d4TP71wIrdD7h.jpg", "genre_ids": [18, 27], "id": 133805, "original_language": "en", "original_title": "Carrie", "overview": "A reimagining of the classic horror tale about Carrie White, a shy girl outcast by her peers and sheltered by her deeply religious mother, who unleashes telekinetic terror on her small town after being pushed too far at her senior prom.", "poster_path": "/j0999NYddCGcishJlxluDRQIn6k.jpg", "release_date": "2013-10-16", "title": "Carrie", "video": false, "vote_average": 5.9, "vote_count": 2912, "popularity": 14.003}, {"adult": false, "backdrop_path": "/mVqJofGWozzmOf9gg0zQj4f1DmT.jpg", "genre_ids": [27], "id": 24124, "original_language": "en", "original_title": "The Burning", "overview": "A caretaker at a summer camp is burned when a prank goes tragically wrong. After several years of intensive treatment at hospital, he is released back into society, albeit missing some social skills. What follows is a bloody killing spree with the caretaker making his way back to his old stomping ground to confront one of the youths that accidently burned him.", "poster_path": "/d8as1GtCAhlc5rirarnUUd85gJA.jpg", "release_date": "1981-05-08", "title": "The Burning", "video": false, "vote_average": 6.3, "vote_count": 177, "popularity": 9.526}, {"adult": false, "backdrop_path": "/t3OZS8yMs0NL4YgWWc04eXHTn1X.jpg", "genre_ids": [28, 80, 53], "id": 984, "original_language": "en", "original_title": "Dirty Harry", "overview": "When a madman dubbed 'Scorpio' terrorizes San Francisco, hard-nosed cop, Harry Callahan \u2013 famous for his take-no-prisoners approach to law enforcement \u2013 is tasked with hunting down the psychopath. Harry eventually collars Scorpio in the process of rescuing a kidnap victim, only to see him walk on technicalities. Now, the maverick detective is determined to nail the maniac himself.", "poster_path": "/2TADKc4GMMPdMrLXj0xJVgTvZJM.jpg", "release_date": "1971-12-21", "title": "Dirty Harry", "video": false, "vote_average": 7.5, "vote_count": 1172, "popularity": 15.928}, {"adult": false, "backdrop_path": "/kiWvoV78Cc3fUwkOHKzyBgVdrDD.jpg", "genre_ids": [37, 18, 12], "id": 281957, "original_language": "en", "original_title": "The Revenant", "overview": "In the 1820s, a frontiersman, Hugh Glass, sets out on a path of vengeance against those who left him for dead after a bear mauling.", "poster_path": "/oXUWEc5i3wYyFnL1Ycu8ppxxPvs.jpg", "release_date": "2015-12-25", "title": "The Revenant", "video": false, "vote_average": 7.5, "vote_count": 12122, "popularity": 30.491}, {"adult": false, "backdrop_path": "/arcpWGGnUkGkakOwZo7xfPsaz7h.jpg", "genre_ids": [9648, 53], "id": 2832, "original_language": "en", "original_title": "Identity", "overview": "Complete strangers stranded at a remote desert motel during a raging storm soon find themselves the target of a deranged murderer. As their numbers thin out, the travelers begin to turn on each other, as each tries to figure out who the killer is.", "poster_path": "/xSNSp2wmCUwFavxdkMF417hBc39.jpg", "release_date": "2003-04-25", "title": "Identity", "video": false, "vote_average": 7.2, "vote_count": 2089, "popularity": 15.517}, {"adult": false, "backdrop_path": "/a24i4Qw6qFTtkFLQsncv8WPwevj.jpg", "genre_ids": [53, 28, 80], "id": 345887, "original_language": "en", "original_title": "The Equalizer 2", "overview": "Robert McCall, who serves an unflinching justice for the exploited and oppressed, embarks on a relentless, globe-trotting quest for vengeance when a long-time girl friend is murdered.", "poster_path": "/cQvc9N6JiMVKqol3wcYrGshsIdZ.jpg", "release_date": "2018-07-19", "title": "The Equalizer 2", "video": false, "vote_average": 6.5, "vote_count": 2482, "popularity": 24.261}, {"adult": false, "backdrop_path": "/8DkJrxEyRN8gTseEhajybpC5smK.jpg", "genre_ids": [27], "id": 10585, "original_language": "en", "original_title": "Child's Play", "overview": "A single mother gives her son a beloved doll for his birthday, only to discover that it is possessed by the soul of a serial killer.", "poster_path": "/dSX9i2buibfyKFRpK2kOe6rtl5R.jpg", "release_date": "1988-11-08", "title": "Child's Play", "video": false, "vote_average": 6.5, "vote_count": 1415, "popularity": 17.31}, {"adult": false, "backdrop_path": "/4L1MSZo8dQ20x4AhBDKfDs1cOjs.jpg", "genre_ids": [27, 53], "id": 9728, "original_language": "en", "original_title": "Friday the 13th Part III", "overview": "An idyllic summer turns into a nightmare of unspeakable terror for yet another group of naive counselors. Ignoring Camp Crystal Lake's bloody legacy, one by one they fall victim to the maniacal Jason who stalks them at every turn.", "poster_path": "/5wg2NZyIhcMbIBAahBODXHyJ54S.jpg", "release_date": "1982-08-13", "title": "Friday the 13th Part III", "video": false, "vote_average": 5.8, "vote_count": 632, "popularity": 11.072}, {"id": 948, "video": false, "vote_count": 2725, "vote_average": 7.5, "title": "Halloween", "release_date": "1978-10-24", "original_language": "en", "original_title": "Halloween", "genre_ids": [27, 53], "backdrop_path": "/6Io0gvfEVpMQsB46yXOKCpSJOoJ.jpg", "adult": false, "overview": "Fifteen years after murdering his sister on Halloween Night 1963, Michael Myers escapes from a mental hospital and returns to the small town of Haddonfield, Illinois to kill again.", "poster_path": "/vjoOFOTBJcJvA1weJejlZ92LZD4.jpg", "popularity": 20.457}, {"id": 442249, "video": false, "vote_count": 2156, "vote_average": 5.8, "title": "The First Purge", "release_date": "2018-07-04", "original_language": "en", "original_title": "The First Purge", "genre_ids": [28, 27, 878, 53], "backdrop_path": "/r4clWIxKeWoqrHspQP0XunuUmB7.jpg", "adult": false, "overview": "To push the crime rate below one percent for the rest of the year, the New Founding Fathers of America test a sociological theory that vents aggression for one night in one isolated community. But when the violence of oppressors meets the rage of the others, the contagion will explode from the trial-city borders and spread across the nation.", "poster_path": "/litjsBoiydO6JlO70uOX4N3WnNL.jpg", "popularity": 27.168}, {"id": 9373, "video": false, "vote_count": 1413, "vote_average": 6.1, "title": "The Texas Chainsaw Massacre", "release_date": "2003-05-21", "original_language": "en", "original_title": "The Texas Chainsaw Massacre", "genre_ids": [27], "backdrop_path": "/3rTsJ7tIC3LUSRr80PfeLbbCfBA.jpg", "adult": false, "overview": "After picking up a traumatized young hitchhiker, five friends find themselves stalked and hunted by a deformed chainsaw-wielding killer and his family of equally psychopathic killers.", "poster_path": "/gx7FCIOFGxqNyplF3t7qtmUv55g.jpg", "popularity": 17.769}, {"adult": false, "backdrop_path": "/19qAk3bQZ6ulspbwhPw1A0bNpii.jpg", "genre_ids": [80, 27, 53], "id": 73861, "original_language": "sr", "original_title": "Srpski film", "overview": "Milos, a retired porn star, leads a normal family life trying to make ends meet. Presented with the opportunity of a lifetime to financially support his family for the rest of their lives, Milos must participate in one last mysterious film. From then on, Milos is drawn into a maelstrom of unbelievable cruelty and mayhem.", "poster_path": "/iB3ynCghwG63MrViBC6YyPzUIAn.jpg", "release_date": "2010-06-16", "title": "A Serbian Film", "video": false, "vote_average": 5.5, "vote_count": 898, "popularity": 15.06}, {"id": 500664, "video": false, "vote_count": 1707, "vote_average": 7.3, "title": "Upgrade", "release_date": "2018-06-01", "original_language": "en", "original_title": "Upgrade", "genre_ids": [28, 27, 878, 53], "backdrop_path": "/qUAGip3XiaVN668WXF2iyukWgUu.jpg", "adult": false, "overview": "A brutal mugging leaves Grey Trace paralyzed in the hospital and his beloved wife dead. A billionaire inventor soon offers Trace a cure \u2014 an artificial intelligence implant called STEM that will enhance his body. Now able to walk, Grey finds that he also has superhuman strength and agility \u2014 skills he uses to seek revenge against the thugs who destroyed his life.", "poster_path": "/8fDtXi6gVw8WUMWGT9XFz7YwkuE.jpg", "popularity": 23.257}], "total_pages": 58, "total_results": 1154}, "recommendations": {"page": 1, "results": [{"adult": false, "backdrop_path": "/gIa7rKqSe8gupYDB0Ez5Owq1uwg.jpg", "genre_ids": [18, 14], "id": 43252, "original_language": "en", "original_title": "The Story of Mankind", "overview": "The Spirit of Man (Ronald Colman) debates history with the devil (Vincent Price) before a court of fate, because of the hydrogen bomb.", "poster_path": "/llhumPwsSeuBkIKGPIiBOrC9gtv.jpg", "release_date": "1957-11-08", "title": "The Story of Mankind", "video": false, "vote_average": 4.5, "vote_count": 11, "popularity": 4.774}, {"adult": false, "backdrop_path": "/7yVBJXqD5p68G5GPzMK9Sl7FHhJ.jpg", "genre_ids": [80, 18], "id": 29236, "original_language": "en", "original_title": "The Arnelo Affair", "overview": "A neglected wife gets mixed up with an hypnotic charmer and murder.", "poster_path": "/sU77FKKZpi4SiQvKsr3uiXWjS4C.jpg", "release_date": "1947-02-13", "title": "The Arnelo Affair", "video": false, "vote_average": 5.9, "vote_count": 7, "popularity": 3.142}, {"adult": false, "backdrop_path": "/kEhpzC2SmVVaNID18rfqJaTil2C.jpg", "genre_ids": [27], "id": 86901, "original_language": "en", "original_title": "The Face of Marble", "overview": "John Carradine stars as Dr. Charles Randolph, a scientist dedicated to deciphering the secrets of life and death. Aided by assistant David Cochran (Robert Shayne), Charles conducts experiments that have horrifying side effects. Charles's lonely wife, Elaine (Claudia Drake), is frightened by his work, and in order to protect her, housekeeper Maria (Rosa Rey) unleashes a torrent of voodoo that wrecks havoc.", "poster_path": "/lHPW4hZOIu16AKq2D30xF9SZC8q.jpg", "release_date": "1946-01-19", "title": "The Face of Marble", "video": false, "vote_average": 4.9, "vote_count": 7, "popularity": 1.587}], "total_pages": 1, "total_results": 3}, "credits": {"cast": [{"cast_id": 2, "character": "Stephen Lane", "credit_id": "52fe45cac3a368484e06f165", "gender": 2, "id": 93910, "name": "Jack Holt", "order": 0, "profile_path": "/8jn9uEeOyEoj5zpkWy1VAkEpCZ6.jpg"}, {"cast_id": 3, "character": "Gail Hamilton", "credit_id": "52fe45cac3a368484e06f169", "gender": 1, "id": 3242, "name": "Fay Wray", "order": 1, "profile_path": "/iQpiFC0ZwBZPIB0lFddcrmZjIzU.jpg"}, {"cast_id": 4, "character": "Juanita Perez Lane", "credit_id": "52fe45cac3a368484e06f16d", "gender": 1, "id": 103014, "name": "Dorothy Burgess", "order": 2, "profile_path": "/yq4lIByU9SzfwIwGl4GkJZISDgo.jpg"}, {"cast_id": 5, "character": "Nancy Lane", "credit_id": "52fe45cac3a368484e06f171", "gender": 1, "id": 103015, "name": "Cora Sue Collins", "order": 3, "profile_path": "/ovPiFUzhpjsHBkgc2l2fJ0UG0qp.jpg"}, {"cast_id": 6, "character": "Dr. Raymond Perez", "credit_id": "52fe45cac3a368484e06f175", "gender": 2, "id": 51279, "name": "Arnold Korff", "order": 4, "profile_path": "/iwzLmwgsYydAGnfmBw7DLiub0oa.jpg"}, {"cast_id": 7, "character": "'Lunch' McClaren", "credit_id": "52fe45cac3a368484e06f179", "gender": 2, "id": 87825, "name": "Clarence Muse", "order": 5, "profile_path": "/2An9XGreUaKKT7lNw2qEmx7NKPt.jpg"}, {"cast_id": 8, "character": "Anna, the nursemaid", "credit_id": "52fe45cac3a368484e06f17d", "gender": 0, "id": 103016, "name": "Eleanor Wesselhoeft", "order": 6, "profile_path": null}, {"cast_id": 9, "character": "Ruva", "credit_id": "52fe45cac3a368484e06f181", "gender": 0, "id": 103017, "name": "Madame Sul-Te-Wan", "order": 7, "profile_path": null}, {"cast_id": 10, "character": "Kala, the priest", "credit_id": "52fe45cac3a368484e06f185", "gender": 0, "id": 103018, "name": "Laurence Criner", "order": 8, "profile_path": "/iejSiJDoEhr4nXxTeAHzIcDwJCx.jpg"}, {"cast_id": 11, "character": "John Macklin", "credit_id": "52fe45cac3a368484e06f189", "gender": 2, "id": 3369, "name": "Lumsden Hare", "order": 9, "profile_path": "/26Yga7CHRIbYzFWXB3K3wWSz9YY.jpg"}, {"cast_id": 12, "character": "The Psychiatrist", "credit_id": "52fe45cac3a368484e06f18d", "gender": 2, "id": 80236, "name": "Henry Kolker", "order": 10, "profile_path": "/o1FLtKbhJEToYRpP7kMYNthdoLj.jpg"}, {"cast_id": 16, "character": "Sacrificed Girl (uncredited)", "credit_id": "580c9621c3a3682964014c78", "gender": 1, "id": 97042, "name": "Theresa Harris", "order": 11, "profile_path": "/4WQcTE5lAhlq7uS04CDQ2l43scg.jpg"}], "crew": [{"credit_id": "52fe45cac3a368484e06f161", "department": "Directing", "gender": 2, "id": 25165, "job": "Director", "name": "Roy William Neill", "profile_path": "/rFdj73VUiNBJJtmq4C4BQKW3kJE.jpg"}, {"credit_id": "52fe45cac3a368484e06f193", "department": "Writing", "gender": 2, "id": 96253, "job": "Writer", "name": "Wells Root", "profile_path": null}, {"credit_id": "52fe45cac3a368484e06f199", "department": "Production", "gender": 2, "id": 29341, "job": "Producer", "name": "Harry Cohn", "profile_path": "/8W9Elna9PhiXUQey32tzzxZSP8J.jpg"}, {"credit_id": "52fe45cac3a368484e06f19f", "department": "Camera", "gender": 2, "id": 103020, "job": "Director of Photography", "name": "Joseph H. August", "profile_path": null}, {"credit_id": "5cac98fd9251411906b4e3b6", "department": "Camera", "gender": 2, "id": 2284063, "job": "Assistant Camera", "name": "Dave Ragin", "profile_path": null}]}}