{"adult": false, "backdrop_path": null, "belongs_to_collection": null, "budget": 0, "genres": [{"id": 53, "name": "Thriller"}, {"id": 18, "name": "Drama"}], "homepage": null, "id": 291543, "imdb_id": "tt0155944", "original_language": "en", "original_title": "Paranoia", "overview": "A girl, whose entire family was murdered by a serial killer, tries to isolate herself in New York City. Her fear escalates when the murderer starts stalking her on the internet. With his prison sentence about to end, the game of cat and mouse begins.", "popularity": 0.913, "poster_path": "/mXKkgYtdNtAIyuRQ7Cwlrb9DpHC.jpg", "production_companies": [], "production_countries": [{"iso_3166_1": "US", "name": "United States of America"}], "release_date": "1998-06-01", "revenue": 0, "runtime": 91, "spoken_languages": [{"iso_639_1": "en", "name": "English"}], "status": "Released", "tagline": "Get twisted!", "title": "Paranoia", "video": false, "vote_average": 5.0, "vote_count": 2, "keywords": {"keywords": [{"id": 6844, "name": "stalker"}, {"id": 10714, "name": "serial killer"}, {"id": 11322, "name": "female protagonist"}, {"id": 11615, "name": "internet"}]}, "similar": {"page": 1, "results": [{"adult": false, "backdrop_path": "/coLGEhak0KhPpMYABmZdDnZbnSv.jpg", "genre_ids": [53, 27, 9648], "id": 39874, "original_language": "en", "original_title": "My Bloody Valentine", "overview": "Twenty years ago in the sleepy mining town of Valentine Bluffs, a fatal mining disaster occurred on Valentine's Day while some of the crew was decorating for a party. The sole survivor of the accident killed the remaining crewmembers and warned the town not to celebrate Valentine's Day again. When a group of teenagers decides to defy that order, a murderous maniac in mining gear begins dispatching townsfolk in bloody and creative ways.", "poster_path": "/kl3mewFceFtYIavvGts2atzB0e0.jpg", "release_date": "1981-02-11", "title": "My Bloody Valentine", "video": false, "vote_average": 6.3, "vote_count": 162, "popularity": 11.496}, {"adult": false, "backdrop_path": "/o4psXh7IVD6GFKvBSHjHLzjL2lV.jpg", "genre_ids": [27, 53], "id": 10781, "original_language": "en", "original_title": "The Texas Chainsaw Massacre: The Beginning", "overview": "Chrissie and her friends set out on a road trip for a final fling before one is shipped off to Vietnam. Along the way, bikers harass the foursome and cause an accident that throws Chrissie from the vehicle. The lawman who arrives on the scene kills one of the bikers and brings Chrissie's friends to the Hewitt homestead, where young Leatherface is learning the tools of terror.", "poster_path": "/9elCJIG1TOJ0wew3JVx5ZMkHq5w.jpg", "release_date": "2006-10-06", "title": "The Texas Chainsaw Massacre: The Beginning", "video": false, "vote_average": 6.0, "vote_count": 936, "popularity": 19.211}, {"adult": false, "backdrop_path": "/fmo48Lt8XtMWeHeXJzi5SbPCJud.jpg", "genre_ids": [18, 27, 80], "id": 1696, "original_language": "en", "original_title": "The Devil's Rejects", "overview": "The sequel to House of 1000 Corpses \u2013 the Firefly family are ambushed at their isolated home by Sheriff Wydell and a squad of armed men guns blazing \u2013 yet only Otis and his sister, Baby, manage to escape the barrage of bullets unharmed. Hiding out in a backwater motel, the wanted siblings wait to rendezvous with their errant father, Captain Spaulding, killing whoever happens to stand in their way.", "poster_path": "/fj4rrpUlBpFjPaJecpjID6yqacx.jpg", "release_date": "2005-07-22", "title": "The Devil's Rejects", "video": false, "vote_average": 6.7, "vote_count": 720, "popularity": 14.155}, {"adult": false, "backdrop_path": "/qqdVRlVCvVWdmSBYrEHwQuC3GBd.jpg", "genre_ids": [27, 53], "id": 371608, "original_language": "en", "original_title": "The Strangers: Prey at Night", "overview": "A family\u2019s road trip takes a dangerous turn when they arrive at a secluded mobile home park to stay with some relatives and find it mysteriously deserted. Under the cover of darkness, three masked psychopaths pay them a visit to test the family\u2019s every limit as they struggle to survive.", "poster_path": "/vdxLpPsZkPZdFrREp7eSeSzcimj.jpg", "release_date": "2018-03-07", "title": "The Strangers: Prey at Night", "video": false, "vote_average": 5.4, "vote_count": 758, "popularity": 16.815}, {"id": 8090, "video": false, "vote_count": 448, "vote_average": 6.1, "title": "Untraceable", "release_date": "2008-01-22", "original_language": "en", "original_title": "Untraceable", "genre_ids": [9648, 53], "backdrop_path": "/eXuIPt9I1xuaVddlgzEQRC2EMnJ.jpg", "adult": false, "overview": "Special Agent Jennifer Marsh (Diane Lane) works in an elite division of the FBI dedicated to fighting cybercrime. She thinks she has seen it all, until a particularly sadistic criminal arises on the Internet. This tech-savvy killer posts live feeds of his crimes on his website; the more hits the site gets, the faster the victim dies. Marsh and her team must find the elusive killer before time runs out.", "poster_path": "/ySUwDRDEn01lKIMPQorpFCMLWqE.jpg", "popularity": 14.431}, {"adult": false, "backdrop_path": "/7QjoyyGdBV32x1sEh64dAnNjwg2.jpg", "genre_ids": [53, 35, 27], "id": 12521, "original_language": "en", "original_title": "Shocker", "overview": "After being sent to the electric chair, a serial killer uses electricity to come back from the dead and carry out his vengeance on the football player who turned him in to the police.", "poster_path": "/xEDmOhNGCKlWlS3mCiqLCVzBXVA.jpg", "release_date": "1989-10-27", "title": "Shocker", "video": false, "vote_average": 5.5, "vote_count": 176, "popularity": 10.495}, {"adult": false, "backdrop_path": "/t3OZS8yMs0NL4YgWWc04eXHTn1X.jpg", "genre_ids": [28, 80, 53], "id": 984, "original_language": "en", "original_title": "Dirty Harry", "overview": "When a madman dubbed 'Scorpio' terrorizes San Francisco, hard-nosed cop, Harry Callahan \u2013 famous for his take-no-prisoners approach to law enforcement \u2013 is tasked with hunting down the psychopath. Harry eventually collars Scorpio in the process of rescuing a kidnap victim, only to see him walk on technicalities. Now, the maverick detective is determined to nail the maniac himself.", "poster_path": "/2TADKc4GMMPdMrLXj0xJVgTvZJM.jpg", "release_date": "1971-12-21", "title": "Dirty Harry", "video": false, "vote_average": 7.5, "vote_count": 1173, "popularity": 18.839}, {"adult": false, "backdrop_path": "/4L1MSZo8dQ20x4AhBDKfDs1cOjs.jpg", "genre_ids": [27, 53], "id": 9728, "original_language": "en", "original_title": "Friday the 13th Part III", "overview": "An idyllic summer turns into a nightmare of unspeakable terror for yet another group of naive counselors. Ignoring Camp Crystal Lake's bloody legacy, one by one they fall victim to the maniacal Jason who stalks them at every turn.", "poster_path": "/5wg2NZyIhcMbIBAahBODXHyJ54S.jpg", "release_date": "1982-08-13", "title": "Friday the 13th Part III", "video": false, "vote_average": 5.8, "vote_count": 634, "popularity": 15.501}, {"adult": false, "backdrop_path": "/fwreQBx5CD55c1DpH117cS8915P.jpg", "genre_ids": [18, 53], "id": 867, "original_language": "en", "original_title": "Sliver", "overview": "A woman moves into an apartment in Manhattan and learns that the previous tenant's life ended mysteriously after they fell from the balcony.", "poster_path": "/av21Dfu31DQPtp5jkorMMS58rQC.jpg", "release_date": "1993-05-21", "title": "Sliver", "video": false, "vote_average": 5.3, "vote_count": 288, "popularity": 19.094}, {"adult": false, "backdrop_path": "/lnxiNlbStoBT4CDMqPAdprS5pwN.jpg", "genre_ids": [28, 53], "id": 1991, "original_language": "en", "original_title": "Death Proof", "overview": "Austin's hottest DJ, Jungle Julia, sets out into the night to unwind with her two friends Shanna and Arlene. Covertly tracking their moves is Stuntman Mike, a scarred rebel leering from behind the wheel of his muscle car, revving just feet away.", "poster_path": "/nyQBcpxqS4im2akQlWG9Y1oeM2V.jpg", "release_date": "2007-05-21", "title": "Death Proof", "video": false, "vote_average": 6.8, "vote_count": 2821, "popularity": 17.718}, {"id": 948, "video": false, "vote_count": 2727, "vote_average": 7.5, "title": "Halloween", "release_date": "1978-10-24", "original_language": "en", "original_title": "Halloween", "genre_ids": [27, 53], "backdrop_path": "/6Io0gvfEVpMQsB46yXOKCpSJOoJ.jpg", "adult": false, "overview": "Fifteen years after murdering his sister on Halloween Night 1963, Michael Myers escapes from a mental hospital and returns to the small town of Haddonfield, Illinois to kill again.", "poster_path": "/vjoOFOTBJcJvA1weJejlZ92LZD4.jpg", "popularity": 16.369}, {"adult": false, "backdrop_path": "/arcpWGGnUkGkakOwZo7xfPsaz7h.jpg", "genre_ids": [9648, 53], "id": 2832, "original_language": "en", "original_title": "Identity", "overview": "Complete strangers stranded at a remote desert motel during a raging storm soon find themselves the target of a deranged murderer. As their numbers thin out, the travelers begin to turn on each other, as each tries to figure out who the killer is.", "poster_path": "/xSNSp2wmCUwFavxdkMF417hBc39.jpg", "release_date": "2003-04-25", "title": "Identity", "video": false, "vote_average": 7.2, "vote_count": 2091, "popularity": 19.629}, {"id": 11974, "video": false, "vote_count": 611, "vote_average": 6.8, "title": "The 'Burbs", "release_date": "1989-02-17", "original_language": "en", "original_title": "The 'Burbs", "genre_ids": [35, 27, 53], "backdrop_path": "/yCOTJnV7I0UcusTycv5bGEDQ5ll.jpg", "adult": false, "overview": "When secretive new neighbors move in next door, suburbanite Ray Peterson and his friends let their paranoia get the best of them as they start to suspect the newcomers of evildoings and commence an investigation. But it's hardly how Ray, who much prefers drinking beer, reading his newspaper and watching a ball game on the tube expected to spend his vacation.", "poster_path": "/zPEECSo5ZOBr9oEmBLSVXcqndTO.jpg", "popularity": 13.086}, {"adult": false, "backdrop_path": "/shNOTvaMz7C05LxBOWpakfJVWHc.jpg", "genre_ids": [27, 53], "id": 10987, "original_language": "en", "original_title": "Halloween: The Curse of Michael Myers", "overview": "Six years ago, Michael Myers terrorized the town of Haddonfield, Illinois. He and his niece, Jamie Lloyd, have disappeared. Jamie was kidnapped by a bunch of evil druids who protect Michael Myers. And now, six years later, Jamie has escaped after giving birth to Michael's child. She runs to Haddonfield to get Dr. Loomis to help her again.", "poster_path": "/8Tw5IttoEATGD2FHhcG9bDzqwbi.jpg", "release_date": "1995-09-29", "title": "Halloween: The Curse of Michael Myers", "video": false, "vote_average": 5.0, "vote_count": 471, "popularity": 14.084}, {"adult": false, "backdrop_path": "/oni8CXvEg56JhrfVdVUrQYOuhP0.jpg", "genre_ids": [80, 28, 53], "id": 55846, "original_language": "en", "original_title": "Blitz", "overview": "A tough, renegade cop with a gay sidekick is dispatched to take down a serial killer who has been targeting police officers.", "poster_path": "/woY0qY4DR6bPOQ7cBwyblePsYky.jpg", "release_date": "2011-05-20", "title": "Blitz", "video": false, "vote_average": 6.0, "vote_count": 862, "popularity": 18.232}, {"id": 8461, "video": false, "vote_count": 1137, "vote_average": 6.5, "title": "Funny Games", "release_date": "2007-10-20", "original_language": "en", "original_title": "Funny Games", "genre_ids": [80, 18, 27, 53], "backdrop_path": "/x0IvYeF88qYoKkigRjJ9CiyfY6b.jpg", "adult": false, "overview": "When Ann, husband George, and son Georgie arrive at their holiday home they are visited by a pair of polite and seemingly pleasant young men. Armed with deceptively sweet smiles and some golf clubs, they proceed to terrorize and torture the tight-knit clan, giving them until the next day to survive.", "poster_path": "/eyYqrggNEJpoqulbyaDBW2ABjwO.jpg", "popularity": 11.214}, {"adult": false, "backdrop_path": "/vIsKcpscdELfbBHHsfLvfTTMIc3.jpg", "genre_ids": [27], "id": 429476, "original_language": "en", "original_title": "Hell Fest", "overview": "On Halloween night at a horror theme park, a costumed killer begins slaying innocent patrons who believe that it's all part of the festivities.", "poster_path": "/99dwKr0Q6Gatq8GDcHvFoB8XLVX.jpg", "release_date": "2018-09-27", "title": "Hell Fest", "video": false, "vote_average": 5.6, "vote_count": 406, "popularity": 12.729}, {"id": 524247, "video": false, "vote_count": 168, "vote_average": 6.3, "title": "The Intruder", "release_date": "2019-05-03", "original_language": "en", "original_title": "The Intruder", "genre_ids": [18, 9648, 53], "backdrop_path": "/kyegg1r5oxRCZgqU7anHYD2TJap.jpg", "adult": false, "overview": "A psychological thriller about a young married couple who buys a beautiful Napa Valley house on several acres of land only to find that the man they bought it from refuses to let go of the property.", "poster_path": "/p9xKyetr0ihJ2K6HJMeXzc4IwEv.jpg", "popularity": 12.759}, {"adult": false, "backdrop_path": "/1uTsElgkaNwU1onA8ypDVZpjQPf.jpg", "genre_ids": [27, 53], "id": 5486, "original_language": "it", "original_title": "Ecologia del delitto", "overview": "An elderly heiress is killed by her husband who wants control of her fortunes. What ensues is an all-out murder spree as relatives and friends attempt to reduce the inheritance playing field, complicated by some teenagers who decide to camp out in a dilapidated building on the estate.", "poster_path": "/5l3LNFzdF50lImSYHmTpGdRndM2.jpg", "release_date": "1971-08-08", "title": "A Bay of Blood", "video": false, "vote_average": 6.5, "vote_count": 154, "popularity": 9.806}, {"adult": false, "backdrop_path": "/z3s3TdRvEWC1TFrwtk0qhB7OdHh.jpg", "genre_ids": [27, 53], "id": 12662, "original_language": "en", "original_title": "Psycho III", "overview": "Norman Bates is still running his little motel, and he has kept the dressed skeleton he calls 'mother'. One day a nosey journalist comes to see him to ask questions about his past.", "poster_path": "/etiLhEebRnFExeb70COwqqeO8Kd.jpg", "release_date": "1986-04-02", "title": "Psycho III", "video": false, "vote_average": 5.6, "vote_count": 173, "popularity": 9.895}], "total_pages": 257, "total_results": 5132}, "recommendations": {"page": 1, "results": [], "total_pages": 1, "total_results": 0}, "credits": {"cast": [{"cast_id": 2, "character": "Jana Mercer", "credit_id": "547f634e9251412398000185", "gender": 1, "id": 14607, "name": "Brigitte Bako", "order": 1, "profile_path": "/1D7yfHTpFEc8nQmsHHJiFE5yvwe.jpg"}, {"cast_id": 3, "character": "Calvin Hawks", "credit_id": "547f635bc3a3683d97000160", "gender": 2, "id": 16476, "name": "Larry Drake", "order": 2, "profile_path": "/yRtzWEX4wdviO7bV5rH5z4AfGvv.jpg"}, {"cast_id": 4, "character": "Dr. Kurtzwell", "credit_id": "547f6369c3a3683d9b000198", "gender": 1, "id": 12134, "name": "Sally Kirkland", "order": 3, "profile_path": "/wkSuQqn6ms8uvigDAla9TNxvEue.jpg"}, {"cast_id": 5, "character": "Mark Daniels", "credit_id": "547f6376925141239b0001ae", "gender": 2, "id": 182204, "name": "Robert Floyd", "order": 4, "profile_path": "/7dhaaBTCdIuavB6Nk5zcenToV6S.jpg"}, {"cast_id": 6, "character": "David", "credit_id": "547f637f925141238f00015b", "gender": 2, "id": 46395, "name": "Stephen Gevedon", "order": 5, "profile_path": "/6VM3pEpwebjUKJvIlxzRu4LnBoP.jpg"}, {"cast_id": 7, "character": "Warren", "credit_id": "547f638a925141239800018a", "gender": 2, "id": 24519, "name": "Scott Valentine", "order": 6, "profile_path": "/rpuoosMHy5bALNvAOzN8ucL0k3k.jpg"}, {"cast_id": 8, "character": "Brady Watts", "credit_id": "547f6396925141239b0001b2", "gender": 0, "id": 1057131, "name": "Marty McDonough", "order": 7, "profile_path": null}], "crew": [{"credit_id": "547f6336c3a3683d910001fa", "department": "Directing", "gender": 2, "id": 49730, "job": "Director", "name": "Larry Brand", "profile_path": null}, {"credit_id": "547f633cc3a3683d8c00016b", "department": "Writing", "gender": 2, "id": 49730, "job": "Screenplay", "name": "Larry Brand", "profile_path": null}]}}