{"adult": false, "backdrop_path": "/8XqHJ5tyB4wSApjGGzSAcYHl6cE.jpg", "belongs_to_collection": {"id": 297501, "name": "Dixie Zombi - Colecci\u00f3n", "poster_path": "/fqRUpSwH5qj8vl7J7BHLzn4UywN.jpg", "backdrop_path": "/bR2zZkiT0mdwfrQl7CQPvqB8nEu.jpg"}, "budget": 64319, "genres": [{"id": 14, "name": "Fantasy"}, {"id": 16, "name": "Animation"}], "homepage": "http://dixiezombi.com/", "id": 292106, "imdb_id": "tt3789946", "original_language": "en", "original_title": "Dixie y la rebeli\u00f3n zombi (Dixie eta matxinada zonbia)", "overview": "In the sequel to \"Daddy, I'm a Zombie\", all of our favorite characters are back! The fate of the planet is once again in Dixie's hands as she must fight to end the battle that has erupted between the living and the walking dead while balancing her newfound popularity at school and a campaign for student council.", "popularity": 2.09, "poster_path": "/2TXZKvmB1nwHt0sn7aowJJZTOFP.jpg", "production_companies": [{"id": 32718, "logo_path": null, "name": "Departamento de Cultura del Gobierno Vasco", "origin_country": ""}, {"id": 7343, "logo_path": null, "name": "Etb (Euskal Telebista)", "origin_country": ""}, {"id": 10091, "logo_path": null, "name": "Barton Films", "origin_country": ""}, {"id": 10118, "logo_path": null, "name": "Abra Producciones", "origin_country": ""}, {"id": 29258, "logo_path": null, "name": "Ministerio de Cultura Espa\u00f1a", "origin_country": ""}, {"id": 11427, "logo_path": null, "name": "Instituto de Cr\u00e9dito Oficial (ICO)", "origin_country": ""}, {"id": 16055, "logo_path": null, "name": "Generalitat de Catalunya - Institut Catal\u00e0 de les Ind\u00fastries Culturals (ICIC)", "origin_country": ""}], "production_countries": [{"iso_3166_1": "ES", "name": "Spain"}], "release_date": "2014-10-06", "revenue": 1000000, "runtime": 88, "spoken_languages": [{"iso_639_1": "es", "name": "Espa\u00f1ol"}], "status": "Released", "tagline": "War between humans and zombies just began!", "title": "Mummy, I'm a Zombie", "video": false, "vote_average": 4.4, "vote_count": 4, "keywords": {"keywords": [{"id": 9663, "name": "sequel"}, {"id": 177895, "name": "dark fantasy"}]}, "similar": {"page": 1, "results": [{"adult": false, "backdrop_path": "/4brEMzPazQE3hv3mogj6k1a29RP.jpg", "genre_ids": [10749, 14, 16], "id": 3933, "original_language": "en", "original_title": "Corpse Bride", "overview": "Set in a 19th-century european village, this stop-motion animation feature follows the story of Victor, a young man whisked away to the underworld and wed to a mysterious corpse bride, while his real bride Victoria waits bereft in the land of the living.", "poster_path": "/o9GbcdP7rOg2m1NyUnUR3ZwNcTE.jpg", "release_date": "2005-09-12", "title": "Corpse Bride", "video": false, "vote_average": 7.4, "vote_count": 4928, "popularity": 23.702}, {"id": 326359, "video": false, "vote_count": 1180, "vote_average": 6.8, "title": "Frozen Fever", "release_date": "2015-03-09", "original_language": "en", "original_title": "Frozen Fever", "genre_ids": [12, 16, 10751], "backdrop_path": "/ubioPGniCfDiASmYYpeJs5RRNaC.jpg", "adult": false, "overview": "On Anna's birthday, Elsa and Kristoff are determined to give her the best celebration ever, but Elsa's icy powers may put more than just the party at risk.", "poster_path": "/lKJiVPzsAO9IJ4LKWXZ8vkR2bg4.jpg", "popularity": 17.218}, {"id": 9479, "video": false, "vote_count": 5316, "vote_average": 7.8, "title": "The Nightmare Before Christmas", "release_date": "1993-10-09", "original_language": "en", "original_title": "The Nightmare Before Christmas", "genre_ids": [16, 14, 10751], "backdrop_path": "/16lk65YfrDFIr6evkWRjSeOOSws.jpg", "adult": false, "overview": "Tired of scaring humans every October 31 with the same old bag of tricks, Jack Skellington, the spindly king of Halloween Town, kidnaps Santa Claus and plans to deliver shrunken heads and other ghoulish gifts to children on Christmas morning. But as Christmas approaches, Jack's rag-doll girlfriend, Sally, tries to foil his misguided plans.", "poster_path": "/6oxkO1VgKCq74fNILKAg6t2dVEt.jpg", "popularity": 18.951}, {"adult": false, "backdrop_path": "/qFLDF62VbWyyxkwco9lwZqkGoMB.jpg", "genre_ids": [16, 10751], "id": 10895, "original_language": "en", "original_title": "Pinocchio", "overview": "Lonely toymaker Geppetto has his wishes answered when the Blue Fairy arrives to bring his wooden puppet Pinocchio to life. Before becoming a real boy, however, Pinocchio must prove he's worthy as he sets off on an adventure with his whistling sidekick and conscience, Jiminy Cricket.", "poster_path": "/gN1dQBHi4557cFduIu9njOr6knW.jpg", "release_date": "1940-02-23", "title": "Pinocchio", "video": false, "vote_average": 7.0, "vote_count": 3431, "popularity": 25.831}, {"id": 313297, "video": false, "vote_count": 2277, "vote_average": 7.7, "title": "Kubo and the Two Strings", "release_date": "2016-08-18", "original_language": "en", "original_title": "Kubo and the Two Strings", "genre_ids": [12, 16, 10751], "backdrop_path": "/aF4TrSc1IbNNtsWdwixMQNku3Dv.jpg", "adult": false, "overview": "Kubo mesmerizes the people in his village with his magical gift for spinning wild tales with origami. When he accidentally summons an evil spirit seeking vengeance, Kubo is forced to go on a quest to solve the mystery of his fallen samurai father and his mystical weaponry, as well as discover his own magical powers.", "poster_path": "/3Kr9CIIMcXTPlm6cdZ9y3QTe4Y7.jpg", "popularity": 33.362}, {"id": 68737, "video": false, "vote_count": 1669, "vote_average": 5.3, "title": "Seventh Son", "release_date": "2014-12-12", "original_language": "en", "original_title": "Seventh Son", "genre_ids": [12, 14], "backdrop_path": "/iAX8lPlDEeGHatw79k1LfGLbTi2.jpg", "adult": false, "overview": "John Gregory, who is a seventh son of a seventh son and also the local spook, has protected the country from witches, boggarts, ghouls and all manner of things that go bump in the night. However John is not young anymore, and has been seeking an apprentice to carry on his trade. Most have failed to survive. The last hope is a young farmer's son named Thomas Ward. Will he survive the training to become the spook that so many others couldn't?", "poster_path": "/zzfzErL8HIyNTRqBHqZAVvEKJ54.jpg", "popularity": 27.375}, {"id": 14836, "video": false, "vote_count": 3514, "vote_average": 7.6, "title": "Coraline", "release_date": "2009-02-05", "original_language": "en", "original_title": "Coraline", "genre_ids": [16, 10751], "backdrop_path": "/obBsMjC9dkDeoYsLxHURikW87UZ.jpg", "adult": false, "overview": "When Coraline moves to an old house, she feels bored and neglected by her parents. She finds a hidden door with a bricked up passage. During the night, she crosses the passage and finds a parallel world where everybody has buttons instead of eyes, with caring parents and all her dreams coming true. When the Other Mother invites Coraline to stay in her world forever, the girl refuses and finds that the alternate reality where she is trapped is only a trick to lure her.", "poster_path": "/ybOmHUVVXcwBQErjw7tmeE97fpO.jpg", "popularity": 25.26}, {"id": 77931, "video": false, "vote_count": 1336, "vote_average": 5.7, "title": "The Smurfs 2", "release_date": "2013-07-30", "original_language": "en", "original_title": "The Smurfs 2", "genre_ids": [16, 35, 14, 10751], "backdrop_path": "/xqfnJn8ApELIa1zGLOa3W9q2Ztn.jpg", "adult": false, "overview": "The evil wizard Gargamel creates a couple of mischievous Smurf-like creatures called the Naughties that he hopes will let him harness the all-powerful, magical Smurf-essence. But when he discovers that only a real Smurf can give him what he wants, and only a secret spell that Smurfette knows can turn the Naughties into real Smurfs, Gargamel kidnaps Smurfette and brings her to Paris, where he has been winning the adoration of millions as the world\u00b9s greatest sorcerer. It's up to Papa, Clumsy, Grouchy, and Vanity to return to our world, reunite with their human friends Patrick and Grace Winslow, and rescue her! Will Smurfette, who has always felt different from the other Smurfs, find a new connection with the Naughties Vexy and Hackus or will the Smurfs convince her that their love for her is True Blue?", "poster_path": "/mF2FXzZ3EktWoagU4fzoabNsK6J.jpg", "popularity": 16.262}, {"adult": false, "backdrop_path": "/yDmyqO3xHTVxtyM0CuqobSX3Hjr.jpg", "genre_ids": [16, 10751, 14], "id": 10144, "original_language": "en", "original_title": "The Little Mermaid", "overview": "This colorful adventure tells the story of an impetuous mermaid princess named Ariel who falls in love with the very human Prince Eric and puts everything on the line for the chance to be with him. Memorable songs and characters -- including the villainous sea witch Ursula.", "poster_path": "/6aXMusULuKFAK0ZRUlv7RJ9zHTc.jpg", "release_date": "1989-11-17", "title": "The Little Mermaid", "video": false, "vote_average": 7.3, "vote_count": 4669, "popularity": 25.992}, {"adult": false, "backdrop_path": "/9l5Nzo1qbEslfCu2NYWimpZ1Vkc.jpg", "genre_ids": [35, 10751, 14, 10749], "id": 4523, "original_language": "en", "original_title": "Enchanted", "overview": "The beautiful princess Giselle is banished by an evil queen from her magical, musical animated land and finds herself in the gritty reality of the streets of modern-day Manhattan. Shocked by this strange new environment that doesn't operate on a \"happily ever after\" basis, Giselle is now adrift in a chaotic world badly in need of enchantment. But when Giselle begins to fall in love with a charmingly flawed divorce lawyer who has come to her aid - even though she is already promised to a perfect fairy tale prince back home - she has to wonder: Can a storybook view of romance survive in the real world?", "poster_path": "/65EfHNQ6NCeAoRPNLRhTyLqNZmU.jpg", "release_date": "2007-11-20", "title": "Enchanted", "video": false, "vote_average": 6.7, "vote_count": 3505, "popularity": 22.541}, {"id": 920, "video": false, "vote_count": 8603, "vote_average": 6.7, "title": "Cars", "release_date": "2006-06-08", "original_language": "en", "original_title": "Cars", "genre_ids": [12, 16, 35, 10751], "backdrop_path": "/a1MlbLBk5Sy6YvMbSuKfwGlDVlb.jpg", "adult": false, "overview": "Lightning McQueen, a hotshot rookie race car driven to succeed, discovers that life is about the journey, not the finish line, when he finds himself unexpectedly detoured in the sleepy Route 66 town of Radiator Springs. On route across the country to the big Piston Cup Championship in California to compete against two seasoned pros, McQueen gets to know the town's offbeat characters.", "poster_path": "/jpfkzbIXgKZqCZAkEkFH2VYF63s.jpg", "popularity": 58.103}, {"id": 12092, "video": false, "vote_count": 3673, "vote_average": 7.1, "title": "Alice in Wonderland", "release_date": "1951-07-03", "original_language": "en", "original_title": "Alice in Wonderland", "genre_ids": [12, 16, 14, 10751], "backdrop_path": "/p6frW7qR3wUbssM25BS8BlzyoKc.jpg", "adult": false, "overview": "On a golden afternoon, young Alice follows a White Rabbit, who disappears down a nearby rabbit hole. Quickly following him, she tumbles into the burrow - and enters the merry, topsy-turvy world of Wonderland! Memorable songs and whimsical escapades highlight Alice's journey, which culminates in a madcap encounter with the Queen of Hearts - and her army of playing cards!", "poster_path": "/AdwfqyNiH8UqeYKFYoiKhwTtjAb.jpg", "popularity": 31.985}, {"adult": false, "backdrop_path": "/5OeY4U2rzePxWq2rkqMajUx2gz7.jpg", "genre_ids": [16, 10751, 12, 14, 10749], "id": 812, "original_language": "en", "original_title": "Aladdin", "overview": "Princess Jasmine grows tired of being forced to remain in the palace, so she sneaks out into the marketplace, in disguise, where she meets street-urchin Aladdin.  The couple falls in love, although Jasmine may only marry a prince.  After being thrown in jail, Aladdin becomes embroiled in a plot to find a mysterious lamp, with which the evil Jafar hopes to rule the land.", "poster_path": "/mjKozYRuHc9j7SmiXmbVmCiAM0A.jpg", "release_date": "1992-11-25", "title": "Aladdin", "video": false, "vote_average": 7.6, "vote_count": 7289, "popularity": 35.494}, {"adult": false, "backdrop_path": "/eC8TeqWgfyXi5gSkWwoRMh4Zd18.jpg", "genre_ids": [16, 10751], "id": 11544, "original_language": "en", "original_title": "Lilo & Stitch", "overview": "As Stitch, a runaway genetic experiment from a faraway planet, wreaks havoc on the Hawaiian Islands, he becomes the mischievous adopted alien \"puppy\" of an independent little girl named Lilo and learns about loyalty, friendship, and 'ohana, the Hawaiian tradition of family.", "poster_path": "/tVaEulzowKhMhDvHNNYb9rNEZPB.jpg", "release_date": "2002-06-21", "title": "Lilo & Stitch", "video": false, "vote_average": 7.4, "vote_count": 3483, "popularity": 22.786}, {"id": 9016, "video": false, "vote_count": 2231, "vote_average": 7.4, "title": "Treasure Planet", "release_date": "2002-11-26", "original_language": "en", "original_title": "Treasure Planet", "genre_ids": [12, 16, 14, 878, 10751], "backdrop_path": "/3HVvtFm9NvOfn1u3yfeEugh2ZWj.jpg", "adult": false, "overview": "When space galleon cabin boy Jim Hawkins discovers a map to an intergalactic \"loot of a thousand worlds,\" a cyborg cook named John Silver teaches him to battle supernovas and space storms. But, soon, Jim realizes Silver is a pirate intent on mutiny!", "poster_path": "/gFfZVblQoExIVK4PVCJ9xZZJJKy.jpg", "popularity": 23.423}, {"adult": false, "backdrop_path": "/3nG6BBIxgqbIM5p1iO61RyKzUkZ.jpg", "genre_ids": [16, 10751, 14, 12, 35, 10749], "id": 11970, "original_language": "en", "original_title": "Hercules", "overview": "Bestowed with superhuman strength, a young mortal named Hercules sets out to prove himself a hero in the eyes of his father, the great god Zeus. Along with his friends Pegasus, a flying horse, and Phil, a personal trainer, Hercules is tricked by the hilarious, hotheaded villain Hades, who's plotting to take over Mount Olympus!", "poster_path": "/eFlBFMAifj436QctX3akDkUnhlk.jpg", "release_date": "1997-06-20", "title": "Hercules", "video": false, "vote_average": 7.5, "vote_count": 4318, "popularity": 23.839}, {"id": 533, "video": false, "vote_count": 1440, "vote_average": 6.9, "title": "Wallace & Gromit: The Curse of the Were-Rabbit", "release_date": "2005-09-04", "original_language": "en", "original_title": "Wallace & Gromit: The Curse of the Were-Rabbit", "genre_ids": [12, 16, 35, 10751], "backdrop_path": "/v45E1vDhPp2hc1dEZx5KZuRsSxX.jpg", "adult": false, "overview": "Cheese-loving eccentric Wallace and his cunning canine pal, Gromit, investigate a mystery in Nick Park's animated adventure, in which the lovable inventor and his intrepid pup run a business ridding the town of garden pests. Using only humane methods that turn their home into a halfway house for evicted vermin, the pair stumble upon a mystery involving a voracious vegetarian monster that threatens to ruin the annual veggie-growing contest.", "poster_path": "/tLryx0x9TDV5rifA9W8yUvDZFHB.jpg", "popularity": 21.23}, {"id": 399174, "video": false, "vote_count": 2443, "vote_average": 7.9, "title": "Isle of Dogs", "release_date": "2018-03-23", "original_language": "en", "original_title": "Isle of Dogs", "genre_ids": [12, 16, 35], "backdrop_path": "/5YtXsLG9ncjjFyGZjoeV31CGf01.jpg", "adult": false, "overview": "In the future, an outbreak of canine flu leads the mayor of a Japanese city to banish all dogs to an island that's a garbage dump. The outcasts must soon embark on an epic journey when a 12-year-old boy arrives on the island to find his beloved pet.", "poster_path": "/c0nUX6Q1ZB0P2t1Jo6EeFSVnOGQ.jpg", "popularity": 20.413}, {"id": 10693, "video": false, "vote_count": 3346, "vote_average": 7.2, "title": "Peter Pan", "release_date": "1953-02-05", "original_language": "en", "original_title": "Peter Pan", "genre_ids": [12, 16, 14, 10751], "backdrop_path": "/9bNHgmqQ4u4ujYpGwCiMB2BsCLC.jpg", "adult": false, "overview": "Leaving the safety of their nursery behind, Wendy, Michael and John follow Peter Pan to a magical world where childhood lasts forever. But while in Neverland, the kids must face Captain Hook and foil his attempts to get rid of Peter for good.", "poster_path": "/6UTZmeQcxbtW32MyR5nKIx7ID4f.jpg", "popularity": 30.689}, {"id": 10882, "video": false, "vote_count": 3219, "vote_average": 6.9, "title": "Sleeping Beauty", "release_date": "1959-01-28", "original_language": "en", "original_title": "Sleeping Beauty", "genre_ids": [16, 14, 10749, 10751], "backdrop_path": "/oHZIobyIG0YzWntyPCTSJDOk9qB.jpg", "adult": false, "overview": "A beautiful princess born in a faraway kingdom is destined by a terrible curse to prick her finger on the spindle of a spinning wheel and fall into a deep sleep that can only be awakened by true love's first kiss. Determined to protect her, her parents ask three fairies to raise her in hiding. But the evil Maleficent is just as determined to seal the princess's fate.", "poster_path": "/j4YBuAe8D1jDSiitpq69og9x3Yl.jpg", "popularity": 29.356}], "total_pages": 581, "total_results": 11614}, "recommendations": {"page": 1, "results": [], "total_pages": 1, "total_results": 0}, "credits": {"cast": [{"cast_id": 7, "character": "Dixie", "credit_id": "546a4f8722136e68c900417e", "gender": 0, "id": 1074711, "name": "Paula Rib\u00f3", "order": 1, "profile_path": null}, {"cast_id": 8, "character": "Isis", "credit_id": "546a4fa7eaeb817d3e000072", "gender": 1, "id": 1021608, "name": "N\u00faria Trifol", "order": 2, "profile_path": null}, {"cast_id": 9, "character": "Julia", "credit_id": "546a4fc7eaeb8120f90001b0", "gender": 1, "id": 1021608, "name": "N\u00faria Trifol", "order": 3, "profile_path": null}, {"cast_id": 10, "character": "Negreda", "credit_id": "546a4fdc22136e68cc003d78", "gender": 0, "id": 938638, "name": "Roser Batalla", "order": 4, "profile_path": null}, {"cast_id": 11, "character": "Gonner", "credit_id": "546a5019eaeb8120f90001b6", "gender": 0, "id": 31415, "name": "Ivan Labanda", "order": 5, "profile_path": null}, {"cast_id": 12, "character": "Piroska", "credit_id": "546a5033eaeb81210d000c39", "gender": 0, "id": 938640, "name": "Elisabeth Bergall\u00f3", "order": 6, "profile_path": null}, {"cast_id": 13, "character": "Vitriol", "credit_id": "546a504feaeb816b46003bfb", "gender": 0, "id": 1021607, "name": "Luis Posada ", "order": 7, "profile_path": null}, {"cast_id": 14, "character": "Ricardo", "credit_id": "546a5063eaeb816b4b003c8c", "gender": 0, "id": 1021607, "name": "Luis Posada ", "order": 8, "profile_path": null}, {"cast_id": 15, "character": "Matizcko", "credit_id": "546a509a22136e68d8003991", "gender": 0, "id": 1074712, "name": "Albert Mieza", "order": 9, "profile_path": null}, {"cast_id": 16, "character": "Liliana", "credit_id": "546a50b9eaeb816b58003b77", "gender": 0, "id": 1074713, "name": "Clara Schwarze", "order": 10, "profile_path": null}, {"cast_id": 17, "character": "Sof\u00eda", "credit_id": "546a50d622136e68d5003b89", "gender": 0, "id": 938638, "name": "Roser Batalla", "order": 11, "profile_path": null}, {"cast_id": 18, "character": "Briana", "credit_id": "546a50f922136e68d800399a", "gender": 0, "id": 1073466, "name": "Graciela Molina", "order": 12, "profile_path": null}], "crew": [{"credit_id": "543da36c0e0a266f8100081a", "department": "Directing", "gender": 0, "id": 938637, "job": "Director", "name": "Ricardo Ram\u00f3n", "profile_path": "/3IGS3X1Ed7X98odU4yPSUrWyzeV.jpg"}, {"credit_id": "543da385c3a3682500000846", "department": "Directing", "gender": 0, "id": 1165892, "job": "Director", "name": "Be\u00f1at Beitia", "profile_path": null}, {"credit_id": "543da3cac3a368250d00071c", "department": "Writing", "gender": 2, "id": 127657, "job": "Writer", "name": "Daniel Torres", "profile_path": null}, {"credit_id": "543da49dc3a3682504000815", "department": "Sound", "gender": 0, "id": 1374101, "job": "Music", "name": "Manel Gil", "profile_path": null}, {"credit_id": "546a4f3622136e68cf003d8d", "department": "Sound", "gender": 0, "id": 1386415, "job": "Sound Editor", "name": "Koldo Corella", "profile_path": null}, {"credit_id": "546a4f5f22136e68c9004177", "department": "Production", "gender": 0, "id": 1386416, "job": "Producer", "name": "Alberto Gerrikabeitia", "profile_path": null}, {"credit_id": "546a4f72eaeb816b58003b58", "department": "Production", "gender": 0, "id": 1382983, "job": "Executive Producer", "name": "Joxe Portela", "profile_path": null}]}}