{"adult": false, "backdrop_path": "/wTmS4vYcOtqABWVjPtTisgR4cZo.jpg", "belongs_to_collection": null, "budget": 0, "genres": [{"id": 80, "name": "Crime"}, {"id": 18, "name": "Drama"}, {"id": 9648, "name": "Mystery"}, {"id": 53, "name": "Thriller"}], "homepage": null, "id": 29260, "imdb_id": "tt0041983", "original_language": "en", "original_title": "Trapped", "overview": "U.S. Treasury Department agents go after a ring of counterfeiters.", "popularity": 3.912, "poster_path": "/kcJcjDS7nDHBbGIvePELD8P5fPF.jpg", "production_companies": [{"id": 4927, "logo_path": null, "name": "Eagle-Lion Films", "origin_country": "GB"}], "production_countries": [{"iso_3166_1": "US", "name": "United States of America"}], "release_date": "1949-10-01", "revenue": 0, "runtime": 78, "spoken_languages": [{"iso_639_1": "en", "name": "English"}], "status": "Released", "tagline": "When a killer dreams of millions... and a girl to spend them on!", "title": "Trapped", "video": false, "vote_average": 4.8, "vote_count": 10, "keywords": {"keywords": [{"id": 10889, "name": "counterfeit"}, {"id": 10890, "name": "treasury department"}, {"id": 11034, "name": "b movie"}, {"id": 195402, "name": "film noir"}]}, "similar": {"page": 1, "results": [{"adult": false, "backdrop_path": "/1l77Gk2OK9hjRFze08El8Do3pT1.jpg", "genre_ids": [80, 9648, 53], "id": 996, "original_language": "en", "original_title": "Double Indemnity", "overview": "A rich woman and a calculating insurance agent plot to kill her unsuspecting husband after he signs a double indemnity policy.  Against a backdrop of distinctly Californian settings, the partners in crime plan the perfect murder to collect the insurance, which pays  double if the death is accidental.", "poster_path": "/nW0cCpfuGcR1JG7EinDbdL2Ijf2.jpg", "release_date": "1944-07-03", "title": "Double Indemnity", "video": false, "vote_average": 8.2, "vote_count": 858, "popularity": 14.326}, {"id": 1092, "video": false, "vote_count": 891, "vote_average": 8.0, "title": "The Third Man", "release_date": "1949-08-31", "original_language": "en", "original_title": "The Third Man", "genre_ids": [9648, 53], "backdrop_path": "/lrIuSWdC1LfKJZUnBX6axJxzZGe.jpg", "adult": false, "overview": "In postwar Vienna, Austria, Holly Martins, a writer of pulp Westerns, arrives penniless as a guest of his childhood chum Harry Lime, only to learn he has died. Martins develops a conspiracy theory after learning of a \"third man\" present at the time of Harry's death, running into interference from British officer Major Calloway, and falling head-over-heels for Harry's grief-stricken lover, Anna.", "poster_path": "/rO2Fq0AZZx9obs52KJdx4mRE8p5.jpg", "popularity": 14.387}, {"adult": false, "backdrop_path": "/c7iSbhSffDkM2yf5cg3D91FuVga.jpg", "genre_ids": [9648, 10749, 53], "id": 426, "original_language": "en", "original_title": "Vertigo", "overview": "A retired San Francisco detective suffering from acrophobia investigates the strange activities of an old friend's wife, all the while becoming dangerously obsessed with her.", "poster_path": "/obhM86qyv8RsE69XSMTtT9FdE0b.jpg", "release_date": "1958-05-09", "title": "Vertigo", "video": false, "vote_average": 8.2, "vote_count": 2889, "popularity": 21.778}, {"id": 402, "video": false, "vote_count": 1776, "vote_average": 6.7, "title": "Basic Instinct", "release_date": "1992-03-20", "original_language": "en", "original_title": "Basic Instinct", "genre_ids": [9648, 53], "backdrop_path": "/bKdxJMqvr4wltzAQaieA6CTkaa9.jpg", "adult": false, "overview": "A police detective is in charge of the investigation of a brutal murder, in which a beautiful and seductive woman could be involved.", "poster_path": "/p1DHOfLFZmM567ePKfFNMV4mY92.jpg", "popularity": 23.513}, {"adult": false, "backdrop_path": "/3dWSyYEdcmvNjzwIPy4sPHjdJpw.jpg", "genre_ids": [878, 27, 28], "id": 9348, "original_language": "en", "original_title": "Species", "overview": "In 1993, the Search for Extra Terrestrial Intelligence Project receives a transmission detailing an alien DNA structure, along with instructions on how to splice it with human DNA. The result is Sil, a sensual but deadly creature who can change from a beautiful woman to an armour-plated killing machine in the blink of an eye.", "poster_path": "/94P6kzKH8aPmQmPr9yZjgy7BtQQ.jpg", "release_date": "1995-07-07", "title": "Species", "video": false, "vote_average": 5.7, "vote_count": 799, "popularity": 27.177}, {"id": 9725, "video": false, "vote_count": 771, "vote_average": 6.0, "title": "Friday the 13th Part 2", "release_date": "1981-05-01", "original_language": "en", "original_title": "Friday the 13th Part 2", "genre_ids": [27, 53], "backdrop_path": "/wDmw9Nacka0oWj7hEIIEInP94Lx.jpg", "adult": false, "overview": "Five years after the horrible bloodbath at Camp Crystal Lake, it seems Jason Voorhees and his demented mother are in the past. Paul opens up a new camp close to the infamous site, ignoring warnings to stay away, and a sexually-charged group of counselors follow -- including child psychologist major Ginny. But Jason has been hiding out all this time, and now he's ready for revenge.", "poster_path": "/3c6uMXqFXO9G5RVdiPB76IK3FYM.jpg", "popularity": 14.489}, {"id": 535581, "video": false, "vote_count": 869, "vote_average": 5.4, "title": "The Dead Don't Die", "release_date": "2019-05-15", "original_language": "en", "original_title": "The Dead Don't Die", "genre_ids": [35, 14, 27], "backdrop_path": "/cXyfAViYly0Lk2CVpEKgYbt9wKQ.jpg", "adult": false, "overview": "In a small peaceful town, zombies suddenly rise to terrorize the town. Now three bespectacled police officers and a strange Scottish morgue expert must band together to defeat the undead.", "poster_path": "/ndvOjo7Nfk8ULnFLMXthPzhI62L.jpg", "popularity": 18.817}, {"id": 289, "video": false, "vote_count": 2866, "vote_average": 8.1, "title": "Casablanca", "release_date": "1942-01-23", "original_language": "en", "original_title": "Casablanca", "genre_ids": [18, 10749], "backdrop_path": "/5tE7iKSpBrc4z6LqF5kHutMm6KQ.jpg", "adult": false, "overview": "In Casablanca, Morocco in December 1941, a cynical American expatriate meets a former lover, with unforeseen complications.", "poster_path": "/wOBKAoUJZb5qTsWv5XXvVV2vUzz.jpg", "popularity": 21.116}, {"adult": false, "backdrop_path": "/tR1RXbnkSvZq0sgx0Gyh3GmgYoB.jpg", "genre_ids": [80, 18, 53], "id": 21734, "original_language": "en", "original_title": "Shadow of a Doubt", "overview": "A bored teen living in Santa Rosa, California, Charlotte \"Charlie\" Newton, is frustrated because nothing seems to be happening in her life and that of her family. Then, she receives wonderful news: her uncle (for whom she was named), Charlie Oakley, is arriving for a visit. But Uncle Charlie may not be the man he seems to be.", "poster_path": "/ptyWagbWE8jSGyV2tGEzAdVbRCj.jpg", "release_date": "1943-01-15", "title": "Shadow of a Doubt", "video": false, "vote_average": 7.7, "vote_count": 448, "popularity": 12.942}, {"adult": false, "backdrop_path": "/jRNqzZZwYIpiukkblMQ4G2Vc5p7.jpg", "genre_ids": [9648, 80, 53], "id": 963, "original_language": "en", "original_title": "The Maltese Falcon", "overview": "A private detective takes on a case that involves him with three eccentric criminals, a beautiful liar, and their quest for a priceless statuette.", "poster_path": "/jQilmbgbKtpbHM9hw9hgmqomJ9.jpg", "release_date": "1941-10-18", "title": "The Maltese Falcon", "video": false, "vote_average": 7.8, "vote_count": 840, "popularity": 16.587}, {"id": 303, "video": false, "vote_count": 759, "vote_average": 7.9, "title": "Notorious", "release_date": "1946-08-15", "original_language": "en", "original_title": "Notorious", "genre_ids": [18, 53, 10749], "backdrop_path": "/b8WFk5jSQNju3SGptSOREo51qmE.jpg", "adult": false, "overview": "In order to help bring Nazis to justice, U.S. government agent T.R. Devlin recruits Alicia Huberman, the American daughter of a convicted German war criminal, as a spy. As they begin to fall for one another, Alicia is instructed to win the affections of Alexander Sebastian, a Nazi hiding out in Brazil. When Sebastian becomes serious about his relationship with Alicia, the stakes get higher, and Devlin must watch her slip further undercover.", "poster_path": "/vcdSvOr5NcY6alt0kBqDQlFC3Nk.jpg", "popularity": 12.953}, {"id": 678, "video": false, "vote_count": 234, "vote_average": 7.7, "title": "Out of the Past", "release_date": "1947-11-13", "original_language": "en", "original_title": "Out of the Past", "genre_ids": [9648, 53], "backdrop_path": "/7JFsV4qEQ6WVj3SJAC2ktnAyCMm.jpg", "adult": false, "overview": "Jeff Bailey seems to be a mundane gas station owner in remote Bridgeport, CA. He is dating local girl Ann Miller and lives a quiet life. But Jeff has a secret past, and when a mysterious stranger arrives in town, Jeff is forced to return to the dark world he had tried to escape.", "poster_path": "/6M1Qeuq0K5THG95S9nzvEIRHsyt.jpg", "popularity": 12.132}, {"id": 599, "video": false, "vote_count": 1215, "vote_average": 8.4, "title": "Sunset Boulevard", "release_date": "1950-08-10", "original_language": "en", "original_title": "Sunset Boulevard", "genre_ids": [18], "backdrop_path": "/u44VbUuoP6OZYEBv2DRd7ShPTMp.jpg", "adult": false, "overview": "A hack screenwriter writes a screenplay for a former silent film star who has faded into Hollywood obscurity.", "poster_path": "/oFwzvRgfxJc0FUr2mwYTi10dk3G.jpg", "popularity": 15.201}, {"adult": false, "backdrop_path": "/gF7v48JI9Vf6bBVU5aykiPtcCub.jpg", "genre_ids": [80, 9648, 53], "id": 14638, "original_language": "en", "original_title": "The Killers", "overview": "Two hit men walk into a diner asking for a man called \"the Swede\". When the killers find the Swede, he's expecting them and doesn't put up a fight. Since the Swede had a life insurance policy, an investigator, on a hunch, decides to look into the murder. As the Swede's past is laid bare, it comes to light that he was in love with a beautiful woman who may have lured him into pulling off a bank robbery overseen by another man.", "poster_path": "/uXnuc6pW01s1MDwb6QwBWg2JQeX.jpg", "release_date": "1946-08-28", "title": "The Killers", "video": false, "vote_average": 7.4, "vote_count": 167, "popularity": 11.012}, {"id": 20367, "video": false, "vote_count": 137, "vote_average": 7.0, "title": "Detour", "release_date": "1945-11-30", "original_language": "en", "original_title": "Detour", "genre_ids": [80, 18], "backdrop_path": "/zGBo0eN3RKHmTWZvoF19HABfEQF.jpg", "adult": false, "overview": "Al Roberts, a New York nightclub pianist, hitch-hikes to Hollywood to meet his girlfriend Sue. The gambler he's riding with, Charles, unexpectedly dies. Afraid the police wouldn't believe the truth, Al takes the man's identity. In a gas station, he gives a lift to Vera, a woman that knew Charles and blackmails Al with tragic consequences.", "poster_path": "/1CFC9Ejg85a3skXtcTxRjhtmDlj.jpg", "popularity": 9.083}, {"id": 223, "video": false, "vote_count": 763, "vote_average": 7.9, "title": "Rebecca", "release_date": "1940-03-23", "original_language": "en", "original_title": "Rebecca", "genre_ids": [18, 9648], "backdrop_path": "/ao0OWpQPMy3lagLwksWyciO6Iaj.jpg", "adult": false, "overview": "Story of a young woman who marries a fascinating widower only to find out that she must live in the shadow of his former wife, Rebecca, who died mysteriously several years earlier. The young wife must come to grips with the terrible secret of her handsome, cold husband, Max De Winter. She must also deal with the jealous, obsessed Mrs. Danvers, the housekeeper, who will not accept her as the mistress of the house.", "poster_path": "/3Gla0nxHboX3nxQzaU4SoqOtTjh.jpg", "popularity": 13.22}, {"id": 220882, "video": false, "vote_count": 99, "vote_average": 5.1, "title": "London Fields", "release_date": "2018-09-20", "original_language": "en", "original_title": "London Fields", "genre_ids": [80, 18, 9648, 53], "backdrop_path": "/ichPk1vuRGYN5OmdSYBfJu5bWgu.jpg", "adult": false, "overview": "Clairvoyant femme fatale, Nicola Six has been living with a dark premonition of her impending death by murder. She begins a tangled love affair with three uniquely different men\u2014one of whom she knows will be her murderer.", "poster_path": "/7OfQVm5GexlAREp8FoR4ILxp35T.jpg", "popularity": 11.899}, {"id": 11471, "video": false, "vote_count": 196, "vote_average": 7.5, "title": "A Better Tomorrow", "release_date": "1986-08-02", "original_language": "cn", "original_title": "\u82f1\u96c4\u672c\u8272", "genre_ids": [28, 80, 18], "adult": false, "overview": "A reforming ex-gangster tries to reconcile with his estranged policeman brother, but the ties to his former gang are difficult to break.", "poster_path": "/55lvNzpXvLgIXJJEmzisWFovkTO.jpg", "popularity": 12.03}, {"id": 256591, "video": false, "vote_count": 4628, "vote_average": 6.8, "title": "Focus", "release_date": "2015-02-25", "original_language": "en", "original_title": "Focus", "genre_ids": [35, 80, 18, 10749], "backdrop_path": "/bd8RdP2OduLBGkUMdc8PZPjdtbI.jpg", "adult": false, "overview": "Nicky, an accomplished con artist, gets romantically involved with his disciple Jess but later ends their relationship. Years later, she returns as a femme fatale to spoil his plans.", "poster_path": "/9IElGiLkxPLUWZ3avy31bNSG3Tq.jpg", "popularity": 30.245}, {"id": 9846, "video": false, "vote_count": 268, "vote_average": 7.0, "title": "To Live and Die in L.A.", "release_date": "1985-11-01", "original_language": "en", "original_title": "To Live and Die in L.A.", "genre_ids": [28, 80, 53], "backdrop_path": "/ocE4hWL5ulV2OHckkzqXcmdNLBP.jpg", "adult": false, "overview": "A fearless Secret Service agent will stop at nothing to bring down the counterfeiter who killed his partner.", "poster_path": "/2iW3pSihBIhXjnBQmUJ0mAiZbB5.jpg", "popularity": 8.772}], "total_pages": 65, "total_results": 1285}, "recommendations": {"page": 1, "results": [{"adult": false, "backdrop_path": "/7L9La0e3wctmfjdu90PN6Nsalio.jpg", "genre_ids": [80, 18], "id": 37352, "original_language": "en", "original_title": "An Act of Murder", "overview": "A stern hard-liner judge commits euthanasia to save his terminally ill wife from further suffering. He decides to kill her by driving the both of them off a cliff. He succeeds in ending her pain, but unfortunately he survives and ends up turning himself in with a full confession. Now it is up to his brilliant lawyer to defend him.", "poster_path": "/gXBFUYIilIRkux3C64CqJRp4LB5.jpg", "release_date": "1948-12-05", "title": "An Act of Murder", "video": false, "vote_average": 7.0, "vote_count": 6, "popularity": 2.565}, {"adult": false, "backdrop_path": "/tXcEniUolNfUPMq9znheCVfmXiY.jpg", "genre_ids": [80], "id": 26948, "original_language": "en", "original_title": "Loophole", "overview": "Bank teller Mike Donovan (Barry Sullivan) takes the first step on the road to Perdition when he fails to report a $49,000 shortage. Accused of theft, Donovan is fired from his job. He is then prevented from finding other employment by Javert-like insurance investigator Gus Slavin (Charles McGraw). Despite many setbacks, Donovan attempts to clear his muddied name.", "poster_path": "/gxiN8nCIyYvA1wgmwBaUqgMulAl.jpg", "release_date": "1954-03-28", "title": "Loophole", "video": false, "vote_average": 6.7, "vote_count": 5, "popularity": 2.581}, {"adult": false, "backdrop_path": "/hWBOFRMZFcWiob9XBtKza0Z9FuR.jpg", "genre_ids": [53, 9648], "id": 72773, "original_language": "en", "original_title": "The Man with My Face", "overview": "A man discovers that an evil twin has taken over his life.", "poster_path": "/oG7qzKqAjKcZkcTNnfDurlgAXvg.jpg", "release_date": "1951-06-14", "title": "The Man with My Face", "video": false, "vote_average": 5.2, "vote_count": 6, "popularity": 3.076}, {"adult": false, "backdrop_path": "/gjxM6NJ6wQVPbZSHKuMxiHgXLrF.jpg", "genre_ids": [28], "id": 65637, "original_language": "en", "original_title": "Hell's Island", "overview": "After being dumped by his fianc\u00e9e, hard-drinking and depressed Mark Cormack (John Payne) loses his job in the Los Angeles district attorney's office and serves as bouncer in a Las Vegas casino. A wheelchair-using stranger Barzland (Francis L. Sullivan) hires him to locate a ruby that disappeared in a Caribbean plane crash. He lures Cormack into doing the job by telling him it may be in the possession of the very woman who jilted him. The ex-detective flies to remote island Santo Rosario to find the stone and investigate the mystery. When he finds his old flame he finds that her husband is in prison. Cormack, again falling for Janet, is convinced into helping him break out of jail. But Janet has other plans.", "poster_path": "/6TDQZTbuxBfZVJdWPCoOBcFL58l.jpg", "release_date": "1955-05-06", "title": "Hell's Island", "video": false, "vote_average": 5.7, "vote_count": 6, "popularity": 2.482}, {"adult": false, "backdrop_path": "/75CEq9swjjWkNOZ23mnQtssv8JA.jpg", "genre_ids": [18], "id": 86946, "original_language": "en", "original_title": "For Them That Trespass", "overview": "In this drama, a frustrated upper-class writer decides that he will find real inspiration by examining his subjects first-hand. This leads him to begin wandering about the seamiest side of town where he witnesses a murder. When an innocent man is arrested, the writer refuses to assist him as the knowledge that he has been \"slumming\" could destroy his career. The young man is sentenced to 15 years in prison.", "poster_path": "/zzL5QPymL15R5FnDfx7wq847l0v.jpg", "release_date": "1949-04-21", "title": "For Them That Trespass", "video": false, "vote_average": 5.1, "vote_count": 6, "popularity": 2.034}, {"adult": false, "backdrop_path": "/qagPhLrzfx3gqt6QobLBRZkfiLF.jpg", "genre_ids": [18], "id": 106605, "original_language": "en", "original_title": "Kept Husbands", "overview": "A former All-American football star, now working as a steel mill supervisor in New Jersey, falls in love with the mill owner's wealthy, very spoiled daughter.", "poster_path": "/44yEABinzyvBNfOLuQQfOOe9Hwq.jpg", "release_date": "1931-02-22", "title": "Kept Husbands", "video": false, "vote_average": 6.2, "vote_count": 6, "popularity": 2.109}, {"adult": false, "backdrop_path": "/nlQ847wGkqkBScA8rq2EX6w9CsW.jpg", "genre_ids": [80], "id": 35917, "original_language": "en", "original_title": "Crime in the Streets", "overview": "A social worker tries to end juvenile crime by getting involved with a street gang.", "poster_path": "/qrh5FO3wYyLT1usPb7aMtgDqucV.jpg", "release_date": "1956-06-10", "title": "Crime in the Streets", "video": false, "vote_average": 6.1, "vote_count": 9, "popularity": 3.998}, {"adult": false, "backdrop_path": "/jvq4YRN7I6koKhXb5N5qaB7FwAC.jpg", "genre_ids": [80, 18], "id": 72529, "original_language": "en", "original_title": "Loan Shark", "overview": "A vicious loan shark ring has been preying on factory workers. When several workers at a tire factory suffer violence at the hands of the loan sharkers, a union leader and the factory owner try to recruit ex-con Joe Gargan to infiltrate to the gang. At first Joe does not want to get involved, but changes his mind when his brother-in-law dies at the hands of a savage loan shark hood. Joe works his way into the mob, but in order to keep his cover, Joe can't tell anyone what he is up to. This results in him being disowned by his sister and girl friend.", "poster_path": "/pZHMywVQVslUC0qxHB6YP237a5P.jpg", "release_date": "1952-05-23", "title": "Loan Shark", "video": false, "vote_average": 5.8, "vote_count": 6, "popularity": 3.595}, {"id": 37462, "video": false, "vote_count": 7, "vote_average": 5.9, "title": "Wicked as They Come", "release_date": "1956-05-22", "original_language": "en", "original_title": "Wicked as They Come", "genre_ids": [18], "backdrop_path": "/a8PQe3mAaLyhvIn09sUWe4bZJHD.jpg", "adult": false, "overview": "A ruthless woman takes advantage of gullible men to climb up the social ladder.", "poster_path": "/4lWqtAvUi3OX61C6Yql1jwxhhjE.jpg", "popularity": 4.647}, {"adult": false, "backdrop_path": "/r0JGyrKvlkgsbNdqJsRO2oFuxev.jpg", "genre_ids": [18, 53, 10749], "id": 42062, "original_language": "en", "original_title": "Moontide", "overview": "After a drunken night out a longshoreman thinks he may have killed a man.", "poster_path": "/a79ySwt62sAZTTITXRDrvBRTt2Q.jpg", "release_date": "1942-05-29", "title": "Moontide", "video": false, "vote_average": 6.5, "vote_count": 13, "popularity": 4.185}, {"adult": false, "backdrop_path": "/sRYrSMJC98FxydyCCxQurflgQqe.jpg", "genre_ids": [18, 53], "id": 74794, "original_language": "en", "original_title": "Specter of the Rose", "overview": "Ballet dancer Sanine may have murdered his first wife. A detective thinks so, and he's not the only one.", "poster_path": "/5pJ8BHZZK4ih753hQsDOZLO9S0G.jpg", "release_date": "1946-07-05", "title": "Specter of the Rose", "video": false, "vote_average": 4.5, "vote_count": 6, "popularity": 3.057}, {"id": 33079, "video": false, "vote_count": 7, "vote_average": 5.9, "title": "Dishonored Lady", "release_date": "1947-05-16", "original_language": "en", "original_title": "Dishonored Lady", "genre_ids": [80, 18], "backdrop_path": "/8z9qUEH89loemVfh9hrRk8eeyjK.jpg", "adult": false, "overview": "Art editor Madeleine Damian carries on numerous loveless affairs. After a failed relationship with advertiser Felix Courtland, the increasingly depressed Madeleine attempts suicide. When Jack Garet, her secretary and former lover, tries to blackmail her, Madeleine resigns and seeks a reclusive life. Neighbor David Cousins befriends Madeleine, but soon Courtland and Garet discover her whereabouts and disrupt her new life.", "poster_path": "/2ROd0CeOM5cQP7rJdY81s0rdP5S.jpg", "popularity": 3.551}, {"adult": false, "backdrop_path": "/sM4ZptlVQmIN4kng91KDqwtloEE.jpg", "genre_ids": [80, 53], "id": 44931, "original_language": "en", "original_title": "The Shadow on the Window", "overview": "Three delinquents murder a prosperous farm owner at an isolated farm house. The one witness to the crime - the dead man's secretary - is then taken hostage.", "poster_path": "/8O6IxxTxYK8bomCrheF8UFA3VIo.jpg", "release_date": "1957-03-06", "title": "The Shadow on the Window", "video": false, "vote_average": 5.5, "vote_count": 9, "popularity": 3.622}, {"adult": false, "backdrop_path": "/orLYlqKwICB5MrCgNqUkXJ4TEY.jpg", "genre_ids": [28], "id": 4462, "original_language": "en", "original_title": "Diplomatic Courier", "overview": "Cold War yarn about a US State Department courier who tangles with Soviet agents and seductive women in post WW2 Europe.", "poster_path": "/ij4C8zZBOV9cGRcqgszAUrUPwFw.jpg", "release_date": "1952-06-13", "title": "Diplomatic Courier", "video": false, "vote_average": 6.5, "vote_count": 8, "popularity": 4.964}, {"adult": false, "backdrop_path": "/A4LtYbZOKCS1DhJqORQnZGsiCCb.jpg", "genre_ids": [37], "id": 91472, "original_language": "en", "original_title": "Man from Del Rio", "overview": "Mexican gunfighter Dave Robles outdraws the town's outlaw-turned-sheriff and is invited to fill the dead man's shoes. But a tin star doesn't bring automatic respectability and Robles is shunned by the town's leading citizens. His popularity with its less-savory element, particularly saloonkeeper Bannister, wanes dramatically, too, as he starts to take his job seriously. It is his love for a decent, caring woman that keeps Dave in town, but can she convince him to lay down his gun and start a new life?", "poster_path": "/6GkMPpnRUOmTyRGOPJ4m3vMIR48.jpg", "release_date": "1956-10-30", "title": "Man from Del Rio", "video": false, "vote_average": 6.4, "vote_count": 6, "popularity": 2.97}, {"id": 27917, "video": false, "vote_count": 10, "vote_average": 6.6, "title": "Pool of London", "release_date": "1951-02-20", "original_language": "en", "original_title": "Pool of London", "genre_ids": [80, 18], "backdrop_path": "/w9ali1hQaTpIJyvmzaDsT5njZzp.jpg", "adult": false, "overview": "Jewel thieves, murder and a manhunt swirl around a sailor (Bonar Colleano) off a cargo ship in London.", "poster_path": "/9x3V8vs2MovN2TpLPbIyZq7I1aq.jpg", "popularity": 3.784}, {"adult": false, "backdrop_path": "/7A2WVdYi1IWp0NuhxyfRh5UccXo.jpg", "genre_ids": [18, 80], "id": 41552, "original_language": "en", "original_title": "Black Hand", "overview": "In turn-of-the-century New York, an Italian seeks vengeance on the mobsters who killed his father.", "poster_path": "/zixy6YubngiuSv5Y2exRhaT0THH.jpg", "release_date": "1950-03-12", "title": "Black Hand", "video": false, "vote_average": 5.8, "vote_count": 7, "popularity": 4.554}, {"id": 122252, "video": false, "vote_count": 6, "vote_average": 5.7, "title": "The Naked Street", "release_date": "1955-08-01", "original_language": "en", "original_title": "The Naked Street", "genre_ids": [18, 53], "backdrop_path": "/jsruwzmngROdf4SADLaC0CPovIE.jpg", "adult": false, "overview": "A reporter follows the story of a gangster (Anthony Quinn), his sister (Anne Bancroft) and her small-time hoodlum husband (Farley Granger).", "poster_path": "/celPe71vAvCcFFDDPfpZnx73syy.jpg", "popularity": 2.977}, {"id": 51947, "video": false, "vote_count": 9, "vote_average": 6.6, "title": "Shake Hands with the Devil", "release_date": "1959-06-24", "original_language": "en", "original_title": "Shake Hands with the Devil", "genre_ids": [28, 18], "backdrop_path": "/seJdlIUPEmDGI2WOWRPIe3L4z0.jpg", "adult": false, "overview": "In 1921 Dublin, the IRA battles the \"Black &amp; Tans,\" special British forces given to harsh measures. Irish-American medical student Kerry O'Shea hopes to stay aloof, but saving a wounded friend gets him outlawed, and inexorably drawn into the rebel organization...under his former professor Sean Lenihan, who has \"shaken hands with the devil\" and begun to think of fighting as an end in itself. Complications arise when Kerry falls for a beautiful English hostage, and the British offer a peace treaty that is not enough to satisfy Lenihan.", "poster_path": "/sGwbTul6yAI7BkYqzY0C0tT7Ue8.jpg", "popularity": 4.74}, {"adult": false, "backdrop_path": "/6xA0TudVjVDe7GxC8v2RyoiZ8nL.jpg", "genre_ids": [18, 28, 37], "id": 62084, "original_language": "en", "original_title": "The Capture", "overview": "A badly injured fugitive explains to a priest how he came to be in his present predicament.", "poster_path": "/1kpvCHgagi7KjvovyUVGF80XakK.jpg", "release_date": "1950-04-08", "title": "The Capture", "video": false, "vote_average": 5.5, "vote_count": 8, "popularity": 2.396}], "total_pages": 2, "total_results": 40}, "credits": {"cast": [{"cast_id": 7, "character": "Tris Stewart", "credit_id": "52fe45d3c3a368484e07111f", "gender": 2, "id": 2177, "name": "Lloyd Bridges", "order": 0, "profile_path": "/qez0xZiQGt3f530vAGcoYAWd7FM.jpg"}, {"cast_id": 8, "character": "Meg Dixon", "credit_id": "52fe45d3c3a368484e071123", "gender": 1, "id": 82833, "name": "Barbara Payton", "order": 1, "profile_path": "/33fOSWRjReVmJVcUlZaT2y35Wi6.jpg"}, {"cast_id": 9, "character": "Agent John Downey", "credit_id": "52fe45d3c3a368484e071127", "gender": 2, "id": 14508, "name": "John Hoyt", "order": 2, "profile_path": "/m3NuX4YDtvvUSxUsR632SnSA1M5.jpg"}, {"cast_id": 10, "character": "Jack Sylvester", "credit_id": "52fe45d3c3a368484e07112b", "gender": 0, "id": 103413, "name": "James Todd", "order": 3, "profile_path": "/oa7pmdn4hOGm4qYhfrV1UQVINvK.jpg"}, {"cast_id": 11, "character": "Chief Agent Gunby", "credit_id": "52fe45d3c3a368484e07112f", "gender": 2, "id": 91260, "name": "Russ Conway", "order": 4, "profile_path": "/9DVSgsiR43JwUeM8Y4XSDZURckf.jpg"}, {"cast_id": 12, "character": "Agent Fred Foreman", "credit_id": "52fe45d3c3a368484e071133", "gender": 2, "id": 82837, "name": "Robert Karnes", "order": 5, "profile_path": "/zz4xVCQSHlqL3PFBtAp7FGHhQ4N.jpg"}, {"cast_id": 15, "character": "Bartender", "credit_id": "530ab4e5c3a368421b004afc", "gender": 2, "id": 3338, "name": "Jay C. Flippen", "order": 6, "profile_path": "/gioapO1wsvHUH9cLmlxsWK6HaSx.jpg"}, {"cast_id": 18, "character": "Betty Mason (uncredited)", "credit_id": "5bf50f760e0a26265c0b6792", "gender": 1, "id": 142440, "name": "Lucille Barkley", "order": 7, "profile_path": "/bSkSiF9BBJylbESsdAQQdMjtJO.jpg"}], "crew": [{"credit_id": "52fe45d3c3a368484e0710fd", "department": "Directing", "gender": 2, "id": 2087, "job": "Director", "name": "Richard Fleischer", "profile_path": "/yofiXdiD2AaK2M4RgXQFeO8qQgD.jpg"}, {"credit_id": "52fe45d3c3a368484e071103", "department": "Writing", "gender": 2, "id": 2089, "job": "Original Story", "name": "Earl Felton", "profile_path": null}, {"credit_id": "52fe45d3c3a368484e071109", "department": "Writing", "gender": 2, "id": 46713, "job": "Original Story", "name": "George Zuckerman", "profile_path": null}, {"credit_id": "52fe45d3c3a368484e07110f", "department": "Production", "gender": 2, "id": 33019, "job": "Producer", "name": "Bryan Foy", "profile_path": null}, {"credit_id": "52fe45d3c3a368484e071115", "department": "Sound", "gender": 2, "id": 30922, "job": "Original Music Composer", "name": "Sol Kaplan", "profile_path": null}, {"credit_id": "52fe45d3c3a368484e07111b", "department": "Camera", "gender": 2, "id": 98151, "job": "Director of Photography", "name": "Guy Roe", "profile_path": null}, {"credit_id": "52fe45d3c3a368484e071139", "department": "Writing", "gender": 2, "id": 2089, "job": "Screenplay", "name": "Earl Felton", "profile_path": null}, {"credit_id": "52fe45d3c3a368484e07113f", "department": "Writing", "gender": 2, "id": 46713, "job": "Screenplay", "name": "George Zuckerman", "profile_path": null}, {"credit_id": "5b393a3592514158f90074d3", "department": "Art", "gender": 0, "id": 2076115, "job": "Art Direction", "name": "Frank Durlauf", "profile_path": null}, {"credit_id": "5b393a430e0a267306008467", "department": "Editing", "gender": 2, "id": 103359, "job": "Editor", "name": "Alfred DeGaetano", "profile_path": null}]}}