{"adult": false, "backdrop_path": null, "belongs_to_collection": null, "budget": 0, "genres": [{"id": 53, "name": "Thriller"}, {"id": 28, "name": "Action"}], "homepage": null, "id": 292920, "imdb_id": "tt0182374", "original_language": "en", "original_title": "Pressure Point", "overview": "A CIA assassin is embroiled in a deadly game across two continents. Betrayed and imprisoned, he faces one last mission to regain his freedom, his family and his self respect. Stars Steve Railsback, Larry Linville.", "popularity": 1.839, "poster_path": "/wFSNzUYGRgWYl9DPLqzmwf2bO3A.jpg", "production_companies": [{"id": 26646, "logo_path": null, "name": "Edgewood Entertainment", "origin_country": ""}], "production_countries": [{"iso_3166_1": "US", "name": "United States of America"}], "release_date": "1997-12-27", "revenue": 0, "runtime": null, "spoken_languages": [], "status": "Released", "tagline": "", "title": "Pressure Point", "video": false, "vote_average": 2.0, "vote_count": 2, "keywords": {"keywords": [{"id": 258, "name": "bomb"}, {"id": 720, "name": "helicopter"}, {"id": 782, "name": "assassin"}, {"id": 1550, "name": "militia"}, {"id": 6460, "name": "chile"}, {"id": 13015, "name": "terrorism"}, {"id": 41336, "name": "government assassin"}, {"id": 156799, "name": "vermont"}]}, "similar": {"page": 1, "results": [{"id": 4349, "video": false, "vote_count": 866, "vote_average": 6.6, "title": "The Kingdom", "release_date": "2007-08-22", "original_language": "en", "original_title": "The Kingdom", "genre_ids": [28, 18, 53], "backdrop_path": "/zGP9UgLsMUZUlZwR2s6wUk0Qgp5.jpg", "adult": false, "overview": "A team of U.S. government agents is sent to investigate the bombing of an American facility in the Middle East.", "poster_path": "/83eJJlHscLsi9DHsqsyk1hIXL83.jpg", "popularity": 13.293}, {"adult": false, "backdrop_path": "/kSTvteM3ekuoeO7u7GJtZQkZuom.jpg", "genre_ids": [28, 53, 80], "id": 1948, "original_language": "en", "original_title": "Crank", "overview": "Professional assassin Chev Chelios learns his rival has injected him with a poison that will kill him if his heart rate drops.", "poster_path": "/6RnD3Zfh0tO0cD2vroWyH0F98Ej.jpg", "release_date": "2006-08-31", "title": "Crank", "video": false, "vote_average": 6.6, "vote_count": 2121, "popularity": 21.613}, {"adult": false, "backdrop_path": "/hb8brf5uYGt2t1qy33I5fHvmPkM.jpg", "genre_ids": [28], "id": 333669, "original_language": "en", "original_title": "Bastille Day", "overview": "Michael Mason is an American pickpocket living in Paris who finds himself hunted by the CIA when he steals a bag that contains more than just a wallet. Sean Briar, the field agent on the case, soon realises that Michael is just a pawn in a much bigger game and is also his best asset to uncover a large-scale conspiracy.", "poster_path": "/8QcOMU8vFSInSJ1kE7Naor7L2vM.jpg", "release_date": "2016-04-22", "title": "Bastille Day", "video": false, "vote_average": 6.1, "vote_count": 740, "popularity": 11.532}, {"id": 453201, "video": false, "vote_count": 939, "vote_average": 5.4, "title": "The 15:17 to Paris", "release_date": "2018-02-02", "original_language": "en", "original_title": "The 15:17 to Paris", "genre_ids": [18, 36, 53], "backdrop_path": "/gkkBhctHPGg8hrmtWbO3ySZoj4z.jpg", "adult": false, "overview": "In August 2015, an ISIS terrorist boarded train #9364 from Brussels to Paris. Armed with an AK-47 and enough ammo to kill more than 500 people, the terrorist might have succeeded except for three American friends who refused to give in to fear. One was a college student, one was a martial arts enthusiast and airman first class in the U.S. Air Force, and the other was a member of the Oregon National Guard, and all three pals proved fearless as they charged and ultimately overpowered the gunman after he emerged from a bathroom armed and ready to kill.", "poster_path": "/qxJQ0VBCuJkJhJmuWzxI408ngwd.jpg", "popularity": 13.78}, {"adult": false, "backdrop_path": "/aog6vKNxw5USOGP4whH9V1YTR5K.jpg", "genre_ids": [80, 53, 28], "id": 201088, "original_language": "en", "original_title": "Blackhat", "overview": "A man is released from prison to help American and Chinese authorities pursue a mysterious cyber criminal. The dangerous search leads them from Chicago to Hong Kong.", "poster_path": "/sW3VEsulmxMlOmQwm0h7H7lZROi.jpg", "release_date": "2015-01-13", "title": "Blackhat", "video": false, "vote_average": 5.3, "vote_count": 1243, "popularity": 19.392}, {"adult": false, "backdrop_path": "/sDiGcjWhSu42dCw0jQmBInAkDZ9.jpg", "genre_ids": [28, 53], "id": 379149, "original_language": "en", "original_title": "The Foreigner", "overview": "Quan is a humble London businessman whose long-buried past erupts in a revenge-fueled vendetta when the only person left for him to love \u2013 his teenage daughter \u2013 dies in a senseless act of politically-motivated terrorism. His relentless search to find the terrorists leads to a cat-and-mouse conflict with a British government official whose own past may hold the clues to the identities of the elusive killers.", "poster_path": "/rwM4hzrmc5HiWfQD9ls9DL4QgGl.jpg", "release_date": "2017-09-28", "title": "The Foreigner", "video": false, "vote_average": 6.7, "vote_count": 1248, "popularity": 19.835}, {"adult": false, "backdrop_path": "/aJCEQFFXNcfg5YneJzTG15qzxF7.jpg", "genre_ids": [28, 53], "id": 1572, "original_language": "en", "original_title": "Die Hard: With a Vengeance", "overview": "New York detective John McClane is back and kicking bad-guy butt in the third installment of this action-packed series, which finds him teaming with civilian Zeus Carver to prevent the loss of innocent lives. McClane thought he'd seen it all, until a genius named Simon engages McClane, his new \"partner\" -- and his beloved city -- in a deadly game that demands their concentration.", "poster_path": "/ivpXGcsPZglyYrN65THWSD7JM3q.jpg", "release_date": "1995-05-19", "title": "Die Hard: With a Vengeance", "video": false, "vote_average": 7.1, "vote_count": 3603, "popularity": 27.341}, {"id": 49026, "video": false, "vote_count": 15150, "vote_average": 7.7, "title": "The Dark Knight Rises", "release_date": "2012-07-16", "original_language": "en", "original_title": "The Dark Knight Rises", "genre_ids": [28, 80, 18, 53], "backdrop_path": "/f6ljQGv7WnJuwBPty017oPWfqjx.jpg", "adult": false, "overview": "Following the death of District Attorney Harvey Dent, Batman assumes responsibility for Dent's crimes to protect the late attorney's reputation and is subsequently hunted by the Gotham City Police Department. Eight years later, Batman encounters the mysterious Selina Kyle and the villainous Bane, a new terrorist leader who overwhelms Gotham's finest. The Dark Knight resurfaces to protect a city that has branded him an enemy.", "poster_path": "/dEYnvnUfXrqvqeRSqvIEtmzhoA8.jpg", "popularity": 43.144}, {"adult": false, "backdrop_path": "/fgkgab4Rel0nOI3B3scHeNB4Mn6.jpg", "genre_ids": [28, 53], "id": 1573, "original_language": "en", "original_title": "Die Hard 2", "overview": "Off-duty cop John McClane is gripped with a feeling of d\u00e9j\u00e0 vu when, on a snowy Christmas Eve in the nation\u2019s capital, terrorists seize a major international airport, holding thousands of holiday travelers hostage. Renegade military commandos led by a murderous rogue officer plot to rescue a drug lord from justice and are prepared for every contingency except one: McClane\u2019s smart-mouthed heroics.", "poster_path": "/zSgL998DXaljsCmwQuwDM8Ak4rV.jpg", "release_date": "1990-07-02", "title": "Die Hard 2", "video": false, "vote_average": 6.8, "vote_count": 3296, "popularity": 23.858}, {"id": 667, "video": false, "vote_count": 1033, "vote_average": 6.6, "title": "You Only Live Twice", "release_date": "1967-06-12", "original_language": "en", "original_title": "You Only Live Twice", "genre_ids": [28, 12, 53], "backdrop_path": "/jahBdYTAGMJaEove9l9hzYpDKJD.jpg", "adult": false, "overview": "A mysterious spacecraft captures Russian and American space capsules and brings the two superpowers to the brink of war. James Bond investigates the case in Japan and comes face to face with his archenemy Blofeld.", "poster_path": "/7dnsJZniZK1Hbc9mOFDYa5W0dHi.jpg", "popularity": 26.38}, {"id": 787, "video": false, "vote_count": 6331, "vote_average": 6.6, "title": "Mr. & Mrs. Smith", "release_date": "2005-06-07", "original_language": "en", "original_title": "Mr. & Mrs. Smith", "genre_ids": [28, 35, 18, 53], "backdrop_path": "/fAwYX0Fha35CaYYUJ06VTN3bEeh.jpg", "adult": false, "overview": "After five (or six) years of vanilla-wedded bliss, ordinary suburbanites John and Jane Smith are stuck in a huge rut. Unbeknownst to each other, they are both coolly lethal, highly-paid assassins working for rival organisations. When they discover they're each other's next target, their secret lives collide in a spicy, explosive mix of wicked comedy, pent-up passion, nonstop action and high-tech weaponry.", "poster_path": "/dqs5BmwSULtB28Kls3IB6khTQwp.jpg", "popularity": 36.487}, {"adult": false, "backdrop_path": "/9SudvdR6HYtgTqMz17RYXdWuTUl.jpg", "genre_ids": [12, 28, 53], "id": 707, "original_language": "en", "original_title": "A View to a Kill", "overview": "A newly developed microchip designed by Zorin Industries for the British Government that can survive the electromagnetic radiation caused by a nuclear explosion has landed in the hands of the KGB. James Bond must find out how and why. His suspicions soon lead him to big industry leader Max Zorin.", "poster_path": "/veDMW7eX6tat86EapsvGEICJ8Tq.jpg", "release_date": "1985-05-24", "title": "A View to a Kill", "video": false, "vote_average": 6.2, "vote_count": 957, "popularity": 24.223}, {"id": 2320, "video": false, "vote_count": 457, "vote_average": 6.2, "title": "Executive Decision", "release_date": "1996-03-15", "original_language": "en", "original_title": "Executive Decision", "genre_ids": [28, 12, 18, 53], "backdrop_path": "/bjVntRO9QkAwm1HzTfH1nn1nOpn.jpg", "adult": false, "overview": "Terrorists hijack a 747 inbound to Washington D.C., demanding the the release of their imprisoned leader. Intelligence expert David Grant (Kurt Russell) suspects another reason and he is soon the reluctant member of a special assault team that is assigned to intercept the plane and hijackers.", "poster_path": "/wmgkFuEr8bHRAgs1HS5U46Rzo0I.jpg", "popularity": 11.941}, {"adult": false, "backdrop_path": "/4UIjazRJV5Q2D7gYg9NS1BGiFdU.jpg", "genre_ids": [80, 18, 53, 9648], "id": 1073, "original_language": "en", "original_title": "Arlington Road", "overview": "Threats from sinister foreign nationals aren't the only thing to fear. Bedraggled college professor Michael Faraday has been vexed (and increasingly paranoid) since his wife's accidental death in a botched FBI operation. But all that takes a backseat when a seemingly all-American couple set up house next door.", "poster_path": "/jMwDRI4qu5FrSAzf7BfNveuRVf9.jpg", "release_date": "1999-03-19", "title": "Arlington Road", "video": false, "vote_average": 7.1, "vote_count": 521, "popularity": 13.099}, {"id": 9319, "video": false, "vote_count": 936, "vote_average": 6.7, "title": "The Last Boy Scout", "release_date": "1991-12-11", "original_language": "en", "original_title": "The Last Boy Scout", "genre_ids": [28, 53], "backdrop_path": "/7crRVZFSGSrDk0wR3Lahxr1Fb7P.jpg", "adult": false, "overview": "When the girl that detective Joe Hallenback is protecting gets murdered, the boyfriend of the murdered girl attempts to investigate and solve the case. What they discover is that there is deep seated corruption going on between a crooked politician and the owner of a pro football team.", "poster_path": "/cTl2WqsERuZ5vYmAmtfsPIJBLr0.jpg", "popularity": 15.282}, {"adult": false, "backdrop_path": "/LHfTH0FBVefeqD5diMU0xGR869.jpg", "genre_ids": [9648, 878, 53], "id": 846, "original_language": "en", "original_title": "The X Files", "overview": "Mulder and Scully, now taken off the FBI's X Files cases, must find a way to fight the shadowy elements of the government to find out the truth about a conspiracy that might mean the alien colonization of Earth.", "poster_path": "/cpvwMPMkvsZLzThJTcnh8wcNPMH.jpg", "release_date": "1998-06-19", "title": "The X Files", "video": false, "vote_average": 6.7, "vote_count": 831, "popularity": 12.006}, {"id": 7984, "video": false, "vote_count": 850, "vote_average": 7.9, "title": "In the Name of the Father", "release_date": "1993-12-12", "original_language": "en", "original_title": "In the Name of the Father", "genre_ids": [18], "backdrop_path": "/pBvKhZ0ZrVeu9Nwyr0BHd8emvN4.jpg", "adult": false, "overview": "A small time thief from Belfast, Gerry Conlon, is falsely implicated in the IRA bombing of a pub that kills several people while he is in London. He and his four friends are coerced by British police into confessing their guilt. Gerry's father and other relatives in London are also implicated in the crime. He spends fifteen years in prison with his father trying to prove his innocence.", "poster_path": "/22UfH59UppgMtDIMjD6DxhO8J2C.jpg", "popularity": 12.3}, {"id": 6623, "video": false, "vote_count": 507, "vote_average": 5.8, "title": "The Peacemaker", "release_date": "1997-09-26", "original_language": "en", "original_title": "The Peacemaker", "genre_ids": [28, 53], "backdrop_path": "/amtE0CvEzDiGofycXU0SnPMbQ9y.jpg", "adult": false, "overview": "When a train carrying atomic warheads mysteriously crashes in the former Soviet Union, a nuclear specialist discovers the accident is really part of a plot to cover up the theft of the weapons. Assigned to help her recover the missing bombs is a crack Special Forces Colonel.", "poster_path": "/hc3p6pvIrfO4AmrVLb6qTviOwW2.jpg", "popularity": 13.101}, {"id": 40805, "video": false, "vote_count": 2084, "vote_average": 5.5, "title": "The Green Hornet", "release_date": "2011-01-12", "original_language": "en", "original_title": "The Green Hornet", "genre_ids": [28, 35, 80], "backdrop_path": "/obqNqj4tBoUkWzufsMLmDABFLEL.jpg", "adult": false, "overview": "Britt Reid (Seth Rogen), the heir to the largest newspaper fortune in Los Angeles, is a spoiled playboy who has been, thus far, happy to lead an aimless life. After his father (Tom Wilkinson) dies, Britt meets Kato (Jay Chou), a resourceful company employee. Realizing that they have the talent and resources to make something of their lives, Britt and Kato join forces as costumed crime-fighters to bring down the city's most-powerful criminal, Chudnofsky (Christoph Waltz).", "poster_path": "/hZvTFnyqiTiQDO1FRsQvwhFNg3G.jpg", "popularity": 16.173}, {"adult": false, "backdrop_path": "/2H91fvLOIsTHvvhPjfjqbzxh2tP.jpg", "genre_ids": [80, 53, 18], "id": 4477, "original_language": "en", "original_title": "The Devil's Own", "overview": "Frankie McGuire, one of the IRA's deadliest assassins, draws an American family into the crossfire of terrorism. But when he is sent to the U.S. to buy weapons, Frankie is housed with the family of Tom O'Meara, a New York cop who knows nothing about Frankie's real identity. Their surprising friendship, and Tom's growing suspicions, forces Frankie to choose between the promise of peace or a lifetime of murder.", "poster_path": "/87ObtgniFhhPgESlIl85MfawduY.jpg", "release_date": "1997-03-12", "title": "The Devil's Own", "video": false, "vote_average": 6.1, "vote_count": 578, "popularity": 13.936}], "total_pages": 5, "total_results": 97}, "recommendations": {"page": 1, "results": [], "total_pages": 1, "total_results": 0}, "credits": {"cast": [{"cast_id": 3, "character": "Sebastian Dellacourt", "credit_id": "5a1063dfc3a368627d035425", "gender": 0, "id": 1568324, "name": "Don Mogavero", "order": 1, "profile_path": null}, {"cast_id": 4, "character": "Arno Taylor", "credit_id": "5a1063f0c3a368628f02e50b", "gender": 2, "id": 52023, "name": "Steve Railsback", "order": 2, "profile_path": "/b1Wo6pb0NpQicBDrjpSg2FKozHG.jpg"}, {"cast_id": 5, "character": "Neil Kennedy", "credit_id": "5a106409c3a3686286032813", "gender": 2, "id": 55431, "name": "Larry Linville", "order": 3, "profile_path": "/lQwGDXuk44TNEJjJayIqXpPcElB.jpg"}, {"cast_id": 6, "character": "Samantha Cole", "credit_id": "5a106428c3a3686286032858", "gender": 0, "id": 1925750, "name": "Linda Ljoka", "order": 4, "profile_path": null}, {"cast_id": 7, "character": "Local", "credit_id": "5a106448c3a368629202d152", "gender": 0, "id": 1337234, "name": "Matthew Bruch", "order": 5, "profile_path": null}, {"cast_id": 8, "character": "Local", "credit_id": "5a10645992514138f603028c", "gender": 0, "id": 1925751, "name": "Bruce Vail", "order": 6, "profile_path": null}, {"cast_id": 9, "character": "Local", "credit_id": "5a10646992514138f902f093", "gender": 0, "id": 101397, "name": "Rusty De Wees", "order": 7, "profile_path": null}], "crew": [{"credit_id": "5a10636ec3a368628902f6ba", "department": "Directing", "gender": 2, "id": 77869, "job": "Director", "name": "David Giancola", "profile_path": null}, {"credit_id": "5a10638cc3a3686283031aea", "department": "Writing", "gender": 0, "id": 1568324, "job": "Writer", "name": "Don Mogavero", "profile_path": null}, {"credit_id": "5a1063b9c3a3686283031b3e", "department": "Production", "gender": 2, "id": 947232, "job": "Producer", "name": "Peter Beckwith", "profile_path": null}]}}