{"adult": false, "backdrop_path": "/gu6a92XDnDkUPMJmhAVmmGgzGXs.jpg", "belongs_to_collection": null, "budget": 0, "genres": [{"id": 18, "name": "Drama"}], "homepage": "", "id": 293301, "imdb_id": "tt2131628", "original_language": "de", "original_title": "Scho\u00dfgebete", "overview": "A comedy centered on a sexually adventurous young woman who is trying to be the perfect wife, mother, and lover.", "popularity": 3.741, "poster_path": "/oGJ1gogY8CQgwfVsDijirovIzKf.jpg", "production_companies": [{"id": 47, "logo_path": "/i7Z9ot2o3N5Sa3HrF09kniFs2y8.png", "name": "Constantin Film", "origin_country": "DE"}], "production_countries": [{"iso_3166_1": "DE", "name": "Germany"}], "release_date": "2014-09-18", "revenue": 0, "runtime": 89, "spoken_languages": [{"iso_639_1": "de", "name": "Deutsch"}], "status": "Released", "tagline": "", "title": "Ejaculation", "video": false, "vote_average": 5.3, "vote_count": 18, "keywords": {"keywords": [{"id": 366, "name": "sex-shop"}, {"id": 2850, "name": "testament"}, {"id": 9673, "name": "love"}, {"id": 34079, "name": "death"}, {"id": 157154, "name": "psychotherapy"}, {"id": 208349, "name": "child"}]}, "similar": {"page": 1, "results": [{"adult": false, "backdrop_path": "/Ao2bnJMmcFepMVw1BUay25tt7TM.jpg", "genre_ids": [18, 10749], "id": 1259, "original_language": "en", "original_title": "Notes on a Scandal", "overview": "A veteran high school teacher befriends a younger art teacher, who is having an affair with one of her 15-year-old students. However, her intentions with this new \"friend\" also go well beyond platonic friendship.", "poster_path": "/lXZa1mHZ8eD0VOpNaLfvM9tSpAj.jpg", "release_date": "2006-12-25", "title": "Notes on a Scandal", "video": false, "vote_average": 7.1, "vote_count": 463, "popularity": 12.753}, {"id": 332872, "video": false, "vote_count": 511, "vote_average": 7.1, "title": "Julieta", "release_date": "2016-04-08", "original_language": "es", "original_title": "Julieta", "genre_ids": [18, 10749], "backdrop_path": "/hx9gGAoCysvmIMkJBxstNH2Fobx.jpg", "adult": false, "overview": "The film spans 30 years in Julieta\u2019s life from a nostalgic 1985 where everything seems hopeful, to 2015 where her life appears to be beyond repair and she is on the verge of madness.", "poster_path": "/vvGuzaTGOFhJYL4MqfrR8Ib1WhA.jpg", "popularity": 8.853}, {"id": 12531, "video": false, "vote_count": 91, "vote_average": 6.9, "title": "The Apartment", "release_date": "1996-07-27", "original_language": "fr", "original_title": "L'Appartement", "genre_ids": [18, 9648, 10749], "backdrop_path": "/64qyT8m4JQ6YODvXxtbHgKmXBX7.jpg", "adult": false, "overview": "A stylish suspense thriller that confounds the audience while presenting them with an extraordinary and elusive mystery. Max is a former playboy who has decided to settle down by marrying his current love, Muriel. However, during a business trip, Max catches a glimpse of the great lost love of his life, reviving his wanderlust and sending him off on a chase of the elusive Lisa, whom he had overheard suggesting to a friend that her lover, Daniel, had killed someone for her. Soon, Max is trying to unravel the mystery behind the suspicious death of Daniel's wife, which he hopes will lead him closer to Lisa.", "poster_path": "/1sqrQdQTn8jKLhUcPKfRVj639zA.jpg", "popularity": 19.17}, {"id": 521, "video": false, "vote_count": 1257, "vote_average": 8.0, "title": "Dial M for Murder", "release_date": "1954-05-29", "original_language": "en", "original_title": "Dial M for Murder", "genre_ids": [80, 18, 9648, 53], "backdrop_path": "/jVMlfESb0TJ29w8CUDDofEprMmn.jpg", "adult": false, "overview": "An ex-tennis pro carries out a plot to have his wife murdered after discovering she is having an affair, and assumes she will soon leave him for the other man anyway. When things go wrong, he improvises a new plan\u2014to frame her for murder instead.", "poster_path": "/xrpK1PyckNWmRxU4kZURfaCyboS.jpg", "popularity": 28.336}, {"adult": false, "backdrop_path": "/7DwSXdN28VA5wQYw49PKpxhR1Lq.jpg", "genre_ids": [18, 14], "id": 1024, "original_language": "en", "original_title": "Heavenly Creatures", "overview": "Wealthy and precocious teenager Juliet transfers from England to New Zealand with her family, and soon befriends the quiet, brooding Pauline through their shared love of fantasy and literature. When their parents begin to suspect that their increasingly intense and obsessive bond is becoming unhealthy, the girls hatch a dark plan for those who threaten to keep them apart.", "poster_path": "/5ek49TUeqStPmKwNdxrCSUAdXNe.jpg", "release_date": "1994-09-12", "title": "Heavenly Creatures", "video": false, "vote_average": 7.1, "vote_count": 519, "popularity": 10.27}, {"id": 796, "video": false, "vote_count": 1736, "vote_average": 6.6, "title": "Cruel Intentions", "release_date": "1999-03-05", "original_language": "en", "original_title": "Cruel Intentions", "genre_ids": [18, 10749], "backdrop_path": "/74OOkCoNbMb5bDg1AVXQxmGUTex.jpg", "adult": false, "overview": "Slaking a thirst for dangerous games, Kathryn challenges her stepbrother, Sebastian, to deflower their headmaster's daughter before the summer ends. If he succeeds, the prize is the chance to bed Kathryn. But if he loses, Kathryn will claim his most prized possession.", "poster_path": "/6RQu0J2u7viDa34Nn98sKaHv5jD.jpg", "popularity": 13.854}, {"adult": false, "backdrop_path": "/tkHlTVLylEIBpUypq0z3ZbtxUKc.jpg", "genre_ids": [35, 18, 10749], "id": 11931, "original_language": "en", "original_title": "In Her Shoes", "overview": "Irresponsible party girl, Maggie is kicked out of her father's and stepmother's home\u2014where she lives for free\u2014and is taken in by her hard-working sister, Philadelphia lawyer, Rose. After Maggie's disruptive ways ruin her sister's love life, Rose turns her out as well. But when their grandmother, who they never knew existed, comes into their lives, the sisters face some complicated truths about themselves and their family.", "poster_path": "/4jqnazZX2bh8UMUS8rl4nHWWtyb.jpg", "release_date": "2005-10-07", "title": "In Her Shoes", "video": false, "vote_average": 6.0, "vote_count": 785, "popularity": 11.9}, {"adult": false, "backdrop_path": "/nriBinb7Y3Bm6LdbmOC0mFxSm8d.jpg", "genre_ids": [80, 18], "id": 226, "original_language": "en", "original_title": "Boys Don't Cry", "overview": "Female born, Teena Brandon adopts his male identity of Brandon Teena and attempts to find himself and love in Nebraska.", "poster_path": "/6bqIZTEuJnUrgnxcymciszvOz8J.jpg", "release_date": "1999-09-02", "title": "Boys Don't Cry", "video": false, "vote_average": 7.5, "vote_count": 718, "popularity": 10.072}, {"adult": false, "backdrop_path": "/rPfyX0pkmn8Ea4gh3DfsmzFUf05.jpg", "genre_ids": [18, 27, 80], "id": 74997, "original_language": "en", "original_title": "The Human Centipede 2 (Full Sequence)", "overview": "Inspired by the fictional Dr. Heiter, disturbed loner Martin dreams of creating a 12-person centipede and sets out to realize his sick fantasy.", "poster_path": "/kFtAdkCO0vXN2RWu2oMcR9GZ9Hi.jpg", "release_date": "2011-10-06", "title": "The Human Centipede 2 (Full Sequence)", "video": false, "vote_average": 4.5, "vote_count": 674, "popularity": 14.216}, {"id": 38, "video": false, "vote_count": 8445, "vote_average": 8.1, "title": "Eternal Sunshine of the Spotless Mind", "release_date": "2004-03-19", "original_language": "en", "original_title": "Eternal Sunshine of the Spotless Mind", "genre_ids": [18, 878, 10749], "backdrop_path": "/1dXTsaFxHoF9cas08UjAqE8NqOW.jpg", "adult": false, "overview": "Joel Barish, heartbroken that his girlfriend underwent a procedure to erase him from her memory, decides to do the same. However, as he watches his memories of her fade away, he realises that he still loves her, and may be too late to correct his mistake.", "poster_path": "/7y3eYvTsGjxPYDtSnumCLIMDkrV.jpg", "popularity": 22.427}, {"adult": false, "backdrop_path": "/hm4vpIhBW75bTIDTurq2d4rLZy1.jpg", "genre_ids": [53, 18, 27], "id": 3511, "original_language": "en", "original_title": "The Broken", "overview": "The life of a successful radiologist spirals out of control when she sees the spitting image of herself driving down a London street. While attempting to uncover who the imposter could be, she stumbles into a terrifying mystery that her family and closest friends are somehow involved in, leaving her with no one to trust.", "poster_path": "/nGTUsccLUZhF9Bb5fjvL7KrogvC.jpg", "release_date": "2008-01-18", "title": "The Broken", "video": false, "vote_average": 5.5, "vote_count": 113, "popularity": 10.122}, {"adult": false, "backdrop_path": "/xC9cG6Wy6QbH2hoAx11xPPD995R.jpg", "genre_ids": [18, 10749], "id": 86331, "original_language": "fr", "original_title": "Q", "overview": "In a social context deteriorated by a countrywide economic crisis, the life of several people will be turned upside down after they meet Cecile, a character who symbolizes desire.", "poster_path": "/9Jg9s4yTEndNmy1SSXRF9jdxY9D.jpg", "release_date": "2011-09-14", "title": "Desire", "video": false, "vote_average": 4.6, "vote_count": 204, "popularity": 25.756}, {"adult": false, "backdrop_path": "/fwreQBx5CD55c1DpH117cS8915P.jpg", "genre_ids": [18, 53], "id": 867, "original_language": "en", "original_title": "Sliver", "overview": "A woman moves into an apartment in Manhattan and learns that the previous tenant's life ended mysteriously after they fell from the balcony.", "poster_path": "/av21Dfu31DQPtp5jkorMMS58rQC.jpg", "release_date": "1993-05-21", "title": "Sliver", "video": false, "vote_average": 5.3, "vote_count": 288, "popularity": 19.094}, {"id": 10995, "video": false, "vote_count": 255, "vote_average": 6.6, "title": "The Lover", "release_date": "1992-02-22", "original_language": "fr", "original_title": "L'Amant", "genre_ids": [18, 10749], "backdrop_path": "/zRAgf1F0rRp0Tys8AnMWGBFJRZv.jpg", "adult": false, "overview": "A poor French teenage girl engages in an illicit affair with a wealthy Chinese heir in 1920s Saigon. For the first time in her young life she has control, and she wields it deftly over her besotted lover throughout a series of clandestine meetings and torrid encounters.", "poster_path": "/iey1UA4hav2cn60qGi1zgKxpPBl.jpg", "popularity": 13.161}, {"id": 13, "video": false, "vote_count": 16610, "vote_average": 8.4, "title": "Forrest Gump", "release_date": "1994-07-06", "original_language": "en", "original_title": "Forrest Gump", "genre_ids": [35, 18, 10749], "backdrop_path": "/wMgbnUVS9wbRGAdki8fqxKU1O0N.jpg", "adult": false, "overview": "A man with a low IQ has accomplished great things in his life and been present during significant historic events\u2014in each case, far exceeding what anyone imagined he could do. But despite all he has achieved, his one true love eludes him.", "poster_path": "/yE5d3BUhE8hCnkMUJOo1QDoOGNz.jpg", "popularity": 41.886}, {"id": 1427, "video": false, "vote_count": 2511, "vote_average": 7.2, "title": "Perfume: The Story of a Murderer", "release_date": "2006-09-13", "original_language": "en", "original_title": "Perfume: The Story of a Murderer", "genre_ids": [80, 18, 14], "backdrop_path": "/3i8bJa5yvLZW2k4sg2Cd1Yy0a1x.jpg", "adult": false, "overview": "Jean-Baptiste Grenouille, born in the stench of 18th century Paris, develops a superior olfactory sense, which he uses to create the world's finest perfumes. However, his work takes a dark turn as he tries to preserve scents in the search for the ultimate perfume.", "poster_path": "/zC9JHS6NlkJKPYFxOOqBl7fQCjT.jpg", "popularity": 20.263}, {"adult": false, "backdrop_path": "/by0WtpJ5UNxOy6ytIfPPTasbRoB.jpg", "genre_ids": [28, 12, 35, 18, 10751, 10402, 10749], "id": 17130, "original_language": "en", "original_title": "Crossroads", "overview": "Three friends get together and bury a box making a pact to open it at midnight at their high school graduation. In the little town in Georgia that they live in, things soon change. One is little miss perfect, one is an engaged prom queen, and the other is a pregnant outcast. The night of graduation, they open the box and they strike up a conversation. All of a sudden, one brings up the topic of her going to Los Angeles for a record contract audition. They all decide to go together and they leave. With a little money, they set out on the road with a guy named Ben. When one of them tells the other a rumor that he might be a homicidal maniac they are all scared of him. When they reach LA, Lucy falls in love with Ben and against her father's wishes, she stays and she goes to the audition.", "poster_path": "/egIs4cWxn0iBErFKrQ7STckjj49.jpg", "release_date": "2002-02-15", "title": "Crossroads", "video": false, "vote_average": 5.0, "vote_count": 334, "popularity": 14.197}, {"id": 235, "video": false, "vote_count": 3208, "vote_average": 7.9, "title": "Stand by Me", "release_date": "1986-08-08", "original_language": "en", "original_title": "Stand by Me", "genre_ids": [80, 18], "backdrop_path": "/ljIF1JjdUUJtVW55x77vWSJxizQ.jpg", "adult": false, "overview": "After the death of a friend, a writer recounts a boyhood journey to find the body of a missing boy.", "poster_path": "/kedC0y75jdzByjuZNLOWIOtduNw.jpg", "popularity": 20.636}, {"adult": false, "backdrop_path": "/i2h4lbb7r1zyHJjIEPviW7RZnty.jpg", "genre_ids": [18, 10749], "id": 14313, "original_language": "en", "original_title": "Feast of Love", "overview": "A meditation on love and its various incarnations, set within a community of friends in Oregon. It is described as an exploration of the magical, mysterious and sometimes painful incarnations of love.", "poster_path": "/5mKRVEghvoFpFRYZ0GT0uTovXZo.jpg", "release_date": "2007-09-28", "title": "Feast of Love", "video": false, "vote_average": 6.1, "vote_count": 116, "popularity": 8.0}, {"adult": false, "backdrop_path": "/9EbRukoEPkdRaXI73H3ufbga6tH.jpg", "genre_ids": [18], "id": 394117, "original_language": "en", "original_title": "The Florida Project", "overview": "The story of a precocious six year-old and her ragtag group of friends whose summer break is filled with childhood wonder, possibility and a sense of adventure while the adults around them struggle with hard times.", "poster_path": "/bnSTP1PY2fDyat0eUa4QouuGV7F.jpg", "release_date": "2017-10-06", "title": "The Florida Project", "video": false, "vote_average": 7.4, "vote_count": 1322, "popularity": 14.756}], "total_pages": 41, "total_results": 809}, "recommendations": {"page": 1, "results": [{"adult": false, "backdrop_path": "/oz1yuDd4G8Y30NOPdnHqXFIfz8H.jpg", "genre_ids": [10770, 35], "id": 212503, "original_language": "de", "original_title": "K\u00f6nig von Deutschland", "overview": "", "poster_path": "/3bi8b8gLzIMNQVg2ft2jSAOj8qz.jpg", "release_date": "2013-09-04", "title": "King Ordinary", "video": false, "vote_average": 5.8, "vote_count": 28, "popularity": 2.361}, {"adult": false, "backdrop_path": "/cejAOxkYh7L3L5yG3SjVYT989rB.jpg", "genre_ids": [18, 36, 53], "id": 246053, "original_language": "de", "original_title": "Der blinde Fleck", "overview": "The true story of a journalist who investigates the backgrounds of the Oktoberfest terror attack of 1980.", "poster_path": "/5gFPMpo12zdnlRAnyDju5d4lo3o.jpg", "release_date": "2013-07-06", "title": "The Blind Spot", "video": false, "vote_average": 5.9, "vote_count": 7, "popularity": 2.842}, {"id": 140554, "video": false, "vote_count": 25, "vote_average": 6.9, "title": "Fraktus - Das letzte Kapitel der Musikgeschichte", "release_date": "2012-11-06", "original_language": "de", "original_title": "Fraktus - Das letzte Kapitel der Musikgeschichte", "genre_ids": [35, 10402], "backdrop_path": "/6gU5ScIdZd6bP0AOkK27rXInOBD.jpg", "adult": false, "overview": "", "poster_path": "/2pThyBOA43DS9YUxHDDUcWiF7EU.jpg", "popularity": 2.982}, {"id": 367188, "video": false, "vote_count": 10, "vote_average": 6.3, "title": "Democracy - Im Rausch der Daten", "release_date": "2015-11-12", "original_language": "de", "original_title": "Democracy - Im Rausch der Daten", "genre_ids": [99], "backdrop_path": "/gvkHbHelJpxekPcz0WodwoUkGYq.jpg", "adult": false, "overview": "Digitalization has changed society. While data is becoming the \"new oil\", data protection is becoming the new \"pollution control\". This creative documentary opens an astonishing inside view into the lawmaking milieu on EU level. A compelling story of how a group of politicians try to protect todays society against the impact of Big Data and mass surveillance.", "poster_path": "/5FhnQZ3wN2AjPsojdBheBLzmIlb.jpg", "popularity": 2.189}], "total_pages": 1, "total_results": 4}, "credits": {"cast": [{"cast_id": 3, "character": "Georg Kiehl", "credit_id": "54197c3c0e0a265b8a00146c", "gender": 0, "id": 17373, "name": "J\u00fcrgen Vogel", "order": 1, "profile_path": "/6YSNLd5gKHqDua5Qm2kCNOoU6GL.jpg"}, {"cast_id": 4, "character": "Dr. Drescher", "credit_id": "54197c480e0a265b8a00146e", "gender": 1, "id": 8797, "name": "Juliane K\u00f6hler", "order": 2, "profile_path": "/2cE4lqT16LV6POItflIMfIgXCmA.jpg"}, {"cast_id": 5, "character": "Elizabeth Kiehl", "credit_id": "54197c5d0e0a265b95001461", "gender": 1, "id": 28420, "name": "Lavinia Wilson", "order": 3, "profile_path": "/puMEkntO00YlBbh5GceQrPhiRBd.jpg"}, {"cast_id": 6, "character": "Grace", "credit_id": "54197c6f0e0a265b95001465", "gender": 1, "id": 1364878, "name": "Isabelle Redfern", "order": 4, "profile_path": null}, {"cast_id": 7, "character": "Tim", "credit_id": "54197c7b0e0a265b9500146a", "gender": 0, "id": 1364879, "name": "Jan-David B\u00fcrger", "order": 5, "profile_path": null}, {"cast_id": 8, "character": "Apotheker", "credit_id": "54197cba0e0a265b8d001428", "gender": 2, "id": 1364880, "name": "Roland Wolf", "order": 6, "profile_path": null}, {"cast_id": 9, "character": "Stefan Loss", "credit_id": "54a950cc9251417e80001c62", "gender": 2, "id": 50244, "name": "Robert Gwisdek", "order": 7, "profile_path": "/vPS5DVEEpuFeyKD0z9BBEXz93HN.jpg"}, {"cast_id": 10, "character": "Notar", "credit_id": "5673262792514163bc0033d4", "gender": 0, "id": 1407936, "name": "Rainer Galke", "order": 8, "profile_path": "/c7oDG4X1GWCmBHtav5WHVaTry0w.jpg"}, {"cast_id": 11, "character": "Elizabeths Mutter", "credit_id": "56732638c3a368070e00489f", "gender": 0, "id": 207811, "name": "Anna Stieblich", "order": 9, "profile_path": "/wS7SiebKC2wXB8AVov0nqtGQhkP.jpg"}, {"cast_id": 12, "character": "Liza Kiehl", "credit_id": "59803d41c3a368100300ad1b", "gender": 1, "id": 1861869, "name": "Pauletta Pollmann", "order": 10, "profile_path": null}, {"cast_id": 13, "character": "Paul", "credit_id": "59803d5d925141492100a961", "gender": 0, "id": 1861870, "name": "Jonathan Neo V\u00f6lk", "order": 11, "profile_path": null}, {"cast_id": 14, "character": "Sarah", "credit_id": "59803d6d925141492e00aa3d", "gender": 0, "id": 1861871, "name": "Mira Schr\u00f6der", "order": 12, "profile_path": null}, {"cast_id": 15, "character": "Sebastian", "credit_id": "59803d7ec3a368100300ad61", "gender": 0, "id": 1861872, "name": "Ansgar Schr\u00f6der", "order": 13, "profile_path": null}, {"cast_id": 16, "character": "\u00c4rztin", "credit_id": "59803d8d925141496f00ab92", "gender": 1, "id": 1323222, "name": "Bettina Engelhardt", "order": 14, "profile_path": null}, {"cast_id": 17, "character": "Verk\u00e4uferin im Sexshop", "credit_id": "59803d9a925141491d00afbd", "gender": 2, "id": 18946, "name": "Tanja Schleiff", "order": 15, "profile_path": "/dAI68IA4e6OKn1BF0RCidyj8XmM.jpg"}, {"cast_id": 18, "character": "Elizabeths Vater (Stimme)", "credit_id": "59803dce925141492100a9ef", "gender": 2, "id": 1186438, "name": "Richard van Weyden", "order": 16, "profile_path": "/pa6szaD0VrR2lI13Kpyfbl1U81i.jpg"}], "crew": [{"credit_id": "54197bfbc3a3686db2001462", "department": "Directing", "gender": 2, "id": 1869, "job": "Director", "name": "S\u00f6nke Wortmann", "profile_path": "/27V2lklRPa8KzRbuYKVgxq7nTgz.jpg"}, {"credit_id": "54197c1a0e0a265b95001455", "department": "Writing", "gender": 2, "id": 674, "job": "Screenplay", "name": "Oliver Berben", "profile_path": null}, {"credit_id": "54197c2a0e0a265b9500145a", "department": "Writing", "gender": 1, "id": 220753, "job": "Novel", "name": "Charlotte Roche", "profile_path": "/sU0CLa9x32fli3FKPGmyt6BU50c.jpg"}]}}