{"adult": false, "backdrop_path": null, "belongs_to_collection": null, "budget": 0, "genres": [{"id": 12, "name": "Adventure"}, {"id": 80, "name": "Crime"}, {"id": 9648, "name": "Mystery"}], "homepage": null, "id": 293636, "imdb_id": "tt0107082", "original_language": "en", "original_title": "Hart to Hart Returns", "overview": "Jonathan Hart, the wealthy entrepreneur, and his charming investigative reporter wife, Jennifer, once again get caught up in a mystery, this time involving corrupt government contractors. Aided by their trusty servant Max, who is more family than employee, and their dog Freeway, the Harts try to resolve issues with an investigation into Jonathan\u2019s business dealings with an old friend in the aerospace industry, and find themselves in the midst of a dark plot which will put Jonathan\u2019s freedom, their home, and even their lives in jeopardy.", "popularity": 2.064, "poster_path": "/xHcwnBJzfF6IWGlYwnVXb9qnz7Q.jpg", "production_companies": [{"id": 24363, "logo_path": null, "name": "Papazian-Hirsch Entertainment International", "origin_country": ""}, {"id": 3614, "logo_path": "/qFRpYYtU9iyVKDMpm3a8tN7Q7YE.png", "name": "Columbia Pictures Television", "origin_country": "US"}], "production_countries": [{"iso_3166_1": "US", "name": "United States of America"}], "release_date": "1993-11-02", "revenue": 0, "runtime": 86, "spoken_languages": [{"iso_639_1": "en", "name": "English"}], "status": "Released", "tagline": "", "title": "Hart to Hart Returns", "video": false, "vote_average": 5.2, "vote_count": 5, "keywords": {"keywords": [{"id": 703, "name": "detective"}]}, "similar": {"page": 1, "results": [{"adult": false, "backdrop_path": "/uUYCUbgI5VxsUflTMI4Y9L2Y6vb.jpg", "genre_ids": [80, 18, 53], "id": 11423, "original_language": "ko", "original_title": "\uc0b4\uc778\uc758 \ucd94\uc5b5", "overview": "1986 Gyunggi Province. The body of a young woman is found brutally raped and murdered. Two months later, a series of rapes and murders commences under similar circumstances. And in a country that had never known such crimes, the dark whispers about a serial murderer grow louder. A special task force is set up in the area, with two local detectives Park Doo-Man and Jo Young-Goo joined by a detective from Seoul who requested to be assigned to the case.", "poster_path": "/gawnVe9cFowdoDLo9Pok12NTw39.jpg", "release_date": "2003-05-02", "title": "Memories of Murder", "video": false, "vote_average": 8.1, "vote_count": 1093, "popularity": 13.452}, {"adult": false, "backdrop_path": "/3TCPWrxQkfon82xPNtmpweOSVJc.jpg", "genre_ids": [18, 80, 9648, 10749, 53], "id": 12150, "original_language": "en", "original_title": "Sea of Love", "overview": "Seen-it-all New York detective Frank Keller is unsettled - he has done twenty years on the force and could retire, and he hasn't come to terms with his wife leaving him for a colleague. Joining up with an officer from another part of town to investigate a series of murders linked by the lonely hearts columns he finds he is getting seriously and possibly dangerously involved with Helen, one of the main suspects.", "poster_path": "/7DkkTHIX3hUqvsRv5sDmJAkCfKK.jpg", "release_date": "1989-09-15", "title": "Sea of Love", "video": false, "vote_average": 6.7, "vote_count": 290, "popularity": 10.636}, {"id": 1847, "video": false, "vote_count": 259, "vote_average": 7.4, "title": "The Long Goodbye", "release_date": "1973-03-07", "original_language": "en", "original_title": "The Long Goodbye", "genre_ids": [80, 18, 9648, 53], "backdrop_path": "/brm75bRffmi2SlsUmsHUxUVI1Hg.jpg", "adult": false, "overview": "Detective Philip Marlowe tries to help a friend who is accused of murdering his wife.", "poster_path": "/oBhUK54yBJ0aH6u9zCzSV5iV7OP.jpg", "popularity": 9.602}, {"adult": false, "backdrop_path": "/t3OZS8yMs0NL4YgWWc04eXHTn1X.jpg", "genre_ids": [28, 80, 53], "id": 984, "original_language": "en", "original_title": "Dirty Harry", "overview": "When a madman dubbed 'Scorpio' terrorizes San Francisco, hard-nosed cop, Harry Callahan \u2013 famous for his take-no-prisoners approach to law enforcement \u2013 is tasked with hunting down the psychopath. Harry eventually collars Scorpio in the process of rescuing a kidnap victim, only to see him walk on technicalities. Now, the maverick detective is determined to nail the maniac himself.", "poster_path": "/2TADKc4GMMPdMrLXj0xJVgTvZJM.jpg", "release_date": "1971-12-21", "title": "Dirty Harry", "video": false, "vote_average": 7.5, "vote_count": 1173, "popularity": 18.839}, {"id": 75780, "video": false, "vote_count": 4451, "vote_average": 6.4, "title": "Jack Reacher", "release_date": "2012-12-20", "original_language": "en", "original_title": "Jack Reacher", "genre_ids": [28, 80, 18, 53], "backdrop_path": "/ezXodpP429qK0Av89pVNlaXWJkQ.jpg", "adult": false, "overview": "When a gunman takes five lives with six shots, all evidence points to the suspect in custody. On interrogation, the suspect offers up a single note: \"Get Jack Reacher!\" So begins an extraordinary chase for the truth, pitting Jack Reacher against an unexpected enemy, with a skill for violence and a secret to keep.", "poster_path": "/mt0ELw83HIRgaKaDzhsDcIi0RnW.jpg", "popularity": 15.945}, {"adult": false, "backdrop_path": "/2J283YNxKhxAqHeVegUJ5mzLfGb.jpg", "genre_ids": [80, 18, 9648], "id": 392044, "original_language": "en", "original_title": "Murder on the Orient Express", "overview": "Genius Belgian detective Hercule Poirot investigates the murder of an American tycoon aboard the Orient Express train.", "poster_path": "/iBlfxlw8qwtUS0R8YjIU7JtM6LM.jpg", "release_date": "2017-11-03", "title": "Murder on the Orient Express", "video": false, "vote_average": 6.7, "vote_count": 6050, "popularity": 27.701}, {"id": 807, "video": false, "vote_count": 11937, "vote_average": 8.3, "title": "Se7en", "release_date": "1995-09-22", "original_language": "en", "original_title": "Se7en", "genre_ids": [80, 9648, 53], "backdrop_path": "/A0WKbRIojF9DUWG4XLCmg5JK6I5.jpg", "adult": false, "overview": "Two homicide detectives are on a desperate hunt for a serial killer whose crimes are based on the \"seven deadly sins\" in this dark and haunting film that takes viewers from the tortured remains of one victim to the next. The seasoned Det. Sommerset researches each sin in an effort to get inside the killer's mind, while his novice partner, Mills, scoffs at his efforts to unravel the case.", "poster_path": "/8zw8IL4zEPjkh8Aysdcd0FwGMb0.jpg", "popularity": 34.018}, {"id": 4771, "video": false, "vote_count": 2134, "vote_average": 7.3, "title": "Gone Baby Gone", "release_date": "2007-09-18", "original_language": "en", "original_title": "Gone Baby Gone", "genre_ids": [80, 18, 9648], "backdrop_path": "/sogh5NXPbKFajjYKBlfIBfCWgbq.jpg", "adult": false, "overview": "When 4 year old Amanda McCready disappears from her home and the police make little headway in solving the case, the girl's aunt, Beatrice McCready hires two private detectives, Patrick Kenzie and Angie Gennaro. The detectives freely admit that they have little experience with this type of case, but the family wants them for two reasons - they're not cops and they know the tough neighborhood in which they all live. As the case progresses, Kenzie and Gennaro face drug dealers, gangs and pedophiles. When they are about to solve the case, they are faced with a moral dilemma that tears them apart.", "poster_path": "/dXXMPxGiRegd7NNCtE5uchAKRAG.jpg", "popularity": 16.498}, {"id": 4176, "video": false, "vote_count": 658, "vote_average": 7.1, "title": "Murder on the Orient Express", "release_date": "1974-11-22", "original_language": "en", "original_title": "Murder on the Orient Express", "genre_ids": [18, 9648, 53], "backdrop_path": "/tAXK5R0ytrN2l2qgGfyxums5J0w.jpg", "adult": false, "overview": "In 1935, when his train is stopped by deep snow, detective Hercule Poirot is called on to solve a murder that occurred in his car the night before.", "poster_path": "/66B9pHWl2KU7CwB3xcBNYvEo2CH.jpg", "popularity": 12.171}, {"adult": false, "backdrop_path": "/v761yOHKO3p6Yr7LDCjud6tUL5G.jpg", "genre_ids": [28, 80, 53], "id": 10651, "original_language": "en", "original_title": "The Dead Pool", "overview": "Dirty Harry Callahan returns for his final film adventure. Together with his partner Al Quan, he must investigate the systematic murder of actors and musicians. By the time Harry learns that the murders are a part of a sick game to predict the deaths of celebrities before they happen, it may be too late...", "poster_path": "/9ZUSqox9lIxN4xaYBac2QXMFcZj.jpg", "release_date": "1988-07-12", "title": "The Dead Pool", "video": false, "vote_average": 6.4, "vote_count": 389, "popularity": 10.626}, {"adult": false, "backdrop_path": "/4AXlsl0azR9d9xjX9tDdfAeM8lt.jpg", "genre_ids": [80, 18, 9648, 10749], "id": 25376, "original_language": "es", "original_title": "El secreto de sus ojos", "overview": "A retired legal counselor writes a novel hoping to find closure for one of his past unresolved homicide cases and for his unreciprocated love with his superior - both of which still haunt him decades later.", "poster_path": "/z2mUzEqDi7DtA1E4mYzVjbzXnqE.jpg", "release_date": "2009-08-13", "title": "The Secret in Their Eyes", "video": false, "vote_average": 7.9, "vote_count": 1288, "popularity": 11.544}, {"id": 320, "video": false, "vote_count": 2531, "vote_average": 6.9, "title": "Insomnia", "release_date": "2002-05-24", "original_language": "en", "original_title": "Insomnia", "genre_ids": [80, 9648, 53], "backdrop_path": "/p8UHSddGu2frGk0nCkuPjDemjka.jpg", "adult": false, "overview": "Two Los Angeles homicide detectives are dispatched to a northern town where the sun doesn't set to investigate the methodical murder of a local teen.", "poster_path": "/zb0D3vfjcPFvuyHp1mFPOIcYJWH.jpg", "popularity": 20.234}, {"id": 4193, "video": false, "vote_count": 172, "vote_average": 6.8, "title": "Evil Under the Sun", "release_date": "1982-03-05", "original_language": "en", "original_title": "Evil Under the Sun", "genre_ids": [80, 18, 9648, 53], "backdrop_path": "/4OQpu41qYHyFHHeuZ4WID5KxipL.jpg", "adult": false, "overview": "Trying to find how a millionaire wound up with a phony diamond brings Hercule Poirot to an exclusive island resort frequented by the rich and famous. When a murder is committed, everyone has an alibi.", "poster_path": "/fUZCiY6YYO8w4tv8nrh30isOf4J.jpg", "popularity": 8.8}, {"adult": false, "backdrop_path": "/2zh06EWekQWzlxa4jpFKRuXEtgf.jpg", "genre_ids": [80, 18, 28, 53], "id": 9411, "original_language": "en", "original_title": "Fallen", "overview": "Homicide detective John Hobbes witnesses the execution of serial killer Edgar Reese. Soon after the execution the killings start again, and they are very similar to Reese's style.", "poster_path": "/v66GrbKcl1babq8BebUff0MI3m4.jpg", "release_date": "1998-01-16", "title": "Fallen", "video": false, "vote_average": 6.8, "vote_count": 674, "popularity": 15.448}, {"adult": false, "backdrop_path": "/7RRuRcGuWkZGuRyYugfXn0Fgrrr.jpg", "genre_ids": [28, 80, 18, 53], "id": 949, "original_language": "en", "original_title": "Heat", "overview": "Obsessive master thief, Neil McCauley leads a top-notch crew on various daring heists throughout Los Angeles while determined detective, Vincent Hanna pursues him without rest. Each man recognizes and respects the ability and the dedication of the other even though they are aware their cat-and-mouse game may end in violence.", "poster_path": "/6pmLVffM9jEYK7VqDJqPblMxfEY.jpg", "release_date": "1995-12-15", "title": "Heat", "video": false, "vote_average": 7.8, "vote_count": 3615, "popularity": 21.973}, {"adult": false, "backdrop_path": "/arcpWGGnUkGkakOwZo7xfPsaz7h.jpg", "genre_ids": [9648, 53], "id": 2832, "original_language": "en", "original_title": "Identity", "overview": "Complete strangers stranded at a remote desert motel during a raging storm soon find themselves the target of a deranged murderer. As their numbers thin out, the travelers begin to turn on each other, as each tries to figure out who the killer is.", "poster_path": "/xSNSp2wmCUwFavxdkMF417hBc39.jpg", "release_date": "2003-04-25", "title": "Identity", "video": false, "vote_average": 7.2, "vote_count": 2091, "popularity": 19.629}, {"adult": false, "backdrop_path": "/ojsY0XyCSsJvm0n7YTwumQcvBqT.jpg", "genre_ids": [9648, 53], "id": 1586, "original_language": "en", "original_title": "Secret Window", "overview": "Mort Rainey, a writer just emerging from a painful divorce with his ex-wife, is stalked at his remote lake house by a psychotic stranger and would-be scribe who claims Rainey swiped his best story idea. But as Rainey endeavors to prove his innocence, he begins to question his own sanity.", "poster_path": "/f5t7Df50xjniLlE80ty2dYsZBqI.jpg", "release_date": "2004-03-12", "title": "Secret Window", "video": false, "vote_average": 6.5, "vote_count": 2126, "popularity": 19.288}, {"adult": false, "backdrop_path": "/bRGtZsVj2Qq8r5CCsNYmQUPF4z4.jpg", "genre_ids": [80, 18, 878, 53], "id": 10559, "original_language": "en", "original_title": "Frequency", "overview": "When a rare phenomenon gives police officer John Sullivan the chance to speak to his father, 30 years in the past, he takes the opportunity to prevent his dad's tragic death.  After his actions inadvertently give rise to a series of brutal murders he and his father must find a way to fix the consequences of altering time.", "poster_path": "/n0QAAZmIaPPIShVkk8eiKwfGV9.jpg", "release_date": "2000-04-28", "title": "Frequency", "video": false, "vote_average": 7.1, "vote_count": 897, "popularity": 14.026}, {"adult": false, "backdrop_path": "/cLGKawjQ5tUJCuDyR0OnGYT4fyf.jpg", "genre_ids": [18, 53, 80], "id": 146233, "original_language": "en", "original_title": "Prisoners", "overview": "When Keller Dover's daughter and her friend go missing, he takes matters into his own hands as the police pursue multiple leads and the pressure mounts. But just how far will this desperate father go to protect his family?", "poster_path": "/yAhqW57pwMAsCgmZpM5zSIVQVTh.jpg", "release_date": "2013-09-18", "title": "Prisoners", "video": false, "vote_average": 8.0, "vote_count": 6410, "popularity": 24.427}, {"id": 402, "video": false, "vote_count": 1776, "vote_average": 6.7, "title": "Basic Instinct", "release_date": "1992-03-20", "original_language": "en", "original_title": "Basic Instinct", "genre_ids": [9648, 53], "backdrop_path": "/bKdxJMqvr4wltzAQaieA6CTkaa9.jpg", "adult": false, "overview": "A police detective is in charge of the investigation of a brutal murder, in which a beautiful and seductive woman could be involved.", "poster_path": "/p1DHOfLFZmM567ePKfFNMV4mY92.jpg", "popularity": 23.513}], "total_pages": 265, "total_results": 5283}, "recommendations": {"page": 1, "results": [{"adult": false, "backdrop_path": null, "genre_ids": [12, 80, 9648], "id": 258867, "original_language": "en", "original_title": "Hart to Hart: Crimes of the Hart", "overview": "In their very last adventure, Jonathan and Jennifer Hart travel to The Big Apple, where a play she wrote in college is being produced on Broadway. But there's sabotage going on, and when a stagehand is murdered, everyone's a suspect - even Jonathan!", "poster_path": "/5TDMuYU9vHJA3Mvxzy5pIkXN5ph.jpg", "release_date": "1994-03-25", "title": "Hart to Hart: Crimes of the Hart", "video": false, "vote_average": 5.3, "vote_count": 4, "popularity": 2.214}, {"adult": false, "backdrop_path": null, "genre_ids": [9648, 80, 12], "id": 269699, "original_language": "en", "original_title": "Hart to Hart: Old Friends Never Die", "overview": "The Harts find themselves in the middle of a dangerous murder plot, but it isn't clear if the plot it a famous author's fictional murder-mystery, or an actual murder plot, until Jonathan finds himself the unsuspecting target of a killer. It begins to look like the culprit behind the plot is an old friend, Frank Crane, but there may be a connection to a corporate takeover of Hart Industries as well.", "poster_path": "/fNi4zJaXyUOGAH4cms2ITPnQ98L.jpg", "release_date": "1994-05-06", "title": "Hart to Hart: Old Friends Never Die", "video": false, "vote_average": 5.3, "vote_count": 3, "popularity": 2.479}, {"adult": false, "backdrop_path": null, "genre_ids": [9648, 80, 18], "id": 253914, "original_language": "en", "original_title": "Hart to Hart: Two Harts in 3/4 Time", "overview": "This entry in the long-running romance of Jonathan and Jennifer Hart picks up following the death of their beloved friend Max when the Harts go to Montreal for the reading of his will. While there, they learn of a clock Max has left for them with his niece, Marie, which is stolen before they can receive it. Meanwhile, Marie\u2019s partner in their antique shop, Vivienne, meets with Ronnie, her secret lover and the husband of the Harts\u2019 friend Lady Camilla Ashley, and is subsequently killed. The clock seems to be at the center of a mystery which includes kidnapping and murder, and the Harts will have to unravel it if they want to get their gift from Max back.", "poster_path": "/7MOFfsDBU5HC9gx94mP2mVOoFGv.jpg", "release_date": "1995-11-26", "title": "Hart to Hart: Two Harts in 3/4 Time", "video": false, "vote_average": 4.7, "vote_count": 3, "popularity": 1.447}, {"adult": false, "backdrop_path": null, "genre_ids": [12, 80, 9648], "id": 259562, "original_language": "en", "original_title": "Hart to Hart: Home Is Where the Hart Is", "overview": "When a mentor and friend of Jennifer's dies, she and Jonathan return to the sleepy town where Jennifer once lived and worked as a reporter. Nearly immediately, they discover that all is not right within this picturesque town. The town's economic troubles pale next to the danger the Harts find themselves in as they try to sort out whether their friend's death was murder, and what sinister secrets may lie behind the truth.", "poster_path": "/vFQh8BuLbUj6d9ilrQhglrjDkSw.jpg", "release_date": "1994-02-18", "title": "Hart to Hart: Home Is Where the Hart Is", "video": false, "vote_average": 5.0, "vote_count": 3, "popularity": 1.995}], "total_pages": 1, "total_results": 4}, "credits": {"cast": [{"cast_id": 1, "character": "Jonathan Hart", "credit_id": "5660c15bc3a36875ed0045df", "gender": 2, "id": 9208, "name": "Robert Wagner", "order": 1, "profile_path": "/nlRWGpsQPo8sSFdl8larlPUy1rS.jpg"}, {"cast_id": 2, "character": "Jennifer Hart", "credit_id": "5660c172c3a36875e2004b56", "gender": 1, "id": 39762, "name": "Stefanie Powers", "order": 2, "profile_path": "/xjK7ytgxD9MVkB1vTgjHgn83xMS.jpg"}, {"cast_id": 3, "character": "Max", "credit_id": "5660c1879251412204003886", "gender": 2, "id": 4969, "name": "Lionel Stander", "order": 3, "profile_path": "/gDbj1eKxhXraVY36m1q4ypAdegJ.jpg"}, {"cast_id": 4, "character": "Bill McDowell", "credit_id": "5660c199925141790f004af4", "gender": 2, "id": 29718, "name": "Mike Connors", "order": 4, "profile_path": "/5urphRLB5I7jucdJy11Nn2uGBOv.jpg"}, {"cast_id": 5, "character": "Dr. Paul Menard", "credit_id": "5660c1d79251417913004b82", "gender": 2, "id": 29718, "name": "Mike Connors", "order": 5, "profile_path": "/5urphRLB5I7jucdJy11Nn2uGBOv.jpg"}, {"cast_id": 6, "character": "Peter McDowell", "credit_id": "5660c208c3a36875e9004e46", "gender": 2, "id": 16213, "name": "Lance Guest", "order": 6, "profile_path": "/9aeYAbG5UOyE2P4vCeVdwAJQ6Co.jpg"}, {"cast_id": 7, "character": "Duke", "credit_id": "5660c2309251417913004b92", "gender": 2, "id": 16213, "name": "Lance Guest", "order": 7, "profile_path": "/9aeYAbG5UOyE2P4vCeVdwAJQ6Co.jpg"}, {"cast_id": 8, "character": "Hal Bartlett", "credit_id": "5660c249c3a36875e2004b7e", "gender": 2, "id": 155437, "name": "David Purdham", "order": 8, "profile_path": "/msD1TIV1qa7ekN95Gbof4pLhIgL.jpg"}, {"cast_id": 9, "character": "Eric Hayden", "credit_id": "5660c25c925141790a004add", "gender": 2, "id": 1469, "name": "Brian Reddy", "order": 9, "profile_path": "/6AOxOUfyU3iDQabWL6EipPZ5DAM.jpg"}, {"cast_id": 10, "character": "West", "credit_id": "5660c26fc3a36875e2004b88", "gender": 2, "id": 100618, "name": "Kevin Brophy", "order": 10, "profile_path": null}], "crew": [{"credit_id": "5660c1459251417918004764", "department": "Directing", "gender": 0, "id": 1544519, "job": "Director", "name": "Peter Roger Hunt", "profile_path": null}]}}