{"adult": false, "backdrop_path": "/a4V7lYwx1c6ThFl75cdbJ4XNTeZ.jpg", "belongs_to_collection": null, "budget": 0, "genres": [{"id": 10749, "name": "Romance"}, {"id": 35, "name": "Comedy"}], "homepage": null, "id": 294197, "imdb_id": "tt0026041", "original_language": "en", "original_title": "The Affair of Susan", "overview": "Two people go to Coney Island to find romance and wind up in jail.", "popularity": 1.545, "poster_path": "/x4CI78nN7VzFlcAA9zyRzJ4lb6w.jpg", "production_companies": [{"id": 33, "logo_path": "/8lvHyhjr8oUKOOy2dKXoALWKdp0.png", "name": "Universal Pictures", "origin_country": "US"}], "production_countries": [{"iso_3166_1": "US", "name": "United States of America"}], "release_date": "1935-09-01", "revenue": 0, "runtime": 62, "spoken_languages": [], "status": "Released", "tagline": "", "title": "The Affair of Susan", "video": false, "vote_average": 0.0, "vote_count": 0, "keywords": {"keywords": [{"id": 9273, "name": "coney island"}, {"id": 14512, "name": "new york city, usa"}, {"id": 41523, "name": "brooklyn, new york city"}, {"id": 155582, "name": "amusement park"}]}, "similar": {"page": 1, "results": [{"id": 772, "video": false, "vote_count": 5556, "vote_average": 6.5, "title": "Home Alone 2: Lost in New York", "release_date": "1992-11-19", "original_language": "en", "original_title": "Home Alone 2: Lost in New York", "genre_ids": [12, 35, 80, 10751], "backdrop_path": "/1uHTuwx5h9T3XzsXijMMKybDFvZ.jpg", "adult": false, "overview": "Instead of flying to Florida with his folks, Kevin ends up alone in New York, where he gets a hotel room with his dad's credit card\u2014despite problems from a clerk and meddling bellboy. But when Kevin runs into his old nemeses, the Wet Bandits, he's determined to foil their plans to rob a toy store on Christmas eve.", "poster_path": "/ezGcLFTvwR64I3Z7RqHnXRFet4r.jpg", "popularity": 28.414}, {"id": 296099, "video": false, "vote_count": 2162, "vote_average": 6.2, "title": "Vacation", "release_date": "2015-07-28", "original_language": "en", "original_title": "Vacation", "genre_ids": [35], "backdrop_path": "/lWhTsYsTRMDDBg3KIUMzVb8gs2l.jpg", "adult": false, "overview": "Hoping to bring his family closer together and to recreate his childhood vacation for his own kids, a grown up Rusty Griswold takes his wife and their two sons on a cross-country road trip to the coolest theme park in America, Walley World. Needless to say, things don't go quite as planned.", "poster_path": "/q9kL9WW0Uu4AcfTi5iCLcYzBgnm.jpg", "popularity": 24.125}, {"adult": false, "backdrop_path": "/qjm30F9hwJ6BNbsb7iOrrKwkY3n.jpg", "genre_ids": [35, 18, 10749], "id": 696, "original_language": "en", "original_title": "Manhattan", "overview": "Manhattan explores how the life of a middle-aged television writer dating a teenage girl is further complicated when he falls in love with his best friend's mistress.", "poster_path": "/k4eT3EvfxW1L9Wmt04UqJqCvCR6.jpg", "release_date": "1979-04-25", "title": "Manhattan", "video": false, "vote_average": 7.9, "vote_count": 1320, "popularity": 17.292}, {"id": 164, "video": false, "vote_count": 2459, "vote_average": 7.8, "title": "Breakfast at Tiffany's", "release_date": "1961-10-05", "original_language": "en", "original_title": "Breakfast at Tiffany's", "genre_ids": [35, 18, 10749], "backdrop_path": "/vABwESShzjlSynkyGjLihTUieMJ.jpg", "adult": false, "overview": "Fortune hunter Holly Golightly finds herself captivated by aspiring writer Paul Varjak, who's moved into her building on a wealthy woman's dime. As romance blooms between Paul and Holly, Doc Golightly shows up on the scene, revealing Holly's past.", "poster_path": "/c95lbDwL5WT8PV9DZsdSvRtXKNA.jpg", "popularity": 21.751}, {"id": 311, "video": false, "vote_count": 2595, "vote_average": 8.4, "title": "Once Upon a Time in America", "release_date": "1984-05-23", "original_language": "en", "original_title": "Once Upon a Time in America", "genre_ids": [80, 18], "backdrop_path": "/vnT6HzjLSDrAweHn9xWykb8Ii6T.jpg", "adult": false, "overview": "A former Prohibition-era Jewish gangster returns to the Lower East Side of Manhattan over thirty years later, where he once again must confront the ghosts and regrets of his old life.", "poster_path": "/x733R4ISI0RbKeHhVkXdTMFmTFr.jpg", "popularity": 22.233}, {"id": 103, "video": false, "vote_count": 6109, "vote_average": 8.2, "title": "Taxi Driver", "release_date": "1976-02-07", "original_language": "en", "original_title": "Taxi Driver", "genre_ids": [80, 18], "backdrop_path": "/hjmJKAVoZ3n2KWbKgasbfdugwhu.jpg", "adult": false, "overview": "A mentally unstable Vietnam War veteran works as a night-time taxi driver in New York City where the perceived decadence and sleaze feed his urge for violent action, attempting to save a preadolescent prostitute in the process.", "poster_path": "/ekstpH614fwDX8DUln1a2Opz0N8.jpg", "popularity": 30.132}, {"id": 1771, "video": false, "vote_count": 14038, "vote_average": 6.9, "title": "Captain America: The First Avenger", "release_date": "2011-07-22", "original_language": "en", "original_title": "Captain America: The First Avenger", "genre_ids": [28, 12, 878], "backdrop_path": "/pmZtj1FKvQqISS6iQbkiLg5TAsr.jpg", "adult": false, "overview": "During World War II, Steve Rogers is a sickly man from Brooklyn who's transformed into super-soldier Captain America to aid in the war effort. Rogers must stop the Red Skull \u2013 Adolf Hitler's ruthless head of weaponry, and the leader of an organization that intends to use a mysterious device of untold powers for world domination.", "poster_path": "/vSNxAJTlD0r02V9sPYpOjqDZXUK.jpg", "popularity": 20.824}, {"id": 315635, "video": false, "vote_count": 13257, "vote_average": 7.4, "title": "Spider-Man: Homecoming", "release_date": "2017-07-05", "original_language": "en", "original_title": "Spider-Man: Homecoming", "genre_ids": [28, 12, 18, 878], "backdrop_path": "/vc8bCGjdVp0UbMNLzHnHSLRbBWQ.jpg", "adult": false, "overview": "Following the events of Captain America: Civil War, Peter Parker, with the help of his mentor Tony Stark, tries to balance his life as an ordinary high school student in Queens, New York City, with fighting crime as his superhero alter ego Spider-Man as a new threat, the Vulture, emerges.", "poster_path": "/c24sv2weTHPsmDa7jEMN0m2P3RT.jpg", "popularity": 43.075}, {"adult": false, "backdrop_path": "/sw7mordbZxgITU877yTpZCud90M.jpg", "genre_ids": [18, 80], "id": 769, "original_language": "en", "original_title": "GoodFellas", "overview": "The true story of Henry Hill, a half-Irish, half-Sicilian Brooklyn kid who is adopted by neighbourhood gangsters at an early age and climbs the ranks of a Mafia family under the guidance of Jimmy Conway.", "poster_path": "/pwpGfTImTGifEGgLb3s6LRPd4I6.jpg", "release_date": "1990-09-12", "title": "GoodFellas", "video": false, "vote_average": 8.4, "vote_count": 6559, "popularity": 36.135}, {"id": 396398, "video": false, "vote_count": 585, "vote_average": 6.4, "title": "The Meyerowitz Stories (New and Selected)", "release_date": "2017-10-13", "original_language": "en", "original_title": "The Meyerowitz Stories (New and Selected)", "genre_ids": [35, 18], "backdrop_path": "/hwBqtQy8uuQ3g9gzuFoBgn0xHk4.jpg", "adult": false, "overview": "An estranged family gathers together in New York for an event celebrating the artistic work of their father.", "poster_path": "/c9teDTgwxgnb7wnZjZo4oNcF80R.jpg", "popularity": 14.01}, {"id": 194662, "video": false, "vote_count": 8621, "vote_average": 7.5, "title": "Birdman", "release_date": "2014-08-27", "original_language": "en", "original_title": "Birdman", "genre_ids": [35, 18], "backdrop_path": "/AsJVim0Hk3KbQPbfjyijfjqmaoZ.jpg", "adult": false, "overview": "A fading actor best known for his portrayal of a popular superhero attempts to mount a comeback by appearing in a Broadway play. As opening night approaches, his attempts to become more altruistic, rebuild his career, and reconnect with friends and family prove more difficult than expected.", "poster_path": "/rSZs93P0LLxqlVEbI001UKoeCQC.jpg", "popularity": 40.415}, {"id": 384677, "video": false, "vote_count": 1692, "vote_average": 7.0, "title": "Set It Up", "release_date": "2018-06-12", "original_language": "en", "original_title": "Set It Up", "genre_ids": [35, 10749], "backdrop_path": "/wYHaQzfzv5vOGaV6uPhatFWG338.jpg", "adult": false, "overview": "Two overworked and underpaid assistants come up with a plan to get their bosses off their backs by setting them up with each other.", "poster_path": "/XF5jV0UxKnYNPAimem0hbwPfCR.jpg", "popularity": 17.802}, {"id": 24122, "video": false, "vote_count": 452, "vote_average": 6.1, "title": "The Rebound", "release_date": "2009-09-16", "original_language": "en", "original_title": "The Rebound", "genre_ids": [35, 10749], "backdrop_path": "/tHskgc02jDVnhsPSmPpfEZeLL5v.jpg", "adult": false, "overview": "Upon discovering her husband's infidelity, Sandy leaves the suburbs and moves into the city. There, she befriends Aram, a guy whose wife only married him so she could get a green card. Sandy hires Aram to be her nanny, and  it isn't long until Aram and Sandy find out they get along wonderfully and start to date. But is their relationship real or is it, in fact, just a rebound for both of them?", "poster_path": "/nkkFebe8ZgE843rnTrlaRWJy0g9.jpg", "popularity": 18.716}, {"adult": false, "backdrop_path": "/74Jh5SIWnKDwtusPfDP51EeCFHt.jpg", "genre_ids": [35, 10749], "id": 9576, "original_language": "en", "original_title": "Tootsie", "overview": "When struggling, out of work actor Michael Dorsey secretly adopts a female alter ego - Dorothy Michaels - in order to land a part in a daytime drama, he unwittingly becomes a feminist icon and ends up in a romantic pickle.", "poster_path": "/ngyCzZwb9y5sMUCig5JQT4Y33Q.jpg", "release_date": "1982-12-16", "title": "Tootsie", "video": false, "vote_average": 7.2, "vote_count": 915, "popularity": 9.882}, {"id": 167073, "video": false, "vote_count": 2097, "vote_average": 7.3, "title": "Brooklyn", "release_date": "2015-10-20", "original_language": "en", "original_title": "Brooklyn", "genre_ids": [18, 10749], "backdrop_path": "/7fXKVIM8UQBvQ9aQOzFqThlq7eN.jpg", "adult": false, "overview": "In 1950s Ireland and New York, young Eilis Lacey has to choose between two men and two countries.", "poster_path": "/dRpkyrSDrEMFRZDeFJG4EupqUfR.jpg", "popularity": 12.966}, {"id": 928, "video": false, "vote_count": 1406, "vote_average": 6.4, "title": "Gremlins 2: The New Batch", "release_date": "1990-06-15", "original_language": "en", "original_title": "Gremlins 2: The New Batch", "genre_ids": [35, 14, 27], "backdrop_path": "/4GbP532VkFcOng4vBaF5VMjXR26.jpg", "adult": false, "overview": "Young sweethearts Billy and Kate move to the Big Apple, land jobs in a high-tech office park and soon reunite with the friendly and lovable Gizmo. But a series of accidents creates a whole new generation of Gremlins. The situation worsens when the devilish green creatures invade a top-secret laboratory and develop genetically altered powers, making them even harder to destroy!", "poster_path": "/mkWD9W27JYmQPbgcryPBdI2cF4r.jpg", "popularity": 17.163}, {"id": 9602, "video": false, "vote_count": 2096, "vote_average": 6.7, "title": "Coming to America", "release_date": "1988-06-29", "original_language": "en", "original_title": "Coming to America", "genre_ids": [35, 10749], "backdrop_path": "/tlCnOu6PO7ILLnJMRw1NsrEWmyQ.jpg", "adult": false, "overview": "Prince Akeem, heir to the throne of Zamunda, leaves the tropical paradise kingdom in search of his queen. What better place than Queens, New York, to find his bride? Joined by his loyal servant and friend, Semmi, Akeem attempts to blend in as an ordinary American and begin his search.", "poster_path": "/7v1Sy0HC5KEM1DMM4Bpy5gVly1K.jpg", "popularity": 18.148}, {"id": 401847, "video": false, "vote_count": 664, "vote_average": 6.8, "title": "Can You Ever Forgive Me?", "release_date": "2018-10-19", "original_language": "en", "original_title": "Can You Ever Forgive Me?", "genre_ids": [35, 80, 18], "backdrop_path": "/shIOFWkjTn2NRvq5r4Mn2xLdZeJ.jpg", "adult": false, "overview": "When a bestselling celebrity biographer is no longer able to get published because she has fallen out of step with current tastes, she turns her art form to deception.", "poster_path": "/hPuZR2bFoV0kuBrA98exWyvTf40.jpg", "popularity": 16.339}, {"id": 703, "video": false, "vote_count": 2272, "vote_average": 7.8, "title": "Annie Hall", "release_date": "1977-04-19", "original_language": "en", "original_title": "Annie Hall", "genre_ids": [35, 18, 10749], "backdrop_path": "/8iNt5LGxpX9XeNWJgjx17xfTT7u.jpg", "adult": false, "overview": "New York comedian Alvy Singer falls in love with the ditsy Annie Hall.", "poster_path": "/bK9bLXwxWuXX5mbq75PZqjvAtfG.jpg", "popularity": 14.556}, {"adult": false, "backdrop_path": "/9l5Nzo1qbEslfCu2NYWimpZ1Vkc.jpg", "genre_ids": [35, 10751, 14, 10749], "id": 4523, "original_language": "en", "original_title": "Enchanted", "overview": "The beautiful princess Giselle is banished by an evil queen from her magical, musical animated land and finds herself in the gritty reality of the streets of modern-day Manhattan. Shocked by this strange new environment that doesn't operate on a \"happily ever after\" basis, Giselle is now adrift in a chaotic world badly in need of enchantment. But when Giselle begins to fall in love with a charmingly flawed divorce lawyer who has come to her aid - even though she is already promised to a perfect fairy tale prince back home - she has to wonder: Can a storybook view of romance survive in the real world?", "poster_path": "/65EfHNQ6NCeAoRPNLRhTyLqNZmU.jpg", "release_date": "2007-11-20", "title": "Enchanted", "video": false, "vote_average": 6.7, "vote_count": 3505, "popularity": 22.541}], "total_pages": 65, "total_results": 1292}, "recommendations": {"page": 1, "results": [], "total_pages": 1, "total_results": 0}, "credits": {"cast": [{"cast_id": 3, "character": "Susan Todd", "credit_id": "542049620e0a2617a2002d19", "gender": 1, "id": 34746, "name": "Zasu Pitts", "order": 1, "profile_path": "/sRrLfvCrM4thChdiWU5q9B17YMi.jpg"}, {"cast_id": 4, "character": "Dudley Stone", "credit_id": "54204970c3a36879a0002c63", "gender": 2, "id": 103451, "name": "Hugh O'Connell", "order": 2, "profile_path": "/wanuVTFiiCbwvhsJsFPq1skFnPg.jpg"}, {"cast_id": 5, "character": "Gilbert", "credit_id": "5420497d0e0a2617a2002d1e", "gender": 2, "id": 13819, "name": "Walter Catlett", "order": 3, "profile_path": "/Y5kIRVTNaKuMy8DyrFDP1kwOub.jpg"}, {"cast_id": 6, "character": "Jeff Barnes", "credit_id": "5420498e0e0a261794002dfc", "gender": 2, "id": 2501, "name": "Tom Dugan", "order": 4, "profile_path": "/kcQeZ7chbe3J9jlHjavc64Tp1BO.jpg"}, {"cast_id": 7, "character": "Mrs. Barnes", "credit_id": "5420499b0e0a2617a2002d2f", "gender": 1, "id": 34244, "name": "Inez Courtney", "order": 5, "profile_path": "/niV0wt1LnlEqvdI9k0dvy9r9C3x.jpg"}, {"cast_id": 8, "character": "Hogan", "credit_id": "542049ba0e0a2617a2002d37", "gender": 2, "id": 14453, "name": "James Burke", "order": 6, "profile_path": "/s01DJdyVjmF0f6fXIGzsDHjPVGs.jpg"}, {"cast_id": 9, "character": "Miss Skelly", "credit_id": "542049c5c3a3687996002d18", "gender": 1, "id": 100587, "name": "Nan Grey", "order": 7, "profile_path": "/cZ6qyRvCeZ0LJRQKjIsajW5JCFR.jpg"}, {"cast_id": 10, "character": "Miss Perkins", "credit_id": "542049d10e0a261791002dce", "gender": 1, "id": 1025732, "name": "Irene Franklin", "order": 8, "profile_path": "/wr2vDTWEi3Q3G82dGTgokPs6lfS.jpg"}, {"cast_id": 11, "character": "Policeman", "credit_id": "542049ddc3a368798d002dbe", "gender": 2, "id": 242238, "name": "William Pawley", "order": 9, "profile_path": "/jHssrmXpDEKHO7NHmjzo7e07scg.jpg"}], "crew": [{"credit_id": "542049310e0a26179a002d44", "department": "Directing", "gender": 2, "id": 70565, "job": "Director", "name": "Kurt Neumann", "profile_path": "/3UasYzc5eQOpFZzzSHnwzSTjVRs.jpg"}, {"credit_id": "5420493fc3a36879a0002c56", "department": "Writing", "gender": 0, "id": 1027823, "job": "Writer", "name": "Mann Page", "profile_path": null}, {"credit_id": "5420494bc3a368798d002d98", "department": "Writing", "gender": 0, "id": 1025672, "job": "Writer", "name": "Clarence Marks", "profile_path": null}]}}