{"adult": false, "backdrop_path": null, "belongs_to_collection": null, "budget": 0, "genres": [{"id": 99, "name": "Documentary"}, {"id": 36, "name": "History"}, {"id": 10752, "name": "War"}], "homepage": null, "id": 294644, "imdb_id": "tt3635712", "original_language": "es", "original_title": "Invasi\u00f3n", "overview": "INVASION is a documentary about the collective memory of a country. The invasion of Panama by the U.S in 1989 serves as an excuse to explore how a people remember, transform, and often forget their past in order to re-define their identity and become who they are today.", "popularity": 0.6, "poster_path": "/232VWQhDs469X4KD2Fc8EC91ZWJ.jpg", "production_companies": [{"id": 47182, "logo_path": null, "name": "Apertura Films", "origin_country": ""}, {"id": 52952, "logo_path": null, "name": "Ajimolido Films", "origin_country": ""}], "production_countries": [{"iso_3166_1": "PA", "name": "Panama"}, {"iso_3166_1": "AR", "name": "Argentina"}], "release_date": "2014-04-06", "revenue": 0, "runtime": 94, "spoken_languages": [{"iso_639_1": "en", "name": "English"}, {"iso_639_1": "es", "name": "Espa\u00f1ol"}], "status": "Released", "tagline": "", "title": "Invasion", "video": false, "vote_average": 7.0, "vote_count": 1, "keywords": {"keywords": [{"id": 4596, "name": "panama"}]}, "similar": {"page": 1, "results": [{"adult": false, "backdrop_path": "/ePqwTIoJeKJwShMABMst5duBcw9.jpg", "genre_ids": [35, 10402, 10749], "id": 114150, "original_language": "en", "original_title": "Pitch Perfect", "overview": "College student Beca knows she does not want to be part of a clique, but that's exactly where she finds herself after arriving at her new school. Thrust in among mean gals, nice gals and just plain weird gals, Beca finds that the only thing they have in common is how well they sing together. She takes the women of the group out of their comfort zone of traditional arrangements and into a world of amazing harmonic combinations in a fight to the top of college music competitions.", "poster_path": "/cLUMPdwCV0Dxd3P1ZkCXe7bVImI.jpg", "release_date": "2012-09-28", "title": "Pitch Perfect", "video": false, "vote_average": 7.3, "vote_count": 4622, "popularity": 16.878}, {"adult": false, "backdrop_path": "/2aHM8lYzcaO4MfN7VNvo1QFU0ft.jpg", "genre_ids": [99, 10402], "id": 373558, "original_language": "en", "original_title": "Taylor Swift: The 1989 World Tour - Live", "overview": "Taylor delivers the concert event of the year. Filmed at Sydney's ANZ Stadium in front of 76,000 fans, The 1989 World Tour - Live captures the excitement and energy of the hottest pop star in the world. Filled with great music, an electrifying stage show, and superstar guest appearances, the concert film is only on Apple Music.", "poster_path": "/kzXe8kscKo83BwGvIofWg6SCR7n.jpg", "release_date": "2015-12-20", "title": "Taylor Swift: The 1989 World Tour - Live", "video": false, "vote_average": 8.3, "vote_count": 65, "popularity": 10.446}, {"id": 369972, "video": false, "vote_count": 3001, "vote_average": 7.1, "title": "First Man", "release_date": "2018-10-11", "original_language": "en", "original_title": "First Man", "genre_ids": [18, 36], "backdrop_path": "/jrudoaXcoLyHRPdolyOGemXgPEs.jpg", "adult": false, "overview": "A look at the life of the astronaut, Neil Armstrong, and the legendary space mission that led him to become the first man to walk on the Moon on July 20, 1969.", "poster_path": "/i91mfvFcPPlaegcbOyjGgiWfZzh.jpg", "popularity": 27.464}, {"id": 1370, "video": false, "vote_count": 1558, "vote_average": 5.9, "title": "Rambo III", "release_date": "1988-05-24", "original_language": "en", "original_title": "Rambo III", "genre_ids": [28, 12, 53, 10752], "backdrop_path": "/51P7TrAJIIfrwyPwpswui42zQLq.jpg", "adult": false, "overview": "Combat has taken its toll on Rambo, but he's finally begun to find inner peace in a monastery. When Rambo's friend and mentor Col. Trautman asks for his help on a top secret mission to Afghanistan, Rambo declines but must reconsider when Trautman is captured.", "poster_path": "/gWYfUEkExdr0SLY5L2mjnhKgE4C.jpg", "popularity": 18.508}, {"id": 653567, "video": false, "vote_count": 0, "vote_average": 0.0, "title": "Miss Americana", "release_date": "2020-01-23", "original_language": "en", "original_title": "Miss Americana", "genre_ids": [99], "backdrop_path": "/x2P9usnTYSd1pTKDIW83cXhKYUo.jpg", "adult": false, "overview": "A raw and emotionally revealing look at one of the most iconic artists of our time during a transformational period in her life as she learns to embrace her role not only as a songwriter and performer, but as a woman harnessing the full power of her voice.", "poster_path": "/fmHMmBl3VftWdLTy8E1mvWCgLe7.jpg", "popularity": 19.526}, {"adult": false, "backdrop_path": "/q3eNcig4YFEsUTnmIYDA90FdndO.jpg", "genre_ids": [10402, 35, 28, 80], "id": 525, "original_language": "en", "original_title": "The Blues Brothers", "overview": "Jake Blues is just out of jail, and teams up with his brother, Elwood on a 'mission from God' to raise funds for the orphanage in which they grew up. The only thing they can do is do what they do best: play music. So they get their old band together, and set out on their way\u2014while getting in a bit of trouble here and there.", "poster_path": "/6hesUNBkpVRqBTBw2HlTg0h8b56.jpg", "release_date": "1980-06-17", "title": "The Blues Brothers", "video": false, "vote_average": 7.7, "vote_count": 2299, "popularity": 21.638}, {"id": 11887, "video": false, "vote_count": 2347, "vote_average": 6.5, "title": "High School Musical 3: Senior Year", "release_date": "2008-10-11", "original_language": "en", "original_title": "High School Musical 3: Senior Year", "genre_ids": [35, 18, 10402, 10749, 10751], "backdrop_path": "/daSGxGZL2nNjGZKkAF5ain3lmOx.jpg", "adult": false, "overview": "It's almost graduation day for high school seniors Troy, Gabriella, Sharpay, Chad, Ryan and Taylor \u2015 and the thought of heading off in separate directions after leaving East High has these Wildcats thinking they need to do something they'll remember forever. Together with the rest of the Wildcats, they stage a spring musical reflecting their hopes and fears about the future and their unforgettable experiences growing up together. But with graduation approaching and college plans in question, what will become of the dreams, romances, and friendships of East High's senior Wildcats?", "poster_path": "/ewZpH2QIfPQ0VIn9lPf7MHbLbl4.jpg", "popularity": 14.748}, {"id": 313369, "video": false, "vote_count": 11063, "vote_average": 7.9, "title": "La La Land", "release_date": "2016-11-29", "original_language": "en", "original_title": "La La Land", "genre_ids": [35, 18, 10402, 10749], "backdrop_path": "/fp6X6yhgcxzxCpmM0EVC6V9B8XB.jpg", "adult": false, "overview": "Mia, an aspiring actress, serves lattes to movie stars in between auditions and Sebastian, a jazz musician, scrapes by playing cocktail party gigs in dingy bars, but as success mounts they are faced with decisions that begin to fray the fragile fabric of their love affair, and the dreams they worked so hard to maintain in each other threaten to rip them apart.", "poster_path": "/ylXCdC106IKiarftHkcacasaAcb.jpg", "popularity": 39.654}, {"id": 339403, "video": false, "vote_count": 9215, "vote_average": 7.4, "title": "Baby Driver", "release_date": "2017-06-28", "original_language": "en", "original_title": "Baby Driver", "genre_ids": [28, 80], "backdrop_path": "/goCvLSUFz0p7k8R10Hv4CVh3EQv.jpg", "adult": false, "overview": "After being coerced into working for a crime boss, a young getaway driver finds himself taking part in a heist doomed to fail.", "poster_path": "/dN9LbVNNZFITwfaRjl4tmwGWkRg.jpg", "popularity": 34.697}, {"adult": false, "backdrop_path": "/6bnI08rrGXRkngRqJWCMXDZuJ1j.jpg", "genre_ids": [35, 10402], "id": 254470, "original_language": "en", "original_title": "Pitch Perfect 2", "overview": "The Bellas are back, and they are better than ever. After being humiliated in front of none other than the President of the United States of America, the Bellas are taken out of the Aca-Circuit. In order to clear their name, and regain their status, the Bellas take on a seemingly impossible task: winning an international competition no American team has ever won. In order to accomplish this monumental task, they need to strengthen the bonds of friendship and sisterhood and blow away the competition with their amazing aca-magic! With all new friends and old rivals tagging along for the trip, the Bellas can hopefully accomplish their dreams.", "poster_path": "/qSjruLiFB4uqRtz2xheQPxG8uaB.jpg", "release_date": "2015-05-07", "title": "Pitch Perfect 2", "video": false, "vote_average": 6.8, "vote_count": 3901, "popularity": 29.697}, {"id": 44214, "video": false, "vote_count": 9192, "vote_average": 7.6, "title": "Black Swan", "release_date": "2010-12-03", "original_language": "en", "original_title": "Black Swan", "genre_ids": [18, 27, 53], "backdrop_path": "/t8jFs6cOl1YVSfXXZivWtEb14tF.jpg", "adult": false, "overview": "A journey through the psyche of a young ballerina whose starring role as the duplicitous swan queen turns out to be a part for which she becomes frighteningly perfect.", "poster_path": "/dQ7uxvsVTspVIsqjfgQj8usJpwX.jpg", "popularity": 24.558}, {"id": 533, "video": false, "vote_count": 1440, "vote_average": 6.9, "title": "Wallace & Gromit: The Curse of the Were-Rabbit", "release_date": "2005-09-04", "original_language": "en", "original_title": "Wallace & Gromit: The Curse of the Were-Rabbit", "genre_ids": [12, 16, 35, 10751], "backdrop_path": "/v45E1vDhPp2hc1dEZx5KZuRsSxX.jpg", "adult": false, "overview": "Cheese-loving eccentric Wallace and his cunning canine pal, Gromit, investigate a mystery in Nick Park's animated adventure, in which the lovable inventor and his intrepid pup run a business ridding the town of garden pests. Using only humane methods that turn their home into a halfway house for evicted vermin, the pair stumble upon a mystery involving a voracious vegetarian monster that threatens to ruin the annual veggie-growing contest.", "poster_path": "/tLryx0x9TDV5rifA9W8yUvDZFHB.jpg", "popularity": 21.23}, {"id": 151960, "video": false, "vote_count": 964, "vote_average": 5.8, "title": "Planes", "release_date": "2013-08-09", "original_language": "en", "original_title": "Planes", "genre_ids": [12, 16, 35, 10751], "backdrop_path": "/jUe7RbnkLXGYC9MPhdN9cruy4L0.jpg", "adult": false, "overview": "Dusty is a cropdusting plane who dreams of competing in a famous aerial race. The problem? He is hopelessly afraid of heights. With the support of his mentor Skipper and a host of new friends, Dusty sets off to make his dreams come true.", "poster_path": "/c8ALtmmmtofVYOxSJG0S5ZcP2pF.jpg", "popularity": 19.309}, {"id": 458104, "video": false, "vote_count": 0, "vote_average": 0.0, "title": "Hold On", "release_date": "2019-12-06", "original_language": "en", "original_title": "Hold On", "genre_ids": [18], "backdrop_path": null, "adult": false, "overview": "Fighting to save her brother from a life of addiction on Los Angeles' Skid Row, an overlooked singing prodigy embarks on an unlikely journey with the son of a famed music manager.", "poster_path": "/7mxhUUoNkcA5eQdCTwHnWldriSl.jpg", "popularity": 2.616}, {"id": 8920, "video": false, "vote_count": 2140, "vote_average": 5.4, "title": "Garfield", "release_date": "2004-06-10", "original_language": "en", "original_title": "Garfield", "genre_ids": [16, 35, 10751], "backdrop_path": "/jyoUcqTM6i0YpkylIh873SbKBvV.jpg", "adult": false, "overview": "Garfield, the fat, lazy, lasagna lover, has everything a cat could want. But when Jon, in an effort to impress the Liz - the vet and an old high-school crush - adopts a dog named Odie and brings him home, Garfield gets the one thing he doesn't want. Competition.", "poster_path": "/8vOIo345aA7vr5T3LYnsZ8lNO4I.jpg", "popularity": 18.968}, {"id": 2976, "video": false, "vote_count": 1691, "vote_average": 6.6, "title": "Hairspray", "release_date": "2007-07-13", "original_language": "en", "original_title": "Hairspray", "genre_ids": [35, 18, 10749], "backdrop_path": "/yafOInYuEuK6FOw1oK40Lggp0TV.jpg", "adult": false, "overview": "Pleasantly plump teenager Tracy Turnblad auditions to be on Baltimore's most popular dance show - The Corny Collins Show - and lands a prime spot. Through her newfound fame, she becomes determined to help her friends and end the racial segregation that has been a staple of the show.", "poster_path": "/ndOpIx4BXpFCRRIxgMoGHxZxlE9.jpg", "popularity": 30.447}, {"adult": false, "backdrop_path": "/bxPw6s61bG5Of19lp1E00n0dDWW.jpg", "genre_ids": [35, 18, 10751, 10402, 10770], "id": 10947, "original_language": "en", "original_title": "High School Musical", "overview": "Troy, the popular captain of the basketball team, and Gabriella, the brainy and beautiful member of the academic club, break all the rules of East High society when they secretly audition for the leads in the school's musical. As they reach for the stars and follow their dreams, everyone learns about acceptance, teamwork, and being yourself.", "poster_path": "/xMRBlTMMKDRJuK4IhwG5idrGHaS.jpg", "release_date": "2006-01-20", "title": "High School Musical", "video": false, "vote_average": 6.5, "vote_count": 2983, "popularity": 14.165}, {"adult": false, "backdrop_path": "/43fnzmOMO5zOUFH3EzyuwSh87IS.jpg", "genre_ids": [18], "id": 45317, "original_language": "en", "original_title": "The Fighter", "overview": "The Fighter, is a drama about boxer \"Irish\" Micky Ward's unlikely road to the world light welterweight title. His Rocky-like rise was shepherded by half-brother Dicky, a boxer-turned-trainer who rebounded in life after nearly being KO'd by drugs and crime.", "poster_path": "/ytGIpdxYyvXwch5QILfquSTMA9f.jpg", "release_date": "2010-12-17", "title": "The Fighter", "video": false, "vote_average": 7.3, "vote_count": 2572, "popularity": 19.636}, {"adult": false, "backdrop_path": "/bRGtZsVj2Qq8r5CCsNYmQUPF4z4.jpg", "genre_ids": [80, 18, 878, 53], "id": 10559, "original_language": "en", "original_title": "Frequency", "overview": "When a rare phenomenon gives police officer John Sullivan the chance to speak to his father, 30 years in the past, he takes the opportunity to prevent his dad's tragic death.  After his actions inadvertently give rise to a series of brutal murders he and his father must find a way to fix the consequences of altering time.", "poster_path": "/n0QAAZmIaPPIShVkk8eiKwfGV9.jpg", "release_date": "2000-04-28", "title": "Frequency", "video": false, "vote_average": 7.1, "vote_count": 897, "popularity": 14.026}, {"id": 6575, "video": false, "vote_count": 364, "vote_average": 6.6, "title": "Walk Hard: The Dewey Cox Story", "release_date": "2007-12-21", "original_language": "en", "original_title": "Walk Hard: The Dewey Cox Story", "genre_ids": [35, 18, 10402], "backdrop_path": "/y7EElGAn1tFE0Npmls7uvg4HPVj.jpg", "adult": false, "overview": "Following a childhood tragedy, Dewey Cox follows a long and winding road to music stardom. Dewey perseveres through changing musical styles, an addiction to nearly every drug known and bouts of uncontrollable rage.", "poster_path": "/2sc7qoLTqZC0nB2k1crwuVoKP6H.jpg", "popularity": 15.669}], "total_pages": 206, "total_results": 4107}, "recommendations": {"page": 1, "results": [], "total_pages": 1, "total_results": 0}, "credits": {"cast": [], "crew": [{"credit_id": "542202ab0e0a263b740000d4", "department": "Directing", "gender": 0, "id": 931248, "job": "Director", "name": "Abner Benaim", "profile_path": "/pXS1sN51Mb77LjFhBxqfoS0ZFQG.jpg"}, {"credit_id": "56f73fe8c3a3686a5e0056e3", "department": "Writing", "gender": 0, "id": 931248, "job": "Writer", "name": "Abner Benaim", "profile_path": "/pXS1sN51Mb77LjFhBxqfoS0ZFQG.jpg"}]}}