{"adult": false, "backdrop_path": "/wbB6DB5tKz21ZMxlKjdInKfvIg1.jpg", "belongs_to_collection": null, "budget": 0, "genres": [{"id": 53, "name": "Thriller"}, {"id": 28, "name": "Action"}], "homepage": null, "id": 294736, "imdb_id": "tt3207160", "original_language": "en", "original_title": "Misfire", "overview": "WKBA kickboxing champion and hard-action star Gary Daniels (The Expendables) takes to the screen in a border-crossing, barrier smashing all-action explosion that pits his will to live against the merciless murder machine of a Mexican drug cartel.  Hardened DEA agent Cole finds himself sucked into the deadly underworld of Tijuanna in search of his ex-wife, a journalist who may have gone too far in search of a story. She\u2019s been abducted by a charismatic Cartel boss who publicly aspires to public office while privately slaughtering anyone who gets in his way. Now, in a place where two cultures clash and life is cheaper than bullets, Cole is about to discover the cost of shooting to kill when you Misfire.", "popularity": 6.056, "poster_path": "/4xjRZsv4URXgabmPxPPaTLNEZJw.jpg", "production_companies": [{"id": 44973, "logo_path": null, "name": "Badhouse Studios Mexico", "origin_country": ""}], "production_countries": [{"iso_3166_1": "US", "name": "United States of America"}], "release_date": "2014-10-06", "revenue": 0, "runtime": 85, "spoken_languages": [{"iso_639_1": "en", "name": "English"}], "status": "Released", "tagline": "When action is the only answer.", "title": "Misfire", "video": false, "vote_average": 3.7, "vote_count": 16, "keywords": {"keywords": [{"id": 6149, "name": "police"}]}, "similar": {"page": 1, "results": [{"adult": false, "backdrop_path": "/t3OZS8yMs0NL4YgWWc04eXHTn1X.jpg", "genre_ids": [28, 80, 53], "id": 984, "original_language": "en", "original_title": "Dirty Harry", "overview": "When a madman dubbed 'Scorpio' terrorizes San Francisco, hard-nosed cop, Harry Callahan \u2013 famous for his take-no-prisoners approach to law enforcement \u2013 is tasked with hunting down the psychopath. Harry eventually collars Scorpio in the process of rescuing a kidnap victim, only to see him walk on technicalities. Now, the maverick detective is determined to nail the maniac himself.", "poster_path": "/2TADKc4GMMPdMrLXj0xJVgTvZJM.jpg", "release_date": "1971-12-21", "title": "Dirty Harry", "video": false, "vote_average": 7.5, "vote_count": 1173, "popularity": 18.839}, {"id": 4771, "video": false, "vote_count": 2134, "vote_average": 7.3, "title": "Gone Baby Gone", "release_date": "2007-09-18", "original_language": "en", "original_title": "Gone Baby Gone", "genre_ids": [80, 18, 9648], "backdrop_path": "/sogh5NXPbKFajjYKBlfIBfCWgbq.jpg", "adult": false, "overview": "When 4 year old Amanda McCready disappears from her home and the police make little headway in solving the case, the girl's aunt, Beatrice McCready hires two private detectives, Patrick Kenzie and Angie Gennaro. The detectives freely admit that they have little experience with this type of case, but the family wants them for two reasons - they're not cops and they know the tough neighborhood in which they all live. As the case progresses, Kenzie and Gennaro face drug dealers, gangs and pedophiles. When they are about to solve the case, they are faced with a moral dilemma that tears them apart.", "poster_path": "/dXXMPxGiRegd7NNCtE5uchAKRAG.jpg", "popularity": 16.498}, {"id": 15069, "video": false, "vote_count": 75, "vote_average": 5.4, "title": "W\u0394Z", "release_date": "2007-05-19", "original_language": "en", "original_title": "W\u0394Z", "genre_ids": [80, 18, 27, 53], "backdrop_path": "/nVwdXjnbfulc6cymFgOQJctpspr.jpg", "adult": false, "overview": "There is something horribly wrong with the bodies found in the dark city streets. Some are mutilated while others have the Price equation (w\u0394z = Cov (w,z) = \u03b2wzVz) carved into their flesh. Detective Eddie Argo and his new partner Helen Westcott unearth the meaning of the odd equation and realise each victim is being offered a gruesome choice: kill your loved ones, or be killed. Before long it becomes clear that the perpetrator has suffered a similar fate and is now coping by seeking a way to solve this philosophical dilemma.", "poster_path": "/8lPZ59iQRqUELprKuB0myy7u6Zm.jpg", "popularity": 7.935}, {"adult": false, "backdrop_path": "/uUYCUbgI5VxsUflTMI4Y9L2Y6vb.jpg", "genre_ids": [80, 18, 53], "id": 11423, "original_language": "ko", "original_title": "\uc0b4\uc778\uc758 \ucd94\uc5b5", "overview": "1986 Gyunggi Province. The body of a young woman is found brutally raped and murdered. Two months later, a series of rapes and murders commences under similar circumstances. And in a country that had never known such crimes, the dark whispers about a serial murderer grow louder. A special task force is set up in the area, with two local detectives Park Doo-Man and Jo Young-Goo joined by a detective from Seoul who requested to be assigned to the case.", "poster_path": "/gawnVe9cFowdoDLo9Pok12NTw39.jpg", "release_date": "2003-05-02", "title": "Memories of Murder", "video": false, "vote_average": 8.1, "vote_count": 1093, "popularity": 13.452}, {"adult": false, "backdrop_path": "/pA64Ov7lDpwXBu33yq0KpmAOYJL.jpg", "genre_ids": [27, 53], "id": 357096, "original_language": "en", "original_title": "I Spit on Your Grave III: Vengeance is Mine", "overview": "Jennifer Hills is still tormented by the brutal sexual assault she endured years ago. She\u2019s changed identities and cities, reluctantly joining a support group where she begins to piece together a new life. But when her new friend\u2019s murderer goes free and the tales of serial rapists haunt her, Jennifer will hunt down the men responsible and do what the system won\u2019t \u2013 make them pay for their crimes in the most horrific ways imaginable. Only this time, no jury may be able to save her.", "poster_path": "/6SnOlgrUoC5jqmgcYIM5lde5zYq.jpg", "release_date": "2015-10-01", "title": "I Spit on Your Grave III: Vengeance is Mine", "video": false, "vote_average": 5.3, "vote_count": 437, "popularity": 20.815}, {"adult": false, "backdrop_path": "/iNuvbrHGNtrUwlm48u4KnQhhMKp.jpg", "genre_ids": [80, 18, 53], "id": 26390, "original_language": "en", "original_title": "Brooklyn's Finest", "overview": "Enforcing the law within the notoriously rough Brownsville section of the city and especially within the Van Dyke housing projects is the NYPD's sixty-fifth precinct. Three police officers struggle with the sometimes fine line between right and wrong.", "poster_path": "/jKSBk0LtZgXxG56uvwiAtYf6ttF.jpg", "release_date": "2009-01-16", "title": "Brooklyn's Finest", "video": false, "vote_average": 6.4, "vote_count": 500, "popularity": 11.822}, {"adult": false, "backdrop_path": "/dFyEwLUOeFolYsySpXIfGkhteiM.jpg", "genre_ids": [18, 35, 10752, 80, 53], "id": 9104, "original_language": "en", "original_title": "Buffalo Soldiers", "overview": "Set just before the fall of the Berlin Wall in 1989, Sgt. Ray Elwood is an American soldier stationed at a German army camp. A soldier because a judge gave him a choice between the army and jail, Ray spends much of his free time cooking cocaine for the MPs. When a soldier dies and a toxicology screen shows an alarming level of illegal narcotics, someone is sent in to investigate.", "poster_path": "/53vlXW4mVcSc9faIU5GonNuZtRZ.jpg", "release_date": "2001-09-08", "title": "Buffalo Soldiers", "video": false, "vote_average": 6.4, "vote_count": 150, "popularity": 10.117}, {"id": 75780, "video": false, "vote_count": 4451, "vote_average": 6.4, "title": "Jack Reacher", "release_date": "2012-12-20", "original_language": "en", "original_title": "Jack Reacher", "genre_ids": [28, 80, 18, 53], "backdrop_path": "/ezXodpP429qK0Av89pVNlaXWJkQ.jpg", "adult": false, "overview": "When a gunman takes five lives with six shots, all evidence points to the suspect in custody. On interrogation, the suspect offers up a single note: \"Get Jack Reacher!\" So begins an extraordinary chase for the truth, pitting Jack Reacher against an unexpected enemy, with a skill for violence and a secret to keep.", "poster_path": "/mt0ELw83HIRgaKaDzhsDcIi0RnW.jpg", "popularity": 15.945}, {"adult": false, "backdrop_path": "/7RRuRcGuWkZGuRyYugfXn0Fgrrr.jpg", "genre_ids": [28, 80, 18, 53], "id": 949, "original_language": "en", "original_title": "Heat", "overview": "Obsessive master thief, Neil McCauley leads a top-notch crew on various daring heists throughout Los Angeles while determined detective, Vincent Hanna pursues him without rest. Each man recognizes and respects the ability and the dedication of the other even though they are aware their cat-and-mouse game may end in violence.", "poster_path": "/6pmLVffM9jEYK7VqDJqPblMxfEY.jpg", "release_date": "1995-12-15", "title": "Heat", "video": false, "vote_average": 7.8, "vote_count": 3615, "popularity": 21.973}, {"adult": false, "backdrop_path": "/aJCEQFFXNcfg5YneJzTG15qzxF7.jpg", "genre_ids": [28, 53], "id": 1572, "original_language": "en", "original_title": "Die Hard: With a Vengeance", "overview": "New York detective John McClane is back and kicking bad-guy butt in the third installment of this action-packed series, which finds him teaming with civilian Zeus Carver to prevent the loss of innocent lives. McClane thought he'd seen it all, until a genius named Simon engages McClane, his new \"partner\" -- and his beloved city -- in a deadly game that demands their concentration.", "poster_path": "/ivpXGcsPZglyYrN65THWSD7JM3q.jpg", "release_date": "1995-05-19", "title": "Die Hard: With a Vengeance", "video": false, "vote_average": 7.1, "vote_count": 3603, "popularity": 27.341}, {"adult": false, "backdrop_path": "/pyopmpNMW3mTBz0ZqInyGYDEgb6.jpg", "genre_ids": [18, 53], "id": 11062, "original_language": "en", "original_title": "City Hall", "overview": "The accidental shooting of a boy in New York leads to an investigation by the Deputy Mayor, and unexpectedly far-reaching consequences.", "poster_path": "/ttdjD9NpxXsTJidPT3o1Gk0oTkG.jpg", "release_date": "1996-02-16", "title": "City Hall", "video": false, "vote_average": 6.1, "vote_count": 123, "popularity": 8.487}, {"adult": false, "backdrop_path": "/g2pM1ae0qT0KB9OZ06JYeqL8Ku5.jpg", "genre_ids": [53, 28, 80], "id": 26196, "original_language": "en", "original_title": "Cleopatra Jones", "overview": "Cleopatra Jones is assigned to crack down on drug trafficking in the United States and abroad. After she burns a Turkish poppy field, the notorious drug lord Mommy is furious at the loss of her supply and vows to destroy her.", "poster_path": "/7eeQx8PJAp5GolJriwU5cZJxeDG.jpg", "release_date": "1973-07-13", "title": "Cleopatra Jones", "video": false, "vote_average": 5.8, "vote_count": 33, "popularity": 4.903}, {"adult": false, "backdrop_path": "/v761yOHKO3p6Yr7LDCjud6tUL5G.jpg", "genre_ids": [28, 80, 53], "id": 10651, "original_language": "en", "original_title": "The Dead Pool", "overview": "Dirty Harry Callahan returns for his final film adventure. Together with his partner Al Quan, he must investigate the systematic murder of actors and musicians. By the time Harry learns that the murders are a part of a sick game to predict the deaths of celebrities before they happen, it may be too late...", "poster_path": "/9ZUSqox9lIxN4xaYBac2QXMFcZj.jpg", "release_date": "1988-07-12", "title": "The Dead Pool", "video": false, "vote_average": 6.4, "vote_count": 389, "popularity": 10.626}, {"id": 37645, "video": false, "vote_count": 575, "vote_average": 6.5, "title": "22 Bullets", "release_date": "2010-03-23", "original_language": "fr", "original_title": "L'Immortel", "genre_ids": [28, 80, 53], "backdrop_path": "/mU8zfCOTbahNGH0ZBTCuNdX16gj.jpg", "adult": false, "overview": "Charly Mattei\u0308 has turned his back on his life as an outlaw. For the last three years, he's led a peaceful life devoting himself to his wife and two children. Then, one winter morning, he's left for dead in the parking garage in Marseille's Old Port, with 22 bullets in his body. Against all the odds, he doesn't die...", "poster_path": "/wTYZjPq4YA2wC99MdHZTFQuxFpd.jpg", "popularity": 12.785}, {"id": 8090, "video": false, "vote_count": 448, "vote_average": 6.1, "title": "Untraceable", "release_date": "2008-01-22", "original_language": "en", "original_title": "Untraceable", "genre_ids": [9648, 53], "backdrop_path": "/eXuIPt9I1xuaVddlgzEQRC2EMnJ.jpg", "adult": false, "overview": "Special Agent Jennifer Marsh (Diane Lane) works in an elite division of the FBI dedicated to fighting cybercrime. She thinks she has seen it all, until a particularly sadistic criminal arises on the Internet. This tech-savvy killer posts live feeds of his crimes on his website; the more hits the site gets, the faster the victim dies. Marsh and her team must find the elusive killer before time runs out.", "poster_path": "/ySUwDRDEn01lKIMPQorpFCMLWqE.jpg", "popularity": 14.431}, {"adult": false, "backdrop_path": "/ho7jLHVAwI4W3qWHcsLmFyRWsKl.jpg", "genre_ids": [80, 18, 53], "id": 58625, "original_language": "en", "original_title": "Street Kings 2: Motor City", "overview": "Ray Liotta (Goodfellas) delivers an intense, electrifying performance in this explosive follow-up to the gritty urban crime thriller Street Kings. Liotta plays Detroit detective Marty Kingston, the leader of an undercover narcotics team, whose members are being systematically murdered one by one. To solve the brutal killings, Kingston joins forces with a cocky, young homicide detective. But neither of them is prepared for the shocking corruption their investigation will uncover \u2014 stunning secrets that will set both men on a violent collision course with betrayal and vengeance.", "poster_path": "/svVKzBrVQSvu8Wgut5xrUocwlKm.jpg", "release_date": "2011-07-15", "title": "Street Kings 2: Motor City", "video": false, "vote_average": 4.6, "vote_count": 39, "popularity": 5.749}, {"adult": false, "backdrop_path": "/xBhRhY8KimSrPx6AMJXigpzlGQ2.jpg", "genre_ids": [28, 35, 80], "id": 96, "original_language": "en", "original_title": "Beverly Hills Cop II", "overview": "Axel heads for the land of sunshine and palm trees to find out who shot police Captain Andrew Bogomil. Thanks to a couple of old friends, Axel's investigation uncovers a series of robberies masterminded by a heartless weapons kingpin\u2014and the chase is on.", "poster_path": "/2y1z1baxKT0coTTRlnkI6McnR9f.jpg", "release_date": "1987-05-18", "title": "Beverly Hills Cop II", "video": false, "vote_average": 6.4, "vote_count": 1235, "popularity": 13.336}, {"id": 193893, "video": false, "vote_count": 1816, "vote_average": 6.3, "title": "Let's Be Cops", "release_date": "2014-08-13", "original_language": "en", "original_title": "Let's Be Cops", "genre_ids": [35], "backdrop_path": "/43GrPpAeBUOvOCZ8L1A3MLuDnkc.jpg", "adult": false, "overview": "It's the ultimate buddy cop movie except for one thing: they're not cops.  When two struggling pals dress as police officers for a costume party, they become neighborhood sensations.  But when these newly-minted \u201cheroes\u201d get tangled in a real life web of mobsters and dirty detectives, they must put their fake badges on the line.", "poster_path": "/ayYibwWAA9NxJPaD9GSybPShtvL.jpg", "popularity": 21.654}, {"adult": false, "backdrop_path": "/ltq1i8ienPm7OSdOXl3o8ROgmKc.jpg", "genre_ids": [28, 80, 18], "id": 2142, "original_language": "en", "original_title": "Cop Land", "overview": "Freddy Heflin is the sheriff of a place everyone calls \u201cCop Land\u201d \u2014 a small and seemingly peaceful town populated by the big city police officers he\u2019s long admired. Yet something ugly is taking place behind the town\u2019s peaceful facade. And when Freddy uncovers a massive, deadly conspiracy among these local residents, he is forced to take action and make a dangerous choice between protecting his idols and upholding the law.", "poster_path": "/th2UDVewgUAfIXFUaWGWWBxCM91.jpg", "release_date": "1997-08-15", "title": "Cop Land", "video": false, "vote_average": 6.7, "vote_count": 757, "popularity": 14.45}, {"id": 1266, "video": false, "vote_count": 729, "vote_average": 6.5, "title": "Street Kings", "release_date": "2008-04-10", "original_language": "en", "original_title": "Street Kings", "genre_ids": [28, 80, 18, 53], "backdrop_path": "/vQL3dus5e8XtpAiJKFcI8YiITlV.jpg", "adult": false, "overview": "Tom Ludlow is a disillusioned L.A. Police Officer, rarely playing by the rules and haunted by the death of his wife. When evidence implicates him in the execution of a fellow officer, he is forced to go up against the cop culture he's been a part of his entire career, ultimately leading him to question the loyalties of everyone around him.", "poster_path": "/2h2mThLae2QZLprtovKXRBgMM1E.jpg", "popularity": 15.229}], "total_pages": 362, "total_results": 7227}, "recommendations": {"page": 1, "results": [{"adult": false, "backdrop_path": "/muTRHIDuuFUCRdYFpmqI4wtwJaZ.jpg", "genre_ids": [80, 53], "id": 326057, "original_language": "en", "original_title": "Assassin", "overview": "Ruthless killer for hire breaks the rules of his profession and falls for a beautiful young woman. Discovering the notorious gangland brothers had hired him to kill her father, his world breaks down and he must turn against his criminal employers and their gang to save the woman he loves.", "poster_path": "/3WxpsjI6KoAMEZTs0u2AQkmdiOF.jpg", "release_date": "2015-03-09", "title": "Assassin", "video": false, "vote_average": 4.7, "vote_count": 16, "popularity": 4.108}, {"adult": false, "backdrop_path": "/dKHUTvKvnBh5yP067EjGCz3DqjN.jpg", "genre_ids": [28], "id": 313179, "original_language": "en", "original_title": "American Justice", "overview": "When the reckless actions of an out-of-control LAPD officer get his partner killed in a deadly hostage situation, he gets suspended from the police force and heads to Mexico to face off against corrupt cops.", "poster_path": "/kTwLYt3h6MH8ynwt9wJEbQM9fag.jpg", "release_date": "2015-06-16", "title": "American Justice", "video": false, "vote_average": 4.9, "vote_count": 8, "popularity": 4.773}, {"adult": false, "backdrop_path": "/pBdurT6N9G450CbzWfCTcshwKRC.jpg", "genre_ids": [53, 28], "id": 288818, "original_language": "en", "original_title": "Beyond Justice", "overview": "A young criminal defense attorney struggles with a homicide case that is not as cut and dry as it appears while battling a drinking habit. The story goes beyond the lives of those directly related to the case and shines a much needed spotlight on the horrific world of human trafficking in the United States.", "poster_path": "/a5Tb3e7X0kGrfdHz8Nv8pOOA81C.jpg", "release_date": "2014-12-31", "title": "Throwdown", "video": false, "vote_average": 3.2, "vote_count": 8, "popularity": 3.83}, {"id": 352978, "video": false, "vote_count": 20, "vote_average": 5.1, "title": "Chain of Command", "release_date": "2015-08-30", "original_language": "en", "original_title": "Chain of Command", "genre_ids": [28, 12, 53], "backdrop_path": "/zghYzW2QhoHzpJGInQCSIbED8X3.jpg", "adult": false, "overview": "After finding his brother murdered after returning from duty, Webster searches for the perpetrators, but discovers a conspiracy that cuts deep inside the U.S. government.", "poster_path": "/hNGCQg37UR1drSUGUXblLMOF8RJ.jpg", "popularity": 5.046}, {"id": 333545, "video": false, "vote_count": 16, "vote_average": 3.2, "title": "Road Wars", "release_date": "2015-05-05", "original_language": "en", "original_title": "Road Wars", "genre_ids": [28, 878], "backdrop_path": "/pnm0dnlJ3v9z8m35qxzMx2pQLyI.jpg", "adult": false, "overview": "After the earth\u2019s water supply is depleted, the survivors form roving road gangs, armed to the teeth and desperate to find and protect water supplies. But when a new breed of blood-drinking humans emerges, the survivors must contend with a whole new threat to their existence.", "poster_path": "/n0gbMzfMSWRg9Mja8J3XAxc1vUC.jpg", "popularity": 4.504}, {"id": 363805, "video": false, "vote_count": 9, "vote_average": 4.1, "title": "Bikini Model Academy", "release_date": "2015-09-01", "original_language": "en", "original_title": "Bikini Model Academy", "genre_ids": [35], "backdrop_path": "/nzk1pdWrlL45r2O2QJcSvR62dFd.jpg", "adult": false, "overview": "When T. J. and Benji, two California twenty-something best buddies, lose their girlfriends, they start a home grown bikini modeling academy to make money and meet new girls. With a little help from T.J.'s Uncle Seymour (Gary Busey), the guys begin recruiting pretty girls, until a rival modeling school owned by their old grade school enemy tries to shut them down.", "poster_path": "/ybWEAYHNiIgpQc6dFX1kvsLplVk.jpg", "popularity": 6.675}], "total_pages": 1, "total_results": 6}, "credits": {"cast": [{"cast_id": 0, "character": "Cole", "credit_id": "5422eeb1c3a36808800019f4", "gender": 2, "id": 68559, "name": "Gary Daniels", "order": 1, "profile_path": "/qLzJNzU1mjkywkDSwUZ3xmqGdcu.jpg"}, {"cast_id": 1, "character": "Gracie", "credit_id": "5422eecac3a368088300192f", "gender": 1, "id": 1367285, "name": "Vannessa Vasquez", "order": 2, "profile_path": "/j3oYm2MjH6qQQaWh1M084nrvVVu.jpg"}, {"cast_id": 2, "character": "Johnny", "credit_id": "5422eedac3a3680872001ee8", "gender": 0, "id": 178009, "name": "Michael Greco", "order": 3, "profile_path": "/Aemvnkj1HGRfgYPZhr3C3HZXLV4.jpg"}, {"cast_id": 3, "character": "Raul", "credit_id": "5422eee80e0a263b810019e9", "gender": 2, "id": 1043808, "name": "Luis Gatica", "order": 4, "profile_path": "/hsZxglnJViHNf270EzFYyMFfohD.jpg"}, {"cast_id": 4, "character": "Fitz", "credit_id": "5422ef05c3a368087a0019b3", "gender": 0, "id": 1367286, "name": "Geoffrey Ross", "order": 5, "profile_path": "/3VIT1Wh88c0IJ00fOA0aOdcprDG.jpg"}, {"cast_id": 5, "character": "Sarah", "credit_id": "5422ef1ec3a368086e0018ed", "gender": 0, "id": 1367287, "name": "Patricia Peinado Cruz", "order": 6, "profile_path": "/t5feOnJqmRzhSAFumUvr940Fs1o.jpg"}, {"cast_id": 9, "character": "Javier", "credit_id": "580755cec3a3686eeb001fec", "gender": 2, "id": 1117232, "name": "David Fernandez Jr.", "order": 7, "profile_path": "/eJvgc6jgVOePGvYbEyI1ZUy7KdG.jpg"}, {"cast_id": 10, "character": "Cesar Montenegro (as Fabian Lopez)", "credit_id": "580756469251415bbe013a33", "gender": 2, "id": 1696776, "name": "Fabi\u00e1n L\u00f3pez", "order": 8, "profile_path": null}, {"cast_id": 11, "character": "Dale", "credit_id": "580756dfc3a3686f14001f5c", "gender": 0, "id": 1419130, "name": "Justin Nesbitt", "order": 9, "profile_path": "/6xkISBqCGVzFy7nlHl0ZV6cEsJX.jpg"}, {"cast_id": 12, "character": "Weyland", "credit_id": "5807572cc3a3684f1a013401", "gender": 2, "id": 1001733, "name": "Anthony J. Rickert-Epstein", "order": 10, "profile_path": "/3f6qJpDohVfEbYB5L4JZurWb35G.jpg"}], "crew": [{"credit_id": "5422ef360e0a263b71001aaa", "department": "Directing", "gender": 0, "id": 115091, "job": "Director", "name": "R. Ellis Frazier", "profile_path": null}, {"credit_id": "57c3828e925141537f001ac2", "department": "Writing", "gender": 0, "id": 115091, "job": "Writer", "name": "R. Ellis Frazier", "profile_path": null}, {"credit_id": "57c38272c3a3683274001af1", "department": "Writing", "gender": 0, "id": 1419129, "job": "Writer", "name": "Benjamin Budd", "profile_path": "/30GtMel1wyEVJho2CtFXlB6ZhJ6.jpg"}]}}