{"adult": false, "backdrop_path": "/A6UocRLrfS9BDHFjZeVuYCUv0V5.jpg", "belongs_to_collection": null, "budget": 0, "genres": [{"id": 27, "name": "Horror"}, {"id": 53, "name": "Thriller"}], "homepage": null, "id": 295294, "imdb_id": "tt0108360", "original_language": "en", "original_title": "Tomcat: Dangerous Desires", "overview": "Jacki, a scientist involved in genetic research, meets Tom, a young modern dancer who is suffering from a degenerative nerve disease. Jacki experiments with using genetic material taken from a cat to cure him, but the cure has side effects, and Tom begins to take on feline characteristics that may turn him into a monster. The situation is further complicated by Tom's attachment to Imogen--and Jacki's growing jealousy as she fears the loss of her patient and lover.", "popularity": 1.246, "poster_path": "/hfuUIjKGxetb38ci9cNohszewa3.jpg", "production_companies": [{"id": 10332, "logo_path": null, "name": "Tomcat Productions", "origin_country": ""}, {"id": 4106, "logo_path": null, "name": "Libra Pictures", "origin_country": ""}, {"id": 24101, "logo_path": null, "name": "Den Pictures Inc.", "origin_country": ""}], "production_countries": [{"iso_3166_1": "US", "name": "United States of America"}, {"iso_3166_1": "CA", "name": "Canada"}], "release_date": "1993-08-11", "revenue": 0, "runtime": 85, "spoken_languages": [{"iso_639_1": "en", "name": "English"}], "status": "Released", "tagline": "", "title": "Tomcat: Dangerous Desires", "video": false, "vote_average": 3.3, "vote_count": 3, "keywords": {"keywords": [{"id": 128, "name": "love triangle"}, {"id": 733, "name": "dancer"}, {"id": 977, "name": "cat"}]}, "similar": {"page": 1, "results": [{"id": 491584, "video": false, "vote_count": 526, "vote_average": 7.4, "title": "Burning", "release_date": "2018-05-17", "original_language": "ko", "original_title": "\ubc84\ub2dd", "genre_ids": [18, 9648, 53], "backdrop_path": "/v6eOq707lwWFIG96Rv9sSR6lnnT.jpg", "adult": false, "overview": "Deliveryman Jongsu is out on a job when he runs into Haemi, a girl who once lived in his neighborhood. She asks if he'd mind looking after her cat while she's away on a trip to Africa. On her return she introduces to Jongsu an enigmatic young man named Ben, who she met during her trip. And one day Ben tells Jongsu about his most unusual hobby...", "poster_path": "/4NScXB4cx4cjN8hBF6Rh8OvAdAc.jpg", "popularity": 15.151}, {"id": 1903, "video": false, "vote_count": 2237, "vote_average": 6.8, "title": "Vanilla Sky", "release_date": "2001-12-10", "original_language": "en", "original_title": "Vanilla Sky", "genre_ids": [18, 14, 878, 53, 10749], "backdrop_path": "/6XwX3HzKhlBUbTy2qZx0THQOu2T.jpg", "adult": false, "overview": "David Aames has it all: wealth, good looks and gorgeous women on his arm. But just as he begins falling for the warmhearted Sofia, his face is horribly disfigured in a car accident. That's just the beginning of his troubles as the lines between illusion and reality, between life and death, are blurred.", "poster_path": "/ujMy9P4VczTW9YSpAM31uqdOMpz.jpg", "popularity": 16.046}, {"id": 15370, "video": false, "vote_count": 790, "vote_average": 7.3, "title": "The Cat Returns", "release_date": "2002-07-19", "original_language": "ja", "original_title": "\u732b\u306e\u6069\u8fd4\u3057", "genre_ids": [12, 16, 18, 14, 10751], "backdrop_path": "/jKoSzpjSKRFhq7LiKe1xtuhRy1m.jpg", "adult": false, "overview": "Haru, a schoolgirl bored by her ordinary routine, saves the life of an unusual cat and suddenly her world is transformed beyond anything she ever imagined. The Cat King rewards her good deed with a flurry of presents, including a very shocking proposal of marriage to his son! Haru embarks on an unexpected journey to the Kingdom of Cats where her eyes are opened to a whole other world.", "poster_path": "/57rS5DXN8YfRHgh609RgCKjKbel.jpg", "popularity": 20.898}, {"id": 4978, "video": false, "vote_count": 762, "vote_average": 6.7, "title": "An American Tail", "release_date": "1986-11-21", "original_language": "en", "original_title": "An American Tail", "genre_ids": [12, 16, 18, 10402, 10751], "backdrop_path": "/bl42TZnTrT1b9bGcE153ZYWZmDw.jpg", "adult": false, "overview": "A young mouse named Fievel and his family decide to migrate to America, a \"land without cats,\" at the turn of the 20th century. But somehow, Fievel ends up in the New World alone and must fend off not only the felines he never thought he'd have to deal with again but also the loneliness of being away from home.", "poster_path": "/glZNfxN4cef0pJeD08xru7ZVWlI.jpg", "popularity": 13.404}, {"adult": false, "backdrop_path": "/bfiybUiH5TEiuk1Znn2cYG4w0YD.jpg", "genre_ids": [14, 10751, 35], "id": 10137, "original_language": "en", "original_title": "Stuart Little", "overview": "The adventures of a heroic and debonair stalwart mouse named Stuart Little with human qualities, who faces some comic misadventures while searching for his lost bird friend and living with a human family as their child.", "poster_path": "/539JU71suy9q4Wd5vvkKQLl5fTC.jpg", "release_date": "1999-01-18", "title": "Stuart Little", "video": false, "vote_average": 6.0, "vote_count": 2569, "popularity": 15.234}, {"id": 25508, "video": false, "vote_count": 228, "vote_average": 7.0, "title": "Cat People", "release_date": "1942-12-05", "original_language": "en", "original_title": "Cat People", "genre_ids": [27], "backdrop_path": "/gDgGv0TGkxrFAYgO3q50Hl6ScxU.jpg", "adult": false, "overview": "Serbian fashion designer Irena Dubrovna and American marine engineer Oliver Reed meet in Central Park, fall in love and marry after a brief courtship; but Irena won't consummate the union for fear that she will turn into a panther compelled to kill her lover, pursuant to a belief harbored by her home village.", "poster_path": "/lQgGh5QLdmlhNABHQcl5bBn5tmk.jpg", "popularity": 10.267}, {"adult": false, "backdrop_path": "/u8GO1SyKB1QBK7RON7eFhrdy9uX.jpg", "genre_ids": [12, 14, 27, 10751], "id": 10166, "original_language": "en", "original_title": "The Witches", "overview": "A young boy named Luke and his grandmother go on vacation only to discover their hotel is hosting an international witch convention, where the Grand High Witch is unveiling her master plan to turn all children into mice. Will Luke fall victim to the witches' plot before he can stop them?", "poster_path": "/d1YohvVtnjeZ21WeRkmRVcPhXgT.jpg", "release_date": "1990-05-25", "title": "The Witches", "video": false, "vote_average": 6.7, "vote_count": 500, "popularity": 9.628}, {"id": 521, "video": false, "vote_count": 1257, "vote_average": 8.0, "title": "Dial M for Murder", "release_date": "1954-05-29", "original_language": "en", "original_title": "Dial M for Murder", "genre_ids": [80, 18, 9648, 53], "backdrop_path": "/jVMlfESb0TJ29w8CUDDofEprMmn.jpg", "adult": false, "overview": "An ex-tennis pro carries out a plot to have his wife murdered after discovering she is having an affair, and assumes she will soon leave him for the other man anyway. When things go wrong, he improvises a new plan\u2014to frame her for murder instead.", "poster_path": "/xrpK1PyckNWmRxU4kZURfaCyboS.jpg", "popularity": 28.336}, {"id": 44214, "video": false, "vote_count": 9192, "vote_average": 7.6, "title": "Black Swan", "release_date": "2010-12-03", "original_language": "en", "original_title": "Black Swan", "genre_ids": [18, 27, 53], "backdrop_path": "/t8jFs6cOl1YVSfXXZivWtEb14tF.jpg", "adult": false, "overview": "A journey through the psyche of a young ballerina whose starring role as the duplicitous swan queen turns out to be a part for which she becomes frighteningly perfect.", "poster_path": "/dQ7uxvsVTspVIsqjfgQj8usJpwX.jpg", "popularity": 24.558}, {"id": 223485, "video": false, "vote_count": 586, "vote_average": 6.6, "title": "Slow West", "release_date": "2015-04-16", "original_language": "en", "original_title": "Slow West", "genre_ids": [28, 18, 53, 37, 10749], "backdrop_path": "/9qF6lhj6X0ImH4iWGZs1uspXJI0.jpg", "adult": false, "overview": "In the Old West, a 17-year-old Scottish boy teams up with a mysterious gunman to find the woman with whom he is infatuated.", "poster_path": "/uZ9dBBn0GaEw0YIBvQd01Io3pho.jpg", "popularity": 10.467}, {"adult": false, "backdrop_path": "/ojsY0XyCSsJvm0n7YTwumQcvBqT.jpg", "genre_ids": [9648, 53], "id": 1586, "original_language": "en", "original_title": "Secret Window", "overview": "Mort Rainey, a writer just emerging from a painful divorce with his ex-wife, is stalked at his remote lake house by a psychotic stranger and would-be scribe who claims Rainey swiped his best story idea. But as Rainey endeavors to prove his innocence, he begins to question his own sanity.", "poster_path": "/f5t7Df50xjniLlE80ty2dYsZBqI.jpg", "release_date": "2004-03-12", "title": "Secret Window", "video": false, "vote_average": 6.5, "vote_count": 2126, "popularity": 19.288}, {"id": 10439, "video": false, "vote_count": 1297, "vote_average": 6.8, "title": "Hocus Pocus", "release_date": "1993-07-16", "original_language": "en", "original_title": "Hocus Pocus", "genre_ids": [35, 14, 27, 10751], "backdrop_path": "/2gNbeYvgUJmANhBxVZ7eo4ojeun.jpg", "adult": false, "overview": "After 300 years of slumber, three sister witches are accidentally resurrected in Salem on Halloween night, and it is up to three kids and their newfound feline friend to put an end to the witches' reign of terror once and for all.", "poster_path": "/4boIuVTbEYv9pynSj99jK5EezfA.jpg", "popularity": 15.602}, {"adult": false, "backdrop_path": "/nlwzLx5WVZPZDwXvexGGfaktts7.jpg", "genre_ids": [878, 53, 10749], "id": 38050, "original_language": "en", "original_title": "The Adjustment Bureau", "overview": "A man glimpses the future Fate has planned for him \u2013 and chooses to fight for his own destiny. Battling the powerful Adjustment Bureau across, under and through the streets of New York, he risks his destined greatness to be with the only woman he's ever loved.", "poster_path": "/g87PqGH9Oo3d3Tbczcfk7ZMAIEk.jpg", "release_date": "2011-03-03", "title": "The Adjustment Bureau", "video": false, "vote_average": 6.7, "vote_count": 2861, "popularity": 15.293}, {"id": 513409, "video": false, "vote_count": 156, "vote_average": 5.8, "title": "Earthquake Bird", "release_date": "2019-11-01", "original_language": "en", "original_title": "Earthquake Bird", "genre_ids": [18, 9648, 53, 10749], "backdrop_path": "/n0Yk3pEix6EvMfcFxpTQKMUtl6V.jpg", "adult": false, "overview": "Tokyo, Japan, 1989. Lucy Fly, a foreigner who works as a translator, begins a passionate relationship with Teiji, a mysterious man obsessed with photography.", "poster_path": "/oyKnosHXQ7kkhlGwqsWOvn4RgKR.jpg", "popularity": 19.478}, {"id": 157433, "video": false, "vote_count": 1620, "vote_average": 5.8, "title": "Pet Sematary", "release_date": "2019-04-04", "original_language": "en", "original_title": "Pet Sematary", "genre_ids": [27, 53], "backdrop_path": "/dpJq6trUDOutSPSLrFdROPmzaVn.jpg", "adult": false, "overview": "Dr. Louis Creed and his wife, Rachel, move from Boston to Ludlow, in rural Maine, with their two young children. Hidden in the woods near the new family home, Ellie, their eldest daughter, discovers a mysterious cemetery where the pets of community members are buried.", "poster_path": "/7SPhr7Qj39vbnfF9O2qHRYaKHAL.jpg", "popularity": 29.687}, {"id": 402, "video": false, "vote_count": 1776, "vote_average": 6.7, "title": "Basic Instinct", "release_date": "1992-03-20", "original_language": "en", "original_title": "Basic Instinct", "genre_ids": [9648, 53], "backdrop_path": "/bKdxJMqvr4wltzAQaieA6CTkaa9.jpg", "adult": false, "overview": "A police detective is in charge of the investigation of a brutal murder, in which a beautiful and seductive woman could be involved.", "poster_path": "/p1DHOfLFZmM567ePKfFNMV4mY92.jpg", "popularity": 23.513}, {"adult": false, "backdrop_path": "/5UhVmv70qTfy7YSf8r87kNXWxjK.jpg", "genre_ids": [18, 53, 9648], "id": 638, "original_language": "en", "original_title": "Lost Highway", "overview": "A tormented jazz musician finds himself lost in an enigmatic story involving murder, surveillance, gangsters, doppelgangers, and an impossible transformation inside a prison cell.", "poster_path": "/z6yhgEzGUJaBBgAxoyggRzwLnVM.jpg", "release_date": "1997-01-15", "title": "Lost Highway", "video": false, "vote_average": 7.6, "vote_count": 1279, "popularity": 17.633}, {"adult": false, "backdrop_path": "/bYbnlh6VXFRtcSX82UMDsBDLB5j.jpg", "genre_ids": [18, 10749], "id": 28468, "original_language": "it", "original_title": "La chiave", "overview": "After twenty years of marriage, art professor Nino Rolfe attempts to break down his wife Teresa's conventional modesty. Noticing her affection for their daughter's fianc\u00e9, Nino instigates her sexual interest in him as well. This sets off a chain of unexpected events and emotional complications, as Nino and his unpredictable fascist daughter find that they both enjoy being jealous.", "poster_path": "/e6g2geNLgFzMbriH6EvSJZD78nx.jpg", "release_date": "1983-10-18", "title": "The Key", "video": false, "vote_average": 5.0, "vote_count": 128, "popularity": 15.363}, {"adult": false, "backdrop_path": "/a8xpxCnvqKyshdrDNFGs6oy4r8N.jpg", "genre_ids": [18, 10749], "id": 1278, "original_language": "en", "original_title": "The Dreamers", "overview": "A young American studying in Paris in 1968 strikes up a friendship with a French brother and sister. Set against the background of the '68 Paris student riots.", "poster_path": "/7ABcfmXQZeCXl5sNrDuLS1URMPN.jpg", "release_date": "2003-09-01", "title": "The Dreamers", "video": false, "vote_average": 7.2, "vote_count": 1671, "popularity": 15.849}, {"id": 38, "video": false, "vote_count": 8445, "vote_average": 8.1, "title": "Eternal Sunshine of the Spotless Mind", "release_date": "2004-03-19", "original_language": "en", "original_title": "Eternal Sunshine of the Spotless Mind", "genre_ids": [18, 878, 10749], "backdrop_path": "/1dXTsaFxHoF9cas08UjAqE8NqOW.jpg", "adult": false, "overview": "Joel Barish, heartbroken that his girlfriend underwent a procedure to erase him from her memory, decides to do the same. However, as he watches his memories of her fade away, he realises that he still loves her, and may be too late to correct his mistake.", "poster_path": "/7y3eYvTsGjxPYDtSnumCLIMDkrV.jpg", "popularity": 22.427}], "total_pages": 73, "total_results": 1459}, "recommendations": {"page": 1, "results": [], "total_pages": 1, "total_results": 0}, "credits": {"cast": [{"cast_id": 0, "character": "Tom", "credit_id": "5426f94f0e0a26557200035a", "gender": 2, "id": 87295, "name": "Richard Grieco", "order": 1, "profile_path": "/lku5ybzKvQvon1GXhu0eXSx8Czc.jpg"}, {"cast_id": 1, "character": "Jackie", "credit_id": "5426f973c3a3680b3700033b", "gender": 1, "id": 10670, "name": "Maryam d'Abo", "order": 2, "profile_path": "/AwcD84CIlQ0HaLRX3AqlmunYzgE.jpg"}, {"cast_id": 2, "character": "Imogen", "credit_id": "572d47bf92514165ec001585", "gender": 1, "id": 131009, "name": "Natalie Radford", "order": 3, "profile_path": "/jS3d15ugm9afAVtIwAIjY3URXJM.jpg"}, {"cast_id": 3, "character": "Dr. Pace", "credit_id": "572d47d49251410d300006e6", "gender": 2, "id": 41746, "name": "Serge Houde", "order": 4, "profile_path": "/ihnfayL0UZZicYeOZMPgpelATi4.jpg"}, {"cast_id": 4, "character": "Dale", "credit_id": "572d47e2c3a3680fdf0016dc", "gender": 2, "id": 1331574, "name": "Sean Orr", "order": 5, "profile_path": "/aA3bXbpxZG6eHHsj2osx9RVqKK5.jpg"}, {"cast_id": 5, "character": "Myron", "credit_id": "572d47eec3a3680fdb0014a3", "gender": 0, "id": 1616261, "name": "David McLeod", "order": 6, "profile_path": null}, {"cast_id": 6, "character": "Fred", "credit_id": "572d47fcc3a3680fe500158e", "gender": 2, "id": 62918, "name": "Ben Ratner", "order": 7, "profile_path": "/sptGVe4KVb63FicsXavsf6h25cT.jpg"}, {"cast_id": 7, "character": "Randi", "credit_id": "572d480bc3a3680fe20015a3", "gender": 1, "id": 64672, "name": "Christine Lippa", "order": 8, "profile_path": "/5QuSh2VTXYFsArOrCStj4NFL4xD.jpg"}, {"cast_id": 8, "character": "Darryl", "credit_id": "572d481792514165f0001544", "gender": 1, "id": 60613, "name": "Brenda Crichlow", "order": 9, "profile_path": "/5mV7wnLRhVS4xKla6DHlatDLLrp.jpg"}, {"cast_id": 9, "character": "Warren", "credit_id": "572d482792514165f3001553", "gender": 0, "id": 1616262, "name": "Cordell Wynne", "order": 10, "profile_path": null}, {"cast_id": 10, "character": "Night Clerk", "credit_id": "572d483792514165f3001559", "gender": 2, "id": 55588, "name": "Roman Podhora", "order": 11, "profile_path": "/bsLXnsfdwKkeQw7Q6vCFb5SD2Wv.jpg"}], "crew": [{"credit_id": "572d486292514165fa0016c9", "department": "Directing", "gender": 0, "id": 1227319, "job": "Director", "name": "Paul Donovan", "profile_path": null}, {"credit_id": "572d487592514165f000155c", "department": "Writing", "gender": 0, "id": 1227319, "job": "Writer", "name": "Paul Donovan", "profile_path": null}]}}