{"adult": false, "backdrop_path": "/kv5apYksPnNxA4OGUVhZUweLDLD.jpg", "belongs_to_collection": null, "budget": 0, "genres": [{"id": 14, "name": "Fantasy"}, {"id": 27, "name": "Horror"}, {"id": 12, "name": "Adventure"}, {"id": 28, "name": "Action"}, {"id": 18, "name": "Drama"}], "homepage": null, "id": 295388, "imdb_id": "tt0134061", "original_language": "en", "original_title": "Roma contro Roma", "overview": "A fantastic yarn about a plot to conquer the world with an army of zombies!", "popularity": 1.499, "poster_path": "/2fCza6J6NlY3XiSnHw59xY3rXtj.jpg", "production_companies": [{"id": 12240, "logo_path": null, "name": "Galatea Film", "origin_country": "IT"}], "production_countries": [{"iso_3166_1": "IT", "name": "Italy"}], "release_date": "1964-02-13", "revenue": 0, "runtime": 98, "spoken_languages": [{"iso_639_1": "en", "name": "English"}, {"iso_639_1": "it", "name": "Italiano"}], "status": "Released", "tagline": "Unconquerable Warriors of the Dead!", "title": "Rome Against Rome", "video": false, "vote_average": 3.0, "vote_count": 1, "keywords": {"keywords": [{"id": 5049, "name": "ancient rome"}, {"id": 12377, "name": "zombie"}]}, "similar": {"page": 1, "results": [{"id": 967, "video": false, "vote_count": 1077, "vote_average": 7.6, "title": "Spartacus", "release_date": "1960-10-06", "original_language": "en", "original_title": "Spartacus", "genre_ids": [28, 12, 18, 36], "backdrop_path": "/aheSIG4h3JNxWeDvdb1NxKzgjaM.jpg", "adult": false, "overview": "The rebellious Thracian Spartacus, born and raised a slave, is sold to Gladiator trainer Batiatus. After weeks of being trained to kill for the arena, Spartacus turns on his owners and leads the other slaves in rebellion. As the rebels move from town to town, their numbers swell as escaped slaves join their ranks. Under the leadership of Spartacus, they make their way to southern Italy, where they will cross the sea and return to their homes.", "poster_path": "/hpICDCTdMIpcqEeNa0k3rcedw2B.jpg", "popularity": 20.688}, {"id": 9564, "video": false, "vote_count": 1051, "vote_average": 6.0, "title": "Asterix & Obelix Take on Caesar", "release_date": "1999-02-01", "original_language": "fr", "original_title": "Ast\u00e9rix & Ob\u00e9lix contre C\u00e9sar", "genre_ids": [12, 35, 14, 10751], "backdrop_path": "/rhAJgyO6lgZKLcXFKiSvxKdDGfq.jpg", "adult": false, "overview": "Set in 50 B.C., Asterix and Obelix are living in a small but well-protected village in Gaul, where a magic potion concocted by Druids turns the townsfolk into mighty soldiers. When Roman troops carve a path through Gaul to reach the English Channel, Caesar and his aide de camp Detritus discover the secret elixir and capture the Druid leader who knows its formula, and Asterix and Obelix are sent off to rescue them.", "poster_path": "/nCYmH6fFFo1ccZFCouyobJhgUGv.jpg", "popularity": 17.593}, {"id": 6479, "video": false, "vote_count": 9817, "vote_average": 7.1, "title": "I Am Legend", "release_date": "2007-12-14", "original_language": "en", "original_title": "I Am Legend", "genre_ids": [28, 18, 27, 878, 53], "backdrop_path": "/u6Qg7TH7Oh1IFWCQSRr4htFFt0A.jpg", "adult": false, "overview": "Robert Neville is a scientist who was unable to stop the spread of the terrible virus that was incurable and man-made. Immune, Neville is now the last human survivor in what is left of New York City and perhaps the world. For three years, Neville has faithfully sent out daily radio messages, desperate to find any other survivors who might be out there. But he is not alone.", "poster_path": "/9skUuHTFtsJznuFPwmB17ZZvq09.jpg", "popularity": 29.22}, {"id": 72190, "video": false, "vote_count": 9917, "vote_average": 6.7, "title": "World War Z", "release_date": "2013-06-20", "original_language": "en", "original_title": "World War Z", "genre_ids": [28, 18, 27, 878, 53], "backdrop_path": "/xMOQVYLeIKBXenJ9KMeasj7S64y.jpg", "adult": false, "overview": "Life for former United Nations investigator Gerry Lane and his family seems content. Suddenly, the world is plagued by a mysterious infection turning whole human populations into rampaging mindless zombies. After barely escaping the chaos, Lane is persuaded to go on a mission to investigate this disease. What follows is a perilous trek around the world where Lane must brave horrific dangers and long odds to find answers before human civilization falls.", "poster_path": "/Ha5t0J21eyiq6Az1EXzx0iwsGH.jpg", "popularity": 27.681}, {"adult": false, "backdrop_path": "/5vZw7ltCKI0JiOYTtRxaIC3DX0e.jpg", "genre_ids": [28, 18, 12], "id": 98, "original_language": "en", "original_title": "Gladiator", "overview": "In the year 180, the death of emperor Marcus Aurelius throws the Roman Empire into chaos.  Maximus is one of the Roman army's most capable and trusted generals and a key advisor to the emperor.  As Marcus' devious son Commodus ascends to the throne, Maximus is set to be executed.  He escapes, but is captured by slave traders.  Renamed Spaniard and forced to become a gladiator, Maximus must battle to the death with other men for the amusement of paying audiences.", "poster_path": "/6WBIzCgmDCYrqh64yDREGeDk9d3.jpg", "release_date": "2000-05-01", "title": "Gladiator", "video": false, "vote_average": 8.1, "vote_count": 10798, "popularity": 31.354}, {"id": 23759, "video": false, "vote_count": 759, "vote_average": 6.1, "title": "Centurion", "release_date": "2010-02-15", "original_language": "en", "original_title": "Centurion", "genre_ids": [28, 12, 18], "backdrop_path": "/izb3iimHxLAbs439DnLHNpJsyps.jpg", "adult": false, "overview": "Britain, A.D. 117. Quintus Dias, the sole survivor of a Pictish raid on a Roman frontier fort, marches north with General Virilus' legendary Ninth Legion, under orders to wipe the Picts from the face of the Earth and destroy their leader, Gorlacon.", "poster_path": "/lwQs5DNvy9RHTB0RWEScgZqPPiS.jpg", "popularity": 16.152}, {"adult": false, "backdrop_path": "/5RPXs9g0sZ9Woo4pNLxdXdge7tc.jpg", "genre_ids": [14, 27, 35], "id": 766, "original_language": "en", "original_title": "Army of Darkness", "overview": "A man is accidentally transported to 1300 A.D., where he must battle an army of the dead and retrieve the Necronomicon so he can return home.", "poster_path": "/2eZKDIwLNnySbwqQtAaUz0kYDIL.jpg", "release_date": "1992-10-09", "title": "Army of Darkness", "video": false, "vote_average": 7.3, "vote_count": 1664, "popularity": 18.122}, {"id": 338967, "video": false, "vote_count": 1153, "vote_average": 7.0, "title": "Zombieland: Double Tap", "release_date": "2019-10-09", "original_language": "en", "original_title": "Zombieland: Double Tap", "genre_ids": [28, 35, 27], "backdrop_path": "/3ghImmHdp4RnC3UkL6hpLayclnb.jpg", "adult": false, "overview": "Columbus, Tallahassee, Wichita, and Little Rock move to the American heartland as they face off against evolved zombies, fellow survivors, and the growing pains of the snarky makeshift family.", "poster_path": "/dtRbVsUb5O12WWO54SRpiMtHKC0.jpg", "popularity": 75.447}, {"id": 485415, "video": false, "vote_count": 276, "vote_average": 4.1, "title": "Day of the Dead: Bloodline", "release_date": "2018-01-04", "original_language": "en", "original_title": "Day of the Dead: Bloodline", "genre_ids": [28, 27], "backdrop_path": "/1CKntz5l7oblq2RYligHHvY64sh.jpg", "adult": false, "overview": "In a world overrun by zombies, military personnel and survivalists live in an underground bunker while they seek a cure.", "poster_path": "/3jM4C1wJxHLWlF4tcSyyv6fnJPR.jpg", "popularity": 16.408}, {"id": 10925, "video": false, "vote_count": 551, "vote_average": 7.3, "title": "The Return of the Living Dead", "release_date": "1985-04-25", "original_language": "en", "original_title": "The Return of the Living Dead", "genre_ids": [35, 27], "backdrop_path": "/jA34vdJCxOZUoi4khkfhq1pX3WG.jpg", "adult": false, "overview": "When a bumbling pair of employees at a medical supply warehouse accidentally release a deadly gas into the air, the vapors cause the dead to re-animate as they go on a rampage seeking their favorite food: brains!", "poster_path": "/1vydUitzC8W8W5oNevEArCltydJ.jpg", "popularity": 13.326}, {"id": 11163, "video": false, "vote_count": 135, "vote_average": 6.8, "title": "Fellini's Satyricon", "release_date": "1969-09-18", "original_language": "it", "original_title": "Fellini's Satyricon", "genre_ids": [18, 14], "backdrop_path": "/j7kntdQ8QJqKpcn5AJIV9asx8tU.jpg", "adult": false, "overview": "A series of disjointed mythical tales set in first century Rome.", "poster_path": "/dk4aZLthV1AonOYp4PBD3dI8qih.jpg", "popularity": 19.512}, {"id": 294254, "video": false, "vote_count": 6847, "vote_average": 6.6, "title": "Maze Runner: The Scorch Trials", "release_date": "2015-09-09", "original_language": "en", "original_title": "Maze Runner: The Scorch Trials", "genre_ids": [28, 878, 53], "backdrop_path": "/iapRFMGKvN9tsjqPlN7MIDTCezG.jpg", "adult": false, "overview": "Thomas and his fellow Gladers face their greatest challenge yet: searching for clues about the mysterious and powerful organization known as WCKD. Their journey takes them to the Scorch, a desolate landscape filled with unimaginable obstacles. Teaming up with resistance fighters, the Gladers take on WCKD\u2019s vastly superior forces and uncover its shocking plans for them all.", "poster_path": "/vlTPQANjLYTebzFJM1G4KeON0cb.jpg", "popularity": 24.153}, {"adult": false, "backdrop_path": "/bvbyidkMaBls1LTaIWYY6UmYTaL.jpg", "genre_ids": [28, 878], "id": 336843, "original_language": "en", "original_title": "Maze Runner: The Death Cure", "overview": "Thomas leads his group of escaped Gladers on their final and most dangerous mission yet. To save their friends, they must break into the legendary Last City, a WCKD-controlled labyrinth that may turn out to be the deadliest maze of all. Anyone who makes it out alive will get answers to the questions the Gladers have been asking since they first arrived in the maze.", "poster_path": "/2zYfzA3TBwrMC8tfFbpiTLODde0.jpg", "release_date": "2018-01-10", "title": "Maze Runner: The Death Cure", "video": false, "vote_average": 7.0, "vote_count": 4393, "popularity": 24.242}, {"id": 665, "video": false, "vote_count": 1332, "vote_average": 7.7, "title": "Ben-Hur", "release_date": "1959-12-26", "original_language": "en", "original_title": "Ben-Hur", "genre_ids": [12, 36], "backdrop_path": "/uOQPSUGG3ZHiDg9ecN8irQNZ4T1.jpg", "adult": false, "overview": "Judah Ben-Hur, a Palestinian Jew, is battling the Roman empire at the time of Christ. His actions send him and his family into slavery, but an inspirational encounter with Jesus changes everything. He finally meets his rival in a justly famous chariot race and rescues his suffering family.", "poster_path": "/m4WQ1dBIrEIHZNCoAjdpxwSKWyH.jpg", "popularity": 19.591}, {"id": 747, "video": false, "vote_count": 5110, "vote_average": 7.5, "title": "Shaun of the Dead", "release_date": "2004-04-09", "original_language": "en", "original_title": "Shaun of the Dead", "genre_ids": [35, 27], "backdrop_path": "/50mMiR0R1QclaAODTutwXBrReLJ.jpg", "adult": false, "overview": "Shaun lives a supremely uneventful life, which revolves around his girlfriend, his mother, and, above all, his local pub. This gentle routine is threatened when the dead return to life and make strenuous attempts to snack on ordinary Londoners.", "poster_path": "/2evlcGnsfdFWLb7geNlIjIewc0Q.jpg", "popularity": 25.866}, {"id": 19908, "video": false, "vote_count": 7598, "vote_average": 7.2, "title": "Zombieland", "release_date": "2009-10-07", "original_language": "en", "original_title": "Zombieland", "genre_ids": [35, 27], "backdrop_path": "/lLgLFzSZduH9kBxrk6BvoHc1gg0.jpg", "adult": false, "overview": "Columbus has made a habit of running from what scares him. Tallahassee doesn't have fears. If he did, he'd kick their ever-living ass. In a world overrun by zombies, these two are perfectly evolved survivors. But now, they're about to stare down the most terrifying prospect of all: each other.", "poster_path": "/vUzzDpVrab1BOG3ogxhRGfLN94d.jpg", "popularity": 27.301}, {"adult": false, "backdrop_path": "/nESF8Tw4BYnDy8PUDkF5SLIlzTJ.jpg", "genre_ids": [27, 53, 878], "id": 170, "original_language": "en", "original_title": "28 Days Later", "overview": "Twenty-eight days after a killer virus was accidentally unleashed from a British research facility, a small group of London survivors are caught in a desperate struggle to protect themselves from the infected. Carried by animals and humans, the virus turns those it infects into homicidal maniacs -- and it's absolutely impossible to contain.", "poster_path": "/xaYdxi1PBEAYvqknvAmMPK5Eff3.jpg", "release_date": "2002-10-31", "title": "28 Days Later", "video": false, "vote_average": 7.2, "vote_count": 3665, "popularity": 19.311}, {"id": 8408, "video": false, "vote_count": 568, "vote_average": 7.0, "title": "Day of the Dead", "release_date": "1985-07-19", "original_language": "en", "original_title": "Day of the Dead", "genre_ids": [27, 878], "backdrop_path": "/pWaXoU1aqD2KpMVLt4E9ZmKQXIk.jpg", "adult": false, "overview": "Trapped in a missile silo, a small team of scientists, civilians and trigger-happy soldiers battle desperately to ensure the survival of the human race. However, the tension inside the base is reaching a breaking point, and the zombies are gathering outside.", "poster_path": "/yJ2emwXWwQc6VHW3fO4GZr0hXBt.jpg", "popularity": 9.762}, {"adult": false, "backdrop_path": "/7GR03LqwB7ePPPhaK5BAYNzt3Vm.jpg", "genre_ids": [27, 35, 14, 10402], "id": 461928, "original_language": "en", "original_title": "Anna and the Apocalypse", "overview": "A zombie apocalypse threatens the sleepy town of Little Haven \u2013 at Christmas \u2013 forcing Anna and her friends to fight, slash and sing their way to survival, facing the undead in a desperate race to reach their loved ones. But they soon discover that no one is safe in this new world, and with civilization falling apart around them, the only people they can truly rely on are each other.", "poster_path": "/36HmDXMzeLpTPEhjEbpzI3Kv4Vk.jpg", "release_date": "2018-11-30", "title": "Anna and the Apocalypse", "video": false, "vote_average": 6.2, "vote_count": 104, "popularity": 8.877}, {"adult": false, "backdrop_path": "/eHaGbnX2kukzcYGOpNF3YLPmOG5.jpg", "genre_ids": [27, 35], "id": 16281, "original_language": "en", "original_title": "Creepshow", "overview": "Inspired by the E.C. comics of the 1950s, George A. Romero and Stephen King bring five tales of terror to the screen.", "poster_path": "/hgKeTL416BPzLZntcsD1k7mNFRN.jpg", "release_date": "1982-11-12", "title": "Creepshow", "video": false, "vote_average": 6.8, "vote_count": 458, "popularity": 13.179}], "total_pages": 78, "total_results": 1556}, "recommendations": {"page": 1, "results": [], "total_pages": 1, "total_results": 0}, "credits": {"cast": [{"cast_id": 0, "character": "Aderbad", "credit_id": "54284b7a0e0a265562002cf3", "gender": 2, "id": 116560, "name": "John Drew Barrymore", "order": 1, "profile_path": "/qhpdHxN2aQvpRFLeWQwfgqMgEkY.jpg"}, {"cast_id": 1, "character": "Tullia", "credit_id": "54284b8ac3a3680b2c002b58", "gender": 1, "id": 99455, "name": "Susy Andersen", "order": 2, "profile_path": "/1NZc4xKLp9jfZmvBYAvdoQ57D3J.jpg"}, {"cast_id": 2, "character": "Gaius", "credit_id": "54284b9b0e0a265572002bb1", "gender": 2, "id": 563809, "name": "Ettore Manni", "order": 3, "profile_path": "/cWv2SZfLKriA0QzYrqXjbdVkYmv.jpg"}, {"cast_id": 3, "character": "Rhama", "credit_id": "54284baa0e0a265572002bb7", "gender": 1, "id": 5969, "name": "Ida Galli", "order": 4, "profile_path": "/a5yCifP2lICFnNKKcHYM9airTxg.jpg"}, {"cast_id": 4, "character": "Lutetius", "credit_id": "54284bbec3a3680b2c002b5f", "gender": 2, "id": 99514, "name": "Mino Doro", "order": 5, "profile_path": "/xcfyahck5IWJjbfhNBwSMmIFf5N.jpg"}, {"cast_id": 13, "character": "Sirion", "credit_id": "5d286751be4b3632c49cf6fd", "gender": 2, "id": 85984, "name": "Ivano Staccioli", "order": 6, "profile_path": "/zyjmrHRvcWvRrF5WabFJfW8vZLr.jpg"}, {"cast_id": 14, "character": "Azer, Barbarian Leader", "credit_id": "5d2867a1be4b36756a9ce399", "gender": 2, "id": 45036, "name": "Andrea Checchi", "order": 7, "profile_path": "/3iErNlZjlyRgyMLnBOyoWBkumMP.jpg"}], "crew": [{"credit_id": "54284bd40e0a265566002c61", "department": "Directing", "gender": 0, "id": 50778, "job": "Director", "name": "Giuseppe Vari", "profile_path": null}, {"credit_id": "54284c36c3a3680b1e002c09", "department": "Production", "gender": 2, "id": 30904, "job": "Executive Producer", "name": "Samuel Z. Arkoff", "profile_path": null}, {"credit_id": "54284c480e0a265572002bd1", "department": "Sound", "gender": 0, "id": 50788, "job": "Music", "name": "Roberto Nicolosi", "profile_path": null}, {"credit_id": "54284c580e0a26555f002d96", "department": "Camera", "gender": 0, "id": 29906, "job": "Director of Photography", "name": "G\u00e1bor Pog\u00e1ny", "profile_path": null}, {"credit_id": "5d36ddabe54d5d20b2da999b", "department": "Writing", "gender": 0, "id": 4412, "job": "Story", "name": "Ferruccio De Martino", "profile_path": null}, {"credit_id": "5d36ddccab684974fc84c4d8", "department": "Writing", "gender": 2, "id": 98482, "job": "Story", "name": "Massimo De Rita", "profile_path": null}, {"credit_id": "5d36de09e54d5d20a4daa9b0", "department": "Writing", "gender": 0, "id": 269201, "job": "Screenplay", "name": "Piero Pierotti", "profile_path": null}, {"credit_id": "5d36de2bab684974f584dd53", "department": "Writing", "gender": 0, "id": 1368437, "job": "Screenplay", "name": "Marcello Sartarelli", "profile_path": null}, {"credit_id": "5d36de68e54d5d20b1daac96", "department": "Art", "gender": 2, "id": 91794, "job": "Art Direction", "name": "Giorgio Giovannini", "profile_path": null}, {"credit_id": "5d36de8ee54d5d20a4daab12", "department": "Costume & Make-Up", "gender": 0, "id": 99489, "job": "Costume Design", "name": "Tina Grani", "profile_path": null}, {"credit_id": "5d36debfab684900108527d7", "department": "Costume & Make-Up", "gender": 1, "id": 1046583, "job": "Hairstylist", "name": "Adriana Cassini", "profile_path": null}, {"credit_id": "5d36def7ab6849000f85334b", "department": "Costume & Make-Up", "gender": 0, "id": 2360683, "job": "Hairstylist", "name": "Marcella Favella", "profile_path": null}, {"credit_id": "5d36df1ce54d5d20b1daadfe", "department": "Costume & Make-Up", "gender": 0, "id": 1594766, "job": "Makeup Artist", "name": "Euclide Santoli", "profile_path": null}, {"credit_id": "5d36df5360c51d001481d5b3", "department": "Production", "gender": 0, "id": 99451, "job": "Production Manager", "name": "Paolo Mercuri", "profile_path": null}, {"credit_id": "5d36df86e54d5d0013db12d8", "department": "Directing", "gender": 0, "id": 1625632, "job": "Assistant Director", "name": "Marcello Crescenzi", "profile_path": null}, {"credit_id": "5d36dfcb60c51d1859814662", "department": "Art", "gender": 0, "id": 101547, "job": "Set Dresser", "name": "Massimo Tavazzi", "profile_path": null}, {"credit_id": "5d36dfe560c51d185981471b", "department": "Sound", "gender": 0, "id": 2369015, "job": "Boom Operator", "name": "Piero Leoni", "profile_path": null}, {"credit_id": "5d36e02fe54d5d0013db144f", "department": "Sound", "gender": 0, "id": 1763674, "job": "Sound Engineer", "name": "Ludovico Scardella", "profile_path": null}, {"credit_id": "5d36e053ab68490010852bc3", "department": "Crew", "gender": 0, "id": 1568001, "job": "Special Effects", "name": "Ugo Amadoro", "profile_path": null}, {"credit_id": "5d36e07be54d5d20b3daad67", "department": "Crew", "gender": 0, "id": 1710185, "job": "Pyrotechnician", "name": "Dino Galiano", "profile_path": null}, {"credit_id": "5d36e0b960c51d001481d9c9", "department": "Crew", "gender": 0, "id": 1023549, "job": "Pyrotechnician", "name": "Paolo Ricci", "profile_path": null}, {"credit_id": "5d36e126e54d5d20b3daae82", "department": "Camera", "gender": 2, "id": 24847, "job": "Camera Operator", "name": "Mario Capriotti", "profile_path": null}, {"credit_id": "5d36e14060c51d001381dffa", "department": "Camera", "gender": 0, "id": 2369020, "job": "Still Photographer", "name": "Aldo Galfano", "profile_path": null}, {"credit_id": "5d36e165ab68490012853859", "department": "Editing", "gender": 0, "id": 1309439, "job": "Assistant Editor", "name": "Lina Caterini", "profile_path": null}, {"credit_id": "5d36e183e54d5d20b2daa4e3", "department": "Production", "gender": 0, "id": 2369022, "job": "Administration", "name": "Dante Brini", "profile_path": null}, {"credit_id": "5d36e1a5ab684974f584e561", "department": "Production", "gender": 0, "id": 2369023, "job": "Production Secretary", "name": "Claudia Fedele", "profile_path": null}, {"credit_id": "5d36e1c0ab684974f584e592", "department": "Production", "gender": 0, "id": 2369024, "job": "Production Assistant", "name": "Pasquale Ferri", "profile_path": null}, {"credit_id": "5d36e1dbab684900128539a8", "department": "Directing", "gender": 0, "id": 2369025, "job": "Script Supervisor", "name": "Mariella Vari", "profile_path": null}]}}