{"adult": false, "backdrop_path": "/JsEKXF3crnLAIVEbhQrUrV2zvT.jpg", "belongs_to_collection": null, "budget": 937000, "genres": [{"id": 18, "name": "Drama"}, {"id": 35, "name": "Comedy"}], "homepage": null, "id": 295698, "imdb_id": "tt2298394", "original_language": "en", "original_title": "Free the Nipple", "overview": "An army of passionate women launch a revolution to \"Free the Nipple\" and decriminalize the female body. Based on a true story, this mass movement of topless women, armed with First Amendment lawyers, graffiti installations and national publicity stunts, invade New York City to protest the backwards censorship laws in the USA.", "popularity": 5.471, "poster_path": "/aapFjpD7V8VhwmmTzFAB41eoMoo.jpg", "production_companies": [{"id": 39430, "logo_path": null, "name": "Disruptive Films", "origin_country": ""}, {"id": 14628, "logo_path": null, "name": "Bethsab\u00e9e Mucho", "origin_country": ""}], "production_countries": [{"iso_3166_1": "US", "name": "United States of America"}], "release_date": "2014-12-12", "revenue": 0, "runtime": 90, "spoken_languages": [{"iso_639_1": "en", "name": "English"}], "status": "Released", "tagline": "", "title": "Free the Nipple", "video": false, "vote_average": 5.0, "vote_count": 25, "keywords": {"keywords": [{"id": 187056, "name": "woman director"}]}, "similar": {"page": 1, "results": [{"adult": false, "backdrop_path": "/cADbqsIoiDW7X3Myg9nz8eAuno5.jpg", "genre_ids": [18, 10749], "id": 10818, "original_language": "fr", "original_title": "Naissance des pieuvres", "overview": "Set during a sultry summer in a French suburb, Marie is desperate to join the local pool's synchronized swimming team, but is her interest solely for the sake of sport or for a chance to get close to Floriane, the bad girl of the team? Sciamma, and the two leads, capture the uncertainty of teenage sexuality with a sympathetic eye in this delicate drama of the angst of coming-of-age.", "poster_path": "/4jajELYrR4Xmv3CVoKnukRnALa2.jpg", "release_date": "2007-05-17", "title": "Water Lilies", "video": false, "vote_average": 6.1, "vote_count": 119, "popularity": 10.744}, {"adult": false, "backdrop_path": "/gZeJziVigmRqbkEZwKAtSqlLQ6s.jpg", "genre_ids": [18, 10749], "id": 370663, "original_language": "en", "original_title": "Below Her Mouth", "overview": "An unexpected affair quickly escalates into a heart-stopping reality for two women whose passionate connection changes their lives forever.", "poster_path": "/nTGbq37hYLuNy7YgMg0gVLma0NS.jpg", "release_date": "2016-09-10", "title": "Below Her Mouth", "video": false, "vote_average": 6.2, "vote_count": 456, "popularity": 22.676}, {"adult": false, "backdrop_path": "/dvQDRfv3qvfHNnVAR57ouVsuErf.jpg", "genre_ids": [10749, 18], "id": 28031, "original_language": "en", "original_title": "If These Walls Could Talk 2", "overview": "The stories of three lesbian couples -- who live in the same house at different periods of time -- who are at a crossroads in their lives. In 1961, Edith loses her lover, Abby, to a stroke. Linda and Amy struggle with feminist issues in 1972. And, in 2000, Kal and Fran try to have a baby with the help of sperm donor.", "poster_path": "/xs7ODbmYQXCDhvXNvz5tF17T59H.jpg", "release_date": "2000-03-05", "title": "If These Walls Could Talk 2", "video": false, "vote_average": 7.1, "vote_count": 55, "popularity": 8.062}, {"adult": false, "backdrop_path": "/knczzNAjBXzSYkeWxoT1u9VNmjR.jpg", "genre_ids": [10749, 18], "id": 258480, "original_language": "en", "original_title": "Carol", "overview": "In 1950s New York, a department-store clerk who dreams of a better life falls for an older, married woman.", "poster_path": "/AbKa7ANxmui0Jmhh7gV7OSELKIL.jpg", "release_date": "2015-11-20", "title": "Carol", "video": false, "vote_average": 7.4, "vote_count": 2182, "popularity": 14.185}, {"adult": false, "backdrop_path": "/fZ8oFcREAr6wgWcXISGql0xyxjB.jpg", "genre_ids": [35, 18], "id": 39781, "original_language": "en", "original_title": "The Kids Are All Right", "overview": "Two women, Nic and Jules, brought a son and daughter into the world through artificial insemination. When one of their children reaches age, both kids go behind their mothers' backs to meet with the donor. Life becomes so much more interesting when the father, two mothers and children start to become attached to each other.", "poster_path": "/fPDeK4MmoGfi2X0oWZev7LrbMqM.jpg", "release_date": "2010-07-09", "title": "The Kids Are All Right", "video": false, "vote_average": 6.6, "vote_count": 923, "popularity": 12.703}, {"adult": false, "backdrop_path": "/rf6G51j0SZL0tP57I8gnqHTRFEr.jpg", "genre_ids": [35, 18, 10749], "id": 273153, "original_language": "fr", "original_title": "La belle saison", "overview": "In 1971, Carole and Delphine meet and fall in love in Paris. When Carole follows Delphine back to her family farm in Limousin, the two find lesbianism and feminism are not as easy in the countryside.", "poster_path": "/evvAkNMO5VJiy5qIo1Hu7fUfvVI.jpg", "release_date": "2015-08-19", "title": "Summertime", "video": false, "vote_average": 6.6, "vote_count": 162, "popularity": 15.434}, {"id": 9813, "video": false, "vote_count": 128, "vote_average": 6.1, "title": "The Quiet", "release_date": "2005-09-12", "original_language": "en", "original_title": "The Quiet", "genre_ids": [18, 53], "backdrop_path": "/6eyWAZA4CEidZW1xXnQ4vlYBXTP.jpg", "adult": false, "overview": "After her widowed father dies, deaf teenager Dot moves in with her godparents, Olivia and Paul Deer. The Deers' daughter, Nina, is openly hostile to Dot, but that does not prevent her from telling her secrets to her silent stepsister, including the fact that she wants to kill her lecherous father.", "poster_path": "/GEqIE9YlmygHVUfS64LW2cwAAM.jpg", "popularity": 13.948}, {"adult": false, "backdrop_path": "/g3LYarEY9LjB28Ct2trwFN72gqZ.jpg", "genre_ids": [35], "id": 437557, "original_language": "en", "original_title": "Blockers", "overview": "When three parents discover their daughters\u2019 pact to lose their virginity at prom, they launch a covert one-night operation to stop the teens from sealing the deal.", "poster_path": "/uvlUQXg0AlpGzKukO11K7QtW3Yu.jpg", "release_date": "2018-03-14", "title": "Blockers", "video": false, "vote_average": 6.2, "vote_count": 1153, "popularity": 18.075}, {"adult": false, "backdrop_path": "/6tern9vOEwwmkDYC1vRCuO64z0C.jpg", "genre_ids": [10749, 18], "id": 475888, "original_language": "en", "original_title": "Tell It to the Bees", "overview": "Dr. Jean Markham returns to the town she left as a teenager to take over her late father's medical practice. When a school-yard scuffle lands Charlie in her surgery, she invites him to visit the hives in her garden and tell his secrets to the bees, as she once did. The new friendship between the boy and the bee keeper brings his mother Lydia into Jean's world.", "poster_path": "/Rj6zpHhMU1zFW3v28U4PSRSRgP.jpg", "release_date": "2019-05-03", "title": "Tell It to the Bees", "video": false, "vote_average": 6.4, "vote_count": 53, "popularity": 15.113}, {"adult": false, "backdrop_path": "/baYbbMtKRDoDWYJeVWkbygAvAj8.jpg", "genre_ids": [18, 10749], "id": 31216, "original_language": "en", "original_title": "I Can't Think Straight", "overview": "I CAN'T THINK STRAIGHT is a 2007 romance movie about a London-based Jordanian of Palestinian descent, Tala, who is preparing for an elaborate wedding. A turn of events causes her to have an affair and subsequently fall in love with another woman, Leyla, a British Indian.", "poster_path": "/1kapga6rkM5wNuQBYw7sdE42CrA.jpg", "release_date": "2008-06-01", "title": "I Can't Think Straight", "video": false, "vote_average": 7.6, "vote_count": 109, "popularity": 8.749}, {"adult": false, "backdrop_path": "/lI5h8KaoeObu4NMTwzeRuUHzRwD.jpg", "genre_ids": [18, 9648, 53], "id": 401898, "original_language": "no", "original_title": "Thelma", "overview": "A college student starts to experience extreme seizures. She soon learns that the violent episodes are a symptom of inexplicable abilities.", "poster_path": "/yzSfG8TLAqw7nMQh2lxirQkQpgs.jpg", "release_date": "2017-09-15", "title": "Thelma", "video": false, "vote_average": 7.1, "vote_count": 418, "popularity": 12.235}, {"adult": false, "backdrop_path": "/tIFRPjIXQ3sYrmxbIeOu9K1JkUz.jpg", "genre_ids": [18, 10749], "id": 294, "original_language": "en", "original_title": "Desert Hearts", "overview": "The story of straight-edge literature professor Vivian who travels to Reno to get away from a relationship breakup when she falls in love with an attractive and unconventional girl named Cay.", "poster_path": "/b8JSmQSpYYJhctMtxNgqh0elENg.jpg", "release_date": "1985-10-01", "title": "Desert Hearts", "video": false, "vote_average": 7.3, "vote_count": 58, "popularity": 8.237}, {"id": 520172, "video": false, "vote_count": 0, "vote_average": 0.0, "title": "Happiest Season", "release_date": "2020-11-20", "original_language": "en", "original_title": "Happiest Season", "genre_ids": [35, 10749], "backdrop_path": null, "adult": false, "overview": "A young woman's plans to propose to her girlfriend while at her family's annual holiday party are upended when she discovers her partner hasn't yet come out to her conservative parents.", "poster_path": null, "popularity": 6.436}, {"adult": false, "backdrop_path": "/zBB1mzmqnUuSrlTuf0SFFlI1EoJ.jpg", "genre_ids": [18], "id": 244772, "original_language": "en", "original_title": "The Skeleton Twins", "overview": "Estranged twins Maggie and Milo coincidentally cheat death on the same day, prompting them to reunite and confront the reasons their lives went so wrong. As the twins' reunion reinvigorates them, they realize the key to fixing their lives may just lie in repairing their relationship.", "poster_path": "/vvmv1R2jDXJeeeyYcGg0ypXc2XK.jpg", "release_date": "2014-09-12", "title": "The Skeleton Twins", "video": false, "vote_average": 6.7, "vote_count": 416, "popularity": 9.821}, {"adult": false, "backdrop_path": "/3YGy88nTV2e0wxZcKI1goiEN9oy.jpg", "genre_ids": [18, 10749], "id": 37636, "original_language": "en", "original_title": "High Art", "overview": "A young female intern at a small magazine company becomes involved with a drug-addicted lesbian photographer, both of whom seek to exploit each other for their respective careers, while slowly falling in love with each other.", "poster_path": "/qTg05RNJIvb9w4Z7XIcAZxuZmTn.jpg", "release_date": "1998-06-12", "title": "High Art", "video": false, "vote_average": 6.6, "vote_count": 61, "popularity": 7.27}, {"adult": false, "backdrop_path": "/caLMOD3ZJ3V7qjlxDXrzlJfBLgD.jpg", "genre_ids": [18, 10749], "id": 20, "original_language": "en", "original_title": "My Life Without Me", "overview": "A Pedro Almodovar production in which a fatally ill mother with only two months to live creates a list of things she wants to do before she dies with out telling her family of her illness.", "poster_path": "/vVj92VBFUBzjqzLvBiPVVlJDp78.jpg", "release_date": "2003-03-07", "title": "My Life Without Me", "video": false, "vote_average": 6.1, "vote_count": 220, "popularity": 9.208}, {"adult": false, "backdrop_path": "/useuHJQ5HOoEWkAvEjL1FW1sUfe.jpg", "genre_ids": [18], "id": 376867, "original_language": "en", "original_title": "Moonlight", "overview": "The tender, heartbreaking story of a young man\u2019s struggle to find himself, told across three defining chapters in his life as he experiences the ecstasy, pain, and beauty of falling in love, while grappling with his own sexuality.", "poster_path": "/qAwFbszz0kRyTuXmMeKQZCX3Q2O.jpg", "release_date": "2016-10-21", "title": "Moonlight", "video": false, "vote_average": 7.4, "vote_count": 4406, "popularity": 27.348}, {"id": 434714, "video": false, "vote_count": 32, "vote_average": 7.5, "title": "My Days of Mercy", "release_date": "2019-07-11", "original_language": "en", "original_title": "My Days of Mercy", "genre_ids": [18, 10749], "backdrop_path": "/7Lbzq33nMMIQtAfZAmSqG6ibLSg.jpg", "adult": false, "overview": "The daughter of a man on death row falls in love with a woman on the opposing side of her family's political cause.", "poster_path": "/adIPKAoKnKL9vCTkvfF4J9ZA7Ln.jpg", "popularity": 6.928}, {"adult": false, "backdrop_path": "/ph5fElfh4U7O3jwhFljxz2LDp1l.jpg", "genre_ids": [18, 36], "id": 375262, "original_language": "en", "original_title": "The Favourite", "overview": "England, early 18th century. The close relationship between Queen Anne and Sarah Churchill is threatened by the arrival of Sarah's cousin, Abigail Hill, resulting in a bitter rivalry between the two cousins to be the Queen's favourite.", "poster_path": "/cwBq0onfmeilU5xgqNNjJAMPfpw.jpg", "release_date": "2018-11-23", "title": "The Favourite", "video": false, "vote_average": 7.6, "vote_count": 2823, "popularity": 26.511}, {"adult": false, "backdrop_path": "/k8H7ye6Sab7OrDJoo8Qp5WFGHGk.jpg", "genre_ids": [35, 10749, 18], "id": 244264, "original_language": "en", "original_title": "Laggies", "overview": "Overeducated and underemployed, 28 year old Megan is in the throes of a quarterlife crisis. Squarely into adulthood with no career prospects, no particular motivation to think about her future and no one to relate to, Megan is comfortable lagging a few steps behind - while her friends check off milestones and celebrate their new grown-up status. When her high-school sweetheart proposes, Megan panics and- given an unexpected opportunity to escape for a week - hides out in the home of her new friend, 16-year old Annika and Annika's world-weary single dad Craig.", "poster_path": "/dNcoXoRC7JHiqbe7k5Ufo6syiPP.jpg", "release_date": "2014-09-25", "title": "Laggies", "video": false, "vote_average": 6.1, "vote_count": 787, "popularity": 9.883}], "total_pages": 1330, "total_results": 26591}, "recommendations": {"page": 1, "results": [{"adult": false, "backdrop_path": "/7Mm3zTgIp8DDac7xKRKMpMo3qtF.jpg", "genre_ids": [18, 80], "id": 259209, "original_language": "en", "original_title": "Feast of July", "overview": "After an abandoned young woman in late 19th Century England is taken in by a rural couple with three handsome sons, tragic consequences result.", "poster_path": "/ntXzazC3ZaWy9GjkFzZGtJFLCZp.jpg", "release_date": "1995-10-12", "title": "Feast of July", "video": false, "vote_average": 6.8, "vote_count": 4, "popularity": 4.248}, {"adult": false, "backdrop_path": "/iPRKgNK9Gls5djXpO4e94fQxPmh.jpg", "genre_ids": [], "id": 543889, "original_language": "en", "original_title": "An Audience of Chairs", "overview": "Maura Mackenzie (Carolina Bartczak) believes the world is hers to conquer. With her career as a concert pianist gaining momentum, it seems her beauty and talent will be strong enough to mask the demons that threaten to engulf her. But with an absent husband (Chris Jacot) and two young daughters at home, her precarious sanity begins to unravel until one summer day, burning with manic energy, she makes a terrible mistake \u2014 a mistake that will change her life forever. The consequences for Maura are catastrophic: her ambitious husband runs for his life, taking the children with him, leaving Maura to lapse into a full-scale breakdown. Life as she knew it is now over. With the help of her father, Ian (Peter MacNeill), Maura works to reclaim her life and waits for a miracle to bring her daughters home. But when the fates align, can the past be forgiven?", "poster_path": "/e5MPJTwEPDjdVwifFFO3nKaFVZH.jpg", "release_date": "2018-09-14", "title": "An Audience of Chairs", "video": false, "vote_average": 7.3, "vote_count": 4, "popularity": 4.36}, {"adult": false, "backdrop_path": "/4Mq0qtQvWFsQQe5XRdf7ytezoGu.jpg", "genre_ids": [53], "id": 502800, "original_language": "en", "original_title": "Crisis Hotline", "overview": "A cynical counselor at a crisis hotline finds himself in a life or death situation when a young man calls and threatens to kill three people and then himself.", "poster_path": "/AkyTEsEwe2W8iPfxJD1TcJTHCDx.jpg", "release_date": "2019-06-11", "title": "Crisis Hotline", "video": false, "vote_average": 5.3, "vote_count": 3, "popularity": 3.811}, {"adult": false, "backdrop_path": "/mJ8AimjSkFfmRCKVZNCkmtOmQPO.jpg", "genre_ids": [99], "id": 250667, "original_language": "en", "original_title": "Private Violence", "overview": "One in four women experience violence in their homes. Have you ever asked, \u201cWhy doesn't she just leave?\u201d Private Violence shatters the brutality of our logic and intimately reveals the stories of two women: Deanna Walters, who transforms from victim to survivor, and Kit Gruelle, who advocates for justice.", "poster_path": "/rg7a2U0VzrcRhF6DbxfFcuDIaXy.jpg", "release_date": "2014-01-19", "title": "Private Violence", "video": false, "vote_average": 7.0, "vote_count": 4, "popularity": 2.286}, {"adult": false, "backdrop_path": "/iOsvhOimYlKhUWIxMugxn83JlWZ.jpg", "genre_ids": [35], "id": 58886, "original_language": "nl", "original_title": "Iedereen Beroemd!", "overview": "", "poster_path": "/uzJ4WF2X39xJLXpnMkPZp1iE8BD.jpg", "release_date": "2000-04-12", "title": "Everybody's Famous!", "video": false, "vote_average": 6.2, "vote_count": 16, "popularity": 1.754}, {"adult": false, "backdrop_path": "/vNeCUQ2q64essNMKu1Ob26B0M1S.jpg", "genre_ids": [], "id": 46148, "original_language": "en", "original_title": "The Red Menace", "overview": "A couple try to leave the Communist party after a murder by the group they were once loyal to.", "poster_path": "/a7mPps5f7VfVqyeeJ3W6CGyrkJq.jpg", "release_date": "1949-08-01", "title": "The Red Menace", "video": false, "vote_average": 4.1, "vote_count": 7, "popularity": 3.096}, {"adult": false, "backdrop_path": "/boXfSydCOVSw84hEnCos7CrDs55.jpg", "genre_ids": [53, 27], "id": 467306, "original_language": "en", "original_title": "Playing with Dolls: Havoc", "overview": "When serial killer Havoc escapes from his prison, there is no holding back. He descends upon unsuspecting lovers in their cabin get away. The world's most brutal killer is loose and his thirst for blood cannot be stopped.", "poster_path": "/24LQmJX4H7P0LibgD4X3wUl7rf9.jpg", "release_date": "2017-07-12", "title": "Playing with Dolls: Havoc", "video": false, "vote_average": 5.4, "vote_count": 5, "popularity": 3.953}, {"adult": false, "backdrop_path": "/cM5RAwQ5o46EgZFKTsfeyLrj1pZ.jpg", "genre_ids": [18], "id": 49969, "original_language": "en", "original_title": "High Tide", "overview": "Story about a backup singer for an Elvis impersonator who re-enters her past when she leaves a tour in a small town and finds her daughter in a mobile home park.", "poster_path": "/52g186f0h4vpm0gMWJPfAuEjlsm.jpg", "release_date": "1987-07-30", "title": "High Tide", "video": false, "vote_average": 7.1, "vote_count": 7, "popularity": 1.751}, {"adult": false, "backdrop_path": "/bUwwofZUjJ50WFYo2CisXgUadUt.jpg", "genre_ids": [35], "id": 537734, "original_language": "en", "original_title": "The Weekend", "overview": "An acerbic comedian becomes romantically entangled with her ex, his new girlfriend, and another guest during a weekend getaway.", "poster_path": "/6IJ9UcJjUjMW6UOvQ99MllDZhoN.jpg", "release_date": "2019-09-13", "title": "The Weekend", "video": false, "vote_average": 7.0, "vote_count": 4, "popularity": 3.281}, {"id": 83926, "video": false, "vote_count": 3, "vote_average": 7.0, "title": "Ninety Degrees in the Shade", "release_date": "1965-06-01", "original_language": "en", "original_title": "Ninety Degrees in the Shade", "genre_ids": [80, 18, 53], "backdrop_path": "/Abbs7FQ4oBe5rTmo496j5enG92B.jpg", "adult": false, "overview": "A woman attempts to cover up the thefts committed by the manager at the shop she works at.", "poster_path": "/GsW0wqXs40fgZV8MrGItKeRgWu.jpg", "popularity": 2.733}, {"adult": false, "backdrop_path": "/pJv1QQlKGJvnqnHPziNx5BD1uXU.jpg", "genre_ids": [18], "id": 69040, "original_language": "en", "original_title": "Shy People", "overview": "A New York journalist visits her distant cousin for the first time to write an article about her hard life in the bayous of Louisiana. The journalist's wild, drug-addicted daughter adds tensions between the two relatives' cultures.", "poster_path": "/gLNWyERVGGcTT35MhdeH0QrIy3d.jpg", "release_date": "1987-05-01", "title": "Shy People", "video": false, "vote_average": 7.0, "vote_count": 9, "popularity": 6.576}, {"adult": false, "backdrop_path": "/b6VJT1EuQtmJm4JpkLhK62dPQmB.jpg", "genre_ids": [35, 18], "id": 507660, "original_language": "en", "original_title": "The Merger", "overview": "A country football coach who has a plan to rebuild the local football team by recruiting recently settled asylum seekers.", "poster_path": "/v1bCOU6touQ4qWidGGD8LtqwiBW.jpg", "release_date": "2018-08-30", "title": "The Merger", "video": false, "vote_average": 6.1, "vote_count": 7, "popularity": 3.191}, {"adult": false, "backdrop_path": "/cb3GnE1JtO2lKF8YEUj6MzRvLRm.jpg", "genre_ids": [35, 18, 10749], "id": 53734, "original_language": "en", "original_title": "A Foreign Affair", "overview": "Two brothers need household help after their Ma passes away. They decide to join a romance tour to Russia to find and bring home a traditionally minded wife.", "poster_path": "/n85jnppUbDK4WqymyEzwJAaklUM.jpg", "release_date": "2003-01-21", "title": "A Foreign Affair", "video": false, "vote_average": 5.6, "vote_count": 7, "popularity": 2.291}, {"adult": false, "backdrop_path": "/aPJdv8ynbVlMKeJgSJUguqColuh.jpg", "genre_ids": [18, 10749], "id": 47920, "original_language": "en", "original_title": "Magnificent Obsession", "overview": "A playboy tries to redeem himself after his careless behavior causes a great man's death.", "poster_path": "/9ypouSkN5BzMQUaXqC80XH3GAXi.jpg", "release_date": "1935-12-30", "title": "Magnificent Obsession", "video": false, "vote_average": 7.7, "vote_count": 7, "popularity": 3.266}, {"adult": false, "backdrop_path": "/yk75wi7Z3ho63H0DInzXtqutee4.jpg", "genre_ids": [35], "id": 38005, "original_language": "de", "original_title": "Hinterholz 8", "overview": "Herbert Krcal (Roland D\u00fcringer) und seine Frau Margit (Nina Proll) tr\u00e4umen den Traum vom Eigenheim. Am liebsten tun sie das in der \"Blauen Lagune\", einem Fertigteilhaus-Park im S\u00fcden Wiens, wohin sie regelm\u00e4\u00dfig mit ihrem Sohn Philipp pilgern. Ebenso regelm\u00e4\u00dfig m\u00fcssen sie die bittere Wahrheit erkennen, da\u00df sie sich das jeweils besichtigte Traumhaus eigentlich nicht leisten k\u00f6nnen.", "poster_path": "/zvoufrqEvqSVkfxb8eqaXFc9tnZ.jpg", "release_date": "1998-09-18", "title": "Hinterholz 8", "video": false, "vote_average": 6.0, "vote_count": 14, "popularity": 1.76}, {"adult": false, "backdrop_path": "/iEeR1Ezr0rIviKHOfOWDsvycUxc.jpg", "genre_ids": [18], "id": 183361, "original_language": "en", "original_title": "Caroline and Jackie", "overview": "A woman turns her sister's belated birthday celebration into an intervention, but as events unfold, it becomes unclear which sibling needs the most help.", "poster_path": "/flC2O1aqEbbqRj5pWmIKPUu1gdd.jpg", "release_date": "2013-05-03", "title": "Caroline and Jackie", "video": false, "vote_average": 7.0, "vote_count": 4, "popularity": 2.666}, {"adult": false, "backdrop_path": "/q6z0jtnoaUDxhQsfFTzWjUWLmfO.jpg", "genre_ids": [], "id": 495831, "original_language": "en", "original_title": "Quality Problems", "overview": "Bailey and Drew are a 40 something couple much like other couples: They have two kids, two jobs, one dad with Alzheimers and one boob with cancer. Toss in planning an 8 year old\u2019s birthday party and the only thing you CAN do is laugh.", "poster_path": "/eItrIDqNkNlLkafTzQ3kWMiozrB.jpg", "release_date": "2018-05-08", "title": "Quality Problems", "video": false, "vote_average": 8.3, "vote_count": 3, "popularity": 2.614}, {"id": 515917, "video": false, "vote_count": 4, "vote_average": 7.8, "title": "Saints Rest", "release_date": "2018-04-26", "original_language": "en", "original_title": "Saints Rest", "genre_ids": [18, 10402], "backdrop_path": "/cdPS99Rg2X7jCkkbYWAwuvslq8A.jpg", "adult": false, "overview": "A musical drama set in small-town Iowa, SAINTS REST tells the story of two estranged sisters, who over the course of one summer, form a connection through their shared love of music, as they grieve the recent death of their mother.", "poster_path": "/8gNHJ3iLIcne4RWqG5t6eUBfz19.jpg", "popularity": 5.593}, {"adult": false, "backdrop_path": null, "genre_ids": [99], "id": 165586, "original_language": "en", "original_title": "Mutantes", "overview": "Mutantes sheds light on a feminism that was little talked about in France. This documentary comprises of a series of interviews conducted in the USA, Paris and Barcelona, and documents from the archives about the political action of sex workers, queer activists and post-pornographic performances.", "poster_path": "/1svNy7l1LuQnSFn7EaCyebXBYGQ.jpg", "release_date": "2009-12-21", "title": "Mutantes", "video": false, "vote_average": 5.0, "vote_count": 5, "popularity": 1.692}, {"id": 43116, "video": false, "vote_count": 5, "vote_average": 6.8, "title": "High School Confidential!", "release_date": "1958-05-30", "original_language": "en", "original_title": "High School Confidential!", "genre_ids": [9648, 53], "backdrop_path": "/aGYiuTcaG73iJBX31ihEWJLCNok.jpg", "adult": false, "overview": "Tony Baker is a rebel with a cause in this classic exploitation tale of teens gone wild.Sent undercover to expose a dope ring at Santa Bella High, Baker infiltrates the gang, pulls a switchblade and gets his girl all in one fell swoop.Banned in numerous countries on release for its edgy content of dancing, drugs and drag car racing,", "poster_path": "/aqCCtvx9SsM8i8cBE7HOJMvYS6p.jpg", "popularity": 4.509}], "total_pages": 2, "total_results": 23}, "credits": {"cast": [{"cast_id": 16, "character": "Liv", "credit_id": "548ad08bc3a3680714001547", "gender": 1, "id": 1345418, "name": "Lola Kirke", "order": 1, "profile_path": "/xXEBb9OoET7SgtkSmh1XtMs5YKC.jpg"}, {"cast_id": 17, "character": "Cali", "credit_id": "548ad0afc3a36807280011f2", "gender": 1, "id": 208944, "name": "Casey LaBow", "order": 2, "profile_path": "/3rQAfZuWLmVQMoEc3XSgGDVVj2f.jpg"}, {"cast_id": 18, "character": "With", "credit_id": "548ad16cc3a368071d001368", "gender": 1, "id": 52850, "name": "Lina Esco", "order": 3, "profile_path": "/2useGT0yAJANMymYuaM1FWa2ol3.jpg"}, {"cast_id": 19, "character": "Roz", "credit_id": "548ad17fc3a36837bb00111f", "gender": 1, "id": 180279, "name": "Monique Coleman", "order": 4, "profile_path": "/ouXVNDzvu2Foy3HhSFeTX10bxAt.jpg"}, {"cast_id": 20, "character": "Jim Black", "credit_id": "548ad18e925141261100117d", "gender": 2, "id": 7471, "name": "Zach Grenier", "order": 5, "profile_path": "/8LvY2KHMYSuGsrhjdbBbL2hhowr.jpg"}, {"cast_id": 21, "character": "Anouk", "credit_id": "573e35b8c3a3681d38000599", "gender": 1, "id": 21197, "name": "Janeane Garofalo", "order": 6, "profile_path": "/sNSUJ4tvqCqQQf6ml5M7NOJbOz0.jpg"}], "crew": [{"credit_id": "548acd3f925141260e00139b", "department": "Directing", "gender": 1, "id": 52850, "job": "Director", "name": "Lina Esco", "profile_path": "/2useGT0yAJANMymYuaM1FWa2ol3.jpg"}, {"credit_id": "548acfa09251412611001147", "department": "Production", "gender": 1, "id": 52850, "job": "Producer", "name": "Lina Esco", "profile_path": "/2useGT0yAJANMymYuaM1FWa2ol3.jpg"}, {"credit_id": "548ace7dc3a3680724001185", "department": "Writing", "gender": 2, "id": 52856, "job": "Screenplay", "name": "Hunter Richards", "profile_path": null}, {"credit_id": "548acfb0c3a36807160011f5", "department": "Production", "gender": 2, "id": 52856, "job": "Producer", "name": "Hunter Richards", "profile_path": null}, {"credit_id": "548acf2ac3a368071d00131f", "department": "Editing", "gender": 0, "id": 66725, "job": "Editor", "name": "Matt Landon", "profile_path": null}, {"credit_id": "548acff7c3a36807240011b1", "department": "Production", "gender": 1, "id": 229568, "job": "Producer", "name": "Lisa Azuelos", "profile_path": "/lJCesY1XCxjJLG405fX6xLyPFHd.jpg"}, {"credit_id": "548acf7fc3a368071d00132e", "department": "Art", "gender": 1, "id": 990035, "job": "Production Design", "name": "Callie Andreadis", "profile_path": null}, {"credit_id": "548acf45925141261b0012b4", "department": "Camera", "gender": 1, "id": 1305821, "job": "Director of Photography", "name": "B\u00e9r\u00e9nice Eveno", "profile_path": null}, {"credit_id": "548acee9c3a36807140014fc", "department": "Production", "gender": 1, "id": 1398132, "job": "Casting", "name": "Jennifer Euston", "profile_path": "/hpSGPYY836qAyiTwMZWJi7qlrn2.jpg"}, {"credit_id": "548acf05c3a3680724001196", "department": "Sound", "gender": 0, "id": 1398133, "job": "Original Music Composer", "name": "Henry Hey", "profile_path": null}, {"credit_id": "548acf11925141260e0013d8", "department": "Sound", "gender": 0, "id": 1398134, "job": "Original Music Composer", "name": "Nick Littlemore", "profile_path": null}, {"credit_id": "548acf1e925141260e0013df", "department": "Sound", "gender": 0, "id": 1398135, "job": "Original Music Composer", "name": "Peter Mayes", "profile_path": null}, {"credit_id": "548acf8dc3a36807280011c8", "department": "Costume & Make-Up", "gender": 0, "id": 1398139, "job": "Costume Design", "name": "Christian Stroble", "profile_path": null}, {"credit_id": "548ad00d925141260800135f", "department": "Production", "gender": 0, "id": 1398142, "job": "Producer", "name": "Julien Madon", "profile_path": null}, {"credit_id": "548ad020c3a36807280011dd", "department": "Production", "gender": 0, "id": 1398144, "job": "Executive Producer", "name": "Lisa Momberger", "profile_path": null}, {"credit_id": "548ad035c3a36837bb0010f7", "department": "Art", "gender": 2, "id": 1398145, "job": "Art Direction", "name": "Dylan Pettengill", "profile_path": null}]}}