{"adult": false, "backdrop_path": null, "belongs_to_collection": null, "budget": 0, "genres": [{"id": 18, "name": "Drama"}], "homepage": null, "id": 295629, "imdb_id": "tt2417834", "original_language": "en", "original_title": "A Leading Man", "overview": "Everyone is happy for rising actor GQ Qi \u2013 the network, his mother, his best friend \u2013 everyone except GQ himself. He is stuck playing an offensive stereotype on a television sitcom, and the day he decides to speak up for himself on set, the executive producer fires him. Struggling to pick up the pieces, he starts dating A-list casting director Rachel. Love and work become intertwined.  Their relationship survives the protestations of GQ\u2019s mother and best friend, but starts to show strain as it becomes clear that GQ is unable to land another acting gig. As pressures from work, love and family come to a head, GQ must confront the hard question: How much of himself will he compromise for career success?", "popularity": 0.889, "poster_path": "/1vOPEQ3X0MthKGolH3cYTfWwlMu.jpg", "production_companies": [], "production_countries": [], "release_date": "2014-09-26", "revenue": 0, "runtime": 96, "spoken_languages": [], "status": "Released", "tagline": "", "title": "A Leading Man", "video": false, "vote_average": 9.0, "vote_count": 1, "keywords": {"keywords": [{"id": 3060, "name": "race politics"}, {"id": 14988, "name": "east asian lead"}, {"id": 34221, "name": "gender roles"}, {"id": 40870, "name": "race"}, {"id": 237849, "name": "asian man"}]}, "similar": {"page": 1, "results": [{"adult": false, "backdrop_path": "/51N8GQvpWKOxmq53UdkNRpBtXvg.jpg", "genre_ids": [28, 80, 53], "id": 2085, "original_language": "en", "original_title": "Romeo Must Die", "overview": "Two warring gang families (one African-American, the other Chinese) maneuver for bragging rights to the Oakland, California, docks. Hang Sing and Trish O'Day uncover a trail of deceit that leaves most of the warring factions dead \u2026 or worse!", "poster_path": "/pZuGxXuAFMIKilwMaDAHucCEaNt.jpg", "release_date": "2000-03-20", "title": "Romeo Must Die", "video": false, "vote_average": 6.0, "vote_count": 614, "popularity": 13.902}, {"id": 2976, "video": false, "vote_count": 1691, "vote_average": 6.6, "title": "Hairspray", "release_date": "2007-07-13", "original_language": "en", "original_title": "Hairspray", "genre_ids": [35, 18, 10749], "backdrop_path": "/yafOInYuEuK6FOw1oK40Lggp0TV.jpg", "adult": false, "overview": "Pleasantly plump teenager Tracy Turnblad auditions to be on Baltimore's most popular dance show - The Corny Collins Show - and lands a prime spot. Through her newfound fame, she becomes determined to help her friends and end the racial segregation that has been a staple of the show.", "poster_path": "/ndOpIx4BXpFCRRIxgMoGHxZxlE9.jpg", "popularity": 30.447}, {"id": 455207, "video": false, "vote_count": 1889, "vote_average": 7.0, "title": "Crazy Rich Asians", "release_date": "2018-08-15", "original_language": "en", "original_title": "Crazy Rich Asians", "genre_ids": [35, 18, 10749], "backdrop_path": "/zeHB7aP46Xs3u4aFLuAq2GFeUGb.jpg", "adult": false, "overview": "An American-born Chinese economics professor accompanies her boyfriend to Singapore for his best friend's wedding, only to get thrust into the lives of Asia's rich and famous.", "poster_path": "/1XxL4LJ5WHdrcYcihEZUCgNCpAW.jpg", "popularity": 15.192}, {"id": 1640, "video": false, "vote_count": 2079, "vote_average": 7.3, "title": "Crash", "release_date": "2004-09-10", "original_language": "en", "original_title": "Crash", "genre_ids": [18], "backdrop_path": "/nvDo8teZGqlDeHxjWkM4RBf4YMO.jpg", "adult": false, "overview": "In post-Sept. 11 Los Angeles, tensions erupt when the lives of a Brentwood housewife, her district attorney husband, a Persian shopkeeper, two cops, a pair of carjackers and a Korean couple converge during a 36-hour period.", "poster_path": "/pG8LL4LYMCr5uikhx9rewrW8352.jpg", "popularity": 21.704}, {"adult": false, "backdrop_path": "/ypyeMfKydpyuuTMdp36rMlkGDUL.jpg", "genre_ids": [28, 80, 53], "id": 168259, "original_language": "en", "original_title": "Furious 7", "overview": "Deckard Shaw seeks revenge against Dominic Toretto and his family for his comatose brother.", "poster_path": "/dCgm7efXDmiABSdWDHBDBx2jwmn.jpg", "release_date": "2015-04-01", "title": "Furious 7", "video": false, "vote_average": 7.3, "vote_count": 7044, "popularity": 28.011}, {"adult": false, "backdrop_path": "/wW0Cegcu931tcGHImRk7kKc7bUI.jpg", "genre_ids": [878, 12, 35], "id": 19673, "original_language": "pl", "original_title": "Seksmisja", "overview": "Two scientists are chosen as guinea pigs for a time experiment: they are placed in hibernation and should be brought back to life after three years. In the meantime, however, the World War III breaks out and life have been wiped out of the surface of the Earth. When they wake up, it turns out that not only 50 years have passed but also that they are the only living specimens of the male sex in a new, underground society composed exclusively of women.", "poster_path": "/uHPD4r4ahqHfzNS7hrXdZuuflGm.jpg", "release_date": "1984-05-13", "title": "Sexmission", "video": false, "vote_average": 7.5, "vote_count": 125, "popularity": 10.359}, {"id": 859, "video": false, "vote_count": 596, "vote_average": 7.3, "title": "Dangerous Liaisons", "release_date": "1988-12-16", "original_language": "en", "original_title": "Dangerous Liaisons", "genre_ids": [18, 10749], "backdrop_path": "/dhaX2NXwPyCVML8Iy7ul38wfmY3.jpg", "adult": false, "overview": "In 18th century France, Marquise de Merteuil asks her ex-lover Vicomte de Valmont to seduce the future wife of another ex-lover of hers in return for one last night with her. Yet things don\u2019t go as planned.", "poster_path": "/2rXbkUzM5ySwh3FmsFWSZdkMiaP.jpg", "popularity": 16.76}, {"id": 613, "video": false, "vote_count": 1992, "vote_average": 7.8, "title": "Downfall", "release_date": "2004-09-08", "original_language": "de", "original_title": "Der Untergang", "genre_ids": [18, 36, 10752], "backdrop_path": "/d3AmCJXvsP818di5KcCj4fNi36.jpg", "adult": false, "overview": "In April of 1945, Germany stands at the brink of defeat with the Russian Army closing in from the east and the Allied Expeditionary Force attacking from the west. In Berlin, capital of the Third Reich, Adolf Hitler proclaims that Germany will still achieve victory and orders his generals and advisers to fight to the last man. When the end finally does come, and Hitler lies dead by his own hand, what is left of his military must find a way to end the killing that is the Battle of Berlin, and lay down their arms in surrender.", "poster_path": "/2QmpblYvUThzBQ4ArdT1Kp43DZi.jpg", "popularity": 13.146}, {"id": 55465, "video": false, "vote_count": 553, "vote_average": 6.0, "title": "A Very Harold & Kumar Christmas", "release_date": "2011-11-04", "original_language": "en", "original_title": "A Very Harold & Kumar Christmas", "genre_ids": [35], "backdrop_path": "/2o8CFr4bqmYDiWQp1DRwC7Jh4VX.jpg", "adult": false, "overview": "Six years have elapsed since Guantanamo Bay, leaving Harold and Kumar estranged from one another with very different families, friends and lives. But when Kumar arrives on Harold's doorstep during the holiday season with a mysterious package in hand, he inadvertently burns down Harold's father-in-law's beloved Christmas tree. To fix the problem, Harold and Kumar embark on a mission through New York City to find the perfect Christmas tree, once again stumbling into trouble at every single turn.", "poster_path": "/8zdGMb5lfq2JB5OpipASK85URHC.jpg", "popularity": 9.922}, {"adult": false, "backdrop_path": "/dXQdfVXUOrGhby6yTk9yZEDKhhg.jpg", "genre_ids": [18], "id": 65229, "original_language": "fr", "original_title": "Tomboy", "overview": "A French family with two daughters, 10-year-old Laure and 6-year-old Jeanne, moves to a new neighborhood during the summer holidays. With her tomboy ways, Laure is immediately mistaken for a boy by the local kids and passes herself off as Micka\u00ebl.", "poster_path": "/q4bl7q32VmqWMPl5WWfCdu2UFSw.jpg", "release_date": "2011-04-20", "title": "Tomboy", "video": false, "vote_average": 7.2, "vote_count": 339, "popularity": 9.175}, {"id": 411019, "video": false, "vote_count": 216, "vote_average": 8.1, "title": "I Am Not Your Negro", "release_date": "2017-02-03", "original_language": "en", "original_title": "I Am Not Your Negro", "genre_ids": [99], "backdrop_path": "/1uecj8izDDjvZ4syzJQCOKRBjaa.jpg", "adult": false, "overview": "Working from the text of James Baldwin\u2019s unfinished final novel, director Raoul Peck creates a meditation on what it means to be Black in the United States.", "poster_path": "/zwd0Zti7BvY1mO0mTPzM0fRrtc6.jpg", "popularity": 8.385}, {"id": 429107, "video": false, "vote_count": 114, "vote_average": 6.0, "title": "Beatriz at Dinner", "release_date": "2017-06-09", "original_language": "en", "original_title": "Beatriz at Dinner", "genre_ids": [35, 18], "backdrop_path": "/srJ0ZUKSejivt2bAboLIJ6IihUB.jpg", "adult": false, "overview": "Beatriz, an immigrant from a poor town in Mexico, has drawn on her innate kindness to build a career as a health practitioner. Doug Strutt is a cutthroat, self-satisfied billionaire. When these two opposites meet at a dinner party, their worlds collide, and neither will ever be the same.", "poster_path": "/obOhjpLQ720cdJMdhprOLBMrJI1.jpg", "popularity": 8.152}, {"id": 59678, "video": false, "vote_count": 1243, "vote_average": 6.4, "title": "Attack the Block", "release_date": "2011-05-12", "original_language": "en", "original_title": "Attack the Block", "genre_ids": [28, 35, 878], "backdrop_path": "/bWvLioeu9DUv4aP5kWPHj8NMoNJ.jpg", "adult": false, "overview": "A teen gang in a grim South London housing estate must team up with the other residents to protect their neighbourhood from a terrifying alien invasion.", "poster_path": "/n2qLb5UPj0sKUnlzkthp30wM0g2.jpg", "popularity": 11.671}, {"id": 300667, "video": false, "vote_count": 310, "vote_average": 6.5, "title": "3 Generations", "release_date": "2016-10-27", "original_language": "en", "original_title": "3 Generations", "genre_ids": [35, 18], "backdrop_path": "/nR1P3kooXSHIScQIhtqGWLExJDX.jpg", "adult": false, "overview": "A teenager transitions from female to male, and his family must come to terms with that fact.", "poster_path": "/A40ko85pS3yrkzeYVuVKB8Xbjjq.jpg", "popularity": 8.963}, {"adult": false, "backdrop_path": "/2c5rkSPvdLfB0uzuHUtJiZ1sIC8.jpg", "genre_ids": [18], "id": 10637, "original_language": "en", "original_title": "Remember the Titans", "overview": "After leading his football team to 15 winning seasons, coach Bill Yoast is demoted and replaced by Herman Boone \u2013 tough, opinionated and as different from the beloved Yoast as he could be. The two men learn to overcome their differences and turn a group of hostile young men into champions.", "poster_path": "/iI12IRzif2VjTkQJRDQw3WyWKdS.jpg", "release_date": "2000-09-29", "title": "Remember the Titans", "video": false, "vote_average": 7.6, "vote_count": 1462, "popularity": 10.74}, {"adult": false, "backdrop_path": "/xYXj9gY7xKFaSTJ8FuSVn3Vc2Ha.jpg", "genre_ids": [16, 14, 28, 878, 10749], "id": 19738, "original_language": "ja", "original_title": "\u5c11\u5973\u9769\u547d\u30a6\u30c6\u30ca \u30a2\u30c9\u30a5\u30ec\u30bb\u30f3\u30b9\u9ed9\u793a\u9332", "overview": "In a loose retelling of the Revolutionary Girl Utena TV series, Utena Tenjou arrives at Ohtori Academy, only to be immediately swept up in a series of duels for the hand of her classmate Anthy Himemiya and the power she supposedly holds. At the same time, Utena reunites with Touga Kiryuu, a friend from her childhood who seems to know the secrets behind the duels. Utena must discover those secrets for herself, before the power that rules Ohtori claims her and her friends, new and old.", "poster_path": "/4gEuxmg7OTc9Nxbg5pj5cVTaKCh.jpg", "release_date": "1999-08-14", "title": "Revolutionary Girl Utena: The Adolescence of Utena", "video": false, "vote_average": 7.5, "vote_count": 23, "popularity": 7.173}, {"id": 407806, "video": false, "vote_count": 312, "vote_average": 8.1, "title": "13th", "release_date": "2016-10-07", "original_language": "en", "original_title": "13th", "genre_ids": [99], "backdrop_path": "/fhSkVpRCg5s9b8nmdSS77Q1onhv.jpg", "adult": false, "overview": "An in-depth look at the prison system in the United States and how it reveals the nation's history of racial inequality.", "poster_path": "/tcKNWD6IFPPsvkpvyZ548naz0is.jpg", "popularity": 9.868}, {"id": 11576, "video": false, "vote_count": 285, "vote_average": 7.2, "title": "It's a Mad, Mad, Mad, Mad World", "release_date": "1963-11-07", "original_language": "en", "original_title": "It's a Mad, Mad, Mad, Mad World", "genre_ids": [28, 12, 35, 80], "backdrop_path": "/jvR2MRGQXQ2bHrJm0gtBJ85kZqN.jpg", "adult": false, "overview": "A group of strangers come across a man dying after a car crash who proceeds to tell them about the $350,000 he buried in California. What follows is the madcap adventures of those strangers as each attempts to claim the prize for himself.", "poster_path": "/5S8VWhy4aE47MOTYqrFitTS5Jpw.jpg", "popularity": 10.736}, {"id": 329829, "video": false, "vote_count": 99, "vote_average": 6.4, "title": "The Girl King", "release_date": "2015-12-11", "original_language": "en", "original_title": "The Girl King", "genre_ids": [18, 36, 10749], "backdrop_path": "/4szWKixNkbdm9omQZ9Kzpno7FPC.jpg", "adult": false, "overview": "A portrait of the brilliant, extravagant Kristina of Sweden, queen from age six, who fights the conservative forces that are against her ideas to modernize Sweden and who have no tolerance for her awakening sexuality.", "poster_path": "/eb5ZOCpGj7PbTnJweuiqHixPPtD.jpg", "popularity": 9.767}, {"id": 515841, "video": false, "vote_count": 642, "vote_average": 6.3, "title": "I Am Not an Easy Man", "release_date": "2018-04-13", "original_language": "fr", "original_title": "Je ne suis pas un homme facile", "genre_ids": [35], "backdrop_path": "/xyl9E3Bph0AZzqwwM6RFMI8WNJi.jpg", "adult": false, "overview": "The chauvinist Damien wakes up in a world where women and men have their roles reversed in society, and everything is dominated by women.", "poster_path": "/jnAtRqnP4mVZZmrJd2AOtU6t1zu.jpg", "popularity": 9.444}], "total_pages": 10, "total_results": 189}, "recommendations": {"page": 1, "results": [], "total_pages": 1, "total_results": 0}, "credits": {"cast": [{"cast_id": 2, "character": "Rachel Cohen", "credit_id": "568f677bc3a368323e001908", "gender": 1, "id": 1173006, "name": "Heather Mazur", "order": 1, "profile_path": "/6iw8Bb3gtEPBL2DpqoHQia2Cw1I.jpg"}, {"cast_id": 3, "character": "Pat Qi", "credit_id": "568f6793c3a368324c0018a8", "gender": 0, "id": 1559710, "name": "Pat Tsao", "order": 2, "profile_path": "/hxH7EPIS9xAgExTDeOn0mSP9vhO.jpg"}, {"cast_id": 4, "character": "David Bell", "credit_id": "568f67e3c3a368324c0018c1", "gender": 0, "id": 1227099, "name": "Cameron Bender", "order": 3, "profile_path": "/2qEvrmpLve4STaiMhwGbovmRNsk.jpg"}, {"cast_id": 5, "character": "Whitney Lake", "credit_id": "568f67fd925141189b00191b", "gender": 1, "id": 214695, "name": "Kate Miner", "order": 4, "profile_path": "/gIBpjOfDlEEu0nikxc9OzjAEqJk.jpg"}], "crew": [{"credit_id": "542ac9aa0e0a260673000c62", "department": "Directing", "gender": 0, "id": 1368987, "job": "Director", "name": "Steven J. Kung", "profile_path": null}, {"credit_id": "542aca0f0e0a260678000cbc", "department": "Writing", "gender": 0, "id": 1368987, "job": "Writer", "name": "Steven J. Kung", "profile_path": null}]}}