{"adult": false, "backdrop_path": "/5gsvPd8MPWLHPruC9ccFHDWycYj.jpg", "belongs_to_collection": null, "budget": 0, "genres": [{"id": 35, "name": "Comedy"}, {"id": 10402, "name": "Music"}, {"id": 10749, "name": "Romance"}], "homepage": null, "id": 29577, "imdb_id": "tt0043882", "original_language": "en", "original_title": "On the Riviera", "overview": "In this fast-paced remake of the Muarice Chavlier vehicle Folies Bergere, talented Danny Kaye plays both a performer and a heroic French military pilot.", "popularity": 3.021, "poster_path": "/qX7CWjPzWPqzAJ44XDYefOOE1gq.jpg", "production_companies": [{"id": 25, "logo_path": "/qZCc1lty5FzX30aOCVRBLzaVmcp.png", "name": "20th Century Fox", "origin_country": "US"}], "production_countries": [{"iso_3166_1": "US", "name": "United States of America"}], "release_date": "1951-04-20", "revenue": 0, "runtime": 89, "spoken_languages": [{"iso_639_1": "en", "name": "English"}], "status": "Released", "tagline": "", "title": "On the Riviera", "video": false, "vote_average": 7.3, "vote_count": 6, "keywords": {"keywords": [{"id": 1491, "name": "entertainer"}, {"id": 9813, "name": "french riviera"}, {"id": 10181, "name": "based on play or musical"}, {"id": 188344, "name": "riviera"}]}, "similar": {"page": 1, "results": [{"id": 10141, "video": false, "vote_count": 414, "vote_average": 7.1, "title": "Dirty Rotten Scoundrels", "release_date": "1988-12-14", "original_language": "en", "original_title": "Dirty Rotten Scoundrels", "genre_ids": [35, 80], "backdrop_path": "/coemYANmOCtpXE98qdXzQ0uqqG5.jpg", "adult": false, "overview": "Two con men try to settle their rivalry by betting on who can be the first to swindle a young American heiress out of $50,000.", "poster_path": "/fdwW9gwi50lmgPyv2teT2NCjElO.jpg", "popularity": 15.8}, {"id": 381, "video": false, "vote_count": 678, "vote_average": 7.4, "title": "To Catch a Thief", "release_date": "1955-08-03", "original_language": "en", "original_title": "To Catch a Thief", "genre_ids": [80, 18, 9648, 53, 10749], "backdrop_path": "/7Cg4jbFDfmwXqw9Adp2RMntUAFz.jpg", "adult": false, "overview": "To prevent being accused of the crimes, an ex-burglar must catch a thief who\u2019s been copying his style.", "poster_path": "/wizxvCHhWTpJXxRew6FGPGFWTVl.jpg", "popularity": 14.844}, {"adult": false, "backdrop_path": "/yfAmrLsXCGNqA46wjwc61Y4b4rf.jpg", "genre_ids": [35], "id": 17350, "original_language": "fr", "original_title": "Brice de Nice", "overview": "A wannabe surfer parties on the French Riviera while awaiting the perfect wave.", "poster_path": "/1bxno5lAD6PzulewOT9joMfGPsU.jpg", "release_date": "2005-01-01", "title": "The Brice Man", "video": false, "vote_average": 5.5, "vote_count": 799, "popularity": 6.037}, {"adult": false, "backdrop_path": "/6iHDhNeGvJmwZ2isLSAAlluxMVz.jpg", "genre_ids": [35], "id": 40618, "original_language": "en", "original_title": "Bedtime Story", "overview": "Benson, is a Casanova who tricks women into having sex with him before leaving them. He is content with his game until he meets Jamison, a real operator who poses as an exiled prince and not only gets women to share his bed but also to give him money to help him fund his supposed counter-revolution.", "poster_path": "/ijBkNZQxiLihk8MZyJUvO6tJQBA.jpg", "release_date": "1964-01-01", "title": "Bedtime Story", "video": false, "vote_average": 5.6, "vote_count": 15, "popularity": 4.531}, {"id": 262, "video": false, "vote_count": 921, "vote_average": 7.7, "title": "The King of Comedy", "release_date": "1982-12-18", "original_language": "en", "original_title": "The King of Comedy", "genre_ids": [35, 18], "backdrop_path": "/rlWOOdefsyVMbWDYVMsiIb9c47E.jpg", "adult": false, "overview": "Aspiring comic Rupert Pupkin attempts to achieve success in show business by stalking his idol, a late night talk-show host who craves his own privacy.", "poster_path": "/pbAqLKoLydP7jl6P0vmYwlDtRPD.jpg", "popularity": 12.427}, {"adult": false, "backdrop_path": "/sfeED2I0oaFoktTz5ehDdmBBM1E.jpg", "genre_ids": [18, 10749, 10402], "id": 10784, "original_language": "en", "original_title": "Cabaret", "overview": "Inside the Kit Kat Club of 1931 Berlin, starry-eyed singer Sally Bowles and an impish emcee sound the clarion call to decadent fun, while outside a certain political party grows into a brutal force.", "poster_path": "/8xzpXL8WoxceLkrYZiaiUHwiknl.jpg", "release_date": "1972-02-13", "title": "Cabaret", "video": false, "vote_average": 7.5, "vote_count": 461, "popularity": 12.276}, {"id": 801, "video": false, "vote_count": 1384, "vote_average": 7.3, "title": "Good Morning, Vietnam", "release_date": "1987-12-23", "original_language": "en", "original_title": "Good Morning, Vietnam", "genre_ids": [35, 18, 10752], "backdrop_path": "/5HdzBJBdvaqpPHjbH3qcSqHPJ0S.jpg", "adult": false, "overview": "Radio funny man Adrian Cronauer is sent to Vietnam to bring a little comedy back into the lives of the soldiers. After setting up shop, Cronauer delights the G.I.s but shocks his superior officer, Sergeant Major Dickerson, with his irreverent take on the war. While Dickerson attempts to censor Cronauer's broadcasts, Cronauer pursues a relationship with a Vietnamese girl named Trinh, who shows him the horrors of war first-hand.", "poster_path": "/62Ve2yREvobU0qo4DxdSrShh1YO.jpg", "popularity": 12.923}, {"adult": false, "backdrop_path": "/fr8Aon16ksAcjGnv9D2j2A3wAfz.jpg", "genre_ids": [18, 9648, 53], "id": 9729, "original_language": "en", "original_title": "Where the Truth Lies", "overview": "An ambitious reporter probes the reasons behind the sudden split of a 1950s comedy team.", "poster_path": "/kM3SILXjW9YyX8OQbkoVUj1izWQ.jpg", "release_date": "2005-10-07", "title": "Where the Truth Lies", "video": false, "vote_average": 6.1, "vote_count": 145, "popularity": 7.893}, {"id": 13652, "video": false, "vote_count": 143, "vote_average": 5.7, "title": "Ca$h", "release_date": "2008-04-23", "original_language": "fr", "original_title": "Ca$h", "genre_ids": [35, 80, 53], "backdrop_path": "/plLbTLUOvdQGEN1QBbG4IbQ0pvt.jpg", "adult": false, "overview": "A man meets up with two \"good guys\" to recover what is unlawfully his, taking them on his whirlwind ride, doing things they never would have imagined, just to survive.", "poster_path": "/4Lwmsz1qQ0fNBLf5KBBrlzsozee.jpg", "popularity": 9.216}, {"id": 1937, "video": false, "vote_count": 53, "vote_average": 7.1, "title": "Bonjour Tristesse", "release_date": "1958-03-17", "original_language": "en", "original_title": "Bonjour Tristesse", "genre_ids": [18], "backdrop_path": "/1UXTWkXX3ExkTFTLJmtlJ4p7s1F.jpg", "adult": false, "overview": "Cecile is a decadent young girl who lives with her rich playboy father, Raymond. When Anne, Raymond's old love interest, comes to Raymond's villa, Cecile is afraid for her way of life.", "poster_path": "/l2iOoYzwTCTSs5E5Pg9ZFNBrOJ3.jpg", "popularity": 7.321}, {"adult": false, "backdrop_path": "/ovjsAZ0YcfB0CU3nffc3iRdCIE3.jpg", "genre_ids": [10402, 18], "id": 25221, "original_language": "en", "original_title": "For the Boys", "overview": "With the help of the singer and dancer Dixie Leonhard US-Entertainer Eddie Sparks wants to bring some fun to the soldiers during World War II. Becoming a perfect team they tour from North Africa to the Pacific to act for \"the boys\". Later they continue their work but when the author Silver gets involved into McCarthy's campaign and is being fired by Eddie, Dixie turns away from him, too.", "poster_path": "/7cMupruGQjcm43mC30fTazT7pOe.jpg", "release_date": "1991-11-22", "title": "For the Boys", "video": false, "vote_average": 6.4, "vote_count": 34, "popularity": 5.934}, {"adult": false, "backdrop_path": "/6tdWSyRtHWrpuSfhKj1EkL8QaXG.jpg", "genre_ids": [18, 35, 10749], "id": 18425, "original_language": "en", "original_title": "Clubland", "overview": "The shy son of an aging comedienne tries to find a balance between his demanding home life, his new girlfriend, and his mother's second chance at fame.", "poster_path": "/lxm7L3mHiYpI9ID5yrb45ve75WX.jpg", "release_date": "2007-06-28", "title": "Clubland", "video": false, "vote_average": 5.1, "vote_count": 16, "popularity": 2.844}, {"adult": false, "backdrop_path": "/zf6rG4GfJZmlVnCohjq2hzExxOC.jpg", "genre_ids": [35], "id": 38023, "original_language": "en", "original_title": "The Young in Heart", "overview": "The Carletons make a living as card sharps and finding new suckers to mooch off of. When their latest scam backfires, they are asked to leave Monte Carlo. At the train station, they meet Miss Fortune, a very wealthy but lonely elderly lady. As a reward for saving her life after the train derails, Miss Fortune invites the Carletons to come live with her. The family hopes that by winning her affection, they can eventually be named sole beneficiaries in her will. But will a change of heart soften their mercenary feelings before that time comes?", "poster_path": "/gStXJzn4u9zBXxe5Gl29ZAokZZR.jpg", "release_date": "1938-07-06", "title": "The Young in Heart", "video": false, "vote_average": 6.4, "vote_count": 12, "popularity": 2.701}, {"adult": false, "backdrop_path": "/2DpfYDTW0x0Ig4QHogKuyX9KqcH.jpg", "genre_ids": [18, 9648], "id": 95467, "original_language": "en", "original_title": "The Full Treatment", "overview": "British film, released in the United States as \"Stop Me Before I Kill!\". A few hours after their wedding, international racing driver, Alan Colby and his new wife Denise, are involved in a horrific car crash. Alan's physical injuries heal but the mental blackouts continue. Denise suggests a delayed honeymoon in the south of France and it is here that eminent psychiatrist, Dr. Prade, promises a complete treatment to cure Alan's suffering. The couple accept his offer unaware that it comes from a mind more hideously disturbed and psychologically unbalanced than Alan's.", "poster_path": "/5C8cZ5uOynaQEKej8tteXN5lJ3g.jpg", "release_date": "1960-10-01", "title": "The Full Treatment", "video": false, "vote_average": 6.4, "vote_count": 7, "popularity": 2.756}, {"id": 293271, "video": false, "vote_count": 17, "vote_average": 6.0, "title": "Moomins on the Riviera", "release_date": "2014-10-10", "original_language": "fi", "original_title": "Muumit Rivieralla", "genre_ids": [16, 35, 10751], "backdrop_path": "/vcnWK4jt6s8c62dlsEq8P260YH8.jpg", "adult": false, "overview": "The Moomins along with Little My and Snorkmaiden had a sea journey that after storms and desert island dangers leads the family to Riviera, the place that takes their unity to the test.", "poster_path": "/qCmOWSFuG3MyGhqo8XteUlgMY9p.jpg", "popularity": 4.519}, {"adult": false, "backdrop_path": "/s9WpjhfZBXiLCl91e8TNJU1CS8y.jpg", "genre_ids": [10749, 37], "id": 40716, "original_language": "en", "original_title": "Flame of Barbary Coast", "overview": "Duke Fergus falls for Ann 'Flaxen' Tarry in the Barbary Coast in turn-of-the-century San Francisco. He loses money to crooked gambler Boss Tito Morell, goes home, learns to gamble, and returns. After he makes a fortune, he opens his own place with Flaxen as the entertainer; but the 1906 quake destroys his place.", "poster_path": "/cuW9HCAXQFkfhJhDutugC3JlOMU.jpg", "release_date": "1945-05-28", "title": "Flame of Barbary Coast", "video": false, "vote_average": 6.5, "vote_count": 6, "popularity": 3.742}, {"id": 511404, "video": false, "vote_count": 30, "vote_average": 4.8, "title": "The Summer House", "release_date": "2019-01-30", "original_language": "fr", "original_title": "Les Estivants", "genre_ids": [18], "backdrop_path": "/6n363AnyQvCI6z7AUcBBNBptg2k.jpg", "adult": false, "overview": "A large and beautiful property on the French Riviera. A place that seems out of time and sheltered from the rest of the world. Anna goes there with her daughter for a few days of vacation. Amidst her family, friends and the house staff, Anna has to handle her fresh break-up with her partner and the writing of her next film.", "poster_path": "/nTp4XoVgjUwJ0yeUrgILVmzf4eU.jpg", "popularity": 3.597}, {"id": 36055, "video": false, "vote_count": 26, "vote_average": 5.5, "title": "Easy Virtue", "release_date": "1928-03-05", "original_language": "en", "original_title": "Easy Virtue", "genre_ids": [18, 53], "backdrop_path": "/xV8MSLYxyjTX0L1jeCOhGMsDsmX.jpg", "adult": false, "overview": "Larita Filton is named as correspondent in a scandalous divorce case. She escapes to France to rebuild her life where she meets John Whittaker. They are later married, but John's well-to-do family finds out Larita's secret.", "poster_path": "/blrQSfCOBJAKxWptjRnVI3AYvH2.jpg", "popularity": 4.102}, {"adult": false, "backdrop_path": "/sGpe3TbEGzAr6vjAwdm9QTeZPwO.jpg", "genre_ids": [53, 18, 80], "id": 38421, "original_language": "fr", "original_title": "Les f\u00e9lins", "overview": "A small-time con man on the run from the gangster husband of his girlfriend hides out in a strange, brooding mansion run by two mysterious women. There he finds himself trapped in deception between the two women. Shot on location in the French Riviera.", "poster_path": "/jv6JsU8YASFea46LetqADnmpcJO.jpg", "release_date": "1964-06-12", "title": "Joy House", "video": false, "vote_average": 6.8, "vote_count": 25, "popularity": 3.982}, {"adult": false, "backdrop_path": "/ma6N3vvpYr2zxpUBhmd7IFfAROj.jpg", "genre_ids": [18, 10749, 53], "id": 87936, "original_language": "en", "original_title": "Beautiful Stranger", "overview": "An ex-chorus girl lives on the Riviera, supported by a married man she doesn't know is a crook.", "poster_path": "/AlRwfKCF4qRTO74EQXDnBP9FYRo.jpg", "release_date": "1954-07-13", "title": "Beautiful Stranger", "video": false, "vote_average": 4.6, "vote_count": 5, "popularity": 3.094}], "total_pages": 3, "total_results": 54}, "recommendations": {"page": 1, "results": [], "total_pages": 1, "total_results": 0}, "credits": {"cast": [{"cast_id": 1, "character": "Jack Martin / Henri Duran", "credit_id": "52fe45eac3a368484e076543", "gender": 2, "id": 70668, "name": "Danny Kaye", "order": 0, "profile_path": "/ujGKKit18fHDsF0ZDPTxTFsDbX7.jpg"}, {"cast_id": 2, "character": "Lili Duran", "credit_id": "52fe45eac3a368484e076547", "gender": 1, "id": 20124, "name": "Gene Tierney", "order": 1, "profile_path": "/vaIZ0zvgf9yru5etvxlDwkcpUdf.jpg"}, {"cast_id": 3, "character": "Colette", "credit_id": "52fe45eac3a368484e07654b", "gender": 1, "id": 83488, "name": "Corinne Calvet", "order": 2, "profile_path": "/s7A4yTOfYpYpJ36Pu4lt7RyyiEe.jpg"}, {"cast_id": 4, "character": "Philippe Lebrix", "credit_id": "52fe45eac3a368484e07654f", "gender": 2, "id": 4121, "name": "Marcel Dalio", "order": 3, "profile_path": "/94KNwaGiHHWNRZB5qVlYPp46jno.jpg"}, {"cast_id": 5, "character": "Felix Periton", "credit_id": "52fe45eac3a368484e076553", "gender": 2, "id": 37143, "name": "Jean Murat", "order": 4, "profile_path": "/j1vQYRCtmtpxG64L1qGqvPwKsxj.jpg"}, {"cast_id": 6, "character": "Louis Foral", "credit_id": "52fe45eac3a368484e076557", "gender": 2, "id": 97284, "name": "Henri Letondal", "order": 5, "profile_path": "/uSaLbsL8aujGaKNInAjfXn90tcI.jpg"}, {"cast_id": 11, "character": "Antoine", "credit_id": "5b6b675a0e0a267ee7125792", "gender": 2, "id": 94112, "name": "Clinton Sundberg", "order": 6, "profile_path": "/ird4IaorvWN07a4CBQmy6Xl7oL.jpg"}, {"cast_id": 12, "character": "Gapeaux", "credit_id": "5b6b676c92514140560fa215", "gender": 2, "id": 2497, "name": "Sig Ruman", "order": 7, "profile_path": "/dLIbjEEB2eB4miGFYdPTOyGAF0j.jpg"}, {"cast_id": 13, "character": "Mimi (as Joyce MacKenzie)", "credit_id": "5b6b677c0e0a267ef411dd5c", "gender": 0, "id": 37445, "name": "Joyce Mackenzie", "order": 8, "profile_path": "/sCRHpvKTw5fIMp6fwQtNSfUTqV9.jpg"}, {"cast_id": 14, "character": "Minette", "credit_id": "5b6b678f0e0a267eeb12b8e8", "gender": 0, "id": 2102816, "name": "Monique Chantal", "order": 9, "profile_path": null}, {"cast_id": 15, "character": "Mme. Louise Cornet", "credit_id": "5b6b67a69251410341026ff0", "gender": 0, "id": 982031, "name": "Marina Koshetz", "order": 10, "profile_path": null}], "crew": [{"credit_id": "52fe45eac3a368484e076563", "department": "Writing", "gender": 2, "id": 65481, "job": "Screenplay", "name": "Valentine Davies", "profile_path": null}, {"credit_id": "52fe45eac3a368484e07655d", "department": "Directing", "gender": 2, "id": 80570, "job": "Director", "name": "Walter Lang", "profile_path": "/yn0CkRMug4xZOnPK7CIEfX3WDg3.jpg"}, {"credit_id": "52fe45eac3a368484e076569", "department": "Writing", "gender": 0, "id": 122963, "job": "Screenplay", "name": "Phoebe Ephron", "profile_path": "/nYKGSkD1ktSjc8brp9AN3qZcdlt.jpg"}, {"credit_id": "52fe45eac3a368484e07656f", "department": "Writing", "gender": 0, "id": 122964, "job": "Screenplay", "name": "Henry Ephron", "profile_path": "/hfbd1CeAICXyesMBDqY3c2ahR0d.jpg"}, {"credit_id": "5b6b697992514168b6093615", "department": "Writing", "gender": 0, "id": 1301146, "job": "Theatre Play", "name": "Rudolph Lothar", "profile_path": null}, {"credit_id": "5b6b6989c3a368537508c473", "department": "Writing", "gender": 0, "id": 1301147, "job": "Theatre Play", "name": "Hans Adler", "profile_path": null}, {"credit_id": "5b6b69980e0a267ef8124e65", "department": "Writing", "gender": 0, "id": 1371948, "job": "Adaptation", "name": "Jessie Ernst", "profile_path": null}]}}