{"adult": false, "backdrop_path": "/tcDwHGFfuQG59oBaJufIRCgnn0H.jpg", "belongs_to_collection": null, "budget": 0, "genres": [{"id": 18, "name": "Drama"}, {"id": 10749, "name": "Romance"}, {"id": 28, "name": "Action"}, {"id": 35, "name": "Comedy"}], "homepage": null, "id": 296640, "imdb_id": "tt0288784", "original_language": "ta", "original_title": "Rajathi Raja", "overview": "A rich estate owner is killed by his second wife and her brother Aadimoolam. The estate owner's son Raja returns from USA and learns of this. In order to bring the culprits to book, he makes his friend Sethupati, a rickshaw puller, act as Raja.", "popularity": 2.639, "poster_path": "/s3NbpJsZ7l4K3hyHrHUDCqoUsJO.jpg", "production_companies": [{"id": 34850, "logo_path": null, "name": "Paavalar Creation", "origin_country": ""}], "production_countries": [{"iso_3166_1": "IN", "name": "India"}], "release_date": "1989-03-04", "revenue": 0, "runtime": 137, "spoken_languages": [{"iso_639_1": "ta", "name": "\u0ba4\u0bae\u0bbf\u0bb4\u0bcd"}], "status": "Released", "tagline": "", "title": "Rajathi Raja", "video": false, "vote_average": 6.0, "vote_count": 2, "keywords": {"keywords": [{"id": 163129, "name": "dual role"}, {"id": 210243, "name": "village drama"}]}, "similar": {"page": 1, "results": [{"adult": false, "backdrop_path": "/xYXj9gY7xKFaSTJ8FuSVn3Vc2Ha.jpg", "genre_ids": [16, 14, 28, 878, 10749], "id": 19738, "original_language": "ja", "original_title": "\u5c11\u5973\u9769\u547d\u30a6\u30c6\u30ca \u30a2\u30c9\u30a5\u30ec\u30bb\u30f3\u30b9\u9ed9\u793a\u9332", "overview": "In a loose retelling of the Revolutionary Girl Utena TV series, Utena Tenjou arrives at Ohtori Academy, only to be immediately swept up in a series of duels for the hand of her classmate Anthy Himemiya and the power she supposedly holds. At the same time, Utena reunites with Touga Kiryuu, a friend from her childhood who seems to know the secrets behind the duels. Utena must discover those secrets for herself, before the power that rules Ohtori claims her and her friends, new and old.", "poster_path": "/4gEuxmg7OTc9Nxbg5pj5cVTaKCh.jpg", "release_date": "1999-08-14", "title": "Revolutionary Girl Utena: The Adolescence of Utena", "video": false, "vote_average": 7.5, "vote_count": 23, "popularity": 7.173}, {"id": 14136, "video": false, "vote_count": 272, "vote_average": 6.4, "title": "The Love Bug", "release_date": "1968-12-22", "original_language": "en", "original_title": "The Love Bug", "genre_ids": [35, 14, 10751], "backdrop_path": "/5OCkbaGGsyOGhqjMtHIcBSs0U9L.jpg", "adult": false, "overview": "Herbie is a car - but no ordinary car. The story follows the Volkswagen Beetle with a mind of its own from the showroom to the race track, with various close escapes in between. Three further Herbie movies were to follow.", "poster_path": "/9Lc1efdYZUZia2zsRWcUkiD1KdN.jpg", "popularity": 12.267}, {"adult": false, "backdrop_path": "/aSvbBOKvjUnzFaN6Rv1X3JVQen9.jpg", "genre_ids": [9648, 53, 80], "id": 31696, "original_language": "en", "original_title": "A Kiss Before Dying", "overview": "Infatuated with the idea of becoming rich, college student Jonathan Corliss secretly dates Dorothy Carlsson to gain the approval of her wealthy father. When Dorothy tells Jonathan that she is pregnant and that her father will deny her inheritance if he finds out, Jonathan murders her, but he stages her death as a suicide. As Jonathan works his way onto Mr. Carlsson's payroll, Dorothy's twin sister, Ellen, investigates the apparent suicide.", "poster_path": "/jmMwYNfkcKaH2GKgGq9VlRlYjWZ.jpg", "release_date": "1991-04-26", "title": "A Kiss Before Dying", "video": false, "vote_average": 5.9, "vote_count": 40, "popularity": 6.326}, {"adult": false, "backdrop_path": "/qu3a8FOrM5AQIZpFDTEYXqkAStt.jpg", "genre_ids": [28, 878], "id": 148284, "original_language": "ta", "original_title": "\u0b8e\u0ba8\u0bcd\u0ba4\u0bbf\u0bb0\u0ba9\u0bcd", "overview": "Dr. Vasi invents a super-powered robot, Chitti, in his own image. The scientific body, AIRD, that must approve the robot, declines it based on its not having emotions and the ability to make rational judgment. A sudden flash of lightning evokes emotions in the robot, and Chitti is seemingly ready for integration into the human world. Then, Chitti falls in love with Dr. Vasi's fianc\u00e9e Sana and turns on his creator.", "poster_path": "/jsYe3vYzak7S5LPVHSoWsPJtD7z.jpg", "release_date": "2010-10-01", "title": "Enthiran", "video": false, "vote_average": 6.4, "vote_count": 102, "popularity": 8.164}, {"adult": false, "backdrop_path": "/7YdpQefm9sxAoDz1b3lKnGJgV3W.jpg", "genre_ids": [35, 18], "id": 356783, "original_language": "ml", "original_title": "\u0d15\u0d41\u0d1e\u0d4d\u0d1e\u0d3f\u0d30\u0d3e\u0d2e\u0d3e\u0d2f\u0d23\u0d02", "overview": "Kunjiraman (Vineeth Sreenivasan), nephew of Well-done Vasu (Mamukkoya), plans to marry Vasu's daughter Thankamani. All plans are thwarted by Kunjiraman's dim-witted cousin brother Laalu (Dhyan Sreenivasan). To avenge this he goes to Gulf to make money and returns to his hometown Desam.", "poster_path": "/dFECnBne6ZiZLTKtOhbdj5LoRWb.jpg", "release_date": "2015-08-28", "title": "Kunjiramayanam", "video": false, "vote_average": 6.6, "vote_count": 9, "popularity": 2.298}, {"adult": false, "backdrop_path": null, "genre_ids": [10749, 18, 10751], "id": 261848, "original_language": "ta", "original_title": "\u0baa\u0b9a\u0bc1\u0bae\u0bcd\u0baa\u0bca\u0ba9\u0bcd", "overview": "Pasumpon is a 1995 Indian Tamil drama film, directed by P. Bharathiraja, starring Prabhu, Sivaji Ganesan, Sivakumar, Raadhika Sarathkumar and Saranya Ponvannan in lead roles. The film, produced by V. Mohan and V. Natarajan, had musical score by Vidyasagar and was released on 14 April 1995.", "poster_path": "/uk1IVFDwmusOHXxGQM1UoQDlyqh.jpg", "release_date": "1995-04-14", "title": "Pasumpon", "video": false, "vote_average": 7.0, "vote_count": 1, "popularity": 2.297}, {"adult": false, "backdrop_path": "/eIDyJEmw4JE6mrTA5r5h78tFrV2.jpg", "genre_ids": [35, 28], "id": 458724, "original_language": "ta", "original_title": "\u0b95\u0bca\u0b9f\u0bbf \u0bb5\u0bc0\u0bb0\u0ba9\u0bcd", "overview": "To protect his sister and her husband, a man who is revered as God by his villagers takes on the evil men who are hell bent of destroying their lives.", "poster_path": "/mFJSlO0aVP9trIHlYy5boybv3Rc.jpg", "release_date": "2017-12-07", "title": "Kodiveeran", "video": false, "vote_average": 5.3, "vote_count": 4, "popularity": 1.306}, {"id": 153879, "video": false, "vote_count": 3, "vote_average": 3.0, "title": "Mask of Death", "release_date": "1996-05-25", "original_language": "en", "original_title": "Mask of Death", "genre_ids": [28, 53], "backdrop_path": "/aLZY3a620RrPuZPRqZSRg9kFTq1.jpg", "adult": false, "overview": "While attempting to flee from the FBI, the criminal Frank Dallio kills Detective McKenna's wife, Rachel. McKenna himself is shot in the face by the professional killer Lyle Mason, who dies in a car crash shortly thereafter. The FBI persuades McKenna to undergo facial surgery and take the place of Lyle Mason in order to find Dallio and a valuable microchip.", "poster_path": "/eTUwRqv0r5NpW7pqpUdtuFDCvvH.jpg", "popularity": 3.329}, {"adult": false, "backdrop_path": "/pfUXjnD8AcZU42AY5lG3B82HRje.jpg", "genre_ids": [53, 28, 10749], "id": 500565, "original_language": "te", "original_title": "\u0c15\u0c43\u0c37\u0c4d\u0c23\u0c3e\u0c30\u0c4d\u0c1c\u0c41\u0c28 \u0c2f\u0c41\u0c26\u0c4d\u0c27\u0c02", "overview": "Krishna is the hot-blooded, aimless, flirt of a man from Chittoor whose only aim in life is to find a girl who will love him back. Continents away in Prague is his look-alike Arjun, the playboy rockstar who doesn\u2019t have a problem bedding girls at all. But what happens that brings Krishna and Arjun together is what the film is all about.", "poster_path": "/lWg0om9IHezUw2JBS1UJRMwSfMQ.jpg", "release_date": "2018-04-12", "title": "Krishnarjuna Yudham", "video": false, "vote_average": 4.8, "vote_count": 4, "popularity": 1.223}, {"adult": false, "backdrop_path": "/jHFAF6IW5mryt7DRdqoT2vcg9KM.jpg", "genre_ids": [10751, 18, 10749], "id": 106844, "original_language": "en", "original_title": "Vedham Puthithu", "overview": "Vedham Pudhithu starring Sathyaraj and Amala is a critically acclaimed Tamil movie, directed by Bharathiraja. Charuhasan, Saritha, Raja and 'Nizhalgal' Ravi played supporting roles in the movie. The story and dialogue was written by Kannan.  This is one of the few films that highlights some of the issues caused by the Caste system. The film's narrative was seamless and starred Sathyaraj as Balu Thevar. It contains some of Bharathiraja's trademark directorial touches as well as a lot of path breaking scenes, along with Kannan's powerful dialogues.", "poster_path": "/r2LwugUugcvLaCNDupoHIjIlPn8.jpg", "release_date": "1987-12-27", "title": "Vedham Puthithu", "video": false, "vote_average": 0.0, "vote_count": 0, "popularity": 0.934}, {"adult": false, "backdrop_path": "/uTTcWsB9tbUrC8bO2sYqySr9IyG.jpg", "genre_ids": [27, 53], "id": 41959, "original_language": "en", "original_title": "Jack's Back", "overview": "A young doctor is suspected when a series of Jack the Ripper copycat killings is committed. However, when the doctor himself is murdered, his identical twin brother claims to have seen visions of the true killer.", "poster_path": "/cfJELOMyamW4iFtVuIlZyFrjbKh.jpg", "release_date": "1988-05-06", "title": "Jack's Back", "video": false, "vote_average": 5.7, "vote_count": 28, "popularity": 4.196}, {"adult": false, "backdrop_path": "/4eHQyrMQIBKPQqfqHOB6YoRtjO.jpg", "genre_ids": [35], "id": 198264, "original_language": "ta", "original_title": "Thillu Mullu", "overview": "A situational comedy with some sparkling lines, the film is about Pasupathy who is in dire need of a job, and of the lie he tells to land one. The lie helps him gain the confidence of his eccentric employer, and endear Pasupathy to him. To cover up the lie, Pasupathy has to spin many more yarns with his family and friends supporting his stories. At one point, he conjures up a twin, Kandhan, a karate master, and even a fake mother. But when Kandhan falls in love with the boss\u2019s daughter Janani, matters spiral out of his control.", "poster_path": "/48DHPw4GxuN81zVRJghIPNNMWsR.jpg", "release_date": "2013-06-14", "title": "Thillu Mullu", "video": false, "vote_average": 3.8, "vote_count": 4, "popularity": 1.086}, {"adult": false, "backdrop_path": null, "genre_ids": [10749, 18], "id": 322099, "original_language": "ta", "original_title": "\u0b95\u0bb0\u0bc1\u0ba4\u0bcd\u0ba4\u0bae\u0bcd\u0bae\u0bbe", "overview": "Karuththamma (1994) is a Tamil feature film directed by Bharathiraja. The film's score and soundtrack are composed by A. R. Rahman. The film met with critical acclaim upon release and received accolades.  The film looks at female infanticide and the hatred that surrounds the birth of a female child. A father blames his miseries on the birth of his daughters. Set in a rural village. Karuthamma was released to critical acclaim.", "poster_path": "/eAnBbV6z3y2UPTARDexnIGtOVsB.jpg", "release_date": "1994-11-03", "title": "Karuththamma", "video": false, "vote_average": 8.3, "vote_count": 2, "popularity": 0.986}, {"adult": false, "backdrop_path": null, "genre_ids": [35, 18], "id": 148115, "original_language": "en", "original_title": "Take My Advice:  The Ann and Abby Story", "overview": "Biography of feuding advice columnist twins, Ann Landers and Abby Van Buren, starts with their early lives in Sioux City, Iowa when they were known as Esther and Pauline through their double wedding and follows them into their columnist successes. However, much of the film also concentrates on their personal and professional feuds that ran the course of their lives. Written by John Sacksteder", "poster_path": "/elcxu9dIQD4wgPThQuKLy0ER9Mv.jpg", "release_date": "1999-07-19", "title": "Take My Advice:  The Ann and Abby Story", "video": false, "vote_average": 6.0, "vote_count": 1, "popularity": 0.6}, {"adult": false, "backdrop_path": "/uIU995jYhJPW227jfj6NMXNyXD3.jpg", "genre_ids": [10751, 35, 18, 10749], "id": 322082, "original_language": "ta", "original_title": "\u0b89\u0bb2\u0b95\u0bae\u0bcd \u0baa\u0bbf\u0bb1\u0ba8\u0bcd\u0ba4\u0ba4\u0bc1 \u0b8e\u0ba9\u0b95\u0bcd\u0b95\u0bbe\u0b95", "overview": "Raja is a rich person who returns from America to India. He gets surprised when most of them call him with different name and later he sees another look alike , Quarter Govindan,  jobless guy and wanted to earn money for his Sister's life. Raja requests another Govindan to pretend like him, so that he will be able to find his enemies.", "poster_path": "/5NP94joIur768nnPlO3MAJ75Mb0.jpg", "release_date": "1990-04-14", "title": "Ulagam Pirandhadhu Enakkaga", "video": false, "vote_average": 0.0, "vote_count": 0, "popularity": 0.6}, {"adult": false, "backdrop_path": null, "genre_ids": [10749, 18], "id": 99619, "original_language": "ta", "original_title": "\u0b95\u0bc1\u0b99\u0bcd\u0b95\u0bc1\u0bae\u0baa\u0bc2\u0bb5\u0bc1\u0bae\u0bcd \u0b95\u0bca\u0b9e\u0bcd\u0b9a\u0bc1\u0bae\u0bcd\u0baa\u0bc1\u0bb1\u0bbe\u0bb5\u0bc1\u0bae\u0bcd", "overview": "Thulasi comes to Muttam village along with her grandmother after her parent's desert her. She joins a government school in the village to pursue her studies. Enters Koochan who falls for her instantly. Koochan's mother Chandra helps the poor Thulasi to pursue her studies. However coming to know about their romance, Agavamma insults Thulasi and her grandmother and drives them out of the village when Koochan is out on a school tour. A shocked Koochan returns back only to meet with a road mishap. Meanwhile, Thulasi, who seeks refuge in a family at Tuticorin is forced to marry a rowdy Dharma. On the day of their marriage, he gets arrested by police. His wayward lifestyle invites trouble and he eventually gets arrested for murdering a youth. An annoyed Thulasi returns to Muttam only to see Koochan lost himself in liquor after his love failure. Meanwhile, Koochan resolves to set right Thulasi's life. But things take a turn when Dharma comes to Muttam after getting bail.", "poster_path": "/vo2X9N7Kc5AlDiCZntC7BLcHNQG.jpg", "release_date": "2009-04-24", "title": "Kunguma Poovum Konjum Puravum", "video": false, "vote_average": 0.0, "vote_count": 0, "popularity": 0.603}, {"id": 433702, "video": false, "vote_count": 1, "vote_average": 7.5, "title": "Kamen Rider Hibiki & The Seven Senki", "release_date": "2005-09-03", "original_language": "ja", "original_title": "\u5287\u5834\u7248\u3000\u4eee\u9762\u30e9\u30a4\u30c0\u30fc\u97ff\u9b3c\u3068\uff17\u4eba\u306e\u6226\u9b3c", "genre_ids": [28, 12, 878], "backdrop_path": "/s00iUH4rlAmiaIkiGTQZhyclwOC.jpg", "adult": false, "overview": "This movie marks the debut of Kamen Rider Hibiki's final form and also explains the history of the Makamou and Oni war.", "poster_path": "/j4DXUaHHZGQLQxzcszPQx4H1A37.jpg", "popularity": 3.262}, {"adult": false, "backdrop_path": "/rxZijSqk4NyLfLMMcZzk36PZLYd.jpg", "genre_ids": [53, 18], "id": 483701, "original_language": "ta", "original_title": "\u0b95\u0bb3\u0ba4\u0bcd\u0ba4\u0bc2\u0bb0\u0bcd \u0b95\u0bbf\u0bb0\u0bbe\u0bae\u0bae\u0bcd", "overview": "A devastated youngster awaits a chance to take revenge on his father's murderer, who is seen as a leader in a village.", "poster_path": "/z1u3BUcDsGmQbBCzRsJGzmUnvxB.jpg", "release_date": "2017-10-27", "title": "Kalathur Gramam", "video": false, "vote_average": 0.0, "vote_count": 0, "popularity": 0.84}, {"adult": false, "backdrop_path": "/3pS2hKXC0jqWiMxLLTi26slC5Zf.jpg", "genre_ids": [27], "id": 84512, "original_language": "en", "original_title": "Dr. Jekyll and Mr. Hyde", "overview": "Dr. Henry Jekyll experiments with scientific means of revealing the hidden, dark side of man and releases a murderer from within himself.", "poster_path": null, "release_date": "1913-03-06", "title": "Dr. Jekyll and Mr. Hyde", "video": false, "vote_average": 4.6, "vote_count": 4, "popularity": 0.737}, {"id": 30131, "video": false, "vote_count": 6, "vote_average": 7.5, "title": "El Siete Machos", "release_date": "1951-02-05", "original_language": "es", "original_title": "El Siete Machos", "genre_ids": [35, 37], "backdrop_path": "/9y7wqLx7krE6wfeOZOOJ88UQibj.jpg", "adult": false, "overview": "Rosario, the niece of the rancher, returns to the ranch after ten years of absence. She takes in Margarito, a worker at the ranch, who is immediately smitten by her. Rosario is rescued from a runaway horse by the Seven Men, an outlaw a la Robin Hood that steals from the rich and gives to the poor. He also happens to be the twin brother of Margarito, unbeknownst to him. The confusion between Margarito and the Seven Men generates great comical situations in the film.", "poster_path": "/1mEoDSJSkLYRgqNRnnMHoc641Ib.jpg", "popularity": 2.195}], "total_pages": 2, "total_results": 25}, "recommendations": {"page": 1, "results": [], "total_pages": 1, "total_results": 0}, "credits": {"cast": [{"cast_id": 1, "character": "Raja/Chinnarasu", "credit_id": "54358a75c3a368111a0001fa", "gender": 2, "id": 91555, "name": "Rajinikanth", "order": 2, "profile_path": "/sW64YsElb5pYybxE0C5h00u4chl.jpg"}, {"cast_id": 2, "character": "Senkamalam", "credit_id": "54358aaac3a36836e70001e0", "gender": 1, "id": 584349, "name": "Radha", "order": 3, "profile_path": "/uti2dCHrzMNjEqUlwc0kapaiBQV.jpg"}, {"cast_id": 3, "character": "Lakshmi", "credit_id": "54358ac30e0a2624b9000103", "gender": 1, "id": 237986, "name": "Nadhiya", "order": 4, "profile_path": "/x8eAO4jlwndKpGmo9wdNup2VoR2.jpg"}, {"cast_id": 4, "character": "Sethupati", "credit_id": "54cd8c299251414755003174", "gender": 0, "id": 131258, "name": "Janagaraj", "order": 5, "profile_path": "/xEOZQDzteaVxOFNaUdittUfKXB4.jpg"}, {"cast_id": 5, "character": "Aadimoolam", "credit_id": "54cd8c47c3a3687f840032f4", "gender": 2, "id": 237627, "name": "Radha Ravi", "order": 6, "profile_path": "/fTY6pAOgJfmF636sQAQWrIiloOn.jpg"}, {"cast_id": 6, "character": "", "credit_id": "54cd8c52925141475b00318f", "gender": 1, "id": 584354, "name": "Y. Vijaya", "order": 7, "profile_path": "/zyo1kuf67tOhWtecyn8uGaahDsS.jpg"}, {"cast_id": 7, "character": "", "credit_id": "54cd8c61925141474b00316c", "gender": 2, "id": 581072, "name": "Anandaraj", "order": 8, "profile_path": "/gZxzckfurzV0oQOME8b1ATNoMHD.jpg"}, {"cast_id": 8, "character": "", "credit_id": "54cd8c699251414755003185", "gender": 2, "id": 238021, "name": "Vinu Chakravarthy", "order": 9, "profile_path": "/33epqfFsdM3CTelj6kODt86lMWA.jpg"}], "crew": [{"credit_id": "54cd8f1fc3a3687f88003551", "department": "Sound", "gender": 2, "id": 76888, "job": "Music", "name": "Ilaiyaraaja", "profile_path": "/63cUzMq4xFWCjwSLpaPVM6QFTyW.jpg"}, {"credit_id": "54cd8f2ac3a3687f8f003217", "department": "Editing", "gender": 2, "id": 110702, "job": "Editor", "name": "B. Lenin", "profile_path": "/1LZ1xQkE0KTwWc2u8lU6FeE3bjY.jpg"}, {"credit_id": "54cd8f4cc3a3687f8200335a", "department": "Editing", "gender": 2, "id": 545004, "job": "Editor", "name": "V. T. Vijayan", "profile_path": null}, {"credit_id": "54cd8e57c3a3687f8f0031ea", "department": "Directing", "gender": 0, "id": 581075, "job": "Director", "name": "R. Sundarrajan", "profile_path": "/7beqlK5IpTLEul7h4xCuNv5cgFb.jpg"}, {"credit_id": "54cd8ece9251415fb3001be4", "department": "Writing", "gender": 0, "id": 581075, "job": "Story", "name": "R. Sundarrajan", "profile_path": "/7beqlK5IpTLEul7h4xCuNv5cgFb.jpg"}, {"credit_id": "54cd8ea9c3a3687f84003382", "department": "Writing", "gender": 2, "id": 585293, "job": "Screenplay", "name": "Panchu Arunachalam", "profile_path": null}, {"credit_id": "54cd8f5fc3a3687f8c00312a", "department": "Crew", "gender": 0, "id": 1339749, "job": "Cinematography", "name": "Rajarajan", "profile_path": null}, {"credit_id": "54cd8e82c3a3687f82003325", "department": "Production", "gender": 0, "id": 1339754, "job": "Producer", "name": "R. D. Bhaskar", "profile_path": null}]}}