{"adult": false, "backdrop_path": "/t3Aj37IyVq8JiY5WbEeIHcX8Ens.jpg", "belongs_to_collection": null, "budget": 0, "genres": [{"id": 35, "name": "Comedy"}, {"id": 10749, "name": "Romance"}], "homepage": "http://fashionking.zone/", "id": 297292, "imdb_id": "tt3485192", "original_language": "ko", "original_title": "\ud328\uc158\uc655", "overview": "A teenaged boy transforms from a \u2018fashion terrorist\u2019 to a \u2018fashion king\u2019 in order to win the heart of the prettiest girl in school. The story is about high school boy Ki-myung, who has a crush on the prettiest girl in his class and opens his eyes to fashion in order to become the best dressed person in the world.", "popularity": 1.917, "poster_path": "/hFZSkIRoEUOONGelcPKGevIa2Ap.jpg", "production_companies": [{"id": 20064, "logo_path": "/6HvsksiEE7DknfZU5HT1mUs563q.png", "name": "Next Entertainment World", "origin_country": "KR"}], "production_countries": [{"iso_3166_1": "KR", "name": "South Korea"}], "release_date": "2014-11-06", "revenue": 0, "runtime": 127, "spoken_languages": [{"iso_639_1": "ko", "name": "\ud55c\uad6d\uc5b4/\uc870\uc120\ub9d0"}], "status": "Released", "tagline": "", "title": "Fashion King", "video": false, "vote_average": 5.8, "vote_count": 9, "keywords": {"keywords": []}, "similar": {"page": 1, "results": [{"adult": false, "backdrop_path": "/bQW1TnxHlmkWof0vsALj4HBkoxj.jpg", "genre_ids": [18, 10749], "id": 51828, "original_language": "en", "original_title": "One Day", "overview": "A romantic comedy centered on Dexter and Emma, who first meet during their graduation in 1988 and proceed to keep in touch regularly. The film follows what they do on July 15 annually, usually doing something together.", "poster_path": "/xzOz17yC3K6SZWtWylXimcHUqpD.jpg", "release_date": "2011-03-02", "title": "One Day", "video": false, "vote_average": 7.2, "vote_count": 2343, "popularity": 16.744}, {"id": 200727, "video": false, "vote_count": 3991, "vote_average": 7.8, "title": "Love, Rosie", "release_date": "2014-10-16", "original_language": "en", "original_title": "Love, Rosie", "genre_ids": [35, 10749], "backdrop_path": "/ifokXGHhxSImZKZB4NROO3FN9Ho.jpg", "adult": false, "overview": "Since the moment they met at age 5, Rosie and Alex have been best friends, facing the highs and lows of growing up side by side. A fleeting shared moment, one missed opportunity, and the decisions that follow send their lives in completely different directions. As each navigates the complexities of life, love, and everything in between, they always find their way back to each other - but is it just friendship, or something more?  Based on Cecelia Ahern's bestselling novel, LOVE, ROSIE is a heart-warming, modern comedy-of-errors posing the ultimate question: do we really only get one shot at true love?", "poster_path": "/qGYr7P3s0gx5YLvrILnbAkpTt1K.jpg", "popularity": 16.048}, {"adult": false, "backdrop_path": "/7FdY6kCnk2IOcH2EngyhHkYP1td.jpg", "genre_ids": [35, 10749], "id": 10761, "original_language": "en", "original_title": "Made of Honor", "overview": "Tom and Hannah have been platonic friends for 10 years. He's a serial dater, while she wants marriage but hasn't found Mr. Right. Just as Tom is starting to think that he is relationship material after all, Hannah gets engaged. When she asks Tom to be her 'maid' of honor, he reluctantly agrees just so he can attempt to stop the wedding and woo her.", "poster_path": "/676inzl4mQBKdXTfkv6XCXGCi4.jpg", "release_date": "2008-05-02", "title": "Made of Honor", "video": false, "vote_average": 6.3, "vote_count": 966, "popularity": 19.852}, {"adult": false, "backdrop_path": "/25PacoKjy6iQgYcs3PqGZq20Bh9.jpg", "genre_ids": [35, 10749], "id": 41630, "original_language": "en", "original_title": "No Strings Attached", "overview": "Emma is a busy doctor who sets up a seemingly perfect arrangement when she offers her best friend Adam a relationship with one rule: No strings attached. But when a fling becomes a thing, can sex friends stay best friends?", "poster_path": "/1AxDwc2eugEvG4dRTear9q8Hzmw.jpg", "release_date": "2011-01-21", "title": "No Strings Attached", "video": false, "vote_average": 6.2, "vote_count": 2937, "popularity": 16.618}, {"adult": false, "backdrop_path": "/bYbnlh6VXFRtcSX82UMDsBDLB5j.jpg", "genre_ids": [18, 10749], "id": 28468, "original_language": "it", "original_title": "La chiave", "overview": "After twenty years of marriage, art professor Nino Rolfe attempts to break down his wife Teresa's conventional modesty. Noticing her affection for their daughter's fianc\u00e9, Nino instigates her sexual interest in him as well. This sets off a chain of unexpected events and emotional complications, as Nino and his unpredictable fascist daughter find that they both enjoy being jealous.", "poster_path": "/e6g2geNLgFzMbriH6EvSJZD78nx.jpg", "release_date": "1983-10-18", "title": "The Key", "video": false, "vote_average": 5.0, "vote_count": 128, "popularity": 15.363}, {"id": 38, "video": false, "vote_count": 8445, "vote_average": 8.1, "title": "Eternal Sunshine of the Spotless Mind", "release_date": "2004-03-19", "original_language": "en", "original_title": "Eternal Sunshine of the Spotless Mind", "genre_ids": [18, 878, 10749], "backdrop_path": "/1dXTsaFxHoF9cas08UjAqE8NqOW.jpg", "adult": false, "overview": "Joel Barish, heartbroken that his girlfriend underwent a procedure to erase him from her memory, decides to do the same. However, as he watches his memories of her fade away, he realises that he still loves her, and may be too late to correct his mistake.", "poster_path": "/7y3eYvTsGjxPYDtSnumCLIMDkrV.jpg", "popularity": 22.427}, {"adult": false, "backdrop_path": "/6bnI08rrGXRkngRqJWCMXDZuJ1j.jpg", "genre_ids": [35, 10402], "id": 254470, "original_language": "en", "original_title": "Pitch Perfect 2", "overview": "The Bellas are back, and they are better than ever. After being humiliated in front of none other than the President of the United States of America, the Bellas are taken out of the Aca-Circuit. In order to clear their name, and regain their status, the Bellas take on a seemingly impossible task: winning an international competition no American team has ever won. In order to accomplish this monumental task, they need to strengthen the bonds of friendship and sisterhood and blow away the competition with their amazing aca-magic! With all new friends and old rivals tagging along for the trip, the Bellas can hopefully accomplish their dreams.", "poster_path": "/qSjruLiFB4uqRtz2xheQPxG8uaB.jpg", "release_date": "2015-05-07", "title": "Pitch Perfect 2", "video": false, "vote_average": 6.8, "vote_count": 3901, "popularity": 29.697}, {"adult": false, "backdrop_path": "/kFkFiDdTGv1eb5C0P44KFUGstBA.jpg", "genre_ids": [10751, 12, 35, 16], "id": 13654, "original_language": "en", "original_title": "101 Dalmatians II: Patch's London Adventure", "overview": "Being one of 101 takes its toll on Patch, who doesn't feel unique. When he's accidentally left behind on moving day, he meets his idol, Thunderbolt, who enlists him on a publicity campaign.", "poster_path": "/ht4h6I7WwaZa1E8xzb1jE94mDvS.jpg", "release_date": "2003-01-21", "title": "101 Dalmatians II: Patch's London Adventure", "video": false, "vote_average": 5.9, "vote_count": 652, "popularity": 15.544}, {"adult": false, "backdrop_path": "/plnmzCMPAb3suBAUJ4Yi2NC1APA.jpg", "genre_ids": [35], "id": 35056, "original_language": "en", "original_title": "Date Night", "overview": "Phil and Claire Foster fear that their mild-mannered relationship may be falling into a stale rut. During their weekly date night, their dinner reservation leads to their being mistaken for a couple of thieves\u2014and now a number of unsavoury characters want Phil and Claire killed.", "poster_path": "/fzzPht9KId6Ollow30jYtABhDY3.jpg", "release_date": "2010-04-08", "title": "Date Night", "video": false, "vote_average": 6.0, "vote_count": 1888, "popularity": 14.813}, {"adult": false, "backdrop_path": "/wcT7srQ4GeeMqlszMFEtPZ7v8T7.jpg", "genre_ids": [35, 10749], "id": 28978, "original_language": "en", "original_title": "The Circus", "overview": "Charlie, a wandering tramp, becomes a circus handyman and falls in love with the circus owner's daughter. Unaware of Charlie's affection, the girl falls in love with a handsome young performer. Charlie's versatility makes him star of the show when he substitutes for an ailing tightwire walker. He is discharged from the company when he protects the girl from her father's abuse, but he returns and appeals to the handsome performer to marry the girl. After the wedding the father prevails upon them to rejoin the circus. Charlie is hired again, but he stays behind when the caravan moves on.", "poster_path": "/awTf4Y6TGvgi3VYtGNINyyJJy9Q.jpg", "release_date": "1928-01-06", "title": "The Circus", "video": false, "vote_average": 8.2, "vote_count": 330, "popularity": 12.839}, {"adult": false, "backdrop_path": "/tr6OExnBfjLADi9OyZoW308mPAp.jpg", "genre_ids": [18, 35, 10749], "id": 74643, "original_language": "en", "original_title": "The Artist", "overview": "Hollywood, 1927: As silent movie star George Valentin wonders if the arrival of talking pictures will cause him to fade into oblivion, he sparks with Peppy Miller, a young dancer set for a big break.", "poster_path": "/i0mpvMIIjyubXsVKug9vX0lYpnd.jpg", "release_date": "2011-06-26", "title": "The Artist", "video": false, "vote_average": 7.4, "vote_count": 1977, "popularity": 10.661}, {"adult": false, "backdrop_path": "/ePqwTIoJeKJwShMABMst5duBcw9.jpg", "genre_ids": [35, 10402, 10749], "id": 114150, "original_language": "en", "original_title": "Pitch Perfect", "overview": "College student Beca knows she does not want to be part of a clique, but that's exactly where she finds herself after arriving at her new school. Thrust in among mean gals, nice gals and just plain weird gals, Beca finds that the only thing they have in common is how well they sing together. She takes the women of the group out of their comfort zone of traditional arrangements and into a world of amazing harmonic combinations in a fight to the top of college music competitions.", "poster_path": "/cLUMPdwCV0Dxd3P1ZkCXe7bVImI.jpg", "release_date": "2012-09-28", "title": "Pitch Perfect", "video": false, "vote_average": 7.3, "vote_count": 4622, "popularity": 16.878}, {"adult": false, "backdrop_path": "/zIqndpLMVerIfztNjsIOam9YnAN.jpg", "genre_ids": [35, 14, 10749], "id": 10096, "original_language": "en", "original_title": "13 Going on 30", "overview": "After total humiliation at her thirteenth birthday party, Jenna Rink wants to just hide until she's thirty. With a little magic, her wish is granted, but it turns out that being thirty isn't as always as awesome as she thought it would be!", "poster_path": "/iSvz2Nk1vzgm7bEMqMazhQ1F3zA.jpg", "release_date": "2004-04-13", "title": "13 Going on 30", "video": false, "vote_average": 6.6, "vote_count": 3069, "popularity": 19.707}, {"id": 76163, "video": false, "vote_count": 4536, "vote_average": 6.2, "title": "The Expendables 2", "release_date": "2012-08-08", "original_language": "en", "original_title": "The Expendables 2", "genre_ids": [28, 12, 53], "backdrop_path": "/pIjnoUnXdLpROFzIRPNziPzgBUp.jpg", "adult": false, "overview": "Mr. Church reunites the Expendables for what should be an easy paycheck, but when one of their men is murdered on the job, their quest for revenge puts them deep in enemy territory and up against an unexpected threat.", "poster_path": "/dJPnTe1qOcO7XqsJvESFph83m6m.jpg", "popularity": 26.855}, {"adult": false, "backdrop_path": "/r8pjTYuz3fDOFAhHNrhrsrh9lNa.jpg", "genre_ids": [18], "id": 294016, "original_language": "en", "original_title": "Trumbo", "overview": "The career of screenwriter Dalton Trumbo is halted by a witch hunt in the late 1940s when he defies the anti-communist HUAC committee and is blacklisted.", "poster_path": "/zShoKppVxFtRP8pIVeVQ4j2DEkz.jpg", "release_date": "2015-10-27", "title": "Trumbo", "video": false, "vote_average": 7.2, "vote_count": 971, "popularity": 11.721}, {"id": 198184, "video": false, "vote_count": 5351, "vote_average": 6.7, "title": "Chappie", "release_date": "2015-03-04", "original_language": "en", "original_title": "Chappie", "genre_ids": [28, 80, 878], "backdrop_path": "/y5lG7TBpeOMG0jxAaTK0ghZSzBJ.jpg", "adult": false, "overview": "Every child comes into the world full of promise, and none more so than Chappie: he is gifted, special, a prodigy. Like any child, Chappie will come under the influence of his surroundings\u2014some good, some bad\u2014and he will rely on his heart and soul to find his way in the world and become his own man. But there's one thing that makes Chappie different from any one else: he is a robot.", "poster_path": "/saF3HtAduvrP9ytXDxSnQJP3oqx.jpg", "popularity": 30.696}, {"id": 388, "video": false, "vote_count": 3231, "vote_average": 7.4, "title": "Inside Man", "release_date": "2006-03-23", "original_language": "en", "original_title": "Inside Man", "genre_ids": [80, 18, 53], "backdrop_path": "/6sLQFh6VFxU8nIkVaYg2yyJ6FL.jpg", "adult": false, "overview": "When an armed, masked gang enter a Manhattan bank, lock the doors and take hostages, the detective assigned to effect their release enters negotiations preoccupied with corruption charges he is facing.", "poster_path": "/z6wYRuvk1lf60R4SmWETfdUvGsm.jpg", "popularity": 23.439}, {"adult": false, "backdrop_path": "/yosGyMJ2CkavMSGx6PhcZO6kCAV.jpg", "genre_ids": [878], "id": 17654, "original_language": "en", "original_title": "District 9", "overview": "Thirty years ago, aliens arrive on Earth. Not to conquer or give aid, but to find refuge from their dying planet. Separated from humans in a South African area called District 9, the aliens are managed by Multi-National United, which is unconcerned with the aliens' welfare but will do anything to master their advanced technology. When a company field agent contracts a mysterious virus that begins to alter his DNA, there is only one place he can hide: District 9.", "poster_path": "/axFmCRNQsW6Bto8XuJKo08MPPV5.jpg", "release_date": "2009-08-05", "title": "District 9", "video": false, "vote_average": 7.3, "vote_count": 5940, "popularity": 17.44}, {"id": 655, "video": false, "vote_count": 669, "vote_average": 8.1, "title": "Paris, Texas", "release_date": "1984-05-19", "original_language": "en", "original_title": "Paris, Texas", "genre_ids": [18], "backdrop_path": "/nJKCvp8EC1ny9J9GhzcI3Scm0Jd.jpg", "adult": false, "overview": "A man wanders out of the desert not knowing who he is. His brother finds him, and helps to pull his memory back of the life he led before he walked out on his family and disappeared four years earlier.", "poster_path": "/tgw3TJTWgNUYCgL5Pa546VVVvSU.jpg", "popularity": 17.55}, {"id": 668, "video": false, "vote_count": 896, "vote_average": 6.5, "title": "On Her Majesty's Secret Service", "release_date": "1969-12-12", "original_language": "en", "original_title": "On Her Majesty's Secret Service", "genre_ids": [28, 12, 53], "backdrop_path": "/o71ywQSmQ1hNPSLKJuCMyDTrL7K.jpg", "adult": false, "overview": "James Bond tracks his archnemesis, Ernst Blofeld, to a mountaintop retreat where he is training an army of beautiful, lethal women. Along the way, Bond falls for Italian contessa Tracy Draco, and marries her in order to get closer to Blofeld.", "poster_path": "/7mcqT56ES5U3wg26vQQuEnOaFSj.jpg", "popularity": 19.01}], "total_pages": 45, "total_results": 893}, "recommendations": {"page": 1, "results": [{"adult": false, "backdrop_path": "/4DyfQSRxVuY2avz6Bm7zzDYsMmy.jpg", "genre_ids": [10749, 53, 35], "id": 431251, "original_language": "ko", "original_title": "\ubaa9\uc228 \uac74 \uc5f0\uc560", "overview": "Je-In  is a mystery novel writer. She chases after a serial killer with her longtime friend\u00a0Rok-Hwan. Rok-Hwan is a detective. A handsome and mysterious man, Jason, appears in front of them.\u00a0", "poster_path": "/6Djme5Vq1FxkM9Whq8Q90ielOgF.jpg", "release_date": "2016-12-14", "title": "Life Risking Romance", "video": false, "vote_average": 7.1, "vote_count": 9, "popularity": 2.697}, {"adult": false, "backdrop_path": "/cQOx3oUuYl1ayiusMMIYEJ90Gpw.jpg", "genre_ids": [35, 10749], "id": 245597, "original_language": "ko", "original_title": "\uce90\uce58\ubbf8", "overview": "\"Catch Me\" is about Lee Ho-tae (Joo Won) who meets the first love of his dreams, Yoon Jin-sook (Kim Ah-joong) for the first time in ten years but is shocked to find out she's a hit-and-runner.", "poster_path": "/5dRo8P7ERU4vmChNW1JUjXSYqUc.jpg", "release_date": "2013-12-18", "title": "Steal My Heart", "video": false, "vote_average": 6.8, "vote_count": 23, "popularity": 3.358}], "total_pages": 1, "total_results": 2}, "credits": {"cast": [{"cast_id": 5, "character": "Woo Ki-myung", "credit_id": "5458d9090e0a261165001c9b", "gender": 0, "id": 929574, "name": "Joo Won", "order": 0, "profile_path": "/wENUuZX03IgMNjONdpSRRVF5nKn.jpg"}, {"cast_id": 1, "character": "Kwak Eun-jin", "credit_id": "543bdcaf0e0a2649ab005899", "gender": 1, "id": 125736, "name": "Sulli", "order": 1, "profile_path": "/vvP4Swmfkz6fYTOFP2g867uyvu3.jpg"}, {"cast_id": 3, "character": "Kim Won-ho", "credit_id": "543bdec20e0a2649b20056dd", "gender": 2, "id": 1351550, "name": "Ahn Jae-hyun", "order": 2, "profile_path": "/5yxl4sHipNi2arFNLoTArBozfmn.jpg"}, {"cast_id": 2, "character": "Park Hye-jin", "credit_id": "543bddbe0e0a267283004758", "gender": 1, "id": 1255414, "name": "Park Se-young", "order": 3, "profile_path": "/xbBhxTM8kHFHcbMmfIX4Fq588oH.jpg"}, {"cast_id": 12, "character": "Nam-jung", "credit_id": "5c0b7b49c3a368252306a760", "gender": 2, "id": 147505, "name": "Kim Sung-oh", "order": 4, "profile_path": "/cda0UsT4OUugqtn27NGQ2Wla6Yd.jpg"}, {"cast_id": 8, "character": "Woo Ki-myung's mother", "credit_id": "5603e67ac3a3685523004623", "gender": 1, "id": 1348579, "name": "Lee Il-hwa", "order": 5, "profile_path": "/xQ5eniSOLh0Xw3hgV7gkHGr6UXr.jpg"}, {"cast_id": 10, "character": "Chang-joo", "credit_id": "5a98f48d92514127ea00483e", "gender": 2, "id": 1949863, "name": "Shin Ju-hwan", "order": 6, "profile_path": null}, {"cast_id": 11, "character": "Doo-chi", "credit_id": "5a98f49b0e0a260649004a81", "gender": 2, "id": 1607570, "name": "Min Jin-woong", "order": 7, "profile_path": "/dTvnmDYmAWSyc1cRYy5GxiOtaIi.jpg"}, {"cast_id": 9, "character": "", "credit_id": "5648b7339251413e7f007751", "gender": 2, "id": 1293342, "name": "Wi Ji-Woong", "order": 8, "profile_path": "/ntmBZLtoyovWPyL6gUSYFyKPBWA.jpg"}, {"cast_id": 19, "character": "Reporter", "credit_id": "5cf1e17f9251411cdbba21f1", "gender": 1, "id": 1620758, "name": "Kim Na-young", "order": 9, "profile_path": "/bhTrtWmklEheNnoQjUoFzPs1XF1.jpg"}, {"cast_id": 20, "character": "MC", "credit_id": "5cf29e69c3a3682e2620b5f4", "gender": 1, "id": 1620788, "name": "Han Hye-jin", "order": 10, "profile_path": "/53Qc0xnjfDRlc12tnEMpart71Ks.jpg"}, {"cast_id": 21, "character": "Won-ho's father", "credit_id": "5cf40ad5c3a368617820a7fb", "gender": 2, "id": 231476, "name": "Lee Kyung-young", "order": 11, "profile_path": "/y39l5vJ3pCOOKRwygOVHHJpwroN.jpg"}, {"cast_id": 23, "character": "Student 4", "credit_id": "5d37c6aeab684974fc87c8a8", "gender": 1, "id": 2369771, "name": "Kim Si-eun", "order": 12, "profile_path": "/ffG6awnRhK1IwWsprvpWtwrpwhI.jpg"}, {"cast_id": 27, "character": "Student", "credit_id": "5dfb1daf5ed9620016e4450a", "gender": 1, "id": 1523043, "name": "Nana", "order": 13, "profile_path": "/2sroKi1V8u1FoGBHQ6cBiKFFyHW.jpg"}], "crew": [{"credit_id": "5df370dafac502001783c4f8", "department": "Production", "gender": 2, "id": 17130, "job": "Co-Executive Producer", "name": "Tcha Sung-jai", "profile_path": null}, {"credit_id": "5cf7228ac3a3686d031ddc20", "department": "Production", "gender": 2, "id": 64337, "job": "Executive Producer", "name": "Kim Woo-taek", "profile_path": null}, {"credit_id": "5522ed029251416d4a002201", "department": "Directing", "gender": 2, "id": 117498, "job": "Director", "name": "Oh Ki-hwan", "profile_path": null}, {"credit_id": "5cd8093e9251412f6bce4d45", "department": "Camera", "gender": 2, "id": 1293691, "job": "Director of Photography", "name": "Choi Sang-ho", "profile_path": null}, {"credit_id": "5c2db7d30e0a267603381821", "department": "Sound", "gender": 2, "id": 1294086, "job": "Original Music Composer", "name": "Lee Ju-noh", "profile_path": null}, {"credit_id": "5c3e9e029251416b02aebcb2", "department": "Sound", "gender": 2, "id": 1294101, "job": "Sound Supervisor", "name": "Lee Seong-jin", "profile_path": null}, {"credit_id": "5c2f17cf9251415a986d8d70", "department": "Sound", "gender": 2, "id": 1294102, "job": "Sound Mixer", "name": "Han Myung-hwan", "profile_path": null}, {"credit_id": "5c8473e00e0a26430163eb31", "department": "Production", "gender": 1, "id": 2188866, "job": "Line Producer", "name": "Kang Ga-mi", "profile_path": null}, {"credit_id": "5c4ad87c92514151a95219bd", "department": "Costume & Make-Up", "gender": 0, "id": 2225957, "job": "Makeup & Hair", "name": "Park Sun", "profile_path": null}, {"credit_id": "5d9bf96d6d675a0028f2a88f", "department": "Art", "gender": 1, "id": 2309922, "job": "Production Design", "name": "Lee Na-gyeom", "profile_path": null}, {"credit_id": "5d37c6c3ab684900128852de", "department": "Writing", "gender": 2, "id": 2332082, "job": "Original Story", "name": "Gian84", "profile_path": "/kVdH4nGrhfnUNEL7aRsjKTmMpsh.jpg"}]}}