{"adult": false, "backdrop_path": null, "belongs_to_collection": null, "budget": 0, "genres": [{"id": 18, "name": "Drama"}, {"id": 53, "name": "Thriller"}], "homepage": "http://www.armagedon.com.mx/lasantamuerte/", "id": 297865, "imdb_id": "tt1114693", "original_language": "es", "original_title": "La Santa Muerte", "overview": "Two stories of people who's life has changed after joining the cult of \"La Santa Muerte\" for both better and worse.", "popularity": 1.161, "poster_path": "/hJjGtUQZG3HA0lxfzmD7ASNlBLB.jpg", "production_companies": [{"id": 85498, "logo_path": null, "name": "Armagedon Producciones", "origin_country": ""}, {"id": 85541, "logo_path": null, "name": "Armaged\u00f3n S.A. de C.V.", "origin_country": ""}], "production_countries": [{"iso_3166_1": "MX", "name": "Mexico"}], "release_date": "2007-09-28", "revenue": 0, "runtime": 100, "spoken_languages": [{"iso_639_1": "es", "name": "Espa\u00f1ol"}], "status": "Released", "tagline": "Every favor has a price...", "title": "La Santa Muerte", "video": false, "vote_average": 3.5, "vote_count": 2, "keywords": {"keywords": [{"id": 534, "name": "mexico"}, {"id": 1419, "name": "gun"}, {"id": 11001, "name": "religion"}, {"id": 192053, "name": "mexploitation"}]}, "similar": {"page": 1, "results": [{"adult": false, "backdrop_path": "/g8G91vbvyUqnyFSlVruwiaZsUrn.jpg", "genre_ids": [18], "id": 458737, "original_language": "en", "original_title": "First Reformed", "overview": "A pastor of a small church in upstate New York starts to spiral out of control after a soul-shaking encounter with an unstable environmental activist and his pregnant wife.", "poster_path": "/p2UylV0hPefEuWPFMo1r56vu2nb.jpg", "release_date": "2018-05-18", "title": "First Reformed", "video": false, "vote_average": 7.0, "vote_count": 577, "popularity": 11.445}, {"id": 310, "video": false, "vote_count": 6935, "vote_average": 6.6, "title": "Bruce Almighty", "release_date": "2003-05-23", "original_language": "en", "original_title": "Bruce Almighty", "genre_ids": [35, 14], "backdrop_path": "/bhEudqWbWsiEBdnl0kCIwFp5Hay.jpg", "adult": false, "overview": "Bruce Nolan toils as a 'human interest' television reporter in Buffalo, N.Y., but despite his high ratings and the love of his beautiful girlfriend, Bruce remains unfulfilled. At the end of the worst day in his life, he angrily ridicules God\u2014and the Almighty responds, endowing Bruce with all of His divine powers.", "poster_path": "/lgYKHifMMLT8OxYObMKa8b4STsr.jpg", "popularity": 33.956}, {"id": 16366, "video": false, "vote_count": 496, "vote_average": 6.4, "title": "Joseph: King of Dreams", "release_date": "2000-11-07", "original_language": "en", "original_title": "Joseph: King of Dreams", "genre_ids": [16, 10402, 10751], "backdrop_path": "/p5WF1vmFwTrdNlx6Z7mt5ksnG7W.jpg", "adult": false, "overview": "In this animated retelling of the story from the Bible's Book of Genesis, Joseph's gift of dream interpretation and his brilliantly colored coat inspires jealousy in his brothers.", "poster_path": "/dsL5nngGY8qTmXxtAamMUYVQDY3.jpg", "popularity": 18.451}, {"id": 9946, "video": false, "vote_count": 932, "vote_average": 5.7, "title": "End of Days", "release_date": "1999-11-24", "original_language": "en", "original_title": "End of Days", "genre_ids": [28, 14, 27, 9648], "backdrop_path": "/q5KcZBMc4Vs5SQelnSdY3ICm56M.jpg", "adult": false, "overview": "On 28 December 1999, the citizens of New York City are getting ready for the turn of the millennium. However, the Devil decides to crash the party by coming to the city, inhabiting a man's body, and searching for his chosen bride\u2014a 20-year-old woman named Christine York. The world will end, and the only hope lies within an atheist named Jericho Cane.", "poster_path": "/bEIjH6GroeWaBkn6o7MVpMNbuyw.jpg", "popularity": 15.853}, {"id": 87827, "video": false, "vote_count": 9358, "vote_average": 7.3, "title": "Life of Pi", "release_date": "2012-11-20", "original_language": "en", "original_title": "Life of Pi", "genre_ids": [28, 12, 18], "backdrop_path": "/tk159LPfy69zSHw4dabehfAaJXi.jpg", "adult": false, "overview": "The story of an Indian boy named Pi, a zookeeper's son who finds himself in the company of a hyena, zebra, orangutan, and a Bengal tiger after a shipwreck sets them adrift in the Pacific Ocean.", "poster_path": "/sLYdcz7easaS7CmJGwQcVVYZqiF.jpg", "popularity": 20.637}, {"id": 284536, "video": false, "vote_count": 836, "vote_average": 5.8, "title": "The Gambler", "release_date": "2014-12-25", "original_language": "en", "original_title": "The Gambler", "genre_ids": [80, 18, 53], "backdrop_path": "/1RJPQF39moa25GeB02Q5P9TxRQf.jpg", "adult": false, "overview": "Literature professor Jim Bennett leads a secret life as a high-stakes gambler. Always a risk-taker, Bennett bets it all when he borrows from a gangster and offers his own life as collateral. Staying one step ahead, he pits his creditor against the operator of an illicit gambling ring while garnering the attention of Frank, a paternalistic loan shark. As his relationship with a student deepens, Bennett must risk everything for a second chance.", "poster_path": "/sB03tHmWpIU9oKo4axwOJUf57qV.jpg", "popularity": 18.34}, {"id": 10545, "video": false, "vote_count": 3018, "vote_average": 7.0, "title": "The Hunchback of Notre Dame", "release_date": "1996-06-21", "original_language": "en", "original_title": "The Hunchback of Notre Dame", "genre_ids": [16, 18, 10751], "backdrop_path": "/oslaee3VX9kJAjVezbjZKlEJDzn.jpg", "adult": false, "overview": "When Quasimodo defies the evil Frollo and ventures out to the Festival of Fools, the cruel crowd jeers him. Rescued by fellow outcast the gypsy Esmeralda, Quasi soon finds himself battling to save the people and the city he loves.", "poster_path": "/r7V92gY3AMO6li17MmGTixAnFcv.jpg", "popularity": 28.041}, {"id": 686, "video": false, "vote_count": 2422, "vote_average": 7.3, "title": "Contact", "release_date": "1997-07-11", "original_language": "en", "original_title": "Contact", "genre_ids": [18, 9648, 878], "backdrop_path": "/dBK75oCKuHVuJ9rSUnusIFbhocH.jpg", "adult": false, "overview": "Contact is a science fiction film about an encounter with alien intelligence. Based on the novel by Carl Sagan the film starred Jodie Foster as the one chosen scientist who must make some difficult decisions between her beliefs, the truth, and reality.", "poster_path": "/bCpMIywuNZeWt3i5UMLEIc0VSwM.jpg", "popularity": 21.581}, {"adult": false, "backdrop_path": "/kormVYncbZMrToXaOV58o74LNIz.jpg", "genre_ids": [18, 53, 878, 9648], "id": 2675, "original_language": "en", "original_title": "Signs", "overview": "A family living on a farm finds mysterious crop circles in their fields which suggests something more frightening to come.", "poster_path": "/bY9lCUVUajpkKWlfjWF1mtXaSUp.jpg", "release_date": "2002-08-02", "title": "Signs", "video": false, "vote_average": 6.6, "vote_count": 3222, "popularity": 16.898}, {"id": 591, "video": false, "vote_count": 5720, "vote_average": 6.7, "title": "The Da Vinci Code", "release_date": "2006-05-17", "original_language": "en", "original_title": "The Da Vinci Code", "genre_ids": [9648, 53], "backdrop_path": "/hcAMO4LF6G2hvsTpNgmY1kFj3jJ.jpg", "adult": false, "overview": "A murder in Paris\u2019 Louvre Museum and cryptic clues in some of Leonardo da Vinci\u2019s most famous paintings lead to the discovery of a religious mystery. For 2,000 years a secret society closely guards information that \u2014 should it come to light \u2014 could rock the very foundations of Christianity.", "poster_path": "/5IqaT3fza0Y9vKazjGwDGsNuuS8.jpg", "popularity": 28.373}, {"id": 376290, "video": false, "vote_count": 1038, "vote_average": 7.5, "title": "Miss Sloane", "release_date": "2016-11-25", "original_language": "en", "original_title": "Miss Sloane", "genre_ids": [18, 53], "backdrop_path": "/64xHK6gmw3ZwIpjeSWZ7W686J5l.jpg", "adult": false, "overview": "An ambitious lobbyist faces off against the powerful gun lobby in an attempt to pass gun control legislation.", "poster_path": "/lPgISoC37G3E2QEVtSuJ15oYlI.jpg", "popularity": 15.942}, {"id": 312221, "video": false, "vote_count": 4401, "vote_average": 7.4, "title": "Creed", "release_date": "2015-11-25", "original_language": "en", "original_title": "Creed", "genre_ids": [18], "backdrop_path": "/fs2yhdSCzMVlNECrN84WuCkgXov.jpg", "adult": false, "overview": "The former World Heavyweight Champion Rocky Balboa serves as a trainer and mentor to Adonis Johnson, the son of his late friend and former rival Apollo Creed.", "poster_path": "/hKzhV274pkZBSpXfCjUyzbyYKLl.jpg", "popularity": 17.844}, {"id": 9693, "video": false, "vote_count": 4056, "vote_average": 7.6, "title": "Children of Men", "release_date": "2006-09-22", "original_language": "en", "original_title": "Children of Men", "genre_ids": [28, 18, 878, 53], "backdrop_path": "/c5jNuPA19oGiEmbh8iFeAi6aHMI.jpg", "adult": false, "overview": "In 2027, in a chaotic world in which humans can no longer procreate, a former activist agrees to help transport a miraculously pregnant woman to a sanctuary at sea, where her child's birth may help scientists save the future of humankind.", "poster_path": "/gZ6i32Da76EUxta06GL2BxpC4Cn.jpg", "popularity": 18.249}, {"adult": false, "backdrop_path": "/7pMlmyqitl0nqpEGOL3v8dEbu2K.jpg", "genre_ids": [28, 53, 27], "id": 341006, "original_language": "en", "original_title": "The Belko Experiment", "overview": "A group of eighty American workers are locked in their office and ordered by an unknown voice to participate in a twisted game.", "poster_path": "/faJK0dP3S92kQoKtO4LZMjy41kf.jpg", "release_date": "2016-03-17", "title": "The Belko Experiment", "video": false, "vote_average": 6.1, "vote_count": 852, "popularity": 13.193}, {"id": 218043, "video": false, "vote_count": 792, "vote_average": 4.0, "title": "Left Behind", "release_date": "2014-10-03", "original_language": "en", "original_title": "Left Behind", "genre_ids": [28, 878, 53], "backdrop_path": "/oUZn1QXB7FTqMBnM7GdqK5PFNzn.jpg", "adult": false, "overview": "A small group of survivors are left behind after millions of people suddenly vanish during the rapture and the world is plunged into chaos and destruction.", "poster_path": "/lWf8po2lGleVuzRB4lpHavVT1Lv.jpg", "popularity": 15.634}, {"adult": false, "backdrop_path": "/h51DdjaDD2aPu1fLHsmpJaaJinS.jpg", "genre_ids": [80, 18, 53], "id": 504172, "original_language": "en", "original_title": "The Mule", "overview": "Earl Stone, a man in his eighties, is broke, alone, and facing foreclosure of his business when he is offered a job that simply requires him to drive. Easy enough, but, unbeknownst to Earl, he's just signed on as a drug courier for a Mexican cartel. He does so well that his cargo increases exponentially, and Earl hit the radar of hard-charging DEA agent Colin Bates.", "poster_path": "/oeZh7yEz3PMnZLgBPhrafFHRbVz.jpg", "release_date": "2018-12-14", "title": "The Mule", "video": false, "vote_average": 6.6, "vote_count": 2387, "popularity": 23.514}, {"id": 615, "video": false, "vote_count": 1934, "vote_average": 7.1, "title": "The Passion of the Christ", "release_date": "2004-02-25", "original_language": "en", "original_title": "The Passion of the Christ", "genre_ids": [18], "backdrop_path": "/clVnEHURb8Ot3twaLmf7N1lNym1.jpg", "adult": false, "overview": "A graphic portrayal of the last twelve hours of Jesus of Nazareth's life.", "poster_path": "/oFuLM1EaKhi1WNWiTjQ1HKIZ1Eg.jpg", "popularity": 21.645}, {"id": 207932, "video": false, "vote_count": 4175, "vote_average": 5.9, "title": "Inferno", "release_date": "2016-10-13", "original_language": "en", "original_title": "Inferno", "genre_ids": [18, 9648, 53], "backdrop_path": "/ulzy4NDp7SzVkpUSDR67vawFCCT.jpg", "adult": false, "overview": "After waking up in a hospital with amnesia, professor Robert Langdon and a doctor must race against time to foil a deadly global plot.", "poster_path": "/oFOG2yIRcluKfTtYbzz71Vj9bgz.jpg", "popularity": 19.051}, {"id": 407375, "video": false, "vote_count": 56, "vote_average": 5.9, "title": "Sniper: Ghost Shooter", "release_date": "2016-08-02", "original_language": "en", "original_title": "Sniper: Ghost Shooter", "genre_ids": [28, 18, 10752], "backdrop_path": "/yYS8wtp7PgRcugt6EUMhv95NnaK.jpg", "adult": false, "overview": "Elite snipers Brandon Beckett and Richard Miller are tasked with protecting a gas pipeline from terrorists looking to make a statement. When battles with the enemy lead to snipers being killed by a ghost shooter who knows their exact location, tensions boil as a security breach is suspected. Is there someone working with the enemy on the inside? Is the mission a front for other activity? Is the Colonel pulling the strings?", "poster_path": "/sO61kOJEObDs8uOTkQLj5j8eaxu.jpg", "popularity": 9.624}, {"id": 568091, "video": false, "vote_count": 752, "vote_average": 6.6, "title": "Fractured", "release_date": "2019-09-22", "original_language": "en", "original_title": "Fractured", "genre_ids": [53], "backdrop_path": "/3UnUxeEAGoZhjIW8X1HpEuDPngV.jpg", "adult": false, "overview": "Driving cross-country, Ray and his wife and daughter stop at a highway rest area where his daughter falls and breaks her arm. After a frantic rush to the hospital and a clash with the check-in nurse, Ray is finally able to get her to a doctor. While the wife and daughter go downstairs for an MRI, Ray, exhausted, passes out in a chair in the lobby. Upon waking up, they have no record or knowledge of Ray's family ever being checked in.", "poster_path": "/paZNRffT3kUckuRFKbeDBuX1YcZ.jpg", "popularity": 19.934}], "total_pages": 96, "total_results": 1908}, "recommendations": {"page": 1, "results": [], "total_pages": 1, "total_results": 0}, "credits": {"cast": [{"cast_id": 3, "character": "", "credit_id": "544087e5c3a36860ef00068f", "gender": 1, "id": 1238411, "name": "Karla \u00c1lvarez", "order": 1, "profile_path": "/ig5ddkBEJQ7ivws6EWepicLgJhM.jpg"}, {"cast_id": 4, "character": "", "credit_id": "544087ee0e0a26293e000724", "gender": 2, "id": 941925, "name": "Harry Geithner", "order": 2, "profile_path": "/g7C4OJhammyzmWMUScOde2WvzZR.jpg"}, {"cast_id": 5, "character": "", "credit_id": "544087f8c3a368053f0011cb", "gender": 0, "id": 1374724, "name": "Ramiro Huerta", "order": 3, "profile_path": null}, {"cast_id": 6, "character": "", "credit_id": "54408802c3a3686172000769", "gender": 0, "id": 1044038, "name": "Amaranta Ruiz", "order": 4, "profile_path": null}, {"cast_id": 7, "character": "", "credit_id": "544088090e0a26293b0006f7", "gender": 0, "id": 1374725, "name": "Ana Sof\u00eda Camacho", "order": 5, "profile_path": null}, {"cast_id": 8, "character": "", "credit_id": "544088120e0a2628fb0006fa", "gender": 1, "id": 1374726, "name": "Eva Prado", "order": 6, "profile_path": "/mByEkk6Lwgnm4n54OpdqJVjRUna.jpg"}, {"cast_id": 9, "character": "", "credit_id": "54408819c3a3686098000723", "gender": 2, "id": 942967, "name": "Mario Zaragoza", "order": 7, "profile_path": "/1xKrDGEjuKkyTdVTPByX8WY8gIj.jpg"}, {"cast_id": 10, "character": "", "credit_id": "5440881e0e0a2628d9000732", "gender": 2, "id": 941942, "name": "Julio Casado", "order": 8, "profile_path": null}], "crew": [{"credit_id": "544087c0c3a368617200075d", "department": "Writing", "gender": 0, "id": 1374723, "job": "Screenplay", "name": "Ver\u00f3nica Maldonado", "profile_path": null}, {"credit_id": "544087c9c3a368055c001279", "department": "Directing", "gender": 0, "id": 941437, "job": "Director", "name": "Paco del Toro", "profile_path": "/zrqLeHSPlrf0h7hQe7CRrpuUduu.jpg"}, {"credit_id": "544087d10e0a26290f000721", "department": "Writing", "gender": 0, "id": 941437, "job": "Screenplay", "name": "Paco del Toro", "profile_path": "/zrqLeHSPlrf0h7hQe7CRrpuUduu.jpg"}]}}