{"adult": false, "backdrop_path": null, "belongs_to_collection": null, "budget": 0, "genres": [{"id": 14, "name": "Fantasy"}, {"id": 9648, "name": "Mystery"}], "homepage": null, "id": 297870, "imdb_id": "tt0032427", "original_language": "en", "original_title": "Earthbound", "overview": "A murdered man (Baxter) helps his widow (Leeds) bring his killer to justice.", "popularity": 1.077, "poster_path": "/lXmxXIQWqUwhkR7mNJjWtmT0hMI.jpg", "production_companies": [{"id": 25, "logo_path": "/qZCc1lty5FzX30aOCVRBLzaVmcp.png", "name": "20th Century Fox", "origin_country": "US"}], "production_countries": [{"iso_3166_1": "US", "name": "United States of America"}], "release_date": "1940-06-06", "revenue": 0, "runtime": 67, "spoken_languages": [{"iso_639_1": "en", "name": "English"}], "status": "Released", "tagline": "", "title": "Earthbound", "video": false, "vote_average": 0.0, "vote_count": 0, "keywords": {"keywords": [{"id": 596, "name": "adultery"}, {"id": 9826, "name": "murder"}, {"id": 10092, "name": "mystery"}, {"id": 11038, "name": "trial"}, {"id": 162846, "name": "ghost"}]}, "similar": {"page": 1, "results": [{"adult": false, "backdrop_path": "/ojsY0XyCSsJvm0n7YTwumQcvBqT.jpg", "genre_ids": [9648, 53], "id": 1586, "original_language": "en", "original_title": "Secret Window", "overview": "Mort Rainey, a writer just emerging from a painful divorce with his ex-wife, is stalked at his remote lake house by a psychotic stranger and would-be scribe who claims Rainey swiped his best story idea. But as Rainey endeavors to prove his innocence, he begins to question his own sanity.", "poster_path": "/f5t7Df50xjniLlE80ty2dYsZBqI.jpg", "release_date": "2004-03-12", "title": "Secret Window", "video": false, "vote_average": 6.5, "vote_count": 2126, "popularity": 19.288}, {"id": 4771, "video": false, "vote_count": 2134, "vote_average": 7.3, "title": "Gone Baby Gone", "release_date": "2007-09-18", "original_language": "en", "original_title": "Gone Baby Gone", "genre_ids": [80, 18, 9648], "backdrop_path": "/sogh5NXPbKFajjYKBlfIBfCWgbq.jpg", "adult": false, "overview": "When 4 year old Amanda McCready disappears from her home and the police make little headway in solving the case, the girl's aunt, Beatrice McCready hires two private detectives, Patrick Kenzie and Angie Gennaro. The detectives freely admit that they have little experience with this type of case, but the family wants them for two reasons - they're not cops and they know the tough neighborhood in which they all live. As the case progresses, Kenzie and Gennaro face drug dealers, gangs and pedophiles. When they are about to solve the case, they are faced with a moral dilemma that tears them apart.", "poster_path": "/dXXMPxGiRegd7NNCtE5uchAKRAG.jpg", "popularity": 16.498}, {"id": 8090, "video": false, "vote_count": 448, "vote_average": 6.1, "title": "Untraceable", "release_date": "2008-01-22", "original_language": "en", "original_title": "Untraceable", "genre_ids": [9648, 53], "backdrop_path": "/eXuIPt9I1xuaVddlgzEQRC2EMnJ.jpg", "adult": false, "overview": "Special Agent Jennifer Marsh (Diane Lane) works in an elite division of the FBI dedicated to fighting cybercrime. She thinks she has seen it all, until a particularly sadistic criminal arises on the Internet. This tech-savvy killer posts live feeds of his crimes on his website; the more hits the site gets, the faster the victim dies. Marsh and her team must find the elusive killer before time runs out.", "poster_path": "/ySUwDRDEn01lKIMPQorpFCMLWqE.jpg", "popularity": 14.431}, {"adult": false, "backdrop_path": "/3TCPWrxQkfon82xPNtmpweOSVJc.jpg", "genre_ids": [18, 80, 9648, 10749, 53], "id": 12150, "original_language": "en", "original_title": "Sea of Love", "overview": "Seen-it-all New York detective Frank Keller is unsettled - he has done twenty years on the force and could retire, and he hasn't come to terms with his wife leaving him for a colleague. Joining up with an officer from another part of town to investigate a series of murders linked by the lonely hearts columns he finds he is getting seriously and possibly dangerously involved with Helen, one of the main suspects.", "poster_path": "/7DkkTHIX3hUqvsRv5sDmJAkCfKK.jpg", "release_date": "1989-09-15", "title": "Sea of Love", "video": false, "vote_average": 6.7, "vote_count": 290, "popularity": 10.636}, {"adult": false, "backdrop_path": "/arcpWGGnUkGkakOwZo7xfPsaz7h.jpg", "genre_ids": [9648, 53], "id": 2832, "original_language": "en", "original_title": "Identity", "overview": "Complete strangers stranded at a remote desert motel during a raging storm soon find themselves the target of a deranged murderer. As their numbers thin out, the travelers begin to turn on each other, as each tries to figure out who the killer is.", "poster_path": "/xSNSp2wmCUwFavxdkMF417hBc39.jpg", "release_date": "2003-04-25", "title": "Identity", "video": false, "vote_average": 7.2, "vote_count": 2091, "popularity": 19.629}, {"id": 1949, "video": false, "vote_count": 5165, "vote_average": 7.5, "title": "Zodiac", "release_date": "2007-03-02", "original_language": "en", "original_title": "Zodiac", "genre_ids": [80, 18, 9648, 53], "backdrop_path": "/jP2htGBHE7vKq4MLeC75UeC0sZH.jpg", "adult": false, "overview": "The true story of the investigation of the \"Zodiac Killer\", a serial killer who terrified the San Francisco Bay Area, taunting police with his ciphers and letters. The case becomes an obsession for three men as their lives and careers are built and destroyed by the endless trail of clues.", "poster_path": "/bgLyOROfFQI3FqYL7jQbiaV8lkN.jpg", "popularity": 24.455}, {"id": 807, "video": false, "vote_count": 11937, "vote_average": 8.3, "title": "Se7en", "release_date": "1995-09-22", "original_language": "en", "original_title": "Se7en", "genre_ids": [80, 9648, 53], "backdrop_path": "/A0WKbRIojF9DUWG4XLCmg5JK6I5.jpg", "adult": false, "overview": "Two homicide detectives are on a desperate hunt for a serial killer whose crimes are based on the \"seven deadly sins\" in this dark and haunting film that takes viewers from the tortured remains of one victim to the next. The seasoned Det. Sommerset researches each sin in an effort to get inside the killer's mind, while his novice partner, Mills, scoffs at his efforts to unravel the case.", "poster_path": "/8zw8IL4zEPjkh8Aysdcd0FwGMb0.jpg", "popularity": 34.018}, {"adult": false, "backdrop_path": "/t3OZS8yMs0NL4YgWWc04eXHTn1X.jpg", "genre_ids": [28, 80, 53], "id": 984, "original_language": "en", "original_title": "Dirty Harry", "overview": "When a madman dubbed 'Scorpio' terrorizes San Francisco, hard-nosed cop, Harry Callahan \u2013 famous for his take-no-prisoners approach to law enforcement \u2013 is tasked with hunting down the psychopath. Harry eventually collars Scorpio in the process of rescuing a kidnap victim, only to see him walk on technicalities. Now, the maverick detective is determined to nail the maniac himself.", "poster_path": "/2TADKc4GMMPdMrLXj0xJVgTvZJM.jpg", "release_date": "1971-12-21", "title": "Dirty Harry", "video": false, "vote_average": 7.5, "vote_count": 1173, "popularity": 18.839}, {"adult": false, "backdrop_path": "/pA64Ov7lDpwXBu33yq0KpmAOYJL.jpg", "genre_ids": [27, 53], "id": 357096, "original_language": "en", "original_title": "I Spit on Your Grave III: Vengeance is Mine", "overview": "Jennifer Hills is still tormented by the brutal sexual assault she endured years ago. She\u2019s changed identities and cities, reluctantly joining a support group where she begins to piece together a new life. But when her new friend\u2019s murderer goes free and the tales of serial rapists haunt her, Jennifer will hunt down the men responsible and do what the system won\u2019t \u2013 make them pay for their crimes in the most horrific ways imaginable. Only this time, no jury may be able to save her.", "poster_path": "/6SnOlgrUoC5jqmgcYIM5lde5zYq.jpg", "release_date": "2015-10-01", "title": "I Spit on Your Grave III: Vengeance is Mine", "video": false, "vote_average": 5.3, "vote_count": 437, "popularity": 20.815}, {"id": 28355, "video": false, "vote_count": 1285, "vote_average": 6.2, "title": "Case 39", "release_date": "2009-08-13", "original_language": "en", "original_title": "Case 39", "genre_ids": [27, 9648, 53], "backdrop_path": "/luTLwjU4WpQR2zBxJAKdK1D7C8T.jpg", "adult": false, "overview": "In her many years as a social worker, Emily Jenkins believes she has seen it all, until she meets 10-year-old Lilith and the girl's cruel parents. Emily's worst fears are confirmed when the parents try to harm the child, and so Emily assumes custody of Lilith while she looks for a foster family. However, Emily soon finds that dark forces surround the seemingly innocent girl, and the more she tries to protect Lilith, the more horrors she encounters.", "poster_path": "/xSyj4F1UVtAXhqSGpNCZRaBsKAJ.jpg", "popularity": 14.324}, {"id": 49524, "video": false, "vote_count": 2255, "vote_average": 5.6, "title": "R.I.P.D.", "release_date": "2013-07-18", "original_language": "en", "original_title": "R.I.P.D.", "genre_ids": [28, 35, 80, 14], "backdrop_path": "/5uj49MUgHpHGGYxImtqLNofvS5B.jpg", "adult": false, "overview": "A recently slain cop joins a team of undead police officers working for the Rest in Peace Department and tries to find the man who murdered him. Based on the comic by Peter M. Lenkov.", "poster_path": "/ldBBulVDkifYnT501PWXIvtCgmO.jpg", "popularity": 21.249}, {"id": 14447, "video": false, "vote_count": 246, "vote_average": 7.2, "title": "A Matter of Loaf and Death", "release_date": "2008-12-03", "original_language": "en", "original_title": "A Matter of Loaf and Death", "genre_ids": [16, 35, 80, 9648, 10751], "backdrop_path": "/dZCFDIsUrgqIjFucPHNnKFMgcPn.jpg", "adult": false, "overview": "Wallace and Gromit have a brand new business - a bakery. Although business is booming, Gromit is concerned by the news that 12 local bakers have 'disappeared' this year - but Wallace isn't worried. He's too distracted and in love with local beauty and bread enthusiast, Piella Bakewell, to be of much help. Gromit must be the sleuth and solve the escalating murder mystery.", "poster_path": "/e4L9XUCmNhiwbLICMiISh73PySF.jpg", "popularity": 14.497}, {"id": 369300, "video": false, "vote_count": 317, "vote_average": 6.0, "title": "The Limehouse Golem", "release_date": "2016-10-18", "original_language": "en", "original_title": "The Limehouse Golem", "genre_ids": [27, 9648, 53], "backdrop_path": "/jOsELWItMJOwqEXpUewV8zFH3eX.jpg", "adult": false, "overview": "A series of murders has shaken the community to the point where people believe that only a legendary creature from dark times \u2013 the mythical Golem \u2013 must be responsible.", "poster_path": "/u9NnEq4Be7hhwSvkNf6dOAD8ppi.jpg", "popularity": 13.502}, {"adult": false, "backdrop_path": "/a0UYovVNPVfWILYT7TzD10xBX3q.jpg", "genre_ids": [18, 53, 80, 9648], "id": 979, "original_language": "fr", "original_title": "Irr\u00e9versible", "overview": "Events over the course of one traumatic night in Paris unfold in reverse-chronological order as the beautiful Alex is brutally raped and beaten by a stranger in the underpass. Her boyfriend and ex-lover take matters into their own hands by hiring two criminals to help them find the rapist so that they can exact revenge. A simultaneously beautiful and terrible examination of the destructive nature of cause and effect, and how time destroys everything.", "poster_path": "/rxeDxo8FvZpLu6iplNpxdtAVnfu.jpg", "release_date": "2002-05-22", "title": "Irreversible", "video": false, "vote_average": 7.1, "vote_count": 1216, "popularity": 20.416}, {"adult": false, "backdrop_path": "/v761yOHKO3p6Yr7LDCjud6tUL5G.jpg", "genre_ids": [28, 80, 53], "id": 10651, "original_language": "en", "original_title": "The Dead Pool", "overview": "Dirty Harry Callahan returns for his final film adventure. Together with his partner Al Quan, he must investigate the systematic murder of actors and musicians. By the time Harry learns that the murders are a part of a sick game to predict the deaths of celebrities before they happen, it may be too late...", "poster_path": "/9ZUSqox9lIxN4xaYBac2QXMFcZj.jpg", "release_date": "1988-07-12", "title": "The Dead Pool", "video": false, "vote_average": 6.4, "vote_count": 389, "popularity": 10.626}, {"id": 146198, "video": false, "vote_count": 1322, "vote_average": 5.8, "title": "Triple 9", "release_date": "2016-02-19", "original_language": "en", "original_title": "Triple 9", "genre_ids": [28, 9648, 53], "backdrop_path": "/paT9Ovofjj30JvsDRyhFfjgUEfn.jpg", "adult": false, "overview": "A gang of criminals and corrupt cops plan the murder of a police officer in order to pull off their biggest heist yet across town.", "poster_path": "/36zbHT728v00HbbUBmrsOMu7Hde.jpg", "popularity": 15.265}, {"id": 18476, "video": false, "vote_count": 243, "vote_average": 5.7, "title": "Horsemen", "release_date": "2009-02-06", "original_language": "en", "original_title": "Horsemen", "genre_ids": [80, 18, 27, 9648, 53], "backdrop_path": "/zJYf0MJfq1umDIOBJ5o6A4shcmg.jpg", "adult": false, "overview": "A recently widowed detective still grieving over his wife's death discovers a shocking connection between himself and the suspects in a serial killing spree linked to the Four Horsemen of the Apocalypse.", "poster_path": "/sIVBGmRXsPuI1TES9sKUImMOw2Q.jpg", "popularity": 11.71}, {"adult": false, "backdrop_path": "/3s1jogOznYmG0xPqHE45D5ir3bx.jpg", "genre_ids": [27, 53, 9648], "id": 3597, "original_language": "en", "original_title": "I Know What You Did Last Summer", "overview": "As they celebrate their high school graduation, four friends are involved in a hit-and-run accident when their car hits and apparently kills a pedestrian on an isolated roadway. They dispose of the body and vow to keep the incident a secret, a year later somebody starts sending them letters bearing the warning \"I Know What You Did Last Summer\".", "poster_path": "/cruOfvjIqMTbOQxld8SpM8OzVnf.jpg", "release_date": "1997-10-17", "title": "I Know What You Did Last Summer", "video": false, "vote_average": 5.8, "vote_count": 1506, "popularity": 15.809}, {"id": 1847, "video": false, "vote_count": 259, "vote_average": 7.4, "title": "The Long Goodbye", "release_date": "1973-03-07", "original_language": "en", "original_title": "The Long Goodbye", "genre_ids": [80, 18, 9648, 53], "backdrop_path": "/brm75bRffmi2SlsUmsHUxUVI1Hg.jpg", "adult": false, "overview": "Detective Philip Marlowe tries to help a friend who is accused of murdering his wife.", "poster_path": "/oBhUK54yBJ0aH6u9zCzSV5iV7OP.jpg", "popularity": 9.602}, {"adult": false, "backdrop_path": "/iLvqbCanH1liQ5VERCyCR31GkkL.jpg", "genre_ids": [35, 27, 878], "id": 15762, "original_language": "en", "original_title": "Night of the Creeps", "overview": "In 1959, an alien experiment crashes to earth and infects a fraternity member. They freeze the body, but in the modern day, two geeks pledging a fraternity accidentally thaw the corpse, which proceeds to infect the campus with parasites that transform their hosts into killer zombies.", "poster_path": "/A3s2tQGNb6mhlr1hPZeE5F8IUwp.jpg", "release_date": "1986-08-21", "title": "Night of the Creeps", "video": false, "vote_average": 6.6, "vote_count": 219, "popularity": 10.383}], "total_pages": 440, "total_results": 8788}, "recommendations": {"page": 1, "results": [], "total_pages": 1, "total_results": 0}, "credits": {"cast": [{"cast_id": 1, "character": "Nick Desborough", "credit_id": "544095d6c3a368053f0013ba", "gender": 2, "id": 29999, "name": "Warner Baxter", "order": 1, "profile_path": "/bsM0YTzy9EIRdk71eoOw4s9qKQV.jpg"}, {"cast_id": 2, "character": "Ellen Besborough", "credit_id": "544095e7c3a368053f0013be", "gender": 1, "id": 1031219, "name": "Andrea Leeds", "order": 2, "profile_path": "/YvoJ3xxVwFvQFJ3605o1xTou4b.jpg"}, {"cast_id": 3, "character": "Linda Reynolds", "credit_id": "544095f70e0a2628fb0008d2", "gender": 1, "id": 104199, "name": "Lynn Bari", "order": 3, "profile_path": "/fCnt165PGsBJVdM6ISk63jIxb8P.jpg"}, {"cast_id": 4, "character": "Becky Tilden", "credit_id": "5440960b0e0a26293e00090d", "gender": 1, "id": 83237, "name": "Elizabeth Patterson", "order": 4, "profile_path": "/8seWJt9xJlcVhmtku25uCHuxc5t.jpg"}, {"cast_id": 5, "character": "Mr. Whimser", "credit_id": "54409622c3a3686078000934", "gender": 2, "id": 8517, "name": "Charley Grapewin", "order": 5, "profile_path": "/jUHnyU7byM0ajyrovvUXkWZnlAc.jpg"}, {"cast_id": 6, "character": "Jeffrey Reynolds", "credit_id": "544096360e0a26290f00090d", "gender": 2, "id": 51310, "name": "Henry Wilcoxon", "order": 6, "profile_path": "/3qJEMJDvOy2WVP45oo5GqmMrwed.jpg"}, {"cast_id": 7, "character": "Prosecutor", "credit_id": "5440964a0e0a2602620014ee", "gender": 2, "id": 13969, "name": "Russell Hicks", "order": 7, "profile_path": "/hRRM5ni87mxjlDV2G9jr4GCxFew.jpg"}, {"cast_id": 8, "character": "Amos Totten", "credit_id": "5440965cc3a368607800093d", "gender": 2, "id": 2782, "name": "Ian Wolfe", "order": 8, "profile_path": "/ylp7puM2Hcd0VkQvXfmD7zkP4m7.jpg"}, {"cast_id": 9, "character": "Etienne Almette", "credit_id": "54409676c3a36860e10008ed", "gender": 2, "id": 985275, "name": "Christian Rub", "order": 9, "profile_path": "/pbXqN3qxPMiMZ8hS5hD39qKK1nH.jpg"}, {"cast_id": 10, "character": "Minister", "credit_id": "5440968a0e0a26293e000920", "gender": 2, "id": 103493, "name": "Pedro de Cordoba", "order": 10, "profile_path": "/8kIq2o5ZljNmCS1u6bKO1bTBlhy.jpg"}, {"cast_id": 11, "character": "Detective", "credit_id": "5440969dc3a368055c00149e", "gender": 2, "id": 975881, "name": "Lester Sharpe", "order": 11, "profile_path": null}, {"cast_id": 12, "character": "Defense Attorney", "credit_id": "544096af0e0a262976000978", "gender": 2, "id": 86349, "name": "Reginald Sheffield", "order": 12, "profile_path": null}, {"cast_id": 19, "character": "Court Attendant", "credit_id": "588e2379c3a368749700ba96", "gender": 2, "id": 120545, "name": "Eugene Borden", "order": 13, "profile_path": "/t7ybm69kPQvV6FIBKYeYJ8UlZvs.jpg"}, {"cast_id": 20, "character": "Louise - Linda's Maid", "credit_id": "588e2389c3a368749400b4e6", "gender": 1, "id": 106092, "name": "Marcelle Corday", "order": 14, "profile_path": "/hStYcWHduKuc9bJbAcDsjMk5jBo.jpg"}, {"cast_id": 21, "character": "Train Dispatcher", "credit_id": "588e23b7925141184200c9fe", "gender": 2, "id": 22099, "name": "Jean Del Val", "order": 15, "profile_path": "/6IJa7xKWMh1DICJY9VphHzTsjJ3.jpg"}, {"cast_id": 22, "character": "Chris", "credit_id": "588e23c9c3a368749e00ad04", "gender": 2, "id": 95967, "name": "William Edmunds", "order": 16, "profile_path": "/fQofE8gcFlWCGsBss6sqNIsZ3le.jpg"}, {"cast_id": 23, "character": "Toinette", "credit_id": "588e23da925141184800c7ed", "gender": 0, "id": 148548, "name": "Diane Fisher", "order": 17, "profile_path": null}, {"cast_id": 24, "character": "Maitre d'Hotel", "credit_id": "588e23eac3a36874a300a48a", "gender": 2, "id": 88464, "name": "Arno Frey", "order": 18, "profile_path": null}, {"cast_id": 25, "character": "Yvonne - Ellen's Maid", "credit_id": "588e23fa925141183f00c9fd", "gender": 0, "id": 1472539, "name": "Jean Houghton", "order": 19, "profile_path": null}, {"cast_id": 26, "character": "Edouard", "credit_id": "588e240bc3a368749e00ad42", "gender": 0, "id": 34420, "name": "Bobby Larson", "order": 20, "profile_path": "/8CXiYAMnO7mjJnyH65tT5TOCtOT.jpg"}, {"cast_id": 27, "character": "Maid", "credit_id": "588e243f925141183d00c798", "gender": 1, "id": 153266, "name": "Myra Marsh", "order": 21, "profile_path": "/dQ0MUvEGGjaCtmkxVuLc8I9zId3.jpg"}, {"cast_id": 28, "character": "Court Magistrate", "credit_id": "588e2838925141183a00cd9e", "gender": 2, "id": 148419, "name": "Eric Mayne", "order": 22, "profile_path": "/3JpQliE6d59qxh3QGZmgdJ4E9Ue.jpg"}, {"cast_id": 29, "character": "Minor Role", "credit_id": "588e2854925141183f00cd6a", "gender": 0, "id": 30199, "name": "Mira McKinney", "order": 23, "profile_path": "/4gFcxs95rnaKXPGAhIucuNUCgOC.jpg"}, {"cast_id": 30, "character": "Cafe Customer", "credit_id": "588e286ac3a36874a700a4ff", "gender": 0, "id": 1089559, "name": "Clark Morgan", "order": 24, "profile_path": null}, {"cast_id": 31, "character": "Elevator Operator", "credit_id": "588e2882c3a368749e00b0a9", "gender": 2, "id": 70939, "name": "Alberto Morin", "order": 25, "profile_path": "/oT6SkjHlUpOxOFpzJwBdbWi2eNM.jpg"}, {"cast_id": 32, "character": "Blanche - Ellen's Maid", "credit_id": "588e2895925141184b00c6ac", "gender": 1, "id": 967133, "name": "Ruth Robinson", "order": 26, "profile_path": null}, {"cast_id": 33, "character": "Attorney", "credit_id": "588e28ac925141183700c8fa", "gender": 0, "id": 119903, "name": "Gloria Roy", "order": 27, "profile_path": "/aaF3ntpCY71g3GBOPfyuZwp72Vt.jpg"}, {"cast_id": 34, "character": "Bertha - Gossip", "credit_id": "588e28c2925141183a00ce2a", "gender": 1, "id": 955108, "name": "Florence Shirley", "order": 28, "profile_path": null}, {"cast_id": 35, "character": "President of the Court", "credit_id": "588e28d6c3a368749700bee0", "gender": 2, "id": 30216, "name": "Pierre Watkin", "order": 29, "profile_path": "/s9Z72wx6hJ2BwG6feVC6s4TcWrb.jpg"}, {"cast_id": 36, "character": "Minor Role", "credit_id": "588e28f9925141183d00cb33", "gender": 2, "id": 89016, "name": "Lloyd Whitlock", "order": 30, "profile_path": "/6qlCUM8sjSk224BhsWmIyZiltdf.jpg"}], "crew": [{"credit_id": "544095bcc3a368606a0008fe", "department": "Directing", "gender": 2, "id": 20370, "job": "Director", "name": "Irving Pichel", "profile_path": "/ayZG4dUhY6XtPmvMKv0ezHqBPkN.jpg"}, {"credit_id": "54f8d5999251410190000038", "department": "Writing", "gender": 0, "id": 1435427, "job": "Story", "name": "Basil King", "profile_path": null}, {"credit_id": "54f8d5a8925141019900001d", "department": "Writing", "gender": 2, "id": 30286, "job": "Writer", "name": "Samuel G. Engel", "profile_path": null}, {"credit_id": "54f8d5b8c3a368284b00003e", "department": "Writing", "gender": 2, "id": 89084, "job": "Writer", "name": "John Howard Lawson", "profile_path": null}, {"credit_id": "54f8d5cb925141019000003f", "department": "Production", "gender": 0, "id": 103948, "job": "Executive Producer", "name": "Sol M. Wurtzel", "profile_path": null}, {"credit_id": "54f8d5dac3a368284d000037", "department": "Sound", "gender": 2, "id": 8503, "job": "Original Music Composer", "name": "Alfred Newman", "profile_path": "/498k6KmplSJPvWzAecS7eUnaBNg.jpg"}, {"credit_id": "576a1d899251416b160001a4", "department": "Camera", "gender": 2, "id": 39798, "job": "Director of Photography", "name": "Lucien N. Andriot", "profile_path": null}]}}