{"adult": false, "backdrop_path": "/93BTpBd4mOwGZGBy1fL3oymJz6d.jpg", "belongs_to_collection": null, "budget": 0, "genres": [{"id": 35, "name": "Comedy"}, {"id": 99, "name": "Documentary"}], "homepage": null, "id": 29818, "imdb_id": "tt0077186", "original_language": "en", "original_title": "Auditions", "overview": "A pseudo-documentary about the processes involved in putting together and casting actors and actresses for a porn film. Although several actual porn stars are in the film, it is not a porn film itself.", "popularity": 0.736, "poster_path": "/isYeU59KiN6F4UPu6UxdgQeeL3E.jpg", "production_companies": [], "production_countries": [], "release_date": "1978-01-01", "revenue": 0, "runtime": 82, "spoken_languages": [], "status": "Released", "tagline": "The only thing more erotic than an X-rated movie", "title": "Auditions", "video": false, "vote_average": 6.3, "vote_count": 4, "keywords": {"keywords": [{"id": 190370, "name": "erotic movie"}]}, "similar": {"page": 1, "results": [{"adult": false, "backdrop_path": null, "genre_ids": [99], "id": 398616, "original_language": "en", "original_title": "Playboy's Real Couples - Sex in Dangerous Places", "overview": "Unlike any other video, Playboy's ground-breaking Real Couples is a reality-based show with a refreshingly new approach.", "poster_path": "/cs9N32lfNKV8LwEnNPq0OUle7Cl.jpg", "release_date": "2001-02-27", "title": "Playboy's Real Couples - Sex in Dangerous Places", "video": true, "vote_average": 1.0, "vote_count": 1, "popularity": 3.739}, {"adult": false, "backdrop_path": "/r2b4rCQlaQ9eyhZhVukW8EnRW0c.jpg", "genre_ids": [35], "id": 55580, "original_language": "it", "original_title": "Fermo posta Tinto Brass", "overview": "This film is a series of letters, photos and video cassettes which women often send in to certain newspapers. By visualizing their story-telling (the name given by the psychologists to their fantasies) the film portrays the confessions, the secret longings, the adventures, recollections, dreams, desires and fantasies of these women. It is an open secret that most women dream of forbidden affairs, secret lovers and hasty encounters but when it comes down to it they lack the courage to pursue their dreams.", "poster_path": "/zC4QqXYwdOPS3LT9J0YPN3bcDxz.jpg", "release_date": "1995-08-30", "title": "P.O. Box Tinto Brass", "video": false, "vote_average": 5.2, "vote_count": 34, "popularity": 14.399}, {"adult": false, "backdrop_path": "/98ahnrena4PwLth7HFYGLf9yssH.jpg", "genre_ids": [35, 18, 10749], "id": 22705, "original_language": "it", "original_title": "Tra(sgre)dire", "overview": "While scouting out apartments in London for her Venetian boyfriend, Carla rents an apartment that overlooks the Thames. There she meet the lesbian hyper-horny real estate agent Moira.", "poster_path": "/kZITrLEiTfzzJhtwtXhQUl3ImCQ.jpg", "release_date": "2000-01-28", "title": "Cheeky", "video": false, "vote_average": 5.7, "vote_count": 92, "popularity": 32.727}, {"adult": false, "backdrop_path": "/m83O9TqAiZo3F2YgxMpuA5kxGZP.jpg", "genre_ids": [35, 10749], "id": 50124, "original_language": "it", "original_title": "Monella", "overview": "The story takes place in northern Italy in the 1950's. Lola and Masetto are about to get married. Masetto wants to keep Lola as a virgin until they are married. But Lola is impatient to remain in chastity until the wedding night. She wants to be sure that Masetto is a good lover, before she commits herself into marriage. She does everything to trick Masetto into breaking the moral tradition.", "poster_path": "/2mlv1R8MlhlGw4dZ0tXy0K6u7ew.jpg", "release_date": "1998-01-21", "title": "Frivolous Lola", "video": false, "vote_average": 4.3, "vote_count": 85, "popularity": 10.989}, {"adult": false, "backdrop_path": "/tk6QB32plylH41eo2Pbv4sIVljO.jpg", "genre_ids": [18], "id": 50270, "original_language": "it", "original_title": "Paprika", "overview": "A young country girl comes to town and works in a brothel in order to help her fiance get the money to start his own business. \"Paprika\" is the name given to her by the madam.", "poster_path": "/6QthFTJvUheocw3fcKklnsMcGib.jpg", "release_date": "1991-02-13", "title": "Paprika", "video": false, "vote_average": 5.9, "vote_count": 81, "popularity": 20.02}, {"adult": false, "backdrop_path": "/bYbnlh6VXFRtcSX82UMDsBDLB5j.jpg", "genre_ids": [18, 10749], "id": 28468, "original_language": "it", "original_title": "La chiave", "overview": "After twenty years of marriage, art professor Nino Rolfe attempts to break down his wife Teresa's conventional modesty. Noticing her affection for their daughter's fianc\u00e9, Nino instigates her sexual interest in him as well. This sets off a chain of unexpected events and emotional complications, as Nino and his unpredictable fascist daughter find that they both enjoy being jealous.", "poster_path": "/e6g2geNLgFzMbriH6EvSJZD78nx.jpg", "release_date": "1983-10-18", "title": "The Key", "video": false, "vote_average": 5.0, "vote_count": 128, "popularity": 19.088}, {"adult": false, "backdrop_path": "/xC9cG6Wy6QbH2hoAx11xPPD995R.jpg", "genre_ids": [18, 10749], "id": 86331, "original_language": "fr", "original_title": "Q", "overview": "In a social context deteriorated by a countrywide economic crisis, the life of several people will be turned upside down after they meet Cecile, a character who symbolizes desire.", "poster_path": "/9Jg9s4yTEndNmy1SSXRF9jdxY9D.jpg", "release_date": "2011-09-14", "title": "Desire", "video": false, "vote_average": 4.7, "vote_count": 204, "popularity": 30.344}, {"id": 88, "video": false, "vote_count": 3462, "vote_average": 7.3, "title": "Dirty Dancing", "release_date": "1987-08-21", "original_language": "en", "original_title": "Dirty Dancing", "genre_ids": [18, 10402, 10749], "backdrop_path": "/ngDmpFRzNGr9XMtKchhBZjt4DLH.jpg", "adult": false, "overview": "Expecting the usual tedium that accompanies a summer in the Catskills with her family, 17-year-old Frances 'Baby' Houseman is surprised to find herself stepping into the shoes of a professional hoofer\u2014and unexpectedly falling in love.", "poster_path": "/jFoktPxTtabZfh9JeDy3F78g9w7.jpg", "popularity": 20.202}, {"adult": false, "backdrop_path": "/qPCI9SZmHXmeG6OK367r9GvkuGl.jpg", "genre_ids": [35, 10749], "id": 41280, "original_language": "en", "original_title": "Private Lessons", "overview": "Phillip Filmore is a naive, 15-year-old, preoccupied with sex, who develops a crush on Nicole Mallow, the new 30-something, French housekeeper and sitter to look after him when Phillip's father is out of town for the summer on a \"business\" trip. But Mr. Filmore's unscrupulous chauffeur, Lester Lewis, takes advantage of Phillip's crush on Nicole to hire her to seduce the youth, then draws her into a plot to fake her own death in a blackmail scheme aimed to drain Phillip's trust fund.", "poster_path": "/azdrerXeyr2Aofr7p9osEWnz05g.jpg", "release_date": "1981-08-21", "title": "Private Lessons", "video": false, "vote_average": 5.8, "vote_count": 36, "popularity": 20.413}, {"id": 2770, "video": false, "vote_count": 2941, "vote_average": 6.1, "title": "American Pie 2", "release_date": "2001-08-10", "original_language": "en", "original_title": "American Pie 2", "genre_ids": [35, 10749], "backdrop_path": "/1C1d3Tpesm8Vn3BRqsQZt0LfZcG.jpg", "adult": false, "overview": "The whole gang are back and as close as ever. They decide to get even closer by spending the summer together at a beach house. They decide to hold the biggest party ever to be seen, even if the preparation doesn't always go to plan. Especially when Stifler, Finch and Jim become more close to each other than they ever want to be and when Jim mistakes super glue for lubricant...", "poster_path": "/q4LNgUnRfltxzp3gf1MAGiK5LhV.jpg", "popularity": 22.387}, {"id": 106646, "video": false, "vote_count": 13901, "vote_average": 8.0, "title": "The Wolf of Wall Street", "release_date": "2013-12-25", "original_language": "en", "original_title": "The Wolf of Wall Street", "genre_ids": [35, 80, 18], "backdrop_path": "/rP36Rx5RQh0rmH2ynEIaG8DxbV2.jpg", "adult": false, "overview": "A New York stockbroker refuses to cooperate in a large securities fraud case involving corruption on Wall Street, corporate banking world and mob infiltration. Based on Jordan Belfort's autobiography.", "poster_path": "/vK1o5rZGqxyovfIhZyMELhk03wO.jpg", "popularity": 36.8}, {"adult": false, "backdrop_path": "/4QBI1pdjr2hH1fgC8NqwZZnWNso.jpg", "genre_ids": [10749, 35, 18], "id": 138697, "original_language": "en", "original_title": "Don Jon", "overview": "A New Jersey guy dedicated to his family, friends, and church, develops unrealistic expectations from watching porn and works to find happiness and intimacy with his potential true love.", "poster_path": "/xD93OhEhMPN0v5VXt21D6rx7HGg.jpg", "release_date": "2013-07-26", "title": "Don Jon", "video": false, "vote_average": 5.9, "vote_count": 2909, "popularity": 14.66}, {"adult": false, "backdrop_path": "/avhG8fITuG78IkKPk28CcBBHPOp.jpg", "genre_ids": [35, 18], "id": 112160, "original_language": "fr", "original_title": "Chroniques sexuelles d'une famille d'aujourd'hui", "overview": "Three generations of a French family open up about their sexual experiences and desires after young Romain is caught masturbating in his biology class.", "poster_path": "/pU2nD3Llaz3Taq5FAaQUg00uJYD.jpg", "release_date": "2012-05-09", "title": "Sexual Chronicles of a French Family", "video": false, "vote_average": 4.4, "vote_count": 169, "popularity": 29.133}, {"adult": false, "backdrop_path": "/txR74Uy6sYbUv4HQURQXNF8LXTf.jpg", "genre_ids": [35], "id": 8277, "original_language": "en", "original_title": "American Pie Presents: Beta House", "overview": "Erik, Ryan, and Cooze start college and pledge the Beta House fraternity, presided over by none other than legendary Dwight Stifler. But chaos ensues when a fraternity of geeks threatens to stop the debauchery and the Betas have to make a stand for their right to party.", "poster_path": "/xJeYprcFqBfov6dUpjJIxDeaZJr.jpg", "release_date": "2007-12-10", "title": "American Pie Presents: Beta House", "video": false, "vote_average": 5.5, "vote_count": 1087, "popularity": 17.901}, {"adult": false, "backdrop_path": "/npClMhFGn4XUkwu6coq5oKAEu6L.jpg", "genre_ids": [35, 10749, 18], "id": 634, "original_language": "en", "original_title": "Bridget Jones's Diary", "overview": "A chaotic Bridget Jones meets a snobbish lawyer, and he soon enters her world of imperfections.", "poster_path": "/ym6kjFFZg6boC0QHBVw6hqJLbxv.jpg", "release_date": "2001-04-13", "title": "Bridget Jones's Diary", "video": false, "vote_average": 6.7, "vote_count": 3079, "popularity": 16.678}, {"adult": false, "backdrop_path": "/s7dcAllZEVSrVIVMUVAUmwAxFmn.jpg", "genre_ids": [35], "id": 4247, "original_language": "en", "original_title": "Scary Movie", "overview": "Following on the heels of popular teen-scream horror movies, with uproarious comedy and biting satire. Marlon and Shawn Wayans, Shannon Elizabeth and Carmen Electra pitch in to skewer some of Hollywood's biggest blockbusters, including Scream, I Know What You Did Last Summer, The Matrix, American Pie and The Blair Witch Project.", "poster_path": "/bvVmVFBVQLytK1H4TJTFdnhvf4T.jpg", "release_date": "2000-07-07", "title": "Scary Movie", "video": false, "vote_average": 6.2, "vote_count": 3800, "popularity": 18.358}, {"id": 4248, "video": false, "vote_count": 2609, "vote_average": 5.6, "title": "Scary Movie 2", "release_date": "2001-07-04", "original_language": "en", "original_title": "Scary Movie 2", "genre_ids": [35], "backdrop_path": "/trZlq0eB8V8R4r7au8yX7myNESa.jpg", "adult": false, "overview": "While the original parodied slasher flicks like Scream, Keenen Ivory Wayans's sequel to Scary Movie takes comedic aim at haunted house movies. A group of students visit a mansion called \"Hell House,\" and murderous high jinks ensue.", "poster_path": "/tSGWhSResV2Cnqqr91TGKyZzf79.jpg", "popularity": 18.921}, {"adult": false, "backdrop_path": "/ecREZ3vYCqethftSDWK4we0X498.jpg", "genre_ids": [35, 18, 10749], "id": 4507, "original_language": "es", "original_title": "Jam\u00f3n, jam\u00f3n", "overview": "Jose Luis is an executive at his parents underwear factory where his girlfriend Sylvia works on the shop floor. When Sylvia becomes pregnant, Jose Luis promises her that he will marry her, most likely against the wishes of his parents. Jose Luis' mother is determined to break her son's engagement to a girl from a lower-class family, and hires Raul, a potential underwear model and would-be bullfighter to seduce Sylvia.", "poster_path": "/v5Fq01ZtYnA2Grxdd3g8CuGZARg.jpg", "release_date": "1992-09-03", "title": "Jamon Jamon", "video": false, "vote_average": 6.1, "vote_count": 143, "popularity": 14.21}, {"adult": false, "backdrop_path": "/by0WtpJ5UNxOy6ytIfPPTasbRoB.jpg", "genre_ids": [28, 12, 35, 18, 10751, 10402, 10749], "id": 17130, "original_language": "en", "original_title": "Crossroads", "overview": "Three friends get together and bury a box making a pact to open it at midnight at their high school graduation. In the little town in Georgia that they live in, things soon change. One is little miss perfect, one is an engaged prom queen, and the other is a pregnant outcast. The night of graduation, they open the box and they strike up a conversation. All of a sudden, one brings up the topic of her going to Los Angeles for a record contract audition. They all decide to go together and they leave. With a little money, they set out on the road with a guy named Ben. When one of them tells the other a rumor that he might be a homicidal maniac they are all scared of him. When they reach LA, Lucy falls in love with Ben and against her father's wishes, she stays and she goes to the audition.", "poster_path": "/egIs4cWxn0iBErFKrQ7STckjj49.jpg", "release_date": "2002-02-15", "title": "Crossroads", "video": false, "vote_average": 5.0, "vote_count": 334, "popularity": 12.973}, {"adult": false, "backdrop_path": "/gPiurUCO9Aq5BoftzRjNlvbBrPg.jpg", "genre_ids": [18, 10749], "id": 24402, "original_language": "fr", "original_title": "Emmanuelle", "overview": "Emmanuelle, a svelte, naive young woman, is en route to Bangkok where she'll join her new husband. He works for the French Embassy and has a lovely home, several dedicated servants, and an expensive car at his disposal. Once Emmanuelle arrives, her husband and a few friends introduce her to a realm of sexual ecstasy she'd never imagined.", "poster_path": "/cSZ8MQIoec4w0liHP4x8FJH5BJK.jpg", "release_date": "1974-06-25", "title": "Emmanuelle", "video": false, "vote_average": 5.1, "vote_count": 134, "popularity": 21.236}], "total_pages": 151, "total_results": 3013}, "recommendations": {"page": 1, "results": [], "total_pages": 1, "total_results": 0}, "credits": {"cast": [{"cast_id": 6, "character": "Sally Webster", "credit_id": "52fe45fcc3a368484e07a2e9", "gender": 1, "id": 97619, "name": "Linnea Quigley", "order": 0, "profile_path": "/jGqgeRVM7TtywNuZUv4HcJ6GROu.jpg"}, {"cast_id": 7, "character": "Melinda Sale", "credit_id": "52fe45fcc3a368484e07a2ed", "gender": 1, "id": 104951, "name": "Jennifer West", "order": 1, "profile_path": "/kBpQCvBB7C5TDOI66yhG1FzxmeX.jpg"}, {"cast_id": 8, "character": "Charlie White", "credit_id": "52fe45fcc3a368484e07a2f1", "gender": 2, "id": 104588, "name": "Rick Cassidy", "order": 2, "profile_path": "/8VDsAi5SH8c3fM9gIcqHDfrKab2.jpg"}, {"cast_id": 9, "character": "Patty Rhodes", "credit_id": "52fe45fcc3a368484e07a2f5", "gender": 0, "id": 104952, "name": "Rhonda Jo Petty", "order": 3, "profile_path": "/aOFc2lUmqRRQ4OkvwWgWa42k2D5.jpg"}, {"cast_id": 10, "character": "Larry Krantz", "credit_id": "52fe45fcc3a368484e07a2f9", "gender": 0, "id": 104953, "name": "William Margold", "order": 4, "profile_path": "/8Fn0LXnJbMaVTJL2WQEghpLI92i.jpg"}, {"cast_id": 12, "character": "Frieda Volker", "credit_id": "52fe45fcc3a368484e07a301", "gender": 0, "id": 104955, "name": "Marita Ditmore", "order": 6, "profile_path": null}, {"cast_id": 13, "character": "Jenny Marino", "credit_id": "52fe45fcc3a368484e07a305", "gender": 0, "id": 104956, "name": "Maria Lutra", "order": 7, "profile_path": null}, {"cast_id": 14, "character": "Ron Wilson", "credit_id": "52fe45fcc3a368484e07a309", "gender": 2, "id": 100165, "name": "Ric Lutze", "order": 8, "profile_path": null}, {"cast_id": 15, "character": "Adore O'Hara", "credit_id": "52fe45fcc3a368484e07a30d", "gender": 0, "id": 104957, "name": "Adore O'Hara", "order": 9, "profile_path": null}, {"cast_id": 16, "character": "Frank Murphy", "credit_id": "52fe45fcc3a368484e07a311", "gender": 2, "id": 104958, "name": "Robert Sommer", "order": 10, "profile_path": null}, {"cast_id": 17, "character": "Bonnie Tirol", "credit_id": "52fe45fcc3a368484e07a315", "gender": 0, "id": 45576, "name": "Idy Tripoldi", "order": 11, "profile_path": null}, {"cast_id": 18, "character": "Tracy Matthews", "credit_id": "52fe45fcc3a368484e07a319", "gender": 1, "id": 104959, "name": "Bonnie Werchan", "order": 12, "profile_path": null}, {"cast_id": 20, "character": "E. Eddie Edwards", "credit_id": "58b66047c3a3680678005059", "gender": 0, "id": 104945, "name": "Robert Staats", "order": 13, "profile_path": null}, {"cast_id": 21, "character": "Brittany Newland", "credit_id": "58b66058c3a36805980052e2", "gender": 1, "id": 101983, "name": "Linda York", "order": 14, "profile_path": null}, {"cast_id": 22, "character": "Van Scott", "credit_id": "5dff99d2d1a89300198a8c65", "gender": 0, "id": 104595, "name": "Cory Brandon", "order": 15, "profile_path": null}], "crew": [{"credit_id": "52fe45fcc3a368484e07a2e5", "department": "Sound", "gender": 2, "id": 19711, "job": "Original Music Composer", "name": "Richard Band", "profile_path": null}, {"credit_id": "52fe45fcc3a368484e07a2d9", "department": "Writing", "gender": 2, "id": 19707, "job": "Screenplay", "name": "Charles Band", "profile_path": "/ulNdloEQNPhKrFOloAwW2R3m6DU.jpg"}, {"credit_id": "52fe45fcc3a368484e07a2df", "department": "Production", "gender": 2, "id": 19707, "job": "Producer", "name": "Charles Band", "profile_path": "/ulNdloEQNPhKrFOloAwW2R3m6DU.jpg"}, {"credit_id": "52fe45fcc3a368484e07a2d3", "department": "Writing", "gender": 2, "id": 19708, "job": "Screenplay", "name": "Albert Band", "profile_path": null}, {"credit_id": "52fe45fcc3a368484e07a31f", "department": "Directing", "gender": 2, "id": 595684, "job": "Director", "name": "Harry Hurwitz", "profile_path": null}]}}