{"adult": false, "backdrop_path": "/ooO8DK7isqd4j96gVR3jMFVGTQe.jpg", "belongs_to_collection": null, "budget": 0, "genres": [{"id": 53, "name": "Thriller"}, {"id": 878, "name": "Science Fiction"}], "homepage": null, "id": 299269, "imdb_id": "tt4131682", "original_language": "es", "original_title": "Sue\u00f1an los androides", "overview": "It is the year 2052, on Earth, in Spain, and the final days of almost everything. The city is a string of abandoned construction sites. Everyday there are fewer people and not all of them are human. A sheep costs four and a half million pesetas and you have to spend a lot of bullets to pay for one.", "popularity": 0.989, "poster_path": "/mNxhzFYsTk1ebKnxxw2QPZdtvje.jpg", "production_companies": [{"id": 95143, "logo_path": null, "name": "Ion de Sosa Filmproduktion", "origin_country": ""}], "production_countries": [{"iso_3166_1": "ES", "name": "Spain"}], "release_date": "2014-11-08", "revenue": 0, "runtime": 61, "spoken_languages": [{"iso_639_1": "es", "name": "Espa\u00f1ol"}], "status": "Released", "tagline": "", "title": "Androids Dream", "video": false, "vote_average": 3.9, "vote_count": 7, "keywords": {"keywords": [{"id": 803, "name": "android"}]}, "similar": {"page": 1, "results": [{"id": 11, "video": false, "vote_count": 12747, "vote_average": 8.2, "title": "Star Wars", "release_date": "1977-05-25", "original_language": "en", "original_title": "Star Wars", "genre_ids": [28, 12, 878], "backdrop_path": "/4iJfYYoQzZcONB9hNzg0J0wWyPH.jpg", "adult": false, "overview": "Princess Leia is captured and held hostage by the evil Imperial forces in their effort to take over the galactic Empire. Venturesome Luke Skywalker and dashing captain Han Solo team together with the loveable robot duo R2-D2 and C-3PO to rescue the beautiful princess and restore peace and justice in the Empire.", "poster_path": "/btTdmkgIvOi0FFip1sPuZI2oQG6.jpg", "popularity": 57.029}, {"id": 140607, "video": false, "vote_count": 13675, "vote_average": 7.4, "title": "Star Wars: The Force Awakens", "release_date": "2015-12-15", "original_language": "en", "original_title": "Star Wars: The Force Awakens", "genre_ids": [28, 12, 14, 878], "backdrop_path": "/c2Ax8Rox5g6CneChwy1gmu4UbSb.jpg", "adult": false, "overview": "Thirty years after defeating the Galactic Empire, Han Solo and his allies face a new threat from the evil Kylo Ren and his army of Stormtroopers.", "poster_path": "/weUSwMdQIa3NaXVzwUoIIcAi85d.jpg", "popularity": 37.271}, {"id": 1891, "video": false, "vote_count": 10794, "vote_average": 8.4, "title": "The Empire Strikes Back", "release_date": "1980-05-20", "original_language": "en", "original_title": "The Empire Strikes Back", "genre_ids": [28, 12, 878], "backdrop_path": "/amYkOxCwHiVTFKendcIW0rSrRlU.jpg", "adult": false, "overview": "The epic saga continues as Luke Skywalker, in hopes of defeating the evil Galactic Empire, learns the ways of the Jedi from aging master Yoda. But Darth Vader is more determined than ever to capture Luke. Meanwhile, rebel leader Princess Leia, cocky Han Solo, Chewbacca, and droids C-3PO and R2-D2 are thrown into various stages of capture, betrayal and despair.", "poster_path": "/9SKDSFbaM6LuGqG1aPWN3wYGEyD.jpg", "popularity": 25.562}, {"id": 126889, "video": false, "vote_count": 5389, "vote_average": 5.9, "title": "Alien: Covenant", "release_date": "2017-05-09", "original_language": "en", "original_title": "Alien: Covenant", "genre_ids": [27, 878, 53], "backdrop_path": "/6jajFcaY2YsfGQstJ5HaqZNVseX.jpg", "adult": false, "overview": "Bound for a remote planet on the far side of the galaxy, the crew of the colony ship 'Covenant' discovers what is thought to be an uncharted paradise, but is actually a dark, dangerous world\u2014which has a sole inhabitant: the 'synthetic', David, survivor of the doomed Prometheus expedition.", "poster_path": "/zecMELPbU5YMQpC81Z8ImaaXuf9.jpg", "popularity": 36.026}, {"id": 12180, "video": false, "vote_count": 938, "vote_average": 5.9, "title": "Star Wars: The Clone Wars", "release_date": "2008-08-05", "original_language": "en", "original_title": "Star Wars: The Clone Wars", "genre_ids": [28, 12, 16, 878], "backdrop_path": "/gmLMaDXi4lFWG8WitaCYOJS5GtL.jpg", "adult": false, "overview": "Set between Episode II and III the Clone Wars is the first computer animated Star Wars film. Anakin and Obi Wan must find out who kidnapped Jabba the Hutts son and return him safely. The Seperatists will try anything to stop them and ruin any chance of a diplomatic agreement between the Hutt's and the Republic.", "poster_path": "/xd6yhmtS6mEURZLwUDT5raEMbf.jpg", "popularity": 13.626}, {"id": 1892, "video": false, "vote_count": 8971, "vote_average": 8.0, "title": "Return of the Jedi", "release_date": "1983-05-23", "original_language": "en", "original_title": "Return of the Jedi", "genre_ids": [28, 12, 878], "backdrop_path": "/koE7aMeR2ATivI18mCbscLsI0Nm.jpg", "adult": false, "overview": "Luke Skywalker leads a mission to rescue his friend Han Solo from the clutches of Jabba the Hutt, while the Emperor seeks to destroy the Rebellion once and for all with a second dreaded Death Star.", "poster_path": "/lrJWyjOVjPhghl4KyAMtOepAxs.jpg", "popularity": 31.676}, {"id": 8078, "video": false, "vote_count": 2644, "vote_average": 6.0, "title": "Alien Resurrection", "release_date": "1997-11-12", "original_language": "en", "original_title": "Alien Resurrection", "genre_ids": [28, 27, 878], "backdrop_path": "/1F8KilfgVwWTB1tIzfwoKUvPqpl.jpg", "adult": false, "overview": "Two hundred years after Lt. Ripley died, a group of scientists clone her, hoping to breed the ultimate weapon. But the new Ripley is full of surprises \u2026 as are the new aliens. Ripley must team with a band of smugglers to keep the creatures from reaching Earth.", "poster_path": "/2mavulZivbQa8XZlRA6h3hmesl7.jpg", "popularity": 22.33}, {"id": 1894, "video": false, "vote_count": 8118, "vote_average": 6.5, "title": "Star Wars: Episode II - Attack of the Clones", "release_date": "2002-05-15", "original_language": "en", "original_title": "Star Wars: Episode II - Attack of the Clones", "genre_ids": [28, 12, 878], "backdrop_path": "/vovhXw10DSsRS9yoVbZqb60pXyX.jpg", "adult": false, "overview": "Following an assassination attempt on Senator Padm\u00e9 Amidala, Jedi Knights Anakin Skywalker and Obi-Wan Kenobi investigate a mysterious plot that could change the galaxy forever.", "poster_path": "/2vcNFtrZXNwIcBgH5e2xXCmVR8t.jpg", "popularity": 23.371}, {"id": 330459, "video": false, "vote_count": 10231, "vote_average": 7.5, "title": "Rogue One: A Star Wars Story", "release_date": "2016-12-14", "original_language": "en", "original_title": "Rogue One: A Star Wars Story", "genre_ids": [28, 12, 878], "backdrop_path": "/tZjVVIYXACV4IIIhXeIM59ytqwS.jpg", "adult": false, "overview": "A rogue band of resistance fighters unite for a mission to steal the Death Star plans and bring a new hope to the galaxy.", "poster_path": "/qjiskwlV1qQzRCjpV0cL9pEMF9a.jpg", "popularity": 29.289}, {"id": 87101, "video": false, "vote_count": 5757, "vote_average": 5.9, "title": "Terminator Genisys", "release_date": "2015-06-23", "original_language": "en", "original_title": "Terminator Genisys", "genre_ids": [28, 12, 878, 53], "backdrop_path": "/3DmxSJ08m9wwbxwbwHzA4dunGNO.jpg", "adult": false, "overview": "The year is 2029. John Connor, leader of the resistance continues the war against the machines. At the Los Angeles offensive, John's fears of the unknown future begin to emerge when TECOM spies reveal a new plot by SkyNet that will attack him from both fronts; past and future, and will ultimately change warfare forever.", "poster_path": "/5JU9ytZJyR3zmClGmVm9q4Geqbd.jpg", "popularity": 60.439}, {"id": 8077, "video": false, "vote_count": 3112, "vote_average": 6.3, "title": "Alien\u00b3", "release_date": "1992-05-22", "original_language": "en", "original_title": "Alien\u00b3", "genre_ids": [28, 27, 878], "backdrop_path": "/nDPuIjpJyGDOnNEby5ZgkRBxymS.jpg", "adult": false, "overview": "After escaping with Newt and Hicks from the alien planet, Ripley crash lands on Fiorina 161, a prison planet and host to a correctional facility. Unfortunately, although Newt and Hicks do not survive the crash, a more unwelcome visitor does. The prison does not allow weapons of any kind, and with aid being a long time away, the prisoners must simply survive in any way they can.", "poster_path": "/p7mUd9GpmCYV5qhkKGmiEerFK3i.jpg", "popularity": 25.873}, {"adult": false, "backdrop_path": "/gXUdQLbo6eqaTby2cEjFQW1jyVV.jpg", "genre_ids": [28, 53, 878], "id": 679, "original_language": "en", "original_title": "Aliens", "overview": "When Ripley's lifepod is found by a salvage crew over 50 years later, she finds that terra-formers are on the very planet they found the alien species. When the company sends a family of colonists out to investigate her story\u2014all contact is lost with the planet and colonists. They enlist Ripley and the colonial marines to return and search for answers.", "poster_path": "/nORMXEkYEbzkU5WkMWMgRDJwjSZ.jpg", "release_date": "1986-07-18", "title": "Aliens", "video": false, "vote_average": 7.9, "vote_count": 5590, "popularity": 31.82}, {"id": 7453, "video": false, "vote_count": 2556, "vote_average": 6.7, "title": "The Hitchhiker's Guide to the Galaxy", "release_date": "2005-04-28", "original_language": "en", "original_title": "The Hitchhiker's Guide to the Galaxy", "genre_ids": [12, 35, 878, 10751], "backdrop_path": "/kMf3ewax3ZeiSESaPQxBAReQzDD.jpg", "adult": false, "overview": "Mere seconds before the Earth is to be demolished by an alien construction crew, Arthur Dent is swept off the planet by his friend Ford Prefect, a researcher penning a new edition of \"The Hitchhiker's Guide to the Galaxy.\"", "poster_path": "/fOb4cJMhnZ11BoHNUii3Vcfo3XU.jpg", "popularity": 23.951}, {"id": 9323, "video": false, "vote_count": 1641, "vote_average": 7.9, "title": "Ghost in the Shell", "release_date": "1995-11-18", "original_language": "ja", "original_title": "GHOST IN THE SHELL", "genre_ids": [28, 16, 878], "backdrop_path": "/m1LUdsYnFThcrbvRzlpbsFioEQT.jpg", "adult": false, "overview": "In the year 2029, the barriers of our world have been broken down by the net and by cybernetics, but this brings new vulnerability to humans in the form of brain-hacking. When a highly-wanted hacker known as 'The Puppetmaster' begins involving them in politics, Section 9, a group of cybernetically enhanced cops, are called in to investigate and stop the Puppetmaster.", "poster_path": "/9gC88zYUBARRSThcG93MvW14sqx.jpg", "popularity": 21.491}, {"id": 644, "video": false, "vote_count": 3855, "vote_average": 7.0, "title": "A.I. Artificial Intelligence", "release_date": "2001-06-29", "original_language": "en", "original_title": "A.I. Artificial Intelligence", "genre_ids": [12, 18, 878], "backdrop_path": "/idVdfyi51JtG7N5DPW6qeSankyV.jpg", "adult": false, "overview": "David, a robotic boy\u2014the first of his kind programmed to love\u2014is adopted as a test case by a Cybertronics employee and his wife. Though he gradually becomes their child, a series of unexpected circumstances make this life impossible for David. Without final acceptance by humans or machines, David embarks on a journey to discover where he truly belongs, uncovering a world in which the line between robot and machine is both vast and profoundly thin.", "poster_path": "/wnUAcUrMRGPPZUDroLeZhSjLkuu.jpg", "popularity": 25.295}, {"id": 264660, "video": false, "vote_count": 8708, "vote_average": 7.6, "title": "Ex Machina", "release_date": "2015-01-21", "original_language": "en", "original_title": "Ex Machina", "genre_ids": [18, 878], "backdrop_path": "/9X3cDZb4GYGQeOnZHLwMcCFz2Ro.jpg", "adult": false, "overview": "Caleb, a 26 year old coder at the world's largest internet company, wins a competition to spend a week at a private mountain retreat belonging to Nathan, the reclusive CEO of the company. But when Caleb arrives at the remote location he finds that he will have to participate in a strange and fascinating experiment in which he must interact with the world's first true artificial intelligence, housed in the body of a beautiful robot girl.", "poster_path": "/btbRB7BrD887j5NrvjxceRDmaot.jpg", "popularity": 30.787}, {"id": 198184, "video": false, "vote_count": 5351, "vote_average": 6.7, "title": "Chappie", "release_date": "2015-03-04", "original_language": "en", "original_title": "Chappie", "genre_ids": [28, 80, 878], "backdrop_path": "/y5lG7TBpeOMG0jxAaTK0ghZSzBJ.jpg", "adult": false, "overview": "Every child comes into the world full of promise, and none more so than Chappie: he is gifted, special, a prodigy. Like any child, Chappie will come under the influence of his surroundings\u2014some good, some bad\u2014and he will rely on his heart and soul to find his way in the world and become his own man. But there's one thing that makes Chappie different from any one else: he is a robot.", "poster_path": "/saF3HtAduvrP9ytXDxSnQJP3oqx.jpg", "popularity": 30.696}, {"adult": false, "backdrop_path": "/dfNrZ82poQ8blHWJreIv6JZQ9JA.jpg", "genre_ids": [27, 878], "id": 348, "original_language": "en", "original_title": "Alien", "overview": "During its return to the earth, commercial spaceship Nostromo intercepts a distress signal from a distant planet. When a three-member team of the crew discovers a chamber containing thousands of eggs on the planet, a creature inside one of the eggs attacks an explorer. The entire crew is unaware of the impending nightmare set to descend upon them when the alien parasite planted inside its unfortunate host is birthed.", "poster_path": "/2h00HrZs89SL3tXB4nbkiM7BKHs.jpg", "release_date": "1979-05-25", "title": "Alien", "video": false, "vote_average": 8.1, "vote_count": 8383, "popularity": 41.028}, {"adult": false, "backdrop_path": "/vRkupior3ni5NPLnIicpjRKYYVw.jpg", "genre_ids": [878], "id": 411135, "original_language": "en", "original_title": "Future World", "overview": "A young boy searches a future world wasteland for a rumored cure for his dying mother.", "poster_path": "/gZkXGa544XnUNf44CEwb7gpU8Ma.jpg", "release_date": "2018-05-25", "title": "Future World", "video": false, "vote_average": 4.2, "vote_count": 114, "popularity": 12.56}, {"id": 5549, "video": false, "vote_count": 922, "vote_average": 5.8, "title": "RoboCop 2", "release_date": "1990-06-22", "original_language": "en", "original_title": "RoboCop 2", "genre_ids": [28, 12, 80, 878, 53], "backdrop_path": "/pkuf3xajNzDPzAXtvGNNhs59XBL.jpg", "adult": false, "overview": "After a successful deployment of the Robocop Law Enforcement unit, OCP sees its goal of urban pacification come closer and closer, but as this develops, a new narcotic known as \"Nuke\" invades the streets led by God-delirious leader Cane. As this menace grows, it may prove to be too much for Murphy to handle. OCP tries to replicate the success of the first unit, but ends up with failed prototypes with suicidal issues... until Dr. Faxx, a scientist straying away from OCP's path, uses Cane as the new subject for the Robocop 2 project, a living God.", "poster_path": "/jHE1jOJQILXSPudL4h94NI3TRL.jpg", "popularity": 14.07}], "total_pages": 26, "total_results": 518}, "recommendations": {"page": 1, "results": [], "total_pages": 1, "total_results": 0}, "credits": {"cast": [{"cast_id": 1, "character": "", "credit_id": "544e29ecc3a3682429001c0e", "gender": 2, "id": 1378232, "name": "Manolo Mar\u00edn", "order": 1, "profile_path": null}, {"cast_id": 2, "character": "", "credit_id": "544e29f2c3a3682429001c14", "gender": 0, "id": 1378233, "name": "Mois\u00e9s Richart", "order": 2, "profile_path": null}, {"cast_id": 3, "character": "", "credit_id": "544e29f90e0a2608d4004490", "gender": 0, "id": 1286652, "name": "Marta Bassols", "order": 3, "profile_path": null}, {"cast_id": 4, "character": "", "credit_id": "544e29ffc3a3682424001c40", "gender": 0, "id": 1378234, "name": "Coque S\u00e1nchez", "order": 4, "profile_path": null}, {"cast_id": 5, "character": "", "credit_id": "544e2a05c3a3682424001c45", "gender": 0, "id": 1378235, "name": "Margot S\u00e1nchez", "order": 5, "profile_path": null}, {"cast_id": 9, "character": "Veterinarian", "credit_id": "59c1502f925141731e00040a", "gender": 0, "id": 1891177, "name": "\u00d3scar de la Huerga", "order": 6, "profile_path": null}, {"cast_id": 10, "character": "Police Commissioner", "credit_id": "59c1503c925141734d0003f1", "gender": 0, "id": 1088996, "name": "C\u00e9sar Velasco", "order": 7, "profile_path": null}, {"cast_id": 11, "character": "Vidente", "credit_id": "59c1504dc3a36806c60003c4", "gender": 0, "id": 1891178, "name": "Bego\u00f1a Alarc\u00f3n", "order": 8, "profile_path": null}, {"cast_id": 12, "character": "Manolo's Bride", "credit_id": "59c1505e925141730f000464", "gender": 0, "id": 1891179, "name": "Eva Swoboda", "order": 9, "profile_path": null}, {"cast_id": 13, "character": "Mois\u00e9s Friend", "credit_id": "59c15069c3a368067a00044a", "gender": 0, "id": 1891180, "name": "Bego\u00f1a Jim\u00e9nez Velasco", "order": 10, "profile_path": null}, {"cast_id": 14, "character": "Protectora de animales", "credit_id": "59c15074925141734d00043a", "gender": 0, "id": 1891181, "name": "Pilar L\u00f3pez Cepeda", "order": 11, "profile_path": null}, {"cast_id": 15, "character": "Priest", "credit_id": "59c15080c3a36806b5000401", "gender": 0, "id": 1891182, "name": "Harold Delgado", "order": 12, "profile_path": null}, {"cast_id": 16, "character": "Coque's Co-worker", "credit_id": "59c1508bc3a36806e70004d9", "gender": 0, "id": 1705844, "name": "Rizwan Ahmed", "order": 13, "profile_path": null}, {"cast_id": 17, "character": "", "credit_id": "59c15092c3a368070e000420", "gender": 0, "id": 1891183, "name": "Herminia Ruiz", "order": 14, "profile_path": null}, {"cast_id": 18, "character": "", "credit_id": "59c15099c3a36806e70004f0", "gender": 0, "id": 1280443, "name": "Mar\u00eda Antonia del R\u00edo", "order": 15, "profile_path": null}, {"cast_id": 22, "character": "", "credit_id": "5a20c392c3a3680b8d09b46b", "gender": 0, "id": 1932706, "name": "Tania Atanasova", "order": 16, "profile_path": null}, {"cast_id": 23, "character": "", "credit_id": "5a20c3920e0a264cc80a0946", "gender": 0, "id": 1932707, "name": "Gabriel Jos\u00e9 Risquez", "order": 17, "profile_path": null}, {"cast_id": 24, "character": "", "credit_id": "5a20c392c3a3680b9a0a3529", "gender": 0, "id": 1932708, "name": "Paula Parra", "order": 18, "profile_path": null}, {"cast_id": 25, "character": "", "credit_id": "5a20c393925141033909ae38", "gender": 0, "id": 1932709, "name": "Demi Grigaliunaite", "order": 19, "profile_path": null}, {"cast_id": 26, "character": "", "credit_id": "5a20c3930e0a264cbc09f452", "gender": 0, "id": 1932710, "name": "Vanesa G\u00f3mez", "order": 20, "profile_path": null}, {"cast_id": 27, "character": "", "credit_id": "5a20c393c3a3680b8d09b472", "gender": 0, "id": 1932711, "name": "Nuria Cervello", "order": 21, "profile_path": null}, {"cast_id": 28, "character": "", "credit_id": "5a20c394c3a3680b8d09b47a", "gender": 0, "id": 1932712, "name": "Abilio Herrera", "order": 22, "profile_path": null}, {"cast_id": 29, "character": "", "credit_id": "5a20c394c3a3680b9309c290", "gender": 2, "id": 1932713, "name": "Joaqu\u00edn Mart\u00ednez", "order": 23, "profile_path": null}], "crew": [{"credit_id": "5a1fa5a30e0a264cca08780b", "department": "Editing", "gender": 2, "id": 975381, "job": "Editor", "name": "Sergio Jim\u00e9nez", "profile_path": "/lnyehyldUA1oLR7D5x38AJD16Ik.jpg"}, {"credit_id": "59c14ff3c3a36806b5000373", "department": "Writing", "gender": 2, "id": 1170171, "job": "Writer", "name": "Jorge Gil Munarriz", "profile_path": "/gMJcfKMSHMnXOckP5oEMnYFZc4X.jpg"}, {"credit_id": "59c14febc3a368067a0003b5", "department": "Writing", "gender": 0, "id": 1263121, "job": "Writer", "name": "Chema Garc\u00eda Ibarra", "profile_path": null}, {"credit_id": "5e162b5766565a00120ff66d", "department": "Production", "gender": 2, "id": 1285538, "job": "Producer", "name": "Luis L\u00f3pez Carrasco", "profile_path": null}, {"credit_id": "544e29ce0e0a2608d000457b", "department": "Directing", "gender": 2, "id": 1378230, "job": "Director", "name": "Ion De Sosa", "profile_path": "/3oDX9owNp5uEYqjhb0YRwfrYzTk.jpg"}, {"credit_id": "5e162b35344a8e001502d376", "department": "Camera", "gender": 2, "id": 1378230, "job": "Director of Photography", "name": "Ion De Sosa", "profile_path": "/3oDX9owNp5uEYqjhb0YRwfrYzTk.jpg"}, {"credit_id": "5e162b4c0cb3350013035847", "department": "Production", "gender": 2, "id": 1378230, "job": "Producer", "name": "Ion De Sosa", "profile_path": "/3oDX9owNp5uEYqjhb0YRwfrYzTk.jpg"}, {"credit_id": "59c14fdcc3a368070e00034a", "department": "Writing", "gender": 2, "id": 1378230, "job": "Writer", "name": "Ion De Sosa", "profile_path": "/3oDX9owNp5uEYqjhb0YRwfrYzTk.jpg"}, {"credit_id": "5a1fa5eb9251410330084f41", "department": "Production", "gender": 0, "id": 1932311, "job": "Executive Producer", "name": "Karsten Matern", "profile_path": null}]}}