{"adult": false, "backdrop_path": null, "belongs_to_collection": null, "budget": 0, "genres": [{"id": 99, "name": "Documentary"}], "homepage": "http://www.luogocomune.net/site/modules/sections/index.php?op=viewarticle&artid=167", "id": 299783, "imdb_id": "tt3828916", "original_language": "en", "original_title": "September 11: The New Pearl Harbor", "overview": "\"September 11 - The New Pearl Harbor\" is a 5 hour documentary that summarizes 12 years of public debate on 9/11. While aimed primarily at a general, uninformed audience, the film also contains some new findings that may be of interest to advanced researchers.", "popularity": 1.121, "poster_path": "/tM2c1q76DK618otGXyVvWielIQl.jpg", "production_companies": [], "production_countries": [], "release_date": "2013-09-12", "revenue": 0, "runtime": 300, "spoken_languages": [], "status": "Released", "tagline": "", "title": "September 11: The New Pearl Harbor", "video": false, "vote_average": 9.1, "vote_count": 5, "keywords": {"keywords": [{"id": 3365, "name": "pearl harbor"}, {"id": 4170, "name": "john f. kennedy"}, {"id": 10410, "name": "conspiracy"}, {"id": 161304, "name": "september 11 2001"}]}, "similar": {"page": 1, "results": [{"adult": false, "backdrop_path": "/3vrtpYhLZB9uxpG89Fps1ngANs4.jpg", "genre_ids": [18, 53, 36], "id": 820, "original_language": "en", "original_title": "JFK", "overview": "This acclaimed Oliver Stone drama presents the investigation into the assassination of President John F. Kennedy led by New Orleans district attorney Jim Garrison. When Garrison begins to doubt conventional thinking on the murder, he faces government resistance, and, after the killing of suspected assassin Lee Harvey Oswald, he closes the case. Later, however, Garrison reopens the investigation, finding evidence of an extensive conspiracy behind Kennedy's death.", "poster_path": "/9bmXpKDJv2kdtD4QNexErjGTIOz.jpg", "release_date": "1991-12-20", "title": "JFK", "video": false, "vote_average": 7.7, "vote_count": 1033, "popularity": 19.682}, {"adult": false, "backdrop_path": "/3kPv625w7XhWSELkqql5O17Y30o.jpg", "genre_ids": [99], "id": 14277, "original_language": "en", "original_title": "Loose Change", "overview": "What if...September 11th was not a surprise attack on America, but rather, a cold and calculated genocide by our own government?We were told that the twin towers were hit by commercial jetliners and subsequently brought down by jet fuel. We were told that the Pentagon was hit by a Boeing 757. We were told that flight 93 crashed in Shanksville, Pennsylvania. We were told that nineteen Arabs from halfway across the globe, acting under orders from Osama Bin Laden, were responsible. What you will see here will prove without a shadow of a doubt that everything you know about 9/11 is a complete fabrication. Conspiracy theory? It's not a theory if you can prove it.Written and narrated by Dylan Avery, this film presents a rebuttal to the official version of the September 11, 2001 terrorist attacks and the 9/11 Commission Report.", "poster_path": "/isRGTPFiX8IwM1dNXQ1SUoticvY.jpg", "release_date": "2006-06-01", "title": "Loose Change", "video": false, "vote_average": 7.1, "vote_count": 30, "popularity": 4.34}, {"adult": false, "backdrop_path": "/4bHX7nAmjMiZO9eotJITyro0raw.jpg", "genre_ids": [18], "id": 376866, "original_language": "en", "original_title": "Jackie", "overview": "An account of the days of First Lady, Jacqueline Kennedy, in the immediate aftermath of John F. Kennedy's assassination in 1963.", "poster_path": "/iMkl2Akc1f4CSJCieVwczM4KjZR.jpg", "release_date": "2016-12-02", "title": "Jackie", "video": false, "vote_average": 6.5, "vote_count": 1554, "popularity": 17.637}, {"id": 429197, "video": false, "vote_count": 1765, "vote_average": 7.1, "title": "Vice", "release_date": "2018-12-25", "original_language": "en", "original_title": "Vice", "genre_ids": [35, 18, 36], "backdrop_path": "/n49difnnZ8e0CZTvulnMRoURdQj.jpg", "adult": false, "overview": "George W. Bush picks Dick Cheney, the CEO of Halliburton Co., to be his Republican running mate in the 2000 presidential election. No stranger to politics, Cheney's impressive r\u00e9sum\u00e9 includes stints as White House chief of staff, House Minority Whip and defense secretary. When Bush wins by a narrow margin, Cheney begins to use his newfound power to help reshape the country and the world.", "poster_path": "/seqLrPNbWJdcX6PeEhBNkmxjz6h.jpg", "popularity": 20.026}, {"id": 2503, "video": false, "vote_count": 4835, "vote_average": 7.4, "title": "The Bourne Ultimatum", "release_date": "2007-08-03", "original_language": "en", "original_title": "The Bourne Ultimatum", "genre_ids": [28, 18, 9648, 53], "backdrop_path": "/6WpDOqkZFmhNJ0rwuLJiZVKlZi1.jpg", "adult": false, "overview": "Bourne is brought out of hiding once again by reporter Simon Ross who is trying to unveil Operation Blackbriar, an upgrade to Project Treadstone, in a series of newspaper columns. Information from the reporter stirs a new set of memories, and Bourne must finally uncover his dark past while dodging The Company's best efforts to eradicate him.", "poster_path": "/fHho6JYYY0nRcETWSoeI19iZsNF.jpg", "popularity": 16.034}, {"id": 13448, "video": false, "vote_count": 4319, "vote_average": 6.6, "title": "Angels & Demons", "release_date": "2009-05-13", "original_language": "en", "original_title": "Angels & Demons", "genre_ids": [9648, 53], "backdrop_path": "/wjrTJhDQEqmmaEfbM2Qo8ibzvSS.jpg", "adult": false, "overview": "Harvard symbologist Robert Langdon is recruited by the Vatican to investigate the apparent return of the Illuminati - a secret, underground organization - after four cardinals are kidnapped on the night of the papal conclave.", "poster_path": "/grN4lETrHNejatQZFP2F2DAWMU4.jpg", "popularity": 16.017}, {"adult": false, "backdrop_path": "/t4DO37tO3mhMX4DCdnI1EPsRi26.jpg", "genre_ids": [80, 18, 9648], "id": 3580, "original_language": "en", "original_title": "Changeling", "overview": "Christine Collins is overjoyed when her kidnapped son is brought back home. But when Christine suspects that the boy returned to her isn't her child, the police captain has her committed to an asylum.", "poster_path": "/qtte2n6ygA1zVG5kLrjUGui28TJ.jpg", "release_date": "2008-01-30", "title": "Changeling", "video": false, "vote_average": 7.5, "vote_count": 2322, "popularity": 19.918}, {"adult": false, "backdrop_path": "/39iGTAyo60mk3KcMay2yYcLsUyP.jpg", "genre_ids": [53], "id": 11644, "original_language": "en", "original_title": "Blow Out", "overview": "Jack Terry is a master sound recordist who works on grade-B horror movies. Late one evening, he is recording sounds for use in his movies when he hears something unexpected through his sound equipment and records it. Curiosity gets the better of him when the media become involved, and he begins to unravel the pieces of a nefarious conspiracy. As he struggles to survive against his shadowy enemies and expose the truth, he does not know whom he can trust.", "poster_path": "/vt5d1gGPgkAKoKp127WPHjSJF3P.jpg", "release_date": "1981-07-24", "title": "Blow Out", "video": false, "vote_average": 7.4, "vote_count": 579, "popularity": 12.416}, {"id": 11973, "video": false, "vote_count": 365, "vote_average": 7.0, "title": "Thirteen Days", "release_date": "2000-12-24", "original_language": "en", "original_title": "Thirteen Days", "genre_ids": [53], "backdrop_path": "/tn0r9Vv4WipUkPlDn3SEcKSouTz.jpg", "adult": false, "overview": "The story of the Cuban Missile Crisis in 1962\u2014the nuclear standoff with the USSR sparked by the discovery by the Americans of missile bases established on the Soviet-allied island of Cuba.", "poster_path": "/37yRUulECxF96eIok4ZXB8nRJ11.jpg", "popularity": 10.035}, {"id": 4638, "video": false, "vote_count": 4429, "vote_average": 7.5, "title": "Hot Fuzz", "release_date": "2007-02-14", "original_language": "en", "original_title": "Hot Fuzz", "genre_ids": [28, 35, 80], "backdrop_path": "/zuskekrfW3gj9ttXNVhfdHe5n22.jpg", "adult": false, "overview": "As a former London constable, Nicholas Angel finds it difficult to adapt to his new assignment in the sleepy British village of Sandford. Not only does he miss the excitement of the big city, but he also has a well-meaning oaf for a partner. However, when a series of grisly accidents rocks Sandford, Angel smells something rotten in the idyllic village.", "poster_path": "/5Jx6s6VXnunh8wCLgR0YgjwSgjh.jpg", "popularity": 22.387}, {"adult": false, "backdrop_path": "/sRJjliXA7ZqHCr7HCK0ZB83xxjr.jpg", "genre_ids": [12, 28, 878], "id": 101299, "original_language": "en", "original_title": "The Hunger Games: Catching Fire", "overview": "Katniss Everdeen has returned home safe after winning the 74th Annual Hunger Games along with fellow tribute Peeta Mellark. Winning means that they must turn around and leave their family and close friends, embarking on a \"Victor's Tour\" of the districts. Along the way Katniss senses that a rebellion is simmering, but the Capitol is still very much in control as President Snow prepares the 75th Annual Hunger Games (The Quarter Quell) - a competition that could change Panem forever.", "poster_path": "/Hn0KgefVEp0GkdTexS6gfKTMfi.jpg", "release_date": "2013-11-15", "title": "The Hunger Games: Catching Fire", "video": false, "vote_average": 7.4, "vote_count": 12031, "popularity": 22.164}, {"id": 399035, "video": false, "vote_count": 2685, "vote_average": 6.2, "title": "The Commuter", "release_date": "2018-01-11", "original_language": "en", "original_title": "The Commuter", "genre_ids": [28, 53], "backdrop_path": "/clmYuR1t4TtKcakIOvYIPrjyxDc.jpg", "adult": false, "overview": "A businessman, on his daily commute home, gets unwittingly caught up in a criminal conspiracy that threatens not only his life but the lives of those around him.", "poster_path": "/rDeGK6FIUfVcXmuBdEORPAGPMNg.jpg", "popularity": 26.327}, {"id": 269149, "video": false, "vote_count": 10912, "vote_average": 7.7, "title": "Zootopia", "release_date": "2016-02-11", "original_language": "en", "original_title": "Zootopia", "genre_ids": [12, 16, 35, 10751], "backdrop_path": "/mhdeE1yShHTaDbJVdWyTlzFvNkr.jpg", "adult": false, "overview": "Determined to prove herself, Officer Judy Hopps, the first bunny on Zootopia's police force, jumps at the chance to crack her first case - even if it means partnering with scam-artist fox Nick Wilde to solve the mystery.", "poster_path": "/sM33SANp9z6rXW8Itn7NnG1GOEs.jpg", "popularity": 51.293}, {"id": 75780, "video": false, "vote_count": 4451, "vote_average": 6.4, "title": "Jack Reacher", "release_date": "2012-12-20", "original_language": "en", "original_title": "Jack Reacher", "genre_ids": [28, 80, 18, 53], "backdrop_path": "/ezXodpP429qK0Av89pVNlaXWJkQ.jpg", "adult": false, "overview": "When a gunman takes five lives with six shots, all evidence points to the suspect in custody. On interrogation, the suspect offers up a single note: \"Get Jack Reacher!\" So begins an extraordinary chase for the truth, pitting Jack Reacher against an unexpected enemy, with a skill for violence and a secret to keep.", "poster_path": "/mt0ELw83HIRgaKaDzhsDcIi0RnW.jpg", "popularity": 15.945}, {"id": 225574, "video": false, "vote_count": 3550, "vote_average": 6.8, "title": "Non-Stop", "release_date": "2014-02-26", "original_language": "en", "original_title": "Non-Stop", "genre_ids": [28, 9648, 53], "backdrop_path": "/9nvKnbKPX6JvCX7CrbIdkuRgADg.jpg", "adult": false, "overview": "Bill Marks is a burned-out veteran of the Air Marshals service. He views the assignment not as a life-saving duty, but as a desk job in the sky. However, today's flight will be no routine trip. Shortly into the transatlantic journey from New York to London, he receives a series of mysterious text messages ordering him to have the government transfer $150 million into a secret account, or a passenger will die every 20 minutes.", "poster_path": "/ifgEHE1ortukpBF6wh03HCuctdr.jpg", "popularity": 21.608}, {"id": 591, "video": false, "vote_count": 5720, "vote_average": 6.7, "title": "The Da Vinci Code", "release_date": "2006-05-17", "original_language": "en", "original_title": "The Da Vinci Code", "genre_ids": [9648, 53], "backdrop_path": "/hcAMO4LF6G2hvsTpNgmY1kFj3jJ.jpg", "adult": false, "overview": "A murder in Paris\u2019 Louvre Museum and cryptic clues in some of Leonardo da Vinci\u2019s most famous paintings lead to the discovery of a religious mystery. For 2,000 years a secret society closely guards information that \u2014 should it come to light \u2014 could rock the very foundations of Christianity.", "poster_path": "/5IqaT3fza0Y9vKazjGwDGsNuuS8.jpg", "popularity": 28.373}, {"id": 72559, "video": false, "vote_count": 4091, "vote_average": 5.5, "title": "G.I. Joe: Retaliation", "release_date": "2013-03-26", "original_language": "en", "original_title": "G.I. Joe: Retaliation", "genre_ids": [28, 12, 878, 53], "backdrop_path": "/b9OVFl48ZV2oTLzACSwBpNrCUhJ.jpg", "adult": false, "overview": "Framed for crimes against the country, the G.I. Joe team is terminated by Presidential order. This forces the G.I. Joes into not only fighting their mortal enemy Cobra; they are forced to contend with threats from within the government that jeopardize their very existence.", "poster_path": "/iFWxbu2LLtfaWv6D1TSrY11huTe.jpg", "popularity": 23.132}, {"adult": false, "backdrop_path": "/ieJ5ImFoJILNULvnIpbulAln7Lr.jpg", "genre_ids": [12, 28, 53, 878], "id": 14869, "original_language": "en", "original_title": "G.I. Joe: The Rise of Cobra", "overview": "From the Egyptian desert to deep below the polar ice caps, the elite G.I. JOE team uses the latest in next-generation spy and military equipment to fight the corrupt arms dealer Destro and the growing threat of the mysterious Cobra organization to prevent them from plunging the world into chaos.", "poster_path": "/29eW5c5DaCFQejdt9V14RrA51yD.jpg", "release_date": "2009-08-04", "title": "G.I. Joe: The Rise of Cobra", "video": false, "vote_average": 5.7, "vote_count": 3082, "popularity": 22.639}, {"id": 1995, "video": false, "vote_count": 4069, "vote_average": 5.8, "title": "Lara Croft: Tomb Raider", "release_date": "2001-06-11", "original_language": "en", "original_title": "Lara Croft: Tomb Raider", "genre_ids": [28, 12, 14, 53], "backdrop_path": "/806IiIwpOKek2XIFnnvbAYRfqpb.jpg", "adult": false, "overview": "English aristocrat Lara Croft is skilled in hand-to-hand combat and in the middle of a battle with a secret society. The shapely archaeologist moonlights as a tomb raider to recover lost antiquities and meets her match in the evil Powell, who's in search of a powerful relic.", "poster_path": "/m6aodY7SrvlTRiUFkxClaNAIQT.jpg", "popularity": 23.661}, {"id": 274855, "video": false, "vote_count": 2498, "vote_average": 5.8, "title": "Geostorm", "release_date": "2017-10-13", "original_language": "en", "original_title": "Geostorm", "genre_ids": [28, 878, 53], "backdrop_path": "/79X8JkGxzc1tJMi0KxUSaPLooVg.jpg", "adult": false, "overview": "After an unprecedented series of natural disasters threatened the planet, the world's leaders came together to create an intricate network of satellites to control the global climate and keep everyone safe. But now, something has gone wrong: the system built to protect Earth is attacking it, and it becomes a race against the clock to uncover the real threat before a worldwide geostorm wipes out everything and everyone along with it.", "poster_path": "/nrsx0jEaBgXq4PWo7SooSnYJTv.jpg", "popularity": 22.466}], "total_pages": 30, "total_results": 600}, "recommendations": {"page": 1, "results": [], "total_pages": 1, "total_results": 0}, "credits": {"cast": [{"cast_id": 0, "character": "Narrator", "credit_id": "54516f80c3a3680236004c66", "gender": 2, "id": 88169, "name": "Joseph Culp", "order": 1, "profile_path": "/1UxXLIHmPAfYR6XDXnfU7eto1rS.jpg"}], "crew": [{"credit_id": "54517042c3a3680239004ab9", "department": "Directing", "gender": 0, "id": 118117, "job": "Director", "name": "Massimo Mazzucco", "profile_path": null}, {"credit_id": "54517053c3a368532b004f43", "department": "Writing", "gender": 0, "id": 118117, "job": "Writer", "name": "Massimo Mazzucco", "profile_path": null}, {"credit_id": "545170750e0a2601d8004bbf", "department": "Sound", "gender": 0, "id": 235747, "job": "Music", "name": "Federico Povoleri", "profile_path": null}]}}