{"adult": false, "backdrop_path": "/msW5LXd7kKvAfYQA6bPaPwMTNFG.jpg", "belongs_to_collection": null, "budget": 2500000, "genres": [{"id": 35, "name": "Comedy"}], "homepage": "http://www.adventuresofpower.com/", "id": 30023, "imdb_id": "tt0960721", "original_language": "en", "original_title": "Adventures of Power", "overview": "In his quest to become the world's greatest air-drummer, a small-town dreamer must overcome obstacles and ridicule to save the day.", "popularity": 3.819, "poster_path": "/pLGqeSX3DZt8xlt7EbxC40fyBjG.jpg", "production_companies": [{"id": 6786, "logo_path": null, "name": "Grack Films", "origin_country": ""}, {"id": 6787, "logo_path": null, "name": "# Andrea Sperling Productions", "origin_country": ""}], "production_countries": [{"iso_3166_1": "US", "name": "United States of America"}], "release_date": "2008-01-20", "revenue": 0, "runtime": 89, "spoken_languages": [{"iso_639_1": "en", "name": "English"}], "status": "Released", "tagline": "Imagine that.", "title": "Adventures of Power", "video": false, "vote_average": 5.2, "vote_count": 15, "keywords": {"keywords": [{"id": 10183, "name": "independent film"}]}, "similar": {"page": 1, "results": [{"adult": false, "backdrop_path": "/7QjoyyGdBV32x1sEh64dAnNjwg2.jpg", "genre_ids": [53, 35, 27], "id": 12521, "original_language": "en", "original_title": "Shocker", "overview": "After being sent to the electric chair, a serial killer uses electricity to come back from the dead and carry out his vengeance on the football player who turned him in to the police.", "poster_path": "/xEDmOhNGCKlWlS3mCiqLCVzBXVA.jpg", "release_date": "1989-10-27", "title": "Shocker", "video": false, "vote_average": 5.5, "vote_count": 176, "popularity": 9.966}, {"adult": false, "backdrop_path": "/9e5e7dJTMxQeF7zNx0CiJmxXE1I.jpg", "genre_ids": [27, 878, 53], "id": 11309, "original_language": "en", "original_title": "Hardware", "overview": "Mark 13 is a government-built killing machine programmed with artificial intelligence, able to repair and recharge itself from any energy source. Through a series of coincidences, the cyborg's head ends up in the home of a sculptress as a bizarre Christmas present from her boyfriend. Once inside its new home, the cyborg promptly reconstructs the rest of its body using a variety of household utensils and proceeds to go on a murderous rampage.", "poster_path": "/nsFm5xniViTVr1oVUpKmgvlAOEA.jpg", "release_date": "1990-09-14", "title": "Hardware", "video": false, "vote_average": 5.7, "vote_count": 145, "popularity": 11.259}, {"id": 298312, "video": false, "vote_count": 2921, "vote_average": 6.2, "title": "The Visit", "release_date": "2015-09-10", "original_language": "en", "original_title": "The Visit", "genre_ids": [27, 9648, 53], "backdrop_path": "/gbJlEeALVGo7kx8bC2q4EFWX1Xy.jpg", "adult": false, "overview": "The terrifying story of a brother and sister who are sent to their grandparents' remote Pennsylvania farm for a weeklong trip. Once the children discover that the elderly couple is involved in something deeply disturbing, they see their chances of getting back home are growing smaller every day.", "poster_path": "/32tNtTEQ1vIOLm1hEOSFkVwJT5D.jpg", "popularity": 20.148}, {"id": 4638, "video": false, "vote_count": 4426, "vote_average": 7.5, "title": "Hot Fuzz", "release_date": "2007-02-14", "original_language": "en", "original_title": "Hot Fuzz", "genre_ids": [28, 35, 80], "backdrop_path": "/zuskekrfW3gj9ttXNVhfdHe5n22.jpg", "adult": false, "overview": "As a former London constable, Nicholas Angel finds it difficult to adapt to his new assignment in the sleepy British village of Sandford. Not only does he miss the excitement of the big city, but he also has a well-meaning oaf for a partner. However, when a series of grisly accidents rocks Sandford, Angel smells something rotten in the idyllic village.", "poster_path": "/5Jx6s6VXnunh8wCLgR0YgjwSgjh.jpg", "popularity": 25.234}, {"adult": false, "backdrop_path": "/ipEenLpAyNJZUrzQHBw3fdurcm0.jpg", "genre_ids": [28, 878], "id": 10017, "original_language": "en", "original_title": "The Wraith", "overview": "Packard Walsh and his motorized gang control and terrorize an Arizona desert town where they force drivers to drag-race so they can 'win' their vehicles. After Walsh beats the decent teenager Jamie Hankins to death after finding him with his girlfriend, a mysterious power creates Jake Kesey, an extremely cool motor-biker who has a car which is invincible. Jake befriends Jamie's girlfriend Keri Johnson, takes Jamie's sweet brother Bill under his wing and manages what Sheriff Loomis couldn't; eliminate Packard's criminal gang the hard way...", "poster_path": "/agKajLCLtUNR5KH6lvmeg9LT1gD.jpg", "release_date": "1986-11-21", "title": "The Wraith", "video": false, "vote_average": 6.0, "vote_count": 178, "popularity": 14.894}, {"adult": false, "backdrop_path": "/slmJpBDhIROf64YwNtXnuMT4ufB.jpg", "genre_ids": [35, 878], "id": 13820, "original_language": "en", "original_title": "Repo Man", "overview": "A down and out young punk gets a job working with a seasoned repo man, but what awaits him in his new career is a series of outlandish adventures revolving around aliens, the CIA, and a most wanted '64 Chevy.", "poster_path": "/e3I831drBvpHe6FFb93geZxqU5c.jpg", "release_date": "1984-02-20", "title": "Repo Man", "video": false, "vote_average": 6.7, "vote_count": 275, "popularity": 10.497}, {"id": 185, "video": false, "vote_count": 7609, "vote_average": 8.2, "title": "A Clockwork Orange", "release_date": "1971-12-18", "original_language": "en", "original_title": "A Clockwork Orange", "genre_ids": [18, 878], "backdrop_path": "/unMc1jEyqCnzba976GviSFKGagt.jpg", "adult": false, "overview": "In a near-future Britain, young Alexander DeLarge and his pals get their kicks beating and raping anyone they please. When not destroying the lives of others, Alex swoons to the music of Beethoven. The state, eager to crack down on juvenile crime, gives an incarcerated Alex the option to undergo an invasive procedure that'll rob him of all personal agency. In a time when conscience is a commodity, can Alex change his tune?", "poster_path": "/4sHeTAp65WrSSuc05nRBKddhBxO.jpg", "popularity": 24.413}, {"adult": false, "backdrop_path": "/19qAk3bQZ6ulspbwhPw1A0bNpii.jpg", "genre_ids": [80, 27, 53], "id": 73861, "original_language": "sr", "original_title": "Srpski film", "overview": "Milos, a retired porn star, leads a normal family life trying to make ends meet. Presented with the opportunity of a lifetime to financially support his family for the rest of their lives, Milos must participate in one last mysterious film. From then on, Milos is drawn into a maelstrom of unbelievable cruelty and mayhem.", "poster_path": "/iB3ynCghwG63MrViBC6YyPzUIAn.jpg", "release_date": "2010-06-16", "title": "A Serbian Film", "video": false, "vote_average": 5.5, "vote_count": 898, "popularity": 15.06}, {"adult": false, "backdrop_path": "/kiWvoV78Cc3fUwkOHKzyBgVdrDD.jpg", "genre_ids": [37, 18, 12], "id": 281957, "original_language": "en", "original_title": "The Revenant", "overview": "In the 1820s, a frontiersman, Hugh Glass, sets out on a path of vengeance against those who left him for dead after a bear mauling.", "poster_path": "/oXUWEc5i3wYyFnL1Ycu8ppxxPvs.jpg", "release_date": "2015-12-25", "title": "The Revenant", "video": false, "vote_average": 7.5, "vote_count": 12122, "popularity": 30.491}, {"adult": false, "backdrop_path": "/7RRuRcGuWkZGuRyYugfXn0Fgrrr.jpg", "genre_ids": [28, 80, 18, 53], "id": 949, "original_language": "en", "original_title": "Heat", "overview": "Obsessive master thief, Neil McCauley leads a top-notch crew on various daring heists throughout Los Angeles while determined detective, Vincent Hanna pursues him without rest. Each man recognizes and respects the ability and the dedication of the other even though they are aware their cat-and-mouse game may end in violence.", "poster_path": "/6pmLVffM9jEYK7VqDJqPblMxfEY.jpg", "release_date": "1995-12-15", "title": "Heat", "video": false, "vote_average": 7.8, "vote_count": 3610, "popularity": 21.48}, {"id": 398181, "video": false, "vote_count": 1301, "vote_average": 6.6, "title": "You Were Never Really Here", "release_date": "2017-11-08", "original_language": "en", "original_title": "You Were Never Really Here", "genre_ids": [53], "backdrop_path": "/h4Lk8Cgfvlzz0hcnSJBTAOwNDia.jpg", "adult": false, "overview": "A traumatised veteran, unafraid of violence, tracks down missing girls for a living. When a job spins out of control, Joe's nightmares overtake him as a conspiracy is uncovered leading to what may be his death trip or his awakening.", "poster_path": "/ktPbjD6nYg5NxmeTt72Iqaw5GD0.jpg", "popularity": 19.651}, {"id": 681, "video": false, "vote_count": 1040, "vote_average": 6.4, "title": "Diamonds Are Forever", "release_date": "1971-12-13", "original_language": "en", "original_title": "Diamonds Are Forever", "genre_ids": [28, 12, 53], "backdrop_path": "/gIGLXXvsljHK1jdDNaIXsjhZnnH.jpg", "adult": false, "overview": "Diamonds are stolen only to be sold again in the international market. James Bond infiltrates a smuggling mission to find out who\u2019s guilty. The mission takes him to Las Vegas where Bond meets his archenemy Blofeld.", "poster_path": "/viPjZ3JCOahcfNCcVhiPExusJoZ.jpg", "popularity": 20.883}, {"adult": false, "backdrop_path": "/7pMlmyqitl0nqpEGOL3v8dEbu2K.jpg", "genre_ids": [28, 53, 27], "id": 341006, "original_language": "en", "original_title": "The Belko Experiment", "overview": "A group of eighty American workers are locked in their office and ordered by an unknown voice to participate in a twisted game.", "poster_path": "/faJK0dP3S92kQoKtO4LZMjy41kf.jpg", "release_date": "2016-03-17", "title": "The Belko Experiment", "video": false, "vote_average": 6.1, "vote_count": 852, "popularity": 11.208}, {"adult": false, "backdrop_path": "/a24i4Qw6qFTtkFLQsncv8WPwevj.jpg", "genre_ids": [53, 28, 80], "id": 345887, "original_language": "en", "original_title": "The Equalizer 2", "overview": "Robert McCall, who serves an unflinching justice for the exploited and oppressed, embarks on a relentless, globe-trotting quest for vengeance when a long-time girl friend is murdered.", "poster_path": "/cQvc9N6JiMVKqol3wcYrGshsIdZ.jpg", "release_date": "2018-07-19", "title": "The Equalizer 2", "video": false, "vote_average": 6.5, "vote_count": 2482, "popularity": 24.261}, {"id": 9373, "video": false, "vote_count": 1413, "vote_average": 6.1, "title": "The Texas Chainsaw Massacre", "release_date": "2003-05-21", "original_language": "en", "original_title": "The Texas Chainsaw Massacre", "genre_ids": [27], "backdrop_path": "/3rTsJ7tIC3LUSRr80PfeLbbCfBA.jpg", "adult": false, "overview": "After picking up a traumatized young hitchhiker, five friends find themselves stalked and hunted by a deformed chainsaw-wielding killer and his family of equally psychopathic killers.", "poster_path": "/gx7FCIOFGxqNyplF3t7qtmUv55g.jpg", "popularity": 17.769}, {"id": 23483, "video": false, "vote_count": 8160, "vote_average": 7.1, "title": "Kick-Ass", "release_date": "2010-03-22", "original_language": "en", "original_title": "Kick-Ass", "genre_ids": [28, 80], "backdrop_path": "/ngPkB9K8ZpIjv8HpIC8ExqAfG6H.jpg", "adult": false, "overview": "Dave Lizewski is an unnoticed high school student and comic book fan who one day decides to become a super-hero, even though he has no powers, training or meaningful reason to do so.", "poster_path": "/gtfggr5n3ED1neoTqVYmsVCoSS.jpg", "popularity": 17.344}, {"adult": false, "backdrop_path": "/o4psXh7IVD6GFKvBSHjHLzjL2lV.jpg", "genre_ids": [27, 53], "id": 10781, "original_language": "en", "original_title": "The Texas Chainsaw Massacre: The Beginning", "overview": "Chrissie and her friends set out on a road trip for a final fling before one is shipped off to Vietnam. Along the way, bikers harass the foursome and cause an accident that throws Chrissie from the vehicle. The lawman who arrives on the scene kills one of the bikers and brings Chrissie's friends to the Hewitt homestead, where young Leatherface is learning the tools of terror.", "poster_path": "/9elCJIG1TOJ0wew3JVx5ZMkHq5w.jpg", "release_date": "2006-10-06", "title": "The Texas Chainsaw Massacre: The Beginning", "video": false, "vote_average": 6.0, "vote_count": 935, "popularity": 18.392}, {"adult": false, "backdrop_path": "/zWGAnbxjjwY3xFGuOeR26LGbBlG.jpg", "genre_ids": [27, 53], "id": 238636, "original_language": "en", "original_title": "The Purge: Anarchy", "overview": "One night per year, the government sanctions a 12-hour period in which citizens can commit any crime they wish -- including murder -- without fear of punishment or imprisonment. Leo, a sergeant who lost his son, plans a vigilante mission of revenge during the mayhem. However, instead of a death-dealing avenger, he becomes the unexpected protector of four innocent strangers who desperately need his help if they are to survive the night.", "poster_path": "/l1DRl40x2OWUoPP42v8fjKdS1Z3.jpg", "release_date": "2014-07-17", "title": "The Purge: Anarchy", "video": false, "vote_average": 6.6, "vote_count": 4141, "popularity": 32.533}, {"id": 339692, "video": false, "vote_count": 1163, "vote_average": 6.9, "title": "Shot Caller", "release_date": "2017-07-13", "original_language": "en", "original_title": "Shot Caller", "genre_ids": [80, 18, 53], "backdrop_path": "/hehboYLXB3m90x9ybiBsupwuifL.jpg", "adult": false, "overview": "A newly-released prison gangster is forced by the leaders of his gang to orchestrate a major crime with a brutal rival gang on the streets of Southern California.", "poster_path": "/qLmLz2wtyYvmW8Ult3l2ngOnW8v.jpg", "popularity": 25.016}, {"id": 442249, "video": false, "vote_count": 2156, "vote_average": 5.8, "title": "The First Purge", "release_date": "2018-07-04", "original_language": "en", "original_title": "The First Purge", "genre_ids": [28, 27, 878, 53], "backdrop_path": "/r4clWIxKeWoqrHspQP0XunuUmB7.jpg", "adult": false, "overview": "To push the crime rate below one percent for the rest of the year, the New Founding Fathers of America test a sociological theory that vents aggression for one night in one isolated community. But when the violence of oppressors meets the rage of the others, the contagion will explode from the trial-city borders and spread across the nation.", "poster_path": "/litjsBoiydO6JlO70uOX4N3WnNL.jpg", "popularity": 27.168}], "total_pages": 470, "total_results": 9394}, "recommendations": {"page": 1, "results": [{"id": 15031, "video": false, "vote_count": 4, "vote_average": 5.4, "title": "The Breaks", "release_date": "1999-02-26", "original_language": "en", "original_title": "The Breaks", "genre_ids": [35], "backdrop_path": null, "adult": false, "overview": "Derrick, a racially-confused Irishman raised in the hood by a black family is having the worst day ever. Determined to prove to his fed-up mother and would-be girlfriend that he's not a screw-up, he sets out to do one thing right (get some milk) and even that proves to be a challenge! Hilarious encounters with racist red-neck cops, local gangsters and 'flamboyant' pawn shop owners ensue, and along the way Derek shows that he can actually do things for others and maybe even get his own life together.", "poster_path": "/cgouTGUxzF7mKJng7apEpDOEyXR.jpg", "popularity": 2.132}, {"adult": false, "backdrop_path": "/cZKV6nFb3P9Vp5TL40HDqz8qsY4.jpg", "genre_ids": [35, 18], "id": 46737, "original_language": "en", "original_title": "Passenger Side", "overview": "Two brothers spend the day driving around Los Angeles county looking for the meaning of their lives, or cheap street drugs, depending on who you happen to believe.", "poster_path": "/5UQM67KcLIlz9ys1YRqKMYvCX8E.jpg", "release_date": "2009-10-28", "title": "Passenger Side", "video": false, "vote_average": 5.8, "vote_count": 13, "popularity": 3.682}, {"adult": false, "backdrop_path": "/j8RCAuMGTBZ7rJrc7FNmLgPpRhS.jpg", "genre_ids": [35, 18, 10749], "id": 18803, "original_language": "en", "original_title": "Expired", "overview": "The film revolves around Claire, a kind soul who resents having to enforce the law at all times, and Jay, an angry Traffic Officer who loves his job, being the perfect outlet for his anger and frustrations. Coming both from a place of despair and loneliness, Jay and Claire meet and engage in a tumultuous relationship which will eventually teach them that love can spread redemption.", "poster_path": "/uZTcCVW4NzdpdbmqIIgj0ee57Xz.jpg", "release_date": "2007-01-19", "title": "Expired", "video": false, "vote_average": 6.4, "vote_count": 15, "popularity": 5.096}, {"adult": false, "backdrop_path": null, "genre_ids": [35, 10749], "id": 31821, "original_language": "en", "original_title": "Now You Know", "overview": "On the eve of his bachelor party, a man learns his fiancee wants to call off the wedding. The unmarried couple returns to New Jersey to sort out their relationship.", "poster_path": "/2Kkm3OrfwJM9hVjFy7S0VaIqRas.jpg", "release_date": "2002-01-01", "title": "Now You Know", "video": false, "vote_average": 5.7, "vote_count": 10, "popularity": 2.739}, {"adult": false, "backdrop_path": "/aFWhhhtcj8DGpZBDMrUDOop692E.jpg", "genre_ids": [35, 18], "id": 74395, "original_language": "en", "original_title": "Hangin' with the Homeboys", "overview": "Two African-Americans and two Puerto-Ricans (though one pretends to be Italian) go out on the town on a Friday night. They will be forced to get to know each other, and even worst, learn to like each other as friends", "poster_path": "/7qPP8t7jj8MAdqveGojAgTuoeHO.jpg", "release_date": "1991-04-05", "title": "Hangin' with the Homeboys", "video": false, "vote_average": 6.6, "vote_count": 15, "popularity": 3.759}, {"adult": false, "backdrop_path": "/7GrOXyThDiXACThMDm02prghBMm.jpg", "genre_ids": [35], "id": 72843, "original_language": "en", "original_title": "Pete Smalls Is Dead", "overview": "Two old pals attend an old friends funeral and find there is more to his death than him being dead.", "poster_path": "/1iazQqePw1Lq3GfVr5w8ekPBrqm.jpg", "release_date": "2010-09-17", "title": "Pete Smalls Is Dead", "video": false, "vote_average": 4.6, "vote_count": 10, "popularity": 2.015}, {"adult": false, "backdrop_path": "/ss1DF6WjqKYihWnxsevI4hC2tbE.jpg", "genre_ids": [35, 18], "id": 14204, "original_language": "en", "original_title": "Ping Pong Playa", "overview": "Streetwise swaggering Christopher \"C-Dub\" Wang is a suburban guy who waxes political on all things Asian American and clings to pro basketball pipe dreams. But when misfortune strikes his family, C-dub must overcome living at home, working a dead-end job and his worldly older brother, to run his Mom's ping pong classes and defend the family's athletic dynasty.", "poster_path": "/mUPdzo5W7KLTZWfFx4xhZG13iyG.jpg", "release_date": "2007-01-01", "title": "Ping Pong Playa", "video": false, "vote_average": 6.0, "vote_count": 33, "popularity": 4.402}, {"adult": false, "backdrop_path": "/qvL2yU4sr9l2xIGcApRRttgkZV7.jpg", "genre_ids": [35, 18, 12], "id": 16433, "original_language": "en", "original_title": "Grand Theft Parsons", "overview": "There are times when it's right and proper to simply bury the dead. This is not one of those times... Gram Parsons was one of the most influential musicians of his time; a bitter, brilliant, genius who knew Elvis, tripped with the Stones and fatally overdosed on morphine and tequila in 1973. And from his dying came a story. A story from deep within folklore; a story of friendship, honour and adventure; a story so extraordinary that if it didn't really happen, no one would believe it. Two men, a hearse, a dead rock star, five gallons of petrol, and a promise. And the most extraordinary chase of modern times.", "poster_path": "/j0zjTSBgE7XDwNpjgEFHTckDEV3.jpg", "release_date": "2004-06-18", "title": "Grand Theft Parsons", "video": false, "vote_average": 6.2, "vote_count": 16, "popularity": 5.882}, {"adult": false, "backdrop_path": "/o2VBrEEUHFlNjC4JZptC4K6YYrL.jpg", "genre_ids": [35], "id": 15378, "original_language": "en", "original_title": "The Grand", "overview": "The Grand is in the tradition of improvisational comedies like Best In Show and This Is Spinal Tap. The story is set in the world of professional poker and follows six players who reach the final table of the world\u2019s second most famous high stakes tournament, the Grand Championship of Poker.", "poster_path": "/e8Tw2XAMTWBcPMHXzdf03GKwTtz.jpg", "release_date": "2007-06-07", "title": "The Grand", "video": false, "vote_average": 6.1, "vote_count": 40, "popularity": 5.929}, {"id": 61410, "video": false, "vote_count": 30, "vote_average": 6.9, "title": "Spud", "release_date": "2010-12-03", "original_language": "en", "original_title": "Spud", "genre_ids": [35, 18], "backdrop_path": "/7zkykZghzy5mspzKUhIeaeen2SM.jpg", "adult": false, "overview": "It's South Africa 1990. Two major events are about to happen: The release of Nelson Mandela and, more importantly, it's Spud Milton's first year at an elite boys only private boarding school. John Milton is a boy from an ordinary background who wins a scholarship to a private school in Kwazulu-Natal, South Africa. Surrounded by boys with nicknames like Gecko, Rambo, Rain Man and Mad Dog, Spud has his hands full trying to adapt to his new home. Along the way Spud takes his first tentative steps along the path to manhood. (The path it seems could be a rather long road). Spud is an only child. He is cursed with parents from well beyond the lunatic fringe and a senile granny. His dad is a fervent anti-communist who is paranoid that the family domestic worker is running a shebeen from her room at the back of the family home. His mom is a free spirit and a teenager's worst nightmare, whether it's shopping for Spud's underwear in the local supermarket", "poster_path": "/x3yH9xeeP1CZwDgZO7FBygeB2K4.jpg", "popularity": 6.77}], "total_pages": 1, "total_results": 10}, "credits": {"cast": [{"cast_id": 36, "character": "Power", "credit_id": "5b6c9edd0e0a267ef6137d9a", "gender": 2, "id": 105581, "name": "Ari Gold", "order": 0, "profile_path": "/a1wEaz1iF9H4r0FElDE3UTHFmBd.jpg"}, {"cast_id": 6, "character": "Harlan", "credit_id": "52fe43f59251416c91000413", "gender": 2, "id": 21731, "name": "Michael McKean", "order": 1, "profile_path": "/iVcsvBb15nep7TZ07MlJFcxMzvD.jpg"}, {"cast_id": 3, "character": "Annie", "credit_id": "52fe43f59251416c91000407", "gender": 1, "id": 143591, "name": "Shoshannah Stern", "order": 2, "profile_path": "/pqgFBFw9vkPBwzV344nR6vZ3Ebj.jpg"}, {"cast_id": 4, "character": "Dallas Houston", "credit_id": "52fe43f59251416c9100040b", "gender": 2, "id": 5090, "name": "Adrian Grenier", "order": 3, "profile_path": "/qihY533cCB11VYChNN2ym1RfPkU.jpg"}, {"cast_id": 5, "character": "Joni", "credit_id": "52fe43f59251416c9100040f", "gender": 1, "id": 43775, "name": "Jane Lynch", "order": 4, "profile_path": "/dti0cp3PkJzZG3EMR0Qui8DKwYm.jpg"}, {"cast_id": 27, "character": "Michael Fong", "credit_id": "59075f38c3a3684ad7031c42", "gender": 2, "id": 1173216, "name": "Chiu Chi-Ling", "order": 5, "profile_path": "/8WuAv8Gx3h4sSMR0wEBlLHVcurm.jpg"}, {"cast_id": 28, "character": "Carlos", "credit_id": "590760b9c3a3684af002e01f", "gender": 2, "id": 51579, "name": "Steven Williams", "order": 6, "profile_path": "/okrQsLdE6hCGJ1M4p5nXPC3mJTW.jpg"}, {"cast_id": 29, "character": "Aubelin", "credit_id": "590760d992514169fb033013", "gender": 2, "id": 105762, "name": "Jimmy Jean-Louis", "order": 7, "profile_path": "/yDOYFjox1n1zSXS3J5AOsTSGcM1.jpg"}, {"cast_id": 30, "character": "Versatio Bakir", "credit_id": "590760f492514169d003128f", "gender": 0, "id": 208519, "name": "Nick Kroll", "order": 8, "profile_path": "/puZov7sMmuVkvdqJvmlxtWcS1fU.jpg"}, {"cast_id": 33, "character": "Yolanda Fong", "credit_id": "5907624292514169c8031f07", "gender": 1, "id": 1269910, "name": "Ching Hoh-Wai", "order": 9, "profile_path": "/dqaBlhsdF5VEQlGki8yaus7q4RN.jpg"}, {"cast_id": 32, "character": "Money", "credit_id": "5907616dc3a3684a6803186f", "gender": 2, "id": 132857, "name": "Eric Wareheim", "order": 10, "profile_path": "/x9STTsfrnC7SnuHuRczPFbGi6xp.jpg"}, {"cast_id": 31, "character": "Brian 'Brain Dog' Calucci", "credit_id": "5907613ac3a3684ab4033229", "gender": 2, "id": 1455901, "name": "Travis Johns", "order": 11, "profile_path": "/py9KcuJKm9N5ti3IVHMoa7WTCGR.jpg"}, {"cast_id": 9, "character": "Seattle Girl", "credit_id": "5689a59292514169d00133ef", "gender": 1, "id": 931041, "name": "Jacki R. Chan", "order": 12, "profile_path": "/jTkAEeru18fDgW547dB47YoLkA6.jpg"}, {"cast_id": 10, "character": "Seattle Girl", "credit_id": "5689a5cec3a36828f501ebab", "gender": 0, "id": 1401852, "name": "Jennifer Barbosa", "order": 13, "profile_path": "/cHEYRFpljLgD6khHZAv8AQg7FLC.jpg"}], "crew": [{"credit_id": "590759c1c3a3684b0702d102", "department": "Sound", "gender": 0, "id": 1587779, "job": "Original Music Composer", "name": "Ethan Gold", "profile_path": null}, {"credit_id": "590759dbc3a3684ad7031858", "department": "Camera", "gender": 0, "id": 110526, "job": "Director of Photography", "name": "Lisa Wiegand", "profile_path": null}, {"credit_id": "590759f892514169e10318fc", "department": "Editing", "gender": 0, "id": 964509, "job": "Editor", "name": "Geraud Brisson", "profile_path": null}, {"credit_id": "59075a3492514169c8031974", "department": "Art", "gender": 2, "id": 1808096, "job": "Production Design", "name": "Walter Barnett", "profile_path": null}, {"credit_id": "59075adb9251416a140321a1", "department": "Costume & Make-Up", "gender": 1, "id": 1190759, "job": "Costume Design", "name": "Victoria J. Auth", "profile_path": null}, {"credit_id": "59075b42c3a3684a7602ef66", "department": "Editing", "gender": 2, "id": 59837, "job": "Editor", "name": "Dan Schalk", "profile_path": null}, {"credit_id": "59075d5492514169b8030e7c", "department": "Editing", "gender": 0, "id": 66825, "job": "Editor", "name": "David Blackburn", "profile_path": null}, {"credit_id": "59075d6dc3a3684af002ddff", "department": "Production", "gender": 1, "id": 9545, "job": "Casting", "name": "Anne McCarthy", "profile_path": null}, {"credit_id": "59075d72c3a3684b0702d37f", "department": "Production", "gender": 2, "id": 60946, "job": "Casting", "name": "Jay Scully", "profile_path": null}, {"credit_id": "59075da992514169b8030ec4", "department": "Production", "gender": 1, "id": 1808107, "job": "Co-Producer", "name": "Elizabeth Bull", "profile_path": null}, {"credit_id": "59075dd7c3a3684af002de35", "department": "Sound", "gender": 0, "id": 1808108, "job": "Music Supervisor", "name": "Robin Kaye", "profile_path": null}, {"credit_id": "59075df592514169fb032e12", "department": "Crew", "gender": 0, "id": 1587779, "job": "Executive Music Producer", "name": "Ethan Gold", "profile_path": null}, {"credit_id": "59075e1c92514169d8031828", "department": "Production", "gender": 1, "id": 22115, "job": "Producer", "name": "Andrea Sperling", "profile_path": null}, {"credit_id": "59075e2ec3a3684af002de7f", "department": "Production", "gender": 2, "id": 1128690, "job": "Executive Producer", "name": "Christopher Woodrow", "profile_path": "/6ThNl9j4Os8xrlhkZ3gTVUcjJW7.jpg"}, {"credit_id": "59075e3cc3a3684ad7031b8b", "department": "Production", "gender": 2, "id": 556877, "job": "Executive Producer", "name": "Gill Holland", "profile_path": null}, {"credit_id": "59075ea3c3a3684a4e032ae9", "department": "Directing", "gender": 0, "id": 1658837, "job": "Script Supervisor", "name": "Heather Askew", "profile_path": null}, {"credit_id": "5b6c9f010e0a267eed144cdd", "department": "Writing", "gender": 2, "id": 105581, "job": "Writer", "name": "Ari Gold", "profile_path": "/a1wEaz1iF9H4r0FElDE3UTHFmBd.jpg"}, {"credit_id": "5b6c9f090e0a267ee7141c9a", "department": "Directing", "gender": 2, "id": 105581, "job": "Director", "name": "Ari Gold", "profile_path": "/a1wEaz1iF9H4r0FElDE3UTHFmBd.jpg"}]}}