{"adult": false, "backdrop_path": "/ytVtkXnSviQsvJOpWsPidmiRCmj.jpg", "belongs_to_collection": null, "budget": 0, "genres": [{"id": 53, "name": "Thriller"}, {"id": 35, "name": "Comedy"}], "homepage": "http://www.efis.ee/en/film-categotries/movies/id/252", "id": 300438, "imdb_id": "tt0126438", "original_language": "et", "original_title": "Minu Leninid", "overview": "Young and active nationalist Aleksander Kesk\u00fcla makes up his mind to use Lenin, the Bolsheviks' leader, in order to start a revolution in Russia with German money and create a new national state of Estonia in the north-east of Russia. For security reasons, five counterparts will be found and trained for Lenin; all of them are finally sent to Russia for participating in the revolution. How will the real Lenin put up with all this? How will the surrounding women and fellow fighters react? These are the questions clever Kesk\u00fcla is asking - and the answers will be born even before those involved start thinking of the matter.", "popularity": 1.074, "poster_path": "/f3LOnWCGihKfsIS0mutadazGowi.jpg", "production_companies": [{"id": 76, "logo_path": null, "name": "Zentropa Entertainments", "origin_country": "DK"}, {"id": 5975, "logo_path": "/vvjgoKygWWYZvYyidT3RmOCq5If.png", "name": "YLE", "origin_country": "FI"}, {"id": 6155, "logo_path": null, "name": "Faama Film", "origin_country": ""}, {"id": 10845, "logo_path": "/b8N0K4dvM6CNG9OE5v1lLh5bSb3.png", "name": "Lenfilm", "origin_country": "RU"}, {"id": 6182, "logo_path": "/uEDq986XmCRWpClYGOU9jq6IUfy.png", "name": "Eesti Televisioon", "origin_country": "EE"}], "production_countries": [{"iso_3166_1": "FI", "name": "Finland"}, {"iso_3166_1": "EE", "name": "Estonia"}, {"iso_3166_1": "RU", "name": "Russia"}, {"iso_3166_1": "DK", "name": "Denmark"}], "release_date": "1997-10-02", "revenue": 0, "runtime": 99, "spoken_languages": [{"iso_639_1": "de", "name": "Deutsch"}, {"iso_639_1": "et", "name": "Eesti"}, {"iso_639_1": "fr", "name": "Fran\u00e7ais"}, {"iso_639_1": "ru", "name": "P\u0443\u0441\u0441\u043a\u0438\u0439"}, {"iso_639_1": "en", "name": "English"}], "status": "Released", "tagline": "", "title": "All My Lenins", "video": false, "vote_average": 6.0, "vote_count": 2, "keywords": {"keywords": [{"id": 6083, "name": "politician"}, {"id": 10873, "name": "school"}, {"id": 33705, "name": "agent"}, {"id": 180827, "name": "bolshevik"}, {"id": 188712, "name": "diplomacy"}, {"id": 192519, "name": "emigrant"}]}, "similar": {"page": 1, "results": [{"id": 233063, "video": false, "vote_count": 1166, "vote_average": 7.1, "title": "Suck Me Shakespeer", "release_date": "2013-11-07", "original_language": "de", "original_title": "Fack ju G\u00f6hte", "genre_ids": [35], "backdrop_path": "/AtCGEku6kLUFmZ6JWkvXphQBQXx.jpg", "adult": false, "overview": "A comedy that follows an ex-con who lands a position at a school that sits over the spot where money from one of his earlier robberies was stashed.", "poster_path": "/9GSGg4McYID6Ld0OMwimLr1Zx4J.jpg", "popularity": 15.749}, {"id": 400928, "video": false, "vote_count": 2318, "vote_average": 7.9, "title": "Gifted", "release_date": "2017-04-12", "original_language": "en", "original_title": "Gifted", "genre_ids": [35, 18, 10751], "backdrop_path": "/gYtXT7fJNBRZBbBulO11DoRveLT.jpg", "adult": false, "overview": "Frank, a single man raising his child prodigy niece Mary, is drawn into a custody battle with his mother.", "poster_path": "/9Ts7Vc4wLlpI9oox9mkVUE1tBHy.jpg", "popularity": 22.146}, {"adult": false, "backdrop_path": "/plnmzCMPAb3suBAUJ4Yi2NC1APA.jpg", "genre_ids": [35], "id": 35056, "original_language": "en", "original_title": "Date Night", "overview": "Phil and Claire Foster fear that their mild-mannered relationship may be falling into a stale rut. During their weekly date night, their dinner reservation leads to their being mistaken for a couple of thieves\u2014and now a number of unsavoury characters want Phil and Claire killed.", "poster_path": "/fzzPht9KId6Ollow30jYtABhDY3.jpg", "release_date": "2010-04-08", "title": "Date Night", "video": false, "vote_average": 6.0, "vote_count": 1888, "popularity": 14.813}, {"id": 401469, "video": false, "vote_count": 1261, "vote_average": 6.5, "title": "Widows", "release_date": "2018-11-06", "original_language": "en", "original_title": "Widows", "genre_ids": [80, 53], "backdrop_path": "/tkri1hMrb1FhWfb2bWpprsvq9Sd.jpg", "adult": false, "overview": "A police shootout leaves four thieves dead during an explosive armed robbery attempt in Chicago. Their widows have nothing in common except a debt left behind by their spouses' criminal activities. Hoping to forge a future on their own terms, they join forces to pull off a heist.", "poster_path": "/d31SGJSaX29ba5ZUbZcesGoDE7I.jpg", "popularity": 16.285}, {"adult": false, "backdrop_path": "/4NJplkljN06NQLMLSUNmrIsBjBZ.jpg", "genre_ids": [35, 18], "id": 400547, "original_language": "en", "original_title": "Hurricane Bianca", "overview": "Hurricane Bianca is a revenge comedy about a New York teacher who moves to a small town in Texas, gets fired for being gay, and returns disguised in drag to get revenge on the people who were nasty to him.", "poster_path": "/w1QM09R1TqwHTb5UA8X8jR2yh4x.jpg", "release_date": "2016-06-03", "title": "Hurricane Bianca", "video": false, "vote_average": 6.2, "vote_count": 212, "popularity": 9.77}, {"adult": false, "backdrop_path": "/4UIjazRJV5Q2D7gYg9NS1BGiFdU.jpg", "genre_ids": [80, 18, 53, 9648], "id": 1073, "original_language": "en", "original_title": "Arlington Road", "overview": "Threats from sinister foreign nationals aren't the only thing to fear. Bedraggled college professor Michael Faraday has been vexed (and increasingly paranoid) since his wife's accidental death in a botched FBI operation. But all that takes a backseat when a seemingly all-American couple set up house next door.", "poster_path": "/jMwDRI4qu5FrSAzf7BfNveuRVf9.jpg", "release_date": "1999-03-19", "title": "Arlington Road", "video": false, "vote_average": 7.1, "vote_count": 521, "popularity": 13.099}, {"adult": false, "backdrop_path": "/zwJFfKQdfiptK2GY6N8GkZFrAxJ.jpg", "genre_ids": [27, 53], "id": 7340, "original_language": "en", "original_title": "Carrie", "overview": "Carrie White, a shy and troubled teenage girl who is tormented by her high school peers and her fanatically religious mother, begins to use her powers of telekinesis to exact revenge upon them.", "poster_path": "/n9JxLthRHwTWwu5OjFHVplkVSUg.jpg", "release_date": "1976-11-03", "title": "Carrie", "video": false, "vote_average": 7.2, "vote_count": 2026, "popularity": 14.332}, {"id": 437670, "video": false, "vote_count": 207, "vote_average": 6.1, "title": "Suck Me Shakespeer 3", "release_date": "2017-10-26", "original_language": "de", "original_title": "Fack ju G\u00f6hte 3", "genre_ids": [35], "backdrop_path": "/bJQQTAMnFlpcL1mBJlx4R41b1Y.jpg", "adult": false, "overview": "This is the politically incorrect third and final part of the now famously successful trilogy, where Mr. M\u00fcller and his problem kids Chantal, Danger and Co. once again take up arms against their sworn enemy, the German education system.", "poster_path": "/ywCWnSOndFqq9nhE563hm15YQe0.jpg", "popularity": 15.916}, {"id": 52449, "video": false, "vote_count": 3175, "vote_average": 5.5, "title": "Bad Teacher", "release_date": "2011-05-16", "original_language": "en", "original_title": "Bad Teacher", "genre_ids": [35], "backdrop_path": "/vmgRzmRMPjhZ50Oai1DI0LLEZCo.jpg", "adult": false, "overview": "A lazy, incompetent middle school teacher who hates her job and her students is forced to return to her job to make enough money for a boob job after her rich fianc\u00e9 dumps her.", "poster_path": "/zpIY4qUSX91J9XpPgr0hFrk1eKr.jpg", "popularity": 15.441}, {"adult": false, "backdrop_path": "/vvRlCks4HEZktmAhDIqghyamKiY.jpg", "genre_ids": [35, 18, 9648, 53], "id": 121875, "original_language": "fr", "original_title": "Dans la maison", "overview": "A sixteen-year-old boy insinuates himself into the house of a fellow student from his literature class and writes about it in essays for his French teacher. Faced with this gifted and unusual pupil, the teacher rediscovers his enthusiasm for his work, but the boy\u2019s intrusion will unleash a series of uncontrollable events.", "poster_path": "/4qAnWMNKUadx10jlCrkRAAuT4bN.jpg", "release_date": "2012-09-26", "title": "In the House", "video": false, "vote_average": 7.4, "vote_count": 456, "popularity": 10.737}, {"adult": false, "backdrop_path": "/jLq0ol1f0ZKXni9R9GsPBcyPrNN.jpg", "genre_ids": [18], "id": 18148, "original_language": "ja", "original_title": "\u6771\u4eac\u7269\u8a9e", "overview": "The elderly Shukishi and his wife, Tomi, take the long journey from their small seaside village to visit their adult children in Tokyo. Their elder son, Koichi, a doctor, and their daughter, Shige, a hairdresser, don't have much time to spend with their aged parents, and so it falls to Noriko, the widow of their younger son who was killed in the war, to keep her in-laws company.", "poster_path": "/g2YbTYKpY7N2yDSk7BfXZ18I5QV.jpg", "release_date": "1953-11-03", "title": "Tokyo Story", "video": false, "vote_average": 8.4, "vote_count": 423, "popularity": 12.262}, {"id": 103663, "video": false, "vote_count": 1814, "vote_average": 8.1, "title": "The Hunt", "release_date": "2012-09-24", "original_language": "da", "original_title": "Jagten", "genre_ids": [18], "backdrop_path": "/guJLZQ0glrGpyOydxrpvnlNByae.jpg", "adult": false, "overview": "A teacher lives a lonely life, all the while struggling over his son\u2019s custody. His life slowly gets better as he finds love and receives good news from his son, but his new luck is about to be brutally shattered by an innocent little lie.", "poster_path": "/hD42EDHLap5UVmv9CZrUiTxH3rY.jpg", "popularity": 11.967}, {"adult": false, "backdrop_path": "/AnWx27hbrHlx9EafxEAj5Iifyjx.jpg", "genre_ids": [35], "id": 9451, "original_language": "en", "original_title": "Election", "overview": "A high school teacher's personal life becomes complicated as he works with students during the school elections.", "poster_path": "/4RHyF1v1n4iodWzHG4m7XkGcJVB.jpg", "release_date": "1999-04-23", "title": "Election", "video": false, "vote_average": 6.8, "vote_count": 532, "popularity": 14.173}, {"adult": false, "backdrop_path": "/1xSUcX6GZxwxgPktgr51a5J3jzp.jpg", "genre_ids": [28, 35], "id": 383121, "original_language": "en", "original_title": "Kindergarten Cop 2", "overview": "Assigned to recover sensitive stolen data, a gruff FBI agent goes undercover as a kindergarten teacher, but the school's liberal, politically correct environment is more than he bargained for.", "poster_path": "/1bnUlEiZcnJvr9znpl8HbruErIb.jpg", "release_date": "2016-05-17", "title": "Kindergarten Cop 2", "video": false, "vote_average": 4.8, "vote_count": 119, "popularity": 10.997}, {"id": 476764, "video": false, "vote_count": 173, "vote_average": 6.0, "title": "The Front Runner", "release_date": "2018-11-06", "original_language": "en", "original_title": "The Front Runner", "genre_ids": [18, 36], "backdrop_path": "/kQVo5ECXrTcoMtj8hWbdiqpfPms.jpg", "adult": false, "overview": "Gary Hart, former Senator of Colorado, becomes the front-runner for the Democratic presidential nomination in 1987. Hart's intelligence, charisma and idealism makes him popular with young voters, leaving him with a seemingly clear path to the White House. All that comes crashing down when allegations of an extramarital affair surface in the media, forcing the candidate to address a scandal that threatens to derail his campaign and personal life.", "poster_path": "/7iMNvhINYaYwsF1jC5VaDeQ1V70.jpg", "popularity": 12.182}, {"id": 9388, "video": false, "vote_count": 1252, "vote_average": 7.2, "title": "Thank You for Smoking", "release_date": "2005-03-17", "original_language": "en", "original_title": "Thank You for Smoking", "genre_ids": [35, 18], "backdrop_path": "/D1VqMoYT4K2aFcywu3kGnycD6n.jpg", "adult": false, "overview": "Nick Naylor is a charismatic spin-doctor for Big Tobacco who'll fight to protect America's right to smoke -- even if it kills him -- while still remaining a role model for his 12-year old son. When he incurs the wrath of a senator bent on snuffing out cigarettes, Nick's powers of \"filtering the truth\" will be put to the test.", "poster_path": "/v8PKsbAGIvAhKbbRUjdQ3jgFD2S.jpg", "popularity": 14.661}, {"id": 1908, "video": false, "vote_count": 186, "vote_average": 7.9, "title": "Inherit the Wind", "release_date": "1960-06-24", "original_language": "en", "original_title": "Inherit the Wind", "genre_ids": [18, 36], "backdrop_path": "/42T54EzgmhRzJKetN62fOvk0nBZ.jpg", "adult": false, "overview": "This gripping adaptation of the Jerome Lawrence-Robert E. Lee play examines an issue that still causes great controversy\u2014the role religion should play in the schools.", "poster_path": "/kf0kih7zkHhrIfsolnW87eHohJk.jpg", "popularity": 9.627}, {"id": 35052, "video": false, "vote_count": 204, "vote_average": 6.7, "title": "Cracks", "release_date": "2009-12-04", "original_language": "en", "original_title": "Cracks", "genre_ids": [18, 9648, 53], "backdrop_path": "/6rWMFj9HrlJWzsLOCZJyl3HR6VJ.jpg", "adult": false, "overview": "Jealousy flares after the headmistress of an elite boarding school for girls becomes obsessed with a new student.", "poster_path": "/2zpNd8qPT9HyQMUT1uVwyXhmMjM.jpg", "popularity": 9.137}, {"id": 10139, "video": false, "vote_count": 1269, "vote_average": 7.3, "title": "Milk", "release_date": "2008-11-05", "original_language": "en", "original_title": "Milk", "genre_ids": [18, 36], "backdrop_path": "/i8NcYenVqMzB95pVz8YOPIqmGj8.jpg", "adult": false, "overview": "The true story of Harvey Milk, the first openly gay man ever elected to public office. In San Francisco in the late 1970s, Harvey Milk becomes an activist for gay rights and inspires others to join him in his fight for equal rights that should be available to all Americans.", "poster_path": "/aTbhbnq9YnKJM6wGIiedfJaoV6m.jpg", "popularity": 13.064}, {"id": 77953, "video": false, "vote_count": 1085, "vote_average": 5.8, "title": "The Campaign", "release_date": "2012-08-09", "original_language": "en", "original_title": "The Campaign", "genre_ids": [35], "backdrop_path": "/8mKomlkHvO753Wc9w2Q25ffc4UC.jpg", "adult": false, "overview": "Two rival politicians compete to win an election to represent their small North Carolina congressional district in the United States House of Representatives.", "poster_path": "/6uH8BOWN60mu2Vd5z4jCaVWb2ix.jpg", "popularity": 8.696}], "total_pages": 9, "total_results": 169}, "recommendations": {"page": 1, "results": [], "total_pages": 1, "total_results": 0}, "credits": {"cast": [{"cast_id": 2, "character": "Aleksander Kesk\u00fcla", "credit_id": "5580405ec3a36822c4000122", "gender": 2, "id": 137730, "name": "\u00dcllar Saarem\u00e4e", "order": 1, "profile_path": null}, {"cast_id": 3, "character": "V. I. Lenin / Vanya (as Viktor Suhhorukov)", "credit_id": "5580407bc3a36822dd0000f8", "gender": 2, "id": 86940, "name": "Viktor Sukhorukov", "order": 2, "profile_path": "/3YOPzBunFdFoHsqCotW4w3ychsg.jpg"}, {"cast_id": 4, "character": "Alfred M\u00fcller", "credit_id": "55804089c3a3684776000017", "gender": 0, "id": 137758, "name": "Andrus Vaarik", "order": 3, "profile_path": "/dBYw9LEu0RbNhdAaIf7aeZhzi2G.jpg"}, {"cast_id": 5, "character": "Oskar Elevant", "credit_id": "5580409992514174e6000139", "gender": 0, "id": 137848, "name": "Indrek Taalmaa", "order": 4, "profile_path": null}, {"cast_id": 6, "character": "Grigory Zinoviev", "credit_id": "558040afc3a368477600001e", "gender": 0, "id": 1273971, "name": "Peeter Volkonski", "order": 5, "profile_path": null}, {"cast_id": 7, "character": "Nadezhda Krupskaya", "credit_id": "558040c6925141064c000093", "gender": 0, "id": 1106103, "name": "Helene Vannari", "order": 6, "profile_path": "/64FKkRDZCB68MzMjmKv2kQdADko.jpg"}, {"cast_id": 8, "character": "Inessa Armand", "credit_id": "558040d892514113d900001f", "gender": 0, "id": 1477891, "name": "Janne Sevtsenko", "order": 7, "profile_path": null}, {"cast_id": 9, "character": "Lenin III (Beggar)", "credit_id": "558040e6925141152100002d", "gender": 0, "id": 1477892, "name": "Peeter Laurits", "order": 8, "profile_path": null}, {"cast_id": 10, "character": "Officer of German Military Mission", "credit_id": "558041019251411521000032", "gender": 0, "id": 1477886, "name": "Hannes V\u00f5rno", "order": 9, "profile_path": "/o54uUqNqmcbZuqOtvEnxufNamOb.jpg"}, {"cast_id": 34, "character": "villager", "credit_id": "5cdab9ce9251416b5bcea1d9", "gender": 2, "id": 2312543, "name": "Alexandr Kurnyaev", "order": 10, "profile_path": null}], "crew": [{"credit_id": "54554110c3a368148d004e95", "department": "Directing", "gender": 0, "id": 1084408, "job": "Director", "name": "Hardi Volmer", "profile_path": null}, {"credit_id": "56f68b4dc3a3686a6b003184", "department": "Writing", "gender": 0, "id": 1596485, "job": "Writer", "name": "Toomas Kall", "profile_path": null}, {"credit_id": "56f68b6192514169e2000c07", "department": "Writing", "gender": 0, "id": 1596460, "job": "Idea", "name": "Ott Sandrak", "profile_path": null}, {"credit_id": "56f68b7c9251411a61001419", "department": "Writing", "gender": 0, "id": 1084408, "job": "Idea", "name": "Hardi Volmer", "profile_path": null}, {"credit_id": "56f68b9bc3a3686a5e00364d", "department": "Production", "gender": 0, "id": 137608, "job": "Producer", "name": "Mati Sepping", "profile_path": null}, {"credit_id": "56f68bb2c3a36816e8002d17", "department": "Sound", "gender": 0, "id": 1596487, "job": "Music", "name": "Thomas DeRenzo", "profile_path": null}, {"credit_id": "56f68bc292514169e2000c21", "department": "Camera", "gender": 0, "id": 137757, "job": "Director of Photography", "name": "Arko Okk", "profile_path": null}, {"credit_id": "56f68bd1c3a3686a5e00365d", "department": "Editing", "gender": 0, "id": 1596463, "job": "Editor", "name": "Marju Juhkum", "profile_path": null}, {"credit_id": "56f68be0925141560a002d14", "department": "Production", "gender": 0, "id": 1596488, "job": "Casting", "name": "Ly Pulk", "profile_path": null}, {"credit_id": "56f68bf7925141560a002d1a", "department": "Art", "gender": 0, "id": 1437042, "job": "Production Design", "name": "Toomas H\u00f5rak", "profile_path": null}, {"credit_id": "56f68c0d9251411a61001433", "department": "Costume & Make-Up", "gender": 0, "id": 1477886, "job": "Costume Design", "name": "Hannes V\u00f5rno", "profile_path": "/o54uUqNqmcbZuqOtvEnxufNamOb.jpg"}, {"credit_id": "56f68c2e92514155fb003018", "department": "Writing", "gender": 0, "id": 1596464, "job": "Script Editor", "name": "T\u00f5nu Karro", "profile_path": null}, {"credit_id": "56f68c44c3a3686a67003300", "department": "Sound", "gender": 0, "id": 1596487, "job": "Orchestrator", "name": "Thomas DeRenzo", "profile_path": null}, {"credit_id": "56f68c5a925141300700118e", "department": "Camera", "gender": 0, "id": 1437033, "job": "Camera Operator", "name": "Rein Pruul", "profile_path": null}, {"credit_id": "56f68c72c3a3686a6b0031ba", "department": "Camera", "gender": 0, "id": 1596490, "job": "Steadicam Operator", "name": "Jukka Talikka", "profile_path": null}, {"credit_id": "56f68c83c3a3686a6e0034b3", "department": "Crew", "gender": 0, "id": 1596491, "job": "Special Effects", "name": "Jan-Eric Nystr\u00f6m", "profile_path": null}, {"credit_id": "56f68c9492514169e2000c3d", "department": "Sound", "gender": 0, "id": 1595719, "job": "Foley", "name": "Ain Lepp", "profile_path": null}, {"credit_id": "56f68ca69251411a61001445", "department": "Sound", "gender": 0, "id": 1595322, "job": "Foley", "name": "Mati Sch\u00f6nberg", "profile_path": null}, {"credit_id": "56f68cbbc3a3686a6700330a", "department": "Sound", "gender": 0, "id": 1595168, "job": "Sound Director", "name": "Ivo Felt", "profile_path": null}, {"credit_id": "56f68cd1c3a3686a5e00368f", "department": "Art", "gender": 0, "id": 1596492, "job": "Assistant Art Director", "name": "Kristjan M\u00e4ndmaa", "profile_path": null}, {"credit_id": "56f68ce6c3a3686a6b0031d8", "department": "Crew", "gender": 0, "id": 1596493, "job": "Property Master", "name": "Ago M\u00e4rjamaa", "profile_path": null}, {"credit_id": "56f68cf9c3a3686a59003201", "department": "Crew", "gender": 0, "id": 1595343, "job": "Property Master", "name": "Margus \u00d5unapuu", "profile_path": null}, {"credit_id": "56f68d0d92514169e2000c51", "department": "Costume & Make-Up", "gender": 0, "id": 1595838, "job": "Makeup Artist", "name": "Kairit Niel\u00e4nder", "profile_path": null}, {"credit_id": "56f68d1fc3a3686a59003213", "department": "Costume & Make-Up", "gender": 0, "id": 1595171, "job": "Makeup Artist", "name": "Tiina Leesik", "profile_path": null}]}}