{"adult": false, "backdrop_path": "/1Oc5QMyrFwgVCFoa2J6RrW9ov8b.jpg", "belongs_to_collection": null, "budget": 0, "genres": [{"id": 9648, "name": "Mystery"}, {"id": 53, "name": "Thriller"}], "homepage": null, "id": 30102, "imdb_id": "tt0037678", "original_language": "en", "original_title": "Escape in the Fog", "overview": "A nurse recovering in a hospital from a nervous breakdown keeps having dreams where she sees two men trying to murder a third. When she meets the the officer in charge of psychology at the hospital, she is astounded to discover that he is the man in her dream who is the intended murder victim.", "popularity": 3.951, "poster_path": "/8bXzEhxNS7AnA2SCJd1BMzkEYei.jpg", "production_companies": [{"id": 5, "logo_path": "/71BqEFAF4V3qjjMPCpLuyJFB9A.png", "name": "Columbia Pictures", "origin_country": "US"}], "production_countries": [{"iso_3166_1": "US", "name": "United States of America"}], "release_date": "1945-04-05", "revenue": 0, "runtime": 65, "spoken_languages": [{"iso_639_1": "en", "name": "English"}], "status": "Released", "tagline": "Slipping silently out of the fog... came murder!", "title": "Escape in the Fog", "video": false, "vote_average": 4.5, "vote_count": 8, "keywords": {"keywords": [{"id": 582, "name": "san francisco"}, {"id": 11034, "name": "b movie"}, {"id": 195402, "name": "film noir"}]}, "similar": {"page": 1, "results": [{"adult": false, "backdrop_path": "/jRNqzZZwYIpiukkblMQ4G2Vc5p7.jpg", "genre_ids": [9648, 80, 53], "id": 963, "original_language": "en", "original_title": "The Maltese Falcon", "overview": "A private detective takes on a case that involves him with three eccentric criminals, a beautiful liar, and their quest for a priceless statuette.", "poster_path": "/jQilmbgbKtpbHM9hw9hgmqomJ9.jpg", "release_date": "1941-10-18", "title": "The Maltese Falcon", "video": false, "vote_average": 7.8, "vote_count": 838, "popularity": 14.575}, {"adult": false, "backdrop_path": "/1l77Gk2OK9hjRFze08El8Do3pT1.jpg", "genre_ids": [80, 9648, 53], "id": 996, "original_language": "en", "original_title": "Double Indemnity", "overview": "A rich woman and a calculating insurance agent plot to kill her unsuspecting husband after he signs a double indemnity policy.  Against a backdrop of distinctly Californian settings, the partners in crime plan the perfect murder to collect the insurance, which pays  double if the death is accidental.", "poster_path": "/nW0cCpfuGcR1JG7EinDbdL2Ijf2.jpg", "release_date": "1944-07-03", "title": "Double Indemnity", "video": false, "vote_average": 8.2, "vote_count": 856, "popularity": 12.834}, {"adult": false, "backdrop_path": "/gF7v48JI9Vf6bBVU5aykiPtcCub.jpg", "genre_ids": [80, 9648, 53], "id": 14638, "original_language": "en", "original_title": "The Killers", "overview": "Two hit men walk into a diner asking for a man called \"the Swede\". When the killers find the Swede, he's expecting them and doesn't put up a fight. Since the Swede had a life insurance policy, an investigator, on a hunch, decides to look into the murder. As the Swede's past is laid bare, it comes to light that he was in love with a beautiful woman who may have lured him into pulling off a bank robbery overseen by another man.", "poster_path": "/uXnuc6pW01s1MDwb6QwBWg2JQeX.jpg", "release_date": "1946-08-28", "title": "The Killers", "video": false, "vote_average": 7.4, "vote_count": 167, "popularity": 11.743}, {"id": 1949, "video": false, "vote_count": 5158, "vote_average": 7.5, "title": "Zodiac", "release_date": "2007-03-02", "original_language": "en", "original_title": "Zodiac", "genre_ids": [80, 18, 9648, 53], "backdrop_path": "/jP2htGBHE7vKq4MLeC75UeC0sZH.jpg", "adult": false, "overview": "The true story of the investigation of the \"Zodiac Killer\", a serial killer who terrified the San Francisco Bay Area, taunting police with his ciphers and letters. The case becomes an obsession for three men as their lives and careers are built and destroyed by the endless trail of clues.", "poster_path": "/bgLyOROfFQI3FqYL7jQbiaV8lkN.jpg", "popularity": 21.354}, {"adult": false, "backdrop_path": "/c7iSbhSffDkM2yf5cg3D91FuVga.jpg", "genre_ids": [9648, 10749, 53], "id": 426, "original_language": "en", "original_title": "Vertigo", "overview": "A retired San Francisco detective suffering from acrophobia investigates the strange activities of an old friend's wife, all the while becoming dangerously obsessed with her.", "poster_path": "/obhM86qyv8RsE69XSMTtT9FdE0b.jpg", "release_date": "1958-05-09", "title": "Vertigo", "video": false, "vote_average": 8.2, "vote_count": 2887, "popularity": 26.515}, {"id": 402, "video": false, "vote_count": 1774, "vote_average": 6.7, "title": "Basic Instinct", "release_date": "1992-03-20", "original_language": "en", "original_title": "Basic Instinct", "genre_ids": [9648, 53], "backdrop_path": "/bKdxJMqvr4wltzAQaieA6CTkaa9.jpg", "adult": false, "overview": "A police detective is in charge of the investigation of a brutal murder, in which a beautiful and seductive woman could be involved.", "poster_path": "/p1DHOfLFZmM567ePKfFNMV4mY92.jpg", "popularity": 22.419}, {"adult": false, "backdrop_path": "/tR1RXbnkSvZq0sgx0Gyh3GmgYoB.jpg", "genre_ids": [80, 18, 53], "id": 21734, "original_language": "en", "original_title": "Shadow of a Doubt", "overview": "A bored teen living in Santa Rosa, California, Charlotte \"Charlie\" Newton, is frustrated because nothing seems to be happening in her life and that of her family. Then, she receives wonderful news: her uncle (for whom she was named), Charlie Oakley, is arriving for a visit. But Uncle Charlie may not be the man he seems to be.", "poster_path": "/ptyWagbWE8jSGyV2tGEzAdVbRCj.jpg", "release_date": "1943-01-15", "title": "Shadow of a Doubt", "video": false, "vote_average": 7.7, "vote_count": 446, "popularity": 14.275}, {"adult": false, "backdrop_path": "/vZySKb0bWGUVOYpcdIIIi60FsZ7.jpg", "genre_ids": [18, 10749, 53], "id": 17645, "original_language": "en", "original_title": "Leave Her to Heaven", "overview": "A young novelist, Richard Harland, meets beautiful Ellen Berent on a train where they fall in love and are soon married. When tragedies take first his handicapped young brother, then his unborn son from him, Harland gradually realises that his wife's insane jealousy may be the cause of the tragedies in his life. Yet another shock awaits them all, as Ellen's emotions become uncontrollable.", "poster_path": "/6D2ujwUC4GHV0rnES4nnarZryT8.jpg", "release_date": "1945-12-25", "title": "Leave Her to Heaven", "video": false, "vote_average": 7.4, "vote_count": 92, "popularity": 8.515}, {"adult": false, "backdrop_path": "/h45LDCoPWmFMTTb7taGhOPBIGKJ.jpg", "genre_ids": [878, 53], "id": 476926, "original_language": "en", "original_title": "The Titan", "overview": "On a bleak future Earth, a soldier endures a radical genetic transformation to save humanity. But his wife fears he's becoming more creature than man.", "poster_path": "/qRmQazyIBZR4pQIk9VruiZul0Au.jpg", "release_date": "2018-03-30", "title": "The Titan", "video": false, "vote_average": 5.3, "vote_count": 734, "popularity": 10.537}, {"adult": false, "backdrop_path": "/8nvayG5l0urcjvvpszoECDqLWzD.jpg", "genre_ids": [18, 53, 80, 9648], "id": 186, "original_language": "en", "original_title": "Lucky Number Slevin", "overview": "Slevin is mistakenly put in the middle of a personal war between the city\u2019s biggest criminal bosses. Under constant watch, Slevin must try not to get killed by an infamous assassin and come up with an idea of how to get out of his current dilemma. A film with many twists and turns.", "poster_path": "/jtKq0EtothAzWlnRBBWGCA8uFuu.jpg", "release_date": "2006-02-24", "title": "Lucky Number Slevin", "video": false, "vote_average": 7.5, "vote_count": 2480, "popularity": 17.523}, {"adult": false, "backdrop_path": "/t3OZS8yMs0NL4YgWWc04eXHTn1X.jpg", "genre_ids": [28, 80, 53], "id": 984, "original_language": "en", "original_title": "Dirty Harry", "overview": "When a madman dubbed 'Scorpio' terrorizes San Francisco, hard-nosed cop, Harry Callahan \u2013 famous for his take-no-prisoners approach to law enforcement \u2013 is tasked with hunting down the psychopath. Harry eventually collars Scorpio in the process of rescuing a kidnap victim, only to see him walk on technicalities. Now, the maverick detective is determined to nail the maniac himself.", "poster_path": "/2TADKc4GMMPdMrLXj0xJVgTvZJM.jpg", "release_date": "1971-12-21", "title": "Dirty Harry", "video": false, "vote_average": 7.5, "vote_count": 1172, "popularity": 15.928}, {"adult": false, "backdrop_path": "/zfs9QuKkZL6ZCluGvjo5Pk49aMv.jpg", "genre_ids": [27, 9648, 53], "id": 16938, "original_language": "en", "original_title": "Black Christmas", "overview": "A sorority house is terrorized by a stranger who makes frightening phone calls and then murders the sorority sisters during Christmas break.", "poster_path": "/qqO98sdPgptFgCua3Z4uZDuPcmP.jpg", "release_date": "1974-10-11", "title": "Black Christmas", "video": false, "vote_average": 6.9, "vote_count": 307, "popularity": 12.31}, {"id": 521, "video": false, "vote_count": 1257, "vote_average": 8.0, "title": "Dial M for Murder", "release_date": "1954-05-29", "original_language": "en", "original_title": "Dial M for Murder", "genre_ids": [80, 18, 9648, 53], "backdrop_path": "/jVMlfESb0TJ29w8CUDDofEprMmn.jpg", "adult": false, "overview": "An ex-tennis pro carries out a plot to have his wife murdered after discovering she is having an affair, and assumes she will soon leave him for the other man anyway. When things go wrong, he improvises a new plan\u2014to frame her for murder instead.", "poster_path": "/xrpK1PyckNWmRxU4kZURfaCyboS.jpg", "popularity": 34.566}, {"id": 341013, "video": false, "vote_count": 4061, "vote_average": 6.3, "title": "Atomic Blonde", "release_date": "2017-07-26", "original_language": "en", "original_title": "Atomic Blonde", "genre_ids": [28, 9648, 53], "backdrop_path": "/g3hni0i9iAQ13jDGOFWavJFlojc.jpg", "adult": false, "overview": "An undercover MI6 agent is sent to Berlin during the Cold War to investigate the murder of a fellow agent and recover a missing list of double agents.", "poster_path": "/kV9R5h0Yct1kR8Hf8sJ1nX0Vz4x.jpg", "popularity": 31.297}, {"adult": false, "backdrop_path": "/ieJ5ImFoJILNULvnIpbulAln7Lr.jpg", "genre_ids": [12, 28, 53, 878], "id": 14869, "original_language": "en", "original_title": "G.I. Joe: The Rise of Cobra", "overview": "From the Egyptian desert to deep below the polar ice caps, the elite G.I. JOE team uses the latest in next-generation spy and military equipment to fight the corrupt arms dealer Destro and the growing threat of the mysterious Cobra organization to prevent them from plunging the world into chaos.", "poster_path": "/29eW5c5DaCFQejdt9V14RrA51yD.jpg", "release_date": "2009-08-04", "title": "G.I. Joe: The Rise of Cobra", "video": false, "vote_average": 5.7, "vote_count": 3081, "popularity": 24.573}, {"id": 260346, "video": false, "vote_count": 3700, "vote_average": 6.2, "title": "Taken 3", "release_date": "2014-12-16", "original_language": "en", "original_title": "Taken 3", "genre_ids": [28, 53], "backdrop_path": "/cU6R5EgOEmiIVKommjnU89hsvcD.jpg", "adult": false, "overview": "Ex-government operative Bryan Mills finds his life is shattered when he's falsely accused of a murder that hits close to home. As he's pursued by a savvy police inspector, Mills employs his particular set of skills to track the real killer and exact his unique brand of justice.", "poster_path": "/ikDwR3i2bczqnRf1urJTy77YTFf.jpg", "popularity": 36.883}, {"id": 75780, "video": false, "vote_count": 4450, "vote_average": 6.4, "title": "Jack Reacher", "release_date": "2012-12-20", "original_language": "en", "original_title": "Jack Reacher", "genre_ids": [28, 80, 18, 53], "backdrop_path": "/ezXodpP429qK0Av89pVNlaXWJkQ.jpg", "adult": false, "overview": "When a gunman takes five lives with six shots, all evidence points to the suspect in custody. On interrogation, the suspect offers up a single note: \"Get Jack Reacher!\" So begins an extraordinary chase for the truth, pitting Jack Reacher against an unexpected enemy, with a skill for violence and a secret to keep.", "poster_path": "/mt0ELw83HIRgaKaDzhsDcIi0RnW.jpg", "popularity": 19.929}, {"adult": false, "backdrop_path": "/19qAk3bQZ6ulspbwhPw1A0bNpii.jpg", "genre_ids": [80, 27, 53], "id": 73861, "original_language": "sr", "original_title": "Srpski film", "overview": "Milos, a retired porn star, leads a normal family life trying to make ends meet. Presented with the opportunity of a lifetime to financially support his family for the rest of their lives, Milos must participate in one last mysterious film. From then on, Milos is drawn into a maelstrom of unbelievable cruelty and mayhem.", "poster_path": "/iB3ynCghwG63MrViBC6YyPzUIAn.jpg", "release_date": "2010-06-16", "title": "A Serbian Film", "video": false, "vote_average": 5.5, "vote_count": 898, "popularity": 15.06}, {"adult": false, "backdrop_path": "/jQR6de9dwOjvx91wC4tqpTlMqCD.jpg", "genre_ids": [53, 80, 18], "id": 109421, "original_language": "en", "original_title": "Side Effects", "overview": "A woman turns to prescription medication as a way of handling her anxiety concerning her husband's upcoming release from prison.", "poster_path": "/ttD69Yhh2BV1WVqr27NRbF8ubOW.jpg", "release_date": "2013-02-07", "title": "Side Effects", "video": false, "vote_average": 6.5, "vote_count": 2035, "popularity": 11.74}, {"adult": false, "backdrop_path": "/hm4vpIhBW75bTIDTurq2d4rLZy1.jpg", "genre_ids": [53, 18, 27], "id": 3511, "original_language": "en", "original_title": "The Broken", "overview": "The life of a successful radiologist spirals out of control when she sees the spitting image of herself driving down a London street. While attempting to uncover who the imposter could be, she stumbles into a terrifying mystery that her family and closest friends are somehow involved in, leaving her with no one to trust.", "poster_path": "/nGTUsccLUZhF9Bb5fjvL7KrogvC.jpg", "release_date": "2008-01-18", "title": "The Broken", "video": false, "vote_average": 5.5, "vote_count": 113, "popularity": 9.129}], "total_pages": 243, "total_results": 4855}, "recommendations": {"page": 1, "results": [{"id": 36635, "video": false, "vote_count": 6, "vote_average": 5.1, "title": "Danger Signal", "release_date": "1945-11-21", "original_language": "en", "original_title": "Danger Signal", "genre_ids": [80, 18, 53], "backdrop_path": "/2bdjNm2rqrr1VG9lRRW6UGQ9qnW.jpg", "adult": false, "overview": "After robbing and murdering his married lover and then making her death look like suicide, conniving philanderer Ronnie Mason relocates to Los Angeles. Under a new identity and claiming to be a writer, Ronnie finds lodging at the home of Hilda Fenchurch and her mother. He woos Hilda, knowing she has money, but when he discovers that Hilda's sister, Anne, has just inherited $25,000, he switches his attentions to her.", "poster_path": "/kAVtEg6Xg4eENTzeG1trAfvK4oy.jpg", "popularity": 3.445}, {"id": 44101, "video": false, "vote_count": 9, "vote_average": 5.1, "title": "Backlash", "release_date": "1947-03-01", "original_language": "en", "original_title": "Backlash", "genre_ids": [80, 9648], "backdrop_path": "/6Yw6tOuA28jB3GhIxWCCmQFnneh.jpg", "adult": false, "overview": "In a series of flashbacks, shows that attorney John Morland has given a lift to a hitchhiker who turns out to be a murderer. As a result, Morland himself is implicated in a killing. A pair of detectives discover that Morland has been having business problems and no end of difficulties with his wife Catherine. The trail of clues leads to a surprising revelation.", "poster_path": "/A8nUEeojTU4gifVrospwW86ikND.jpg", "popularity": 2.991}, {"adult": false, "backdrop_path": "/kBiMycWmWmJ0VYHjx8mAX6sUFxm.jpg", "genre_ids": [80, 9648], "id": 47623, "original_language": "en", "original_title": "I Wouldn't Be in Your Shoes", "overview": "Around Christmas time, a woman tries to prove the innocence of her dancer husband jailed for a crime she just knows he didn't commit.", "poster_path": "/cTbuEsZ17wPBFWQveb8tCXiwkhE.jpg", "release_date": "1948-05-23", "title": "I Wouldn't Be in Your Shoes", "video": false, "vote_average": 5.2, "vote_count": 7, "popularity": 2.632}, {"adult": false, "backdrop_path": "/aogYywdhUzUf65LTItmqv2gm9rC.jpg", "genre_ids": [9648], "id": 45960, "original_language": "en", "original_title": "Blind Spot", "overview": "A mystery writer becomes the prime suspect in a murder investigation when a publisher he last saw is found dead.", "poster_path": "/vECXLz1acwcyqrd4420UdeYbz90.jpg", "release_date": "1947-02-06", "title": "Blind Spot", "video": false, "vote_average": 4.3, "vote_count": 5, "popularity": 1.899}, {"adult": false, "backdrop_path": "/k2bCANa7JQgWNq4OtZKKTUSp3IY.jpg", "genre_ids": [80], "id": 42321, "original_language": "en", "original_title": "Circumstantial Evidence", "overview": "A man waits on death row while his son and friend try to prove that he did not kill a grocer with an ax.", "poster_path": "/uRIJbsWv2u18AXAV1vMe12bEpT0.jpg", "release_date": "1945-04-22", "title": "Circumstantial Evidence", "video": false, "vote_average": 4.9, "vote_count": 6, "popularity": 5.422}, {"adult": false, "backdrop_path": "/nc6dbrAOAxyZg2JhdnuLw2tbBpI.jpg", "genre_ids": [9648], "id": 35546, "original_language": "en", "original_title": "The Guilty", "overview": "Two guys, sharing an apartment, meet twin girls. One is Shirley Temple grown-up, and the other is a major piece of bad news. The nice one is murdered and her boyfriend is accused of the crime. The wrong man-wrong victim plot strikes again.", "poster_path": "/16LvZiZeb2rQ9DDDoZccw6kKakG.jpg", "release_date": "1947-03-22", "title": "The Guilty", "video": false, "vote_average": 4.1, "vote_count": 6, "popularity": 2.403}, {"adult": false, "backdrop_path": "/zdI3vf4dg83EZFcXjhs3n9NncAN.jpg", "genre_ids": [80], "id": 25498, "original_language": "en", "original_title": "Strange Triangle", "overview": "In this drama, a seductive woman uses her wiles upon both a traveling bank examiner and a manager to whom she is married. This woman has expensive taste and ends up spending all of her husband's money. She then begins trying to seduce the bank examiner, who doesn't know she is married to the manager.", "poster_path": "/4qK1wrGqDQkxABGdZSoNnXLUsIK.jpg", "release_date": "1946-05-17", "title": "Strange Triangle", "video": false, "vote_average": 4.0, "vote_count": 5, "popularity": 3.869}, {"adult": false, "backdrop_path": null, "genre_ids": [99], "id": 259995, "original_language": "en", "original_title": "Angano... Angano... nouvelles de Madagascar", "overview": "Venerable storytellers recount for the camera and their listeners the founding myths of Malagasy culture.", "poster_path": "/ddHjpoB0HxLii0r0QrHyL0j2hWn.jpg", "release_date": "1989-03-04", "title": "Angano... Angano... Tales from Madagascar", "video": false, "vote_average": 5.2, "vote_count": 6, "popularity": 2.763}, {"id": 48234, "video": false, "vote_count": 6, "vote_average": 4.1, "title": "Key Witness", "release_date": "1947-10-09", "original_language": "en", "original_title": "Key Witness", "genre_ids": [80], "backdrop_path": "/oYpX42Em4NIfZvuPVCpChJ3D3Xk.jpg", "adult": false, "overview": "A man takes over the identity of a dead man while on the lam from a crime he didn't commit.", "poster_path": "/tkBgRUD9MHVJCmybIlOOqII7huP.jpg", "popularity": 3.459}, {"adult": false, "backdrop_path": "/nQKFTdao2KmxkiN5shO0hWkEk0j.jpg", "genre_ids": [9648, 53], "id": 41551, "original_language": "en", "original_title": "Strange Bargain", "overview": "Bookkeeper Sam Wilson learns from his boss, Malcolm Jarvis, that he is losing his job because the company is closing down. Jarvis then makes a strange proposition, saying he intends to commit suicide, but wants Sam to make it look like a murder, in order for his wife and son to inherit Jarvis's life insurance. Sam declines, but when he goes to see Jarvis and finds his dead body, he reluctantly goes along with the scheme.", "poster_path": "/cdWCOUamHpNGDRWyck8Ugxt7sAx.jpg", "release_date": "1949-11-05", "title": "Strange Bargain", "video": false, "vote_average": 5.3, "vote_count": 6, "popularity": 3.251}, {"adult": false, "backdrop_path": "/8hZitZNPfG8wU3v4zN0ysJ4wTxB.jpg", "genre_ids": [80, 18], "id": 59165, "original_language": "en", "original_title": "The Tattooed Stranger", "overview": "Detectives investigate the Central Park murder of a young woman with a Marine Corps tattoo.", "poster_path": "/fqRFfgqanoWR8MfZEWqAuBoj4zs.jpg", "release_date": "1950-02-09", "title": "The Tattooed Stranger", "video": false, "vote_average": 4.9, "vote_count": 8, "popularity": 3.432}, {"adult": false, "backdrop_path": "/rZtJVbCUeTO5wCycgWXwg1GGctz.jpg", "genre_ids": [53, 80, 18], "id": 38964, "original_language": "en", "original_title": "Stolen Face", "overview": "A doctor changes a woman's face to match the one that broke his heart. Trouble starts when his love returns.", "poster_path": "/67FmEzxNJo9AlJvN0CULZSrCCHM.jpg", "release_date": "1952-05-01", "title": "Stolen Face", "video": false, "vote_average": 5.1, "vote_count": 7, "popularity": 3.025}, {"adult": false, "backdrop_path": "/8aCFI2KJSS8RZRtthhQZeWBx7x5.jpg", "genre_ids": [80], "id": 43536, "original_language": "en", "original_title": "Jealousy", "overview": "A female cabbie is suspected of killing her drunken husband.", "poster_path": "/myRugXXPG5ihqyQ8UpzMJUIWJ3c.jpg", "release_date": "1945-07-23", "title": "Jealousy", "video": false, "vote_average": 5.3, "vote_count": 7, "popularity": 2.422}, {"adult": false, "backdrop_path": "/tCY3Tct1NBYvAd0he8vzlYT6L4d.jpg", "genre_ids": [9648, 80], "id": 44623, "original_language": "en", "original_title": "High Tide", "overview": "A car accident traps two men inside a car near the water. With the tide coming in, they discuss the circumstances that leading up to the accident.", "poster_path": "/k5UPwx4gFwC6Nuevabwcrl16YDp.jpg", "release_date": "1947-09-13", "title": "High Tide", "video": false, "vote_average": 5.4, "vote_count": 6, "popularity": 2.81}, {"adult": false, "backdrop_path": "/AgSuaIfgzQ0VEO0YG4yYpJyMoXh.jpg", "genre_ids": [28, 80], "id": 44137, "original_language": "en", "original_title": "Blackmail", "overview": "A private detective is offered a job protecting a rich business man from suspected blackmail. Before he can accept the case a murder is uncovered.", "poster_path": "/nJDqK70QLd2zbr148jDlqkQ4jyV.jpg", "release_date": "1947-07-24", "title": "Blackmail", "video": false, "vote_average": 3.7, "vote_count": 6, "popularity": 3.685}, {"adult": false, "backdrop_path": "/cbSygJHWXZHkuslaeIGJd34jxnO.jpg", "genre_ids": [80], "id": 28561, "original_language": "en", "original_title": "Roadblock", "overview": "An insurance agent's greedy girlfriend with a taste for mink leads him to a life of crime.", "poster_path": "/nbIuWEtyMy6USgWsAyniw963tRI.jpg", "release_date": "1951-01-01", "title": "Roadblock", "video": false, "vote_average": 5.6, "vote_count": 8, "popularity": 3.711}, {"adult": false, "backdrop_path": "/WUjFpya33rSs6d1TOWSDBA7yFt.jpg", "genre_ids": [80], "id": 44572, "original_language": "en", "original_title": "Fall Guy", "overview": "A drugged man covered in blood is picked up by police. Before the cops can get answers the man escapes in search of answers to the mystery himself.", "poster_path": "/rQmV2CmjYrmYCOdw0cIAfR0Ap8Z.jpg", "release_date": "1947-03-15", "title": "Fall Guy", "video": false, "vote_average": 4.8, "vote_count": 6, "popularity": 3.073}, {"adult": false, "backdrop_path": "/yVznYf7YlUlCKCSyKG2i16SXKTL.jpg", "genre_ids": [80, 53], "id": 73595, "original_language": "en", "original_title": "The Threat", "overview": "An escaped con kidnaps the people he thinks put him behind bars.", "poster_path": "/jF44Ku7ZcFgLY0VGJ2txvHM0zOM.jpg", "release_date": "1949-12-01", "title": "The Threat", "video": false, "vote_average": 5.8, "vote_count": 10, "popularity": 3.67}, {"adult": false, "backdrop_path": "/tcHaZhN9zxLLqWRoJbuqgxN4qic.jpg", "genre_ids": [80], "id": 46184, "original_language": "en", "original_title": "Destiny", "overview": "A bank robber reflects on his life of crime while hiding out after a bank heist.", "poster_path": "/6LtVFrKxJ5a9kjJCgNHqXzhzVTf.jpg", "release_date": "1944-12-22", "title": "Destiny", "video": false, "vote_average": 4.6, "vote_count": 6, "popularity": 2.572}, {"adult": false, "backdrop_path": "/dv4Tq2iX4XMwEpklq9yl6kElJJ8.jpg", "genre_ids": [18], "id": 26805, "original_language": "en", "original_title": "Night Editor", "overview": "\"Night Editor\" was based on the already existing radio program in which a newspaper editor would recount the 'inside story' of some bit newspaper story, and later became a television series.", "poster_path": "/tCyhHqjXHcvH4knab5Aem6izazi.jpg", "release_date": "1946-03-29", "title": "Night Editor", "video": false, "vote_average": 5.6, "vote_count": 9, "popularity": 4.626}], "total_pages": 2, "total_results": 40}, "credits": {"cast": [{"cast_id": 2, "character": "Paul Devon", "credit_id": "52fe43fc9251416c910013f9", "gender": 2, "id": 4071, "name": "Otto Kruger", "order": 0, "profile_path": "/q9ntxkKFmSfBJ0u2orGwmfyBBZ3.jpg"}, {"cast_id": 3, "character": "Eileen Carr", "credit_id": "52fe43fc9251416c910013fd", "gender": 1, "id": 13026, "name": "Nina Foch", "order": 1, "profile_path": "/jd5qWtnZdEvfwuo57CpJVzazYc0.jpg"}, {"cast_id": 4, "character": "Barry Malcolm", "credit_id": "52fe43fc9251416c91001401", "gender": 2, "id": 105794, "name": "William Wright", "order": 2, "profile_path": "/k5wjM5CP9uLGITMlfwLIzvws4mm.jpg"}, {"cast_id": 5, "character": "Schiller", "credit_id": "52fe43fc9251416c91001405", "gender": 2, "id": 5739, "name": "Konstantin Shayne", "order": 3, "profile_path": "/llfjgzmcPvCvOujGLZfb4f2kGh5.jpg"}, {"cast_id": 6, "character": "Hausmer, Schiller's Henchman", "credit_id": "52fe43fc9251416c91001409", "gender": 2, "id": 5041, "name": "Ivan Triesault", "order": 4, "profile_path": "/pNrEdprQB7ON6M5CcBaBxCVxq5Y.jpg"}, {"cast_id": 7, "character": "George Smith", "credit_id": "52fe43fc9251416c9100140d", "gender": 2, "id": 34098, "name": "Ernie Adams", "order": 5, "profile_path": "/jApXZ7Z3HpIbh3dXv55coEyVLdC.jpg"}, {"cast_id": 12, "character": "Taxi driver (uncredited)", "credit_id": "52fe43fc9251416c91001429", "gender": 1, "id": 7632, "name": "Shelley Winters", "order": 6, "profile_path": "/zVg966M0RVK5kycHZUEDc51QULV.jpg"}, {"cast_id": 13, "character": "Mrs. Devon", "credit_id": "557c5d9792514153ad001b76", "gender": 0, "id": 1359791, "name": "Mary Newton", "order": 7, "profile_path": null}], "crew": [{"credit_id": "52fe43fc9251416c910013f5", "department": "Directing", "gender": 2, "id": 18574, "job": "Director", "name": "Budd Boetticher", "profile_path": "/tPlwIJ5AN9R7wwBxB0bimsCQD5J.jpg"}, {"credit_id": "52fe43fc9251416c91001413", "department": "Writing", "gender": 2, "id": 41705, "job": "Screenplay", "name": "Aubrey Wisberg", "profile_path": null}, {"credit_id": "52fe43fc9251416c91001419", "department": "Production", "gender": 2, "id": 96725, "job": "Producer", "name": "Wallace MacDonald", "profile_path": "/arKR5gyowGRHzyP8cV7sZTqXWp1.jpg"}, {"credit_id": "52fe43fc9251416c9100141f", "department": "Camera", "gender": 2, "id": 104709, "job": "Director of Photography", "name": "George Meehan", "profile_path": null}, {"credit_id": "52fe43fc9251416c91001425", "department": "Editing", "gender": 2, "id": 34439, "job": "Editor", "name": "Jerome Thoms", "profile_path": null}]}}