{"adult": false, "backdrop_path": "/owq3KbgR9VPT6OQvSVT3tlExJmI.jpg", "belongs_to_collection": null, "budget": 0, "genres": [{"id": 35, "name": "Comedy"}], "homepage": null, "id": 30175, "imdb_id": "tt0093567", "original_language": "en", "original_title": "Morgan Stewart's Coming Home", "overview": "After seven years in boarding school, Morgan Stewart is finally coming home. He discovers it's not the same happy home it used to be....", "popularity": 3.416, "poster_path": "/glAKt0E2PTdInc2hH7XpsSzyU93.jpg", "production_companies": [{"id": 4255, "logo_path": null, "name": "Kings Road Entertainment", "origin_country": "US"}], "production_countries": [{"iso_3166_1": "US", "name": "United States of America"}], "release_date": "1987-02-20", "revenue": 0, "runtime": 96, "spoken_languages": [{"iso_639_1": "en", "name": "English"}], "status": "Released", "tagline": "He was just Ducky in \"Pretty in Pink\". Now he's crazy rich...and it's all his parents' fault.", "title": "Morgan Stewart's Coming Home", "video": false, "vote_average": 5.2, "vote_count": 10, "keywords": {"keywords": [{"id": 6271, "name": "boarding school"}, {"id": 164698, "name": "boyfriend girlfriend"}]}, "similar": {"page": 1, "results": [{"id": 747, "video": false, "vote_count": 5107, "vote_average": 7.5, "title": "Shaun of the Dead", "release_date": "2004-04-09", "original_language": "en", "original_title": "Shaun of the Dead", "genre_ids": [35, 27], "backdrop_path": "/50mMiR0R1QclaAODTutwXBrReLJ.jpg", "adult": false, "overview": "Shaun lives a supremely uneventful life, which revolves around his girlfriend, his mother, and, above all, his local pub. This gentle routine is threatened when the dead return to life and make strenuous attempts to snack on ordinary Londoners.", "poster_path": "/2evlcGnsfdFWLb7geNlIjIewc0Q.jpg", "popularity": 26.09}, {"id": 810, "video": false, "vote_count": 5375, "vote_average": 6.2, "title": "Shrek the Third", "release_date": "2007-05-17", "original_language": "en", "original_title": "Shrek the Third", "genre_ids": [12, 16, 35, 14, 10751], "backdrop_path": "/7fT1IogBbxM6S7SOIGSe7BXLEMq.jpg", "adult": false, "overview": "The King of Far Far Away has died and Shrek and Fiona are to become King & Queen. However, Shrek wants to return to his cozy swamp and live in peace and quiet, so when he finds out there is another heir to the throne, they set off to bring him back to rule the kingdom.", "poster_path": "/lA17Mlz8hXVZsW5Y3WuUa8KPilQ.jpg", "popularity": 25.76}, {"id": 13971, "video": false, "vote_count": 1135, "vote_average": 6.7, "title": "Wild Child", "release_date": "2008-01-01", "original_language": "en", "original_title": "Wild Child", "genre_ids": [35, 18, 10749], "backdrop_path": "/18W6hUmP9sVzDlzzlrsP4RaKJ7H.jpg", "adult": false, "overview": "Rebellious 16 year old Poppy from Mailibu is sent to an English boarding school. Realising her Father isn't coming back to rescue her she tries to get expelled.", "poster_path": "/mtkVTaXslEGadjPC2uSofQlJ4jP.jpg", "popularity": 16.096}, {"id": 340022, "video": false, "vote_count": 403, "vote_average": 5.9, "title": "Gringo", "release_date": "2018-03-08", "original_language": "en", "original_title": "Gringo", "genre_ids": [28, 35], "backdrop_path": "/cYE68RGfVDk3u435mKEVb8jD1GT.jpg", "adult": false, "overview": "An American businessman with a stake in a pharmaceutical company that's about to go public finds his life is thrown into turmoil by an incident in Mexico.", "poster_path": "/dxeVPklFwng2IowqRPNI4od6aXv.jpg", "popularity": 13.804}, {"id": 9655, "video": false, "vote_count": 1712, "vote_average": 6.6, "title": "She's the Man", "release_date": "2006-03-17", "original_language": "en", "original_title": "She's the Man", "genre_ids": [35, 18, 10749, 10751], "backdrop_path": "/qHHM9pcly5YFV3hdLjyPofnzVjH.jpg", "adult": false, "overview": "Viola Johnson is in a real jam. Complications threaten her scheme to pose as her twin brother, Sebastian, and take his place at a new boarding school. She falls in love with her handsome roommate, Duke, who loves beautiful Olivia, who has fallen for Sebastian! As if that were not enough, Viola's twin returns from London ahead of schedule but has no idea that his sister has already replaced him on campus.", "poster_path": "/aoO3OtAojt9g8D60tro8s26mGmj.jpg", "popularity": 13.221}, {"id": 37056, "video": false, "vote_count": 1908, "vote_average": 6.9, "title": "Letters to Juliet", "release_date": "2010-05-14", "original_language": "en", "original_title": "Letters to Juliet", "genre_ids": [35, 18, 10749], "backdrop_path": "/mwI5fTor198yK4w7LDOfuPssxF2.jpg", "adult": false, "overview": "An American girl on vacation in Italy finds an unanswered \"letter to Juliet\" -- one of thousands of missives left at the fictional lover's Verona courtyard, which are typically answered by a the \"secretaries of Juliet\" -- and she goes on a quest to find the lovers referenced in the letter.", "poster_path": "/4i8NMziIa5Vct1dJ3ej6EDgzXag.jpg", "popularity": 12.359}, {"id": 616584, "video": false, "vote_count": 92, "vote_average": 7.5, "title": "K-12", "release_date": "2019-09-05", "original_language": "en", "original_title": "K-12", "genre_ids": [14, 27, 10402], "backdrop_path": "/fSlfaF0Ydfr2SK6hOYHvDsb7a9Z.jpg", "adult": false, "overview": "Cry Baby, a strong and sensitive girl, is sent off to a disturbing sleepaway school that\u2019s hidden underneath a grandiose fa\u00e7ade. Luckily, she has a sweet and unapologetic best friend who sticks up for her when she gets bullied by the other students whose brains are under control by the Principal and his wicked staff. With the help of the magical friends they meet along the way, as well as an Angelic Spirit Guide, they are able to gain the strength they need to fight off the school\u2019s belligerent patriarchal conditioning.", "poster_path": "/nVi0yBBPj5Z96JgGWVIg94kv7bR.jpg", "popularity": 18.105}, {"adult": false, "backdrop_path": "/9T8sj5io4SGCBTHsk5H8LGcfKVe.jpg", "genre_ids": [10749, 18], "id": 419478, "original_language": "en", "original_title": "Midnight Sun", "overview": "Katie, a 17-year-old, has been sheltered since childhood and confined to her house during the day by a rare disease that makes even the smallest amount of sunlight deadly. Fate intervenes when she meets Charlie and they embark on a summer romance.", "poster_path": "/vPG2zEKPXhovPW9S91SRnwr5JM1.jpg", "release_date": "2018-03-22", "title": "Midnight Sun", "video": false, "vote_average": 7.7, "vote_count": 1921, "popularity": 23.24}, {"id": 674, "video": false, "vote_count": 12257, "vote_average": 7.8, "title": "Harry Potter and the Goblet of Fire", "release_date": "2005-11-16", "original_language": "en", "original_title": "Harry Potter and the Goblet of Fire", "genre_ids": [12, 14, 10751], "backdrop_path": "/gzKW3emulMxIHzuXxZoyDB1lei9.jpg", "adult": false, "overview": "Harry starts his fourth year at Hogwarts, competes in the treacherous Triwizard Tournament and faces the evil Lord Voldemort. Ron and Hermione help Harry manage the pressure \u2013 but Voldemort lurks, awaiting his chance to destroy Harry and all that he stands for.", "poster_path": "/fECBtHlr0RB3foNHDiCBXeg9Bv9.jpg", "popularity": 37.687}, {"id": 421792, "video": false, "vote_count": 344, "vote_average": 5.5, "title": "Down a Dark Hall", "release_date": "2018-08-01", "original_language": "en", "original_title": "Down a Dark Hall", "genre_ids": [18, 14, 27, 53], "backdrop_path": "/eoTjilPmObqBMcXaBDBYTIPdB7e.jpg", "adult": false, "overview": "Kit, a troubled girl, is sent to the exclusive Blackwood boarding school, where she discovers that only four other female students have been admitted to learn the four pillars of knowledge under the ominous wing of the mysterious headmistress Madame Duret.", "poster_path": "/wErHaJrD1QZ2FEVneH6w0GZUz2L.jpg", "popularity": 14.443}, {"id": 11906, "video": false, "vote_count": 1329, "vote_average": 7.6, "title": "Suspiria", "release_date": "1977-02-01", "original_language": "it", "original_title": "Suspiria", "genre_ids": [27], "backdrop_path": "/i8lyb818XNNGaXiL6qHSxVNodKy.jpg", "adult": false, "overview": "From the moment she arrives in Freiberg, Germany, to attend the prestigious Tanz Academy, American ballet-dancer Suzy Bannion senses that something horribly evil lurks within the walls of the age-old institution.", "poster_path": "/qtHlaxwLIKuZCHjFaHa2IGYWe4C.jpg", "popularity": 17.925}, {"id": 457943, "video": false, "vote_count": 124, "vote_average": 5.6, "title": "Slaughterhouse Rulez", "release_date": "2018-10-31", "original_language": "en", "original_title": "Slaughterhouse Rulez", "genre_ids": [28, 12, 35, 27], "backdrop_path": "/zjWxnksSxj6OFXAkISf1kZAAETF.jpg", "adult": false, "overview": "Don Wallace arrives at Slaughterhouse, an elite boarding school in the English countryside where the children of the wealthiest are groomed to dominate society. But the monolithic rules of the British upper class change when greed and recklessness unleash an ancient power hidden for centuries and future predators become helpless prey.", "poster_path": "/wfLzocgEa7DDQAJWeorEiDFx9WM.jpg", "popularity": 10.809}, {"adult": false, "backdrop_path": "/5dF4FNwM2qZIuF0WCUs5zvDGU2H.jpg", "genre_ids": [18], "id": 7508, "original_language": "hi", "original_title": "Taare Zameen Par", "overview": "Ishaan Awasthi is an eight-year-old whose world is filled with wonders that no one else seems to appreciate. Colours, fish, dogs, and kites don't seem important to the adults, who are much more interested in things like homework, marks, and neatness. Ishaan cannot seem to get anything right in class; he is then sent to boarding school, where his life changes forever.", "poster_path": "/t8x4j5KtI6hZRUVtPPztNBo1q5W.jpg", "release_date": "2007-12-21", "title": "Like Stars on Earth", "video": false, "vote_average": 8.0, "vote_count": 458, "popularity": 12.036}, {"id": 9475, "video": false, "vote_count": 1555, "vote_average": 7.7, "title": "Scent of a Woman", "release_date": "1992-12-23", "original_language": "en", "original_title": "Scent of a Woman", "genre_ids": [18], "backdrop_path": "/jc16RxKrJWLVhGdbpqjbiuGbbDk.jpg", "adult": false, "overview": "Charlie Simms is a student at a private preparatory school who comes from a poor family. To earn the money for his flight home to Gresham, Oregon for Christmas, Charlie takes a job over Thanksgiving looking after retired U.S. Army officer Lieutenant Colonel Frank Slade, a cantankerous middle-aged man who lives with his niece and her family.", "poster_path": "/22m6tUzIYxXs5cjyl7KJJPULlMT.jpg", "popularity": 17.842}, {"id": 254201, "video": false, "vote_count": 308, "vote_average": 7.2, "title": "The Absent One", "release_date": "2014-10-02", "original_language": "da", "original_title": "Fasandr\u00e6berne", "genre_ids": [80, 18, 9648, 53], "backdrop_path": "/n7LyLdE0EsKdZmgoZy9m4GUIoJp.jpg", "adult": false, "overview": "Denmark, 2014. A former police officer asks Carl M\u00f8rck, head of Department Q, to find out who brutally killed his young twins in 1994. Although a local inhabitant confessed and was convicted of murder, Carl and his partner Assad soon realize that there is something in the case resolution that is terribly wrong.", "poster_path": "/spvWPsvCi4g3UVDypnQstzPx9Or.jpg", "popularity": 12.704}, {"id": 334536, "video": false, "vote_count": 260, "vote_average": 5.6, "title": "The Blackcoat's Daughter", "release_date": "2017-03-31", "original_language": "en", "original_title": "The Blackcoat's Daughter", "genre_ids": [27, 53], "backdrop_path": "/sQMts3InFfqd9NNzwISwLoOn6KN.jpg", "adult": false, "overview": "In the dead of winter, Kat and Rose, two very different girls, find themselves spending winter break at their prestigious prep school. What they don't know is that Kat is being stalked by an evil entity, and their lives are about to change forever. Meanwhile, Joan, a young, troubled woman, makes her way across a frozen landscape towards the school. But why?", "poster_path": "/gW5MnkQ9zHtyVPzdDDHPEDCrZ57.jpg", "popularity": 9.966}, {"id": 5528, "video": false, "vote_count": 1369, "vote_average": 7.7, "title": "The Chorus", "release_date": "2004-03-17", "original_language": "fr", "original_title": "Les Choristes", "genre_ids": [18], "backdrop_path": "/4SWExfeoheG73iKaQtzuMFXFCDA.jpg", "adult": false, "overview": "Set in 1940's France, a new teacher at a school for disruptive boys gives hope and inspiration.", "poster_path": "/8nxYEvYYRYNF9JY32eDLgJlZdpl.jpg", "popularity": 13.887}, {"id": 11675, "video": false, "vote_count": 789, "vote_average": 5.9, "title": "Halloween H20: 20 Years Later", "release_date": "1998-08-05", "original_language": "en", "original_title": "Halloween H20: 20 Years Later", "genre_ids": [27, 53], "backdrop_path": "/xtVaN3xQ8hjS90Jx29pOkIXKht1.jpg", "adult": false, "overview": "Two decades after surviving a massacre on October 31, 1978, former baby sitter Laurie Strode finds herself hunted by persistent knife-wielder Michael Myers. Laurie now lives in Northern California under an assumed name, where she works as the headmistress of a private school. But it's not far enough to escape Myers, who soon discovers her whereabouts. As Halloween descends upon Laurie's peaceful community, a feeling of dread weighs upon her -- with good reason.", "poster_path": "/crycJDHRvpQyZeQyRYtIZKIpNzK.jpg", "popularity": 11.238}, {"id": 11178, "video": false, "vote_count": 298, "vote_average": 7.6, "title": "My Sassy Girl", "release_date": "2001-07-27", "original_language": "ko", "original_title": "\uc5fd\uae30\uc801\uc778 \uadf8\ub140", "genre_ids": [35, 18, 10749], "backdrop_path": "/6z28QA320tWjdIxu0cmS5HyrKMR.jpg", "adult": false, "overview": "A dweeby, mild-mannered man comes to the aid of a drunk young woman on a subway platform. Little does he know how much trouble he\u2019s in for\u2026", "poster_path": "/jhlthtFzzEA8RYqRHy1y8dus4Q8.jpg", "popularity": 12.565}, {"id": 55504, "video": false, "vote_count": 74, "vote_average": 5.7, "title": "Go Figure", "release_date": "2005-06-10", "original_language": "en", "original_title": "Go Figure", "genre_ids": [35, 18, 10751, 10770], "backdrop_path": "/3OVtMNUmQ8N4MRaEilIOkHYMXN7.jpg", "adult": false, "overview": "Katelin Kingsford, an Olympic hopeful figure skater wants to train with a Russian figure skating coach. In order to go to go to the school that Natasha is at, Katelin gets a scholarship playing on the girls hockey team.", "poster_path": "/z6OmUTT7nmsWIaIyXxnVzM8BeOZ.jpg", "popularity": 12.867}], "total_pages": 6, "total_results": 103}, "recommendations": {"page": 1, "results": [{"adult": false, "backdrop_path": null, "genre_ids": [35], "id": 30467, "original_language": "en", "original_title": "Virgin High", "overview": "When he is caught with his girlfriend, she is shipped off to a Catholic boarding school. He poses as a priest to see her and is beset with a series of surprises that prove that nothing is sacred at the academy of the blessed virgin", "poster_path": "/4v2MwusRkOWuBDIGLXnr1hMz5CO.jpg", "release_date": "1991-01-23", "title": "Virgin High", "video": false, "vote_average": 5.3, "vote_count": 4, "popularity": 3.779}, {"id": 41301, "video": false, "vote_count": 5, "vote_average": 5.3, "title": "Nature of the Beast", "release_date": "2007-10-21", "original_language": "en", "original_title": "Nature of the Beast", "genre_ids": [35, 27, 53, 10749], "backdrop_path": "/kTTzVbDPqC9kD4DYLQY5yljRwh7.jpg", "adult": false, "overview": "Julia and Rich are about to get married, but Rich has a hairy secret. Will Julia still marry him when she finds out about the monster \"inside\"?", "poster_path": "/ke9UKGJD82IPtJjj6U9V7PmWp8v.jpg", "popularity": 3.771}, {"adult": false, "backdrop_path": "/uQAvMD9v9cwXvqIGkXUe6nGMR2x.jpg", "genre_ids": [35, 10749], "id": 55727, "original_language": "en", "original_title": "Making the Grade", "overview": "Lazy preppie Palmer Woodrow hires street-smart Eddie Keaton to go to school for him while he lives it up in Europe. Eddie falls in love with preppie gal Tracey, upsetting Biff, the Hoover Academy bully. When his bookie from the old neighborhood, Dice, comes to collect on Eddie's gambling debts and Palmer returns early from Europe, the the scheme slowly starts to unravel. Soon, Eddie can't even tell whose side he's really on.", "poster_path": "/jfHuZijVTYCFYYBHGbZa7pELqZ6.jpg", "release_date": "1984-05-18", "title": "Making the Grade", "video": false, "vote_average": 5.6, "vote_count": 15, "popularity": 4.158}, {"adult": false, "backdrop_path": "/5WWhUpmE5bxm2BMgTxrAc2d2y00.jpg", "genre_ids": [35], "id": 30296, "original_language": "en", "original_title": "The Malibu Bikini Shop", "overview": "After inheriting a failing bikini shop, two recent grads decide to make a go of it. One, in the hopes of building it into a successful business, the other, in the hopes of getting to look at lots of women in (and out) of swimsuits. As they try more and more outrageous ways of drumming up business, their antics begin attracting some unwanted attention. Written by Jean-Marc Rocher", "poster_path": "/nyTh7sCnew207iNSxAKsjqz2sFI.jpg", "release_date": "1986-11-01", "title": "The Malibu Bikini Shop", "video": false, "vote_average": 4.4, "vote_count": 8, "popularity": 4.004}, {"adult": false, "backdrop_path": "/lOvLTmJGeLCGFI3hpemMnG24Ax6.jpg", "genre_ids": [18, 53, 80], "id": 133836, "original_language": "en", "original_title": "American Bully", "overview": "A middle-American teenage boy who is affected by 9/11, terrorism, and the war in Iraq becomes involved in an isolated high school altercation that escalates into a hate crime that shocks the entire nation.", "poster_path": "/2MsigLv3UupgRYpdswKLTFAhwql.jpg", "release_date": "2009-03-27", "title": "American Bully", "video": false, "vote_average": 4.7, "vote_count": 6, "popularity": 3.488}], "total_pages": 1, "total_results": 5}, "credits": {"cast": [{"cast_id": 1, "character": "Morgan Sewart", "credit_id": "52fe44039251416c91001ff5", "gender": 2, "id": 69718, "name": "Jon Cryer", "order": 0, "profile_path": "/lUbtFIFdzGXktaFPgrznBDteI5y.jpg"}, {"cast_id": 12, "character": "Emily", "credit_id": "595071f3c3a368329b05e27d", "gender": 1, "id": 156774, "name": "Viveka Davis", "order": 1, "profile_path": "/ylxPwJue2HOy3NRQbQP4KKEXHj7.jpg"}, {"cast_id": 2, "character": "Jay Le Soto", "credit_id": "52fe44039251416c91001ff9", "gender": 2, "id": 7675, "name": "Paul Gleason", "order": 2, "profile_path": "/TKFcITuV9vyTSZe55B8klclPor.jpg"}, {"cast_id": 7, "character": "Tom Stewart", "credit_id": "58c366adc3a3686654003e96", "gender": 2, "id": 13028, "name": "Nicholas Pryor", "order": 3, "profile_path": "/jqJVM5jEVq2Xqi8G5fO0iiEnd5O.jpg"}, {"cast_id": 3, "character": "Nancy Stewart", "credit_id": "52fe44039251416c91001ffd", "gender": 1, "id": 29791, "name": "Lynn Redgrave", "order": 4, "profile_path": "/u9Fz8nmHg2nGCVRpbasTJQlpUkG.jpg"}, {"cast_id": 9, "character": "Ivan", "credit_id": "58c3673bc3a36866980033fe", "gender": 0, "id": 1190224, "name": "Savely Kramarov", "order": 5, "profile_path": "/oG64bOBHHQYTs3eXesqlJt19FlT.jpg"}, {"cast_id": 13, "character": "Dr. Cabot", "credit_id": "5950724692514131150576c7", "gender": 0, "id": 9806, "name": "Roger Bowen", "order": 6, "profile_path": "/3cpiZVdOGPcPvs0OBZZgfOYv7Um.jpg"}, {"cast_id": 14, "character": "General Fenton", "credit_id": "5950725fc3a36832bd05540c", "gender": 2, "id": 45921, "name": "Andrew Duncan", "order": 7, "profile_path": "/xKLAtV03Kvmz7huZra4nPsH9kpb.jpg"}, {"cast_id": 15, "character": "Proskovia", "credit_id": "595072719251413111056aea", "gender": 1, "id": 156669, "name": "Leeza Vinnichenko", "order": 8, "profile_path": null}, {"cast_id": 6, "character": "Garrett", "credit_id": "58c3667bc3a3686698003377", "gender": 2, "id": 1184011, "name": "JD Cullum", "order": 9, "profile_path": "/1K6hRv9Y0QicjazSThUYm7wdXDG.jpg"}, {"cast_id": 8, "character": "Craighton", "credit_id": "58c366ebc3a3686629003a22", "gender": 2, "id": 1218024, "name": "Robert Sedgwick", "order": 10, "profile_path": "/50rHkrr6yBCcEjdGzI3OZsDJ2my.jpg"}], "crew": [{"credit_id": "595072b9c3a36832ca0552ef", "department": "Sound", "gender": 2, "id": 19746, "job": "Original Music Composer", "name": "Peter Bernstein", "profile_path": null}, {"credit_id": "595072d292514131270559be", "department": "Costume & Make-Up", "gender": 1, "id": 33456, "job": "Costume Design", "name": "Molly Maginnis", "profile_path": null}, {"credit_id": "595072a7c3a3683279055495", "department": "Production", "gender": 1, "id": 23905, "job": "Casting", "name": "Lynn Kressel", "profile_path": null}, {"credit_id": "5c63d2029251412fb4fdfbe1", "department": "Directing", "gender": 0, "id": 55948, "job": "Director", "name": "Alan Smithee", "profile_path": null}, {"credit_id": "595072fcc3a368326505e37c", "department": "Production", "gender": 2, "id": 57465, "job": "Associate Producer", "name": "Patrick McCormick", "profile_path": null}, {"credit_id": "58c3677dc3a36866820037f1", "department": "Writing", "gender": 0, "id": 64157, "job": "Screenplay", "name": "David N. Titcher", "profile_path": null}, {"credit_id": "5950734bc3a3683232052775", "department": "Writing", "gender": 0, "id": 64157, "job": "Story", "name": "David N. Titcher", "profile_path": null}, {"credit_id": "59507361c3a36832bd0554a7", "department": "Production", "gender": 0, "id": 66082, "job": "Producer", "name": "Stephen J. Friedman", "profile_path": null}, {"credit_id": "58c36768c3a368668d003cf8", "department": "Writing", "gender": 2, "id": 73424, "job": "Screenplay", "name": "Ken Hixon", "profile_path": null}, {"credit_id": "52fe44039251416c91002009", "department": "Directing", "gender": 2, "id": 129119, "job": "Director", "name": "Terry Winsor", "profile_path": "/2Cv1TrChFD3pbHAIQawDTPeSI2O.jpg"}, {"credit_id": "52fe44039251416c91002003", "department": "Directing", "gender": 2, "id": 564872, "job": "Director", "name": "Paul Aaron", "profile_path": null}, {"credit_id": "595072e492514131080566d2", "department": "Editing", "gender": 2, "id": 1219383, "job": "Editor", "name": "Robert Lederman", "profile_path": null}, {"credit_id": "59507313925141314b055e6d", "department": "Art", "gender": 2, "id": 1392240, "job": "Production Design", "name": "Charles C. Bennett", "profile_path": null}, {"credit_id": "59507327925141310c0578e7", "department": "Camera", "gender": 0, "id": 1580444, "job": "Director of Photography", "name": "Richard E. Brooks", "profile_path": null}]}}