{"adult": false, "backdrop_path": null, "belongs_to_collection": null, "budget": 0, "genres": [{"id": 35, "name": "Comedy"}], "homepage": null, "id": 302869, "imdb_id": "tt0138631", "original_language": "en", "original_title": "Muggers", "overview": "When two medical students find themselves dangerously indebted to a sadistic loan shark, they become embroiled in an illicit black-market organ transplant scam in order to save their lives. 'Muggers' is a twisted, hilarious, pitch-black comedy about friendship, poor choices and the drag of student debt.", "popularity": 2.559, "poster_path": "/tQfE2MXSrlTYnNM0PRCvV6V3U5S.jpg", "production_companies": [{"id": 4692, "logo_path": null, "name": "Instinct Entertainment", "origin_country": ""}], "production_countries": [{"iso_3166_1": "AU", "name": "Australia"}], "release_date": "2000-05-25", "revenue": 0, "runtime": 97, "spoken_languages": [{"iso_639_1": "en", "name": "English"}], "status": "Released", "tagline": "", "title": "Muggers", "video": false, "vote_average": 6.0, "vote_count": 1, "keywords": {"keywords": [{"id": 428, "name": "nurse"}, {"id": 13005, "name": "doctor"}, {"id": 175884, "name": "organ donation"}, {"id": 187675, "name": "medical student"}]}, "similar": {"page": 1, "results": [{"id": 40807, "video": false, "vote_count": 2336, "vote_average": 7.1, "title": "50/50", "release_date": "2011-09-30", "original_language": "en", "original_title": "50/50", "genre_ids": [35, 18], "backdrop_path": "/kGac26bIqfwm8eqbP1RjKP70brE.jpg", "adult": false, "overview": "Inspired by a true story, a comedy centered on a 27-year-old guy who learns of his cancer diagnosis, and his subsequent struggle to beat the disease.", "poster_path": "/uDKmnFHqE3rQ9r6ErQsOZWuzXN8.jpg", "popularity": 19.878}, {"id": 797, "video": false, "vote_count": 884, "vote_average": 8.3, "title": "Persona", "release_date": "1966-10-18", "original_language": "sv", "original_title": "Persona", "genre_ids": [18], "backdrop_path": "/hqFN0gOmeXKmKP266CSjbHt9y05.jpg", "adult": false, "overview": "A young nurse, Alma, is put in charge of Elisabeth Vogler: an actress who is seemingly healthy in all respects, but will not talk. As they spend time together, Alma speaks to Elisabeth constantly, never receiving any answer. Alma eventually confesses her secrets to a seemingly sympathetic Elisabeth and finds that her own personality is being submerged into Elisabeth's persona.", "poster_path": "/cjAnlvCrp9ZY7atASUsxRrhve7o.jpg", "popularity": 14.909}, {"adult": false, "backdrop_path": "/oeGQCv7bRZKaDOxLFC8oqVRCnOd.jpg", "genre_ids": [878, 35, 27], "id": 1694, "original_language": "en", "original_title": "Re-Animator", "overview": "A dedicated student at a medical college and his girlfriend become involved in bizarre experiments centering around the re-animation of dead tissue when an odd new student arrives on campus.", "poster_path": "/hJnP2O0uTuh8HsR094WLTi3sQwc.jpg", "release_date": "1985-10-18", "title": "Re-Animator", "video": false, "vote_average": 7.1, "vote_count": 557, "popularity": 13.506}, {"id": 11821, "video": false, "vote_count": 285, "vote_average": 6.2, "title": "Doc Hollywood", "release_date": "1991-08-02", "original_language": "en", "original_title": "Doc Hollywood", "genre_ids": [35, 10749], "backdrop_path": "/kcqyI3pRvSDulyv2I9qfKmGuuuk.jpg", "adult": false, "overview": "After leaving Washington D.C. hospital, plastic surgeon Ben Stone heads for California, where a lucrative practice in Beverly Hills awaits. After a car accident, he's sentenced to perform as the community's general practitioner.", "poster_path": "/zha7PCdeJj309E3SLjcLEIW47gN.jpg", "popularity": 16.782}, {"adult": false, "backdrop_path": "/bvbyidkMaBls1LTaIWYY6UmYTaL.jpg", "genre_ids": [28, 878], "id": 336843, "original_language": "en", "original_title": "Maze Runner: The Death Cure", "overview": "Thomas leads his group of escaped Gladers on their final and most dangerous mission yet. To save their friends, they must break into the legendary Last City, a WCKD-controlled labyrinth that may turn out to be the deadliest maze of all. Anyone who makes it out alive will get answers to the questions the Gladers have been asking since they first arrived in the maze.", "poster_path": "/2zYfzA3TBwrMC8tfFbpiTLODde0.jpg", "release_date": "2018-01-10", "title": "Maze Runner: The Death Cure", "video": false, "vote_average": 7.0, "vote_count": 4393, "popularity": 24.242}, {"id": 568091, "video": false, "vote_count": 751, "vote_average": 6.6, "title": "Fractured", "release_date": "2019-09-22", "original_language": "en", "original_title": "Fractured", "genre_ids": [53], "backdrop_path": "/3UnUxeEAGoZhjIW8X1HpEuDPngV.jpg", "adult": false, "overview": "Driving cross-country, Ray and his wife and daughter stop at a highway rest area where his daughter falls and breaks her arm. After a frantic rush to the hospital and a clash with the check-in nurse, Ray is finally able to get her to a doctor. While the wife and daughter go downstairs for an MRI, Ray, exhausted, passes out in a chair in the lobby. Upon waking up, they have no record or knowledge of Ray's family ever being checked in.", "poster_path": "/paZNRffT3kUckuRFKbeDBuX1YcZ.jpg", "popularity": 19.226}, {"adult": false, "backdrop_path": "/mtJrV7i76PtXJMmWz3tu6dWav6n.jpg", "genre_ids": [18], "id": 510, "original_language": "en", "original_title": "One Flew Over the Cuckoo's Nest", "overview": "While serving time for insanity at a state mental hospital, implacable rabble-rouser, Randle Patrick McMurphy, inspires his fellow patients to rebel against the authoritarian rule of head nurse, Mildred Ratched.", "poster_path": "/2Sns5oMb356JNdBHgBETjIpRYy9.jpg", "release_date": "1975-11-18", "title": "One Flew Over the Cuckoo's Nest", "video": false, "vote_average": 8.4, "vote_count": 6157, "popularity": 24.823}, {"adult": false, "backdrop_path": "/3mEfawlJnuu4OmUlAOesrAMsWv6.jpg", "genre_ids": [53, 27], "id": 9540, "original_language": "en", "original_title": "Dead Ringers", "overview": "Elliot, a successful gynecologist, works at the same practice as his identical twin, Beverly. Elliot is attracted to many of his patients and has affairs with them. When he inevitably loses interest, he will give the woman over to Beverly, the meeker of the two, without the woman knowing the difference. Beverly falls hard for one of the patients, Claire, but when she inadvertently deceives him, he slips into a state of madness.", "poster_path": "/9ZGBwiWIvN9KmHaLeSS5it44G21.jpg", "release_date": "1988-09-23", "title": "Dead Ringers", "video": false, "vote_average": 7.2, "vote_count": 388, "popularity": 15.742}, {"adult": false, "backdrop_path": "/eTxgy8eROB5Ly7ZXKLukQoF6tKl.jpg", "genre_ids": [27, 878], "id": 11549, "original_language": "en", "original_title": "Invasion of the Body Snatchers", "overview": "A small-town doctor learns that the population of his community is being replaced by emotionless alien duplicates.", "poster_path": "/4oj0G2Zr6tQKBDOzKaLuefdeBsG.jpg", "release_date": "1956-02-05", "title": "Invasion of the Body Snatchers", "video": false, "vote_average": 7.5, "vote_count": 472, "popularity": 26.588}, {"id": 10312, "video": false, "vote_count": 1874, "vote_average": 7.2, "title": "Patch Adams", "release_date": "1998-12-25", "original_language": "en", "original_title": "Patch Adams", "genre_ids": [35, 18], "backdrop_path": "/9CtyPVGETuWUlqnNswo7R98xGgU.jpg", "adult": false, "overview": "Patch Adams is a doctor who doesn't look, act or think like any doctor you've met before. For Patch, humour is the best medicine and he's willing to do just anything to make his patients laugh\u2014even if it means risking his own career.", "poster_path": "/2T0Mj8gkTXgciedz8W5nsnjCHig.jpg", "popularity": 12.924}, {"adult": false, "backdrop_path": "/ry3ov4M7rs3jKObMjELOqd5S0K3.jpg", "genre_ids": [35, 10749], "id": 271718, "original_language": "en", "original_title": "Trainwreck", "overview": "Having thought that monogamy was never possible, a commitment-phobic career woman may have to face her fears when she meets a good guy.", "poster_path": "/2USk7mhiCXRkU9NzttXCzOjg2iV.jpg", "release_date": "2015-07-17", "title": "Trainwreck", "video": false, "vote_average": 5.8, "vote_count": 1863, "popularity": 23.629}, {"id": 651, "video": false, "vote_count": 478, "vote_average": 7.1, "title": "M*A*S*H", "release_date": "1970-01-24", "original_language": "en", "original_title": "M*A*S*H", "genre_ids": [35, 18, 10752], "backdrop_path": "/l5YH6TCYi2mgZwXbDjF71iA9UBP.jpg", "adult": false, "overview": "The staff of a Korean War field hospital use humor and high jinks to keep their sanity in the face of the horror of war.", "poster_path": "/cscyvJ4nDgbqewrttPXZ5EYOdwa.jpg", "popularity": 11.845}, {"id": 448119, "video": false, "vote_count": 45, "vote_average": 7.6, "title": "Dolittle", "release_date": "2020-01-01", "original_language": "en", "original_title": "Dolittle", "genre_ids": [12, 35, 14, 10751], "backdrop_path": "/lG802rseTZcN9mtLsQPVfApEVzM.jpg", "adult": false, "overview": "After losing his wife seven years earlier, the eccentric Dr. John Dolittle, famed doctor and veterinarian of Queen Victoria\u2019s England, hermits himself away behind the high walls of Dolittle Manor with only his menagerie of exotic animals for company. But when the young queen falls gravely ill, a reluctant Dolittle is forced to set sail on an epic adventure to a mythical island in search of a cure, regaining his wit and courage as he crosses old adversaries and discovers wondrous creatures.", "poster_path": "/3Nt3v1uzUgfSuVARD1AnI9g9Zl9.jpg", "popularity": 121.854}, {"adult": false, "backdrop_path": "/gALgnCvJvtJ2t2mpQj0MzWfKHeN.jpg", "genre_ids": [35], "id": 1281, "original_language": "en", "original_title": "Bean", "overview": "Bean works as a caretaker at Britain's formidable Royal National Gallery, and his bosses want to fire him because he sleeps at work all the time, but can't because the chairman of the gallery's board defends him. They send him to USA, to the small Los Angeles art gallery instead, where he'll have to officiate at the opening of the greatest US picture ever (called \"Whistler's Mother\").", "poster_path": "/pKGGzotqkNDEL2ix4VU1bWmteK5.jpg", "release_date": "1997-07-03", "title": "Bean", "video": false, "vote_average": 6.4, "vote_count": 1397, "popularity": 17.952}, {"adult": false, "backdrop_path": "/by0WtpJ5UNxOy6ytIfPPTasbRoB.jpg", "genre_ids": [28, 12, 35, 18, 10751, 10402, 10749], "id": 17130, "original_language": "en", "original_title": "Crossroads", "overview": "Three friends get together and bury a box making a pact to open it at midnight at their high school graduation. In the little town in Georgia that they live in, things soon change. One is little miss perfect, one is an engaged prom queen, and the other is a pregnant outcast. The night of graduation, they open the box and they strike up a conversation. All of a sudden, one brings up the topic of her going to Los Angeles for a record contract audition. They all decide to go together and they leave. With a little money, they set out on the road with a guy named Ben. When one of them tells the other a rumor that he might be a homicidal maniac they are all scared of him. When they reach LA, Lucy falls in love with Ben and against her father's wishes, she stays and she goes to the audition.", "poster_path": "/egIs4cWxn0iBErFKrQ7STckjj49.jpg", "release_date": "2002-02-15", "title": "Crossroads", "video": false, "vote_average": 5.0, "vote_count": 334, "popularity": 12.973}, {"adult": false, "backdrop_path": "/A7ovlrws4B7lXvkcC9iSRkypX02.jpg", "genre_ids": [27, 9648, 878, 53], "id": 340837, "original_language": "en", "original_title": "A Cure for Wellness", "overview": "An ambitious young executive is sent to retrieve his company's CEO from an idyllic but mysterious \"wellness center\" at a remote location in the Swiss Alps but soon suspects that the spa's miraculous treatments are not what they seem.", "poster_path": "/d4fXuJS3zZcAZfz2HYDtnwqtnwn.jpg", "release_date": "2017-02-15", "title": "A Cure for Wellness", "video": false, "vote_average": 6.2, "vote_count": 2310, "popularity": 16.556}, {"id": 406761, "video": false, "vote_count": 683, "vote_average": 5.9, "title": "Hotel Artemis", "release_date": "2018-06-07", "original_language": "en", "original_title": "Hotel Artemis", "genre_ids": [28, 878, 53], "backdrop_path": "/E0QuvtI9RCDfi79WnQSPKIzc61.jpg", "adult": false, "overview": "Los Angeles, June 21st, 2028. While the streets are being torn apart by riots, the Nurse, who runs a clandestine hospital for criminals in the penthouse of the Artemis, a closed old hotel, has a rough night dealing with troublemaker clients: thieves, assassins, someone from the past and the one who owns the place and the whole city.", "poster_path": "/wUTiyJ9N8rVLOxJz7aVpaBLpbot.jpg", "popularity": 14.165}, {"id": 204922, "video": false, "vote_count": 1211, "vote_average": 6.5, "title": "Before I Go to Sleep", "release_date": "2014-09-03", "original_language": "en", "original_title": "Before I Go to Sleep", "genre_ids": [9648, 53], "backdrop_path": "/oP6t2PvX8DFcGyyCcWFQSP6s25W.jpg", "adult": false, "overview": "A woman wakes up every day, remembering nothing as a result of a traumatic accident in her past. One day, new terrifying truths emerge that force her to question everyone around her.", "poster_path": "/3UG2Pb122c7Va8MBtr1OHRB1YPh.jpg", "popularity": 23.113}, {"id": 416234, "video": false, "vote_count": 1006, "vote_average": 5.8, "title": "Winchester", "release_date": "2018-02-02", "original_language": "en", "original_title": "Winchester", "genre_ids": [14, 27, 9648, 53], "backdrop_path": "/d4wnMDSrQonB9iArMzd90WqaoJ4.jpg", "adult": false, "overview": "San Jose, California, 1906. Isolated in her labyrinthine mansion, eccentric firearm heiress Sarah Winchester believes that she is being haunted by the souls of those killed by the guns manufactured by her company.", "poster_path": "/tHDtskokZeO9B3JBdR1dSH0uqad.jpg", "popularity": 15.306}, {"id": 4922, "video": false, "vote_count": 7498, "vote_average": 7.5, "title": "The Curious Case of Benjamin Button", "release_date": "2008-12-25", "original_language": "en", "original_title": "The Curious Case of Benjamin Button", "genre_ids": [18, 14, 9648, 53, 10749], "backdrop_path": "/u4izHlsHk8jwalt5m7E2uzP8q9E.jpg", "adult": false, "overview": "Born under unusual circumstances, Benjamin Button springs into being as an elderly man in a New Orleans nursing home and ages in reverse. Twelve years after his birth, he meets Daisy, a child who flits in and out of his life as she grows up to be a dancer. Though he has all sorts of unusual adventures over the course of his life, it is his relationship with Daisy, and the hope that they will come together at the right time, that drives Benjamin forward.", "poster_path": "/gjMR102u5hPdIAWX7O2rim8ZWgA.jpg", "popularity": 28.44}], "total_pages": 58, "total_results": 1142}, "recommendations": {"page": 1, "results": [], "total_pages": 1, "total_results": 0}, "credits": {"cast": [{"cast_id": 2, "character": "Gregor O'Reiley", "credit_id": "5690e1d4c3a3686b41001e70", "gender": 2, "id": 8541, "name": "Jason Barry", "order": 1, "profile_path": "/cHtfb7s9LsDGMJqm5bCl9HehecD.jpg"}, {"cast_id": 3, "character": "Brad Forrest", "credit_id": "5690e1f3925141456a001ed7", "gender": 2, "id": 3068, "name": "Matt Day", "order": 2, "profile_path": "/ngzxTaydI2tTo1j9KwQ9yG2lMo.jpg"}, {"cast_id": 4, "character": "Sophie", "credit_id": "5690e215925141456d001f24", "gender": 0, "id": 1230259, "name": "Petra Yared", "order": 3, "profile_path": null}, {"cast_id": 5, "character": "Nigel Stamford-Street", "credit_id": "5690e225c3a3686b47001e47", "gender": 2, "id": 133686, "name": "Simon Bossell", "order": 4, "profile_path": null}, {"cast_id": 6, "character": "Nurse Armstrong", "credit_id": "5690e249c3a3686b41001e86", "gender": 1, "id": 220988, "name": "Caroline Gillmer", "order": 5, "profile_path": "/2rtfC5dGaQMYPg28Mo5PveGOwCj.jpg"}, {"cast_id": 7, "character": "George Roy Rogers", "credit_id": "5690e26192514166ea0003e0", "gender": 2, "id": 3070, "name": "Chris Haywood", "order": 6, "profile_path": "/jMVWid44VE90tzmkOBKCWqvT9eW.jpg"}, {"cast_id": 8, "character": "Professor Charles Lawrence", "credit_id": "5690e26cc3a3686b52001fe1", "gender": 2, "id": 227099, "name": "Marshall Napier", "order": 7, "profile_path": "/1NwqDIMV1IXZ3Z0j9LOcET5X6dn.jpg"}, {"cast_id": 9, "character": "Marcus Browning", "credit_id": "5690e2909251414561001e41", "gender": 2, "id": 75397, "name": "Rod Mullinar", "order": 8, "profile_path": null}, {"cast_id": 10, "character": "Ted", "credit_id": "5690e2aa925141456300202d", "gender": 2, "id": 75264, "name": "Robert Morgan", "order": 9, "profile_path": "/tRrpXOQOtKxNz702BGJ5KJhNtfL.jpg"}, {"cast_id": 11, "character": "Pat", "credit_id": "5690e2ba9251414561001e48", "gender": 2, "id": 57904, "name": "Ken Radley", "order": 10, "profile_path": "/jqiM2DbXtNRF3yxRaU2nkYzewEJ.jpg"}, {"cast_id": 12, "character": "Trigger", "credit_id": "5690e2c8c3a3686b49001f6f", "gender": 2, "id": 1560398, "name": "Anthony Morgan", "order": 11, "profile_path": null}, {"cast_id": 13, "character": "Dale", "credit_id": "5690e2d2c3a3686b55001eb3", "gender": 2, "id": 214979, "name": "Pip Mushin", "order": 12, "profile_path": null}, {"cast_id": 14, "character": "Belinda", "credit_id": "5690e2dcc3a3686b49001f74", "gender": 0, "id": 1200341, "name": "Nicola Charles", "order": 13, "profile_path": null}, {"cast_id": 15, "character": "Crawford", "credit_id": "5690e2fd9251414563002038", "gender": 0, "id": 1230289, "name": "Reg Evans", "order": 14, "profile_path": null}, {"cast_id": 16, "character": "Freddie", "credit_id": "5690e32c925141456d001f4b", "gender": 0, "id": 1240306, "name": "Rob Carlton", "order": 15, "profile_path": "/kv1KHqQw1ekhpFJW6vRYW3oitRQ.jpg"}, {"cast_id": 17, "character": "Det. Sgt. Kernahan", "credit_id": "5690e335c3a3686b55001ec0", "gender": 2, "id": 40046, "name": "Frank Gallacher", "order": 16, "profile_path": null}, {"cast_id": 18, "character": "Dr. Alvin", "credit_id": "5690e33fc3a3686b52001ffb", "gender": 2, "id": 105835, "name": "Robert Menzies", "order": 17, "profile_path": null}, {"cast_id": 19, "character": "Det. Con. Porter", "credit_id": "5690e3929251414565001f93", "gender": 2, "id": 39545, "name": "Robert Taylor", "order": 18, "profile_path": "/aqRJQj0KBPhGLDxfmOAXCUzCcSJ.jpg"}, {"cast_id": 20, "character": "Tran", "credit_id": "5690e3a0c3a3686b4e001fe8", "gender": 1, "id": 57575, "name": "Natalie Mendoza", "order": 19, "profile_path": "/d4W8MXN1DESMfYFLUpaWKCxArLO.jpg"}, {"cast_id": 21, "character": "Tony", "credit_id": "5690e3a9925141456300204c", "gender": 0, "id": 75168, "name": "George Vidalis", "order": 20, "profile_path": null}, {"cast_id": 22, "character": "Winston", "credit_id": "5690e3b3c3a3686b55001ece", "gender": 2, "id": 1560404, "name": "Myles Collins", "order": 21, "profile_path": null}, {"cast_id": 23, "character": "Cafeteria Assistant", "credit_id": "5690e3be925141456a001f02", "gender": 1, "id": 1560405, "name": "Sally-Anne Upton", "order": 22, "profile_path": null}, {"cast_id": 24, "character": "Older Woman", "credit_id": "5690e3c99251414563002050", "gender": 1, "id": 79106, "name": "Alethea McGrath", "order": 23, "profile_path": "/5AuTSkd7hdv5zCa6Kr1oVncEmwB.jpg"}, {"cast_id": 25, "character": "Parking Officer 1", "credit_id": "5690e3d3c3a3686b49001f94", "gender": 0, "id": 1397535, "name": "Bruce Barnes", "order": 24, "profile_path": null}, {"cast_id": 26, "character": "Parking Officer 2", "credit_id": "5690e3de9251414570001f56", "gender": 0, "id": 1242671, "name": "Arthur Serevetas", "order": 25, "profile_path": null}, {"cast_id": 27, "character": "Falling Man", "credit_id": "5690e3eac3a3686b5200200e", "gender": 2, "id": 108947, "name": "Stewart Faichney", "order": 26, "profile_path": null}, {"cast_id": 28, "character": "", "credit_id": "5690e4009251414565001fa5", "gender": 0, "id": 1287366, "name": "Danielle Barht", "order": 27, "profile_path": null}, {"cast_id": 29, "character": "Medical Student", "credit_id": "5690e40b92514166ea00040d", "gender": 2, "id": 97590, "name": "Scott Terrill", "order": 28, "profile_path": null}], "crew": [{"credit_id": "5690e4dac3a3686b5b001fd5", "department": "Art", "gender": 0, "id": 3109, "job": "Production Design", "name": "Paddy Reardon", "profile_path": null}, {"credit_id": "5690e472c3a3686b49001fa5", "department": "Production", "gender": 2, "id": 6988, "job": "Executive Producer", "name": "Gareth Wiley", "profile_path": null}, {"credit_id": "5690e5f1c3a3686b4e00202d", "department": "Art", "gender": 0, "id": 9421, "job": "Assistant Art Director", "name": "Brian Dusting", "profile_path": null}, {"credit_id": "56c04d1f92514169fd002293", "department": "Camera", "gender": 2, "id": 48971, "job": "Director of Photography", "name": "Roger Lanser", "profile_path": null}, {"credit_id": "5690e468c3a3686b5b001fc5", "department": "Production", "gender": 2, "id": 65028, "job": "Line Producer", "name": "Daniel Scharf", "profile_path": "/bk73qMa8syLR05ikyHiCoTGELWU.jpg"}, {"credit_id": "5690e626c3a3686b5b002007", "department": "Art", "gender": 0, "id": 75682, "job": "Assistant Art Director", "name": "Paul Heath", "profile_path": null}, {"credit_id": "5690e4b3c3a3686b41001ec9", "department": "Editing", "gender": 0, "id": 78967, "job": "Editor", "name": "Peter Carrodus", "profile_path": null}, {"credit_id": "5690e45dc3a3686b49001f9e", "department": "Production", "gender": 2, "id": 79112, "job": "Producer", "name": "David Redman", "profile_path": null}, {"credit_id": "5690e19a9251414576001e1a", "department": "Directing", "gender": 2, "id": 98350, "job": "Director", "name": "Dean Murphy", "profile_path": null}, {"credit_id": "5690e492c3a3686b49001fab", "department": "Sound", "gender": 0, "id": 138598, "job": "Music", "name": "Frank Strangio", "profile_path": null}, {"credit_id": "56c9efe3c3a368408e00779b", "department": "Art", "gender": 2, "id": 185084, "job": "Art Direction", "name": "John Carroll", "profile_path": null}, {"credit_id": "5690e6939251414570001fc1", "department": "Sound", "gender": 0, "id": 199905, "job": "Sound Re-Recording Mixer", "name": "Michael Slater", "profile_path": null}, {"credit_id": "5690e6b29251414561001eb5", "department": "Crew", "gender": 2, "id": 558808, "job": "Sound Recordist", "name": "John Wilkinson", "profile_path": null}, {"credit_id": "5690e5a39251414561001e95", "department": "Production", "gender": 1, "id": 958349, "job": "Production Manager", "name": "Yvonne Collins", "profile_path": null}, {"credit_id": "5690e4459251414561001e6c", "department": "Production", "gender": 0, "id": 1010562, "job": "Producer", "name": "Nigel Odell", "profile_path": null}, {"credit_id": "5690e556c3a3686b55001eff", "department": "Costume & Make-Up", "gender": 0, "id": 1094506, "job": "Costume Design", "name": "Jill Johanson", "profile_path": null}, {"credit_id": "5690e658c3a3686b49001fe9", "department": "Sound", "gender": 0, "id": 1157639, "job": "Sound Effects Editor", "name": "Scott Findlay", "profile_path": null}, {"credit_id": "5690e6e8c3a3686b440021de", "department": "Visual Effects", "gender": 0, "id": 1163750, "job": "Visual Effects Producer", "name": "Chris Schwarze", "profile_path": null}, {"credit_id": "5690e54cc3a3686b49001fc9", "department": "Costume & Make-Up", "gender": 0, "id": 1344412, "job": "Costume Design", "name": "Jeanie Cameron", "profile_path": null}, {"credit_id": "5690e4379251414561001e6a", "department": "Production", "gender": 0, "id": 1357870, "job": "Executive Producer", "name": "Chris Craib", "profile_path": null}, {"credit_id": "5690e452c3a3686b4e002005", "department": "Production", "gender": 1, "id": 1426225, "job": "Executive Producer", "name": "Hadeel Reda", "profile_path": "/9t8wC67XBOhsEQrv4PtxfgHnvBg.jpg"}, {"credit_id": "5690e57f9251414570001f93", "department": "Costume & Make-Up", "gender": 1, "id": 1447016, "job": "Makeup Designer", "name": "Christine Miller", "profile_path": null}, {"credit_id": "5690e1aec3a3686b47001e37", "department": "Writing", "gender": 0, "id": 1519280, "job": "Writer", "name": "R.B. Taylor", "profile_path": null}, {"credit_id": "5690e480925141456a001f1f", "department": "Production", "gender": 0, "id": 1547717, "job": "Executive Producer", "name": "John Wolstenholme", "profile_path": null}, {"credit_id": "5690e6d8c3a3686b49001ffe", "department": "Visual Effects", "gender": 0, "id": 1559383, "job": "Digital Compositors", "name": "Murray Curtis", "profile_path": null}, {"credit_id": "5690e49f9251414570001f71", "department": "Sound", "gender": 0, "id": 1560408, "job": "Music", "name": "Colin Swan", "profile_path": null}, {"credit_id": "5690e4c09251414576001e87", "department": "Production", "gender": 0, "id": 1560411, "job": "Casting", "name": "Katherine Dodd", "profile_path": null}, {"credit_id": "5690e53d9251414570001f85", "department": "Art", "gender": 0, "id": 1560414, "job": "Set Decoration", "name": "Marian Murray", "profile_path": null}, {"credit_id": "5690e640925141456300209d", "department": "Sound", "gender": 0, "id": 1560421, "job": "Boom Operator", "name": "Jim Dunwoodie", "profile_path": null}, {"credit_id": "5690e664c3a3686b49001fed", "department": "Editing", "gender": 0, "id": 1560422, "job": "Dialogue Editor", "name": "David Harrison", "profile_path": null}, {"credit_id": "5690e6c392514145630020b3", "department": "Crew", "gender": 0, "id": 1560423, "job": "Special Effects", "name": "Peter Stubbs", "profile_path": null}, {"credit_id": "5690e7009251414570001fd8", "department": "Crew", "gender": 0, "id": 1560424, "job": "Stunts", "name": "Mark Wickham", "profile_path": null}, {"credit_id": "5690e73a925141456d001fc3", "department": "Lighting", "gender": 0, "id": 1560427, "job": "Lighting Technician", "name": "Michael Baker", "profile_path": null}, {"credit_id": "5690e752925141456d001fc9", "department": "Lighting", "gender": 0, "id": 1560428, "job": "Gaffer", "name": "Ken Pettigrew", "profile_path": null}, {"credit_id": "5690e75fc3a3686b47001f22", "department": "Camera", "gender": 0, "id": 1560429, "job": "First Assistant Camera", "name": "Angelo Sartore", "profile_path": null}, {"credit_id": "5690e771c3a3686b4e002056", "department": "Sound", "gender": 0, "id": 1560430, "job": "Music Editor", "name": "Doug Brady", "profile_path": null}, {"credit_id": "5690e7829251414565002015", "department": "Production", "gender": 0, "id": 1560431, "job": "Production Coordinator", "name": "Helen Boicovitis", "profile_path": null}, {"credit_id": "5690e799925141456d001fd6", "department": "Directing", "gender": 1, "id": 1560432, "job": "Script Supervisor", "name": "Joanne McLennan", "profile_path": null}]}}