{"adult": false, "backdrop_path": "/t83ZndtMIQRYBSk525JUlbBHldT.jpg", "belongs_to_collection": null, "budget": 0, "genres": [{"id": 28, "name": "Action"}, {"id": 35, "name": "Comedy"}], "homepage": null, "id": 30352, "imdb_id": "tt0097211", "original_language": "en", "original_title": "Disorganized Crime", "overview": "Lou Diamond Phillips and Fred Gwynne team up with a gang of professional criminals who have everything it takes to rob a bank. The only things they do have going for them are a cop and his partner, who are dumber than they are! By the time the gang hits the bank vault, it's a safe bet there's going to be organized insanity and disorganized crime!", "popularity": 4.347, "poster_path": "/nr898riQRrxkb53GP6dxZ6C3hu9.jpg", "production_companies": [{"id": 9195, "logo_path": "/ou5BUbtulr6tIt699q6xJiEQTR9.png", "name": "Touchstone Pictures", "origin_country": "US"}], "production_countries": [{"iso_3166_1": "US", "name": "United States of America"}], "release_date": "1989-04-14", "revenue": 7723506, "runtime": 98, "spoken_languages": [{"iso_639_1": "en", "name": "English"}], "status": "Released", "tagline": "", "title": "Disorganized Crime", "video": false, "vote_average": 5.6, "vote_count": 14, "keywords": {"keywords": [{"id": 10183, "name": "independent film"}]}, "similar": {"page": 1, "results": [{"adult": false, "backdrop_path": "/kQyeXce1ozYryHichnEserMAByN.jpg", "genre_ids": [28, 80, 18, 53], "id": 11564, "original_language": "en", "original_title": "Class of 1984", "overview": "Andy is a new teacher at a inner city high school that is like nothing he has ever seen before. There is metal detectors at the front door and everything is basically run by a tough kid named Peter Stegman. Soon, Andy and Stegman become enemies and Stegman will stop at nothing to protect his turf and drug dealing business.", "poster_path": "/whDnqSYg4yYgVzbVhLSjzC5piUR.jpg", "release_date": "1982-08-20", "title": "Class of 1984", "video": false, "vote_average": 6.2, "vote_count": 121, "popularity": 9.407}, {"adult": false, "backdrop_path": "/ipEenLpAyNJZUrzQHBw3fdurcm0.jpg", "genre_ids": [28, 878], "id": 10017, "original_language": "en", "original_title": "The Wraith", "overview": "Packard Walsh and his motorized gang control and terrorize an Arizona desert town where they force drivers to drag-race so they can 'win' their vehicles. After Walsh beats the decent teenager Jamie Hankins to death after finding him with his girlfriend, a mysterious power creates Jake Kesey, an extremely cool motor-biker who has a car which is invincible. Jake befriends Jamie's girlfriend Keri Johnson, takes Jamie's sweet brother Bill under his wing and manages what Sheriff Loomis couldn't; eliminate Packard's criminal gang the hard way...", "poster_path": "/agKajLCLtUNR5KH6lvmeg9LT1gD.jpg", "release_date": "1986-11-21", "title": "The Wraith", "video": false, "vote_average": 6.0, "vote_count": 178, "popularity": 14.894}, {"id": 949, "video": false, "vote_count": 3610, "vote_average": 7.8, "title": "Heat", "release_date": "1995-12-15", "original_language": "en", "original_title": "Heat", "genre_ids": [28, 80, 18, 53], "backdrop_path": "/7RRuRcGuWkZGuRyYugfXn0Fgrrr.jpg", "adult": false, "overview": "Obsessive master thief, Neil McCauley leads a top-notch crew on various daring heists throughout Los Angeles while determined detective, Vincent Hanna pursues him without rest. Each man recognizes and respects the ability and the dedication of the other even though they are aware their cat-and-mouse game may end in violence.", "poster_path": "/6pmLVffM9jEYK7VqDJqPblMxfEY.jpg", "popularity": 21.48}, {"id": 4638, "video": false, "vote_count": 4426, "vote_average": 7.5, "title": "Hot Fuzz", "release_date": "2007-02-14", "original_language": "en", "original_title": "Hot Fuzz", "genre_ids": [28, 35, 80], "backdrop_path": "/zuskekrfW3gj9ttXNVhfdHe5n22.jpg", "adult": false, "overview": "As a former London constable, Nicholas Angel finds it difficult to adapt to his new assignment in the sleepy British village of Sandford. Not only does he miss the excitement of the big city, but he also has a well-meaning oaf for a partner. However, when a series of grisly accidents rocks Sandford, Angel smells something rotten in the idyllic village.", "poster_path": "/5Jx6s6VXnunh8wCLgR0YgjwSgjh.jpg", "popularity": 25.234}, {"id": 101, "video": false, "vote_count": 8645, "vote_average": 8.3, "title": "L\u00e9on: The Professional", "release_date": "1994-09-14", "original_language": "en", "original_title": "L\u00e9on: The Professional", "genre_ids": [28, 80, 18], "backdrop_path": "/dXQ7HILRK1Tg33RT64JwbQI7Osh.jpg", "adult": false, "overview": "L\u00e9on, the top hit man in New York, has earned a rep as an effective \"cleaner\". But when his next-door neighbors are wiped out by a loose-cannon DEA agent, he becomes the unwilling custodian of 12-year-old Mathilda. Before long, Mathilda's thoughts turn to revenge, and she considers following in L\u00e9on's footsteps.", "poster_path": "/gE8S02QUOhVnAmYu4tcrBlMTujz.jpg", "popularity": 42.005}, {"adult": false, "backdrop_path": "/s12HEmmkJfI2mjltI61hGm5kubD.jpg", "genre_ids": [35, 18, 10749], "id": 20770, "original_language": "en", "original_title": "But I'm a Cheerleader", "overview": "Megan is an all-American girl. A cheerleader. She has a boyfriend. But Megan doesn't like kissing her boyfriend very much. And she's pretty touchy with her cheerleader friends. Her conservative parents worry that she must be a lesbian and send her off to \"sexual redirection\" school, where she must, with other lesbians and gays learn how to be straight.", "poster_path": "/eDGH7CHSdkrYcuUJV1e0WS9DlQL.jpg", "release_date": "1999-12-09", "title": "But I'm a Cheerleader", "video": false, "vote_average": 6.8, "vote_count": 246, "popularity": 10.067}, {"id": 298312, "video": false, "vote_count": 2921, "vote_average": 6.2, "title": "The Visit", "release_date": "2015-09-10", "original_language": "en", "original_title": "The Visit", "genre_ids": [27, 9648, 53], "backdrop_path": "/gbJlEeALVGo7kx8bC2q4EFWX1Xy.jpg", "adult": false, "overview": "The terrifying story of a brother and sister who are sent to their grandparents' remote Pennsylvania farm for a weeklong trip. Once the children discover that the elderly couple is involved in something deeply disturbing, they see their chances of getting back home are growing smaller every day.", "poster_path": "/32tNtTEQ1vIOLm1hEOSFkVwJT5D.jpg", "popularity": 20.148}, {"adult": false, "backdrop_path": "/2Tawvc0JMmR9nBXD3nhBThTQP2X.jpg", "genre_ids": [53, 18, 80, 27], "id": 1359, "original_language": "en", "original_title": "American Psycho", "overview": "A wealthy New York investment banking executive hides his alternate psychopathic ego from his co-workers and friends as he escalates deeper into his illogical, gratuitous fantasies.", "poster_path": "/qXsylPM4Lr5397R3eHrfqHhTUNc.jpg", "release_date": "2000-04-13", "title": "American Psycho", "video": false, "vote_average": 7.4, "vote_count": 4911, "popularity": 20.069}, {"adult": false, "backdrop_path": "/9e5e7dJTMxQeF7zNx0CiJmxXE1I.jpg", "genre_ids": [27, 878, 53], "id": 11309, "original_language": "en", "original_title": "Hardware", "overview": "Mark 13 is a government-built killing machine programmed with artificial intelligence, able to repair and recharge itself from any energy source. Through a series of coincidences, the cyborg's head ends up in the home of a sculptress as a bizarre Christmas present from her boyfriend. Once inside its new home, the cyborg promptly reconstructs the rest of its body using a variety of household utensils and proceeds to go on a murderous rampage.", "poster_path": "/nsFm5xniViTVr1oVUpKmgvlAOEA.jpg", "release_date": "1990-09-14", "title": "Hardware", "video": false, "vote_average": 5.7, "vote_count": 145, "popularity": 11.259}, {"adult": false, "backdrop_path": "/tG7ydFmDr2Y1kecUCM6foFxmJjP.jpg", "genre_ids": [27, 37, 35], "id": 10212, "original_language": "en", "original_title": "Ravenous", "overview": "Upon receiving reports of missing persons at Fort Spencer, a remote Army outpost on the Western frontier, Capt. John Boyd investigates. After arriving at his new post, Boyd and his regiment aid a wounded frontiersman who recounts a horrifying tale of a wagon train murdered by its supposed guide -- a vicious U.S. Army colonel gone rogue. Fearing the worst, the regiment heads out into the wilderness to verify the gruesome claims.", "poster_path": "/spwvStEA4CraTXPOcONrDzncXOZ.jpg", "release_date": "1999-03-16", "title": "Ravenous", "video": false, "vote_average": 6.8, "vote_count": 270, "popularity": 10.125}, {"id": 32037, "video": false, "vote_count": 80, "vote_average": 6.3, "title": "The Cassandra Crossing", "release_date": "1976-12-18", "original_language": "en", "original_title": "The Cassandra Crossing", "genre_ids": [28], "backdrop_path": "/mh7jlcgLBVVBvxPxQKnWyUwOhoA.jpg", "adult": false, "overview": "Passengers on a European train have been exposed to a deadly disease. Nobody will let them off the train. So what happens next?", "poster_path": "/pjCEpVFMi2VFuHB7ocOHyzNYsop.jpg", "popularity": 12.552}, {"adult": false, "backdrop_path": "/oni8CXvEg56JhrfVdVUrQYOuhP0.jpg", "genre_ids": [80, 28, 53], "id": 55846, "original_language": "en", "original_title": "Blitz", "overview": "A tough, renegade cop with a gay sidekick is dispatched to take down a serial killer who has been targeting police officers.", "poster_path": "/woY0qY4DR6bPOQ7cBwyblePsYky.jpg", "release_date": "2011-05-20", "title": "Blitz", "video": false, "vote_average": 6.0, "vote_count": 861, "popularity": 20.522}, {"adult": false, "backdrop_path": "/etybioibi04QJK9xxn3Rv5NLuKs.jpg", "genre_ids": [12, 28, 53, 878], "id": 8810, "original_language": "en", "original_title": "Mad Max 2", "overview": "Max Rockatansky returns as the heroic loner who drives the dusty roads of a postapocalyptic Australian Outback in an unending search for gasoline. Arrayed against him and the other scraggly defendants of a fuel-depot encampment are the bizarre warriors commanded by the charismatic Lord Humungus, a violent leader whose scruples are as barren as the surrounding landscape.", "poster_path": "/tVaClEA7n0MxaY8sb81nHwh6XNW.jpg", "release_date": "1981-12-24", "title": "Mad Max 2", "video": false, "vote_average": 7.4, "vote_count": 1898, "popularity": 20.303}, {"id": 83542, "video": false, "vote_count": 4860, "vote_average": 6.8, "title": "Cloud Atlas", "release_date": "2012-10-26", "original_language": "en", "original_title": "Cloud Atlas", "genre_ids": [18, 878], "backdrop_path": "/2ZA03KiD4jePTNBTJjGGFTNQPMA.jpg", "adult": false, "overview": "A set of six nested stories spanning time between the 19th century and a distant post-apocalyptic future. Cloud Atlas explores how the actions and consequences of individual lives impact one another throughout the past, the present and the future. Action, mystery and romance weave through the story as one soul is shaped from a killer into a hero and a single act of kindness ripples across centuries to inspire a revolution in the distant future.  Based on the award winning novel by David Mitchell. Directed by Tom Tykwer and the Wachowskis.", "poster_path": "/8VNiyIp67ZxhpNgdrwACW0jgvP2.jpg", "popularity": 16.718}, {"id": 23398, "video": false, "vote_count": 1714, "vote_average": 5.5, "title": "Alvin and the Chipmunks: The Squeakquel", "release_date": "2009-12-21", "original_language": "en", "original_title": "Alvin and the Chipmunks: The Squeakquel", "genre_ids": [16, 35, 14, 10402, 10751], "backdrop_path": "/ukeQ5NshIaedd0s7qXED5aqPpZ5.jpg", "adult": false, "overview": "Pop sensations Alvin, Simon and Theodore end up in the care of Dave Seville's twenty-something nephew Toby. The boys must put aside music super stardom to return to school, and are tasked with saving the school's music program by winning the $25,000 prize in a battle of the bands. But the Chipmunks unexpectedly meet their match in three singing chipmunks known as The Chipettes - Brittany, Eleanor and Jeanette. Romantic and musical sparks are ignited when the Chipmunks and Chipettes square off.", "poster_path": "/8mdPqOga5fty15nXmaNcK1fsNMa.jpg", "popularity": 21.646}, {"id": 260346, "video": false, "vote_count": 3700, "vote_average": 6.2, "title": "Taken 3", "release_date": "2014-12-16", "original_language": "en", "original_title": "Taken 3", "genre_ids": [28, 53], "backdrop_path": "/cU6R5EgOEmiIVKommjnU89hsvcD.jpg", "adult": false, "overview": "Ex-government operative Bryan Mills finds his life is shattered when he's falsely accused of a murder that hits close to home. As he's pursued by a savvy police inspector, Mills employs his particular set of skills to track the real killer and exact his unique brand of justice.", "poster_path": "/ikDwR3i2bczqnRf1urJTy77YTFf.jpg", "popularity": 36.883}, {"adult": false, "backdrop_path": "/rSf0RYkPiMo9TyjHs2vI8rHlmfF.jpg", "genre_ids": [28, 18, 53], "id": 241554, "original_language": "en", "original_title": "Run All Night", "overview": "Brooklyn mobster and prolific hit man Jimmy Conlon has seen better days. Longtime best friend of a mob boss, Jimmy is haunted by the sins of his past\u2014as well as a dogged police detective who\u2019s been one step behind Jimmy for 30 years. But when Jimmy\u2019s estranged son becomes a target, Jimmy must make a choice between the crime family he chose and the real family he abandoned long ago. Now, with nowhere safe to turn, Jimmy has just one night to figure out exactly where his loyalties lie and to see if he can finally make things right.", "poster_path": "/aqNJrAxudMRNo8jg3HOUQqdl2xr.jpg", "release_date": "2015-03-11", "title": "Run All Night", "video": false, "vote_average": 6.4, "vote_count": 1820, "popularity": 30.086}, {"id": 2493, "video": false, "vote_count": 2686, "vote_average": 7.7, "title": "The Princess Bride", "release_date": "1987-09-25", "original_language": "en", "original_title": "The Princess Bride", "genre_ids": [12, 35, 14, 10749, 10751], "backdrop_path": "/oaXyPP3HNW0gBl0ZGXLhJOdACeH.jpg", "adult": false, "overview": "In this enchantingly cracked fairy tale, the beautiful Princess Buttercup and the dashing Westley must overcome staggering odds to find happiness amid six-fingered swordsmen, murderous princes, Sicilians and rodents of unusual size. But even death can't stop these true lovebirds from triumphing.", "poster_path": "/gpxjoE0yvRwIhFEJgNArtKtaN7S.jpg", "popularity": 16.912}, {"id": 9693, "video": false, "vote_count": 4054, "vote_average": 7.6, "title": "Children of Men", "release_date": "2006-09-22", "original_language": "en", "original_title": "Children of Men", "genre_ids": [28, 18, 878, 53], "backdrop_path": "/c5jNuPA19oGiEmbh8iFeAi6aHMI.jpg", "adult": false, "overview": "In 2027, in a chaotic world in which humans can no longer procreate, a former activist agrees to help transport a miraculously pregnant woman to a sanctuary at sea, where her child's birth may help scientists save the future of humankind.", "poster_path": "/gZ6i32Da76EUxta06GL2BxpC4Cn.jpg", "popularity": 25.649}, {"id": 466282, "video": false, "vote_count": 5265, "vote_average": 7.9, "title": "To All the Boys I've Loved Before", "release_date": "2018-08-16", "original_language": "en", "original_title": "To All the Boys I've Loved Before", "genre_ids": [35, 10749], "backdrop_path": "/uZTtVdOEIwPA6vwVRI3217DoPM.jpg", "adult": false, "overview": "Lara Jean's love life goes from imaginary to out of control when her secret letters to every boy she's ever fallen for are mysteriously mailed out.", "poster_path": "/hKHZhUbIyUAjcSrqJThFGYIR6kI.jpg", "popularity": 39.96}], "total_pages": 1097, "total_results": 21925}, "recommendations": {"page": 1, "results": [{"adult": false, "backdrop_path": "/opzTuNRI8a7CRNnG71jHOeomzfd.jpg", "genre_ids": [27], "id": 52685, "original_language": "en", "original_title": "Chill", "overview": "In this classic retro horror thriller, Sam, an aspiring writer, takes a job as a clerk in an L.A. inner city grocery market owned by the sinister Dr. Munoz, a former scientist who claims to have a rare skin condition.", "poster_path": "/iii2BYNznTvNzy551AvkYO3KlOf.jpg", "release_date": "2007-02-15", "title": "Chill", "video": false, "vote_average": 3.7, "vote_count": 7, "popularity": 3.326}, {"adult": false, "backdrop_path": "/mZ2pn6O8SxXCcO2KrB4lpoHw54e.jpg", "genre_ids": [35, 18, 10752], "id": 83562, "original_language": "en", "original_title": "Privates on Parade", "overview": "It is 1947, the year of the communist rebellion in Malaya and the British army's SADUSEA (Song And Dance Unit South East Asia) are called to the Malayan Jungle to entertain the troops. The eccentric, bible-bashing Major Giles Flack (John Cleese) is in command of the unit. Flack is accompanied by an ageing, theatrical drama queen, Terri Dennis (Denis Quilley) who hopes to entertain the troops with his flamboyant impressions, but the bored troops find other ways to enjoy themselves.", "poster_path": "/2mi40cHe8sJ0tWZ2ZzVytP7lwyC.jpg", "release_date": "1983-03-18", "title": "Privates on Parade", "video": false, "vote_average": 5.1, "vote_count": 9, "popularity": 2.704}, {"adult": false, "backdrop_path": "/aO3mV8xlJdgygSTg1J3J5CN5oBm.jpg", "genre_ids": [28, 80, 18, 53], "id": 55766, "original_language": "en", "original_title": "Sweeney 2", "overview": "The plot is set on a group of bank robbers, who are both violent and successful, strangely getting away each time with an amount around the \u00a360,000 mark, and often leaving behind cash in excess of this sum. The robbers are willing to kill their own team, to get away. As Jack Regan himself puts it after the first raid in the film: \"I've never seen so many dead people\". Armed with gold-plated Purdey shotguns, they evaded Regan and the Flying Squad for quite some time, before Regan finds encouragement from his Detective Chief Superintendent who was sent down for corruption because Jack wouldn't testify in court for him.", "poster_path": "/cOR98L8qK87rBSFhwcV7tFclJnv.jpg", "release_date": "1978-03-30", "title": "Sweeney 2", "video": false, "vote_average": 7.8, "vote_count": 4, "popularity": 3.774}], "total_pages": 1, "total_results": 3}, "credits": {"cast": [{"cast_id": 1, "character": "Sheriff Henault", "credit_id": "52fe44109251416c91003aab", "gender": 2, "id": 16166, "name": "Hoyt Axton", "order": 0, "profile_path": "/sIJjj88LfVpvnxW56Ffr6qlj7wI.jpg"}, {"cast_id": 2, "character": "Frank Salazar", "credit_id": "52fe44109251416c91003aaf", "gender": 2, "id": 21246, "name": "Corbin Bernsen", "order": 1, "profile_path": "/c9Y2SKgC3S6LJNq7WKcoauY88kg.jpg"}, {"cast_id": 3, "character": "Carlos Barrios", "credit_id": "52fe44109251416c91003ab3", "gender": 2, "id": 2049, "name": "Rub\u00e9n Blades", "order": 2, "profile_path": "/kOgVo3qDJ9jXgIZJRJI3I1bm6sA.jpg"}, {"cast_id": 4, "character": "Max Green", "credit_id": "52fe44109251416c91003ab7", "gender": 2, "id": 56266, "name": "Fred Gwynne", "order": 3, "profile_path": "/xwDhOItVPzmBDfPqNMPHSSdXOMj.jpg"}, {"cast_id": 6, "character": "Ray Forgy", "credit_id": "52fe44109251416c91003abb", "gender": 2, "id": 38560, "name": "Lou Diamond Phillips", "order": 5, "profile_path": "/mtJrTZVejExBwCBRFhpUEXwypbg.jpg"}, {"cast_id": 8, "character": "Nick Bartkowski", "credit_id": "52fe44109251416c91003abf", "gender": 2, "id": 829, "name": "William Russ", "order": 7, "profile_path": "/cqUD0Jm0owYxcmnMZMTKpEnrKOR.jpg"}, {"cast_id": 9, "character": "Wanda Brem", "credit_id": "52fe44109251416c91003ac3", "gender": 0, "id": 106115, "name": "Marie Butler", "order": 8, "profile_path": null}, {"cast_id": 10, "character": "Deputy Greg", "credit_id": "52fe44109251416c91003ac7", "gender": 2, "id": 106116, "name": "Gregory Wurster", "order": 9, "profile_path": null}, {"cast_id": 11, "character": "Deputy Monroe", "credit_id": "52fe44109251416c91003acb", "gender": 2, "id": 4891, "name": "Patrick Collins", "order": 10, "profile_path": null}, {"cast_id": 12, "character": "Deputy Larry", "credit_id": "52fe44109251416c91003acf", "gender": 2, "id": 64447, "name": "Mitch Carter", "order": 11, "profile_path": "/qShVBy0BpNRAqRSBcNoSvrbjwlC.jpg"}, {"cast_id": 13, "character": "Deputy Joe", "credit_id": "52fe44109251416c91003ad3", "gender": 2, "id": 14329, "name": "Dean Norris", "order": 12, "profile_path": "/owIr4b4VIlJu0m6Drofd3P0qDl5.jpg"}, {"cast_id": 14, "character": "Deputy Jim", "credit_id": "52fe44109251416c91003ad7", "gender": 0, "id": 106117, "name": "Thomas Schellenberg", "order": 13, "profile_path": null}, {"cast_id": 15, "character": "Dispatcher", "credit_id": "52fe44109251416c91003adb", "gender": 0, "id": 106118, "name": "Robert K. Feldmann", "order": 14, "profile_path": null}, {"cast_id": 16, "character": "Proprietor", "credit_id": "52fe44109251416c91003adf", "gender": 2, "id": 106119, "name": "David Hart", "order": 15, "profile_path": null}, {"cast_id": 17, "character": "Stock Truck Driver", "credit_id": "52fe44109251416c91003ae3", "gender": 0, "id": 106120, "name": "Jeff Duus", "order": 16, "profile_path": null}, {"cast_id": 18, "character": "Farmer", "credit_id": "52fe44109251416c91003ae7", "gender": 2, "id": 106121, "name": "Noah Keen", "order": 17, "profile_path": null}, {"cast_id": 19, "character": "Farmer's Wife", "credit_id": "52fe44109251416c91003aeb", "gender": 0, "id": 106122, "name": "Marie Stelin", "order": 18, "profile_path": null}, {"cast_id": 20, "character": "Judge D. Greenwalt", "credit_id": "52fe44109251416c91003aef", "gender": 1, "id": 43950, "name": "Dena Dietrich", "order": 19, "profile_path": "/1GYksaOr1VtHAtVbanB6BV0eY4y.jpg"}, {"cast_id": 21, "character": "Young Girl (Gina)", "credit_id": "52fe44109251416c91003af3", "gender": 0, "id": 106123, "name": "Monica Rapalli", "order": 20, "profile_path": null}, {"cast_id": 22, "character": "Store Owner", "credit_id": "52fe44109251416c91003af7", "gender": 0, "id": 106124, "name": "John Oblinger", "order": 21, "profile_path": null}, {"cast_id": 23, "character": "Shooter #1", "credit_id": "52fe44109251416c91003afb", "gender": 0, "id": 106125, "name": "Tony Lecce", "order": 22, "profile_path": null}, {"cast_id": 35, "character": "George Denver", "credit_id": "52fe44109251416c91003b35", "gender": 2, "id": 18977, "name": "Ed O'Neill", "order": 23, "profile_path": "/uNXhu2ci4R1OwcMUTK9dluYzdQl.jpg"}, {"cast_id": 36, "character": "Bill Lonigan", "credit_id": "52fe44109251416c91003b39", "gender": 2, "id": 43774, "name": "Daniel Roebuck", "order": 24, "profile_path": "/uFt0W1kfHylxEZwXFfwzhThG5Jd.jpg"}], "crew": [{"credit_id": "52fe44109251416c91003b1f", "department": "Editing", "gender": 0, "id": 2533, "job": "Editor", "name": "Dallas Puett", "profile_path": null}, {"credit_id": "5539ffe6c3a3683e14000da1", "department": "Sound", "gender": 2, "id": 3393, "job": "Original Music Composer", "name": "David Newman", "profile_path": "/vncTIJaBWoYmpdNCPkDnA8hT3PM.jpg"}, {"credit_id": "52fe44109251416c91003b31", "department": "Editing", "gender": 2, "id": 12419, "job": "Editor", "name": "Frank Morriss", "profile_path": null}, {"credit_id": "52fe44109251416c91003b0d", "department": "Production", "gender": 2, "id": 12840, "job": "Executive Producer", "name": "John Badham", "profile_path": "/oAhHnnyoIY7qgg7aERbsOuqFdow.jpg"}, {"credit_id": "52fe44109251416c91003b2b", "department": "Production", "gender": 2, "id": 18878, "job": "Executive Producer", "name": "Rob Cohen", "profile_path": "/qMtAaURL6aE3GgALVQlxKGGL5AC.jpg"}, {"credit_id": "52fe44109251416c91003b19", "department": "Camera", "gender": 2, "id": 20004, "job": "Director of Photography", "name": "Ronald V\u00edctor Garc\u00eda", "profile_path": "/iMrp8gIvub3hjyIB6lCwBIQ7BGS.jpg"}, {"credit_id": "52fe44109251416c91003b01", "department": "Directing", "gender": 2, "id": 21155, "job": "Director", "name": "Jim Kouf", "profile_path": null}, {"credit_id": "52fe44109251416c91003b07", "department": "Writing", "gender": 2, "id": 21155, "job": "Writer", "name": "Jim Kouf", "profile_path": null}, {"credit_id": "52fe44109251416c91003b13", "department": "Production", "gender": 1, "id": 58424, "job": "Producer", "name": "Lynn Kouf", "profile_path": null}]}}