{"adult": false, "backdrop_path": "/bS288r6pXGpsmhN5c0GYU6EfkmY.jpg", "belongs_to_collection": null, "budget": 0, "genres": [{"id": 27, "name": "Horror"}, {"id": 878, "name": "Science Fiction"}, {"id": 10770, "name": "TV Movie"}], "homepage": null, "id": 3042, "imdb_id": "tt0106959", "original_language": "en", "original_title": "Frankenstein", "overview": "In the early 19th century, Dr. Frankenstein (Patrick Bergin, Sleeping with the Enemy) discovers the secret of life \u2013 how to create a perfect man \u2013 powerful, intelligent and immune to disease. But something goes wrong in the laboratory and the doctor\u2019s hideous creation (Randy Quaid, National Lampoon\u2019s Vacation) disappears into the night. At first, Frankenstein hoped that the horrible monster would perish in the wilderness, but now he senses that it\u2019s alive and sets out for him. Dr. Frankenstein tracks the creature to the Arctic, where the two must battle to decide who will become the master of the other\u2019s life\u2026or death. \u201cNobody\u2019s ever done a Frankenstein like this one and nobody\u2019s ever done a better one\u201d (Houston Chronicle).", "popularity": 3.536, "poster_path": "/wqi9GkXbDGhk75XuoD65ESXkHlz.jpg", "production_companies": [{"id": 6189, "logo_path": null, "name": "Turner Pictures (I)", "origin_country": "CA"}], "production_countries": [{"iso_3166_1": "GB", "name": "United Kingdom"}], "release_date": "1992-12-29", "revenue": 0, "runtime": 117, "spoken_languages": [{"iso_639_1": "en", "name": "English"}], "status": "Released", "tagline": "", "title": "Frankenstein", "video": false, "vote_average": 6.3, "vote_count": 3, "keywords": {"keywords": [{"id": 1299, "name": "monster"}, {"id": 1706, "name": "experiment"}]}, "similar": {"page": 1, "results": [{"id": 3160, "video": false, "vote_count": 14, "vote_average": 6.2, "title": "Frankenstein Conquers the World", "release_date": "1965-08-08", "original_language": "ja", "original_title": "Furankenshutain Tai Chitei Kaij\u016b Baragon", "genre_ids": [27, 878], "backdrop_path": "/aazww2jBSjT92hAm7okzcM78AdA.jpg", "adult": false, "overview": "During WWII, a human heart taken from Dr. Frankenstein's lab and  is kept in Japan where it gets exposed to the radiation of the bombing of Hiroshima. The heart grows in size, mutates and eventually becomes an indestuctable humanoid.  Later, a reptilian monster goes on a rampage. Eventually the Frankenstein creature and the reptile face off in a terrible battle.", "poster_path": "/qcB7uTmCOzrbDMVmxht8STsHcTh.jpg", "popularity": 3.629}, {"adult": false, "backdrop_path": "/wIP9NCL6x1fc5pmADRcCQMNzGjA.jpg", "genre_ids": [12, 27, 878], "id": 10973, "original_language": "en", "original_title": "Creature from the Black Lagoon", "overview": "A scientific expedition searching for fossils along the Amazon River discover a prehistoric Gill-Man in the legendary Black Lagoon. The explorers capture the mysterious creature, but it breaks free. The Gill-Man returns to kidnap the lovely Kay, fianc\u00e9e of one of the expedition, with whom it has fallen in love.", "poster_path": "/hQ3k0gAh2Hv2uqrMff0gqxZDJKy.jpg", "release_date": "1954-03-05", "title": "Creature from the Black Lagoon", "video": false, "vote_average": 6.8, "vote_count": 343, "popularity": 11.81}, {"adult": false, "backdrop_path": "/108DrCir1YkVyhyxRP6ukB0dZpS.jpg", "genre_ids": [35], "id": 3034, "original_language": "en", "original_title": "Young Frankenstein", "overview": "A young neurosurgeon inherits the castle of his grandfather, the famous Dr. Victor von Frankenstein. In the castle he finds a funny hunchback, a pretty lab assistant and the elderly housekeeper. Young Frankenstein believes that the work of his grandfather was delusional, but when he discovers the book where the mad doctor described his reanimation experiment, he suddenly changes his mind.", "poster_path": "/tQJAWbIjvvqVKLLbIZHtwGw2HTf.jpg", "release_date": "1974-12-15", "title": "Young Frankenstein", "video": false, "vote_average": 7.9, "vote_count": 1841, "popularity": 17.144}, {"adult": false, "backdrop_path": "/ccjSeVoh3ZPXoiFSkFmZZM1HmsC.jpg", "genre_ids": [27, 878, 53], "id": 9077, "original_language": "en", "original_title": "Tarantula", "overview": "A lone-wolf scientist sequestered in a mansion near a small desert town arouses the suspicion of the town's doctor when his lab assistant is found dead from a case of acromegaly which took only four days to develop.  As the doctor investigates, aided by the scientist's new, and very female, assistant, they discover that, far worse, something much larger and hungrier than it ever should be,  is devouring local cattle - and humans - in increasingly large quantities.", "poster_path": "/gPjlVSys2CJP1aQKXnhj4kKDxrB.jpg", "release_date": "1955-03-23", "title": "Tarantula", "video": false, "vote_average": 6.2, "vote_count": 107, "popularity": 10.742}, {"id": 3035, "video": false, "vote_count": 715, "vote_average": 7.5, "title": "Frankenstein", "release_date": "1931-11-21", "original_language": "en", "original_title": "Frankenstein", "genre_ids": [18, 27, 878], "backdrop_path": "/nwmG8pQQ1xFAPZruYNnrnld2KMC.jpg", "adult": false, "overview": "Dr Henry Frankenstein is obsessed with assembling a living being from parts of several exhumed corpses.", "poster_path": "/wB58wlBAr6484Wm6VyFDqSD8VOJ.jpg", "popularity": 24.454}, {"adult": false, "backdrop_path": "/6kVVfNT0auG6fU5SFQ1zbayNWUC.jpg", "genre_ids": [28, 53, 878], "id": 7191, "original_language": "en", "original_title": "Cloverfield", "overview": "Five young New Yorkers throw their friend a going-away party the night that a monster the size of a skyscraper descends upon the city. Told from the point of view of their video camera, the film is a document of their attempt to survive the most surreal, horrifying event of their lives.", "poster_path": "/qIegUGJqyMMCRjkKV1s7A9MqdJ8.jpg", "release_date": "2008-01-15", "title": "Cloverfield", "video": false, "vote_average": 6.5, "vote_count": 4423, "popularity": 14.46}, {"id": 124905, "video": false, "vote_count": 5562, "vote_average": 6.1, "title": "Godzilla", "release_date": "2014-05-14", "original_language": "en", "original_title": "Godzilla", "genre_ids": [28, 18, 878], "backdrop_path": "/2WKcxQbTVkLUgoS5kPnHlecbj02.jpg", "adult": false, "overview": "Ford Brody, a Navy bomb expert, has just reunited with his family in San Francisco when he is forced to go to Japan to help his estranged father, Joe. Soon, both men are swept up in an escalating crisis when an ancient alpha predator arises from the sea to combat malevolent adversaries that threaten the survival of humanity. The creatures leave colossal destruction in their wake, as they make their way toward their final battleground: San Francisco.", "poster_path": "/szVwkB4H5yyOJBVuQ432b9boO0N.jpg", "popularity": 18.835}, {"id": 15767, "video": false, "vote_count": 84, "vote_average": 6.7, "title": "Godzilla: Final Wars", "release_date": "2004-12-04", "original_language": "ja", "original_title": "\u30b4\u30b8\u30e9 \u30d5\u30a1\u30a4\u30ca\u30eb\u30a6\u30a9\u30fc\u30ba", "genre_ids": [28, 12, 14, 878, 53], "backdrop_path": "/nFHdB6f93ZZgpxqLtE4Rv2lgZBE.jpg", "adult": false, "overview": "Humanity final rids themselves of Godzilla, in-prisoning him in an icy tomb at the South Pole. Years later all is peaceful until various monsters emerge to lay waste to Earth's cities. Overwhelmed, humanity is seemingly saved by a race of benevolent aliens known as  Xiliens. But not all is what it seems with these bizarre visitors. If humanity wishes to survive they must reluctantly resurrect their most hated enemy, Godzilla.", "poster_path": "/unjWANFfc05ckUuwaSDLB3XfOWX.jpg", "popularity": 6.907}, {"id": 315011, "video": false, "vote_count": 400, "vote_average": 6.7, "title": "Shin Godzilla", "release_date": "2016-07-29", "original_language": "ja", "original_title": "\u30b7\u30f3\u30fb\u30b4\u30b8\u30e9", "genre_ids": [28, 27, 878], "backdrop_path": "/9nyToPG5mhfm4KiPGChu35jH9QZ.jpg", "adult": false, "overview": "When a massive, gilled monster emerges from the deep and tears through the city, the government scrambles to save its citizens.  A rag-tag team of volunteers cuts through a web of red tape to uncover the monster's weakness and its mysterious ties to a foreign superpower.  But time is not on their side - the greatest catastrophe to ever befall the world is about to evolve right before their very eyes.", "poster_path": "/8YWirGQidtZeSEmhqvQM5FrI6N1.jpg", "popularity": 14.527}, {"id": 3079, "video": false, "vote_count": 111, "vote_average": 7.0, "title": "The Curse of Frankenstein", "release_date": "1957-05-02", "original_language": "en", "original_title": "The Curse of Frankenstein", "genre_ids": [27, 878], "backdrop_path": "/jBidAzvvwYWQMm5dxZwA49vErns.jpg", "adult": false, "overview": "Baron Victor Frankenstein has discovered life's secret and unleashed a blood-curdling chain of events resulting from his creation: a cursed creature with a horrid face \u2014 and a tendency to kill.", "poster_path": "/f4dwXdeZFHzLKMNgKGe46RWsMmM.jpg", "popularity": 9.957}, {"adult": false, "backdrop_path": "/y5qDjStKZ6y4IHQDhJGMlfZwH92.jpg", "genre_ids": [18, 14, 878], "id": 339967, "original_language": "en", "original_title": "Colossal", "overview": "A woman discovers that severe catastrophic events are somehow connected to the mental breakdown from which she's suffering.", "poster_path": "/4VOyofBd1pexblxtDZYtYIk7NI4.jpg", "release_date": "2016-06-30", "title": "Colossal", "video": false, "vote_average": 6.1, "vote_count": 1144, "popularity": 11.602}, {"adult": false, "backdrop_path": "/AhxObJqssOpGKIOWtAyCN8DF9AH.jpg", "genre_ids": [28, 18, 27, 878, 53], "id": 39256, "original_language": "ja", "original_title": "Godzilla 1985", "overview": "Originally released in Japan as \"The Return of Godzilla\"  in 1984, this is the heavily re-edited, re-titled \"Godzilla 1985\".  Adding in new footage of Raymond Burr, this 16th Godzilla film ignores all previous sequels and serves as a direct follow-up to the 1956 \"Godzilla King of the Monsters\", which also featured scenes with Burr edited into 1954's \"Godzilla\". This film restores the darker tone of the original, as we witness the nuclear destruction of giant lizard terrorizing Japan.", "poster_path": "/wWQmEv8UiGckO4lHyNtOX8tSCQy.jpg", "release_date": "1985-08-23", "title": "Godzilla 1985", "video": false, "vote_average": 6.4, "vote_count": 63, "popularity": 6.486}, {"adult": false, "backdrop_path": "/5Hj5fPpmXbREYk8f1n7JFguSHHE.jpg", "genre_ids": [28, 14, 878], "id": 15766, "original_language": "ja", "original_title": "\u4e09\u5927\u602a\u7363\u3000\u5730\u7403\u6700\u5927\u306e\u6c7a\u6226", "overview": "The Princess Mas Selina Salno is seemingly assassinated as a mysterious meteorite lands in Kurobe Valley. When a scientific expedition examines the meteorite, they discover the rock is growing, producing heat and has a strong magnetic pull. Soon a prophetess, with a striking resemblance to the princess, warns of great calamity in the return of Godzilla, Rodan, and the arrival of King Ghidorah.", "poster_path": "/oW4QkHaFmkKHambxeatAqCLXkw8.jpg", "release_date": "1964-12-20", "title": "Ghidorah, the Three-Headed Monster", "video": false, "vote_average": 6.4, "vote_count": 72, "popularity": 9.269}, {"id": 19901, "video": false, "vote_count": 1109, "vote_average": 6.2, "title": "Daybreakers", "release_date": "2009-09-11", "original_language": "en", "original_title": "Daybreakers", "genre_ids": [28, 14, 27, 878], "backdrop_path": "/jjTK7kQS0LBU8GNZlUvlRK0dR1h.jpg", "adult": false, "overview": "In the year 2019, a plague has transformed almost every human into vampires. Faced with a dwindling blood supply, the fractured dominant race plots their survival; meanwhile, a researcher works with a covert band of vampires on a way to save humankind.", "poster_path": "/ilicCtkHIBb90PvTfXMeSeJ7b0o.jpg", "popularity": 19.939}, {"id": 427641, "video": false, "vote_count": 3660, "vote_average": 6.2, "title": "Rampage", "release_date": "2018-04-12", "original_language": "en", "original_title": "Rampage", "genre_ids": [28, 12, 14, 878], "backdrop_path": "/wrqUiMXttHE4UBFMhLHlN601MZh.jpg", "adult": false, "overview": "Primatologist Davis Okoye shares an unshakable bond with George, the extraordinarily intelligent, silverback gorilla who has been in his care since birth.  But a rogue genetic experiment gone awry mutates this gentle ape into a raging creature of enormous size.  To make matters worse, it\u2019s soon discovered there are other similarly altered animals.  As these newly created alpha predators tear across North America, destroying everything in their path, Okoye teams with a discredited genetic engineer to secure an antidote, fighting his way through an ever-changing battlefield, not only to halt a global catastrophe but to save the fearsome creature that was once his friend.", "poster_path": "/3gIO6mCd4Q4PF1tuwcyI3sjFrtI.jpg", "popularity": 29.79}, {"id": 268896, "video": false, "vote_count": 2611, "vote_average": 5.9, "title": "Pacific Rim: Uprising", "release_date": "2018-03-21", "original_language": "en", "original_title": "Pacific Rim: Uprising", "genre_ids": [28, 12, 14, 878], "backdrop_path": "/6pT73ACl5N1VekdK3wQI8PLfz1E.jpg", "adult": false, "overview": "It has been ten years since The Battle of the Breach and the oceans are still, but restless. Vindicated by the victory at the Breach, the Jaeger program has evolved into the most powerful global defense force in human history. The PPDC now calls upon the best and brightest to rise up and become the next generation of heroes when the Kaiju threat returns.", "poster_path": "/v5HlmJK9bdeHxN2QhaFP1ivjX3U.jpg", "popularity": 28.5}, {"id": 373571, "video": false, "vote_count": 1966, "vote_average": 6.2, "title": "Godzilla: King of the Monsters", "release_date": "2019-05-29", "original_language": "en", "original_title": "Godzilla: King of the Monsters", "genre_ids": [28, 878], "backdrop_path": "/cNt14e43I2DDW6Xd9zFhrP8eOcA.jpg", "adult": false, "overview": "Follows the heroic efforts of the crypto-zoological agency Monarch as its members face off against a battery of god-sized monsters, including the mighty Godzilla, who collides with Mothra, Rodan, and his ultimate nemesis, the three-headed King Ghidorah. When these ancient super-species - thought to be mere myths - rise again, they all vie for supremacy, leaving humanity's very existence hanging in the balance.", "poster_path": "/fQ40gmFM4p03tXwMxQQKh2cCBW4.jpg", "popularity": 49.185}, {"adult": false, "backdrop_path": "/bvbyidkMaBls1LTaIWYY6UmYTaL.jpg", "genre_ids": [28, 878], "id": 336843, "original_language": "en", "original_title": "Maze Runner: The Death Cure", "overview": "Thomas leads his group of escaped Gladers on their final and most dangerous mission yet. To save their friends, they must break into the legendary Last City, a WCKD-controlled labyrinth that may turn out to be the deadliest maze of all. Anyone who makes it out alive will get answers to the questions the Gladers have been asking since they first arrived in the maze.", "poster_path": "/2zYfzA3TBwrMC8tfFbpiTLODde0.jpg", "release_date": "2018-01-10", "title": "Maze Runner: The Death Cure", "video": false, "vote_average": 7.0, "vote_count": 4393, "popularity": 24.242}, {"id": 1927, "video": false, "vote_count": 3504, "vote_average": 5.4, "title": "Hulk", "release_date": "2003-06-19", "original_language": "en", "original_title": "Hulk", "genre_ids": [28, 878], "backdrop_path": "/kVxquPLBzAIq2NmlbWjTsfZBFh5.jpg", "adult": false, "overview": "Bruce Banner, a genetics researcher with a tragic past, suffers massive radiation exposure in his laboratory that causes him to transform into a raging green monster when he gets angry.", "poster_path": "/ogCQV6mnLtCJuiiHtMB83jvSRfY.jpg", "popularity": 29.829}, {"id": 126889, "video": false, "vote_count": 5385, "vote_average": 5.9, "title": "Alien: Covenant", "release_date": "2017-05-09", "original_language": "en", "original_title": "Alien: Covenant", "genre_ids": [27, 878, 53], "backdrop_path": "/6jajFcaY2YsfGQstJ5HaqZNVseX.jpg", "adult": false, "overview": "Bound for a remote planet on the far side of the galaxy, the crew of the colony ship 'Covenant' discovers what is thought to be an uncharted paradise, but is actually a dark, dangerous world\u2014which has a sole inhabitant: the 'synthetic', David, survivor of the doomed Prometheus expedition.", "poster_path": "/zecMELPbU5YMQpC81Z8ImaaXuf9.jpg", "popularity": 33.391}], "total_pages": 82, "total_results": 1627}, "recommendations": {"page": 1, "results": [], "total_pages": 1, "total_results": 0}, "credits": {"cast": [{"cast_id": 13, "character": "Dr. Victor Frankenstein", "credit_id": "52fe437fc3a36847f8058b4b", "gender": 2, "id": 29459, "name": "Patrick Bergin", "order": 0, "profile_path": "/mxFum2Fr5YWD6kDQYb5u7EEvuva.jpg"}, {"cast_id": 14, "character": "The Monster", "credit_id": "52fe437fc3a36847f8058b4f", "gender": 2, "id": 1811, "name": "Randy Quaid", "order": 1, "profile_path": "/7rywy6gbSTG60xQWepRktD0feek.jpg"}, {"cast_id": 15, "character": "De Lacey", "credit_id": "52fe437fc3a36847f8058b53", "gender": 2, "id": 11859, "name": "John Mills", "order": 2, "profile_path": "/jMqhI1NeTwgdKsrj9vMshk1r5hP.jpg"}, {"cast_id": 16, "character": "Clerval", "credit_id": "52fe437fc3a36847f8058b57", "gender": 2, "id": 2192, "name": "Lambert Wilson", "order": 3, "profile_path": "/jFkr2kuFfpzS1plfOlNJ6kURV6O.jpg"}, {"cast_id": 17, "character": "Elizabeth", "credit_id": "52fe437fc3a36847f8058b5b", "gender": 0, "id": 29870, "name": "Fiona Gillies", "order": 4, "profile_path": null}, {"cast_id": 18, "character": "Justine", "credit_id": "52fe437fc3a36847f8058b5f", "gender": 0, "id": 29871, "name": "Jacinta Mulcahy", "order": 5, "profile_path": null}, {"cast_id": 19, "character": "Alphonse", "credit_id": "52fe437fc3a36847f8058b63", "gender": 2, "id": 29872, "name": "Ronald Leigh-Hunt", "order": 6, "profile_path": null}, {"cast_id": 20, "character": "William", "credit_id": "52fe437fc3a36847f8058b67", "gender": 0, "id": 29873, "name": "Timothy Stark", "order": 7, "profile_path": null}, {"cast_id": 21, "character": "Chancellor", "credit_id": "52fe437fc3a36847f8058b6b", "gender": 2, "id": 649, "name": "Vernon Dobtcheff", "order": 8, "profile_path": "/lcPki2IDdmRvqiBbv2RUBfgm3IH.jpg"}], "crew": [{"credit_id": "52fe437fc3a36847f8058b0b", "department": "Writing", "gender": 1, "id": 28970, "job": "Novel", "name": "Mary Shelley", "profile_path": "/rcTyPNOKNFmZi61FVdAivtBroXt.jpg"}, {"credit_id": "52fe437fc3a36847f8058b1d", "department": "Sound", "gender": 2, "id": 19043, "job": "Original Music Composer", "name": "John Cameron", "profile_path": null}, {"credit_id": "52fe437fc3a36847f8058b23", "department": "Camera", "gender": 2, "id": 29864, "job": "Director of Photography", "name": "Jack Conroy", "profile_path": null}, {"credit_id": "52fe437fc3a36847f8058b29", "department": "Editing", "gender": 2, "id": 10495, "job": "Editor", "name": "John Grover", "profile_path": null}, {"credit_id": "52fe437fc3a36847f8058b2f", "department": "Production", "gender": 0, "id": 29865, "job": "Casting", "name": "Lesley De Pettit", "profile_path": null}, {"credit_id": "52fe437fc3a36847f8058b3b", "department": "Art", "gender": 0, "id": 29867, "job": "Art Direction", "name": "Martin Atkinson", "profile_path": null}, {"credit_id": "52fe437fc3a36847f8058b41", "department": "Costume & Make-Up", "gender": 0, "id": 29868, "job": "Costume Design", "name": "Raymond Hughes", "profile_path": null}, {"credit_id": "52fe437fc3a36847f8058b47", "department": "Costume & Make-Up", "gender": 0, "id": 29869, "job": "Makeup Artist", "name": "Alan Boyle", "profile_path": null}, {"credit_id": "546a1c7a22136e68d50035fb", "department": "Writing", "gender": 0, "id": 91666, "job": "Screenplay", "name": "David Wickes", "profile_path": null}, {"credit_id": "57843436c3a36837ac000518", "department": "Art", "gender": 2, "id": 1648863, "job": "Production Design", "name": "William Alexander", "profile_path": null}, {"credit_id": "546a1c81eaeb8136760005b1", "department": "Directing", "gender": 0, "id": 91666, "job": "Director", "name": "David Wickes", "profile_path": null}, {"credit_id": "546a1c9aeaeb816b5500390b", "department": "Production", "gender": 0, "id": 91666, "job": "Producer", "name": "David Wickes", "profile_path": null}]}}