{"adult": false, "backdrop_path": "/yBOstNtqQcOonkKkugolWqdAvl0.jpg", "belongs_to_collection": null, "budget": 0, "genres": [{"id": 53, "name": "Thriller"}, {"id": 18, "name": "Drama"}, {"id": 80, "name": "Crime"}], "homepage": null, "id": 305824, "imdb_id": "tt0156136", "original_language": "en", "original_title": "Tik Tik Tik", "overview": "A fashion photographer gets embroiled in a series of grisly murders.", "popularity": 0.984, "poster_path": "/5bQQcRkLD23nzGmRRHYMBU20FfZ.jpg", "production_companies": [{"id": 102642, "logo_path": null, "name": "Shiv Shakthi Films", "origin_country": ""}], "production_countries": [{"iso_3166_1": "IN", "name": "India"}], "release_date": "1981-11-07", "revenue": 0, "runtime": 164, "spoken_languages": [{"iso_639_1": "ta", "name": "\u0ba4\u0bae\u0bbf\u0bb4\u0bcd"}], "status": "Released", "tagline": "", "title": "Tik Tik Tik", "video": false, "vote_average": 7.0, "vote_count": 1, "keywords": {"keywords": [{"id": 1384, "name": "diamond"}, {"id": 6212, "name": "smuggling"}]}, "similar": {"page": 1, "results": [{"id": 99377, "video": false, "vote_count": 8, "vote_average": 5.9, "title": "The Big Mouth", "release_date": "1967-07-12", "original_language": "en", "original_title": "The Big Mouth", "genre_ids": [28, 35, 80], "backdrop_path": "/b7U88C1NE1WMI13KWpuEfGz7KOa.jpg", "adult": false, "overview": "A fisherman crosses paths with a diamond-smuggling gangster\u2013who is his doppelg\u00e4nger\u2014and inadvertently takes his place at a resort hotel where he meets a special girl.", "poster_path": "/xmPgAUbvEcdlB7KfvInk1FNXCMD.jpg", "popularity": 6.847}, {"id": 107, "video": false, "vote_count": 5247, "vote_average": 7.8, "title": "Snatch", "release_date": "2000-09-01", "original_language": "en", "original_title": "Snatch", "genre_ids": [80, 53], "backdrop_path": "/cNLZ7YGRikb4IsLblrzu86ndZPw.jpg", "adult": false, "overview": "The second film from British director Guy Ritchie. Snatch tells an obscure story similar to his first fast-paced crazy character-colliding filled film \u201cLock, Stock and Two Smoking Barrels.\u201d There are two overlapping stories here \u2013 one is the search for a stolen diamond, and the other about a boxing promoter who\u2019s having trouble with a psychotic gangster.", "poster_path": "/on9JlbGEccLsYkjeEph2Whm1DIp.jpg", "popularity": 25.36}, {"id": 681, "video": false, "vote_count": 1040, "vote_average": 6.4, "title": "Diamonds Are Forever", "release_date": "1971-12-13", "original_language": "en", "original_title": "Diamonds Are Forever", "genre_ids": [28, 12, 53], "backdrop_path": "/gIGLXXvsljHK1jdDNaIXsjhZnnH.jpg", "adult": false, "overview": "Diamonds are stolen only to be sold again in the international market. James Bond infiltrates a smuggling mission to find out who\u2019s guilty. The mission takes him to Las Vegas where Bond meets his archenemy Blofeld.", "poster_path": "/viPjZ3JCOahcfNCcVhiPExusJoZ.jpg", "popularity": 18.532}, {"adult": false, "backdrop_path": "/syALjBwUyG9wq0JZrzTVtkiuvdn.jpg", "genre_ids": [28, 12, 53], "id": 1639, "original_language": "en", "original_title": "Speed 2: Cruise Control", "overview": "Sandra Bullock and Jason Patric star as a young couple whose dream cruise turns to terror when a lunatic computer genius (Willem Dafoe) sets a new course for destruction.", "poster_path": "/biK8HM38OxMPih2VjjZkJ9gbRpO.jpg", "release_date": "1997-06-13", "title": "Speed 2: Cruise Control", "video": false, "vote_average": 4.3, "vote_count": 887, "popularity": 16.103}, {"id": 12103, "video": false, "vote_count": 469, "vote_average": 6.1, "title": "Don't Say a Word", "release_date": "2001-09-28", "original_language": "en", "original_title": "Don't Say a Word", "genre_ids": [53], "backdrop_path": "/AaOtoMzqWJPSNXPRKwbvqf6MbKo.jpg", "adult": false, "overview": "When the daughter of a psychiatrist is kidnapped, he's horrified to discover that the abductors' demand is that he break through to a post traumatic stress disorder suffering young woman who knows a secret..", "poster_path": "/qx3hgW9MqxsEEFjx4eSbpp1Fe2l.jpg", "popularity": 16.339}, {"id": 308266, "video": false, "vote_count": 2676, "vote_average": 6.8, "title": "War Dogs", "release_date": "2016-08-17", "original_language": "en", "original_title": "War Dogs", "genre_ids": [35, 80, 18], "backdrop_path": "/15ruj2IGZqXXQCgln4Do8WPeAIr.jpg", "adult": false, "overview": "Based on the true story of two young men, David Packouz and Efraim Diveroli, who won a $300 million contract from the Pentagon to arm America's allies in Afghanistan.", "poster_path": "/wJXku1YhMKeuzYNEHux7XtaYPsE.jpg", "popularity": 18.007}, {"adult": false, "backdrop_path": "/9VgOCnaG4GY1zzz8QYvtPu8msNs.jpg", "genre_ids": [28, 80, 18], "id": 7220, "original_language": "en", "original_title": "The Punisher", "overview": "When undercover FBI agent Frank Castle's wife and son are slaughtered, he becomes 'the Punisher' -- a ruthless vigilante willing to go to any length to avenge his family.", "poster_path": "/qLeje0AueCpJBDW7pmg4Gv7cO1h.jpg", "release_date": "2004-04-15", "title": "The Punisher", "video": false, "vote_average": 6.2, "vote_count": 1528, "popularity": 19.254}, {"id": 33542, "video": false, "vote_count": 478, "vote_average": 6.6, "title": "Rumble in the Bronx", "release_date": "1995-01-30", "original_language": "cn", "original_title": "\u7d05\u756a\u5340", "genre_ids": [28, 35, 80, 53], "backdrop_path": "/rGeVEsRDVvlMBN7fmOKhNW2GtWy.jpg", "adult": false, "overview": "Keong comes from Hong Kong to visit New York for his uncle's wedding. His uncle runs a market in the Bronx and Keong offers to help out while Uncle is on his honeymoon. During his stay in the Bronx, Keong befriends a neighbor kid and beats up some neighborhood thugs who cause problems at the market. One of those petty thugs in the local gang stumbles into a criminal situation way over his head.", "poster_path": "/y7AxKPPCtZyrGQKvxzn5zTQ8wFm.jpg", "popularity": 14.701}, {"id": 10623, "video": false, "vote_count": 440, "vote_average": 5.8, "title": "Cradle 2 the Grave", "release_date": "2003-02-28", "original_language": "en", "original_title": "Cradle 2 the Grave", "genre_ids": [28, 80, 18], "backdrop_path": "/1SWYvFhQvAEI3CkbxQOg3VTqjlp.jpg", "adult": false, "overview": "Gang leader Tony pulls off a major diamond heist with his crew, but cop-turned-criminal Ling knows who has the loot and responds by kidnapping Tony's daughter and holding her for ransom. Unfortunately, Tony's lost the diamonds as well. As he frantically searches for his daughter and the jewels, Tony pairs with a high-kicking government agent who once worked with Ling and seeks revenge on him.", "poster_path": "/v8iPcn54TNsSPabD9ZYQVQUWbXk.jpg", "popularity": 13.551}, {"adult": false, "backdrop_path": "/46y6EvnDveRFwtztyHVS0y2DipU.jpg", "genre_ids": [18, 53, 28], "id": 1372, "original_language": "en", "original_title": "Blood Diamond", "overview": "An ex-mercenary turned smuggler. A Mende fisherman. Amid the explosive civil war overtaking 1999 Sierra Leone, these men join for two desperate missions: recovering a rare pink diamond of immense value and rescuing the fisherman's son conscripted as a child soldier into the brutal rebel forces ripping a swath of torture and bloodshed countrywide.", "poster_path": "/wRamTzV6udKaMXrspxqOuo02zk0.jpg", "release_date": "2006-12-07", "title": "Blood Diamond", "video": false, "vote_average": 7.5, "vote_count": 4327, "popularity": 16.586}, {"id": 90, "video": false, "vote_count": 2118, "vote_average": 7.1, "title": "Beverly Hills Cop", "release_date": "1984-11-29", "original_language": "en", "original_title": "Beverly Hills Cop", "genre_ids": [28, 35, 80], "backdrop_path": "/gmV4lsRAAtgdTysO3FwTxN8wevb.jpg", "adult": false, "overview": "Tough-talking Detroit cop Axel Foley heads to the rarified world of Beverly Hills in his beat-up Chevy Nova to investigate a friend's murder, but soon realizes he's stumbled onto something much more complicated. Bungling rookie detective, Billy Rosewood joins the fish-out-of-water Axel and shows him the West Los Angeles ropes.", "poster_path": "/eEm00B2qO4j4gGH9PDg8dHvyApD.jpg", "popularity": 26.934}, {"adult": false, "backdrop_path": "/jnrvQO04kdoxYzxzIc7VM1meads.jpg", "genre_ids": [28, 12, 878, 53], "id": 9381, "original_language": "en", "original_title": "Babylon A.D.", "overview": "A veteran-turned-mercenary  is hired to take a young woman with a secret from post-apocalyptic Eastern Europe to New York City.", "poster_path": "/eeoB2u438Z8b14HJn8TVe8X9F1U.jpg", "release_date": "2008-08-20", "title": "Babylon A.D.", "video": false, "vote_average": 5.5, "vote_count": 1204, "popularity": 14.207}, {"id": 10876, "video": false, "vote_count": 279, "vote_average": 7.0, "title": "Quills", "release_date": "2000-11-22", "original_language": "en", "original_title": "Quills", "genre_ids": [18], "backdrop_path": "/1VDVlHWlMipUwbsGKot8qJr640G.jpg", "adult": false, "overview": "A nobleman with a literary flair, the Marquis de Sade lives in a madhouse where a beautiful laundry maid smuggles his erotic stories to a printer, defying orders from the asylum's resident priest. The titillating passages whip all of France into a sexual frenzy, until a fiercely conservative doctor tries to put an end to the fun.", "poster_path": "/4fz5LDFsapXDJVLsy2jh5VPZtR0.jpg", "popularity": 14.995}, {"id": 11001, "video": false, "vote_count": 748, "vote_average": 6.2, "title": "Blue Streak", "release_date": "1999-09-17", "original_language": "en", "original_title": "Blue Streak", "genre_ids": [28, 35, 80], "backdrop_path": "/eZUssnnFeSO4naHJC400PbiL58f.jpg", "adult": false, "overview": "Miles Logan is a jewel thief who just hit the big time by stealing a huge diamond. However, after two years in jail, he comes to find out that he hid the diamond in a police building that was being built at the time of the robbery. In an attempt to regain his diamond, he poses as an LAPD detective", "poster_path": "/jek2osBtFhzU6Hjj7yp1egOtbqO.jpg", "popularity": 13.895}, {"adult": false, "backdrop_path": "/tHuWYBNfsVOc99PBmQtEBryG2Hd.jpg", "genre_ids": [35, 10751, 878, 18], "id": 11966, "original_language": "en", "original_title": "Short Circuit 2", "overview": "Robot Johnny Five comes to the city and gets manipulated by criminals who want him for their own purposes.", "poster_path": "/18yjQQMK6mtB3L3os1kmT7MwXdf.jpg", "release_date": "1988-07-06", "title": "Short Circuit 2", "video": false, "vote_average": 5.9, "vote_count": 303, "popularity": 12.097}, {"id": 12481, "video": false, "vote_count": 320, "vote_average": 7.3, "title": "The Big Boss", "release_date": "1971-10-02", "original_language": "zh", "original_title": "\u5510\u5c71\u5927\u5144", "genre_ids": [28], "backdrop_path": "/tzmHdegHSKVUwnJYvdMiolAWnWO.jpg", "adult": false, "overview": "Chen is a city boy who moves with his cousins to work at an ice factory. He does this with a family promise never to get involved in any fight. However, when members of his family begin disappearing after meeting the management of the factory, the resulting mystery and pressures force him to break that vow and take on the villainy of the Big Boss.", "poster_path": "/txmbBHN45wqWn4qrT9MPlDhuJCA.jpg", "popularity": 20.48}, {"id": 454650, "video": false, "vote_count": 38, "vote_average": 4.3, "title": "Beast of Burden", "release_date": "2018-02-23", "original_language": "en", "original_title": "Beast of Burden", "genre_ids": [28, 80, 18, 53], "backdrop_path": "/bgh5OlSNhcYGCVMqV0xTwNgkbY4.jpg", "adult": false, "overview": "Sean Haggerty only has an hour to deliver his illegal cargo. An hour to reassure a drug cartel, a hitman, and the DEA that nothing is wrong. An hour to make sure his wife survives. And he must do it all from the cockpit of his Cessna.", "poster_path": "/uexWTafwBClTU1qJTEHT0T8TZHb.jpg", "popularity": 7.374}, {"adult": false, "backdrop_path": "/9MniRAXnacFcARalrfqpEAFWYPP.jpg", "genre_ids": [18, 28, 35, 53, 80], "id": 26715, "original_language": "en", "original_title": "Bitch Slap", "overview": "Three bad girls (a down-and-out stripper, a drug-running killer and a corporate powerbroker) arrive at a remote desert hideaway to extort and steal $200 million in diamonds from a ruthless underworld kingpin.", "poster_path": "/s6bvosVfeLUBMgFz0GCxqZAUz3i.jpg", "release_date": "2009-05-16", "title": "Bitch Slap", "video": false, "vote_average": 4.8, "vote_count": 162, "popularity": 17.768}, {"adult": false, "backdrop_path": "/74G2n8hyooZfORLjh6oGtFjGBPk.jpg", "genre_ids": [28, 12], "id": 10329, "original_language": "en", "original_title": "Congo", "overview": "Eight people embark on an expedition into the Congo, a mysterious expanse of unexplored Africa where human greed and the laws of nature have gone berserk. When the thrill-seekers -- some with ulterior motives -- stumble across a race of killer apes.", "poster_path": "/wjeQaiAApgzdipkNXhQnBrqjBY9.jpg", "release_date": "1995-06-09", "title": "Congo", "video": false, "vote_average": 5.3, "vote_count": 422, "popularity": 12.788}, {"adult": false, "backdrop_path": "/2ZDyNOmqDF2GqLgUUcYtDr6vlUT.jpg", "genre_ids": [28, 35], "id": 10044, "original_language": "cn", "original_title": "\u798f\u661f\u9ad8\u7167", "overview": "Two Hong-Kong cops are sent to Tokyo to catch an ex-cop who stole a large amount of money in diamonds. After one is captured by the Ninja-gang protecting the rogue cop, the other one gets his old Orphanage gang, dubbed the \"Five Lucky Stars,\" to help him. They don't like this much, but they do it.", "poster_path": "/sHRpSavjhbHG3IDT3ArPlblkI32.jpg", "release_date": "1985-02-10", "title": "My Lucky Stars", "video": false, "vote_average": 6.4, "vote_count": 62, "popularity": 8.227}], "total_pages": 12, "total_results": 230}, "recommendations": {"page": 1, "results": [], "total_pages": 1, "total_results": 0}, "credits": {"cast": [{"cast_id": 2, "character": "Dileep", "credit_id": "555e3a41c3a36868e50007e1", "gender": 2, "id": 93193, "name": "Kamal Haasan", "order": 0, "profile_path": "/9RBxqr45t7SkbJ2iJFg98HFVVpF.jpg"}, {"cast_id": 3, "character": "Sharadha", "credit_id": "555e3a4ec3a36868eb000746", "gender": 1, "id": 117533, "name": "Madhavi", "order": 1, "profile_path": "/6ChxtchACMxgImDNB3KnGiymYqb.jpg"}, {"cast_id": 4, "character": "Radha", "credit_id": "555e3a699251417e55000722", "gender": 1, "id": 584349, "name": "Radha", "order": 2, "profile_path": "/uti2dCHrzMNjEqUlwc0kapaiBQV.jpg"}, {"cast_id": 9, "character": "Swapna", "credit_id": "5b2f624bc3a36858b3003524", "gender": 0, "id": 1701119, "name": "Swapna", "order": 3, "profile_path": "/qKSqfHhLHNB99cDBEjLvOoEVbrh.jpg"}, {"cast_id": 7, "character": "Victor", "credit_id": "5b2f61e40e0a265606002d7c", "gender": 2, "id": 584459, "name": "Thiagarajan", "order": 4, "profile_path": "/mUV5nSWT4NmZ4rtd9m4P8sTvqlw.jpg"}, {"cast_id": 5, "character": "Lakshmi Narayanan", "credit_id": "555e3a7cc3a36868e50007e8", "gender": 0, "id": 584370, "name": "Thengai Srinivasan", "order": 5, "profile_path": "/bc4rHkLu7Us8wUwHvltl5I16ney.jpg"}, {"cast_id": 6, "character": "Sharadha's Father", "credit_id": "555e3a849251417e4d000712", "gender": 2, "id": 584258, "name": "V. K. Ramasamy", "order": 6, "profile_path": "/kOzBzxmfWQOgH6d2qHagHUi8lNp.jpg"}, {"cast_id": 8, "character": "Nisha", "credit_id": "5b2f622c9251417007002359", "gender": 0, "id": 584628, "name": "Nisha Noor", "order": 7, "profile_path": null}, {"cast_id": 10, "character": "Miss India Sherley (Guest role)", "credit_id": "5b2f6260c3a368575d002842", "gender": 1, "id": 110223, "name": "Sarika", "order": 8, "profile_path": "/4JzZtCssI18sk6uyzhJLXC4722Y.jpg"}], "crew": [{"credit_id": "5b2f628dc3a368580d0037b6", "department": "Sound", "gender": 2, "id": 76888, "job": "Music Director", "name": "Ilaiyaraaja", "profile_path": "/63cUzMq4xFWCjwSLpaPVM6QFTyW.jpg"}, {"credit_id": "555e3a309251417e5c00076e", "department": "Directing", "gender": 2, "id": 238027, "job": "Director", "name": "P. Bharathiraja", "profile_path": "/wc7mKLI2b9mIAbh7OclVokARO9w.jpg"}, {"credit_id": "555e3a3ac3a36868d90006e4", "department": "Writing", "gender": 2, "id": 238027, "job": "Writer", "name": "P. Bharathiraja", "profile_path": "/wc7mKLI2b9mIAbh7OclVokARO9w.jpg"}, {"credit_id": "5b2f629bc3a36858b3003555", "department": "Crew", "gender": 0, "id": 1339589, "job": "Cinematography", "name": "B. Kannan", "profile_path": null}, {"credit_id": "5b2f62ac0e0a265659002ff7", "department": "Editing", "gender": 2, "id": 1488793, "job": "Editor", "name": "Kotagiri Venkateswara Rao", "profile_path": null}]}}