{"adult": false, "backdrop_path": null, "belongs_to_collection": null, "budget": 0, "genres": [{"id": 99, "name": "Documentary"}], "homepage": "http://notmylife.org/", "id": 306604, "imdb_id": "tt3121710", "original_language": "en", "original_title": "Not My Life", "overview": "Not My Life comprehensively depicts the cruel and dehumanizing practices of human trafficking and modern slavery on a global scale. Filmed on five continents, in a dozen countries, Not My Life takes viewers into a world where millions of children are exploited through an astonishing array of practices including forced labor, sex tourism, sexual exploitation, and child soldiering.", "popularity": 0.6, "poster_path": "/a9xE9vwZw3doB0nafVh7Rgn1TI5.jpg", "production_companies": [{"id": 39645, "logo_path": null, "name": "Worldwide Documentaries", "origin_country": ""}], "production_countries": [{"iso_3166_1": "US", "name": "United States of America"}], "release_date": "2011-10-28", "revenue": 0, "runtime": 84, "spoken_languages": [{"iso_639_1": "en", "name": "English"}], "status": "Released", "tagline": "", "title": "Not My Life", "video": false, "vote_average": 0.0, "vote_count": 0, "keywords": {"keywords": [{"id": 2804, "name": "exploitation"}, {"id": 2827, "name": "forced labour"}, {"id": 2831, "name": "slavery"}, {"id": 6019, "name": "human trafficking"}, {"id": 10103, "name": "children"}, {"id": 190337, "name": "child soldier"}]}, "similar": {"page": 1, "results": [{"adult": false, "backdrop_path": "/r3xsFBD1VTUusk393bBc7SsDUJe.jpg", "genre_ids": [80, 18, 53], "id": 553, "original_language": "en", "original_title": "Dogville", "overview": "A barren soundstage is stylishly utilized to create a minimalist small-town setting in which a mysterious woman named Grace hides from the criminals who pursue her. The town is two-faced and offers to harbor Grace as long as she can make it worth their effort, so Grace works hard under the employ of various townspeople to win their favor. Tensions flare, however, and Grace's status as a helpless outsider provokes vicious contempt and abuse from the citizens of Dogville.", "poster_path": "/g1xLrof2RVgtHBB4fLvR5Xr8l5x.jpg", "release_date": "2003-05-19", "title": "Dogville", "video": false, "vote_average": 7.8, "vote_count": 1359, "popularity": 17.353}, {"adult": false, "backdrop_path": "/3BY2I6iLunYRkkl8Hb3hZl8O9MQ.jpg", "genre_ids": [18, 36], "id": 76203, "original_language": "en", "original_title": "12 Years a Slave", "overview": "In the pre-Civil War United States, Solomon Northup, a free black man from upstate New York, is abducted and sold into slavery. Facing cruelty as well as unexpected kindnesses Solomon struggles not only to stay alive, but to retain his dignity. In the twelfth year of his unforgettable odyssey, Solomon\u2019s chance meeting with a Canadian abolitionist will forever alter his life.", "poster_path": "/kb3X943WMIJYVg4SOAyK0pmWL5D.jpg", "release_date": "2013-10-18", "title": "12 Years a Slave", "video": false, "vote_average": 7.9, "vote_count": 7310, "popularity": 20.763}, {"adult": false, "backdrop_path": "/5b2Sy0XQtEyHy0lL1bnrjWLb7jm.jpg", "genre_ids": [18], "id": 96599, "original_language": "en", "original_title": "Eden", "overview": "The true story of Chong Kim\u2014abducted into the sex trade as a young teen\u2014and the complicated moral choices she had to make in order to survive as her situation grew more desperate.", "poster_path": "/6MWSeVg9KESHpS3wXz4uwSlpd3f.jpg", "release_date": "2012-03-11", "title": "Eden", "video": false, "vote_average": 6.8, "vote_count": 116, "popularity": 8.652}, {"adult": false, "backdrop_path": "/rFOrAt18yjTUPxq6xNUuQJ6BT0r.jpg", "genre_ids": [18, 10752], "id": 42617, "original_language": "it", "original_title": "Queimada", "overview": "The professional mercenary Sir William Walker instigates a slave revolt on the Caribbean island of Queimada in order to help improve the British sugar trade. Years later he is sent again to deal with the same rebels that he built up because they have seized too much power that now threatens British sugar interests.", "poster_path": "/NENlRiclYq26bAusmGWWjhKk2D.jpg", "release_date": "1969-12-21", "title": "Burn!", "video": false, "vote_average": 6.7, "vote_count": 44, "popularity": 5.097}, {"id": 98205, "video": false, "vote_count": 59, "vote_average": 6.6, "title": "War Witch", "release_date": "2012-02-17", "original_language": "fr", "original_title": "Rebelle", "genre_ids": [18, 10752], "backdrop_path": "/aFCNYHc9lPkVZuEZqWSkjnfGyxG.jpg", "adult": false, "overview": "Somewhere in Sub-Saharan Africa, Komona a 14-year-old girl tells her unborn child growing inside her the story of her life since she has been at war. Everything started when she was abducted by the rebel army at the age of 12.", "poster_path": "/nqnUHthpNI9KFyGnJVZh8lTCVBe.jpg", "popularity": 5.306}, {"adult": false, "backdrop_path": null, "genre_ids": [99, 10770], "id": 365479, "original_language": "fr", "original_title": "Victor Sch\u0153lcher, l'abolition", "overview": "The struggle of Victor Sch\u0153lcher for the abolition of slavery in the French colonies.", "poster_path": "/nAcQldecsZvWG4U22xHsW9mi0Rf.jpg", "release_date": "1998-01-01", "title": "Victor Sch\u0153lcher, l'abolition", "video": false, "vote_average": 0.0, "vote_count": 0, "popularity": 1.4}, {"id": 42526, "video": false, "vote_count": 24, "vote_average": 5.7, "title": "The Nightcomers", "release_date": "1971-08-30", "original_language": "en", "original_title": "The Nightcomers", "genre_ids": [18, 27, 53], "backdrop_path": "/5zDQpcjM3faCDJEGCuVgR0Atk6u.jpg", "adult": false, "overview": "Prequel to the Henry James classic \"Turn of the Screw\" about the events leading up to the deaths of Peter Quint and Ms. Jessel, and the the slow corruption of the children in their care.", "poster_path": "/w7nLwTkJHgBYqz8XErKQfw8uKIb.jpg", "popularity": 7.224}, {"adult": false, "backdrop_path": "/mFmmbCew7uXxWACp80OxHV6fEvO.jpg", "genre_ids": [99], "id": 541574, "original_language": "en", "original_title": "Ghost Fleet", "overview": "Ghost Fleet follows a small group of activists who risk their lives on remote Indonesian islands to find justice and freedom for the enslaved fishermen who feed the world\u2019s insatiable appetite for seafood. Bangkok-based Patima Tungpuchayakul, a Thai abolitionist, has committed her life to helping these \u201clost\u201d men return home. Facing illness, death threats, corruption, and complacency, Patima\u2019s fearless determination for justice inspires her nation and the world.", "poster_path": "/6rPf09nQuOrWGwKvPSuZq3nEJ8i.jpg", "release_date": "2018-08-31", "title": "Ghost Fleet", "video": false, "vote_average": 0.0, "vote_count": 0, "popularity": 3.39}, {"adult": false, "backdrop_path": null, "genre_ids": [99], "id": 107201, "original_language": "en", "original_title": "Redlight", "overview": "A powerful feature documentary about child sexploitation, an epidemic happening in every country around the world. Filmed over a four year period, REDLIGHT focuses on the personal stories of young Cambodian victims and two remarkable advocates for change: grass-roots activist Somaly Mam and politician Mu Sochua. Using gritty footage smuggled out of brothels and harrowing testimonials, REDLIGHT follows the plight of several current and former child sex slaves. Some are trying to regain entry into Cambodian society to find some semblance of normality after their horrific experiences. Other stories highlight the plight of victims who are attempting to bring the perpetrators to justice. Their torturous yet ultimately heroic battles to find witnesses and take brothel owners to court are dramatically brought to life in this topical and moving feature documentary.", "poster_path": "/79sgYhTnRYEjd6ZJ256kDCzROb.jpg", "release_date": "2009-10-04", "title": "Redlight", "video": false, "vote_average": 8.0, "vote_count": 2, "popularity": 1.929}, {"adult": false, "backdrop_path": "/i97gSNhdFCeeFLBkuPUPV8THNq7.jpg", "genre_ids": [36, 37], "id": 149114, "original_language": "en", "original_title": "Seven Angry Men", "overview": "Director Charles Marquis Warren's 1955 period drama about abolitionist John Brown's crusade to free the slaves stars Raymond Massey, Jeffrey Hunter, Debra Paget, Larry Pennell, Leo Gordon, James Best, John Smith, Dennis Weaver, James Edwards, Guy Williams, James Anderson, Dabbs Greer, Robert \"Smoki\" Whitfield and Tom Irish.", "poster_path": "/aYgYO6u6LGOW4Wp9lC7W9HVeG0n.jpg", "release_date": "1955-03-27", "title": "Seven Angry Men", "video": false, "vote_average": 5.3, "vote_count": 3, "popularity": 2.028}, {"adult": false, "backdrop_path": "/ni58qEYgFsWsV0DH78kOQnlWoM4.jpg", "genre_ids": [], "id": 37566, "original_language": "nb", "original_title": "Sigurd Drakedreper", "overview": "Sigurd Drakedreper is a film about Sigurd growing up in a time when conflicts are resolved with weapons. Sigurd is named after a great tale hero, Sigurd F\u00e5vnesbane. It is expected that he will grow up and become a strong Viking, like all in his family. He will lead blood revenge on and avenge the murder of his brother. Illugene, which enemies lurks somewhere out there in the dark! Based on the book by Torill Thorstad Hauger.", "poster_path": "/rTQdZeCM5Xe2vK0SIr98sHjwF3d.jpg", "release_date": "1989-01-01", "title": "The Littlest Viking", "video": false, "vote_average": 8.0, "vote_count": 1, "popularity": 2.074}, {"adult": false, "backdrop_path": "/glkCbTypII55PhdJXSW9g59UCxI.jpg", "genre_ids": [99], "id": 371961, "original_language": "pt", "original_title": "Menino 23: Inf\u00e2ncias Perdidas no Brasil", "overview": "The film accompanies the investigation of the historian Sidney Aguilar after the discovery of bricks marked with Nazi swastikas in the interior of S\u00e3o Paulo. They then discover a horrifying fact that during the 1930s, fifty black and mullato boys were taken from an orphanage in Rio de Janeiro to the farm where the bricks were found. There they were identified by numbers and were submitted to slave labour by a family that was part of the political and economic elite of the country and who did not hide their Nazi sympathizing ideals.", "poster_path": "/yEr03pM5dlWV8bUrVfNddOlaplT.jpg", "release_date": "2016-07-07", "title": "Boy 23: The Forgotten Boys of Brazil", "video": false, "vote_average": 7.8, "vote_count": 12, "popularity": 1.066}, {"adult": false, "backdrop_path": "/yny6xMuJfDHHLRGvwx7UiEXIsdj.jpg", "genre_ids": [99, 36], "id": 308456, "original_language": "en", "original_title": "The Abolitionists", "overview": "Radicals. Agitators. Troublemakers. Liberators. Called many names, the abolitionists tore the nation apart in order to create a more perfect union. Men and women, black and white, Northerners and Southerners, poor and wealthy\u2014these passionate anti-slavery activists fought body and soul in the most important civil rights crusade in American history. What began as a pacifist movement fueled by persuasion and prayer became a fiery and furious struggle that forever changed the nation.  The Abolitionists takes place during some of the most violent and contentious decades in American history. It reveals how the movement shaped history by exposing the fatal flaw of a republic founded on liberty for some and bondage for others. In the face of personal risks\u2014beating, imprisonment, even death\u2014abolitionists held fast to their cause, laying the civil rights groundwork for the future and raising weighty constitutional and moral questions that are still with us today.", "poster_path": "/o13ZN26qjYtizQb6s3wsFCmX3NC.jpg", "release_date": "2013-01-08", "title": "The Abolitionists", "video": true, "vote_average": 0.0, "vote_count": 0, "popularity": 1.687}, {"adult": false, "backdrop_path": "/kZrJ94zcfgwMtyfavErmkJEkmZh.jpg", "genre_ids": [99, 18], "id": 179472, "original_language": "en", "original_title": "Rape for Profit", "overview": "An up-close look at the true nature of the sex trade. The film unveils a growing problem in major U.S. cities where girls as young as 12 years old are bought and sold as many as 15 times a night to service the desires of men. Experience the shocking truth and follow several heroes as they fight to end this modern-day slavery and stop the next generation of buyers.", "poster_path": "/2AhelcaDtdpmWCrH2Ncy0LIr4YM.jpg", "release_date": "2012-12-07", "title": "Rape for Profit", "video": false, "vote_average": 5.8, "vote_count": 4, "popularity": 3.791}, {"adult": false, "backdrop_path": "/vo698bNBfCukZxymI09CjgozBj0.jpg", "genre_ids": [10751], "id": 492530, "original_language": "he", "original_title": "\u05d4\u05d2\u05d9\u05d1\u05d5\u05e8\u05d9\u05dd - \u05de\u05e9\u05d9\u05de\u05d4 \u05d1\u05d2'\u05d5\u05e0\u05d2\u05dc", "overview": "", "poster_path": "/214VT6JyyAPwjwcHth5JXUmaOOA.jpg", "release_date": "2013-01-01", "title": "\u05d4\u05d2\u05d9\u05d1\u05d5\u05e8\u05d9\u05dd - \u05de\u05e9\u05d9\u05de\u05d4 \u05d1\u05d2'\u05d5\u05e0\u05d2\u05dc", "video": false, "vote_average": 0.0, "vote_count": 0, "popularity": 0.6}, {"adult": false, "backdrop_path": "/xAirQx5XNuGBvKuuNKKkLxhqJ4z.jpg", "genre_ids": [10751], "id": 500611, "original_language": "he", "original_title": "\u05d3\u05d5\u05d3 \u05d7\u05d9\u05d9\u05dd - \u05d4\u05d8\u05d9\u05d5\u05dc \u05d0\u05dc \u05d4\u05d0\u05d5\u05e6\u05e8", "overview": "", "poster_path": "/ffeoWdxL6TaevBITkcLRyCqZNux.jpg", "release_date": "2014-01-01", "title": "\u05d3\u05d5\u05d3 \u05d7\u05d9\u05d9\u05dd - \u05d4\u05d8\u05d9\u05d5\u05dc \u05d0\u05dc \u05d4\u05d0\u05d5\u05e6\u05e8", "video": false, "vote_average": 0.0, "vote_count": 0, "popularity": 0.6}, {"adult": false, "backdrop_path": "/7UjafeAWUNXbYSiEryB4JyFilSe.jpg", "genre_ids": [10751], "id": 500625, "original_language": "he", "original_title": "\u05d2\u05d9\u05d1\u05d5\u05e8\u05d9 \u05d4\u05d0\u05d5\u05e8 - \u05e2\u05d5\u05e9\u05d9\u05dd \u05e0\u05d9\u05e1\u05d9\u05dd \u05d5\u05e0\u05e4\u05dc\u05d0\u05d5\u05ea", "overview": "", "poster_path": "/m9vUl4LobkRbTumHWzGqgeEznv.jpg", "release_date": "2016-01-01", "title": "\u05d2\u05d9\u05d1\u05d5\u05e8\u05d9 \u05d4\u05d0\u05d5\u05e8 - \u05e2\u05d5\u05e9\u05d9\u05dd \u05e0\u05d9\u05e1\u05d9\u05dd \u05d5\u05e0\u05e4\u05dc\u05d0\u05d5\u05ea", "video": false, "vote_average": 0.0, "vote_count": 0, "popularity": 0.6}, {"adult": false, "backdrop_path": "/vlsWfCT1rdzQfF1QiUpVZbNxpkV.jpg", "genre_ids": [10751], "id": 434318, "original_language": "he", "original_title": "\u05de\u05d5\u05ea\u05e7 \u05e9\u05dc \u05e4\u05e1\u05d8\u05d9\u05d1\u05dc 9  - \u05d9\u05d5\u05e6\u05d0\u05d9\u05dd \u05dc\u05d3\u05e8\u05da", "overview": "", "poster_path": "/kVKyAaIsDy2lSAATP9oJziFFlg9.jpg", "release_date": "2016-01-01", "title": "Motek Shel Pestival 9 Yotzim Laderech", "video": false, "vote_average": 0.0, "vote_count": 0, "popularity": 1.144}, {"adult": false, "backdrop_path": "/vVo1YTrJbDRHJ3shtJnbCL4pMCz.jpg", "genre_ids": [10751], "id": 494717, "original_language": "he", "original_title": "\u05d0\u05e7\u05d5\u05e0\u05d4 \u05de\u05d8\u05d8\u05d4: \u05e1\u05d9\u05de\u05d1\u05d4 \u05de\u05dc\u05da \u05d4\u05d7\u05d9\u05d5\u05ea", "overview": "", "poster_path": "/5V4h0tY3lAIslfmJIRDlV2Z6Uyo.jpg", "release_date": "2017-12-01", "title": "\u05d0\u05e7\u05d5\u05e0\u05d4 \u05de\u05d8\u05d8\u05d4: \u05e1\u05d9\u05de\u05d1\u05d4 \u05de\u05dc\u05da \u05d4\u05d7\u05d9\u05d5\u05ea", "video": false, "vote_average": 0.0, "vote_count": 0, "popularity": 0.614}, {"adult": false, "backdrop_path": null, "genre_ids": [99], "id": 597483, "original_language": "en", "original_title": "Fatal Promises", "overview": "Every year, an estimated 800,000 persons are trafficked across international borders and forced into sexual or labour servitude. Estimates are that as many as 32 million people yearly are held in slave-like conditions for sexual or labour exploitation, 2.4 million of these individuals as a result of being trafficked. They are promised good jobs or pay, but end up forced into prostitution or working in servitude for no pay. They are emotionally and physically brutalized, starved, forced to work extremely long hours, stripped of their passports and locked away, and eventually discarded or worse, murdered. Eight years after the United Nations established the Palermo Protocol to Prevent, Suppress and Punish Trafficking in Persons, \"Fatal Promises\" offers a comprehensive look at the realities on the ground versus the rhetoric of today.", "poster_path": "/pzdWE9HPPVz4j8wJAzTpSKyqG0w.jpg", "release_date": "", "title": "Fatal Promises", "video": false, "vote_average": 0.0, "vote_count": 0, "popularity": 0.6}], "total_pages": 2, "total_results": 28}, "recommendations": {"page": 1, "results": [], "total_pages": 1, "total_results": 0}, "credits": {"cast": [{"cast_id": 0, "character": "Narrator (voice)", "credit_id": "5477dff39251415d7a003468", "gender": 1, "id": 515, "name": "Glenn Close", "order": 1, "profile_path": "/fF6tCfuvuUhaePm5onUNnIE4FvL.jpg"}], "crew": [{"credit_id": "5477e00cc3a3685873000aef", "department": "Writing", "gender": 0, "id": 1390220, "job": "Writer", "name": "Robert Bilheimer", "profile_path": null}, {"credit_id": "5477e015c3a36836cc003bd0", "department": "Directing", "gender": 0, "id": 1390220, "job": "Director", "name": "Robert Bilheimer", "profile_path": null}, {"credit_id": "5477e037c3a368218d003433", "department": "Directing", "gender": 0, "id": 1390221, "job": "Director", "name": "Richard Young", "profile_path": null}]}}