{"adult": false, "backdrop_path": null, "belongs_to_collection": null, "budget": 0, "genres": [{"id": 18, "name": "Drama"}], "homepage": "", "id": 307677, "imdb_id": "tt0084082", "original_language": "en", "original_title": "Home Sweet Home", "overview": "Three postal workers and their dysfunctional families interact over cups of tea and Sunday dinner.", "popularity": 1.83, "poster_path": "/r0P0Z19fKDvxyGJzpCouySRP6bN.jpg", "production_companies": [{"id": 3324, "logo_path": "/16fY7pucCzn7WSOYxOGRHlAayL3.png", "name": "BBC", "origin_country": "GB"}], "production_countries": [{"iso_3166_1": "GB", "name": "United Kingdom"}], "release_date": "1982-03-16", "revenue": 0, "runtime": 95, "spoken_languages": [], "status": "Released", "tagline": "", "title": "Home Sweet Home", "video": false, "vote_average": 6.0, "vote_count": 2, "keywords": {"keywords": [{"id": 596, "name": "adultery"}, {"id": 4461, "name": "postman"}, {"id": 208400, "name": "foster care"}]}, "similar": {"page": 1, "results": [{"adult": false, "backdrop_path": "/84kMxZoaw958LrBNqSQqxFJEDXI.jpg", "genre_ids": [18, 10749], "id": 27066, "original_language": "it", "original_title": "L'uomo che guarda", "overview": "At a college in Rome, a professor, nicknamed \"Dodo\" is in a deep depression. His stunningly beautiful wife has just left him for another man. Dodo wants her back very badly and has erotic daydreams about her. A beautiful young student in his class asks him for a ride home and seduces the lucky man, but still he wonders about his wife and her lover.", "poster_path": "/ndMErDbUC7lSiKoWeUfzdMs3OpV.jpg", "release_date": "1994-01-27", "title": "The Voyeur", "video": false, "vote_average": 4.4, "vote_count": 82, "popularity": 11.247}, {"adult": false, "backdrop_path": "/ecREZ3vYCqethftSDWK4we0X498.jpg", "genre_ids": [35, 18, 10749], "id": 4507, "original_language": "es", "original_title": "Jam\u00f3n, jam\u00f3n", "overview": "Jose Luis is an executive at his parents underwear factory where his girlfriend Sylvia works on the shop floor. When Sylvia becomes pregnant, Jose Luis promises her that he will marry her, most likely against the wishes of his parents. Jose Luis' mother is determined to break her son's engagement to a girl from a lower-class family, and hires Raul, a potential underwear model and would-be bullfighter to seduce Sylvia.", "poster_path": "/v5Fq01ZtYnA2Grxdd3g8CuGZARg.jpg", "release_date": "1992-09-03", "title": "Jamon Jamon", "video": false, "vote_average": 6.1, "vote_count": 143, "popularity": 13.381}, {"adult": false, "backdrop_path": "/pHWPhvJDuIU97O0zJKdDlGr6tFV.jpg", "genre_ids": [18, 10749], "id": 283227, "original_language": "en", "original_title": "A Little Chaos", "overview": "A landscape gardener is hired by famous architect Le N\u00f4tre to construct the grand gardens at the palace of Versailles. As the two work on the palace, they find themselves drawn to each other and are thrown into rivalries within the court of King Louis XIV.", "poster_path": "/8Q8q0oBI99tfw3x5ozoKEtHKvO0.jpg", "release_date": "2015-03-26", "title": "A Little Chaos", "video": false, "vote_average": 6.3, "vote_count": 439, "popularity": 9.378}, {"adult": false, "backdrop_path": "/zA1Tv2C2wXeDSWfn3S8XdElqDFG.jpg", "genre_ids": [35, 18], "id": 37265, "original_language": "it", "original_title": "Cos\u00ec fan tutte", "overview": "Diana is a Roman wife happily married to sympathetic Paolo but she is keen on playing benign games of seduction with other men while resisting the advances of chic lingerie shop owner Silvio. She narrates her adventures to Paolo in order to stimulate their otherwise monotonous sexual life. However, under the influence of her lesbian friend Antonietta and raunchy sister Nadia, Diana starts to move the ongoings further while Paolo is still prone to believing that events narrated by her are merely fantasies.", "poster_path": "/h5xsSUCkXCd0696K5A9hkmgaERE.jpg", "release_date": "1992-02-21", "title": "All Ladies Do It", "video": false, "vote_average": 4.2, "vote_count": 207, "popularity": 9.964}, {"adult": false, "backdrop_path": "/bYbnlh6VXFRtcSX82UMDsBDLB5j.jpg", "genre_ids": [18, 10749], "id": 28468, "original_language": "it", "original_title": "La chiave", "overview": "After twenty years of marriage, art professor Nino Rolfe attempts to break down his wife Teresa's conventional modesty. Noticing her affection for their daughter's fianc\u00e9, Nino instigates her sexual interest in him as well. This sets off a chain of unexpected events and emotional complications, as Nino and his unpredictable fascist daughter find that they both enjoy being jealous.", "poster_path": "/e6g2geNLgFzMbriH6EvSJZD78nx.jpg", "release_date": "1983-10-18", "title": "The Key", "video": false, "vote_average": 5.0, "vote_count": 128, "popularity": 15.363}, {"adult": false, "backdrop_path": "/Ao2bnJMmcFepMVw1BUay25tt7TM.jpg", "genre_ids": [18, 10749], "id": 1259, "original_language": "en", "original_title": "Notes on a Scandal", "overview": "A veteran high school teacher befriends a younger art teacher, who is having an affair with one of her 15-year-old students. However, her intentions with this new \"friend\" also go well beyond platonic friendship.", "poster_path": "/lXZa1mHZ8eD0VOpNaLfvM9tSpAj.jpg", "release_date": "2006-12-25", "title": "Notes on a Scandal", "video": false, "vote_average": 7.1, "vote_count": 463, "popularity": 12.753}, {"id": 35685, "video": false, "vote_count": 30, "vote_average": 5.3, "title": "Lady Chatterley's Lover", "release_date": "1981-06-29", "original_language": "en", "original_title": "Lady Chatterley's Lover", "genre_ids": [18, 10749], "backdrop_path": "/xVJ9VCXvRIwWWjt1x0GvMV0bV3e.jpg", "adult": false, "overview": "A film adaptation of D.H. Lawrence's novel. After a crippling injury leaves her husband impotent, Lady Chatterly is torn between her love for her husband and her physical desires. With her husband's consent, she seeks out other means of fulfilling her needs.", "poster_path": "/kUfYxFkRotm3frocEf0A25rXawV.jpg", "popularity": 9.336}, {"id": 263472, "video": false, "vote_count": 1669, "vote_average": 5.0, "title": "Knock Knock", "release_date": "2015-06-26", "original_language": "en", "original_title": "Knock Knock", "genre_ids": [18, 53], "backdrop_path": "/gJduaRau3X2oE3xkmjs1FufT2GE.jpg", "adult": false, "overview": "When a devoted husband and father is left home alone for the weekend, two stranded young women unexpectedly knock on his door for help. What starts out as a kind gesture results in a dangerous seduction and a deadly game of cat and mouse.", "poster_path": "/eynMtjBB1fXsB5vsQylVmsDLmvw.jpg", "popularity": 19.205}, {"adult": false, "backdrop_path": "/nnAu82OrkswP23jpO8loFCDcOGR.jpg", "genre_ids": [18, 10749], "id": 38867, "original_language": "en", "original_title": "Delta of Venus", "overview": "A struggling American writer and a fellow American expatriate begin a sordid affair among the chaos and discord of 1940 Paris, France on the brink of World War II.", "poster_path": "/tV3GHas7BjqjNB6ta4SvL4TS6fv.jpg", "release_date": "1995-06-09", "title": "Delta of Venus", "video": false, "vote_average": 3.6, "vote_count": 12, "popularity": 9.997}, {"adult": false, "backdrop_path": "/fODNcRUif6WCYpPCJeL3q3zo7lc.jpg", "genre_ids": [18, 53, 10749], "id": 4823, "original_language": "en", "original_title": "Final Analysis", "overview": "Barr is a psychiatrist who falls in love with the sister of one of his clients. She's beautiful and married to a gangster. She hates her husband but is unable to escape from him.", "poster_path": "/e8fXQhLhgSbPd9zKNQPiAS8O8qW.jpg", "release_date": "1992-02-07", "title": "Final Analysis", "video": false, "vote_average": 5.6, "vote_count": 123, "popularity": 11.463}, {"adult": false, "backdrop_path": "/tMxCVvecIGr2mxpFt6XISKQTghD.jpg", "genre_ids": [18, 10749, 53], "id": 36630, "original_language": "en", "original_title": "Zandalee", "overview": "Bored with her marriage to burnt out poet turned corporate executive Thierry, Zandalee falls prey to an old friend of her husband, the manipulative and egotistical Johhny and becomes enmeshed in a sensual, passionate and destructive affair.", "poster_path": "/2htCUPJ6IsosO44lbN5XLfjDDhR.jpg", "release_date": "1991-05-09", "title": "Zandalee", "video": false, "vote_average": 4.2, "vote_count": 36, "popularity": 9.206}, {"id": 9962, "video": false, "vote_count": 314, "vote_average": 6.0, "title": "The Good Girl", "release_date": "2002-01-12", "original_language": "en", "original_title": "The Good Girl", "genre_ids": [35, 18, 10749], "backdrop_path": "/gY2qB8EFgiCZTQSgcWoZov3w7eH.jpg", "adult": false, "overview": "A discount store clerk strikes up an affair with a stock boy who considers himself the incarnation of Holden Caulfield.", "poster_path": "/21AacCArwM5hQ8fYPRA0WKZviiN.jpg", "popularity": 10.13}, {"adult": false, "backdrop_path": "/vVK04ayDtN2186jgkCtFjvw8IlN.jpg", "genre_ids": [18, 10749], "id": 4148, "original_language": "en", "original_title": "Revolutionary Road", "overview": "A young couple living in a Connecticut suburb during the mid-1950s struggle to come to terms with their personal problems while trying to raise their two children. Based on a novel by Richard Yates.", "poster_path": "/bnOK1lmdlqdy2HX6IgKx9TQD7Ax.jpg", "release_date": "2008-12-19", "title": "Revolutionary Road", "video": false, "vote_average": 6.9, "vote_count": 2092, "popularity": 19.466}, {"id": 20024, "video": false, "vote_count": 116, "vote_average": 6.7, "title": "The End of the Affair", "release_date": "1999-12-03", "original_language": "en", "original_title": "The End of the Affair", "genre_ids": [18], "backdrop_path": "/sUPWjskNXip394SxoknaBuyLuUL.jpg", "adult": false, "overview": "On a rainy London night in 1946, novelist Maurice Bendrix has a chance meeting with Henry Miles, husband of his ex-mistress Sarah, who abruptly ended their affair two years before. Bendrix's obsession with Sarah is rekindled; he succumbs to his own jealousy and arranges to have her followed.", "poster_path": "/a0FPMCXTtQSMsTtq7JvQQXHPNPi.jpg", "popularity": 10.425}, {"adult": false, "backdrop_path": "/4mW43spzqUaE2hx9t72SP1rLVGz.jpg", "genre_ids": [35, 18], "id": 32868, "original_language": "en", "original_title": "The Vicious Kind", "overview": "A man tries to warn his brother away from the new girlfriend he brings home during Thanksgiving, but ends up becoming infatuated with her in the process.", "poster_path": "/oJ2fX0JJ99dpyjkU0N1XRyw7XCE.jpg", "release_date": "2009-01-17", "title": "The Vicious Kind", "video": false, "vote_average": 6.3, "vote_count": 67, "popularity": 6.134}, {"id": 12531, "video": false, "vote_count": 91, "vote_average": 6.9, "title": "The Apartment", "release_date": "1996-07-27", "original_language": "fr", "original_title": "L'Appartement", "genre_ids": [18, 9648, 10749], "backdrop_path": "/64qyT8m4JQ6YODvXxtbHgKmXBX7.jpg", "adult": false, "overview": "A stylish suspense thriller that confounds the audience while presenting them with an extraordinary and elusive mystery. Max is a former playboy who has decided to settle down by marrying his current love, Muriel. However, during a business trip, Max catches a glimpse of the great lost love of his life, reviving his wanderlust and sending him off on a chase of the elusive Lisa, whom he had overheard suggesting to a friend that her lover, Daniel, had killed someone for her. Soon, Max is trying to unravel the mystery behind the suspicious death of Daniel's wife, which he hopes will lead him closer to Lisa.", "poster_path": "/1sqrQdQTn8jKLhUcPKfRVj639zA.jpg", "popularity": 19.17}, {"id": 14, "video": false, "vote_count": 7295, "vote_average": 8.0, "title": "American Beauty", "release_date": "1999-09-15", "original_language": "en", "original_title": "American Beauty", "genre_ids": [18], "backdrop_path": "/z5J18ByLeOZ68iORfMXmxeFuwyL.jpg", "adult": false, "overview": "Lester Burnham, a depressed suburban father in a mid-life crisis, decides to turn his hectic life around after developing an infatuation with his daughter's attractive friend.", "poster_path": "/or1MP8BZIAjqWYxPdPX724ydKar.jpg", "popularity": 28.789}, {"adult": false, "backdrop_path": "/fAA0S3rM3o5Sp8TIdS0MvWOGsCQ.jpg", "genre_ids": [18, 10749], "id": 843, "original_language": "cn", "original_title": "\u82b1\u6a23\u5e74\u83ef", "overview": "Taking place in Hong Kong of 1962, a melancholy story about the love between a woman and a man who live in the same building and one day find out that their husband and wife had an affair with each other.", "poster_path": "/unOW3SxFxBdd7LMWjmRONdHWKPb.jpg", "release_date": "2000-05-22", "title": "In the Mood for Love", "video": false, "vote_average": 8.1, "vote_count": 963, "popularity": 21.272}, {"id": 521, "video": false, "vote_count": 1257, "vote_average": 8.0, "title": "Dial M for Murder", "release_date": "1954-05-29", "original_language": "en", "original_title": "Dial M for Murder", "genre_ids": [80, 18, 9648, 53], "backdrop_path": "/jVMlfESb0TJ29w8CUDDofEprMmn.jpg", "adult": false, "overview": "An ex-tennis pro carries out a plot to have his wife murdered after discovering she is having an affair, and assumes she will soon leave him for the other man anyway. When things go wrong, he improvises a new plan\u2014to frame her for murder instead.", "poster_path": "/xrpK1PyckNWmRxU4kZURfaCyboS.jpg", "popularity": 28.336}, {"adult": false, "backdrop_path": "/98ahnrena4PwLth7HFYGLf9yssH.jpg", "genre_ids": [35, 18, 10749], "id": 22705, "original_language": "it", "original_title": "Tra(sgre)dire", "overview": "While scouting out apartments in London for her Venetian boyfriend, Carla rents an apartment that overlooks the Thames. There she meet the lesbian hyper-horny real estate agent Moira.", "poster_path": "/kZITrLEiTfzzJhtwtXhQUl3ImCQ.jpg", "release_date": "2000-01-28", "title": "Cheeky", "video": false, "vote_average": 5.7, "vote_count": 92, "popularity": 30.42}], "total_pages": 147, "total_results": 2925}, "recommendations": {"page": 1, "results": [], "total_pages": 1, "total_results": 0}, "credits": {"cast": [{"cast_id": 1, "character": "Stan", "credit_id": "547f0b9b92514124aa0014bb", "gender": 2, "id": 1228245, "name": "Eric Richard", "order": 0, "profile_path": "/k7IYhJIBjlLtz5wn77GWvBY3iQm.jpg"}, {"cast_id": 4, "character": "Tina", "credit_id": "547f0bbb92514124aa0014c1", "gender": 0, "id": 1229087, "name": "Lorraine Brunning", "order": 1, "profile_path": null}, {"cast_id": 8, "character": "Hazel", "credit_id": "5ae2130e92514124c7013fa5", "gender": 0, "id": 1234132, "name": "Kay Stonham", "order": 2, "profile_path": null}, {"cast_id": 2, "character": "Gordon", "credit_id": "547f0ba492514124bb0013e1", "gender": 2, "id": 9191, "name": "Timothy Spall", "order": 3, "profile_path": "/yMClxMrLdOXk37RGvrqJEWjg9ko.jpg"}, {"cast_id": 6, "character": "June", "credit_id": "547f0bd7c3a368396f001520", "gender": 1, "id": 1221007, "name": "Su Elliott", "order": 4, "profile_path": "/6IlvNaDF0JRF9hhIVTOEyLDjS36.jpg"}, {"cast_id": 5, "character": "Harold", "credit_id": "547f0bcbc3a368396c001480", "gender": 2, "id": 1233935, "name": "Tim Barker", "order": 5, "profile_path": "/89oNUA0frz7jXlFztP2B2fl0rDw.jpg"}, {"cast_id": 3, "character": "Melody", "credit_id": "547f0bb392514124ad001396", "gender": 1, "id": 47644, "name": "Frances Barber", "order": 6, "profile_path": "/4yidelE9PA8L1COtiYQ2T3ltsRH.jpg"}, {"cast_id": 9, "character": "Dave", "credit_id": "5ae2132bc3a368769a016850", "gender": 0, "id": 1748913, "name": "Lloyd Peters", "order": 7, "profile_path": null}, {"cast_id": 7, "character": "Janice", "credit_id": "547f0beb92514124b900131e", "gender": 1, "id": 90762, "name": "Sheila Kelley", "order": 8, "profile_path": null}, {"cast_id": 10, "character": "Kelly", "credit_id": "5ae2134192514124be013ab8", "gender": 0, "id": 2030350, "name": "Heidi Laratta", "order": 9, "profile_path": null}, {"cast_id": 11, "character": "Man in Dressing Gown", "credit_id": "5ae213550e0a262a55016313", "gender": 2, "id": 72308, "name": "Paul Jesson", "order": 10, "profile_path": "/qcPu5ECNGAvvYosZxFMMBJDJQoK.jpg"}], "crew": [{"credit_id": "5e1aa8ca6c19ea0013919d2a", "department": "Crew", "gender": 2, "id": 1251, "job": "Cinematography", "name": "Remi Adefarasin", "profile_path": null}, {"credit_id": "5e1aa8da6c19ea0013919d6a", "department": "Editing", "gender": 0, "id": 17254, "job": "Editor", "name": "Robin Sales", "profile_path": null}, {"credit_id": "547f0b7fc3a368395e0014e0", "department": "Directing", "gender": 2, "id": 65452, "job": "Director", "name": "Mike Leigh", "profile_path": "/8XRn5NVroFeqVyRtk0aiuVoe6Ff.jpg"}, {"credit_id": "5e1aa8b43520e8001334c9d8", "department": "Writing", "gender": 2, "id": 65452, "job": "Writer", "name": "Mike Leigh", "profile_path": "/8XRn5NVroFeqVyRtk0aiuVoe6Ff.jpg"}, {"credit_id": "5e1aa9286c19ea0011919f60", "department": "Production", "gender": 2, "id": 153211, "job": "Producer", "name": "Louis Marks", "profile_path": null}, {"credit_id": "5e1aa9163520e8001734d138", "department": "Costume & Make-Up", "gender": 0, "id": 1407880, "job": "Costume Design", "name": "Michael Burdle", "profile_path": null}, {"credit_id": "5e1aa93ee194b00016b4eca1", "department": "Costume & Make-Up", "gender": 0, "id": 1408062, "job": "Makeup Artist", "name": "Elizabeth Moss", "profile_path": null}, {"credit_id": "5e1aa8f1e7c0970013527d56", "department": "Sound", "gender": 0, "id": 2507685, "job": "Music", "name": "Carl Davis", "profile_path": null}, {"credit_id": "5e1aa906e7c0970015527e59", "department": "Art", "gender": 0, "id": 2507687, "job": "Production Design", "name": "Bryan Ellis", "profile_path": null}]}}