{"adult": false, "backdrop_path": null, "belongs_to_collection": null, "budget": 0, "genres": [{"id": 99, "name": "Documentary"}], "homepage": null, "id": 30906, "imdb_id": "tt1104783", "original_language": "en", "original_title": "Frontrunners", "overview": "A documentary on the competition for student body president at New York's Stuyvesant High School. As the notoriously competitive school's election draws near, the campaign becomes a microcosm for the nation at large, with race, gender and appearance vying for attention with real issues.", "popularity": 1.155, "poster_path": "/zMfxtZhutFoYL1gSTVYrbP9MjXM.jpg", "production_companies": [], "production_countries": [], "release_date": "2008-10-15", "revenue": 0, "runtime": 80, "spoken_languages": [], "status": "Released", "tagline": "", "title": "Frontrunners", "video": false, "vote_average": 6.4, "vote_count": 5, "keywords": {"keywords": [{"id": 271, "name": "competition"}, {"id": 6270, "name": "high school"}, {"id": 15134, "name": "election"}, {"id": 164478, "name": "candidate"}, {"id": 187056, "name": "woman director"}]}, "similar": {"page": 1, "results": [{"adult": false, "backdrop_path": "/by0WtpJ5UNxOy6ytIfPPTasbRoB.jpg", "genre_ids": [28, 12, 35, 18, 10751, 10402, 10749], "id": 17130, "original_language": "en", "original_title": "Crossroads", "overview": "Three friends get together and bury a box making a pact to open it at midnight at their high school graduation. In the little town in Georgia that they live in, things soon change. One is little miss perfect, one is an engaged prom queen, and the other is a pregnant outcast. The night of graduation, they open the box and they strike up a conversation. All of a sudden, one brings up the topic of her going to Los Angeles for a record contract audition. They all decide to go together and they leave. With a little money, they set out on the road with a guy named Ben. When one of them tells the other a rumor that he might be a homicidal maniac they are all scared of him. When they reach LA, Lucy falls in love with Ben and against her father's wishes, she stays and she goes to the audition.", "poster_path": "/egIs4cWxn0iBErFKrQ7STckjj49.jpg", "release_date": "2002-02-15", "title": "Crossroads", "video": false, "vote_average": 5.0, "vote_count": 334, "popularity": 12.973}, {"adult": false, "backdrop_path": "/2oG0ggdMliMDjenw00eSwZFypUp.jpg", "genre_ids": [35, 18], "id": 376660, "original_language": "en", "original_title": "The Edge of Seventeen", "overview": "Two high school girls are best friends until one dates the other's older brother, who is totally his sister's nemesis.", "poster_path": "/gxK80WUwkQePpXpzRdpob0i7DD5.jpg", "release_date": "2016-11-18", "title": "The Edge of Seventeen", "video": false, "vote_average": 7.2, "vote_count": 2515, "popularity": 12.687}, {"id": 616584, "video": false, "vote_count": 92, "vote_average": 7.5, "title": "K-12", "release_date": "2019-09-05", "original_language": "en", "original_title": "K-12", "genre_ids": [14, 27, 10402], "backdrop_path": "/fSlfaF0Ydfr2SK6hOYHvDsb7a9Z.jpg", "adult": false, "overview": "Cry Baby, a strong and sensitive girl, is sent off to a disturbing sleepaway school that\u2019s hidden underneath a grandiose fa\u00e7ade. Luckily, she has a sweet and unapologetic best friend who sticks up for her when she gets bullied by the other students whose brains are under control by the Principal and his wicked staff. With the help of the magical friends they meet along the way, as well as an Angelic Spirit Guide, they are able to gain the strength they need to fight off the school\u2019s belligerent patriarchal conditioning.", "poster_path": "/nVi0yBBPj5Z96JgGWVIg94kv7bR.jpg", "popularity": 18.105}, {"id": 9813, "video": false, "vote_count": 128, "vote_average": 6.1, "title": "The Quiet", "release_date": "2005-09-12", "original_language": "en", "original_title": "The Quiet", "genre_ids": [18, 53], "backdrop_path": "/6eyWAZA4CEidZW1xXnQ4vlYBXTP.jpg", "adult": false, "overview": "After her widowed father dies, deaf teenager Dot moves in with her godparents, Olivia and Paul Deer. The Deers' daughter, Nina, is openly hostile to Dot, but that does not prevent her from telling her secrets to her silent stepsister, including the fact that she wants to kill her lecherous father.", "poster_path": "/GEqIE9YlmygHVUfS64LW2cwAAM.jpg", "popularity": 13.948}, {"id": 248574, "video": false, "vote_count": 645, "vote_average": 5.7, "title": "Barely Lethal", "release_date": "2015-04-30", "original_language": "en", "original_title": "Barely Lethal", "genre_ids": [28, 12, 35], "backdrop_path": "/scoMZVgdqBM7vqZaEbhQXJd7jOL.jpg", "adult": false, "overview": "A 16-year-old international assassin yearning for a \"normal\" adolescence fakes her own death and enrolls as a senior in a suburban high school. She quickly learns that being popular can be more painful than getting water-boarded.", "poster_path": "/nJm0vGJVyELlQEzHRq22vi2JHbW.jpg", "popularity": 13.213}, {"id": 15144, "video": false, "vote_count": 1219, "vote_average": 6.8, "title": "Sixteen Candles", "release_date": "1984-05-04", "original_language": "en", "original_title": "Sixteen Candles", "genre_ids": [35, 10749], "backdrop_path": "/xCIgY4mUmO4tbDVlntym9PdZ9H8.jpg", "adult": false, "overview": "A teenage girl deals with her parents forgetting her birthday and a crush on her high school's heartthrob.", "poster_path": "/rzTrRQg5ek47Yl0Vfenc69r9gOd.jpg", "popularity": 27.185}, {"id": 466282, "video": false, "vote_count": 5265, "vote_average": 7.9, "title": "To All the Boys I've Loved Before", "release_date": "2018-08-16", "original_language": "en", "original_title": "To All the Boys I've Loved Before", "genre_ids": [35, 10749], "backdrop_path": "/uZTtVdOEIwPA6vwVRI3217DoPM.jpg", "adult": false, "overview": "Lara Jean's love life goes from imaginary to out of control when her secret letters to every boy she's ever fallen for are mysteriously mailed out.", "poster_path": "/hKHZhUbIyUAjcSrqJThFGYIR6kI.jpg", "popularity": 39.96}, {"adult": false, "backdrop_path": "/ncERp0UvXuImUeJcf27kEANcf1r.jpg", "genre_ids": [35, 10751, 10749], "id": 9880, "original_language": "en", "original_title": "The Princess Diaries", "overview": "A socially awkward but very bright 15-year-old girl being raised by a single mom discovers that she is the princess of a small European country because of the recent death of her long-absent father, who, unknown to her, was the crown prince of Genovia. She must make a choice between continuing the life of a San Francisco teen or stepping up to the throne.", "poster_path": "/sxpvHk286sXLJWcFrBMNIsXbYsd.jpg", "release_date": "2001-08-03", "title": "The Princess Diaries", "video": false, "vote_average": 6.8, "vote_count": 2861, "popularity": 32.167}, {"id": 9603, "video": false, "vote_count": 2176, "vote_average": 7.2, "title": "Clueless", "release_date": "1995-07-19", "original_language": "en", "original_title": "Clueless", "genre_ids": [35, 10749], "backdrop_path": "/pmE7AXRn2X0PVVHvcZ5uvxJfN2R.jpg", "adult": false, "overview": "Shallow, rich and socially successful Cher is at the top of her Beverly Hills high school's pecking scale. Seeing herself as a matchmaker, Cher first coaxes two teachers into dating each other. Emboldened by her success, she decides to give hopelessly klutzy new student Tai a makeover. When Tai becomes more popular than she is, Cher realizes that her disapproving ex-stepbrother was right about how misguided she was -- and falls for him.", "poster_path": "/i8gEHh2sszB6YWLC0jl559sxAeN.jpg", "popularity": 18.564}, {"id": 272693, "video": false, "vote_count": 3247, "vote_average": 6.8, "title": "The DUFF", "release_date": "2015-02-20", "original_language": "en", "original_title": "The DUFF", "genre_ids": [35, 10749], "backdrop_path": "/awGZf5T1hflis9Z2KvRMhp798xU.jpg", "adult": false, "overview": "Bianca's universe turns upside down when she learns that her high school refers to her as a \u2018DUFF' (Designated Ugly Fat Friend). Hoping to erase that label, she enlists the help of a charming jock and her favorite teacher. Together they'll face the school's mean girl and remind everyone that we are all someone's DUFF\u2026 and that's totally fine.", "poster_path": "/dBBgPTCN5Zze4POXWVVpwf3wkra.jpg", "popularity": 14.151}, {"adult": false, "backdrop_path": "/5x0VEeFCnWzRBwU23KycKQRqEhN.jpg", "genre_ids": [10402, 35], "id": 15157, "original_language": "en", "original_title": "Another Cinderella Story", "overview": "A guy who danced with what could be the girl of his dreams at a costume ball only has one hint at her identity: the Zune she left behind as she rushed home in order to make her curfew. And with a once-in-a-lifetime opportunity in front of him, he sets out to find his masked beauty.", "poster_path": "/fLdCKCfHT8A6bnWybBsQFjC4fCo.jpg", "release_date": "2008-09-16", "title": "Another Cinderella Story", "video": false, "vote_average": 6.6, "vote_count": 1120, "popularity": 22.24}, {"id": 449176, "video": false, "vote_count": 3690, "vote_average": 8.1, "title": "Love, Simon", "release_date": "2018-02-16", "original_language": "en", "original_title": "Love, Simon", "genre_ids": [35, 18, 10749], "backdrop_path": "/rqMEeajyzSF4PpJtdCB816Iz8Vr.jpg", "adult": false, "overview": "Everyone deserves a great love story. But for seventeen-year old Simon Spier it's a little more complicated: he's yet to tell his family or friends he's gay and he doesn't know the identity of the anonymous classmate he's fallen for online.", "poster_path": "/5YUYg5q7QfC4IoNwNUtiwdiYKPr.jpg", "popularity": 24.849}, {"id": 11887, "video": false, "vote_count": 2347, "vote_average": 6.5, "title": "High School Musical 3: Senior Year", "release_date": "2008-10-11", "original_language": "en", "original_title": "High School Musical 3: Senior Year", "genre_ids": [35, 18, 10402, 10749, 10751], "backdrop_path": "/daSGxGZL2nNjGZKkAF5ain3lmOx.jpg", "adult": false, "overview": "It's almost graduation day for high school seniors Troy, Gabriella, Sharpay, Chad, Ryan and Taylor \u2015 and the thought of heading off in separate directions after leaving East High has these Wildcats thinking they need to do something they'll remember forever. Together with the rest of the Wildcats, they stage a spring musical reflecting their hopes and fears about the future and their unforgettable experiences growing up together. But with graduation approaching and college plans in question, what will become of the dreams, romances, and friendships of East High's senior Wildcats?", "poster_path": "/ewZpH2QIfPQ0VIn9lPf7MHbLbl4.jpg", "popularity": 19.967}, {"id": 407451, "video": false, "vote_count": 1198, "vote_average": 5.0, "title": "A Wrinkle in Time", "release_date": "2018-03-08", "original_language": "en", "original_title": "A Wrinkle in Time", "genre_ids": [12, 14, 878, 10751], "backdrop_path": "/zqUaMojohr96itJYCE3W1NauTn7.jpg", "adult": false, "overview": "After the disappearance of her scientist father, three peculiar beings send Meg, her brother, and her friend to space in order to find him.", "poster_path": "/yAcb58vipewa1BfNit2RjE6boXA.jpg", "popularity": 16.022}, {"id": 325189, "video": false, "vote_count": 338, "vote_average": 6.5, "title": "Teen Beach 2", "release_date": "2015-06-26", "original_language": "en", "original_title": "Teen Beach 2", "genre_ids": [35, 14, 10751, 10770], "backdrop_path": "/x3cQd5rruj6jySg7dIHuNXT8REX.jpg", "adult": false, "overview": "When characters from the movie musical \u201cWet Side Story\u201d get stuck in the real world, teens Brady and Mack must find a way to return them home.", "poster_path": "/4A5Ecrvs6P8Yipjn4Xl2WYgu7Gm.jpg", "popularity": 24.726}, {"id": 505600, "video": false, "vote_count": 835, "vote_average": 7.2, "title": "Booksmart", "release_date": "2019-05-24", "original_language": "en", "original_title": "Booksmart", "genre_ids": [35], "backdrop_path": "/wcAqndL2MkIjPrCrYeuE794weNE.jpg", "adult": false, "overview": "Two academic teenage superstars realize, on the eve of their high school graduation, that they should have worked less and played more. Determined to never fall short of their peers, the girls set out on a mission to cram four years of fun into one night.", "poster_path": "/micaVOa1UZsdzs4fKGA67ZMGOzc.jpg", "popularity": 21.49}, {"id": 297762, "video": false, "vote_count": 13717, "vote_average": 7.3, "title": "Wonder Woman", "release_date": "2017-05-30", "original_language": "en", "original_title": "Wonder Woman", "genre_ids": [28, 12, 14], "backdrop_path": "/6iUNJZymJBMXXriQyFZfLAKnjO6.jpg", "adult": false, "overview": "An Amazon princess comes to the world of Man in the grips of the First World War to confront the forces of evil and bring an end to human conflict.", "poster_path": "/gfJGlDaHuWimErCr5Ql0I8x9QSy.jpg", "popularity": 41.8}, {"id": 326359, "video": false, "vote_count": 1179, "vote_average": 6.8, "title": "Frozen Fever", "release_date": "2015-03-09", "original_language": "en", "original_title": "Frozen Fever", "genre_ids": [12, 16, 10751], "backdrop_path": "/ubioPGniCfDiASmYYpeJs5RRNaC.jpg", "adult": false, "overview": "On Anna's birthday, Elsa and Kristoff are determined to give her the best celebration ever, but Elsa's icy powers may put more than just the party at risk.", "poster_path": "/lKJiVPzsAO9IJ4LKWXZ8vkR2bg4.jpg", "popularity": 17.061}, {"adult": false, "backdrop_path": "/bxPw6s61bG5Of19lp1E00n0dDWW.jpg", "genre_ids": [35, 18, 10751, 10402, 10770], "id": 10947, "original_language": "en", "original_title": "High School Musical", "overview": "Troy, the popular captain of the basketball team, and Gabriella, the brainy and beautiful member of the academic club, break all the rules of East High society when they secretly audition for the leads in the school's musical. As they reach for the stars and follow their dreams, everyone learns about acceptance, teamwork, and being yourself.", "poster_path": "/xMRBlTMMKDRJuK4IhwG5idrGHaS.jpg", "release_date": "2006-01-20", "title": "High School Musical", "video": false, "vote_average": 6.5, "vote_count": 2982, "popularity": 16.417}, {"adult": false, "backdrop_path": "/yIszPJawrrp6zcb62d7XJnaxAmw.jpg", "genre_ids": [18], "id": 13078, "original_language": "en", "original_title": "The Babysitters", "overview": "Seventeen-year-old Shirley is a good student who works as a babysitter in order to make money for college. One night Michael, a father Shirley works for, confesses he's unhappy with married life. Shirley has a crush on Michael, and seizes this moment to kiss him. Michael is so happy he presents Shirley with a big tip, which gives her an idea. Shirley plans to make extra money by setting up her teenage friends with other unhappy fathers.", "poster_path": "/nsrNUqGXI95unRKZEu8BJ584xWn.jpg", "release_date": "2007-09-11", "title": "The Babysitters", "video": false, "vote_average": 5.3, "vote_count": 153, "popularity": 16.136}], "total_pages": 65, "total_results": 1283}, "recommendations": {"page": 1, "results": [], "total_pages": 1, "total_results": 0}, "credits": {"cast": [], "crew": [{"credit_id": "53445397c3a3682589000378", "department": "Directing", "gender": 0, "id": 1055512, "job": "Director", "name": "Caroline Suh", "profile_path": null}]}}