{"adult": false, "backdrop_path": "/cUXAzXk5d9iNdf3UHiWipZCvYSr.jpg", "belongs_to_collection": null, "budget": 10000000, "genres": [{"id": 18, "name": "Drama"}, {"id": 36, "name": "History"}], "homepage": "", "id": 30973, "imdb_id": "tt0377992", "original_language": "en", "original_title": "The Gospel of John", "overview": "A word for word depiction of the life of Jesus Christ from the Good News Translation Bible as recorded in the Gospel of John.", "popularity": 4.208, "poster_path": "/k97rk4SshSgr5xk5X1gpuAoiASi.jpg", "production_companies": [{"id": 10167, "logo_path": null, "name": "Gospel of John Ltd.", "origin_country": ""}, {"id": 10168, "logo_path": null, "name": "Toronto Film Studios", "origin_country": ""}, {"id": 10169, "logo_path": null, "name": "Visual Bible International", "origin_country": ""}], "production_countries": [{"iso_3166_1": "CA", "name": "Canada"}, {"iso_3166_1": "GB", "name": "United Kingdom"}], "release_date": "2003-09-11", "revenue": 4078741, "runtime": 180, "spoken_languages": [{"iso_639_1": "en", "name": "English"}], "status": "Released", "tagline": "For God loved the world So much\u2026", "title": "The Gospel of John", "video": false, "vote_average": 8.4, "vote_count": 20, "keywords": {"keywords": [{"id": 2618, "name": "miracle"}, {"id": 3034, "name": "last supper"}, {"id": 3036, "name": "bible"}, {"id": 9649, "name": "god"}, {"id": 18126, "name": "sermon on the mount"}]}, "similar": {"page": 1, "results": [{"adult": false, "backdrop_path": "/eWelH0cHonTsdP6ImrgilpbqdTK.jpg", "genre_ids": [18, 36], "id": 335778, "original_language": "en", "original_title": "Risen", "overview": "Clavius, a powerful Roman military tribune, and his aide, Lucius, are tasked with solving the mystery of what happened to Jesus in the weeks following the crucifixion, in order to disprove the rumors of a risen Messiah and prevent an uprising in Jerusalem.", "poster_path": "/uGZ1easTLqkNfDNHRLm5kvkfRw7.jpg", "release_date": "2016-02-18", "title": "Risen", "video": false, "vote_average": 5.9, "vote_count": 452, "popularity": 16.622}, {"id": 45139, "video": false, "vote_count": 19, "vote_average": 8.2, "title": "Jesus", "release_date": "1979-10-19", "original_language": "en", "original_title": "Jesus", "genre_ids": [18, 36], "backdrop_path": "/sT3YaJFiDl6XDt53ufuKrX7OXrN.jpg", "adult": false, "overview": "Three and a half years of Jesus' ministry, as told in the Gospel of Luke.", "poster_path": "/fLChKvWRw5z1nLiPT6xv5sCiSFc.jpg", "popularity": 5.704}, {"id": 615, "video": false, "vote_count": 1932, "vote_average": 7.1, "title": "The Passion of the Christ", "release_date": "2004-02-25", "original_language": "en", "original_title": "The Passion of the Christ", "genre_ids": [18], "backdrop_path": "/clVnEHURb8Ot3twaLmf7N1lNym1.jpg", "adult": false, "overview": "A graphic portrayal of the last twelve hours of Jesus of Nazareth's life.", "poster_path": "/oFuLM1EaKhi1WNWiTjQ1HKIZ1Eg.jpg", "popularity": 18.285}, {"adult": false, "backdrop_path": "/sO6AnUEirDnaxjy8dxaqYEKDxGi.jpg", "genre_ids": [18, 36], "id": 6844, "original_language": "en", "original_title": "The Ten Commandments", "overview": "Escaping death, a Hebrew infant is raised in a royal household to become a prince. Upon discovery of his true heritage, Moses embarks on a personal quest to reclaim his destiny as the leader and liberator of the Hebrew people.", "poster_path": "/loLrO3SfhHkN3o3fTHdx1vf9ZYf.jpg", "release_date": "1956-10-05", "title": "The Ten Commandments", "video": false, "vote_average": 7.6, "vote_count": 659, "popularity": 19.686}, {"adult": false, "backdrop_path": "/g8G91vbvyUqnyFSlVruwiaZsUrn.jpg", "genre_ids": [18], "id": 458737, "original_language": "en", "original_title": "First Reformed", "overview": "A pastor of a small church in upstate New York starts to spiral out of control after a soul-shaking encounter with an unstable environmental activist and his pregnant wife.", "poster_path": "/p2UylV0hPefEuWPFMo1r56vu2nb.jpg", "release_date": "2018-05-18", "title": "First Reformed", "video": false, "vote_average": 7.0, "vote_count": 577, "popularity": 11.112}, {"id": 235260, "video": false, "vote_count": 137, "vote_average": 6.4, "title": "Son of God", "release_date": "2014-02-28", "original_language": "en", "original_title": "Son of God", "genre_ids": [18], "backdrop_path": "/fabLQCBndX9Zfd3mX0RS1OjyqEX.jpg", "adult": false, "overview": "The life story of Jesus is told from his humble birth through his teachings, crucifixion and ultimate resurrection.", "poster_path": "/xyFaNh1IGdHEJbuLdba6a7GxLzP.jpg", "popularity": 16.198}, {"id": 16366, "video": false, "vote_count": 496, "vote_average": 6.4, "title": "Joseph: King of Dreams", "release_date": "2000-11-07", "original_language": "en", "original_title": "Joseph: King of Dreams", "genre_ids": [16, 10402, 10751], "backdrop_path": "/p5WF1vmFwTrdNlx6Z7mt5ksnG7W.jpg", "adult": false, "overview": "In this animated retelling of the story from the Bible's Book of Genesis, Joseph's gift of dream interpretation and his brilliantly colored coat inspires jealousy in his brothers.", "poster_path": "/dsL5nngGY8qTmXxtAamMUYVQDY3.jpg", "popularity": 19.669}, {"id": 310, "video": false, "vote_count": 6933, "vote_average": 6.6, "title": "Bruce Almighty", "release_date": "2003-05-23", "original_language": "en", "original_title": "Bruce Almighty", "genre_ids": [35, 14], "backdrop_path": "/bhEudqWbWsiEBdnl0kCIwFp5Hay.jpg", "adult": false, "overview": "Bruce Nolan toils as a 'human interest' television reporter in Buffalo, N.Y., but despite his high ratings and the love of his beautiful girlfriend, Bruce remains unfulfilled. At the end of the worst day in his life, he angrily ridicules God\u2014and the Almighty responds, endowing Bruce with all of His divine powers.", "poster_path": "/lgYKHifMMLT8OxYObMKa8b4STsr.jpg", "popularity": 33.694}, {"id": 9946, "video": false, "vote_count": 931, "vote_average": 5.7, "title": "End of Days", "release_date": "1999-11-24", "original_language": "en", "original_title": "End of Days", "genre_ids": [28, 14, 27, 9648], "backdrop_path": "/q5KcZBMc4Vs5SQelnSdY3ICm56M.jpg", "adult": false, "overview": "On 28 December 1999, the citizens of New York City are getting ready for the turn of the millennium. However, the Devil decides to crash the party by coming to the city, inhabiting a man's body, and searching for his chosen bride\u2014a 20-year-old woman named Christine York. The world will end, and the only hope lies within an atheist named Jericho Cane.", "poster_path": "/bEIjH6GroeWaBkn6o7MVpMNbuyw.jpg", "popularity": 23.346}, {"id": 9693, "video": false, "vote_count": 4054, "vote_average": 7.6, "title": "Children of Men", "release_date": "2006-09-22", "original_language": "en", "original_title": "Children of Men", "genre_ids": [28, 18, 878, 53], "backdrop_path": "/c5jNuPA19oGiEmbh8iFeAi6aHMI.jpg", "adult": false, "overview": "In 2027, in a chaotic world in which humans can no longer procreate, a former activist agrees to help transport a miraculously pregnant woman to a sanctuary at sea, where her child's birth may help scientists save the future of humankind.", "poster_path": "/gZ6i32Da76EUxta06GL2BxpC4Cn.jpg", "popularity": 25.649}, {"id": 474392, "video": false, "vote_count": 88, "vote_average": 5.3, "title": "Samson", "release_date": "2018-02-16", "original_language": "en", "original_title": "Samson", "genre_ids": [28, 12, 18], "backdrop_path": "/yR6952VuJ2OchliEj0vyRxFZiBT.jpg", "adult": false, "overview": "After losing the love of his life to a cruel Philistine prince, a young Hebrew with Supernatural strength defends his people, sacrificing everything to avenge his love, his people, and his God.", "poster_path": "/v7Zaj1IEzMMB7KzfglpxdXWB66u.jpg", "popularity": 15.598}, {"id": 86834, "video": false, "vote_count": 4274, "vote_average": 5.6, "title": "Noah", "release_date": "2014-03-07", "original_language": "en", "original_title": "Noah", "genre_ids": [12, 18], "backdrop_path": "/jnoJgpITphPoqA3e7JnNC4mtAVX.jpg", "adult": false, "overview": "A man who suffers visions of an apocalyptic deluge takes measures to protect his family from the coming flood.", "poster_path": "/5wioUjzwr91fvq7ydunxK2CPSxi.jpg", "popularity": 13.337}, {"adult": false, "backdrop_path": "/dAK3Sql45m1xyMzCm5LDa4Bmucx.jpg", "genre_ids": [878, 18], "id": 13363, "original_language": "en", "original_title": "The Man from Earth", "overview": "An impromptu goodbye party for Professor John Oldman becomes a mysterious interrogation after the retiring scholar reveals to his colleagues he never ages and has walked the earth for 14,000 years.", "poster_path": "/zYP2lBJ5GRV1HaIi4USqRl3phe.jpg", "release_date": "2007-06-10", "title": "The Man from Earth", "video": false, "vote_average": 7.7, "vote_count": 1235, "popularity": 12.079}, {"id": 324786, "video": false, "vote_count": 7334, "vote_average": 8.1, "title": "Hacksaw Ridge", "release_date": "2016-10-07", "original_language": "en", "original_title": "Hacksaw Ridge", "genre_ids": [18, 36, 10752], "backdrop_path": "/zBK4QZONMQXhcgaJv1YYTdCW7q9.jpg", "adult": false, "overview": "WWII American Army Medic Desmond T. Doss, who served during the Battle of Okinawa, refuses to kill people and becomes the first Conscientious Objector in American history to receive the Congressional Medal of Honor.", "poster_path": "/bndiUFfJxNd2fYx8XO610L9a07m.jpg", "popularity": 26.345}, {"id": 11051, "video": false, "vote_count": 488, "vote_average": 7.3, "title": "The Last Temptation of Christ", "release_date": "1988-08-12", "original_language": "en", "original_title": "The Last Temptation of Christ", "genre_ids": [18], "backdrop_path": "/rBqdcQeM1h05YjF9rFtPWnNaDO2.jpg", "adult": false, "overview": "Jesus, a humble Judean carpenter beginning to see that he is the son of God, is drawn into revolutionary action against the Roman occupiers by Judas -- despite his protestations that love, not violence, is the path to salvation. The burden of being the savior of mankind torments Jesus throughout his life, leading him to doubt. As he is put to death on the cross, Jesus is tempted by visions of an ordinary life married to Mary Magdalene.", "poster_path": "/dutPJWBeQgdfjRqeKojqmyIdXFd.jpg", "popularity": 12.627}, {"adult": false, "backdrop_path": "/euAMcJLG26pW1kv4kPEtVEwwroQ.jpg", "genre_ids": [36], "id": 476968, "original_language": "en", "original_title": "Paul, Apostle of Christ", "overview": "Risking his life, Luke ventures to Rome to visit Paul -- the apostle who's bound in chains and held captive in Nero's darkest and bleakest prison cell. Haunted by the shadows of his past misdeeds, Paul wonders if he's been forgotten as he awaits his grisly execution. Before Paul's death, Luke resolves to write another book that details the birth of what will come to be known as the church.", "poster_path": "/2NUXG94dGMKYgJL1BkJGKynMb3l.jpg", "release_date": "2018-03-23", "title": "Paul, Apostle of Christ", "video": false, "vote_average": 7.0, "vote_count": 106, "popularity": 18.432}, {"id": 2331, "video": false, "vote_count": 16, "vote_average": 5.9, "title": "Jesus", "release_date": "1999-12-25", "original_language": "en", "original_title": "Jesus", "genre_ids": [18, 36], "backdrop_path": "/4wQLjg2gehczRA081fjrlKny4uV.jpg", "adult": false, "overview": "The film is notable for presenting a more human Jesus, compared to more solemn portrayals in earlier films; here Jesus laughs and cries like anyone else. Among other things, he weeps at Joseph\u2019s funeral, throws stones in Lake Galilee when meeting Simon Peter and James son of Zebedee for the first time, dances at the wedding at Cana, and starts a water-splashing fight with his disciples as well. Satan is portrayed as a man in modern dress (and as a woman in red). During his temptation of Jesus, he shows him the Earth from the vantage point of space. Satan also shows Jesus images of wars and destruction carried out in his name. The film adds an apocryphal Roman historian named \u201cLivio\u201d who watches and comments as events unfold; he is presumably named after Livy.", "poster_path": "/jkyll5jAzT6UT8gFp40e0iWzdYA.jpg", "popularity": 4.221}, {"adult": false, "backdrop_path": "/eSs0CkWB5ASQgcx8Dr0uai3IRjT.jpg", "genre_ids": [18], "id": 339984, "original_language": "en", "original_title": "Miracles from Heaven", "overview": "When Christy discovers her 10-year-old daughter Anna has a rare, incurable disease, she becomes a ferocious advocate for her daughter\u2019s healing as she searches for a solution. After Anna has a freak accident and falls three stories, a miracle unfolds in the wake of her dramatic rescue that leaves medical specialists mystified, her family restored and their community inspired.", "poster_path": "/hz9VF1TfaM0D04pYneSXUkNeOZv.jpg", "release_date": "2016-03-17", "title": "Miracles from Heaven", "video": false, "vote_average": 7.2, "vote_count": 568, "popularity": 14.303}, {"id": 318850, "video": false, "vote_count": 57, "vote_average": 6.1, "title": "The Young Messiah", "release_date": "2016-03-10", "original_language": "en", "original_title": "The Young Messiah", "genre_ids": [18, 36], "backdrop_path": "/6gjlF4ja56UvTxLQc4ZqPAXd95p.jpg", "adult": false, "overview": "Tells the story of Jesus Christ at age seven as he and his family depart Egypt to return home to Nazareth. Told from his childhood perspective, it follows young Jesus as he grows into his religious identity.", "poster_path": "/lPlcxAdLzXJCMibZ1iUqXHRZFJa.jpg", "popularity": 8.589}, {"id": 5876, "video": false, "vote_count": 2781, "vote_average": 6.8, "title": "The Mist", "release_date": "2007-11-21", "original_language": "en", "original_title": "The Mist", "genre_ids": [27, 878, 53], "backdrop_path": "/slQnhKRIPkA2Cm5x6VvrOPXt4Qu.jpg", "adult": false, "overview": "After a violent storm, a dense cloud of mist envelops a small Maine town, trapping artist David Drayton and his five-year-old son in a local grocery store with other people. They soon discover that the mist conceals deadly horrors that threaten their lives, and worse, their sanity.", "poster_path": "/uYVheUBf8ITaocUP4Og9GXxOMIH.jpg", "popularity": 17.916}], "total_pages": 14, "total_results": 267}, "recommendations": {"page": 1, "results": [{"adult": false, "backdrop_path": "/bOosjKjEH8DguMT7UpzEIoDa2R3.jpg", "genre_ids": [18, 14, 53], "id": 49851, "original_language": "en", "original_title": "In the Blink of an Eye", "overview": "A vacationing detective begins to suspect that the Biblical apocalypse is at hand after being forced to relive the day of the Rapture time and again.What was supposed to be the perfect vacation comes to a horrific crossroad for Detective David Ramsey. Aboard a private yacht on the shimmering Sea of Cortez, his wife and friends suddenly disappear. During the investigation, David begins to unravel the evidence surrounding a worldwide Nostradomic event revealed in ancient Biblical prophecies.", "poster_path": "/oVLKerjixmCWJGJS4gfK62rziKr.jpg", "release_date": "2009-01-01", "title": "In the Blink of an Eye", "video": false, "vote_average": 5.4, "vote_count": 9, "popularity": 1.916}], "total_pages": 1, "total_results": 1}, "credits": {"cast": [{"cast_id": 1, "character": "Narrator (voice)", "credit_id": "52fe44519251416c9100c72b", "gender": 2, "id": 290, "name": "Christopher Plummer", "order": 0, "profile_path": "/fauMGxa6dc86nHNenQ8X6DlE6YV.jpg"}, {"cast_id": 2, "character": "Jesus Christ", "credit_id": "52fe44519251416c9100c72f", "gender": 2, "id": 31166, "name": "Henry Ian Cusick", "order": 1, "profile_path": "/wtpj2lUQE2BPyPmTJbhzn0vtdQ6.jpg"}, {"cast_id": 3, "character": "John", "credit_id": "52fe44519251416c9100c733", "gender": 2, "id": 107398, "name": "Stuart Bunce", "order": 2, "profile_path": "/8i7Ew7be11OW0Sm33MnLt2i82A2.jpg"}, {"cast_id": 4, "character": "Simon Peter", "credit_id": "52fe44519251416c9100c737", "gender": 2, "id": 10210, "name": "Daniel Kash", "order": 3, "profile_path": "/v8xa3aFbdk0t7RXpXiLlXI7QepH.jpg"}, {"cast_id": 5, "character": "Pontius Pilate", "credit_id": "52fe44519251416c9100c73b", "gender": 0, "id": 107399, "name": "Stephen Russell", "order": 4, "profile_path": null}, {"cast_id": 6, "character": "Judas Iscariot", "credit_id": "52fe44519251416c9100c73f", "gender": 2, "id": 99183, "name": "Alan van Sprang", "order": 5, "profile_path": "/les7cqXIk3UwCT025wSJyumFryX.jpg"}, {"cast_id": 7, "character": "Virgin Mary", "credit_id": "52fe44519251416c9100c743", "gender": 0, "id": 107400, "name": "Diana Berriman", "order": 6, "profile_path": null}, {"cast_id": 8, "character": "Leading Pharisee", "credit_id": "52fe44519251416c9100c747", "gender": 2, "id": 2968, "name": "Richard Lintern", "order": 7, "profile_path": "/nZsrBvcOZ23CNe3wRgrg9pf0h4q.jpg"}, {"cast_id": 9, "character": "John the Baptist", "credit_id": "52fe44519251416c9100c74b", "gender": 0, "id": 32559, "name": "Scott Handy", "order": 8, "profile_path": "/r2DkEVl44r29mAbZ8iKOqkW1r9e.jpg"}, {"cast_id": 10, "character": "Mary Magdalene", "credit_id": "52fe44519251416c9100c74f", "gender": 1, "id": 72708, "name": "Lynsey Baxter", "order": 9, "profile_path": "/nfq8FrRPruFmCv6ibThKjBye3UT.jpg"}, {"cast_id": 11, "character": "Nicodemus", "credit_id": "52fe44519251416c9100c753", "gender": 0, "id": 107401, "name": "Diego Matamoros", "order": 10, "profile_path": null}, {"cast_id": 12, "character": "Samaritan Woman", "credit_id": "52fe44519251416c9100c757", "gender": 1, "id": 107403, "name": "Nancy Palk", "order": 11, "profile_path": "/clEsiEtkzLHslZqPTitS8FxXD4h.jpg"}, {"cast_id": 13, "character": "Nathanael", "credit_id": "52fe44519251416c9100c75b", "gender": 2, "id": 107405, "name": "Elliot Levey", "order": 12, "profile_path": "/wQlFn557mrg1n2eXNLyLDLpAxdq.jpg"}, {"cast_id": 14, "character": "Philip", "credit_id": "52fe44519251416c9100c75f", "gender": 0, "id": 107407, "name": "Andrew Pifko", "order": 13, "profile_path": null}, {"cast_id": 15, "character": "Blind Man", "credit_id": "52fe44519251416c9100c763", "gender": 2, "id": 105492, "name": "Stuart Fox", "order": 14, "profile_path": null}, {"cast_id": 16, "character": "Lame Man", "credit_id": "52fe44519251416c9100c767", "gender": 2, "id": 10511, "name": "David Meyer", "order": 15, "profile_path": "/agjE9A1gOQeWX9YOCUAfgSmponz.jpg"}, {"cast_id": 17, "character": "Young Levite", "credit_id": "52fe44519251416c9100c76b", "gender": 0, "id": 107411, "name": "Nicolas Van Burek", "order": 16, "profile_path": null}, {"cast_id": 18, "character": "Elderly Levite", "credit_id": "52fe44519251416c9100c76f", "gender": 0, "id": 107412, "name": "William Pappas", "order": 17, "profile_path": null}], "crew": [{"credit_id": "52fe44519251416c9100c7cf", "department": "Writing", "gender": 2, "id": 2633, "job": "Screenplay", "name": "John Goldsmith", "profile_path": null}, {"credit_id": "52fe44519251416c9100c78d", "department": "Production", "gender": 2, "id": 7228, "job": "Executive Producer", "name": "Joel B. Michaels", "profile_path": null}, {"credit_id": "52fe44519251416c9100c79f", "department": "Sound", "gender": 2, "id": 8320, "job": "Music", "name": "Jeff Danna", "profile_path": "/21ZD6ev9ASSiBhV2hrymP0k8vg.jpg"}, {"credit_id": "52fe44519251416c9100c7ab", "department": "Editing", "gender": 0, "id": 10751, "job": "Editor", "name": "Michel Arcand", "profile_path": null}, {"credit_id": "52fe44519251416c9100c7c9", "department": "Costume & Make-Up", "gender": 1, "id": 19955, "job": "Costume Design", "name": "Debra Hanson", "profile_path": null}, {"credit_id": "52fe44519251416c9100c781", "department": "Production", "gender": 0, "id": 63959, "job": "Producer", "name": "Garth Drabinsky", "profile_path": null}, {"credit_id": "52fe44519251416c9100c787", "department": "Production", "gender": 0, "id": 59716, "job": "Executive Producer", "name": "Martin Katz", "profile_path": null}, {"credit_id": "540c2d010e0a262b46003f1f", "department": "Camera", "gender": 2, "id": 90690, "job": "Director of Photography", "name": "Miroslaw Baszak", "profile_path": null}, {"credit_id": "52fe44519251416c9100c775", "department": "Directing", "gender": 2, "id": 107414, "job": "Director", "name": "Philip Saville", "profile_path": null}, {"credit_id": "52fe44519251416c9100c77b", "department": "Production", "gender": 0, "id": 107415, "job": "Producer", "name": "Chris Chrisafis", "profile_path": null}, {"credit_id": "52fe44519251416c9100c793", "department": "Production", "gender": 0, "id": 107416, "job": "Executive Producer", "name": "Sandy Pearl", "profile_path": null}, {"credit_id": "52fe44519251416c9100c799", "department": "Production", "gender": 0, "id": 107417, "job": "Executive Producer", "name": "John Clyde Wagner", "profile_path": null}, {"credit_id": "52fe44519251416c9100c7b7", "department": "Art", "gender": 2, "id": 107418, "job": "Art Direction", "name": "Ian Brock", "profile_path": null}, {"credit_id": "52fe44519251416c9100c7bd", "department": "Art", "gender": 0, "id": 107419, "job": "Art Direction", "name": "Collin Niemi", "profile_path": null}, {"credit_id": "52fe44519251416c9100c7c3", "department": "Art", "gender": 1, "id": 107420, "job": "Set Decoration", "name": "Carolyn 'Cal' Loucks", "profile_path": "/iy7lqjMdb3Qn6W0lLo0b6kcWZLz.jpg"}, {"credit_id": "540c2cf30e0a262b3d003e00", "department": "Art", "gender": 2, "id": 1361753, "job": "Production Design", "name": "Don Taylor", "profile_path": null}]}}