{"adult": false, "backdrop_path": "/sNgRzlytizFuAtLp8mEw8Jy0OkN.jpg", "belongs_to_collection": null, "budget": 0, "genres": [{"id": 28, "name": "Action"}, {"id": 16, "name": "Animation"}, {"id": 35, "name": "Comedy"}], "homepage": null, "id": 31, "imdb_id": "tt6266826", "original_language": "ja", "original_title": "\u6700\u81ed\u5175\u5668", "overview": "Tensai Okamura\u2019s animated action packed short story with lots of humorous elements in which a person transforms into a weapon of mass destruction without themselves being aware.", "popularity": 4.399, "poster_path": "/uqAB40iXwb0yGRHfI9xDqYR2A2p.jpg", "production_companies": [{"id": 11671, "logo_path": "/iRdYQdn1eunwV3qAs6RK5Mqwn8Z.png", "name": "Studio 4\u00b0C", "origin_country": "JP"}], "production_countries": [{"iso_3166_1": "JP", "name": "Japan"}], "release_date": "1995-12-23", "revenue": 0, "runtime": 40, "spoken_languages": [{"iso_639_1": "ja", "name": "\u65e5\u672c\u8a9e"}], "status": "Released", "tagline": "", "title": "Stink Bomb", "video": false, "vote_average": 6.6, "vote_count": 8, "keywords": {"keywords": [{"id": 1865, "name": "biological weapon"}, {"id": 1866, "name": "bad smell"}, {"id": 5138, "name": "gas"}, {"id": 5198, "name": "cold"}, {"id": 6091, "name": "war"}, {"id": 6092, "name": "army"}, {"id": 248870, "name": "memories"}]}, "similar": {"page": 1, "results": [{"id": 4421, "video": false, "vote_count": 864, "vote_average": 6.3, "title": "G.I. Jane", "release_date": "1997-08-19", "original_language": "en", "original_title": "G.I. Jane", "genre_ids": [28, 18], "backdrop_path": "/b1x0SSMl4MEj0gbEBaVssp0FgqN.jpg", "adult": false, "overview": "A female Senator succeeds in enrolling a woman into Combined Reconnaissance Team training where everyone expects her to fail.", "poster_path": "/yf4zJg6ACAhH4fkHSdEDrBUuEyg.jpg", "popularity": 14.125}, {"id": 676, "video": false, "vote_count": 3795, "vote_average": 6.8, "title": "Pearl Harbor", "release_date": "2001-05-21", "original_language": "en", "original_title": "Pearl Harbor", "genre_ids": [18, 36, 10749, 10752], "backdrop_path": "/cDctk61tUeQz4LX7tTFPknI28ea.jpg", "adult": false, "overview": "The lifelong friendship between Rafe McCawley and Danny Walker is put to the ultimate test when the two ace fighter pilots become entangled in a love triangle with beautiful Naval nurse Evelyn Johnson. But the rivalry between the friends-turned-foes is immediately put on hold when they find themselves at the center of Japan's devastating attack on Pearl Harbor on Dec. 7, 1941.", "poster_path": "/gzjMpcyV1RksWonaA87DZ8wQTH0.jpg", "popularity": 26.975}, {"id": 324786, "video": false, "vote_count": 7336, "vote_average": 8.1, "title": "Hacksaw Ridge", "release_date": "2016-10-07", "original_language": "en", "original_title": "Hacksaw Ridge", "genre_ids": [18, 36, 10752], "backdrop_path": "/zBK4QZONMQXhcgaJv1YYTdCW7q9.jpg", "adult": false, "overview": "WWII American Army Medic Desmond T. Doss, who served during the Battle of Okinawa, refuses to kill people and becomes the first Conscientious Objector in American history to receive the Congressional Medal of Honor.", "poster_path": "/bndiUFfJxNd2fYx8XO610L9a07m.jpg", "popularity": 23.616}, {"id": 8916, "video": false, "vote_count": 2873, "vote_average": 6.1, "title": "Antz", "release_date": "1998-10-02", "original_language": "en", "original_title": "Antz", "genre_ids": [12, 16, 35, 10751], "backdrop_path": "/kMfLkbVTsALj5eIu72jtwzDhVsV.jpg", "adult": false, "overview": "In this animated hit, a neurotic worker ant in love with a rebellious princess rises to unlikely stardom when he switches places with a soldier. Signing up to march in a parade, he ends up under the command of a bloodthirsty general. But he's actually been enlisted to fight against a termite army.", "poster_path": "/3biVcPu5hrfKUMC73sTFq17dmmS.jpg", "popularity": 19.964}, {"adult": false, "backdrop_path": "/pKawqrtCBMmxarft7o1LbEynys7.jpg", "genre_ids": [10752, 18, 28], "id": 228150, "original_language": "en", "original_title": "Fury", "overview": "In the last months of World War II, as the Allies make their final push in the European theatre, a battle-hardened U.S. Army sergeant named 'Wardaddy' commands a Sherman tank called 'Fury' and its five-man crew on a deadly mission behind enemy lines. Outnumbered and outgunned, Wardaddy and his men face overwhelming odds in their heroic attempts to strike at the heart of Nazi Germany.", "poster_path": "/fa4PxEPRKWRyjzYje1jM4m30qzd.jpg", "release_date": "2014-10-15", "title": "Fury", "video": false, "vote_average": 7.4, "vote_count": 7302, "popularity": 53.985}, {"id": 369885, "video": false, "vote_count": 3048, "vote_average": 6.7, "title": "Allied", "release_date": "2016-11-17", "original_language": "en", "original_title": "Allied", "genre_ids": [28, 18, 53, 10749, 10752], "backdrop_path": "/tC0tVH5KQhCwMlddnyA3iWOSuBA.jpg", "adult": false, "overview": "In 1942, an intelligence officer in North Africa encounters a female French Resistance fighter on a deadly mission behind enemy lines. When they reunite in London, their relationship is tested by the pressures of war.", "poster_path": "/nzXzLFTnd0Zb3ExfhOxlQgizgSu.jpg", "popularity": 29.818}, {"id": 563, "video": false, "vote_count": 2705, "vote_average": 6.9, "title": "Starship Troopers", "release_date": "1997-11-07", "original_language": "en", "original_title": "Starship Troopers", "genre_ids": [28, 12, 878, 53], "backdrop_path": "/cYWI1lnHEvoVKDdlrRt2b5et3Bj.jpg", "adult": false, "overview": "Set in the future, the story follows a young soldier named Johnny Rico and his exploits in the Mobile Infantry. Rico's military career progresses from recruit to non-commissioned officer and finally to officer against the backdrop of an interstellar war between mankind and an arachnoid species known as \"the Bugs\".", "poster_path": "/zeCD9WkhABFJmPq3SlTozXJGEtr.jpg", "popularity": 19.504}, {"id": 11422, "video": false, "vote_count": 133, "vote_average": 6.5, "title": "Midway", "release_date": "1976-06-18", "original_language": "en", "original_title": "Midway", "genre_ids": [28, 18, 36, 10752], "backdrop_path": "/6jeTEV03QLsjkEomKM6XhjoVJch.jpg", "adult": false, "overview": "This war drama depicts the U.S. and Japanese forces in the naval Battle of Midway, which became a turning point for Americans during World War II.", "poster_path": "/dCUVG2po7DsBvnxfe7WGcJsUn9T.jpg", "popularity": 15.349}, {"id": 1369, "video": false, "vote_count": 1901, "vote_average": 6.5, "title": "Rambo: First Blood Part II", "release_date": "1985-05-21", "original_language": "en", "original_title": "Rambo: First Blood Part II", "genre_ids": [28, 12, 53, 10752], "backdrop_path": "/tqrN6ZVA2lXeyqSi58kWvNdnzzA.jpg", "adult": false, "overview": "John Rambo is released from prison by the government for a top-secret covert mission to the last place on Earth he'd want to return - the jungles of Vietnam.", "poster_path": "/l6zUaYqaQ5TFokesv3BPzBvSN0.jpg", "popularity": 24.903}, {"id": 374720, "video": false, "vote_count": 10120, "vote_average": 7.4, "title": "Dunkirk", "release_date": "2017-07-19", "original_language": "en", "original_title": "Dunkirk", "genre_ids": [28, 18, 10752], "backdrop_path": "/fudEG1VUWuOqleXv6NwCExK0VLy.jpg", "adult": false, "overview": "The story of the miraculous evacuation of Allied soldiers from Belgium, Britain, Canada and France, who were cut off and surrounded by the German army from the beaches and harbour of Dunkirk between May 26th and June 4th 1940 during World War II.", "poster_path": "/bOXBV303Fgkzn2K4FeKDc0O31q4.jpg", "popularity": 28.538}, {"id": 137113, "video": false, "vote_count": 8823, "vote_average": 7.6, "title": "Edge of Tomorrow", "release_date": "2014-05-27", "original_language": "en", "original_title": "Edge of Tomorrow", "genre_ids": [28, 878], "backdrop_path": "/7mgKeg18Qml5nJQa56RBZO7dIu0.jpg", "adult": false, "overview": "Major Bill Cage is an officer who has never seen a day of combat when he is unceremoniously demoted and dropped into combat. Cage is killed within minutes, managing to take an alpha alien down with him. He awakens back at the beginning of the same day and is forced to fight and die again... and again - as physical contact with the alien has thrown him into a time loop.", "poster_path": "/tpoVEYvm6qcXueZrQYJNRLXL88s.jpg", "popularity": 33.684}, {"id": 522162, "video": false, "vote_count": 208, "vote_average": 6.7, "title": "Midway", "release_date": "2019-11-06", "original_language": "en", "original_title": "Midway", "genre_ids": [28, 18, 36, 10752], "backdrop_path": "/xjP88DFPCQ81mbZHXFscyYtGskT.jpg", "adult": false, "overview": "MIDWAY centers on the Battle of Midway, a clash between the American fleet and the Imperial Japanese Navy which marked a pivotal turning point in the Pacific Theater during WWII. The film, based on the real-life events of this heroic feat, tells the story of the leaders and soldiers who used their instincts, fortitude and bravery to overcome the odds.", "poster_path": "/hj8pyoNnynGeJTAbl7jcLZO8Uhx.jpg", "popularity": 61.116}, {"id": 10590, "video": false, "vote_count": 983, "vote_average": 6.9, "title": "We Were Soldiers", "release_date": "2002-03-01", "original_language": "en", "original_title": "We Were Soldiers", "genre_ids": [28, 36, 10752], "backdrop_path": "/8ikyF16LecHlHkkMmuZJDV9GWa7.jpg", "adult": false, "overview": "The story of the first major battle of the American phase of the Vietnam War and the soldiers on both sides that fought it.", "poster_path": "/kjG02l5Nqcgd3ZOb7aMBb9CIIIi.jpg", "popularity": 14.796}, {"adult": false, "backdrop_path": "/vSDl3hqsxxNaj0tE5ZLsTQeL0dS.jpg", "genre_ids": [18, 10752], "id": 975, "original_language": "en", "original_title": "Paths of Glory", "overview": "A commanding officer defends three scapegoats on trial for a failed offensive that occurred within the French Army in 1916.", "poster_path": "/6lMXjI1O1N7XyZEjqIo5wkbrgxg.jpg", "release_date": "1957-09-18", "title": "Paths of Glory", "video": false, "vote_average": 8.3, "vote_count": 1350, "popularity": 16.678}, {"id": 227306, "video": false, "vote_count": 2439, "vote_average": 7.4, "title": "Unbroken", "release_date": "2014-12-25", "original_language": "en", "original_title": "Unbroken", "genre_ids": [18, 10752], "backdrop_path": "/eSbKT3v3RKFRGeOmxJbZhIvrevR.jpg", "adult": false, "overview": "A chronicle of the life of Louis Zamperini, an Olympic runner who was taken prisoner by Japanese forces during World War II.", "poster_path": "/1un8i8UtCjSCnY3OfdxtB5kDRvF.jpg", "popularity": 18.995}, {"id": 857, "video": false, "vote_count": 9345, "vote_average": 8.1, "title": "Saving Private Ryan", "release_date": "1998-07-24", "original_language": "en", "original_title": "Saving Private Ryan", "genre_ids": [18, 36, 10752], "backdrop_path": "/hjQp148VjWF4KjzhsD90OCMr11h.jpg", "adult": false, "overview": "As U.S. troops storm the beaches of Normandy, three brothers lie dead on the battlefield, with a fourth trapped behind enemy lines. Ranger captain John Miller and seven men are tasked with penetrating German-held territory and bringing the boy home.", "poster_path": "/35CMz4t7PuUiQqt5h4u5nbrXZlF.jpg", "popularity": 37.898}, {"adult": false, "backdrop_path": "/9alS7FBSf8rvDLskpCRuKqAI2h5.jpg", "genre_ids": [18, 36], "id": 746, "original_language": "en", "original_title": "The Last Emperor", "overview": "A dramatic history of Pu Yi, the last of the Emperors of China, from his lofty birth and brief reign in the Forbidden City, the object of worship by half a billion people; through his abdication, his decline and dissolute lifestyle; his exploitation by the invading Japanese, and finally to his obscure existence as just another peasant worker in the People's Republic.", "poster_path": "/KTirnfG6FZLKWbm8Am3EEKmZDx.jpg", "release_date": "1987-10-21", "title": "The Last Emperor", "video": false, "vote_average": 7.6, "vote_count": 774, "popularity": 13.039}, {"adult": false, "backdrop_path": "/tG7ydFmDr2Y1kecUCM6foFxmJjP.jpg", "genre_ids": [27, 37, 35], "id": 10212, "original_language": "en", "original_title": "Ravenous", "overview": "Upon receiving reports of missing persons at Fort Spencer, a remote Army outpost on the Western frontier, Capt. John Boyd investigates. After arriving at his new post, Boyd and his regiment aid a wounded frontiersman who recounts a horrifying tale of a wagon train murdered by its supposed guide -- a vicious U.S. Army colonel gone rogue. Fearing the worst, the regiment heads out into the wilderness to verify the gruesome claims.", "poster_path": "/spwvStEA4CraTXPOcONrDzncXOZ.jpg", "release_date": "1999-03-16", "title": "Ravenous", "video": false, "vote_average": 6.8, "vote_count": 271, "popularity": 10.22}, {"id": 1654, "video": false, "vote_count": 574, "vote_average": 7.7, "title": "The Dirty Dozen", "release_date": "1967-06-15", "original_language": "en", "original_title": "The Dirty Dozen", "genre_ids": [28, 12, 10752], "backdrop_path": "/ccegwWa7I2vxxaoXrGB8Wl1g5nl.jpg", "adult": false, "overview": "12 American military prisoners in World War II are ordered to infiltrate a well-guarded enemy ch\u00e2teau and kill the Nazi officers vacationing there. The soldiers, most of whom are facing death sentences for a variety of violent crimes, agree to the mission and the possible commuting of their sentences.", "poster_path": "/2PKazVY2F2GhRfQyErq8QWiq0Au.jpg", "popularity": 16.266}, {"adult": false, "backdrop_path": "/bWoNwo04ZfZoEvEF8gliyB1EAyS.jpg", "genre_ids": [35, 18], "id": 586, "original_language": "en", "original_title": "Wag the Dog", "overview": "During the final weeks of a presidential race, the President is accused of sexual misconduct. To distract the public until the election, the President's adviser hires a Hollywood producer to help him stage a fake war.", "poster_path": "/cGatilylRyJiCoOu5T5sAB17HKR.jpg", "release_date": "1997-12-25", "title": "Wag the Dog", "video": false, "vote_average": 6.9, "vote_count": 490, "popularity": 13.041}], "total_pages": 11, "total_results": 219}, "recommendations": {"page": 1, "results": [{"id": 32, "video": false, "vote_count": 10, "vote_average": 6.8, "title": "Cannon Fodder", "release_date": "1995-12-23", "original_language": "ja", "original_title": "\u5927\u7832\u306e\u8857", "genre_ids": [16, 36], "backdrop_path": "/xA4EScmiqlU3lRYoyUwaEWhPgww.jpg", "adult": false, "overview": "Otomo Katsuhiro\u2019s short anime story", "poster_path": "/uqAB40iXwb0yGRHfI9xDqYR2A2p.jpg", "popularity": 7.352}, {"adult": false, "backdrop_path": "/5MG3iC4YL5HFUFLnYlSPfey9DDG.jpg", "genre_ids": [35], "id": 83015, "original_language": "en", "original_title": "The Happiest Days of Your Life", "overview": "Nutbourne College, an old established, all-boys, boarding school is told that another school is to be billeted with due to wartime restrictions. The shock is that it's an all-girls school that has been sent. The two head teachers are soon battling for the upper hand with each other and the Ministry. But a crisis (or two) forces them to work together.", "poster_path": "/wqFMQdWy5MSg50rCSGHKwFCSeXJ.jpg", "release_date": "1950-03-08", "title": "The Happiest Days of Your Life", "video": false, "vote_average": 6.7, "vote_count": 13, "popularity": 4.445}, {"adult": false, "backdrop_path": "/nGcTAHMarHRoNkKVLxY8nhzmHFB.jpg", "genre_ids": [10402, 99], "id": 53871, "original_language": "en", "original_title": "Glastonbury", "overview": "Julien Temple's 2006 documentary film about the famous music festival from 1970 to 2005, featuring performances from artists such as David Bowie, Bjork, Blur, Oasis and Coldplay. The film is made up of footage shot by Temple at the festival in 2002, 2003, 2004 and 2005, as well as footage sent in by festival goers after a request on websites and newspapers for footage. Temple had initially only agreed to make a film of the 2002 festival after organiser Michael Eavis expressed concern that that would be the last year of the festival. Temple then realised that he wanted to make a film detailing the full history of the festival. The film also includes footage shot by Channel 4 and the BBC during their coverage of the festival since 1994. Text from Wikipedia.", "poster_path": "/5zaaqJwW0Ldfp3uaEWSqduEHB9g.jpg", "release_date": "2006-04-13", "title": "Glastonbury", "video": false, "vote_average": 6.3, "vote_count": 7, "popularity": 2.288}, {"adult": false, "backdrop_path": "/kYEoCQQd3bnDnzgpTo4IZij7k40.jpg", "genre_ids": [35, 10752], "id": 84109, "original_language": "en", "original_title": "Private's Progress", "overview": "Stanley Windrush has to interrupt his university education when he is called up towards the end of the war. He quickly proves himself not to be officer material, but befriends wily Private Percival Cox who knows exactly how all the scams work in the confused world of the British Army. And Stanley's brigadier War Office uncle seems to be up to something more than a bit shady too - and they are both soon working for him, behind the enemy lines.", "poster_path": "/sLSFCFMO771zMAjsO4wBsiT2jSg.jpg", "release_date": "1956-02-17", "title": "Private's Progress", "video": false, "vote_average": 6.6, "vote_count": 11, "popularity": 3.347}, {"adult": false, "backdrop_path": "/oKJUshF2NYNQXJzwAZzDW4oekiB.jpg", "genre_ids": [35], "id": 48954, "original_language": "en", "original_title": "The Maggie", "overview": "The poor, elderly\u2014and the wily, when it comes to parting those who can afford it from their money\u2014Scottish skipper of a broken-down old 'puffer' boat tricks an American tycoon into paying him to transport his personal cargo. When the tycoon learns of the trick, he attempts to track down the boat and remove his possessions.", "poster_path": "/fMepZ6WZ8j3ts2estQvKYcpWwQL.jpg", "release_date": "1954-02-25", "title": "The Maggie", "video": false, "vote_average": 6.2, "vote_count": 18, "popularity": 3.11}, {"adult": false, "backdrop_path": "/8Tk5Mp0gkCI6EijjfzOtp1PAhkm.jpg", "genre_ids": [35], "id": 43233, "original_language": "en", "original_title": "Lucky Jim", "overview": "Jim Dixon feels anything but lucky. At the university he has to do the bidding of absent-minded and boring Professor Welch to have any hope of keeping his job. Worse, he has managed to get entangled with unexciting but neurotic Margaret Peel, a friend of the Professor's. All-in-all, the pub is the only friendly place to be. His misery is completed at a dreadful weekend gathering of the Welch clan by the arrival of son Bertrand. Not so much that Betrand is loud-mouthed and boorish - which he is - but that he has as companion Christine Callaghan, the sort of marvellous and unattainable woman Jim can only dream about.", "poster_path": "/qxL7xtv8vOxgpAisDqCS7RSMLST.jpg", "release_date": "1957-09-17", "title": "Lucky Jim", "video": false, "vote_average": 5.1, "vote_count": 11, "popularity": 2.697}, {"id": 30, "video": false, "vote_count": 70, "vote_average": 4.5, "title": "Magnetic Rose", "release_date": "1995-12-23", "original_language": "ja", "original_title": "\u5f7c\u5973\u306e\u60f3\u3044\u3067", "genre_ids": [16, 878], "backdrop_path": "/8A11sHkxWPHtXM1H3jzuWZpAvg5.jpg", "adult": false, "overview": "Koji Morimato\u2019s animated science fiction short story about how the border between reality and illusion on a space station becomes blurry.", "poster_path": "/gSuHDeWemA1menrwfMRChnSmMVN.jpg", "popularity": 7.619}, {"id": 245917, "video": false, "vote_count": 31, "vote_average": 8.1, "title": "Gintama: The Final Chapter - Be Forever Yorozuya", "release_date": "2013-07-04", "original_language": "ja", "original_title": "\u9280\u9b42 \u5b8c\u7d50\u7bc7 \u4e07\u4e8b\u5c4b\u3088\u6c38\u9060\u306a\u308c", "genre_ids": [28, 16, 35, 878], "backdrop_path": "/wv4LRJqLbUzihPy1jvVXTALfwwn.jpg", "adult": false, "overview": "What would have happened if the Shiroyasha never existed?  Edo is thrown to chaos by a mysterious cause. Sakata Gintoki, now lives in a world where the future has changed, without him. What has happened to the Yorozuya?  Gintoki, who is now a ghost of the past, must once again carry the burden in order to save his friends. He must finish the biggest job ever, which may be the final job of Yorozuya.", "poster_path": "/1wEl5WHQO2SdWQ6S3gLBaaobf4c.jpg", "popularity": 6.193}, {"adult": false, "backdrop_path": "/tiZ6ooBme9W1qx0C54pTzCpIyiH.jpg", "genre_ids": [16, 28, 35], "id": 31595, "original_language": "ja", "original_title": "\u30eb\u30d1\u30f3\u4e09\u4e16 \u708e\u306e\u8a18\u61b6 \u301cTOKYO CRISIS\u301c", "overview": "Lupin attempts and fails to steal a valuable set of Japanese photographic plates. The rightful owner of the plates, Michael Suzuki, is a multimillionaire who is preparing to open a huge water park in Tokyo. Lupin attempts to enlist the help of his steadfast comrades Jigen and Goemon but find them less than reliable; Jigen is suffering from a toothache that throws off his legendary aim, and Goemon has shamefully had his sword, Zantetsuken, stolen by a woman and given to Suzuki to display in his art collection. The group works on a plan with Fujiko to get both the plates and Zantetsuken.", "poster_path": "/5CljfpCiCe0uj2isBWtya8F0I5w.jpg", "release_date": "1998-07-24", "title": "Lupin the Third: Tokyo Crisis", "video": false, "vote_average": 6.3, "vote_count": 14, "popularity": 5.362}], "total_pages": 1, "total_results": 9}, "credits": {"cast": [], "crew": [{"credit_id": "52fe4211c3a36847f80013e5", "department": "Directing", "gender": 2, "id": 187, "job": "Director", "name": "Tensai Okamura", "profile_path": null}, {"credit_id": "52fe4211c3a36847f80013eb", "department": "Writing", "gender": 2, "id": 185, "job": "Author", "name": "Katsuhiro Otomo", "profile_path": "/hMxQlQa0cKLx086va8KDIyOdxO1.jpg"}, {"credit_id": "5ae8ee49c3a3680c37000450", "department": "Directing", "gender": 0, "id": 2034197, "job": "Assistant Director", "name": "Satoru Nishiura", "profile_path": null}]}}