{"adult": false, "backdrop_path": "/5v33jOpYLVdcEofKSGk7FyoZFd0.jpg", "belongs_to_collection": null, "budget": 0, "genres": [{"id": 18, "name": "Drama"}, {"id": 36, "name": "History"}, {"id": 10749, "name": "Romance"}, {"id": 53, "name": "Thriller"}], "homepage": null, "id": 31040, "imdb_id": "tt0468548", "original_language": "en", "original_title": "The Situation", "overview": "The first U.S.-made film drama set during the Iraq war, THE SITUATION chronicles the tragic death of an Iraqi teenager at the hands of U.S. soldiers. The incident sets off an \"investigation,\" a cover-up, and complications involving Iraqi mayor Sheikh Tahsin (Sa\u00efd Amadis), who has a complex relationship with the Americans.", "popularity": 2.324, "poster_path": "/xVecO81T6WZUmZXknD8eZdsgwD3.jpg", "production_companies": [{"id": 5112, "logo_path": null, "name": "Red Wine Pictures", "origin_country": ""}], "production_countries": [{"iso_3166_1": "US", "name": "United States of America"}], "release_date": "2006-01-01", "revenue": 0, "runtime": 111, "spoken_languages": [{"iso_639_1": "en", "name": "English"}], "status": "Released", "tagline": "", "title": "The Situation", "video": false, "vote_average": 6.0, "vote_count": 6, "keywords": {"keywords": [{"id": 15087, "name": "iraq war"}]}, "similar": {"page": 1, "results": [{"id": 429197, "video": false, "vote_count": 1765, "vote_average": 7.1, "title": "Vice", "release_date": "2018-12-25", "original_language": "en", "original_title": "Vice", "genre_ids": [35, 18, 36], "backdrop_path": "/n49difnnZ8e0CZTvulnMRoURdQj.jpg", "adult": false, "overview": "George W. Bush picks Dick Cheney, the CEO of Halliburton Co., to be his Republican running mate in the 2000 presidential election. No stranger to politics, Cheney's impressive r\u00e9sum\u00e9 includes stints as White House chief of staff, House Minority Whip and defense secretary. When Bush wins by a narrow margin, Cheney begins to use his newfound power to help reshape the country and the world.", "poster_path": "/seqLrPNbWJdcX6PeEhBNkmxjz6h.jpg", "popularity": 23.205}, {"id": 12162, "video": false, "vote_count": 3372, "vote_average": 7.3, "title": "The Hurt Locker", "release_date": "2008-10-10", "original_language": "en", "original_title": "The Hurt Locker", "genre_ids": [18, 53, 10752], "backdrop_path": "/3iPnZOXR9mpcK8RwvAW7b7Axr8v.jpg", "adult": false, "overview": "Forced to play a dangerous game of cat-and-mouse in the chaos of war, an elite Army bomb squad unit must come together in a city where everyone is a potential enemy and every object could be a deadly bomb.", "poster_path": "/3ZEqU9Ykmn8zGDUwWnmTfHaaWRB.jpg", "popularity": 20.71}, {"id": 393624, "video": false, "vote_count": 97, "vote_average": 7.3, "title": "Official Secrets", "release_date": "2019-08-30", "original_language": "en", "original_title": "Official Secrets", "genre_ids": [80, 18, 36, 53, 10749, 10752], "backdrop_path": "/t6SIw4qU9oyhN07o2ZY9TpmiFjh.jpg", "adult": false, "overview": "The true story of British intelligence whistleblower Katharine Gun who\u2014prior to the 2003 Iraq invasion\u2014leaked a top-secret NSA memo exposing a joint US-UK illegal spying operation against members of the UN Security Council. The memo proposed blackmailing member states into voting for war.", "poster_path": "/lyCGqSkT3PqLYQXiWs4FCVJBAYW.jpg", "popularity": 14.4}, {"id": 405775, "video": false, "vote_count": 453, "vote_average": 6.1, "title": "The Wall", "release_date": "2017-05-12", "original_language": "en", "original_title": "The Wall", "genre_ids": [18, 53, 10752], "backdrop_path": "/eDw3ydtUpCE541mBFnEnSHyYuaH.jpg", "adult": false, "overview": "An American sniper and his spotter engage in a deadly cat-and-mouse game with an Iraqi sniper.", "poster_path": "/8POAZwZpp24l1IgKKM8ZRAQ2kid.jpg", "popularity": 12.711}, {"id": 190859, "video": false, "vote_count": 8309, "vote_average": 7.4, "title": "American Sniper", "release_date": "2014-12-11", "original_language": "en", "original_title": "American Sniper", "genre_ids": [28, 10752], "backdrop_path": "/oJNu8vS6Wf10Cv2996KO65jt4C0.jpg", "adult": false, "overview": "U.S. Navy SEAL Chris Kyle takes his sole mission\u2014protect his comrades\u2014to heart and becomes one of the most lethal snipers in American history. His pinpoint accuracy not only saves countless lives but also makes him a prime target of insurgents. Despite grave danger and his struggle to be a good husband and father to his family back in the States, Kyle serves four tours of duty in Iraq. However, when he finally returns home, he finds that he cannot leave the war behind.", "poster_path": "/svPHnYE7N5NAGO49dBmRhq0vDQ3.jpg", "popularity": 23.721}, {"adult": false, "backdrop_path": "/kBb9XuEfRPRO9BajTAyIk0SxBm8.jpg", "genre_ids": [18, 36], "id": 10523, "original_language": "en", "original_title": "W.", "overview": "Whether you love him or hate him, there is no question that George W. Bush is one of the most controversial public figures in recent memory. W takes viewers through Bush\u2019s eventful life -- his struggles and triumphs, how he found both his wife and his faith, and of course the critical days leading up to Bush\u2019s decision to invade Iraq.", "poster_path": "/upFQuRzN23kLvzO1brSFClLqZvV.jpg", "release_date": "2008-10-17", "title": "W.", "video": false, "vote_average": 6.0, "vote_count": 266, "popularity": 9.4}, {"id": 476335, "video": false, "vote_count": 44, "vote_average": 6.6, "title": "Shock and Awe", "release_date": "2018-07-13", "original_language": "en", "original_title": "Shock and Awe", "genre_ids": [18, 36, 53], "backdrop_path": "/jRLCEJtrJNHi5bkS2C6nq8LC30a.jpg", "adult": false, "overview": "A group of journalists covering George Bush's planned invasion of Iraq in 2003 are skeptical of the presidents claim that Saddam Hussein has \"weapons of mass destruction.\"", "poster_path": "/wdPQPRMIMp3Gcc83Dq1EjOgOgLT.jpg", "popularity": 9.613}, {"id": 97630, "video": false, "vote_count": 2785, "vote_average": 6.9, "title": "Zero Dark Thirty", "release_date": "2012-12-19", "original_language": "en", "original_title": "Zero Dark Thirty", "genre_ids": [18, 36, 53], "backdrop_path": "/zy5hyStEkQyjZgYtvKzJQBr7MpJ.jpg", "adult": false, "overview": "A chronicle of the decade-long hunt for al-Qaeda terrorist leader Osama bin Laden after the September 2001 attacks, and his death at the hands of the Navy S.E.A.L. Team 6 in May, 2011.", "poster_path": "/yg6IDNucLAEj7E5loTyTnUW2pgb.jpg", "popularity": 26.313}, {"id": 308266, "video": false, "vote_count": 2674, "vote_average": 6.8, "title": "War Dogs", "release_date": "2016-08-17", "original_language": "en", "original_title": "War Dogs", "genre_ids": [35, 80, 18], "backdrop_path": "/15ruj2IGZqXXQCgln4Do8WPeAIr.jpg", "adult": false, "overview": "Based on the true story of two young men, David Packouz and Efraim Diveroli, who won a $300 million contract from the Pentagon to arm America's allies in Afghanistan.", "poster_path": "/wJXku1YhMKeuzYNEHux7XtaYPsE.jpg", "popularity": 15.957}, {"adult": false, "backdrop_path": "/mJpepArAQPc14jprmaBEGbny2y8.jpg", "genre_ids": [28, 12, 35], "id": 6415, "original_language": "en", "original_title": "Three Kings", "overview": "A group of American soldiers stationed in Iraq at the end of the Gulf War find a map they believe will take them to a huge cache of stolen Kuwaiti gold hidden near their base, and they embark on a secret mission that's destined to change everything.", "poster_path": "/wvNga0QP6RWMRday7KgmTBbErwz.jpg", "release_date": "1999-09-27", "title": "Three Kings", "video": false, "vote_average": 6.6, "vote_count": 1173, "popularity": 17.939}, {"id": 9255, "video": false, "vote_count": 920, "vote_average": 6.4, "title": "Hot Shots! Part Deux", "release_date": "1993-05-21", "original_language": "en", "original_title": "Hot Shots! Part Deux", "genre_ids": [28, 35, 10752], "backdrop_path": "/4nYzn99ZPfAEQY4ypopoXa7RdPU.jpg", "adult": false, "overview": "Topper Harley is found to be working as an odd-job-man in a monastery. The CIA want him to lead a rescue mission into Iraq, to rescue the last rescue team, who went in to rescue the last rescue team who... who went in to rescue hostages left behind after Desert Storm.", "poster_path": "/3vILyxwmL4hcqiik638l8lL2d4h.jpg", "popularity": 14.828}, {"id": 22972, "video": false, "vote_count": 1311, "vote_average": 6.4, "title": "Green Zone", "release_date": "2010-03-11", "original_language": "en", "original_title": "Green Zone", "genre_ids": [28, 12, 18, 53, 10752], "backdrop_path": "/lxxkBvUqfCDTh5o4Ny0RQ3CNwlG.jpg", "adult": false, "overview": "During the U.S.-led occupation of Baghdad in 2003, Chief Warrant Officer Roy Miller and his team of Army inspectors are dispatched to find weapons of mass destruction believed to be stockpiled in the Iraqi desert. Rocketing from one booby-trapped and treacherous site to the next, the men search for deadly chemical agents but stumble instead upon an elaborate cover-up that threatens to invert the purpose of their mission.", "poster_path": "/sz6YKjzbu6u0JKaqjx4qF0WGkpS.jpg", "popularity": 16.86}, {"id": 419709, "video": false, "vote_count": 229, "vote_average": 6.9, "title": "Last Flag Flying", "release_date": "2017-11-03", "original_language": "en", "original_title": "Last Flag Flying", "genre_ids": [35, 18], "backdrop_path": "/gtQWtH7z2ywAYuzW2FWHfxVeZPB.jpg", "adult": false, "overview": "Thirty years after serving together in the Vietnam War, Larry \"Doc\" Shepherd, Sal Nealon and the Rev. Richard Mueller reunite for a different type of mission: to bury Doc's son, a young Marine killed in Iraq. Forgoing burial at Arlington National Cemetery, Doc and his old buddies take the casket on a bittersweet trip up the coast to New Hampshire. Along the way, the three men find themselves reminiscing and coming to terms with the shared memories of a war that continues to shape their lives.", "poster_path": "/pizynKUzJ9YucGff1O1MYisY1WM.jpg", "popularity": 13.552}, {"id": 9440, "video": false, "vote_count": 165, "vote_average": 6.3, "title": "Primary Colors", "release_date": "1998-03-20", "original_language": "en", "original_title": "Primary Colors", "genre_ids": [18], "backdrop_path": "/5dr51JtcVDwBhBzkrugSEbhV2je.jpg", "adult": false, "overview": "In this adaptation of the best-selling roman \u00e0 clef about Bill Clinton's 1992 run for the White House, the young and gifted Henry Burton is tapped to oversee the presidential campaign of Governor Jack Stanton. Burton is pulled into the politician's colorful world and looks on as Stanton -- who has a wandering eye that could be his downfall -- contends with his ambitious wife, Susan, and an outspoken adviser, Richard Jemmons.", "poster_path": "/6ojWGOU5BcjZHDOwBOtxDhTWxJf.jpg", "popularity": 9.038}, {"id": 241848, "video": false, "vote_count": 1047, "vote_average": 6.5, "title": "The Guest", "release_date": "2014-09-17", "original_language": "en", "original_title": "The Guest", "genre_ids": [28, 9648, 53], "backdrop_path": "/dQ1eV5vn9794wsdpqe7QGK4Yo99.jpg", "adult": false, "overview": "A soldier introduces himself to the Peterson family, claiming to be a friend of their son who died in action. After the young man is welcomed into their home, a series of accidental deaths seem to be connected to his presence.", "poster_path": "/xxSuU7Q9ZmPjw9TNQ1WzmHVAxBI.jpg", "popularity": 10.531}, {"id": 6973, "video": false, "vote_count": 504, "vote_average": 6.7, "title": "In the Valley of Elah", "release_date": "2007-08-31", "original_language": "en", "original_title": "In the Valley of Elah", "genre_ids": [80, 18, 36, 9648, 53], "backdrop_path": "/dGBPaT4p2mOZ3xiETS4fcC5D6bA.jpg", "adult": false, "overview": "A career officer and his wife work with a police detective to uncover the truth behind their son's disappearance following his return from a tour of duty in Iraq.", "poster_path": "/ccqymPOnylrkXpnvizW8d6n3dtt.jpg", "popularity": 10.703}, {"id": 567733, "video": false, "vote_count": 54, "vote_average": 4.9, "title": "Crypto", "release_date": "2019-04-12", "original_language": "en", "original_title": "Crypto", "genre_ids": [80, 18, 53], "backdrop_path": "/xz5I9tqoSnaauJwNV1zyt17SQTi.jpg", "adult": false, "overview": "A young agent is tasked with investigating a tangled web of corruption and fraud in New York.", "poster_path": "/fzTvnA3buXsjdmjrYRDozKBFF78.jpg", "popularity": 9.39}, {"id": 293767, "video": false, "vote_count": 334, "vote_average": 5.9, "title": "Billy Lynn's Long Halftime Walk", "release_date": "2016-11-10", "original_language": "en", "original_title": "Billy Lynn's Long Halftime Walk", "genre_ids": [18, 10752], "backdrop_path": "/v3a3PEJH9HQobkHdh6mxw4XBN3M.jpg", "adult": false, "overview": "19-year-old Billy Lynn is brought home for a victory tour after a harrowing Iraq battle. Through flashbacks the film shows what really happened to his squad - contrasting the realities of war with America's perceptions.", "poster_path": "/jw60oWt2PWWCvuz8S93i2RH4XJh.jpg", "popularity": 13.341}, {"id": 8975, "video": false, "vote_count": 304, "vote_average": 5.4, "title": "The Marine", "release_date": "2006-10-13", "original_language": "en", "original_title": "The Marine", "genre_ids": [28, 12, 18, 53], "backdrop_path": "/8eUeXY5XvVbOuU7tkctOmTNJ3PU.jpg", "adult": false, "overview": "A group of diamond thieves on the run kidnap the wife of a recently discharged marine who goes on a chase through the South Carolinian wilderness to retrieve her.", "poster_path": "/nyfNJo6Htju5h0Xgj6szROpxqdt.jpg", "popularity": 16.566}, {"id": 38363, "video": false, "vote_count": 428, "vote_average": 6.6, "title": "Fair Game", "release_date": "2010-05-20", "original_language": "en", "original_title": "Fair Game", "genre_ids": [18, 53], "backdrop_path": "/5JtGSa0tVNXR6NcM5XUhYBo3bvE.jpg", "adult": false, "overview": "Wife and mother Valerie Plame (Naomi Watts) has a double life as a CIA operative, hiding her vocation from family and friends. Her husband, Joseph Wilson (Sean Penn), writes a controversial article in The New York Times, refuting stories about the sale of enriched uranium to Iraq, Then Valerie's secret work and identity is leaked to the press. With her cover blown and other people endangered, Valerie's career and personal life begin to unravel.", "poster_path": "/yE8uba2FkmFagMpeNNoo0cPyJ7D.jpg", "popularity": 10.457}], "total_pages": 7, "total_results": 130}, "recommendations": {"page": 1, "results": [{"adult": false, "backdrop_path": "/7MiVor0P1wxKEWIAD8GhnVgk4IB.jpg", "genre_ids": [18, 10749], "id": 81792, "original_language": "ja", "original_title": "\u30f4\u30a1\u30a4\u30d6\u30ec\u30fc\u30bf", "overview": "Rei is a freelance writer embattled by personal demons. We first meet her in a convenience store where she is buying too much alcohol and not enough food. At the magazine rack she pauses to contemplate the happiness of the glamour girls on the glossies for which she writes. Only later do we realize that this is self-reflection. A chance encounter with truck driving Takatoshi, leads to a two day romp of sex, friendship and introspection. It's unclear if what happens to her is the product of her writer self imagining it all as a magazine serial (hence the inter-titles and voice of the narrator).", "poster_path": "/mb0ONIUid0BertT0iFC0JZg8X7S.jpg", "release_date": "2003-12-06", "title": "Vibrator", "video": false, "vote_average": 5.9, "vote_count": 15, "popularity": 3.962}, {"adult": false, "backdrop_path": "/fr1gaUcZ70LrdYaTY6ffH3Pff0p.jpg", "genre_ids": [99], "id": 51311, "original_language": "en", "original_title": "Wheel of Time", "overview": "Wheel of Time is Werner Herzog's photographed look at the largest Buddhist ritual in Bodh Gaya, India.", "poster_path": "/EL6DyQCgwwZ2Jj3rhLm1Ytan8F.jpg", "release_date": "2003-10-30", "title": "Wheel of Time", "video": false, "vote_average": 6.7, "vote_count": 20, "popularity": 4.557}, {"adult": false, "backdrop_path": "/wDDsybn7FmtBLM0s5TJY0xlQ9dz.jpg", "genre_ids": [12, 18], "id": 37232, "original_language": "en", "original_title": "Travellers and Magicians", "overview": "A young government official, named Dondup, who is smitten with America (he even has a denim gho) dreams of escaping there while stuck in a beautiful but isolated village. He hopes to connect in the U.S. with a visa out of the country. He misses the one bus out of town to Thimphu, however, and is forced to hitchhike and walk along the Lateral Road to the west, accompanied by an apple seller, a Buddhist monk with his ornate, dragon-headed dramyin, a drunk, a widowed rice paper maker, and his beautiful daughter, Sonam.", "poster_path": "/4yev0a0Opkjv2NbyjHXpTDTd2Lb.jpg", "release_date": "2003-09-09", "title": "Travellers and Magicians", "video": false, "vote_average": 6.9, "vote_count": 15, "popularity": 3.174}], "total_pages": 1, "total_results": 3}, "credits": {"cast": [{"cast_id": 1, "character": "Anna Molyneux", "credit_id": "52fe44589251416c9100d759", "gender": 1, "id": 935, "name": "Connie Nielsen", "order": 0, "profile_path": "/lvQypTfeH2Gn2PTbzq6XkT2PLmn.jpg"}, {"cast_id": 2, "character": "Dan Murphy", "credit_id": "52fe44589251416c9100d75d", "gender": 2, "id": 20186, "name": "Damian Lewis", "order": 1, "profile_path": "/2RcaC1ictETsTU4ioFlQ32zGYYg.jpg"}, {"cast_id": 3, "character": "Zaid", "credit_id": "52fe44589251416c9100d761", "gender": 2, "id": 107561, "name": "Mido Hamada", "order": 2, "profile_path": "/kpZ4Q7W9G3j75KlfD5hyjQuYNKu.jpg"}], "crew": [{"credit_id": "52fe44589251416c9100d767", "department": "Directing", "gender": 0, "id": 55038, "job": "Director", "name": "Philip Haas", "profile_path": null}, {"credit_id": "52fe44589251416c9100d76d", "department": "Writing", "gender": 0, "id": 107562, "job": "Writer", "name": "Wendell Steavenson", "profile_path": null}]}}