{"adult": false, "backdrop_path": "/mrNW7cjbQFEgySrjLjm1mVyzsr4.jpg", "belongs_to_collection": null, "budget": 0, "genres": [{"id": 10751, "name": "Family"}, {"id": 12, "name": "Adventure"}], "homepage": "http://www.alittlegame.com/", "id": 310952, "imdb_id": "tt2276480", "original_language": "en", "original_title": "A Little Game", "overview": "Ostracized at her posh new uptown school and shaken by the death of her beloved grandmother, a 10 year-old downtown girl finds an unlikely mentor in the form of an irascible chess-master, who uses the game to teach Max lessons in resilience, perseverance, and how to embrace inevitable change.", "popularity": 3.426, "poster_path": "/jIy5FH51fCf5obqamYmFK6d8Zwu.jpg", "production_companies": [], "production_countries": [{"iso_3166_1": "US", "name": "United States of America"}], "release_date": "2014-04-26", "revenue": 0, "runtime": 92, "spoken_languages": [{"iso_639_1": "en", "name": "English"}], "status": "Released", "tagline": "Believe You Can Win", "title": "A Little Game", "video": false, "vote_average": 6.1, "vote_count": 16, "keywords": {"keywords": [{"id": 316, "name": "chess"}]}, "similar": {"page": 1, "results": [{"id": 245698, "video": false, "vote_count": 498, "vote_average": 6.7, "title": "Pawn Sacrifice", "release_date": "2015-09-16", "original_language": "en", "original_title": "Pawn Sacrifice", "genre_ids": [18, 53], "backdrop_path": "/7Tt7UjlyccQpM6IKqzJI45DYXVR.jpg", "adult": false, "overview": "American chess champion Bobby Fischer prepares for a legendary match-up against Russian Boris Spassky.", "poster_path": "/mxdpBuSMqql2Uvv27NIV1pahcsW.jpg", "popularity": 9.902}, {"id": 5765, "video": false, "vote_count": 91, "vote_average": 6.0, "title": "Knight Moves", "release_date": "1992-01-14", "original_language": "en", "original_title": "Knight Moves", "genre_ids": [9648, 53], "backdrop_path": "/z3BfrjcZdElF0LsN8JlCiZnJmW0.jpg", "adult": false, "overview": "A chess grandmaster is in a big tournament, and when his lover is found painted up and the blood drained out of her body he becomes a chief suspect. After he gets a call from the killer urging him to try and figure out the game, he cooperates with police and a psychologist to try and catch the killer, but doubts linger about the grandmaster's innocence as the string of grisly murders continues.", "poster_path": "/9Zvyk7Jp5fcqGBkFvjZiVxV4DeL.jpg", "popularity": 8.059}, {"id": 490, "video": false, "vote_count": 1355, "vote_average": 8.2, "title": "The Seventh Seal", "release_date": "1957-02-16", "original_language": "sv", "original_title": "Det sjunde inseglet", "genre_ids": [18, 14], "backdrop_path": "/d9VUlRTovsGbwkUjNR2OGOGrQuO.jpg", "adult": false, "overview": "When disillusioned Swedish knight Antonius Block returns home from the Crusades to find his country in the grips of the Black Death, he challenges Death to a chess match for his life. Tormented by the belief that God does not exist, Block sets off on a journey, meeting up with traveling players Jof and his wife, Mia, and becoming determined to evade Death long enough to commit one redemptive act while he still lives.", "poster_path": "/iJXSumDrz64AvmFZaHHNBGDO1ex.jpg", "popularity": 14.376}, {"id": 52654, "video": false, "vote_count": 21, "vote_average": 6.3, "title": "The Luzhin Defence", "release_date": "2000-08-21", "original_language": "en", "original_title": "The Luzhin Defence", "genre_ids": [18, 10749], "backdrop_path": "/fy7EVUj5UfskPDdQ8jBp2Fj3nsZ.jpg", "adult": false, "overview": "Based upon the novel by Vladimir Nabokov, a chess grandmaster travels to Italy in the 1920s to play in a tournament and falls in love.", "poster_path": "/dxiCjd2ofh6AcqssynYtM0Emdc2.jpg", "popularity": 4.817}, {"id": 632, "video": false, "vote_count": 275, "vote_average": 7.8, "title": "Stalag 17", "release_date": "1953-05-29", "original_language": "en", "original_title": "Stalag 17", "genre_ids": [10752], "backdrop_path": "/zgM5leh0dKPXllIJwemc3dVRyE7.jpg", "adult": false, "overview": "It's a dreary Christmas 1944 for the American POWs in Stalag 17 and the men in Barracks 4, all sergeants, have to deal with a grave problem\u2014there seems to be a security leak.", "poster_path": "/2PtDbmN7HAu4W5WqrUocBV8lgiZ.jpg", "popularity": 10.931}, {"adult": false, "backdrop_path": "/tJ6l2eJKEUCRvBFlgQYbRos8fJN.jpg", "genre_ids": [35], "id": 158743, "original_language": "en", "original_title": "Computer Chess", "overview": "Set over the course of a weekend tournament for chess software programmers thirty-some years ago, COMPUTER CHESS transports viewers to a nostalgic moment when the contest between technology and the human spirit seemed a little more up for grabs. We get to know the eccentric geniuses possessed with the vision to teach a metal box to defeat man, literally, at his own game, laying the groundwork for artificial intelligence as we know it and will come to know it in the future.", "poster_path": "/mnPL2htAfBFaQmTizIe5Cu5djTu.jpg", "release_date": "2013-07-17", "title": "Computer Chess", "video": false, "vote_average": 6.3, "vote_count": 58, "popularity": 5.786}, {"id": 13815, "video": false, "vote_count": 92, "vote_average": 7.5, "title": "Fresh", "release_date": "1994-08-24", "original_language": "en", "original_title": "Fresh", "genre_ids": [80, 18, 53], "backdrop_path": "/2ROrwXMOqRr8fAUgH7ARPARjBcS.jpg", "adult": false, "overview": "Michael is a 12-year-old drug pusher who lives in a crowded house with his cousins and aunt. His father has become a street bum,but still meets with Fresh on occasion to play chess. Fresh is rather quiet in a crazy world. Fresh's sister is a junkie who sleeps with the dealers that Fresh sells for. As the story progresses Fresh realizes that he doesn't want to sell drugs anymore - he wants revenge.", "poster_path": "/uXRIIUzjDZZdWR2cUzPJ9eAqaHv.jpg", "popularity": 11.213}, {"id": 317557, "video": false, "vote_count": 250, "vote_average": 7.1, "title": "Queen of Katwe", "release_date": "2016-09-23", "original_language": "en", "original_title": "Queen of Katwe", "genre_ids": [18], "backdrop_path": "/awZwLXuPAGZEARF3y18S3qWt5LH.jpg", "adult": false, "overview": "A young girl overcomes her disadvantaged upbringing in the slums of Uganda to become a Chess master.", "poster_path": "/8nIIoHuV1c8orDNCyTcHuDhoc4q.jpg", "popularity": 9.376}, {"id": 13929, "video": false, "vote_count": 630, "vote_average": 7.8, "title": "Geri's Game", "release_date": "1997-11-24", "original_language": "en", "original_title": "Geri's Game", "genre_ids": [16, 10751], "backdrop_path": "/baddGVlv1zk1RDhf0dKUHyKxcQq.jpg", "adult": false, "overview": "An aging codger named Geri plays a daylong game of chess in the park against himself. Somehow, he begins losing to his livelier opponent. But just when the game's nearly over, Geri manages to turn the tables.", "poster_path": "/8PdCk3T9EkcKniUviDogWFCXx28.jpg", "popularity": 10.821}, {"id": 309245, "video": false, "vote_count": 325, "vote_average": 6.6, "title": "Mistress America", "release_date": "2015-08-14", "original_language": "en", "original_title": "Mistress America", "genre_ids": [35], "backdrop_path": "/73e2oDFYjCuKpOmb9hTAZttS1wr.jpg", "adult": false, "overview": "Tracy, a lonely college freshman in New York, is rescued from her solitude by her soon-to-be stepsister Brooke, an adventurous gal about town who entangles her in alluringly mad schemes.", "poster_path": "/aLoPGV8c0G3AXB1ux0JhUYA1YRX.jpg", "popularity": 8.108}, {"id": 14291, "video": false, "vote_count": 178, "vote_average": 7.4, "title": "Searching for Bobby Fischer", "release_date": "1993-08-13", "original_language": "en", "original_title": "Searching for Bobby Fischer", "genre_ids": [18], "backdrop_path": "/kNzHNqlFy2FCzwihvfcMMAQ5NbX.jpg", "adult": false, "overview": "A prepubescent chess prodigy refuses to harden himself in order to become a champion like the famous but unlikable Bobby Fischer.", "poster_path": "/ceIEEgMqm3FxHmY9OdYGGA0Jr8J.jpg", "popularity": 10.379}, {"adult": false, "backdrop_path": "/jMasJb7IaCs4G1m5WSHxblKYmR4.jpg", "genre_ids": [27, 9648], "id": 24106, "original_language": "en", "original_title": "The Black Cat", "overview": "After a road accident in Hungary, the American honeymooners Joan and Peter and the enigmatic Dr. Werdegast find refuge in the house of the famed architect Hjalmar Poelzig, who shares a dark past with the doctor.", "poster_path": "/nEg3B0YySjSgoJCntuPzYKNOzGm.jpg", "release_date": "1934-05-07", "title": "The Black Cat", "video": false, "vote_average": 6.9, "vote_count": 106, "popularity": 10.554}, {"id": 3103, "video": false, "vote_count": 57, "vote_average": 6.1, "title": "House of Frankenstein", "release_date": "1944-12-01", "original_language": "en", "original_title": "House of Frankenstein", "genre_ids": [27, 878], "backdrop_path": "/aZ2OVVFDDsOtdnvCjt5EbT1O0cw.jpg", "adult": false, "overview": "An evil scientist and a hunchback escape from prison and encounter Dracula, the Wolf Man and Frankenstein's Monster.", "poster_path": "/qzhYjNFri8KaaC0JGuFkWO4xmJH.jpg", "popularity": 9.565}, {"adult": false, "backdrop_path": "/kZaLPFIK7LdgmVDkestIxCZH2Hm.jpg", "genre_ids": [18, 10749, 37], "id": 21355, "original_language": "en", "original_title": "All the Pretty Horses", "overview": "The year is 1949. A young Texan named John Grady finds himself without a home after his mother sells the ranch where he has spent his entire life. Lured south of the border by the romance of cowboy life and the promise of a fresh start, Cole and his pal embark on an adventure that will test their resilience, define their maturity, and change their lives forever.", "poster_path": "/dvaBfInDqjzIDHGn8t5OJ9uQuwO.jpg", "release_date": "2000-12-11", "title": "All the Pretty Horses", "video": false, "vote_average": 5.9, "vote_count": 101, "popularity": 8.072}, {"id": 19761, "video": false, "vote_count": 102, "vote_average": 5.5, "title": "Saturn 3", "release_date": "1980-02-15", "original_language": "en", "original_title": "Saturn 3", "genre_ids": [878, 53], "backdrop_path": "/bPBW0mETVimiCeQepPRgKnmyeb6.jpg", "adult": false, "overview": "In the future, Earth is overcrowded and the population relies on distant bases to be fed. In the Saturn 3 station, Major Adam and the scientist Alex, who is also his lover and has never been on Earth, have been researching hydroponics for three years in the base alone with their dog Sally. Meanwhile, the psychotic Captain Benson fails the mental test required to travel to Saturn 3 and kills his replacement, Captain James, taking his place in the mission of assembling and programming the Demi-God series robot Hector to replace one of the scientists in Saturn 3. On the arrival, the mentally disturbed Captain Benson becomes sexually obsessed for Alex. Then he uses an interface to link his brain to program Hector, but incapable to control his emotions, he transfers his homicidal tendency and insanity to Hector. Now Major Adam and Alex are trapped in the station with a dangerous psychopath robot.", "poster_path": "/zAoLR1azwd8QbglnjWpOwJ4PI6C.jpg", "popularity": 7.571}, {"adult": false, "backdrop_path": "/eNWzQYbltlCsiMugoGkjxA5nvzG.jpg", "genre_ids": [18], "id": 9065, "original_language": "de", "original_title": "Europa", "overview": "Postwar Germany, 1945. Leopold Kessler, an American of German descent, works as a sleeping car conductor for the Zentropa railway line. When he meets Katharina Hartmann, the railroad owner's daughter, and they fall in love, his life intersects with the dark and violent path of a mysterious organization opposed to the United States army military occupation.", "poster_path": "/ot4yJ4Hi1pXPaQpejUGtOIcAN18.jpg", "release_date": "1991-06-27", "title": "Europa", "video": false, "vote_average": 7.4, "vote_count": 140, "popularity": 7.516}, {"adult": false, "backdrop_path": "/fvx6c8BQKCldggziVYf4o2E7lMc.jpg", "genre_ids": [10751, 14], "id": 15162, "original_language": "en", "original_title": "Alice Through the Looking Glass", "overview": "A modern adaptation of the classic children's story 'Alice through the Looking Glass', which continued on from the popular 'Alice in Wonderland' story. This time Alice is played by the mother, who falls asleep while reading the the bedtime story to her daughter. Walking through the Looking Glass, Alice finds herself in Chessland, a magical and fun world. There she meets the Red and White Queens, as well as many other amusing friends on her journey across the chessboard countryside onto become a crowned queen.", "poster_path": "/dfpobigqOeVNVMNhgRhvfuqYMLl.jpg", "release_date": "1998-12-26", "title": "Alice Through the Looking Glass", "video": false, "vote_average": 5.4, "vote_count": 33, "popularity": 5.143}, {"id": 32042, "video": false, "vote_count": 103, "vote_average": 6.6, "title": "Night Moves", "release_date": "1975-06-11", "original_language": "en", "original_title": "Night Moves", "genre_ids": [80, 9648, 53], "backdrop_path": "/aGcqNI1xfag1NkVqEXIT9kD0fU.jpg", "adult": false, "overview": "Private detective and former football player Harry Moseby gets hired on to what seems a standard missing person case, as a former Hollywood actress whose only major roles came thanks to being married to a studio mogul wants Moseby to find and return her daughter. Harry travels to Florida to find her, but he begins to see a connection between the runaway girl, the world of Hollywood stuntmen, and a suspicious mechanic when an unsolved murder comes to light.", "poster_path": "/jGYyRh1ECOx0uWEC6ocGS6z2V3E.jpg", "popularity": 8.474}, {"adult": false, "backdrop_path": null, "genre_ids": [10770, 27, 878], "id": 2386, "original_language": "fr", "original_title": "Le collectionneur des cerveaux", "overview": "A young pianist is shocked when she witnesses a strange chess tournament with a robot. Could there be a gruesome secret behind this exhibition?", "poster_path": "/ul1JzdS4rYnjXwyW1SRwtBnG5Dd.jpg", "release_date": "1976-10-23", "title": "Le collectionneur des cerveaux", "video": false, "vote_average": 6.0, "vote_count": 1, "popularity": 0.744}, {"id": 33034, "video": false, "vote_count": 12, "vote_average": 6.8, "title": "Keeper of the Flame", "release_date": "1943-04-01", "original_language": "en", "original_title": "Keeper of the Flame", "genre_ids": [18, 9648, 53], "backdrop_path": "/v4miV3UFsTD7322mfljM2CNfdzO.jpg", "adult": false, "overview": "Famed reporter Stephen O'Malley travels to a small town to investigate the death of a national hero.", "poster_path": "/6aTWR8cEKTuQbMUbAAjBbptEPNm.jpg", "popularity": 3.578}], "total_pages": 4, "total_results": 64}, "recommendations": {"page": 1, "results": [], "total_pages": 1, "total_results": 0}, "credits": {"cast": [{"cast_id": 2, "character": "Tom Kuftinec", "credit_id": "548beca892514122ea001113", "gender": 2, "id": 2877, "name": "Ralph Macchio", "order": 1, "profile_path": "/nTiV5ux56X4dmX5Qvriw8r7SgLz.jpg"}, {"cast_id": 3, "character": "Sarah Kuftinec", "credit_id": "548becaf92514122ff000f48", "gender": 1, "id": 21197, "name": "Janeane Garofalo", "order": 2, "profile_path": "/sNSUJ4tvqCqQQf6ml5M7NOJbOz0.jpg"}, {"cast_id": 4, "character": "Norman Wallach", "credit_id": "548becb792514122ea001115", "gender": 2, "id": 1164, "name": "F. Murray Abraham", "order": 3, "profile_path": "/nRbIHvVpz5jfQbKlnBAJN10qaLo.jpg"}, {"cast_id": 5, "character": "Isabella Diaz", "credit_id": "548becc092514122ff000f4c", "gender": 1, "id": 1099603, "name": "Fatima Ptacek", "order": 4, "profile_path": "/hMbpi8qmhGI8utHCa8pgzG72TLk.jpg"}, {"cast_id": 6, "character": "Laura Langer", "credit_id": "548becc892514122ef0010e6", "gender": 1, "id": 168994, "name": "Kimberly Quinn", "order": 5, "profile_path": "/p9cDKFc4HBtabk60NkWBOnPvMPA.jpg"}, {"cast_id": 7, "character": "Aunt Diane", "credit_id": "548becd0c3a3684ea1000cde", "gender": 1, "id": 32905, "name": "Rachel Dratch", "order": 6, "profile_path": "/cpolsNyqHEY7fUaKflr04VaYWLG.jpg"}, {"cast_id": 8, "character": "Yaya", "credit_id": "548becdbc3a3684ea1000ce3", "gender": 1, "id": 3019, "name": "Olympia Dukakis", "order": 7, "profile_path": "/8kYmUwC0SfnJKt39M5Xrr8Q0oIf.jpg"}, {"cast_id": 9, "character": "Blackstone Head of School", "credit_id": "548bece292514122ff000f52", "gender": 1, "id": 41640, "name": "Tovah Feldshuh", "order": 8, "profile_path": "/1haWbhXrJRJyhPBIoxRhTuIEWBw.jpg"}, {"cast_id": 11, "character": "Becky Langer", "credit_id": "57602a0ec3a3686cce0009c1", "gender": 1, "id": 1423519, "name": "Oona Laurence", "order": 9, "profile_path": "/OufvM058kDQm8CVKDzRx4XuBsy.jpg"}, {"cast_id": 12, "character": "Max Kuftinec", "credit_id": "57602a5792514166070013d3", "gender": 0, "id": 1635875, "name": "Makenna Ballard", "order": 10, "profile_path": null}, {"cast_id": 13, "character": "Jez Kuftinec", "credit_id": "57602aa6c3a3685f40002c55", "gender": 0, "id": 1529436, "name": "Fina Strazza", "order": 11, "profile_path": null}, {"cast_id": 14, "character": "Jaden", "credit_id": "57602ab9c3a3687956002732", "gender": 2, "id": 1142686, "name": "Gabriel Rush", "order": 12, "profile_path": "/ywELQdoOhahLGszeKAiGWybjcy2.jpg"}], "crew": [{"credit_id": "576029b4925141665400150e", "department": "Production", "gender": 2, "id": 230355, "job": "Producer", "name": "Michael Mailer", "profile_path": null}, {"credit_id": "548bec8bc3a36820c5001119", "department": "Writing", "gender": 2, "id": 232019, "job": "Screenplay", "name": "Evan Oppenheimer", "profile_path": "/1xowBWYECgcg0doIooTuyH954YL.jpg"}, {"credit_id": "548bec85c3a36820c20010d3", "department": "Directing", "gender": 2, "id": 232019, "job": "Director", "name": "Evan Oppenheimer", "profile_path": "/1xowBWYECgcg0doIooTuyH954YL.jpg"}]}}