{"adult": false, "backdrop_path": "/jfzlfWiGGWlD1mtoabi2FZz5AeS.jpg", "belongs_to_collection": null, "budget": 0, "genres": [{"id": 35, "name": "Comedy"}], "homepage": null, "id": 311129, "imdb_id": "tt0084959", "original_language": "it", "original_title": "Perche' non facciamo l'amore", "overview": "", "popularity": 1.4, "poster_path": "/iUxrTl3QMkAR5wp98NhtXooih77.jpg", "production_companies": [{"id": 98922, "logo_path": null, "name": "CHALLENGE FILM AND TELEVISION PRODUCTIONS", "origin_country": ""}, {"id": 55164, "logo_path": null, "name": "Catalonia Films", "origin_country": ""}], "production_countries": [{"iso_3166_1": "ES", "name": "Spain"}, {"iso_3166_1": "IT", "name": "Italy"}], "release_date": "1981-01-01", "revenue": 0, "runtime": null, "spoken_languages": [{"iso_639_1": "it", "name": "Italiano"}], "status": "Released", "tagline": "", "title": "Perche' non facciamo l'amore", "video": false, "vote_average": 5.5, "vote_count": 1, "keywords": {"keywords": [{"id": 572, "name": "sex"}, {"id": 1664, "name": "eroticism"}]}, "similar": {"page": 1, "results": [{"adult": false, "backdrop_path": "/98ahnrena4PwLth7HFYGLf9yssH.jpg", "genre_ids": [35, 18, 10749], "id": 22705, "original_language": "it", "original_title": "Tra(sgre)dire", "overview": "While scouting out apartments in London for her Venetian boyfriend, Carla rents an apartment that overlooks the Thames. There she meet the lesbian hyper-horny real estate agent Moira.", "poster_path": "/kZITrLEiTfzzJhtwtXhQUl3ImCQ.jpg", "release_date": "2000-01-28", "title": "Cheeky", "video": false, "vote_average": 5.7, "vote_count": 92, "popularity": 30.42}, {"adult": false, "backdrop_path": "/tvTyRu9eKfymkje8d9VoWJEoyUv.jpg", "genre_ids": [18], "id": 53932, "original_language": "es", "original_title": "Las edades de Lul\u00fa", "overview": "Fifteen-year-old Lulu has never known any affection from her family. But when she goes to a rock concert with Pablo, a friend of the family, he introduces Lulu to her first sexual experience. Years later, Pablo and Lulu have married; Pablo has created a sheltered, private world for Lulu, into which nothing intrudes. However, Lulu tires of her cloistered existence, and begins hanging out in shady bars, looking for vicarious thrills and danger.", "poster_path": "/5PK5MAN84o0ESgzeW9euozOLIEe.jpg", "release_date": "1990-12-13", "title": "The Ages of Lulu", "video": false, "vote_average": 5.7, "vote_count": 64, "popularity": 24.141}, {"adult": false, "backdrop_path": "/nv6Ur5vvcPrlqUlWJt3qPclNWCH.jpg", "genre_ids": [35], "id": 10246, "original_language": "en", "original_title": "Porky's", "overview": "Set in 1954, a group of Florida high schoolers seek out to lose their virginity which leads them to seek revenge on a sleazy nightclub owner and his redneck sheriff brother for harassing them.", "poster_path": "/yfwbpCll3RBxJmixrZvpc2NaqQY.jpg", "release_date": "1981-11-13", "title": "Porky's", "video": false, "vote_average": 6.2, "vote_count": 344, "popularity": 9.495}, {"adult": false, "backdrop_path": "/qPCI9SZmHXmeG6OK367r9GvkuGl.jpg", "genre_ids": [35, 10749], "id": 41280, "original_language": "en", "original_title": "Private Lessons", "overview": "Phillip Filmore is a naive, 15-year-old, preoccupied with sex, who develops a crush on Nicole Mallow, the new 30-something, French housekeeper and sitter to look after him when Phillip's father is out of town for the summer on a \"business\" trip. But Mr. Filmore's unscrupulous chauffeur, Lester Lewis, takes advantage of Phillip's crush on Nicole to hire her to seduce the youth, then draws her into a plot to fake her own death in a blackmail scheme aimed to drain Phillip's trust fund.", "poster_path": "/azdrerXeyr2Aofr7p9osEWnz05g.jpg", "release_date": "1981-08-21", "title": "Private Lessons", "video": false, "vote_average": 5.8, "vote_count": 37, "popularity": 24.872}, {"id": 2770, "video": false, "vote_count": 2941, "vote_average": 6.1, "title": "American Pie 2", "release_date": "2001-08-10", "original_language": "en", "original_title": "American Pie 2", "genre_ids": [35, 10749], "backdrop_path": "/1C1d3Tpesm8Vn3BRqsQZt0LfZcG.jpg", "adult": false, "overview": "The whole gang are back and as close as ever. They decide to get even closer by spending the summer together at a beach house. They decide to hold the biggest party ever to be seen, even if the preparation doesn't always go to plan. Especially when Stifler, Finch and Jim become more close to each other than they ever want to be and when Jim mistakes super glue for lubricant...", "poster_path": "/q4LNgUnRfltxzp3gf1MAGiK5LhV.jpg", "popularity": 20.359}, {"adult": false, "backdrop_path": "/avhG8fITuG78IkKPk28CcBBHPOp.jpg", "genre_ids": [35, 18], "id": 112160, "original_language": "fr", "original_title": "Chroniques sexuelles d'une famille d'aujourd'hui", "overview": "Three generations of a French family open up about their sexual experiences and desires after young Romain is caught masturbating in his biology class.", "poster_path": "/pU2nD3Llaz3Taq5FAaQUg00uJYD.jpg", "release_date": "2012-05-09", "title": "Sexual Chronicles of a French Family", "video": false, "vote_average": 4.4, "vote_count": 169, "popularity": 26.875}, {"adult": false, "backdrop_path": "/s7dcAllZEVSrVIVMUVAUmwAxFmn.jpg", "genre_ids": [35], "id": 4247, "original_language": "en", "original_title": "Scary Movie", "overview": "Following on the heels of popular teen-scream horror movies, with uproarious comedy and biting satire. Marlon and Shawn Wayans, Shannon Elizabeth and Carmen Electra pitch in to skewer some of Hollywood's biggest blockbusters, including Scream, I Know What You Did Last Summer, The Matrix, American Pie and The Blair Witch Project.", "poster_path": "/bvVmVFBVQLytK1H4TJTFdnhvf4T.jpg", "release_date": "2000-07-07", "title": "Scary Movie", "video": false, "vote_average": 6.2, "vote_count": 3801, "popularity": 22.055}, {"adult": false, "backdrop_path": "/ecREZ3vYCqethftSDWK4we0X498.jpg", "genre_ids": [35, 18, 10749], "id": 4507, "original_language": "es", "original_title": "Jam\u00f3n, jam\u00f3n", "overview": "Jose Luis is an executive at his parents underwear factory where his girlfriend Sylvia works on the shop floor. When Sylvia becomes pregnant, Jose Luis promises her that he will marry her, most likely against the wishes of his parents. Jose Luis' mother is determined to break her son's engagement to a girl from a lower-class family, and hires Raul, a potential underwear model and would-be bullfighter to seduce Sylvia.", "poster_path": "/v5Fq01ZtYnA2Grxdd3g8CuGZARg.jpg", "release_date": "1992-09-03", "title": "Jamon Jamon", "video": false, "vote_average": 6.1, "vote_count": 143, "popularity": 13.381}, {"adult": false, "backdrop_path": "/xOGEw8iywxcFMolV6SF6YdTdJTb.jpg", "genre_ids": [10402, 10749], "id": 52371, "original_language": "nl", "original_title": "LelleBelle", "overview": "19-year old Belle practices playing the violin diligently, but is unable to impart her music with a sensitive undertone. Her life changes when she discovers that sexual desire stimulates passion in her music.", "poster_path": "/nJVPgIq3icZMQ26p5uWIFdUZJfL.jpg", "release_date": "2010-10-08", "title": "LelleBelle", "video": false, "vote_average": 4.7, "vote_count": 41, "popularity": 13.747}, {"adult": false, "backdrop_path": "/vXT5Gw09k99o9XXqqxBPz9NKgsa.jpg", "genre_ids": [35, 12], "id": 9285, "original_language": "en", "original_title": "Road Trip", "overview": "Four friends take off on an 1800 mile road trip to retrieve an illicit tape mistakenly mailed to a girl friend.", "poster_path": "/DCoZVnHVvtKTYwfM00dfVRbfUQ.jpg", "release_date": "2000-05-19", "title": "Road Trip", "video": false, "vote_average": 6.0, "vote_count": 1018, "popularity": 20.323}, {"id": 14174, "video": false, "vote_count": 124, "vote_average": 5.4, "title": "Lie with Me", "release_date": "2005-09-10", "original_language": "en", "original_title": "Lie with Me", "genre_ids": [18], "backdrop_path": "/zqHLgJUIoTMQF279PASkHrNi4za.jpg", "adult": false, "overview": "Happily unattached, the sexually voracious Leila satisfies her desires with a host of rapidly changing bed partners, unconcerned about the emotional consequences. But that all changes when she meets an artist looking for a deeper commitment.", "poster_path": "/uBHoL4nUPYLxx3NaGf70NqP4JkN.jpg", "popularity": 14.333}, {"adult": false, "backdrop_path": "/bYbnlh6VXFRtcSX82UMDsBDLB5j.jpg", "genre_ids": [18, 10749], "id": 28468, "original_language": "it", "original_title": "La chiave", "overview": "After twenty years of marriage, art professor Nino Rolfe attempts to break down his wife Teresa's conventional modesty. Noticing her affection for their daughter's fianc\u00e9, Nino instigates her sexual interest in him as well. This sets off a chain of unexpected events and emotional complications, as Nino and his unpredictable fascist daughter find that they both enjoy being jealous.", "poster_path": "/e6g2geNLgFzMbriH6EvSJZD78nx.jpg", "release_date": "1983-10-18", "title": "The Key", "video": false, "vote_average": 5.0, "vote_count": 128, "popularity": 15.363}, {"id": 12531, "video": false, "vote_count": 91, "vote_average": 6.9, "title": "The Apartment", "release_date": "1996-07-27", "original_language": "fr", "original_title": "L'Appartement", "genre_ids": [18, 9648, 10749], "backdrop_path": "/64qyT8m4JQ6YODvXxtbHgKmXBX7.jpg", "adult": false, "overview": "A stylish suspense thriller that confounds the audience while presenting them with an extraordinary and elusive mystery. Max is a former playboy who has decided to settle down by marrying his current love, Muriel. However, during a business trip, Max catches a glimpse of the great lost love of his life, reviving his wanderlust and sending him off on a chase of the elusive Lisa, whom he had overheard suggesting to a friend that her lover, Daniel, had killed someone for her. Soon, Max is trying to unravel the mystery behind the suspicious death of Daniel's wife, which he hopes will lead him closer to Lisa.", "poster_path": "/1sqrQdQTn8jKLhUcPKfRVj639zA.jpg", "popularity": 19.17}, {"adult": false, "backdrop_path": "/a8xpxCnvqKyshdrDNFGs6oy4r8N.jpg", "genre_ids": [18, 10749], "id": 1278, "original_language": "en", "original_title": "The Dreamers", "overview": "A young American studying in Paris in 1968 strikes up a friendship with a French brother and sister. Set against the background of the '68 Paris student riots.", "poster_path": "/7ABcfmXQZeCXl5sNrDuLS1URMPN.jpg", "release_date": "2003-09-01", "title": "The Dreamers", "video": false, "vote_average": 7.2, "vote_count": 1671, "popularity": 15.849}, {"id": 2057, "video": false, "vote_count": 429, "vote_average": 5.9, "title": "Original Sin", "release_date": "2001-05-08", "original_language": "en", "original_title": "Original Sin", "genre_ids": [53], "backdrop_path": "/is3I5v8FwLiEWxaksfN8D4MLNGH.jpg", "adult": false, "overview": "A young man is plunged into a life of subterfuge, deceit and mistaken identity in pursuit of a femme fatale whose heart is never quite within his grasp", "poster_path": "/yGis1Mai4ivspEXdWtXLg0bZPkX.jpg", "popularity": 18.232}, {"id": 263472, "video": false, "vote_count": 1669, "vote_average": 5.0, "title": "Knock Knock", "release_date": "2015-06-26", "original_language": "en", "original_title": "Knock Knock", "genre_ids": [18, 53], "backdrop_path": "/gJduaRau3X2oE3xkmjs1FufT2GE.jpg", "adult": false, "overview": "When a devoted husband and father is left home alone for the weekend, two stranded young women unexpectedly knock on his door for help. What starts out as a kind gesture results in a dangerous seduction and a deadly game of cat and mouse.", "poster_path": "/eynMtjBB1fXsB5vsQylVmsDLmvw.jpg", "popularity": 19.205}, {"adult": false, "backdrop_path": "/uC54rlRdLMZ46fnrz5SoVYleNyv.jpg", "genre_ids": [18], "id": 4995, "original_language": "en", "original_title": "Boogie Nights", "overview": "Set in 1977, back when sex was safe, pleasure was a business and business was booming, idealistic porn producer Jack Horner aspires to elevate his craft to an art form. Horner discovers Eddie Adams, a hot young talent working as a busboy in a nightclub, and welcomes him into the extended family of movie-makers, misfits and hangers-on that are always around. Adams' rise from nobody to a celebrity adult entertainer is meteoric, and soon the whole world seems to know his porn alter ego, \"Dirk Diggler\". Now, when disco and drugs are in vogue, fashion is in flux and the party never seems to stop, Adams' dreams of turning sex into stardom are about to collide with cold, hard reality.", "poster_path": "/gTq6MPt7SeMiJ2miHeMoNEZTz4p.jpg", "release_date": "1997-10-07", "title": "Boogie Nights", "video": false, "vote_average": 7.6, "vote_count": 1660, "popularity": 21.563}, {"adult": false, "backdrop_path": "/eHhtUoazdml8CMvzWtpunIyqrZS.jpg", "genre_ids": [18, 53, 10749], "id": 884, "original_language": "en", "original_title": "Crash", "overview": "After getting into a serious car accident, a TV director discovers an underground sub-culture of scarred, omnisexual car-crash victims who use car accidents and the raw sexual energy they produce to try to rejuvenate his sex life with his wife.", "poster_path": "/4PDLGJsS5uVBQlYjLMZ7t85dU0P.jpg", "release_date": "1996-07-17", "title": "Crash", "video": false, "vote_average": 6.5, "vote_count": 438, "popularity": 14.59}, {"id": 290098, "video": false, "vote_count": 1506, "vote_average": 8.3, "title": "The Handmaiden", "release_date": "2016-06-01", "original_language": "ko", "original_title": "\uc544\uac00\uc528", "genre_ids": [18, 53, 10749], "backdrop_path": "/keQhqxE9i7wNQIM3W5B0iLnjaHW.jpg", "adult": false, "overview": "1930s Korea, in the period of Japanese occupation, a young woman is hired as a handmaiden to a Japanese heiress who lives a secluded life on a large countryside estate with her domineering uncle. But, the maid has a secret: she is a pickpocket recruited by a swindler posing as a Japanese count to help him seduce the heiress to elope with him, rob her of her fortune, and lock her up in a madhouse. The plan seems to proceed according to plan until the women discover some unexpected emotions.", "poster_path": "/cw1BvSDk4wyHHpVStj4t82pAvq7.jpg", "popularity": 20.604}, {"adult": false, "backdrop_path": "/xC9cG6Wy6QbH2hoAx11xPPD995R.jpg", "genre_ids": [18, 10749], "id": 86331, "original_language": "fr", "original_title": "Q", "overview": "In a social context deteriorated by a countrywide economic crisis, the life of several people will be turned upside down after they meet Cecile, a character who symbolizes desire.", "poster_path": "/9Jg9s4yTEndNmy1SSXRF9jdxY9D.jpg", "release_date": "2011-09-14", "title": "Desire", "video": false, "vote_average": 4.6, "vote_count": 204, "popularity": 25.756}], "total_pages": 181, "total_results": 3605}, "recommendations": {"page": 1, "results": [], "total_pages": 1, "total_results": 0}, "credits": {"cast": [{"cast_id": 2, "character": "Dr. Bernardino Livi", "credit_id": "548d8f0f92514122fc003dc5", "gender": 2, "id": 11190, "name": "Renzo Montagnani", "order": 3, "profile_path": "/vVfmwDjo0p9KZekncu160WWtO1m.jpg"}, {"cast_id": 3, "character": "Manuela e Diana Robelli", "credit_id": "548d8f23c3a36820be00388e", "gender": 1, "id": 16021, "name": "Barbara Bouchet", "order": 4, "profile_path": "/hVDD1MJE7vzwREF59ySzRCheFbR.jpg"}, {"cast_id": 4, "character": "commissario", "credit_id": "5981f9fd92514151ed016ff3", "gender": 2, "id": 148255, "name": "Giacomo Rizzo", "order": 5, "profile_path": "/f2tdidnmjxGsW6HeurgRNfX8lEb.jpg"}, {"cast_id": 5, "character": "Commendator Iginio Robelli", "credit_id": "5981fa0a92514151e0018050", "gender": 2, "id": 144516, "name": "Antonio Ferrandis", "order": 6, "profile_path": "/qU3nBvCcm2KvW8WSZEQt0m00KF4.jpg"}, {"cast_id": 6, "character": "Renato", "credit_id": "5981fa1692514151e0018054", "gender": 2, "id": 102126, "name": "Manuel Gallardo", "order": 7, "profile_path": "/4qr1pld8p2PnRtx7pfbAG3QdOSv.jpg"}, {"cast_id": 7, "character": "Irene", "credit_id": "5981fa2392514151c5016ca6", "gender": 1, "id": 38592, "name": "Cinzia de Ponti", "order": 8, "profile_path": "/v3qP2QTC8k3A1GhZHMTnjj7nK8w.jpg"}, {"cast_id": 8, "character": "Laura Battoni Livi", "credit_id": "5981fa3192514151c5016cbf", "gender": 1, "id": 234642, "name": "Mar\u00eda Luisa Merlo", "order": 9, "profile_path": "/oqtzSIJLCKnD6FCoGLAocgpyS07.jpg"}, {"cast_id": 9, "character": "Armando", "credit_id": "5981fa3d925141519b01727f", "gender": 2, "id": 231038, "name": "Francisco Cecilio", "order": 10, "profile_path": "/f6X850VNP0tcSSCjcUBIGtsyHxd.jpg"}, {"cast_id": 10, "character": "", "credit_id": "5a419498c3a368586c02c06c", "gender": 2, "id": 1605277, "name": "Alfonso del Real", "order": 11, "profile_path": "/7KWWqNeVrygHveSQdpbhHYcZ0LX.jpg"}, {"cast_id": 16, "character": "", "credit_id": "5a4195a29251411f510426af", "gender": 1, "id": 237472, "name": "Fernanda Hurtado", "order": 12, "profile_path": "/hHR0B6NNliR416XZ6s6hQ3o2c9i.jpg"}, {"cast_id": 17, "character": "", "credit_id": "5a4195bb0e0a2620e0046196", "gender": 1, "id": 1706561, "name": "Rossana Canghiari", "order": 13, "profile_path": "/vBZAnRLxhFp1qPDdjhDVPV2CUyd.jpg"}, {"cast_id": 18, "character": "", "credit_id": "5a4195cfc3a368589002ac1a", "gender": 0, "id": 1915898, "name": "Mar\u00eda Rubio", "order": 14, "profile_path": null}], "crew": [{"credit_id": "5a4194d49251411f3e04108a", "department": "Writing", "gender": 0, "id": 21228, "job": "Writer", "name": "Sandro Continenza", "profile_path": null}, {"credit_id": "5a4194e1925141740301dc05", "department": "Sound", "gender": 2, "id": 30634, "job": "Music", "name": "Armando Trovaioli", "profile_path": "/b4lJkDOR1K63eireNVixZh3rUY4.jpg"}, {"credit_id": "5a4194ed0e0a2620e904870f", "department": "Camera", "gender": 0, "id": 34628, "job": "Director of Photography", "name": "\u00c1ngel Luis Fern\u00e1ndez", "profile_path": null}, {"credit_id": "5a4194bb9251411fd204203a", "department": "Directing", "gender": 2, "id": 100054, "job": "Director", "name": "Maurizio Lucidi", "profile_path": null}, {"credit_id": "5a4194c8c3a368584402e843", "department": "Writing", "gender": 2, "id": 100713, "job": "Writer", "name": "Francisco Lara Polop", "profile_path": null}]}}