{"adult": false, "backdrop_path": "/uXsNVgdrgq7Rq75gEJ3jCZq5ors.jpg", "belongs_to_collection": null, "budget": 0, "genres": [{"id": 12, "name": "Adventure"}, {"id": 35, "name": "Comedy"}, {"id": 10749, "name": "Romance"}, {"id": 18, "name": "Drama"}, {"id": 28, "name": "Action"}], "homepage": null, "id": 312408, "imdb_id": "tt2168000", "original_language": "zh", "original_title": "\u4e00\u6b65\u4e4b\u9065", "overview": "Set in 1920s Shanghai, Ma Zouri and Xiang Feitian establish a notorious beauty pageant called the Flowers Competition. All of the city's elite attend the gala event, but when Wanyan Ying unexpectedly wins, it sets into motion a series of tragic events that change their destinies.", "popularity": 3.575, "poster_path": "/5HzLosgbQsks0Ib5RJfSaCSMF7Q.jpg", "production_companies": [{"id": 3973, "logo_path": null, "name": "JCE Entertainment Ltd,", "origin_country": ""}, {"id": 2269, "logo_path": null, "name": "China Film Co-Production Corporation", "origin_country": ""}, {"id": 5848, "logo_path": null, "name": "Columbia Pictures Industries", "origin_country": ""}], "production_countries": [{"iso_3166_1": "CN", "name": "China"}], "release_date": "2014-12-18", "revenue": 0, "runtime": 140, "spoken_languages": [{"iso_639_1": "zh", "name": "\u666e\u901a\u8bdd"}], "status": "Released", "tagline": "", "title": "Gone with the Bullets", "video": false, "vote_average": 6.6, "vote_count": 23, "keywords": {"keywords": [{"id": 549, "name": "prostitute"}, {"id": 4267, "name": "warlord"}]}, "similar": {"page": 1, "results": [{"adult": false, "backdrop_path": "/tk6QB32plylH41eo2Pbv4sIVljO.jpg", "genre_ids": [18], "id": 50270, "original_language": "it", "original_title": "Paprika", "overview": "A young country girl comes to town and works in a brothel in order to help her fiance get the money to start his own business. \"Paprika\" is the name given to her by the madam.", "poster_path": "/6QthFTJvUheocw3fcKklnsMcGib.jpg", "release_date": "1991-02-13", "title": "Paprika", "video": false, "vote_average": 5.9, "vote_count": 81, "popularity": 19.933}, {"adult": false, "backdrop_path": "/3mEfawlJnuu4OmUlAOesrAMsWv6.jpg", "genre_ids": [53, 27], "id": 9540, "original_language": "en", "original_title": "Dead Ringers", "overview": "Elliot, a successful gynecologist, works at the same practice as his identical twin, Beverly. Elliot is attracted to many of his patients and has affairs with them. When he inevitably loses interest, he will give the woman over to Beverly, the meeker of the two, without the woman knowing the difference. Beverly falls hard for one of the patients, Claire, but when she inadvertently deceives him, he slips into a state of madness.", "poster_path": "/9ZGBwiWIvN9KmHaLeSS5it44G21.jpg", "release_date": "1988-09-23", "title": "Dead Ringers", "video": false, "vote_average": 7.2, "vote_count": 388, "popularity": 10.111}, {"adult": false, "backdrop_path": "/xC9cG6Wy6QbH2hoAx11xPPD995R.jpg", "genre_ids": [18, 10749], "id": 86331, "original_language": "fr", "original_title": "Q", "overview": "In a social context deteriorated by a countrywide economic crisis, the life of several people will be turned upside down after they meet Cecile, a character who symbolizes desire.", "poster_path": "/9Jg9s4yTEndNmy1SSXRF9jdxY9D.jpg", "release_date": "2011-09-14", "title": "Desire", "video": false, "vote_average": 4.6, "vote_count": 204, "popularity": 25.756}, {"adult": false, "backdrop_path": "/90kmxuSwU28dVy1ghVSHI4x1wb8.jpg", "genre_ids": [35, 18, 37], "id": 537996, "original_language": "en", "original_title": "The Ballad of Buster Scruggs", "overview": "Vignettes weaving together the stories of six individuals in the old West at the end of the Civil War. Following the tales of a sharp-shooting songster, a wannabe bank robber, two weary traveling performers, a lone gold prospector, a woman traveling the West to an uncertain future, and a motley crew of strangers undertaking a carriage ride.", "poster_path": "/voxl654m7p36y8FLu8oQD7dfwwK.jpg", "release_date": "2018-11-09", "title": "The Ballad of Buster Scruggs", "video": false, "vote_average": 7.2, "vote_count": 2074, "popularity": 13.969}, {"adult": false, "backdrop_path": "/hm4vpIhBW75bTIDTurq2d4rLZy1.jpg", "genre_ids": [53, 18, 27], "id": 3511, "original_language": "en", "original_title": "The Broken", "overview": "The life of a successful radiologist spirals out of control when she sees the spitting image of herself driving down a London street. While attempting to uncover who the imposter could be, she stumbles into a terrifying mystery that her family and closest friends are somehow involved in, leaving her with no one to trust.", "poster_path": "/nGTUsccLUZhF9Bb5fjvL7KrogvC.jpg", "release_date": "2008-01-18", "title": "The Broken", "video": false, "vote_average": 5.5, "vote_count": 113, "popularity": 10.122}, {"adult": false, "backdrop_path": "/arcpWGGnUkGkakOwZo7xfPsaz7h.jpg", "genre_ids": [9648, 53], "id": 2832, "original_language": "en", "original_title": "Identity", "overview": "Complete strangers stranded at a remote desert motel during a raging storm soon find themselves the target of a deranged murderer. As their numbers thin out, the travelers begin to turn on each other, as each tries to figure out who the killer is.", "poster_path": "/xSNSp2wmCUwFavxdkMF417hBc39.jpg", "release_date": "2003-04-25", "title": "Identity", "video": false, "vote_average": 7.2, "vote_count": 2091, "popularity": 19.629}, {"adult": false, "backdrop_path": "/fwreQBx5CD55c1DpH117cS8915P.jpg", "genre_ids": [18, 53], "id": 867, "original_language": "en", "original_title": "Sliver", "overview": "A woman moves into an apartment in Manhattan and learns that the previous tenant's life ended mysteriously after they fell from the balcony.", "poster_path": "/av21Dfu31DQPtp5jkorMMS58rQC.jpg", "release_date": "1993-05-21", "title": "Sliver", "video": false, "vote_average": 5.3, "vote_count": 288, "popularity": 19.094}, {"id": 1427, "video": false, "vote_count": 2511, "vote_average": 7.2, "title": "Perfume: The Story of a Murderer", "release_date": "2006-09-13", "original_language": "en", "original_title": "Perfume: The Story of a Murderer", "genre_ids": [80, 18, 14], "backdrop_path": "/3i8bJa5yvLZW2k4sg2Cd1Yy0a1x.jpg", "adult": false, "overview": "Jean-Baptiste Grenouille, born in the stench of 18th century Paris, develops a superior olfactory sense, which he uses to create the world's finest perfumes. However, his work takes a dark turn as he tries to preserve scents in the search for the ultimate perfume.", "poster_path": "/zC9JHS6NlkJKPYFxOOqBl7fQCjT.jpg", "popularity": 20.263}, {"id": 11033, "video": false, "vote_count": 359, "vote_average": 6.8, "title": "Dressed to Kill", "release_date": "1980-07-25", "original_language": "en", "original_title": "Dressed to Kill", "genre_ids": [27, 9648, 53], "backdrop_path": "/mtGByKUtyLVWXl8OjWFOicLHsFo.jpg", "adult": false, "overview": "A mysterious, tall, blonde woman wearing sunglasses murders one of a psychiatrist's patients, and now she's after the prostitute who witnessed it.", "poster_path": "/b9RHUexTE6MT5x6iZ2Wmq56H1cJ.jpg", "popularity": 15.886}, {"adult": false, "backdrop_path": "/o4lpqMqDQGx4RVorWzcHnSaDeRo.jpg", "genre_ids": [27], "id": 1690, "original_language": "en", "original_title": "Hostel", "overview": "Three backpackers head to a Slovakian city that promises to meet their hedonistic expectations, with no idea of the hell that awaits them.", "poster_path": "/zF3pEs1CUbjPgioxDH4h2MEHsWl.jpg", "release_date": "2006-01-06", "title": "Hostel", "video": false, "vote_average": 5.8, "vote_count": 2026, "popularity": 16.556}, {"adult": false, "backdrop_path": "/fop31RWFi9sVL0xK5hAJGh7Fwkz.jpg", "genre_ids": [18, 80], "id": 261023, "original_language": "en", "original_title": "Black Mass", "overview": "The true story of Whitey Bulger, the brother of a state senator and the most infamous violent criminal in the history of South Boston, who became an FBI informant to take down a Mafia family invading his turf.", "poster_path": "/nSbpuyd2UySuW7kaoXzYUfes1Bl.jpg", "release_date": "2015-09-04", "title": "Black Mass", "video": false, "vote_average": 6.4, "vote_count": 2192, "popularity": 16.347}, {"adult": false, "backdrop_path": "/qPCI9SZmHXmeG6OK367r9GvkuGl.jpg", "genre_ids": [35, 10749], "id": 41280, "original_language": "en", "original_title": "Private Lessons", "overview": "Phillip Filmore is a naive, 15-year-old, preoccupied with sex, who develops a crush on Nicole Mallow, the new 30-something, French housekeeper and sitter to look after him when Phillip's father is out of town for the summer on a \"business\" trip. But Mr. Filmore's unscrupulous chauffeur, Lester Lewis, takes advantage of Phillip's crush on Nicole to hire her to seduce the youth, then draws her into a plot to fake her own death in a blackmail scheme aimed to drain Phillip's trust fund.", "poster_path": "/azdrerXeyr2Aofr7p9osEWnz05g.jpg", "release_date": "1981-08-21", "title": "Private Lessons", "video": false, "vote_average": 5.8, "vote_count": 37, "popularity": 24.872}, {"adult": false, "backdrop_path": "/bYbnlh6VXFRtcSX82UMDsBDLB5j.jpg", "genre_ids": [18, 10749], "id": 28468, "original_language": "it", "original_title": "La chiave", "overview": "After twenty years of marriage, art professor Nino Rolfe attempts to break down his wife Teresa's conventional modesty. Noticing her affection for their daughter's fianc\u00e9, Nino instigates her sexual interest in him as well. This sets off a chain of unexpected events and emotional complications, as Nino and his unpredictable fascist daughter find that they both enjoy being jealous.", "poster_path": "/e6g2geNLgFzMbriH6EvSJZD78nx.jpg", "release_date": "1983-10-18", "title": "The Key", "video": false, "vote_average": 5.0, "vote_count": 128, "popularity": 15.363}, {"id": 12531, "video": false, "vote_count": 91, "vote_average": 6.9, "title": "The Apartment", "release_date": "1996-07-27", "original_language": "fr", "original_title": "L'Appartement", "genre_ids": [18, 9648, 10749], "backdrop_path": "/64qyT8m4JQ6YODvXxtbHgKmXBX7.jpg", "adult": false, "overview": "A stylish suspense thriller that confounds the audience while presenting them with an extraordinary and elusive mystery. Max is a former playboy who has decided to settle down by marrying his current love, Muriel. However, during a business trip, Max catches a glimpse of the great lost love of his life, reviving his wanderlust and sending him off on a chase of the elusive Lisa, whom he had overheard suggesting to a friend that her lover, Daniel, had killed someone for her. Soon, Max is trying to unravel the mystery behind the suspicious death of Daniel's wife, which he hopes will lead him closer to Lisa.", "poster_path": "/1sqrQdQTn8jKLhUcPKfRVj639zA.jpg", "popularity": 19.17}, {"adult": false, "backdrop_path": "/a8xpxCnvqKyshdrDNFGs6oy4r8N.jpg", "genre_ids": [18, 10749], "id": 1278, "original_language": "en", "original_title": "The Dreamers", "overview": "A young American studying in Paris in 1968 strikes up a friendship with a French brother and sister. Set against the background of the '68 Paris student riots.", "poster_path": "/7ABcfmXQZeCXl5sNrDuLS1URMPN.jpg", "release_date": "2003-09-01", "title": "The Dreamers", "video": false, "vote_average": 7.2, "vote_count": 1671, "popularity": 15.849}, {"id": 75780, "video": false, "vote_count": 4451, "vote_average": 6.4, "title": "Jack Reacher", "release_date": "2012-12-20", "original_language": "en", "original_title": "Jack Reacher", "genre_ids": [28, 80, 18, 53], "backdrop_path": "/ezXodpP429qK0Av89pVNlaXWJkQ.jpg", "adult": false, "overview": "When a gunman takes five lives with six shots, all evidence points to the suspect in custody. On interrogation, the suspect offers up a single note: \"Get Jack Reacher!\" So begins an extraordinary chase for the truth, pitting Jack Reacher against an unexpected enemy, with a skill for violence and a secret to keep.", "poster_path": "/mt0ELw83HIRgaKaDzhsDcIi0RnW.jpg", "popularity": 15.945}, {"adult": false, "backdrop_path": "/kiWvoV78Cc3fUwkOHKzyBgVdrDD.jpg", "genre_ids": [37, 18, 12], "id": 281957, "original_language": "en", "original_title": "The Revenant", "overview": "In the 1820s, a frontiersman, Hugh Glass, sets out on a path of vengeance against those who left him for dead after a bear mauling.", "poster_path": "/oXUWEc5i3wYyFnL1Ycu8ppxxPvs.jpg", "release_date": "2015-12-25", "title": "The Revenant", "video": false, "vote_average": 7.5, "vote_count": 12127, "popularity": 24.135}, {"id": 4638, "video": false, "vote_count": 4429, "vote_average": 7.5, "title": "Hot Fuzz", "release_date": "2007-02-14", "original_language": "en", "original_title": "Hot Fuzz", "genre_ids": [28, 35, 80], "backdrop_path": "/zuskekrfW3gj9ttXNVhfdHe5n22.jpg", "adult": false, "overview": "As a former London constable, Nicholas Angel finds it difficult to adapt to his new assignment in the sleepy British village of Sandford. Not only does he miss the excitement of the big city, but he also has a well-meaning oaf for a partner. However, when a series of grisly accidents rocks Sandford, Angel smells something rotten in the idyllic village.", "poster_path": "/5Jx6s6VXnunh8wCLgR0YgjwSgjh.jpg", "popularity": 22.387}, {"adult": false, "backdrop_path": "/7RRuRcGuWkZGuRyYugfXn0Fgrrr.jpg", "genre_ids": [28, 80, 18, 53], "id": 949, "original_language": "en", "original_title": "Heat", "overview": "Obsessive master thief, Neil McCauley leads a top-notch crew on various daring heists throughout Los Angeles while determined detective, Vincent Hanna pursues him without rest. Each man recognizes and respects the ability and the dedication of the other even though they are aware their cat-and-mouse game may end in violence.", "poster_path": "/6pmLVffM9jEYK7VqDJqPblMxfEY.jpg", "release_date": "1995-12-15", "title": "Heat", "video": false, "vote_average": 7.8, "vote_count": 3615, "popularity": 21.973}, {"adult": false, "backdrop_path": "/rSf0RYkPiMo9TyjHs2vI8rHlmfF.jpg", "genre_ids": [28, 18, 53], "id": 241554, "original_language": "en", "original_title": "Run All Night", "overview": "Brooklyn mobster and prolific hit man Jimmy Conlon has seen better days. Longtime best friend of a mob boss, Jimmy is haunted by the sins of his past\u2014as well as a dogged police detective who\u2019s been one step behind Jimmy for 30 years. But when Jimmy\u2019s estranged son becomes a target, Jimmy must make a choice between the crime family he chose and the real family he abandoned long ago. Now, with nowhere safe to turn, Jimmy has just one night to figure out exactly where his loyalties lie and to see if he can finally make things right.", "poster_path": "/aqNJrAxudMRNo8jg3HOUQqdl2xr.jpg", "release_date": "2015-03-11", "title": "Run All Night", "video": false, "vote_average": 6.4, "vote_count": 1821, "popularity": 23.621}], "total_pages": 297, "total_results": 5934}, "recommendations": {"page": 1, "results": [{"adult": false, "backdrop_path": "/5cxmEhYkcUQNKHECCtYHvC4Hl8C.jpg", "genre_ids": [36, 18], "id": 284300, "original_language": "zh", "original_title": "\u9ec4\u91d1\u65f6\u4ee3", "overview": "The story of writer Xiao Hong comes alive through memories of her great love affair, literary influence and escape from China during World War II.", "poster_path": "/zRRh0E6fBDkMvqrS5ONLaipOXKY.jpg", "release_date": "2014-10-01", "title": "The Golden Era", "video": false, "vote_average": 7.0, "vote_count": 25, "popularity": 2.033}, {"adult": false, "backdrop_path": "/RYUTaBpQ1BHjk46VngMgSpqa6u.jpg", "genre_ids": [14, 18], "id": 51885, "original_language": "zh", "original_title": "\u592a\u9633\u7167\u5e38\u5347\u8d77", "overview": "A polyptych of interconnected stories in different time-zones, shifting between a Yunnan village, a campus, and the Gobi Desert.", "poster_path": "/mi4b1YbJeVvL3BWW5jhJKsfKTli.jpg", "release_date": "2007-09-20", "title": "The Sun Also Rises", "video": false, "vote_average": 7.6, "vote_count": 13, "popularity": 4.282}, {"adult": false, "backdrop_path": "/bfEEIAcY8h2wT387iNN5GCAWsDP.jpg", "genre_ids": [18], "id": 256106, "original_language": "zh", "original_title": "\u63a8\u62ff", "overview": "A drama centered on the employees of a Nanjing massage parlor who share a common trait: they are all blind.", "poster_path": "/5PQneSzJRFM1DGdywhQ4LTw5rHa.jpg", "release_date": "2014-02-17", "title": "Blind Massage", "video": false, "vote_average": 8.1, "vote_count": 11, "popularity": 1.74}, {"adult": false, "backdrop_path": "/qafgqRtedFhj1hIv4FkqWT4NY5h.jpg", "genre_ids": [18], "id": 161285, "original_language": "zh", "original_title": "\u9633\u5149\u707f\u70c2\u7684\u65e5\u5b50", "overview": "The film is set in Beijing during the Cultural Revolution. It is told from the perspective of Ma Xiaojun nicknamed Monkey, a teenage boy. Monkey and his friends are free to roam the streets of Beijing day and night because the Cultural Revolution has caused their parents and most adults to be either busy or away. The story revolves around Monkey's dalliances with his roguish male friends and his subsequent angst-filled crush with Mi Lan.", "poster_path": "/nu2XXY1B1VTHpmhxyuSpf7OHqxD.jpg", "release_date": "1994-09-01", "title": "In the Heat of the Sun", "video": false, "vote_average": 7.9, "vote_count": 29, "popularity": 2.639}, {"adult": false, "backdrop_path": "/dqTMTpZBOEAW2jw1W3Aam72g0Ja.jpg", "genre_ids": [35], "id": 79279, "original_language": "zh", "original_title": "\u7532\u65b9\u4e59\u65b9", "overview": "Four friends come up with an unusual idea to make some money and have fun doing it. For a small fee, they will impersonate and act out any character role for their customers. In the course of executing this novel service, they encounter a whole spectrum of people in society, finding ways to genuinely help them boost their morale and overcome their fears, while gaining unusual and new insights into the human condition.", "poster_path": "/t29qm47MVRd1b1DIED0xhm3sBCP.jpg", "release_date": "1997-02-01", "title": "The Dream Factory", "video": false, "vote_average": 5.8, "vote_count": 11, "popularity": 1.593}, {"adult": false, "backdrop_path": "/wLxttdcufKRCjZoF1wYgPKxlylG.jpg", "genre_ids": [35, 10749], "id": 284298, "original_language": "zh", "original_title": "\u5fc3\u82b1\u8def\u653e", "overview": "Recently cuckolded and reeling from a messy divorce, a hapless former singer hits the road - and the bar - with his all-too-helpful best bud, in this hilarious romantic comedy.", "poster_path": "/AudKpHAYfvwmk6pYZTUASEaIVQt.jpg", "release_date": "2014-09-26", "title": "Breakup Buddies", "video": false, "vote_average": 6.4, "vote_count": 17, "popularity": 2.128}, {"adult": false, "backdrop_path": "/wf2JnPt96Weh4ZDE5Pfj8vtPfDR.jpg", "genre_ids": [18], "id": 272875, "original_language": "zh", "original_title": "\u540e\u4f1a\u65e0\u671f", "overview": "A road movie that follows three young men yearning after their ideals.", "poster_path": "/1kvlhHgOo3TsR2oXo8GUd1MwjmF.jpg", "release_date": "2014-07-24", "title": "The Continent", "video": false, "vote_average": 6.5, "vote_count": 29, "popularity": 4.332}, {"adult": false, "backdrop_path": "/mXFFDAzRJBnrC1ECILWOSa8AQQv.jpg", "genre_ids": [35, 10749], "id": 299828, "original_language": "zh", "original_title": "\u6492\u5a07\u5973\u4eba\u6700\u597d\u547d", "overview": "When Zhang Hui is told by long-time best friend Xiao Gong that he has a new girlfriend, she is determined to learn new tricks to gain him back. Based on the novel written by Luo Fuman, \"Everyone Loves Tender Women\".", "poster_path": "/47tQzrspEWEVVlh2X9uhGd19gqs.jpg", "release_date": "2014-11-28", "title": "Women Who Flirt", "video": false, "vote_average": 5.6, "vote_count": 18, "popularity": 2.747}, {"adult": false, "backdrop_path": "/FAMdmfvI4hoSV8J6WfqeEzI24u.jpg", "genre_ids": [80, 18, 9648], "id": 344556, "original_language": "zh", "original_title": "\u70c8\u65e5\u707c\u5fc3", "overview": "A brutal crime has repercussions seven years later.", "poster_path": "/ofBoTGzlLZiZ2bblrvQE5XqJREj.jpg", "release_date": "2015-06-19", "title": "The Dead End", "video": false, "vote_average": 7.9, "vote_count": 26, "popularity": 2.441}, {"id": 294992, "video": false, "vote_count": 67, "vote_average": 6.5, "title": "The Taking of Tiger Mountain", "release_date": "2014-12-24", "original_language": "zh", "original_title": "\u667a\u53d6\u5a01\u864e\u5c71", "genre_ids": [12, 53, 10752], "backdrop_path": "/7Naw0bizs5Aq6Qci9vKkNcGkVMc.jpg", "adult": false, "overview": "Based on the real life story of an incident in 1946 during the Chinese Civil War, the film involves a communist reconnaissance team soldier Yang Zirong who disguised himself as a bandit to infiltrate a local gang of bandits, eventually helping the main communist force to destroy the bandits. Based on the novel \"Tracks in the Snowy Forest\" by Qu Bo.", "poster_path": "/wFFz4Okz0FHXvRm4LCl9kDCvFnx.jpg", "popularity": 8.367}, {"id": 25838, "video": false, "vote_count": 53, "vote_average": 8.0, "title": "Devils on the Doorstep", "release_date": "2000-05-12", "original_language": "zh", "original_title": "\u9b3c\u5b50\u6765\u4e86", "genre_ids": [18, 10752], "backdrop_path": "/2xNqz5Xz8yrzMxSU02v38tkwbLm.jpg", "adult": false, "overview": "During the Japanese occupation of China, two prisoners are dumped in a peasant's home in a small town. The owner is bullied into keeping the prisoners until the next New Year, at which time they will be collected. The village leaders convene to interrogate the prisoners. The townspeople then struggle to accommodate the prisoners. One is a bellicose Japanese nationalist, the other a nervous translator. Will the townspeople manage to keep the prisoners until the New Year?", "poster_path": "/hBJD9olyXvj2ugw1AHllm3gZQWp.jpg", "popularity": 3.89}, {"id": 351694, "video": false, "vote_count": 90, "vote_average": 7.2, "title": "Monkey King: Hero Is Back", "release_date": "2015-07-10", "original_language": "zh", "original_title": "\u897f\u6e38\u8bb0\u4e4b\u5927\u5723\u5f52\u6765", "genre_ids": [16, 35, 14], "backdrop_path": "/6CznkSoIwg2Ev7ldvUFfcyAigfo.jpg", "adult": false, "overview": "The all-powerful Monkey King once roamed freely between Heaven and Earth, but after angering the Gods, he was imprisoned within an ice cage deep within the mountains. 500 years later, monsters attack a small village and a child flees to the mountains. Unknowingly, the child releases the Monkey King from his curse. With the help and encouragement from this special child, Monkey King saves the village from the evil monsters.", "poster_path": "/lTaRCichc1Ogg63ZMbf6bVxVypk.jpg", "popularity": 11.946}, {"id": 51533, "video": false, "vote_count": 97, "vote_average": 7.1, "title": "Let the Bullets Fly", "release_date": "2010-12-20", "original_language": "zh", "original_title": "\u8ba9\u5b50\u5f39\u98de", "genre_ids": [28, 35], "backdrop_path": "/ur7Fo28wUohBVWki0d0mkjvZG9l.jpg", "adult": false, "overview": "Set in China during the Warlords Period of the 1920s, notorious bandit chief Zhang descends upon a remote provincial town posing as its new mayor, an identity that he had hijacked from Old Tang, himself a small-time imposter. Hell-bent on making a fast buck, Zhang soon meets his match in the tyrannical local gentry Huang as a deadly battle of wit and brutality ensues.", "poster_path": "/sAzdi8RAynDCukwHVEsSNCqhilH.jpg", "popularity": 10.164}, {"adult": false, "backdrop_path": "/c1ACqNk9cE8NTXSQEAhyFSlHYAT.jpg", "genre_ids": [28, 12, 18, 9648], "id": 48492, "original_language": "cn", "original_title": "\u72c4\u4ec1\u5091\u4e4b\u901a\u5929\u5e1d\u570b", "overview": "An exiled detective is recruited to solve a series of mysterious deaths that threaten to delay the inauguration of Empress Wu.", "poster_path": "/2PHpd9dMhrvEaeQk0zRTUQUm2EO.jpg", "release_date": "2010-09-18", "title": "Detective Dee and the Mystery of the Phantom Flame", "video": false, "vote_average": 6.7, "vote_count": 203, "popularity": 12.705}, {"id": 802, "video": false, "vote_count": 1031, "vote_average": 7.4, "title": "Lolita", "release_date": "1962-06-13", "original_language": "en", "original_title": "Lolita", "genre_ids": [18, 10749], "backdrop_path": "/5N7Kl2ekPad4hY77liQxlO9vqMS.jpg", "adult": false, "overview": "Humbert Humbert is a middle-aged British novelist who is both appalled by and attracted to the vulgarity of American culture. When he comes to stay at the boarding house run by Charlotte Haze, he soon becomes obsessed with Lolita, the woman's teenaged daughter.", "poster_path": "/qec7MIvPSgqc1sQ5lPJhKCjJfjw.jpg", "popularity": 16.335}], "total_pages": 1, "total_results": 15}, "credits": {"cast": [{"cast_id": 2, "character": "Ma Zouri", "credit_id": "549281b6c3a3683d00000e43", "gender": 2, "id": 77301, "name": "Jiang Wen", "order": 0, "profile_path": "/i9LPPa6JgQ42AHZS6BxOHwWtDmL.jpg"}, {"cast_id": 6, "character": "Wanyan Yin", "credit_id": "54a4c31cc3a3684d8f00630e", "gender": 1, "id": 21911, "name": "Shu Qi", "order": 1, "profile_path": "/nqYEYVYPf7XJvH0fQZ8bjTcvPNR.jpg"}, {"cast_id": 3, "character": "Xiang Feitian", "credit_id": "549281d9c3a3683cfa000bb2", "gender": 2, "id": 76913, "name": "Ge You", "order": 2, "profile_path": "/s0JXQhCmKUmtxiuI2rjH8hfE470.jpg"}, {"cast_id": 4, "character": "Wu Liu", "credit_id": "549281f29251410918000e71", "gender": 0, "id": 144813, "name": "Zhou Yun", "order": 3, "profile_path": "/igKy1O8uVMt11SwbcCe8mMZabrD.jpg"}, {"cast_id": 8, "character": "", "credit_id": "57495ab292514125f9000090", "gender": 2, "id": 109435, "name": "Zhiwen Wang", "order": 6, "profile_path": "/5wujsbo82Ez22hjuJ4dUUYsowj8.jpg"}, {"cast_id": 9, "character": "Wu Qi", "credit_id": "57495abb92514125f9000095", "gender": 2, "id": 572084, "name": "Wen Zhang", "order": 7, "profile_path": null}, {"cast_id": 10, "character": "Qi Sainan", "credit_id": "57495acd925141714a001ea7", "gender": 0, "id": 1148964, "name": "Hong Huang", "order": 8, "profile_path": null}, {"cast_id": 11, "character": "", "credit_id": "57495ad2925141713d001e60", "gender": 0, "id": 1627298, "name": "Na Ying", "order": 9, "profile_path": null}, {"cast_id": 12, "character": "Generalissimo Wu", "credit_id": "57495ae59251417138001e54", "gender": 0, "id": 1627299, "name": "Liu Li-Nian", "order": 10, "profile_path": null}, {"cast_id": 13, "character": "", "credit_id": "57495aff92514157e0000b57", "gender": 1, "id": 134122, "name": "Hong Tao", "order": 11, "profile_path": "/jfbTIHJO6eHIBC8elmTZ8QrWdQI.jpg"}, {"cast_id": 14, "character": "", "credit_id": "57495b05c3a368338d0021a1", "gender": 0, "id": 1199811, "name": "Liu Sola", "order": 12, "profile_path": null}, {"cast_id": 15, "character": "", "credit_id": "57495b28c3a36833940020bc", "gender": 2, "id": 146044, "name": "Niu Ben", "order": 13, "profile_path": "/4OotJ4kv3BbLHfdBl5qRHyD25U3.jpg"}, {"cast_id": 16, "character": "", "credit_id": "57495b31c3a36833850023be", "gender": 0, "id": 1627301, "name": "Jiang Hong-Qi", "order": 14, "profile_path": null}], "crew": [{"credit_id": "54928171c3a3683d0d000f3f", "department": "Directing", "gender": 2, "id": 77301, "job": "Director", "name": "Jiang Wen", "profile_path": "/i9LPPa6JgQ42AHZS6BxOHwWtDmL.jpg"}, {"credit_id": "5492818992514118f2000df3", "department": "Writing", "gender": 2, "id": 77301, "job": "Writer", "name": "Jiang Wen", "profile_path": "/i9LPPa6JgQ42AHZS6BxOHwWtDmL.jpg"}]}}