{"adult": false, "backdrop_path": "/sSbzcClcUeFziI2TNqcl8Mbl52C.jpg", "belongs_to_collection": null, "budget": 0, "genres": [{"id": 80, "name": "Crime"}, {"id": 18, "name": "Drama"}, {"id": 53, "name": "Thriller"}], "homepage": null, "id": 31286, "imdb_id": "tt0055452", "original_language": "en", "original_title": "The Sinister Urge", "overview": "A flunky for a porno movie ring starts murdering the smut films' lead actresses", "popularity": 2.213, "poster_path": "/i7TiUiGdJ1G8D8SnaA89NpJara9.jpg", "production_companies": [{"id": 56289, "logo_path": null, "name": "Headliner Productions", "origin_country": ""}], "production_countries": [{"iso_3166_1": "US", "name": "United States of America"}], "release_date": "1960-12-08", "revenue": 0, "runtime": 71, "spoken_languages": [{"iso_639_1": "en", "name": "English"}], "status": "Released", "tagline": "Pornography Headlines Come to Life!", "title": "The Sinister Urge", "video": false, "vote_average": 2.5, "vote_count": 12, "keywords": {"keywords": [{"id": 12396, "name": "hollywood, california"}, {"id": 155167, "name": "cult director"}, {"id": 176511, "name": "pornographer"}]}, "similar": {"page": 1, "results": [{"adult": false, "backdrop_path": "/tr6OExnBfjLADi9OyZoW308mPAp.jpg", "genre_ids": [18, 35, 10749], "id": 74643, "original_language": "en", "original_title": "The Artist", "overview": "Hollywood, 1927: As silent movie star George Valentin wonders if the arrival of talking pictures will cause him to fade into oblivion, he sparks with Peppy Miller, a young dancer set for a big break.", "poster_path": "/i0mpvMIIjyubXsVKug9vX0lYpnd.jpg", "release_date": "2011-06-26", "title": "The Artist", "video": false, "vote_average": 7.4, "vote_count": 1977, "popularity": 10.661}, {"adult": false, "backdrop_path": "/r8pjTYuz3fDOFAhHNrhrsrh9lNa.jpg", "genre_ids": [18], "id": 294016, "original_language": "en", "original_title": "Trumbo", "overview": "The career of screenwriter Dalton Trumbo is halted by a witch hunt in the late 1940s when he defies the anti-communist HUAC committee and is blacklisted.", "poster_path": "/zShoKppVxFtRP8pIVeVQ4j2DEkz.jpg", "release_date": "2015-10-27", "title": "Trumbo", "video": false, "vote_average": 7.2, "vote_count": 971, "popularity": 11.721}, {"id": 522, "video": false, "vote_count": 1294, "vote_average": 7.5, "title": "Ed Wood", "release_date": "1994-09-27", "original_language": "en", "original_title": "Ed Wood", "genre_ids": [35, 18, 36], "backdrop_path": "/iyOAqR2xhjk21MBhzFSnHzO1Y0c.jpg", "adult": false, "overview": "The mostly true story of the legendary \"worst director of all time\", who, with the help of his strange friends, filmed countless B-movies without ever becoming famous or successful.", "poster_path": "/zeXBzwpr785X0luB97WNK6C5iNS.jpg", "popularity": 14.227}, {"id": 291984, "video": false, "vote_count": 342, "vote_average": 7.4, "title": "The Death & Life of John F. Donovan", "release_date": "2019-03-13", "original_language": "en", "original_title": "The Death & Life of John F. Donovan", "genre_ids": [18], "backdrop_path": "/duXbSimVAH4ZThehr8EFq8d4zlU.jpg", "adult": false, "overview": "A decade after the death of an American TV star, a young actor reminisces about the written correspondence he once shared with the former, as well as the impact those letters had on both their lives.", "poster_path": "/2bhI7Ivk7VmvUaJaDTxJUgOXp1E.jpg", "popularity": 13.05}, {"id": 856, "video": false, "vote_count": 3249, "vote_average": 7.4, "title": "Who Framed Roger Rabbit", "release_date": "1988-06-21", "original_language": "en", "original_title": "Who Framed Roger Rabbit", "genre_ids": [16, 35, 80, 14, 10751], "backdrop_path": "/9podqGmd36AJHO13HQIQHQZRTJC.jpg", "adult": false, "overview": "'Toon star Roger is worried that his wife Jessica is playing pattycake with someone else, so the studio hires detective Eddie Valiant to snoop on her. But the stakes are quickly raised when Marvin Acme is found dead and Roger is the prime suspect.", "poster_path": "/lYfRc57Kx9VgLZ48iulu0HKnM15.jpg", "popularity": 20.755}, {"id": 466272, "video": false, "vote_count": 4110, "vote_average": 7.5, "title": "Once Upon a Time\u2026 in Hollywood", "release_date": "2019-07-25", "original_language": "en", "original_title": "Once Upon a Time\u2026 in Hollywood", "genre_ids": [35, 18, 53], "backdrop_path": "/yB2hTgz9CTVYjlMWPSl3LPx5nWj.jpg", "adult": false, "overview": "Los Angeles, 1969. TV star Rick Dalton, a struggling actor specializing in westerns, and stuntman Cliff Booth, his best friend, try to survive in a constantly changing movie industry. Dalton is the neighbor of the young and promising actress and model Sharon Tate, who has just married the prestigious Polish director Roman Polanski\u2026", "poster_path": "/8j58iEBw9pOXFD2L0nt0ZXeHviB.jpg", "popularity": 95.043}, {"adult": false, "backdrop_path": "/pdIoY6ZOqwbwPlTuDh83TbJ64xw.jpg", "genre_ids": [35, 18, 9648], "id": 270487, "original_language": "en", "original_title": "Hail, Caesar!", "overview": "When a Hollywood star mysteriously disappears in the middle of filming, the studio sends their \"fixer\" to get him back. Set in the 1950s, the story was inspired by the career of Eddie Mannix (1891\u20131963).", "poster_path": "/rzMYZYphL9qrbBClQq1Jc0zPMmY.jpg", "release_date": "2016-02-05", "title": "Hail, Caesar!", "video": false, "vote_average": 5.9, "vote_count": 2550, "popularity": 15.402}, {"id": 599, "video": false, "vote_count": 1215, "vote_average": 8.4, "title": "Sunset Boulevard", "release_date": "1950-08-10", "original_language": "en", "original_title": "Sunset Boulevard", "genre_ids": [18], "backdrop_path": "/u44VbUuoP6OZYEBv2DRd7ShPTMp.jpg", "adult": false, "overview": "A hack screenwriter writes a screenplay for a former silent film star who has faded into Hollywood obscurity.", "poster_path": "/oFwzvRgfxJc0FUr2mwYTi10dk3G.jpg", "popularity": 15.201}, {"adult": false, "backdrop_path": "/1SjsVcGO2T2cCrhlhXi8gxQl7jx.jpg", "genre_ids": [16, 28, 35, 878], "id": 474395, "original_language": "en", "original_title": "Teen Titans Go! To the Movies", "overview": "All the major DC superheroes are starring in their own films, all but the Teen Titans, so Robin is determined to remedy this situation by getting over his role as a sidekick and becoming a movie star. Thus, with a few madcap ideas and an inspirational song in their hearts, the Teen Titans head to Hollywood to fulfill their dreams.", "poster_path": "/mFHihhE9hlvJEk2f1AqdLRaYHd6.jpg", "release_date": "2018-07-27", "title": "Teen Titans Go! To the Movies", "video": false, "vote_average": 7.0, "vote_count": 415, "popularity": 18.084}, {"id": 7446, "video": false, "vote_count": 3479, "vote_average": 6.5, "title": "Tropic Thunder", "release_date": "2008-08-09", "original_language": "en", "original_title": "Tropic Thunder", "genre_ids": [28, 12, 35, 10752], "backdrop_path": "/pr8sj9FozsiT45TMtkwFRWONNII.jpg", "adult": false, "overview": "Vietnam veteran 'Four Leaf' Tayback's memoir, Tropic Thunder, is being made into a film, but Director Damien Cockburn can\u2019t control the cast of prima donnas. Behind schedule and over budget, Cockburn is ordered by a studio executive to get filming back on track, or risk its cancellation. On Tayback's advice, Cockburn drops the actors into the middle of the jungle to film the remaining scenes but, unbeknownst to the actors and production, the group have been dropped in the middle of the Golden Triangle, the home of heroin-producing gangs.", "poster_path": "/ue9QdvhpcNPvKQyLY5a5Pd0tagS.jpg", "popularity": 28.425}, {"adult": false, "backdrop_path": "/aWLIsFyLSX81Z0ORQQpxMFm1zFw.jpg", "genre_ids": [35], "id": 188222, "original_language": "en", "original_title": "Entourage", "overview": "Movie star Vincent Chase, together with his boys, Eric, Turtle and Johnny, are back\u2026and back in business with super agent-turned-studio head Ari Gold. Some of their ambitions have changed, but the bond between them remains strong as they navigate the capricious and often cutthroat world of Hollywood.", "poster_path": "/eXFOwg43NeZAv4BgXTlmdp7pzRG.jpg", "release_date": "2015-06-03", "title": "Entourage", "video": false, "vote_average": 6.2, "vote_count": 669, "popularity": 18.152}, {"id": 32499, "video": false, "vote_count": 111, "vote_average": 7.3, "title": "The Bad and the Beautiful", "release_date": "1952-12-25", "original_language": "en", "original_title": "The Bad and the Beautiful", "genre_ids": [18, 10749], "backdrop_path": "/rprutJu1nFDqnI5IjtO7heBdavW.jpg", "adult": false, "overview": "Told in flashback form, the film traces the rise and fall of a tough, ambitious Hollywood producer, Jonathan Shields, as seen through the eyes of various acquaintances, including a writer, James Lee Bartlow; a star, Georgia Lorrison; and a director, Fred Amiel. He is a hard-driving, ambitious man who ruthlessly uses everyone on the way to becoming one of Hollywood's top movie makers.", "poster_path": "/7ZuPYVkqTz5wcnG32mhYBgKSOKw.jpg", "popularity": 7.729}, {"adult": false, "backdrop_path": "/2gJDuPxrZBns5ab47HQbyU2l6Im.jpg", "genre_ids": [18, 10749], "id": 451, "original_language": "en", "original_title": "Leaving Las Vegas", "overview": "Ben Sanderson, an alcoholic Hollywood screenwriter who lost everything because of his drinking, arrives in Las Vegas to drink himself to death. There, he meets and forms an uneasy friendship and non-interference pact with prostitute Sera.", "poster_path": "/37qHRJxnSh5YkuaN9FgfNnMl3Tj.jpg", "release_date": "1995-10-27", "title": "Leaving Las Vegas", "video": false, "vote_average": 7.2, "vote_count": 676, "popularity": 13.063}, {"id": 11596, "video": false, "vote_count": 684, "vote_average": 6.4, "title": "New Nightmare", "release_date": "1994-10-13", "original_language": "en", "original_title": "New Nightmare", "genre_ids": [14, 27, 9648, 53], "backdrop_path": "/bFdZFVHMn6stFWr4c08OTJDZHcG.jpg", "adult": false, "overview": "In this meta horror film, a demonic entity uses the fictional character of Freddy Krueger to enter the real world and torment \"Elm Street\" heroine Heather Langenkamp and her family.", "poster_path": "/oLEZibnraixTE68rTaYv4FEmvYd.jpg", "popularity": 14.971}, {"id": 10403, "video": false, "vote_count": 352, "vote_average": 7.2, "title": "The Player", "release_date": "1992-04-03", "original_language": "en", "original_title": "The Player", "genre_ids": [35, 80, 18, 53], "backdrop_path": "/tKyxF6ZyxF65CcJKBKId1VavpGP.jpg", "adult": false, "overview": "A Hollywood studio executive is being sent death threats by a writer whose script he rejected - but which one?", "poster_path": "/eoQ9H9CEySIYSPElKn2VRVY0MEa.jpg", "popularity": 9.268}, {"adult": false, "backdrop_path": "/wLczRlndrKOFcBffSzUEKNyBEi2.jpg", "genre_ids": [18], "id": 112336, "original_language": "en", "original_title": "Hitchcock", "overview": "HITCHCOCK follows the relationship between director Alfred Hitchcock and his wife Alma Reville during the making of his most famous film, PSYCHO, and the trials and tribulations the director faced from Hollywood censors.", "poster_path": "/qQGr8DQiAelkcy4w8cXn2qTMkMq.jpg", "release_date": "2012-11-22", "title": "Hitchcock", "video": false, "vote_average": 6.5, "vote_count": 921, "popularity": 10.38}, {"id": 194662, "video": false, "vote_count": 8621, "vote_average": 7.5, "title": "Birdman", "release_date": "2014-08-27", "original_language": "en", "original_title": "Birdman", "genre_ids": [35, 18], "backdrop_path": "/AsJVim0Hk3KbQPbfjyijfjqmaoZ.jpg", "adult": false, "overview": "A fading actor best known for his portrayal of a popular superhero attempts to mount a comeback by appearing in a Broadway play. As opening night approaches, his attempts to become more altruistic, rebuild his career, and reconnect with friends and family prove more difficult than expected.", "poster_path": "/rSZs93P0LLxqlVEbI001UKoeCQC.jpg", "popularity": 40.415}, {"id": 14, "video": false, "vote_count": 7295, "vote_average": 8.0, "title": "American Beauty", "release_date": "1999-09-15", "original_language": "en", "original_title": "American Beauty", "genre_ids": [18], "backdrop_path": "/z5J18ByLeOZ68iORfMXmxeFuwyL.jpg", "adult": false, "overview": "Lester Burnham, a depressed suburban father in a mid-life crisis, decides to turn his hectic life around after developing an infatuation with his daughter's attractive friend.", "poster_path": "/or1MP8BZIAjqWYxPdPX724ydKar.jpg", "popularity": 28.789}, {"adult": false, "backdrop_path": "/mAXgaPxxUQg6U446yz8KPRYSUT.jpg", "genre_ids": [12, 18, 10751], "id": 44826, "original_language": "en", "original_title": "Hugo", "overview": "Orphaned and alone except for an uncle, Hugo Cabret lives in the walls of a train station in 1930s Paris. Hugo's job is to oil and maintain the station's clocks, but to him, his more important task is to protect a broken automaton and notebook left to him by his late father. Accompanied by the goddaughter of an embittered toy merchant, Hugo embarks on a quest to solve the mystery of the automaton and find a place he can call home.", "poster_path": "/rSmmVKeW3nsP86V2S6R7ePs4CFw.jpg", "release_date": "2011-11-22", "title": "Hugo", "video": false, "vote_average": 7.1, "vote_count": 4578, "popularity": 20.1}, {"adult": false, "backdrop_path": "/tVi83ttAeyMJinYpy6xfgJSpzvP.jpg", "genre_ids": [18, 10749], "id": 11216, "original_language": "it", "original_title": "Nuovo Cinema Paradiso", "overview": "A filmmaker recalls his childhood, when he fell in love with the movies at his village's theater and formed a deep friendship with the theater's projectionist.", "poster_path": "/hYzCLju3W74nLhhRXfPkwDi1Tun.jpg", "release_date": "1988-11-17", "title": "Cinema Paradiso", "video": false, "vote_average": 8.4, "vote_count": 2031, "popularity": 17.915}], "total_pages": 56, "total_results": 1101}, "recommendations": {"page": 1, "results": [{"adult": false, "backdrop_path": null, "genre_ids": [18], "id": 31282, "original_language": "en", "original_title": "I Accuse My Parents", "overview": "Ignored by his alcoholic parents, Jimmy Wilson starts hanging around with some shady characters. After falling in love with a lounge singer, Jimmy tries to impress her by doing jobs for her shady boss. After one of these jobs goes bad, Jimmy ends up on the run. Eventually, he must confront the truth, his past, and his parents. The judge cites parental neglect in the case of a teenager (John Miljan) charged with murder.", "poster_path": "/zdcpIQfKyoYBZEzzNxSbvxCTySc.jpg", "release_date": "1944-10-27", "title": "I Accuse My Parents", "video": false, "vote_average": 2.7, "vote_count": 18, "popularity": 3.45}, {"adult": false, "backdrop_path": "/xf7EGJvUnFZgPbwPdpWk5PJ0Bvt.jpg", "genre_ids": [27, 878], "id": 37464, "original_language": "en", "original_title": "Monstrosity", "overview": "A rich but unscrupulous old woman plots with a scientist to have her brain implanted in the skull of a sexy young woman.", "poster_path": "/cLOLq9nWKCoQbwcDgS9uidyRbyl.jpg", "release_date": "1963-09-01", "title": "Monstrosity", "video": false, "vote_average": 2.6, "vote_count": 23, "popularity": 3.457}, {"adult": false, "backdrop_path": null, "genre_ids": [27, 18, 53], "id": 92809, "original_language": "en", "original_title": "The Dead Talk Back", "overview": "A psychic researcher attempts to solve a murder by using a radio that enables him to speak with the dead.", "poster_path": "/269eNp0r3wJBNY189K9kJ9KT2qd.jpg", "release_date": "1957-12-31", "title": "The Dead Talk Back", "video": false, "vote_average": 1.5, "vote_count": 6, "popularity": 1.756}, {"adult": false, "backdrop_path": null, "genre_ids": [878, 12, 10751], "id": 154371, "original_language": "en", "original_title": "Manhunt in Space", "overview": "Rocky Jones, Space Ranger fights space pirates over an invisible spaceship.", "poster_path": "/khQFNMkJM5Q0Mj6YGaV3eKc9HLo.jpg", "release_date": "1956-01-01", "title": "Manhunt in Space", "video": false, "vote_average": 2.6, "vote_count": 5, "popularity": 2.013}, {"adult": false, "backdrop_path": null, "genre_ids": [53, 28, 12], "id": 31123, "original_language": "en", "original_title": "Red Zone Cuba", "overview": "Gritty neo-noir art film about escaped convict Griffin and his friends, who ran all the way to hell... with a penny, and a broken cigarette.", "poster_path": "/w1K5qJXMjkbU5i3SdNGxsYfTjGb.jpg", "release_date": "1966-11-01", "title": "Red Zone Cuba", "video": false, "vote_average": 1.5, "vote_count": 15, "popularity": 2.845}, {"id": 27625, "video": false, "vote_count": 20, "vote_average": 4.6, "title": "It Conquered the World", "release_date": "1956-07-14", "original_language": "en", "original_title": "It Conquered the World", "genre_ids": [27, 878, 53], "backdrop_path": "/uyvuz1wjHiv1xchdJBB1Ujh6202.jpg", "adult": false, "overview": "An alien from Venus tries to take over the world with the help of a disillusioned human scientist.", "poster_path": "/2V56EhYR3VsiXnnEMdWWPMsWO68.jpg", "popularity": 4.772}, {"adult": false, "backdrop_path": null, "genre_ids": [10751], "id": 321129, "original_language": "en", "original_title": "The Trouble With Women", "overview": "This short film illustrates some of the perceived problems a supervisor might face working with women, but ultimately demonstrates where the real problem lies.", "poster_path": null, "release_date": "1959-01-01", "title": "The Trouble With Women", "video": false, "vote_average": 2.8, "vote_count": 5, "popularity": 0.933}, {"adult": false, "backdrop_path": null, "genre_ids": [10751, 10749], "id": 353493, "original_language": "en", "original_title": "Young Man's Fancy", "overview": "A visiting young man prefers the household electrical appliances over the teenage daughter!", "poster_path": "/w9lGztZdwSmv18ZoX5t34eXxx4N.jpg", "release_date": "1952-01-01", "title": "Young Man's Fancy", "video": false, "vote_average": 3.8, "vote_count": 5, "popularity": 1.111}, {"adult": false, "backdrop_path": null, "genre_ids": [18, 10749, 80], "id": 89763, "original_language": "en", "original_title": "The Girl in Lovers Lane", "overview": "Two drifters contend with love and murder in a small town.", "poster_path": "/edOcr3Fh0XvvYPFS8y7ZCcOWogr.jpg", "release_date": "1960-06-16", "title": "The Girl in Lovers Lane", "video": false, "vote_average": 2.6, "vote_count": 8, "popularity": 2.892}, {"adult": false, "backdrop_path": "/xz1EfYRg5B3TYRR9pbM3TmjaF2x.jpg", "genre_ids": [28, 12, 878], "id": 31240, "original_language": "en", "original_title": "Agent for H.A.R.M.", "overview": "The head of the Human Aetiological Relations Machine pits an agent against a flesh-to-fungus spore gun.", "poster_path": "/bNO4SbATwHAQg2shgxyR5SSCtNW.jpg", "release_date": "1966-01-05", "title": "Agent for H.A.R.M.", "video": false, "vote_average": 2.5, "vote_count": 9, "popularity": 3.495}, {"adult": false, "backdrop_path": null, "genre_ids": [99], "id": 353467, "original_language": "en", "original_title": "The Truck Farmer", "overview": "An interesting little short about the exploitative system of the 1930's-50's that used cheap Mexican workers (that \"cross the border on temporary work permits to *help* with the harvest\").", "poster_path": null, "release_date": "1954-01-01", "title": "The Truck Farmer", "video": false, "vote_average": 1.7, "vote_count": 7, "popularity": 0.84}, {"adult": false, "backdrop_path": null, "genre_ids": [80, 18], "id": 186584, "original_language": "en", "original_title": "Code Name: Diamond Head", "overview": "A failed Quinn Martin pilot for a series starring a Hawaii-based government counter intelligence agency run by the indomitable Aunt Mary. In this, his only adventure, Diamond Head has to prevent the evil Tree from stealing a deadly nerve toxin gas and selling it to foreign powers. To help Diamond Head is the Dragon Lady and Zulu.", "poster_path": "/uI7kHzmdGQl5YNTFEYlrhOD4MUM.jpg", "release_date": "1977-05-03", "title": "Code Name: Diamond Head", "video": false, "vote_average": 2.3, "vote_count": 8, "popularity": 2.327}, {"adult": false, "backdrop_path": null, "genre_ids": [28, 12, 10749], "id": 198558, "original_language": "it", "original_title": "Maciste contro i cacciatori di teste", "overview": "Maciste and his people flee their volcano-ravaged island. They end up caught in between two warring tribes.", "poster_path": "/wmCTjQhll7H5tyuA0aJbD0YcZCJ.jpg", "release_date": "1963-01-10", "title": "Colossus and the Headhunters", "video": false, "vote_average": 1.4, "vote_count": 8, "popularity": 1.595}, {"adult": false, "backdrop_path": null, "genre_ids": [18, 14], "id": 29419, "original_language": "en", "original_title": "Carnival Magic", "overview": "A magician in a carnival--who actually can read minds and levitate people and objects--works with a superintelligent chimp named Alex, who can also talk. The magician and the chimp soon become the stars of the carnival, drawing in big crowds. However, the wild-animal trainer, who has been displaced by the team as the carnival's top act, decides to kidnap Alex and sell him to a medical laboratory for experimentation, thereby getting rid of his competition.", "poster_path": "/zn0IVtmgKQcCv6nhyrnCNIOf3qw.jpg", "release_date": "1981-01-01", "title": "Carnival Magic", "video": false, "vote_average": 2.2, "vote_count": 19, "popularity": 3.974}, {"adult": false, "backdrop_path": "/ycY9c5DZgiM4ZK0eb8fR4YSj3w2.jpg", "genre_ids": [18, 80], "id": 89751, "original_language": "en", "original_title": "The Beatniks", "overview": "A young singer's chance at fame is threatened by his hoodlum pals.", "poster_path": "/okFNLh5poZBGhQ3mi0aR2tT7VLn.jpg", "release_date": "1960-01-01", "title": "The Beatniks", "video": false, "vote_average": 2.7, "vote_count": 10, "popularity": 3.308}, {"adult": false, "backdrop_path": "/3tzhlD1Di6lu0LnpoDDEv3T2FIQ.jpg", "genre_ids": [28, 80, 18], "id": 31128, "original_language": "en", "original_title": "Final Justice", "overview": "Due to his violent past, Deputy Sheriff Thomas Jefferson Geronimo III (Joe Don Baker) has been transferred to a rural outpost. When two thugs kill the sheriff, Geronimo shoots one of them, and the other vows revenge. Unfortunately for Geronimo, that thug turns out to be a mob boss, and the court orders Geronimo to extradite him back to his home in Sicily. When their plane is hijacked, the adversaries find their roles reversed.", "poster_path": "/3vUBr0cT75z9V5g7i9TTgp539pa.jpg", "release_date": "1985-01-01", "title": "Final Justice", "video": false, "vote_average": 1.9, "vote_count": 14, "popularity": 3.141}, {"adult": false, "backdrop_path": "/eKTnJdMUOaFyWFoTPSlZ74KrtH7.jpg", "genre_ids": [27], "id": 31383, "original_language": "en", "original_title": "The Incredibly Strange Creatures Who Stopped Living and Became Mixed-Up Zombies!!?", "overview": "Beatnick Jerry takes his girl, Angie to the carnival. Angie wants to go see the gypsy fortune teller, Jerry does not but relents. After visiting the fortune teller and hearing bad news, Jerry goes alone to see Carmelita, the dancer (the fortune teller's sister). He is invited backstage and is mesmerized into becoming a psychotic killer. Angie, and Jerry's best friend Harold realize something is amiss when Jerry tries to kill Angie.", "poster_path": "/vfXLgQk5s1bzQfWV1LnS8Ch1Sbi.jpg", "release_date": "1964-02-10", "title": "The Incredibly Strange Creatures Who Stopped Living and Became Mixed-Up Zombies!!?", "video": false, "vote_average": 2.3, "vote_count": 27, "popularity": 4.41}, {"adult": false, "backdrop_path": "/obcQJeXLgNk045ySuC664upV18q.jpg", "genre_ids": [878, 53], "id": 31634, "original_language": "en", "original_title": "The Amazing Transparent Man", "overview": "An ex-major forces a scientist to develop a invisibility formula, with which he plans to create an invisible army and sell it to the highest bidder. However there are side effects to the formula.", "poster_path": "/lELV3k8VBa91XQoOUMPWe85tCJy.jpg", "release_date": "1960-02-01", "title": "The Amazing Transparent Man", "video": false, "vote_average": 3.8, "vote_count": 25, "popularity": 4.618}, {"adult": false, "backdrop_path": "/A9T4A1EtgchEbRxQYyIqzvJZuoW.jpg", "genre_ids": [27, 878], "id": 109122, "original_language": "en", "original_title": "Night of the Blood Beast", "overview": "An astronaut is killed on re-entry to Earth, but his body is seeded with rapidly-gestating aliens.", "poster_path": "/9tqOqKYcE48n2cmKIUGcE1Ss4pI.jpg", "release_date": "1958-08-01", "title": "Night of the Blood Beast", "video": false, "vote_average": 2.9, "vote_count": 19, "popularity": 4.507}, {"adult": false, "backdrop_path": "/74BtgomBYNgHpUjATYNPe4QNa50.jpg", "genre_ids": [18], "id": 31118, "original_language": "en", "original_title": "The Skydivers", "overview": "A woman seeks revenge on her former lover, who owns a skydiving business.", "poster_path": "/5uSZyEQeCMGO8GKfYlLtqsx2Rq1.jpg", "release_date": "1963-01-01", "title": "The Skydivers", "video": false, "vote_average": 2.2, "vote_count": 11, "popularity": 3.585}], "total_pages": 2, "total_results": 40}, "credits": {"cast": [{"cast_id": 4, "character": "Lt. Matt Carson", "credit_id": "5359a021c3a3684780000671", "gender": 2, "id": 120520, "name": "Kenne Duncan", "order": 1, "profile_path": "/jDYNqRMAfRl5fR1t66InT2FJxoa.jpg"}, {"cast_id": 5, "character": "Sgt. Randy Stone", "credit_id": "5359a037c3a3684788000650", "gender": 0, "id": 65499, "name": "Duke Moore", "order": 2, "profile_path": null}, {"cast_id": 6, "character": "Gloria Henderson", "credit_id": "5359a04cc3a36847a900068e", "gender": 0, "id": 1291344, "name": "Jean Fontaine", "order": 3, "profile_path": null}, {"cast_id": 7, "character": "Johnny Ryde", "credit_id": "5359a090c3a36847a1000677", "gender": 0, "id": 106180, "name": "Carl Anthony", "order": 4, "profile_path": null}, {"cast_id": 8, "character": "Dirk Williams", "credit_id": "5359a0acc3a36847a9000698", "gender": 0, "id": 1313350, "name": "Dino Fantini", "order": 5, "profile_path": null}, {"cast_id": 9, "character": "Mary Smith", "credit_id": "5359a0c0c3a36847900006b3", "gender": 0, "id": 1313351, "name": "Jeanne Willardson", "order": 6, "profile_path": null}, {"cast_id": 10, "character": "Mr. Romaine", "credit_id": "5359a0d7c3a368478000067e", "gender": 2, "id": 131479, "name": "Harvey B. Dunn", "order": 7, "profile_path": null}, {"cast_id": 11, "character": "Officer Kline", "credit_id": "5359a0edc3a3684780000681", "gender": 0, "id": 1313352, "name": "Fred Mason", "order": 8, "profile_path": null}, {"cast_id": 12, "character": "Jaffe", "credit_id": "5359a12bc3a3684772000661", "gender": 0, "id": 122981, "name": "Harry Keaton", "order": 9, "profile_path": null}, {"cast_id": 13, "character": "Connie", "credit_id": "5359a13dc3a368478000068e", "gender": 2, "id": 97824, "name": "Conrad Brooks", "order": 10, "profile_path": "/ccuggOAsOHthPN1kdhDbhH69Xwn.jpg"}, {"cast_id": 14, "character": "Man in Fight", "credit_id": "5359a163c3a3684780000696", "gender": 2, "id": 44763, "name": "Edward D. Wood Jr.", "order": 11, "profile_path": "/8ZoVOGxMYwamLR3Unlkrq3rpSQ2.jpg"}], "crew": [{"credit_id": "53599fc0c3a36847790006a1", "department": "Directing", "gender": 2, "id": 44763, "job": "Director", "name": "Edward D. Wood Jr.", "profile_path": "/8ZoVOGxMYwamLR3Unlkrq3rpSQ2.jpg"}, {"credit_id": "53599fd3c3a36847790006a6", "department": "Writing", "gender": 2, "id": 44763, "job": "Writer", "name": "Edward D. Wood Jr.", "profile_path": "/8ZoVOGxMYwamLR3Unlkrq3rpSQ2.jpg"}, {"credit_id": "575647a59251416e25001557", "department": "Camera", "gender": 2, "id": 65502, "job": "Director of Photography", "name": "William C. Thompson", "profile_path": null}, {"credit_id": "575647bb9251416e2a0016d3", "department": "Sound", "gender": 0, "id": 89258, "job": "Original Music Composer", "name": "Michael Terr", "profile_path": null}]}}