{"adult": false, "backdrop_path": "/A7A4MOxTZCSMiOhmFFY3oObp28W.jpg", "belongs_to_collection": null, "budget": 0, "genres": [{"id": 10751, "name": "Family"}, {"id": 16, "name": "Animation"}], "homepage": "", "id": 314580, "imdb_id": "tt0500151", "original_language": "en", "original_title": "VeggieTales: Very Silly Songs", "overview": "In every VeggieTales video, Larry the Cucumber sings one of his special \"Silly Songs with Larry\". This video contains many of the most popular Silly Songs, hosted by The Pirates Who Don't Do Anything (who debut a Silly Song of their own).", "popularity": 2.133, "poster_path": "/ymcIj79C8qFwXCzRfnKvmGFDEO5.jpg", "production_companies": [{"id": 15419, "logo_path": null, "name": "Big Idea Entertainment", "origin_country": ""}], "production_countries": [{"iso_3166_1": "US", "name": "United States of America"}, {"iso_3166_1": "CA", "name": "Canada"}], "release_date": "1997-01-01", "revenue": 0, "runtime": 32, "spoken_languages": [{"iso_639_1": "en", "name": "English"}], "status": "Released", "tagline": "", "title": "VeggieTales: Very Silly Songs", "video": true, "vote_average": 7.5, "vote_count": 1, "keywords": {"keywords": [{"id": 161155, "name": "kids"}, {"id": 199623, "name": "religious humour"}, {"id": 202085, "name": "kids music"}]}, "similar": {"page": 1, "results": [{"adult": false, "backdrop_path": "/fBYnaVOcc2Ghfkv473z0xdBRQ0m.jpg", "genre_ids": [10751, 16, 12, 35], "id": 270946, "original_language": "en", "original_title": "Penguins of Madagascar", "overview": "Skipper, Kowalski, Rico and Private join forces with undercover organization The North Wind to stop the villainous Dr. Octavius Brine from destroying the world as we know it.", "poster_path": "/pRer59eyY4rjkLPeKXKo7fPxCHH.jpg", "release_date": "2014-11-22", "title": "Penguins of Madagascar", "video": false, "vote_average": 6.4, "vote_count": 2485, "popularity": 27.36}, {"adult": false, "backdrop_path": "/AeMtzbw7shxtLvwKKqeITabpTrD.jpg", "genre_ids": [12, 16, 35, 10751], "id": 137116, "original_language": "en", "original_title": "Smurfs: The Lost Village", "overview": "In this fully animated, all-new take on the Smurfs, a mysterious map sets Smurfette and her friends Brainy, Clumsy and Hefty on an exciting race through the Forbidden Forest leading to the discovery of the biggest secret in Smurf history.", "poster_path": "/diYAZ6CKUuRAqLYMB2AyVutEFm0.jpg", "release_date": "2017-03-23", "title": "Smurfs: The Lost Village", "video": false, "vote_average": 6.1, "vote_count": 826, "popularity": 21.339}, {"id": 150540, "video": false, "vote_count": 13957, "vote_average": 7.9, "title": "Inside Out", "release_date": "2015-06-09", "original_language": "en", "original_title": "Inside Out", "genre_ids": [16, 35, 18, 10751], "backdrop_path": "/szytSpLAyBh3ULei3x663mAv5ZT.jpg", "adult": false, "overview": "Growing up can be a bumpy road, and it's no exception for Riley, who is uprooted from her Midwest life when her father starts a new job in San Francisco. Riley's guiding emotions\u2014 Joy, Fear, Anger, Disgust and Sadness\u2014live in Headquarters, the control centre inside Riley's mind, where they help advise her through everyday life and tries to keep things positive, but the emotions conflict on how best to navigate a new city, house and school.", "poster_path": "/aAmfIX3TT40zUHGcCKrlOZRKC7u.jpg", "popularity": 57.362}, {"id": 20352, "video": false, "vote_count": 10785, "vote_average": 7.2, "title": "Despicable Me", "release_date": "2010-07-08", "original_language": "en", "original_title": "Despicable Me", "genre_ids": [16, 35, 10751], "backdrop_path": "/yo1ef57MEPkEE4BDZKTZGH9uDcX.jpg", "adult": false, "overview": "Villainous Gru lives up to his reputation as a despicable, deplorable and downright unlikable guy when he hatches a plan to steal the moon from the sky. But he has a tough time staying on task after three orphans land in his care.", "poster_path": "/4zHJhBSY4kNZXfhTlmy2TzXD51M.jpg", "popularity": 35.41}, {"id": 93456, "video": false, "vote_count": 7883, "vote_average": 6.9, "title": "Despicable Me 2", "release_date": "2013-06-25", "original_language": "en", "original_title": "Despicable Me 2", "genre_ids": [16, 35, 10751], "backdrop_path": "/rmgxcw8tGTmdhsWqdjGBS9uI1tO.jpg", "adult": false, "overview": "Gru is recruited by the Anti-Villain League to help deal with a powerful new super criminal.", "poster_path": "/kQrYyZQHkwkUg2KlUDyvymj9FAp.jpg", "popularity": 45.613}, {"id": 342473, "video": false, "vote_count": 1169, "vote_average": 7.1, "title": "Ballerina", "release_date": "2016-12-14", "original_language": "en", "original_title": "Ballerina", "genre_ids": [12, 16, 35, 10751], "backdrop_path": "/wlLdcK3Sm7zp0w1ZuVvnFlmcchM.jpg", "adult": false, "overview": "Set in 1879 Paris. An orphan girl dreams of becoming a ballerina and flees her rural Brittany for Paris, where she passes for someone else and accedes to the position of pupil at the Grand Opera house.", "poster_path": "/qBxMhcmNnFniuDAZTKEHcSgKtsn.jpg", "popularity": 24.47}, {"id": 387592, "video": false, "vote_count": 393, "vote_average": 6.0, "title": "Early Man", "release_date": "2018-01-26", "original_language": "en", "original_title": "Early Man", "genre_ids": [12, 16, 35, 10751], "backdrop_path": "/9m71RMP45mg599xtKPyjicyHn1a.jpg", "adult": false, "overview": "Dug, along with his sidekick Hognob, unite a cavemen tribe to save their hidden valley from being spoiled and, all together as a team, to face the menace of a mysterious and mighty enemy, on the turf of an ancient and sacred sport.", "poster_path": "/5iW2rntwLZoGlFCYYy8TjHyblbw.jpg", "popularity": 14.887}, {"adult": false, "backdrop_path": "/zd3p7GKopxH4rIjGoDQ1ugalUtx.jpg", "genre_ids": [16, 10751, 10770], "id": 13382, "original_language": "en", "original_title": "Rudolph the Red-Nosed Reindeer", "overview": "Sam the snowman tells us the story of a young red-nosed reindeer who, after being ousted from the reindeer games because of his glowing nose, teams up with Hermey, an elf who wants to be a dentist, and Yukon Cornelius, the prospector. They run into the Abominable Snowman and find a whole island of misfit toys. Rudoph vows to see if he can get Santa to help the toys, and he goes back to the North Pole on Christmas Eve. But Santa's sleigh is fogged in. But when Santa looks over Rudolph, he gets a very bright idea...", "poster_path": "/r0vtyGOwTLZg4pgtbjlMGke7Qo1.jpg", "release_date": "1964-12-06", "title": "Rudolph the Red-Nosed Reindeer", "video": false, "vote_average": 7.4, "vote_count": 276, "popularity": 11.992}, {"id": 11774, "video": false, "vote_count": 3307, "vote_average": 6.8, "title": "Lemony Snicket's A Series of Unfortunate Events", "release_date": "2004-12-16", "original_language": "en", "original_title": "Lemony Snicket's A Series of Unfortunate Events", "genre_ids": [12, 35, 10751], "backdrop_path": "/iH65TTlQtDKCFZ9FZI04jz6xKPF.jpg", "adult": false, "overview": "Three wealthy children's parents are killed in a fire. When they are sent to a distant relative, they find out that he is plotting to kill them and seize their fortune.  This movie is extremely alarming, an expression which here means \"a thrilling misadventure involving three ingenious orphans and a villainous actor named Count Olaf (Jim Carrey) who wants their enormous fortune.\"  It includes a suspicious fire, delicious pasta, Jim Carrey, poorly behaved looches, Billy Connolly, an incredibly deadly viper, Meryl Streep, and the voice of an imposter named Jude Law.", "poster_path": "/dHQMAj9E2G2ewjN1aCOPubsZaj1.jpg", "popularity": 16.733}, {"adult": false, "backdrop_path": "/r9KKD6PRQKmZNr0SSAaDWGVHKDO.jpg", "genre_ids": [35, 18, 10751], "id": 1552, "original_language": "en", "original_title": "Parenthood", "overview": "The story of the Buckman family and friends, attempting to bring up their children. They suffer/enjoy all the events that occur: estranged relatives, the 'black sheep' of the family, the eccentrics, the skeletons in the closet, and the rebellious teenagers.", "poster_path": "/e51tNNQBJpJi9xkyuj0QFhyBcz7.jpg", "release_date": "1989-07-31", "title": "Parenthood", "video": false, "vote_average": 6.7, "vote_count": 315, "popularity": 13.577}, {"id": 17663, "video": false, "vote_count": 146, "vote_average": 8.3, "title": "Anne of Green Gables", "release_date": "1985-12-01", "original_language": "en", "original_title": "Anne of Green Gables", "genre_ids": [18, 10751], "backdrop_path": "/9qUvWPRou0KnsUfMxsEOpm8uzDv.jpg", "adult": false, "overview": "At the turn of the century on Prince Edward Island, Matthew Cuthbert and his sister Marilla decide to take on an orphan boy as help for their farm. But they get an unexpected jolt when they're mistakenly sent a girl instead: Anne Shirley. Anne's a dreamer with an unusual point of view, far removed from Marilla's pragmatic ways, and it's only on trial that Marilla agrees to keep Anne.", "poster_path": "/jlBgPhEXn2RnvSLJcqzmNIyis2o.jpg", "popularity": 10.793}, {"id": 22949, "video": false, "vote_count": 413, "vote_average": 5.4, "title": "Old Dogs", "release_date": "2009-11-24", "original_language": "en", "original_title": "Old Dogs", "genre_ids": [35, 10751], "backdrop_path": "/stu0zX05E4oqXVcBFGA2I5KxlX4.jpg", "adult": false, "overview": "Charlie and Dan have been best friends and business partners for thirty years; their Manhattan public relations firm is on the verge of a huge business deal with a Japanese company. With two weeks to sew up the contract, Dan gets a surprise: a woman he married on a drunken impulse nearly nine years before (annulled the next day) shows up to tell him he's the father of her twins, now seven, and she'll be in jail for 14 days for a political protest. Dan volunteers to keep the tykes, although he's up tight and clueless. With Charlie's help is there any way they can be dad and uncle, meet the kids' expectations, and still land the account?", "poster_path": "/2B4tOJ71vJQktyjsG0iqGM0Yh10.jpg", "popularity": 11.3}, {"id": 31586, "video": false, "vote_count": 142, "vote_average": 5.0, "title": "North", "release_date": "1994-07-22", "original_language": "en", "original_title": "North", "genre_ids": [35, 18, 14, 878, 10751], "backdrop_path": "/gXLwU18p3UrwqT3DLlymTjfCZek.jpg", "adult": false, "overview": "Eleven-year-old North has had it with his parents. They are always busy with their careers and don't give North the attention he needs, so he files a lawsuit against them. The judge rules that North should either find new parents or return to his own parents within two months. Thus North starts off on a journey around the world to find parents that really care about him.", "poster_path": "/4k5JshQ6kGLtI7paXAVAuC1o4t4.jpg", "popularity": 7.995}, {"adult": false, "backdrop_path": "/u23AswVE0zeHADnJZyLQaMquSfM.jpg", "genre_ids": [99, 10751], "id": 14358, "original_language": "en", "original_title": "Mad Hot Ballroom", "overview": "Eleven-year-old New York City public school kids journey into the world of ballroom dancing and reveal pieces of themselves and their world along the way. Told from their candid, sometimes hilarious perspectives, these kids are transformed, from reluctant participants to determined competitors, from typical urban kids to \"ladies and gentlemen,\" on their way to try to compete in the final citywide.", "poster_path": "/cVnBICXmyqlusz1iYvjvIOHxo5U.jpg", "release_date": "2005-05-13", "title": "Mad Hot Ballroom", "video": false, "vote_average": 7.0, "vote_count": 14, "popularity": 19.075}, {"id": 11528, "video": false, "vote_count": 512, "vote_average": 7.3, "title": "The Sandlot", "release_date": "1993-04-07", "original_language": "en", "original_title": "The Sandlot", "genre_ids": [35, 10751], "backdrop_path": "/m6kXoIPsU2zkvpA08pbJ3klRSW6.jpg", "adult": false, "overview": "In the summer of 1962, a new kid in town is taken under the wing of a young baseball prodigy and his rowdy team, resulting in many adventures.", "poster_path": "/fKJUQrAm5QbVR5DqgH9U5IflHGQ.jpg", "popularity": 10.094}, {"adult": false, "backdrop_path": "/z8K4NtRJMRyNB6PVuTbwgxIWlHu.jpg", "genre_ids": [35], "id": 15373, "original_language": "en", "original_title": "Role Models", "overview": "Two salesmen trash a company truck on an energy drink-fueled bender. Upon their arrest, the court gives them a choice: do hard time or spend 150 service hours with a mentorship program. After one day with the kids, however, jail doesn't look half bad.", "poster_path": "/bq6wxu0rv1GIkEwslBT2rVgLkxe.jpg", "release_date": "2008-11-07", "title": "Role Models", "video": false, "vote_average": 6.4, "vote_count": 1044, "popularity": 14.691}, {"id": 570169, "video": false, "vote_count": 3, "vote_average": 7.3, "title": "The Three Exclamation Marks", "release_date": "2019-07-25", "original_language": "de", "original_title": "Die drei Ausrufezeichen", "genre_ids": [12, 10751], "backdrop_path": "/oCX4cowvGAoHX8A0qv3gFgpeAms.jpg", "adult": false, "overview": "Friends Franzi, Marieave and Kim planned to spend the summer rehearsing for a Peter Pan play, but when strange things start to happen at the theatre they take on the role of investigators.", "poster_path": "/dd4JKdPJU9FCQxBvDauBBRXmO9l.jpg", "popularity": 7.329}, {"id": 43956, "video": false, "vote_count": 21, "vote_average": 6.7, "title": "Tom and Jerry Meet Sherlock Holmes", "release_date": "2010-08-24", "original_language": "en", "original_title": "Tom and Jerry Meet Sherlock Holmes", "genre_ids": [12, 16, 35, 10751], "backdrop_path": "/2Tr6MLO2tCXyAIrCZ1JvyBCmanK.jpg", "adult": false, "overview": "Tom and Jerry need to learn to work together in order to help Sherlock Holmes with an investigation of a jewel theft. But still, they are cat and mouse!", "poster_path": "/60I8ZYmqnPxWYV3VORGreyPScDn.jpg", "popularity": 8.646}, {"adult": false, "backdrop_path": "/fCmH9auogyJYvjhs1WUSNDov7JO.jpg", "genre_ids": [18], "id": 55785, "original_language": "en", "original_title": "Neds", "overview": "NEDs (Non Educated Delinquents) is the story of a young man\u2019s journey from prize-winning schoolboy to knife-carrying teenager. Struggling against the low expectations of those around him, John McGill changes from victim to avenger, scholar to NED, altar boy to glue sniffer. When he attempts to change back again, his new reality and recent past make conformity near impossible and violent self determination near inevitable.", "poster_path": "/58jYaHOg8emGal0IxVwmQvBtf9a.jpg", "release_date": "2010-10-08", "title": "Neds", "video": false, "vote_average": 6.7, "vote_count": 69, "popularity": 7.193}, {"id": 1023, "video": false, "vote_count": 347, "vote_average": 7.5, "title": "Adam's Apples", "release_date": "2005-04-15", "original_language": "da", "original_title": "Adams \u00e6bler", "genre_ids": [35, 80, 18], "backdrop_path": "/tgtZyxkghTimVYf3uF7kfLsZrGW.jpg", "adult": false, "overview": "A neo-nazi sentenced to community service at a church clashes with the blindly devotional priest.", "poster_path": "/ysLgwV21cnoI9nkWIvdZWqJuwjE.jpg", "popularity": 7.456}], "total_pages": 16, "total_results": 315}, "recommendations": {"page": 1, "results": [], "total_pages": 1, "total_results": 0}, "credits": {"cast": [{"cast_id": 0, "character": "Dad Asparagus", "credit_id": "54a2c2cb92514117dd001c27", "gender": 0, "id": 42223, "name": "Daniel Anderson", "order": 1, "profile_path": null}, {"cast_id": 1, "character": "Larry the Cucumber, Jerry Gourd, Jean-Claude, Scallion #2", "credit_id": "54a2c2eec3a3686428000471", "gender": 2, "id": 78298, "name": "Mike Nawrocki", "order": 2, "profile_path": "/1rSsWpWeKAd03AvULIr4UkBCyL6.jpg"}, {"cast_id": 2, "character": "Scooter", "credit_id": "54a2c3069251412127006099", "gender": 0, "id": 110804, "name": "Jim Poole", "order": 3, "profile_path": null}, {"cast_id": 3, "character": "Scallion #3", "credit_id": "54a2c324c3a3680b2700d550", "gender": 0, "id": 1406358, "name": "Mike Sage", "order": 4, "profile_path": null}, {"cast_id": 4, "character": "Junior Asparagus / Mom Asparagus", "credit_id": "54a2c33b9251411d53009b35", "gender": 1, "id": 110801, "name": "Lisa Vischer", "order": 5, "profile_path": null}, {"cast_id": 5, "character": "Bob the Tomato / Jimmy Gourd / Phillippe / Pa Grape / Mr. Nezzer / Mr. Lunt / Archibald / Scallion #1 / Frankencelery / Percy Pea", "credit_id": "54a2c358c3a3682f1b00f329", "gender": 2, "id": 78297, "name": "Phil Vischer", "order": 6, "profile_path": "/tqQLl2HRYOkMETPqgO6v4zJwEZ3.jpg"}], "crew": [{"credit_id": "54a2c3aa92514117dd001c40", "department": "Directing", "gender": 2, "id": 78297, "job": "Director", "name": "Phil Vischer", "profile_path": "/tqQLl2HRYOkMETPqgO6v4zJwEZ3.jpg"}, {"credit_id": "54a2c42fc3a368554200c7bb", "department": "Directing", "gender": 2, "id": 78298, "job": "Director", "name": "Mike Nawrocki", "profile_path": "/1rSsWpWeKAd03AvULIr4UkBCyL6.jpg"}, {"credit_id": "57dafce4c3a368423b002019", "department": "Directing", "gender": 2, "id": 181593, "job": "Director", "name": "Chris Olsen", "profile_path": null}]}}