{"adult": false, "backdrop_path": null, "belongs_to_collection": null, "budget": 0, "genres": [{"id": 18, "name": "Drama"}, {"id": 80, "name": "Crime"}], "homepage": null, "id": 315021, "imdb_id": "tt0075929", "original_language": "en", "original_title": "Delta Fox", "overview": "Woman is kidnaped by hitman who discovers that he is the target of another hitman.", "popularity": 0.726, "poster_path": "/o3Acc3pN9ql94g5xwuERXfu1Baz.jpg", "production_companies": [{"id": 42611, "logo_path": null, "name": "Delta Fox Productions", "origin_country": ""}], "production_countries": [{"iso_3166_1": "US", "name": "United States of America"}], "release_date": "1979-10-31", "revenue": 0, "runtime": 93, "spoken_languages": [{"iso_639_1": "en", "name": "English"}], "status": "Released", "tagline": "The Only Thing He Had To Lose Was His Life", "title": "Delta Fox", "video": false, "vote_average": 0.0, "vote_count": 0, "keywords": {"keywords": [{"id": 2708, "name": "hitman"}, {"id": 10950, "name": "shootout"}]}, "similar": {"page": 1, "results": [{"adult": false, "backdrop_path": "/e1svWjxTXMOmdgkVLSPHSfWv90R.jpg", "genre_ids": [28, 18, 53], "id": 2502, "original_language": "en", "original_title": "The Bourne Supremacy", "overview": "When a CIA operation to purchase classified Russian documents is blown by a rival agent, who then shows up in the sleepy seaside village where Bourne and Marie have been living. The pair run for their lives and Bourne, who promised retaliation should anyone from his former life attempt contact, is forced to once again take up his life as a trained assassin to survive.", "poster_path": "/jXwZgmqOtsqsXuB9oGhocOAegCM.jpg", "release_date": "2004-07-23", "title": "The Bourne Supremacy", "video": false, "vote_average": 7.3, "vote_count": 4750, "popularity": 17.814}, {"id": 306, "video": false, "vote_count": 909, "vote_average": 5.8, "title": "Beverly Hills Cop III", "release_date": "1994-05-24", "original_language": "en", "original_title": "Beverly Hills Cop III", "genre_ids": [28, 35, 80], "backdrop_path": "/9En9020IPIGzVW4cgaqmSMCNNiw.jpg", "adult": false, "overview": "Back in sunny southern California and on the trail of two murderers, Axel Foley again teams up with LA cop Billy Rosewood. Soon, they discover that an amusement park is being used as a front for a massive counterfeiting ring \u2013 and it's run by the same gang that shot Billy's boss.", "poster_path": "/tw9gAhqQcBFX0X0XfVbWqUsmzoU.jpg", "popularity": 12.544}, {"adult": false, "backdrop_path": "/2p5rA1NRoyyAFfzdHl1Ab1RN3qr.jpg", "genre_ids": [80, 28, 878], "id": 9739, "original_language": "en", "original_title": "Demolition Man", "overview": "Simon Phoenix, a violent criminal cryogenically frozen in 1996, escapes during a parole hearing in 2032 in the utopia of San Angeles. Police are incapable of dealing with his violent ways and turn to his captor, who had also been cryogenically frozen after being wrongfully accused of killing 30 innocent people while apprehending Phoenix.", "poster_path": "/k0PN3Ho12cGGIVJW7SCS7apLYaP.jpg", "release_date": "1993-10-08", "title": "Demolition Man", "video": false, "vote_average": 6.5, "vote_count": 1913, "popularity": 16.803}, {"id": 2501, "video": false, "vote_count": 5867, "vote_average": 7.4, "title": "The Bourne Identity", "release_date": "2002-06-14", "original_language": "en", "original_title": "The Bourne Identity", "genre_ids": [28, 18, 9648, 53], "backdrop_path": "/2Fr1vqBiDn8xRJM9elcplzHctTN.jpg", "adult": false, "overview": "Wounded to the brink of death and suffering from amnesia, Jason Bourne is rescued at sea by a fisherman. With nothing to go on but a Swiss bank account number, he starts to reconstruct his life, but finds that many people he encounters want him dead. However, Bourne realizes that he has the combat and mental skills of a world-class spy\u2014but who does he work for?", "poster_path": "/bXQIL36VQdzJ69lcjQR1WQzJqQR.jpg", "popularity": 20.935}, {"id": 8961, "video": false, "vote_count": 2968, "vote_average": 6.5, "title": "Bad Boys II", "release_date": "2003-07-18", "original_language": "en", "original_title": "Bad Boys II", "genre_ids": [28, 12, 35, 80, 53], "backdrop_path": "/5xQVApmdUbBlCi1QzS8NwbCF0Ne.jpg", "adult": false, "overview": "Out-of-control, trash-talking buddy cops Marcus Burnett and Mike Lowrey of the Miami Narcotics Task Force reunite, and bullets fly, cars crash and laughs explode as they pursue a whacked-out drug lord from the streets of Miami to the barrios of Cuba. But the real fireworks result when Marcus discovers that playboy Mike is secretly romancing Marcus\u2019 sexy sister.", "poster_path": "/680X9apSqmAcebLg8evnnUeQNeI.jpg", "popularity": 37.123}, {"adult": false, "backdrop_path": "/xBhRhY8KimSrPx6AMJXigpzlGQ2.jpg", "genre_ids": [28, 35, 80], "id": 96, "original_language": "en", "original_title": "Beverly Hills Cop II", "overview": "Axel heads for the land of sunshine and palm trees to find out who shot police Captain Andrew Bogomil. Thanks to a couple of old friends, Axel's investigation uncovers a series of robberies masterminded by a heartless weapons kingpin\u2014and the chase is on.", "poster_path": "/2y1z1baxKT0coTTRlnkI6McnR9f.jpg", "release_date": "1987-05-18", "title": "Beverly Hills Cop II", "video": false, "vote_average": 6.4, "vote_count": 1235, "popularity": 13.336}, {"id": 13184, "video": false, "vote_count": 599, "vote_average": 5.1, "title": "Bangkok Dangerous", "release_date": "2008-08-21", "original_language": "en", "original_title": "Bangkok Dangerous", "genre_ids": [28, 80, 53], "backdrop_path": "/lBVtKWWXH46r7oMLdfT3quioaVb.jpg", "adult": false, "overview": "When carrying out a hit, assassin Joe (Cage) always makes use of the knowledge of the local population. On arriving in Bangkok, Joe meets street kid Kong and he becomes his primary aide. But when Kong is nearly killed, he asks Joe to train him up in the deadly arts and unwittingly becomes a target of a band of killers.", "poster_path": "/eyHn8A0lze1pbCNxv0UsATBOmyv.jpg", "popularity": 10.287}, {"id": 9873, "video": false, "vote_count": 166, "vote_average": 6.4, "title": "F/X", "release_date": "1986-02-07", "original_language": "en", "original_title": "F/X", "genre_ids": [28, 80, 53], "backdrop_path": "/t0u76RL3YlcfnWdRWgRudROqEkg.jpg", "adult": false, "overview": "A movies special effects man is hired by a government agency to help stage the assassination of a well known gangster. When the agency double cross him, he uses his special effects to trap the gangster and the corrupt agents.", "poster_path": "/6VAiIPBnIRPWXi70sxsHDn9rXA8.jpg", "popularity": 8.513}, {"adult": false, "backdrop_path": "/kSTvteM3ekuoeO7u7GJtZQkZuom.jpg", "genre_ids": [28, 53, 80], "id": 1948, "original_language": "en", "original_title": "Crank", "overview": "Professional assassin Chev Chelios learns his rival has injected him with a poison that will kill him if his heart rate drops.", "poster_path": "/6RnD3Zfh0tO0cD2vroWyH0F98Ej.jpg", "release_date": "2006-08-31", "title": "Crank", "video": false, "vote_average": 6.6, "vote_count": 2121, "popularity": 21.613}, {"id": 9679, "video": false, "vote_count": 2590, "vote_average": 6.3, "title": "Gone in Sixty Seconds", "release_date": "2000-06-09", "original_language": "en", "original_title": "Gone in Sixty Seconds", "genre_ids": [28, 80, 53], "backdrop_path": "/uqd4cqpp6gbs6zG6izBUaCorgjv.jpg", "adult": false, "overview": "Upon learning that he has to come out of retirement to steal 50 cars in one night to save his brother Kip's life, former car thief Randall \"Memphis\" Raines enlists help from a few \"boost happy\" pals to accomplish a seemingly impossible feat. From countless car chases to relentless cops, the high-octane excitement builds as Randall swerves around more than a few roadblocks to keep Kip alive.", "poster_path": "/77TxKvRiX0c5JR6l4fxcN19prOy.jpg", "popularity": 20.394}, {"id": 2503, "video": false, "vote_count": 4835, "vote_average": 7.4, "title": "The Bourne Ultimatum", "release_date": "2007-08-03", "original_language": "en", "original_title": "The Bourne Ultimatum", "genre_ids": [28, 18, 9648, 53], "backdrop_path": "/6WpDOqkZFmhNJ0rwuLJiZVKlZi1.jpg", "adult": false, "overview": "Bourne is brought out of hiding once again by reporter Simon Ross who is trying to unveil Operation Blackbriar, an upgrade to Project Treadstone, in a series of newspaper columns. Information from the reporter stirs a new set of memories, and Bourne must finally uncover his dark past while dodging The Company's best efforts to eradicate him.", "poster_path": "/fHho6JYYY0nRcETWSoeI19iZsNF.jpg", "popularity": 16.034}, {"adult": false, "backdrop_path": "/2jNSXfITbGYxxWLJOLTh9eAx3y8.jpg", "genre_ids": [28, 35, 80, 53], "id": 9737, "original_language": "en", "original_title": "Bad Boys", "overview": "Marcus Burnett is a hen-pecked family man. Mike Lowry is a foot-loose and fancy free ladies' man. Both are Miami policemen, and both have 72 hours to reclaim a consignment of drugs stolen from under their station's nose. To complicate matters, in order to get the assistance of the sole witness to a murder, they have to pretend to be each other.", "poster_path": "/x1ygBecKHfXX4M2kRhmFKWfWbJc.jpg", "release_date": "1995-04-07", "title": "Bad Boys", "video": false, "vote_average": 6.6, "vote_count": 3338, "popularity": 46.139}, {"adult": false, "backdrop_path": "/gxl0eDEu2IJkubxu6UL0UN7ieYb.jpg", "genre_ids": [28, 18, 9648, 53], "id": 9268, "original_language": "en", "original_title": "Eraser", "overview": "U.S. Marshall John Kruger erases the identities of people enrolled in the Witness Protection Program. His current assignment is to protect Lee Cullen, who's uncovered evidence that the weapons manufacturer she works for has been selling to terrorist groups. When Kruger discovers that there's a corrupt agent within the program, he must guard his own life while trying to protect Lee's.", "poster_path": "/bmOG5k07nrnS8T49NVPM1LnrOf1.jpg", "release_date": "1996-06-21", "title": "Eraser", "video": false, "vote_average": 5.9, "vote_count": 991, "popularity": 20.546}, {"id": 1701, "video": false, "vote_count": 2370, "vote_average": 6.7, "title": "Con Air", "release_date": "1997-06-01", "original_language": "en", "original_title": "Con Air", "genre_ids": [28, 80, 53], "backdrop_path": "/aX2mwtawBe2TD1csPBYvm03sx3a.jpg", "adult": false, "overview": "When the government puts all its rotten criminal eggs in one airborne basket, it's asking for trouble. Before you can say, \"Pass the barf bag,\" the crooks control the plane, led by creepy Cyrus \"The Virus\" Grissom. Watching his every move is the just-released Cameron Poe, who'd rather reunite with his family.", "poster_path": "/yhaOQ7xXw0PLHLvg1w0M9zlPdg6.jpg", "popularity": 27.211}, {"id": 156022, "video": false, "vote_count": 5468, "vote_average": 7.2, "title": "The Equalizer", "release_date": "2014-09-24", "original_language": "en", "original_title": "The Equalizer", "genre_ids": [28, 80, 53], "backdrop_path": "/vbl4ZVqelrrzJ16fdDOq9siWbpi.jpg", "adult": false, "overview": "McCall believes he has put his mysterious past behind him and dedicated himself to beginning a new, quiet life. But when he meets Teri, a young girl under the control of ultra-violent Russian gangsters, he can\u2019t stand idly by \u2013 he has to help her. Armed with hidden skills that allow him to serve vengeance against anyone who would brutalize the helpless, McCall comes out of his self-imposed retirement and finds his desire for justice reawakened. If someone has a problem, if the odds are stacked against them, if they have nowhere else to turn, McCall will help. He is The Equalizer.", "poster_path": "/2eQfjqlvPAxd9aLDs8DvsKLnfed.jpg", "popularity": 39.578}, {"id": 400535, "video": false, "vote_count": 1616, "vote_average": 6.7, "title": "Sicario: Day of the Soldado", "release_date": "2018-06-27", "original_language": "en", "original_title": "Sicario: Day of the Soldado", "genre_ids": [28, 80, 18, 53], "backdrop_path": "/13VjjUeJ6mcDUB36XRu4YFpYNSm.jpg", "adult": false, "overview": "Agent Matt Graver teams up with operative Alejandro Gillick to prevent Mexican drug cartels from smuggling terrorists across the United States border.", "poster_path": "/msqWSQkU403cQKjQHnWLnugv7EY.jpg", "popularity": 24.365}, {"adult": false, "backdrop_path": "/6wBfey6EVR5qxYLB8pxoTVQYWkS.jpg", "genre_ids": [28, 80, 18, 53], "id": 1620, "original_language": "en", "original_title": "Hitman", "overview": "The best-selling videogame, Hitman, roars to life with both barrels blazing in this hardcore action-thriller starring Timothy Olyphant. A genetically engineered assassin with deadly aim, known only as \"Agent 47\" eliminates strategic targets for a top-secret organization. But when he's double-crossed, the hunter becomes the prey as 47 finds himself in a life-or-death game of international intrigue.", "poster_path": "/1U2FpMotSyaciATw5qfEsKdgpX4.jpg", "release_date": "2007-11-21", "title": "Hitman", "video": false, "vote_average": 5.9, "vote_count": 1868, "popularity": 16.204}, {"id": 787, "video": false, "vote_count": 6331, "vote_average": 6.6, "title": "Mr. & Mrs. Smith", "release_date": "2005-06-07", "original_language": "en", "original_title": "Mr. & Mrs. Smith", "genre_ids": [28, 35, 18, 53], "backdrop_path": "/fAwYX0Fha35CaYYUJ06VTN3bEeh.jpg", "adult": false, "overview": "After five (or six) years of vanilla-wedded bliss, ordinary suburbanites John and Jane Smith are stuck in a huge rut. Unbeknownst to each other, they are both coolly lethal, highly-paid assassins working for rival organisations. When they discover they're each other's next target, their secret lives collide in a spicy, explosive mix of wicked comedy, pent-up passion, nonstop action and high-tech weaponry.", "poster_path": "/dqs5BmwSULtB28Kls3IB6khTQwp.jpg", "popularity": 36.487}, {"id": 2320, "video": false, "vote_count": 457, "vote_average": 6.2, "title": "Executive Decision", "release_date": "1996-03-15", "original_language": "en", "original_title": "Executive Decision", "genre_ids": [28, 12, 18, 53], "backdrop_path": "/bjVntRO9QkAwm1HzTfH1nn1nOpn.jpg", "adult": false, "overview": "Terrorists hijack a 747 inbound to Washington D.C., demanding the the release of their imprisoned leader. Intelligence expert David Grant (Kurt Russell) suspects another reason and he is soon the reluctant member of a special assault team that is assigned to intercept the plane and hijackers.", "poster_path": "/wmgkFuEr8bHRAgs1HS5U46Rzo0I.jpg", "popularity": 11.941}, {"adult": false, "backdrop_path": "/aJCEQFFXNcfg5YneJzTG15qzxF7.jpg", "genre_ids": [28, 53], "id": 1572, "original_language": "en", "original_title": "Die Hard: With a Vengeance", "overview": "New York detective John McClane is back and kicking bad-guy butt in the third installment of this action-packed series, which finds him teaming with civilian Zeus Carver to prevent the loss of innocent lives. McClane thought he'd seen it all, until a genius named Simon engages McClane, his new \"partner\" -- and his beloved city -- in a deadly game that demands their concentration.", "poster_path": "/ivpXGcsPZglyYrN65THWSD7JM3q.jpg", "release_date": "1995-05-19", "title": "Die Hard: With a Vengeance", "video": false, "vote_average": 7.1, "vote_count": 3603, "popularity": 27.341}], "total_pages": 110, "total_results": 2182}, "recommendations": {"page": 1, "results": [], "total_pages": 1, "total_results": 0}, "credits": {"cast": [{"cast_id": 7, "character": "David 'Delta' Fox", "credit_id": "54a4a24fc3a3685542010874", "gender": 2, "id": 97878, "name": "Richard Lynch", "order": 1, "profile_path": "/f8DLv1pSSG85xEwqxOHIPQDa6t4.jpg"}, {"cast_id": 8, "character": "Karen", "credit_id": "54a4a294c3a368554201087d", "gender": 1, "id": 23648, "name": "Priscilla Barnes", "order": 2, "profile_path": "/llDEiCLnmEm68b658dv29Bh2wtR.jpg"}, {"cast_id": 9, "character": "Santana", "credit_id": "54a4a2b4c3a36864280040b2", "gender": 2, "id": 58423, "name": "Richard Jaeckel", "order": 3, "profile_path": "/4pTd7yoDD46xbFcMuFHh8k448Um.jpg"}, {"cast_id": 10, "character": "The Counselor", "credit_id": "54a4a2c6c3a3682f1b01303a", "gender": 2, "id": 38761, "name": "Stuart Whitman", "order": 4, "profile_path": "/bAtT3otGuwA8hG07lQSqTt7N1jq.jpg"}, {"cast_id": 11, "character": "Lucas Johnson", "credit_id": "54a4a2e0c3a3682f1e012e34", "gender": 2, "id": 14502, "name": "John Ireland", "order": 5, "profile_path": "/3l9eioLZ1LjQKts1CCqUrPCkJmw.jpg"}, {"cast_id": 12, "character": "Tiny", "credit_id": "54a4a2efc3a368764f00fe10", "gender": 2, "id": 6772, "name": "Julius Harris", "order": 6, "profile_path": "/vhyuxFmam4SQSjTOLPStOVYMgbb.jpg"}, {"cast_id": 13, "character": "Filling Station Attendant", "credit_id": "54a4a30f9251411d5300d977", "gender": 0, "id": 590888, "name": "Tracy Sebastian", "order": 7, "profile_path": null}, {"cast_id": 14, "character": "Baskins", "credit_id": "54a4a31f9251414e2800dd5e", "gender": 0, "id": 1407165, "name": "Damon Reicher", "order": 8, "profile_path": null}, {"cast_id": 15, "character": "Counselor's Girl", "credit_id": "54a4a336c3a36864280040c4", "gender": 0, "id": 134864, "name": "Susan Holloway", "order": 9, "profile_path": null}], "crew": [{"credit_id": "54a4a1149251412127009b17", "department": "Directing", "gender": 0, "id": 45489, "job": "Director", "name": "Beverly Sebastian", "profile_path": null}, {"credit_id": "54a4a1359251411d5300d924", "department": "Directing", "gender": 0, "id": 45491, "job": "Director", "name": "Ferd Sebastian", "profile_path": "/9LYTMpuj3dt3UpkMcXchbPwCCiz.jpg"}, {"credit_id": "54a4a158925141236b00a2c3", "department": "Writing", "gender": 0, "id": 45489, "job": "Writer", "name": "Beverly Sebastian", "profile_path": null}, {"credit_id": "54a4a164c3a3682f210132d1", "department": "Writing", "gender": 0, "id": 45491, "job": "Writer", "name": "Ferd Sebastian", "profile_path": "/9LYTMpuj3dt3UpkMcXchbPwCCiz.jpg"}, {"credit_id": "54a4a16fc3a368642800407b", "department": "Production", "gender": 0, "id": 45489, "job": "Producer", "name": "Beverly Sebastian", "profile_path": null}, {"credit_id": "54a4a1959251411f90000354", "department": "Production", "gender": 0, "id": 45491, "job": "Producer", "name": "Ferd Sebastian", "profile_path": "/9LYTMpuj3dt3UpkMcXchbPwCCiz.jpg"}, {"credit_id": "57b21600c3a36869e50012df", "department": "Camera", "gender": 2, "id": 20004, "job": "Director of Photography", "name": "Ronald V\u00edctor Garc\u00eda", "profile_path": "/iMrp8gIvub3hjyIB6lCwBIQ7BGS.jpg"}]}}