{"adult": false, "backdrop_path": "/aFBiU62Dpb7XK605gJditXLG0Pr.jpg", "belongs_to_collection": null, "budget": 0, "genres": [{"id": 28, "name": "Action"}, {"id": 12, "name": "Adventure"}, {"id": 14, "name": "Fantasy"}, {"id": 878, "name": "Science Fiction"}], "homepage": "http://www.thenostalgistfilm.com", "id": 315723, "imdb_id": "tt3215822", "original_language": "en", "original_title": "The Nostalgist", "overview": "In the futuristic city of Vanille, with properly tuned ImmerSyst Eyes &amp; Ears the world can look and sound like a paradise. But the life of a father and his young son threatens to disintegrate when the father's device begins to fail. Desperate to avoid facing his own traumatic reality, the man must venture outside to find a replacement, into a city where violence and danger lurk beneath a skim of beautiful illusion.", "popularity": 2.309, "poster_path": "/wbISVNI6uEXD4cla0unMcFIZzqI.jpg", "production_companies": [{"id": 72481, "logo_path": null, "name": "Wonder Room Productions", "origin_country": ""}], "production_countries": [{"iso_3166_1": "GB", "name": "United Kingdom"}], "release_date": "2014-06-19", "revenue": 0, "runtime": 17, "spoken_languages": [{"iso_639_1": "en", "name": "English"}], "status": "Released", "tagline": "", "title": "The Nostalgist", "video": false, "vote_average": 7.5, "vote_count": 8, "keywords": {"keywords": [{"id": 803, "name": "android"}, {"id": 2964, "name": "future"}, {"id": 4563, "name": "virtual reality"}, {"id": 4565, "name": "dystopia"}, {"id": 8250, "name": "victorian england"}, {"id": 10028, "name": "steampunk"}, {"id": 10103, "name": "children"}, {"id": 14544, "name": "robot"}, {"id": 162988, "name": "dystopian future"}, {"id": 214549, "name": "short"}]}, "similar": {"page": 1, "results": [{"id": 16577, "video": false, "vote_count": 820, "vote_average": 6.2, "title": "Astro Boy", "release_date": "2009-10-15", "original_language": "en", "original_title": "Astro Boy", "genre_ids": [28, 16, 878, 10751], "backdrop_path": "/tDg2qkMVaP1sK4EVrBQyR9ejr1g.jpg", "adult": false, "overview": "Set in the futuristic Metro City, Astro Boy (Atom) is a young robot with incredible powers created by a brilliant scientist in the image of the son he had lost. Unable to fulfill his creator's expectations, Astro embarks on a journey in search of acceptance, experiencing betrayal and a netherworld of robot gladiators, before returning to save Metro City and reconcile with the father who rejected him.", "poster_path": "/4kQczIhUFTnDWwG6HKsgCxLoi6.jpg", "popularity": 14.574}, {"id": 157336, "video": false, "vote_count": 20609, "vote_average": 8.3, "title": "Interstellar", "release_date": "2014-11-05", "original_language": "en", "original_title": "Interstellar", "genre_ids": [12, 18, 878], "backdrop_path": "/xu9zaAevzQ5nnrsXN6JcahLnG4i.jpg", "adult": false, "overview": "Interstellar chronicles the adventures of a group of explorers who make use of a newly discovered wormhole to surpass the limitations on human space travel and conquer the vast distances involved in an interstellar voyage.", "poster_path": "/nBNZadXqJSdt05SHLqgT0HuC5Gm.jpg", "popularity": 53.312}, {"id": 333339, "video": false, "vote_count": 8278, "vote_average": 7.6, "title": "Ready Player One", "release_date": "2018-03-28", "original_language": "en", "original_title": "Ready Player One", "genre_ids": [12, 878], "backdrop_path": "/q7fXcrDPJcf6t3rzutaNwTzuKP1.jpg", "adult": false, "overview": "When the creator of a popular video game system dies, a virtual contest is created to compete for his fortune.", "poster_path": "/pU1ULUq8D3iRxl1fdX2lZIzdHuI.jpg", "popularity": 33.77}, {"id": 87101, "video": false, "vote_count": 5757, "vote_average": 5.9, "title": "Terminator Genisys", "release_date": "2015-06-23", "original_language": "en", "original_title": "Terminator Genisys", "genre_ids": [28, 12, 878, 53], "backdrop_path": "/3DmxSJ08m9wwbxwbwHzA4dunGNO.jpg", "adult": false, "overview": "The year is 2029. John Connor, leader of the resistance continues the war against the machines. At the Los Angeles offensive, John's fears of the unknown future begin to emerge when TECOM spies reveal a new plot by SkyNet that will attack him from both fronts; past and future, and will ultimately change warfare forever.", "poster_path": "/5JU9ytZJyR3zmClGmVm9q4Geqbd.jpg", "popularity": 60.439}, {"adult": false, "backdrop_path": "/3N0XNfknTOpGwYadltyDSszCZmZ.jpg", "genre_ids": [28, 878], "id": 2048, "original_language": "en", "original_title": "I, Robot", "overview": "In 2035, where robots are common-place and abide by the three laws of robotics, a techno-phobic cop investigates an apparent suicide. Suspecting that a robot may be responsible for the death, his investigation leads him to believe that humanity may be in danger.", "poster_path": "/2mkFzf168xJrV6Leqq0bjqOlJCK.jpg", "release_date": "2004-07-15", "title": "I, Robot", "video": false, "vote_average": 6.9, "vote_count": 7608, "popularity": 41.593}, {"id": 198184, "video": false, "vote_count": 5351, "vote_average": 6.7, "title": "Chappie", "release_date": "2015-03-04", "original_language": "en", "original_title": "Chappie", "genre_ids": [28, 80, 878], "backdrop_path": "/y5lG7TBpeOMG0jxAaTK0ghZSzBJ.jpg", "adult": false, "overview": "Every child comes into the world full of promise, and none more so than Chappie: he is gifted, special, a prodigy. Like any child, Chappie will come under the influence of his surroundings\u2014some good, some bad\u2014and he will rely on his heart and soul to find his way in the world and become his own man. But there's one thing that makes Chappie different from any one else: he is a robot.", "poster_path": "/saF3HtAduvrP9ytXDxSnQJP3oqx.jpg", "popularity": 30.696}, {"id": 604, "video": false, "vote_count": 6344, "vote_average": 6.9, "title": "The Matrix Reloaded", "release_date": "2003-05-15", "original_language": "en", "original_title": "The Matrix Reloaded", "genre_ids": [28, 12, 878, 53], "backdrop_path": "/Fp3piEuHXxKnPBO5R0Wj4wjZHg.jpg", "adult": false, "overview": "Six months after the events depicted in The Matrix, Neo has proved to be a good omen for the free humans, as more and more humans are being freed from the matrix and brought to Zion, the one and only stronghold of the Resistance.  Neo himself has discovered his superpowers including super speed, ability to see the codes of the things inside the matrix and a certain degree of pre-cognition. But a nasty piece of news hits the human resistance: 250,000 machine sentinels are digging to Zion and would reach them in 72 hours. As Zion prepares for the ultimate war, Neo, Morpheus and Trinity are advised by the Oracle to find the Keymaker who would help them reach the Source.  Meanwhile Neo's recurrent dreams depicting Trinity's death have got him worried and as if it was not enough, Agent Smith has somehow escaped deletion, has become more powerful than before and has fixed Neo as his next target.", "poster_path": "/ezIurBz2fdUc68d98Fp9dRf5ihv.jpg", "popularity": 26.284}, {"id": 605, "video": false, "vote_count": 5698, "vote_average": 6.6, "title": "The Matrix Revolutions", "release_date": "2003-11-03", "original_language": "en", "original_title": "The Matrix Revolutions", "genre_ids": [28, 12, 878, 53], "backdrop_path": "/pdVHUsb2eEz9ALNTr6wfRJe5xVa.jpg", "adult": false, "overview": "The human city of Zion defends itself against the massive invasion of the machines as Neo fights to end the war at another front while also opposing the rogue Agent Smith.", "poster_path": "/sKogjhfs5q3azmpW7DFKKAeLEG8.jpg", "popularity": 22.724}, {"id": 19, "video": false, "vote_count": 1340, "vote_average": 8.2, "title": "Metropolis", "release_date": "1927-01-10", "original_language": "de", "original_title": "Metropolis", "genre_ids": [18, 878], "backdrop_path": "/gmH0N0bdlYGN1EUr8U2cMQYyg78.jpg", "adult": false, "overview": "In a futuristic city sharply divided between the working class and the city planners, the son of the city's mastermind falls in love with a working class prophet who predicts the coming of a savior to mediate their differences.", "poster_path": "/qriaeUUwdmlgethK3aSAx68mG05.jpg", "popularity": 20.587}, {"id": 19959, "video": false, "vote_count": 2004, "vote_average": 6.0, "title": "Surrogates", "release_date": "2009-09-24", "original_language": "en", "original_title": "Surrogates", "genre_ids": [28, 878, 53], "backdrop_path": "/lQ872mmHvHXip5sC1t0cvCSP8IO.jpg", "adult": false, "overview": "Set in a futuristic world where humans live in isolation and interact through surrogate robots, a cop is forced to leave his home for the first time in years in order to investigate the murders of others' surrogates.", "poster_path": "/pHAnrezPCpWzNYYceLivTMcQ4jM.jpg", "popularity": 22.374}, {"adult": false, "backdrop_path": null, "genre_ids": [28, 878], "id": 624860, "original_language": "en", "original_title": "The Matrix 4", "overview": "The fourth installment in The Matrix franchise. Plot unknown.", "poster_path": "/uoQfAYR1NTax9akJ1ceeQTKNXeo.jpg", "release_date": "2021-05-20", "title": "The Matrix 4", "video": false, "vote_average": 0.0, "vote_count": 0, "popularity": 5.264}, {"id": 262543, "video": false, "vote_count": 1019, "vote_average": 5.7, "title": "Automata", "release_date": "2014-10-09", "original_language": "en", "original_title": "Aut\u00f3mata", "genre_ids": [878, 53], "backdrop_path": "/281QVUuSYKBgtdxmr5iAM7YDUZw.jpg", "adult": false, "overview": "Jacq Vaucan, an insurance agent of ROC robotics corporation, routinely investigates the case of manipulating a robot. What he discovers will have profound consequences for the future of humanity.", "poster_path": "/wwo81W8PxHREEprnrJRww471hWm.jpg", "popularity": 24.409}, {"id": 49530, "video": false, "vote_count": 6907, "vote_average": 6.9, "title": "In Time", "release_date": "2011-10-27", "original_language": "en", "original_title": "In Time", "genre_ids": [28, 878, 53], "backdrop_path": "/cnGPiAd7D50YFcpt6HK7CwTUCew.jpg", "adult": false, "overview": "In the not-too-distant future the aging gene has been switched off. To avoid overpopulation, time has become the currency and the way people pay for luxuries and necessities. The rich can live forever, while the rest try to negotiate for their immortality. A poor young man who comes into a fortune of time, though too late to help his mother from dying. He ends up on the run from a corrupt police force known as 'time keepers'.", "poster_path": "/lnYuAr3QOPzvuEFlzpsRUq41IEy.jpg", "popularity": 24.14}, {"id": 9693, "video": false, "vote_count": 4056, "vote_average": 7.6, "title": "Children of Men", "release_date": "2006-09-22", "original_language": "en", "original_title": "Children of Men", "genre_ids": [28, 18, 878, 53], "backdrop_path": "/c5jNuPA19oGiEmbh8iFeAi6aHMI.jpg", "adult": false, "overview": "In 2027, in a chaotic world in which humans can no longer procreate, a former activist agrees to help transport a miraculously pregnant woman to a sanctuary at sea, where her child's birth may help scientists save the future of humankind.", "poster_path": "/gZ6i32Da76EUxta06GL2BxpC4Cn.jpg", "popularity": 18.249}, {"id": 263115, "video": false, "vote_count": 13404, "vote_average": 7.8, "title": "Logan", "release_date": "2017-02-28", "original_language": "en", "original_title": "Logan", "genre_ids": [28, 18, 878], "backdrop_path": "/yEv8c6i79vk06sZDC3Z9D8HQLVV.jpg", "adult": false, "overview": "In the near future, a weary Logan cares for an ailing Professor X in a hideout on the Mexican border. But Logan's attempts to hide from the world and his legacy are upended when a young mutant arrives, pursued by dark forces.", "poster_path": "/fnbjcRDYn6YviCcePDnGdyAkYsB.jpg", "popularity": 39.141}, {"adult": false, "backdrop_path": "/g6WT9zxATzTy9NVu2xwbxDAxvjd.jpg", "genre_ids": [28, 12, 878], "id": 157350, "original_language": "en", "original_title": "Divergent", "overview": "In a world divided into factions based on personality types, Tris learns that she's been classified as Divergent and won't fit in. When she discovers a plot to destroy Divergents, Tris and the mysterious Four must find out what makes Divergents dangerous before it's too late.", "poster_path": "/yTtx2ciqk4XdN1oKhMMDy3f5ue3.jpg", "release_date": "2014-03-14", "title": "Divergent", "video": false, "vote_average": 6.9, "vote_count": 8983, "popularity": 33.469}, {"id": 97020, "video": false, "vote_count": 3646, "vote_average": 5.8, "title": "RoboCop", "release_date": "2014-01-30", "original_language": "en", "original_title": "RoboCop", "genre_ids": [28, 878], "backdrop_path": "/kxe2Dyhyl0GoBQe47qpDZlfqJEN.jpg", "adult": false, "overview": "In RoboCop, the year is 2028 and multinational conglomerate OmniCorp is at the center of robot technology.  Overseas, their drones have been used by the military for years, but have been forbidden for law enforcement in America.  Now OmniCorp wants to bring their controversial technology to the home front, and they see a golden opportunity to do it.  When Alex Murphy \u2013 a loving husband, father and good cop doing his best to stem the tide of crime and corruption in Detroit \u2013 is critically injured, OmniCorp sees their chance to build a part-man, part-robot police officer.  OmniCorp envisions a RoboCop in every city and even more billions for their shareholders, but they never counted on one thing: there is still a man inside the machine.", "poster_path": "/hFQcC5eSSHqJfk70RdgrMMxGuYt.jpg", "popularity": 23.171}, {"id": 97, "video": false, "vote_count": 1217, "vote_average": 6.6, "title": "Tron", "release_date": "1982-07-09", "original_language": "en", "original_title": "Tron", "genre_ids": [28, 12, 878], "backdrop_path": "/owAF2FmDO0UnniCbMpCjN8VcFgA.jpg", "adult": false, "overview": "As Kevin Flynn searches for proof that he invented a hit video game, he is 'digitalized' by a laser and finds himself inside 'The Grid', where programs suffer under the tyrannical rule of the Master Control Program (MCP). With the help of a security program called 'TRON\", Flynn seeks to free The Grid from the MCP.", "poster_path": "/cTF8lpXvAwT1SLH9kVFZZl0AO0D.jpg", "popularity": 25.823}, {"adult": false, "backdrop_path": "/5OeY4U2rzePxWq2rkqMajUx2gz7.jpg", "genre_ids": [16, 10751, 12, 14, 10749], "id": 812, "original_language": "en", "original_title": "Aladdin", "overview": "Princess Jasmine grows tired of being forced to remain in the palace, so she sneaks out into the marketplace, in disguise, where she meets street-urchin Aladdin.  The couple falls in love, although Jasmine may only marry a prince.  After being thrown in jail, Aladdin becomes embroiled in a plot to find a mysterious lamp, with which the evil Jafar hopes to rule the land.", "poster_path": "/mjKozYRuHc9j7SmiXmbVmCiAM0A.jpg", "release_date": "1992-11-25", "title": "Aladdin", "video": false, "vote_average": 7.6, "vote_count": 7289, "popularity": 35.494}, {"id": 180, "video": false, "vote_count": 5106, "vote_average": 7.3, "title": "Minority Report", "release_date": "2002-06-20", "original_language": "en", "original_title": "Minority Report", "genre_ids": [28, 9648, 878, 53], "backdrop_path": "/6HbOqP1GUElNLdX8Bx2uP542CIP.jpg", "adult": false, "overview": "John Anderton is a top 'Precrime' cop in the late-21st century, when technology can predict crimes before they're committed. But Anderton becomes the quarry when another investigator targets him for a murder charge.", "poster_path": "/dS5AHLt4DhZpisxryIxKJU6Urxb.jpg", "popularity": 21.222}], "total_pages": 89, "total_results": 1780}, "recommendations": {"page": 1, "results": [], "total_pages": 1, "total_results": 0}, "credits": {"cast": [{"cast_id": 6, "character": "The Man", "credit_id": "56a6512bc3a368389300abb3", "gender": 2, "id": 2192, "name": "Lambert Wilson", "order": 1, "profile_path": "/jFkr2kuFfpzS1plfOlNJ6kURV6O.jpg"}, {"cast_id": 7, "character": "The Boy", "credit_id": "56a65137c3a368388b00b932", "gender": 2, "id": 1304662, "name": "Samuel Joslin", "order": 2, "profile_path": "/tJKi02sWEfNkPTQKIlQBBbHUyyg.jpg"}, {"cast_id": 8, "character": "Seller", "credit_id": "56a65146c3a368389600acc6", "gender": 2, "id": 186396, "name": "Darrell D'Silva", "order": 3, "profile_path": null}], "crew": [{"credit_id": "56a6501b9251410c08008f06", "department": "Directing", "gender": 0, "id": 986834, "job": "Director", "name": "Giacomo Cimini", "profile_path": null}, {"credit_id": "56a6502b925141772e000325", "department": "Production", "gender": 0, "id": 1568244, "job": "Producer", "name": "Pietro Greppi", "profile_path": null}, {"credit_id": "56a6505fc3a368388b00b901", "department": "Production", "gender": 0, "id": 1568245, "job": "Producer", "name": "Tommaso Colognese", "profile_path": null}, {"credit_id": "56a6506c925141161a001367", "department": "Production", "gender": 0, "id": 986834, "job": "Producer", "name": "Giacomo Cimini", "profile_path": null}, {"credit_id": "56a6507dc3a368389600aca5", "department": "Writing", "gender": 0, "id": 553566, "job": "Original Story", "name": "Daniel H. Wilson", "profile_path": null}, {"credit_id": "56a6508ac3a368389000c4c5", "department": "Writing", "gender": 0, "id": 986834, "job": "Writer", "name": "Giacomo Cimini", "profile_path": null}, {"credit_id": "56a65178c3a368389300abc4", "department": "Camera", "gender": 0, "id": 1568250, "job": "Director of Photography", "name": "Gareth Munden", "profile_path": null}, {"credit_id": "56a65188c3a368389b00b750", "department": "Editing", "gender": 0, "id": 1568251, "job": "Editor", "name": "Eleanor Infante", "profile_path": null}]}}