{"adult": false, "backdrop_path": "/7q5szHq2FqHkMlfQZVqdZ5CmgF9.jpg", "belongs_to_collection": null, "budget": 0, "genres": [{"id": 18, "name": "Drama"}, {"id": 80, "name": "Crime"}, {"id": 35, "name": "Comedy"}], "homepage": "", "id": 31644, "imdb_id": "tt0068152", "original_language": "en", "original_title": "$", "overview": "A bank security expert plots with a call girl to rob the safety deposit boxes of three very different criminals from a high-tech bank in Hamburg.", "popularity": 2.887, "poster_path": "/3cbc323a4VlTHFIU4nGWccwvNHG.jpg", "production_companies": [{"id": 55873, "logo_path": null, "name": "Worldwide", "origin_country": ""}, {"id": 55874, "logo_path": null, "name": "Pan", "origin_country": ""}, {"id": 5, "logo_path": "/71BqEFAF4V3qjjMPCpLuyJFB9A.png", "name": "Columbia Pictures", "origin_country": "US"}], "production_countries": [{"iso_3166_1": "US", "name": "United States of America"}], "release_date": "1971-12-17", "revenue": 0, "runtime": 121, "spoken_languages": [{"iso_639_1": "de", "name": "Deutsch"}, {"iso_639_1": "en", "name": "English"}], "status": "Released", "tagline": "The BIG bank-heist is on!", "title": "$", "video": false, "vote_average": 6.4, "vote_count": 15, "keywords": {"keywords": [{"id": 74, "name": "germany"}, {"id": 549, "name": "prostitute"}, {"id": 3391, "name": "drug smuggle"}, {"id": 10051, "name": "heist"}]}, "similar": {"page": 1, "results": [{"adult": false, "backdrop_path": "/tk6QB32plylH41eo2Pbv4sIVljO.jpg", "genre_ids": [18], "id": 50270, "original_language": "it", "original_title": "Paprika", "overview": "A young country girl comes to town and works in a brothel in order to help her fiance get the money to start his own business. \"Paprika\" is the name given to her by the madam.", "poster_path": "/6QthFTJvUheocw3fcKklnsMcGib.jpg", "release_date": "1991-02-13", "title": "Paprika", "video": false, "vote_average": 5.9, "vote_count": 81, "popularity": 20.02}, {"adult": false, "backdrop_path": "/7RRuRcGuWkZGuRyYugfXn0Fgrrr.jpg", "genre_ids": [28, 80, 18, 53], "id": 949, "original_language": "en", "original_title": "Heat", "overview": "Obsessive master thief, Neil McCauley leads a top-notch crew on various daring heists throughout Los Angeles while determined detective, Vincent Hanna pursues him without rest. Each man recognizes and respects the ability and the dedication of the other even though they are aware their cat-and-mouse game may end in violence.", "poster_path": "/6pmLVffM9jEYK7VqDJqPblMxfEY.jpg", "release_date": "1995-12-15", "title": "Heat", "video": false, "vote_average": 7.8, "vote_count": 3610, "popularity": 21.48}, {"id": 339403, "video": false, "vote_count": 9210, "vote_average": 7.4, "title": "Baby Driver", "release_date": "2017-06-28", "original_language": "en", "original_title": "Baby Driver", "genre_ids": [28, 80], "backdrop_path": "/goCvLSUFz0p7k8R10Hv4CVh3EQv.jpg", "adult": false, "overview": "After being coerced into working for a crime boss, a young getaway driver finds himself taking part in a heist doomed to fail.", "poster_path": "/dN9LbVNNZFITwfaRjl4tmwGWkRg.jpg", "popularity": 27.195}, {"id": 449443, "video": false, "vote_count": 1469, "vote_average": 6.6, "title": "Den of Thieves", "release_date": "2018-01-18", "original_language": "en", "original_title": "Den of Thieves", "genre_ids": [28, 80, 53], "backdrop_path": "/s3FDBLH4qc1IcjexB05Qvbn3wxO.jpg", "adult": false, "overview": "A gritty crime saga which follows the lives of an elite unit of the LA County Sheriff\u2019s Dept. and the state\u2019s most successful bank robbery crew as the outlaws plan a seemingly impossible heist on the Federal Reserve Bank.", "poster_path": "/AfybH6GbGFw1F9bcETe2yu25mIE.jpg", "popularity": 30.821}, {"id": 1626, "video": false, "vote_count": 282, "vote_average": 8.0, "title": "Vivre Sa Vie", "release_date": "1962-08-28", "original_language": "fr", "original_title": "Vivre sa vie: film en douze tableaux", "genre_ids": [18], "backdrop_path": "/wXfI2cHga8Ek4gcixd1mZzOCk8A.jpg", "adult": false, "overview": "Twelve episodic tales in the life of a Parisian woman and her slow descent into prostitution.", "poster_path": "/5XTJ9q5ZGcWcK6fY1w2YEZMtPRr.jpg", "popularity": 12.371}, {"id": 76758, "video": false, "vote_count": 375, "vote_average": 7.4, "title": "The Flowers of War", "release_date": "2011-12-15", "original_language": "zh", "original_title": "\u91d1\u9675\u5341\u4e09\u91f5", "genre_ids": [18, 36, 10752], "backdrop_path": "/iJNkqCLAHm9hseBMLFeuwxD7Wpo.jpg", "adult": false, "overview": "A Westerner finds refuge with a group of women in a church during Japan's rape of Nanking in 1937. Posing as a priest, he attempts to lead the women to safety.", "poster_path": "/s9Lgt28YhHIVllsF3N1FxwNuGre.jpg", "popularity": 12.365}, {"id": 1051, "video": false, "vote_count": 854, "vote_average": 7.6, "title": "The French Connection", "release_date": "1971-10-09", "original_language": "en", "original_title": "The French Connection", "genre_ids": [28, 80, 53], "backdrop_path": "/hPlzjKzbO8KuCerm1lOxDtUjlHD.jpg", "adult": false, "overview": "Tough narcotics detective 'Popeye' Doyle is in hot pursuit of a suave French drug dealer who may be the key to a huge heroin-smuggling operation.", "poster_path": "/5XSGvIKl2yPvOkieFjc3rzLw7x0.jpg", "popularity": 14.703}, {"adult": false, "backdrop_path": "/fLMv873bBAvrCtzeAbRVjb4Mi9Y.jpg", "genre_ids": [28, 53, 80], "id": 27582, "original_language": "en", "original_title": "The Mechanic", "overview": "Arthur Bishop is a 'mechanic' - an elite assassin with a strict code and unique talent for cleanly eliminating targets. It's a job that requires professional perfection and total detachment, and Bishop is the best in the business. But when he is ordered to take out his mentor and close friend Harry, Bishop is anything but detached.", "poster_path": "/eScKoGnjaUvGD2OkK3DImyzfVkt.jpg", "release_date": "2011-01-13", "title": "The Mechanic", "video": false, "vote_average": 6.3, "vote_count": 1857, "popularity": 23.44}, {"adult": false, "backdrop_path": "/oT79THuFrcBzrhlf4fiCddwZBCQ.jpg", "genre_ids": [18, 10402, 10749], "id": 69, "original_language": "en", "original_title": "Walk the Line", "overview": "A chronicle of country music legend Johnny Cash's life, from his early days on an Arkansas cotton farm to his rise to fame with Sun Records in Memphis, where he recorded alongside Elvis Presley, Jerry Lee Lewis and Carl Perkins.", "poster_path": "/wdxL3Zyh3O5MIbmsSiZEevJAjtQ.jpg", "release_date": "2005-09-13", "title": "Walk the Line", "video": false, "vote_average": 7.5, "vote_count": 1544, "popularity": 18.235}, {"adult": false, "backdrop_path": "/nfm6JCKUaM6dT0mATmShLY6cpmc.jpg", "genre_ids": [18, 10752], "id": 600, "original_language": "en", "original_title": "Full Metal Jacket", "overview": "A pragmatic U.S. Marine observes the dehumanizing effects the U.S.-Vietnam War has on his fellow recruits from their brutal boot camp training to the bloody street fighting in Hue.", "poster_path": "/29veIwD38rVL2qY74emXQw4y25H.jpg", "release_date": "1987-06-26", "title": "Full Metal Jacket", "video": false, "vote_average": 8.1, "vote_count": 5892, "popularity": 25.71}, {"id": 154400, "video": false, "vote_count": 1342, "vote_average": 6.7, "title": "The Drop", "release_date": "2014-09-12", "original_language": "en", "original_title": "The Drop", "genre_ids": [80, 18], "backdrop_path": "/lI7TD9Z9TsASnc3GxkLbBBpXCac.jpg", "adult": false, "overview": "Bob Saginowski finds himself at the center of a robbery gone awry and entwined in an investigation that digs deep into the neighborhood's past where friends, families, and foes all work together to make a living - no matter the cost.", "poster_path": "/lj8AMCjWx0jU93XajzUEOUUNKZF.jpg", "popularity": 22.374}, {"adult": false, "backdrop_path": "/xC9cG6Wy6QbH2hoAx11xPPD995R.jpg", "genre_ids": [18, 10749], "id": 86331, "original_language": "fr", "original_title": "Q", "overview": "In a social context deteriorated by a countrywide economic crisis, the life of several people will be turned upside down after they meet Cecile, a character who symbolizes desire.", "poster_path": "/9Jg9s4yTEndNmy1SSXRF9jdxY9D.jpg", "release_date": "2011-09-14", "title": "Desire", "video": false, "vote_average": 4.7, "vote_count": 204, "popularity": 30.344}, {"id": 1900, "video": false, "vote_count": 1100, "vote_average": 7.1, "title": "Traffic", "release_date": "2000-12-27", "original_language": "en", "original_title": "Traffic", "genre_ids": [80, 18, 53], "backdrop_path": "/ivAC8eZkzKoTf8EWQh7pkFD0AGS.jpg", "adult": false, "overview": "An exploration of the United States of America's war on drugs from multiple perspectives. For the new head of the Office of National Drug Control Policy, the war becomes personal when he discovers his well-educated daughter is abusing cocaine within their comfortable suburban home. In Mexico, a flawed, but noble policeman agrees to testify against a powerful general in league with a cartel, and in San Diego, a drug kingpin's sheltered trophy wife must learn her husband's ruthless business after he is arrested, endangering her luxurious lifestyle.", "poster_path": "/9qPLd5hdXIlrAyknVWK38eZyUMo.jpg", "popularity": 13.093}, {"id": 9679, "video": false, "vote_count": 2588, "vote_average": 6.3, "title": "Gone in Sixty Seconds", "release_date": "2000-06-09", "original_language": "en", "original_title": "Gone in Sixty Seconds", "genre_ids": [28, 80, 53], "backdrop_path": "/uqd4cqpp6gbs6zG6izBUaCorgjv.jpg", "adult": false, "overview": "Upon learning that he has to come out of retirement to steal 50 cars in one night to save his brother Kip's life, former car thief Randall \"Memphis\" Raines enlists help from a few \"boost happy\" pals to accomplish a seemingly impossible feat. From countless car chases to relentless cops, the high-octane excitement builds as Randall swerves around more than a few roadblocks to keep Kip alive.", "poster_path": "/77TxKvRiX0c5JR6l4fxcN19prOy.jpg", "popularity": 18.286}, {"id": 11046, "video": false, "vote_count": 433, "vote_average": 7.6, "title": "Where Eagles Dare", "release_date": "1968-12-04", "original_language": "en", "original_title": "Where Eagles Dare", "genre_ids": [28, 12, 18, 36, 10752], "backdrop_path": "/aAFq5jVHV6RZpLcRXATskNBuEbM.jpg", "adult": false, "overview": "World War II is raging, and an American general has been captured and is being held hostage in the Schloss Adler, a Bavarian castle that's nearly impossible to breach. It's up to a group of skilled Allied soldiers to liberate the general before it's too late.", "poster_path": "/991u0tSWGTVXCYkgC6ftaGE4bkQ.jpg", "popularity": 16.468}, {"id": 138832, "video": false, "vote_count": 5756, "vote_average": 6.8, "title": "We're the Millers", "release_date": "2013-08-07", "original_language": "en", "original_title": "We're the Millers", "genre_ids": [35, 80], "backdrop_path": "/hoSddFLIyr6FUylOwCxoahbvnXd.jpg", "adult": false, "overview": "A veteran pot dealer creates a fake family as part of his plan to move a huge shipment of weed into the U.S. from Mexico.", "poster_path": "/digXuLXmk88Ar23LYUQTLcz5npA.jpg", "popularity": 19.043}, {"id": 401469, "video": false, "vote_count": 1260, "vote_average": 6.5, "title": "Widows", "release_date": "2018-11-06", "original_language": "en", "original_title": "Widows", "genre_ids": [80, 53], "backdrop_path": "/tkri1hMrb1FhWfb2bWpprsvq9Sd.jpg", "adult": false, "overview": "A police shootout leaves four thieves dead during an explosive armed robbery attempt in Chicago. Their widows have nothing in common except a debt left behind by their spouses' criminal activities. Hoping to forge a future on their own terms, they join forces to pull off a heist.", "poster_path": "/d31SGJSaX29ba5ZUbZcesGoDE7I.jpg", "popularity": 23.635}, {"id": 193893, "video": false, "vote_count": 1813, "vote_average": 6.3, "title": "Let's Be Cops", "release_date": "2014-08-13", "original_language": "en", "original_title": "Let's Be Cops", "genre_ids": [35], "backdrop_path": "/43GrPpAeBUOvOCZ8L1A3MLuDnkc.jpg", "adult": false, "overview": "It's the ultimate buddy cop movie except for one thing: they're not cops.  When two struggling pals dress as police officers for a costume party, they become neighborhood sensations.  But when these newly-minted \u201cheroes\u201d get tangled in a real life web of mobsters and dirty detectives, they must put their fake badges on the line.", "poster_path": "/ayYibwWAA9NxJPaD9GSybPShtvL.jpg", "popularity": 20.729}, {"adult": false, "backdrop_path": "/90kmxuSwU28dVy1ghVSHI4x1wb8.jpg", "genre_ids": [35, 18, 37], "id": 537996, "original_language": "en", "original_title": "The Ballad of Buster Scruggs", "overview": "Vignettes weaving together the stories of six individuals in the old West at the end of the Civil War. Following the tales of a sharp-shooting songster, a wannabe bank robber, two weary traveling performers, a lone gold prospector, a woman traveling the West to an uncertain future, and a motley crew of strangers undertaking a carriage ride.", "poster_path": "/voxl654m7p36y8FLu8oQD7dfwwK.jpg", "release_date": "2018-11-09", "title": "The Ballad of Buster Scruggs", "video": false, "vote_average": 7.2, "vote_count": 2072, "popularity": 15.524}, {"id": 644, "video": false, "vote_count": 3854, "vote_average": 7.0, "title": "A.I. Artificial Intelligence", "release_date": "2001-06-29", "original_language": "en", "original_title": "A.I. Artificial Intelligence", "genre_ids": [12, 18, 878], "backdrop_path": "/idVdfyi51JtG7N5DPW6qeSankyV.jpg", "adult": false, "overview": "David, a robotic boy\u2014the first of his kind programmed to love\u2014is adopted as a test case by a Cybertronics employee and his wife. Though he gradually becomes their child, a series of unexpected circumstances make this life impossible for David. Without final acceptance by humans or machines, David embarks on a journey to discover where he truly belongs, uncovering a world in which the line between robot and machine is both vast and profoundly thin.", "poster_path": "/wnUAcUrMRGPPZUDroLeZhSjLkuu.jpg", "popularity": 27.294}], "total_pages": 102, "total_results": 2039}, "recommendations": {"page": 1, "results": [{"id": 44769, "video": false, "vote_count": 13, "vote_average": 5.9, "title": "Caprice", "release_date": "1967-04-18", "original_language": "en", "original_title": "Caprice", "genre_ids": [35, 80, 53], "backdrop_path": "/wIOMLV8PamzuzeHiMGBKjRdEjNW.jpg", "adult": false, "overview": "Doris Day stars as Patricia Foster, an industrial designer, when see sells a secret cosmetics formula to a competitor the troubles never stop.", "poster_path": "/9gf9nw7PIoKpDrT61zBCSPcjruJ.jpg", "popularity": 3.987}, {"adult": false, "backdrop_path": "/k0nZ5UZrsZxctK6N7KdbivN9AIN.jpg", "genre_ids": [18, 36, 10752], "id": 11295, "original_language": "de", "original_title": "Des Teufels General", "overview": "Curt Jurgens stars as a courageous Luftwaffe officer. Jurgens loves the service, even though he barely tolerates the Hitler regime. Sickened by wartime Nazi atrocities, Jurgens renounces his government, and is imprisoned and tortured as a result. Once released, the general takes pity on a downtrodden Jewish family. This isolated act of kindness is a point in his favor when Jurgens stands before Satan himself for his final judgment. The Devil's General was based on an immensely successful postwar play by German author Carl Zuckmeyer.", "poster_path": "/fMDmdxyAPtsg5mmRUecRYAWMGFd.jpg", "release_date": "1955-02-23", "title": "The Devil's General", "video": false, "vote_average": 7.6, "vote_count": 13, "popularity": 3.558}, {"id": 50761, "video": false, "vote_count": 12, "vote_average": 5.9, "title": "Our Man In Marrakesh", "release_date": "1966-07-22", "original_language": "en", "original_title": "Our Man In Marrakesh", "genre_ids": [12, 35, 80, 9648], "backdrop_path": "/5zrlwAe8Rz1ofJLWWNfKkYIB44x.jpg", "adult": false, "overview": "One of six travelers who catch the bus from Casablanca airport to Marrakesh is carrying $2 million to pay a local operator to fix United Nations votes. But which one?", "poster_path": "/sebhQcRcAj2VTrj0rbPsxs3W1if.jpg", "popularity": 4.993}, {"id": 29032, "video": false, "vote_count": 9, "vote_average": 5.7, "title": "The Secret Invasion", "release_date": "1964-09-16", "original_language": "en", "original_title": "The Secret Invasion", "genre_ids": [28, 18, 36, 53, 10752], "backdrop_path": "/3fQ46Yw7KIxpfHI3wHmVI51q5PP.jpg", "adult": false, "overview": "During World War II, convicts are recruited by the Allies for an extremely hazardous mission.", "poster_path": "/nrfDwP3ricNZ7GNA8ov2KAZOEiU.jpg", "popularity": 3.292}, {"id": 99372, "video": false, "vote_count": 10, "vote_average": 5.9, "title": "The Naked Edge", "release_date": "1961-06-30", "original_language": "en", "original_title": "The Naked Edge", "genre_ids": [9648, 53], "backdrop_path": "/hbrHt3zl4pZltqz0eVxPquTahQ7.jpg", "adult": false, "overview": "Michael Anderson's 1961 suspense thriller stars Deborah Kerr as a London wife who suspects her wealthy husband (Gary Cooper) might be a murderer. The cast also includes Eric Portman, Diane Cilento, Hermione Gingold and Michael Wilding. This was Gary Cooper's last film.", "poster_path": "/hg5iIiGAnnnlG6ypx0WXV9bRYx0.jpg", "popularity": 3.048}, {"adult": false, "backdrop_path": null, "genre_ids": [14], "id": 104922, "original_language": "fr", "original_title": "Le portrait myst\u00e9rieux", "overview": "A magician produces a living portrait of himself.", "poster_path": "/pVoFCxqZognBAi5QSsbukvsO1Yu.jpg", "release_date": "1899-01-01", "title": "The Mysterious Portrait", "video": false, "vote_average": 5.9, "vote_count": 15, "popularity": 1.913}, {"id": 49876, "video": false, "vote_count": 11, "vote_average": 6.3, "title": "The Mouse on the Moon", "release_date": "1963-05-07", "original_language": "en", "original_title": "The Mouse on the Moon", "genre_ids": [35, 18], "backdrop_path": "/xTpJhQSrrNFRPupJj7qtamGxC1w.jpg", "adult": false, "overview": "Sequel to The Mouse that Roared; The Tiny Country of Grand Fenwick has a hot water problem in the castle. To get the money necessary to put in a new set of plumbing, they request foreign aid from the U.S. for Space Research. The Russians then send aid as well to show that they too are for the internationalization of space. While the grand Duke is dreaming of hot baths, their one scientist is slapping together a rocket. The U.S. and Soviets get wind of the impending launch and try and beat them to the moon.", "poster_path": "/dNbwRyqIKmrY9T3avSmt82ckrMW.jpg", "popularity": 3.234}], "total_pages": 1, "total_results": 7}, "credits": {"cast": [{"cast_id": 1, "character": "Joe Collins", "credit_id": "52fe44929251416c910155cb", "gender": 2, "id": 6449, "name": "Warren Beatty", "order": 0, "profile_path": "/4IDilrr21iRKv75QOwNKJPC3WgW.jpg"}, {"cast_id": 2, "character": "Dawn Divine", "credit_id": "52fe44929251416c910155cf", "gender": 1, "id": 18892, "name": "Goldie Hawn", "order": 1, "profile_path": "/29s9YEFtR1A3ijJ01JlLjYtLpNU.jpg"}, {"cast_id": 3, "character": "Mr. Kessel", "credit_id": "52fe44929251416c910155d3", "gender": 2, "id": 9908, "name": "Gert Fr\u00f6be", "order": 2, "profile_path": "/7sqA8qKg3N988PODnrhByiYOsEE.jpg"}, {"cast_id": 4, "character": "Attorney", "credit_id": "52fe44929251416c910155d7", "gender": 2, "id": 5255, "name": "Robert Webber", "order": 3, "profile_path": "/mg6SHDi5bi9C7pUwH14ZXxTnR7M.jpg"}, {"cast_id": 5, "character": "Sarge", "credit_id": "52fe44929251416c910155db", "gender": 2, "id": 14847, "name": "Scott Brady", "order": 4, "profile_path": "/2JlQcMIbISvcQjtO4iIB1yZSqwW.jpg"}, {"cast_id": 8, "character": "Candy Man", "credit_id": "54dd58dec3a368454d000827", "gender": 2, "id": 22623, "name": "Arthur Brauss", "order": 5, "profile_path": "/tSMGcGiM0BCZqVPEHfrPVF4rU4d.jpg"}, {"cast_id": 9, "character": "Major", "credit_id": "54dd58ef925141195000081e", "gender": 0, "id": 1426629, "name": "Robert Stiles", "order": 6, "profile_path": null}, {"cast_id": 10, "character": "Granich", "credit_id": "54dd5904c3a36854460002f5", "gender": 2, "id": 26517, "name": "Wolfgang Kieling", "order": 7, "profile_path": "/fWjtjmyMOxXblncNwdqj7Lk1wtV.jpg"}, {"cast_id": 16, "character": "Helga", "credit_id": "58b602d8925141260a001031", "gender": 1, "id": 40974, "name": "Christiane Maybach", "order": 8, "profile_path": "/bBsjTvhSjQdhiKwVfkdD3CeVDEA.jpg"}, {"cast_id": 17, "character": "Bodyguard (as Robert Herron)", "credit_id": "58b61c6a92514122e0002376", "gender": 0, "id": 1016007, "name": "Bob Herron", "order": 9, "profile_path": null}, {"cast_id": 18, "character": "Karl", "credit_id": "58b61c8d9251412ab1001f09", "gender": 0, "id": 1673380, "name": "Hans Hutter", "order": 10, "profile_path": null}, {"cast_id": 19, "character": "Berta", "credit_id": "58b61cb79251416129004b8d", "gender": 0, "id": 1767429, "name": "Monica Stender", "order": 11, "profile_path": null}, {"cast_id": 20, "character": "Bruno", "credit_id": "58b61ccfc3a3687be6002630", "gender": 2, "id": 26334, "name": "Horst Hesslein", "order": 12, "profile_path": null}, {"cast_id": 21, "character": "Furcoat", "credit_id": "58b61d00c3a36806780021f4", "gender": 0, "id": 1171585, "name": "Wolfgang Kuhlmann", "order": 13, "profile_path": null}, {"cast_id": 22, "character": "Knifeman (as Klaus Tschichan)", "credit_id": "58b61d25925141260a0020e6", "gender": 0, "id": 1350708, "name": "Klaus Schichan", "order": 14, "profile_path": null}], "crew": [{"credit_id": "52fe44929251416c910155e1", "department": "Directing", "gender": 2, "id": 3632, "job": "Director", "name": "Richard Brooks", "profile_path": "/2xTXd8iz1kKrH0sV4KFuEwZs62O.jpg"}, {"credit_id": "52fe44929251416c910155e7", "department": "Writing", "gender": 2, "id": 3632, "job": "Writer", "name": "Richard Brooks", "profile_path": "/2xTXd8iz1kKrH0sV4KFuEwZs62O.jpg"}, {"credit_id": "54dd594fc3a3684558000844", "department": "Sound", "gender": 2, "id": 13301, "job": "Music", "name": "Quincy Jones", "profile_path": "/mV7hXHeUSXV7KZEfsxJ8lMrKpAt.jpg"}, {"credit_id": "572add60c3a36848010013c4", "department": "Camera", "gender": 2, "id": 45717, "job": "Director of Photography", "name": "Petrus Schloemp", "profile_path": null}, {"credit_id": "54dd598a925141194b000888", "department": "Editing", "gender": 0, "id": 67894, "job": "Editor", "name": "George Grenville", "profile_path": null}, {"credit_id": "54dd596a92514103bb000354", "department": "Production", "gender": 2, "id": 1293412, "job": "Producer", "name": "M.J. Frankovich", "profile_path": null}, {"credit_id": "58b61e319251411d14002a52", "department": "Production", "gender": 0, "id": 1467196, "job": "Unit Manager", "name": "Frank Winterstein", "profile_path": null}, {"credit_id": "58b61e0792514122e00024a8", "department": "Sound", "gender": 0, "id": 1767430, "job": "Music Editor", "name": "Ralph Hall", "profile_path": null}]}}