{"adult": false, "backdrop_path": "/wd1b9agzVvtFHYNBPQ02UQnKpea.jpg", "belongs_to_collection": {"id": 531173, "name": "Agent 3S3 Filmreihe", "poster_path": null, "backdrop_path": null}, "budget": 0, "genres": [{"id": 12, "name": "Adventure"}], "homepage": null, "id": 317961, "imdb_id": "tt0058884", "original_language": "it", "original_title": "Agente 3S3: Passaporto per l'inferno", "overview": "Eurospy movie from 1965", "popularity": 1.755, "poster_path": "/wUd2npdlgKU5rDOEqPqWfNJlONu.jpg", "production_companies": [{"id": 1740, "logo_path": null, "name": "Les Films Copernic", "origin_country": ""}, {"id": 1428, "logo_path": null, "name": "Balc\u00e1zar Producciones Cinematogr\u00e1ficas", "origin_country": ""}, {"id": 4779, "logo_path": null, "name": "Cinematografica Associati (CI.AS.)", "origin_country": "IT"}], "production_countries": [{"iso_3166_1": "FR", "name": "France"}, {"iso_3166_1": "IT", "name": "Italy"}, {"iso_3166_1": "ES", "name": "Spain"}], "release_date": "1965-05-25", "revenue": 0, "runtime": 101, "spoken_languages": [{"iso_639_1": "it", "name": "Italiano"}], "status": "Released", "tagline": "", "title": "Agent 3S3: Passport to Hell", "video": false, "vote_average": 0.0, "vote_count": 0, "keywords": {"keywords": [{"id": 470, "name": "spy"}, {"id": 202968, "name": "eurospy"}]}, "similar": {"page": 1, "results": [{"id": 206647, "video": false, "vote_count": 7173, "vote_average": 6.4, "title": "Spectre", "release_date": "2015-10-26", "original_language": "en", "original_title": "Spectre", "genre_ids": [28, 12, 80], "backdrop_path": "/wVTYlkKPKrljJfugXN7UlLNjtuJ.jpg", "adult": false, "overview": "A cryptic message from Bond\u2019s past sends him on a trail to uncover a sinister organization. While M battles political forces to keep the secret service alive, Bond peels back the layers of deceit to reveal the terrible truth behind SPECTRE.", "poster_path": "/hE24GYddaxB9MVZl1CaiI86M3kp.jpg", "popularity": 36.838}, {"id": 660, "video": false, "vote_count": 1117, "vote_average": 6.7, "title": "Thunderball", "release_date": "1965-12-15", "original_language": "en", "original_title": "Thunderball", "genre_ids": [28, 12, 53], "backdrop_path": "/qd0jrqxFLCKkNruPuJ7zXuQRpKG.jpg", "adult": false, "overview": "A criminal organization has obtained two nuclear bombs and are asking for a 100 million pound ransom in the form of diamonds in seven days or they will use the weapons. The secret service sends James Bond to the Bahamas to once again save the world.", "poster_path": "/sASN1VnJxWosdzp4mH40P47Xhhz.jpg", "popularity": 22.632}, {"id": 36669, "video": false, "vote_count": 2045, "vote_average": 5.9, "title": "Die Another Day", "release_date": "2002-11-17", "original_language": "en", "original_title": "Die Another Day", "genre_ids": [28, 12, 53], "backdrop_path": "/3YQfmtpbiFCMHcXY3lJ7fGEcOL6.jpg", "adult": false, "overview": "Bond takes on a North Korean leader who undergoes DNA replacement procedures that allow him to assume different identities. American agent, Jinx Johnson assists Bond in his attempt to thwart the villain's plans to exploit a satellite that is powered by solar energy.", "poster_path": "/1iUZqUXS7x5FcGM5J0u01xuObWC.jpg", "popularity": 24.2}, {"id": 37724, "video": false, "vote_count": 11109, "vote_average": 7.1, "title": "Skyfall", "release_date": "2012-10-25", "original_language": "en", "original_title": "Skyfall", "genre_ids": [28, 12, 53], "backdrop_path": "/6bjRujKSnCVSrzC1qjmqfAyaiET.jpg", "adult": false, "overview": "When Bond's latest assignment goes gravely wrong and agents around the world are exposed, MI6 is attacked forcing M to relocate the agency. These events cause her authority and position to be challenged by Gareth Mallory, the new Chairman of the Intelligence and Security Committee. With MI6 now compromised from both inside and out, M is left with one ally she can trust: Bond. 007 takes to the shadows - aided only by field agent, Eve - following a trail to the mysterious Silva, whose lethal and hidden motives have yet to reveal themselves.", "poster_path": "/lQCkPLDxFONmgzrWLvq085v1g2d.jpg", "popularity": 34.013}, {"adult": false, "backdrop_path": "/tjQHn6xW5BiB1RJ3OZIPDzIOSkF.jpg", "genre_ids": [12, 28, 53], "id": 954, "original_language": "en", "original_title": "Mission: Impossible", "overview": "When Ethan Hunt, the leader of a crack espionage team whose perilous operation has gone awry with no explanation, discovers that a mole has penetrated the CIA, he's surprised to learn that he's the No. 1 suspect. To clear his name, Hunt now must ferret out the real double agent and, in the process, even the score.", "poster_path": "/1PVKS17pIBFsIhgFws2uagPDNLW.jpg", "release_date": "1996-05-22", "title": "Mission: Impossible", "video": false, "vote_average": 6.9, "vote_count": 5216, "popularity": 25.737}, {"id": 691, "video": false, "vote_count": 939, "vote_average": 6.7, "title": "The Spy Who Loved Me", "release_date": "1977-07-07", "original_language": "en", "original_title": "The Spy Who Loved Me", "genre_ids": [28, 12, 53], "backdrop_path": "/2tCAEhE2rPONBmUOs4W73AlBWYg.jpg", "adult": false, "overview": "Russian and British submarines with nuclear missiles on board both vanish from sight without a trace. England and Russia both blame each other as James Bond tries to solve the riddle of the disappearing ships. But the KGB also has an agent on the case.", "poster_path": "/vYMgDqQDpqHDhz3enGkwBmTs7p7.jpg", "popularity": 16.084}, {"id": 681, "video": false, "vote_count": 1040, "vote_average": 6.4, "title": "Diamonds Are Forever", "release_date": "1971-12-13", "original_language": "en", "original_title": "Diamonds Are Forever", "genre_ids": [28, 12, 53], "backdrop_path": "/gIGLXXvsljHK1jdDNaIXsjhZnnH.jpg", "adult": false, "overview": "Diamonds are stolen only to be sold again in the international market. James Bond infiltrates a smuggling mission to find out who\u2019s guilty. The mission takes him to Las Vegas where Bond meets his archenemy Blofeld.", "poster_path": "/viPjZ3JCOahcfNCcVhiPExusJoZ.jpg", "popularity": 18.532}, {"id": 36670, "video": false, "vote_count": 696, "vote_average": 6.1, "title": "Never Say Never Again", "release_date": "1983-10-07", "original_language": "en", "original_title": "Never Say Never Again", "genre_ids": [28, 12, 53], "backdrop_path": "/jYO08KXUKvJvzx3KcE7MoaDYvoM.jpg", "adult": false, "overview": "James Bond returns as the secret agent 007 one more time to battle the evil organization SPECTRE. Bond must defeat Largo, who has stolen two atomic warheads for nuclear blackmail. But Bond has an ally in Largo's girlfriend, the willowy Domino, who falls for Bond and seeks revenge. This is the last time for Sean Connery as Her Majesty's Secret Agent 007. Made outside of the traditional Broccoli production environment due to separate rights having been obtained for this specific Ian Fleming story.", "poster_path": "/s9tBlhTEW0OtYJdemVMPbRcD7wk.jpg", "popularity": 23.883}, {"id": 10764, "video": false, "vote_count": 4876, "vote_average": 6.2, "title": "Quantum of Solace", "release_date": "2008-10-30", "original_language": "en", "original_title": "Quantum of Solace", "genre_ids": [28, 12, 80, 53], "backdrop_path": "/hfZVY8lMiE7HH1cDc2qzSFF6Kbt.jpg", "adult": false, "overview": "Quantum of Solace continues the adventures of James Bond after Casino Royale. Betrayed by Vesper, the woman he loved, 007 fights the urge to make his latest mission personal. Pursuing his determination to uncover the truth, Bond and M interrogate Mr. White, who reveals that the organization that blackmailed Vesper is far more complex and dangerous than anyone had imagined.", "poster_path": "/6mlNx0Jiqhg3D7NlANT9pidsgPJ.jpg", "popularity": 27.546}, {"id": 47971, "video": false, "vote_count": 2661, "vote_average": 5.6, "title": "xXx: Return of Xander Cage", "release_date": "2017-01-13", "original_language": "en", "original_title": "xXx: Return of Xander Cage", "genre_ids": [28, 12, 80], "backdrop_path": "/zv4acOMTPoplVLKo4FaoqAseSDx.jpg", "adult": false, "overview": "Extreme athlete turned government operative Xander Cage comes out of self-imposed exile, thought to be long dead, and is set on a collision course with deadly alpha warrior Xiang and his team in a race to recover a sinister and seemingly unstoppable weapon known as Pandora's Box. Recruiting an all-new group of thrill-seeking cohorts, Xander finds himself enmeshed in a deadly conspiracy that points to collusion at the highest levels of world governments.", "poster_path": "/yNsdyNbQqaKN0TQxkHMws2KLTJ6.jpg", "popularity": 34.363}, {"adult": false, "backdrop_path": "/9QcYwm5af4JaUSOyuysVEYOyEXn.jpg", "genre_ids": [12, 28, 53], "id": 646, "original_language": "en", "original_title": "Dr. No", "overview": "In the film that launched the James Bond saga, Agent 007 battles mysterious Dr. No, a scientific genius bent on destroying the U.S. space program. As the countdown to disaster begins, Bond must go to Jamaica, where he encounters beautiful Honey Ryder, to confront a megalomaniacal villain in his massive island headquarters.", "poster_path": "/gRdfLVVf6FheOw6mw6wOsKhZG1l.jpg", "release_date": "1962-10-04", "title": "Dr. No", "video": false, "vote_average": 7.0, "vote_count": 1837, "popularity": 31.291}, {"id": 497698, "video": false, "vote_count": 0, "vote_average": 0.0, "title": "Black Widow", "release_date": "2020-04-24", "original_language": "en", "original_title": "Black Widow", "genre_ids": [28, 12, 53], "backdrop_path": "/dGMpzHn9uNqBysBQ6Sp5xdOgM66.jpg", "adult": false, "overview": "Natasha Romanoff, on the run from the government following her disobedience to the Sokovia Accords and for aiding Steve Rogers, finds herself on her own and is forced to deal with some of the red in her ledger.", "poster_path": "/sRhaJ6D3x6gQB0swrV0UDqMwHJu.jpg", "popularity": 23.3}, {"id": 207703, "video": false, "vote_count": 11138, "vote_average": 7.6, "title": "Kingsman: The Secret Service", "release_date": "2014-12-13", "original_language": "en", "original_title": "Kingsman: The Secret Service", "genre_ids": [28, 12, 35, 80], "backdrop_path": "/7McaexSsSTLD8V17UgaZAfI0Cu9.jpg", "adult": false, "overview": "The story of a super-secret spy organization that recruits an unrefined but promising street kid into the agency's ultra-competitive training program just as a global threat emerges from a twisted tech genius.", "poster_path": "/8x7ej0LnHdKUqilNNJXYOeyB6L9.jpg", "popularity": 24.161}, {"id": 668, "video": false, "vote_count": 896, "vote_average": 6.5, "title": "On Her Majesty's Secret Service", "release_date": "1969-12-12", "original_language": "en", "original_title": "On Her Majesty's Secret Service", "genre_ids": [28, 12, 53], "backdrop_path": "/o71ywQSmQ1hNPSLKJuCMyDTrL7K.jpg", "adult": false, "overview": "James Bond tracks his archnemesis, Ernst Blofeld, to a mountaintop retreat where he is training an army of beautiful, lethal women. Along the way, Bond falls for Italian contessa Tracy Draco, and marries her in order to get closer to Blofeld.", "poster_path": "/7mcqT56ES5U3wg26vQQuEnOaFSj.jpg", "popularity": 19.01}, {"id": 9486, "video": false, "vote_count": 2000, "vote_average": 6.2, "title": "Johnny English", "release_date": "2003-03-14", "original_language": "en", "original_title": "Johnny English", "genre_ids": [28, 12, 35], "backdrop_path": "/wNEsGAHws1UATmZfnjNBRi2Ln5.jpg", "adult": false, "overview": "A lowly pencil pusher working for MI7, Johnny English is suddenly promoted to super spy after Agent One is assassinated and every other agent is blown up at his funeral. When a billionaire entrepreneur sponsors the exhibition of the Crown Jewels\u2014and the valuable gems disappear on the opening night and on English's watch\u2014the newly-designated agent must jump into action to find the thief and recover the missing gems.", "poster_path": "/fvFOJFDwgtINOxxtrFFiCMUrGdR.jpg", "popularity": 25.499}, {"id": 238713, "video": false, "vote_count": 4195, "vote_average": 6.8, "title": "Spy", "release_date": "2015-05-06", "original_language": "en", "original_title": "Spy", "genre_ids": [28, 35, 80], "backdrop_path": "/x5F6AIyqCjRMwqmF8NR98kU4VzH.jpg", "adult": false, "overview": "A desk-bound CIA analyst volunteers to go undercover to infiltrate the world of a deadly arms dealer, and prevent diabolical global disaster.", "poster_path": "/gCBw0AQDhlo0bNetkjsSRWzrxpW.jpg", "popularity": 17.209}, {"id": 213, "video": false, "vote_count": 2129, "vote_average": 8.0, "title": "North by Northwest", "release_date": "1959-07-07", "original_language": "en", "original_title": "North by Northwest", "genre_ids": [9648, 53], "backdrop_path": "/AplR1QRswlXiM65GoifX8sDadME.jpg", "adult": false, "overview": "Advertising man Roger Thornhill is mistaken for a spy, triggering a deadly cross-country chase.", "poster_path": "/aNV789h3oHm2pTHK5Bdq5RuiumZ.jpg", "popularity": 20.897}, {"adult": false, "backdrop_path": "/bqpGceqQuHbtnjEqUG9acSYIVIh.jpg", "genre_ids": [18, 53, 9648], "id": 49517, "original_language": "en", "original_title": "Tinker Tailor Soldier Spy", "overview": "In the bleak days of the Cold War, espionage veteran George Smiley is forced from semi-retirement to uncover a Soviet mole within his former colleagues at the heart of MI6.", "poster_path": "/2N3P730TYXEcNL0BO8WBuMc6yJz.jpg", "release_date": "2011-09-16", "title": "Tinker Tailor Soldier Spy", "video": false, "vote_average": 6.7, "vote_count": 1545, "popularity": 18.392}, {"id": 818, "video": false, "vote_count": 1920, "vote_average": 5.9, "title": "Austin Powers in Goldmember", "release_date": "2002-07-26", "original_language": "en", "original_title": "Austin Powers in Goldmember", "genre_ids": [35, 80, 878], "backdrop_path": "/mzZraP6PV34eVjB8giKbKIMXVeW.jpg", "adult": false, "overview": "The world's most shagadelic spy continues his fight against Dr. Evil. This time, the diabolical doctor and his clone, Mini-Me, team up with a new foe -- '70s kingpin Goldmember. While pursuing the team of villains to stop them from world domination, Austin gets help from his dad and an old girlfriend.", "poster_path": "/tFR7dTbX5BsmoUwKHfa2cWoZbwK.jpg", "popularity": 23.167}, {"id": 37834, "video": false, "vote_count": 2737, "vote_average": 6.1, "title": "Knight and Day", "release_date": "2010-06-15", "original_language": "en", "original_title": "Knight and Day", "genre_ids": [28, 35], "backdrop_path": "/clq0YPDQYCql9ekC17YFklk8FwX.jpg", "adult": false, "overview": "A fugitive couple goes on a glamorous and sometimes deadly adventure where nothing and no one \u2013 even themselves \u2013 are what they seem. Amid shifting alliances and unexpected betrayals, they race across the globe, with their survival ultimately hinging on the battle of truth vs. trust.", "poster_path": "/aHEpzwXvMtIEMBE13tWXS5oHZ7d.jpg", "popularity": 17.619}], "total_pages": 42, "total_results": 827}, "recommendations": {"page": 1, "results": [], "total_pages": 1, "total_results": 0}, "credits": {"cast": [{"cast_id": 6, "character": "Walter Ross, Agent 3S3", "credit_id": "5832eaaf92514162c603b150", "gender": 2, "id": 38098, "name": "Giorgio Ardisson", "order": 0, "profile_path": "/3OKbZhzs9plWYqUZw7dAy7Moa0l.jpg"}, {"cast_id": 12, "character": "Jasmine von Witheim (as Barbara Simons)", "credit_id": "5b6605109251414054077861", "gender": 0, "id": 1862698, "name": "Bruna Simionato", "order": 1, "profile_path": null}, {"cast_id": 8, "character": "Professor Steve Dickson (as George Riviere)", "credit_id": "5832eac692514162cf0392aa", "gender": 2, "id": 31987, "name": "Georges Rivi\u00e8re", "order": 2, "profile_path": "/ezSr7KF4eAyVf3EgO4VykyWE0ZQ.jpg"}, {"cast_id": 9, "character": "Jacky Vein", "credit_id": "5832ead092514162d2038f9e", "gender": 0, "id": 1064626, "name": "Seyna Seyn", "order": 3, "profile_path": null}, {"cast_id": 10, "character": "Paul Bellamy (as Frank Andrews)", "credit_id": "5832eae6c3a3685b960324f8", "gender": 0, "id": 98490, "name": "Franco Andrei", "order": 4, "profile_path": null}, {"cast_id": 11, "character": "Karina (as Liliane Fernany)", "credit_id": "5832eaf992514162d2038fb1", "gender": 0, "id": 1712020, "name": "Liliane Fernani", "order": 5, "profile_path": null}, {"cast_id": 13, "character": "Ahmed (as Joshua Marcos)", "credit_id": "5b6605520e0a267ef808518b", "gender": 2, "id": 100690, "name": "Jos\u00e9 Marco", "order": 6, "profile_path": "/oTUgksQc0HvmEPvn1J9BCY4aGKn.jpg"}, {"cast_id": 14, "character": "Salkoff (as Charles Kalinsky)", "credit_id": "5b660560925141216800f7cd", "gender": 2, "id": 1072166, "name": "Calisto Calisti", "order": 7, "profile_path": null}, {"cast_id": 15, "character": "Nobel (as Paco Sanz)", "credit_id": "5b6605710e0a267ef80851b4", "gender": 2, "id": 100845, "name": "Francisco Sanz", "order": 8, "profile_path": "/yyFWKBsx2mVBNS9UnawjU893NCI.jpg"}, {"cast_id": 16, "character": "Sanz (as Henry Cogan)", "credit_id": "5b66058a0e0a267ee7085fd5", "gender": 2, "id": 37966, "name": "Henri Cogan", "order": 9, "profile_path": "/blWSUvF5BShEv5nfQoAbgCwcNOH.jpg"}, {"cast_id": 17, "character": "Colonel Dolukin", "credit_id": "5b66059b925141406407c76b", "gender": 2, "id": 53950, "name": "Fernando Sancho", "order": 10, "profile_path": "/iKmZsdkQGlYXLEnrdVKkaF1cpmP.jpg"}, {"cast_id": 18, "character": "Major Taylor", "credit_id": "5b6605ae0e0a267ef10826b1", "gender": 2, "id": 39432, "name": "Tom Felleghy", "order": 11, "profile_path": "/7Q1KOJeCp2ZODPiSVQXqrmXr5QE.jpg"}, {"cast_id": 19, "character": "Captain Moran (as Anthony Gradwell)", "credit_id": "5b6605bf0e0a267ef4082a19", "gender": 0, "id": 935071, "name": "Antonio Gradoli", "order": 12, "profile_path": null}, {"cast_id": 20, "character": "Bob (as Steve Gordon)", "credit_id": "5b6605cd925141216800f85d", "gender": 2, "id": 46546, "name": "Ugo Sasso", "order": 13, "profile_path": "/ujHNP9wHzrnS86ogIdbpibnUNek.jpg"}, {"cast_id": 22, "character": "", "credit_id": "5b6605f10e0a267ef108270f", "gender": 2, "id": 1046524, "name": "Jeff Cameron", "order": 15, "profile_path": "/8UiTUQxv6wgCi7g7yt3XjPOHWxQ.jpg"}, {"cast_id": 23, "character": "Guti\u00e9rrez", "credit_id": "5b6606040e0a267ef808529d", "gender": 2, "id": 136393, "name": "Dakar", "order": 16, "profile_path": "/nB1Ma8VepgyS2cHCwApJUxykOrs.jpg"}, {"cast_id": 24, "character": "Fawzia", "credit_id": "5b6606120e0a267ee507beb6", "gender": 0, "id": 589292, "name": "Leontine May", "order": 17, "profile_path": null}, {"cast_id": 25, "character": "Elisa von Sloot", "credit_id": "5b660625c3a368189d07cf5a", "gender": 1, "id": 37129, "name": "B\u00e9atrice Altariba", "order": 18, "profile_path": "/azD15AceXQEJHFbzE05LN1MNA5x.jpg"}, {"cast_id": 26, "character": "Man in Venice bar", "credit_id": "5b66063a925141404f071669", "gender": 2, "id": 98492, "name": "Federico Boido", "order": 19, "profile_path": "/989MdLPH4KFRixuX1fK0Isft9eb.jpg"}, {"cast_id": 27, "character": "Man in Venice bar", "credit_id": "5b6606460e0a267ef4082b17", "gender": 2, "id": 1037701, "name": "Pietro Torrisi", "order": 20, "profile_path": "/2fAFD3TYXDHZRAg9tbUt97MIpv2.jpg"}, {"cast_id": 28, "character": "Man in Vienna bar", "credit_id": "5cc44f739251417d3902f4d4", "gender": 2, "id": 49458, "name": "Salvatore Borgese", "order": 21, "profile_path": "/m6JQ98zDW6HvqjSPJ5vy5AtvBIi.jpg"}], "crew": [{"credit_id": "5832ea6392514162d8037bfc", "department": "Writing", "gender": 0, "id": 32209, "job": "Writer", "name": "Giovanni Simonelli", "profile_path": null}, {"credit_id": "5832ea2692514162d8037bbf", "department": "Camera", "gender": 2, "id": 33789, "job": "Director of Photography", "name": "Carlo Carlini", "profile_path": null}, {"credit_id": "582966f4c3a368360b038e09", "department": "Directing", "gender": 2, "id": 39463, "job": "Director", "name": "Sergio Sollima", "profile_path": "/1Ebv09roCczp5I0OdujmJm7BL9y.jpg"}, {"credit_id": "5832ea7692514162cb03a93c", "department": "Writing", "gender": 2, "id": 39463, "job": "Writer", "name": "Sergio Sollima", "profile_path": "/1Ebv09roCczp5I0OdujmJm7BL9y.jpg"}, {"credit_id": "5832ea3ec3a3685ba8039b3e", "department": "Writing", "gender": 2, "id": 230667, "job": "Writer", "name": "Alfonso Balc\u00e1zar", "profile_path": null}, {"credit_id": "5832ea5292514162cf03922c", "department": "Writing", "gender": 0, "id": 1712019, "job": "Writer", "name": "Mario Maggi", "profile_path": null}]}}