{"adult": false, "backdrop_path": "/8A297iXMHUtvFH0FmG9Bfba9ATt.jpg", "belongs_to_collection": null, "budget": 0, "genres": [{"id": 18, "name": "Drama"}, {"id": 53, "name": "Thriller"}], "homepage": "https://www.facebook.com/SugarDaddiesMovie/", "id": 318553, "imdb_id": "tt4329098", "original_language": "en", "original_title": "Sugar Daddies", "overview": "When a girl with a promising future finds herself in financial straits, she makes an agreement with an older man and struggles to keep it secret.", "popularity": 5.997, "poster_path": "/dXnXNRV6R4FQ4zW5T6e37iCx6Y9.jpg", "production_companies": [{"id": 78747, "logo_path": null, "name": "Shadowland", "origin_country": ""}, {"id": 5225, "logo_path": null, "name": "Johnson Production Group", "origin_country": "CA"}], "production_countries": [{"iso_3166_1": "US", "name": "United States of America"}], "release_date": "2014-12-23", "revenue": 0, "runtime": 88, "spoken_languages": [{"iso_639_1": "en", "name": "English"}], "status": "Released", "tagline": "", "title": "Sugar Daddies", "video": false, "vote_average": 4.9, "vote_count": 18, "keywords": {"keywords": [{"id": 931, "name": "jealousy"}, {"id": 970, "name": "parent child relationship"}, {"id": 3616, "name": "college"}, {"id": 10594, "name": "money"}, {"id": 11061, "name": "debt"}, {"id": 208640, "name": "lifetime"}, {"id": 227102, "name": "sugar daddy"}]}, "similar": {"page": 1, "results": [{"id": 38, "video": false, "vote_count": 8445, "vote_average": 8.1, "title": "Eternal Sunshine of the Spotless Mind", "release_date": "2004-03-19", "original_language": "en", "original_title": "Eternal Sunshine of the Spotless Mind", "genre_ids": [18, 878, 10749], "backdrop_path": "/1dXTsaFxHoF9cas08UjAqE8NqOW.jpg", "adult": false, "overview": "Joel Barish, heartbroken that his girlfriend underwent a procedure to erase him from her memory, decides to do the same. However, as he watches his memories of her fade away, he realises that he still loves her, and may be too late to correct his mistake.", "poster_path": "/7y3eYvTsGjxPYDtSnumCLIMDkrV.jpg", "popularity": 22.427}, {"id": 521, "video": false, "vote_count": 1257, "vote_average": 8.0, "title": "Dial M for Murder", "release_date": "1954-05-29", "original_language": "en", "original_title": "Dial M for Murder", "genre_ids": [80, 18, 9648, 53], "backdrop_path": "/jVMlfESb0TJ29w8CUDDofEprMmn.jpg", "adult": false, "overview": "An ex-tennis pro carries out a plot to have his wife murdered after discovering she is having an affair, and assumes she will soon leave him for the other man anyway. When things go wrong, he improvises a new plan\u2014to frame her for murder instead.", "poster_path": "/xrpK1PyckNWmRxU4kZURfaCyboS.jpg", "popularity": 28.336}, {"adult": false, "backdrop_path": "/rV9hascFIkEKKtiKONPTHSzyCgi.jpg", "genre_ids": [18], "id": 7345, "original_language": "en", "original_title": "There Will Be Blood", "overview": "Ruthless silver miner, turned oil prospector, Daniel Plainview moves to oil-rich California. Using his adopted son to project a trustworthy, family-man image, Plainview cons local landowners into selling him their valuable properties for a pittance. However, local preacher Eli Sunday suspects Plainviews motives and intentions, starting a slow-burning feud that threatens both their lives.", "poster_path": "/bFgqkuAFBHNuq0oTtewHwuLVWSO.jpg", "release_date": "2007-12-28", "title": "There Will Be Blood", "video": false, "vote_average": 8.1, "vote_count": 3322, "popularity": 16.723}, {"id": 8204, "video": false, "vote_count": 1537, "vote_average": 6.5, "title": "The Spiderwick Chronicles", "release_date": "2008-02-14", "original_language": "en", "original_title": "The Spiderwick Chronicles", "genre_ids": [12, 18, 14, 10751], "backdrop_path": "/2Uwv3eUDRJ9UcjN8AlSg4GDm6TN.jpg", "adult": false, "overview": "Upon moving into the run-down Spiderwick Estate with their mother, twin brothers Jared and Simon Grace, along with their sister Mallory, find themselves pulled into an alternate world full of faeries and other creatures.", "poster_path": "/nSLjsBDzwsIpQL534CNfAKidyAm.jpg", "popularity": 13.069}, {"id": 19913, "video": false, "vote_count": 6208, "vote_average": 7.2, "title": "(500) Days of Summer", "release_date": "2009-07-17", "original_language": "en", "original_title": "(500) Days of Summer", "genre_ids": [35, 18, 10749], "backdrop_path": "/yYw9cVdRJ4zzwxM2cTDXfT6JI6E.jpg", "adult": false, "overview": "Tom, greeting-card writer and hopeless romantic, is caught completely off-guard when his girlfriend, Summer, suddenly dumps him. He reflects on their 500 days together to try to figure out where their love affair went sour, and in doing so, Tom rediscovers his true passions in life.", "poster_path": "/5SjtNPD1bb182vzQccvEUpXHFjN.jpg", "popularity": 20.487}, {"id": 13, "video": false, "vote_count": 16610, "vote_average": 8.4, "title": "Forrest Gump", "release_date": "1994-07-06", "original_language": "en", "original_title": "Forrest Gump", "genre_ids": [35, 18, 10749], "backdrop_path": "/wMgbnUVS9wbRGAdki8fqxKU1O0N.jpg", "adult": false, "overview": "A man with a low IQ has accomplished great things in his life and been present during significant historic events\u2014in each case, far exceeding what anyone imagined he could do. But despite all he has achieved, his one true love eludes him.", "poster_path": "/yE5d3BUhE8hCnkMUJOo1QDoOGNz.jpg", "popularity": 41.886}, {"id": 122906, "video": false, "vote_count": 4560, "vote_average": 7.9, "title": "About Time", "release_date": "2013-08-16", "original_language": "en", "original_title": "About Time", "genre_ids": [35, 18, 14, 10749], "backdrop_path": "/oNBv90rLY76ifEExrFHdJgLzBQG.jpg", "adult": false, "overview": "The night after another unsatisfactory New Year party, Tim's father tells his son that the men in his family have always had the ability to travel through time. Tim can't change history, but he can change what happens and has happened in his own life \u2013 so he decides to make his world a better place... by getting a girlfriend. Sadly, that turns out not to be as easy as he thinks.", "poster_path": "/zSuh8dGwqpsWR7ccvYbfxbSZ37o.jpg", "popularity": 20.125}, {"id": 4787, "video": false, "vote_count": 435, "vote_average": 6.2, "title": "Cassandra's Dream", "release_date": "2007-06-18", "original_language": "en", "original_title": "Cassandra's Dream", "genre_ids": [35, 80, 18, 9648, 53], "backdrop_path": "/avvSX8GIm9lFGfKi31Vu1lKuvrs.jpg", "adult": false, "overview": "The tale of two brothers with serious financial woes. When a third party proposes they turn to crime, things go bad and the two become enemies.", "poster_path": "/lRzD1AKV8PPJO7ljut59fPThVdH.jpg", "popularity": 9.057}, {"id": 277216, "video": false, "vote_count": 2190, "vote_average": 7.7, "title": "Straight Outta Compton", "release_date": "2015-08-13", "original_language": "en", "original_title": "Straight Outta Compton", "genre_ids": [18, 10402], "backdrop_path": "/fdDTA06o5e7MRXnTGAf4EygL2MJ.jpg", "adult": false, "overview": "In 1987, five young men, using brutally honest rhymes and hardcore beats, put their frustration and anger about life in the most dangerous place in America into the most powerful weapon they had: their music.  Taking us back to where it all began, Straight Outta Compton tells the true story of how these cultural rebels\u2014armed only with their lyrics, swagger, bravado and raw talent\u2014stood up to the authorities that meant to keep them down and formed the world\u2019s most dangerous group, N.W.A.  And as they spoke the truth that no one had before and exposed life in the hood, their voice ignited a social revolution that is still reverberating today.", "poster_path": "/X7S1RtotXOZNV7OlgCfh5VKZSB.jpg", "popularity": 19.816}, {"id": 319, "video": false, "vote_count": 1440, "vote_average": 7.5, "title": "True Romance", "release_date": "1993-09-09", "original_language": "en", "original_title": "True Romance", "genre_ids": [28, 80, 53, 10749], "backdrop_path": "/f0qqTEyVmmztypEMV3THRdnBjFj.jpg", "adult": false, "overview": "Clarence marries hooker Alabama, steals cocaine from her pimp, and tries to sell it in Hollywood, while the owners of the coke try to reclaim it.", "poster_path": "/xBO8R3CZfrJ9rrwrZoJ68PgJyAR.jpg", "popularity": 21.384}, {"id": 1903, "video": false, "vote_count": 2237, "vote_average": 6.8, "title": "Vanilla Sky", "release_date": "2001-12-10", "original_language": "en", "original_title": "Vanilla Sky", "genre_ids": [18, 14, 878, 53, 10749], "backdrop_path": "/6XwX3HzKhlBUbTy2qZx0THQOu2T.jpg", "adult": false, "overview": "David Aames has it all: wealth, good looks and gorgeous women on his arm. But just as he begins falling for the warmhearted Sofia, his face is horribly disfigured in a car accident. That's just the beginning of his troubles as the lines between illusion and reality, between life and death, are blurred.", "poster_path": "/ujMy9P4VczTW9YSpAM31uqdOMpz.jpg", "popularity": 16.046}, {"adult": false, "backdrop_path": "/qyl6dV5dCfoBifzSShAz8YZtrf9.jpg", "genre_ids": [18, 14, 36, 10749], "id": 3084, "original_language": "en", "original_title": "Wuthering Heights", "overview": "The Earnshaws are Yorkshire farmers during the early 19th Century. One day, Mr. Earnshaw returns from a trip to the city, bringing with him a ragged little boy called Heathcliff. Earnshaw's son, Hindley, resents the child, but Heathcliff becomes companion and soulmate to Hindley's sister, Catherine. After her parents die, Cathy and Heathcliff grow up wild and free on the Moors and despite the continued enmity between Hindley and Heathcliff they're happy -- until Cathy meets Edgar Linton, the son of a wealthy neighbor.", "poster_path": "/tA3ZaItWqhoruqhvbnJM4WWrHfF.jpg", "release_date": "1939-04-13", "title": "Wuthering Heights", "video": false, "vote_average": 7.3, "vote_count": 117, "popularity": 12.239}, {"adult": false, "backdrop_path": "/tBs9alJ2weUkOW83RkuBlz8Nlw6.jpg", "genre_ids": [18, 14], "id": 8967, "original_language": "en", "original_title": "The Tree of Life", "overview": "The impressionistic story of a Texas family in the 1950s. The film follows the life journey of the eldest son, Jack, through the innocence of childhood to his disillusioned adult years as he tries to reconcile a complicated relationship with his father. Jack finds himself a lost soul in the modern world, seeking answers to the origins and meaning of life while questioning the existence of faith.", "poster_path": "/ptDOdfOg0srtk4TGdeYbLqxv2nd.jpg", "release_date": "2011-05-18", "title": "The Tree of Life", "video": false, "vote_average": 6.6, "vote_count": 1905, "popularity": 12.901}, {"adult": false, "backdrop_path": "/txR74Uy6sYbUv4HQURQXNF8LXTf.jpg", "genre_ids": [35], "id": 8277, "original_language": "en", "original_title": "American Pie Presents: Beta House", "overview": "Erik, Ryan, and Cooze start college and pledge the Beta House fraternity, presided over by none other than legendary Dwight Stifler. But chaos ensues when a fraternity of geeks threatens to stop the debauchery and the Betas have to make a stand for their right to party.", "poster_path": "/xJeYprcFqBfov6dUpjJIxDeaZJr.jpg", "release_date": "2007-12-10", "title": "American Pie Presents: Beta House", "video": false, "vote_average": 5.5, "vote_count": 1087, "popularity": 16.688}, {"id": 2758, "video": false, "vote_count": 1439, "vote_average": 6.7, "title": "Addams Family Values", "release_date": "1993-11-19", "original_language": "en", "original_title": "Addams Family Values", "genre_ids": [35, 14, 10751], "backdrop_path": "/dMSC5jU9gsw2VmaVHlFqXk6w3j7.jpg", "adult": false, "overview": "Siblings Wednesday and Pugsley Addams will stop at nothing to get rid of Pubert, the new baby boy adored by parents Gomez and Morticia. Things go from bad to worse when the new \"black widow\" nanny, Debbie Jellinsky, launches her plan to add Fester to her collection of dead husbands.", "poster_path": "/8znyj20O3EYLD2EzWnZQMnkE4zH.jpg", "popularity": 23.261}, {"id": 433, "video": false, "vote_count": 2994, "vote_average": 7.6, "title": "Mary Poppins", "release_date": "1964-08-27", "original_language": "en", "original_title": "Mary Poppins", "genre_ids": [35, 14, 10751], "backdrop_path": "/7DbgR36Sct5gcyEAzoM8bqiTYUV.jpg", "adult": false, "overview": "A magical nanny employs music and adventure to help two neglected children become closer to their father.", "poster_path": "/ei8hhYCMfURfPOXKBnyl61be2iV.jpg", "popularity": 20.325}, {"id": 325133, "video": false, "vote_count": 3097, "vote_average": 5.7, "title": "Neighbors 2: Sorority Rising", "release_date": "2016-05-04", "original_language": "en", "original_title": "Neighbors 2: Sorority Rising", "genre_ids": [35], "backdrop_path": "/8HuO1RMDI3prfWDkF7t1y8EhLVO.jpg", "adult": false, "overview": "A sorority moves in next door to the home of Mac and Kelly Radner who have a young child. The Radner's enlist their former nemeses from the fraternity to help battle the raucous sisters.", "poster_path": "/bWUeJHbKIyT306WtJFRHoSzX9nk.jpg", "popularity": 17.21}, {"id": 59861, "video": false, "vote_count": 754, "vote_average": 5.8, "title": "Larry Crowne", "release_date": "2011-06-30", "original_language": "en", "original_title": "Larry Crowne", "genre_ids": [35, 18, 10749], "backdrop_path": "/3zJQ9ga8fqvCrjpFRsRg0u1Skai.jpg", "adult": false, "overview": "When he suddenly finds himself without his long-standing blue-collar job, Larry Crowne enrolls at his local college to start over. There, he becomes part of an eclectic community of students and develops a crush on his teacher.", "poster_path": "/iyX6KVFC3iQNHZivURoyrz3Gbf.jpg", "popularity": 10.856}, {"adult": false, "backdrop_path": "/aEUpiEjbNjGYG03zh1ObwRK6UZc.jpg", "genre_ids": [80, 18], "id": 157845, "original_language": "en", "original_title": "The Rover", "overview": "10 years after a global economic collapse, a hardened loner pursues the men who stole his car through the lawless wasteland of the Australian outback, aided by the brother of one of the thieves.", "poster_path": "/ugVbrbicJHfOw8e24RUYISKqgvf.jpg", "release_date": "2014-05-18", "title": "The Rover", "video": false, "vote_average": 6.3, "vote_count": 484, "popularity": 10.664}, {"adult": false, "backdrop_path": "/btmE0J2MyKmcyiqwPjfGKW8oE6H.jpg", "genre_ids": [18], "id": 337874, "original_language": "en", "original_title": "Goat", "overview": "Reeling from a terrifying assault, a nineteen year old enrolls into college with his brother and pledges the same fraternity. What happens there, in the name of 'brotherhood,' tests him and his loyalty in brutal ways.", "poster_path": "/j324TuN9jnuPiGIEbigybdlgel2.jpg", "release_date": "2016-09-23", "title": "Goat", "video": false, "vote_average": 5.3, "vote_count": 178, "popularity": 7.468}], "total_pages": 15, "total_results": 294}, "recommendations": {"page": 1, "results": [{"adult": false, "backdrop_path": "/ljptLdKlrpgUOKDAqK54eDyOEyW.jpg", "genre_ids": [35], "id": 51886, "original_language": "nl", "original_title": "Jochem Myjer: Ad\u00e9had\u00e9", "overview": "Destressing? Do that at home, will you! In 'Ad\u00e9had\u00e9', everything goes in overdrive, with many Dutch celebrity impressions.", "poster_path": "/tgECvV4MSTfVnEiVGARKXjkIqL0.jpg", "release_date": "2003-12-20", "title": "Jochem Myjer: Ad\u00e9had\u00e9", "video": true, "vote_average": 7.1, "vote_count": 11, "popularity": 1.411}, {"adult": false, "backdrop_path": "/ffy0gZd8eJ6BBUdjMppbt2l17GW.jpg", "genre_ids": [18, 10752], "id": 84057, "original_language": "nl", "original_title": "S\u00fcskind", "overview": "In Nazi-occupied Amsterdam, Walter S\u00fcskind is a member of the Dutch Jewish Council who rescues hundreds of children from the concentration camps.", "poster_path": "/u9TosGoGuJofD6E1RMEt97vO3Qs.jpg", "release_date": "2012-01-19", "title": "S\u00fcskind", "video": false, "vote_average": 7.2, "vote_count": 17, "popularity": 3.53}, {"adult": false, "backdrop_path": "/1l9PSOAzbog9DylSmeC0Rww1odF.jpg", "genre_ids": [53], "id": 398748, "original_language": "en", "original_title": "A Mother's Instinct", "overview": "When a woman\u2019s son goes missing and the prime suspect is released due to lack of evidence, she and her teenage daughter decide to play vigilante.", "poster_path": "/ms96FQkuBbmOlxgIHZZS3Ac8iO.jpg", "release_date": "2015-11-08", "title": "A Mother's Instinct", "video": false, "vote_average": 4.9, "vote_count": 20, "popularity": 9.474}, {"id": 323384, "video": false, "vote_count": 21, "vote_average": 5.7, "title": "A Gift of Miracles", "release_date": "2015-02-15", "original_language": "en", "original_title": "A Gift of Miracles", "genre_ids": [18, 10749, 10770], "backdrop_path": "/p5Zrx5HvwUxah3eNCXiTJL3yT4Y.jpg", "adult": false, "overview": "A pragmatic PhD candidate must let go of her logic when she finds a list of items to give away written by the late mother she never knew. With the encouragement of her enthusiastic new mentor, she attempts to return everything on the list and begins to encounter unexplainable coincidences that lead her to understand the world\u2019s smallest marvels have the greatest meaning.", "poster_path": "/2EeNbzLWQQeCA66NlvCIWk3TlHb.jpg", "popularity": 6.8}, {"id": 58231, "video": false, "vote_count": 59, "vote_average": 5.0, "title": "Mardi Gras: Spring Break", "release_date": "2011-09-23", "original_language": "en", "original_title": "Mardi Gras: Spring Break", "genre_ids": [35], "backdrop_path": "/iKyBjDsWeCqZPATmAovaca0gfia.jpg", "adult": false, "overview": "For three college guys, it\u2019s senior year and the co-ed experience has left them high and dry. Their solution: A road trip to Mardi Gras, where beautiful babes are happy to lift their shirts and open containers are always welcome. But after dressing in drag, breaking into Carmen Electra\u2019s hotel room, starring in a scandalous sex show and accidentally exploding a feces bomb in a swank hotel lobby, will the Mardi Gras magic kick in and their wildest fantasies come true?", "poster_path": "/90z4MYip3EY4a3dSPadv6XwgwYE.jpg", "popularity": 8.301}], "total_pages": 1, "total_results": 5}, "credits": {"cast": [{"cast_id": 1, "character": "Kara Jones", "credit_id": "56822b3fc3a36860e9012b72", "gender": 1, "id": 1010799, "name": "Taylor Black", "order": 0, "profile_path": "/bb35VIXBarNRF4RBSf5CG0p3WRZ.jpg"}, {"cast_id": 3, "character": "Grant Zager", "credit_id": "56822c079251417ddd013039", "gender": 2, "id": 21368, "name": "Peter Strauss", "order": 1, "profile_path": "/ufx1trct43k7UcT4DpoIMPZXi5A.jpg"}, {"cast_id": 4, "character": "Barry", "credit_id": "56822c4392514131df010916", "gender": 2, "id": 113006, "name": "James C. Burns", "order": 2, "profile_path": "/1MEq61zJXqriqhbOINrR0CwPExj.jpg"}, {"cast_id": 5, "character": "Rita", "credit_id": "56822c51c3a3684bcc014105", "gender": 1, "id": 108213, "name": "Isabella Hofmann", "order": 3, "profile_path": "/lqCEokh9id0n2HJwxhFU6F2nZYw.jpg"}, {"cast_id": 6, "character": "Shawna", "credit_id": "56822c6ac3a36860e9012ba5", "gender": 0, "id": 550596, "name": "Ashley McCarthy", "order": 4, "profile_path": "/otIBEpW22KQrmFwQxs3SBHek8Ko.jpg"}, {"cast_id": 7, "character": "Peter", "credit_id": "56822c76c3a3684be9012739", "gender": 2, "id": 169198, "name": "Timothy Brennen", "order": 5, "profile_path": "/3JA3spPTRFjW6TCFSXvdkb6aX93.jpg"}, {"cast_id": 8, "character": "Lea", "credit_id": "56822c83925141133400a6f9", "gender": 1, "id": 1216579, "name": "Samantha Robinson", "order": 6, "profile_path": "/3L4fglydThanzBJJyjLYR80Cvl.jpg"}, {"cast_id": 9, "character": "Justin", "credit_id": "56822dd1c3a3684be301383a", "gender": 2, "id": 1421423, "name": "Griffin Freeman", "order": 7, "profile_path": "/20jqCZcqHYPnPCdo0tQJIDMnlEw.jpg"}, {"cast_id": 10, "character": "Professor Lawrence", "credit_id": "56822ddec3a3682abc00bff3", "gender": 1, "id": 1411153, "name": "Kelli Kirkland", "order": 8, "profile_path": "/ciPb7LuOVIW95icDKZaVhWG77QT.jpg"}, {"cast_id": 11, "character": "Rory", "credit_id": "56822dfc9251417def013524", "gender": 1, "id": 1411153, "name": "Kelli Kirkland", "order": 9, "profile_path": "/ciPb7LuOVIW95icDKZaVhWG77QT.jpg"}, {"cast_id": 12, "character": "David", "credit_id": "56822e1192514132db010f70", "gender": 2, "id": 1297931, "name": "Christopher Kriesa", "order": 10, "profile_path": "/x63NKyzA7smylyHk18T4HZSMRS7.jpg"}, {"cast_id": 13, "character": "Heather", "credit_id": "56822e1dc3a3684bcc014223", "gender": 0, "id": 1555123, "name": "Kelicea Meadows", "order": 11, "profile_path": null}, {"cast_id": 14, "character": "Larry", "credit_id": "56822e5b92514132db010f82", "gender": 0, "id": 1555125, "name": "Charles Christopher", "order": 12, "profile_path": "/d2z7JBqRTgpubft2IJ8xz8NUDjB.jpg"}, {"cast_id": 15, "character": "Tom", "credit_id": "56822f37c3a3684be3013878", "gender": 0, "id": 1555131, "name": "Christopher James Culberson", "order": 13, "profile_path": null}, {"cast_id": 16, "character": "Officer Hernandez", "credit_id": "56822f51c3a368227b008f59", "gender": 0, "id": 1482501, "name": "Renzo Lewis", "order": 14, "profile_path": null}, {"cast_id": 17, "character": "Craig", "credit_id": "56822fb9c3a3684bcc01427d", "gender": 0, "id": 1555137, "name": "Glen Marzillo", "order": 15, "profile_path": null}], "crew": [{"credit_id": "577f7f219251410cd20029d8", "department": "Directing", "gender": 2, "id": 92227, "job": "Director", "name": "Doug Campbell", "profile_path": "/s73PJwdj7H7uAODB3hMfG0r9Vy4.jpg"}, {"credit_id": "577f7fb0c3a368794100354c", "department": "Sound", "gender": 0, "id": 128980, "job": "Sound Re-Recording Mixer", "name": "Andres Boulton", "profile_path": null}, {"credit_id": "577eb02892514123bb0022a6", "department": "Sound", "gender": 0, "id": 550893, "job": "Music", "name": "Steve Gurevitch", "profile_path": null}, {"credit_id": "5682300b9251414ecb00492c", "department": "Writing", "gender": 0, "id": 928670, "job": "Writer", "name": "Barbara Kymlicka", "profile_path": null}, {"credit_id": "577eaef3c3a368492600057f", "department": "Production", "gender": 0, "id": 1084541, "job": "Producer", "name": "Robert Ballo", "profile_path": "/dEQ6RxauL9kSKbcoDACfKlLhks5.jpg"}, {"credit_id": "577eb01b92514123bb002298", "department": "Production", "gender": 2, "id": 1096371, "job": "Casting", "name": "Jeff Hardwick", "profile_path": null}, {"credit_id": "577eb0a292514123bb002313", "department": "Costume & Make-Up", "gender": 0, "id": 1339593, "job": "Costume Design", "name": "Anna Lloyd-Jones", "profile_path": null}, {"credit_id": "577f7b9ac3a3681afe002765", "department": "Costume & Make-Up", "gender": 0, "id": 1339610, "job": "Set Costumer", "name": "Holly Haupert", "profile_path": null}, {"credit_id": "577eb12b9251416976003589", "department": "Camera", "gender": 0, "id": 1396777, "job": "Director of Photography", "name": "Leigh Lisb\u00e3o Underwood", "profile_path": null}, {"credit_id": "577eb082c3a36848950005e5", "department": "Editing", "gender": 0, "id": 1396779, "job": "Editor", "name": "Bob Joyce", "profile_path": null}, {"credit_id": "577eb0d0c3a3684895000634", "department": "Art", "gender": 0, "id": 1489933, "job": "Production Design", "name": "Caitlin Laingen", "profile_path": null}, {"credit_id": "577f7b599251410ca0002263", "department": "Art", "gender": 0, "id": 1543529, "job": "Set Decoration", "name": "Amy Saetang", "profile_path": null}, {"credit_id": "577f7fd59251413b8c004571", "department": "Sound", "gender": 0, "id": 1545922, "job": "Sound Effects Editor", "name": "Trevor Metz", "profile_path": null}, {"credit_id": "577f7bf2c3a36879b30031de", "department": "Costume & Make-Up", "gender": 0, "id": 1554504, "job": "Key Hair Stylist", "name": "Patrick Anthony Lising", "profile_path": null}, {"credit_id": "577f7c8b9251410cd20028c8", "department": "Crew", "gender": 0, "id": 1555137, "job": "Picture Car Coordinator", "name": "Glen Marzillo", "profile_path": null}, {"credit_id": "577eaec092514169760033ec", "department": "Production", "gender": 2, "id": 1591268, "job": "Producer", "name": "Ken Sanders", "profile_path": "/tt3ALUD5RZbApmRxAQc5svgvthQ.jpg"}, {"credit_id": "577f7ae0c3a3681afe002719", "department": "Lighting", "gender": 0, "id": 1593985, "job": "Gaffer", "name": "Mike Stockton", "profile_path": null}, {"credit_id": "57ee8aa2c3a3682a65004b40", "department": "Lighting", "gender": 0, "id": 1636827, "job": "Electrician", "name": "Anderson Lau", "profile_path": null}, {"credit_id": "577eb0c5c3a368694a0022ac", "department": "Art", "gender": 0, "id": 1646810, "job": "Production Design", "name": "Derek Bishe", "profile_path": null}, {"credit_id": "577f6c519251410ca0001d88", "department": "Production", "gender": 0, "id": 1646811, "job": "Line Producer", "name": "Marianne C. Wunch", "profile_path": "/263g0tT1vS1jnPx0HRnh07HkJRj.jpg"}, {"credit_id": "577eb13b9251413297004969", "department": "Production", "gender": 0, "id": 1646811, "job": "Co-Producer", "name": "Marianne C. Wunch", "profile_path": "/263g0tT1vS1jnPx0HRnh07HkJRj.jpg"}, {"credit_id": "577f6c8c9251410c4e001f7a", "department": "Directing", "gender": 0, "id": 1647012, "job": "Script Supervisor", "name": "April McQuarrie", "profile_path": null}, {"credit_id": "577f6dc49251410ca0001e0a", "department": "Camera", "gender": 0, "id": 1647018, "job": "Still Photographer", "name": "Charles Christopher", "profile_path": null}, {"credit_id": "577f7aa49251410c82002578", "department": "Sound", "gender": 0, "id": 1647025, "job": "Production Sound Mixer", "name": "Darryl Williams", "profile_path": null}, {"credit_id": "577f7b05c3a36868fd00733d", "department": "Art", "gender": 0, "id": 1647026, "job": "Art Direction", "name": "Dylan Metzger", "profile_path": null}, {"credit_id": "577f7b10c3a3681afe002730", "department": "Art", "gender": 0, "id": 1647027, "job": "Assistant Art Director", "name": "Charles Nankivel", "profile_path": null}, {"credit_id": "577f7b6cc3a3681b46002809", "department": "Costume & Make-Up", "gender": 0, "id": 1647028, "job": "Set Dressing Artist", "name": "Mike Teeples", "profile_path": null}, {"credit_id": "577f7bb19251410c18002419", "department": "Costume & Make-Up", "gender": 0, "id": 1647029, "job": "Makeup Department Head", "name": "Amy Hanlin", "profile_path": null}, {"credit_id": "577f7c0dc3a36879b30031ec", "department": "Costume & Make-Up", "gender": 0, "id": 1647030, "job": "Makeup Artist", "name": "Brianna Ruben", "profile_path": null}, {"credit_id": "577f7c05c3a36879b30031e8", "department": "Costume & Make-Up", "gender": 0, "id": 1647030, "job": "Hairstylist", "name": "Brianna Ruben", "profile_path": null}, {"credit_id": "577f7c63c3a36879b3003210", "department": "Production", "gender": 0, "id": 1647031, "job": "Location Manager", "name": "Madeline Randolph", "profile_path": null}, {"credit_id": "577f7cb09251410ca00022c5", "department": "Crew", "gender": 1, "id": 1647032, "job": "Transportation Coordinator", "name": "Hannah R. Blackwell", "profile_path": "/zTr0fzkUEjeD0brtszOWigF0bhX.jpg"}, {"credit_id": "577f7e1a9251410c4e002524", "department": "Production", "gender": 0, "id": 1647033, "job": "Production Accountant", "name": "Sheri Reeves", "profile_path": null}, {"credit_id": "577f7ff89251413b2d0045c1", "department": "Crew", "gender": 0, "id": 1647034, "job": "Post Production Supervisor", "name": "Griff Partington", "profile_path": null}, {"credit_id": "57ee8a52c3a3682aa100541e", "department": "Lighting", "gender": 0, "id": 1686959, "job": "Best Boy Electric", "name": "Josh Bell", "profile_path": null}]}}