{"adult": false, "backdrop_path": null, "belongs_to_collection": null, "budget": 0, "genres": [{"id": 10749, "name": "Romance"}, {"id": 18, "name": "Drama"}], "homepage": null, "id": 318851, "imdb_id": "tt0061909", "original_language": "nl", "original_title": "Liefdesbekentenissen", "overview": "Author Frank's debut novel is successful, but he needs the proceeds to pay off a debt and his girlfriend Mascha ends their relationship. He meets another woman, but he and Mascha also seem to make amends. These amorous vicissitudes give him inspiration for a new book, which will deal with eroticism in the Netherlands.", "popularity": 0.84, "poster_path": "/5XOrPhwT6RTFGAuV4WeG6ewUc8t.jpg", "production_companies": [{"id": 44205, "logo_path": null, "name": "Scorpio", "origin_country": ""}], "production_countries": [{"iso_3166_1": "NL", "name": "Netherlands"}], "release_date": "1967-02-16", "revenue": 0, "runtime": 80, "spoken_languages": [{"iso_639_1": "nl", "name": "Nederlands"}], "status": "Released", "tagline": "", "title": "Confessions of Loving Couples", "video": false, "vote_average": 0.0, "vote_count": 0, "keywords": {"keywords": [{"id": 1731, "name": "writing"}, {"id": 9673, "name": "love"}]}, "similar": {"page": 1, "results": [{"adult": false, "backdrop_path": "/Ao2bnJMmcFepMVw1BUay25tt7TM.jpg", "genre_ids": [18, 10749], "id": 1259, "original_language": "en", "original_title": "Notes on a Scandal", "overview": "A veteran high school teacher befriends a younger art teacher, who is having an affair with one of her 15-year-old students. However, her intentions with this new \"friend\" also go well beyond platonic friendship.", "poster_path": "/lXZa1mHZ8eD0VOpNaLfvM9tSpAj.jpg", "release_date": "2006-12-25", "title": "Notes on a Scandal", "video": false, "vote_average": 7.1, "vote_count": 463, "popularity": 12.753}, {"adult": false, "backdrop_path": "/bYbnlh6VXFRtcSX82UMDsBDLB5j.jpg", "genre_ids": [18, 10749], "id": 28468, "original_language": "it", "original_title": "La chiave", "overview": "After twenty years of marriage, art professor Nino Rolfe attempts to break down his wife Teresa's conventional modesty. Noticing her affection for their daughter's fianc\u00e9, Nino instigates her sexual interest in him as well. This sets off a chain of unexpected events and emotional complications, as Nino and his unpredictable fascist daughter find that they both enjoy being jealous.", "poster_path": "/e6g2geNLgFzMbriH6EvSJZD78nx.jpg", "release_date": "1983-10-18", "title": "The Key", "video": false, "vote_average": 5.0, "vote_count": 128, "popularity": 15.363}, {"id": 12531, "video": false, "vote_count": 91, "vote_average": 6.9, "title": "The Apartment", "release_date": "1996-07-27", "original_language": "fr", "original_title": "L'Appartement", "genre_ids": [18, 9648, 10749], "backdrop_path": "/64qyT8m4JQ6YODvXxtbHgKmXBX7.jpg", "adult": false, "overview": "A stylish suspense thriller that confounds the audience while presenting them with an extraordinary and elusive mystery. Max is a former playboy who has decided to settle down by marrying his current love, Muriel. However, during a business trip, Max catches a glimpse of the great lost love of his life, reviving his wanderlust and sending him off on a chase of the elusive Lisa, whom he had overheard suggesting to a friend that her lover, Daniel, had killed someone for her. Soon, Max is trying to unravel the mystery behind the suspicious death of Daniel's wife, which he hopes will lead him closer to Lisa.", "poster_path": "/1sqrQdQTn8jKLhUcPKfRVj639zA.jpg", "popularity": 19.17}, {"id": 38, "video": false, "vote_count": 8445, "vote_average": 8.1, "title": "Eternal Sunshine of the Spotless Mind", "release_date": "2004-03-19", "original_language": "en", "original_title": "Eternal Sunshine of the Spotless Mind", "genre_ids": [18, 878, 10749], "backdrop_path": "/1dXTsaFxHoF9cas08UjAqE8NqOW.jpg", "adult": false, "overview": "Joel Barish, heartbroken that his girlfriend underwent a procedure to erase him from her memory, decides to do the same. However, as he watches his memories of her fade away, he realises that he still loves her, and may be too late to correct his mistake.", "poster_path": "/7y3eYvTsGjxPYDtSnumCLIMDkrV.jpg", "popularity": 22.427}, {"id": 521, "video": false, "vote_count": 1257, "vote_average": 8.0, "title": "Dial M for Murder", "release_date": "1954-05-29", "original_language": "en", "original_title": "Dial M for Murder", "genre_ids": [80, 18, 9648, 53], "backdrop_path": "/jVMlfESb0TJ29w8CUDDofEprMmn.jpg", "adult": false, "overview": "An ex-tennis pro carries out a plot to have his wife murdered after discovering she is having an affair, and assumes she will soon leave him for the other man anyway. When things go wrong, he improvises a new plan\u2014to frame her for murder instead.", "poster_path": "/xrpK1PyckNWmRxU4kZURfaCyboS.jpg", "popularity": 28.336}, {"id": 10995, "video": false, "vote_count": 255, "vote_average": 6.6, "title": "The Lover", "release_date": "1992-02-22", "original_language": "fr", "original_title": "L'Amant", "genre_ids": [18, 10749], "backdrop_path": "/zRAgf1F0rRp0Tys8AnMWGBFJRZv.jpg", "adult": false, "overview": "A poor French teenage girl engages in an illicit affair with a wealthy Chinese heir in 1920s Saigon. For the first time in her young life she has control, and she wields it deftly over her besotted lover throughout a series of clandestine meetings and torrid encounters.", "poster_path": "/iey1UA4hav2cn60qGi1zgKxpPBl.jpg", "popularity": 13.161}, {"adult": false, "backdrop_path": "/chJKYldpfDY9F9sJPwGfeeuHdYc.jpg", "genre_ids": [18, 10749], "id": 1628, "original_language": "fr", "original_title": "Jules et Jim", "overview": "In the carefree days before World War I, introverted Austrian author Jules strikes up a friendship with the exuberant Frenchman Jim. Both men fall for the impulsive and beautiful Catherine, but it's Jules who wins her hand. After the war, Jim visits Jules, Catherine and their daughter in their Austrian home and discovers not only that his feelings for Catherine are unchanged, but also that they're reciprocated.", "poster_path": "/x4DeQiDAfPG3IMe1jKUcn8l9rUV.jpg", "release_date": "1962-01-23", "title": "Jules and Jim", "video": false, "vote_average": 7.8, "vote_count": 413, "popularity": 11.273}, {"adult": false, "backdrop_path": "/xOGEw8iywxcFMolV6SF6YdTdJTb.jpg", "genre_ids": [10402, 10749], "id": 52371, "original_language": "nl", "original_title": "LelleBelle", "overview": "19-year old Belle practices playing the violin diligently, but is unable to impart her music with a sensitive undertone. Her life changes when she discovers that sexual desire stimulates passion in her music.", "poster_path": "/nJVPgIq3icZMQ26p5uWIFdUZJfL.jpg", "release_date": "2010-10-08", "title": "LelleBelle", "video": false, "vote_average": 4.7, "vote_count": 41, "popularity": 13.747}, {"id": 50544, "video": false, "vote_count": 5179, "vote_average": 6.6, "title": "Friends with Benefits", "release_date": "2011-07-21", "original_language": "en", "original_title": "Friends with Benefits", "genre_ids": [35, 10749], "backdrop_path": "/liq5ljqURqLiBUgMkNiR388ZuSH.jpg", "adult": false, "overview": "Dylan and Jamie think it's going to be easy to add the simple act of sex to their friendship, despite what Hollywood romantic comedies would have them believe. They soon discover however that getting physical really does always lead to complications.", "poster_path": "/nKhhDFCdzxeJ3GUunQ570LDpUkz.jpg", "popularity": 19.488}, {"id": 1903, "video": false, "vote_count": 2237, "vote_average": 6.8, "title": "Vanilla Sky", "release_date": "2001-12-10", "original_language": "en", "original_title": "Vanilla Sky", "genre_ids": [18, 14, 878, 53, 10749], "backdrop_path": "/6XwX3HzKhlBUbTy2qZx0THQOu2T.jpg", "adult": false, "overview": "David Aames has it all: wealth, good looks and gorgeous women on his arm. But just as he begins falling for the warmhearted Sofia, his face is horribly disfigured in a car accident. That's just the beginning of his troubles as the lines between illusion and reality, between life and death, are blurred.", "poster_path": "/ujMy9P4VczTW9YSpAM31uqdOMpz.jpg", "popularity": 16.046}, {"id": 2470, "video": false, "vote_count": 78, "vote_average": 7.0, "title": "Belle \u00c9poque", "release_date": "1992-12-04", "original_language": "es", "original_title": "Belle \u00c9poque", "genre_ids": [35, 18, 10749], "backdrop_path": "/1HOO7m6NeK3wFw22xGBLdwvim51.jpg", "adult": false, "overview": "In 1931, a young soldier deserts from the army and falls into a country farm, where he is welcomed by the owner due to his political ideas. Manolo has four daughters, Fernando likes all of them and they like him, so he has to decide which one to love.", "poster_path": "/3QPlMEaGa3IaJtZmwCk3k30w0zY.jpg", "popularity": 6.821}, {"adult": false, "backdrop_path": "/7DwSXdN28VA5wQYw49PKpxhR1Lq.jpg", "genre_ids": [18, 14], "id": 1024, "original_language": "en", "original_title": "Heavenly Creatures", "overview": "Wealthy and precocious teenager Juliet transfers from England to New Zealand with her family, and soon befriends the quiet, brooding Pauline through their shared love of fantasy and literature. When their parents begin to suspect that their increasingly intense and obsessive bond is becoming unhealthy, the girls hatch a dark plan for those who threaten to keep them apart.", "poster_path": "/5ek49TUeqStPmKwNdxrCSUAdXNe.jpg", "release_date": "1994-09-12", "title": "Heavenly Creatures", "video": false, "vote_average": 7.1, "vote_count": 519, "popularity": 10.27}, {"adult": false, "backdrop_path": "/3GuYLuqn34guNrgUlZnXyLogD6u.jpg", "genre_ids": [35, 12, 10749], "id": 13523, "original_language": "en", "original_title": "Sex Drive", "overview": "A high school senior drives cross-country with his best friends to hook up with a babe he met online.", "poster_path": "/bwXrZy2xqsyDnno4z8AENEgVfsO.jpg", "release_date": "2008-10-16", "title": "Sex Drive", "video": false, "vote_average": 6.1, "vote_count": 646, "popularity": 12.037}, {"id": 9962, "video": false, "vote_count": 314, "vote_average": 6.0, "title": "The Good Girl", "release_date": "2002-01-12", "original_language": "en", "original_title": "The Good Girl", "genre_ids": [35, 18, 10749], "backdrop_path": "/gY2qB8EFgiCZTQSgcWoZov3w7eH.jpg", "adult": false, "overview": "A discount store clerk strikes up an affair with a stock boy who considers himself the incarnation of Holden Caulfield.", "poster_path": "/21AacCArwM5hQ8fYPRA0WKZviiN.jpg", "popularity": 10.13}, {"adult": false, "backdrop_path": "/2pqYl9JHfzBuZbnwf3m59s4tvDT.jpg", "genre_ids": [18, 9648, 10749], "id": 316021, "original_language": "en", "original_title": "Frank & Lola", "overview": "A psychosexual noir love story, set in Las Vegas and Paris, about love, obsession, sex, betrayal, revenge and, ultimately, the search for redemption.", "poster_path": "/9ZdlnjePpUhxRWz69KjqhIe7H5U.jpg", "release_date": "2016-12-09", "title": "Frank & Lola", "video": false, "vote_average": 5.6, "vote_count": 92, "popularity": 9.469}, {"id": 20024, "video": false, "vote_count": 116, "vote_average": 6.7, "title": "The End of the Affair", "release_date": "1999-12-03", "original_language": "en", "original_title": "The End of the Affair", "genre_ids": [18], "backdrop_path": "/sUPWjskNXip394SxoknaBuyLuUL.jpg", "adult": false, "overview": "On a rainy London night in 1946, novelist Maurice Bendrix has a chance meeting with Henry Miles, husband of his ex-mistress Sarah, who abruptly ended their affair two years before. Bendrix's obsession with Sarah is rekindled; he succumbs to his own jealousy and arranges to have her followed.", "poster_path": "/a0FPMCXTtQSMsTtq7JvQQXHPNPi.jpg", "popularity": 10.425}, {"adult": false, "backdrop_path": "/qPCI9SZmHXmeG6OK367r9GvkuGl.jpg", "genre_ids": [35, 10749], "id": 41280, "original_language": "en", "original_title": "Private Lessons", "overview": "Phillip Filmore is a naive, 15-year-old, preoccupied with sex, who develops a crush on Nicole Mallow, the new 30-something, French housekeeper and sitter to look after him when Phillip's father is out of town for the summer on a \"business\" trip. But Mr. Filmore's unscrupulous chauffeur, Lester Lewis, takes advantage of Phillip's crush on Nicole to hire her to seduce the youth, then draws her into a plot to fake her own death in a blackmail scheme aimed to drain Phillip's trust fund.", "poster_path": "/azdrerXeyr2Aofr7p9osEWnz05g.jpg", "release_date": "1981-08-21", "title": "Private Lessons", "video": false, "vote_average": 5.8, "vote_count": 37, "popularity": 24.872}, {"adult": false, "backdrop_path": "/tvTyRu9eKfymkje8d9VoWJEoyUv.jpg", "genre_ids": [18], "id": 53932, "original_language": "es", "original_title": "Las edades de Lul\u00fa", "overview": "Fifteen-year-old Lulu has never known any affection from her family. But when she goes to a rock concert with Pablo, a friend of the family, he introduces Lulu to her first sexual experience. Years later, Pablo and Lulu have married; Pablo has created a sheltered, private world for Lulu, into which nothing intrudes. However, Lulu tires of her cloistered existence, and begins hanging out in shady bars, looking for vicarious thrills and danger.", "poster_path": "/5PK5MAN84o0ESgzeW9euozOLIEe.jpg", "release_date": "1990-12-13", "title": "The Ages of Lulu", "video": false, "vote_average": 5.7, "vote_count": 64, "popularity": 24.141}, {"id": 290098, "video": false, "vote_count": 1506, "vote_average": 8.3, "title": "The Handmaiden", "release_date": "2016-06-01", "original_language": "ko", "original_title": "\uc544\uac00\uc528", "genre_ids": [18, 53, 10749], "backdrop_path": "/keQhqxE9i7wNQIM3W5B0iLnjaHW.jpg", "adult": false, "overview": "1930s Korea, in the period of Japanese occupation, a young woman is hired as a handmaiden to a Japanese heiress who lives a secluded life on a large countryside estate with her domineering uncle. But, the maid has a secret: she is a pickpocket recruited by a swindler posing as a Japanese count to help him seduce the heiress to elope with him, rob her of her fortune, and lock her up in a madhouse. The plan seems to proceed according to plan until the women discover some unexpected emotions.", "poster_path": "/cw1BvSDk4wyHHpVStj4t82pAvq7.jpg", "popularity": 20.604}, {"adult": false, "backdrop_path": "/98ahnrena4PwLth7HFYGLf9yssH.jpg", "genre_ids": [35, 18, 10749], "id": 22705, "original_language": "it", "original_title": "Tra(sgre)dire", "overview": "While scouting out apartments in London for her Venetian boyfriend, Carla rents an apartment that overlooks the Thames. There she meet the lesbian hyper-horny real estate agent Moira.", "poster_path": "/kZITrLEiTfzzJhtwtXhQUl3ImCQ.jpg", "release_date": "2000-01-28", "title": "Cheeky", "video": false, "vote_average": 5.7, "vote_count": 92, "popularity": 30.42}], "total_pages": 270, "total_results": 5399}, "recommendations": {"page": 1, "results": [], "total_pages": 1, "total_results": 0}, "credits": {"cast": [{"cast_id": 0, "character": "", "credit_id": "54b99998c3a3686c6f004c94", "gender": 2, "id": 1249229, "name": "Ramses Shaffy", "order": 1, "profile_path": null}, {"cast_id": 1, "character": "", "credit_id": "54b9999e92514148590021ce", "gender": 0, "id": 130673, "name": "Kitty Courbois", "order": 2, "profile_path": "/7jAXWKdS2IXFGXCBx4rofszTJEi.jpg"}, {"cast_id": 2, "character": "", "credit_id": "54b999a69251411d77004f70", "gender": 2, "id": 13919, "name": "Michael York", "order": 3, "profile_path": "/hW0uWJtsKWsWAQ9k7EYq9sn5YCH.jpg"}, {"cast_id": 3, "character": "", "credit_id": "54b999afc3a3681421001f3b", "gender": 1, "id": 74015, "name": "Shireen Strooker", "order": 4, "profile_path": "/mWMgxrTqNWo6otc7ILeFO0uCi4M.jpg"}, {"cast_id": 4, "character": "", "credit_id": "54b999bb9251411d64004ee6", "gender": 0, "id": 1368923, "name": "Marina Schaper", "order": 5, "profile_path": null}], "crew": [{"credit_id": "54b999c8c3a3686c6b005ee2", "department": "Directing", "gender": 2, "id": 1009978, "job": "Director", "name": "Wim Verstappen", "profile_path": null}, {"credit_id": "54b999cfc3a3681445002198", "department": "Writing", "gender": 2, "id": 1009978, "job": "Writer", "name": "Wim Verstappen", "profile_path": null}, {"credit_id": "54b999dbc3a3686c6f004ca9", "department": "Writing", "gender": 2, "id": 543238, "job": "Writer", "name": "Pim de la Parra", "profile_path": "/3Sub4BaEIzKdDVc7CkmRUlJsPQh.jpg"}]}}