{"adult": false, "backdrop_path": "/6gjlF4ja56UvTxLQc4ZqPAXd95p.jpg", "belongs_to_collection": null, "budget": 18500000, "genres": [{"id": 18, "name": "Drama"}, {"id": 36, "name": "History"}], "homepage": null, "id": 318850, "imdb_id": "tt1002563", "original_language": "en", "original_title": "The Young Messiah", "overview": "Tells the story of Jesus Christ at age seven as he and his family depart Egypt to return home to Nazareth. Told from his childhood perspective, it follows young Jesus as he grows into his religious identity.", "popularity": 8.009, "poster_path": "/lPlcxAdLzXJCMibZ1iUqXHRZFJa.jpg", "production_companies": [{"id": 10146, "logo_path": "/xnFIOeq5cKw09kCWqV7foWDe4AA.png", "name": "Focus Features", "origin_country": "US"}], "production_countries": [{"iso_3166_1": "US", "name": "United States of America"}], "release_date": "2016-03-10", "revenue": 6490401, "runtime": 120, "spoken_languages": [{"iso_639_1": "en", "name": "English"}], "status": "Released", "tagline": "Before he was the savior, he was a child.", "title": "The Young Messiah", "video": false, "vote_average": 6.1, "vote_count": 57, "keywords": {"keywords": [{"id": 1160, "name": "egypt"}, {"id": 3036, "name": "bible"}, {"id": 5708, "name": "gospel"}, {"id": 189092, "name": "journey"}]}, "similar": {"page": 1, "results": [{"id": 615, "video": false, "vote_count": 1934, "vote_average": 7.1, "title": "The Passion of the Christ", "release_date": "2004-02-25", "original_language": "en", "original_title": "The Passion of the Christ", "genre_ids": [18], "backdrop_path": "/clVnEHURb8Ot3twaLmf7N1lNym1.jpg", "adult": false, "overview": "A graphic portrayal of the last twelve hours of Jesus of Nazareth's life.", "poster_path": "/oFuLM1EaKhi1WNWiTjQ1HKIZ1Eg.jpg", "popularity": 21.645}, {"adult": false, "backdrop_path": "/sO6AnUEirDnaxjy8dxaqYEKDxGi.jpg", "genre_ids": [18, 36], "id": 6844, "original_language": "en", "original_title": "The Ten Commandments", "overview": "Escaping death, a Hebrew infant is raised in a royal household to become a prince. Upon discovery of his true heritage, Moses embarks on a personal quest to reclaim his destiny as the leader and liberator of the Hebrew people.", "poster_path": "/loLrO3SfhHkN3o3fTHdx1vf9ZYf.jpg", "release_date": "1956-10-05", "title": "The Ten Commandments", "video": false, "vote_average": 7.6, "vote_count": 659, "popularity": 17.954}, {"adult": false, "backdrop_path": "/eWelH0cHonTsdP6ImrgilpbqdTK.jpg", "genre_ids": [18, 36], "id": 335778, "original_language": "en", "original_title": "Risen", "overview": "Clavius, a powerful Roman military tribune, and his aide, Lucius, are tasked with solving the mystery of what happened to Jesus in the weeks following the crucifixion, in order to disprove the rumors of a risen Messiah and prevent an uprising in Jerusalem.", "poster_path": "/uGZ1easTLqkNfDNHRLm5kvkfRw7.jpg", "release_date": "2016-02-18", "title": "Risen", "video": false, "vote_average": 5.9, "vote_count": 452, "popularity": 13.954}, {"id": 16366, "video": false, "vote_count": 496, "vote_average": 6.4, "title": "Joseph: King of Dreams", "release_date": "2000-11-07", "original_language": "en", "original_title": "Joseph: King of Dreams", "genre_ids": [16, 10402, 10751], "backdrop_path": "/p5WF1vmFwTrdNlx6Z7mt5ksnG7W.jpg", "adult": false, "overview": "In this animated retelling of the story from the Bible's Book of Genesis, Joseph's gift of dream interpretation and his brilliantly colored coat inspires jealousy in his brothers.", "poster_path": "/dsL5nngGY8qTmXxtAamMUYVQDY3.jpg", "popularity": 18.451}, {"id": 9837, "video": false, "vote_count": 2194, "vote_average": 7.1, "title": "The Prince of Egypt", "release_date": "1998-12-15", "original_language": "en", "original_title": "The Prince of Egypt", "genre_ids": [12, 16, 35, 18, 10402, 10751], "backdrop_path": "/1yB6o6L5DLteeraLhz5Q0buBm6i.jpg", "adult": false, "overview": "This is the extraordinary tale of two brothers named Moses and Ramses, one born of royal blood, and one an orphan with a secret past. Growing up the best of friends, they share a strong bond of free-spirited youth and good-natured rivalry. But the truth will ultimately set them at odds, as one becomes the ruler of the most powerful empire on earth, and the other the chosen leader of his people! Their final confrontation will forever change their lives and the world.", "poster_path": "/wD34ls2faCrj8YvFViEaPfBtBEe.jpg", "popularity": 23.613}, {"id": 147441, "video": false, "vote_count": 3122, "vote_average": 5.8, "title": "Exodus: Gods and Kings", "release_date": "2014-12-03", "original_language": "en", "original_title": "Exodus: Gods and Kings", "genre_ids": [28, 12, 18], "backdrop_path": "/hOOgtrByGgWfqGTTn5VL7jkLYXJ.jpg", "adult": false, "overview": "The defiant leader Moses rises up against the Egyptian Pharaoh Ramses, setting 400,000 slaves on a monumental journey of escape from Egypt and its terrifying cycle of deadly plagues.", "poster_path": "/ycDcPCpWM7hSdIR6tFkOzQPkve2.jpg", "popularity": 23.138}, {"adult": false, "backdrop_path": "/euAMcJLG26pW1kv4kPEtVEwwroQ.jpg", "genre_ids": [36], "id": 476968, "original_language": "en", "original_title": "Paul, Apostle of Christ", "overview": "Risking his life, Luke ventures to Rome to visit Paul -- the apostle who's bound in chains and held captive in Nero's darkest and bleakest prison cell. Haunted by the shadows of his past misdeeds, Paul wonders if he's been forgotten as he awaits his grisly execution. Before Paul's death, Luke resolves to write another book that details the birth of what will come to be known as the church.", "poster_path": "/2NUXG94dGMKYgJL1BkJGKynMb3l.jpg", "release_date": "2018-03-23", "title": "Paul, Apostle of Christ", "video": false, "vote_average": 7.0, "vote_count": 106, "popularity": 16.541}, {"id": 9334, "video": false, "vote_count": 1847, "vote_average": 5.4, "title": "The Scorpion King", "release_date": "2002-04-18", "original_language": "en", "original_title": "The Scorpion King", "genre_ids": [28, 12, 14], "backdrop_path": "/sP386SaCMTCz9ixvHpZtra0df49.jpg", "adult": false, "overview": "In ancient Egypt, peasant Mathayus is hired to exact revenge on the powerful Memnon and the sorceress Cassandra, who are ready to overtake Balthazar's village. Amid betrayals, thieves, abductions and more, Mathayus strives to bring justice to his complicated world.", "poster_path": "/xHHMo8Za53XK8qpsdarrxUoxBwn.jpg", "popularity": 26.115}, {"id": 205584, "video": false, "vote_count": 2544, "vote_average": 5.4, "title": "Gods of Egypt", "release_date": "2016-02-25", "original_language": "en", "original_title": "Gods of Egypt", "genre_ids": [28, 12, 14], "backdrop_path": "/xy74anT8ZGhUIGVoalnHrmRDHbQ.jpg", "adult": false, "overview": "A common thief joins a mythical god on a quest through Egypt.", "poster_path": "/uPqAW07bGoljf3cmT5gecdOvVol.jpg", "popularity": 18.688}, {"id": 564, "video": false, "vote_count": 5479, "vote_average": 6.8, "title": "The Mummy", "release_date": "1999-04-16", "original_language": "en", "original_title": "The Mummy", "genre_ids": [28, 12, 14], "backdrop_path": "/7rz4sMD7Ku0E4KIqYezxoiSzTMj.jpg", "adult": false, "overview": "Dashing legionnaire Rick O'Connell stumbles upon the hidden ruins of Hamunaptra while in the midst of a battle to claim the area in 1920s Egypt. It has been over three thousand years since former High Priest Imhotep suffered a fate worse than death as a punishment for a forbidden love\u2014along with a curse that guarantees eternal doom upon the world if he is ever awoken.", "poster_path": "/yhIsVvcUm7QxzLfT6HW2wLf5ajY.jpg", "popularity": 21.113}, {"id": 9946, "video": false, "vote_count": 932, "vote_average": 5.7, "title": "End of Days", "release_date": "1999-11-24", "original_language": "en", "original_title": "End of Days", "genre_ids": [28, 14, 27, 9648], "backdrop_path": "/q5KcZBMc4Vs5SQelnSdY3ICm56M.jpg", "adult": false, "overview": "On 28 December 1999, the citizens of New York City are getting ready for the turn of the millennium. However, the Devil decides to crash the party by coming to the city, inhabiting a man's body, and searching for his chosen bride\u2014a 20-year-old woman named Christine York. The world will end, and the only hope lies within an atheist named Jericho Cane.", "poster_path": "/bEIjH6GroeWaBkn6o7MVpMNbuyw.jpg", "popularity": 15.853}, {"adult": false, "backdrop_path": "/zlHeYjpHrHLpH4ylN5xYRdr7NlB.jpg", "genre_ids": [12, 28, 14], "id": 1734, "original_language": "en", "original_title": "The Mummy Returns", "overview": "Rick and Evelyn O\u2019Connell, along with their 8-year-old son Alex, discover the key to the legendary Scorpion King\u2019s might: the fabled Bracelet of Anubis. Unfortunately, a newly resurrected Imhotep has designs on the bracelet as well, and isn\u2019t above kidnapping its new bearer, Alex, to gain control of Anubis\u2019s otherworldly army.", "poster_path": "/hioiYUZVIuYIhagDGhIAjyNEUu0.jpg", "release_date": "2001-05-04", "title": "The Mummy Returns", "video": false, "vote_average": 6.2, "vote_count": 4313, "popularity": 21.982}, {"id": 2899, "video": false, "vote_count": 1973, "vote_average": 7.4, "title": "Asterix & Obelix: Mission Cleopatra", "release_date": "2002-01-29", "original_language": "fr", "original_title": "Ast\u00e9rix & Ob\u00e9lix Mission Cl\u00e9op\u00e2tre", "genre_ids": [12, 35, 14, 10751], "backdrop_path": "/2g6rIEw3t8ZWzMRlDlgXFr8pAlB.jpg", "adult": false, "overview": "The Egyptian Queen Cleopatra bets against the Roman Emperor, Julius Caesar, that her people are still great, even if the times of the Pharaohs has long passed. She vows (against all logic) to build a new palace for Caesar within three months. Since all her architects are either busy otherwise or too conservative in style, this ambivalent honor falls to Edifis. He is to build the palace and be covered in gold or, if not, his fate is to be eaten by crocodiles. Edifis calls upon an old friend to help him out: The fabulous Druid Getafix from Gaul, who brews a fantastic potion that gives supernatural strength. In order to help and protect the old Druid, Asterix and Obelix accompany him on his journey to Egypt. When Julius Caesar gets wind of the project succeeding, he has the building site attacked by his troops in order to win the bet and not lose face. But just like the local pirates, he hasn't counted on Asterix and Obelix.", "poster_path": "/qWy5b64SoBXcMDdfgLyLZgIHSdv.jpg", "popularity": 20.077}, {"id": 2525, "video": false, "vote_count": 55, "vote_average": 6.4, "title": "The Bible: In the Beginning...", "release_date": "1966-09-28", "original_language": "en", "original_title": "The Bible: In the Beginning...", "genre_ids": [18], "backdrop_path": "/kNYhdeLZPeeVLmwtw1iqSCO1zxe.jpg", "adult": false, "overview": "Extravagant production of the first part of the book of Genesis. Covers Adam and Eve, Noah and the Flood and Abraham and Isaac.", "poster_path": "/5Lp3sMtwMxcc2Azm4DDVyxWpHvr.jpg", "popularity": 13.278}, {"id": 2447, "video": false, "vote_count": 81, "vote_average": 6.4, "title": "The Nativity Story", "release_date": "2006-12-01", "original_language": "en", "original_title": "The Nativity Story", "genre_ids": [18, 36], "backdrop_path": "/AmAPG05GcUXD9zWXctQAiTfUNKG.jpg", "adult": false, "overview": "Mary and Joseph make the hard journey to Bethlehem for a blessed event in this retelling of the Nativity story. This meticulously researched and visually lush adaptation of the biblical tale follows the pair on their arduous path to their arrival in a small village, where they find shelter in a quiet manger and Jesus is born.", "poster_path": "/ahAuUNYkXf8MjSeXZrs7D5GGdU0.jpg", "popularity": 10.052}, {"id": 235260, "video": false, "vote_count": 137, "vote_average": 6.4, "title": "Son of God", "release_date": "2014-02-28", "original_language": "en", "original_title": "Son of God", "genre_ids": [18], "backdrop_path": "/fabLQCBndX9Zfd3mX0RS1OjyqEX.jpg", "adult": false, "overview": "The life story of Jesus is told from his humble birth through his teachings, crucifixion and ultimate resurrection.", "poster_path": "/xyFaNh1IGdHEJbuLdba6a7GxLzP.jpg", "popularity": 11.437}, {"adult": false, "backdrop_path": "/hpIUiHIyNKWsid3Tz4adtYsUqo1.jpg", "genre_ids": [16, 12, 10751], "id": 82703, "original_language": "en", "original_title": "Mr. Peabody & Sherman", "overview": "A young boy and his dog, who happens to have a genius-level IQ, spring into action when their time-machine is stolen and moments in history begin to be changed.", "poster_path": "/q4FQXK4a4HSb4pajZL4ZFKHVsjC.jpg", "release_date": "2014-02-07", "title": "Mr. Peabody & Sherman", "video": false, "vote_average": 6.6, "vote_count": 1490, "popularity": 18.443}, {"adult": false, "backdrop_path": "/vxsR4pjm8VNFrywz9TQLj3loxNB.jpg", "genre_ids": [12, 18, 36], "id": 26428, "original_language": "es", "original_title": "Agora", "overview": "A historical drama set in Roman Egypt, concerning philosopher Hypatia of Alexandria and her relationship with her slave Davus, who is torn between his love for her and the possibility of gaining his freedom by joining the rising tide of Christianity.", "poster_path": "/hZcl4TuZYTNWztIP8Zpvr6YLxiY.jpg", "release_date": "2009-05-17", "title": "Agora", "video": false, "vote_average": 6.9, "vote_count": 825, "popularity": 14.461}, {"id": 11051, "video": false, "vote_count": 488, "vote_average": 7.3, "title": "The Last Temptation of Christ", "release_date": "1988-08-12", "original_language": "en", "original_title": "The Last Temptation of Christ", "genre_ids": [18], "backdrop_path": "/rBqdcQeM1h05YjF9rFtPWnNaDO2.jpg", "adult": false, "overview": "Jesus, a humble Judean carpenter beginning to see that he is the son of God, is drawn into revolutionary action against the Roman occupiers by Judas -- despite his protestations that love, not violence, is the path to salvation. The burden of being the savior of mankind torments Jesus throughout his life, leading him to doubt. As he is put to death on the cross, Jesus is tempted by visions of an ordinary life married to Mary Magdalene.", "poster_path": "/dutPJWBeQgdfjRqeKojqmyIdXFd.jpg", "popularity": 11.894}, {"adult": false, "backdrop_path": "/qFPSDlIZFeQEA3a1BqNNHgkGqBW.jpg", "genre_ids": [16, 10751, 36], "id": 30628, "original_language": "en", "original_title": "The Miracle Maker", "overview": "A mother and father in search of help for their sick daughter cross paths with an extraordinary carpenter named Jesus, who has devoted his life to spreading God's word. An amazing miracle brings to light the true meaning of Christ, and the sacrifices he endured for the deliverance of mankind. A compelling story of faith, trust, and devotion.", "poster_path": "/dNilrrl9fmxN1KA5LlCtgPeMfsa.jpg", "release_date": "2000-03-31", "title": "The Miracle Maker", "video": false, "vote_average": 5.7, "vote_count": 17, "popularity": 5.392}], "total_pages": 8, "total_results": 153}, "recommendations": {"page": 1, "results": [{"adult": false, "backdrop_path": null, "genre_ids": [99, 18], "id": 104826, "original_language": "en", "original_title": "Race to World First", "overview": "'Race to World First' documents the struggles, triumphs, and frustrations of the 25-man World of Warcraft guild Blood Legion as it prepares to beat the newest bosses released within the game by Blizzard Entertainment. This is a global battle between 12 million people and competition is intense. As the race gets underway, the film broadens in scope to include players from Finland, Russia, Australia, Great Britain, Greece, and Germany. They discuss what it takes to compete at the highest level, and the rivalries and life/game conflicts that inevitably arise. 'Race to World First' redefines the image of the gamer, focusing on the commitment, cooperation, and tremendous diversity within this culture. For gamers both proud and closeted.", "poster_path": "/drNJuFHzSfyz4DB4w8IDQudCGBq.jpg", "release_date": "2011-10-14", "title": "Race to World First", "video": false, "vote_average": 4.3, "vote_count": 3, "popularity": 0.6}, {"id": 582902, "video": false, "vote_count": 3, "vote_average": 7.0, "title": "Dolphin Kick", "release_date": "2019-01-22", "original_language": "en", "original_title": "Dolphin Kick", "genre_ids": [12, 10751], "backdrop_path": "/hL1FJApmMeEvztwKvTBocdOteCr.jpg", "adult": false, "overview": "On a tropical island vacation, a young boy's friendship with a playful and friendly dolphin helps him find the courage to get back in the water after the sudden loss of his mother.", "poster_path": "/eYQQP7fDjfKqL7MXapZioPbuPkt.jpg", "popularity": 3.74}, {"adult": false, "backdrop_path": "/cthznxHMpVllS3RuzqlQUZLrRKg.jpg", "genre_ids": [10751], "id": 64282, "original_language": "en", "original_title": "Chop Kick Panda", "overview": "Fists of Fury and a Heart of Gold. Lu is a large (okay fat) lovable panda who is the sixth generation owners of the Tae Kwon Do dojo. What Lu doesn\u2019t know is that buried beneath the dojo is the ancient Amulet of Fury. The mythical amulet gives its owner ultimate power and protection. When the villainous tiger warrior, Kudo, terrorises the small village in pursuit of the amulet, it\u2019s up to Lu and his rag-tag team of martial artists to stop him!", "poster_path": "/wtI9eduelaM4it2EVg2xu3l6USR.jpg", "release_date": "2011-05-19", "title": "Chop Kick Panda", "video": false, "vote_average": 1.7, "vote_count": 7, "popularity": 2.009}, {"adult": false, "backdrop_path": "/wYRCB8ZpkTKoVXKStX3pkL5rkGt.jpg", "genre_ids": [35, 27, 878], "id": 27502, "original_language": "en", "original_title": "The Monster", "overview": "A general store clerk and aspiring detective investigates a mysterious disappearance that took place quite close to an empty insane asylum.", "poster_path": "/muH1CS6XK1ctY6GbypiO8iFkR9n.jpg", "release_date": "1925-03-16", "title": "The Monster", "video": false, "vote_average": 6.2, "vote_count": 5, "popularity": 2.734}, {"adult": false, "backdrop_path": "/1O8f7MqvbxXVvvCTHFJHAyx1Seh.jpg", "genre_ids": [35, 99], "id": 40150, "original_language": "en", "original_title": "Believe: The Eddie Izzard Story", "overview": "The story of one man's triumph over adversity: cameras followed the comedian on a very stressful comeback tour and caught the story behind some of his best loved material en route. Prior to his Sexie tour in 2003 and under extreme pressure to write, he delved into his own life for inspiration. So began an accidental voyage into his past that paralleled his world tour and culminated in a moment of revelation about the source of his relentless drive. Film contains exclusive never-before-seen footage including the famous 'wolves' material, his first student sketches and unicycle-riding as a street performer in Covent Garden. Hilarious and moving by turns, an inspiring tale of how tragedy can be turned to laughter.", "poster_path": "/50SOhEtIyKqq3ZatcGELPDNKIdF.jpg", "release_date": "2009-10-09", "title": "Believe: The Eddie Izzard Story", "video": false, "vote_average": 6.9, "vote_count": 13, "popularity": 3.485}, {"adult": false, "backdrop_path": "/83PXbMCMJmtDLC1s9glxyy9LpX1.jpg", "genre_ids": [878, 28, 14], "id": 31131, "original_language": "en", "original_title": "Outlaw of Gor", "overview": "An Earthman returns to the planet Gor, and fights against tyranny.", "poster_path": "/3WzOFRREOXu010b6I4fpsoJ0fch.jpg", "release_date": "1988-12-01", "title": "Outlaw of Gor", "video": false, "vote_average": 2.8, "vote_count": 10, "popularity": 4.901}, {"id": 566141, "video": false, "vote_count": 4, "vote_average": 6.8, "title": "Her Only Choice", "release_date": "2018-10-06", "original_language": "en", "original_title": "Her Only Choice", "genre_ids": [18], "backdrop_path": "/2xfX8cP3Aj124L8wIyp475uv8yu.jpg", "adult": false, "overview": "A woman is faced with a choice to fight for her life or sacrifice it for another. After years of infertility, a newly-expectant mother is diagnosed with a life-altering disease.", "poster_path": "/oJ540zZprpaXWIPdG1WyD0DjvXe.jpg", "popularity": 3.515}, {"adult": false, "backdrop_path": "/dH1qYeK15EQsvhpUKQBngQUYPP2.jpg", "genre_ids": [10749, 53], "id": 187188, "original_language": "ta", "original_title": "Udhayam NH4", "overview": "Udhayam NH4 is a 2013 Tamil romantic thriller film directed by debutant Manimaran, a former associate of Vetrimaaran. The film features Siddharth and newcomer Ashrita Shetty in the lead roles. Vetrimaaran has written the script, done the screenplay, and also penned the dialogues for this film. The story takes place in Bengaluru, Karnataka.", "poster_path": "/1K2lJrKybUzq42tgTEvsehIYZ2M.jpg", "release_date": "2013-04-18", "title": "Udhayam NH4", "video": false, "vote_average": 5.5, "vote_count": 6, "popularity": 2.474}, {"adult": false, "backdrop_path": "/kkc79sP5PdvsAL8qx6qNlgYuRGc.jpg", "genre_ids": [28, 18], "id": 182954, "original_language": "te", "original_title": "\u0c28\u0c3e\u0c2f\u0c15\u0c4d", "overview": "A young man and his lookalike team up to fight injustice and settle their personal scores with the evildoers.", "poster_path": "/4NA6zdEZL4lEdAGxbijMl3shhrq.jpg", "release_date": "2013-01-09", "title": "Naayak", "video": false, "vote_average": 5.3, "vote_count": 6, "popularity": 2.265}], "total_pages": 1, "total_results": 9}, "credits": {"cast": [{"cast_id": 12, "character": "Jesus", "credit_id": "554db2869251413e400018fe", "gender": 0, "id": 1465324, "name": "Adam Greaves-Neal", "order": 0, "profile_path": "/a9ecyA19r4sFkozH6jOV9LtMzia.jpg"}, {"cast_id": 10, "character": "Mary", "credit_id": "554db276c3a3685e4c006e3a", "gender": 1, "id": 124760, "name": "Sara Lazzaro", "order": 1, "profile_path": "/cQ2zLLevRJNqpSdY35UqctHaE9M.jpg"}, {"cast_id": 6, "character": "Joseph", "credit_id": "554db247c3a3682254000189", "gender": 2, "id": 190908, "name": "Vincent Walsh", "order": 2, "profile_path": "/qsSw0cgYZUwiXl5djZYMMcqVLmv.jpg"}, {"cast_id": 0, "character": "Severus", "credit_id": "554db205c3a3685e4c006e2b", "gender": 2, "id": 48, "name": "Sean Bean", "order": 3, "profile_path": "/mgeSDR3ySKZac5XM5Jp2uOeoPR6.jpg"}, {"cast_id": 2, "character": "Herod", "credit_id": "554db21ac3a3685e4c006e2f", "gender": 2, "id": 80860, "name": "Jonathan Bailey", "order": 4, "profile_path": "/w8M1dC15q2ShWMkrh2SyK4RROdm.jpg"}, {"cast_id": 4, "character": "Seleni", "credit_id": "554db22fc3a3682431003fac", "gender": 0, "id": 585365, "name": "Isabelle Adriani", "order": 5, "profile_path": "/kYnUgRoFCNZ1voOnuv5PDXR6TFZ.jpg"}, {"cast_id": 5, "character": "The Demon", "credit_id": "554db238c3a3682431003faf", "gender": 2, "id": 1041731, "name": "Rory Keenan", "order": 6, "profile_path": "/sNgT9QiPJnLkbBjbcmw5T3rF4d.jpg"}, {"cast_id": 7, "character": "Eleazer's Mother", "credit_id": "554db251925141087700417c", "gender": 1, "id": 1465323, "name": "Dorotea Mercuri", "order": 7, "profile_path": "/yLHRX9zciKXPCtdTbeDfczAxA20.jpg"}, {"cast_id": 8, "character": "Eleazer's Father", "credit_id": "554db25c925141225300037a", "gender": 2, "id": 84706, "name": "Jarreth J. Merz", "order": 8, "profile_path": "/p17Mgv0FE9feCC2gsDtBwq0louS.jpg"}, {"cast_id": 9, "character": "Miriam", "credit_id": "554db26e9251413e400018f9", "gender": 1, "id": 145312, "name": "Agni Scott", "order": 9, "profile_path": null}, {"cast_id": 11, "character": "Crying Mother #2", "credit_id": "554db27d925141402a0039de", "gender": 1, "id": 239921, "name": "Paola Lavini", "order": 10, "profile_path": "/ooBFeosssKqobcbpT8BDdE0AKfu.jpg"}, {"cast_id": 13, "character": "Optio", "credit_id": "554db294925141225300037e", "gender": 0, "id": 1359547, "name": "Paul Ireland", "order": 11, "profile_path": null}, {"cast_id": 14, "character": "Cynical Stranger", "credit_id": "554db29fc3a3681950000ede", "gender": 0, "id": 25099, "name": "Matt Patresi", "order": 12, "profile_path": "/2Hv0xDRrH6q9MbIF4lLBPS6aFrG.jpg"}, {"cast_id": 19, "character": "Roman Squad Leader", "credit_id": "55561ef89251411e57002f83", "gender": 0, "id": 138161, "name": "Lee Boardman", "order": 13, "profile_path": "/tX2NydXlkQLfCm0tAFB08hGdUMe.jpg"}, {"cast_id": 20, "character": "Old Rabbi", "credit_id": "5830c9de92514162d80161ac", "gender": 2, "id": 11180, "name": "David Bradley", "order": 14, "profile_path": "/5BPFRv4io7U1zxkYHtKaE9a8FDD.jpg"}, {"cast_id": 21, "character": "Cleopas", "credit_id": "58cd46a0c3a36850e900c195", "gender": 2, "id": 28478, "name": "Christian McKay", "order": 15, "profile_path": "/8k7XPKHVtlPqfWg4Joulw0Pc9Fe.jpg"}, {"cast_id": 24, "character": "Female Soothsayer", "credit_id": "58cd4d96c3a36850c000b9bb", "gender": 1, "id": 76340, "name": "Giselda Volodi", "order": 16, "profile_path": "/4RNyn1cCW4QWVB6rVzkOPbC4gb8.jpg"}], "crew": [{"credit_id": "554db2b59251413e40001906", "department": "Directing", "gender": 2, "id": 110618, "job": "Director", "name": "Cyrus Nowrasteh", "profile_path": "/oM7byzcXJ1ili4hx4UCxwjPak5n.jpg"}, {"credit_id": "554db2bcc3a3681950000ee4", "department": "Writing", "gender": 2, "id": 110618, "job": "Screenplay", "name": "Cyrus Nowrasteh", "profile_path": "/oM7byzcXJ1ili4hx4UCxwjPak5n.jpg"}, {"credit_id": "554db2c7c3a3681870000ed7", "department": "Writing", "gender": 1, "id": 9018, "job": "Novel", "name": "Anne Rice", "profile_path": "/3rDdct8eNrYQ24bu9cSD00JekpT.jpg"}, {"credit_id": "554db2d1c3a3685e4c006e4a", "department": "Writing", "gender": 0, "id": 110619, "job": "Screenplay", "name": "Betsy Giffen Nowrasteh", "profile_path": null}, {"credit_id": "58cd46d0c3a36850e900c1bd", "department": "Sound", "gender": 2, "id": 4500, "job": "Music", "name": "John Debney", "profile_path": "/hTrlvZlDXQk49nfc2BM9sjKfJv.jpg"}, {"credit_id": "58cd46df9251415a3d00d466", "department": "Crew", "gender": 2, "id": 23487, "job": "Cinematography", "name": "Joel Ransom", "profile_path": null}, {"credit_id": "5d6bf41d0e4fc85515d957e5", "department": "Visual Effects", "gender": 0, "id": 1393390, "job": "Visual Effects Supervisor", "name": "Ray McIntyre Jr.", "profile_path": null}, {"credit_id": "5d6bf4320e4fc873d2d8dcc5", "department": "Visual Effects", "gender": 0, "id": 1393390, "job": "Visual Effects Producer", "name": "Ray McIntyre Jr.", "profile_path": null}]}}