{"adult": false, "backdrop_path": "/2CJgfB7Giza6NIxzxC7QGdUH4NC.jpg", "belongs_to_collection": null, "budget": 0, "genres": [{"id": 12, "name": "Adventure"}, {"id": 18, "name": "Drama"}], "homepage": null, "id": 320010, "imdb_id": "tt0047397", "original_language": "es", "original_title": "La rebeli\u00f3n de los colgados", "overview": "La rebeli\u00f3n de los colgados (Rebellion of the Hanged) is dominated by the presence of Mexican film favorite Pedro Armendariz. The actor is cast as a peasant who works in a mahogany camp in the Mexican jungles with his family. Disgusted with the miserable living conditions imposed upon himself and his co-workers, the peasant finally spearheads a revolt against the sadistic bosses. Some of the scenes of brutality and torture are almost impossible to watch, and as such were trimmed when the film was released to the U.S. by United Artists. The film was based on a novel by Berwick Traven, of The Treasure of the Sierra Madre fame.", "popularity": 1.91, "poster_path": "/5GJVcnBe3m5jLH17BID5qT23e7A.jpg", "production_companies": [{"id": 15841, "logo_path": null, "name": "Producciones Jos\u00e9 Kohn", "origin_country": ""}], "production_countries": [{"iso_3166_1": "MX", "name": "Mexico"}], "release_date": "1954-01-20", "revenue": 0, "runtime": 83, "spoken_languages": [{"iso_639_1": "es", "name": "Espa\u00f1ol"}], "status": "Released", "tagline": "", "title": "Rebellion of the Hanged", "video": false, "vote_average": 7.9, "vote_count": 4, "keywords": {"keywords": [{"id": 236, "name": "suicide"}, {"id": 570, "name": "rape"}, {"id": 2831, "name": "slavery"}, {"id": 9826, "name": "murder"}, {"id": 9849, "name": "beating"}, {"id": 10322, "name": "native american"}, {"id": 10787, "name": "jungle"}, {"id": 10886, "name": "punishment"}, {"id": 13006, "name": "torture"}, {"id": 33407, "name": "hanging"}, {"id": 170335, "name": "whipping"}, {"id": 222268, "name": "escape attempt"}]}, "similar": {"page": 1, "results": [{"adult": false, "backdrop_path": "/kiWvoV78Cc3fUwkOHKzyBgVdrDD.jpg", "genre_ids": [37, 18, 12], "id": 281957, "original_language": "en", "original_title": "The Revenant", "overview": "In the 1820s, a frontiersman, Hugh Glass, sets out on a path of vengeance against those who left him for dead after a bear mauling.", "poster_path": "/oXUWEc5i3wYyFnL1Ycu8ppxxPvs.jpg", "release_date": "2015-12-25", "title": "The Revenant", "video": false, "vote_average": 7.5, "vote_count": 12127, "popularity": 24.135}, {"id": 395834, "video": false, "vote_count": 2755, "vote_average": 7.4, "title": "Wind River", "release_date": "2017-08-03", "original_language": "en", "original_title": "Wind River", "genre_ids": [80, 18, 9648, 53], "backdrop_path": "/6B8e784decj9vtKuNjbl9Fes2aZ.jpg", "adult": false, "overview": "An FBI agent teams with the town's veteran game tracker to investigate a murder that occurred on a Native American reservation.", "poster_path": "/pySivdR845Hom4u4T2WNkJxe6Ad.jpg", "popularity": 16.931}, {"adult": false, "backdrop_path": "/rPfyX0pkmn8Ea4gh3DfsmzFUf05.jpg", "genre_ids": [18, 27, 80], "id": 74997, "original_language": "en", "original_title": "The Human Centipede 2 (Full Sequence)", "overview": "Inspired by the fictional Dr. Heiter, disturbed loner Martin dreams of creating a 12-person centipede and sets out to realize his sick fantasy.", "poster_path": "/kFtAdkCO0vXN2RWu2oMcR9GZ9Hi.jpg", "release_date": "2011-10-06", "title": "The Human Centipede 2 (Full Sequence)", "video": false, "vote_average": 4.5, "vote_count": 674, "popularity": 14.216}, {"adult": false, "backdrop_path": "/sP1d39946QhP3lkoJZ7qUJOb9fa.jpg", "genre_ids": [12, 27, 53], "id": 30877, "original_language": "it", "original_title": "Inferno in diretta", "overview": "A reporter and her cameraman connect a surviving Jonestown leader and a TV exec's missing son to a drug war where jungle installations are being massacred by an army of natives and a skilled white assassin.", "poster_path": "/uskRcGmNIQrMw3xnuObqeeDOxsh.jpg", "release_date": "1985-08-08", "title": "Cut and Run", "video": false, "vote_average": 5.9, "vote_count": 28, "popularity": 5.11}, {"adult": false, "backdrop_path": "/iZOgAvUt6q356da1sfYz1UalNO.jpg", "genre_ids": [80, 18, 10749, 53], "id": 3134, "original_language": "fr", "original_title": "Baise-moi", "overview": "Manu has lived a difficult life. Abused and violently raped, she sets off to find herself only to meet Nadine, a prostitute who has encountered one too many injustices in the world. Angry at the world, they embark on a twisted, rage-filled road trip. They choose to have sex when they please and kill when they need. Leaving a trail of mischief and dead bodies in their wake. Generating a media blitz and manhunt, soon everyone is out to capture the young fugitives.", "poster_path": "/sLvsIgWMH9bV1IZnZOzY5dXKUHe.jpg", "release_date": "2000-06-28", "title": "Baise-moi", "video": false, "vote_average": 4.3, "vote_count": 173, "popularity": 14.535}, {"id": 8090, "video": false, "vote_count": 448, "vote_average": 6.1, "title": "Untraceable", "release_date": "2008-01-22", "original_language": "en", "original_title": "Untraceable", "genre_ids": [9648, 53], "backdrop_path": "/eXuIPt9I1xuaVddlgzEQRC2EMnJ.jpg", "adult": false, "overview": "Special Agent Jennifer Marsh (Diane Lane) works in an elite division of the FBI dedicated to fighting cybercrime. She thinks she has seen it all, until a particularly sadistic criminal arises on the Internet. This tech-savvy killer posts live feeds of his crimes on his website; the more hits the site gets, the faster the victim dies. Marsh and her team must find the elusive killer before time runs out.", "poster_path": "/ySUwDRDEn01lKIMPQorpFCMLWqE.jpg", "popularity": 14.431}, {"id": 37430, "video": false, "vote_count": 1122, "vote_average": 5.2, "title": "Conan the Barbarian", "release_date": "2011-08-17", "original_language": "en", "original_title": "Conan the Barbarian", "genre_ids": [28, 12, 14], "backdrop_path": "/381rd4LVvy6AkSB9tqHNu81ftyR.jpg", "adult": false, "overview": "A quest that begins as a personal vendetta for the fierce Cimmerian warrior soon turns into an epic battle against hulking rivals, horrific monsters, and impossible odds, as Conan (Jason Momoa) realizes he is the only hope of saving the great nations of Hyboria from an encroaching reign of supernatural evil.", "poster_path": "/fQ0lcaOpn2WozSnL5hfAhH6tYOA.jpg", "popularity": 20.99}, {"id": 311, "video": false, "vote_count": 2595, "vote_average": 8.4, "title": "Once Upon a Time in America", "release_date": "1984-05-23", "original_language": "en", "original_title": "Once Upon a Time in America", "genre_ids": [80, 18], "backdrop_path": "/vnT6HzjLSDrAweHn9xWykb8Ii6T.jpg", "adult": false, "overview": "A former Prohibition-era Jewish gangster returns to the Lower East Side of Manhattan over thirty years later, where he once again must confront the ghosts and regrets of his old life.", "poster_path": "/x733R4ISI0RbKeHhVkXdTMFmTFr.jpg", "popularity": 22.233}, {"adult": false, "backdrop_path": "/nfm6JCKUaM6dT0mATmShLY6cpmc.jpg", "genre_ids": [18, 10752], "id": 600, "original_language": "en", "original_title": "Full Metal Jacket", "overview": "A pragmatic U.S. Marine observes the dehumanizing effects the U.S.-Vietnam War has on his fellow recruits from their brutal boot camp training to the bloody street fighting in Hue.", "poster_path": "/29veIwD38rVL2qY74emXQw4y25H.jpg", "release_date": "1987-06-26", "title": "Full Metal Jacket", "video": false, "vote_average": 8.1, "vote_count": 5897, "popularity": 25.207}, {"adult": false, "backdrop_path": "/bJLJAtGjBj836UjJZNOwgrfe5Ps.jpg", "genre_ids": [80, 18], "id": 359940, "original_language": "en", "original_title": "Three Billboards Outside Ebbing, Missouri", "overview": "After seven months have passed without a culprit in her daughter's murder case, Mildred Hayes makes a bold move, painting three signs leading into her town with a controversial message directed at Bill Willoughby, the town's revered chief of police. When his second-in-command Officer Jason Dixon, an immature mother's boy with a penchant for violence, gets involved, the battle between Mildred and Ebbing's law enforcement is only exacerbated.", "poster_path": "/vgvw6w1CtcFkuXXn004S5wQsHRl.jpg", "release_date": "2017-11-10", "title": "Three Billboards Outside Ebbing, Missouri", "video": false, "vote_average": 8.2, "vote_count": 6122, "popularity": 26.303}, {"adult": false, "backdrop_path": "/fmo48Lt8XtMWeHeXJzi5SbPCJud.jpg", "genre_ids": [18, 27, 80], "id": 1696, "original_language": "en", "original_title": "The Devil's Rejects", "overview": "The sequel to House of 1000 Corpses \u2013 the Firefly family are ambushed at their isolated home by Sheriff Wydell and a squad of armed men guns blazing \u2013 yet only Otis and his sister, Baby, manage to escape the barrage of bullets unharmed. Hiding out in a backwater motel, the wanted siblings wait to rendezvous with their errant father, Captain Spaulding, killing whoever happens to stand in their way.", "poster_path": "/fj4rrpUlBpFjPaJecpjID6yqacx.jpg", "release_date": "2005-07-22", "title": "The Devil's Rejects", "video": false, "vote_average": 6.7, "vote_count": 720, "popularity": 14.155}, {"adult": false, "backdrop_path": "/a24i4Qw6qFTtkFLQsncv8WPwevj.jpg", "genre_ids": [53, 28, 80], "id": 345887, "original_language": "en", "original_title": "The Equalizer 2", "overview": "Robert McCall, who serves an unflinching justice for the exploited and oppressed, embarks on a relentless, globe-trotting quest for vengeance when a long-time girl friend is murdered.", "poster_path": "/cQvc9N6JiMVKqol3wcYrGshsIdZ.jpg", "release_date": "2018-07-19", "title": "The Equalizer 2", "video": false, "vote_average": 6.5, "vote_count": 2483, "popularity": 21.271}, {"adult": false, "backdrop_path": "/o4psXh7IVD6GFKvBSHjHLzjL2lV.jpg", "genre_ids": [27, 53], "id": 10781, "original_language": "en", "original_title": "The Texas Chainsaw Massacre: The Beginning", "overview": "Chrissie and her friends set out on a road trip for a final fling before one is shipped off to Vietnam. Along the way, bikers harass the foursome and cause an accident that throws Chrissie from the vehicle. The lawman who arrives on the scene kills one of the bikers and brings Chrissie's friends to the Hewitt homestead, where young Leatherface is learning the tools of terror.", "poster_path": "/9elCJIG1TOJ0wew3JVx5ZMkHq5w.jpg", "release_date": "2006-10-06", "title": "The Texas Chainsaw Massacre: The Beginning", "video": false, "vote_average": 6.0, "vote_count": 936, "popularity": 19.211}, {"adult": false, "backdrop_path": "/pA64Ov7lDpwXBu33yq0KpmAOYJL.jpg", "genre_ids": [27, 53], "id": 357096, "original_language": "en", "original_title": "I Spit on Your Grave III: Vengeance is Mine", "overview": "Jennifer Hills is still tormented by the brutal sexual assault she endured years ago. She\u2019s changed identities and cities, reluctantly joining a support group where she begins to piece together a new life. But when her new friend\u2019s murderer goes free and the tales of serial rapists haunt her, Jennifer will hunt down the men responsible and do what the system won\u2019t \u2013 make them pay for their crimes in the most horrific ways imaginable. Only this time, no jury may be able to save her.", "poster_path": "/6SnOlgrUoC5jqmgcYIM5lde5zYq.jpg", "release_date": "2015-10-01", "title": "I Spit on Your Grave III: Vengeance is Mine", "video": false, "vote_average": 5.3, "vote_count": 437, "popularity": 20.815}, {"id": 1632, "video": false, "vote_count": 770, "vote_average": 7.6, "title": "Mississippi Burning", "release_date": "1988-12-08", "original_language": "en", "original_title": "Mississippi Burning", "genre_ids": [80, 18, 53], "backdrop_path": "/4ypwob4uxh0q1osOFq2Wh7zdopT.jpg", "adult": false, "overview": "Two FBI agents investigating the murder of civil rights workers during the 60s seek to breach the conspiracy of silence in a small Southern town where segregation divides black and white. The younger agent trained in FBI school runs up against the small town ways of his partner, a former sheriff.", "poster_path": "/uSukdUQwx0l4rRuMXNqugR1tu4n.jpg", "popularity": 16.862}, {"id": 994, "video": false, "vote_count": 444, "vote_average": 7.2, "title": "Straw Dogs", "release_date": "1971-12-23", "original_language": "en", "original_title": "Straw Dogs", "genre_ids": [80, 18, 53], "backdrop_path": "/yL7uVOyvwZeP2U0zKIE3WQqoilA.jpg", "adult": false, "overview": "David Sumner, a mild-mannered academic from the United States, marries Amy, an Englishwoman. In order to escape a hectic stateside lifestyle, David and his wife relocate to the small town in rural Cornwall where Amy was raised. There, David is ostracized by the brutish men of the village, including Amy's old flame, Charlie. Eventually the taunts escalate, and two of the locals rape Amy. This sexual assault awakes a shockingly violent side of David.", "poster_path": "/yigkfHE1OhkxPPrjrV78Y9ibGEk.jpg", "popularity": 15.307}, {"adult": false, "backdrop_path": "/uUYCUbgI5VxsUflTMI4Y9L2Y6vb.jpg", "genre_ids": [80, 18, 53], "id": 11423, "original_language": "ko", "original_title": "\uc0b4\uc778\uc758 \ucd94\uc5b5", "overview": "1986 Gyunggi Province. The body of a young woman is found brutally raped and murdered. Two months later, a series of rapes and murders commences under similar circumstances. And in a country that had never known such crimes, the dark whispers about a serial murderer grow louder. A special task force is set up in the area, with two local detectives Park Doo-Man and Jo Young-Goo joined by a detective from Seoul who requested to be assigned to the case.", "poster_path": "/gawnVe9cFowdoDLo9Pok12NTw39.jpg", "release_date": "2003-05-02", "title": "Memories of Murder", "video": false, "vote_average": 8.1, "vote_count": 1093, "popularity": 13.452}, {"id": 8461, "video": false, "vote_count": 1137, "vote_average": 6.5, "title": "Funny Games", "release_date": "2007-10-20", "original_language": "en", "original_title": "Funny Games", "genre_ids": [80, 18, 27, 53], "backdrop_path": "/x0IvYeF88qYoKkigRjJ9CiyfY6b.jpg", "adult": false, "overview": "When Ann, husband George, and son Georgie arrive at their holiday home they are visited by a pair of polite and seemingly pleasant young men. Armed with deceptively sweet smiles and some golf clubs, they proceed to terrorize and torture the tight-knit clan, giving them until the next day to survive.", "poster_path": "/eyYqrggNEJpoqulbyaDBW2ABjwO.jpg", "popularity": 11.214}, {"adult": false, "backdrop_path": "/7Z9OmWJszjjvjh5N2Mv14uYmLoC.jpg", "genre_ids": [80, 53, 27, 18], "id": 18405, "original_language": "en", "original_title": "The Last House on the Left", "overview": "A group of teenage girls heading into the city hook up with a gang of drug-addled ne'er-do-wells and are brutally murdered. The killers find their way to the home of one of their victim's parents, where both father and mother exact a horrible revenge.", "poster_path": "/tpjP9MLDRq6aC1MTpFcJEOYOGtj.jpg", "release_date": "2009-03-13", "title": "The Last House on the Left", "video": false, "vote_average": 6.4, "vote_count": 901, "popularity": 17.245}, {"adult": false, "backdrop_path": "/a0UYovVNPVfWILYT7TzD10xBX3q.jpg", "genre_ids": [18, 53, 80, 9648], "id": 979, "original_language": "fr", "original_title": "Irr\u00e9versible", "overview": "Events over the course of one traumatic night in Paris unfold in reverse-chronological order as the beautiful Alex is brutally raped and beaten by a stranger in the underpass. Her boyfriend and ex-lover take matters into their own hands by hiring two criminals to help them find the rapist so that they can exact revenge. A simultaneously beautiful and terrible examination of the destructive nature of cause and effect, and how time destroys everything.", "poster_path": "/rxeDxo8FvZpLu6iplNpxdtAVnfu.jpg", "release_date": "2002-05-22", "title": "Irreversible", "video": false, "vote_average": 7.1, "vote_count": 1216, "popularity": 20.416}], "total_pages": 65, "total_results": 1290}, "recommendations": {"page": 1, "results": [{"adult": false, "backdrop_path": "/jw7I4tZkHHvzx2d7xRboYEQhN0C.jpg", "genre_ids": [18], "id": 30322, "original_language": "es", "original_title": "La oveja negra", "overview": "The Trevino family tries to overcome the irresponsible behavior of Don Cruz, an erratic father with numerous defects that contrast with his son Silvano, a young kid man that is incapable of passing judgment on his own father.", "poster_path": "/yc7KxKp9H7kHWdqHlDDscGZmhVI.jpg", "release_date": "1949-12-24", "title": "La oveja negra", "video": false, "vote_average": 7.5, "vote_count": 4, "popularity": 1.982}], "total_pages": 1, "total_results": 1}, "credits": {"cast": [{"cast_id": 2, "character": "C\u00e1ndido Castro", "credit_id": "58d416b3c3a3681234017518", "gender": 2, "id": 96973, "name": "Pedro Armend\u00e1riz", "order": 1, "profile_path": "/yGYb49OKTcmvdVxrQutZrmbM15v.jpg"}, {"cast_id": 3, "character": "Modesta", "credit_id": "58d416c49251411faa018061", "gender": 0, "id": 177785, "name": "Ariadna Welter", "order": 2, "profile_path": "/nnrc6DwYhANz6Bp7j2OnrZOrXNL.jpg"}, {"cast_id": 4, "character": "Celso", "credit_id": "58d416d492514103d2001ca9", "gender": 2, "id": 717052, "name": "V\u00edctor Junco", "order": 3, "profile_path": "/q7LE0rHTL8Q6Qmk4h872By75OWf.jpg"}, {"cast_id": 5, "character": "Don F\u00e9lix", "credit_id": "58d416e79251411fdc018cfb", "gender": 2, "id": 22890, "name": "Carlos L\u00f3pez Moctezuma", "order": 4, "profile_path": "/xfgCMsxkTOnbbijUpFfx8A8mi6T.jpg"}, {"cast_id": 6, "character": "Aurea", "credit_id": "58d416f89251411faa018087", "gender": 1, "id": 587902, "name": "Amanda del Llano", "order": 5, "profile_path": "/9MP6hYYwGkRgvD44Gd2TO42Gj4j.jpg"}, {"cast_id": 7, "character": "Urbano", "credit_id": "58d4170892514103d2001cbb", "gender": 2, "id": 31887, "name": "Jaime Fern\u00e1ndez", "order": 6, "profile_path": "/6T089MKJ9BdCI6xd5dwYHxcxkLF.jpg"}, {"cast_id": 10, "character": "Don Acacio", "credit_id": "58d45314c3a368125f01a3ad", "gender": 2, "id": 31884, "name": "Luis Aceves Casta\u00f1eda", "order": 7, "profile_path": "/grdXNAu8pxlNt0oD0nyV749mHAK.jpg"}, {"cast_id": 11, "character": "Don Severo", "credit_id": "58d45329c3a368127c01a1ae", "gender": 2, "id": 623776, "name": "Miguel \u00c1ngel Ferriz", "order": 8, "profile_path": null}, {"cast_id": 12, "character": "El picaro", "credit_id": "58d4533ec3a368125f01a3dc", "gender": 0, "id": 987326, "name": "\u00c1lvaro Matute", "order": 9, "profile_path": null}, {"cast_id": 13, "character": "Don Gabriel", "credit_id": "58d45351c3a368121b0192bc", "gender": 2, "id": 100570, "name": "Tito Junco", "order": 10, "profile_path": "/vnhhEoTjxWPlVqZsrJeecPuLcwM.jpg"}, {"cast_id": 14, "character": "Gusano", "credit_id": "58d4557bc3a368121b019513", "gender": 0, "id": 31886, "name": "Agust\u00edn Fern\u00e1ndez", "order": 11, "profile_path": null}, {"cast_id": 15, "character": "Don Ra\u00fal", "credit_id": "58d45590c3a368123401a605", "gender": 2, "id": 31882, "name": "Carlos Riquelme", "order": 12, "profile_path": null}, {"cast_id": 16, "character": "Pascacio", "credit_id": "58d455a49251411fd501b499", "gender": 0, "id": 1685146, "name": "Ramiro Orci", "order": 13, "profile_path": null}, {"cast_id": 17, "character": "Mart\u00edn Trinidad", "credit_id": "58d455b79251411fdc01bf45", "gender": 0, "id": 31885, "name": "Rogelio Fern\u00e1ndez", "order": 14, "profile_path": null}, {"cast_id": 18, "character": "Gordo", "credit_id": "58d455cc92514103d2004e2b", "gender": 2, "id": 1002073, "name": "Guillermo \u00c1lvarez Bianchi", "order": 15, "profile_path": null}, {"cast_id": 19, "character": "Doctor", "credit_id": "58d455df9251411fd501b4f8", "gender": 0, "id": 1040937, "name": "Eduardo Alcaraz", "order": 16, "profile_path": "/xPyfsX3ESSULGQXwdpgnj12xLj9.jpg"}, {"cast_id": 20, "character": "Director funerario", "credit_id": "58d455f2c3a368125f01a71e", "gender": 2, "id": 108688, "name": "Francisco Reiguera", "order": 17, "profile_path": "/mX0E83iSVdgwAWLZP6RHPqzxJxn.jpg"}, {"cast_id": 21, "character": "Felipe", "credit_id": "58d45607c3a368126f0197a4", "gender": 0, "id": 30308, "name": "Margarito Luna", "order": 18, "profile_path": null}, {"cast_id": 22, "character": "Angelito", "credit_id": "58d4562c9251411f9001bc1c", "gender": 2, "id": 256448, "name": "Ismael P\u00e9rez", "order": 19, "profile_path": "/q0rtJd6c84SEFL4UylOjwN8xSMM.jpg"}, {"cast_id": 23, "character": "(uncredited)", "credit_id": "58d45661c3a368124f01a9cb", "gender": 2, "id": 103795, "name": "Roberto Contreras", "order": 20, "profile_path": null}, {"cast_id": 24, "character": "(uncredited)", "credit_id": "58d4567cc3a368124f01a9ea", "gender": 0, "id": 1597033, "name": "Bruno M\u00e1rquez", "order": 21, "profile_path": null}, {"cast_id": 25, "character": "(uncredited)", "credit_id": "58d4568cc3a368125f01a7db", "gender": 0, "id": 1663318, "name": "Salvador Terroba", "order": 22, "profile_path": null}, {"cast_id": 26, "character": "Capataz (uncredited)", "credit_id": "58d456a192514103d2004f5e", "gender": 0, "id": 179522, "name": "Emilio Garibay", "order": 23, "profile_path": null}], "crew": [{"credit_id": "54bf363d92514148b000bd69", "department": "Directing", "gender": 0, "id": 105145, "job": "Director", "name": "Alfredo B. Crevenna", "profile_path": null}, {"credit_id": "54bf36559251416e60007ee9", "department": "Directing", "gender": 2, "id": 8259, "job": "Director", "name": "Emilio Fern\u00e1ndez", "profile_path": "/hCVwwh6e5gCZQumxkS9HlZhMT1h.jpg"}, {"credit_id": "58d417349251411f81018892", "department": "Writing", "gender": 2, "id": 96819, "job": "Screenplay", "name": "John Bright", "profile_path": null}, {"credit_id": "58d4174692514103d2001cea", "department": "Writing", "gender": 0, "id": 30302, "job": "Novel", "name": "B. Traven", "profile_path": null}, {"credit_id": "58d4595c9251411f9001c0a3", "department": "Sound", "gender": 0, "id": 31866, "job": "Original Music Composer", "name": "Antonio D\u00edaz Conde", "profile_path": null}, {"credit_id": "58d4596d9251411faa01b4fc", "department": "Camera", "gender": 2, "id": 11968, "job": "Director of Photography", "name": "Gabriel Figueroa", "profile_path": "/p9K3OZhXT7qqbetucqOeryd5Wyj.jpg"}, {"credit_id": "58d45982c3a368124f01ae6a", "department": "Editing", "gender": 0, "id": 31867, "job": "Editor", "name": "Gloria Schoemann", "profile_path": "/h9CmBSbhe19hfpsLocKefPmB6X1.jpg"}, {"credit_id": "58d45994c3a368121b019ac6", "department": "Art", "gender": 2, "id": 31868, "job": "Production Design", "name": "Manuel Fontanals", "profile_path": null}, {"credit_id": "58d459b392514103d20053a5", "department": "Camera", "gender": 0, "id": 31875, "job": "Camera Operator", "name": "Ignacio Romero", "profile_path": null}]}}