{"adult": false, "backdrop_path": "/uu1vNWDu0ms0eVudknR0u3qaLlm.jpg", "belongs_to_collection": null, "budget": 0, "genres": [{"id": 18, "name": "Drama"}], "homepage": null, "id": 320534, "imdb_id": "tt1956447", "original_language": "pl", "original_title": "Bokser", "overview": "", "popularity": 0.635, "poster_path": "/4eD0jxEWyYXC51EWvPTCysju6yo.jpg", "production_companies": [{"id": 5622, "logo_path": null, "name": "TVN", "origin_country": ""}], "production_countries": [{"iso_3166_1": "PL", "name": "Poland"}], "release_date": "2012-04-08", "revenue": 0, "runtime": null, "spoken_languages": [{"iso_639_1": "pl", "name": "Polski"}], "status": "Released", "tagline": "", "title": "Bokser", "video": false, "vote_average": 7.0, "vote_count": 1, "keywords": {"keywords": [{"id": 970, "name": "parent child relationship"}, {"id": 1157, "name": "husband wife relationship"}, {"id": 1604, "name": "operation"}, {"id": 1721, "name": "fight"}, {"id": 2792, "name": "boxer"}, {"id": 3725, "name": "pregnancy"}, {"id": 5378, "name": "world champion"}, {"id": 10061, "name": "dysfunctional marriage"}, {"id": 11612, "name": "hospital"}, {"id": 18111, "name": "kickboxing"}, {"id": 33498, "name": "transplant"}, {"id": 40895, "name": "illness"}, {"id": 173655, "name": "hospital room"}, {"id": 189093, "name": "ring"}, {"id": 208104, "name": "kidney"}]}, "similar": {"page": 1, "results": [{"adult": false, "backdrop_path": "/4Hsk6Rh2kpUTmlnsjxMiXWiPBSb.jpg", "genre_ids": [35, 18], "id": 400579, "original_language": "en", "original_title": "Tully", "overview": "Marlo, a mother of three, including a newborn, is gifted a night nanny by her brother. Hesitant at first, she quickly forms a bond with the thoughtful, surprising, and sometimes challenging nanny named Tully.", "poster_path": "/wDI4YXBXolMYi15Qx2kClvdSERM.jpg", "release_date": "2018-05-04", "title": "Tully", "video": false, "vote_average": 6.9, "vote_count": 766, "popularity": 15.626}, {"id": 277216, "video": false, "vote_count": 2190, "vote_average": 7.7, "title": "Straight Outta Compton", "release_date": "2015-08-13", "original_language": "en", "original_title": "Straight Outta Compton", "genre_ids": [18, 10402], "backdrop_path": "/fdDTA06o5e7MRXnTGAf4EygL2MJ.jpg", "adult": false, "overview": "In 1987, five young men, using brutally honest rhymes and hardcore beats, put their frustration and anger about life in the most dangerous place in America into the most powerful weapon they had: their music.  Taking us back to where it all began, Straight Outta Compton tells the true story of how these cultural rebels\u2014armed only with their lyrics, swagger, bravado and raw talent\u2014stood up to the authorities that meant to keep them down and formed the world\u2019s most dangerous group, N.W.A.  And as they spoke the truth that no one had before and exposed life in the hood, their voice ignited a social revolution that is still reverberating today.", "poster_path": "/X7S1RtotXOZNV7OlgCfh5VKZSB.jpg", "popularity": 19.816}, {"adult": false, "backdrop_path": "/xx9DyVNmehDJPrYGsy9AJgYzAtd.jpg", "genre_ids": [18], "id": 1367, "original_language": "en", "original_title": "Rocky II", "overview": "After Rocky goes the distance with champ Apollo Creed, both try to put the fight behind them and move on. Rocky settles down with Adrian but can't put his life together outside the ring, while Creed seeks a rematch to restore his reputation. Soon enough, the \"Master of Disaster\" and the \"Italian Stallion\" are set on a collision course for a climactic battle that is brutal and unforgettable.", "poster_path": "/fqJH7mI4dFANRay8qdJoGa7fK1k.jpg", "release_date": "1979-06-15", "title": "Rocky II", "video": false, "vote_average": 7.1, "vote_count": 2345, "popularity": 27.206}, {"id": 70, "video": false, "vote_count": 5415, "vote_average": 7.9, "title": "Million Dollar Baby", "release_date": "2004-12-15", "original_language": "en", "original_title": "Million Dollar Baby", "genre_ids": [18], "backdrop_path": "/7nGW4MhYQ7sJfp482XkrgqPYQ2S.jpg", "adult": false, "overview": "Despondent over a painful estrangement from his daughter, trainer Frankie Dunn isn't prepared for boxer Maggie Fitzgerald to enter his life. But Maggie's determined to go pro and to convince Dunn and his cohort to help her.", "poster_path": "/h4VZKi2Jt4VoBYJmtC4c3bO8KqM.jpg", "popularity": 22.24}, {"id": 1366, "video": false, "vote_count": 4244, "vote_average": 7.7, "title": "Rocky", "release_date": "1976-11-21", "original_language": "en", "original_title": "Rocky", "genre_ids": [18], "backdrop_path": "/2kkyt0FLROrXt41IgSdE7goCFNQ.jpg", "adult": false, "overview": "When world heavyweight boxing champion, Apollo Creed wants to give an unknown fighter a shot at the title as a publicity stunt, his handlers choose palooka Rocky Balboa, an uneducated collector for a Philadelphia loan shark. Rocky teams up with trainer  Mickey Goldmill to make the most of this once in a lifetime break.", "poster_path": "/9TUR3s1PMJHwDRbpm7PWQ0S7IRy.jpg", "popularity": 31.646}, {"id": 1375, "video": false, "vote_count": 1670, "vote_average": 5.6, "title": "Rocky V", "release_date": "1990-10-18", "original_language": "en", "original_title": "Rocky V", "genre_ids": [18], "backdrop_path": "/dr5pdEDOdCvelCQqP32UZubiSgE.jpg", "adult": false, "overview": "A lifetime of taking shots has ended Rocky\u2019s career, and a crooked accountant has left him broke. Inspired by the memory of his trainer, however, Rocky finds glory in training and takes on an up-and-coming boxer.", "poster_path": "/5P2RiuLt31mWyb6duww8qlAhs6G.jpg", "popularity": 22.518}, {"adult": false, "backdrop_path": "/useuHJQ5HOoEWkAvEjL1FW1sUfe.jpg", "genre_ids": [18], "id": 376867, "original_language": "en", "original_title": "Moonlight", "overview": "The tender, heartbreaking story of a young man\u2019s struggle to find himself, told across three defining chapters in his life as he experiences the ecstasy, pain, and beauty of falling in love, while grappling with his own sexuality.", "poster_path": "/qAwFbszz0kRyTuXmMeKQZCX3Q2O.jpg", "release_date": "2016-10-21", "title": "Moonlight", "video": false, "vote_average": 7.4, "vote_count": 4410, "popularity": 21.716}, {"id": 110415, "video": false, "vote_count": 5361, "vote_average": 6.8, "title": "Snowpiercer", "release_date": "2013-08-01", "original_language": "ko", "original_title": "Snowpiercer", "genre_ids": [28, 18, 878], "backdrop_path": "/dUrRhiIb9sWckFsKmdNR39Ot1eG.jpg", "adult": false, "overview": "In a future where a failed global-warming experiment kills off most life on the planet, a class system evolves aboard the Snowpiercer, a train that travels around the globe via a perpetual-motion engine.", "poster_path": "/oP0ZWr6MsaQ1TV7xvnZJMKSfz0H.jpg", "popularity": 23.595}, {"id": 40807, "video": false, "vote_count": 2337, "vote_average": 7.1, "title": "50/50", "release_date": "2011-09-30", "original_language": "en", "original_title": "50/50", "genre_ids": [35, 18], "backdrop_path": "/kGac26bIqfwm8eqbP1RjKP70brE.jpg", "adult": false, "overview": "Inspired by a true story, a comedy centered on a 27-year-old guy who learns of his cancer diagnosis, and his subsequent struggle to beat the disease.", "poster_path": "/uDKmnFHqE3rQ9r6ErQsOZWuzXN8.jpg", "popularity": 13.937}, {"adult": false, "backdrop_path": "/r8pjTYuz3fDOFAhHNrhrsrh9lNa.jpg", "genre_ids": [18], "id": 294016, "original_language": "en", "original_title": "Trumbo", "overview": "The career of screenwriter Dalton Trumbo is halted by a witch hunt in the late 1940s when he defies the anti-communist HUAC committee and is blacklisted.", "poster_path": "/zShoKppVxFtRP8pIVeVQ4j2DEkz.jpg", "release_date": "2015-10-27", "title": "Trumbo", "video": false, "vote_average": 7.2, "vote_count": 971, "popularity": 11.721}, {"adult": false, "backdrop_path": "/avhG8fITuG78IkKPk28CcBBHPOp.jpg", "genre_ids": [35, 18], "id": 112160, "original_language": "fr", "original_title": "Chroniques sexuelles d'une famille d'aujourd'hui", "overview": "Three generations of a French family open up about their sexual experiences and desires after young Romain is caught masturbating in his biology class.", "poster_path": "/pU2nD3Llaz3Taq5FAaQUg00uJYD.jpg", "release_date": "2012-05-09", "title": "Sexual Chronicles of a French Family", "video": false, "vote_average": 4.4, "vote_count": 169, "popularity": 26.875}, {"adult": false, "backdrop_path": "/ojn7IYKmMt8HXRd6oLwY5pLGLVc.jpg", "genre_ids": [18, 10749], "id": 9587, "original_language": "en", "original_title": "Little Women", "overview": "With their father away as a chaplain in the Civil War, Jo, Meg, Beth and Amy grow up with their mother in somewhat reduced circumstances. They are a close family who inevitably have their squabbles and tragedies. But the bond holds even when, later, male friends start to become a part of the household.", "poster_path": "/tD9YDE8pjtSvvKUpkmooE6YDSm8.jpg", "release_date": "1994-12-21", "title": "Little Women", "video": false, "vote_average": 7.2, "vote_count": 574, "popularity": 18.707}, {"adult": false, "backdrop_path": "/ecREZ3vYCqethftSDWK4we0X498.jpg", "genre_ids": [35, 18, 10749], "id": 4507, "original_language": "es", "original_title": "Jam\u00f3n, jam\u00f3n", "overview": "Jose Luis is an executive at his parents underwear factory where his girlfriend Sylvia works on the shop floor. When Sylvia becomes pregnant, Jose Luis promises her that he will marry her, most likely against the wishes of his parents. Jose Luis' mother is determined to break her son's engagement to a girl from a lower-class family, and hires Raul, a potential underwear model and would-be bullfighter to seduce Sylvia.", "poster_path": "/v5Fq01ZtYnA2Grxdd3g8CuGZARg.jpg", "release_date": "1992-09-03", "title": "Jamon Jamon", "video": false, "vote_average": 6.1, "vote_count": 143, "popularity": 13.381}, {"adult": false, "backdrop_path": "/by0WtpJ5UNxOy6ytIfPPTasbRoB.jpg", "genre_ids": [28, 12, 35, 18, 10751, 10402, 10749], "id": 17130, "original_language": "en", "original_title": "Crossroads", "overview": "Three friends get together and bury a box making a pact to open it at midnight at their high school graduation. In the little town in Georgia that they live in, things soon change. One is little miss perfect, one is an engaged prom queen, and the other is a pregnant outcast. The night of graduation, they open the box and they strike up a conversation. All of a sudden, one brings up the topic of her going to Los Angeles for a record contract audition. They all decide to go together and they leave. With a little money, they set out on the road with a guy named Ben. When one of them tells the other a rumor that he might be a homicidal maniac they are all scared of him. When they reach LA, Lucy falls in love with Ben and against her father's wishes, she stays and she goes to the audition.", "poster_path": "/egIs4cWxn0iBErFKrQ7STckjj49.jpg", "release_date": "2002-02-15", "title": "Crossroads", "video": false, "vote_average": 5.0, "vote_count": 334, "popularity": 14.197}, {"id": 39254, "video": false, "vote_count": 4971, "vote_average": 6.8, "title": "Real Steel", "release_date": "2011-09-28", "original_language": "en", "original_title": "Real Steel", "genre_ids": [28, 18, 878], "backdrop_path": "/bwaMcX2zjfc3C7YLBWRnBnHEDHW.jpg", "adult": false, "overview": "Charlie Kenton is a washed-up fighter who retired from the ring when robots took over the sport. After his robot is trashed, he reluctantly teams up with his estranged son to rebuild and train an unlikely contender.", "poster_path": "/drtXi58nN6P3zcoLh6wUlsZAYqh.jpg", "popularity": 21.957}, {"id": 326285, "video": false, "vote_count": 379, "vote_average": 6.1, "title": "American Pastoral", "release_date": "2016-10-20", "original_language": "en", "original_title": "American Pastoral", "genre_ids": [80, 18], "backdrop_path": "/jUA6DRV3aGqwPFyiDqPD3idAFw1.jpg", "adult": false, "overview": "Set in postwar America, a man watches his seemingly perfect life fall apart as his daughter's new political affiliation threatens to destroy their family.", "poster_path": "/5RSZR8clQh6170hRODWH5yS9nHS.jpg", "popularity": 9.635}, {"id": 458, "video": false, "vote_count": 211, "vote_average": 7.2, "title": "Sissi: The Young Empress", "release_date": "1956-12-01", "original_language": "de", "original_title": "Sissi - Die junge Kaiserin", "genre_ids": [35, 18, 10749], "backdrop_path": "/4SPSm58I1fp2HmMRUZHgUgC8XS1.jpg", "adult": false, "overview": "Sissi is now the empress of Austria and attempts to learn etiquette. While she is busy being empress she also has to deal with her difficult new mother-in-law, while the arch-duchess Sophie is trying to tell the emperor how to rule and also Sissi how to be a mother.", "poster_path": "/xXD0HpgGzJejnjCCGAWd7Lpmg90.jpg", "popularity": 11.152}, {"adult": false, "backdrop_path": "/plnmzCMPAb3suBAUJ4Yi2NC1APA.jpg", "genre_ids": [35], "id": 35056, "original_language": "en", "original_title": "Date Night", "overview": "Phil and Claire Foster fear that their mild-mannered relationship may be falling into a stale rut. During their weekly date night, their dinner reservation leads to their being mistaken for a couple of thieves\u2014and now a number of unsavoury characters want Phil and Claire killed.", "poster_path": "/fzzPht9KId6Ollow30jYtABhDY3.jpg", "release_date": "2010-04-08", "title": "Date Night", "video": false, "vote_average": 6.0, "vote_count": 1888, "popularity": 14.813}, {"adult": false, "backdrop_path": "/bvbyidkMaBls1LTaIWYY6UmYTaL.jpg", "genre_ids": [28, 878], "id": 336843, "original_language": "en", "original_title": "Maze Runner: The Death Cure", "overview": "Thomas leads his group of escaped Gladers on their final and most dangerous mission yet. To save their friends, they must break into the legendary Last City, a WCKD-controlled labyrinth that may turn out to be the deadliest maze of all. Anyone who makes it out alive will get answers to the questions the Gladers have been asking since they first arrived in the maze.", "poster_path": "/2zYfzA3TBwrMC8tfFbpiTLODde0.jpg", "release_date": "2018-01-10", "title": "Maze Runner: The Death Cure", "video": false, "vote_average": 7.0, "vote_count": 4396, "popularity": 25.259}, {"id": 473149, "video": false, "vote_count": 195, "vote_average": 5.9, "title": "Traffik", "release_date": "2018-04-20", "original_language": "en", "original_title": "Traffik", "genre_ids": [27, 53], "backdrop_path": "/wbk9VvJ8lkUF0ElpfRm3dFIzMJf.jpg", "adult": false, "overview": "A couple off for a romantic weekend in the mountains are accosted by a biker gang. Alone in the mountains, Brea and John must defend themselves against the gang, who will stop at nothing to protect their secrets.", "poster_path": "/e2Z466e9402RFP6wxRMfXYYiJHA.jpg", "popularity": 31.63}], "total_pages": 9, "total_results": 180}, "recommendations": {"page": 1, "results": [], "total_pages": 1, "total_results": 0}, "credits": {"cast": [{"cast_id": 3, "character": "Przemek Saleta", "credit_id": "572b137f92514120b700080f", "gender": 0, "id": 588930, "name": "Szymon Bobrowski", "order": 1, "profile_path": "/zHaiG0BFFRrJ8jR9ueWxfK8G3ZA.jpg"}, {"cast_id": 4, "character": "Willem 'Wolfie' Venter", "credit_id": "572b139a92514120b7000819", "gender": 0, "id": 1469407, "name": "Greg Kriek", "order": 2, "profile_path": "/knY4Xuse11bRkWjUMeiTdOCwvgw.jpg"}, {"cast_id": 5, "character": "Eva", "credit_id": "572b13aec3a36854a30010ed", "gender": 1, "id": 234161, "name": "Anna Przybylska", "order": 3, "profile_path": "/nyUywZcQLUik4uNfHGunbgdqqwU.jpg"}, {"cast_id": 6, "character": "Gary", "credit_id": "572b13c3c3a36848060020f5", "gender": 0, "id": 180053, "name": "Marek Probosz", "order": 4, "profile_path": "/nyccSgSiBZsDTpRrUbve5YfbmGL.jpg"}, {"cast_id": 7, "character": "Przemek's coach", "credit_id": "572b13d99251417e0b000f98", "gender": 2, "id": 107635, "name": "Krzysztof Kiersznowski", "order": 5, "profile_path": "/u5k2Oz74sHLFODwHbkVg960q2YO.jpg"}, {"cast_id": 8, "character": "Kasia", "credit_id": "572b13eec3a368480d00204a", "gender": 0, "id": 131694, "name": "Katarzyna Maciag", "order": 6, "profile_path": "/jZ0KAcf1xdQe1MfZ8T2JOInPiRg.jpg"}, {"cast_id": 9, "character": "Dr.Bielamowicz", "credit_id": "572b140392514154270013d8", "gender": 0, "id": 1208142, "name": "Jerzy Schejbal", "order": 7, "profile_path": "/iBd1GNFcy9EB9yM9SJ9Ni7isuHl.jpg"}, {"cast_id": 10, "character": "Nicole", "credit_id": "572b1416c3a368121a000867", "gender": 0, "id": 1350837, "name": "Emilia Stachurska", "order": 8, "profile_path": "/d0ioq03Uqbe2M878dHuc3aGgxUS.jpg"}], "crew": [{"credit_id": "572b10ee925141711d000e5f", "department": "Writing", "gender": 0, "id": 1615488, "job": "Writer", "name": "Jaros\u0142aw Banaszek", "profile_path": null}, {"credit_id": "572b10b592514120b7000775", "department": "Directing", "gender": 0, "id": 1615487, "job": "Director", "name": "Tomasz Blachnicki", "profile_path": null}, {"credit_id": "572b10cb925141711d000e55", "department": "Writing", "gender": 0, "id": 1208151, "job": "Writer", "name": "Micha\u0142 Godzic", "profile_path": null}]}}