{"adult": false, "backdrop_path": "/qf9GCC0GfsHk07DKo487sSolruA.jpg", "belongs_to_collection": null, "budget": 0, "genres": [{"id": 12, "name": "Adventure"}], "homepage": null, "id": 321092, "imdb_id": "tt0190065", "original_language": "en", "original_title": "The Tender Warrior", "overview": "The sheriff of a small Georgia town on the edge of the Okefenokee Swamp does nothing to stop a family of white-trash moonshiners from trapping and killing defenseless animals. But Sammy, a young swamp-boy, takes matters into his own hands. Assisted by his pet chimp, Chuck, Sammy launches a campaign to free the trapped animals.", "popularity": 0.876, "poster_path": "/th2ZQ53nkcs5hska4R0QL1qX9vd.jpg", "production_companies": [{"id": 44830, "logo_path": null, "name": "William Thompson Productions Incorporated", "origin_country": ""}, {"id": 44831, "logo_path": null, "name": "Safari Films", "origin_country": ""}], "production_countries": [{"iso_3166_1": "US", "name": "United States of America"}], "release_date": "1971-04-01", "revenue": 0, "runtime": 85, "spoken_languages": [{"iso_639_1": "en", "name": "English"}], "status": "Released", "tagline": "THE HILARIOUS ADVENTURES OF A MODERN DAY TOM SAWYER...", "title": "The Tender Warrior", "video": false, "vote_average": 0.0, "vote_count": 0, "keywords": {"keywords": [{"id": 18330, "name": "nature"}, {"id": 160058, "name": "moonshine"}]}, "similar": {"page": 1, "results": [{"id": 214314, "video": false, "vote_count": 94, "vote_average": 7.3, "title": "Bears", "release_date": "2014-04-17", "original_language": "en", "original_title": "Bears", "genre_ids": [99], "backdrop_path": "/wA8Dct9suP3tZWH1nv7ikQThvD2.jpg", "adult": false, "overview": "Filmmakers Alastair Fothergill and Keith Scholey chronicle a year in the lives of an Alaskan brown bear named Sky and her cubs, Scout and Amber. Their saga begins as the bears emerge from hibernation at the end of winter. As time passes, the bear family must work together to find food and stay safe from other predators, especially other bears. Although their world is exciting, it is also risky, and the cubs' survival hinges on family togetherness.", "poster_path": "/uhxE8FLguSshnlv41lKRvZYZ4av.jpg", "popularity": 11.504}, {"id": 15969, "video": false, "vote_count": 1085, "vote_average": 5.8, "title": "The Return of Jafar", "release_date": "1994-12-15", "original_language": "en", "original_title": "The Return of Jafar", "genre_ids": [12, 16, 10749, 10751], "backdrop_path": "/sLF3zgqfFC6Vev84h9aK4U88M2C.jpg", "adult": false, "overview": "The evil Jafar escapes from the magic lamp as an all-powerful genie, ready to plot his revenge against Aladdin. From battling elusive villains atop winged horses, to dodging flames inside an exploding lava pit, it's up to Aladdin - with Princess Jasmine and the outrageously funny Genie by his side - to save the kingdom once and for all.", "poster_path": "/sC4wDVBMPMxmn5JJqPalMOhQ35U.jpg", "popularity": 22.698}, {"id": 269149, "video": false, "vote_count": 10906, "vote_average": 7.7, "title": "Zootopia", "release_date": "2016-02-11", "original_language": "en", "original_title": "Zootopia", "genre_ids": [12, 16, 35, 10751], "backdrop_path": "/mhdeE1yShHTaDbJVdWyTlzFvNkr.jpg", "adult": false, "overview": "Determined to prove herself, Officer Judy Hopps, the first bunny on Zootopia's police force, jumps at the chance to crack her first case - even if it means partnering with scam-artist fox Nick Wilde to solve the mystery.", "poster_path": "/sM33SANp9z6rXW8Itn7NnG1GOEs.jpg", "popularity": 63.21}, {"id": 2268, "video": false, "vote_count": 2953, "vote_average": 6.0, "title": "The Golden Compass", "release_date": "2007-12-04", "original_language": "en", "original_title": "The Golden Compass", "genre_ids": [12, 14], "backdrop_path": "/qUDa6F6qDp6zcQcw3yuR6Ysc77d.jpg", "adult": false, "overview": "After overhearing a shocking secret, precocious orphan Lyra Belacqua trades her carefree existence roaming the halls of Jordan College for an otherworldly adventure in the far North, unaware that it's part of her destiny.", "poster_path": "/97dPFOvgUb5Q8LjRNt8u6lbJSfp.jpg", "popularity": 19.047}, {"id": 10948, "video": false, "vote_count": 1941, "vote_average": 7.1, "title": "The Fox and the Hound", "release_date": "1981-07-10", "original_language": "en", "original_title": "The Fox and the Hound", "genre_ids": [12, 16, 18, 10751], "backdrop_path": "/87uShMszqPxwA034GsskGdzJOgN.jpg", "adult": false, "overview": "When a feisty little fox named Tod is adopted into a farm family, he quickly becomes friends with a fun and adorable hound puppy named Copper. Life is full of hilarious adventures until Copper is expected to take on his role as a hunting dog -- and the object of his search is his best friend!", "poster_path": "/1382VHxqZDXu2t8i46zf4fP71JG.jpg", "popularity": 18.619}, {"id": 278927, "video": false, "vote_count": 5704, "vote_average": 6.8, "title": "The Jungle Book", "release_date": "2016-04-07", "original_language": "en", "original_title": "The Jungle Book", "genre_ids": [12, 18, 14, 10751], "backdrop_path": "/eIOTsGg9FCVrBc4r2nXaV61JF4F.jpg", "adult": false, "overview": "A man-cub named Mowgli fostered by wolves. After a threat from the tiger Shere Khan, Mowgli is forced to flee the jungle, by which he embarks on a journey of self discovery with the help of the panther, Bagheera and the free-spirited bear, Baloo.", "poster_path": "/vOipe2myi26UDwP978hsYOrnUWC.jpg", "popularity": 40.457}, {"id": 346648, "video": false, "vote_count": 1053, "vote_average": 7.5, "title": "Paddington 2", "release_date": "2017-11-09", "original_language": "en", "original_title": "Paddington 2", "genre_ids": [12, 35, 10751], "backdrop_path": "/mxIrSooBPUoPBukIRFBxjYudQoT.jpg", "adult": false, "overview": "Paddington, now happily settled with the Browns, picks up a series of odd jobs to buy the perfect present for his Aunt Lucy, but it is stolen.", "poster_path": "/zuXMvSQq9F7H29qzuUm0qyUqw6m.jpg", "popularity": 18.948}, {"id": 81, "video": false, "vote_count": 1618, "vote_average": 7.9, "title": "Nausica\u00e4 of the Valley of the Wind", "release_date": "1984-03-11", "original_language": "ja", "original_title": "\u98a8\u306e\u8c37\u306e\u30ca\u30a6\u30b7\u30ab", "genre_ids": [12, 16, 14], "backdrop_path": "/qKIldRZ3jy3uGWdrNIt3P7QA5J3.jpg", "adult": false, "overview": "After a global war, the seaside kingdom known as the Valley of the Wind remains one of the last strongholds on Earth untouched by a poisonous jungle and the powerful insects that guard it. Led by the courageous Princess Nausica\u00e4, the people of the Valley engage in an epic struggle to restore the bond between humanity and Earth.", "poster_path": "/hnYowHwLq0iUWriAHtiiCWsI2dP.jpg", "popularity": 31.577}, {"id": 400157, "video": false, "vote_count": 247, "vote_average": 6.3, "title": "Wonder Park", "release_date": "2019-03-14", "original_language": "en", "original_title": "Wonder Park", "genre_ids": [12, 16, 35, 14, 10751], "backdrop_path": "/nJyAdKPnW15IAvC6sLBTE0lp6Dv.jpg", "adult": false, "overview": "A young girl named June with a big imagination makes an incredible discovery -- the amusement park of her dreams has come to life. Filled with the world's wildest rides operated by fun-loving animals, the excitement never ends. But when trouble hits, June and her misfit team of furry friends begin an unforgettable journey to save the park.", "poster_path": "/8KomINZhIuJeB4oB7k7tkq8tmE.jpg", "popularity": 18.321}, {"adult": false, "backdrop_path": "/jt2XH1zhcBW6PkIGc3OXSGoOx3i.jpg", "genre_ids": [16, 10751, 12, 35], "id": 13053, "original_language": "en", "original_title": "Bolt", "overview": "Bolt is the star of the biggest show in Hollywood. The only problem is, he thinks it's real. After he's accidentally shipped to New York City and separated from Penny, his beloved co-star and owner, Bolt must harness all his \"super powers\" to find a way home.", "poster_path": "/pGA75RbbIDXlUJtzJogAtS0KyxL.jpg", "release_date": "2008-01-29", "title": "Bolt", "video": false, "vote_average": 6.4, "vote_count": 3774, "popularity": 26.7}, {"id": 12599, "video": false, "vote_count": 441, "vote_average": 6.6, "title": "Pok\u00e9mon: The Movie 2000", "release_date": "1999-07-17", "original_language": "ja", "original_title": "\u5287\u5834\u7248\u30dd\u30b1\u30c3\u30c8\u30e2\u30f3\u30b9\u30bf\u30fc \u5e7b\u306e\u30dd\u30b1\u30e2\u30f3 \u30eb\u30ae\u30a2\u7206\u8a95", "genre_ids": [12, 16, 14, 878, 10751], "backdrop_path": "/5uAptC91ZTbJAsCFYYj7lErIe0A.jpg", "adult": false, "overview": "Satoshi must put his skill to the test when he attempts to save the world from destruction. The Greedy Pokemon collector Gelardan throws the universe into chaos after disrupting the balance of nature by capturing one of the Pokemon birds that rule the elements of fire, lightning and ice. Will Satoshi have what it takes to save the world?", "poster_path": "/jrwTeoEHCmFEr0J9HENdPAR3dEq.jpg", "popularity": 9.277}, {"id": 46195, "video": false, "vote_count": 4081, "vote_average": 6.6, "title": "Rio", "release_date": "2011-04-03", "original_language": "en", "original_title": "Rio", "genre_ids": [12, 16, 35, 10751], "backdrop_path": "/odbEuhGUgSkeWWD1sPoylXTZMUa.jpg", "adult": false, "overview": "Captured by smugglers when he was just a hatchling, a macaw named Blu never learned to fly and lives a happily domesticated life in Minnesota with his human friend, Linda. Blu is thought to be the last of his kind, but when word comes that Jewel, a lone female, lives in Rio de Janeiro, Blu and Linda go to meet her. Animal smugglers kidnap Blu and Jewel, but the pair soon escape and begin a perilous adventure back to freedom -- and Linda.", "poster_path": "/isQ9BSjdF8IrSm2g4WPHSJYN5s9.jpg", "popularity": 23.49}, {"adult": false, "backdrop_path": "/pDuD96Fz0ZZXf9buEvRu1UQsmFT.jpg", "genre_ids": [12, 16, 10751], "id": 105864, "original_language": "en", "original_title": "The Good Dinosaur", "overview": "An epic journey into the world of dinosaurs where an Apatosaurus named Arlo makes an unlikely human friend.", "poster_path": "/2ZckiMTfSkCep2JTtZbr73tnQbN.jpg", "release_date": "2015-11-14", "title": "The Good Dinosaur", "video": false, "vote_average": 6.7, "vote_count": 3443, "popularity": 20.847}, {"id": 448119, "video": false, "vote_count": 45, "vote_average": 7.6, "title": "Dolittle", "release_date": "2020-01-01", "original_language": "en", "original_title": "Dolittle", "genre_ids": [12, 35, 14, 10751], "backdrop_path": "/lG802rseTZcN9mtLsQPVfApEVzM.jpg", "adult": false, "overview": "After losing his wife seven years earlier, the eccentric Dr. John Dolittle, famed doctor and veterinarian of Queen Victoria\u2019s England, hermits himself away behind the high walls of Dolittle Manor with only his menagerie of exotic animals for company. But when the young queen falls gravely ill, a reluctant Dolittle is forced to set sail on an epic adventure to a mythical island in search of a cure, regaining his wit and courage as he crosses old adversaries and discovers wondrous creatures.", "poster_path": "/3Nt3v1uzUgfSuVARD1AnI9g9Zl9.jpg", "popularity": 121.854}, {"id": 464593, "video": false, "vote_count": 97, "vote_average": 7.8, "title": "Earth: One Amazing Day", "release_date": "2017-08-04", "original_language": "en", "original_title": "Earth: One Amazing Day", "genre_ids": [99, 10751], "backdrop_path": "/2s4laxseAR9E7EIMxkrmCi1fdFP.jpg", "adult": false, "overview": "An astonishing journey revealing the awesome power of the natural world. Over the course of one single day, we track the sun from the highest mountains to the remotest islands to exotic jungles.", "poster_path": "/7OKStVtpeptnfIgxXEyQubMMTey.jpg", "popularity": 11.725}, {"id": 10808, "video": false, "vote_count": 1002, "vote_average": 5.1, "title": "Dr. Dolittle 2", "release_date": "2001-06-22", "original_language": "en", "original_title": "Dr. Dolittle 2", "genre_ids": [35, 14, 10749, 10751], "backdrop_path": "/CI4gcw8kes1sbR9ht8rhMc2la7.jpg", "adult": false, "overview": "A group of beavers ask Dr. Dolittle to save their habitat from loggers. The only hope is to get the forest preserved because it's the home of a protected bear, but there's a problem: the bear's the only bear in the forest, so she can't reproduce. Undaunted, Dolittle persuades a circus bear to help out, but he has to teach him not just the ways of the wild, but the wiles of lady bears too.", "poster_path": "/aecUc1LobMV56Doj99ZvJR2dXgG.jpg", "popularity": 16.737}, {"id": 5375, "video": false, "vote_count": 486, "vote_average": 5.6, "title": "Fred Claus", "release_date": "2007-11-03", "original_language": "en", "original_title": "Fred Claus", "genre_ids": [28, 35, 18], "backdrop_path": "/r0jEOEzIJFdyaxVa7bsFocUuQ1t.jpg", "adult": false, "overview": "Fred Claus and Santa Claus have been estranged brothers for many years. Now Fred must reconcile his differences with his brother whom he believes overshadows him. When an efficiency expert assesses the workings at the North Pole and threatens to shut Santa down, Fred must help his brother to save Christmas.", "poster_path": "/vFniWmciRi4tAjAYGp2wrK0P8dJ.jpg", "popularity": 12.098}, {"id": 9982, "video": false, "vote_count": 2289, "vote_average": 5.8, "title": "Chicken Little", "release_date": "2005-11-04", "original_language": "en", "original_title": "Chicken Little", "genre_ids": [16, 35, 10751], "backdrop_path": "/39oKyStu7OHnq7twySPbW0gPvBK.jpg", "adult": false, "overview": "When the sky really is falling and sanity has flown the coop, who will rise to save the day? Together with his hysterical band of misfit friends, Chicken Little must hatch a plan to save the planet from alien invasion and prove that the world's biggest hero is a little chicken.", "poster_path": "/iLMALbInUmbNn1tHmxJEWm5MyjP.jpg", "popularity": 24.314}, {"id": 13700, "video": false, "vote_count": 1154, "vote_average": 5.9, "title": "Home on the Range", "release_date": "2004-04-02", "original_language": "en", "original_title": "Home on the Range", "genre_ids": [16, 10751], "backdrop_path": "/p0COosJqlLSk7Sd9nJvePzY8mx5.jpg", "adult": false, "overview": "When a greedy outlaw schemes to take possession of the \"Patch Of Heaven\" dairy farm, three determined cows, a karate-kicking stallion and a colorful corral of critters join forces to save their home. The stakes are sky-high as this unlikely animal alliance risk their hides and match wits with a mysterious band of bad guys.", "poster_path": "/t44wIRRjQzFw7s56axvYslxpw3h.jpg", "popularity": 17.946}, {"id": 11886, "video": false, "vote_count": 2672, "vote_average": 7.2, "title": "Robin Hood", "release_date": "1973-11-08", "original_language": "en", "original_title": "Robin Hood", "genre_ids": [16, 10751], "backdrop_path": "/gidtawc8Mne3Dc5UrkvXhoIZqCZ.jpg", "adult": false, "overview": "With King Richard off to the Crusades, Prince John and his slithering minion, Sir Hiss, set about taxing Nottingham's citizens with support from the corrupt sheriff - and staunch opposition by the wily Robin Hood and his band of merry men.", "poster_path": "/84Sa0NvaMLIWpK4zscMhzOiTG78.jpg", "popularity": 25.96}], "total_pages": 50, "total_results": 990}, "recommendations": {"page": 1, "results": [], "total_pages": 1, "total_results": 0}, "credits": {"cast": [{"cast_id": 0, "character": "Cal", "credit_id": "54c511139251412d9c001706", "gender": 2, "id": 98082, "name": "Dan Haggerty", "order": 1, "profile_path": "/pnvQMpsSQsuy28gAZH1pzm4mm9Z.jpg"}, {"cast_id": 1, "character": "Sammy", "credit_id": "54c51136c3a3684a1f00186a", "gender": 0, "id": 1418503, "name": "Charles Lee", "order": 2, "profile_path": null}, {"cast_id": 2, "character": "Pa Lucas", "credit_id": "54c511489251412fdb001752", "gender": 0, "id": 1418504, "name": "Liston Elkins", "order": 3, "profile_path": null}, {"cast_id": 3, "character": "", "credit_id": "54c5115b9251412fdb001759", "gender": 0, "id": 1175095, "name": "David DaLie", "order": 4, "profile_path": null}, {"cast_id": 4, "character": "", "credit_id": "54c5120692514161850035b4", "gender": 0, "id": 1418506, "name": "Johnny Hickox", "order": 5, "profile_path": null}], "crew": [{"credit_id": "54c51449c3a36878fb0073dd", "department": "Directing", "gender": 2, "id": 59023, "job": "Director", "name": "Stewart Raffill", "profile_path": "/rlUHAcjlG3a0bmkXE3vX5O7G5Xk.jpg"}, {"credit_id": "54c514609251412fdb00179c", "department": "Writing", "gender": 0, "id": 1175095, "job": "Screenplay", "name": "David DaLie", "profile_path": null}, {"credit_id": "54c5146b9251412fdb00179f", "department": "Writing", "gender": 2, "id": 59023, "job": "Screenplay", "name": "Stewart Raffill", "profile_path": "/rlUHAcjlG3a0bmkXE3vX5O7G5Xk.jpg"}, {"credit_id": "54c5147e9251412ece001ae1", "department": "Production", "gender": 2, "id": 1042401, "job": "Producer", "name": "Joseph Raffill", "profile_path": null}, {"credit_id": "54c514979251416eae0108ac", "department": "Camera", "gender": 0, "id": 1418514, "job": "Director of Photography", "name": "Gerardo H. Wenziner", "profile_path": null}, {"credit_id": "54c514abc3a3684a1f0018b8", "department": "Editing", "gender": 0, "id": 1344007, "job": "Editor", "name": "John Shouse", "profile_path": null}]}}