{"adult": false, "backdrop_path": "/rQ3UaRET9DXkmzw8c2IHsxjLFfV.jpg", "belongs_to_collection": null, "budget": 0, "genres": [{"id": 18, "name": "Drama"}, {"id": 12, "name": "Adventure"}], "homepage": null, "id": 321015, "imdb_id": "tt4058346", "original_language": "ru", "original_title": "\u041a\u0430\u043a \u043c\u0435\u043d\u044f \u0437\u043e\u0432\u0443\u0442", "overview": "A practical joke ends up very wrong in Nigina Sayfullaevas curious youth drama. Two seventeen year old Moscow girls, Olya and Sasha, are visiting Olya's long lost father who lives in Crimea, when they decide to switch places and pretend to be the other person to the father. Little do they know that their joke comes with consequenses that will change their lives forever.", "popularity": 2.975, "poster_path": "/pWMgwUBuSIfqORGaPPTtmlEL1Vq.jpg", "production_companies": [{"id": 48843, "logo_path": null, "name": "Igor Tolstunov Production Company (Profit)", "origin_country": "RU"}, {"id": 48844, "logo_path": null, "name": "Droog Drooga", "origin_country": "RU"}], "production_countries": [{"iso_3166_1": "RU", "name": "Russia"}], "release_date": "2014-09-22", "revenue": 0, "runtime": 90, "spoken_languages": [{"iso_639_1": "ru", "name": "P\u0443\u0441\u0441\u043a\u0438\u0439"}], "status": "Released", "tagline": "", "title": "Name Me", "video": false, "vote_average": 7.4, "vote_count": 9, "keywords": {"keywords": [{"id": 9713, "name": "friends"}, {"id": 13130, "name": "teenager"}, {"id": 155884, "name": "beautiful girl"}, {"id": 177035, "name": "identity swap"}, {"id": 180764, "name": "wild party"}, {"id": 204183, "name": "crimea"}, {"id": 211158, "name": "absent parent"}]}, "similar": {"page": 1, "results": [{"adult": false, "backdrop_path": "/3GuYLuqn34guNrgUlZnXyLogD6u.jpg", "genre_ids": [35, 12, 10749], "id": 13523, "original_language": "en", "original_title": "Sex Drive", "overview": "A high school senior drives cross-country with his best friends to hook up with a babe he met online.", "poster_path": "/bwXrZy2xqsyDnno4z8AENEgVfsO.jpg", "release_date": "2008-10-16", "title": "Sex Drive", "video": false, "vote_average": 6.1, "vote_count": 646, "popularity": 12.037}, {"id": 449176, "video": false, "vote_count": 3691, "vote_average": 8.1, "title": "Love, Simon", "release_date": "2018-02-16", "original_language": "en", "original_title": "Love, Simon", "genre_ids": [35, 18, 10749], "backdrop_path": "/rqMEeajyzSF4PpJtdCB816Iz8Vr.jpg", "adult": false, "overview": "Everyone deserves a great love story. But for seventeen-year old Simon Spier it's a little more complicated: he's yet to tell his family or friends he's gay and he doesn't know the identity of the anonymous classmate he's fallen for online.", "poster_path": "/5YUYg5q7QfC4IoNwNUtiwdiYKPr.jpg", "popularity": 17.201}, {"adult": false, "backdrop_path": "/by0WtpJ5UNxOy6ytIfPPTasbRoB.jpg", "genre_ids": [28, 12, 35, 18, 10751, 10402, 10749], "id": 17130, "original_language": "en", "original_title": "Crossroads", "overview": "Three friends get together and bury a box making a pact to open it at midnight at their high school graduation. In the little town in Georgia that they live in, things soon change. One is little miss perfect, one is an engaged prom queen, and the other is a pregnant outcast. The night of graduation, they open the box and they strike up a conversation. All of a sudden, one brings up the topic of her going to Los Angeles for a record contract audition. They all decide to go together and they leave. With a little money, they set out on the road with a guy named Ben. When one of them tells the other a rumor that he might be a homicidal maniac they are all scared of him. When they reach LA, Lucy falls in love with Ben and against her father's wishes, she stays and she goes to the audition.", "poster_path": "/egIs4cWxn0iBErFKrQ7STckjj49.jpg", "release_date": "2002-02-15", "title": "Crossroads", "video": false, "vote_average": 5.0, "vote_count": 334, "popularity": 14.197}, {"adult": false, "backdrop_path": "/2oG0ggdMliMDjenw00eSwZFypUp.jpg", "genre_ids": [35, 18], "id": 376660, "original_language": "en", "original_title": "The Edge of Seventeen", "overview": "Two high school girls are best friends until one dates the other's older brother, who is totally his sister's nemesis.", "poster_path": "/gxK80WUwkQePpXpzRdpob0i7DD5.jpg", "release_date": "2016-11-18", "title": "The Edge of Seventeen", "video": false, "vote_average": 7.2, "vote_count": 2517, "popularity": 17.267}, {"id": 70695, "video": false, "vote_count": 108, "vote_average": 6.4, "title": "Dirty Girl", "release_date": "2010-09-12", "original_language": "en", "original_title": "Dirty Girl", "genre_ids": [35, 18], "backdrop_path": "/lV2FP4wQvfq8FSuk41mYylUIxQ3.jpg", "adult": false, "overview": "When Danielle is banished to special education because of her misbehavior, she joins Clarke on a road trip to discover themselves.", "poster_path": "/9wyyNds6MYPV0Kkzf5oGHTm8VGg.jpg", "popularity": 7.896}, {"id": 13342, "video": false, "vote_count": 639, "vote_average": 6.9, "title": "Fast Times at Ridgemont High", "release_date": "1982-08-13", "original_language": "en", "original_title": "Fast Times at Ridgemont High", "genre_ids": [35, 18], "backdrop_path": "/l23IoHAfjTdNMZLeDetr75H6sb7.jpg", "adult": false, "overview": "Follows a group of high school students growing up in southern California, based on the real-life adventures chronicled by Cameron Crowe. Stacy Hamilton and Mark Ratner are looking for a love interest, and are helped along by their older classmates, Linda Barrett and Mike Damone, respectively. The center of the film is held by Jeff Spicoli, a perpetually stoned surfer dude who faces off with the resolute Mr. Hand, who is convinced that everyone is on dope.", "poster_path": "/lvEenO2CikD4Zo3rFK1flAU99Pr.jpg", "popularity": 11.118}, {"adult": false, "backdrop_path": "/zffzhr30v7nCHRcyfnVr8PmNLbM.jpg", "genre_ids": [10749, 35, 18], "id": 11355, "original_language": "en", "original_title": "Never Been Kissed", "overview": "Josie Geller, a baby-faced junior copywriter at the Chicago Sun-Times, must pose as a student at her former high school to research contemporary teenage culture. With the help of her brother, Rob, Josie infiltrates the inner circle of the most popular clique on campus. But she hits a major snag in her investigation -- not to mention her own failed love life -- when she falls for her dreamy English teacher, Sam Coulson.", "poster_path": "/1F9EAhEQxa0I5Pa5Z10hWIBFS3r.jpg", "release_date": "1999-04-09", "title": "Never Been Kissed", "video": false, "vote_average": 6.0, "vote_count": 855, "popularity": 15.613}, {"id": 272693, "video": false, "vote_count": 3249, "vote_average": 6.8, "title": "The DUFF", "release_date": "2015-02-20", "original_language": "en", "original_title": "The DUFF", "genre_ids": [35, 10749], "backdrop_path": "/awGZf5T1hflis9Z2KvRMhp798xU.jpg", "adult": false, "overview": "Bianca's universe turns upside down when she learns that her high school refers to her as a \u2018DUFF' (Designated Ugly Fat Friend). Hoping to erase that label, she enlists the help of a charming jock and her favorite teacher. Together they'll face the school's mean girl and remind everyone that we are all someone's DUFF\u2026 and that's totally fine.", "poster_path": "/dBBgPTCN5Zze4POXWVVpwf3wkra.jpg", "popularity": 17.232}, {"id": 325189, "video": false, "vote_count": 338, "vote_average": 6.5, "title": "Teen Beach 2", "release_date": "2015-06-26", "original_language": "en", "original_title": "Teen Beach 2", "genre_ids": [35, 14, 10751, 10770], "backdrop_path": "/x3cQd5rruj6jySg7dIHuNXT8REX.jpg", "adult": false, "overview": "When characters from the movie musical \u201cWet Side Story\u201d get stuck in the real world, teens Brady and Mack must find a way to return them home.", "poster_path": "/4A5Ecrvs6P8Yipjn4Xl2WYgu7Gm.jpg", "popularity": 24.718}, {"id": 286565, "video": false, "vote_count": 3825, "vote_average": 6.0, "title": "Paper Towns", "release_date": "2015-06-18", "original_language": "en", "original_title": "Paper Towns", "genre_ids": [18, 9648, 10749], "backdrop_path": "/pqWMomwBpW4ncWrZOyDGGk8K4Pd.jpg", "adult": false, "overview": "Quentin Jacobsen has spent a lifetime loving the magnificently adventurous Margo Roth Spiegelman from afar. So when she cracks open a window and climbs back into his life-dressed like a ninja and summoning him for an ingenious campaign of revenge-he follows. After their all-nighter ends and a new day breaks, Q arrives at school to discover that Margo, always an enigma, has now become a mystery. But Q soon learns that there are clues-and they're for him. Urged down a disconnected path, the closer he gets, the less Q sees of the girl he thought he knew.", "poster_path": "/wAb39FuMWWrOROsitPVPqRcWPjH.jpg", "popularity": 15.383}, {"id": 248574, "video": false, "vote_count": 645, "vote_average": 5.7, "title": "Barely Lethal", "release_date": "2015-04-30", "original_language": "en", "original_title": "Barely Lethal", "genre_ids": [28, 12, 35], "backdrop_path": "/scoMZVgdqBM7vqZaEbhQXJd7jOL.jpg", "adult": false, "overview": "A 16-year-old international assassin yearning for a \"normal\" adolescence fakes her own death and enrolls as a senior in a suburban high school. She quickly learns that being popular can be more painful than getting water-boarded.", "poster_path": "/nJm0vGJVyELlQEzHRq22vi2JHbW.jpg", "popularity": 18.241}, {"id": 11887, "video": false, "vote_count": 2347, "vote_average": 6.5, "title": "High School Musical 3: Senior Year", "release_date": "2008-10-11", "original_language": "en", "original_title": "High School Musical 3: Senior Year", "genre_ids": [35, 18, 10402, 10749, 10751], "backdrop_path": "/daSGxGZL2nNjGZKkAF5ain3lmOx.jpg", "adult": false, "overview": "It's almost graduation day for high school seniors Troy, Gabriella, Sharpay, Chad, Ryan and Taylor \u2015 and the thought of heading off in separate directions after leaving East High has these Wildcats thinking they need to do something they'll remember forever. Together with the rest of the Wildcats, they stage a spring musical reflecting their hopes and fears about the future and their unforgettable experiences growing up together. But with graduation approaching and college plans in question, what will become of the dreams, romances, and friendships of East High's senior Wildcats?", "poster_path": "/ewZpH2QIfPQ0VIn9lPf7MHbLbl4.jpg", "popularity": 14.748}, {"id": 76726, "video": false, "vote_count": 3331, "vote_average": 6.7, "title": "Chronicle", "release_date": "2012-02-01", "original_language": "en", "original_title": "Chronicle", "genre_ids": [18, 878, 53], "backdrop_path": "/f54d3tpzdRW02IDIIVRuwiY2N3K.jpg", "adult": false, "overview": "Three high school students make an incredible discovery, leading to their developing uncanny powers beyond their understanding. As they learn to control their abilities and use them to their advantage, their lives start to spin out of control, and their darker sides begin to take over.", "poster_path": "/kdyrdFIt29FUmLIKvedAc2j4rpo.jpg", "popularity": 16.937}, {"id": 68718, "video": false, "vote_count": 17255, "vote_average": 8.1, "title": "Django Unchained", "release_date": "2012-12-25", "original_language": "en", "original_title": "Django Unchained", "genre_ids": [18, 37], "backdrop_path": "/qUcmEqnzIwlwZxSyTf3WliSfAjJ.jpg", "adult": false, "overview": "With the help of a German bounty hunter, a freed slave sets out to rescue his wife from a brutal Mississippi plantation owner.", "poster_path": "/eCt596Z4zkqxW5AHz1HEhGm1eif.jpg", "popularity": 39.475}, {"adult": false, "backdrop_path": "/bxPw6s61bG5Of19lp1E00n0dDWW.jpg", "genre_ids": [35, 18, 10751, 10402, 10770], "id": 10947, "original_language": "en", "original_title": "High School Musical", "overview": "Troy, the popular captain of the basketball team, and Gabriella, the brainy and beautiful member of the academic club, break all the rules of East High society when they secretly audition for the leads in the school's musical. As they reach for the stars and follow their dreams, everyone learns about acceptance, teamwork, and being yourself.", "poster_path": "/xMRBlTMMKDRJuK4IhwG5idrGHaS.jpg", "release_date": "2006-01-20", "title": "High School Musical", "video": false, "vote_average": 6.5, "vote_count": 2983, "popularity": 14.165}, {"adult": false, "backdrop_path": "/yIszPJawrrp6zcb62d7XJnaxAmw.jpg", "genre_ids": [18], "id": 13078, "original_language": "en", "original_title": "The Babysitters", "overview": "Seventeen-year-old Shirley is a good student who works as a babysitter in order to make money for college. One night Michael, a father Shirley works for, confesses he's unhappy with married life. Shirley has a crush on Michael, and seizes this moment to kiss him. Michael is so happy he presents Shirley with a big tip, which gives her an idea. Shirley plans to make extra money by setting up her teenage friends with other unhappy fathers.", "poster_path": "/nsrNUqGXI95unRKZEu8BJ584xWn.jpg", "release_date": "2007-09-11", "title": "The Babysitters", "video": false, "vote_average": 5.3, "vote_count": 153, "popularity": 15.673}, {"id": 315635, "video": false, "vote_count": 13257, "vote_average": 7.4, "title": "Spider-Man: Homecoming", "release_date": "2017-07-05", "original_language": "en", "original_title": "Spider-Man: Homecoming", "genre_ids": [28, 12, 18, 878], "backdrop_path": "/vc8bCGjdVp0UbMNLzHnHSLRbBWQ.jpg", "adult": false, "overview": "Following the events of Captain America: Civil War, Peter Parker, with the help of his mentor Tony Stark, tries to balance his life as an ordinary high school student in Queens, New York City, with fighting crime as his superhero alter ego Spider-Man as a new threat, the Vulture, emerges.", "poster_path": "/c24sv2weTHPsmDa7jEMN0m2P3RT.jpg", "popularity": 43.075}, {"adult": false, "backdrop_path": "/pDuD96Fz0ZZXf9buEvRu1UQsmFT.jpg", "genre_ids": [12, 16, 10751], "id": 105864, "original_language": "en", "original_title": "The Good Dinosaur", "overview": "An epic journey into the world of dinosaurs where an Apatosaurus named Arlo makes an unlikely human friend.", "poster_path": "/2ZckiMTfSkCep2JTtZbr73tnQbN.jpg", "release_date": "2015-11-14", "title": "The Good Dinosaur", "video": false, "vote_average": 6.7, "vote_count": 3443, "popularity": 20.847}, {"adult": false, "backdrop_path": "/tUSXZ37j0XpNtmOb5uwqogdcq7E.jpg", "genre_ids": [35, 18], "id": 2108, "original_language": "en", "original_title": "The Breakfast Club", "overview": "Five disparate high school students meet in Saturday detention, and discover they have a lot more in common than they thought.", "poster_path": "/4ZejrrCpfoypR5lHoT3pq6yVldW.jpg", "release_date": "1985-02-15", "title": "The Breakfast Club", "video": false, "vote_average": 7.8, "vote_count": 4906, "popularity": 22.032}, {"id": 28178, "video": false, "vote_count": 3997, "vote_average": 8.0, "title": "Hachi: A Dog's Tale", "release_date": "2009-06-13", "original_language": "en", "original_title": "Hachi: A Dog's Tale", "genre_ids": [18, 10751], "backdrop_path": "/m87xptCZD6J15HcioOOX4kfEdeD.jpg", "adult": false, "overview": "A drama based on the true story of a college professor's bond with the abandoned dog he takes into his home.", "poster_path": "/3MpVmIg6CgOCUrZ2TZ2P0yitCbM.jpg", "popularity": 38.97}], "total_pages": 19, "total_results": 376}, "recommendations": {"page": 1, "results": [{"adult": false, "backdrop_path": "/oTHS3eCm0IUfDO9kd5K84MrYI7.jpg", "genre_ids": [18, 35, 80], "id": 54514, "original_language": "ru", "original_title": "\u0421\u0442\u0440\u0430\u043d\u0430 \u0433\u043b\u0443\u0445\u0438\u0445", "overview": "Strana Glukhikh is about an unusual relationship between two women, one of them a deaf-mute dancer and the other on the run from the mafia. Yaya, the deaf girl, offers to hide Rita whose boyfriend, Alyosha owes gambling debts to the mafia, but in return she wants her to leave the young man and run off with her to an imaginary paradise where material values do not exist.", "poster_path": "/eW6KVc3d2KnKPL9I0cZZqkTuRob.jpg", "release_date": "1998-04-06", "title": "Country of the Deaf", "video": false, "vote_average": 7.3, "vote_count": 14, "popularity": 2.747}, {"adult": false, "backdrop_path": "/dmGMoTZLwrp8tk2N64k0w0H5gJg.jpg", "genre_ids": [18], "id": 303515, "original_language": "ru", "original_title": "\u041a\u0438\u043d\u043e \u043f\u0440\u043e \u0410\u043b\u0435\u043a\u0441\u0435\u0435\u0432\u0430", "overview": "A drama about an amazing life of Alekseev.", "poster_path": "/47GAw8d370voIJwCuQWGZLrNwGJ.jpg", "release_date": "2014-10-09", "title": "The Movie about Alekseev", "video": false, "vote_average": 6.8, "vote_count": 11, "popularity": 1.329}, {"adult": false, "backdrop_path": "/99vUx8TCM4kpgtmF0cHoVILxx5o.jpg", "genre_ids": [10749, 18], "id": 70965, "original_language": "en", "original_title": "\u041a\u0443\u043a\u0430", "overview": "A woman and a young girl in different cities are struggling to find their way in this world. Will their paths intersect and will that change their destinies?", "poster_path": "/ofn6ObRZnWIQ5wEPHjEj31PoeCw.jpg", "release_date": "2007-11-29", "title": "Kuka", "video": false, "vote_average": 6.7, "vote_count": 11, "popularity": 2.482}, {"adult": false, "backdrop_path": "/hvkXRpWfBiqLiZhV47ibWyaA00D.jpg", "genre_ids": [35, 18, 9648], "id": 160833, "original_language": "ru", "original_title": "\u0420\u0430\u0441\u0441\u043a\u0430\u0437\u044b", "overview": "A young writer brings a collection of short stories to a big Moscow publishing house. The manuscript stays at the office and mysteriously influences the lives of anyone who opens it and reads at least one page. There are four stories in the manuscript, and four readers whose lives are changed after reading them. The situations range from realistic to absurd to thrilling to create a rich portrait of life in contemporary Russia and showcase the thoughts, feelings and ambitions of people who live there.", "poster_path": "/wYpxpTie9qe0y95ACi33DvfEPfM.jpg", "release_date": "2012-11-15", "title": "Short Stories", "video": false, "vote_average": 6.6, "vote_count": 29, "popularity": 2.019}, {"adult": false, "backdrop_path": "/2YYcibxUsjx7uEGcDoW86FxjR0y.jpg", "genre_ids": [18, 10749], "id": 83524, "original_language": "ru", "original_title": "Interdevochka", "overview": "A hospital nurse becomes an \"international girl\", a prostitute who caters to foreigners with hard currency.", "poster_path": "/xTw43TBoS5jaxArVnL48G8c6532.jpg", "release_date": "1989-01-21", "title": "Intergirl", "video": false, "vote_average": 6.4, "vote_count": 16, "popularity": 2.388}, {"adult": false, "backdrop_path": "/p3XhFMpZ6KIAI6sU2WHEZauR9vO.jpg", "genre_ids": [18], "id": 19875, "original_language": "ru", "original_title": "\u041f\u043e\u0445\u043e\u0440\u043e\u043d\u0438\u0442\u0435 \u043c\u0435\u043d\u044f \u0437\u0430 \u043f\u043b\u0438\u043d\u0442\u0443\u0441\u043e\u043c", "overview": "A small child is trapped in a tug-of-war battle between his frivolous, but loving mother and an emotionally abusive neurotic grandmother, who wants to \"shelter\" her beloved grandson at all cost.", "poster_path": "/rU9SRASJqjXJ0JDTbhZdZnDWxHw.jpg", "release_date": "2009-03-20", "title": "Bury Me Behind the Baseboard", "video": false, "vote_average": 6.3, "vote_count": 13, "popularity": 1.731}], "total_pages": 1, "total_results": 6}, "credits": {"cast": [{"cast_id": 3, "character": "Sergey", "credit_id": "5508d28b92514110ca0022b4", "gender": 2, "id": 68517, "name": "Konstantin Lavronenko", "order": 0, "profile_path": "/eCQOqPYjOz8FQy7EgEQLVRGGU9a.jpg"}, {"cast_id": 4, "character": "Sasha", "credit_id": "5508d2e492514110da00235b", "gender": 1, "id": 1441614, "name": "Aleksandra Bortich", "order": 1, "profile_path": "/sdzb9ZWcU63eqv24Bf1ArZu5DGn.jpg"}, {"cast_id": 5, "character": "Olya", "credit_id": "5508d30092514130b4001f98", "gender": 1, "id": 1441615, "name": "Marina Vasilyeva", "order": 2, "profile_path": "/neWSUPFfCviQhBoyDQj0GJqqDpq.jpg"}, {"cast_id": 7, "character": "Sveta", "credit_id": "5508d33a92514110cc002245", "gender": 1, "id": 1142249, "name": "Anna Kotova", "order": 3, "profile_path": "/wPhZ0CFaDlTOLR5yJvxFnVRjzqN.jpg"}, {"cast_id": 8, "character": "Petya", "credit_id": "5508d366c3a36834a1000283", "gender": 2, "id": 1119798, "name": "Andrey Fomin", "order": 4, "profile_path": "/Ad2bpnHRd7AAfGYLeb3BWPfIY5r.jpg"}, {"cast_id": 6, "character": "Kirill", "credit_id": "5508d31d92514110dd002353", "gender": 2, "id": 1334394, "name": "Kirill Kaganovich", "order": 5, "profile_path": "/kWvhO7smdXXT27du4YzcIvAPNwb.jpg"}, {"cast_id": 9, "character": "Kolyan", "credit_id": "5508d380c3a368264100033c", "gender": 0, "id": 1441616, "name": "Sergey Shcherbanov", "order": 6, "profile_path": null}, {"cast_id": 10, "character": "Dimon", "credit_id": "5508d39f92514110ca0022e3", "gender": 0, "id": 1441617, "name": "Dmitriy Versta", "order": 7, "profile_path": null}, {"cast_id": 11, "character": "Krylov", "credit_id": "5508d3ba92514110d7002218", "gender": 0, "id": 1441618, "name": "Sergey Palchakovskiy", "order": 8, "profile_path": null}, {"cast_id": 17, "character": "", "credit_id": "5cda5c3a9251412f6bd28d43", "gender": 1, "id": 1751996, "name": "Natella Abeleva-Taganova", "order": 9, "profile_path": null}, {"cast_id": 18, "character": "", "credit_id": "5cda5c8592514167a7ce0967", "gender": 2, "id": 2312345, "name": "Igor Kashin", "order": 10, "profile_path": null}, {"cast_id": 19, "character": "", "credit_id": "5cda5cd8c3a36875bcc7d4e9", "gender": 2, "id": 2312346, "name": "Viktor Lavrinenko", "order": 11, "profile_path": null}, {"cast_id": 20, "character": "", "credit_id": "5cda5d079251413606cf4ec9", "gender": 2, "id": 2024455, "name": "Mikhail Gagarin", "order": 12, "profile_path": null}, {"cast_id": 21, "character": "", "credit_id": "5cda5d5f0e0a2604afcdbf52", "gender": 1, "id": 2312348, "name": "Irina Nosenko", "order": 13, "profile_path": null}, {"cast_id": 22, "character": "", "credit_id": "5cda5d94c3a3683c67c4d14d", "gender": 2, "id": 2312349, "name": "Vasily Mishnev", "order": 14, "profile_path": null}], "crew": [{"credit_id": "5cda5e639251413606cf52c7", "department": "Production", "gender": 2, "id": 937666, "job": "Producer", "name": "Igor Tolstunov", "profile_path": "/kqoTwFqLgDrsL56AJCm4sdDQ9wc.jpg"}, {"credit_id": "5cda5dd89251412f6bd292e8", "department": "Writing", "gender": 1, "id": 1334391, "job": "Screenplay", "name": "Nigina Sayfullaeva", "profile_path": "/n2rqZvE106r2xPhXu7Gt8JFbqZz.jpg"}, {"credit_id": "54c4569e9251412fdb0004f6", "department": "Directing", "gender": 1, "id": 1334391, "job": "Director", "name": "Nigina Sayfullaeva", "profile_path": "/n2rqZvE106r2xPhXu7Gt8JFbqZz.jpg"}, {"credit_id": "5cda5dce0e0a263868d01e82", "department": "Writing", "gender": 0, "id": 1425232, "job": "Screenplay", "name": "Lyubov Mulmenko", "profile_path": "/2NPUMjc4Hyd89yODYgJOVdKsdwo.jpg"}, {"credit_id": "5aaa4c2bc3a36851f500c0ab", "department": "Sound", "gender": 2, "id": 1572444, "job": "Sound Re-Recording Mixer", "name": "Nikita Gankin", "profile_path": null}, {"credit_id": "5cda5e019251417580d2506a", "department": "Camera", "gender": 2, "id": 1580274, "job": "Director of Photography", "name": "Mark Ziselson", "profile_path": "/bDfLVdr3wwFhi7BGoDBmM1cEscJ.jpg"}, {"credit_id": "5cda60ae0e0a265585cdc355", "department": "Production", "gender": 1, "id": 1612377, "job": "Co-Producer", "name": "Anna Kagarlitskaya", "profile_path": null}, {"credit_id": "5cda5e920e0a2666decccfb7", "department": "Production", "gender": 2, "id": 1768855, "job": "Producer", "name": "Sergey Kozlov", "profile_path": "/gvMysAG42XZB6tYhTsPhCQNIFoc.jpg"}, {"credit_id": "5cda5e539251410c9dd03dd2", "department": "Editing", "gender": 2, "id": 1996120, "job": "Editor", "name": "Vadim Krasnitsky", "profile_path": "/udUjQq5f62V0HrWEBwNibe01gt0.jpg"}, {"credit_id": "5aae131ec3a36846d501fd8d", "department": "Production", "gender": 2, "id": 2000987, "job": "Producer", "name": "Sergey Kornikhin", "profile_path": "/6xGXeKObqvNwr7e2I5zoXgwoH2c.jpg"}, {"credit_id": "5ac88093c3a36834e203dd0d", "department": "Art", "gender": 1, "id": 2017834, "job": "Production Design", "name": "Marusya Parfenova-Chukhray", "profile_path": "/dCbkBpegTmDPqJHp9MBOR6a4Ww2.jpg"}, {"credit_id": "5ac880980e0a26497703dd30", "department": "Costume & Make-Up", "gender": 1, "id": 2017834, "job": "Costume Design", "name": "Marusya Parfenova-Chukhray", "profile_path": "/dCbkBpegTmDPqJHp9MBOR6a4Ww2.jpg"}, {"credit_id": "5cda63bf9251410c9dd046de", "department": "Production", "gender": 2, "id": 2265125, "job": "Executive Producer", "name": "Ilya Shemyatov-Vasilenko", "profile_path": null}, {"credit_id": "5cda638dc3a3680fd4c1ecf2", "department": "Production", "gender": 2, "id": 2312358, "job": "Executive Producer", "name": "Roman Zhuravlev", "profile_path": null}, {"credit_id": "5cda64510e0a267e73cb6e1d", "department": "Sound", "gender": 2, "id": 2312359, "job": "Sound", "name": "Evgeny Goryainov", "profile_path": null}]}}