{"adult": false, "backdrop_path": "/ezUo2d7wmUXUDBsOVXDEc9eOxR0.jpg", "belongs_to_collection": {"id": 519910, "name": "The Boys of St. Vincent", "poster_path": null, "backdrop_path": null}, "budget": 0, "genres": [{"id": 18, "name": "Drama"}], "homepage": null, "id": 32119, "imdb_id": "tt0106473", "original_language": "en", "original_title": "The Boys of St. Vincent", "overview": "The true story of boys being sexually abused at their orphanage ran by a religious community in Newfoundland.", "popularity": 4.059, "poster_path": "/lqUDQqisW5CpkxTPJXvWXCsZgdk.jpg", "production_companies": [], "production_countries": [{"iso_3166_1": "CA", "name": "Canada"}], "release_date": "1992-12-06", "revenue": 0, "runtime": 90, "spoken_languages": [{"iso_639_1": "de", "name": "Deutsch"}, {"iso_639_1": "en", "name": "English"}, {"iso_639_1": "fr", "name": "Fran\u00e7ais"}], "status": "Released", "tagline": "", "title": "The Boys of St. Vincent", "video": false, "vote_average": 8.0, "vote_count": 7, "keywords": {"keywords": [{"id": 516, "name": "child abuse"}, {"id": 1228, "name": "1970s"}, {"id": 6178, "name": "newfoundland"}, {"id": 6783, "name": "orphanage"}, {"id": 9672, "name": "based on a true story"}, {"id": 172391, "name": "catholic priest"}]}, "similar": {"page": 1, "results": [{"id": 398978, "video": false, "vote_count": 2174, "vote_average": 7.8, "title": "The Irishman", "release_date": "2019-11-01", "original_language": "en", "original_title": "The Irishman", "genre_ids": [80, 18, 36], "backdrop_path": "/iLLDiO4dbUfFEnRug8DuvFEl1NB.jpg", "adult": false, "overview": "Pennsylvania, 1956. Frank Sheeran, a war veteran of Irish origin who works as a truck driver, accidentally meets mobster Russell Bufalino. Once Frank becomes his trusted man, Bufalino sends him to Chicago with the task of helping Jimmy Hoffa, a powerful union leader related to organized crime, with whom Frank will maintain a close friendship for nearly twenty years.", "poster_path": "/mbm8k3GFhXS0ROd9AD1gqYbIFbM.jpg", "popularity": 75.227}, {"id": 1949, "video": false, "vote_count": 5158, "vote_average": 7.5, "title": "Zodiac", "release_date": "2007-03-02", "original_language": "en", "original_title": "Zodiac", "genre_ids": [80, 18, 9648, 53], "backdrop_path": "/jP2htGBHE7vKq4MLeC75UeC0sZH.jpg", "adult": false, "overview": "The true story of the investigation of the \"Zodiac Killer\", a serial killer who terrified the San Francisco Bay Area, taunting police with his ciphers and letters. The case becomes an obsession for three men as their lives and careers are built and destroyed by the endless trail of clues.", "poster_path": "/bgLyOROfFQI3FqYL7jQbiaV8lkN.jpg", "popularity": 21.354}, {"adult": false, "backdrop_path": "/uCjCNaxLyLkcwBq4aOHOeiKKwPE.jpg", "genre_ids": [35, 10749, 80, 18, 9648], "id": 171274, "original_language": "en", "original_title": "Inherent Vice", "overview": "In Los Angeles at the turn of the 1970s, drug-fueled detective Larry \"Doc\" Sportello investigates the disappearance of an ex-girlfriend.", "poster_path": "/2fCg6FORkgRLpFIKlUg4gULIn1u.jpg", "release_date": "2014-12-25", "title": "Inherent Vice", "video": false, "vote_average": 6.6, "vote_count": 1534, "popularity": 25.677}, {"id": 508664, "video": false, "vote_count": 31, "vote_average": 6.7, "title": "Danger Close", "release_date": "2019-08-08", "original_language": "en", "original_title": "Danger Close: The Battle of Long Tan", "genre_ids": [28, 18, 36, 10752], "backdrop_path": "/7uacpbrJd9g9xSTLgfyg1NwkAiu.jpg", "adult": false, "overview": "Vietnam War, 1966. Australia and New Zealand send troops to support the United States and South Vietnamese in their fight against the communist North. Soldiers are very young men, recruits and volunteers who have never been involved in a combat. On August 18th, members of Delta Company will face the true horror of a ruthless battle among the trees of a rubber plantation called Long T\u00e2n. They are barely a hundred. The enemy is a human wave ready to destroy them.", "poster_path": "/aB1rCWGMsM2mm1kBDleaPkqUCFo.jpg", "popularity": 18.199}, {"id": 399055, "video": false, "vote_count": 8032, "vote_average": 7.2, "title": "The Shape of Water", "release_date": "2017-12-01", "original_language": "en", "original_title": "The Shape of Water", "genre_ids": [18, 14, 10749], "backdrop_path": "/rgyhSn3mINvkuy9iswZK0VLqQO3.jpg", "adult": false, "overview": "An other-worldly story, set against the backdrop of Cold War era America circa 1962, where a mute janitor working at a lab falls in love with an amphibious man being held captive there and devises a plan to help him escape.", "poster_path": "/k4FwHlMhuRR5BISY2Gm2QZHlH5Q.jpg", "popularity": 27.281}, {"id": 504608, "video": false, "vote_count": 1661, "vote_average": 7.4, "title": "Rocketman", "release_date": "2019-05-22", "original_language": "en", "original_title": "Rocketman", "genre_ids": [18, 10402], "backdrop_path": "/sZZJ42GrWKxSOfcrpI2TSFQa0AQ.jpg", "adult": false, "overview": "The story of Elton John's life, from his years as a prodigy at the Royal Academy of Music through his influential and enduring musical partnership with Bernie Taupin.", "poster_path": "/f4FF18ia7yTvHf2izNrHqBmgH8U.jpg", "popularity": 26.576}, {"adult": false, "backdrop_path": "/j1pLMvLiXRyeeHyTZO79a4t3Qao.jpg", "genre_ids": [36, 18], "id": 10858, "original_language": "en", "original_title": "Nixon", "overview": "An all-star cast powers this epic look at American President Richard M. Nixon, a man carrying the fate of the world on his shoulders while battling the self-destructive demands from within. Spanning his troubled boyhood in California to the shocking Watergate scandal that would end his presidency.", "poster_path": "/cICkmCEiXRhvZmbuAlsA5D9B2rK.jpg", "release_date": "1995-12-22", "title": "Nixon", "video": false, "vote_average": 7.0, "vote_count": 156, "popularity": 9.948}, {"adult": false, "backdrop_path": "/hXncLiQT9pcuW3BZClPb4KfQxJS.jpg", "genre_ids": [14, 18, 27, 53], "id": 1433, "original_language": "es", "original_title": "El espinazo del diablo", "overview": "Spain, 1939. In the last days of the Spanish Civil War, the young Carlos arrives at the Santa Luc\u00eda orphanage, where he will make friends and enemies as he follows the quiet footsteps of a mysterious presence eager for revenge.", "poster_path": "/e9UizPFgoCnRCPtR0tyg2JNXY6A.jpg", "release_date": "2001-04-20", "title": "The Devil's Backbone", "video": false, "vote_average": 7.3, "vote_count": 602, "popularity": 14.265}, {"id": 446354, "video": false, "vote_count": 2836, "vote_average": 7.0, "title": "The Post", "release_date": "2017-12-22", "original_language": "en", "original_title": "The Post", "genre_ids": [18, 36], "backdrop_path": "/8sb4aBST28vN3rBz704XJczS0Ld.jpg", "adult": false, "overview": "A cover-up that spanned four U.S. Presidents pushed the country's first female newspaper publisher and a hard-driving editor to join an unprecedented battle between journalist and government. Inspired by true events.", "poster_path": "/h4XG3g6uMMPIBPjAoQhC2QIMdkl.jpg", "popularity": 20.824}, {"id": 2604, "video": false, "vote_count": 844, "vote_average": 7.0, "title": "Born on the Fourth of July", "release_date": "1989-12-20", "original_language": "en", "original_title": "Born on the Fourth of July", "genre_ids": [18, 10752], "backdrop_path": "/t9MrNY0xM9U5JSe5vHN9z08UYty.jpg", "adult": false, "overview": "The biography of Ron Kovic. Paralyzed in the Vietnam war, he becomes an anti-war and pro-human rights political activist after feeling betrayed by the country he fought for.", "poster_path": "/iAUSzQNpxf9fX1EvhNbeguo6aVA.jpg", "popularity": 14.729}, {"id": 326285, "video": false, "vote_count": 379, "vote_average": 6.1, "title": "American Pastoral", "release_date": "2016-10-20", "original_language": "en", "original_title": "American Pastoral", "genre_ids": [80, 18], "backdrop_path": "/jUA6DRV3aGqwPFyiDqPD3idAFw1.jpg", "adult": false, "overview": "Set in postwar America, a man watches his seemingly perfect life fall apart as his daughter's new political affiliation threatens to destroy their family.", "poster_path": "/5RSZR8clQh6170hRODWH5yS9nHS.jpg", "popularity": 12.473}, {"adult": false, "backdrop_path": "/uyM09BML2F05VpJoXtf0tza44A4.jpg", "genre_ids": [53], "id": 446021, "original_language": "en", "original_title": "Bad Times at the El Royale", "overview": "Lake Tahoe, 1969. Seven strangers, each one with a secret to bury, meet at El Royale, a decadent motel with a dark past. In the course of a fateful night, everyone will have one last shot at redemption.", "poster_path": "/eBXFMpewhnmWLLQqg1EJWJwSw7a.jpg", "release_date": "2018-10-04", "title": "Bad Times at the El Royale", "video": false, "vote_average": 6.8, "vote_count": 1918, "popularity": 19.118}, {"id": 20352, "video": false, "vote_count": 10780, "vote_average": 7.2, "title": "Despicable Me", "release_date": "2010-07-08", "original_language": "en", "original_title": "Despicable Me", "genre_ids": [16, 35, 10751], "backdrop_path": "/yo1ef57MEPkEE4BDZKTZGH9uDcX.jpg", "adult": false, "overview": "Villainous Gru lives up to his reputation as a despicable, deplorable and downright unlikable guy when he hatches a plan to steal the moon from the sky. But he has a tough time staying on task after three orphans land in his care.", "poster_path": "/4zHJhBSY4kNZXfhTlmy2TzXD51M.jpg", "popularity": 33.374}, {"adult": false, "backdrop_path": "/ikVhBmiTMYMybYnQO8S42txlizJ.jpg", "genre_ids": [18, 10749, 35], "id": 9454, "original_language": "en", "original_title": "EverAfter", "overview": "A unique 16th century woman, Danielle possesses a love of books, and can easily quote from Sir Thomas More\u2019s UTOPIA. An intriguing mix of tomboyish athleticism and physical beauty, she has more than enough charm to capture the heart of a prince ... after beaning him with an apple.", "poster_path": "/1ELrosU04wEbfmxK9wLBjdEECqm.jpg", "release_date": "1998-07-31", "title": "EverAfter", "video": false, "vote_average": 7.1, "vote_count": 788, "popularity": 14.321}, {"adult": false, "backdrop_path": "/4bHX7nAmjMiZO9eotJITyro0raw.jpg", "genre_ids": [18], "id": 376866, "original_language": "en", "original_title": "Jackie", "overview": "An account of the days of First Lady, Jacqueline Kennedy, in the immediate aftermath of John F. Kennedy's assassination in 1963.", "poster_path": "/iMkl2Akc1f4CSJCieVwczM4KjZR.jpg", "release_date": "2016-12-02", "title": "Jackie", "video": false, "vote_average": 6.5, "vote_count": 1554, "popularity": 12.598}, {"adult": false, "backdrop_path": "/urnGzQvP8fwWWGkn1k809KqIjbm.jpg", "genre_ids": [18], "id": 87093, "original_language": "en", "original_title": "Big Eyes", "overview": "The story of the awakening of painter, Margaret Keane, her phenomenal success in the 1950s, and the subsequent legal difficulties she had with her husband, who claimed credit for her works in the 1960s.", "poster_path": "/z2tqzprHojhgEGYKQepjU28oQg6.jpg", "release_date": "2014-12-24", "title": "Big Eyes", "video": false, "vote_average": 7.0, "vote_count": 2348, "popularity": 12.107}, {"id": 805, "video": false, "vote_count": 2033, "vote_average": 7.8, "title": "Rosemary's Baby", "release_date": "1968-06-12", "original_language": "en", "original_title": "Rosemary's Baby", "genre_ids": [18, 27, 9648], "backdrop_path": "/3THF7D3uPqhV6k7iKsr2EyjqVPK.jpg", "adult": false, "overview": "A young couple moves into an infamous New York apartment building to start a family. Things become frightening as Rosemary begins to suspect her unborn baby isn\u2019t safe around their strange neighbors.", "poster_path": "/kqA1pt9ovovArgJZi2Lu4Unf6He.jpg", "popularity": 18.9}, {"id": 10545, "video": false, "vote_count": 3017, "vote_average": 7.0, "title": "The Hunchback of Notre Dame", "release_date": "1996-06-21", "original_language": "en", "original_title": "The Hunchback of Notre Dame", "genre_ids": [16, 18, 10751], "backdrop_path": "/oslaee3VX9kJAjVezbjZKlEJDzn.jpg", "adult": false, "overview": "When Quasimodo defies the evil Frollo and ventures out to the Festival of Fools, the cruel crowd jeers him. Rescued by fellow outcast the gypsy Esmeralda, Quasi soon finds himself battling to save the people and the city he loves.", "poster_path": "/r7V92gY3AMO6li17MmGTixAnFcv.jpg", "popularity": 34.935}, {"adult": false, "backdrop_path": "/oT79THuFrcBzrhlf4fiCddwZBCQ.jpg", "genre_ids": [18, 10402, 10749], "id": 69, "original_language": "en", "original_title": "Walk the Line", "overview": "A chronicle of country music legend Johnny Cash's life, from his early days on an Arkansas cotton farm to his rise to fame with Sun Records in Memphis, where he recorded alongside Elvis Presley, Jerry Lee Lewis and Carl Perkins.", "poster_path": "/wdxL3Zyh3O5MIbmsSiZEevJAjtQ.jpg", "release_date": "2005-09-13", "title": "Walk the Line", "video": false, "vote_average": 7.5, "vote_count": 1544, "popularity": 18.235}, {"id": 311, "video": false, "vote_count": 2593, "vote_average": 8.4, "title": "Once Upon a Time in America", "release_date": "1984-05-23", "original_language": "en", "original_title": "Once Upon a Time in America", "genre_ids": [80, 18], "backdrop_path": "/vnT6HzjLSDrAweHn9xWykb8Ii6T.jpg", "adult": false, "overview": "A former Prohibition-era Jewish gangster returns to the Lower East Side of Manhattan over thirty years later, where he once again must confront the ghosts and regrets of his old life.", "poster_path": "/x733R4ISI0RbKeHhVkXdTMFmTFr.jpg", "popularity": 23.555}], "total_pages": 70, "total_results": 1385}, "recommendations": {"page": 1, "results": [{"adult": false, "backdrop_path": "/asHAasQn7L69A34vqvyH7zFLwU7.jpg", "genre_ids": [99], "id": 149349, "original_language": "en", "original_title": "The Children of Theatre Street", "overview": "A documentary on the Kirov School of Ballet in Russia, narrated by Princess Grace of Monaco.", "poster_path": "/4zpWZv9c1lHXKJ4nQMDXJLOUo62.jpg", "release_date": "1977-05-09", "title": "The Children of Theatre Street", "video": false, "vote_average": 6.5, "vote_count": 4, "popularity": 2.39}, {"adult": false, "backdrop_path": "/xzLazaEO7HF1vCyXx3G7nY8kJEu.jpg", "genre_ids": [99], "id": 43940, "original_language": "en", "original_title": "The Devil's Miner", "overview": "'The Devil's Miner' tells the story of 14-year-old Basilio who worships the devil for protection while working in a Bolivian silver mine to support his family.", "poster_path": "/sYibpV1TkoJSwAso8fJ14Gm4Zmq.jpg", "release_date": "2005-11-05", "title": "The Devil's Miner", "video": false, "vote_average": 7.1, "vote_count": 7, "popularity": 5.012}, {"adult": false, "backdrop_path": null, "genre_ids": [18], "id": 37346, "original_language": "en", "original_title": "Choose Connor", "overview": "Fifteen-year-old Owen Norris is at the top of his graduating middle-school class, and wants to know how the world works. He has no friends, spends almost all of his time studying, and has an almost nonexistent relationship with his white-collar parents, whom he sees for ten minutes a day. But his boring suburban life changes when he meets Congressman Lawrence Connor and his young nephew Caleb. Connor is immediately taken with Owen\u2019s intelligence and wit, and Caleb is immediately taken with Owen. As Caleb and Owen become close friends, Connor offers Owen a chance to learn how the world of politics really works by acting as his \u201cyouth campaign spokesman\u201d for the upcoming Senate primaries. What starts as a fun way to make some extra summer cash takes a dark turn as Owen learns the frightening truth about the deranged secret world of politics in which he is now involved.", "poster_path": "/dOVYvF4DAcKfRwaYhPcwbDoimon.jpg", "release_date": "2008-10-10", "title": "Choose Connor", "video": false, "vote_average": 7.3, "vote_count": 4, "popularity": 3.289}, {"adult": false, "backdrop_path": "/6bi4XbzWx1zNv4l3pLTSiQ7R4Gy.jpg", "genre_ids": [10751], "id": 246424, "original_language": "en", "original_title": "Beyond the Heavens", "overview": "Oliver is a bright 12-year-old who lives in the shadow of his parents' loss of their first son. His family appears fine on the outside, but is broken behind closed doors. As they work out their faith, Oliver is left to grapple with his own belief in God and the answers to life's biggest questions: Why am I here? What happens after death? Who made us? An angel disguised as a quirky traveler is sent to help him bring the pieces of the puzzle together. As Oliver's struggles cause him to look to science for answers, he discovers God is found by faith not by sight.", "poster_path": "/nkR4ZRj8SuCny0J5rx0elrNrBO3.jpg", "release_date": "2013-10-01", "title": "Beyond the Heavens", "video": false, "vote_average": 6.5, "vote_count": 4, "popularity": 2.937}, {"adult": false, "backdrop_path": "/uYnxIT3fe7aZkguKaCRuDJL3b0G.jpg", "genre_ids": [18, 53], "id": 88727, "original_language": "no", "original_title": "1732 H\u00f8tten", "overview": "A few months after a girl with developmental disabilities is murdered in the remote village H\u00f8tten, the two young men who most townsfolk think killed her go missing. A police detective is sent to investigate and finds this very challenging.", "poster_path": "/nCgqS3j44rZLCBOlYyhOxLhJtKk.jpg", "release_date": "1998-12-26", "title": "Bloody Angels", "video": false, "vote_average": 9.0, "vote_count": 3, "popularity": 3.763}, {"adult": false, "backdrop_path": "/DeXIp2waRD717YEazYX3VPBuqG.jpg", "genre_ids": [10751, 35, 18], "id": 80991, "original_language": "no", "original_title": "Sommerjubel", "overview": "Two boys, age ten, spend their summer in idyllic rural surroundings. They play in the fields, they swim au natural, and more often than not - - - they find themselves in the company of those very beings that a ten-year-old boy pretends to hate..... girls!", "poster_path": "/A4hvXpQciAUQw36EN5Fa3PZao9Z.jpg", "release_date": "1986-10-01", "title": "After Spring", "video": false, "vote_average": 7.5, "vote_count": 4, "popularity": 3.08}, {"id": 120747, "video": false, "vote_count": 4, "vote_average": 6.0, "title": "The Adventures of Mark Twain", "release_date": "1944-05-03", "original_language": "en", "original_title": "The Adventures of Mark Twain", "genre_ids": [12, 18], "backdrop_path": "/tg85OIWprpKBJ7rF7Rihp222Ce5.jpg", "adult": false, "overview": "A dramatised life of Samuel Langhorn Clemens, or Mark Twain.", "poster_path": "/qvE4SY2yn3mQ2341x5ThJwyloK4.jpg", "popularity": 3.105}, {"adult": false, "backdrop_path": null, "genre_ids": [18], "id": 71576, "original_language": "es", "original_title": "Buenos Aires 100 KM", "overview": "A remote village 100 kilometers from the city of Buenos Aires. A place that dreams of the nation's capital. Stephen, Mat\u00edas, Alejo, Dami\u00e1n and Guido were born 13 years ago in this small town. Have always been friends and together they share the monotonous summer afternoons sitting on the stoop of a women's hairdresser. Anxious, restless, impatient for a change, go through the most confusing period of experiment. The transition from childhood to adolescence. Appears curious about women and sexual awakening, accompanied by the rebellion against their parents and family mandates.", "poster_path": "/lBnNDiuQxjvg6XsFvJTuEYLLxIF.jpg", "release_date": "2005-02-10", "title": "Buenos Aires 100 KM", "video": false, "vote_average": 6.8, "vote_count": 4, "popularity": 0.808}, {"adult": false, "backdrop_path": null, "genre_ids": [18, 10751], "id": 266525, "original_language": "en", "original_title": "Alan & Naomi", "overview": "When Naomi, a young refugee from Nazi-occupied Paris, moves into Alan Silverman\u2019s building in New York, he does his best to avoid her. But despite Naomi's strange behavior and the language barrier, they slowly develop a deep and touching friendship.", "poster_path": "/cFhhuskJMZMOc7Ru45P7nPf7eLP.jpg", "release_date": "1992-01-31", "title": "Alan & Naomi", "video": false, "vote_average": 6.3, "vote_count": 3, "popularity": 3.91}, {"adult": false, "backdrop_path": "/A1QUCKmY8KHyHzvEj9leCcOsR05.jpg", "genre_ids": [35, 9648, 53], "id": 87870, "original_language": "en", "original_title": "Boys of the City", "overview": "Street kids get sent to the country, where they get mixed up in murder and a haunted house.", "poster_path": "/87WGwOeefCspFiLkRVv1DyuBcFw.jpg", "release_date": "1940-07-15", "title": "Boys of the City", "video": false, "vote_average": 5.6, "vote_count": 5, "popularity": 2.778}, {"adult": false, "backdrop_path": null, "genre_ids": [18], "id": 48596, "original_language": "en", "original_title": "Ana y los otros", "overview": "Twenty-something Ana, now living in Buenos Aires, returns to her native city of Paran\u00e1. She meets old school mates, old friends, makes new ones, and starts to rethink her life, and perhaps change her future.", "poster_path": "/7fsJrCVUVxuHDvgFzDoyqanZt16.jpg", "release_date": "2003-04-21", "title": "Ana and the Others", "video": false, "vote_average": 6.3, "vote_count": 4, "popularity": 0.811}, {"adult": false, "backdrop_path": "/qFcpxb7LC13PhUwSfnzTNFj3sEU.jpg", "genre_ids": [18], "id": 108705, "original_language": "it", "original_title": "La discesa di Acl\u00e0 a Floristella", "overview": "Set in Sicily in the 1930's, Aurelio Grimaldi's feature debut chronicles the harsh story of twelve-year-old boy, Acl\u00e0, sold into slavery by his destitute parents to work in the underground Floristella sulfur mines. Overworked and underfed, Acl\u00e0 toils from Monday to Saturday in the steamy, candle-lit labyrinths. Repeatedly beaten and abused by his \"owner\" and with constant threats of being raped, Acl\u00e0 plots his escape to the sea... but this leads to dire consequences for the boy and his family.", "poster_path": "/q2bjdy5qCtzeGaWgTPsSSaAd4qQ.jpg", "release_date": "1992-09-10", "title": "Acla's Descent into Floristella", "video": false, "vote_average": 8.8, "vote_count": 4, "popularity": 4.119}, {"adult": false, "backdrop_path": "/3SfcCMckaQhvFJmehI8b8w1PeSt.jpg", "genre_ids": [35, 18], "id": 46773, "original_language": "tl", "original_title": "Ang Pagdadalaga ni Maximo Oliveros", "overview": "A 12-year-old gay who comes from a criminal family falls in love with a handsome policeman.", "poster_path": "/XOpQALT4O14NG01oJboCaSpYd.jpg", "release_date": "2005-07-13", "title": "The Blossoming of Maximo Oliveros", "video": false, "vote_average": 7.8, "vote_count": 17, "popularity": 2.192}], "total_pages": 1, "total_results": 13}, "credits": {"cast": [{"cast_id": 2, "character": "Brother Peter Lavin", "credit_id": "52fe44be9251416c9101b49f", "gender": 2, "id": 15319, "name": "Henry Czerny", "order": 0, "profile_path": "/zOWZzRmliKf9032IOOq0a3jXhVv.jpg"}, {"cast_id": 3, "character": "Kevin Reevey", "credit_id": "52fe44be9251416c9101b4a3", "gender": 2, "id": 198643, "name": "Johnny Morina", "order": 1, "profile_path": "/aCkyW20QjhzJGXTF1Bgb6IZ8Wyr.jpg"}, {"cast_id": 4, "character": "Detective Noseworthy", "credit_id": "52fe44be9251416c9101b4a7", "gender": 0, "id": 1195879, "name": "Brian Dooley", "order": 2, "profile_path": null}, {"cast_id": 5, "character": "Mike Finn", "credit_id": "52fe44be9251416c9101b4ab", "gender": 2, "id": 946161, "name": "Philip Dinn", "order": 3, "profile_path": null}, {"cast_id": 6, "character": "Stephen Lunny", "credit_id": "5934720e9251417ddc0262d3", "gender": 2, "id": 1828572, "name": "Brian Dodd", "order": 4, "profile_path": null}, {"cast_id": 7, "character": "Brian Lunny", "credit_id": "5be19b979251414df400d392", "gender": 0, "id": 1288291, "name": "Ashley Billard", "order": 5, "profile_path": null}, {"cast_id": 8, "character": "Archbishop", "credit_id": "5cab03b5c3a3683f52638a53", "gender": 0, "id": 1474736, "name": "Maurice Podbrey", "order": 6, "profile_path": null}], "crew": [{"credit_id": "52fe44be9251416c9101b49b", "department": "Directing", "gender": 2, "id": 60295, "job": "Director", "name": "John N. Smith", "profile_path": null}]}}