{"adult": false, "backdrop_path": null, "belongs_to_collection": null, "budget": 0, "genres": [{"id": 18, "name": "Drama"}, {"id": 35, "name": "Comedy"}, {"id": 10770, "name": "TV Movie"}], "homepage": "http://www.whyiworelipstick.com/", "id": 32111, "imdb_id": "tt0874333", "original_language": "en", "original_title": "Why I Wore Lipstick to My Mastectomy", "overview": "Shortly after graduating from Columbia University's Graduate School of Journalism, Geralyn Lucas lands her dream job working for 20/20. Lucas is then diagnosed with breast cancer at the age of 27 and has a dilemma - whether to have a lumpectomy or the potentially safer mastectomy.", "popularity": 2.529, "poster_path": "/kbq0ViqWLaFXiY7VIhhpv1VTVGL.jpg", "production_companies": [{"id": 5185, "logo_path": null, "name": "Grossbart Kent Productions", "origin_country": ""}, {"id": 3431, "logo_path": "/6LVLYfZAEQfhJey0MGvhFXdDEK1.png", "name": "Lifetime", "origin_country": "US"}], "production_countries": [{"iso_3166_1": "US", "name": "United States of America"}], "release_date": "2006-10-23", "revenue": 0, "runtime": 85, "spoken_languages": [{"iso_639_1": "en", "name": "English"}], "status": "Released", "tagline": "", "title": "Why I Wore Lipstick to My Mastectomy", "video": false, "vote_average": 6.2, "vote_count": 6, "keywords": {"keywords": [{"id": 8496, "name": "breast cancer"}]}, "similar": {"page": 1, "results": [{"id": 126250, "video": false, "vote_count": 165, "vote_average": 5.9, "title": "Love Is All You Need", "release_date": "2012-09-04", "original_language": "da", "original_title": "Den skaldede fris\u00f8r", "genre_ids": [35, 18, 10749], "backdrop_path": "/pazykQhSRlWJOHdpagxOQLPGPjk.jpg", "adult": false, "overview": "Romantic comedy from Academy Award winner Susanne Bier (Brothers, In a Better World), about two very different families brought together for a wedding in a beautiful old Italian villa.", "poster_path": "/z6Q0gykRcyUE9i40iWCc9me6N45.jpg", "popularity": 9.561}, {"adult": false, "backdrop_path": "/keuEiD4zBvfujHTynoPnUrwxr6i.jpg", "genre_ids": [18], "id": 280840, "original_language": "es", "original_title": "ma ma", "overview": "After finding a lump in one of her breasts, Magda goes to visit her doctor who gives her bad news: she needs a mastectomy, preceded by severe chemo treatments. While she ponders this ill fortune at a soccer game where her son Dani participates, she attracts the attention of talent scout Arturo, who is looking for talented young players to enroll them in the junior leagues.", "poster_path": "/9WsZVYIAKi5vWnH2jWFruQ1K8Eo.jpg", "release_date": "2015-09-11", "title": "ma ma", "video": false, "vote_average": 6.5, "vote_count": 75, "popularity": 8.211}, {"id": 501989, "video": false, "vote_count": 15, "vote_average": 6.7, "title": "Ode to Joy", "release_date": "2019-04-04", "original_language": "en", "original_title": "Ode to Joy", "genre_ids": [35, 18, 10749], "backdrop_path": "/nVQNgho8e0QjDpPOPtwlMfepTMf.jpg", "adult": false, "overview": "Charlie suffers from a serious disease that causes acute narcolepsy whenever he is happy. Although he develops a variety of techniques to deny himself pleasure and deal with his sleep issues, they\u2019re put to the test when he falls in love.", "poster_path": "/cOFexkgydHDbpZckBYnjow4ZDZt.jpg", "popularity": 4.71}, {"adult": false, "backdrop_path": "/5tEPawvFOk8rTlBnVEVOem4SFBX.jpg", "genre_ids": [18], "id": 427393, "original_language": "en", "original_title": "Mum's List", "overview": "The story of Singe and Kate, a couple from North Somerset, whose lives were turned upside down when Kate was diagnosed with an incurable breast cancer. Over her last few days, she created her list: writing her thoughts and memories down, to help the man she loved create the best life possible for their two sons, after she was gone.", "poster_path": "/7a5md4Co0R1lbTrZJO8NeXbUEiw.jpg", "release_date": "2016-11-25", "title": "Mum's List", "video": false, "vote_average": 7.1, "vote_count": 24, "popularity": 3.588}, {"id": 30849, "video": false, "vote_count": 6, "vote_average": 7.4, "title": "Living Proof", "release_date": "2008-10-18", "original_language": "en", "original_title": "Living Proof", "genre_ids": [18], "backdrop_path": "/gFmbcs0XmESqf7LsffuPbEEwPBu.jpg", "adult": false, "overview": "Living Proof is a 2008 Lifetime Television movie, directed by Dan Ireland, starring Harry Connick, Jr. The film is based on the true life story of Dr. Dennis Slamon and the book HER-2: The Making of Herceptin, a Revolutionary Treatment for Breast Cancer by Robert Bazell. Vivienne Radkoff wrote the film script, and is also one of the film's executive producers. Ren\u00e9e Zellweger is another executive producer, together with Neil Meron and Craig Zadan. Tammy Blanchard, Amanda Bynes, Jennifer Coolidge, Angie Harmon, John Benjamin Hickey, Regina King, Swoosie Kurtz, Paula Cale Lisbe, Amy Madigan, Bernadette Peters, and Trudie Styler are featured in the supporting cast. The film premiered on October 18, 2008, for Lifetime's \"Stop Breast Cancer for Life\" public service and advocacy campaign, during the National Breast Cancer Awareness Month", "poster_path": "/8gAGPtr5nojbimaD4svTvDnkk0S.jpg", "popularity": 3.022}, {"adult": false, "backdrop_path": "/xk1LxounqK9Em7CpiErRxRuBOrO.jpg", "genre_ids": [99], "id": 318225, "original_language": "en", "original_title": "Tig", "overview": "An intimate, mixed media documentary that follows Tig Notaro, a Los Angeles based comedian, who just days after being diagnosed with invasive stage II breast cancer changed the course of her career with a poignant stand-up set that became legendary overnight. This documentary explores Tig's extraordinary journey as her career ignites and as her life unfolds in grand and unexpected ways, all the while continuing to battle a life-threatening illness and falling in love. This film is a hybrid of comedy and drama that captures a personal journey about facing crisis head on with honesty and grace and overcoming pain and suffering with the healing power of comedy. It's a story about moving forward during a period of your life when you don't know what is going to happen. When you are willing to risk it all for what you believe is the right thing to do and for what you want to happen in this life.", "poster_path": "/7PqIqBDQa5o5MjQzLb9h2atklMn.jpg", "release_date": "2015-04-23", "title": "Tig", "video": false, "vote_average": 7.3, "vote_count": 59, "popularity": 7.011}, {"adult": false, "backdrop_path": "/7C8V8FpKXktetKZCOjdRmQC9jzD.jpg", "genre_ids": [99], "id": 626581, "original_language": "fr", "original_title": "Mont T\u00e9tons", "overview": "", "poster_path": null, "release_date": "2019-09-30", "title": "Mont T\u00e9tons", "video": false, "vote_average": 0.0, "vote_count": 0, "popularity": 0.6}, {"adult": false, "backdrop_path": "/974utqbGL7CvzIuEzQDJ9VBounI.jpg", "genre_ids": [18, 10749], "id": 79268, "original_language": "fr", "original_title": "Haut les c\u0153urs !", "overview": "A woman (Karin Viard) in the fourth month of her first pregnancy fights to save the baby while being treated for breast cancer.", "poster_path": "/lNcXiaHrqcGzdW9SPLa3gT1YfGD.jpg", "release_date": "1999-11-03", "title": "Battle Cries", "video": false, "vote_average": 5.0, "vote_count": 3, "popularity": 0.912}, {"adult": false, "backdrop_path": "/3jf9FQWligjlBMxHkXVBjUzK8KF.jpg", "genre_ids": [35, 18, 10749], "id": 74049, "original_language": "nl", "original_title": "Alle Tijd", "overview": "When Molly, the 21 year-old sister of Maarten, departs the family home, she leaves her older brother with empty nest syndrome. But it also opens up new opportunities for him, such as the possibility to explore his love for Arthur, a closet gay. Molly and Maarten wrestle with their personal relationships and also their relationship with one another, but fate nevertheless seems determined to strike them both down.", "poster_path": "/6QJXFQRuxb3GsGr2siLAVi1eycL.jpg", "release_date": "2011-04-14", "title": "All the Time in the World", "video": false, "vote_average": 7.1, "vote_count": 9, "popularity": 2.879}, {"adult": false, "backdrop_path": null, "genre_ids": [10749, 35], "id": 361347, "original_language": "en", "original_title": "La vuelta a la tortilla", "overview": "The fight against breast cancer has inspired this story, in which Silvia, finds reasons to celebrate when she meets Rafa", "poster_path": "/gS9Dt0GMdvgqB31PRDoMqJV299N.jpg", "release_date": "2013-11-27", "title": "La vuelta a la tortilla", "video": false, "vote_average": 6.0, "vote_count": 1, "popularity": 0.997}, {"adult": false, "backdrop_path": null, "genre_ids": [18], "id": 461170, "original_language": "it", "original_title": "Una vittoria (TV)", "overview": "no plot available", "poster_path": null, "release_date": "1988-02-07", "title": "Una vittoria (TV)", "video": false, "vote_average": 0.0, "vote_count": 0, "popularity": 0.6}, {"adult": false, "backdrop_path": null, "genre_ids": [18], "id": 10526, "original_language": "en", "original_title": "Cancer Vixen: A True Story", "overview": "Shortly after its release, the book was optioned by Working Title Films in conjunction with Cate Blanchett. In March 2013, it was announced that HBO Films is set to produce a film adaptation of the book starring Blanchett. HBO Films is closing a deal with Julie Delpy to adapt the Marisa Acocella Marchetto memoir Cancer Vixen: A True Story as a star vehicle for Cate Blanchett. Blanchett is an executive producer on the project alongside Maven Pictures partners Trudie Styler and Celine Rattray. (Aug 2013)", "poster_path": null, "release_date": "2015-12-31", "title": "Cancer Vixen: A True Story", "video": false, "vote_average": 0.0, "vote_count": 0, "popularity": 1.514}, {"adult": false, "backdrop_path": null, "genre_ids": [18], "id": 491581, "original_language": "fr", "original_title": "Cavalcade", "overview": "Caroline, a professional horse driver, learns she has breast cancer. Avoiding dealing with it, she runs off to Switserland for a championship. Her husband, Julien, is a judge who has just given a young criminal, Pierre, leave for the day.  On her way to Switserland, Caroline meets Pierre and brings him along as her horse groom. When Julien finds out about the cancer, he follows his wife to Switserland", "poster_path": null, "release_date": "2001-03-31", "title": "Cavalcade", "video": false, "vote_average": 0.0, "vote_count": 0, "popularity": 0.6}, {"adult": false, "backdrop_path": null, "genre_ids": [18], "id": 274554, "original_language": "en", "original_title": "My Breast", "overview": "Meredith Baxter plays Joyce Wadler in this heartwarming story of hope, courage and redemption inspired by the New York City journalist's real-life struggle with breast cancer. Stuck in a lackluster relationship with her boyfriend, she's forced to re-examine her life when she receives the troubling diagnosis.", "poster_path": "/oGZo6NpDeoytkoLwpPl9DMA88Ij.jpg", "release_date": "1994-05-15", "title": "My Breast", "video": false, "vote_average": 0.0, "vote_count": 0, "popularity": 2.075}, {"adult": false, "backdrop_path": "/hty1DtQ1DUWdEFPNaKrxBXdQzfY.jpg", "genre_ids": [18], "id": 94859, "original_language": "zh", "original_title": "\u5272\u7231", "overview": "A 40-year-old mother of two struggles with terminal breast cancer.", "poster_path": "/2ovb1H0k3hEBEl4TsREWMtfRLtR.jpg", "release_date": "2010-09-09", "title": "Love Cuts", "video": false, "vote_average": 6.5, "vote_count": 1, "popularity": 0.66}, {"adult": false, "backdrop_path": null, "genre_ids": [18, 10749], "id": 256662, "original_language": "ja", "original_title": "\u4e73\u623f\u3088\u6c38\u9060\u306a\u308c", "overview": "Fumiko, mother of two children and wife of an unfaithful man who shows a low self esteem, shares her family life with her asleep vocation as a poetess. The beginning of her successful literary career coincides with her divorce and the development of a serious illness: a breast cancer, which leads her to lose her breasts. In the last stage of her life she meets a young journalist arrived from Tokyo, an admirer of her work, who want to write a story on her life. Both live a secret love history.", "poster_path": "/bM6WXfZiakgh7Hd5Dx0Uy1RjcJe.jpg", "release_date": "1955-11-23", "title": "The Eternal Breasts", "video": false, "vote_average": 8.0, "vote_count": 2, "popularity": 1.21}, {"adult": false, "backdrop_path": "/nH8j4VNtSU692GNtQJoA4L8haZP.jpg", "genre_ids": [99], "id": 72024, "original_language": "en", "original_title": "Boobs: An American Obsession", "overview": "We call them by a hundred different names: boobs, knockers, jugs, hooters. We wonder if they're real or fake, too small or too big, too exposed or too covered. And every year Americans spend millions of dollars on breast enhancement, from push-up bras to surgery. Why is our culture so captivated by this particular part of the female form? \"Boobs: An American Obsession\" is a revealing, humorous, often poignant investigation involving everyone from anthropologists to porn stars as we explore our culture's fascination with breasts.", "poster_path": "/2Xdzu6jsGqxHlpeVWg8KdLT4zBr.jpg", "release_date": "2010-02-09", "title": "Boobs: An American Obsession", "video": false, "vote_average": 6.0, "vote_count": 1, "popularity": 4.112}, {"adult": false, "backdrop_path": "/l4TqgWEgo95YPLlPAcrQID2QKsy.jpg", "genre_ids": [99], "id": 89750, "original_language": "en", "original_title": "Pink Ribbons, Inc.", "overview": "Breast cancer has become the poster child of corporate cause-related marketing campaigns. Countless women and men walk, bike, climb and shop for the cure. Each year, millions of dollars are raised in the name of breast cancer, but where does this money go and what does it actually achieve? Pink Ribbons, Inc. is a feature documentary that shows how the devastating reality of breast cancer, which marketing experts have labeled a \"dream cause,\" becomes obfuscated by a shiny, pink story of success.", "poster_path": "/n2acteNfnLoCwrEOiiN1Sk911dK.jpg", "release_date": "2011-09-11", "title": "Pink Ribbons, Inc.", "video": false, "vote_average": 6.9, "vote_count": 7, "popularity": 3.032}, {"adult": false, "backdrop_path": null, "genre_ids": [99], "id": 11097, "original_language": "de", "original_title": "Ich will da sein - Jenny Gr\u00f6llmann", "overview": "No overview found.", "poster_path": null, "release_date": "2008-06-19", "title": "Ich will da sein - Jenny Gr\u00f6llmann", "video": false, "vote_average": 0.0, "vote_count": 0, "popularity": 0.728}, {"adult": false, "backdrop_path": null, "genre_ids": [99], "id": 45034, "original_language": "en", "original_title": "1 a Minute", "overview": "The film chronicles the diagnosis and treatment of a breast cancer survivor, interspersed with personal tales from famous international celebrities who are also survivors, or affected closely by cancer.", "poster_path": "/HCXirsNxvO7D7NS14JfJfB1YQf.jpg", "release_date": "2010-10-06", "title": "1 a Minute", "video": false, "vote_average": 0.0, "vote_count": 0, "popularity": 0.637}], "total_pages": 2, "total_results": 26}, "recommendations": {"page": 1, "results": [{"id": 63517, "video": false, "vote_count": 13, "vote_average": 5.8, "title": "The Turn of the Screw", "release_date": "2009-12-30", "original_language": "en", "original_title": "The Turn of the Screw", "genre_ids": [18, 27, 9648, 53, 10770], "backdrop_path": "/qaL1iuZhLNPm9WmewiNwXv9QbnB.jpg", "adult": false, "overview": "A young governess, Ann, is sent to a country house to take care of two orphans, Miles and Flora. Soon after her arrival, Miles is expelled from boarding school. Although charmed by her young charge, she secretly fears there are ominous reasons behind his expulsion. With Miles back at home, the governess starts noticing ethereal figures roaming the estate's grounds. Desperate to learn more about these sinister sightings she discovers that the suspicious circumstances surrounding the death of her predecessor hold grim implications for herself. As she becomes increasingly fearful that malevolent forces are stalking the children the governess is determined to save them, risking herself and her sanity in the process.", "poster_path": "/d1XuLLxViSerf97Kk7yiMJ1QoyZ.jpg", "popularity": 4.26}, {"adult": false, "backdrop_path": "/ewdo5VAO399YNJd3dsahXXUjV18.jpg", "genre_ids": [10770, 18, 10749], "id": 74170, "original_language": "en", "original_title": "Wuthering Heights", "overview": "Gipsy boy Heathcliffe is adopted by a god-fearing landowner in northern England and grows up as the soul-mate of the daughter, Cathy Earnshaw. When father dies, stern son Hindley returns and bans Heathcliffe to the stables; when they spy upon their upper class neighbors, Edgar Linton sends the dogs upon them and chases Heath but starts an affair -love comes only from him- with her. When Hindley's socialite wife Frances dies in childbirth, he is completely embittered, becomes a drunk unable to care for his son Hareton and has to sell Wuthering Hights- to Heathcliffe. After a misunderstanding Cathy marries Linton, Heath retorts by a loveless match with his sister. Even Cathy's death doesn't stop the cycle of spite, grief and harm so it poisons the next generation's lives as well while she keeps haunting Heathcliffe", "poster_path": "/1wpPuM8XRFxxY6OjlfSvZqC0qqO.jpg", "release_date": "1998-09-11", "title": "Wuthering Heights", "video": false, "vote_average": 6.1, "vote_count": 8, "popularity": 3.728}], "total_pages": 1, "total_results": 2}, "credits": {"cast": [{"cast_id": 1, "character": "Geralyn Lucas", "credit_id": "52fe44bd9251416c9101b273", "gender": 1, "id": 49001, "name": "Sarah Chalke", "order": 0, "profile_path": "/ycwiu89cpjqCtSNC5FjbJggjj5R.jpg"}, {"cast_id": 2, "character": "Tyler Lucas", "credit_id": "52fe44bd9251416c9101b277", "gender": 2, "id": 108889, "name": "Jay Harrington", "order": 1, "profile_path": "/lFlCR0QXJWHcf6BVLJrCsXX8tk.jpg"}, {"cast_id": 3, "character": "Geralyn's Mom", "credit_id": "52fe44bd9251416c9101b27b", "gender": 1, "id": 12490, "name": "Lally Cadeau", "order": 2, "profile_path": "/2cgpn9rpbWMjbvScFzlRguRTYiS.jpg"}, {"cast_id": 4, "character": "Geralyn's father", "credit_id": "52fe44bd9251416c9101b27f", "gender": 2, "id": 108890, "name": "Harvey Atkin", "order": 3, "profile_path": "/nH8qRU3GHTsTzOZnokPDpY5ko2B.jpg"}, {"cast_id": 5, "character": "Wendy", "credit_id": "52fe44bd9251416c9101b283", "gender": 1, "id": 80180, "name": "Robin Br\u00fbl\u00e9", "order": 4, "profile_path": "/uS3OhFyZaqdHrfcaB5EfpSnDJVY.jpg"}, {"cast_id": 6, "character": "Donna", "credit_id": "52fe44bd9251416c9101b287", "gender": 1, "id": 29879, "name": "Mayko Nguyen", "order": 5, "profile_path": "/fZ3xWZRQellj44sxKtHwOOSHmyS.jpg"}, {"cast_id": 8, "character": "Moneisha", "credit_id": "52fe44bd9251416c9101b28b", "gender": 1, "id": 75634, "name": "Patti LaBelle", "order": 7, "profile_path": "/fbIj44PyFta6e92ayD8NLdCwsXK.jpg"}, {"cast_id": 9, "character": "Dr. Bob Bradley", "credit_id": "52fe44bd9251416c9101b28f", "gender": 0, "id": 108892, "name": "Geoffrey Pounsett", "order": 8, "profile_path": "/xbp0HABLoF0onvNg8OsiLxO8yVx.jpg"}, {"cast_id": 10, "character": "Adam", "credit_id": "52fe44bd9251416c9101b293", "gender": 2, "id": 108893, "name": "Jordan Barker", "order": 9, "profile_path": null}, {"cast_id": 11, "character": "Victor", "credit_id": "52fe44bd9251416c9101b297", "gender": 2, "id": 55877, "name": "Andrew Gillies", "order": 10, "profile_path": "/u2kf1FH3GsniNA5QwPOCx0xzfiT.jpg"}, {"cast_id": 12, "character": "Dr. Crone", "credit_id": "52fe44bd9251416c9101b29b", "gender": 1, "id": 108894, "name": "Yanna McIntosh", "order": 11, "profile_path": "/vlAg1L8i24VVINSpE3hYHPhDlpp.jpg"}, {"cast_id": 13, "character": "Dr. Meadows", "credit_id": "52fe44bd9251416c9101b29f", "gender": 1, "id": 108895, "name": "Elizabeth Saunders", "order": 12, "profile_path": "/h6Wv6kDvXIvQibFpSzAONKNinmT.jpg"}, {"cast_id": 14, "character": "Tattoo Artist", "credit_id": "52fe44bd9251416c9101b2a3", "gender": 2, "id": 108896, "name": "Dax Ravina", "order": 13, "profile_path": "/6xALLD01gUCQWs3UGKpWphisodq.jpg"}, {"cast_id": 19, "character": "Meredith", "credit_id": "52fe44bd9251416c9101b2bf", "gender": 1, "id": 12487, "name": "Julie Khaner", "order": 14, "profile_path": "/eLT4pSbWzGzh2RwI2SIe0vPQlXS.jpg"}], "crew": [{"credit_id": "5d5548ee4bc38b192424407b", "department": "Crew", "gender": 0, "id": 23549, "job": "Makeup Effects", "name": "Colin Penman", "profile_path": null}, {"credit_id": "5d55477b4bc38b1954243f58", "department": "Editing", "gender": 2, "id": 27677, "job": "Editor", "name": "David Beatty", "profile_path": null}, {"credit_id": "5d554963bc86574b352c09d9", "department": "Sound", "gender": 2, "id": 28924, "job": "Music Editor", "name": "Chris Ledesma", "profile_path": null}, {"credit_id": "52fe44bd9251416c9101b2a9", "department": "Directing", "gender": 2, "id": 30477, "job": "Director", "name": "Peter Werner", "profile_path": "/QlIS9N4mR8Bd7jEqOEDGE33V4o.jpg"}, {"credit_id": "52fe44bd9251416c9101b2af", "department": "Production", "gender": 2, "id": 108897, "job": "Producer", "name": "Jack Grossbart", "profile_path": null}, {"credit_id": "52fe44bd9251416c9101b2b5", "department": "Writing", "gender": 0, "id": 108898, "job": "Author", "name": "Geralyn Lucas", "profile_path": null}, {"credit_id": "52fe44bd9251416c9101b2bb", "department": "Writing", "gender": 1, "id": 108899, "job": "Screenplay", "name": "Nancey Silvers", "profile_path": null}, {"credit_id": "5d554bfd4bc38b7171248b50", "department": "Sound", "gender": 2, "id": 137127, "job": "Sound Effects Editor", "name": "Kevin Fisher", "profile_path": null}, {"credit_id": "5d5547b8e8131d3e36896921", "department": "Art", "gender": 0, "id": 1205337, "job": "Production Design", "name": "Tim Bider", "profile_path": null}, {"credit_id": "5d554809bc86574b362c09df", "department": "Art", "gender": 0, "id": 1324466, "job": "Set Decoration", "name": "David Edgar", "profile_path": null}, {"credit_id": "5d554a4d4bc38b71712489d6", "department": "Camera", "gender": 0, "id": 1397282, "job": "Camera Operator", "name": "Alan Lennox", "profile_path": null}, {"credit_id": "5d554c0ee8131d3e36896e70", "department": "Sound", "gender": 0, "id": 1397309, "job": "Sound Supervisor", "name": "Joe Melody", "profile_path": null}, {"credit_id": "5d5548c5e8131d3e36896a76", "department": "Costume & Make-Up", "gender": 1, "id": 1586502, "job": "Makeup Department Head", "name": "Debi Drennan", "profile_path": null}, {"credit_id": "5d554a28bc86574b352c0a81", "department": "Lighting", "gender": 0, "id": 1608001, "job": "Gaffer", "name": "John Botelho", "profile_path": null}, {"credit_id": "5d554892e8131d3e36896a42", "department": "Costume & Make-Up", "gender": 1, "id": 1730903, "job": "Hairstylist", "name": "Katarina Chovanec", "profile_path": null}, {"credit_id": "5d554ae8bc86574b362c0d37", "department": "Camera", "gender": 2, "id": 1844026, "job": "Key Grip", "name": "Christopher J. Toudy", "profile_path": null}, {"credit_id": "5d5549ece8131d3e27896aa4", "department": "Editing", "gender": 0, "id": 1987506, "job": "Assistant Editor", "name": "Z. Jean Woods", "profile_path": null}, {"credit_id": "5d554b51e8131d3e33896c69", "department": "Sound", "gender": 0, "id": 2035162, "job": "Sound Re-Recording Mixer", "name": "Sam Black", "profile_path": null}, {"credit_id": "5d5547dcbc86576e722c583b", "department": "Art", "gender": 0, "id": 2057490, "job": "Art Direction", "name": "Mark Duffield", "profile_path": null}, {"credit_id": "5d554aa8bc86576e722c5ae4", "department": "Art", "gender": 0, "id": 2098863, "job": "Property Master", "name": "Jim Murrin", "profile_path": null}, {"credit_id": "5d55483be8131d3e278968c3", "department": "Costume & Make-Up", "gender": 0, "id": 2124535, "job": "Costume Design", "name": "Melanie Jennings", "profile_path": null}]}}