{"adult": false, "backdrop_path": null, "belongs_to_collection": null, "budget": 0, "genres": [{"id": 99, "name": "Documentary"}], "homepage": null, "id": 321283, "imdb_id": "tt5100542", "original_language": "sv", "original_title": "Himmel \u00f6ver Flogsta", "overview": "Viktor Johansson is back with a new semi-documentary. This time about teenage outsiders from Flogsta, on the outskirts of Uppsala.", "popularity": 0.63, "poster_path": "/4QCcawtI9DPLi6PktMY2BnD9qGj.jpg", "production_companies": [{"id": 33236, "logo_path": null, "name": "Isberget produktion", "origin_country": ""}], "production_countries": [{"iso_3166_1": "SE", "name": "Sweden"}], "release_date": "2015-10-16", "revenue": 0, "runtime": 74, "spoken_languages": [{"iso_639_1": "sv", "name": "svenska"}], "status": "Released", "tagline": "", "title": "Flogsta Heaven", "video": false, "vote_average": 0.0, "vote_count": 1, "keywords": {"keywords": [{"id": 1192, "name": "sweden"}, {"id": 12105, "name": "student"}, {"id": 220299, "name": "uppsala"}]}, "similar": {"page": 1, "results": [{"adult": false, "backdrop_path": "/ePqwTIoJeKJwShMABMst5duBcw9.jpg", "genre_ids": [35, 10402, 10749], "id": 114150, "original_language": "en", "original_title": "Pitch Perfect", "overview": "College student Beca knows she does not want to be part of a clique, but that's exactly where she finds herself after arriving at her new school. Thrust in among mean gals, nice gals and just plain weird gals, Beca finds that the only thing they have in common is how well they sing together. She takes the women of the group out of their comfort zone of traditional arrangements and into a world of amazing harmonic combinations in a fight to the top of college music competitions.", "poster_path": "/cLUMPdwCV0Dxd3P1ZkCXe7bVImI.jpg", "release_date": "2012-09-28", "title": "Pitch Perfect", "video": false, "vote_average": 7.3, "vote_count": 4622, "popularity": 16.878}, {"adult": false, "backdrop_path": "/6LnwpadKFRrqam7IfBAi3lNTz6Y.jpg", "genre_ids": [18, 35, 10749], "id": 20453, "original_language": "hi", "original_title": "3 Idiots", "overview": "In the tradition of \u201cFerris Bueller\u2019s Day Off\u201d comes this refreshing comedy about a rebellious prankster with a crafty mind and a heart of gold. Rascal. Joker. Dreamer. Genius... You've never met a college student quite like \"Rancho.\" From the moment he arrives at India's most prestigious university, Rancho's outlandish schemes turn the campus upside down\u2014along with the lives of his two newfound best friends. Together, they make life miserable for \"Virus,\" the school\u2019s uptight and heartless dean. But when Rancho catches the eye of the dean's sexy daughter, Virus sets his sights on flunking out the \"3 idiots\" once and for all.", "poster_path": "/x85szIjlgdyipBv0v5IE3Gv6z4b.jpg", "release_date": "2009-12-23", "title": "3 Idiots", "video": false, "vote_average": 7.9, "vote_count": 1295, "popularity": 12.853}, {"id": 1791, "video": false, "vote_count": 468, "vote_average": 7.4, "title": "The Piano Teacher", "release_date": "2001-07-21", "original_language": "fr", "original_title": "La Pianiste", "genre_ids": [18, 10749], "backdrop_path": "/mNXNFlZXeJYSqTGIiweEaMxGYfO.jpg", "adult": false, "overview": "Erika Kohut, a sexually repressed piano teacher living with her domineering mother, meets a young man who starts romantically pursuing her.", "poster_path": "/ln8Ip9Etw4jxzxSuXSTwFqsfsSY.jpg", "popularity": 11.804}, {"id": 233063, "video": false, "vote_count": 1166, "vote_average": 7.1, "title": "Suck Me Shakespeer", "release_date": "2013-11-07", "original_language": "de", "original_title": "Fack ju G\u00f6hte", "genre_ids": [35], "backdrop_path": "/AtCGEku6kLUFmZ6JWkvXphQBQXx.jpg", "adult": false, "overview": "A comedy that follows an ex-con who lands a position at a school that sits over the spot where money from one of his earlier robberies was stashed.", "poster_path": "/9GSGg4McYID6Ld0OMwimLr1Zx4J.jpg", "popularity": 15.749}, {"id": 252, "video": false, "vote_count": 1838, "vote_average": 7.5, "title": "Willy Wonka & the Chocolate Factory", "release_date": "1971-06-29", "original_language": "en", "original_title": "Willy Wonka & the Chocolate Factory", "genre_ids": [35, 14, 10751], "backdrop_path": "/nyqiCFF3pjcdwG2KmOwvM6CCLKA.jpg", "adult": false, "overview": "Eccentric candy man Willy Wonka prompts a worldwide frenzy when he announces that golden tickets hidden inside five of his delicious candy bars will admit their lucky holders into his top-secret confectionary. But does Wonka have an agenda hidden amid a world of Oompa Loompas and chocolate rivers?", "poster_path": "/b94qXd1FcIwgzv0NYMUe2bjrzJR.jpg", "popularity": 19.101}, {"id": 1691, "video": false, "vote_count": 1041, "vote_average": 5.7, "title": "Hostel: Part II", "release_date": "2007-06-08", "original_language": "en", "original_title": "Hostel: Part II", "genre_ids": [27], "backdrop_path": "/h2qsfBP7Qx2w5SoJKq8Il8SU3xO.jpg", "adult": false, "overview": "Following a geographical tour of Slovakia, three young American women are lured into a hostel by a handsome young man who sells them to the twisted masters, ties them up and brings upon them an unthinkable world of pain.", "poster_path": "/fRRjGgHCh6dWvRn1wSbv2VMO6JL.jpg", "popularity": 13.257}, {"id": 530385, "video": false, "vote_count": 1424, "vote_average": 7.1, "title": "Midsommar", "release_date": "2019-07-03", "original_language": "en", "original_title": "Midsommar", "genre_ids": [18, 27, 9648], "backdrop_path": "/g6GtOfXtzDpY73ef7wludoorTti.jpg", "adult": false, "overview": "Several friends travel to Sweden to study as anthropologists a summer festival that is held every ninety years in the remote hometown of one of them. What begins as a dream vacation in a place where the sun never sets, gradually turns into a dark nightmare as the mysterious inhabitants invite them to participate in their disturbing festive activities.", "poster_path": "/7LEI8ulZzO5gy9Ww2NVCrKmHeDZ.jpg", "popularity": 35.33}, {"id": 13310, "video": false, "vote_count": 1712, "vote_average": 7.5, "title": "Let the Right One In", "release_date": "2008-01-26", "original_language": "sv", "original_title": "L\u00e5t den r\u00e4tte komma in", "genre_ids": [18, 27], "backdrop_path": "/wMRVKIIIn5035KIY0J793aHWVOj.jpg", "adult": false, "overview": "Set in 1982 in the suburb of Blackeberg, Stockholm, twelve-year-old Oskar is a lonely outsider, bullied at school by his classmates; at home, Oskar dreams of revenge against a trio of bullies. He befriends his twelve-year-old, next-door neighbor Eli, who only appears at night in the snow-covered playground outside their building.", "poster_path": "/9FGpMfbpKjN7i2jF2gQpvQvK9VB.jpg", "popularity": 14.267}, {"id": 118, "video": false, "vote_count": 9181, "vote_average": 7.0, "title": "Charlie and the Chocolate Factory", "release_date": "2005-07-13", "original_language": "en", "original_title": "Charlie and the Chocolate Factory", "genre_ids": [12, 35, 14, 10751], "backdrop_path": "/mrRAx1OsNVEKJv0ktQprspieqnS.jpg", "adult": false, "overview": "A young boy wins a tour through the most magnificent chocolate factory in the world, led by the world's most unusual candy maker.", "poster_path": "/dvHl1dYvaZRhj9Gk0ITcCHr4DIJ.jpg", "popularity": 26.621}, {"id": 8275, "video": false, "vote_count": 1172, "vote_average": 5.4, "title": "American Pie Presents: The Naked Mile", "release_date": "2006-12-07", "original_language": "en", "original_title": "American Pie Presents: The Naked Mile", "genre_ids": [35], "backdrop_path": "/pOGdj63Szvtyf1nYa5h8hZ1vDFm.jpg", "adult": false, "overview": "The movie will shift its focus on Erik Stifler, the cousin of Matt and Steve, a youngster who is nothing like his wild relations. Peer pressure starts to turn him to live up to the legacy of the other Stiflers when he attends the Naked Mile, a naked run across the college campus. Things get worse when he finds that his cousin Dwight is the life of the party down at the campus", "poster_path": "/uIqZ7Pt0xMAcQAXUc2nziZc4T47.jpg", "popularity": 21.299}, {"adult": false, "backdrop_path": "/txR74Uy6sYbUv4HQURQXNF8LXTf.jpg", "genre_ids": [35], "id": 8277, "original_language": "en", "original_title": "American Pie Presents: Beta House", "overview": "Erik, Ryan, and Cooze start college and pledge the Beta House fraternity, presided over by none other than legendary Dwight Stifler. But chaos ensues when a fraternity of geeks threatens to stop the debauchery and the Betas have to make a stand for their right to party.", "poster_path": "/xJeYprcFqBfov6dUpjJIxDeaZJr.jpg", "release_date": "2007-12-10", "title": "American Pie Presents: Beta House", "video": false, "vote_average": 5.5, "vote_count": 1087, "popularity": 16.688}, {"id": 11886, "video": false, "vote_count": 2672, "vote_average": 7.2, "title": "Robin Hood", "release_date": "1973-11-08", "original_language": "en", "original_title": "Robin Hood", "genre_ids": [16, 10751], "backdrop_path": "/gidtawc8Mne3Dc5UrkvXhoIZqCZ.jpg", "adult": false, "overview": "With King Richard off to the Crusades, Prince John and his slithering minion, Sir Hiss, set about taxing Nottingham's citizens with support from the corrupt sheriff - and staunch opposition by the wily Robin Hood and his band of merry men.", "poster_path": "/84Sa0NvaMLIWpK4zscMhzOiTG78.jpg", "popularity": 25.96}, {"id": 76726, "video": false, "vote_count": 3331, "vote_average": 6.7, "title": "Chronicle", "release_date": "2012-02-01", "original_language": "en", "original_title": "Chronicle", "genre_ids": [18, 878, 53], "backdrop_path": "/f54d3tpzdRW02IDIIVRuwiY2N3K.jpg", "adult": false, "overview": "Three high school students make an incredible discovery, leading to their developing uncanny powers beyond their understanding. As they learn to control their abilities and use them to their advantage, their lives start to spin out of control, and their darker sides begin to take over.", "poster_path": "/kdyrdFIt29FUmLIKvedAc2j4rpo.jpg", "popularity": 16.937}, {"id": 8835, "video": false, "vote_count": 2036, "vote_average": 6.4, "title": "Legally Blonde", "release_date": "2001-07-13", "original_language": "en", "original_title": "Legally Blonde", "genre_ids": [35], "backdrop_path": "/rusiQnUaorH0Z71hYMsrR8Ortrf.jpg", "adult": false, "overview": "Elle Woods has it all. She's the president of her sorority, a Hawaiian Tropic girl, Miss June in her campus calendar, and, above all, a natural blonde. She dates the cutest fraternity boy on campus and wants nothing more than to be Mrs. Warner Huntington III. But, there's just one thing stopping Warner from popping the question: Elle is too blonde.", "poster_path": "/1gAnkZNAd3HqgWL7aqSOQFwt7D1.jpg", "popularity": 16.783}, {"id": 325133, "video": false, "vote_count": 3097, "vote_average": 5.7, "title": "Neighbors 2: Sorority Rising", "release_date": "2016-05-04", "original_language": "en", "original_title": "Neighbors 2: Sorority Rising", "genre_ids": [35], "backdrop_path": "/8HuO1RMDI3prfWDkF7t1y8EhLVO.jpg", "adult": false, "overview": "A sorority moves in next door to the home of Mac and Kelly Radner who have a young child. The Radner's enlist their former nemeses from the fraternity to help battle the raucous sisters.", "poster_path": "/bWUeJHbKIyT306WtJFRHoSzX9nk.jpg", "popularity": 17.21}, {"adult": false, "backdrop_path": "/AqocxdL9luA7ALU0gGSHDzDy254.jpg", "genre_ids": [14, 16, 18, 878], "id": 14069, "original_language": "ja", "original_title": "\u6642\u3092\u304b\u3051\u308b\u5c11\u5973", "overview": "When 17-year-old Makoto Konno gains the ability to, quite literally, \"leap\" backwards through time, she immediately sets about improving her grades and preventing personal mishaps. However, she soon realises that changing the past isn't as simple as it seems, and eventually, will have to rely on her new powers to shape the future of herself and her friends.", "poster_path": "/7oNeWrsaiMGxCrvkWjQ56y6JN85.jpg", "release_date": "2006-07-15", "title": "The Girl Who Leapt Through Time", "video": false, "vote_average": 7.8, "vote_count": 1043, "popularity": 22.298}, {"id": 5559, "video": false, "vote_count": 2866, "vote_average": 5.9, "title": "Bee Movie", "release_date": "2007-10-28", "original_language": "en", "original_title": "Bee Movie", "genre_ids": [12, 16, 35, 10751], "backdrop_path": "/2lBpQZevIJdL4vPrZ7Nnm7mrVlm.jpg", "adult": false, "overview": "Barry B. Benson, a bee who has just graduated from college, is disillusioned at his lone career choice: making honey. On a special trip outside the hive, Barry's life is saved by Vanessa, a florist in New York City. As their relationship blossoms, he discovers humans actually eat honey, and subsequently decides to sue us.", "poster_path": "/QhbOzpYfBOwrRiuTu9otPk919R.jpg", "popularity": 25.39}, {"id": 400928, "video": false, "vote_count": 2318, "vote_average": 7.9, "title": "Gifted", "release_date": "2017-04-12", "original_language": "en", "original_title": "Gifted", "genre_ids": [35, 18, 10751], "backdrop_path": "/gYtXT7fJNBRZBbBulO11DoRveLT.jpg", "adult": false, "overview": "Frank, a single man raising his child prodigy niece Mary, is drawn into a custody battle with his mother.", "poster_path": "/9Ts7Vc4wLlpI9oox9mkVUE1tBHy.jpg", "popularity": 22.146}, {"id": 37247, "video": false, "vote_count": 1749, "vote_average": 7.7, "title": "The Graduate", "release_date": "1967-12-21", "original_language": "en", "original_title": "The Graduate", "genre_ids": [35, 18], "backdrop_path": "/sEWKMIlgUCCb2n5mT0Mf71DRKLR.jpg", "adult": false, "overview": "Benjamin, a recent college graduate very worried about his future, finds himself in a love triangle with an older woman and her daughter.", "poster_path": "/qtVvdSsm2hvau6ItLe4gWdFKe2M.jpg", "popularity": 15.847}, {"id": 10193, "video": false, "vote_count": 9507, "vote_average": 7.8, "title": "Toy Story 3", "release_date": "2010-06-16", "original_language": "en", "original_title": "Toy Story 3", "genre_ids": [16, 35, 10751], "backdrop_path": "/y2qAjM37QgatWeG84DDtwsZuMW.jpg", "adult": false, "overview": "Woody, Buzz, and the rest of Andy's toys haven't been played with in years. With Andy about to go to college, the gang find themselves accidentally left at a nefarious day care center. The toys must band together to escape and return home to Andy.", "poster_path": "/mMltbSxwEdNE4Cv8QYLpzkHWTDo.jpg", "popularity": 28.033}], "total_pages": 68, "total_results": 1355}, "recommendations": {"page": 1, "results": [], "total_pages": 1, "total_results": 0}, "credits": {"cast": [], "crew": [{"credit_id": "54c6902dc3a368792c009919", "department": "Directing", "gender": 0, "id": 1364591, "job": "Director", "name": "Viktor Johansson", "profile_path": null}]}}