{"adult": false, "backdrop_path": "/a2cbNssATgY54urwGjKdAnr6jEa.jpg", "belongs_to_collection": null, "budget": 370000, "genres": [{"id": 99, "name": "Documentary"}], "homepage": "https://www.facebook.com/elstree1976", "id": 322506, "imdb_id": "tt4558042", "original_language": "en", "original_title": "Elstree 1976", "overview": "A documentary about ten very different lives connected by having appeared onscreen wearing masks or helmets in Star Wars.", "popularity": 4.727, "poster_path": "/yhUYFehx9bTaqOQ2daLHSNrBcp0.jpg", "production_companies": [{"id": 50146, "logo_path": null, "name": "Canal Cat Films", "origin_country": ""}], "production_countries": [{"iso_3166_1": "GB", "name": "United Kingdom"}], "release_date": "2015-10-09", "revenue": 0, "runtime": 90, "spoken_languages": [{"iso_639_1": "en", "name": "English"}], "status": "Released", "tagline": "Behind the masks. Beneath the helmets. Big people. Small roles.", "title": "Elstree 1976", "video": false, "vote_average": 6.4, "vote_count": 23, "keywords": {"keywords": [{"id": 161176, "name": "space opera"}]}, "similar": {"page": 1, "results": [{"id": 11, "video": false, "vote_count": 12747, "vote_average": 8.2, "title": "Star Wars", "release_date": "1977-05-25", "original_language": "en", "original_title": "Star Wars", "genre_ids": [28, 12, 878], "backdrop_path": "/4iJfYYoQzZcONB9hNzg0J0wWyPH.jpg", "adult": false, "overview": "Princess Leia is captured and held hostage by the evil Imperial forces in their effort to take over the galactic Empire. Venturesome Luke Skywalker and dashing captain Han Solo team together with the loveable robot duo R2-D2 and C-3PO to rescue the beautiful princess and restore peace and justice in the Empire.", "poster_path": "/btTdmkgIvOi0FFip1sPuZI2oQG6.jpg", "popularity": 57.029}, {"id": 1894, "video": false, "vote_count": 8118, "vote_average": 6.5, "title": "Star Wars: Episode II - Attack of the Clones", "release_date": "2002-05-15", "original_language": "en", "original_title": "Star Wars: Episode II - Attack of the Clones", "genre_ids": [28, 12, 878], "backdrop_path": "/vovhXw10DSsRS9yoVbZqb60pXyX.jpg", "adult": false, "overview": "Following an assassination attempt on Senator Padm\u00e9 Amidala, Jedi Knights Anakin Skywalker and Obi-Wan Kenobi investigate a mysterious plot that could change the galaxy forever.", "poster_path": "/2vcNFtrZXNwIcBgH5e2xXCmVR8t.jpg", "popularity": 23.371}, {"id": 1892, "video": false, "vote_count": 8971, "vote_average": 8.0, "title": "Return of the Jedi", "release_date": "1983-05-23", "original_language": "en", "original_title": "Return of the Jedi", "genre_ids": [28, 12, 878], "backdrop_path": "/koE7aMeR2ATivI18mCbscLsI0Nm.jpg", "adult": false, "overview": "Luke Skywalker leads a mission to rescue his friend Han Solo from the clutches of Jabba the Hutt, while the Emperor seeks to destroy the Rebellion once and for all with a second dreaded Death Star.", "poster_path": "/lrJWyjOVjPhghl4KyAMtOepAxs.jpg", "popularity": 31.676}, {"id": 1891, "video": false, "vote_count": 10794, "vote_average": 8.4, "title": "The Empire Strikes Back", "release_date": "1980-05-20", "original_language": "en", "original_title": "The Empire Strikes Back", "genre_ids": [28, 12, 878], "backdrop_path": "/amYkOxCwHiVTFKendcIW0rSrRlU.jpg", "adult": false, "overview": "The epic saga continues as Luke Skywalker, in hopes of defeating the evil Galactic Empire, learns the ways of the Jedi from aging master Yoda. But Darth Vader is more determined than ever to capture Luke. Meanwhile, rebel leader Princess Leia, cocky Han Solo, Chewbacca, and droids C-3PO and R2-D2 are thrown into various stages of capture, betrayal and despair.", "poster_path": "/9SKDSFbaM6LuGqG1aPWN3wYGEyD.jpg", "popularity": 25.562}, {"id": 1895, "video": false, "vote_count": 8394, "vote_average": 7.3, "title": "Star Wars: Episode III - Revenge of the Sith", "release_date": "2005-05-17", "original_language": "en", "original_title": "Star Wars: Episode III - Revenge of the Sith", "genre_ids": [28, 12, 878], "backdrop_path": "/wUYTfFbfPiZC6Lcyt1nonr69ZmK.jpg", "adult": false, "overview": "The evil Darth Sidious enacts his final plan for unlimited power -- and the heroic Jedi Anakin Skywalker must choose a side.", "poster_path": "/tgr5Pdy7ehZYBqBkN2K7Q02xgOb.jpg", "popularity": 21.514}, {"id": 140607, "video": false, "vote_count": 13675, "vote_average": 7.4, "title": "Star Wars: The Force Awakens", "release_date": "2015-12-15", "original_language": "en", "original_title": "Star Wars: The Force Awakens", "genre_ids": [28, 12, 14, 878], "backdrop_path": "/c2Ax8Rox5g6CneChwy1gmu4UbSb.jpg", "adult": false, "overview": "Thirty years after defeating the Galactic Empire, Han Solo and his allies face a new threat from the evil Kylo Ren and his army of Stormtroopers.", "poster_path": "/weUSwMdQIa3NaXVzwUoIIcAi85d.jpg", "popularity": 37.271}, {"id": 330459, "video": false, "vote_count": 10231, "vote_average": 7.5, "title": "Rogue One: A Star Wars Story", "release_date": "2016-12-14", "original_language": "en", "original_title": "Rogue One: A Star Wars Story", "genre_ids": [28, 12, 878], "backdrop_path": "/tZjVVIYXACV4IIIhXeIM59ytqwS.jpg", "adult": false, "overview": "A rogue band of resistance fighters unite for a mission to steal the Death Star plans and bring a new hope to the galaxy.", "poster_path": "/qjiskwlV1qQzRCjpV0cL9pEMF9a.jpg", "popularity": 29.289}, {"id": 12180, "video": false, "vote_count": 938, "vote_average": 5.9, "title": "Star Wars: The Clone Wars", "release_date": "2008-08-05", "original_language": "en", "original_title": "Star Wars: The Clone Wars", "genre_ids": [28, 12, 16, 878], "backdrop_path": "/gmLMaDXi4lFWG8WitaCYOJS5GtL.jpg", "adult": false, "overview": "Set between Episode II and III the Clone Wars is the first computer animated Star Wars film. Anakin and Obi Wan must find out who kidnapped Jabba the Hutts son and return him safely. The Seperatists will try anything to stop them and ruin any chance of a diplomatic agreement between the Hutt's and the Republic.", "poster_path": "/xd6yhmtS6mEURZLwUDT5raEMbf.jpg", "popularity": 13.626}, {"id": 181808, "video": false, "vote_count": 9718, "vote_average": 7.0, "title": "Star Wars: The Last Jedi", "release_date": "2017-12-13", "original_language": "en", "original_title": "Star Wars: The Last Jedi", "genre_ids": [28, 12, 14, 878], "backdrop_path": "/5Iw7zQTHVRBOYpA0V6z0yypOPZh.jpg", "adult": false, "overview": "Rey develops her newly discovered abilities with the guidance of Luke Skywalker, who is unsettled by the strength of her powers. Meanwhile, the Resistance prepares to do battle with the First Order.", "poster_path": "/kOVEVeg59E0wsnXmF9nrh6OmWII.jpg", "popularity": 54.85}, {"id": 13475, "video": false, "vote_count": 6839, "vote_average": 7.4, "title": "Star Trek", "release_date": "2009-05-06", "original_language": "en", "original_title": "Star Trek", "genre_ids": [28, 12, 878], "backdrop_path": "/1XOSh6BFZbQ0xN75m4avqgzClyG.jpg", "adult": false, "overview": "The fate of the galaxy rests in the hands of bitter rivals. One, James Kirk, is a delinquent, thrill-seeking Iowa farm boy. The other, Spock, a Vulcan, was raised in a logic-based society that rejects all emotion. As fiery instinct clashes with calm reason, their unlikely but powerful partnership is the only thing capable of leading their crew through unimaginable danger, boldly going where no one has gone before. The human adventure has begun again.", "poster_path": "/xPihqTMhCh6b8DHYzE61jrIiNMS.jpg", "popularity": 25.759}, {"id": 201, "video": false, "vote_count": 773, "vote_average": 6.2, "title": "Star Trek: Nemesis", "release_date": "2002-12-13", "original_language": "en", "original_title": "Star Trek: Nemesis", "genre_ids": [28, 12, 878, 53], "backdrop_path": "/1SLR0LqYPU3ahXyPK9RZISjI3B7.jpg", "adult": false, "overview": "En route to the honeymoon of William Riker to Deanna Troi on her home planet of Betazed, Captain Jean-Luc Picard and the crew of the U.S.S. Enterprise receives word from Starfleet that a coup has resulted in the installation of a new Romulan political leader, Shinzon, who claims to seek peace with the human-backed United Federation of Planets. Once in enemy territory, the captain and his crew make a startling discovery: Shinzon is human, a slave from the Romulan sister planet of Remus, and has a secret, shocking relationship to Picard himself.", "poster_path": "/n4TpLWPi062AofIq4kwmaPNBSvA.jpg", "popularity": 13.578}, {"id": 54138, "video": false, "vote_count": 6599, "vote_average": 7.3, "title": "Star Trek Into Darkness", "release_date": "2013-05-05", "original_language": "en", "original_title": "Star Trek Into Darkness", "genre_ids": [28, 12, 878], "backdrop_path": "/ns0IojuqJe24AHTxe8RVcWJUCDM.jpg", "adult": false, "overview": "When the crew of the Enterprise is called back home, they find an unstoppable force of terror from within their own organization has detonated the fleet and everything it stands for, leaving our world in a state of crisis.  With a personal score to settle, Captain Kirk leads a manhunt to a war-zone world to capture a one man weapon of mass destruction. As our heroes are propelled into an epic chess game of life and death, love will be challenged, friendships will be torn apart, and sacrifices must be made for the only family Kirk has left: his crew.", "poster_path": "/41mhrXASAW3sdn7LBWF49uCX0xi.jpg", "popularity": 22.476}, {"id": 1893, "video": false, "vote_count": 8962, "vote_average": 6.4, "title": "Star Wars: Episode I - The Phantom Menace", "release_date": "1999-05-19", "original_language": "en", "original_title": "Star Wars: Episode I - The Phantom Menace", "genre_ids": [28, 12, 878], "backdrop_path": "/oFmzoKDMedABPpRBDVwr0aynSK1.jpg", "adult": false, "overview": "Anakin Skywalker, a young slave strong with the Force, is discovered on Tatooine. Meanwhile, the evil Sith have returned, enacting their plot for revenge against the Jedi.", "poster_path": "/n8V09dDc02KsSN6Q4hC2BX6hN8X.jpg", "popularity": 26.672}, {"id": 188927, "video": false, "vote_count": 4576, "vote_average": 6.7, "title": "Star Trek Beyond", "release_date": "2016-07-07", "original_language": "en", "original_title": "Star Trek Beyond", "genre_ids": [28, 12, 878], "backdrop_path": "/6uBlEXZCUHM15UNZqNig17VdN4m.jpg", "adult": false, "overview": "The USS Enterprise crew explores the furthest reaches of uncharted space, where they encounter a mysterious new enemy who puts them and everything the Federation stands for to the test.", "poster_path": "/mLrQMqyZgLeP8FrT5LCobKAiqmK.jpg", "popularity": 19.974}, {"id": 181812, "video": false, "vote_count": 2569, "vote_average": 6.6, "title": "Star Wars: The Rise of Skywalker", "release_date": "2019-12-18", "original_language": "en", "original_title": "Star Wars: The Rise of Skywalker", "genre_ids": [28, 12, 878], "backdrop_path": "/jOzrELAzFxtMx2I4uDGHOotdfsS.jpg", "adult": false, "overview": "The surviving Resistance faces the First Order once again as the journey of Rey, Finn and Poe Dameron continues. With the power and knowledge of generations behind them, the final battle begins.", "poster_path": "/db32LaOibwEliAmSL2jjDF6oDdj.jpg", "popularity": 192.27}, {"adult": false, "backdrop_path": "/w9iSKX1GSlaPPASW7jSFkFkkDnz.jpg", "genre_ids": [878, 12, 9648], "id": 152, "original_language": "en", "original_title": "Star Trek: The Motion Picture", "overview": "When a destructive space entity is spotted approaching Earth, Admiral Kirk resumes command of the Starship Enterprise in order to intercept, examine, and hopefully stop it.", "poster_path": "/ys5Sgpc27mVo3H5zYLPV9LWDq5.jpg", "release_date": "1979-12-07", "title": "Star Trek: The Motion Picture", "video": false, "vote_average": 6.4, "vote_count": 922, "popularity": 17.605}, {"id": 18, "video": false, "vote_count": 6836, "vote_average": 7.5, "title": "The Fifth Element", "release_date": "1997-05-02", "original_language": "en", "original_title": "The Fifth Element", "genre_ids": [28, 12, 14, 878, 53], "backdrop_path": "/qlGoGQSVMzIjGbpvXzZUOH1FjNu.jpg", "adult": false, "overview": "In 2257, a taxi driver is unintentionally given the task of saving a young girl who is part of the key that will ensure the survival of humanity.", "poster_path": "/zaFa1NRZEnFgRTv5OVXkNIZO78O.jpg", "popularity": 46.446}, {"adult": false, "backdrop_path": "/vgnrUb8KbV3S8gVUcq6rXng9cnz.jpg", "genre_ids": [28, 12, 878], "id": 2164, "original_language": "en", "original_title": "Stargate", "overview": "An interstellar teleportation device, found in Egypt, leads to a planet with humans resembling ancient Egyptians who worship the god Ra.", "poster_path": "/39WsfbB5BshvdbPAYRFXdsjC481.jpg", "release_date": "1994-10-27", "title": "Stargate", "video": false, "vote_average": 6.9, "vote_count": 1833, "popularity": 20.776}, {"id": 7453, "video": false, "vote_count": 2556, "vote_average": 6.7, "title": "The Hitchhiker's Guide to the Galaxy", "release_date": "2005-04-28", "original_language": "en", "original_title": "The Hitchhiker's Guide to the Galaxy", "genre_ids": [12, 35, 878, 10751], "backdrop_path": "/kMf3ewax3ZeiSESaPQxBAReQzDD.jpg", "adult": false, "overview": "Mere seconds before the Earth is to be demolished by an alien construction crew, Arthur Dent is swept off the planet by his friend Ford Prefect, a researcher penning a new edition of \"The Hitchhiker's Guide to the Galaxy.\"", "poster_path": "/fOb4cJMhnZ11BoHNUii3Vcfo3XU.jpg", "popularity": 23.951}, {"id": 339964, "video": false, "vote_count": 4615, "vote_average": 6.6, "title": "Valerian and the City of a Thousand Planets", "release_date": "2017-07-20", "original_language": "en", "original_title": "Valerian and the City of a Thousand Planets", "genre_ids": [28, 12, 878], "backdrop_path": "/5rYnygKCkmqWuMv1O5yAnzGF8gV.jpg", "adult": false, "overview": "In the 28th century, Valerian and Laureline are special operatives charged with keeping order throughout the human territories. On assignment from the Minister of Defense, the two undertake a mission to Alpha, an ever-expanding metropolis where species from across the universe have converged over centuries to share knowledge, intelligence, and cultures. At the center of Alpha is a mysterious dark force which threatens the peaceful existence of the City of a Thousand Planets, and Valerian and Laureline must race to identify the menace and safeguard not just Alpha, but the future of the universe.", "poster_path": "/jfIpMh79fGRqYJ6PwZLCntzgxlF.jpg", "popularity": 40.036}], "total_pages": 15, "total_results": 282}, "recommendations": {"page": 1, "results": [{"adult": false, "backdrop_path": "/4CqJxDxpswkyu5f8trHk9wiY8eJ.jpg", "genre_ids": [53, 18], "id": 491450, "original_language": "da", "original_title": "Vindm\u00f8llernes Sus", "overview": "7th grader Thomas lives in a small city in Denmark. He's in love with the schools tough girl, Vikki and to get close to her, he has to help her and a gang of older boys blow up their teachers bike. The head of the gang is Vikki's boyfriend.", "poster_path": "/x239Wwr1Zr5FYh5XHhf6V66HM5k.jpg", "release_date": "2016-10-27", "title": "Where the Windmills Are", "video": false, "vote_average": 7.7, "vote_count": 3, "popularity": 2.167}, {"adult": false, "backdrop_path": "/62vDFonl3vreT7LpMUzL3XlYy8e.jpg", "genre_ids": [18], "id": 221243, "original_language": "en", "original_title": "Blackout", "overview": "Feature-length 'What-If' drama exploring the effects of a devastating cyber-attack on Britain's national electricity grid.  Based on expert advice and meticulous research, Blackout combines real user-generated footage, alongside fictional scenes, CCTV archive and news reports to build a terrifyingly realistic account of Britain being plunged into darkness.  The film plots the days following a nationwide power cut, as experienced by a cast of ordinary characters struggling to feed and protect themselves and their families. These eyewitness accounts reveal the disastrous impact of a prolonged blackout on hospitals, law and order, transport, and our food and water supplies.  The programme casts members of the public from user-generated footage, weaving real-life archive with scripted drama to tell the story of how Britain could descend into chaos and anarchy without power.", "poster_path": "/5jPehoZD9tJSF3MjxsiSvDO9HiZ.jpg", "release_date": "2013-09-08", "title": "Blackout", "video": false, "vote_average": 7.5, "vote_count": 6, "popularity": 1.351}, {"adult": false, "backdrop_path": "/n2ul8ceAuYyEeVttk9XKNRLO04t.jpg", "genre_ids": [53, 18, 878], "id": 289180, "original_language": "en", "original_title": "H.", "overview": "H. is a modern interpretation of a classic Greek tragedy in which two women, each named Helen, live out their mirrored lives of one another in the town of Troy, NY.  The first Helen is in her 60s, lives with her husband Roy, and takes care of a small, extremely lifelike baby doll called a \u201cReborn Doll,\u201d which she cares for as a living baby.  The second Helen is in her 30s, has a successful art career with her partner Alex, and is four months pregnant.  One night, something falls out of the sky and explodes over the town. In the aftermath of this event, bizarre and unexplainable things begin to happen.  Many people in the town go missing\u2014Helen\u2019s husband being one of them\u2014and unnatural cloud formations begin appearing in the sky.  Meanwhile, the two Helens find themselves, and their lives spinning out of control.", "poster_path": "/4tcKNAK3IvlLRk4bRMQK9c7EK9F.jpg", "release_date": "2014-08-28", "title": "H.", "video": false, "vote_average": 6.2, "vote_count": 9, "popularity": 2.963}, {"id": 103194, "video": false, "vote_count": 8, "vote_average": 6.0, "title": "Dinotasia", "release_date": "2012-05-04", "original_language": "en", "original_title": "Dinotasia", "genre_ids": [16, 99], "backdrop_path": "/hDDk6B6MLymUVNB7iqzn81PkgrZ.jpg", "adult": false, "overview": "Computer-generated animation about the daily lives of dinosaurs, narrated by Werner Herzog.", "poster_path": "/ySqhKJB08s3cTpFOjxluQtUKjVG.jpg", "popularity": 3.365}, {"adult": false, "backdrop_path": "/fTewah7w7L9VbdJXjKcRGJ011kn.jpg", "genre_ids": [80, 27, 53], "id": 63959, "original_language": "en", "original_title": "The Zodiac Killer", "overview": "The San Francisco area is beset by a series of seemingly random murders without motive or pattern. The police are taunted by phone calls and letters. Could the maniac be the violent, truck driver, or the seemingly mild-mannered mailman, or even a cop?", "poster_path": "/eoPS4EaZrvRq3CJ6tAkWKeBjXDq.jpg", "release_date": "1971-04-07", "title": "The Zodiac Killer", "video": false, "vote_average": 5.7, "vote_count": 7, "popularity": 2.434}, {"adult": false, "backdrop_path": "/uwWzdYRTeOGJcc76Xbs7FIPUU9V.jpg", "genre_ids": [99], "id": 27175, "original_language": "en", "original_title": "The Real Dirt on Farmer John", "overview": "An outcast in his community, Farmer John bravely stands amidst a failing economy, vicious rumors, and violence. By melding the traditions of family farming with the power of art and free expression, this powerful story of transformation and renewal heralds a resurrection of farming in America.  Through highly personal interviews and 50 years of beautifully textured footage, filmmaker Taggart Siegel shares Farmer John\u2019s haunting and humorous odyssey, capturing what it means to be wildly different in a rural community.", "poster_path": "/xv6W5AyI544MWPg4KQwGbpaR01n.jpg", "release_date": "2006-01-20", "title": "The Real Dirt on Farmer John", "video": false, "vote_average": 7.6, "vote_count": 7, "popularity": 2.728}, {"adult": false, "backdrop_path": "/zqngFWWbawugumT3Zgq0wGOdrFk.jpg", "genre_ids": [99], "id": 267433, "original_language": "en", "original_title": "NOW: In the Wings on a World Stage", "overview": "Kevin Spacey, Sam Mendes and the Bridge Project Company go on the road in NOW: in the Wings on a World Stage. In over 200 performances, and across 3 continents, Kevin and the troupe reveal some of the most intimate moments behind the scenes of their staging of Shakespeare's classic tragedy, \"Richard III.\" Their story and experiences weave around, and reflect on, excerpts from the play from their various locations, from Epidaurus to Doha, and provides a great opportunity for those who have never experienced Spacey on stage to witness his immerse and captivating interpretation of Richard III. NOW chronicles the first collaboration between Spacey and Mendes since both won Academy Awards\u00ae for their work on American Beauty.", "poster_path": "/hTQ7aBYGXyyu0N2JvIlOmP5qUEe.jpg", "release_date": "2014-06-09", "title": "NOW: In the Wings on a World Stage", "video": false, "vote_average": 6.3, "vote_count": 11, "popularity": 4.088}, {"adult": false, "backdrop_path": "/2POOiTt4tj8zukpNUeZIlhwymD7.jpg", "genre_ids": [99], "id": 434336, "original_language": "en", "original_title": "The Sunshine Makers", "overview": "The story of Nicholas Sand and Tim Scully, the unlikely duo at the heart of 1960s American drug counter-culture. United in a utopian mission to save the planet through the consciousness-raising power of LSD, these underground chemists manufactured a massive amount of acid, including the gold standard for quality LSD, 'Orange Sunshine,' all while staying one step ahead of the Feds.", "poster_path": "/cr9Nddno9yoqjFgIfpbEZoHDmiv.jpg", "release_date": "2015-11-01", "title": "The Sunshine Makers", "video": false, "vote_average": 6.9, "vote_count": 13, "popularity": 1.952}, {"id": 174688, "video": false, "vote_count": 11, "vote_average": 7.1, "title": "The Trials of Muhammad Ali", "release_date": "2013-08-23", "original_language": "en", "original_title": "The Trials of Muhammad Ali", "genre_ids": [99], "backdrop_path": "/1k1HBLVct1GpBx388zSPVs0Rc60.jpg", "adult": false, "overview": "Brash boxer Cassius Clay burst into the American consciousness in the early 1960s, just ahead of the Civil Rights movement. His transformation into the spiritually enlightened heavyweight champion Muhammad Ali is legendary, but this religious awakening also led to a bitter legal battle with the U.S. government after he refused to serve in the Vietnam War. This film reveals the perfect storm of race, religion and politics that shaped one of the most recognizable figures in sports history.", "poster_path": "/jXfedOxmyUq5Z8Zb1oZLVZiouIu.jpg", "popularity": 3.882}], "total_pages": 1, "total_results": 9}, "credits": {"cast": [{"cast_id": 2, "character": "Himself", "credit_id": "551cba979251416a3300163f", "gender": 2, "id": 24342, "name": "David Prowse", "order": 1, "profile_path": "/9bhr63eDwCDkGHAXQ85JmHD9M6L.jpg"}, {"cast_id": 3, "character": "Himself", "credit_id": "551cbab69251416a1e0015f9", "gender": 0, "id": 33185, "name": "Jeremy Bulloch", "order": 2, "profile_path": "/yRnHoDmmWKdoLdiscCFfRpzzqMa.jpg"}, {"cast_id": 4, "character": "Himself", "credit_id": "551cbacd9251416a21001746", "gender": 2, "id": 58475, "name": "Angus MacInnes", "order": 3, "profile_path": "/qftkol8hj7yBBP3KCxRWYkhRyLC.jpg"}, {"cast_id": 5, "character": "Himself", "credit_id": "551cbae5c3a3684a2f0016e5", "gender": 2, "id": 17356, "name": "Garrick Hagon", "order": 4, "profile_path": "/lZYitsCPzlwevNuHzqaSZMQiuUa.jpg"}, {"cast_id": 6, "character": "Himself", "credit_id": "551cbafe9251416a1e001609", "gender": 2, "id": 1271092, "name": "Derek Lyons", "order": 5, "profile_path": "/oO7dJlNLJhYyqdTsoUQAFXp1UQS.jpg"}, {"cast_id": 7, "character": "Herself", "credit_id": "551cbc94c3a3684a200016d0", "gender": 0, "id": 1271116, "name": "Pam Rose", "order": 6, "profile_path": "/uaFDw1Ksx9ctyDKhoxTw4aFRRtu.jpg"}, {"cast_id": 8, "character": "Himself", "credit_id": "551cbca79251416a300016a9", "gender": 2, "id": 199356, "name": "Paul Blake", "order": 7, "profile_path": "/WSO4C7YdURE1thtj2MPkWSKD6o.jpg"}, {"cast_id": 9, "character": "Himself", "credit_id": "551cbd8cc3a3680cc0000978", "gender": 2, "id": 227857, "name": "Anthony Forrest", "order": 8, "profile_path": null}, {"cast_id": 10, "character": "Himself", "credit_id": "551cbda79251416a210017ac", "gender": 2, "id": 1271064, "name": "John Chapman", "order": 9, "profile_path": "/oqqR2ylj8CyjlIaSizHlhQlZ1PV.jpg"}, {"cast_id": 11, "character": "", "credit_id": "551cbdcb9251416a300016dc", "gender": 0, "id": 1448569, "name": "Laurie Goode", "order": 10, "profile_path": null}], "crew": [{"credit_id": "54cbf1719251413e75000004", "department": "Directing", "gender": 0, "id": 175394, "job": "Director", "name": "Jon Spira", "profile_path": null}, {"credit_id": "551cbed1c3a3680a1d0009e6", "department": "Editing", "gender": 0, "id": 175394, "job": "Editor", "name": "Jon Spira", "profile_path": null}, {"credit_id": "551cba68c3a3680a1d000920", "department": "Writing", "gender": 0, "id": 175394, "job": "Writer", "name": "Jon Spira", "profile_path": null}, {"credit_id": "551cbeff9251411895001201", "department": "Crew", "gender": 0, "id": 1448570, "job": "Cinematography", "name": "Sonny Malhotra", "profile_path": null}]}}