{"adult": false, "backdrop_path": "/r4SKdA6zXsnGplBnLDIUkBcoYnk.jpg", "belongs_to_collection": null, "budget": 0, "genres": [{"id": 18, "name": "Drama"}], "homepage": "", "id": 32329, "imdb_id": "tt0095545", "original_language": "en", "original_title": "Looking for Langston", "overview": "A black and white, fantasy-like recreation of high-society gay men during the Harlem Renaissance, with archival footage and photographs intercut with a story. A wake is going on, with mourners gathered around a coffin. Downstairs is an elegant bar where tuxedoed men dance and talk. One of them has a dream in which he comes upon Beauty, who seems to reject him, although when he awakes, Beauty is sleeping beside him. His story and his visits to the jazz and dance club are framed by voices reading from the poetry and essays of Hughes and others. The text is rarely explicit, but the freedom of gay Black men in the 1920s in Harlem is suggested and celebrated visually.", "popularity": 2.349, "poster_path": "/tzrBH6tU5xSeFZc9UqsdxdXrH8s.jpg", "production_companies": [{"id": 7281, "logo_path": "/lkqIuaKTm2sg3umwTBScmqyzLX5.png", "name": "British Film Institute", "origin_country": "GB"}, {"id": 16228, "logo_path": null, "name": "Sankofa Film & Video", "origin_country": ""}], "production_countries": [{"iso_3166_1": "GB", "name": "United Kingdom"}], "release_date": "1989-10-31", "revenue": 0, "runtime": 45, "spoken_languages": [{"iso_639_1": "en", "name": "English"}], "status": "Released", "tagline": "", "title": "Looking for Langston", "video": false, "vote_average": 6.0, "vote_count": 5, "keywords": {"keywords": [{"id": 158718, "name": "lgbt"}, {"id": 193412, "name": "harlem renaissance"}]}, "similar": {"page": 1, "results": [{"id": 449176, "video": false, "vote_count": 3691, "vote_average": 8.1, "title": "Love, Simon", "release_date": "2018-02-16", "original_language": "en", "original_title": "Love, Simon", "genre_ids": [35, 18, 10749], "backdrop_path": "/rqMEeajyzSF4PpJtdCB816Iz8Vr.jpg", "adult": false, "overview": "Everyone deserves a great love story. But for seventeen-year old Simon Spier it's a little more complicated: he's yet to tell his family or friends he's gay and he doesn't know the identity of the anonymous classmate he's fallen for online.", "poster_path": "/5YUYg5q7QfC4IoNwNUtiwdiYKPr.jpg", "popularity": 17.201}, {"adult": false, "backdrop_path": "/6VhtzImP1UvYkIAHS4L8yfmceOM.jpg", "genre_ids": [18], "id": 26280, "original_language": "fr", "original_title": "J'ai tu\u00e9 ma m\u00e8re", "overview": "Hubert, a brash 17-year-old, is confused and torn by a love-hate relationship with his mother that consumes him more and more each day. After distressing ordeals and tragic episodes, Hubert will find his mother on the banks of Saint Lawrence river, where he grew up, and where a murder will be committed: the murder of childhood.", "poster_path": "/cxb02CLALt9He1Dt0BIDKj9fdvM.jpg", "release_date": "2009-06-05", "title": "I Killed My Mother", "video": false, "vote_average": 7.7, "vote_count": 655, "popularity": 11.451}, {"id": 21634, "video": false, "vote_count": 250, "vote_average": 7.9, "title": "Prayers for Bobby", "release_date": "2009-02-27", "original_language": "en", "original_title": "Prayers for Bobby", "genre_ids": [18, 36, 10770], "backdrop_path": "/pSjGsbqyKUzF8rHzL0vtVWV1pS6.jpg", "adult": false, "overview": "Bobby Griffith was his mother's favorite son, the perfect all-American boy growing up under deeply religious influences in Walnut Creek, California. Bobby was also gay. Struggling with a conflict no one knew of much less understood Bobby finally came out to his family.", "poster_path": "/d9TGJxEMkLTEF5lWAx1PLNDNpA0.jpg", "popularity": 9.034}, {"adult": false, "backdrop_path": "/qs4P8THxjbMZYc9QuZvzN95KzBM.jpg", "genre_ids": [18, 53, 9648], "id": 184352, "original_language": "fr", "original_title": "Tom \u00e0 la ferme", "overview": "A young man travels to an isolated farm for his lover's funeral where he's quickly drawn into a twisted, sexually charged game by his lover's aggressive brother.", "poster_path": "/wS4oYOHEKva9sMLOHSr7tW19SaQ.jpg", "release_date": "2013-09-02", "title": "Tom at the Farm", "video": false, "vote_average": 6.9, "vote_count": 408, "popularity": 7.884}, {"adult": false, "backdrop_path": "/qWZSYN2tBoZdUY9NDdvSKQ6OH4u.jpg", "genre_ids": [18], "id": 377154, "original_language": "fr", "original_title": "Quand on a 17 Ans", "overview": "Set in the beautiful high Pyrenees in south-west France, Damien lives with his mother Marianne, a doctor, while his father, a pilot, is on a tour of duty abroad with the French military. At school, Damien is bullied by Thomas,  who lives in the farming community up in the mountains, nut learns to fight back. The boys find themselves living together when Marianne invites Thomas to come and stay with them while his mother is ill in hospital. Damien must learn to live with the boy who terrorised him.", "poster_path": "/ogfzBX1iNzgaCBTmRRf6c69L19k.jpg", "release_date": "2016-02-27", "title": "Being 17", "video": false, "vote_average": 6.9, "vote_count": 210, "popularity": 6.56}, {"adult": false, "backdrop_path": "/qbrmEfBEcdrzHSAHgazJWmz3TSU.jpg", "genre_ids": [18], "id": 616229, "original_language": "en", "original_title": "The Male Gaze: The Heat of the Night", "overview": "When darkness falls, temperatures rise in these six stories about late night confessions, intimacy for sale, high speed hookups and full moon frissons. But when the sun comes up and reality reveals itself, will it have all been worth it?", "poster_path": "/e1gNLO829rkE73sBJ3aClZJHNXd.jpg", "release_date": "2019-07-15", "title": "The Male Gaze: The Heat of the Night", "video": false, "vote_average": 3.3, "vote_count": 3, "popularity": 7.834}, {"adult": false, "backdrop_path": "/ztD8x6kFrhyPIrdbEqWkxwKEgzv.jpg", "genre_ids": [80, 18], "id": 383526, "original_language": "es", "original_title": "Nunca vas a estar solo", "overview": "Introverted Juan, manager of a mannequin factory, lives alone with his eighteen-year-old gay son, Pablo. Whilst Pablo blithely studies dance, Juan is hoping that, after twenty-five years at the firm, his boss will consider him for a partnership. When Pablo is badly wounded in a brutal homophobic attack which sees him hospitalised, his father realises just how far they have become estranged. A lack of witnesses and expensive medical bills force Juan to leave the quiet stability of his life for good and reposition himself in a world where there is discrimination. Time and again his efforts come to nought, until one night on the streets of Santiago he makes up his own rules in order to save his son.", "poster_path": "/lGReDf0NnrAbdXaU1SbFyKnJJH4.jpg", "release_date": "2016-02-13", "title": "You'll Never Be Alone", "video": false, "vote_average": 7.1, "vote_count": 17, "popularity": 2.412}, {"adult": false, "backdrop_path": "/4NJplkljN06NQLMLSUNmrIsBjBZ.jpg", "genre_ids": [35, 18], "id": 400547, "original_language": "en", "original_title": "Hurricane Bianca", "overview": "Hurricane Bianca is a revenge comedy about a New York teacher who moves to a small town in Texas, gets fired for being gay, and returns disguised in drag to get revenge on the people who were nasty to him.", "poster_path": "/w1QM09R1TqwHTb5UA8X8jR2yh4x.jpg", "release_date": "2016-06-03", "title": "Hurricane Bianca", "video": false, "vote_average": 6.2, "vote_count": 212, "popularity": 9.77}, {"adult": false, "backdrop_path": "/1Z53X8Rj7ebuIUHU0XqizkFMPOK.jpg", "genre_ids": [18, 10749], "id": 17483, "original_language": "en", "original_title": "Shelter", "overview": "Forced to give up his dreams of art school, Zach works dead-end jobs to support his sister and her son. Questioning his life, he paints, surfs and hangs out with his best friend, Gabe. When Gabe's older brother returns home for the summer, Zach suddenly finds himself drawn into a relationship he didn't expect.", "poster_path": "/auMRglisVmM01BRGAWCjv7AuUeE.jpg", "release_date": "2007-06-16", "title": "Shelter", "video": false, "vote_average": 7.7, "vote_count": 249, "popularity": 11.276}, {"adult": false, "backdrop_path": "/3Z0GbJ3NKBEbotdHxsllRBKRMmj.jpg", "genre_ids": [18], "id": 472451, "original_language": "en", "original_title": "Boy Erased", "overview": "Jared, the son of a Baptist pastor in a small American town, is outed to his parents at age 19. Jared is faced with an ultimatum: attend a gay conversion therapy program \u2013 or be permanently exiled and shunned by his family, friends, and faith.", "poster_path": "/oZbhTdi0ZQY7iiSQ0L7h3ya6NDF.jpg", "release_date": "2018-09-24", "title": "Boy Erased", "video": false, "vote_average": 7.2, "vote_count": 653, "popularity": 14.358}, {"adult": false, "backdrop_path": "/da8Kj1bgPvL8Tf1PgkA70UwmYzh.jpg", "genre_ids": [35, 18, 10749], "id": 10938, "original_language": "en", "original_title": "Beautiful Thing", "overview": "Set during a long, hot summer on the Thamesmead Estate in Southeast London, three teenagers edge towards adulthood.", "poster_path": "/8z1ZkZoznIGLyx4xHEaQNZqG63D.jpg", "release_date": "1996-06-21", "title": "Beautiful Thing", "video": false, "vote_average": 7.5, "vote_count": 154, "popularity": 9.835}, {"adult": false, "backdrop_path": "/8uwHvRutx9y79ZBIowg7VDVx9Dy.jpg", "genre_ids": [18, 10749], "id": 222918, "original_language": "en", "original_title": "The Wilding", "overview": "When juvenile inmate Malcolm is offered a chance at parole, he is torn between his chance for freedom and protecting the one he loves.", "poster_path": "/5vbTbtgm0dH5MHwVQBaWo47gG6Q.jpg", "release_date": "2012-02-13", "title": "The Wilding", "video": false, "vote_average": 6.8, "vote_count": 4, "popularity": 4.083}, {"adult": false, "backdrop_path": "/zCC5Han27o5AxhdNJ86b5YhLhIS.jpg", "genre_ids": [18, 10749], "id": 26933, "original_language": "fr", "original_title": "Les roseaux sauvages", "overview": "As the Algerian War draws to a close, a teenager with a girlfriend starts feeling homosexual urges for two of his classmates: a country boy, and a French-Algerian intellectual.", "poster_path": "/vPPsAieu9KEVZcI06xKHl9zztUO.jpg", "release_date": "1994-06-01", "title": "Wild Reeds", "video": false, "vote_average": 7.5, "vote_count": 46, "popularity": 5.558}, {"adult": false, "backdrop_path": "/sZo96MCFy4yFaJFKIfj4hbyvTci.jpg", "genre_ids": [18, 10749], "id": 26371, "original_language": "en", "original_title": "Maurice", "overview": "After his lover rejects him, a young man trapped by the oppressiveness of Edwardian society tries to come to terms with and accept his sexuality.", "poster_path": "/4MI2y8XViPrDiKs1p0QC4bTeZzf.jpg", "release_date": "1987-08-21", "title": "Maurice", "video": false, "vote_average": 7.6, "vote_count": 161, "popularity": 11.282}, {"adult": false, "backdrop_path": "/r3DKR4VybkjYP2w4wYFIf2cEPc.jpg", "genre_ids": [10749, 18], "id": 322127, "original_language": "de", "original_title": "You & I", "overview": "Summer in Berlin. Jonas is planning a trip through the little known area of the Uckermark in preparation for a photography project. He invites his best friend, Phillip, to come along. When they pick up a hitchhiker named Boris, the friendship of the two starts to fray. Maybe three\u2019s a crowd after all? By the end of the summer, things between Jonas and Phillip won\u2019t ever be the same again.", "poster_path": "/59OmxhLZVh3ZXLAu6iaywYYx01S.jpg", "release_date": "2015-09-16", "title": "You & I", "video": false, "vote_average": 7.4, "vote_count": 22, "popularity": 5.241}, {"id": 10139, "video": false, "vote_count": 1269, "vote_average": 7.3, "title": "Milk", "release_date": "2008-11-05", "original_language": "en", "original_title": "Milk", "genre_ids": [18, 36], "backdrop_path": "/i8NcYenVqMzB95pVz8YOPIqmGj8.jpg", "adult": false, "overview": "The true story of Harvey Milk, the first openly gay man ever elected to public office. In San Francisco in the late 1970s, Harvey Milk becomes an activist for gay rights and inspires others to join him in his fight for equal rights that should be available to all Americans.", "poster_path": "/aTbhbnq9YnKJM6wGIiedfJaoV6m.jpg", "popularity": 13.064}, {"adult": false, "backdrop_path": "/useuHJQ5HOoEWkAvEjL1FW1sUfe.jpg", "genre_ids": [18], "id": 376867, "original_language": "en", "original_title": "Moonlight", "overview": "The tender, heartbreaking story of a young man\u2019s struggle to find himself, told across three defining chapters in his life as he experiences the ecstasy, pain, and beauty of falling in love, while grappling with his own sexuality.", "poster_path": "/qAwFbszz0kRyTuXmMeKQZCX3Q2O.jpg", "release_date": "2016-10-21", "title": "Moonlight", "video": false, "vote_average": 7.4, "vote_count": 4410, "popularity": 21.716}, {"id": 84892, "video": false, "vote_count": 6553, "vote_average": 7.7, "title": "The Perks of Being a Wallflower", "release_date": "2012-09-20", "original_language": "en", "original_title": "The Perks of Being a Wallflower", "genre_ids": [18], "backdrop_path": "/uhLcaTPeBpUNgYhZXhDWkj7gMkp.jpg", "adult": false, "overview": "15-year-old freshman Charlie is a wallflower, always watching life from the sidelines, until two charismatic senior students become his mentors. Free-spirited Sam and her stepbrother Patrick help Charlie discover the joys of friendship, first love, music and more, while a teacher sparks Charlie's dreams of becoming a writer.", "poster_path": "/cyNQLnHnXZcTUDXVVSEYmquOTOI.jpg", "popularity": 19.486}, {"adult": false, "backdrop_path": "/gZeJziVigmRqbkEZwKAtSqlLQ6s.jpg", "genre_ids": [18, 10749], "id": 370663, "original_language": "en", "original_title": "Below Her Mouth", "overview": "An unexpected affair quickly escalates into a heart-stopping reality for two women whose passionate connection changes their lives forever.", "poster_path": "/nTGbq37hYLuNy7YgMg0gVLma0NS.jpg", "release_date": "2016-09-10", "title": "Below Her Mouth", "video": false, "vote_average": 6.2, "vote_count": 456, "popularity": 18.664}, {"id": 424694, "video": false, "vote_count": 9728, "vote_average": 8.0, "title": "Bohemian Rhapsody", "release_date": "2018-10-24", "original_language": "en", "original_title": "Bohemian Rhapsody", "genre_ids": [18, 10402], "backdrop_path": "/93xA62uLd5CwMOAs37eQ7vPc1iV.jpg", "adult": false, "overview": "Singer Freddie Mercury, guitarist Brian May, drummer Roger Taylor and bass guitarist John Deacon take the music world by storm when they form the rock 'n' roll band Queen in 1970. Hit songs become instant classics. When Mercury's increasingly wild lifestyle starts to spiral out of control, Queen soon faces its greatest challenge yet \u2013 finding a way to keep the band together amid the success and excess.", "poster_path": "/lHu1wtNaczFPGFDTrjCSzeLPTKN.jpg", "popularity": 37.217}], "total_pages": 177, "total_results": 3537}, "recommendations": {"page": 1, "results": [{"id": 44394, "video": false, "vote_count": 4, "vote_average": 6.8, "title": "Diary", "release_date": "1983-01-01", "original_language": "he", "original_title": "Yoman", "genre_ids": [99], "backdrop_path": null, "adult": false, "overview": "A film diary in which Perlov films the minutiae of his and his family's day-to-day life. From these small bits, he builds up a broad picture of life in Israel in the '70s and '80s.", "poster_path": "/ekUTgar8TzJyUquGEWVyX1m5RpG.jpg", "popularity": 2.132}, {"adult": false, "backdrop_path": null, "genre_ids": [], "id": 129684, "original_language": "en", "original_title": "Cheese", "overview": "Rottenberg\u2019s newest film, Cheese (2007), conflates farm-girl imagery with the fairy tale \u201cRapunzel\u201d into a story loosely based on the Sutherland Sisters, renowned for their extremely long hair. Floating through a pastoral yet mazelike setting of raw wooden debris cobbled together into a benign shantytown, six longhaired women in flowing white nightgowns \u201cmilk\u201d their locks and the goats they live with to generate cheese. Shots of animals crowded in pens and the sisters\u2019 bunk bed\u2013 cluttered room visually compare the women to their ruminant allies. As nurturing caretakers, these women represent maternal aspects of Mother Nature. Here Rottenberg investigates feminine magic, the ability to \u201cgrow things out of the body\u201d as she says, as the ultimate, wondrous physical mystery.", "poster_path": "/dvsCZw96byWMYHVJiOMFqjCdcv0.jpg", "release_date": "2007-01-01", "title": "Cheese", "video": false, "vote_average": 5.0, "vote_count": 4, "popularity": 0.964}, {"adult": false, "backdrop_path": null, "genre_ids": [10752, 18], "id": 409962, "original_language": "en", "original_title": "USS VD: Ship of Shame", "overview": "This film was made by the U.S. government during World War II to show its young servicemen the results of \"fooling around\" with \"loose women\" overseas. Actual victims of such sexually transmitted diseases as syphilis and gonorrhoea are shown, along with the physical deterioration that accompanies those diseases.", "poster_path": "/qwwOF0sQ0hPQAIG4slLRYJ26C6X.jpg", "release_date": "1942-01-02", "title": "USS VD: Ship of Shame", "video": false, "vote_average": 3.8, "vote_count": 4, "popularity": 1.898}, {"adult": false, "backdrop_path": "/9tuk7kxaaP1rHMpkU9A69gYRzuZ.jpg", "genre_ids": [99], "id": 97915, "original_language": "en", "original_title": "Point of Order!", "overview": "Point of Order is compiled from TV footage of the 1954 Army-McCarthy hearings, in which the Army accused Senator McCarthy of improperly pressuring the Army for special privileges for Private David Schine, formerly of McCarthy's investigative staff. McCarthy accused the Army of holding Schine hostage to keep him from searching for Communists in the Army. These hearings resulted in McCarthy's eventual censure for conduct unbecoming a senator.", "poster_path": "/c2BkZsfTrzWztL2MTgH29orGhEx.jpg", "release_date": "1964-01-14", "title": "Point of Order!", "video": false, "vote_average": 5.8, "vote_count": 5, "popularity": 1.469}], "total_pages": 1, "total_results": 4}, "credits": {"cast": [{"cast_id": 1, "character": "Alex", "credit_id": "52fe44ce9251416c9101d73f", "gender": 0, "id": 219328, "name": "Ben Ellison", "order": 0, "profile_path": null}, {"cast_id": 2, "character": "Beauty", "credit_id": "52fe44ce9251416c9101d743", "gender": 0, "id": 1199199, "name": "Matthew Baidoo", "order": 1, "profile_path": null}, {"cast_id": 3, "character": "James", "credit_id": "52fe44ce9251416c9101d747", "gender": 0, "id": 218405, "name": "Akim Mogaji", "order": 2, "profile_path": null}, {"cast_id": 4, "character": "Karl", "credit_id": "52fe44ce9251416c9101d74b", "gender": 2, "id": 1199200, "name": "John Wilson", "order": 3, "profile_path": null}, {"cast_id": 5, "character": "Marcus", "credit_id": "52fe44ce9251416c9101d74f", "gender": 0, "id": 1199201, "name": "Dencil Williams", "order": 4, "profile_path": null}, {"cast_id": 16, "character": "Dean", "credit_id": "5a21c26e92514103390aa848", "gender": 0, "id": 1834008, "name": "Guy Burgess", "order": 5, "profile_path": null}, {"cast_id": 17, "character": "Carlos", "credit_id": "5a21c27f92514103240a9556", "gender": 2, "id": 131123, "name": "Dublin James", "order": 6, "profile_path": null}, {"cast_id": 18, "character": "Leatherboy", "credit_id": "5a21c2840e0a264cbe0a8efe", "gender": 0, "id": 1835378, "name": "Harry Donaldson", "order": 7, "profile_path": null}, {"cast_id": 19, "character": "Angel", "credit_id": "5a21c28d0e0a264cbc0af4c3", "gender": 0, "id": 1933063, "name": "Jimmy Sommerville", "order": 8, "profile_path": null}, {"cast_id": 20, "character": "British voice (voice)", "credit_id": "5a21c29b92514103330a8b18", "gender": 0, "id": 1759646, "name": "Stuart Hall", "order": 9, "profile_path": null}, {"cast_id": 21, "character": "Himself (archive footage)", "credit_id": "5a21c2a4c3a3680b9d0a3482", "gender": 0, "id": 1132114, "name": "Langston Hughes", "order": 10, "profile_path": null}], "crew": [{"credit_id": "52fe44ce9251416c9101d755", "department": "Directing", "gender": 2, "id": 108464, "job": "Director", "name": "Isaac Julien", "profile_path": "/3I1Su7TgaUYy1tecYUHDqTrzR2F.jpg"}, {"credit_id": "52fe44ce9251416c9101d75b", "department": "Writing", "gender": 2, "id": 108464, "job": "Screenplay", "name": "Isaac Julien", "profile_path": "/3I1Su7TgaUYy1tecYUHDqTrzR2F.jpg"}, {"credit_id": "52fe44ce9251416c9101d761", "department": "Production", "gender": 0, "id": 1199202, "job": "Producer", "name": "Nadine Marsh-Edwards", "profile_path": null}, {"credit_id": "52fe44ce9251416c9101d767", "department": "Camera", "gender": 1, "id": 988878, "job": "Director of Photography", "name": "Nina Kellgren", "profile_path": null}, {"credit_id": "52fe44ce9251416c9101d76d", "department": "Editing", "gender": 0, "id": 1199203, "job": "Editor", "name": "Robert Hargreaves", "profile_path": null}, {"credit_id": "52fe44ce9251416c9101d773", "department": "Sound", "gender": 0, "id": 1199204, "job": "Original Music Composer", "name": "Wayson Jones", "profile_path": null}, {"credit_id": "52fe44ce9251416c9101d779", "department": "Sound", "gender": 0, "id": 1199205, "job": "Original Music Composer", "name": "Trevor Mathison", "profile_path": null}, {"credit_id": "52fe44ce9251416c9101d77f", "department": "Sound", "gender": 2, "id": 1199206, "job": "Original Music Composer", "name": "Peter Spencer", "profile_path": null}, {"credit_id": "52fe44ce9251416c9101d785", "department": "Art", "gender": 0, "id": 1143387, "job": "Art Direction", "name": "Derek Brown", "profile_path": null}, {"credit_id": "52fe44ce9251416c9101d78b", "department": "Sound", "gender": 0, "id": 1199209, "job": "Sound mixer", "name": "Ronald Bailey", "profile_path": null}]}}