{"adult": false, "backdrop_path": "/lnUJNGQiTeSTgGEjLdiX3yE5NCF.jpg", "belongs_to_collection": null, "budget": 0, "genres": [{"id": 99, "name": "Documentary"}], "homepage": null, "id": 324051, "imdb_id": "tt3645068", "original_language": "en", "original_title": "Nat King Cole: Afraid of the Dark", "overview": "Take an in-depth look at the life and talent of the trailblazing musician who conquered racial barriers to leave an indelible mark on the jazz world.", "popularity": 1.814, "poster_path": "/ff95CtHiJrlA6ToOw4zLeBH4XJ8.jpg", "production_companies": [], "production_countries": [], "release_date": "2014-05-13", "revenue": 0, "runtime": 90, "spoken_languages": [{"iso_639_1": "en", "name": "English"}], "status": "Released", "tagline": "", "title": "Nat King Cole: Afraid of the Dark", "video": false, "vote_average": 7.3, "vote_count": 8, "keywords": {"keywords": [{"id": 5565, "name": "biography"}, {"id": 47017, "name": "jazz singer"}, {"id": 155850, "name": "jazz artist"}, {"id": 164294, "name": "black singer"}, {"id": 164443, "name": "african american music"}, {"id": 199692, "name": "african american man"}]}, "similar": {"page": 1, "results": [{"adult": false, "backdrop_path": "/8McBKWoQOQZfeIGQl23g0TJ6jto.jpg", "genre_ids": [99, 10402, 36], "id": 504561, "original_language": "en", "original_title": "Quincy", "overview": "An intimate look into the life of icon Quincy Jones. A unique force in music and popular culture for 70 years, Jones has transcended racial and cultural boundaries; his story is inextricably woven into the fabric of America.", "poster_path": "/yYtY9CRLyz4dXqTOiimdMF7Nt4e.jpg", "release_date": "2018-09-21", "title": "Quincy", "video": false, "vote_average": 7.6, "vote_count": 43, "popularity": 8.14}, {"adult": false, "backdrop_path": "/nU6DDTabbMkd3649WYtSiOdHCMC.jpg", "genre_ids": [18, 10749], "id": 332283, "original_language": "en", "original_title": "Mary Shelley", "overview": "The love affair between poet Percy Shelley and Mary Wollstonecraft Godwin resulted in the creation of an immortal novel, \u201cFrankenstein; or, The Modern Prometheus.\u201d", "poster_path": "/gKHJTsrfxJtfFNPQJn2hDNEMtFf.jpg", "release_date": "2018-04-22", "title": "Mary Shelley", "video": false, "vote_average": 7.1, "vote_count": 516, "popularity": 12.227}, {"id": 331781, "video": false, "vote_count": 769, "vote_average": 7.6, "title": "Amy", "release_date": "2015-07-03", "original_language": "en", "original_title": "Amy", "genre_ids": [99, 10402], "backdrop_path": "/ktivqGIKG8hk9nwwX2G2FgsBgaD.jpg", "adult": false, "overview": "A documentary on the life of Amy Winehouse, the immensely talented yet doomed songstress. We see her from her teen years, where she already showed her singing abilities, to her finding success and then her downward spiral into alcoholism and drugs.", "poster_path": "/hr0laiK7CVmsT87iQml153xs3Up.jpg", "popularity": 12.766}, {"id": 1955, "video": false, "vote_count": 1711, "vote_average": 8.1, "title": "The Elephant Man", "release_date": "1980-10-02", "original_language": "en", "original_title": "The Elephant Man", "genre_ids": [18, 36], "backdrop_path": "/rR479zn26lJp4vNxXKjfBVCHLAW.jpg", "adult": false, "overview": "A Victorian surgeon rescues a heavily disfigured man being mistreated by his \"owner\" as a side-show freak. Behind his monstrous fa\u00e7ade, there is revealed a person of great intelligence and sensitivity. Based on the true story of Joseph Merrick (called John Merrick in the film), a severely deformed man in 19th century London.", "poster_path": "/lDXJUmLQsViSKLbil2luD91l2kE.jpg", "popularity": 12.883}, {"adult": false, "backdrop_path": "/mYKP6qcDUimVMAHQWLOuDHjO19S.jpg", "genre_ids": [35], "id": 445629, "original_language": "en", "original_title": "Fighting with My Family", "overview": "Born into a tight-knit wrestling family, Paige and her brother Zak are ecstatic when they get the once-in-a-lifetime opportunity to try out for the WWE. But when only Paige earns a spot in the competitive training program, she must leave her loved ones behind and face this new cutthroat world alone. Paige's journey pushes her to dig deep and ultimately prove to the world that what makes her different is the very thing that can make her a star.", "poster_path": "/cVhe15rJLRjolunSWLBN6xQLyGU.jpg", "release_date": "2019-02-14", "title": "Fighting with My Family", "video": false, "vote_average": 6.7, "vote_count": 643, "popularity": 18.498}, {"adult": false, "backdrop_path": "/urnGzQvP8fwWWGkn1k809KqIjbm.jpg", "genre_ids": [18], "id": 87093, "original_language": "en", "original_title": "Big Eyes", "overview": "The story of the awakening of painter, Margaret Keane, her phenomenal success in the 1950s, and the subsequent legal difficulties she had with her husband, who claimed credit for her works in the 1960s.", "poster_path": "/z2tqzprHojhgEGYKQepjU28oQg6.jpg", "release_date": "2014-12-24", "title": "Big Eyes", "video": false, "vote_average": 7.0, "vote_count": 2349, "popularity": 14.024}, {"id": 5915, "video": false, "vote_count": 6283, "vote_average": 7.8, "title": "Into the Wild", "release_date": "2007-09-11", "original_language": "en", "original_title": "Into the Wild", "genre_ids": [12, 18], "backdrop_path": "/9yJehIjvR7ULOLxeDJoth4kDDNe.jpg", "adult": false, "overview": "After graduating from Emory University in 1992, top student and athlete Christopher McCandless abandons his possessions, gives his entire $24,000 savings account to charity, and hitchhikes to Alaska to live in the wilderness.", "poster_path": "/lHyYgaocXR6KcJLxVmxZDj115hH.jpg", "popularity": 13.103}, {"id": 205775, "video": false, "vote_count": 2362, "vote_average": 6.6, "title": "In the Heart of the Sea", "release_date": "2015-11-20", "original_language": "en", "original_title": "In the Heart of the Sea", "genre_ids": [28, 12, 18, 36, 53], "backdrop_path": "/aZoZ0NglXgiBMToem9HhTAYYamw.jpg", "adult": false, "overview": "In the winter of 1820, the New England whaling ship Essex is assaulted by something no one could believe\u2014a whale of mammoth size and will, and an almost human sense of vengeance.", "poster_path": "/zVmWh0Zfg4UhbvdGI8LQrn1lQZJ.jpg", "popularity": 18.435}, {"id": 457799, "video": false, "vote_count": 1572, "vote_average": 7.0, "title": "Extremely Wicked, Shockingly Evil and Vile", "release_date": "2019-05-02", "original_language": "en", "original_title": "Extremely Wicked, Shockingly Evil and Vile", "genre_ids": [80, 18, 53], "backdrop_path": "/uRoA67sM5vvCI4cplxhl67BTPly.jpg", "adult": false, "overview": "A chronicle of the crimes of Ted Bundy, from the perspective of his longtime girlfriend, Elizabeth Kloepfer, who refused to believe the truth about him for years.", "poster_path": "/zSuJ3r5zr5T26tTxyygHhgkUAIM.jpg", "popularity": 22.062}, {"id": 396371, "video": false, "vote_count": 1970, "vote_average": 7.1, "title": "Molly's Game", "release_date": "2017-12-25", "original_language": "en", "original_title": "Molly's Game", "genre_ids": [80, 18], "backdrop_path": "/rHcBZ6ZKCe4FalWHyvBGsyMsh0k.jpg", "adult": false, "overview": "Molly Bloom, a young skier and former Olympic hopeful becomes a successful entrepreneur (and a target of an FBI investigation) when she establishes a high-stakes, international poker game.", "poster_path": "/in43bQ7k0ttr666IPP94IlbQbTR.jpg", "popularity": 18.141}, {"id": 300671, "video": false, "vote_count": 1700, "vote_average": 7.1, "title": "13 Hours: The Secret Soldiers of Benghazi", "release_date": "2016-01-13", "original_language": "en", "original_title": "13 Hours: The Secret Soldiers of Benghazi", "genre_ids": [28, 18, 36, 53, 10752], "backdrop_path": "/hY8myWhjSOUeeiPskhOfwwgaCwc.jpg", "adult": false, "overview": "An American Ambassador is killed during an attack at a U.S. compound in Libya as a security team struggles to make sense out of the chaos.", "poster_path": "/4gpW4MkRI0BB17GHOJzXq0WamDP.jpg", "popularity": 20.173}, {"adult": false, "backdrop_path": "/kiWvoV78Cc3fUwkOHKzyBgVdrDD.jpg", "genre_ids": [37, 18, 12], "id": 281957, "original_language": "en", "original_title": "The Revenant", "overview": "In the 1820s, a frontiersman, Hugh Glass, sets out on a path of vengeance against those who left him for dead after a bear mauling.", "poster_path": "/oXUWEc5i3wYyFnL1Ycu8ppxxPvs.jpg", "release_date": "2015-12-25", "title": "The Revenant", "video": false, "vote_average": 7.5, "vote_count": 12127, "popularity": 24.135}, {"id": 487558, "video": false, "vote_count": 4020, "vote_average": 7.6, "title": "BlacKkKlansman", "release_date": "2018-07-30", "original_language": "en", "original_title": "BlacKkKlansman", "genre_ids": [80], "backdrop_path": "/wKRrldOtg6HVeGqGLls6iT9XO7I.jpg", "adult": false, "overview": "Colorado Springs, late 1970s. Ron Stallworth, an African American police officer, and Flip Zimmerman, his Jewish colleague, run an undercover operation to infiltrate the Ku Klux Klan.", "poster_path": "/8jxqAvSDoneSKRczaK8v9X5gqBp.jpg", "popularity": 25.597}, {"id": 401847, "video": false, "vote_count": 664, "vote_average": 6.8, "title": "Can You Ever Forgive Me?", "release_date": "2018-10-19", "original_language": "en", "original_title": "Can You Ever Forgive Me?", "genre_ids": [35, 80, 18], "backdrop_path": "/shIOFWkjTn2NRvq5r4Mn2xLdZeJ.jpg", "adult": false, "overview": "When a bestselling celebrity biographer is no longer able to get published because she has fallen out of step with current tastes, she turns her art form to deception.", "poster_path": "/hPuZR2bFoV0kuBrA98exWyvTf40.jpg", "popularity": 16.339}, {"id": 316029, "video": false, "vote_count": 5853, "vote_average": 8.0, "title": "The Greatest Showman", "release_date": "2017-12-20", "original_language": "en", "original_title": "The Greatest Showman", "genre_ids": [18], "backdrop_path": "/zpq404Sk7qQ7N4x3xOeNgp74GtU.jpg", "adult": false, "overview": "The story of American showman P.T. Barnum, founder of the circus that became the famous traveling Ringling Bros. and Barnum & Bailey Circus.", "poster_path": "/b9CeobiihCx1uG1tpw8hXmpi7nm.jpg", "popularity": 29.077}, {"id": 334543, "video": false, "vote_count": 4306, "vote_average": 8.1, "title": "Lion", "release_date": "2016-11-24", "original_language": "en", "original_title": "Lion", "genre_ids": [18], "backdrop_path": "/fgffluhvdOv79SkYaKrfRA0xkf4.jpg", "adult": false, "overview": "A five-year-old Indian boy gets lost on the streets of Calcutta, thousands of kilometers from home. He survives many challenges before being adopted by a couple in Australia; 25 years later, he sets out to find his lost family.", "poster_path": "/iBGRbLvg6kVc7wbS8wDdVHq6otm.jpg", "popularity": 30.623}, {"adult": false, "backdrop_path": "/fJQ5kjLx4UdK05MC323Vlzwr6S8.jpg", "genre_ids": [35, 18, 36], "id": 140823, "original_language": "en", "original_title": "Saving Mr. Banks", "overview": "Author P.L. Travers travels from London to Hollywood as Walt Disney Pictures adapts her novel Mary Poppins for the big screen.", "poster_path": "/mvs3reS18RP6IhjLwwLeVtkoeg0.jpg", "release_date": "2013-11-16", "title": "Saving Mr. Banks", "video": false, "vote_average": 7.4, "vote_count": 2230, "popularity": 11.476}, {"id": 411728, "video": false, "vote_count": 342, "vote_average": 7.2, "title": "The Professor and the Madman", "release_date": "2019-03-07", "original_language": "en", "original_title": "The Professor and the Madman", "genre_ids": [18, 36, 9648, 53], "backdrop_path": "/zhNfM1CSQqJtIqelwlK9iKtSd9P.jpg", "adult": false, "overview": "Professor James Murray begins work compiling words for the first edition of the Oxford English Dictionary in the mid 19th century, and receives over 10,000 entries from a patient at Broadmoor Criminal Lunatic Asylum, Dr. William Minor.", "poster_path": "/gtGCDLhfjW96qVarwctnuTpGOtD.jpg", "popularity": 13.302}, {"adult": false, "backdrop_path": "/jK3EAFk3GdOaQfUDCOiTujzMpwH.jpg", "genre_ids": [18], "id": 389015, "original_language": "en", "original_title": "I, Tonya", "overview": "Competitive ice skater Tonya Harding rises amongst the ranks at the U. S. Figure Skating Championships, but her future in the sport is thrown into doubt when her ex-husband intervenes.", "poster_path": "/6gNXwSHxaksR1PjVZRqNapmkgj3.jpg", "release_date": "2017-12-08", "title": "I, Tonya", "video": false, "vote_average": 7.5, "vote_count": 3332, "popularity": 20.099}, {"id": 369972, "video": false, "vote_count": 3001, "vote_average": 7.1, "title": "First Man", "release_date": "2018-10-11", "original_language": "en", "original_title": "First Man", "genre_ids": [18, 36], "backdrop_path": "/jrudoaXcoLyHRPdolyOGemXgPEs.jpg", "adult": false, "overview": "A look at the life of the astronaut, Neil Armstrong, and the legendary space mission that led him to become the first man to walk on the Moon on July 20, 1969.", "poster_path": "/i91mfvFcPPlaegcbOyjGgiWfZzh.jpg", "popularity": 27.464}], "total_pages": 18, "total_results": 352}, "recommendations": {"page": 1, "results": [{"adult": false, "backdrop_path": "/mHLxix4Kjp7WfwMxYh2a1bcKm5S.jpg", "genre_ids": [99], "id": 449748, "original_language": "en", "original_title": "Awake, a Dream from Standing Rock", "overview": "The Standing Rock Sioux Tribe in North Dakota captures world attention through their peaceful resistance against the U.S. government's plan to construct an oil pipeline through their land.", "poster_path": "/17C37bJ9R5Uux4dWNOZz7YrB89M.jpg", "release_date": "2017-04-22", "title": "Awake, a Dream from Standing Rock", "video": false, "vote_average": 6.8, "vote_count": 5, "popularity": 2.423}, {"adult": false, "backdrop_path": "/3B3E5lWz3tEpq8A5sEosqtSIew1.jpg", "genre_ids": [35], "id": 470906, "original_language": "en", "original_title": "Brad Paisley's Comedy Rodeo", "overview": "Country music star Brad Paisley hosts a night of music and laughs with comics Nate Bargatze, John Heffron, Jon Reep, Sarah Tiana and Mike E. Winfield.", "poster_path": "/3FWHG4zuucAtvE10a25kfZk3SRP.jpg", "release_date": "2017-08-15", "title": "Brad Paisley's Comedy Rodeo", "video": false, "vote_average": 6.7, "vote_count": 3, "popularity": 4.156}, {"adult": false, "backdrop_path": null, "genre_ids": [99, 10402], "id": 440590, "original_language": "en", "original_title": "Country: Portraits of an American Sound", "overview": "'Country: Portraits of an American Sound' is a documentary film that explores the history and culture of country music through the lens of photography, which has portrayed the ideals, lifestyle and personalities of country music artists for over 80 years. The film features imagery and commentary from Grand Ole Opry photographer Les Leverett, the late celebrity photographer Leigh Wiener, documentary photographer Henry Horenstein, iconic music photographers Henry Diltz and Raeanne Rubenstein, and contemporary photographers David McClister and Michael Wilson. Over a dozen country music artists also appear, including Rosanne Cash, Roy Clark, Merle Haggard, Lyle Lovett, Charley Pride, LeAnn Rimes, Kenny Rogers, Tanya Tucker, The Band Perry and Keith Urban. The film weaves iconic images, historical footage and over 25 country music hits into a dynamic look at this uniquely American sound.", "poster_path": "/lFlolXHd68BLas9gUWchXJKMqCt.jpg", "release_date": "2015-04-22", "title": "Country: Portraits of an American Sound", "video": false, "vote_average": 8.3, "vote_count": 3, "popularity": 3.083}], "total_pages": 1, "total_results": 3}, "credits": {"cast": [{"cast_id": 1, "character": "Himself (archive footage)", "credit_id": "5995c09ec3a3683e33000f8e", "gender": 2, "id": 70261, "name": "Nat King Cole", "order": 1, "profile_path": "/4S9QCY5sbr2sCinticzPZq28Al4.jpg"}, {"cast_id": 2, "character": "Himself", "credit_id": "5995c0a89251417d44000ffd", "gender": 2, "id": 138986, "name": "Tony Bennett", "order": 2, "profile_path": "/8mFowqqjo5XGHjiVUKZi6Sepbbh.jpg"}, {"cast_id": 3, "character": "Himself", "credit_id": "5995c0b9c3a3683ad1001166", "gender": 2, "id": 56463, "name": "Ralph Carmichael", "order": 3, "profile_path": null}, {"cast_id": 4, "character": "Himself", "credit_id": "5995c0cbc3a3683cd300108c", "gender": 2, "id": 214862, "name": "Johnny Mathis", "order": 4, "profile_path": "/dj8MZU85RtuD5g6tplhtd9t0fmB.jpg"}, {"cast_id": 5, "character": "Himself", "credit_id": "5995c0d5c3a3683f5d000e73", "gender": 0, "id": 1220199, "name": "George Benson", "order": 5, "profile_path": null}, {"cast_id": 6, "character": "Himself", "credit_id": "5995c0dfc3a3683cd30010b5", "gender": 2, "id": 33162, "name": "Harry Belafonte", "order": 6, "profile_path": "/fSSsExSbBbkr6ZV5uwTMZqZyDwh.jpg"}, {"cast_id": 7, "character": "Herself, Nat King Cole's wife", "credit_id": "5995c0eb9251417eb1000f08", "gender": 0, "id": 1871558, "name": "Maria Cole", "order": 7, "profile_path": null}, {"cast_id": 8, "character": "Himself, Baptist minister, Nat King Cole's father (archive footage)", "credit_id": "5995c0f592514107ba016ec8", "gender": 0, "id": 1871559, "name": "Edward Coles", "order": 8, "profile_path": null}, {"cast_id": 9, "character": "Himself, civil rights activist and former Republican politician", "credit_id": "5995c100c3a3683dc10010ae", "gender": 0, "id": 1871560, "name": "Charles Evers", "order": 9, "profile_path": null}, {"cast_id": 10, "character": "Himself", "credit_id": "5995c10bc3a3683fa5000f88", "gender": 0, "id": 1871561, "name": "Ivan Mogull", "order": 10, "profile_path": null}, {"cast_id": 11, "character": "Himself", "credit_id": "5995c11bc3a36856ef01702f", "gender": 0, "id": 1221351, "name": "Buddy Greco", "order": 11, "profile_path": null}, {"cast_id": 12, "character": "Himself", "credit_id": "5995c126c3a3683fa5000fa7", "gender": 2, "id": 210620, "name": "Bruce Forsyth", "order": 12, "profile_path": "/bfY4lDlGY6cF4BEhpHf0VtCHu4v.jpg"}, {"cast_id": 13, "character": "Himself", "credit_id": "5995c1309251417d440010c2", "gender": 0, "id": 1871562, "name": "Eddie Wakes", "order": 13, "profile_path": null}, {"cast_id": 14, "character": "Himself (archive footage)", "credit_id": "5995c147c3a3683fa5000fd5", "gender": 2, "id": 111442, "name": "Oscar Peterson", "order": 14, "profile_path": "/vfLIOTX49s3huyXs3C4teJ2NnqF.jpg"}, {"cast_id": 15, "character": "Himself (archive footage)", "credit_id": "5995c163c3a3683f5d000f27", "gender": 0, "id": 1221816, "name": "Eddie Cole", "order": 15, "profile_path": null}, {"cast_id": 16, "character": "Herself (archive footage)", "credit_id": "5995c16b9251417f2f000f29", "gender": 0, "id": 1871563, "name": "Nadine Robinson", "order": 16, "profile_path": null}, {"cast_id": 17, "character": "Himself", "credit_id": "5995c17ac3a3683fba000ff0", "gender": 2, "id": 96635, "name": "Aaron Neville", "order": 17, "profile_path": "/RCXdxBETwe31eW0tneaotorQDh.jpg"}, {"cast_id": 18, "character": "Himself", "credit_id": "5995c1859251417ee3001007", "gender": 0, "id": 1871564, "name": "George Schlatter", "order": 18, "profile_path": null}, {"cast_id": 19, "character": "Himself (archive footage)", "credit_id": "5995c197c3a3683fa500104a", "gender": 2, "id": 4347, "name": "Frank Sinatra", "order": 19, "profile_path": "/dafKPsivu50RdChBSrgGmMRenYt.jpg"}], "crew": [{"credit_id": "5995c0899251417eb1000e8b", "department": "Directing", "gender": 2, "id": 1051379, "job": "Director", "name": "Jon Brewer", "profile_path": "/1WWUZEPoP84sukdjNR6jCLf86ju.jpg"}]}}