{"adult": false, "backdrop_path": "/eHv14CWLRavWYNMQjnX6CqF7Rk4.jpg", "belongs_to_collection": null, "budget": 0, "genres": [{"id": 18, "name": "Drama"}, {"id": 10402, "name": "Music"}, {"id": 10749, "name": "Romance"}], "homepage": null, "id": 32619, "imdb_id": "tt0034415", "original_language": "en", "original_title": "Ziegfeld Girl", "overview": "Discovery by Flo Ziegfeld changes a girl's life but not necessarily for the better, as three beautiful women find out when they join the spectacle on Broadway: Susan, the singer who must leave behind her ageing vaudevillian father; vulnerable Sheila, the working girl pursued both by a millionaire and by her loyal boyfriend from Flatbush; and the mysterious European beauty Sandra, whose concert violinist husband cannot endure the thought of their escaping from poverty by promenading her glamor in skimpy costumes.", "popularity": 3.441, "poster_path": "/qFn4D3lmxuoANYGWwKFHbDN25nd.jpg", "production_companies": [{"id": 21, "logo_path": "/mjofSXiHpG5t6KYmU4l4FrUhT7m.png", "name": "Metro-Goldwyn-Mayer", "origin_country": "US"}], "production_countries": [{"iso_3166_1": "US", "name": "United States of America"}], "release_date": "1941-04-25", "revenue": 0, "runtime": 132, "spoken_languages": [{"iso_639_1": "en", "name": "English"}], "status": "Released", "tagline": "GREATEST MUSICAL EXTRAVAGANZA OF ALL TIME!", "title": "Ziegfeld Girl", "video": false, "vote_average": 6.2, "vote_count": 12, "keywords": {"keywords": [{"id": 4344, "name": "musical"}, {"id": 8608, "name": "violinist"}, {"id": 33626, "name": "millionaire"}, {"id": 164623, "name": "chorus girl"}, {"id": 193280, "name": "ziegfeld follies"}]}, "similar": {"page": 1, "results": [{"id": 872, "video": false, "vote_count": 1617, "vote_average": 8.2, "title": "Singin' in the Rain", "release_date": "1952-04-10", "original_language": "en", "original_title": "Singin' in the Rain", "genre_ids": [35, 10402, 10749], "backdrop_path": "/amW1YWQvcP8slDyDp1R652aVQZ7.jpg", "adult": false, "overview": "In 1927 Hollywood, a silent film production company and cast make a difficult transition to sound.", "poster_path": "/s39odBPtyutGBnEfBIpdm0fpRwv.jpg", "popularity": 17.295}, {"id": 504608, "video": false, "vote_count": 1666, "vote_average": 7.4, "title": "Rocketman", "release_date": "2019-05-22", "original_language": "en", "original_title": "Rocketman", "genre_ids": [18, 10402], "backdrop_path": "/sZZJ42GrWKxSOfcrpI2TSFQa0AQ.jpg", "adult": false, "overview": "The story of Elton John's life, from his years as a prodigy at the Royal Academy of Music through his influential and enduring musical partnership with Bernie Taupin.", "poster_path": "/f4FF18ia7yTvHf2izNrHqBmgH8U.jpg", "popularity": 27.709}, {"id": 18126, "video": false, "vote_count": 1217, "vote_average": 6.4, "title": "Hannah Montana: The Movie", "release_date": "2009-04-10", "original_language": "en", "original_title": "Hannah Montana: The Movie", "genre_ids": [35, 18, 10402, 10749, 10751], "backdrop_path": "/ezx3NkXNqf2KnJCP6Nfj1bfCFut.jpg", "adult": false, "overview": "As Hannah Montana's popularity begins to take over her life, Miley Stewart, on the urging from her father takes a trip to her hometown of Crowley Corners, Tennessee to get some perspective on what matters in life the most.", "poster_path": "/8pwbnmvshHj2yYPYlyJ8K8Yzecy.jpg", "popularity": 12.479}, {"id": 2005, "video": false, "vote_count": 1806, "vote_average": 6.7, "title": "Sister Act", "release_date": "1992-05-28", "original_language": "en", "original_title": "Sister Act", "genre_ids": [35, 10402], "backdrop_path": "/oaLqlJxt8TJSjsdfMpSkLexZ4l5.jpg", "adult": false, "overview": "A Reno singer witnesses a mob murder and the cops stash her in a nunnery to protect her from the mob's hitmen. The mother superior does not trust her, and takes steps to limit her influence on the other nuns. Eventually the singer rescues the failing choir and begins helping with community projects, which gets her an interview on TV\u2014and identification by the mob.", "poster_path": "/7wQxLtybiUbtC6tsJh9htFEmqq3.jpg", "popularity": 16.674}, {"adult": false, "backdrop_path": "/69NfvNrpPI6bjj3Txp2cDsRZ5se.jpg", "genre_ids": [18, 10402, 10749], "id": 65203, "original_language": "en", "original_title": "The Broadway Melody", "overview": "Harriet and Queenie Mahoney, a vaudeville act, come to Broadway, where their friend Eddie Kerns needs them for his number in one of Francis Zanfield's shows. Eddie was in love with Harriet, but when he meets Queenie, he falls in love to her, but she is courted by Jock Warriner, a member of the New Yorker high society. It takes a while till Queenie recognizes, that she is for Jock nothing more than a toy, and it also takes a while till Harriet recognizes, that Eddie is in love with Queenie", "poster_path": "/dJxFUKiO7JTDBSUr4Nzct4iJikX.jpg", "release_date": "1929-02-08", "title": "The Broadway Melody", "video": false, "vote_average": 5.5, "vote_count": 51, "popularity": 5.006}, {"id": 10537, "video": false, "vote_count": 603, "vote_average": 6.9, "title": "The Doors", "release_date": "1991-03-01", "original_language": "en", "original_title": "The Doors", "genre_ids": [18, 10402], "backdrop_path": "/1rv5sW6Qs2YK2iOzIgwH3SJPIl1.jpg", "adult": false, "overview": "The story of the famous and influential 1960s rock band and its lead singer and composer, Jim Morrison.", "poster_path": "/9CkFrWAkg23YynYd2uJLyWznMZZ.jpg", "popularity": 14.573}, {"id": 224141, "video": false, "vote_count": 3144, "vote_average": 5.7, "title": "Into the Woods", "release_date": "2014-12-24", "original_language": "en", "original_title": "Into the Woods", "genre_ids": [35, 14], "backdrop_path": "/lzJzB0QfkjpGCm9qUC4XpEIB6pm.jpg", "adult": false, "overview": "In a woods filled with magic and fairy tale characters, a baker and his wife set out to end the curse put on them by their neighbor, a spiteful witch.", "poster_path": "/5h91odPFNlBuJbRBj5N4MEBfXDE.jpg", "popularity": 29.368}, {"adult": false, "backdrop_path": "/58BOLbf2ShjhVVtT7twnUEeangh.jpg", "genre_ids": [18, 10402], "id": 3087, "original_language": "en", "original_title": "Yankee Doodle Dandy", "overview": "A film of the life of the renowned musical composer, playwright, actor, dancer and singer George M. Cohan.", "poster_path": "/cqLLIyJFjLr6jGOxWVEHG11WGzB.jpg", "release_date": "1942-05-29", "title": "Yankee Doodle Dandy", "video": false, "vote_average": 7.1, "vote_count": 99, "popularity": 11.616}, {"id": 194662, "video": false, "vote_count": 8621, "vote_average": 7.5, "title": "Birdman", "release_date": "2014-08-27", "original_language": "en", "original_title": "Birdman", "genre_ids": [35, 18], "backdrop_path": "/AsJVim0Hk3KbQPbfjyijfjqmaoZ.jpg", "adult": false, "overview": "A fading actor best known for his portrayal of a popular superhero attempts to mount a comeback by appearing in a Broadway play. As opening night approaches, his attempts to become more altruistic, rebuild his career, and reconnect with friends and family prove more difficult than expected.", "poster_path": "/rSZs93P0LLxqlVEbI001UKoeCQC.jpg", "popularity": 40.415}, {"id": 10545, "video": false, "vote_count": 3018, "vote_average": 7.0, "title": "The Hunchback of Notre Dame", "release_date": "1996-06-21", "original_language": "en", "original_title": "The Hunchback of Notre Dame", "genre_ids": [16, 18, 10751], "backdrop_path": "/oslaee3VX9kJAjVezbjZKlEJDzn.jpg", "adult": false, "overview": "When Quasimodo defies the evil Frollo and ventures out to the Festival of Fools, the cruel crowd jeers him. Rescued by fellow outcast the gypsy Esmeralda, Quasi soon finds himself battling to save the people and the city he loves.", "poster_path": "/r7V92gY3AMO6li17MmGTixAnFcv.jpg", "popularity": 28.041}, {"adult": false, "backdrop_path": "/ppDnBvf0f7vCZHRLtDjazpYHdTF.jpg", "genre_ids": [35, 10402, 10749], "id": 13368, "original_language": "en", "original_title": "White Christmas", "overview": "Two talented song-and-dance men team up after the war to become one of the hottest acts in show business. In time they befriend and become romantically involved with the beautiful Haynes sisters who comprise a sister act.", "poster_path": "/A5kBQsHKbIptxJyELEpHQJROCRj.jpg", "release_date": "1954-10-14", "title": "White Christmas", "video": false, "vote_average": 7.4, "vote_count": 250, "popularity": 10.494}, {"id": 407655, "video": false, "vote_count": 421, "vote_average": 6.8, "title": "A Cinderella Story: If the Shoe Fits", "release_date": "2016-08-02", "original_language": "en", "original_title": "A Cinderella Story: If the Shoe Fits", "genre_ids": [35, 14, 10402, 10751], "backdrop_path": "/svYzELCLW0NGVEuvNraA4W7Hmm9.jpg", "adult": false, "overview": "A contemporary musical version of the classic Cinderella story in which the servant step daughter hope to compete in a musical competition for a famous pop star.", "poster_path": "/prZSNnK5dkYcflsbdOsVVvqasZ5.jpg", "popularity": 19.825}, {"adult": false, "backdrop_path": "/3mhNnNmfCGrjyVEZhjWRVcjMOSi.jpg", "genre_ids": [14, 16, 10749, 10751], "id": 54113, "original_language": "en", "original_title": "The Swan Princess: Escape from Castle Mountain", "overview": "The first wedding anniversary of Princess Odette and Prince Derek is distracted by field fires set by Knuckles. His master Clavius, wants to conquer the world, and he needs to capture a giant orb to do that. Clavius kidnaps Queen Uberta and Odette with Derek have to save her.", "poster_path": "/oTEgvTpAIugS7OH6oIoVZkmV3C3.jpg", "release_date": "1997-01-01", "title": "The Swan Princess: Escape from Castle Mountain", "video": false, "vote_average": 6.0, "vote_count": 198, "popularity": 11.608}, {"id": 11887, "video": false, "vote_count": 2347, "vote_average": 6.5, "title": "High School Musical 3: Senior Year", "release_date": "2008-10-11", "original_language": "en", "original_title": "High School Musical 3: Senior Year", "genre_ids": [35, 18, 10402, 10749, 10751], "backdrop_path": "/daSGxGZL2nNjGZKkAF5ain3lmOx.jpg", "adult": false, "overview": "It's almost graduation day for high school seniors Troy, Gabriella, Sharpay, Chad, Ryan and Taylor \u2015 and the thought of heading off in separate directions after leaving East High has these Wildcats thinking they need to do something they'll remember forever. Together with the rest of the Wildcats, they stage a spring musical reflecting their hopes and fears about the future and their unforgettable experiences growing up together. But with graduation approaching and college plans in question, what will become of the dreams, romances, and friendships of East High's senior Wildcats?", "poster_path": "/ewZpH2QIfPQ0VIn9lPf7MHbLbl4.jpg", "popularity": 14.748}, {"id": 332562, "video": false, "vote_count": 7182, "vote_average": 7.5, "title": "A Star Is Born", "release_date": "2018-10-03", "original_language": "en", "original_title": "A Star Is Born", "genre_ids": [18, 10402, 10749], "backdrop_path": "/mnDvPokXpvsdPcWSjNRPhiiLOKu.jpg", "adult": false, "overview": "Seasoned musician Jackson Maine discovers \u2014 and falls in love with \u2014 struggling artist Ally. She has just about given up on her dream to make it big as a singer \u2014 until Jack coaxes her into the spotlight. But even as Ally's career takes off, the personal side of their relationship is breaking down, as Jack fights an ongoing battle with his own internal demons.", "poster_path": "/wrFpXMNBRj2PBiN4Z5kix51XaIZ.jpg", "popularity": 37.528}, {"adult": false, "backdrop_path": "/5x0VEeFCnWzRBwU23KycKQRqEhN.jpg", "genre_ids": [10402, 35], "id": 15157, "original_language": "en", "original_title": "Another Cinderella Story", "overview": "A guy who danced with what could be the girl of his dreams at a costume ball only has one hint at her identity: the Zune she left behind as she rushed home in order to make her curfew. And with a once-in-a-lifetime opportunity in front of him, he sets out to find his masked beauty.", "poster_path": "/fLdCKCfHT8A6bnWybBsQFjC4fCo.jpg", "release_date": "2008-09-16", "title": "Another Cinderella Story", "video": false, "vote_average": 6.6, "vote_count": 1120, "popularity": 16.339}, {"id": 313369, "video": false, "vote_count": 11063, "vote_average": 7.9, "title": "La La Land", "release_date": "2016-11-29", "original_language": "en", "original_title": "La La Land", "genre_ids": [35, 18, 10402, 10749], "backdrop_path": "/fp6X6yhgcxzxCpmM0EVC6V9B8XB.jpg", "adult": false, "overview": "Mia, an aspiring actress, serves lattes to movie stars in between auditions and Sebastian, a jazz musician, scrapes by playing cocktail party gigs in dingy bars, but as success mounts they are faced with decisions that begin to fray the fragile fabric of their love affair, and the dreams they worked so hard to maintain in each other threaten to rip them apart.", "poster_path": "/ylXCdC106IKiarftHkcacasaAcb.jpg", "popularity": 39.654}, {"id": 606117, "video": false, "vote_count": 257, "vote_average": 6.8, "title": "A Cinderella Story: Christmas Wish", "release_date": "2019-10-15", "original_language": "en", "original_title": "A Cinderella Story: Christmas Wish", "genre_ids": [35, 14, 10402, 10749], "backdrop_path": "/h3kzgUaUOamInX7nsALsFmlw4qX.jpg", "adult": false, "overview": "Kat is an aspiring singer-songwriter who dreams of making it big. However, her dreams are stalled by her reality: a conniving and cruel stepfamily  and a demoralizing job working as a singing elf at billionaire Terrence Wintergarden\u2019s Santa Land.", "poster_path": "/ozBX0u5caaJFli9AssqJmARb5R.jpg", "popularity": 22.941}, {"id": 15969, "video": false, "vote_count": 1085, "vote_average": 5.8, "title": "The Return of Jafar", "release_date": "1994-12-15", "original_language": "en", "original_title": "The Return of Jafar", "genre_ids": [12, 16, 10749, 10751], "backdrop_path": "/sLF3zgqfFC6Vev84h9aK4U88M2C.jpg", "adult": false, "overview": "The evil Jafar escapes from the magic lamp as an all-powerful genie, ready to plot his revenge against Aladdin. From battling elusive villains atop winged horses, to dodging flames inside an exploding lava pit, it's up to Aladdin - with Princess Jasmine and the outrageously funny Genie by his side - to save the kingdom once and for all.", "poster_path": "/sC4wDVBMPMxmn5JJqPalMOhQ35U.jpg", "popularity": 22.698}, {"adult": false, "backdrop_path": "/6bnI08rrGXRkngRqJWCMXDZuJ1j.jpg", "genre_ids": [35, 10402], "id": 254470, "original_language": "en", "original_title": "Pitch Perfect 2", "overview": "The Bellas are back, and they are better than ever. After being humiliated in front of none other than the President of the United States of America, the Bellas are taken out of the Aca-Circuit. In order to clear their name, and regain their status, the Bellas take on a seemingly impossible task: winning an international competition no American team has ever won. In order to accomplish this monumental task, they need to strengthen the bonds of friendship and sisterhood and blow away the competition with their amazing aca-magic! With all new friends and old rivals tagging along for the trip, the Bellas can hopefully accomplish their dreams.", "poster_path": "/qSjruLiFB4uqRtz2xheQPxG8uaB.jpg", "release_date": "2015-05-07", "title": "Pitch Perfect 2", "video": false, "vote_average": 6.8, "vote_count": 3901, "popularity": 29.697}], "total_pages": 164, "total_results": 3276}, "recommendations": {"page": 1, "results": [{"adult": false, "backdrop_path": "/3XplwMiMDx0RIJslBevl3RcSFCG.jpg", "genre_ids": [10752, 18, 10749], "id": 150778, "original_language": "en", "original_title": "So Proudly We Hail", "overview": "A group of U.S. Army nurses leaves San Francisco for their tour of duty in Hawaii in December 1941. The attack on Pearl Harbor changes their destination and their lives. Sent to Bataan, Philippines, the nurses are led by Lt. Janet Davidson. She is faced with untested nurses who expected an easy time in Honolulu, but who quickly become battle-weary veterans dealing with daily bombardments by the Japanese, overwhelmed by the numbers of wounded, and dwindling supplies. Some of \"Davey's\" unit also have to deal with romantic entanglements with men they met onboard ship. When Bataan falls, the American forces flee to the offshore island of Corregidor, where they find the Japanese assault just as intense.", "poster_path": "/8E7L2SE0n8GuK7mEeZchezJpvMx.jpg", "release_date": "1943-09-08", "title": "So Proudly We Hail", "video": false, "vote_average": 5.8, "vote_count": 10, "popularity": 3.722}], "total_pages": 1, "total_results": 1}, "credits": {"cast": [{"cast_id": 1, "character": "Susan Gallagher", "credit_id": "52fe44de9251416c9101f987", "gender": 1, "id": 9066, "name": "Judy Garland", "order": 0, "profile_path": "/692WrhGAROeIiFbMEaZKvPsG7Sb.jpg"}, {"cast_id": 2, "character": "Gilbert Young", "credit_id": "52fe44de9251416c9101f98b", "gender": 2, "id": 854, "name": "James Stewart", "order": 1, "profile_path": "/8Obb4uScBA1IvgkX4S90HCT9W1B.jpg"}, {"cast_id": 3, "character": "Sandra Kolter", "credit_id": "52fe44de9251416c9101f98f", "gender": 1, "id": 89088, "name": "Hedy Lamarr", "order": 2, "profile_path": "/AeKUdahr4onbPg8RnzKkIteuDOJ.jpg"}, {"cast_id": 4, "character": "Sheila Regan", "credit_id": "52fe44de9251416c9101f993", "gender": 1, "id": 29623, "name": "Lana Turner", "order": 3, "profile_path": "/5iJOE1Q8mqXKgmSjNp5LkaDr0bb.jpg"}, {"cast_id": 5, "character": "Jerry Regan", "credit_id": "52fe44de9251416c9101f997", "gender": 2, "id": 55278, "name": "Jackie Cooper", "order": 4, "profile_path": "/3uutX8roJ9nNXwh5nxfnuTPLPGe.jpg"}, {"cast_id": 11, "character": "Frank Merton", "credit_id": "54132f8d0e0a264f340002fb", "gender": 2, "id": 94803, "name": "Tony Martin", "order": 5, "profile_path": "/vAmFNffX9bkhQtSNKyaTWwAdmZW.jpg"}, {"cast_id": 12, "character": "Geoffrey Collis", "credit_id": "54132fa10e0a264f400002c2", "gender": 2, "id": 8731, "name": "Ian Hunter", "order": 6, "profile_path": "/7fnMM8p9lSdRtXX0Mqg1NPJrfHL.jpg"}, {"cast_id": 13, "character": "'Pop' Gallagher", "credit_id": "54132faf0e0a264f340002ff", "gender": 2, "id": 83474, "name": "Charles Winninger", "order": 7, "profile_path": "/fmbfytXqjpM1RNieEPAIGNFnydC.jpg"}, {"cast_id": 14, "character": "Noble Sage", "credit_id": "54132fbd0e0a264f5100030f", "gender": 2, "id": 2437, "name": "Edward Everett Horton", "order": 8, "profile_path": "/yf4MoiK7wnb2dafruUvnVgtuxSN.jpg"}, {"cast_id": 15, "character": "Franz Kolter", "credit_id": "54132fccc3a3687d9e0002e8", "gender": 2, "id": 33031, "name": "Philip Dorn", "order": 9, "profile_path": "/uKC7EmVMwrEVncZQCGT3kc0Yjaa.jpg"}, {"cast_id": 16, "character": "John Slayton", "credit_id": "54132fdac3a3687dab0002e0", "gender": 2, "id": 82348, "name": "Paul Kelly", "order": 10, "profile_path": "/rjgY0UF0a7fD47dd4xuVC8dDNAb.jpg"}, {"cast_id": 17, "character": "Patsy Dixon", "credit_id": "54132fe8c3a3687d9e0002ea", "gender": 1, "id": 860, "name": "Eve Arden", "order": 11, "profile_path": "/48QTc9iIS3nuJOE8FiAV6qPFPuj.jpg"}, {"cast_id": 18, "character": "Jimmy Walters (as Dan Dailey Jr.)", "credit_id": "54132ff6c3a3687dab0002e3", "gender": 2, "id": 82129, "name": "Dan Dailey", "order": 12, "profile_path": "/7lYu40kKfXSeRFKYT2OsceJHfRV.jpg"}, {"cast_id": 19, "character": "Al", "credit_id": "54133003c3a3687da50002e7", "gender": 2, "id": 1027241, "name": "Al Shean", "order": 13, "profile_path": "/oNxgGzjvtnEOX3bVYeYWASxTaGe.jpg"}, {"cast_id": 20, "character": "Mrs. Regan", "credit_id": "5413301c0e0a264f44000313", "gender": 1, "id": 117414, "name": "Fay Holden", "order": 14, "profile_path": "/uqaLmVtEmNFXjWFLRraTcjG9B0O.jpg"}, {"cast_id": 21, "character": "Mischa", "credit_id": "545f44a3c3a36841d300221b", "gender": 2, "id": 2494, "name": "Felix Bressart", "order": 15, "profile_path": "/x3NDEBpQavuhcV2yFNgm3JK0d5J.jpg"}, {"cast_id": 22, "character": "Mrs. Merton", "credit_id": "545f44ba0e0a265477002598", "gender": 1, "id": 29599, "name": "Rose Hobart", "order": 16, "profile_path": "/txlx2cZkmcFzqMWyi2QgpJMXpMu.jpg"}, {"cast_id": 23, "character": "Jenny - Wardrobe Woman", "credit_id": "545f44cf0e0a26235900178f", "gender": 1, "id": 34757, "name": "Mae Busch", "order": 17, "profile_path": "/tb7nFi7ACR7fnZ0Crke0eVUJQqN.jpg"}, {"cast_id": 24, "character": "Janitor Changing Pictures (uncredited)", "credit_id": "545f44e5c3a3680b5d000202", "gender": 2, "id": 1509, "name": "Roscoe Ates", "order": 18, "profile_path": "/AoGCN2oOsOKv5zUbIz90w61wJKd.jpg"}, {"cast_id": 25, "character": "Ziegfeld Girl (uncredited)", "credit_id": "545f45040e0a26547700259f", "gender": 1, "id": 94071, "name": "Leslie Brooks", "order": 19, "profile_path": "/f6OFD8HH7U0UfUvik2LBthIPAJ7.jpg"}, {"cast_id": 26, "character": "Miss Sawyer - Auditioning Showgirl (uncredited)", "credit_id": "545f4515c3a36841d3002228", "gender": 1, "id": 89725, "name": "Joyce Compton", "order": 20, "profile_path": "/e7WvcNQOgK1QCg1B9adsCTmtVbG.jpg"}, {"cast_id": 27, "character": "Ziegfeld Girl (uncredited)", "credit_id": "545f45290e0a2661770010f2", "gender": 1, "id": 94399, "name": "Myrna Dell", "order": 21, "profile_path": "/jv17YcftYhmXHUZ0Jbsf71wQJRM.jpg"}, {"cast_id": 28, "character": "Palm Beach Casino Patron (uncredited)", "credit_id": "545f453d0e0a2654770025a6", "gender": 1, "id": 121323, "name": "Bess Flowers", "order": 22, "profile_path": "/akbW8jJl8GSXFpixFaobMOqvNv4.jpg"}, {"cast_id": 29, "character": "Geoffrey's Friend in Audience (uncredited)", "credit_id": "545f4556c3a3680b58000236", "gender": 2, "id": 34046, "name": "Reed Hadley", "order": 23, "profile_path": "/rZDPiDU6RLPirjUYDo0K5Gf7Qyg.jpg"}, {"cast_id": 30, "character": "Ziegfeld Girl (uncredited)", "credit_id": "545f45780e0a261fb3008d1b", "gender": 1, "id": 88617, "name": "Jean Wallace", "order": 24, "profile_path": "/k0GWVH9icadc6YVwPriLNT8Mzit.jpg"}, {"cast_id": 33, "character": "Croupier (uncredited)", "credit_id": "5a309053925141032918824a", "gender": 2, "id": 120445, "name": "Colin Kenny", "order": 25, "profile_path": "/xREp5JMZt0HkYM25bOkJivEOlAV.jpg"}], "crew": [{"credit_id": "58293df8c3a368038102876e", "department": "Camera", "gender": 2, "id": 16750, "job": "Director of Photography", "name": "Ray June", "profile_path": null}, {"credit_id": "58d3a55dc3a368123401204d", "department": "Production", "gender": 2, "id": 30174, "job": "Producer", "name": "Pandro S. Berman", "profile_path": "/pOB0fbkzzKPUs5w9wd7aeFjjpuI.jpg"}, {"credit_id": "52fe44de9251416c9101f9a9", "department": "Writing", "gender": 1, "id": 39760, "job": "Screenplay", "name": "Marguerite Roberts", "profile_path": null}, {"credit_id": "52fe44de9251416c9101f9af", "department": "Writing", "gender": 1, "id": 70045, "job": "Screenplay", "name": "Sonya Levien", "profile_path": null}, {"credit_id": "52fe44de9251416c9101f99d", "department": "Directing", "gender": 2, "id": 93906, "job": "Director", "name": "Robert Z. Leonard", "profile_path": "/w6wkz4NRYhhOTWqVjXvoHAWj6yQ.jpg"}, {"credit_id": "52fe44de9251416c9101f9a3", "department": "Directing", "gender": 2, "id": 95293, "job": "Director", "name": "Busby Berkeley", "profile_path": "/fNM46pXBDgT6hXXNLKw1nRsFjh.jpg"}, {"credit_id": "52fe44de9251416c9101f9b5", "department": "Writing", "gender": 0, "id": 149117, "job": "Story", "name": "William Anthony McGuire", "profile_path": null}]}}