{"adult": false, "backdrop_path": null, "belongs_to_collection": null, "budget": 0, "genres": [{"id": 99, "name": "Documentary"}], "homepage": null, "id": 326360, "imdb_id": "tt0411227", "original_language": "nl", "original_title": "Chimps Onder Elkaar", "overview": "A subtle account of the chimpanzees' behaviour in Burgers Dierenpark in Arnhem, on the occasion of the publication of the book Chimpansee Politiek by ethologist Dr. Frans de Waal. A unique experiment shows us how complex the social strategies in the community of this fascinating anthropoid ape are. Haanstra managed to capture almost all aspects of chimpanzee behaviour: display of skill, teasing and pestering, grooming, resting, playing, motherly behaviour, submission, sex and violence. Eventually, the film was also screened to the apes.", "popularity": 0.84, "poster_path": "/wpNaH0TxEdA9TuUGahXvQHBsb51.jpg", "production_companies": [{"id": 81625, "logo_path": "/44zYo2Zit3zJrcSGkO5jEFPULgD.png", "name": "Nederlands Instituut voor Beeld en Geluid", "origin_country": "NL"}, {"id": 46991, "logo_path": null, "name": "Bert Haanstra Films", "origin_country": ""}], "production_countries": [{"iso_3166_1": "NL", "name": "Netherlands"}], "release_date": "1984-01-01", "revenue": 0, "runtime": 55, "spoken_languages": [{"iso_639_1": "en", "name": "English"}, {"iso_639_1": "nl", "name": "Nederlands"}], "status": "Released", "tagline": "", "title": "The Family of Chimps", "video": false, "vote_average": 7.0, "vote_count": 2, "keywords": {"keywords": [{"id": 14759, "name": "ape"}, {"id": 157972, "name": "chimpanzee"}, {"id": 221355, "name": "nature documentary"}]}, "similar": {"page": 1, "results": [{"id": 214314, "video": false, "vote_count": 94, "vote_average": 7.3, "title": "Bears", "release_date": "2014-04-17", "original_language": "en", "original_title": "Bears", "genre_ids": [99], "backdrop_path": "/wA8Dct9suP3tZWH1nv7ikQThvD2.jpg", "adult": false, "overview": "Filmmakers Alastair Fothergill and Keith Scholey chronicle a year in the lives of an Alaskan brown bear named Sky and her cubs, Scout and Amber. Their saga begins as the bears emerge from hibernation at the end of winter. As time passes, the bear family must work together to find food and stay safe from other predators, especially other bears. Although their world is exciting, it is also risky, and the cubs' survival hinges on family togetherness.", "poster_path": "/uhxE8FLguSshnlv41lKRvZYZ4av.jpg", "popularity": 10.303}, {"id": 278927, "video": false, "vote_count": 5705, "vote_average": 6.8, "title": "The Jungle Book", "release_date": "2016-04-07", "original_language": "en", "original_title": "The Jungle Book", "genre_ids": [12, 18, 14, 10751], "backdrop_path": "/eIOTsGg9FCVrBc4r2nXaV61JF4F.jpg", "adult": false, "overview": "A man-cub named Mowgli fostered by wolves. After a threat from the tiger Shere Khan, Mowgli is forced to flee the jungle, by which he embarks on a journey of self discovery with the help of the panther, Bagheera and the free-spirited bear, Baloo.", "poster_path": "/vOipe2myi26UDwP978hsYOrnUWC.jpg", "popularity": 36.281}, {"id": 12599, "video": false, "vote_count": 441, "vote_average": 6.6, "title": "Pok\u00e9mon: The Movie 2000", "release_date": "1999-07-17", "original_language": "ja", "original_title": "\u5287\u5834\u7248\u30dd\u30b1\u30c3\u30c8\u30e2\u30f3\u30b9\u30bf\u30fc \u5e7b\u306e\u30dd\u30b1\u30e2\u30f3 \u30eb\u30ae\u30a2\u7206\u8a95", "genre_ids": [12, 16, 14, 878, 10751], "backdrop_path": "/5uAptC91ZTbJAsCFYYj7lErIe0A.jpg", "adult": false, "overview": "Satoshi must put his skill to the test when he attempts to save the world from destruction. The Greedy Pokemon collector Gelardan throws the universe into chaos after disrupting the balance of nature by capturing one of the Pokemon birds that rule the elements of fire, lightning and ice. Will Satoshi have what it takes to save the world?", "poster_path": "/jrwTeoEHCmFEr0J9HENdPAR3dEq.jpg", "popularity": 9.277}, {"adult": false, "backdrop_path": "/u4s4b3xRz5gOHwzO2KneDqIl7Bf.jpg", "genre_ids": [878, 12, 18, 28], "id": 871, "original_language": "en", "original_title": "Planet of the Apes", "overview": "An  U.S. Spaceship lands on a desolate planet, stranding astronaut Taylor in a world dominated by apes, 2000 years into the future, who use a primitive race of humans for experimentation and sport. Soon Taylor finds himself among the hunted, his life in the hands of a benevolent chimpanzee scientist.", "poster_path": "/fiWii3OCJhoSld3U3tUUr1AB6d7.jpg", "release_date": "1968-02-07", "title": "Planet of the Apes", "video": false, "vote_average": 7.6, "vote_count": 1809, "popularity": 20.754}, {"id": 61791, "video": false, "vote_count": 7882, "vote_average": 7.2, "title": "Rise of the Planet of the Apes", "release_date": "2011-08-03", "original_language": "en", "original_title": "Rise of the Planet of the Apes", "genre_ids": [28, 18, 878, 53], "backdrop_path": "/oxrovtv9Yo9snk4WLM0bK0SCRES.jpg", "adult": false, "overview": "Scientist Will Rodman is determined to find a cure for Alzheimer's, the disease which has slowly consumed his father. Will feels certain he is close to a breakthrough and tests his latest serum on apes, noticing dramatic increases in intelligence and brain activity in the primate subjects \u2013 especially Caesar, his pet chimpanzee.", "poster_path": "/j87XPCcAnJUnjQ0gvZoWS6XQpfh.jpg", "popularity": 22.253}, {"adult": false, "backdrop_path": "/ulMscezy9YX0bhknvJbZoUgQxO5.jpg", "genre_ids": [18, 878, 10752], "id": 281338, "original_language": "en", "original_title": "War for the Planet of the Apes", "overview": "Caesar and his apes are forced into a deadly conflict with an army of humans led by a ruthless Colonel. After the apes suffer unimaginable losses, Caesar wrestles with his darker instincts and begins his own mythic quest to avenge his kind. As the journey finally brings them face to face, Caesar and the Colonel are pitted against each other in an epic battle that will determine the fate of both their species and the future of the planet.", "poster_path": "/ijQHiImv16vNSeZQsmih04kwn0C.jpg", "release_date": "2017-07-11", "title": "War for the Planet of the Apes", "video": false, "vote_average": 7.0, "vote_count": 5686, "popularity": 28.886}, {"adult": false, "backdrop_path": "/pDuD96Fz0ZZXf9buEvRu1UQsmFT.jpg", "genre_ids": [12, 16, 10751], "id": 105864, "original_language": "en", "original_title": "The Good Dinosaur", "overview": "An epic journey into the world of dinosaurs where an Apatosaurus named Arlo makes an unlikely human friend.", "poster_path": "/2ZckiMTfSkCep2JTtZbr73tnQbN.jpg", "release_date": "2015-11-14", "title": "The Good Dinosaur", "video": false, "vote_average": 6.7, "vote_count": 3443, "popularity": 20.847}, {"id": 119450, "video": false, "vote_count": 7620, "vote_average": 7.3, "title": "Dawn of the Planet of the Apes", "release_date": "2014-06-26", "original_language": "en", "original_title": "Dawn of the Planet of the Apes", "genre_ids": [28, 18, 878, 53], "backdrop_path": "/r3IsWMkIGO20NP3Zcm5HFqBW6w5.jpg", "adult": false, "overview": "A group of scientists in San Francisco struggle to stay alive in the aftermath of a plague that is wiping out humanity, while Caesar tries to maintain dominance over his community of intelligent apes.", "poster_path": "/2EUAUIu5lHFlkj5FRryohlH6CRO.jpg", "popularity": 37.662}, {"id": 10808, "video": false, "vote_count": 1002, "vote_average": 5.1, "title": "Dr. Dolittle 2", "release_date": "2001-06-22", "original_language": "en", "original_title": "Dr. Dolittle 2", "genre_ids": [35, 14, 10749, 10751], "backdrop_path": "/CI4gcw8kes1sbR9ht8rhMc2la7.jpg", "adult": false, "overview": "A group of beavers ask Dr. Dolittle to save their habitat from loggers. The only hope is to get the forest preserved because it's the home of a protected bear, but there's a problem: the bear's the only bear in the forest, so she can't reproduce. Undaunted, Dolittle persuades a circus bear to help out, but he has to teach him not just the ways of the wild, but the wiles of lady bears too.", "poster_path": "/aecUc1LobMV56Doj99ZvJR2dXgG.jpg", "popularity": 16.737}, {"id": 869, "video": false, "vote_count": 2383, "vote_average": 5.7, "title": "Planet of the Apes", "release_date": "2001-07-25", "original_language": "en", "original_title": "Planet of the Apes", "genre_ids": [28, 12, 878, 53], "backdrop_path": "/r87F9i3JyJbCym8zNtdciEnexOS.jpg", "adult": false, "overview": "After a spectacular crash-landing on an uncharted planet, brash astronaut Leo Davidson finds himself trapped in a savage world where talking apes dominate the human race. Desperate to find a way home, Leo must evade the invincible gorilla army led by Ruthless General Thade.", "poster_path": "/uHp6PTo7SCrqdH5wCSrCCf8EQFX.jpg", "popularity": 22.206}, {"adult": false, "backdrop_path": "/lqL9EnG9okK0rcBl5a89qiCU9vO.jpg", "genre_ids": [18, 27, 53], "id": 17609, "original_language": "en", "original_title": "Antichrist", "overview": "A grieving couple retreats to their cabin 'Eden' in the woods, hoping to repair their broken hearts and troubled marriage. But nature takes its course and things go from bad to worse.", "poster_path": "/lY4Y9buUIZY17vpvL5dsBpbORo0.jpg", "release_date": "2009-05-18", "title": "Antichrist", "video": false, "vote_average": 6.6, "vote_count": 1410, "popularity": 17.567}, {"id": 491472, "video": false, "vote_count": 711, "vote_average": 6.9, "title": "At Eternity's Gate", "release_date": "2018-11-15", "original_language": "en", "original_title": "At Eternity's Gate", "genre_ids": [18], "backdrop_path": "/cOUZMd2Cr6uOHcdCDJtWRgVN4aN.jpg", "adult": false, "overview": "Famed but tormented artist Vincent van Gogh spends his final years in Arles, France, painting masterworks of the natural world that surrounds him.", "poster_path": "/7rUnZrcSyfwfloeI5aoccztSLSg.jpg", "popularity": 15.94}, {"id": 57586, "video": false, "vote_count": 128, "vote_average": 7.1, "title": "African Cats", "release_date": "2011-04-22", "original_language": "en", "original_title": "African Cats", "genre_ids": [12, 99], "backdrop_path": "/mFTlNXsPzny0geJLxdo3ddzFR1Q.jpg", "adult": false, "overview": "African Cats captures the real-life love, humor and determination of the majestic kings of the savanna. The story features Mara, an endearing lion cub who strives to grow up with her mother\u2019s strength, spirit and wisdom; Sita, a fearless cheetah and single mother of five mischievous newborns; and Fang, a proud leader of the pride who must defend his family from a once banished lion.", "poster_path": "/3exZKtP0r88MhP12HeTgp4uiVRu.jpg", "popularity": 10.372}, {"id": 9023, "video": false, "vote_count": 2353, "vote_average": 7.6, "title": "Spirit: Stallion of the Cimarron", "release_date": "2002-05-24", "original_language": "en", "original_title": "Spirit: Stallion of the Cimarron", "genre_ids": [12, 16, 35, 18, 37, 10751], "backdrop_path": "/7UzVI4BepB9g8822H7UCXPjrMan.jpg", "adult": false, "overview": "As a wild stallion travels across the frontiers of the Old West, he befriends a young human and finds true love with a mare.", "poster_path": "/nhrcR2KtVjXxJNSrPvcxVSyEf4c.jpg", "popularity": 26.595}, {"adult": false, "backdrop_path": "/y3XY4jrXQS20qdBY1bmPaBD7EIu.jpg", "genre_ids": [99], "id": 1781, "original_language": "en", "original_title": "An Inconvenient Truth", "overview": "A documentary on Al Gore's campaign to make the issue of global warming a recognized problem worldwide.", "poster_path": "/yhsevNFscOH8YA90vsldYwzqkQt.jpg", "release_date": "2006-01-24", "title": "An Inconvenient Truth", "video": false, "vote_average": 7.0, "vote_count": 468, "popularity": 10.854}, {"id": 464593, "video": false, "vote_count": 97, "vote_average": 7.8, "title": "Earth: One Amazing Day", "release_date": "2017-08-04", "original_language": "en", "original_title": "Earth: One Amazing Day", "genre_ids": [99, 10751], "backdrop_path": "/2s4laxseAR9E7EIMxkrmCi1fdFP.jpg", "adult": false, "overview": "An astonishing journey revealing the awesome power of the natural world. Over the course of one single day, we track the sun from the highest mountains to the remotest islands to exotic jungles.", "poster_path": "/7OKStVtpeptnfIgxXEyQubMMTey.jpg", "popularity": 11.188}, {"id": 1705, "video": false, "vote_count": 405, "vote_average": 5.7, "title": "Battle for the Planet of the Apes", "release_date": "1973-06-15", "original_language": "en", "original_title": "Battle for the Planet of the Apes", "genre_ids": [28, 878], "backdrop_path": "/kz5aml9pRPFg9oTCSViyJXSKbCW.jpg", "adult": false, "overview": "The fifth and final episode in the Planet of the Apes series. After the collapse of human civilization, a community of intelligent apes led by Caesar lives in harmony with a group of humans. Gorilla General Aldo tries to cause an ape civil war and a community of human mutants who live beneath a destroyed city try to conquer those whom they perceive as enemies. All leading to the finale.", "poster_path": "/2tx8XXPU6lSerxDnIhYwror52LV.jpg", "popularity": 20.18}, {"id": 1687, "video": false, "vote_count": 490, "vote_average": 6.3, "title": "Escape from the Planet of the Apes", "release_date": "1971-05-20", "original_language": "en", "original_title": "Escape from the Planet of the Apes", "genre_ids": [28, 878], "backdrop_path": "/5Y2V0yEI8w9xr8Jge6fkFKDILrI.jpg", "adult": false, "overview": "The world is shocked by the appearance of three talking chimpanzees, who arrived mysteriously in a U.S. spacecraft. They become the toast of society; but one man believes them to be a threat to the human race. The third in the original Planet of the Apes series.", "poster_path": "/wy7NWI4qdRghwCENzkKmcl0hjT6.jpg", "popularity": 14.995}, {"id": 2698, "video": false, "vote_count": 2665, "vote_average": 5.5, "title": "Evan Almighty", "release_date": "2007-06-09", "original_language": "en", "original_title": "Evan Almighty", "genre_ids": [35, 14, 10751], "backdrop_path": "/xg3ZTzPUQNxHdwDeNmpTlGYNbDV.jpg", "adult": false, "overview": "Junior congressman Evan Baxter, whose wish is to \"change the world\" is heard by none other than God. When God appears with the perplexing request to build an ark, Evan is sure he is losing it.", "poster_path": "/mtIjd19s4eOSkUm9P9iDVY35TsQ.jpg", "popularity": 15.546}, {"adult": false, "backdrop_path": "/cBa7Bt42lyVhCmc65MieMdVIQ6h.jpg", "genre_ids": [12, 878, 9648], "id": 1685, "original_language": "en", "original_title": "Beneath the Planet of the Apes", "overview": "During a rescue mission to locate missing astronaut George Taylor, John Brent crash lands on the Planet of the Apes. Brent, along with Taylor's companion, Nova, find he has disappeared into an underground city known as the Forbidden Zone and attempt to track him down.", "poster_path": "/v1r5mBh9hxxWpvZl9G3cP7d1Mh9.jpg", "release_date": "1970-05-01", "title": "Beneath the Planet of the Apes", "video": false, "vote_average": 6.2, "vote_count": 631, "popularity": 12.825}], "total_pages": 37, "total_results": 724}, "recommendations": {"page": 1, "results": [], "total_pages": 1, "total_results": 0}, "credits": {"cast": [{"cast_id": 3, "character": "(voice)", "credit_id": "57e23daf9251412537002f1d", "gender": 2, "id": 122597, "name": "Bert Haanstra", "order": 1, "profile_path": "/eZ5IJ3iq95lntxhshy5dAmW4zn3.jpg"}], "crew": [{"credit_id": "54e74fdf92514126ae000a22", "department": "Directing", "gender": 2, "id": 122597, "job": "Director", "name": "Bert Haanstra", "profile_path": "/eZ5IJ3iq95lntxhshy5dAmW4zn3.jpg"}, {"credit_id": "54e74ff19251416f580013f1", "department": "Production", "gender": 2, "id": 122597, "job": "Producer", "name": "Bert Haanstra", "profile_path": "/eZ5IJ3iq95lntxhshy5dAmW4zn3.jpg"}, {"credit_id": "54e74ffbc3a3685b00001643", "department": "Editing", "gender": 2, "id": 122597, "job": "Editor", "name": "Bert Haanstra", "profile_path": "/eZ5IJ3iq95lntxhshy5dAmW4zn3.jpg"}, {"credit_id": "57e23dbf9251411511007c0c", "department": "Writing", "gender": 2, "id": 1682781, "job": "Book", "name": "Frans de Waal", "profile_path": null}, {"credit_id": "57e23dc9c3a3681998002cf4", "department": "Sound", "gender": 0, "id": 23576, "job": "Music", "name": "Jurre Haanstra", "profile_path": null}]}}