{"adult": false, "backdrop_path": "/dtlyUPRuirkvE0E5YSzjvC7fKuM.jpg", "belongs_to_collection": null, "budget": 0, "genres": [{"id": 18, "name": "Drama"}, {"id": 35, "name": "Comedy"}], "homepage": "http://bakuman-movie.com/", "id": 327536, "imdb_id": "tt3715854", "original_language": "ja", "original_title": "\u30d0\u30af\u30de\u30f3\u3002", "overview": "Moritaka Mashiro (Takeru Satoh) doesn't want to follow in the path of his uncle who worked as a manga artist, but ultimately died because of exhaustion. Moritaka Mashiro figures he will graduate from school and work at an office. Things change though when falls in love with a girl at school. The girl, who hopes to become a voice actress, tells Moritaka they can marry, but only after they both achieve their dreams. Moritaka then teams up with fellow classmate Akito Takagi (Ryunosuke Kamiki) to publish their first manga.", "popularity": 2.558, "poster_path": "/kaf6zS27Oll9ja55PYMC7OpB8oa.jpg", "production_companies": [{"id": 882, "logo_path": "/fRSWWjquvzcHjACbtF53utZFIll.png", "name": "Toho Company, Ltd.", "origin_country": "JP"}, {"id": 14625, "logo_path": null, "name": "Office Crescendo", "origin_country": ""}], "production_countries": [{"iso_3166_1": "JP", "name": "Japan"}], "release_date": "2015-10-03", "revenue": 0, "runtime": 119, "spoken_languages": [{"iso_639_1": "ja", "name": "\u65e5\u672c\u8a9e"}], "status": "Released", "tagline": "", "title": "Bakuman", "video": false, "vote_average": 7.1, "vote_count": 17, "keywords": {"keywords": [{"id": 6054, "name": "friendship"}, {"id": 13141, "name": "based on manga"}, {"id": 14751, "name": "youth"}, {"id": 250907, "name": "manga"}, {"id": 250924, "name": "comic book writer"}]}, "similar": {"page": 1, "results": [{"id": 378064, "video": false, "vote_count": 1330, "vote_average": 8.3, "title": "A Silent Voice", "release_date": "2016-09-17", "original_language": "ja", "original_title": "\u8072\u306e\u5f62", "genre_ids": [16, 18, 10749], "backdrop_path": "/q5HZvtyqG8Vz39Ee9uTQbLeEml.jpg", "adult": false, "overview": "Shouya Ishida starts bullying the new girl in class, Shouko Nishimiya, because she is deaf. But as the teasing continues, the rest of the class starts to turn on Shouya for his lack of compassion. When they leave elementary school, Shouko and Shouya do not speak to each other again... until an older, wiser Shouya, tormented by his past behaviour, decides he must see Shouko once more. He wants to atone for his sins, but is it already too late...?", "poster_path": "/drlyoSKDOPnxzJFrRWGqzDsyJvR.jpg", "popularity": 17.997}, {"id": 449176, "video": false, "vote_count": 3691, "vote_average": 8.1, "title": "Love, Simon", "release_date": "2018-02-16", "original_language": "en", "original_title": "Love, Simon", "genre_ids": [35, 18, 10749], "backdrop_path": "/rqMEeajyzSF4PpJtdCB816Iz8Vr.jpg", "adult": false, "overview": "Everyone deserves a great love story. But for seventeen-year old Simon Spier it's a little more complicated: he's yet to tell his family or friends he's gay and he doesn't know the identity of the anonymous classmate he's fallen for online.", "poster_path": "/5YUYg5q7QfC4IoNwNUtiwdiYKPr.jpg", "popularity": 17.201}, {"adult": false, "backdrop_path": "/AqocxdL9luA7ALU0gGSHDzDy254.jpg", "genre_ids": [14, 16, 18, 878], "id": 14069, "original_language": "ja", "original_title": "\u6642\u3092\u304b\u3051\u308b\u5c11\u5973", "overview": "When 17-year-old Makoto Konno gains the ability to, quite literally, \"leap\" backwards through time, she immediately sets about improving her grades and preventing personal mishaps. However, she soon realises that changing the past isn't as simple as it seems, and eventually, will have to rely on her new powers to shape the future of herself and her friends.", "poster_path": "/7oNeWrsaiMGxCrvkWjQ56y6JN85.jpg", "release_date": "2006-07-15", "title": "The Girl Who Leapt Through Time", "video": false, "vote_average": 7.8, "vote_count": 1043, "popularity": 22.298}, {"id": 72105, "video": false, "vote_count": 8343, "vote_average": 6.3, "title": "Ted", "release_date": "2012-06-29", "original_language": "en", "original_title": "Ted", "genre_ids": [35, 14], "backdrop_path": "/sPiFgbWMSQxVMO6TuRFrkeWwarI.jpg", "adult": false, "overview": "John Bennett, a man whose childhood wish of bringing his teddy bear to life came true, now must decide between keeping the relationship with the bear or his girlfriend, Lori.", "poster_path": "/5ExgYTRafm4kFRwHp2jH6C23Yl4.jpg", "popularity": 20.996}, {"id": 13, "video": false, "vote_count": 16610, "vote_average": 8.4, "title": "Forrest Gump", "release_date": "1994-07-06", "original_language": "en", "original_title": "Forrest Gump", "genre_ids": [35, 18, 10749], "backdrop_path": "/wMgbnUVS9wbRGAdki8fqxKU1O0N.jpg", "adult": false, "overview": "A man with a low IQ has accomplished great things in his life and been present during significant historic events\u2014in each case, far exceeding what anyone imagined he could do. But despite all he has achieved, his one true love eludes him.", "poster_path": "/yE5d3BUhE8hCnkMUJOo1QDoOGNz.jpg", "popularity": 41.886}, {"adult": false, "backdrop_path": "/1EGJSlQsUxh6M1FfUEDby10mZ5q.jpg", "genre_ids": [10749, 16, 18, 10770], "id": 21057, "original_language": "ja", "original_title": "\u6d77\u304c\u304d\u3053\u3048\u308b", "overview": "At Kichij\u014dji Station, Tokyo, Taku Morisaki glimpses a familiar woman on the platform opposite boarding a train. Later, her photo falls from a shelf as he exits his apartment before flying to K\u014dchi Prefecture. Picking it up, he looks at it briefly before leaving. As the aeroplane takes off he narrates the events that brought her into his life...", "poster_path": "/wrb9I8zOVQ4Ij9dc66l3tYbjE1N.jpg", "release_date": "1993-05-05", "title": "Ocean Waves", "video": false, "vote_average": 6.5, "vote_count": 143, "popularity": 12.408}, {"adult": false, "backdrop_path": "/7B3I7S9a4bLonbYw6XVcoDzW8RT.jpg", "genre_ids": [18, 10749], "id": 109689, "original_language": "es", "original_title": "Tengo ganas de ti", "overview": "Sequel to \"Three Steps Above Heaven\". The sexy Gin is the new love of Hache, but this can not forget his former girlfriend, so the love triangle is inevitable.", "poster_path": "/z13I3sWzOoKBDAEpJ7iK9bSznQn.jpg", "release_date": "2012-06-22", "title": "I Want You", "video": false, "vote_average": 6.7, "vote_count": 694, "popularity": 17.432}, {"id": 50544, "video": false, "vote_count": 5179, "vote_average": 6.6, "title": "Friends with Benefits", "release_date": "2011-07-21", "original_language": "en", "original_title": "Friends with Benefits", "genre_ids": [35, 10749], "backdrop_path": "/liq5ljqURqLiBUgMkNiR388ZuSH.jpg", "adult": false, "overview": "Dylan and Jamie think it's going to be easy to add the simple act of sex to their friendship, despite what Hollywood romantic comedies would have them believe. They soon discover however that getting physical really does always lead to complications.", "poster_path": "/nKhhDFCdzxeJ3GUunQ570LDpUkz.jpg", "popularity": 19.488}, {"adult": false, "backdrop_path": "/qmERQjNTQ8HhBi5dxwv8BNzrOX.jpg", "genre_ids": [18, 10749], "id": 38684, "original_language": "en", "original_title": "Jane Eyre", "overview": "After a bleak childhood, Jane Eyre goes out into the world to become a governess. As she lives happily in her new position at Thornfield Hall, she meet the dark, cold, and abrupt master of the house, Mr. Rochester. Jane and her employer grow close in friendship and she soon finds herself falling in love with him. Happiness seems to have found Jane at last, but could Mr. Rochester's terrible secret be about to destroy it forever?", "poster_path": "/oC7wvdrBA0RgbXaJZwcxsl1zKBR.jpg", "release_date": "2011-03-11", "title": "Jane Eyre", "video": false, "vote_average": 7.1, "vote_count": 855, "popularity": 10.868}, {"id": 10991, "video": false, "vote_count": 333, "vote_average": 6.3, "title": "Pok\u00e9mon 3: The Movie - Spell of the Unown", "release_date": "2000-07-08", "original_language": "ja", "original_title": "\u5287\u5834\u7248\u30dd\u30b1\u30c3\u30c8\u30e2\u30f3\u30b9\u30bf\u30fc \u7d50\u6676\u5854\u306e\u5e1d\u738b ENTEI", "genre_ids": [28, 12, 16, 14, 10751], "backdrop_path": "/dLGQo5Xq6H18vPx00Czot8VHi3K.jpg", "adult": false, "overview": "When Me Snowdon's sadness of her father's disappearance get to her, she unknowingly uses the Unknown to create her own dream world along with Entei, who she believes to be her father. When Entei kidnaps Satoshi's mother, Satoshi along with Kasumi & Takeshi invade the mansion looking for his mom and trying to stop the mysteries of Me's Dream World and Entei!", "poster_path": "/5ILjS6XB5deiHop8SXPsYxXWVPE.jpg", "popularity": 14.6}, {"id": 81, "video": false, "vote_count": 1618, "vote_average": 7.9, "title": "Nausica\u00e4 of the Valley of the Wind", "release_date": "1984-03-11", "original_language": "ja", "original_title": "\u98a8\u306e\u8c37\u306e\u30ca\u30a6\u30b7\u30ab", "genre_ids": [12, 16, 14], "backdrop_path": "/qKIldRZ3jy3uGWdrNIt3P7QA5J3.jpg", "adult": false, "overview": "After a global war, the seaside kingdom known as the Valley of the Wind remains one of the last strongholds on Earth untouched by a poisonous jungle and the powerful insects that guard it. Led by the courageous Princess Nausica\u00e4, the people of the Valley engage in an epic struggle to restore the bond between humanity and Earth.", "poster_path": "/hnYowHwLq0iUWriAHtiiCWsI2dP.jpg", "popularity": 31.577}, {"adult": false, "backdrop_path": "/cMrvn4Hl0A0NAL61BpDWQIsMsiN.jpg", "genre_ids": [16], "id": 149870, "original_language": "ja", "original_title": "\u98a8\u7acb\u3061\u306c", "overview": "A lifelong love of flight inspires Japanese aviation engineer Jiro Horikoshi, whose storied career includes the creation of the A-6M World War II fighter plane.", "poster_path": "/3OTcCyf7QbGdVxsS8GLtaSsTZtP.jpg", "release_date": "2013-07-20", "title": "The Wind Rises", "video": false, "vote_average": 7.8, "vote_count": 1428, "popularity": 19.227}, {"id": 9323, "video": false, "vote_count": 1641, "vote_average": 7.9, "title": "Ghost in the Shell", "release_date": "1995-11-18", "original_language": "ja", "original_title": "GHOST IN THE SHELL", "genre_ids": [28, 16, 878], "backdrop_path": "/m1LUdsYnFThcrbvRzlpbsFioEQT.jpg", "adult": false, "overview": "In the year 2029, the barriers of our world have been broken down by the net and by cybernetics, but this brings new vulnerability to humans in the form of brain-hacking. When a highly-wanted hacker known as 'The Puppetmaster' begins involving them in politics, Section 9, a group of cybernetically enhanced cops, are called in to investigate and stop the Puppetmaster.", "poster_path": "/9gC88zYUBARRSThcG93MvW14sqx.jpg", "popularity": 21.491}, {"id": 128, "video": false, "vote_count": 4190, "vote_average": 8.4, "title": "Princess Mononoke", "release_date": "1997-07-12", "original_language": "ja", "original_title": "\u3082\u306e\u306e\u3051\u59eb", "genre_ids": [12, 16, 14], "backdrop_path": "/aZZCMHAoQcCXaAgbDkSD6JcFL9f.jpg", "adult": false, "overview": "Ashitaka, a prince of the disappearing Emishi people, is cursed by a demonized boar god and must journey to the west to find a cure. Along the way, he encounters San, a young human woman fighting to protect the forest, and Lady Eboshi, who is trying to destroy it. Ashitaka must find a way to bring balance to this conflict.", "poster_path": "/mNqZOtJIQfFQPjo3hmYLIn8Qqhf.jpg", "popularity": 32.056}, {"adult": false, "backdrop_path": "/jlsJGNXRGx6d06osRbjwxoVEVXV.jpg", "genre_ids": [28, 16, 12, 35], "id": 374205, "original_language": "ja", "original_title": "\u30ef\u30f3\u30d4\u30fc\u30b9\u3000\u30d5\u30a3\u30eb\u30e0 GOLD", "overview": "The Straw Hat Pirates are taking on Gild Tesoro, one of the richest men in the world.", "poster_path": "/OAXCENRg0smntp0uPhTQMPxs0O.jpg", "release_date": "2016-07-23", "title": "One Piece Film: GOLD", "video": false, "vote_average": 7.1, "vote_count": 181, "popularity": 11.919}, {"id": 507612, "video": false, "vote_count": 15, "vote_average": 7.8, "title": "My Little Monster", "release_date": "2018-04-27", "original_language": "ja", "original_title": "\u3068\u306a\u308a\u306e\u602a\u7269\u304f\u3093", "genre_ids": [35, 18, 10749], "backdrop_path": "/A58hlFNNaq46JBOFmuhtB7xJBOe.jpg", "adult": false, "overview": "Problem student Haru Yoshida sits next to the cold and studious Shizuku Mizutani in class. Without any other friends to turn to, both of them start to get to know each other and grow closer. Haru eventually develop feelings for Shizuku and confesses his feelings to her. Will Haru and Shizuku get their happily ever after?", "poster_path": "/cmmuhGssDk6uNjEL6GIo1iBWE5r.jpg", "popularity": 7.517}, {"adult": false, "backdrop_path": "/e7Mb4AWXN4O58yrsZKBTXznazHj.jpg", "genre_ids": [16, 18], "id": 242828, "original_language": "ja", "original_title": "\u601d\u3044\u51fa\u306e\u30de\u30fc\u30cb\u30fc", "overview": "Upon being sent to live with relatives in the countryside due to an illness, an emotionally distant adolescent girl becomes obsessed with an abandoned mansion and infatuated with a girl who lives there - a girl who may or may not be real.", "poster_path": "/wiEzIu4bw15RhB3NT58mCbPgv3R.jpg", "release_date": "2014-07-19", "title": "When Marnie Was There", "video": false, "vote_average": 7.9, "vote_count": 765, "popularity": 13.192}, {"adult": false, "backdrop_path": "/irMmZKMQe7fGbkMpcWnCq8pN5vi.jpg", "genre_ids": [28, 16, 35, 80, 10770], "id": 46033, "original_language": "ja", "original_title": "\u30eb\u30d1\u30f3\u4e09\u4e16VS\u540d\u63a2\u5075\u30b3\u30ca\u30f3", "overview": "When a wealthy woman and her son die in a hunting accident, it's up to Conan Edogawa to solve the case. Meanwhile, Lupin the Third is after the Queen Crown, owned by the Vesparand royal family. When these two legendary characters meet, who will win the day?! Followed by \u201cLupin the Third vs. Detective Conan: The Movie\u201d (2013).", "poster_path": "/5wzwueSNUzAgELrBFVDvjfETvva.jpg", "release_date": "2009-03-27", "title": "Lupin the Third vs. Detective Conan", "video": false, "vote_average": 7.2, "vote_count": 60, "popularity": 12.453}, {"id": 505262, "video": false, "vote_count": 240, "vote_average": 7.9, "title": "My Hero Academia: Two Heroes", "release_date": "2018-08-03", "original_language": "ja", "original_title": "\u50d5\u306e\u30d2\u30fc\u30ed\u30fc\u30a2\u30ab\u30c7\u30df\u30a2 THE MOVIE \uff5e2\u4eba\u306e\u82f1\u96c4\uff5e", "genre_ids": [28, 12, 16, 35, 14], "backdrop_path": "/uicia399gyMGE1smatJ41M0CtFx.jpg", "adult": false, "overview": "All Might and Deku accept an invitation to go abroad to a floating and mobile manmade city, called 'I Island', where they research quirks as well as hero supplemental items at the special 'I Expo' convention that is currently being held on the island. During that time, suddenly, despite an iron wall of security surrounding the island, the system is breached by a villain, and the only ones able to stop him are the students of Class 1-A.", "poster_path": "/hC4nTxdhXqFWzgqynGvvXVMiMNp.jpg", "popularity": 11.512}, {"adult": false, "backdrop_path": "/gxDInLg1V5Kz2D8gLu6hsACHhJ3.jpg", "genre_ids": [28, 12, 16], "id": 13754, "original_language": "ja", "original_title": "\u9244\u30b3\u30f3\u7b4b\u30af\u30ea\u30fc\u30c8", "overview": "When mysterious foreign entrepreneurs appear with the intention of tearing down Treasure Town and replacing it with an amusement park, Black and White face their greatest adversaries yet. It is up to the destructive Black to save the fate of the city and up to the gentle White to save Black from his own dark nature.\u00a0On the street of an unnamed city, literally high-flying urchins Black and White look to protect their turf from invasion from other gangs. While he can be tough in a fight or wielding a weapon, White is an 11-year-old who can't even dress himself. Slightly older, Black is more worldly and treats his buddy with paternal love. Both look on their city as \"our town.\" Also prone to seeing the city as his property is world-weary yakuza leader Suzuki, aka the Rat. Feeling the town has become too placid, Suzuki plots his return, much to the consternation of local police.", "poster_path": "/e2x1YDuZPpQiaQS25Ego7xMZYOI.jpg", "release_date": "2006-12-11", "title": "Tekkonkinkreet", "video": false, "vote_average": 7.6, "vote_count": 179, "popularity": 9.351}], "total_pages": 16, "total_results": 307}, "recommendations": {"page": 1, "results": [{"id": 357390, "video": false, "vote_count": 16, "vote_average": 7.9, "title": "Ajin: Demi-Human - Compel", "release_date": "2015-11-27", "original_language": "ja", "original_title": "\u4e9c\u4eba \u7b2c1\u90e8 \u885d\u52d5", "genre_ids": [28, 16, 53], "backdrop_path": "/pF6quq3sPoaOOjM3uqSsKIxdaQ2.jpg", "adult": false, "overview": "For high schooler Kei\u2014and for at least forty-six others\u2014immortality comes as the nastiest surprise ever.  Sadly for Kei, such a feat doesn't make him a superhero. In the eyes of both the general public and governments, he's a rare specimen who needs to be hunted down and handed over to scientists to be experimented on for life\u2014a demi-human who must die a thousand deaths for the benefit of humanity.", "poster_path": "/ot7mJtmzLByMFjMZnMpA89WxXA7.jpg", "popularity": 3.22}, {"adult": false, "backdrop_path": "/ge8ZR3UxcOVIcpZgWhQfqGuoSDf.jpg", "genre_ids": [18, 10402], "id": 60163, "original_language": "ja", "original_title": "BECK", "overview": "Yukio is your average high school student who spends his days going to class and avoiding bullies. That is until he meets Ryusuke, a guitar prodigy. Together with Taira, Chiba, and Saku they form the rock band BECK. As their popularity increases so does the danger as Ryusuke's past catches up with him.", "poster_path": "/p9BY1by6ihb2Qnd3Kot2D9OOk9R.jpg", "release_date": "2010-09-04", "title": "BECK", "video": false, "vote_average": 7.0, "vote_count": 20, "popularity": 2.336}, {"adult": false, "backdrop_path": "/AbyB5F49XH3SjajmNoXHKtcaA8y.jpg", "genre_ids": [28, 35, 878], "id": 361358, "original_language": "ja", "original_title": "\u4fe1\u9577\u5354\u594f\u66f2", "overview": "Saburo is a high school student good in sports, but not very good with his studies. One day, Saburo travels back in time and arrives in the Sengoku period of 1549. There, Saburo meets Nobunaga Oda who looks and sounds just like Saburo. Nobunaga Oda is the son of a warlord and magistrate of the lower Owari Province. Nobunaga Oda though is physically weak and he asks Saburo to take his place. Then, Saburo as Nobunaga Oda attempts to unify the country of Japan.", "poster_path": "/b7D01GoDCrF7bv3ylQ0HBcYwI30.jpg", "release_date": "2016-01-23", "title": "Nobunaga Concerto: The Movie", "video": false, "vote_average": 7.4, "vote_count": 7, "popularity": 2.482}, {"id": 390319, "video": false, "vote_count": 19, "vote_average": 8.0, "title": "Tickling Giants", "release_date": "2017-03-15", "original_language": "en", "original_title": "Tickling Giants", "genre_ids": [99], "backdrop_path": "/hZ4Ce6857u0eHqOxYdL2BwwboUz.jpg", "adult": false, "overview": "The Arab Spring in Egypt: From a dictator to free elections, back to a dictatorship. One comedy show united the country and tested the limits of free press. This is the story of Bassem Youssef, a cardiologist turned comedian, the Jon Stewart of Egypt, and his show \"The Show\".", "poster_path": "/7NlURmIhGaRuRukWfDg8KNj3oup.jpg", "popularity": 4.198}, {"adult": false, "backdrop_path": "/Adnl8Gl54T91KpEGlNspQDtC4v8.jpg", "genre_ids": [35, 10749], "id": 341041, "original_language": "ja", "original_title": "\u30af\u30ed\u30fc\u30d0\u30fc", "overview": "Saya Suzuki (Emi Takei) is an ordinary employee working at a hotel. She falls in love with her elite boss Susumu Tsuge (Tadayoshi Okura). Through their romance, Saya Suzuki grows as a person.", "poster_path": "/ndNvmUjD3jAczZvqnoNWeWue30x.jpg", "release_date": "2014-11-01", "title": "Clover", "video": false, "vote_average": 6.5, "vote_count": 10, "popularity": 1.824}, {"id": 477652, "video": false, "vote_count": 18, "vote_average": 6.6, "title": "The Miracles of the Namiya General Store", "release_date": "2017-09-23", "original_language": "ja", "original_title": "\u30ca\u30df\u30e4\u96d1\u8ca8\u5e97\u306e\u5947\u8e5f", "genre_ids": [18, 14], "backdrop_path": null, "adult": false, "overview": "In 2012, Atsuya (Ryosuke Yamada) and his 2 childhood friends do something bad and run into an old general store. They decide to stay there until the morning. Late into the night, Atsuya sees a letter in the mailbox. The letter is addressed to the Namiya General Store and the letter was written by someone to consult about worries. Incredibly, the letter was written 32 years ago. The mailbox is somehow connected to the year 1980. Atsuya and his friends decide to write a reply and place their letter in the mailbox.", "poster_path": "/ckDioqChQb1aFpMJEOuTYOw0Q8N.jpg", "popularity": 3.918}, {"id": 59239, "video": false, "vote_count": 20, "vote_average": 7.3, "title": "The Cloud-Capped Star", "release_date": "1960-04-13", "original_language": "bn", "original_title": "\u09ae\u09c7\u0998\u09c7 \u09a2\u09be\u0995\u09be \u09a4\u09be\u09b0\u09be", "genre_ids": [18], "backdrop_path": "/bIXIVaFCuA1tSnctg6Vl5JzuSrC.jpg", "adult": false, "overview": "The tragic story of the beautiful daughter of a middle-class refugee family from East Pakistan. Neeta, the protagonist, sacrifices everything for her unappreciative family.", "poster_path": "/zHcp7d8yMlxSbPP43V1v9DJnRoU.jpg", "popularity": 4.171}, {"adult": false, "backdrop_path": "/3Gs6kOy8OWpiFW3KDBFzIHlKbs2.jpg", "genre_ids": [18], "id": 70846, "original_language": "ja", "original_title": "\u30e9\u30d6&\u30dd\u30c3\u30d7", "overview": "Pretty Tokyo teen Hiromi Yoshii (Asumi Miwa) and her girlfriends struggle with rivalries, clothes and boyfriends, just like any other high school clique. But out for kicks and blind to the consequences, the girls of Love &amp; Pop hide a dirty little secret. From phone booths and street corners, in department stores and restaurants, the girls practice enjo-kosai or \"compensated dating\" -- arranging liaisons with older men drawn to their evident nubile charms and schoolgirl uniform innocence.", "poster_path": "/t6SYwgrELI9KfYQEJUWVEOxgC2t.jpg", "release_date": "1998-09-01", "title": "Love & Pop", "video": false, "vote_average": 7.5, "vote_count": 16, "popularity": 2.554}, {"id": 428099, "video": false, "vote_count": 49, "vote_average": 7.6, "title": "Tomorrow I Will Date With Yesterday's You", "release_date": "2016-12-17", "original_language": "ja", "original_title": "\u307c\u304f\u306f\u660e\u65e5\u3001\u6628\u65e5\u306e\u304d\u307f\u3068\u30c7\u30fc\u30c8\u3059\u308b", "genre_ids": [18, 10749], "backdrop_path": "/smwZPWM8YBd2oFOQRWQjoAOOhz4.jpg", "adult": false, "overview": "Takatoshi Minamiyama (Sota Fukushi) majors in art at an university in Kyoto. On the train to the school, he sees Emi Fukuju (Nana Komatsu) and falls in love with her at first sight. Gathering up all his courage, he speaks to her. They begin to date and enjoy happy days together, but Emi reveals her secret to him.", "poster_path": "/wtRJKkspD4pv3fd2lO2cT93dpzq.jpg", "popularity": 8.191}], "total_pages": 1, "total_results": 9}, "credits": {"cast": [{"cast_id": 0, "character": "Moritaka Mashiro", "credit_id": "54f00dd9925141795f007aaf", "gender": 2, "id": 230659, "name": "Takeru Satoh", "order": 0, "profile_path": "/8GJ849GQ9eHCLfsRj026JUVaqJC.jpg"}, {"cast_id": 1, "character": "Akito Takagi", "credit_id": "54f00de69251410ebe0009c2", "gender": 2, "id": 225730, "name": "Ryunosuke Kamiki", "order": 1, "profile_path": "/6MwcfIUraHuKOmwjT4gX8BBB2T6.jpg"}, {"cast_id": 2, "character": "Miho Azuki", "credit_id": "54f00df5c3a3682e71000b65", "gender": 1, "id": 1287268, "name": "Nana Komatsu", "order": 2, "profile_path": "/jtoOUd1AQYe6sRedyom23lv7p5w.jpg"}, {"cast_id": 3, "character": "Shinta Fukuda", "credit_id": "54f00e03c3a3682e71000b69", "gender": 0, "id": 107573, "name": "Kenta Kiritani", "order": 3, "profile_path": "/n9eCU3O6KtPFA1UOK5HIrALyelW.jpg"}, {"cast_id": 6, "character": "Kazuya Hiramaru", "credit_id": "56ba52a0925141718600082f", "gender": 2, "id": 110500, "name": "Hirofumi Arai", "order": 4, "profile_path": "/8nG16y3euYjEB9ZfZP2ixx7DpXy.jpg"}, {"cast_id": 7, "character": "Takuro Nakai", "credit_id": "56ba52ae9251412049000277", "gender": 2, "id": 1180452, "name": "Sarutoki Minagawa", "order": 5, "profile_path": "/cI56cVLrJO62SMH1ceTrA5DtQqy.jpg"}, {"cast_id": 15, "character": "Taro Kawaguchi", "credit_id": "592e41939251413106004717", "gender": 2, "id": 87661, "name": "Kankuro Kudo", "order": 6, "profile_path": "/kxRBpwXecaJDStMshwgW4mok5q1.jpg"}, {"cast_id": 9, "character": "Akira Hattori", "credit_id": "56ba52d6c3a3687c9e000763", "gender": 2, "id": 74377, "name": "Takayuki Yamada", "order": 7, "profile_path": "/piORAl3VEo7U26ql0GiDStrJqWO.jpg"}, {"cast_id": 10, "character": "Sasaki", "credit_id": "56ba52e5c3a3687ca60008ed", "gender": 2, "id": 123739, "name": "Lily Franky", "order": 8, "profile_path": "/8T3I7KQX0SH6twXsuqe12Sc7Hxr.jpg"}, {"cast_id": 5, "character": "Eiji Niizuma", "credit_id": "56ba528ac3a3687c9e000759", "gender": 2, "id": 1018944, "name": "Shota Sometani", "order": 9, "profile_path": "/fOij6t03KcQt3CbLb4y1MQmJyJO.jpg"}, {"cast_id": 24, "character": "Saito", "credit_id": "5bd0a29192514149d800035d", "gender": 0, "id": 1998971, "name": "Kazunari Tosa", "order": 10, "profile_path": null}, {"cast_id": 25, "character": "", "credit_id": "5bd0a29d0e0a2645a2000297", "gender": 0, "id": 2159313, "name": "Takashi Okabe", "order": 11, "profile_path": null}, {"cast_id": 26, "character": "", "credit_id": "5bd0a2a80e0a2645a20002a2", "gender": 0, "id": 1301062, "name": "Ayasa Takahashi", "order": 12, "profile_path": null}], "crew": [{"credit_id": "5bd0a20592514149ce00025f", "department": "Art", "gender": 0, "id": 132516, "job": "Art Direction", "name": "Yuji Tsuzuki", "profile_path": null}, {"credit_id": "5bd0a22dc3a368042e000283", "department": "Visual Effects", "gender": 0, "id": 135218, "job": "Digital Compositor", "name": "Ry\u00f4 Matsumoto", "profile_path": null}, {"credit_id": "5d1cf78c283ed90011194ca6", "department": "Writing", "gender": 2, "id": 817620, "job": "Writer", "name": "Takeshi Obata", "profile_path": null}, {"credit_id": "5d1cf76d4da3d40011289f7c", "department": "Writing", "gender": 2, "id": 929602, "job": "Writer", "name": "Tsugumi Ohba", "profile_path": null}, {"credit_id": "5bd0a24492514149de0002a0", "department": "Production", "gender": 0, "id": 1029281, "job": "Producer", "name": "Minami Ichikawa", "profile_path": "/hbLwY27J83U0FFTPqYvfFXpBRco.jpg"}, {"credit_id": "56970a24c3a3683af9000e4c", "department": "Directing", "gender": 0, "id": 1039349, "job": "Director", "name": "Hitoshi Ohne", "profile_path": "/b6qc0FJLBSxLXpDO1CMFmaLtC6j.jpg"}, {"credit_id": "5bd0a1f40e0a26459e0001eb", "department": "Art", "gender": 0, "id": 1207552, "job": "Art Direction", "name": "Miyuki Kitagawa", "profile_path": null}, {"credit_id": "57e5fdbcc3a36835210026ee", "department": "Production", "gender": 0, "id": 1684157, "job": "Executive Producer", "name": "Akihiro Yamauchi", "profile_path": "/1sy4xUxRYYYbdhM5K9RAdtgmDIw.jpg"}, {"credit_id": "5bd0a21d92514149db00024d", "department": "Sound", "gender": 2, "id": 2093587, "job": "Sound Recordist", "name": "Shinji Watanabe", "profile_path": null}, {"credit_id": "5bd0a1e4c3a36804190002e2", "department": "Editing", "gender": 0, "id": 2154945, "job": "Editor", "name": "Yasuyuki Ozeki", "profile_path": null}, {"credit_id": "5bd0a1cbc3a368042300023d", "department": "Sound", "gender": 0, "id": 2159311, "job": "Music", "name": "Sakanaction", "profile_path": null}, {"credit_id": "5bd0a26292514149ce0002bb", "department": "Crew", "gender": 0, "id": 2159312, "job": "Cinematography", "name": "Wataru Miyamoto", "profile_path": null}]}}