{"adult": false, "backdrop_path": "/use1lwsIIo4tYuqAeHFhMQzAL5J.jpg", "belongs_to_collection": null, "budget": 0, "genres": [{"id": 18, "name": "Drama"}], "homepage": null, "id": 328692, "imdb_id": "tt4075520", "original_language": "nl", "original_title": "Ventoux", "overview": "A group of friends reunite after 30 years to climb the Mont Ventoux again. Memories to a happy youth but also new discoveries from the past. One person is not present at the reunion. Why is that? What happened?", "popularity": 2.372, "poster_path": "/kwBNWk3O6nl7MrwTOHrxWRTyo76.jpg", "production_companies": [{"id": 34200, "logo_path": null, "name": "keyfilm", "origin_country": ""}], "production_countries": [{"iso_3166_1": "NL", "name": "Netherlands"}], "release_date": "2015-05-14", "revenue": 0, "runtime": 108, "spoken_languages": [{"iso_639_1": "nl", "name": "Nederlands"}], "status": "Released", "tagline": "", "title": "Ventoux", "video": false, "vote_average": 5.8, "vote_count": 9, "keywords": {"keywords": [{"id": 9824, "name": "reunion"}, {"id": 154949, "name": "bike riding"}, {"id": 187056, "name": "woman director"}]}, "similar": {"page": 1, "results": [{"adult": false, "backdrop_path": "/cADbqsIoiDW7X3Myg9nz8eAuno5.jpg", "genre_ids": [18, 10749], "id": 10818, "original_language": "fr", "original_title": "Naissance des pieuvres", "overview": "Set during a sultry summer in a French suburb, Marie is desperate to join the local pool's synchronized swimming team, but is her interest solely for the sake of sport or for a chance to get close to Floriane, the bad girl of the team? Sciamma, and the two leads, capture the uncertainty of teenage sexuality with a sympathetic eye in this delicate drama of the angst of coming-of-age.", "poster_path": "/4jajELYrR4Xmv3CVoKnukRnALa2.jpg", "release_date": "2007-05-17", "title": "Water Lilies", "video": false, "vote_average": 6.1, "vote_count": 119, "popularity": 9.614}, {"adult": false, "backdrop_path": "/rf6G51j0SZL0tP57I8gnqHTRFEr.jpg", "genre_ids": [35, 18, 10749], "id": 273153, "original_language": "fr", "original_title": "La belle saison", "overview": "In 1971, Carole and Delphine meet and fall in love in Paris. When Carole follows Delphine back to her family farm in Limousin, the two find lesbianism and feminism are not as easy in the countryside.", "poster_path": "/evvAkNMO5VJiy5qIo1Hu7fUfvVI.jpg", "release_date": "2015-08-19", "title": "Summertime", "video": false, "vote_average": 6.6, "vote_count": 162, "popularity": 11.575}, {"id": 9813, "video": false, "vote_count": 128, "vote_average": 6.1, "title": "The Quiet", "release_date": "2005-09-12", "original_language": "en", "original_title": "The Quiet", "genre_ids": [18, 53], "backdrop_path": "/6eyWAZA4CEidZW1xXnQ4vlYBXTP.jpg", "adult": false, "overview": "After her widowed father dies, deaf teenager Dot moves in with her godparents, Olivia and Paul Deer. The Deers' daughter, Nina, is openly hostile to Dot, but that does not prevent her from telling her secrets to her silent stepsister, including the fact that she wants to kill her lecherous father.", "poster_path": "/GEqIE9YlmygHVUfS64LW2cwAAM.jpg", "popularity": 14.844}, {"adult": false, "backdrop_path": "/gZeJziVigmRqbkEZwKAtSqlLQ6s.jpg", "genre_ids": [18, 10749], "id": 370663, "original_language": "en", "original_title": "Below Her Mouth", "overview": "An unexpected affair quickly escalates into a heart-stopping reality for two women whose passionate connection changes their lives forever.", "poster_path": "/nTGbq37hYLuNy7YgMg0gVLma0NS.jpg", "release_date": "2016-09-10", "title": "Below Her Mouth", "video": false, "vote_average": 6.2, "vote_count": 456, "popularity": 22.676}, {"adult": false, "backdrop_path": "/6tern9vOEwwmkDYC1vRCuO64z0C.jpg", "genre_ids": [10749, 18], "id": 475888, "original_language": "en", "original_title": "Tell It to the Bees", "overview": "Dr. Jean Markham returns to the town she left as a teenager to take over her late father's medical practice. When a school-yard scuffle lands Charlie in her surgery, she invites him to visit the hives in her garden and tell his secrets to the bees, as she once did. The new friendship between the boy and the bee keeper brings his mother Lydia into Jean's world.", "poster_path": "/Rj6zpHhMU1zFW3v28U4PSRSRgP.jpg", "release_date": "2019-05-03", "title": "Tell It to the Bees", "video": false, "vote_average": 6.4, "vote_count": 53, "popularity": 15.113}, {"adult": false, "backdrop_path": "/knczzNAjBXzSYkeWxoT1u9VNmjR.jpg", "genre_ids": [10749, 18], "id": 258480, "original_language": "en", "original_title": "Carol", "overview": "In 1950s New York, a department-store clerk who dreams of a better life falls for an older, married woman.", "poster_path": "/AbKa7ANxmui0Jmhh7gV7OSELKIL.jpg", "release_date": "2015-11-20", "title": "Carol", "video": false, "vote_average": 7.4, "vote_count": 2184, "popularity": 13.539}, {"adult": false, "backdrop_path": "/dvQDRfv3qvfHNnVAR57ouVsuErf.jpg", "genre_ids": [10749, 18], "id": 28031, "original_language": "en", "original_title": "If These Walls Could Talk 2", "overview": "The stories of three lesbian couples -- who live in the same house at different periods of time -- who are at a crossroads in their lives. In 1961, Edith loses her lover, Abby, to a stroke. Linda and Amy struggle with feminist issues in 1972. And, in 2000, Kal and Fran try to have a baby with the help of sperm donor.", "poster_path": "/xs7ODbmYQXCDhvXNvz5tF17T59H.jpg", "release_date": "2000-03-05", "title": "If These Walls Could Talk 2", "video": false, "vote_average": 7.1, "vote_count": 55, "popularity": 8.86}, {"adult": false, "backdrop_path": "/fZ8oFcREAr6wgWcXISGql0xyxjB.jpg", "genre_ids": [35, 18], "id": 39781, "original_language": "en", "original_title": "The Kids Are All Right", "overview": "Two women, Nic and Jules, brought a son and daughter into the world through artificial insemination. When one of their children reaches age, both kids go behind their mothers' backs to meet with the donor. Life becomes so much more interesting when the father, two mothers and children start to become attached to each other.", "poster_path": "/fPDeK4MmoGfi2X0oWZev7LrbMqM.jpg", "release_date": "2010-07-09", "title": "The Kids Are All Right", "video": false, "vote_average": 6.6, "vote_count": 923, "popularity": 12.159}, {"adult": false, "backdrop_path": "/g3LYarEY9LjB28Ct2trwFN72gqZ.jpg", "genre_ids": [35], "id": 437557, "original_language": "en", "original_title": "Blockers", "overview": "When three parents discover their daughters\u2019 pact to lose their virginity at prom, they launch a covert one-night operation to stop the teens from sealing the deal.", "poster_path": "/uvlUQXg0AlpGzKukO11K7QtW3Yu.jpg", "release_date": "2018-03-14", "title": "Blockers", "video": false, "vote_average": 6.2, "vote_count": 1153, "popularity": 18.075}, {"adult": false, "backdrop_path": "/zBB1mzmqnUuSrlTuf0SFFlI1EoJ.jpg", "genre_ids": [18], "id": 244772, "original_language": "en", "original_title": "The Skeleton Twins", "overview": "Estranged twins Maggie and Milo coincidentally cheat death on the same day, prompting them to reunite and confront the reasons their lives went so wrong. As the twins' reunion reinvigorates them, they realize the key to fixing their lives may just lie in repairing their relationship.", "poster_path": "/vvmv1R2jDXJeeeyYcGg0ypXc2XK.jpg", "release_date": "2014-09-12", "title": "The Skeleton Twins", "video": false, "vote_average": 6.7, "vote_count": 416, "popularity": 10.481}, {"adult": false, "backdrop_path": "/caLMOD3ZJ3V7qjlxDXrzlJfBLgD.jpg", "genre_ids": [18, 10749], "id": 20, "original_language": "en", "original_title": "My Life Without Me", "overview": "A Pedro Almodovar production in which a fatally ill mother with only two months to live creates a list of things she wants to do before she dies with out telling her family of her illness.", "poster_path": "/vVj92VBFUBzjqzLvBiPVVlJDp78.jpg", "release_date": "2003-03-07", "title": "My Life Without Me", "video": false, "vote_average": 6.1, "vote_count": 220, "popularity": 10.382}, {"adult": false, "backdrop_path": "/useuHJQ5HOoEWkAvEjL1FW1sUfe.jpg", "genre_ids": [18], "id": 376867, "original_language": "en", "original_title": "Moonlight", "overview": "The tender, heartbreaking story of a young man\u2019s struggle to find himself, told across three defining chapters in his life as he experiences the ecstasy, pain, and beauty of falling in love, while grappling with his own sexuality.", "poster_path": "/qAwFbszz0kRyTuXmMeKQZCX3Q2O.jpg", "release_date": "2016-10-21", "title": "Moonlight", "video": false, "vote_average": 7.4, "vote_count": 4406, "popularity": 27.348}, {"id": 434714, "video": false, "vote_count": 32, "vote_average": 7.5, "title": "My Days of Mercy", "release_date": "2019-07-11", "original_language": "en", "original_title": "My Days of Mercy", "genre_ids": [18, 10749], "backdrop_path": "/7Lbzq33nMMIQtAfZAmSqG6ibLSg.jpg", "adult": false, "overview": "The daughter of a man on death row falls in love with a woman on the opposing side of her family's political cause.", "poster_path": "/adIPKAoKnKL9vCTkvfF4J9ZA7Ln.jpg", "popularity": 6.928}, {"adult": false, "backdrop_path": "/k8H7ye6Sab7OrDJoo8Qp5WFGHGk.jpg", "genre_ids": [35, 10749, 18], "id": 244264, "original_language": "en", "original_title": "Laggies", "overview": "Overeducated and underemployed, 28 year old Megan is in the throes of a quarterlife crisis. Squarely into adulthood with no career prospects, no particular motivation to think about her future and no one to relate to, Megan is comfortable lagging a few steps behind - while her friends check off milestones and celebrate their new grown-up status. When her high-school sweetheart proposes, Megan panics and- given an unexpected opportunity to escape for a week - hides out in the home of her new friend, 16-year old Annika and Annika's world-weary single dad Craig.", "poster_path": "/dNcoXoRC7JHiqbe7k5Ufo6syiPP.jpg", "release_date": "2014-09-25", "title": "Laggies", "video": false, "vote_average": 6.1, "vote_count": 788, "popularity": 13.836}, {"adult": false, "backdrop_path": "/npClMhFGn4XUkwu6coq5oKAEu6L.jpg", "genre_ids": [35, 10749, 18], "id": 634, "original_language": "en", "original_title": "Bridget Jones's Diary", "overview": "A chaotic Bridget Jones meets a snobbish lawyer, and he soon enters her world of imperfections.", "poster_path": "/ym6kjFFZg6boC0QHBVw6hqJLbxv.jpg", "release_date": "2001-04-13", "title": "Bridget Jones's Diary", "video": false, "vote_average": 6.7, "vote_count": 3080, "popularity": 19.453}, {"adult": false, "backdrop_path": "/ojn7IYKmMt8HXRd6oLwY5pLGLVc.jpg", "genre_ids": [18, 10749], "id": 9587, "original_language": "en", "original_title": "Little Women", "overview": "With their father away as a chaplain in the Civil War, Jo, Meg, Beth and Amy grow up with their mother in somewhat reduced circumstances. They are a close family who inevitably have their squabbles and tragedies. But the bond holds even when, later, male friends start to become a part of the household.", "poster_path": "/tD9YDE8pjtSvvKUpkmooE6YDSm8.jpg", "release_date": "1994-12-21", "title": "Little Women", "video": false, "vote_average": 7.2, "vote_count": 574, "popularity": 18.707}, {"adult": false, "backdrop_path": "/by0WtpJ5UNxOy6ytIfPPTasbRoB.jpg", "genre_ids": [28, 12, 35, 18, 10751, 10402, 10749], "id": 17130, "original_language": "en", "original_title": "Crossroads", "overview": "Three friends get together and bury a box making a pact to open it at midnight at their high school graduation. In the little town in Georgia that they live in, things soon change. One is little miss perfect, one is an engaged prom queen, and the other is a pregnant outcast. The night of graduation, they open the box and they strike up a conversation. All of a sudden, one brings up the topic of her going to Los Angeles for a record contract audition. They all decide to go together and they leave. With a little money, they set out on the road with a guy named Ben. When one of them tells the other a rumor that he might be a homicidal maniac they are all scared of him. When they reach LA, Lucy falls in love with Ben and against her father's wishes, she stays and she goes to the audition.", "poster_path": "/egIs4cWxn0iBErFKrQ7STckjj49.jpg", "release_date": "2002-02-15", "title": "Crossroads", "video": false, "vote_average": 5.0, "vote_count": 334, "popularity": 14.197}, {"id": 8913, "video": false, "vote_count": 1055, "vote_average": 6.6, "title": "Pet Sematary", "release_date": "1989-04-21", "original_language": "en", "original_title": "Pet Sematary", "genre_ids": [18, 27], "backdrop_path": "/sbm4pRbGNaqaHjx6fPXh1aQGTJO.jpg", "adult": false, "overview": "Dr. Louis Creed's family moves into the country house of their dreams and discover a pet cemetery at the back of their property. The cursed burial ground deep in the woods brings the dead back to life -- with \"minor\" problems. At first, only the family's cat makes the return trip, but an accident forces a heartbroken father to contemplate the unthinkable.", "poster_path": "/9zUax4pjRgoPIJla9CQejqNJofB.jpg", "popularity": 14.532}, {"id": 334354, "video": false, "vote_count": 113, "vote_average": 7.4, "title": "Windstorm 2", "release_date": "2015-05-14", "original_language": "de", "original_title": "Ostwind 2", "genre_ids": [12, 18, 10749, 10751], "backdrop_path": "/l6atARsPq42Jz3Ls9fHqeGnahoy.jpg", "adult": false, "overview": "Summer vacation. Mika is overjoyed to see Windstorm again. But then she discovers strange wounds on the belly of Windstorm, for which no one has an explanation. Yet this is Kaltenbach verge of bankruptcy! With a heavy heart Mika decides to participate in a variety tournament in which beckons a high prize money. But during training affects Windstorm distracted, often he runs away easily. Mika pursued the black stallion until deep into the forest and is quite surprised: From the thicket a seemingly magical gray mare appears and the two horses dance around lovingly. Suddenly, a strange boy named Milan appears, who says the mare had escaped him. He claimed that he could Help Mika to win the tournament. But is there still time to save Kaltenbach?", "poster_path": "/4MAtc4Lz8Ds2AyZid0XrsKmMEby.jpg", "popularity": 12.28}, {"id": 83542, "video": false, "vote_count": 4861, "vote_average": 6.8, "title": "Cloud Atlas", "release_date": "2012-10-26", "original_language": "en", "original_title": "Cloud Atlas", "genre_ids": [18, 878], "backdrop_path": "/2ZA03KiD4jePTNBTJjGGFTNQPMA.jpg", "adult": false, "overview": "A set of six nested stories spanning time between the 19th century and a distant post-apocalyptic future. Cloud Atlas explores how the actions and consequences of individual lives impact one another throughout the past, the present and the future. Action, mystery and romance weave through the story as one soul is shaped from a killer into a hero and a single act of kindness ripples across centuries to inspire a revolution in the distant future.  Based on the award winning novel by David Mitchell. Directed by Tom Tykwer and the Wachowskis.", "poster_path": "/8VNiyIp67ZxhpNgdrwACW0jgvP2.jpg", "popularity": 19.113}], "total_pages": 1319, "total_results": 26376}, "recommendations": {"page": 1, "results": [{"adult": false, "backdrop_path": "/iMNXKY3VbkDe3XnCROorWy1lv3f.jpg", "genre_ids": [10751, 18], "id": 21751, "original_language": "nl", "original_title": "Lepel", "overview": "Years ago, Lepel's parents left an hot air balloon world tour. He stays with granny Koppenol, a mean bitch who constantly exploits him for domestic chores, in her buttons shop and even as accomplice in the department store where she steals the buttons from clothes. After she won't even leave him the balloon kind salesman Max gave him, Lepel, now 9, runs away. He meets Max's slightly older daughter Pleun. Schoolmaster Bijts is also looking for him, but only as arithmetics talent for an academic schools contest. Max accidentally finds out the sad truth about Lepel's family.", "poster_path": "/sZ2EJ5PUbWOhtYM6Jpnc1OIIXGM.jpg", "release_date": "2005-02-02", "title": "Spoon", "video": false, "vote_average": 7.0, "vote_count": 3, "popularity": 2.922}, {"adult": false, "backdrop_path": null, "genre_ids": [18, 10749], "id": 121813, "original_language": "en", "original_title": "Johan", "overview": "Johan Dros is born as eleventh consecutive son of soccer-obsessed pa Rinus, who raises his boys mainly as the small island Texel's team. Johan's rare reprieves from training for a sport he doesn't care for cease when ma dies. After captain brother Johhny sort of steals his local girl-friend Evy, Johan leaves for Amsterdam, where he becomes a hairdresser and would-be singer. Soccer, a vocal TV talent-hunt and Evy will bring them all together again, but also raise unprecedented strife in the Dros family", "poster_path": "/tbj9RxTzGx0bafPXrGKVlUEpDfU.jpg", "release_date": "2005-10-06", "title": "Johan", "video": false, "vote_average": 6.0, "vote_count": 4, "popularity": 0.946}, {"adult": false, "backdrop_path": null, "genre_ids": [14, 18, 10751], "id": 258113, "original_language": "nl", "original_title": "Assepoester: Een Modern Sprookje", "overview": "", "poster_path": "/mRTIxu1qWLPp2WsNHZwiIDWNa04.jpg", "release_date": "2014-01-01", "title": "Assepoester: Een Modern Sprookje", "video": false, "vote_average": 6.3, "vote_count": 8, "popularity": 2.18}], "total_pages": 1, "total_results": 3}, "credits": {"cast": [{"cast_id": 1, "character": "", "credit_id": "54f6e7489251416ee400108c", "gender": 1, "id": 229486, "name": "Abbey Hoes", "order": 1, "profile_path": "/zGqxNZEzVoFsG39jE0U20RIFH6o.jpg"}, {"cast_id": 2, "character": "", "credit_id": "54f6e7519251416ebf000fc5", "gender": 1, "id": 40266, "name": "Maruschka Detmers", "order": 2, "profile_path": "/cgkiY6vThCU7Eg1IG23iXj4wPME.jpg"}, {"cast_id": 3, "character": "", "credit_id": "54f6e75b9251416e460010cb", "gender": 2, "id": 1279250, "name": "Jonas Smulders", "order": 3, "profile_path": "/zfJHDmBUsaLrbxUnKSx7bxMeTPC.jpg"}, {"cast_id": 4, "character": "", "credit_id": "54f6e7639251416ee400108e", "gender": 0, "id": 222922, "name": "Wim Opbrouck", "order": 4, "profile_path": "/2O7lhlXgxWge6zDDQ48e5YvHVH0.jpg"}, {"cast_id": 5, "character": "", "credit_id": "54f6e76c9251416e460010ce", "gender": 0, "id": 27962, "name": "Kasper van Kooten", "order": 5, "profile_path": "/80c7f51woH393ojiFcmnXWqVkJJ.jpg"}, {"cast_id": 6, "character": "", "credit_id": "54f6e777c3a36833bb001362", "gender": 0, "id": 1112411, "name": "Alex Hendrickx", "order": 6, "profile_path": "/gkZCFDEJPE0UWkWM0zVOUwYTJZh.jpg"}, {"cast_id": 7, "character": "", "credit_id": "54f6e7819251416f6e001220", "gender": 0, "id": 211227, "name": "Leopold Witte", "order": 7, "profile_path": "/zdhNwRMhHqs2zkAyM6uEYpUOGbl.jpg"}, {"cast_id": 8, "character": "", "credit_id": "54f6e7889251416ee4001094", "gender": 0, "id": 1434872, "name": "Bram Verrecas", "order": 8, "profile_path": null}, {"cast_id": 9, "character": "", "credit_id": "54f6e7929251416ebf000fcc", "gender": 2, "id": 1434873, "name": "Wilfried de Jong", "order": 9, "profile_path": "/akRKIoEeu0I3OAt8g7Ekd7c7i4Y.jpg"}, {"cast_id": 10, "character": "", "credit_id": "54f6e79bc3a36834a5001253", "gender": 0, "id": 1434874, "name": "Jip van den Dool", "order": 10, "profile_path": null}], "crew": [{"credit_id": "54f6e5d0c3a36833bb00133e", "department": "Directing", "gender": 0, "id": 144196, "job": "Director", "name": "Nicole van Kilsdonk", "profile_path": null}, {"credit_id": "54f6eacdc3a36834a200115b", "department": "Writing", "gender": 0, "id": 144196, "job": "Writer", "name": "Nicole van Kilsdonk", "profile_path": null}, {"credit_id": "54f6eac4c3a368351d0011d5", "department": "Writing", "gender": 0, "id": 1434875, "job": "Writer", "name": "Bert Wagendorp", "profile_path": null}]}}