{"adult": false, "backdrop_path": "/7cTN1sqfkigQ2Ogxjfn6W2nTPJa.jpg", "belongs_to_collection": null, "budget": 0, "genres": [{"id": 35, "name": "Comedy"}], "homepage": null, "id": 330453, "imdb_id": "tt0029446", "original_language": "en", "original_title": "Public Wedding", "overview": "The operators of a bankrupt carnival sideshow hope to restore their fallen fortunes by staging a fake 'public wedding' in the mouth of their unprofitable giant whale. But the intended 'bridegroom' absconds with the proceeds, arranging a substitute. The bride, Flip Lane (Jane Wyman), much to her surprise, finds herself really married to a handsome stranger, whose career as an artist she decides to manage, much to his dismay.", "popularity": 0.96, "poster_path": "/oYJowjqbeXAmlXSQM2gkkIGZG1m.jpg", "production_companies": [{"id": 174, "logo_path": "/IuAlhI9eVC9Z8UQWOIDdWRKSEJ.png", "name": "Warner Bros. Pictures", "origin_country": "US"}], "production_countries": [{"iso_3166_1": "US", "name": "United States of America"}], "release_date": "1937-07-09", "revenue": 0, "runtime": 58, "spoken_languages": [{"iso_639_1": "en", "name": "English"}], "status": "Released", "tagline": "", "title": "Public Wedding", "video": false, "vote_average": 5.0, "vote_count": 1, "keywords": {"keywords": [{"id": 2298, "name": "bankrupt"}, {"id": 3473, "name": "carnival"}, {"id": 13027, "name": "wedding"}, {"id": 206718, "name": "cons and scams"}]}, "similar": {"page": 1, "results": [{"adult": false, "backdrop_path": "/gRY30dvyLhydkblpE0v3NiXt0Nj.jpg", "genre_ids": [35, 10749], "id": 6557, "original_language": "en", "original_title": "27 Dresses", "overview": "Altruistic Jane finds herself facing her worst nightmare as her younger sister announces her engagement to the man Jane secretly adores.", "poster_path": "/zzJtHNzi1D4CPwRlPHV1TRQNXD2.jpg", "release_date": "2008-01-10", "title": "27 Dresses", "video": false, "vote_average": 6.3, "vote_count": 2137, "popularity": 14.081}, {"adult": false, "backdrop_path": "/wyvHy4ElaiNamrpS6fjquYQqxhQ.jpg", "genre_ids": [35, 18, 10749], "id": 712, "original_language": "en", "original_title": "Four Weddings and a Funeral", "overview": "Over the course of five social occasions, a committed bachelor must consider the notion that he may have discovered love.", "poster_path": "/md9kMKnLG8LG4pMDM98gy5x4K5L.jpg", "release_date": "1994-03-09", "title": "Four Weddings and a Funeral", "video": false, "vote_average": 6.7, "vote_count": 1456, "popularity": 16.731}, {"adult": false, "backdrop_path": "/f7pTesNnPjOVAq7QqhgnSHaK9Cc.jpg", "genre_ids": [35, 10749], "id": 10521, "original_language": "en", "original_title": "Bride Wars", "overview": "Two best friends become rivals when their respective weddings are accidentally booked for the same day.", "poster_path": "/y5O46J9i98MkcExaPIeZaRImF4C.jpg", "release_date": "2009-01-09", "title": "Bride Wars", "video": false, "vote_average": 6.1, "vote_count": 1901, "popularity": 15.977}, {"id": 24, "video": false, "vote_count": 10676, "vote_average": 7.9, "title": "Kill Bill: Vol. 1", "release_date": "2003-10-10", "original_language": "en", "original_title": "Kill Bill: Vol. 1", "genre_ids": [28, 80], "backdrop_path": "/kkS8PKa8c134vXsj2fQkNqOaCXU.jpg", "adult": false, "overview": "An assassin is shot by her ruthless employer, Bill, and other members of their assassination circle \u2013 but she lives to plot her vengeance.", "poster_path": "/v7TaX8kXMXs5yFFGR41guUDNcnB.jpg", "popularity": 35.853}, {"adult": false, "backdrop_path": "/w6TR7kTsKmlBYps2i5hzoukBLCn.jpg", "genre_ids": [35, 14], "id": 10330, "original_language": "en", "original_title": "Freaky Friday", "overview": "Mother and daughter bicker over everything -- what Anna wears, whom she likes and what she wants to do when she's older. In turn, Anna detests Tess's fianc\u00e9. When a magical fortune cookie switches their personalities, they each get a peek at how the other person feels, thinks and lives.", "poster_path": "/fBtYKVgpGNoUsmRGy7rLjIQsmpf.jpg", "release_date": "2003-08-03", "title": "Freaky Friday", "video": false, "vote_average": 6.2, "vote_count": 2252, "popularity": 14.493}, {"id": 252838, "video": false, "vote_count": 1050, "vote_average": 6.5, "title": "The Wedding Ringer", "release_date": "2015-01-16", "original_language": "en", "original_title": "The Wedding Ringer", "genre_ids": [35], "backdrop_path": "/xCnxYy1WyPBp6ImcjEe8KezPryq.jpg", "adult": false, "overview": "Doug Harris is a loveable but socially awkward groom-to-be with a problem: he has no best man.  With less than two weeks to go until he marries the girl of his dreams, Doug is referred to Jimmy Callahan, owner and CEO of Best Man, Inc., a company that provides flattering best men for socially challenged guys in need.  What ensues is a hilarious wedding charade as they try to pull off the big con, and an unexpected budding bromance between Doug and his fake\r best man Jimmy.", "poster_path": "/u3gLkiOpkNb01r7yvrbbOfBJv3R.jpg", "popularity": 22.591}, {"id": 8346, "video": false, "vote_count": 1269, "vote_average": 6.4, "title": "My Big Fat Greek Wedding", "release_date": "2002-02-22", "original_language": "en", "original_title": "My Big Fat Greek Wedding", "genre_ids": [35, 18, 10749], "backdrop_path": "/miFwBsaWZER118kg0AAuHcy1YOa.jpg", "adult": false, "overview": "A young Greek woman falls in love with a non-Greek and struggles to get her family to accept him while she comes to terms with her heritage and cultural identity.", "poster_path": "/vqGs8K6MdMHVPMTgMhzKHBVgu0t.jpg", "popularity": 17.695}, {"id": 647759, "video": false, "vote_count": 4, "vote_average": 5.3, "title": "Crazy Wedding  2", "release_date": "2019-12-25", "original_language": "uk", "original_title": "\u0421\u043a\u0430\u0436\u0435\u043d\u0435 \u0432\u0435\u0441\u0456\u043b\u043b\u044f 2", "genre_ids": [35], "backdrop_path": null, "adult": false, "overview": "", "poster_path": "/fZVI6PuP5y3Cjgg4feo6VdA5yUw.jpg", "popularity": 1.528}, {"id": 6575, "video": false, "vote_count": 364, "vote_average": 6.6, "title": "Walk Hard: The Dewey Cox Story", "release_date": "2007-12-21", "original_language": "en", "original_title": "Walk Hard: The Dewey Cox Story", "genre_ids": [35, 18, 10402], "backdrop_path": "/y7EElGAn1tFE0Npmls7uvg4HPVj.jpg", "adult": false, "overview": "Following a childhood tragedy, Dewey Cox follows a long and winding road to music stardom. Dewey perseveres through changing musical styles, an addiction to nearly every drug known and bouts of uncontrollable rage.", "poster_path": "/2sc7qoLTqZC0nB2k1crwuVoKP6H.jpg", "popularity": 15.669}, {"id": 291870, "video": false, "vote_count": 2886, "vote_average": 5.8, "title": "Dirty Grandpa", "release_date": "2016-01-21", "original_language": "en", "original_title": "Dirty Grandpa", "genre_ids": [35], "backdrop_path": "/ivm52GLofIbvTb4dp4S4zbPO6II.jpg", "adult": false, "overview": "Jason Kelly is one week away from marrying his boss's uber-controlling daughter, putting him on the fast track for a partnership at the law firm. However, when the straight-laced Jason is tricked into driving his foul-mouthed grandfather, Dick, to Daytona for spring break, his pending nuptials are suddenly in jeopardy. Between riotous frat parties, bar fights, and an epic night of karaoke, Dick is on a quest to live his life to the fullest and bring Jason along for the ride.", "poster_path": "/cZEx6mB5Ftnt7LvlDjTKXcrTvyg.jpg", "popularity": 20.13}, {"adult": false, "backdrop_path": "/5CDIezS2xJtcSXPL24Z2dIeUOp0.jpg", "genre_ids": [35, 10749], "id": 8273, "original_language": "en", "original_title": "American Wedding", "overview": "With high school a distant memory, Jim and Michelle are getting married -- and in a hurry, since Jim's grandmother is sick and wants to see him walk down the aisle -- prompting Stifler to throw the ultimate bachelor party. And Jim's dad is reliable as ever, doling out advice no one wants to hear.", "poster_path": "/lcLuBjI3Hr12mGFKJvdMeZdf3AN.jpg", "release_date": "2003-08-01", "title": "American Wedding", "video": false, "vote_average": 6.1, "vote_count": 2482, "popularity": 20.084}, {"id": 37247, "video": false, "vote_count": 1749, "vote_average": 7.7, "title": "The Graduate", "release_date": "1967-12-21", "original_language": "en", "original_title": "The Graduate", "genre_ids": [35, 18], "backdrop_path": "/sEWKMIlgUCCb2n5mT0Mf71DRKLR.jpg", "adult": false, "overview": "Benjamin, a recent college graduate very worried about his future, finds himself in a love triangle with an older woman and her daughter.", "poster_path": "/qtVvdSsm2hvau6ItLe4gWdFKe2M.jpg", "popularity": 15.847}, {"id": 455207, "video": false, "vote_count": 1889, "vote_average": 7.0, "title": "Crazy Rich Asians", "release_date": "2018-08-15", "original_language": "en", "original_title": "Crazy Rich Asians", "genre_ids": [35, 18, 10749], "backdrop_path": "/zeHB7aP46Xs3u4aFLuAq2GFeUGb.jpg", "adult": false, "overview": "An American-born Chinese economics professor accompanies her boyfriend to Singapore for his best friend's wedding, only to get thrust into the lives of Asia's rich and famous.", "poster_path": "/1XxL4LJ5WHdrcYcihEZUCgNCpAW.jpg", "popularity": 15.192}, {"id": 13161, "video": false, "vote_count": 335, "vote_average": 5.8, "title": "Big Stan", "release_date": "2007-06-06", "original_language": "en", "original_title": "Big Stan", "genre_ids": [35], "backdrop_path": "/6O7TMiTUF4fdh5Jn3Xe3GtPwk2X.jpg", "adult": false, "overview": "Rob Schneider writes and stars in this comedy about a nerdy con man whose swindling ways land him a stiff prison sentence. Terrified at the prospect of being raped in prison he enlists the aid of a mysterious kung-fu expert to teach him how to fight.", "poster_path": "/9aVhW8KoKSn6l35n1WXAHZkqdwj.jpg", "popularity": 17.897}, {"adult": false, "backdrop_path": "/qfB3KR6AuRI3Sqz8jWAOpRaGC0H.jpg", "genre_ids": [35, 18], "id": 565310, "original_language": "en", "original_title": "The Farewell", "overview": "A headstrong Chinese-American woman returns to China when her beloved grandmother is given a terminal diagnosis. Billi struggles with her family's decision to keep grandma in the dark about her own illness as they all stage an impromptu wedding to see grandma one last time.", "poster_path": "/7ht2IMGynDSVQGvAXhAb83DLET8.jpg", "release_date": "2019-07-12", "title": "The Farewell", "video": false, "vote_average": 7.7, "vote_count": 304, "popularity": 19.823}, {"id": 567609, "video": false, "vote_count": 867, "vote_average": 6.8, "title": "Ready or Not", "release_date": "2019-08-21", "original_language": "en", "original_title": "Ready or Not", "genre_ids": [35, 27, 9648, 53], "backdrop_path": "/ubqaGfwYxZMaTEVfhPghF87tzYm.jpg", "adult": false, "overview": "A bride's wedding night takes a sinister turn when her eccentric new in-laws force her to take part in a terrifying game.", "poster_path": "/vOl6shtL0wknjaIs6JdKCpcHvg8.jpg", "popularity": 45.752}, {"adult": false, "backdrop_path": "/yNBcIGxAjvtsf4dQaVgyNy27qnp.jpg", "genre_ids": [35, 18, 37, 10402], "id": 16563, "original_language": "en", "original_title": "Seven Brides for Seven Brothers", "overview": "In 1850 Oregon, when a backwoodsman brings a wife home to his farm, his six brothers decide that they want to get married too.", "poster_path": "/42uIMPDWlJLexVGhj7zXYP1fchQ.jpg", "release_date": "1954-07-22", "title": "Seven Brides for Seven Brothers", "video": false, "vote_average": 7.3, "vote_count": 289, "popularity": 10.429}, {"adult": false, "backdrop_path": "/qFLDF62VbWyyxkwco9lwZqkGoMB.jpg", "genre_ids": [16, 10751], "id": 10895, "original_language": "en", "original_title": "Pinocchio", "overview": "Lonely toymaker Geppetto has his wishes answered when the Blue Fairy arrives to bring his wooden puppet Pinocchio to life. Before becoming a real boy, however, Pinocchio must prove he's worthy as he sets off on an adventure with his whistling sidekick and conscience, Jiminy Cricket.", "poster_path": "/gN1dQBHi4557cFduIu9njOr6knW.jpg", "release_date": "1940-02-23", "title": "Pinocchio", "video": false, "vote_average": 7.0, "vote_count": 3431, "popularity": 25.831}, {"adult": false, "backdrop_path": "/nq60mZOlrD4mZJg1T4hHUtWTIkN.jpg", "genre_ids": [12, 14, 28, 53], "id": 1979, "original_language": "en", "original_title": "Fantastic Four: Rise of the Silver Surfer", "overview": "The Fantastic Four return to the big screen as a new and all powerful enemy threatens the Earth. The seemingly unstoppable 'Silver Surfer', but all is not what it seems and there are old and new enemies that pose a greater threat than the intrepid superheroes realize.", "poster_path": "/fXpziQgnBnB4bLgjKhjTbLQumE5.jpg", "release_date": "2007-06-13", "title": "Fantastic Four: Rise of the Silver Surfer", "video": false, "vote_average": 5.5, "vote_count": 5280, "popularity": 38.268}, {"id": 1375, "video": false, "vote_count": 1670, "vote_average": 5.6, "title": "Rocky V", "release_date": "1990-10-18", "original_language": "en", "original_title": "Rocky V", "genre_ids": [18], "backdrop_path": "/dr5pdEDOdCvelCQqP32UZubiSgE.jpg", "adult": false, "overview": "A lifetime of taking shots has ended Rocky\u2019s career, and a crooked accountant has left him broke. Inspired by the memory of his trainer, however, Rocky finds glory in training and takes on an up-and-coming boxer.", "poster_path": "/5P2RiuLt31mWyb6duww8qlAhs6G.jpg", "popularity": 22.518}], "total_pages": 35, "total_results": 688}, "recommendations": {"page": 1, "results": [], "total_pages": 1, "total_results": 0}, "credits": {"cast": [{"cast_id": 1, "character": "Florence \"Flip\" Lane", "credit_id": "55030998c3a3685b96004b5a", "gender": 1, "id": 20391, "name": "Jane Wyman", "order": 1, "profile_path": "/e7mRq5fOsVZ2dnTFfuQScDDs2ON.jpg"}, {"cast_id": 2, "character": "Tony Burke", "credit_id": "550309a99251413da1004367", "gender": 2, "id": 2776, "name": "William Hopper", "order": 2, "profile_path": "/lv9KfbxJP01uSlw7ZnjzHP9aT1b.jpg"}, {"cast_id": 3, "character": "Joe Taylor", "credit_id": "550309bac3a3685bab004541", "gender": 2, "id": 13970, "name": "Dick Purcell", "order": 3, "profile_path": "/cG9D9FRldekquATNnsJ19Yho3xf.jpg"}, {"cast_id": 4, "character": "Tessie Schultz", "credit_id": "550309cb9251413d9f004a62", "gender": 1, "id": 131441, "name": "Marie Wilson", "order": 4, "profile_path": "/4ZnT4i0Aa53Y8yw7ZgD92q9UWGe.jpg"}, {"cast_id": 5, "character": "H. Theodore \"Pop\" Lane III", "credit_id": "550309ddc3a3685b9e0043e5", "gender": 2, "id": 14969, "name": "Berton Churchill", "order": 5, "profile_path": "/rZJl9ZZPc9V7jSp2QTck8wKIaua.jpg"}, {"cast_id": 6, "character": "Nick", "credit_id": "550309f19251413d9b0047c0", "gender": 0, "id": 1299051, "name": "Archie Robbins", "order": 6, "profile_path": "/1nHY98EWUOGys02yUkYT5Ou2rJ9.jpg"}, {"cast_id": 7, "character": "The Deacon", "credit_id": "55030a02c3a3685b9b004597", "gender": 2, "id": 90333, "name": "Raymond Hatton", "order": 7, "profile_path": "/dtzBcur5aco03B8kRguRc3IiLON.jpg"}, {"cast_id": 8, "character": "Bernice", "credit_id": "55030a139251414ea60027d2", "gender": 1, "id": 22948, "name": "Veda Ann Borg", "order": 8, "profile_path": "/1sLegrMApxC4Z5dFMIxjxT1ZhtQ.jpg"}, {"cast_id": 9, "character": "Gus Papadopoulos", "credit_id": "55030a249251413da8004bab", "gender": 0, "id": 1383600, "name": "Zeni Vatori", "order": 9, "profile_path": null}, {"cast_id": 10, "character": "Jeremiah Boggs", "credit_id": "55030a35c3a3687b69003edd", "gender": 0, "id": 1123256, "name": "Jimmie Fox", "order": 10, "profile_path": null}, {"cast_id": 11, "character": "Pete - the Waiter", "credit_id": "55030a45925141282f003d57", "gender": 2, "id": 1439126, "name": "Curtis Karpe", "order": 11, "profile_path": null}, {"cast_id": 12, "character": "Reporter", "credit_id": "55030a55c3a3685bab00454c", "gender": 2, "id": 1027243, "name": "Carlyle Moore Jr.", "order": 12, "profile_path": "/xIpaRyFVum99EPz1qj3dxpQPSpq.jpg"}, {"cast_id": 13, "character": "Reporter", "credit_id": "55030a61c3a3685b9b0045b3", "gender": 2, "id": 78773, "name": "Horace McMahon", "order": 13, "profile_path": "/paQT8XAUgY7tcqjyQiWczhkgRHD.jpg"}, {"cast_id": 14, "character": "Reporter", "credit_id": "55030a71c3a3687b69003ee9", "gender": 2, "id": 43845, "name": "John Harron", "order": 14, "profile_path": "/JGb5PfERiGg5NaTtV5FcCHccwk.jpg"}, {"cast_id": 15, "character": "Reporter", "credit_id": "55030a809251414ea60027ef", "gender": 2, "id": 980330, "name": "Jack Mower", "order": 15, "profile_path": "/40SznvE0dvL39Fg2Q0pbAPx6V0o.jpg"}, {"cast_id": 16, "character": "Reporter", "credit_id": "55030a93c3a3685bab00454f", "gender": 2, "id": 1432760, "name": "Lyle Moraine", "order": 16, "profile_path": null}, {"cast_id": 17, "character": "Man Carrying Coat", "credit_id": "55030ab0925141282f003d5f", "gender": 2, "id": 98571, "name": "Eddie 'Rochester' Anderson", "order": 17, "profile_path": "/zHuKGgQyNUKSX5elFdef0lG9QoS.jpg"}, {"cast_id": 18, "character": "Detective", "credit_id": "55030ac49251414ea60027f3", "gender": 0, "id": 941240, "name": "James P. Burtis", "order": 18, "profile_path": "/fBBYoOzAlQIfzSJNDtJrhwLjJqm.jpg"}, {"cast_id": 19, "character": "Ticket Buyer for the Wedding", "credit_id": "55030ad6c3a3685b9b0045bc", "gender": 2, "id": 14419, "name": "Glen Cavender", "order": 19, "profile_path": "/z1B6ZXQObMu2m8D4zcrTGVmHTch.jpg"}, {"cast_id": 20, "character": "Detective", "credit_id": "55030ae89251413da1004374", "gender": 2, "id": 120734, "name": "Eddy Chandler", "order": 20, "profile_path": "/xjGYGqXJYgp6U2omeUTdzxHoDAj.jpg"}, {"cast_id": 21, "character": "Reporter", "credit_id": "55030afec3a3685b9e004411", "gender": 2, "id": 90369, "name": "Lane Chandler", "order": 21, "profile_path": "/3DN1h5C5qYQ3Efd4demVUmZqP3g.jpg"}, {"cast_id": 22, "character": "Nurse", "credit_id": "55030b129251414ea60027f7", "gender": 0, "id": 1198250, "name": "Loia Cheaney", "order": 22, "profile_path": null}, {"cast_id": 23, "character": "Mrs. Van Drexel", "credit_id": "55030b259251413da8004bc1", "gender": 1, "id": 85957, "name": "Sarah Edwards", "order": 23, "profile_path": "/rmSSO8YP31eEP9JYbmFRi7QsIon.jpg"}, {"cast_id": 24, "character": "Sheriff", "credit_id": "55030b989251413d9f004a7e", "gender": 2, "id": 1016646, "name": "George Guhl", "order": 24, "profile_path": "/uzXTrYPbMiK1kVIX5vJkD1ilBtC.jpg"}, {"cast_id": 25, "character": "Mr. Harrison - the Banker", "credit_id": "55030babc3a3685bab004566", "gender": 0, "id": 1421031, "name": "Frank Hammond", "order": 25, "profile_path": null}, {"cast_id": 26, "character": "Mr. Spencer - the Art Dealer", "credit_id": "55030bbf925141275c004385", "gender": 2, "id": 583697, "name": "Gordon Hart", "order": 26, "profile_path": null}, {"cast_id": 27, "character": "Man Who Avoids Whale", "credit_id": "55030bcfc3a3685ba6004c37", "gender": 2, "id": 119542, "name": "Stuart Holmes", "order": 27, "profile_path": "/8wfcyeItQHQ49uGxOkzAiUjB0oJ.jpg"}, {"cast_id": 28, "character": "Police Captain", "credit_id": "55030be09251413da1004386", "gender": 2, "id": 119258, "name": "Cy Kendall", "order": 28, "profile_path": "/fWgCEtLJR1NmL2FtRYt5F1yxSeR.jpg"}, {"cast_id": 29, "character": "Jailer", "credit_id": "55030bf7925141282f003d74", "gender": 2, "id": 117036, "name": "Milton Kibbee", "order": 29, "profile_path": "/jQpaekf2R1MMm7uqgMbP38dTrNh.jpg"}, {"cast_id": 30, "character": "Reporter in Police Captain's Office", "credit_id": "55030c0792514174f600100f", "gender": 0, "id": 47001, "name": "Frank Mills", "order": 30, "profile_path": "/iHfknf51T7otwyiR8IvMdRNKwjs.jpg"}, {"cast_id": 31, "character": "Violinist in Gus' Restaurant", "credit_id": "55030c1c9251414ea6002801", "gender": 0, "id": 1422153, "name": "Nick Moro", "order": 31, "profile_path": null}, {"cast_id": 32, "character": "Elevator Operator", "credit_id": "55030c2c92514174f6001013", "gender": 2, "id": 119545, "name": "Spec O'Donnell", "order": 32, "profile_path": null}, {"cast_id": 33, "character": "Newspaper Boy", "credit_id": "55030c3cc3a3685ba6004c41", "gender": 2, "id": 223268, "name": "George Offerman, Jr.", "order": 33, "profile_path": "/x8t9IK5BAIzUkZIyoQBfxjNVLwr.jpg"}, {"cast_id": 34, "character": "Cameraman", "credit_id": "55030c589251413d9f004a85", "gender": 0, "id": 119548, "name": "John J. Richardson", "order": 34, "profile_path": null}], "crew": [{"credit_id": "550308c992514174f6000fef", "department": "Directing", "gender": 2, "id": 96608, "job": "Director", "name": "Nick Grinde", "profile_path": null}, {"credit_id": "56f02f02c3a368718600041e", "department": "Writing", "gender": 2, "id": 70263, "job": "Screenplay", "name": "Roy Chanslor", "profile_path": null}, {"credit_id": "56f02f12c3a36871770003d5", "department": "Writing", "gender": 0, "id": 235355, "job": "Screenplay", "name": "Houston Branch", "profile_path": null}, {"credit_id": "56f02f1ec3a36871890005ac", "department": "Writing", "gender": 0, "id": 235355, "job": "Story", "name": "Houston Branch", "profile_path": null}, {"credit_id": "56f02f2f925141184a000449", "department": "Production", "gender": 2, "id": 2663, "job": "Executive Producer", "name": "Jack L. Warner", "profile_path": "/I8UijyhvGPOaeiPTmxgcYCa8td.jpg"}, {"credit_id": "56f02f3ec3a3687186000422", "department": "Production", "gender": 2, "id": 4123, "job": "Executive Producer", "name": "Hal B. Wallis", "profile_path": "/lia6xtKaPDmQ68BArDkqxAFj9go.jpg"}, {"credit_id": "56f02f49925141183d000407", "department": "Camera", "gender": 0, "id": 34342, "job": "Director of Photography", "name": "L. William O'Connell", "profile_path": null}, {"credit_id": "56f02f56925141183a00042b", "department": "Art", "gender": 2, "id": 33020, "job": "Art Direction", "name": "Esdras Hartley", "profile_path": null}]}}