{"adult": false, "backdrop_path": "/sZQxo6qPCd92H4HXSHmrSZMSuXw.jpg", "belongs_to_collection": null, "budget": 0, "genres": [{"id": 35, "name": "Comedy"}, {"id": 18, "name": "Drama"}, {"id": 10751, "name": "Family"}, {"id": 27, "name": "Horror"}, {"id": 9648, "name": "Mystery"}, {"id": 53, "name": "Thriller"}], "homepage": "http://www.godspeedthefilm.com/", "id": 33116, "imdb_id": "tt1242539", "original_language": "en", "original_title": "Godspeed", "overview": "Joseph McKelheer and Cory Knauf (The Hamiltons, The Violent Kind) star in this intense thriller set in the lingering light of the Alaskan midnight sun. Charlie Shepard, a modern day faith healer with a small flock of believers, is stunned when his family is brutally murdered.  Six months later a young, mysterious girl (Courtney Halverson) appears and becomes the link to his family's killing and the murderers themselves, ultimately leading to violent consequences for all.", "popularity": 3.107, "poster_path": "/4zgVjuIuajPTW8UR9EgymWfohRS.jpg", "production_companies": [], "production_countries": [{"iso_3166_1": "US", "name": "United States of America"}], "release_date": "2009-01-01", "revenue": 0, "runtime": 99, "spoken_languages": [{"iso_639_1": "en", "name": "English"}], "status": "Released", "tagline": "Glory is the fear.", "title": "Godspeed", "video": false, "vote_average": 4.3, "vote_count": 7, "keywords": {"keywords": [{"id": 10183, "name": "independent film"}]}, "similar": {"page": 1, "results": [{"adult": false, "backdrop_path": "/9e5e7dJTMxQeF7zNx0CiJmxXE1I.jpg", "genre_ids": [27, 878, 53], "id": 11309, "original_language": "en", "original_title": "Hardware", "overview": "Mark 13 is a government-built killing machine programmed with artificial intelligence, able to repair and recharge itself from any energy source. Through a series of coincidences, the cyborg's head ends up in the home of a sculptress as a bizarre Christmas present from her boyfriend. Once inside its new home, the cyborg promptly reconstructs the rest of its body using a variety of household utensils and proceeds to go on a murderous rampage.", "poster_path": "/nsFm5xniViTVr1oVUpKmgvlAOEA.jpg", "release_date": "1990-09-14", "title": "Hardware", "video": false, "vote_average": 5.7, "vote_count": 145, "popularity": 11.259}, {"adult": false, "backdrop_path": "/kQyeXce1ozYryHichnEserMAByN.jpg", "genre_ids": [28, 80, 18, 53], "id": 11564, "original_language": "en", "original_title": "Class of 1984", "overview": "Andy is a new teacher at a inner city high school that is like nothing he has ever seen before. There is metal detectors at the front door and everything is basically run by a tough kid named Peter Stegman. Soon, Andy and Stegman become enemies and Stegman will stop at nothing to protect his turf and drug dealing business.", "poster_path": "/whDnqSYg4yYgVzbVhLSjzC5piUR.jpg", "release_date": "1982-08-20", "title": "Class of 1984", "video": false, "vote_average": 6.2, "vote_count": 121, "popularity": 9.407}, {"id": 298312, "video": false, "vote_count": 2921, "vote_average": 6.2, "title": "The Visit", "release_date": "2015-09-10", "original_language": "en", "original_title": "The Visit", "genre_ids": [27, 9648, 53], "backdrop_path": "/gbJlEeALVGo7kx8bC2q4EFWX1Xy.jpg", "adult": false, "overview": "The terrifying story of a brother and sister who are sent to their grandparents' remote Pennsylvania farm for a weeklong trip. Once the children discover that the elderly couple is involved in something deeply disturbing, they see their chances of getting back home are growing smaller every day.", "poster_path": "/32tNtTEQ1vIOLm1hEOSFkVwJT5D.jpg", "popularity": 20.148}, {"adult": false, "backdrop_path": "/7QjoyyGdBV32x1sEh64dAnNjwg2.jpg", "genre_ids": [53, 35, 27], "id": 12521, "original_language": "en", "original_title": "Shocker", "overview": "After being sent to the electric chair, a serial killer uses electricity to come back from the dead and carry out his vengeance on the football player who turned him in to the police.", "poster_path": "/xEDmOhNGCKlWlS3mCiqLCVzBXVA.jpg", "release_date": "1989-10-27", "title": "Shocker", "video": false, "vote_average": 5.5, "vote_count": 176, "popularity": 9.966}, {"adult": false, "backdrop_path": "/neSLpxwG5TWNzCPDUIZ9kbl2bOL.jpg", "genre_ids": [18, 53, 80], "id": 4836, "original_language": "en", "original_title": "Layer Cake", "overview": "When a seemingly straight-forward drug deal goes awry, XXXX has to break his die-hard rules and turn up the heat, not only to outwit the old regime and come out on top, but to save his own skin...", "poster_path": "/y6BzUkrx789OhVMDXZiBBVHu6OQ.jpg", "release_date": "2004-09-30", "title": "Layer Cake", "video": false, "vote_average": 7.0, "vote_count": 1028, "popularity": 15.863}, {"adult": false, "backdrop_path": "/7RRuRcGuWkZGuRyYugfXn0Fgrrr.jpg", "genre_ids": [28, 80, 18, 53], "id": 949, "original_language": "en", "original_title": "Heat", "overview": "Obsessive master thief, Neil McCauley leads a top-notch crew on various daring heists throughout Los Angeles while determined detective, Vincent Hanna pursues him without rest. Each man recognizes and respects the ability and the dedication of the other even though they are aware their cat-and-mouse game may end in violence.", "poster_path": "/6pmLVffM9jEYK7VqDJqPblMxfEY.jpg", "release_date": "1995-12-15", "title": "Heat", "video": false, "vote_average": 7.8, "vote_count": 3610, "popularity": 21.48}, {"id": 339692, "video": false, "vote_count": 1163, "vote_average": 6.9, "title": "Shot Caller", "release_date": "2017-07-13", "original_language": "en", "original_title": "Shot Caller", "genre_ids": [80, 18, 53], "backdrop_path": "/hehboYLXB3m90x9ybiBsupwuifL.jpg", "adult": false, "overview": "A newly-released prison gangster is forced by the leaders of his gang to orchestrate a major crime with a brutal rival gang on the streets of Southern California.", "poster_path": "/qLmLz2wtyYvmW8Ult3l2ngOnW8v.jpg", "popularity": 25.016}, {"id": 442249, "video": false, "vote_count": 2156, "vote_average": 5.8, "title": "The First Purge", "release_date": "2018-07-04", "original_language": "en", "original_title": "The First Purge", "genre_ids": [28, 27, 878, 53], "backdrop_path": "/r4clWIxKeWoqrHspQP0XunuUmB7.jpg", "adult": false, "overview": "To push the crime rate below one percent for the rest of the year, the New Founding Fathers of America test a sociological theory that vents aggression for one night in one isolated community. But when the violence of oppressors meets the rage of the others, the contagion will explode from the trial-city borders and spread across the nation.", "poster_path": "/litjsBoiydO6JlO70uOX4N3WnNL.jpg", "popularity": 27.168}, {"adult": false, "backdrop_path": "/19qAk3bQZ6ulspbwhPw1A0bNpii.jpg", "genre_ids": [80, 27, 53], "id": 73861, "original_language": "sr", "original_title": "Srpski film", "overview": "Milos, a retired porn star, leads a normal family life trying to make ends meet. Presented with the opportunity of a lifetime to financially support his family for the rest of their lives, Milos must participate in one last mysterious film. From then on, Milos is drawn into a maelstrom of unbelievable cruelty and mayhem.", "poster_path": "/iB3ynCghwG63MrViBC6YyPzUIAn.jpg", "release_date": "2010-06-16", "title": "A Serbian Film", "video": false, "vote_average": 5.5, "vote_count": 898, "popularity": 15.06}, {"adult": false, "backdrop_path": "/o4psXh7IVD6GFKvBSHjHLzjL2lV.jpg", "genre_ids": [27, 53], "id": 10781, "original_language": "en", "original_title": "The Texas Chainsaw Massacre: The Beginning", "overview": "Chrissie and her friends set out on a road trip for a final fling before one is shipped off to Vietnam. Along the way, bikers harass the foursome and cause an accident that throws Chrissie from the vehicle. The lawman who arrives on the scene kills one of the bikers and brings Chrissie's friends to the Hewitt homestead, where young Leatherface is learning the tools of terror.", "poster_path": "/9elCJIG1TOJ0wew3JVx5ZMkHq5w.jpg", "release_date": "2006-10-06", "title": "The Texas Chainsaw Massacre: The Beginning", "video": false, "vote_average": 6.0, "vote_count": 935, "popularity": 18.392}, {"adult": false, "backdrop_path": "/zWGAnbxjjwY3xFGuOeR26LGbBlG.jpg", "genre_ids": [27, 53], "id": 238636, "original_language": "en", "original_title": "The Purge: Anarchy", "overview": "One night per year, the government sanctions a 12-hour period in which citizens can commit any crime they wish -- including murder -- without fear of punishment or imprisonment. Leo, a sergeant who lost his son, plans a vigilante mission of revenge during the mayhem. However, instead of a death-dealing avenger, he becomes the unexpected protector of four innocent strangers who desperately need his help if they are to survive the night.", "poster_path": "/l1DRl40x2OWUoPP42v8fjKdS1Z3.jpg", "release_date": "2014-07-17", "title": "The Purge: Anarchy", "video": false, "vote_average": 6.6, "vote_count": 4141, "popularity": 32.533}, {"adult": false, "backdrop_path": "/7pMlmyqitl0nqpEGOL3v8dEbu2K.jpg", "genre_ids": [28, 53, 27], "id": 341006, "original_language": "en", "original_title": "The Belko Experiment", "overview": "A group of eighty American workers are locked in their office and ordered by an unknown voice to participate in a twisted game.", "poster_path": "/faJK0dP3S92kQoKtO4LZMjy41kf.jpg", "release_date": "2016-03-17", "title": "The Belko Experiment", "video": false, "vote_average": 6.1, "vote_count": 852, "popularity": 11.208}, {"id": 473149, "video": false, "vote_count": 194, "vote_average": 5.9, "title": "Traffik", "release_date": "2018-04-20", "original_language": "en", "original_title": "Traffik", "genre_ids": [27, 53], "backdrop_path": "/wbk9VvJ8lkUF0ElpfRm3dFIzMJf.jpg", "adult": false, "overview": "A couple off for a romantic weekend in the mountains are accosted by a biker gang. Alone in the mountains, Brea and John must defend themselves against the gang, who will stop at nothing to protect their secrets.", "poster_path": "/e2Z466e9402RFP6wxRMfXYYiJHA.jpg", "popularity": 22.593}, {"id": 395834, "video": false, "vote_count": 2754, "vote_average": 7.4, "title": "Wind River", "release_date": "2017-08-03", "original_language": "en", "original_title": "Wind River", "genre_ids": [80, 18, 9648, 53], "backdrop_path": "/6B8e784decj9vtKuNjbl9Fes2aZ.jpg", "adult": false, "overview": "An FBI agent teams with the town's veteran game tracker to investigate a murder that occurred on a Native American reservation.", "poster_path": "/pySivdR845Hom4u4T2WNkJxe6Ad.jpg", "popularity": 21.415}, {"adult": false, "backdrop_path": "/nESF8Tw4BYnDy8PUDkF5SLIlzTJ.jpg", "genre_ids": [27, 53, 878], "id": 170, "original_language": "en", "original_title": "28 Days Later", "overview": "Twenty-eight days after a killer virus was accidentally unleashed from a British research facility, a small group of London survivors are caught in a desperate struggle to protect themselves from the infected. Carried by animals and humans, the virus turns those it infects into homicidal maniacs -- and it's absolutely impossible to contain.", "poster_path": "/xaYdxi1PBEAYvqknvAmMPK5Eff3.jpg", "release_date": "2002-10-31", "title": "28 Days Later", "video": false, "vote_average": 7.2, "vote_count": 3664, "popularity": 21.73}, {"id": 11033, "video": false, "vote_count": 358, "vote_average": 6.8, "title": "Dressed to Kill", "release_date": "1980-07-25", "original_language": "en", "original_title": "Dressed to Kill", "genre_ids": [27, 9648, 53], "backdrop_path": "/mtGByKUtyLVWXl8OjWFOicLHsFo.jpg", "adult": false, "overview": "A mysterious, tall, blonde woman wearing sunglasses murders one of a psychiatrist's patients, and now she's after the prostitute who witnessed it.", "poster_path": "/b9RHUexTE6MT5x6iZ2Wmq56H1cJ.jpg", "popularity": 16.237}, {"id": 241, "video": false, "vote_count": 1844, "vote_average": 7.1, "title": "Natural Born Killers", "release_date": "1994-08-25", "original_language": "en", "original_title": "Natural Born Killers", "genre_ids": [80, 18, 53], "backdrop_path": "/l6pleT9BWjOOcFzpL2G1j5ApBTr.jpg", "adult": false, "overview": "Two victims of traumatized childhoods become lovers and psychopathic serial murderers irresponsibly glorified by the mass media.", "poster_path": "/w5sruoTQ87PFAGRJQyyaCOM1C4A.jpg", "popularity": 22.416}, {"adult": false, "backdrop_path": "/ipEenLpAyNJZUrzQHBw3fdurcm0.jpg", "genre_ids": [28, 878], "id": 10017, "original_language": "en", "original_title": "The Wraith", "overview": "Packard Walsh and his motorized gang control and terrorize an Arizona desert town where they force drivers to drag-race so they can 'win' their vehicles. After Walsh beats the decent teenager Jamie Hankins to death after finding him with his girlfriend, a mysterious power creates Jake Kesey, an extremely cool motor-biker who has a car which is invincible. Jake befriends Jamie's girlfriend Keri Johnson, takes Jamie's sweet brother Bill under his wing and manages what Sheriff Loomis couldn't; eliminate Packard's criminal gang the hard way...", "poster_path": "/agKajLCLtUNR5KH6lvmeg9LT1gD.jpg", "release_date": "1986-11-21", "title": "The Wraith", "video": false, "vote_average": 6.0, "vote_count": 178, "popularity": 14.894}, {"id": 12201, "video": false, "vote_count": 882, "vote_average": 6.3, "title": "Edge of Darkness", "release_date": "2010-01-28", "original_language": "en", "original_title": "Edge of Darkness", "genre_ids": [80, 18, 9648, 53], "backdrop_path": "/ksxr95M6fh2f2zgIlgGDDyfgOhC.jpg", "adult": false, "overview": "As a seasoned homicide detective, Thomas Craven has seen the bleakest side of humanity. But nothing prepares him for the toughest investigation of his life: the search for his only daughter Emma's killer. Now, he is on a personal mission to uncover the disturbing secrets surrounding her murder, including corporate corruption, government collusion and Emma's own mysterious life.", "poster_path": "/pvHjp1vEFmp5FquSCPQ2O95tIZJ.jpg", "popularity": 10.684}, {"adult": false, "backdrop_path": "/sDSwD63e0qfNE1YvH8aczFoSGTt.jpg", "genre_ids": [80, 18, 53], "id": 11826, "original_language": "en", "original_title": "Sexy Beast", "overview": "The idyllic life of retired safecracker Gal is put at risk when a psychotic gangster from his past arrives at his villa in southern Spain, intent on bringing him out of retirement for one last job.", "poster_path": "/rpo9njGpJVLPqRrdM6R7wIqiQ7K.jpg", "release_date": "2001-01-12", "title": "Sexy Beast", "video": false, "vote_average": 7.0, "vote_count": 391, "popularity": 10.199}], "total_pages": 470, "total_results": 9394}, "recommendations": {"page": 1, "results": [], "total_pages": 1, "total_results": 0}, "credits": {"cast": [{"cast_id": 1, "character": "Luke Roberts", "credit_id": "52fe44fd9251416c91023c87", "gender": 2, "id": 63169, "name": "Cory Knauf", "order": 0, "profile_path": "/ds36bNL7Yq27OBJREC5k9DTPZ5F.jpg"}, {"cast_id": 2, "character": "Mitch", "credit_id": "52fe44fd9251416c91023c8b", "gender": 2, "id": 21523, "name": "Ed Lauter", "order": 1, "profile_path": "/3mlQucZnEpYA1R8LxxKepsd7JpO.jpg"}, {"cast_id": 3, "character": "Sarah Roberts", "credit_id": "52fe44fd9251416c91023c8f", "gender": 1, "id": 105844, "name": "Courtney Halverson", "order": 2, "profile_path": "/4KT1MHAUNbqpO3eezEpCyLs4AMd.jpg"}, {"cast_id": 4, "character": "Rebecca Shepard", "credit_id": "52fe44fd9251416c91023c93", "gender": 1, "id": 207546, "name": "Jessie Ward", "order": 3, "profile_path": "/zI0UFPwrxY6DlmQpcDgqCSkZxog.jpg"}, {"cast_id": 26, "character": "Charlie Shepard", "credit_id": "52fe44fd9251416c91023d15", "gender": 2, "id": 65833, "name": "Joseph McKelheer", "order": 4, "profile_path": "/jFlXi4THkj0feUiRHdjPHEIULxK.jpg"}, {"cast_id": 27, "character": "Tim", "credit_id": "52fe44fd9251416c91023d19", "gender": 0, "id": 114599, "name": "Hallock Beals", "order": 5, "profile_path": "/cp8qmpaKnm6wHmWEgLqwJruIn3c.jpg"}, {"cast_id": 28, "character": "Belle", "credit_id": "52fe44fd9251416c91023d1d", "gender": 1, "id": 549831, "name": "Lynn Adrianna", "order": 6, "profile_path": "/1p5K0J4SEnGoD9haqk0KqLxL5S1.jpg"}, {"cast_id": 29, "character": "James Shepard", "credit_id": "52fe44fd9251416c91023d21", "gender": 0, "id": 590066, "name": "Ben Loosli", "order": 7, "profile_path": null}, {"cast_id": 30, "character": "Oscar", "credit_id": "52fe44fe9251416c91023d25", "gender": 0, "id": 590067, "name": "Ron Holmstrom", "order": 8, "profile_path": null}, {"cast_id": 31, "character": "Lorelei", "credit_id": "52fe44fe9251416c91023d29", "gender": 0, "id": 590068, "name": "June Eck", "order": 9, "profile_path": null}, {"cast_id": 32, "character": "Lorelei's Husband", "credit_id": "52fe44fe9251416c91023d2d", "gender": 0, "id": 590069, "name": "Bob Pond", "order": 10, "profile_path": null}, {"cast_id": 33, "character": "Mr. Sykes", "credit_id": "52fe44fe9251416c91023d31", "gender": 0, "id": 590070, "name": "Frank Loosli", "order": 11, "profile_path": null}, {"cast_id": 34, "character": "Diner Waitress", "credit_id": "52fe44fe9251416c91023d35", "gender": 0, "id": 590071, "name": "Wendy Young", "order": 12, "profile_path": null}, {"cast_id": 35, "character": "Davey Iverson", "credit_id": "52fe44fe9251416c91023d39", "gender": 0, "id": 590072, "name": "Trygg Ramstad", "order": 13, "profile_path": null}, {"cast_id": 36, "character": "Kid In Field", "credit_id": "52fe44fe9251416c91023d3d", "gender": 0, "id": 590073, "name": "Jacob Moore", "order": 14, "profile_path": null}], "crew": [{"credit_id": "52fe44fd9251416c91023c99", "department": "Directing", "gender": 0, "id": 590054, "job": "Director", "name": "Robert Saitzyk", "profile_path": null}, {"credit_id": "52fe44fd9251416c91023c9f", "department": "Writing", "gender": 2, "id": 63169, "job": "Writer", "name": "Cory Knauf", "profile_path": "/ds36bNL7Yq27OBJREC5k9DTPZ5F.jpg"}, {"credit_id": "52fe44fd9251416c91023ca5", "department": "Writing", "gender": 2, "id": 65833, "job": "Writer", "name": "Joseph McKelheer", "profile_path": "/jFlXi4THkj0feUiRHdjPHEIULxK.jpg"}, {"credit_id": "52fe44fd9251416c91023cab", "department": "Writing", "gender": 2, "id": 63169, "job": "Screenplay", "name": "Cory Knauf", "profile_path": "/ds36bNL7Yq27OBJREC5k9DTPZ5F.jpg"}, {"credit_id": "52fe44fd9251416c91023cb1", "department": "Writing", "gender": 0, "id": 590054, "job": "Screenplay", "name": "Robert Saitzyk", "profile_path": null}, {"credit_id": "52fe44fd9251416c91023cb7", "department": "Sound", "gender": 0, "id": 590055, "job": "Original Music Composer", "name": "Jeremy Grody", "profile_path": null}, {"credit_id": "52fe44fd9251416c91023cbd", "department": "Sound", "gender": 2, "id": 103693, "job": "Original Music Composer", "name": "Justin Melland", "profile_path": null}, {"credit_id": "52fe44fd9251416c91023cc3", "department": "Crew", "gender": 0, "id": 138778, "job": "Cinematography", "name": "Michael Hardwick", "profile_path": null}, {"credit_id": "52fe44fd9251416c91023cc9", "department": "Editing", "gender": 0, "id": 590054, "job": "Editor", "name": "Robert Saitzyk", "profile_path": null}, {"credit_id": "52fe44fd9251416c91023ccf", "department": "Production", "gender": 0, "id": 590056, "job": "Casting", "name": "Danielle Lenniger", "profile_path": null}, {"credit_id": "52fe44fd9251416c91023cd5", "department": "Production", "gender": 0, "id": 76053, "job": "Casting", "name": "Joe Lorenzo", "profile_path": null}, {"credit_id": "52fe44fd9251416c91023cdb", "department": "Art", "gender": 0, "id": 590057, "job": "Set Decoration", "name": "G. Naomi Meeder", "profile_path": null}, {"credit_id": "52fe44fd9251416c91023ce1", "department": "Costume & Make-Up", "gender": 0, "id": 590058, "job": "Costume Design", "name": "Alexis Beck", "profile_path": null}, {"credit_id": "52fe44fd9251416c91023ce7", "department": "Costume & Make-Up", "gender": 0, "id": 590059, "job": "Hair Setup", "name": "Melanie Camargo", "profile_path": null}, {"credit_id": "52fe44fd9251416c91023ced", "department": "Costume & Make-Up", "gender": 0, "id": 590060, "job": "Makeup Artist", "name": "Danielle Gillard", "profile_path": null}, {"credit_id": "52fe44fd9251416c91023cf3", "department": "Costume & Make-Up", "gender": 0, "id": 590061, "job": "Makeup Artist", "name": "Kathy Preheim", "profile_path": null}, {"credit_id": "52fe44fd9251416c91023cf9", "department": "Production", "gender": 0, "id": 590062, "job": "Production Manager", "name": "Josh Dixon", "profile_path": null}, {"credit_id": "52fe44fd9251416c91023cff", "department": "Crew", "gender": 0, "id": 590063, "job": "Second Unit", "name": "JR Foster", "profile_path": null}, {"credit_id": "52fe44fd9251416c91023d05", "department": "Art", "gender": 0, "id": 590064, "job": "Art Direction", "name": "Joel Loosli", "profile_path": null}, {"credit_id": "52fe44fd9251416c91023d0b", "department": "Sound", "gender": 1, "id": 590065, "job": "Foley", "name": "Marissa Linn Carus", "profile_path": null}, {"credit_id": "52fe44fd9251416c91023d11", "department": "Sound", "gender": 0, "id": 227553, "job": "Sound Designer", "name": "Geoff Green", "profile_path": null}]}}