{"adult": false, "backdrop_path": "/89sehLT0REFNufGMGJdfHxVV6Yk.jpg", "belongs_to_collection": null, "budget": 0, "genres": [{"id": 37, "name": "Western"}], "homepage": null, "id": 331773, "imdb_id": "tt0127038", "original_language": "en", "original_title": "Mustang!", "overview": "With a simple plot and not much else, this undistinguished western is about Gabe (Jack Beutel), a rodeo name whose penchant for gambling causes him to lose all the money he made and quickly look for a steady job. Gabe ends up on a ranch plugging away as a cowhand but cannot escape his affinity for horses. Lou (Steve Keyes) and his sister Nancy (Madalyn Trahey) own the ranch and Lou comes into conflict with Gabe when he decides to kill a wild Palomino. Gabe will not allow it because he knows the stallion can be tamed. Environmentalists and others should enjoy the bloopers which put moose in Oklahoma, a raccoon in the 'possum family, and several animals in the wrong proximity.", "popularity": 1.4, "poster_path": "/bsc3rHFnE7Fr3xhg0p84JOdyL2v.jpg", "production_companies": [{"id": 60, "logo_path": "/oJXpAs4I3W46e4dkaOEzCa4yBko.png", "name": "United Artists", "origin_country": "US"}, {"id": 91701, "logo_path": null, "name": "Eronel Productions", "origin_country": ""}], "production_countries": [{"iso_3166_1": "US", "name": "United States of America"}], "release_date": "1959-03-14", "revenue": 0, "runtime": 73, "spoken_languages": [{"iso_639_1": "en", "name": "English"}], "status": "Released", "tagline": "No Man...Or Woman...In The West Could Break Him!", "title": "Mustang!", "video": false, "vote_average": 0.0, "vote_count": 0, "keywords": {"keywords": [{"id": 2673, "name": "horse"}, {"id": 2752, "name": "ranch"}]}, "similar": {"page": 1, "results": [{"id": 2023, "video": false, "vote_count": 613, "vote_average": 6.6, "title": "Hidalgo", "release_date": "2004-02-04", "original_language": "en", "original_title": "Hidalgo", "genre_ids": [28, 12, 37], "backdrop_path": "/1tH9AnFjBFemdowMfDrnnhY8Y1z.jpg", "adult": false, "overview": "Set in 1890, this is the story of a Pony Express courier who travels to Arabia to compete with his horse, Hidalgo, in a dangerous race for a massive contest prize, in an adventure that sends the pair around the world...", "poster_path": "/5BiWWo12FnSFTatD8dfMpoF7bVs.jpg", "popularity": 19.079}, {"id": 4464, "video": false, "vote_count": 458, "vote_average": 7.0, "title": "Seabiscuit", "release_date": "2003-07-22", "original_language": "en", "original_title": "Seabiscuit", "genre_ids": [18, 36], "backdrop_path": "/z7qXjCwD2q0nF5TWTkUuuEDsuXJ.jpg", "adult": false, "overview": "True story of the undersized Depression-era racehorse whose victories lifted not only the spirits of the team behind it but also those of their nation.", "poster_path": "/xzYOaFGZBNAciQXRasQQ8sYxBSi.jpg", "popularity": 11.359}, {"id": 12501, "video": false, "vote_count": 136, "vote_average": 7.8, "title": "The Big Country", "release_date": "1958-09-30", "original_language": "en", "original_title": "The Big Country", "genre_ids": [18, 37, 10749], "backdrop_path": "/ycf2cv0gEH0t3XmY0bD6AA8bpWV.jpg", "adult": false, "overview": "Retired wealthy sea captain Jim McKay arrives in the vast expanse of the West to marry fianc\u00e9e Pat Terrill. McKay is a man whose values and approach to life are a mystery to the ranchers and ranch foreman Steve Leech takes an immediate dislike to him. Pat is spoiled, selfish and controlled by her wealthy father, Major Henry Terrill. The Major is involved in a ruthless civil war, over watering rights for cattle, with a rough hewn clan led by Rufus Hannassey. The land in question is owned by Julie Maragon and both Terrill and Hannassey want it.", "poster_path": "/udSibhOkN5dT4NZy9oN9EGprAmZ.jpg", "popularity": 15.848}, {"id": 966, "video": false, "vote_count": 921, "vote_average": 7.6, "title": "The Magnificent Seven", "release_date": "1960-10-22", "original_language": "en", "original_title": "The Magnificent Seven", "genre_ids": [37], "backdrop_path": "/oRSocDAAADYnCkI4jiUeRnlCnwG.jpg", "adult": false, "overview": "An oppressed Mexican peasant village hires seven gunfighters to help defend their homes.", "poster_path": "/7w3JmmyL8GpBvW6BusQfQCSm2h0.jpg", "popularity": 16.213}, {"adult": false, "backdrop_path": "/9SudvdR6HYtgTqMz17RYXdWuTUl.jpg", "genre_ids": [12, 28, 53], "id": 707, "original_language": "en", "original_title": "A View to a Kill", "overview": "A newly developed microchip designed by Zorin Industries for the British Government that can survive the electromagnetic radiation caused by a nuclear explosion has landed in the hands of the KGB. James Bond must find out how and why. His suspicions soon lead him to big industry leader Max Zorin.", "poster_path": "/veDMW7eX6tat86EapsvGEICJ8Tq.jpg", "release_date": "1985-05-24", "title": "A View to a Kill", "video": false, "vote_average": 6.2, "vote_count": 957, "popularity": 24.223}, {"id": 11072, "video": false, "vote_count": 1036, "vote_average": 7.3, "title": "Blazing Saddles", "release_date": "1974-02-07", "original_language": "en", "original_title": "Blazing Saddles", "genre_ids": [35, 37], "backdrop_path": "/tCitxLKMzCxexGlSg4g4IDVC3RM.jpg", "adult": false, "overview": "A town\u2014where everyone seems to be named Johnson\u2014stands in the way of the railroad. In order to grab their land, robber baron Hedley Lemar sends his henchmen to make life in the town unbearable. After the sheriff is killed, the town demands a new sheriff from the Governor, so Hedley convinces him to send the town the first black sheriff in the west.", "poster_path": "/yccgwPNVaqtgS1d0U5jjM6Mnza8.jpg", "popularity": 16.616}, {"id": 223485, "video": false, "vote_count": 586, "vote_average": 6.6, "title": "Slow West", "release_date": "2015-04-16", "original_language": "en", "original_title": "Slow West", "genre_ids": [28, 18, 53, 37, 10749], "backdrop_path": "/9qF6lhj6X0ImH4iWGZs1uspXJI0.jpg", "adult": false, "overview": "In the Old West, a 17-year-old Scottish boy teams up with a mysterious gunman to find the woman with whom he is infatuated.", "poster_path": "/uZ9dBBn0GaEw0YIBvQd01Io3pho.jpg", "popularity": 10.467}, {"adult": false, "backdrop_path": "/90kmxuSwU28dVy1ghVSHI4x1wb8.jpg", "genre_ids": [35, 18, 37], "id": 537996, "original_language": "en", "original_title": "The Ballad of Buster Scruggs", "overview": "Vignettes weaving together the stories of six individuals in the old West at the end of the Civil War. Following the tales of a sharp-shooting songster, a wannabe bank robber, two weary traveling performers, a lone gold prospector, a woman traveling the West to an uncertain future, and a motley crew of strangers undertaking a carriage ride.", "poster_path": "/voxl654m7p36y8FLu8oQD7dfwwK.jpg", "release_date": "2018-11-09", "title": "The Ballad of Buster Scruggs", "video": false, "vote_average": 7.2, "vote_count": 2072, "popularity": 15.524}, {"adult": false, "backdrop_path": "/4BMel8xxSed1pCkPSGc9R3jsUtC.jpg", "genre_ids": [18, 10749], "id": 142, "original_language": "en", "original_title": "Brokeback Mountain", "overview": "Two modern-day cowboys meet on a shepherding job in the summer of '63, the two share a raw and powerful summer together that turns into a lifelong relationship conflicting with the lives they are supposed to live.", "poster_path": "/z2DqVxj17aW6xpimRlCLfhKSfUm.jpg", "release_date": "2005-09-10", "title": "Brokeback Mountain", "video": false, "vote_average": 7.8, "vote_count": 3790, "popularity": 20.344}, {"adult": false, "backdrop_path": "/77ElMccPnTMPouRxSdbJ4nEjf69.jpg", "genre_ids": [35, 80], "id": 115, "original_language": "en", "original_title": "The Big Lebowski", "overview": "Jeffrey \"The Dude\" Lebowski, a Los Angeles slacker who only wants to bowl and drink White Russians, is mistaken for another Jeffrey Lebowski, a wheelchair-bound millionaire, and finds himself dragged into a strange series of events involving nihilists, adult film producers, ferrets, errant toes, and large sums of money.", "poster_path": "/qiE3ovg9TPylHReZjizQ40LsKZV.jpg", "release_date": "1998-03-06", "title": "The Big Lebowski", "video": false, "vote_average": 7.9, "vote_count": 6432, "popularity": 23.538}, {"id": 57212, "video": false, "vote_count": 2067, "vote_average": 7.2, "title": "War Horse", "release_date": "2011-12-25", "original_language": "en", "original_title": "War Horse", "genre_ids": [28, 18, 10752], "backdrop_path": "/iO4fslQ9CenAOcg3JfhN6o9va2.jpg", "adult": false, "overview": "Follows a young man named Albert and his horse, Joey, and how their bond is broken when Joey is sold to the cavalry and sent to the trenches of World War One. Despite being too young to enlist, Albert heads to France to save his friend.", "poster_path": "/6wMoQyJddEiLCzLUHiX7LNWhDol.jpg", "popularity": 12.763}, {"adult": false, "backdrop_path": "/sG3Du3Ha6rGeSzFfXme1nh8S2Jl.jpg", "genre_ids": [18, 10751, 14, 12], "id": 34584, "original_language": "en", "original_title": "Die unendliche Geschichte", "overview": "While hiding from bullies in his school's attic, a young boy discovers the extraordinary land of Fantasia, through a magical book called The Neverending Story. The book tells the tale of Atreyu, a young warrior who, with the help of a luck dragon named Falkor, must save Fantasia from the destruction of The Nothing.", "poster_path": "/ddYCa91iDXfJCxaqSYzwi2fjfnl.jpg", "release_date": "1984-04-05", "title": "The NeverEnding Story", "video": false, "vote_average": 7.1, "vote_count": 2201, "popularity": 19.789}, {"adult": false, "backdrop_path": "/kQOLgJGvFjQ7EwGfaPkW9dlGFXJ.jpg", "genre_ids": [27, 9648], "id": 565, "original_language": "en", "original_title": "The Ring", "overview": "It sounded like just another urban legend: A videotape filled with nightmarish images, leading to a phone call foretelling the viewer's death in exactly seven days. As a newspaper reporter, Rachel Keller was naturally skeptical of the story, until four teenagers all met with mysterious deaths exactly one week after watching just such a tape. Allowing her investigative curiosity to get the better of her, Rachel tracks down the video... and watches it. Now she has just seven days to unravel the mystery of the Ring.", "poster_path": "/zHJFdhqEXZJxG653oZvOM3PmNON.jpg", "release_date": "2002-10-18", "title": "The Ring", "video": false, "vote_average": 6.6, "vote_count": 3616, "popularity": 12.821}, {"adult": false, "backdrop_path": "/3uwyXMZN93PRkShUxvLrufwVAc2.jpg", "genre_ids": [80, 18, 27, 9648, 53], "id": 452507, "original_language": "en", "original_title": "1922", "overview": "A simple yet proud rancher conspires to murder his wife for financial gain, convincing his teenage son to participate.", "poster_path": "/q4FQOiSRhTLWulHl5Vpg37FMArH.jpg", "release_date": "2017-10-20", "title": "1922", "video": false, "vote_average": 5.9, "vote_count": 1489, "popularity": 10.541}, {"id": 38757, "video": false, "vote_count": 7117, "vote_average": 7.5, "title": "Tangled", "release_date": "2010-11-24", "original_language": "en", "original_title": "Tangled", "genre_ids": [16, 10751], "backdrop_path": "/uFg02Gt69UM6Ouam4slMdD0s029.jpg", "adult": false, "overview": "When the kingdom's most wanted-and most charming-bandit Flynn Rider hides out in a mysterious tower, he's taken hostage by Rapunzel, a beautiful and feisty tower-bound teen with 70 feet of magical, golden hair. Flynn's curious captor, who's looking for her ticket out of the tower where she's been locked away for years, strikes a deal with the handsome thief and the unlikely duo sets off on an action-packed escapade, complete with a super-cop horse, an over-protective chameleon and a gruff gang of pub thugs.", "poster_path": "/re6AOJbhBk9FIK3knwU6rYlbPDx.jpg", "popularity": 30.508}, {"id": 301528, "video": false, "vote_count": 3479, "vote_average": 7.6, "title": "Toy Story 4", "release_date": "2019-06-19", "original_language": "en", "original_title": "Toy Story 4", "genre_ids": [12, 16, 35, 14, 10751], "backdrop_path": "/m67smI1IIMmYzCl9axvKNULVKLr.jpg", "adult": false, "overview": "Woody has always been confident about his place in the world and that his priority is taking care of his kid, whether that's Andy or Bonnie. But when Bonnie adds a reluctant new toy called \"Forky\" to her room, a road trip adventure alongside old and new friends will show Woody how big the world can be for a toy.", "poster_path": "/w9kR8qbmQ01HwnvK4alvnQ2ca0L.jpg", "popularity": 49.969}, {"id": 947, "video": false, "vote_count": 1588, "vote_average": 8.0, "title": "Lawrence of Arabia", "release_date": "1962-12-10", "original_language": "en", "original_title": "Lawrence of Arabia", "genre_ids": [12, 18, 36, 10752], "backdrop_path": "/lENerYvUcfl9GlolqA1emj5gb4k.jpg", "adult": false, "overview": "The story of British officer T.E. Lawrence's mission to aid the Arab tribes in their revolt against the Ottoman Empire during the First World War. Lawrence becomes a flamboyant, messianic figure in the cause of Arab unity but his psychological instability threatens to undermine his achievements.", "poster_path": "/j21UXCOq0EbV8EPTtmPn1CGePfB.jpg", "popularity": 17.37}, {"id": 9277, "video": false, "vote_count": 1262, "vote_average": 8.1, "title": "The Sting", "release_date": "1973-12-25", "original_language": "en", "original_title": "The Sting", "genre_ids": [35, 80, 18], "backdrop_path": "/qdTTCAt35taHlFeeKZwBXLuJ5z7.jpg", "adult": false, "overview": "Set in the 1930s this intricate caper deals with an ambitious small-time crook and a veteran con man who seek revenge on a vicious crime lord who murdered one of their gang.", "poster_path": "/mQaM8fDQdFWwCTFp0TZG8fChlZ5.jpg", "popularity": 17.896}, {"adult": false, "backdrop_path": "/xXJ48xbBA2xT8HxNSEz9SpCkSeV.jpg", "genre_ids": [18, 10751], "id": 17641, "original_language": "en", "original_title": "National Velvet", "overview": "Mi Taylor was a young wanderer and opportunist whose father had given him \"all the roads in the Kingdom\" to travel. One of the roads, and a notation in his father's journal, leads him to the quiet English country-side home of the Brown family. The youngest daughter, Velvet, has a passion for horses and when she wins the spirited steed Pie in a town lottery, Mi is encouraged to train the horse...", "poster_path": "/x2uvh9AFTRdyD0FOJ1dDlerPjtA.jpg", "release_date": "1944-12-21", "title": "National Velvet", "video": false, "vote_average": 7.2, "vote_count": 50, "popularity": 6.34}, {"id": 455842, "video": false, "vote_count": 18, "vote_average": 5.7, "title": "Elliot: The Littlest Reindeer", "release_date": "2018-11-08", "original_language": "en", "original_title": "Elliot: The Littlest Reindeer", "genre_ids": [12, 16, 10751], "backdrop_path": "/2Djp1gHsUsbf2YpvyoihXecGXPi.jpg", "adult": false, "overview": "When Blitzen announces his retirement on December 21st, a miniature horse has 3 days to fulfill his lifelong dream of earning a spot on Santa's team at the North Pole try-outs.", "poster_path": "/sYq809WTep01HO5oJR9o9VbEDJv.jpg", "popularity": 9.317}], "total_pages": 42, "total_results": 826}, "recommendations": {"page": 1, "results": [], "total_pages": 1, "total_results": 0}, "credits": {"cast": [{"cast_id": 1, "character": "Gabe (as Jack Beutel)", "credit_id": "550c705c9251413554001bbe", "gender": 2, "id": 89018, "name": "Jack Buetel", "order": 1, "profile_path": "/2Y0EAnrol1pbqp1iid3nZbtvm96.jpg"}, {"cast_id": 4, "character": "Nancy", "credit_id": "594eb073c3a368327903b1f3", "gender": 0, "id": 1573059, "name": "Madalyn Trahey", "order": 2, "profile_path": "/oTuenqx5OSqtTK9jlCB6Hor7vu2.jpg"}, {"cast_id": 5, "character": "Lou, Ranch Hand (as Steve Keyes)", "credit_id": "594eb07e925141311103c1cc", "gender": 0, "id": 1096506, "name": "Stephen Keyes", "order": 3, "profile_path": null}, {"cast_id": 6, "character": "Ranch Owner", "credit_id": "594eb08bc3a36832650414d4", "gender": 0, "id": 1838474, "name": "Milt Swift", "order": 4, "profile_path": null}, {"cast_id": 7, "character": "Cowhand (as Robert Gilbert)", "credit_id": "594eb0b1c3a368323203923a", "gender": 0, "id": 1838475, "name": "Bob Gilbert", "order": 5, "profile_path": null}, {"cast_id": 8, "character": "Cowhand", "credit_id": "594eb0bdc3a36832bd03b096", "gender": 0, "id": 1838476, "name": "Paul Spahn", "order": 6, "profile_path": null}, {"cast_id": 9, "character": "Ranch Hand", "credit_id": "594eb0cbc3a36832ad03afb4", "gender": 0, "id": 1838477, "name": "Max M. Gilford", "order": 7, "profile_path": null}], "crew": [{"credit_id": "550c704cc3a3684883004131", "department": "Directing", "gender": 0, "id": 1230479, "job": "Director", "name": "Peter Stephens", "profile_path": null}, {"credit_id": "594eb05b925141311503c994", "department": "Writing", "gender": 0, "id": 1087336, "job": "Novel", "name": "Rutherford Montgomery", "profile_path": null}, {"credit_id": "594eb065c3a36832bd03b044", "department": "Writing", "gender": 2, "id": 18592, "job": "Screenplay", "name": "Tom Gries", "profile_path": "/fkwSgh2sEXKMO6okOltFc4CacTH.jpg"}]}}