{"adult": false, "backdrop_path": "/vaJlXW6Cpjil7R9XYeOxmPB5UAv.jpg", "belongs_to_collection": null, "budget": 0, "genres": [{"id": 18, "name": "Drama"}], "homepage": "", "id": 33194, "imdb_id": "tt0115005", "original_language": "zh", "original_title": "\u5929\u6d74", "overview": "Young teen girl Xiu Xiu is sent away to a remote corner of the Sichuan steppes for manual labor in 1975 (sending young people to there was a part of Cultural Revolution in China). A year later, she agrees to go to even more remote spot with a Tibetan saddle tramp Lao Jin to learn horse herding.", "popularity": 4.5, "poster_path": "/3GJSqKjTghBi4bacFXtY0lotFbf.jpg", "production_companies": [], "production_countries": [{"iso_3166_1": "CN", "name": "China"}, {"iso_3166_1": "HK", "name": "Hong Kong"}, {"iso_3166_1": "US", "name": "United States of America"}, {"iso_3166_1": "TW", "name": "Taiwan"}], "release_date": "1998-02-19", "revenue": 0, "runtime": 99, "spoken_languages": [{"iso_639_1": "zh", "name": "\u666e\u901a\u8bdd"}], "status": "Released", "tagline": "", "title": "Xiu Xiu: The Sent-Down Girl", "video": false, "vote_average": 7.3, "vote_count": 12, "keywords": {"keywords": [{"id": 570, "name": "rape"}, {"id": 187056, "name": "woman director"}]}, "similar": {"page": 1, "results": [{"adult": false, "backdrop_path": "/cADbqsIoiDW7X3Myg9nz8eAuno5.jpg", "genre_ids": [18, 10749], "id": 10818, "original_language": "fr", "original_title": "Naissance des pieuvres", "overview": "Set during a sultry summer in a French suburb, Marie is desperate to join the local pool's synchronized swimming team, but is her interest solely for the sake of sport or for a chance to get close to Floriane, the bad girl of the team? Sciamma, and the two leads, capture the uncertainty of teenage sexuality with a sympathetic eye in this delicate drama of the angst of coming-of-age.", "poster_path": "/4jajELYrR4Xmv3CVoKnukRnALa2.jpg", "release_date": "2007-05-17", "title": "Water Lilies", "video": false, "vote_average": 6.1, "vote_count": 119, "popularity": 10.744}, {"adult": false, "backdrop_path": "/gZeJziVigmRqbkEZwKAtSqlLQ6s.jpg", "genre_ids": [18, 10749], "id": 370663, "original_language": "en", "original_title": "Below Her Mouth", "overview": "An unexpected affair quickly escalates into a heart-stopping reality for two women whose passionate connection changes their lives forever.", "poster_path": "/nTGbq37hYLuNy7YgMg0gVLma0NS.jpg", "release_date": "2016-09-10", "title": "Below Her Mouth", "video": false, "vote_average": 6.2, "vote_count": 456, "popularity": 22.676}, {"adult": false, "backdrop_path": "/dvQDRfv3qvfHNnVAR57ouVsuErf.jpg", "genre_ids": [10749, 18], "id": 28031, "original_language": "en", "original_title": "If These Walls Could Talk 2", "overview": "The stories of three lesbian couples -- who live in the same house at different periods of time -- who are at a crossroads in their lives. In 1961, Edith loses her lover, Abby, to a stroke. Linda and Amy struggle with feminist issues in 1972. And, in 2000, Kal and Fran try to have a baby with the help of sperm donor.", "poster_path": "/xs7ODbmYQXCDhvXNvz5tF17T59H.jpg", "release_date": "2000-03-05", "title": "If These Walls Could Talk 2", "video": false, "vote_average": 7.1, "vote_count": 55, "popularity": 8.062}, {"adult": false, "backdrop_path": "/fZ8oFcREAr6wgWcXISGql0xyxjB.jpg", "genre_ids": [35, 18], "id": 39781, "original_language": "en", "original_title": "The Kids Are All Right", "overview": "Two women, Nic and Jules, brought a son and daughter into the world through artificial insemination. When one of their children reaches age, both kids go behind their mothers' backs to meet with the donor. Life becomes so much more interesting when the father, two mothers and children start to become attached to each other.", "poster_path": "/fPDeK4MmoGfi2X0oWZev7LrbMqM.jpg", "release_date": "2010-07-09", "title": "The Kids Are All Right", "video": false, "vote_average": 6.6, "vote_count": 923, "popularity": 12.703}, {"adult": false, "backdrop_path": "/rf6G51j0SZL0tP57I8gnqHTRFEr.jpg", "genre_ids": [35, 18, 10749], "id": 273153, "original_language": "fr", "original_title": "La belle saison", "overview": "In 1971, Carole and Delphine meet and fall in love in Paris. When Carole follows Delphine back to her family farm in Limousin, the two find lesbianism and feminism are not as easy in the countryside.", "poster_path": "/evvAkNMO5VJiy5qIo1Hu7fUfvVI.jpg", "release_date": "2015-08-19", "title": "Summertime", "video": false, "vote_average": 6.6, "vote_count": 162, "popularity": 15.434}, {"adult": false, "backdrop_path": "/s12HEmmkJfI2mjltI61hGm5kubD.jpg", "genre_ids": [35, 18, 10749], "id": 20770, "original_language": "en", "original_title": "But I'm a Cheerleader", "overview": "Megan is an all-American girl. A cheerleader. She has a boyfriend. But Megan doesn't like kissing her boyfriend very much. And she's pretty touchy with her cheerleader friends. Her conservative parents worry that she must be a lesbian and send her off to \"sexual redirection\" school, where she must, with other lesbians and gays learn how to be straight.", "poster_path": "/eDGH7CHSdkrYcuUJV1e0WS9DlQL.jpg", "release_date": "1999-12-09", "title": "But I'm a Cheerleader", "video": false, "vote_average": 6.8, "vote_count": 246, "popularity": 10.067}, {"adult": false, "backdrop_path": "/tzqeuHWMFihFbiLGHdalPgAcSf6.jpg", "genre_ids": [18, 10749], "id": 18620, "original_language": "en", "original_title": "Go Fish", "overview": "Max is a trendy, pretty, young lesbian, who is having trouble finding love. A friend sets her up with Ely, whom Max likes, but Ely is frumpy, homely, and older. Nor do they have much in common. Can Max learn to look past the packaging?", "poster_path": "/qrEFYrwykaGsY8NULYuYLLI7zrM.jpg", "release_date": "1994-06-10", "title": "Go Fish", "video": false, "vote_average": 5.0, "vote_count": 11, "popularity": 2.626}, {"adult": false, "backdrop_path": "/6tern9vOEwwmkDYC1vRCuO64z0C.jpg", "genre_ids": [10749, 18], "id": 475888, "original_language": "en", "original_title": "Tell It to the Bees", "overview": "Dr. Jean Markham returns to the town she left as a teenager to take over her late father's medical practice. When a school-yard scuffle lands Charlie in her surgery, she invites him to visit the hives in her garden and tell his secrets to the bees, as she once did. The new friendship between the boy and the bee keeper brings his mother Lydia into Jean's world.", "poster_path": "/Rj6zpHhMU1zFW3v28U4PSRSRgP.jpg", "release_date": "2019-05-03", "title": "Tell It to the Bees", "video": false, "vote_average": 6.4, "vote_count": 53, "popularity": 15.113}, {"adult": false, "backdrop_path": "/knczzNAjBXzSYkeWxoT1u9VNmjR.jpg", "genre_ids": [10749, 18], "id": 258480, "original_language": "en", "original_title": "Carol", "overview": "In 1950s New York, a department-store clerk who dreams of a better life falls for an older, married woman.", "poster_path": "/AbKa7ANxmui0Jmhh7gV7OSELKIL.jpg", "release_date": "2015-11-20", "title": "Carol", "video": false, "vote_average": 7.4, "vote_count": 2182, "popularity": 14.185}, {"adult": false, "backdrop_path": "/baYbbMtKRDoDWYJeVWkbygAvAj8.jpg", "genre_ids": [18, 10749], "id": 31216, "original_language": "en", "original_title": "I Can't Think Straight", "overview": "I CAN'T THINK STRAIGHT is a 2007 romance movie about a London-based Jordanian of Palestinian descent, Tala, who is preparing for an elaborate wedding. A turn of events causes her to have an affair and subsequently fall in love with another woman, Leyla, a British Indian.", "poster_path": "/1kapga6rkM5wNuQBYw7sdE42CrA.jpg", "release_date": "2008-06-01", "title": "I Can't Think Straight", "video": false, "vote_average": 7.6, "vote_count": 109, "popularity": 8.749}, {"adult": false, "backdrop_path": "/lI5h8KaoeObu4NMTwzeRuUHzRwD.jpg", "genre_ids": [18, 9648, 53], "id": 401898, "original_language": "no", "original_title": "Thelma", "overview": "A college student starts to experience extreme seizures. She soon learns that the violent episodes are a symptom of inexplicable abilities.", "poster_path": "/yzSfG8TLAqw7nMQh2lxirQkQpgs.jpg", "release_date": "2017-09-15", "title": "Thelma", "video": false, "vote_average": 7.1, "vote_count": 418, "popularity": 12.235}, {"adult": false, "backdrop_path": "/tIFRPjIXQ3sYrmxbIeOu9K1JkUz.jpg", "genre_ids": [18, 10749], "id": 294, "original_language": "en", "original_title": "Desert Hearts", "overview": "The story of straight-edge literature professor Vivian who travels to Reno to get away from a relationship breakup when she falls in love with an attractive and unconventional girl named Cay.", "poster_path": "/b8JSmQSpYYJhctMtxNgqh0elENg.jpg", "release_date": "1985-10-01", "title": "Desert Hearts", "video": false, "vote_average": 7.3, "vote_count": 58, "popularity": 8.237}, {"id": 2255, "video": false, "vote_count": 772, "vote_average": 6.8, "title": "Chasing Amy", "release_date": "1997-04-04", "original_language": "en", "original_title": "Chasing Amy", "genre_ids": [35, 18, 10749], "backdrop_path": "/doKYVK61Vb8J1KUjlb9dNWkQNp6.jpg", "adult": false, "overview": "Holden and Banky are comic book artists. Everything is going good for them until they meet Alyssa, also a comic book artist. Holden falls for her, but his hopes are crushed when he finds out she's a lesbian.", "poster_path": "/4vFJileWrCGaBeobCmF0tXpQCUb.jpg", "popularity": 11.325}, {"adult": false, "backdrop_path": "/nriBinb7Y3Bm6LdbmOC0mFxSm8d.jpg", "genre_ids": [80, 18], "id": 226, "original_language": "en", "original_title": "Boys Don't Cry", "overview": "Female born, Teena Brandon adopts his male identity of Brandon Teena and attempts to find himself and love in Nebraska.", "poster_path": "/6bqIZTEuJnUrgnxcymciszvOz8J.jpg", "release_date": "1999-09-02", "title": "Boys Don't Cry", "video": false, "vote_average": 7.5, "vote_count": 718, "popularity": 12.137}, {"adult": false, "backdrop_path": "/3YGy88nTV2e0wxZcKI1goiEN9oy.jpg", "genre_ids": [18, 10749], "id": 37636, "original_language": "en", "original_title": "High Art", "overview": "A young female intern at a small magazine company becomes involved with a drug-addicted lesbian photographer, both of whom seek to exploit each other for their respective careers, while slowly falling in love with each other.", "poster_path": "/qTg05RNJIvb9w4Z7XIcAZxuZmTn.jpg", "release_date": "1998-06-12", "title": "High Art", "video": false, "vote_average": 6.6, "vote_count": 61, "popularity": 7.27}, {"id": 9813, "video": false, "vote_count": 128, "vote_average": 6.1, "title": "The Quiet", "release_date": "2005-09-12", "original_language": "en", "original_title": "The Quiet", "genre_ids": [18, 53], "backdrop_path": "/6eyWAZA4CEidZW1xXnQ4vlYBXTP.jpg", "adult": false, "overview": "After her widowed father dies, deaf teenager Dot moves in with her godparents, Olivia and Paul Deer. The Deers' daughter, Nina, is openly hostile to Dot, but that does not prevent her from telling her secrets to her silent stepsister, including the fact that she wants to kill her lecherous father.", "poster_path": "/GEqIE9YlmygHVUfS64LW2cwAAM.jpg", "popularity": 13.948}, {"id": 434714, "video": false, "vote_count": 32, "vote_average": 7.5, "title": "My Days of Mercy", "release_date": "2019-07-11", "original_language": "en", "original_title": "My Days of Mercy", "genre_ids": [18, 10749], "backdrop_path": "/7Lbzq33nMMIQtAfZAmSqG6ibLSg.jpg", "adult": false, "overview": "The daughter of a man on death row falls in love with a woman on the opposing side of her family's political cause.", "poster_path": "/adIPKAoKnKL9vCTkvfF4J9ZA7Ln.jpg", "popularity": 6.928}, {"adult": false, "backdrop_path": "/ph5fElfh4U7O3jwhFljxz2LDp1l.jpg", "genre_ids": [18, 36], "id": 375262, "original_language": "en", "original_title": "The Favourite", "overview": "England, early 18th century. The close relationship between Queen Anne and Sarah Churchill is threatened by the arrival of Sarah's cousin, Abigail Hill, resulting in a bitter rivalry between the two cousins to be the Queen's favourite.", "poster_path": "/cwBq0onfmeilU5xgqNNjJAMPfpw.jpg", "release_date": "2018-11-23", "title": "The Favourite", "video": false, "vote_average": 7.6, "vote_count": 2823, "popularity": 26.511}, {"adult": false, "backdrop_path": "/3WgaU6OjTlvjOhbq5C0UmKYQGoW.jpg", "genre_ids": [18, 10749], "id": 26338, "original_language": "fr", "original_title": "Romance", "overview": "Although deeply in love with her boyfriend - and indeed sleeping in the same bed with him - a schoolteacher cannot handle the almost complete lack of intimacy he will allow. Increasingly frustrated, she gradually finds her sexual appetites leading her into ever more risky situations, including a developing one with the headmaster.", "poster_path": "/lcDSXXnZok1qyv4TQ14iZ8g8OHf.jpg", "release_date": "1999-04-13", "title": "Romance", "video": false, "vote_average": 5.3, "vote_count": 101, "popularity": 15.928}, {"adult": false, "backdrop_path": "/bJLJAtGjBj836UjJZNOwgrfe5Ps.jpg", "genre_ids": [80, 18], "id": 359940, "original_language": "en", "original_title": "Three Billboards Outside Ebbing, Missouri", "overview": "After seven months have passed without a culprit in her daughter's murder case, Mildred Hayes makes a bold move, painting three signs leading into her town with a controversial message directed at Bill Willoughby, the town's revered chief of police. When his second-in-command Officer Jason Dixon, an immature mother's boy with a penchant for violence, gets involved, the battle between Mildred and Ebbing's law enforcement is only exacerbated.", "poster_path": "/vgvw6w1CtcFkuXXn004S5wQsHRl.jpg", "release_date": "2017-11-10", "title": "Three Billboards Outside Ebbing, Missouri", "video": false, "vote_average": 8.2, "vote_count": 6116, "popularity": 21.881}], "total_pages": 1440, "total_results": 28781}, "recommendations": {"page": 1, "results": [{"adult": false, "backdrop_path": "/8vts6oR6O1TLxoT0dYfOTJZDhPM.jpg", "genre_ids": [36, 18], "id": 214251, "original_language": "ca", "original_title": "Historia de la meva mort", "overview": "Famous lover Casanova (Vicen\u00e7 Altai\u00f3), now long past his prime, meets Count Dracula (Eliseu Huertas) during a journey to Transylvania.", "poster_path": "/y3hQXhmOL6tIFziemryRN8HdxYS.jpg", "release_date": "2013-10-23", "title": "Story of My Death", "video": false, "vote_average": 8.2, "vote_count": 9, "popularity": 1.848}, {"adult": false, "backdrop_path": "/neqZew2pahZQGepq2oMLFDofkbk.jpg", "genre_ids": [99], "id": 131792, "original_language": "en", "original_title": "At Sea", "overview": "Three segments depicting the life cycle of a freighter boat.", "poster_path": "/kys23FFRsQuhltdYj6KcpG32XAt.jpg", "release_date": "2007-09-07", "title": "At Sea", "video": false, "vote_average": 7.8, "vote_count": 10, "popularity": 3.067}], "total_pages": 1, "total_results": 2}, "credits": {"cast": [{"cast_id": 5, "character": "Wenxiu", "credit_id": "52fe45029251416c91024671", "gender": 1, "id": 121569, "name": "Xiaolu Li", "order": 0, "profile_path": "/6tUsISpQJUYcZ6kkzkv4Y4tb1uD.jpg"}, {"cast_id": 6, "character": "Lao Jin", "credit_id": "52fe45029251416c91024675", "gender": 0, "id": 121570, "name": "Lopsang", "order": 1, "profile_path": null}, {"cast_id": 7, "character": "Li Chuanbei", "credit_id": "52fe45029251416c91024679", "gender": 0, "id": 130262, "name": "Zheng Qian", "order": 2, "profile_path": null}, {"cast_id": 8, "character": "Mother", "credit_id": "52fe45029251416c9102467d", "gender": 0, "id": 130263, "name": "Jie Gao", "order": 3, "profile_path": null}, {"cast_id": 9, "character": "Sister", "credit_id": "52fe45029251416c91024681", "gender": 0, "id": 130264, "name": "Qianqian Li", "order": 4, "profile_path": null}, {"cast_id": 10, "character": "Father", "credit_id": "52fe45029251416c91024685", "gender": 2, "id": 72204, "name": "Yue Lu", "order": 5, "profile_path": null}, {"cast_id": 11, "character": "Chen Li", "credit_id": "52fe45029251416c91024689", "gender": 0, "id": 555352, "name": "Qian Qiao", "order": 6, "profile_path": null}, {"cast_id": 12, "character": "Rider A", "credit_id": "52fe45029251416c9102468d", "gender": 0, "id": 555353, "name": "Cheng Jiang", "order": 7, "profile_path": null}, {"cast_id": 13, "character": "Girl", "credit_id": "52fe45029251416c91024691", "gender": 0, "id": 555354, "name": "Xiaoyu Yang", "order": 8, "profile_path": null}, {"cast_id": 14, "character": "Rider B", "credit_id": "52fe45029251416c91024695", "gender": 0, "id": 555355, "name": "Xuejun Gu", "order": 9, "profile_path": null}, {"cast_id": 15, "character": "Holligan", "credit_id": "52fe45029251416c91024699", "gender": 0, "id": 555356, "name": "Huri", "order": 10, "profile_path": null}, {"cast_id": 16, "character": "Headquarter's Chief", "credit_id": "52fe45029251416c9102469d", "gender": 0, "id": 555357, "name": "Zhizhung Lik", "order": 11, "profile_path": null}, {"cast_id": 17, "character": "Assistant", "credit_id": "52fe45029251416c910246a1", "gender": 0, "id": 555358, "name": "Kun Zhang", "order": 12, "profile_path": null}, {"cast_id": 18, "character": "Jeep Driver", "credit_id": "52fe45029251416c910246a5", "gender": 0, "id": 555359, "name": "Shijin Li", "order": 13, "profile_path": null}, {"cast_id": 19, "character": "Yak Herder A", "credit_id": "52fe45029251416c910246a9", "gender": 0, "id": 555360, "name": "Dong Jia", "order": 14, "profile_path": null}, {"cast_id": 20, "character": "Yak Herder B (as Wang Yue)", "credit_id": "52fe45029251416c910246ad", "gender": 0, "id": 555361, "name": "Yu Wang", "order": 15, "profile_path": null}, {"cast_id": 21, "character": "Peddler", "credit_id": "52fe45029251416c910246b1", "gender": 0, "id": 555362, "name": "Qiang Gao", "order": 16, "profile_path": null}, {"cast_id": 22, "character": "Honey Dealer", "credit_id": "52fe45029251416c910246b5", "gender": 0, "id": 555363, "name": "Xuelan Cao", "order": 17, "profile_path": null}, {"cast_id": 23, "character": "Motorcycle Man", "credit_id": "52fe45029251416c910246b9", "gender": 0, "id": 555364, "name": "Wenyuan Qin", "order": 18, "profile_path": null}, {"cast_id": 24, "character": "Tractor Man", "credit_id": "52fe45029251416c910246bd", "gender": 0, "id": 555365, "name": "Xiaoying Tan", "order": 19, "profile_path": null}, {"cast_id": 25, "character": "Belt Man", "credit_id": "52fe45029251416c910246c1", "gender": 1, "id": 555366, "name": "Lu Zhong", "order": 20, "profile_path": "/zNbad4Z6bVCl9m44ziuZCLTArHW.jpg"}, {"cast_id": 26, "character": "Janitor", "credit_id": "52fe45029251416c910246c5", "gender": 0, "id": 555367, "name": "Wenqi Hu", "order": 21, "profile_path": null}, {"cast_id": 27, "character": "Nurse A", "credit_id": "52fe45029251416c910246c9", "gender": 0, "id": 555368, "name": "Yayu Li", "order": 22, "profile_path": null}, {"cast_id": 28, "character": "Nurse B", "credit_id": "52fe45029251416c910246cd", "gender": 0, "id": 555369, "name": "Min Du", "order": 23, "profile_path": null}, {"cast_id": 29, "character": "Three Toes", "credit_id": "52fe45029251416c910246d1", "gender": 0, "id": 555370, "name": "Jiong Cao", "order": 24, "profile_path": null}, {"cast_id": 30, "character": "Patient A", "credit_id": "52fe45029251416c910246d5", "gender": 0, "id": 555371, "name": "Dashui Jia", "order": 25, "profile_path": null}, {"cast_id": 31, "character": "Patient B", "credit_id": "52fe45029251416c910246d9", "gender": 0, "id": 555372, "name": "Chen Yu", "order": 26, "profile_path": null}, {"cast_id": 32, "character": "Narrator (voice)", "credit_id": "52fe45029251416c910246dd", "gender": 2, "id": 133957, "name": "Luoyong Wang", "order": 27, "profile_path": null}, {"cast_id": 33, "character": "Jeep Driver (voice)", "credit_id": "52fe45029251416c910246e1", "gender": 0, "id": 555373, "name": "Xiaolin Yu", "order": 28, "profile_path": null}], "crew": [{"credit_id": "52fe45029251416c9102465b", "department": "Directing", "gender": 1, "id": 6720, "job": "Director", "name": "Joan Chen", "profile_path": "/1t256WchR3p4QDoBZ5XCwNrtZmQ.jpg"}, {"credit_id": "52fe45029251416c91024661", "department": "Writing", "gender": 1, "id": 6720, "job": "Writer", "name": "Joan Chen", "profile_path": "/1t256WchR3p4QDoBZ5XCwNrtZmQ.jpg"}, {"credit_id": "589613ca92514129c8009086", "department": "Camera", "gender": 2, "id": 72204, "job": "Director of Photography", "name": "Yue Lu", "profile_path": null}, {"credit_id": "52fe45029251416c9102466d", "department": "Writing", "gender": 1, "id": 121567, "job": "Screenplay", "name": "Yan Geling", "profile_path": "/2RT1mALyTwskFHwHJ41DRUva4ji.jpg"}, {"credit_id": "52fe45029251416c91024667", "department": "Writing", "gender": 1, "id": 121567, "job": "Novel", "name": "Yan Geling", "profile_path": "/2RT1mALyTwskFHwHJ41DRUva4ji.jpg"}, {"credit_id": "5e0bbd94a84ff70015326701", "department": "Camera", "gender": 2, "id": 209957, "job": "Director of Photography", "name": "Michael Chin", "profile_path": null}, {"credit_id": "59a2c6b7c3a36847f6040b36", "department": "Art", "gender": 0, "id": 551565, "job": "Art Direction", "name": "Sai-Wan Lau", "profile_path": null}]}}