{"adult": false, "backdrop_path": "/e1XKbY05lAHXKayAH3Vs0EYFG6z.jpg", "belongs_to_collection": null, "budget": 0, "genres": [{"id": 99, "name": "Documentary"}], "homepage": null, "id": 332749, "imdb_id": "tt4103404", "original_language": "en", "original_title": "The Forecaster", "overview": "MARTIN ARMSTRONG, once a US based trillion dollar financial adviser, used the number pi to predict economic turning points with precision. When some big New York bankers asked him to join the club to help them to take over Russia, he refused to join the manipulation. A few days later the FBI stormed his offices accusing him of a 3 billion dollar Ponzi Scheme - an attempt to stop him talking about the real Ponzi Scheme of debts that the US has build up over the years and which he thinks starts to collapse after October 1, 2015, a mayor pi turning point he is predicting.", "popularity": 4.128, "poster_path": "/5dGBmI5miIrXxU601IF7iz4tflQ.jpg", "production_companies": [], "production_countries": [{"iso_3166_1": "US", "name": "United States of America"}, {"iso_3166_1": "DE", "name": "Germany"}], "release_date": "2014-11-24", "revenue": 0, "runtime": 100, "spoken_languages": [{"iso_639_1": "en", "name": "English"}, {"iso_639_1": "ru", "name": "P\u0443\u0441\u0441\u043a\u0438\u0439"}], "status": "Released", "tagline": "", "title": "The Forecaster", "video": false, "vote_average": 7.4, "vote_count": 14, "keywords": {"keywords": [{"id": 5636, "name": "wall street"}, {"id": 6123, "name": "global economy"}, {"id": 6126, "name": "banking"}, {"id": 11038, "name": "trial"}, {"id": 11061, "name": "debt"}, {"id": 14737, "name": "economics"}, {"id": 157984, "name": "prediction"}, {"id": 177493, "name": "stock market"}, {"id": 187056, "name": "woman director"}]}, "similar": {"page": 1, "results": [{"adult": false, "backdrop_path": "/4HA3MLBmTf0sDqnw4BZlVDiOwG5.jpg", "genre_ids": [99], "id": 44639, "original_language": "en", "original_title": "Inside Job", "overview": "A film that exposes the shocking truth behind the economic crisis of 2008. The global financial meltdown, at a cost of over $20 trillion, resulted in millions of people losing their homes and jobs. Through extensive research and interviews with major financial insiders, politicians and journalists, Inside Job traces the rise of a rogue industry and unveils the corrosive relationships which have corrupted politics, regulation and academia.", "poster_path": "/gy1CzwHUrb46gou2NO0wkjNFO6f.jpg", "release_date": "2010-10-08", "title": "Inside Job", "video": false, "vote_average": 7.8, "vote_count": 506, "popularity": 10.752}, {"adult": false, "backdrop_path": "/jkpTcreM7YOUF4RaDTgTAy9aMJZ.jpg", "genre_ids": [99], "id": 13020, "original_language": "en", "original_title": "Enron: The Smartest Guys in the Room", "overview": "A documentary about the Enron corporation, its faulty and corrupt business practices, and how they led to its fall.", "poster_path": "/d1oHF7nFAxC6X5ZNRn1SCSTJYDW.jpg", "release_date": "2005-04-22", "title": "Enron: The Smartest Guys in the Room", "video": false, "vote_average": 7.2, "vote_count": 147, "popularity": 11.797}, {"id": 50839, "video": false, "vote_count": 923, "vote_average": 6.8, "title": "Margin Call", "release_date": "2011-09-28", "original_language": "en", "original_title": "Margin Call", "genre_ids": [18, 53], "backdrop_path": "/rPVPJga5BTKK1cpeaChJeUh5ZMK.jpg", "adult": false, "overview": "A thriller that revolves around the key people at an investment bank over a 24-hour period during the early stages of the financial crisis.", "poster_path": "/h4Cv588VpNpO9twXsdorhz6K8t1.jpg", "popularity": 13.934}, {"id": 22074, "video": false, "vote_count": 319, "vote_average": 7.2, "title": "Capitalism: A Love Story", "release_date": "2009-09-06", "original_language": "en", "original_title": "Capitalism: A Love Story", "genre_ids": [99], "backdrop_path": "/vI1RY1JYAS1m94izWO9AFeIQ2xv.jpg", "adult": false, "overview": "Michael Moore comes home to the issue he's been examining throughout his career: the disastrous impact of corporate dominance on the everyday lives of Unitedstatians (and by default, the rest of the world).", "poster_path": "/4do1m6EathXZAegiGlS9CfjXpWC.jpg", "popularity": 7.81}, {"id": 9813, "video": false, "vote_count": 128, "vote_average": 6.1, "title": "The Quiet", "release_date": "2005-09-12", "original_language": "en", "original_title": "The Quiet", "genre_ids": [18, 53], "backdrop_path": "/6eyWAZA4CEidZW1xXnQ4vlYBXTP.jpg", "adult": false, "overview": "After her widowed father dies, deaf teenager Dot moves in with her godparents, Olivia and Paul Deer. The Deers' daughter, Nina, is openly hostile to Dot, but that does not prevent her from telling her secrets to her silent stepsister, including the fact that she wants to kill her lecherous father.", "poster_path": "/GEqIE9YlmygHVUfS64LW2cwAAM.jpg", "popularity": 14.844}, {"id": 318846, "video": false, "vote_count": 5227, "vote_average": 7.3, "title": "The Big Short", "release_date": "2015-12-11", "original_language": "en", "original_title": "The Big Short", "genre_ids": [35, 18], "backdrop_path": "/6UyMLbe0lAPqfZLtVllAwBNFIis.jpg", "adult": false, "overview": "The men who made millions from a global economic meltdown.", "poster_path": "/p11Ftd4VposrAzthkhF53ifYZRl.jpg", "popularity": 25.578}, {"id": 326359, "video": false, "vote_count": 1180, "vote_average": 6.8, "title": "Frozen Fever", "release_date": "2015-03-09", "original_language": "en", "original_title": "Frozen Fever", "genre_ids": [12, 16, 10751], "backdrop_path": "/ubioPGniCfDiASmYYpeJs5RRNaC.jpg", "adult": false, "overview": "On Anna's birthday, Elsa and Kristoff are determined to give her the best celebration ever, but Elsa's icy powers may put more than just the party at risk.", "poster_path": "/lKJiVPzsAO9IJ4LKWXZ8vkR2bg4.jpg", "popularity": 17.218}, {"adult": false, "backdrop_path": "/2Tawvc0JMmR9nBXD3nhBThTQP2X.jpg", "genre_ids": [53, 18, 80, 27], "id": 1359, "original_language": "en", "original_title": "American Psycho", "overview": "A wealthy New York investment banking executive hides his alternate psychopathic ego from his co-workers and friends as he escalates deeper into his illogical, gratuitous fantasies.", "poster_path": "/qXsylPM4Lr5397R3eHrfqHhTUNc.jpg", "release_date": "2000-04-13", "title": "American Psycho", "video": false, "vote_average": 7.4, "vote_count": 4915, "popularity": 21.511}, {"adult": false, "backdrop_path": "/24JDK9dRRRzkBjHBsKQIGs7sBkj.jpg", "genre_ids": [53, 18], "id": 303858, "original_language": "en", "original_title": "Money Monster", "overview": "Financial TV host Lee Gates and his producer Patty are put in an extreme situation when an irate investor takes over their studio.", "poster_path": "/p7KDmC2beuKCCMO49L767OgwLQr.jpg", "release_date": "2016-05-12", "title": "Money Monster", "video": false, "vote_average": 6.4, "vote_count": 2031, "popularity": 11.472}, {"adult": false, "backdrop_path": "/pBgGl3GfVxs84T7ZniUAz5FMMNx.jpg", "genre_ids": [35, 10751, 12, 14, 10749], "id": 11451, "original_language": "en", "original_title": "Herbie Fully Loaded", "overview": "Maggie Peyton, the new owner of Number 53 - the free-wheelin' Volkswagen bug with a mind of its own - puts the car through its paces on the road to becoming a NASCAR competitor.", "poster_path": "/7lTfTZ8CDfXw09eAv3OOvsbCVgs.jpg", "release_date": "2005-06-22", "title": "Herbie Fully Loaded", "video": false, "vote_average": 5.3, "vote_count": 1347, "popularity": 14.041}, {"adult": false, "backdrop_path": null, "genre_ids": [36, 99], "id": 31869, "original_language": "en", "original_title": "The Ascent of Money", "overview": "British historian and author Niall Ferguson explains how big money works today as well as the causes of and solutions to economic catastrophes in this extended version The Ascent of Money documentary. Through interviews with top experts, such as former Federal Reserve Chairman Paul Volcker and American currency speculator George Soros, the intricate world of finance, including global commerce, banking and lending, is examined thoroughly.", "poster_path": "/3vHQSPiI1AsBm40al9jBakmwQ1y.jpg", "release_date": "2009-01-01", "title": "The Ascent of Money", "video": false, "vote_average": 7.2, "vote_count": 9, "popularity": 2.598}, {"adult": false, "backdrop_path": "/cADbqsIoiDW7X3Myg9nz8eAuno5.jpg", "genre_ids": [18, 10749], "id": 10818, "original_language": "fr", "original_title": "Naissance des pieuvres", "overview": "Set during a sultry summer in a French suburb, Marie is desperate to join the local pool's synchronized swimming team, but is her interest solely for the sake of sport or for a chance to get close to Floriane, the bad girl of the team? Sciamma, and the two leads, capture the uncertainty of teenage sexuality with a sympathetic eye in this delicate drama of the angst of coming-of-age.", "poster_path": "/4jajELYrR4Xmv3CVoKnukRnALa2.jpg", "release_date": "2007-05-17", "title": "Water Lilies", "video": false, "vote_average": 6.1, "vote_count": 119, "popularity": 9.614}, {"adult": false, "backdrop_path": "/fZ8oFcREAr6wgWcXISGql0xyxjB.jpg", "genre_ids": [35, 18], "id": 39781, "original_language": "en", "original_title": "The Kids Are All Right", "overview": "Two women, Nic and Jules, brought a son and daughter into the world through artificial insemination. When one of their children reaches age, both kids go behind their mothers' backs to meet with the donor. Life becomes so much more interesting when the father, two mothers and children start to become attached to each other.", "poster_path": "/fPDeK4MmoGfi2X0oWZev7LrbMqM.jpg", "release_date": "2010-07-09", "title": "The Kids Are All Right", "video": false, "vote_average": 6.6, "vote_count": 923, "popularity": 12.159}, {"adult": false, "backdrop_path": "/nriBinb7Y3Bm6LdbmOC0mFxSm8d.jpg", "genre_ids": [80, 18], "id": 226, "original_language": "en", "original_title": "Boys Don't Cry", "overview": "Female born, Teena Brandon adopts his male identity of Brandon Teena and attempts to find himself and love in Nebraska.", "poster_path": "/6bqIZTEuJnUrgnxcymciszvOz8J.jpg", "release_date": "1999-09-02", "title": "Boys Don't Cry", "video": false, "vote_average": 7.5, "vote_count": 718, "popularity": 10.072}, {"id": 65034, "video": false, "vote_count": 113, "vote_average": 7.1, "title": "Too Big to Fail", "release_date": "2011-05-22", "original_language": "en", "original_title": "Too Big to Fail", "genre_ids": [18, 10770], "backdrop_path": "/mDLFWvBWCp7YgxlvBdYTS2TCE9r.jpg", "adult": false, "overview": "An intimate look at the epochal financial crisis of 2008 and the powerful men and women who decided the fate of the world's economy in a matter of a few weeks.", "poster_path": "/8K0gQDAD9MnV43JkVy1EKHVdKDh.jpg", "popularity": 9.831}, {"id": 71688, "video": false, "vote_count": 1019, "vote_average": 6.4, "title": "The Iron Lady", "release_date": "2011-12-30", "original_language": "en", "original_title": "The Iron Lady", "genre_ids": [18, 36], "backdrop_path": "/dfM5XwQcw36HAnKhowEh5776MJl.jpg", "adult": false, "overview": "A look at the life of Margaret Thatcher, the former Prime Minister of the United Kingdom, with a focus on the price she paid for power.", "poster_path": "/e67tal4u66eFz8yGnJGTO5FYRxY.jpg", "popularity": 10.839}, {"adult": false, "backdrop_path": "/ftMxXLM5Dl49Y3fwspS4op4PyCe.jpg", "genre_ids": [18], "id": 164251, "original_language": "en", "original_title": "Serena", "overview": "North Carolina mountains at the end of the 1920s \u2013 George and Serena Pemberton, love-struck newly-weds, begin to build a timber empire. Serena soon proves herself to be equal to any man: overseeing loggers, hunting rattle-snakes, even saving a man\u2019s life in the wilderness. With power and influence now in their hands, the Pembertons refuse to let anyone stand in the way of their inflated love and ambitions. However, once Serena discovers George\u2019s hidden past and faces an unchangeable fate of her own, the Pemberton\u2019s passionate marriage begins to unravel leading toward a dramatic reckoning.", "poster_path": "/A1EnhqXiPQMo5QP7eBWLFpeOvKB.jpg", "release_date": "2014-10-12", "title": "Serena", "video": false, "vote_average": 5.6, "vote_count": 654, "popularity": 11.982}, {"adult": false, "backdrop_path": "/rf6G51j0SZL0tP57I8gnqHTRFEr.jpg", "genre_ids": [35, 18, 10749], "id": 273153, "original_language": "fr", "original_title": "La belle saison", "overview": "In 1971, Carole and Delphine meet and fall in love in Paris. When Carole follows Delphine back to her family farm in Limousin, the two find lesbianism and feminism are not as easy in the countryside.", "poster_path": "/evvAkNMO5VJiy5qIo1Hu7fUfvVI.jpg", "release_date": "2015-08-19", "title": "Summertime", "video": false, "vote_average": 6.6, "vote_count": 162, "popularity": 11.575}, {"id": 11420, "video": false, "vote_count": 148, "vote_average": 7.8, "title": "The Corporation", "release_date": "2003-09-10", "original_language": "en", "original_title": "The Corporation", "genre_ids": [99], "backdrop_path": "/qOpNpDLNEjeOvN3q7rhJLFY41MT.jpg", "adult": false, "overview": "Since the late 18th century American legal decision that the business corporation organizational model is legally a person, it has become a dominant economic, political and social force around the globe. This film takes an in-depth psychological examination of the organization model through various case studies. What the study illustrates is that in the its behaviour, this type of \"person\" typically acts like a dangerously destructive psychopath without conscience. Furthermore, we see the profound threat this psychopath has for our world and our future, but also how the people with courage, intelligence and determination can do to stop it.", "poster_path": "/7S5rkHsVfMAQEHFQavx3nm74hNH.jpg", "popularity": 8.156}, {"adult": false, "backdrop_path": "/dXQdfVXUOrGhby6yTk9yZEDKhhg.jpg", "genre_ids": [18], "id": 65229, "original_language": "fr", "original_title": "Tomboy", "overview": "A French family with two daughters, 10-year-old Laure and 6-year-old Jeanne, moves to a new neighborhood during the summer holidays. With her tomboy ways, Laure is immediately mistaken for a boy by the local kids and passes herself off as Micka\u00ebl.", "poster_path": "/q4bl7q32VmqWMPl5WWfCdu2UFSw.jpg", "release_date": "2011-04-20", "title": "Tomboy", "video": false, "vote_average": 7.2, "vote_count": 339, "popularity": 9.175}], "total_pages": 36, "total_results": 716}, "recommendations": {"page": 1, "results": [{"adult": false, "backdrop_path": null, "genre_ids": [99], "id": 454823, "original_language": "fi", "original_title": "Hobbyhorse Revolution", "overview": "A film about teenagers with growing pains, who discover their own voice and talent through riding and grooming toy horses.", "poster_path": "/gTFw1UUHctO9ZqVdJEyqmjTWCNK.jpg", "release_date": "2017-03-31", "title": "Hobbyhorse Revolution", "video": false, "vote_average": 7.0, "vote_count": 4, "popularity": 0.745}, {"adult": false, "backdrop_path": "/suGBLn2TEPC1XdY4G64gd5S6QQ9.jpg", "genre_ids": [36, 10402, 99], "id": 34835, "original_language": "en", "original_title": "It Felt Like a Kiss", "overview": "The story of America's rise to power starting in 1959, it uses nothing but archive footage and America pop music. Showing the consequences on the rest of the world and in peoples mind.", "poster_path": "/no8afT9HDkqOCulkyTtTPZzx5uS.jpg", "release_date": "2009-01-01", "title": "It Felt Like a Kiss", "video": false, "vote_average": 7.1, "vote_count": 17, "popularity": 4.363}, {"adult": false, "backdrop_path": "/836RDcTO14OEWyifiLRLC9KFw1D.jpg", "genre_ids": [18], "id": 378350, "original_language": "fi", "original_title": "J\u00e4ttil\u00e4inen", "overview": "A young and ambitious civil servant Jussi finds himself being in charge of the environmental permit of a huge nickel and uranium mine in Northern Finland. The Talvivaara mine, led by a charismatic globe trotting visioner Pekka Per\u00e4 is introducing an entirely new method of collecting minerals whilst creating jobs in one of the poorest areas in Scandinavia. Jussi slowly discovers that he has been led astray by several people and that the new method has serious downsides he did not forsee. The mine is causing environmental hazards that are being hushed down. A new application for another permit is brough to his table by the same mine. Along with the application comes an interesting job offer and a chance of a new beginning. Jussi has to decide whether he will play along and if so, with whom.", "poster_path": "/yCuODB2bMp0R2T8v0K9QTdGntJw.jpg", "release_date": "2016-01-22", "title": "The Mine", "video": false, "vote_average": 7.1, "vote_count": 9, "popularity": 3.286}, {"adult": false, "backdrop_path": "/2p6Et04hEvjkNiywp2QClLDOjq4.jpg", "genre_ids": [35, 99], "id": 52249, "original_language": "da", "original_title": "Det r\u00f8de kapel", "overview": "Two Danish comics, one of them a spastic and both born in Korea, join the director on a trip to North Korea, where they have been allowed access under the pretext of wanting to perform a vaudeville act.", "poster_path": "/bJx1ljfXJbsDNaePD20hgweVrX8.jpg", "release_date": "2009-05-04", "title": "The Red Chapel", "video": false, "vote_average": 7.4, "vote_count": 12, "popularity": 1.433}], "total_pages": 1, "total_results": 4}, "credits": {"cast": [], "crew": [{"credit_id": "551eada692514114d7001f0e", "department": "Directing", "gender": 2, "id": 583536, "job": "Director", "name": "Marcus Vetter", "profile_path": null}, {"credit_id": "5a1a13739251410339033c42", "department": "Directing", "gender": 0, "id": 1449267, "job": "Co-Director", "name": "Karin Steinberger", "profile_path": null}]}}