{"adult": false, "backdrop_path": "/eZD2AROswA7X7dAixTQEBYLlR25.jpg", "belongs_to_collection": null, "budget": 0, "genres": [{"id": 18, "name": "Drama"}, {"id": 10749, "name": "Romance"}, {"id": 10770, "name": "TV Movie"}], "homepage": null, "id": 33314, "imdb_id": "tt1320347", "original_language": "en", "original_title": "Nora Roberts' Midnight Bayou", "overview": "The new owner of a supposedly haunted New Orleans plantation manor uncovers a shocking secret that has been hidden for over 100 years.", "popularity": 7.083, "poster_path": "/xbFoRAGuxMk1cYGGz7iBfrDhGXm.jpg", "production_companies": [{"id": 3996, "logo_path": "/m76hDa0n6oakF6nz3uVUkXU8arP.png", "name": "Mandalay Television", "origin_country": "US"}, {"id": 5388, "logo_path": "/i6tbNeVEi7s1uN97s2o0LhEMuF0.png", "name": "Sony Pictures Home Entertainment", "origin_country": "US"}, {"id": 3431, "logo_path": "/6LVLYfZAEQfhJey0MGvhFXdDEK1.png", "name": "Lifetime", "origin_country": "US"}], "production_countries": [{"iso_3166_1": "US", "name": "United States of America"}], "release_date": "2009-03-28", "revenue": 0, "runtime": 120, "spoken_languages": [{"iso_639_1": "fr", "name": "Fran\u00e7ais"}, {"iso_639_1": "en", "name": "English"}], "status": "Released", "tagline": "", "title": "Nora Roberts' Midnight Bayou", "video": false, "vote_average": 5.9, "vote_count": 17, "keywords": {"keywords": [{"id": 2411, "name": "new orleans, usa"}, {"id": 3392, "name": "voodoo"}, {"id": 5484, "name": "reincarnation"}, {"id": 9750, "name": "bayou"}, {"id": 162846, "name": "ghost"}, {"id": 234759, "name": "cajuns"}]}, "similar": {"page": 1, "results": [{"adult": false, "backdrop_path": "/zZAJke7HMmQfc52L1AzvQkmMR3e.jpg", "genre_ids": [53, 27, 18], "id": 288158, "original_language": "en", "original_title": "The Woman in Black 2: Angel of Death", "overview": "40 years after the first haunting at Eel Marsh House, a group of children evacuated from WWII London arrive, awakening the house's darkest inhabitant.", "poster_path": "/kzWRtyMtazWA22LJXA64KKZ3slY.jpg", "release_date": "2014-12-30", "title": "The Woman in Black 2: Angel of Death", "video": false, "vote_average": 5.1, "vote_count": 680, "popularity": 9.373}, {"id": 10014, "video": false, "vote_count": 873, "vote_average": 5.8, "title": "A Nightmare on Elm Street Part 2: Freddy's Revenge", "release_date": "1985-10-31", "original_language": "en", "original_title": "A Nightmare on Elm Street Part 2: Freddy's Revenge", "genre_ids": [27], "backdrop_path": "/tJTrNDt1242xe4zlatlZfDMvWjg.jpg", "adult": false, "overview": "A new family moves into the house on Elm Street, and before long, the kids are again having nightmares about deceased child murderer Freddy Krueger. This time, Freddy attempts to possess a teenage boy to cause havoc in the real world, and can only be overcome if the boy's sweetheart can master her fear.", "poster_path": "/seEMZxo6bhHWbWPNcBQfsMAk39F.jpg", "popularity": 19.738}, {"id": 620, "video": false, "vote_count": 5181, "vote_average": 7.4, "title": "Ghostbusters", "release_date": "1984-06-08", "original_language": "en", "original_title": "Ghostbusters", "genre_ids": [35, 14], "backdrop_path": "/qmDy6Rdom8d8UFj9GeAAtVIjTRT.jpg", "adult": false, "overview": "After losing their academic posts at a prestigious university, a team of parapsychologists goes into business as proton-pack-toting \"ghostbusters\" who exterminate ghouls, hobgoblins and supernatural pests of all stripes. An ad campaign pays off when a knockout cellist hires the squad to purge her swanky digs of demons that appear to be living in her refrigerator.", "poster_path": "/3FS3oBdorgczgfCkFi2u8ZTFfpS.jpg", "popularity": 25.965}, {"id": 4011, "video": false, "vote_count": 3504, "vote_average": 7.3, "title": "Beetlejuice", "release_date": "1988-02-29", "original_language": "en", "original_title": "Beetlejuice", "genre_ids": [35, 14], "backdrop_path": "/upAwc1kPQJU1ZWeMgEWV8Lp6CWb.jpg", "adult": false, "overview": "Thanks to an untimely demise via drowning, a young couple end up as poltergeists in their New England farmhouse, where they fail to meet the challenge of scaring away the insufferable new owners, who want to make drastic changes. In desperation, the undead newlyweds turn to an expert frightmeister, but he's got a diabolical agenda of his own.", "poster_path": "/gWnW7vxm8yr01TVLQhL4aI02orp.jpg", "popularity": 34.388}, {"adult": false, "backdrop_path": "/3uwyXMZN93PRkShUxvLrufwVAc2.jpg", "genre_ids": [80, 18, 27, 9648, 53], "id": 452507, "original_language": "en", "original_title": "1922", "overview": "A simple yet proud rancher conspires to murder his wife for financial gain, convincing his teenage son to participate.", "poster_path": "/q4FQOiSRhTLWulHl5Vpg37FMArH.jpg", "release_date": "2017-10-20", "title": "1922", "video": false, "vote_average": 5.9, "vote_count": 1489, "popularity": 10.541}, {"id": 625719, "video": false, "vote_count": 1, "vote_average": 3.0, "title": "Martin's Close", "release_date": "2019-12-24", "original_language": "en", "original_title": "Martin's Close", "genre_ids": [27, 10770], "backdrop_path": "/gcccicGB2eKpE8K50wGXa9GJY3M.jpg", "adult": false, "overview": "Part of the long running tradition of 'A Ghost Story For Christmas' on BBC Four in the UK, and the third instalment presented by Mark Gatiss. A young squire accused of murdering a young girl that did not return his feelings of love reveals a supernatural secret at his trial.", "poster_path": "/ArhYVKnfILuWERuUyuvWJd1jqRm.jpg", "popularity": 5.17}, {"id": 10198, "video": false, "vote_count": 3082, "vote_average": 7.0, "title": "The Princess and the Frog", "release_date": "2009-12-08", "original_language": "en", "original_title": "The Princess and the Frog", "genre_ids": [16, 10749, 10751], "backdrop_path": "/z62CBlBBBOoNUuuxZ1jMAcq5ARE.jpg", "adult": false, "overview": "A waitress, desperate to fulfill her dreams as a restaurant owner, is set on a journey to turn a frog prince back into a human being, but she has to face the same problem after she kisses him.", "poster_path": "/bVRHirC6uIZL9VtRqYRxdedYnOG.jpg", "popularity": 25.981}, {"adult": false, "backdrop_path": "/59baGxEztxeXW1oFjs8EBgXxTXk.jpg", "genre_ids": [27, 53], "id": 91586, "original_language": "en", "original_title": "Insidious: Chapter 2", "overview": "The haunted Lambert family seeks to uncover the mysterious childhood secret that has left them dangerously connected to the spirit world.", "poster_path": "/vmWgw1Lsc6bHThA6S2k8fPsROaI.jpg", "release_date": "2013-09-12", "title": "Insidious: Chapter 2", "video": false, "vote_average": 6.6, "vote_count": 2512, "popularity": 24.9}, {"adult": false, "backdrop_path": "/2F8cwDiU43qYYmRVCyv2Lx5E36C.jpg", "genre_ids": [14, 18], "id": 13188, "original_language": "en", "original_title": "Scrooge", "overview": "Ebenezer Scrooge (Alastair Sim) malcontentedly shuffles through life as a cruel miserly businessman until one fateful Christmas Eve when he is visited by three spirits, sent show him how his unhappy childhood and maladaptive adult behavior over has let him a selfish, lonely, bitter old man.  Released in the USA as \"A Christmas Carol\".", "poster_path": "/vIgQuTnJljMIwzdM94D3rnIgzlx.jpg", "release_date": "1951-11-28", "title": "Scrooge", "video": false, "vote_average": 7.5, "vote_count": 139, "popularity": 12.013}, {"id": 2655, "video": false, "vote_count": 1018, "vote_average": 6.4, "title": "What Lies Beneath", "release_date": "2000-07-21", "original_language": "en", "original_title": "What Lies Beneath", "genre_ids": [18, 27, 9648, 53], "backdrop_path": "/h3A6QXt8t35YQrSvbF9hOkKeeB9.jpg", "adult": false, "overview": "When Claire Spencer starts hearing ghostly voices and seeing spooky images, she wonders if an otherworldly spirit is trying to contact her. All the while, her husband tries to reassure her by telling her it's all in her head. But as Claire investigates, she discovers that the man she loves might know more than he's letting on.", "poster_path": "/A1mrfm8LEv7L28q50ld8QI5z9Iu.jpg", "popularity": 13.178}, {"id": 416234, "video": false, "vote_count": 1006, "vote_average": 5.8, "title": "Winchester", "release_date": "2018-02-02", "original_language": "en", "original_title": "Winchester", "genre_ids": [14, 27, 9648, 53], "backdrop_path": "/d4wnMDSrQonB9iArMzd90WqaoJ4.jpg", "adult": false, "overview": "San Jose, California, 1906. Isolated in her labyrinthine mansion, eccentric firearm heiress Sarah Winchester believes that she is being haunted by the souls of those killed by the guns manufactured by her company.", "poster_path": "/tHDtskokZeO9B3JBdR1dSH0uqad.jpg", "popularity": 15.306}, {"adult": false, "backdrop_path": "/w8jINuXklxghTAHNxt0NQYaAN1C.jpg", "genre_ids": [27], "id": 242512, "original_language": "en", "original_title": "Ouija", "overview": "A group of friends must confront their most terrifying fears when they awaken the dark powers of an ancient spirit board.", "poster_path": "/vHTXN00kJktCbSLV50Vbk9siNiX.jpg", "release_date": "2014-10-24", "title": "Ouija", "video": false, "vote_average": 5.1, "vote_count": 1834, "popularity": 21.962}, {"id": 493922, "video": false, "vote_count": 3300, "vote_average": 7.1, "title": "Hereditary", "release_date": "2018-06-07", "original_language": "en", "original_title": "Hereditary", "genre_ids": [27, 9648, 53], "backdrop_path": "/4DUoPZOHdPuROP4nyEIsPaMIiQl.jpg", "adult": false, "overview": "When Ellen, the matriarch of the Graham family, passes away, her daughter\u2019s family begins to unravel cryptic and increasingly terrifying secrets about their ancestry.", "poster_path": "/lHV8HHlhwNup2VbpiACtlKzaGIQ.jpg", "popularity": 26.313}, {"adult": false, "backdrop_path": "/kQOLgJGvFjQ7EwGfaPkW9dlGFXJ.jpg", "genre_ids": [27, 9648], "id": 565, "original_language": "en", "original_title": "The Ring", "overview": "It sounded like just another urban legend: A videotape filled with nightmarish images, leading to a phone call foretelling the viewer's death in exactly seven days. As a newspaper reporter, Rachel Keller was naturally skeptical of the story, until four teenagers all met with mysterious deaths exactly one week after watching just such a tape. Allowing her investigative curiosity to get the better of her, Rachel tracks down the video... and watches it. Now she has just seven days to unravel the mystery of the Ring.", "poster_path": "/zHJFdhqEXZJxG653oZvOM3PmNON.jpg", "release_date": "2002-10-18", "title": "The Ring", "video": false, "vote_average": 6.6, "vote_count": 3614, "popularity": 18.465}, {"adult": false, "backdrop_path": "/w4w8CTEe4isWO2TzDSQ3MV3br9l.jpg", "genre_ids": [14, 35, 10751], "id": 8839, "original_language": "en", "original_title": "Casper", "overview": "Furious that her late father only willed her his gloomy-looking mansion rather than his millions, Carrigan Crittenden is ready to burn the place to the ground when she discovers a map to a treasure hidden in the house. But when she enters the rickety mansion to seek her claim, she is frightened away by a wicked wave of ghosts. Determined to get her hands on this hidden fortune, she hires afterlife therapist Dr. James Harvey to exorcise the ghosts from the mansion. Harvey and his daughter Kat move in, and soon Kat meets Casper, the ghost of a young boy who's \"the friendliest ghost you know.\" But not so friendly are Casper's uncles--Stretch, Fatso and Stinkie--who are determined to drive all \"fleshies\" away.", "poster_path": "/1WeumvndgPE3hopKQqXbCKO26oH.jpg", "release_date": "1995-05-26", "title": "Casper", "video": false, "vote_average": 6.2, "vote_count": 2787, "popularity": 25.964}, {"id": 448095, "video": false, "vote_count": 308, "vote_average": 6.8, "title": "I Still See You", "release_date": "2018-09-27", "original_language": "en", "original_title": "I Still See You", "genre_ids": [14, 53], "backdrop_path": "/7rqpB7coXaNvTVMWb5vL8qU0pBp.jpg", "adult": false, "overview": "A spellbinding and romantic supernatural thriller. Ten years after an apocalyptic event left the world haunted by ghosts, Roni receives a threatening message from beyond the grave. Joining forces with a mysterious classmate, Kirk, Roni descends into a shadow world that blurs the bounds of the living and the dead-and begins a desperate race against time to stop a cunning killer.", "poster_path": "/9fqzZs922V8OmwgO11Eqclof2mQ.jpg", "popularity": 18.83}, {"adult": false, "backdrop_path": "/yjorFsCy0DsSiK0HwABu0SHQv1P.jpg", "genre_ids": [27], "id": 157547, "original_language": "en", "original_title": "Oculus", "overview": "A woman tries to exonerate her brother's murder conviction by proving that the crime was committed by a supernatural phenomenon.", "poster_path": "/ic8C94ylSfcoLkXqPOKzL6DqPcH.jpg", "release_date": "2014-04-03", "title": "Oculus", "video": false, "vote_average": 6.4, "vote_count": 1916, "popularity": 13.438}, {"id": 201085, "video": false, "vote_count": 3219, "vote_average": 6.5, "title": "Crimson Peak", "release_date": "2015-10-13", "original_language": "en", "original_title": "Crimson Peak", "genre_ids": [18, 14, 27, 9648, 53, 10749], "backdrop_path": "/zTs5Mc1zfEj61cvolvpPn8zSyim.jpg", "adult": false, "overview": "In the aftermath of a family tragedy, an aspiring author is torn between love for her childhood friend and the temptation of a mysterious outsider. Trying to escape the ghosts of her past, she is swept away to a house that breathes, bleeds\u2026 and remembers.", "poster_path": "/aukTmf7j4JBFdvqKe4z9kbhEcmw.jpg", "popularity": 19.836}, {"id": 532671, "video": false, "vote_count": 452, "vote_average": 6.1, "title": "The Prodigy", "release_date": "2019-02-06", "original_language": "en", "original_title": "The Prodigy", "genre_ids": [27, 53], "backdrop_path": "/oxTgovZ3TQ8LLxifUm16ROMULP5.jpg", "adult": false, "overview": "A mother concerned about her young son's disturbing behavior thinks something supernatural may be affecting him.", "poster_path": "/yyejodyk3lWncVjVhhrEkPctY9o.jpg", "popularity": 12.595}, {"adult": false, "backdrop_path": "/rbMION2KBfyl9SBQZBkSLjXRoUx.jpg", "genre_ids": [53, 27], "id": 203834, "original_language": "en", "original_title": "Jessabelle", "overview": "A young woman recuperating at her father's run-down home after a tragic accident soon encounters a terrifying presence with a connection to her long-deceased mother.", "poster_path": "/zq1Er49rSBTkytVbinH9P1RoEOb.jpg", "release_date": "2014-11-07", "title": "Jessabelle", "video": false, "vote_average": 5.3, "vote_count": 477, "popularity": 14.675}], "total_pages": 14, "total_results": 263}, "recommendations": {"page": 1, "results": [{"id": 43303, "video": false, "vote_count": 16, "vote_average": 6.1, "title": "Nora Roberts' Tribute", "release_date": "2009-04-11", "original_language": "en", "original_title": "Nora Roberts' Tribute", "genre_ids": [18, 27, 10749, 10770], "backdrop_path": "/rqWVnmGufBEyi9XeZMRZBjc3jsz.jpg", "adult": false, "overview": "A former child star buys her grandmother's house to rescue it from ruin but her hope for serenity is soon eclipsed by haunting dreams of her famous grandmother, who died of a supposed overdose in the house more than 30 years ago.", "poster_path": "/ml03aMgbiaz0oxZni1MSTUm9nGW.jpg", "popularity": 5.741}, {"id": 21657, "video": false, "vote_count": 20, "vote_average": 5.9, "title": "Nora Roberts\u2019 Northern Lights", "release_date": "2009-03-21", "original_language": "en", "original_title": "Nora Roberts\u2019 Northern Lights", "genre_ids": [18, 9648, 10749, 10770], "backdrop_path": "/vKXevbpqjgLjdCvuHXe30M90sRq.jpg", "adult": false, "overview": "Hoping to leave behind troubled days in the Baltimore city police department, Nate Burns (Eddie Cibrian) journeys to Alaska, where he takes up a quiet life as a small-town sheriff and begins a romance with spirited bush pilot Meg Galligan (LeAnn Rimes). But when Meg's father turns up dead, Burns finds himself thrust into the limelight of a dangerous murder investigation.", "poster_path": "/ap8E0FvOMf8IVDkPOakEx41Grpy.jpg", "popularity": 4.176}, {"id": 35059, "video": false, "vote_count": 18, "vote_average": 6.1, "title": "High Noon", "release_date": "2009-04-04", "original_language": "en", "original_title": "High Noon", "genre_ids": [18, 10749], "backdrop_path": "/1pbqIkqcAL2HjJmGXaqPxVyO4pd.jpg", "adult": false, "overview": "Baltimore's top hostage negotiator embarks on a relationship with a man who could be her soulmate while racing to resolve a case that threatens her job and her life", "poster_path": "/a6wFKbIDTJ3CNTm6yiQRqRjhTZL.jpg", "popularity": 6.859}, {"adult": false, "backdrop_path": "/4FSL4Xj9a5S5gZpBwZhOu5RwlU5.jpg", "genre_ids": [18, 10749, 10770], "id": 18033, "original_language": "en", "original_title": "Nora Roberts\u2019 Montana Sky", "overview": "The wealthy stock dealer bequeaths his Montana farm to the three daughters provided they would live there together at least for a year.", "poster_path": "/eVIU7J3xBmE5K9xOWpiabbTaYj3.jpg", "release_date": "2007-02-05", "title": "Nora Roberts\u2019 Montana Sky", "video": false, "vote_average": 6.2, "vote_count": 25, "popularity": 7.158}, {"adult": false, "backdrop_path": "/5aWGZdiUMaLHliGwrllu4zzYcxM.jpg", "genre_ids": [18, 9648, 53], "id": 61420, "original_language": "en", "original_title": "The 19th Wife", "overview": "Fundamentalist sect member BeckyLyn is accused of killing her husband. Queenie, another wife in the polygamist sect, doesn't believe BeckyLyn is capable of such violence and desperate to prove her innocence reaches out to her excommunicated son Jordan for help in freeing his mother.", "poster_path": "/93MWRNScR11y0hBu5W5DTYON2TL.jpg", "release_date": "2010-09-13", "title": "The 19th Wife", "video": false, "vote_average": 4.5, "vote_count": 6, "popularity": 2.103}, {"adult": false, "backdrop_path": "/vRhXdaXWSJKusuEUUDeHguJBATv.jpg", "genre_ids": [28, 18, 10749, 53, 10770], "id": 54699, "original_language": "en", "original_title": "Nora Roberts' Blue Smoke", "overview": "After witnessing an uncontrollable blaze burn her family's pizzeria to the ground when she was just 11 old, it's no wonder that Reena decides to become an arson investigator. Now, years later, she decides to visit the old neighborhood, where she finds true romance with a hunky carpenter named Bo Goodnight. But Reena is swiftly knocked off cloud nine when she discovers that a psycho connected to her past has resurfaced to wreak havoc in her life.", "poster_path": "/gnwKuYneuIR3wPXFpciWFYpIQA6.jpg", "release_date": "2007-02-12", "title": "Nora Roberts' Blue Smoke", "video": false, "vote_average": 4.5, "vote_count": 10, "popularity": 5.065}, {"adult": false, "backdrop_path": null, "genre_ids": [10770, 18], "id": 69560, "original_language": "en", "original_title": "Dying to Belong", "overview": "When a girls friend is killed by a college hazing, she is the only one who can find out the truth.", "poster_path": "/r1hp0txnRXhUVCyC52RiTZ0yGNx.jpg", "release_date": "1997-02-24", "title": "Dying to Belong", "video": false, "vote_average": 6.1, "vote_count": 8, "popularity": 3.632}, {"adult": false, "backdrop_path": "/jb9ePBHLDUk5D5evG1MvWbTEbFK.jpg", "genre_ids": [18, 9648, 53, 10770], "id": 224916, "original_language": "en", "original_title": "The Good Mother", "overview": "After her best friend dies, a teen discovers that the girl's mother deliberately made her sick.", "poster_path": "/a33NbPYjw411TMC9xQ70B493t7T.jpg", "release_date": "2013-06-07", "title": "The Good Mother", "video": false, "vote_average": 5.3, "vote_count": 10, "popularity": 5.337}, {"adult": false, "backdrop_path": "/xhEahvogjQ8RLbggxzJvdW4BKzH.jpg", "genre_ids": [53, 80, 9648], "id": 60664, "original_language": "en", "original_title": "The Perfect Assistant", "overview": "Rachel Parsons is the perfect assistant, but she's completely in love with her boss. She's got a secret obsession: be his wife and have kids. The problem is that he already has a family.", "poster_path": "/IkdnoGRcgKGESR660Eq4k66TQH.jpg", "release_date": "2008-01-02", "title": "The Perfect Assistant", "video": false, "vote_average": 4.4, "vote_count": 12, "popularity": 4.93}], "total_pages": 1, "total_results": 9}, "credits": {"cast": [{"cast_id": 2, "character": "Declan Fitzpatrick", "credit_id": "52fe450b9251416c91025ad3", "gender": 2, "id": 3035, "name": "Jerry O'Connell", "order": 0, "profile_path": "/4WkOu9MUuPylWv3G5AFEIzvjKSx.jpg"}, {"cast_id": 3, "character": "Lena Simone", "credit_id": "52fe450b9251416c91025ad7", "gender": 1, "id": 110463, "name": "Lauren Stamile", "order": 1, "profile_path": "/t4ettikjkfi0yQqnWjvIKsvRBRl.jpg"}, {"cast_id": 4, "character": "Lilibeth Simone", "credit_id": "52fe450b9251416c91025adb", "gender": 1, "id": 108213, "name": "Isabella Hofmann", "order": 2, "profile_path": "/lqCEokh9id0n2HJwxhFU6F2nZYw.jpg"}, {"cast_id": 5, "character": "Lucian Manet", "credit_id": "52fe450b9251416c91025adf", "gender": 2, "id": 64295, "name": "Alan Ritchson", "order": 3, "profile_path": "/aCyp11i8yTFqa8vOAksarDkRfR7.jpg"}, {"cast_id": 6, "character": "Odette Simone", "credit_id": "52fe450c9251416c91025ae3", "gender": 1, "id": 6450, "name": "Faye Dunaway", "order": 4, "profile_path": "/bwHJPkiDOjTslgrl0mri1Ndvx2V.jpg"}, {"cast_id": 8, "character": "Josephine Manet", "credit_id": "56a7e919c3a36828c8001f61", "gender": 1, "id": 928307, "name": "Ashley LeConte Campbell", "order": 5, "profile_path": "/isEgywE4q0EjyVivDdsljeToPNz.jpg"}, {"cast_id": 9, "character": "Abigail Manet", "credit_id": "56a7e940c3a36828af00212e", "gender": 1, "id": 1169644, "name": "Bianca Malinowski", "order": 6, "profile_path": "/t0uSuDnWVzOVlhkO9FfF91UnymU.jpg"}, {"cast_id": 10, "character": "Effie", "credit_id": "56a7e9d6c3a36828c8001f83", "gender": 1, "id": 124687, "name": "Ciera Payton", "order": 7, "profile_path": "/gicqTmg36lVmL0UPuuNjEHUSOn5.jpg"}, {"cast_id": 13, "character": "Julian Manet", "credit_id": "591417b3c3a368423c009044", "gender": 0, "id": 90553, "name": "Alejandro Rose-Garcia", "order": 9, "profile_path": "/3cvFQ9jbMYfuOAxqygwYsU5gk3R.jpg"}, {"cast_id": 14, "character": "Remy", "credit_id": "5914181292514156f500947e", "gender": 2, "id": 1814491, "name": "Chris Lindsay", "order": 10, "profile_path": null}, {"cast_id": 15, "character": "Jack Tripadoe", "credit_id": "5914188bc3a3684139008c91", "gender": 0, "id": 176491, "name": "Shawn Carter Peterson", "order": 11, "profile_path": "/yNl50tbXtibd6Uw95sibHyfONuw.jpg"}, {"cast_id": 16, "character": "Oscar", "credit_id": "59141928c3a368426900962a", "gender": 2, "id": 16459, "name": "John McConnell", "order": 12, "profile_path": "/gAHxNx9PhT2xVqct6ac61tKFabT.jpg"}, {"cast_id": 17, "character": "Realtor", "credit_id": "59141964925141583c00929d", "gender": 2, "id": 60875, "name": "David Jensen", "order": 13, "profile_path": "/2ZcpeU1Iu1wpQfxltdsjO5da8cB.jpg"}], "crew": [{"credit_id": "59141c0992514158520094f2", "department": "Production", "gender": 1, "id": 25756, "job": "Casting", "name": "Susan Glickman", "profile_path": null}, {"credit_id": "59141bbb9251415723009549", "department": "Editing", "gender": 2, "id": 61901, "job": "Editor", "name": "Scott Richter", "profile_path": null}, {"credit_id": "59141a9cc3a36842d60093ce", "department": "Sound", "gender": 2, "id": 71268, "job": "Original Music Composer", "name": "Chris Bacon", "profile_path": null}, {"credit_id": "591419ea925141580d0092c9", "department": "Writing", "gender": 2, "id": 76240, "job": "Teleplay", "name": "Stephen Tolkin", "profile_path": "/x4HgbfM2toCgyF6h7roa0Ge6VJn.jpg"}, {"credit_id": "57861238c3a3686e5400047c", "department": "Writing", "gender": 0, "id": 82620, "job": "Writer", "name": "Nora Roberts", "profile_path": null}, {"credit_id": "52fe450b9251416c91025acf", "department": "Directing", "gender": 2, "id": 109537, "job": "Director", "name": "Ralph Hemecker", "profile_path": "/sbj6UN5yd9JnjwoS654E2NyBprx.jpg"}, {"credit_id": "59141b6d92514105da0010ef", "department": "Camera", "gender": 0, "id": 203350, "job": "Director of Photography", "name": "Anghel Decca", "profile_path": null}, {"credit_id": "59141c5bc3a36842690098fc", "department": "Art", "gender": 2, "id": 223990, "job": "Production Design", "name": "Jaymes Hinkle", "profile_path": null}, {"credit_id": "59141a3c925141580d00930a", "department": "Production", "gender": 0, "id": 934838, "job": "Producer", "name": "Gideon Amir", "profile_path": null}, {"credit_id": "59141ce4c3a36842c10096c3", "department": "Costume & Make-Up", "gender": 1, "id": 1017017, "job": "Costume Design", "name": "Claire Breaux", "profile_path": null}, {"credit_id": "59141e4392514158520096af", "department": "Costume & Make-Up", "gender": 0, "id": 1089662, "job": "Key Costumer", "name": "Claire Hedlund", "profile_path": null}, {"credit_id": "59141b1b9251415852009441", "department": "Sound", "gender": 2, "id": 1205375, "job": "Original Music Composer", "name": "Stuart Michael Thomas", "profile_path": null}, {"credit_id": "59141c9a92514157230095e3", "department": "Art", "gender": 1, "id": 1299360, "job": "Set Decoration", "name": "Cynthia Anne Slagter", "profile_path": null}, {"credit_id": "59141e6cc3a36842d60096e4", "department": "Costume & Make-Up", "gender": 0, "id": 1319850, "job": "Costume Supervisor", "name": "Ann Walters", "profile_path": null}, {"credit_id": "59141ec7c3a36842d6009740", "department": "Sound", "gender": 2, "id": 1344840, "job": "Music Editor", "name": "Tom Trafalski", "profile_path": null}, {"credit_id": "59141f4ec3a3684269009b80", "department": "Directing", "gender": 0, "id": 1402047, "job": "Script Supervisor", "name": "Mary Frances Eglin", "profile_path": null}, {"credit_id": "59141dfec3a3683a93009148", "department": "Visual Effects", "gender": 0, "id": 1402713, "job": "Special Effects Supervisor", "name": "David K. Nami", "profile_path": null}, {"credit_id": "59141d26c3a36842c10096ff", "department": "Costume & Make-Up", "gender": 0, "id": 1406265, "job": "Key Hair Stylist", "name": "Dana Boisseau", "profile_path": null}, {"credit_id": "59141f04925141585200976e", "department": "Sound", "gender": 1, "id": 1532396, "job": "Music Supervisor", "name": "Robin Urdang", "profile_path": null}, {"credit_id": "59141d5e9251415723009679", "department": "Costume & Make-Up", "gender": 0, "id": 1737666, "job": "Key Makeup Artist", "name": "Kim Perrodin", "profile_path": null}]}}