{"adult": false, "backdrop_path": "/e5c8m1lzvfR588MvcPcC2g3P7io.jpg", "belongs_to_collection": null, "budget": 0, "genres": [{"id": 18, "name": "Drama"}], "homepage": "", "id": 333202, "imdb_id": "tt0247527", "original_language": "en", "original_title": "Spring Night, Summer Night", "overview": "Staring into seemingly hopeless futures, half-siblings Carl and Jessie rebel against the ties that bind them to their dying town and to each other through an act of love both tender and traumatic that forces a generation of hard truths and recriminations out into the open.", "popularity": 2.713, "poster_path": "/dxBrwqpanMNImAQWFYiSi7vHzli.jpg", "production_companies": [{"id": 109240, "logo_path": null, "name": "Triskele", "origin_country": ""}], "production_countries": [{"iso_3166_1": "US", "name": "United States of America"}], "release_date": "1970-09-23", "revenue": 0, "runtime": 82, "spoken_languages": [{"iso_639_1": "en", "name": "English"}], "status": "Released", "tagline": "", "title": "Spring Night, Summer Night", "video": false, "vote_average": 7.6, "vote_count": 7, "keywords": {"keywords": [{"id": 380, "name": "sibling relationship"}, {"id": 33841, "name": "incest"}]}, "similar": {"page": 1, "results": [{"adult": false, "backdrop_path": "/hD8DQM72Xacg1d3mFqS0eN8vKYw.jpg", "genre_ids": [18], "id": 8272, "original_language": "en", "original_title": "The Savages", "overview": "A sister and brother face the realities of familial responsibility as they begin to care for their ailing father.", "poster_path": "/nY54gSmTOmSXlQpWDB7DWp4u8a7.jpg", "release_date": "2007-01-19", "title": "The Savages", "video": false, "vote_average": 6.9, "vote_count": 192, "popularity": 9.466}, {"adult": false, "backdrop_path": "/stSaFz5CtMXwIj3r4MDjqxqWRot.jpg", "genre_ids": [18, 12], "id": 468, "original_language": "en", "original_title": "My Own Private Idaho", "overview": "In this loose adaptation of Shakespeare's \"Henry IV,\" Mike Waters is a gay hustler afflicted with narcolepsy. Scott Favor is the rebellious son of a mayor. Together, the two travel from Portland, Oregon to Idaho and finally to the coast of Italy in a quest to find Mike's estranged mother. Along the way they turn tricks for money and drugs, eventually attracting the attention of a wealthy benefactor and sexual deviant.", "poster_path": "/xgWJPruxsL2TGVwhZDM8YiarbEY.jpg", "release_date": "1991-02-01", "title": "My Own Private Idaho", "video": false, "vote_average": 7.1, "vote_count": 524, "popularity": 14.658}, {"id": 9813, "video": false, "vote_count": 128, "vote_average": 6.1, "title": "The Quiet", "release_date": "2005-09-12", "original_language": "en", "original_title": "The Quiet", "genre_ids": [18, 53], "backdrop_path": "/6eyWAZA4CEidZW1xXnQ4vlYBXTP.jpg", "adult": false, "overview": "After her widowed father dies, deaf teenager Dot moves in with her godparents, Olivia and Paul Deer. The Deers' daughter, Nina, is openly hostile to Dot, but that does not prevent her from telling her secrets to her silent stepsister, including the fact that she wants to kill her lecherous father.", "poster_path": "/GEqIE9YlmygHVUfS64LW2cwAAM.jpg", "popularity": 14.844}, {"id": 4552, "video": false, "vote_count": 497, "vote_average": 7.1, "title": "A Tale of Two Sisters", "release_date": "2003-06-13", "original_language": "ko", "original_title": "\uc7a5\ud654, \ud64d\ub828", "genre_ids": [18, 27, 9648], "backdrop_path": "/6iTvLcCrokveCoVynUobXm8n3uw.jpg", "adult": false, "overview": "A recently released patient from a mental institution returns home with her sister, only to face disturbing events between her stepmother and the ghosts haunting their house- all of which are connected to a dark past in the family's history.", "poster_path": "/8fmnXoIw3e3J7YSr8bzcPica4Dk.jpg", "popularity": 21.081}, {"adult": false, "backdrop_path": "/8ybSuxeEkFoMKMY9lkzzC4tBaI6.jpg", "genre_ids": [18], "id": 334541, "original_language": "en", "original_title": "Manchester by the Sea", "overview": "After his older brother passes away, Lee Chandler is forced to return home to care for his 16-year-old nephew. There he is compelled to deal with a tragic past that separated him from his family and the community where he was born and raised.", "poster_path": "/e8daDzP0vFOnGyKmve95Yv0D0io.jpg", "release_date": "2016-11-18", "title": "Manchester by the Sea", "video": false, "vote_average": 7.5, "vote_count": 3530, "popularity": 17.932}, {"id": 8204, "video": false, "vote_count": 1537, "vote_average": 6.5, "title": "The Spiderwick Chronicles", "release_date": "2008-02-14", "original_language": "en", "original_title": "The Spiderwick Chronicles", "genre_ids": [12, 18, 14, 10751], "backdrop_path": "/2Uwv3eUDRJ9UcjN8AlSg4GDm6TN.jpg", "adult": false, "overview": "Upon moving into the run-down Spiderwick Estate with their mother, twin brothers Jared and Simon Grace, along with their sister Mallory, find themselves pulled into an alternate world full of faeries and other creatures.", "poster_path": "/nSLjsBDzwsIpQL534CNfAKidyAm.jpg", "popularity": 13.069}, {"id": 73, "video": false, "vote_count": 6718, "vote_average": 8.4, "title": "American History X", "release_date": "1998-10-30", "original_language": "en", "original_title": "American History X", "genre_ids": [18], "backdrop_path": "/i9A0UMFg1hI2kLyCCwnmSbpT2cd.jpg", "adult": false, "overview": "Derek Vineyard is paroled after serving 3 years in prison for killing two thugs who tried to break into/steal his truck. Through his brother, Danny Vineyard's narration, we learn that before going to prison, Derek was a skinhead and the leader of a violent white supremacist gang that committed acts of racial crime throughout L.A. and his actions greatly influenced Danny. Reformed and fresh out of prison, Derek severs contact with the gang and becomes determined to keep Danny from going down the same violent path as he did.", "poster_path": "/fXepRAYOx1qC3wju7XdDGx60775.jpg", "popularity": 25.921}, {"adult": false, "backdrop_path": "/51fjuzYoJKvGW43j32nBpWW6Tm1.jpg", "genre_ids": [28, 80, 18, 53], "id": 111, "original_language": "en", "original_title": "Scarface", "overview": "After getting a green card in exchange for assassinating a Cuban government official, Tony Montana stakes a claim on the drug trade in Miami. Viciously murdering anyone who stands in his way, Tony eventually becomes the biggest drug lord in the state, controlling nearly all the cocaine that comes through Miami. But increased pressure from the police, wars with Colombian drug cartels and his own drug-fueled paranoia serve to fuel the flames of his eventual downfall.", "poster_path": "/zr2p353wrd6j3wjLgDT4TcaestB.jpg", "release_date": "1983-12-08", "title": "Scarface", "video": false, "vote_average": 8.1, "vote_count": 6147, "popularity": 29.172}, {"adult": false, "backdrop_path": "/eB43LYncKDJS3p5xYSUN9dUrL2A.jpg", "genre_ids": [18], "id": 205587, "original_language": "en", "original_title": "The Judge", "overview": "A successful lawyer returns to his hometown for his mother's funeral only to discover that his estranged father, the town's judge, is suspected of murder.", "poster_path": "/v6s65U6qisvxWgO3cNnreaaaite.jpg", "release_date": "2014-10-08", "title": "The Judge", "video": false, "vote_average": 7.3, "vote_count": 2564, "popularity": 22.668}, {"adult": false, "backdrop_path": "/8VyW7cJxsdnIfptbPjGCIX1StUe.jpg", "genre_ids": [10749, 18], "id": 1587, "original_language": "en", "original_title": "What's Eating Gilbert Grape", "overview": "Gilbert Grape is a small-town young man with a lot of responsibility. Chief among his concerns are his mother, who is so overweight that she can't leave the house, and his mentally impaired younger brother, Arnie, who has a knack for finding trouble. Settled into a job at a grocery store and an ongoing affair with local woman Betty Carver, Gilbert finally has his life shaken up by the free-spirited Becky.", "poster_path": "/jQLoOPwNxyILwDbdhn9DsfQz0Sg.jpg", "release_date": "1993-12-17", "title": "What's Eating Gilbert Grape", "video": false, "vote_average": 7.7, "vote_count": 2113, "popularity": 20.762}, {"adult": false, "backdrop_path": "/ojn7IYKmMt8HXRd6oLwY5pLGLVc.jpg", "genre_ids": [18, 10749], "id": 9587, "original_language": "en", "original_title": "Little Women", "overview": "With their father away as a chaplain in the Civil War, Jo, Meg, Beth and Amy grow up with their mother in somewhat reduced circumstances. They are a close family who inevitably have their squabbles and tragedies. But the bond holds even when, later, male friends start to become a part of the household.", "poster_path": "/tD9YDE8pjtSvvKUpkmooE6YDSm8.jpg", "release_date": "1994-12-21", "title": "Little Women", "video": false, "vote_average": 7.2, "vote_count": 574, "popularity": 18.707}, {"id": 334, "video": false, "vote_count": 1849, "vote_average": 7.7, "title": "Magnolia", "release_date": "1999-12-10", "original_language": "en", "original_title": "Magnolia", "genre_ids": [18], "backdrop_path": "/9In3XGQSdr2yfgUoEdCpqxEGAOO.jpg", "adult": false, "overview": "An epic mosaic of many interrelated characters in search of happiness, forgiveness, and meaning in the San Fernando Valley.", "poster_path": "/jxkHxPiMfGiFvxSOduNV4oIKJI5.jpg", "popularity": 17.203}, {"adult": false, "backdrop_path": "/2lZYvShWuVThLM6Oo8zfakdBMqw.jpg", "genre_ids": [18, 10749], "id": 1365, "original_language": "en", "original_title": "Monster's Ball", "overview": "Set in the southern USA, a racist white man, Hank, falls in love with a black woman named Leticia. Ironically, Hank is a prison guard working on Death Row who executed Leticia's husband. Hank and Leticia's inter-racial affair leads to confusion and new ideas for the two unlikely lovers.", "poster_path": "/s7o0AyOFIYNjTe008pV6EZMI2IP.jpg", "release_date": "2001-11-11", "title": "Monster's Ball", "video": false, "vote_average": 6.7, "vote_count": 500, "popularity": 13.305}, {"id": 277216, "video": false, "vote_count": 2190, "vote_average": 7.7, "title": "Straight Outta Compton", "release_date": "2015-08-13", "original_language": "en", "original_title": "Straight Outta Compton", "genre_ids": [18, 10402], "backdrop_path": "/fdDTA06o5e7MRXnTGAf4EygL2MJ.jpg", "adult": false, "overview": "In 1987, five young men, using brutally honest rhymes and hardcore beats, put their frustration and anger about life in the most dangerous place in America into the most powerful weapon they had: their music.  Taking us back to where it all began, Straight Outta Compton tells the true story of how these cultural rebels\u2014armed only with their lyrics, swagger, bravado and raw talent\u2014stood up to the authorities that meant to keep them down and formed the world\u2019s most dangerous group, N.W.A.  And as they spoke the truth that no one had before and exposed life in the hood, their voice ignited a social revolution that is still reverberating today.", "poster_path": "/X7S1RtotXOZNV7OlgCfh5VKZSB.jpg", "popularity": 19.816}, {"id": 4347, "video": false, "vote_count": 2233, "vote_average": 7.6, "title": "Atonement", "release_date": "2007-08-29", "original_language": "en", "original_title": "Atonement", "genre_ids": [18, 10749], "backdrop_path": "/6WZFwJOKyitCqWkIj52HB34wddU.jpg", "adult": false, "overview": "As a 13-year-old, fledgling writer Briony Tallis irrevocably changes the course of several lives when she accuses her older sister's lover of a crime he did not commit.", "poster_path": "/quaWuwYZd8IbZMCOhW3CZEvyCWJ.jpg", "popularity": 16.832}, {"adult": false, "backdrop_path": "/tBs9alJ2weUkOW83RkuBlz8Nlw6.jpg", "genre_ids": [18, 14], "id": 8967, "original_language": "en", "original_title": "The Tree of Life", "overview": "The impressionistic story of a Texas family in the 1950s. The film follows the life journey of the eldest son, Jack, through the innocence of childhood to his disillusioned adult years as he tries to reconcile a complicated relationship with his father. Jack finds himself a lost soul in the modern world, seeking answers to the origins and meaning of life while questioning the existence of faith.", "poster_path": "/ptDOdfOg0srtk4TGdeYbLqxv2nd.jpg", "release_date": "2011-05-18", "title": "The Tree of Life", "video": false, "vote_average": 6.6, "vote_count": 1905, "popularity": 12.901}, {"id": 8293, "video": false, "vote_count": 234, "vote_average": 7.1, "title": "Howards End", "release_date": "1992-03-13", "original_language": "en", "original_title": "Howards End", "genre_ids": [18, 10749], "backdrop_path": "/dq5JGFP6a3B7e8kpDD0Mxj7nOca.jpg", "adult": false, "overview": "A saga of class relations and changing times in an Edwardian England on the brink of modernity, the film centers on liberal Margaret Schlegel, who, along with her sister Helen, becomes involved with two couples: wealthy, conservative industrialist Henry Wilcox and his wife Ruth, and the downwardly mobile working-class Leonard Bast and his mistress Jackie.", "poster_path": "/lqeddpBOUa6jqx3MRogIYeHj6MG.jpg", "popularity": 11.565}, {"adult": false, "backdrop_path": "/ppDnBvf0f7vCZHRLtDjazpYHdTF.jpg", "genre_ids": [35, 10402, 10749], "id": 13368, "original_language": "en", "original_title": "White Christmas", "overview": "Two talented song-and-dance men team up after the war to become one of the hottest acts in show business. In time they befriend and become romantically involved with the beautiful Haynes sisters who comprise a sister act.", "poster_path": "/A5kBQsHKbIptxJyELEpHQJROCRj.jpg", "release_date": "1954-10-14", "title": "White Christmas", "video": false, "vote_average": 7.4, "vote_count": 250, "popularity": 10.494}, {"id": 9679, "video": false, "vote_count": 2590, "vote_average": 6.3, "title": "Gone in Sixty Seconds", "release_date": "2000-06-09", "original_language": "en", "original_title": "Gone in Sixty Seconds", "genre_ids": [28, 80, 53], "backdrop_path": "/uqd4cqpp6gbs6zG6izBUaCorgjv.jpg", "adult": false, "overview": "Upon learning that he has to come out of retirement to steal 50 cars in one night to save his brother Kip's life, former car thief Randall \"Memphis\" Raines enlists help from a few \"boost happy\" pals to accomplish a seemingly impossible feat. From countless car chases to relentless cops, the high-octane excitement builds as Randall swerves around more than a few roadblocks to keep Kip alive.", "poster_path": "/77TxKvRiX0c5JR6l4fxcN19prOy.jpg", "popularity": 20.394}, {"id": 493922, "video": false, "vote_count": 3302, "vote_average": 7.1, "title": "Hereditary", "release_date": "2018-06-07", "original_language": "en", "original_title": "Hereditary", "genre_ids": [27, 9648, 53], "backdrop_path": "/4DUoPZOHdPuROP4nyEIsPaMIiQl.jpg", "adult": false, "overview": "When Ellen, the matriarch of the Graham family, passes away, her daughter\u2019s family begins to unravel cryptic and increasingly terrifying secrets about their ancestry.", "poster_path": "/lHV8HHlhwNup2VbpiACtlKzaGIQ.jpg", "popularity": 26.426}], "total_pages": 140, "total_results": 2781}, "recommendations": {"page": 1, "results": [{"adult": false, "backdrop_path": "/oxZXhuDKbtqnF7xnCY0xuqCbACS.jpg", "genre_ids": [99], "id": 50951, "original_language": "en", "original_title": "Chained Girls", "overview": "This exploitation classic purports to expose the secrets of the 1960s lesbian underworld.", "poster_path": "/1lPCceAAb5imQycnfL3oxc4slN4.jpg", "release_date": "1965-03-25", "title": "Chained Girls", "video": false, "vote_average": 4.3, "vote_count": 7, "popularity": 1.98}], "total_pages": 1, "total_results": 1}, "credits": {"cast": [{"cast_id": 4, "character": "Jessie", "credit_id": "553f987cc3a3687845010b35", "gender": 0, "id": 1383381, "name": "Larue Hall", "order": 0, "profile_path": null}, {"cast_id": 5, "character": "Carl (as Ted Heim)", "credit_id": "553f9884c3a3683e1400a250", "gender": 0, "id": 1460335, "name": "Ted Heimerdinger", "order": 1, "profile_path": null}, {"cast_id": 6, "character": "Mae (as Marj Johnson)", "credit_id": "553f988bc3a3683e1400a254", "gender": 0, "id": 1329245, "name": "Marjorie Lee-Johnson", "order": 2, "profile_path": null}, {"cast_id": 9, "character": "Virgil", "credit_id": "56e6e5d4c3a3685aa400a354", "gender": 2, "id": 15693, "name": "John Crawford", "order": 3, "profile_path": "/wyBwzmRGML0PoIxJ2DnQAOBgmqu.jpg"}, {"cast_id": 10, "character": "Jessica's Sister", "credit_id": "58a62509925141346b000b3a", "gender": 1, "id": 1759358, "name": "Tracy Smith", "order": 4, "profile_path": null}, {"cast_id": 19, "character": "Gas Station Owner", "credit_id": "5baa61a892514150eb0016b9", "gender": 0, "id": 2135027, "name": "David Ayres", "order": 5, "profile_path": null}], "crew": [{"credit_id": "553f9842c3a36820ec00746c", "department": "Directing", "gender": 2, "id": 1460332, "job": "Director", "name": "J.L. Anderson", "profile_path": null}, {"credit_id": "553f984e9251411435005806", "department": "Writing", "gender": 2, "id": 1460332, "job": "Screenplay", "name": "J.L. Anderson", "profile_path": null}, {"credit_id": "553f985fc3a36879e70039eb", "department": "Writing", "gender": 0, "id": 1460333, "job": "Screenplay", "name": "Franklin Miller", "profile_path": null}, {"credit_id": "553f986e92514138a900c6d1", "department": "Writing", "gender": 0, "id": 1460334, "job": "Screenplay", "name": "Doug Rapp", "profile_path": null}, {"credit_id": "5baa612392514150eb001594", "department": "Production", "gender": 0, "id": 1460333, "job": "Producer", "name": "Franklin Miller", "profile_path": null}, {"credit_id": "5baa612ec3a3683a9c00131c", "department": "Production", "gender": 2, "id": 1460332, "job": "Producer", "name": "J.L. Anderson", "profile_path": null}, {"credit_id": "5baa613692514150ee000e7b", "department": "Camera", "gender": 0, "id": 2135021, "job": "Director of Photography", "name": "Brian Blauser", "profile_path": null}, {"credit_id": "5baa614892514150ee000e99", "department": "Camera", "gender": 0, "id": 2135022, "job": "Director of Photography", "name": "David Prince", "profile_path": null}, {"credit_id": "5baa614fc3a3683aa2001247", "department": "Camera", "gender": 0, "id": 2135023, "job": "Director of Photography", "name": "Art Stifel", "profile_path": null}, {"credit_id": "5baa61580e0a2664df001816", "department": "Editing", "gender": 2, "id": 1460332, "job": "Editor", "name": "J.L. Anderson", "profile_path": null}, {"credit_id": "5baa61620e0a2664df001838", "department": "Editing", "gender": 0, "id": 1460333, "job": "Editor", "name": "Franklin Miller", "profile_path": null}, {"credit_id": "5baa61680e0a2664d7001228", "department": "Sound", "gender": 0, "id": 2135024, "job": "Sound", "name": "Bill Heim", "profile_path": null}]}}