{"adult": false, "backdrop_path": "/pCLYQ36zZppbMWG21GC0iDIwL9g.jpg", "belongs_to_collection": null, "budget": 0, "genres": [{"id": 35, "name": "Comedy"}, {"id": 10751, "name": "Family"}], "homepage": "", "id": 33331, "imdb_id": "tt0070928", "original_language": "en", "original_title": "The World's Greatest Athlete", "overview": "Stuck with a feeble sports department, college coach Sam Archer (John Amos) faces the ax unless he can reverse the school's athletic fortunes. An African vacation with his assistant (Tim Conway) answers Archer's prayers when he spots the athletically gifted Nanu (Jan-Michael Vincent). Sam counts on Nanu's remarkable abilities to put the team back on the winning track. This upbeat farce boasts an impressive cast of comedians.", "popularity": 4.825, "poster_path": "/di58lxo5HPzC3OBQE2U8bQsIDYy.jpg", "production_companies": [{"id": 3166, "logo_path": "/vyyv4Gy9nPqAZKElPm2izLlEaVS.png", "name": "Walt Disney Productions", "origin_country": "US"}], "production_countries": [{"iso_3166_1": "US", "name": "United States of America"}], "release_date": "1973-02-14", "revenue": 0, "runtime": 93, "spoken_languages": [{"iso_639_1": "en", "name": "English"}], "status": "Released", "tagline": "From the JUNGLE to the GYM...He's the Greatest!", "title": "The World's Greatest Athlete", "video": false, "vote_average": 5.5, "vote_count": 13, "keywords": {"keywords": [{"id": 6075, "name": "sport"}]}, "similar": {"page": 1, "results": [{"adult": false, "backdrop_path": "/n1Gh3MJAVvXmkgSDf3SOLlPCjag.jpg", "genre_ids": [35, 18, 10749], "id": 9390, "original_language": "en", "original_title": "Jerry Maguire", "overview": "Jerry Maguire used to be a typical sports agent: willing to do just about anything he could to get the biggest possible contracts for his clients, plus a nice commission for himself. Then, one day, he suddenly has second thoughts about what he's really doing. When he voices these doubts, he ends up losing his job and all of his clients, save Rod Tidwell, an egomaniacal football player.", "poster_path": "/99YTEdKOKDRClsscOpJfdkbaTrQ.jpg", "release_date": "1996-12-13", "title": "Jerry Maguire", "video": false, "vote_average": 6.9, "vote_count": 1794, "popularity": 16.867}, {"adult": false, "backdrop_path": "/kBTdPNTAzagAY6UiwY957KCDGuu.jpg", "genre_ids": [16, 35, 10751], "id": 2300, "original_language": "en", "original_title": "Space Jam", "overview": "Swackhammer, an evil alien theme park owner, needs a new attraction at Moron Mountain. When his gang, the Nerdlucks, heads to Earth to kidnap Bugs Bunny and the Looney Tunes, Bugs challenges them to a basketball game to determine their fate. The aliens agree, but they steal the powers of NBA basketball players, including Larry Bird and Charles Barkley -- so Bugs gets some help from superstar Michael Jordan.", "poster_path": "/xI9AwhOWtsbFlS8tYD2PXa80p7u.jpg", "release_date": "1996-11-15", "title": "Space Jam", "video": false, "vote_average": 6.7, "vote_count": 3179, "popularity": 15.582}, {"adult": false, "backdrop_path": "/qVjKZMB0IdOc2JlwiiGsuKTvTJs.jpg", "genre_ids": [18], "id": 22881, "original_language": "en", "original_title": "The Blind Side", "overview": "The story of Michael Oher, a homeless and traumatized boy who became an All American football player and first round NFL draft pick with the help of a caring woman and her family", "poster_path": "/wEGFSgPebLk6g1ngKsJ6a46PYLV.jpg", "release_date": "2009-11-20", "title": "The Blind Side", "video": false, "vote_average": 7.5, "vote_count": 3212, "popularity": 30.144}, {"id": 396371, "video": false, "vote_count": 1968, "vote_average": 7.1, "title": "Molly's Game", "release_date": "2017-12-25", "original_language": "en", "original_title": "Molly's Game", "genre_ids": [80, 18], "backdrop_path": "/rHcBZ6ZKCe4FalWHyvBGsyMsh0k.jpg", "adult": false, "overview": "Molly Bloom, a young skier and former Olympic hopeful becomes a successful entrepreneur (and a target of an FBI investigation) when she establishes a high-stakes, international poker game.", "poster_path": "/in43bQ7k0ttr666IPP94IlbQbTR.jpg", "popularity": 18.118}, {"adult": false, "backdrop_path": "/jK3EAFk3GdOaQfUDCOiTujzMpwH.jpg", "genre_ids": [18], "id": 389015, "original_language": "en", "original_title": "I, Tonya", "overview": "Competitive ice skater Tonya Harding rises amongst the ranks at the U. S. Figure Skating Championships, but her future in the sport is thrown into doubt when her ex-husband intervenes.", "poster_path": "/6gNXwSHxaksR1PjVZRqNapmkgj3.jpg", "release_date": "2017-12-08", "title": "I, Tonya", "video": false, "vote_average": 7.5, "vote_count": 3327, "popularity": 19.513}, {"id": 227306, "video": false, "vote_count": 2437, "vote_average": 7.4, "title": "Unbroken", "release_date": "2014-12-25", "original_language": "en", "original_title": "Unbroken", "genre_ids": [18, 10752], "backdrop_path": "/eSbKT3v3RKFRGeOmxJbZhIvrevR.jpg", "adult": false, "overview": "A chronicle of the life of Louis Zamperini, an Olympic runner who was taken prisoner by Japanese forces during World War II.", "poster_path": "/1un8i8UtCjSCnY3OfdxtB5kDRvF.jpg", "popularity": 18.912}, {"id": 8923, "video": false, "vote_count": 1358, "vote_average": 7.2, "title": "Green Street Hooligans", "release_date": "2005-09-09", "original_language": "en", "original_title": "Green Street Hooligans", "genre_ids": [80, 18], "backdrop_path": "/oasVTD3UpTEjhTAVx9ZCy1k19Qv.jpg", "adult": false, "overview": "After being wrongfully expelled from Harvard University, American Matt Buckner flees to his sister's home in England. Once there, he is befriended by her charming and dangerous brother-in-law, Pete Dunham, and introduced to the underworld of British football hooliganism. Matt learns to stand his ground through a friendship that develops against the backdrop of this secret and often violent world. 'Green Street Hooligans' is a story of loyalty, trust and the sometimes brutal consequences of living close to the edge.", "poster_path": "/z3LC4kI8azbeuHRGgDdWo6VBCdX.jpg", "popularity": 14.424}, {"adult": false, "backdrop_path": "/9lrM0o89ASyHmDgMLfCbU5qdsAm.jpg", "genre_ids": [35, 18], "id": 9291, "original_language": "en", "original_title": "The Longest Yard", "overview": "Pro quarter-back, Paul Crewe and former college champion and coach, Nate Scarboro are doing time in the same prison. Asked to put together a team of inmates to take on the guards, Crewe enlists the help of Scarboro to coach the inmates to victory in a football game 'fixed' to turn out quite another way.", "poster_path": "/ag6q9euZABqbHtbDhoRT9xEYltP.jpg", "release_date": "2005-05-27", "title": "The Longest Yard", "video": false, "vote_average": 6.4, "vote_count": 1764, "popularity": 17.65}, {"adult": false, "backdrop_path": "/mYKP6qcDUimVMAHQWLOuDHjO19S.jpg", "genre_ids": [35], "id": 445629, "original_language": "en", "original_title": "Fighting with My Family", "overview": "Born into a tight-knit wrestling family, Paige and her brother Zak are ecstatic when they get the once-in-a-lifetime opportunity to try out for the WWE. But when only Paige earns a spot in the competitive training program, she must leave her loved ones behind and face this new cutthroat world alone. Paige's journey pushes her to dig deep and ultimately prove to the world that what makes her different is the very thing that can make her a star.", "poster_path": "/cVhe15rJLRjolunSWLBN6xQLyGU.jpg", "release_date": "2019-02-14", "title": "Fighting with My Family", "video": false, "vote_average": 6.7, "vote_count": 642, "popularity": 23.641}, {"adult": false, "backdrop_path": "/qnWGw3n1R0OhPkoB1cYTTax5LMU.jpg", "genre_ids": [35, 10751, 14], "id": 23023, "original_language": "en", "original_title": "Tooth Fairy", "overview": "When minor-league hockey player Derek Thompson -- who has a penchant for knocking out his opponents' teeth every time he plays -- disillusions a fan, he is sentenced to a stint for one week as a bona fide, tutu-clad, real-life tooth fairy. Soon, Derek is inspired to rekindle his youthful dreams.", "poster_path": "/gNQA76kl251IuJVKMHfrRE12p7j.jpg", "release_date": "2010-01-14", "title": "Tooth Fairy", "video": false, "vote_average": 5.4, "vote_count": 1226, "popularity": 31.96}, {"id": 37136, "video": false, "vote_count": 1996, "vote_average": 7.2, "title": "The Naked Gun: From the Files of Police Squad!", "release_date": "1988-12-02", "original_language": "en", "original_title": "The Naked Gun: From the Files of Police Squad!", "genre_ids": [35, 80], "backdrop_path": "/vBvfE7oUpJggU1Cf4UXgeeXocsg.jpg", "adult": false, "overview": "When the incompetent Officer Frank Drebin seeks the ruthless killer of his partner, he stumbles upon an attempt to assassinate Queen Elizabeth.", "poster_path": "/gajZQkZjVXPuLJUMoEk1eVeZz61.jpg", "popularity": 18.585}, {"id": 522924, "video": false, "vote_count": 150, "vote_average": 8.1, "title": "The Art of Racing in the Rain", "release_date": "2019-08-08", "original_language": "en", "original_title": "The Art of Racing in the Rain", "genre_ids": [35, 18, 10749], "backdrop_path": "/6esNUoXh4xQvucB7o7e3TCfjI65.jpg", "adult": false, "overview": "A family dog\u2014with a near-human soul and a philosopher's mind\u2014evaluates his life through the lessons learned by his human owner, a race-car driver.", "poster_path": "/mi5VN4ww0JZgRFJIaPxxTGKjUg7.jpg", "popularity": 17.008}, {"id": 703, "video": false, "vote_count": 2268, "vote_average": 7.8, "title": "Annie Hall", "release_date": "1977-04-19", "original_language": "en", "original_title": "Annie Hall", "genre_ids": [35, 18, 10749], "backdrop_path": "/8iNt5LGxpX9XeNWJgjx17xfTT7u.jpg", "adult": false, "overview": "New York comedian Alvy Singer falls in love with the ditsy Annie Hall.", "poster_path": "/bK9bLXwxWuXX5mbq75PZqjvAtfG.jpg", "popularity": 15.038}, {"id": 651, "video": false, "vote_count": 478, "vote_average": 7.1, "title": "M*A*S*H", "release_date": "1970-01-24", "original_language": "en", "original_title": "M*A*S*H", "genre_ids": [35, 18, 10752], "backdrop_path": "/l5YH6TCYi2mgZwXbDjF71iA9UBP.jpg", "adult": false, "overview": "The staff of a Korean War field hospital use humor and high jinks to keep their sanity in the face of the horror of war.", "poster_path": "/cscyvJ4nDgbqewrttPXZ5EYOdwa.jpg", "popularity": 11.845}, {"id": 387592, "video": false, "vote_count": 393, "vote_average": 6.0, "title": "Early Man", "release_date": "2018-01-26", "original_language": "en", "original_title": "Early Man", "genre_ids": [12, 16, 35, 10751], "backdrop_path": "/9m71RMP45mg599xtKPyjicyHn1a.jpg", "adult": false, "overview": "Dug, along with his sidekick Hognob, unite a cavemen tribe to save their hidden valley from being spoiled and, all together as a team, to face the menace of a mysterious and mighty enemy, on the turf of an ancient and sacred sport.", "poster_path": "/5iW2rntwLZoGlFCYYy8TjHyblbw.jpg", "popularity": 15.752}, {"adult": false, "backdrop_path": "/eD8PxfDsmWyUcj2LzQ9Ha2O7UvB.jpg", "genre_ids": [99], "id": 614423, "original_language": "en", "original_title": "Collingwood: From The Inside Out", "overview": "An  intimate look at Collingwood Football Club as it rebuilds itself and aims for glory over the course of the 2018 season.", "poster_path": "/dsJMvBJ7M2HvGkJdhW4nKNHEgDs.jpg", "release_date": "2019-08-15", "title": "Collingwood: From The Inside Out", "video": false, "vote_average": 1.0, "vote_count": 1, "popularity": 1.602}, {"adult": false, "backdrop_path": "/20IgqkdFw5kuItqDCJtidSESP0t.jpg", "genre_ids": [27, 18], "id": 10066, "original_language": "en", "original_title": "House of Wax", "overview": "A group of unwitting teens are stranded near a strange wax museum and soon must fight to survive and keep from becoming the next exhibit.", "poster_path": "/uM1RebQywM5PPYsauayefpXGxVk.jpg", "release_date": "2005-04-30", "title": "House of Wax", "video": false, "vote_average": 5.7, "vote_count": 1531, "popularity": 21.972}, {"id": 630633, "video": false, "vote_count": 0, "vote_average": 0.0, "title": "Varane : Destin de Champion", "release_date": "2019-09-23", "original_language": "fr", "original_title": "Varane : Destin de Champion", "genre_ids": [99], "backdrop_path": null, "adult": false, "overview": "", "poster_path": "/ecUI8DO8lfk5FUca0IF2SNgsgtn.jpg", "popularity": 1.106}, {"id": 107, "video": false, "vote_count": 5245, "vote_average": 7.8, "title": "Snatch", "release_date": "2000-09-01", "original_language": "en", "original_title": "Snatch", "genre_ids": [80, 53], "backdrop_path": "/cNLZ7YGRikb4IsLblrzu86ndZPw.jpg", "adult": false, "overview": "The second film from British director Guy Ritchie. Snatch tells an obscure story similar to his first fast-paced crazy character-colliding filled film \u201cLock, Stock and Two Smoking Barrels.\u201d There are two overlapping stories here \u2013 one is the search for a stolen diamond, and the other about a boxing promoter who\u2019s having trouble with a psychotic gangster.", "poster_path": "/on9JlbGEccLsYkjeEph2Whm1DIp.jpg", "popularity": 25.391}, {"id": 391757, "video": false, "vote_count": 185, "vote_average": 6.5, "title": "Never Back Down: No Surrender", "release_date": "2016-06-07", "original_language": "en", "original_title": "Never Back Down: No Surrender", "genre_ids": [28, 18], "backdrop_path": "/pzjnObK3uiHcKwiir9OPPWzbW8f.jpg", "adult": false, "overview": "Picking up after the events of Never Back Down 2, former MMA champion Case Walker is on the comeback trail to become champion once again.", "poster_path": "/dYNS4o4Q4DDLiKRAAvZ9KcrhHuy.jpg", "popularity": 16.224}], "total_pages": 183, "total_results": 3653}, "recommendations": {"page": 1, "results": [{"adult": false, "backdrop_path": null, "genre_ids": [10751, 12], "id": 290162, "original_language": "en", "original_title": "Chandar, the Black Leopard of Ceylon", "overview": "Chandar is a black leopard who lives near the beach of Ceylon (Sri Lanka) together with his mother and his sister.", "poster_path": "/xcrYwVN5OfMovSnKMy7Qceh5wQO.jpg", "release_date": "1972-11-26", "title": "Chandar, the Black Leopard of Ceylon", "video": false, "vote_average": 6.0, "vote_count": 3, "popularity": 2.705}, {"adult": false, "backdrop_path": "/29RfFxYQ5ZXXLONajd7d23vNPF0.jpg", "genre_ids": [12, 10751], "id": 290164, "original_language": "en", "original_title": "A Tale of Two Critters", "overview": "A bear cub and a raccoon become fast friends when they're swept away down a river, away from their families.", "poster_path": "/wjd8kx6Dmnx0or9MQrdWmAkENda.jpg", "release_date": "1977-06-22", "title": "A Tale of Two Critters", "video": false, "vote_average": 7.0, "vote_count": 3, "popularity": 2.908}, {"adult": false, "backdrop_path": null, "genre_ids": [10751, 12], "id": 400400, "original_language": "en", "original_title": "The Boy Who Talked to Badgers", "overview": "A young boy gets along better with the animals he befriends around his family's Canadian farm than with the people he lives with.", "poster_path": "/jOsF24i6oFsubE5XjYZgvqogGen.jpg", "release_date": "1975-09-14", "title": "The Boy Who Talked to Badgers", "video": false, "vote_average": 6.0, "vote_count": 3, "popularity": 2.047}, {"adult": false, "backdrop_path": null, "genre_ids": [12, 10751], "id": 290163, "original_language": "en", "original_title": "Mustang", "overview": "Pechudo is a magnificent jet-black stallion who epitomizes the adjective, \"freedom.\" Running wild in Mexico, Pechudo and his running mates are constantly being sought out and captured by ranchers. Time and again, however, Pechudo would elude capture, then return and seek out his fellow mustangs and free them, and the adventure would repeat itself.", "poster_path": "/akoULm9w5xm4o6rCTlXsrSA0G12.jpg", "release_date": "1973-10-07", "title": "Mustang", "video": false, "vote_average": 7.0, "vote_count": 3, "popularity": 2.071}, {"adult": false, "backdrop_path": "/oTqvZxE4QKUv3Q5zZ0lQowqLO3l.jpg", "genre_ids": [12, 37], "id": 64862, "original_language": "en", "original_title": "Westward Ho, The Wagons!", "overview": "The pioneering trail to Oregon was littered with constant danger. Yet, the hope of the \"promised land\" keeps American families westward bound despite overwhelming odds. A calm, clear-thinking pioneer attempts to lead a wagon train through territory occupied by Pawnees and Sioux. Along the way, the hardy settlers face horse thieves, kidnappers, and unpredictable Indian attacks in their push to establish a new life in the rugged West.", "poster_path": "/u53HQ94A76APoXXh5vtzJY5jOAe.jpg", "release_date": "1956-12-20", "title": "Westward Ho, The Wagons!", "video": false, "vote_average": 5.9, "vote_count": 4, "popularity": 3.341}, {"id": 217977, "video": false, "vote_count": 4, "vote_average": 6.5, "title": "Amy", "release_date": "1981-03-20", "original_language": "en", "original_title": "Amy", "genre_ids": [], "backdrop_path": "/rqM0XahMqeS0eOlpUXMTbkE5CqG.jpg", "adult": false, "overview": "A woman leaves her husband after the death of her child to teach deaf children how to speak. Her own child was deaf and although she has no formal training she successfully teaches one boy.", "poster_path": "/oHjivzfwCrWqxkkYEuJruY9PfOL.jpg", "popularity": 4.069}, {"adult": false, "backdrop_path": "/yQQ47czcfyLjJOK8145OKWZpZyC.jpg", "genre_ids": [35, 10751, 10770], "id": 6558, "original_language": "en", "original_title": "Mail To The Chief", "overview": "A humorous and inspiring adventure about an ordinary middle school student who strikes up an online friendship with someone bearing the screen name Average Joe, only to discover that he's been corresponding with and giving political advice to the President of the United States.", "poster_path": "/970JAeX2zbM1JkUuwICfmgNFPoL.jpg", "release_date": "2000-04-02", "title": "Mail To The Chief", "video": false, "vote_average": 4.8, "vote_count": 4, "popularity": 3.777}, {"adult": false, "backdrop_path": "/D3SMaYHffnaDk3gV72Ip5gBhLd.jpg", "genre_ids": [28, 37], "id": 38682, "original_language": "en", "original_title": "The Battle at Apache Pass", "overview": "The movie depicts a fictionalized account of \"The Bascom Affair\" of 1861 and \"The battle of Apache pass\" of 1862. U.S. Cavalry officer Maj. Jim Colton(John Lund) is a sympathetic leader who has a working relationship with Apache leader Cochise(Jeff Chandler). Maj. Colton is undermined by corrupt and politically ambitious Indian agent Neil Baylor(Bruce Cowling) who sets up a false attack, and the abduction of a local farmer's son. While Colton is away investigating the matter, Baylor convinces Lt. George Bascom(John Hudson) that Cochise's band is to blame, and incites him to lead an expedition against the Apache band to return the boy. The expedition ends in disaster, with hostages executed on both sides. The Apaches and Cavalry later meet in a battle at Apache pass, the first time that the Indians meet modern (for the age) artillery", "poster_path": "/aevp75fNBMxsJMI3wl9v6n3G2Sp.jpg", "release_date": "1952-04-01", "title": "The Battle at Apache Pass", "video": false, "vote_average": 5.8, "vote_count": 7, "popularity": 4.262}, {"id": 53719, "video": false, "vote_count": 6, "vote_average": 5.1, "title": "New Frontier", "release_date": "1939-08-10", "original_language": "en", "original_title": "New Frontier", "genre_ids": [37], "backdrop_path": "/y1k2uoS1TzneYBNtQ09EqmzLjvk.jpg", "adult": false, "overview": "The Three Mesquiteers convince a group of settlers to exchange their present property for some which, unbeknownst to our goodguys, is going to be worthless. They are captured before they can warn the ranchers.", "poster_path": "/hkzHU6qma8nf3x7bU1O5bZBqACI.jpg", "popularity": 2.904}, {"adult": false, "backdrop_path": "/quseiuHZWKbKX9Vahq2GYHt14l3.jpg", "genre_ids": [10751, 35, 37], "id": 45827, "original_language": "en", "original_title": "One Little Indian", "overview": "An Army deserter (James Garner) flees by camel across the desert with a white boy (Clay O'Brien) raised by Indians.", "poster_path": "/9wvojM2AKUtzXXIaZObUVNp1Ykw.jpg", "release_date": "1973-06-20", "title": "One Little Indian", "video": false, "vote_average": 6.6, "vote_count": 9, "popularity": 4.374}, {"id": 56067, "video": false, "vote_count": 8, "vote_average": 5.6, "title": "The Biscuit Eater", "release_date": "1972-03-22", "original_language": "en", "original_title": "The Biscuit Eater", "genre_ids": [18, 10751], "backdrop_path": "/fckHPyRcf1uZPkzNJJjLBcNzNLt.jpg", "adult": false, "overview": "Nothing warms the heart like the story of a boy and his dog. Lonnie (Johnny Whitaker) and Text (George Spell) are two friends determined, against all odds, to turn a misfit hound into a hero. Tennessee farmer and dog trainer Harve McNeil (Earl Holliman) tells his son Lonnie that his dog, Moreover, is a good-for-nothing \"biscuit eater.\"", "poster_path": "/ej4XBo3Hvdm8fVSaPhp8DVDf0S6.jpg", "popularity": 3.111}, {"id": 236833, "video": false, "vote_count": 9, "vote_average": 6.2, "title": "Tigger & Pooh and a Musical Too", "release_date": "2009-04-07", "original_language": "en", "original_title": "Tigger & Pooh and a Musical Too", "genre_ids": [16, 10751], "backdrop_path": "/dExxW8jdHTYyCXaFEL5zHIEzLsq.jpg", "adult": false, "overview": "When Rabbit is named Mayor of the Hundred Acre Wood, the position goes to his head and he starts making crazy rules, including one that forbids Tigger from bouncing. Everyone in the wood must choose sides, until a little girl loses her dog Buster and everyone must join together to find him.", "poster_path": "/zMGyTLglovX3xBpIbY77Xtpne3x.jpg", "popularity": 6.713}, {"adult": false, "backdrop_path": "/5icUhTAYnQoznQ3QilPOOpS12l9.jpg", "genre_ids": [37], "id": 90406, "original_language": "en", "original_title": "Tribute to a Bad Man", "overview": "Jeremy Rodock is a tough horse rancher who strings up rustlers soon as look at them. Fresh out of Pennsylvania, Steve Miller finds it hard to get used to Rodock's ways, although he takes an immediate shine to his Greek girl Jocasta.", "poster_path": "/5OdfDmdoai74hoslaZ4aoCw1xf6.jpg", "release_date": "1956-03-30", "title": "Tribute to a Bad Man", "video": false, "vote_average": 6.7, "vote_count": 11, "popularity": 3.351}, {"id": 32140, "video": false, "vote_count": 17, "vote_average": 6.5, "title": "Snowball Express", "release_date": "1972-01-01", "original_language": "en", "original_title": "Snowball Express", "genre_ids": [35, 10751], "backdrop_path": "/qMf97jJ4OZdy2wSm59ZlAvHg1Ei.jpg", "adult": false, "overview": "When John Baxter inherits a ski resort in the Rocky Mountains, he quits his job in New York and moves the family west to run it. Only to find that the place is a wreck. But together they decide to try to fix it up and run it. But Martin Ridgeway, who wants the property, does everything he can to ensure it will fail.", "poster_path": "/ubTRDYqMdJdJCe8COyXWBLq2M4e.jpg", "popularity": 6.131}, {"adult": false, "backdrop_path": "/pT1BT277I7EvVi1LFuBhnFMPLDU.jpg", "genre_ids": [28, 35, 10751, 37], "id": 28736, "original_language": "en", "original_title": "Hot Lead & Cold Feet", "overview": "Twin brothers -- one rough and tough, the other a city-bred milquetoast -- compete for their father's fortune.", "poster_path": "/76gyq1dLLdptHxd2nnF9ugDFCJq.jpg", "release_date": "1978-07-05", "title": "Hot Lead & Cold Feet", "video": false, "vote_average": 5.9, "vote_count": 17, "popularity": 5.148}], "total_pages": 1, "total_results": 15}, "credits": {"cast": [{"cast_id": 1, "character": "Nanu", "credit_id": "52fe450d9251416c91025e2d", "gender": 2, "id": 83037, "name": "Jan-Michael Vincent", "order": 0, "profile_path": "/6UTYjmRiqGKbVt6em01UWMWirIZ.jpg"}, {"cast_id": 2, "character": "Milo Jackson", "credit_id": "52fe450d9251416c91025e31", "gender": 2, "id": 83414, "name": "Tim Conway", "order": 1, "profile_path": "/non96yYuFTWnopBgNtj1MWcm0Z5.jpg"}, {"cast_id": 3, "character": "Coach Sam Archer", "credit_id": "52fe450d9251416c91025e35", "gender": 2, "id": 22384, "name": "John Amos", "order": 2, "profile_path": "/rg1nwaUNLQ2ibI0HYEzdXJhgWWn.jpg"}, {"cast_id": 4, "character": "Gazenga", "credit_id": "52fe450d9251416c91025e39", "gender": 2, "id": 24368, "name": "Roscoe Lee Browne", "order": 3, "profile_path": "/m0Q5VCyjcXXN5w6MHulOMD1r6ZK.jpg"}, {"cast_id": 6, "character": "Jane", "credit_id": "52fe450d9251416c91025e43", "gender": 1, "id": 63936, "name": "Dayle Haddon", "order": 4, "profile_path": "/8NYWB0A425Yn0ynmDJzYNaV1qQN.jpg"}, {"cast_id": 7, "character": "Dean Maxwell", "credit_id": "52fe450d9251416c91025e47", "gender": 2, "id": 110135, "name": "Billy De Wolfe", "order": 5, "profile_path": "/h1RF7Lj8fZ9Ut6TPDqQGhctylwu.jpg"}, {"cast_id": 8, "character": "Mrs. Petersen", "credit_id": "52fe450d9251416c91025e4b", "gender": 1, "id": 47503, "name": "Nancy Walker", "order": 6, "profile_path": "/93RuE8xoIMmuWQ4H4qsql1gGiw7.jpg"}, {"cast_id": 9, "character": "Games spectator", "credit_id": "52fe450d9251416c91025e4f", "gender": 2, "id": 82779, "name": "Vito Scotti", "order": 7, "profile_path": "/pN3aRdEF78xyCHsZrju56FO12wK.jpg"}, {"cast_id": 10, "character": "Himself - Announcer", "credit_id": "52fe450d9251416c91025e53", "gender": 2, "id": 153575, "name": "Howard Cosell", "order": 8, "profile_path": "/yLWDtrPsoK3gUVveAGOsqijzMPe.jpg"}, {"cast_id": 11, "character": "Himself - Announcer", "credit_id": "52fe450d9251416c91025e57", "gender": 2, "id": 177434, "name": "Frank Gifford", "order": 9, "profile_path": null}, {"cast_id": 12, "character": "Himself - Announcer", "credit_id": "52fe450d9251416c91025e5b", "gender": 0, "id": 1204260, "name": "Jim McKay", "order": 10, "profile_path": null}, {"cast_id": 13, "character": "", "credit_id": "52fe450d9251416c91025e5f", "gender": 1, "id": 193703, "name": "Dorothy Shay", "order": 11, "profile_path": "/wdA66tZYvfIdwERZdZqIWx6wnWc.jpg"}, {"cast_id": 16, "character": "Dr. Winslow", "credit_id": "5befad33c3a36818b602edd4", "gender": 2, "id": 152711, "name": "Liam Dunn", "order": 12, "profile_path": "/clIjX0wrNp7KyuqNvTG5Bo4O3xH.jpg"}], "crew": [{"credit_id": "52fe450d9251416c91025e3f", "department": "Directing", "gender": 2, "id": 151843, "job": "Director", "name": "Robert Scheerer", "profile_path": null}, {"credit_id": "52fe450d9251416c91025e65", "department": "Writing", "gender": 2, "id": 1217744, "job": "Screenplay", "name": "Gerald Gardner", "profile_path": null}, {"credit_id": "52fe450d9251416c91025e6b", "department": "Writing", "gender": 2, "id": 1227350, "job": "Screenplay", "name": "Dee Caruso", "profile_path": null}]}}