{"adult": false, "backdrop_path": "/9QfNuMxTMnrOENd7bcqIJARckeK.jpg", "belongs_to_collection": null, "budget": 0, "genres": [{"id": 99, "name": "Documentary"}], "homepage": "http://www.donetheimpossible.com/", "id": 33370, "imdb_id": "tt0838164", "original_language": "en", "original_title": "Done the Impossible", "overview": "A documentary covering Firefly's birth, death and rebirth from the perspective of both the fans and the cast and crew of both productions.", "popularity": 4.121, "poster_path": "/9jIljlKeEOgpeL9ESu33R77cItw.jpg", "production_companies": [], "production_countries": [{"iso_3166_1": "US", "name": "United States of America"}], "release_date": "2006-07-28", "revenue": 0, "runtime": 79, "spoken_languages": [{"iso_639_1": "en", "name": "English"}], "status": "Released", "tagline": "The Fans' Tale of 'Firefly' and 'Serenity'", "title": "Done the Impossible", "video": false, "vote_average": 6.3, "vote_count": 11, "keywords": {"keywords": [{"id": 9818, "name": "fan culture"}, {"id": 178902, "name": "firefly"}, {"id": 220266, "name": "fandom"}]}, "similar": {"page": 1, "results": [{"adult": false, "backdrop_path": "/pQHSIcMb9NKjV3hvkUqYPqIyuLU.jpg", "genre_ids": [99], "id": 24703, "original_language": "en", "original_title": "Trekkies 2", "overview": "sequel to the 1997 documentary film Trekkies.", "poster_path": "/fO7ZdDAYUvivQs6QKW9zvvn9UtE.jpg", "release_date": "2004-04-20", "title": "Trekkies 2", "video": false, "vote_average": 6.7, "vote_count": 13, "popularity": 3.789}, {"adult": false, "backdrop_path": "/5JqfbGd425PRS6BQ5MMfzT3g1Wy.jpg", "genre_ids": [99], "id": 15800, "original_language": "en", "original_title": "Trekkies", "overview": "A hilarious look at the universe's most fervent fans.", "poster_path": "/bXfxkQnoq9xDegq7dmJpJXSMRYf.jpg", "release_date": "1997-10-18", "title": "Trekkies", "video": false, "vote_average": 6.5, "vote_count": 32, "popularity": 6.37}, {"id": 91356, "video": false, "vote_count": 29, "vote_average": 6.7, "title": "Comic-Con Episode IV: A Fan's Hope", "release_date": "2011-09-10", "original_language": "en", "original_title": "Comic-Con Episode IV: A Fan's Hope", "genre_ids": [99], "backdrop_path": "/9jEhi26UTbZXn2QFzcYtiPyYkWB.jpg", "adult": false, "overview": "A behind-the-scenes look at San Diego Comic-Con, the world's largest comic book convention, and the fans who attend every year.", "poster_path": "/axltQJKHxolLfbGwuTKZZlLbBsZ.jpg", "popularity": 6.937}, {"adult": false, "backdrop_path": "/5EEuVgiPEJNLvFQc3FTgKYaveuW.jpg", "genre_ids": [99], "id": 81899, "original_language": "en", "original_title": "Trek Nation", "overview": "Trek Nation is a documentary film directed by Scott Colthorp examining the positive impact that Star Trek and creator Gene Roddenberry may have had on people's lives as seen through the eyes of his son, Eugene Roddenberry, Jr. (\"Rod\"). It includes interviews with castmembers and crew from all five Star Trek shows, as well as various fans and celebrities who were markedly influenced by the show while growing up. Rod Roddenberry also visits Skywalker Ranch to interview George Lucas on the influence that Star Trek had on him. Lucas shares how he had gone to Star Trek conventions prior to creating Star Wars.", "poster_path": "/aYmz4TgkCNXP72WgbmHAbmDuBKw.jpg", "release_date": "2011-11-30", "title": "Trek Nation", "video": false, "vote_average": 7.0, "vote_count": 14, "popularity": 4.942}, {"adult": false, "backdrop_path": "/sxOahZRr3oBTHZEfKCNP7BrYA2g.jpg", "genre_ids": [99], "id": 75311, "original_language": "en", "original_title": "The People vs. George Lucas", "overview": "The passion the original Star Wars trilogy inspires in its fans is unparalleled; but when it comes to George Lucas himself, many have found their ardor has cooled into a complicated love-hate relationship. This hilarious, heartfelt documentary delves deep into Lucas\u2019s cultural legacy, asking all the tough questions. Has Lucas betrayed his masterwork? Should he just have left the original trilogy alone? Is The Phantom Menace so bad it should carry a health warning? Utilizing interviews taken from over 600 hours of footage, and peppered with extraordinary Star Wars and Indiana Jones recreations lovingly immortalized in song, needlepoint, Lego, claymation, puppets and paper-m\u00e2ch\u00e9, above all this film asks the question: who truly owns that galaxy far, far away\u2014the man who created it, or the fans who worship it?", "poster_path": "/AtHiQoLWzbNk5iSJrAoDAf2YTrZ.jpg", "release_date": "2010-03-14", "title": "The People vs. George Lucas", "video": false, "vote_average": 6.4, "vote_count": 57, "popularity": 6.144}, {"id": 13532, "video": false, "vote_count": 501, "vote_average": 6.1, "title": "Fanboys", "release_date": "2009-02-06", "original_language": "en", "original_title": "Fanboys", "genre_ids": [12, 35], "backdrop_path": "/89udmMtxl8AuQHYoFdSgB5e6xYs.jpg", "adult": false, "overview": "In 1999, Star Wars fanatics take a cross-country trip to George Lucas' Skywalker Ranch so their dying friend can see a screening of The Phantom Menace before its release.", "poster_path": "/ywI92p2x7D96nuEayGVOMll35SF.jpg", "popularity": 12.769}, {"id": 16320, "video": false, "vote_count": 2140, "vote_average": 7.4, "title": "Serenity", "release_date": "2005-09-03", "original_language": "en", "original_title": "Serenity", "genre_ids": [28, 12, 878, 53], "backdrop_path": "/k2qLUz5fymFOOYfehaQt6ewXSth.jpg", "adult": false, "overview": "When the renegade crew of Serenity agrees to hide a fugitive on their ship, they find themselves in an action-packed battle between the relentless military might of a totalitarian regime who will destroy anything \u2013 or anyone \u2013 to get the girl back and the bloodthirsty creatures who roam the uncharted areas of space. But... the greatest danger of all may be on their ship.", "poster_path": "/1Hq659V31ER9pQQvVBUUJbwR7NT.jpg", "popularity": 25.617}, {"adult": false, "backdrop_path": "/1AkmFnES2le6lekHRHhYtvQZD3Y.jpg", "genre_ids": [99], "id": 142988, "original_language": "en", "original_title": "Get a Life!", "overview": "An EPIX Original documentary directed by William Shatner, based on his hugely popular book, in which he examines the cultural phenomena of STAR TREK, its fan-following and his own role within it.", "poster_path": "/mitVL0RYWsy9YPMQimdzE9MEUP3.jpg", "release_date": "2012-07-28", "title": "Get a Life!", "video": false, "vote_average": 7.8, "vote_count": 4, "popularity": 1.917}, {"id": 107846, "video": false, "vote_count": 3131, "vote_average": 6.7, "title": "Escape Plan", "release_date": "2013-10-09", "original_language": "en", "original_title": "Escape Plan", "genre_ids": [28, 53], "backdrop_path": "/lDmAQexExnvfKAG8fvx04ro6Ly4.jpg", "adult": false, "overview": "Ray Breslin is the world's foremost authority on structural security. After analyzing every high security prison and learning a vast array of survival skills so he can design escape-proof prisons, his skills are put to the test. He's framed and incarcerated in a master prison he designed himself. He needs to escape and find the person who put him behind bars.", "poster_path": "/j3XZwBeWgoAbVmkW3JyOme79I2e.jpg", "popularity": 19.433}, {"id": 54138, "video": false, "vote_count": 6599, "vote_average": 7.3, "title": "Star Trek Into Darkness", "release_date": "2013-05-05", "original_language": "en", "original_title": "Star Trek Into Darkness", "genre_ids": [28, 12, 878], "backdrop_path": "/ns0IojuqJe24AHTxe8RVcWJUCDM.jpg", "adult": false, "overview": "When the crew of the Enterprise is called back home, they find an unstoppable force of terror from within their own organization has detonated the fleet and everything it stands for, leaving our world in a state of crisis.  With a personal score to settle, Captain Kirk leads a manhunt to a war-zone world to capture a one man weapon of mass destruction. As our heroes are propelled into an epic chess game of life and death, love will be challenged, friendships will be torn apart, and sacrifices must be made for the only family Kirk has left: his crew.", "poster_path": "/41mhrXASAW3sdn7LBWF49uCX0xi.jpg", "popularity": 22.476}, {"id": 97, "video": false, "vote_count": 1217, "vote_average": 6.6, "title": "Tron", "release_date": "1982-07-09", "original_language": "en", "original_title": "Tron", "genre_ids": [28, 12, 878], "backdrop_path": "/owAF2FmDO0UnniCbMpCjN8VcFgA.jpg", "adult": false, "overview": "As Kevin Flynn searches for proof that he invented a hit video game, he is 'digitalized' by a laser and finds himself inside 'The Grid', where programs suffer under the tyrannical rule of the Master Control Program (MCP). With the help of a security program called 'TRON\", Flynn seeks to free The Grid from the MCP.", "poster_path": "/cTF8lpXvAwT1SLH9kVFZZl0AO0D.jpg", "popularity": 25.823}, {"id": 1893, "video": false, "vote_count": 8962, "vote_average": 6.4, "title": "Star Wars: Episode I - The Phantom Menace", "release_date": "1999-05-19", "original_language": "en", "original_title": "Star Wars: Episode I - The Phantom Menace", "genre_ids": [28, 12, 878], "backdrop_path": "/oFmzoKDMedABPpRBDVwr0aynSK1.jpg", "adult": false, "overview": "Anakin Skywalker, a young slave strong with the Force, is discovered on Tatooine. Meanwhile, the evil Sith have returned, enacting their plot for revenge against the Jedi.", "poster_path": "/n8V09dDc02KsSN6Q4hC2BX6hN8X.jpg", "popularity": 26.672}, {"id": 1894, "video": false, "vote_count": 8118, "vote_average": 6.5, "title": "Star Wars: Episode II - Attack of the Clones", "release_date": "2002-05-15", "original_language": "en", "original_title": "Star Wars: Episode II - Attack of the Clones", "genre_ids": [28, 12, 878], "backdrop_path": "/vovhXw10DSsRS9yoVbZqb60pXyX.jpg", "adult": false, "overview": "Following an assassination attempt on Senator Padm\u00e9 Amidala, Jedi Knights Anakin Skywalker and Obi-Wan Kenobi investigate a mysterious plot that could change the galaxy forever.", "poster_path": "/2vcNFtrZXNwIcBgH5e2xXCmVR8t.jpg", "popularity": 23.371}, {"id": 1895, "video": false, "vote_count": 8394, "vote_average": 7.3, "title": "Star Wars: Episode III - Revenge of the Sith", "release_date": "2005-05-17", "original_language": "en", "original_title": "Star Wars: Episode III - Revenge of the Sith", "genre_ids": [28, 12, 878], "backdrop_path": "/wUYTfFbfPiZC6Lcyt1nonr69ZmK.jpg", "adult": false, "overview": "The evil Darth Sidious enacts his final plan for unlimited power -- and the heroic Jedi Anakin Skywalker must choose a side.", "poster_path": "/tgr5Pdy7ehZYBqBkN2K7Q02xgOb.jpg", "popularity": 21.514}, {"id": 13475, "video": false, "vote_count": 6839, "vote_average": 7.4, "title": "Star Trek", "release_date": "2009-05-06", "original_language": "en", "original_title": "Star Trek", "genre_ids": [28, 12, 878], "backdrop_path": "/1XOSh6BFZbQ0xN75m4avqgzClyG.jpg", "adult": false, "overview": "The fate of the galaxy rests in the hands of bitter rivals. One, James Kirk, is a delinquent, thrill-seeking Iowa farm boy. The other, Spock, a Vulcan, was raised in a logic-based society that rejects all emotion. As fiery instinct clashes with calm reason, their unlikely but powerful partnership is the only thing capable of leading their crew through unimaginable danger, boldly going where no one has gone before. The human adventure has begun again.", "poster_path": "/xPihqTMhCh6b8DHYzE61jrIiNMS.jpg", "popularity": 25.759}, {"id": 201, "video": false, "vote_count": 773, "vote_average": 6.2, "title": "Star Trek: Nemesis", "release_date": "2002-12-13", "original_language": "en", "original_title": "Star Trek: Nemesis", "genre_ids": [28, 12, 878, 53], "backdrop_path": "/1SLR0LqYPU3ahXyPK9RZISjI3B7.jpg", "adult": false, "overview": "En route to the honeymoon of William Riker to Deanna Troi on her home planet of Betazed, Captain Jean-Luc Picard and the crew of the U.S.S. Enterprise receives word from Starfleet that a coup has resulted in the installation of a new Romulan political leader, Shinzon, who claims to seek peace with the human-backed United Federation of Planets. Once in enemy territory, the captain and his crew make a startling discovery: Shinzon is human, a slave from the Romulan sister planet of Remus, and has a secret, shocking relationship to Picard himself.", "poster_path": "/n4TpLWPi062AofIq4kwmaPNBSvA.jpg", "popularity": 13.578}, {"id": 188927, "video": false, "vote_count": 4576, "vote_average": 6.7, "title": "Star Trek Beyond", "release_date": "2016-07-07", "original_language": "en", "original_title": "Star Trek Beyond", "genre_ids": [28, 12, 878], "backdrop_path": "/6uBlEXZCUHM15UNZqNig17VdN4m.jpg", "adult": false, "overview": "The USS Enterprise crew explores the furthest reaches of uncharted space, where they encounter a mysterious new enemy who puts them and everything the Federation stands for to the test.", "poster_path": "/mLrQMqyZgLeP8FrT5LCobKAiqmK.jpg", "popularity": 19.974}, {"adult": false, "backdrop_path": "/vgnrUb8KbV3S8gVUcq6rXng9cnz.jpg", "genre_ids": [28, 12, 878], "id": 2164, "original_language": "en", "original_title": "Stargate", "overview": "An interstellar teleportation device, found in Egypt, leads to a planet with humans resembling ancient Egyptians who worship the god Ra.", "poster_path": "/39WsfbB5BshvdbPAYRFXdsjC481.jpg", "release_date": "1994-10-27", "title": "Stargate", "video": false, "vote_average": 6.9, "vote_count": 1833, "popularity": 20.776}, {"id": 11, "video": false, "vote_count": 12747, "vote_average": 8.2, "title": "Star Wars", "release_date": "1977-05-25", "original_language": "en", "original_title": "Star Wars", "genre_ids": [28, 12, 878], "backdrop_path": "/4iJfYYoQzZcONB9hNzg0J0wWyPH.jpg", "adult": false, "overview": "Princess Leia is captured and held hostage by the evil Imperial forces in their effort to take over the galactic Empire. Venturesome Luke Skywalker and dashing captain Han Solo team together with the loveable robot duo R2-D2 and C-3PO to rescue the beautiful princess and restore peace and justice in the Empire.", "poster_path": "/btTdmkgIvOi0FFip1sPuZI2oQG6.jpg", "popularity": 57.029}, {"id": 7453, "video": false, "vote_count": 2556, "vote_average": 6.7, "title": "The Hitchhiker's Guide to the Galaxy", "release_date": "2005-04-28", "original_language": "en", "original_title": "The Hitchhiker's Guide to the Galaxy", "genre_ids": [12, 35, 878, 10751], "backdrop_path": "/kMf3ewax3ZeiSESaPQxBAReQzDD.jpg", "adult": false, "overview": "Mere seconds before the Earth is to be demolished by an alien construction crew, Arthur Dent is swept off the planet by his friend Ford Prefect, a researcher penning a new edition of \"The Hitchhiker's Guide to the Galaxy.\"", "poster_path": "/fOb4cJMhnZ11BoHNUii3Vcfo3XU.jpg", "popularity": 23.951}], "total_pages": 21, "total_results": 414}, "recommendations": {"page": 1, "results": [{"adult": false, "backdrop_path": "/f2pPP6uPeaYWvC1rLCr1mB0rpq9.jpg", "genre_ids": [99], "id": 76040, "original_language": "en", "original_title": "9/11: The Falling Man", "overview": "An examination of an image - a falling man from the North Tower, frozen in mid air - circulated by the press immediately after the September 11 attacks, the public's reaction, and why it was later deemed un-newsworthy.", "poster_path": "/pCOIC1hpZ78CaRvyl8dk28S2DTh.jpg", "release_date": "2006-03-16", "title": "9/11: The Falling Man", "video": false, "vote_average": 7.2, "vote_count": 14, "popularity": 3.546}], "total_pages": 1, "total_results": 1}, "credits": {"cast": [{"cast_id": 1, "character": "Himself", "credit_id": "52fe45119251416c91026685", "gender": 2, "id": 2059, "name": "Adam Baldwin", "order": 0, "profile_path": "/vhZ8AD36h09mBLuyIXboglRLgIu.jpg"}, {"cast_id": 2, "character": "Herself", "credit_id": "52fe45119251416c91026689", "gender": 1, "id": 72092, "name": "Jewel Staite", "order": 1, "profile_path": "/v8OUzhj5QAsotiUeV0fBbMsuNfS.jpg"}, {"cast_id": 3, "character": "Himself", "credit_id": "52fe45119251416c9102668d", "gender": 2, "id": 21088, "name": "Alan Tudyk", "order": 2, "profile_path": "/6QuMtbD8kmhpwWhFKfNzEvHRLOu.jpg"}, {"cast_id": 4, "character": "Herself", "credit_id": "52fe45119251416c91026691", "gender": 1, "id": 110014, "name": "Christina Hendricks", "order": 3, "profile_path": "/fqQWrKDhOTAPjjNTHSU4tBfq5NJ.jpg"}, {"cast_id": 5, "character": "Himself", "credit_id": "52fe45119251416c91026695", "gender": 0, "id": 80425, "name": "Christopher Buchanan", "order": 4, "profile_path": null}, {"cast_id": 6, "character": "Himself", "credit_id": "52fe45119251416c91026699", "gender": 2, "id": 12891, "name": "Joss Whedon", "order": 5, "profile_path": "/dTiVsuaTVTeGmvkhcyJvKp2A5kr.jpg"}, {"cast_id": 7, "character": "Himself", "credit_id": "52fe45119251416c9102669d", "gender": 2, "id": 51797, "name": "Nathan Fillion", "order": 6, "profile_path": "/cHa5mYkRZYdQ8GjLUFeZaiVwi4J.jpg"}, {"cast_id": 8, "character": "Himself", "credit_id": "52fe45119251416c910266a1", "gender": 2, "id": 107275, "name": "Orson Scott Card", "order": 7, "profile_path": "/4jcNQd9amFb7PT0UuROdwH9iidu.jpg"}, {"cast_id": 9, "character": "Herself", "credit_id": "52fe45119251416c910266a5", "gender": 1, "id": 54882, "name": "Morena Baccarin", "order": 8, "profile_path": "/dhdQT0fMRcbg8Gi9nx7JF0oVzzr.jpg"}, {"cast_id": 10, "character": "Himself", "credit_id": "52fe45119251416c910266a9", "gender": 2, "id": 74570, "name": "Ron Glass", "order": 9, "profile_path": "/mMKwpzfR4DjdDbTdpfEzS6oE5vI.jpg"}], "crew": [{"credit_id": "52fe45119251416c910266af", "department": "Directing", "gender": 0, "id": 1163163, "job": "Director", "name": "Tony Hadlock", "profile_path": null}, {"credit_id": "52fe45119251416c910266cd", "department": "Production", "gender": 0, "id": 1163163, "job": "Producer", "name": "Tony Hadlock", "profile_path": null}, {"credit_id": "52fe45119251416c910266b5", "department": "Directing", "gender": 0, "id": 1163166, "job": "Director", "name": "Jason Heppler", "profile_path": null}, {"credit_id": "52fe45119251416c910266d3", "department": "Production", "gender": 0, "id": 1163166, "job": "Producer", "name": "Jason Heppler", "profile_path": null}, {"credit_id": "52fe45119251416c910266bb", "department": "Directing", "gender": 0, "id": 1163167, "job": "Director", "name": "Jeremy Neish", "profile_path": null}, {"credit_id": "52fe45119251416c910266d9", "department": "Production", "gender": 0, "id": 1163167, "job": "Producer", "name": "Jeremy Neish", "profile_path": null}, {"credit_id": "52fe45119251416c910266c1", "department": "Directing", "gender": 0, "id": 1163168, "job": "Director", "name": "Jared Nelson", "profile_path": null}, {"credit_id": "52fe45119251416c910266df", "department": "Production", "gender": 0, "id": 1163168, "job": "Producer", "name": "Jared Nelson", "profile_path": null}, {"credit_id": "52fe45119251416c910266c7", "department": "Directing", "gender": 0, "id": 1163170, "job": "Director", "name": "Brian Wiser", "profile_path": null}, {"credit_id": "52fe45119251416c910266e5", "department": "Production", "gender": 0, "id": 1163170, "job": "Producer", "name": "Brian Wiser", "profile_path": null}]}}