{"adult": false, "backdrop_path": null, "belongs_to_collection": null, "budget": 0, "genres": [{"id": 99, "name": "Documentary"}], "homepage": null, "id": 335149, "imdb_id": "tt4543744", "original_language": "en", "original_title": "Deprogrammed", "overview": "Ted \u2018Black Lightning\u2019 Patrick\u2019s practice of \u2018deprogramming\u2019, also known as \u2018reverse brainwashing\u2019, started in the early 1970s and quickly snowballed into a vast underground movement composed of concerned parents, ex-cultist-turned-deprogrammers and some sympathetic law-enforcers whose mission was to physically and mentally remove individuals from cults.", "popularity": 2.689, "poster_path": "/xnJiZcPMHTHxz1C1AhMiqr9b3j5.jpg", "production_companies": [{"id": 38993, "logo_path": "/c4T0Dik4WZ9Nou4oD4ZXY5sgtPN.png", "name": "EyeSteelFilm", "origin_country": "CA"}], "production_countries": [], "release_date": "2015-04-26", "revenue": 0, "runtime": 90, "spoken_languages": [], "status": "Released", "tagline": "", "title": "Deprogrammed", "video": false, "vote_average": 5.6, "vote_count": 13, "keywords": {"keywords": [{"id": 187056, "name": "woman director"}]}, "similar": {"page": 1, "results": [{"adult": false, "backdrop_path": "/cADbqsIoiDW7X3Myg9nz8eAuno5.jpg", "genre_ids": [18, 10749], "id": 10818, "original_language": "fr", "original_title": "Naissance des pieuvres", "overview": "Set during a sultry summer in a French suburb, Marie is desperate to join the local pool's synchronized swimming team, but is her interest solely for the sake of sport or for a chance to get close to Floriane, the bad girl of the team? Sciamma, and the two leads, capture the uncertainty of teenage sexuality with a sympathetic eye in this delicate drama of the angst of coming-of-age.", "poster_path": "/4jajELYrR4Xmv3CVoKnukRnALa2.jpg", "release_date": "2007-05-17", "title": "Water Lilies", "video": false, "vote_average": 6.1, "vote_count": 119, "popularity": 9.614}, {"adult": false, "backdrop_path": "/gZeJziVigmRqbkEZwKAtSqlLQ6s.jpg", "genre_ids": [18, 10749], "id": 370663, "original_language": "en", "original_title": "Below Her Mouth", "overview": "An unexpected affair quickly escalates into a heart-stopping reality for two women whose passionate connection changes their lives forever.", "poster_path": "/nTGbq37hYLuNy7YgMg0gVLma0NS.jpg", "release_date": "2016-09-10", "title": "Below Her Mouth", "video": false, "vote_average": 6.2, "vote_count": 456, "popularity": 18.664}, {"adult": false, "backdrop_path": "/knczzNAjBXzSYkeWxoT1u9VNmjR.jpg", "genre_ids": [10749, 18], "id": 258480, "original_language": "en", "original_title": "Carol", "overview": "In 1950s New York, a department-store clerk who dreams of a better life falls for an older, married woman.", "poster_path": "/AbKa7ANxmui0Jmhh7gV7OSELKIL.jpg", "release_date": "2015-11-20", "title": "Carol", "video": false, "vote_average": 7.4, "vote_count": 2184, "popularity": 13.539}, {"id": 9813, "video": false, "vote_count": 128, "vote_average": 6.1, "title": "The Quiet", "release_date": "2005-09-12", "original_language": "en", "original_title": "The Quiet", "genre_ids": [18, 53], "backdrop_path": "/6eyWAZA4CEidZW1xXnQ4vlYBXTP.jpg", "adult": false, "overview": "After her widowed father dies, deaf teenager Dot moves in with her godparents, Olivia and Paul Deer. The Deers' daughter, Nina, is openly hostile to Dot, but that does not prevent her from telling her secrets to her silent stepsister, including the fact that she wants to kill her lecherous father.", "poster_path": "/GEqIE9YlmygHVUfS64LW2cwAAM.jpg", "popularity": 14.844}, {"adult": false, "backdrop_path": "/g3LYarEY9LjB28Ct2trwFN72gqZ.jpg", "genre_ids": [35], "id": 437557, "original_language": "en", "original_title": "Blockers", "overview": "When three parents discover their daughters\u2019 pact to lose their virginity at prom, they launch a covert one-night operation to stop the teens from sealing the deal.", "poster_path": "/uvlUQXg0AlpGzKukO11K7QtW3Yu.jpg", "release_date": "2018-03-14", "title": "Blockers", "video": false, "vote_average": 6.2, "vote_count": 1155, "popularity": 17.886}, {"adult": false, "backdrop_path": "/fZ8oFcREAr6wgWcXISGql0xyxjB.jpg", "genre_ids": [35, 18], "id": 39781, "original_language": "en", "original_title": "The Kids Are All Right", "overview": "Two women, Nic and Jules, brought a son and daughter into the world through artificial insemination. When one of their children reaches age, both kids go behind their mothers' backs to meet with the donor. Life becomes so much more interesting when the father, two mothers and children start to become attached to each other.", "poster_path": "/fPDeK4MmoGfi2X0oWZev7LrbMqM.jpg", "release_date": "2010-07-09", "title": "The Kids Are All Right", "video": false, "vote_average": 6.6, "vote_count": 923, "popularity": 12.159}, {"adult": false, "backdrop_path": "/6tern9vOEwwmkDYC1vRCuO64z0C.jpg", "genre_ids": [10749, 18], "id": 475888, "original_language": "en", "original_title": "Tell It to the Bees", "overview": "Dr. Jean Markham returns to the town she left as a teenager to take over her late father's medical practice. When a school-yard scuffle lands Charlie in her surgery, she invites him to visit the hives in her garden and tell his secrets to the bees, as she once did. The new friendship between the boy and the bee keeper brings his mother Lydia into Jean's world.", "poster_path": "/Rj6zpHhMU1zFW3v28U4PSRSRgP.jpg", "release_date": "2019-05-03", "title": "Tell It to the Bees", "video": false, "vote_average": 6.4, "vote_count": 53, "popularity": 13.175}, {"adult": false, "backdrop_path": "/xOGEw8iywxcFMolV6SF6YdTdJTb.jpg", "genre_ids": [10402, 10749], "id": 52371, "original_language": "nl", "original_title": "LelleBelle", "overview": "19-year old Belle practices playing the violin diligently, but is unable to impart her music with a sensitive undertone. Her life changes when she discovers that sexual desire stimulates passion in her music.", "poster_path": "/nJVPgIq3icZMQ26p5uWIFdUZJfL.jpg", "release_date": "2010-10-08", "title": "LelleBelle", "video": false, "vote_average": 4.7, "vote_count": 41, "popularity": 13.747}, {"adult": false, "backdrop_path": "/dvQDRfv3qvfHNnVAR57ouVsuErf.jpg", "genre_ids": [10749, 18], "id": 28031, "original_language": "en", "original_title": "If These Walls Could Talk 2", "overview": "The stories of three lesbian couples -- who live in the same house at different periods of time -- who are at a crossroads in their lives. In 1961, Edith loses her lover, Abby, to a stroke. Linda and Amy struggle with feminist issues in 1972. And, in 2000, Kal and Fran try to have a baby with the help of sperm donor.", "poster_path": "/xs7ODbmYQXCDhvXNvz5tF17T59H.jpg", "release_date": "2000-03-05", "title": "If These Walls Could Talk 2", "video": false, "vote_average": 7.1, "vote_count": 55, "popularity": 8.86}, {"adult": false, "backdrop_path": "/rf6G51j0SZL0tP57I8gnqHTRFEr.jpg", "genre_ids": [35, 18, 10749], "id": 273153, "original_language": "fr", "original_title": "La belle saison", "overview": "In 1971, Carole and Delphine meet and fall in love in Paris. When Carole follows Delphine back to her family farm in Limousin, the two find lesbianism and feminism are not as easy in the countryside.", "poster_path": "/evvAkNMO5VJiy5qIo1Hu7fUfvVI.jpg", "release_date": "2015-08-19", "title": "Summertime", "video": false, "vote_average": 6.6, "vote_count": 162, "popularity": 11.575}, {"id": 616584, "video": false, "vote_count": 92, "vote_average": 7.5, "title": "K-12", "release_date": "2019-09-05", "original_language": "en", "original_title": "K-12", "genre_ids": [14, 27, 10402], "backdrop_path": "/fSlfaF0Ydfr2SK6hOYHvDsb7a9Z.jpg", "adult": false, "overview": "Cry Baby, a strong and sensitive girl, is sent off to a disturbing sleepaway school that\u2019s hidden underneath a grandiose fa\u00e7ade. Luckily, she has a sweet and unapologetic best friend who sticks up for her when she gets bullied by the other students whose brains are under control by the Principal and his wicked staff. With the help of the magical friends they meet along the way, as well as an Angelic Spirit Guide, they are able to gain the strength they need to fight off the school\u2019s belligerent patriarchal conditioning.", "poster_path": "/nVi0yBBPj5Z96JgGWVIg94kv7bR.jpg", "popularity": 15.107}, {"adult": false, "backdrop_path": "/caLMOD3ZJ3V7qjlxDXrzlJfBLgD.jpg", "genre_ids": [18, 10749], "id": 20, "original_language": "en", "original_title": "My Life Without Me", "overview": "A Pedro Almodovar production in which a fatally ill mother with only two months to live creates a list of things she wants to do before she dies with out telling her family of her illness.", "poster_path": "/vVj92VBFUBzjqzLvBiPVVlJDp78.jpg", "release_date": "2003-03-07", "title": "My Life Without Me", "video": false, "vote_average": 6.1, "vote_count": 220, "popularity": 10.382}, {"id": 326359, "video": false, "vote_count": 1180, "vote_average": 6.8, "title": "Frozen Fever", "release_date": "2015-03-09", "original_language": "en", "original_title": "Frozen Fever", "genre_ids": [12, 16, 10751], "backdrop_path": "/ubioPGniCfDiASmYYpeJs5RRNaC.jpg", "adult": false, "overview": "On Anna's birthday, Elsa and Kristoff are determined to give her the best celebration ever, but Elsa's icy powers may put more than just the party at risk.", "poster_path": "/lKJiVPzsAO9IJ4LKWXZ8vkR2bg4.jpg", "popularity": 17.218}, {"id": 434714, "video": false, "vote_count": 32, "vote_average": 7.5, "title": "My Days of Mercy", "release_date": "2019-07-11", "original_language": "en", "original_title": "My Days of Mercy", "genre_ids": [18, 10749], "backdrop_path": "/7Lbzq33nMMIQtAfZAmSqG6ibLSg.jpg", "adult": false, "overview": "The daughter of a man on death row falls in love with a woman on the opposing side of her family's political cause.", "poster_path": "/adIPKAoKnKL9vCTkvfF4J9ZA7Ln.jpg", "popularity": 9.342}, {"adult": false, "backdrop_path": "/useuHJQ5HOoEWkAvEjL1FW1sUfe.jpg", "genre_ids": [18], "id": 376867, "original_language": "en", "original_title": "Moonlight", "overview": "The tender, heartbreaking story of a young man\u2019s struggle to find himself, told across three defining chapters in his life as he experiences the ecstasy, pain, and beauty of falling in love, while grappling with his own sexuality.", "poster_path": "/qAwFbszz0kRyTuXmMeKQZCX3Q2O.jpg", "release_date": "2016-10-21", "title": "Moonlight", "video": false, "vote_average": 7.4, "vote_count": 4410, "popularity": 21.716}, {"adult": false, "backdrop_path": "/ph5fElfh4U7O3jwhFljxz2LDp1l.jpg", "genre_ids": [18, 36], "id": 375262, "original_language": "en", "original_title": "The Favourite", "overview": "England, early 18th century. The close relationship between Queen Anne and Sarah Churchill is threatened by the arrival of Sarah's cousin, Abigail Hill, resulting in a bitter rivalry between the two cousins to be the Queen's favourite.", "poster_path": "/cwBq0onfmeilU5xgqNNjJAMPfpw.jpg", "release_date": "2018-11-23", "title": "The Favourite", "video": false, "vote_average": 7.6, "vote_count": 2823, "popularity": 28.019}, {"id": 297762, "video": false, "vote_count": 13722, "vote_average": 7.3, "title": "Wonder Woman", "release_date": "2017-05-30", "original_language": "en", "original_title": "Wonder Woman", "genre_ids": [28, 12, 14], "backdrop_path": "/6iUNJZymJBMXXriQyFZfLAKnjO6.jpg", "adult": false, "overview": "An Amazon princess comes to the world of Man in the grips of the First World War to confront the forces of evil and bring an end to human conflict.", "poster_path": "/gfJGlDaHuWimErCr5Ql0I8x9QSy.jpg", "popularity": 44.687}, {"adult": false, "backdrop_path": "/k8H7ye6Sab7OrDJoo8Qp5WFGHGk.jpg", "genre_ids": [35, 10749, 18], "id": 244264, "original_language": "en", "original_title": "Laggies", "overview": "Overeducated and underemployed, 28 year old Megan is in the throes of a quarterlife crisis. Squarely into adulthood with no career prospects, no particular motivation to think about her future and no one to relate to, Megan is comfortable lagging a few steps behind - while her friends check off milestones and celebrate their new grown-up status. When her high-school sweetheart proposes, Megan panics and- given an unexpected opportunity to escape for a week - hides out in the home of her new friend, 16-year old Annika and Annika's world-weary single dad Craig.", "poster_path": "/dNcoXoRC7JHiqbe7k5Ufo6syiPP.jpg", "release_date": "2014-09-25", "title": "Laggies", "video": false, "vote_average": 6.1, "vote_count": 788, "popularity": 13.836}, {"adult": false, "backdrop_path": "/npClMhFGn4XUkwu6coq5oKAEu6L.jpg", "genre_ids": [35, 10749, 18], "id": 634, "original_language": "en", "original_title": "Bridget Jones's Diary", "overview": "A chaotic Bridget Jones meets a snobbish lawyer, and he soon enters her world of imperfections.", "poster_path": "/ym6kjFFZg6boC0QHBVw6hqJLbxv.jpg", "release_date": "2001-04-13", "title": "Bridget Jones's Diary", "video": false, "vote_average": 6.7, "vote_count": 3080, "popularity": 19.453}, {"adult": false, "backdrop_path": "/txtRue33MaXv5HQpTiHPOmOcDxE.jpg", "genre_ids": [35, 10749], "id": 11631, "original_language": "en", "original_title": "Mamma Mia!", "overview": "An independent, single mother who owns a small hotel on a Greek island is about to marry off the spirited young daughter she's raised alone. But, the daughter has secretly invited three of her mother's ex-lovers in the hopes of finding her biological father.", "poster_path": "/gOm2iMMbC6EonrFzmSQ8xvCa4Ei.jpg", "release_date": "2008-07-02", "title": "Mamma Mia!", "video": false, "vote_average": 6.9, "vote_count": 4124, "popularity": 16.301}], "total_pages": 1446, "total_results": 28909}, "recommendations": {"page": 1, "results": [{"adult": false, "backdrop_path": null, "genre_ids": [99], "id": 185515, "original_language": "en", "original_title": "John & Jane", "overview": "A fresh new blend of observational documentary and tropical science-fiction, JOHN &amp; JANE follows the stories of six call agents that answer American 1-800 numbers in a Mumbai call center. After a heady mix of American culture training and 14 hour night shifts, the job soon starts to take its toll. Counter pointing the fluorescent interiors of late night offices and hyper-malls with the uneasy currents swirling around the characters, JOHN &amp; JANE discovers a young generation of urban Indians that are beginning to live between the real and the virtual. However, this futuristic world of American aliases and simulated reality is not science fiction, these are the times in which we live. JOHN &amp; JANE raises disturbing questions about the nature of personal identity in a 21st century globalised world.", "poster_path": "/bk2rOFpTMlICumGBgD5waGLGBK.jpg", "release_date": "2005-09-13", "title": "John & Jane", "video": false, "vote_average": 6.4, "vote_count": 5, "popularity": 1.487}, {"adult": false, "backdrop_path": null, "genre_ids": [99], "id": 253265, "original_language": "en", "original_title": "Mateo", "overview": "Mateo follows America's most notorious gringo mariachi on his misadventures to Cuba.", "poster_path": "/u6HBJ7EHRgxbirVTO3VcLM2m9v.jpg", "release_date": "2014-03-10", "title": "Mateo", "video": false, "vote_average": 7.5, "vote_count": 4, "popularity": 1.865}, {"id": 368620, "video": false, "vote_count": 14, "vote_average": 6.3, "title": "My Friend Rockefeller", "release_date": "2015-07-04", "original_language": "en", "original_title": "My Friend Rockefeller", "genre_ids": [80, 99, 9648], "backdrop_path": "/ohOWg2VTepvcubWHjm0frwapX8f.jpg", "adult": false, "overview": "Christian Karl Gerhartsreiter lived a life of deception and crime before settling on his ultimate scam - impersonating a Rockefeller. How was Gerhartsreiter able to dupe so many people from so many walks of life? A story that begins in a Bavarian village, continues in the most exclusive clubs on the American East Coast, - and ends in a Los Angeles court.", "poster_path": "/5su427rQorhEZvzpU8njaucdL9h.jpg", "popularity": 3.93}, {"adult": false, "backdrop_path": "/loRxxhQT1HWULKxn3oQ9necjSo3.jpg", "genre_ids": [99], "id": 294862, "original_language": "en", "original_title": "Magical Universe", "overview": "Filmed for over a decade, MAGICAL UNIVERSE is a portrait of Al Carbee, an 88 year old strange and reclusive outsider artist who spends his days alone in a massive house in Maine creating art -- mostly featuring Barbie Dolls in elaborate dioramas. The documentary profiles Carbee's amazing body of work and his relentlessly creative lifestyle. Carbee's story is explored through the prism of his unlikely friendship with New York filmmaker Jeremy Workman, who unexpectedly becomes Carbee's closest friend and only link to the outside world. Far beyond just a portrait of an eccentric, MAGICAL UNIVERSE is about wonder, friendship, and the transcendent power of creativity. Its story culminates with Al Carbee's greatest triumph as an artist and a man.", "poster_path": "/v6VGrfVWLnhqe6UX8YbNyf28UCu.jpg", "release_date": "2014-10-31", "title": "Magical Universe", "video": false, "vote_average": 6.5, "vote_count": 6, "popularity": 2.001}, {"adult": false, "backdrop_path": "/xMMtKzaAh2K5lCRe9Bs0tSG6PQ.jpg", "genre_ids": [99], "id": 311690, "original_language": "en", "original_title": "Sam Klemke's Time Machine", "overview": "Sam Klemke has filmed and narrated 50 years of his life, creating a strange and intimate portrait of what it means to be human.", "poster_path": "/f87wxlhy64HyGhClOra4pYZwjkR.jpg", "release_date": "2015-01-23", "title": "Sam Klemke's Time Machine", "video": false, "vote_average": 6.5, "vote_count": 4, "popularity": 2.243}, {"adult": false, "backdrop_path": null, "genre_ids": [99], "id": 381043, "original_language": "en", "original_title": "Asperger's Are Us", "overview": "For the members of the comedy troupe Asperger\u2019s Are Us, it\u2019s easier to associate with a faceless audience than with their own families. No matter who the crowd, best friends Noah, New Michael, Jack and Ethan have one simple mantra: \u201cWe would much rather the audience appreciate us as comedians than people who have overcome adversity.\u201d  In this coming-of-age heartfelt documentary, this band of brothers finds themselves at a crossroad. With real life pulling them apart, they decide to plan one ambitious farewell show before they all go their separate ways. People with Asperger\u2019s don\u2019t deal well with uncertainty, and this is the most uncertain time in their lives.", "poster_path": "/kpKgzxjyNmLOgVNB0Z1l2n3tGhV.jpg", "release_date": "2016-11-11", "title": "Asperger's Are Us", "video": false, "vote_average": 6.2, "vote_count": 10, "popularity": 3.516}, {"adult": false, "backdrop_path": "/y4awfjWpvFc6YRhM73PvNrhcDZa.jpg", "genre_ids": [35], "id": 21941, "original_language": "en", "original_title": "Lee Evans: XL Tour Live 2005", "overview": "Comedy antics of Lee Evans on his live stand-up tour in Cardiff, Wales.", "poster_path": "/x0566DrQ1msFWMnjZnQOoQ5SMdR.jpg", "release_date": "2005-11-28", "title": "Lee Evans: XL Tour Live 2005", "video": false, "vote_average": 7.7, "vote_count": 9, "popularity": 3.56}, {"adult": false, "backdrop_path": "/iU5S3FHmZ6NHvxW9KTRsfZO1251.jpg", "genre_ids": [99], "id": 224414, "original_language": "en", "original_title": "Bound by Flesh", "overview": "Conjoined twins Daisy and Violet Hilton were once the cream of the sideshow crop. Taught to sing and dance at an early age, the winsome duo ascended through the early 20th-century vaudeville circuit as a side attraction (working alongside Bob Hope and Charlie Chaplin as well as a memorable turn in the Tod Browning classic \"Freaks\") before a cascade of unscrupulous management and harsh mistreatment brought their careers (and lives) tumbling down. This engrossing glimpse into a bygone era is filled with fascinating interviews and rare archival footage.", "poster_path": "/wUl7g0NhYaWRZ2WgWytzHFscPdi.jpg", "release_date": "2012-10-19", "title": "Bound by Flesh", "video": false, "vote_average": 6.1, "vote_count": 9, "popularity": 3.673}, {"adult": false, "backdrop_path": "/lzjx1JTY8nITfAGA6r13mB1Pjrl.jpg", "genre_ids": [99], "id": 324263, "original_language": "en", "original_title": "Breaking a Monster", "overview": "Breaking a Monster begins as the band members of Unlocking The Truth are all in 7th grade, spending their weekends playing metal music in Times Square - often to substantial crowds. They take on a 70-year-old industry veteran manager. With his guidance they are soon on their way to a $1.8M record deal with Sony Music.  Anything feels possible, and the eyes of the world are upon them. The boys are coming of age, not only as they become professional musicians, but also as they transcend childhood and step into adulthood. The sudden breakout of any band, let alone one of pre-teens, is an extremely narrow and specific period in time - Breaking a Monster is the story of this rapid transformation", "poster_path": "/wyjysPckXoGbi7UZcCj1gFfXGwS.jpg", "release_date": "2015-03-14", "title": "Breaking a Monster", "video": false, "vote_average": 3.0, "vote_count": 6, "popularity": 1.324}, {"adult": false, "backdrop_path": "/xwzNxGj6LnPNfVxCoIK3xcnzjxz.jpg", "genre_ids": [35], "id": 20468, "original_language": "en", "original_title": "The Big Tease", "overview": "Thinking he's competing in Los Angeles' hot Platinum Scissors contest, Scottish hairstylist Crawford (Craig Ferguson) leaves Glasgow with a film crew to capture the event. When he learns he's a mere audience member, Crawford must find a way to become the mane event. Abhorrent Norwegian Stig is his stiff-as-gel competition. Drew Carey and others make cameo appearances in this hysterical mockumentar", "poster_path": "/9MvsZOef1vndlv0UdnqOpgURW8M.jpg", "release_date": "1999-01-01", "title": "The Big Tease", "video": false, "vote_average": 6.1, "vote_count": 13, "popularity": 3.479}, {"id": 407588, "video": false, "vote_count": 13, "vote_average": 7.6, "title": "Floyd Norman: An Animated Life", "release_date": "2016-02-05", "original_language": "en", "original_title": "Floyd Norman: An Animated Life", "genre_ids": [99], "backdrop_path": "/rwABXH6QsNVxMyReZLk5szc8q4B.jpg", "adult": false, "overview": "Animator. Storyman. Troublemaker. At 80 years old, see how Disney Legend Floyd Norman, the first African-American animator at Disney, continues to impact animation and stir up \"trouble\" after the company forced him to retire at age 65.", "poster_path": "/wAOJ0PmoRmHL5vXG0KCUrtDWm6q.jpg", "popularity": 4.179}, {"id": 345170, "video": false, "vote_count": 13, "vote_average": 5.9, "title": "Frank and Cindy", "release_date": "2015-06-16", "original_language": "en", "original_title": "Frank and Cindy", "genre_ids": [35, 18], "backdrop_path": "/qveVTaYgequFogbrHkksPmhonTr.jpg", "adult": false, "overview": "G.J. Echternkamp tells the story of his relationship with his parents, his mother Cindy and his step-father, Frank. Frank used to be a member of OXO, a band from the '80s whose one hit wonder scored with the song \"Whirly Girl\". Cindy was the ultimate groupie who married Frank and thought life would be glamorous and award shows, but it's not how it turned out.", "poster_path": "/eieyGLk6m2q6TFvMvABuN2fMehV.jpg", "popularity": 4.46}, {"adult": false, "backdrop_path": "/5fqtQblfBFetUTKcjajTFfBSThI.jpg", "genre_ids": [80, 99], "id": 302502, "original_language": "en", "original_title": "Pervert Park", "overview": "Florida Justice Transitions is home to 120 convicted sex offenders. Like in many other U.S. states, sex offenders are not allowed to live within 1000 feet of places frequented by children. Because of this, many sex offenders live under bridges or in woods \u2013 or in the trailer park Florida Justice Transitions \u2013 known as Pervert Park. The crimes committed by the residents range from simple misdemeanors to horrendous acts unbearable to contemplate.", "poster_path": "/tDiOofvnyCseHT5w6fysaXyhRxC.jpg", "release_date": "2014-11-06", "title": "Pervert Park", "video": false, "vote_average": 7.0, "vote_count": 18, "popularity": 1.964}, {"adult": false, "backdrop_path": "/maRxVxp4ElpLC3866LE674WAorh.jpg", "genre_ids": [878, 35, 27], "id": 28340, "original_language": "en", "original_title": "The Invisible Maniac", "overview": "An invisible scientist escapes from an asylum and teaches high-school physics to nubile teens.", "poster_path": "/w8gtic9Cs90BueeArNh5L5VQ0TX.jpg", "release_date": "1990-07-13", "title": "The Invisible Maniac", "video": false, "vote_average": 3.6, "vote_count": 11, "popularity": 4.898}, {"adult": false, "backdrop_path": "/e0J4mNAoVKyDFkCJ1llWL5ZYqA2.jpg", "genre_ids": [35], "id": 144124, "original_language": "en", "original_title": "Jack Whitehall Live", "overview": "This highly anticipated debut stand-up DVD sees triple British Comedy Award nominee Jack Whitehall at his high energy, laugh-out-loud best. From dates at Nando's to lads' holidays in Magaluf, British customer service etiquette to having sex at his parents' house. Jack dances from one story to another, effortlessly extracting the humour from every situation.  With sell-out national tours, nominations at the British Comedy Awards and the Edinburgh Comedy Awards for his stand-up, much-lauded appearances on The Royal Variety Performance and Live At The Apollo, and his recent acclaimed roles in Fresh Meat and the self-penned Bad Education, Jack Whitehall is one of the UK's brightest comedy stars.", "poster_path": "/gFixzilX6ChWmLlXDTF99AiNpLw.jpg", "release_date": "2012-11-19", "title": "Jack Whitehall Live", "video": false, "vote_average": 6.8, "vote_count": 9, "popularity": 3.224}, {"adult": false, "backdrop_path": null, "genre_ids": [99], "id": 224894, "original_language": "en", "original_title": "The Man Whose Mind Exploded", "overview": "In this \"beautifully intimate and utterly unique piece of cinema\", Toby Amies crosses the line between filmmaker and carer, trying to cope with the strange and hilarious world view of the fragile eccentric, Drako Zarharzar. A love story.", "poster_path": "/UbCYDMMeijhnZppjqLjF9T5q0b.jpg", "release_date": "2014-06-13", "title": "The Man Whose Mind Exploded", "video": false, "vote_average": 6.0, "vote_count": 6, "popularity": 0.6}, {"adult": false, "backdrop_path": "/rvBPLIWllsxJIl8f1z9ccMoAgY0.jpg", "genre_ids": [18, 80], "id": 370835, "original_language": "en", "original_title": "Cold Deck", "overview": "When a poker player hits rock bottom he enlists his best friend to pull off a high-stakes heist.", "poster_path": "/qQFHBqeh3sQima2GN128de39HMN.jpg", "release_date": "2015-12-04", "title": "Cold Deck", "video": false, "vote_average": 5.8, "vote_count": 14, "popularity": 4.219}, {"id": 384289, "video": false, "vote_count": 10, "vote_average": 7.4, "title": "Peter and the Farm", "release_date": "2016-11-04", "original_language": "en", "original_title": "Peter and the Farm", "genre_ids": [99], "backdrop_path": "/uidMruJREZGam35JBwIgazTLFiS.jpg", "adult": false, "overview": "Peter Dunning is a rugged individualist in the extreme, a hard-drinking loner and former artist who has burned bridges with his wives and children and whose only company, even on harsh winter nights, are the sheep, cows, and pigs he tends on his Vermont farm. Peter is also one of the most complicated, sympathetic documentary subjects to come along in some time, a product of the 1960s counterculture whose poetic idealism has since soured. For all his candor, he slips into drunken self-destructive habits, cursing the splendors of a pastoral landscape that he has spent decades nurturing.", "poster_path": "/wBvhozydgxL3TOrVA4mERqC8QrN.jpg", "popularity": 2.403}, {"adult": false, "backdrop_path": "/eqhxN6iz91h8T8jEMqW3paHFAZZ.jpg", "genre_ids": [35, 878], "id": 83412, "original_language": "en", "original_title": "Slapstick (Of Another Kind)", "overview": "A rich, beautiful couple give birth to deformed alien twins who, when their heads are together, are the smartest kids on the planet.", "poster_path": "/ajC3q53PQFhATLyBLiPAOyFTa1J.jpg", "release_date": "1982-12-09", "title": "Slapstick (Of Another Kind)", "video": false, "vote_average": 2.6, "vote_count": 7, "popularity": 2.759}, {"adult": false, "backdrop_path": "/ifT4nkCAcovLTTgfOk9w1imtvFO.jpg", "genre_ids": [99], "id": 97686, "original_language": "en", "original_title": "The Jeffrey Dahmer Files", "overview": "An experimental documentary film that uses archival footage, interviews, and fictionalized scenarios to tell the story of the people around Jeffrey Dahmer during the summer of his arrest in 1991.", "poster_path": "/eIIPonlNZAhAAmcoa1deoHpIFJ7.jpg", "release_date": "2013-02-15", "title": "The Jeffrey Dahmer Files", "video": false, "vote_average": 5.8, "vote_count": 36, "popularity": 4.775}], "total_pages": 2, "total_results": 40}, "credits": {"cast": [], "crew": [{"credit_id": "5526c2939251417248004909", "department": "Directing", "gender": 0, "id": 1445578, "job": "Director", "name": "Mia Donovan", "profile_path": null}]}}