{"adult": false, "backdrop_path": "/3Z1WUKg0Vi7vKQxmmVb4EAhJGzu.jpg", "belongs_to_collection": {"id": 425344, "name": "Liberation Collection", "poster_path": "/d5S1swlcKQXwJlUhtnm0jM32Ykd.jpg", "backdrop_path": "/pKdrunlz31ryq0teZlUkEKMPQPy.jpg"}, "budget": 0, "genres": [{"id": 18, "name": "Drama"}, {"id": 10752, "name": "War"}], "homepage": null, "id": 335735, "imdb_id": "tt5300238", "original_language": "ru", "original_title": "\u041e\u0441\u0432\u043e\u0431\u043e\u0436\u0434\u0435\u043d\u0438\u0435: \u041e\u0433\u043d\u0435\u043d\u043d\u0430\u044f \u0414\u0443\u0433\u0430", "overview": "", "popularity": 1.861, "poster_path": "/9mY2H4upPae2VvjP9ADs7lYAzlj.jpg", "production_companies": [{"id": 1216, "logo_path": null, "name": "Dino de Laurentiis Cinematografica", "origin_country": "IT"}, {"id": 5940, "logo_path": null, "name": "Avala Film", "origin_country": "RS"}, {"id": 94423, "logo_path": null, "name": "Zesp\u00f3l Filmowy \"Start\"", "origin_country": ""}, {"id": 344, "logo_path": "/xenuUvcunUNpbaDOYGhWZERaym7.png", "name": "Mosfilm", "origin_country": "RU"}, {"id": 602, "logo_path": "/pVsXRFbYVDe5BhsATCAh1rt5F0k.png", "name": "DEFA", "origin_country": "DE"}], "production_countries": [{"iso_3166_1": "XG", "name": "East Germany"}, {"iso_3166_1": "DE", "name": "Germany"}, {"iso_3166_1": "IT", "name": "Italy"}, {"iso_3166_1": "PL", "name": "Poland"}, {"iso_3166_1": "RU", "name": "Russia"}, {"iso_3166_1": "SU", "name": "Soviet Union"}, {"iso_3166_1": "YU", "name": "Yugoslavia"}], "release_date": "1969-05-07", "revenue": 0, "runtime": 88, "spoken_languages": [{"iso_639_1": "en", "name": "English"}, {"iso_639_1": "de", "name": "Deutsch"}, {"iso_639_1": "pl", "name": "Polski"}, {"iso_639_1": "ru", "name": "P\u0443\u0441\u0441\u043a\u0438\u0439"}], "status": "Released", "tagline": "", "title": "Liberation: The Fire Bulge", "video": false, "vote_average": 8.0, "vote_count": 3, "keywords": {"keywords": [{"id": 1956, "name": "world war ii"}]}, "similar": {"page": 1, "results": [{"adult": false, "backdrop_path": "/qtD2lFLG5T7L8flbKSEIoSqcslI.jpg", "genre_ids": [18, 10752], "id": 7862, "original_language": "de", "original_title": "Die F\u00e4lscher", "overview": "The story Jewish counterfeiter, Salomon Sorowitsch, coerced into assisting the Nazi operation of the Sachsenhausen concentration camp during World War II.", "poster_path": "/bRQddrgVemZtFdnrPy9AxTpkhpj.jpg", "release_date": "2007-02-09", "title": "The Counterfeiters", "video": false, "vote_average": 7.4, "vote_count": 261, "popularity": 12.463}, {"adult": false, "backdrop_path": "/pKawqrtCBMmxarft7o1LbEynys7.jpg", "genre_ids": [10752, 18, 28], "id": 228150, "original_language": "en", "original_title": "Fury", "overview": "In the last months of World War II, as the Allies make their final push in the European theatre, a battle-hardened U.S. Army sergeant named 'Wardaddy' commands a Sherman tank called 'Fury' and its five-man crew on a deadly mission behind enemy lines. Outnumbered and outgunned, Wardaddy and his men face overwhelming odds in their heroic attempts to strike at the heart of Nazi Germany.", "poster_path": "/fa4PxEPRKWRyjzYje1jM4m30qzd.jpg", "release_date": "2014-10-15", "title": "Fury", "video": false, "vote_average": 7.4, "vote_count": 7302, "popularity": 53.985}, {"id": 424, "video": false, "vote_count": 8988, "vote_average": 8.6, "title": "Schindler's List", "release_date": "1993-11-30", "original_language": "en", "original_title": "Schindler's List", "genre_ids": [18, 36, 10752], "backdrop_path": "/cTNYRUTXkBgPH3wP3kmPUB5U6dA.jpg", "adult": false, "overview": "The true story of how businessman Oskar Schindler saved over a thousand Jewish lives from the Nazis while they worked as slaves in his factory during World War II.", "poster_path": "/yPisjyLweCl1tbgwgtzBCNCBle.jpg", "popularity": 25.457}, {"id": 293982, "video": false, "vote_count": 119, "vote_average": 6.9, "title": "Warsaw 44", "release_date": "2014-07-30", "original_language": "pl", "original_title": "Miasto 44", "genre_ids": [18, 36, 10749, 10752], "backdrop_path": "/wv4kNz9aJPO200vndn5Paczh12K.jpg", "adult": false, "overview": "City of Warsaw, Poland, August 1, 1944. Citizens have experienced inhuman acts of terror and violence during five long years of Nazi occupation. As the Soviet Army relentlessly approaches, the youngest and bravest among them rise up as one and face tyranny fighting street by street, but the price to pay will be high and hard the way to freedom.", "poster_path": "/k9WOOkVur2Gwo93wuiKzJDm2mUK.jpg", "popularity": 7.451}, {"id": 369885, "video": false, "vote_count": 3048, "vote_average": 6.7, "title": "Allied", "release_date": "2016-11-17", "original_language": "en", "original_title": "Allied", "genre_ids": [28, 18, 53, 10749, 10752], "backdrop_path": "/tC0tVH5KQhCwMlddnyA3iWOSuBA.jpg", "adult": false, "overview": "In 1942, an intelligence officer in North Africa encounters a female French Resistance fighter on a deadly mission behind enemy lines. When they reunite in London, their relationship is tested by the pressures of war.", "poster_path": "/nzXzLFTnd0Zb3ExfhOxlQgizgSu.jpg", "popularity": 29.818}, {"id": 11046, "video": false, "vote_count": 434, "vote_average": 7.6, "title": "Where Eagles Dare", "release_date": "1968-12-04", "original_language": "en", "original_title": "Where Eagles Dare", "genre_ids": [28, 12, 18, 36, 10752], "backdrop_path": "/aAFq5jVHV6RZpLcRXATskNBuEbM.jpg", "adult": false, "overview": "World War II is raging, and an American general has been captured and is being held hostage in the Schloss Adler, a Bavarian castle that's nearly impossible to breach. It's up to a group of skilled Allied soldiers to liberate the general before it's too late.", "poster_path": "/991u0tSWGTVXCYkgC6ftaGE4bkQ.jpg", "popularity": 15.171}, {"id": 438799, "video": false, "vote_count": 1395, "vote_average": 6.6, "title": "Overlord", "release_date": "2018-11-01", "original_language": "en", "original_title": "Overlord", "genre_ids": [27, 878, 10752], "backdrop_path": "/sHNC8hjAu4ZKXYhG3cp8ghRZ02B.jpg", "adult": false, "overview": "France, June 1944. On the eve of D-Day, some American paratroopers fall behind enemy lines after their aircraft crashes while on a mission to destroy a radio tower in a small village near the beaches of Normandy. After reaching their target, the surviving paratroopers realise that, in addition to fighting the Nazi troops that patrol the village, they also must fight against something else.", "poster_path": "/l76Rgp32z2UxjULApxGXAPpYdAP.jpg", "popularity": 21.552}, {"id": 11422, "video": false, "vote_count": 133, "vote_average": 6.5, "title": "Midway", "release_date": "1976-06-18", "original_language": "en", "original_title": "Midway", "genre_ids": [28, 18, 36, 10752], "backdrop_path": "/6jeTEV03QLsjkEomKM6XhjoVJch.jpg", "adult": false, "overview": "This war drama depicts the U.S. and Japanese forces in the naval Battle of Midway, which became a turning point for Americans during World War II.", "poster_path": "/dCUVG2po7DsBvnxfe7WGcJsUn9T.jpg", "popularity": 15.349}, {"id": 637, "video": false, "vote_count": 8083, "vote_average": 8.5, "title": "Life Is Beautiful", "release_date": "1997-12-20", "original_language": "it", "original_title": "La vita \u00e8 bella", "genre_ids": [35, 18], "backdrop_path": "/bORe0eI72D874TMawOOFvqWS6Xe.jpg", "adult": false, "overview": "A touching story of an Italian book seller of Jewish ancestry who lives in his own little fairy tale. His creative and happy life would come to an abrupt halt when his entire family is deported to a concentration camp during World War II. While locked up he tries to convince his son that the whole thing is just a game.", "poster_path": "/f7DImXDebOs148U4uPjI61iDvaK.jpg", "popularity": 23.166}, {"id": 522162, "video": false, "vote_count": 208, "vote_average": 6.7, "title": "Midway", "release_date": "2019-11-06", "original_language": "en", "original_title": "Midway", "genre_ids": [28, 18, 36, 10752], "backdrop_path": "/xjP88DFPCQ81mbZHXFscyYtGskT.jpg", "adult": false, "overview": "MIDWAY centers on the Battle of Midway, a clash between the American fleet and the Imperial Japanese Navy which marked a pivotal turning point in the Pacific Theater during WWII. The film, based on the real-life events of this heroic feat, tells the story of the leaders and soldiers who used their instincts, fortitude and bravery to overcome the odds.", "poster_path": "/hj8pyoNnynGeJTAbl7jcLZO8Uhx.jpg", "popularity": 61.116}, {"id": 423, "video": false, "vote_count": 4650, "vote_average": 8.3, "title": "The Pianist", "release_date": "2002-09-17", "original_language": "en", "original_title": "The Pianist", "genre_ids": [18, 10752], "backdrop_path": "/xUR95VFV1UTyzS1C8Lj06hi2n2M.jpg", "adult": false, "overview": "The true story of pianist W\u0142adys\u0142aw Szpilman's experiences in Warsaw during the Nazi occupation. When the Jews of the city find themselves forced into a ghetto, Szpilman finds work playing in a caf\u00e9; and when his family is deported in 1942, he stays behind, works for a while as a laborer, and eventually goes into hiding in the ruins of the war-torn city.", "poster_path": "/hfMeo073RxKKjZZV4gSGema1yog.jpg", "popularity": 25.546}, {"adult": false, "backdrop_path": "/ljZOlqLtMa6gnTHcYn9y9lP0bK3.jpg", "genre_ids": [53, 36, 18], "id": 528949, "original_language": "es", "original_title": "El fot\u00f3grafo de Mauthausen", "overview": "Spanish photographer Francesc Boix, imprisoned in the Mauthausen-Gusen concentration camp, works in the SS Photographic Service. Between 1943 and 1945, he hides, with the help of other prisoners, thousands of negatives, with the purpose of showing the freed world the atrocities committed by the Nazis, exhaustively documented. He will be a key witness during the Nuremberg Trials.", "poster_path": "/1GzwDodNHSQM7Wu8VIbvTmYXJQB.jpg", "release_date": "2018-10-26", "title": "The Photographer of Mauthausen", "video": false, "vote_average": 7.0, "vote_count": 263, "popularity": 10.595}, {"adult": false, "backdrop_path": "/jLnm1qrsZd2FiC016nOjsgiHsQ2.jpg", "genre_ids": [18, 36], "id": 9045, "original_language": "fr", "original_title": "Amen.", "overview": "Kurt Gerstein\u2014a member of the Institute for Hygiene of the Waffen-SS\u2014is horrified by what he sees in the death camps. he is then shocked to learn that the process he used to purify water for his troops by using Zyklon-B, is now used to kill people in gas chambers.", "poster_path": "/3uaiPsJgagOVWzRsDlH3TKdVHrw.jpg", "release_date": "2002-02-13", "title": "Amen.", "video": false, "vote_average": 7.0, "vote_count": 166, "popularity": 12.082}, {"adult": false, "backdrop_path": "/sn0HQZthLpYamYb8VSPbEAWT4kF.jpg", "genre_ids": [18, 36, 10752], "id": 8741, "original_language": "en", "original_title": "The Thin Red Line", "overview": "Based on the graphic novel by James Jones, The Thin Red Line tells the story of a group of men, an Army Rifle company called C-for-Charlie, who change, suffer, and ultimately make essential discoveries about themselves during the fierce World War II battle of Guadalcanal. It follows their journey, from the surprise of an unopposed landing, through the bloody and exhausting battles that follow, to the ultimate departure of those who survived. A powerful frontline cast - including Sean Penn, Nick Nolte, Woody Harrelson and George Clooney - explodes into action in this hauntingly realistic view of military and moral chaos in the Pacific during World War II.", "poster_path": "/g4ApW90svay7veAPgxU8OsNMEOB.jpg", "release_date": "1998-12-25", "title": "The Thin Red Line", "video": false, "vote_average": 7.4, "vote_count": 1577, "popularity": 19.345}, {"id": 14574, "video": false, "vote_count": 3974, "vote_average": 7.8, "title": "The Boy in the Striped Pyjamas", "release_date": "2008-05-07", "original_language": "en", "original_title": "The Boy in the Striped Pyjamas", "genre_ids": [18, 10752], "backdrop_path": "/tFyhGkJgV6M5zZAjS8SBVqOjzH4.jpg", "adult": false, "overview": "When his family moves from their home in Berlin to a strange new house in Poland, young Bruno befriends Shmuel, a boy who lives on the other side of the fence where everyone seems to be wearing striped pajamas. Unaware of Shmuel's fate as a Jewish prisoner or the role his own Nazi father plays in his imprisonment, Bruno embarks on a dangerous journey inside the camp's walls.", "poster_path": "/f40R9to84FGF7T5bp3KGB84Lklb.jpg", "popularity": 19.131}, {"adult": false, "backdrop_path": "/hNn5koyqFmAXqOE8SzJBuhUmEZo.jpg", "genre_ids": [35, 10752], "id": 8290, "original_language": "fr", "original_title": "La Grande Vadrouille", "overview": "During World War II, two French civilians and a downed British Bomber Crew set out from Paris to cross the demarcation line between Nazi-occupied Northern France and the South. From there they will be able to escape to England. First, they must avoid German troops - and the consequences of their own blunders.", "poster_path": "/nMh6M8kraLZ7Uu4e8u7Vyb2qwg0.jpg", "release_date": "1966-12-07", "title": "Don't Look Now: We're Being Shot At", "video": false, "vote_average": 7.9, "vote_count": 691, "popularity": 18.855}, {"id": 2576, "video": false, "vote_count": 158, "vote_average": 7.2, "title": "The Diary of Anne Frank", "release_date": "1959-03-18", "original_language": "en", "original_title": "The Diary of Anne Frank", "genre_ids": [18, 36], "backdrop_path": "/x7yCQSWXSczdHUMKEMk5qyoUazO.jpg", "adult": false, "overview": "The true, harrowing story of a young Jewish girl who, with her family and their friends, is forced into hiding in an attic in Nazi-occupied Amsterdam.", "poster_path": "/i7kUdUAF9eTxQG7GdR6lKUK96En.jpg", "popularity": 13.374}, {"adult": false, "backdrop_path": "/iMiKWZFILSbzwFWdp30mS1HciT7.jpg", "genre_ids": [28, 18, 10752], "id": 1251, "original_language": "en", "original_title": "Letters from Iwo Jima", "overview": "The story of the battle of Iwo Jima between the United States and Imperial Japan during World War II, as told from the perspective of the Japanese who fought it.", "poster_path": "/nWJJqOryTQOmVXvKUkLcEETUHgT.jpg", "release_date": "2006-12-19", "title": "Letters from Iwo Jima", "video": false, "vote_average": 7.5, "vote_count": 1075, "popularity": 15.861}, {"adult": false, "backdrop_path": "/7QDnuj2T6CCY5wOSnKfYH7cIb6M.jpg", "genre_ids": [18, 35, 10752], "id": 8056, "original_language": "fr", "original_title": "Train de vie", "overview": "In 1941, the inhabitants of a small Jewish village in Central Europe organize a fake deportation train so that they can escape the Nazis and flee to Palestine.", "poster_path": "/anUwgyVrC7kUwN5OliazbC5qBfr.jpg", "release_date": "1998-09-16", "title": "Train of Life", "video": false, "vote_average": 7.5, "vote_count": 150, "popularity": 7.165}, {"id": 821, "video": false, "vote_count": 348, "vote_average": 8.1, "title": "Judgment at Nuremberg", "release_date": "1961-12-01", "original_language": "en", "original_title": "Judgment at Nuremberg", "genre_ids": [18, 36], "backdrop_path": "/g8yVrnJ72eOt1Xw4uyYBIsBBE2g.jpg", "adult": false, "overview": "In 1947, four German judges who served on the bench during the Nazi regime face a military tribunal to answer charges of crimes against humanity. Chief Justice Haywood hears evidence and testimony not only from lead defendant Ernst Janning and his defense attorney Hans Rolfe, but also from the widow of a Nazi general, an idealistic U.S. Army captain and reluctant witness Irene Wallner.", "poster_path": "/iu7VMhBma5S94M3wh0fR8cmwgUf.jpg", "popularity": 10.015}], "total_pages": 109, "total_results": 2179}, "recommendations": {"page": 1, "results": [], "total_pages": 1, "total_results": 0}, "credits": {"cast": [{"cast_id": 27, "character": "Gen. Zhukov", "credit_id": "5b57a4639251416dda039618", "gender": 2, "id": 70548, "name": "Mikhail Ulyanov", "order": 0, "profile_path": "/xibUJScWW7bYpcdKGyI7EplsBcR.jpg"}, {"cast_id": 7, "character": "Gen. Konev", "credit_id": "5998e310c3a3680eed011e0f", "gender": 2, "id": 562603, "name": "Vasiliy Shukshin", "order": 1, "profile_path": "/3Sx1VGqu9lhvA02UUf18O2jmUKu.jpg"}, {"cast_id": 8, "character": "Gen. Panov", "credit_id": "5998e31b9251416396002bb3", "gender": 2, "id": 86894, "name": "Nikolai Rybnikov", "order": 2, "profile_path": "/uKcvVwd4mLQL5dSm25FF5WE3YxG.jpg"}, {"cast_id": 9, "character": "Gen. Antonov", "credit_id": "5998e328c3a3680f4e00f298", "gender": 2, "id": 240487, "name": "Vladislav Strzhelchik", "order": 3, "profile_path": "/2a2LyAyOtaKj4XtXmKZtTPvO3MA.jpg"}, {"cast_id": 14, "character": "Vyacheslav Molotov", "credit_id": "5b5037dac3a368285b008363", "gender": 2, "id": 2087312, "name": "Viktor Baykov", "order": 4, "profile_path": "/7bsTAoxano49RuNMWDieQq6N0E3.jpg"}, {"cast_id": 16, "character": "Gen. Shatilov", "credit_id": "5b57a3d00e0a2673cd03ed3c", "gender": 2, "id": 39793, "name": "Anatoli Romashin", "order": 5, "profile_path": "/v5nBE5S2p8VtbOOTIlTy2xcDXLO.jpg"}, {"cast_id": 17, "character": "Gen. Telegin", "credit_id": "5b57a3e3c3a3685c82042666", "gender": 2, "id": 240544, "name": "Pyotr Shcherbakov", "order": 6, "profile_path": "/x97tg2IGfpcrXdVls9pJrQoPU5U.jpg"}, {"cast_id": 18, "character": "Gen. Chuykov", "credit_id": "5b57a3ee9251416dd603bf2d", "gender": 2, "id": 271129, "name": "Ivan Pereverzev", "order": 7, "profile_path": "/kBuWIGp6uS0WdHbtxIHpSd4RUmx.jpg"}, {"cast_id": 19, "character": "Gen. Rokossovsky", "credit_id": "5b57a3fb0e0a2673d204233f", "gender": 0, "id": 549137, "name": "Vladlen Davydov", "order": 8, "profile_path": "/vdbZaSlOebeaiduiCH5rSAbXe70.jpg"}, {"cast_id": 15, "character": "Josef Stalin", "credit_id": "5b57a3b89251416dda039590", "gender": 0, "id": 2091635, "name": "Bukhuti Zakariadze", "order": 9, "profile_path": "/h216nH9jEJF3feM6wbavpISvDZB.jpg"}, {"cast_id": 4, "character": "Adolf Hitler", "credit_id": "552d1f5f92514103ce0037ac", "gender": 0, "id": 22750, "name": "Fritz Diez", "order": 10, "profile_path": "/tLFZnRQNV5k6EnIIhXJthsWxVN2.jpg"}, {"cast_id": 20, "character": "Gen. Vatutin", "credit_id": "5b57a41b0e0a2673d2042360", "gender": 0, "id": 2069633, "name": "Sergei Kharchenko", "order": 11, "profile_path": null}, {"cast_id": 21, "character": "Gen. Rybalko", "credit_id": "5b57a4240e0a2673dc04132c", "gender": 0, "id": 1398616, "name": "Dmitri Franko", "order": 12, "profile_path": "/r6ifeLwYIJpUfZxtfj5dzHejLpf.jpg"}, {"cast_id": 22, "character": "Gen. Moskalenko", "credit_id": "5b57a436c3a3685c8503d8f1", "gender": 2, "id": 2002932, "name": "Nikolay Rushkovskiy", "order": 13, "profile_path": "/hwLNO6T2FLHD60h038lFNoyAErt.jpg"}, {"cast_id": 23, "character": "Sergeant", "credit_id": "5b57a43f9251416dde038f0f", "gender": 0, "id": 86753, "name": "Georgi Burkov", "order": 14, "profile_path": "/3CaHlqtV3lqMBK65csYdMrpFwmk.jpg"}, {"cast_id": 24, "character": "Zoya", "credit_id": "5b57a4469251416dcc03c92c", "gender": 1, "id": 236854, "name": "Larisa Golubkina", "order": 15, "profile_path": "/fYW7DxQsWH9deP6fTAM4JUc0lHV.jpg"}, {"cast_id": 25, "character": "Yartzev", "credit_id": "5b57a44f9251416dd603bf78", "gender": 0, "id": 549554, "name": "Mikhail Nozhkin", "order": 16, "profile_path": "/zrApOE1Dyp8LYqSXCFjASOjLVyA.jpg"}, {"cast_id": 26, "character": "Tsvetaev", "credit_id": "5b57a459c3a3685c820426b4", "gender": 0, "id": 29842, "name": "Nikolay Olyalin", "order": 17, "profile_path": "/6mtZFpkaqKL55bYPJg45wBJ9hLi.jpg"}, {"cast_id": 38, "character": "", "credit_id": "5b60c1fd0e0a267eeb0049a5", "gender": 2, "id": 2096723, "name": "Valentin Grachev", "order": 18, "profile_path": "/wbGYgvN4NLz3rIlKqHMT5pNDWh6.jpg"}], "crew": [{"credit_id": "5b57a4b09251416dc603cf5b", "department": "Production", "gender": 2, "id": 5398, "job": "Producer", "name": "Dino De Laurentiis", "profile_path": "/l5skcaSr7QLDMOpAahznDjUW9Ec.jpg"}, {"credit_id": "572fbe68c3a3687cc9002276", "department": "Camera", "gender": 2, "id": 994595, "job": "Director of Photography", "name": "Igor Slabnevich", "profile_path": "/6NwXkdcEQ8AQD6MUBvB15zAN37g.jpg"}, {"credit_id": "5998f485c3a368207e016afb", "department": "Directing", "gender": 2, "id": 1024850, "job": "Director", "name": "Yuri Ozerov", "profile_path": "/nPVYoy208QJGlJevRrs28frOn4m.jpg"}, {"credit_id": "5b57a4a69251416dd603bfc3", "department": "Writing", "gender": 2, "id": 1024850, "job": "Writer", "name": "Yuri Ozerov", "profile_path": "/nPVYoy208QJGlJevRrs28frOn4m.jpg"}, {"credit_id": "5b57a5049251416dd603c032", "department": "Directing", "gender": 0, "id": 1072407, "job": "Assistant Director", "name": "Julius Kun", "profile_path": null}, {"credit_id": "5998f82492514125c201c56d", "department": "Writing", "gender": 2, "id": 1131830, "job": "Writer", "name": "Yuri Bondarev", "profile_path": "/jFqpVLPMcGmt7O2kpb73xoWnIiN.jpg"}, {"credit_id": "5b57a49d9251416dd103ac78", "department": "Writing", "gender": 2, "id": 1265510, "job": "Writer", "name": "Oskar Kurganov", "profile_path": null}, {"credit_id": "5b57a4c29251416dcf03dc5f", "department": "Sound", "gender": 2, "id": 1284454, "job": "Original Music Composer", "name": "Yuriy Levitin", "profile_path": "/9zFMXh9MXPsBO6meXtZMXHbCKg3.jpg"}, {"credit_id": "5b57a4dc9251416dcf03dc73", "department": "Art", "gender": 0, "id": 1931850, "job": "Production Design", "name": "Aleksandr Myagkov", "profile_path": null}, {"credit_id": "5b57a4b89251416dc203d249", "department": "Production", "gender": 0, "id": 2091637, "job": "Producer", "name": "Lidija Kanarejkina", "profile_path": null}, {"credit_id": "5b57a4ce9251416dde038f6e", "department": "Editing", "gender": 0, "id": 2091638, "job": "Editor", "name": "Ekaterina Karpova", "profile_path": null}, {"credit_id": "5b57a4e59251416dc203d25b", "department": "Costume & Make-Up", "gender": 0, "id": 2091639, "job": "Costume Design", "name": "Dilyara Ozerova", "profile_path": null}, {"credit_id": "5b57a4f79251416dc203d26a", "department": "Directing", "gender": 0, "id": 2091640, "job": "Assistant Director", "name": "Zbigniew Kociuba", "profile_path": null}]}}