{"adult": false, "backdrop_path": "/6oY8Nf5144PwiZw24ULaGlc8M7s.jpg", "belongs_to_collection": null, "budget": 0, "genres": [{"id": 18, "name": "Drama"}, {"id": 9648, "name": "Mystery"}], "homepage": null, "id": 33623, "imdb_id": "tt0375233", "original_language": "fr", "original_title": "L'Ecole", "overview": "At an unusual private school for girls, new students, including young Iris, show up in coffins. The establishment's teachers, Mademoiselle Eva and Mademoiselle Edith, introduce Iris and her fellow pupils to the school's curriculum, which includes fairy-like dances through a nearby forest. When night falls, the older girls, who are on the threshold of womanhood, are then given mysterious, life-changing lessons.", "popularity": 4.505, "poster_path": "/lkuJby0j2RKu0iADMCqH1Ag5BRW.jpg", "production_companies": [{"id": 3307, "logo_path": "/pz53sy960v3Mf0F5kR35Jg7q0Ta.png", "name": "Ex Nihilo", "origin_country": "FR"}, {"id": 12030, "logo_path": null, "name": "Ateliers de Baere", "origin_country": ""}, {"id": 107357, "logo_path": null, "name": "Bluelight l'Ecole", "origin_country": "GB"}], "production_countries": [{"iso_3166_1": "BE", "name": "Belgium"}, {"iso_3166_1": "FR", "name": "France"}, {"iso_3166_1": "JP", "name": "Japan"}, {"iso_3166_1": "GB", "name": "United Kingdom"}], "release_date": "2004-12-12", "revenue": 0, "runtime": 122, "spoken_languages": [{"iso_639_1": "fr", "name": "Fran\u00e7ais"}], "status": "Released", "tagline": "The end of innocence...the beginning of life.", "title": "Innocence", "video": false, "vote_average": 6.8, "vote_count": 51, "keywords": {"keywords": [{"id": 187056, "name": "woman director"}]}, "similar": {"page": 1, "results": [{"adult": false, "backdrop_path": "/cADbqsIoiDW7X3Myg9nz8eAuno5.jpg", "genre_ids": [18, 10749], "id": 10818, "original_language": "fr", "original_title": "Naissance des pieuvres", "overview": "Set during a sultry summer in a French suburb, Marie is desperate to join the local pool's synchronized swimming team, but is her interest solely for the sake of sport or for a chance to get close to Floriane, the bad girl of the team? Sciamma, and the two leads, capture the uncertainty of teenage sexuality with a sympathetic eye in this delicate drama of the angst of coming-of-age.", "poster_path": "/4jajELYrR4Xmv3CVoKnukRnALa2.jpg", "release_date": "2007-05-17", "title": "Water Lilies", "video": false, "vote_average": 6.1, "vote_count": 119, "popularity": 10.744}, {"adult": false, "backdrop_path": "/gZeJziVigmRqbkEZwKAtSqlLQ6s.jpg", "genre_ids": [18, 10749], "id": 370663, "original_language": "en", "original_title": "Below Her Mouth", "overview": "An unexpected affair quickly escalates into a heart-stopping reality for two women whose passionate connection changes their lives forever.", "poster_path": "/nTGbq37hYLuNy7YgMg0gVLma0NS.jpg", "release_date": "2016-09-10", "title": "Below Her Mouth", "video": false, "vote_average": 6.2, "vote_count": 456, "popularity": 22.676}, {"adult": false, "backdrop_path": "/dvQDRfv3qvfHNnVAR57ouVsuErf.jpg", "genre_ids": [10749, 18], "id": 28031, "original_language": "en", "original_title": "If These Walls Could Talk 2", "overview": "The stories of three lesbian couples -- who live in the same house at different periods of time -- who are at a crossroads in their lives. In 1961, Edith loses her lover, Abby, to a stroke. Linda and Amy struggle with feminist issues in 1972. And, in 2000, Kal and Fran try to have a baby with the help of sperm donor.", "poster_path": "/xs7ODbmYQXCDhvXNvz5tF17T59H.jpg", "release_date": "2000-03-05", "title": "If These Walls Could Talk 2", "video": false, "vote_average": 7.1, "vote_count": 55, "popularity": 8.062}, {"adult": false, "backdrop_path": "/knczzNAjBXzSYkeWxoT1u9VNmjR.jpg", "genre_ids": [10749, 18], "id": 258480, "original_language": "en", "original_title": "Carol", "overview": "In 1950s New York, a department-store clerk who dreams of a better life falls for an older, married woman.", "poster_path": "/AbKa7ANxmui0Jmhh7gV7OSELKIL.jpg", "release_date": "2015-11-20", "title": "Carol", "video": false, "vote_average": 7.4, "vote_count": 2182, "popularity": 14.185}, {"adult": false, "backdrop_path": "/fZ8oFcREAr6wgWcXISGql0xyxjB.jpg", "genre_ids": [35, 18], "id": 39781, "original_language": "en", "original_title": "The Kids Are All Right", "overview": "Two women, Nic and Jules, brought a son and daughter into the world through artificial insemination. When one of their children reaches age, both kids go behind their mothers' backs to meet with the donor. Life becomes so much more interesting when the father, two mothers and children start to become attached to each other.", "poster_path": "/fPDeK4MmoGfi2X0oWZev7LrbMqM.jpg", "release_date": "2010-07-09", "title": "The Kids Are All Right", "video": false, "vote_average": 6.6, "vote_count": 923, "popularity": 12.703}, {"adult": false, "backdrop_path": "/rf6G51j0SZL0tP57I8gnqHTRFEr.jpg", "genre_ids": [35, 18, 10749], "id": 273153, "original_language": "fr", "original_title": "La belle saison", "overview": "In 1971, Carole and Delphine meet and fall in love in Paris. When Carole follows Delphine back to her family farm in Limousin, the two find lesbianism and feminism are not as easy in the countryside.", "poster_path": "/evvAkNMO5VJiy5qIo1Hu7fUfvVI.jpg", "release_date": "2015-08-19", "title": "Summertime", "video": false, "vote_average": 6.6, "vote_count": 162, "popularity": 15.434}, {"adult": false, "backdrop_path": "/s12HEmmkJfI2mjltI61hGm5kubD.jpg", "genre_ids": [35, 18, 10749], "id": 20770, "original_language": "en", "original_title": "But I'm a Cheerleader", "overview": "Megan is an all-American girl. A cheerleader. She has a boyfriend. But Megan doesn't like kissing her boyfriend very much. And she's pretty touchy with her cheerleader friends. Her conservative parents worry that she must be a lesbian and send her off to \"sexual redirection\" school, where she must, with other lesbians and gays learn how to be straight.", "poster_path": "/eDGH7CHSdkrYcuUJV1e0WS9DlQL.jpg", "release_date": "1999-12-09", "title": "But I'm a Cheerleader", "video": false, "vote_average": 6.8, "vote_count": 246, "popularity": 10.067}, {"id": 9813, "video": false, "vote_count": 128, "vote_average": 6.1, "title": "The Quiet", "release_date": "2005-09-12", "original_language": "en", "original_title": "The Quiet", "genre_ids": [18, 53], "backdrop_path": "/6eyWAZA4CEidZW1xXnQ4vlYBXTP.jpg", "adult": false, "overview": "After her widowed father dies, deaf teenager Dot moves in with her godparents, Olivia and Paul Deer. The Deers' daughter, Nina, is openly hostile to Dot, but that does not prevent her from telling her secrets to her silent stepsister, including the fact that she wants to kill her lecherous father.", "poster_path": "/GEqIE9YlmygHVUfS64LW2cwAAM.jpg", "popularity": 13.948}, {"adult": false, "backdrop_path": "/tzqeuHWMFihFbiLGHdalPgAcSf6.jpg", "genre_ids": [18, 10749], "id": 18620, "original_language": "en", "original_title": "Go Fish", "overview": "Max is a trendy, pretty, young lesbian, who is having trouble finding love. A friend sets her up with Ely, whom Max likes, but Ely is frumpy, homely, and older. Nor do they have much in common. Can Max learn to look past the packaging?", "poster_path": "/qrEFYrwykaGsY8NULYuYLLI7zrM.jpg", "release_date": "1994-06-10", "title": "Go Fish", "video": false, "vote_average": 5.0, "vote_count": 11, "popularity": 2.626}, {"adult": false, "backdrop_path": "/6tern9vOEwwmkDYC1vRCuO64z0C.jpg", "genre_ids": [10749, 18], "id": 475888, "original_language": "en", "original_title": "Tell It to the Bees", "overview": "Dr. Jean Markham returns to the town she left as a teenager to take over her late father's medical practice. When a school-yard scuffle lands Charlie in her surgery, she invites him to visit the hives in her garden and tell his secrets to the bees, as she once did. The new friendship between the boy and the bee keeper brings his mother Lydia into Jean's world.", "poster_path": "/Rj6zpHhMU1zFW3v28U4PSRSRgP.jpg", "release_date": "2019-05-03", "title": "Tell It to the Bees", "video": false, "vote_average": 6.4, "vote_count": 53, "popularity": 15.113}, {"adult": false, "backdrop_path": "/baYbbMtKRDoDWYJeVWkbygAvAj8.jpg", "genre_ids": [18, 10749], "id": 31216, "original_language": "en", "original_title": "I Can't Think Straight", "overview": "I CAN'T THINK STRAIGHT is a 2007 romance movie about a London-based Jordanian of Palestinian descent, Tala, who is preparing for an elaborate wedding. A turn of events causes her to have an affair and subsequently fall in love with another woman, Leyla, a British Indian.", "poster_path": "/1kapga6rkM5wNuQBYw7sdE42CrA.jpg", "release_date": "2008-06-01", "title": "I Can't Think Straight", "video": false, "vote_average": 7.6, "vote_count": 109, "popularity": 8.749}, {"adult": false, "backdrop_path": "/lI5h8KaoeObu4NMTwzeRuUHzRwD.jpg", "genre_ids": [18, 9648, 53], "id": 401898, "original_language": "no", "original_title": "Thelma", "overview": "A college student starts to experience extreme seizures. She soon learns that the violent episodes are a symptom of inexplicable abilities.", "poster_path": "/yzSfG8TLAqw7nMQh2lxirQkQpgs.jpg", "release_date": "2017-09-15", "title": "Thelma", "video": false, "vote_average": 7.1, "vote_count": 418, "popularity": 12.235}, {"adult": false, "backdrop_path": "/tIFRPjIXQ3sYrmxbIeOu9K1JkUz.jpg", "genre_ids": [18, 10749], "id": 294, "original_language": "en", "original_title": "Desert Hearts", "overview": "The story of straight-edge literature professor Vivian who travels to Reno to get away from a relationship breakup when she falls in love with an attractive and unconventional girl named Cay.", "poster_path": "/b8JSmQSpYYJhctMtxNgqh0elENg.jpg", "release_date": "1985-10-01", "title": "Desert Hearts", "video": false, "vote_average": 7.3, "vote_count": 58, "popularity": 8.237}, {"id": 2255, "video": false, "vote_count": 772, "vote_average": 6.8, "title": "Chasing Amy", "release_date": "1997-04-04", "original_language": "en", "original_title": "Chasing Amy", "genre_ids": [35, 18, 10749], "backdrop_path": "/doKYVK61Vb8J1KUjlb9dNWkQNp6.jpg", "adult": false, "overview": "Holden and Banky are comic book artists. Everything is going good for them until they meet Alyssa, also a comic book artist. Holden falls for her, but his hopes are crushed when he finds out she's a lesbian.", "poster_path": "/4vFJileWrCGaBeobCmF0tXpQCUb.jpg", "popularity": 11.325}, {"adult": false, "backdrop_path": "/hD8DQM72Xacg1d3mFqS0eN8vKYw.jpg", "genre_ids": [18], "id": 8272, "original_language": "en", "original_title": "The Savages", "overview": "A sister and brother face the realities of familial responsibility as they begin to care for their ailing father.", "poster_path": "/nY54gSmTOmSXlQpWDB7DWp4u8a7.jpg", "release_date": "2007-01-19", "title": "The Savages", "video": false, "vote_average": 6.9, "vote_count": 192, "popularity": 13.094}, {"adult": false, "backdrop_path": "/g3LYarEY9LjB28Ct2trwFN72gqZ.jpg", "genre_ids": [35], "id": 437557, "original_language": "en", "original_title": "Blockers", "overview": "When three parents discover their daughters\u2019 pact to lose their virginity at prom, they launch a covert one-night operation to stop the teens from sealing the deal.", "poster_path": "/uvlUQXg0AlpGzKukO11K7QtW3Yu.jpg", "release_date": "2018-03-14", "title": "Blockers", "video": false, "vote_average": 6.2, "vote_count": 1153, "popularity": 18.075}, {"adult": false, "backdrop_path": "/zBB1mzmqnUuSrlTuf0SFFlI1EoJ.jpg", "genre_ids": [18], "id": 244772, "original_language": "en", "original_title": "The Skeleton Twins", "overview": "Estranged twins Maggie and Milo coincidentally cheat death on the same day, prompting them to reunite and confront the reasons their lives went so wrong. As the twins' reunion reinvigorates them, they realize the key to fixing their lives may just lie in repairing their relationship.", "poster_path": "/vvmv1R2jDXJeeeyYcGg0ypXc2XK.jpg", "release_date": "2014-09-12", "title": "The Skeleton Twins", "video": false, "vote_average": 6.7, "vote_count": 416, "popularity": 9.821}, {"adult": false, "backdrop_path": "/3YGy88nTV2e0wxZcKI1goiEN9oy.jpg", "genre_ids": [18, 10749], "id": 37636, "original_language": "en", "original_title": "High Art", "overview": "A young female intern at a small magazine company becomes involved with a drug-addicted lesbian photographer, both of whom seek to exploit each other for their respective careers, while slowly falling in love with each other.", "poster_path": "/qTg05RNJIvb9w4Z7XIcAZxuZmTn.jpg", "release_date": "1998-06-12", "title": "High Art", "video": false, "vote_average": 6.6, "vote_count": 61, "popularity": 7.27}, {"adult": false, "backdrop_path": "/caLMOD3ZJ3V7qjlxDXrzlJfBLgD.jpg", "genre_ids": [18, 10749], "id": 20, "original_language": "en", "original_title": "My Life Without Me", "overview": "A Pedro Almodovar production in which a fatally ill mother with only two months to live creates a list of things she wants to do before she dies with out telling her family of her illness.", "poster_path": "/vVj92VBFUBzjqzLvBiPVVlJDp78.jpg", "release_date": "2003-03-07", "title": "My Life Without Me", "video": false, "vote_average": 6.1, "vote_count": 220, "popularity": 9.208}, {"adult": false, "backdrop_path": "/useuHJQ5HOoEWkAvEjL1FW1sUfe.jpg", "genre_ids": [18], "id": 376867, "original_language": "en", "original_title": "Moonlight", "overview": "The tender, heartbreaking story of a young man\u2019s struggle to find himself, told across three defining chapters in his life as he experiences the ecstasy, pain, and beauty of falling in love, while grappling with his own sexuality.", "poster_path": "/qAwFbszz0kRyTuXmMeKQZCX3Q2O.jpg", "release_date": "2016-10-21", "title": "Moonlight", "video": false, "vote_average": 7.4, "vote_count": 4406, "popularity": 27.348}], "total_pages": 1446, "total_results": 28907}, "recommendations": {"page": 1, "results": [{"adult": false, "backdrop_path": null, "genre_ids": [18], "id": 175341, "original_language": "de", "original_title": "Hamlet", "overview": "Free adaptation of Shakespeare\u2032s drama: The Danish queen masquerades her daughter as a boy. Thus, the girl lives her whole life as Prince Hamlet. When the King is killed in an assault by Hamlet\u2032s uncle, Hamlet seeks revenge. His friend Horatio, whom Hamlet secretly loves, is the only one who is let in on the revenge plans. When Hamlet is killed in the end Horatio finally finds out that the Prince was a woman.", "poster_path": "/gzIZTaM6cLZ8iYDI72A7P9ntygS.jpg", "release_date": "1921-01-27", "title": "Hamlet", "video": false, "vote_average": 7.0, "vote_count": 6, "popularity": 1.744}, {"adult": false, "backdrop_path": "/huXS8S6aBjJ2c2Szus96kk0RPRH.jpg", "genre_ids": [18], "id": 64557, "original_language": "fr", "original_title": "Le Jeu avec le feu", "overview": "Philippe Noiret plays a rich, Parisian banker whose daughter, Carolina, is kidnapped by a ruthless organization. They threaten to have her abused by the sadistic clients of a brothel they run if Father doesn\u2019t pay the ransom on time.", "poster_path": "/mBHctT8zmMrMXmV5uGYIzypT9ZG.jpg", "release_date": "1975-02-19", "title": "Playing with Fire", "video": false, "vote_average": 6.3, "vote_count": 11, "popularity": 4.108}, {"adult": false, "backdrop_path": null, "genre_ids": [18], "id": 174171, "original_language": "fr", "original_title": "Fi\u00e8vre", "overview": "Militis, a sailor, returns to a bar where he finds Sarah, the girl he once loved and is still attracted to. However, he is now married to an exotic woman who took care of him during an illness. In 2008, a new version of the film was released with the full French intertitles from an original negative.", "poster_path": "/rnoMREbTO6jAQbWBi640dBsDNVR.jpg", "release_date": "1921-01-01", "title": "Fi\u00e8vre", "video": false, "vote_average": 5.7, "vote_count": 3, "popularity": 1.471}, {"adult": false, "backdrop_path": null, "genre_ids": [], "id": 282085, "original_language": "de", "original_title": "Selbstsch\u00fcsse", "overview": "Self shots are the optical Biographie of an unorthodox film producer. Director, cameraman and actor in a person, he directs the camera against itself. It plays with her, throws her into air, races over the meadows, films its movements, his face and his hands and demonstrates thereby its adventurous relationship to a 16 mm camera. Not an action thus, but filming becomes the action. The Godard' Bonmot of filming as ' truth 24 times in the second ' made Mommartz in his films conscious like hardly another. (Wilfried Reichart K\u00f6lner Stadtanz 4.1.68)", "poster_path": "/ivy05G06IVZsNu0T5jNr4xxcnVs.jpg", "release_date": "1967-12-27", "title": "Self Shots", "video": false, "vote_average": 7.7, "vote_count": 3, "popularity": 1.4}, {"adult": false, "backdrop_path": null, "genre_ids": [99], "id": 195561, "original_language": "en", "original_title": "Champs de Mars", "overview": "Shows all the prominent buildings on this thoroughfare, ending with a close view of the base of the Eiffel Tower, with the Trocadero Palace in the background.", "poster_path": "/pl8T81EYCYmWR44fi8fre9rnDuC.jpg", "release_date": "1900-08-21", "title": "Champs de Mars", "video": false, "vote_average": 6.0, "vote_count": 7, "popularity": 1.4}, {"adult": false, "backdrop_path": "/1GdI3327JBUbpnMAqevbs61Qabm.jpg", "genre_ids": [12, 16], "id": 144426, "original_language": "nl", "original_title": "City Paradise", "overview": "A young Japanese woman moves to a new city where she doesn't speak the language. Intimidated by her new home, she seeks out common bonds with people who share her love of diving, but ultimately jumps into a unexpected dream-like experience that opens her eyes to a whole new world.", "poster_path": "/mP4KO4eFtYiJ7UjydG7b2IxLq37.jpg", "release_date": "2004-11-09", "title": "City Paradise", "video": false, "vote_average": 6.6, "vote_count": 10, "popularity": 1.96}, {"adult": false, "backdrop_path": null, "genre_ids": [], "id": 143497, "original_language": "en", "original_title": "The Cut Ups", "overview": "Essentially a dizzying montage of quirky shots of legendary Beat Generation writer William S. Burroughs and noted surrealist artist Brion Gysin, this nearly 20 minute avant-garde short features repeated articulations of such random things as \"Hello,\" \"Where are we now?,\" and \"Look at that picture\" instead of music or standard dialogue. The narrative is decidedly nonlinear and perplexing, with no discernible plot whatsoever as we see images of Gysin working on his paintings and calligraphic designs and Burroughs rummaging through draws, packing a suitcase, giving a young man a physical, making a call in a phone booth, and waiting on a platform for a subway train.", "poster_path": "/twxn9gx0KN8JzBVqLLTQF2rxEja.jpg", "release_date": "1966-01-01", "title": "The Cut Ups", "video": false, "vote_average": 7.4, "vote_count": 5, "popularity": 2.44}, {"adult": false, "backdrop_path": null, "genre_ids": [99], "id": 193270, "original_language": "en", "original_title": "Sean", "overview": "Filmmaker Ralph Arlyck interviews his neighbor, Sean Farrell, a 4-year-old living on San Francisco's Haight Street in 1969. Sean gives his thoughts on life in his home, a hippie crash pad, and casually mentions that he smokes pot, which caused this short film to become a national sensation.", "poster_path": "/AmWTg0w2CU3XwEQ8vtKtTDEWgsK.jpg", "release_date": "1970-02-25", "title": "Sean", "video": false, "vote_average": 8.0, "vote_count": 4, "popularity": 1.862}, {"adult": false, "backdrop_path": "/mxgmxXvqEFWBJ8yH4LgAxO6xafW.jpg", "genre_ids": [18, 10749], "id": 136842, "original_language": "en", "original_title": "Amarilly of Clothes-Line Alley", "overview": "Amarilly comes from a large family in a working-class neighborhood. She is happy with her family and her boyfriend Terry, a bartender in a cafe. But one day she meets Gordon, a sculptor who comes from a rich family, and she begins to be drawn into the world of the upper class.", "poster_path": "/3sIltqBU2AWP6op6Z64n5ovFpoJ.jpg", "release_date": "1918-03-10", "title": "Amarilly of Clothes-Line Alley", "video": false, "vote_average": 5.3, "vote_count": 8, "popularity": 1.686}, {"adult": false, "backdrop_path": null, "genre_ids": [99], "id": 48869, "original_language": "it", "original_title": "Le mura di Sana'a", "overview": "The capital of Yemen, the city of Sana'a, holds an important part of history within its walls filled with medieval architecture and culture. But that same culture was about to disappear with the country's modernization which came after the civil war in the 1960's. To impeach such modern invasion, director Pasolini pledges to UNESCO for the recognition of Sana'a as a World Heritage Site.", "poster_path": "/ocNnhvSSxX0QIv4sTQnE4Xg60J.jpg", "release_date": "1971-02-15", "title": "The Walls of Sana'a", "video": false, "vote_average": 6.4, "vote_count": 7, "popularity": 1.42}, {"adult": false, "backdrop_path": "/nntxHWQYDzydZS6IeqNDnS9znGq.jpg", "genre_ids": [35], "id": 178380, "original_language": "en", "original_title": "Strikes and Spares", "overview": "This short features professional bowler Andy Varipapa. He first shows the correct way to grip a bowling ball and the proper form for delivering the ball down the alley. He then performs several trick shots.", "poster_path": "/hXyx3FyaiEAQxgO4XaB8Bx4faAd.jpg", "release_date": "1934-10-20", "title": "Strikes and Spares", "video": false, "vote_average": 5.7, "vote_count": 6, "popularity": 3.404}, {"adult": false, "backdrop_path": "/cwu7siAH2mY5aCFoEmCN298tjG9.jpg", "genre_ids": [99], "id": 80049, "original_language": "fr", "original_title": "Ceux de chez-nous", "overview": "", "poster_path": "/wpZZ1sgOXiOTHBBgFGhYpljO4aX.jpg", "release_date": "1915-11-22", "title": "Those of Our Land", "video": false, "vote_average": 6.0, "vote_count": 4, "popularity": 0.803}, {"adult": false, "backdrop_path": "/yOz5EI6r6BkjqymMhTXuczjFrge.jpg", "genre_ids": [35], "id": 5899, "original_language": "nl", "original_title": "De noorderlingen", "overview": "A black comedy set in the 1960s in a small Netherlands community, populated by a cast of eccentrics, all of whom hold a range of sexual obsessions and frustrated desires.", "poster_path": "/qo4wJok9ZqPBppYZSZyc5vFAcDp.jpg", "release_date": "1992-04-17", "title": "The Northerners", "video": false, "vote_average": 7.2, "vote_count": 22, "popularity": 2.002}, {"id": 46136, "video": false, "vote_count": 7, "vote_average": 6.0, "title": "The Blank Generation", "release_date": "1976-01-13", "original_language": "en", "original_title": "The Blank Generation", "genre_ids": [99, 10402], "backdrop_path": null, "adult": false, "overview": "The cream of New York new wave/punk filmed live at CBGB's when the scene was just beginning. Includes performances by Patti Smith, Blondie, Television, the Ramones, Talking Heads, the Heartbreakers, the Shirts, Wayne County, the Marbles, the Dolls, Miamis, Harry Toledo, and the Tuff Darts (w/Robert Gordon).", "poster_path": "/c9gBcyjOeDCXT2wVe9tmXzDxfA.jpg", "popularity": 2.213}, {"adult": false, "backdrop_path": null, "genre_ids": [16], "id": 105716, "original_language": "de", "original_title": "Rhythmus 23", "overview": "We watch white shapes dancing on black background, which changes when the white shape fills up the screen completely, and black lines and figures bounce around on the now white background.", "poster_path": "/tf7ZUlRj2sqqxbBgKICnYWESKTi.jpg", "release_date": "1925-05-09", "title": "Rhythm 23", "video": false, "vote_average": 5.3, "vote_count": 8, "popularity": 1.023}, {"adult": false, "backdrop_path": null, "genre_ids": [35], "id": 119451, "original_language": "cs", "original_title": "Sb\u011brn\u00e9 surovosti", "overview": "Juraj Herz adapts Bohumil Hrabal's story about a man who works in a junk shop.", "poster_path": null, "release_date": "1965-09-01", "title": "The Junk Shop", "video": false, "vote_average": 6.8, "vote_count": 6, "popularity": 1.405}, {"id": 224138, "video": false, "vote_count": 7, "vote_average": 3.4, "title": "Sodoma", "release_date": "1970-09-20", "original_language": "de", "original_title": "Sodoma", "genre_ids": [18], "backdrop_path": null, "adult": false, "overview": "The Austrian avant-gardist Otto Muehl may well be the most scandalous filmmaker to ever work in cinema, and Sodoma stands as his most famous work. This creation takes the experiments a bit further down the road.", "poster_path": "/qO7HSJngwq0HcTQ4ZnU5Lgi4k2A.jpg", "popularity": 0.838}, {"adult": false, "backdrop_path": "/iGp2Ii3iarLv4O41NUuvEw5GqCN.jpg", "genre_ids": [28, 80, 18], "id": 56800, "original_language": "fr", "original_title": "Judex", "overview": "Georges Franju's Judex is an arch, playful tribute to the serials of the influential silent filmmaker Louis Feuillade. Franju shuffles through the plot of Feuillade's lengthy serial of the same name, about an adventurer named Judex (Channing Pollock) whose revenge against the corrupt banker Favraux (Michel Vitold) unleashes a complicated series of schemes.", "poster_path": "/85XXBxxyD6VtsGD2pXxK2Bqx4Ts.jpg", "release_date": "1963-12-04", "title": "Judex", "video": false, "vote_average": 7.1, "vote_count": 34, "popularity": 5.377}, {"adult": false, "backdrop_path": null, "genre_ids": [], "id": 147911, "original_language": "en", "original_title": "Bottoms", "overview": "This film consists entirely of close ups of famous persons' bottoms. Ono meant it to encourage a dialogue for world peace.", "poster_path": "/6jhnhIK8yRFEV5VCQTJiSKpWBMv.jpg", "release_date": "1966-02-06", "title": "Bottoms", "video": false, "vote_average": 2.9, "vote_count": 12, "popularity": 1.696}, {"adult": false, "backdrop_path": null, "genre_ids": [18], "id": 151085, "original_language": "en", "original_title": "Hypocrites", "overview": "The story of St. Gabriel, who was killed by an ignorant mob for making a nude statue representing Purity, who is also represented by a ghostly naked girl that flits through the film.", "poster_path": "/3FNPov2tGCcjGtSO13ncXRAyXCG.jpg", "release_date": "1915-01-20", "title": "Hypocrites", "video": false, "vote_average": 6.2, "vote_count": 10, "popularity": 1.761}], "total_pages": 2, "total_results": 40}, "credits": {"cast": [{"cast_id": 5, "character": "Iris", "credit_id": "52fe452a9251416c91029949", "gender": 0, "id": 427932, "name": "Zo\u00e9 Auclair", "order": 0, "profile_path": null}, {"cast_id": 6, "character": "Alice", "credit_id": "52fe452a9251416c9102994d", "gender": 0, "id": 427934, "name": "Lea Bridarolli", "order": 1, "profile_path": null}, {"cast_id": 7, "character": "Bianca", "credit_id": "52fe452a9251416c91029951", "gender": 0, "id": 427933, "name": "B\u00e9rang\u00e8re Haubruge", "order": 2, "profile_path": null}, {"cast_id": 8, "character": "Mademoiselle Eva", "credit_id": "52fe452a9251416c91029955", "gender": 1, "id": 8293, "name": "Marion Cotillard", "order": 3, "profile_path": "/qQZ6OuZxVjAamMy0lXnkI5oIEzs.jpg"}, {"cast_id": 9, "character": "Mademoiselle Edith", "credit_id": "52fe452a9251416c91029959", "gender": 1, "id": 76827, "name": "H\u00e9l\u00e8ne de Fougerolles", "order": 4, "profile_path": "/5RhDNtaVgt4ZVeHhrHsUgc4AoIg.jpg"}, {"cast_id": 10, "character": "Laura", "credit_id": "52fe452a9251416c9102995d", "gender": 0, "id": 582054, "name": "Olga Peytavi-M\u00fcller", "order": 5, "profile_path": null}, {"cast_id": 11, "character": "Selma", "credit_id": "52fe452a9251416c91029961", "gender": 0, "id": 582055, "name": "Alisson Lalieux", "order": 6, "profile_path": null}, {"cast_id": 12, "character": "Nadja", "credit_id": "52fe452a9251416c91029965", "gender": 0, "id": 582056, "name": "Anna Palomo-D\u00edaz", "order": 7, "profile_path": null}, {"cast_id": 13, "character": "Rose", "credit_id": "52fe452a9251416c91029969", "gender": 0, "id": 582057, "name": "Astrid Homme", "order": 8, "profile_path": null}, {"cast_id": 14, "character": "Vera", "credit_id": "52fe452a9251416c9102996d", "gender": 0, "id": 582058, "name": "Jos\u00e9phine Van Wambeke", "order": 9, "profile_path": null}], "crew": [{"credit_id": "52fe452a9251416c9102993f", "department": "Writing", "gender": 2, "id": 13900, "job": "Novel", "name": "Frank Wedekind", "profile_path": "/cSVThPeqydbbC92oJr3NyNwoD5y.jpg"}, {"credit_id": "52fe452a9251416c91029973", "department": "Camera", "gender": 0, "id": 14599, "job": "Director of Photography", "name": "Beno\u00eet Debie", "profile_path": "/6lMhfHVpq2PsvROZ4nCsQgrFyhN.jpg"}, {"credit_id": "52fe452a9251416c91029985", "department": "Art", "gender": 0, "id": 16338, "job": "Art Direction", "name": "Pierre Duboisberranger", "profile_path": null}, {"credit_id": "52fe452a9251416c91029933", "department": "Directing", "gender": 1, "id": 17627, "job": "Director", "name": "Lucile Had\u017eihalilovi\u0107", "profile_path": "/gjtaiZBCY88wH6RuX51aboQeJ2Q.jpg"}, {"credit_id": "52fe452a9251416c91029939", "department": "Writing", "gender": 1, "id": 17627, "job": "Writer", "name": "Lucile Had\u017eihalilovi\u0107", "profile_path": "/gjtaiZBCY88wH6RuX51aboQeJ2Q.jpg"}, {"credit_id": "52fe452a9251416c91029979", "department": "Production", "gender": 0, "id": 45148, "job": "Casting", "name": "Patrick Hella", "profile_path": null}, {"credit_id": "52fe452a9251416c91029945", "department": "Editing", "gender": 0, "id": 111082, "job": "Editor", "name": "Adam Finch", "profile_path": null}, {"credit_id": "52fe452a9251416c9102997f", "department": "Art", "gender": 2, "id": 1098178, "job": "Production Design", "name": "Arnaud de Moleron", "profile_path": null}, {"credit_id": "52fe452a9251416c9102998b", "department": "Costume & Make-Up", "gender": 0, "id": 1148682, "job": "Costume Design", "name": "Laurence Benoit", "profile_path": null}]}}