{"adult": false, "backdrop_path": "/bj1T0gPwcx9aBz77rObMkCH5mUm.jpg", "belongs_to_collection": null, "budget": 0, "genres": [{"id": 99, "name": "Documentary"}], "homepage": "http://www.gamessound.com/", "id": 338679, "imdb_id": "tt5371622", "original_language": "en", "original_title": "Beep: A Documentary History of Game Sound", "overview": "A documentary of game sound from the Victorian arcades through to today, with a special focus on video game sound, but also including mechanical games and pinball. Beep is a feature film, but also a series of webisodes and DVD extras, a book, and a collection of resources found on the Beep website.", "popularity": 1.795, "poster_path": "/px6yUISNKaPRWXt2eaavEW2zq51.jpg", "production_companies": [], "production_countries": [], "release_date": "2016-04-04", "revenue": 0, "runtime": 115, "spoken_languages": [], "status": "Released", "tagline": "", "title": "Beep: A Documentary History of Game Sound", "video": false, "vote_average": 5.0, "vote_count": 3, "keywords": {"keywords": [{"id": 282, "name": "video game"}]}, "similar": {"page": 1, "results": [{"id": 333339, "video": false, "vote_count": 8278, "vote_average": 7.6, "title": "Ready Player One", "release_date": "2018-03-28", "original_language": "en", "original_title": "Ready Player One", "genre_ids": [12, 878], "backdrop_path": "/q7fXcrDPJcf6t3rzutaNwTzuKP1.jpg", "adult": false, "overview": "When the creator of a popular video game system dies, a virtual contest is created to compete for his fortune.", "poster_path": "/pU1ULUq8D3iRxl1fdX2lZIzdHuI.jpg", "popularity": 33.77}, {"id": 97, "video": false, "vote_count": 1217, "vote_average": 6.6, "title": "Tron", "release_date": "1982-07-09", "original_language": "en", "original_title": "Tron", "genre_ids": [28, 12, 878], "backdrop_path": "/owAF2FmDO0UnniCbMpCjN8VcFgA.jpg", "adult": false, "overview": "As Kevin Flynn searches for proof that he invented a hit video game, he is 'digitalized' by a laser and finds himself inside 'The Grid', where programs suffer under the tyrannical rule of the Master Control Program (MCP). With the help of a security program called 'TRON\", Flynn seeks to free The Grid from the MCP.", "poster_path": "/cTF8lpXvAwT1SLH9kVFZZl0AO0D.jpg", "popularity": 25.823}, {"id": 353486, "video": false, "vote_count": 8369, "vote_average": 6.7, "title": "Jumanji: Welcome to the Jungle", "release_date": "2017-12-09", "original_language": "en", "original_title": "Jumanji: Welcome to the Jungle", "genre_ids": [28, 12, 35, 14], "backdrop_path": "/rz3TAyd5kmiJmozp3GUbYeB5Kep.jpg", "adult": false, "overview": "The tables are turned as four teenagers are sucked into Jumanji's world - pitted against rhinos, black mambas and an endless variety of jungle traps and puzzles. To survive, they'll play as characters from the game.", "poster_path": "/22hqf97LadMvkd4zDi3Bq25xSqD.jpg", "popularity": 32.707}, {"id": 82690, "video": false, "vote_count": 8488, "vote_average": 7.3, "title": "Wreck-It Ralph", "release_date": "2012-11-01", "original_language": "en", "original_title": "Wreck-It Ralph", "genre_ids": [12, 16, 35, 10751], "backdrop_path": "/1LbX3KV6qv6NoH4zKLGM7Sgtwmg.jpg", "adult": false, "overview": "Wreck-It Ralph is the 9-foot-tall, 643-pound villain of an arcade video game named Fix-It Felix Jr., in which the game's titular hero fixes buildings that Ralph destroys. Wanting to prove he can be a good guy and not just a villain, Ralph escapes his game and lands in Hero's Duty, a first-person shooter where he helps the game's hero battle against alien invaders. He later enters Sugar Rush, a kart racing game set on tracks made of candies, cookies and other sweets. There, Ralph meets Vanellope von Schweetz who has learned that her game is faced with a dire threat that could affect the entire arcade, and one that Ralph may have inadvertently started.", "poster_path": "/j8M1kHBAXa6KFNzGnWtdsVsLUro.jpg", "popularity": 30.267}, {"adult": false, "backdrop_path": "/5SX2rgKXZ7NVmAJR5z5LprqSXKa.jpg", "genre_ids": [28, 12, 14], "id": 68735, "original_language": "en", "original_title": "Warcraft", "overview": "The peaceful realm of Azeroth stands on the brink of war as its civilization faces a fearsome race of invaders: orc warriors fleeing their dying home to colonize another. As a portal opens to connect the two worlds, one army faces destruction and the other faces extinction. From opposing sides, two heroes are set on a collision course that will decide the fate of their family, their people, and their home.", "poster_path": "/ckrTPz6FZ35L5ybjqvkLWzzSLO7.jpg", "release_date": "2016-05-25", "title": "Warcraft", "video": false, "vote_average": 6.3, "vote_count": 4439, "popularity": 18.932}, {"adult": false, "backdrop_path": "/giwHyGSqtpY9nMBwdAa8DOIk9IU.jpg", "genre_ids": [28, 35, 878], "id": 257344, "original_language": "en", "original_title": "Pixels", "overview": "Video game experts are recruited by the military to fight 1980s-era video game characters who've attacked New York.", "poster_path": "/ktyVmIqfoaJ8w0gDSZyjhhOPpD6.jpg", "release_date": "2015-07-16", "title": "Pixels", "video": false, "vote_average": 5.6, "vote_count": 4832, "popularity": 35.68}, {"id": 36670, "video": false, "vote_count": 696, "vote_average": 6.1, "title": "Never Say Never Again", "release_date": "1983-10-07", "original_language": "en", "original_title": "Never Say Never Again", "genre_ids": [28, 12, 53], "backdrop_path": "/jYO08KXUKvJvzx3KcE7MoaDYvoM.jpg", "adult": false, "overview": "James Bond returns as the secret agent 007 one more time to battle the evil organization SPECTRE. Bond must defeat Largo, who has stolen two atomic warheads for nuclear blackmail. But Bond has an ally in Largo's girlfriend, the willowy Domino, who falls for Bond and seeks revenge. This is the last time for Sean Connery as Her Majesty's Secret Agent 007. Made outside of the traditional Broccoli production environment due to separate rights having been obtained for this specific Ian Fleming story.", "poster_path": "/s9tBlhTEW0OtYJdemVMPbRcD7wk.jpg", "popularity": 23.883}, {"adult": false, "backdrop_path": "/jutetQGSU0ttiskMNKvQUSd0PSB.jpg", "genre_ids": [35, 80], "id": 11546, "original_language": "en", "original_title": "Police Academy: Mission to Moscow", "overview": "The Russians need help in dealing with the Mafia and so they seek help with the veterans of the Police Academy. They head off to Moscow, in order to find evidence against Konstantin Konali, who marketed a computer game that everyone in the world is playing.", "poster_path": "/mpUOqZcs7VVg9LrVPRZKAGPiTT2.jpg", "release_date": "1994-06-09", "title": "Police Academy: Mission to Moscow", "video": false, "vote_average": 4.4, "vote_count": 434, "popularity": 11.692}, {"id": 404368, "video": false, "vote_count": 3635, "vote_average": 7.2, "title": "Ralph Breaks the Internet", "release_date": "2018-11-20", "original_language": "en", "original_title": "Ralph Breaks the Internet", "genre_ids": [12, 16, 35, 10751], "backdrop_path": "/88poTBTafMXaz73vYi3c74g0y2k.jpg", "adult": false, "overview": "Video game bad guy Ralph and fellow misfit Vanellope von Schweetz must risk it all by traveling to the World Wide Web in search of a replacement part to save Vanellope's video game, \"Sugar Rush.\" In way over their heads, Ralph and Vanellope rely on the citizens of the internet -- the netizens -- to help navigate their way, including an entrepreneur named Yesss, who is the head algorithm and the heart and soul of trend-making site BuzzzTube.", "poster_path": "/qEnH5meR381iMpmCumAIMswcQw2.jpg", "popularity": 41.93}, {"adult": false, "backdrop_path": "/z3lw2NBdxhh2vfhDkZpHkAa0Tm8.jpg", "genre_ids": [36, 99, 16], "id": 269100, "original_language": "en", "original_title": "Video Games: The Movie", "overview": "From executive producer Zach Braff and director Jeremy Snead, \"Video Games: The Movie\" is an epic feature length documentary chronicling the meteoric rise of video games from nerd niche to multi-billion dollar industry. Narrated by Sean Astin and featuring in-depth interviews with the godfathers who started it all, the icons of game design, and the geek gurus who are leading us into the future, \"Video Games: The Movie\" is a celebration of gaming from Atari to Xbox and an eye-opening look at what lies ahead.", "poster_path": "/s9Stx607lgk8PrXT15U2x7dfOfL.jpg", "release_date": "2014-07-18", "title": "Video Games: The Movie", "video": false, "vote_average": 6.0, "vote_count": 120, "popularity": 11.199}, {"id": 15601, "video": false, "vote_count": 195, "vote_average": 7.2, "title": "Scooby-Doo! and the Cyber Chase", "release_date": "2001-10-09", "original_language": "en", "original_title": "Scooby-Doo! and the Cyber Chase", "genre_ids": [12, 16, 35, 9648, 878, 10751], "backdrop_path": "/6CDXFSXGYscK9IrTPGYmC4dX0wV.jpg", "adult": false, "overview": "When Scooby and the gang get trapped in a video game created for them, they must fight against the 'Phantom Virus.' To escape the game they must go level by level and defeat the game once and for all.", "poster_path": "/poAzQ1fRYTsTDYYKuQBXCrP28qG.jpg", "popularity": 11.298}, {"adult": false, "backdrop_path": "/tmsddF6G7vIbJ2Lg6DZDVbnhBxs.jpg", "genre_ids": [878, 9648, 18, 53, 10770], "id": 569547, "original_language": "en", "original_title": "Black Mirror: Bandersnatch", "overview": "In 1984, a young programmer begins to question reality as he adapts a dark fantasy novel into a video game. A mind-bending tale with multiple endings.", "poster_path": "/fR0VZ0VE598zl1lrYf7IfBqEwQ2.jpg", "release_date": "2018-12-28", "title": "Black Mirror: Bandersnatch", "video": false, "vote_average": 6.9, "vote_count": 2383, "popularity": 11.39}, {"adult": false, "backdrop_path": "/bmuTrxbPcr1nKCsV5YWWJi73PGR.jpg", "genre_ids": [28, 12, 35, 10751, 878], "id": 12279, "original_language": "en", "original_title": "Spy Kids 3-D: Game Over", "overview": "Carmen's caught in a virtual reality game designed by the Kids' new nemesis, the Toymaker. It's up to Juni to save his sister, and ultimately the world.", "poster_path": "/tethGDyocmatW6Li1NcUBXQo6Oo.jpg", "release_date": "2003-07-25", "title": "Spy Kids 3-D: Game Over", "video": false, "vote_average": 5.0, "vote_count": 1268, "popularity": 14.384}, {"id": 1946, "video": false, "vote_count": 997, "vote_average": 6.9, "title": "eXistenZ", "release_date": "1999-04-14", "original_language": "en", "original_title": "eXistenZ", "genre_ids": [28, 27, 878, 53], "backdrop_path": "/wm8EYTqV7NPgpT0hEHBzN2QruqL.jpg", "adult": false, "overview": "A game designer on the run from assassins must play her latest virtual reality creation with a marketing trainee to determine if the game has been damaged.", "poster_path": "/vUw1gHtx30dpQlzAC0zEJAOa5CX.jpg", "popularity": 13.434}, {"id": 435366, "video": false, "vote_count": 92, "vote_average": 7.2, "title": "Fabricated City", "release_date": "2017-02-09", "original_language": "ko", "original_title": "\uc870\uc791\ub41c \ub3c4\uc2dc", "genre_ids": [28], "backdrop_path": "/cNnb2gQ7lEoGFKoaYx2KtBuKnG9.jpg", "adult": false, "overview": "In real life, Kwon Yoo is unemployed, but in the virtual game world he is the best leader. Kwon Yoo is then framed for a murder. With the help of hacker Yeo-Wool, he tries to uncover the truth behind the murder case.", "poster_path": "/8tE4MhhuWHize6pNyxAtakUyNZc.jpg", "popularity": 10.882}, {"adult": false, "backdrop_path": "/AkwLeC0Q8GIkYJ6ZI0tc0118AY6.jpg", "genre_ids": [53, 878], "id": 860, "original_language": "en", "original_title": "WarGames", "overview": "High School student David Lightman (Matthew Broderick) has a talent for hacking. But while trying to hack into a computer system to play unreleased video games, he unwittingly taps into the Defense Department's war computer and initiates a confrontation of global proportions! Together with his girlfriend (Ally Sheedy) and a wizardly computer genius (John Wood), David must race against time to outwit his opponent...and prevent a nuclear Armageddon.", "poster_path": "/rQocmooj7bFKS2vZfzWBB5O12eR.jpg", "release_date": "1983-06-03", "title": "WarGames", "video": false, "vote_average": 7.1, "vote_count": 945, "popularity": 14.853}, {"id": 9980, "video": false, "vote_count": 321, "vote_average": 5.5, "title": "Maximum Overdrive", "release_date": "1986-07-25", "original_language": "en", "original_title": "Maximum Overdrive", "genre_ids": [28, 35, 27, 878], "backdrop_path": "/j9ROmwHHL3SlZOBgdHAQGeFtWXd.jpg", "adult": false, "overview": "When a comet passes close to the earth, machines all over the world come alive and go on homicidal rampages. A group of people at a desolate truck stop are held hostage by a gang of homicidal 18-wheelers. The frightened people set out to defeat the killer machines ... or be killed by them.", "poster_path": "/cFrKCumtZMHCWwWNxgGRyaxhYu2.jpg", "popularity": 8.522}, {"adult": false, "backdrop_path": "/lpRqMiDCHEXcr7akOauls367NsN.jpg", "genre_ids": [18, 53], "id": 337674, "original_language": "fr", "original_title": "Elle", "overview": "When Mich\u00e8le, the CEO of a gaming software company, is attacked in her home by an unknown assailant, she refuses to let it alter her precisely ordered life. She manages crises involving family, all the while becoming engaged in a game of cat and mouse with her stalker.", "poster_path": "/mJut6zysg2tQftY3Qoj21bk2Eqo.jpg", "release_date": "2016-05-25", "title": "Elle", "video": false, "vote_average": 6.7, "vote_count": 1118, "popularity": 14.191}, {"id": 14237, "video": false, "vote_count": 112, "vote_average": 6.1, "title": "Brainscan", "release_date": "1994-04-22", "original_language": "en", "original_title": "Brainscan", "genre_ids": [27], "backdrop_path": "/45GJlmIa386ZE2TDtgv1IKG2Lg.jpg", "adult": false, "overview": "A lonely teenage horror-movie fan discovers a mysterious computer game that uses hypnosis to custom-tailor the game into the most terrifying experience imaginable. When he emerges from the hypnotic trance he is horrified to find evidence that the brutal murder depicted in the game actually happened -- and he's the killer.", "poster_path": "/5JqamPZC7W5rzRNweMGhqltcsIV.jpg", "popularity": 8.366}, {"id": 9900, "video": false, "vote_count": 373, "vote_average": 6.8, "title": "Grandma's Boy", "release_date": "2006-01-06", "original_language": "en", "original_title": "Grandma's Boy", "genre_ids": [35], "backdrop_path": "/mQDsTjzdyxTfJSe1I4MGTG45JsL.jpg", "adult": false, "overview": "Even though he's 35, Alex acts more like he's 13, spending his days as the world's oldest video game tester and his evenings developing the next big Xbox game. But he gets kicked out of his apartment and is forced to move in with his grandmother.", "poster_path": "/9Z0Q9uIH4il75dfPVqFhVKljfY.jpg", "popularity": 10.738}], "total_pages": 16, "total_results": 306}, "recommendations": {"page": 1, "results": [], "total_pages": 1, "total_results": 0}, "credits": {"cast": [{"cast_id": 1, "character": "Himself", "credit_id": "5c5f3b64925141337cbe6e65", "gender": 0, "id": 2238552, "name": "Allister Brimble", "order": 1, "profile_path": null}, {"cast_id": 2, "character": "Himself", "credit_id": "5c5f3b7092514150c2bdb761", "gender": 2, "id": 1812298, "name": "Chris H\u00fclsbeck", "order": 2, "profile_path": null}, {"cast_id": 3, "character": "Himself", "credit_id": "5c5f3b840e0a261deb6a9de7", "gender": 0, "id": 1781467, "name": "Alexander Brandon", "order": 3, "profile_path": null}, {"cast_id": 4, "character": "Herself", "credit_id": "5c5f3ba29251413254b96697", "gender": 0, "id": 2238553, "name": "Yoshino Aoki", "order": 4, "profile_path": null}, {"cast_id": 5, "character": "Himself", "credit_id": "5c5f3bbc9251413381bea0d7", "gender": 0, "id": 2028388, "name": "Jason Graves", "order": 5, "profile_path": null}, {"cast_id": 6, "character": "Himself", "credit_id": "5c5f3bcb0e0a264d6f69cc40", "gender": 0, "id": 2238554, "name": "Shinji Hosoe", "order": 6, "profile_path": null}, {"cast_id": 7, "character": "Himself", "credit_id": "5c5f3bd49251413376be78e9", "gender": 0, "id": 2238555, "name": "Noriyuki Iwadare", "order": 7, "profile_path": null}, {"cast_id": 8, "character": "Himself", "credit_id": "5c5f3be1c3a3683cd58e5caa", "gender": 0, "id": 1168280, "name": "Hiroki Kikuta", "order": 8, "profile_path": null}, {"cast_id": 9, "character": "Himself", "credit_id": "5c5f3beec3a3684d8d8c6a9a", "gender": 0, "id": 2199544, "name": "Koichi Namiki", "order": 9, "profile_path": null}, {"cast_id": 10, "character": "Himself", "credit_id": "5c5f3c01c3a3683a468e1635", "gender": 0, "id": 9665, "name": "Nobuo Uematsu", "order": 10, "profile_path": "/4xrgRKSbXYegIEltOmMJ1lzUS3O.jpg"}], "crew": [{"credit_id": "58088469c3a36872d6005889", "department": "Directing", "gender": 0, "id": 1697040, "job": "Director", "name": "Karen Collins", "profile_path": null}]}}